{"items":[{"id":"item-2651f20ed12e","sku":"_dBmBmmncibstuOfYQnDgXoQA9XhUqHQoefbAcvw","name_en":"Bookplate Twilly small scarf, the navy blue colorway looks so good. Elegant and generous, gentle. Tying it in hair or around the neck is absolutely stunning.","name_cn":"Bookplate Twilly small scarf, the navy blue colorway looks so good. Elegant and generous, gentle. Tying it in hair or around the neck is absolutely stunning.","specs":{"source":"wsxcme","sourceId":"_dBmBmmncibstuOfYQnDgXoQA9XhUqHQoefbAcvw","sourceTagId":76963559,"sourceTagName":"Hermes/women's bag","rawTitle":"Bookplate Twilly small scarf, the navy blue colorway looks so good. Elegant and generous, gentle. Tying it in hair or around the neck is absolutely stunning."},"price":null,"currency":"CNY","moq":1,"category":"hermes-women-bags","status":"active","alibaba_url":null,"images":["https://xcimg.szwego.com/img/3d6d0be4/20231215/i1702622734_3757_0.jpg","https://xcimg.szwego.com/img/3d6d0be4/20231215/i1702622735_6997_0.jpg","https://xcimg.szwego.com/img/3d6d0be4/20231215/i1702622735_4531_0.jpg","https://xcimg.szwego.com/img/3d6d0be4/20231215/i1702622735_2766_0.jpg"],"created_at":"2024-10-22T05:00:12.172Z"},{"id":"item-fd309ff1a7d1","sku":"_du9u9vrQg-UCmHG5FPlBv-w3OZW6FK9WY8GohDg","name_en":"🐎Birkin 25cm Epsom leather Hand-stitched with waxed thread [Peacock Green]","name_cn":"🐎Birkin 25cm Epsom leather Hand-stitched with waxed thread [Peacock Green]","specs":{"source":"wsxcme","sourceId":"_du9u9vrQg-UCmHG5FPlBv-w3OZW6FK9WY8GohDg","sourceTagId":76963559,"sourceTagName":"Hermes/women's bag","rawTitle":"🐎Birkin 25cm Epsom leather Hand-stitched with waxed thread [Peacock Green]"},"price":null,"currency":"CNY","moq":1,"category":"hermes-women-bags","status":"active","alibaba_url":null,"images":["https://xcimg.szwego.com/20240731/i1722406375_634_0.jpg","https://xcimg.szwego.com/20240731/i1722406375_285_1.jpg","https://xcimg.szwego.com/20240731/i1722406375_191_2.jpg","https://xcimg.szwego.com/20240731/i1722406375_9748_3.jpg","https://xcimg.szwego.com/20240731/i1722406375_7943_4.jpg","https://xcimg.szwego.com/20240731/i1722406375_4684_5.jpg","https://xcimg.szwego.com/20240731/i1722406375_9785_6.jpg","https://xcimg.szwego.com/20240731/i1722406375_5797_7.jpg","https://xcimg.szwego.com/20240731/i1722406375_8661_8.jpg"],"created_at":"2024-10-22T05:00:12.171Z"},{"id":"item-ec4cbc6ef5a8","sku":"_djujuPZKTldH15b678DzWLmlq0yn21zkEl4RkLw","name_en":"🐎Birkin 25cm Epsom leather Hand-stitched with waxed thread [Royal Blue]","name_cn":"🐎Birkin 25cm Epsom leather Hand-stitched with waxed thread [Royal Blue]","specs":{"source":"wsxcme","sourceId":"_djujuPZKTldH15b678DzWLmlq0yn21zkEl4RkLw","sourceTagId":76963559,"sourceTagName":"Hermes/women's bag","rawTitle":"🐎Birkin 25cm Epsom leather Hand-stitched with waxed thread [Royal Blue]"},"price":null,"currency":"CNY","moq":1,"category":"hermes-women-bags","status":"active","alibaba_url":null,"images":["https://xcimg.szwego.com/20240731/i1722406514_5886_0.jpg","https://xcimg.szwego.com/20240731/i1722406514_1277_1.jpg","https://xcimg.szwego.com/20240731/i1722406514_6354_2.jpg","https://xcimg.szwego.com/20240731/i1722406514_4181_3.jpg","https://xcimg.szwego.com/20240731/i1722406514_4113_4.jpg","https://xcimg.szwego.com/20240731/i1722406514_5100_5.jpg","https://xcimg.szwego.com/20240731/i1722406514_2611_6.jpg","https://xcimg.szwego.com/20240731/i1722406514_7514_7.jpg","https://xcimg.szwego.com/20240731/i1722406514_7888_8.jpg"],"created_at":"2024-10-22T05:00:12.170Z"},{"id":"item-3ea5373b2ba8","sku":"_d8p8pxBG2Y0bsmAIi-YL0Wq4SzJlNfa5zBfV9oQ","name_en":"🐎Birkin 25cm Epsom leather Hand-stitched with waxed thread [Velvet Green]","name_cn":"🐎Birkin 25cm Epsom leather Hand-stitched with waxed thread [Velvet Green]","specs":{"source":"wsxcme","sourceId":"_d8p8pxBG2Y0bsmAIi-YL0Wq4SzJlNfa5zBfV9oQ","sourceTagId":76963559,"sourceTagName":"Hermes/women's bag","rawTitle":"🐎Birkin 25cm Epsom leather Hand-stitched with waxed thread [Velvet Green]"},"price":null,"currency":"CNY","moq":1,"category":"hermes-women-bags","status":"active","alibaba_url":null,"images":["https://xcimg.szwego.com/20240731/i1722406457_3443_0.jpg","https://xcimg.szwego.com/20240731/i1722406457_2374_1.jpg","https://xcimg.szwego.com/20240731/i1722406457_8340_2.jpg","https://xcimg.szwego.com/20240731/i1722406457_3015_3.jpg","https://xcimg.szwego.com/20240731/i1722406457_5573_4.jpg","https://xcimg.szwego.com/20240731/i1722406457_3876_5.jpg","https://xcimg.szwego.com/20240731/i1722406457_5469_6.jpg","https://xcimg.szwego.com/20240731/i1722406457_3657_7.jpg","https://xcimg.szwego.com/20240731/i1722406457_9745_8.jpg"],"created_at":"2024-10-22T05:00:12.169Z"},{"id":"item-d04b39bcd968","sku":"_dnVnVkUUriQPuXizfGlpqVKBIrZorazkD9bv67Q","name_en":"🐎Birkin 25cm Epsom leather Hand-stitched with waxed thread [Chicken Yellow]","name_cn":"🐎Birkin 25cm Epsom leather Hand-stitched with waxed thread [Chicken Yellow]","specs":{"source":"wsxcme","sourceId":"_dnVnVkUUriQPuXizfGlpqVKBIrZorazkD9bv67Q","sourceTagId":76963559,"sourceTagName":"Hermes/women's bag","rawTitle":"🐎Birkin 25cm Epsom leather Hand-stitched with waxed thread [Chicken Yellow]"},"price":null,"currency":"CNY","moq":1,"category":"hermes-women-bags","status":"active","alibaba_url":null,"images":["https://xcimg.szwego.com/20240731/i1722406426_9127_0.jpg","https://xcimg.szwego.com/20240731/i1722406426_7853_1.jpg","https://xcimg.szwego.com/20240731/i1722406426_5179_2.jpg","https://xcimg.szwego.com/20240731/i1722406426_7130_3.jpg","https://xcimg.szwego.com/20240731/i1722406426_3641_4.jpg","https://xcimg.szwego.com/20240731/i1722406426_6505_5.jpg","https://xcimg.szwego.com/20240731/i1722406426_6693_6.jpg","https://xcimg.szwego.com/20240731/i1722406426_7155_7.jpg","https://xcimg.szwego.com/20240731/i1722406426_4914_8.jpg"],"created_at":"2024-10-22T05:00:12.168Z"},{"id":"item-30941419e8fe","sku":"_dmemegQO__0iJ6NssL7G-k2pWhr2zkkFRd9aFnA","name_en":"🐎Birkin 25cm Epsom leather Hand-stitched with waxed thread [Crimson Red]","name_cn":"🐎Birkin 25cm Epsom leather Hand-stitched with waxed thread [Crimson Red]","specs":{"source":"wsxcme","sourceId":"_dmemegQO__0iJ6NssL7G-k2pWhr2zkkFRd9aFnA","sourceTagId":76963559,"sourceTagName":"Hermes/women's bag","rawTitle":"🐎Birkin 25cm Epsom leather Hand-stitched with waxed thread [Crimson Red]"},"price":null,"currency":"CNY","moq":1,"category":"hermes-women-bags","status":"active","alibaba_url":null,"images":["https://xcimg.szwego.com/20240731/i1722406328_8436_0.jpg","https://xcimg.szwego.com/20240731/i1722406328_470_1.jpg","https://xcimg.szwego.com/20240731/i1722406328_3889_2.jpg","https://xcimg.szwego.com/20240731/i1722406328_8660_3.jpg","https://xcimg.szwego.com/20240731/i1722406328_4449_4.jpg","https://xcimg.szwego.com/20240731/i1722406328_8962_5.jpg","https://xcimg.szwego.com/20240731/i1722406328_3214_6.jpg","https://xcimg.szwego.com/20240731/i1722406328_2008_7.jpg","https://xcimg.szwego.com/20240731/i1722406328_9278_8.jpg"],"created_at":"2024-10-22T05:00:12.167Z"},{"id":"item-dd0973b801ab","sku":"_dr5r5z4JUrwPpm10I4c9OIYOL-dlJLMk4WwaQDw","name_en":"🐎Birkin 25cm Epsom Leather Hand-stitched Toffee","name_cn":"🐎Birkin 25cm Epsom Leather Hand-stitched Toffee","specs":{"source":"wsxcme","sourceId":"_dr5r5z4JUrwPpm10I4c9OIYOL-dlJLMk4WwaQDw","sourceTagId":76963559,"sourceTagName":"Hermes/women's bag","rawTitle":"🐎Birkin 25cm Epsom Leather Hand-stitched Toffee"},"price":null,"currency":"CNY","moq":1,"category":"hermes-women-bags","status":"active","alibaba_url":null,"images":["https://xcimg.szwego.com/20240731/i1722406345_5525_0.jpg","https://xcimg.szwego.com/20240731/i1722406345_5499_1.jpg","https://xcimg.szwego.com/20240731/i1722406345_2161_2.jpg","https://xcimg.szwego.com/20240731/i1722406345_8299_3.jpg","https://xcimg.szwego.com/20240731/i1722406345_9764_4.jpg","https://xcimg.szwego.com/20240731/i1722406345_3759_5.jpg","https://xcimg.szwego.com/20240731/i1722406345_6614_6.jpg","https://xcimg.szwego.com/20240731/i1722406345_3420_7.jpg","https://xcimg.szwego.com/20240731/i1722406345_455_8.jpg"],"created_at":"2024-10-22T05:00:12.166Z"},{"id":"item-0ea1d7936426","sku":"_d0202DtYaXgpuWXa9LoywpuyYFPLsN_DidN8kpw","name_en":"🐎Birkin 25cm Epsom Leather Hand-stitched Milky White","name_cn":"🐎Birkin 25cm Epsom Leather Hand-stitched Milky White","specs":{"source":"wsxcme","sourceId":"_d0202DtYaXgpuWXa9LoywpuyYFPLsN_DidN8kpw","sourceTagId":76963559,"sourceTagName":"Hermes/women's bag","rawTitle":"🐎Birkin 25cm Epsom Leather Hand-stitched Milky White"},"price":null,"currency":"CNY","moq":1,"category":"hermes-women-bags","status":"active","alibaba_url":null,"images":["https://xcimg.szwego.com/20240731/i1722406547_3050_0.jpg","https://xcimg.szwego.com/20240731/i1722406547_8904_1.jpg","https://xcimg.szwego.com/20240731/i1722406547_6981_2.jpg","https://xcimg.szwego.com/20240731/i1722406547_77_3.jpg","https://xcimg.szwego.com/20240731/i1722406547_3386_4.jpg","https://xcimg.szwego.com/20240731/i1722406547_8123_5.jpg","https://xcimg.szwego.com/20240731/i1722406547_7712_6.jpg","https://xcimg.szwego.com/20240731/i1722406547_3306_7.jpg","https://xcimg.szwego.com/20240731/i1722406547_9129_8.jpg"],"created_at":"2024-10-22T05:00:12.165Z"},{"id":"item-f6f3355bada7","sku":"_dnZnZdCP8DPrAP5Wrri4MZKtBcuqccI3KH6Cibg","name_en":"🐎Birkin 25cm Epsom Leather Hand-stitched Beige","name_cn":"🐎Birkin 25cm Epsom Leather Hand-stitched Beige","specs":{"source":"wsxcme","sourceId":"_dnZnZdCP8DPrAP5Wrri4MZKtBcuqccI3KH6Cibg","sourceTagId":76963559,"sourceTagName":"Hermes/women's bag","rawTitle":"🐎Birkin 25cm Epsom Leather Hand-stitched Beige"},"price":null,"currency":"CNY","moq":1,"category":"hermes-women-bags","status":"active","alibaba_url":null,"images":["https://xcimg.szwego.com/20240731/i1722406580_9938_0.jpg","https://xcimg.szwego.com/20240731/i1722406580_1616_1.jpg","https://xcimg.szwego.com/20240731/i1722406580_6479_2.jpg","https://xcimg.szwego.com/20240731/i1722406580_6587_3.jpg","https://xcimg.szwego.com/20240731/i1722406580_6721_4.jpg","https://xcimg.szwego.com/20240731/i1722406580_7316_5.jpg","https://xcimg.szwego.com/20240731/i1722406580_9652_6.jpg","https://xcimg.szwego.com/20240731/i1722406580_1495_7.jpg","https://xcimg.szwego.com/20240731/i1722406580_5237_8.jpg"],"created_at":"2024-10-22T05:00:12.164Z"},{"id":"item-44d27adb9b94","sku":"_diwiwkIvBI17GwbOEQgi_22EerpjYjcem_EmHWw","name_en":"🐎Birkin 30cm Epsom Leather Fully Hand-stitched Ruby","name_cn":"🐎Birkin 30cm Epsom Leather Fully Hand-stitched Ruby","specs":{"source":"wsxcme","sourceId":"_diwiwkIvBI17GwbOEQgi_22EerpjYjcem_EmHWw","sourceTagId":76963559,"sourceTagName":"Hermes/women's bag","rawTitle":"🐎Birkin 30cm Epsom Leather Fully Hand-stitched Ruby"},"price":null,"currency":"CNY","moq":1,"category":"hermes-women-bags","status":"active","alibaba_url":null,"images":["https://xcimg.szwego.com/20240810/i1723272366_1273_0.jpg","https://xcimg.szwego.com/20240810/i1723272366_7713_1.jpg","https://xcimg.szwego.com/20240810/i1723272366_4009_2.jpg","https://xcimg.szwego.com/20240810/i1723272366_695_3.jpg","https://xcimg.szwego.com/20240810/i1723272366_2023_4.jpg","https://xcimg.szwego.com/20240810/i1723272366_75_5.jpg","https://xcimg.szwego.com/20240810/i1723272366_5966_6.jpg","https://xcimg.szwego.com/20240810/i1723272366_1926_7.jpg","https://xcimg.szwego.com/20240810/i1723272366_3188_8.jpg"],"created_at":"2024-10-22T05:00:12.163Z"},{"id":"item-300e454d4aae","sku":"_dxkxkb3TMmT5OR-H0QLfa0tpJdxUAzvZHf5N58w","name_en":"🐎Birkin 30cm Epsom Leather Fully Hand-stitched Burgundy","name_cn":"🐎Birkin 30cm Epsom Leather Fully Hand-stitched Burgundy","specs":{"source":"wsxcme","sourceId":"_dxkxkb3TMmT5OR-H0QLfa0tpJdxUAzvZHf5N58w","sourceTagId":76963559,"sourceTagName":"Hermes/women's bag","rawTitle":"🐎Birkin 30cm Epsom Leather Fully Hand-stitched Burgundy"},"price":null,"currency":"CNY","moq":1,"category":"hermes-women-bags","status":"active","alibaba_url":null,"images":["https://xcimg.szwego.com/20240810/i1723272405_5669_0.jpg","https://xcimg.szwego.com/20240810/i1723272405_8248_1.jpg","https://xcimg.szwego.com/20240810/i1723272405_9242_2.jpg","https://xcimg.szwego.com/20240810/i1723272405_4588_3.jpg","https://xcimg.szwego.com/20240810/i1723272405_8419_4.jpg","https://xcimg.szwego.com/20240810/i1723272405_3870_5.jpg","https://xcimg.szwego.com/20240810/i1723272405_6570_6.jpg","https://xcimg.szwego.com/20240810/i1723272405_5531_7.jpg","https://xcimg.szwego.com/20240810/i1723272405_7581_8.jpg"],"created_at":"2024-10-22T05:00:12.162Z"},{"id":"item-ec6f3a458a80","sku":"_dBMBMQ3fjtqAEvBkXyIEMIQOJt26sPEUG-0U_7g","name_en":"🐎Birkin 30cm Epsom Leather Fully Hand-stitched with Wax Thread [Magnolia Pink]","name_cn":"🐎Birkin 30cm Epsom Leather Fully Hand-stitched with Wax Thread [Magnolia Pink]","specs":{"source":"wsxcme","sourceId":"_dBMBMQ3fjtqAEvBkXyIEMIQOJt26sPEUG-0U_7g","sourceTagId":76963559,"sourceTagName":"Hermes/women's bag","rawTitle":"🐎Birkin 30cm Epsom Leather Fully Hand-stitched with Wax Thread [Magnolia Pink]"},"price":null,"currency":"CNY","moq":1,"category":"hermes-women-bags","status":"active","alibaba_url":null,"images":["https://xcimg.szwego.com/20240810/i1723272016_1324_0.jpg","https://xcimg.szwego.com/20240810/i1723272016_7122_1.jpg","https://xcimg.szwego.com/20240810/i1723272016_232_2.jpg","https://xcimg.szwego.com/20240810/i1723272016_5543_3.jpg","https://xcimg.szwego.com/20240810/i1723272016_6874_4.jpg","https://xcimg.szwego.com/20240810/i1723272016_5896_5.jpg","https://xcimg.szwego.com/20240810/i1723272016_454_6.jpg","https://xcimg.szwego.com/20240810/i1723272016_3082_7.jpg","https://xcimg.szwego.com/20240810/i1723272016_7726_8.jpg"],"created_at":"2024-10-22T05:00:12.161Z"},{"id":"item-0e8f61305cea","sku":"_dqEqEft88OFzyjd0cwgcbX6G5UpzBG2AxU3t81w","name_en":"🐎Birkin 30cm Epsom Leather Fully Hand-stitched with Wax Thread [Lipstick Pink]","name_cn":"🐎Birkin 30cm Epsom Leather Fully Hand-stitched with Wax Thread [Lipstick Pink]","specs":{"source":"wsxcme","sourceId":"_dqEqEft88OFzyjd0cwgcbX6G5UpzBG2AxU3t81w","sourceTagId":76963559,"sourceTagName":"Hermes/women's bag","rawTitle":"🐎Birkin 30cm Epsom Leather Fully Hand-stitched with Wax Thread [Lipstick Pink]"},"price":null,"currency":"CNY","moq":1,"category":"hermes-women-bags","status":"active","alibaba_url":null,"images":["https://xcimg.szwego.com/20240810/i1723271993_3843_0.jpg","https://xcimg.szwego.com/20240810/i1723271993_119_1.jpg","https://xcimg.szwego.com/20240810/i1723271993_5969_2.jpg","https://xcimg.szwego.com/20240810/i1723271993_2901_3.jpg","https://xcimg.szwego.com/20240810/i1723271993_7046_4.jpg","https://xcimg.szwego.com/20240810/i1723271993_6784_5.jpg","https://xcimg.szwego.com/20240810/i1723271993_7398_6.jpg","https://xcimg.szwego.com/20240810/i1723271993_227_7.jpg","https://xcimg.szwego.com/20240810/i1723271993_5870_8.jpg"],"created_at":"2024-10-22T05:00:12.160Z"},{"id":"item-e346eed1c886","sku":"_d8o8ob2MQ4BBuxCoUgvtOb8D8UDetbvQSuX4tsw","name_en":"🐎Birkin 30cm Epsom Leather Fully Hand-stitched with Wax Thread [Mallow Purple]","name_cn":"🐎Birkin 30cm Epsom Leather Fully Hand-stitched with Wax Thread [Mallow Purple]","specs":{"source":"wsxcme","sourceId":"_d8o8ob2MQ4BBuxCoUgvtOb8D8UDetbvQSuX4tsw","sourceTagId":76963559,"sourceTagName":"Hermes/women's bag","rawTitle":"🐎Birkin 30cm Epsom Leather Fully Hand-stitched with Wax Thread [Mallow Purple]"},"price":null,"currency":"CNY","moq":1,"category":"hermes-women-bags","status":"active","alibaba_url":null,"images":["https://xcimg.szwego.com/20240810/i1723271955_3609_0.jpg","https://xcimg.szwego.com/20240810/i1723271955_8985_1.jpg","https://xcimg.szwego.com/20240810/i1723271955_8839_2.jpg","https://xcimg.szwego.com/20240810/i1723271955_4817_3.jpg","https://xcimg.szwego.com/20240810/i1723271955_5316_4.jpg","https://xcimg.szwego.com/20240810/i1723271955_5316_5.jpg","https://xcimg.szwego.com/20240810/i1723271955_8746_6.jpg","https://xcimg.szwego.com/20240810/i1723271955_847_7.jpg","https://xcimg.szwego.com/20240810/i1723271955_3320_8.jpg"],"created_at":"2024-10-22T05:00:12.159Z"},{"id":"item-6a40123ace28","sku":"_dg5g50VqgAPvR2tYloXfHRm9OMOByCZiNYo-6vg","name_en":"🐎Birkin 30cm Epsom Leather Fully Hand-stitched with Wax Thread [Electric Blue]","name_cn":"🐎Birkin 30cm Epsom Leather Fully Hand-stitched with Wax Thread [Electric Blue]","specs":{"source":"wsxcme","sourceId":"_dg5g50VqgAPvR2tYloXfHRm9OMOByCZiNYo-6vg","sourceTagId":76963559,"sourceTagName":"Hermes/women's bag","rawTitle":"🐎Birkin 30cm Epsom Leather Fully Hand-stitched with Wax Thread [Electric Blue]"},"price":null,"currency":"CNY","moq":1,"category":"hermes-women-bags","status":"active","alibaba_url":null,"images":["https://xcimg.szwego.com/20240810/i1723271427_6204_0.jpg","https://xcimg.szwego.com/20240810/i1723271427_5292_1.jpg","https://xcimg.szwego.com/20240810/i1723271427_7630_2.jpg","https://xcimg.szwego.com/20240810/i1723271427_1396_3.jpg","https://xcimg.szwego.com/20240810/i1723271427_8962_4.jpg","https://xcimg.szwego.com/20240810/i1723271427_7869_5.jpg","https://xcimg.szwego.com/20240810/i1723271427_2058_6.jpg","https://xcimg.szwego.com/20240810/i1723271427_9300_7.jpg","https://xcimg.szwego.com/20240810/i1723271427_8403_8.jpg"],"created_at":"2024-10-22T05:00:12.158Z"},{"id":"item-274322a576b8","sku":"_dfufuWKt3ka20BunzL74UydmCm_Moaii5M15nyA","name_en":"🐎Birkin 30cm Epsom Leather Fully Hand-stitched with Wax Thread [Agate Blue]","name_cn":"🐎Birkin 30cm Epsom Leather Fully Hand-stitched with Wax Thread [Agate Blue]","specs":{"source":"wsxcme","sourceId":"_dfufuWKt3ka20BunzL74UydmCm_Moaii5M15nyA","sourceTagId":76963559,"sourceTagName":"Hermes/women's bag","rawTitle":"🐎Birkin 30cm Epsom Leather Fully Hand-stitched with Wax Thread [Agate Blue]"},"price":null,"currency":"CNY","moq":1,"category":"hermes-women-bags","status":"active","alibaba_url":null,"images":["https://xcimg.szwego.com/20240810/i1723271453_3869_0.jpg","https://xcimg.szwego.com/20240810/i1723271453_1572_1.jpg","https://xcimg.szwego.com/20240810/i1723271453_8364_2.jpg","https://xcimg.szwego.com/20240810/i1723271453_3885_3.jpg","https://xcimg.szwego.com/20240810/i1723271453_7774_4.jpg","https://xcimg.szwego.com/20240810/i1723271453_2701_5.jpg","https://xcimg.szwego.com/20240810/i1723271453_4000_6.jpg","https://xcimg.szwego.com/20240810/i1723271453_8593_7.jpg","https://xcimg.szwego.com/20240810/i1723271453_3857_8.jpg"],"created_at":"2024-10-22T05:00:12.157Z"},{"id":"item-6430a83fc2f8","sku":"_duXuX8XDNkenhDn1cFWPIcgqJn4hFhHIUdqITYA","name_en":"Basket","name_cn":"Basket","specs":{"source":"wsxcme","sourceId":"_duXuX8XDNkenhDn1cFWPIcgqJn4hFhHIUdqITYA","sourceTagId":76963559,"sourceTagName":"Hermes/women's bag","rawTitle":"Basket"},"price":null,"currency":"CNY","moq":1,"category":"hermes-women-bags","status":"active","alibaba_url":null,"images":["https://xcimg.szwego.com/img/88b306c4/20240902/a1725214222504_0122.jpg","https://xcimg.szwego.com/img/88b306c4/20240902/a1725214222653_7304.jpg","https://xcimg.szwego.com/img/88b306c4/20240902/a1725214232258_5277.jpg","https://xcimg.szwego.com/img/88b306c4/20240902/a1725214222201_6556.jpg"],"created_at":"2024-10-22T05:00:12.156Z"},{"id":"item-22e80d4858d2","sku":"_ddfdfZqCKBRWYKkoQ8noM9T-1AvoDFWtVrcQKDg","name_en":"Fully hand-stitched👉Garden part( )30cm Imported TC fabric with jacquard Black/Beige","name_cn":"Fully hand-stitched👉Garden part( )30cm Imported TC fabric with jacquard Black/Beige","specs":{"source":"wsxcme","sourceId":"_ddfdfZqCKBRWYKkoQ8noM9T-1AvoDFWtVrcQKDg","sourceTagId":76963559,"sourceTagName":"Hermes/women's bag","rawTitle":"Fully hand-stitched👉Garden part( )30cm Imported TC fabric with jacquard Black/Beige"},"price":null,"currency":"CNY","moq":1,"category":"hermes-women-bags","status":"active","alibaba_url":null,"images":["https://xcimg.szwego.com/20230818/i1692334200_7663_0.jpg","https://xcimg.szwego.com/20230818/i1692334200_4911_1.jpg","https://xcimg.szwego.com/20230818/i1692334200_2633_2.jpg","https://xcimg.szwego.com/20230818/i1692334200_9189_3.jpg","https://xcimg.szwego.com/20230818/i1692334200_8582_4.jpg","https://xcimg.szwego.com/20230818/i1692334200_3497_5.jpg","https://xcimg.szwego.com/20230818/i1692334200_715_6.jpg","https://xcimg.szwego.com/20230818/i1692334200_6362_7.jpg","https://xcimg.szwego.com/20230818/i1692334200_3327_8.jpg"],"created_at":"2024-10-22T05:00:12.155Z"},{"id":"item-b508d391e632","sku":"_dh9h9PHOR_1bmBiSTS12xY5vf4ThnIxVsm-aDXw","name_en":"In stock:Garden part( )30cm Imported TC leather with jacquard Apricot with Cookie color🍪 Silver buckle wax thread","name_cn":"In stock:Garden part( )30cm Imported TC leather with jacquard Apricot with Cookie color🍪 Silver buckle wax thread","specs":{"source":"wsxcme","sourceId":"_dh9h9PHOR_1bmBiSTS12xY5vf4ThnIxVsm-aDXw","sourceTagId":76963559,"sourceTagName":"Hermes/women's bag","rawTitle":"In stock:Garden part( )30cm Imported TC leather with jacquard Apricot with Cookie color🍪 Silver buckle wax thread"},"price":null,"currency":"CNY","moq":1,"category":"hermes-women-bags","status":"active","alibaba_url":null,"images":["https://xcimg.szwego.com/20230720/i1689847122_6382_0.jpg","https://xcimg.szwego.com/20230720/i1689847122_8084_1.jpg","https://xcimg.szwego.com/20230720/i1689847122_2990_2.jpg","https://xcimg.szwego.com/20230720/i1689847122_2732_3.jpg","https://xcimg.szwego.com/20230720/i1689847122_1429_4.jpg","https://xcimg.szwego.com/20230720/i1689847122_3635_5.jpg","https://xcimg.szwego.com/20230720/i1689847122_7299_6.jpg","https://xcimg.szwego.com/20230720/i1689847122_7749_7.jpg","https://xcimg.szwego.com/20230720/i1689847122_8564_8.jpg"],"created_at":"2024-10-22T05:00:12.154Z"},{"id":"item-d6d695300c86","sku":"_dF-F-ZHjv9IJDZwAN44LgZ1hTAGBZ6sphVND81Q","name_en":"In stock:Garden part( )30cm Imported TC leather with jacquard Apricot with Grey🐘 Silver buckle wax thread","name_cn":"In stock:Garden part( )30cm Imported TC leather with jacquard Apricot with Grey🐘 Silver buckle wax thread","specs":{"source":"wsxcme","sourceId":"_dF-F-ZHjv9IJDZwAN44LgZ1hTAGBZ6sphVND81Q","sourceTagId":76963559,"sourceTagName":"Hermes/women's bag","rawTitle":"In stock:Garden part( )30cm Imported TC leather with jacquard Apricot with Grey🐘 Silver buckle wax thread"},"price":null,"currency":"CNY","moq":1,"category":"hermes-women-bags","status":"active","alibaba_url":null,"images":["https://xcimg.szwego.com/20230720/i1689846606_8128_0.jpg","https://xcimg.szwego.com/20230720/i1689846606_5966_1.jpg","https://xcimg.szwego.com/20230720/i1689846606_1457_2.jpg","https://xcimg.szwego.com/20230720/i1689846606_4935_3.jpg","https://xcimg.szwego.com/20230720/i1689846606_561_4.jpg","https://xcimg.szwego.com/20230720/i1689846606_6741_5.jpg","https://xcimg.szwego.com/20230720/i1689846606_9788_6.jpg","https://xcimg.szwego.com/20230720/i1689846606_3318_7.jpg","https://xcimg.szwego.com/20230720/i1689846606_4787_8.jpg"],"created_at":"2024-10-22T05:00:12.153Z"},{"id":"item-a6c53fa5eb26","sku":"_dadadmEFpAeN5VFdss1pTXA3rgpe-e25ZSXhIMw","name_en":"In stock:Garden part( )30cm Imported TC leather with jacquard Apricot with Orange Silver buckle wax thread","name_cn":"In stock:Garden part( )30cm Imported TC leather with jacquard Apricot with Orange Silver buckle wax thread","specs":{"source":"wsxcme","sourceId":"_dadadmEFpAeN5VFdss1pTXA3rgpe-e25ZSXhIMw","sourceTagId":76963559,"sourceTagName":"Hermes/women's bag","rawTitle":"In stock:Garden part( )30cm Imported TC leather with jacquard Apricot with Orange Silver buckle wax thread"},"price":null,"currency":"CNY","moq":1,"category":"hermes-women-bags","status":"active","alibaba_url":null,"images":["https://xcimg.szwego.com/20230720/i1689846542_3626_0.jpg","https://xcimg.szwego.com/20230720/i1689846542_1236_1.jpg","https://xcimg.szwego.com/20230720/i1689846542_8484_2.jpg","https://xcimg.szwego.com/20230720/i1689846542_500_3.jpg","https://xcimg.szwego.com/20230720/i1689846542_4182_4.jpg","https://xcimg.szwego.com/20230720/i1689846542_8289_5.jpg","https://xcimg.szwego.com/20230720/i1689846542_9683_6.jpg","https://xcimg.szwego.com/20230720/i1689846542_765_7.jpg","https://xcimg.szwego.com/20230720/i1689846542_4189_8.jpg"],"created_at":"2024-10-22T05:00:12.152Z"},{"id":"item-3e0e86379783","sku":"_dq4q4jS4X3h60atZ3-_CWb0zr-5rQCZXmFQMUdQ","name_en":"In stock: Garden part (Garden Bag) 30cm Imported TC leather with jacquard, Apricot with Amber Yellow, Silver buckle wax thread","name_cn":"In stock: Garden part (Garden Bag) 30cm Imported TC leather with jacquard, Apricot with Amber Yellow, Silver buckle wax thread","specs":{"source":"wsxcme","sourceId":"_dq4q4jS4X3h60atZ3-_CWb0zr-5rQCZXmFQMUdQ","sourceTagId":76963559,"sourceTagName":"Hermes/women's bag","rawTitle":"In stock: Garden part (Garden Bag) 30cm Imported TC leather with jacquard, Apricot with Amber Yellow, Silver buckle wax thread"},"price":null,"currency":"CNY","moq":1,"category":"hermes-women-bags","status":"active","alibaba_url":null,"images":["https://xcimg.szwego.com/20230720/i1689846574_6940_0.jpg","https://xcimg.szwego.com/20230720/i1689846574_5103_1.jpg","https://xcimg.szwego.com/20230720/i1689846574_4056_2.jpg","https://xcimg.szwego.com/20230720/i1689846574_4512_3.jpg","https://xcimg.szwego.com/20230720/i1689846574_7516_4.jpg","https://xcimg.szwego.com/20230720/i1689846574_7748_5.jpg","https://xcimg.szwego.com/20230720/i1689846574_1881_6.jpg","https://xcimg.szwego.com/20230720/i1689846574_4842_7.jpg","https://xcimg.szwego.com/20230720/i1689846574_7245_8.jpg"],"created_at":"2024-10-22T05:00:12.151Z"},{"id":"item-acc0e7ec2d27","sku":"_dn8n8InRWTeTa1k7OQt2GX-Q99lBuJvIvVcuCMQ","name_en":"In stock: Garden part (Garden Bag) 30cm Imported TC leather with jacquard, Apricot with Dove Grey, Silver buckle wax thread","name_cn":"In stock: Garden part (Garden Bag) 30cm Imported TC leather with jacquard, Apricot with Dove Grey, Silver buckle wax thread","specs":{"source":"wsxcme","sourceId":"_dn8n8InRWTeTa1k7OQt2GX-Q99lBuJvIvVcuCMQ","sourceTagId":76963559,"sourceTagName":"Hermes/women's bag","rawTitle":"In stock: Garden part (Garden Bag) 30cm Imported TC leather with jacquard, Apricot with Dove Grey, Silver buckle wax thread"},"price":null,"currency":"CNY","moq":1,"category":"hermes-women-bags","status":"active","alibaba_url":null,"images":["https://xcimg.szwego.com/20230720/i1689846520_8103_0.jpg","https://xcimg.szwego.com/20230720/i1689846520_5653_1.jpg","https://xcimg.szwego.com/20230720/i1689846520_2841_2.jpg","https://xcimg.szwego.com/20230720/i1689846520_7626_3.jpg","https://xcimg.szwego.com/20230720/i1689846520_9937_4.jpg","https://xcimg.szwego.com/20230720/i1689846520_4642_5.jpg","https://xcimg.szwego.com/20230720/i1689846520_5358_6.jpg","https://xcimg.szwego.com/20230720/i1689846520_8966_7.jpg","https://xcimg.szwego.com/20230720/i1689846520_2468_8.jpg"],"created_at":"2024-10-22T05:00:12.150Z"},{"id":"item-fa5cd7cf9f13","sku":"_djzjznvvUEq9skR4sQ_35UEwOGGhccche3LYd5w","name_en":"In stock: Garden part (Garden Bag) 30cm Imported TC leather with jacquard, Apricot with Britannia Silver, Silver buckle wax thread","name_cn":"In stock: Garden part (Garden Bag) 30cm Imported TC leather with jacquard, Apricot with Britannia Silver, Silver buckle wax thread","specs":{"source":"wsxcme","sourceId":"_djzjznvvUEq9skR4sQ_35UEwOGGhccche3LYd5w","sourceTagId":76963559,"sourceTagName":"Hermes/women's bag","rawTitle":"In stock: Garden part (Garden Bag) 30cm Imported TC leather with jacquard, Apricot with Britannia Silver, Silver buckle wax thread"},"price":null,"currency":"CNY","moq":1,"category":"hermes-women-bags","status":"active","alibaba_url":null,"images":["https://xcimg.szwego.com/20230720/i1689846421_5595_0.jpg","https://xcimg.szwego.com/20230720/i1689846421_6496_1.jpg","https://xcimg.szwego.com/20230720/i1689846421_6880_2.jpg","https://xcimg.szwego.com/20230720/i1689846421_4196_3.jpg","https://xcimg.szwego.com/20230720/i1689846421_9121_4.jpg","https://xcimg.szwego.com/20230720/i1689846421_8724_5.jpg","https://xcimg.szwego.com/20230720/i1689846421_8563_6.jpg","https://xcimg.szwego.com/20230720/i1689846421_1791_7.jpg","https://xcimg.szwego.com/20230720/i1689846421_1670_8.jpg"],"created_at":"2024-10-22T05:00:12.149Z"}],"page":11,"pageSize":24,"total":439,"totalPages":19}
