{"items":[{"id":"item-24824338aa67","sku":"_duCuCMVXzCGy70jKv6TJJsl42Lv7J-UqOcHlkNQ","name_en":"✨凯莉二代mini","name_cn":"✨凯莉二代mini \n颜色:奶茶色/柠檬黄/锦葵紫\n进口epsom皮、银扣\n机车+半收工手缝蜡线\n尺寸:19cm","specs":{"source":"wsxcme","sourceId":"_duCuCMVXzCGy70jKv6TJJsl42Lv7J-UqOcHlkNQ","sourceTagId":76963559,"sourceTagName":"爱马仕/女包","rawTitle":"✨凯莉二代mini \n颜色:奶茶色/柠檬黄/锦葵紫\n进口epsom皮、银扣\n机车+半收工手缝蜡线\n尺寸:19cm"},"price":null,"currency":"CNY","moq":1,"category":"hermes-women-bags","status":"active","alibaba_url":null,"images":["https://xcimg.szwego.com/img/88b306c4/20240904/a1725382312684_2307.jpg","https://xcimg.szwego.com/img/88b306c4/20240904/a1725382313013_5381.jpg","https://xcimg.szwego.com/img/88b306c4/20240904/a1725382312877_8327.jpg","https://xcimg.szwego.com/img/88b306c4/20240904/a1725382312733_6438.jpg","https://xcimg.szwego.com/img/88b306c4/20240904/a1725382312813_7225.jpg","https://xcimg.szwego.com/img/88b306c4/20240904/a1725382313075_0747.jpg","https://xcimg.szwego.com/img/88b306c4/20240904/a1725382314063_4683.jpg","https://xcimg.szwego.com/img/88b306c4/20240904/a1725382314112_8344.jpg","https://xcimg.szwego.com/img/88b306c4/20240904/a1725382313936_0117.jpg"],"created_at":"2024-10-22T05:04:33.172Z"},{"id":"item-a06ad24e41d9","sku":"_dz0z0ZKiQXgqPGY6XMP7WOeEct63q-4xDJrgIlw","name_en":"✨凯莉二代mini","name_cn":"✨凯莉二代mini \n颜色:大象灰/奶昔白\n进口epsom皮、金扣\n机车+半收工手缝蜡线\n尺寸:19cm","specs":{"source":"wsxcme","sourceId":"_dz0z0ZKiQXgqPGY6XMP7WOeEct63q-4xDJrgIlw","sourceTagId":76963559,"sourceTagName":"爱马仕/女包","rawTitle":"✨凯莉二代mini \n颜色:大象灰/奶昔白\n进口epsom皮、金扣\n机车+半收工手缝蜡线\n尺寸:19cm"},"price":null,"currency":"CNY","moq":1,"category":"hermes-women-bags","status":"active","alibaba_url":null,"images":["https://xcimg.szwego.com/img/88b306c4/20240904/a1725382163093_1624.jpg","https://xcimg.szwego.com/img/88b306c4/20240904/a1725382162617_3135.jpg","https://xcimg.szwego.com/img/88b306c4/20240904/a1725382162629_8467.jpg","https://xcimg.szwego.com/img/88b306c4/20240904/a1725382163140_2187.jpg","https://xcimg.szwego.com/img/88b306c4/20240904/a1725382162731_4037.jpg","https://xcimg.szwego.com/img/88b306c4/20240904/a1725382162722_2265.jpg","https://xcimg.szwego.com/img/88b306c4/20240904/a1725382164258_7220.jpg","https://xcimg.szwego.com/img/88b306c4/20240904/a1725382164329_4016.jpg","https://xcimg.szwego.com/img/88b306c4/20240904/a1725382164118_1847.jpg"],"created_at":"2024-10-22T05:04:33.171Z"},{"id":"item-1205a91176d9","sku":"_dGWGWC8yfMGZC5hEu7jir0e87QMQEC0dRukCv9Q","name_en":"✨凯莉二代mini","name_cn":"✨凯莉二代mini \n颜色:大象灰/奶昔白\n进口epsom皮、银扣\n机车+半收工手缝蜡线\n尺寸:19cm","specs":{"source":"wsxcme","sourceId":"_dGWGWC8yfMGZC5hEu7jir0e87QMQEC0dRukCv9Q","sourceTagId":76963559,"sourceTagName":"爱马仕/女包","rawTitle":"✨凯莉二代mini \n颜色:大象灰/奶昔白\n进口epsom皮、银扣\n机车+半收工手缝蜡线\n尺寸:19cm"},"price":null,"currency":"CNY","moq":1,"category":"hermes-women-bags","status":"active","alibaba_url":null,"images":["https://xcimg.szwego.com/img/88b306c4/20240904/a1725382092128_1646.jpg","https://xcimg.szwego.com/img/88b306c4/20240904/a1725382092137_8055.jpg","https://xcimg.szwego.com/img/88b306c4/20240904/a1725382092313_1372.jpg","https://xcimg.szwego.com/img/88b306c4/20240904/a1725382092233_0412.jpg","https://xcimg.szwego.com/img/88b306c4/20240904/a1725382092417_1688.jpg","https://xcimg.szwego.com/img/88b306c4/20240904/a1725382092535_0278.jpg","https://xcimg.szwego.com/img/88b306c4/20240904/a1725382093728_3115.jpg","https://xcimg.szwego.com/img/88b306c4/20240904/a1725382093680_1760.jpg"],"created_at":"2024-10-22T05:04:33.170Z"},{"id":"item-7073e62b11fb","sku":"_dxjxjaEP1mojtGgfyCaokiDpp00ieQtejGgBadg","name_en":"✨凯莉二代mini","name_cn":"✨凯莉二代mini \n颜色:风衣灰/金棕\n进口epsom皮、金扣\n机车+半收工手缝蜡线\n尺寸:19cm","specs":{"source":"wsxcme","sourceId":"_dxjxjaEP1mojtGgfyCaokiDpp00ieQtejGgBadg","sourceTagId":76963559,"sourceTagName":"爱马仕/女包","rawTitle":"✨凯莉二代mini \n颜色:风衣灰/金棕\n进口epsom皮、金扣\n机车+半收工手缝蜡线\n尺寸:19cm"},"price":null,"currency":"CNY","moq":1,"category":"hermes-women-bags","status":"active","alibaba_url":null,"images":["https://xcimg.szwego.com/img/88b306c4/20240904/a1725381943477_4054.jpg","https://xcimg.szwego.com/img/88b306c4/20240904/a1725381943030_3116.jpg","https://xcimg.szwego.com/img/88b306c4/20240904/a1725381942985_0117.jpg","https://xcimg.szwego.com/img/88b306c4/20240904/a1725381943213_1353.jpg","https://xcimg.szwego.com/img/88b306c4/20240904/a1725381943501_4814.jpg","https://xcimg.szwego.com/img/88b306c4/20240904/a1725381943025_2885.jpg","https://xcimg.szwego.com/img/88b306c4/20240904/a1725381944605_2012.jpg","https://xcimg.szwego.com/img/88b306c4/20240904/a1725381944622_1131.jpg","https://xcimg.szwego.com/img/88b306c4/20240904/a1725381944569_0665.jpg"],"created_at":"2024-10-22T05:04:33.169Z"},{"id":"item-32ef592a4db9","sku":"_dEcEcmfStvxrHNHUmFSJR9bM47H0ZvPvJPm_Z2A","name_en":"✨凯莉二代mini","name_cn":"✨凯莉二代mini \n颜色:风衣灰/金棕\n进口epsom皮、银扣\n机车+半收工手缝蜡线\n尺寸:19cm","specs":{"source":"wsxcme","sourceId":"_dEcEcmfStvxrHNHUmFSJR9bM47H0ZvPvJPm_Z2A","sourceTagId":76963559,"sourceTagName":"爱马仕/女包","rawTitle":"✨凯莉二代mini \n颜色:风衣灰/金棕\n进口epsom皮、银扣\n机车+半收工手缝蜡线\n尺寸:19cm"},"price":null,"currency":"CNY","moq":1,"category":"hermes-women-bags","status":"active","alibaba_url":null,"images":["https://xcimg.szwego.com/img/88b306c4/20240904/a1725381839323_5556.jpg","https://xcimg.szwego.com/img/88b306c4/20240904/a1725381839531_7132.jpg","https://xcimg.szwego.com/img/88b306c4/20240904/a1725381839174_7488.jpg","https://xcimg.szwego.com/img/88b306c4/20240904/a1725381839157_0855.jpg","https://xcimg.szwego.com/img/88b306c4/20240904/a1725381839175_7022.jpg","https://xcimg.szwego.com/img/88b306c4/20240904/a1725381839213_5587.jpg","https://xcimg.szwego.com/img/88b306c4/20240904/a1725381840770_6581.jpg","https://xcimg.szwego.com/img/88b306c4/20240904/a1725381840730_2633.jpg","https://xcimg.szwego.com/img/88b306c4/20240904/a1725381840717_0103.jpg"],"created_at":"2024-10-22T05:04:33.168Z"},{"id":"item-df3c876b8d24","sku":"_dcocowfcUQjwK7sLMw7rSzc0753oDs3PzaBOaRw","name_en":"✨凯莉二代mini","name_cn":"✨凯莉二代mini \n颜色:奶昔白/奶茶色\n进口epsom皮、金扣\n机车+半收工手缝蜡线\n尺寸:19cm","specs":{"source":"wsxcme","sourceId":"_dcocowfcUQjwK7sLMw7rSzc0753oDs3PzaBOaRw","sourceTagId":76963559,"sourceTagName":"爱马仕/女包","rawTitle":"✨凯莉二代mini \n颜色:奶昔白/奶茶色\n进口epsom皮、金扣\n机车+半收工手缝蜡线\n尺寸:19cm"},"price":null,"currency":"CNY","moq":1,"category":"hermes-women-bags","status":"active","alibaba_url":null,"images":["https://xcimg.szwego.com/img/88b306c4/20240904/a1725381573941_5132.jpg","https://xcimg.szwego.com/img/88b306c4/20240904/a1725381573972_7115.jpg","https://xcimg.szwego.com/img/88b306c4/20240904/a1725381573937_7658.jpg","https://xcimg.szwego.com/img/88b306c4/20240904/a1725381574179_1715.jpg","https://xcimg.szwego.com/img/88b306c4/20240904/a1725381573938_2264.jpg","https://xcimg.szwego.com/img/88b306c4/20240904/a1725381573722_6083.jpg","https://xcimg.szwego.com/img/88b306c4/20240904/a1725381575444_5746.jpg","https://xcimg.szwego.com/img/88b306c4/20240904/a1725381575366_5450.jpg","https://xcimg.szwego.com/img/88b306c4/20240904/a1725381575259_4273.jpg"],"created_at":"2024-10-22T05:04:33.167Z"},{"id":"item-186af3d64229","sku":"_dmamaQbOqFnMcbEqTk6H3LFzjam49dsjrfjP63w","name_en":"✨凯莉二代mini","name_cn":"✨凯莉二代mini \n颜色:奶昔白/奶茶色\n进口epsom皮、银扣\n机车+半收工手缝蜡线\n尺寸:19cm","specs":{"source":"wsxcme","sourceId":"_dmamaQbOqFnMcbEqTk6H3LFzjam49dsjrfjP63w","sourceTagId":76963559,"sourceTagName":"爱马仕/女包","rawTitle":"✨凯莉二代mini \n颜色:奶昔白/奶茶色\n进口epsom皮、银扣\n机车+半收工手缝蜡线\n尺寸:19cm"},"price":null,"currency":"CNY","moq":1,"category":"hermes-women-bags","status":"active","alibaba_url":null,"images":["https://xcimg.szwego.com/img/88b306c4/20240904/a1725381473346_1411.jpg","https://xcimg.szwego.com/img/88b306c4/20240904/a1725381473383_8078.jpg","https://xcimg.szwego.com/img/88b306c4/20240904/a1725381473373_0221.jpg","https://xcimg.szwego.com/img/88b306c4/20240904/a1725381473684_8486.jpg","https://xcimg.szwego.com/img/88b306c4/20240904/a1725381473627_5725.jpg","https://xcimg.szwego.com/img/88b306c4/20240904/a1725381473365_3602.jpg","https://xcimg.szwego.com/img/88b306c4/20240904/a1725381474788_4602.jpg","https://xcimg.szwego.com/img/88b306c4/20240904/a1725381474763_5702.jpg","https://xcimg.szwego.com/img/88b306c4/20240904/a1725381474761_5011.jpg"],"created_at":"2024-10-22T05:04:33.166Z"},{"id":"item-c7487e914f39","sku":"_dAbAbImZZt8Z8CzPJZzf3TUwry3SoYM21xeNIcg","name_en":"LD - Mini Lindy 迷你琳迪.","name_cn":"LD - Mini Lindy 迷你琳迪.\nColor 颜色 Blue lin 亚麻蓝\nTogo leather 荔枝纹小牛皮.\nGold hardware 金扣.\n“多面派”小琳迪,有颜值的它偏偏还要靠实力去俘获你心❤️事实证明越优秀的越努力💪\n越努力越幸运 幸运的你拥有灵动松弛小可爱的它~\nSize 尺寸:19.5cm 宽12.5cm","specs":{"source":"wsxcme","sourceId":"_dAbAbImZZt8Z8CzPJZzf3TUwry3SoYM21xeNIcg","sourceTagId":76963559,"sourceTagName":"爱马仕/女包","rawTitle":"LD - Mini Lindy 迷你琳迪.\nColor 颜色 Blue lin 亚麻蓝\nTogo leather 荔枝纹小牛皮.\nGold hardware 金扣.\n“多面派”小琳迪,有颜值的它偏偏还要靠实力去俘获你心❤️事实证明越优秀的越努力💪\n越努力越幸运 幸运的你拥有灵动松弛小可爱的它~\nSize 尺寸:19.5cm 宽12.5cm"},"price":null,"currency":"CNY","moq":1,"category":"hermes-women-bags","status":"active","alibaba_url":null,"images":["https://xcimg.szwego.com/img/43e90bff/20240828/i1724831297_320_7.jpg","https://xcimg.szwego.com/img/43e90bff/20240828/i1724831296_6385_0.jpg","https://xcimg.szwego.com/img/43e90bff/20240828/i1724831297_8189_8.jpg","https://xcimg.szwego.com/img/43e90bff/20240828/i1724831297_4367_6.jpg","https://xcimg.szwego.com/img/43e90bff/20240828/i1724831297_5488_5.jpg","https://xcimg.szwego.com/img/43e90bff/20240828/i1724831296_6585_1.jpg","https://xcimg.szwego.com/img/43e90bff/20240828/i1724831297_7488_2.jpg","https://xcimg.szwego.com/img/43e90bff/20240828/i1724831297_7391_4.jpg","https://xcimg.szwego.com/img/43e90bff/20240828/i1724831297_3212_3.jpg"],"created_at":"2024-10-22T05:04:33.165Z"},{"id":"item-7a239b25eae3","sku":"_dS8S86j6eY4ZGVET-SDK48RFM0WWH7rNW_6tghw","name_en":"Mini Kelly","name_cn":"Mini Kelly \n• 独家高性价比版本\n• 里外全皮完美机缝\n• Mini包中的霸主\n“麻雀虽小、五脏俱全”🎁 除了可以携带随身所需小物_更可容纳品味 将品味“背着走”。\n现货19Cm  7878000","specs":{"source":"wsxcme","sourceId":"_dS8S86j6eY4ZGVET-SDK48RFM0WWH7rNW_6tghw","sourceTagId":76963559,"sourceTagName":"爱马仕/女包","rawTitle":"Mini Kelly \n• 独家高性价比版本\n• 里外全皮完美机缝\n• Mini包中的霸主\n“麻雀虽小、五脏俱全”🎁 除了可以携带随身所需小物_更可容纳品味 将品味“背着走”。\n现货19Cm  7878000"},"price":null,"currency":"CNY","moq":1,"category":"hermes-women-bags","status":"active","alibaba_url":null,"images":["https://xcimg.szwego.com/20220713/i1657682918_6848_0.jpg","https://xcimg.szwego.com/20220713/i1657682918_7080_1.jpg","https://xcimg.szwego.com/20220713/i1657682918_6790_2.jpg","https://xcimg.szwego.com/20220713/i1657682918_720_3.jpg","https://xcimg.szwego.com/20220713/i1657682918_6072_4.jpg","https://xcimg.szwego.com/20220713/i1657682918_196_5.jpg","https://xcimg.szwego.com/20220713/i1657682918_5939_6.jpg","https://xcimg.szwego.com/20220713/i1657682918_955_7.jpg","https://xcimg.szwego.com/20220713/i1657682918_754_8.jpg"],"created_at":"2024-10-22T05:04:33.164Z"},{"id":"item-f3793528316f","sku":"_dMgMgVPwDMZ98Hr3eTqUx3NoY085Mx3JsEENxYQ","name_en":"牛油果绿🥑Mini Kelly 二代","name_cn":"牛油果绿🥑Mini Kelly 二代\n• 独家高性价比版本\n• 里外全皮完美机缝\n• Mini包中的霸主\n“麻雀虽小、五脏俱全”🎁 除了可以携带随身所需小物_更可容纳品味 将品味“背着走”。\n现货19Cm 7878000","specs":{"source":"wsxcme","sourceId":"_dMgMgVPwDMZ98Hr3eTqUx3NoY085Mx3JsEENxYQ","sourceTagId":76963559,"sourceTagName":"爱马仕/女包","rawTitle":"牛油果绿🥑Mini Kelly 二代\n• 独家高性价比版本\n• 里外全皮完美机缝\n• Mini包中的霸主\n“麻雀虽小、五脏俱全”🎁 除了可以携带随身所需小物_更可容纳品味 将品味“背着走”。\n现货19Cm 7878000"},"price":null,"currency":"CNY","moq":1,"category":"hermes-women-bags","status":"active","alibaba_url":null,"images":["https://xcimg.szwego.com/img/b17e98d7/20240420/i1713605070_9193_4.jpg","https://xcimg.szwego.com/img/b17e98d7/20240420/i1713605070_279_0.jpg","https://xcimg.szwego.com/img/b17e98d7/20240420/i1713605070_6522_1.jpg","https://xcimg.szwego.com/img/b17e98d7/20240420/i1713605070_8991_2.jpg","https://xcimg.szwego.com/img/b17e98d7/20240420/i1713605071_2251_8.jpg","https://xcimg.szwego.com/img/b17e98d7/20240420/i1713605070_5336_5.jpg","https://xcimg.szwego.com/img/b17e98d7/20240420/i1713605070_4088_3.jpg","https://xcimg.szwego.com/img/b17e98d7/20240420/i1713605071_9833_7.jpg","https://xcimg.szwego.com/img/b17e98d7/20240420/i1713605070_9849_6.jpg"],"created_at":"2024-10-22T05:04:33.163Z"},{"id":"item-3c50a3b41668","sku":"_ddbdbiDirt7P0r-E8kIk9Y2lP_mvAS__C2_LjTw","name_en":"杏仁绿🏝️Mini Kelly 二代","name_cn":"杏仁绿🏝️Mini Kelly 二代\n• 独家高性价比版本\n• 里外全皮完美机缝\n• Mini包中的霸主\n“麻雀虽小、五脏俱全”🎁 除了可以携带随身所需小物_更可容纳品味 将品味“背着走”。\n现货19Cm 7878000","specs":{"source":"wsxcme","sourceId":"_ddbdbiDirt7P0r-E8kIk9Y2lP_mvAS__C2_LjTw","sourceTagId":76963559,"sourceTagName":"爱马仕/女包","rawTitle":"杏仁绿🏝️Mini Kelly 二代\n• 独家高性价比版本\n• 里外全皮完美机缝\n• Mini包中的霸主\n“麻雀虽小、五脏俱全”🎁 除了可以携带随身所需小物_更可容纳品味 将品味“背着走”。\n现货19Cm 7878000"},"price":null,"currency":"CNY","moq":1,"category":"hermes-women-bags","status":"active","alibaba_url":null,"images":["https://xcimg.szwego.com/img/b17e98d7/20240420/i1713600413_2584_0.jpg","https://xcimg.szwego.com/img/b17e98d7/20240420/i1713600413_2104_4.jpg","https://xcimg.szwego.com/img/b17e98d7/20240420/i1713600413_5375_6.jpg","https://xcimg.szwego.com/img/b17e98d7/20240420/i1713600413_8834_5.jpg","https://xcimg.szwego.com/img/b17e98d7/20240420/i1713600413_7256_1.jpg","https://xcimg.szwego.com/img/b17e98d7/20240420/i1713600413_3714_8.jpg","https://xcimg.szwego.com/img/b17e98d7/20240420/i1713600413_727_2.jpg","https://xcimg.szwego.com/img/b17e98d7/20240420/i1713600413_2042_7.jpg","https://xcimg.szwego.com/img/b17e98d7/20240420/i1713600413_5838_3.jpg"],"created_at":"2024-10-22T05:04:33.162Z"},{"id":"item-a67a859f8e61","sku":"_doLoLXwGcPVUoW1tsjNYPammFLCiDAbgayQsNUQ","name_en":"琥珀黄☀️ Mini Kelly 二代","name_cn":"琥珀黄☀️ Mini Kelly 二代\n• 独家高性价比版本\n• 里外全皮完美机缝\n• Mini包中的霸主\n“麻雀虽小、五脏俱全”🎁 除了可以携带随身所需小物_更可容纳品味 将品味“背着走”。\n现货19Cm 7878000","specs":{"source":"wsxcme","sourceId":"_doLoLXwGcPVUoW1tsjNYPammFLCiDAbgayQsNUQ","sourceTagId":76963559,"sourceTagName":"爱马仕/女包","rawTitle":"琥珀黄☀️ Mini Kelly 二代\n• 独家高性价比版本\n• 里外全皮完美机缝\n• Mini包中的霸主\n“麻雀虽小、五脏俱全”🎁 除了可以携带随身所需小物_更可容纳品味 将品味“背着走”。\n现货19Cm 7878000"},"price":null,"currency":"CNY","moq":1,"category":"hermes-women-bags","status":"active","alibaba_url":null,"images":["https://xcimg.szwego.com/img/b17e98d7/20240420/i1713599220_2002_6.jpg","https://xcimg.szwego.com/img/b17e98d7/20240420/i1713599220_1640_4.jpg","https://xcimg.szwego.com/img/b17e98d7/20240420/i1713599220_1455_2.jpg","https://xcimg.szwego.com/img/b17e98d7/20240420/i1713599220_915_0.jpg","https://xcimg.szwego.com/img/b17e98d7/20240420/i1713599220_5334_5.jpg","https://xcimg.szwego.com/img/b17e98d7/20240420/i1713599220_3143_3.jpg","https://xcimg.szwego.com/img/b17e98d7/20240420/i1713599220_4415_1.jpg","https://xcimg.szwego.com/img/b17e98d7/20240420/i1713599220_3439_7.jpg","https://xcimg.szwego.com/img/b17e98d7/20240420/i1713599220_6500_8.jpg"],"created_at":"2024-10-22T05:04:33.161Z"},{"id":"item-d8df2fd04964","sku":"_ddFdF_tBbm6B-_4CRfi2Kb9rtIr0uYtIvXZ0y1A","name_en":"祖母绿🦚Mini Kelly 二代","name_cn":"祖母绿🦚Mini Kelly 二代\n• 独家高性价比版本\n• 里外全皮完美机缝\n• Mini包中的霸主\n“麻雀虽小、五脏俱全”🎁 除了可以携带随身所需小物_更可容纳品味 将品味“背着走”。\n现货19Cm 7878000","specs":{"source":"wsxcme","sourceId":"_ddFdF_tBbm6B-_4CRfi2Kb9rtIr0uYtIvXZ0y1A","sourceTagId":76963559,"sourceTagName":"爱马仕/女包","rawTitle":"祖母绿🦚Mini Kelly 二代\n• 独家高性价比版本\n• 里外全皮完美机缝\n• Mini包中的霸主\n“麻雀虽小、五脏俱全”🎁 除了可以携带随身所需小物_更可容纳品味 将品味“背着走”。\n现货19Cm 7878000"},"price":null,"currency":"CNY","moq":1,"category":"hermes-women-bags","status":"active","alibaba_url":null,"images":["https://xcimg.szwego.com/img/b17e98d7/20240420/i1713601382_4462_2.jpg","https://xcimg.szwego.com/img/b17e98d7/20240420/i1713601382_513_4.jpg","https://xcimg.szwego.com/img/b17e98d7/20240420/i1713601382_4844_3.jpg","https://xcimg.szwego.com/img/b17e98d7/20240420/i1713601382_1996_6.jpg","https://xcimg.szwego.com/img/b17e98d7/20240420/i1713601382_3324_7.jpg","https://xcimg.szwego.com/img/b17e98d7/20240420/i1713601382_6408_8.jpg","https://xcimg.szwego.com/img/b17e98d7/20240420/i1713601382_3811_0.jpg","https://xcimg.szwego.com/img/b17e98d7/20240420/i1713601382_9148_1.jpg","https://xcimg.szwego.com/img/b17e98d7/20240420/i1713601382_2143_5.jpg"],"created_at":"2024-10-22T05:04:33.160Z"},{"id":"item-fbfc2f9a5c72","sku":"_dp-p-FBbLZqykzfaUhl7U5LDesyAZrmmPk5KKuA","name_en":"斑鸠灰🏷️Mini Kelly 二代","name_cn":"斑鸠灰🏷️Mini Kelly 二代\n• 独家高性价比版本\n• 里外全皮完美机缝\n• Mini包中的霸主\n“麻雀虽小、五脏俱全”🎁 除了可以携带随身所需小物_更可容纳品味 将品味“背着走”。\n现货19Cm 7878000","specs":{"source":"wsxcme","sourceId":"_dp-p-FBbLZqykzfaUhl7U5LDesyAZrmmPk5KKuA","sourceTagId":76963559,"sourceTagName":"爱马仕/女包","rawTitle":"斑鸠灰🏷️Mini Kelly 二代\n• 独家高性价比版本\n• 里外全皮完美机缝\n• Mini包中的霸主\n“麻雀虽小、五脏俱全”🎁 除了可以携带随身所需小物_更可容纳品味 将品味“背着走”。\n现货19Cm 7878000"},"price":null,"currency":"CNY","moq":1,"category":"hermes-women-bags","status":"active","alibaba_url":null,"images":["https://xcimg.szwego.com/img/b17e98d7/20240420/i1713606848_5407_6.jpg","https://xcimg.szwego.com/img/b17e98d7/20240420/i1713606848_4345_0.jpg","https://xcimg.szwego.com/img/b17e98d7/20240420/i1713606848_3822_7.jpg","https://xcimg.szwego.com/img/b17e98d7/20240420/i1713606848_8517_8.jpg","https://xcimg.szwego.com/img/b17e98d7/20240420/i1713606848_557_1.jpg","https://xcimg.szwego.com/img/b17e98d7/20240420/i1713606848_5204_5.jpg","https://xcimg.szwego.com/img/b17e98d7/20240420/i1713606848_468_4.jpg","https://xcimg.szwego.com/img/b17e98d7/20240420/i1713606848_6244_2.jpg","https://xcimg.szwego.com/img/b17e98d7/20240420/i1713606848_8017_3.jpg"],"created_at":"2024-10-22T05:04:33.159Z"},{"id":"item-0f478ca9bc52","sku":"_dEwEwPdfojYP5-DPoy61nlMFHOFlG9OTWT6p24Q","name_en":"锦葵紫🌸Mini Kelly 二代","name_cn":"锦葵紫🌸Mini Kelly 二代\n• 独家高性价比版本\n• 里外全皮完美机缝\n• Mini包中的霸主\n“麻雀虽小、五脏俱全”🎁 除了可以携带随身所需小物_更可容纳品味 将品味“背着走”。\n现货19Cm 7878000","specs":{"source":"wsxcme","sourceId":"_dEwEwPdfojYP5-DPoy61nlMFHOFlG9OTWT6p24Q","sourceTagId":76963559,"sourceTagName":"爱马仕/女包","rawTitle":"锦葵紫🌸Mini Kelly 二代\n• 独家高性价比版本\n• 里外全皮完美机缝\n• Mini包中的霸主\n“麻雀虽小、五脏俱全”🎁 除了可以携带随身所需小物_更可容纳品味 将品味“背着走”。\n现货19Cm 7878000"},"price":null,"currency":"CNY","moq":1,"category":"hermes-women-bags","status":"active","alibaba_url":null,"images":["https://xcimg.szwego.com/img/b17e98d7/20240420/i1713603702_2289_8.jpg","https://xcimg.szwego.com/img/b17e98d7/20240420/i1713603702_2206_3.jpg","https://xcimg.szwego.com/img/b17e98d7/20240420/i1713603702_9666_1.jpg","https://xcimg.szwego.com/img/b17e98d7/20240420/i1713603702_1919_7.jpg","https://xcimg.szwego.com/img/b17e98d7/20240420/i1713603702_4570_6.jpg","https://xcimg.szwego.com/img/b17e98d7/20240420/i1713603702_5137_5.jpg","https://xcimg.szwego.com/img/b17e98d7/20240420/i1713603702_8961_2.jpg","https://xcimg.szwego.com/img/b17e98d7/20240420/i1713603702_4762_4.jpg","https://xcimg.szwego.com/img/b17e98d7/20240420/i1713603702_8734_0.jpg"],"created_at":"2024-10-22T05:04:33.158Z"},{"id":"item-df395884b37d","sku":"_de9e9G2ERIE5kdV_gt-lQOUot9L5zua7opBjvMg","name_en":"新颜色|X9锦葵紫/银扣","name_cn":"新颜色|X9锦葵紫/银扣\n• 独家高性价比版本\n• 里外全皮完美机缝\n• Mini包中的霸主\n“麻雀虽小、五脏俱全”🎁 除了可以携带随身所需小物_更可容纳品味 将品味“背着走”。\n现货19Cm 7878070","specs":{"source":"wsxcme","sourceId":"_de9e9G2ERIE5kdV_gt-lQOUot9L5zua7opBjvMg","sourceTagId":76963559,"sourceTagName":"爱马仕/女包","rawTitle":"新颜色|X9锦葵紫/银扣\n• 独家高性价比版本\n• 里外全皮完美机缝\n• Mini包中的霸主\n“麻雀虽小、五脏俱全”🎁 除了可以携带随身所需小物_更可容纳品味 将品味“背着走”。\n现货19Cm 7878070"},"price":null,"currency":"CNY","moq":1,"category":"hermes-women-bags","status":"active","alibaba_url":null,"images":["https://xcimg.szwego.com/img/b17e98d7/20231019/i1697693242_4206_0.jpg","https://xcimg.szwego.com/img/b17e98d7/20231019/i1697693242_68_1.jpg","https://xcimg.szwego.com/img/b17e98d7/20231019/i1697693242_4900_2.jpg","https://xcimg.szwego.com/img/b17e98d7/20231019/i1697693242_2709_3.jpg","https://xcimg.szwego.com/img/b17e98d7/20231019/i1697693242_1648_4.jpg","https://xcimg.szwego.com/img/b17e98d7/20231019/i1697693242_3993_5.jpg","https://xcimg.szwego.com/img/b17e98d7/20231019/i1697693242_4154_6.jpg","https://xcimg.szwego.com/img/b17e98d7/20231019/i1697693242_2156_7.jpg","https://xcimg.szwego.com/img/b17e98d7/20231019/i1697693242_4922_8.jpg"],"created_at":"2024-10-22T05:04:33.157Z"},{"id":"item-ee3f8fe934e8","sku":"_dxDxD06Zr737OhoLxkseSimevXg9sf1JWLOfKcw","name_en":"H Mɪɴɪ Kᴇʟʟʏ 19","name_cn":"H Mɪɴɪ Kᴇʟʟʏ 19\n_奶昔白_金扣_\n• 独家高性价比版本\n• 里外全皮完美机缝\n• Mini包中的霸主\n“麻雀虽小、五脏俱全”🎁 除了可以携带随身所需小物_更可容纳品味 将品味“背着走”。\n现货19Cm 7878080","specs":{"source":"wsxcme","sourceId":"_dxDxD06Zr737OhoLxkseSimevXg9sf1JWLOfKcw","sourceTagId":76963559,"sourceTagName":"爱马仕/女包","rawTitle":"H Mɪɴɪ Kᴇʟʟʏ 19\n_奶昔白_金扣_\n• 独家高性价比版本\n• 里外全皮完美机缝\n• Mini包中的霸主\n“麻雀虽小、五脏俱全”🎁 除了可以携带随身所需小物_更可容纳品味 将品味“背着走”。\n现货19Cm 7878080"},"price":null,"currency":"CNY","moq":1,"category":"hermes-women-bags","status":"active","alibaba_url":null,"images":["https://xcimg.szwego.com/img/b17e98d7/20240624/i1719222465_3473_4.jpg","https://xcimg.szwego.com/img/b17e98d7/20240624/i1719222465_6334_0.jpg","https://xcimg.szwego.com/img/b17e98d7/20240624/i1719222465_5480_7.jpg","https://xcimg.szwego.com/img/b17e98d7/20240624/i1719222465_4233_1.jpg","https://xcimg.szwego.com/img/b17e98d7/20240624/i1719222465_5337_6.jpg","https://xcimg.szwego.com/img/b17e98d7/20240624/i1719222465_5975_2.jpg","https://xcimg.szwego.com/img/b17e98d7/20240624/i1719222465_176_3.jpg","https://xcimg.szwego.com/img/b17e98d7/20240624/i1719222465_5182_5.jpg","https://xcimg.szwego.com/img/b17e98d7/20240624/i1719222465_867_8.jpg"],"created_at":"2024-10-22T05:04:33.156Z"},{"id":"item-03148861dd0a","sku":"_ddzdzkR2YTdshw8tx1An5Uag1dacih6XBk4CdMg","name_en":"✨凯莉二代mini","name_cn":"✨凯莉二代mini \n彩色集合图","specs":{"source":"wsxcme","sourceId":"_ddzdzkR2YTdshw8tx1An5Uag1dacih6XBk4CdMg","sourceTagId":76963559,"sourceTagName":"爱马仕/女包","rawTitle":"✨凯莉二代mini \n彩色集合图"},"price":null,"currency":"CNY","moq":1,"category":"hermes-women-bags","status":"active","alibaba_url":null,"images":["https://xcimg.szwego.com/img/88b306c4/20240904/a1725383884854_2616.jpg","https://xcimg.szwego.com/img/88b306c4/20240904/a1725383897297_4374.jpg","https://xcimg.szwego.com/img/88b306c4/20240904/a1725383907134_6157.jpg"],"created_at":"2024-10-22T05:04:33.155Z"},{"id":"item-20d18e855028","sku":"_dfvfv4aSwV0BJk67p9pIq5B-MXNybkxtVQRa-Nw","name_en":"picotin 菜篮子","name_cn":"picotin 菜篮子\n颜色:班鸠灰、金扣\n进口tc头层牛皮\n半收工缝制收口\n蜜蜡线缝制\n尺寸:18cm","specs":{"source":"wsxcme","sourceId":"_dfvfv4aSwV0BJk67p9pIq5B-MXNybkxtVQRa-Nw","sourceTagId":76963559,"sourceTagName":"爱马仕/女包","rawTitle":"picotin 菜篮子\n颜色:班鸠灰、金扣\n进口tc头层牛皮\n半收工缝制收口\n蜜蜡线缝制\n尺寸:18cm"},"price":null,"currency":"CNY","moq":1,"category":"hermes-women-bags","status":"active","alibaba_url":null,"images":["https://xcimg.szwego.com/img/88b306c4/20240901/a1725200860502_1820.jpg","https://xcimg.szwego.com/img/88b306c4/20240901/a1725200860549_6214.jpg","https://xcimg.szwego.com/img/88b306c4/20240901/a1725200860844_6634.jpg","https://xcimg.szwego.com/img/88b306c4/20240901/a1725200860557_5160.jpg","https://xcimg.szwego.com/img/88b306c4/20240901/a1725200860746_8620.jpg","https://xcimg.szwego.com/img/88b306c4/20240901/a1725200860484_8267.jpg","https://xcimg.szwego.com/img/88b306c4/20240901/a1725200862127_6157.jpg","https://xcimg.szwego.com/img/88b306c4/20240901/a1725200862257_7730.jpg","https://xcimg.szwego.com/img/88b306c4/20240901/a1725200862172_4020.jpg"],"created_at":"2024-10-22T05:00:12.226Z"},{"id":"item-db67cec2a3a1","sku":"_dpfpf6S1JICvvPPKp4b7GOlvOvPOin4mtKpBn1g","name_en":"picotin 菜篮子","name_cn":"picotin 菜篮子\n颜色:牛仔兰、金扣\n进口tc头层牛皮\n半收工缝制收口\n蜜蜡线缝制\n尺寸:18cm","specs":{"source":"wsxcme","sourceId":"_dpfpf6S1JICvvPPKp4b7GOlvOvPOin4mtKpBn1g","sourceTagId":76963559,"sourceTagName":"爱马仕/女包","rawTitle":"picotin 菜篮子\n颜色:牛仔兰、金扣\n进口tc头层牛皮\n半收工缝制收口\n蜜蜡线缝制\n尺寸:18cm"},"price":null,"currency":"CNY","moq":1,"category":"hermes-women-bags","status":"active","alibaba_url":null,"images":["https://xcimg.szwego.com/img/88b306c4/20240901/a1725200101931_7570.jpg","https://xcimg.szwego.com/img/88b306c4/20240901/a1725200101655_8556.jpg","https://xcimg.szwego.com/img/88b306c4/20240901/a1725200101854_1621.jpg","https://xcimg.szwego.com/img/88b306c4/20240901/a1725200101585_6040.jpg","https://xcimg.szwego.com/img/88b306c4/20240901/a1725200101951_2263.jpg","https://xcimg.szwego.com/img/88b306c4/20240901/a1725200101706_8041.jpg","https://xcimg.szwego.com/img/88b306c4/20240901/a1725200103169_8602.jpg","https://xcimg.szwego.com/img/88b306c4/20240901/a1725200103379_7274.jpg","https://xcimg.szwego.com/img/88b306c4/20240901/a1725200103161_3668.jpg"],"created_at":"2024-10-22T05:00:12.225Z"},{"id":"item-a3178062d1af","sku":"_dvQvQX4-XBnUmDxDl-gCXfrohN1SCxk4Bj_CtBA","name_en":"picotin 菜篮子","name_cn":"picotin 菜篮子\n颜色:牛仔兰、银扣\n进口tc头层牛皮\n半收工缝制收口\n蜜蜡线缝制\n尺寸:18cm","specs":{"source":"wsxcme","sourceId":"_dvQvQX4-XBnUmDxDl-gCXfrohN1SCxk4Bj_CtBA","sourceTagId":76963559,"sourceTagName":"爱马仕/女包","rawTitle":"picotin 菜篮子\n颜色:牛仔兰、银扣\n进口tc头层牛皮\n半收工缝制收口\n蜜蜡线缝制\n尺寸:18cm"},"price":null,"currency":"CNY","moq":1,"category":"hermes-women-bags","status":"active","alibaba_url":null,"images":["https://xcimg.szwego.com/img/88b306c4/20240901/a1725199799405_1502.jpg","https://xcimg.szwego.com/img/88b306c4/20240901/a1725199799073_2542.jpg","https://xcimg.szwego.com/img/88b306c4/20240901/a1725199799024_6840.jpg","https://xcimg.szwego.com/img/88b306c4/20240901/a1725199799180_7841.jpg","https://xcimg.szwego.com/img/88b306c4/20240901/a1725199799181_8073.jpg","https://xcimg.szwego.com/img/88b306c4/20240901/a1725199799453_4451.jpg","https://xcimg.szwego.com/img/88b306c4/20240901/a1725199800562_7046.jpg","https://xcimg.szwego.com/img/88b306c4/20240901/a1725199800590_5260.jpg","https://xcimg.szwego.com/img/88b306c4/20240901/a1725199800539_0615.jpg"],"created_at":"2024-10-22T05:00:12.224Z"},{"id":"item-33ad4a25de8c","sku":"_dc6c6TgCdYGhM3dbislqlB4kzkIBFaHtGfbwopw","name_en":"constance 19cm epsom Nior 89 黑色","name_cn":"constance 19cm epsom Nior 89 黑色\nin stock","specs":{"source":"wsxcme","sourceId":"_dc6c6TgCdYGhM3dbislqlB4kzkIBFaHtGfbwopw","sourceTagId":76963559,"sourceTagName":"爱马仕/女包","rawTitle":"constance 19cm epsom Nior 89 黑色\nin stock"},"price":null,"currency":"CNY","moq":1,"category":"hermes-women-bags","status":"active","alibaba_url":null,"images":["https://xcimg.szwego.com/20230812/i1691832062_1606_0.jpg","https://xcimg.szwego.com/20230812/i1691832062_7759_1.jpg","https://xcimg.szwego.com/20230812/i1691832062_9303_2.jpg","https://xcimg.szwego.com/20230812/i1691832062_9813_3.jpg","https://xcimg.szwego.com/20230812/i1691832062_4299_4.jpg","https://xcimg.szwego.com/20230812/i1691832062_5854_5.jpg","https://xcimg.szwego.com/20230812/i1691832062_20_6.jpg","https://xcimg.szwego.com/20230812/i1691832062_5990_7.jpg"],"created_at":"2024-10-22T05:00:12.223Z"},{"id":"item-a401bc44632e","sku":"_dq_q_o-ZqiSBbPzdavCvb9-RXgMNUQxmaiDAzqA","name_en":"康康19cm 原版epsom皮 奶油白 金扣 订单出货","name_cn":"康康19cm 原版epsom皮 奶油白 金扣 订单出货","specs":{"source":"wsxcme","sourceId":"_dq_q_o-ZqiSBbPzdavCvb9-RXgMNUQxmaiDAzqA","sourceTagId":76963559,"sourceTagName":"爱马仕/女包","rawTitle":"康康19cm 原版epsom皮 奶油白 金扣 订单出货"},"price":null,"currency":"CNY","moq":1,"category":"hermes-women-bags","status":"active","alibaba_url":null,"images":["https://xcimg.szwego.com/20230526/i1685069590_6252_0.jpg","https://xcimg.szwego.com/20230526/i1685069590_9679_1.jpg","https://xcimg.szwego.com/20230526/i1685069590_4024_2.jpg","https://xcimg.szwego.com/20230526/i1685069590_9072_3.jpg","https://xcimg.szwego.com/20230526/i1685069590_9237_4.jpg","https://xcimg.szwego.com/20230526/i1685069590_3921_5.jpg","https://xcimg.szwego.com/20230526/i1685069590_6256_6.jpg","https://xcimg.szwego.com/20230526/i1685069590_3978_7.jpg","https://xcimg.szwego.com/20230526/i1685069590_4667_8.jpg"],"created_at":"2024-10-22T05:00:12.222Z"},{"id":"item-4dd4afa3af45","sku":"_dhlhlDj9EZwVjr2i_VmXsD_JkYVfrbZCakuCVWA","name_en":"constance 19cm epsom etoupe grey 18大象灰 金扣","name_cn":"constance 19cm epsom etoupe grey 18大象灰 金扣\nin stock","specs":{"source":"wsxcme","sourceId":"_dhlhlDj9EZwVjr2i_VmXsD_JkYVfrbZCakuCVWA","sourceTagId":76963559,"sourceTagName":"爱马仕/女包","rawTitle":"constance 19cm epsom etoupe grey 18大象灰 金扣\nin stock"},"price":null,"currency":"CNY","moq":1,"category":"hermes-women-bags","status":"active","alibaba_url":null,"images":["https://xcimg.szwego.com/20230812/i1691841378_4328_0.jpg","https://xcimg.szwego.com/20230812/i1691841378_978_1.jpg","https://xcimg.szwego.com/20230812/i1691841378_6987_2.jpg","https://xcimg.szwego.com/20230812/i1691841378_9547_3.jpg","https://xcimg.szwego.com/20230812/i1691841378_1407_4.jpg"],"created_at":"2024-10-22T05:00:12.221Z"}],"page":8,"pageSize":24,"total":439,"totalPages":19}
