{"items":[{"id":"item-7820cd5828ea","sku":"_dnVnVkUUriQPuXizfGltuV6FIrJsrazkD8bz66w","name_en":"BK25 Togo Leather","name_cn":"BK25 Togo Leather\nTogo Leather Platinum 25cm\nHand-stitched wax thread, full steel hardware, sheepskin lining","specs":{"source":"wsxcme","sourceId":"_dnVnVkUUriQPuXizfGltuV6FIrJsrazkD8bz66w","sourceTagId":76963559,"sourceTagName":"Hermes/women's bag","rawTitle":"BK25 Togo Leather\nTogo Leather Platinum 25cm\nHand-stitched wax thread, full steel hardware, sheepskin lining"},"price":null,"currency":"CNY","moq":1,"category":"hermes-women-bags","status":"active","alibaba_url":null,"images":["https://xcimg.szwego.com/img/9ee4266d/20240528/i1716863319_8980_8.jpg","https://xcimg.szwego.com/img/9ee4266d/20240528/i1716868642_195_0.jpg","https://xcimg.szwego.com/img/9ee4266d/20240528/i1716863811_2593_0.jpg","https://xcimg.szwego.com/img/9ee4266d/20240528/i1716863319_6637_9.jpg","https://xcimg.szwego.com/img/9ee4266d/20240528/i1716863318_1996_0.jpg","https://xcimg.szwego.com/img/9ee4266d/20240528/i1716863318_3996_2.jpg","https://xcimg.szwego.com/img/9ee4266d/20240528/i1716863698_1027_1.jpg","https://xcimg.szwego.com/img/9ee4266d/20240528/i1716889243_5464_1.jpg","https://xcimg.szwego.com/img/9ee4266d/20240528/i1716889243_1550_0.jpg"],"created_at":"2024-10-22T04:43:02.191Z"},{"id":"item-1361c961e2a0","sku":"_dkRkRhcHrpI7jfy_aXR0PJICSIvZGmaYnqV0t0w","name_en":"✨BK25 Togo Leather","name_cn":"✨BK25 Togo Leather\nTogo Leather Platinum 25cm\nHand-stitched wax thread, full steel hardware, sheepskin lining","specs":{"source":"wsxcme","sourceId":"_dkRkRhcHrpI7jfy_aXR0PJICSIvZGmaYnqV0t0w","sourceTagId":76963559,"sourceTagName":"Hermes/women's bag","rawTitle":"✨BK25 Togo Leather\nTogo Leather Platinum 25cm\nHand-stitched wax thread, full steel hardware, sheepskin lining"},"price":null,"currency":"CNY","moq":1,"category":"hermes-women-bags","status":"active","alibaba_url":null,"images":["https://xcimg.szwego.com/img/9ee4266d/20240528/i1716870627_5748_3.jpg","https://xcimg.szwego.com/img/9ee4266d/20240528/i1716870627_2402_2.jpg","https://xcimg.szwego.com/img/9ee4266d/20240528/i1716866754_9662_5.jpg","https://xcimg.szwego.com/img/9ee4266d/20240528/i1716870793_1044_0.jpg","https://xcimg.szwego.com/img/9ee4266d/20240528/i1716870993_6192_0.jpg","https://xcimg.szwego.com/img/9ee4266d/20240528/i1716870993_1177_1.jpg","https://xcimg.szwego.com/img/9ee4266d/20240528/i1716866754_7025_2.jpg","https://xcimg.szwego.com/img/9ee4266d/20240528/i1716886592_7019_0.jpg","https://xcimg.szwego.com/img/9ee4266d/20240528/i1716866754_9937_3.jpg"],"created_at":"2024-10-22T04:43:02.190Z"},{"id":"item-12d3815f493d","sku":"_db2b2AEft8lrQJcGcmFVWNPumtKkWuD1YeuLy0Q","name_en":"In Stock ✨BK25 Togo Leather","name_cn":"In Stock ✨BK25 Togo Leather\nTogo Leather Birkin 25cm\nFull hand-stitched wax thread, all-brass hardware, sheepskin lining","specs":{"source":"wsxcme","sourceId":"_db2b2AEft8lrQJcGcmFVWNPumtKkWuD1YeuLy0Q","sourceTagId":76963559,"sourceTagName":"Hermes/women's bag","rawTitle":"In Stock ✨BK25 Togo Leather\nTogo Leather Birkin 25cm\nFull hand-stitched wax thread, all-brass hardware, sheepskin lining"},"price":null,"currency":"CNY","moq":1,"category":"hermes-women-bags","status":"active","alibaba_url":null,"images":["https://xcimg.szwego.com/img/9ee4266d/20240528/i1716872441_6943_0.jpg","https://xcimg.szwego.com/img/9ee4266d/20240528/i1716867890_5259_5.jpg","https://xcimg.szwego.com/img/9ee4266d/20240528/i1716867890_7753_6.jpg","https://xcimg.szwego.com/img/9ee4266d/20240528/i1716872159_5715_1.jpg","https://xcimg.szwego.com/img/9ee4266d/20240528/i1716872159_8563_0.jpg","https://xcimg.szwego.com/img/9ee4266d/20240528/i1716872204_1536_0.jpg","https://xcimg.szwego.com/img/9ee4266d/20240528/i1716886349_9785_0.jpg","https://xcimg.szwego.com/img/9ee4266d/20240528/i1716872778_5576_0.jpg","https://xcimg.szwego.com/img/9ee4266d/20240528/i1716873178_1353_0.jpg"],"created_at":"2024-10-22T04:43:02.189Z"},{"id":"item-0e3795667559","sku":"_dh8h85rx9A27JoeQ3xIJnHzKhN4fnoJ9fcg4V1w","name_en":"In Stock ✨BK25 Elephant Grey","name_cn":"In Stock ✨BK25 Elephant Grey\nTogo Leather Birkin 25cm\nFull hand-stitched wax thread, all-brass hardware, sheepskin lining","specs":{"source":"wsxcme","sourceId":"_dh8h85rx9A27JoeQ3xIJnHzKhN4fnoJ9fcg4V1w","sourceTagId":76963559,"sourceTagName":"Hermes/women's bag","rawTitle":"In Stock ✨BK25 Elephant Grey\nTogo Leather Birkin 25cm\nFull hand-stitched wax thread, all-brass hardware, sheepskin lining"},"price":null,"currency":"CNY","moq":1,"category":"hermes-women-bags","status":"active","alibaba_url":null,"images":["https://xcimg.szwego.com/img/9ee4266d/20240608/i1717826920_7455_0.jpg","https://xcimg.szwego.com/img/9ee4266d/20240608/i1717826920_5908_2.jpg","https://xcimg.szwego.com/img/9ee4266d/20240608/i1717826920_4180_1.jpg","https://xcimg.szwego.com/img/9ee4266d/20240608/i1717826920_1482_6.jpg","https://xcimg.szwego.com/img/9ee4266d/20240608/i1717826920_513_3.jpg","https://xcimg.szwego.com/img/9ee4266d/20240608/i1717826920_7128_4.jpg","https://xcimg.szwego.com/img/9ee4266d/20240608/i1717826920_1321_5.jpg","https://xcimg.szwego.com/img/9ee4266d/20240608/i1717826921_3540_7.jpg","https://xcimg.szwego.com/img/9ee4266d/20240608/i1717826921_1160_8.jpg"],"created_at":"2024-10-22T04:43:02.188Z"},{"id":"item-6d61602993c7","sku":"_dNYNY2SykAjewc0yi1A5brTWY3_FMDal0LrHkDg","name_en":"In Stock ✨BK25","name_cn":"In Stock ✨BK25\nTogo Leather Birkin 25cm\nFull hand-stitched wax thread, all-brass hardware, sheepskin lining","specs":{"source":"wsxcme","sourceId":"_dNYNY2SykAjewc0yi1A5brTWY3_FMDal0LrHkDg","sourceTagId":76963559,"sourceTagName":"Hermes/women's bag","rawTitle":"In Stock ✨BK25\nTogo Leather Birkin 25cm\nFull hand-stitched wax thread, all-brass hardware, sheepskin lining"},"price":null,"currency":"CNY","moq":1,"category":"hermes-women-bags","status":"active","alibaba_url":null,"images":["https://xcimg.szwego.com/img/9ee4266d/20240608/i1717840846_9816_7.jpg","https://xcimg.szwego.com/img/9ee4266d/20240608/i1717840846_5215_1.jpg","https://xcimg.szwego.com/img/9ee4266d/20240608/i1717840846_8149_8.jpg","https://xcimg.szwego.com/img/9ee4266d/20240608/i1717840846_1296_2.jpg","https://xcimg.szwego.com/img/9ee4266d/20240608/i1717840846_9235_3.jpg","https://xcimg.szwego.com/img/9ee4266d/20240608/i1717840846_1490_0.jpg","https://xcimg.szwego.com/img/9ee4266d/20240608/i1717840846_1301_4.jpg","https://xcimg.szwego.com/img/9ee4266d/20240608/i1717840846_3454_6.jpg","https://xcimg.szwego.com/img/9ee4266d/20240608/i1717840846_5227_5.jpg"],"created_at":"2024-10-22T04:43:02.187Z"},{"id":"item-bc7b02fed81b","sku":"_d-H-HbRqf7XYub3vTGCy-Hoa3ayxagS_qQGzBdg","name_en":"In Stock ✨ BK25 Black Gold","name_cn":"In Stock ✨ BK25 Black Gold\nTogo Leather Birkin 25cm\nFull hand-stitched wax thread, all-brass hardware, sheepskin lining","specs":{"source":"wsxcme","sourceId":"_d-H-HbRqf7XYub3vTGCy-Hoa3ayxagS_qQGzBdg","sourceTagId":76963559,"sourceTagName":"Hermes/women's bag","rawTitle":"In Stock ✨ BK25 Black Gold\nTogo Leather Birkin 25cm\nFull hand-stitched wax thread, all-brass hardware, sheepskin lining"},"price":null,"currency":"CNY","moq":1,"category":"hermes-women-bags","status":"active","alibaba_url":null,"images":["https://xcimg.szwego.com/img/9ee4266d/20240614/i1718350974_5027_1.jpg","https://xcimg.szwego.com/img/9ee4266d/20240614/i1718350975_953_7.jpg","https://xcimg.szwego.com/img/9ee4266d/20240614/i1718350974_88_0.jpg","https://xcimg.szwego.com/img/9ee4266d/20240614/i1718350974_9717_2.jpg","https://xcimg.szwego.com/img/9ee4266d/20240614/i1718350974_2418_3.jpg","https://xcimg.szwego.com/img/9ee4266d/20240614/i1718350975_5065_8.jpg","https://xcimg.szwego.com/img/9ee4266d/20240614/i1718350974_4698_4.jpg","https://xcimg.szwego.com/img/9ee4266d/20240614/i1718350974_4696_5.jpg","https://xcimg.szwego.com/img/9ee4266d/20240614/i1718350974_4019_6.jpg"],"created_at":"2024-10-22T04:43:02.186Z"},{"id":"item-1c665edece7e","sku":"_dFbFbTmQUgaQF4JiCljd9JLbqho7KrbQKszd5SA","name_en":"In Stock ✨ BK25 Black Silver","name_cn":"In Stock ✨ BK25 Black Silver\nTogo Leather Birkin 25cm\nFull hand-stitched wax thread, all-brass hardware, sheepskin lining","specs":{"source":"wsxcme","sourceId":"_dFbFbTmQUgaQF4JiCljd9JLbqho7KrbQKszd5SA","sourceTagId":76963559,"sourceTagName":"Hermes/women's bag","rawTitle":"In Stock ✨ BK25 Black Silver\nTogo Leather Birkin 25cm\nFull hand-stitched wax thread, all-brass hardware, sheepskin lining"},"price":null,"currency":"CNY","moq":1,"category":"hermes-women-bags","status":"active","alibaba_url":null,"images":["https://xcimg.szwego.com/img/9ee4266d/20240614/i1718350877_1045_7.jpg","https://xcimg.szwego.com/img/9ee4266d/20240614/i1718350876_4515_1.jpg","https://xcimg.szwego.com/img/9ee4266d/20240614/i1718350876_3802_2.jpg","https://xcimg.szwego.com/img/9ee4266d/20240614/i1718350876_6864_3.jpg","https://xcimg.szwego.com/img/9ee4266d/20240614/i1718350876_9514_5.jpg","https://xcimg.szwego.com/img/9ee4266d/20240614/i1718350876_1314_4.jpg","https://xcimg.szwego.com/img/9ee4266d/20240614/i1718350876_5379_0.jpg","https://xcimg.szwego.com/img/9ee4266d/20240614/i1718350877_5334_8.jpg","https://xcimg.szwego.com/img/9ee4266d/20240614/i1718350877_97_6.jpg"],"created_at":"2024-10-22T04:43:02.185Z"},{"id":"item-d09062fc22fa","sku":"_dsQsQutRagqcZWR5PedxJJgQ0z6Xa2pezvDeUOA","name_en":"In Stock ✨ BK25 Gold Brown","name_cn":"In Stock ✨ BK25 Gold Brown\nTogo leather Palladium 25cm\nFull hand-stitched wax thread, all-brass hardware, lambskin lining","specs":{"source":"wsxcme","sourceId":"_dsQsQutRagqcZWR5PedxJJgQ0z6Xa2pezvDeUOA","sourceTagId":76963559,"sourceTagName":"Hermes/women's bag","rawTitle":"In Stock ✨ BK25 Gold Brown\nTogo leather Palladium 25cm\nFull hand-stitched wax thread, all-brass hardware, lambskin lining"},"price":null,"currency":"CNY","moq":1,"category":"hermes-women-bags","status":"active","alibaba_url":null,"images":["https://xcimg.szwego.com/img/9ee4266d/20240614/i1718359721_4869_2.jpg","https://xcimg.szwego.com/img/9ee4266d/20240614/i1718359721_7807_7.jpg","https://xcimg.szwego.com/img/9ee4266d/20240614/i1718359721_7495_5.jpg","https://xcimg.szwego.com/img/9ee4266d/20240614/i1718359721_6663_6.jpg","https://xcimg.szwego.com/img/9ee4266d/20240614/i1718359721_2241_4.jpg","https://xcimg.szwego.com/img/9ee4266d/20240614/i1718359721_8876_0.jpg","https://xcimg.szwego.com/img/9ee4266d/20240614/i1718359721_339_1.jpg","https://xcimg.szwego.com/img/9ee4266d/20240614/i1718359721_6224_3.jpg","https://xcimg.szwego.com/img/9ee4266d/20240614/i1718359729_6045_0.jpg"],"created_at":"2024-10-22T04:43:02.184Z"},{"id":"item-b3ea160f8e31","sku":"_dA8A8WomwJsDb-4enJMy-csM2RbmP2FXAK7Fliw","name_en":"In Stock ✨ BK25 Gold Brown","name_cn":"In Stock ✨ BK25 Gold Brown\nTogo leather Palladium 25cm\nFull hand-stitched wax thread, all-brass hardware, lambskin lining","specs":{"source":"wsxcme","sourceId":"_dA8A8WomwJsDb-4enJMy-csM2RbmP2FXAK7Fliw","sourceTagId":76963559,"sourceTagName":"Hermes/women's bag","rawTitle":"In Stock ✨ BK25 Gold Brown\nTogo leather Palladium 25cm\nFull hand-stitched wax thread, all-brass hardware, lambskin lining"},"price":null,"currency":"CNY","moq":1,"category":"hermes-women-bags","status":"active","alibaba_url":null,"images":["https://xcimg.szwego.com/img/9ee4266d/20240614/i1718359704_9430_3.jpg","https://xcimg.szwego.com/img/9ee4266d/20240614/i1718359704_907_2.jpg","https://xcimg.szwego.com/img/9ee4266d/20240614/i1718359704_3492_7.jpg","https://xcimg.szwego.com/img/9ee4266d/20240614/i1718359704_5953_1.jpg","https://xcimg.szwego.com/img/9ee4266d/20240614/i1718359704_9429_6.jpg","https://xcimg.szwego.com/img/9ee4266d/20240614/i1718359704_9422_4.jpg","https://xcimg.szwego.com/img/9ee4266d/20240614/i1718359704_2765_5.jpg","https://xcimg.szwego.com/img/9ee4266d/20240614/i1718359704_1940_8.jpg","https://xcimg.szwego.com/img/9ee4266d/20240614/i1718359704_6992_0.jpg"],"created_at":"2024-10-22T04:43:02.183Z"},{"id":"item-50dca776b9bf","sku":"_duSuSImMMqTM-03ZWsEk8qoooaXV2CAOZrI5PzA","name_en":"In Stock ✨ BK25 Iced White","name_cn":"In Stock ✨ BK25 Iced White\nTogo leather Palladium 25cm\nFull hand-stitched wax thread, all-brass hardware, lambskin lining","specs":{"source":"wsxcme","sourceId":"_duSuSImMMqTM-03ZWsEk8qoooaXV2CAOZrI5PzA","sourceTagId":76963559,"sourceTagName":"Hermes/women's bag","rawTitle":"In Stock ✨ BK25 Iced White\nTogo leather Palladium 25cm\nFull hand-stitched wax thread, all-brass hardware, lambskin lining"},"price":null,"currency":"CNY","moq":1,"category":"hermes-women-bags","status":"active","alibaba_url":null,"images":["https://xcimg.szwego.com/img/9ee4266d/20240612/i1718189958_9721_8.jpg","https://xcimg.szwego.com/img/9ee4266d/20240612/i1718189958_7963_4.jpg","https://xcimg.szwego.com/img/9ee4266d/20240612/i1718189958_9655_0.jpg","https://xcimg.szwego.com/img/9ee4266d/20240612/i1718189958_290_3.jpg","https://xcimg.szwego.com/img/9ee4266d/20240612/i1718189958_4566_1.jpg","https://xcimg.szwego.com/img/9ee4266d/20240612/i1718189958_1957_2.jpg","https://xcimg.szwego.com/img/9ee4266d/20240612/i1718189958_7642_5.jpg","https://xcimg.szwego.com/img/9ee4266d/20240612/i1718189958_9164_6.jpg","https://xcimg.szwego.com/img/9ee4266d/20240612/i1718189958_8179_7.jpg"],"created_at":"2024-10-22T04:43:02.182Z"},{"id":"item-94763c36bf9b","sku":"_dvYvYKg9aAyvLzjpTIiUXUCysCdJ47AunswcXdw","name_en":"In Stock ✨ BK25 Iced White","name_cn":"In Stock ✨ BK25 Iced White\nTogo leather Palladium 25cm\nFull hand-stitched wax thread, all-brass hardware, lambskin lining","specs":{"source":"wsxcme","sourceId":"_dvYvYKg9aAyvLzjpTIiUXUCysCdJ47AunswcXdw","sourceTagId":76963559,"sourceTagName":"Hermes/women's bag","rawTitle":"In Stock ✨ BK25 Iced White\nTogo leather Palladium 25cm\nFull hand-stitched wax thread, all-brass hardware, lambskin lining"},"price":null,"currency":"CNY","moq":1,"category":"hermes-women-bags","status":"active","alibaba_url":null,"images":["https://xcimg.szwego.com/img/9ee4266d/20240614/i1718359764_5764_0.jpg","https://xcimg.szwego.com/img/9ee4266d/20240614/i1718359764_8767_0.jpg","https://xcimg.szwego.com/img/9ee4266d/20240614/i1718359764_4347_0.jpg","https://xcimg.szwego.com/img/9ee4266d/20240614/i1718359764_9167_0.jpg","https://xcimg.szwego.com/img/9ee4266d/20240614/i1718359764_6090_0.jpg","https://xcimg.szwego.com/img/9ee4266d/20240614/i1718359764_1030_0.jpg","https://xcimg.szwego.com/img/9ee4266d/20240614/i1718359764_8454_0.jpg","https://xcimg.szwego.com/img/9ee4266d/20240614/i1718359764_4661_0.jpg","https://xcimg.szwego.com/img/9ee4266d/20240614/i1718359764_7220_0.jpg"],"created_at":"2024-10-22T04:43:02.181Z"},{"id":"item-8442b5b51e1a","sku":"_d1s1sf75vvyi0ZOzHdOa7zekOYAvkdjILG9irwA","name_en":"Kelly 25 Glossy Crocodile🐊 Fully Handmade","name_cn":"Kelly 25 Glossy Crocodile🐊 Fully Handmade","specs":{"source":"wsxcme","sourceId":"_d1s1sf75vvyi0ZOzHdOa7zekOYAvkdjILG9irwA","sourceTagId":76963559,"sourceTagName":"Hermes/women's bag","rawTitle":"Kelly 25 Glossy Crocodile🐊 Fully Handmade"},"price":null,"currency":"CNY","moq":1,"category":"hermes-women-bags","status":"active","alibaba_url":null,"images":["https://xcimg.szwego.com/img/9ee4266d/20240719/i1721382826_2957_3.jpg","https://xcimg.szwego.com/img/9ee4266d/20240719/i1721382826_1394_2.jpg","https://xcimg.szwego.com/img/9ee4266d/20240719/i1721382826_4650_1.jpg","https://xcimg.szwego.com/img/9ee4266d/20240719/i1721382826_2616_7.jpg","https://xcimg.szwego.com/img/9ee4266d/20240719/i1721382826_6537_4.jpg","https://xcimg.szwego.com/img/9ee4266d/20240719/i1721382826_2056_6.jpg","https://xcimg.szwego.com/img/9ee4266d/20240719/i1721382826_3283_5.jpg","https://xcimg.szwego.com/img/9ee4266d/20240719/i1721382826_3004_0.jpg"],"created_at":"2024-10-22T04:43:02.180Z"},{"id":"item-b1582d63f712","sku":"_d1414JmranxbHZcGOiIwdKpLHfw1MatWhRBX1vw","name_en":"Kelly 25 Glossy Crocodile🐊 Fully Handmade","name_cn":"Kelly 25 Glossy Crocodile🐊 Fully Handmade","specs":{"source":"wsxcme","sourceId":"_d1414JmranxbHZcGOiIwdKpLHfw1MatWhRBX1vw","sourceTagId":76963559,"sourceTagName":"Hermes/women's bag","rawTitle":"Kelly 25 Glossy Crocodile🐊 Fully Handmade"},"price":null,"currency":"CNY","moq":1,"category":"hermes-women-bags","status":"active","alibaba_url":null,"images":["https://xcimg.szwego.com/img/9ee4266d/20240719/i1721382798_4856_0.jpg","https://xcimg.szwego.com/img/9ee4266d/20240719/i1721382799_2870_6.jpg","https://xcimg.szwego.com/img/9ee4266d/20240719/i1721382798_3318_2.jpg","https://xcimg.szwego.com/img/9ee4266d/20240719/i1721382799_3356_3.jpg","https://xcimg.szwego.com/img/9ee4266d/20240719/i1721382799_4146_4.jpg","https://xcimg.szwego.com/img/9ee4266d/20240719/i1721382798_1318_1.jpg","https://xcimg.szwego.com/img/9ee4266d/20240719/i1721382799_1653_5.jpg"],"created_at":"2024-10-22T04:43:02.179Z"},{"id":"item-8b948f836c73","sku":"_d-h-hIwAP090oQLZ3XUYAw3WNx4PO7MqOFe0qfw","name_en":"Kelly 25 Glossy Crocodile🐊 Fully Handmade","name_cn":"Kelly 25 Glossy Crocodile🐊 Fully Handmade","specs":{"source":"wsxcme","sourceId":"_d-h-hIwAP090oQLZ3XUYAw3WNx4PO7MqOFe0qfw","sourceTagId":76963559,"sourceTagName":"Hermes/women's bag","rawTitle":"Kelly 25 Glossy Crocodile🐊 Fully Handmade"},"price":null,"currency":"CNY","moq":1,"category":"hermes-women-bags","status":"active","alibaba_url":null,"images":["https://xcimg.szwego.com/img/9ee4266d/20240719/i1721382573_5166_0.jpg","https://xcimg.szwego.com/img/9ee4266d/20240719/i1721382573_9550_1.jpg","https://xcimg.szwego.com/img/9ee4266d/20240719/i1721382574_1253_2.jpg","https://xcimg.szwego.com/img/9ee4266d/20240719/i1721382574_835_3.jpg","https://xcimg.szwego.com/img/9ee4266d/20240719/i1721382574_7395_4.jpg","https://xcimg.szwego.com/img/9ee4266d/20240719/i1721382574_5806_6.jpg","https://xcimg.szwego.com/img/9ee4266d/20240719/i1721382574_550_5.jpg"],"created_at":"2024-10-22T04:43:02.178Z"},{"id":"item-992cf17dcef5","sku":"_da2a2DOkq02kUwaITg4h82gYPmSwmUCKDp3I4vA","name_en":"Birkin 25 Glossy Crocodile🐊 Fully Handmade","name_cn":"Birkin 25 Glossy Crocodile🐊 Fully Handmade","specs":{"source":"wsxcme","sourceId":"_da2a2DOkq02kUwaITg4h82gYPmSwmUCKDp3I4vA","sourceTagId":76963559,"sourceTagName":"Hermes/women's bag","rawTitle":"Birkin 25 Glossy Crocodile🐊 Fully Handmade"},"price":null,"currency":"CNY","moq":1,"category":"hermes-women-bags","status":"active","alibaba_url":null,"images":["https://xcimg.szwego.com/img/9ee4266d/20240802/i1722586428_9992_1.jpg","https://xcimg.szwego.com/img/9ee4266d/20240802/i1722586428_4978_6.jpg","https://xcimg.szwego.com/img/9ee4266d/20240802/i1722586428_3781_2.jpg","https://xcimg.szwego.com/img/9ee4266d/20240802/i1722586428_3834_0.jpg","https://xcimg.szwego.com/img/9ee4266d/20240802/i1722586428_4272_3.jpg","https://xcimg.szwego.com/img/9ee4266d/20240802/i1722586428_4905_4.jpg","https://xcimg.szwego.com/img/9ee4266d/20240802/i1722586428_6697_5.jpg"],"created_at":"2024-10-22T04:43:02.177Z"},{"id":"item-cdaf1b188b1f","sku":"_djwjw1nwFQq64_NOWwLM2sQ7oxcp6YmvaR5W9Fg","name_en":"Birkin 25 Glossy Crocodile🐊 Fully Handmade","name_cn":"Birkin 25 Glossy Crocodile🐊 Fully Handmade","specs":{"source":"wsxcme","sourceId":"_djwjw1nwFQq64_NOWwLM2sQ7oxcp6YmvaR5W9Fg","sourceTagId":76963559,"sourceTagName":"Hermes/women's bag","rawTitle":"Birkin 25 Glossy Crocodile🐊 Fully Handmade"},"price":null,"currency":"CNY","moq":1,"category":"hermes-women-bags","status":"active","alibaba_url":null,"images":["https://xcimg.szwego.com/img/9ee4266d/20240802/i1722586409_6137_6.jpg","https://xcimg.szwego.com/img/9ee4266d/20240802/i1722586409_4375_3.jpg","https://xcimg.szwego.com/img/9ee4266d/20240802/i1722586409_1699_2.jpg","https://xcimg.szwego.com/img/9ee4266d/20240802/i1722586409_5000_4.jpg","https://xcimg.szwego.com/img/9ee4266d/20240802/i1722586409_7097_0.jpg","https://xcimg.szwego.com/img/9ee4266d/20240802/i1722586409_9285_1.jpg","https://xcimg.szwego.com/img/9ee4266d/20240802/i1722586409_7652_5.jpg"],"created_at":"2024-10-22T04:43:02.176Z"},{"id":"item-db53f5d59de7","sku":"_dJxJxZxPDPwAOrm80sn2p68bRiJKiI9Ma8Td7RQ","name_en":"Birkin 25 Glossy Crocodile🐊 Fully Handmade","name_cn":"Birkin 25 Glossy Crocodile🐊 Fully Handmade","specs":{"source":"wsxcme","sourceId":"_dJxJxZxPDPwAOrm80sn2p68bRiJKiI9Ma8Td7RQ","sourceTagId":76963559,"sourceTagName":"Hermes/women's bag","rawTitle":"Birkin 25 Glossy Crocodile🐊 Fully Handmade"},"price":null,"currency":"CNY","moq":1,"category":"hermes-women-bags","status":"active","alibaba_url":null,"images":["https://xcimg.szwego.com/img/9ee4266d/20240802/i1722586238_9776_2.jpg","https://xcimg.szwego.com/img/9ee4266d/20240802/i1722586238_7479_0.jpg","https://xcimg.szwego.com/img/9ee4266d/20240802/i1722586238_1769_1.jpg","https://xcimg.szwego.com/img/9ee4266d/20240802/i1722586238_9525_3.jpg","https://xcimg.szwego.com/img/9ee4266d/20240802/i1722586239_6749_4.jpg","https://xcimg.szwego.com/img/9ee4266d/20240802/i1722586239_1538_5.jpg","https://xcimg.szwego.com/img/9ee4266d/20240802/i1722586243_1791_0.jpg"],"created_at":"2024-10-22T04:43:02.175Z"},{"id":"item-b11a02f792e4","sku":"_d6S6S5w6FeT-nsnUN5ZwSUdTYR8GOY4CcMRphhw","name_en":"Birkin 25 Glossy Crocodile🐊 Fully Handmade","name_cn":"Birkin 25 Glossy Crocodile🐊 Fully Handmade","specs":{"source":"wsxcme","sourceId":"_d6S6S5w6FeT-nsnUN5ZwSUdTYR8GOY4CcMRphhw","sourceTagId":76963559,"sourceTagName":"Hermes/women's bag","rawTitle":"Birkin 25 Glossy Crocodile🐊 Fully Handmade"},"price":null,"currency":"CNY","moq":1,"category":"hermes-women-bags","status":"active","alibaba_url":null,"images":["https://xcimg.szwego.com/img/9ee4266d/20240802/i1722586208_7421_1.jpg","https://xcimg.szwego.com/img/9ee4266d/20240802/i1722586208_7841_4.jpg","https://xcimg.szwego.com/img/9ee4266d/20240802/i1722586208_2959_3.jpg","https://xcimg.szwego.com/img/9ee4266d/20240802/i1722586208_3144_0.jpg","https://xcimg.szwego.com/img/9ee4266d/20240802/i1722586208_7423_2.jpg","https://xcimg.szwego.com/img/9ee4266d/20240802/i1722586208_2653_5.jpg","https://xcimg.szwego.com/img/9ee4266d/20240802/i1722586208_681_6.jpg"],"created_at":"2024-10-22T04:43:02.174Z"},{"id":"item-c6b1ce26d20d","sku":"_dxlxlLWBCjA1DHks10EMeynEh2lKLCz5jOayW1Q","name_en":"Birkin 25 Glossy Crocodile🐊 Fully Handmade","name_cn":"Birkin 25 Glossy Crocodile🐊 Fully Handmade","specs":{"source":"wsxcme","sourceId":"_dxlxlLWBCjA1DHks10EMeynEh2lKLCz5jOayW1Q","sourceTagId":76963559,"sourceTagName":"Hermes/women's bag","rawTitle":"Birkin 25 Glossy Crocodile🐊 Fully Handmade"},"price":null,"currency":"CNY","moq":1,"category":"hermes-women-bags","status":"active","alibaba_url":null,"images":["https://xcimg.szwego.com/img/9ee4266d/20240802/i1722586187_8432_6.jpg","https://xcimg.szwego.com/img/9ee4266d/20240802/i1722586187_6291_2.jpg","https://xcimg.szwego.com/img/9ee4266d/20240802/i1722586187_6097_0.jpg","https://xcimg.szwego.com/img/9ee4266d/20240802/i1722586187_9324_1.jpg","https://xcimg.szwego.com/img/9ee4266d/20240802/i1722586187_6552_7.jpg","https://xcimg.szwego.com/img/9ee4266d/20240802/i1722586187_3506_3.jpg","https://xcimg.szwego.com/img/9ee4266d/20240802/i1722586187_7412_9.jpg","https://xcimg.szwego.com/img/9ee4266d/20240802/i1722586187_3140_4.jpg","https://xcimg.szwego.com/img/9ee4266d/20240802/i1722586187_661_5.jpg","https://xcimg.szwego.com/img/9ee4266d/20240802/i1722586187_1049_8.jpg"],"created_at":"2024-10-22T04:43:02.173Z"},{"id":"item-f4630eb288c6","sku":"_dAeAetYf99MPqHuKsUvmdPgX6ARrm5FxlDR0F-A","name_en":"Birkin 25 Glossy Crocodile🐊 Fully Handmade","name_cn":"Birkin 25 Glossy Crocodile🐊 Fully Handmade","specs":{"source":"wsxcme","sourceId":"_dAeAetYf99MPqHuKsUvmdPgX6ARrm5FxlDR0F-A","sourceTagId":76963559,"sourceTagName":"Hermes/women's bag","rawTitle":"Birkin 25 Glossy Crocodile🐊 Fully Handmade"},"price":null,"currency":"CNY","moq":1,"category":"hermes-women-bags","status":"active","alibaba_url":null,"images":["https://xcimg.szwego.com/img/9ee4266d/20240802/i1722586076_2940_0.jpg","https://xcimg.szwego.com/img/9ee4266d/20240802/i1722586076_277_3.jpg","https://xcimg.szwego.com/img/9ee4266d/20240802/i1722586076_5322_1.jpg","https://xcimg.szwego.com/img/9ee4266d/20240802/i1722586076_9600_2.jpg","https://xcimg.szwego.com/img/9ee4266d/20240802/i1722586076_4819_4.jpg","https://xcimg.szwego.com/img/9ee4266d/20240802/i1722586076_1050_6.jpg","https://xcimg.szwego.com/img/9ee4266d/20240802/i1722586076_7714_5.jpg"],"created_at":"2024-10-22T04:43:02.172Z"},{"id":"item-fdaf4330193d","sku":"_doWoWHWw_LOjwOBQVrF9OvC9NzR-pXq6AgKnoHg","name_en":"Birkin 25 Glossy Crocodile🐊 Fully Handmade","name_cn":"Birkin 25 Glossy Crocodile🐊 Fully Handmade","specs":{"source":"wsxcme","sourceId":"_doWoWHWw_LOjwOBQVrF9OvC9NzR-pXq6AgKnoHg","sourceTagId":76963559,"sourceTagName":"Hermes/women's bag","rawTitle":"Birkin 25 Glossy Crocodile🐊 Fully Handmade"},"price":null,"currency":"CNY","moq":1,"category":"hermes-women-bags","status":"active","alibaba_url":null,"images":["https://xcimg.szwego.com/img/9ee4266d/20240802/i1722586056_4536_2.jpg","https://xcimg.szwego.com/img/9ee4266d/20240802/i1722586056_2627_6.jpg","https://xcimg.szwego.com/img/9ee4266d/20240802/i1722586056_1855_5.jpg","https://xcimg.szwego.com/img/9ee4266d/20240802/i1722586056_7358_0.jpg","https://xcimg.szwego.com/img/9ee4266d/20240802/i1722586056_9768_1.jpg","https://xcimg.szwego.com/img/9ee4266d/20240802/i1722586056_3094_3.jpg","https://xcimg.szwego.com/img/9ee4266d/20240802/i1722586056_1059_4.jpg"],"created_at":"2024-10-22T04:43:02.171Z"},{"id":"item-ce39718a85ee","sku":"_dgOgOias2_ynrD_z1AbiMv2xQslAD_P02K1zphg","name_en":"Birkin 25 Glossy Crocodile🐊 Fully Handmade","name_cn":"Birkin 25 Glossy Crocodile🐊 Fully Handmade","specs":{"source":"wsxcme","sourceId":"_dgOgOias2_ynrD_z1AbiMv2xQslAD_P02K1zphg","sourceTagId":76963559,"sourceTagName":"Hermes/women's bag","rawTitle":"Birkin 25 Glossy Crocodile🐊 Fully Handmade"},"price":null,"currency":"CNY","moq":1,"category":"hermes-women-bags","status":"active","alibaba_url":null,"images":["https://xcimg.szwego.com/img/9ee4266d/20240802/i1722585632_8634_1.jpg","https://xcimg.szwego.com/img/9ee4266d/20240802/i1722585632_672_3.jpg","https://xcimg.szwego.com/img/9ee4266d/20240802/i1722585631_2971_0.jpg","https://xcimg.szwego.com/img/9ee4266d/20240802/i1722585632_6077_4.jpg","https://xcimg.szwego.com/img/9ee4266d/20240802/i1722585632_7476_5.jpg","https://xcimg.szwego.com/img/9ee4266d/20240802/i1722585632_5558_6.jpg","https://xcimg.szwego.com/img/9ee4266d/20240802/i1722585632_348_2.jpg"],"created_at":"2024-10-22T04:43:02.170Z"},{"id":"item-906e50002078","sku":"_dwtwtEfMoSNLhgezkdCguddd8tDWUBcvbcAOTKA","name_en":"Birkin 25 Glossy Crocodile🐊 Fully Handmade","name_cn":"Birkin 25 Glossy Crocodile🐊 Fully Handmade","specs":{"source":"wsxcme","sourceId":"_dwtwtEfMoSNLhgezkdCguddd8tDWUBcvbcAOTKA","sourceTagId":76963559,"sourceTagName":"Hermes/women's bag","rawTitle":"Birkin 25 Glossy Crocodile🐊 Fully Handmade"},"price":null,"currency":"CNY","moq":1,"category":"hermes-women-bags","status":"active","alibaba_url":null,"images":["https://xcimg.szwego.com/img/9ee4266d/20240802/i1722585612_8926_0.jpg","https://xcimg.szwego.com/img/9ee4266d/20240802/i1722585612_5929_0.jpg","https://xcimg.szwego.com/img/9ee4266d/20240802/i1722585612_6380_0.jpg","https://xcimg.szwego.com/img/9ee4266d/20240802/i1722585612_9212_0.jpg","https://xcimg.szwego.com/img/9ee4266d/20240802/i1722585611_2040_0.jpg","https://xcimg.szwego.com/img/9ee4266d/20240802/i1722585612_1209_0.jpg","https://xcimg.szwego.com/img/9ee4266d/20240802/i1722585607_3869_1.jpg"],"created_at":"2024-10-22T04:43:02.169Z"},{"id":"item-a47618ed057e","sku":"_d8F8F6v-Djxbax8Avz5yiz1ZDJ0aalLw1L9v6yw","name_en":"Birkin 25 Glossy Crocodile🐊 Fully Handmade","name_cn":"Birkin 25 Glossy Crocodile🐊 Fully Handmade","specs":{"source":"wsxcme","sourceId":"_d8F8F6v-Djxbax8Avz5yiz1ZDJ0aalLw1L9v6yw","sourceTagId":76963559,"sourceTagName":"Hermes/women's bag","rawTitle":"Birkin 25 Glossy Crocodile🐊 Fully Handmade"},"price":null,"currency":"CNY","moq":1,"category":"hermes-women-bags","status":"active","alibaba_url":null,"images":["https://xcimg.szwego.com/img/9ee4266d/20240802/i1722579312_7353_6.jpg","https://xcimg.szwego.com/img/9ee4266d/20240802/i1722579312_394_4.jpg","https://xcimg.szwego.com/img/9ee4266d/20240802/i1722579312_1641_3.jpg","https://xcimg.szwego.com/img/9ee4266d/20240802/i1722579312_6572_5.jpg","https://xcimg.szwego.com/img/9ee4266d/20240802/i1722579312_4016_2.jpg","https://xcimg.szwego.com/img/9ee4266d/20240802/i1722579312_4889_1.jpg","https://xcimg.szwego.com/img/9ee4266d/20240802/i1722579312_9085_0.jpg"],"created_at":"2024-10-22T04:43:02.168Z"}],"page":17,"pageSize":24,"total":439,"totalPages":19}
