{"items":[{"id":"item-e5ab2c809162","sku":"_dpRpRtXUapq7zm2Ow0Dykxh-hZ_oqzo44lXEzdQ","name_en":"手缝👉Birkin 25cm 进口Togo皮 金棕 银扣","name_cn":"手缝👉Birkin 25cm 进口Togo皮 金棕 银扣","specs":{"source":"wsxcme","sourceId":"_dpRpRtXUapq7zm2Ow0Dykxh-hZ_oqzo44lXEzdQ","sourceTagId":76963559,"sourceTagName":"爱马仕/女包","rawTitle":"手缝👉Birkin 25cm 进口Togo皮 金棕 银扣"},"price":null,"currency":"CNY","moq":1,"category":"hermes-women-bags","status":"active","alibaba_url":null,"images":["https://xcimg.szwego.com/img/ff0351ea/20260111/i1768105602667_7165_0_0.jpg","https://xcimg.szwego.com/img/ff0351ea/20260111/i1768105603883_2263_0_1.jpg","https://xcimg.szwego.com/img/ff0351ea/20260111/i1768105602708_9248_0_2.jpg","https://xcimg.szwego.com/img/ff0351ea/20260111/i1768105603928_5170_0_3.jpg","https://xcimg.szwego.com/img/ff0351ea/20260111/i1768105602700_7175_0_4.jpg","https://xcimg.szwego.com/img/ff0351ea/20260111/i1768105603910_8041_0_5.jpg","https://xcimg.szwego.com/img/ff0351ea/20260111/i1768105602619_4555_0_6.jpg","https://xcimg.szwego.com/img/ff0351ea/20260111/i1768105602717_3856_0_7.jpg","https://xcimg.szwego.com/img/ff0351ea/20260111/i1768105603904_1608_0_8.jpg"],"created_at":"2026-06-29T12:59:36.164Z"},{"id":"item-4391e1fb2eb3","sku":"_dhYhY6JkHoX_jNtWP27i5JzkKMl0qFFThY6PBQw","name_en":"手缝👉Birkin 25cm 进口Togo皮 奶昔白 金扣","name_cn":"手缝👉Birkin 25cm 进口Togo皮 奶昔白 金扣","specs":{"source":"wsxcme","sourceId":"_dhYhY6JkHoX_jNtWP27i5JzkKMl0qFFThY6PBQw","sourceTagId":76963559,"sourceTagName":"爱马仕/女包","rawTitle":"手缝👉Birkin 25cm 进口Togo皮 奶昔白 金扣"},"price":null,"currency":"CNY","moq":1,"category":"hermes-women-bags","status":"active","alibaba_url":null,"images":["https://xcimg.szwego.com/img/ff0351ea/20260111/i1768105492997_5580_0_0.jpg","https://xcimg.szwego.com/img/ff0351ea/20260111/i1768105494082_2668_0_1.jpg","https://xcimg.szwego.com/img/ff0351ea/20260111/i1768105493087_5666_0_2.jpg","https://xcimg.szwego.com/img/ff0351ea/20260111/i1768105494106_8959_0_3.jpg","https://xcimg.szwego.com/img/ff0351ea/20260111/i1768105494144_5431_0_4.jpg","https://xcimg.szwego.com/img/ff0351ea/20260111/i1768105493071_8562_0_5.jpg","https://xcimg.szwego.com/img/ff0351ea/20260111/i1768105492933_4443_0_6.jpg","https://xcimg.szwego.com/img/ff0351ea/20260111/i1768105493007_2535_0_7.jpg","https://xcimg.szwego.com/img/ff0351ea/20260111/i1768105494070_8471_0_8.jpg"],"created_at":"2026-06-29T12:59:36.154Z"},{"id":"item-167d8c8196e1","sku":"_dhphpSaeYkgsU7Ot1aG--nr9yDEdZXpLh34mTxA","name_en":"手缝👉Birkin 25cm 进口Togo皮 杏仁绿 金扣","name_cn":"手缝👉Birkin 25cm 进口Togo皮 杏仁绿 金扣","specs":{"source":"wsxcme","sourceId":"_dhphpSaeYkgsU7Ot1aG--nr9yDEdZXpLh34mTxA","sourceTagId":76963559,"sourceTagName":"爱马仕/女包","rawTitle":"手缝👉Birkin 25cm 进口Togo皮 杏仁绿 金扣"},"price":null,"currency":"CNY","moq":1,"category":"hermes-women-bags","status":"active","alibaba_url":null,"images":["https://xcimg.szwego.com/img/ff0351ea/20260111/i1768105440467_3845_0_0.jpg","https://xcimg.szwego.com/img/ff0351ea/20260111/i1768105440431_740_0_1.jpg","https://xcimg.szwego.com/img/ff0351ea/20260111/i1768105441494_5117_0_2.jpg","https://xcimg.szwego.com/img/ff0351ea/20260111/i1768105440332_3522_0_3.jpg","https://xcimg.szwego.com/img/ff0351ea/20260111/i1768105441453_8992_0_4.jpg","https://xcimg.szwego.com/img/ff0351ea/20260111/i1768105440520_1562_0_5.jpg","https://xcimg.szwego.com/img/ff0351ea/20260111/i1768105440397_7092_0_6.jpg","https://xcimg.szwego.com/img/ff0351ea/20260111/i1768105441415_9620_0_7.jpg","https://xcimg.szwego.com/img/ff0351ea/20260111/i1768105441544_9980_0_8.jpg"],"created_at":"2026-06-29T12:59:36.144Z"},{"id":"item-2737f8ab759e","sku":"_dREREfneoMzMdhxo4ChB_JnidFADMGgR77mm5Ag","name_en":"Kelly 25/28cm 经典款 Epsom皮 黑色 金银扣 现货","name_cn":"Kelly 25/28cm 经典款 Epsom皮 黑色 金银扣 现货","specs":{"source":"wsxcme","sourceId":"_dREREfneoMzMdhxo4ChB_JnidFADMGgR77mm5Ag","sourceTagId":76963559,"sourceTagName":"爱马仕/女包","rawTitle":"Kelly 25/28cm 经典款 Epsom皮 黑色 金银扣 现货"},"price":null,"currency":"CNY","moq":1,"category":"hermes-women-bags","status":"active","alibaba_url":null,"images":["https://xcimg.szwego.com/img/223a3efd/20240527/a1716805023854_3328.jpg","https://xcimg.szwego.com/img/223a3efd/20240527/a1716805023711_8811.jpg","https://xcimg.szwego.com/img/223a3efd/20240527/a1716805023758_0337.jpg","https://xcimg.szwego.com/img/223a3efd/20240527/a1716805023647_5272.jpg","https://xcimg.szwego.com/img/223a3efd/20240527/a1716805023651_7043.jpg","https://xcimg.szwego.com/img/223a3efd/20240527/a1716805023778_4078.jpg","https://xcimg.szwego.com/img/223a3efd/20240527/a1716805025092_1530.jpg","https://xcimg.szwego.com/img/223a3efd/20240527/a1716805025212_5458.jpg","https://xcimg.szwego.com/img/223a3efd/20240527/a1716805025093_2718.jpg"],"created_at":"2026-06-29T12:59:36.134Z"},{"id":"item-7f98ae327953","sku":"_dcJcJ06Sz9exSQBCYzP8cN24kLbgrExQdels_fQ","name_en":"Kelly 25cm 经典款 Epsom皮 橙色 金银扣 现货","name_cn":"Kelly 25cm 经典款 Epsom皮 橙色 金银扣 现货","specs":{"source":"wsxcme","sourceId":"_dcJcJ06Sz9exSQBCYzP8cN24kLbgrExQdels_fQ","sourceTagId":76963559,"sourceTagName":"爱马仕/女包","rawTitle":"Kelly 25cm 经典款 Epsom皮 橙色 金银扣 现货"},"price":null,"currency":"CNY","moq":1,"category":"hermes-women-bags","status":"active","alibaba_url":null,"images":["https://xcimg.szwego.com/img/223a3efd/20240527/a1716804968593_6774.jpg","https://xcimg.szwego.com/img/223a3efd/20240527/a1716804968569_2558.jpg","https://xcimg.szwego.com/img/223a3efd/20240527/a1716804968721_3423.jpg","https://xcimg.szwego.com/img/223a3efd/20240527/a1716804968649_2087.jpg","https://xcimg.szwego.com/img/223a3efd/20240527/a1716804968548_2730.jpg","https://xcimg.szwego.com/img/223a3efd/20240527/a1716804968694_8317.jpg","https://xcimg.szwego.com/img/223a3efd/20240527/a1716804969747_7553.jpg","https://xcimg.szwego.com/img/223a3efd/20240527/a1716804969765_0016.jpg","https://xcimg.szwego.com/img/223a3efd/20240527/a1716804969712_3356.jpg"],"created_at":"2026-06-29T12:59:36.124Z"},{"id":"item-5f99cb901585","sku":"_dn2n2bWClW-3eGR5XH_6Z7UAasYRunQmuMiZ79Q","name_en":"Kelly 25/28cm 经典款 Epsom皮 锡器灰 金银扣 现货","name_cn":"Kelly 25/28cm 经典款 Epsom皮 锡器灰 金银扣 现货","specs":{"source":"wsxcme","sourceId":"_dn2n2bWClW-3eGR5XH_6Z7UAasYRunQmuMiZ79Q","sourceTagId":76963559,"sourceTagName":"爱马仕/女包","rawTitle":"Kelly 25/28cm 经典款 Epsom皮 锡器灰 金银扣 现货"},"price":null,"currency":"CNY","moq":1,"category":"hermes-women-bags","status":"active","alibaba_url":null,"images":["https://xcimg.szwego.com/img/223a3efd/20240527/a1716804932362_8261.jpg","https://xcimg.szwego.com/img/223a3efd/20240527/a1716804932395_5036.jpg","https://xcimg.szwego.com/img/223a3efd/20240527/a1716804932470_1062.jpg","https://xcimg.szwego.com/img/223a3efd/20240527/a1716804932495_3051.jpg","https://xcimg.szwego.com/img/223a3efd/20240527/a1716804932317_5268.jpg","https://xcimg.szwego.com/img/223a3efd/20240527/a1716804932363_0055.jpg","https://xcimg.szwego.com/img/223a3efd/20240527/a1716804933890_7726.jpg","https://xcimg.szwego.com/img/223a3efd/20240527/a1716804933890_6004.jpg","https://xcimg.szwego.com/img/223a3efd/20240527/a1716804933812_5364.jpg"],"created_at":"2026-06-29T12:59:36.114Z"},{"id":"item-12e68d2a4ee0","sku":"_dasasctIcCnoB4lwZfQmJPQW1FxyOQaJrtAfdFA","name_en":"Kelly 25/28cm 经典款 Epsom皮 大象灰 金银扣 现货","name_cn":"Kelly 25/28cm 经典款 Epsom皮 大象灰 金银扣 现货","specs":{"source":"wsxcme","sourceId":"_dasasctIcCnoB4lwZfQmJPQW1FxyOQaJrtAfdFA","sourceTagId":76963559,"sourceTagName":"爱马仕/女包","rawTitle":"Kelly 25/28cm 经典款 Epsom皮 大象灰 金银扣 现货"},"price":null,"currency":"CNY","moq":1,"category":"hermes-women-bags","status":"active","alibaba_url":null,"images":["https://xcimg.szwego.com/img/223a3efd/20240527/a1716804857346_4566.jpg","https://xcimg.szwego.com/img/223a3efd/20240527/a1716804857282_6587.jpg","https://xcimg.szwego.com/img/223a3efd/20240527/a1716804857366_6357.jpg","https://xcimg.szwego.com/img/223a3efd/20240527/a1716804857409_3076.jpg","https://xcimg.szwego.com/img/223a3efd/20240527/a1716804857325_2635.jpg","https://xcimg.szwego.com/img/223a3efd/20240527/a1716804857393_4205.jpg","https://xcimg.szwego.com/img/223a3efd/20240527/a1716804858663_3286.jpg","https://xcimg.szwego.com/img/223a3efd/20240527/a1716804858780_4764.jpg","https://xcimg.szwego.com/img/223a3efd/20240527/a1716804858650_4324.jpg"],"created_at":"2026-06-29T12:59:36.104Z"},{"id":"item-aa1c0e34dca5","sku":"_dcIcI7CogcOByF3OYYRZOxHeSthzEvAWntak-zg","name_en":"Kelly 25/28cm 经典款 Epsom皮 琥珀黄 金银扣 现货","name_cn":"Kelly 25/28cm 经典款 Epsom皮 琥珀黄 金银扣 现货","specs":{"source":"wsxcme","sourceId":"_dcIcI7CogcOByF3OYYRZOxHeSthzEvAWntak-zg","sourceTagId":76963559,"sourceTagName":"爱马仕/女包","rawTitle":"Kelly 25/28cm 经典款 Epsom皮 琥珀黄 金银扣 现货"},"price":null,"currency":"CNY","moq":1,"category":"hermes-women-bags","status":"active","alibaba_url":null,"images":["https://xcimg.szwego.com/img/223a3efd/20240527/a1716804802188_3741.jpg","https://xcimg.szwego.com/img/223a3efd/20240527/a1716804802258_2656.jpg","https://xcimg.szwego.com/img/223a3efd/20240527/a1716804802112_1630.jpg","https://xcimg.szwego.com/img/223a3efd/20240527/a1716804802111_6844.jpg","https://xcimg.szwego.com/img/223a3efd/20240527/a1716804802311_7866.jpg","https://xcimg.szwego.com/img/223a3efd/20240527/a1716804802120_4373.jpg","https://xcimg.szwego.com/img/223a3efd/20240527/a1716804804019_8830.jpg","https://xcimg.szwego.com/img/223a3efd/20240527/a1716804803994_5617.jpg"],"created_at":"2026-06-29T12:59:36.094Z"},{"id":"item-be94437bafa7","sku":"_dxuxu63jXN4IF3L_q_UzERH-axNnZLDrIElZDLg","name_en":"Kelly 25/28cm 经典款 Epsom皮 梦幻粉 金银扣 现货","name_cn":"Kelly 25/28cm 经典款 Epsom皮 梦幻粉 金银扣 现货","specs":{"source":"wsxcme","sourceId":"_dxuxu63jXN4IF3L_q_UzERH-axNnZLDrIElZDLg","sourceTagId":76963559,"sourceTagName":"爱马仕/女包","rawTitle":"Kelly 25/28cm 经典款 Epsom皮 梦幻粉 金银扣 现货"},"price":null,"currency":"CNY","moq":1,"category":"hermes-women-bags","status":"active","alibaba_url":null,"images":["https://xcimg.szwego.com/img/223a3efd/20240527/a1716804773252_4288.jpg","https://xcimg.szwego.com/img/223a3efd/20240527/a1716804773251_4868.jpg","https://xcimg.szwego.com/img/223a3efd/20240527/a1716804773311_1484.jpg","https://xcimg.szwego.com/img/223a3efd/20240527/a1716804773332_5775.jpg","https://xcimg.szwego.com/img/223a3efd/20240527/a1716804773387_2835.jpg","https://xcimg.szwego.com/img/223a3efd/20240527/a1716804773288_8501.jpg","https://xcimg.szwego.com/img/223a3efd/20240527/a1716804775132_8347.jpg","https://xcimg.szwego.com/img/223a3efd/20240527/a1716804775162_2111.jpg","https://xcimg.szwego.com/img/223a3efd/20240527/a1716804775056_5808.jpg"],"created_at":"2026-06-29T12:59:36.084Z"},{"id":"item-a99597f6b3e5","sku":"_dyHyHNaRnZJeMLLCks30QrSToPzWVwsrB-Lr-cA","name_en":"Kelly 25/28cm 经典款 Epsom皮 土黄 金银扣 现货","name_cn":"Kelly 25/28cm 经典款 Epsom皮 土黄 金银扣 现货","specs":{"source":"wsxcme","sourceId":"_dyHyHNaRnZJeMLLCks30QrSToPzWVwsrB-Lr-cA","sourceTagId":76963559,"sourceTagName":"爱马仕/女包","rawTitle":"Kelly 25/28cm 经典款 Epsom皮 土黄 金银扣 现货"},"price":null,"currency":"CNY","moq":1,"category":"hermes-women-bags","status":"active","alibaba_url":null,"images":["https://xcimg.szwego.com/img/223a3efd/20240527/a1716804334494_7132.jpg","https://xcimg.szwego.com/img/223a3efd/20240527/a1716804335921_5034.jpg","https://xcimg.szwego.com/img/223a3efd/20240527/a1716804335889_6748.jpg","https://xcimg.szwego.com/img/223a3efd/20240527/a1716804335848_3463.jpg","https://xcimg.szwego.com/img/223a3efd/20240527/a1716804334622_3380.jpg","https://xcimg.szwego.com/img/223a3efd/20240527/a1716804334684_4746.jpg","https://xcimg.szwego.com/img/223a3efd/20240527/a1716804334608_6024.jpg","https://xcimg.szwego.com/img/223a3efd/20240527/a1716804334545_1547.jpg"],"created_at":"2026-06-29T12:59:36.074Z"},{"id":"item-466ff60de9ba","sku":"_depepIMOkwASfYntph7hS3txam8lA_zXSpch8_g","name_en":"Hermes Women Bags","name_cn":"夏天必入款 \nMini 花园包帆布 23x16x10","specs":{"source":"wsxcme","sourceId":"_depepIMOkwASfYntph7hS3txam8lA_zXSpch8_g","sourceTagId":76963559,"sourceTagName":"爱马仕/女包","rawTitle":"夏天必入款 \nMini 花园包帆布 23x16x10"},"price":null,"currency":"CNY","moq":1,"category":"hermes-women-bags","status":"active","alibaba_url":null,"images":["https://xcimg.szwego.com/img/c98920cd/20260411/i1775898416949_1184_0_0.jpg","https://xcimg.szwego.com/img/c98920cd/20260411/i1775898417750_5929_0_2.jpg","https://xcimg.szwego.com/img/c98920cd/20260411/i1775898418338_2977_0_3.jpg","https://xcimg.szwego.com/img/c98920cd/20260411/i1775898417800_8569_0_4.jpg","https://xcimg.szwego.com/img/c98920cd/20260411/i1775898416987_9677_0_5.jpg","https://xcimg.szwego.com/img/c98920cd/20260411/i1775898418258_3245_0_6.jpg","https://xcimg.szwego.com/img/c98920cd/20260411/i1775898416972_116_0_7.jpg","https://xcimg.szwego.com/img/c98920cd/20260411/i1775898106932_4973_0_7.jpg"],"created_at":"2026-06-29T12:59:36.064Z"},{"id":"item-bbc330f4456f","sku":"_d9f9fLi44OpBm9NmNWG9CYXPTAzoFpPoG9riTaQ","name_en":"Hermes Women Bags","name_cn":"夏天必入款 \nMini 花园包帆布 23x16x10","specs":{"source":"wsxcme","sourceId":"_d9f9fLi44OpBm9NmNWG9CYXPTAzoFpPoG9riTaQ","sourceTagId":76963559,"sourceTagName":"爱马仕/女包","rawTitle":"夏天必入款 \nMini 花园包帆布 23x16x10"},"price":null,"currency":"CNY","moq":1,"category":"hermes-women-bags","status":"active","alibaba_url":null,"images":["https://xcimg.szwego.com/img/c98920cd/20260411/i1775898341854_1178_0_0.jpg","https://xcimg.szwego.com/img/c98920cd/20260411/i1775898341964_7426_0_1.jpg","https://xcimg.szwego.com/img/c98920cd/20260411/i1775898342896_6370_0_2.jpg","https://xcimg.szwego.com/img/c98920cd/20260411/i1775898343385_164_0_3.jpg","https://xcimg.szwego.com/img/c98920cd/20260411/i1775898341898_912_0_4.jpg","https://xcimg.szwego.com/img/c98920cd/20260411/i1775898342952_183_0_5.jpg","https://xcimg.szwego.com/img/c98920cd/20260411/i1775898342964_2947_0_6.jpg","https://xcimg.szwego.com/img/c98920cd/20260411/i1775898343372_1828_0_7.jpg"],"created_at":"2026-06-29T12:59:36.054Z"},{"id":"item-11274fecf541","sku":"_d6i6iasdHOu3j1aqQqhyFo6bFjLmYC9UACZAZMw","name_en":"Hermes Women Bags","name_cn":"夏天必入款 \nMini 花园包帆布 23x16x10","specs":{"source":"wsxcme","sourceId":"_d6i6iasdHOu3j1aqQqhyFo6bFjLmYC9UACZAZMw","sourceTagId":76963559,"sourceTagName":"爱马仕/女包","rawTitle":"夏天必入款 \nMini 花园包帆布 23x16x10"},"price":null,"currency":"CNY","moq":1,"category":"hermes-women-bags","status":"active","alibaba_url":null,"images":["https://xcimg.szwego.com/img/c98920cd/20260411/i1775897868055_5436_0_0.jpg","https://xcimg.szwego.com/img/c98920cd/20260411/i1775897868172_6267_0_2.jpg","https://xcimg.szwego.com/img/c98920cd/20260411/i1775897870008_7138_0_3.jpg","https://xcimg.szwego.com/img/c98920cd/20260411/i1775897869137_7936_0_4.jpg","https://xcimg.szwego.com/img/c98920cd/20260411/i1775897869949_7700_0_5.jpg","https://xcimg.szwego.com/img/c98920cd/20260411/i1775897869052_2808_0_6.jpg","https://xcimg.szwego.com/img/c98920cd/20260411/i1775897868058_1688_0_7.jpg","https://xcimg.szwego.com/img/c98920cd/20260411/i1775897869895_2738_0_8.jpg"],"created_at":"2026-06-29T12:59:36.044Z"},{"id":"item-606e73e35eec","sku":"_dpqpqT_wtDEFzOwPD897pPhz8cI_BZLsWUUGTVw","name_en":"Hermes Women Bags","name_cn":"夏天必入款 \nMini 花园包帆布 23x16x10","specs":{"source":"wsxcme","sourceId":"_dpqpqT_wtDEFzOwPD897pPhz8cI_BZLsWUUGTVw","sourceTagId":76963559,"sourceTagName":"爱马仕/女包","rawTitle":"夏天必入款 \nMini 花园包帆布 23x16x10"},"price":null,"currency":"CNY","moq":1,"category":"hermes-women-bags","status":"active","alibaba_url":null,"images":["https://xcimg.szwego.com/img/c98920cd/20260411/i1775897905013_3771_0_0.jpg","https://xcimg.szwego.com/img/c98920cd/20260411/i1775897906070_8118_0_2.jpg","https://xcimg.szwego.com/img/c98920cd/20260411/i1775897906968_8106_0_3.jpg","https://xcimg.szwego.com/img/c98920cd/20260411/i1775897907111_6634_0_4.jpg","https://xcimg.szwego.com/img/c98920cd/20260411/i1775897907021_3719_0_5.jpg","https://xcimg.szwego.com/img/c98920cd/20260411/i1775897905977_7974_0_6.jpg","https://xcimg.szwego.com/img/c98920cd/20260411/i1775897905971_3078_0_7.jpg","https://xcimg.szwego.com/img/c98920cd/20260411/i1775897905174_4968_0_8.jpg"],"created_at":"2026-06-29T12:59:36.034Z"},{"id":"item-c9f2efd17861","sku":"_dw3w3dkJpkK2-yIjgb-xNKiUg6A18mbz375t0Og","name_en":"Hermes Women Bags","name_cn":"夏天必入款 \nMini 花园包帆布 23x16x10","specs":{"source":"wsxcme","sourceId":"_dw3w3dkJpkK2-yIjgb-xNKiUg6A18mbz375t0Og","sourceTagId":76963559,"sourceTagName":"爱马仕/女包","rawTitle":"夏天必入款 \nMini 花园包帆布 23x16x10"},"price":null,"currency":"CNY","moq":1,"category":"hermes-women-bags","status":"active","alibaba_url":null,"images":["https://xcimg.szwego.com/img/c98920cd/20260411/i1775897947692_7117_0_0.jpg","https://xcimg.szwego.com/img/c98920cd/20260411/i1775897949108_4906_0_2.jpg","https://xcimg.szwego.com/img/c98920cd/20260411/i1775897948649_1597_0_3.jpg","https://xcimg.szwego.com/img/c98920cd/20260411/i1775897948604_2070_0_4.jpg","https://xcimg.szwego.com/img/c98920cd/20260411/i1775897949050_2754_0_5.jpg","https://xcimg.szwego.com/img/c98920cd/20260411/i1775897947762_9526_0_6.jpg","https://xcimg.szwego.com/img/c98920cd/20260411/i1775897948535_1542_0_7.jpg","https://xcimg.szwego.com/img/c98920cd/20260411/i1775897949064_7452_0_8.jpg"],"created_at":"2026-06-29T12:59:36.024Z"},{"id":"item-4e3adc05e784","sku":"_ds0s0ZORom7jtpKcITQVkBT4xC-naIGHLYI0m7A","name_en":"Hermes Women Bags","name_cn":"夏天必入款 \nMini 花园包帆布 23x16x10","specs":{"source":"wsxcme","sourceId":"_ds0s0ZORom7jtpKcITQVkBT4xC-naIGHLYI0m7A","sourceTagId":76963559,"sourceTagName":"爱马仕/女包","rawTitle":"夏天必入款 \nMini 花园包帆布 23x16x10"},"price":null,"currency":"CNY","moq":1,"category":"hermes-women-bags","status":"active","alibaba_url":null,"images":["https://xcimg.szwego.com/img/c98920cd/20260411/i1775897992727_4142_0_0.jpg","https://xcimg.szwego.com/img/c98920cd/20260411/i1775897992772_7064_0_2.jpg","https://xcimg.szwego.com/img/c98920cd/20260411/i1775897991184_5133_0_3.jpg","https://xcimg.szwego.com/img/c98920cd/20260411/i1775897991205_4734_0_4.jpg","https://xcimg.szwego.com/img/c98920cd/20260411/i1775897992781_73_0_5.jpg","https://xcimg.szwego.com/img/c98920cd/20260411/i1775897991193_1429_0_6.jpg","https://xcimg.szwego.com/img/c98920cd/20260411/i1775897992071_5794_0_7.jpg","https://xcimg.szwego.com/img/c98920cd/20260411/i1775897992097_4264_0_8.jpg"],"created_at":"2026-06-29T12:59:36.014Z"},{"id":"item-c2c8b4c79e8e","sku":"_d_b_bYoGCHJWSFJPi1xnDJOLRSQvnxOj-bMkOvw","name_en":"Hermes Women Bags","name_cn":"夏天必入款 \nMini 花园包帆布 23x16x10","specs":{"source":"wsxcme","sourceId":"_d_b_bYoGCHJWSFJPi1xnDJOLRSQvnxOj-bMkOvw","sourceTagId":76963559,"sourceTagName":"爱马仕/女包","rawTitle":"夏天必入款 \nMini 花园包帆布 23x16x10"},"price":null,"currency":"CNY","moq":1,"category":"hermes-women-bags","status":"active","alibaba_url":null,"images":["https://xcimg.szwego.com/img/c98920cd/20260411/i1775898028185_916_0_0.jpg","https://xcimg.szwego.com/img/c98920cd/20260411/i1775898026822_30_0_1.jpg","https://xcimg.szwego.com/img/c98920cd/20260411/i1775898027688_3279_0_2.jpg","https://xcimg.szwego.com/img/c98920cd/20260411/i1775898027602_8834_0_3.jpg","https://xcimg.szwego.com/img/c98920cd/20260411/i1775898028138_7402_0_4.jpg","https://xcimg.szwego.com/img/c98920cd/20260411/i1775898027766_9245_0_6.jpg","https://xcimg.szwego.com/img/c98920cd/20260411/i1775898026816_3750_0_7.jpg","https://xcimg.szwego.com/img/c98920cd/20260411/i1775898026837_6664_0_8.jpg"],"created_at":"2026-06-29T12:59:36.004Z"},{"id":"item-6d0f710d3511","sku":"_du8u84ob1TzI1XuKBk5u8MoPcAPhAYCf5hFwE-w","name_en":"Hermes Women Bags","name_cn":"夏天必入款 \nMini 花园包帆布 23x16x10","specs":{"source":"wsxcme","sourceId":"_du8u84ob1TzI1XuKBk5u8MoPcAPhAYCf5hFwE-w","sourceTagId":76963559,"sourceTagName":"爱马仕/女包","rawTitle":"夏天必入款 \nMini 花园包帆布 23x16x10"},"price":null,"currency":"CNY","moq":1,"category":"hermes-women-bags","status":"active","alibaba_url":null,"images":["https://xcimg.szwego.com/img/c98920cd/20260411/i1775898064524_5553_0_0.jpg","https://xcimg.szwego.com/img/c98920cd/20260411/i1775898066073_4674_0_1.jpg","https://xcimg.szwego.com/img/c98920cd/20260411/i1775898065396_3034_0_2.jpg","https://xcimg.szwego.com/img/c98920cd/20260411/i1775898065365_1558_0_3.jpg","https://xcimg.szwego.com/img/c98920cd/20260411/i1775898066005_7310_0_4.jpg","https://xcimg.szwego.com/img/c98920cd/20260411/i1775898065418_7850_0_6.jpg","https://xcimg.szwego.com/img/c98920cd/20260411/i1775898066022_9691_0_7.jpg","https://xcimg.szwego.com/img/c98920cd/20260411/i1775898064526_1066_0_8.jpg"],"created_at":"2026-06-29T12:59:35.994Z"},{"id":"item-b27e03e884b0","sku":"_doToTJTC0DX3mMEcH_KRL7kYQFeo6_j_56aNhFA","name_en":"Hermes Women Bags","name_cn":"夏天必入款 \nMini 花园包帆布 23x16x10","specs":{"source":"wsxcme","sourceId":"_doToTJTC0DX3mMEcH_KRL7kYQFeo6_j_56aNhFA","sourceTagId":76963559,"sourceTagName":"爱马仕/女包","rawTitle":"夏天必入款 \nMini 花园包帆布 23x16x10"},"price":null,"currency":"CNY","moq":1,"category":"hermes-women-bags","status":"active","alibaba_url":null,"images":["https://xcimg.szwego.com/img/c98920cd/20260411/i1775898106799_876_0_0.jpg","https://xcimg.szwego.com/img/c98920cd/20260411/i1775898108481_9371_0_1.jpg","https://xcimg.szwego.com/img/c98920cd/20260411/i1775898106903_8187_0_2.jpg","https://xcimg.szwego.com/img/c98920cd/20260411/i1775898108432_2547_0_3.jpg","https://xcimg.szwego.com/img/c98920cd/20260411/i1775898107936_9688_0_4.jpg","https://xcimg.szwego.com/img/c98920cd/20260411/i1775898108447_8106_0_5.jpg","https://xcimg.szwego.com/img/c98920cd/20260411/i1775898107859_5572_0_6.jpg","https://xcimg.szwego.com/img/c98920cd/20260411/i1775898106932_4973_0_7.jpg","https://xcimg.szwego.com/img/c98920cd/20260411/i1775898107826_8968_0_8.jpg"],"created_at":"2026-06-29T12:59:35.984Z"},{"id":"item-74214debc497","sku":"_dsusu9vk2dixSs-i3k0Mb4RKd-MLUh2_kRQKnlQ","name_en":"Hermes Women Bags","name_cn":"夏天必入款 \nMini 花园包帆布 23x16x10","specs":{"source":"wsxcme","sourceId":"_dsusu9vk2dixSs-i3k0Mb4RKd-MLUh2_kRQKnlQ","sourceTagId":76963559,"sourceTagName":"爱马仕/女包","rawTitle":"夏天必入款 \nMini 花园包帆布 23x16x10"},"price":null,"currency":"CNY","moq":1,"category":"hermes-women-bags","status":"active","alibaba_url":null,"images":["https://xcimg.szwego.com/img/c98920cd/20260411/i1775898156532_8331_0_0.jpg","https://xcimg.szwego.com/img/c98920cd/20260411/i1775898155195_332_0_1.jpg","https://xcimg.szwego.com/img/c98920cd/20260411/i1775898156112_53_0_2.jpg","https://xcimg.szwego.com/img/c98920cd/20260411/i1775898156141_9898_0_3.jpg","https://xcimg.szwego.com/img/c98920cd/20260411/i1775898156606_5496_0_4.jpg","https://xcimg.szwego.com/img/c98920cd/20260411/i1775898156500_2973_0_5.jpg","https://xcimg.szwego.com/img/c98920cd/20260411/i1775898155216_9647_0_6.jpg","https://xcimg.szwego.com/img/c98920cd/20260411/i1775898155324_9854_0_7.jpg","https://xcimg.szwego.com/img/c98920cd/20260411/i1775898156090_4620_0_8.jpg"],"created_at":"2026-06-29T12:59:35.974Z"},{"id":"item-a5db2daf3c0e","sku":"_dyByBgbIUD8FD4zMEj8w5rvd9WnyEpqsGg4vXOw","name_en":"可半手工 蜜蜡缝线  ❤️ Kelly 25cm epsom 黑色 金银扣 现货❤️","name_cn":"可半手工 蜜蜡缝线  ❤️ Kelly 25cm epsom 黑色 金银扣 现货❤️","specs":{"source":"wsxcme","sourceId":"_dyByBgbIUD8FD4zMEj8w5rvd9WnyEpqsGg4vXOw","sourceTagId":76963559,"sourceTagName":"爱马仕/女包","rawTitle":"可半手工 蜜蜡缝线  ❤️ Kelly 25cm epsom 黑色 金银扣 现货❤️"},"price":null,"currency":"CNY","moq":1,"category":"hermes-women-bags","status":"active","alibaba_url":null,"images":["https://xcimg.szwego.com/20211015/i1634288109_1791_0.jpg","https://xcimg.szwego.com/20211015/i1634288109_7680_1.jpg","https://xcimg.szwego.com/20211015/i1634288109_2319_2.jpg","https://xcimg.szwego.com/20211015/i1634288109_9026_3.jpg","https://xcimg.szwego.com/20211015/i1634288109_4943_4.jpg","https://xcimg.szwego.com/20211015/i1634288109_1414_5.jpg","https://xcimg.szwego.com/20211015/i1634288109_2533_6.jpg","https://xcimg.szwego.com/20211015/i1634288109_5911_7.jpg","https://xcimg.szwego.com/20211015/i1634288109_8166_8.jpg"],"created_at":"2026-06-29T12:59:35.964Z"},{"id":"item-3888ba661142","sku":"_diLiLV6FZMN6Y4QBgoQZY46awWGGTRgYTN22Jjw","name_en":"半手工蜜蜡缝线 原厂皮 客定定做款❤️  可 Kelly 25 Epsom 比togo纹理小一些,硬一些,包身更加力挺🌟❤️","name_cn":"半手工蜜蜡缝线 原厂皮 客定定做款❤️  可 Kelly 25 Epsom 比togo纹理小一些,硬一些,包身更加力挺🌟❤️","specs":{"source":"wsxcme","sourceId":"_diLiLV6FZMN6Y4QBgoQZY46awWGGTRgYTN22Jjw","sourceTagId":76963559,"sourceTagName":"爱马仕/女包","rawTitle":"半手工蜜蜡缝线 原厂皮 客定定做款❤️  可 Kelly 25 Epsom 比togo纹理小一些,硬一些,包身更加力挺🌟❤️"},"price":null,"currency":"CNY","moq":1,"category":"hermes-women-bags","status":"active","alibaba_url":null,"images":["https://xcimg.szwego.com/20201128/i1606557013_780_0.jpg","https://xcimg.szwego.com/20201128/i1606557013_6999_1.jpg","https://xcimg.szwego.com/20201128/i1606557013_9980_2.jpg","https://xcimg.szwego.com/20201128/i1606557013_8013_3.jpg","https://xcimg.szwego.com/20201128/i1606557013_627_4.jpg","https://xcimg.szwego.com/20201128/i1606557013_4343_5.jpg","https://xcimg.szwego.com/20201128/i1606557013_2227_6.jpg","https://xcimg.szwego.com/20201128/i1606557013_9915_7.jpg","https://xcimg.szwego.com/20201128/i1606557013_1269_8.jpg"],"created_at":"2026-06-29T12:59:35.954Z"},{"id":"item-89979178fffc","sku":"_dksksCdYY9vl2M3KkKbSXtYhSIHvThjxVUbJqaQ","name_en":"半手工蜜蜡缝线 原厂皮 客定定做款❤️  可 ☄️25cm/28cm","name_cn":"半手工蜜蜡缝线 原厂皮 客定定做款❤️  可 ☄️25cm/28cm\n💫Dream bag~Kelly epsom 掌纹\n✨8F锡器灰❤️","specs":{"source":"wsxcme","sourceId":"_dksksCdYY9vl2M3KkKbSXtYhSIHvThjxVUbJqaQ","sourceTagId":76963559,"sourceTagName":"爱马仕/女包","rawTitle":"半手工蜜蜡缝线 原厂皮 客定定做款❤️  可 ☄️25cm/28cm\n💫Dream bag~Kelly epsom 掌纹\n✨8F锡器灰❤️"},"price":null,"currency":"CNY","moq":1,"category":"hermes-women-bags","status":"active","alibaba_url":null,"images":["https://xcimg.szwego.com/20210801/i1627802978_8102_0.jpg","https://xcimg.szwego.com/20210801/i1627802978_685_1.jpg","https://xcimg.szwego.com/20210801/i1627802978_2947_2.jpg","https://xcimg.szwego.com/20210801/i1627802978_9732_3.jpg","https://xcimg.szwego.com/20210801/i1627802978_3877_4.jpg","https://xcimg.szwego.com/20210801/i1627802978_9711_5.jpg","https://xcimg.szwego.com/20210801/i1627802978_9292_6.jpg"],"created_at":"2026-06-29T12:59:35.944Z"},{"id":"item-ecfdef4746cc","sku":"_dr8r8TF1-dWhMC6FgMoe7UtHJPUY_Qdm2VCPlWA","name_en":"半手工蜜蜡缝线 原厂皮 客定定做款❤️  可 ☄️ 25cm/28cm","name_cn":"半手工蜜蜡缝线 原厂皮 客定定做款❤️  可 ☄️ 25cm/28cm\n💫Dream bag~Kelly epsom 掌纹\n✨08 圣杯蓝 太仙的颜色 夏天搭配^神器^❤️","specs":{"source":"wsxcme","sourceId":"_dr8r8TF1-dWhMC6FgMoe7UtHJPUY_Qdm2VCPlWA","sourceTagId":76963559,"sourceTagName":"爱马仕/女包","rawTitle":"半手工蜜蜡缝线 原厂皮 客定定做款❤️  可 ☄️ 25cm/28cm\n💫Dream bag~Kelly epsom 掌纹\n✨08 圣杯蓝 太仙的颜色 夏天搭配^神器^❤️"},"price":null,"currency":"CNY","moq":1,"category":"hermes-women-bags","status":"active","alibaba_url":null,"images":["https://xcimg.szwego.com/20210801/i1627802123_4106_0.jpg","https://xcimg.szwego.com/20210801/i1627802123_7253_1.jpg","https://xcimg.szwego.com/20210801/i1627802123_906_2.jpg","https://xcimg.szwego.com/20210801/i1627802123_4418_3.jpg","https://xcimg.szwego.com/20210801/i1627802123_6810_4.jpg","https://xcimg.szwego.com/20210801/i1627802123_5426_5.jpg","https://xcimg.szwego.com/20210801/i1627802123_896_6.jpg","https://xcimg.szwego.com/20210801/i1627802123_85_7.jpg","https://xcimg.szwego.com/20210801/i1627802123_1472_8.jpg"],"created_at":"2026-06-29T12:59:35.934Z"}],"page":2,"pageSize":24,"total":439,"totalPages":19}
