{"items":[{"id":"item-7d3917dba936","sku":"_dsjsja2NLKiclnC1nUBNTBozCiESy7Uw4IJceCQ","name_en":"中古斜挎包🎉🎉🎉1BD645🎉🎉","name_cn":"中古斜挎包🎉🎉🎉1BD645🎉🎉\n这款Vintage中古链条菱格流浪包设计太棒了👏👏\n纯手工尼龙菱格设计,可单肩+斜挎,进口黑金链条搭配真的是Vintage永远的情节😘😘简约大气,容量空间大👍上身特别潮,百搭又时髦。不管休闲,正式,全是稳稳气质。赶紧入手吧🙊太爱这款中古流浪包😘😘\n长25x高21x底8cm","specs":{"source":"wsxcme","sourceId":"_dsjsja2NLKiclnC1nUBNTBozCiESy7Uw4IJceCQ","sourceTagId":47002669,"sourceTagName":"普拉达/女包","rawTitle":"中古斜挎包🎉🎉🎉1BD645🎉🎉\n这款Vintage中古链条菱格流浪包设计太棒了👏👏\n纯手工尼龙菱格设计,可单肩+斜挎,进口黑金链条搭配真的是Vintage永远的情节😘😘简约大气,容量空间大👍上身特别潮,百搭又时髦。不管休闲,正式,全是稳稳气质。赶紧入手吧🙊太爱这款中古流浪包😘😘\n长25x高21x底8cm"},"price":null,"currency":"CNY","moq":1,"category":"prada-women-bags","status":"active","alibaba_url":null,"images":["https://xcimg.szwego.com/20240926/a1727282634554_6758.jpg","https://xcimg.szwego.com/20240926/a1727282634556_5468.jpg","https://xcimg.szwego.com/20240926/a1727282634556_5480.jpg","https://xcimg.szwego.com/20240926/a1727282634557_7557.jpg","https://xcimg.szwego.com/20240926/a1727282634558_3488.jpg","https://xcimg.szwego.com/20240926/a1727282634559_5275.jpg","https://xcimg.szwego.com/20240926/a1727282634559_7434.jpg","https://xcimg.szwego.com/20240926/a1727282634560_2050.jpg","https://xcimg.szwego.com/20240926/a1727282634561_8356.jpg"],"created_at":"2024-10-25T09:05:15.891Z"},{"id":"item-c5796af6bd60","sku":"_dj8j8r5D0wjtYcm1_Uw4J6_Uj2TC7XdGHMpy9Rw","name_en":"最新爆款普拉达中古包,时尚达人必备,最喜欢背的Prada包,真的是,可盐可甜的那种,上百搭和容量ok,所以使用频率最高,对比起来,这只容量更大一些,但会更女性化百搭款KK370尺寸","name_cn":"最新爆款普拉达中古包,时尚达人必备,最喜欢背的Prada包,真的是,可盐可甜的那种,上百搭和容量ok,所以使用频率最高,对比起来,这只容量更大一些,但会更女性化百搭款KK370尺寸","specs":{"source":"wsxcme","sourceId":"_dj8j8r5D0wjtYcm1_Uw4J6_Uj2TC7XdGHMpy9Rw","sourceTagId":47002669,"sourceTagName":"普拉达/女包","rawTitle":"最新爆款普拉达中古包,时尚达人必备,最喜欢背的Prada包,真的是,可盐可甜的那种,上百搭和容量ok,所以使用频率最高,对比起来,这只容量更大一些,但会更女性化百搭款KK370尺寸"},"price":null,"currency":"CNY","moq":1,"category":"prada-women-bags","status":"active","alibaba_url":null,"images":["https://xcimg.szwego.com/20230305/i1678010591_7310_0.jpg","https://xcimg.szwego.com/20230305/i1678010591_978_1.jpg","https://xcimg.szwego.com/20230305/i1678010591_6159_2.jpg","https://xcimg.szwego.com/20230305/i1678010591_3396_3.jpg","https://xcimg.szwego.com/20230305/i1678010591_9785_4.jpg","https://xcimg.szwego.com/20230305/i1678010591_4795_5.jpg","https://xcimg.szwego.com/20230305/i1678010591_4197_6.jpg","https://xcimg.szwego.com/20230305/i1678010591_1510_7.jpg","https://xcimg.szwego.com/20230305/i1678010591_6591_8.jpg"],"created_at":"2025-02-08T12:44:26.495Z"},{"id":"item-9609b6c82cf2","sku":"_d9N9N5sZwahXrmUwMNVRSM_0uAfdjl38mTTv-0A","name_en":"F680@新款绒面麂皮(特大号)Soft Lux🎉1BA439🎉🎉到货,这款手提斜挎包采用进口磨砂皮,散发出古典气息,配有一条可拆卸调节的长肩带,方便不同场合搭配,容量空间非常大,巨巨好用👏,绝对是时商达人们的必备款,赶紧把这款复古格调手拎包带回家吧!","name_cn":"F680@新款绒面麂皮(特大号)Soft Lux🎉1BA439🎉🎉到货,这款手提斜挎包采用进口磨砂皮,散发出古典气息,配有一条可拆卸调节的长肩带,方便不同场合搭配,容量空间非常大,巨巨好用👏,绝对是时商达人们的必备款,赶紧把这款复古格调手拎包带回家吧!\n长42×高30×底12cm(此款大,不配包装)","specs":{"source":"wsxcme","sourceId":"_d9N9N5sZwahXrmUwMNVRSM_0uAfdjl38mTTv-0A","sourceTagId":47002669,"sourceTagName":"普拉达/女包","rawTitle":"F680@新款绒面麂皮(特大号)Soft Lux🎉1BA439🎉🎉到货,这款手提斜挎包采用进口磨砂皮,散发出古典气息,配有一条可拆卸调节的长肩带,方便不同场合搭配,容量空间非常大,巨巨好用👏,绝对是时商达人们的必备款,赶紧把这款复古格调手拎包带回家吧!\n长42×高30×底12cm(此款大,不配包装)"},"price":null,"currency":"CNY","moq":1,"category":"prada-women-bags","status":"active","alibaba_url":null,"images":["https://xcimg.szwego.com/img/d707740b/20240926/i1727288310_2419_0.jpg","https://xcimg.szwego.com/img/d707740b/20240926/i1727288310_579_1.jpg","https://xcimg.szwego.com/img/d707740b/20240926/i1727288310_6580_2.jpg","https://xcimg.szwego.com/img/d707740b/20240926/i1727288310_2677_3.jpg","https://xcimg.szwego.com/img/d707740b/20240926/i1727288310_1832_4.jpg","https://xcimg.szwego.com/img/d707740b/20240926/i1727288310_4151_5.jpg","https://xcimg.szwego.com/img/d707740b/20240926/i1727288310_946_6.jpg","https://xcimg.szwego.com/img/d707740b/20240926/i1727288310_3317_7.jpg","https://xcimg.szwego.com/img/d707740b/20240926/i1727288310_5888_8.jpg"],"created_at":"2025-01-20T12:53:04.468Z"},{"id":"item-df67c0c30301","sku":"_dqRqRdNjD45eWTt9idKZm5USW06RhXbzCXliwPQ","name_en":"F新款绒面麂皮大号Soft Lux🎉1BA433🎉🎉到货,这款手提斜挎包采用进口磨砂皮,散发出古典气息,配有一条可拆卸调节的长肩带,方便不同场合搭配,容量空间非常大,巨巨好用👏,绝对是时商达人们的必备款,赶紧把这款复古格调手拎包带回家吧!","name_cn":"F新款绒面麂皮大号Soft Lux🎉1BA433🎉🎉到货,这款手提斜挎包采用进口磨砂皮,散发出古典气息,配有一条可拆卸调节的长肩带,方便不同场合搭配,容量空间非常大,巨巨好用👏,绝对是时商达人们的必备款,赶紧把这款复古格调手拎包带回家吧!\n长38x高30x底12cm(此款大,不配包装)","specs":{"source":"wsxcme","sourceId":"_dqRqRdNjD45eWTt9idKZm5USW06RhXbzCXliwPQ","sourceTagId":47002669,"sourceTagName":"普拉达/女包","rawTitle":"F新款绒面麂皮大号Soft Lux🎉1BA433🎉🎉到货,这款手提斜挎包采用进口磨砂皮,散发出古典气息,配有一条可拆卸调节的长肩带,方便不同场合搭配,容量空间非常大,巨巨好用👏,绝对是时商达人们的必备款,赶紧把这款复古格调手拎包带回家吧!\n长38x高30x底12cm(此款大,不配包装)"},"price":null,"currency":"CNY","moq":1,"category":"prada-women-bags","status":"active","alibaba_url":null,"images":["https://xcimg.szwego.com/img/d707740b/20240814/i1723571466_1789_0.jpg","https://xcimg.szwego.com/img/d707740b/20240814/i1723571466_2709_1.jpg","https://xcimg.szwego.com/img/d707740b/20240814/i1723571466_8032_2.jpg","https://xcimg.szwego.com/img/d707740b/20240814/i1723571466_5361_3.jpg","https://xcimg.szwego.com/img/d707740b/20240814/i1723571466_95_4.jpg","https://xcimg.szwego.com/img/d707740b/20240814/i1723571466_1215_5.jpg","https://xcimg.szwego.com/img/d707740b/20240814/i1723571466_4285_6.jpg","https://xcimg.szwego.com/img/d707740b/20240814/i1723571466_4614_7.jpg","https://xcimg.szwego.com/img/d707740b/20240814/i1723571466_2182_8.jpg"],"created_at":"2025-01-20T12:53:04.467Z"},{"id":"item-c93a591cb0a6","sku":"_dxpxpi5a5mVkj-bKCEbeqQjoZqPkMDQt6gqz-RQ","name_en":"P家🌹(大号)2023秋冬新款🍰1BD328到货啦,这款System软羊革单肩包饰以经华美缝线打造的三角形图案,彰显品牌的制作工艺。翻盖设计,链条提手唤起对珠宝的联想/又可拆卸,正面金属刻字徽标以标志性的三角形缝线勾勒轮廓,品牌格调跃然眼前。可手提/肩带/斜跨,功能性强👍喜欢宝宝们,赶紧入手吧,尺寸:24X15X7.5CM🎉🎉!","name_cn":"P家🌹(大号)2023秋冬新款🍰1BD328到货啦,这款System软羊革单肩包饰以经华美缝线打造的三角形图案,彰显品牌的制作工艺。翻盖设计,链条提手唤起对珠宝的联想/又可拆卸,正面金属刻字徽标以标志性的三角形缝线勾勒轮廓,品牌格调跃然眼前。可手提/肩带/斜跨,功能性强👍喜欢宝宝们,赶紧入手吧,尺寸:24X15X7.5CM🎉🎉!","specs":{"source":"wsxcme","sourceId":"_dxpxpi5a5mVkj-bKCEbeqQjoZqPkMDQt6gqz-RQ","sourceTagId":47002669,"sourceTagName":"普拉达/女包","dimensions":{"lengthCm":24,"heightCm":15,"widthCm":7.5},"rawTitle":"P家🌹(大号)2023秋冬新款🍰1BD328到货啦,这款System软羊革单肩包饰以经华美缝线打造的三角形图案,彰显品牌的制作工艺。翻盖设计,链条提手唤起对珠宝的联想/又可拆卸,正面金属刻字徽标以标志性的三角形缝线勾勒轮廓,品牌格调跃然眼前。可手提/肩带/斜跨,功能性强👍喜欢宝宝们,赶紧入手吧,尺寸:24X15X7.5CM🎉🎉!"},"price":null,"currency":"CNY","moq":1,"category":"prada-women-bags","status":"active","alibaba_url":null,"images":["https://xcimg.szwego.com/20221217/a1671263427184_8715.jpg","https://xcimg.szwego.com/20221217/a1671263427300_1105.jpg","https://xcimg.szwego.com/20221217/a1671263427415_2847.jpg","https://xcimg.szwego.com/20221217/a1671263427516_1163.jpg","https://xcimg.szwego.com/20221217/a1671263427596_7026.jpg","https://xcimg.szwego.com/20221217/a1671263427680_4371.jpg","https://xcimg.szwego.com/20221217/a1671263427774_8748.jpg","https://xcimg.szwego.com/20221217/a1671263427827_1336.jpg","https://xcimg.szwego.com/20221217/a1671263428191_4831.jpg"],"created_at":"2024-05-02T13:02:59.247Z"},{"id":"item-ce52a47f62d5","sku":"_dououxS5SlTjeGibY0dqc-1hhOvTy0jJigKlf5A","name_en":"P家🌹(小号)🎉新款🎉1BD292A🎉🎉这款System软羊革单肩包饰以经华美缝线打造的三角形图案,彰显品牌的制作工艺。翻盖设计,链条提手唤起对珠宝的联想/又可拆卸,正面金属刻字徽标以标志性的三角形缝线勾勒轮廓,品牌格调跃然眼前。可手提/肩带/斜跨,功能性强👍喜欢宝宝们,赶紧入手吧🎉🎉","name_cn":"P家🌹(小号)🎉新款🎉1BD292A🎉🎉这款System软羊革单肩包饰以经华美缝线打造的三角形图案,彰显品牌的制作工艺。翻盖设计,链条提手唤起对珠宝的联想/又可拆卸,正面金属刻字徽标以标志性的三角形缝线勾勒轮廓,品牌格调跃然眼前。可手提/肩带/斜跨,功能性强👍喜欢宝宝们,赶紧入手吧🎉🎉\n尺寸:长21x高15x底6.5cm🎉🎉🎉👏!","specs":{"source":"wsxcme","sourceId":"_dououxS5SlTjeGibY0dqc-1hhOvTy0jJigKlf5A","sourceTagId":47002669,"sourceTagName":"普拉达/女包","rawTitle":"P家🌹(小号)🎉新款🎉1BD292A🎉🎉这款System软羊革单肩包饰以经华美缝线打造的三角形图案,彰显品牌的制作工艺。翻盖设计,链条提手唤起对珠宝的联想/又可拆卸,正面金属刻字徽标以标志性的三角形缝线勾勒轮廓,品牌格调跃然眼前。可手提/肩带/斜跨,功能性强👍喜欢宝宝们,赶紧入手吧🎉🎉\n尺寸:长21x高15x底6.5cm🎉🎉🎉👏!"},"price":null,"currency":"CNY","moq":1,"category":"prada-women-bags","status":"active","alibaba_url":null,"images":["https://xcimg.szwego.com/20221217/a1671264030603_3058.jpg","https://xcimg.szwego.com/20221217/a1671264030732_3856.jpg","https://xcimg.szwego.com/20221217/a1671264030791_5043.jpg","https://xcimg.szwego.com/20221217/a1671264030872_8843.jpg","https://xcimg.szwego.com/20221217/a1671264030988_7633.jpg","https://xcimg.szwego.com/20221217/a1671264031061_6457.jpg","https://xcimg.szwego.com/20221217/a1671264031154_2340.jpg","https://xcimg.szwego.com/20221217/a1671264031269_7752.jpg","https://xcimg.szwego.com/20221217/a1671264031330_8311.jpg"],"created_at":"2024-05-02T13:02:59.250Z"},{"id":"item-7e45fadba568","sku":"_daBaBNA8Q63Ga_d9eY1it-2ay3XZzsmnd1g9ZkQ","name_en":"P家🌹最新款水桶包 原单品质💋👻小牛皮材质 皮革提手 可拆卸可调节五彩织物肩带 配有皮革肩垫 金属刻字徽标 顶部饰有皮革抽绳 ,标志衬里 内部有一个皮革口袋💥型号:1BE018,代工码165,尺寸:21×25×15cm!","name_cn":"P家🌹最新款水桶包 原单品质💋👻小牛皮材质 皮革提手 可拆卸可调节五彩织物肩带 配有皮革肩垫 金属刻字徽标 顶部饰有皮革抽绳 ,标志衬里 内部有一个皮革口袋💥型号:1BE018,代工码165,尺寸:21×25×15cm!","specs":{"source":"wsxcme","sourceId":"_daBaBNA8Q63Ga_d9eY1it-2ay3XZzsmnd1g9ZkQ","sourceTagId":47002669,"sourceTagName":"普拉达/女包","modelNumber":"1BE018","dimensions":{"lengthCm":21,"heightCm":25,"widthCm":15},"rawTitle":"P家🌹最新款水桶包 原单品质💋👻小牛皮材质 皮革提手 可拆卸可调节五彩织物肩带 配有皮革肩垫 金属刻字徽标 顶部饰有皮革抽绳 ,标志衬里 内部有一个皮革口袋💥型号:1BE018,代工码165,尺寸:21×25×15cm!"},"price":null,"currency":"CNY","moq":1,"category":"prada-women-bags","status":"active","alibaba_url":null,"images":["https://xcimg.szwego.com/20200506/a1588739096285_5153.jpg","https://xcimg.szwego.com/20200506/a1588739098006_0688.jpg","https://xcimg.szwego.com/20200506/a1588739099666_0302.jpg","https://xcimg.szwego.com/20200506/a1588739101226_8545.jpg","https://xcimg.szwego.com/20200506/a1588739102847_6566.jpg","https://xcimg.szwego.com/20200506/a1588739104708_3703.jpg","https://xcimg.szwego.com/20200506/a1588739106391_1156.jpg","https://xcimg.szwego.com/20200506/a1588739108293_1068.jpg","https://xcimg.szwego.com/20200506/a1588739110705_3855.jpg"],"created_at":"2024-05-02T13:02:59.227Z"},{"id":"item-6858bcbc0bba","sku":"_dlYlY9zkElxjyDF4OpGmaxS_IyDTjgfgHAVZx2g","name_en":"P家🔥专柜最新爆款1BE032水桶包🌹顶级原单货,进口粗十字纹牛皮,顶级五金,皮革手提,可调式拆卸长肩带,抽绳袋口。简约又时尚,女士们的需求,又是一款永久不过时的水桶包💋女神必备,尺寸:22×22×14cm !","name_cn":"P家🔥专柜最新爆款1BE032水桶包🌹顶级原单货,进口粗十字纹牛皮,顶级五金,皮革手提,可调式拆卸长肩带,抽绳袋口。简约又时尚,女士们的需求,又是一款永久不过时的水桶包💋女神必备,尺寸:22×22×14cm !","specs":{"source":"wsxcme","sourceId":"_dlYlY9zkElxjyDF4OpGmaxS_IyDTjgfgHAVZx2g","sourceTagId":47002669,"sourceTagName":"普拉达/女包","dimensions":{"lengthCm":22,"heightCm":22,"widthCm":14},"rawTitle":"P家🔥专柜最新爆款1BE032水桶包🌹顶级原单货,进口粗十字纹牛皮,顶级五金,皮革手提,可调式拆卸长肩带,抽绳袋口。简约又时尚,女士们的需求,又是一款永久不过时的水桶包💋女神必备,尺寸:22×22×14cm !"},"price":null,"currency":"CNY","moq":1,"category":"prada-women-bags","status":"active","alibaba_url":null,"images":["https://xcimg.szwego.com/20200526/i1590469271_6935_0.jpg","https://xcimg.szwego.com/20200526/i1590469271_2884_1.jpg","https://xcimg.szwego.com/20200526/i1590469271_9173_2.jpg","https://xcimg.szwego.com/20200526/i1590469271_2646_3.jpg","https://xcimg.szwego.com/20200526/i1590469271_2101_4.jpg","https://xcimg.szwego.com/20200526/i1590469271_5918_5.jpg","https://xcimg.szwego.com/20200526/i1590469271_3594_6.jpg","https://xcimg.szwego.com/20200526/i1590469271_7563_7.jpg","https://xcimg.szwego.com/20200526/i1590469271_6453_8.jpg"],"created_at":"2024-05-02T13:02:59.232Z"},{"id":"item-163cbbf0039a","sku":"_djrjrlKaHNd0weI-GkxFrbub-EkksJbSS6nnh7g","name_en":"P家🔥最经典款💋💋💋 1BG2775 意大利进口粗十字纹皮 ➕羊皮内里🌹意大利进口原厂皮 ➕原厂五金 堪比时代厂原版皮和顶级手工,代工码165,1BG775 尺寸33X25X14.5CM ❤️ ❤️ ❤️ 小辣椒购物袋 工艺结构媲美专柜!","name_cn":"P家🔥最经典款💋💋💋 1BG2775 意大利进口粗十字纹皮 ➕羊皮内里🌹意大利进口原厂皮 ➕原厂五金 堪比时代厂原版皮和顶级手工,代工码165,1BG775 尺寸33X25X14.5CM ❤️ ❤️ ❤️ 小辣椒购物袋 工艺结构媲美专柜!","specs":{"source":"wsxcme","sourceId":"_djrjrlKaHNd0weI-GkxFrbub-EkksJbSS6nnh7g","sourceTagId":47002669,"sourceTagName":"普拉达/女包","dimensions":{"lengthCm":33,"heightCm":25,"widthCm":14.5},"rawTitle":"P家🔥最经典款💋💋💋 1BG2775 意大利进口粗十字纹皮 ➕羊皮内里🌹意大利进口原厂皮 ➕原厂五金 堪比时代厂原版皮和顶级手工,代工码165,1BG775 尺寸33X25X14.5CM ❤️ ❤️ ❤️ 小辣椒购物袋 工艺结构媲美专柜!"},"price":null,"currency":"CNY","moq":1,"category":"prada-women-bags","status":"active","alibaba_url":null,"images":["https://xcimg.szwego.com/20221224/a1671823859874_5225.jpg","https://xcimg.szwego.com/20221224/a1671823859996_7887.jpg","https://xcimg.szwego.com/20221224/a1671823860085_0836.jpg","https://xcimg.szwego.com/20221224/a1671823860172_6447.jpg","https://xcimg.szwego.com/20221224/a1671823860399_6145.jpg","https://xcimg.szwego.com/20221224/a1671823860493_1810.jpg","https://xcimg.szwego.com/20221224/a1671823860631_5472.jpg","https://xcimg.szwego.com/20221224/a1671823860815_1065.jpg","https://xcimg.szwego.com/20221224/a1671823860906_8413.jpg"],"created_at":"2024-05-02T13:02:59.236Z"},{"id":"item-ff1da6688c41","sku":"_dwHwH2SLTUq4jcl5bO6a3wE_CYD5GpUlgVVnIYw","name_en":"Prada Women Bags","name_cn":"正品级\n(配盒)🌟Hobo三合一毛毛包\n秋冬氛围感只差一个毛毛包❄️这款配有一条可拆卸的毛毛肩带和链条 ,当腋包下多了一抹子性感,还配上可拆卸长肩带,喜欢sportsexy的宝宝可斜以挎背继续轻松造凹型,功能性强,冬天必备品!!\n尺寸:长22*高18*宽6cm\n款号:1BC204","specs":{"source":"wsxcme","sourceId":"_dwHwH2SLTUq4jcl5bO6a3wE_CYD5GpUlgVVnIYw","sourceTagId":47002669,"sourceTagName":"普拉达/女包","modelNumber":"1BC204","dimensions":{"lengthCm":22,"heightCm":18,"widthCm":6},"rawTitle":"正品级\n(配盒)🌟Hobo三合一毛毛包\n秋冬氛围感只差一个毛毛包❄️这款配有一条可拆卸的毛毛肩带和链条 ,当腋包下多了一抹子性感,还配上可拆卸长肩带,喜欢sportsexy的宝宝可斜以挎背继续轻松造凹型,功能性强,冬天必备品!!\n尺寸:长22*高18*宽6cm\n款号:1BC204"},"price":null,"currency":"CNY","moq":1,"category":"prada-women-bags","status":"active","alibaba_url":null,"images":["https://xcimg.szwego.com/20230105/i1672893295_3731_0.jpg","https://xcimg.szwego.com/20230105/i1672893295_3296_1.jpg","https://xcimg.szwego.com/20230105/i1672893295_1860_2.jpg","https://xcimg.szwego.com/20230105/i1672893295_2166_3.jpg","https://xcimg.szwego.com/20230105/i1672893295_8787_4.jpg","https://xcimg.szwego.com/20230105/i1672893295_7676_5.jpg","https://xcimg.szwego.com/20230105/i1672893295_8908_6.jpg","https://xcimg.szwego.com/20230105/i1672893295_3213_7.jpg","https://xcimg.szwego.com/20230105/i1672893295_6747_8.jpg"],"created_at":"2024-09-12T05:22:07.598Z"},{"id":"item-fd50811f0932","sku":"_dc0c0BwpnA1kzwAl4lYRLyoMf-czv5EjOk1qz6Q","name_en":"Prada Women Bags","name_cn":"配盒⚠️尺寸24.14普拉达腋下包满满的设计感 非常知性优雅超级高级的配色 实物绝对惊艳到你。型号:8812","specs":{"source":"wsxcme","sourceId":"_dc0c0BwpnA1kzwAl4lYRLyoMf-czv5EjOk1qz6Q","sourceTagId":47002669,"sourceTagName":"普拉达/女包","modelNumber":"8812","rawTitle":"配盒⚠️尺寸24.14普拉达腋下包满满的设计感 非常知性优雅超级高级的配色 实物绝对惊艳到你。型号:8812"},"price":null,"currency":"CNY","moq":1,"category":"prada-women-bags","status":"active","alibaba_url":null,"images":["https://xcimg.szwego.com/20220904/i1662267866_5699_0.jpg","https://xcimg.szwego.com/20220904/i1662267866_6940_1.jpg","https://xcimg.szwego.com/20220904/i1662267866_1462_2.jpg","https://xcimg.szwego.com/20220904/i1662267866_6111_3.jpg","https://xcimg.szwego.com/20220904/i1662267866_7071_4.jpg","https://xcimg.szwego.com/20220904/i1662267866_1300_5.jpg","https://xcimg.szwego.com/20220904/i1662267866_6283_6.jpg","https://xcimg.szwego.com/20220904/i1662267866_592_7.jpg","https://xcimg.szwego.com/20220904/i1662267866_2008_8.jpg"],"created_at":"2025-02-08T12:44:35.395Z"},{"id":"item-f89197b9acb4","sku":"_d0h0hzDXt6V5pYaHm-u1yHDqAL0XAduQLpcFXNg","name_en":"Prada Women Bags","name_cn":"满钻💎三合一\n     集合图✨","specs":{"source":"wsxcme","sourceId":"_d0h0hzDXt6V5pYaHm-u1yHDqAL0XAduQLpcFXNg","sourceTagId":47002669,"sourceTagName":"普拉达/女包","rawTitle":"满钻💎三合一\n     集合图✨"},"price":null,"currency":"CNY","moq":1,"category":"prada-women-bags","status":"active","alibaba_url":null,"images":["https://xcimg.szwego.com/20230108/i1673169578_8213_0.jpg","https://xcimg.szwego.com/20230108/i1673169578_4589_1.jpg"],"created_at":"2024-09-12T05:21:07.519Z"},{"id":"item-f45ff802306a","sku":"_dgSgSxq1KciALV8BWoMsLxrU8vIAF8H3fUGjgIg","name_en":"Prada Women Bags","name_cn":"配盒⚠️尺寸24.14普拉达腋下包满满的设计感 非常知性优雅超级高级的配色 实物绝对惊艳到你。型号:8812","specs":{"source":"wsxcme","sourceId":"_dgSgSxq1KciALV8BWoMsLxrU8vIAF8H3fUGjgIg","sourceTagId":47002669,"sourceTagName":"普拉达/女包","modelNumber":"8812","rawTitle":"配盒⚠️尺寸24.14普拉达腋下包满满的设计感 非常知性优雅超级高级的配色 实物绝对惊艳到你。型号:8812"},"price":null,"currency":"CNY","moq":1,"category":"prada-women-bags","status":"active","alibaba_url":null,"images":["https://xcimg.szwego.com/20220904/i1662267920_8346_0.jpg","https://xcimg.szwego.com/20220904/i1662267920_592_1.jpg","https://xcimg.szwego.com/20220904/i1662267920_267_2.jpg","https://xcimg.szwego.com/20220904/i1662267920_4473_3.jpg","https://xcimg.szwego.com/20220904/i1662267920_7757_4.jpg","https://xcimg.szwego.com/20220904/i1662267920_690_5.jpg","https://xcimg.szwego.com/20220904/i1662267920_9377_6.jpg","https://xcimg.szwego.com/20220904/i1662267920_1782_7.jpg","https://xcimg.szwego.com/20220904/i1662267920_9024_8.jpg"],"created_at":"2025-02-08T12:44:35.396Z"},{"id":"item-ee48e73db32f","sku":"_d8t8t3KqT1BJ0_SlcD-hzivEbaU1JZdtU7Af6wg","name_en":"Prada Women Bags","name_cn":"更多细节—-","specs":{"source":"wsxcme","sourceId":"_d8t8t3KqT1BJ0_SlcD-hzivEbaU1JZdtU7Af6wg","sourceTagId":47002669,"sourceTagName":"普拉达/女包","rawTitle":"更多细节—-"},"price":null,"currency":"CNY","moq":1,"category":"prada-women-bags","status":"active","alibaba_url":null,"images":["https://xcimg.szwego.com/img/0307d510/20231115/i1700033857_5079_2.jpg","https://xcimg.szwego.com/img/0307d510/20231115/i1700033857_9738_3.jpg","https://xcimg.szwego.com/img/0307d510/20231115/i1700033857_844_0.jpg","https://xcimg.szwego.com/img/0307d510/20231115/i1700033857_8156_1.jpg","https://xcimg.szwego.com/img/0307d510/20231115/i1700033857_961_4.jpg","https://xcimg.szwego.com/img/0307d510/20231115/i1700033857_7049_7.jpg","https://xcimg.szwego.com/img/0307d510/20231115/i1700033857_9075_5.jpg","https://xcimg.szwego.com/img/0307d510/20231115/i1700033857_8748_6.jpg"],"created_at":"2026-06-29T11:07:24.277Z"},{"id":"item-e68185a5f249","sku":"_dBdBd3btK6lRdoMPcupVH4-pybSH0M3j0OC6ewg","name_en":"Prada Women Bags","name_cn":"更多细节—","specs":{"source":"wsxcme","sourceId":"_dBdBd3btK6lRdoMPcupVH4-pybSH0M3j0OC6ewg","sourceTagId":47002669,"sourceTagName":"普拉达/女包","rawTitle":"更多细节—"},"price":null,"currency":"CNY","moq":1,"category":"prada-women-bags","status":"active","alibaba_url":null,"images":["https://xcimg.szwego.com/img/0307d510/20231202/i1701503075_1596_4.jpg","https://xcimg.szwego.com/img/0307d510/20231202/i1701503075_1102_0.jpg","https://xcimg.szwego.com/img/0307d510/20231202/i1701503075_1575_5.jpg","https://xcimg.szwego.com/img/0307d510/20231202/i1701503075_9089_2.jpg","https://xcimg.szwego.com/img/0307d510/20231202/i1701503075_6052_1.jpg","https://xcimg.szwego.com/img/0307d510/20231202/i1701503075_4628_3.jpg","https://xcimg.szwego.com/img/0307d510/20231202/i1701503075_3011_6.jpg"],"created_at":"2026-06-29T11:07:24.307Z"},{"id":"item-de1d29035a6f","sku":"_d-D-DnjEQpdNx-UIegfrJOhief2OiBQ82h3gi8Q","name_en":"Prada Women Bags","name_cn":"配盒⚠️尺寸24.14普拉达腋下包满满的设计感 非常知性优雅超级高级的配色 实物绝对惊艳到你。型号:8812","specs":{"source":"wsxcme","sourceId":"_d-D-DnjEQpdNx-UIegfrJOhief2OiBQ82h3gi8Q","sourceTagId":47002669,"sourceTagName":"普拉达/女包","modelNumber":"8812","rawTitle":"配盒⚠️尺寸24.14普拉达腋下包满满的设计感 非常知性优雅超级高级的配色 实物绝对惊艳到你。型号:8812"},"price":null,"currency":"CNY","moq":1,"category":"prada-women-bags","status":"active","alibaba_url":null,"images":["https://xcimg.szwego.com/20220904/i1662267793_2965_0.jpg","https://xcimg.szwego.com/20220904/i1662267793_3048_1.jpg","https://xcimg.szwego.com/20220904/i1662267793_445_2.jpg","https://xcimg.szwego.com/20220904/i1662267793_5472_3.jpg","https://xcimg.szwego.com/20220904/i1662267793_3312_4.jpg","https://xcimg.szwego.com/20220904/i1662267793_4346_5.jpg","https://xcimg.szwego.com/20220904/i1662267793_2549_6.jpg","https://xcimg.szwego.com/20220904/i1662267793_2063_7.jpg","https://xcimg.szwego.com/20220904/i1662267793_7057_8.jpg"],"created_at":"2025-02-08T12:44:35.394Z"},{"id":"item-dc4228619bd3","sku":"_dcbcbBkDXYD3aBQRYAx87y7ciA-hWQhq7u32-Zg","name_en":"Prada Women Bags","name_cn":"正品级\n【顶级原单】P家🌹🎉新款三合一🎉1B到货啦👏这款迷你信封包配有正面翻盖,标志性的刻字徽标点缀于正面,品牌格调一览无余。 磁扣扣合设计不失经典,织带肩带令其化身为斜挎包或单肩包,配有一个小零钱包,功能多样,又可当手包😘😘软羊革衬里配有带可拆卸镜子的小口袋,设计颇为贴心。简约又时尚,宝宝们赶紧入手吧🎉🎉🎉👏尺寸:长20x高12x底4cm!","specs":{"source":"wsxcme","sourceId":"_dcbcbBkDXYD3aBQRYAx87y7ciA-hWQhq7u32-Zg","sourceTagId":47002669,"sourceTagName":"普拉达/女包","rawTitle":"正品级\n【顶级原单】P家🌹🎉新款三合一🎉1B到货啦👏这款迷你信封包配有正面翻盖,标志性的刻字徽标点缀于正面,品牌格调一览无余。 磁扣扣合设计不失经典,织带肩带令其化身为斜挎包或单肩包,配有一个小零钱包,功能多样,又可当手包😘😘软羊革衬里配有带可拆卸镜子的小口袋,设计颇为贴心。简约又时尚,宝宝们赶紧入手吧🎉🎉🎉👏尺寸:长20x高12x底4cm!"},"price":null,"currency":"CNY","moq":1,"category":"prada-women-bags","status":"active","alibaba_url":null,"images":["https://xcimg.szwego.com/20230916/a1694841089275_4614.jpg","https://xcimg.szwego.com/20230916/a1694841089359_2131.jpg","https://xcimg.szwego.com/20230916/a1694841089459_7280.jpg","https://xcimg.szwego.com/20230916/a1694841089663_2712.jpg","https://xcimg.szwego.com/20230916/a1694841089758_6031.jpg","https://xcimg.szwego.com/20230916/a1694841089931_2132.jpg","https://xcimg.szwego.com/20230916/a1694841090031_7410.jpg","https://xcimg.szwego.com/20230916/a1694841090266_1380.jpg","https://xcimg.szwego.com/20230916/a1694841090538_2547.jpg"],"created_at":"2024-09-12T05:22:07.592Z"},{"id":"item-db65cb6ba111","sku":"_dw-w-pIZ7C-C9DUhFoXOt2ZoUdAe1-IC3uwczNQ","name_en":"Prada Women Bags","name_cn":"上身图","specs":{"source":"wsxcme","sourceId":"_dw-w-pIZ7C-C9DUhFoXOt2ZoUdAe1-IC3uwczNQ","sourceTagId":47002669,"sourceTagName":"普拉达/女包","rawTitle":"上身图"},"price":null,"currency":"CNY","moq":1,"category":"prada-women-bags","status":"active","alibaba_url":null,"images":["https://xcimg.szwego.com/20230821/i1692602865_7348_0.jpg","https://xcimg.szwego.com/20230821/i1692602865_6799_1.jpg","https://xcimg.szwego.com/20230821/i1692602865_2320_2.jpg","https://xcimg.szwego.com/20230821/i1692602865_7104_3.jpg","https://xcimg.szwego.com/20230821/i1692602865_7329_4.jpg","https://xcimg.szwego.com/20230821/i1692602865_7027_5.jpg","https://xcimg.szwego.com/20230821/i1692602865_3571_6.jpg","https://xcimg.szwego.com/20230821/i1692602865_8969_7.jpg","https://xcimg.szwego.com/20230821/i1692602865_108_8.jpg"],"created_at":"2026-06-29T11:07:24.417Z"},{"id":"item-d99895a5cc7b","sku":"_dxxxxbRBTvDy5vmYqPr-Pqr5zBUARa1tsIU-pFg","name_en":"Prada Women Bags","name_cn":"正品级\n【顶级原单】🎉草编三合一🎉1BH204🎉🎉这款纯手工编织三合一设计太棒👏👏一包三用🎉🎉这款复杂工手显得格外大气/时尚,最爱的是肩带还挂着个小挂饰(小包),上身效果非常棒,回头率百分之百😘夏天必备🎉赶紧入手吧🎉🎉尺寸:长23x高16x底7cm","specs":{"source":"wsxcme","sourceId":"_dxxxxbRBTvDy5vmYqPr-Pqr5zBUARa1tsIU-pFg","sourceTagId":47002669,"sourceTagName":"普拉达/女包","rawTitle":"正品级\n【顶级原单】🎉草编三合一🎉1BH204🎉🎉这款纯手工编织三合一设计太棒👏👏一包三用🎉🎉这款复杂工手显得格外大气/时尚,最爱的是肩带还挂着个小挂饰(小包),上身效果非常棒,回头率百分之百😘夏天必备🎉赶紧入手吧🎉🎉尺寸:长23x高16x底7cm"},"price":null,"currency":"CNY","moq":1,"category":"prada-women-bags","status":"active","alibaba_url":null,"images":["https://xcimg.szwego.com/20230510/a1683711986573_4788.jpg","https://xcimg.szwego.com/20230510/a1683711986672_5104.jpg","https://xcimg.szwego.com/20230510/a1683711986767_8587.jpg","https://xcimg.szwego.com/20230510/a1683711986871_2855.jpg","https://xcimg.szwego.com/20230510/a1683711986953_1311.jpg","https://xcimg.szwego.com/20230510/a1683711987011_0804.jpg","https://xcimg.szwego.com/20230510/a1683711987200_3027.jpg","https://xcimg.szwego.com/20230510/a1683711987209_4651.jpg","https://xcimg.szwego.com/20230510/a1683711987316_1871.jpg"],"created_at":"2024-09-12T05:22:07.591Z"},{"id":"item-d258afe9f093","sku":"_dduduB7JIrAmg3am4ckvjieCUktx8eH7oRxHZIw","name_en":"Prada Women Bags","name_cn":"正品级\n🌟Hobo三合一(全皮)\n带可拆卸P家 Re-Edition 2005 Saffiano皮革姓名铭牌,配钥匙扣,可拆卸可调式徽标织物肩带 可拆卸拉链式皮质小袋 可拆卸金属链条肩带 多种背法,顶部拉链拉合 尼龙衬里 涂珐琅三角形金属徽标!\n尺寸:长22X高18X宽6.5CM\n型号:1BH204","specs":{"source":"wsxcme","sourceId":"_dduduB7JIrAmg3am4ckvjieCUktx8eH7oRxHZIw","sourceTagId":47002669,"sourceTagName":"普拉达/女包","modelNumber":"1BH204","dimensions":{"lengthCm":22,"heightCm":18,"widthCm":6.5},"rawTitle":"正品级\n🌟Hobo三合一(全皮)\n带可拆卸P家 Re-Edition 2005 Saffiano皮革姓名铭牌,配钥匙扣,可拆卸可调式徽标织物肩带 可拆卸拉链式皮质小袋 可拆卸金属链条肩带 多种背法,顶部拉链拉合 尼龙衬里 涂珐琅三角形金属徽标!\n尺寸:长22X高18X宽6.5CM\n型号:1BH204"},"price":null,"currency":"CNY","moq":1,"category":"prada-women-bags","status":"active","alibaba_url":null,"images":["https://xcimg.szwego.com/20230403/i1680513085_983_0.jpg","https://xcimg.szwego.com/20230403/i1680513085_7345_1.jpg","https://xcimg.szwego.com/20230403/i1680513085_4445_2.jpg","https://xcimg.szwego.com/20230403/i1680513085_5230_3.jpg","https://xcimg.szwego.com/20230403/i1680513085_8386_4.jpg","https://xcimg.szwego.com/20230403/i1680513085_9565_5.jpg","https://xcimg.szwego.com/20230403/i1680513085_2477_6.jpg","https://xcimg.szwego.com/20230403/i1680513085_8013_7.jpg","https://xcimg.szwego.com/20230403/i1680513085_1985_8.jpg"],"created_at":"2024-09-12T05:21:07.530Z"},{"id":"item-cd724cec681c","sku":"_dcQcQV1hMriT-_eACVwMkP1PBLQuotEs5gFG5pQ","name_en":"Prada Women Bags","name_cn":"原单 原厂定制皮料♥️\nPRAD*a 推出全新 2021春夏系列 Hobo手袋 精选小牛皮打造 杜鹃 文淇 邓恩熙赋予 全新演绎 原版复刻 轻便时尚  潮人必备 普拉达由玛丽奥·普拉达于1913年在意大利 米兰创建。Miuccia Prada的独特天赋在于对新创意的不懈追求,融合了对知识的好奇心和文化兴趣,从而开辟了先驱之路。她不仅能够预测时尚趋势,更能够引领时尚潮流 尺寸:27cm款号123","specs":{"source":"wsxcme","sourceId":"_dcQcQV1hMriT-_eACVwMkP1PBLQuotEs5gFG5pQ","sourceTagId":47002669,"sourceTagName":"普拉达/女包","modelNumber":"123","rawTitle":"原单 原厂定制皮料♥️\nPRAD*a 推出全新 2021春夏系列 Hobo手袋 精选小牛皮打造 杜鹃 文淇 邓恩熙赋予 全新演绎 原版复刻 轻便时尚  潮人必备 普拉达由玛丽奥·普拉达于1913年在意大利 米兰创建。Miuccia Prada的独特天赋在于对新创意的不懈追求,融合了对知识的好奇心和文化兴趣,从而开辟了先驱之路。她不仅能够预测时尚趋势,更能够引领时尚潮流 尺寸:27cm款号123"},"price":null,"currency":"CNY","moq":1,"category":"prada-women-bags","status":"active","alibaba_url":null,"images":["https://xcimg.szwego.com/img/ee653128/20240427/i1714149638_3798_3.jpg","https://xcimg.szwego.com/img/ee653128/20240427/i1714149638_6079_1.jpg","https://xcimg.szwego.com/img/ee653128/20240427/i1714149638_4379_5.jpg","https://xcimg.szwego.com/img/ee653128/20240427/i1714149638_5896_4.jpg","https://xcimg.szwego.com/img/ee653128/20240427/i1714149638_9173_2.jpg","https://xcimg.szwego.com/img/ee653128/20240427/i1714149638_2993_6.jpg","https://xcimg.szwego.com/img/ee653128/20240427/i1714149638_9137_0.jpg","https://xcimg.szwego.com/img/ee653128/20240427/i1714149638_9901_8.jpg","https://xcimg.szwego.com/img/ee653128/20240427/i1714149638_1205_7.jpg"],"created_at":"2025-02-08T12:44:26.513Z"},{"id":"item-c79d9a80b1a7","sku":"_dbHbHTzoOnmipPNKk34mZyNuEr6hyBsLPpObYeQ","name_en":"Prada Women Bags","name_cn":"新款普拉达 2097 热火朝天的火爆 气场王 百搭王 一百万年都不过时   手提,斜挎  一年四季必备驾驭的了任何风格 市场独家工艺研制原版荔枝纹完美 你的衣橱绝对不可以少一个这么强的搭配神器!尺寸:30.22.13","specs":{"source":"wsxcme","sourceId":"_dbHbHTzoOnmipPNKk34mZyNuEr6hyBsLPpObYeQ","sourceTagId":47002669,"sourceTagName":"普拉达/女包","rawTitle":"新款普拉达 2097 热火朝天的火爆 气场王 百搭王 一百万年都不过时   手提,斜挎  一年四季必备驾驭的了任何风格 市场独家工艺研制原版荔枝纹完美 你的衣橱绝对不可以少一个这么强的搭配神器!尺寸:30.22.13"},"price":null,"currency":"CNY","moq":1,"category":"prada-women-bags","status":"active","alibaba_url":null,"images":["https://xcimg.szwego.com/20201121/i1605970910_3054_0.jpg","https://xcimg.szwego.com/20201121/i1605970910_2704_1.jpg","https://xcimg.szwego.com/20201121/i1605970910_3352_2.jpg","https://xcimg.szwego.com/20201121/i1605963281_8271_0.jpg","https://xcimg.szwego.com/20201121/i1605963281_6389_1.jpg","https://xcimg.szwego.com/20201121/i1605963281_7481_2.jpg","https://xcimg.szwego.com/20201121/i1605963281_6652_3.jpg","https://xcimg.szwego.com/20201121/i1605963281_8040_4.jpg","https://xcimg.szwego.com/20201121/i1605963281_2348_5.jpg"],"created_at":"2025-02-08T12:44:26.477Z"},{"id":"item-c73084cd90b4","sku":"_d8w8w_XLeVwms4pyFDznHkiQqqjzFOu9vN367xQ","name_en":"Prada Women Bags","name_cn":"正🌟品🌟图","specs":{"source":"wsxcme","sourceId":"_d8w8w_XLeVwms4pyFDznHkiQqqjzFOu9vN367xQ","sourceTagId":47002669,"sourceTagName":"普拉达/女包","rawTitle":"正🌟品🌟图"},"price":null,"currency":"CNY","moq":1,"category":"prada-women-bags","status":"active","alibaba_url":null,"images":["https://xcimg.szwego.com/20230821/i1692602833_1006_0.jpg","https://xcimg.szwego.com/20230821/i1692602833_8236_1.jpg","https://xcimg.szwego.com/20230821/i1692602833_3470_2.jpg","https://xcimg.szwego.com/20230821/i1692602833_7960_3.jpg"],"created_at":"2026-06-29T11:07:24.407Z"},{"id":"item-b09c18a70464","sku":"_dnynytPl2wZVg-dVhgwWJ0IxY0iOsirqe1nxJBQ","name_en":"Prada Women Bags","name_cn":"迷你号太可爱啦🤗","specs":{"source":"wsxcme","sourceId":"_dnynytPl2wZVg-dVhgwWJ0IxY0iOsirqe1nxJBQ","sourceTagId":47002669,"sourceTagName":"普拉达/女包","rawTitle":"迷你号太可爱啦🤗"},"price":null,"currency":"CNY","moq":1,"category":"prada-women-bags","status":"active","alibaba_url":null,"images":["https://xcimg.szwego.com/img/4ebdbb7c/20250803/i1754229324_2729_5.jpg","https://xcimg.szwego.com/img/4ebdbb7c/20250803/i1754229324_4593_6.jpg","https://xcimg.szwego.com/img/4ebdbb7c/20250803/i1754229323_5261_2.jpg","https://xcimg.szwego.com/img/4ebdbb7c/20250803/i1754229323_5594_0.jpg","https://xcimg.szwego.com/img/4ebdbb7c/20250803/i1754229324_4531_8.jpg","https://xcimg.szwego.com/img/4ebdbb7c/20250803/i1754229323_9114_3.jpg","https://xcimg.szwego.com/img/4ebdbb7c/20250803/i1754229323_7848_1.jpg","https://xcimg.szwego.com/img/4ebdbb7c/20250803/i1754229324_9910_4.jpg","https://xcimg.szwego.com/img/4ebdbb7c/20250803/i1754229324_3936_7.jpg"],"created_at":"2026-06-29T11:07:24.497Z"}],"page":14,"pageSize":24,"total":383,"totalPages":16}
