{"items":[{"id":"item-865c5054907f","sku":"_djDjDHTknA7rK12lejiq9YaJfPlR980QVytMVIg","name_en":"Chanel Women Bags","name_cn":"全新到货❤️\n23K双C手柄口盖包❤️\n又是一款口盖新品。羊皮质地更显质地\n浅金扣色系列,更加高端大气。❤️\n手柄的双c设计,凸显气质派❤️\n尺寸:12×20×6cm\n款号:6689","specs":{"source":"wsxcme","sourceId":"_djDjDHTknA7rK12lejiq9YaJfPlR980QVytMVIg","sourceTagId":47002745,"sourceTagName":"香奈儿/女包","modelNumber":"6689","dimensions":{"lengthCm":12,"heightCm":20,"widthCm":6},"rawTitle":"全新到货❤️\n23K双C手柄口盖包❤️\n又是一款口盖新品。羊皮质地更显质地\n浅金扣色系列,更加高端大气。❤️\n手柄的双c设计,凸显气质派❤️\n尺寸:12×20×6cm\n款号:6689"},"price":null,"currency":"CNY","moq":1,"category":"chanel-women-bags","status":"active","alibaba_url":null,"images":["https://xcimg.szwego.com/img/c4600ee2/20240405/i1712298282_7542_6.jpg","https://xcimg.szwego.com/img/c4600ee2/20240405/i1712298282_3694_5.jpg","https://xcimg.szwego.com/img/c4600ee2/20240405/i1712298282_863_2.jpg","https://xcimg.szwego.com/img/c4600ee2/20240405/i1712298282_6424_3.jpg","https://xcimg.szwego.com/img/c4600ee2/20240405/i1712298282_4608_8.jpg","https://xcimg.szwego.com/img/c4600ee2/20240405/i1712298282_9681_7.jpg","https://xcimg.szwego.com/img/c4600ee2/20240405/i1712298282_7576_0.jpg","https://xcimg.szwego.com/img/c4600ee2/20240405/i1712298282_9565_4.jpg","https://xcimg.szwego.com/img/c4600ee2/20240405/i1712298282_109_1.jpg"],"created_at":"2024-08-04T12:55:15.627Z"},{"id":"item-857a0fd2e8d2","sku":"_dwFwFk5AsbXKxzNRtS2B1k7_-2DNL06yaNN8o6Q","name_en":"Chanel Women Bags","name_cn":"。白金版▪️正品级 包装如图\n全新到货🆕Chane1 24s春夏\n双珍珠大Mini 淡紫色\n专柜售价50500rmb购入开发\n\n✨24s最闪耀的双珍珠口盖包\n链条两大汤圆是好运的降临呀💕\n滑链伸缩调节适合各种身高更方便了\n日常出街时髦感拉满,好美好气质啊\n\n五金:厚镀24k复古金\n皮料:   开料部真品小羊皮\n里皮:Montebello真品牛皮\n尺寸:13*20.5*6.5 cm","specs":{"source":"wsxcme","sourceId":"_dwFwFk5AsbXKxzNRtS2B1k7_-2DNL06yaNN8o6Q","sourceTagId":47002745,"sourceTagName":"香奈儿/女包","dimensions":{"lengthCm":13,"heightCm":20.5,"widthCm":6.5},"rawTitle":"。白金版▪️正品级 包装如图\n全新到货🆕Chane1 24s春夏\n双珍珠大Mini 淡紫色\n专柜售价50500rmb购入开发\n\n✨24s最闪耀的双珍珠口盖包\n链条两大汤圆是好运的降临呀💕\n滑链伸缩调节适合各种身高更方便了\n日常出街时髦感拉满,好美好气质啊\n\n五金:厚镀24k复古金\n皮料:   开料部真品小羊皮\n里皮:Montebello真品牛皮\n尺寸:13*20.5*6.5 cm"},"price":null,"currency":"CNY","moq":1,"category":"chanel-women-bags","status":"active","alibaba_url":null,"images":["https://xcimg.szwego.com/20240430/i1714461016_3512_0.jpg","https://xcimg.szwego.com/20240430/i1714461016_231_1.jpg","https://xcimg.szwego.com/20240430/i1714461016_6524_2.jpg","https://xcimg.szwego.com/20240430/i1714461016_8211_3.jpg","https://xcimg.szwego.com/20240430/i1714461016_2528_4.jpg","https://xcimg.szwego.com/20240430/i1714461016_8394_5.jpg","https://xcimg.szwego.com/20240430/i1714461016_6737_6.jpg","https://xcimg.szwego.com/20240430/i1714461016_9183_7.jpg","https://xcimg.szwego.com/20240430/i1714461016_2519_8.jpg"],"created_at":"2024-05-03T07:19:26.867Z"},{"id":"item-84e47eaac92e","sku":"_dyLyLLm6dw8D8eb4VeFQbVhr7FA7UymfQ2vmdkw","name_en":"Chanel Women Bags","name_cn":"白金版▪️正品级 包装如图\n全新到货🆕Chane1 25B秋冬\n铆钉邮差双肩包黑色\n专柜售价48500rmb购入开发~\n\n火热上线🔥铆钉双肩包\n当菱格纹的温柔撞上铆钉的硬朗,\n黑金配色里突然有了冲突的美感~\n内饰多隔层设计,卡槽、拉链零钱袋\n暗插袋应有尽有,实用性超标啊🪄\n\n五金:厚镀24k复古亮金\n皮料:Gaiera\"方框标\"小羊皮\n尺寸:18*23*6cm\n5704","specs":{"source":"wsxcme","sourceId":"_dyLyLLm6dw8D8eb4VeFQbVhr7FA7UymfQ2vmdkw","sourceTagId":47002745,"sourceTagName":"香奈儿/女包","dimensions":{"lengthCm":18,"heightCm":23,"widthCm":6},"rawTitle":"白金版▪️正品级 包装如图\n全新到货🆕Chane1 25B秋冬\n铆钉邮差双肩包黑色\n专柜售价48500rmb购入开发~\n\n火热上线🔥铆钉双肩包\n当菱格纹的温柔撞上铆钉的硬朗,\n黑金配色里突然有了冲突的美感~\n内饰多隔层设计,卡槽、拉链零钱袋\n暗插袋应有尽有,实用性超标啊🪄\n\n五金:厚镀24k复古亮金\n皮料:Gaiera\"方框标\"小羊皮\n尺寸:18*23*6cm\n5704"},"price":null,"currency":"CNY","moq":1,"category":"chanel-women-bags","status":"active","alibaba_url":null,"images":["https://xcimg.szwego.com/imgHD/9d8f4332/20250824/cmp_i1756028476290_5616_0_0.jpg","https://xcimg.szwego.com/imgHD/9d8f4332/20250824/cmp_i1756028473703_7328_0_1.jpg","https://xcimg.szwego.com/imgHD/9d8f4332/20250824/cmp_i1756028473703_1279_0_2.jpg","https://xcimg.szwego.com/imgHD/9d8f4332/20250824/cmp_i1756028476289_4100_0_3.jpg","https://xcimg.szwego.com/imgHD/9d8f4332/20250824/cmp_i1756028473703_4823_0_4.jpg","https://xcimg.szwego.com/imgHD/9d8f4332/20250824/cmp_i1756028476284_3319_0_5.jpg","https://xcimg.szwego.com/imgHD/9d8f4332/20250824/cmp_i1756028473703_2225_0_6.jpg","https://xcimg.szwego.com/imgHD/9d8f4332/20250824/cmp_i1756028473703_6988_0_7.jpg","https://xcimg.szwego.com/imgHD/9d8f4332/20250824/cmp_i1756028476288_2159_0_8.jpg"],"created_at":"2025-09-19T04:32:40.074Z"},{"id":"item-84818bad66c6","sku":"_djGjGJz038L7mFZ-b3KKT7nllaPhlv5VNY1fzmA","name_en":"Chanel Women Bags","name_cn":"白金版▪️正品级 包装如图\nChane1 23c早春系列🌿\n珐琅黑白格球 Mini方胖子黑色 \n专柜售rmb 购入开发~\n\n23c早春足球棋盘方胖子⚽️\n这款mini 真的爱了❕适合运动风格\n可调节珐琅金属球不仅做工一贯精美\n而且赋予了包包很多的背法〰️\n可️斜背 单肩 手拎 腋下包 看起来小,\n容量用起来蛮大的❕\n这季设计理念就是F1胜利的旗帜,\n感觉瞬间比经典款年轻时髦多了。\n黑色很百搭 一年四季可搭配 可盐可甜 谁背谁好看〰️\n\n五金:全钢14k淡金扣/珐琅黑白格\n皮料:独家开料部zp小羊皮\n尺寸: 18*13 *7 cm","specs":{"source":"wsxcme","sourceId":"_djGjGJz038L7mFZ-b3KKT7nllaPhlv5VNY1fzmA","sourceTagId":47002745,"sourceTagName":"香奈儿/女包","dimensions":{"lengthCm":18,"heightCm":13,"widthCm":7},"rawTitle":"白金版▪️正品级 包装如图\nChane1 23c早春系列🌿\n珐琅黑白格球 Mini方胖子黑色 \n专柜售rmb 购入开发~\n\n23c早春足球棋盘方胖子⚽️\n这款mini 真的爱了❕适合运动风格\n可调节珐琅金属球不仅做工一贯精美\n而且赋予了包包很多的背法〰️\n可️斜背 单肩 手拎 腋下包 看起来小,\n容量用起来蛮大的❕\n这季设计理念就是F1胜利的旗帜,\n感觉瞬间比经典款年轻时髦多了。\n黑色很百搭 一年四季可搭配 可盐可甜 谁背谁好看〰️\n\n五金:全钢14k淡金扣/珐琅黑白格\n皮料:独家开料部zp小羊皮\n尺寸: 18*13 *7 cm"},"price":null,"currency":"CNY","moq":1,"category":"chanel-women-bags","status":"active","alibaba_url":null,"images":["https://xcimg.szwego.com/20230316/i1678944001_9712_0.jpg","https://xcimg.szwego.com/20230316/i1678944001_8251_1.jpg","https://xcimg.szwego.com/20230316/i1678944001_3758_2.jpg","https://xcimg.szwego.com/20230316/i1678944001_3507_3.jpg","https://xcimg.szwego.com/20230316/i1678944001_7218_4.jpg","https://xcimg.szwego.com/20230316/i1678944001_7840_5.jpg","https://xcimg.szwego.com/20230316/i1678944001_8808_6.jpg","https://xcimg.szwego.com/20230316/i1678944001_2164_7.jpg","https://xcimg.szwego.com/20230316/i1678944001_1832_8.jpg"],"created_at":"2024-05-01T03:19:54.358Z"},{"id":"item-82992ae72574","sku":"_d-O-Ohj0RlBK_otDtNHmWRVwSWwWodJOkcVDKBw","name_en":"Chanel Women Bags","name_cn":"香奈儿/女包","specs":{"source":"wsxcme","sourceId":"_d-O-Ohj0RlBK_otDtNHmWRVwSWwWodJOkcVDKBw","sourceTagId":47002745,"sourceTagName":"香奈儿/女包","rawTitle":""},"price":null,"currency":"CNY","moq":1,"category":"chanel-women-bags","status":"active","alibaba_url":null,"images":["https://xcimg.szwego.com/img/d0c94e6f/20250902/i1756823936_2245_0.jpg"],"created_at":"2025-09-19T04:25:53.916Z"},{"id":"item-820dd4a5a69c","sku":"_d0303JWJmwu64cbPWoBU1qfj2QV84bFvmLHsUdg","name_en":"Chanel Women Bags","name_cn":"白金版▪️正品级 包装如图\nChane1 23S春夏系列\n山茶花调节扣大mini 浅蓝\n专柜售价41300rmb购入开发〰️\n\n23s山茶花调节扣链条口盖包\n具备cf的元素造型有着性感迷人的气质。\n设计方面更加优雅大方啦❕\n可️腋下、斜挎、单肩一包多用,很受欢迎哦👏🏻\n\n五金:全铜24K复古金\n皮料:   开料部zp小羊皮\n尺寸:13*20*7 cm","specs":{"source":"wsxcme","sourceId":"_d0303JWJmwu64cbPWoBU1qfj2QV84bFvmLHsUdg","sourceTagId":47002745,"sourceTagName":"香奈儿/女包","dimensions":{"lengthCm":13,"heightCm":20,"widthCm":7},"rawTitle":"白金版▪️正品级 包装如图\nChane1 23S春夏系列\n山茶花调节扣大mini 浅蓝\n专柜售价41300rmb购入开发〰️\n\n23s山茶花调节扣链条口盖包\n具备cf的元素造型有着性感迷人的气质。\n设计方面更加优雅大方啦❕\n可️腋下、斜挎、单肩一包多用,很受欢迎哦👏🏻\n\n五金:全铜24K复古金\n皮料:   开料部zp小羊皮\n尺寸:13*20*7 cm"},"price":null,"currency":"CNY","moq":1,"category":"chanel-women-bags","status":"active","alibaba_url":null,"images":["https://xcimg.szwego.com/20230529/i1685340551_9267_0.jpg","https://xcimg.szwego.com/20230529/i1685340551_5280_1.jpg","https://xcimg.szwego.com/20230529/i1685340551_3557_2.jpg","https://xcimg.szwego.com/20230529/i1685340551_8154_3.jpg","https://xcimg.szwego.com/20230529/i1685340551_5833_4.jpg","https://xcimg.szwego.com/20230529/i1685340551_5478_5.jpg","https://xcimg.szwego.com/20230529/i1685340551_8906_6.jpg","https://xcimg.szwego.com/20230529/i1685340551_5682_7.jpg","https://xcimg.szwego.com/20230529/i1685340551_7587_8.jpg"],"created_at":"2024-05-01T03:19:54.377Z"},{"id":"item-809b2522871d","sku":"_dp3p3n7HwrKc9q7VD5ZQbdl-Oo_HLxx3dZjED_g","name_en":"Chanel Women Bags","name_cn":"香奈儿/女包","specs":{"source":"wsxcme","sourceId":"_dp3p3n7HwrKc9q7VD5ZQbdl-Oo_HLxx3dZjED_g","sourceTagId":47002745,"sourceTagName":"香奈儿/女包","rawTitle":""},"price":null,"currency":"CNY","moq":1,"category":"chanel-women-bags","status":"active","alibaba_url":null,"images":["https://xcimg.szwego.com/img/d0c94e6f/20250911/i1757599357_9362_0.jpg"],"created_at":"2025-09-19T04:32:40.140Z"},{"id":"item-7f7dda74e69b","sku":"_dq8q8y7weTCjZBk28Plz0o_32bfbBFJ73pOAIOg","name_en":"Chanel Women Bags","name_cn":"白金版▪️正品级 包装如图\n现货发售🌱皮穿链手柄kelly手机包\nChanel 23P|白色♥zp级 中号\n\n这颗绝对是黑马\n第一眼看到就深深爱上💕\n颜值不必说 直接闭眼入不会错\n很好打理 也是百搭型\n实现了单背斜挎腋下背手拎的效果📷\n简直就是福音〰️\n很精致 值得珍藏🔝\n\n五金:全钢18K浅金\n皮料:独家Haas小牛皮\n尺寸:14.5*11.5*5.5 cm","specs":{"source":"wsxcme","sourceId":"_dq8q8y7weTCjZBk28Plz0o_32bfbBFJ73pOAIOg","sourceTagId":47002745,"sourceTagName":"香奈儿/女包","dimensions":{"lengthCm":14.5,"heightCm":11.5,"widthCm":5.5},"rawTitle":"白金版▪️正品级 包装如图\n现货发售🌱皮穿链手柄kelly手机包\nChanel 23P|白色♥zp级 中号\n\n这颗绝对是黑马\n第一眼看到就深深爱上💕\n颜值不必说 直接闭眼入不会错\n很好打理 也是百搭型\n实现了单背斜挎腋下背手拎的效果📷\n简直就是福音〰️\n很精致 值得珍藏🔝\n\n五金:全钢18K浅金\n皮料:独家Haas小牛皮\n尺寸:14.5*11.5*5.5 cm"},"price":null,"currency":"CNY","moq":1,"category":"chanel-women-bags","status":"active","alibaba_url":null,"images":["https://xcimg.szwego.com/20230309/i1678339800_2343_0.jpg","https://xcimg.szwego.com/20230309/i1678339800_2866_1.jpg","https://xcimg.szwego.com/20230309/i1678339800_6621_2.jpg","https://xcimg.szwego.com/20230309/i1678339800_2430_3.jpg","https://xcimg.szwego.com/20230309/i1678339800_3701_4.jpg","https://xcimg.szwego.com/20230309/i1678339800_2637_5.jpg","https://xcimg.szwego.com/20230309/i1678339800_574_6.jpg","https://xcimg.szwego.com/20230309/i1678339800_7653_7.jpg","https://xcimg.szwego.com/20230309/i1678339800_8573_8.jpg"],"created_at":"2024-05-01T03:19:54.356Z"},{"id":"item-7cdf2b71ac94","sku":"_d7_7_1P1iJ5qZZhQL8qw858R-yZXBtPoucb_DoA","name_en":"Chanel Women Bags","name_cn":"香奈儿/女包","specs":{"source":"wsxcme","sourceId":"_d7_7_1P1iJ5qZZhQL8qw858R-yZXBtPoucb_DoA","sourceTagId":47002745,"sourceTagName":"香奈儿/女包","rawTitle":""},"price":null,"currency":"CNY","moq":1,"category":"chanel-women-bags","status":"active","alibaba_url":null,"images":["https://xcimg.szwego.com/img/d0c94e6f/20250811/i1754844037_511_0.jpg"],"created_at":"2025-09-19T04:32:40.077Z"},{"id":"item-7ba0a7b198fa","sku":"_dbhbh0T5xyey39eLcbYkusLJTW074118JH7KNug","name_en":"Chanel Women Bags","name_cn":"香奈儿/女包","specs":{"source":"wsxcme","sourceId":"_dbhbh0T5xyey39eLcbYkusLJTW074118JH7KNug","sourceTagId":47002745,"sourceTagName":"香奈儿/女包","rawTitle":""},"price":null,"currency":"CNY","moq":1,"category":"chanel-women-bags","status":"active","alibaba_url":null,"images":["https://xcimg.szwego.com/img/d0c94e6f/20250823/i1755879341_2128_0.jpg"],"created_at":"2025-09-19T04:32:40.084Z"},{"id":"item-7abacf4db89b","sku":"_dmHmH1Dpw_n8UGBJMC7srao5Lkmtwv2-fY32NdQ","name_en":"Chanel Women Bags","name_cn":"香奈儿/女包","specs":{"source":"wsxcme","sourceId":"_dmHmH1Dpw_n8UGBJMC7srao5Lkmtwv2-fY32NdQ","sourceTagId":47002745,"sourceTagName":"香奈儿/女包","rawTitle":""},"price":null,"currency":"CNY","moq":1,"category":"chanel-women-bags","status":"active","alibaba_url":null,"images":["https://xcimg.szwego.com/img/d0c94e6f/20250823/i1755959657_91_0.jpg"],"created_at":"2025-09-19T04:32:40.113Z"},{"id":"item-796aa7659f4c","sku":"_dbRbR9txCSIvshEig_wuaNXcfCqPeaUt7-7gdkA","name_en":"Chanel Women Bags","name_cn":"原厂皮\n🌟新版本更新⭐️CHANEL 24C双金球盒子\n香奈儿这季新品双金球我真的可\n一眼就爱上了这个包包、经典黑金,两颗金珠,\n链条可调节长短 Sa有货赶紧冲这个包包我更喜欢手拎斜挎和单肩也可容量也可调节 。                                款号:66063  黑色                                           尺寸:17cm                                      \n配包装:","specs":{"source":"wsxcme","sourceId":"_dbRbR9txCSIvshEig_wuaNXcfCqPeaUt7-7gdkA","sourceTagId":47002745,"sourceTagName":"香奈儿/女包","modelNumber":"66063  黑色                                           尺寸:17cm","rawTitle":"原厂皮\n🌟新版本更新⭐️CHANEL 24C双金球盒子\n香奈儿这季新品双金球我真的可\n一眼就爱上了这个包包、经典黑金,两颗金珠,\n链条可调节长短 Sa有货赶紧冲这个包包我更喜欢手拎斜挎和单肩也可容量也可调节 。                                款号:66063  黑色                                           尺寸:17cm                                      \n配包装:"},"price":null,"currency":"CNY","moq":1,"category":"chanel-women-bags","status":"active","alibaba_url":null,"images":["https://xcimg.szwego.com/img/fbe1a617/20250603/i1748961082528_2264_0_0.jpg","https://xcimg.szwego.com/img/fbe1a617/20250603/i1748961080951_9883_0_1.jpg","https://xcimg.szwego.com/img/fbe1a617/20250603/i1748961081011_3667_0_2.jpg","https://xcimg.szwego.com/img/fbe1a617/20250603/i1748961081002_4234_0_3.jpg","https://xcimg.szwego.com/img/fbe1a617/20250603/i1748961082263_2203_0_4.jpg","https://xcimg.szwego.com/img/fbe1a617/20250603/i1748961082494_6564_0_5.jpg","https://xcimg.szwego.com/img/fbe1a617/20250603/i1748961080851_7606_0_6.jpg","https://xcimg.szwego.com/img/fbe1a617/20250603/i1748961080783_8845_0_7.jpg","https://xcimg.szwego.com/img/fbe1a617/20250603/i1748961082406_5101_0_8.jpg"],"created_at":"2025-09-09T05:20:40.195Z"},{"id":"item-78f64be93177","sku":"_derergPTRqh3Y8tjeSzThn9JF2354rCcIb8DAtw","name_en":"Chanel Women Bags","name_cn":"白金版▪️正品级 包装如图\nChane1 23S春夏系列\n火爆Mini 22Bag♥黑金\n独家意大利渠道皮,真品原材料❕\n专柜售价40600rmb(目前市场溢价极高)\n\n这款包还没等上市就已经火爆全网。\n出彩的设计直接封神!\n\n容量很美好,优雅时髦的造型超乎想象🖤\n\n五金:全铜24K复古金\n皮料:开料部zp亮面小牛皮\n尺寸:19*20*6 cm","specs":{"source":"wsxcme","sourceId":"_derergPTRqh3Y8tjeSzThn9JF2354rCcIb8DAtw","sourceTagId":47002745,"sourceTagName":"香奈儿/女包","dimensions":{"lengthCm":19,"heightCm":20,"widthCm":6},"rawTitle":"白金版▪️正品级 包装如图\nChane1 23S春夏系列\n火爆Mini 22Bag♥黑金\n独家意大利渠道皮,真品原材料❕\n专柜售价40600rmb(目前市场溢价极高)\n\n这款包还没等上市就已经火爆全网。\n出彩的设计直接封神!\n\n容量很美好,优雅时髦的造型超乎想象🖤\n\n五金:全铜24K复古金\n皮料:开料部zp亮面小牛皮\n尺寸:19*20*6 cm"},"price":null,"currency":"CNY","moq":1,"category":"chanel-women-bags","status":"active","alibaba_url":null,"images":["https://xcimg.szwego.com/20230407/i1680846717_7441_0.jpg","https://xcimg.szwego.com/20230407/i1680846717_1894_1.jpg","https://xcimg.szwego.com/20230407/i1680846717_6702_2.jpg","https://xcimg.szwego.com/20230407/i1680846717_7141_3.jpg","https://xcimg.szwego.com/20230407/i1680846717_9650_4.jpg","https://xcimg.szwego.com/20230407/i1680846717_6607_5.jpg","https://xcimg.szwego.com/20230407/i1680846717_7333_6.jpg","https://xcimg.szwego.com/20230407/i1680846717_2344_7.jpg","https://xcimg.szwego.com/20230407/i1680846717_11_8.jpg"],"created_at":"2024-05-01T03:19:54.364Z"},{"id":"item-77f0270c5245","sku":"_deOeOugjrP-2OojVUsdM5_J34wqXeizolwn9B8w","name_en":"Chanel Women Bags","name_cn":"白金版▪️正品级 包装如图\n全新升级版到货!!️\nChanel 19bag  中号\n最新推出19包 黑色\n专柜售价51800rmb购入开发❕\n\n19黑色回归经典杰作🌱\n低调暗带满满的高级复古感\n黑色回归 容量特别美好直击我心♥\n成为当季最经典的潮范儿〰️\n\n三种背法:单肩、斜挎、手提\n链条拼接:砂银、古金、浅金\n中号Size:20*30*10cm","specs":{"source":"wsxcme","sourceId":"_deOeOugjrP-2OojVUsdM5_J34wqXeizolwn9B8w","sourceTagId":47002745,"sourceTagName":"香奈儿/女包","rawTitle":"白金版▪️正品级 包装如图\n全新升级版到货!!️\nChanel 19bag  中号\n最新推出19包 黑色\n专柜售价51800rmb购入开发❕\n\n19黑色回归经典杰作🌱\n低调暗带满满的高级复古感\n黑色回归 容量特别美好直击我心♥\n成为当季最经典的潮范儿〰️\n\n三种背法:单肩、斜挎、手提\n链条拼接:砂银、古金、浅金\n中号Size:20*30*10cm"},"price":null,"currency":"CNY","moq":1,"category":"chanel-women-bags","status":"active","alibaba_url":null,"images":["https://xcimg.szwego.com/20230316/i1678945617_879_0.jpg","https://xcimg.szwego.com/20230316/i1678945617_9280_1.jpg","https://xcimg.szwego.com/20230316/i1678945617_8625_2.jpg","https://xcimg.szwego.com/20230316/i1678945617_4008_3.jpg","https://xcimg.szwego.com/20230316/i1678945617_1087_4.jpg","https://xcimg.szwego.com/20230316/i1678945617_377_5.jpg","https://xcimg.szwego.com/20230316/i1678945617_3418_6.jpg","https://xcimg.szwego.com/20230316/i1678945617_946_7.jpg","https://xcimg.szwego.com/20230316/i1678945617_9297_8.jpg"],"created_at":"2024-05-01T03:19:54.385Z"},{"id":"item-7512d4ca264e","sku":"_dLvLvPaXv4lfpdS9eYM4-EMaHtV0ReifBuj7DEA","name_en":"Chanel Women Bags","name_cn":"香奈儿/女包","specs":{"source":"wsxcme","sourceId":"_dLvLvPaXv4lfpdS9eYM4-EMaHtV0ReifBuj7DEA","sourceTagId":47002745,"sourceTagName":"香奈儿/女包","rawTitle":""},"price":null,"currency":"CNY","moq":1,"category":"chanel-women-bags","status":"active","alibaba_url":null,"images":["https://xcimg.szwego.com/img/d0c94e6f/20250813/i1755087171_9648_0.jpg"],"created_at":"2025-09-19T04:32:40.103Z"},{"id":"item-7393b30e2233","sku":"_du6u6sNjEu2kzZqXK-6A0XnJ_nlYE7dBKUMUyWA","name_en":"Chanel Women Bags","name_cn":"正品级,高版本\n这款微型Toujours竖版手袋是二零二五秋季成衣系列新品,时尚实用。采用杏色牛皮革精心制作,饰以超大藤格纹缉面线,宽敞的内部隔层可收纳各种日常用品。设有纤细皮革系带开合,可安全收纳各种物品,另有浅金色饰面金属CD Lock字母 D旋钮式扣环,可调节两侧,提升格调。顶部皮革手柄搭配可拆卸的皮革肩带,可手提、肩背或斜挎。\n\n型号2834\n尺寸13×15×12cm","specs":{"source":"wsxcme","sourceId":"_du6u6sNjEu2kzZqXK-6A0XnJ_nlYE7dBKUMUyWA","sourceTagId":47002745,"sourceTagName":"香奈儿/女包","modelNumber":"2834","dimensions":{"lengthCm":13,"heightCm":15,"widthCm":12},"rawTitle":"正品级,高版本\n这款微型Toujours竖版手袋是二零二五秋季成衣系列新品,时尚实用。采用杏色牛皮革精心制作,饰以超大藤格纹缉面线,宽敞的内部隔层可收纳各种日常用品。设有纤细皮革系带开合,可安全收纳各种物品,另有浅金色饰面金属CD Lock字母 D旋钮式扣环,可调节两侧,提升格调。顶部皮革手柄搭配可拆卸的皮革肩带,可手提、肩背或斜挎。\n\n型号2834\n尺寸13×15×12cm"},"price":null,"currency":"CNY","moq":1,"category":"chanel-women-bags","status":"active","alibaba_url":null,"images":["https://xcimg.szwego.com/img/ec683d96/20250420/i1745081041_2412_5.jpg","https://xcimg.szwego.com/img/ec683d96/20250420/i1745081040_4229_0.jpg","https://xcimg.szwego.com/img/ec683d96/20250420/i1745081041_3907_4.jpg","https://xcimg.szwego.com/img/ec683d96/20250420/i1745081041_6250_6.jpg","https://xcimg.szwego.com/img/ec683d96/20250420/i1745081041_6081_3.jpg","https://xcimg.szwego.com/img/ec683d96/20250420/i1745081040_4555_1.jpg","https://xcimg.szwego.com/img/ec683d96/20250420/i1745081041_9778_7.jpg","https://xcimg.szwego.com/img/ec683d96/20250420/i1745081041_8321_8.jpg","https://xcimg.szwego.com/img/ec683d96/20250420/i1745081040_2473_2.jpg"],"created_at":"2025-09-09T05:24:53.930Z"},{"id":"item-7258c53cbc42","sku":"_dtmtm_bkA77DqtFKRvFoS7pVY2S9Yz7LRQ6fyqg","name_en":"Chanel Women Bags","name_cn":"春夏爱心系列[愉快]\n爱心款真的超级好看,专柜就算是vip也很难买到[流泪]都要溢价大几千!实物真的惊呆了,无论怎么搭配都很时尚,本季最热最火系列,一定要买👜 \n款号AS3191\n尺寸18x16.5x6.5cm\n配包装","specs":{"source":"wsxcme","sourceId":"_dtmtm_bkA77DqtFKRvFoS7pVY2S9Yz7LRQ6fyqg","sourceTagId":47002745,"sourceTagName":"香奈儿/女包","modelNumber":"AS3191","dimensions":{"lengthCm":18,"heightCm":16.5,"widthCm":6.5},"rawTitle":"春夏爱心系列[愉快]\n爱心款真的超级好看,专柜就算是vip也很难买到[流泪]都要溢价大几千!实物真的惊呆了,无论怎么搭配都很时尚,本季最热最火系列,一定要买👜 \n款号AS3191\n尺寸18x16.5x6.5cm\n配包装"},"price":null,"currency":"CNY","moq":1,"category":"chanel-women-bags","status":"active","alibaba_url":null,"images":["https://xcimg.szwego.com/img/ecb71349/20241215/i1734243820_147_6.jpg","https://xcimg.szwego.com/img/ecb71349/20241215/i1734243820_3399_5.jpg","https://xcimg.szwego.com/img/ecb71349/20241215/i1734243820_2452_4.jpg","https://xcimg.szwego.com/img/ecb71349/20241215/i1734243820_1269_3.jpg","https://xcimg.szwego.com/img/ecb71349/20241215/i1734243820_1412_8.jpg","https://xcimg.szwego.com/img/ecb71349/20241215/i1734243820_1257_0.jpg","https://xcimg.szwego.com/img/ecb71349/20241215/i1734243820_147_1.jpg","https://xcimg.szwego.com/img/ecb71349/20241215/i1734243820_8187_2.jpg","https://xcimg.szwego.com/img/ecb71349/20241215/i1734243820_8279_7.jpg"],"created_at":"2025-01-20T12:26:10.968Z"},{"id":"item-71ed81340f5c","sku":"_dxvxvfdz4XLjbGFh1uFndojrwaJ8kBjBnwKHtcw","name_en":"Chanel Women Bags","name_cn":"香奈儿/女包","specs":{"source":"wsxcme","sourceId":"_dxvxvfdz4XLjbGFh1uFndojrwaJ8kBjBnwKHtcw","sourceTagId":47002745,"sourceTagName":"香奈儿/女包","rawTitle":""},"price":null,"currency":"CNY","moq":1,"category":"chanel-women-bags","status":"active","alibaba_url":null,"images":["https://xcimg.szwego.com/img/fbe1a617/20250515/i1747305116128_5734_0_0.jpg"],"created_at":"2026-06-29T10:35:34.114Z"},{"id":"item-718b780d815c","sku":"_dl8l8kppRhYnh2-hHC1bm7u-Sv5TQGMEXtSobyQ","name_en":"Chanel Women Bags","name_cn":"白金版▪️正品级 包装如图\n新品发售!!️chanel 19bag 系列\n  24C 早春半月腋下包\n最新推出〰️经典19系列\n低调暗带满满的高级复古感\n新款腋下包特别好看直击我心♥\n成为当季最经典的潮范儿〰️\n\n\n链条拼接:砂银、古金、浅金\nSize:23cm\n4638","specs":{"source":"wsxcme","sourceId":"_dl8l8kppRhYnh2-hHC1bm7u-Sv5TQGMEXtSobyQ","sourceTagId":47002745,"sourceTagName":"香奈儿/女包","rawTitle":"白金版▪️正品级 包装如图\n新品发售!!️chanel 19bag 系列\n  24C 早春半月腋下包\n最新推出〰️经典19系列\n低调暗带满满的高级复古感\n新款腋下包特别好看直击我心♥\n成为当季最经典的潮范儿〰️\n\n\n链条拼接:砂银、古金、浅金\nSize:23cm\n4638"},"price":null,"currency":"CNY","moq":1,"category":"chanel-women-bags","status":"active","alibaba_url":null,"images":["https://xcimg.szwego.com/20231115/i1700027674_9464_0.jpg","https://xcimg.szwego.com/20231115/i1700027674_5611_1.jpg","https://xcimg.szwego.com/20231115/i1700027674_6908_2.jpg","https://xcimg.szwego.com/20231115/i1700027674_176_3.jpg","https://xcimg.szwego.com/20231115/i1700027674_4632_4.jpg","https://xcimg.szwego.com/20231115/i1700027674_4114_5.jpg","https://xcimg.szwego.com/20231115/i1700027674_4001_6.jpg","https://xcimg.szwego.com/20231115/i1700027674_8283_7.jpg","https://xcimg.szwego.com/20231115/i1700027674_3613_8.jpg"],"created_at":"2024-05-01T03:19:54.391Z"},{"id":"item-718731aa5220","sku":"_dOhOh7IJB3pSIiRrBP80L92MnQX0iybtN6lYhhA","name_en":"Chanel Women Bags","name_cn":"🆕22手袋 黑配金\n\n 原厂方框一级小牛皮👍皮质细腻有光泽,\n既柔软又耐磨,两者兼具\n简简单单的外观却藏着不少设计师的高级设计,镂空的chanel logo的金币,小小的点缀让整体气质提高了不止一个Level,满满的复古情怀,松松垮垮的慵懒感! 🍃\n\n尺寸:39*42*8cm","specs":{"source":"wsxcme","sourceId":"_dOhOh7IJB3pSIiRrBP80L92MnQX0iybtN6lYhhA","sourceTagId":47002745,"sourceTagName":"香奈儿/女包","dimensions":{"lengthCm":39,"heightCm":42,"widthCm":8},"rawTitle":"🆕22手袋 黑配金\n\n 原厂方框一级小牛皮👍皮质细腻有光泽,\n既柔软又耐磨,两者兼具\n简简单单的外观却藏着不少设计师的高级设计,镂空的chanel logo的金币,小小的点缀让整体气质提高了不止一个Level,满满的复古情怀,松松垮垮的慵懒感! 🍃\n\n尺寸:39*42*8cm"},"price":null,"currency":"CNY","moq":1,"category":"chanel-women-bags","status":"active","alibaba_url":null,"images":["https://xcimg.szwego.com/20230626/i1687788338_9499_0.jpg","https://xcimg.szwego.com/20230626/i1687788338_5609_1.jpg","https://xcimg.szwego.com/20230626/i1687788338_5505_2.jpg","https://xcimg.szwego.com/20230626/i1687788338_7333_3.jpg","https://xcimg.szwego.com/img/1ea81fa8/20250107/i1736231120920_7633_0_4.jpg","https://xcimg.szwego.com/img/1ea81fa8/20250107/i1736231120920_7741_0_5.jpg","https://xcimg.szwego.com/img/1ea81fa8/20250107/i1736231120920_6810_0_6.jpg","https://xcimg.szwego.com/img/1ea81fa8/20250107/i1736231120920_6179_0_7.jpg","https://xcimg.szwego.com/img/1ea81fa8/20250107/i1736231120920_8820_0_8.jpg"],"created_at":"2025-01-20T12:26:10.904Z"},{"id":"item-708060a175c2","sku":"_dr2r2bcSpbj6GL1S8iQLUcAzaf9tfyec7_oQHNg","name_en":"Chanel Women Bags","name_cn":"原厂皮\n🌟新版本更新⭐️CHANEL 24C双金球盒子\n香奈儿这季新品双金球我真的可\n一眼就爱上了这个包包、经典黑金,两颗金珠,\n链条可调节长短 Sa有货赶紧冲这个包包我更喜欢手拎斜挎和单肩也可容量也可调节 。                                款号:66039                                                       尺寸:19cm。","specs":{"source":"wsxcme","sourceId":"_dr2r2bcSpbj6GL1S8iQLUcAzaf9tfyec7_oQHNg","sourceTagId":47002745,"sourceTagName":"香奈儿/女包","modelNumber":"66039                                                       尺寸:19cm","rawTitle":"原厂皮\n🌟新版本更新⭐️CHANEL 24C双金球盒子\n香奈儿这季新品双金球我真的可\n一眼就爱上了这个包包、经典黑金,两颗金珠,\n链条可调节长短 Sa有货赶紧冲这个包包我更喜欢手拎斜挎和单肩也可容量也可调节 。                                款号:66039                                                       尺寸:19cm。"},"price":null,"currency":"CNY","moq":1,"category":"chanel-women-bags","status":"active","alibaba_url":null,"images":["https://xcimg.szwego.com/img/fbe1a617/20250408/i1744126589883_444_0_0.jpg","https://xcimg.szwego.com/img/fbe1a617/20250408/i1744126587226_2890_0_1.jpg","https://xcimg.szwego.com/img/fbe1a617/20250408/i1744126589638_8850_0_2.jpg","https://xcimg.szwego.com/img/fbe1a617/20250408/i1744126589786_1979_0_3.jpg","https://xcimg.szwego.com/img/fbe1a617/20250408/i1744126587459_4539_0_4.jpg","https://xcimg.szwego.com/img/fbe1a617/20250408/i1744126587338_3620_0_5.jpg","https://xcimg.szwego.com/img/fbe1a617/20250408/i1744126587391_590_0_6.jpg","https://xcimg.szwego.com/img/fbe1a617/20250408/i1744126587543_9165_0_7.jpg","https://xcimg.szwego.com/img/fbe1a617/20250408/i1744126589832_3779_0_8.jpg"],"created_at":"2025-09-09T05:20:40.193Z"},{"id":"item-6ef5952484fd","sku":"_dmvmveELrPhgFvtH2ECXmqAMF-Bhy4JFmP34wPA","name_en":"Chanel Women Bags","name_cn":"正品级,高版本\n这款 Dior Toujours 竖版手袋时尚实用,别具一格。采用黑色牛皮革精心制作,饰以超大藤格纹缉面线,宽敞的内部隔层可收纳各种日常用品。设有纤细皮革系带开合,可安全收纳各种物品,另有 CD Lock 字母 D 旋钮式扣环,可调节两侧,提升格调。中号款式,顶部皮革手柄搭配可拆卸的皮革肩带,可手提、肩背或斜挎。\n主体:牛皮革\n里料:牛皮革\n双开合设计:纤细系带和 Christian Dior Paris 系带搭配 CD Lock 扣环\nD.I.O.R. 吊饰\n内部插袋可放置卡片\n顶部皮革手柄\n可拆卸皮革肩带\n尺寸:23 x 24 x 16CM\n型号:M2836","specs":{"source":"wsxcme","sourceId":"_dmvmveELrPhgFvtH2ECXmqAMF-Bhy4JFmP34wPA","sourceTagId":47002745,"sourceTagName":"香奈儿/女包","modelNumber":"M2836","dimensions":{"lengthCm":23,"heightCm":24,"widthCm":16},"rawTitle":"正品级,高版本\n这款 Dior Toujours 竖版手袋时尚实用,别具一格。采用黑色牛皮革精心制作,饰以超大藤格纹缉面线,宽敞的内部隔层可收纳各种日常用品。设有纤细皮革系带开合,可安全收纳各种物品,另有 CD Lock 字母 D 旋钮式扣环,可调节两侧,提升格调。中号款式,顶部皮革手柄搭配可拆卸的皮革肩带,可手提、肩背或斜挎。\n主体:牛皮革\n里料:牛皮革\n双开合设计:纤细系带和 Christian Dior Paris 系带搭配 CD Lock 扣环\nD.I.O.R. 吊饰\n内部插袋可放置卡片\n顶部皮革手柄\n可拆卸皮革肩带\n尺寸:23 x 24 x 16CM\n型号:M2836"},"price":null,"currency":"CNY","moq":1,"category":"chanel-women-bags","status":"active","alibaba_url":null,"images":["https://xcimg.szwego.com/img/ec683d96/20250408/i1744103064_8429_4.jpg","https://xcimg.szwego.com/img/ec683d96/20250408/i1744103064_8117_6.jpg","https://xcimg.szwego.com/img/ec683d96/20250408/i1744103063_4686_0.jpg","https://xcimg.szwego.com/img/ec683d96/20250408/i1744103064_9287_5.jpg","https://xcimg.szwego.com/img/ec683d96/20250408/i1744103064_4415_8.jpg","https://xcimg.szwego.com/img/ec683d96/20250408/i1744103064_3976_2.jpg","https://xcimg.szwego.com/img/ec683d96/20250408/i1744103064_9441_3.jpg","https://xcimg.szwego.com/img/ec683d96/20250408/i1744103064_7168_1.jpg","https://xcimg.szwego.com/img/ec683d96/20250408/i1744103064_1021_7.jpg"],"created_at":"2025-09-09T05:24:53.926Z"},{"id":"item-6e710ceff801","sku":"_d898987fuWTBfuTHpQpIjLhe8y9sCBtjDdrz6tA","name_en":"Chanel Women Bags","name_cn":"。白金版▪️正品级 包装如图\n全新到货!!️Chane1 24S春夏\nNano 31Bag 奶茶杏\n专柜售价26900rmb购入开发〰️\n\nChane1“包王”全新31 Nano Size\n时尚代表作mini 31Bag重卷来袭✨\n满足了时髦精的在所期待〰️\n推出新SizeNano柔软乖巧设计感很迷人💡\n软萌的酷飒风一下子就击中了🖤\n\n五金:厚镀14K淡金\n皮料:   原厂Bonaudo油蜡羊皮\n尺寸:20*17.5*3.5 cm","specs":{"source":"wsxcme","sourceId":"_d898987fuWTBfuTHpQpIjLhe8y9sCBtjDdrz6tA","sourceTagId":47002745,"sourceTagName":"香奈儿/女包","dimensions":{"lengthCm":20,"heightCm":17.5,"widthCm":3.5},"rawTitle":"。白金版▪️正品级 包装如图\n全新到货!!️Chane1 24S春夏\nNano 31Bag 奶茶杏\n专柜售价26900rmb购入开发〰️\n\nChane1“包王”全新31 Nano Size\n时尚代表作mini 31Bag重卷来袭✨\n满足了时髦精的在所期待〰️\n推出新SizeNano柔软乖巧设计感很迷人💡\n软萌的酷飒风一下子就击中了🖤\n\n五金:厚镀14K淡金\n皮料:   原厂Bonaudo油蜡羊皮\n尺寸:20*17.5*3.5 cm"},"price":null,"currency":"CNY","moq":1,"category":"chanel-women-bags","status":"active","alibaba_url":null,"images":["https://xcimg.szwego.com/20240430/i1714462321_1494_0.jpg","https://xcimg.szwego.com/20240430/i1714462321_9031_1.jpg","https://xcimg.szwego.com/20240430/i1714462321_4195_2.jpg","https://xcimg.szwego.com/20240430/i1714462321_6906_3.jpg","https://xcimg.szwego.com/20240430/i1714462321_793_4.jpg","https://xcimg.szwego.com/20240430/i1714462321_4339_5.jpg","https://xcimg.szwego.com/20240430/i1714462321_4190_6.jpg","https://xcimg.szwego.com/20240430/i1714462321_14_7.jpg","https://xcimg.szwego.com/20240430/i1714462321_1753_8.jpg"],"created_at":"2024-05-03T07:19:26.873Z"},{"id":"item-6d5f0d5c49dc","sku":"_du0u0jXwyxfaOOVAKUWKClqLtPmoLlV6RkJ6JcA","name_en":"Chanel Women Bags","name_cn":"白金版▪️正品级 包装如图\n全新发售!!️CF系列\n专柜售价58600mb购入开发➠\n\nClassic Flap Small小号 白色\n每年行情都在涨📈\n专柜可遇不可求 一直很难买到\n羊皮质感柔柔糯糯很nice〰️\n这次到达的都是开料部渠道zp皮\n伙伴们大可️闭眼入啦🪄\n好品质值得珍藏,一包背到老都不过时➿\n\n皮料:独家Gaiera zp小羊皮\n里皮:开料部zp内里羊皮\n辅料:意大利进口海绵、托料\n五金:全钢24K金扣\n尺寸:14.5*23*6cm","specs":{"source":"wsxcme","sourceId":"_du0u0jXwyxfaOOVAKUWKClqLtPmoLlV6RkJ6JcA","sourceTagId":47002745,"sourceTagName":"香奈儿/女包","dimensions":{"lengthCm":14.5,"heightCm":23,"widthCm":6},"rawTitle":"白金版▪️正品级 包装如图\n全新发售!!️CF系列\n专柜售价58600mb购入开发➠\n\nClassic Flap Small小号 白色\n每年行情都在涨📈\n专柜可遇不可求 一直很难买到\n羊皮质感柔柔糯糯很nice〰️\n这次到达的都是开料部渠道zp皮\n伙伴们大可️闭眼入啦🪄\n好品质值得珍藏,一包背到老都不过时➿\n\n皮料:独家Gaiera zp小羊皮\n里皮:开料部zp内里羊皮\n辅料:意大利进口海绵、托料\n五金:全钢24K金扣\n尺寸:14.5*23*6cm"},"price":null,"currency":"CNY","moq":1,"category":"chanel-women-bags","status":"active","alibaba_url":null,"images":["https://xcimg.szwego.com/20230412/i1681276226_7744_0.jpg","https://xcimg.szwego.com/20230412/i1681276226_3087_1.jpg","https://xcimg.szwego.com/20230412/i1681276226_4636_2.jpg","https://xcimg.szwego.com/20230412/i1681276226_2649_3.jpg","https://xcimg.szwego.com/20230412/i1681276226_8465_4.jpg","https://xcimg.szwego.com/20230412/i1681276226_2064_5.jpg","https://xcimg.szwego.com/20230412/i1681276226_2715_6.jpg","https://xcimg.szwego.com/20230412/i1681276226_9050_7.jpg","https://xcimg.szwego.com/20230412/i1681276226_5560_8.jpg"],"created_at":"2024-05-01T03:19:54.369Z"}],"page":39,"pageSize":24,"total":1102,"totalPages":46}
