{"items":[{"id":"item-6d5c12d1afe2","sku":"_dljljhAiJnDVl4AXj0VF5yX25tqERrlyo9MEW5Q","name_en":"Chanel Women Bags","name_cn":"正品级\n🇫🇷AS5293CHANEL 25款又一个以年份命名的款, 25c球纹皮嘻哈包 香奈儿hobo 腋下包 嬉皮腋下包小号 复古金币纽扣抽绳水桶包+菱格纹+复古黑金 经典链条设计,高级感十足!日常出行必备,外观精美,质感细腻,无论休闲装还是正式场合都能轻松驾驭 尺寸:30x26x14cm","specs":{"source":"wsxcme","sourceId":"_dljljhAiJnDVl4AXj0VF5yX25tqERrlyo9MEW5Q","sourceTagId":47002745,"sourceTagName":"香奈儿/女包","dimensions":{"lengthCm":30,"heightCm":26,"widthCm":14},"rawTitle":"正品级\n🇫🇷AS5293CHANEL 25款又一个以年份命名的款, 25c球纹皮嘻哈包 香奈儿hobo 腋下包 嬉皮腋下包小号 复古金币纽扣抽绳水桶包+菱格纹+复古黑金 经典链条设计,高级感十足!日常出行必备,外观精美,质感细腻,无论休闲装还是正式场合都能轻松驾驭 尺寸:30x26x14cm"},"price":null,"currency":"CNY","moq":1,"category":"chanel-women-bags","status":"active","alibaba_url":null,"images":["https://xcimg.szwego.com/imgHD/b5cc9469/20250402/cmp_a1743591814300_5665.jpg","https://xcimg.szwego.com/imgHD/b5cc9469/20250402/cmp_a1743591814302_6203.jpg","https://xcimg.szwego.com/imgHD/b5cc9469/20250402/cmp_a1743591814299_6705.jpg","https://xcimg.szwego.com/imgHD/b5cc9469/20250402/cmp_a1743591814306_7358.jpg","https://xcimg.szwego.com/imgHD/b5cc9469/20250402/cmp_a1743591814309_2347.jpg","https://xcimg.szwego.com/imgHD/b5cc9469/20250402/cmp_a1743591819389_7552.jpg","https://xcimg.szwego.com/imgHD/b5cc9469/20250402/cmp_a1743591819387_4155.jpg","https://xcimg.szwego.com/imgHD/b5cc9469/20250402/cmp_a1743591819391_7046.jpg","https://xcimg.szwego.com/imgHD/b5cc9469/20250402/cmp_a1743591819392_2805.jpg"],"created_at":"2025-09-09T05:17:44.445Z"},{"id":"item-6be945c97c7f","sku":"_dJLJL78SJYOF4qsAGEHS8fTjQV4ZTawlVTkRiGA","name_en":"Chanel Women Bags","name_cn":"白金版▪️正品级 包装如图\n全新版本🔥金球woc\n再次回归🛫现货发售ꫛꫀꪝ\nwallet on chain黑色\n可调节肩带长度✔️设计感十足\n简直美到爆炸🔜实用与美貌并存〰️\n细腻的zp小羊皮 爱不释手❥❥\n\n皮料:意大利GR小羊皮\n五金:全铜24k厚镀五金\n尺寸:12.3*19.2*3.5cm","specs":{"source":"wsxcme","sourceId":"_dJLJL78SJYOF4qsAGEHS8fTjQV4ZTawlVTkRiGA","sourceTagId":47002745,"sourceTagName":"香奈儿/女包","dimensions":{"lengthCm":12.3,"heightCm":19.2,"widthCm":3.5},"rawTitle":"白金版▪️正品级 包装如图\n全新版本🔥金球woc\n再次回归🛫现货发售ꫛꫀꪝ\nwallet on chain黑色\n可调节肩带长度✔️设计感十足\n简直美到爆炸🔜实用与美貌并存〰️\n细腻的zp小羊皮 爱不释手❥❥\n\n皮料:意大利GR小羊皮\n五金:全铜24k厚镀五金\n尺寸:12.3*19.2*3.5cm"},"price":null,"currency":"CNY","moq":1,"category":"chanel-women-bags","status":"active","alibaba_url":null,"images":["https://xcimg.szwego.com/20230519/i1684474574_8650_0.jpg","https://xcimg.szwego.com/20230519/i1684474574_4102_1.jpg","https://xcimg.szwego.com/20230519/i1684474574_2729_2.jpg","https://xcimg.szwego.com/20230519/i1684474574_7051_3.jpg","https://xcimg.szwego.com/20230519/i1684474574_7569_4.jpg","https://xcimg.szwego.com/20230519/i1684474574_5717_5.jpg","https://xcimg.szwego.com/20230519/i1684474574_7155_6.jpg","https://xcimg.szwego.com/20230519/i1684474574_9425_7.jpg","https://xcimg.szwego.com/20230519/i1684474574_5019_8.jpg"],"created_at":"2024-05-01T03:19:54.383Z"},{"id":"item-6b75ff4a6e6e","sku":"_dqbqb_ca0HZi2WFzKbixpL2DcSJSWc4wLXfSO-w","name_en":"Chanel Women Bags","name_cn":"现货24春夏新款 中号 小号\n牛仔以随性休闲著称,换上银色五金配色,焕然一新,瞬间年轻感爆棚,冲刺着青春与活力的气息,有春夏季节的清爽感...将简约舒适融为一体,为你打包整个春日🍃 尺寸:","specs":{"source":"wsxcme","sourceId":"_dqbqb_ca0HZi2WFzKbixpL2DcSJSWc4wLXfSO-w","sourceTagId":47002745,"sourceTagName":"香奈儿/女包","rawTitle":"现货24春夏新款 中号 小号\n牛仔以随性休闲著称,换上银色五金配色,焕然一新,瞬间年轻感爆棚,冲刺着青春与活力的气息,有春夏季节的清爽感...将简约舒适融为一体,为你打包整个春日🍃 尺寸:"},"price":null,"currency":"CNY","moq":1,"category":"chanel-women-bags","status":"active","alibaba_url":null,"images":["https://xcimg.szwego.com/20240308/i1709881939_4745_0.jpg","https://xcimg.szwego.com/20240308/i1709881939_3150_1.jpg","https://xcimg.szwego.com/20240308/i1709881939_6636_2.jpg","https://xcimg.szwego.com/20240308/i1709881939_9110_3.jpg","https://xcimg.szwego.com/20240308/i1709881939_2696_4.jpg","https://xcimg.szwego.com/20240308/i1709881939_8162_5.jpg","https://xcimg.szwego.com/20240308/i1709881939_3835_6.jpg","https://xcimg.szwego.com/20240308/i1709881939_9118_7.jpg","https://xcimg.szwego.com/20240308/i1709881939_6939_8.jpg"],"created_at":"2024-05-03T07:22:12.496Z"},{"id":"item-6b541953fa07","sku":"_dd0d030L6Jb0xdwUS5y0QUsyE8P1_1GLB5n0UlA","name_en":"Chanel Women Bags","name_cn":"【原厂回货】\nChanel 23P 最美相机包\n全球抢爆相机炸药包\n原厂小牛皮,手感超好\n\n正品 购入\n非常有个性的一款包,斜挎超级帅[色] 整体的包型比老款更精致了,多色扣设计 更加特别高级\n\n型号:AS2923\n尺寸:20.5x14.5x9cm","specs":{"source":"wsxcme","sourceId":"_dd0d030L6Jb0xdwUS5y0QUsyE8P1_1GLB5n0UlA","sourceTagId":47002745,"sourceTagName":"香奈儿/女包","modelNumber":"AS2923","dimensions":{"lengthCm":20.5,"heightCm":14.5,"widthCm":9},"rawTitle":"【原厂回货】\nChanel 23P 最美相机包\n全球抢爆相机炸药包\n原厂小牛皮,手感超好\n\n正品 购入\n非常有个性的一款包,斜挎超级帅[色] 整体的包型比老款更精致了,多色扣设计 更加特别高级\n\n型号:AS2923\n尺寸:20.5x14.5x9cm"},"price":null,"currency":"CNY","moq":1,"category":"chanel-women-bags","status":"active","alibaba_url":null,"images":["https://xcimg.szwego.com/img/b885826e/20241002/i1727854162_5689_7.jpg","https://xcimg.szwego.com/img/b885826e/20241002/i1727854162_7885_5.jpg","https://xcimg.szwego.com/img/b885826e/20241002/i1727854162_2171_6.jpg","https://xcimg.szwego.com/img/b885826e/20241002/i1727854162_9971_1.jpg","https://xcimg.szwego.com/img/b885826e/20241002/i1727854162_3457_0.jpg","https://xcimg.szwego.com/img/b885826e/20241002/i1727854162_2403_3.jpg","https://xcimg.szwego.com/img/b885826e/20241002/i1727854162_9926_2.jpg","https://xcimg.szwego.com/img/b885826e/20241002/i1727854162_8438_4.jpg","https://xcimg.szwego.com/img/b885826e/20241002/i1727854162_3417_8.jpg"],"created_at":"2024-11-26T11:47:21.485Z"},{"id":"item-6a9d3fac0b23","sku":"_dxKxKbFERMOQps1rTzTpc3FtWa6aiKEPS3PSS8w","name_en":"Chanel Women Bags","name_cn":"香奈儿/女包","specs":{"source":"wsxcme","sourceId":"_dxKxKbFERMOQps1rTzTpc3FtWa6aiKEPS3PSS8w","sourceTagId":47002745,"sourceTagName":"香奈儿/女包","rawTitle":""},"price":null,"currency":"CNY","moq":1,"category":"chanel-women-bags","status":"active","alibaba_url":null,"images":["https://xcimg.szwego.com/img/d0c94e6f/20250827/i1756302914_2810_0.jpg"],"created_at":"2025-09-19T04:32:40.082Z"},{"id":"item-684b99158236","sku":"_djIjIeSfrcPqvRDn0EfZE0dxWrcVJx821qMh5qA","name_en":"Chanel Women Bags","name_cn":"白金版▪️正品级 包装如图\nChane1 23S春夏系列\n火爆Mini 22Bag♥黑银\n独家意大利渠道皮,真品原材料❕\n专柜售价40600rmb(目前市场溢价极高)\n\n这款包还没等上市就已经火爆全网。\n出彩的设计直接封神!\n\n容量很美好,优雅时髦的造型超乎想象🖤\n\n五金:全铜24K复古金\n皮料:开料部zp亮面小牛皮\n尺寸:19*20*6 cm","specs":{"source":"wsxcme","sourceId":"_djIjIeSfrcPqvRDn0EfZE0dxWrcVJx821qMh5qA","sourceTagId":47002745,"sourceTagName":"香奈儿/女包","dimensions":{"lengthCm":19,"heightCm":20,"widthCm":6},"rawTitle":"白金版▪️正品级 包装如图\nChane1 23S春夏系列\n火爆Mini 22Bag♥黑银\n独家意大利渠道皮,真品原材料❕\n专柜售价40600rmb(目前市场溢价极高)\n\n这款包还没等上市就已经火爆全网。\n出彩的设计直接封神!\n\n容量很美好,优雅时髦的造型超乎想象🖤\n\n五金:全铜24K复古金\n皮料:开料部zp亮面小牛皮\n尺寸:19*20*6 cm"},"price":null,"currency":"CNY","moq":1,"category":"chanel-women-bags","status":"active","alibaba_url":null,"images":["https://xcimg.szwego.com/20230407/i1680846460_7740_0.jpg","https://xcimg.szwego.com/20230407/i1680846460_8650_1.jpg","https://xcimg.szwego.com/20230407/i1680846460_4571_2.jpg","https://xcimg.szwego.com/20230407/i1680846460_3853_3.jpg","https://xcimg.szwego.com/20230407/i1680846460_9500_4.jpg","https://xcimg.szwego.com/20230407/i1680846460_6324_5.jpg","https://xcimg.szwego.com/20230407/i1680846460_6237_6.jpg","https://xcimg.szwego.com/20230407/i1680846460_7470_7.jpg","https://xcimg.szwego.com/20230407/i1680846460_3244_8.jpg"],"created_at":"2024-05-01T03:19:54.363Z"},{"id":"item-673b5484f6ed","sku":"_dv3v3aDa-OtggtDbZQB7KT41VR_Csz-GO5V-a0w","name_en":"Chanel Women Bags","name_cn":"香奈儿/女包","specs":{"source":"wsxcme","sourceId":"_dv3v3aDa-OtggtDbZQB7KT41VR_Csz-GO5V-a0w","sourceTagId":47002745,"sourceTagName":"香奈儿/女包","rawTitle":""},"price":null,"currency":"CNY","moq":1,"category":"chanel-women-bags","status":"active","alibaba_url":null,"images":["https://xcimg.szwego.com/img/d0c94e6f/20250910/i1757504650_8482_0.jpg"],"created_at":"2025-09-19T04:32:40.129Z"},{"id":"item-66e3bcb06903","sku":"_dYTYTFd1ibHIX1Cs2K-4WQou439ccBUMmsUMCcA","name_en":"Chanel Women Bags","name_cn":"22手袋 粉银\n\n 原厂方框一级小牛皮👍皮质细腻有光泽,\n既柔软又耐磨,两者兼具\n简简单单的外观却藏着不少设计师的高级设计,镂空的chanel logo的金币,小小的点缀让整体气质提高了不止一个Level,满满的复古情怀,松松垮垮的慵懒感! 🍃\n\n尺寸:35*37*7cm","specs":{"source":"wsxcme","sourceId":"_dYTYTFd1ibHIX1Cs2K-4WQou439ccBUMmsUMCcA","sourceTagId":47002745,"sourceTagName":"香奈儿/女包","dimensions":{"lengthCm":35,"heightCm":37,"widthCm":7},"rawTitle":"22手袋 粉银\n\n 原厂方框一级小牛皮👍皮质细腻有光泽,\n既柔软又耐磨,两者兼具\n简简单单的外观却藏着不少设计师的高级设计,镂空的chanel logo的金币,小小的点缀让整体气质提高了不止一个Level,满满的复古情怀,松松垮垮的慵懒感! 🍃\n\n尺寸:35*37*7cm"},"price":null,"currency":"CNY","moq":1,"category":"chanel-women-bags","status":"active","alibaba_url":null,"images":["https://xcimg.szwego.com/img/e8531d32/20240226/i1708932022_7760_0.jpg","https://xcimg.szwego.com/img/e8531d32/20240226/i1708932022_7920_2.jpg","https://xcimg.szwego.com/img/e8531d32/20240226/i1708932022_8962_1.jpg","https://xcimg.szwego.com/img/e8531d32/20240226/i1708932022_7924_3.jpg"],"created_at":"2024-05-01T03:19:54.445Z"},{"id":"item-66b7fc4e5c7e","sku":"_dtitiEx7gokA7rhYMppzVRfm7lZ5hCXJIuBEFgQ","name_en":"Chanel Women Bags","name_cn":"香奈儿/女包","specs":{"source":"wsxcme","sourceId":"_dtitiEx7gokA7rhYMppzVRfm7lZ5hCXJIuBEFgQ","sourceTagId":47002745,"sourceTagName":"香奈儿/女包","rawTitle":""},"price":null,"currency":"CNY","moq":1,"category":"chanel-women-bags","status":"active","alibaba_url":null,"images":["https://xcimg.szwego.com/img/d0c94e6f/20250823/i1755959850_776_0.jpg"],"created_at":"2025-09-19T04:32:40.107Z"},{"id":"item-6518303507d5","sku":"_doBoBBeJhND9JrJl3_pShQbfAdHj8XO0W3X3vpg","name_en":"Chanel Women Bags","name_cn":"正品级,高版本\nDIOR ❤️TOUJOURS手袋〔黑色大号〕\n这款 Dior Toujours 手袋于二零二三春夏系列发布秀精彩亮相,休闲实用的设计别具一格。采用黑色牛皮革精心制作,饰以超大藤格纹缉面线,宽敞的内部隔层搭配小袋,可整齐收纳各种日常用品。设有皮革系带开合,可安全收纳各种物品,另有 CD Lock 字母 D 旋钮式开合,可调节两侧,提升格调。大号款式,皮革手柄带有可调节细节,可手提或肩背。\nCD Lock 和系带开合\nD.I.O.R. 吊饰\n可拆卸内部小袋\n可调节皮革手柄\n内含防尘袋\n\n型号:2823\n尺寸:37 x 20 x 28.5 厘米\n手柄长度:14 - 29 厘米。","specs":{"source":"wsxcme","sourceId":"_doBoBBeJhND9JrJl3_pShQbfAdHj8XO0W3X3vpg","sourceTagId":47002745,"sourceTagName":"香奈儿/女包","modelNumber":"2823","dimensions":{"lengthCm":37,"heightCm":20,"widthCm":28.5},"rawTitle":"正品级,高版本\nDIOR ❤️TOUJOURS手袋〔黑色大号〕\n这款 Dior Toujours 手袋于二零二三春夏系列发布秀精彩亮相,休闲实用的设计别具一格。采用黑色牛皮革精心制作,饰以超大藤格纹缉面线,宽敞的内部隔层搭配小袋,可整齐收纳各种日常用品。设有皮革系带开合,可安全收纳各种物品,另有 CD Lock 字母 D 旋钮式开合,可调节两侧,提升格调。大号款式,皮革手柄带有可调节细节,可手提或肩背。\nCD Lock 和系带开合\nD.I.O.R. 吊饰\n可拆卸内部小袋\n可调节皮革手柄\n内含防尘袋\n\n型号:2823\n尺寸:37 x 20 x 28.5 厘米\n手柄长度:14 - 29 厘米。"},"price":null,"currency":"CNY","moq":1,"category":"chanel-women-bags","status":"active","alibaba_url":null,"images":["https://xcimg.szwego.com/img/ec683d96/20231207/i1701937994_9343_6.jpg","https://xcimg.szwego.com/img/ec683d96/20231207/i1701937994_4391_3.jpg","https://xcimg.szwego.com/img/ec683d96/20231207/i1701937994_6_7.jpg","https://xcimg.szwego.com/img/ec683d96/20231207/i1701937994_7103_8.jpg","https://xcimg.szwego.com/img/ec683d96/20231207/i1701937994_4821_5.jpg","https://xcimg.szwego.com/img/ec683d96/20231207/i1701937994_7823_4.jpg","https://xcimg.szwego.com/img/ec683d96/20231207/i1701937993_9798_0.jpg","https://xcimg.szwego.com/img/ec683d96/20231207/i1701937994_5229_2.jpg","https://xcimg.szwego.com/img/ec683d96/20231207/i1701937993_7683_1.jpg"],"created_at":"2025-09-09T05:24:53.927Z"},{"id":"item-64dc6b20a585","sku":"_dqlqlUtpLETN00PktB-19QaxGmdUg7ceMd0RCGg","name_en":"Chanel Women Bags","name_cn":"白金版▪️正品级 包装如图\nChane1 25B新品现货 双C扣口盖包\n双C调节扣 大mini 黑色\n专柜售价47500rmb购入开发〰️\n\n最新推出#双C链条口盖包大mini💙\n具备CF元素造型有着性感迷人的气质\n链条双C调节扣设计很精致很复古~\n绝对是重量级必入收藏款️啦✔️\n\n五金:厚镀24K复古亮金\n皮料:   抛光小羊皮\n尺寸:13*20*7 cm\n5759","specs":{"source":"wsxcme","sourceId":"_dqlqlUtpLETN00PktB-19QaxGmdUg7ceMd0RCGg","sourceTagId":47002745,"sourceTagName":"香奈儿/女包","dimensions":{"lengthCm":13,"heightCm":20,"widthCm":7},"rawTitle":"白金版▪️正品级 包装如图\nChane1 25B新品现货 双C扣口盖包\n双C调节扣 大mini 黑色\n专柜售价47500rmb购入开发〰️\n\n最新推出#双C链条口盖包大mini💙\n具备CF元素造型有着性感迷人的气质\n链条双C调节扣设计很精致很复古~\n绝对是重量级必入收藏款️啦✔️\n\n五金:厚镀24K复古亮金\n皮料:   抛光小羊皮\n尺寸:13*20*7 cm\n5759"},"price":null,"currency":"CNY","moq":1,"category":"chanel-women-bags","status":"active","alibaba_url":null,"images":["https://xcimg.szwego.com/imgHD/9d8f4332/20250824/cmp_i1756015439869_1993_0_0.jpg","https://xcimg.szwego.com/imgHD/9d8f4332/20250824/cmp_i1756015441871_2448_0_1.jpg","https://xcimg.szwego.com/imgHD/9d8f4332/20250824/cmp_i1756015441876_4086_0_2.jpg","https://xcimg.szwego.com/imgHD/9d8f4332/20250824/cmp_i1756015439866_9079_0_3.jpg","https://xcimg.szwego.com/imgHD/9d8f4332/20250824/cmp_i1756015441873_9407_0_4.jpg","https://xcimg.szwego.com/imgHD/9d8f4332/20250824/cmp_i1756015441876_4115_0_5.jpg","https://xcimg.szwego.com/imgHD/9d8f4332/20250824/cmp_i1756015439862_823_0_6.jpg","https://xcimg.szwego.com/imgHD/9d8f4332/20250824/cmp_i1756015439863_9773_0_7.jpg","https://xcimg.szwego.com/imgHD/9d8f4332/20250824/cmp_i1756015439867_4288_0_8.jpg"],"created_at":"2025-09-19T04:32:40.070Z"},{"id":"item-60a9de8eae52","sku":"_dtptpLefqz_AMREoF3b6O49Ggu4zR7kREFGqsCg","name_en":"Chanel Women Bags","name_cn":"香奈儿/女包","specs":{"source":"wsxcme","sourceId":"_dtptpLefqz_AMREoF3b6O49Ggu4zR7kREFGqsCg","sourceTagId":47002745,"sourceTagName":"香奈儿/女包","rawTitle":""},"price":null,"currency":"CNY","moq":1,"category":"chanel-women-bags","status":"active","alibaba_url":null,"images":["https://xcimg.szwego.com/img/d0c94e6f/20250823/i1755879951_7168_0.jpg"],"created_at":"2025-09-19T04:32:40.091Z"},{"id":"item-6054771fe407","sku":"_dyFyFCQVF7lf_85EFXy6--HuKehfNoqZmYcQyZA","name_en":"Chanel Women Bags","name_cn":"原厂皮\n25c牛皮 球纹\n香奈儿 chanel hobo 腋下包 嬉皮腋下包小号\n复古金币纽扣抽绳水桶包+菱格纹+复古黑金\n经典链条设计,高级感十足!日常出行必备,\n外观精美,质感细腻,\n无论休闲装还是正式场合都能轻松驾驭❤️\n编号:AS5293 球纹 粉色\n尺寸:30*26*14","specs":{"source":"wsxcme","sourceId":"_dyFyFCQVF7lf_85EFXy6--HuKehfNoqZmYcQyZA","sourceTagId":47002745,"sourceTagName":"香奈儿/女包","rawTitle":"原厂皮\n25c牛皮 球纹\n香奈儿 chanel hobo 腋下包 嬉皮腋下包小号\n复古金币纽扣抽绳水桶包+菱格纹+复古黑金\n经典链条设计,高级感十足!日常出行必备,\n外观精美,质感细腻,\n无论休闲装还是正式场合都能轻松驾驭❤️\n编号:AS5293 球纹 粉色\n尺寸:30*26*14"},"price":null,"currency":"CNY","moq":1,"category":"chanel-women-bags","status":"active","alibaba_url":null,"images":["https://xcimg.szwego.com/img/fbe1a617/20250603/i1748960576911_2788_0_0.jpg","https://xcimg.szwego.com/img/fbe1a617/20250603/i1748960576880_593_0_1.jpg","https://xcimg.szwego.com/img/fbe1a617/20250603/i1748960578409_7924_0_2.jpg","https://xcimg.szwego.com/img/fbe1a617/20250603/i1748960578696_4245_0_3.jpg","https://xcimg.szwego.com/img/fbe1a617/20250603/i1748960578941_8931_0_4.jpg","https://xcimg.szwego.com/img/fbe1a617/20250603/i1748960576714_7399_0_5.jpg","https://xcimg.szwego.com/img/fbe1a617/20250603/i1748960576915_627_0_6.jpg","https://xcimg.szwego.com/img/fbe1a617/20250603/i1748960576758_9714_0_7.jpg","https://xcimg.szwego.com/img/fbe1a617/20250603/i1748960578888_9194_0_8.jpg"],"created_at":"2025-09-09T05:17:44.455Z"},{"id":"item-6050880cebc4","sku":"_dDxDxm_t0no3dFaEjJKZyhTAtX1cmxfSpDxVFvQ","name_en":"Chanel Women Bags","name_cn":"白金版▪️正品级 包装如图\nChane1 25B新品现货 双C扣口盖包\n双C调节扣 mini baby蓝\n专柜售价45800rmb购入开发〰️\n\n最新推出#双C链条口盖包mini💙\n具备CF元素造型有着性感迷人的气质\n链条双C调节扣设计很精致很复古~\n绝对是重量级必入收藏款️啦✔️\n\n五金:厚镀24K复古亮金\n皮料:   抛光小羊皮\n尺寸:13*18*7 cm\n5758","specs":{"source":"wsxcme","sourceId":"_dDxDxm_t0no3dFaEjJKZyhTAtX1cmxfSpDxVFvQ","sourceTagId":47002745,"sourceTagName":"香奈儿/女包","dimensions":{"lengthCm":13,"heightCm":18,"widthCm":7},"rawTitle":"白金版▪️正品级 包装如图\nChane1 25B新品现货 双C扣口盖包\n双C调节扣 mini baby蓝\n专柜售价45800rmb购入开发〰️\n\n最新推出#双C链条口盖包mini💙\n具备CF元素造型有着性感迷人的气质\n链条双C调节扣设计很精致很复古~\n绝对是重量级必入收藏款️啦✔️\n\n五金:厚镀24K复古亮金\n皮料:   抛光小羊皮\n尺寸:13*18*7 cm\n5758"},"price":null,"currency":"CNY","moq":1,"category":"chanel-women-bags","status":"active","alibaba_url":null,"images":["https://xcimg.szwego.com/imgHD/9d8f4332/20250824/cmp_i1756016063594_3069_0_0.jpg","https://xcimg.szwego.com/imgHD/9d8f4332/20250824/cmp_i1756016063587_7311_0_1.jpg","https://xcimg.szwego.com/imgHD/9d8f4332/20250824/cmp_i1756016063573_6003_0_2.jpg","https://xcimg.szwego.com/imgHD/9d8f4332/20250824/cmp_i1756016062405_719_0_3.jpg","https://xcimg.szwego.com/imgHD/9d8f4332/20250824/cmp_i1756015969566_4297_0_4.jpg","https://xcimg.szwego.com/imgHD/9d8f4332/20250824/cmp_i1756015969566_235_0_5.jpg","https://xcimg.szwego.com/imgHD/9d8f4332/20250824/cmp_i1756015969566_1028_0_6.jpg","https://xcimg.szwego.com/imgHD/9d8f4332/20250824/cmp_i1756015971199_5166_0_7.jpg","https://xcimg.szwego.com/imgHD/9d8f4332/20250824/cmp_i1756016062403_6440_0_8.jpg"],"created_at":"2025-09-19T04:32:40.073Z"},{"id":"item-5edf461d2b1b","sku":"_df0f0Gbu0O5Gf108SZCcA682rzGenEKD5RzPluA","name_en":"Chanel Women Bags","name_cn":"3980","specs":{"source":"wsxcme","sourceId":"_df0f0Gbu0O5Gf108SZCcA682rzGenEKD5RzPluA","sourceTagId":47002745,"sourceTagName":"香奈儿/女包","rawTitle":"3980"},"price":null,"currency":"CNY","moq":1,"category":"chanel-women-bags","status":"active","alibaba_url":null,"images":["https://xcimg.szwego.com/20230816/i1692173309_9138_0.jpg","https://xcimg.szwego.com/20230816/i1692173309_9798_1.jpg","https://xcimg.szwego.com/20230816/i1692173309_7923_2.jpg","https://xcimg.szwego.com/20230816/i1692173309_6896_3.jpg","https://xcimg.szwego.com/20230816/i1692173309_9076_4.jpg","https://xcimg.szwego.com/20230816/i1692173309_3752_5.jpg","https://xcimg.szwego.com/20230816/i1692173309_9931_6.jpg","https://xcimg.szwego.com/20230816/i1692173309_6170_7.jpg","https://xcimg.szwego.com/20230816/i1692173309_7997_8.jpg"],"created_at":"2026-06-29T10:35:34.064Z"},{"id":"item-5d6eba79f6b1","sku":"_dIDIDXj17Xf7yTtKLtV1dNxqZlDuPY6Fl9SKsMw","name_en":"Chanel Women Bags","name_cn":"22手袋 \n新颜色小号黑金\n\n 原厂方框小牛皮👍皮质细腻有光泽,\n既柔软又耐磨,两者兼具\n简简单单的外观却藏着不少设计师的高级设计,镂空的chanel logo的金币,小小的点缀让整体气质提高了不止一个Level,满满的复古情怀,松松垮垮的慵懒感! 🍃\n\n尺寸:35*37*7cm","specs":{"source":"wsxcme","sourceId":"_dIDIDXj17Xf7yTtKLtV1dNxqZlDuPY6Fl9SKsMw","sourceTagId":47002745,"sourceTagName":"香奈儿/女包","dimensions":{"lengthCm":35,"heightCm":37,"widthCm":7},"rawTitle":"22手袋 \n新颜色小号黑金\n\n 原厂方框小牛皮👍皮质细腻有光泽,\n既柔软又耐磨,两者兼具\n简简单单的外观却藏着不少设计师的高级设计,镂空的chanel logo的金币,小小的点缀让整体气质提高了不止一个Level,满满的复古情怀,松松垮垮的慵懒感! 🍃\n\n尺寸:35*37*7cm"},"price":null,"currency":"CNY","moq":1,"category":"chanel-women-bags","status":"active","alibaba_url":null,"images":["https://xcimg.szwego.com/20230626/i1687788171_4975_0.jpg","https://xcimg.szwego.com/20230626/i1687788171_3160_1.jpg","https://xcimg.szwego.com/20230626/i1687788171_4920_2.jpg","https://xcimg.szwego.com/20230626/i1687788171_3287_3.jpg"],"created_at":"2024-05-01T03:19:54.443Z"},{"id":"item-5d365ac12bbe","sku":"_dkhkhYkh9CqpVgs5YplHryW5o38SZTF9UaAr_5A","name_en":"Chanel Women Bags","name_cn":"芯片▪️白金版 正品级 包装如图\n超级火爆🔥小足球woc\n23C全新现货发售!!️ \n专柜售价24700rmb〰️🧾\n\nwallet on chain \n可调节肩带长度✔️设计感十足\n简直美到爆炸🔜实用与美貌并存〰️\n细腻的小羊皮 爱不释手❥❥\n\n皮料:意大利zp小羊皮\n五金:全钢18k电镀五金\n尺寸:12.3*19.2*3.5cm","specs":{"source":"wsxcme","sourceId":"_dkhkhYkh9CqpVgs5YplHryW5o38SZTF9UaAr_5A","sourceTagId":47002745,"sourceTagName":"香奈儿/女包","dimensions":{"lengthCm":12.3,"heightCm":19.2,"widthCm":3.5},"rawTitle":"芯片▪️白金版 正品级 包装如图\n超级火爆🔥小足球woc\n23C全新现货发售!!️ \n专柜售价24700rmb〰️🧾\n\nwallet on chain \n可调节肩带长度✔️设计感十足\n简直美到爆炸🔜实用与美貌并存〰️\n细腻的小羊皮 爱不释手❥❥\n\n皮料:意大利zp小羊皮\n五金:全钢18k电镀五金\n尺寸:12.3*19.2*3.5cm"},"price":null,"currency":"CNY","moq":1,"category":"chanel-women-bags","status":"active","alibaba_url":null,"images":["https://xcimg.szwego.com/20221225/i1671948133_7528_0.jpg","https://xcimg.szwego.com/20221225/i1671948133_4949_1.jpg","https://xcimg.szwego.com/20221225/i1671948133_8093_2.jpg","https://xcimg.szwego.com/20221225/i1671948133_4830_3.jpg","https://xcimg.szwego.com/20221225/i1671948133_509_4.jpg","https://xcimg.szwego.com/20221225/i1671948133_2879_5.jpg","https://xcimg.szwego.com/20221225/i1671948133_2573_6.jpg","https://xcimg.szwego.com/20221225/i1671948133_274_7.jpg"],"created_at":"2024-05-01T03:19:54.388Z"},{"id":"item-5cd120dd2e5e","sku":"_dfpfpXu7AiDx4kbbwHzRtT1cciBeQQ0a9NIbmHA","name_en":"Chanel Women Bags","name_cn":"🆕22手袋 黑银\n\n 原厂方框一级小牛皮👍皮质细腻有光泽,\n既柔软又耐磨,两者兼具\n简简单单的外观却藏着不少设计师的高级设计,镂空的chane logo的金币,小小的点缀让整体气质提高了不止一个Level,满满的复古情怀,松松垮垮的慵懒感! 🍃\n\n尺寸:39*42*8cm","specs":{"source":"wsxcme","sourceId":"_dfpfpXu7AiDx4kbbwHzRtT1cciBeQQ0a9NIbmHA","sourceTagId":47002745,"sourceTagName":"香奈儿/女包","dimensions":{"lengthCm":39,"heightCm":42,"widthCm":8},"rawTitle":"🆕22手袋 黑银\n\n 原厂方框一级小牛皮👍皮质细腻有光泽,\n既柔软又耐磨,两者兼具\n简简单单的外观却藏着不少设计师的高级设计,镂空的chane logo的金币,小小的点缀让整体气质提高了不止一个Level,满满的复古情怀,松松垮垮的慵懒感! 🍃\n\n尺寸:39*42*8cm"},"price":null,"currency":"CNY","moq":1,"category":"chanel-women-bags","status":"active","alibaba_url":null,"images":["https://xcimg.szwego.com/20230626/i1687787764_972_0.jpg","https://xcimg.szwego.com/20230626/i1687787764_4630_3.jpg","https://xcimg.szwego.com/img/1ea81fa8/20250107/i1736231278284_3155_0_2.jpg","https://xcimg.szwego.com/img/1ea81fa8/20250107/i1736231278396_840_0_3.jpg","https://xcimg.szwego.com/img/1ea81fa8/20250107/i1736231278341_6647_0_4.jpg","https://xcimg.szwego.com/img/1ea81fa8/20250107/i1736231278451_1892_0_5.jpg","https://xcimg.szwego.com/img/1ea81fa8/20250107/i1736231278509_5337_0_6.jpg","https://xcimg.szwego.com/img/1ea81fa8/20250107/i1736231278228_8705_0_7.jpg"],"created_at":"2025-01-20T12:26:10.906Z"},{"id":"item-5b21823c0db5","sku":"_dfVfVuU3wDpD6dMKp1YxPm3HgxJk54iSi-ZOL2Q","name_en":"Chanel Women Bags","name_cn":"白金版▪️正品级 包装如图\nChane1 25P 全新升级版🍀\n双口袋青蛙🐸复古背包 白色 中号\n专柜售价49800rmb购入开发〰️\n\n一向都是重头戏的复古双肩包ꫛꫀꪝ\n23P这款让人翘首以待的荔枝纹小牛~\n颜值担当属于耐看型,复古程度更是一见倾心♥\n双口袋小书包荔枝牛皮 向来都是最受欢迎的材质。\n易打理更耐造,日常通勤收纳轻松装扮✔️\n\n五金:全钢14K淡金扣\n皮料:Haas中球小牛皮\n尺寸:20.5*20*11.5 CM\n3860","specs":{"source":"wsxcme","sourceId":"_dfVfVuU3wDpD6dMKp1YxPm3HgxJk54iSi-ZOL2Q","sourceTagId":47002745,"sourceTagName":"香奈儿/女包","dimensions":{"lengthCm":20.5,"heightCm":20,"widthCm":11.5},"rawTitle":"白金版▪️正品级 包装如图\nChane1 25P 全新升级版🍀\n双口袋青蛙🐸复古背包 白色 中号\n专柜售价49800rmb购入开发〰️\n\n一向都是重头戏的复古双肩包ꫛꫀꪝ\n23P这款让人翘首以待的荔枝纹小牛~\n颜值担当属于耐看型,复古程度更是一见倾心♥\n双口袋小书包荔枝牛皮 向来都是最受欢迎的材质。\n易打理更耐造,日常通勤收纳轻松装扮✔️\n\n五金:全钢14K淡金扣\n皮料:Haas中球小牛皮\n尺寸:20.5*20*11.5 CM\n3860"},"price":null,"currency":"CNY","moq":1,"category":"chanel-women-bags","status":"active","alibaba_url":null,"images":["https://xcimg.szwego.com/imgHD/9d8f4332/20250609/cmp_i1749449698386_7641_0_0.jpg","https://xcimg.szwego.com/imgHD/9d8f4332/20250609/cmp_i1749449697262_6143_0_1.jpg","https://xcimg.szwego.com/imgHD/9d8f4332/20250609/cmp_i1749449697262_6425_0_2.jpg","https://xcimg.szwego.com/imgHD/9d8f4332/20250609/cmp_i1749449698384_1749_0_3.jpg","https://xcimg.szwego.com/imgHD/9d8f4332/20250609/cmp_i1749449698384_4408_0_4.jpg","https://xcimg.szwego.com/imgHD/9d8f4332/20250609/cmp_i1749449698382_8267_0_5.jpg","https://xcimg.szwego.com/imgHD/9d8f4332/20250609/cmp_i1749449697258_8282_0_6.jpg","https://xcimg.szwego.com/imgHD/9d8f4332/20250609/cmp_i1749449697257_2663_0_7.jpg","https://xcimg.szwego.com/imgHD/9d8f4332/20250609/cmp_i1749449697260_7813_0_8.jpg"],"created_at":"2025-06-16T09:47:58.358Z"},{"id":"item-5a7a1191481d","sku":"_dG5G5Ip2yCk-o1B4XBFJ8TXO17czGckEfPHBJtQ","name_en":"Chanel Women Bags","name_cn":"白金版▪️正品级 包装如图\n新品到货🆕Chane1 23K秋冬🖤\nKelly链条手拿包 小号 黑色 \n专柜售价24000rmb购入开发〰️\n\n全网最热🔥23k秋冬kelly手拿包\n叱咤整个秀场,简直美绝了〰️\n简约又复古的小手提很灵魂很舒适。\n又乖又耐看,实在绝对爱不释手❕\n\n五金:厚镀24k复古金\n皮料:Velierq亮面小牛皮\n尺寸: 8.3*12.5*4 cm\n3435","specs":{"source":"wsxcme","sourceId":"_dG5G5Ip2yCk-o1B4XBFJ8TXO17czGckEfPHBJtQ","sourceTagId":47002745,"sourceTagName":"香奈儿/女包","dimensions":{"lengthCm":8.3,"heightCm":12.5,"widthCm":4},"rawTitle":"白金版▪️正品级 包装如图\n新品到货🆕Chane1 23K秋冬🖤\nKelly链条手拿包 小号 黑色 \n专柜售价24000rmb购入开发〰️\n\n全网最热🔥23k秋冬kelly手拿包\n叱咤整个秀场,简直美绝了〰️\n简约又复古的小手提很灵魂很舒适。\n又乖又耐看,实在绝对爱不释手❕\n\n五金:厚镀24k复古金\n皮料:Velierq亮面小牛皮\n尺寸: 8.3*12.5*4 cm\n3435"},"price":null,"currency":"CNY","moq":1,"category":"chanel-women-bags","status":"active","alibaba_url":null,"images":["https://xcimg.szwego.com/20231115/i1700028397_3601_0.jpg","https://xcimg.szwego.com/20231115/i1700028397_8974_1.jpg","https://xcimg.szwego.com/20231115/i1700028397_1358_2.jpg","https://xcimg.szwego.com/20231115/i1700028397_7519_3.jpg","https://xcimg.szwego.com/20231115/i1700028397_2917_4.jpg","https://xcimg.szwego.com/20231115/i1700028397_9073_5.jpg","https://xcimg.szwego.com/20231115/i1700028397_7379_6.jpg","https://xcimg.szwego.com/20231115/i1700028397_5917_7.jpg","https://xcimg.szwego.com/20231115/i1700028397_7076_8.jpg"],"created_at":"2024-05-01T03:19:54.392Z"},{"id":"item-59f1bb965c7c","sku":"_dTITIkv6RIvE1cANbIPw0a8wbD2bPeFgzTF8Kdw","name_en":"Chanel Women Bags","name_cn":"原厂皮\n暴款4号回货!25c牛皮 球纹\n香奈儿 chanel hobo 腋下包 嬉皮腋下包小号\n复古金币纽扣抽绳水桶包+菱格纹+复古黑金\n经典链条设计,高级感十足!日常出行必备,\n外观精美,质感细腻,\n无论休闲装还是正式场合都能轻松驾驭❤️\n编号:AS5293 球纹 黑色\n尺寸:30*26*14","specs":{"source":"wsxcme","sourceId":"_dTITIkv6RIvE1cANbIPw0a8wbD2bPeFgzTF8Kdw","sourceTagId":47002745,"sourceTagName":"香奈儿/女包","rawTitle":"原厂皮\n暴款4号回货!25c牛皮 球纹\n香奈儿 chanel hobo 腋下包 嬉皮腋下包小号\n复古金币纽扣抽绳水桶包+菱格纹+复古黑金\n经典链条设计,高级感十足!日常出行必备,\n外观精美,质感细腻,\n无论休闲装还是正式场合都能轻松驾驭❤️\n编号:AS5293 球纹 黑色\n尺寸:30*26*14"},"price":null,"currency":"CNY","moq":1,"category":"chanel-women-bags","status":"active","alibaba_url":null,"images":["https://xcimg.szwego.com/img/fbe1a617/20250422/i1745329866767_9889_0_0.jpg","https://xcimg.szwego.com/img/fbe1a617/20250422/i1745329866966_9171_0_1.jpg","https://xcimg.szwego.com/img/fbe1a617/20250422/i1745329865007_8580_0_2.jpg","https://xcimg.szwego.com/img/fbe1a617/20250422/i1745329866719_4170_0_3.jpg","https://xcimg.szwego.com/img/fbe1a617/20250422/i1745329865431_4084_0_4.jpg","https://xcimg.szwego.com/img/fbe1a617/20250422/i1745329865432_9909_0_5.jpg","https://xcimg.szwego.com/img/fbe1a617/20250422/i1745329867002_5096_0_6.jpg","https://xcimg.szwego.com/img/fbe1a617/20250422/i1745329865188_3855_0_7.jpg","https://xcimg.szwego.com/img/fbe1a617/20250422/i1745329865364_5712_0_8.jpg"],"created_at":"2025-09-09T05:17:44.457Z"},{"id":"item-593130a4728e","sku":"_dw2w2j1_OoBivWOx-l5fFGb3USpUOyjqArHlBGA","name_en":"Chanel Women Bags","name_cn":"香奈儿/女包","specs":{"source":"wsxcme","sourceId":"_dw2w2j1_OoBivWOx-l5fFGb3USpUOyjqArHlBGA","sourceTagId":47002745,"sourceTagName":"香奈儿/女包","rawTitle":""},"price":null,"currency":"CNY","moq":1,"category":"chanel-women-bags","status":"active","alibaba_url":null,"images":["https://xcimg.szwego.com/img/d0c94e6f/20250902/i1756824035_3263_0.jpg"],"created_at":"2025-09-19T04:25:53.920Z"},{"id":"item-58ce8586c36f","sku":"_ds8s8OIBklYvh4wWoZI8w9qyfwK9vfYDV00aP1g","name_en":"Chanel Women Bags","name_cn":"白金版▪️正品级 包装如图\nChane1 23S春夏系列\n火爆Mini 22Bag♥白金\n独家意大利渠道皮,真品原材料❕\n专柜售价40600rmb(目前市场溢价极高)\n\n这款包还没等上市就已经火爆全网。\n出彩的设计直接封神!\n\n容量很美好,优雅时髦的造型超乎想象🖤\n\n五金:全铜24K复古金\n皮料:开料部zp亮面小牛皮\n尺寸:19*20*6 cm","specs":{"source":"wsxcme","sourceId":"_ds8s8OIBklYvh4wWoZI8w9qyfwK9vfYDV00aP1g","sourceTagId":47002745,"sourceTagName":"香奈儿/女包","dimensions":{"lengthCm":19,"heightCm":20,"widthCm":6},"rawTitle":"白金版▪️正品级 包装如图\nChane1 23S春夏系列\n火爆Mini 22Bag♥白金\n独家意大利渠道皮,真品原材料❕\n专柜售价40600rmb(目前市场溢价极高)\n\n这款包还没等上市就已经火爆全网。\n出彩的设计直接封神!\n\n容量很美好,优雅时髦的造型超乎想象🖤\n\n五金:全铜24K复古金\n皮料:开料部zp亮面小牛皮\n尺寸:19*20*6 cm"},"price":null,"currency":"CNY","moq":1,"category":"chanel-women-bags","status":"active","alibaba_url":null,"images":["https://xcimg.szwego.com/20230407/i1680846236_1475_0.jpg","https://xcimg.szwego.com/20230407/i1680846236_2939_1.jpg","https://xcimg.szwego.com/20230407/i1680846236_545_2.jpg","https://xcimg.szwego.com/20230407/i1680846236_4279_3.jpg","https://xcimg.szwego.com/20230407/i1680846236_1222_4.jpg","https://xcimg.szwego.com/20230407/i1680846236_7932_5.jpg","https://xcimg.szwego.com/20230407/i1680846236_5728_6.jpg","https://xcimg.szwego.com/20230407/i1680846236_9175_7.jpg","https://xcimg.szwego.com/20230407/i1680846236_7924_8.jpg"],"created_at":"2024-05-01T03:19:54.362Z"},{"id":"item-58a25cb380d9","sku":"_ddzdzkR2YTdsgxsly1Av4XK4ycaIoh6XBk4CdMg","name_en":"Chanel Women Bags","name_cn":"白金版▪️正品级 包装如图\n新品到货🆕Chane1 23K秋冬\n19系列腋下包 大号黑色♥\n专柜售价40600rmb购入开发~\n\n23k黑马爆款19hobo腋下包 \n复古小牛皮实物质感很顶配❕\n冬天搭配外套大衣也毫无违和感〰️\n细腻柔软的宽肩带设计很是舒适,\n手拎腋下松弛感拉满ᥫᩣ\n\n五金:厚镀24k复古金\n皮料:褶皱小牛皮\n尺寸:23*13.5* 5 cm","specs":{"source":"wsxcme","sourceId":"_ddzdzkR2YTdsgxsly1Av4XK4ycaIoh6XBk4CdMg","sourceTagId":47002745,"sourceTagName":"香奈儿/女包","dimensions":{"lengthCm":23,"heightCm":13.5,"widthCm":5},"rawTitle":"白金版▪️正品级 包装如图\n新品到货🆕Chane1 23K秋冬\n19系列腋下包 大号黑色♥\n专柜售价40600rmb购入开发~\n\n23k黑马爆款19hobo腋下包 \n复古小牛皮实物质感很顶配❕\n冬天搭配外套大衣也毫无违和感〰️\n细腻柔软的宽肩带设计很是舒适,\n手拎腋下松弛感拉满ᥫᩣ\n\n五金:厚镀24k复古金\n皮料:褶皱小牛皮\n尺寸:23*13.5* 5 cm"},"price":null,"currency":"CNY","moq":1,"category":"chanel-women-bags","status":"active","alibaba_url":null,"images":["https://xcimg.szwego.com/20231129/i1701245691_1827_0.jpg","https://xcimg.szwego.com/20231129/i1701245691_8688_1.jpg","https://xcimg.szwego.com/20231129/i1701245691_6757_2.jpg","https://xcimg.szwego.com/20231129/i1701245691_178_3.jpg","https://xcimg.szwego.com/20231129/i1701245691_8964_4.jpg","https://xcimg.szwego.com/20231129/i1701245691_3018_5.jpg","https://xcimg.szwego.com/20231129/i1701245691_1823_6.jpg","https://xcimg.szwego.com/20231129/i1701245691_2921_7.jpg","https://xcimg.szwego.com/20231129/i1701245691_6059_8.jpg"],"created_at":"2024-05-01T03:19:54.394Z"}],"page":40,"pageSize":24,"total":1102,"totalPages":46}
