{"items":[{"id":"item-654dd277af56","sku":"_dnknkJEio0asbFqOQm2dXhc42qAINA8lqbuhjjA","name_en":"Fendi Women Bags","name_cn":"大号🔥🔥🔥\n ^FENDI^ 新品波士顿手提包~\n牛仔提花面料搭配经典双F logo,双提手和定制吊坠,容量足,颜值高,实用主义的浪漫💕肩带可调节长短,单肩斜挎皆随性,让每一次出门都像把精致日常拎在手里😻\n款号:162\n尺寸:28/12/18cm","specs":{"source":"wsxcme","sourceId":"_dnknkJEio0asbFqOQm2dXhc42qAINA8lqbuhjjA","sourceTagId":47002731,"sourceTagName":"芬迪/女包","modelNumber":"162","rawTitle":"大号🔥🔥🔥\n ^FENDI^ 新品波士顿手提包~\n牛仔提花面料搭配经典双F logo,双提手和定制吊坠,容量足,颜值高,实用主义的浪漫💕肩带可调节长短,单肩斜挎皆随性,让每一次出门都像把精致日常拎在手里😻\n款号:162\n尺寸:28/12/18cm"},"price":null,"currency":"CNY","moq":1,"category":"fendi-women-bags","status":"active","alibaba_url":null,"images":["https://xcimg.szwego.com/img/cccb0351/20260604/i1780548954338_7907_0_0.jpg","https://xcimg.szwego.com/img/cccb0351/20260604/i1780548953306_6659_0_1.jpg","https://xcimg.szwego.com/img/cccb0351/20260604/i1780548955995_2396_0_2.jpg","https://xcimg.szwego.com/img/cccb0351/20260604/i1780548956024_9063_0_3.jpg","https://xcimg.szwego.com/img/cccb0351/20260604/i1780548956072_2850_0_4.jpg","https://xcimg.szwego.com/img/cccb0351/20260604/i1780548954331_7586_0_5.jpg","https://xcimg.szwego.com/img/cccb0351/20260604/i1780548953383_1455_0_6.jpg","https://xcimg.szwego.com/img/cccb0351/20260604/i1780548954450_4280_0_7.jpg","https://xcimg.szwego.com/img/cccb0351/20260604/i1780548953348_3819_0_8.jpg"],"created_at":"2026-06-29T10:22:09.522Z"},{"id":"item-64b70a27b46e","sku":"_dEpEpCY1dU9u6lMAoB0Mml7CTjzRB2AXC2q8RMw","name_en":"Fendi Women Bags","name_cn":"正品级 复刻版芬迪\n💗Fendi最新的中号Simply秀款,自带一种高级的松弛感,柔软的小牛皮材质手感超细腻,拉链式设计给你属于自己的私密小空间,可调节长短的肩带不要太香,可单肩,斜挎或手拎,一款能随心应变的包包,太酷啦!\n348\n尺寸34.5x4.5x20cm","specs":{"source":"wsxcme","sourceId":"_dEpEpCY1dU9u6lMAoB0Mml7CTjzRB2AXC2q8RMw","sourceTagId":47002731,"sourceTagName":"芬迪/女包","dimensions":{"lengthCm":34.5,"heightCm":4.5,"widthCm":20},"rawTitle":"正品级 复刻版芬迪\n💗Fendi最新的中号Simply秀款,自带一种高级的松弛感,柔软的小牛皮材质手感超细腻,拉链式设计给你属于自己的私密小空间,可调节长短的肩带不要太香,可单肩,斜挎或手拎,一款能随心应变的包包,太酷啦!\n348\n尺寸34.5x4.5x20cm"},"price":null,"currency":"CNY","moq":1,"category":"fendi-women-bags","status":"active","alibaba_url":null,"images":["https://xcimg.szwego.com/20240824/i1724479102_1398_0.jpg","https://xcimg.szwego.com/20240824/i1724479102_8124_1.jpg","https://xcimg.szwego.com/20240824/i1724479102_4382_2.jpg","https://xcimg.szwego.com/20240824/i1724479102_552_3.jpg","https://xcimg.szwego.com/20240824/i1724479102_7463_4.jpg","https://xcimg.szwego.com/20240824/i1724479102_3204_5.jpg","https://xcimg.szwego.com/20240824/i1724479102_8493_6.jpg","https://xcimg.szwego.com/20240824/i1724479102_2907_7.jpg","https://xcimg.szwego.com/20240824/i1724479102_5604_8.jpg"],"created_at":"2024-11-11T10:33:53.437Z"},{"id":"item-626bec4f99b0","sku":"_dwxwxA9qg_l7sum0HaEzAS7N1mokQLlGpWJBHHg","name_en":"Fendi Women Bags","name_cn":"正品级 复刻版芬迪\n💗🎶Fend•🥖baguette经典中号款式 FF刺绣构成的彩色系浮雕图案  Size:19/4/11.5cm\n8017","specs":{"source":"wsxcme","sourceId":"_dwxwxA9qg_l7sum0HaEzAS7N1mokQLlGpWJBHHg","sourceTagId":47002731,"sourceTagName":"芬迪/女包","rawTitle":"正品级 复刻版芬迪\n💗🎶Fend•🥖baguette经典中号款式 FF刺绣构成的彩色系浮雕图案  Size:19/4/11.5cm\n8017"},"price":null,"currency":"CNY","moq":1,"category":"fendi-women-bags","status":"active","alibaba_url":null,"images":["https://xcimg.szwego.com/20240428/i1714297340_7503_0.jpg","https://xcimg.szwego.com/20240428/i1714297340_598_1.jpg","https://xcimg.szwego.com/20240428/i1714297340_9411_2.jpg","https://xcimg.szwego.com/20240428/i1714297340_612_3.jpg","https://xcimg.szwego.com/20240428/i1714297340_6898_4.jpg","https://xcimg.szwego.com/20240428/i1714297340_3987_5.jpg","https://xcimg.szwego.com/20240428/i1714297340_822_6.jpg","https://xcimg.szwego.com/20240428/i1714297340_6876_7.jpg","https://xcimg.szwego.com/20240428/i1714297340_7479_8.jpg"],"created_at":"2024-11-11T10:33:53.433Z"},{"id":"item-617849dd362b","sku":"_dm1m16NFgGKWKfCOfoWjOXM0MxZOYT3J4PBMiWw","name_en":"Fendi Women Bags","name_cn":"中号🔥🔥🔥\n🎶 peekaboo 全新系列 ISeeU petite 小牛皮手感超细腻,一面是手工编织的经典双F Logo✨另一面又是简约典雅的包面,一包两种风格,简约个性大方,实用又百搭\nSize:27-11-20cm","specs":{"source":"wsxcme","sourceId":"_dm1m16NFgGKWKfCOfoWjOXM0MxZOYT3J4PBMiWw","sourceTagId":47002731,"sourceTagName":"芬迪/女包","rawTitle":"中号🔥🔥🔥\n🎶 peekaboo 全新系列 ISeeU petite 小牛皮手感超细腻,一面是手工编织的经典双F Logo✨另一面又是简约典雅的包面,一包两种风格,简约个性大方,实用又百搭\nSize:27-11-20cm"},"price":null,"currency":"CNY","moq":1,"category":"fendi-women-bags","status":"active","alibaba_url":null,"images":["https://xcimg.szwego.com/img/cccb0351/20260513/i1778687173134_6103_0_0.jpg","https://xcimg.szwego.com/img/cccb0351/20260513/i1778687173557_2273_0_1.jpg","https://xcimg.szwego.com/img/cccb0351/20260513/i1778687173990_7453_0_2.jpg","https://xcimg.szwego.com/img/cccb0351/20260513/i1778687173154_8699_0_3.jpg","https://xcimg.szwego.com/img/cccb0351/20260513/i1778687173145_5837_0_4.jpg","https://xcimg.szwego.com/img/cccb0351/20260513/i1778687174021_4853_0_5.jpg","https://xcimg.szwego.com/img/cccb0351/20260513/i1778687173570_8038_0_6.jpg","https://xcimg.szwego.com/img/cccb0351/20260513/i1778687174043_8301_0_7.jpg","https://xcimg.szwego.com/img/cccb0351/20260513/i1778687173559_7608_0_8.jpg"],"created_at":"2026-06-29T10:26:12.535Z"},{"id":"item-5f3303bc11e3","sku":"_dr6r6x2VDoM7QtIxCQgaxN6S-oJloGOlLFrzW5w","name_en":"Fendi Women Bags","name_cn":"正品级复刻版 芬迪\n💗Fend•Iconic Peekaboo ISeeU 进口皮材质, 边缘和皮面饰有手工同色系拉菲草交织设计 饰有经典扭锁两个隔层 配有手柄和可调节可拆卸式肩带 可手提或斜挎Size:27-11-21cm \n327","specs":{"source":"wsxcme","sourceId":"_dr6r6x2VDoM7QtIxCQgaxN6S-oJloGOlLFrzW5w","sourceTagId":47002731,"sourceTagName":"芬迪/女包","rawTitle":"正品级复刻版 芬迪\n💗Fend•Iconic Peekaboo ISeeU 进口皮材质, 边缘和皮面饰有手工同色系拉菲草交织设计 饰有经典扭锁两个隔层 配有手柄和可调节可拆卸式肩带 可手提或斜挎Size:27-11-21cm \n327"},"price":null,"currency":"CNY","moq":1,"category":"fendi-women-bags","status":"active","alibaba_url":null,"images":["https://xcimg.szwego.com/20240708/i1720418581_9763_0.jpg","https://xcimg.szwego.com/20240708/i1720418581_2128_1.jpg","https://xcimg.szwego.com/20240708/i1720418581_8344_2.jpg","https://xcimg.szwego.com/20240708/i1720418581_9562_3.jpg","https://xcimg.szwego.com/20240708/i1720418581_2725_4.jpg","https://xcimg.szwego.com/20240708/i1720418581_3265_5.jpg","https://xcimg.szwego.com/20240708/i1720418581_8011_6.jpg","https://xcimg.szwego.com/20240708/i1720418581_3902_7.jpg","https://xcimg.szwego.com/20240708/i1720418581_2885_8.jpg"],"created_at":"2024-11-11T10:33:53.460Z"},{"id":"item-5e30ad26537b","sku":"_djijiRLZoUR9V7F78o0x_ny1NfzO_wyW8Nd2kBw","name_en":"Fendi Women Bags","name_cn":"正品级 复刻版芬迪\n💗杏羊皮\n🥖FD“it’s Baguette!”,在设计师手里又焕发出了全新的生命。采用纳帕小羊皮,压印浮雕双F,复古质感的五金,背上去充满了张扬自由的气息。无论是休闲👀还是摩登造型都手到擒来,看似小巧容量却很大,这是一款所有仙女不能Say No的法棍包。\n尺寸: 26*13*6\n款号8600","specs":{"source":"wsxcme","sourceId":"_djijiRLZoUR9V7F78o0x_ny1NfzO_wyW8Nd2kBw","sourceTagId":47002731,"sourceTagName":"芬迪/女包","modelNumber":"8600","rawTitle":"正品级 复刻版芬迪\n💗杏羊皮\n🥖FD“it’s Baguette!”,在设计师手里又焕发出了全新的生命。采用纳帕小羊皮,压印浮雕双F,复古质感的五金,背上去充满了张扬自由的气息。无论是休闲👀还是摩登造型都手到擒来,看似小巧容量却很大,这是一款所有仙女不能Say No的法棍包。\n尺寸: 26*13*6\n款号8600"},"price":null,"currency":"CNY","moq":1,"category":"fendi-women-bags","status":"active","alibaba_url":null,"images":["https://xcimg.szwego.com/20240530/i1717057574_2930_0.jpg","https://xcimg.szwego.com/20240530/i1717057574_7137_1.jpg","https://xcimg.szwego.com/20240530/i1717057574_715_2.jpg","https://xcimg.szwego.com/20240530/i1717057574_5354_3.jpg","https://xcimg.szwego.com/20240530/i1717057574_4228_4.jpg","https://xcimg.szwego.com/20240530/i1717057574_2918_5.jpg","https://xcimg.szwego.com/20240530/i1717057574_9933_6.jpg","https://xcimg.szwego.com/20240530/i1717057574_4542_7.jpg","https://xcimg.szwego.com/20240530/i1717057574_3763_8.jpg"],"created_at":"2024-11-11T10:33:53.410Z"},{"id":"item-5e2438663a49","sku":"_dBBBBAgCFG9dMwbsyw3IXfRb6aPBwbqX0r3HvPA","name_en":"Fendi Women Bags","name_cn":"杏色\n\n80011","specs":{"source":"wsxcme","sourceId":"_dBBBBAgCFG9dMwbsyw3IXfRb6aPBwbqX0r3HvPA","sourceTagId":47002731,"sourceTagName":"芬迪/女包","rawTitle":"杏色\n\n80011"},"price":null,"currency":"CNY","moq":1,"category":"fendi-women-bags","status":"active","alibaba_url":null,"images":["https://xcimg.szwego.com/20230103/i1672738525_2423_0.jpg","https://xcimg.szwego.com/20230103/i1672738525_376_1.jpg","https://xcimg.szwego.com/20230103/i1672738525_9464_2.jpg"],"created_at":"2026-06-29T10:22:08.722Z"},{"id":"item-5cbcfbca48f8","sku":"_dpWpWbzzIbU9NvLCASdvZL_Jx2sPw_Yfk3rk3XQ","name_en":"Fendi Women Bags","name_cn":"特级\n〰️PEEKABOO  I SEE U 小号手袋,最新风琴褶造型,全皮手感细腻硬挺,细节精致到位,两侧隔层都可以打开,容量十足也很有型,高颜值与实用性完全兼顾的同时让整个包Look看起来更有质感!!size27×11×20cm \n 全套包装 宽肩带小包另配 \n款号80011A克","specs":{"source":"wsxcme","sourceId":"_dpWpWbzzIbU9NvLCASdvZL_Jx2sPw_Yfk3rk3XQ","sourceTagId":47002731,"sourceTagName":"芬迪/女包","modelNumber":"80011A克","rawTitle":"特级\n〰️PEEKABOO  I SEE U 小号手袋,最新风琴褶造型,全皮手感细腻硬挺,细节精致到位,两侧隔层都可以打开,容量十足也很有型,高颜值与实用性完全兼顾的同时让整个包Look看起来更有质感!!size27×11×20cm \n 全套包装 宽肩带小包另配 \n款号80011A克"},"price":null,"currency":"CNY","moq":1,"category":"fendi-women-bags","status":"active","alibaba_url":null,"images":["https://xcimg.szwego.com/20221101/i1667282314_187_0.jpg","https://xcimg.szwego.com/20221101/i1667282314_1066_1.jpg","https://xcimg.szwego.com/20221101/i1667282314_1914_2.jpg","https://xcimg.szwego.com/20221101/i1667282314_8843_3.jpg","https://xcimg.szwego.com/20221101/i1667282314_7569_4.jpg","https://xcimg.szwego.com/20221101/i1667282314_8185_5.jpg","https://xcimg.szwego.com/20221101/i1667282314_6869_6.jpg","https://xcimg.szwego.com/20221101/i1667282314_7199_7.jpg","https://xcimg.szwego.com/20221101/i1667282314_6644_8.jpg"],"created_at":"2026-06-29T10:22:08.732Z"},{"id":"item-5aff478bdd41","sku":"_d-O-Ohj0RlBO-qtDlNHOXQ1wVXQKqdJOkcVDKBw","name_en":"Fendi Women Bags","name_cn":"正品级 复刻版芬迪\n💗最新的老花Roll迷你菜篮子,深咖色小牛皮配老花字母带点复古感的时尚,自带的小牛皮长肩带可以自由拆卸,能斜挎也能手拎,容量也是杠杠的,可爱俏皮又实用!\n328\n尺寸:23*19.5*15","specs":{"source":"wsxcme","sourceId":"_d-O-Ohj0RlBO-qtDlNHOXQ1wVXQKqdJOkcVDKBw","sourceTagId":47002731,"sourceTagName":"芬迪/女包","rawTitle":"正品级 复刻版芬迪\n💗最新的老花Roll迷你菜篮子,深咖色小牛皮配老花字母带点复古感的时尚,自带的小牛皮长肩带可以自由拆卸,能斜挎也能手拎,容量也是杠杠的,可爱俏皮又实用!\n328\n尺寸:23*19.5*15"},"price":null,"currency":"CNY","moq":1,"category":"fendi-women-bags","status":"active","alibaba_url":null,"images":["https://xcimg.szwego.com/20240515/i1715711006_8141_0.jpg","https://xcimg.szwego.com/20240515/i1715711006_4059_1.jpg","https://xcimg.szwego.com/20240515/i1715711006_9509_2.jpg","https://xcimg.szwego.com/20240515/i1715711006_116_3.jpg","https://xcimg.szwego.com/20240515/i1715711006_6242_4.jpg","https://xcimg.szwego.com/20240515/i1715711006_195_5.jpg","https://xcimg.szwego.com/20240515/i1715711006_4257_6.jpg","https://xcimg.szwego.com/20240515/i1715711006_5085_7.jpg","https://xcimg.szwego.com/20240515/i1715711006_4042_8.jpg"],"created_at":"2024-11-11T10:33:53.457Z"},{"id":"item-568df8aaaa39","sku":"_dWQWQVFmirupM3iS64tIVuTSNlRfuP_oYUDFcPg","name_en":"Fendi Women Bags","name_cn":"小号灰色🔥🔥\n新款By The Way Selleria枕头包来喽,天然粒面的小牛皮手感无敌柔软轻盈,背带可以随性打个小结,松弛感满满,银色金属钥匙环吊坠可以随意搭配小挂件,内里是手工缝线罗马小牛皮压印,简单又高级,轻压又能变身手拿包,收纳起来都特别轻松!\n小:20x9x12cm\n中:29x13x17cm","specs":{"source":"wsxcme","sourceId":"_dWQWQVFmirupM3iS64tIVuTSNlRfuP_oYUDFcPg","sourceTagId":47002731,"sourceTagName":"芬迪/女包","rawTitle":"小号灰色🔥🔥\n新款By The Way Selleria枕头包来喽,天然粒面的小牛皮手感无敌柔软轻盈,背带可以随性打个小结,松弛感满满,银色金属钥匙环吊坠可以随意搭配小挂件,内里是手工缝线罗马小牛皮压印,简单又高级,轻压又能变身手拿包,收纳起来都特别轻松!\n小:20x9x12cm\n中:29x13x17cm"},"price":null,"currency":"CNY","moq":1,"category":"fendi-women-bags","status":"active","alibaba_url":null,"images":["https://xcimg.szwego.com/img/cccb0351/20260609/i1780984008064_8808_0_0.jpg","https://xcimg.szwego.com/img/cccb0351/20260609/i1780984007542_2521_0_1.jpg","https://xcimg.szwego.com/img/cccb0351/20260609/i1780984007571_6942_0_2.jpg","https://xcimg.szwego.com/img/cccb0351/20260609/i1780984008046_9175_0_3.jpg","https://xcimg.szwego.com/img/cccb0351/20260609/i1780984008043_9717_0_4.jpg","https://xcimg.szwego.com/img/cccb0351/20260609/i1780984007115_7049_0_5.jpg","https://xcimg.szwego.com/img/cccb0351/20260609/i1780984007593_3143_0_6.jpg","https://xcimg.szwego.com/img/cccb0351/20260609/i1780984007121_4919_0_7.jpg","https://xcimg.szwego.com/img/cccb0351/20260609/i1780984007102_3353_0_8.jpg"],"created_at":"2026-06-29T10:22:09.612Z"},{"id":"item-566ac7ac99c4","sku":"_dP3P3Qr8E6MsF_VjU-po4U7ry6V2HJGQyW9RmuQ","name_en":"Fendi Women Bags","name_cn":"宋雨琦同款😍","specs":{"source":"wsxcme","sourceId":"_dP3P3Qr8E6MsF_VjU-po4U7ry6V2HJGQyW9RmuQ","sourceTagId":47002731,"sourceTagName":"芬迪/女包","rawTitle":"宋雨琦同款😍"},"price":null,"currency":"CNY","moq":1,"category":"fendi-women-bags","status":"active","alibaba_url":null,"images":["https://xcimg.szwego.com/20251018/i1760783379_5450_6.jpg","https://xcimg.szwego.com/20251018/i1760783379_648_4.jpg","https://xcimg.szwego.com/20251018/i1760783379_7010_5.jpg","https://xcimg.szwego.com/20251026/i1761491190_7989_0.jpg","https://xcimg.szwego.com/20251018/i1760783379_1657_0.jpg","https://xcimg.szwego.com/20251018/i1760783379_7234_1.jpg","https://xcimg.szwego.com/20251018/i1760783379_2821_2.jpg","https://xcimg.szwego.com/20251018/i1760783379_9218_3.jpg"],"created_at":"2026-06-29T10:22:09.482Z"},{"id":"item-55e3c21e7b0f","sku":"_dfmfmqBWvgRw4_oKz53MXVxJdB6KMMi9q_hIvhw","name_en":"Fendi Women Bags","name_cn":"正品级 复刻版芬迪\n💗新款老花版二合一链条包 Fendi Graphy,经典老花配上金属logo,简单不失格调,可以斜挎也能手拿,内附小卡袋,完美!\n款号076\n尺寸22x5x11cm","specs":{"source":"wsxcme","sourceId":"_dfmfmqBWvgRw4_oKz53MXVxJdB6KMMi9q_hIvhw","sourceTagId":47002731,"sourceTagName":"芬迪/女包","modelNumber":"076","dimensions":{"lengthCm":22,"heightCm":5,"widthCm":11},"rawTitle":"正品级 复刻版芬迪\n💗新款老花版二合一链条包 Fendi Graphy,经典老花配上金属logo,简单不失格调,可以斜挎也能手拿,内附小卡袋,完美!\n款号076\n尺寸22x5x11cm"},"price":null,"currency":"CNY","moq":1,"category":"fendi-women-bags","status":"active","alibaba_url":null,"images":["https://xcimg.szwego.com/20240530/i1717063174_6954_0.jpg","https://xcimg.szwego.com/20240530/i1717063174_8360_1.jpg","https://xcimg.szwego.com/20240530/i1717063174_5789_2.jpg","https://xcimg.szwego.com/20240530/i1717063174_6025_3.jpg","https://xcimg.szwego.com/20240530/i1717063174_2731_4.jpg","https://xcimg.szwego.com/20240530/i1717063174_8148_5.jpg","https://xcimg.szwego.com/20240530/i1717063174_1790_6.jpg","https://xcimg.szwego.com/20240530/i1717063174_5036_7.jpg","https://xcimg.szwego.com/20240530/i1717063174_9182_8.jpg"],"created_at":"2024-11-11T10:33:53.455Z"},{"id":"item-5358eab87024","sku":"_dwywyn87jbZ2KqGa-asCjF9QqZcMRmXOkNZ1X_w","name_en":"Fendi Women Bags","name_cn":"特级\n🔥🔥杏色\nFendi First小号手袋\n粉色皮革手袋\n更多细节\nFendi First小号手袋,柔软的粉色纳帕皮革材质,同色系纳帕皮革上固定有金属大幅F开合。内置隔层有标志性FF图案布料内衬,配可拆卸内钩和金色金属件。配有可拆卸肩带,可手拿或肩挎。意大利制造\n材质:面料:羊皮革,里料:织物\n深度:9.5\n长度:26\n高度:18\n款号:2218","specs":{"source":"wsxcme","sourceId":"_dwywyn87jbZ2KqGa-asCjF9QqZcMRmXOkNZ1X_w","sourceTagId":47002731,"sourceTagName":"芬迪/女包","modelNumber":"2218","rawTitle":"特级\n🔥🔥杏色\nFendi First小号手袋\n粉色皮革手袋\n更多细节\nFendi First小号手袋,柔软的粉色纳帕皮革材质,同色系纳帕皮革上固定有金属大幅F开合。内置隔层有标志性FF图案布料内衬,配可拆卸内钩和金色金属件。配有可拆卸肩带,可手拿或肩挎。意大利制造\n材质:面料:羊皮革,里料:织物\n深度:9.5\n长度:26\n高度:18\n款号:2218"},"price":null,"currency":"CNY","moq":1,"category":"fendi-women-bags","status":"active","alibaba_url":null,"images":["https://xcimg.szwego.com/img/cccb0351/20260603/i1780468274050_4082_0_0.jpg","https://xcimg.szwego.com/img/cccb0351/20260603/i1780468274075_1198_0_1.jpg","https://xcimg.szwego.com/img/cccb0351/20260603/i1780468273082_6365_0_2.jpg","https://xcimg.szwego.com/img/cccb0351/20260603/i1780468273086_1773_0_3.jpg","https://xcimg.szwego.com/img/cccb0351/20260603/i1780468274066_3810_0_4.jpg","https://xcimg.szwego.com/img/cccb0351/20260603/i1780468273631_3221_0_5.jpg","https://xcimg.szwego.com/img/cccb0351/20260603/i1780468273613_1762_0_6.jpg","https://xcimg.szwego.com/img/cccb0351/20260603/i1780468273151_3702_0_7.jpg","https://xcimg.szwego.com/img/cccb0351/20260603/i1780468273585_7736_0_8.jpg"],"created_at":"2026-06-29T10:22:09.392Z"},{"id":"item-51cc70ea2d43","sku":"_dqAqAOFg8gFV0XGQqCu1oNu1f6BmB5K3VYZaegw","name_en":"Fendi Women Bags","name_cn":"大号焦糖\n全新FEND1 First来了!!\n设计师Kim Jones主导下,设计的第一款Fend1,颠覆了以往的包型,金属包边大Logo锁扣加上包身设计把建筑艺术的解构与时装相结合,优雅中带着酷飒,一秒吸睛!手拿出席晚宴气场十足,斜挎也有种高级街头chic感!\n大号127 尺寸32.5x15x23.5cm","specs":{"source":"wsxcme","sourceId":"_dqAqAOFg8gFV0XGQqCu1oNu1f6BmB5K3VYZaegw","sourceTagId":47002731,"sourceTagName":"芬迪/女包","dimensions":{"lengthCm":32.5,"heightCm":15,"widthCm":23.5},"rawTitle":"大号焦糖\n全新FEND1 First来了!!\n设计师Kim Jones主导下,设计的第一款Fend1,颠覆了以往的包型,金属包边大Logo锁扣加上包身设计把建筑艺术的解构与时装相结合,优雅中带着酷飒,一秒吸睛!手拿出席晚宴气场十足,斜挎也有种高级街头chic感!\n大号127 尺寸32.5x15x23.5cm"},"price":null,"currency":"CNY","moq":1,"category":"fendi-women-bags","status":"active","alibaba_url":null,"images":["https://xcimg.szwego.com/20210924/i1632474185_368_6.jpg","https://xcimg.szwego.com/20210924/i1632474185_3679_5.jpg","https://xcimg.szwego.com/20210924/i1632474185_5247_4.jpg","https://xcimg.szwego.com/20210924/i1632474185_6954_1.jpg","https://xcimg.szwego.com/20210924/i1632474185_6868_7.jpg","https://xcimg.szwego.com/20210924/i1632474185_1119_0.jpg","https://xcimg.szwego.com/20210924/i1632474185_6878_8.jpg","https://xcimg.szwego.com/20210924/i1632474185_4962_3.jpg","https://xcimg.szwego.com/20210924/i1632474185_2288_2.jpg"],"created_at":"2024-11-11T10:33:53.501Z"},{"id":"item-4d33fdd72c4e","sku":"_dFBFBu9Uv5WDTJO1t0JI7Fmrh_r4YUGyp3AUYWw","name_en":"Fendi Women Bags","name_cn":"正品级 复刻版芬迪\n💗小号#皱褶银色.\nFEND1 First来了!\n设计师Kim Jones主导下,设计的第一款Fend1,颠覆了以往的包型,金属包边大Logo锁扣加上包身设计把建筑艺术的解构与时装相结合,优雅中带着酷飒,一秒吸睛!手拿出席晚宴气场十足,斜挎也有种高级街头chic感!\n尺寸26cm\n款号129","specs":{"source":"wsxcme","sourceId":"_dFBFBu9Uv5WDTJO1t0JI7Fmrh_r4YUGyp3AUYWw","sourceTagId":47002731,"sourceTagName":"芬迪/女包","modelNumber":"129","rawTitle":"正品级 复刻版芬迪\n💗小号#皱褶银色.\nFEND1 First来了!\n设计师Kim Jones主导下,设计的第一款Fend1,颠覆了以往的包型,金属包边大Logo锁扣加上包身设计把建筑艺术的解构与时装相结合,优雅中带着酷飒,一秒吸睛!手拿出席晚宴气场十足,斜挎也有种高级街头chic感!\n尺寸26cm\n款号129"},"price":null,"currency":"CNY","moq":1,"category":"fendi-women-bags","status":"active","alibaba_url":null,"images":["https://xcimg.szwego.com/20220501/i1651387963_5912_0.jpg","https://xcimg.szwego.com/20220501/i1651387963_8592_1.jpg","https://xcimg.szwego.com/20220501/i1651387963_4429_2.jpg","https://xcimg.szwego.com/20220501/i1651387963_1907_3.jpg","https://xcimg.szwego.com/20220501/i1651387963_1973_4.jpg","https://xcimg.szwego.com/20220501/i1651387963_3157_5.jpg","https://xcimg.szwego.com/20220501/i1651387963_7548_6.jpg","https://xcimg.szwego.com/20220501/i1651387963_6060_7.jpg","https://xcimg.szwego.com/20220501/i1651387963_4509_8.jpg"],"created_at":"2024-11-11T10:33:53.446Z"},{"id":"item-4d1a34746aa3","sku":"_dm-m-C9Hxy0KgMUxI7nM-sJSH3tNvnUUBVd-urA","name_en":"Fendi Women Bags","name_cn":"正品级 复刻版芬迪\n💗质量不负众望的爆款小包出货啦~全牛皮搭配琥珀手柄 高颜值好搭配# size 13×6×18cm \n款号:051裸粉","specs":{"source":"wsxcme","sourceId":"_dm-m-C9Hxy0KgMUxI7nM-sJSH3tNvnUUBVd-urA","sourceTagId":47002731,"sourceTagName":"芬迪/女包","modelNumber":"051裸粉","rawTitle":"正品级 复刻版芬迪\n💗质量不负众望的爆款小包出货啦~全牛皮搭配琥珀手柄 高颜值好搭配# size 13×6×18cm \n款号:051裸粉"},"price":null,"currency":"CNY","moq":1,"category":"fendi-women-bags","status":"active","alibaba_url":null,"images":["https://xcimg.szwego.com/20220416/i1650104153_2799_0.jpg","https://xcimg.szwego.com/20220416/i1650104153_5806_1.jpg","https://xcimg.szwego.com/20220416/i1650104153_6848_2.jpg","https://xcimg.szwego.com/20220416/i1650104153_2287_3.jpg","https://xcimg.szwego.com/20220416/i1650104153_7352_4.jpg","https://xcimg.szwego.com/20220416/i1650104153_2841_5.jpg","https://xcimg.szwego.com/20220416/i1650104153_5552_6.jpg","https://xcimg.szwego.com/20220416/i1650104153_8449_7.jpg","https://xcimg.szwego.com/20220416/i1650104153_1386_8.jpg"],"created_at":"2024-11-11T10:33:53.414Z"},{"id":"item-4c511ebe242f","sku":"_d8d8d57zcHkHgr-_4ZzM1jR-Q-2af98J1gGAAUw","name_en":"Fendi Women Bags","name_cn":"正品级 复刻版芬迪\n💗蓝羊皮\n🥖FD“it’s Baguette!”,在设计师手里又焕发出了全新的生命。采用纳帕小羊皮,压印浮雕双F,复古质感的五金,背上去充满了张扬自由的气息。无论是休闲👀还是摩登造型都手到擒来,看似小巧容量却很大,这是一款所有仙女不能Say No的法棍包。\n尺寸: 26*13*6\n款号8600","specs":{"source":"wsxcme","sourceId":"_d8d8d57zcHkHgr-_4ZzM1jR-Q-2af98J1gGAAUw","sourceTagId":47002731,"sourceTagName":"芬迪/女包","modelNumber":"8600","rawTitle":"正品级 复刻版芬迪\n💗蓝羊皮\n🥖FD“it’s Baguette!”,在设计师手里又焕发出了全新的生命。采用纳帕小羊皮,压印浮雕双F,复古质感的五金,背上去充满了张扬自由的气息。无论是休闲👀还是摩登造型都手到擒来,看似小巧容量却很大,这是一款所有仙女不能Say No的法棍包。\n尺寸: 26*13*6\n款号8600"},"price":null,"currency":"CNY","moq":1,"category":"fendi-women-bags","status":"active","alibaba_url":null,"images":["https://xcimg.szwego.com/20230314/i1678773424_8496_0.jpg","https://xcimg.szwego.com/20230314/i1678773424_8114_1.jpg","https://xcimg.szwego.com/20230314/i1678773424_4234_2.jpg","https://xcimg.szwego.com/20230314/i1678773424_2776_3.jpg","https://xcimg.szwego.com/20230314/i1678773424_8152_4.jpg","https://xcimg.szwego.com/20230314/i1678773424_6633_5.jpg","https://xcimg.szwego.com/20230314/i1678773424_867_6.jpg","https://xcimg.szwego.com/20230314/i1678773424_4610_7.jpg","https://xcimg.szwego.com/20230314/i1678773424_5133_8.jpg"],"created_at":"2024-11-11T10:33:53.408Z"},{"id":"item-4ac603675693","sku":"_dkAkAV2s0yhht8d0dD421R50O2sOUrDlv3draqw","name_en":"Fendi Women Bags","name_cn":"正品级 复刻版芬迪\n💗质量不负众望的爆款小包出货啦~全牛皮搭配琥珀手柄 高颜值好搭配# size 13×6×18cm \n款号:051浅蓝","specs":{"source":"wsxcme","sourceId":"_dkAkAV2s0yhht8d0dD421R50O2sOUrDlv3draqw","sourceTagId":47002731,"sourceTagName":"芬迪/女包","modelNumber":"051浅蓝","rawTitle":"正品级 复刻版芬迪\n💗质量不负众望的爆款小包出货啦~全牛皮搭配琥珀手柄 高颜值好搭配# size 13×6×18cm \n款号:051浅蓝"},"price":null,"currency":"CNY","moq":1,"category":"fendi-women-bags","status":"active","alibaba_url":null,"images":["https://xcimg.szwego.com/20220416/i1650104418_4042_0.jpg","https://xcimg.szwego.com/20220416/i1650104418_6568_1.jpg","https://xcimg.szwego.com/20220416/i1650104418_8998_2.jpg","https://xcimg.szwego.com/20220416/i1650104418_8889_3.jpg","https://xcimg.szwego.com/20220416/i1650104418_6259_4.jpg","https://xcimg.szwego.com/20220416/i1650104418_2949_5.jpg","https://xcimg.szwego.com/20220416/i1650104418_6165_6.jpg","https://xcimg.szwego.com/20220416/i1650104418_3173_7.jpg","https://xcimg.szwego.com/20220416/i1650104418_1854_8.jpg"],"created_at":"2024-11-11T10:33:53.415Z"},{"id":"item-488efa857784","sku":"_dd-d-_Ahnfnl0jfh1zcjqDSvULFqzUVwy6rRzpg","name_en":"Fendi Women Bags","name_cn":"小号🔥🔥🔥\n🎶 peekaboo 全新系列 ISeeU petite 小牛皮手感超细腻,一面是手工编织的经典双F Logo✨另一面又是简约典雅的包面,一包两种风格,简约个性大方,实用又百搭\nSize:20-11-15cm","specs":{"source":"wsxcme","sourceId":"_dd-d-_Ahnfnl0jfh1zcjqDSvULFqzUVwy6rRzpg","sourceTagId":47002731,"sourceTagName":"芬迪/女包","rawTitle":"小号🔥🔥🔥\n🎶 peekaboo 全新系列 ISeeU petite 小牛皮手感超细腻,一面是手工编织的经典双F Logo✨另一面又是简约典雅的包面,一包两种风格,简约个性大方,实用又百搭\nSize:20-11-15cm"},"price":null,"currency":"CNY","moq":1,"category":"fendi-women-bags","status":"active","alibaba_url":null,"images":["https://xcimg.szwego.com/img/cccb0351/20260513/i1778687331912_6732_0_0.jpg","https://xcimg.szwego.com/img/cccb0351/20260513/i1778687332503_7059_0_1.jpg","https://xcimg.szwego.com/img/cccb0351/20260513/i1778687332479_7529_0_2.jpg","https://xcimg.szwego.com/img/cccb0351/20260513/i1778687331929_2009_0_3.jpg","https://xcimg.szwego.com/img/cccb0351/20260513/i1778687332509_9233_0_4.jpg","https://xcimg.szwego.com/img/cccb0351/20260513/i1778687331970_6060_0_5.jpg","https://xcimg.szwego.com/img/cccb0351/20260513/i1778687331186_396_0_6.jpg","https://xcimg.szwego.com/img/cccb0351/20260513/i1778687331203_5707_0_7.jpg","https://xcimg.szwego.com/img/cccb0351/20260513/i1778687331181_355_0_8.jpg"],"created_at":"2026-06-29T10:26:12.595Z"},{"id":"item-477a8e74e6b5","sku":"_djcjcCK3Oc5BynnyWZW1T5oD1OBRg8hCe52gXbA","name_en":"Fendi Women Bags","name_cn":"特级🔥🔥\nBY THE WAY拉链开合波士顿手提包,双手挽设计,缀以饰牌。内部设有双口袋,透过隔板分隔出两个隔层,另设有一个口袋。可调节可拆卸肩带。小牛皮制作。镀钯饰面金属配饰。尺寸28*15*13\n款号:2303","specs":{"source":"wsxcme","sourceId":"_djcjcCK3Oc5BynnyWZW1T5oD1OBRg8hCe52gXbA","sourceTagId":47002731,"sourceTagName":"芬迪/女包","modelNumber":"2303","rawTitle":"特级🔥🔥\nBY THE WAY拉链开合波士顿手提包,双手挽设计,缀以饰牌。内部设有双口袋,透过隔板分隔出两个隔层,另设有一个口袋。可调节可拆卸肩带。小牛皮制作。镀钯饰面金属配饰。尺寸28*15*13\n款号:2303"},"price":null,"currency":"CNY","moq":1,"category":"fendi-women-bags","status":"active","alibaba_url":null,"images":["https://xcimg.szwego.com/img/cccb0351/20260603/i1780468954118_3623_0_0.jpg","https://xcimg.szwego.com/img/cccb0351/20260603/i1780468952712_4231_0_1.jpg","https://xcimg.szwego.com/img/cccb0351/20260603/i1780468952746_2682_0_2.jpg","https://xcimg.szwego.com/img/cccb0351/20260603/i1780468953625_9296_0_3.jpg","https://xcimg.szwego.com/img/cccb0351/20260603/i1780468953598_6834_0_4.jpg","https://xcimg.szwego.com/img/cccb0351/20260603/i1780468953594_1892_0_5.jpg","https://xcimg.szwego.com/img/cccb0351/20260603/i1780468954087_1253_0_6.jpg","https://xcimg.szwego.com/img/cccb0351/20260603/i1780468952779_8376_0_7.jpg","https://xcimg.szwego.com/img/cccb0351/20260603/i1780468954118_7844_0_8.jpg"],"created_at":"2026-06-29T10:22:09.342Z"},{"id":"item-46457a0750f4","sku":"_dv3v3aDa-OtsguzXZQBTLS4hXRPmsz-GO51ea0Q","name_en":"Fendi Women Bags","name_cn":"特级\n小号。Fendi Way新款来袭~\n软质梯形轮廓,包口可自然敞开,线条柔和随性高级,可拆解肩带支持手提/单肩,饰有经典标志性扭锁,内里带有卡槽贴袋,采用进口小牛皮+麂皮材质制成,大容量可容纳多种物品,不同风格随意切换,出街适配穿搭度极高,自带高级氛围感~ \n款号:368\nsize:36x13x27","specs":{"source":"wsxcme","sourceId":"_dv3v3aDa-OtsguzXZQBTLS4hXRPmsz-GO51ea0Q","sourceTagId":47002731,"sourceTagName":"芬迪/女包","modelNumber":"368","rawTitle":"特级\n小号。Fendi Way新款来袭~\n软质梯形轮廓,包口可自然敞开,线条柔和随性高级,可拆解肩带支持手提/单肩,饰有经典标志性扭锁,内里带有卡槽贴袋,采用进口小牛皮+麂皮材质制成,大容量可容纳多种物品,不同风格随意切换,出街适配穿搭度极高,自带高级氛围感~ \n款号:368\nsize:36x13x27"},"price":null,"currency":"CNY","moq":1,"category":"fendi-women-bags","status":"active","alibaba_url":null,"images":["https://xcimg.szwego.com/imgHD/c7ca63f9/20260504/cmp_i1777899211998_5085_0_0.jpg","https://xcimg.szwego.com/imgHD/c7ca63f9/20260504/cmp_i1777899199221_9466_0_1.jpg","https://xcimg.szwego.com/imgHD/c7ca63f9/20260504/cmp_i1777899211807_1948_0_2.jpg","https://xcimg.szwego.com/imgHD/c7ca63f9/20260504/cmp_i1777899199199_8218_0_3.jpg","https://xcimg.szwego.com/imgHD/c7ca63f9/20260504/cmp_i1777899208315_4236_0_4.jpg","https://xcimg.szwego.com/imgHD/c7ca63f9/20260504/cmp_i1777899208315_104_0_5.jpg","https://xcimg.szwego.com/imgHD/c7ca63f9/20260504/cmp_i1777899211798_8160_0_6.jpg","https://xcimg.szwego.com/imgHD/c7ca63f9/20260504/cmp_i1777899199199_4891_0_7.jpg","https://xcimg.szwego.com/imgHD/c7ca63f9/20260504/cmp_i1777899208313_161_0_8.jpg"],"created_at":"2026-06-29T10:26:12.615Z"},{"id":"item-46290b296784","sku":"_dbEbEYQ5cAIeAfrWIRBmkm4AswC9DM4ETCMVMNQ","name_en":"Fendi Women Bags","name_cn":"经典永恒 低调奢华与现代女性气质相融合✔️\n\n70193黑色","specs":{"source":"wsxcme","sourceId":"_dbEbEYQ5cAIeAfrWIRBmkm4AswC9DM4ETCMVMNQ","sourceTagId":47002731,"sourceTagName":"芬迪/女包","rawTitle":"经典永恒 低调奢华与现代女性气质相融合✔️\n\n70193黑色"},"price":null,"currency":"CNY","moq":1,"category":"fendi-women-bags","status":"active","alibaba_url":null,"images":["https://xcimg.szwego.com/20221101/i1667282230_8887_0.jpg","https://xcimg.szwego.com/20221101/i1667282230_4021_1.jpg","https://xcimg.szwego.com/20221101/i1667282230_778_2.jpg","https://xcimg.szwego.com/20221101/i1667282230_2071_3.jpg","https://xcimg.szwego.com/20221101/i1667282230_6628_4.jpg"],"created_at":"2026-06-29T10:22:08.642Z"},{"id":"item-46241a96b00f","sku":"_dcZcZ40Dq9nf7w7GjoTus-W1h_nQKy83D2Hjo8A","name_en":"Fendi Women Bags","name_cn":"🔥🔥🔥\n标志性的Baguette小号手袋采用翻盖设计,配有FF磁扣。内衬配有拉链袋。配备可拆卸肩带,可手提或斜挎。镜面效果银色皮革材质。饰有FF压花图案。镀钯金属饰面。\n尺寸19cm\n款号212","specs":{"source":"wsxcme","sourceId":"_dcZcZ40Dq9nf7w7GjoTus-W1h_nQKy83D2Hjo8A","sourceTagId":47002731,"sourceTagName":"芬迪/女包","modelNumber":"212","rawTitle":"🔥🔥🔥\n标志性的Baguette小号手袋采用翻盖设计,配有FF磁扣。内衬配有拉链袋。配备可拆卸肩带,可手提或斜挎。镜面效果银色皮革材质。饰有FF压花图案。镀钯金属饰面。\n尺寸19cm\n款号212"},"price":null,"currency":"CNY","moq":1,"category":"fendi-women-bags","status":"active","alibaba_url":null,"images":["https://xcimg.szwego.com/img/cccb0351/20260526/i1779774956401_3708_0_0.jpg","https://xcimg.szwego.com/img/cccb0351/20260525/i1779690667619_2797_0_1.jpg","https://xcimg.szwego.com/img/cccb0351/20260525/i1779690668538_1482_0_2.jpg","https://xcimg.szwego.com/img/cccb0351/20260525/i1779690668538_7366_0_3.jpg","https://xcimg.szwego.com/img/cccb0351/20260525/i1779690668107_5382_0_4.jpg","https://xcimg.szwego.com/img/cccb0351/20260525/i1779690667642_7046_0_5.jpg","https://xcimg.szwego.com/img/cccb0351/20260525/i1779690668600_9397_0_6.jpg","https://xcimg.szwego.com/img/cccb0351/20260525/i1779690667592_7822_0_7.jpg","https://xcimg.szwego.com/img/cccb0351/20260525/i1779690668126_7858_0_8.jpg"],"created_at":"2026-06-29T10:22:09.492Z"},{"id":"item-446cbfd418ed","sku":"_dfhfh5epSLdKVkBLASxiov-2cgGZWfTXAVpkXwA","name_en":"Fendi Women Bags","name_cn":"正品级\nFF兰布\nPeekaboo X-Tote手袋刺绣托特!有内部口袋和标志性扭锁。带有两个可手持的短手柄,和两个可肩背的长手柄。千鸟格帆布材质。同色系压花刺绣FF装饰图案。头层牛皮饰边。金色金属件。尺寸40*12*29cm 款号:购物包FF蓝布","specs":{"source":"wsxcme","sourceId":"_dfhfh5epSLdKVkBLASxiov-2cgGZWfTXAVpkXwA","sourceTagId":47002731,"sourceTagName":"芬迪/女包","modelNumber":"购物包FF蓝布","dimensions":{"lengthCm":40,"heightCm":12,"widthCm":29},"rawTitle":"正品级\nFF兰布\nPeekaboo X-Tote手袋刺绣托特!有内部口袋和标志性扭锁。带有两个可手持的短手柄,和两个可肩背的长手柄。千鸟格帆布材质。同色系压花刺绣FF装饰图案。头层牛皮饰边。金色金属件。尺寸40*12*29cm 款号:购物包FF蓝布"},"price":null,"currency":"CNY","moq":1,"category":"fendi-women-bags","status":"active","alibaba_url":null,"images":["https://xcimg.szwego.com/img/8655f6f1/20250217/i1739804496434_7799_0_0.jpg","https://xcimg.szwego.com/img/8655f6f1/20250217/i1739804498371_4889_0_1.jpg","https://xcimg.szwego.com/img/8655f6f1/20250217/i1739804496424_6188_0_2.jpg","https://xcimg.szwego.com/img/8655f6f1/20250217/i1739804496541_1833_0_3.jpg","https://xcimg.szwego.com/img/8655f6f1/20250217/i1739804498310_99_0_4.jpg","https://xcimg.szwego.com/img/8655f6f1/20250217/i1739804496533_797_0_5.jpg","https://xcimg.szwego.com/img/8655f6f1/20250217/i1739804498442_5386_0_6.jpg","https://xcimg.szwego.com/img/8655f6f1/20250217/i1739804498416_4990_0_7.jpg","https://xcimg.szwego.com/img/8655f6f1/20250217/i1739804496390_7831_0_8.jpg"],"created_at":"2025-03-28T13:36:08.834Z"}],"page":12,"pageSize":24,"total":348,"totalPages":15}
