{"items":[{"id":"item-4354adfc4978","sku":"_de-e-aSmiPwi7HGuWp486Ptzsa95AFIzgwAiR5w","name_en":"Fendi Women Bags","name_cn":"正品级 复刻版芬迪\n💗桔红羊皮\n🥖FD“it’s Baguette!”,在设计师手里又焕发出了全新的生命。采用纳帕小羊皮,压印浮雕双F,复古质感的五金,背上去充满了张扬自由的气息。无论是休闲👀还是摩登造型都手到擒来,看似小巧容量却很大,这是一款所有仙女不能Say No的法棍包。\n尺寸: 26*13*6\n款号8600","specs":{"source":"wsxcme","sourceId":"_de-e-aSmiPwi7HGuWp486Ptzsa95AFIzgwAiR5w","sourceTagId":47002731,"sourceTagName":"芬迪/女包","modelNumber":"8600","rawTitle":"正品级 复刻版芬迪\n💗桔红羊皮\n🥖FD“it’s Baguette!”,在设计师手里又焕发出了全新的生命。采用纳帕小羊皮,压印浮雕双F,复古质感的五金,背上去充满了张扬自由的气息。无论是休闲👀还是摩登造型都手到擒来,看似小巧容量却很大,这是一款所有仙女不能Say No的法棍包。\n尺寸: 26*13*6\n款号8600"},"price":null,"currency":"CNY","moq":1,"category":"fendi-women-bags","status":"active","alibaba_url":null,"images":["https://xcimg.szwego.com/20240530/i1717057620_4758_0.jpg","https://xcimg.szwego.com/20240530/i1717057620_3765_1.jpg","https://xcimg.szwego.com/20240530/i1717057620_7040_2.jpg","https://xcimg.szwego.com/20240530/i1717057620_2243_3.jpg","https://xcimg.szwego.com/20240530/i1717057620_5902_4.jpg","https://xcimg.szwego.com/20240530/i1717057620_6459_5.jpg","https://xcimg.szwego.com/20240530/i1717057620_4502_6.jpg","https://xcimg.szwego.com/20240530/i1717057620_1473_7.jpg","https://xcimg.szwego.com/20240530/i1717057620_9569_8.jpg"],"created_at":"2024-11-11T10:33:53.409Z"},{"id":"item-40702878d3c5","sku":"_dtotoxNYSmgvvk5-XiJYmiAm2K1SOWncdL80Fjw","name_en":"Fendi Women Bags","name_cn":"特级\n〰️PEEKABOO  I SEE U 小号手袋,最新风琴褶造型,全皮手感细腻硬挺,细节精致到位,两侧隔层都可以打开,容量十足也很有型,高颜值与实用性完全兼顾的同时让整个包Look看起来更有质感!!size27×11×20cm  全套包装\n款号80011","specs":{"source":"wsxcme","sourceId":"_dtotoxNYSmgvvk5-XiJYmiAm2K1SOWncdL80Fjw","sourceTagId":47002731,"sourceTagName":"芬迪/女包","modelNumber":"80011","rawTitle":"特级\n〰️PEEKABOO  I SEE U 小号手袋,最新风琴褶造型,全皮手感细腻硬挺,细节精致到位,两侧隔层都可以打开,容量十足也很有型,高颜值与实用性完全兼顾的同时让整个包Look看起来更有质感!!size27×11×20cm  全套包装\n款号80011"},"price":null,"currency":"CNY","moq":1,"category":"fendi-women-bags","status":"active","alibaba_url":null,"images":["https://xcimg.szwego.com/20221019/i1666165682_8205_0.jpg","https://xcimg.szwego.com/20221019/i1666165682_7886_1.jpg","https://xcimg.szwego.com/20221019/i1666165682_308_2.jpg","https://xcimg.szwego.com/20221019/i1666165682_110_3.jpg","https://xcimg.szwego.com/20221019/i1666165682_9539_4.jpg","https://xcimg.szwego.com/20221019/i1666165682_5879_5.jpg","https://xcimg.szwego.com/20221019/i1666165682_1386_6.jpg","https://xcimg.szwego.com/20221019/i1666165682_9079_7.jpg"],"created_at":"2026-06-29T10:22:08.692Z"},{"id":"item-3fd3499356db","sku":"_diiiiXFuuoLQW3JdcS3-z-Lv631s2UVeeThLAWQ","name_en":"Fendi Women Bags","name_cn":"黑色现货。款号 8598\nFENDI 火爆经典Baguette ,原材料采用帆布高级工艺打造,整只包双FF立体刺绣质感无敌,配有可拆卸和Baguette字样肩带,宽肩带设计和翻盖实用性也强,处处可见的小细节,真的爱了~~size26/6.5/13.5cm","specs":{"source":"wsxcme","sourceId":"_diiiiXFuuoLQW3JdcS3-z-Lv631s2UVeeThLAWQ","sourceTagId":47002731,"sourceTagName":"芬迪/女包","modelNumber":"8598","rawTitle":"黑色现货。款号 8598\nFENDI 火爆经典Baguette ,原材料采用帆布高级工艺打造,整只包双FF立体刺绣质感无敌,配有可拆卸和Baguette字样肩带,宽肩带设计和翻盖实用性也强,处处可见的小细节,真的爱了~~size26/6.5/13.5cm"},"price":null,"currency":"CNY","moq":1,"category":"fendi-women-bags","status":"active","alibaba_url":null,"images":["https://xcimg.szwego.com/img/8655f6f1/20241213/i1734063260_7436_3.jpg","https://xcimg.szwego.com/img/8655f6f1/20241213/i1734063260_2088_2.jpg","https://xcimg.szwego.com/img/8655f6f1/20241213/i1734063260_3405_0.jpg","https://xcimg.szwego.com/img/8655f6f1/20241213/i1734063260_5751_5.jpg","https://xcimg.szwego.com/img/8655f6f1/20241213/i1734063261_4311_8.jpg","https://xcimg.szwego.com/img/8655f6f1/20241213/i1734063260_8900_6.jpg","https://xcimg.szwego.com/img/8655f6f1/20241213/i1734063260_77_4.jpg","https://xcimg.szwego.com/img/8655f6f1/20241213/i1734063260_2851_1.jpg","https://xcimg.szwego.com/img/8655f6f1/20241213/i1734063260_6310_7.jpg"],"created_at":"2025-02-10T14:02:44.870Z"},{"id":"item-3f9ba14f9938","sku":"_drzrzRvOwUElTjJ2L0uxmKDzMqe9s6WhXg-0TCA","name_en":"Fendi Women Bags","name_cn":"特级\n小号🔥🔥🔥\nFendi丹宁系列mama法棍包!双F绣花结合复古牛仔元素和现代设计,轻松打造傭懒又时髦的造型。灰蓝色丹宁和榛果棕色的)拼接超复古的,自带小牛皮长肩带和短手腕,可手提可斜挎,随手一拎就是高级感拉满! \n尺寸:18cm×10cmx13cm","specs":{"source":"wsxcme","sourceId":"_drzrzRvOwUElTjJ2L0uxmKDzMqe9s6WhXg-0TCA","sourceTagId":47002731,"sourceTagName":"芬迪/女包","rawTitle":"特级\n小号🔥🔥🔥\nFendi丹宁系列mama法棍包!双F绣花结合复古牛仔元素和现代设计,轻松打造傭懒又时髦的造型。灰蓝色丹宁和榛果棕色的)拼接超复古的,自带小牛皮长肩带和短手腕,可手提可斜挎,随手一拎就是高级感拉满! \n尺寸:18cm×10cmx13cm"},"price":null,"currency":"CNY","moq":1,"category":"fendi-women-bags","status":"active","alibaba_url":null,"images":["https://xcimg.szwego.com/img/cccb0351/20260510/i1778392137322_3360_0_0.jpg","https://xcimg.szwego.com/img/cccb0351/20260510/i1778392136520_2043_0_1.jpg","https://xcimg.szwego.com/img/cccb0351/20260510/i1778392136541_8395_0_2.jpg","https://xcimg.szwego.com/img/cccb0351/20260510/i1778392137794_6728_0_3.jpg","https://xcimg.szwego.com/img/cccb0351/20260510/i1778392137847_2345_0_4.jpg","https://xcimg.szwego.com/img/cccb0351/20260510/i1778392137818_1356_0_5.jpg","https://xcimg.szwego.com/img/cccb0351/20260510/i1778392137353_3209_0_6.jpg","https://xcimg.szwego.com/img/cccb0351/20260510/i1778392137348_4891_0_7.jpg","https://xcimg.szwego.com/img/cccb0351/20260510/i1778392136581_3316_0_8.jpg"],"created_at":"2026-06-29T10:22:08.822Z"},{"id":"item-3c767b34266b","sku":"_dththig5bITnXGZy4oXlPpRLEPvdr-nzeSKnw8g","name_en":"Fendi Women Bags","name_cn":"经典配色~\n80011","specs":{"source":"wsxcme","sourceId":"_dththig5bITnXGZy4oXlPpRLEPvdr-nzeSKnw8g","sourceTagId":47002731,"sourceTagName":"芬迪/女包","rawTitle":"经典配色~\n80011"},"price":null,"currency":"CNY","moq":1,"category":"fendi-women-bags","status":"active","alibaba_url":null,"images":["https://xcimg.szwego.com/20221019/i1666165721_872_0.jpg","https://xcimg.szwego.com/20221019/i1666165721_6298_1.jpg","https://xcimg.szwego.com/20221019/i1666165721_6459_2.jpg","https://xcimg.szwego.com/20221019/i1666165721_9245_3.jpg","https://xcimg.szwego.com/20221019/i1666165721_5395_4.jpg"],"created_at":"2026-06-29T10:22:08.702Z"},{"id":"item-3c395528357d","sku":"_dzQzQC6qceVssCvNA6pd_Gjijblhkh6io2uKuCw","name_en":"Fendi Women Bags","name_cn":"正品级 复刻版芬迪\n💗最新老花迷你法棍手机包,能同时放下2部手机噢,可爱又实用,不要太乖了,还能手提跟斜挎随意切换,快来把它带走吧。\n手机包\n尺寸:长19 宽3 高11\n8019","specs":{"source":"wsxcme","sourceId":"_dzQzQC6qceVssCvNA6pd_Gjijblhkh6io2uKuCw","sourceTagId":47002731,"sourceTagName":"芬迪/女包","rawTitle":"正品级 复刻版芬迪\n💗最新老花迷你法棍手机包,能同时放下2部手机噢,可爱又实用,不要太乖了,还能手提跟斜挎随意切换,快来把它带走吧。\n手机包\n尺寸:长19 宽3 高11\n8019"},"price":null,"currency":"CNY","moq":1,"category":"fendi-women-bags","status":"active","alibaba_url":null,"images":["https://xcimg.szwego.com/20240515/i1715711212_3351_0.jpg","https://xcimg.szwego.com/20240515/i1715711212_6743_1.jpg","https://xcimg.szwego.com/20240515/i1715711212_599_2.jpg","https://xcimg.szwego.com/20240515/i1715711212_9505_3.jpg","https://xcimg.szwego.com/20240515/i1715711212_2952_4.jpg","https://xcimg.szwego.com/20240515/i1715711212_7742_5.jpg","https://xcimg.szwego.com/20240515/i1715711212_1902_6.jpg","https://xcimg.szwego.com/20240515/i1715711212_2611_7.jpg","https://xcimg.szwego.com/20240515/i1715711212_498_8.jpg"],"created_at":"2024-11-11T10:33:53.456Z"},{"id":"item-3be307b4ddb7","sku":"_dcxcxdf8wTr64irsNQq54q-BQhyKdfrswxzYltA","name_en":"Fendi Women Bags","name_cn":"正品级 复刻版芬迪\n💗Iconic Baguette中号手袋,棕色千鸟格纹羊毛材质,饰有FF刺绣\n图案。带有同色系皮革细节,并饰有FF搭扣。设有正面翻盖、磁\n扣、带衬里的内部隔层、拉链袋和银白色金属件。手袋配有可拆\n卸式手柄和肩带,可手提、肩背或斜挎。\n尺寸:27*6*15\n款号8600","specs":{"source":"wsxcme","sourceId":"_dcxcxdf8wTr64irsNQq54q-BQhyKdfrswxzYltA","sourceTagId":47002731,"sourceTagName":"芬迪/女包","modelNumber":"8600","rawTitle":"正品级 复刻版芬迪\n💗Iconic Baguette中号手袋,棕色千鸟格纹羊毛材质,饰有FF刺绣\n图案。带有同色系皮革细节,并饰有FF搭扣。设有正面翻盖、磁\n扣、带衬里的内部隔层、拉链袋和银白色金属件。手袋配有可拆\n卸式手柄和肩带,可手提、肩背或斜挎。\n尺寸:27*6*15\n款号8600"},"price":null,"currency":"CNY","moq":1,"category":"fendi-women-bags","status":"active","alibaba_url":null,"images":["https://xcimg.szwego.com/20240805/i1722862089_9063_0.jpg","https://xcimg.szwego.com/20240805/i1722862089_6449_1.jpg","https://xcimg.szwego.com/20240805/i1722862089_7702_2.jpg","https://xcimg.szwego.com/20240805/i1722862089_3480_3.jpg","https://xcimg.szwego.com/20240805/i1722862089_3677_4.jpg","https://xcimg.szwego.com/20240805/i1722862089_8721_5.jpg","https://xcimg.szwego.com/20240805/i1722862089_2464_6.jpg","https://xcimg.szwego.com/20240805/i1722862089_3835_7.jpg","https://xcimg.szwego.com/20240805/i1722862089_1615_8.jpg"],"created_at":"2024-11-11T10:33:53.421Z"},{"id":"item-3a82f8b7afd1","sku":"_dhvhvGR3WfqBU3AcrMHZYbyG4wjPfo0WT_TcMiw","name_en":"Fendi Women Bags","name_cn":"特级\n〰️PEEKABOO  I SEE U 小号手袋,最新风琴褶造型,全皮手感细腻硬挺,细节精致到位,两侧隔层都可以打开,容量十足也很有型,高颜值与实用性完全兼顾的同时让整个包Look看起来更有质感!!size27×11×20cm \n全套包装 宽肩带小包另配 \n款号80011A杏色","specs":{"source":"wsxcme","sourceId":"_dhvhvGR3WfqBU3AcrMHZYbyG4wjPfo0WT_TcMiw","sourceTagId":47002731,"sourceTagName":"芬迪/女包","modelNumber":"80011A杏色","rawTitle":"特级\n〰️PEEKABOO  I SEE U 小号手袋,最新风琴褶造型,全皮手感细腻硬挺,细节精致到位,两侧隔层都可以打开,容量十足也很有型,高颜值与实用性完全兼顾的同时让整个包Look看起来更有质感!!size27×11×20cm \n全套包装 宽肩带小包另配 \n款号80011A杏色"},"price":null,"currency":"CNY","moq":1,"category":"fendi-women-bags","status":"active","alibaba_url":null,"images":["https://xcimg.szwego.com/20230103/i1672738451_2000_0.jpg","https://xcimg.szwego.com/20230103/i1672738451_7336_1.jpg","https://xcimg.szwego.com/20230103/i1672738451_2038_2.jpg","https://xcimg.szwego.com/20230103/i1672738451_7620_3.jpg","https://xcimg.szwego.com/20230103/i1672738451_4809_4.jpg","https://xcimg.szwego.com/20230103/i1672738451_5789_5.jpg","https://xcimg.szwego.com/20230103/i1672738451_9012_6.jpg","https://xcimg.szwego.com/20230103/i1672738451_1321_7.jpg","https://xcimg.szwego.com/20230103/i1672738451_8545_8.jpg"],"created_at":"2026-06-29T10:22:08.712Z"},{"id":"item-37f90f855bc1","sku":"_dalaljE4Nxz8HKUsJAzrn4qfZ_U_vwHpvKUSR-w","name_en":"Fendi Women Bags","name_cn":"🔔简单就是另一种标新立异\n\n70193白色","specs":{"source":"wsxcme","sourceId":"_dalaljE4Nxz8HKUsJAzrn4qfZ_U_vwHpvKUSR-w","sourceTagId":47002731,"sourceTagName":"芬迪/女包","rawTitle":"🔔简单就是另一种标新立异\n\n70193白色"},"price":null,"currency":"CNY","moq":1,"category":"fendi-women-bags","status":"active","alibaba_url":null,"images":["https://xcimg.szwego.com/20250426/i1745640828_7926_5.jpg","https://xcimg.szwego.com/20250426/i1745640828_7181_0.jpg","https://xcimg.szwego.com/20250426/i1745640828_1951_3.jpg","https://xcimg.szwego.com/20250426/i1745640828_5084_2.jpg","https://xcimg.szwego.com/20250426/i1745640828_6916_1.jpg","https://xcimg.szwego.com/20250426/i1745640828_2503_4.jpg"],"created_at":"2026-06-29T10:22:08.682Z"},{"id":"item-36a1e31908b8","sku":"_doWoWHWw_LOrxPhQerFVIvS9GyBitXq6AgKnoHg","name_en":"Fendi Women Bags","name_cn":"特级🔥🔥\nBY THE WAY拉链开合波士顿手提包,双手挽设计,缀以饰牌。内部设有双口袋,透过隔板分隔出两个隔层,另设有一个口袋。可调节可拆卸肩带。小牛皮制作。镀钯饰面金属配饰。尺寸28*15*13\n款号:2303","specs":{"source":"wsxcme","sourceId":"_doWoWHWw_LOrxPhQerFVIvS9GyBitXq6AgKnoHg","sourceTagId":47002731,"sourceTagName":"芬迪/女包","modelNumber":"2303","rawTitle":"特级🔥🔥\nBY THE WAY拉链开合波士顿手提包,双手挽设计,缀以饰牌。内部设有双口袋,透过隔板分隔出两个隔层,另设有一个口袋。可调节可拆卸肩带。小牛皮制作。镀钯饰面金属配饰。尺寸28*15*13\n款号:2303"},"price":null,"currency":"CNY","moq":1,"category":"fendi-women-bags","status":"active","alibaba_url":null,"images":["https://xcimg.szwego.com/img/cccb0351/20260603/i1780468969928_5473_0_0.jpg","https://xcimg.szwego.com/img/cccb0351/20260603/i1780468970866_3153_0_1.jpg","https://xcimg.szwego.com/img/cccb0351/20260603/i1780468969880_2646_0_2.jpg","https://xcimg.szwego.com/img/cccb0351/20260603/i1780468970388_4391_0_3.jpg","https://xcimg.szwego.com/img/cccb0351/20260603/i1780468970914_9051_0_4.jpg","https://xcimg.szwego.com/img/cccb0351/20260603/i1780468970369_3552_0_5.jpg","https://xcimg.szwego.com/img/cccb0351/20260603/i1780468970928_5854_0_6.jpg","https://xcimg.szwego.com/img/cccb0351/20260603/i1780468969929_8610_0_7.jpg","https://xcimg.szwego.com/img/cccb0351/20260603/i1780468970418_6396_0_8.jpg"],"created_at":"2026-06-29T10:22:09.352Z"},{"id":"item-32b10b7b0283","sku":"_dgKgKeN6OzBrRCvxwe-TSGQjEUECuToyd6b2aSw","name_en":"Fendi Women Bags","name_cn":"正品级\nMon Tresor\n浅兰皮革迷你手袋更多细节\nMon Tresor小号水桶手袋,配有抽绳和Fendi金属标志装饰。配一长一短两条可拆卸肩带,可手提、单肩背或斜挎。浅兰小牛皮材质。黑色手绘凸纹FF标志性印花图案。金色金属件。意大利制造\n材质:\n面料:牛皮革 里料:织物\n深度:\n10\n长度:\n12\n高度:\n18\n款号:010","specs":{"source":"wsxcme","sourceId":"_dgKgKeN6OzBrRCvxwe-TSGQjEUECuToyd6b2aSw","sourceTagId":47002731,"sourceTagName":"芬迪/女包","modelNumber":"010","rawTitle":"正品级\nMon Tresor\n浅兰皮革迷你手袋更多细节\nMon Tresor小号水桶手袋,配有抽绳和Fendi金属标志装饰。配一长一短两条可拆卸肩带,可手提、单肩背或斜挎。浅兰小牛皮材质。黑色手绘凸纹FF标志性印花图案。金色金属件。意大利制造\n材质:\n面料:牛皮革 里料:织物\n深度:\n10\n长度:\n12\n高度:\n18\n款号:010"},"price":null,"currency":"CNY","moq":1,"category":"fendi-women-bags","status":"active","alibaba_url":null,"images":["https://xcimg.szwego.com/img/8655f6f1/20250227/i1740635777212_3683_0_0.jpg","https://xcimg.szwego.com/img/8655f6f1/20250227/i1740635777261_4547_0_1.jpg","https://xcimg.szwego.com/img/8655f6f1/20250227/i1740635778736_3032_0_2.jpg","https://xcimg.szwego.com/img/8655f6f1/20250227/i1740635777292_5986_0_3.jpg","https://xcimg.szwego.com/img/8655f6f1/20250227/i1740635777234_9317_0_4.jpg","https://xcimg.szwego.com/img/8655f6f1/20250227/i1740635777236_4343_0_5.jpg","https://xcimg.szwego.com/img/8655f6f1/20250227/i1740635778753_1391_0_6.jpg","https://xcimg.szwego.com/img/8655f6f1/20250227/i1740635778739_2332_0_7.jpg","https://xcimg.szwego.com/img/8655f6f1/20250227/i1740635778836_275_0_8.jpg"],"created_at":"2025-03-28T13:36:08.838Z"},{"id":"item-3264b67882b1","sku":"_dvXvXDGU2Qp_4QI8HpcX65SVMX4LljJFYnXCg1A","name_en":"Fendi Women Bags","name_cn":"实拍图,鸽子灰70193","specs":{"source":"wsxcme","sourceId":"_dvXvXDGU2Qp_4QI8HpcX65SVMX4LljJFYnXCg1A","sourceTagId":47002731,"sourceTagName":"芬迪/女包","rawTitle":"实拍图,鸽子灰70193"},"price":null,"currency":"CNY","moq":1,"category":"fendi-women-bags","status":"active","alibaba_url":null,"images":["https://xcimg.szwego.com/20220918/i1663471340_4634_0.jpg","https://xcimg.szwego.com/20220918/i1663471340_609_1.jpg","https://xcimg.szwego.com/20220918/i1663471340_6305_2.jpg","https://xcimg.szwego.com/20220918/i1663471340_9165_3.jpg"],"created_at":"2026-06-29T10:22:08.662Z"},{"id":"item-30d5ec6bcae4","sku":"_dododAJVm7c-2QePdA4G3Kg3_rZoYmGoGQJkdxg","name_en":"Fendi Women Bags","name_cn":"正品级\nMon Tresor\n浅兰皮革迷你手袋更多细节\nMon Tresor小号水桶手袋,配有抽绳和Fendi金属标志装饰。配一长一短两条可拆卸肩带,可手提、单肩背或斜挎。浅兰小牛皮材质。黑色手绘凸纹FF标志性印花图案。金色金属件。意大利制造\n材质:\n面料:牛皮革 里料:织物\n深度:\n10\n长度:\n12\n高度:\n18\n款号:010","specs":{"source":"wsxcme","sourceId":"_dododAJVm7c-2QePdA4G3Kg3_rZoYmGoGQJkdxg","sourceTagId":47002731,"sourceTagName":"芬迪/女包","modelNumber":"010","rawTitle":"正品级\nMon Tresor\n浅兰皮革迷你手袋更多细节\nMon Tresor小号水桶手袋,配有抽绳和Fendi金属标志装饰。配一长一短两条可拆卸肩带,可手提、单肩背或斜挎。浅兰小牛皮材质。黑色手绘凸纹FF标志性印花图案。金色金属件。意大利制造\n材质:\n面料:牛皮革 里料:织物\n深度:\n10\n长度:\n12\n高度:\n18\n款号:010"},"price":null,"currency":"CNY","moq":1,"category":"fendi-women-bags","status":"active","alibaba_url":null,"images":["https://xcimg.szwego.com/img/8655f6f1/20250227/i1740635741332_3020_0_0.jpg","https://xcimg.szwego.com/img/8655f6f1/20250227/i1740635739508_6157_0_1.jpg","https://xcimg.szwego.com/img/8655f6f1/20250227/i1740635739466_739_0_2.jpg","https://xcimg.szwego.com/img/8655f6f1/20250227/i1740635739463_7939_0_3.jpg","https://xcimg.szwego.com/img/8655f6f1/20250227/i1740635741393_3827_0_4.jpg","https://xcimg.szwego.com/img/8655f6f1/20250227/i1740635739541_2311_0_5.jpg","https://xcimg.szwego.com/img/8655f6f1/20250227/i1740635741371_3907_0_6.jpg","https://xcimg.szwego.com/img/8655f6f1/20250227/i1740635739559_2666_0_7.jpg","https://xcimg.szwego.com/img/8655f6f1/20250227/i1740635741371_2721_0_8.jpg"],"created_at":"2025-03-28T13:36:08.837Z"},{"id":"item-30b1f7f747f9","sku":"_dl5l5kMhIDNsvOLDkKdhgGVFEVZhqB0db349N0A","name_en":"Fendi Women Bags","name_cn":"特级\n新款 FENDI Peekaboo鸽子灰  \n风琴全皮简约型设计 内里五金采用玳瑁配色给包包增添几分气场,细节处理都很到位不可错失的一款美包 ~\nsize :33×12×25cm\n全套包装 宽肩带挂饰另付款 \n款号70193L-A","specs":{"source":"wsxcme","sourceId":"_dl5l5kMhIDNsvOLDkKdhgGVFEVZhqB0db349N0A","sourceTagId":47002731,"sourceTagName":"芬迪/女包","modelNumber":"70193L-A","rawTitle":"特级\n新款 FENDI Peekaboo鸽子灰  \n风琴全皮简约型设计 内里五金采用玳瑁配色给包包增添几分气场,细节处理都很到位不可错失的一款美包 ~\nsize :33×12×25cm\n全套包装 宽肩带挂饰另付款 \n款号70193L-A"},"price":null,"currency":"CNY","moq":1,"category":"fendi-women-bags","status":"active","alibaba_url":null,"images":["https://xcimg.szwego.com/20220918/i1663471249_8166_0.jpg","https://xcimg.szwego.com/20220918/i1663471249_2768_1.jpg","https://xcimg.szwego.com/20220918/i1663471249_3680_2.jpg","https://xcimg.szwego.com/20220918/i1663471249_3102_3.jpg","https://xcimg.szwego.com/20220918/i1663471249_501_4.jpg","https://xcimg.szwego.com/20220918/i1663471249_7305_5.jpg","https://xcimg.szwego.com/20220918/i1663471249_7491_6.jpg","https://xcimg.szwego.com/20220918/i1663471249_561_7.jpg","https://xcimg.szwego.com/20220918/i1663471249_2988_8.jpg"],"created_at":"2026-06-29T10:22:08.652Z"},{"id":"item-304ddf7d0292","sku":"_dkpkpR0eMd8niYR2FbWO-fDIJfUg0i-U2o9Mudg","name_en":"Fendi Women Bags","name_cn":"正品级 复刻版芬迪\n💗白色银扣\n最新全皮压花迷你法棍手机包,能同时放下2部手机噢,可爱又实用,不要太乖了,还能手提跟斜挎随意切换,快来把它带走吧。\n手机包\n尺寸:长19 宽3 高11","specs":{"source":"wsxcme","sourceId":"_dkpkpR0eMd8niYR2FbWO-fDIJfUg0i-U2o9Mudg","sourceTagId":47002731,"sourceTagName":"芬迪/女包","rawTitle":"正品级 复刻版芬迪\n💗白色银扣\n最新全皮压花迷你法棍手机包,能同时放下2部手机噢,可爱又实用,不要太乖了,还能手提跟斜挎随意切换,快来把它带走吧。\n手机包\n尺寸:长19 宽3 高11"},"price":null,"currency":"CNY","moq":1,"category":"fendi-women-bags","status":"active","alibaba_url":null,"images":["https://xcimg.szwego.com/20240726/i1721962140_5072_0.jpg","https://xcimg.szwego.com/20240726/i1721962140_2821_1.jpg","https://xcimg.szwego.com/20240726/i1721962140_8036_2.jpg","https://xcimg.szwego.com/20240726/i1721962140_2050_3.jpg","https://xcimg.szwego.com/20240726/i1721962140_1898_4.jpg","https://xcimg.szwego.com/20240726/i1721962140_2184_5.jpg","https://xcimg.szwego.com/20240726/i1721962140_7605_6.jpg","https://xcimg.szwego.com/20240726/i1721962140_5915_7.jpg","https://xcimg.szwego.com/20240726/i1721962140_6824_8.jpg"],"created_at":"2024-11-11T10:33:53.419Z"},{"id":"item-2e1aa3cbc026","sku":"_dr4r4mKuPQosi7lt4oa7cuSQTXw0vA7AGDDyq4A","name_en":"Fendi Women Bags","name_cn":"浅蓝\nMon Tresor\n浅兰皮革迷你手袋更多细节\nMon Tresor小号水桶手袋,配有抽绳和Fendi金属标志装饰。配一长一短两条可拆卸肩带,可手提、单肩背或斜挎。浅兰小牛皮材质。黑色手绘凸纹FF标志性印花图案。金色金属件。意大利制造\n材质:\n面料:牛皮革 里料:织物\n深度:\n10\n长度:\n12\n高度:\n18\n款号:226","specs":{"source":"wsxcme","sourceId":"_dr4r4mKuPQosi7lt4oa7cuSQTXw0vA7AGDDyq4A","sourceTagId":47002731,"sourceTagName":"芬迪/女包","modelNumber":"226","rawTitle":"浅蓝\nMon Tresor\n浅兰皮革迷你手袋更多细节\nMon Tresor小号水桶手袋,配有抽绳和Fendi金属标志装饰。配一长一短两条可拆卸肩带,可手提、单肩背或斜挎。浅兰小牛皮材质。黑色手绘凸纹FF标志性印花图案。金色金属件。意大利制造\n材质:\n面料:牛皮革 里料:织物\n深度:\n10\n长度:\n12\n高度:\n18\n款号:226"},"price":null,"currency":"CNY","moq":1,"category":"fendi-women-bags","status":"active","alibaba_url":null,"images":["https://xcimg.szwego.com/20230517/i1684299937_2969_0.jpg","https://xcimg.szwego.com/20230517/i1684299937_8849_1.jpg","https://xcimg.szwego.com/20230517/i1684299937_3701_2.jpg","https://xcimg.szwego.com/20230517/i1684299937_1179_3.jpg","https://xcimg.szwego.com/20230517/i1684299937_8276_4.jpg","https://xcimg.szwego.com/20230517/i1684299937_3268_5.jpg","https://xcimg.szwego.com/20230517/i1684299937_8722_6.jpg","https://xcimg.szwego.com/20230517/i1684299937_1459_7.jpg","https://xcimg.szwego.com/20230517/i1684299937_1228_8.jpg"],"created_at":"2024-04-30T07:04:54.284Z"},{"id":"item-2d8b278b2d4f","sku":"_d_e_edUg83ZAAlbZl0AwP6I_siZORPzqQ8iRkGQ","name_en":"Fendi Women Bags","name_cn":"街拍😻","specs":{"source":"wsxcme","sourceId":"_d_e_edUg83ZAAlbZl0AwP6I_siZORPzqQ8iRkGQ","sourceTagId":47002731,"sourceTagName":"芬迪/女包","rawTitle":"街拍😻"},"price":null,"currency":"CNY","moq":1,"category":"fendi-women-bags","status":"active","alibaba_url":null,"images":["https://xcimg.szwego.com/20251018/i1760782598_3262_0.jpg","https://xcimg.szwego.com/20251018/i1760782598_4530_1.jpg","https://xcimg.szwego.com/20251018/i1760782598_2103_2.jpg","https://xcimg.szwego.com/20251018/i1760782598_1577_3.jpg","https://xcimg.szwego.com/20251018/i1760782598_8954_4.jpg","https://xcimg.szwego.com/20251018/i1760782598_7407_5.jpg"],"created_at":"2026-06-29T10:22:09.472Z"},{"id":"item-2ac980cd562c","sku":"_d0R0RtGr6trZlIcHiwCJtr_whKHqdDHvpLba1Uw","name_en":"Fendi Women Bags","name_cn":"正品级 复刻版芬迪\n💗FEND1标志性Peekaboo ISeeU手袋,小巧可人。红色带夹层纳帕软\n皮革材质,两侧缀以经典的扭锁。内部配有衬里,两个隔层\n由硬质隔板隔开,配有内袋和银色金属件。配有手柄和可调\n节可拆卸式肩带,可手提或斜挎。意大利制造.\n尺寸11-20-15\n款号8336","specs":{"source":"wsxcme","sourceId":"_d0R0RtGr6trZlIcHiwCJtr_whKHqdDHvpLba1Uw","sourceTagId":47002731,"sourceTagName":"芬迪/女包","modelNumber":"8336","rawTitle":"正品级 复刻版芬迪\n💗FEND1标志性Peekaboo ISeeU手袋,小巧可人。红色带夹层纳帕软\n皮革材质,两侧缀以经典的扭锁。内部配有衬里,两个隔层\n由硬质隔板隔开,配有内袋和银色金属件。配有手柄和可调\n节可拆卸式肩带,可手提或斜挎。意大利制造.\n尺寸11-20-15\n款号8336"},"price":null,"currency":"CNY","moq":1,"category":"fendi-women-bags","status":"active","alibaba_url":null,"images":["https://xcimg.szwego.com/20220423/i1650727026_6127_0.jpg","https://xcimg.szwego.com/20220423/i1650727026_1485_1.jpg","https://xcimg.szwego.com/20220423/i1650727026_7506_2.jpg","https://xcimg.szwego.com/20220423/i1650727026_8113_3.jpg","https://xcimg.szwego.com/20220423/i1650727026_340_4.jpg","https://xcimg.szwego.com/20220423/i1650727026_7683_5.jpg","https://xcimg.szwego.com/20220423/i1650727026_3034_6.jpg","https://xcimg.szwego.com/20220423/i1650727026_477_7.jpg","https://xcimg.szwego.com/20220423/i1650727026_7286_8.jpg"],"created_at":"2024-11-11T10:33:53.472Z"},{"id":"item-281b2aa80292","sku":"_djCjCC6WiZUzHnB2793kQcdRWyk7rnRZfNNgirA","name_en":"Fendi Women Bags","name_cn":"中号🔥🔥🔥\n🎶 peekaboo 全新系列 ISeeU petite 小牛皮手感超细腻,一面是手工编织的经典双F Logo✨另一面又是简约典雅的包面,一包两种风格,简约个性大方,实用又百搭\nSize:27-11-20cm","specs":{"source":"wsxcme","sourceId":"_djCjCC6WiZUzHnB2793kQcdRWyk7rnRZfNNgirA","sourceTagId":47002731,"sourceTagName":"芬迪/女包","rawTitle":"中号🔥🔥🔥\n🎶 peekaboo 全新系列 ISeeU petite 小牛皮手感超细腻,一面是手工编织的经典双F Logo✨另一面又是简约典雅的包面,一包两种风格,简约个性大方,实用又百搭\nSize:27-11-20cm"},"price":null,"currency":"CNY","moq":1,"category":"fendi-women-bags","status":"active","alibaba_url":null,"images":["https://xcimg.szwego.com/img/cccb0351/20260513/i1778687159857_6700_0_0.jpg","https://xcimg.szwego.com/img/cccb0351/20260513/i1778687158280_5136_0_1.jpg","https://xcimg.szwego.com/img/cccb0351/20260513/i1778687158276_7843_0_2.jpg","https://xcimg.szwego.com/img/cccb0351/20260513/i1778687159201_2188_0_3.jpg","https://xcimg.szwego.com/img/cccb0351/20260513/i1778687159882_1793_0_4.jpg","https://xcimg.szwego.com/img/cccb0351/20260513/i1778687159173_995_0_5.jpg","https://xcimg.szwego.com/img/cccb0351/20260513/i1778687159851_1175_0_6.jpg","https://xcimg.szwego.com/img/cccb0351/20260513/i1778687158274_181_0_7.jpg","https://xcimg.szwego.com/img/cccb0351/20260513/i1778687159200_1534_0_8.jpg"],"created_at":"2026-06-29T10:26:12.545Z"},{"id":"item-279aeb213b89","sku":"_dmdmdGnU42aYe_uzOVzkug_FC0DGjJOIRWMOfJg","name_en":"Fendi Women Bags","name_cn":"现🔥(2条肩带)\nFD ICONICPeekaboo全粒面手工系列,粗线外缝突出包型设计感,颜值与容量并存,此生必入的经典手袋。\n尺寸: 23*11*18\n款号245","specs":{"source":"wsxcme","sourceId":"_dmdmdGnU42aYe_uzOVzkug_FC0DGjJOIRWMOfJg","sourceTagId":47002731,"sourceTagName":"芬迪/女包","modelNumber":"245","rawTitle":"现🔥(2条肩带)\nFD ICONICPeekaboo全粒面手工系列,粗线外缝突出包型设计感,颜值与容量并存,此生必入的经典手袋。\n尺寸: 23*11*18\n款号245"},"price":null,"currency":"CNY","moq":1,"category":"fendi-women-bags","status":"active","alibaba_url":null,"images":["https://xcimg.szwego.com/20220508/i1651984349_4460_0.jpg","https://xcimg.szwego.com/20220508/i1651984349_7761_1.jpg","https://xcimg.szwego.com/20220508/i1651984349_5469_2.jpg","https://xcimg.szwego.com/20220508/i1651984349_8467_3.jpg","https://xcimg.szwego.com/20220508/i1651984349_9582_4.jpg","https://xcimg.szwego.com/20220508/i1651984349_5998_5.jpg","https://xcimg.szwego.com/20220508/i1651984349_3220_6.jpg","https://xcimg.szwego.com/20220508/i1651984349_8003_7.jpg","https://xcimg.szwego.com/20220508/i1651984349_7708_8.jpg"],"created_at":"2024-11-11T10:33:53.488Z"},{"id":"item-2696a84569f3","sku":"_dewewPIRlBC5XEhYInHfHmxP544zu1FYSsmPQdQ","name_en":"Fendi Women Bags","name_cn":"黑色\nMon Tresor\n浅兰皮革迷你手袋更多细节\nMon Tresor小号水桶手袋,配有抽绳和Fendi金属标志装饰。配一长一短两条可拆卸肩带,可手提、单肩背或斜挎。浅兰小牛皮材质。黑色手绘凸纹FF标志性印花图案。金色金属件。意大利制造\n材质:\n面料:牛皮革 里料:织物\n深度:\n10\n长度:\n12\n高度:\n18\n款号:226","specs":{"source":"wsxcme","sourceId":"_dewewPIRlBC5XEhYInHfHmxP544zu1FYSsmPQdQ","sourceTagId":47002731,"sourceTagName":"芬迪/女包","modelNumber":"226","rawTitle":"黑色\nMon Tresor\n浅兰皮革迷你手袋更多细节\nMon Tresor小号水桶手袋,配有抽绳和Fendi金属标志装饰。配一长一短两条可拆卸肩带,可手提、单肩背或斜挎。浅兰小牛皮材质。黑色手绘凸纹FF标志性印花图案。金色金属件。意大利制造\n材质:\n面料:牛皮革 里料:织物\n深度:\n10\n长度:\n12\n高度:\n18\n款号:226"},"price":null,"currency":"CNY","moq":1,"category":"fendi-women-bags","status":"active","alibaba_url":null,"images":["https://xcimg.szwego.com/20230517/i1684300056_7999_0.jpg","https://xcimg.szwego.com/20230517/i1684300056_6590_1.jpg","https://xcimg.szwego.com/20230517/i1684300056_7290_2.jpg","https://xcimg.szwego.com/20230517/i1684300056_6322_3.jpg","https://xcimg.szwego.com/20230517/i1684300056_8836_4.jpg","https://xcimg.szwego.com/20230517/i1684300056_3931_5.jpg","https://xcimg.szwego.com/20230517/i1684300056_4477_6.jpg","https://xcimg.szwego.com/20230517/i1684300056_1753_7.jpg","https://xcimg.szwego.com/20230517/i1684300056_6616_8.jpg"],"created_at":"2024-04-30T07:04:54.287Z"},{"id":"item-246d2067149a","sku":"_dftftz3Bwy8CQOPYTW98SNU6Jojm7X99VbM3Raw","name_en":"Fendi Women Bags","name_cn":"小号黑色🔥🔥\n新款By The Way Selleria枕头包来喽,天然粒面的小牛皮手感无敌柔软轻盈,背带可以随性打个小结,松弛感满满,银色金属钥匙环吊坠可以随意搭配小挂件,内里是手工缝线罗马小牛皮压印,简单又高级,轻压又能变身手拿包,收纳起来都特别轻松!\n小:20x9x12cm\n中:29x13x17cm","specs":{"source":"wsxcme","sourceId":"_dftftz3Bwy8CQOPYTW98SNU6Jojm7X99VbM3Raw","sourceTagId":47002731,"sourceTagName":"芬迪/女包","rawTitle":"小号黑色🔥🔥\n新款By The Way Selleria枕头包来喽,天然粒面的小牛皮手感无敌柔软轻盈,背带可以随性打个小结,松弛感满满,银色金属钥匙环吊坠可以随意搭配小挂件,内里是手工缝线罗马小牛皮压印,简单又高级,轻压又能变身手拿包,收纳起来都特别轻松!\n小:20x9x12cm\n中:29x13x17cm"},"price":null,"currency":"CNY","moq":1,"category":"fendi-women-bags","status":"active","alibaba_url":null,"images":["https://xcimg.szwego.com/img/cccb0351/20260609/i1780983989806_5263_0_0.jpg","https://xcimg.szwego.com/img/cccb0351/20260609/i1780983989297_5120_0_1.jpg","https://xcimg.szwego.com/img/cccb0351/20260609/i1780983989808_6701_0_2.jpg","https://xcimg.szwego.com/img/cccb0351/20260609/i1780983989312_9853_0_3.jpg","https://xcimg.szwego.com/img/cccb0351/20260609/i1780983988756_2524_0_4.jpg","https://xcimg.szwego.com/img/cccb0351/20260609/i1780983989377_1206_0_5.jpg","https://xcimg.szwego.com/img/cccb0351/20260609/i1780983988806_1837_0_6.jpg","https://xcimg.szwego.com/img/cccb0351/20260609/i1780983988787_8000_0_7.jpg","https://xcimg.szwego.com/img/cccb0351/20260609/i1780983989809_4366_0_8.jpg"],"created_at":"2026-06-29T10:22:09.602Z"},{"id":"item-243d0a3731a2","sku":"_dP9P9z1vSRew3KCeCxftvTufCQ4_0EAHROKVlDg","name_en":"Fendi Women Bags","name_cn":"正品级 复刻版芬迪\n💗FEND1 Vertigo夏季胶囊限量系列\n最新的Baguette 手袋,经典满字双F乍一看像是鱼眼镜头下拍出的立体感,个性十足,大胆创新,富有很高的趣味性,感觉元气满满💪💪\n尺寸26x13x6cm\n款号8600","specs":{"source":"wsxcme","sourceId":"_dP9P9z1vSRew3KCeCxftvTufCQ4_0EAHROKVlDg","sourceTagId":47002731,"sourceTagName":"芬迪/女包","modelNumber":"8600","dimensions":{"lengthCm":26,"heightCm":13,"widthCm":6},"rawTitle":"正品级 复刻版芬迪\n💗FEND1 Vertigo夏季胶囊限量系列\n最新的Baguette 手袋,经典满字双F乍一看像是鱼眼镜头下拍出的立体感,个性十足,大胆创新,富有很高的趣味性,感觉元气满满💪💪\n尺寸26x13x6cm\n款号8600"},"price":null,"currency":"CNY","moq":1,"category":"fendi-women-bags","status":"active","alibaba_url":null,"images":["https://xcimg.szwego.com/20220314/i1647242748_7435_0.jpg","https://xcimg.szwego.com/20220314/i1647242748_6570_1.jpg","https://xcimg.szwego.com/20220314/i1647242748_1174_2.jpg","https://xcimg.szwego.com/20220314/i1647242748_9276_3.jpg","https://xcimg.szwego.com/20220314/i1647242748_319_4.jpg","https://xcimg.szwego.com/20220314/i1647242748_2723_5.jpg","https://xcimg.szwego.com/20220314/i1647242748_1036_6.jpg","https://xcimg.szwego.com/20220314/i1647242748_9219_7.jpg","https://xcimg.szwego.com/20220314/i1647242748_3578_8.jpg"],"created_at":"2024-11-11T10:33:53.428Z"},{"id":"item-2331d345715a","sku":"_d8k8k2gFaRPFTW4VmlOySaw-zl7L8saaD__Hv3g","name_en":"Fendi Women Bags","name_cn":"。老花\n新尺寸小号praphy腋下包,以月牙造型为特色,把经典金属大Logo[FEND1]装饰在包包底部,包包的轮廓很贴切身体的线条,背在腋下的时候时尚感满满,简直就是行走的种草机!\n小号:尺寸20x7.5x13cm\n款号:8024/1","specs":{"source":"wsxcme","sourceId":"_d8k8k2gFaRPFTW4VmlOySaw-zl7L8saaD__Hv3g","sourceTagId":47002731,"sourceTagName":"芬迪/女包","modelNumber":"8024/1","dimensions":{"lengthCm":20,"heightCm":7.5,"widthCm":13},"rawTitle":"。老花\n新尺寸小号praphy腋下包,以月牙造型为特色,把经典金属大Logo[FEND1]装饰在包包底部,包包的轮廓很贴切身体的线条,背在腋下的时候时尚感满满,简直就是行走的种草机!\n小号:尺寸20x7.5x13cm\n款号:8024/1"},"price":null,"currency":"CNY","moq":1,"category":"fendi-women-bags","status":"active","alibaba_url":null,"images":["https://xcimg.szwego.com/img/8655f6f1/20250102/i1735804129200_1830_0_0.jpg","https://xcimg.szwego.com/img/8655f6f1/20250102/i1735804129200_1270_0_1.jpg","https://xcimg.szwego.com/img/8655f6f1/20250102/i1735804129200_326_0_2.jpg","https://xcimg.szwego.com/img/8655f6f1/20250102/i1735804129200_8855_0_3.jpg","https://xcimg.szwego.com/img/8655f6f1/20250102/i1735804129200_8947_0_4.jpg","https://xcimg.szwego.com/img/8655f6f1/20250102/i1735804129200_7281_0_5.jpg","https://xcimg.szwego.com/img/8655f6f1/20250102/i1735804129200_6308_0_6.jpg","https://xcimg.szwego.com/img/8655f6f1/20250102/i1735804129200_3558_0_7.jpg","https://xcimg.szwego.com/img/8655f6f1/20250102/i1735804129200_6821_0_8.jpg"],"created_at":"2025-02-10T14:02:44.851Z"}],"page":13,"pageSize":24,"total":348,"totalPages":15}
