{"items":[{"id":"item-99b93e6b713c","sku":"_dslsl55qauZ8WtAzR4fVh6E-d2mXSznW8q9j0-w","name_en":"FENDI最新半月型🌙腋下包领先出货!FENDI O’Lock包在皮具世界首次亮相.FENDI以90年代为灵感,采用简约时的剪裁,拥有完美的臂下姿态,这是当下最潮的趋势!","name_cn":"FENDI最新半月型🌙腋下包领先出货!FENDI O’Lock包在皮具世界首次亮相.FENDI以90年代为灵感,采用简约时的剪裁,拥有完美的臂下姿态,这是当下最潮的趋势!\n采用牛皮材质,原版五金,拉链开合,饰有金色金属FendiRoma字唛,容量可以放下仙女🧚日常出门必备品,配有手提肩带:一条可拆卸全皮手提肩带,另一条饰有金属大号O\"ock标志的瑄壳效果有机玻璃链条装饰提手,可手提或腋下背!\n型号:329#          尺寸:32X11X5C\n188021","specs":{"source":"wsxcme","sourceId":"_dslsl55qauZ8WtAzR4fVh6E-d2mXSznW8q9j0-w","sourceTagId":47002731,"sourceTagName":"芬迪/女包","modelNumber":"329#          尺寸:32X11X5C","rawTitle":"FENDI最新半月型🌙腋下包领先出货!FENDI O’Lock包在皮具世界首次亮相.FENDI以90年代为灵感,采用简约时的剪裁,拥有完美的臂下姿态,这是当下最潮的趋势!\n采用牛皮材质,原版五金,拉链开合,饰有金色金属FendiRoma字唛,容量可以放下仙女🧚日常出门必备品,配有手提肩带:一条可拆卸全皮手提肩带,另一条饰有金属大号O\"ock标志的瑄壳效果有机玻璃链条装饰提手,可手提或腋下背!\n型号:329#          尺寸:32X11X5C\n188021"},"price":null,"currency":"CNY","moq":1,"category":"fendi-women-bags","status":"active","alibaba_url":null,"images":["https://xcimg.szwego.com/20220801/i1659285779_5973_0.jpg","https://xcimg.szwego.com/20220801/i1659285779_9153_1.jpg","https://xcimg.szwego.com/20220801/i1659285779_9497_2.jpg","https://xcimg.szwego.com/20220801/i1659285779_4271_3.jpg","https://xcimg.szwego.com/20220801/i1659285779_2065_4.jpg","https://xcimg.szwego.com/20220801/i1659285779_4452_5.jpg","https://xcimg.szwego.com/20220801/i1659285779_1265_6.jpg","https://xcimg.szwego.com/20220801/i1659285779_2588_7.jpg","https://xcimg.szwego.com/20220801/i1659285779_6583_8.jpg"],"created_at":"2025-02-10T14:02:44.846Z"},{"id":"item-8f010e09aa3d","sku":"_dvtvt49jjFaI9Oo8SpuPGX6JllpSJu1_7LrODpQ","name_en":"FENDI最新半月型🌙腋下包领先出货!FENDI O’Lock包在皮具世界首次亮相.FENDI以90年代为灵感,采用简约时的剪裁,拥有完美的臂下姿态,这是当下最潮的趋势!","name_cn":"FENDI最新半月型🌙腋下包领先出货!FENDI O’Lock包在皮具世界首次亮相.FENDI以90年代为灵感,采用简约时的剪裁,拥有完美的臂下姿态,这是当下最潮的趋势!\n采用牛皮材质,原版五金,拉链开合,饰有金色金属FendiRoma字唛,容量可以放下仙女🧚日常出门必备品,配有手提肩带:一条可拆卸全皮手提肩带,另一条饰有金属大号O\"ock标志的瑄壳效果有机玻璃链条装饰提手,可手提或腋下背!\n型号:329#          尺寸:32X11X5CM\n188021","specs":{"source":"wsxcme","sourceId":"_dvtvt49jjFaI9Oo8SpuPGX6JllpSJu1_7LrODpQ","sourceTagId":47002731,"sourceTagName":"芬迪/女包","modelNumber":"329#          尺寸:32X11X5CM","dimensions":{"lengthCm":32,"heightCm":11,"widthCm":5},"rawTitle":"FENDI最新半月型🌙腋下包领先出货!FENDI O’Lock包在皮具世界首次亮相.FENDI以90年代为灵感,采用简约时的剪裁,拥有完美的臂下姿态,这是当下最潮的趋势!\n采用牛皮材质,原版五金,拉链开合,饰有金色金属FendiRoma字唛,容量可以放下仙女🧚日常出门必备品,配有手提肩带:一条可拆卸全皮手提肩带,另一条饰有金属大号O\"ock标志的瑄壳效果有机玻璃链条装饰提手,可手提或腋下背!\n型号:329#          尺寸:32X11X5CM\n188021"},"price":null,"currency":"CNY","moq":1,"category":"fendi-women-bags","status":"active","alibaba_url":null,"images":["https://xcimg.szwego.com/20220801/i1659285748_1508_0.jpg","https://xcimg.szwego.com/20220801/i1659285748_1685_1.jpg","https://xcimg.szwego.com/20220801/i1659285748_7345_2.jpg","https://xcimg.szwego.com/20220801/i1659285748_1541_3.jpg","https://xcimg.szwego.com/20220801/i1659285748_175_4.jpg","https://xcimg.szwego.com/20220801/i1659285748_6538_5.jpg","https://xcimg.szwego.com/20220801/i1659285748_4545_6.jpg","https://xcimg.szwego.com/20220801/i1659285748_9883_7.jpg","https://xcimg.szwego.com/20220801/i1659285748_7933_8.jpg"],"created_at":"2025-02-10T14:02:44.847Z"},{"id":"item-5a294aaa8581","sku":"_d_P_PhFEweKq6MULV-1haxXMvNV0t6gZQHWVpjg","name_en":"FENDI最新半月型🌙腋下包领先出货!FENDI O’Lock包在皮具世界首次亮相.FENDI以90年代为灵感,采用简约时的剪裁,拥有完美的臂下姿态,这是当下最潮的趋势!","name_cn":"FENDI最新半月型🌙腋下包领先出货!FENDI O’Lock包在皮具世界首次亮相.FENDI以90年代为灵感,采用简约时的剪裁,拥有完美的臂下姿态,这是当下最潮的趋势!\n采用牛皮材质,原版五金,拉链开合,饰有金色金属FendiRoma字唛,容量可以放下仙女🧚日常出门必备品,配有手提肩带:一条可拆卸全皮手提肩带,另一条饰有金属大号O\"ock标志的瑄壳效果有机玻璃链条装饰提手,可手提或腋下背!\n型号:329#          尺寸:32X11X5C\n188021","specs":{"source":"wsxcme","sourceId":"_d_P_PhFEweKq6MULV-1haxXMvNV0t6gZQHWVpjg","sourceTagId":47002731,"sourceTagName":"芬迪/女包","modelNumber":"329#          尺寸:32X11X5C","rawTitle":"FENDI最新半月型🌙腋下包领先出货!FENDI O’Lock包在皮具世界首次亮相.FENDI以90年代为灵感,采用简约时的剪裁,拥有完美的臂下姿态,这是当下最潮的趋势!\n采用牛皮材质,原版五金,拉链开合,饰有金色金属FendiRoma字唛,容量可以放下仙女🧚日常出门必备品,配有手提肩带:一条可拆卸全皮手提肩带,另一条饰有金属大号O\"ock标志的瑄壳效果有机玻璃链条装饰提手,可手提或腋下背!\n型号:329#          尺寸:32X11X5C\n188021"},"price":null,"currency":"CNY","moq":1,"category":"fendi-women-bags","status":"active","alibaba_url":null,"images":["https://xcimg.szwego.com/20221027/i1666803359_94_0.jpg","https://xcimg.szwego.com/20221027/i1666803359_3396_1.jpg","https://xcimg.szwego.com/20221027/i1666803359_1669_2.jpg","https://xcimg.szwego.com/20221027/i1666803359_4697_3.jpg","https://xcimg.szwego.com/20221027/i1666803359_8799_4.jpg","https://xcimg.szwego.com/20221027/i1666803359_4492_5.jpg","https://xcimg.szwego.com/20221027/i1666803359_6014_6.jpg","https://xcimg.szwego.com/20221027/i1666803359_5027_7.jpg","https://xcimg.szwego.com/20221027/i1666803359_8337_8.jpg"],"created_at":"2025-02-10T14:02:44.843Z"},{"id":"item-095ed45aeab7","sku":"_dbWbWn43MyUqGieFCwU9OkAAdw-e6Sb5fyr5i6w","name_en":"FENDI最新半月型🌙腋下包领先出货!FENDI O’Lock包在皮具世界首次亮相.FENDI以90年代为灵感,采用简约时的剪裁,拥有完美的臂下姿态,这是当下最潮的趋势!","name_cn":"FENDI最新半月型🌙腋下包领先出货!FENDI O’Lock包在皮具世界首次亮相.FENDI以90年代为灵感,采用简约时的剪裁,拥有完美的臂下姿态,这是当下最潮的趋势!\n采用牛皮材质,原版五金,拉链开合,饰有金色金属FendiRoma字唛,容量可以放下仙女🧚日常出门必备品,配有手提肩带:一条可拆卸全皮手提肩带,另一条饰有金属大号O\"ock标志的瑄壳效果有机玻璃链条装饰提手,可手提或腋下背!\n型号:329#          尺寸:32X11X5CM\n188021","specs":{"source":"wsxcme","sourceId":"_dbWbWn43MyUqGieFCwU9OkAAdw-e6Sb5fyr5i6w","sourceTagId":47002731,"sourceTagName":"芬迪/女包","modelNumber":"329#          尺寸:32X11X5CM","dimensions":{"lengthCm":32,"heightCm":11,"widthCm":5},"rawTitle":"FENDI最新半月型🌙腋下包领先出货!FENDI O’Lock包在皮具世界首次亮相.FENDI以90年代为灵感,采用简约时的剪裁,拥有完美的臂下姿态,这是当下最潮的趋势!\n采用牛皮材质,原版五金,拉链开合,饰有金色金属FendiRoma字唛,容量可以放下仙女🧚日常出门必备品,配有手提肩带:一条可拆卸全皮手提肩带,另一条饰有金属大号O\"ock标志的瑄壳效果有机玻璃链条装饰提手,可手提或腋下背!\n型号:329#          尺寸:32X11X5CM\n188021"},"price":null,"currency":"CNY","moq":1,"category":"fendi-women-bags","status":"active","alibaba_url":null,"images":["https://xcimg.szwego.com/20220823/i1661246898_7119_0.jpg","https://xcimg.szwego.com/20220823/i1661246898_953_1.jpg","https://xcimg.szwego.com/20220823/i1661246898_9296_2.jpg","https://xcimg.szwego.com/20220823/i1661246898_5667_3.jpg","https://xcimg.szwego.com/20220823/i1661246898_420_4.jpg","https://xcimg.szwego.com/20220823/i1661246898_8926_5.jpg","https://xcimg.szwego.com/20220823/i1661246898_4248_6.jpg","https://xcimg.szwego.com/20220823/i1661246898_2013_7.jpg","https://xcimg.szwego.com/20220823/i1661246898_5169_8.jpg"],"created_at":"2025-02-10T14:02:44.845Z"},{"id":"item-1aa070a11f91","sku":"_d0303JWJmwu65dbLWoBw3o_jxQlg4bFvmLHsUdg","name_en":"🆕新款Fendi Kan l 黑色🐂牛皮配磨卡色FF压花 配以2⃣️条肩带尺寸8BN230 25x18x10.5","name_cn":"🆕新款Fendi Kan l 黑色🐂牛皮配磨卡色FF压花 配以2⃣️条肩带尺寸8BN230 25x18x10.5","specs":{"source":"wsxcme","sourceId":"_d0303JWJmwu65dbLWoBw3o_jxQlg4bFvmLHsUdg","sourceTagId":47002731,"sourceTagName":"芬迪/女包","rawTitle":"🆕新款Fendi Kan l 黑色🐂牛皮配磨卡色FF压花 配以2⃣️条肩带尺寸8BN230 25x18x10.5"},"price":null,"currency":"CNY","moq":1,"category":"fendi-women-bags","status":"active","alibaba_url":null,"images":["https://xcimg.szwego.com/img/77125233/20240422/i1713773743_7045_5.jpg","https://xcimg.szwego.com/img/77125233/20240422/i1713773742_2066_1.jpg","https://xcimg.szwego.com/img/77125233/20240422/i1713773742_9943_0.jpg","https://xcimg.szwego.com/img/77125233/20240422/i1713773743_7059_4.jpg","https://xcimg.szwego.com/img/77125233/20240422/i1713773742_7022_2.jpg","https://xcimg.szwego.com/img/77125233/20240422/i1713773743_7427_8.jpg","https://xcimg.szwego.com/img/77125233/20240422/i1713773743_4629_7.jpg","https://xcimg.szwego.com/img/77125233/20240422/i1713773742_6529_3.jpg","https://xcimg.szwego.com/img/77125233/20240422/i1713773743_9141_6.jpg"],"created_at":"2024-11-11T10:33:53.494Z"},{"id":"item-3a45ef82c58d","sku":"_dCjCjz3EHQ5gOh9ABxbh1-WvqitUEL8D7Zfk2XQ","name_en":"Peekaboo 白色","name_cn":"Peekaboo 白色\n\n\n80011","specs":{"source":"wsxcme","sourceId":"_dCjCjz3EHQ5gOh9ABxbh1-WvqitUEL8D7Zfk2XQ","sourceTagId":47002731,"sourceTagName":"芬迪/女包","rawTitle":"Peekaboo 白色\n\n\n80011"},"price":null,"currency":"CNY","moq":1,"category":"fendi-women-bags","status":"active","alibaba_url":null,"images":["https://xcimg.szwego.com/20250426/i1745640481_778_0.jpg","https://xcimg.szwego.com/20250426/i1745640481_3168_1.jpg","https://xcimg.szwego.com/20250426/i1745640481_2406_2.jpg","https://xcimg.szwego.com/20250426/i1745640481_2144_3.jpg","https://xcimg.szwego.com/20250426/i1745640481_5768_4.jpg"],"created_at":"2026-06-29T10:22:08.782Z"},{"id":"item-454247b700be","sku":"_dnBnBi6Tlrz9XtuARSK0KcWC7nNnTnzqX4-yNow","name_en":"Sunshine迷你手提袋,布料材质,全幅饰有FF图案提花刺绣,饰透明亮片。黑色皮革FENDI ROMA字样和玳瑁壳效果硬质树脂玻璃手柄。带衬里内部隔层,黑色皮革边缘和金色金属件。采用两个提手和可调节可拆式细肩带,既可手提,又可肩挎。","name_cn":"Sunshine迷你手提袋,布料材质,全幅饰有FF图案提花刺绣,饰透明亮片。黑色皮革FENDI ROMA字样和玳瑁壳效果硬质树脂玻璃手柄。带衬里内部隔层,黑色皮革边缘和金色金属件。采用两个提手和可调节可拆式细肩带,既可手提,又可肩挎。\n尺寸13/6.5/18cm","specs":{"source":"wsxcme","sourceId":"_dnBnBi6Tlrz9XtuARSK0KcWC7nNnTnzqX4-yNow","sourceTagId":47002731,"sourceTagName":"芬迪/女包","rawTitle":"Sunshine迷你手提袋,布料材质,全幅饰有FF图案提花刺绣,饰透明亮片。黑色皮革FENDI ROMA字样和玳瑁壳效果硬质树脂玻璃手柄。带衬里内部隔层,黑色皮革边缘和金色金属件。采用两个提手和可调节可拆式细肩带,既可手提,又可肩挎。\n尺寸13/6.5/18cm"},"price":null,"currency":"CNY","moq":1,"category":"fendi-women-bags","status":"active","alibaba_url":null,"images":["https://xcimg.szwego.com/img/83ff7af0/20230930/i1696049947_5038_0.jpg","https://xcimg.szwego.com/img/83ff7af0/20230930/i1696049947_4233_1.jpg","https://xcimg.szwego.com/img/83ff7af0/20230930/i1696049947_8391_2.jpg","https://xcimg.szwego.com/img/83ff7af0/20230930/i1696049947_8635_3.jpg","https://xcimg.szwego.com/img/83ff7af0/20230930/i1696049947_2721_4.jpg","https://xcimg.szwego.com/img/83ff7af0/20230930/i1696049947_5057_5.jpg","https://xcimg.szwego.com/img/83ff7af0/20230930/i1696049947_8699_6.jpg","https://xcimg.szwego.com/img/83ff7af0/20230930/i1696049947_9234_7.jpg"],"created_at":"2024-11-11T10:33:53.493Z"},{"id":"item-b18565bbdee4","sku":"_dqZqZZptmlE2JYaGlKbMKkg8mg_wbFS9D3cQ80g","name_en":"Sunshine小号手提袋,布料材质,饰有FF图案提花,沙石色FEND1 ROMA皮质字样。沙石色有机玻璃硬质手柄。设有宽敞的带内衬内部隔层,沙石色皮革边缘和金色金属件。配备两个提手和可拆卸肩带,可手提或肩挎。款号 8042 尺寸16.5*5*17cm","name_cn":"Sunshine小号手提袋,布料材质,饰有FF图案提花,沙石色FEND1 ROMA皮质字样。沙石色有机玻璃硬质手柄。设有宽敞的带内衬内部隔层,沙石色皮革边缘和金色金属件。配备两个提手和可拆卸肩带,可手提或肩挎。款号 8042 尺寸16.5*5*17cm","specs":{"source":"wsxcme","sourceId":"_dqZqZZptmlE2JYaGlKbMKkg8mg_wbFS9D3cQ80g","sourceTagId":47002731,"sourceTagName":"芬迪/女包","modelNumber":"8042 尺寸16.5*5*17cm","dimensions":{"lengthCm":16.5,"heightCm":5,"widthCm":17},"rawTitle":"Sunshine小号手提袋,布料材质,饰有FF图案提花,沙石色FEND1 ROMA皮质字样。沙石色有机玻璃硬质手柄。设有宽敞的带内衬内部隔层,沙石色皮革边缘和金色金属件。配备两个提手和可拆卸肩带,可手提或肩挎。款号 8042 尺寸16.5*5*17cm"},"price":null,"currency":"CNY","moq":1,"category":"fendi-women-bags","status":"active","alibaba_url":null,"images":["https://xcimg.szwego.com/img/8655f6f1/20250314/i1741932487392_9839_0_0.jpg","https://xcimg.szwego.com/img/8655f6f1/20250314/i1741932487315_414_0_1.jpg","https://xcimg.szwego.com/img/8655f6f1/20250314/i1741932487377_8219_0_2.jpg","https://xcimg.szwego.com/img/8655f6f1/20250314/i1741932487471_1073_0_3.jpg","https://xcimg.szwego.com/img/8655f6f1/20250314/i1741932483215_3418_0_4.jpg","https://xcimg.szwego.com/img/8655f6f1/20250314/i1741932483072_4270_0_5.jpg","https://xcimg.szwego.com/img/8655f6f1/20250314/i1741932483234_6466_0_6.jpg","https://xcimg.szwego.com/img/8655f6f1/20250314/i1741932483177_2599_0_7.jpg","https://xcimg.szwego.com/img/8655f6f1/20250314/i1741932483057_2483_0_8.jpg"],"created_at":"2025-03-16T12:55:23.775Z"},{"id":"item-bedccda70a19","sku":"_dvyvytPNVUHDgSgMRhp3t1vgM6G60xWKB2qW71A","name_en":"Sunshine小号手提袋,整包牛皮,采用玳瑁壳效果硬质树脂玻璃手柄。设有宽敞的带内衬内部隔层,同色系皮革边缘和金色金属件。配备两个提手和可拆卸肩带,可手提或肩挎。款号:7122,","name_cn":"Sunshine小号手提袋,整包牛皮,采用玳瑁壳效果硬质树脂玻璃手柄。设有宽敞的带内衬内部隔层,同色系皮革边缘和金色金属件。配备两个提手和可拆卸肩带,可手提或肩挎。款号:7122,\n尺寸22.5-12-22.5\n188023","specs":{"source":"wsxcme","sourceId":"_dvyvytPNVUHDgSgMRhp3t1vgM6G60xWKB2qW71A","sourceTagId":47002731,"sourceTagName":"芬迪/女包","modelNumber":"7122","rawTitle":"Sunshine小号手提袋,整包牛皮,采用玳瑁壳效果硬质树脂玻璃手柄。设有宽敞的带内衬内部隔层,同色系皮革边缘和金色金属件。配备两个提手和可拆卸肩带,可手提或肩挎。款号:7122,\n尺寸22.5-12-22.5\n188023"},"price":null,"currency":"CNY","moq":1,"category":"fendi-women-bags","status":"active","alibaba_url":null,"images":["https://xcimg.szwego.com/20230516/i1684175784_7686_0.jpg","https://xcimg.szwego.com/20230516/i1684175784_4667_1.jpg","https://xcimg.szwego.com/20230516/i1684175784_9516_2.jpg","https://xcimg.szwego.com/20230516/i1684175784_8807_3.jpg","https://xcimg.szwego.com/20230516/i1684175784_3152_4.jpg","https://xcimg.szwego.com/20230516/i1684175784_9652_5.jpg","https://xcimg.szwego.com/20230516/i1684175784_2350_6.jpg","https://xcimg.szwego.com/20230516/i1684175784_8343_7.jpg","https://xcimg.szwego.com/20230516/i1684175784_3864_8.jpg"],"created_at":"2025-02-10T14:02:44.831Z"},{"id":"item-bd102a38f73e","sku":"_dm7m709i_eWus7KZ28zBKyxlijPLszU5vin90tg","name_en":"Sunshine小号手提袋,整包牛皮,采用玳瑁壳效果硬质树脂玻璃手柄。设有宽敞的带内衬内部隔层,同色系皮革边缘和金色金属件。配备两个提手和可拆卸肩带,可手提或肩挎。款号:7122,","name_cn":"Sunshine小号手提袋,整包牛皮,采用玳瑁壳效果硬质树脂玻璃手柄。设有宽敞的带内衬内部隔层,同色系皮革边缘和金色金属件。配备两个提手和可拆卸肩带,可手提或肩挎。款号:7122,\n尺寸22.5-12-22.5\n188023","specs":{"source":"wsxcme","sourceId":"_dm7m709i_eWus7KZ28zBKyxlijPLszU5vin90tg","sourceTagId":47002731,"sourceTagName":"芬迪/女包","modelNumber":"7122","rawTitle":"Sunshine小号手提袋,整包牛皮,采用玳瑁壳效果硬质树脂玻璃手柄。设有宽敞的带内衬内部隔层,同色系皮革边缘和金色金属件。配备两个提手和可拆卸肩带,可手提或肩挎。款号:7122,\n尺寸22.5-12-22.5\n188023"},"price":null,"currency":"CNY","moq":1,"category":"fendi-women-bags","status":"active","alibaba_url":null,"images":["https://xcimg.szwego.com/20230516/i1684175805_7152_0.jpg","https://xcimg.szwego.com/20230516/i1684175805_5171_1.jpg","https://xcimg.szwego.com/20230516/i1684175805_1160_2.jpg","https://xcimg.szwego.com/20230516/i1684175805_8442_3.jpg","https://xcimg.szwego.com/20230516/i1684175805_4111_4.jpg","https://xcimg.szwego.com/20230516/i1684175805_4750_5.jpg","https://xcimg.szwego.com/20230516/i1684175805_7393_6.jpg","https://xcimg.szwego.com/20230516/i1684175805_6159_7.jpg","https://xcimg.szwego.com/20230516/i1684175805_1787_8.jpg"],"created_at":"2025-02-10T14:02:44.830Z"},{"id":"item-a156333ce9a2","sku":"_dw_w_FyUHNEfNrAe7tTGYfBCp7-ewnDFv7bwUqA","name_en":"Sunshine小号手提袋,整包牛皮,采用玳瑁壳效果硬质树脂玻璃手柄。设有宽敞的带内衬内部隔层,同色系皮革边缘和金色金属件。配备两个提手和可拆卸肩带,可手提或肩挎。款号:7122,","name_cn":"Sunshine小号手提袋,整包牛皮,采用玳瑁壳效果硬质树脂玻璃手柄。设有宽敞的带内衬内部隔层,同色系皮革边缘和金色金属件。配备两个提手和可拆卸肩带,可手提或肩挎。款号:7122,\n尺寸22.5-12-22.5\n188023","specs":{"source":"wsxcme","sourceId":"_dw_w_FyUHNEfNrAe7tTGYfBCp7-ewnDFv7bwUqA","sourceTagId":47002731,"sourceTagName":"芬迪/女包","modelNumber":"7122","rawTitle":"Sunshine小号手提袋,整包牛皮,采用玳瑁壳效果硬质树脂玻璃手柄。设有宽敞的带内衬内部隔层,同色系皮革边缘和金色金属件。配备两个提手和可拆卸肩带,可手提或肩挎。款号:7122,\n尺寸22.5-12-22.5\n188023"},"price":null,"currency":"CNY","moq":1,"category":"fendi-women-bags","status":"active","alibaba_url":null,"images":["https://xcimg.szwego.com/20230516/i1684175717_5787_0.jpg","https://xcimg.szwego.com/20230516/i1684175717_1930_1.jpg","https://xcimg.szwego.com/20230516/i1684175717_2747_2.jpg","https://xcimg.szwego.com/20230516/i1684175717_3788_3.jpg","https://xcimg.szwego.com/20230516/i1684175717_2878_4.jpg","https://xcimg.szwego.com/20230516/i1684175717_3060_5.jpg","https://xcimg.szwego.com/20230516/i1684175717_7230_6.jpg","https://xcimg.szwego.com/20230516/i1684175717_2198_7.jpg","https://xcimg.szwego.com/20230516/i1684175717_1813_8.jpg"],"created_at":"2025-02-10T14:02:44.832Z"},{"id":"item-2638b57f96fb","sku":"_dsMsM5W-KeCXzHs5JJmJmBA2oLU-H1dS27v20rw","name_en":"Sunshine小号手提袋,整包牛皮,采用玳瑁壳效果硬质树脂玻璃手柄。设有宽敞的带内衬内部隔层,同色系皮革边缘和金色金属件。配备两个提手和可拆卸肩带,可手提或肩挎。款号:7122,","name_cn":"Sunshine小号手提袋,整包牛皮,采用玳瑁壳效果硬质树脂玻璃手柄。设有宽敞的带内衬内部隔层,同色系皮革边缘和金色金属件。配备两个提手和可拆卸肩带,可手提或肩挎。款号:7122,\n尺寸22.5-12-22.5\n188023","specs":{"source":"wsxcme","sourceId":"_dsMsM5W-KeCXzHs5JJmJmBA2oLU-H1dS27v20rw","sourceTagId":47002731,"sourceTagName":"芬迪/女包","modelNumber":"7122","rawTitle":"Sunshine小号手提袋,整包牛皮,采用玳瑁壳效果硬质树脂玻璃手柄。设有宽敞的带内衬内部隔层,同色系皮革边缘和金色金属件。配备两个提手和可拆卸肩带,可手提或肩挎。款号:7122,\n尺寸22.5-12-22.5\n188023"},"price":null,"currency":"CNY","moq":1,"category":"fendi-women-bags","status":"active","alibaba_url":null,"images":["https://xcimg.szwego.com/20230516/i1684175851_7346_0.jpg","https://xcimg.szwego.com/20230516/i1684175851_4021_1.jpg","https://xcimg.szwego.com/20230516/i1684175851_877_2.jpg","https://xcimg.szwego.com/20230516/i1684175851_950_3.jpg","https://xcimg.szwego.com/20230516/i1684175851_2689_4.jpg","https://xcimg.szwego.com/20230516/i1684175851_9248_5.jpg","https://xcimg.szwego.com/20230516/i1684175851_3775_6.jpg","https://xcimg.szwego.com/20230516/i1684175851_6782_7.jpg","https://xcimg.szwego.com/20230516/i1684175851_1354_8.jpg"],"created_at":"2025-02-10T14:02:44.829Z"}],"page":15,"pageSize":24,"total":348,"totalPages":15}
