{"items":[{"id":"item-d95333faf4a7","sku":"_ddpdpgWKpygE8_AxwC6Vc35bR85uBV-FrK7W_Yg","name_en":"半手工蜜蜡缝线 原厂皮 客定定做款❤️  可 ☄️25cm/28cm","name_cn":"半手工蜜蜡缝线 原厂皮 客定定做款❤️  可 ☄️25cm/28cm\n💫Dream bag~Kelly epsom 掌纹\n✨63杏仁绿 生活那么难总要对自己好点❤️","specs":{"source":"wsxcme","sourceId":"_ddpdpgWKpygE8_AxwC6Vc35bR85uBV-FrK7W_Yg","sourceTagId":76963559,"sourceTagName":"爱马仕/女包","rawTitle":"半手工蜜蜡缝线 原厂皮 客定定做款❤️  可 ☄️25cm/28cm\n💫Dream bag~Kelly epsom 掌纹\n✨63杏仁绿 生活那么难总要对自己好点❤️"},"price":null,"currency":"CNY","moq":1,"category":"hermes-women-bags","status":"active","alibaba_url":null,"images":["https://xcimg.szwego.com/20210801/i1627800442_2814_0.jpg","https://xcimg.szwego.com/20210801/i1627800442_4539_1.jpg","https://xcimg.szwego.com/20210801/i1627800442_7383_2.jpg","https://xcimg.szwego.com/20210801/i1627800442_2265_3.jpg","https://xcimg.szwego.com/20210801/i1627800442_9832_4.jpg","https://xcimg.szwego.com/20210801/i1627800442_9962_5.jpg","https://xcimg.szwego.com/20210801/i1627800442_3022_6.jpg","https://xcimg.szwego.com/20210801/i1627800442_8588_7.jpg","https://xcimg.szwego.com/20210801/i1627800442_3843_8.jpg"],"created_at":"2026-06-29T12:59:35.904Z"},{"id":"item-89979178fffc","sku":"_dksksCdYY9vl2M3KkKbSXtYhSIHvThjxVUbJqaQ","name_en":"半手工蜜蜡缝线 原厂皮 客定定做款❤️  可 ☄️25cm/28cm","name_cn":"半手工蜜蜡缝线 原厂皮 客定定做款❤️  可 ☄️25cm/28cm\n💫Dream bag~Kelly epsom 掌纹\n✨8F锡器灰❤️","specs":{"source":"wsxcme","sourceId":"_dksksCdYY9vl2M3KkKbSXtYhSIHvThjxVUbJqaQ","sourceTagId":76963559,"sourceTagName":"爱马仕/女包","rawTitle":"半手工蜜蜡缝线 原厂皮 客定定做款❤️  可 ☄️25cm/28cm\n💫Dream bag~Kelly epsom 掌纹\n✨8F锡器灰❤️"},"price":null,"currency":"CNY","moq":1,"category":"hermes-women-bags","status":"active","alibaba_url":null,"images":["https://xcimg.szwego.com/20210801/i1627802978_8102_0.jpg","https://xcimg.szwego.com/20210801/i1627802978_685_1.jpg","https://xcimg.szwego.com/20210801/i1627802978_2947_2.jpg","https://xcimg.szwego.com/20210801/i1627802978_9732_3.jpg","https://xcimg.szwego.com/20210801/i1627802978_3877_4.jpg","https://xcimg.szwego.com/20210801/i1627802978_9711_5.jpg","https://xcimg.szwego.com/20210801/i1627802978_9292_6.jpg"],"created_at":"2026-06-29T12:59:35.944Z"},{"id":"item-79b0e0eb4913","sku":"_dpxpxCie5Tn6v5LPQ8Dc2PUtgvs2bZ59BnLfWwQ","name_en":"半手工蜜蜡缝线 原厂皮 客定定做款❤️  可 ☄️25cm/28cm","name_cn":"半手工蜜蜡缝线 原厂皮 客定定做款❤️  可 ☄️25cm/28cm\n💫Dream bag~Kelly epsom 掌纹\n✨宝石红 夏天也难以抑制躁动的心❤️❤️","specs":{"source":"wsxcme","sourceId":"_dpxpxCie5Tn6v5LPQ8Dc2PUtgvs2bZ59BnLfWwQ","sourceTagId":76963559,"sourceTagName":"爱马仕/女包","rawTitle":"半手工蜜蜡缝线 原厂皮 客定定做款❤️  可 ☄️25cm/28cm\n💫Dream bag~Kelly epsom 掌纹\n✨宝石红 夏天也难以抑制躁动的心❤️❤️"},"price":null,"currency":"CNY","moq":1,"category":"hermes-women-bags","status":"active","alibaba_url":null,"images":["https://xcimg.szwego.com/20210801/i1627801890_7482_0.jpg","https://xcimg.szwego.com/20210801/i1627801890_3748_1.jpg","https://xcimg.szwego.com/20210801/i1627801890_8358_2.jpg","https://xcimg.szwego.com/20210801/i1627801890_982_3.jpg","https://xcimg.szwego.com/20210801/i1627801890_9101_4.jpg","https://xcimg.szwego.com/20210801/i1627801890_7966_5.jpg","https://xcimg.szwego.com/20210801/i1627801890_1271_6.jpg","https://xcimg.szwego.com/20210801/i1627801890_3147_7.jpg","https://xcimg.szwego.com/20210801/i1627801890_389_8.jpg"],"created_at":"2026-06-29T12:59:35.924Z"},{"id":"item-3b7c36700950","sku":"_dcHcHAax6LXNJBhF79zG_IBeP-3Opv895BLi-Lg","name_en":"半手工蜜蜡缝线 原厂皮 客定定做款❤️  可 ☄️25cm/28cm","name_cn":"半手工蜜蜡缝线 原厂皮 客定定做款❤️  可 ☄️25cm/28cm\n💫Dream bag~Kelly epsom 掌纹\n✨牛仔蓝 极简即是美❤️","specs":{"source":"wsxcme","sourceId":"_dcHcHAax6LXNJBhF79zG_IBeP-3Opv895BLi-Lg","sourceTagId":76963559,"sourceTagName":"爱马仕/女包","rawTitle":"半手工蜜蜡缝线 原厂皮 客定定做款❤️  可 ☄️25cm/28cm\n💫Dream bag~Kelly epsom 掌纹\n✨牛仔蓝 极简即是美❤️"},"price":null,"currency":"CNY","moq":1,"category":"hermes-women-bags","status":"active","alibaba_url":null,"images":["https://xcimg.szwego.com/20210801/i1627800823_6648_0.jpg","https://xcimg.szwego.com/20210801/i1627800823_9928_1.jpg","https://xcimg.szwego.com/20210801/i1627800823_7210_2.jpg","https://xcimg.szwego.com/20210801/i1627800823_4891_3.jpg","https://xcimg.szwego.com/20210801/i1627800823_6541_4.jpg","https://xcimg.szwego.com/20210801/i1627800823_6716_5.jpg","https://xcimg.szwego.com/20210801/i1627800823_4922_6.jpg","https://xcimg.szwego.com/20210801/i1627800823_2684_7.jpg","https://xcimg.szwego.com/20210801/i1627800823_9461_8.jpg"],"created_at":"2026-06-29T12:59:35.914Z"},{"id":"item-3888ba661142","sku":"_diLiLV6FZMN6Y4QBgoQZY46awWGGTRgYTN22Jjw","name_en":"半手工蜜蜡缝线 原厂皮 客定定做款❤️  可 Kelly 25 Epsom 比togo纹理小一些,硬一些,包身更加力挺🌟❤️","name_cn":"半手工蜜蜡缝线 原厂皮 客定定做款❤️  可 Kelly 25 Epsom 比togo纹理小一些,硬一些,包身更加力挺🌟❤️","specs":{"source":"wsxcme","sourceId":"_diLiLV6FZMN6Y4QBgoQZY46awWGGTRgYTN22Jjw","sourceTagId":76963559,"sourceTagName":"爱马仕/女包","rawTitle":"半手工蜜蜡缝线 原厂皮 客定定做款❤️  可 Kelly 25 Epsom 比togo纹理小一些,硬一些,包身更加力挺🌟❤️"},"price":null,"currency":"CNY","moq":1,"category":"hermes-women-bags","status":"active","alibaba_url":null,"images":["https://xcimg.szwego.com/20201128/i1606557013_780_0.jpg","https://xcimg.szwego.com/20201128/i1606557013_6999_1.jpg","https://xcimg.szwego.com/20201128/i1606557013_9980_2.jpg","https://xcimg.szwego.com/20201128/i1606557013_8013_3.jpg","https://xcimg.szwego.com/20201128/i1606557013_627_4.jpg","https://xcimg.szwego.com/20201128/i1606557013_4343_5.jpg","https://xcimg.szwego.com/20201128/i1606557013_2227_6.jpg","https://xcimg.szwego.com/20201128/i1606557013_9915_7.jpg","https://xcimg.szwego.com/20201128/i1606557013_1269_8.jpg"],"created_at":"2026-06-29T12:59:35.954Z"},{"id":"item-92ef83572022","sku":"_dflflfvaTj2MmQwop2JnkRNKPGqT6yAz1i_-zrA","name_en":"半手工蜜蜡缝线 原厂皮 客定定做款❤️  可 Kelly 25cm 63杏仁绿  金扣 ❤️ 原厂Epsom皮 手工蜡线~❤️","name_cn":"半手工蜜蜡缝线 原厂皮 客定定做款❤️  可 Kelly 25cm 63杏仁绿  金扣 ❤️ 原厂Epsom皮 手工蜡线~❤️","specs":{"source":"wsxcme","sourceId":"_dflflfvaTj2MmQwop2JnkRNKPGqT6yAz1i_-zrA","sourceTagId":76963559,"sourceTagName":"爱马仕/女包","rawTitle":"半手工蜜蜡缝线 原厂皮 客定定做款❤️  可 Kelly 25cm 63杏仁绿  金扣 ❤️ 原厂Epsom皮 手工蜡线~❤️"},"price":null,"currency":"CNY","moq":1,"category":"hermes-women-bags","status":"active","alibaba_url":null,"images":["https://xcimg.szwego.com/20201227/i1609050874_7243_0.jpg","https://xcimg.szwego.com/20201227/i1609050874_7232_1.jpg","https://xcimg.szwego.com/20201227/i1609050874_1596_2.jpg","https://xcimg.szwego.com/20201227/i1609050874_5518_3.jpg","https://xcimg.szwego.com/20201227/i1609050874_549_4.jpg","https://xcimg.szwego.com/20201227/i1609050874_3781_5.jpg"],"created_at":"2026-06-29T12:59:35.834Z"},{"id":"item-2b43c8dd4fa5","sku":"_dU6U6IK2ZiXhC4-Mr8dVzRcVWqqDSSMMzL6NqgQ","name_en":"半手工蜜蜡缝线 原厂皮 客定定做款❤️  可 Kelly 25cm 8F锡器灰 金银扣 ❤️ 原厂Epsom皮 手工蜡线~❤️","name_cn":"半手工蜜蜡缝线 原厂皮 客定定做款❤️  可 Kelly 25cm 8F锡器灰 金银扣 ❤️ 原厂Epsom皮 手工蜡线~❤️","specs":{"source":"wsxcme","sourceId":"_dU6U6IK2ZiXhC4-Mr8dVzRcVWqqDSSMMzL6NqgQ","sourceTagId":76963559,"sourceTagName":"爱马仕/女包","rawTitle":"半手工蜜蜡缝线 原厂皮 客定定做款❤️  可 Kelly 25cm 8F锡器灰 金银扣 ❤️ 原厂Epsom皮 手工蜡线~❤️"},"price":null,"currency":"CNY","moq":1,"category":"hermes-women-bags","status":"active","alibaba_url":null,"images":["https://xcimg.szwego.com/20210307/i1615110032_1112_0.jpg","https://xcimg.szwego.com/20210307/i1615110032_1426_1.jpg","https://xcimg.szwego.com/20210307/i1615110032_762_2.jpg","https://xcimg.szwego.com/20210307/i1615110032_3191_3.jpg","https://xcimg.szwego.com/20210307/i1615110032_1328_4.jpg"],"created_at":"2026-06-29T12:59:35.864Z"},{"id":"item-3827c1d1eaa3","sku":"_duKuK2rENxTafZIJGMSL7mFBUZY4NjUv6Qwk96g","name_en":"半手工蜜蜡缝线 原厂皮 客定定做款❤️  可 Kelly 25cm 大象灰 金银扣 ❤️ 原厂Epsom皮 手工缝制~❤️","name_cn":"半手工蜜蜡缝线 原厂皮 客定定做款❤️  可 Kelly 25cm 大象灰 金银扣 ❤️ 原厂Epsom皮 手工缝制~❤️","specs":{"source":"wsxcme","sourceId":"_duKuK2rENxTafZIJGMSL7mFBUZY4NjUv6Qwk96g","sourceTagId":76963559,"sourceTagName":"爱马仕/女包","rawTitle":"半手工蜜蜡缝线 原厂皮 客定定做款❤️  可 Kelly 25cm 大象灰 金银扣 ❤️ 原厂Epsom皮 手工缝制~❤️"},"price":null,"currency":"CNY","moq":1,"category":"hermes-women-bags","status":"active","alibaba_url":null,"images":["https://xcimg.szwego.com/20201125/i1606283706_7408_0.jpg","https://xcimg.szwego.com/20201125/i1606283706_9135_1.jpg","https://xcimg.szwego.com/20201125/i1606283706_6401_3.jpg","https://xcimg.szwego.com/20201125/i1606283706_4650_4.jpg","https://xcimg.szwego.com/20201125/i1606283706_7854_5.jpg","https://xcimg.szwego.com/20201125/i1606283706_5441_6.jpg"],"created_at":"2026-06-29T12:59:35.844Z"},{"id":"item-0a9f4b5403fa","sku":"_dbCbC_3_vrhbXXkvcFXfm-8XouLs0gCUqH_hWdw","name_en":"半手工蜜蜡缝线 原厂皮 客定定做款❤️  可 Kelly 25cm 奶昔白  银扣 ❤️ 原厂Epsom皮 手工蜡线~❤️","name_cn":"半手工蜜蜡缝线 原厂皮 客定定做款❤️  可 Kelly 25cm 奶昔白  银扣 ❤️ 原厂Epsom皮 手工蜡线~❤️","specs":{"source":"wsxcme","sourceId":"_dbCbC_3_vrhbXXkvcFXfm-8XouLs0gCUqH_hWdw","sourceTagId":76963559,"sourceTagName":"爱马仕/女包","rawTitle":"半手工蜜蜡缝线 原厂皮 客定定做款❤️  可 Kelly 25cm 奶昔白  银扣 ❤️ 原厂Epsom皮 手工蜡线~❤️"},"price":null,"currency":"CNY","moq":1,"category":"hermes-women-bags","status":"active","alibaba_url":null,"images":["https://xcimg.szwego.com/20201227/i1609050791_9715_0.jpg","https://xcimg.szwego.com/20201227/i1609050791_4643_1.jpg","https://xcimg.szwego.com/20201227/i1609050791_1163_2.jpg","https://xcimg.szwego.com/20201227/i1609050791_6287_3.jpg","https://xcimg.szwego.com/20201227/i1609050791_2803_4.jpg","https://xcimg.szwego.com/20201227/i1609050791_6799_5.jpg","https://xcimg.szwego.com/20201227/i1609050791_7202_6.jpg"],"created_at":"2026-06-29T12:59:35.824Z"},{"id":"item-f17ad74449fa","sku":"_dAyAyU8tTyReH8neE6IgQmzFJDjpNWp9L4mafzQ","name_en":"半手工蜜蜡缝线 原厂皮 客定定做款❤️  可 Kelly 25cm 奶昔粉 金扣 ❤️ 原厂Epsom皮 手工蜡线~❤️","name_cn":"半手工蜜蜡缝线 原厂皮 客定定做款❤️  可 Kelly 25cm 奶昔粉 金扣 ❤️ 原厂Epsom皮 手工蜡线~❤️","specs":{"source":"wsxcme","sourceId":"_dAyAyU8tTyReH8neE6IgQmzFJDjpNWp9L4mafzQ","sourceTagId":76963559,"sourceTagName":"爱马仕/女包","rawTitle":"半手工蜜蜡缝线 原厂皮 客定定做款❤️  可 Kelly 25cm 奶昔粉 金扣 ❤️ 原厂Epsom皮 手工蜡线~❤️"},"price":null,"currency":"CNY","moq":1,"category":"hermes-women-bags","status":"active","alibaba_url":null,"images":["https://xcimg.szwego.com/20201227/i1609050830_6583_0.jpg","https://xcimg.szwego.com/20201227/i1609050830_4715_1.jpg","https://xcimg.szwego.com/20201227/i1609050830_5886_2.jpg","https://xcimg.szwego.com/20201227/i1609050830_4961_3.jpg","https://xcimg.szwego.com/20201227/i1609050830_1837_4.jpg","https://xcimg.szwego.com/20201227/i1609050830_2558_5.jpg","https://xcimg.szwego.com/20201227/i1609050830_7684_6.jpg"],"created_at":"2026-06-29T12:59:35.804Z"},{"id":"item-e634ff2e881a","sku":"_djxjxlYqqGaIV_o89sS8j3SZEr46AtobPrifNRw","name_en":"半手工蜜蜡缝线 原厂皮 客定定做款❤️  可 Kelly 25cm C37金棕 金扣 ❤️ 原厂Epsom皮 手工蜡线~❤️","name_cn":"半手工蜜蜡缝线 原厂皮 客定定做款❤️  可 Kelly 25cm C37金棕 金扣 ❤️ 原厂Epsom皮 手工蜡线~❤️","specs":{"source":"wsxcme","sourceId":"_djxjxlYqqGaIV_o89sS8j3SZEr46AtobPrifNRw","sourceTagId":76963559,"sourceTagName":"爱马仕/女包","rawTitle":"半手工蜜蜡缝线 原厂皮 客定定做款❤️  可 Kelly 25cm C37金棕 金扣 ❤️ 原厂Epsom皮 手工蜡线~❤️"},"price":null,"currency":"CNY","moq":1,"category":"hermes-women-bags","status":"active","alibaba_url":null,"images":["https://xcimg.szwego.com/20201125/i1606283735_9534_0.jpg","https://xcimg.szwego.com/20201125/i1606283735_2731_1.jpg","https://xcimg.szwego.com/20201125/i1606283735_2585_2.jpg","https://xcimg.szwego.com/20201125/i1606283735_1334_3.jpg","https://xcimg.szwego.com/20201125/i1606283735_2575_4.jpg"],"created_at":"2026-06-29T12:59:35.814Z"},{"id":"item-ac71a3b371aa","sku":"_de6e6hoUEcPaSL2mqE1-uhmdVNc03yMLDIr0afA","name_en":"半手工蜜蜡缝线 原厂皮 客定定做款❤️  可 Kelly 25cm Q5国旗红 金扣 ❤️ 原厂Epsom皮 手工蜡线~❤️","name_cn":"半手工蜜蜡缝线 原厂皮 客定定做款❤️  可 Kelly 25cm Q5国旗红 金扣 ❤️ 原厂Epsom皮 手工蜡线~❤️","specs":{"source":"wsxcme","sourceId":"_de6e6hoUEcPaSL2mqE1-uhmdVNc03yMLDIr0afA","sourceTagId":76963559,"sourceTagName":"爱马仕/女包","rawTitle":"半手工蜜蜡缝线 原厂皮 客定定做款❤️  可 Kelly 25cm Q5国旗红 金扣 ❤️ 原厂Epsom皮 手工蜡线~❤️"},"price":null,"currency":"CNY","moq":1,"category":"hermes-women-bags","status":"active","alibaba_url":null,"images":["https://xcimg.szwego.com/20210307/i1615110015_6925_0.jpg","https://xcimg.szwego.com/20210307/i1615110015_6234_1.jpg","https://xcimg.szwego.com/20210307/i1615110015_9828_2.jpg","https://xcimg.szwego.com/20210307/i1615110015_9227_3.jpg","https://xcimg.szwego.com/20210307/i1615110015_4489_4.jpg"],"created_at":"2026-06-29T12:59:35.854Z"},{"id":"item-e2f5ea00d6ad","sku":"_dsXsXt0LVta2edGZmhCrMdZav8rEuHmWF6rl1Hg","name_en":"半手工蜜蜡缝线 原厂皮 客定定做款❤️  可 Kelly 25cm U5唇膏粉 金扣 ❤️ 原厂Epsom皮 手工蜡线~❤️","name_cn":"半手工蜜蜡缝线 原厂皮 客定定做款❤️  可 Kelly 25cm U5唇膏粉 金扣 ❤️ 原厂Epsom皮 手工蜡线~❤️","specs":{"source":"wsxcme","sourceId":"_dsXsXt0LVta2edGZmhCrMdZav8rEuHmWF6rl1Hg","sourceTagId":76963559,"sourceTagName":"爱马仕/女包","rawTitle":"半手工蜜蜡缝线 原厂皮 客定定做款❤️  可 Kelly 25cm U5唇膏粉 金扣 ❤️ 原厂Epsom皮 手工蜡线~❤️"},"price":null,"currency":"CNY","moq":1,"category":"hermes-women-bags","status":"active","alibaba_url":null,"images":["https://xcimg.szwego.com/20201227/i1609050737_9862_0.jpg","https://xcimg.szwego.com/20201227/i1609050737_787_1.jpg","https://xcimg.szwego.com/20201227/i1609050737_7510_2.jpg","https://xcimg.szwego.com/20201227/i1609050737_7103_3.jpg","https://xcimg.szwego.com/20201227/i1609050737_5552_4.jpg"],"created_at":"2026-06-29T12:59:35.794Z"},{"id":"item-73c0b7e0c806","sku":"_drFrFjnManIRjOJK85e7TO0_uMaNQC3XsF7KdBw","name_en":"半手工蜜蜡缝线 原厂皮 客定定做款❤️  可 Kelly 25cm X9锦葵紫 金扣 ❤️ 原厂Epsom皮 手工蜡线~❤️","name_cn":"半手工蜜蜡缝线 原厂皮 客定定做款❤️  可 Kelly 25cm X9锦葵紫 金扣 ❤️ 原厂Epsom皮 手工蜡线~❤️","specs":{"source":"wsxcme","sourceId":"_drFrFjnManIRjOJK85e7TO0_uMaNQC3XsF7KdBw","sourceTagId":76963559,"sourceTagName":"爱马仕/女包","rawTitle":"半手工蜜蜡缝线 原厂皮 客定定做款❤️  可 Kelly 25cm X9锦葵紫 金扣 ❤️ 原厂Epsom皮 手工蜡线~❤️"},"price":null,"currency":"CNY","moq":1,"category":"hermes-women-bags","status":"active","alibaba_url":null,"images":["https://xcimg.szwego.com/20201227/i1609050471_4737_0.jpg","https://xcimg.szwego.com/20201227/i1609050471_4020_1.jpg","https://xcimg.szwego.com/20201227/i1609050471_2894_2.jpg","https://xcimg.szwego.com/20201227/i1609050471_730_3.jpg","https://xcimg.szwego.com/20201227/i1609050471_69_4.jpg","https://xcimg.szwego.com/20201227/i1609050471_9868_5.jpg"],"created_at":"2026-06-29T12:59:35.784Z"},{"id":"item-e61597fbeed1","sku":"_diviv6EKqeFHfDz8Ovq7zso8HZIlBf5G5G6ZDNg","name_en":"半手工蜜蜡缝线 原厂皮 客定定做款❤️  可 Kelly25 Epsom 颗粒饱满,皮质摸起来都是有些凹凸不平的❤️","name_cn":"半手工蜜蜡缝线 原厂皮 客定定做款❤️  可 Kelly25 Epsom 颗粒饱满,皮质摸起来都是有些凹凸不平的❤️","specs":{"source":"wsxcme","sourceId":"_diviv6EKqeFHfDz8Ovq7zso8HZIlBf5G5G6ZDNg","sourceTagId":76963559,"sourceTagName":"爱马仕/女包","rawTitle":"半手工蜜蜡缝线 原厂皮 客定定做款❤️  可 Kelly25 Epsom 颗粒饱满,皮质摸起来都是有些凹凸不平的❤️"},"price":null,"currency":"CNY","moq":1,"category":"hermes-women-bags","status":"active","alibaba_url":null,"images":["https://xcimg.szwego.com/20201128/i1606556932_2766_0.jpg","https://xcimg.szwego.com/20201128/i1606556932_510_1.jpg","https://xcimg.szwego.com/20201128/i1606556932_5922_2.jpg","https://xcimg.szwego.com/20201128/i1606556932_2800_3.jpg","https://xcimg.szwego.com/20201128/i1606556932_1236_4.jpg","https://xcimg.szwego.com/20201128/i1606556932_5770_5.jpg","https://xcimg.szwego.com/20201128/i1606556932_6986_6.jpg","https://xcimg.szwego.com/20201128/i1606556932_3896_7.jpg","https://xcimg.szwego.com/20201128/i1606556932_4855_8.jpg"],"created_at":"2026-06-29T12:59:35.874Z"},{"id":"item-b8bdbaaec2ec","sku":"_dqgqgrCit9A53KE9ttLiRx7Szyyou5wRp_L7V8w","name_en":"半手工蜜蜡缝线 原厂皮 客定定做款❤️  可 Kelly25 Epsom皮质,不易变形不怕刮痕容易打理❤️","name_cn":"半手工蜜蜡缝线 原厂皮 客定定做款❤️  可 Kelly25 Epsom皮质,不易变形不怕刮痕容易打理❤️","specs":{"source":"wsxcme","sourceId":"_dqgqgrCit9A53KE9ttLiRx7Szyyou5wRp_L7V8w","sourceTagId":76963559,"sourceTagName":"爱马仕/女包","rawTitle":"半手工蜜蜡缝线 原厂皮 客定定做款❤️  可 Kelly25 Epsom皮质,不易变形不怕刮痕容易打理❤️"},"price":null,"currency":"CNY","moq":1,"category":"hermes-women-bags","status":"active","alibaba_url":null,"images":["https://xcimg.szwego.com/20201128/i1606557262_9598_0.jpg","https://xcimg.szwego.com/20201128/i1606557262_640_1.jpg","https://xcimg.szwego.com/20201128/i1606557262_5816_2.jpg","https://xcimg.szwego.com/20201128/i1606557262_6290_3.jpg","https://xcimg.szwego.com/20201128/i1606557262_6175_4.jpg","https://xcimg.szwego.com/20201128/i1606557262_5502_5.jpg","https://xcimg.szwego.com/20201128/i1606557262_2316_6.jpg","https://xcimg.szwego.com/20201128/i1606557262_837_7.jpg","https://xcimg.szwego.com/20201128/i1606557262_6096_8.jpg"],"created_at":"2026-06-29T12:59:35.884Z"},{"id":"item-fb855c031d61","sku":"_duuuuQpj38L6y_fwlsRVywsxCjmXSoh_igmNNYQ","name_en":"葆蝶家 Bottega Veneta","name_cn":"葆蝶家 Bottega Veneta\n这款cassette编织魔方包,简约帅气低调而又奢华\n最新款侧面是三角标志图案!很通勤的一款包包,造型简约又有BV经典的编织艺术,非常容易搭配平常的服饰,每个颜色都很高级,而且都是软软的小羊皮,看起来非常有质感,上身时髦又有范儿\n可单肩 斜挎或者手拿 男女同款\n尺寸:23*15*5.5\n编号:80820#","specs":{"source":"wsxcme","sourceId":"_duuuuQpj38L6y_fwlsRVywsxCjmXSoh_igmNNYQ","sourceTagId":79154589,"sourceTagName":"BV/女包","rawTitle":"葆蝶家 Bottega Veneta\n这款cassette编织魔方包,简约帅气低调而又奢华\n最新款侧面是三角标志图案!很通勤的一款包包,造型简约又有BV经典的编织艺术,非常容易搭配平常的服饰,每个颜色都很高级,而且都是软软的小羊皮,看起来非常有质感,上身时髦又有范儿\n可单肩 斜挎或者手拿 男女同款\n尺寸:23*15*5.5\n编号:80820#"},"price":null,"currency":"CNY","moq":1,"category":"bv-women-bags","status":"active","alibaba_url":null,"images":["https://xcimg.szwego.com/20230509/i1683580371_3444_0.jpg","https://xcimg.szwego.com/20230509/i1683580371_6833_1.jpg","https://xcimg.szwego.com/20230509/i1683580371_5481_2.jpg","https://xcimg.szwego.com/20230509/i1683580371_6228_3.jpg","https://xcimg.szwego.com/20230509/i1683580371_289_4.jpg","https://xcimg.szwego.com/20230509/i1683580371_5407_5.jpg","https://xcimg.szwego.com/20230509/i1683580371_6337_6.jpg","https://xcimg.szwego.com/20230509/i1683580371_142_7.jpg","https://xcimg.szwego.com/20230509/i1683580371_6665_8.jpg"],"created_at":"2024-12-09T10:15:35.748Z"},{"id":"item-f7b8287f0967","sku":"_dkIkISe3y8qSCGTwRHnGMhciCElcihrTi9LEDgg","name_en":"葆蝶家 Bottega Veneta","name_cn":"葆蝶家 Bottega Veneta\n这款cassette编织魔方包,简约帅气低调而又奢华\n最新款侧面是三角标志图案!很通勤的一款包包,造型简约又有BV经典的编织艺术,非常容易搭配平常的服饰,每个颜色都很高级,而且都是软软的小羊皮,看起来非常有质感,上身时髦又有范儿\n可单肩 斜挎或者手拿 男女同款\n尺寸:23*15*5.5\n编号:80820#","specs":{"source":"wsxcme","sourceId":"_dkIkISe3y8qSCGTwRHnGMhciCElcihrTi9LEDgg","sourceTagId":79154589,"sourceTagName":"BV/女包","rawTitle":"葆蝶家 Bottega Veneta\n这款cassette编织魔方包,简约帅气低调而又奢华\n最新款侧面是三角标志图案!很通勤的一款包包,造型简约又有BV经典的编织艺术,非常容易搭配平常的服饰,每个颜色都很高级,而且都是软软的小羊皮,看起来非常有质感,上身时髦又有范儿\n可单肩 斜挎或者手拿 男女同款\n尺寸:23*15*5.5\n编号:80820#"},"price":null,"currency":"CNY","moq":1,"category":"bv-women-bags","status":"active","alibaba_url":null,"images":["https://xcimg.szwego.com/20230509/i1683580739_4864_0.jpg","https://xcimg.szwego.com/20230509/i1683580739_5488_1.jpg","https://xcimg.szwego.com/20230509/i1683580739_5718_2.jpg","https://xcimg.szwego.com/20230509/i1683580739_5383_3.jpg","https://xcimg.szwego.com/20230509/i1683580739_3035_4.jpg","https://xcimg.szwego.com/20230509/i1683580739_9123_5.jpg","https://xcimg.szwego.com/20230509/i1683580739_3284_6.jpg","https://xcimg.szwego.com/20230509/i1683580739_8651_7.jpg","https://xcimg.szwego.com/20230509/i1683580739_3488_8.jpg"],"created_at":"2024-12-09T10:15:35.752Z"},{"id":"item-f4d3eca7a00d","sku":"_d0T0TKvj02XjLqBj9g9lO1biQqycvH_0HPt9unA","name_en":"葆蝶家 Bottega Veneta","name_cn":"葆蝶家 Bottega Veneta\n这款cassette编织魔方包,简约帅气低调而又奢华\n最新款侧面是三角标志图案!很通勤的一款包包,造型简约又有BV经典的编织艺术,非常容易搭配平常的服饰,每个颜色都很高级,而且都是软软的小羊皮,看起来非常有质感,上身时髦又有范儿\n可单肩 斜挎或者手拿 男女同款\n尺寸:23*15*5.5\n编号:80820#","specs":{"source":"wsxcme","sourceId":"_d0T0TKvj02XjLqBj9g9lO1biQqycvH_0HPt9unA","sourceTagId":79154589,"sourceTagName":"BV/女包","rawTitle":"葆蝶家 Bottega Veneta\n这款cassette编织魔方包,简约帅气低调而又奢华\n最新款侧面是三角标志图案!很通勤的一款包包,造型简约又有BV经典的编织艺术,非常容易搭配平常的服饰,每个颜色都很高级,而且都是软软的小羊皮,看起来非常有质感,上身时髦又有范儿\n可单肩 斜挎或者手拿 男女同款\n尺寸:23*15*5.5\n编号:80820#"},"price":null,"currency":"CNY","moq":1,"category":"bv-women-bags","status":"active","alibaba_url":null,"images":["https://xcimg.szwego.com/20230509/i1683580086_2019_0.jpg","https://xcimg.szwego.com/20230509/i1683580086_5947_1.jpg","https://xcimg.szwego.com/20230509/i1683580086_5364_2.jpg","https://xcimg.szwego.com/20230509/i1683580086_8136_3.jpg","https://xcimg.szwego.com/20230509/i1683580086_411_4.jpg","https://xcimg.szwego.com/20230509/i1683580086_9189_5.jpg","https://xcimg.szwego.com/20230509/i1683580086_3679_6.jpg","https://xcimg.szwego.com/20230509/i1683580086_7779_7.jpg","https://xcimg.szwego.com/20230509/i1683580086_3529_8.jpg"],"created_at":"2024-12-09T10:15:35.746Z"},{"id":"item-ef5cb22da099","sku":"_dtStSIRUJQHKe442cUuJd47G1GB35WJw-lXUkoA","name_en":"葆蝶家 Bottega Veneta","name_cn":"葆蝶家 Bottega Veneta\n这款cassette编织魔方包,简约帅气低调而又奢华\n最新款侧面是三角标志图案!很通勤的一款包包,造型简约又有BV经典的编织艺术,非常容易搭配平常的服饰,每个颜色都很高级,而且都是软软的小羊皮,看起来非常有质感,上身时髦又有范儿\n可单肩 斜挎或者手拿 男女同款\n尺寸:23*15*5.5\n编号:80820#","specs":{"source":"wsxcme","sourceId":"_dtStSIRUJQHKe442cUuJd47G1GB35WJw-lXUkoA","sourceTagId":79154589,"sourceTagName":"BV/女包","rawTitle":"葆蝶家 Bottega Veneta\n这款cassette编织魔方包,简约帅气低调而又奢华\n最新款侧面是三角标志图案!很通勤的一款包包,造型简约又有BV经典的编织艺术,非常容易搭配平常的服饰,每个颜色都很高级,而且都是软软的小羊皮,看起来非常有质感,上身时髦又有范儿\n可单肩 斜挎或者手拿 男女同款\n尺寸:23*15*5.5\n编号:80820#"},"price":null,"currency":"CNY","moq":1,"category":"bv-women-bags","status":"active","alibaba_url":null,"images":["https://xcimg.szwego.com/20230509/i1683581279_3864_0.jpg","https://xcimg.szwego.com/20230509/i1683581279_7726_1.jpg","https://xcimg.szwego.com/20230509/i1683581279_5550_2.jpg","https://xcimg.szwego.com/20230509/i1683581279_9917_3.jpg","https://xcimg.szwego.com/20230509/i1683581279_4326_4.jpg","https://xcimg.szwego.com/20230509/i1683581279_2197_5.jpg","https://xcimg.szwego.com/20230509/i1683581279_2709_6.jpg","https://xcimg.szwego.com/20230509/i1683581279_1885_7.jpg","https://xcimg.szwego.com/20230509/i1683581279_8944_8.jpg"],"created_at":"2024-12-09T10:15:35.757Z"},{"id":"item-dfa718bd6c34","sku":"_dIEIEUWh6ddMIL4_vlbZfjIN2Mex9DODz5R8u0g","name_en":"葆蝶家 Bottega Veneta","name_cn":"葆蝶家 Bottega Veneta\n这款cassette编织魔方包,简约帅气低调而又奢华\n最新款侧面是三角标志图案!很通勤的一款包包,造型简约又有BV经典的编织艺术,非常容易搭配平常的服饰,每个颜色都很高级,而且都是软软的小羊皮,看起来非常有质感,上身时髦又有范儿\n可单肩 斜挎或者手拿 男女同款\n尺寸:23*15*5.5\n编号:80820#","specs":{"source":"wsxcme","sourceId":"_dIEIEUWh6ddMIL4_vlbZfjIN2Mex9DODz5R8u0g","sourceTagId":79154589,"sourceTagName":"BV/女包","rawTitle":"葆蝶家 Bottega Veneta\n这款cassette编织魔方包,简约帅气低调而又奢华\n最新款侧面是三角标志图案!很通勤的一款包包,造型简约又有BV经典的编织艺术,非常容易搭配平常的服饰,每个颜色都很高级,而且都是软软的小羊皮,看起来非常有质感,上身时髦又有范儿\n可单肩 斜挎或者手拿 男女同款\n尺寸:23*15*5.5\n编号:80820#"},"price":null,"currency":"CNY","moq":1,"category":"bv-women-bags","status":"active","alibaba_url":null,"images":["https://xcimg.szwego.com/img/578c1939/20240117/i1705473316_6136_0.jpg","https://xcimg.szwego.com/img/578c1939/20240117/i1705473309_2929_2.jpg","https://xcimg.szwego.com/img/578c1939/20240117/i1705473309_7374_4.jpg","https://xcimg.szwego.com/img/578c1939/20240117/i1705473309_9875_5.jpg","https://xcimg.szwego.com/img/578c1939/20240117/i1705473309_6018_6.jpg","https://xcimg.szwego.com/img/578c1939/20240117/i1705473309_7733_0.jpg","https://xcimg.szwego.com/img/578c1939/20240117/i1705473309_9748_1.jpg","https://xcimg.szwego.com/img/578c1939/20240117/i1705473309_8375_7.jpg","https://xcimg.szwego.com/img/578c1939/20240117/i1705473309_6445_8.jpg"],"created_at":"2024-12-09T10:15:35.765Z"},{"id":"item-db234ca25e90","sku":"_dk4k4r2UFZFeWmh0QZ8Z9qvjC7xdZnXUOp-kKXg","name_en":"葆蝶家 Bottega Veneta","name_cn":"葆蝶家 Bottega Veneta\n这款cassette编织魔方包,简约帅气低调而又奢华\n最新款侧面是三角标志图案!很通勤的一款包包,造型简约又有BV经典的编织艺术,非常容易搭配平常的服饰,每个颜色都很高级,而且都是软软的小羊皮,看起来非常有质感,上身时髦又有范儿\n可单肩 斜挎或者手拿 男女同款\n尺寸:23*15*5.5\n编号:80820#","specs":{"source":"wsxcme","sourceId":"_dk4k4r2UFZFeWmh0QZ8Z9qvjC7xdZnXUOp-kKXg","sourceTagId":79154589,"sourceTagName":"BV/女包","rawTitle":"葆蝶家 Bottega Veneta\n这款cassette编织魔方包,简约帅气低调而又奢华\n最新款侧面是三角标志图案!很通勤的一款包包,造型简约又有BV经典的编织艺术,非常容易搭配平常的服饰,每个颜色都很高级,而且都是软软的小羊皮,看起来非常有质感,上身时髦又有范儿\n可单肩 斜挎或者手拿 男女同款\n尺寸:23*15*5.5\n编号:80820#"},"price":null,"currency":"CNY","moq":1,"category":"bv-women-bags","status":"active","alibaba_url":null,"images":["https://xcimg.szwego.com/20230531/i1685547611_5039_0.jpg","https://xcimg.szwego.com/20230531/i1685547611_4033_1.jpg","https://xcimg.szwego.com/20230531/i1685547611_325_2.jpg","https://xcimg.szwego.com/20230531/i1685547611_160_3.jpg","https://xcimg.szwego.com/20230531/i1685547611_4947_4.jpg","https://xcimg.szwego.com/20230531/i1685547611_7317_8.jpg","https://xcimg.szwego.com/20230531/i1685547611_1865_5.jpg","https://xcimg.szwego.com/20230531/i1685547611_2831_6.jpg","https://xcimg.szwego.com/20230531/i1685547611_6674_7.jpg"],"created_at":"2024-12-09T10:15:35.758Z"},{"id":"item-cd6a5c1a35e6","sku":"_dvTvTbWfmXuroZszRWb5p-HlxcgcjGbSUzYUM8A","name_en":"葆蝶家 Bottega Veneta","name_cn":"葆蝶家 Bottega Veneta\n这款cassette编织魔方包,简约帅气低调而又奢华\n最新款侧面是三角标志图案!很通勤的一款包包,造型简约又有BV经典的编织艺术,非常容易搭配平常的服饰,每个颜色都很高级,而且都是软软的小羊皮,看起来非常有质感,上身时髦又有范儿\n可单肩 斜挎或者手拿 男女同款\n尺寸:23*15*5.5\n编号:80820#","specs":{"source":"wsxcme","sourceId":"_dvTvTbWfmXuroZszRWb5p-HlxcgcjGbSUzYUM8A","sourceTagId":79154589,"sourceTagName":"BV/女包","rawTitle":"葆蝶家 Bottega Veneta\n这款cassette编织魔方包,简约帅气低调而又奢华\n最新款侧面是三角标志图案!很通勤的一款包包,造型简约又有BV经典的编织艺术,非常容易搭配平常的服饰,每个颜色都很高级,而且都是软软的小羊皮,看起来非常有质感,上身时髦又有范儿\n可单肩 斜挎或者手拿 男女同款\n尺寸:23*15*5.5\n编号:80820#"},"price":null,"currency":"CNY","moq":1,"category":"bv-women-bags","status":"active","alibaba_url":null,"images":["https://xcimg.szwego.com/20230509/i1683580235_4400_0.jpg","https://xcimg.szwego.com/20230509/i1683580235_5639_1.jpg","https://xcimg.szwego.com/20230509/i1683580235_6081_2.jpg","https://xcimg.szwego.com/20230509/i1683580235_9855_3.jpg","https://xcimg.szwego.com/20230509/i1683580235_5831_4.jpg","https://xcimg.szwego.com/20230509/i1683580235_5417_5.jpg","https://xcimg.szwego.com/20230509/i1683580235_7550_6.jpg","https://xcimg.szwego.com/20230509/i1683580235_9128_7.jpg","https://xcimg.szwego.com/20230509/i1683580235_1977_8.jpg"],"created_at":"2024-12-09T10:15:35.747Z"},{"id":"item-caa2c17741d8","sku":"_dukukw-k4E3cU1j0acOLw7rWANMGLx3OVZyTquw","name_en":"葆蝶家 Bottega Veneta","name_cn":"葆蝶家 Bottega Veneta\n这款cassette编织魔方包,简约帅气低调而又奢华\n最新款侧面是三角标志图案!很通勤的一款包包,造型简约又有BV经典的编织艺术,非常容易搭配平常的服饰,每个颜色都很高级,而且都是软软的小羊皮,看起来非常有质感,上身时髦又有范儿\n可单肩 斜挎或者手拿 男女同款\n尺寸:23*15*5.5\n编号:80820#","specs":{"source":"wsxcme","sourceId":"_dukukw-k4E3cU1j0acOLw7rWANMGLx3OVZyTquw","sourceTagId":79154589,"sourceTagName":"BV/女包","rawTitle":"葆蝶家 Bottega Veneta\n这款cassette编织魔方包,简约帅气低调而又奢华\n最新款侧面是三角标志图案!很通勤的一款包包,造型简约又有BV经典的编织艺术,非常容易搭配平常的服饰,每个颜色都很高级,而且都是软软的小羊皮,看起来非常有质感,上身时髦又有范儿\n可单肩 斜挎或者手拿 男女同款\n尺寸:23*15*5.5\n编号:80820#"},"price":null,"currency":"CNY","moq":1,"category":"bv-women-bags","status":"active","alibaba_url":null,"images":["https://xcimg.szwego.com/20230509/i1683580890_5797_0.jpg","https://xcimg.szwego.com/20230509/i1683580890_6373_1.jpg","https://xcimg.szwego.com/20230509/i1683580890_5772_2.jpg","https://xcimg.szwego.com/20230509/i1683580890_2407_3.jpg","https://xcimg.szwego.com/20230509/i1683580890_9354_4.jpg","https://xcimg.szwego.com/20230509/i1683580890_7369_5.jpg","https://xcimg.szwego.com/20230509/i1683580890_9772_6.jpg","https://xcimg.szwego.com/20230509/i1683580890_2848_7.jpg","https://xcimg.szwego.com/20230509/i1683580890_3725_8.jpg"],"created_at":"2024-12-09T10:15:35.755Z"}],"page":135,"pageSize":24,"total":10075,"totalPages":420}
