{"items":[{"id":"item-2b362022996a","sku":"_dneneO5S8GAHzuPuG8zKkS2YtTZA3Xy-roClBrA","name_en":"Burberry Women Bags","name_cn":"官网图","specs":{"source":"wsxcme","sourceId":"_dneneO5S8GAHzuPuG8zKkS2YtTZA3Xy-roClBrA","sourceTagId":80411239,"sourceTagName":"巴宝莉/女包","rawTitle":"官网图"},"price":null,"currency":"CNY","moq":1,"category":"burberry-women-bags","status":"active","alibaba_url":null,"images":["https://xcimg.szwego.com/20220114/i1642101028_356_0.jpg","https://xcimg.szwego.com/20220114/i1642101028_3127_1.jpg","https://xcimg.szwego.com/20220114/i1642101028_1322_2.jpg","https://xcimg.szwego.com/20220114/i1642101028_2986_3.jpg","https://xcimg.szwego.com/20220114/i1642101028_6156_4.jpg"],"created_at":"2025-01-20T12:46:12.732Z"},{"id":"item-2aef599761bf","sku":"_dpHpHh9fNxDVk5vDCVZUMrewZEJFpiyM_x4u4cg","name_en":"Burberry Women Bags","name_cn":"黑色平铺细节,小小一只非常轻便好背,出游通勤实用又百搭的托特包,这款热度只升不降,长肩带可拆卸的,上身立体抢眼,闭眼入","specs":{"source":"wsxcme","sourceId":"_dpHpHh9fNxDVk5vDCVZUMrewZEJFpiyM_x4u4cg","sourceTagId":80411239,"sourceTagName":"巴宝莉/女包","rawTitle":"黑色平铺细节,小小一只非常轻便好背,出游通勤实用又百搭的托特包,这款热度只升不降,长肩带可拆卸的,上身立体抢眼,闭眼入"},"price":null,"currency":"CNY","moq":1,"category":"burberry-women-bags","status":"active","alibaba_url":null,"images":["https://xcimg.szwego.com/20220808/i1659956440_4723_0.jpg","https://xcimg.szwego.com/20220808/i1659956440_7431_1.jpg","https://xcimg.szwego.com/20220808/i1659956440_6962_2.jpg","https://xcimg.szwego.com/20220808/i1659956440_3278_3.jpg","https://xcimg.szwego.com/20220808/i1659956440_5847_4.jpg"],"created_at":"2025-01-20T12:43:24.109Z"},{"id":"item-2a7b8260c2a3","sku":"_dd2d2_D1Akk5spI-2Qm6_f1DXZYQ9QhsqhXPNng","name_en":"Burberry Women Bags","name_cn":"大号 酷感十足","specs":{"source":"wsxcme","sourceId":"_dd2d2_D1Akk5spI-2Qm6_f1DXZYQ9QhsqhXPNng","sourceTagId":80411239,"sourceTagName":"巴宝莉/女包","rawTitle":"大号 酷感十足"},"price":null,"currency":"CNY","moq":1,"category":"burberry-women-bags","status":"active","alibaba_url":null,"images":["https://xcimg.szwego.com/img/d5e7a5ce/20250304/a1741079654337_8115.jpg","https://xcimg.szwego.com/img/d5e7a5ce/20250304/a1741079654331_0635.jpg","https://xcimg.szwego.com/img/d5e7a5ce/20250304/a1741079654333_8717.jpg","https://xcimg.szwego.com/img/d5e7a5ce/20250304/a1741079654334_3515.jpg","https://xcimg.szwego.com/img/d5e7a5ce/20250304/a1741079654335_7675.jpg","https://xcimg.szwego.com/img/d5e7a5ce/20250304/a1741079654336_0424.jpg","https://xcimg.szwego.com/img/d5e7a5ce/20250304/a1741079656503_1377.jpg","https://xcimg.szwego.com/img/d5e7a5ce/20250304/a1741079656499_2820.jpg"],"created_at":"2026-06-29T10:29:02.779Z"},{"id":"item-2959294f40d9","sku":"_d8383x-Rdz2vLB4PWum52vmBPoEkItQJZGbabrQ","name_en":"Burberry Women Bags","name_cn":"❤【鸵鸟纹蔷薇粉色】\nLoro Piana Extra pocket L19系列 断货王\n\n不被定义的生活才最自在,就像loro piana的材质设计,不需要繁复设计的款式,简洁柔和的轮廓优雅耐看,像一只精美的化妆箱,完美兼顾了颜值和功能性。皮质细腻,手感像黄油一般柔软,小小包身大容量,不光是手提配细肩带还可以斜挎哦,对极简风情有独钟得姐妹可以入手啦,简约百搭,越简单越不同,明星ins网红都在种草,配上稀有的皮料很难不爱。\n\n尺寸:小号:长19×宽7×高12cm","specs":{"source":"wsxcme","sourceId":"_d8383x-Rdz2vLB4PWum52vmBPoEkItQJZGbabrQ","sourceTagId":80411239,"sourceTagName":"巴宝莉/女包","rawTitle":"❤【鸵鸟纹蔷薇粉色】\nLoro Piana Extra pocket L19系列 断货王\n\n不被定义的生活才最自在,就像loro piana的材质设计,不需要繁复设计的款式,简洁柔和的轮廓优雅耐看,像一只精美的化妆箱,完美兼顾了颜值和功能性。皮质细腻,手感像黄油一般柔软,小小包身大容量,不光是手提配细肩带还可以斜挎哦,对极简风情有独钟得姐妹可以入手啦,简约百搭,越简单越不同,明星ins网红都在种草,配上稀有的皮料很难不爱。\n\n尺寸:小号:长19×宽7×高12cm"},"price":null,"currency":"CNY","moq":1,"category":"burberry-women-bags","status":"active","alibaba_url":null,"images":["https://xcimg.szwego.com/20230816/i1692176390_8236_0.jpg","https://xcimg.szwego.com/20230816/i1692176390_3892_1.jpg","https://xcimg.szwego.com/20230816/i1692176390_822_2.jpg","https://xcimg.szwego.com/20230816/i1692176390_4843_3.jpg","https://xcimg.szwego.com/20230816/i1692176390_6462_4.jpg","https://xcimg.szwego.com/20230816/i1692176390_9186_5.jpg","https://xcimg.szwego.com/20230816/i1692176390_3667_6.jpg"],"created_at":"2025-01-20T12:43:24.093Z"},{"id":"item-24e6c4e4e0d0","sku":"_dBCBCq7PAH9U-6FKzDp8PJZvGaaQDjYuktdSqlQ","name_en":"Burberry Women Bags","name_cn":"上身图","specs":{"source":"wsxcme","sourceId":"_dBCBCq7PAH9U-6FKzDp8PJZvGaaQDjYuktdSqlQ","sourceTagId":80411239,"sourceTagName":"巴宝莉/女包","rawTitle":"上身图"},"price":null,"currency":"CNY","moq":1,"category":"burberry-women-bags","status":"active","alibaba_url":null,"images":["https://xcimg.szwego.com/img/d5e7a5ce/20250404/a1743750549097_3431.jpg","https://xcimg.szwego.com/img/d5e7a5ce/20250404/a1743750549131_6164.jpg","https://xcimg.szwego.com/img/d5e7a5ce/20250404/a1743750549129_6701.jpg","https://xcimg.szwego.com/img/d5e7a5ce/20250404/a1743750549103_7802.jpg","https://xcimg.szwego.com/img/d5e7a5ce/20250404/a1743750549108_1535.jpg","https://xcimg.szwego.com/img/d5e7a5ce/20250404/a1743750549112_2288.jpg","https://xcimg.szwego.com/img/d5e7a5ce/20250404/a1743750549970_5085.jpg","https://xcimg.szwego.com/img/d5e7a5ce/20250404/a1743750549969_8375.jpg","https://xcimg.szwego.com/img/d5e7a5ce/20250404/a1743750549967_0256.jpg"],"created_at":"2026-06-29T10:27:58.712Z"},{"id":"item-2328b956e218","sku":"_dxSxS7QVLIwiHQ1OK-_4YIu0euyDBjBzqHqJDyw","name_en":"Burberry Women Bags","name_cn":"上身图","specs":{"source":"wsxcme","sourceId":"_dxSxS7QVLIwiHQ1OK-_4YIu0euyDBjBzqHqJDyw","sourceTagId":80411239,"sourceTagName":"巴宝莉/女包","rawTitle":"上身图"},"price":null,"currency":"CNY","moq":1,"category":"burberry-women-bags","status":"active","alibaba_url":null,"images":["https://xcimg.szwego.com/img/d5e7a5ce/20250915/a1757934133263_5885.jpg","https://xcimg.szwego.com/img/d5e7a5ce/20250915/a1757934133265_5425.jpg","https://xcimg.szwego.com/img/d5e7a5ce/20250915/a1757934133261_6076.jpg","https://xcimg.szwego.com/img/d5e7a5ce/20250915/a1757934133268_0773.jpg","https://xcimg.szwego.com/img/d5e7a5ce/20250915/a1757934133267_0067.jpg","https://xcimg.szwego.com/img/d5e7a5ce/20250915/a1757934133266_6264.jpg","https://xcimg.szwego.com/img/d5e7a5ce/20250915/a1757934137112_4644.jpg","https://xcimg.szwego.com/img/d5e7a5ce/20250915/a1757934137121_8426.jpg","https://xcimg.szwego.com/img/d5e7a5ce/20250915/a1757934137119_3731.jpg"],"created_at":"2026-06-29T10:27:58.762Z"},{"id":"item-22311e5b7a40","sku":"_dsWsWLvtssKyPkdqjX3zWPrjdkbhKAhKoqxFWhQ","name_en":"Burberry Women Bags","name_cn":"❤【鸵鸟纹棕色】\nLoro Piana Extra pocket L19系列 断货王\n\n不被定义的生活才最自在,就像loro piana的材质设计,不需要繁复设计的款式,简洁柔和的轮廓优雅耐看,像一只精美的化妆箱,完美兼顾了颜值和功能性。皮质细腻,手感像黄油一般柔软,小小包身大容量,不光是手提配细肩带还可以斜挎哦,对极简风情有独钟得姐妹可以入手啦,简约百搭,越简单越不同,明星ins网红都在种草,配上稀有的皮料很难不爱。\n\n尺寸:小号:长19×宽7×高12cm","specs":{"source":"wsxcme","sourceId":"_dsWsWLvtssKyPkdqjX3zWPrjdkbhKAhKoqxFWhQ","sourceTagId":80411239,"sourceTagName":"巴宝莉/女包","rawTitle":"❤【鸵鸟纹棕色】\nLoro Piana Extra pocket L19系列 断货王\n\n不被定义的生活才最自在,就像loro piana的材质设计,不需要繁复设计的款式,简洁柔和的轮廓优雅耐看,像一只精美的化妆箱,完美兼顾了颜值和功能性。皮质细腻,手感像黄油一般柔软,小小包身大容量,不光是手提配细肩带还可以斜挎哦,对极简风情有独钟得姐妹可以入手啦,简约百搭,越简单越不同,明星ins网红都在种草,配上稀有的皮料很难不爱。\n\n尺寸:小号:长19×宽7×高12cm"},"price":null,"currency":"CNY","moq":1,"category":"burberry-women-bags","status":"active","alibaba_url":null,"images":["https://xcimg.szwego.com/20230816/i1692176553_9452_0.jpg","https://xcimg.szwego.com/20230816/i1692176553_8725_1.jpg","https://xcimg.szwego.com/20230816/i1692176553_8150_2.jpg","https://xcimg.szwego.com/20230816/i1692176553_8348_3.jpg","https://xcimg.szwego.com/20230816/i1692176553_9247_4.jpg","https://xcimg.szwego.com/20230816/i1692176553_4382_5.jpg","https://xcimg.szwego.com/20230816/i1692176553_2003_6.jpg","https://xcimg.szwego.com/20230816/i1692176553_3356_7.jpg","https://xcimg.szwego.com/20230816/i1692176553_9120_8.jpg"],"created_at":"2025-01-20T12:43:24.096Z"},{"id":"item-212f4d837788","sku":"_dV1V1jNPwui0pEmDeCvQdIkCwjHHrkMiHfisNYg","name_en":"Burberry Women Bags","name_cn":"小号沙色上身效果","specs":{"source":"wsxcme","sourceId":"_dV1V1jNPwui0pEmDeCvQdIkCwjHHrkMiHfisNYg","sourceTagId":80411239,"sourceTagName":"巴宝莉/女包","rawTitle":"小号沙色上身效果"},"price":null,"currency":"CNY","moq":1,"category":"burberry-women-bags","status":"active","alibaba_url":null,"images":["https://xcimg.szwego.com/img/d5e7a5ce/20250304/a1741080062220_1228.jpg","https://xcimg.szwego.com/img/d5e7a5ce/20250304/a1741080062222_1345.jpg","https://xcimg.szwego.com/img/d5e7a5ce/20250304/a1741080062223_7622.jpg","https://xcimg.szwego.com/img/d5e7a5ce/20250304/a1741080062316_7787.jpg","https://xcimg.szwego.com/img/d5e7a5ce/20250304/a1741080062224_0858.jpg","https://xcimg.szwego.com/img/d5e7a5ce/20250304/a1741080062228_8035.jpg","https://xcimg.szwego.com/img/d5e7a5ce/20250304/a1741080063205_0470.jpg","https://xcimg.szwego.com/img/d5e7a5ce/20250304/a1741080063212_3502.jpg","https://xcimg.szwego.com/img/d5e7a5ce/20250304/a1741080063206_7317.jpg"],"created_at":"2026-06-29T10:29:02.799Z"},{"id":"item-1bfe02ee5782","sku":"_d-G-GCs_ACrEdsR76Sbd4Rouqlt5JROSawLsFAQ","name_en":"Burberry Women Bags","name_cn":"橘色平铺细节,这个色搭白裙子或者黑色衣服都很合适,不一样的感觉","specs":{"source":"wsxcme","sourceId":"_d-G-GCs_ACrEdsR76Sbd4Rouqlt5JROSawLsFAQ","sourceTagId":80411239,"sourceTagName":"巴宝莉/女包","rawTitle":"橘色平铺细节,这个色搭白裙子或者黑色衣服都很合适,不一样的感觉"},"price":null,"currency":"CNY","moq":1,"category":"burberry-women-bags","status":"active","alibaba_url":null,"images":["https://xcimg.szwego.com/20220808/i1659956674_1405_0.jpg","https://xcimg.szwego.com/20220808/i1659956674_9071_1.jpg","https://xcimg.szwego.com/20220808/i1659956674_6533_2.jpg","https://xcimg.szwego.com/20220808/i1659956674_4180_3.jpg","https://xcimg.szwego.com/20220808/i1659956674_621_4.jpg"],"created_at":"2025-01-20T12:43:24.110Z"},{"id":"item-1ad6746aa08a","sku":"_deCeC4hYdd6aLnubRvIZny_dHOW4zr-WjucHiGw","name_en":"Burberry Women Bags","name_cn":"配原装盒","specs":{"source":"wsxcme","sourceId":"_deCeC4hYdd6aLnubRvIZny_dHOW4zr-WjucHiGw","sourceTagId":80411239,"sourceTagName":"巴宝莉/女包","rawTitle":"配原装盒"},"price":null,"currency":"CNY","moq":1,"category":"burberry-women-bags","status":"active","alibaba_url":null,"images":["https://xcimg.szwego.com/imgHD/b7f85c57/20260330/cmp_i1774850359575_9994_0_0.jpg","https://xcimg.szwego.com/imgHD/b7f85c57/20260330/cmp_i1774850359876_234_0_1.jpg","https://xcimg.szwego.com/imgHD/b7f85c57/20260330/cmp_i1774850359863_6331_0_2.jpg"],"created_at":"2026-06-29T10:29:02.649Z"},{"id":"item-18a6049f90ce","sku":"_dAiAibjkx154d_zCTn_f5I7Y5o6P-w38_re7phQ","name_en":"Burberry Women Bags","name_cn":"来看实拍细节 质感看得见 整体效果 即可商务又可休闲  但是更偏向于上班一族  配可拆卸肩带 肩背手提 两用","specs":{"source":"wsxcme","sourceId":"_dAiAibjkx154d_zCTn_f5I7Y5o6P-w38_re7phQ","sourceTagId":80411239,"sourceTagName":"巴宝莉/女包","rawTitle":"来看实拍细节 质感看得见 整体效果 即可商务又可休闲  但是更偏向于上班一族  配可拆卸肩带 肩背手提 两用"},"price":null,"currency":"CNY","moq":1,"category":"burberry-women-bags","status":"active","alibaba_url":null,"images":["https://xcimg.szwego.com/20230222/i1677035254_8743_0.jpg","https://xcimg.szwego.com/20230222/i1677035254_8540_1.jpg","https://xcimg.szwego.com/20230222/i1677035254_1425_2.jpg","https://xcimg.szwego.com/20230222/i1677035254_7670_3.jpg","https://xcimg.szwego.com/20230222/i1677035254_7966_4.jpg","https://xcimg.szwego.com/20230222/i1677035254_2807_5.jpg","https://xcimg.szwego.com/20230222/i1677035254_3980_6.jpg","https://xcimg.szwego.com/20230222/i1677035254_2981_7.jpg","https://xcimg.szwego.com/20230222/i1677035254_7981_8.jpg"],"created_at":"2025-01-20T12:46:12.753Z"},{"id":"item-0f32f708379c","sku":"_ds2s2ozVKtLRhuz0fLZ3wk2S5rFcJdR-TKIz88A","name_en":"Burberry Women Bags","name_cn":"上身图","specs":{"source":"wsxcme","sourceId":"_ds2s2ozVKtLRhuz0fLZ3wk2S5rFcJdR-TKIz88A","sourceTagId":80411239,"sourceTagName":"巴宝莉/女包","rawTitle":"上身图"},"price":null,"currency":"CNY","moq":1,"category":"burberry-women-bags","status":"active","alibaba_url":null,"images":["https://xcimg.szwego.com/img/d5e7a5ce/20251114/a1763099309940_2671.jpg","https://xcimg.szwego.com/img/d5e7a5ce/20251114/a1763099309946_1645.jpg","https://xcimg.szwego.com/img/d5e7a5ce/20251114/a1763099309942_7685.jpg","https://xcimg.szwego.com/img/d5e7a5ce/20251114/a1763099309945_8188.jpg","https://xcimg.szwego.com/img/d5e7a5ce/20251114/a1763099309943_2830.jpg","https://xcimg.szwego.com/img/d5e7a5ce/20251114/a1763099309944_5087.jpg","https://xcimg.szwego.com/img/d5e7a5ce/20251114/a1763099310475_2120.jpg","https://xcimg.szwego.com/img/d5e7a5ce/20251114/a1763099310475_2447.jpg","https://xcimg.szwego.com/img/d5e7a5ce/20251114/a1763099310474_5853.jpg"],"created_at":"2026-06-29T10:29:03.029Z"},{"id":"item-0cb3f512e84c","sku":"_dtqtqy7Z-0vWSXDRO2ntk8oLeDRzQXfF8jufXrg","name_en":"Burberry Women Bags","name_cn":"官网图","specs":{"source":"wsxcme","sourceId":"_dtqtqy7Z-0vWSXDRO2ntk8oLeDRzQXfF8jufXrg","sourceTagId":80411239,"sourceTagName":"巴宝莉/女包","rawTitle":"官网图"},"price":null,"currency":"CNY","moq":1,"category":"burberry-women-bags","status":"active","alibaba_url":null,"images":["https://xcimg.szwego.com/img/d5e7a5ce/20250403/a1743667614633_0418.jpg","https://xcimg.szwego.com/img/d5e7a5ce/20250403/a1743667614605_0180.jpg","https://xcimg.szwego.com/img/d5e7a5ce/20250403/a1743667614612_8112.jpg","https://xcimg.szwego.com/img/d5e7a5ce/20250403/a1743667614619_2322.jpg","https://xcimg.szwego.com/img/d5e7a5ce/20250403/a1743667614622_6385.jpg","https://xcimg.szwego.com/img/d5e7a5ce/20250403/a1743667614627_2153.jpg","https://xcimg.szwego.com/img/d5e7a5ce/20250403/a1743667615501_8022.jpg","https://xcimg.szwego.com/img/d5e7a5ce/20250403/a1743667615497_2721.jpg","https://xcimg.szwego.com/img/d5e7a5ce/20250403/a1743667615502_4061.jpg"],"created_at":"2026-06-29T10:27:59.262Z"},{"id":"item-0b5e58d76825","sku":"_dohohE1IVb9_E5Y_zuGInDh0nQpoXyLQTdlk67w","name_en":"Burberry Women Bags","name_cn":"现货","specs":{"source":"wsxcme","sourceId":"_dohohE1IVb9_E5Y_zuGInDh0nQpoXyLQTdlk67w","sourceTagId":80411239,"sourceTagName":"巴宝莉/女包","rawTitle":"现货"},"price":null,"currency":"CNY","moq":1,"category":"burberry-women-bags","status":"active","alibaba_url":null,"images":["https://xcimg.szwego.com/img/d5e7a5ce/20250908/a1757318590969_7665.jpg","https://xcimg.szwego.com/img/d5e7a5ce/20250908/a1757318590971_4807.jpg","https://xcimg.szwego.com/img/d5e7a5ce/20250908/a1757318590972_7751.jpg"],"created_at":"2026-06-29T10:27:58.512Z"},{"id":"item-09791cf52dad","sku":"_dv3v3aDa-OtggvDXQQxzNS4hXSvaoz-GO51ea0Q","name_en":"Burberry Women Bags","name_cn":"上身图","specs":{"source":"wsxcme","sourceId":"_dv3v3aDa-OtggvDXQQxzNS4hXSvaoz-GO51ea0Q","sourceTagId":80411239,"sourceTagName":"巴宝莉/女包","rawTitle":"上身图"},"price":null,"currency":"CNY","moq":1,"category":"burberry-women-bags","status":"active","alibaba_url":null,"images":["https://xcimg.szwego.com/img/d5e7a5ce/20231002/a1696228500460_6556.jpg","https://xcimg.szwego.com/img/d5e7a5ce/20231002/a1696228500461_5754.jpg","https://xcimg.szwego.com/img/d5e7a5ce/20231002/a1696228500462_2865.jpg","https://xcimg.szwego.com/img/d5e7a5ce/20231002/a1696228500463_7535.jpg","https://xcimg.szwego.com/img/d5e7a5ce/20231002/a1696228500464_1603.jpg","https://xcimg.szwego.com/img/d5e7a5ce/20231002/a1696228500537_6162.jpg","https://xcimg.szwego.com/img/d5e7a5ce/20231002/a1696228500583_2450.jpg","https://xcimg.szwego.com/img/d5e7a5ce/20231002/a1696228500628_6437.jpg"],"created_at":"2025-01-20T12:46:12.785Z"},{"id":"item-07a8a7ec8b35","sku":"_dj6j6aNR3vt6F5G-hdQ1LhxwzgwaqEm8wEPsJlw","name_en":"Burberry Women Bags","name_cn":"这种托特真的是超级百搭,友情提示:托特包几乎可以替代所有包袋哦!","specs":{"source":"wsxcme","sourceId":"_dj6j6aNR3vt6F5G-hdQ1LhxwzgwaqEm8wEPsJlw","sourceTagId":80411239,"sourceTagName":"巴宝莉/女包","rawTitle":"这种托特真的是超级百搭,友情提示:托特包几乎可以替代所有包袋哦!"},"price":null,"currency":"CNY","moq":1,"category":"burberry-women-bags","status":"active","alibaba_url":null,"images":["https://xcimg.szwego.com/20220328/i1648444670_4594_0.jpg","https://xcimg.szwego.com/20220326/i1648306669_4774_2.jpg","https://xcimg.szwego.com/20220328/i1648444703_776_0.jpg","https://xcimg.szwego.com/20220328/i1648444670_7998_1.jpg","https://xcimg.szwego.com/20220326/i1648306669_4874_4.jpg","https://xcimg.szwego.com/20220326/i1648306669_699_5.jpg","https://xcimg.szwego.com/20220326/i1648306669_5272_6.jpg","https://xcimg.szwego.com/20220326/i1648306669_1157_7.jpg","https://xcimg.szwego.com/20220326/i1648306669_3226_8.jpg"],"created_at":"2025-01-20T12:46:12.759Z"},{"id":"item-037135633882","sku":"_domomqtaPUvmOq_69tsLjlp-jaXofXxlSYeOUTw","name_en":"Burberry Women Bags","name_cn":"原版定制牛皮鳄鱼纹,\n专柜一致的皮料,软软绵绵的很舒服!","specs":{"source":"wsxcme","sourceId":"_domomqtaPUvmOq_69tsLjlp-jaXofXxlSYeOUTw","sourceTagId":80411239,"sourceTagName":"巴宝莉/女包","rawTitle":"原版定制牛皮鳄鱼纹,\n专柜一致的皮料,软软绵绵的很舒服!"},"price":null,"currency":"CNY","moq":1,"category":"burberry-women-bags","status":"active","alibaba_url":null,"images":["https://xcimg.szwego.com/img/044b8f29/20241220/i1734681516_3224_0.jpg","https://xcimg.szwego.com/img/044b8f29/20241220/i1734681516_5253_2.jpg","https://xcimg.szwego.com/img/044b8f29/20241220/i1734681516_9185_1.jpg","https://xcimg.szwego.com/img/044b8f29/20241220/i1734681516_5791_5.jpg","https://xcimg.szwego.com/img/044b8f29/20241220/i1734681516_1717_3.jpg","https://xcimg.szwego.com/img/044b8f29/20241220/i1734681516_8454_4.jpg"],"created_at":"2026-06-29T10:27:58.862Z"},{"id":"item-026a4bca0e37","sku":"_dprprev4WYJ7YBpYjN_Lhqe47HAAliTqnQhEu7g","name_en":"Burberry Women Bags","name_cn":"上身效果图!","specs":{"source":"wsxcme","sourceId":"_dprprev4WYJ7YBpYjN_Lhqe47HAAliTqnQhEu7g","sourceTagId":80411239,"sourceTagName":"巴宝莉/女包","rawTitle":"上身效果图!"},"price":null,"currency":"CNY","moq":1,"category":"burberry-women-bags","status":"active","alibaba_url":null,"images":["https://xcimg.szwego.com/20220323/i1648017377_4125_0.jpg","https://xcimg.szwego.com/20220323/i1648017377_6592_1.jpg","https://xcimg.szwego.com/20220323/i1648017377_8825_2.jpg","https://xcimg.szwego.com/20220323/i1648017377_1459_3.jpg","https://xcimg.szwego.com/20220323/i1648017377_5660_4.jpg"],"created_at":"2026-06-29T10:27:59.072Z"},{"id":"item-0211ad5ef97d","sku":"_ds9s9O0Padrubh8FwLgB5fk7kn2wblC2M5CF0jg","name_en":"Burberry Women Bags","name_cn":"#上身效果图","specs":{"source":"wsxcme","sourceId":"_ds9s9O0Padrubh8FwLgB5fk7kn2wblC2M5CF0jg","sourceTagId":80411239,"sourceTagName":"巴宝莉/女包","rawTitle":"#上身效果图"},"price":null,"currency":"CNY","moq":1,"category":"burberry-women-bags","status":"active","alibaba_url":null,"images":["https://xcimg.szwego.com/img/a78c42d4/20250409/i1744182097945_1710_0_0.jpg","https://xcimg.szwego.com/img/a78c42d4/20250409/i1744182097946_2208_0_1.jpg","https://xcimg.szwego.com/img/a78c42d4/20250409/i1744182097946_5921_0_2.jpg","https://xcimg.szwego.com/img/a78c42d4/20250409/i1744182098562_3315_0_3.jpg","https://xcimg.szwego.com/img/a78c42d4/20250409/i1744182097945_6258_0_4.jpg","https://xcimg.szwego.com/img/a78c42d4/20250409/i1744182097946_9380_0_5.jpg"],"created_at":"2026-06-29T10:29:02.899Z"},{"id":"item-01b994f96794","sku":"_djYjYL8CRpp5hYWlaFjC1IO1lsl1i5e464DQAeA","name_en":"Burberry Women Bags","name_cn":"来看实拍 原单的!独家出货,\nbbr手提包 这个设计很到位 可以上班出勤用 也可以当休闲的背。外面前后是帆布设计,包边侧面以及内袋都是棕色牛皮拼接,非常经典的一个撞色设计,配一条可以拆卸的长肩带使用更完美!","specs":{"source":"wsxcme","sourceId":"_djYjYL8CRpp5hYWlaFjC1IO1lsl1i5e464DQAeA","sourceTagId":80411239,"sourceTagName":"巴宝莉/女包","rawTitle":"来看实拍 原单的!独家出货,\nbbr手提包 这个设计很到位 可以上班出勤用 也可以当休闲的背。外面前后是帆布设计,包边侧面以及内袋都是棕色牛皮拼接,非常经典的一个撞色设计,配一条可以拆卸的长肩带使用更完美!"},"price":null,"currency":"CNY","moq":1,"category":"burberry-women-bags","status":"active","alibaba_url":null,"images":["https://xcimg.szwego.com/20230906/i1693978223_3153_0.jpg","https://xcimg.szwego.com/20230906/i1693978223_4373_1.jpg","https://xcimg.szwego.com/20230906/i1693978223_2372_2.jpg","https://xcimg.szwego.com/20230906/i1693978223_7147_3.jpg","https://xcimg.szwego.com/20230906/i1693978223_9837_4.jpg","https://xcimg.szwego.com/20230906/i1693978223_5581_5.jpg","https://xcimg.szwego.com/20230906/i1693978223_5505_6.jpg","https://xcimg.szwego.com/20230906/i1693978223_6082_7.jpg","https://xcimg.szwego.com/20230906/i1693978223_6059_8.jpg"],"created_at":"2025-01-20T12:46:12.762Z"},{"id":"item-008040667507","sku":"_d_s_s01_byBOgnzPG9N-IDXjU0eFbOX5xcQ9yig","name_en":"Burberry Women Bags","name_cn":"巴宝莉【型号0621】顶级原单典藏灵感的托特包,精选帆布拼缉明线皮革制成,正面口袋装饰品牌徽标图案。可使用加固式皮革提柄手拎,或使用可拆式肩背带携带。\n尺寸:23 x 6 x 26.5cm\n内衬:92%棉,8%聚氨酯","specs":{"source":"wsxcme","sourceId":"_d_s_s01_byBOgnzPG9N-IDXjU0eFbOX5xcQ9yig","sourceTagId":80411239,"sourceTagName":"巴宝莉/女包","modelNumber":"0621】顶级原单典藏灵感的托特包","dimensions":{"lengthCm":23,"heightCm":6,"widthCm":26.5},"rawTitle":"巴宝莉【型号0621】顶级原单典藏灵感的托特包,精选帆布拼缉明线皮革制成,正面口袋装饰品牌徽标图案。可使用加固式皮革提柄手拎,或使用可拆式肩背带携带。\n尺寸:23 x 6 x 26.5cm\n内衬:92%棉,8%聚氨酯"},"price":null,"currency":"CNY","moq":1,"category":"burberry-women-bags","status":"active","alibaba_url":null,"images":["https://xcimg.szwego.com/20210928/a1632839049677_1124.jpg","https://xcimg.szwego.com/20210928/a1632839049759_6577.jpg","https://xcimg.szwego.com/20210928/a1632839049892_2486.jpg","https://xcimg.szwego.com/20210928/a1632839049975_2050.jpg","https://xcimg.szwego.com/20210928/a1632839050058_0546.jpg","https://xcimg.szwego.com/20210928/a1632839050141_5358.jpg","https://xcimg.szwego.com/20210928/a1632839050209_7615.jpg","https://xcimg.szwego.com/20210928/a1632839050287_6565.jpg","https://xcimg.szwego.com/20210928/a1632839050379_5783.jpg"],"created_at":"2025-02-08T12:43:27.830Z"},{"id":"item-a93113090748","sku":"_dvSvSXdYtHCbOBbSOAe-OAGCvxwxVo4QJebKVjg","name_en":"BV 2024秋冬新款超个性油蜡皮托特包,软软的牛皮制成 手感柔软温润颜色简单,让人很吸引容量很惊人笔记本电脑也是轻松放下,更是不分男女真是绝绝子酷飒高级这个秋天就让它成为你最贴心的包包","name_cn":"BV 2024秋冬新款超个性油蜡皮托特包,软软的牛皮制成 手感柔软温润颜色简单,让人很吸引容量很惊人笔记本电脑也是轻松放下,更是不分男女真是绝绝子酷飒高级这个秋天就让它成为你最贴心的包包\n款号:766969\n尺寸:46*34*11cm","specs":{"source":"wsxcme","sourceId":"_dvSvSXdYtHCbOBbSOAe-OAGCvxwxVo4QJebKVjg","sourceTagId":79154589,"sourceTagName":"BV/女包","modelNumber":"766969","dimensions":{"lengthCm":46,"heightCm":34,"widthCm":11},"rawTitle":"BV 2024秋冬新款超个性油蜡皮托特包,软软的牛皮制成 手感柔软温润颜色简单,让人很吸引容量很惊人笔记本电脑也是轻松放下,更是不分男女真是绝绝子酷飒高级这个秋天就让它成为你最贴心的包包\n款号:766969\n尺寸:46*34*11cm"},"price":null,"currency":"CNY","moq":1,"category":"bv-women-bags","status":"active","alibaba_url":null,"images":["https://xcimg.szwego.com/imgHD/ca05ca4b/20250111/cmp_i1736582079217_2944_0_0.jpg","https://xcimg.szwego.com/imgHD/ca05ca4b/20250111/cmp_i1736582079217_2184_0_1.jpg","https://xcimg.szwego.com/imgHD/ca05ca4b/20250111/cmp_i1736582079216_900_0_2.jpg","https://xcimg.szwego.com/imgHD/ca05ca4b/20250111/cmp_i1736582079217_5548_0_3.jpg","https://xcimg.szwego.com/imgHD/ca05ca4b/20250111/cmp_i1736582079217_1829_0_4.jpg","https://xcimg.szwego.com/imgHD/ca05ca4b/20250111/cmp_i1736582079217_9781_0_5.jpg","https://xcimg.szwego.com/imgHD/ca05ca4b/20250111/cmp_i1736582079217_1699_0_6.jpg","https://xcimg.szwego.com/imgHD/ca05ca4b/20250111/cmp_i1736582079217_9624_0_7.jpg","https://xcimg.szwego.com/imgHD/ca05ca4b/20250111/cmp_i1736582079217_6935_0_8.jpg"],"created_at":"2025-02-08T13:03:23.145Z"},{"id":"item-f9466d3ea407","sku":"_dwhwhwmLJ5eNfwIiKVfogIgfV_sBNrc3ZVFgsCA","name_en":"BV 2024新款Rumple皮革細節滿分","name_cn":"BV 2024新款Rumple皮革細節滿分\n倒三角形金屬釦時髦有型男女同款bv编织包#一体成型 无缝线包身\n一款宝藏包包整个手袋是通过一整张皮打造而成需要耗费20M夹棉管状皮条包身看不到任何缝线是精湛工艺 褶皱工艺小牛皮材质手感超棒的,像捏捏一样BV包\n高工藝Rumple Messenger,新品熱騰騰登場可調整長度,單肩斜背沒問題你值得擁有!包 新品上市\n款号:776519\n尺寸:30*23*7.5cm(肩带长度55cm)","specs":{"source":"wsxcme","sourceId":"_dwhwhwmLJ5eNfwIiKVfogIgfV_sBNrc3ZVFgsCA","sourceTagId":79154589,"sourceTagName":"BV/女包","modelNumber":"776519","dimensions":{"lengthCm":30,"heightCm":23,"widthCm":7.5},"rawTitle":"BV 2024新款Rumple皮革細節滿分\n倒三角形金屬釦時髦有型男女同款bv编织包#一体成型 无缝线包身\n一款宝藏包包整个手袋是通过一整张皮打造而成需要耗费20M夹棉管状皮条包身看不到任何缝线是精湛工艺 褶皱工艺小牛皮材质手感超棒的,像捏捏一样BV包\n高工藝Rumple Messenger,新品熱騰騰登場可調整長度,單肩斜背沒問題你值得擁有!包 新品上市\n款号:776519\n尺寸:30*23*7.5cm(肩带长度55cm)"},"price":null,"currency":"CNY","moq":1,"category":"bv-women-bags","status":"active","alibaba_url":null,"images":["https://xcimg.szwego.com/img/ca05ca4b/20240405/i1712247013_638_7.jpg","https://xcimg.szwego.com/img/ca05ca4b/20240405/i1712247013_1573_8.jpg","https://xcimg.szwego.com/img/ca05ca4b/20240405/i1712247013_3984_2.jpg","https://xcimg.szwego.com/img/ca05ca4b/20240405/i1712247013_5757_1.jpg","https://xcimg.szwego.com/img/ca05ca4b/20240405/i1712247013_1373_4.jpg","https://xcimg.szwego.com/img/ca05ca4b/20240405/i1712247013_4516_6.jpg","https://xcimg.szwego.com/img/ca05ca4b/20240405/i1712247013_6464_3.jpg","https://xcimg.szwego.com/img/ca05ca4b/20240405/i1712247013_3524_0.jpg","https://xcimg.szwego.com/img/ca05ca4b/20240405/i1712247013_2754_5.jpg"],"created_at":"2025-01-21T02:41:39.228Z"},{"id":"item-e8636ce432ff","sku":"_diDiDFq8EYeaR5Xh6e4hUe1c2keIGaHrchOuv4w","name_en":"BV 葆蝶家新品女士中号JODIE手袋BV包 🔥新做法是原有的基础上圆化边角,以经典编织皮革打结圆形hobo包, 最有标志性三角拉版设计,采用羊皮垂软造型,超级适合凹造型~Jodie给人的感觉真的超温柔,绝对是日常搭配最佳单品,不变的编织,新元素扭结,百搭,街拍网红的新宠!尺寸:36*21*13型号:6697","name_cn":"BV 葆蝶家新品女士中号JODIE手袋BV包 🔥新做法是原有的基础上圆化边角,以经典编织皮革打结圆形hobo包, 最有标志性三角拉版设计,采用羊皮垂软造型,超级适合凹造型~Jodie给人的感觉真的超温柔,绝对是日常搭配最佳单品,不变的编织,新元素扭结,百搭,街拍网红的新宠!尺寸:36*21*13型号:6697","specs":{"source":"wsxcme","sourceId":"_diDiDFq8EYeaR5Xh6e4hUe1c2keIGaHrchOuv4w","sourceTagId":79154589,"sourceTagName":"BV/女包","modelNumber":"6697","rawTitle":"BV 葆蝶家新品女士中号JODIE手袋BV包 🔥新做法是原有的基础上圆化边角,以经典编织皮革打结圆形hobo包, 最有标志性三角拉版设计,采用羊皮垂软造型,超级适合凹造型~Jodie给人的感觉真的超温柔,绝对是日常搭配最佳单品,不变的编织,新元素扭结,百搭,街拍网红的新宠!尺寸:36*21*13型号:6697"},"price":null,"currency":"CNY","moq":1,"category":"bv-women-bags","status":"active","alibaba_url":null,"images":["https://xcimg.szwego.com/img/5db70dfd/20231020/i1697795642_2449_0.jpg","https://xcimg.szwego.com/img/5db70dfd/20231020/i1697795642_4194_1.jpg","https://xcimg.szwego.com/img/5db70dfd/20231020/i1697795642_48_2.jpg","https://xcimg.szwego.com/img/5db70dfd/20231020/i1697795642_4040_3.jpg","https://xcimg.szwego.com/img/5db70dfd/20231020/i1697795642_210_4.jpg","https://xcimg.szwego.com/img/5db70dfd/20231020/i1697795642_6762_5.jpg","https://xcimg.szwego.com/img/5db70dfd/20231020/i1697795642_8806_6.jpg","https://xcimg.szwego.com/img/5db70dfd/20231020/i1697795642_5973_7.jpg"],"created_at":"2024-12-09T10:15:35.770Z"}],"page":230,"pageSize":24,"total":10075,"totalPages":420}
