{"items":[{"id":"item-d205e35b87fa","sku":"_deVeV1xJTDs7aZg0aWfiMoMGkORK0ey2GlVXDtA","name_en":"Gucci Women Bags","name_cn":"🔥官网参考\n\n型号:782849  尺寸:27.5x19x4cm","specs":{"source":"wsxcme","sourceId":"_deVeV1xJTDs7aZg0aWfiMoMGkORK0ey2GlVXDtA","sourceTagId":47002679,"sourceTagName":"古驰/女包","modelNumber":"782849  尺寸:27.5x19x4cm","dimensions":{"lengthCm":27.5,"heightCm":19,"widthCm":4},"rawTitle":"🔥官网参考\n\n型号:782849  尺寸:27.5x19x4cm"},"price":null,"currency":"CNY","moq":1,"category":"gucci-women-bags","status":"active","alibaba_url":null,"images":["https://xcimg.szwego.com/img/dace2ca2/20241106/a1730887592611_6604.jpg","https://xcimg.szwego.com/img/dace2ca2/20241106/a1730887592634_4546.jpg","https://xcimg.szwego.com/img/dace2ca2/20241106/a1730887592645_5334.jpg","https://xcimg.szwego.com/img/dace2ca2/20241106/a1730887592619_3842.jpg","https://xcimg.szwego.com/img/dace2ca2/20241106/a1730887592630_3201.jpg","https://xcimg.szwego.com/img/dace2ca2/20241106/a1730887592628_6433.jpg","https://xcimg.szwego.com/img/dace2ca2/20241106/a1730887593423_7653.jpg","https://xcimg.szwego.com/img/dace2ca2/20241106/a1730887593422_3025.jpg"],"created_at":"2025-03-29T13:24:08.758Z"},{"id":"item-cfda6b058335","sku":"_dcHcHAax6LXFIABFy9Di7IBGP_XSuv895BLi-Lg","name_en":"Gucci Women Bags","name_cn":"原厂皮👜配包装# \n🔥Marmont菱格原厂皮#\n全新Tote购物袋 ,整个包身下血本都用了原厂牛皮❗️袋口处加了锁扣设计更加有安全感,原厂皮质质感好到爆. 立体棱格绣花在灯光下让整个包活跃了起来,上身太好驾驭 不挑身高,也是全球打人必备的百搭单品!\n\n▫️型号681483\n▫️尺寸 26.5*19*11cm","specs":{"source":"wsxcme","sourceId":"_dcHcHAax6LXFIABFy9Di7IBGP_XSuv895BLi-Lg","sourceTagId":47002679,"sourceTagName":"古驰/女包","modelNumber":"681483","dimensions":{"lengthCm":26.5,"heightCm":19,"widthCm":11},"rawTitle":"原厂皮👜配包装# \n🔥Marmont菱格原厂皮#\n全新Tote购物袋 ,整个包身下血本都用了原厂牛皮❗️袋口处加了锁扣设计更加有安全感,原厂皮质质感好到爆. 立体棱格绣花在灯光下让整个包活跃了起来,上身太好驾驭 不挑身高,也是全球打人必备的百搭单品!\n\n▫️型号681483\n▫️尺寸 26.5*19*11cm"},"price":null,"currency":"CNY","moq":1,"category":"gucci-women-bags","status":"active","alibaba_url":null,"images":["https://xcimg.szwego.com/20211013/i1634105364_9594_0.jpg","https://xcimg.szwego.com/20211013/i1634105364_6330_1.jpg","https://xcimg.szwego.com/20211013/i1634105364_5921_2.jpg","https://xcimg.szwego.com/20211013/i1634105364_5057_3.jpg","https://xcimg.szwego.com/20211013/i1634105364_2315_4.jpg","https://xcimg.szwego.com/20211013/i1634105364_1549_5.jpg","https://xcimg.szwego.com/20211013/i1634105364_4092_6.jpg","https://xcimg.szwego.com/20211013/i1634105364_7707_7.jpg","https://xcimg.szwego.com/20211013/i1634105364_6032_8.jpg"],"created_at":"2024-10-20T11:19:56.249Z"},{"id":"item-cf59b97aea70","sku":"_dq6q6mdACQDyIL-Wo9WlDpCQVqzJAPTwQ_zgZHA","name_en":"Gucci Women Bags","name_cn":"。💖《配全套原厂绿色包装》💖\nG家新款简介:沉浸在复古情怀之中Ophidia家族迎来了新的成员——中号手提包方正的造型让人联想到复古的设计GG高级人造帆布材质点缀红绿织带等品牌最富特色的经典元素体现出对品牌马术本源的致敬Ophidia Web \n型号:602676。\n尺寸:19*14*6cm。\n颜色:棕色/pvc。","specs":{"source":"wsxcme","sourceId":"_dq6q6mdACQDyIL-Wo9WlDpCQVqzJAPTwQ_zgZHA","sourceTagId":47002679,"sourceTagName":"古驰/女包","modelNumber":"602676","dimensions":{"lengthCm":19,"heightCm":14,"widthCm":6},"rawTitle":"。💖《配全套原厂绿色包装》💖\nG家新款简介:沉浸在复古情怀之中Ophidia家族迎来了新的成员——中号手提包方正的造型让人联想到复古的设计GG高级人造帆布材质点缀红绿织带等品牌最富特色的经典元素体现出对品牌马术本源的致敬Ophidia Web \n型号:602676。\n尺寸:19*14*6cm。\n颜色:棕色/pvc。"},"price":null,"currency":"CNY","moq":1,"category":"gucci-women-bags","status":"active","alibaba_url":null,"images":["https://xcimg.szwego.com/20210627/i1624802784_3273_0.jpg","https://xcimg.szwego.com/20210627/i1624802784_2846_1.jpg","https://xcimg.szwego.com/20210627/i1624802784_3687_2.jpg","https://xcimg.szwego.com/20210627/i1624802784_7188_3.jpg","https://xcimg.szwego.com/20210627/i1624802784_7203_4.jpg","https://xcimg.szwego.com/20210627/i1624802784_3120_5.jpg","https://xcimg.szwego.com/20210627/i1624802784_3752_6.jpg","https://xcimg.szwego.com/20210627/i1624802784_7371_7.jpg","https://xcimg.szwego.com/20210627/i1624802784_9952_8.jpg"],"created_at":"2024-05-01T03:19:15.940Z"},{"id":"item-c909b86d7330","sku":"_dmjmjAawnuo2qaPetpzzoT0vUqwUYkt236ioCFg","name_en":"Gucci Women Bags","name_cn":"【最高版本原厂皮顶级原单配专柜全套包装】\n简介;这款全新GG,互扣式双G椭圆型标牌肩背包,米色和乌木色GG搭配棕色皮革,棉麻里衬,手提带另配有链条肩带。\n💐型号✨696011\n💐材质✨采用专柜质感pvc防水面料,配高密度织带👏纹路清晰易见、质感细腻最高品质!\n💐尺寸✨24.5x20x8cm","specs":{"source":"wsxcme","sourceId":"_dmjmjAawnuo2qaPetpzzoT0vUqwUYkt236ioCFg","sourceTagId":47002679,"sourceTagName":"古驰/女包","modelNumber":"✨696011","rawTitle":"【最高版本原厂皮顶级原单配专柜全套包装】\n简介;这款全新GG,互扣式双G椭圆型标牌肩背包,米色和乌木色GG搭配棕色皮革,棉麻里衬,手提带另配有链条肩带。\n💐型号✨696011\n💐材质✨采用专柜质感pvc防水面料,配高密度织带👏纹路清晰易见、质感细腻最高品质!\n💐尺寸✨24.5x20x8cm"},"price":null,"currency":"CNY","moq":1,"category":"gucci-women-bags","status":"active","alibaba_url":null,"images":["https://xcimg.szwego.com/20220517/i1652765038_9531_0.jpg","https://xcimg.szwego.com/20220517/i1652765038_4424_1.jpg","https://xcimg.szwego.com/20220517/i1652765038_5561_7.jpg","https://xcimg.szwego.com/20220517/i1652765038_7746_8.jpg","https://xcimg.szwego.com/20220517/i1652765038_2513_3.jpg","https://xcimg.szwego.com/20220517/i1652765038_1228_2.jpg","https://xcimg.szwego.com/20220517/i1652765038_1299_4.jpg","https://xcimg.szwego.com/20220517/i1652765038_4793_5.jpg","https://xcimg.szwego.com/20220517/i1652765038_7802_6.jpg"],"created_at":"2025-02-08T13:09:19.634Z"},{"id":"item-c69c3f72954f","sku":"_dtEtEBlrzQC-HP1gmTp5zIMf_NcCWnu8buTTfoQ","name_en":"Gucci Women Bags","name_cn":"实拍#       只做头层皮 真牛皮\n\n款号:308364裸粉\n尺寸:21x15x7cm\n\nGG disco soho相机包. 经典永不会过时\n浮雕双G配上皮革流苏.头层牛皮 超级软\n斜挎✅单肩✅手拿✅","specs":{"source":"wsxcme","sourceId":"_dtEtEBlrzQC-HP1gmTp5zIMf_NcCWnu8buTTfoQ","sourceTagId":47002679,"sourceTagName":"古驰/女包","modelNumber":"308364裸粉","dimensions":{"lengthCm":21,"heightCm":15,"widthCm":7},"rawTitle":"实拍#       只做头层皮 真牛皮\n\n款号:308364裸粉\n尺寸:21x15x7cm\n\nGG disco soho相机包. 经典永不会过时\n浮雕双G配上皮革流苏.头层牛皮 超级软\n斜挎✅单肩✅手拿✅"},"price":null,"currency":"CNY","moq":1,"category":"gucci-women-bags","status":"active","alibaba_url":null,"images":["https://xcimg.szwego.com/20221027/i1666863893_12_0.jpg","https://xcimg.szwego.com/20221027/i1666863893_1122_1.jpg","https://xcimg.szwego.com/20221027/i1666863893_7420_2.jpg","https://xcimg.szwego.com/20221027/i1666863893_3449_3.jpg","https://xcimg.szwego.com/20221027/i1666863893_7287_4.jpg","https://xcimg.szwego.com/20221027/i1666863893_8267_5.jpg","https://xcimg.szwego.com/20221027/i1666863893_9816_6.jpg","https://xcimg.szwego.com/20221027/i1666863893_6010_7.jpg","https://xcimg.szwego.com/20221027/i1666863893_4539_8.jpg"],"created_at":"2024-11-26T11:46:47.168Z"},{"id":"item-c56ec69cf9d3","sku":"_dwXwX_hREmT7U68zKkeb__FXqcNSBShXPuAi4ww","name_en":"Gucci Women Bags","name_cn":"。💖《配全套原厂绿色包装》💖\nG家新款简介:沉浸在复古情怀之中Ophidia家族迎来了新的成员——中号手提包方正的造型让人联想到复古的设计GG高级人造帆布材质点缀红绿织带等品牌最富特色的经典元素体现出对品牌马术本源的致敬Ophidia Web \n型号:503876。\n尺寸:32.5*20*10cm。\n颜色:棕色/pvc。","specs":{"source":"wsxcme","sourceId":"_dwXwX_hREmT7U68zKkeb__FXqcNSBShXPuAi4ww","sourceTagId":47002679,"sourceTagName":"古驰/女包","modelNumber":"503876","dimensions":{"lengthCm":32.5,"heightCm":20,"widthCm":10},"rawTitle":"。💖《配全套原厂绿色包装》💖\nG家新款简介:沉浸在复古情怀之中Ophidia家族迎来了新的成员——中号手提包方正的造型让人联想到复古的设计GG高级人造帆布材质点缀红绿织带等品牌最富特色的经典元素体现出对品牌马术本源的致敬Ophidia Web \n型号:503876。\n尺寸:32.5*20*10cm。\n颜色:棕色/pvc。"},"price":null,"currency":"CNY","moq":1,"category":"gucci-women-bags","status":"active","alibaba_url":null,"images":["https://xcimg.szwego.com/20210627/i1624803023_5272_0.jpg","https://xcimg.szwego.com/20210627/i1624803023_5310_1.jpg","https://xcimg.szwego.com/20210627/i1624803023_213_2.jpg","https://xcimg.szwego.com/20210627/i1624803023_4283_3.jpg","https://xcimg.szwego.com/20210627/i1624803023_4242_4.jpg","https://xcimg.szwego.com/20210627/i1624803023_7860_5.jpg","https://xcimg.szwego.com/20210627/i1624803023_9124_6.jpg","https://xcimg.szwego.com/20210627/i1624803023_334_7.jpg","https://xcimg.szwego.com/20210627/i1624803023_257_8.jpg"],"created_at":"2024-05-01T03:19:15.942Z"},{"id":"item-c155b04491cd","sku":"_dgDgD3eTEzg_-mQcYIblNxoXq-wYNlrgQsur2GA","name_en":"Gucci Women Bags","name_cn":"型号 :499623 红\n尺寸:25x14x8cm   \n\n Gucci Dionysus钻扣酒神\n真香系列警告,太绝了。\n保留了酒神包的完美血统,\n但是开启了酒神革新时代!\n整个包最值钱的地方就是虎头钻石扣\n殿堂级宝藏单品。并非市场货。\n自重很轻,尺寸大小非常完美,推荐入。","specs":{"source":"wsxcme","sourceId":"_dgDgD3eTEzg_-mQcYIblNxoXq-wYNlrgQsur2GA","sourceTagId":47002679,"sourceTagName":"古驰/女包","modelNumber":"499623 红","dimensions":{"lengthCm":25,"heightCm":14,"widthCm":8},"rawTitle":"型号 :499623 红\n尺寸:25x14x8cm   \n\n Gucci Dionysus钻扣酒神\n真香系列警告,太绝了。\n保留了酒神包的完美血统,\n但是开启了酒神革新时代!\n整个包最值钱的地方就是虎头钻石扣\n殿堂级宝藏单品。并非市场货。\n自重很轻,尺寸大小非常完美,推荐入。"},"price":null,"currency":"CNY","moq":1,"category":"gucci-women-bags","status":"active","alibaba_url":null,"images":["https://xcimg.szwego.com/img/d06f5dea/20240601/i1717221783_6173_8.jpg","https://xcimg.szwego.com/img/d06f5dea/20240601/i1717221783_2524_5.jpg","https://xcimg.szwego.com/img/d06f5dea/20240601/i1717221783_7947_4.jpg","https://xcimg.szwego.com/img/d06f5dea/20240601/i1717221783_4708_7.jpg","https://xcimg.szwego.com/img/d06f5dea/20240601/i1717221783_3533_6.jpg","https://xcimg.szwego.com/img/d06f5dea/20240601/i1717221783_5018_1.jpg","https://xcimg.szwego.com/img/d06f5dea/20240601/i1717221783_6047_0.jpg","https://xcimg.szwego.com/img/d06f5dea/20240601/i1717221783_9308_2.jpg","https://xcimg.szwego.com/img/d06f5dea/20240601/i1717221783_784_3.jpg"],"created_at":"2026-05-20T03:19:23.348Z"},{"id":"item-c02c482d0391","sku":"_dioio6uXbkQH2dySSITZyT1MNsCPB5fiDTeW28g","name_en":"Gucci Women Bags","name_cn":"正品级\n迷你马鞍包1955系列手袋为这一复古风格系列增添了混搭格调。这款迷你手袋配有两根不同的肩带,搭配同色调皮革肩带可呈现出低调优雅的气息,搭配红绿织带肩带则突显强大的品牌标识内涵。手袋采用双G字母交织图案帆布制作,饰以棕色皮革滚边。\n型号: 658574全皮 \n尺寸: 20.5x14x5cm","specs":{"source":"wsxcme","sourceId":"_dioio6uXbkQH2dySSITZyT1MNsCPB5fiDTeW28g","sourceTagId":47002679,"sourceTagName":"古驰/女包","modelNumber":"658574全皮","dimensions":{"lengthCm":20.5,"heightCm":14,"widthCm":5},"rawTitle":"正品级\n迷你马鞍包1955系列手袋为这一复古风格系列增添了混搭格调。这款迷你手袋配有两根不同的肩带,搭配同色调皮革肩带可呈现出低调优雅的气息,搭配红绿织带肩带则突显强大的品牌标识内涵。手袋采用双G字母交织图案帆布制作,饰以棕色皮革滚边。\n型号: 658574全皮 \n尺寸: 20.5x14x5cm"},"price":null,"currency":"CNY","moq":1,"category":"gucci-women-bags","status":"active","alibaba_url":null,"images":["https://xcimg.szwego.com/20210603/i1622710187_2802_0.jpg","https://xcimg.szwego.com/20210603/i1622710187_9024_1.jpg","https://xcimg.szwego.com/20210603/i1622710187_9406_2.jpg","https://xcimg.szwego.com/20210603/i1622710187_53_3.jpg","https://xcimg.szwego.com/20210603/i1622710187_258_4.jpg","https://xcimg.szwego.com/20210603/i1622710187_8772_5.jpg","https://xcimg.szwego.com/20210603/i1622710187_9470_6.jpg","https://xcimg.szwego.com/20210603/i1622710187_4426_7.jpg","https://xcimg.szwego.com/20210603/i1622710187_9554_8.jpg"],"created_at":"2024-09-20T05:28:32.910Z"},{"id":"item-bf72b41fb14f","sku":"_drNrNBJ9Ra0_KxvD1yJQsel2fCVQ8KKT6tzZHMw","name_en":"Gucci Women Bags","name_cn":"【原厂皮】\n标识由20世纪30年代的Gucci钻石菱格纹演化而来735132并从此成为Gucci的传统象征。全新Ophidia系列中的这款小号手袋在设计中融入这一高辨识度图案。双G配件令整款造型更添魅力!尺寸:25x/15.5/ 6cm【配原厂包装】\n￼","specs":{"source":"wsxcme","sourceId":"_drNrNBJ9Ra0_KxvD1yJQsel2fCVQ8KKT6tzZHMw","sourceTagId":47002679,"sourceTagName":"古驰/女包","rawTitle":"【原厂皮】\n标识由20世纪30年代的Gucci钻石菱格纹演化而来735132并从此成为Gucci的传统象征。全新Ophidia系列中的这款小号手袋在设计中融入这一高辨识度图案。双G配件令整款造型更添魅力!尺寸:25x/15.5/ 6cm【配原厂包装】\n￼"},"price":null,"currency":"CNY","moq":1,"category":"gucci-women-bags","status":"active","alibaba_url":null,"images":["https://xcimg.szwego.com/20230522/i1684765469_2492_0.jpg","https://xcimg.szwego.com/20230522/i1684765469_4139_1.jpg","https://xcimg.szwego.com/20230522/i1684765469_6809_2.jpg","https://xcimg.szwego.com/20230522/i1684765469_2941_3.jpg","https://xcimg.szwego.com/20230522/i1684765469_5107_4.jpg","https://xcimg.szwego.com/20230522/i1684765469_1875_5.jpg","https://xcimg.szwego.com/20230522/i1684765469_1461_6.jpg","https://xcimg.szwego.com/20230522/i1684765469_8335_7.jpg"],"created_at":"2024-11-26T11:46:47.213Z"},{"id":"item-bf3d443d8d94","sku":"_d8f8f_vhvEQBa7NfoOdukuCvfgodxHjopYPixnQ","name_en":"Gucci Women Bags","name_cn":"实拍#       只做头层皮 真牛皮\n\n款号:308364米白\n尺寸:21x15x7cm\n\nGG disco soho相机包. 经典永不会过时\n浮雕双G配上皮革流苏.头层牛皮 超级软\n斜挎✅单肩✅手拿✅","specs":{"source":"wsxcme","sourceId":"_d8f8f_vhvEQBa7NfoOdukuCvfgodxHjopYPixnQ","sourceTagId":47002679,"sourceTagName":"古驰/女包","modelNumber":"308364米白","dimensions":{"lengthCm":21,"heightCm":15,"widthCm":7},"rawTitle":"实拍#       只做头层皮 真牛皮\n\n款号:308364米白\n尺寸:21x15x7cm\n\nGG disco soho相机包. 经典永不会过时\n浮雕双G配上皮革流苏.头层牛皮 超级软\n斜挎✅单肩✅手拿✅"},"price":null,"currency":"CNY","moq":1,"category":"gucci-women-bags","status":"active","alibaba_url":null,"images":["https://xcimg.szwego.com/20221027/i1666863662_2758_0.jpg","https://xcimg.szwego.com/20221027/i1666863662_7342_1.jpg","https://xcimg.szwego.com/20221027/i1666863662_2103_2.jpg","https://xcimg.szwego.com/20221027/i1666863662_2558_3.jpg","https://xcimg.szwego.com/20221027/i1666863662_8765_4.jpg","https://xcimg.szwego.com/20221027/i1666863662_975_5.jpg","https://xcimg.szwego.com/20221027/i1666863662_9787_6.jpg","https://xcimg.szwego.com/20221027/i1666863662_7270_7.jpg","https://xcimg.szwego.com/20221027/i1666863662_168_8.jpg"],"created_at":"2024-11-26T11:46:47.172Z"},{"id":"item-b60872723e03","sku":"_dqZqZZptmlE6JZ6KjKrIOng8hgP4RFS9D3cQ80g","name_en":"Gucci Women Bags","name_cn":"🌟元素真的很吃香\n    好看的东西总是不断被挖掘","specs":{"source":"wsxcme","sourceId":"_dqZqZZptmlE6JZ6KjKrIOng8hgP4RFS9D3cQ80g","sourceTagId":47002679,"sourceTagName":"古驰/女包","rawTitle":"🌟元素真的很吃香\n    好看的东西总是不断被挖掘"},"price":null,"currency":"CNY","moq":1,"category":"gucci-women-bags","status":"active","alibaba_url":null,"images":["https://xcimg.szwego.com/img/7f9d4644/20260130/i1769753841145_5476_0_0.jpg","https://xcimg.szwego.com/img/7f9d4644/20260130/i1769753841475_7850_0_1.jpg","https://xcimg.szwego.com/img/7f9d4644/20260130/i1769753841145_8665_0_2.jpg","https://xcimg.szwego.com/img/7f9d4644/20260130/i1769753841394_169_0_3.jpg","https://xcimg.szwego.com/img/7f9d4644/20260130/i1769753841145_1125_0_4.jpg","https://xcimg.szwego.com/img/7f9d4644/20260130/i1769753841989_7586_0_5.jpg","https://xcimg.szwego.com/img/7f9d4644/20260130/i1769753794571_7072_0_6.jpg","https://xcimg.szwego.com/img/7f9d4644/20260130/i1769753841989_8534_0_7.jpg","https://xcimg.szwego.com/img/7f9d4644/20260130/i1769753841989_9393_0_8.jpg"],"created_at":"2026-05-20T03:19:23.628Z"},{"id":"item-b1583b9d5725","sku":"_dmCmCl3fGYFsxCNLFpuz65hf31t02lJ2esj2WRA","name_en":"Gucci Women Bags","name_cn":"🤍最受欢迎白色","specs":{"source":"wsxcme","sourceId":"_dmCmCl3fGYFsxCNLFpuz65hf31t02lJ2esj2WRA","sourceTagId":47002679,"sourceTagName":"古驰/女包","rawTitle":"🤍最受欢迎白色"},"price":null,"currency":"CNY","moq":1,"category":"gucci-women-bags","status":"active","alibaba_url":null,"images":["https://xcimg.szwego.com/img/7f9d4644/20260130/i1769753794572_6833_0_0.jpg","https://xcimg.szwego.com/img/7f9d4644/20260130/i1769753795276_7741_0_1.jpg","https://xcimg.szwego.com/img/7f9d4644/20260130/i1769753794571_2912_0_2.jpg","https://xcimg.szwego.com/img/7f9d4644/20260130/i1769753794569_795_0_3.jpg","https://xcimg.szwego.com/img/7f9d4644/20260130/i1769753795279_6426_0_4.jpg","https://xcimg.szwego.com/img/7f9d4644/20260130/i1769753794569_2069_0_5.jpg"],"created_at":"2026-05-20T03:19:23.618Z"},{"id":"item-aee25ae79935","sku":"_dqUqUukdNTgwiG2AY_mNY7VJe5eA6caPitLoicg","name_en":"Gucci Women Bags","name_cn":"🔥官网参考\n\n型号:782849  尺寸:27.5x19x4cm","specs":{"source":"wsxcme","sourceId":"_dqUqUukdNTgwiG2AY_mNY7VJe5eA6caPitLoicg","sourceTagId":47002679,"sourceTagName":"古驰/女包","modelNumber":"782849  尺寸:27.5x19x4cm","dimensions":{"lengthCm":27.5,"heightCm":19,"widthCm":4},"rawTitle":"🔥官网参考\n\n型号:782849  尺寸:27.5x19x4cm"},"price":null,"currency":"CNY","moq":1,"category":"gucci-women-bags","status":"active","alibaba_url":null,"images":["https://xcimg.szwego.com/img/dace2ca2/20241106/a1730899983470_4667.jpg","https://xcimg.szwego.com/img/dace2ca2/20241106/a1730899983471_6572.jpg","https://xcimg.szwego.com/img/dace2ca2/20241106/a1730899983466_8424.jpg","https://xcimg.szwego.com/img/dace2ca2/20241106/a1730899983470_2476.jpg","https://xcimg.szwego.com/img/dace2ca2/20241106/a1730899983465_0785.jpg","https://xcimg.szwego.com/img/dace2ca2/20241106/a1730899983470_5230.jpg","https://xcimg.szwego.com/img/dace2ca2/20241106/a1730899984542_2183.jpg","https://xcimg.szwego.com/img/dace2ca2/20241106/a1730899984541_6724.jpg"],"created_at":"2025-03-29T13:24:08.770Z"},{"id":"item-a934d0d1775d","sku":"_dsnsnVtZ34N91ojpZc-I2dv1aUk9XL1P5YwfUCg","name_en":"Gucci Women Bags","name_cn":"实拍#       只做头层皮 真牛皮\n\n款号:308364大象灰\n尺寸:21x15x7cm\n\nGG disco soho相机包. 经典永不会过时\n浮雕双G配上皮革流苏.头层牛皮 超级软\n斜挎✅单肩✅手拿✅","specs":{"source":"wsxcme","sourceId":"_dsnsnVtZ34N91ojpZc-I2dv1aUk9XL1P5YwfUCg","sourceTagId":47002679,"sourceTagName":"古驰/女包","modelNumber":"308364大象灰","dimensions":{"lengthCm":21,"heightCm":15,"widthCm":7},"rawTitle":"实拍#       只做头层皮 真牛皮\n\n款号:308364大象灰\n尺寸:21x15x7cm\n\nGG disco soho相机包. 经典永不会过时\n浮雕双G配上皮革流苏.头层牛皮 超级软\n斜挎✅单肩✅手拿✅"},"price":null,"currency":"CNY","moq":1,"category":"gucci-women-bags","status":"active","alibaba_url":null,"images":["https://xcimg.szwego.com/20221027/i1666863738_8355_0.jpg","https://xcimg.szwego.com/20221027/i1666863738_173_1.jpg","https://xcimg.szwego.com/20221027/i1666863738_3297_2.jpg","https://xcimg.szwego.com/20221027/i1666863738_4716_3.jpg","https://xcimg.szwego.com/20221027/i1666863760_621_0.jpg","https://xcimg.szwego.com/20221027/i1666863738_6445_4.jpg","https://xcimg.szwego.com/20221027/i1666863738_7124_5.jpg","https://xcimg.szwego.com/20221027/i1666863738_8981_6.jpg","https://xcimg.szwego.com/20221027/i1666863738_4721_7.jpg"],"created_at":"2024-11-26T11:46:47.174Z"},{"id":"item-a919d1c173cb","sku":"_d8I8I200AjUO1ASCFOlEZ4EclaT-T78oVlcIL3g","name_en":"Gucci Women Bags","name_cn":"🔥官网参考\n\n型号:782849  尺寸:27.5x19x4cm","specs":{"source":"wsxcme","sourceId":"_d8I8I200AjUO1ASCFOlEZ4EclaT-T78oVlcIL3g","sourceTagId":47002679,"sourceTagName":"古驰/女包","modelNumber":"782849  尺寸:27.5x19x4cm","dimensions":{"lengthCm":27.5,"heightCm":19,"widthCm":4},"rawTitle":"🔥官网参考\n\n型号:782849  尺寸:27.5x19x4cm"},"price":null,"currency":"CNY","moq":1,"category":"gucci-women-bags","status":"active","alibaba_url":null,"images":["https://xcimg.szwego.com/img/dace2ca2/20250327/a1743082486980_3385.jpg","https://xcimg.szwego.com/img/dace2ca2/20250327/a1743082486972_7240.jpg","https://xcimg.szwego.com/img/dace2ca2/20250327/a1743082486978_8128.jpg","https://xcimg.szwego.com/img/dace2ca2/20250327/a1743082486979_3142.jpg","https://xcimg.szwego.com/img/dace2ca2/20250327/a1743082486977_5563.jpg","https://xcimg.szwego.com/img/dace2ca2/20250327/a1743082488450_2347.jpg","https://xcimg.szwego.com/img/dace2ca2/20250327/a1743082488458_8081.jpg","https://xcimg.szwego.com/img/dace2ca2/20250327/a1743082488461_8222.jpg"],"created_at":"2025-03-29T13:24:08.780Z"},{"id":"item-a54c30d80420","sku":"_dbfbfWNwSJu_APXaPMDIzJjJlj7Ft5br-dV5Eew","name_en":"Gucci Women Bags","name_cn":"782849白色帆布棕皮\n明星模特\n上身参考图","specs":{"source":"wsxcme","sourceId":"_dbfbfWNwSJu_APXaPMDIzJjJlj7Ft5br-dV5Eew","sourceTagId":47002679,"sourceTagName":"古驰/女包","rawTitle":"782849白色帆布棕皮\n明星模特\n上身参考图"},"price":null,"currency":"CNY","moq":1,"category":"gucci-women-bags","status":"active","alibaba_url":null,"images":["https://xcimg.szwego.com/img/dace2ca2/20241106/a1730867843922_0103.jpg","https://xcimg.szwego.com/img/dace2ca2/20241106/a1730867843924_0610.jpg"],"created_at":"2025-03-29T13:24:08.750Z"},{"id":"item-a541a4e1575b","sku":"_dololnfkhOaDE7UgPr7kOIo5Ur-xIOH3SKp600Q","name_en":"Gucci Women Bags","name_cn":"🔥官网参考\n\n型号:782849  尺寸:27.5x19x4cm","specs":{"source":"wsxcme","sourceId":"_dololnfkhOaDE7UgPr7kOIo5Ur-xIOH3SKp600Q","sourceTagId":47002679,"sourceTagName":"古驰/女包","modelNumber":"782849  尺寸:27.5x19x4cm","dimensions":{"lengthCm":27.5,"heightCm":19,"widthCm":4},"rawTitle":"🔥官网参考\n\n型号:782849  尺寸:27.5x19x4cm"},"price":null,"currency":"CNY","moq":1,"category":"gucci-women-bags","status":"active","alibaba_url":null,"images":["https://xcimg.szwego.com/img/dace2ca2/20241106/a1730903527457_2537.jpg","https://xcimg.szwego.com/img/dace2ca2/20241106/a1730903527438_7020.jpg","https://xcimg.szwego.com/img/dace2ca2/20241106/a1730903527458_7175.jpg","https://xcimg.szwego.com/img/dace2ca2/20241106/a1730903527406_8678.jpg","https://xcimg.szwego.com/img/dace2ca2/20241106/a1730903527455_6703.jpg","https://xcimg.szwego.com/img/dace2ca2/20241106/a1730903527418_0544.jpg","https://xcimg.szwego.com/img/dace2ca2/20241106/a1730903529134_1662.jpg","https://xcimg.szwego.com/img/dace2ca2/20241106/a1730903529119_4027.jpg"],"created_at":"2025-03-29T13:24:08.783Z"},{"id":"item-a30d954693a4","sku":"_dwVwVbGtanVtOefQf6jYrdM213cJkqO_hkPsX0w","name_en":"Gucci Women Bags","name_cn":"🔥官网参考\n\n型号:782849  尺寸:27.5x19x4cm","specs":{"source":"wsxcme","sourceId":"_dwVwVbGtanVtOefQf6jYrdM213cJkqO_hkPsX0w","sourceTagId":47002679,"sourceTagName":"古驰/女包","modelNumber":"782849  尺寸:27.5x19x4cm","dimensions":{"lengthCm":27.5,"heightCm":19,"widthCm":4},"rawTitle":"🔥官网参考\n\n型号:782849  尺寸:27.5x19x4cm"},"price":null,"currency":"CNY","moq":1,"category":"gucci-women-bags","status":"active","alibaba_url":null,"images":["https://xcimg.szwego.com/img/dace2ca2/20241106/a1730889640909_6541.jpg","https://xcimg.szwego.com/img/dace2ca2/20241106/a1730889640908_6653.jpg","https://xcimg.szwego.com/img/dace2ca2/20241106/a1730889640912_0034.jpg","https://xcimg.szwego.com/img/dace2ca2/20241106/a1730889640920_7314.jpg","https://xcimg.szwego.com/img/dace2ca2/20241106/a1730889640947_2755.jpg","https://xcimg.szwego.com/img/dace2ca2/20241106/a1730889640946_5001.jpg","https://xcimg.szwego.com/img/dace2ca2/20241106/a1730889641678_3837.jpg","https://xcimg.szwego.com/img/dace2ca2/20241106/a1730889641682_2766.jpg"],"created_at":"2025-03-29T13:24:08.755Z"},{"id":"item-a3051f3068e4","sku":"_dtmtm_bkA77HrtFKXv1MU7pBe2Clcz7LQRaD1rA","name_en":"Gucci Women Bags","name_cn":"实拍#       只做头层皮 真牛皮\n\n款号:308364宝蓝\n尺寸:21x15x7cm\n\nGG disco soho相机包. 经典永不会过时\n浮雕双G配上皮革流苏.头层牛皮 超级软\n斜挎✅单肩✅手拿✅","specs":{"source":"wsxcme","sourceId":"_dtmtm_bkA77HrtFKXv1MU7pBe2Clcz7LQRaD1rA","sourceTagId":47002679,"sourceTagName":"古驰/女包","modelNumber":"308364宝蓝","dimensions":{"lengthCm":21,"heightCm":15,"widthCm":7},"rawTitle":"实拍#       只做头层皮 真牛皮\n\n款号:308364宝蓝\n尺寸:21x15x7cm\n\nGG disco soho相机包. 经典永不会过时\n浮雕双G配上皮革流苏.头层牛皮 超级软\n斜挎✅单肩✅手拿✅"},"price":null,"currency":"CNY","moq":1,"category":"gucci-women-bags","status":"active","alibaba_url":null,"images":["https://xcimg.szwego.com/20221027/i1666863792_7690_0.jpg","https://xcimg.szwego.com/20221027/i1666863792_1975_1.jpg","https://xcimg.szwego.com/20221027/i1666863792_6409_2.jpg","https://xcimg.szwego.com/20221027/i1666863792_6705_3.jpg","https://xcimg.szwego.com/20221027/i1666863792_9141_4.jpg","https://xcimg.szwego.com/20221027/i1666863792_6301_5.jpg","https://xcimg.szwego.com/20221027/i1666863792_7962_6.jpg","https://xcimg.szwego.com/20221027/i1666863792_215_7.jpg","https://xcimg.szwego.com/20221027/i1666863792_3924_8.jpg"],"created_at":"2024-11-26T11:46:47.170Z"},{"id":"item-a1ba534012a2","sku":"_d_a_ai_zD4hww-pR6wWDxUCdOQEjmORVz6u1IlQ","name_en":"Gucci Women Bags","name_cn":"✌️容量完全可️满足","specs":{"source":"wsxcme","sourceId":"_d_a_ai_zD4hww-pR6wWDxUCdOQEjmORVz6u1IlQ","sourceTagId":47002679,"sourceTagName":"古驰/女包","rawTitle":"✌️容量完全可️满足"},"price":null,"currency":"CNY","moq":1,"category":"gucci-women-bags","status":"active","alibaba_url":null,"images":["https://xcimg.szwego.com/img/7f9d4644/20260125/i1769322140258_4684_0_0.jpg","https://xcimg.szwego.com/img/7f9d4644/20260125/i1769322140258_5008_0_1.jpg","https://xcimg.szwego.com/img/7f9d4644/20260125/i1769322140259_1001_0_2.jpg","https://xcimg.szwego.com/img/7f9d4644/20260125/i1769322140258_4091_0_3.jpg"],"created_at":"2026-05-20T03:19:23.818Z"},{"id":"item-9c25f27c4352","sku":"_dKZKZS-9I43Vzfce_FVVrTTti7rlKD_UtpM1Kpg","name_en":"Gucci Women Bags","name_cn":"✌️容量完全可️满足","specs":{"source":"wsxcme","sourceId":"_dKZKZS-9I43Vzfce_FVVrTTti7rlKD_UtpM1Kpg","sourceTagId":47002679,"sourceTagName":"古驰/女包","rawTitle":"✌️容量完全可️满足"},"price":null,"currency":"CNY","moq":1,"category":"gucci-women-bags","status":"active","alibaba_url":null,"images":["https://xcimg.szwego.com/img/7f9d4644/20260125/i1769322118975_4435_0_0.jpg","https://xcimg.szwego.com/img/7f9d4644/20260125/i1769322118975_4880_0_1.jpg","https://xcimg.szwego.com/img/7f9d4644/20260125/i1769322118975_7712_0_2.jpg","https://xcimg.szwego.com/img/7f9d4644/20260125/i1769322118975_3088_0_3.jpg","https://xcimg.szwego.com/img/7f9d4644/20260125/i1769322119684_221_0_4.jpg","https://xcimg.szwego.com/img/7f9d4644/20260125/i1769322118975_493_0_5.jpg"],"created_at":"2026-05-20T03:19:23.808Z"},{"id":"item-9b629d1a18c9","sku":"_dqwqwtcafm19C31f0aAK6V43nF4_MbHB6PEs2Ww","name_en":"Gucci Women Bags","name_cn":"实拍#       只做头层皮 真牛皮\n\n款号:308364卡其\n尺寸:21x15x7cm\n\nGG disco soho相机包. 经典永不会过时\n浮雕双G配上皮革流苏.头层牛皮 超级软\n斜挎✅单肩✅手拿✅","specs":{"source":"wsxcme","sourceId":"_dqwqwtcafm19C31f0aAK6V43nF4_MbHB6PEs2Ww","sourceTagId":47002679,"sourceTagName":"古驰/女包","modelNumber":"308364卡其","dimensions":{"lengthCm":21,"heightCm":15,"widthCm":7},"rawTitle":"实拍#       只做头层皮 真牛皮\n\n款号:308364卡其\n尺寸:21x15x7cm\n\nGG disco soho相机包. 经典永不会过时\n浮雕双G配上皮革流苏.头层牛皮 超级软\n斜挎✅单肩✅手拿✅"},"price":null,"currency":"CNY","moq":1,"category":"gucci-women-bags","status":"active","alibaba_url":null,"images":["https://xcimg.szwego.com/img/d06f5dea/20240701/i1719822025_9844_0.jpg","https://xcimg.szwego.com/img/d06f5dea/20240701/i1719822025_1355_6.jpg","https://xcimg.szwego.com/img/d06f5dea/20240701/i1719822025_6364_8.jpg","https://xcimg.szwego.com/img/d06f5dea/20240701/i1719822025_3252_5.jpg","https://xcimg.szwego.com/img/d06f5dea/20240701/i1719822025_3076_1.jpg","https://xcimg.szwego.com/img/d06f5dea/20240701/i1719822025_8881_4.jpg","https://xcimg.szwego.com/img/d06f5dea/20240701/i1719822025_9438_2.jpg","https://xcimg.szwego.com/img/d06f5dea/20240701/i1719822025_5031_3.jpg","https://xcimg.szwego.com/img/d06f5dea/20240701/i1719822025_246_7.jpg"],"created_at":"2024-11-26T11:46:47.166Z"},{"id":"item-9b0035851dd0","sku":"_dsCsCE867lcgXFRMnCCnUpuaCYJojgHBn6DfN4A","name_en":"Gucci Women Bags","name_cn":"正品级\nGUCC 1955 horsebit bag 复古马街扣手袋,谷驰复古回潮,设计师和时尚精们合力展现了G家的正确打开方式,经典的马街扣+monogram+棕色勾边设计,满满的复古调调,复古棕超级耐看,喜欢复古搭的小仙女必须入🤘  \n款号:602204,尺寸:25.5x18x6cm","specs":{"source":"wsxcme","sourceId":"_dsCsCE867lcgXFRMnCCnUpuaCYJojgHBn6DfN4A","sourceTagId":47002679,"sourceTagName":"古驰/女包","modelNumber":"602204","dimensions":{"lengthCm":25.5,"heightCm":18,"widthCm":6},"rawTitle":"正品级\nGUCC 1955 horsebit bag 复古马街扣手袋,谷驰复古回潮,设计师和时尚精们合力展现了G家的正确打开方式,经典的马街扣+monogram+棕色勾边设计,满满的复古调调,复古棕超级耐看,喜欢复古搭的小仙女必须入🤘  \n款号:602204,尺寸:25.5x18x6cm"},"price":null,"currency":"CNY","moq":1,"category":"gucci-women-bags","status":"active","alibaba_url":null,"images":["https://xcimg.szwego.com/20191105/i1572942236_7460_0.jpg","https://xcimg.szwego.com/20191105/i1572942236_9273_1.jpg","https://xcimg.szwego.com/20191105/i1572942236_7165_2.jpg","https://xcimg.szwego.com/20191105/i1572942236_7603_3.jpg","https://xcimg.szwego.com/20191105/i1572942236_8251_4.jpg","https://xcimg.szwego.com/20191105/i1572942236_2718_5.jpg","https://xcimg.szwego.com/20191105/i1572942236_2963_6.jpg","https://xcimg.szwego.com/20191105/i1572942236_6511_7.jpg","https://xcimg.szwego.com/20191105/i1572942236_451_8.jpg"],"created_at":"2024-09-20T05:28:32.907Z"},{"id":"item-9837166b0271","sku":"_dqGqGBh9S9TKPvKK1y8YsHGwHRp8IbJBu8RRzYg","name_en":"Gucci Women Bags","name_cn":"🔥官网参考\n\n型号:782849  尺寸:27.5x19x4cm","specs":{"source":"wsxcme","sourceId":"_dqGqGBh9S9TKPvKK1y8YsHGwHRp8IbJBu8RRzYg","sourceTagId":47002679,"sourceTagName":"古驰/女包","modelNumber":"782849  尺寸:27.5x19x4cm","dimensions":{"lengthCm":27.5,"heightCm":19,"widthCm":4},"rawTitle":"🔥官网参考\n\n型号:782849  尺寸:27.5x19x4cm"},"price":null,"currency":"CNY","moq":1,"category":"gucci-women-bags","status":"active","alibaba_url":null,"images":["https://xcimg.szwego.com/img/dace2ca2/20241106/a1730902305767_5876.jpg","https://xcimg.szwego.com/img/dace2ca2/20241106/a1730902305769_4111.jpg","https://xcimg.szwego.com/img/dace2ca2/20241106/a1730902305770_1125.jpg","https://xcimg.szwego.com/img/dace2ca2/20241106/a1730902305772_4258.jpg","https://xcimg.szwego.com/img/dace2ca2/20241106/a1730902305777_4715.jpg","https://xcimg.szwego.com/img/dace2ca2/20241106/a1730902305773_3855.jpg","https://xcimg.szwego.com/img/dace2ca2/20241106/a1730902306840_0825.jpg","https://xcimg.szwego.com/img/dace2ca2/20241106/a1730902306840_1642.jpg"],"created_at":"2025-03-29T13:24:08.777Z"}],"page":321,"pageSize":24,"total":10075,"totalPages":420}
