{"items":[{"id":"item-b79101a77302","sku":"_drlrl5njhvJQjnYlUMHSfOZU80pkkoxLpzObcCg","name_en":"『Celine 赛琳』","name_cn":"『Celine 赛琳』\n\n专柜同步 赛琳celine专柜最新款水桶购物袋🛍️全新搭配 原版18K金五金 高端品质 原版面料 超级大牌的一款 上身特别洋气 喜欢的美妞抓紧自留啦 尺寸小号:18*22cm 大号28*27","specs":{"source":"wsxcme","sourceId":"_drlrl5njhvJQjnYlUMHSfOZU80pkkoxLpzObcCg","sourceTagId":47003106,"sourceTagName":"塞琳/女包","rawTitle":"『Celine 赛琳』\n\n专柜同步 赛琳celine专柜最新款水桶购物袋🛍️全新搭配 原版18K金五金 高端品质 原版面料 超级大牌的一款 上身特别洋气 喜欢的美妞抓紧自留啦 尺寸小号:18*22cm 大号28*27"},"price":null,"currency":"CNY","moq":1,"category":"celine-women-bags","status":"active","alibaba_url":null,"images":["https://xcimg.szwego.com/20220628/i1656379321_968_0.jpg","https://xcimg.szwego.com/20220628/i1656379340_7541_0.jpg","https://xcimg.szwego.com/20220628/i1656379321_2017_1.jpg","https://xcimg.szwego.com/20220628/i1656379321_1754_2.jpg","https://xcimg.szwego.com/20220628/i1656379321_1980_3.jpg","https://xcimg.szwego.com/20220628/i1656379321_3996_4.jpg"],"created_at":"2025-02-08T12:47:23.820Z"},{"id":"item-b78f61642acc","sku":"_dlLlL5rcDWiMhs0tMFWWIKeIDyosKxVFU-EO7tA","name_en":"『Celine 赛琳』","name_cn":"『Celine 赛琳』\n\nbox24cm  抹茶绿\n\n经典款一直不过时💥\n头层牛皮配定制五金\n内侧拉链口袋和双层扁平口袋\n非常有质感的一款包🛍\n尺寸:24×18×7cm","specs":{"source":"wsxcme","sourceId":"_dlLlL5rcDWiMhs0tMFWWIKeIDyosKxVFU-EO7tA","sourceTagId":47003106,"sourceTagName":"塞琳/女包","dimensions":{"lengthCm":24,"heightCm":18,"widthCm":7},"rawTitle":"『Celine 赛琳』\n\nbox24cm  抹茶绿\n\n经典款一直不过时💥\n头层牛皮配定制五金\n内侧拉链口袋和双层扁平口袋\n非常有质感的一款包🛍\n尺寸:24×18×7cm"},"price":null,"currency":"CNY","moq":1,"category":"celine-women-bags","status":"active","alibaba_url":null,"images":["https://xcimg.szwego.com/20201130/i1606723309_9756_0.jpg","https://xcimg.szwego.com/20201130/i1606723309_7602_1.jpg","https://xcimg.szwego.com/20201130/i1606723309_7391_2.jpg","https://xcimg.szwego.com/20201130/i1606723309_2146_3.jpg","https://xcimg.szwego.com/20201130/i1606723309_1705_4.jpg","https://xcimg.szwego.com/20201130/i1606723309_5158_5.jpg","https://xcimg.szwego.com/20201130/i1606723309_3086_6.jpg","https://xcimg.szwego.com/20201130/i1606723309_4102_7.jpg","https://xcimg.szwego.com/20201130/i1606723309_885_8.jpg"],"created_at":"2025-02-08T12:47:15.859Z"},{"id":"item-b72fc127f7e8","sku":"_dststEkZiiql2DRhajpH0VkPhiouHg0ZuYz_vfA","name_en":"『Celine 赛琳』","name_cn":"『Celine 赛琳』\n\nCABAS TRIOMPHE提花面料MiNi号竖款手袋,65%纺织布,35%小牛皮,100%棉衬里,内侧插袋,可调节可拆卸皮革肩带 长50厘米\n尺寸20X 17X 6厘米\n型号:3014","specs":{"source":"wsxcme","sourceId":"_dststEkZiiql2DRhajpH0VkPhiouHg0ZuYz_vfA","sourceTagId":47003106,"sourceTagName":"塞琳/女包","modelNumber":"3014","dimensions":{"lengthCm":20,"heightCm":17,"widthCm":6},"rawTitle":"『Celine 赛琳』\n\nCABAS TRIOMPHE提花面料MiNi号竖款手袋,65%纺织布,35%小牛皮,100%棉衬里,内侧插袋,可调节可拆卸皮革肩带 长50厘米\n尺寸20X 17X 6厘米\n型号:3014"},"price":null,"currency":"CNY","moq":1,"category":"celine-women-bags","status":"active","alibaba_url":null,"images":["https://xcimg.szwego.com/20210914/i1631586374_3372_0.jpg","https://xcimg.szwego.com/20210914/i1631586374_7546_1.jpg","https://xcimg.szwego.com/20210914/i1631586374_5100_2.jpg","https://xcimg.szwego.com/20210914/i1631586374_3332_3.jpg","https://xcimg.szwego.com/20210914/i1631586374_5623_4.jpg","https://xcimg.szwego.com/20210914/i1631586374_338_5.jpg","https://xcimg.szwego.com/20210914/i1631586374_1242_6.jpg","https://xcimg.szwego.com/20210914/i1631586374_9964_7.jpg","https://xcimg.szwego.com/20210914/i1631586374_5741_8.jpg"],"created_at":"2025-02-08T12:47:00.835Z"},{"id":"item-b408f4e08d15","sku":"_dtWtW9AVh_2ZoKaw6c7FRXLkzsVP6Fu42oBT4Tg","name_en":"『Celine 赛琳』","name_cn":"『Celine 赛琳』\n\nCELINE 2021春夏新品TRIOMPHE凯旋标志平纹小牛皮肩背包,凯旋腋下包,牛皮包边,羊皮衬里,内侧扁平口袋,可调节皮革肩带长20cm\n尺寸:20 X 10 X 4cm","specs":{"source":"wsxcme","sourceId":"_dtWtW9AVh_2ZoKaw6c7FRXLkzsVP6Fu42oBT4Tg","sourceTagId":47003106,"sourceTagName":"塞琳/女包","dimensions":{"lengthCm":20,"heightCm":10,"widthCm":4},"rawTitle":"『Celine 赛琳』\n\nCELINE 2021春夏新品TRIOMPHE凯旋标志平纹小牛皮肩背包,凯旋腋下包,牛皮包边,羊皮衬里,内侧扁平口袋,可调节皮革肩带长20cm\n尺寸:20 X 10 X 4cm"},"price":null,"currency":"CNY","moq":1,"category":"celine-women-bags","status":"active","alibaba_url":null,"images":["https://xcimg.szwego.com/20220410/i1649574271_6252_0.jpg","https://xcimg.szwego.com/20220410/i1649574271_4025_1.jpg","https://xcimg.szwego.com/20220410/i1649574271_8757_2.jpg","https://xcimg.szwego.com/20220410/i1649574271_5304_3.jpg","https://xcimg.szwego.com/20220410/i1649574271_4243_4.jpg","https://xcimg.szwego.com/20220410/i1649574271_4992_5.jpg","https://xcimg.szwego.com/20220410/i1649574271_2187_6.jpg","https://xcimg.szwego.com/20220410/i1649574271_6192_7.jpg","https://xcimg.szwego.com/20220410/i1649574271_8785_8.jpg"],"created_at":"2025-02-08T12:47:00.878Z"},{"id":"item-b390da996e8f","sku":"_d9S9SpN_QDKZf--1FK3NDI8BUNSvNO9txVI3blg","name_en":"『Celine 赛琳』","name_cn":"『Celine 赛琳』\n\n🇦🇴【海外原单】🛍🎁CELINE 秀场新品|小号TRIOMPHE 皮标标志印花链条包\n小款链条腋下包✔️棕色皮扣质感满分,搭配金色金属链条,简直不要太高级!!\n牛皮+羊皮内里,肩背,搭配TRIOMPHE 牛皮logo质感锁扣\n尺寸:21 X 13 X 5厘米\n编号:199243BF4.38NO","specs":{"source":"wsxcme","sourceId":"_d9S9SpN_QDKZf--1FK3NDI8BUNSvNO9txVI3blg","sourceTagId":47003106,"sourceTagName":"塞琳/女包","dimensions":{"lengthCm":21,"heightCm":13,"widthCm":5},"rawTitle":"『Celine 赛琳』\n\n🇦🇴【海外原单】🛍🎁CELINE 秀场新品|小号TRIOMPHE 皮标标志印花链条包\n小款链条腋下包✔️棕色皮扣质感满分,搭配金色金属链条,简直不要太高级!!\n牛皮+羊皮内里,肩背,搭配TRIOMPHE 牛皮logo质感锁扣\n尺寸:21 X 13 X 5厘米\n编号:199243BF4.38NO"},"price":null,"currency":"CNY","moq":1,"category":"celine-women-bags","status":"active","alibaba_url":null,"images":["https://xcimg.szwego.com/20220427/i1651049079_1682_0.jpg","https://xcimg.szwego.com/20220427/i1651049079_9173_1.jpg","https://xcimg.szwego.com/20220427/i1651049079_8344_2.jpg","https://xcimg.szwego.com/20220427/i1651049079_7223_3.jpg","https://xcimg.szwego.com/20220427/i1651049079_7438_4.jpg","https://xcimg.szwego.com/20220427/i1651049079_3621_5.jpg","https://xcimg.szwego.com/20220427/i1651049079_3915_6.jpg","https://xcimg.szwego.com/20220427/i1651049079_4949_7.jpg","https://xcimg.szwego.com/20220427/i1651049079_8620_8.jpg"],"created_at":"2025-02-08T12:47:23.784Z"},{"id":"item-b38faaae5b23","sku":"_dycyclhfY3KBVr4gUbI2WK5VjBZpXysLL3lvUcw","name_en":"『Celine 赛琳』","name_cn":"『Celine 赛琳』\n\nCelin* 2022秋季新款凯旋门马鞍包出咯 小牛皮 \n小小的身材大大容量\n搭配经典金色凯金属扣 精致百搭\n不同以往得正方形包型,弧形的下摆增加了一丝柔美的感觉\n尺寸:19*16*8cm","specs":{"source":"wsxcme","sourceId":"_dycyclhfY3KBVr4gUbI2WK5VjBZpXysLL3lvUcw","sourceTagId":47003106,"sourceTagName":"塞琳/女包","dimensions":{"lengthCm":19,"heightCm":16,"widthCm":8},"rawTitle":"『Celine 赛琳』\n\nCelin* 2022秋季新款凯旋门马鞍包出咯 小牛皮 \n小小的身材大大容量\n搭配经典金色凯金属扣 精致百搭\n不同以往得正方形包型,弧形的下摆增加了一丝柔美的感觉\n尺寸:19*16*8cm"},"price":null,"currency":"CNY","moq":1,"category":"celine-women-bags","status":"active","alibaba_url":null,"images":["https://xcimg.szwego.com/20220628/i1656400743_5910_0.jpg","https://xcimg.szwego.com/20220628/i1656400743_6815_1.jpg","https://xcimg.szwego.com/20220628/i1656400743_2650_2.jpg","https://xcimg.szwego.com/20220628/i1656400743_7339_3.jpg","https://xcimg.szwego.com/20220628/i1656400743_4980_4.jpg","https://xcimg.szwego.com/20220628/i1656400743_8234_5.jpg","https://xcimg.szwego.com/20220628/i1656400743_1295_6.jpg","https://xcimg.szwego.com/20220628/i1656400743_4782_7.jpg","https://xcimg.szwego.com/20220628/i1656400748_3302_0.jpg"],"created_at":"2025-02-08T12:47:23.805Z"},{"id":"item-b2dc9171ea49","sku":"_dyMyMKykzn9_NtT3AwRfLr8QvfFGj3PcLMKv6Nw","name_en":"『Celine 赛琳』","name_cn":"『Celine 赛琳』\n\nbox18.5cm 玫瑰粉\n\n专柜最新尺寸teen💥\n头层牛皮配定制五金\n内里两层\n内侧有扁平口袋✅\n尺寸:18.5×15.5×6cm","specs":{"source":"wsxcme","sourceId":"_dyMyMKykzn9_NtT3AwRfLr8QvfFGj3PcLMKv6Nw","sourceTagId":47003106,"sourceTagName":"塞琳/女包","dimensions":{"lengthCm":18.5,"heightCm":15.5,"widthCm":6},"rawTitle":"『Celine 赛琳』\n\nbox18.5cm 玫瑰粉\n\n专柜最新尺寸teen💥\n头层牛皮配定制五金\n内里两层\n内侧有扁平口袋✅\n尺寸:18.5×15.5×6cm"},"price":null,"currency":"CNY","moq":1,"category":"celine-women-bags","status":"active","alibaba_url":null,"images":["https://xcimg.szwego.com/20201126/i1606376230_741_0.jpg","https://xcimg.szwego.com/20201126/i1606376230_6475_1.jpg","https://xcimg.szwego.com/20201126/i1606376230_6408_2.jpg","https://xcimg.szwego.com/20201126/i1606376230_230_3.jpg","https://xcimg.szwego.com/20201126/i1606376230_9640_4.jpg","https://xcimg.szwego.com/20201126/i1606376230_7518_5.jpg","https://xcimg.szwego.com/20201126/i1606376230_5776_6.jpg","https://xcimg.szwego.com/20201126/i1606376230_7859_7.jpg","https://xcimg.szwego.com/20201126/i1606376234_3002_0.jpg"],"created_at":"2025-02-08T12:47:15.865Z"},{"id":"item-af047a36f31d","sku":"_dZ8Z8y2YekAwNIQkpRPQfUDhtbqSyK5-bZFGCrg","name_en":"『Celine 赛琳』","name_cn":"『Celine 赛琳』\n\n🛍CABAS CELINE 🛍小号CELINE印花帆布和小牛皮竖款手袋\n 尺寸11 X 13 X 3英寸(28.5 X 33 X 8厘米)\n46%棉,54%小牛皮\n100%棉衬里\n内侧拉链口袋 \n可调节皮革肩带长20英寸(50厘米)\n编号:3129棕黄褐色","specs":{"source":"wsxcme","sourceId":"_dZ8Z8y2YekAwNIQkpRPQfUDhtbqSyK5-bZFGCrg","sourceTagId":47003106,"sourceTagName":"塞琳/女包","rawTitle":"『Celine 赛琳』\n\n🛍CABAS CELINE 🛍小号CELINE印花帆布和小牛皮竖款手袋\n 尺寸11 X 13 X 3英寸(28.5 X 33 X 8厘米)\n46%棉,54%小牛皮\n100%棉衬里\n内侧拉链口袋 \n可调节皮革肩带长20英寸(50厘米)\n编号:3129棕黄褐色"},"price":null,"currency":"CNY","moq":1,"category":"celine-women-bags","status":"active","alibaba_url":null,"images":["https://xcimg.szwego.com/20201119/i1605718524_6047_0.jpg","https://xcimg.szwego.com/20201119/i1605718524_6955_1.jpg","https://xcimg.szwego.com/20201119/i1605718524_3296_2.jpg","https://xcimg.szwego.com/20201119/i1605718524_4339_3.jpg","https://xcimg.szwego.com/20201119/i1605718524_3300_4.jpg","https://xcimg.szwego.com/20201119/i1605718524_3952_5.jpg","https://xcimg.szwego.com/20201119/i1605718524_2834_6.jpg","https://xcimg.szwego.com/20201119/i1605718524_4173_7.jpg","https://xcimg.szwego.com/20201119/i1605718524_8843_8.jpg"],"created_at":"2025-02-08T12:47:00.815Z"},{"id":"item-ae43b9e0b279","sku":"_dOVOVzyVSmVd3pjUEohUO4LjZ982DwkP3g46rAg","name_en":"『Celine 赛琳』","name_cn":"『Celine 赛琳』\n\n新款 赛琳老花系列 Celin.e TRIOMPHE帆布中号购物袋,65%涂层帆布和35%小牛皮,100%棉衬里,按扣开合,内侧扁平口袋,容量超大 既好看 又能装#购物逛街必带包# 超满足# \n尺寸30 X 37 X 22cm\n型号:4111#","specs":{"source":"wsxcme","sourceId":"_dOVOVzyVSmVd3pjUEohUO4LjZ982DwkP3g46rAg","sourceTagId":47003106,"sourceTagName":"塞琳/女包","modelNumber":"4111#","dimensions":{"lengthCm":30,"heightCm":37,"widthCm":22},"rawTitle":"『Celine 赛琳』\n\n新款 赛琳老花系列 Celin.e TRIOMPHE帆布中号购物袋,65%涂层帆布和35%小牛皮,100%棉衬里,按扣开合,内侧扁平口袋,容量超大 既好看 又能装#购物逛街必带包# 超满足# \n尺寸30 X 37 X 22cm\n型号:4111#"},"price":null,"currency":"CNY","moq":1,"category":"celine-women-bags","status":"active","alibaba_url":null,"images":["https://xcimg.szwego.com/20220702/i1656743349_8609_0.jpg","https://xcimg.szwego.com/20220702/i1656743349_193_1.jpg","https://xcimg.szwego.com/20220702/i1656743349_2288_2.jpg","https://xcimg.szwego.com/20220702/i1656743349_5364_3.jpg","https://xcimg.szwego.com/20220702/i1656743349_2156_4.jpg","https://xcimg.szwego.com/20220702/i1656743349_5037_5.jpg","https://xcimg.szwego.com/20220702/i1656743349_3377_6.jpg","https://xcimg.szwego.com/20220702/i1656743349_1739_7.jpg","https://xcimg.szwego.com/20220702/i1656743349_955_8.jpg"],"created_at":"2025-02-08T12:47:00.809Z"},{"id":"item-ace97bdb862a","sku":"_dvqvq5kEJfC72H-fn8lMwxLmemkmB1VtfGRh8aA","name_en":"『Celine 赛琳』","name_cn":"『Celine 赛琳』\n\nCELINE 七夕限定款CABAS TRIOMPHE®️标志印花MiNi号竖款手袋,内侧插袋,可调节可拆卸皮革肩带 长50厘米,\n尺寸17 X 21 X 4cm\n型号:2200#","specs":{"source":"wsxcme","sourceId":"_dvqvq5kEJfC72H-fn8lMwxLmemkmB1VtfGRh8aA","sourceTagId":47003106,"sourceTagName":"塞琳/女包","modelNumber":"2200#","dimensions":{"lengthCm":17,"heightCm":21,"widthCm":4},"rawTitle":"『Celine 赛琳』\n\nCELINE 七夕限定款CABAS TRIOMPHE®️标志印花MiNi号竖款手袋,内侧插袋,可调节可拆卸皮革肩带 长50厘米,\n尺寸17 X 21 X 4cm\n型号:2200#"},"price":null,"currency":"CNY","moq":1,"category":"celine-women-bags","status":"active","alibaba_url":null,"images":["https://xcimg.szwego.com/20220504/i1651635308_5484_0.jpg","https://xcimg.szwego.com/20220504/i1651635308_5166_1.jpg","https://xcimg.szwego.com/20220504/i1651635308_4151_2.jpg","https://xcimg.szwego.com/20220504/i1651635308_8410_3.jpg","https://xcimg.szwego.com/20220504/i1651635308_6605_4.jpg","https://xcimg.szwego.com/20220504/i1651635308_1337_5.jpg","https://xcimg.szwego.com/20220504/i1651635308_4951_6.jpg","https://xcimg.szwego.com/20220504/i1651635308_2810_7.jpg","https://xcimg.szwego.com/20220504/i1651635308_8661_8.jpg"],"created_at":"2025-02-08T12:47:00.864Z"},{"id":"item-ac96010398d7","sku":"_dn7n7m3gaeYhtNSCPjAKa2uW1qfzSeYLWcGfpdg","name_en":"『Celine 赛琳』","name_cn":"『Celine 赛琳』\n\nCEL.INE🌞最新mini Tabou Clutch onStrap锁头饰带手包TRIOMPHE Canvas 标志腋下 手提包 白花/牛皮\n织物面料衬里 点睛的金色五金锁 \n包包设计有一长一短的皮肩带 不能调节 可以手提肩背®️\n尺寸:18 X 8 X 5cm\n型号:2298#","specs":{"source":"wsxcme","sourceId":"_dn7n7m3gaeYhtNSCPjAKa2uW1qfzSeYLWcGfpdg","sourceTagId":47003106,"sourceTagName":"塞琳/女包","modelNumber":"2298#","dimensions":{"lengthCm":18,"heightCm":8,"widthCm":5},"rawTitle":"『Celine 赛琳』\n\nCEL.INE🌞最新mini Tabou Clutch onStrap锁头饰带手包TRIOMPHE Canvas 标志腋下 手提包 白花/牛皮\n织物面料衬里 点睛的金色五金锁 \n包包设计有一长一短的皮肩带 不能调节 可以手提肩背®️\n尺寸:18 X 8 X 5cm\n型号:2298#"},"price":null,"currency":"CNY","moq":1,"category":"celine-women-bags","status":"active","alibaba_url":null,"images":["https://xcimg.szwego.com/20220330/i1648612198_4403_0.jpg","https://xcimg.szwego.com/20220330/i1648612198_8359_1.jpg","https://xcimg.szwego.com/20220330/i1648612198_8745_2.jpg","https://xcimg.szwego.com/20220330/i1648612198_4695_3.jpg","https://xcimg.szwego.com/20220330/i1648612198_818_4.jpg","https://xcimg.szwego.com/20220330/i1648612198_5575_5.jpg","https://xcimg.szwego.com/20220330/i1648612198_8668_6.jpg","https://xcimg.szwego.com/20220330/i1648612198_1259_7.jpg","https://xcimg.szwego.com/20220330/i1648612198_7944_8.jpg"],"created_at":"2025-02-08T12:47:00.854Z"},{"id":"item-ab66723e15d1","sku":"_dLlLlRVT15cueSs4Rf9bv3wiinDQmj6u-bs68HQ","name_en":"『Celine 赛琳』","name_cn":"『Celine 赛琳』\n\nbox18.5cm 奶昔白银扣\n\n专柜最新尺寸teen💥\n头层牛皮配定制五金\n内里两层\n内侧有扁平口袋✅\n尺寸:18.5×15.5×6cm","specs":{"source":"wsxcme","sourceId":"_dLlLlRVT15cueSs4Rf9bv3wiinDQmj6u-bs68HQ","sourceTagId":47003106,"sourceTagName":"塞琳/女包","dimensions":{"lengthCm":18.5,"heightCm":15.5,"widthCm":6},"rawTitle":"『Celine 赛琳』\n\nbox18.5cm 奶昔白银扣\n\n专柜最新尺寸teen💥\n头层牛皮配定制五金\n内里两层\n内侧有扁平口袋✅\n尺寸:18.5×15.5×6cm"},"price":null,"currency":"CNY","moq":1,"category":"celine-women-bags","status":"active","alibaba_url":null,"images":["https://xcimg.szwego.com/20201126/i1606377943_4432_0.jpg","https://xcimg.szwego.com/20201126/i1606377943_6575_1.jpg","https://xcimg.szwego.com/20201126/i1606377943_6803_2.jpg","https://xcimg.szwego.com/20201126/i1606377943_4941_3.jpg","https://xcimg.szwego.com/20201126/i1606377943_2368_4.jpg","https://xcimg.szwego.com/20201126/i1606377943_7968_5.jpg","https://xcimg.szwego.com/20201126/i1606377943_3678_6.jpg","https://xcimg.szwego.com/20201126/i1606377943_1325_7.jpg","https://xcimg.szwego.com/20201126/i1606377943_6913_8.jpg"],"created_at":"2025-02-08T12:47:00.783Z"},{"id":"item-ab42ee9e07a0","sku":"_dVAVA8YpPcsmS-rHKmImp-5wj8BKVMXOVf2Xpsw","name_en":"『Celine 赛琳』","name_cn":"『Celine 赛琳』\n\n老花水桶包•小号\n\n心心念念尺寸终于出货✅\n实用性超强\n小个子非常友好\n经典款老花超百搭❤\n尺寸:30×22×13cm","specs":{"source":"wsxcme","sourceId":"_dVAVA8YpPcsmS-rHKmImp-5wj8BKVMXOVf2Xpsw","sourceTagId":47003106,"sourceTagName":"塞琳/女包","dimensions":{"lengthCm":30,"heightCm":22,"widthCm":13},"rawTitle":"『Celine 赛琳』\n\n老花水桶包•小号\n\n心心念念尺寸终于出货✅\n实用性超强\n小个子非常友好\n经典款老花超百搭❤\n尺寸:30×22×13cm"},"price":null,"currency":"CNY","moq":1,"category":"celine-women-bags","status":"active","alibaba_url":null,"images":["https://xcimg.szwego.com/20211003/i1633247019_1289_0.jpg","https://xcimg.szwego.com/20211003/i1633247019_5880_2.jpg","https://xcimg.szwego.com/20211003/i1633247019_8411_1.jpg","https://xcimg.szwego.com/20211003/i1633247019_3773_3.jpg","https://xcimg.szwego.com/20211003/i1633247019_6467_4.jpg","https://xcimg.szwego.com/20211003/i1633247019_2781_5.jpg","https://xcimg.szwego.com/20211003/i1633247019_5994_6.jpg","https://xcimg.szwego.com/20211003/i1633247019_6225_7.jpg","https://xcimg.szwego.com/20211003/i1633247019_9774_8.jpg"],"created_at":"2025-02-08T12:47:00.789Z"},{"id":"item-aa4906ccb2f9","sku":"_dgbgbvXCaitE89WScdv7Fn-EDYDfimjORlmP8pw","name_en":"『Celine 赛琳』","name_cn":"『Celine 赛琳』\n\n🏠推出最新PVC Triomphe Canvas经典印老花设计风格展现了复古、简洁及自信。时尚的尖端,毫无时代的隔阂~鲜明个性为日常衣柜带来多重魅力🥳  小号尺寸:18.5-14-6 小号款号188423","specs":{"source":"wsxcme","sourceId":"_dgbgbvXCaitE89WScdv7Fn-EDYDfimjORlmP8pw","sourceTagId":47003106,"sourceTagName":"塞琳/女包","modelNumber":"188423","rawTitle":"『Celine 赛琳』\n\n🏠推出最新PVC Triomphe Canvas经典印老花设计风格展现了复古、简洁及自信。时尚的尖端,毫无时代的隔阂~鲜明个性为日常衣柜带来多重魅力🥳  小号尺寸:18.5-14-6 小号款号188423"},"price":null,"currency":"CNY","moq":1,"category":"celine-women-bags","status":"active","alibaba_url":null,"images":["https://xcimg.szwego.com/20210412/a1618175452121_5088.jpg","https://xcimg.szwego.com/20210412/a1618175452303_4662.jpg","https://xcimg.szwego.com/20210412/a1618175452466_4454.jpg","https://xcimg.szwego.com/20210412/a1618175452604_5426.jpg","https://xcimg.szwego.com/20210412/a1618175452741_2505.jpg","https://xcimg.szwego.com/20210412/a1618175452979_6834.jpg","https://xcimg.szwego.com/20210412/a1618175453171_6153.jpg","https://xcimg.szwego.com/20210412/a1618175453319_4234.jpg","https://xcimg.szwego.com/20210412/a1618175453482_0502.jpg"],"created_at":"2025-02-08T12:47:15.839Z"},{"id":"item-a73f537b1445","sku":"_dqFqFnnisADZnlcMAWjdiJ2KsR-WdKfp5ldpqgA","name_en":"『Celine 赛琳』","name_cn":"『Celine 赛琳』\n\n凯旋门腋下包升级•白花\n\n全新升级版复古鎏金,五金更耐用更耐磨\n配TRIOMPHE金属质感锁扣\n复古摩登结合,日常必备穿搭💥\n\n尺寸:20×10×4cm","specs":{"source":"wsxcme","sourceId":"_dqFqFnnisADZnlcMAWjdiJ2KsR-WdKfp5ldpqgA","sourceTagId":47003106,"sourceTagName":"塞琳/女包","dimensions":{"lengthCm":20,"heightCm":10,"widthCm":4},"rawTitle":"『Celine 赛琳』\n\n凯旋门腋下包升级•白花\n\n全新升级版复古鎏金,五金更耐用更耐磨\n配TRIOMPHE金属质感锁扣\n复古摩登结合,日常必备穿搭💥\n\n尺寸:20×10×4cm"},"price":null,"currency":"CNY","moq":1,"category":"celine-women-bags","status":"active","alibaba_url":null,"images":["https://xcimg.szwego.com/20220327/i1648373579_9585_0.jpg","https://xcimg.szwego.com/20220327/i1648373579_9685_1.jpg","https://xcimg.szwego.com/20220327/i1648373579_2153_2.jpg","https://xcimg.szwego.com/20220327/i1648373579_8039_3.jpg","https://xcimg.szwego.com/20220327/i1648373579_9799_4.jpg","https://xcimg.szwego.com/20220327/i1648373579_4756_5.jpg","https://xcimg.szwego.com/20220327/i1648373579_2186_6.jpg","https://xcimg.szwego.com/20220327/i1648373579_7649_7.jpg","https://xcimg.szwego.com/20220327/i1648373579_3374_8.jpg"],"created_at":"2025-02-08T12:47:15.830Z"},{"id":"item-a3d9d5d967cc","sku":"_dvgvgFpJyR52GKBRvKfpt1K3Dakvbbekbn1xlTA","name_en":"『Celine 赛琳』","name_cn":"『Celine 赛琳』\n\n新款FOLCO TRIOMPHE邮差包PVC/牛皮 衬里 : 织物 斜挎和肩背 带扣和磁扣 内侧扁平口袋  翻盖下设扁平口袋,背面扁平口袋 可调节肩带 长(53厘米)\n尺寸:31 X 24 X 9cm\n款号:3350#","specs":{"source":"wsxcme","sourceId":"_dvgvgFpJyR52GKBRvKfpt1K3Dakvbbekbn1xlTA","sourceTagId":47003106,"sourceTagName":"塞琳/女包","modelNumber":"3350#","dimensions":{"lengthCm":31,"heightCm":24,"widthCm":9},"rawTitle":"『Celine 赛琳』\n\n新款FOLCO TRIOMPHE邮差包PVC/牛皮 衬里 : 织物 斜挎和肩背 带扣和磁扣 内侧扁平口袋  翻盖下设扁平口袋,背面扁平口袋 可调节肩带 长(53厘米)\n尺寸:31 X 24 X 9cm\n款号:3350#"},"price":null,"currency":"CNY","moq":1,"category":"celine-women-bags","status":"active","alibaba_url":null,"images":["https://xcimg.szwego.com/20211113/i1636775013_9030_0.jpg","https://xcimg.szwego.com/20211113/i1636775013_7617_1.jpg","https://xcimg.szwego.com/20211113/i1636775013_9621_2.jpg","https://xcimg.szwego.com/20211113/i1636775013_2748_3.jpg","https://xcimg.szwego.com/20211113/i1636775013_1212_4.jpg","https://xcimg.szwego.com/20211113/i1636775013_6545_5.jpg","https://xcimg.szwego.com/20211113/i1636775013_6656_6.jpg","https://xcimg.szwego.com/20211113/i1636775013_7710_7.jpg","https://xcimg.szwego.com/20211113/i1636775013_611_8.jpg"],"created_at":"2025-02-08T12:47:00.792Z"},{"id":"item-a3512ecdcd3f","sku":"_ds7s7ReaND5g2h8H4pzq3GoKggLFVuwL9OM11GA","name_en":"『Celine 赛琳』","name_cn":"『Celine 赛琳』\n\n【黑色】\n\nCelin* BESACE  凯旋门肩背包▪️\n小巧精致的设计,方正复古的造型,优雅中带点随性,浪漫又带点慵懒气质  经典复古全皮设计一如既往百搭,双C锁扣triomphe让Celine⃝的狂热粉疯狂打Call !简洁利落的包身线条,真的超奶思 气场全开 简直不要太吸精!肩背包纖薄而圓潤,採用柔滑小牛皮打造,日常休逛街或通勤都非常適合\n尺寸: 宽18cmx高16cmx底部6cm","specs":{"source":"wsxcme","sourceId":"_ds7s7ReaND5g2h8H4pzq3GoKggLFVuwL9OM11GA","sourceTagId":47003106,"sourceTagName":"塞琳/女包","rawTitle":"『Celine 赛琳』\n\n【黑色】\n\nCelin* BESACE  凯旋门肩背包▪️\n小巧精致的设计,方正复古的造型,优雅中带点随性,浪漫又带点慵懒气质  经典复古全皮设计一如既往百搭,双C锁扣triomphe让Celine⃝的狂热粉疯狂打Call !简洁利落的包身线条,真的超奶思 气场全开 简直不要太吸精!肩背包纖薄而圓潤,採用柔滑小牛皮打造,日常休逛街或通勤都非常適合\n尺寸: 宽18cmx高16cmx底部6cm"},"price":null,"currency":"CNY","moq":1,"category":"celine-women-bags","status":"active","alibaba_url":null,"images":["https://xcimg.szwego.com/20220628/i1656402885_6874_0.jpg","https://xcimg.szwego.com/20220628/i1656402885_6576_1.jpg","https://xcimg.szwego.com/20220628/i1656402885_7342_2.jpg","https://xcimg.szwego.com/20220628/i1656402885_9301_3.jpg","https://xcimg.szwego.com/20220628/i1656402885_1955_4.jpg","https://xcimg.szwego.com/20220628/i1656402885_4682_5.jpg"],"created_at":"2025-02-08T12:47:15.853Z"},{"id":"item-a1f6cbcde361","sku":"_d-E-EIivUraTaP0brOB3jMMyca5H6cWIiJD1-yQ","name_en":"『Celine 赛琳』","name_cn":"『Celine 赛琳』 \nLisa同款AVA腋下月亮包\n全网最好包身版型⚡️最好拉链弧度⚡️\n全色系到货⚡️品质升级⚡️\n2021思琳女士臻礼系列\n尊享版 全钢五金 进口原厂小牛皮\n型号193953 \n2021新款腋下包系列强势回归,大热的腋下包也推出最新版la~\n复古的包型在上世纪六十年代巴黎时装周里就掀起热潮,不同的是如今大家伙儿的时髦态度已经融入生活,身背单品行走到哪都像在巴黎时装周,而且腋下包复古不过时,特别有味道~心尖尖喜欢的款 \nsize 23*14*7","specs":{"source":"wsxcme","sourceId":"_d-E-EIivUraTaP0brOB3jMMyca5H6cWIiJD1-yQ","sourceTagId":47003106,"sourceTagName":"塞琳/女包","modelNumber":"193953","rawTitle":"『Celine 赛琳』 \nLisa同款AVA腋下月亮包\n全网最好包身版型⚡️最好拉链弧度⚡️\n全色系到货⚡️品质升级⚡️\n2021思琳女士臻礼系列\n尊享版 全钢五金 进口原厂小牛皮\n型号193953 \n2021新款腋下包系列强势回归,大热的腋下包也推出最新版la~\n复古的包型在上世纪六十年代巴黎时装周里就掀起热潮,不同的是如今大家伙儿的时髦态度已经融入生活,身背单品行走到哪都像在巴黎时装周,而且腋下包复古不过时,特别有味道~心尖尖喜欢的款 \nsize 23*14*7"},"price":null,"currency":"CNY","moq":1,"category":"celine-women-bags","status":"active","alibaba_url":null,"images":["https://xcimg.szwego.com/20210812/i1628742805_5930_0.jpg","https://xcimg.szwego.com/20210812/i1628742805_4908_1.jpg","https://xcimg.szwego.com/20210812/i1628742805_8497_2.jpg","https://xcimg.szwego.com/20210812/i1628742805_4104_3.jpg","https://xcimg.szwego.com/20210812/i1628742805_5630_4.jpg","https://xcimg.szwego.com/20210812/i1628742805_9385_5.jpg","https://xcimg.szwego.com/20210812/i1628742805_8254_6.jpg","https://xcimg.szwego.com/20210812/i1628742805_624_7.jpg","https://xcimg.szwego.com/20210812/i1628742805_2895_8.jpg"],"created_at":"2025-02-08T12:47:23.779Z"},{"id":"item-a0dac8b9d949","sku":"_duxuxVFT_43-oMs4Uwk09ujmIcJ-IYGY4YKNGwA","name_en":"『Celine 赛琳』","name_cn":"『Celine 赛琳』\n\nCELINE 2021春夏新品TRIOMPHE凯旋标志平纹小牛皮肩背包,凯旋腋下包,牛皮包边,羊皮衬里,内侧扁平口袋,可调节皮革肩带长20cm\n尺寸:20 X 10 X 4cm","specs":{"source":"wsxcme","sourceId":"_duxuxVFT_43-oMs4Uwk09ujmIcJ-IYGY4YKNGwA","sourceTagId":47003106,"sourceTagName":"塞琳/女包","dimensions":{"lengthCm":20,"heightCm":10,"widthCm":4},"rawTitle":"『Celine 赛琳』\n\nCELINE 2021春夏新品TRIOMPHE凯旋标志平纹小牛皮肩背包,凯旋腋下包,牛皮包边,羊皮衬里,内侧扁平口袋,可调节皮革肩带长20cm\n尺寸:20 X 10 X 4cm"},"price":null,"currency":"CNY","moq":1,"category":"celine-women-bags","status":"active","alibaba_url":null,"images":["https://xcimg.szwego.com/20220410/i1649574332_6550_0.jpg","https://xcimg.szwego.com/20220410/i1649574332_9812_1.jpg","https://xcimg.szwego.com/20220410/i1649574332_8981_2.jpg","https://xcimg.szwego.com/20220410/i1649574332_9040_3.jpg","https://xcimg.szwego.com/20220410/i1649574332_236_4.jpg","https://xcimg.szwego.com/20220410/i1649574332_6203_5.jpg","https://xcimg.szwego.com/20220410/i1649574332_9780_6.jpg","https://xcimg.szwego.com/20220410/i1649574332_4959_7.jpg","https://xcimg.szwego.com/20220410/i1649574332_6967_8.jpg"],"created_at":"2025-02-08T12:47:00.879Z"},{"id":"item-a01fdeab671d","sku":"_d_d_dw7S8Q2RgQrJ-oKDocQyBgQk-mm57pUsbfA","name_en":"『Celine 赛琳』","name_cn":"『Celine 赛琳』\n\n配全套包装CABAS TRIOMPHE🛍帆布MiNi号竖款手袋\n65%涂层帆布,35%小牛皮\n100%棉衬里\n内侧插袋\n可调节可拆卸皮革肩带 长20英寸(50厘米)\n尺寸20X 17X 6厘米)\n型号:2200爱绣","specs":{"source":"wsxcme","sourceId":"_d_d_dw7S8Q2RgQrJ-oKDocQyBgQk-mm57pUsbfA","sourceTagId":47003106,"sourceTagName":"塞琳/女包","modelNumber":"2200爱绣","dimensions":{"lengthCm":20,"heightCm":17,"widthCm":6},"rawTitle":"『Celine 赛琳』\n\n配全套包装CABAS TRIOMPHE🛍帆布MiNi号竖款手袋\n65%涂层帆布,35%小牛皮\n100%棉衬里\n内侧插袋\n可调节可拆卸皮革肩带 长20英寸(50厘米)\n尺寸20X 17X 6厘米)\n型号:2200爱绣"},"price":null,"currency":"CNY","moq":1,"category":"celine-women-bags","status":"active","alibaba_url":null,"images":["https://xcimg.szwego.com/20200912/i1599885661_9451_0.jpg","https://xcimg.szwego.com/20200912/i1599885661_2299_1.jpg","https://xcimg.szwego.com/20200912/i1599885661_1894_2.jpg","https://xcimg.szwego.com/20200912/i1599885661_3099_3.jpg","https://xcimg.szwego.com/20200912/i1599885661_4227_4.jpg","https://xcimg.szwego.com/20200912/i1599885661_3821_5.jpg","https://xcimg.szwego.com/20200912/i1599885661_206_6.jpg","https://xcimg.szwego.com/20200912/i1599885661_7341_7.jpg","https://xcimg.szwego.com/20200912/i1599885661_5437_8.jpg"],"created_at":"2025-02-08T12:47:00.822Z"},{"id":"item-9feeb20a0b2f","sku":"_dpPpPjDFIOaWDrUE_-heVTBSLUOFI0S4qqiJ_vw","name_en":"『Celine 赛琳』","name_cn":"『Celine 赛琳』\n\n专同柜步❤️赛琳celine专柜新最款mini购物袋🛍️全搭新配 高品端质 原面版料 超级大牌一的款 上身别特洋气 搭配小红书级超火爆的nano枕头包 喜欢美的妞抓紧自留啦 尺寸 19.可配礼盒🎁","specs":{"source":"wsxcme","sourceId":"_dpPpPjDFIOaWDrUE_-heVTBSLUOFI0S4qqiJ_vw","sourceTagId":47003106,"sourceTagName":"塞琳/女包","rawTitle":"『Celine 赛琳』\n\n专同柜步❤️赛琳celine专柜新最款mini购物袋🛍️全搭新配 高品端质 原面版料 超级大牌一的款 上身别特洋气 搭配小红书级超火爆的nano枕头包 喜欢美的妞抓紧自留啦 尺寸 19.可配礼盒🎁"},"price":null,"currency":"CNY","moq":1,"category":"celine-women-bags","status":"active","alibaba_url":null,"images":["https://xcimg.szwego.com/20220214/i1644822828_8025_0.jpg","https://xcimg.szwego.com/20220214/i1644822828_89_1.jpg","https://xcimg.szwego.com/20220214/i1644822828_6334_2.jpg","https://xcimg.szwego.com/20220214/i1644822828_4324_3.jpg","https://xcimg.szwego.com/20220214/i1644822828_5287_4.jpg","https://xcimg.szwego.com/20220214/i1644822828_927_5.jpg","https://xcimg.szwego.com/20220214/i1644822828_2968_6.jpg","https://xcimg.szwego.com/20220214/i1644822828_6491_7.jpg","https://xcimg.szwego.com/20220214/i1644822828_176_8.jpg"],"created_at":"2025-02-08T12:47:23.811Z"},{"id":"item-9e5d0c014ced","sku":"_dhIhIOJq9C2lnTOMX8GgD86UFPDi7ITtRGK-73g","name_en":"『Celine 赛琳』","name_cn":"『Celine 赛琳』\n\nFOLCO TRIOMPHE帆布中号手袋7 X 7 X 3英寸(18 X 17 X 6.5厘米)59%涂层帆布,41%小牛皮肩背斜挎和肩背搭扣内侧扁平口袋外侧口袋可调节皮革肩带长20英寸(50厘米)编号:191502BZJ.04LU","specs":{"source":"wsxcme","sourceId":"_dhIhIOJq9C2lnTOMX8GgD86UFPDi7ITtRGK-73g","sourceTagId":47003106,"sourceTagName":"塞琳/女包","rawTitle":"『Celine 赛琳』\n\nFOLCO TRIOMPHE帆布中号手袋7 X 7 X 3英寸(18 X 17 X 6.5厘米)59%涂层帆布,41%小牛皮肩背斜挎和肩背搭扣内侧扁平口袋外侧口袋可调节皮革肩带长20英寸(50厘米)编号:191502BZJ.04LU"},"price":null,"currency":"CNY","moq":1,"category":"celine-women-bags","status":"active","alibaba_url":null,"images":["https://xcimg.szwego.com/20210403/a1617394841106_0381.jpg","https://xcimg.szwego.com/20210403/a1617394841348_0202.jpg","https://xcimg.szwego.com/20210403/a1617394841527_8608.jpg","https://xcimg.szwego.com/20210403/a1617394841645_6621.jpg","https://xcimg.szwego.com/20210403/a1617394841792_1867.jpg","https://xcimg.szwego.com/20210403/a1617394841958_5475.jpg","https://xcimg.szwego.com/20210403/a1617394842113_3874.jpg","https://xcimg.szwego.com/20210403/a1617394842260_4671.jpg","https://xcimg.szwego.com/20210403/a1617394842475_1775.jpg"],"created_at":"2025-02-08T12:47:15.840Z"},{"id":"item-9e29fea6b35f","sku":"_dv7v7h645n9FtedgFUcgXsaofqW5HkJdy14mCSA","name_en":"『Celine 赛琳』","name_cn":"『Celine 赛琳』\n\nbox24cm  灰色银扣\n\n经典款一直不过时💥\n头层牛皮配定制五金\n内侧拉链口袋和双层扁平口袋\n非常有质感的一款包🛍\n尺寸:24×18×7cm","specs":{"source":"wsxcme","sourceId":"_dv7v7h645n9FtedgFUcgXsaofqW5HkJdy14mCSA","sourceTagId":47003106,"sourceTagName":"塞琳/女包","dimensions":{"lengthCm":24,"heightCm":18,"widthCm":7},"rawTitle":"『Celine 赛琳』\n\nbox24cm  灰色银扣\n\n经典款一直不过时💥\n头层牛皮配定制五金\n内侧拉链口袋和双层扁平口袋\n非常有质感的一款包🛍\n尺寸:24×18×7cm"},"price":null,"currency":"CNY","moq":1,"category":"celine-women-bags","status":"active","alibaba_url":null,"images":["https://xcimg.szwego.com/20201130/i1606723456_8412_0.jpg","https://xcimg.szwego.com/20201130/i1606723456_7675_1.jpg","https://xcimg.szwego.com/20201130/i1606723456_2130_2.jpg","https://xcimg.szwego.com/20201130/i1606723456_4994_3.jpg","https://xcimg.szwego.com/20201130/i1606723456_54_4.jpg","https://xcimg.szwego.com/20201130/i1606723456_7571_5.jpg","https://xcimg.szwego.com/20201130/i1606723456_2841_6.jpg","https://xcimg.szwego.com/20201130/i1606723456_4691_7.jpg","https://xcimg.szwego.com/20201130/i1606723456_9551_8.jpg"],"created_at":"2025-02-08T12:47:15.856Z"},{"id":"item-9dcce7f09810","sku":"_dEOEOU4WeJ3pmOr403L_ggbpWQx1ftQtB0TvOaA","name_en":"『Celine 赛琳』","name_cn":"『Celine 赛琳』\n\n配全套包装CABAS TRIOMPHE🛍提花面料MiNi号竖款手袋\n65%纺织布,35%小牛皮\n100%棉衬里\n内侧插袋\n可调节可拆卸皮革肩带 长20英寸(50厘米)\n尺寸20X 17X 6厘米)\n型号:1230天然棕","specs":{"source":"wsxcme","sourceId":"_dEOEOU4WeJ3pmOr403L_ggbpWQx1ftQtB0TvOaA","sourceTagId":47003106,"sourceTagName":"塞琳/女包","modelNumber":"1230天然棕","dimensions":{"lengthCm":20,"heightCm":17,"widthCm":6},"rawTitle":"『Celine 赛琳』\n\n配全套包装CABAS TRIOMPHE🛍提花面料MiNi号竖款手袋\n65%纺织布,35%小牛皮\n100%棉衬里\n内侧插袋\n可调节可拆卸皮革肩带 长20英寸(50厘米)\n尺寸20X 17X 6厘米)\n型号:1230天然棕"},"price":null,"currency":"CNY","moq":1,"category":"celine-women-bags","status":"active","alibaba_url":null,"images":["https://xcimg.szwego.com/20200805/i1596616712_8397_0.jpg","https://xcimg.szwego.com/20200805/i1596616712_7367_1.jpg","https://xcimg.szwego.com/20200805/i1596616712_4465_2.jpg","https://xcimg.szwego.com/20200805/i1596616712_4358_3.jpg","https://xcimg.szwego.com/20200805/i1596616712_5650_4.jpg","https://xcimg.szwego.com/20200805/i1596616712_3650_5.jpg","https://xcimg.szwego.com/20200805/i1596616712_5958_6.jpg","https://xcimg.szwego.com/20200805/i1596616712_3164_7.jpg","https://xcimg.szwego.com/20200805/i1596616712_5899_8.jpg"],"created_at":"2025-02-08T12:47:00.823Z"}],"page":39,"pageSize":24,"total":10075,"totalPages":420}
