{"items":[{"id":"item-65d4ec2253a4","sku":"_do2o2XrMhqK5O0aiZ359NzW9arTzq7RiD9ugi4A","name_en":"Bvlgari Women Bags","name_cn":"正品级\n质量升级。珐琅孔雀石对版蛇眼。【Bvlgari 】宝格丽专柜经典热卖系列 顶级版本 Serpenti Forever “单层”翻盖小方包包 浅金镀金黄铜配饰及黑白珐琅蛇头包扣 眼睛镶饰绿孔雀真石头双眼 全铜蛇身链条 两个扣板化妆镜口袋 \"雨衣、镜子、雷射防伪标与施印独立编码\"配专柜全套包装。款号:35107尺寸:20*15*5cm","specs":{"source":"wsxcme","sourceId":"_do2o2XrMhqK5O0aiZ359NzW9arTzq7RiD9ugi4A","sourceTagId":47002756,"sourceTagName":"宝格丽/女包","modelNumber":"35107尺寸:20*15*5cm","dimensions":{"lengthCm":20,"heightCm":15,"widthCm":5},"rawTitle":"正品级\n质量升级。珐琅孔雀石对版蛇眼。【Bvlgari 】宝格丽专柜经典热卖系列 顶级版本 Serpenti Forever “单层”翻盖小方包包 浅金镀金黄铜配饰及黑白珐琅蛇头包扣 眼睛镶饰绿孔雀真石头双眼 全铜蛇身链条 两个扣板化妆镜口袋 \"雨衣、镜子、雷射防伪标与施印独立编码\"配专柜全套包装。款号:35107尺寸:20*15*5cm"},"price":null,"currency":"CNY","moq":1,"category":"bvlgari-women-bags","status":"active","alibaba_url":null,"images":["https://xcimg.szwego.com/20221102/i1667383451_98_0.jpg","https://xcimg.szwego.com/20221102/i1667383451_2495_1.jpg","https://xcimg.szwego.com/20221102/i1667383451_4521_2.jpg","https://xcimg.szwego.com/20221102/i1667383451_3359_3.jpg","https://xcimg.szwego.com/20221102/i1667383451_5289_4.jpg","https://xcimg.szwego.com/20221102/i1667383451_5421_5.jpg","https://xcimg.szwego.com/20221102/i1667383451_3246_6.jpg","https://xcimg.szwego.com/20221102/i1667383451_6489_7.jpg","https://xcimg.szwego.com/20221102/i1667383451_7772_8.jpg"],"created_at":"2024-10-07T10:58:53.595Z"},{"id":"item-63abf9056043","sku":"_dEzEzeVQZOTjBxad3jLOwKZTdw3Gs8HkgBUOdag","name_en":"Bvlgari Women Bags","name_cn":"宝格丽/女包","specs":{"source":"wsxcme","sourceId":"_dEzEzeVQZOTjBxad3jLOwKZTdw3Gs8HkgBUOdag","sourceTagId":47002756,"sourceTagName":"宝格丽/女包","rawTitle":""},"price":null,"currency":"CNY","moq":1,"category":"bvlgari-women-bags","status":"active","alibaba_url":null,"images":["https://xcimg.szwego.com/20230219/i1676790869_7375_0.jpg"],"created_at":"2024-10-07T10:58:53.579Z"},{"id":"item-5da32f771b7a","sku":"_dStStN3cfwpTeNEjJD9cOs-WLNT3cZaqfj5U4Tw","name_en":"Bvlgari Women Bags","name_cn":"正品级\nBVLGARISERPENTIFOREVER\n型号:38102 大红配酒红\n尺寸:22*13*5.5cm\n专柜热卖系列 Serpenti Forever 精致斜挎包 原单品质 进口胎牛皮 定制原单五金🔅点缀serpenti珐琅浅金镀金蛇首形搭扣  也可以当晚宴包用 精致如珠宝💎\"雨衣、镜子、礼盒包装、","specs":{"source":"wsxcme","sourceId":"_dStStN3cfwpTeNEjJD9cOs-WLNT3cZaqfj5U4Tw","sourceTagId":47002756,"sourceTagName":"宝格丽/女包","modelNumber":"38102 大红配酒红","dimensions":{"lengthCm":22,"heightCm":13,"widthCm":5.5},"rawTitle":"正品级\nBVLGARISERPENTIFOREVER\n型号:38102 大红配酒红\n尺寸:22*13*5.5cm\n专柜热卖系列 Serpenti Forever 精致斜挎包 原单品质 进口胎牛皮 定制原单五金🔅点缀serpenti珐琅浅金镀金蛇首形搭扣  也可以当晚宴包用 精致如珠宝💎\"雨衣、镜子、礼盒包装、"},"price":null,"currency":"CNY","moq":1,"category":"bvlgari-women-bags","status":"active","alibaba_url":null,"images":["https://xcimg.szwego.com/20230219/i1676789219_1288_0.jpg","https://xcimg.szwego.com/20230219/i1676789219_5140_1.jpg","https://xcimg.szwego.com/20230219/i1676789219_2299_2.jpg","https://xcimg.szwego.com/20230219/i1676789219_4141_3.jpg","https://xcimg.szwego.com/20230219/i1676789219_5325_4.jpg","https://xcimg.szwego.com/20230219/i1676789219_3262_5.jpg","https://xcimg.szwego.com/20230219/i1676789219_7745_6.jpg","https://xcimg.szwego.com/20230219/i1676789219_9220_7.jpg","https://xcimg.szwego.com/20230219/i1676789219_1069_8.jpg"],"created_at":"2024-10-07T10:58:53.567Z"},{"id":"item-5bc721f1ace9","sku":"_dr8r8TF1-dWpNDaNuMY-7U9fMPkA1Qdm2VCPlWA","name_en":"Bvlgari Women Bags","name_cn":"上身随拍","specs":{"source":"wsxcme","sourceId":"_dr8r8TF1-dWpNDaNuMY-7U9fMPkA1Qdm2VCPlWA","sourceTagId":47002756,"sourceTagName":"宝格丽/女包","rawTitle":"上身随拍"},"price":null,"currency":"CNY","moq":1,"category":"bvlgari-women-bags","status":"active","alibaba_url":null,"images":["https://xcimg.szwego.com/20230219/i1676789144_4297_0.jpg","https://xcimg.szwego.com/20230219/i1676789144_882_1.jpg","https://xcimg.szwego.com/20230219/i1676789144_8191_2.jpg","https://xcimg.szwego.com/20230219/i1676789144_6966_3.jpg"],"created_at":"2024-10-07T10:58:53.565Z"},{"id":"item-5a01fb8ee0e4","sku":"_dMmMmCArKhVhJkYW4Aj7ByqOE7-fa61k2qiQaeA","name_en":"Bvlgari Women Bags","name_cn":"更多细节","specs":{"source":"wsxcme","sourceId":"_dMmMmCArKhVhJkYW4Aj7ByqOE7-fa61k2qiQaeA","sourceTagId":47002756,"sourceTagName":"宝格丽/女包","rawTitle":"更多细节"},"price":null,"currency":"CNY","moq":1,"category":"bvlgari-women-bags","status":"active","alibaba_url":null,"images":["https://xcimg.szwego.com/20230219/i1676791792_8643_0.jpg","https://xcimg.szwego.com/20230219/i1676791792_9800_1.jpg","https://xcimg.szwego.com/20230219/i1676791792_8971_2.jpg","https://xcimg.szwego.com/20230219/i1676791792_9074_3.jpg","https://xcimg.szwego.com/20230219/i1676791792_4129_4.jpg"],"created_at":"2024-10-07T10:58:53.585Z"},{"id":"item-57cc95efeb8b","sku":"_dlIlIqIo_A1lfSXJFiZA0nribCmGFdXcPhLZHsA","name_en":"Bvlgari Women Bags","name_cn":"正品级\n  “SERPENTI CABOCHON”系列迷你斜挎包采用别具魅力的大号图形图案和大胆的金属质感细节,以精致实用的独特设计和现代风格绽放SERPENTI世界璀璨光芒。\n此款手袋配备可调节和可拆卸的皮革肩带,可用作手提包或手拿包,实现多变百搭功能,日夜皆宜。\n超小号,设一个收纳层和一个卡位。镌刻BVLGARI宝格丽品牌标识的内侧金属铭牌。\n型号:291085\n尺寸:18 X 12 X 8 厘米","specs":{"source":"wsxcme","sourceId":"_dlIlIqIo_A1lfSXJFiZA0nribCmGFdXcPhLZHsA","sourceTagId":47002756,"sourceTagName":"宝格丽/女包","modelNumber":"291085","dimensions":{"lengthCm":18,"heightCm":12,"widthCm":8},"rawTitle":"正品级\n  “SERPENTI CABOCHON”系列迷你斜挎包采用别具魅力的大号图形图案和大胆的金属质感细节,以精致实用的独特设计和现代风格绽放SERPENTI世界璀璨光芒。\n此款手袋配备可调节和可拆卸的皮革肩带,可用作手提包或手拿包,实现多变百搭功能,日夜皆宜。\n超小号,设一个收纳层和一个卡位。镌刻BVLGARI宝格丽品牌标识的内侧金属铭牌。\n型号:291085\n尺寸:18 X 12 X 8 厘米"},"price":null,"currency":"CNY","moq":1,"category":"bvlgari-women-bags","status":"active","alibaba_url":null,"images":["https://xcimg.szwego.com/20230329/i1680069373_6346_0.jpg","https://xcimg.szwego.com/20230329/i1680069373_319_1.jpg","https://xcimg.szwego.com/20230329/i1680069373_8144_2.jpg","https://xcimg.szwego.com/20230329/i1680069373_8541_3.jpg","https://xcimg.szwego.com/20230329/i1680069373_7666_4.jpg","https://xcimg.szwego.com/20230329/i1680069373_2812_5.jpg","https://xcimg.szwego.com/20230329/i1680069373_832_6.jpg","https://xcimg.szwego.com/20230329/i1680069373_4395_7.jpg","https://xcimg.szwego.com/20230329/i1680069373_6010_8.jpg"],"created_at":"2024-09-27T06:51:04.148Z"},{"id":"item-56b4af6f3b0c","sku":"_d9o9ocelLAOsvi_QEdz27LJH3XMbc0dFfBHJxkg","name_en":"Bvlgari Women Bags","name_cn":"正品级\n🆕SERPENTI FOREVER EAST-WEST系列小号肩包❤\n采用粉色小牛皮材质,以时尚前卫的造型演绎隽永经典的风尚。\n作品搭配实用皮革肩带,饰以经典蛇首磁扣,其魅惑迷人的鳞片与设计从1960年代的SERPENTI系列珠宝中汲取灵感,适合日常佩戴。设有单个隔层,一个正面口袋,一个背面拼接口袋,一个内部绗缝线口袋,三个卡位,一面可个性化定制化妆镜,背面饰BULGARI宝格丽金属标识。\n\n\n尺寸:22 X 15 X 4.5 厘米\n型号:292104","specs":{"source":"wsxcme","sourceId":"_d9o9ocelLAOsvi_QEdz27LJH3XMbc0dFfBHJxkg","sourceTagId":47002756,"sourceTagName":"宝格丽/女包","modelNumber":"292104","dimensions":{"lengthCm":22,"heightCm":15,"widthCm":4.5},"rawTitle":"正品级\n🆕SERPENTI FOREVER EAST-WEST系列小号肩包❤\n采用粉色小牛皮材质,以时尚前卫的造型演绎隽永经典的风尚。\n作品搭配实用皮革肩带,饰以经典蛇首磁扣,其魅惑迷人的鳞片与设计从1960年代的SERPENTI系列珠宝中汲取灵感,适合日常佩戴。设有单个隔层,一个正面口袋,一个背面拼接口袋,一个内部绗缝线口袋,三个卡位,一面可个性化定制化妆镜,背面饰BULGARI宝格丽金属标识。\n\n\n尺寸:22 X 15 X 4.5 厘米\n型号:292104"},"price":null,"currency":"CNY","moq":1,"category":"bvlgari-women-bags","status":"active","alibaba_url":null,"images":["https://xcimg.szwego.com/20220602/i1654155161_5033_0.jpg","https://xcimg.szwego.com/20220602/i1654155161_5238_1.jpg","https://xcimg.szwego.com/20220602/i1654155161_6946_2.jpg","https://xcimg.szwego.com/20220602/i1654155161_3666_3.jpg","https://xcimg.szwego.com/20220602/i1654155161_297_4.jpg","https://xcimg.szwego.com/20220602/i1654155161_9646_5.jpg","https://xcimg.szwego.com/20220602/i1654155161_1307_6.jpg","https://xcimg.szwego.com/20220602/i1654155161_8292_7.jpg"],"created_at":"2024-09-27T06:51:04.112Z"},{"id":"item-569473646974","sku":"_dnHnH-2iF5ldjr6G8lWeE36IPwU9lPGxw7vKD_g","name_en":"Bvlgari Women Bags","name_cn":"正品级\n. 🆕SERPENTI FOREVER EAST-WEST系列小号肩包❤\n采用白色小牛皮材质,以时尚前卫的造型演绎隽永经典的风尚。\n作品搭配实用皮革肩带,饰以经典蛇首磁扣,其魅惑迷人的鳞片与设计从1960年代的SERPENTI系列珠宝中汲取灵感,适合日常佩戴。设有单个隔层,一个正面口袋,一个背面拼接口袋,一个内部绗缝线口袋,三个卡位,一面可个性化定制化妆镜,背面饰BULGARI宝格丽金属标识。\n\n\n尺寸:22 X 15 X 4.5 厘米\n型号:292104","specs":{"source":"wsxcme","sourceId":"_dnHnH-2iF5ldjr6G8lWeE36IPwU9lPGxw7vKD_g","sourceTagId":47002756,"sourceTagName":"宝格丽/女包","modelNumber":"292104","dimensions":{"lengthCm":22,"heightCm":15,"widthCm":4.5},"rawTitle":"正品级\n. 🆕SERPENTI FOREVER EAST-WEST系列小号肩包❤\n采用白色小牛皮材质,以时尚前卫的造型演绎隽永经典的风尚。\n作品搭配实用皮革肩带,饰以经典蛇首磁扣,其魅惑迷人的鳞片与设计从1960年代的SERPENTI系列珠宝中汲取灵感,适合日常佩戴。设有单个隔层,一个正面口袋,一个背面拼接口袋,一个内部绗缝线口袋,三个卡位,一面可个性化定制化妆镜,背面饰BULGARI宝格丽金属标识。\n\n\n尺寸:22 X 15 X 4.5 厘米\n型号:292104"},"price":null,"currency":"CNY","moq":1,"category":"bvlgari-women-bags","status":"active","alibaba_url":null,"images":["https://xcimg.szwego.com/20230807/i1691392455_3722_0.jpg","https://xcimg.szwego.com/20230807/i1691392455_8500_1.jpg","https://xcimg.szwego.com/20230807/i1691392455_9767_2.jpg","https://xcimg.szwego.com/20230807/i1691392455_1885_3.jpg","https://xcimg.szwego.com/20230807/i1691392455_3929_4.jpg","https://xcimg.szwego.com/20230807/i1691392455_7250_5.jpg","https://xcimg.szwego.com/20230807/i1691392455_1281_6.jpg","https://xcimg.szwego.com/20230807/i1691392455_1340_7.jpg","https://xcimg.szwego.com/20230807/i1691392455_6682_8.jpg"],"created_at":"2024-09-27T06:51:04.122Z"},{"id":"item-5568a522582a","sku":"_dX2X2IhrguXTnh1gGchVEeLyUtFbovmOALRWRVw","name_en":"Bvlgari Women Bags","name_cn":"正品级\n【Bvlgari 】宝格丽专柜热卖款 Serpenti Forever 手腕款风琴包 原单品质、进口南非皮➕定制原单五金🎉🎉点缀serpenti黑色和白色珐琅浅金镀金蛇首形搭扣,双眼镶嵌孔雀绿松石搭配可拆卸肩带🎀内里三格夹层简约实用满足你不同需求 \"雨衣、镜子、专柜礼盒包装、雷射防伪标与施印独立编码\"款号:38329 尺寸:18*16*9cm","specs":{"source":"wsxcme","sourceId":"_dX2X2IhrguXTnh1gGchVEeLyUtFbovmOALRWRVw","sourceTagId":47002756,"sourceTagName":"宝格丽/女包","modelNumber":"38329 尺寸:18*16*9cm","dimensions":{"lengthCm":18,"heightCm":16,"widthCm":9},"rawTitle":"正品级\n【Bvlgari 】宝格丽专柜热卖款 Serpenti Forever 手腕款风琴包 原单品质、进口南非皮➕定制原单五金🎉🎉点缀serpenti黑色和白色珐琅浅金镀金蛇首形搭扣,双眼镶嵌孔雀绿松石搭配可拆卸肩带🎀内里三格夹层简约实用满足你不同需求 \"雨衣、镜子、专柜礼盒包装、雷射防伪标与施印独立编码\"款号:38329 尺寸:18*16*9cm"},"price":null,"currency":"CNY","moq":1,"category":"bvlgari-women-bags","status":"active","alibaba_url":null,"images":["https://xcimg.szwego.com/20221103/i1667461836_6896_0.jpg","https://xcimg.szwego.com/20221103/i1667461836_1100_1.jpg","https://xcimg.szwego.com/20221103/i1667461836_2634_2.jpg","https://xcimg.szwego.com/20221103/i1667461836_166_3.jpg","https://xcimg.szwego.com/20221103/i1667461836_7548_4.jpg","https://xcimg.szwego.com/20221103/i1667461836_9826_5.jpg","https://xcimg.szwego.com/20221103/i1667461836_9833_6.jpg","https://xcimg.szwego.com/20221103/i1667461836_6322_7.jpg","https://xcimg.szwego.com/20221103/i1667461836_2913_8.jpg"],"created_at":"2024-10-07T10:58:53.598Z"},{"id":"item-4a162d0a729e","sku":"_dmTmT6jyyxMWIM5z_kgQKCG1223yvAqDXLLjodQ","name_en":"Bvlgari Women Bags","name_cn":"刘雯~","specs":{"source":"wsxcme","sourceId":"_dmTmT6jyyxMWIM5z_kgQKCG1223yvAqDXLLjodQ","sourceTagId":47002756,"sourceTagName":"宝格丽/女包","rawTitle":"刘雯~"},"price":null,"currency":"CNY","moq":1,"category":"bvlgari-women-bags","status":"active","alibaba_url":null,"images":["https://xcimg.szwego.com/20230329/i1680070106_8705_0.jpg"],"created_at":"2024-09-27T06:51:04.152Z"},{"id":"item-4743e4aa7848","sku":"_dkQkQ5tqxb3zaJSLO13Yl6hCilT8ClsYxvJXxJg","name_en":"Bvlgari Women Bags","name_cn":"宝格丽/女包","specs":{"source":"wsxcme","sourceId":"_dkQkQ5tqxb3zaJSLO13Yl6hCilT8ClsYxvJXxJg","sourceTagId":47002756,"sourceTagName":"宝格丽/女包","rawTitle":""},"price":null,"currency":"CNY","moq":1,"category":"bvlgari-women-bags","status":"active","alibaba_url":null,"images":["https://xcimg.szwego.com/20230219/i1676789178_4414_0.jpg"],"created_at":"2024-10-07T10:58:53.566Z"},{"id":"item-429fb2d203f0","sku":"_dKcKck2psVCDGiD7YwWAiAU5ThOzGG9yMJVmLBw","name_en":"Bvlgari Women Bags","name_cn":"宝格丽/女包","specs":{"source":"wsxcme","sourceId":"_dKcKck2psVCDGiD7YwWAiAU5ThOzGG9yMJVmLBw","sourceTagId":47002756,"sourceTagName":"宝格丽/女包","rawTitle":""},"price":null,"currency":"CNY","moq":1,"category":"bvlgari-women-bags","status":"active","alibaba_url":null,"images":["https://xcimg.szwego.com/20230219/i1676789361_3768_0.jpg"],"created_at":"2024-10-07T10:58:53.570Z"},{"id":"item-3e0a4b874c80","sku":"_d4T4TO5kA8bAaohPEjdJx0b9Mq7lYf5Z2VYkSCg","name_en":"Bvlgari Women Bags","name_cn":"正品级\n【Bvlgari 】宝格丽专柜热卖款 Serpenti Forever 手腕款风琴包 原单品质、进口南非皮➕定制原单五金🎉🎉点缀serpenti黑色和白色珐琅浅金镀金蛇首形搭扣,双眼镶嵌孔雀绿松石搭配可拆卸肩带🎀内里三格夹层简约实用满足你不同需求 \"雨衣、镜子、专柜礼盒包装、雷射防伪标与施印独立编码\"款号:38329 尺寸:18*16*9cm","specs":{"source":"wsxcme","sourceId":"_d4T4TO5kA8bAaohPEjdJx0b9Mq7lYf5Z2VYkSCg","sourceTagId":47002756,"sourceTagName":"宝格丽/女包","modelNumber":"38329 尺寸:18*16*9cm","dimensions":{"lengthCm":18,"heightCm":16,"widthCm":9},"rawTitle":"正品级\n【Bvlgari 】宝格丽专柜热卖款 Serpenti Forever 手腕款风琴包 原单品质、进口南非皮➕定制原单五金🎉🎉点缀serpenti黑色和白色珐琅浅金镀金蛇首形搭扣,双眼镶嵌孔雀绿松石搭配可拆卸肩带🎀内里三格夹层简约实用满足你不同需求 \"雨衣、镜子、专柜礼盒包装、雷射防伪标与施印独立编码\"款号:38329 尺寸:18*16*9cm"},"price":null,"currency":"CNY","moq":1,"category":"bvlgari-women-bags","status":"active","alibaba_url":null,"images":["https://xcimg.szwego.com/20230805/i1691214252_7349_0.jpg","https://xcimg.szwego.com/20230805/i1691214252_7021_1.jpg","https://xcimg.szwego.com/20230805/i1691214252_9066_2.jpg","https://xcimg.szwego.com/20230805/i1691214252_5255_3.jpg","https://xcimg.szwego.com/20230805/i1691214252_8037_4.jpg","https://xcimg.szwego.com/20230805/i1691214252_696_5.jpg","https://xcimg.szwego.com/20230805/i1691214252_1173_6.jpg","https://xcimg.szwego.com/20230805/i1691214252_3651_7.jpg","https://xcimg.szwego.com/20230805/i1691214252_9826_8.jpg"],"created_at":"2024-10-07T10:58:53.602Z"},{"id":"item-3b712ae9fed9","sku":"_d0W0WQvUw1ue9TEHxuSTVHFhYKVJ450F294LCXQ","name_en":"Bvlgari Women Bags","name_cn":"随拍上身图","specs":{"source":"wsxcme","sourceId":"_d0W0WQvUw1ue9TEHxuSTVHFhYKVJ450F294LCXQ","sourceTagId":47002756,"sourceTagName":"宝格丽/女包","rawTitle":"随拍上身图"},"price":null,"currency":"CNY","moq":1,"category":"bvlgari-women-bags","status":"active","alibaba_url":null,"images":["https://xcimg.szwego.com/20230219/i1676791023_603_0.jpg","https://xcimg.szwego.com/20230219/i1676791023_9174_1.jpg","https://xcimg.szwego.com/20230219/i1676791023_953_2.jpg","https://xcimg.szwego.com/20230219/i1676791023_1589_3.jpg","https://xcimg.szwego.com/20230219/i1676791023_4233_4.jpg"],"created_at":"2024-10-07T10:58:53.582Z"},{"id":"item-385f09eb1fda","sku":"_dD5D5JXZbqM6u7b_lfbQ7HYqcLsncN6hxY9-vhA","name_en":"Bvlgari Women Bags","name_cn":"随拍上身图","specs":{"source":"wsxcme","sourceId":"_dD5D5JXZbqM6u7b_lfbQ7HYqcLsncN6hxY9-vhA","sourceTagId":47002756,"sourceTagName":"宝格丽/女包","rawTitle":"随拍上身图"},"price":null,"currency":"CNY","moq":1,"category":"bvlgari-women-bags","status":"active","alibaba_url":null,"images":["https://xcimg.szwego.com/20230219/i1676791845_296_0.jpg","https://xcimg.szwego.com/20230219/i1676791845_2461_1.jpg","https://xcimg.szwego.com/20230219/i1676791845_9099_2.jpg","https://xcimg.szwego.com/20230219/i1676791845_4755_3.jpg"],"created_at":"2024-10-07T10:58:53.586Z"},{"id":"item-36290a8b4c54","sku":"_dqVqVDZyEfu4x-UJbXoQ8KDHeY6c0BJT77-lXFA","name_en":"Bvlgari Women Bags","name_cn":"正品级\nBVLGARISERPENTIFOREVER斜挎包\n型号:289676\n尺寸:19-13-7cm\n全新“Serpenti Forever”系列斜挎包彰显都市风格,时尚多变,为Serpenti世界增添别具一格的潮流时尚感。这款包袋采用蜜桃色小牛皮材质,搭配浅金镀金黄铜配饰。黑色和白玛瑙色珐琅和绿色孔雀石感性双眼,将经典蛇首搭扣点缀得魅惑迷人。可调节的蛇形链条和皮革肩带,轻松配搭时尚日装。小号,两个隔层,一面可个性化定制的精巧化妆镜。一个不可拆卸的信用卡夹,一个敞口口袋,一个拉链口袋和两个外部口袋","specs":{"source":"wsxcme","sourceId":"_dqVqVDZyEfu4x-UJbXoQ8KDHeY6c0BJT77-lXFA","sourceTagId":47002756,"sourceTagName":"宝格丽/女包","modelNumber":"289676","rawTitle":"正品级\nBVLGARISERPENTIFOREVER斜挎包\n型号:289676\n尺寸:19-13-7cm\n全新“Serpenti Forever”系列斜挎包彰显都市风格,时尚多变,为Serpenti世界增添别具一格的潮流时尚感。这款包袋采用蜜桃色小牛皮材质,搭配浅金镀金黄铜配饰。黑色和白玛瑙色珐琅和绿色孔雀石感性双眼,将经典蛇首搭扣点缀得魅惑迷人。可调节的蛇形链条和皮革肩带,轻松配搭时尚日装。小号,两个隔层,一面可个性化定制的精巧化妆镜。一个不可拆卸的信用卡夹,一个敞口口袋,一个拉链口袋和两个外部口袋"},"price":null,"currency":"CNY","moq":1,"category":"bvlgari-women-bags","status":"active","alibaba_url":null,"images":["https://xcimg.szwego.com/20230803/i1691051192_8861_0.jpg","https://xcimg.szwego.com/20230803/i1691051192_210_1.jpg","https://xcimg.szwego.com/20230803/i1691051192_8880_2.jpg","https://xcimg.szwego.com/20230803/i1691051192_9020_3.jpg","https://xcimg.szwego.com/20230803/i1691051192_7818_4.jpg","https://xcimg.szwego.com/20230803/i1691051192_9858_5.jpg","https://xcimg.szwego.com/20230803/i1691051192_2324_6.jpg","https://xcimg.szwego.com/20230803/i1691051192_4206_7.jpg","https://xcimg.szwego.com/20230803/i1691051192_920_8.jpg"],"created_at":"2024-09-27T06:51:04.105Z"},{"id":"item-356781d10994","sku":"_drIrIf-tqTpBvAgiPxwkgM3y0s0W9LXUW0wzBdw","name_en":"Bvlgari Women Bags","name_cn":"祖母绿#上身图\n\n\n\n\n\n\n\n型号:292104","specs":{"source":"wsxcme","sourceId":"_drIrIf-tqTpBvAgiPxwkgM3y0s0W9LXUW0wzBdw","sourceTagId":47002756,"sourceTagName":"宝格丽/女包","modelNumber":"292104","rawTitle":"祖母绿#上身图\n\n\n\n\n\n\n\n型号:292104"},"price":null,"currency":"CNY","moq":1,"category":"bvlgari-women-bags","status":"active","alibaba_url":null,"images":["https://xcimg.szwego.com/20220602/i1654154838_3173_0.jpg","https://xcimg.szwego.com/20220602/i1654154838_4860_1.jpg","https://xcimg.szwego.com/20220602/i1654154838_7088_2.jpg","https://xcimg.szwego.com/20220602/i1654154838_6631_3.jpg","https://xcimg.szwego.com/20220602/i1654154838_6338_4.jpg","https://xcimg.szwego.com/20220602/i1654154838_8152_5.jpg"],"created_at":"2024-09-27T06:51:04.110Z"},{"id":"item-3421699d2981","sku":"_df0f0Gbu0O5Of2E8cZCsG786ryGutEKD5RzPluA","name_en":"Bvlgari Women Bags","name_cn":"正品级\nSERPENTI FOREVER EAST-WEST系列小号肩包❤\n采用祖母绿小牛皮材质,以时尚前卫的造型演绎隽永经典的风尚。\n作品搭配实用皮革肩带,饰以经典蛇首磁扣,其魅惑迷人的鳞片与设计从1960年代的SERPENTI系列珠宝中汲取灵感,适合日常佩戴。设有单个隔层,一个正面口袋,一个背面拼接口袋,一个内部绗缝线口袋,三个卡位,一面可个性化定制化妆镜,背面饰BULGARI宝格丽金属标识。\n\n\n尺寸:22 X 15 X 4.5 厘米\n型号:292104","specs":{"source":"wsxcme","sourceId":"_df0f0Gbu0O5Of2E8cZCsG786ryGutEKD5RzPluA","sourceTagId":47002756,"sourceTagName":"宝格丽/女包","modelNumber":"292104","dimensions":{"lengthCm":22,"heightCm":15,"widthCm":4.5},"rawTitle":"正品级\nSERPENTI FOREVER EAST-WEST系列小号肩包❤\n采用祖母绿小牛皮材质,以时尚前卫的造型演绎隽永经典的风尚。\n作品搭配实用皮革肩带,饰以经典蛇首磁扣,其魅惑迷人的鳞片与设计从1960年代的SERPENTI系列珠宝中汲取灵感,适合日常佩戴。设有单个隔层,一个正面口袋,一个背面拼接口袋,一个内部绗缝线口袋,三个卡位,一面可个性化定制化妆镜,背面饰BULGARI宝格丽金属标识。\n\n\n尺寸:22 X 15 X 4.5 厘米\n型号:292104"},"price":null,"currency":"CNY","moq":1,"category":"bvlgari-women-bags","status":"active","alibaba_url":null,"images":["https://xcimg.szwego.com/20220602/i1654153818_8701_0.jpg","https://xcimg.szwego.com/20220602/i1654153818_9385_1.jpg","https://xcimg.szwego.com/20220602/i1654153818_7107_2.jpg","https://xcimg.szwego.com/20220602/i1654153818_9167_3.jpg","https://xcimg.szwego.com/20220602/i1654153818_8617_4.jpg","https://xcimg.szwego.com/20220602/i1654153818_540_5.jpg","https://xcimg.szwego.com/20220602/i1654153818_7148_6.jpg","https://xcimg.szwego.com/20220602/i1654153818_2249_7.jpg","https://xcimg.szwego.com/20220602/i1654153818_2626_8.jpg"],"created_at":"2024-09-27T06:51:04.109Z"},{"id":"item-2a427d4e3324","sku":"_dF5F5ejTixv9pIQYOG807aDsNuZTytWjCbIRF9Q","name_en":"Bvlgari Women Bags","name_cn":"正品级\nSERPENTI  BAIA系列—颜值颇高的腋下包,配有两条可拆卸蛇形粗链及额外链条装置~可随性延长肩带,实现多种佩戴方式。配有羊皮小福袋,雨衣。\n尺寸:27.5x18 x3.5cm\n款号:293208","specs":{"source":"wsxcme","sourceId":"_dF5F5ejTixv9pIQYOG807aDsNuZTytWjCbIRF9Q","sourceTagId":47002756,"sourceTagName":"宝格丽/女包","modelNumber":"293208","dimensions":{"lengthCm":27.5,"heightCm":18,"widthCm":3.5},"rawTitle":"正品级\nSERPENTI  BAIA系列—颜值颇高的腋下包,配有两条可拆卸蛇形粗链及额外链条装置~可随性延长肩带,实现多种佩戴方式。配有羊皮小福袋,雨衣。\n尺寸:27.5x18 x3.5cm\n款号:293208"},"price":null,"currency":"CNY","moq":1,"category":"bvlgari-women-bags","status":"active","alibaba_url":null,"images":["https://xcimg.szwego.com/20230718/i1689689390_5382_0.jpg","https://xcimg.szwego.com/20230718/i1689689390_8794_1.jpg","https://xcimg.szwego.com/20230718/i1689689390_7775_2.jpg","https://xcimg.szwego.com/20230718/i1689689390_1015_3.jpg","https://xcimg.szwego.com/20230718/i1689689390_2652_4.jpg","https://xcimg.szwego.com/20230718/i1689689390_254_5.jpg","https://xcimg.szwego.com/20230718/i1689689390_2990_6.jpg","https://xcimg.szwego.com/20230718/i1689689390_7321_7.jpg","https://xcimg.szwego.com/20230718/i1689689390_7277_8.jpg"],"created_at":"2024-09-27T06:51:04.098Z"},{"id":"item-27981a1443b0","sku":"_dAUAUqXTSkN7Lx0IzVGMv_HMRjm9RgQInLvAydA","name_en":"Bvlgari Women Bags","name_cn":"三色合集~","specs":{"source":"wsxcme","sourceId":"_dAUAUqXTSkN7Lx0IzVGMv_HMRjm9RgQInLvAydA","sourceTagId":47002756,"sourceTagName":"宝格丽/女包","rawTitle":"三色合集~"},"price":null,"currency":"CNY","moq":1,"category":"bvlgari-women-bags","status":"active","alibaba_url":null,"images":["https://xcimg.szwego.com/20240817/i1723878915_4364_0.jpg"],"created_at":"2024-09-27T06:51:04.183Z"},{"id":"item-26a3edb8ea5b","sku":"_dI9I9LXvFM1Lsb0Y_kVGhLrBNfXo8xZ1khf82RA","name_en":"Bvlgari Women Bags","name_cn":"正品级\n【Bvlgari 】宝格丽专柜热卖款 Serpenti Forever 手腕款风琴包 原单品质、进口南非皮➕定制原单五金🎉🎉点缀serpenti黑色和白色珐琅浅金镀金蛇首形搭扣,双眼镶嵌孔雀绿松石搭配可拆卸肩带🎀内里三格夹层简约实用满足你不同需求 \"雨衣、镜子、专柜礼盒包装、雷射防伪标与施印独立编码\"款号:38329 尺寸:18*16*9cm","specs":{"source":"wsxcme","sourceId":"_dI9I9LXvFM1Lsb0Y_kVGhLrBNfXo8xZ1khf82RA","sourceTagId":47002756,"sourceTagName":"宝格丽/女包","modelNumber":"38329 尺寸:18*16*9cm","dimensions":{"lengthCm":18,"heightCm":16,"widthCm":9},"rawTitle":"正品级\n【Bvlgari 】宝格丽专柜热卖款 Serpenti Forever 手腕款风琴包 原单品质、进口南非皮➕定制原单五金🎉🎉点缀serpenti黑色和白色珐琅浅金镀金蛇首形搭扣,双眼镶嵌孔雀绿松石搭配可拆卸肩带🎀内里三格夹层简约实用满足你不同需求 \"雨衣、镜子、专柜礼盒包装、雷射防伪标与施印独立编码\"款号:38329 尺寸:18*16*9cm"},"price":null,"currency":"CNY","moq":1,"category":"bvlgari-women-bags","status":"active","alibaba_url":null,"images":["https://xcimg.szwego.com/20221103/i1667463042_2852_0.jpg","https://xcimg.szwego.com/20221103/i1667463042_9945_1.jpg","https://xcimg.szwego.com/20221103/i1667463042_6502_2.jpg","https://xcimg.szwego.com/20221103/i1667463042_4525_3.jpg","https://xcimg.szwego.com/20221103/i1667463042_2137_4.jpg","https://xcimg.szwego.com/20221103/i1667463042_3103_5.jpg","https://xcimg.szwego.com/20221103/i1667463042_2548_6.jpg","https://xcimg.szwego.com/20221103/i1667463042_2382_7.jpg","https://xcimg.szwego.com/20221103/i1667463042_1868_8.jpg"],"created_at":"2024-10-07T10:58:53.600Z"},{"id":"item-1eda66db59db","sku":"_dpHpHh9fNxDRl5_LFVp0NpuseFJJriyM_xYm_cA","name_en":"Bvlgari Women Bags","name_cn":"正品级\nBVLGARISERPENTIFOREVER\n型号:38102 奶茶\n尺寸:22*13*5.5cm\n专柜热卖系列 Serpenti Forever 精致斜挎包 原单品质 进口胎牛皮 定制原单五金🔅点缀serpenti珐琅浅金镀金蛇首形搭扣  也可以当晚宴包用 精致如珠宝💎\"雨衣、镜子、礼盒包装","specs":{"source":"wsxcme","sourceId":"_dpHpHh9fNxDRl5_LFVp0NpuseFJJriyM_xYm_cA","sourceTagId":47002756,"sourceTagName":"宝格丽/女包","modelNumber":"38102 奶茶","dimensions":{"lengthCm":22,"heightCm":13,"widthCm":5.5},"rawTitle":"正品级\nBVLGARISERPENTIFOREVER\n型号:38102 奶茶\n尺寸:22*13*5.5cm\n专柜热卖系列 Serpenti Forever 精致斜挎包 原单品质 进口胎牛皮 定制原单五金🔅点缀serpenti珐琅浅金镀金蛇首形搭扣  也可以当晚宴包用 精致如珠宝💎\"雨衣、镜子、礼盒包装"},"price":null,"currency":"CNY","moq":1,"category":"bvlgari-women-bags","status":"active","alibaba_url":null,"images":["https://xcimg.szwego.com/20230219/i1676790425_131_0.jpg","https://xcimg.szwego.com/20230219/i1676790425_9982_1.jpg","https://xcimg.szwego.com/20230219/i1676790425_7767_2.jpg","https://xcimg.szwego.com/20230219/i1676790425_3083_3.jpg","https://xcimg.szwego.com/20230219/i1676790425_8183_4.jpg","https://xcimg.szwego.com/20230219/i1676790425_2566_5.jpg","https://xcimg.szwego.com/20230219/i1676790425_9582_6.jpg","https://xcimg.szwego.com/20230219/i1676790425_9072_7.jpg","https://xcimg.szwego.com/20230219/i1676790425_4190_8.jpg"],"created_at":"2024-10-07T10:58:53.576Z"},{"id":"item-1b79cee857c2","sku":"_dxkxkb3TMmT5PTuHxQLDf09tPdx0EzvZHfZt4-w","name_en":"Bvlgari Women Bags","name_cn":"宝格丽/女包","specs":{"source":"wsxcme","sourceId":"_dxkxkb3TMmT5PTuHxQLDf09tPdx0EzvZHfZt4-w","sourceTagId":47002756,"sourceTagName":"宝格丽/女包","rawTitle":""},"price":null,"currency":"CNY","moq":1,"category":"bvlgari-women-bags","status":"active","alibaba_url":null,"images":["https://xcimg.szwego.com/20220614/i1655186362_8065_0.jpg"],"created_at":"2024-09-27T06:51:04.121Z"},{"id":"item-1b42ef09ebb9","sku":"_dmVmVUoGtbBaHgeXPUSVXlajAqWxOUrDNqtyP_g","name_en":"Bvlgari Women Bags","name_cn":"随拍上身图","specs":{"source":"wsxcme","sourceId":"_dmVmVUoGtbBaHgeXPUSVXlajAqWxOUrDNqtyP_g","sourceTagId":47002756,"sourceTagName":"宝格丽/女包","rawTitle":"随拍上身图"},"price":null,"currency":"CNY","moq":1,"category":"bvlgari-women-bags","status":"active","alibaba_url":null,"images":["https://xcimg.szwego.com/20230219/i1676789320_1674_0.jpg","https://xcimg.szwego.com/20230219/i1676789320_380_1.jpg","https://xcimg.szwego.com/20230219/i1676789320_4963_2.jpg","https://xcimg.szwego.com/20230219/i1676789320_4446_3.jpg"],"created_at":"2024-10-07T10:58:53.569Z"}],"page":238,"pageSize":24,"total":10075,"totalPages":420}
