{"items":[{"id":"item-8402a0b9ab85","sku":"_duMuMHB9LlR80_pqc5PhM3tBjB5pTiVGQ9Mq18Q","name_en":"『Celine 赛琳』","name_cn":"『Celine 赛琳』\n\n新品🔛小号标志印花牛皮革波士顿包TRIOMPHE CANVAS标志印花,牛皮革包边,织物面料衬里,拉链锁闭,1个主隔层,内侧拉链口袋。皮革手挽长8cm\n尺寸:20 X 14 X 7cm\n型号:4450#","specs":{"source":"wsxcme","sourceId":"_duMuMHB9LlR80_pqc5PhM3tBjB5pTiVGQ9Mq18Q","sourceTagId":47003106,"sourceTagName":"塞琳/女包","modelNumber":"4450#","dimensions":{"lengthCm":20,"heightCm":14,"widthCm":7},"rawTitle":"『Celine 赛琳』\n\n新品🔛小号标志印花牛皮革波士顿包TRIOMPHE CANVAS标志印花,牛皮革包边,织物面料衬里,拉链锁闭,1个主隔层,内侧拉链口袋。皮革手挽长8cm\n尺寸:20 X 14 X 7cm\n型号:4450#"},"price":null,"currency":"CNY","moq":1,"category":"celine-women-bags","status":"active","alibaba_url":null,"images":["https://xcimg.szwego.com/20220418/i1650257828_6308_0.jpg","https://xcimg.szwego.com/20220418/i1650257828_1144_1.jpg","https://xcimg.szwego.com/20220418/i1650257828_423_2.jpg","https://xcimg.szwego.com/20220418/i1650257828_8144_3.jpg","https://xcimg.szwego.com/20220418/i1650257828_6905_4.jpg","https://xcimg.szwego.com/20220418/i1650257828_7222_5.jpg","https://xcimg.szwego.com/20220418/i1650257828_8544_6.jpg","https://xcimg.szwego.com/20220418/i1650257828_191_7.jpg","https://xcimg.szwego.com/20220418/i1650257828_7043_8.jpg"],"created_at":"2025-02-08T12:47:15.815Z"},{"id":"item-82a2f12229e1","sku":"_dkrkrcf07OiSUI4ekz5rmtOAuDsyJ4zTzDwvBSA","name_en":"『Celine 赛琳』","name_cn":"『Celine 赛琳』\n\nC🏠大号水桶出货#颜值爆表老花系列,TRIOMPHE CANVAS NANO标志印花水桶包,人造革/牛皮革,织物面料衬里,斜挎和肩背,按扣开合,可调节皮革肩带,冬天配大衣再适合不过了 容量大 自重轻耐磨 防水 不易刮花  超nice\n尺寸:35x27x18cm\n款号:2199#","specs":{"source":"wsxcme","sourceId":"_dkrkrcf07OiSUI4ekz5rmtOAuDsyJ4zTzDwvBSA","sourceTagId":47003106,"sourceTagName":"塞琳/女包","modelNumber":"2199#","dimensions":{"lengthCm":35,"heightCm":27,"widthCm":18},"rawTitle":"『Celine 赛琳』\n\nC🏠大号水桶出货#颜值爆表老花系列,TRIOMPHE CANVAS NANO标志印花水桶包,人造革/牛皮革,织物面料衬里,斜挎和肩背,按扣开合,可调节皮革肩带,冬天配大衣再适合不过了 容量大 自重轻耐磨 防水 不易刮花  超nice\n尺寸:35x27x18cm\n款号:2199#"},"price":null,"currency":"CNY","moq":1,"category":"celine-women-bags","status":"active","alibaba_url":null,"images":["https://xcimg.szwego.com/20220224/i1645678952_7080_0.jpg","https://xcimg.szwego.com/20220224/i1645678952_7499_1.jpg","https://xcimg.szwego.com/20220224/i1645678952_2219_2.jpg","https://xcimg.szwego.com/20220224/i1645678952_8045_3.jpg","https://xcimg.szwego.com/20220224/i1645678952_2644_4.jpg","https://xcimg.szwego.com/20220224/i1645678952_3855_5.jpg","https://xcimg.szwego.com/20220224/i1645678952_962_6.jpg","https://xcimg.szwego.com/20220224/i1645678952_21_7.jpg","https://xcimg.szwego.com/20220224/i1645678952_427_8.jpg"],"created_at":"2025-02-08T12:47:00.846Z"},{"id":"item-7f20029c8662","sku":"_drMrMOsxrmOQh8fJ4HGNKxnnLRtvAxYB2L_LmXQ","name_en":"『Celine 赛琳』","name_cn":"『Celine 赛琳』\n\nCELINE 经典CABAS TRIOMPHE \n白花MiNi号竖款手袋🛍 65%涂层帆布,\n35%小牛皮,100%棉衬里,内侧插袋,  \n可调节可拆卸皮革肩带,\n尺寸:20cm X 17cm X 6cm   \n型号:2200#","specs":{"source":"wsxcme","sourceId":"_drMrMOsxrmOQh8fJ4HGNKxnnLRtvAxYB2L_LmXQ","sourceTagId":47003106,"sourceTagName":"塞琳/女包","modelNumber":"2200#","rawTitle":"『Celine 赛琳』\n\nCELINE 经典CABAS TRIOMPHE \n白花MiNi号竖款手袋🛍 65%涂层帆布,\n35%小牛皮,100%棉衬里,内侧插袋,  \n可调节可拆卸皮革肩带,\n尺寸:20cm X 17cm X 6cm   \n型号:2200#"},"price":null,"currency":"CNY","moq":1,"category":"celine-women-bags","status":"active","alibaba_url":null,"images":["https://xcimg.szwego.com/20220504/i1651635268_3369_0.jpg","https://xcimg.szwego.com/20220504/i1651635268_6483_1.jpg","https://xcimg.szwego.com/20220504/i1651635268_1246_2.jpg","https://xcimg.szwego.com/20220504/i1651635268_8196_3.jpg","https://xcimg.szwego.com/20220504/i1651635268_6642_4.jpg","https://xcimg.szwego.com/20220504/i1651635268_8022_5.jpg","https://xcimg.szwego.com/20220504/i1651635268_7319_6.jpg","https://xcimg.szwego.com/20220504/i1651635268_5400_7.jpg","https://xcimg.szwego.com/20220504/i1651635268_2859_8.jpg"],"created_at":"2025-02-08T12:47:00.842Z"},{"id":"item-7e93a55e168c","sku":"_dDDDDmx4gUFV95FJ8hwsi5YmSyofQssjMsFNitg","name_en":"『Celine 赛琳』","name_cn":"『Celine 赛琳』\n\nCeline 复古凯旋门 链条腋下包出货 版型是长长的横版 搭配标志C家五金 腋下背刚刚好 复古又时尚 尺寸:30cm  款号:3019","specs":{"source":"wsxcme","sourceId":"_dDDDDmx4gUFV95FJ8hwsi5YmSyofQssjMsFNitg","sourceTagId":47003106,"sourceTagName":"塞琳/女包","modelNumber":"3019","rawTitle":"『Celine 赛琳』\n\nCeline 复古凯旋门 链条腋下包出货 版型是长长的横版 搭配标志C家五金 腋下背刚刚好 复古又时尚 尺寸:30cm  款号:3019"},"price":null,"currency":"CNY","moq":1,"category":"celine-women-bags","status":"active","alibaba_url":null,"images":["https://xcimg.szwego.com/20210701/i1625118653_3859_0.jpg","https://xcimg.szwego.com/20210701/i1625118653_5996_1.jpg","https://xcimg.szwego.com/20210701/i1625118653_5743_2.jpg","https://xcimg.szwego.com/20210701/i1625118653_6327_3.jpg","https://xcimg.szwego.com/20210701/i1625118653_1532_4.jpg","https://xcimg.szwego.com/20210701/i1625118653_1422_5.jpg","https://xcimg.szwego.com/20210701/i1625118694_972_0.jpg","https://xcimg.szwego.com/20210701/i1625118653_8313_6.jpg","https://xcimg.szwego.com/20210701/i1625118653_2437_7.jpg"],"created_at":"2025-02-08T12:47:00.830Z"},{"id":"item-7cf41b4451e2","sku":"_dMYMYJI3Kw9SJjXNMd5HoQgvSQNAS4Bkmb6zF0Q","name_en":"『Celine 赛琳』","name_cn":"『Celine 赛琳』\n\n最新布配皮 匠心工艺 新颜色 全新升级版↖️花蝴蝶🧡年度最佳 、外 拼麻布  现代化简约及复古元素结合、   💃🏻💃🏻💃🏻逆袭经典box包   新设计凯门回旋扣、再次重塑经典👍 型号:187368  尺寸22*16*6","specs":{"source":"wsxcme","sourceId":"_dMYMYJI3Kw9SJjXNMd5HoQgvSQNAS4Bkmb6zF0Q","sourceTagId":47003106,"sourceTagName":"塞琳/女包","modelNumber":"187368  尺寸22*16*6","rawTitle":"『Celine 赛琳』\n\n最新布配皮 匠心工艺 新颜色 全新升级版↖️花蝴蝶🧡年度最佳 、外 拼麻布  现代化简约及复古元素结合、   💃🏻💃🏻💃🏻逆袭经典box包   新设计凯门回旋扣、再次重塑经典👍 型号:187368  尺寸22*16*6"},"price":null,"currency":"CNY","moq":1,"category":"celine-women-bags","status":"active","alibaba_url":null,"images":["https://xcimg.szwego.com/20200810/a1597035320618_1612.jpg","https://xcimg.szwego.com/20200810/a1597035320766_7258.jpg","https://xcimg.szwego.com/20200810/a1597035320848_4787.jpg","https://xcimg.szwego.com/20200810/a1597035320934_6032.jpg","https://xcimg.szwego.com/20200810/a1597035321092_1681.jpg","https://xcimg.szwego.com/20200810/a1597035321184_1576.jpg","https://xcimg.szwego.com/20200810/a1597035321308_5152.jpg","https://xcimg.szwego.com/20200810/a1597035321383_4645.jpg","https://xcimg.szwego.com/20200810/a1597035321475_1018.jpg"],"created_at":"2025-02-08T12:47:15.847Z"},{"id":"item-7ba6fcd5d4b2","sku":"_dtwtwKWfBkcaDstpFe3G20ewm5RgkA-O32b86Dw","name_en":"『Celine 赛琳』","name_cn":"『Celine 赛琳』\n\nCelin* 2022秋季新款凯旋门马鞍包出咯 小牛皮 \n小小的身材大大容量\n搭配经典金色凯金属扣 精致百搭\n不同以往得正方形包型,弧形的下摆增加了一丝柔美的感觉\n尺寸:19*16*8cm","specs":{"source":"wsxcme","sourceId":"_dtwtwKWfBkcaDstpFe3G20ewm5RgkA-O32b86Dw","sourceTagId":47003106,"sourceTagName":"塞琳/女包","dimensions":{"lengthCm":19,"heightCm":16,"widthCm":8},"rawTitle":"『Celine 赛琳』\n\nCelin* 2022秋季新款凯旋门马鞍包出咯 小牛皮 \n小小的身材大大容量\n搭配经典金色凯金属扣 精致百搭\n不同以往得正方形包型,弧形的下摆增加了一丝柔美的感觉\n尺寸:19*16*8cm"},"price":null,"currency":"CNY","moq":1,"category":"celine-women-bags","status":"active","alibaba_url":null,"images":["https://xcimg.szwego.com/20220628/i1656399829_3466_0.jpg","https://xcimg.szwego.com/20220628/i1656399829_5162_1.jpg","https://xcimg.szwego.com/20220628/i1656399829_1176_2.jpg","https://xcimg.szwego.com/20220628/i1656399829_1448_4.jpg","https://xcimg.szwego.com/20220628/i1656399829_8648_5.jpg","https://xcimg.szwego.com/20220628/i1656399829_8036_6.jpg","https://xcimg.szwego.com/20220628/i1656399829_8149_7.jpg","https://xcimg.szwego.com/20220628/i1656399829_5155_8.jpg","https://xcimg.szwego.com/20220628/i1656399867_1261_0.jpg"],"created_at":"2025-02-08T12:47:23.803Z"},{"id":"item-7b9476fc1666","sku":"_dq3q3VjPrVN9CQzVM4XBCue1tZuq0B0jI4CBIYA","name_en":"『Celine 赛琳』","name_cn":"『Celine 赛琳』\n\nCE.LINE|新品🔛小号标志印花牛皮革波士顿包TRIOMPHE CANVAS标志印花,牛皮革包边,织物面料衬里,拉链锁闭,1个主隔层,内侧拉链口袋。皮革手挽长8cm\n尺寸:20 X 14 X 7cm\n型号:4450#","specs":{"source":"wsxcme","sourceId":"_dq3q3VjPrVN9CQzVM4XBCue1tZuq0B0jI4CBIYA","sourceTagId":47003106,"sourceTagName":"塞琳/女包","modelNumber":"4450#","dimensions":{"lengthCm":20,"heightCm":14,"widthCm":7},"rawTitle":"『Celine 赛琳』\n\nCE.LINE|新品🔛小号标志印花牛皮革波士顿包TRIOMPHE CANVAS标志印花,牛皮革包边,织物面料衬里,拉链锁闭,1个主隔层,内侧拉链口袋。皮革手挽长8cm\n尺寸:20 X 14 X 7cm\n型号:4450#"},"price":null,"currency":"CNY","moq":1,"category":"celine-women-bags","status":"active","alibaba_url":null,"images":["https://xcimg.szwego.com/20220418/i1650257828_6308_0.jpg","https://xcimg.szwego.com/20220418/i1650257828_1144_1.jpg","https://xcimg.szwego.com/20220418/i1650257828_423_2.jpg","https://xcimg.szwego.com/20220418/i1650257828_8144_3.jpg","https://xcimg.szwego.com/20220418/i1650257828_6905_4.jpg","https://xcimg.szwego.com/20220418/i1650257828_7222_5.jpg","https://xcimg.szwego.com/20220418/i1650257828_8544_6.jpg","https://xcimg.szwego.com/20220418/i1650257828_191_7.jpg","https://xcimg.szwego.com/20220418/i1650257828_7043_8.jpg"],"created_at":"2025-02-08T12:47:23.802Z"},{"id":"item-7b65c624d206","sku":"_dvrvrl2LNWCEDmz8tKP0MhR-wI1RJ3MgD_huvdQ","name_en":"『Celine 赛琳』","name_cn":"『Celine 赛琳』\n\nCelin* 2022秋季新款凯旋门马鞍包出咯 小牛皮 \n小小的身材大大容量\n搭配经典金色凯金属扣 精致百搭\n不同以往得正方形包型,弧形的下摆增加了一丝柔美的感觉\n尺寸:19*16*8cm","specs":{"source":"wsxcme","sourceId":"_dvrvrl2LNWCEDmz8tKP0MhR-wI1RJ3MgD_huvdQ","sourceTagId":47003106,"sourceTagName":"塞琳/女包","dimensions":{"lengthCm":19,"heightCm":16,"widthCm":8},"rawTitle":"『Celine 赛琳』\n\nCelin* 2022秋季新款凯旋门马鞍包出咯 小牛皮 \n小小的身材大大容量\n搭配经典金色凯金属扣 精致百搭\n不同以往得正方形包型,弧形的下摆增加了一丝柔美的感觉\n尺寸:19*16*8cm"},"price":null,"currency":"CNY","moq":1,"category":"celine-women-bags","status":"active","alibaba_url":null,"images":["https://xcimg.szwego.com/20220628/i1656400520_5956_0.jpg","https://xcimg.szwego.com/20220628/i1656400520_509_1.jpg","https://xcimg.szwego.com/20220628/i1656400520_632_2.jpg","https://xcimg.szwego.com/20220628/i1656400520_2108_3.jpg","https://xcimg.szwego.com/20220628/i1656400520_2953_4.jpg","https://xcimg.szwego.com/20220628/i1656400520_9858_5.jpg","https://xcimg.szwego.com/20220628/i1656400520_8991_6.jpg","https://xcimg.szwego.com/20220628/i1656400520_9075_7.jpg","https://xcimg.szwego.com/20220628/i1656400520_3634_8.jpg"],"created_at":"2025-02-08T12:47:23.804Z"},{"id":"item-7b234698b711","sku":"_dm6m6UuhfgcaMVx94HXfiaBC-XyUHTl-K2b0fiA","name_en":"『Celine 赛琳』","name_cn":"『Celine 赛琳』\n\nCEL.INE🌞最新mini Tabou Clutch onStrap锁头饰带手包TRIOMPHE Canvas 标志腋下 手提包 黑色/牛皮\n织物面料衬里 点睛的金色五金锁 \n包包设计有一长一短的皮肩带 不能调节 可以手提肩背®️\n尺寸:18 X 8 X 5cm\n型号:2298#","specs":{"source":"wsxcme","sourceId":"_dm6m6UuhfgcaMVx94HXfiaBC-XyUHTl-K2b0fiA","sourceTagId":47003106,"sourceTagName":"塞琳/女包","modelNumber":"2298#","dimensions":{"lengthCm":18,"heightCm":8,"widthCm":5},"rawTitle":"『Celine 赛琳』\n\nCEL.INE🌞最新mini Tabou Clutch onStrap锁头饰带手包TRIOMPHE Canvas 标志腋下 手提包 黑色/牛皮\n织物面料衬里 点睛的金色五金锁 \n包包设计有一长一短的皮肩带 不能调节 可以手提肩背®️\n尺寸:18 X 8 X 5cm\n型号:2298#"},"price":null,"currency":"CNY","moq":1,"category":"celine-women-bags","status":"active","alibaba_url":null,"images":["https://xcimg.szwego.com/20220330/i1648612146_1973_0.jpg","https://xcimg.szwego.com/20220330/i1648612146_1369_1.jpg","https://xcimg.szwego.com/20220330/i1648612146_8020_2.jpg","https://xcimg.szwego.com/20220330/i1648612146_395_3.jpg","https://xcimg.szwego.com/20220330/i1648612146_618_4.jpg","https://xcimg.szwego.com/20220330/i1648612146_3220_5.jpg","https://xcimg.szwego.com/20220330/i1648612146_1057_6.jpg","https://xcimg.szwego.com/20220330/i1648612146_8173_7.jpg","https://xcimg.szwego.com/20220330/i1648612146_7791_8.jpg"],"created_at":"2025-02-08T12:47:00.853Z"},{"id":"item-77fc118839f5","sku":"_dbPbP9UcSDtry_xKFb_yjGfTC2DDjpMF0C0Uijg","name_en":"『Celine 赛琳』","name_cn":"『Celine 赛琳』\n\n🇦🇴【海外原单】🛍🎁新款TRIOMPHE 标志印花链条包\n黄褐色\n20500 CNY\n13 X 5 X 2英寸(33 X 13 X 5厘米)\nTRIOMPHE CANVAS标志印花\n羊皮革衬里\n肩背\nTRIOMPHE 金属质感锁扣\n内侧扁平口袋\n翻盖下方设扁平口袋\n链条手挽长12英寸(30厘米)\n编号:197412DQW.04LU","specs":{"source":"wsxcme","sourceId":"_dbPbP9UcSDtry_xKFb_yjGfTC2DDjpMF0C0Uijg","sourceTagId":47003106,"sourceTagName":"塞琳/女包","rawTitle":"『Celine 赛琳』\n\n🇦🇴【海外原单】🛍🎁新款TRIOMPHE 标志印花链条包\n黄褐色\n20500 CNY\n13 X 5 X 2英寸(33 X 13 X 5厘米)\nTRIOMPHE CANVAS标志印花\n羊皮革衬里\n肩背\nTRIOMPHE 金属质感锁扣\n内侧扁平口袋\n翻盖下方设扁平口袋\n链条手挽长12英寸(30厘米)\n编号:197412DQW.04LU"},"price":null,"currency":"CNY","moq":1,"category":"celine-women-bags","status":"active","alibaba_url":null,"images":["https://xcimg.szwego.com/20220501/i1651385353_5390_0.jpg","https://xcimg.szwego.com/20220501/i1651385353_8511_1.jpg","https://xcimg.szwego.com/20220501/i1651385353_9165_2.jpg","https://xcimg.szwego.com/20220501/i1651385353_530_3.jpg","https://xcimg.szwego.com/20220501/i1651385353_9250_4.jpg","https://xcimg.szwego.com/20220501/i1651385353_7584_5.jpg","https://xcimg.szwego.com/20220501/i1651385353_7662_6.jpg","https://xcimg.szwego.com/20220501/i1651385353_8509_7.jpg","https://xcimg.szwego.com/20220501/i1651385353_4696_8.jpg"],"created_at":"2025-02-08T12:47:23.789Z"},{"id":"item-75635b6a6728","sku":"_dPFPFYWdR_O9nPAdpaU3cdMrH6TPd84uo0wKDcw","name_en":"『Celine 赛琳』","name_cn":"『Celine 赛琳』\n\n凯旋门链条腋下包•黄色\n立体的皮质浮雕凯旋门🦋\n法式中带很多点酷\n简约大气无敌时髦👜\n\n尺寸:21×11.5×4cm","specs":{"source":"wsxcme","sourceId":"_dPFPFYWdR_O9nPAdpaU3cdMrH6TPd84uo0wKDcw","sourceTagId":47003106,"sourceTagName":"塞琳/女包","dimensions":{"lengthCm":21,"heightCm":11.5,"widthCm":4},"rawTitle":"『Celine 赛琳』\n\n凯旋门链条腋下包•黄色\n立体的皮质浮雕凯旋门🦋\n法式中带很多点酷\n简约大气无敌时髦👜\n\n尺寸:21×11.5×4cm"},"price":null,"currency":"CNY","moq":1,"category":"celine-women-bags","status":"active","alibaba_url":null,"images":["https://xcimg.szwego.com/20220613/i1655096000_1910_0.jpg","https://xcimg.szwego.com/20220613/i1655096000_1802_1.jpg","https://xcimg.szwego.com/20220613/i1655096000_3906_2.jpg","https://xcimg.szwego.com/20220613/i1655096000_833_3.jpg","https://xcimg.szwego.com/20220613/i1655096000_4854_4.jpg","https://xcimg.szwego.com/20220613/i1655096000_2060_5.jpg","https://xcimg.szwego.com/20220613/i1655096000_3345_6.jpg","https://xcimg.szwego.com/20220613/i1655096000_3207_7.jpg","https://xcimg.szwego.com/20220613/i1655096000_1682_8.jpg"],"created_at":"2025-02-08T12:47:15.825Z"},{"id":"item-7297ce632d3d","sku":"_dvbvbTC6jfviz_-XuzqWJQhJckwJMWRH5I-xBgQ","name_en":"『Celine 赛琳』","name_cn":"『Celine 赛琳』\n\nbox18.5cm 抹茶绿\n\n专柜最新尺寸teen💥\n头层牛皮配定制五金\n内里两层\n内侧有扁平口袋✅\n尺寸:18.5×15.5×6cm","specs":{"source":"wsxcme","sourceId":"_dvbvbTC6jfviz_-XuzqWJQhJckwJMWRH5I-xBgQ","sourceTagId":47003106,"sourceTagName":"塞琳/女包","dimensions":{"lengthCm":18.5,"heightCm":15.5,"widthCm":6},"rawTitle":"『Celine 赛琳』\n\nbox18.5cm 抹茶绿\n\n专柜最新尺寸teen💥\n头层牛皮配定制五金\n内里两层\n内侧有扁平口袋✅\n尺寸:18.5×15.5×6cm"},"price":null,"currency":"CNY","moq":1,"category":"celine-women-bags","status":"active","alibaba_url":null,"images":["https://xcimg.szwego.com/20201126/i1606377145_2118_0.jpg","https://xcimg.szwego.com/20201126/i1606377145_8621_1.jpg","https://xcimg.szwego.com/20201126/i1606377145_2330_2.jpg","https://xcimg.szwego.com/20201126/i1606377145_2661_3.jpg","https://xcimg.szwego.com/20201126/i1606377145_7277_4.jpg","https://xcimg.szwego.com/20201126/i1606377145_4371_5.jpg","https://xcimg.szwego.com/20201126/i1606377145_1875_6.jpg","https://xcimg.szwego.com/20201126/i1606377145_89_7.jpg","https://xcimg.szwego.com/20201126/i1606377145_3125_8.jpg"],"created_at":"2025-02-08T12:47:15.864Z"},{"id":"item-7146b00391ff","sku":"_dS3S3Dev4ickxKkZaZcKfTy1kiCMxWoid3XFrJw","name_en":"『Celine 赛琳』","name_cn":"『Celine 赛琳』\n\n专柜同步 赛琳celine专柜最新款水桶购物袋🛍️全新搭配 原版18K金五金 高端品质 原版面料 超级大牌的一款 上身特别洋气 喜欢的美妞抓紧自留啦 尺寸小号:18*22cm 大号28*27","specs":{"source":"wsxcme","sourceId":"_dS3S3Dev4ickxKkZaZcKfTy1kiCMxWoid3XFrJw","sourceTagId":47003106,"sourceTagName":"塞琳/女包","rawTitle":"『Celine 赛琳』\n\n专柜同步 赛琳celine专柜最新款水桶购物袋🛍️全新搭配 原版18K金五金 高端品质 原版面料 超级大牌的一款 上身特别洋气 喜欢的美妞抓紧自留啦 尺寸小号:18*22cm 大号28*27"},"price":null,"currency":"CNY","moq":1,"category":"celine-women-bags","status":"active","alibaba_url":null,"images":["https://xcimg.szwego.com/20220628/i1656378862_3024_0.jpg","https://xcimg.szwego.com/20220628/i1656378862_115_4.jpg","https://xcimg.szwego.com/20220628/i1656378862_4225_1.jpg","https://xcimg.szwego.com/20220628/i1656378862_3512_2.jpg","https://xcimg.szwego.com/20220628/i1656378862_6955_3.jpg","https://xcimg.szwego.com/20220628/i1656378862_7685_5.jpg"],"created_at":"2025-02-08T12:47:23.821Z"},{"id":"item-70954a3b7725","sku":"_dxVxVysACnUroH4XMDliVJTKaU4UYPyVcFCuChg","name_en":"『Celine 赛琳』","name_cn":"『Celine 赛琳』\n\n新品水桶包\n走秀款麻绳水桶\n一眼便爱上 \n太有夏天的味道了\n复古老花搭配朴实粗绳肩带\n一种法式的随意高级感!\n尺寸:19*23cm","specs":{"source":"wsxcme","sourceId":"_dxVxVysACnUroH4XMDliVJTKaU4UYPyVcFCuChg","sourceTagId":47003106,"sourceTagName":"塞琳/女包","rawTitle":"『Celine 赛琳』\n\n新品水桶包\n走秀款麻绳水桶\n一眼便爱上 \n太有夏天的味道了\n复古老花搭配朴实粗绳肩带\n一种法式的随意高级感!\n尺寸:19*23cm"},"price":null,"currency":"CNY","moq":1,"category":"celine-women-bags","status":"active","alibaba_url":null,"images":["https://xcimg.szwego.com/20220606/i1654507226_1515_0.jpg","https://xcimg.szwego.com/20220606/i1654507226_2330_1.jpg","https://xcimg.szwego.com/20220606/i1654507226_6850_2.jpg","https://xcimg.szwego.com/20220606/i1654507226_7536_3.jpg","https://xcimg.szwego.com/20220606/i1654507226_5140_4.jpg","https://xcimg.szwego.com/20220606/i1654507226_8517_5.jpg","https://xcimg.szwego.com/20220606/i1654507226_1173_6.jpg","https://xcimg.szwego.com/20220606/i1654507226_6766_7.jpg","https://xcimg.szwego.com/20220606/i1654507226_9670_8.jpg"],"created_at":"2025-02-08T12:47:23.824Z"},{"id":"item-6e73f9088a21","sku":"_d9A9Au-iI8OhhTom9MwJFKkatXcCLAUXuMhoUSw","name_en":"『Celine 赛琳』","name_cn":"『Celine 赛琳』\n\n七夕系列,Celine AVA TRIOMPHE标志印花手袋 腋下包lisa同款,单肩女包豌豆包®️61%涂层帆布,39%小牛皮\n尺寸:23cmX 14cmX 7cm\n型号:3112#","specs":{"source":"wsxcme","sourceId":"_d9A9Au-iI8OhhTom9MwJFKkatXcCLAUXuMhoUSw","sourceTagId":47003106,"sourceTagName":"塞琳/女包","modelNumber":"3112#","rawTitle":"『Celine 赛琳』\n\n七夕系列,Celine AVA TRIOMPHE标志印花手袋 腋下包lisa同款,单肩女包豌豆包®️61%涂层帆布,39%小牛皮\n尺寸:23cmX 14cmX 7cm\n型号:3112#"},"price":null,"currency":"CNY","moq":1,"category":"celine-women-bags","status":"active","alibaba_url":null,"images":["https://xcimg.szwego.com/20220330/i1648611851_8266_0.jpg","https://xcimg.szwego.com/20220330/i1648611851_1536_1.jpg","https://xcimg.szwego.com/20220330/i1648611851_6425_2.jpg","https://xcimg.szwego.com/20220330/i1648611851_1631_3.jpg","https://xcimg.szwego.com/20220330/i1648611851_6988_4.jpg","https://xcimg.szwego.com/20220330/i1648611851_9287_5.jpg","https://xcimg.szwego.com/20220330/i1648611851_927_6.jpg","https://xcimg.szwego.com/20220330/i1648611851_2521_7.jpg","https://xcimg.szwego.com/20220330/i1648611851_1521_8.jpg"],"created_at":"2025-02-08T12:47:00.849Z"},{"id":"item-6c943c3280d4","sku":"_dj3j3RGcc52lA-mQFZCwHeBmDhXfCwiHiqLsYFA","name_en":"『Celine 赛琳』","name_cn":"『Celine 赛琳』\n\n🔜Celine赛琳专柜新款枕头包~经典老花系列!永不过时!Lisa同款!众多明星追捧的单品哦 可手提可肩背!原版面料五金 超大容量 原单品质 👍(size:30*20*15)","specs":{"source":"wsxcme","sourceId":"_dj3j3RGcc52lA-mQFZCwHeBmDhXfCwiHiqLsYFA","sourceTagId":47003106,"sourceTagName":"塞琳/女包","rawTitle":"『Celine 赛琳』\n\n🔜Celine赛琳专柜新款枕头包~经典老花系列!永不过时!Lisa同款!众多明星追捧的单品哦 可手提可肩背!原版面料五金 超大容量 原单品质 👍(size:30*20*15)"},"price":null,"currency":"CNY","moq":1,"category":"celine-women-bags","status":"active","alibaba_url":null,"images":["https://xcimg.szwego.com/20220214/i1644820640_3324_0.jpg","https://xcimg.szwego.com/20220214/i1644820640_2429_1.jpg","https://xcimg.szwego.com/20220214/i1644820640_5342_2.jpg","https://xcimg.szwego.com/20220214/i1644820640_7671_3.jpg","https://xcimg.szwego.com/20220214/i1644820640_3174_4.jpg","https://xcimg.szwego.com/20220214/i1644820640_3710_5.jpg","https://xcimg.szwego.com/20220214/i1644820640_6440_6.jpg","https://xcimg.szwego.com/20220214/i1644820640_1104_7.jpg","https://xcimg.szwego.com/20220214/i1644820640_1190_8.jpg"],"created_at":"2025-02-08T12:47:23.810Z"},{"id":"item-69d357500107","sku":"_dikikLok06HS5A6MPj4XTRSe6UN6T7NinWaT3Jw","name_en":"『Celine 赛琳』","name_cn":"『Celine 赛琳』\n\n🇦🇴【海外原单】🛍🎁CELINE 秀场新品|小号TRIOMPHE 皮标标志印花链条包\n小款链条腋下包✔️棕色皮扣质感满分,搭配金色金属链条,简直不要太高级!!\n牛皮+羊皮内里,肩背,搭配TRIOMPHE 牛皮logo质感锁扣\n尺寸:21 X 13 X 5厘米\n编号:199243BF4.38NO","specs":{"source":"wsxcme","sourceId":"_dikikLok06HS5A6MPj4XTRSe6UN6T7NinWaT3Jw","sourceTagId":47003106,"sourceTagName":"塞琳/女包","dimensions":{"lengthCm":21,"heightCm":13,"widthCm":5},"rawTitle":"『Celine 赛琳』\n\n🇦🇴【海外原单】🛍🎁CELINE 秀场新品|小号TRIOMPHE 皮标标志印花链条包\n小款链条腋下包✔️棕色皮扣质感满分,搭配金色金属链条,简直不要太高级!!\n牛皮+羊皮内里,肩背,搭配TRIOMPHE 牛皮logo质感锁扣\n尺寸:21 X 13 X 5厘米\n编号:199243BF4.38NO"},"price":null,"currency":"CNY","moq":1,"category":"celine-women-bags","status":"active","alibaba_url":null,"images":["https://xcimg.szwego.com/20220427/i1651049035_7874_0.jpg","https://xcimg.szwego.com/20220427/i1651049035_5990_1.jpg","https://xcimg.szwego.com/20220427/i1651049035_8460_2.jpg","https://xcimg.szwego.com/20220427/i1651049035_870_3.jpg","https://xcimg.szwego.com/20220427/i1651049035_7678_4.jpg","https://xcimg.szwego.com/20220427/i1651049035_4720_5.jpg","https://xcimg.szwego.com/20220427/i1651049035_2915_6.jpg","https://xcimg.szwego.com/20220427/i1651049035_6799_7.jpg","https://xcimg.szwego.com/20220427/i1651049035_2542_8.jpg"],"created_at":"2025-02-08T12:47:23.785Z"},{"id":"item-6964737a856d","sku":"_drMrMOsxrmOQh8fJ4HGNKxnnLRtvGxYB2LfDnVQ","name_en":"『Celine 赛琳』","name_cn":"『Celine 赛琳』\n\n最新CABAS TRIOMPHE凯旋购物袋   看起来更时髦洋气  高级感满满  腔调十足  可单肩斜挎手拎  随意凹造型  上身自带气场  包包自重很轻  能装得下笔记本电脑  通勤没问题  出街约会也可以  盘他就对了👍(🔍2189白印花)尺寸:28.5/33/8","specs":{"source":"wsxcme","sourceId":"_drMrMOsxrmOQh8fJ4HGNKxnnLRtvGxYB2LfDnVQ","sourceTagId":47003106,"sourceTagName":"塞琳/女包","rawTitle":"『Celine 赛琳』\n\n最新CABAS TRIOMPHE凯旋购物袋   看起来更时髦洋气  高级感满满  腔调十足  可单肩斜挎手拎  随意凹造型  上身自带气场  包包自重很轻  能装得下笔记本电脑  通勤没问题  出街约会也可以  盘他就对了👍(🔍2189白印花)尺寸:28.5/33/8"},"price":null,"currency":"CNY","moq":1,"category":"celine-women-bags","status":"active","alibaba_url":null,"images":["https://xcimg.szwego.com/20201211/i1607664127_3434_0.jpg","https://xcimg.szwego.com/20201211/i1607664127_78_1.jpg","https://xcimg.szwego.com/20201211/i1607664127_1901_2.jpg","https://xcimg.szwego.com/20201211/i1607664127_8950_3.jpg","https://xcimg.szwego.com/20201211/i1607664127_3505_4.jpg","https://xcimg.szwego.com/20201211/i1607664127_7831_5.jpg","https://xcimg.szwego.com/20201211/i1607664127_6370_6.jpg","https://xcimg.szwego.com/20201211/i1607664127_7777_7.jpg","https://xcimg.szwego.com/20201211/i1607664127_4552_8.jpg"],"created_at":"2025-02-08T12:47:00.817Z"},{"id":"item-673afa0c749d","sku":"_dCaCajTGS3hm2rO_rrejfG9kmvOBOrvQh4VV68Q","name_en":"『Celine 赛琳』","name_cn":"『Celine 赛琳』\n\nCELINE 经典CABAS TRIOMPHE \n老花MiNi号竖款手袋🛍 65%涂层帆布,\n35%小牛皮,100%棉衬里,内侧插袋,  \n可调节可拆卸皮革肩带,\n尺寸:20cm X 17cm X 6cm   \n型号:2200#","specs":{"source":"wsxcme","sourceId":"_dCaCajTGS3hm2rO_rrejfG9kmvOBOrvQh4VV68Q","sourceTagId":47003106,"sourceTagName":"塞琳/女包","modelNumber":"2200#","rawTitle":"『Celine 赛琳』\n\nCELINE 经典CABAS TRIOMPHE \n老花MiNi号竖款手袋🛍 65%涂层帆布,\n35%小牛皮,100%棉衬里,内侧插袋,  \n可调节可拆卸皮革肩带,\n尺寸:20cm X 17cm X 6cm   \n型号:2200#"},"price":null,"currency":"CNY","moq":1,"category":"celine-women-bags","status":"active","alibaba_url":null,"images":["https://xcimg.szwego.com/20220504/i1651635207_279_0.jpg","https://xcimg.szwego.com/20220504/i1651635207_5171_1.jpg","https://xcimg.szwego.com/20220504/i1651635207_7563_2.jpg","https://xcimg.szwego.com/20220504/i1651635207_720_3.jpg","https://xcimg.szwego.com/20220504/i1651635207_3945_4.jpg","https://xcimg.szwego.com/20220504/i1651635207_1237_5.jpg","https://xcimg.szwego.com/20220504/i1651635207_2822_6.jpg","https://xcimg.szwego.com/20220504/i1651635207_4231_7.jpg","https://xcimg.szwego.com/20220504/i1651635207_6429_8.jpg"],"created_at":"2025-02-08T12:47:00.841Z"},{"id":"item-65c98b95f20e","sku":"_dumumhLz2M5cH7Kz_16-bPIWmVufpZbpiH8SfEg","name_en":"『Celine 赛琳』","name_cn":"『Celine 赛琳』\n\nCELINE ♥ TRIOMPHE SHOULDER BAG\n感觉这两年Celine是不是打开了任督二脉!出的包是越来越绝了!新款凯旋门腋下包简直惊喜爆棚!确认过眼神是我想要的包!必须要拥有的那种❗️尺寸:20*10*4cm","specs":{"source":"wsxcme","sourceId":"_dumumhLz2M5cH7Kz_16-bPIWmVufpZbpiH8SfEg","sourceTagId":47003106,"sourceTagName":"塞琳/女包","dimensions":{"lengthCm":20,"heightCm":10,"widthCm":4},"rawTitle":"『Celine 赛琳』\n\nCELINE ♥ TRIOMPHE SHOULDER BAG\n感觉这两年Celine是不是打开了任督二脉!出的包是越来越绝了!新款凯旋门腋下包简直惊喜爆棚!确认过眼神是我想要的包!必须要拥有的那种❗️尺寸:20*10*4cm"},"price":null,"currency":"CNY","moq":1,"category":"celine-women-bags","status":"active","alibaba_url":null,"images":["https://xcimg.szwego.com/20220712/i1657590062_2781_0.jpg","https://xcimg.szwego.com/20220712/i1657590062_249_1.jpg","https://xcimg.szwego.com/20220712/i1657590062_8342_2.jpg","https://xcimg.szwego.com/20220712/i1657590062_9959_3.jpg","https://xcimg.szwego.com/20220712/i1657590062_7902_4.jpg","https://xcimg.szwego.com/20220712/i1657590062_1577_5.jpg","https://xcimg.szwego.com/20220712/i1657590062_7223_6.jpg","https://xcimg.szwego.com/20220712/i1657590062_7456_7.jpg","https://xcimg.szwego.com/20220712/i1657590062_6316_8.jpg"],"created_at":"2025-02-08T12:47:23.817Z"},{"id":"item-64d79402f270","sku":"_dzxzxOdyX_BlrtDOSjFG31Jr-Fbrk89b86yEEaA","name_en":"『Celine 赛琳』","name_cn":"『Celine 赛琳』\n\n👑赛琳  Celin* 款号:8001【刺绣系列】超喜欢!腋下包出刺绣系列啦!复古达人走起~对比老花是两种Feel,都爱~ 大火的腋下包搭配真的超百搭,腋下包包型复古又帅气又有点可爱 超级精致小巧♡\n一直以来超喜欢C E L I NE.这种性冷淡风,复古又时髦 这样很能装轻巧又好搭的中古包,大家喜欢吗?\n尺寸:25x14x7cm","specs":{"source":"wsxcme","sourceId":"_dzxzxOdyX_BlrtDOSjFG31Jr-Fbrk89b86yEEaA","sourceTagId":47003106,"sourceTagName":"塞琳/女包","modelNumber":"8001【刺绣系列】超喜欢!腋下包出刺绣系列啦!复古达人走起~对比老花是两种Feel","dimensions":{"lengthCm":25,"heightCm":14,"widthCm":7},"rawTitle":"『Celine 赛琳』\n\n👑赛琳  Celin* 款号:8001【刺绣系列】超喜欢!腋下包出刺绣系列啦!复古达人走起~对比老花是两种Feel,都爱~ 大火的腋下包搭配真的超百搭,腋下包包型复古又帅气又有点可爱 超级精致小巧♡\n一直以来超喜欢C E L I NE.这种性冷淡风,复古又时髦 这样很能装轻巧又好搭的中古包,大家喜欢吗?\n尺寸:25x14x7cm"},"price":null,"currency":"CNY","moq":1,"category":"celine-women-bags","status":"active","alibaba_url":null,"images":["https://xcimg.szwego.com/20220606/i1654447746_5951_0.jpg","https://xcimg.szwego.com/20220606/i1654447746_8580_1.jpg","https://xcimg.szwego.com/20220606/i1654447746_4055_6.jpg","https://xcimg.szwego.com/20220606/i1654447746_4124_3.jpg","https://xcimg.szwego.com/20220606/i1654447746_632_4.jpg","https://xcimg.szwego.com/20220606/i1654447746_8686_5.jpg","https://xcimg.szwego.com/20220606/i1654447746_368_2.jpg","https://xcimg.szwego.com/20220606/i1654447746_531_7.jpg","https://xcimg.szwego.com/20220606/i1654447746_8468_8.jpg"],"created_at":"2025-02-08T12:47:00.861Z"},{"id":"item-631178472aa4","sku":"_dvkvkFhUiPAuFepUDtZh-MbggG465ICBP3eWX-Q","name_en":"『Celine 赛琳』","name_cn":"『Celine 赛琳』\n\nCeline  新品AVA TRIOMPHE帆布手袋Z复古白花腋下包lisa同款,单肩女包豌豆包,61%涂层帆布,39%小牛皮。\n尺寸:23x 14x 7cm\n型号:3112#","specs":{"source":"wsxcme","sourceId":"_dvkvkFhUiPAuFepUDtZh-MbggG465ICBP3eWX-Q","sourceTagId":47003106,"sourceTagName":"塞琳/女包","modelNumber":"3112#","dimensions":{"lengthCm":23,"heightCm":14,"widthCm":7},"rawTitle":"『Celine 赛琳』\n\nCeline  新品AVA TRIOMPHE帆布手袋Z复古白花腋下包lisa同款,单肩女包豌豆包,61%涂层帆布,39%小牛皮。\n尺寸:23x 14x 7cm\n型号:3112#"},"price":null,"currency":"CNY","moq":1,"category":"celine-women-bags","status":"active","alibaba_url":null,"images":["https://xcimg.szwego.com/20220330/i1648611906_5249_0.jpg","https://xcimg.szwego.com/20220330/i1648611906_2689_1.jpg","https://xcimg.szwego.com/20220330/i1648611906_7554_2.jpg","https://xcimg.szwego.com/20220330/i1648611906_697_3.jpg","https://xcimg.szwego.com/20220330/i1648611906_3678_4.jpg","https://xcimg.szwego.com/20220330/i1648611906_2319_5.jpg","https://xcimg.szwego.com/20220330/i1648611906_2252_6.jpg","https://xcimg.szwego.com/20220330/i1648611906_1949_7.jpg","https://xcimg.szwego.com/20220330/i1648611906_4078_8.jpg"],"created_at":"2025-02-08T12:47:15.818Z"},{"id":"item-5e33992db8be","sku":"_dFHFHSTLYT0_JwaOmUydxKGGCG_xyszsls0LGCA","name_en":"『Celine 赛琳』","name_cn":"『Celine 赛琳』\n\nbox18.5cm 焦糖色\n\n专柜最新尺寸teen💥\n头层牛皮配定制五金\n内里两层\n内侧有扁平口袋✅\n尺寸:18.5×15.5×6cm","specs":{"source":"wsxcme","sourceId":"_dFHFHSTLYT0_JwaOmUydxKGGCG_xyszsls0LGCA","sourceTagId":47003106,"sourceTagName":"塞琳/女包","dimensions":{"lengthCm":18.5,"heightCm":15.5,"widthCm":6},"rawTitle":"『Celine 赛琳』\n\nbox18.5cm 焦糖色\n\n专柜最新尺寸teen💥\n头层牛皮配定制五金\n内里两层\n内侧有扁平口袋✅\n尺寸:18.5×15.5×6cm"},"price":null,"currency":"CNY","moq":1,"category":"celine-women-bags","status":"active","alibaba_url":null,"images":["https://xcimg.szwego.com/20201126/i1606375939_3029_0.jpg","https://xcimg.szwego.com/20201126/i1606375939_9379_1.jpg","https://xcimg.szwego.com/20201126/i1606375939_5272_2.jpg","https://xcimg.szwego.com/20201126/i1606375939_2760_3.jpg","https://xcimg.szwego.com/20201126/i1606375939_7227_4.jpg","https://xcimg.szwego.com/20201126/i1606375939_1490_5.jpg","https://xcimg.szwego.com/20201126/i1606375939_7553_6.jpg","https://xcimg.szwego.com/20201126/i1606375939_7532_7.jpg","https://xcimg.szwego.com/20201126/i1606375939_412_8.jpg"],"created_at":"2025-02-08T12:47:00.788Z"},{"id":"item-5ca80ad559a2","sku":"_dFTFTAen1lY73rL81DT10z9Yj06JIMBd1mzJSRw","name_en":"『Celine 赛琳』","name_cn":"『Celine 赛琳』 \nLisa同款AVA腋下月亮包\n全网最好包身版型⚡️最好拉链弧度⚡️\n全色系到货⚡️品质升级⚡️\n2021思琳女士臻礼系列\n尊享版 全钢五金 进口原厂小牛皮\n型号193953 \n2021新款腋下包系列强势回归,大热的腋下包也推出最新版la~\n复古的包型在上世纪六十年代巴黎时装周里就掀起热潮,不同的是如今大家伙儿的时髦态度已经融入生活,身背单品行走到哪都像在巴黎时装周,而且腋下包复古不过时,特别有味道~心尖尖喜欢的款 \nsize 23*14*7","specs":{"source":"wsxcme","sourceId":"_dFTFTAen1lY73rL81DT10z9Yj06JIMBd1mzJSRw","sourceTagId":47003106,"sourceTagName":"塞琳/女包","modelNumber":"193953","rawTitle":"『Celine 赛琳』 \nLisa同款AVA腋下月亮包\n全网最好包身版型⚡️最好拉链弧度⚡️\n全色系到货⚡️品质升级⚡️\n2021思琳女士臻礼系列\n尊享版 全钢五金 进口原厂小牛皮\n型号193953 \n2021新款腋下包系列强势回归,大热的腋下包也推出最新版la~\n复古的包型在上世纪六十年代巴黎时装周里就掀起热潮,不同的是如今大家伙儿的时髦态度已经融入生活,身背单品行走到哪都像在巴黎时装周,而且腋下包复古不过时,特别有味道~心尖尖喜欢的款 \nsize 23*14*7"},"price":null,"currency":"CNY","moq":1,"category":"celine-women-bags","status":"active","alibaba_url":null,"images":["https://xcimg.szwego.com/20210812/i1628742779_5746_0.jpg","https://xcimg.szwego.com/20210812/i1628742779_4001_1.jpg","https://xcimg.szwego.com/20210812/i1628742779_616_2.jpg","https://xcimg.szwego.com/20210812/i1628742779_7182_3.jpg","https://xcimg.szwego.com/20210812/i1628742779_8719_4.jpg","https://xcimg.szwego.com/20210812/i1628742779_5940_5.jpg","https://xcimg.szwego.com/20210812/i1628742779_6453_6.jpg","https://xcimg.szwego.com/20210812/i1628742779_531_7.jpg","https://xcimg.szwego.com/20210812/i1628742779_4108_8.jpg"],"created_at":"2025-02-08T12:47:23.778Z"}],"page":41,"pageSize":24,"total":10075,"totalPages":420}
