{"items":[{"id":"item-ea93e4f490eb","sku":"_dUoUoMIVNiLXhJjtOeSj6TgSFH9L5Vg_ZMqprkg","name_en":"5 B H211","name_cn":"5 B H211","specs":{"source":"wsxcme","sourceId":"_dUoUoMIVNiLXhJjtOeSj6TgSFH9L5Vg_ZMqprkg","sourceTagId":68075769,"sourceTagName":"Miu Miu /女包","rawTitle":"5 B H211"},"price":null,"currency":"CNY","moq":1,"category":"miu-miu-women-bags","status":"active","alibaba_url":null,"images":["https://xcimg.szwego.com/20230530/i1685431264_5845_0.jpg","https://xcimg.szwego.com/20230530/i1685431264_2250_1.jpg","https://xcimg.szwego.com/20230530/i1685431264_1776_2.jpg","https://xcimg.szwego.com/20230530/i1685431264_9247_3.jpg","https://xcimg.szwego.com/20230530/i1685431264_963_4.jpg"],"created_at":"2024-11-11T10:30:45.832Z"},{"id":"item-07bebb3e27f0","sku":"_dvDvDXlAApZdoApX29pni3wKotxOk8P9Zz3JqPA","name_en":"550 新款JAMIE 迷你号原厂羊皮革手袋!柔软纳帕皮革手袋,饰以 CARRE RIVE GAUCHE 络缝明缝线。轻盈小巧,搭配可调节滑动式肩带,演绎多种佩戴方式。包型以经典复古做旧版的设计,非常好看时髦,通勤百搭,意想不到的轻便,实用性很高!别看它小容量绝对可以👍可手拎、单肩背及斜挎多种背法!绝对不是小废包哦😎","name_cn":"550 新款JAMIE 迷你号原厂羊皮革手袋!柔软纳帕皮革手袋,饰以 CARRE RIVE GAUCHE 络缝明缝线。轻盈小巧,搭配可调节滑动式肩带,演绎多种佩戴方式。包型以经典复古做旧版的设计,非常好看时髦,通勤百搭,意想不到的轻便,实用性很高!别看它小容量绝对可以👍可手拎、单肩背及斜挎多种背法!绝对不是小废包哦😎\n型号:801362~168430\n尺寸:16x11x4cm","specs":{"source":"wsxcme","sourceId":"_dvDvDXlAApZdoApX29pni3wKotxOk8P9Zz3JqPA","sourceTagId":47002761,"sourceTagName":"圣罗兰/女包","modelNumber":"801362~168430","dimensions":{"lengthCm":16,"heightCm":11,"widthCm":4},"rawTitle":"550 新款JAMIE 迷你号原厂羊皮革手袋!柔软纳帕皮革手袋,饰以 CARRE RIVE GAUCHE 络缝明缝线。轻盈小巧,搭配可调节滑动式肩带,演绎多种佩戴方式。包型以经典复古做旧版的设计,非常好看时髦,通勤百搭,意想不到的轻便,实用性很高!别看它小容量绝对可以👍可手拎、单肩背及斜挎多种背法!绝对不是小废包哦😎\n型号:801362~168430\n尺寸:16x11x4cm"},"price":null,"currency":"CNY","moq":1,"category":"ysl-women-bags","status":"active","alibaba_url":null,"images":["https://xcimg.szwego.com/img/4bdd288e/20240819/a1724082413896_5520.jpg","https://xcimg.szwego.com/img/4bdd288e/20240819/a1724082413988_5525.jpg","https://xcimg.szwego.com/img/4bdd288e/20240819/a1724082413896_3241.jpg","https://xcimg.szwego.com/img/4bdd288e/20240819/a1724082413887_1450.jpg","https://xcimg.szwego.com/img/4bdd288e/20240819/a1724082415005_0687.jpg","https://xcimg.szwego.com/img/4bdd288e/20240819/a1724082414092_3731.jpg","https://xcimg.szwego.com/img/4bdd288e/20240819/a1724082416768_8231.jpg","https://xcimg.szwego.com/img/4bdd288e/20240819/a1724082416668_0240.jpg","https://xcimg.szwego.com/img/4bdd288e/20240819/a1724082417024_8330.jpg"],"created_at":"2025-07-20T03:05:44.215Z"},{"id":"item-d3c365a6c584","sku":"_djajaPNAIyvMNLqKoLCycg8UQEdxy7rD1guIZAQ","name_en":"5月水果季Teri Banana波士顿枕头包 Coach新系列CR246 Banana 看到仿佛闻到了香蕉得甜味 尺寸16/11/9","name_cn":"5月水果季Teri Banana波士顿枕头包 Coach新系列CR246 Banana 看到仿佛闻到了香蕉得甜味 尺寸16/11/9","specs":{"source":"wsxcme","sourceId":"_djajaPNAIyvMNLqKoLCycg8UQEdxy7rD1guIZAQ","sourceTagId":77388356,"sourceTagName":"MCM、寇驰/女包","rawTitle":"5月水果季Teri Banana波士顿枕头包 Coach新系列CR246 Banana 看到仿佛闻到了香蕉得甜味 尺寸16/11/9"},"price":null,"currency":"CNY","moq":1,"category":"mcm-coach-women-bags","status":"active","alibaba_url":null,"images":["https://xcimg.szwego.com/img/7350b429/20240918/i1726594032_3665_7.jpg","https://xcimg.szwego.com/img/7350b429/20240918/i1726594032_215_0.jpg","https://xcimg.szwego.com/img/7350b429/20240918/i1726594032_8158_3.jpg","https://xcimg.szwego.com/img/7350b429/20240918/i1726594032_1940_1.jpg","https://xcimg.szwego.com/img/7350b429/20240918/i1726594032_3905_5.jpg","https://xcimg.szwego.com/img/7350b429/20240918/i1726594032_2509_2.jpg","https://xcimg.szwego.com/img/7350b429/20240918/i1726594032_9448_6.jpg","https://xcimg.szwego.com/img/7350b429/20240918/i1726594032_5332_4.jpg","https://xcimg.szwego.com/img/7350b429/20240918/i1726594032_660_8.jpg"],"created_at":"2024-12-02T06:17:13.259Z"},{"id":"item-fe378e06e6d5","sku":"_dnfnfoSoGISK9WbXLnm2HNXOAJnVAIush6HPIww","name_en":"5B","name_cn":"5B","specs":{"source":"wsxcme","sourceId":"_dnfnfoSoGISK9WbXLnm2HNXOAJnVAIush6HPIww","sourceTagId":68075769,"sourceTagName":"Miu Miu /女包","rawTitle":"5B"},"price":null,"currency":"CNY","moq":1,"category":"miu-miu-women-bags","status":"active","alibaba_url":null,"images":["https://xcimg.szwego.com/20240905/i1725523469_5147_0.jpg","https://xcimg.szwego.com/20240905/i1725523469_359_1.jpg","https://xcimg.szwego.com/20240905/i1725523469_6636_2.jpg","https://xcimg.szwego.com/20240905/i1725523469_6411_3.jpg"],"created_at":"2024-11-11T10:30:45.862Z"},{"id":"item-e8f1a8f0a024","sku":"_dJdJd63UBhBwUtfTxzJAwdGTQYCFPnsesBYsumA","name_en":"5B,Miu家新款迷你保龄球包,这款Arcadie皮革迷你手袋传递出将对当前现实的反思转化独特版型的时尚理念,轻软包设计让手袋看起来更为饱满,尽显大都会风格,同色调的字母徽标,赋予这款手提包独特美感和经典气息,可拆卸可调节皮革肩带,棉缎衬里配卡槽,尺寸:19X10X5cm","name_cn":"5B,Miu家新款迷你保龄球包,这款Arcadie皮革迷你手袋传递出将对当前现实的反思转化独特版型的时尚理念,轻软包设计让手袋看起来更为饱满,尽显大都会风格,同色调的字母徽标,赋予这款手提包独特美感和经典气息,可拆卸可调节皮革肩带,棉缎衬里配卡槽,尺寸:19X10X5cm","specs":{"source":"wsxcme","sourceId":"_dJdJd63UBhBwUtfTxzJAwdGTQYCFPnsesBYsumA","sourceTagId":68075769,"sourceTagName":"Miu Miu /女包","dimensions":{"lengthCm":19,"heightCm":10,"widthCm":5},"rawTitle":"5B,Miu家新款迷你保龄球包,这款Arcadie皮革迷你手袋传递出将对当前现实的反思转化独特版型的时尚理念,轻软包设计让手袋看起来更为饱满,尽显大都会风格,同色调的字母徽标,赋予这款手提包独特美感和经典气息,可拆卸可调节皮革肩带,棉缎衬里配卡槽,尺寸:19X10X5cm"},"price":null,"currency":"CNY","moq":1,"category":"miu-miu-women-bags","status":"active","alibaba_url":null,"images":["https://xcimg.szwego.com/20240911/i1726017741_7345_0.jpg","https://xcimg.szwego.com/20240911/i1726017741_8601_1.jpg","https://xcimg.szwego.com/20240911/i1726017741_4788_2.jpg","https://xcimg.szwego.com/20240911/i1726017741_8729_3.jpg","https://xcimg.szwego.com/20240911/i1726017741_1307_4.jpg","https://xcimg.szwego.com/20240911/i1726017741_9965_5.jpg","https://xcimg.szwego.com/20240911/i1726017741_9062_6.jpg","https://xcimg.szwego.com/20240911/i1726017741_8960_7.jpg","https://xcimg.szwego.com/20240911/i1726017741_2267_8.jpg"],"created_at":"2024-11-11T10:30:45.824Z"},{"id":"item-b3a0019f88aa","sku":"_doCoCYEmDJ8ldiKXon59SC1O0lXYyaDYwGxz2NA","name_en":"5B,Miu家新品爆款迷你贝壳包,釆用顶级复古植柔羊皮,复古磨砂感做旧金属配件,这款Aventure Nappa 皮革迷你手提包灵感源自 Miu家典藏单品,其结构经过调整,变得更加轻便,焕发全新个性,打造具有隽永魅力的经典包款,多元素的设计赋予这款手提包独特美感和经典气息,可拆卸可调节皮革肩带,帆布内里配拉链口袋和贴袋,尺寸:21X13.5X 8cm","name_cn":"5B,Miu家新品爆款迷你贝壳包,釆用顶级复古植柔羊皮,复古磨砂感做旧金属配件,这款Aventure Nappa 皮革迷你手提包灵感源自 Miu家典藏单品,其结构经过调整,变得更加轻便,焕发全新个性,打造具有隽永魅力的经典包款,多元素的设计赋予这款手提包独特美感和经典气息,可拆卸可调节皮革肩带,帆布内里配拉链口袋和贴袋,尺寸:21X13.5X 8cm","specs":{"source":"wsxcme","sourceId":"_doCoCYEmDJ8ldiKXon59SC1O0lXYyaDYwGxz2NA","sourceTagId":68075769,"sourceTagName":"Miu Miu /女包","dimensions":{"lengthCm":21,"heightCm":13.5,"widthCm":8},"rawTitle":"5B,Miu家新品爆款迷你贝壳包,釆用顶级复古植柔羊皮,复古磨砂感做旧金属配件,这款Aventure Nappa 皮革迷你手提包灵感源自 Miu家典藏单品,其结构经过调整,变得更加轻便,焕发全新个性,打造具有隽永魅力的经典包款,多元素的设计赋予这款手提包独特美感和经典气息,可拆卸可调节皮革肩带,帆布内里配拉链口袋和贴袋,尺寸:21X13.5X 8cm"},"price":null,"currency":"CNY","moq":1,"category":"miu-miu-women-bags","status":"active","alibaba_url":null,"images":["https://xcimg.szwego.com/20241204/a1733298356071_1615.jpg","https://xcimg.szwego.com/20241204/a1733298356196_7223.jpg","https://xcimg.szwego.com/20241204/a1733298356321_7662.jpg","https://xcimg.szwego.com/20241204/a1733298356396_4851.jpg","https://xcimg.szwego.com/20241204/a1733298356493_6223.jpg","https://xcimg.szwego.com/20241204/a1733298356692_8660.jpg","https://xcimg.szwego.com/20241204/a1733298356811_7074.jpg","https://xcimg.szwego.com/20241204/a1733298356956_5104.jpg","https://xcimg.szwego.com/20241204/a1733298357137_2804.jpg"],"created_at":"2026-06-29T11:34:30.642Z"},{"id":"item-26db4f48a303","sku":"_dyNyNxFj9z9Ey0yiaoev4nRHP4P5luQHJZekpkQ","name_en":"5B,Miu家新品爆款迷你贝壳包,釆用顶级复古植柔羊皮,复古磨砂感做旧金属配件,这款Aventure Nappa 皮革迷你手提包灵感源自 Miu家典藏单品,其结构经过调整,变得更加轻便,焕发全新个性,打造具有隽永魅力的经典包款,多元素的设计赋予这款手提包独特美感和经典气息,可拆卸可调节皮革肩带,帆布内里配拉链口袋和贴袋,尺寸:21X13.5X 8cm","name_cn":"5B,Miu家新品爆款迷你贝壳包,釆用顶级复古植柔羊皮,复古磨砂感做旧金属配件,这款Aventure Nappa 皮革迷你手提包灵感源自 Miu家典藏单品,其结构经过调整,变得更加轻便,焕发全新个性,打造具有隽永魅力的经典包款,多元素的设计赋予这款手提包独特美感和经典气息,可拆卸可调节皮革肩带,帆布内里配拉链口袋和贴袋,尺寸:21X13.5X 8cm","specs":{"source":"wsxcme","sourceId":"_dyNyNxFj9z9Ey0yiaoev4nRHP4P5luQHJZekpkQ","sourceTagId":68075769,"sourceTagName":"Miu Miu /女包","dimensions":{"lengthCm":21,"heightCm":13.5,"widthCm":8},"rawTitle":"5B,Miu家新品爆款迷你贝壳包,釆用顶级复古植柔羊皮,复古磨砂感做旧金属配件,这款Aventure Nappa 皮革迷你手提包灵感源自 Miu家典藏单品,其结构经过调整,变得更加轻便,焕发全新个性,打造具有隽永魅力的经典包款,多元素的设计赋予这款手提包独特美感和经典气息,可拆卸可调节皮革肩带,帆布内里配拉链口袋和贴袋,尺寸:21X13.5X 8cm"},"price":null,"currency":"CNY","moq":1,"category":"miu-miu-women-bags","status":"active","alibaba_url":null,"images":["https://xcimg.szwego.com/20241204/a1733296315684_5833.jpg","https://xcimg.szwego.com/20241204/a1733296315822_6827.jpg","https://xcimg.szwego.com/20241204/a1733296315986_4176.jpg","https://xcimg.szwego.com/20241204/a1733296316162_5185.jpg","https://xcimg.szwego.com/20241204/a1733296316306_3412.jpg","https://xcimg.szwego.com/20241204/a1733296316682_8366.jpg","https://xcimg.szwego.com/20241204/a1733296316790_0440.jpg","https://xcimg.szwego.com/20241204/a1733296317137_1440.jpg","https://xcimg.szwego.com/20241204/a1733296317461_0814.jpg"],"created_at":"2026-06-29T11:34:30.632Z"},{"id":"item-d7dacb8e91b0","sku":"_dlzlzYxJDlxCgFLfi1RNYBfB7MHmz7V5B6SeRJw","name_en":"5BA251","name_cn":"5BA251","specs":{"source":"wsxcme","sourceId":"_dlzlzYxJDlxCgFLfi1RNYBfB7MHmz7V5B6SeRJw","sourceTagId":68075769,"sourceTagName":"Miu Miu /女包","rawTitle":"5BA251"},"price":null,"currency":"CNY","moq":1,"category":"miu-miu-women-bags","status":"active","alibaba_url":null,"images":["https://xcimg.szwego.com/20230325/i1679674316_1608_0.jpg","https://xcimg.szwego.com/20230325/i1679674316_9066_1.jpg","https://xcimg.szwego.com/20230325/i1679674316_8015_2.jpg","https://xcimg.szwego.com/20230325/i1679674316_904_3.jpg"],"created_at":"2024-09-27T07:07:24.213Z"},{"id":"item-1a6f4b44069b","sku":"_dv3v3aDa-OtkhvDbRQBTKTIhcRPerz-GO51ea0Q","name_en":"5BA251","name_cn":"5BA251","specs":{"source":"wsxcme","sourceId":"_dv3v3aDa-OtkhvDbRQBTKTIhcRPerz-GO51ea0Q","sourceTagId":68075769,"sourceTagName":"Miu Miu /女包","rawTitle":"5BA251"},"price":null,"currency":"CNY","moq":1,"category":"miu-miu-women-bags","status":"active","alibaba_url":null,"images":["https://xcimg.szwego.com/20230325/i1679674316_1608_0.jpg","https://xcimg.szwego.com/20230325/i1679674316_9066_1.jpg","https://xcimg.szwego.com/20230325/i1679674316_8015_2.jpg","https://xcimg.szwego.com/20230325/i1679674316_904_3.jpg"],"created_at":"2024-11-11T10:31:19.659Z"},{"id":"item-7f0d9787eaf4","sku":"_dqtqtgF-c8QXIlI1fryf6Hsq_qU4qdHyfHEZCOQ","name_en":"5BA281,miu家新品迷你托特包,新尺寸小巧可爱适配度高,时髦别致又百搭,细节精致考究,经典浮雕字母徽标增添别具一格的格调与辨识度,延续 Miu复古风,随性洒脱,配有可拆卸可调节皮革长肩带,可肩背手拎斜挎实用性更好,缎面衬里,带贴袋,尺寸:20 cm X 24 cm","name_cn":"5BA281,miu家新品迷你托特包,新尺寸小巧可爱适配度高,时髦别致又百搭,细节精致考究,经典浮雕字母徽标增添别具一格的格调与辨识度,延续 Miu复古风,随性洒脱,配有可拆卸可调节皮革长肩带,可肩背手拎斜挎实用性更好,缎面衬里,带贴袋,尺寸:20 cm X 24 cm","specs":{"source":"wsxcme","sourceId":"_dqtqtgF-c8QXIlI1fryf6Hsq_qU4qdHyfHEZCOQ","sourceTagId":68075769,"sourceTagName":"Miu Miu /女包","rawTitle":"5BA281,miu家新品迷你托特包,新尺寸小巧可爱适配度高,时髦别致又百搭,细节精致考究,经典浮雕字母徽标增添别具一格的格调与辨识度,延续 Miu复古风,随性洒脱,配有可拆卸可调节皮革长肩带,可肩背手拎斜挎实用性更好,缎面衬里,带贴袋,尺寸:20 cm X 24 cm"},"price":null,"currency":"CNY","moq":1,"category":"miu-miu-women-bags","status":"active","alibaba_url":null,"images":["https://xcimg.szwego.com/20241012/i1728696266_51_0.jpg","https://xcimg.szwego.com/20241012/i1728696266_2791_1.jpg","https://xcimg.szwego.com/20241012/i1728696266_3544_2.jpg","https://xcimg.szwego.com/20241012/i1728696266_136_3.jpg","https://xcimg.szwego.com/20241012/i1728696266_964_4.jpg","https://xcimg.szwego.com/20241012/i1728696266_3489_5.jpg","https://xcimg.szwego.com/20241012/i1728696266_9587_6.jpg","https://xcimg.szwego.com/20241012/i1728696865_1100_0.jpg","https://xcimg.szwego.com/20241012/i1728696871_4830_0.jpg"],"created_at":"2025-01-20T13:11:33.086Z"},{"id":"item-4120f95a47b4","sku":"_dwawaIX5MOH37gu2VxNFG6HWHcQA4evqzvKm7MQ","name_en":"5BA281,miu家新品迷你托特包,新尺寸小巧可爱适配度高,时髦别致又百搭,细节精致考究,经典浮雕字母徽标增添别具一格的格调与辨识度,延续 Miu复古风,随性洒脱,配有可拆卸可调节皮革长肩带,可肩背手拎斜挎实用性更好,缎面衬里,带贴袋,尺寸:20 cm X 24 cm","name_cn":"5BA281,miu家新品迷你托特包,新尺寸小巧可爱适配度高,时髦别致又百搭,细节精致考究,经典浮雕字母徽标增添别具一格的格调与辨识度,延续 Miu复古风,随性洒脱,配有可拆卸可调节皮革长肩带,可肩背手拎斜挎实用性更好,缎面衬里,带贴袋,尺寸:20 cm X 24 cm","specs":{"source":"wsxcme","sourceId":"_dwawaIX5MOH37gu2VxNFG6HWHcQA4evqzvKm7MQ","sourceTagId":68075769,"sourceTagName":"Miu Miu /女包","rawTitle":"5BA281,miu家新品迷你托特包,新尺寸小巧可爱适配度高,时髦别致又百搭,细节精致考究,经典浮雕字母徽标增添别具一格的格调与辨识度,延续 Miu复古风,随性洒脱,配有可拆卸可调节皮革长肩带,可肩背手拎斜挎实用性更好,缎面衬里,带贴袋,尺寸:20 cm X 24 cm"},"price":null,"currency":"CNY","moq":1,"category":"miu-miu-women-bags","status":"active","alibaba_url":null,"images":["https://xcimg.szwego.com/20241012/i1728695399_331_8.jpg","https://xcimg.szwego.com/20241012/i1728695399_1996_0.jpg","https://xcimg.szwego.com/20241012/i1728695399_3655_1.jpg","https://xcimg.szwego.com/20241012/i1728695399_1630_2.jpg","https://xcimg.szwego.com/20241012/i1728695399_2774_3.jpg","https://xcimg.szwego.com/20241012/i1728695399_4401_4.jpg","https://xcimg.szwego.com/20241012/i1728695399_1356_5.jpg","https://xcimg.szwego.com/20241012/i1728695399_9550_6.jpg","https://xcimg.szwego.com/20241012/i1728695399_3699_7.jpg"],"created_at":"2025-01-20T13:11:33.087Z"},{"id":"item-1f0a2cdd385c","sku":"_dp6p6IJofG_NMogF4NalQ4rS5FDfXMMFSknjDXQ","name_en":"5BA281,miu家新品迷你托特包,新尺寸小巧可爱适配度高,时髦别致又百搭,细节精致考究,经典浮雕字母徽标增添别具一格的格调与辨识度,延续 Miu复古风,随性洒脱,配有可拆卸可调节皮革长肩带,可肩背手拎斜挎实用性更好,缎面衬里,带贴袋,尺寸:20 cm X 24 cm","name_cn":"5BA281,miu家新品迷你托特包,新尺寸小巧可爱适配度高,时髦别致又百搭,细节精致考究,经典浮雕字母徽标增添别具一格的格调与辨识度,延续 Miu复古风,随性洒脱,配有可拆卸可调节皮革长肩带,可肩背手拎斜挎实用性更好,缎面衬里,带贴袋,尺寸:20 cm X 24 cm","specs":{"source":"wsxcme","sourceId":"_dp6p6IJofG_NMogF4NalQ4rS5FDfXMMFSknjDXQ","sourceTagId":68075769,"sourceTagName":"Miu Miu /女包","rawTitle":"5BA281,miu家新品迷你托特包,新尺寸小巧可爱适配度高,时髦别致又百搭,细节精致考究,经典浮雕字母徽标增添别具一格的格调与辨识度,延续 Miu复古风,随性洒脱,配有可拆卸可调节皮革长肩带,可肩背手拎斜挎实用性更好,缎面衬里,带贴袋,尺寸:20 cm X 24 cm"},"price":null,"currency":"CNY","moq":1,"category":"miu-miu-women-bags","status":"active","alibaba_url":null,"images":["https://xcimg.szwego.com/20241012/i1728696928_3859_0.jpg","https://xcimg.szwego.com/20241012/i1728696583_5485_0.jpg","https://xcimg.szwego.com/20241012/i1728696583_3928_2.jpg","https://xcimg.szwego.com/20241012/i1728696583_892_3.jpg","https://xcimg.szwego.com/20241012/i1728696583_7407_4.jpg","https://xcimg.szwego.com/20241012/i1728696583_5011_5.jpg","https://xcimg.szwego.com/20241012/i1728696583_7191_6.jpg","https://xcimg.szwego.com/20241012/i1728696583_5783_7.jpg","https://xcimg.szwego.com/20241012/i1728696583_7147_8.jpg"],"created_at":"2025-01-20T13:11:33.085Z"},{"id":"item-518b28a51a32","sku":"_dl9l9YsEumK2b56ZDLV8-nBXuj5Uj7uixmShlwQ","name_en":"5BA287","name_cn":"5BA287","specs":{"source":"wsxcme","sourceId":"_dl9l9YsEumK2b56ZDLV8-nBXuj5Uj7uixmShlwQ","sourceTagId":68075769,"sourceTagName":"Miu Miu /女包","rawTitle":"5BA287"},"price":null,"currency":"CNY","moq":1,"category":"miu-miu-women-bags","status":"active","alibaba_url":null,"images":["https://xcimg.szwego.com/20240831/i1725047446_6664_0.jpg","https://xcimg.szwego.com/20240831/i1725047620_3711_0.jpg","https://xcimg.szwego.com/20240831/i1725047620_2057_1.jpg","https://xcimg.szwego.com/20240831/i1725047446_8854_2.jpg","https://xcimg.szwego.com/20240831/i1725047446_8344_1.jpg","https://xcimg.szwego.com/20240831/i1725047620_3712_4.jpg","https://xcimg.szwego.com/20240831/i1725047620_8706_2.jpg","https://xcimg.szwego.com/20240831/i1725047620_876_3.jpg"],"created_at":"2024-11-11T10:30:45.883Z"},{"id":"item-472ba39d9b8a","sku":"_dbcbcO9eYMurqmqY7MJa9y2mie03-zVJpf4z-Ug","name_en":"5BA287正品开发","name_cn":"5BA287正品开发","specs":{"source":"wsxcme","sourceId":"_dbcbcO9eYMurqmqY7MJa9y2mie03-zVJpf4z-Ug","sourceTagId":68075769,"sourceTagName":"Miu Miu /女包","rawTitle":"5BA287正品开发"},"price":null,"currency":"CNY","moq":1,"category":"miu-miu-women-bags","status":"active","alibaba_url":null,"images":["https://xcimg.szwego.com/20240831/i1725047506_7021_0.jpg","https://xcimg.szwego.com/20240831/i1725047506_1480_5.jpg","https://xcimg.szwego.com/20240831/i1725047506_6319_6.jpg","https://xcimg.szwego.com/20240831/i1725047506_6450_1.jpg","https://xcimg.szwego.com/20240831/i1725047506_7323_2.jpg","https://xcimg.szwego.com/20240831/i1725047506_104_3.jpg","https://xcimg.szwego.com/20240831/i1725047506_2558_4.jpg"],"created_at":"2024-11-11T10:30:45.882Z"},{"id":"item-ba66562fe1c6","sku":"_dILILi5S0poDFY_XFvg-iHYDDBffM5l2nFtJCPA","name_en":"5BA289新品贝壳包","name_cn":"5BA289新品贝壳包","specs":{"source":"wsxcme","sourceId":"_dILILi5S0poDFY_XFvg-iHYDDBffM5l2nFtJCPA","sourceTagId":68075769,"sourceTagName":"Miu Miu /女包","rawTitle":"5BA289新品贝壳包"},"price":null,"currency":"CNY","moq":1,"category":"miu-miu-women-bags","status":"active","alibaba_url":null,"images":["https://xcimg.szwego.com/20240507/i1715020485_7331_0.jpg","https://xcimg.szwego.com/20240507/i1715020485_8102_1.jpg","https://xcimg.szwego.com/20240507/i1715020485_5215_2.jpg","https://xcimg.szwego.com/20240507/i1715020485_786_3.jpg","https://xcimg.szwego.com/20240507/i1715020485_9506_4.jpg","https://xcimg.szwego.com/20240507/i1715020485_1323_5.jpg","https://xcimg.szwego.com/20240507/i1715020485_3036_6.jpg"],"created_at":"2024-11-11T10:30:45.858Z"},{"id":"item-b7cf62a8d27e","sku":"_dAGAGIwJOW2TrVDJksYV9QbEDfNegsu4EpNSyFA","name_en":"5BA290新品贝壳包","name_cn":"5BA290新品贝壳包","specs":{"source":"wsxcme","sourceId":"_dAGAGIwJOW2TrVDJksYV9QbEDfNegsu4EpNSyFA","sourceTagId":68075769,"sourceTagName":"Miu Miu /女包","rawTitle":"5BA290新品贝壳包"},"price":null,"currency":"CNY","moq":1,"category":"miu-miu-women-bags","status":"active","alibaba_url":null,"images":["https://xcimg.szwego.com/20240507/i1715020875_519_0.jpg","https://xcimg.szwego.com/20240507/i1715020875_8490_1.jpg","https://xcimg.szwego.com/20240507/i1715020875_3099_4.jpg","https://xcimg.szwego.com/20240507/i1715020875_4214_2.jpg","https://xcimg.szwego.com/20240507/i1715020875_1256_3.jpg"],"created_at":"2024-11-11T10:30:45.856Z"},{"id":"item-a351b6286807","sku":"_djBjBUPiOBoEMk53vgSK-rZ8jrZ0yCo5Q6g0vUw","name_en":"5BB117:MiuMiu新品公文包,今年的各大品牌都采用的时尚元素全新鹿绒皮,火爆全网,帆布衬里,这款包包很酷,定格精致的多功能设计,融合男装和女装元素,随性慵懒,自然洒脱,充满个性,超大容量还很轻便,简约却不简单,各大时尚搏主几乎人手一个,尺寸:34X23X12cm(配原版包装)","name_cn":"5BB117:MiuMiu新品公文包,今年的各大品牌都采用的时尚元素全新鹿绒皮,火爆全网,帆布衬里,这款包包很酷,定格精致的多功能设计,融合男装和女装元素,随性慵懒,自然洒脱,充满个性,超大容量还很轻便,简约却不简单,各大时尚搏主几乎人手一个,尺寸:34X23X12cm(配原版包装)","specs":{"source":"wsxcme","sourceId":"_djBjBUPiOBoEMk53vgSK-rZ8jrZ0yCo5Q6g0vUw","sourceTagId":68075769,"sourceTagName":"Miu Miu /女包","dimensions":{"lengthCm":34,"heightCm":23,"widthCm":12},"rawTitle":"5BB117:MiuMiu新品公文包,今年的各大品牌都采用的时尚元素全新鹿绒皮,火爆全网,帆布衬里,这款包包很酷,定格精致的多功能设计,融合男装和女装元素,随性慵懒,自然洒脱,充满个性,超大容量还很轻便,简约却不简单,各大时尚搏主几乎人手一个,尺寸:34X23X12cm(配原版包装)"},"price":null,"currency":"CNY","moq":1,"category":"miu-miu-women-bags","status":"active","alibaba_url":null,"images":["https://xcimg.szwego.com/20241114/i1731547904_4304_0.jpg","https://xcimg.szwego.com/20241114/i1731547904_1844_1.jpg","https://xcimg.szwego.com/20241114/i1731547904_6046_2.jpg","https://xcimg.szwego.com/20241114/i1731547904_4029_3.jpg","https://xcimg.szwego.com/20241114/i1731547904_9563_4.jpg","https://xcimg.szwego.com/20241114/i1731547904_1696_5.jpg","https://xcimg.szwego.com/20241114/i1731547904_5346_6.jpg","https://xcimg.szwego.com/20241114/i1731547904_8486_7.jpg","https://xcimg.szwego.com/20241114/i1731547904_7544_8.jpg"],"created_at":"2025-01-20T13:11:33.137Z"},{"id":"item-02cf71a29e56","sku":"_dk5k5uOn4pGikwNdH9MFl2NDCaM61GbGg-pNuPg","name_en":"5BB117:MiuMiu新品公文包,今年的各大品牌都采用的时尚元素全新鹿绒皮,火爆全网,帆布衬里,这款包包很酷,定格精致的多功能设计,融合男装和女装元素,随性慵懒,自然洒脱,充满个性,超大容量还很轻便,简约却不简单,各大时尚搏主几乎人手一个,尺寸:34X23X12cm(配原版包装)","name_cn":"5BB117:MiuMiu新品公文包,今年的各大品牌都采用的时尚元素全新鹿绒皮,火爆全网,帆布衬里,这款包包很酷,定格精致的多功能设计,融合男装和女装元素,随性慵懒,自然洒脱,充满个性,超大容量还很轻便,简约却不简单,各大时尚搏主几乎人手一个,尺寸:34X23X12cm(配原版包装)","specs":{"source":"wsxcme","sourceId":"_dk5k5uOn4pGikwNdH9MFl2NDCaM61GbGg-pNuPg","sourceTagId":68075769,"sourceTagName":"Miu Miu /女包","dimensions":{"lengthCm":34,"heightCm":23,"widthCm":12},"rawTitle":"5BB117:MiuMiu新品公文包,今年的各大品牌都采用的时尚元素全新鹿绒皮,火爆全网,帆布衬里,这款包包很酷,定格精致的多功能设计,融合男装和女装元素,随性慵懒,自然洒脱,充满个性,超大容量还很轻便,简约却不简单,各大时尚搏主几乎人手一个,尺寸:34X23X12cm(配原版包装)"},"price":null,"currency":"CNY","moq":1,"category":"miu-miu-women-bags","status":"active","alibaba_url":null,"images":["https://xcimg.szwego.com/20240809/i1723179750_3_0.jpg","https://xcimg.szwego.com/20240809/i1723179750_7865_1.jpg","https://xcimg.szwego.com/20240809/i1723179750_6715_2.jpg","https://xcimg.szwego.com/20240809/i1723179750_5881_3.jpg","https://xcimg.szwego.com/20240809/i1723179750_6541_4.jpg","https://xcimg.szwego.com/20240809/i1723179750_7759_5.jpg","https://xcimg.szwego.com/20240809/i1723179750_2690_6.jpg","https://xcimg.szwego.com/20240809/i1723179750_2113_7.jpg","https://xcimg.szwego.com/20240809/i1723179750_4344_8.jpg"],"created_at":"2025-01-20T13:11:33.138Z"},{"id":"item-43fe57770c2f","sku":"_d777708-6wOh3VLMk8fconGoz-g-TEcxZFsqXDg","name_en":"5BB117:MiuMiu新品公文包,今年的各大品牌都采用的时尚元素全新鹿绒皮,火爆全网,帆布衬里,这款包包很酷,定格精致的多功能设计,随性慵懒,自然洒脱,充满个性,超大容量还很轻便,简约却不简单,各大时尚搏主几乎人手一个,尺寸:34X23X12cm(配原版包装)","name_cn":"5BB117:MiuMiu新品公文包,今年的各大品牌都采用的时尚元素全新鹿绒皮,火爆全网,帆布衬里,这款包包很酷,定格精致的多功能设计,随性慵懒,自然洒脱,充满个性,超大容量还很轻便,简约却不简单,各大时尚搏主几乎人手一个,尺寸:34X23X12cm(配原版包装)","specs":{"source":"wsxcme","sourceId":"_d777708-6wOh3VLMk8fconGoz-g-TEcxZFsqXDg","sourceTagId":68075769,"sourceTagName":"Miu Miu /女包","dimensions":{"lengthCm":34,"heightCm":23,"widthCm":12},"rawTitle":"5BB117:MiuMiu新品公文包,今年的各大品牌都采用的时尚元素全新鹿绒皮,火爆全网,帆布衬里,这款包包很酷,定格精致的多功能设计,随性慵懒,自然洒脱,充满个性,超大容量还很轻便,简约却不简单,各大时尚搏主几乎人手一个,尺寸:34X23X12cm(配原版包装)"},"price":null,"currency":"CNY","moq":1,"category":"miu-miu-women-bags","status":"active","alibaba_url":null,"images":["https://xcimg.szwego.com/20240809/i1723179750_3_0.jpg","https://xcimg.szwego.com/20240809/i1723179750_7865_1.jpg","https://xcimg.szwego.com/20240809/i1723179750_6715_2.jpg","https://xcimg.szwego.com/20240809/i1723179750_5881_3.jpg","https://xcimg.szwego.com/20240809/i1723179750_6541_4.jpg","https://xcimg.szwego.com/20240809/i1723179750_7759_5.jpg","https://xcimg.szwego.com/20240809/i1723179750_2690_6.jpg","https://xcimg.szwego.com/20240809/i1723179750_2113_7.jpg","https://xcimg.szwego.com/20240809/i1723179750_4344_8.jpg"],"created_at":"2024-11-11T10:30:45.901Z"},{"id":"item-566ec0365279","sku":"_dOpOpaacIFp6O8KGb3JVpL_6IS9ywvCE-lqZkGA","name_en":"5BB117鹿绒皮","name_cn":"5BB117鹿绒皮","specs":{"source":"wsxcme","sourceId":"_dOpOpaacIFp6O8KGb3JVpL_6IS9ywvCE-lqZkGA","sourceTagId":68075769,"sourceTagName":"Miu Miu /女包","rawTitle":"5BB117鹿绒皮"},"price":null,"currency":"CNY","moq":1,"category":"miu-miu-women-bags","status":"active","alibaba_url":null,"images":["https://xcimg.szwego.com/20240808/i1723112769_824_0.jpg","https://xcimg.szwego.com/20240808/i1723112769_71_3.jpg","https://xcimg.szwego.com/20240808/i1723112769_762_1.jpg","https://xcimg.szwego.com/20240808/i1723112769_5471_2.jpg","https://xcimg.szwego.com/20240808/i1723112769_3818_8.jpg","https://xcimg.szwego.com/20240808/i1723112769_7736_4.jpg","https://xcimg.szwego.com/20240808/i1723112769_1537_5.jpg","https://xcimg.szwego.com/20240808/i1723112769_2777_6.jpg","https://xcimg.szwego.com/20240808/i1723112769_2918_7.jpg"],"created_at":"2025-01-20T13:11:33.139Z"},{"id":"item-fee5e6b48fe4","sku":"_droroqf_A_BdxKe7IhBP9p3Jzosskd38qa0Ftnw","name_en":"5BB123:M家新品too pretty保龄球手袋,采用进口小羊皮经典品牌标志性Matelasse纹理绣花,复古磨砂五金,保留了应有的俏皮感,包型整体硬挺有型,充满个性,可甜可盐,容量可光,各大时尚搏主几乎人手一个,火爆程度不亚于之前的MiWander,尺寸:19X13X6CM,配原版包装","name_cn":"5BB123:M家新品too pretty保龄球手袋,采用进口小羊皮经典品牌标志性Matelasse纹理绣花,复古磨砂五金,保留了应有的俏皮感,包型整体硬挺有型,充满个性,可甜可盐,容量可光,各大时尚搏主几乎人手一个,火爆程度不亚于之前的MiWander,尺寸:19X13X6CM,配原版包装","specs":{"source":"wsxcme","sourceId":"_droroqf_A_BdxKe7IhBP9p3Jzosskd38qa0Ftnw","sourceTagId":68075769,"sourceTagName":"Miu Miu /女包","dimensions":{"lengthCm":19,"heightCm":13,"widthCm":6},"rawTitle":"5BB123:M家新品too pretty保龄球手袋,采用进口小羊皮经典品牌标志性Matelasse纹理绣花,复古磨砂五金,保留了应有的俏皮感,包型整体硬挺有型,充满个性,可甜可盐,容量可光,各大时尚搏主几乎人手一个,火爆程度不亚于之前的MiWander,尺寸:19X13X6CM,配原版包装"},"price":null,"currency":"CNY","moq":1,"category":"miu-miu-women-bags","status":"active","alibaba_url":null,"images":["https://xcimg.szwego.com/20241212/a1733990079778_0360.jpg","https://xcimg.szwego.com/20241212/a1733990080007_1187.jpg","https://xcimg.szwego.com/20241212/a1733990080201_5225.jpg","https://xcimg.szwego.com/20241212/a1733990080385_2136.jpg","https://xcimg.szwego.com/20241212/a1733990080771_5884.jpg","https://xcimg.szwego.com/20241212/a1733990080926_0856.jpg","https://xcimg.szwego.com/20241212/a1733990081473_3433.jpg","https://xcimg.szwego.com/20241212/a1733990081637_7500.jpg","https://xcimg.szwego.com/20241212/a1733990081787_4427.jpg"],"created_at":"2026-06-29T11:34:30.662Z"},{"id":"item-997990b1b36d","sku":"_d9b9bPJUWEXNtpa_ubT0Mdfjbr8rr9jlntvXdjw","name_en":"5BB123:M家新品too pretty保龄球手袋,采用进口小羊皮经典品牌标志性Matelasse纹理绣花,复古磨砂五金,保留了应有的俏皮感,包型整体硬挺有型,充满个性,可甜可盐,容量可光,各大时尚搏主几乎人手一个,火爆程度不亚于之前的MiWander,尺寸:19X13X6CM,配原版包装","name_cn":"5BB123:M家新品too pretty保龄球手袋,采用进口小羊皮经典品牌标志性Matelasse纹理绣花,复古磨砂五金,保留了应有的俏皮感,包型整体硬挺有型,充满个性,可甜可盐,容量可光,各大时尚搏主几乎人手一个,火爆程度不亚于之前的MiWander,尺寸:19X13X6CM,配原版包装","specs":{"source":"wsxcme","sourceId":"_d9b9bPJUWEXNtpa_ubT0Mdfjbr8rr9jlntvXdjw","sourceTagId":68075769,"sourceTagName":"Miu Miu /女包","dimensions":{"lengthCm":19,"heightCm":13,"widthCm":6},"rawTitle":"5BB123:M家新品too pretty保龄球手袋,采用进口小羊皮经典品牌标志性Matelasse纹理绣花,复古磨砂五金,保留了应有的俏皮感,包型整体硬挺有型,充满个性,可甜可盐,容量可光,各大时尚搏主几乎人手一个,火爆程度不亚于之前的MiWander,尺寸:19X13X6CM,配原版包装"},"price":null,"currency":"CNY","moq":1,"category":"miu-miu-women-bags","status":"active","alibaba_url":null,"images":["https://xcimg.szwego.com/20241212/a1733989634111_2050.jpg","https://xcimg.szwego.com/20241212/a1733989634300_4155.jpg","https://xcimg.szwego.com/20241212/a1733989634491_5786.jpg","https://xcimg.szwego.com/20241212/a1733989634828_6485.jpg","https://xcimg.szwego.com/20241212/a1733989635030_2230.jpg","https://xcimg.szwego.com/20241212/a1733989635225_7174.jpg","https://xcimg.szwego.com/20241212/a1733989635483_2807.jpg","https://xcimg.szwego.com/20241212/a1733989635619_4510.jpg","https://xcimg.szwego.com/20241212/a1733989635738_4485.jpg"],"created_at":"2026-06-29T11:34:30.672Z"},{"id":"item-482165c3ed04","sku":"_dytyt3rgo3eT10OanTtgSDfw8rM92OusuyWNfQQ","name_en":"5BB123:M家新品too pretty保龄球手袋,采用进口小羊皮经典品牌标志性Matelasse纹理绣花,复古磨砂五金,保留了应有的俏皮感,包型整体硬挺有型,充满个性,可甜可盐,容量可光,各大时尚搏主几乎人手一个,火爆程度不亚于之前的MiWander,尺寸:19X13X6CM,配原版包装","name_cn":"5BB123:M家新品too pretty保龄球手袋,采用进口小羊皮经典品牌标志性Matelasse纹理绣花,复古磨砂五金,保留了应有的俏皮感,包型整体硬挺有型,充满个性,可甜可盐,容量可光,各大时尚搏主几乎人手一个,火爆程度不亚于之前的MiWander,尺寸:19X13X6CM,配原版包装","specs":{"source":"wsxcme","sourceId":"_dytyt3rgo3eT10OanTtgSDfw8rM92OusuyWNfQQ","sourceTagId":68075769,"sourceTagName":"Miu Miu /女包","dimensions":{"lengthCm":19,"heightCm":13,"widthCm":6},"rawTitle":"5BB123:M家新品too pretty保龄球手袋,采用进口小羊皮经典品牌标志性Matelasse纹理绣花,复古磨砂五金,保留了应有的俏皮感,包型整体硬挺有型,充满个性,可甜可盐,容量可光,各大时尚搏主几乎人手一个,火爆程度不亚于之前的MiWander,尺寸:19X13X6CM,配原版包装"},"price":null,"currency":"CNY","moq":1,"category":"miu-miu-women-bags","status":"active","alibaba_url":null,"images":["https://xcimg.szwego.com/20241212/a1733987360914_1770.jpg","https://xcimg.szwego.com/20241212/a1733987361113_8377.jpg","https://xcimg.szwego.com/20241212/a1733987361278_5640.jpg","https://xcimg.szwego.com/20241212/a1733987361650_1783.jpg","https://xcimg.szwego.com/20241212/a1733987361919_8732.jpg","https://xcimg.szwego.com/20241212/a1733987362071_1531.jpg","https://xcimg.szwego.com/20241212/a1733987362310_7034.jpg","https://xcimg.szwego.com/20241212/a1733987362536_6017.jpg","https://xcimg.szwego.com/20241212/a1733987362706_3425.jpg"],"created_at":"2026-06-29T11:34:30.652Z"},{"id":"item-d27a4af04841","sku":"_dmmmmYqIJYs2VC6dl8Q4WpFSJRcDdTdtlnQamXg","name_en":"5BB142","name_cn":"5BB142","specs":{"source":"wsxcme","sourceId":"_dmmmmYqIJYs2VC6dl8Q4WpFSJRcDdTdtlnQamXg","sourceTagId":68075769,"sourceTagName":"Miu Miu /女包","rawTitle":"5BB142"},"price":null,"currency":"CNY","moq":1,"category":"miu-miu-women-bags","status":"active","alibaba_url":null,"images":["https://xcimg.szwego.com/20230616/i1686851850_9908_0.jpg","https://xcimg.szwego.com/20230616/i1686851850_9147_1.jpg","https://xcimg.szwego.com/20230616/i1686851850_2357_2.jpg","https://xcimg.szwego.com/20230616/i1686851850_9822_3.jpg","https://xcimg.szwego.com/20230616/i1686851850_4023_4.jpg","https://xcimg.szwego.com/20230616/i1686851850_9909_5.jpg","https://xcimg.szwego.com/20230616/i1686851850_6201_6.jpg"],"created_at":"2024-11-11T10:30:45.878Z"}],"page":128,"pageSize":24,"total":10075,"totalPages":420}
