{"items":[{"id":"item-11e47d502b27","sku":"_dmPmPE9Keid22HO1nl5lbPU_s8q8ugW0IGWIP_Q","name_en":"『Celine 赛琳』","name_cn":"『Celine 赛琳』\n\n🔅CEL.INE 新品Tnne Soft 16 牛皮革手袋®️内里磨砂皮/可斜挎和肩背,旋转锁扣开合\n2个内侧隔层 内侧拉链口袋 一条可拆卸织物肩带长52厘米) 去除手腕后增添年轻与时尚感、很有Hedi叛逆街头风。\n尺寸:23 X 15 X 9cm\n款号:1158#","specs":{"source":"wsxcme","sourceId":"_dmPmPE9Keid22HO1nl5lbPU_s8q8ugW0IGWIP_Q","sourceTagId":47003106,"sourceTagName":"塞琳/女包","modelNumber":"1158#","dimensions":{"lengthCm":23,"heightCm":15,"widthCm":9},"rawTitle":"『Celine 赛琳』\n\n🔅CEL.INE 新品Tnne Soft 16 牛皮革手袋®️内里磨砂皮/可斜挎和肩背,旋转锁扣开合\n2个内侧隔层 内侧拉链口袋 一条可拆卸织物肩带长52厘米) 去除手腕后增添年轻与时尚感、很有Hedi叛逆街头风。\n尺寸:23 X 15 X 9cm\n款号:1158#"},"price":null,"currency":"CNY","moq":1,"category":"celine-women-bags","status":"active","alibaba_url":null,"images":["https://xcimg.szwego.com/20220412/i1649737441_5157_0.jpg","https://xcimg.szwego.com/20220412/i1649737441_284_1.jpg","https://xcimg.szwego.com/20220412/i1649737441_7422_2.jpg","https://xcimg.szwego.com/20220412/i1649737441_6425_3.jpg","https://xcimg.szwego.com/20220412/i1649737441_969_4.jpg","https://xcimg.szwego.com/20220412/i1649737441_9500_5.jpg","https://xcimg.szwego.com/20220412/i1649737441_6453_6.jpg","https://xcimg.szwego.com/20220412/i1649737441_105_7.jpg","https://xcimg.szwego.com/20220412/i1649737441_6093_8.jpg"],"created_at":"2025-02-08T12:47:00.810Z"},{"id":"item-0ce2e91da4ab","sku":"_dLPLPB4uT2dKhJy47Cv9LbX0WntD_RpegNxJG8w","name_en":"『Celine 赛琳』","name_cn":"『Celine 赛琳』\n\nCABAS TRIOMPHE🛍老花MiNi号竖款手袋65%纺织布,35%小牛皮100%棉衬里内侧插袋可调节可拆卸皮革肩带 长20英寸(50厘米)尺寸20X 17X 6厘米)","specs":{"source":"wsxcme","sourceId":"_dLPLPB4uT2dKhJy47Cv9LbX0WntD_RpegNxJG8w","sourceTagId":47003106,"sourceTagName":"塞琳/女包","dimensions":{"lengthCm":20,"heightCm":17,"widthCm":6},"rawTitle":"『Celine 赛琳』\n\nCABAS TRIOMPHE🛍老花MiNi号竖款手袋65%纺织布,35%小牛皮100%棉衬里内侧插袋可调节可拆卸皮革肩带 长20英寸(50厘米)尺寸20X 17X 6厘米)"},"price":null,"currency":"CNY","moq":1,"category":"celine-women-bags","status":"active","alibaba_url":null,"images":["https://xcimg.szwego.com/20210731/i1627739442_1106_0.jpg","https://xcimg.szwego.com/20210731/i1627739442_6748_1.jpg","https://xcimg.szwego.com/20210731/i1627739442_58_2.jpg","https://xcimg.szwego.com/20210731/i1627739442_1753_3.jpg","https://xcimg.szwego.com/20210731/i1627739442_1896_4.jpg","https://xcimg.szwego.com/20210731/i1627739442_2550_5.jpg","https://xcimg.szwego.com/20210731/i1627739442_3957_6.jpg","https://xcimg.szwego.com/20210731/i1627739442_1404_7.jpg"],"created_at":"2025-02-08T12:47:00.795Z"},{"id":"item-09771692ce31","sku":"_dwwwwsAOKca1v7jjFfPMphe1fw9zTCXSwQLpl5Q","name_en":"『Celine 赛琳』","name_cn":"『Celine 赛琳』\n\n🔅CEL.INE 新品Tnne Soft 16 牛皮革手袋®️内里磨砂皮/可斜挎和肩背,旋转锁扣开合\n2个内侧隔层 内侧拉链口袋 一条可拆卸织物肩带长52厘米) 去除手腕后增添年轻与时尚感、很有Hedi叛逆街头风。\n尺寸:23 X 15 X 9cm\n款号:1158#","specs":{"source":"wsxcme","sourceId":"_dwwwwsAOKca1v7jjFfPMphe1fw9zTCXSwQLpl5Q","sourceTagId":47003106,"sourceTagName":"塞琳/女包","modelNumber":"1158#","dimensions":{"lengthCm":23,"heightCm":15,"widthCm":9},"rawTitle":"『Celine 赛琳』\n\n🔅CEL.INE 新品Tnne Soft 16 牛皮革手袋®️内里磨砂皮/可斜挎和肩背,旋转锁扣开合\n2个内侧隔层 内侧拉链口袋 一条可拆卸织物肩带长52厘米) 去除手腕后增添年轻与时尚感、很有Hedi叛逆街头风。\n尺寸:23 X 15 X 9cm\n款号:1158#"},"price":null,"currency":"CNY","moq":1,"category":"celine-women-bags","status":"active","alibaba_url":null,"images":["https://xcimg.szwego.com/20220412/i1649737441_5157_0.jpg","https://xcimg.szwego.com/20220412/i1649737441_284_1.jpg","https://xcimg.szwego.com/20220412/i1649737441_7422_2.jpg","https://xcimg.szwego.com/20220412/i1649737441_6425_3.jpg","https://xcimg.szwego.com/20220412/i1649737441_969_4.jpg","https://xcimg.szwego.com/20220412/i1649737441_9500_5.jpg","https://xcimg.szwego.com/20220412/i1649737441_6453_6.jpg","https://xcimg.szwego.com/20220412/i1649737441_105_7.jpg","https://xcimg.szwego.com/20220412/i1649737441_6093_8.jpg"],"created_at":"2025-02-08T12:47:23.794Z"},{"id":"item-080c72dbd033","sku":"_dfsfs7WV45ftZxu1tMYLhtBxieRFZ7AbwCluELg","name_en":"『Celine 赛琳』","name_cn":"『Celine 赛琳』\n\nCe.line 春夏新品Folco白色涂层帆布马鞍包 延续凯旋门 复古斜挎  耐看经典印花一点都不老套。\n尺寸:18x16x10cm\n型号:2179#","specs":{"source":"wsxcme","sourceId":"_dfsfs7WV45ftZxu1tMYLhtBxieRFZ7AbwCluELg","sourceTagId":47003106,"sourceTagName":"塞琳/女包","modelNumber":"2179#","dimensions":{"lengthCm":18,"heightCm":16,"widthCm":10},"rawTitle":"『Celine 赛琳』\n\nCe.line 春夏新品Folco白色涂层帆布马鞍包 延续凯旋门 复古斜挎  耐看经典印花一点都不老套。\n尺寸:18x16x10cm\n型号:2179#"},"price":null,"currency":"CNY","moq":1,"category":"celine-women-bags","status":"active","alibaba_url":null,"images":["https://xcimg.szwego.com/20220224/i1645679218_7663_0.jpg","https://xcimg.szwego.com/20220224/i1645679218_667_1.jpg","https://xcimg.szwego.com/20220224/i1645679218_6374_2.jpg","https://xcimg.szwego.com/20220224/i1645679218_2908_3.jpg","https://xcimg.szwego.com/20220224/i1645679218_4766_4.jpg","https://xcimg.szwego.com/20220224/i1645679218_103_5.jpg","https://xcimg.szwego.com/20220224/i1645679218_9096_6.jpg","https://xcimg.szwego.com/20220224/i1645679218_5806_7.jpg","https://xcimg.szwego.com/20220224/i1645679218_7219_8.jpg"],"created_at":"2025-02-08T12:47:00.808Z"},{"id":"item-077d7470f7d0","sku":"_dlOlOQCpZN7eZaEPBpsMfBLIiZaXlrUWRFu4Dsg","name_en":"『Celine 赛琳』","name_cn":"『Celine 赛琳』\n\n复古凯旋门 链条腋下包出货 版型是长长的横版 搭配标志C家五金 腋下背刚刚好 复古又时尚 尺寸:30cm  款号:3019","specs":{"source":"wsxcme","sourceId":"_dlOlOQCpZN7eZaEPBpsMfBLIiZaXlrUWRFu4Dsg","sourceTagId":47003106,"sourceTagName":"塞琳/女包","modelNumber":"3019","rawTitle":"『Celine 赛琳』\n\n复古凯旋门 链条腋下包出货 版型是长长的横版 搭配标志C家五金 腋下背刚刚好 复古又时尚 尺寸:30cm  款号:3019"},"price":null,"currency":"CNY","moq":1,"category":"celine-women-bags","status":"active","alibaba_url":null,"images":["https://xcimg.szwego.com/20211211/i1639212725_7081_0.jpg","https://xcimg.szwego.com/20211211/i1639212725_8965_1.jpg","https://xcimg.szwego.com/20211211/i1639212725_525_2.jpg","https://xcimg.szwego.com/20211211/i1639212725_1238_3.jpg","https://xcimg.szwego.com/20211211/i1639212725_8974_4.jpg","https://xcimg.szwego.com/20211211/i1639212725_2383_5.jpg","https://xcimg.szwego.com/20211211/i1639212725_1148_6.jpg","https://xcimg.szwego.com/20211211/i1639212725_3586_7.jpg","https://xcimg.szwego.com/20211211/i1639212725_8200_8.jpg"],"created_at":"2025-02-08T12:47:00.829Z"},{"id":"item-0699ee9cf6b1","sku":"_dBlBlWCgh6eU4_4h3g9Qec16P_Zm-vtp1Kk6f5Q","name_en":"『Celine 赛琳』","name_cn":"『Celine 赛琳』\n\nbox18.5cm 雾霾蓝\n\n专柜最新尺寸teen💥\n头层牛皮配定制五金\n内里两层\n内侧有扁平口袋✅\n尺寸:18.5×15.5×6cm","specs":{"source":"wsxcme","sourceId":"_dBlBlWCgh6eU4_4h3g9Qec16P_Zm-vtp1Kk6f5Q","sourceTagId":47003106,"sourceTagName":"塞琳/女包","dimensions":{"lengthCm":18.5,"heightCm":15.5,"widthCm":6},"rawTitle":"『Celine 赛琳』\n\nbox18.5cm 雾霾蓝\n\n专柜最新尺寸teen💥\n头层牛皮配定制五金\n内里两层\n内侧有扁平口袋✅\n尺寸:18.5×15.5×6cm"},"price":null,"currency":"CNY","moq":1,"category":"celine-women-bags","status":"active","alibaba_url":null,"images":["https://xcimg.szwego.com/20201126/i1606377807_2172_0.jpg","https://xcimg.szwego.com/20201126/i1606377807_9743_1.jpg","https://xcimg.szwego.com/20201126/i1606377807_1409_2.jpg","https://xcimg.szwego.com/20201126/i1606377807_496_3.jpg","https://xcimg.szwego.com/20201126/i1606377807_4843_4.jpg","https://xcimg.szwego.com/20201126/i1606377807_9844_5.jpg","https://xcimg.szwego.com/20201126/i1606377807_9647_6.jpg","https://xcimg.szwego.com/20201126/i1606377807_7082_7.jpg","https://xcimg.szwego.com/20201126/i1606377807_4875_8.jpg"],"created_at":"2025-02-08T12:47:00.784Z"},{"id":"item-0524a5d710e2","sku":"_d_j_jy8nngv4jirpQ2w8jZEq-0xKzbqF4u3fMxw","name_en":"『Celine 赛琳』","name_cn":"『Celine 赛琳』\n\n新款🔅CABAS TRIOMPHE提花面料MiNi号竖款手袋,65%纺织布,35%小牛皮,100%棉衬里,内侧插袋,可调节可拆卸皮革肩带 长50厘米\n尺寸20X 17X 6厘米\n型号:2200#","specs":{"source":"wsxcme","sourceId":"_d_j_jy8nngv4jirpQ2w8jZEq-0xKzbqF4u3fMxw","sourceTagId":47003106,"sourceTagName":"塞琳/女包","modelNumber":"2200#","dimensions":{"lengthCm":20,"heightCm":17,"widthCm":6},"rawTitle":"『Celine 赛琳』\n\n新款🔅CABAS TRIOMPHE提花面料MiNi号竖款手袋,65%纺织布,35%小牛皮,100%棉衬里,内侧插袋,可调节可拆卸皮革肩带 长50厘米\n尺寸20X 17X 6厘米\n型号:2200#"},"price":null,"currency":"CNY","moq":1,"category":"celine-women-bags","status":"active","alibaba_url":null,"images":["https://xcimg.szwego.com/20220504/i1651635127_7756_0.jpg","https://xcimg.szwego.com/20220504/i1651635127_166_1.jpg","https://xcimg.szwego.com/20220504/i1651635127_1963_2.jpg","https://xcimg.szwego.com/20220504/i1651635127_4533_3.jpg","https://xcimg.szwego.com/20220504/i1651635127_2423_4.jpg","https://xcimg.szwego.com/20220504/i1651635127_7734_5.jpg","https://xcimg.szwego.com/20220504/i1651635127_2530_6.jpg","https://xcimg.szwego.com/20220504/i1651635127_4453_7.jpg"],"created_at":"2025-02-08T12:47:00.868Z"},{"id":"item-04663850fb36","sku":"_dxTxTJP315UQ52kDAHXXGo3Ts_tn1CGyMSLQMDg","name_en":"『Celine 赛琳』","name_cn":"『Celine 赛琳』\n\nCeline 复古凯旋门 链条腋下包出货 版型是长长的横版 搭配标志C家五金 腋下背刚刚好 复古又时尚 尺寸:30cm  款号:3019","specs":{"source":"wsxcme","sourceId":"_dxTxTJP315UQ52kDAHXXGo3Ts_tn1CGyMSLQMDg","sourceTagId":47003106,"sourceTagName":"塞琳/女包","modelNumber":"3019","rawTitle":"『Celine 赛琳』\n\nCeline 复古凯旋门 链条腋下包出货 版型是长长的横版 搭配标志C家五金 腋下背刚刚好 复古又时尚 尺寸:30cm  款号:3019"},"price":null,"currency":"CNY","moq":1,"category":"celine-women-bags","status":"active","alibaba_url":null,"images":["https://xcimg.szwego.com/20210701/i1625119213_8469_0.jpg","https://xcimg.szwego.com/20210701/i1625119181_8565_8.jpg","https://xcimg.szwego.com/20210701/i1625119181_6401_2.jpg","https://xcimg.szwego.com/20210701/i1625119181_4163_3.jpg","https://xcimg.szwego.com/20210701/i1625119233_6043_0.jpg","https://xcimg.szwego.com/20210701/i1625119181_8310_4.jpg","https://xcimg.szwego.com/20210701/i1625119181_2541_5.jpg","https://xcimg.szwego.com/20210701/i1625119181_3042_6.jpg","https://xcimg.szwego.com/20210701/i1625119181_6094_7.jpg"],"created_at":"2025-02-08T12:47:00.831Z"},{"id":"item-02875ecda3bf","sku":"_dggggOD_THt9qYzslgxavyTWmhTPS47lnBKdYPw","name_en":"『Celine 赛琳』","name_cn":"『Celine 赛琳』\n\n七夕系列,Celine AVA TRIOMPHE标志印花手袋 腋下包lisa同款,单肩女包豌豆包®️61%涂层帆布,39%小牛皮\n尺寸:23cmX 14cmX 7cm\n型号:3112#","specs":{"source":"wsxcme","sourceId":"_dggggOD_THt9qYzslgxavyTWmhTPS47lnBKdYPw","sourceTagId":47003106,"sourceTagName":"塞琳/女包","modelNumber":"3112#","rawTitle":"『Celine 赛琳』\n\n七夕系列,Celine AVA TRIOMPHE标志印花手袋 腋下包lisa同款,单肩女包豌豆包®️61%涂层帆布,39%小牛皮\n尺寸:23cmX 14cmX 7cm\n型号:3112#"},"price":null,"currency":"CNY","moq":1,"category":"celine-women-bags","status":"active","alibaba_url":null,"images":["https://xcimg.szwego.com/20220330/i1648611851_8266_0.jpg","https://xcimg.szwego.com/20220330/i1648611851_1536_1.jpg","https://xcimg.szwego.com/20220330/i1648611851_6425_2.jpg","https://xcimg.szwego.com/20220330/i1648611851_1631_3.jpg","https://xcimg.szwego.com/20220330/i1648611851_6988_4.jpg","https://xcimg.szwego.com/20220330/i1648611851_9287_5.jpg","https://xcimg.szwego.com/20220330/i1648611851_927_6.jpg","https://xcimg.szwego.com/20220330/i1648611851_2521_7.jpg","https://xcimg.szwego.com/20220330/i1648611851_1521_8.jpg"],"created_at":"2025-02-08T12:47:15.817Z"},{"id":"item-0083e8ed085b","sku":"_da0a0Xa86hsJ8CYU2yJFwBzIjnRCk3uIr2g81Rw","name_en":"『Celine 赛琳』","name_cn":"『Celine 赛琳』\n\n🔥爆款💯系列🔥CABAS TRIOMPHE🛍帆布MiNi号竖款手袋\n65%涂层帆布,35%小牛皮\n100%棉衬里\n内侧插袋\n可调节可拆卸皮革肩带 长20英寸(50厘米)\n尺寸20X 17X 6厘米)\n型号:2200刺绣白花","specs":{"source":"wsxcme","sourceId":"_da0a0Xa86hsJ8CYU2yJFwBzIjnRCk3uIr2g81Rw","sourceTagId":47003106,"sourceTagName":"塞琳/女包","modelNumber":"2200刺绣白花","dimensions":{"lengthCm":20,"heightCm":17,"widthCm":6},"rawTitle":"『Celine 赛琳』\n\n🔥爆款💯系列🔥CABAS TRIOMPHE🛍帆布MiNi号竖款手袋\n65%涂层帆布,35%小牛皮\n100%棉衬里\n内侧插袋\n可调节可拆卸皮革肩带 长20英寸(50厘米)\n尺寸20X 17X 6厘米)\n型号:2200刺绣白花"},"price":null,"currency":"CNY","moq":1,"category":"celine-women-bags","status":"active","alibaba_url":null,"images":["https://xcimg.szwego.com/20210518/i1621270645_3777_0.jpg","https://xcimg.szwego.com/20210518/i1621270645_6850_1.jpg","https://xcimg.szwego.com/20210518/i1621270645_4739_2.jpg","https://xcimg.szwego.com/20210518/i1621270645_4019_3.jpg","https://xcimg.szwego.com/20210518/i1621270645_2070_4.jpg","https://xcimg.szwego.com/20210518/i1621270645_4031_5.jpg","https://xcimg.szwego.com/20210518/i1621270645_6900_6.jpg","https://xcimg.szwego.com/20210518/i1621270645_2141_7.jpg","https://xcimg.szwego.com/20210518/i1621270645_9179_8.jpg"],"created_at":"2025-02-08T12:47:00.821Z"},{"id":"item-007e7faa96b7","sku":"_dLhLhCKjOFTtV-KWSTheRwkElOAFgb80Bi6lM8w","name_en":"『Celine 赛琳』","name_cn":"『Celine 赛琳』\n\nCELINE腋下包印花AVA BAG首发款!韩国LISA热爱款 复古时髦风出镜 复古女孩look放送ing❤进口小牛皮 ,做工细节超赞!\n尺寸:24.18.7  \n型号:3112#","specs":{"source":"wsxcme","sourceId":"_dLhLhCKjOFTtV-KWSTheRwkElOAFgb80Bi6lM8w","sourceTagId":47003106,"sourceTagName":"塞琳/女包","modelNumber":"3112#","rawTitle":"『Celine 赛琳』\n\nCELINE腋下包印花AVA BAG首发款!韩国LISA热爱款 复古时髦风出镜 复古女孩look放送ing❤进口小牛皮 ,做工细节超赞!\n尺寸:24.18.7  \n型号:3112#"},"price":null,"currency":"CNY","moq":1,"category":"celine-women-bags","status":"active","alibaba_url":null,"images":["https://xcimg.szwego.com/20220330/i1648611954_7256_0.jpg","https://xcimg.szwego.com/20220330/i1648611954_3376_1.jpg","https://xcimg.szwego.com/20220330/i1648611954_9320_2.jpg","https://xcimg.szwego.com/20220330/i1648611954_5817_3.jpg","https://xcimg.szwego.com/20220330/i1648611954_3988_4.jpg","https://xcimg.szwego.com/20220330/i1648611954_3236_5.jpg","https://xcimg.szwego.com/20220330/i1648611954_9947_6.jpg","https://xcimg.szwego.com/20220330/i1648611954_7176_7.jpg","https://xcimg.szwego.com/20220330/i1648611954_4203_8.jpg"],"created_at":"2025-02-08T12:47:15.819Z"},{"id":"item-006858879cf7","sku":"_dZZZZaIbfrGLbBHswC0RJU8igN_fvsTzDAW4Q7w","name_en":"『Celine 赛琳』","name_cn":"『Celine 赛琳』\n\n🔗🔗19年🆕LOGO  匠心工艺 早春新颜色 全新升级版↖️花蝴蝶🧡年度最佳 、外 拼牛仔布  现代化简约及复古元素结合、   💃🏻💃🏻💃🏻逆袭经典box包   新设计凯门回旋扣、再次重塑经典👍 型号:187368 尺寸22*16*6","specs":{"source":"wsxcme","sourceId":"_dZZZZaIbfrGLbBHswC0RJU8igN_fvsTzDAW4Q7w","sourceTagId":47003106,"sourceTagName":"塞琳/女包","modelNumber":"187368 尺寸22*16*6","rawTitle":"『Celine 赛琳』\n\n🔗🔗19年🆕LOGO  匠心工艺 早春新颜色 全新升级版↖️花蝴蝶🧡年度最佳 、外 拼牛仔布  现代化简约及复古元素结合、   💃🏻💃🏻💃🏻逆袭经典box包   新设计凯门回旋扣、再次重塑经典👍 型号:187368 尺寸22*16*6"},"price":null,"currency":"CNY","moq":1,"category":"celine-women-bags","status":"active","alibaba_url":null,"images":["https://xcimg.szwego.com/20200512/a1589266747811_0617.jpg","https://xcimg.szwego.com/20200512/a1589266808423_4318.jpg","https://xcimg.szwego.com/20200512/a1589266808689_5665.jpg","https://xcimg.szwego.com/20200512/a1589266808970_0246.jpg","https://xcimg.szwego.com/20200512/a1589266809235_0218.jpg","https://xcimg.szwego.com/20200512/a1589266809609_6781.jpg","https://xcimg.szwego.com/20200512/a1589266809931_7248.jpg","https://xcimg.szwego.com/20200512/a1589266810206_7884.jpg","https://xcimg.szwego.com/20200512/a1589266810608_3671.jpg"],"created_at":"2025-02-08T12:47:15.842Z"},{"id":"item-001d8b5d7800","sku":"_dynynkcdQaJauel-DbNaY9QQ_UldQDNGn2X1w4w","name_en":"『Celine 赛琳』","name_cn":"『Celine 赛琳』\n\n凯旋门大号老花\n\n全新复古鎏金🆙\n经典老花pvc配头层牛皮🙌🏻\n大号尺寸超能装\n经典复古时尚\n\n尺寸22.5×16.5×7.5cm","specs":{"source":"wsxcme","sourceId":"_dynynkcdQaJauel-DbNaY9QQ_UldQDNGn2X1w4w","sourceTagId":47003106,"sourceTagName":"塞琳/女包","dimensions":{"lengthCm":22.5,"heightCm":16.5,"widthCm":7.5},"rawTitle":"『Celine 赛琳』\n\n凯旋门大号老花\n\n全新复古鎏金🆙\n经典老花pvc配头层牛皮🙌🏻\n大号尺寸超能装\n经典复古时尚\n\n尺寸22.5×16.5×7.5cm"},"price":null,"currency":"CNY","moq":1,"category":"celine-women-bags","status":"active","alibaba_url":null,"images":["https://xcimg.szwego.com/20220301/i1646114116_6513_0.jpg","https://xcimg.szwego.com/20220301/i1646114116_1328_1.jpg","https://xcimg.szwego.com/20220301/i1646114116_7395_2.jpg","https://xcimg.szwego.com/20220301/i1646114116_2339_3.jpg","https://xcimg.szwego.com/20220301/i1646114116_4964_4.jpg","https://xcimg.szwego.com/20220301/i1646114116_1267_5.jpg","https://xcimg.szwego.com/20220301/i1646114116_2963_6.jpg","https://xcimg.szwego.com/20220301/i1646114116_1898_7.jpg","https://xcimg.szwego.com/20220301/i1646114116_7289_8.jpg"],"created_at":"2025-02-08T12:47:00.857Z"},{"id":"item-68d55620aa26","sku":"_drDrDnZ_aBilOWPceOAC3kdBP7uNQXVhWvZf6cw","name_en":"『Dior 迪奥』","name_cn":"『Dior 迪奥』\n\n🆕小号【Di.or Book Tote】M1286 蓝D 💙小号\n\n尺寸:26.5 x 21 x 14 厘米\n\nTote最新尺寸小号,被种草了这个包🌿,比原本的小号短一点,显得非常秀气😘,既保留了小包的精致可爱,又兼具了大包的大容量,完全满足日常出行使用🙋🏻‍♀️,经典的老花刺绣,标志性的字母,时尚百搭又满满的复古气息🤗","specs":{"source":"wsxcme","sourceId":"_drDrDnZ_aBilOWPceOAC3kdBP7uNQXVhWvZf6cw","sourceTagId":47002747,"sourceTagName":"迪奥/女包","dimensions":{"lengthCm":26.5,"heightCm":21,"widthCm":14},"rawTitle":"『Dior 迪奥』\n\n🆕小号【Di.or Book Tote】M1286 蓝D 💙小号\n\n尺寸:26.5 x 21 x 14 厘米\n\nTote最新尺寸小号,被种草了这个包🌿,比原本的小号短一点,显得非常秀气😘,既保留了小包的精致可爱,又兼具了大包的大容量,完全满足日常出行使用🙋🏻‍♀️,经典的老花刺绣,标志性的字母,时尚百搭又满满的复古气息🤗"},"price":null,"currency":"CNY","moq":1,"category":"dior-women-bags","status":"active","alibaba_url":null,"images":["https://xcimg.szwego.com/20220301/i1646072216_5823_0.jpg","https://xcimg.szwego.com/20220301/i1646072216_1361_8.jpg","https://xcimg.szwego.com/20220301/i1646072216_2167_1.jpg","https://xcimg.szwego.com/20220301/i1646072216_8340_2.jpg","https://xcimg.szwego.com/20220301/i1646072216_6224_4.jpg","https://xcimg.szwego.com/20220301/i1646072216_377_3.jpg","https://xcimg.szwego.com/20220301/i1646072216_9386_5.jpg","https://xcimg.szwego.com/20220301/i1646072216_7618_6.jpg","https://xcimg.szwego.com/20220301/i1646072216_172_7.jpg"],"created_at":"2024-05-01T03:20:28.397Z"},{"id":"item-df5d4cad93fd","sku":"_d-J-J8FxZZpGuyoPqrh4DbztqodvsXiDsmPFdIw","name_en":"『PRADA 普拉达』","name_cn":"『PRADA 普拉达』\n\nPrad新品 出 鳄鱼纹牛皮 这只Prad 不止一点点酷哦,分分钟被它折服!一眼看中的酷盖包纯黑皮点缀银色小标朋克风拿捏住了,辣妹们请和它住 型号:1BD750","specs":{"source":"wsxcme","sourceId":"_d-J-J8FxZZpGuyoPqrh4DbztqodvsXiDsmPFdIw","sourceTagId":47002669,"sourceTagName":"普拉达/女包","modelNumber":"1BD750","rawTitle":"『PRADA 普拉达』\n\nPrad新品 出 鳄鱼纹牛皮 这只Prad 不止一点点酷哦,分分钟被它折服!一眼看中的酷盖包纯黑皮点缀银色小标朋克风拿捏住了,辣妹们请和它住 型号:1BD750"},"price":null,"currency":"CNY","moq":1,"category":"prada-women-bags","status":"active","alibaba_url":null,"images":["https://xcimg.szwego.com/20220701/i1656664878_8853_0.jpg","https://xcimg.szwego.com/20220701/i1656664878_9215_8.jpg","https://xcimg.szwego.com/20220701/i1656664878_7119_1.jpg","https://xcimg.szwego.com/20220701/i1656664878_4817_2.jpg","https://xcimg.szwego.com/20220701/i1656664878_6402_3.jpg","https://xcimg.szwego.com/20220701/i1656664878_2108_5.jpg","https://xcimg.szwego.com/20220701/i1656664878_6137_6.jpg","https://xcimg.szwego.com/20220701/i1656664878_6875_7.jpg","https://xcimg.szwego.com/20220701/i1656664937_3282_0.jpg"],"created_at":"2025-02-08T12:44:26.543Z"},{"id":"item-d9cabfc00c70","sku":"_dkXkXGwxddCgsE1mrH816GAhsZVPsvREMIlYX0g","name_en":"『PRADA 普拉达』","name_cn":"『PRADA 普拉达』\n\n新款 普拉达翻盖单肩斜挎包,型号2103,配置两条肩带,2020夏季新款时尚女包单肩包 条纹肩带真皮手袋,3⃣️隔层 [强]尺寸27-17-10cm","specs":{"source":"wsxcme","sourceId":"_dkXkXGwxddCgsE1mrH816GAhsZVPsvREMIlYX0g","sourceTagId":47002669,"sourceTagName":"普拉达/女包","modelNumber":"2103","rawTitle":"『PRADA 普拉达』\n\n新款 普拉达翻盖单肩斜挎包,型号2103,配置两条肩带,2020夏季新款时尚女包单肩包 条纹肩带真皮手袋,3⃣️隔层 [强]尺寸27-17-10cm"},"price":null,"currency":"CNY","moq":1,"category":"prada-women-bags","status":"active","alibaba_url":null,"images":["https://xcimg.szwego.com/20220415/i1649959092_7814_0.jpg","https://xcimg.szwego.com/20220415/i1649959092_499_1.jpg","https://xcimg.szwego.com/20220415/i1649959092_8931_2.jpg","https://xcimg.szwego.com/20220415/i1649959092_3702_3.jpg","https://xcimg.szwego.com/20220415/i1649959092_3843_4.jpg","https://xcimg.szwego.com/20220415/i1649959092_2780_5.jpg","https://xcimg.szwego.com/20220415/i1649959092_7548_6.jpg"],"created_at":"2025-02-08T12:44:26.542Z"},{"id":"item-ff37a1770d9a","sku":"_dBNBNdiPSIHTexv1FkAz_ECBDaDoO81Ip_NNGQw","name_en":"『YSL 圣罗兰』","name_cn":"『YSL 圣罗兰』\n\n超超超级无敌火爆款sunset,意大利订制的鳄鱼纹皮料,zp开模的五金,追求每一个每一个细节,高品质却不高价,跑量款~\n尺寸:22×8×16   \n型号:422906","specs":{"source":"wsxcme","sourceId":"_dBNBNdiPSIHTexv1FkAz_ECBDaDoO81Ip_NNGQw","sourceTagId":47002761,"sourceTagName":"圣罗兰/女包","modelNumber":"422906","rawTitle":"『YSL 圣罗兰』\n\n超超超级无敌火爆款sunset,意大利订制的鳄鱼纹皮料,zp开模的五金,追求每一个每一个细节,高品质却不高价,跑量款~\n尺寸:22×8×16   \n型号:422906"},"price":null,"currency":"CNY","moq":1,"category":"ysl-women-bags","status":"active","alibaba_url":null,"images":["https://xcimg.szwego.com/20201124/i1606154599_4659_0.jpg","https://xcimg.szwego.com/20201124/i1606154599_5256_1.jpg","https://xcimg.szwego.com/20201124/i1606154599_7688_2.jpg","https://xcimg.szwego.com/20201124/i1606154599_1854_3.jpg","https://xcimg.szwego.com/20201124/i1606154599_3885_4.jpg","https://xcimg.szwego.com/20201124/i1606154599_8965_5.jpg","https://xcimg.szwego.com/20201124/i1606154599_8433_6.jpg","https://xcimg.szwego.com/20201124/i1606154599_1293_7.jpg","https://xcimg.szwego.com/20201124/i1606154599_7627_8.jpg"],"created_at":"2025-02-08T12:45:27.780Z"},{"id":"item-fbe922d14a3c","sku":"_dafafVU2MUTXZw3JO4YqbNqk6P3UibUL3-aFapg","name_en":"『YSL 圣罗兰』","name_cn":"『YSL 圣罗兰』\n\n超超超级无敌火爆款sunset,意大利订制的鳄鱼纹皮料,zp开模的五金,追求每一个每一个细节,高品质却不高价,跑量款~ 尺寸:22×8×16 型号:422906","specs":{"source":"wsxcme","sourceId":"_dafafVU2MUTXZw3JO4YqbNqk6P3UibUL3-aFapg","sourceTagId":47002761,"sourceTagName":"圣罗兰/女包","modelNumber":"422906","rawTitle":"『YSL 圣罗兰』\n\n超超超级无敌火爆款sunset,意大利订制的鳄鱼纹皮料,zp开模的五金,追求每一个每一个细节,高品质却不高价,跑量款~ 尺寸:22×8×16 型号:422906"},"price":null,"currency":"CNY","moq":1,"category":"ysl-women-bags","status":"active","alibaba_url":null,"images":["https://xcimg.szwego.com/20220425/a1650897820388_1243.jpg","https://xcimg.szwego.com/20220425/a1650897820548_1636.jpg","https://xcimg.szwego.com/20220425/a1650897820738_0681.jpg","https://xcimg.szwego.com/20220425/a1650897820946_0521.jpg","https://xcimg.szwego.com/20220425/a1650897821135_5070.jpg","https://xcimg.szwego.com/20220425/a1650897821305_5052.jpg","https://xcimg.szwego.com/20220425/a1650897821455_6331.jpg","https://xcimg.szwego.com/20220425/a1650897821583_4646.jpg","https://xcimg.szwego.com/20220425/a1650897821847_5502.jpg"],"created_at":"2025-02-08T12:45:27.787Z"},{"id":"item-fae6056a0393","sku":"_dhPhPljHNvLA4El-wVyD9RJKYCcaJpXpwoyfGzA","name_en":"『YSL 圣罗兰』","name_cn":"『YSL 圣罗兰』\n\nLOULOU PUFFER 绗缝小羊皮包,100%小羊皮制作,手感柔软细腻,犹如怀抱云朵☁️般的感受;饰以 YSL 金属标志、哑光雾面的质感及其别致、银色拉丝金属饰件罗缎衬里磁性扣封口一个拉链内袋肩带长度:52厘米折叠后肩带长度:28厘米  \n尺寸:29x17x11cm\n型号:577476","specs":{"source":"wsxcme","sourceId":"_dhPhPljHNvLA4El-wVyD9RJKYCcaJpXpwoyfGzA","sourceTagId":47002761,"sourceTagName":"圣罗兰/女包","modelNumber":"577476","dimensions":{"lengthCm":29,"heightCm":17,"widthCm":11},"rawTitle":"『YSL 圣罗兰』\n\nLOULOU PUFFER 绗缝小羊皮包,100%小羊皮制作,手感柔软细腻,犹如怀抱云朵☁️般的感受;饰以 YSL 金属标志、哑光雾面的质感及其别致、银色拉丝金属饰件罗缎衬里磁性扣封口一个拉链内袋肩带长度:52厘米折叠后肩带长度:28厘米  \n尺寸:29x17x11cm\n型号:577476"},"price":null,"currency":"CNY","moq":1,"category":"ysl-women-bags","status":"active","alibaba_url":null,"images":["https://xcimg.szwego.com/20211103/i1635925569_5730_0.jpg","https://xcimg.szwego.com/20211103/i1635925569_6476_1.jpg","https://xcimg.szwego.com/20211103/i1635925569_4277_2.jpg","https://xcimg.szwego.com/20211103/i1635925569_5687_3.jpg","https://xcimg.szwego.com/20211103/i1635925569_92_4.jpg","https://xcimg.szwego.com/20211103/i1635925569_8449_5.jpg","https://xcimg.szwego.com/20211103/i1635925569_2979_6.jpg","https://xcimg.szwego.com/20211103/i1635925569_9871_7.jpg","https://xcimg.szwego.com/20211103/i1635925569_7836_8.jpg"],"created_at":"2025-02-08T12:45:27.774Z"},{"id":"item-f8b4aa2d2a69","sku":"_dtFtFbTs95TlCc7xyM8jzC2QIQ9Mr_68UT6xghw","name_en":"『YSL 圣罗兰』","name_cn":"『YSL 圣罗兰』\n\n超超超级无敌火爆款sunset,意大利订制的鳄鱼纹皮料,zp开模的五金,追求每一个每一个细节,高品质却不高价,跑量款~ 尺寸:22×8×16 型号:422906","specs":{"source":"wsxcme","sourceId":"_dtFtFbTs95TlCc7xyM8jzC2QIQ9Mr_68UT6xghw","sourceTagId":47002761,"sourceTagName":"圣罗兰/女包","modelNumber":"422906","rawTitle":"『YSL 圣罗兰』\n\n超超超级无敌火爆款sunset,意大利订制的鳄鱼纹皮料,zp开模的五金,追求每一个每一个细节,高品质却不高价,跑量款~ 尺寸:22×8×16 型号:422906"},"price":null,"currency":"CNY","moq":1,"category":"ysl-women-bags","status":"active","alibaba_url":null,"images":["https://xcimg.szwego.com/20220425/a1650897798520_2243.jpg","https://xcimg.szwego.com/20220425/a1650897798648_4742.jpg","https://xcimg.szwego.com/20220425/a1650897798784_5013.jpg","https://xcimg.szwego.com/20220425/a1650897798911_7520.jpg","https://xcimg.szwego.com/20220425/a1650897799071_7088.jpg","https://xcimg.szwego.com/20220425/a1650897799257_1423.jpg","https://xcimg.szwego.com/20220425/a1650897799471_6527.jpg","https://xcimg.szwego.com/20220425/a1650897799580_3241.jpg","https://xcimg.szwego.com/20220425/a1650897799681_0481.jpg"],"created_at":"2025-02-08T12:45:27.786Z"},{"id":"item-f77b0b77147d","sku":"_db_b_6SbuwpKlzCXY1Apd7jWCnA7zQ3KIsq9syQ","name_en":"『YSL 圣罗兰』","name_cn":"『YSL 圣罗兰』\n\n▪️LE 5 À 7▪️ \n\n今年火到爆炸的腋下包Y家虽迟但到!!️ 当时一看到,就觉得这个名字好特别,灵感来源于小众电影《Cléo from 5 to 7》,讲述的是下班后和回到家之间的5-7点,主角Cléo如何逐渐展露出独立女性一面的故事。再看回到包包本包上面,包身轮廓简洁、立体,看上去硬挺却不会太凌厉。 搭配上品牌标志性的插入式包扣,整体给人一种既经典优雅,又很时髦现代的独特气质\n型号:657228\n尺寸:24.5x16x6cm","specs":{"source":"wsxcme","sourceId":"_db_b_6SbuwpKlzCXY1Apd7jWCnA7zQ3KIsq9syQ","sourceTagId":47002761,"sourceTagName":"圣罗兰/女包","modelNumber":"657228","dimensions":{"lengthCm":24.5,"heightCm":16,"widthCm":6},"rawTitle":"『YSL 圣罗兰』\n\n▪️LE 5 À 7▪️ \n\n今年火到爆炸的腋下包Y家虽迟但到!!️ 当时一看到,就觉得这个名字好特别,灵感来源于小众电影《Cléo from 5 to 7》,讲述的是下班后和回到家之间的5-7点,主角Cléo如何逐渐展露出独立女性一面的故事。再看回到包包本包上面,包身轮廓简洁、立体,看上去硬挺却不会太凌厉。 搭配上品牌标志性的插入式包扣,整体给人一种既经典优雅,又很时髦现代的独特气质\n型号:657228\n尺寸:24.5x16x6cm"},"price":null,"currency":"CNY","moq":1,"category":"ysl-women-bags","status":"active","alibaba_url":null,"images":["https://xcimg.szwego.com/20210527/i1622092338_7365_0.jpg","https://xcimg.szwego.com/20210527/i1622092338_9630_1.jpg","https://xcimg.szwego.com/20210527/i1622092338_6134_2.jpg","https://xcimg.szwego.com/20210527/i1622092338_4460_3.jpg","https://xcimg.szwego.com/20210527/i1622092338_612_4.jpg","https://xcimg.szwego.com/20210527/i1622092338_5605_5.jpg","https://xcimg.szwego.com/20210527/i1622092338_7495_6.jpg","https://xcimg.szwego.com/20210527/i1622092338_9020_7.jpg","https://xcimg.szwego.com/20210527/i1622092338_4137_8.jpg"],"created_at":"2025-02-08T12:45:27.733Z"},{"id":"item-f37b4c63ee5c","sku":"_dc4c46SiNSKyyyIHbFmI-Vzj6Pnq0xE7NIHt7EA","name_en":"『YSL 圣罗兰』","name_cn":"『YSL 圣罗兰』\n\n新款Saint Laurent Paris💓YSL圣罗兰经典款👉款号:2120🔺采用进口手掌纹牛皮+鳄鱼🐊纹制做,原版定制五金,手感非常舒适,此款保留经典的Logo设计,💋💋尺寸:23*14*9cm","specs":{"source":"wsxcme","sourceId":"_dc4c46SiNSKyyyIHbFmI-Vzj6Pnq0xE7NIHt7EA","sourceTagId":47002761,"sourceTagName":"圣罗兰/女包","modelNumber":"2120🔺采用进口手掌纹牛皮+鳄鱼🐊纹制做","dimensions":{"lengthCm":23,"heightCm":14,"widthCm":9},"rawTitle":"『YSL 圣罗兰』\n\n新款Saint Laurent Paris💓YSL圣罗兰经典款👉款号:2120🔺采用进口手掌纹牛皮+鳄鱼🐊纹制做,原版定制五金,手感非常舒适,此款保留经典的Logo设计,💋💋尺寸:23*14*9cm"},"price":null,"currency":"CNY","moq":1,"category":"ysl-women-bags","status":"active","alibaba_url":null,"images":["https://xcimg.szwego.com/20220411/i1649608504_3128_0.jpg","https://xcimg.szwego.com/20220411/i1649608504_8974_1.jpg","https://xcimg.szwego.com/20220411/i1649608504_9863_2.jpg","https://xcimg.szwego.com/20220411/i1649608504_413_3.jpg","https://xcimg.szwego.com/20220411/i1649608504_4837_4.jpg"],"created_at":"2025-02-08T12:45:53.510Z"},{"id":"item-efc864464014","sku":"_dcpcpJLfXzqsUb1o5U1KklLfkq9mAK31wFRbmqA","name_en":"『YSL 圣罗兰』","name_cn":"『YSL 圣罗兰』\n\n专柜新款云朵型腋下链条包全新到货!有点独特的弯弧造型,能很好的贴合腋下曲线,使用舒适度upupup!采用柔软带皱褶的原厂牛皮精心裁制,看起来别有一番味道,手感也超有质感!包包整体自重超级轻,完全不会增加使用负担,随手拎起就走!整体设计复古而优雅,开口选用了一体成型的五金铰设计,日常使用时更加便捷!\n型号:681632\n尺寸:24x14x2cm","specs":{"source":"wsxcme","sourceId":"_dcpcpJLfXzqsUb1o5U1KklLfkq9mAK31wFRbmqA","sourceTagId":47002761,"sourceTagName":"圣罗兰/女包","modelNumber":"681632","dimensions":{"lengthCm":24,"heightCm":14,"widthCm":2},"rawTitle":"『YSL 圣罗兰』\n\n专柜新款云朵型腋下链条包全新到货!有点独特的弯弧造型,能很好的贴合腋下曲线,使用舒适度upupup!采用柔软带皱褶的原厂牛皮精心裁制,看起来别有一番味道,手感也超有质感!包包整体自重超级轻,完全不会增加使用负担,随手拎起就走!整体设计复古而优雅,开口选用了一体成型的五金铰设计,日常使用时更加便捷!\n型号:681632\n尺寸:24x14x2cm"},"price":null,"currency":"CNY","moq":1,"category":"ysl-women-bags","status":"active","alibaba_url":null,"images":["https://xcimg.szwego.com/20220616/i1655349364_2160_0.jpg","https://xcimg.szwego.com/20220616/i1655349364_9514_1.jpg","https://xcimg.szwego.com/20220616/i1655349364_6244_2.jpg","https://xcimg.szwego.com/20220616/i1655349364_8701_3.jpg","https://xcimg.szwego.com/20220616/i1655349364_2436_4.jpg","https://xcimg.szwego.com/20220616/i1655349364_5914_5.jpg","https://xcimg.szwego.com/20220616/i1655349364_7398_6.jpg","https://xcimg.szwego.com/20220616/i1655349364_361_7.jpg","https://xcimg.szwego.com/20220616/i1655349364_7272_8.jpg"],"created_at":"2025-02-08T12:45:53.507Z"},{"id":"item-ee4ae44156bf","sku":"_d8Y8YlC1-h_ci9WUVXl2PP1bZPrTJKAqMO6AcrQ","name_en":"『YSL 圣罗兰』","name_cn":"『YSL 圣罗兰』\n\n杏色高品质✨真正高质量,经典爆款💓圣家-正面翻盖皮夹,附可拆卸金属链条,金属互扣式 Y 标志,提花凸纹缝线装饰。尺寸22.5*14*4CM,型号:01740🔺100% 小牛皮!正面按扣封口!16个卡片隔层,1个零钱袋,2个钞票隔层💋💋","specs":{"source":"wsxcme","sourceId":"_d8Y8YlC1-h_ci9WUVXl2PP1bZPrTJKAqMO6AcrQ","sourceTagId":47002761,"sourceTagName":"圣罗兰/女包","modelNumber":"01740🔺100% 小牛皮!正面按扣封口!16个卡片隔层","dimensions":{"lengthCm":22.5,"heightCm":14,"widthCm":4},"rawTitle":"『YSL 圣罗兰』\n\n杏色高品质✨真正高质量,经典爆款💓圣家-正面翻盖皮夹,附可拆卸金属链条,金属互扣式 Y 标志,提花凸纹缝线装饰。尺寸22.5*14*4CM,型号:01740🔺100% 小牛皮!正面按扣封口!16个卡片隔层,1个零钱袋,2个钞票隔层💋💋"},"price":null,"currency":"CNY","moq":1,"category":"ysl-women-bags","status":"active","alibaba_url":null,"images":["https://xcimg.szwego.com/20200923/i1600836722_7513_0.jpg","https://xcimg.szwego.com/20200923/i1600836722_6454_1.jpg","https://xcimg.szwego.com/20200923/i1600836722_5564_2.jpg","https://xcimg.szwego.com/20200923/i1600836722_2042_3.jpg","https://xcimg.szwego.com/20200923/i1600836722_5224_4.jpg","https://xcimg.szwego.com/20200923/i1600836722_6566_5.jpg","https://xcimg.szwego.com/20200923/i1600836722_8604_6.jpg","https://xcimg.szwego.com/20200923/i1600836722_2805_7.jpg"],"created_at":"2025-02-08T12:45:27.761Z"}],"page":45,"pageSize":24,"total":10075,"totalPages":420}
