{"items":[{"id":"item-fb6652362837","sku":"_dmYmYdWdIX8OXfvxS1SLrZOAmkYrAQDHQYOdKoA","name_en":"🎉mini菜篮子🎉1BA349🎉🎉迷你号😘😘","name_cn":"🎉mini菜篮子🎉1BA349🎉🎉迷你号😘😘\n这款mini菜篮子采用进口鹿皮纹,内配进口小羊皮,格层多多,手感非常柔软/轻巧,经典迷你好看又好用👏👏,上身效果可可爱爱,太美了😘专柜限量款/爆款,赶紧入手吧🎉🎉\n长18x高16x底10cm🎉🎉🎉👏👏👏","specs":{"source":"wsxcme","sourceId":"_dmYmYdWdIX8OXfvxS1SLrZOAmkYrAQDHQYOdKoA","sourceTagId":47002669,"sourceTagName":"普拉达/女包","rawTitle":"🎉mini菜篮子🎉1BA349🎉🎉迷你号😘😘\n这款mini菜篮子采用进口鹿皮纹,内配进口小羊皮,格层多多,手感非常柔软/轻巧,经典迷你好看又好用👏👏,上身效果可可爱爱,太美了😘专柜限量款/爆款,赶紧入手吧🎉🎉\n长18x高16x底10cm🎉🎉🎉👏👏👏"},"price":null,"currency":"CNY","moq":1,"category":"prada-women-bags","status":"active","alibaba_url":null,"images":["https://xcimg.szwego.com/img/d707740b/20240101/i1704106319_6349_7.jpg","https://xcimg.szwego.com/img/d707740b/20240101/i1704106319_1788_8.jpg","https://xcimg.szwego.com/img/d707740b/20240101/i1704106319_9303_4.jpg","https://xcimg.szwego.com/img/d707740b/20240101/i1704106319_3627_6.jpg","https://xcimg.szwego.com/img/d707740b/20240101/i1704106318_3759_3.jpg","https://xcimg.szwego.com/img/d707740b/20240101/i1704106318_9979_2.jpg","https://xcimg.szwego.com/img/d707740b/20240101/i1704106318_165_1.jpg","https://xcimg.szwego.com/img/d707740b/20240101/i1704106318_6135_0.jpg","https://xcimg.szwego.com/img/d707740b/20240101/i1704106319_4753_5.jpg"],"created_at":"2025-01-20T12:53:04.529Z"},{"id":"item-ab198e9bf2a1","sku":"_djqjq8zHICyQJHATEElO6F1BpKkK5sul0XINLIw","name_en":"🎉mini菜篮子🎉1BA349🎉🎉迷你号😘😘","name_cn":"🎉mini菜篮子🎉1BA349🎉🎉迷你号😘😘\n这款mini菜篮子采用进口鹿皮纹,内配进口小羊皮,格层多多,手感非常柔软/轻巧,经典迷你好看又好用👏👏,上身效果可可爱爱,太美了😘专柜限量款/爆款,赶紧入手吧🎉🎉\n长18x高16x底10cm🎉🎉🎉👏👏👏","specs":{"source":"wsxcme","sourceId":"_djqjq8zHICyQJHATEElO6F1BpKkK5sul0XINLIw","sourceTagId":47002669,"sourceTagName":"普拉达/女包","rawTitle":"🎉mini菜篮子🎉1BA349🎉🎉迷你号😘😘\n这款mini菜篮子采用进口鹿皮纹,内配进口小羊皮,格层多多,手感非常柔软/轻巧,经典迷你好看又好用👏👏,上身效果可可爱爱,太美了😘专柜限量款/爆款,赶紧入手吧🎉🎉\n长18x高16x底10cm🎉🎉🎉👏👏👏"},"price":null,"currency":"CNY","moq":1,"category":"prada-women-bags","status":"active","alibaba_url":null,"images":["https://xcimg.szwego.com/img/d707740b/20240101/i1704106115_4058_0.jpg","https://xcimg.szwego.com/img/d707740b/20240101/i1704105567_8906_1.jpg","https://xcimg.szwego.com/img/d707740b/20240101/i1704105567_7905_2.jpg","https://xcimg.szwego.com/img/d707740b/20240101/i1704105567_9319_6.jpg","https://xcimg.szwego.com/img/d707740b/20240101/i1704105567_6400_5.jpg","https://xcimg.szwego.com/img/d707740b/20240101/i1704105567_7996_3.jpg","https://xcimg.szwego.com/img/d707740b/20240101/i1704105567_8048_7.jpg","https://xcimg.szwego.com/img/d707740b/20240101/i1704105567_1783_8.jpg","https://xcimg.szwego.com/img/d707740b/20240101/i1704105567_7596_4.jpg"],"created_at":"2025-01-20T12:53:04.530Z"},{"id":"item-597c68e74b10","sku":"_dpnpn2o4nfN44G70vrtO4l3g96Q9DtBIcicgAgQ","name_en":"🎉mini菜篮子🎉1BA349🎉🎉迷你号😘😘","name_cn":"🎉mini菜篮子🎉1BA349🎉🎉迷你号😘😘\n这款mini菜篮子采用进口鹿皮纹,内配进口小羊皮,格层多多,手感非常柔软/轻巧,经典迷你好看又好用👏👏,上身效果可可爱爱,太美了😘专柜限量款/爆款,赶紧入手吧🎉🎉\n长18x高16x底10cm🎉🎉🎉👏👏👏","specs":{"source":"wsxcme","sourceId":"_dpnpn2o4nfN44G70vrtO4l3g96Q9DtBIcicgAgQ","sourceTagId":47002669,"sourceTagName":"普拉达/女包","rawTitle":"🎉mini菜篮子🎉1BA349🎉🎉迷你号😘😘\n这款mini菜篮子采用进口鹿皮纹,内配进口小羊皮,格层多多,手感非常柔软/轻巧,经典迷你好看又好用👏👏,上身效果可可爱爱,太美了😘专柜限量款/爆款,赶紧入手吧🎉🎉\n长18x高16x底10cm🎉🎉🎉👏👏👏"},"price":null,"currency":"CNY","moq":1,"category":"prada-women-bags","status":"active","alibaba_url":null,"images":["https://xcimg.szwego.com/img/d707740b/20240101/i1704106890_1418_8.jpg","https://xcimg.szwego.com/img/d707740b/20240101/i1704106890_5371_2.jpg","https://xcimg.szwego.com/img/d707740b/20240101/i1704106890_4795_7.jpg","https://xcimg.szwego.com/img/d707740b/20240101/i1704106890_7396_4.jpg","https://xcimg.szwego.com/img/d707740b/20240101/i1704106890_6963_3.jpg","https://xcimg.szwego.com/img/d707740b/20240101/i1704106890_6722_0.jpg","https://xcimg.szwego.com/img/d707740b/20240101/i1704106890_1290_6.jpg","https://xcimg.szwego.com/img/d707740b/20240101/i1704106890_3033_5.jpg","https://xcimg.szwego.com/img/d707740b/20240101/i1704106890_320_1.jpg"],"created_at":"2025-01-20T12:53:04.531Z"},{"id":"item-3f41218e511e","sku":"_dS7S7RceedYScnA_a-bcsalO8muQUUb0EmtMVgg","name_en":"🎉Prada新款nylon Hobo手拎/金色五金腋下包😘😘网红姐妹团疯狂种草而风靡时尚圈的hobo 出了新款!👏👏这款Hobo包设计太棒了👍👍一包三用😘😘腰包/斜挎/单挎👍👍把手柄换成了链条,当腋下包多了一抹子性感,还配上长肩带,最爱的是肩带还挂着个小挂饰(小包),也可以挂其它包和裤头当饰品呼应 🙊🙊平常各种衣着搭配都没 问题😘","name_cn":"🎉Prada新款nylon Hobo手拎/金色五金腋下包😘😘网红姐妹团疯狂种草而风靡时尚圈的hobo 出了新款!👏👏这款Hobo包设计太棒了👍👍一包三用😘😘腰包/斜挎/单挎👍👍把手柄换成了链条,当腋下包多了一抹子性感,还配上长肩带,最爱的是肩带还挂着个小挂饰(小包),也可以挂其它包和裤头当饰品呼应 🙊🙊平常各种衣着搭配都没 问题😘😘宝宝们赶紧入手哦,太美了🙊🙊型号:1BH204,尺寸:长22X高12x底6cm","specs":{"source":"wsxcme","sourceId":"_dS7S7RceedYScnA_a-bcsalO8muQUUb0EmtMVgg","sourceTagId":47002669,"sourceTagName":"普拉达/女包","modelNumber":"1BH204","rawTitle":"🎉Prada新款nylon Hobo手拎/金色五金腋下包😘😘网红姐妹团疯狂种草而风靡时尚圈的hobo 出了新款!👏👏这款Hobo包设计太棒了👍👍一包三用😘😘腰包/斜挎/单挎👍👍把手柄换成了链条,当腋下包多了一抹子性感,还配上长肩带,最爱的是肩带还挂着个小挂饰(小包),也可以挂其它包和裤头当饰品呼应 🙊🙊平常各种衣着搭配都没 问题😘😘宝宝们赶紧入手哦,太美了🙊🙊型号:1BH204,尺寸:长22X高12x底6cm"},"price":null,"currency":"CNY","moq":1,"category":"prada-women-bags","status":"active","alibaba_url":null,"images":["https://xcimg.szwego.com/img/4ebdbb7c/20231207/i1701883395_9399_6.jpg","https://xcimg.szwego.com/img/4ebdbb7c/20231207/i1701883395_9400_7.jpg","https://xcimg.szwego.com/img/4ebdbb7c/20231207/i1701883395_5695_5.jpg","https://xcimg.szwego.com/img/4ebdbb7c/20231207/i1701883395_9028_0.jpg","https://xcimg.szwego.com/img/4ebdbb7c/20231207/i1701883395_4520_3.jpg","https://xcimg.szwego.com/img/4ebdbb7c/20231207/i1701883395_93_4.jpg","https://xcimg.szwego.com/img/4ebdbb7c/20231207/i1701883395_8775_2.jpg","https://xcimg.szwego.com/img/4ebdbb7c/20231207/i1701883395_1759_8.jpg","https://xcimg.szwego.com/img/4ebdbb7c/20231207/i1701883395_1911_1.jpg"],"created_at":"2025-01-20T12:53:04.496Z"},{"id":"item-f583a0b5f7dd","sku":"_di1i1D_dxYYEFgIi8tjNJNhnqs4bkPtLs9sRM9w","name_en":"🎉Prada新款nylon Hobo手拎/腋下包😘😘网红姐妹团疯狂种草而风靡时尚圈的hobo 出了新款!👏👏这款Hobo包设计太棒了👍👍一包三用😘😘腰包/斜挎/单挎👍👍把手柄换成了链条,当腋下包多了一抹子性感,还配上长肩带,最爱的是肩带还挂着个小挂饰(小包),也可以挂其它包和裤头当饰品呼应 🙊🙊平常各种衣着搭配都没 问题😘😘宝宝","name_cn":"🎉Prada新款nylon Hobo手拎/腋下包😘😘网红姐妹团疯狂种草而风靡时尚圈的hobo 出了新款!👏👏这款Hobo包设计太棒了👍👍一包三用😘😘腰包/斜挎/单挎👍👍把手柄换成了链条,当腋下包多了一抹子性感,还配上长肩带,最爱的是肩带还挂着个小挂饰(小包),也可以挂其它包和裤头当饰品呼应 🙊🙊平常各种衣着搭配都没 问题😘😘宝宝们赶紧入手哦,太美了🙊🙊型号:1BH204,尺寸:长22X高12x底6cm","specs":{"source":"wsxcme","sourceId":"_di1i1D_dxYYEFgIi8tjNJNhnqs4bkPtLs9sRM9w","sourceTagId":47002669,"sourceTagName":"普拉达/女包","modelNumber":"1BH204","rawTitle":"🎉Prada新款nylon Hobo手拎/腋下包😘😘网红姐妹团疯狂种草而风靡时尚圈的hobo 出了新款!👏👏这款Hobo包设计太棒了👍👍一包三用😘😘腰包/斜挎/单挎👍👍把手柄换成了链条,当腋下包多了一抹子性感,还配上长肩带,最爱的是肩带还挂着个小挂饰(小包),也可以挂其它包和裤头当饰品呼应 🙊🙊平常各种衣着搭配都没 问题😘😘宝宝们赶紧入手哦,太美了🙊🙊型号:1BH204,尺寸:长22X高12x底6cm"},"price":null,"currency":"CNY","moq":1,"category":"prada-women-bags","status":"active","alibaba_url":null,"images":["https://xcimg.szwego.com/20210527/i1622101419_6711_0.jpg","https://xcimg.szwego.com/20210527/i1622101419_6079_1.jpg","https://xcimg.szwego.com/20210527/i1622101419_3120_2.jpg","https://xcimg.szwego.com/20210527/i1622101419_68_3.jpg","https://xcimg.szwego.com/20210527/i1622101419_1620_4.jpg","https://xcimg.szwego.com/20210527/i1622101419_8767_5.jpg","https://xcimg.szwego.com/20210527/i1622101419_7522_6.jpg","https://xcimg.szwego.com/20210527/i1622101419_1764_7.jpg","https://xcimg.szwego.com/20210527/i1622101419_2810_8.jpg"],"created_at":"2025-01-20T12:53:04.475Z"},{"id":"item-ca0f7302fcff","sku":"_dvnvn9vNU1OPR2CeYL67YT5z4qlVd5FKTrmy9fQ","name_en":"🎉Softlux油腊皮🎉迷你号🎉🎉","name_cn":"🎉Softlux油腊皮🎉迷你号🎉🎉\n这款迷你手提斜挎包采用进口油腊皮,油亮的色泽散发出古典气息,配有一条可拆卸调节的长肩带,斜挎,手提,肩带,满足所有背法👏👏容量空间非常大,巨巨好用👏,绝对是时商达人们的必备款,小小尺寸,真的太太可爱了😘😘赶紧把这款复古格调手拎包带回家吧!\n型号:1BA486\n尺寸:23.5x12x9cm","specs":{"source":"wsxcme","sourceId":"_dvnvn9vNU1OPR2CeYL67YT5z4qlVd5FKTrmy9fQ","sourceTagId":47002669,"sourceTagName":"普拉达/女包","modelNumber":"1BA486","dimensions":{"lengthCm":23.5,"heightCm":12,"widthCm":9},"rawTitle":"🎉Softlux油腊皮🎉迷你号🎉🎉\n这款迷你手提斜挎包采用进口油腊皮,油亮的色泽散发出古典气息,配有一条可拆卸调节的长肩带,斜挎,手提,肩带,满足所有背法👏👏容量空间非常大,巨巨好用👏,绝对是时商达人们的必备款,小小尺寸,真的太太可爱了😘😘赶紧把这款复古格调手拎包带回家吧!\n型号:1BA486\n尺寸:23.5x12x9cm"},"price":null,"currency":"CNY","moq":1,"category":"prada-women-bags","status":"active","alibaba_url":null,"images":["https://xcimg.szwego.com/img/cad1e969/20260614/i1781369689294_8919_0_0.jpg","https://xcimg.szwego.com/img/cad1e969/20260614/i1781369686364_8606_0_1.jpg","https://xcimg.szwego.com/img/cad1e969/20260614/i1781369683603_73_0_2.jpg","https://xcimg.szwego.com/img/cad1e969/20260614/i1781369686373_5223_0_3.jpg","https://xcimg.szwego.com/img/cad1e969/20260614/i1781369683603_8813_0_4.jpg","https://xcimg.szwego.com/img/cad1e969/20260614/i1781369683603_4798_0_5.jpg","https://xcimg.szwego.com/img/cad1e969/20260614/i1781369683603_5896_0_6.jpg","https://xcimg.szwego.com/img/cad1e969/20260614/i1781369683603_8625_0_7.jpg","https://xcimg.szwego.com/img/cad1e969/20260614/i1781369686507_5907_0_8.jpg"],"created_at":"2026-06-29T11:07:24.207Z"},{"id":"item-40fc46094736","sku":"_dwLwLYyWpY2CqtdbJzQTHtTyBaOYG-pzVNNgnow","name_en":"🎉Softlux油腊皮🎉迷你号🎉🎉","name_cn":"🎉Softlux油腊皮🎉迷你号🎉🎉\n这款迷你手提斜挎包采用进口油腊皮,油亮的色泽散发出古典气息,配有一条可拆卸调节的长肩带,斜挎,手提,肩带,满足所有背法👏👏容量空间非常大,巨巨好用👏,绝对是时商达人们的必备款,小小尺寸,真的太太可爱了😘😘赶紧把这款复古格调手拎包带回家吧!\n型号:1BA486\n尺寸:23.5x12x9cm","specs":{"source":"wsxcme","sourceId":"_dwLwLYyWpY2CqtdbJzQTHtTyBaOYG-pzVNNgnow","sourceTagId":47002669,"sourceTagName":"普拉达/女包","modelNumber":"1BA486","dimensions":{"lengthCm":23.5,"heightCm":12,"widthCm":9},"rawTitle":"🎉Softlux油腊皮🎉迷你号🎉🎉\n这款迷你手提斜挎包采用进口油腊皮,油亮的色泽散发出古典气息,配有一条可拆卸调节的长肩带,斜挎,手提,肩带,满足所有背法👏👏容量空间非常大,巨巨好用👏,绝对是时商达人们的必备款,小小尺寸,真的太太可爱了😘😘赶紧把这款复古格调手拎包带回家吧!\n型号:1BA486\n尺寸:23.5x12x9cm"},"price":null,"currency":"CNY","moq":1,"category":"prada-women-bags","status":"active","alibaba_url":null,"images":["https://xcimg.szwego.com/img/cad1e969/20260614/i1781369819358_5291_0_0.jpg","https://xcimg.szwego.com/img/cad1e969/20260614/i1781369821156_460_0_1.jpg","https://xcimg.szwego.com/img/cad1e969/20260614/i1781369819440_9115_0_2.jpg","https://xcimg.szwego.com/img/cad1e969/20260614/i1781369821168_9110_0_3.jpg","https://xcimg.szwego.com/img/cad1e969/20260614/i1781369821182_9034_0_4.jpg","https://xcimg.szwego.com/img/cad1e969/20260614/i1781369819440_9142_0_5.jpg","https://xcimg.szwego.com/img/cad1e969/20260614/i1781369821212_7076_0_6.jpg","https://xcimg.szwego.com/img/cad1e969/20260614/i1781369819457_2563_0_7.jpg","https://xcimg.szwego.com/img/cad1e969/20260614/i1781369819582_8168_0_8.jpg"],"created_at":"2026-06-29T11:07:24.217Z"},{"id":"item-79d0ab380c43","sku":"_dKcKck2psVCDGiTzZwWEiCkhVi-PNG9yNJ1GJBQ","name_en":"🎐SOLFERINO BOX 🎐","name_cn":"🎐SOLFERINO BOX 🎐\n「秋冬最新色」       \n2020 IT BAG_必火爆款,还没上市就攻陷了整个时尚圈,怀旧左岸,灵感来自巴黎左岸街名Rue De Solferino为名!包包采用原厂细牙签纹Box牛皮,手感及皮面的柔韧度都非常好!内里设计三层风琴隔,可轻松容纳日常所需物品,全新设计的“L”字母上下对半开扣,彻底颠覆你对包扣的认知,不禁让人发出惊叹,原来还能这样开包包,简直不要太有趣了!\n型号:634306.Zx尺寸:19x13x5cm","specs":{"source":"wsxcme","sourceId":"_dKcKck2psVCDGiTzZwWEiCkhVi-PNG9yNJ1GJBQ","sourceTagId":47002761,"sourceTagName":"圣罗兰/女包","modelNumber":"634306.Zx尺寸:19x13x5cm","dimensions":{"lengthCm":19,"heightCm":13,"widthCm":5},"rawTitle":"🎐SOLFERINO BOX 🎐\n「秋冬最新色」       \n2020 IT BAG_必火爆款,还没上市就攻陷了整个时尚圈,怀旧左岸,灵感来自巴黎左岸街名Rue De Solferino为名!包包采用原厂细牙签纹Box牛皮,手感及皮面的柔韧度都非常好!内里设计三层风琴隔,可轻松容纳日常所需物品,全新设计的“L”字母上下对半开扣,彻底颠覆你对包扣的认知,不禁让人发出惊叹,原来还能这样开包包,简直不要太有趣了!\n型号:634306.Zx尺寸:19x13x5cm"},"price":null,"currency":"CNY","moq":1,"category":"ysl-women-bags","status":"active","alibaba_url":null,"images":["https://xcimg.szwego.com/img/c531d0e5/20240702/i1719916132_2105_1.jpg","https://xcimg.szwego.com/img/c531d0e5/20240702/i1719916132_6376_2.jpg","https://xcimg.szwego.com/img/c531d0e5/20240702/i1719916133_7445_8.jpg","https://xcimg.szwego.com/img/c531d0e5/20240702/i1719916132_1369_4.jpg","https://xcimg.szwego.com/img/c531d0e5/20240702/i1719916132_1201_5.jpg","https://xcimg.szwego.com/img/c531d0e5/20240702/i1719916132_7030_6.jpg","https://xcimg.szwego.com/img/c531d0e5/20240702/i1719916132_4582_0.jpg","https://xcimg.szwego.com/img/c531d0e5/20240702/i1719916133_748_7.jpg","https://xcimg.szwego.com/img/c531d0e5/20240702/i1719916132_3854_3.jpg"],"created_at":"2024-12-08T05:43:07.265Z"},{"id":"item-3e0891202e18","sku":"_dcncnsJnBLhdXAcBouqXYb5s7gQ3b4r2Ibqry4g","name_en":"🎖️枫叶🍁色!一款多变的色彩风格🌬🌟🌟🌟现货!CHANEL 2024亮片包\"CF亮片包走进去一眼看中了黑色喜欢就一眼就够了枫叶🍁色!很春天考虑耐看和高级感没犹豫直接拿了黑色这个CF亮片要比皮料的款式出彩容量实用体积适中属于会珍藏的款式!尺寸20cm","name_cn":"🎖️枫叶🍁色!一款多变的色彩风格🌬🌟🌟🌟现货!CHANEL 2024亮片包\"CF亮片包走进去一眼看中了黑色喜欢就一眼就够了枫叶🍁色!很春天考虑耐看和高级感没犹豫直接拿了黑色这个CF亮片要比皮料的款式出彩容量实用体积适中属于会珍藏的款式!尺寸20cm","specs":{"source":"wsxcme","sourceId":"_dcncnsJnBLhdXAcBouqXYb5s7gQ3b4r2Ibqry4g","sourceTagId":47002745,"sourceTagName":"香奈儿/女包","rawTitle":"🎖️枫叶🍁色!一款多变的色彩风格🌬🌟🌟🌟现货!CHANEL 2024亮片包\"CF亮片包走进去一眼看中了黑色喜欢就一眼就够了枫叶🍁色!很春天考虑耐看和高级感没犹豫直接拿了黑色这个CF亮片要比皮料的款式出彩容量实用体积适中属于会珍藏的款式!尺寸20cm"},"price":null,"currency":"CNY","moq":1,"category":"chanel-women-bags","status":"active","alibaba_url":null,"images":["https://xcimg.szwego.com/img/d0c94e6f/20240421/i1713692586_2366_0.jpg","https://xcimg.szwego.com/img/d0c94e6f/20240421/i1713692586_3208_8.jpg","https://xcimg.szwego.com/img/d0c94e6f/20240421/i1713692586_1482_3.jpg","https://xcimg.szwego.com/img/d0c94e6f/20240421/i1713692586_9060_7.jpg","https://xcimg.szwego.com/img/d0c94e6f/20240421/i1713692586_8224_5.jpg","https://xcimg.szwego.com/img/d0c94e6f/20240421/i1713692586_3422_6.jpg","https://xcimg.szwego.com/img/d0c94e6f/20240421/i1713692586_1405_2.jpg","https://xcimg.szwego.com/img/d0c94e6f/20240421/i1713692586_2912_1.jpg","https://xcimg.szwego.com/img/d0c94e6f/20240421/i1713692586_68_4.jpg"],"created_at":"2024-05-03T07:22:12.515Z"},{"id":"item-b85a300e21bf","sku":"_dprprev4WYJ7YBpYjN_LhrOs7Hg8niTqnQhEu7g","name_en":"🎶🥖baguette中号法棍包 荔枝纹牛皮采用同色系大号明线手工缝制 银色饰面金属件。缀以FF搭扣。手袋配备提手和可拆卸肩带,可手提或肩挎。","name_cn":"🎶🥖baguette中号法棍包 荔枝纹牛皮采用同色系大号明线手工缝制 银色饰面金属件。缀以FF搭扣。手袋配备提手和可拆卸肩带,可手提或肩挎。\nSize: 20-5-13cm   荔枝•","specs":{"source":"wsxcme","sourceId":"_dprprev4WYJ7YBpYjN_LhrOs7Hg8niTqnQhEu7g","sourceTagId":47002731,"sourceTagName":"芬迪/女包","rawTitle":"🎶🥖baguette中号法棍包 荔枝纹牛皮采用同色系大号明线手工缝制 银色饰面金属件。缀以FF搭扣。手袋配备提手和可拆卸肩带,可手提或肩挎。\nSize: 20-5-13cm   荔枝•"},"price":null,"currency":"CNY","moq":1,"category":"fendi-women-bags","status":"active","alibaba_url":null,"images":["https://xcimg.szwego.com/img/cccb0351/20260616/i1781588219393_4213_0_0.jpg","https://xcimg.szwego.com/img/cccb0351/20260616/i1781588219841_1333_0_1.jpg","https://xcimg.szwego.com/img/cccb0351/20260616/i1781588218958_1568_0_2.jpg","https://xcimg.szwego.com/img/cccb0351/20260616/i1781588219412_4948_0_3.jpg","https://xcimg.szwego.com/img/cccb0351/20260616/i1781588218925_2311_0_4.jpg","https://xcimg.szwego.com/img/cccb0351/20260616/i1781588219880_3210_0_5.jpg","https://xcimg.szwego.com/img/cccb0351/20260616/i1781588218964_8665_0_6.jpg","https://xcimg.szwego.com/img/cccb0351/20260616/i1781588219424_1321_0_7.jpg","https://xcimg.szwego.com/img/cccb0351/20260616/i1781588219843_4622_0_8.jpg"],"created_at":"2026-06-29T10:22:09.572Z"},{"id":"item-2cd7f443d0be","sku":"_dmUmUbj0l-dTFSjQboXrSMmV_b-ER6oDpQa6PLQ","name_en":"🎶🥖baguette中号法棍包 荔枝纹牛皮采用同色系大号明线手工缝制 银色饰面金属件。缀以FF搭扣。手袋配备提手和可拆卸肩带,可手提或肩挎。","name_cn":"🎶🥖baguette中号法棍包 荔枝纹牛皮采用同色系大号明线手工缝制 银色饰面金属件。缀以FF搭扣。手袋配备提手和可拆卸肩带,可手提或肩挎。\nSize: 20-5-13cm   荔枝•","specs":{"source":"wsxcme","sourceId":"_dmUmUbj0l-dTFSjQboXrSMmV_b-ER6oDpQa6PLQ","sourceTagId":47002731,"sourceTagName":"芬迪/女包","rawTitle":"🎶🥖baguette中号法棍包 荔枝纹牛皮采用同色系大号明线手工缝制 银色饰面金属件。缀以FF搭扣。手袋配备提手和可拆卸肩带,可手提或肩挎。\nSize: 20-5-13cm   荔枝•"},"price":null,"currency":"CNY","moq":1,"category":"fendi-women-bags","status":"active","alibaba_url":null,"images":["https://xcimg.szwego.com/img/cccb0351/20260616/i1781588231977_4836_0_0.jpg","https://xcimg.szwego.com/img/cccb0351/20260616/i1781588231509_9889_0_1.jpg","https://xcimg.szwego.com/img/cccb0351/20260616/i1781588232364_423_0_2.jpg","https://xcimg.szwego.com/img/cccb0351/20260616/i1781588231957_8139_0_3.jpg","https://xcimg.szwego.com/img/cccb0351/20260616/i1781588231565_8560_0_4.jpg","https://xcimg.szwego.com/img/cccb0351/20260616/i1781588231997_9577_0_5.jpg","https://xcimg.szwego.com/img/cccb0351/20260616/i1781588232392_4020_0_6.jpg","https://xcimg.szwego.com/img/cccb0351/20260616/i1781588232423_3310_0_7.jpg","https://xcimg.szwego.com/img/cccb0351/20260616/i1781588231536_5830_0_8.jpg"],"created_at":"2026-06-29T10:22:09.582Z"},{"id":"item-23f49bfb299e","sku":"_di8i83SaEMFjW2GIJXE-PGY7XINHoLvJkcV2Ahw","name_en":"🎶🥖baguette中号法棍包 荔枝纹牛皮采用同色系大号明线手工缝制 银色饰面金属件。缀以FF搭扣。手袋配备提手和可拆卸肩带,可手提或肩挎。","name_cn":"🎶🥖baguette中号法棍包 荔枝纹牛皮采用同色系大号明线手工缝制 银色饰面金属件。缀以FF搭扣。手袋配备提手和可拆卸肩带,可手提或肩挎。\nSize: 20-5-13cm   荔枝•","specs":{"source":"wsxcme","sourceId":"_di8i83SaEMFjW2GIJXE-PGY7XINHoLvJkcV2Ahw","sourceTagId":47002731,"sourceTagName":"芬迪/女包","rawTitle":"🎶🥖baguette中号法棍包 荔枝纹牛皮采用同色系大号明线手工缝制 银色饰面金属件。缀以FF搭扣。手袋配备提手和可拆卸肩带,可手提或肩挎。\nSize: 20-5-13cm   荔枝•"},"price":null,"currency":"CNY","moq":1,"category":"fendi-women-bags","status":"active","alibaba_url":null,"images":["https://xcimg.szwego.com/img/cccb0351/20260616/i1781588205527_6125_0_0.jpg","https://xcimg.szwego.com/img/cccb0351/20260616/i1781588205944_9770_0_1.jpg","https://xcimg.szwego.com/img/cccb0351/20260616/i1781588205552_589_0_2.jpg","https://xcimg.szwego.com/img/cccb0351/20260616/i1781588205506_3023_0_3.jpg","https://xcimg.szwego.com/img/cccb0351/20260616/i1781588206393_578_0_4.jpg","https://xcimg.szwego.com/img/cccb0351/20260616/i1781588205971_6095_0_5.jpg","https://xcimg.szwego.com/img/cccb0351/20260616/i1781588205985_9436_0_6.jpg","https://xcimg.szwego.com/img/cccb0351/20260616/i1781588206362_2824_0_7.jpg","https://xcimg.szwego.com/img/cccb0351/20260616/i1781588206389_8232_0_8.jpg"],"created_at":"2026-06-29T10:22:09.562Z"},{"id":"item-699b9156bc60","sku":"_dmSmSAxndrRiMiCBx5qLP23jPcpji-cENieY2WA","name_en":"🏠🏠SAINT LAURENT 圣罗兰 2019最新款,进口南非皮搭配进口YKK五金!!️,每一针每一线都非常精细彻底,每一寸每一尺都一丝不差,不怕货比货 就怕不识货!市场原版最好的货!!️专注高端 ❗ 编码26602 配送双肩带..尺寸:25/17/8cm","name_cn":"🏠🏠SAINT LAURENT 圣罗兰 2019最新款,进口南非皮搭配进口YKK五金!!️,每一针每一线都非常精细彻底,每一寸每一尺都一丝不差,不怕货比货 就怕不识货!市场原版最好的货!!️专注高端 ❗ 编码26602 配送双肩带..尺寸:25/17/8cm","specs":{"source":"wsxcme","sourceId":"_dmSmSAxndrRiMiCBx5qLP23jPcpji-cENieY2WA","sourceTagId":47002761,"sourceTagName":"圣罗兰/女包","rawTitle":"🏠🏠SAINT LAURENT 圣罗兰 2019最新款,进口南非皮搭配进口YKK五金!!️,每一针每一线都非常精细彻底,每一寸每一尺都一丝不差,不怕货比货 就怕不识货!市场原版最好的货!!️专注高端 ❗ 编码26602 配送双肩带..尺寸:25/17/8cm"},"price":null,"currency":"CNY","moq":1,"category":"ysl-women-bags","status":"active","alibaba_url":null,"images":["https://xcimg.szwego.com/20220625/i1656169950_1699_0.jpg","https://xcimg.szwego.com/20220625/i1656169950_7007_1.jpg","https://xcimg.szwego.com/20220625/i1656169950_1197_2.jpg","https://xcimg.szwego.com/20220625/i1656169950_178_3.jpg","https://xcimg.szwego.com/20220625/i1656169950_3776_4.jpg","https://xcimg.szwego.com/20220625/i1656169950_4472_5.jpg","https://xcimg.szwego.com/20220625/i1656169950_5316_6.jpg","https://xcimg.szwego.com/20220625/i1656169950_2848_7.jpg","https://xcimg.szwego.com/20220625/i1656169953_3625_0.jpg"],"created_at":"2025-02-08T12:45:53.565Z"},{"id":"item-dd0973b801ab","sku":"_dr5r5z4JUrwPpm10I4c9OIYOL-dlJLMk4WwaQDw","name_en":"🐎Birkin 25cm Epsom皮 手工蜡线缝太妃糖】","name_cn":"🐎Birkin 25cm Epsom皮 手工蜡线缝太妃糖】","specs":{"source":"wsxcme","sourceId":"_dr5r5z4JUrwPpm10I4c9OIYOL-dlJLMk4WwaQDw","sourceTagId":76963559,"sourceTagName":"爱马仕/女包","rawTitle":"🐎Birkin 25cm Epsom皮 手工蜡线缝太妃糖】"},"price":null,"currency":"CNY","moq":1,"category":"hermes-women-bags","status":"active","alibaba_url":null,"images":["https://xcimg.szwego.com/20240731/i1722406345_5525_0.jpg","https://xcimg.szwego.com/20240731/i1722406345_5499_1.jpg","https://xcimg.szwego.com/20240731/i1722406345_2161_2.jpg","https://xcimg.szwego.com/20240731/i1722406345_8299_3.jpg","https://xcimg.szwego.com/20240731/i1722406345_9764_4.jpg","https://xcimg.szwego.com/20240731/i1722406345_3759_5.jpg","https://xcimg.szwego.com/20240731/i1722406345_6614_6.jpg","https://xcimg.szwego.com/20240731/i1722406345_3420_7.jpg","https://xcimg.szwego.com/20240731/i1722406345_455_8.jpg"],"created_at":"2024-10-22T05:00:12.166Z"},{"id":"item-ec4cbc6ef5a8","sku":"_djujuPZKTldH15b678DzWLmlq0yn21zkEl4RkLw","name_en":"🐎Birkin 25cm Epsom皮 手工蜡线缝制【宝蓝】","name_cn":"🐎Birkin 25cm Epsom皮 手工蜡线缝制【宝蓝】","specs":{"source":"wsxcme","sourceId":"_djujuPZKTldH15b678DzWLmlq0yn21zkEl4RkLw","sourceTagId":76963559,"sourceTagName":"爱马仕/女包","rawTitle":"🐎Birkin 25cm Epsom皮 手工蜡线缝制【宝蓝】"},"price":null,"currency":"CNY","moq":1,"category":"hermes-women-bags","status":"active","alibaba_url":null,"images":["https://xcimg.szwego.com/20240731/i1722406514_5886_0.jpg","https://xcimg.szwego.com/20240731/i1722406514_1277_1.jpg","https://xcimg.szwego.com/20240731/i1722406514_6354_2.jpg","https://xcimg.szwego.com/20240731/i1722406514_4181_3.jpg","https://xcimg.szwego.com/20240731/i1722406514_4113_4.jpg","https://xcimg.szwego.com/20240731/i1722406514_5100_5.jpg","https://xcimg.szwego.com/20240731/i1722406514_2611_6.jpg","https://xcimg.szwego.com/20240731/i1722406514_7514_7.jpg","https://xcimg.szwego.com/20240731/i1722406514_7888_8.jpg"],"created_at":"2024-10-22T05:00:12.170Z"},{"id":"item-30941419e8fe","sku":"_dmemegQO__0iJ6NssL7G-k2pWhr2zkkFRd9aFnA","name_en":"🐎Birkin 25cm Epsom皮 手工蜡线缝制【大红】","name_cn":"🐎Birkin 25cm Epsom皮 手工蜡线缝制【大红】","specs":{"source":"wsxcme","sourceId":"_dmemegQO__0iJ6NssL7G-k2pWhr2zkkFRd9aFnA","sourceTagId":76963559,"sourceTagName":"爱马仕/女包","rawTitle":"🐎Birkin 25cm Epsom皮 手工蜡线缝制【大红】"},"price":null,"currency":"CNY","moq":1,"category":"hermes-women-bags","status":"active","alibaba_url":null,"images":["https://xcimg.szwego.com/20240731/i1722406328_8436_0.jpg","https://xcimg.szwego.com/20240731/i1722406328_470_1.jpg","https://xcimg.szwego.com/20240731/i1722406328_3889_2.jpg","https://xcimg.szwego.com/20240731/i1722406328_8660_3.jpg","https://xcimg.szwego.com/20240731/i1722406328_4449_4.jpg","https://xcimg.szwego.com/20240731/i1722406328_8962_5.jpg","https://xcimg.szwego.com/20240731/i1722406328_3214_6.jpg","https://xcimg.szwego.com/20240731/i1722406328_2008_7.jpg","https://xcimg.szwego.com/20240731/i1722406328_9278_8.jpg"],"created_at":"2024-10-22T05:00:12.167Z"},{"id":"item-fd309ff1a7d1","sku":"_du9u9vrQg-UCmHG5FPlBv-w3OZW6FK9WY8GohDg","name_en":"🐎Birkin 25cm Epsom皮 手工蜡线缝制【孔雀绿】","name_cn":"🐎Birkin 25cm Epsom皮 手工蜡线缝制【孔雀绿】","specs":{"source":"wsxcme","sourceId":"_du9u9vrQg-UCmHG5FPlBv-w3OZW6FK9WY8GohDg","sourceTagId":76963559,"sourceTagName":"爱马仕/女包","rawTitle":"🐎Birkin 25cm Epsom皮 手工蜡线缝制【孔雀绿】"},"price":null,"currency":"CNY","moq":1,"category":"hermes-women-bags","status":"active","alibaba_url":null,"images":["https://xcimg.szwego.com/20240731/i1722406375_634_0.jpg","https://xcimg.szwego.com/20240731/i1722406375_285_1.jpg","https://xcimg.szwego.com/20240731/i1722406375_191_2.jpg","https://xcimg.szwego.com/20240731/i1722406375_9748_3.jpg","https://xcimg.szwego.com/20240731/i1722406375_7943_4.jpg","https://xcimg.szwego.com/20240731/i1722406375_4684_5.jpg","https://xcimg.szwego.com/20240731/i1722406375_9785_6.jpg","https://xcimg.szwego.com/20240731/i1722406375_5797_7.jpg","https://xcimg.szwego.com/20240731/i1722406375_8661_8.jpg"],"created_at":"2024-10-22T05:00:12.171Z"},{"id":"item-0ea1d7936426","sku":"_d0202DtYaXgpuWXa9LoywpuyYFPLsN_DidN8kpw","name_en":"🐎Birkin 25cm Epsom皮 手工蜡线缝制【奶昔白】","name_cn":"🐎Birkin 25cm Epsom皮 手工蜡线缝制【奶昔白】","specs":{"source":"wsxcme","sourceId":"_d0202DtYaXgpuWXa9LoywpuyYFPLsN_DidN8kpw","sourceTagId":76963559,"sourceTagName":"爱马仕/女包","rawTitle":"🐎Birkin 25cm Epsom皮 手工蜡线缝制【奶昔白】"},"price":null,"currency":"CNY","moq":1,"category":"hermes-women-bags","status":"active","alibaba_url":null,"images":["https://xcimg.szwego.com/20240731/i1722406547_3050_0.jpg","https://xcimg.szwego.com/20240731/i1722406547_8904_1.jpg","https://xcimg.szwego.com/20240731/i1722406547_6981_2.jpg","https://xcimg.szwego.com/20240731/i1722406547_77_3.jpg","https://xcimg.szwego.com/20240731/i1722406547_3386_4.jpg","https://xcimg.szwego.com/20240731/i1722406547_8123_5.jpg","https://xcimg.szwego.com/20240731/i1722406547_7712_6.jpg","https://xcimg.szwego.com/20240731/i1722406547_3306_7.jpg","https://xcimg.szwego.com/20240731/i1722406547_9129_8.jpg"],"created_at":"2024-10-22T05:00:12.165Z"},{"id":"item-3ea5373b2ba8","sku":"_d8p8pxBG2Y0bsmAIi-YL0Wq4SzJlNfa5zBfV9oQ","name_en":"🐎Birkin 25cm Epsom皮 手工蜡线缝制【丝绒绿】","name_cn":"🐎Birkin 25cm Epsom皮 手工蜡线缝制【丝绒绿】","specs":{"source":"wsxcme","sourceId":"_d8p8pxBG2Y0bsmAIi-YL0Wq4SzJlNfa5zBfV9oQ","sourceTagId":76963559,"sourceTagName":"爱马仕/女包","rawTitle":"🐎Birkin 25cm Epsom皮 手工蜡线缝制【丝绒绿】"},"price":null,"currency":"CNY","moq":1,"category":"hermes-women-bags","status":"active","alibaba_url":null,"images":["https://xcimg.szwego.com/20240731/i1722406457_3443_0.jpg","https://xcimg.szwego.com/20240731/i1722406457_2374_1.jpg","https://xcimg.szwego.com/20240731/i1722406457_8340_2.jpg","https://xcimg.szwego.com/20240731/i1722406457_3015_3.jpg","https://xcimg.szwego.com/20240731/i1722406457_5573_4.jpg","https://xcimg.szwego.com/20240731/i1722406457_3876_5.jpg","https://xcimg.szwego.com/20240731/i1722406457_5469_6.jpg","https://xcimg.szwego.com/20240731/i1722406457_3657_7.jpg","https://xcimg.szwego.com/20240731/i1722406457_9745_8.jpg"],"created_at":"2024-10-22T05:00:12.169Z"},{"id":"item-f6f3355bada7","sku":"_dnZnZdCP8DPrAP5Wrri4MZKtBcuqccI3KH6Cibg","name_en":"🐎Birkin 25cm Epsom皮 手工蜡线缝制【土黄】","name_cn":"🐎Birkin 25cm Epsom皮 手工蜡线缝制【土黄】","specs":{"source":"wsxcme","sourceId":"_dnZnZdCP8DPrAP5Wrri4MZKtBcuqccI3KH6Cibg","sourceTagId":76963559,"sourceTagName":"爱马仕/女包","rawTitle":"🐎Birkin 25cm Epsom皮 手工蜡线缝制【土黄】"},"price":null,"currency":"CNY","moq":1,"category":"hermes-women-bags","status":"active","alibaba_url":null,"images":["https://xcimg.szwego.com/20240731/i1722406580_9938_0.jpg","https://xcimg.szwego.com/20240731/i1722406580_1616_1.jpg","https://xcimg.szwego.com/20240731/i1722406580_6479_2.jpg","https://xcimg.szwego.com/20240731/i1722406580_6587_3.jpg","https://xcimg.szwego.com/20240731/i1722406580_6721_4.jpg","https://xcimg.szwego.com/20240731/i1722406580_7316_5.jpg","https://xcimg.szwego.com/20240731/i1722406580_9652_6.jpg","https://xcimg.szwego.com/20240731/i1722406580_1495_7.jpg","https://xcimg.szwego.com/20240731/i1722406580_5237_8.jpg"],"created_at":"2024-10-22T05:00:12.164Z"},{"id":"item-d04b39bcd968","sku":"_dnVnVkUUriQPuXizfGlpqVKBIrZorazkD9bv67Q","name_en":"🐎Birkin 25cm Epsom皮 手工蜡线缝制【小鸡黄】","name_cn":"🐎Birkin 25cm Epsom皮 手工蜡线缝制【小鸡黄】","specs":{"source":"wsxcme","sourceId":"_dnVnVkUUriQPuXizfGlpqVKBIrZorazkD9bv67Q","sourceTagId":76963559,"sourceTagName":"爱马仕/女包","rawTitle":"🐎Birkin 25cm Epsom皮 手工蜡线缝制【小鸡黄】"},"price":null,"currency":"CNY","moq":1,"category":"hermes-women-bags","status":"active","alibaba_url":null,"images":["https://xcimg.szwego.com/20240731/i1722406426_9127_0.jpg","https://xcimg.szwego.com/20240731/i1722406426_7853_1.jpg","https://xcimg.szwego.com/20240731/i1722406426_5179_2.jpg","https://xcimg.szwego.com/20240731/i1722406426_7130_3.jpg","https://xcimg.szwego.com/20240731/i1722406426_3641_4.jpg","https://xcimg.szwego.com/20240731/i1722406426_6505_5.jpg","https://xcimg.szwego.com/20240731/i1722406426_6693_6.jpg","https://xcimg.szwego.com/20240731/i1722406426_7155_7.jpg","https://xcimg.szwego.com/20240731/i1722406426_4914_8.jpg"],"created_at":"2024-10-22T05:00:12.168Z"},{"id":"item-44d27adb9b94","sku":"_diwiwkIvBI17GwbOEQgi_22EerpjYjcem_EmHWw","name_en":"🐎Birkin 30cm Epsom皮 全手工蜡线缝制【宝石红】","name_cn":"🐎Birkin 30cm Epsom皮 全手工蜡线缝制【宝石红】","specs":{"source":"wsxcme","sourceId":"_diwiwkIvBI17GwbOEQgi_22EerpjYjcem_EmHWw","sourceTagId":76963559,"sourceTagName":"爱马仕/女包","rawTitle":"🐎Birkin 30cm Epsom皮 全手工蜡线缝制【宝石红】"},"price":null,"currency":"CNY","moq":1,"category":"hermes-women-bags","status":"active","alibaba_url":null,"images":["https://xcimg.szwego.com/20240810/i1723272366_1273_0.jpg","https://xcimg.szwego.com/20240810/i1723272366_7713_1.jpg","https://xcimg.szwego.com/20240810/i1723272366_4009_2.jpg","https://xcimg.szwego.com/20240810/i1723272366_695_3.jpg","https://xcimg.szwego.com/20240810/i1723272366_2023_4.jpg","https://xcimg.szwego.com/20240810/i1723272366_75_5.jpg","https://xcimg.szwego.com/20240810/i1723272366_5966_6.jpg","https://xcimg.szwego.com/20240810/i1723272366_1926_7.jpg","https://xcimg.szwego.com/20240810/i1723272366_3188_8.jpg"],"created_at":"2024-10-22T05:00:12.163Z"},{"id":"item-0e8f61305cea","sku":"_dqEqEft88OFzyjd0cwgcbX6G5UpzBG2AxU3t81w","name_en":"🐎Birkin 30cm Epsom皮 全手工蜡线缝制【唇膏粉]","name_cn":"🐎Birkin 30cm Epsom皮 全手工蜡线缝制【唇膏粉]","specs":{"source":"wsxcme","sourceId":"_dqEqEft88OFzyjd0cwgcbX6G5UpzBG2AxU3t81w","sourceTagId":76963559,"sourceTagName":"爱马仕/女包","rawTitle":"🐎Birkin 30cm Epsom皮 全手工蜡线缝制【唇膏粉]"},"price":null,"currency":"CNY","moq":1,"category":"hermes-women-bags","status":"active","alibaba_url":null,"images":["https://xcimg.szwego.com/20240810/i1723271993_3843_0.jpg","https://xcimg.szwego.com/20240810/i1723271993_119_1.jpg","https://xcimg.szwego.com/20240810/i1723271993_5969_2.jpg","https://xcimg.szwego.com/20240810/i1723271993_2901_3.jpg","https://xcimg.szwego.com/20240810/i1723271993_7046_4.jpg","https://xcimg.szwego.com/20240810/i1723271993_6784_5.jpg","https://xcimg.szwego.com/20240810/i1723271993_7398_6.jpg","https://xcimg.szwego.com/20240810/i1723271993_227_7.jpg","https://xcimg.szwego.com/20240810/i1723271993_5870_8.jpg"],"created_at":"2024-10-22T05:00:12.160Z"},{"id":"item-6a40123ace28","sku":"_dg5g50VqgAPvR2tYloXfHRm9OMOByCZiNYo-6vg","name_en":"🐎Birkin 30cm Epsom皮 全手工蜡线缝制【电光蓝】","name_cn":"🐎Birkin 30cm Epsom皮 全手工蜡线缝制【电光蓝】","specs":{"source":"wsxcme","sourceId":"_dg5g50VqgAPvR2tYloXfHRm9OMOByCZiNYo-6vg","sourceTagId":76963559,"sourceTagName":"爱马仕/女包","rawTitle":"🐎Birkin 30cm Epsom皮 全手工蜡线缝制【电光蓝】"},"price":null,"currency":"CNY","moq":1,"category":"hermes-women-bags","status":"active","alibaba_url":null,"images":["https://xcimg.szwego.com/20240810/i1723271427_6204_0.jpg","https://xcimg.szwego.com/20240810/i1723271427_5292_1.jpg","https://xcimg.szwego.com/20240810/i1723271427_7630_2.jpg","https://xcimg.szwego.com/20240810/i1723271427_1396_3.jpg","https://xcimg.szwego.com/20240810/i1723271427_8962_4.jpg","https://xcimg.szwego.com/20240810/i1723271427_7869_5.jpg","https://xcimg.szwego.com/20240810/i1723271427_2058_6.jpg","https://xcimg.szwego.com/20240810/i1723271427_9300_7.jpg","https://xcimg.szwego.com/20240810/i1723271427_8403_8.jpg"],"created_at":"2024-10-22T05:00:12.158Z"}],"page":104,"pageSize":24,"total":10075,"totalPages":420}
