{"items":[{"id":"item-ce8336e236e2","sku":"_dpXpXyYx1hV7ReKoIXaZZG3nK7Csx9-FFB_4F_Q","name_en":"专柜品质,顶级原单货,实物实拍!款号790063浅蓝/酒红,尺寸:宽11.5X高8X侧宽3.5cm,💰","name_cn":"专柜品质,顶级原单货,实物实拍!款号790063浅蓝/酒红,尺寸:宽11.5X高8X侧宽3.5cm,💰","specs":{"source":"wsxcme","sourceId":"_dpXpXyYx1hV7ReKoIXaZZG3nK7Csx9-FFB_4F_Q","sourceTagId":47002663,"sourceTagName":"长短款钱包","modelNumber":"790063浅蓝/酒红","rawTitle":"专柜品质,顶级原单货,实物实拍!款号790063浅蓝/酒红,尺寸:宽11.5X高8X侧宽3.5cm,💰"},"price":null,"currency":"CNY","moq":1,"category":"women-wallets","status":"active","alibaba_url":null,"images":["https://xcimg.szwego.com/img/102e1c0f/20250605/i1749108349837_2330_0_0.jpg","https://xcimg.szwego.com/img/102e1c0f/20250605/i1749108349849_6542_0_1.jpg","https://xcimg.szwego.com/img/102e1c0f/20250605/i1749108349856_2752_0_3.jpg","https://xcimg.szwego.com/img/102e1c0f/20250605/i1749108349878_9774_0_2.jpg"],"created_at":"2025-08-03T05:43:10.128Z"},{"id":"item-b0126e42918a","sku":"_ddfdfZqCKBRSZIkgR8noI9j-3Av4AFWtVrcQKDg","name_en":"专柜品质,顶级原单货,实物实拍!款号835047克皮/白钢G,尺寸:宽11X高9,","name_cn":"专柜品质,顶级原单货,实物实拍!款号835047克皮/白钢G,尺寸:宽11X高9,","specs":{"source":"wsxcme","sourceId":"_ddfdfZqCKBRSZIkgR8noI9j-3Av4AFWtVrcQKDg","sourceTagId":47002663,"sourceTagName":"长短款钱包","modelNumber":"835047克皮/白钢G","rawTitle":"专柜品质,顶级原单货,实物实拍!款号835047克皮/白钢G,尺寸:宽11X高9,"},"price":null,"currency":"CNY","moq":1,"category":"women-wallets","status":"active","alibaba_url":null,"images":["https://xcimg.szwego.com/img/102e1c0f/20250527/i1748331009144_3474_0_0.jpg","https://xcimg.szwego.com/img/102e1c0f/20250527/i1748331009164_4268_0_1.jpg","https://xcimg.szwego.com/img/102e1c0f/20250527/i1748331009100_0_0_2.jpg","https://xcimg.szwego.com/img/102e1c0f/20250527/i1748331009170_8297_0_3.jpg"],"created_at":"2025-08-03T05:43:10.116Z"},{"id":"item-c8d50539cfc3","sku":"_d8C8CAkQoz6uKaSjXXdstBTU4vF8Tsw9CWDzHqw","name_en":"专柜品质,顶级原单货,实物实拍!款号835047克皮/橙G,尺寸:宽11X高9,","name_cn":"专柜品质,顶级原单货,实物实拍!款号835047克皮/橙G,尺寸:宽11X高9,","specs":{"source":"wsxcme","sourceId":"_d8C8CAkQoz6uKaSjXXdstBTU4vF8Tsw9CWDzHqw","sourceTagId":47002663,"sourceTagName":"长短款钱包","modelNumber":"835047克皮/橙G","rawTitle":"专柜品质,顶级原单货,实物实拍!款号835047克皮/橙G,尺寸:宽11X高9,"},"price":null,"currency":"CNY","moq":1,"category":"women-wallets","status":"active","alibaba_url":null,"images":["https://xcimg.szwego.com/img/102e1c0f/20250527/i1748331053174_458_0_0.jpg","https://xcimg.szwego.com/img/102e1c0f/20250527/i1748331053184_2415_0_1.jpg","https://xcimg.szwego.com/img/102e1c0f/20250527/i1748331053156_4681_0_2.jpg","https://xcimg.szwego.com/img/102e1c0f/20250527/i1748331053212_3323_0_3.jpg"],"created_at":"2025-08-03T05:43:10.114Z"},{"id":"item-80501c65ef30","sku":"_dvDvDXlAApZdoDZf19pvm2QessBej8P9Zz3JqPA","name_en":"专柜品质,顶级原单货,实物实拍!款号835047克皮/浅绿G,尺寸:宽11X高9,","name_cn":"专柜品质,顶级原单货,实物实拍!款号835047克皮/浅绿G,尺寸:宽11X高9,","specs":{"source":"wsxcme","sourceId":"_dvDvDXlAApZdoDZf19pvm2QessBej8P9Zz3JqPA","sourceTagId":47002663,"sourceTagName":"长短款钱包","modelNumber":"835047克皮/浅绿G","rawTitle":"专柜品质,顶级原单货,实物实拍!款号835047克皮/浅绿G,尺寸:宽11X高9,"},"price":null,"currency":"CNY","moq":1,"category":"women-wallets","status":"active","alibaba_url":null,"images":["https://xcimg.szwego.com/img/102e1c0f/20250527/i1748331037056_3766_0_0.jpg","https://xcimg.szwego.com/img/102e1c0f/20250527/i1748331037042_3195_0_1.jpg","https://xcimg.szwego.com/img/102e1c0f/20250527/i1748331037084_4481_0_2.jpg","https://xcimg.szwego.com/img/102e1c0f/20250527/i1748331037052_5463_0_3.jpg"],"created_at":"2025-08-03T05:43:10.115Z"},{"id":"item-de3a0f3d787f","sku":"_dueueVtlpNjjuKHTwhRtghhyis26fGSlmiCnREg","name_en":"专柜品质,顶级原单货,实物实拍!款号835048克皮/白钢G,尺寸:宽11X高9,","name_cn":"专柜品质,顶级原单货,实物实拍!款号835048克皮/白钢G,尺寸:宽11X高9,","specs":{"source":"wsxcme","sourceId":"_dueueVtlpNjjuKHTwhRtghhyis26fGSlmiCnREg","sourceTagId":47002663,"sourceTagName":"长短款钱包","modelNumber":"835048克皮/白钢G","rawTitle":"专柜品质,顶级原单货,实物实拍!款号835048克皮/白钢G,尺寸:宽11X高9,"},"price":null,"currency":"CNY","moq":1,"category":"women-wallets","status":"active","alibaba_url":null,"images":["https://xcimg.szwego.com/img/102e1c0f/20250527/i1748330875351_1591_0_0.jpg","https://xcimg.szwego.com/img/102e1c0f/20250527/i1748330875356_7702_0_1.jpg","https://xcimg.szwego.com/img/102e1c0f/20250527/i1748330875345_1280_0_2.jpg","https://xcimg.szwego.com/img/102e1c0f/20250527/i1748330875347_41_0_3.jpg"],"created_at":"2025-08-03T05:43:10.113Z"},{"id":"item-64348545a7e1","sku":"_dububhRpfzygVD4m5poXAAxEbjQTsJea_EDomcQ","name_en":"专柜品质,顶级原单货,实物实拍!款号835048克皮/橙G,尺寸:宽11X高9,","name_cn":"专柜品质,顶级原单货,实物实拍!款号835048克皮/橙G,尺寸:宽11X高9,","specs":{"source":"wsxcme","sourceId":"_dububhRpfzygVD4m5poXAAxEbjQTsJea_EDomcQ","sourceTagId":47002663,"sourceTagName":"长短款钱包","modelNumber":"835048克皮/橙G","rawTitle":"专柜品质,顶级原单货,实物实拍!款号835048克皮/橙G,尺寸:宽11X高9,"},"price":null,"currency":"CNY","moq":1,"category":"women-wallets","status":"active","alibaba_url":null,"images":["https://xcimg.szwego.com/img/102e1c0f/20250527/i1748330976061_9305_0_0.jpg","https://xcimg.szwego.com/img/102e1c0f/20250527/i1748330976040_5770_0_1.jpg","https://xcimg.szwego.com/img/102e1c0f/20250527/i1748330976028_9073_0_2.jpg","https://xcimg.szwego.com/img/102e1c0f/20250527/i1748330976034_6135_0_3.jpg"],"created_at":"2025-08-03T05:43:10.111Z"},{"id":"item-41160200bad8","sku":"_dktkt9CVPd38bI6QJX0MeSyJ_1sQsRtdD80qRWg","name_en":"专柜品质,顶级原单货,实物实拍!款号835048克皮/浅绿G,尺寸:宽11X高9,","name_cn":"专柜品质,顶级原单货,实物实拍!款号835048克皮/浅绿G,尺寸:宽11X高9,","specs":{"source":"wsxcme","sourceId":"_dktkt9CVPd38bI6QJX0MeSyJ_1sQsRtdD80qRWg","sourceTagId":47002663,"sourceTagName":"长短款钱包","modelNumber":"835048克皮/浅绿G","rawTitle":"专柜品质,顶级原单货,实物实拍!款号835048克皮/浅绿G,尺寸:宽11X高9,"},"price":null,"currency":"CNY","moq":1,"category":"women-wallets","status":"active","alibaba_url":null,"images":["https://xcimg.szwego.com/img/102e1c0f/20250527/i1748330938462_2270_0_0.jpg","https://xcimg.szwego.com/img/102e1c0f/20250527/i1748330938490_6614_0_1.jpg","https://xcimg.szwego.com/img/102e1c0f/20250527/i1748330938504_712_0_2.jpg","https://xcimg.szwego.com/img/102e1c0f/20250527/i1748330938468_5295_0_3.jpg"],"created_at":"2025-08-03T05:43:10.112Z"},{"id":"item-d217f68611bf","sku":"_dvVvVdhl7IYHEcooymJZMa1nUIu248UMKkaRB2w","name_en":"专柜品质,顶级原单货,实物实拍!款号835049克皮/白钢G,尺寸:宽11X高7cm,💰","name_cn":"专柜品质,顶级原单货,实物实拍!款号835049克皮/白钢G,尺寸:宽11X高7cm,💰","specs":{"source":"wsxcme","sourceId":"_dvVvVdhl7IYHEcooymJZMa1nUIu248UMKkaRB2w","sourceTagId":47002663,"sourceTagName":"长短款钱包","modelNumber":"835049克皮/白钢G","rawTitle":"专柜品质,顶级原单货,实物实拍!款号835049克皮/白钢G,尺寸:宽11X高7cm,💰"},"price":null,"currency":"CNY","moq":1,"category":"women-wallets","status":"active","alibaba_url":null,"images":["https://xcimg.szwego.com/img/102e1c0f/20250602/i1748840025210_9961_0_0.jpg","https://xcimg.szwego.com/img/102e1c0f/20250602/i1748840025252_220_0_1.jpg","https://xcimg.szwego.com/img/102e1c0f/20250602/i1748840025227_2198_0_2.jpg","https://xcimg.szwego.com/img/102e1c0f/20250602/i1748840025266_5513_0_3.jpg"],"created_at":"2025-08-03T05:43:10.119Z"},{"id":"item-14230736c9dc","sku":"_d_R_RLoF1z6R0jtyijquHcaOBUh9ohxuuuRK18Q","name_en":"专柜品质,顶级原单货,实物实拍!款号835049克皮/橙G,尺寸:宽11X高7cm,💰","name_cn":"专柜品质,顶级原单货,实物实拍!款号835049克皮/橙G,尺寸:宽11X高7cm,💰","specs":{"source":"wsxcme","sourceId":"_d_R_RLoF1z6R0jtyijquHcaOBUh9ohxuuuRK18Q","sourceTagId":47002663,"sourceTagName":"长短款钱包","modelNumber":"835049克皮/橙G","rawTitle":"专柜品质,顶级原单货,实物实拍!款号835049克皮/橙G,尺寸:宽11X高7cm,💰"},"price":null,"currency":"CNY","moq":1,"category":"women-wallets","status":"active","alibaba_url":null,"images":["https://xcimg.szwego.com/img/102e1c0f/20250602/i1748839971551_6346_0_0.jpg","https://xcimg.szwego.com/img/102e1c0f/20250602/i1748839971575_4039_0_1.jpg","https://xcimg.szwego.com/img/102e1c0f/20250602/i1748839971542_8593_0_2.jpg","https://xcimg.szwego.com/img/102e1c0f/20250602/i1748839971554_6275_0_3.jpg"],"created_at":"2025-08-03T05:43:10.117Z"},{"id":"item-b79e8d8c04cf","sku":"_d_T_TKYEOrXSwfZ7dGN8AFRdaiAv5ndPXcNNWGw","name_en":"专柜品质,顶级原单货,实物实拍!款号835049克皮/浅绿G,尺寸:宽11X高7cm,💰","name_cn":"专柜品质,顶级原单货,实物实拍!款号835049克皮/浅绿G,尺寸:宽11X高7cm,💰","specs":{"source":"wsxcme","sourceId":"_d_T_TKYEOrXSwfZ7dGN8AFRdaiAv5ndPXcNNWGw","sourceTagId":47002663,"sourceTagName":"长短款钱包","modelNumber":"835049克皮/浅绿G","rawTitle":"专柜品质,顶级原单货,实物实拍!款号835049克皮/浅绿G,尺寸:宽11X高7cm,💰"},"price":null,"currency":"CNY","moq":1,"category":"women-wallets","status":"active","alibaba_url":null,"images":["https://xcimg.szwego.com/img/102e1c0f/20250602/i1748840006141_4645_0_0.jpg","https://xcimg.szwego.com/img/102e1c0f/20250602/i1748840006187_7985_0_1.jpg","https://xcimg.szwego.com/img/102e1c0f/20250602/i1748840006168_4668_0_2.jpg","https://xcimg.szwego.com/img/102e1c0f/20250602/i1748840006113_1979_0_3.jpg"],"created_at":"2025-08-03T05:43:10.118Z"},{"id":"item-82dd26bb13eb","sku":"_dnUnUpADmGCGDOMpmi9ISeDtVYn_CP-sUvfbFHQ","name_en":"专柜品质,顶级原单货,实物实拍!款号835053克皮/白钢G,尺寸:宽10.5X高7.5cm,💰","name_cn":"专柜品质,顶级原单货,实物实拍!款号835053克皮/白钢G,尺寸:宽10.5X高7.5cm,💰","specs":{"source":"wsxcme","sourceId":"_dnUnUpADmGCGDOMpmi9ISeDtVYn_CP-sUvfbFHQ","sourceTagId":47002663,"sourceTagName":"长短款钱包","modelNumber":"835053克皮/白钢G","rawTitle":"专柜品质,顶级原单货,实物实拍!款号835053克皮/白钢G,尺寸:宽10.5X高7.5cm,💰"},"price":null,"currency":"CNY","moq":1,"category":"women-wallets","status":"active","alibaba_url":null,"images":["https://xcimg.szwego.com/img/102e1c0f/20250602/i1748839930971_9072_0_0.jpg","https://xcimg.szwego.com/img/102e1c0f/20250602/i1748839930980_7721_0_1.jpg","https://xcimg.szwego.com/img/102e1c0f/20250602/i1748839930971_6658_0_2.jpg","https://xcimg.szwego.com/img/102e1c0f/20250602/i1748839930965_7287_0_3.jpg"],"created_at":"2025-08-03T05:43:10.110Z"},{"id":"item-3f3e85477f4a","sku":"_da4a4ZwZgNIvQ_Fa5vgy4Upw-zL904nhlsSM7OQ","name_en":"专柜品质,顶级原单货,实物实拍!款号835053克皮/橙G,尺寸:宽10.5X高7.5cm,💰","name_cn":"专柜品质,顶级原单货,实物实拍!款号835053克皮/橙G,尺寸:宽10.5X高7.5cm,💰","specs":{"source":"wsxcme","sourceId":"_da4a4ZwZgNIvQ_Fa5vgy4Upw-zL904nhlsSM7OQ","sourceTagId":47002663,"sourceTagName":"长短款钱包","modelNumber":"835053克皮/橙G","rawTitle":"专柜品质,顶级原单货,实物实拍!款号835053克皮/橙G,尺寸:宽10.5X高7.5cm,💰"},"price":null,"currency":"CNY","moq":1,"category":"women-wallets","status":"active","alibaba_url":null,"images":["https://xcimg.szwego.com/img/102e1c0f/20250602/i1748839812953_7866_0_0.jpg","https://xcimg.szwego.com/img/102e1c0f/20250602/i1748839812950_8303_0_1.jpg","https://xcimg.szwego.com/img/102e1c0f/20250602/i1748839812928_9545_0_2.jpg","https://xcimg.szwego.com/img/102e1c0f/20250602/i1748839812933_1332_0_3.jpg"],"created_at":"2025-08-03T05:43:10.108Z"},{"id":"item-a130f71369fd","sku":"_dtvtvnB4qtR_EpbiI59Pp99zrCXwyZShjVpUHPg","name_en":"专柜品质,顶级原单货,实物实拍!款号835053克皮/浅绿G,尺寸:宽10.5X高7.5cm,💰","name_cn":"专柜品质,顶级原单货,实物实拍!款号835053克皮/浅绿G,尺寸:宽10.5X高7.5cm,💰","specs":{"source":"wsxcme","sourceId":"_dtvtvnB4qtR_EpbiI59Pp99zrCXwyZShjVpUHPg","sourceTagId":47002663,"sourceTagName":"长短款钱包","modelNumber":"835053克皮/浅绿G","rawTitle":"专柜品质,顶级原单货,实物实拍!款号835053克皮/浅绿G,尺寸:宽10.5X高7.5cm,💰"},"price":null,"currency":"CNY","moq":1,"category":"women-wallets","status":"active","alibaba_url":null,"images":["https://xcimg.szwego.com/img/102e1c0f/20250602/i1748839908220_5465_0_0.jpg","https://xcimg.szwego.com/img/102e1c0f/20250602/i1748839908198_7622_0_1.jpg","https://xcimg.szwego.com/img/102e1c0f/20250602/i1748839908214_651_0_2.jpg","https://xcimg.szwego.com/img/102e1c0f/20250602/i1748839907910_7609_0_3.jpg"],"created_at":"2025-08-03T05:43:10.109Z"},{"id":"item-d2250d3b7c4d","sku":"_daSaSTR6ekmSUynOnj9c1kqWbLNqPd6BhYOmnlQ","name_en":"专柜品质,顶级原单货,实物实拍!款号835054克皮/白钢G,尺寸:宽10X高19X侧宽2,","name_cn":"专柜品质,顶级原单货,实物实拍!款号835054克皮/白钢G,尺寸:宽10X高19X侧宽2,","specs":{"source":"wsxcme","sourceId":"_daSaSTR6ekmSUynOnj9c1kqWbLNqPd6BhYOmnlQ","sourceTagId":47002663,"sourceTagName":"长短款钱包","modelNumber":"835054克皮/白钢G","rawTitle":"专柜品质,顶级原单货,实物实拍!款号835054克皮/白钢G,尺寸:宽10X高19X侧宽2,"},"price":null,"currency":"CNY","moq":1,"category":"women-wallets","status":"active","alibaba_url":null,"images":["https://xcimg.szwego.com/img/102e1c0f/20250615/i1749974517636_8044_0_0.jpg","https://xcimg.szwego.com/img/102e1c0f/20250615/i1749974517685_3180_0_1.jpg","https://xcimg.szwego.com/img/102e1c0f/20250615/i1749974517447_9369_0_2.jpg","https://xcimg.szwego.com/img/102e1c0f/20250615/i1749974517689_9743_0_3.jpg"],"created_at":"2025-08-03T05:43:10.107Z"},{"id":"item-8927a52f12d0","sku":"_dPjPj1jW0EFbkmkLRWeJ2_UPECcZcZnLoAi8IGg","name_en":"专柜品质,顶级原单货,实物实拍!款号835054克皮/橙G,尺寸:宽10X高19X侧宽2,","name_cn":"专柜品质,顶级原单货,实物实拍!款号835054克皮/橙G,尺寸:宽10X高19X侧宽2,","specs":{"source":"wsxcme","sourceId":"_dPjPj1jW0EFbkmkLRWeJ2_UPECcZcZnLoAi8IGg","sourceTagId":47002663,"sourceTagName":"长短款钱包","modelNumber":"835054克皮/橙G","rawTitle":"专柜品质,顶级原单货,实物实拍!款号835054克皮/橙G,尺寸:宽10X高19X侧宽2,"},"price":null,"currency":"CNY","moq":1,"category":"women-wallets","status":"active","alibaba_url":null,"images":["https://xcimg.szwego.com/img/102e1c0f/20250615/i1749974480377_3812_0_0.jpg","https://xcimg.szwego.com/img/102e1c0f/20250615/i1749974480407_660_0_1.jpg","https://xcimg.szwego.com/img/102e1c0f/20250615/i1749974480234_6979_0_3.jpg","https://xcimg.szwego.com/img/102e1c0f/20250615/i1749974480346_5168_0_2.jpg"],"created_at":"2025-08-03T05:43:10.106Z"},{"id":"item-a5400057960c","sku":"_drvrvYf7sehqWtydH9y7b5o_PyZ5w3Dulus6M1Q","name_en":"专柜品质,顶级原单货,实物实拍!款号835054克皮/浅绿G,尺寸:宽10X高19X侧宽2,","name_cn":"专柜品质,顶级原单货,实物实拍!款号835054克皮/浅绿G,尺寸:宽10X高19X侧宽2,","specs":{"source":"wsxcme","sourceId":"_drvrvYf7sehqWtydH9y7b5o_PyZ5w3Dulus6M1Q","sourceTagId":47002663,"sourceTagName":"长短款钱包","modelNumber":"835054克皮/浅绿G","rawTitle":"专柜品质,顶级原单货,实物实拍!款号835054克皮/浅绿G,尺寸:宽10X高19X侧宽2,"},"price":null,"currency":"CNY","moq":1,"category":"women-wallets","status":"active","alibaba_url":null,"images":["https://xcimg.szwego.com/img/102e1c0f/20250615/i1749974314054_9505_0_0.jpg","https://xcimg.szwego.com/img/102e1c0f/20250615/i1749974313759_7221_0_1.jpg","https://xcimg.szwego.com/img/102e1c0f/20250615/i1749974313978_6836_0_3.jpg","https://xcimg.szwego.com/img/102e1c0f/20250615/i1749974314033_4144_0_2.jpg"],"created_at":"2025-08-03T05:43:10.105Z"},{"id":"item-faf0fefd1b45","sku":"_djnjnXn-ARB7g1WCepMBFFh9iiLp4kcwvswRBzw","name_en":"专柜品质,顶级原单货,实物实拍!款号835076克荔纹,尺寸:宽8X高11cm,💰","name_cn":"专柜品质,顶级原单货,实物实拍!款号835076克荔纹,尺寸:宽8X高11cm,💰","specs":{"source":"wsxcme","sourceId":"_djnjnXn-ARB7g1WCepMBFFh9iiLp4kcwvswRBzw","sourceTagId":47002663,"sourceTagName":"长短款钱包","modelNumber":"835076克荔纹","rawTitle":"专柜品质,顶级原单货,实物实拍!款号835076克荔纹,尺寸:宽8X高11cm,💰"},"price":null,"currency":"CNY","moq":1,"category":"women-wallets","status":"active","alibaba_url":null,"images":["https://xcimg.szwego.com/img/102e1c0f/20250622/i1750581610752_7289_0_0.jpg","https://xcimg.szwego.com/img/102e1c0f/20250622/i1750581610748_3462_0_1.jpg","https://xcimg.szwego.com/img/102e1c0f/20250622/i1750581610751_5991_0_2.jpg","https://xcimg.szwego.com/img/102e1c0f/20250622/i1750581610704_2193_0_3.jpg"],"created_at":"2025-08-03T05:43:10.123Z"},{"id":"item-ffd241c838e3","sku":"_dp_p_ZGJ100HuBzaDg8zK0dkks-JC79Hj4qcLhw","name_en":"专柜品质,顶级原单货,实物实拍!款号835076绿荔纹,尺寸:宽8X高11cm,💰","name_cn":"专柜品质,顶级原单货,实物实拍!款号835076绿荔纹,尺寸:宽8X高11cm,💰","specs":{"source":"wsxcme","sourceId":"_dp_p_ZGJ100HuBzaDg8zK0dkks-JC79Hj4qcLhw","sourceTagId":47002663,"sourceTagName":"长短款钱包","modelNumber":"835076绿荔纹","rawTitle":"专柜品质,顶级原单货,实物实拍!款号835076绿荔纹,尺寸:宽8X高11cm,💰"},"price":null,"currency":"CNY","moq":1,"category":"women-wallets","status":"active","alibaba_url":null,"images":["https://xcimg.szwego.com/img/102e1c0f/20250622/i1750581494410_6370_0_1.jpg","https://xcimg.szwego.com/img/102e1c0f/20250622/i1750581494445_9307_0_2.jpg","https://xcimg.szwego.com/img/102e1c0f/20250622/i1750581494451_1407_0_0.jpg","https://xcimg.szwego.com/img/102e1c0f/20250622/i1750581494418_1311_0_3.jpg"],"created_at":"2025-08-03T05:43:10.122Z"},{"id":"item-da362fd78853","sku":"_d-K-KTSCYFHPZHQJXPQc6uuGsPVfBNeQgbjqzBQ","name_en":"专柜品质,顶级原单货,实物实拍!款号835098克荔纹,尺寸:宽11X高9cm,💰","name_cn":"专柜品质,顶级原单货,实物实拍!款号835098克荔纹,尺寸:宽11X高9cm,💰","specs":{"source":"wsxcme","sourceId":"_d-K-KTSCYFHPZHQJXPQc6uuGsPVfBNeQgbjqzBQ","sourceTagId":47002663,"sourceTagName":"长短款钱包","modelNumber":"835098克荔纹","rawTitle":"专柜品质,顶级原单货,实物实拍!款号835098克荔纹,尺寸:宽11X高9cm,💰"},"price":null,"currency":"CNY","moq":1,"category":"women-wallets","status":"active","alibaba_url":null,"images":["https://xcimg.szwego.com/img/102e1c0f/20250602/i1748840125315_795_0_0.jpg","https://xcimg.szwego.com/img/102e1c0f/20250602/i1748840125262_3159_0_1.jpg","https://xcimg.szwego.com/img/102e1c0f/20250602/i1748840125312_9389_0_2.jpg","https://xcimg.szwego.com/img/102e1c0f/20250602/i1748840125330_52_0_3.jpg"],"created_at":"2025-08-03T05:43:10.125Z"},{"id":"item-d13b8b01ac4e","sku":"_dpRpRtXUapq3zlWG60z-lzB2nYv4pzo44l3Mydw","name_en":"专柜品质,顶级原单货,实物实拍!款号835098绿荔纹,尺寸:宽11X高9cm,💰","name_cn":"专柜品质,顶级原单货,实物实拍!款号835098绿荔纹,尺寸:宽11X高9cm,💰","specs":{"source":"wsxcme","sourceId":"_dpRpRtXUapq3zlWG60z-lzB2nYv4pzo44l3Mydw","sourceTagId":47002663,"sourceTagName":"长短款钱包","modelNumber":"835098绿荔纹","rawTitle":"专柜品质,顶级原单货,实物实拍!款号835098绿荔纹,尺寸:宽11X高9cm,💰"},"price":null,"currency":"CNY","moq":1,"category":"women-wallets","status":"active","alibaba_url":null,"images":["https://xcimg.szwego.com/img/102e1c0f/20250605/i1749107798992_1884_0_0.jpg","https://xcimg.szwego.com/img/102e1c0f/20250605/i1749107798616_3780_0_1.jpg","https://xcimg.szwego.com/img/102e1c0f/20250605/i1749107798965_6957_0_3.jpg","https://xcimg.szwego.com/img/102e1c0f/20250605/i1749107798996_5615_0_2.jpg"],"created_at":"2025-08-03T05:43:10.124Z"},{"id":"item-3ad075c20caa","sku":"_dx-x-Kyw4X9-ZOMoVmPB8EkZZEIB72VGPVYlRdQ","name_en":"专柜品质,顶级原单货,实物实拍!款号838900小狗,尺寸:宽10X高7cm,💰","name_cn":"专柜品质,顶级原单货,实物实拍!款号838900小狗,尺寸:宽10X高7cm,💰","specs":{"source":"wsxcme","sourceId":"_dx-x-Kyw4X9-ZOMoVmPB8EkZZEIB72VGPVYlRdQ","sourceTagId":47002663,"sourceTagName":"长短款钱包","modelNumber":"838900小狗","rawTitle":"专柜品质,顶级原单货,实物实拍!款号838900小狗,尺寸:宽10X高7cm,💰"},"price":null,"currency":"CNY","moq":1,"category":"women-wallets","status":"active","alibaba_url":null,"images":["https://xcimg.szwego.com/img/102e1c0f/20250612/i1749703702089_8506_0_0.jpg","https://xcimg.szwego.com/img/102e1c0f/20250612/i1749703702084_7782_0_1.jpg","https://xcimg.szwego.com/img/102e1c0f/20250612/i1749703702008_5779_0_2.jpg","https://xcimg.szwego.com/img/102e1c0f/20250612/i1749703702046_7901_0_3.jpg"],"created_at":"2025-08-03T05:43:10.130Z"},{"id":"item-138554cf9572","sku":"_dkFkFBFw2yRnVOXyNRLQlsobtub2rPyYHNSoEpA","name_en":"专柜品质,顶级原单货,实物实拍!款号841360啡胶/酒红,尺寸:宽11.5X高8X侧宽3.5cm,💰","name_cn":"专柜品质,顶级原单货,实物实拍!款号841360啡胶/酒红,尺寸:宽11.5X高8X侧宽3.5cm,💰","specs":{"source":"wsxcme","sourceId":"_dkFkFBFw2yRnVOXyNRLQlsobtub2rPyYHNSoEpA","sourceTagId":47002663,"sourceTagName":"长短款钱包","modelNumber":"841360啡胶/酒红","rawTitle":"专柜品质,顶级原单货,实物实拍!款号841360啡胶/酒红,尺寸:宽11.5X高8X侧宽3.5cm,💰"},"price":null,"currency":"CNY","moq":1,"category":"women-wallets","status":"active","alibaba_url":null,"images":["https://xcimg.szwego.com/img/102e1c0f/20250605/i1749108191394_757_0_0.jpg","https://xcimg.szwego.com/img/102e1c0f/20250605/i1749108191425_3224_0_1.jpg","https://xcimg.szwego.com/img/102e1c0f/20250605/i1749108191438_7049_0_2.jpg","https://xcimg.szwego.com/img/102e1c0f/20250605/i1749108191433_1795_0_3.jpg"],"created_at":"2025-08-03T05:43:10.129Z"},{"id":"item-512aa6821baf","sku":"_djgjgENt5c7KLAjr6MFWT-8lqy2B-nb9IDb4rZw","name_en":"专柜品质,原厂皮质,款号:476433银色,尺寸:宽16.5x高10.2x深5.1cm。现货出货!💥💥💥","name_cn":"专柜品质,原厂皮质,款号:476433银色,尺寸:宽16.5x高10.2x深5.1cm。现货出货!💥💥💥","specs":{"source":"wsxcme","sourceId":"_djgjgENt5c7KLAjr6MFWT-8lqy2B-nb9IDb4rZw","sourceTagId":47002679,"sourceTagName":"古驰/女包","modelNumber":"476433银色","rawTitle":"专柜品质,原厂皮质,款号:476433银色,尺寸:宽16.5x高10.2x深5.1cm。现货出货!💥💥💥"},"price":null,"currency":"CNY","moq":1,"category":"gucci-women-bags","status":"active","alibaba_url":null,"images":["https://xcimg.szwego.com/img/031016d9/20241123/i1732364854_5596_0.jpg","https://xcimg.szwego.com/img/031016d9/20241123/i1732364854_3114_8.jpg","https://xcimg.szwego.com/img/031016d9/20241123/i1732364854_9718_6.jpg","https://xcimg.szwego.com/img/031016d9/20241123/i1732364854_3590_1.jpg","https://xcimg.szwego.com/img/031016d9/20241123/i1732364854_6448_2.jpg","https://xcimg.szwego.com/img/031016d9/20241123/i1732364854_1101_4.jpg","https://xcimg.szwego.com/img/031016d9/20241123/i1732364854_4524_3.jpg","https://xcimg.szwego.com/img/031016d9/20241123/i1732364854_5019_7.jpg","https://xcimg.szwego.com/img/031016d9/20241123/i1732364854_7051_5.jpg"],"created_at":"2025-02-08T13:12:36.312Z"},{"id":"item-d704af3e1523","sku":"_dcgcgYiv7anE3gSYNEtGOT3uhAIgyTm31xekbDw","name_en":"专柜品质,原厂皮质,款号:826761棕皮牛仔布,尺寸:宽21.5×高14x深9cm,现货现货🎉🎉🎉","name_cn":"专柜品质,原厂皮质,款号:826761棕皮牛仔布,尺寸:宽21.5×高14x深9cm,现货现货🎉🎉🎉","specs":{"source":"wsxcme","sourceId":"_dcgcgYiv7anE3gSYNEtGOT3uhAIgyTm31xekbDw","sourceTagId":47002679,"sourceTagName":"古驰/女包","modelNumber":"826761棕皮牛仔布","rawTitle":"专柜品质,原厂皮质,款号:826761棕皮牛仔布,尺寸:宽21.5×高14x深9cm,现货现货🎉🎉🎉"},"price":null,"currency":"CNY","moq":1,"category":"gucci-women-bags","status":"active","alibaba_url":null,"images":["https://xcimg.szwego.com/img/89648692/20250420/i1745137447_2746_2.jpg","https://xcimg.szwego.com/img/89648692/20250420/i1745137447_8738_5.jpg","https://xcimg.szwego.com/img/89648692/20250420/i1745137447_4618_4.jpg","https://xcimg.szwego.com/img/89648692/20250420/i1745137447_5144_7.jpg","https://xcimg.szwego.com/img/89648692/20250420/i1745137447_8941_0.jpg","https://xcimg.szwego.com/img/89648692/20250420/i1745137447_2488_8.jpg","https://xcimg.szwego.com/img/89648692/20250420/i1745137447_1136_3.jpg","https://xcimg.szwego.com/img/89648692/20250420/i1745137447_1710_1.jpg","https://xcimg.szwego.com/img/89648692/20250420/i1745137447_917_6.jpg"],"created_at":"2026-05-20T03:19:23.918Z"}],"page":210,"pageSize":24,"total":10075,"totalPages":420}
