{"items":[{"id":"item-7ea564174a3f","sku":"_dQlQldqoFFuI2C2xUROIhtKClYXwcWVxGe-Vsnw","name_en":"✨凯莉二代mini","name_cn":"✨凯莉二代mini \n颜色:大象灰/斑鸠灰\n进口epsom皮、金扣\n机车+半收工手缝蜡线\n尺寸:19cm","specs":{"source":"wsxcme","sourceId":"_dQlQldqoFFuI2C2xUROIhtKClYXwcWVxGe-Vsnw","sourceTagId":76963559,"sourceTagName":"爱马仕/女包","rawTitle":"✨凯莉二代mini \n颜色:大象灰/斑鸠灰\n进口epsom皮、金扣\n机车+半收工手缝蜡线\n尺寸:19cm"},"price":null,"currency":"CNY","moq":1,"category":"hermes-women-bags","status":"active","alibaba_url":null,"images":["https://xcimg.szwego.com/img/88b306c4/20240903/a1725379137834_0155.jpg","https://xcimg.szwego.com/img/88b306c4/20240903/a1725379137818_5011.jpg","https://xcimg.szwego.com/img/88b306c4/20240903/a1725379137598_7428.jpg","https://xcimg.szwego.com/img/88b306c4/20240903/a1725379137566_4076.jpg","https://xcimg.szwego.com/img/88b306c4/20240903/a1725379137569_1348.jpg","https://xcimg.szwego.com/img/88b306c4/20240903/a1725379137629_8638.jpg","https://xcimg.szwego.com/img/88b306c4/20240903/a1725379144721_4531.jpg","https://xcimg.szwego.com/img/88b306c4/20240903/a1725379144814_1076.jpg","https://xcimg.szwego.com/img/88b306c4/20240903/a1725379144669_8445.jpg"],"created_at":"2024-10-22T05:04:33.185Z"},{"id":"item-7cb4ee5e79f4","sku":"_dlele2vXlRE8BnJrxW0EJeIirw3hN975_tc_6JQ","name_en":"✨凯莉二代mini","name_cn":"✨凯莉二代mini \n颜色:奶昔白/克\n进口epsom皮、金扣\n机车+半收工手缝蜡线\n尺寸:19cm","specs":{"source":"wsxcme","sourceId":"_dlele2vXlRE8BnJrxW0EJeIirw3hN975_tc_6JQ","sourceTagId":76963559,"sourceTagName":"爱马仕/女包","rawTitle":"✨凯莉二代mini \n颜色:奶昔白/克\n进口epsom皮、金扣\n机车+半收工手缝蜡线\n尺寸:19cm"},"price":null,"currency":"CNY","moq":1,"category":"hermes-women-bags","status":"active","alibaba_url":null,"images":["https://xcimg.szwego.com/img/88b306c4/20240903/a1725376486747_7561.jpg","https://xcimg.szwego.com/img/88b306c4/20240903/a1725376486757_7383.jpg","https://xcimg.szwego.com/img/88b306c4/20240903/a1725376486996_1527.jpg","https://xcimg.szwego.com/img/88b306c4/20240903/a1725376486761_7455.jpg","https://xcimg.szwego.com/img/88b306c4/20240903/a1725376487014_5147.jpg","https://xcimg.szwego.com/img/88b306c4/20240903/a1725376486862_1431.jpg","https://xcimg.szwego.com/img/88b306c4/20240903/a1725376488206_7550.jpg","https://xcimg.szwego.com/img/88b306c4/20240903/a1725376488207_1027.jpg","https://xcimg.szwego.com/img/88b306c4/20240903/a1725376488160_0720.jpg"],"created_at":"2024-10-22T05:04:33.212Z"},{"id":"item-7073e62b11fb","sku":"_dxjxjaEP1mojtGgfyCaokiDpp00ieQtejGgBadg","name_en":"✨凯莉二代mini","name_cn":"✨凯莉二代mini \n颜色:风衣灰/金棕\n进口epsom皮、金扣\n机车+半收工手缝蜡线\n尺寸:19cm","specs":{"source":"wsxcme","sourceId":"_dxjxjaEP1mojtGgfyCaokiDpp00ieQtejGgBadg","sourceTagId":76963559,"sourceTagName":"爱马仕/女包","rawTitle":"✨凯莉二代mini \n颜色:风衣灰/金棕\n进口epsom皮、金扣\n机车+半收工手缝蜡线\n尺寸:19cm"},"price":null,"currency":"CNY","moq":1,"category":"hermes-women-bags","status":"active","alibaba_url":null,"images":["https://xcimg.szwego.com/img/88b306c4/20240904/a1725381943477_4054.jpg","https://xcimg.szwego.com/img/88b306c4/20240904/a1725381943030_3116.jpg","https://xcimg.szwego.com/img/88b306c4/20240904/a1725381942985_0117.jpg","https://xcimg.szwego.com/img/88b306c4/20240904/a1725381943213_1353.jpg","https://xcimg.szwego.com/img/88b306c4/20240904/a1725381943501_4814.jpg","https://xcimg.szwego.com/img/88b306c4/20240904/a1725381943025_2885.jpg","https://xcimg.szwego.com/img/88b306c4/20240904/a1725381944605_2012.jpg","https://xcimg.szwego.com/img/88b306c4/20240904/a1725381944622_1131.jpg","https://xcimg.szwego.com/img/88b306c4/20240904/a1725381944569_0665.jpg"],"created_at":"2024-10-22T05:04:33.169Z"},{"id":"item-6ce486e1819c","sku":"_dlWlWcZcpS3x4rprjSWe4KgyWunA_TnNi6AYbkg","name_en":"✨凯莉二代mini","name_cn":"✨凯莉二代mini \n颜色:雾霾蓝/帝王绿/金棕\n进口epsom皮、金扣\n机车+半收工手缝蜡线\n尺寸:19cm","specs":{"source":"wsxcme","sourceId":"_dlWlWcZcpS3x4rprjSWe4KgyWunA_TnNi6AYbkg","sourceTagId":76963559,"sourceTagName":"爱马仕/女包","rawTitle":"✨凯莉二代mini \n颜色:雾霾蓝/帝王绿/金棕\n进口epsom皮、金扣\n机车+半收工手缝蜡线\n尺寸:19cm"},"price":null,"currency":"CNY","moq":1,"category":"hermes-women-bags","status":"active","alibaba_url":null,"images":["https://xcimg.szwego.com/img/88b306c4/20240904/a1725383431661_8718.jpg","https://xcimg.szwego.com/img/88b306c4/20240904/a1725383431384_4724.jpg","https://xcimg.szwego.com/img/88b306c4/20240904/a1725383431521_6104.jpg","https://xcimg.szwego.com/img/88b306c4/20240904/a1725383431562_8702.jpg","https://xcimg.szwego.com/img/88b306c4/20240904/a1725383431773_2824.jpg","https://xcimg.szwego.com/img/88b306c4/20240904/a1725383431829_5542.jpg","https://xcimg.szwego.com/img/88b306c4/20240904/a1725383432822_8004.jpg","https://xcimg.szwego.com/img/88b306c4/20240904/a1725383432806_5338.jpg","https://xcimg.szwego.com/img/88b306c4/20240904/a1725383432833_1422.jpg"],"created_at":"2024-10-22T05:04:33.181Z"},{"id":"item-67db27996d57","sku":"_dnSnS23lpYrOvXrJdzQDyZf4e-EgwZ6bKom2v7w","name_en":"✨凯莉二代mini","name_cn":"✨凯莉二代mini \n颜色:大象灰/树皮色/克\n进口epsom皮、银扣\n机车+半收工手缝蜡线\n尺寸:19cm","specs":{"source":"wsxcme","sourceId":"_dnSnS23lpYrOvXrJdzQDyZf4e-EgwZ6bKom2v7w","sourceTagId":76963559,"sourceTagName":"爱马仕/女包","rawTitle":"✨凯莉二代mini \n颜色:大象灰/树皮色/克\n进口epsom皮、银扣\n机车+半收工手缝蜡线\n尺寸:19cm"},"price":null,"currency":"CNY","moq":1,"category":"hermes-women-bags","status":"active","alibaba_url":null,"images":["https://xcimg.szwego.com/img/88b306c4/20240903/a1725372922256_0033.jpg","https://xcimg.szwego.com/img/88b306c4/20240903/a1725372922309_2527.jpg","https://xcimg.szwego.com/img/88b306c4/20240903/a1725372922212_1123.jpg","https://xcimg.szwego.com/img/88b306c4/20240903/a1725372922619_6632.jpg","https://xcimg.szwego.com/img/88b306c4/20240903/a1725372922211_7374.jpg","https://xcimg.szwego.com/img/88b306c4/20240903/a1725372922518_7056.jpg","https://xcimg.szwego.com/img/88b306c4/20240903/a1725372923785_4757.jpg","https://xcimg.szwego.com/img/88b306c4/20240903/a1725372923694_7663.jpg","https://xcimg.szwego.com/img/88b306c4/20240903/a1725372923681_5014.jpg"],"created_at":"2024-10-22T05:04:33.221Z"},{"id":"item-58176902d87b","sku":"_dxTxTJP315UU42ELKHnbCoHfu_dr0CGyMSrwPBg","name_en":"✨凯莉二代mini","name_cn":"✨凯莉二代mini \n颜色:雾霾蓝/帝王绿/金棕\n进口epsom皮、银扣\n机车+半收工手缝蜡线\n尺寸:19cm","specs":{"source":"wsxcme","sourceId":"_dxTxTJP315UU42ELKHnbCoHfu_dr0CGyMSrwPBg","sourceTagId":76963559,"sourceTagName":"爱马仕/女包","rawTitle":"✨凯莉二代mini \n颜色:雾霾蓝/帝王绿/金棕\n进口epsom皮、银扣\n机车+半收工手缝蜡线\n尺寸:19cm"},"price":null,"currency":"CNY","moq":1,"category":"hermes-women-bags","status":"active","alibaba_url":null,"images":["https://xcimg.szwego.com/img/88b306c4/20240904/a1725383328494_1627.jpg","https://xcimg.szwego.com/img/88b306c4/20240904/a1725383328640_5317.jpg","https://xcimg.szwego.com/img/88b306c4/20240904/a1725383328212_4040.jpg","https://xcimg.szwego.com/img/88b306c4/20240904/a1725383328724_7432.jpg","https://xcimg.szwego.com/img/88b306c4/20240904/a1725383328311_1235.jpg","https://xcimg.szwego.com/img/88b306c4/20240904/a1725383328214_4747.jpg","https://xcimg.szwego.com/img/88b306c4/20240904/a1725383329867_0571.jpg","https://xcimg.szwego.com/img/88b306c4/20240904/a1725383330012_8727.jpg","https://xcimg.szwego.com/img/88b306c4/20240904/a1725383330004_0232.jpg"],"created_at":"2024-10-22T05:04:33.180Z"},{"id":"item-57ec8d1c21fa","sku":"_dp-p-FBbLZqykzfaUhl7U5LDesyIRrmmPkZCLug","name_en":"✨凯莉二代mini","name_cn":"✨凯莉二代mini \n颜色:冰川灰/奶昔白\n进口epsom皮、银扣\n机车+半收工手缝蜡线\n尺寸:19cm","specs":{"source":"wsxcme","sourceId":"_dp-p-FBbLZqykzfaUhl7U5LDesyIRrmmPkZCLug","sourceTagId":76963559,"sourceTagName":"爱马仕/女包","rawTitle":"✨凯莉二代mini \n颜色:冰川灰/奶昔白\n进口epsom皮、银扣\n机车+半收工手缝蜡线\n尺寸:19cm"},"price":null,"currency":"CNY","moq":1,"category":"hermes-women-bags","status":"active","alibaba_url":null,"images":["https://xcimg.szwego.com/img/88b306c4/20240904/a1725380415355_4075.jpg","https://xcimg.szwego.com/img/88b306c4/20240904/a1725380415616_3166.jpg","https://xcimg.szwego.com/img/88b306c4/20240904/a1725380415310_6363.jpg","https://xcimg.szwego.com/img/88b306c4/20240904/a1725380415497_2182.jpg","https://xcimg.szwego.com/img/88b306c4/20240904/a1725380415409_4083.jpg","https://xcimg.szwego.com/img/88b306c4/20240904/a1725380415435_8325.jpg","https://xcimg.szwego.com/img/88b306c4/20240904/a1725380420793_4488.jpg","https://xcimg.szwego.com/img/88b306c4/20240904/a1725380420801_2736.jpg","https://xcimg.szwego.com/img/88b306c4/20240904/a1725380420797_0233.jpg"],"created_at":"2024-10-22T05:04:33.193Z"},{"id":"item-5684a85de99c","sku":"_dnpnpljaHJpnPI56KFBaLhh_xTBkJqMh_FPbJAg","name_en":"✨凯莉二代mini","name_cn":"✨凯莉二代mini \n颜色:金棕/梦幻粉紫/奶昔白\n进口epsom皮、金扣\n机车+半收工手缝蜡线\n尺寸:19cm","specs":{"source":"wsxcme","sourceId":"_dnpnpljaHJpnPI56KFBaLhh_xTBkJqMh_FPbJAg","sourceTagId":76963559,"sourceTagName":"爱马仕/女包","rawTitle":"✨凯莉二代mini \n颜色:金棕/梦幻粉紫/奶昔白\n进口epsom皮、金扣\n机车+半收工手缝蜡线\n尺寸:19cm"},"price":null,"currency":"CNY","moq":1,"category":"hermes-women-bags","status":"active","alibaba_url":null,"images":["https://xcimg.szwego.com/img/88b306c4/20240903/a1725377764480_6764.jpg","https://xcimg.szwego.com/img/88b306c4/20240903/a1725377764860_8818.jpg","https://xcimg.szwego.com/img/88b306c4/20240903/a1725377764428_2503.jpg","https://xcimg.szwego.com/img/88b306c4/20240903/a1725377764705_7008.jpg","https://xcimg.szwego.com/img/88b306c4/20240903/a1725377764751_6881.jpg","https://xcimg.szwego.com/img/88b306c4/20240903/a1725377764881_2421.jpg","https://xcimg.szwego.com/img/88b306c4/20240903/a1725377765916_0456.jpg","https://xcimg.szwego.com/img/88b306c4/20240903/a1725377765956_1161.jpg","https://xcimg.szwego.com/img/88b306c4/20240903/a1725377765906_0471.jpg"],"created_at":"2024-10-22T05:04:33.184Z"},{"id":"item-4e6498d287e2","sku":"_dweweysNhdYQpccayo2IVRGcAFuuWgyCxFzCLxQ","name_en":"✨凯莉二代mini","name_cn":"✨凯莉二代mini \n颜色:冰川灰/奶昔白\n进口epsom皮、金扣\n机车+半收工手缝蜡线\n尺寸:19cm","specs":{"source":"wsxcme","sourceId":"_dweweysNhdYQpccayo2IVRGcAFuuWgyCxFzCLxQ","sourceTagId":76963559,"sourceTagName":"爱马仕/女包","rawTitle":"✨凯莉二代mini \n颜色:冰川灰/奶昔白\n进口epsom皮、金扣\n机车+半收工手缝蜡线\n尺寸:19cm"},"price":null,"currency":"CNY","moq":1,"category":"hermes-women-bags","status":"active","alibaba_url":null,"images":["https://xcimg.szwego.com/img/88b306c4/20240904/a1725380509623_3334.jpg","https://xcimg.szwego.com/img/88b306c4/20240904/a1725380509633_3445.jpg","https://xcimg.szwego.com/img/88b306c4/20240904/a1725380509665_6567.jpg","https://xcimg.szwego.com/img/88b306c4/20240904/a1725380509872_6360.jpg","https://xcimg.szwego.com/img/88b306c4/20240904/a1725380509645_2147.jpg","https://xcimg.szwego.com/img/88b306c4/20240904/a1725380509987_5383.jpg","https://xcimg.szwego.com/img/88b306c4/20240904/a1725380514067_6514.jpg","https://xcimg.szwego.com/img/88b306c4/20240904/a1725380514066_0428.jpg","https://xcimg.szwego.com/img/88b306c4/20240904/a1725380514089_6507.jpg"],"created_at":"2024-10-22T05:04:33.194Z"},{"id":"item-4c59f459c7e7","sku":"_druruhD6D1ze1CXhTyKwKj40XLQQaIn8uyuSsOA","name_en":"✨凯莉二代mini","name_cn":"✨凯莉二代mini \n颜色:琥珀黄\n牛皮压鳄鱼纹\n半手工,蜡线\n尺寸:19cm","specs":{"source":"wsxcme","sourceId":"_druruhD6D1ze1CXhTyKwKj40XLQQaIn8uyuSsOA","sourceTagId":76963559,"sourceTagName":"爱马仕/女包","rawTitle":"✨凯莉二代mini \n颜色:琥珀黄\n牛皮压鳄鱼纹\n半手工,蜡线\n尺寸:19cm"},"price":null,"currency":"CNY","moq":1,"category":"hermes-women-bags","status":"active","alibaba_url":null,"images":["https://xcimg.szwego.com/img/e714fc80/20260603/i1780478655780_8202_0_0.jpg","https://xcimg.szwego.com/img/e714fc80/20260603/i1780478656551_345_0_1.jpg","https://xcimg.szwego.com/img/e714fc80/20260603/i1780478656733_4525_0_2.jpg","https://xcimg.szwego.com/img/e714fc80/20260603/i1780478654237_5209_0_3.jpg","https://xcimg.szwego.com/img/e714fc80/20260603/i1780478654394_531_0_4.jpg","https://xcimg.szwego.com/img/e714fc80/20260603/i1780478654373_7143_0_5.jpg","https://xcimg.szwego.com/img/e714fc80/20260603/i1780478655572_9882_0_6.jpg","https://xcimg.szwego.com/img/e714fc80/20260603/i1780478655712_1576_0_7.jpg","https://xcimg.szwego.com/img/e714fc80/20260603/i1780478656476_5126_0_8.jpg"],"created_at":"2026-06-29T12:59:36.384Z"},{"id":"item-47c134f77637","sku":"_dvdvdcaX_iZvc-VQAJaQ2V4miQqRQ6ex_G7Qq6w","name_en":"✨凯莉二代mini","name_cn":"✨凯莉二代mini \n颜色:心红\n牛皮压鳄鱼纹\n半手工,蜡线\n尺寸:19cm","specs":{"source":"wsxcme","sourceId":"_dvdvdcaX_iZvc-VQAJaQ2V4miQqRQ6ex_G7Qq6w","sourceTagId":76963559,"sourceTagName":"爱马仕/女包","rawTitle":"✨凯莉二代mini \n颜色:心红\n牛皮压鳄鱼纹\n半手工,蜡线\n尺寸:19cm"},"price":null,"currency":"CNY","moq":1,"category":"hermes-women-bags","status":"active","alibaba_url":null,"images":["https://xcimg.szwego.com/img/e714fc80/20260603/i1780479048388_654_0_0.jpg","https://xcimg.szwego.com/img/e714fc80/20260603/i1780479046907_4157_0_1.jpg","https://xcimg.szwego.com/img/e714fc80/20260603/i1780479046980_7840_0_2.jpg","https://xcimg.szwego.com/img/e714fc80/20260603/i1780479049263_3086_0_3.jpg","https://xcimg.szwego.com/img/e714fc80/20260603/i1780479048352_5894_0_4.jpg","https://xcimg.szwego.com/img/e714fc80/20260603/i1780479049304_2490_0_5.jpg","https://xcimg.szwego.com/img/e714fc80/20260603/i1780479049187_3744_0_6.jpg","https://xcimg.szwego.com/img/e714fc80/20260603/i1780479048328_8086_0_7.jpg","https://xcimg.szwego.com/img/e714fc80/20260603/i1780479046751_5744_0_8.jpg"],"created_at":"2026-06-29T12:59:36.394Z"},{"id":"item-46b7614a9fe3","sku":"_dBiBiqg5xr-arLAmFfzsfXgNt0GzU9ADZs528QA","name_en":"✨凯莉二代mini","name_cn":"✨凯莉二代mini \n颜色:牛仔兰/树皮色/芝麻色\n进口epsom皮、银扣\n机车+半收工手缝蜡线\n尺寸:19cm","specs":{"source":"wsxcme","sourceId":"_dBiBiqg5xr-arLAmFfzsfXgNt0GzU9ADZs528QA","sourceTagId":76963559,"sourceTagName":"爱马仕/女包","rawTitle":"✨凯莉二代mini \n颜色:牛仔兰/树皮色/芝麻色\n进口epsom皮、银扣\n机车+半收工手缝蜡线\n尺寸:19cm"},"price":null,"currency":"CNY","moq":1,"category":"hermes-women-bags","status":"active","alibaba_url":null,"images":["https://xcimg.szwego.com/img/88b306c4/20240904/a1725382626002_2105.jpg","https://xcimg.szwego.com/img/88b306c4/20240904/a1725382625932_2701.jpg","https://xcimg.szwego.com/img/88b306c4/20240904/a1725382625507_4223.jpg","https://xcimg.szwego.com/img/88b306c4/20240904/a1725382625706_4671.jpg","https://xcimg.szwego.com/img/88b306c4/20240904/a1725382625731_5766.jpg","https://xcimg.szwego.com/img/88b306c4/20240904/a1725382625699_6522.jpg","https://xcimg.szwego.com/img/88b306c4/20240904/a1725382627182_0028.jpg","https://xcimg.szwego.com/img/88b306c4/20240904/a1725382627185_4164.jpg","https://xcimg.szwego.com/img/88b306c4/20240904/a1725382627142_4708.jpg"],"created_at":"2024-10-22T05:04:33.174Z"},{"id":"item-45822deb984f","sku":"_dM-M-JAHan2QJ1Sf0W-YXYT1W4yTJRoLLqohQQQ","name_en":"✨凯莉二代mini","name_cn":"✨凯莉二代mini \n颜色:梦幻粉紫/奶昔白\n进口epsom皮、银扣\n机车+半收工手缝蜡线\n尺寸:19cm","specs":{"source":"wsxcme","sourceId":"_dM-M-JAHan2QJ1Sf0W-YXYT1W4yTJRoLLqohQQQ","sourceTagId":76963559,"sourceTagName":"爱马仕/女包","rawTitle":"✨凯莉二代mini \n颜色:梦幻粉紫/奶昔白\n进口epsom皮、银扣\n机车+半收工手缝蜡线\n尺寸:19cm"},"price":null,"currency":"CNY","moq":1,"category":"hermes-women-bags","status":"active","alibaba_url":null,"images":["https://xcimg.szwego.com/img/88b306c4/20240904/a1725380672177_2668.jpg","https://xcimg.szwego.com/img/88b306c4/20240904/a1725380671950_8781.jpg","https://xcimg.szwego.com/img/88b306c4/20240904/a1725380672002_4210.jpg","https://xcimg.szwego.com/img/88b306c4/20240904/a1725380672015_0472.jpg","https://xcimg.szwego.com/img/88b306c4/20240904/a1725380672241_4033.jpg","https://xcimg.szwego.com/img/88b306c4/20240904/a1725380671978_1846.jpg","https://xcimg.szwego.com/img/88b306c4/20240904/a1725380678172_0755.jpg","https://xcimg.szwego.com/img/88b306c4/20240904/a1725380678070_8243.jpg","https://xcimg.szwego.com/img/88b306c4/20240904/a1725380678171_1460.jpg"],"created_at":"2024-10-22T05:04:33.195Z"},{"id":"item-44379a6a3988","sku":"_d3v3vyYqrfT2BSX2kdF6Y3m-5WKmpd02UOq8Qqg","name_en":"✨凯莉二代mini","name_cn":"✨凯莉二代mini \n颜色:圣杯兰/奶昔白\n进口epsom皮、金扣\n机车+半收工手缝蜡线\n尺寸:19cm","specs":{"source":"wsxcme","sourceId":"_d3v3vyYqrfT2BSX2kdF6Y3m-5WKmpd02UOq8Qqg","sourceTagId":76963559,"sourceTagName":"爱马仕/女包","rawTitle":"✨凯莉二代mini \n颜色:圣杯兰/奶昔白\n进口epsom皮、金扣\n机车+半收工手缝蜡线\n尺寸:19cm"},"price":null,"currency":"CNY","moq":1,"category":"hermes-women-bags","status":"active","alibaba_url":null,"images":["https://xcimg.szwego.com/img/88b306c4/20240904/a1725381152393_5504.jpg","https://xcimg.szwego.com/img/88b306c4/20240904/a1725381152557_2305.jpg","https://xcimg.szwego.com/img/88b306c4/20240904/a1725381152565_1601.jpg","https://xcimg.szwego.com/img/88b306c4/20240904/a1725381152812_8375.jpg","https://xcimg.szwego.com/img/88b306c4/20240904/a1725381152889_2423.jpg","https://xcimg.szwego.com/img/88b306c4/20240904/a1725381152606_5357.jpg","https://xcimg.szwego.com/img/88b306c4/20240904/a1725381157918_1786.jpg","https://xcimg.szwego.com/img/88b306c4/20240904/a1725381157872_3674.jpg","https://xcimg.szwego.com/img/88b306c4/20240904/a1725381157927_0316.jpg"],"created_at":"2024-10-22T05:04:33.198Z"},{"id":"item-42c4697d5f7e","sku":"_dmSmSAxndrRuMjCJw5qLO137KcJ3k-cENieY2WA","name_en":"✨凯莉二代mini","name_cn":"✨凯莉二代mini \n颜色:琥珀黄\n牛皮压鳄鱼纹\n半手工,蜡线\n尺寸:19cm","specs":{"source":"wsxcme","sourceId":"_dmSmSAxndrRuMjCJw5qLO137KcJ3k-cENieY2WA","sourceTagId":76963559,"sourceTagName":"爱马仕/女包","rawTitle":"✨凯莉二代mini \n颜色:琥珀黄\n牛皮压鳄鱼纹\n半手工,蜡线\n尺寸:19cm"},"price":null,"currency":"CNY","moq":1,"category":"hermes-women-bags","status":"active","alibaba_url":null,"images":["https://xcimg.szwego.com/img/e714fc80/20260603/i1780478617457_9620_0_0.jpg","https://xcimg.szwego.com/img/e714fc80/20260603/i1780478617434_5467_0_1.jpg","https://xcimg.szwego.com/img/e714fc80/20260603/i1780478615965_5286_0_2.jpg","https://xcimg.szwego.com/img/e714fc80/20260603/i1780478618559_1970_0_3.jpg","https://xcimg.szwego.com/img/e714fc80/20260603/i1780478618792_2436_0_4.jpg","https://xcimg.szwego.com/img/e714fc80/20260603/i1780478615808_8884_0_5.jpg","https://xcimg.szwego.com/img/e714fc80/20260603/i1780478615694_5968_0_6.jpg","https://xcimg.szwego.com/img/e714fc80/20260603/i1780478617363_6936_0_7.jpg","https://xcimg.szwego.com/img/e714fc80/20260603/i1780478618488_7501_0_8.jpg"],"created_at":"2026-06-29T12:59:36.374Z"},{"id":"item-34e976eba1f3","sku":"_d-e-elc_lZztlmPGUdaEQ_NG5td428td4szny4g","name_en":"✨凯莉二代mini","name_cn":"✨凯莉二代mini \n颜色:金棕/奶昔白\n进口epsom皮、金扣\n机车+半收工手缝蜡线\n尺寸:19cm","specs":{"source":"wsxcme","sourceId":"_d-e-elc_lZztlmPGUdaEQ_NG5td428td4szny4g","sourceTagId":76963559,"sourceTagName":"爱马仕/女包","rawTitle":"✨凯莉二代mini \n颜色:金棕/奶昔白\n进口epsom皮、金扣\n机车+半收工手缝蜡线\n尺寸:19cm"},"price":null,"currency":"CNY","moq":1,"category":"hermes-women-bags","status":"active","alibaba_url":null,"images":["https://xcimg.szwego.com/img/88b306c4/20240903/a1725377152273_0265.jpg","https://xcimg.szwego.com/img/88b306c4/20240903/a1725377337935_5440.jpg","https://xcimg.szwego.com/img/88b306c4/20240903/a1725377337930_1040.jpg","https://xcimg.szwego.com/img/88b306c4/20240903/a1725377338170_1405.jpg","https://xcimg.szwego.com/img/88b306c4/20240903/a1725377337944_6182.jpg","https://xcimg.szwego.com/img/88b306c4/20240903/a1725377337962_3451.jpg","https://xcimg.szwego.com/img/88b306c4/20240903/a1725377339147_3246.jpg","https://xcimg.szwego.com/img/88b306c4/20240903/a1725377339250_0662.jpg","https://xcimg.szwego.com/img/88b306c4/20240903/a1725377339135_4688.jpg"],"created_at":"2024-10-22T05:04:33.182Z"},{"id":"item-32ef592a4db9","sku":"_dEcEcmfStvxrHNHUmFSJR9bM47H0ZvPvJPm_Z2A","name_en":"✨凯莉二代mini","name_cn":"✨凯莉二代mini \n颜色:风衣灰/金棕\n进口epsom皮、银扣\n机车+半收工手缝蜡线\n尺寸:19cm","specs":{"source":"wsxcme","sourceId":"_dEcEcmfStvxrHNHUmFSJR9bM47H0ZvPvJPm_Z2A","sourceTagId":76963559,"sourceTagName":"爱马仕/女包","rawTitle":"✨凯莉二代mini \n颜色:风衣灰/金棕\n进口epsom皮、银扣\n机车+半收工手缝蜡线\n尺寸:19cm"},"price":null,"currency":"CNY","moq":1,"category":"hermes-women-bags","status":"active","alibaba_url":null,"images":["https://xcimg.szwego.com/img/88b306c4/20240904/a1725381839323_5556.jpg","https://xcimg.szwego.com/img/88b306c4/20240904/a1725381839531_7132.jpg","https://xcimg.szwego.com/img/88b306c4/20240904/a1725381839174_7488.jpg","https://xcimg.szwego.com/img/88b306c4/20240904/a1725381839157_0855.jpg","https://xcimg.szwego.com/img/88b306c4/20240904/a1725381839175_7022.jpg","https://xcimg.szwego.com/img/88b306c4/20240904/a1725381839213_5587.jpg","https://xcimg.szwego.com/img/88b306c4/20240904/a1725381840770_6581.jpg","https://xcimg.szwego.com/img/88b306c4/20240904/a1725381840730_2633.jpg","https://xcimg.szwego.com/img/88b306c4/20240904/a1725381840717_0103.jpg"],"created_at":"2024-10-22T05:04:33.168Z"},{"id":"item-2ec81ee5030b","sku":"_djHjHdyNhk0cJVz663IfqOTSBSGdyQzAPXYEnyQ","name_en":"✨凯莉二代mini","name_cn":"✨凯莉二代mini \n颜色:金棕/奶昔白\n进口epsom皮、银扣\n机车+半收工手缝蜡线\n尺寸:19cm","specs":{"source":"wsxcme","sourceId":"_djHjHdyNhk0cJVz663IfqOTSBSGdyQzAPXYEnyQ","sourceTagId":76963559,"sourceTagName":"爱马仕/女包","rawTitle":"✨凯莉二代mini \n颜色:金棕/奶昔白\n进口epsom皮、银扣\n机车+半收工手缝蜡线\n尺寸:19cm"},"price":null,"currency":"CNY","moq":1,"category":"hermes-women-bags","status":"active","alibaba_url":null,"images":["https://xcimg.szwego.com/img/88b306c4/20240903/a1725377151117_4020.jpg","https://xcimg.szwego.com/img/88b306c4/20240903/a1725377151068_8287.jpg","https://xcimg.szwego.com/img/88b306c4/20240903/a1725377150812_8450.jpg","https://xcimg.szwego.com/img/88b306c4/20240903/a1725377150818_3200.jpg","https://xcimg.szwego.com/img/88b306c4/20240903/a1725377151109_2613.jpg","https://xcimg.szwego.com/img/88b306c4/20240903/a1725377150961_5115.jpg","https://xcimg.szwego.com/img/88b306c4/20240903/a1725377152370_0850.jpg","https://xcimg.szwego.com/img/88b306c4/20240903/a1725377152391_6036.jpg","https://xcimg.szwego.com/img/88b306c4/20240903/a1725377152251_4166.jpg","https://xcimg.szwego.com/img/88b306c4/20240903/a1725377152273_0265.jpg"],"created_at":"2024-10-22T05:04:33.215Z"},{"id":"item-29bb8a303609","sku":"_d8m8mNdC834j005G2v6e1cXIvr1-PSo63WIL9QQ","name_en":"✨凯莉二代mini","name_cn":"✨凯莉二代mini \n颜色:金棕/梦幻粉紫/奶昔白\n进口epsom皮、银扣\n机车+半收工手缝蜡线\n尺寸:19cm","specs":{"source":"wsxcme","sourceId":"_d8m8mNdC834j005G2v6e1cXIvr1-PSo63WIL9QQ","sourceTagId":76963559,"sourceTagName":"爱马仕/女包","rawTitle":"✨凯莉二代mini \n颜色:金棕/梦幻粉紫/奶昔白\n进口epsom皮、银扣\n机车+半收工手缝蜡线\n尺寸:19cm"},"price":null,"currency":"CNY","moq":1,"category":"hermes-women-bags","status":"active","alibaba_url":null,"images":["https://xcimg.szwego.com/img/88b306c4/20240903/a1725377634442_0565.jpg","https://xcimg.szwego.com/img/88b306c4/20240903/a1725377634668_4053.jpg","https://xcimg.szwego.com/img/88b306c4/20240903/a1725377634412_8057.jpg","https://xcimg.szwego.com/img/88b306c4/20240903/a1725377634437_1183.jpg","https://xcimg.szwego.com/img/88b306c4/20240903/a1725377634586_5667.jpg","https://xcimg.szwego.com/img/88b306c4/20240903/a1725377634426_2220.jpg","https://xcimg.szwego.com/img/88b306c4/20240903/a1725377635873_4655.jpg","https://xcimg.szwego.com/img/88b306c4/20240903/a1725377635902_1314.jpg","https://xcimg.szwego.com/img/88b306c4/20240903/a1725377635728_0351.jpg"],"created_at":"2024-10-22T05:04:33.183Z"},{"id":"item-286ece5dbcde","sku":"_drGrGlAaz0m_0yN6pJFHKLKXwsUuwRwkEbuyhPw","name_en":"✨凯莉二代mini","name_cn":"✨凯莉二代mini \n颜色:太阳黄/奶昔白\n进口epsom皮、银扣\n机车+半收工手缝蜡线\n尺寸:19cm","specs":{"source":"wsxcme","sourceId":"_drGrGlAaz0m_0yN6pJFHKLKXwsUuwRwkEbuyhPw","sourceTagId":76963559,"sourceTagName":"爱马仕/女包","rawTitle":"✨凯莉二代mini \n颜色:太阳黄/奶昔白\n进口epsom皮、银扣\n机车+半收工手缝蜡线\n尺寸:19cm"},"price":null,"currency":"CNY","moq":1,"category":"hermes-women-bags","status":"active","alibaba_url":null,"images":["https://xcimg.szwego.com/img/88b306c4/20240904/a1725380119220_6073.jpg","https://xcimg.szwego.com/img/88b306c4/20240904/a1725380119502_0158.jpg","https://xcimg.szwego.com/img/88b306c4/20240904/a1725380119229_4238.jpg","https://xcimg.szwego.com/img/88b306c4/20240904/a1725380119222_5607.jpg","https://xcimg.szwego.com/img/88b306c4/20240904/a1725380119482_3410.jpg","https://xcimg.szwego.com/img/88b306c4/20240904/a1725380119219_2337.jpg","https://xcimg.szwego.com/img/88b306c4/20240904/a1725380124129_0448.jpg","https://xcimg.szwego.com/img/88b306c4/20240904/a1725380124100_7412.jpg","https://xcimg.szwego.com/img/88b306c4/20240904/a1725380124101_1758.jpg"],"created_at":"2024-10-22T05:04:33.191Z"},{"id":"item-2717bb42d50e","sku":"_dqoqoG9ipmla-j4kIx1k6XV0qKcVkrYF5Pdk8lw","name_en":"✨凯莉二代mini","name_cn":"✨凯莉二代mini \n颜色:奶昔白/大象灰\n进口epsom皮、金扣\n机车+半收工手缝蜡线\n尺寸:19cm","specs":{"source":"wsxcme","sourceId":"_dqoqoG9ipmla-j4kIx1k6XV0qKcVkrYF5Pdk8lw","sourceTagId":76963559,"sourceTagName":"爱马仕/女包","rawTitle":"✨凯莉二代mini \n颜色:奶昔白/大象灰\n进口epsom皮、金扣\n机车+半收工手缝蜡线\n尺寸:19cm"},"price":null,"currency":"CNY","moq":1,"category":"hermes-women-bags","status":"active","alibaba_url":null,"images":["https://xcimg.szwego.com/img/88b306c4/20240904/a1725382976780_7306.jpg","https://xcimg.szwego.com/img/88b306c4/20240904/a1725382976863_3236.jpg","https://xcimg.szwego.com/img/88b306c4/20240904/a1725382976277_2153.jpg","https://xcimg.szwego.com/img/88b306c4/20240904/a1725382976609_1462.jpg","https://xcimg.szwego.com/img/88b306c4/20240904/a1725382976418_1182.jpg","https://xcimg.szwego.com/img/88b306c4/20240904/a1725382976476_5518.jpg","https://xcimg.szwego.com/img/88b306c4/20240904/a1725382977966_1220.jpg","https://xcimg.szwego.com/img/88b306c4/20240904/a1725382978003_6663.jpg","https://xcimg.szwego.com/img/88b306c4/20240904/a1725382978026_2632.jpg"],"created_at":"2024-10-22T05:04:33.177Z"},{"id":"item-24824338aa67","sku":"_duCuCMVXzCGy70jKv6TJJsl42Lv7J-UqOcHlkNQ","name_en":"✨凯莉二代mini","name_cn":"✨凯莉二代mini \n颜色:奶茶色/柠檬黄/锦葵紫\n进口epsom皮、银扣\n机车+半收工手缝蜡线\n尺寸:19cm","specs":{"source":"wsxcme","sourceId":"_duCuCMVXzCGy70jKv6TJJsl42Lv7J-UqOcHlkNQ","sourceTagId":76963559,"sourceTagName":"爱马仕/女包","rawTitle":"✨凯莉二代mini \n颜色:奶茶色/柠檬黄/锦葵紫\n进口epsom皮、银扣\n机车+半收工手缝蜡线\n尺寸:19cm"},"price":null,"currency":"CNY","moq":1,"category":"hermes-women-bags","status":"active","alibaba_url":null,"images":["https://xcimg.szwego.com/img/88b306c4/20240904/a1725382312684_2307.jpg","https://xcimg.szwego.com/img/88b306c4/20240904/a1725382313013_5381.jpg","https://xcimg.szwego.com/img/88b306c4/20240904/a1725382312877_8327.jpg","https://xcimg.szwego.com/img/88b306c4/20240904/a1725382312733_6438.jpg","https://xcimg.szwego.com/img/88b306c4/20240904/a1725382312813_7225.jpg","https://xcimg.szwego.com/img/88b306c4/20240904/a1725382313075_0747.jpg","https://xcimg.szwego.com/img/88b306c4/20240904/a1725382314063_4683.jpg","https://xcimg.szwego.com/img/88b306c4/20240904/a1725382314112_8344.jpg","https://xcimg.szwego.com/img/88b306c4/20240904/a1725382313936_0117.jpg"],"created_at":"2024-10-22T05:04:33.172Z"},{"id":"item-186af3d64229","sku":"_dmamaQbOqFnMcbEqTk6H3LFzjam49dsjrfjP63w","name_en":"✨凯莉二代mini","name_cn":"✨凯莉二代mini \n颜色:奶昔白/奶茶色\n进口epsom皮、银扣\n机车+半收工手缝蜡线\n尺寸:19cm","specs":{"source":"wsxcme","sourceId":"_dmamaQbOqFnMcbEqTk6H3LFzjam49dsjrfjP63w","sourceTagId":76963559,"sourceTagName":"爱马仕/女包","rawTitle":"✨凯莉二代mini \n颜色:奶昔白/奶茶色\n进口epsom皮、银扣\n机车+半收工手缝蜡线\n尺寸:19cm"},"price":null,"currency":"CNY","moq":1,"category":"hermes-women-bags","status":"active","alibaba_url":null,"images":["https://xcimg.szwego.com/img/88b306c4/20240904/a1725381473346_1411.jpg","https://xcimg.szwego.com/img/88b306c4/20240904/a1725381473383_8078.jpg","https://xcimg.szwego.com/img/88b306c4/20240904/a1725381473373_0221.jpg","https://xcimg.szwego.com/img/88b306c4/20240904/a1725381473684_8486.jpg","https://xcimg.szwego.com/img/88b306c4/20240904/a1725381473627_5725.jpg","https://xcimg.szwego.com/img/88b306c4/20240904/a1725381473365_3602.jpg","https://xcimg.szwego.com/img/88b306c4/20240904/a1725381474788_4602.jpg","https://xcimg.szwego.com/img/88b306c4/20240904/a1725381474763_5702.jpg","https://xcimg.szwego.com/img/88b306c4/20240904/a1725381474761_5011.jpg"],"created_at":"2024-10-22T05:04:33.166Z"},{"id":"item-14ec90a6452e","sku":"_dtltlUveL0rfaqKEeTVwfMhIJicmPzMeaqmrpwg","name_en":"✨凯莉二代mini","name_cn":"✨凯莉二代mini \n颜色:奶昔白/克\n进口epsom皮、银扣\n机车+半收工手缝蜡线\n尺寸:19cm","specs":{"source":"wsxcme","sourceId":"_dtltlUveL0rfaqKEeTVwfMhIJicmPzMeaqmrpwg","sourceTagId":76963559,"sourceTagName":"爱马仕/女包","rawTitle":"✨凯莉二代mini \n颜色:奶昔白/克\n进口epsom皮、银扣\n机车+半收工手缝蜡线\n尺寸:19cm"},"price":null,"currency":"CNY","moq":1,"category":"hermes-women-bags","status":"active","alibaba_url":null,"images":["https://xcimg.szwego.com/img/88b306c4/20240903/a1725376369518_3511.jpg","https://xcimg.szwego.com/img/88b306c4/20240903/a1725376369336_4875.jpg","https://xcimg.szwego.com/img/88b306c4/20240903/a1725376369581_5357.jpg","https://xcimg.szwego.com/img/88b306c4/20240903/a1725376369092_7573.jpg","https://xcimg.szwego.com/img/88b306c4/20240903/a1725376369331_5164.jpg","https://xcimg.szwego.com/img/88b306c4/20240903/a1725376369180_5312.jpg","https://xcimg.szwego.com/img/88b306c4/20240903/a1725376370522_3262.jpg","https://xcimg.szwego.com/img/88b306c4/20240903/a1725376370640_4662.jpg","https://xcimg.szwego.com/img/88b306c4/20240903/a1725376370521_1882.jpg"],"created_at":"2024-10-22T05:04:33.211Z"}],"page":86,"pageSize":24,"total":10075,"totalPages":420}
