{"items":[{"id":"item-9d35530bcd56","sku":"_dpgpgtgtZUaj2bWulUXZmQ5TrURyY_7jTWXZ5nQ","name_en":"Coach dempsey 30托特","name_cn":"Coach dempsey 30托特\n秋冬更适合大一点点的托特,30尺寸刚刚好。可以放下平板,适合通勤。\n经典的格纹和温柔的米色就很搭🤔️","specs":{"source":"wsxcme","sourceId":"_dpgpgtgtZUaj2bWulUXZmQ5TrURyY_7jTWXZ5nQ","sourceTagId":77388356,"sourceTagName":"MCM、寇驰/女包","rawTitle":"Coach dempsey 30托特\n秋冬更适合大一点点的托特,30尺寸刚刚好。可以放下平板,适合通勤。\n经典的格纹和温柔的米色就很搭🤔️"},"price":null,"currency":"CNY","moq":1,"category":"mcm-coach-women-bags","status":"active","alibaba_url":null,"images":["https://xcimg.szwego.com/img/aa892012/20231013/i1697176706_832_0.jpg","https://xcimg.szwego.com/img/aa892012/20231013/i1697176706_1809_1.jpg","https://xcimg.szwego.com/img/aa892012/20231013/i1697176706_2819_2.jpg","https://xcimg.szwego.com/img/aa892012/20231013/i1697176706_661_3.jpg","https://xcimg.szwego.com/img/aa892012/20231013/i1697176706_6287_4.jpg","https://xcimg.szwego.com/img/aa892012/20231013/i1697176706_2256_5.jpg","https://xcimg.szwego.com/img/aa892012/20231013/i1697176706_4307_6.jpg"],"created_at":"2024-12-02T06:17:13.203Z"},{"id":"item-d1b0a7e72fba","sku":"_db4b4IsscYb0mNwCQ641sSxOnhwTP-YbazKlELg","name_en":"COACH Dempsey Tote 30圣诞红色❤️","name_cn":"COACH Dempsey Tote 30圣诞红色❤️\n绯红色皮革和织布提花的碰撞~更显热烈和真挚\n可单肩可斜挎可手提👋\n如果信仰有颜色~ 那一定是中国红🇨🇳","specs":{"source":"wsxcme","sourceId":"_db4b4IsscYb0mNwCQ641sSxOnhwTP-YbazKlELg","sourceTagId":77388356,"sourceTagName":"MCM、寇驰/女包","rawTitle":"COACH Dempsey Tote 30圣诞红色❤️\n绯红色皮革和织布提花的碰撞~更显热烈和真挚\n可单肩可斜挎可手提👋\n如果信仰有颜色~ 那一定是中国红🇨🇳"},"price":null,"currency":"CNY","moq":1,"category":"mcm-coach-women-bags","status":"active","alibaba_url":null,"images":["https://xcimg.szwego.com/img/aa892012/20231013/i1697176375_9680_0.jpg","https://xcimg.szwego.com/img/aa892012/20231013/i1697176375_4391_1.jpg","https://xcimg.szwego.com/img/aa892012/20231013/i1697176375_8354_2.jpg","https://xcimg.szwego.com/img/aa892012/20231013/i1697176375_9765_3.jpg","https://xcimg.szwego.com/img/aa892012/20231013/i1697176375_9121_4.jpg","https://xcimg.szwego.com/img/aa892012/20231013/i1697176375_5160_5.jpg","https://xcimg.szwego.com/img/aa892012/20231013/i1697176375_7865_6.jpg","https://xcimg.szwego.com/img/aa892012/20231013/i1697176375_8280_7.jpg","https://xcimg.szwego.com/img/aa892012/20231013/i1697176375_2360_8.jpg"],"created_at":"2024-12-02T06:17:13.202Z"},{"id":"item-da05b32c13da","sku":"_d1515TzQCRbx1gDqk1eTdQQqj0N9Z-b9OtU6Hog","name_en":"COACH/蔻驰迷你CALLY","name_cn":"COACH/蔻驰迷你CALLY\n\n来新色啦子简约美型,气场强到炸裂0@\n\n来吧,和闺蜜一人一只去炸街去吧\n\n17*16*8,小身材,大容量,有颜有实力,怎样搭都美 质,A ! @Coach 蔻驰@","specs":{"source":"wsxcme","sourceId":"_d1515TzQCRbx1gDqk1eTdQQqj0N9Z-b9OtU6Hog","sourceTagId":77388356,"sourceTagName":"MCM、寇驰/女包","rawTitle":"COACH/蔻驰迷你CALLY\n\n来新色啦子简约美型,气场强到炸裂0@\n\n来吧,和闺蜜一人一只去炸街去吧\n\n17*16*8,小身材,大容量,有颜有实力,怎样搭都美 质,A ! @Coach 蔻驰@"},"price":null,"currency":"CNY","moq":1,"category":"mcm-coach-women-bags","status":"active","alibaba_url":null,"images":["https://xcimg.szwego.com/20230522/i1684762317_9964_0.jpg","https://xcimg.szwego.com/20230522/i1684762317_8893_1.jpg","https://xcimg.szwego.com/20230522/i1684762317_1365_2.jpg","https://xcimg.szwego.com/20230522/i1684762317_2854_3.jpg","https://xcimg.szwego.com/20230522/i1684762317_7360_4.jpg","https://xcimg.szwego.com/20230522/i1684762317_6208_5.jpg","https://xcimg.szwego.com/20230522/i1684762317_3479_6.jpg","https://xcimg.szwego.com/20230522/i1684762317_9356_7.jpg","https://xcimg.szwego.com/20230522/i1684762317_9899_8.jpg"],"created_at":"2024-12-02T06:17:13.185Z"},{"id":"item-af24f83e423d","sku":"_dnQnQsb09wWN2hdUIJ8m4VeZ-pjqMpW8l5pmjlA","name_en":"Coach/蔻驰新款 九月份菜篮子巨巨好看蔻驰 CM545。CM550 9月新款LANA 菜篮子包 包型简约又大气,内里也是全牛皮的哦,日常物品完全可以放得下,天小适中可以手提也可以斜挎里也是全牛皮的哦,日常物品完全可以放得下,大小适中可以手提也可以斜挎 尺寸22.31.13-","name_cn":"Coach/蔻驰新款 九月份菜篮子巨巨好看蔻驰 CM545。CM550 9月新款LANA 菜篮子包 包型简约又大气,内里也是全牛皮的哦,日常物品完全可以放得下,天小适中可以手提也可以斜挎里也是全牛皮的哦,日常物品完全可以放得下,大小适中可以手提也可以斜挎 尺寸22.31.13-","specs":{"source":"wsxcme","sourceId":"_dnQnQsb09wWN2hdUIJ8m4VeZ-pjqMpW8l5pmjlA","sourceTagId":77388356,"sourceTagName":"MCM、寇驰/女包","rawTitle":"Coach/蔻驰新款 九月份菜篮子巨巨好看蔻驰 CM545。CM550 9月新款LANA 菜篮子包 包型简约又大气,内里也是全牛皮的哦,日常物品完全可以放得下,天小适中可以手提也可以斜挎里也是全牛皮的哦,日常物品完全可以放得下,大小适中可以手提也可以斜挎 尺寸22.31.13-"},"price":null,"currency":"CNY","moq":1,"category":"mcm-coach-women-bags","status":"active","alibaba_url":null,"images":["https://xcimg.szwego.com/20230913/i1694576878_6993_0.jpg","https://xcimg.szwego.com/20230913/i1694576878_5460_1.jpg","https://xcimg.szwego.com/20230913/i1694576878_729_2.jpg","https://xcimg.szwego.com/20230913/i1694576878_693_3.jpg","https://xcimg.szwego.com/20230913/i1694576878_5016_4.jpg","https://xcimg.szwego.com/20230913/i1694576878_5557_5.jpg","https://xcimg.szwego.com/20230913/i1694576878_8849_6.jpg","https://xcimg.szwego.com/20230913/i1694576878_9998_7.jpg","https://xcimg.szwego.com/20230913/i1694576878_4319_8.jpg"],"created_at":"2024-12-02T06:17:13.171Z"},{"id":"item-6a71bc9b2f19","sku":"_dllllKPhdwDyDN98ZDmmEqWaLj8-9fPx0lsizrg","name_en":"Coach/蔻驰新款 九月份菜篮子巨巨好看蔻驰 CM545。CM550 9月新款LANA 菜篮子包 包型简约又大气,内里也是全牛皮的哦,日常物品完全可以放得下,天小适中可以手提也可以斜挎里也是全牛皮的哦,日常物品完全可以放得下,大小适中可以手提也可以斜挎 尺寸22.31.13-","name_cn":"Coach/蔻驰新款 九月份菜篮子巨巨好看蔻驰 CM545。CM550 9月新款LANA 菜篮子包 包型简约又大气,内里也是全牛皮的哦,日常物品完全可以放得下,天小适中可以手提也可以斜挎里也是全牛皮的哦,日常物品完全可以放得下,大小适中可以手提也可以斜挎 尺寸22.31.13-","specs":{"source":"wsxcme","sourceId":"_dllllKPhdwDyDN98ZDmmEqWaLj8-9fPx0lsizrg","sourceTagId":77388356,"sourceTagName":"MCM、寇驰/女包","rawTitle":"Coach/蔻驰新款 九月份菜篮子巨巨好看蔻驰 CM545。CM550 9月新款LANA 菜篮子包 包型简约又大气,内里也是全牛皮的哦,日常物品完全可以放得下,天小适中可以手提也可以斜挎里也是全牛皮的哦,日常物品完全可以放得下,大小适中可以手提也可以斜挎 尺寸22.31.13-"},"price":null,"currency":"CNY","moq":1,"category":"mcm-coach-women-bags","status":"active","alibaba_url":null,"images":["https://xcimg.szwego.com/20230913/i1694576854_1836_0.jpg","https://xcimg.szwego.com/20230913/i1694576854_923_1.jpg","https://xcimg.szwego.com/20230913/i1694576854_4822_2.jpg","https://xcimg.szwego.com/20230913/i1694576854_5111_3.jpg","https://xcimg.szwego.com/20230913/i1694576854_7977_4.jpg","https://xcimg.szwego.com/20230913/i1694576854_6987_5.jpg","https://xcimg.szwego.com/20230913/i1694576854_6501_6.jpg","https://xcimg.szwego.com/20230913/i1694576854_7462_7.jpg","https://xcimg.szwego.com/20230913/i1694576854_9710_8.jpg"],"created_at":"2024-12-02T06:17:13.170Z"},{"id":"item-61ef5b2e6b31","sku":"_diaiapFLTfPO5_CxxPNRCDAg7mjZuaUQk9fPd0Q","name_en":"Coach/蔻驰新款 九月份菜篮子巨巨好看蔻驰 CM545。CM550 9月新款LANA 菜篮子包 包型简约又大气,内里也是全牛皮的哦,日常物品完全可以放得下,天小适中可以手提也可以斜挎里也是全牛皮的哦,日常物品完全可以放得下,大小适中可以手提也可以斜挎 尺寸22.31.13-","name_cn":"Coach/蔻驰新款 九月份菜篮子巨巨好看蔻驰 CM545。CM550 9月新款LANA 菜篮子包 包型简约又大气,内里也是全牛皮的哦,日常物品完全可以放得下,天小适中可以手提也可以斜挎里也是全牛皮的哦,日常物品完全可以放得下,大小适中可以手提也可以斜挎 尺寸22.31.13-","specs":{"source":"wsxcme","sourceId":"_diaiapFLTfPO5_CxxPNRCDAg7mjZuaUQk9fPd0Q","sourceTagId":77388356,"sourceTagName":"MCM、寇驰/女包","rawTitle":"Coach/蔻驰新款 九月份菜篮子巨巨好看蔻驰 CM545。CM550 9月新款LANA 菜篮子包 包型简约又大气,内里也是全牛皮的哦,日常物品完全可以放得下,天小适中可以手提也可以斜挎里也是全牛皮的哦,日常物品完全可以放得下,大小适中可以手提也可以斜挎 尺寸22.31.13-"},"price":null,"currency":"CNY","moq":1,"category":"mcm-coach-women-bags","status":"active","alibaba_url":null,"images":["https://xcimg.szwego.com/img/7350b429/20240814/i1723606783_7286_4.jpg","https://xcimg.szwego.com/img/7350b429/20240814/i1723606783_1240_7.jpg","https://xcimg.szwego.com/img/7350b429/20240814/i1723606783_1451_1.jpg","https://xcimg.szwego.com/img/7350b429/20240814/i1723606783_4467_5.jpg","https://xcimg.szwego.com/img/7350b429/20240814/i1723606783_3075_8.jpg","https://xcimg.szwego.com/img/7350b429/20240814/i1723606783_622_6.jpg","https://xcimg.szwego.com/img/7350b429/20240814/i1723606783_9026_2.jpg","https://xcimg.szwego.com/img/7350b429/20240814/i1723606783_7995_0.jpg","https://xcimg.szwego.com/img/7350b429/20240814/i1723606783_649_3.jpg"],"created_at":"2024-12-02T06:17:13.169Z"},{"id":"item-2bdc12088f17","sku":"_dznznNdmOL4eQR1STuaxNirc-uIzi6RLo6dfyLQ","name_en":"Coach/蔻驰新款 九月份菜篮子巨巨好看蔻驰 CM545。CM550 9月新款LANA 菜篮子包 包型简约又大气,内里也是全牛皮的哦,日常物品完全可以放得下,天小适中可以手提也可以斜挎里也是全牛皮的哦,日常物品完全可以放得下,大小适中可以手提也可以斜挎 尺寸22.31.13-","name_cn":"Coach/蔻驰新款 九月份菜篮子巨巨好看蔻驰 CM545。CM550 9月新款LANA 菜篮子包 包型简约又大气,内里也是全牛皮的哦,日常物品完全可以放得下,天小适中可以手提也可以斜挎里也是全牛皮的哦,日常物品完全可以放得下,大小适中可以手提也可以斜挎 尺寸22.31.13-","specs":{"source":"wsxcme","sourceId":"_dznznNdmOL4eQR1STuaxNirc-uIzi6RLo6dfyLQ","sourceTagId":77388356,"sourceTagName":"MCM、寇驰/女包","rawTitle":"Coach/蔻驰新款 九月份菜篮子巨巨好看蔻驰 CM545。CM550 9月新款LANA 菜篮子包 包型简约又大气,内里也是全牛皮的哦,日常物品完全可以放得下,天小适中可以手提也可以斜挎里也是全牛皮的哦,日常物品完全可以放得下,大小适中可以手提也可以斜挎 尺寸22.31.13-"},"price":null,"currency":"CNY","moq":1,"category":"mcm-coach-women-bags","status":"active","alibaba_url":null,"images":["https://xcimg.szwego.com/img/7350b429/20240809/i1723163035_8212_0.jpg","https://xcimg.szwego.com/img/7350b429/20240809/i1723163035_8598_3.jpg","https://xcimg.szwego.com/img/7350b429/20240809/i1723163036_9764_7.jpg","https://xcimg.szwego.com/img/7350b429/20240809/i1723163036_2182_4.jpg","https://xcimg.szwego.com/img/7350b429/20240809/i1723163035_4006_1.jpg","https://xcimg.szwego.com/img/7350b429/20240809/i1723163036_3561_8.jpg","https://xcimg.szwego.com/img/7350b429/20240809/i1723163036_4819_5.jpg","https://xcimg.szwego.com/img/7350b429/20240809/i1723163036_5250_6.jpg","https://xcimg.szwego.com/img/7350b429/20240809/i1723163035_3923_2.jpg"],"created_at":"2024-12-02T06:17:13.168Z"},{"id":"item-05d3d6eb23cb","sku":"_dOdOdtkS6eOt_wD6e6cr9i1T0Ga-EOJBMBOtfkQ","name_en":"COACH/蔻驰新款彩虹🌈条纹印花TOTE托特包经典大标志单肩斜跨包 CJ576,尺寸:20*18*10","name_cn":"COACH/蔻驰新款彩虹🌈条纹印花TOTE托特包经典大标志单肩斜跨包 CJ576,尺寸:20*18*10","specs":{"source":"wsxcme","sourceId":"_dOdOdtkS6eOt_wD6e6cr9i1T0Ga-EOJBMBOtfkQ","sourceTagId":77388356,"sourceTagName":"MCM、寇驰/女包","rawTitle":"COACH/蔻驰新款彩虹🌈条纹印花TOTE托特包经典大标志单肩斜跨包 CJ576,尺寸:20*18*10"},"price":null,"currency":"CNY","moq":1,"category":"mcm-coach-women-bags","status":"active","alibaba_url":null,"images":["https://xcimg.szwego.com/20230602/i1685674432_9488_0.jpg","https://xcimg.szwego.com/20230602/i1685674432_3863_1.jpg","https://xcimg.szwego.com/20230602/i1685674432_3275_2.jpg","https://xcimg.szwego.com/20230602/i1685674432_7717_3.jpg","https://xcimg.szwego.com/20230602/i1685674432_3547_4.jpg","https://xcimg.szwego.com/20230602/i1685674432_1349_5.jpg","https://xcimg.szwego.com/20230602/i1685674432_3326_6.jpg","https://xcimg.szwego.com/20230602/i1685674432_1403_7.jpg","https://xcimg.szwego.com/20230602/i1685674432_7069_8.jpg"],"created_at":"2024-12-02T06:17:13.188Z"},{"id":"item-7929a0ca23f2","sku":"_dj-j-5YlqHEhlbQVQa7J9HOr1VeJuCbNnNpg95w","name_en":"COACH|6月新品cj610高级质感绗缝羊皮 波士顿枕头包 软乎乎的手感,蓬松软糯非常高级,手感柔软细腻顺滑真的有一种超级大牌的质感!\t黑色低调奢华尽显优雅和内涵,经典百搭 尺寸26/18/13","name_cn":"COACH|6月新品cj610高级质感绗缝羊皮 波士顿枕头包 软乎乎的手感,蓬松软糯非常高级,手感柔软细腻顺滑真的有一种超级大牌的质感!\t黑色低调奢华尽显优雅和内涵,经典百搭 尺寸26/18/13","specs":{"source":"wsxcme","sourceId":"_dj-j-5YlqHEhlbQVQa7J9HOr1VeJuCbNnNpg95w","sourceTagId":77388356,"sourceTagName":"MCM、寇驰/女包","rawTitle":"COACH|6月新品cj610高级质感绗缝羊皮 波士顿枕头包 软乎乎的手感,蓬松软糯非常高级,手感柔软细腻顺滑真的有一种超级大牌的质感!\t黑色低调奢华尽显优雅和内涵,经典百搭 尺寸26/18/13"},"price":null,"currency":"CNY","moq":1,"category":"mcm-coach-women-bags","status":"active","alibaba_url":null,"images":["https://xcimg.szwego.com/img/7350b429/20240918/i1726593951_3800_4.jpg","https://xcimg.szwego.com/img/7350b429/20240918/i1726593951_6343_2.jpg","https://xcimg.szwego.com/img/7350b429/20240918/i1726593951_8810_1.jpg","https://xcimg.szwego.com/img/7350b429/20240918/i1726593951_1071_3.jpg","https://xcimg.szwego.com/img/7350b429/20240918/i1726593951_9793_6.jpg","https://xcimg.szwego.com/img/7350b429/20240918/i1726593951_2705_0.jpg","https://xcimg.szwego.com/img/7350b429/20240918/i1726593951_3556_5.jpg","https://xcimg.szwego.com/img/7350b429/20240918/i1726593951_6915_7.jpg"],"created_at":"2024-12-02T06:17:13.258Z"},{"id":"item-d46120af510f","sku":"_dfofo6zE4ucR8MAPJ-vF2YLbOkb8dBhUSmS_8ZA","name_en":"Coach蔻驰代工厂 渠道货 CT800新款Coach蔻驰新款City Bucket水桶包手提斜挎包 ,尺寸:28*22*10","name_cn":"Coach蔻驰代工厂 渠道货 CT800新款Coach蔻驰新款City Bucket水桶包手提斜挎包 ,尺寸:28*22*10","specs":{"source":"wsxcme","sourceId":"_dfofo6zE4ucR8MAPJ-vF2YLbOkb8dBhUSmS_8ZA","sourceTagId":77388356,"sourceTagName":"MCM、寇驰/女包","rawTitle":"Coach蔻驰代工厂 渠道货 CT800新款Coach蔻驰新款City Bucket水桶包手提斜挎包 ,尺寸:28*22*10"},"price":null,"currency":"CNY","moq":1,"category":"mcm-coach-women-bags","status":"active","alibaba_url":null,"images":["https://xcimg.szwego.com/20240629/i1719627140_1111_0.jpg","https://xcimg.szwego.com/20240629/i1719627140_6874_1.jpg","https://xcimg.szwego.com/20240629/i1719627140_9340_2.jpg","https://xcimg.szwego.com/20240629/i1719627140_4829_3.jpg","https://xcimg.szwego.com/20240629/i1719627140_8953_4.jpg","https://xcimg.szwego.com/20240629/i1719627140_2184_5.jpg","https://xcimg.szwego.com/20240629/i1719627140_4600_6.jpg","https://xcimg.szwego.com/20240629/i1719627140_7210_7.jpg","https://xcimg.szwego.com/20240629/i1719627140_7485_8.jpg"],"created_at":"2024-12-02T06:17:13.223Z"},{"id":"item-70b104ad02a3","sku":"_dcycyvGKWndmIKeGuYKejMvuXUKnvGXx1qpIpPA","name_en":"Coach蔻驰代工厂 渠道货 CT800新款Coach蔻驰新款City Bucket水桶包手提斜挎包 ,尺寸:28*22*10","name_cn":"Coach蔻驰代工厂 渠道货 CT800新款Coach蔻驰新款City Bucket水桶包手提斜挎包 ,尺寸:28*22*10","specs":{"source":"wsxcme","sourceId":"_dcycyvGKWndmIKeGuYKejMvuXUKnvGXx1qpIpPA","sourceTagId":77388356,"sourceTagName":"MCM、寇驰/女包","rawTitle":"Coach蔻驰代工厂 渠道货 CT800新款Coach蔻驰新款City Bucket水桶包手提斜挎包 ,尺寸:28*22*10"},"price":null,"currency":"CNY","moq":1,"category":"mcm-coach-women-bags","status":"active","alibaba_url":null,"images":["https://xcimg.szwego.com/20240629/i1719627076_3078_0.jpg","https://xcimg.szwego.com/20240629/i1719627076_512_1.jpg","https://xcimg.szwego.com/20240629/i1719627076_5759_2.jpg","https://xcimg.szwego.com/20240629/i1719627076_3359_3.jpg","https://xcimg.szwego.com/20240629/i1719627076_2625_4.jpg","https://xcimg.szwego.com/20240629/i1719627076_4867_5.jpg","https://xcimg.szwego.com/20240629/i1719627076_8083_6.jpg","https://xcimg.szwego.com/20240629/i1719627076_932_7.jpg","https://xcimg.szwego.com/20240629/i1719627076_6150_8.jpg"],"created_at":"2024-12-02T06:17:13.222Z"},{"id":"item-49d8c9e85abe","sku":"_daoaoqD0kfLlduPKunmJ1A4nP-fU9sJbY96j5Ng","name_en":"Coach蔻驰代工厂 渠道货 CT801新款Coach蔻驰新款City Bucket水桶包手提斜挎包 ,尺寸:28*22*10","name_cn":"Coach蔻驰代工厂 渠道货 CT801新款Coach蔻驰新款City Bucket水桶包手提斜挎包 ,尺寸:28*22*10","specs":{"source":"wsxcme","sourceId":"_daoaoqD0kfLlduPKunmJ1A4nP-fU9sJbY96j5Ng","sourceTagId":77388356,"sourceTagName":"MCM、寇驰/女包","rawTitle":"Coach蔻驰代工厂 渠道货 CT801新款Coach蔻驰新款City Bucket水桶包手提斜挎包 ,尺寸:28*22*10"},"price":null,"currency":"CNY","moq":1,"category":"mcm-coach-women-bags","status":"active","alibaba_url":null,"images":["https://xcimg.szwego.com/20240629/i1719627024_7510_0.jpg","https://xcimg.szwego.com/20240629/i1719627024_5605_1.jpg","https://xcimg.szwego.com/20240629/i1719627024_7948_2.jpg","https://xcimg.szwego.com/20240629/i1719627024_3439_3.jpg","https://xcimg.szwego.com/20240629/i1719627024_8326_4.jpg","https://xcimg.szwego.com/20240629/i1719627024_2416_5.jpg","https://xcimg.szwego.com/20240629/i1719627024_1846_6.jpg","https://xcimg.szwego.com/20240629/i1719627024_3840_7.jpg","https://xcimg.szwego.com/20240629/i1719627024_4858_8.jpg"],"created_at":"2024-12-02T06:17:13.221Z"},{"id":"item-de9cdf37e778","sku":"_deCeC4hYdd6SKmuTavIpkxfZHP2o6r-WjucHiGw","name_en":"Coach蔻驰代工厂 渠道货 lCT800新款Coach蔻驰新款City Bucket水桶包手提斜挎包 ,尺寸:28*22*10","name_cn":"Coach蔻驰代工厂 渠道货 lCT800新款Coach蔻驰新款City Bucket水桶包手提斜挎包 ,尺寸:28*22*10","specs":{"source":"wsxcme","sourceId":"_deCeC4hYdd6SKmuTavIpkxfZHP2o6r-WjucHiGw","sourceTagId":77388356,"sourceTagName":"MCM、寇驰/女包","rawTitle":"Coach蔻驰代工厂 渠道货 lCT800新款Coach蔻驰新款City Bucket水桶包手提斜挎包 ,尺寸:28*22*10"},"price":null,"currency":"CNY","moq":1,"category":"mcm-coach-women-bags","status":"active","alibaba_url":null,"images":["https://xcimg.szwego.com/20240629/i1719627206_1108_0.jpg","https://xcimg.szwego.com/20240629/i1719627206_1619_1.jpg","https://xcimg.szwego.com/20240629/i1719627206_9396_2.jpg","https://xcimg.szwego.com/20240629/i1719627206_4261_3.jpg","https://xcimg.szwego.com/20240629/i1719627206_6253_4.jpg","https://xcimg.szwego.com/20240629/i1719627206_6992_5.jpg","https://xcimg.szwego.com/20240629/i1719627206_3528_6.jpg","https://xcimg.szwego.com/20240629/i1719627206_6031_7.jpg","https://xcimg.szwego.com/20240629/i1719627206_4240_8.jpg"],"created_at":"2024-12-02T06:17:13.224Z"},{"id":"item-adf2ca4ac0ca","sku":"_dmgmgjBsHciWWRU0JqKCd0AAqgaS6iaNTT1JlDQ","name_en":"COACH蔻驰代工厂 渠道货👍2562黑色.白色,杏色有货。COACH蔻驰Tilly时尚单肩斜挎包女士白色皮革手提包2562。尺寸24 11 18。","name_cn":"COACH蔻驰代工厂 渠道货👍2562黑色.白色,杏色有货。COACH蔻驰Tilly时尚单肩斜挎包女士白色皮革手提包2562。尺寸24 11 18。","specs":{"source":"wsxcme","sourceId":"_dmgmgjBsHciWWRU0JqKCd0AAqgaS6iaNTT1JlDQ","sourceTagId":77388356,"sourceTagName":"MCM、寇驰/女包","rawTitle":"COACH蔻驰代工厂 渠道货👍2562黑色.白色,杏色有货。COACH蔻驰Tilly时尚单肩斜挎包女士白色皮革手提包2562。尺寸24 11 18。"},"price":null,"currency":"CNY","moq":1,"category":"mcm-coach-women-bags","status":"active","alibaba_url":null,"images":["https://xcimg.szwego.com/20221229/i1672329568_4301_0.jpg","https://xcimg.szwego.com/20221229/i1672329568_6583_1.jpg","https://xcimg.szwego.com/20221229/i1672329568_3491_2.jpg","https://xcimg.szwego.com/20221229/i1672329568_9634_3.jpg","https://xcimg.szwego.com/20221229/i1672329568_4658_4.jpg","https://xcimg.szwego.com/20221229/i1672329568_7937_5.jpg","https://xcimg.szwego.com/20221229/i1672329568_5649_6.jpg","https://xcimg.szwego.com/20221229/i1672329568_1125_7.jpg","https://xcimg.szwego.com/20221229/i1672329568_9198_8.jpg"],"created_at":"2024-12-02T06:17:13.239Z"},{"id":"item-800b226c38b1","sku":"_dmqmq89_JFAoKz0Jk7u25cOkY64V5BoK4i3SZ1g","name_en":"COACH蔻驰代工厂 渠道货👍5696新款托特购物袋单肩包、pvc配头层牛皮,专柜品质、欢迎对比细节。 尺寸30*26*15、大开口,现货颜色","name_cn":"COACH蔻驰代工厂 渠道货👍5696新款托特购物袋单肩包、pvc配头层牛皮,专柜品质、欢迎对比细节。 尺寸30*26*15、大开口,现货颜色","specs":{"source":"wsxcme","sourceId":"_dmqmq89_JFAoKz0Jk7u25cOkY64V5BoK4i3SZ1g","sourceTagId":77388356,"sourceTagName":"MCM、寇驰/女包","rawTitle":"COACH蔻驰代工厂 渠道货👍5696新款托特购物袋单肩包、pvc配头层牛皮,专柜品质、欢迎对比细节。 尺寸30*26*15、大开口,现货颜色"},"price":null,"currency":"CNY","moq":1,"category":"mcm-coach-women-bags","status":"active","alibaba_url":null,"images":["https://xcimg.szwego.com/20210731/i1627718692_1550_0.jpg","https://xcimg.szwego.com/20210731/i1627718692_9297_1.jpg","https://xcimg.szwego.com/20210731/i1627718692_4929_2.jpg","https://xcimg.szwego.com/20210731/i1627718692_6334_3.jpg","https://xcimg.szwego.com/20210731/i1627718692_8512_4.jpg","https://xcimg.szwego.com/20210731/i1627718692_8641_5.jpg","https://xcimg.szwego.com/20210731/i1627718692_44_6.jpg","https://xcimg.szwego.com/20210731/i1627718692_900_7.jpg","https://xcimg.szwego.com/20210731/i1627718696_312_0.jpg"],"created_at":"2024-12-02T06:17:13.251Z"},{"id":"item-6f8da2a987e3","sku":"_dbNbNtVxgUq2VuEkbXoi18xI1jwFP4OS7uA-gow","name_en":"COACH蔻驰代工厂 渠道货👍5696新款托特购物袋单肩包、pvc配头层牛皮,专柜品质、欢迎对比细节。 尺寸30*26*15、大开口,现货颜色","name_cn":"COACH蔻驰代工厂 渠道货👍5696新款托特购物袋单肩包、pvc配头层牛皮,专柜品质、欢迎对比细节。 尺寸30*26*15、大开口,现货颜色","specs":{"source":"wsxcme","sourceId":"_dbNbNtVxgUq2VuEkbXoi18xI1jwFP4OS7uA-gow","sourceTagId":77388356,"sourceTagName":"MCM、寇驰/女包","rawTitle":"COACH蔻驰代工厂 渠道货👍5696新款托特购物袋单肩包、pvc配头层牛皮,专柜品质、欢迎对比细节。 尺寸30*26*15、大开口,现货颜色"},"price":null,"currency":"CNY","moq":1,"category":"mcm-coach-women-bags","status":"active","alibaba_url":null,"images":["https://xcimg.szwego.com/20210606/i1622962763_7674_0.jpg","https://xcimg.szwego.com/20210606/i1622962763_7038_1.jpg","https://xcimg.szwego.com/20210606/i1622962763_5601_2.jpg","https://xcimg.szwego.com/20210606/i1622962763_8609_3.jpg","https://xcimg.szwego.com/20210606/i1622962763_4291_4.jpg","https://xcimg.szwego.com/20210606/i1622962763_5951_5.jpg","https://xcimg.szwego.com/20210606/i1622962763_3989_6.jpg","https://xcimg.szwego.com/20210606/i1622962763_6796_7.jpg","https://xcimg.szwego.com/20210606/i1622962763_5803_8.jpg"],"created_at":"2024-12-02T06:17:13.248Z"},{"id":"item-54685256f055","sku":"_drwrwOQ-XU-s4dMXxIKomgZO_AWGdgfzEHfCgsw","name_en":"COACH蔻驰代工厂 渠道货👍5696新款托特购物袋单肩包、pvc配头层牛皮,专柜品质、欢迎对比细节。 尺寸30*26*15、大开口,现货颜色","name_cn":"COACH蔻驰代工厂 渠道货👍5696新款托特购物袋单肩包、pvc配头层牛皮,专柜品质、欢迎对比细节。 尺寸30*26*15、大开口,现货颜色","specs":{"source":"wsxcme","sourceId":"_drwrwOQ-XU-s4dMXxIKomgZO_AWGdgfzEHfCgsw","sourceTagId":77388356,"sourceTagName":"MCM、寇驰/女包","rawTitle":"COACH蔻驰代工厂 渠道货👍5696新款托特购物袋单肩包、pvc配头层牛皮,专柜品质、欢迎对比细节。 尺寸30*26*15、大开口,现货颜色"},"price":null,"currency":"CNY","moq":1,"category":"mcm-coach-women-bags","status":"active","alibaba_url":null,"images":["https://xcimg.szwego.com/20210116/i1610783902_1291_0.jpg","https://xcimg.szwego.com/20210116/i1610783902_2860_2.jpg","https://xcimg.szwego.com/20210116/i1610783902_6568_1.jpg","https://xcimg.szwego.com/20210116/i1610783902_9481_3.jpg","https://xcimg.szwego.com/20210116/i1610783902_9285_4.jpg","https://xcimg.szwego.com/20210116/i1610783902_3922_5.jpg","https://xcimg.szwego.com/20210116/i1610783902_812_6.jpg","https://xcimg.szwego.com/20210116/i1610783902_9241_7.jpg","https://xcimg.szwego.com/20210116/i1610783907_7696_0.jpg"],"created_at":"2024-12-02T06:17:13.249Z"},{"id":"item-26dab900ffd6","sku":"_daSaSTR6ekmWVwHOmj9AwlqWYK92Pd6BhYOmnlQ","name_en":"COACH蔻驰代工厂 渠道货👍5696新款托特购物袋单肩包、pvc配头层牛皮,专柜品质、欢迎对比细节。 尺寸30*26*15、大开口,现货颜色","name_cn":"COACH蔻驰代工厂 渠道货👍5696新款托特购物袋单肩包、pvc配头层牛皮,专柜品质、欢迎对比细节。 尺寸30*26*15、大开口,现货颜色","specs":{"source":"wsxcme","sourceId":"_daSaSTR6ekmWVwHOmj9AwlqWYK92Pd6BhYOmnlQ","sourceTagId":77388356,"sourceTagName":"MCM、寇驰/女包","rawTitle":"COACH蔻驰代工厂 渠道货👍5696新款托特购物袋单肩包、pvc配头层牛皮,专柜品质、欢迎对比细节。 尺寸30*26*15、大开口,现货颜色"},"price":null,"currency":"CNY","moq":1,"category":"mcm-coach-women-bags","status":"active","alibaba_url":null,"images":["https://xcimg.szwego.com/20210311/i1615442334_9288_0.jpg","https://xcimg.szwego.com/20210311/i1615442334_6414_1.jpg","https://xcimg.szwego.com/20210311/i1615442334_1687_2.jpg","https://xcimg.szwego.com/20210311/i1615442334_943_3.jpg","https://xcimg.szwego.com/20210311/i1615442334_7034_4.jpg","https://xcimg.szwego.com/20210311/i1615442334_876_5.jpg","https://xcimg.szwego.com/20210311/i1615442334_7409_6.jpg","https://xcimg.szwego.com/20210311/i1615442334_4741_7.jpg","https://xcimg.szwego.com/20210311/i1615442334_392_8.jpg"],"created_at":"2024-12-02T06:17:13.250Z"},{"id":"item-bf768f7bfe75","sku":"_dI9I9LXvFM1LsbUY6kV2lIbRNeHk7xZ1khf82RA","name_en":"COACH蔻驰代工厂 渠道货👍博主上身图🔥🔥","name_cn":"COACH蔻驰代工厂 渠道货👍博主上身图🔥🔥","specs":{"source":"wsxcme","sourceId":"_dI9I9LXvFM1LsbUY6kV2lIbRNeHk7xZ1khf82RA","sourceTagId":77388356,"sourceTagName":"MCM、寇驰/女包","rawTitle":"COACH蔻驰代工厂 渠道货👍博主上身图🔥🔥"},"price":null,"currency":"CNY","moq":1,"category":"mcm-coach-women-bags","status":"active","alibaba_url":null,"images":["https://xcimg.szwego.com/img/e2849270/20240806/i1722911520_5416_1.jpg","https://xcimg.szwego.com/img/e2849270/20240806/i1722911520_6684_3.jpg","https://xcimg.szwego.com/img/e2849270/20240806/i1722911520_4549_4.jpg","https://xcimg.szwego.com/img/e2849270/20240806/i1722911520_8322_2.jpg","https://xcimg.szwego.com/img/e2849270/20240806/i1722911520_4079_0.jpg"],"created_at":"2024-12-02T06:17:13.242Z"},{"id":"item-b3afcd636fe4","sku":"_dt8t8wrk_R9Dk1g23Ph8ZKhK-OzEfjTQfFi3-CA","name_en":"COACH蔻驰代工厂 渠道货👍新奥莱款双面托特包5696,PVC配皮CITY 经典标志涂层帆布,带有光滑皮革细节。内置拉链袋,磁扣封口......","name_cn":"COACH蔻驰代工厂 渠道货👍新奥莱款双面托特包5696,PVC配皮CITY 经典标志涂层帆布,带有光滑皮革细节。内置拉链袋,磁扣封口......\n尺寸:33x 29 x 16cm","specs":{"source":"wsxcme","sourceId":"_dt8t8wrk_R9Dk1g23Ph8ZKhK-OzEfjTQfFi3-CA","sourceTagId":77388356,"sourceTagName":"MCM、寇驰/女包","dimensions":{"lengthCm":33,"heightCm":29,"widthCm":16},"rawTitle":"COACH蔻驰代工厂 渠道货👍新奥莱款双面托特包5696,PVC配皮CITY 经典标志涂层帆布,带有光滑皮革细节。内置拉链袋,磁扣封口......\n尺寸:33x 29 x 16cm"},"price":null,"currency":"CNY","moq":1,"category":"mcm-coach-women-bags","status":"active","alibaba_url":null,"images":["https://xcimg.szwego.com/20210816/i1629077673_2760_0.jpg","https://xcimg.szwego.com/20210816/i1629077673_4410_1.jpg","https://xcimg.szwego.com/20210816/i1629077673_5842_2.jpg","https://xcimg.szwego.com/20210816/i1629077673_6944_3.jpg","https://xcimg.szwego.com/20210816/i1629077673_9241_4.jpg"],"created_at":"2024-12-02T06:17:13.247Z"},{"id":"item-e171d94e71e8","sku":"_dgrgrdPi--fcV0W_GaLnCAWFTH7N-b4TFX1laWg","name_en":"COACH蔻驰代工厂 渠道货👍新款,到货!COACH蔻驰 /5696女敞口托特包购物袋子。经典老花。尺寸底约34,上口44, 29×12,","name_cn":"COACH蔻驰代工厂 渠道货👍新款,到货!COACH蔻驰 /5696女敞口托特包购物袋子。经典老花。尺寸底约34,上口44, 29×12,","specs":{"source":"wsxcme","sourceId":"_dgrgrdPi--fcV0W_GaLnCAWFTH7N-b4TFX1laWg","sourceTagId":77388356,"sourceTagName":"MCM、寇驰/女包","rawTitle":"COACH蔻驰代工厂 渠道货👍新款,到货!COACH蔻驰 /5696女敞口托特包购物袋子。经典老花。尺寸底约34,上口44, 29×12,"},"price":null,"currency":"CNY","moq":1,"category":"mcm-coach-women-bags","status":"active","alibaba_url":null,"images":["https://xcimg.szwego.com/20201125/i1606286530_8756_0.jpg","https://xcimg.szwego.com/20201125/i1606286530_3956_1.jpg","https://xcimg.szwego.com/20201125/i1606286530_3508_2.jpg","https://xcimg.szwego.com/20201125/i1606286530_7933_3.jpg","https://xcimg.szwego.com/20201125/i1606286530_5692_4.jpg","https://xcimg.szwego.com/20201125/i1606286530_8626_5.jpg","https://xcimg.szwego.com/20201125/i1606286530_118_6.jpg"],"created_at":"2024-12-02T06:17:13.252Z"},{"id":"item-4bab01efbc81","sku":"_dqUqUukdNTg0jGmIT_WZb7lNV6OQ8caPitLoicg","name_en":"COACH蔻驰代工厂 渠道货👍新款出货......大CT763/小CV529","name_cn":"COACH蔻驰代工厂 渠道货👍新款出货......大CT763/小CV529 \nCOACH/蔻驰奥莱女士FAYE拉绳手单肩斜挎包日常百搭休闲时尚。小号尺寸22×18×8,大号尺寸26×15×8","specs":{"source":"wsxcme","sourceId":"_dqUqUukdNTg0jGmIT_WZb7lNV6OQ8caPitLoicg","sourceTagId":77388356,"sourceTagName":"MCM、寇驰/女包","rawTitle":"COACH蔻驰代工厂 渠道货👍新款出货......大CT763/小CV529 \nCOACH/蔻驰奥莱女士FAYE拉绳手单肩斜挎包日常百搭休闲时尚。小号尺寸22×18×8,大号尺寸26×15×8"},"price":null,"currency":"CNY","moq":1,"category":"mcm-coach-women-bags","status":"active","alibaba_url":null,"images":["https://xcimg.szwego.com/img/a849b5b8/20240811/i1723307401_2048_8.jpg","https://xcimg.szwego.com/img/a849b5b8/20240811/i1723307401_5410_3.jpg","https://xcimg.szwego.com/img/a849b5b8/20240811/i1723307401_7866_1.jpg","https://xcimg.szwego.com/img/a849b5b8/20240811/i1723307401_8392_7.jpg","https://xcimg.szwego.com/img/a849b5b8/20240811/i1723307401_3119_4.jpg","https://xcimg.szwego.com/img/a849b5b8/20240811/i1723307401_1121_0.jpg","https://xcimg.szwego.com/img/a849b5b8/20240811/i1723307401_7612_2.jpg","https://xcimg.szwego.com/img/a849b5b8/20240811/i1723307401_3496_5.jpg","https://xcimg.szwego.com/img/a849b5b8/20240811/i1723307401_9409_6.jpg"],"created_at":"2024-12-02T06:17:13.245Z"},{"id":"item-c19c071005e9","sku":"_dxCxCVQ5AYVa7RU6Drsb68ltwuxNunrlVBzO9Vw","name_en":"COACH蔻驰代工厂 渠道货👍C家CS618奶白色帆布 SMITH迷你小号帆布拼皮复古手提斜挎包,上身小巧可爱 非常百搭~16.5x11x8cm","name_cn":"COACH蔻驰代工厂 渠道货👍C家CS618奶白色帆布 SMITH迷你小号帆布拼皮复古手提斜挎包,上身小巧可爱 非常百搭~16.5x11x8cm","specs":{"source":"wsxcme","sourceId":"_dxCxCVQ5AYVa7RU6Drsb68ltwuxNunrlVBzO9Vw","sourceTagId":77388356,"sourceTagName":"MCM、寇驰/女包","rawTitle":"COACH蔻驰代工厂 渠道货👍C家CS618奶白色帆布 SMITH迷你小号帆布拼皮复古手提斜挎包,上身小巧可爱 非常百搭~16.5x11x8cm"},"price":null,"currency":"CNY","moq":1,"category":"mcm-coach-women-bags","status":"active","alibaba_url":null,"images":["https://xcimg.szwego.com/img/0386cd27/20240411/i1712827757_1831_0.jpg","https://xcimg.szwego.com/img/a276e20e/20240413/i1712983780_7200_3.jpg","https://xcimg.szwego.com/img/a276e20e/20240413/i1712983780_7216_2.jpg","https://xcimg.szwego.com/img/a276e20e/20240413/i1712983780_6024_5.jpg","https://xcimg.szwego.com/img/a276e20e/20240413/i1712983780_3287_8.jpg","https://xcimg.szwego.com/img/a276e20e/20240413/i1712983780_7317_1.jpg","https://xcimg.szwego.com/img/a276e20e/20240413/i1712983780_2126_7.jpg","https://xcimg.szwego.com/img/a276e20e/20240413/i1712983780_5223_4.jpg","https://xcimg.szwego.com/img/a276e20e/20240413/i1712983780_687_6.jpg"],"created_at":"2024-12-02T06:17:13.246Z"},{"id":"item-40682128c0e0","sku":"_dH7H7Xbu0soFqZNSckd2gPHZ4eCZxH8ReI9mNOA","name_en":"COACH蔻驰代工厂 渠道货👍CM769,CM765,CM840,CM194,CM856Coach X 迪士尼合作款 canteen圆饼米奇系,活力十足,凹造型绝绝子,双拉链设计,收纳很方便哦~yyds!尺寸约:18*15.5*6.5.实拍细节杠杠的[强]","name_cn":"COACH蔻驰代工厂 渠道货👍CM769,CM765,CM840,CM194,CM856Coach X 迪士尼合作款 canteen圆饼米奇系,活力十足,凹造型绝绝子,双拉链设计,收纳很方便哦~yyds!尺寸约:18*15.5*6.5.实拍细节杠杠的[强]","specs":{"source":"wsxcme","sourceId":"_dH7H7Xbu0soFqZNSckd2gPHZ4eCZxH8ReI9mNOA","sourceTagId":77388356,"sourceTagName":"MCM、寇驰/女包","rawTitle":"COACH蔻驰代工厂 渠道货👍CM769,CM765,CM840,CM194,CM856Coach X 迪士尼合作款 canteen圆饼米奇系,活力十足,凹造型绝绝子,双拉链设计,收纳很方便哦~yyds!尺寸约:18*15.5*6.5.实拍细节杠杠的[强]"},"price":null,"currency":"CNY","moq":1,"category":"mcm-coach-women-bags","status":"active","alibaba_url":null,"images":["https://xcimg.szwego.com/img/a276e20e/20240320/i1710865659_5706_0.jpg","https://xcimg.szwego.com/img/d094b9d5/20240318/i1710724513_3979_0.jpg","https://xcimg.szwego.com/img/d094b9d5/20240318/i1710724513_3796_3.jpg","https://xcimg.szwego.com/img/d094b9d5/20240318/i1710724513_1374_2.jpg","https://xcimg.szwego.com/img/d094b9d5/20240318/i1710724513_7138_1.jpg","https://xcimg.szwego.com/img/d094b9d5/20240318/i1710724513_5719_4.jpg"],"created_at":"2024-12-02T06:17:13.235Z"}],"page":273,"pageSize":24,"total":10075,"totalPages":420}
