{"items":[{"id":"item-a1477db7c9b2","sku":"_dlIlIqIo_A1leQHJAiZY1lr2eCWOIdXcPh7RHsg","name_en":"Hermes Women Bags","name_cn":"😘\n新款 kelly elan,时尚的轮回,可以当腋下包和手拿包,真的把一代替代了\n简直不要太美\n拼手速啦,宝宝们","specs":{"source":"wsxcme","sourceId":"_dlIlIqIo_A1leQHJAiZY1lr2eCWOIdXcPh7RHsg","sourceTagId":76963559,"sourceTagName":"爱马仕/女包","rawTitle":"😘\n新款 kelly elan,时尚的轮回,可以当腋下包和手拿包,真的把一代替代了\n简直不要太美\n拼手速啦,宝宝们"},"price":null,"currency":"CNY","moq":1,"category":"hermes-women-bags","status":"active","alibaba_url":null,"images":["https://xcimg.szwego.com/20230804/i1691138473_6412_0.jpg","https://xcimg.szwego.com/20230804/i1691138473_2859_1.jpg","https://xcimg.szwego.com/20230804/i1691138473_2970_2.jpg","https://xcimg.szwego.com/20230804/i1691138473_1218_3.jpg","https://xcimg.szwego.com/20230804/i1691138473_8469_4.jpg","https://xcimg.szwego.com/20230804/i1691138473_2004_5.jpg","https://xcimg.szwego.com/20230804/i1691138473_5849_6.jpg","https://xcimg.szwego.com/20230804/i1691138473_9136_7.jpg","https://xcimg.szwego.com/20230804/i1691138473_1356_8.jpg"],"created_at":"2024-10-22T04:49:50.793Z"},{"id":"item-9f991b8c7fc6","sku":"_dBxBxFRQ7HVsKiEYxL6c3DoBe5tqYhEb6HvaBnA","name_en":"Hermes Women Bags","name_cn":"新款手包 27   黑色金扣 (竖纹) 山羊皮","specs":{"source":"wsxcme","sourceId":"_dBxBxFRQ7HVsKiEYxL6c3DoBe5tqYhEb6HvaBnA","sourceTagId":76963559,"sourceTagName":"爱马仕/女包","rawTitle":"新款手包 27   黑色金扣 (竖纹) 山羊皮"},"price":null,"currency":"CNY","moq":1,"category":"hermes-women-bags","status":"active","alibaba_url":null,"images":["https://xcimg.szwego.com/20230708/a1688746529493_4846.jpg","https://xcimg.szwego.com/20230708/a1688746554111_0747.jpg","https://xcimg.szwego.com/20230708/a1688746554316_0544.jpg","https://xcimg.szwego.com/20230708/a1688746554483_0817.jpg","https://xcimg.szwego.com/20230708/a1688746554929_6763.jpg","https://xcimg.szwego.com/20230708/a1688746555361_7608.jpg","https://xcimg.szwego.com/20230708/a1688746555427_0221.jpg","https://xcimg.szwego.com/20230708/a1688746555428_4532.jpg"],"created_at":"2024-10-22T04:49:50.812Z"},{"id":"item-911012d3fc92","sku":"_draraZUXHwjprpbOkdULJPFl39vqFeCx6KVtCMQ","name_en":"Hermes Women Bags","name_cn":"新款腋下包来咯 \nKelly家族又添加了新成员光看网图就被种草得不行拿到实物的第一眼\n感觉特别像放大版的Kellyto go Kellyelan和Kelly28底部差不多长\n包的厚度和二代差不多容量特别棒\n肩带是可拆卸的但不可调节长度\n不过任何身高驾驭都没有问题拆下肩带又变成了一只手拿包有点Kellycut的感觉很有气场\n总而言之颜值和实用性双双在线还是很推荐大家入手的\n27.5✕15✕5","specs":{"source":"wsxcme","sourceId":"_draraZUXHwjprpbOkdULJPFl39vqFeCx6KVtCMQ","sourceTagId":76963559,"sourceTagName":"爱马仕/女包","rawTitle":"新款腋下包来咯 \nKelly家族又添加了新成员光看网图就被种草得不行拿到实物的第一眼\n感觉特别像放大版的Kellyto go Kellyelan和Kelly28底部差不多长\n包的厚度和二代差不多容量特别棒\n肩带是可拆卸的但不可调节长度\n不过任何身高驾驭都没有问题拆下肩带又变成了一只手拿包有点Kellycut的感觉很有气场\n总而言之颜值和实用性双双在线还是很推荐大家入手的\n27.5✕15✕5"},"price":null,"currency":"CNY","moq":1,"category":"hermes-women-bags","status":"active","alibaba_url":null,"images":["https://xcimg.szwego.com/20230716/a1689486390620_0036.jpg","https://xcimg.szwego.com/20230716/a1689486390624_3821.jpg","https://xcimg.szwego.com/20230716/a1689486390625_5251.jpg","https://xcimg.szwego.com/20230716/a1689486390628_0621.jpg","https://xcimg.szwego.com/20230716/a1689486390629_7728.jpg","https://xcimg.szwego.com/20230716/a1689486390630_6154.jpg"],"created_at":"2024-10-22T04:49:50.809Z"},{"id":"item-7ef2bea3d86f","sku":"_dyLyLLm6dw8H9cL0deFIcVhz9EAzQymfQ2PiekQ","name_en":"Hermes Women Bags","name_cn":"真正的原厂货,正品级品质,我们确保所有材料,五金,车线,油边都达到正品百分百的原材料\n\nHermes 爱马仕 Birkin25cm 黑色银扣\nBirkin 独家渠道货 独家欧洲原厂皮原厂五金组装的ZP尾单货\n尺寸:20 X 25 X 13CM\n\nBirkin我们采用的是进口原厂Togo真皮,什么是Togo皮呢?\n\nTogo皮:最经典的Birkin用皮。表面是均匀的颗粒状,类似荔枝纹,有光泽。皮质较硬,容易保持包包的形状,相对较轻,触感比较柔软,耐磨耐用;\n\n我们用的是纯原、原厂皮就是和原版专柜一样的皮!","specs":{"source":"wsxcme","sourceId":"_dyLyLLm6dw8H9cL0deFIcVhz9EAzQymfQ2PiekQ","sourceTagId":76963559,"sourceTagName":"爱马仕/女包","dimensions":{"lengthCm":20,"heightCm":25,"widthCm":13},"rawTitle":"真正的原厂货,正品级品质,我们确保所有材料,五金,车线,油边都达到正品百分百的原材料\n\nHermes 爱马仕 Birkin25cm 黑色银扣\nBirkin 独家渠道货 独家欧洲原厂皮原厂五金组装的ZP尾单货\n尺寸:20 X 25 X 13CM\n\nBirkin我们采用的是进口原厂Togo真皮,什么是Togo皮呢?\n\nTogo皮:最经典的Birkin用皮。表面是均匀的颗粒状,类似荔枝纹,有光泽。皮质较硬,容易保持包包的形状,相对较轻,触感比较柔软,耐磨耐用;\n\n我们用的是纯原、原厂皮就是和原版专柜一样的皮!"},"price":null,"currency":"CNY","moq":1,"category":"hermes-women-bags","status":"active","alibaba_url":null,"images":["https://xcimg.szwego.com/20230515/i1684133308_9696_0.jpg","https://xcimg.szwego.com/20230515/i1684133308_9624_1.jpg","https://xcimg.szwego.com/20230515/i1684133308_4448_2.jpg","https://xcimg.szwego.com/20230515/i1684133308_8087_3.jpg","https://xcimg.szwego.com/20230515/i1684133308_178_4.jpg","https://xcimg.szwego.com/20230515/i1684133308_2857_5.jpg","https://xcimg.szwego.com/20230515/i1684133308_2702_6.jpg","https://xcimg.szwego.com/20230515/i1684133308_4301_7.jpg","https://xcimg.szwego.com/20230515/i1684133308_2715_8.jpg"],"created_at":"2024-10-21T06:42:26.549Z"},{"id":"item-7752163a60c9","sku":"_d9V9Vqt_lLtdTQKx5HFpy2_8Pb1Ydk177XKG7Iw","name_en":"Hermes Women Bags","name_cn":"😘\n新款 kelly elan,时尚的轮回,可以当腋下包和手拿包,真的把一代替代了\n简直不要太美\n拼手速啦,宝宝们","specs":{"source":"wsxcme","sourceId":"_d9V9Vqt_lLtdTQKx5HFpy2_8Pb1Ydk177XKG7Iw","sourceTagId":76963559,"sourceTagName":"爱马仕/女包","rawTitle":"😘\n新款 kelly elan,时尚的轮回,可以当腋下包和手拿包,真的把一代替代了\n简直不要太美\n拼手速啦,宝宝们"},"price":null,"currency":"CNY","moq":1,"category":"hermes-women-bags","status":"active","alibaba_url":null,"images":["https://xcimg.szwego.com/20230804/i1691138707_9912_0.jpg","https://xcimg.szwego.com/20230804/i1691138707_5902_1.jpg","https://xcimg.szwego.com/20230804/i1691138707_3545_2.jpg","https://xcimg.szwego.com/20230804/i1691138707_8532_3.jpg","https://xcimg.szwego.com/20230804/i1691138707_3819_4.jpg","https://xcimg.szwego.com/20230804/i1691138707_6760_5.jpg","https://xcimg.szwego.com/20230804/i1691138707_1838_6.jpg","https://xcimg.szwego.com/20230804/i1691138707_2721_7.jpg","https://xcimg.szwego.com/20230804/i1691138707_5934_8.jpg"],"created_at":"2024-10-22T04:49:50.795Z"},{"id":"item-74214debc497","sku":"_dsusu9vk2dixSs-i3k0Mb4RKd-MLUh2_kRQKnlQ","name_en":"Hermes Women Bags","name_cn":"夏天必入款 \nMini 花园包帆布 23x16x10","specs":{"source":"wsxcme","sourceId":"_dsusu9vk2dixSs-i3k0Mb4RKd-MLUh2_kRQKnlQ","sourceTagId":76963559,"sourceTagName":"爱马仕/女包","rawTitle":"夏天必入款 \nMini 花园包帆布 23x16x10"},"price":null,"currency":"CNY","moq":1,"category":"hermes-women-bags","status":"active","alibaba_url":null,"images":["https://xcimg.szwego.com/img/c98920cd/20260411/i1775898156532_8331_0_0.jpg","https://xcimg.szwego.com/img/c98920cd/20260411/i1775898155195_332_0_1.jpg","https://xcimg.szwego.com/img/c98920cd/20260411/i1775898156112_53_0_2.jpg","https://xcimg.szwego.com/img/c98920cd/20260411/i1775898156141_9898_0_3.jpg","https://xcimg.szwego.com/img/c98920cd/20260411/i1775898156606_5496_0_4.jpg","https://xcimg.szwego.com/img/c98920cd/20260411/i1775898156500_2973_0_5.jpg","https://xcimg.szwego.com/img/c98920cd/20260411/i1775898155216_9647_0_6.jpg","https://xcimg.szwego.com/img/c98920cd/20260411/i1775898155324_9854_0_7.jpg","https://xcimg.szwego.com/img/c98920cd/20260411/i1775898156090_4620_0_8.jpg"],"created_at":"2026-06-29T12:59:35.974Z"},{"id":"item-7214855ce48a","sku":"_dS8S86j6eY4ZGVET-SDK49RNN0G-B7rNW86xgiw","name_en":"Hermes Women Bags","name_cn":"康康19 原版掌纹 午夜蓝 金扣","specs":{"source":"wsxcme","sourceId":"_dS8S86j6eY4ZGVET-SDK49RNN0G-B7rNW86xgiw","sourceTagId":76963559,"sourceTagName":"爱马仕/女包","rawTitle":"康康19 原版掌纹 午夜蓝 金扣"},"price":null,"currency":"CNY","moq":1,"category":"hermes-women-bags","status":"active","alibaba_url":null,"images":["https://xcimg.szwego.com/20230707/i1688699520_7987_0.jpg","https://xcimg.szwego.com/20230707/i1688699520_1595_1.jpg","https://xcimg.szwego.com/20230707/i1688699520_4772_2.jpg","https://xcimg.szwego.com/20230707/i1688699520_1469_3.jpg","https://xcimg.szwego.com/20230707/i1688699520_6060_4.jpg","https://xcimg.szwego.com/20230707/i1688699520_3261_5.jpg","https://xcimg.szwego.com/20230707/i1688699520_5648_6.jpg","https://xcimg.szwego.com/20230707/i1688699520_8848_7.jpg"],"created_at":"2024-10-22T05:00:12.219Z"},{"id":"item-6d0f710d3511","sku":"_du8u84ob1TzI1XuKBk5u8MoPcAPhAYCf5hFwE-w","name_en":"Hermes Women Bags","name_cn":"夏天必入款 \nMini 花园包帆布 23x16x10","specs":{"source":"wsxcme","sourceId":"_du8u84ob1TzI1XuKBk5u8MoPcAPhAYCf5hFwE-w","sourceTagId":76963559,"sourceTagName":"爱马仕/女包","rawTitle":"夏天必入款 \nMini 花园包帆布 23x16x10"},"price":null,"currency":"CNY","moq":1,"category":"hermes-women-bags","status":"active","alibaba_url":null,"images":["https://xcimg.szwego.com/img/c98920cd/20260411/i1775898064524_5553_0_0.jpg","https://xcimg.szwego.com/img/c98920cd/20260411/i1775898066073_4674_0_1.jpg","https://xcimg.szwego.com/img/c98920cd/20260411/i1775898065396_3034_0_2.jpg","https://xcimg.szwego.com/img/c98920cd/20260411/i1775898065365_1558_0_3.jpg","https://xcimg.szwego.com/img/c98920cd/20260411/i1775898066005_7310_0_4.jpg","https://xcimg.szwego.com/img/c98920cd/20260411/i1775898065418_7850_0_6.jpg","https://xcimg.szwego.com/img/c98920cd/20260411/i1775898066022_9691_0_7.jpg","https://xcimg.szwego.com/img/c98920cd/20260411/i1775898064526_1066_0_8.jpg"],"created_at":"2026-06-29T12:59:35.994Z"},{"id":"item-6430a83fc2f8","sku":"_duXuX8XDNkenhDn1cFWPIcgqJn4hFhHIUdqITYA","name_en":"Hermes Women Bags","name_cn":"菜篮子","specs":{"source":"wsxcme","sourceId":"_duXuX8XDNkenhDn1cFWPIcgqJn4hFhHIUdqITYA","sourceTagId":76963559,"sourceTagName":"爱马仕/女包","rawTitle":"菜篮子"},"price":null,"currency":"CNY","moq":1,"category":"hermes-women-bags","status":"active","alibaba_url":null,"images":["https://xcimg.szwego.com/img/88b306c4/20240902/a1725214222504_0122.jpg","https://xcimg.szwego.com/img/88b306c4/20240902/a1725214222653_7304.jpg","https://xcimg.szwego.com/img/88b306c4/20240902/a1725214232258_5277.jpg","https://xcimg.szwego.com/img/88b306c4/20240902/a1725214222201_6556.jpg"],"created_at":"2024-10-22T05:00:12.156Z"},{"id":"item-606e73e35eec","sku":"_dpqpqT_wtDEFzOwPD897pPhz8cI_BZLsWUUGTVw","name_en":"Hermes Women Bags","name_cn":"夏天必入款 \nMini 花园包帆布 23x16x10","specs":{"source":"wsxcme","sourceId":"_dpqpqT_wtDEFzOwPD897pPhz8cI_BZLsWUUGTVw","sourceTagId":76963559,"sourceTagName":"爱马仕/女包","rawTitle":"夏天必入款 \nMini 花园包帆布 23x16x10"},"price":null,"currency":"CNY","moq":1,"category":"hermes-women-bags","status":"active","alibaba_url":null,"images":["https://xcimg.szwego.com/img/c98920cd/20260411/i1775897905013_3771_0_0.jpg","https://xcimg.szwego.com/img/c98920cd/20260411/i1775897906070_8118_0_2.jpg","https://xcimg.szwego.com/img/c98920cd/20260411/i1775897906968_8106_0_3.jpg","https://xcimg.szwego.com/img/c98920cd/20260411/i1775897907111_6634_0_4.jpg","https://xcimg.szwego.com/img/c98920cd/20260411/i1775897907021_3719_0_5.jpg","https://xcimg.szwego.com/img/c98920cd/20260411/i1775897905977_7974_0_6.jpg","https://xcimg.szwego.com/img/c98920cd/20260411/i1775897905971_3078_0_7.jpg","https://xcimg.szwego.com/img/c98920cd/20260411/i1775897905174_4968_0_8.jpg"],"created_at":"2026-06-29T12:59:36.034Z"},{"id":"item-5d29b7e1fd5b","sku":"_dqEqEft88OFzyjd0cwgYfVqW6UJvPG2AxUXl12Q","name_en":"Hermes Women Bags","name_cn":"全网唯一😘\n新款 kelly elan,时尚的轮回,可以当腋下包和手拿包,真的把一代替代了\n简直不要太美\n拼手速啦,宝宝们","specs":{"source":"wsxcme","sourceId":"_dqEqEft88OFzyjd0cwgYfVqW6UJvPG2AxUXl12Q","sourceTagId":76963559,"sourceTagName":"爱马仕/女包","rawTitle":"全网唯一😘\n新款 kelly elan,时尚的轮回,可以当腋下包和手拿包,真的把一代替代了\n简直不要太美\n拼手速啦,宝宝们"},"price":null,"currency":"CNY","moq":1,"category":"hermes-women-bags","status":"active","alibaba_url":null,"images":["https://xcimg.szwego.com/20230711/a1689051952166_0243.jpg","https://xcimg.szwego.com/20230711/a1689051952168_8832.jpg","https://xcimg.szwego.com/20230711/a1689051952170_0560.jpg","https://xcimg.szwego.com/20230711/a1689051952173_0835.jpg","https://xcimg.szwego.com/20230711/a1689051952174_5628.jpg","https://xcimg.szwego.com/20230711/a1689051952175_0552.jpg"],"created_at":"2024-10-22T04:49:50.791Z"},{"id":"item-527170864e1e","sku":"_dkIkISe3y8qWDGj4YHXmPicuCHF4rhrTi97IAjA","name_en":"Hermes Women Bags","name_cn":"真正的原厂货,正品级品质,我们确保所有材料,五金,车线,油边都达到正品百分百的原材料\n\nHermes 爱马仕 Birkin25cm 黑色银扣\nBirkin 独家渠道货 独家欧洲原厂皮原厂五金组装的ZP尾单货\n尺寸:20 X 25 X 13CM\n\nBirkin我们采用的是进口原厂Togo真皮,什么是Togo皮呢?\n\nTogo皮:最经典的Birkin用皮。表面是均匀的颗粒状,类似荔枝纹,有光泽。皮质较硬,容易保持包包的形状,相对较轻,触感比较柔软,耐磨耐用;\n\n我们用的是纯原、原厂皮就是和原版专柜一样的皮!","specs":{"source":"wsxcme","sourceId":"_dkIkISe3y8qWDGj4YHXmPicuCHF4rhrTi97IAjA","sourceTagId":76963559,"sourceTagName":"爱马仕/女包","dimensions":{"lengthCm":20,"heightCm":25,"widthCm":13},"rawTitle":"真正的原厂货,正品级品质,我们确保所有材料,五金,车线,油边都达到正品百分百的原材料\n\nHermes 爱马仕 Birkin25cm 黑色银扣\nBirkin 独家渠道货 独家欧洲原厂皮原厂五金组装的ZP尾单货\n尺寸:20 X 25 X 13CM\n\nBirkin我们采用的是进口原厂Togo真皮,什么是Togo皮呢?\n\nTogo皮:最经典的Birkin用皮。表面是均匀的颗粒状,类似荔枝纹,有光泽。皮质较硬,容易保持包包的形状,相对较轻,触感比较柔软,耐磨耐用;\n\n我们用的是纯原、原厂皮就是和原版专柜一样的皮!"},"price":null,"currency":"CNY","moq":1,"category":"hermes-women-bags","status":"active","alibaba_url":null,"images":["https://xcimg.szwego.com/20230515/i1684133308_9696_0.jpg","https://xcimg.szwego.com/20230515/i1684133308_9624_1.jpg","https://xcimg.szwego.com/20230515/i1684133308_4448_2.jpg","https://xcimg.szwego.com/20230515/i1684133308_8087_3.jpg","https://xcimg.szwego.com/20230515/i1684133308_178_4.jpg","https://xcimg.szwego.com/20230515/i1684133308_2857_5.jpg","https://xcimg.szwego.com/20230515/i1684133308_2702_6.jpg","https://xcimg.szwego.com/20230515/i1684133308_4301_7.jpg","https://xcimg.szwego.com/20230515/i1684133308_2715_8.jpg"],"created_at":"2025-01-20T12:29:05.612Z"},{"id":"item-4e3adc05e784","sku":"_ds0s0ZORom7jtpKcITQVkBT4xC-naIGHLYI0m7A","name_en":"Hermes Women Bags","name_cn":"夏天必入款 \nMini 花园包帆布 23x16x10","specs":{"source":"wsxcme","sourceId":"_ds0s0ZORom7jtpKcITQVkBT4xC-naIGHLYI0m7A","sourceTagId":76963559,"sourceTagName":"爱马仕/女包","rawTitle":"夏天必入款 \nMini 花园包帆布 23x16x10"},"price":null,"currency":"CNY","moq":1,"category":"hermes-women-bags","status":"active","alibaba_url":null,"images":["https://xcimg.szwego.com/img/c98920cd/20260411/i1775897992727_4142_0_0.jpg","https://xcimg.szwego.com/img/c98920cd/20260411/i1775897992772_7064_0_2.jpg","https://xcimg.szwego.com/img/c98920cd/20260411/i1775897991184_5133_0_3.jpg","https://xcimg.szwego.com/img/c98920cd/20260411/i1775897991205_4734_0_4.jpg","https://xcimg.szwego.com/img/c98920cd/20260411/i1775897992781_73_0_5.jpg","https://xcimg.szwego.com/img/c98920cd/20260411/i1775897991193_1429_0_6.jpg","https://xcimg.szwego.com/img/c98920cd/20260411/i1775897992071_5794_0_7.jpg","https://xcimg.szwego.com/img/c98920cd/20260411/i1775897992097_4264_0_8.jpg"],"created_at":"2026-06-29T12:59:36.014Z"},{"id":"item-466ff60de9ba","sku":"_depepIMOkwASfYntph7hS3txam8lA_zXSpch8_g","name_en":"Hermes Women Bags","name_cn":"夏天必入款 \nMini 花园包帆布 23x16x10","specs":{"source":"wsxcme","sourceId":"_depepIMOkwASfYntph7hS3txam8lA_zXSpch8_g","sourceTagId":76963559,"sourceTagName":"爱马仕/女包","rawTitle":"夏天必入款 \nMini 花园包帆布 23x16x10"},"price":null,"currency":"CNY","moq":1,"category":"hermes-women-bags","status":"active","alibaba_url":null,"images":["https://xcimg.szwego.com/img/c98920cd/20260411/i1775898416949_1184_0_0.jpg","https://xcimg.szwego.com/img/c98920cd/20260411/i1775898417750_5929_0_2.jpg","https://xcimg.szwego.com/img/c98920cd/20260411/i1775898418338_2977_0_3.jpg","https://xcimg.szwego.com/img/c98920cd/20260411/i1775898417800_8569_0_4.jpg","https://xcimg.szwego.com/img/c98920cd/20260411/i1775898416987_9677_0_5.jpg","https://xcimg.szwego.com/img/c98920cd/20260411/i1775898418258_3245_0_6.jpg","https://xcimg.szwego.com/img/c98920cd/20260411/i1775898416972_116_0_7.jpg","https://xcimg.szwego.com/img/c98920cd/20260411/i1775898106932_4973_0_7.jpg"],"created_at":"2026-06-29T12:59:36.064Z"},{"id":"item-406f119f8eda","sku":"_dvnvn9vNU1OHQ3ieTL6XcQZv8qlNf5FKTrGS8ew","name_en":"Hermes Women Bags","name_cn":"新款腋下包来咯 \nKelly家族又添加了新成员光看网图就被种草得不行拿到实物的第一眼\n感觉特别像放大版的Kellyto go Kellyelan和Kelly28底部差不多长\n包的厚度和二代差不多容量特别棒\n肩带是可拆卸的但不可调节长度\n不过任何身高驾驭都没有问题拆下肩带又变成了一只手拿包有点Kellycut的感觉很有气场\n总而言之颜值和实用性双双在线还是很推荐大家入手的\n27.5✕15✕5","specs":{"source":"wsxcme","sourceId":"_dvnvn9vNU1OHQ3ieTL6XcQZv8qlNf5FKTrGS8ew","sourceTagId":76963559,"sourceTagName":"爱马仕/女包","rawTitle":"新款腋下包来咯 \nKelly家族又添加了新成员光看网图就被种草得不行拿到实物的第一眼\n感觉特别像放大版的Kellyto go Kellyelan和Kelly28底部差不多长\n包的厚度和二代差不多容量特别棒\n肩带是可拆卸的但不可调节长度\n不过任何身高驾驭都没有问题拆下肩带又变成了一只手拿包有点Kellycut的感觉很有气场\n总而言之颜值和实用性双双在线还是很推荐大家入手的\n27.5✕15✕5"},"price":null,"currency":"CNY","moq":1,"category":"hermes-women-bags","status":"active","alibaba_url":null,"images":["https://xcimg.szwego.com/20230716/a1689486327460_2355.jpg","https://xcimg.szwego.com/20230716/a1689486327462_2536.jpg","https://xcimg.szwego.com/20230716/a1689486327463_0103.jpg","https://xcimg.szwego.com/20230716/a1689486327548_4310.jpg","https://xcimg.szwego.com/20230716/a1689486327549_5683.jpg","https://xcimg.szwego.com/20230716/a1689486327550_3665.jpg"],"created_at":"2024-10-22T04:49:50.810Z"},{"id":"item-359c6b24b30c","sku":"_dfafa8Dw1NF1Vl0yu2OuQx2AM_3vDWPePxPaYaQ","name_en":"Hermes Women Bags","name_cn":"😘\n新款 kelly elan,时尚的轮回,可以当腋下包和手拿包,真的把一代替代了\n简直不要太美\n拼手速啦,宝宝们","specs":{"source":"wsxcme","sourceId":"_dfafa8Dw1NF1Vl0yu2OuQx2AM_3vDWPePxPaYaQ","sourceTagId":76963559,"sourceTagName":"爱马仕/女包","rawTitle":"😘\n新款 kelly elan,时尚的轮回,可以当腋下包和手拿包,真的把一代替代了\n简直不要太美\n拼手速啦,宝宝们"},"price":null,"currency":"CNY","moq":1,"category":"hermes-women-bags","status":"active","alibaba_url":null,"images":["https://xcimg.szwego.com/20230804/i1691139065_7763_0.jpg","https://xcimg.szwego.com/20230804/i1691139065_9643_1.jpg","https://xcimg.szwego.com/20230804/i1691139065_2078_2.jpg","https://xcimg.szwego.com/20230804/i1691139065_2742_3.jpg","https://xcimg.szwego.com/20230804/i1691139065_8198_4.jpg","https://xcimg.szwego.com/20230804/i1691139065_8347_5.jpg"],"created_at":"2024-10-22T04:49:50.796Z"},{"id":"item-302e6ac988a2","sku":"_dm7m709i_eWqt7qV08DBOwBhnhP7lzU5viHl1vg","name_en":"Hermes Women Bags","name_cn":"😘\n新款 kelly elan,时尚的轮回,可以当腋下包和手拿包,真的把一代替代了\n简直不要太美\n拼手速啦,宝宝们","specs":{"source":"wsxcme","sourceId":"_dm7m709i_eWqt7qV08DBOwBhnhP7lzU5viHl1vg","sourceTagId":76963559,"sourceTagName":"爱马仕/女包","rawTitle":"😘\n新款 kelly elan,时尚的轮回,可以当腋下包和手拿包,真的把一代替代了\n简直不要太美\n拼手速啦,宝宝们"},"price":null,"currency":"CNY","moq":1,"category":"hermes-women-bags","status":"active","alibaba_url":null,"images":["https://xcimg.szwego.com/20230804/i1691138587_6721_0.jpg","https://xcimg.szwego.com/20230804/i1691138587_6937_1.jpg","https://xcimg.szwego.com/20230804/i1691138587_6090_2.jpg","https://xcimg.szwego.com/20230804/i1691138587_6486_3.jpg","https://xcimg.szwego.com/20230804/i1691138587_8423_4.jpg","https://xcimg.szwego.com/20230804/i1691138587_1036_5.jpg","https://xcimg.szwego.com/20230804/i1691138587_3013_6.jpg","https://xcimg.szwego.com/20230804/i1691138587_2920_7.jpg","https://xcimg.szwego.com/20230804/i1691138587_1119_8.jpg"],"created_at":"2024-10-22T04:49:50.794Z"},{"id":"item-269b7c24a9a0","sku":"_doToTJTC0DX_nNkcM_6ZK7kAXEeY-_j_566VgEg","name_en":"Hermes Women Bags","name_cn":"😘\n新款 kelly elan,时尚的轮回,可以当腋下包和手拿包,真的把一代替代了\n简直不要太美\n拼手速啦,宝宝们","specs":{"source":"wsxcme","sourceId":"_doToTJTC0DX_nNkcM_6ZK7kAXEeY-_j_566VgEg","sourceTagId":76963559,"sourceTagName":"爱马仕/女包","rawTitle":"😘\n新款 kelly elan,时尚的轮回,可以当腋下包和手拿包,真的把一代替代了\n简直不要太美\n拼手速啦,宝宝们"},"price":null,"currency":"CNY","moq":1,"category":"hermes-women-bags","status":"active","alibaba_url":null,"images":["https://xcimg.szwego.com/20230804/i1691138356_5071_0.jpg","https://xcimg.szwego.com/20230804/i1691138356_9505_1.jpg","https://xcimg.szwego.com/20230804/i1691138356_8079_2.jpg","https://xcimg.szwego.com/20230804/i1691138356_8326_3.jpg","https://xcimg.szwego.com/20230804/i1691138356_7584_4.jpg","https://xcimg.szwego.com/20230804/i1691138356_267_5.jpg","https://xcimg.szwego.com/20230804/i1691138356_1211_6.jpg","https://xcimg.szwego.com/20230804/i1691138356_2759_7.jpg","https://xcimg.szwego.com/20230804/i1691138356_9729_8.jpg"],"created_at":"2024-10-22T04:49:50.792Z"},{"id":"item-1262e524c1ca","sku":"_dj0j0fSAMqwMH-mSoSVtmkuLJ1F4V7-iyi-qGUw","name_en":"Hermes Women Bags","name_cn":"真正的原厂货,正品级品质,我们确保所有材料,五金,车线,油边都达到正品百分百的原材料\n\nHermes 爱马仕 Birkin25cm 黑色银扣\nBirkin 独家渠道货 独家欧洲原厂皮原厂五金组装的ZP尾单货\n尺寸:20 X 25 X 13CM\n\nBirkin我们采用的是进口原厂Togo真皮,什么是Togo皮呢?\n\nTogo皮:最经典的Birkin用皮。表面是均匀的颗粒状,类似荔枝纹,有光泽。皮质较硬,容易保持包包的形状,相对较轻,触感比较柔软,耐磨耐用;\n\n我们用的是纯原、原厂皮就是和原版专柜一样的皮!","specs":{"source":"wsxcme","sourceId":"_dj0j0fSAMqwMH-mSoSVtmkuLJ1F4V7-iyi-qGUw","sourceTagId":76963559,"sourceTagName":"爱马仕/女包","dimensions":{"lengthCm":20,"heightCm":25,"widthCm":13},"rawTitle":"真正的原厂货,正品级品质,我们确保所有材料,五金,车线,油边都达到正品百分百的原材料\n\nHermes 爱马仕 Birkin25cm 黑色银扣\nBirkin 独家渠道货 独家欧洲原厂皮原厂五金组装的ZP尾单货\n尺寸:20 X 25 X 13CM\n\nBirkin我们采用的是进口原厂Togo真皮,什么是Togo皮呢?\n\nTogo皮:最经典的Birkin用皮。表面是均匀的颗粒状,类似荔枝纹,有光泽。皮质较硬,容易保持包包的形状,相对较轻,触感比较柔软,耐磨耐用;\n\n我们用的是纯原、原厂皮就是和原版专柜一样的皮!"},"price":null,"currency":"CNY","moq":1,"category":"hermes-women-bags","status":"active","alibaba_url":null,"images":["https://xcimg.szwego.com/20230515/i1684133308_9696_0.jpg","https://xcimg.szwego.com/20230515/i1684133308_9624_1.jpg","https://xcimg.szwego.com/20230515/i1684133308_4448_2.jpg","https://xcimg.szwego.com/20230515/i1684133308_8087_3.jpg","https://xcimg.szwego.com/20230515/i1684133308_178_4.jpg","https://xcimg.szwego.com/20230515/i1684133308_2857_5.jpg","https://xcimg.szwego.com/20230515/i1684133308_2702_6.jpg","https://xcimg.szwego.com/20230515/i1684133308_4301_7.jpg","https://xcimg.szwego.com/20230515/i1684133308_2715_8.jpg"],"created_at":"2024-10-21T06:42:26.543Z"},{"id":"item-11274fecf541","sku":"_d6i6iasdHOu3j1aqQqhyFo6bFjLmYC9UACZAZMw","name_en":"Hermes Women Bags","name_cn":"夏天必入款 \nMini 花园包帆布 23x16x10","specs":{"source":"wsxcme","sourceId":"_d6i6iasdHOu3j1aqQqhyFo6bFjLmYC9UACZAZMw","sourceTagId":76963559,"sourceTagName":"爱马仕/女包","rawTitle":"夏天必入款 \nMini 花园包帆布 23x16x10"},"price":null,"currency":"CNY","moq":1,"category":"hermes-women-bags","status":"active","alibaba_url":null,"images":["https://xcimg.szwego.com/img/c98920cd/20260411/i1775897868055_5436_0_0.jpg","https://xcimg.szwego.com/img/c98920cd/20260411/i1775897868172_6267_0_2.jpg","https://xcimg.szwego.com/img/c98920cd/20260411/i1775897870008_7138_0_3.jpg","https://xcimg.szwego.com/img/c98920cd/20260411/i1775897869137_7936_0_4.jpg","https://xcimg.szwego.com/img/c98920cd/20260411/i1775897869949_7700_0_5.jpg","https://xcimg.szwego.com/img/c98920cd/20260411/i1775897869052_2808_0_6.jpg","https://xcimg.szwego.com/img/c98920cd/20260411/i1775897868058_1688_0_7.jpg","https://xcimg.szwego.com/img/c98920cd/20260411/i1775897869895_2738_0_8.jpg"],"created_at":"2026-06-29T12:59:36.044Z"},{"id":"item-35aa30503fd8","sku":"_drjrjlUn127k27MhpfuMsn6HMVvW6D78d1IOx5A","name_en":"Hermès(爱马仕) Constance","name_cn":"Hermès(爱马仕) Constance\n属于H家入手较困难也是最难买到的包袋 \n实拍19CM 金扣 丝绒绿 Epsom\n现货 19Cm \n现货 23Cm","specs":{"source":"wsxcme","sourceId":"_drjrjlUn127k27MhpfuMsn6HMVvW6D78d1IOx5A","sourceTagId":76963559,"sourceTagName":"爱马仕/女包","rawTitle":"Hermès(爱马仕) Constance\n属于H家入手较困难也是最难买到的包袋 \n实拍19CM 金扣 丝绒绿 Epsom\n现货 19Cm \n现货 23Cm"},"price":null,"currency":"CNY","moq":1,"category":"hermes-women-bags","status":"active","alibaba_url":null,"images":["https://xcimg.szwego.com/20200419/i1587277261_5664_0.jpg","https://xcimg.szwego.com/20200419/i1587277261_7897_1.jpg","https://xcimg.szwego.com/20200419/i1587277261_8484_2.jpg","https://xcimg.szwego.com/20200419/i1587277261_2437_3.jpg","https://xcimg.szwego.com/20200419/i1587277261_7665_4.jpg","https://xcimg.szwego.com/20200419/i1587277261_8153_7.jpg","https://xcimg.szwego.com/20200419/i1587277261_4084_5.jpg","https://xcimg.szwego.com/20200419/i1587277261_6218_8.jpg"],"created_at":"2025-01-20T12:29:05.618Z"},{"id":"item-5f37471e7129","sku":"_dt9t9cAHM6xIK2K-z7_8AicuN8PLVMu-OhtXX8A","name_en":"HIGH RISE 腰包 】m13660 白彩(三彩-村上隆)","name_cn":"HIGH RISE 腰包 】m13660 白彩(三彩-村上隆)\n\nHigh Rise LT腰包以柔软 Monogram 涂层帆布塑造贴身构型,轻薄设计可置于外套内侧。牛皮革塑造可拆卸名牌,系上织物肩带,尽释动感风范。\n\n尺寸:16 x 8 x 38 厘米","specs":{"source":"wsxcme","sourceId":"_dt9t9cAHM6xIK2K-z7_8AicuN8PLVMu-OhtXX8A","sourceTagId":47002622,"sourceTagName":"LV/女包","dimensions":{"lengthCm":16,"heightCm":8,"widthCm":38},"rawTitle":"HIGH RISE 腰包 】m13660 白彩(三彩-村上隆)\n\nHigh Rise LT腰包以柔软 Monogram 涂层帆布塑造贴身构型,轻薄设计可置于外套内侧。牛皮革塑造可拆卸名牌,系上织物肩带,尽释动感风范。\n\n尺寸:16 x 8 x 38 厘米"},"price":null,"currency":"CNY","moq":1,"category":"lv-women-bags","status":"active","alibaba_url":null,"images":["https://xcimg.szwego.com/img/e0e5a069/20241224/i1734980710_2109_1.jpg","https://xcimg.szwego.com/img/e0e5a069/20241224/i1734980710_614_5.jpg","https://xcimg.szwego.com/img/e0e5a069/20241224/i1734980710_8774_2.jpg","https://xcimg.szwego.com/img/e0e5a069/20241224/i1734980710_6767_4.jpg","https://xcimg.szwego.com/img/e0e5a069/20241224/i1734980710_436_0.jpg","https://xcimg.szwego.com/img/e0e5a069/20241224/i1734980710_2957_3.jpg","https://xcimg.szwego.com/img/e0e5a069/20241224/i1734980710_3742_8.jpg","https://xcimg.szwego.com/img/e0e5a069/20241224/i1734980710_6386_6.jpg","https://xcimg.szwego.com/img/e0e5a069/20241224/i1734980710_660_7.jpg"],"created_at":"2025-03-30T13:03:54.426Z"},{"id":"item-bfde46b1341e","sku":"_dQ5Q5ohvwrH8Dmt5NEWE0wZVOrWjanUKXqx9DOA","name_en":"HoBo 腋下包🛍","name_cn":"HoBo 腋下包🛍\n超Q的纳帕小牛皮,中古造型,\n复古感满满,细腻柔软100分💯 ,时髦又有型。\n♥︎拽姐辣妹😎必备!\n\n尺寸:14-28.7-10.7cm(提手高度25cm)","specs":{"source":"wsxcme","sourceId":"_dQ5Q5ohvwrH8Dmt5NEWE0wZVOrWjanUKXqx9DOA","sourceTagId":47002713,"sourceTagName":"罗意威/女包","rawTitle":"HoBo 腋下包🛍\n超Q的纳帕小牛皮,中古造型,\n复古感满满,细腻柔软100分💯 ,时髦又有型。\n♥︎拽姐辣妹😎必备!\n\n尺寸:14-28.7-10.7cm(提手高度25cm)"},"price":null,"currency":"CNY","moq":1,"category":"loewe-women-bags","status":"active","alibaba_url":null,"images":["https://xcimg.szwego.com/img/c5e454cc/20231105/i1699166496_9234_0.jpg","https://xcimg.szwego.com/img/c5e454cc/20231105/i1699166496_3912_1.jpg","https://xcimg.szwego.com/img/c5e454cc/20231105/i1699166496_6432_2.jpg","https://xcimg.szwego.com/img/c5e454cc/20231105/i1699166496_4147_3.jpg","https://xcimg.szwego.com/img/c5e454cc/20231105/i1699166496_9909_4.jpg","https://xcimg.szwego.com/img/c5e454cc/20231105/i1699166496_6907_5.jpg","https://xcimg.szwego.com/img/c5e454cc/20231105/i1699166496_1363_6.jpg","https://xcimg.szwego.com/img/c5e454cc/20231105/i1699166496_9672_7.jpg","https://xcimg.szwego.com/img/c5e454cc/20231105/i1699166496_8586_8.jpg"],"created_at":"2025-01-21T03:10:17.843Z"},{"id":"item-c61fef040529","sku":"_dpTpTNbEfHx0rEmaokerJwo8M9Cx6dB0KcdfSiA","name_en":"Horsebit 1955新成员 法棍包#735178# YY#","name_cn":"Horsebit 1955新成员 法棍包#735178# YY#\n▪️尺寸:24*13*5.5cm▪️\n1955家族又新增一位新成员,\n在原有经典的马鞍包基础上又创新了新设计,\n大爆款造型法棍,显得更加小巧精致,\n配了一条超美的双G链条设计,\n搭配一条皮肩带腋下复古风十足,\n尽显复古摩登之美,\n没有繁华的修饰显得更加高级,\n今年妥妥包王无疑了!","specs":{"source":"wsxcme","sourceId":"_dpTpTNbEfHx0rEmaokerJwo8M9Cx6dB0KcdfSiA","sourceTagId":47002679,"sourceTagName":"古驰/女包","dimensions":{"lengthCm":24,"heightCm":13,"widthCm":5.5},"rawTitle":"Horsebit 1955新成员 法棍包#735178# YY#\n▪️尺寸:24*13*5.5cm▪️\n1955家族又新增一位新成员,\n在原有经典的马鞍包基础上又创新了新设计,\n大爆款造型法棍,显得更加小巧精致,\n配了一条超美的双G链条设计,\n搭配一条皮肩带腋下复古风十足,\n尽显复古摩登之美,\n没有繁华的修饰显得更加高级,\n今年妥妥包王无疑了!"},"price":null,"currency":"CNY","moq":1,"category":"gucci-women-bags","status":"active","alibaba_url":null,"images":["https://xcimg.szwego.com/20230403/i1680498370_4331_0.jpg","https://xcimg.szwego.com/20230403/i1680498370_7580_1.jpg","https://xcimg.szwego.com/20230403/i1680498370_366_2.jpg","https://xcimg.szwego.com/20230403/i1680498370_7314_3.jpg","https://xcimg.szwego.com/20230403/i1680498370_5056_4.jpg","https://xcimg.szwego.com/20230403/i1680498370_9038_5.jpg","https://xcimg.szwego.com/20230403/i1680498370_7492_6.jpg","https://xcimg.szwego.com/20230403/i1680498370_7966_7.jpg","https://xcimg.szwego.com/20230403/i1680498370_5114_8.jpg"],"created_at":"2026-06-29T11:04:23.264Z"}],"page":327,"pageSize":24,"total":10075,"totalPages":420}
