{"items":[{"id":"item-9ca12c0e733d","sku":"_djJjJhgXLMKctA31O2SNghgdodDCLASY5i02aMw","name_en":"FLAT SHOPPER大号标志印花手袋💯全钢五金!!️","name_cn":"FLAT SHOPPER大号标志印花手袋💯全钢五金!!️\n编号:123842","specs":{"source":"wsxcme","sourceId":"_djJjJhgXLMKctA31O2SNghgdodDCLASY5i02aMw","sourceTagId":47003106,"sourceTagName":"塞琳/女包","rawTitle":"FLAT SHOPPER大号标志印花手袋💯全钢五金!!️\n编号:123842"},"price":null,"currency":"CNY","moq":1,"category":"celine-women-bags","status":"active","alibaba_url":null,"images":["https://xcimg.szwego.com/img/34b30588/20260425/i1777055190677_8087_0_0.jpg","https://xcimg.szwego.com/img/34b30588/20260425/i1777055190675_9627_0_1.jpg","https://xcimg.szwego.com/img/34b30588/20260425/i1777055190677_3641_0_2.jpg","https://xcimg.szwego.com/img/34b30588/20260425/i1777055190677_7444_0_3.jpg","https://xcimg.szwego.com/img/34b30588/20260425/i1777055190677_2134_0_4.jpg"],"created_at":"2026-05-20T03:16:23.956Z"},{"id":"item-5e21e744dc36","sku":"_dlLlL5rcDWiAhtElEFmSNKOEDw4IPxVFU-EO7tA","name_en":"FLAT SHOPPER大号标志印花手袋💯全钢五金!!️","name_cn":"FLAT SHOPPER大号标志印花手袋💯全钢五金!!️\n标志印花,天然牛皮革包边\n织物衬里\n金色饰面\n手提、肩背\nTRIOMPHE按扣开合和钩扣\n1个主隔层\n1个内侧拉链袋\n2个提手,长度(25厘米)\n尺寸:(0.5 X 42 X 45.5厘米)\n编号:123842","specs":{"source":"wsxcme","sourceId":"_dlLlL5rcDWiAhtElEFmSNKOEDw4IPxVFU-EO7tA","sourceTagId":47003106,"sourceTagName":"塞琳/女包","rawTitle":"FLAT SHOPPER大号标志印花手袋💯全钢五金!!️\n标志印花,天然牛皮革包边\n织物衬里\n金色饰面\n手提、肩背\nTRIOMPHE按扣开合和钩扣\n1个主隔层\n1个内侧拉链袋\n2个提手,长度(25厘米)\n尺寸:(0.5 X 42 X 45.5厘米)\n编号:123842"},"price":null,"currency":"CNY","moq":1,"category":"celine-women-bags","status":"active","alibaba_url":null,"images":["https://xcimg.szwego.com/img/34b30588/20260425/i1777054913471_8150_0_0.jpg","https://xcimg.szwego.com/img/34b30588/20260425/i1777054913486_9905_0_1.jpg","https://xcimg.szwego.com/img/34b30588/20260425/i1777054915628_2832_0_2.jpg","https://xcimg.szwego.com/img/34b30588/20260425/i1777054913471_5_0_3.jpg","https://xcimg.szwego.com/img/34b30588/20260425/i1777054913464_5220_0_4.jpg","https://xcimg.szwego.com/img/34b30588/20260425/i1777054915626_7731_0_5.jpg","https://xcimg.szwego.com/img/34b30588/20260425/i1777054915658_4140_0_6.jpg","https://xcimg.szwego.com/img/34b30588/20260425/i1777054913497_9205_0_7.jpg","https://xcimg.szwego.com/img/34b30588/20260425/i1777054915584_9379_0_8.jpg"],"created_at":"2026-05-20T03:16:23.936Z"},{"id":"item-087235bc7b88","sku":"_dnHnH-2iF5lVjo6G7lWKA2KAPyk9gPGxw7PSC8A","name_en":"FLAT SHOPPER大号标志印花手袋💯全钢五金!!️","name_cn":"FLAT SHOPPER大号标志印花手袋💯全钢五金!!️\n标志印花,天然牛皮革包边\n织物衬里\n金色饰面\n手提、肩背\nTRIOMPHE按扣开合和钩扣\n1个主隔层\n1个内侧拉链袋\n2个提手,长度(25厘米)\n尺寸:(0.5 X 42 X 45.5厘米)\n编号:123842","specs":{"source":"wsxcme","sourceId":"_dnHnH-2iF5lVjo6G7lWKA2KAPyk9gPGxw7PSC8A","sourceTagId":47003106,"sourceTagName":"塞琳/女包","rawTitle":"FLAT SHOPPER大号标志印花手袋💯全钢五金!!️\n标志印花,天然牛皮革包边\n织物衬里\n金色饰面\n手提、肩背\nTRIOMPHE按扣开合和钩扣\n1个主隔层\n1个内侧拉链袋\n2个提手,长度(25厘米)\n尺寸:(0.5 X 42 X 45.5厘米)\n编号:123842"},"price":null,"currency":"CNY","moq":1,"category":"celine-women-bags","status":"active","alibaba_url":null,"images":["https://xcimg.szwego.com/img/34b30588/20260425/i1777054959613_7892_0_0.jpg","https://xcimg.szwego.com/img/34b30588/20260425/i1777054915626_7731_0_5.jpg","https://xcimg.szwego.com/img/34b30588/20260425/i1777054915658_4140_0_6.jpg","https://xcimg.szwego.com/img/34b30588/20260425/i1777054959532_3858_0_3.jpg","https://xcimg.szwego.com/img/34b30588/20260425/i1777054959605_2855_0_4.jpg","https://xcimg.szwego.com/img/34b30588/20260425/i1777054959626_577_0_5.jpg","https://xcimg.szwego.com/img/34b30588/20260425/i1777054959636_4426_0_6.jpg"],"created_at":"2026-05-20T03:16:23.946Z"},{"id":"item-b45b9a9b2c6c","sku":"_dWWWW8zo0hRlvKOTbD2_F7AwwzAZ5hMGQ7_N1GQ","name_en":"FLAT SHOPPER中号标志印花手袋💯全钢五金!!️","name_cn":"FLAT SHOPPER中号标志印花手袋💯全钢五金!!️\n标志印花,天然牛皮革包边\n织物衬里\n金色饰面\n手提、肩背\nTRIOMPHE按扣开合和钩扣\n1个主隔层\n1个内侧拉链袋\n2个提手,(25厘米)\n尺寸:(28 X 33 X 0.5厘米)\n编号:123832","specs":{"source":"wsxcme","sourceId":"_dWWWW8zo0hRlvKOTbD2_F7AwwzAZ5hMGQ7_N1GQ","sourceTagId":47003106,"sourceTagName":"塞琳/女包","rawTitle":"FLAT SHOPPER中号标志印花手袋💯全钢五金!!️\n标志印花,天然牛皮革包边\n织物衬里\n金色饰面\n手提、肩背\nTRIOMPHE按扣开合和钩扣\n1个主隔层\n1个内侧拉链袋\n2个提手,(25厘米)\n尺寸:(28 X 33 X 0.5厘米)\n编号:123832"},"price":null,"currency":"CNY","moq":1,"category":"celine-women-bags","status":"active","alibaba_url":null,"images":["https://xcimg.szwego.com/img/34b30588/20260425/i1777053959212_9960_0_0.jpg","https://xcimg.szwego.com/img/34b30588/20260425/i1777053961085_6550_0_1.jpg","https://xcimg.szwego.com/img/34b30588/20260425/i1777053959212_5198_0_2.jpg","https://xcimg.szwego.com/img/34b30588/20260425/i1777053960981_3952_0_3.jpg","https://xcimg.szwego.com/img/34b30588/20260425/i1777053961045_3550_0_4.jpg","https://xcimg.szwego.com/img/34b30588/20260425/i1777053959212_1199_0_5.jpg","https://xcimg.szwego.com/img/34b30588/20260425/i1777053959211_497_0_6.jpg","https://xcimg.szwego.com/img/34b30588/20260425/i1777053959212_7540_0_7.jpg","https://xcimg.szwego.com/img/34b30588/20260425/i1777053961058_8576_0_8.jpg"],"created_at":"2026-05-20T03:16:23.906Z"},{"id":"item-8fcb64753d57","sku":"_domomqtaPUvmOqP60tsvgl5ivbHcVXxlSY-KXTQ","name_en":"FLAT SHOPPER中号标志印花手袋💯全钢五金!!️","name_cn":"FLAT SHOPPER中号标志印花手袋💯全钢五金!!️\n标志印花,天然牛皮革包边\n织物衬里\n金色饰面\n手提、肩背\nTRIOMPHE按扣开合和钩扣\n1个主隔层\n1个内侧拉链袋\n2个提手,(25厘米)\n尺寸:(28 X 33 X 0.5厘米)\n编号:123832","specs":{"source":"wsxcme","sourceId":"_domomqtaPUvmOqP60tsvgl5ivbHcVXxlSY-KXTQ","sourceTagId":47003106,"sourceTagName":"塞琳/女包","rawTitle":"FLAT SHOPPER中号标志印花手袋💯全钢五金!!️\n标志印花,天然牛皮革包边\n织物衬里\n金色饰面\n手提、肩背\nTRIOMPHE按扣开合和钩扣\n1个主隔层\n1个内侧拉链袋\n2个提手,(25厘米)\n尺寸:(28 X 33 X 0.5厘米)\n编号:123832"},"price":null,"currency":"CNY","moq":1,"category":"celine-women-bags","status":"active","alibaba_url":null,"images":["https://xcimg.szwego.com/img/34b30588/20260423/i1776934604133_2730_0_0.jpg","https://xcimg.szwego.com/img/34b30588/20260423/i1776934604133_1213_0_1.jpg"],"created_at":"2026-05-20T03:16:23.926Z"},{"id":"item-144d8f0da78b","sku":"_diOiOUaRMnogJ6EnDr9ERx3fGPhioH_PZg0sqPw","name_en":"FLAT SHOPPER中号标志印花手袋💯全钢五金!!️","name_cn":"FLAT SHOPPER中号标志印花手袋💯全钢五金!!️\n编号:123832","specs":{"source":"wsxcme","sourceId":"_diOiOUaRMnogJ6EnDr9ERx3fGPhioH_PZg0sqPw","sourceTagId":47003106,"sourceTagName":"塞琳/女包","rawTitle":"FLAT SHOPPER中号标志印花手袋💯全钢五金!!️\n编号:123832"},"price":null,"currency":"CNY","moq":1,"category":"celine-women-bags","status":"active","alibaba_url":null,"images":["https://xcimg.szwego.com/img/34b30588/20260425/i1777053998321_6063_0_0.jpg","https://xcimg.szwego.com/img/34b30588/20260425/i1777053961045_3550_0_4.jpg","https://xcimg.szwego.com/img/34b30588/20260425/i1777053959212_1199_0_5.jpg","https://xcimg.szwego.com/img/34b30588/20260425/i1777053959211_497_0_6.jpg","https://xcimg.szwego.com/img/34b30588/20260425/i1777053999119_1161_0_3.jpg","https://xcimg.szwego.com/img/34b30588/20260425/i1777053959212_7540_0_7.jpg","https://xcimg.szwego.com/img/34b30588/20260425/i1777053998344_9846_0_4.jpg","https://xcimg.szwego.com/img/34b30588/20260425/i1777053998285_192_0_5.jpg"],"created_at":"2026-05-20T03:16:23.916Z"},{"id":"item-a3503a2f7bf7","sku":"_dpxpxCie5Tn6v57PZ8zYyPUpiv8eaZ59BnLfWwQ","name_en":"G G|简单耐看","name_cn":"G G|简单耐看\n气质一览无余〰️","specs":{"source":"wsxcme","sourceId":"_dpxpxCie5Tn6v57PZ8zYyPUpiv8eaZ59BnLfWwQ","sourceTagId":47002679,"sourceTagName":"古驰/女包","rawTitle":"G G|简单耐看\n气质一览无余〰️"},"price":null,"currency":"CNY","moq":1,"category":"gucci-women-bags","status":"active","alibaba_url":null,"images":["https://xcimg.szwego.com/img/7f9d4644/20260130/i1769753663434_2410_0_0.jpg","https://xcimg.szwego.com/img/7f9d4644/20260130/i1769753663435_7713_0_1.jpg","https://xcimg.szwego.com/img/7f9d4644/20260130/i1769753663435_1578_0_2.jpg","https://xcimg.szwego.com/img/7f9d4644/20260130/i1769753663435_8129_0_3.jpg","https://xcimg.szwego.com/img/7f9d4644/20260130/i1769753663434_554_0_4.jpg","https://xcimg.szwego.com/img/7f9d4644/20260130/i1769753664220_158_0_5.jpg"],"created_at":"2026-05-20T03:19:23.578Z"},{"id":"item-173671916a9a","sku":"_dFfFf4zHN6Px29DcXWX7KIZeZX4uRDUzatzuK2g","name_en":"Gaby Vanity","name_cn":"Gaby Vanity \n低调的奢华 永恒的轮廓","specs":{"source":"wsxcme","sourceId":"_dFfFf4zHN6Px29DcXWX7KIZeZX4uRDUzatzuK2g","sourceTagId":47002761,"sourceTagName":"圣罗兰/女包","rawTitle":"Gaby Vanity \n低调的奢华 永恒的轮廓"},"price":null,"currency":"CNY","moq":1,"category":"ysl-women-bags","status":"active","alibaba_url":null,"images":["https://xcimg.szwego.com/imgHD/f8c0bdc9/20260129/cmp_i1769677083582_5175_0_0.jpg","https://xcimg.szwego.com/imgHD/f8c0bdc9/20260129/cmp_i1769677083607_2091_0_1.jpg","https://xcimg.szwego.com/imgHD/f8c0bdc9/20260129/cmp_i1769677083604_2022_0_2.jpg","https://xcimg.szwego.com/imgHD/f8c0bdc9/20260129/cmp_i1769677083566_7125_0_3.jpg"],"created_at":"2026-05-20T04:01:38.863Z"},{"id":"item-fe1c24968863","sku":"_dndndEw_1GrIWmbyVuvfDo3h6tjeelDuVi2Ym7Q","name_en":"Garden Party 彩绘涂鸦","name_cn":"Garden Party 彩绘涂鸦\n🇫🇷法国Fjord进口原版牛皮 蜡线缝制 老师傅工艺彩绘帆布,🐎家的色彩搭配以及彩绘涂鸦都一绝 每个包包都堪称艺术品\n实拍size36","specs":{"source":"wsxcme","sourceId":"_dndndEw_1GrIWmbyVuvfDo3h6tjeelDuVi2Ym7Q","sourceTagId":76963559,"sourceTagName":"爱马仕/女包","rawTitle":"Garden Party 彩绘涂鸦\n🇫🇷法国Fjord进口原版牛皮 蜡线缝制 老师傅工艺彩绘帆布,🐎家的色彩搭配以及彩绘涂鸦都一绝 每个包包都堪称艺术品\n实拍size36"},"price":null,"currency":"CNY","moq":1,"category":"hermes-women-bags","status":"active","alibaba_url":null,"images":["https://xcimg.szwego.com/img/43e90bff/20240812/i1723456680_678_8.jpg","https://xcimg.szwego.com/img/43e90bff/20240812/i1723456680_1322_5.jpg","https://xcimg.szwego.com/img/43e90bff/20240812/i1723456680_3577_1.jpg","https://xcimg.szwego.com/img/43e90bff/20240812/i1723456680_9868_3.jpg","https://xcimg.szwego.com/img/43e90bff/20240812/i1723456680_1152_4.jpg","https://xcimg.szwego.com/img/43e90bff/20240812/i1723456680_4785_0.jpg","https://xcimg.szwego.com/img/43e90bff/20240812/i1723456680_3489_7.jpg","https://xcimg.szwego.com/img/43e90bff/20240812/i1723456680_8771_6.jpg","https://xcimg.szwego.com/img/43e90bff/20240812/i1723456680_4430_2.jpg"],"created_at":"2024-10-22T05:00:12.182Z"},{"id":"item-f47c684d7b3c","sku":"_d-U-UuK3mvmpdxd3llu2E0InIYc0VHPiYwlDvow","name_en":"Garden Party 彩绘涂鸦","name_cn":"Garden Party 彩绘涂鸦\n🇫🇷法国Fjord进口原版牛皮 蜡线缝制 老师傅工艺彩绘帆布,🐎家的色彩搭配以及彩绘涂鸦都一绝 每个包包都堪称艺术品\n实拍size36","specs":{"source":"wsxcme","sourceId":"_d-U-UuK3mvmpdxd3llu2E0InIYc0VHPiYwlDvow","sourceTagId":76963559,"sourceTagName":"爱马仕/女包","rawTitle":"Garden Party 彩绘涂鸦\n🇫🇷法国Fjord进口原版牛皮 蜡线缝制 老师傅工艺彩绘帆布,🐎家的色彩搭配以及彩绘涂鸦都一绝 每个包包都堪称艺术品\n实拍size36"},"price":null,"currency":"CNY","moq":1,"category":"hermes-women-bags","status":"active","alibaba_url":null,"images":["https://xcimg.szwego.com/img/43e90bff/20240812/i1723456834_5714_0.jpg","https://xcimg.szwego.com/img/43e90bff/20240812/i1723456834_9270_0.jpg","https://xcimg.szwego.com/img/43e90bff/20240812/i1723456834_6563_0.jpg","https://xcimg.szwego.com/img/43e90bff/20240812/i1723456834_5166_0.jpg","https://xcimg.szwego.com/img/43e90bff/20240812/i1723456835_2526_0.jpg","https://xcimg.szwego.com/img/43e90bff/20240812/i1723456834_5100_0.jpg","https://xcimg.szwego.com/img/43e90bff/20240812/i1723456834_4487_0.jpg","https://xcimg.szwego.com/img/43e90bff/20240812/i1723456834_8988_0.jpg","https://xcimg.szwego.com/img/43e90bff/20240812/i1723456817_5749_3.jpg"],"created_at":"2024-10-22T05:00:12.181Z"},{"id":"item-f248c0e0f268","sku":"_d-4-4riFx_rLzf1iLAp3d3L8RvxAMQo3UEIqfnw","name_en":"Garden Party 彩绘涂鸦","name_cn":"Garden Party 彩绘涂鸦\n🇫🇷法国Fjord进口原版牛皮 蜡线缝制 老师傅工艺彩绘帆布,🐎家的色彩搭配以及彩绘涂鸦都一绝 每个包包都堪称艺术品\n实拍size36","specs":{"source":"wsxcme","sourceId":"_d-4-4riFx_rLzf1iLAp3d3L8RvxAMQo3UEIqfnw","sourceTagId":76963559,"sourceTagName":"爱马仕/女包","rawTitle":"Garden Party 彩绘涂鸦\n🇫🇷法国Fjord进口原版牛皮 蜡线缝制 老师傅工艺彩绘帆布,🐎家的色彩搭配以及彩绘涂鸦都一绝 每个包包都堪称艺术品\n实拍size36"},"price":null,"currency":"CNY","moq":1,"category":"hermes-women-bags","status":"active","alibaba_url":null,"images":["https://xcimg.szwego.com/img/b17e98d7/20240818/i1723966523_4256_2.jpg","https://xcimg.szwego.com/img/b17e98d7/20240818/i1723966523_7435_5.jpg","https://xcimg.szwego.com/img/b17e98d7/20240818/i1723966523_6766_7.jpg","https://xcimg.szwego.com/img/b17e98d7/20240818/i1723966523_1827_4.jpg","https://xcimg.szwego.com/img/b17e98d7/20240818/i1723966523_2266_8.jpg","https://xcimg.szwego.com/img/b17e98d7/20240818/i1723966523_8431_0.jpg","https://xcimg.szwego.com/img/b17e98d7/20240818/i1723966523_3559_6.jpg","https://xcimg.szwego.com/img/b17e98d7/20240818/i1723966523_6403_3.jpg","https://xcimg.szwego.com/img/b17e98d7/20240818/i1723966523_4429_1.jpg"],"created_at":"2024-10-22T05:00:12.185Z"},{"id":"item-b57a299e69c7","sku":"_dw4w4x7-ezvrqilSeGfPh5En51OyAoYlFYinrsg","name_en":"Garden Party 彩绘涂鸦","name_cn":"Garden Party 彩绘涂鸦\n🇫🇷法国Fjord进口原版牛皮 蜡线缝制 老师傅工艺彩绘帆布,🐎家的色彩搭配以及彩绘涂鸦都一绝 每个包包都堪称艺术品\n实拍size36","specs":{"source":"wsxcme","sourceId":"_dw4w4x7-ezvrqilSeGfPh5En51OyAoYlFYinrsg","sourceTagId":76963559,"sourceTagName":"爱马仕/女包","rawTitle":"Garden Party 彩绘涂鸦\n🇫🇷法国Fjord进口原版牛皮 蜡线缝制 老师傅工艺彩绘帆布,🐎家的色彩搭配以及彩绘涂鸦都一绝 每个包包都堪称艺术品\n实拍size36"},"price":null,"currency":"CNY","moq":1,"category":"hermes-women-bags","status":"active","alibaba_url":null,"images":["https://xcimg.szwego.com/img/b17e98d7/20240818/i1723966177_6339_2.jpg","https://xcimg.szwego.com/img/b17e98d7/20240818/i1723966177_4437_5.jpg","https://xcimg.szwego.com/img/b17e98d7/20240818/i1723966177_5320_4.jpg","https://xcimg.szwego.com/img/b17e98d7/20240818/i1723966177_8797_8.jpg","https://xcimg.szwego.com/img/b17e98d7/20240818/i1723966177_1749_3.jpg","https://xcimg.szwego.com/img/b17e98d7/20240818/i1723966177_6975_0.jpg","https://xcimg.szwego.com/img/b17e98d7/20240818/i1723966177_7918_1.jpg","https://xcimg.szwego.com/img/b17e98d7/20240818/i1723966177_4655_7.jpg","https://xcimg.szwego.com/img/b17e98d7/20240818/i1723966177_5593_6.jpg"],"created_at":"2024-10-22T05:00:12.179Z"},{"id":"item-8fca25c2e8fe","sku":"_dmVmVUoGtbBaHgefKUS5SnazBrWdOUrDNqtyP_g","name_en":"Garden Party 彩绘涂鸦","name_cn":"Garden Party 彩绘涂鸦\n🇫🇷法国Fjord进口原版牛皮 蜡线缝制 老师傅工艺彩绘帆布,🐎家的色彩搭配以及彩绘涂鸦都一绝 每个包包都堪称艺术品\n实拍size36","specs":{"source":"wsxcme","sourceId":"_dmVmVUoGtbBaHgefKUS5SnazBrWdOUrDNqtyP_g","sourceTagId":76963559,"sourceTagName":"爱马仕/女包","rawTitle":"Garden Party 彩绘涂鸦\n🇫🇷法国Fjord进口原版牛皮 蜡线缝制 老师傅工艺彩绘帆布,🐎家的色彩搭配以及彩绘涂鸦都一绝 每个包包都堪称艺术品\n实拍size36"},"price":null,"currency":"CNY","moq":1,"category":"hermes-women-bags","status":"active","alibaba_url":null,"images":["https://xcimg.szwego.com/img/b17e98d7/20240818/i1723966352_6680_7.jpg","https://xcimg.szwego.com/img/b17e98d7/20240818/i1723966352_4599_8.jpg","https://xcimg.szwego.com/img/b17e98d7/20240818/i1723966352_5997_5.jpg","https://xcimg.szwego.com/img/b17e98d7/20240818/i1723966352_840_1.jpg","https://xcimg.szwego.com/img/b17e98d7/20240818/i1723966352_6499_6.jpg","https://xcimg.szwego.com/img/b17e98d7/20240818/i1723966352_690_4.jpg","https://xcimg.szwego.com/img/b17e98d7/20240818/i1723966352_1852_0.jpg","https://xcimg.szwego.com/img/b17e98d7/20240818/i1723966352_1046_3.jpg","https://xcimg.szwego.com/img/b17e98d7/20240818/i1723966352_6952_2.jpg"],"created_at":"2024-10-22T05:00:12.180Z"},{"id":"item-744f51fa4c8e","sku":"_deZeZQ5hNxJvn6002aOrJo0zZY35ymXnUdGLseA","name_en":"Garden Party 彩绘涂鸦","name_cn":"Garden Party 彩绘涂鸦\n🇫🇷法国Fjord进口原版牛皮 蜡线缝制 老师傅工艺彩绘帆布,🐎家的色彩搭配以及彩绘涂鸦都一绝 每个包包都堪称艺术品\n实拍size36","specs":{"source":"wsxcme","sourceId":"_deZeZQ5hNxJvn6002aOrJo0zZY35ymXnUdGLseA","sourceTagId":76963559,"sourceTagName":"爱马仕/女包","rawTitle":"Garden Party 彩绘涂鸦\n🇫🇷法国Fjord进口原版牛皮 蜡线缝制 老师傅工艺彩绘帆布,🐎家的色彩搭配以及彩绘涂鸦都一绝 每个包包都堪称艺术品\n实拍size36"},"price":null,"currency":"CNY","moq":1,"category":"hermes-women-bags","status":"active","alibaba_url":null,"images":["https://xcimg.szwego.com/img/43e90bff/20240812/i1723456309_1213_7.jpg","https://xcimg.szwego.com/img/43e90bff/20240812/i1723456309_6963_5.jpg","https://xcimg.szwego.com/img/43e90bff/20240812/i1723456309_2860_3.jpg","https://xcimg.szwego.com/img/43e90bff/20240812/i1723456309_4473_0.jpg","https://xcimg.szwego.com/img/43e90bff/20240812/i1723456309_3164_2.jpg","https://xcimg.szwego.com/img/43e90bff/20240812/i1723456309_437_4.jpg","https://xcimg.szwego.com/img/43e90bff/20240812/i1723456309_4735_1.jpg","https://xcimg.szwego.com/img/43e90bff/20240812/i1723456309_230_6.jpg","https://xcimg.szwego.com/img/43e90bff/20240812/i1723456309_5273_8.jpg"],"created_at":"2024-10-22T05:00:12.183Z"},{"id":"item-4e2db29e8d7f","sku":"_deyeyGr16dc5u19NWQrHK2dtI6Qx4tQKDqpaFvg","name_en":"Garden Party 彩绘涂鸦","name_cn":"Garden Party 彩绘涂鸦\n🇫🇷法国Fjord进口原版牛皮 蜡线缝制 老师傅工艺彩绘帆布,🐎家的色彩搭配以及彩绘涂鸦都一绝 每个包包都堪称艺术品\n实拍size36","specs":{"source":"wsxcme","sourceId":"_deyeyGr16dc5u19NWQrHK2dtI6Qx4tQKDqpaFvg","sourceTagId":76963559,"sourceTagName":"爱马仕/女包","rawTitle":"Garden Party 彩绘涂鸦\n🇫🇷法国Fjord进口原版牛皮 蜡线缝制 老师傅工艺彩绘帆布,🐎家的色彩搭配以及彩绘涂鸦都一绝 每个包包都堪称艺术品\n实拍size36"},"price":null,"currency":"CNY","moq":1,"category":"hermes-women-bags","status":"active","alibaba_url":null,"images":["https://xcimg.szwego.com/img/b17e98d7/20240818/i1723966490_9450_2.jpg","https://xcimg.szwego.com/img/b17e98d7/20240818/i1723966490_9671_6.jpg","https://xcimg.szwego.com/img/b17e98d7/20240818/i1723966490_2804_7.jpg","https://xcimg.szwego.com/img/b17e98d7/20240818/i1723966490_7828_4.jpg","https://xcimg.szwego.com/img/b17e98d7/20240818/i1723966490_1172_5.jpg","https://xcimg.szwego.com/img/b17e98d7/20240818/i1723966490_6751_0.jpg","https://xcimg.szwego.com/img/b17e98d7/20240818/i1723966490_8857_3.jpg","https://xcimg.szwego.com/img/b17e98d7/20240818/i1723966490_6117_1.jpg","https://xcimg.szwego.com/img/b17e98d7/20240818/i1723966490_29_8.jpg"],"created_at":"2024-10-22T05:00:12.186Z"},{"id":"item-403981eec52b","sku":"_dI5I5l_zgbJKkXNsKUO8ZyTmM2JUzXf-0uN4QIg","name_en":"Garden Party 彩绘涂鸦","name_cn":"Garden Party 彩绘涂鸦\n🇫🇷法国Fjord进口原版牛皮 蜡线缝制 老师傅工艺彩绘帆布,🐎家的色彩搭配以及彩绘涂鸦都一绝 每个包包都堪称艺术品\n实拍size36","specs":{"source":"wsxcme","sourceId":"_dI5I5l_zgbJKkXNsKUO8ZyTmM2JUzXf-0uN4QIg","sourceTagId":76963559,"sourceTagName":"爱马仕/女包","rawTitle":"Garden Party 彩绘涂鸦\n🇫🇷法国Fjord进口原版牛皮 蜡线缝制 老师傅工艺彩绘帆布,🐎家的色彩搭配以及彩绘涂鸦都一绝 每个包包都堪称艺术品\n实拍size36"},"price":null,"currency":"CNY","moq":1,"category":"hermes-women-bags","status":"active","alibaba_url":null,"images":["https://xcimg.szwego.com/img/b17e98d7/20240818/i1723966548_3402_8.jpg","https://xcimg.szwego.com/img/b17e98d7/20240818/i1723966548_431_7.jpg","https://xcimg.szwego.com/img/b17e98d7/20240818/i1723966548_1476_4.jpg","https://xcimg.szwego.com/img/b17e98d7/20240818/i1723966548_9276_2.jpg","https://xcimg.szwego.com/img/b17e98d7/20240818/i1723966548_685_1.jpg","https://xcimg.szwego.com/img/b17e98d7/20240818/i1723966548_9664_3.jpg","https://xcimg.szwego.com/img/b17e98d7/20240818/i1723966548_3541_0.jpg","https://xcimg.szwego.com/img/b17e98d7/20240818/i1723966548_211_5.jpg","https://xcimg.szwego.com/img/b17e98d7/20240818/i1723966548_4636_6.jpg"],"created_at":"2024-10-22T05:00:12.184Z"},{"id":"item-1dc83d16b575","sku":"_dEoEoAQu3Trhofo_glSMyQLlDV-0ypU6bRtQY1Q","name_en":"Garden Party 彩绘涂鸦","name_cn":"Garden Party 彩绘涂鸦\n🇫🇷法国Fjord进口原版牛皮 蜡线缝制 老师傅工艺彩绘帆布,🐎家的色彩搭配以及彩绘涂鸦都一绝 每个包包都堪称艺术品\n实拍size36","specs":{"source":"wsxcme","sourceId":"_dEoEoAQu3Trhofo_glSMyQLlDV-0ypU6bRtQY1Q","sourceTagId":76963559,"sourceTagName":"爱马仕/女包","rawTitle":"Garden Party 彩绘涂鸦\n🇫🇷法国Fjord进口原版牛皮 蜡线缝制 老师傅工艺彩绘帆布,🐎家的色彩搭配以及彩绘涂鸦都一绝 每个包包都堪称艺术品\n实拍size36"},"price":null,"currency":"CNY","moq":1,"category":"hermes-women-bags","status":"active","alibaba_url":null,"images":["https://xcimg.szwego.com/img/43e90bff/20240812/i1723457062_5841_6.jpg","https://xcimg.szwego.com/img/43e90bff/20240812/i1723457062_4799_9.jpg","https://xcimg.szwego.com/img/43e90bff/20240812/i1723457062_9610_4.jpg","https://xcimg.szwego.com/img/43e90bff/20240812/i1723457062_5401_2.jpg","https://xcimg.szwego.com/img/43e90bff/20240812/i1723457062_4478_5.jpg","https://xcimg.szwego.com/img/43e90bff/20240812/i1723457062_3999_8.jpg","https://xcimg.szwego.com/img/43e90bff/20240812/i1723457062_2045_0.jpg","https://xcimg.szwego.com/img/43e90bff/20240812/i1723457062_4060_7.jpg","https://xcimg.szwego.com/img/43e90bff/20240812/i1723457062_5248_1.jpg"],"created_at":"2024-10-22T05:00:12.178Z"},{"id":"item-5612e95e5857","sku":"_dxBxB_flxYaYs3Qd9eBAKMwXLDKzuHmaLUyUOfA","name_en":"Get 2020新背法☑️Celinє 老花单肩腋下包✨193952# 李沁、宋祖儿、韩国明星Lisa、宋妍霏同款~涂层帆布,织物面料衬里.明星强烈安利、爆款继续保持!尺寸:23x14x7cm","name_cn":"Get 2020新背法☑️Celinє 老花单肩腋下包✨193952# 李沁、宋祖儿、韩国明星Lisa、宋妍霏同款~涂层帆布,织物面料衬里.明星强烈安利、爆款继续保持!尺寸:23x14x7cm","specs":{"source":"wsxcme","sourceId":"_dxBxB_flxYaYs3Qd9eBAKMwXLDKzuHmaLUyUOfA","sourceTagId":47003106,"sourceTagName":"塞琳/女包","dimensions":{"lengthCm":23,"heightCm":14,"widthCm":7},"rawTitle":"Get 2020新背法☑️Celinє 老花单肩腋下包✨193952# 李沁、宋祖儿、韩国明星Lisa、宋妍霏同款~涂层帆布,织物面料衬里.明星强烈安利、爆款继续保持!尺寸:23x14x7cm"},"price":null,"currency":"CNY","moq":1,"category":"celine-women-bags","status":"active","alibaba_url":null,"images":["https://xcimg.szwego.com/20210708/i1625677132_4029_0.jpg","https://xcimg.szwego.com/20210708/i1625677132_2652_1.jpg","https://xcimg.szwego.com/20210708/i1625677132_9000_2.jpg","https://xcimg.szwego.com/20210708/i1625677132_2853_3.jpg","https://xcimg.szwego.com/20210708/i1625677132_5559_4.jpg","https://xcimg.szwego.com/20210708/i1625677132_8915_5.jpg","https://xcimg.szwego.com/20210708/i1625677132_1057_6.jpg","https://xcimg.szwego.com/20210708/i1625677132_6830_7.jpg","https://xcimg.szwego.com/20210708/i1625677132_2356_8.jpg"],"created_at":"2024-04-30T06:38:14.785Z"},{"id":"item-500a9ea5c9e3","sku":"_dnxnxAUqj6rCLN417Al5TW9-iyh-54QJEJCHMzw","name_en":"GG  Marmot 中号《经典黑》原厂皮🎈从第一眼的一见钟情💘到深深爱上的“你”实用性超高[强]隔着屏都能看出来皮质细腻柔软,手感无敌,随意对比🆚","name_cn":"GG  Marmot 中号《经典黑》原厂皮🎈从第一眼的一见钟情💘到深深爱上的“你”实用性超高[强]隔着屏都能看出来皮质细腻柔软,手感无敌,随意对比🆚\n尺寸:26×15×7cm\n🔍:443497","specs":{"source":"wsxcme","sourceId":"_dnxnxAUqj6rCLN417Al5TW9-iyh-54QJEJCHMzw","sourceTagId":47002679,"sourceTagName":"古驰/女包","dimensions":{"lengthCm":26,"heightCm":15,"widthCm":7},"rawTitle":"GG  Marmot 中号《经典黑》原厂皮🎈从第一眼的一见钟情💘到深深爱上的“你”实用性超高[强]隔着屏都能看出来皮质细腻柔软,手感无敌,随意对比🆚\n尺寸:26×15×7cm\n🔍:443497"},"price":null,"currency":"CNY","moq":1,"category":"gucci-women-bags","status":"active","alibaba_url":null,"images":["https://xcimg.szwego.com/20210404/i1617511329_9567_0.jpg","https://xcimg.szwego.com/20210404/i1617511329_7448_1.jpg","https://xcimg.szwego.com/20210404/i1617511329_1475_2.jpg","https://xcimg.szwego.com/20210404/i1617511329_3059_3.jpg","https://xcimg.szwego.com/20210404/i1617511329_2529_4.jpg","https://xcimg.szwego.com/20210404/i1617511329_6320_5.jpg","https://xcimg.szwego.com/20210404/i1617511329_6068_6.jpg","https://xcimg.szwego.com/20210404/i1617511329_5763_7.jpg","https://xcimg.szwego.com/20210404/i1617511329_8229_8.jpg"],"created_at":"2026-06-29T11:04:23.504Z"},{"id":"item-61dd24b544f8","sku":"_d_x_xuKLjr6av_CzlO-oPFThMRvuQ0pLK24sF-g","name_en":"GG  Marmot 中号《经典红》原厂皮🎈从第一眼的一见钟情💘到深深爱上的“你”实用性超高[强]隔着屏都能看出来皮质细腻柔软,手感无敌,随意对比🆚","name_cn":"GG  Marmot 中号《经典红》原厂皮🎈从第一眼的一见钟情💘到深深爱上的“你”实用性超高[强]隔着屏都能看出来皮质细腻柔软,手感无敌,随意对比🆚\n尺寸:26×15×7cm\n🔍:443497","specs":{"source":"wsxcme","sourceId":"_d_x_xuKLjr6av_CzlO-oPFThMRvuQ0pLK24sF-g","sourceTagId":47002679,"sourceTagName":"古驰/女包","dimensions":{"lengthCm":26,"heightCm":15,"widthCm":7},"rawTitle":"GG  Marmot 中号《经典红》原厂皮🎈从第一眼的一见钟情💘到深深爱上的“你”实用性超高[强]隔着屏都能看出来皮质细腻柔软,手感无敌,随意对比🆚\n尺寸:26×15×7cm\n🔍:443497"},"price":null,"currency":"CNY","moq":1,"category":"gucci-women-bags","status":"active","alibaba_url":null,"images":["https://xcimg.szwego.com/20210404/i1617506353_8598_0.jpg","https://xcimg.szwego.com/20210404/i1617506353_7854_1.jpg","https://xcimg.szwego.com/20210404/i1617506353_6893_2.jpg","https://xcimg.szwego.com/20210404/i1617506353_898_3.jpg","https://xcimg.szwego.com/20210404/i1617506353_9820_4.jpg","https://xcimg.szwego.com/20210404/i1617506353_694_5.jpg","https://xcimg.szwego.com/20210404/i1617506353_2671_6.jpg","https://xcimg.szwego.com/20210404/i1617506353_3089_7.jpg","https://xcimg.szwego.com/20210404/i1617506353_8277_8.jpg"],"created_at":"2026-06-29T11:04:23.494Z"},{"id":"item-dce75d0be896","sku":"_dMnMnlhnFh761gWHbZlg_6fSXAMeLlxveM3im1Q","name_en":"GG  Marmot 中号《仙女白》原厂皮🎈从第一眼的一见钟情💘到深深爱上的“你”实用性超高[强]隔着屏都能看出来皮质细腻柔软,手感无敌,随意对比🆚","name_cn":"GG  Marmot 中号《仙女白》原厂皮🎈从第一眼的一见钟情💘到深深爱上的“你”实用性超高[强]隔着屏都能看出来皮质细腻柔软,手感无敌,随意对比🆚\n尺寸:26×15×7cm\n🔍:443497","specs":{"source":"wsxcme","sourceId":"_dMnMnlhnFh761gWHbZlg_6fSXAMeLlxveM3im1Q","sourceTagId":47002679,"sourceTagName":"古驰/女包","dimensions":{"lengthCm":26,"heightCm":15,"widthCm":7},"rawTitle":"GG  Marmot 中号《仙女白》原厂皮🎈从第一眼的一见钟情💘到深深爱上的“你”实用性超高[强]隔着屏都能看出来皮质细腻柔软,手感无敌,随意对比🆚\n尺寸:26×15×7cm\n🔍:443497"},"price":null,"currency":"CNY","moq":1,"category":"gucci-women-bags","status":"active","alibaba_url":null,"images":["https://xcimg.szwego.com/20210404/i1617508063_8914_0.jpg","https://xcimg.szwego.com/20210404/i1617508063_6131_1.jpg","https://xcimg.szwego.com/20210404/i1617508063_6917_2.jpg","https://xcimg.szwego.com/20210404/i1617508063_8996_3.jpg","https://xcimg.szwego.com/20210404/i1617508063_840_4.jpg","https://xcimg.szwego.com/20210404/i1617508063_8478_5.jpg","https://xcimg.szwego.com/20210404/i1617508063_5056_7.jpg","https://xcimg.szwego.com/20210404/i1617508063_1115_6.jpg","https://xcimg.szwego.com/20210404/i1617508063_3631_8.jpg"],"created_at":"2026-06-29T11:04:23.484Z"},{"id":"item-c9097d6ad38f","sku":"_d-J-J8FxZZpKuzoHrrRcHbztoptvrXiDsmPFdIw","name_en":"GG  Marmot mini《经典黑》原厂皮","name_cn":"GG  Marmot mini《经典黑》原厂皮\n令人欲罢不能的Gucci美包你拥有了吗? 优雅精巧的设计可是俘获了不少少女的芳心!实用性超高[强] 轻松容纳plus手机 口红 小卡包~隔着屏都能看出来皮质细腻柔软,手感无敌,随意对比🆚\n尺寸:16.5×10×5cm\n🔍:476433","specs":{"source":"wsxcme","sourceId":"_d-J-J8FxZZpKuzoHrrRcHbztoptvrXiDsmPFdIw","sourceTagId":47002679,"sourceTagName":"古驰/女包","dimensions":{"lengthCm":16.5,"heightCm":10,"widthCm":5},"rawTitle":"GG  Marmot mini《经典黑》原厂皮\n令人欲罢不能的Gucci美包你拥有了吗? 优雅精巧的设计可是俘获了不少少女的芳心!实用性超高[强] 轻松容纳plus手机 口红 小卡包~隔着屏都能看出来皮质细腻柔软,手感无敌,随意对比🆚\n尺寸:16.5×10×5cm\n🔍:476433"},"price":null,"currency":"CNY","moq":1,"category":"gucci-women-bags","status":"active","alibaba_url":null,"images":["https://xcimg.szwego.com/20210406/i1617677957_9976_0.jpg","https://xcimg.szwego.com/20210406/i1617677957_2896_1.jpg","https://xcimg.szwego.com/20210406/i1617677957_1868_2.jpg","https://xcimg.szwego.com/20210406/i1617677957_3555_3.jpg","https://xcimg.szwego.com/20210406/i1617677957_5794_4.jpg","https://xcimg.szwego.com/20210406/i1617677957_1491_5.jpg","https://xcimg.szwego.com/20210406/i1617677957_7577_6.jpg","https://xcimg.szwego.com/20210406/i1617677957_9527_7.jpg","https://xcimg.szwego.com/20210406/i1617677957_8153_8.jpg"],"created_at":"2026-06-29T11:04:23.474Z"},{"id":"item-eb47dbb64c89","sku":"_duVuVthWfGZonQSx1xD_o0jbMk8TAAx33f8MZvA","name_en":"GG  Marmot mini《经典红》原厂皮","name_cn":"GG  Marmot mini《经典红》原厂皮\n令人欲罢不能的Gucci美包你拥有了吗? 优雅精巧的设计可是俘获了不少少女的芳心!实用性超高[强] 轻松容纳plus手机 口红 小卡包~隔着屏都能看出来皮质细腻柔软,手感无敌,随意对比🆚\n尺寸:16.5×10×5cm\n🔍:476433","specs":{"source":"wsxcme","sourceId":"_duVuVthWfGZonQSx1xD_o0jbMk8TAAx33f8MZvA","sourceTagId":47002679,"sourceTagName":"古驰/女包","dimensions":{"lengthCm":16.5,"heightCm":10,"widthCm":5},"rawTitle":"GG  Marmot mini《经典红》原厂皮\n令人欲罢不能的Gucci美包你拥有了吗? 优雅精巧的设计可是俘获了不少少女的芳心!实用性超高[强] 轻松容纳plus手机 口红 小卡包~隔着屏都能看出来皮质细腻柔软,手感无敌,随意对比🆚\n尺寸:16.5×10×5cm\n🔍:476433"},"price":null,"currency":"CNY","moq":1,"category":"gucci-women-bags","status":"active","alibaba_url":null,"images":["https://xcimg.szwego.com/20210529/i1622259957_2949_0.jpg","https://xcimg.szwego.com/20210529/i1622259957_5891_8.jpg","https://xcimg.szwego.com/20210529/i1622259957_4505_2.jpg","https://xcimg.szwego.com/20210529/i1622259957_1786_1.jpg","https://xcimg.szwego.com/20210529/i1622259957_7973_7.jpg","https://xcimg.szwego.com/20210529/i1622259957_3493_3.jpg","https://xcimg.szwego.com/20210529/i1622259957_2964_4.jpg","https://xcimg.szwego.com/20210529/i1622259957_9810_5.jpg","https://xcimg.szwego.com/20210529/i1622259957_6612_6.jpg"],"created_at":"2026-06-29T11:04:23.454Z"},{"id":"item-5db6d6e8525b","sku":"_dmsmszX0BQdItlODagePb0rU8iIBsffctwBYAqg","name_en":"GG  Marmot mini《气质粉》原厂皮","name_cn":"GG  Marmot mini《气质粉》原厂皮\n令人欲罢不能的Gucci美包你拥有了吗? 优雅精巧的设计可是俘获了不少少女的芳心!实用性超高[强] 轻松容纳plus手机 口红 小卡包~隔着屏都能看出来皮质细腻柔软,手感无敌,随意对比🆚\n尺寸:16.5×10×5cm\n🔍:476433","specs":{"source":"wsxcme","sourceId":"_dmsmszX0BQdItlODagePb0rU8iIBsffctwBYAqg","sourceTagId":47002679,"sourceTagName":"古驰/女包","dimensions":{"lengthCm":16.5,"heightCm":10,"widthCm":5},"rawTitle":"GG  Marmot mini《气质粉》原厂皮\n令人欲罢不能的Gucci美包你拥有了吗? 优雅精巧的设计可是俘获了不少少女的芳心!实用性超高[强] 轻松容纳plus手机 口红 小卡包~隔着屏都能看出来皮质细腻柔软,手感无敌,随意对比🆚\n尺寸:16.5×10×5cm\n🔍:476433"},"price":null,"currency":"CNY","moq":1,"category":"gucci-women-bags","status":"active","alibaba_url":null,"images":["https://xcimg.szwego.com/20210406/i1617679591_9492_0.jpg","https://xcimg.szwego.com/20210406/i1617679591_6375_1.jpg","https://xcimg.szwego.com/20210406/i1617679591_116_2.jpg","https://xcimg.szwego.com/20210406/i1617679591_6207_3.jpg","https://xcimg.szwego.com/20210406/i1617679591_1026_4.jpg","https://xcimg.szwego.com/20210406/i1617679591_6633_8.jpg","https://xcimg.szwego.com/20210406/i1617679591_7752_5.jpg","https://xcimg.szwego.com/20210406/i1617679591_2958_6.jpg","https://xcimg.szwego.com/20210406/i1617679591_2254_7.jpg"],"created_at":"2026-06-29T11:04:23.464Z"}],"page":315,"pageSize":24,"total":10075,"totalPages":420}
