{"items":[{"id":"item-a6d28a379758","sku":"_dlRlRcTp3hZIrLWoH7-KVUA4pTzN9gK5eMcmzNQ","name_en":"Bvlgari Women Bags","name_cn":"正品级\n【Bvlgari 】宝格丽专柜热卖款 Serpenti Forever 手腕款风琴包 原单品质、拉丝银牛皮➕定制原单五金🎉🎉点缀serpenti珐琅浅金镀金蛇首形搭扣,🐏小羊皮内里🎀内里三格夹层简约实用满足你不同需求 \"雨衣、镜子、专柜礼盒包装、款号:38329 尺寸:20*16*9cm","specs":{"source":"wsxcme","sourceId":"_dlRlRcTp3hZIrLWoH7-KVUA4pTzN9gK5eMcmzNQ","sourceTagId":47002756,"sourceTagName":"宝格丽/女包","modelNumber":"38329 尺寸:20*16*9cm","dimensions":{"lengthCm":20,"heightCm":16,"widthCm":9},"rawTitle":"正品级\n【Bvlgari 】宝格丽专柜热卖款 Serpenti Forever 手腕款风琴包 原单品质、拉丝银牛皮➕定制原单五金🎉🎉点缀serpenti珐琅浅金镀金蛇首形搭扣,🐏小羊皮内里🎀内里三格夹层简约实用满足你不同需求 \"雨衣、镜子、专柜礼盒包装、款号:38329 尺寸:20*16*9cm"},"price":null,"currency":"CNY","moq":1,"category":"bvlgari-women-bags","status":"active","alibaba_url":null,"images":["https://xcimg.szwego.com/20230718/i1689688983_4572_0.jpg","https://xcimg.szwego.com/20230718/i1689688983_2989_1.jpg","https://xcimg.szwego.com/20230718/i1689688983_4865_2.jpg","https://xcimg.szwego.com/20230718/i1689688983_2507_3.jpg","https://xcimg.szwego.com/20230718/i1689688983_3912_4.jpg","https://xcimg.szwego.com/20230718/i1689688983_8402_5.jpg","https://xcimg.szwego.com/20230718/i1689688983_7099_6.jpg","https://xcimg.szwego.com/20230718/i1689688983_8812_7.jpg","https://xcimg.szwego.com/20230718/i1689688983_9707_8.jpg"],"created_at":"2024-09-27T06:51:04.097Z"},{"id":"item-a6cd26a9de53","sku":"_dMMMMFYQfaKPQJjOMA3Gm7ecLFqgml3kQKcvbQA","name_en":"Bvlgari Women Bags","name_cn":"正品级\n  【BVLGAR*】💋Serpenti Forever 世界迎来又一佳作🌝,为 Serpenti家族增添光彩,使得这一系列更加丰富多姿。这款包袋采用白色小牛皮包身,两侧饰以白玛瑙色和粉晶色小牛皮,搭配浅金镀金黄铜配饰。白色和粉晶色珐琅搭配黑色缟玛瑙感性双眼,😊将经典蛇首搭扣点缀得魅惑迷人。\n手提包款式有三个收纳层,并搭配可拆卸可可调节、蜿蜒如蛇身的链条和皮革肩带,实现多变百搭功能。小号,拉链口袋,搭配一面小化妆镜。让你每时每刻都做个精致的猪猪女孩❤\nsize:22.5×18.5×11cm 型号: 289835","specs":{"source":"wsxcme","sourceId":"_dMMMMFYQfaKPQJjOMA3Gm7ecLFqgml3kQKcvbQA","sourceTagId":47002756,"sourceTagName":"宝格丽/女包","modelNumber":"289835","rawTitle":"正品级\n  【BVLGAR*】💋Serpenti Forever 世界迎来又一佳作🌝,为 Serpenti家族增添光彩,使得这一系列更加丰富多姿。这款包袋采用白色小牛皮包身,两侧饰以白玛瑙色和粉晶色小牛皮,搭配浅金镀金黄铜配饰。白色和粉晶色珐琅搭配黑色缟玛瑙感性双眼,😊将经典蛇首搭扣点缀得魅惑迷人。\n手提包款式有三个收纳层,并搭配可拆卸可可调节、蜿蜒如蛇身的链条和皮革肩带,实现多变百搭功能。小号,拉链口袋,搭配一面小化妆镜。让你每时每刻都做个精致的猪猪女孩❤\nsize:22.5×18.5×11cm 型号: 289835"},"price":null,"currency":"CNY","moq":1,"category":"bvlgari-women-bags","status":"active","alibaba_url":null,"images":["https://xcimg.szwego.com/20230511/i1683791296_5848_0.jpg","https://xcimg.szwego.com/20230511/i1683791296_2077_1.jpg","https://xcimg.szwego.com/20230511/i1683791296_4420_2.jpg","https://xcimg.szwego.com/20230511/i1683791296_8923_3.jpg","https://xcimg.szwego.com/20230511/i1683791296_8264_4.jpg","https://xcimg.szwego.com/20230511/i1683791296_4283_5.jpg","https://xcimg.szwego.com/20230511/i1683791296_3452_6.jpg","https://xcimg.szwego.com/20230511/i1683791296_8054_7.jpg","https://xcimg.szwego.com/20230511/i1683791296_4931_8.jpg"],"created_at":"2024-09-27T06:51:04.101Z"},{"id":"item-a3ec72b5b734","sku":"_dkTkTILue5r4s7QDLclD-wiJUhm-R2bTVtjEN6A","name_en":"Bvlgari Women Bags","name_cn":"专柜图","specs":{"source":"wsxcme","sourceId":"_dkTkTILue5r4s7QDLclD-wiJUhm-R2bTVtjEN6A","sourceTagId":47002756,"sourceTagName":"宝格丽/女包","rawTitle":"专柜图"},"price":null,"currency":"CNY","moq":1,"category":"bvlgari-women-bags","status":"active","alibaba_url":null,"images":["https://xcimg.szwego.com/20230329/i1680022318_761_0.jpg","https://xcimg.szwego.com/20230329/i1680022318_8968_1.jpg"],"created_at":"2024-09-27T06:51:04.142Z"},{"id":"item-a1bb05ee160c","sku":"_dd9d9P9aS1Sp94Dt0kf-b78dm_lJ1tZpDjULvIQ","name_en":"Bvlgari Women Bags","name_cn":"细节","specs":{"source":"wsxcme","sourceId":"_dd9d9P9aS1Sp94Dt0kf-b78dm_lJ1tZpDjULvIQ","sourceTagId":47002756,"sourceTagName":"宝格丽/女包","rawTitle":"细节"},"price":null,"currency":"CNY","moq":1,"category":"bvlgari-women-bags","status":"active","alibaba_url":null,"images":["https://xcimg.szwego.com/20240809/i1723192990_5043_0.jpg","https://xcimg.szwego.com/20240809/i1723192990_336_1.jpg","https://xcimg.szwego.com/20240809/i1723192990_7154_2.jpg","https://xcimg.szwego.com/20240809/i1723192990_4435_3.jpg"],"created_at":"2024-09-27T06:51:04.174Z"},{"id":"item-9efc75d57b1b","sku":"_dwMwMm8vQeam3vNbcyrmtzYfYe5PecFZLPfrs6g","name_en":"Bvlgari Women Bags","name_cn":"~~~~~","specs":{"source":"wsxcme","sourceId":"_dwMwMm8vQeam3vNbcyrmtzYfYe5PecFZLPfrs6g","sourceTagId":47002756,"sourceTagName":"宝格丽/女包","rawTitle":"~~~~~"},"price":null,"currency":"CNY","moq":1,"category":"bvlgari-women-bags","status":"active","alibaba_url":null,"images":[],"created_at":"2024-09-27T06:51:04.108Z"},{"id":"item-9db3827ee15b","sku":"_djxjxlYqqGaAU-I0zsicj3CBBrYSBtobPrifNRw","name_en":"Bvlgari Women Bags","name_cn":"更多细节","specs":{"source":"wsxcme","sourceId":"_djxjxlYqqGaAU-I0zsicj3CBBrYSBtobPrifNRw","sourceTagId":47002756,"sourceTagName":"宝格丽/女包","rawTitle":"更多细节"},"price":null,"currency":"CNY","moq":1,"category":"bvlgari-women-bags","status":"active","alibaba_url":null,"images":["https://xcimg.szwego.com/20230219/i1676789115_9618_0.jpg","https://xcimg.szwego.com/20230219/i1676789115_3456_1.jpg","https://xcimg.szwego.com/20230219/i1676789115_925_2.jpg","https://xcimg.szwego.com/20230219/i1676789115_7293_3.jpg","https://xcimg.szwego.com/20230219/i1676789115_6032_4.jpg","https://xcimg.szwego.com/20230219/i1676789115_4202_5.jpg"],"created_at":"2024-10-07T10:58:53.564Z"},{"id":"item-9a07ced20614","sku":"_duGuG9-QKyQr1MibMl9Mu7R55ZH2zL4BIFzk0WA","name_en":"Bvlgari Women Bags","name_cn":"宝格丽/女包","specs":{"source":"wsxcme","sourceId":"_duGuG9-QKyQr1MibMl9Mu7R55ZH2zL4BIFzk0WA","sourceTagId":47002756,"sourceTagName":"宝格丽/女包","rawTitle":""},"price":null,"currency":"CNY","moq":1,"category":"bvlgari-women-bags","status":"active","alibaba_url":null,"images":["https://xcimg.szwego.com/20230219/i1676789598_3042_0.jpg"],"created_at":"2024-10-07T10:58:53.574Z"},{"id":"item-98642138c82d","sku":"_dASASY0EqFy_HFBILnWbKqCZ1tt_-7Y1u1c2-Ow","name_en":"Bvlgari Women Bags","name_cn":"粉色#上身图\n\n\n\n\n\n\n\n型号:292104","specs":{"source":"wsxcme","sourceId":"_dASASY0EqFy_HFBILnWbKqCZ1tt_-7Y1u1c2-Ow","sourceTagId":47002756,"sourceTagName":"宝格丽/女包","modelNumber":"292104","rawTitle":"粉色#上身图\n\n\n\n\n\n\n\n型号:292104"},"price":null,"currency":"CNY","moq":1,"category":"bvlgari-women-bags","status":"active","alibaba_url":null,"images":["https://xcimg.szwego.com/20220602/i1654155240_9557_0.jpg","https://xcimg.szwego.com/20220602/i1654155240_5487_1.jpg","https://xcimg.szwego.com/20220602/i1654155240_4108_2.jpg","https://xcimg.szwego.com/20220602/i1654155240_3345_3.jpg","https://xcimg.szwego.com/20220602/i1654155240_9171_4.jpg","https://xcimg.szwego.com/20220602/i1654155240_8123_5.jpg"],"created_at":"2024-09-27T06:51:04.113Z"},{"id":"item-981094e7def3","sku":"_dYkYkp2P8Rh_KWHZc2kF3Sejs3sUjmkqS8Jse8A","name_en":"Bvlgari Women Bags","name_cn":"正品级\nBVLGARISERPENTIFOREVER\n型号:38102 白配粉\n尺寸:22*13*5.5cm\n专柜热卖系列 Serpenti Forever 精致斜挎包 原单品质 进口胎牛皮 定制原单五金🔅点缀serpenti珐琅浅金镀金蛇首形搭扣  也可以当晚宴包用 精致如珠宝💎\"雨衣、镜子、礼盒包装","specs":{"source":"wsxcme","sourceId":"_dYkYkp2P8Rh_KWHZc2kF3Sejs3sUjmkqS8Jse8A","sourceTagId":47002756,"sourceTagName":"宝格丽/女包","modelNumber":"38102 白配粉","dimensions":{"lengthCm":22,"heightCm":13,"widthCm":5.5},"rawTitle":"正品级\nBVLGARISERPENTIFOREVER\n型号:38102 白配粉\n尺寸:22*13*5.5cm\n专柜热卖系列 Serpenti Forever 精致斜挎包 原单品质 进口胎牛皮 定制原单五金🔅点缀serpenti珐琅浅金镀金蛇首形搭扣  也可以当晚宴包用 精致如珠宝💎\"雨衣、镜子、礼盒包装"},"price":null,"currency":"CNY","moq":1,"category":"bvlgari-women-bags","status":"active","alibaba_url":null,"images":["https://xcimg.szwego.com/20230219/i1676789451_7563_0.jpg","https://xcimg.szwego.com/20230219/i1676789451_642_1.jpg","https://xcimg.szwego.com/20230219/i1676789451_1786_2.jpg","https://xcimg.szwego.com/20230219/i1676789451_8289_3.jpg","https://xcimg.szwego.com/20230219/i1676789451_7498_4.jpg","https://xcimg.szwego.com/20230219/i1676789451_2729_5.jpg","https://xcimg.szwego.com/20230219/i1676789451_2154_6.jpg","https://xcimg.szwego.com/20230219/i1676789451_2745_7.jpg","https://xcimg.szwego.com/20230219/i1676789451_8466_8.jpg"],"created_at":"2024-10-07T10:58:53.571Z"},{"id":"item-91c1e22a0755","sku":"_dkHkH-UsjvChI_8zxg9q-lTcKu0ZBI87jxIOJQw","name_en":"Bvlgari Women Bags","name_cn":"正品级\nBVLGARI Serpenti Forever \n型号:35362 \nSize:28*19*8cm\n专柜热卖系列 原单品质 Serpenti Forever “双层”翻盖包  浅金镀金黄铜配饰及黑白珐琅蛇头包扣 眼睛镶饰绿孔雀石头双眼 全铜蛇身链条 两个扣板化妆镜口袋 多个内置夹层 \"雨衣、镜子、专柜礼盒包装、雷射防伪标与施印独立编码\"","specs":{"source":"wsxcme","sourceId":"_dkHkH-UsjvChI_8zxg9q-lTcKu0ZBI87jxIOJQw","sourceTagId":47002756,"sourceTagName":"宝格丽/女包","modelNumber":"35362","rawTitle":"正品级\nBVLGARI Serpenti Forever \n型号:35362 \nSize:28*19*8cm\n专柜热卖系列 原单品质 Serpenti Forever “双层”翻盖包  浅金镀金黄铜配饰及黑白珐琅蛇头包扣 眼睛镶饰绿孔雀石头双眼 全铜蛇身链条 两个扣板化妆镜口袋 多个内置夹层 \"雨衣、镜子、专柜礼盒包装、雷射防伪标与施印独立编码\""},"price":null,"currency":"CNY","moq":1,"category":"bvlgari-women-bags","status":"active","alibaba_url":null,"images":["https://xcimg.szwego.com/20221107/i1667807436_5808_0.jpg","https://xcimg.szwego.com/20221107/i1667807436_420_1.jpg","https://xcimg.szwego.com/20221107/i1667807436_1200_2.jpg","https://xcimg.szwego.com/20221107/i1667807436_6727_3.jpg","https://xcimg.szwego.com/20221107/i1667807436_2058_4.jpg","https://xcimg.szwego.com/20221107/i1667807436_5790_5.jpg","https://xcimg.szwego.com/20221107/i1667807436_7512_6.jpg","https://xcimg.szwego.com/20221107/i1667807436_2498_7.jpg","https://xcimg.szwego.com/20221107/i1667807436_1586_8.jpg"],"created_at":"2024-09-27T06:51:04.085Z"},{"id":"item-8e49d8760a75","sku":"_dP4P4Q4WVQx84f9h6RQnrNtfe16VkQcYg6DmS6w","name_en":"Bvlgari Women Bags","name_cn":"正品级\nBVLGARISERPENTIFOREVER\n型号:38102 经典白\n尺寸:22*13*5.5cm\n专柜热卖系列 Serpenti Forever 精致斜挎包 原单品质 进口胎牛皮 定制原单五金🔅点缀serpenti珐琅浅金镀金蛇首形搭扣  也可以当晚宴包用 精致如珠宝💎\"雨衣、镜子、礼盒包装","specs":{"source":"wsxcme","sourceId":"_dP4P4Q4WVQx84f9h6RQnrNtfe16VkQcYg6DmS6w","sourceTagId":47002756,"sourceTagName":"宝格丽/女包","modelNumber":"38102 经典白","dimensions":{"lengthCm":22,"heightCm":13,"widthCm":5.5},"rawTitle":"正品级\nBVLGARISERPENTIFOREVER\n型号:38102 经典白\n尺寸:22*13*5.5cm\n专柜热卖系列 Serpenti Forever 精致斜挎包 原单品质 进口胎牛皮 定制原单五金🔅点缀serpenti珐琅浅金镀金蛇首形搭扣  也可以当晚宴包用 精致如珠宝💎\"雨衣、镜子、礼盒包装"},"price":null,"currency":"CNY","moq":1,"category":"bvlgari-women-bags","status":"active","alibaba_url":null,"images":["https://xcimg.szwego.com/20230219/i1676790926_6092_0.jpg","https://xcimg.szwego.com/20230219/i1676790926_6362_1.jpg","https://xcimg.szwego.com/20230219/i1676790926_639_2.jpg","https://xcimg.szwego.com/20230219/i1676790926_1159_3.jpg","https://xcimg.szwego.com/20230219/i1676790926_7832_4.jpg","https://xcimg.szwego.com/20230219/i1676790926_762_5.jpg","https://xcimg.szwego.com/20230219/i1676790926_277_6.jpg","https://xcimg.szwego.com/20230219/i1676790926_3360_7.jpg","https://xcimg.szwego.com/20230219/i1676790926_3677_8.jpg"],"created_at":"2024-10-07T10:58:53.580Z"},{"id":"item-8d7e52e402d6","sku":"_d8e8e_r4q0CeSsqCvbzhECaxUpEZ08Cpa_Bb0uw","name_en":"Bvlgari Women Bags","name_cn":"细节~","specs":{"source":"wsxcme","sourceId":"_d8e8e_r4q0CeSsqCvbzhECaxUpEZ08Cpa_Bb0uw","sourceTagId":47002756,"sourceTagName":"宝格丽/女包","rawTitle":"细节~"},"price":null,"currency":"CNY","moq":1,"category":"bvlgari-women-bags","status":"active","alibaba_url":null,"images":["https://xcimg.szwego.com/20240809/i1723191500_4631_0.jpg","https://xcimg.szwego.com/20240809/i1723191500_765_1.jpg","https://xcimg.szwego.com/20240809/i1723191500_2817_2.jpg","https://xcimg.szwego.com/20240809/i1723191500_5574_3.jpg","https://xcimg.szwego.com/20240809/i1723191500_2934_4.jpg"],"created_at":"2024-09-27T06:51:04.156Z"},{"id":"item-8b627c449f84","sku":"_do_o_r3esZ0lG8_GOc_mesPrj0hgAQ1_bw0ebqw","name_en":"Bvlgari Women Bags","name_cn":"白色#上身图\n\n\n\n\n\n\n\n型号:292104","specs":{"source":"wsxcme","sourceId":"_do_o_r3esZ0lG8_GOc_mesPrj0hgAQ1_bw0ebqw","sourceTagId":47002756,"sourceTagName":"宝格丽/女包","modelNumber":"292104","rawTitle":"白色#上身图\n\n\n\n\n\n\n\n型号:292104"},"price":null,"currency":"CNY","moq":1,"category":"bvlgari-women-bags","status":"active","alibaba_url":null,"images":["https://xcimg.szwego.com/20220614/i1655186402_7921_0.jpg","https://xcimg.szwego.com/20220614/i1655186402_3839_1.jpg","https://xcimg.szwego.com/20220614/i1655186402_9709_2.jpg"],"created_at":"2024-09-27T06:51:04.119Z"},{"id":"item-89ddc481cc9c","sku":"_dQjQjCBCM5fK5inA522FVEH-D41SD_UopbcTxRw","name_en":"Bvlgari Women Bags","name_cn":"正品级\n【Bvlgari 】宝格丽专柜热卖款 Serpenti Forever 手腕款风琴包 原单品质、进口南非皮➕定制原单五金🎉🎉点缀serpenti黑色和白色珐琅浅金镀金蛇首形搭扣,双眼镶嵌孔雀绿松石搭配可拆卸肩带🎀内里三格夹层简约实用满足你不同需求 \"雨衣、镜子、专柜礼盒包装、雷射防伪标与施印独立编码\"款号:38329 尺寸:18*16*9cm","specs":{"source":"wsxcme","sourceId":"_dQjQjCBCM5fK5inA522FVEH-D41SD_UopbcTxRw","sourceTagId":47002756,"sourceTagName":"宝格丽/女包","modelNumber":"38329 尺寸:18*16*9cm","dimensions":{"lengthCm":18,"heightCm":16,"widthCm":9},"rawTitle":"正品级\n【Bvlgari 】宝格丽专柜热卖款 Serpenti Forever 手腕款风琴包 原单品质、进口南非皮➕定制原单五金🎉🎉点缀serpenti黑色和白色珐琅浅金镀金蛇首形搭扣,双眼镶嵌孔雀绿松石搭配可拆卸肩带🎀内里三格夹层简约实用满足你不同需求 \"雨衣、镜子、专柜礼盒包装、雷射防伪标与施印独立编码\"款号:38329 尺寸:18*16*9cm"},"price":null,"currency":"CNY","moq":1,"category":"bvlgari-women-bags","status":"active","alibaba_url":null,"images":["https://xcimg.szwego.com/20221103/i1667462196_290_0.jpg","https://xcimg.szwego.com/20221103/i1667462196_3286_1.jpg","https://xcimg.szwego.com/20221103/i1667462196_946_2.jpg","https://xcimg.szwego.com/20221103/i1667462196_4785_3.jpg","https://xcimg.szwego.com/20221103/i1667462196_3285_4.jpg","https://xcimg.szwego.com/20221103/i1667462196_8254_5.jpg","https://xcimg.szwego.com/20221103/i1667462196_7004_6.jpg","https://xcimg.szwego.com/20221103/i1667462196_5707_7.jpg","https://xcimg.szwego.com/20221103/i1667462196_305_8.jpg"],"created_at":"2024-10-07T10:58:53.599Z"},{"id":"item-7f9c80d26076","sku":"_db-b-FRzYnCi1bBN_O4qKxFD8iA5fExC2k4OoLw","name_en":"Bvlgari Women Bags","name_cn":"正品级\n🆕SERPENTI FOREVER EAST-WEST系列小号肩包❤\n采用黑色小牛皮材质,以时尚前卫的造型演绎隽永经典的风尚。\n作品搭配实用皮革肩带,饰以经典蛇首磁扣,其魅惑迷人的鳞片与设计从1960年代的SERPENTI系列珠宝中汲取灵感,适合日常佩戴。设有单个隔层,一个正面口袋,一个背面拼接口袋,一个内部绗缝线口袋,三个卡位,一面可个性化定制化妆镜,背面饰BULGARI宝格丽金属标识。\n\n\n尺寸:22 X 15 X 4.5 厘米\n型号:292104","specs":{"source":"wsxcme","sourceId":"_db-b-FRzYnCi1bBN_O4qKxFD8iA5fExC2k4OoLw","sourceTagId":47002756,"sourceTagName":"宝格丽/女包","modelNumber":"292104","dimensions":{"lengthCm":22,"heightCm":15,"widthCm":4.5},"rawTitle":"正品级\n🆕SERPENTI FOREVER EAST-WEST系列小号肩包❤\n采用黑色小牛皮材质,以时尚前卫的造型演绎隽永经典的风尚。\n作品搭配实用皮革肩带,饰以经典蛇首磁扣,其魅惑迷人的鳞片与设计从1960年代的SERPENTI系列珠宝中汲取灵感,适合日常佩戴。设有单个隔层,一个正面口袋,一个背面拼接口袋,一个内部绗缝线口袋,三个卡位,一面可个性化定制化妆镜,背面饰BULGARI宝格丽金属标识。\n\n\n尺寸:22 X 15 X 4.5 厘米\n型号:292104"},"price":null,"currency":"CNY","moq":1,"category":"bvlgari-women-bags","status":"active","alibaba_url":null,"images":["https://xcimg.szwego.com/20220602/i1654155600_8751_0.jpg","https://xcimg.szwego.com/20220602/i1654155600_4958_1.jpg","https://xcimg.szwego.com/20220602/i1654155600_4857_2.jpg","https://xcimg.szwego.com/20220602/i1654155600_3435_3.jpg","https://xcimg.szwego.com/20220602/i1654155600_7630_4.jpg","https://xcimg.szwego.com/20220602/i1654155600_7484_5.jpg","https://xcimg.szwego.com/20220602/i1654155600_996_6.jpg","https://xcimg.szwego.com/20220602/i1654155600_3184_7.jpg"],"created_at":"2024-09-27T06:51:04.115Z"},{"id":"item-7d9938325ab3","sku":"_do8o83B2V1ALvbfaZgZJcvewDeinrDtFpOo34Hw","name_en":"Bvlgari Women Bags","name_cn":"正品级\n  “SERPENTI CABOCHON”系列迷你斜挎包采用别具魅力的大号图形图案和大胆的金属质感细节,以精致实用的独特设计和现代风格绽放SERPENTI世界璀璨光芒。\n此款手袋配备可调节和可拆卸的皮革肩带,可用作手提包或手拿包,实现多变百搭功能,日夜皆宜。\n小号,设一个收纳层,一个内部拉链口袋和一个内部敞口口袋。镌刻BVLGARI宝格丽品牌标识的内侧金属铭牌。\n型号:291223\n尺寸:27×18×11厘米","specs":{"source":"wsxcme","sourceId":"_do8o83B2V1ALvbfaZgZJcvewDeinrDtFpOo34Hw","sourceTagId":47002756,"sourceTagName":"宝格丽/女包","modelNumber":"291223","dimensions":{"lengthCm":27,"heightCm":18,"widthCm":11},"rawTitle":"正品级\n  “SERPENTI CABOCHON”系列迷你斜挎包采用别具魅力的大号图形图案和大胆的金属质感细节,以精致实用的独特设计和现代风格绽放SERPENTI世界璀璨光芒。\n此款手袋配备可调节和可拆卸的皮革肩带,可用作手提包或手拿包,实现多变百搭功能,日夜皆宜。\n小号,设一个收纳层,一个内部拉链口袋和一个内部敞口口袋。镌刻BVLGARI宝格丽品牌标识的内侧金属铭牌。\n型号:291223\n尺寸:27×18×11厘米"},"price":null,"currency":"CNY","moq":1,"category":"bvlgari-women-bags","status":"active","alibaba_url":null,"images":["https://xcimg.szwego.com/20230329/i1680068857_5460_0.jpg","https://xcimg.szwego.com/20230329/i1680068857_368_1.jpg","https://xcimg.szwego.com/20230329/i1680068857_1395_2.jpg","https://xcimg.szwego.com/20230329/i1680068857_8583_3.jpg","https://xcimg.szwego.com/20230329/i1680068857_5076_4.jpg","https://xcimg.szwego.com/20230329/i1680068857_7838_5.jpg","https://xcimg.szwego.com/20230329/i1680068857_9711_6.jpg","https://xcimg.szwego.com/20230329/i1680068857_3596_7.jpg","https://xcimg.szwego.com/20230329/i1680068857_426_8.jpg"],"created_at":"2024-09-27T06:51:04.095Z"},{"id":"item-79c14566e04a","sku":"_dlclcrDi6ZL3gqVk1XM7n_3QQBfVyA_tBt7Yj6A","name_en":"Bvlgari Women Bags","name_cn":"正品级 \n🆕SERPENTI FOREVER EAST-WEST系列小号肩包❤\n采用白色小牛皮材质,以时尚前卫的造型演绎隽永经典的风尚。\n作品搭配实用皮革肩带,饰以经典蛇首磁扣,其魅惑迷人的鳞片与设计从1960年代的SERPENTI系列珠宝中汲取灵感,适合日常佩戴。设有单个隔层,一个正面口袋,一个背面拼接口袋,一个内部绗缝线口袋,三个卡位,一面可个性化定制化妆镜,背面饰BULGARI宝格丽金属标识。\n\n\n尺寸:22 X 15 X 4.5 厘米\n型号:292104","specs":{"source":"wsxcme","sourceId":"_dlclcrDi6ZL3gqVk1XM7n_3QQBfVyA_tBt7Yj6A","sourceTagId":47002756,"sourceTagName":"宝格丽/女包","modelNumber":"292104","dimensions":{"lengthCm":22,"heightCm":15,"widthCm":4.5},"rawTitle":"正品级 \n🆕SERPENTI FOREVER EAST-WEST系列小号肩包❤\n采用白色小牛皮材质,以时尚前卫的造型演绎隽永经典的风尚。\n作品搭配实用皮革肩带,饰以经典蛇首磁扣,其魅惑迷人的鳞片与设计从1960年代的SERPENTI系列珠宝中汲取灵感,适合日常佩戴。设有单个隔层,一个正面口袋,一个背面拼接口袋,一个内部绗缝线口袋,三个卡位,一面可个性化定制化妆镜,背面饰BULGARI宝格丽金属标识。\n\n\n尺寸:22 X 15 X 4.5 厘米\n型号:292104"},"price":null,"currency":"CNY","moq":1,"category":"bvlgari-women-bags","status":"active","alibaba_url":null,"images":["https://xcimg.szwego.com/20220614/i1655186325_6965_0.jpg","https://xcimg.szwego.com/20220614/i1655186325_462_1.jpg","https://xcimg.szwego.com/20220614/i1655186325_3761_2.jpg","https://xcimg.szwego.com/20220614/i1655186325_6715_3.jpg","https://xcimg.szwego.com/20220614/i1655186325_1996_4.jpg","https://xcimg.szwego.com/20220614/i1655186325_1039_5.jpg","https://xcimg.szwego.com/20220614/i1655186325_1686_6.jpg","https://xcimg.szwego.com/20220614/i1655186325_2213_7.jpg","https://xcimg.szwego.com/20220614/i1655186325_521_8.jpg"],"created_at":"2024-09-27T06:51:04.118Z"},{"id":"item-7799bc6b5357","sku":"_dGMGM2U0Q-wZV5_2aAJ1Kuu9Zf0p6LW8k6TcTsw","name_en":"Bvlgari Women Bags","name_cn":"正品级\n【Bvlgari 】宝格丽专柜热卖款 Serpenti Forever 手腕款风琴包 原单品质、进口南非皮➕定制原单五金🎉🎉点缀serpenti黑色和白色珐琅浅金镀金蛇首形搭扣,双眼镶嵌孔雀绿松石搭配可拆卸肩带🎀内里三格夹层简约实用满足你不同需求 \"雨衣、镜子、专柜礼盒包装、雷射防伪标与施印独立编码\"款号:38329 尺寸:18*16*9cm","specs":{"source":"wsxcme","sourceId":"_dGMGM2U0Q-wZV5_2aAJ1Kuu9Zf0p6LW8k6TcTsw","sourceTagId":47002756,"sourceTagName":"宝格丽/女包","modelNumber":"38329 尺寸:18*16*9cm","dimensions":{"lengthCm":18,"heightCm":16,"widthCm":9},"rawTitle":"正品级\n【Bvlgari 】宝格丽专柜热卖款 Serpenti Forever 手腕款风琴包 原单品质、进口南非皮➕定制原单五金🎉🎉点缀serpenti黑色和白色珐琅浅金镀金蛇首形搭扣,双眼镶嵌孔雀绿松石搭配可拆卸肩带🎀内里三格夹层简约实用满足你不同需求 \"雨衣、镜子、专柜礼盒包装、雷射防伪标与施印独立编码\"款号:38329 尺寸:18*16*9cm"},"price":null,"currency":"CNY","moq":1,"category":"bvlgari-women-bags","status":"active","alibaba_url":null,"images":["https://xcimg.szwego.com/20221103/i1667461003_6013_0.jpg","https://xcimg.szwego.com/20221103/i1667461003_6245_1.jpg","https://xcimg.szwego.com/20221103/i1667461003_3792_2.jpg","https://xcimg.szwego.com/20221103/i1667461003_4762_3.jpg","https://xcimg.szwego.com/20221103/i1667461003_9993_4.jpg","https://xcimg.szwego.com/20221103/i1667461003_7537_5.jpg","https://xcimg.szwego.com/20221103/i1667461003_385_6.jpg","https://xcimg.szwego.com/20221103/i1667461003_8908_7.jpg","https://xcimg.szwego.com/20221103/i1667461003_7805_8.jpg"],"created_at":"2024-10-07T10:58:53.596Z"},{"id":"item-7427625aa016","sku":"_dLBLBh62z45LAn9nOBUOkXgWqHROQydz7ZPrshQ","name_en":"Bvlgari Women Bags","name_cn":"3种背法自由切换","specs":{"source":"wsxcme","sourceId":"_dLBLBh62z45LAn9nOBUOkXgWqHROQydz7ZPrshQ","sourceTagId":47002756,"sourceTagName":"宝格丽/女包","rawTitle":"3种背法自由切换"},"price":null,"currency":"CNY","moq":1,"category":"bvlgari-women-bags","status":"active","alibaba_url":null,"images":["https://xcimg.szwego.com/20221220/i1671550462_2261_0.jpg"],"created_at":"2024-10-07T10:58:53.560Z"},{"id":"item-72460bc34fa2","sku":"_dlxlxDFvFOIjRh4_xWacY4KPqg8r7Rg8U1Gl1Zg","name_en":"Bvlgari Women Bags","name_cn":"八色现货","specs":{"source":"wsxcme","sourceId":"_dlxlxDFvFOIjRh4_xWacY4KPqg8r7Rg8U1Gl1Zg","sourceTagId":47002756,"sourceTagName":"宝格丽/女包","rawTitle":"八色现货"},"price":null,"currency":"CNY","moq":1,"category":"bvlgari-women-bags","status":"active","alibaba_url":null,"images":["https://xcimg.szwego.com/20240809/i1723193139_9863_0.jpg","https://xcimg.szwego.com/20240809/i1723193139_2983_1.jpg","https://xcimg.szwego.com/20240809/i1723193139_3628_2.jpg"],"created_at":"2024-09-27T06:51:04.176Z"},{"id":"item-6fbe4ddd1ebe","sku":"_dfpfpXu7AiD15kLT3HDxqQVMejReSQ0a9MIfmGg","name_en":"Bvlgari Women Bags","name_cn":"随拍上身图","specs":{"source":"wsxcme","sourceId":"_dfpfpXu7AiD15kLT3HDxqQVMejReSQ0a9MIfmGg","sourceTagId":47002756,"sourceTagName":"宝格丽/女包","rawTitle":"随拍上身图"},"price":null,"currency":"CNY","moq":1,"category":"bvlgari-women-bags","status":"active","alibaba_url":null,"images":["https://xcimg.szwego.com/20230219/i1676789548_7865_0.jpg","https://xcimg.szwego.com/20230219/i1676789548_3612_1.jpg","https://xcimg.szwego.com/20230219/i1676789548_1162_2.jpg","https://xcimg.szwego.com/20230219/i1676789548_3431_3.jpg"],"created_at":"2024-10-07T10:58:53.573Z"},{"id":"item-6f4b151d5e40","sku":"_dJJJJWUiy0MVE_eeIIAp2-x00FBXi7xMI_fJ1EA","name_en":"Bvlgari Women Bags","name_cn":"王欧同款~","specs":{"source":"wsxcme","sourceId":"_dJJJJWUiy0MVE_eeIIAp2-x00FBXi7xMI_fJ1EA","sourceTagId":47002756,"sourceTagName":"宝格丽/女包","rawTitle":"王欧同款~"},"price":null,"currency":"CNY","moq":1,"category":"bvlgari-women-bags","status":"active","alibaba_url":null,"images":["https://xcimg.szwego.com/20230418/i1681812547_6608_0.jpg","https://xcimg.szwego.com/20230418/i1681812547_4039_1.jpg","https://xcimg.szwego.com/20230418/i1681812547_2922_2.jpg","https://xcimg.szwego.com/20230418/i1681812547_9345_3.jpg"],"created_at":"2024-09-27T06:51:04.104Z"},{"id":"item-69d24c6990e9","sku":"_doOoOKQZ3X8KdQYmvUE9AVanfxGY1KRDlIVkSnA","name_en":"Bvlgari Women Bags","name_cn":"正品级\n  SERPENTI CABOCHON”系列迷你斜挎包采用别具魅力的大号图形图案和大胆的金属质感细节,以精致实用的独特设计和现代风格绽放SERPENTI世界璀璨光芒。\n此款手袋配备可调节和可拆卸的皮革肩带,可用作手提包或手拿包,实现多变百搭功能,日夜皆宜。\n超小号,设一个收纳层和一个卡位。镌刻BVLGARI宝格丽品牌标识的内侧金属铭牌。\n型号:291085\n尺寸:18 X 12 X 8 厘米","specs":{"source":"wsxcme","sourceId":"_doOoOKQZ3X8KdQYmvUE9AVanfxGY1KRDlIVkSnA","sourceTagId":47002756,"sourceTagName":"宝格丽/女包","modelNumber":"291085","dimensions":{"lengthCm":18,"heightCm":12,"widthCm":8},"rawTitle":"正品级\n  SERPENTI CABOCHON”系列迷你斜挎包采用别具魅力的大号图形图案和大胆的金属质感细节,以精致实用的独特设计和现代风格绽放SERPENTI世界璀璨光芒。\n此款手袋配备可调节和可拆卸的皮革肩带,可用作手提包或手拿包,实现多变百搭功能,日夜皆宜。\n超小号,设一个收纳层和一个卡位。镌刻BVLGARI宝格丽品牌标识的内侧金属铭牌。\n型号:291085\n尺寸:18 X 12 X 8 厘米"},"price":null,"currency":"CNY","moq":1,"category":"bvlgari-women-bags","status":"active","alibaba_url":null,"images":["https://xcimg.szwego.com/20230329/i1680022145_8530_0.jpg","https://xcimg.szwego.com/20230329/i1680022145_6205_1.jpg","https://xcimg.szwego.com/20230329/i1680022145_6238_2.jpg","https://xcimg.szwego.com/20230329/i1680022145_3043_3.jpg","https://xcimg.szwego.com/20230329/i1680022145_6918_4.jpg","https://xcimg.szwego.com/20230329/i1680022145_7271_5.jpg","https://xcimg.szwego.com/20230329/i1680022145_3244_6.jpg","https://xcimg.szwego.com/20230329/i1680022145_1658_7.jpg","https://xcimg.szwego.com/20230329/i1680022145_4572_8.jpg"],"created_at":"2024-09-27T06:51:04.140Z"},{"id":"item-68145b026071","sku":"_dsRsR7IrSp6EqbyJmuRnuxMGIG-FdIKLRYXXidg","name_en":"Bvlgari Women Bags","name_cn":"张柏芝的夏日新格调~","specs":{"source":"wsxcme","sourceId":"_dsRsR7IrSp6EqbyJmuRnuxMGIG-FdIKLRYXXidg","sourceTagId":47002756,"sourceTagName":"宝格丽/女包","rawTitle":"张柏芝的夏日新格调~"},"price":null,"currency":"CNY","moq":1,"category":"bvlgari-women-bags","status":"active","alibaba_url":null,"images":["https://xcimg.szwego.com/20230329/i1680069450_9618_0.jpg","https://xcimg.szwego.com/20230329/i1680069450_3396_1.jpg","https://xcimg.szwego.com/20230329/i1680069450_7268_2.jpg"],"created_at":"2024-10-07T10:58:53.562Z"}],"page":237,"pageSize":24,"total":10075,"totalPages":420}
