{"items":[{"id":"item-a2152e49a1f4","sku":"_dw3w3dkJpkK2-y4jpbOpNJyYl5Q9zmbz375t0Og","name_en":"puzzle新成员✌️","name_cn":"puzzle新成员✌️\n新出的长手柄~内附有长肩带 可以切换不同的背法~\n除了腋下包包\n还有一根长肩带\n随意切换","specs":{"source":"wsxcme","sourceId":"_dw3w3dkJpkK2-y4jpbOpNJyYl5Q9zmbz375t0Og","sourceTagId":47002713,"sourceTagName":"罗意威/女包","rawTitle":"puzzle新成员✌️\n新出的长手柄~内附有长肩带 可以切换不同的背法~\n除了腋下包包\n还有一根长肩带\n随意切换"},"price":null,"currency":"CNY","moq":1,"category":"loewe-women-bags","status":"active","alibaba_url":null,"images":["https://xcimg.szwego.com/imgHD/6bf20321/20260508/cmp_i1778221338582_6018_0_0.jpg","https://xcimg.szwego.com/imgHD/6bf20321/20260508/cmp_i1778221338582_3044_0_1.jpg","https://xcimg.szwego.com/imgHD/6bf20321/20260508/cmp_i1778221413198_1505_0_3.jpg","https://xcimg.szwego.com/imgHD/6bf20321/20260508/cmp_i1778221413198_2209_0_4.jpg","https://xcimg.szwego.com/imgHD/6bf20321/20260508/cmp_i1778221413198_4450_0_5.jpg","https://xcimg.szwego.com/imgHD/6bf20321/20260508/cmp_i1778221413198_4100_0_6.jpg"],"created_at":"2026-05-20T08:54:03.701Z"},{"id":"item-e66baee524bd","sku":"_dxKxKbFERMOcpv1nazTpf31xfYK2gKEPS3PSS8w","name_en":"Rose、Milk同款","name_cn":"Rose、Milk同款\n自在随性 自成经典格调","specs":{"source":"wsxcme","sourceId":"_dxKxKbFERMOcpv1nazTpf31xfYK2gKEPS3PSS8w","sourceTagId":47002761,"sourceTagName":"圣罗兰/女包","rawTitle":"Rose、Milk同款\n自在随性 自成经典格调"},"price":null,"currency":"CNY","moq":1,"category":"ysl-women-bags","status":"active","alibaba_url":null,"images":["https://xcimg.szwego.com/imgHD/f8c0bdc9/20260417/cmp_i1776418787660_5053_0_0.jpg","https://xcimg.szwego.com/imgHD/f8c0bdc9/20260417/cmp_i1776418786981_3676_0_1.jpg","https://xcimg.szwego.com/imgHD/f8c0bdc9/20260417/cmp_i1776418786982_4308_0_2.jpg","https://xcimg.szwego.com/imgHD/f8c0bdc9/20260417/cmp_i1776418787658_1532_0_3.jpg","https://xcimg.szwego.com/imgHD/f8c0bdc9/20260417/cmp_i1776418786983_9816_0_4.jpg","https://xcimg.szwego.com/imgHD/f8c0bdc9/20260417/cmp_i1776418787656_2438_0_5.jpg","https://xcimg.szwego.com/imgHD/f8c0bdc9/20260417/cmp_i1776418787657_725_0_6.jpg","https://xcimg.szwego.com/imgHD/f8c0bdc9/20260417/cmp_i1776418786982_8814_0_7.jpg","https://xcimg.szwego.com/imgHD/f8c0bdc9/20260417/cmp_i1776418786981_9484_0_8.jpg"],"created_at":"2026-05-20T04:01:38.563Z"},{"id":"item-051a4c8f23c7","sku":"_dlflfVzZ5ZmfWPAC9EKTJX87KI4EiSgKlVgr4SA","name_en":"Sac de jour 一经推出便迅速成为时尚界的焦点","name_cn":"Sac de jour 一经推出便迅速成为时尚界的焦点\n它的设计灵感融合了经典与现代元素 简约而不失大气","specs":{"source":"wsxcme","sourceId":"_dlflfVzZ5ZmfWPAC9EKTJX87KI4EiSgKlVgr4SA","sourceTagId":47002761,"sourceTagName":"圣罗兰/女包","rawTitle":"Sac de jour 一经推出便迅速成为时尚界的焦点\n它的设计灵感融合了经典与现代元素 简约而不失大气"},"price":null,"currency":"CNY","moq":1,"category":"ysl-women-bags","status":"active","alibaba_url":null,"images":["https://xcimg.szwego.com/imgHD/f8c0bdc9/20251120/cmp_i1763629871941_4844_0_0.jpg","https://xcimg.szwego.com/imgHD/f8c0bdc9/20251120/cmp_i1763629871931_5844_0_1.jpg","https://xcimg.szwego.com/imgHD/f8c0bdc9/20251120/cmp_i1763629871891_5588_0_2.jpg","https://xcimg.szwego.com/imgHD/f8c0bdc9/20251120/cmp_i1763629871932_3483_0_3.jpg"],"created_at":"2026-06-29T10:48:58.629Z"},{"id":"item-faad67a48113","sku":"_deHeH2u_drcxetCZMTgtHCRdkBSfq3Uqi2BqcPA","name_en":"Sac de jour·","name_cn":"Sac de jour·\n麦绿手搓纹金扣\n22/26/32cm","specs":{"source":"wsxcme","sourceId":"_deHeH2u_drcxetCZMTgtHCRdkBSfq3Uqi2BqcPA","sourceTagId":47002761,"sourceTagName":"圣罗兰/女包","rawTitle":"Sac de jour·\n麦绿手搓纹金扣\n22/26/32cm"},"price":null,"currency":"CNY","moq":1,"category":"ysl-women-bags","status":"active","alibaba_url":null,"images":["https://xcimg.szwego.com/imgHD/f8c0bdc9/20260129/cmp_i1769675747775_787_0_0.jpg","https://xcimg.szwego.com/imgHD/f8c0bdc9/20260129/cmp_i1769675747839_7103_0_1.jpg","https://xcimg.szwego.com/imgHD/f8c0bdc9/20260129/cmp_i1769673371319_9526_0_0.jpg","https://xcimg.szwego.com/imgHD/f8c0bdc9/20260129/cmp_i1769673614607_6689_0_0.jpg","https://xcimg.szwego.com/imgHD/f8c0bdc9/20260129/i1769675549455_8094_0_0.jpg"],"created_at":"2026-06-29T10:48:58.809Z"},{"id":"item-f258ab141ac2","sku":"_dqdqdFg8h7C4jDJ-SJSVunZKsr1bLStsFkjGuPQ","name_en":"Sac de jour·","name_cn":"Sac de jour·\n咖啡荔枝纹金扣\n22/26/32cm","specs":{"source":"wsxcme","sourceId":"_dqdqdFg8h7C4jDJ-SJSVunZKsr1bLStsFkjGuPQ","sourceTagId":47002761,"sourceTagName":"圣罗兰/女包","rawTitle":"Sac de jour·\n咖啡荔枝纹金扣\n22/26/32cm"},"price":null,"currency":"CNY","moq":1,"category":"ysl-women-bags","status":"active","alibaba_url":null,"images":["https://xcimg.szwego.com/imgHD/f8c0bdc9/20251209/cmp_i1765275291797_9704_0_0.jpg","https://xcimg.szwego.com/imgHD/f8c0bdc9/20251209/cmp_i1765275291091_3937_0_1.jpg","https://xcimg.szwego.com/imgHD/f8c0bdc9/20251209/cmp_i1765274701788_688_0_0.jpg","https://xcimg.szwego.com/imgHD/f8c0bdc9/20251209/cmp_i1765274896024_8328_0_0.jpg","https://xcimg.szwego.com/imgHD/f8c0bdc9/20251209/cmp_i1765275088635_6689_0_0.jpg"],"created_at":"2026-06-29T10:48:58.569Z"},{"id":"item-3e3a4f52e25b","sku":"_d9L9LroMiPEWilTl-xi07QrOVJMIGzje4K7LamA","name_en":"Sac de jour·","name_cn":"Sac de jour·\n灰色手搓纹金扣\n22/26/32cm","specs":{"source":"wsxcme","sourceId":"_d9L9LroMiPEWilTl-xi07QrOVJMIGzje4K7LamA","sourceTagId":47002761,"sourceTagName":"圣罗兰/女包","rawTitle":"Sac de jour·\n灰色手搓纹金扣\n22/26/32cm"},"price":null,"currency":"CNY","moq":1,"category":"ysl-women-bags","status":"active","alibaba_url":null,"images":["https://xcimg.szwego.com/imgHD/f8c0bdc9/20251120/cmp_i1763630323662_3405_0_0.jpg","https://xcimg.szwego.com/imgHD/f8c0bdc9/20251120/cmp_i1763629512884_9007_0_2.jpg","https://xcimg.szwego.com/imgHD/f8c0bdc9/20251120/cmp_i1763629871891_5588_0_2.jpg","https://xcimg.szwego.com/imgHD/f8c0bdc9/20251120/cmp_i1763630165520_7863_0_2.jpg"],"created_at":"2026-06-29T10:48:58.689Z"},{"id":"item-a2b2e6ea6303","sku":"_dugugq1YlZ28uClOyfapR8r4J_wIjtr5fWvwgIw","name_en":"SAC PLAT BB 手袋#️⃣M45847","name_cn":"SAC PLAT BB 手袋#️⃣M45847\n专柜正品版渠道货独家全网首发!此款按专柜法产定制工艺、动态芯片变码,原厂专款面料、原厂专款浅金电镀全钢五金(色泽与正品一致)\n如需对比正品请按正品法版版进行比对!\n我们确保百分百还原正品真实感!独家正品原厂面料、五金、边油、车线+正品工艺、官网最新全套礼盒!\n21.5 x 22 x 9 厘米\n(长度 x 高 x 宽)\nMonogram 涂层帆布\n牛皮革饰边\n织物内衬\n金属件\n拉链内袋\n贴袋\n肩带:可拆卸,可调节\n包带半长:50.0 厘米\n包带半长可调至:55.0 厘米\n手柄:双手柄\n本品产地为法国","specs":{"source":"wsxcme","sourceId":"_dugugq1YlZ28uClOyfapR8r4J_wIjtr5fWvwgIw","sourceTagId":47002622,"sourceTagName":"LV/女包","rawTitle":"SAC PLAT BB 手袋#️⃣M45847\n专柜正品版渠道货独家全网首发!此款按专柜法产定制工艺、动态芯片变码,原厂专款面料、原厂专款浅金电镀全钢五金(色泽与正品一致)\n如需对比正品请按正品法版版进行比对!\n我们确保百分百还原正品真实感!独家正品原厂面料、五金、边油、车线+正品工艺、官网最新全套礼盒!\n21.5 x 22 x 9 厘米\n(长度 x 高 x 宽)\nMonogram 涂层帆布\n牛皮革饰边\n织物内衬\n金属件\n拉链内袋\n贴袋\n肩带:可拆卸,可调节\n包带半长:50.0 厘米\n包带半长可调至:55.0 厘米\n手柄:双手柄\n本品产地为法国"},"price":null,"currency":"CNY","moq":1,"category":"lv-women-bags","status":"active","alibaba_url":null,"images":["https://xcimg.szwego.com/img/0814622f/20240613/i1718278089_8708_1.jpg","https://xcimg.szwego.com/img/0814622f/20240613/i1718278089_7050_7.jpg","https://xcimg.szwego.com/img/0814622f/20240613/i1718278089_6387_4.jpg","https://xcimg.szwego.com/img/0814622f/20240613/i1718278089_7059_2.jpg","https://xcimg.szwego.com/img/0814622f/20240613/i1718278089_9294_5.jpg","https://xcimg.szwego.com/img/0814622f/20240613/i1718278089_6408_6.jpg","https://xcimg.szwego.com/img/0814622f/20240613/i1718278089_8188_3.jpg","https://xcimg.szwego.com/img/0814622f/20240613/i1718278089_9316_0.jpg","https://xcimg.szwego.com/img/0814622f/20240613/i1718278089_4201_8.jpg"],"created_at":"2024-11-11T10:39:49.061Z"},{"id":"item-333597a9283d","sku":"_dqjqjtSafKwCFlHRP-6oP6unHi8pSeVicKUZuVQ","name_en":"SAILOR超小号标志印花牛皮革手袋 标志印花 牛皮革包边 织物衬里 适合斜挎和肩背 抽绳皮革系带 1个主隔层 可调节肩带 最小长度18英寸(45厘米) 最大长度21英寸(54厘米)","name_cn":"SAILOR超小号标志印花牛皮革手袋 标志印花 牛皮革包边 织物衬里 适合斜挎和肩背 抽绳皮革系带 1个主隔层 可调节肩带 最小长度18英寸(45厘米) 最大长度21英寸(54厘米)\n\n型号:10M742\n尺寸:13*18*11","specs":{"source":"wsxcme","sourceId":"_dqjqjtSafKwCFlHRP-6oP6unHi8pSeVicKUZuVQ","sourceTagId":47003106,"sourceTagName":"塞琳/女包","modelNumber":"10M742","rawTitle":"SAILOR超小号标志印花牛皮革手袋 标志印花 牛皮革包边 织物衬里 适合斜挎和肩背 抽绳皮革系带 1个主隔层 可调节肩带 最小长度18英寸(45厘米) 最大长度21英寸(54厘米)\n\n型号:10M742\n尺寸:13*18*11"},"price":null,"currency":"CNY","moq":1,"category":"celine-women-bags","status":"active","alibaba_url":null,"images":["https://xcimg.szwego.com/img/7560c991/20241009/i1728474241_8461_0.jpg","https://xcimg.szwego.com/img/7560c991/20241009/i1728474241_5328_1.jpg","https://xcimg.szwego.com/img/7560c991/20241009/i1728474241_6471_2.jpg","https://xcimg.szwego.com/img/7560c991/20241009/i1728474241_8842_3.jpg","https://xcimg.szwego.com/img/7560c991/20241009/i1728474241_3892_4.jpg","https://xcimg.szwego.com/img/7560c991/20241009/i1728474241_9261_5.jpg","https://xcimg.szwego.com/img/7560c991/20241009/i1728474241_8215_6.jpg","https://xcimg.szwego.com/img/7560c991/20241009/i1728474241_3344_7.jpg","https://xcimg.szwego.com/img/7560c991/20241009/i1728474241_836_8.jpg"],"created_at":"2025-03-07T08:56:59.552Z"},{"id":"item-ec55660768cf","sku":"_dyfyfls7gfF14S3jqDKLAA4boHJVNYFMqHMUPyg","name_en":"SAINT LAUREN     ✨顶级制作!贝嫂、卡戴姗明星圣罗兰同款!海外代购!跟好莱坞名流一起玩转时尚,原版鳄鱼纹牛皮配原版五金,非市场一般五金,独家皮质,高品质,质量保证!","name_cn":"SAINT LAUREN     ✨顶级制作!贝嫂、卡戴姗明星圣罗兰同款!海外代购!跟好莱坞名流一起玩转时尚,原版鳄鱼纹牛皮配原版五金,非市场一般五金,独家皮质,高品质,质量保证!\nS06011–32cm大号\nS06012–26cm小号","specs":{"source":"wsxcme","sourceId":"_dyfyfls7gfF14S3jqDKLAA4boHJVNYFMqHMUPyg","sourceTagId":47002761,"sourceTagName":"圣罗兰/女包","rawTitle":"SAINT LAUREN     ✨顶级制作!贝嫂、卡戴姗明星圣罗兰同款!海外代购!跟好莱坞名流一起玩转时尚,原版鳄鱼纹牛皮配原版五金,非市场一般五金,独家皮质,高品质,质量保证!\nS06011–32cm大号\nS06012–26cm小号"},"price":null,"currency":"CNY","moq":1,"category":"ysl-women-bags","status":"active","alibaba_url":null,"images":["https://xcimg.szwego.com/20230617/i1686979004_6193_0.jpg","https://xcimg.szwego.com/20230617/i1686979004_738_1.jpg","https://xcimg.szwego.com/20230617/i1686979004_4027_2.jpg","https://xcimg.szwego.com/20230617/i1686979004_74_3.jpg","https://xcimg.szwego.com/20230617/i1686979004_4480_4.jpg","https://xcimg.szwego.com/20230617/i1686979004_8285_5.jpg","https://xcimg.szwego.com/20230617/i1686979004_5409_6.jpg","https://xcimg.szwego.com/20230617/i1686979004_3723_7.jpg","https://xcimg.szwego.com/20230617/i1686979004_3501_8.jpg"],"created_at":"2025-02-08T12:46:07.448Z"},{"id":"item-ca3893be3836","sku":"_dsOsOwXBWhw40kjahJQ2sjugYFu4jTPX3MzIcEQ","name_en":"SAINT LAUREN     ✨顶级制作!贝嫂、卡戴姗明星圣罗兰同款!海外代购!跟好莱坞名流一起玩转时尚,原版鳄鱼纹牛皮配原版五金,非市场一般五金,独家皮质,高品质,质量保证!","name_cn":"SAINT LAUREN     ✨顶级制作!贝嫂、卡戴姗明星圣罗兰同款!海外代购!跟好莱坞名流一起玩转时尚,原版鳄鱼纹牛皮配原版五金,非市场一般五金,独家皮质,高品质,质量保证!\nS06011–32cm大号\nS06012–26cm小号","specs":{"source":"wsxcme","sourceId":"_dsOsOwXBWhw40kjahJQ2sjugYFu4jTPX3MzIcEQ","sourceTagId":47002761,"sourceTagName":"圣罗兰/女包","rawTitle":"SAINT LAUREN     ✨顶级制作!贝嫂、卡戴姗明星圣罗兰同款!海外代购!跟好莱坞名流一起玩转时尚,原版鳄鱼纹牛皮配原版五金,非市场一般五金,独家皮质,高品质,质量保证!\nS06011–32cm大号\nS06012–26cm小号"},"price":null,"currency":"CNY","moq":1,"category":"ysl-women-bags","status":"active","alibaba_url":null,"images":["https://xcimg.szwego.com/20230617/i1686979040_441_0.jpg","https://xcimg.szwego.com/20230617/i1686979040_6915_1.jpg","https://xcimg.szwego.com/20230617/i1686979040_385_2.jpg","https://xcimg.szwego.com/20230617/i1686979040_4151_3.jpg","https://xcimg.szwego.com/20230617/i1686979040_7608_4.jpg","https://xcimg.szwego.com/20230617/i1686979040_1058_5.jpg","https://xcimg.szwego.com/20230617/i1686979040_6007_6.jpg","https://xcimg.szwego.com/20230617/i1686979040_2285_7.jpg","https://xcimg.szwego.com/20230617/i1686979040_7235_8.jpg"],"created_at":"2025-02-08T12:46:07.449Z"},{"id":"item-b9857fb10bba","sku":"_dnpnpljaHJpjOIZyAFxWPhBz1SBMFqMh_EvfJDg","name_en":"SAINT LAUREN     ✨顶级制作!贝嫂、卡戴姗明星圣罗兰同款!海外代购!跟好莱坞名流一起玩转时尚,原版鳄鱼纹牛皮配原版五金,非市场一般五金,独家皮质,高品质,质量保证!","name_cn":"SAINT LAUREN     ✨顶级制作!贝嫂、卡戴姗明星圣罗兰同款!海外代购!跟好莱坞名流一起玩转时尚,原版鳄鱼纹牛皮配原版五金,非市场一般五金,独家皮质,高品质,质量保证!\nS06011–32cm大号\nS06012–26cm小号","specs":{"source":"wsxcme","sourceId":"_dnpnpljaHJpjOIZyAFxWPhBz1SBMFqMh_EvfJDg","sourceTagId":47002761,"sourceTagName":"圣罗兰/女包","rawTitle":"SAINT LAUREN     ✨顶级制作!贝嫂、卡戴姗明星圣罗兰同款!海外代购!跟好莱坞名流一起玩转时尚,原版鳄鱼纹牛皮配原版五金,非市场一般五金,独家皮质,高品质,质量保证!\nS06011–32cm大号\nS06012–26cm小号"},"price":null,"currency":"CNY","moq":1,"category":"ysl-women-bags","status":"active","alibaba_url":null,"images":["https://xcimg.szwego.com/20230617/i1686978933_2651_0.jpg","https://xcimg.szwego.com/20230617/i1686978933_7974_1.jpg","https://xcimg.szwego.com/20230617/i1686978933_6681_2.jpg","https://xcimg.szwego.com/20230617/i1686978933_1357_3.jpg","https://xcimg.szwego.com/20230617/i1686978933_7931_4.jpg","https://xcimg.szwego.com/20230617/i1686978933_3622_5.jpg","https://xcimg.szwego.com/20230617/i1686978933_756_6.jpg","https://xcimg.szwego.com/20230617/i1686978933_6986_7.jpg","https://xcimg.szwego.com/20230617/i1686978933_4515_8.jpg"],"created_at":"2025-02-08T12:46:07.446Z"},{"id":"item-b3e2deba87d5","sku":"_d8B8BaH4r5MMU8W2Kj2fDLbebPnnc6mDFABYmVA","name_en":"SAINT LAUREN     ✨顶级制作!贝嫂、卡戴姗明星圣罗兰同款!海外代购!跟好莱坞名流一起玩转时尚,原版鳄鱼纹牛皮配原版五金,非市场一般五金,独家皮质,高品质,质量保证!","name_cn":"SAINT LAUREN     ✨顶级制作!贝嫂、卡戴姗明星圣罗兰同款!海外代购!跟好莱坞名流一起玩转时尚,原版鳄鱼纹牛皮配原版五金,非市场一般五金,独家皮质,高品质,质量保证!\nS06011–32cm大号\nS06012–26cm小号","specs":{"source":"wsxcme","sourceId":"_d8B8BaH4r5MMU8W2Kj2fDLbebPnnc6mDFABYmVA","sourceTagId":47002761,"sourceTagName":"圣罗兰/女包","rawTitle":"SAINT LAUREN     ✨顶级制作!贝嫂、卡戴姗明星圣罗兰同款!海外代购!跟好莱坞名流一起玩转时尚,原版鳄鱼纹牛皮配原版五金,非市场一般五金,独家皮质,高品质,质量保证!\nS06011–32cm大号\nS06012–26cm小号"},"price":null,"currency":"CNY","moq":1,"category":"ysl-women-bags","status":"active","alibaba_url":null,"images":["https://xcimg.szwego.com/20230617/i1686979115_9570_0.jpg","https://xcimg.szwego.com/20230617/i1686979115_8108_1.jpg","https://xcimg.szwego.com/20230617/i1686979115_4803_2.jpg","https://xcimg.szwego.com/20230617/i1686979115_5342_3.jpg","https://xcimg.szwego.com/20230617/i1686979115_2023_4.jpg","https://xcimg.szwego.com/20230617/i1686979115_8905_5.jpg","https://xcimg.szwego.com/20230617/i1686979115_8992_6.jpg","https://xcimg.szwego.com/20230617/i1686979115_6909_7.jpg","https://xcimg.szwego.com/20230617/i1686979115_7457_8.jpg"],"created_at":"2025-02-08T12:46:07.451Z"},{"id":"item-9f8e3b2d326a","sku":"_dM7M70V1mrJgBXpfxeAkdETFGWtkKBQLE-P47AQ","name_en":"SAINT LAUREN     ✨顶级制作!贝嫂、卡戴姗明星圣罗兰同款!海外代购!跟好莱坞名流一起玩转时尚,原版鳄鱼纹牛皮配原版五金,非市场一般五金,独家皮质,高品质,质量保证!","name_cn":"SAINT LAUREN     ✨顶级制作!贝嫂、卡戴姗明星圣罗兰同款!海外代购!跟好莱坞名流一起玩转时尚,原版鳄鱼纹牛皮配原版五金,非市场一般五金,独家皮质,高品质,质量保证!\nS06011–32cm大号\nS06012–26cm小号","specs":{"source":"wsxcme","sourceId":"_dM7M70V1mrJgBXpfxeAkdETFGWtkKBQLE-P47AQ","sourceTagId":47002761,"sourceTagName":"圣罗兰/女包","rawTitle":"SAINT LAUREN     ✨顶级制作!贝嫂、卡戴姗明星圣罗兰同款!海外代购!跟好莱坞名流一起玩转时尚,原版鳄鱼纹牛皮配原版五金,非市场一般五金,独家皮质,高品质,质量保证!\nS06011–32cm大号\nS06012–26cm小号"},"price":null,"currency":"CNY","moq":1,"category":"ysl-women-bags","status":"active","alibaba_url":null,"images":["https://xcimg.szwego.com/20230617/i1686978847_5916_0.jpg","https://xcimg.szwego.com/20230617/i1686978847_1182_1.jpg","https://xcimg.szwego.com/20230617/i1686978847_4278_2.jpg","https://xcimg.szwego.com/20230617/i1686978847_6631_3.jpg","https://xcimg.szwego.com/20230617/i1686978847_1208_4.jpg","https://xcimg.szwego.com/20230617/i1686978847_20_5.jpg","https://xcimg.szwego.com/20230617/i1686978847_3487_6.jpg","https://xcimg.szwego.com/20230617/i1686978847_6514_7.jpg","https://xcimg.szwego.com/20230617/i1686978847_3929_8.jpg"],"created_at":"2025-02-08T12:46:07.444Z"},{"id":"item-7d0e655a36fb","sku":"_dZfZf9tPsja6bt7LgcbFS5Y6sLOgYprPcSODbwQ","name_en":"SAINT LAUREN     ✨顶级制作!贝嫂、卡戴姗明星圣罗兰同款!海外代购!跟好莱坞名流一起玩转时尚,原版鳄鱼纹牛皮配原版五金,非市场一般五金,独家皮质,高品质,质量保证!","name_cn":"SAINT LAUREN     ✨顶级制作!贝嫂、卡戴姗明星圣罗兰同款!海外代购!跟好莱坞名流一起玩转时尚,原版鳄鱼纹牛皮配原版五金,非市场一般五金,独家皮质,高品质,质量保证!\nS06011–32cm大号\nS06012–26cm小号","specs":{"source":"wsxcme","sourceId":"_dZfZf9tPsja6bt7LgcbFS5Y6sLOgYprPcSODbwQ","sourceTagId":47002761,"sourceTagName":"圣罗兰/女包","rawTitle":"SAINT LAUREN     ✨顶级制作!贝嫂、卡戴姗明星圣罗兰同款!海外代购!跟好莱坞名流一起玩转时尚,原版鳄鱼纹牛皮配原版五金,非市场一般五金,独家皮质,高品质,质量保证!\nS06011–32cm大号\nS06012–26cm小号"},"price":null,"currency":"CNY","moq":1,"category":"ysl-women-bags","status":"active","alibaba_url":null,"images":["https://xcimg.szwego.com/20230617/i1686979054_8627_0.jpg","https://xcimg.szwego.com/20230617/i1686979054_6998_1.jpg","https://xcimg.szwego.com/20230617/i1686979054_1712_2.jpg","https://xcimg.szwego.com/20230617/i1686979054_7826_3.jpg","https://xcimg.szwego.com/20230617/i1686979054_3493_4.jpg","https://xcimg.szwego.com/20230617/i1686979054_6809_5.jpg","https://xcimg.szwego.com/20230617/i1686979054_8417_6.jpg","https://xcimg.szwego.com/20230617/i1686979054_6194_7.jpg","https://xcimg.szwego.com/20230617/i1686979054_2267_8.jpg"],"created_at":"2025-02-08T12:46:07.450Z"},{"id":"item-643c03d038e7","sku":"_dcBcB9JUTLPjj86oaaqBtQpxL2Vg33R3gNqBDXA","name_en":"SAINT LAUREN     ✨顶级制作!贝嫂、卡戴姗明星圣罗兰同款!海外代购!跟好莱坞名流一起玩转时尚,原版鳄鱼纹牛皮配原版五金,非市场一般五金,独家皮质,高品质,质量保证!","name_cn":"SAINT LAUREN     ✨顶级制作!贝嫂、卡戴姗明星圣罗兰同款!海外代购!跟好莱坞名流一起玩转时尚,原版鳄鱼纹牛皮配原版五金,非市场一般五金,独家皮质,高品质,质量保证!\nS06011–32cm大号\nS06012–26cm小号","specs":{"source":"wsxcme","sourceId":"_dcBcB9JUTLPjj86oaaqBtQpxL2Vg33R3gNqBDXA","sourceTagId":47002761,"sourceTagName":"圣罗兰/女包","rawTitle":"SAINT LAUREN     ✨顶级制作!贝嫂、卡戴姗明星圣罗兰同款!海外代购!跟好莱坞名流一起玩转时尚,原版鳄鱼纹牛皮配原版五金,非市场一般五金,独家皮质,高品质,质量保证!\nS06011–32cm大号\nS06012–26cm小号"},"price":null,"currency":"CNY","moq":1,"category":"ysl-women-bags","status":"active","alibaba_url":null,"images":["https://xcimg.szwego.com/20230617/i1686978915_5762_0.jpg","https://xcimg.szwego.com/20230617/i1686978915_5855_1.jpg","https://xcimg.szwego.com/20230617/i1686978915_4365_2.jpg","https://xcimg.szwego.com/20230617/i1686978915_7328_3.jpg","https://xcimg.szwego.com/20230617/i1686978915_8433_4.jpg","https://xcimg.szwego.com/20230617/i1686978915_9439_5.jpg","https://xcimg.szwego.com/20230617/i1686978915_2029_6.jpg","https://xcimg.szwego.com/20230617/i1686978915_723_7.jpg","https://xcimg.szwego.com/20230617/i1686978915_9977_8.jpg"],"created_at":"2025-02-08T12:46:07.445Z"},{"id":"item-499117d528d7","sku":"_dpxpxCie5Tn2v4LHR8Dc3Mkhhvc2eZ59BnLfWwQ","name_en":"SAINT LAUREN     ✨顶级制作!贝嫂、卡戴姗明星圣罗兰同款!海外代购!跟好莱坞名流一起玩转时尚,原版鳄鱼纹牛皮配原版五金,非市场一般五金,独家皮质,高品质,质量保证!","name_cn":"SAINT LAUREN     ✨顶级制作!贝嫂、卡戴姗明星圣罗兰同款!海外代购!跟好莱坞名流一起玩转时尚,原版鳄鱼纹牛皮配原版五金,非市场一般五金,独家皮质,高品质,质量保证!\nS06011–32cm大号\nS06012–26cm小号","specs":{"source":"wsxcme","sourceId":"_dpxpxCie5Tn2v4LHR8Dc3Mkhhvc2eZ59BnLfWwQ","sourceTagId":47002761,"sourceTagName":"圣罗兰/女包","rawTitle":"SAINT LAUREN     ✨顶级制作!贝嫂、卡戴姗明星圣罗兰同款!海外代购!跟好莱坞名流一起玩转时尚,原版鳄鱼纹牛皮配原版五金,非市场一般五金,独家皮质,高品质,质量保证!\nS06011–32cm大号\nS06012–26cm小号"},"price":null,"currency":"CNY","moq":1,"category":"ysl-women-bags","status":"active","alibaba_url":null,"images":["https://xcimg.szwego.com/20230617/i1686978987_2209_0.jpg","https://xcimg.szwego.com/20230617/i1686978987_8205_1.jpg","https://xcimg.szwego.com/20230617/i1686978987_6877_2.jpg","https://xcimg.szwego.com/20230617/i1686978987_5868_3.jpg","https://xcimg.szwego.com/20230617/i1686978987_5925_4.jpg","https://xcimg.szwego.com/20230617/i1686978987_6652_5.jpg","https://xcimg.szwego.com/20230617/i1686978987_3987_6.jpg","https://xcimg.szwego.com/20230617/i1686978987_204_7.jpg","https://xcimg.szwego.com/20230617/i1686978987_977_8.jpg"],"created_at":"2025-02-08T12:46:07.447Z"},{"id":"item-452fcf759758","sku":"_dskskQ2pLEB5rY_onNPFqtzSGcDFfbsQDcuKd3A","name_en":"SAINT LAUREN     ✨顶级制作!贝嫂、卡戴姗明星圣罗兰同款!海外代购!跟好莱坞名流一起玩转时尚,原版鳄鱼纹牛皮配原版五金,非市场一般五金,独家皮质,高品质,质量保证!","name_cn":"SAINT LAUREN     ✨顶级制作!贝嫂、卡戴姗明星圣罗兰同款!海外代购!跟好莱坞名流一起玩转时尚,原版鳄鱼纹牛皮配原版五金,非市场一般五金,独家皮质,高品质,质量保证!\nS06011–32cm大号\nS06012–26cm小号","specs":{"source":"wsxcme","sourceId":"_dskskQ2pLEB5rY_onNPFqtzSGcDFfbsQDcuKd3A","sourceTagId":47002761,"sourceTagName":"圣罗兰/女包","rawTitle":"SAINT LAUREN     ✨顶级制作!贝嫂、卡戴姗明星圣罗兰同款!海外代购!跟好莱坞名流一起玩转时尚,原版鳄鱼纹牛皮配原版五金,非市场一般五金,独家皮质,高品质,质量保证!\nS06011–32cm大号\nS06012–26cm小号"},"price":null,"currency":"CNY","moq":1,"category":"ysl-women-bags","status":"active","alibaba_url":null,"images":["https://xcimg.szwego.com/20230617/i1686978827_6190_0.jpg","https://xcimg.szwego.com/20230617/i1686978827_2974_1.jpg","https://xcimg.szwego.com/20230617/i1686978827_9352_2.jpg","https://xcimg.szwego.com/20230617/i1686978827_169_3.jpg","https://xcimg.szwego.com/20230617/i1686978827_2766_4.jpg","https://xcimg.szwego.com/20230617/i1686978827_5079_5.jpg","https://xcimg.szwego.com/20230617/i1686978827_8466_6.jpg","https://xcimg.szwego.com/20230617/i1686978827_4633_7.jpg","https://xcimg.szwego.com/20230617/i1686978827_8712_8.jpg"],"created_at":"2025-02-08T12:46:07.443Z"},{"id":"item-244a9f7b759a","sku":"_duJuJzr9WvMrSAjegd4KA89sl8HGvxZf6ltwb0g","name_en":"SAINT LAUREN     ✨顶级制作!贝嫂、卡戴姗明星圣罗兰同款!海外代购!跟好莱坞名流一起玩转时尚,原版鳄鱼纹牛皮配原版五金,非市场一般五金,独家皮质,高品质,质量保证!","name_cn":"SAINT LAUREN     ✨顶级制作!贝嫂、卡戴姗明星圣罗兰同款!海外代购!跟好莱坞名流一起玩转时尚,原版鳄鱼纹牛皮配原版五金,非市场一般五金,独家皮质,高品质,质量保证!\nS06011–32cm大号\nS06012–26cm小号","specs":{"source":"wsxcme","sourceId":"_duJuJzr9WvMrSAjegd4KA89sl8HGvxZf6ltwb0g","sourceTagId":47002761,"sourceTagName":"圣罗兰/女包","rawTitle":"SAINT LAUREN     ✨顶级制作!贝嫂、卡戴姗明星圣罗兰同款!海外代购!跟好莱坞名流一起玩转时尚,原版鳄鱼纹牛皮配原版五金,非市场一般五金,独家皮质,高品质,质量保证!\nS06011–32cm大号\nS06012–26cm小号"},"price":null,"currency":"CNY","moq":1,"category":"ysl-women-bags","status":"active","alibaba_url":null,"images":["https://xcimg.szwego.com/20230617/i1686979179_519_0.jpg","https://xcimg.szwego.com/20230617/i1686979179_355_1.jpg","https://xcimg.szwego.com/20230617/i1686979179_8419_2.jpg","https://xcimg.szwego.com/20230617/i1686979179_5750_3.jpg","https://xcimg.szwego.com/20230617/i1686979179_1700_4.jpg","https://xcimg.szwego.com/20230617/i1686979179_4828_5.jpg","https://xcimg.szwego.com/20230617/i1686979179_3752_6.jpg","https://xcimg.szwego.com/20230617/i1686979179_9229_7.jpg","https://xcimg.szwego.com/20230617/i1686979179_1259_8.jpg"],"created_at":"2025-02-08T12:46:07.452Z"},{"id":"item-5a5640b22c64","sku":"_dAqAqMWAfJR-_5qvdCu2fe5725PriU5DcIIrKIw","name_en":"Saint Laurent 新款 Y Cabas 托特包","name_cn":"Saint Laurent 新款 Y Cabas 托特包","specs":{"source":"wsxcme","sourceId":"_dAqAqMWAfJR-_5qvdCu2fe5725PriU5DcIIrKIw","sourceTagId":47002761,"sourceTagName":"圣罗兰/女包","rawTitle":"Saint Laurent 新款 Y Cabas 托特包"},"price":null,"currency":"CNY","moq":1,"category":"ysl-women-bags","status":"active","alibaba_url":null,"images":["https://xcimg.szwego.com/img/58395cbb/20240920/a1726825877577_8770.jpg","https://xcimg.szwego.com/img/58395cbb/20240920/a1726825877609_2348.jpg","https://xcimg.szwego.com/img/58395cbb/20240920/a1726825877540_5701.jpg","https://xcimg.szwego.com/img/58395cbb/20240920/a1726825877545_7311.jpg"],"created_at":"2025-07-20T03:05:44.245Z"},{"id":"item-8aadcc486a61","sku":"_dQWQW-DLAunNztrCEQQP6EOO5BtxDv27DIQk_Ew","name_en":"Saint Laurent Paris YSL圣罗兰经典款,采用进口南非牛皮制做,原版定制五金❗手感非常舒适,此款保留经典的Logo设计❗有链子可斜挎哦😱尺寸:24-16-5香港购买哦❗型号311227-1","name_cn":"Saint Laurent Paris YSL圣罗兰经典款,采用进口南非牛皮制做,原版定制五金❗手感非常舒适,此款保留经典的Logo设计❗有链子可斜挎哦😱尺寸:24-16-5香港购买哦❗型号311227-1","specs":{"source":"wsxcme","sourceId":"_dQWQW-DLAunNztrCEQQP6EOO5BtxDv27DIQk_Ew","sourceTagId":47002761,"sourceTagName":"圣罗兰/女包","modelNumber":"311227-1","rawTitle":"Saint Laurent Paris YSL圣罗兰经典款,采用进口南非牛皮制做,原版定制五金❗手感非常舒适,此款保留经典的Logo设计❗有链子可斜挎哦😱尺寸:24-16-5香港购买哦❗型号311227-1"},"price":null,"currency":"CNY","moq":1,"category":"ysl-women-bags","status":"active","alibaba_url":null,"images":["https://xcimg.szwego.com/1520577478_63836463_0","https://xcimg.szwego.com/1520577478_1647851708_1","https://xcimg.szwego.com/1520577478_1844307338_2","https://xcimg.szwego.com/1520577478_3788300406_3","https://xcimg.szwego.com/1520577478_897734788_4","https://xcimg.szwego.com/1520577478_3832317439_5","https://xcimg.szwego.com/1520577478_2280634894_6","https://xcimg.szwego.com/1520577478_2055407226_7","https://xcimg.szwego.com/1520577478_2198978253_8"],"created_at":"2025-02-08T12:46:07.399Z"},{"id":"item-8108cb7f04fa","sku":"_duXuX8XDNkejgDH9WFmDMdAuMmYdKhHIUdKwTYg","name_en":"Saint Laurent Paris YSL圣罗兰经典款,采用进口南非牛皮制做,原版定制五金❗手感非常舒适,此款保留经典的Logo设计❗有链子可斜挎哦😱尺寸:24-16-5香港购买哦❗型号311227-1","name_cn":"Saint Laurent Paris YSL圣罗兰经典款,采用进口南非牛皮制做,原版定制五金❗手感非常舒适,此款保留经典的Logo设计❗有链子可斜挎哦😱尺寸:24-16-5香港购买哦❗型号311227-1","specs":{"source":"wsxcme","sourceId":"_duXuX8XDNkejgDH9WFmDMdAuMmYdKhHIUdKwTYg","sourceTagId":47002761,"sourceTagName":"圣罗兰/女包","modelNumber":"311227-1","rawTitle":"Saint Laurent Paris YSL圣罗兰经典款,采用进口南非牛皮制做,原版定制五金❗手感非常舒适,此款保留经典的Logo设计❗有链子可斜挎哦😱尺寸:24-16-5香港购买哦❗型号311227-1"},"price":null,"currency":"CNY","moq":1,"category":"ysl-women-bags","status":"active","alibaba_url":null,"images":["https://xcimg.szwego.com/1520577515_4114207892_0","https://xcimg.szwego.com/1520577515_827262522_1","https://xcimg.szwego.com/1520577515_3600662525_2","https://xcimg.szwego.com/1520577515_2838679281_3","https://xcimg.szwego.com/1520577515_743223183_4","https://xcimg.szwego.com/1520577515_117728513_5","https://xcimg.szwego.com/1520577515_398291994_6","https://xcimg.szwego.com/1520577515_434729513_7","https://xcimg.szwego.com/1520577515_3154270880_8"],"created_at":"2025-02-08T12:46:07.400Z"},{"id":"item-ffa9d3016e45","sku":"_d1G1GjDrvyt3MaWaCjAYFTs9TXDlF1i4rRAlDHw","name_en":"Saint Laurent Women Bags","name_cn":"🆂🅰︎🅸🅽🆃 🅻🅰︎🆄🆁🅴🅽🆃\n【 NiKi 】百搭款 28cm圣罗兰经典款niki大象纹正面翻盖手袋牛皮翻盖手袋、超多明星网红同款、专柜一包难求!风靡全球的NIKI超大容量大象纹牛皮!饰以V形明缝线CASSANDRE 质感轻盈、设有两个隔层、背面设有一个大号贴袋、搭配滑动式链条肩带、可肩背或斜挎、一个背面外部口袋!磁性按扣开合、两个内部口袋!\n货号:633178\n颜色:黑大象纹/古银链\n尺寸:28×20×8.5cm\n链带长度:30 - 53cm","specs":{"source":"wsxcme","sourceId":"_d1G1GjDrvyt3MaWaCjAYFTs9TXDlF1i4rRAlDHw","sourceTagId":47002761,"sourceTagName":"圣罗兰/女包","modelNumber":"633178","dimensions":{"lengthCm":28,"heightCm":20,"widthCm":8.5},"rawTitle":"🆂🅰︎🅸🅽🆃 🅻🅰︎🆄🆁🅴🅽🆃\n【 NiKi 】百搭款 28cm圣罗兰经典款niki大象纹正面翻盖手袋牛皮翻盖手袋、超多明星网红同款、专柜一包难求!风靡全球的NIKI超大容量大象纹牛皮!饰以V形明缝线CASSANDRE 质感轻盈、设有两个隔层、背面设有一个大号贴袋、搭配滑动式链条肩带、可肩背或斜挎、一个背面外部口袋!磁性按扣开合、两个内部口袋!\n货号:633178\n颜色:黑大象纹/古银链\n尺寸:28×20×8.5cm\n链带长度:30 - 53cm"},"price":null,"currency":"CNY","moq":1,"category":"ysl-women-bags","status":"active","alibaba_url":null,"images":["https://xcimg.szwego.com/img/af81b81a/20240805/i1722871275_1139_4.jpg","https://xcimg.szwego.com/img/af81b81a/20240805/i1722871275_2609_1.jpg","https://xcimg.szwego.com/img/af81b81a/20240805/i1722871275_8038_3.jpg","https://xcimg.szwego.com/img/af81b81a/20240805/i1722871275_149_6.jpg","https://xcimg.szwego.com/img/af81b81a/20240805/i1722871275_2961_0.jpg","https://xcimg.szwego.com/img/af81b81a/20240805/i1722871275_5351_2.jpg","https://xcimg.szwego.com/img/af81b81a/20240805/i1722871275_9907_5.jpg","https://xcimg.szwego.com/img/af81b81a/20240805/i1722871275_6470_7.jpg","https://xcimg.szwego.com/img/af81b81a/20240805/i1722871275_5379_8.jpg"],"created_at":"2025-02-08T12:45:53.487Z"},{"id":"item-fe9507c3ce1d","sku":"_drTrTSrB3WIrbAmd-FSiy34LD4h06FCFlct_QFA","name_en":"Saint Laurent Women Bags","name_cn":"【原厂皮】\nMini leather shoulder bag云朵型腋下包/链条包☁\n原厂皮独有的皮香味,皮质超柔软,摸起来手感很舒胡~内里原厂小羊皮,整体设计复古优雅,手拿或者肩背都吼吼看,人无我有的时髦单品 宝宝们酷艾点 抱 走~~~【配原厂包装】\n型号:681632\n尺寸:24x14x4cm\n肩带长度:70cm","specs":{"source":"wsxcme","sourceId":"_drTrTSrB3WIrbAmd-FSiy34LD4h06FCFlct_QFA","sourceTagId":47002761,"sourceTagName":"圣罗兰/女包","modelNumber":"681632","dimensions":{"lengthCm":24,"heightCm":14,"widthCm":4},"rawTitle":"【原厂皮】\nMini leather shoulder bag云朵型腋下包/链条包☁\n原厂皮独有的皮香味,皮质超柔软,摸起来手感很舒胡~内里原厂小羊皮,整体设计复古优雅,手拿或者肩背都吼吼看,人无我有的时髦单品 宝宝们酷艾点 抱 走~~~【配原厂包装】\n型号:681632\n尺寸:24x14x4cm\n肩带长度:70cm"},"price":null,"currency":"CNY","moq":1,"category":"ysl-women-bags","status":"active","alibaba_url":null,"images":["https://xcimg.szwego.com/20220311/i1647008132_3214_0.jpg","https://xcimg.szwego.com/20220311/i1647008132_2297_1.jpg","https://xcimg.szwego.com/20220311/i1647008132_5505_2.jpg","https://xcimg.szwego.com/20220311/i1647008132_9660_3.jpg","https://xcimg.szwego.com/20220311/i1647008132_7524_4.jpg","https://xcimg.szwego.com/20220311/i1647008132_9497_5.jpg","https://xcimg.szwego.com/20220311/i1647008132_2868_6.jpg","https://xcimg.szwego.com/20220311/i1647008132_4943_7.jpg","https://xcimg.szwego.com/20220311/i1647008132_3836_8.jpg"],"created_at":"2024-12-08T05:45:05.275Z"},{"id":"item-fcef2bf9ea91","sku":"_d5j5jGuq42Yp9RntZVEid5lleKQOQRKBFWBmcbQ","name_en":"Saint Laurent Women Bags","name_cn":"橄榄绿·\nSOLFERINO BOX_19cm\n必火爆款,还没上市就攻陷了整个时尚圈,怀旧左岸,灵感来自巴黎左岸街名Rue De Solferino为名!包包采用原厂细牙签纹Box牛皮,手感及皮面的柔韧度都非常好!内里设计三层风琴隔,可轻松容纳日常所需物品,全新设计的“L”字母上下对半开扣,彻底颠覆你对包扣的认知,不禁让人发出惊叹,原来还能这样开包包,简直不要太有趣了!\n型号:634306\n尺寸:19x13x5cm","specs":{"source":"wsxcme","sourceId":"_d5j5jGuq42Yp9RntZVEid5lleKQOQRKBFWBmcbQ","sourceTagId":47002761,"sourceTagName":"圣罗兰/女包","modelNumber":"634306","dimensions":{"lengthCm":19,"heightCm":13,"widthCm":5},"rawTitle":"橄榄绿·\nSOLFERINO BOX_19cm\n必火爆款,还没上市就攻陷了整个时尚圈,怀旧左岸,灵感来自巴黎左岸街名Rue De Solferino为名!包包采用原厂细牙签纹Box牛皮,手感及皮面的柔韧度都非常好!内里设计三层风琴隔,可轻松容纳日常所需物品,全新设计的“L”字母上下对半开扣,彻底颠覆你对包扣的认知,不禁让人发出惊叹,原来还能这样开包包,简直不要太有趣了!\n型号:634306\n尺寸:19x13x5cm"},"price":null,"currency":"CNY","moq":1,"category":"ysl-women-bags","status":"active","alibaba_url":null,"images":["https://xcimg.szwego.com/img/f8c0bdc9/20241025/i1729830552_5809_8.jpg","https://xcimg.szwego.com/img/f8c0bdc9/20241025/i1729830552_8563_2.jpg","https://xcimg.szwego.com/img/f8c0bdc9/20241025/i1729830552_3339_5.jpg","https://xcimg.szwego.com/img/f8c0bdc9/20241025/i1729830552_1964_7.jpg","https://xcimg.szwego.com/img/f8c0bdc9/20241025/i1729830552_78_3.jpg","https://xcimg.szwego.com/img/f8c0bdc9/20241025/i1729830552_6316_1.jpg","https://xcimg.szwego.com/img/f8c0bdc9/20241025/i1729830552_1628_0.jpg","https://xcimg.szwego.com/img/f8c0bdc9/20241025/i1729830552_5650_4.jpg","https://xcimg.szwego.com/img/f8c0bdc9/20241025/i1729830552_3294_6.jpg"],"created_at":"2026-06-29T10:54:44.916Z"}],"page":400,"pageSize":24,"total":10075,"totalPages":420}
