{"items":[{"id":"item-467aa98c838c","sku":"_dyMyMKykzn97Nsj3LwhLNqsQoclit3PcLMKv6Nw","name_en":"Chanel Women Bags","name_cn":"白金版▪️正品级 包装如图\nChanel 24s春夏新款 \n牛仔 22bag mini  灰蓝\n专柜售rmb购入开发\n\n24s牛仔mini22bag重磅来袭🔥可拆卸长肩带款,淡淡水洗牛仔色+银色铆钉亮点设计,年轻且俏皮,铆钉设计远看像珍珠,平添几分淑女气质~\n\n\n五金:复古银扣\n皮料:   丹宁牛仔\n尺寸:20*19*6cm","specs":{"source":"wsxcme","sourceId":"_dyMyMKykzn97Nsj3LwhLNqsQoclit3PcLMKv6Nw","sourceTagId":47002745,"sourceTagName":"香奈儿/女包","dimensions":{"lengthCm":20,"heightCm":19,"widthCm":6},"rawTitle":"白金版▪️正品级 包装如图\nChanel 24s春夏新款 \n牛仔 22bag mini  灰蓝\n专柜售rmb购入开发\n\n24s牛仔mini22bag重磅来袭🔥可拆卸长肩带款,淡淡水洗牛仔色+银色铆钉亮点设计,年轻且俏皮,铆钉设计远看像珍珠,平添几分淑女气质~\n\n\n五金:复古银扣\n皮料:   丹宁牛仔\n尺寸:20*19*6cm"},"price":null,"currency":"CNY","moq":1,"category":"chanel-women-bags","status":"active","alibaba_url":null,"images":["https://xcimg.szwego.com/20240422/i1713769189_7145_0.jpg","https://xcimg.szwego.com/20240422/i1713769189_1146_1.jpg","https://xcimg.szwego.com/20240422/i1713769189_3886_2.jpg","https://xcimg.szwego.com/20240422/i1713769189_4613_3.jpg","https://xcimg.szwego.com/20240422/i1713769189_7199_4.jpg","https://xcimg.szwego.com/20240422/i1713769189_4824_5.jpg","https://xcimg.szwego.com/20240422/i1713769189_8643_6.jpg","https://xcimg.szwego.com/20240422/i1713769189_3074_7.jpg","https://xcimg.szwego.com/20240422/i1713769189_8285_8.jpg"],"created_at":"2024-05-03T07:22:12.443Z"},{"id":"item-4141f64f0acc","sku":"_dj3j3RGcc52lA8WUEZy4AfR-AjXvLwiHirLoXHg","name_en":"Chanel Women Bags","name_cn":"香奈儿/女包","specs":{"source":"wsxcme","sourceId":"_dj3j3RGcc52lA8WUEZy4AfR-AjXvLwiHirLoXHg","sourceTagId":47002745,"sourceTagName":"香奈儿/女包","rawTitle":""},"price":null,"currency":"CNY","moq":1,"category":"chanel-women-bags","status":"active","alibaba_url":null,"images":["https://xcimg.szwego.com/img/d0c94e6f/20250813/i1755087200_9195_0.jpg"],"created_at":"2025-09-19T04:32:40.105Z"},{"id":"item-4001a42ec022","sku":"_dlVlVnjxh-WP0ArremA5UPAO5Kxzbusu1ibQo9g","name_en":"Chanel Women Bags","name_cn":"现货\nCHANL❤️‍🔥❤️‍🔥时来运转系列包!众多明星追捧🤩星球圆环链条包 Chanel香奈儿地球仪星球圆环链条包!牛皮滴 chanel银色圆饼很特别一只细节满满滴设计限定秀款时髦又实用的美丽香可️手拿斜挎太爱啦尺寸📐 22x22x4cm","specs":{"source":"wsxcme","sourceId":"_dlVlVnjxh-WP0ArremA5UPAO5Kxzbusu1ibQo9g","sourceTagId":47002745,"sourceTagName":"香奈儿/女包","rawTitle":"现货\nCHANL❤️‍🔥❤️‍🔥时来运转系列包!众多明星追捧🤩星球圆环链条包 Chanel香奈儿地球仪星球圆环链条包!牛皮滴 chanel银色圆饼很特别一只细节满满滴设计限定秀款时髦又实用的美丽香可️手拿斜挎太爱啦尺寸📐 22x22x4cm"},"price":null,"currency":"CNY","moq":1,"category":"chanel-women-bags","status":"active","alibaba_url":null,"images":["https://xcimg.szwego.com/img/d0c94e6f/20240505/i1714905526_371_4.jpg","https://xcimg.szwego.com/img/d0c94e6f/20240505/i1714905526_7986_8.jpg","https://xcimg.szwego.com/img/d0c94e6f/20240505/i1714905526_9434_7.jpg","https://xcimg.szwego.com/img/d0c94e6f/20240505/i1714905526_1817_1.jpg","https://xcimg.szwego.com/img/d0c94e6f/20240505/i1714905526_181_3.jpg","https://xcimg.szwego.com/img/d0c94e6f/20240505/i1714905526_4144_5.jpg","https://xcimg.szwego.com/img/d0c94e6f/20240505/i1714905526_6682_6.jpg","https://xcimg.szwego.com/img/d0c94e6f/20240505/i1714905526_4911_0.jpg","https://xcimg.szwego.com/img/d0c94e6f/20240505/i1714905526_7246_2.jpg"],"created_at":"2025-02-10T13:58:23.275Z"},{"id":"item-3ede9e517072","sku":"_dououxS5SlTneFibT0tie-1hsMPP10jJigqte4g","name_en":"Chanel Women Bags","name_cn":"原厂皮\n小香进口意大利小羊皮【升級版】\n货号:A\n尺寸:w20×h13×d3.5cm\n颜色:酒紅細球紋金色鋼唛","specs":{"source":"wsxcme","sourceId":"_dououxS5SlTneFibT0tie-1hsMPP10jJigqte4g","sourceTagId":47002745,"sourceTagName":"香奈儿/女包","modelNumber":"A","rawTitle":"原厂皮\n小香进口意大利小羊皮【升級版】\n货号:A\n尺寸:w20×h13×d3.5cm\n颜色:酒紅細球紋金色鋼唛"},"price":null,"currency":"CNY","moq":1,"category":"chanel-women-bags","status":"active","alibaba_url":null,"images":["https://xcimg.szwego.com/img/c4e87dad/20250516/i1747400352767_8321_0_0.jpg","https://xcimg.szwego.com/img/c4e87dad/20250516/i1747400350565_9919_0_1.jpg","https://xcimg.szwego.com/img/c4e87dad/20250516/i1747400350680_9880_0_2.jpg","https://xcimg.szwego.com/img/c4e87dad/20250516/i1747400350701_2046_0_3.jpg","https://xcimg.szwego.com/img/c4e87dad/20250516/i1747400350704_5223_0_7.jpg","https://xcimg.szwego.com/img/c4e87dad/20250516/i1747400352844_3651_0_5.jpg","https://xcimg.szwego.com/img/c4e87dad/20250516/i1747400352793_7442_0_6.jpg"],"created_at":"2025-09-09T05:22:54.853Z"},{"id":"item-3c9ab82ad589","sku":"_dnrnrNOx8-FceI-zlLwSOUyISO7k8sZnbrXmLLg","name_en":"Chanel Women Bags","name_cn":"。白金版▪️正品级 包装如图\n全新到货!!️Chane1 24S春夏\nNano 31Bag 淡紫色\n专柜售价26900rmb购入开发〰️\n\nChane1“包王”全新31 Nano Size\n时尚代表作mini 31Bag重卷来袭✨\n满足了时髦精的在所期待〰️\n推出新SizeNano柔软乖巧设计感很迷人💡\n软萌的酷飒风一下子就击中了🖤\n\n五金:厚镀14K淡金\n皮料:   原厂Bonaudo油蜡羊皮\n尺寸:20*17.5*3.5 cm","specs":{"source":"wsxcme","sourceId":"_dnrnrNOx8-FceI-zlLwSOUyISO7k8sZnbrXmLLg","sourceTagId":47002745,"sourceTagName":"香奈儿/女包","dimensions":{"lengthCm":20,"heightCm":17.5,"widthCm":3.5},"rawTitle":"。白金版▪️正品级 包装如图\n全新到货!!️Chane1 24S春夏\nNano 31Bag 淡紫色\n专柜售价26900rmb购入开发〰️\n\nChane1“包王”全新31 Nano Size\n时尚代表作mini 31Bag重卷来袭✨\n满足了时髦精的在所期待〰️\n推出新SizeNano柔软乖巧设计感很迷人💡\n软萌的酷飒风一下子就击中了🖤\n\n五金:厚镀14K淡金\n皮料:   原厂Bonaudo油蜡羊皮\n尺寸:20*17.5*3.5 cm"},"price":null,"currency":"CNY","moq":1,"category":"chanel-women-bags","status":"active","alibaba_url":null,"images":["https://xcimg.szwego.com/20240430/i1714462625_124_0.jpg","https://xcimg.szwego.com/20240430/i1714462625_1544_1.jpg","https://xcimg.szwego.com/20240430/i1714462625_6346_2.jpg","https://xcimg.szwego.com/20240430/i1714462625_9339_3.jpg","https://xcimg.szwego.com/20240430/i1714462625_7207_4.jpg","https://xcimg.szwego.com/20240430/i1714462625_5815_5.jpg","https://xcimg.szwego.com/20240430/i1714462625_2489_6.jpg","https://xcimg.szwego.com/20240430/i1714462625_7894_7.jpg","https://xcimg.szwego.com/20240430/i1714462625_7829_8.jpg"],"created_at":"2024-05-03T07:19:26.874Z"},{"id":"item-3c98ad05069e","sku":"_dx2x2XK0Fsf_TMQf2ShwvKHLjceaCHRWRbguw4Q","name_en":"Chanel Women Bags","name_cn":"上身效果#3260、3261","specs":{"source":"wsxcme","sourceId":"_dx2x2XK0Fsf_TMQf2ShwvKHLjceaCHRWRbguw4Q","sourceTagId":47002745,"sourceTagName":"香奈儿/女包","rawTitle":"上身效果#3260、3261"},"price":null,"currency":"CNY","moq":1,"category":"chanel-women-bags","status":"active","alibaba_url":null,"images":["https://xcimg.szwego.com/20230226/i1677418221_2550_0.jpg","https://xcimg.szwego.com/20230226/i1677418221_23_1.jpg","https://xcimg.szwego.com/20230226/i1677418221_4216_2.jpg","https://xcimg.szwego.com/20230226/i1677418221_2654_3.jpg","https://xcimg.szwego.com/20230226/i1677418221_335_4.jpg","https://xcimg.szwego.com/20230226/i1677418221_2558_5.jpg","https://xcimg.szwego.com/20230226/i1677418221_4684_6.jpg","https://xcimg.szwego.com/20230226/i1677418221_2017_7.jpg","https://xcimg.szwego.com/20230226/i1677418221_4437_8.jpg"],"created_at":"2026-06-29T10:35:34.134Z"},{"id":"item-3ba836e5c466","sku":"_d4k4kL2yuiYKly5k1LkX0tuw4kLMLpKOF66GadQ","name_en":"Chanel Women Bags","name_cn":"香奈儿/女包","specs":{"source":"wsxcme","sourceId":"_d4k4kL2yuiYKly5k1LkX0tuw4kLMLpKOF66GadQ","sourceTagId":47002745,"sourceTagName":"香奈儿/女包","rawTitle":""},"price":null,"currency":"CNY","moq":1,"category":"chanel-women-bags","status":"active","alibaba_url":null,"images":["https://xcimg.szwego.com/img/d0c94e6f/20250806/i1754492920_5568_0.jpg"],"created_at":"2025-09-19T04:32:40.098Z"},{"id":"item-3acb68c60a6e","sku":"_dvfvfQIDk2fPIQTywHD_c0DOyWYiRbqyO4Y2Ymw","name_en":"Chanel Women Bags","name_cn":"香奈儿/女包","specs":{"source":"wsxcme","sourceId":"_dvfvfQIDk2fPIQTywHD_c0DOyWYiRbqyO4Y2Ymw","sourceTagId":47002745,"sourceTagName":"香奈儿/女包","rawTitle":""},"price":null,"currency":"CNY","moq":1,"category":"chanel-women-bags","status":"active","alibaba_url":null,"images":["https://xcimg.szwego.com/img/d0c94e6f/20250806/i1754492879_7552_0.jpg"],"created_at":"2025-09-19T04:32:40.096Z"},{"id":"item-3a9d0b17d282","sku":"_dlYlY9zkElxjyDF4Pp22bzijHwjblgfgHAlR41A","name_en":"Chanel Women Bags","name_cn":"。白金版▪️正品级 包装如图\n全新现货!!️超级火爆22Bag小号\nChane1 22bag  24s 铆钉牛仔垃圾袋\n\n今年上新的时髦点ꫛꫀꪝ\n以年份数字为命名❏\n对准它!!Chane1 22手袋〰️\"垃圾袋♥\"\n春天到了🌿牛仔单品入起来!\n一直以飒爽英姿闻名的牛仔\n在这个春夏以温柔的色调捕捉你的眼光\n赶快安排好你的丹宁风吧〰\n这草种得有点措不手及🤷‍♂️\n说垃圾袋也好 收纳袋也罢\n反正就是很对味🪄\n图片太多了实在火爆\n娱乐圈明星 超模们同款👀卷起来了!\n越看越上头呀!!\n\n五金:厚镀24k磨砂银\n皮料:水洗丹宁牛仔\n尺寸:35*37*7cm","specs":{"source":"wsxcme","sourceId":"_dlYlY9zkElxjyDF4Pp22bzijHwjblgfgHAlR41A","sourceTagId":47002745,"sourceTagName":"香奈儿/女包","dimensions":{"lengthCm":35,"heightCm":37,"widthCm":7},"rawTitle":"。白金版▪️正品级 包装如图\n全新现货!!️超级火爆22Bag小号\nChane1 22bag  24s 铆钉牛仔垃圾袋\n\n今年上新的时髦点ꫛꫀꪝ\n以年份数字为命名❏\n对准它!!Chane1 22手袋〰️\"垃圾袋♥\"\n春天到了🌿牛仔单品入起来!\n一直以飒爽英姿闻名的牛仔\n在这个春夏以温柔的色调捕捉你的眼光\n赶快安排好你的丹宁风吧〰\n这草种得有点措不手及🤷‍♂️\n说垃圾袋也好 收纳袋也罢\n反正就是很对味🪄\n图片太多了实在火爆\n娱乐圈明星 超模们同款👀卷起来了!\n越看越上头呀!!\n\n五金:厚镀24k磨砂银\n皮料:水洗丹宁牛仔\n尺寸:35*37*7cm"},"price":null,"currency":"CNY","moq":1,"category":"chanel-women-bags","status":"active","alibaba_url":null,"images":["https://xcimg.szwego.com/20240430/i1714457021_8372_0.jpg","https://xcimg.szwego.com/20240430/i1714457021_6398_1.jpg","https://xcimg.szwego.com/20240430/i1714457021_5860_2.jpg","https://xcimg.szwego.com/20240430/i1714457021_2298_3.jpg","https://xcimg.szwego.com/20240430/i1714457021_1655_4.jpg","https://xcimg.szwego.com/20240430/i1714457021_5713_5.jpg","https://xcimg.szwego.com/20240430/i1714457021_8404_6.jpg","https://xcimg.szwego.com/20240430/i1714457021_7682_7.jpg","https://xcimg.szwego.com/20240430/i1714457021_4815_8.jpg"],"created_at":"2024-05-03T07:19:26.857Z"},{"id":"item-3a0c6cbf7ab3","sku":"_dplploMcxiB9wW5PNEGtfpW7aQ8k6q2O1jrWJlA","name_en":"Chanel Women Bags","name_cn":"22手袋 黑银\n\n 原厂方框一级小牛皮👍皮质细腻有光泽,\n既柔软又耐磨,两者兼具\n简简单单的外观却藏着不少设计师的高级设计,镂空的chanel logo的金币,小小的点缀让整体气质提高了不止一个Level,满满的复古情怀,松松垮垮的慵懒感! 🍃\n\n尺寸:39*42*8cm","specs":{"source":"wsxcme","sourceId":"_dplploMcxiB9wW5PNEGtfpW7aQ8k6q2O1jrWJlA","sourceTagId":47002745,"sourceTagName":"香奈儿/女包","dimensions":{"lengthCm":39,"heightCm":42,"widthCm":8},"rawTitle":"22手袋 黑银\n\n 原厂方框一级小牛皮👍皮质细腻有光泽,\n既柔软又耐磨,两者兼具\n简简单单的外观却藏着不少设计师的高级设计,镂空的chanel logo的金币,小小的点缀让整体气质提高了不止一个Level,满满的复古情怀,松松垮垮的慵懒感! 🍃\n\n尺寸:39*42*8cm"},"price":null,"currency":"CNY","moq":1,"category":"chanel-women-bags","status":"active","alibaba_url":null,"images":["https://xcimg.szwego.com/20230626/i1687787764_972_0.jpg","https://xcimg.szwego.com/20230626/i1687787764_5621_1.jpg","https://xcimg.szwego.com/20230626/i1687787764_7927_2.jpg","https://xcimg.szwego.com/20230626/i1687787764_4630_3.jpg"],"created_at":"2024-05-01T03:19:54.442Z"},{"id":"item-3801e8e978c7","sku":"_dwfwflVfgaUj7Ghlujv-u3U0r5iTR1fnHDYw8rA","name_en":"Chanel Women Bags","name_cn":"香奈儿/女包","specs":{"source":"wsxcme","sourceId":"_dwfwflVfgaUj7Ghlujv-u3U0r5iTR1fnHDYw8rA","sourceTagId":47002745,"sourceTagName":"香奈儿/女包","rawTitle":""},"price":null,"currency":"CNY","moq":1,"category":"chanel-women-bags","status":"active","alibaba_url":null,"images":["https://xcimg.szwego.com/img/d0c94e6f/20250828/i1756387922_2481_0.jpg"],"created_at":"2025-09-19T04:32:40.120Z"},{"id":"item-37ff19b4b5cf","sku":"_drNrNBJ9Ra0_LwvLyyJwpdVycA1U0KKT6tTRGOw","name_en":"Chanel Women Bags","name_cn":"白金版▪️正品级 包装如图\nChanel CF小号 杏色\n全名Classic Fla0 \n尺寸:Small 23*14.5*6cm\n皮料:原厂Haas细球鱼子酱\n五金:24K浅金电镀 \n\n经典的CF就是有着让人一见倾心的魅力,走到哪里都是移动的高雅标签,纯白色散发着文雅娴淑的女神范儿,搭配金扣精致奢华,堪称人手一见的奢侈品入门之选哦~","specs":{"source":"wsxcme","sourceId":"_drNrNBJ9Ra0_LwvLyyJwpdVycA1U0KKT6tTRGOw","sourceTagId":47002745,"sourceTagName":"香奈儿/女包","rawTitle":"白金版▪️正品级 包装如图\nChanel CF小号 杏色\n全名Classic Fla0 \n尺寸:Small 23*14.5*6cm\n皮料:原厂Haas细球鱼子酱\n五金:24K浅金电镀 \n\n经典的CF就是有着让人一见倾心的魅力,走到哪里都是移动的高雅标签,纯白色散发着文雅娴淑的女神范儿,搭配金扣精致奢华,堪称人手一见的奢侈品入门之选哦~"},"price":null,"currency":"CNY","moq":1,"category":"chanel-women-bags","status":"active","alibaba_url":null,"images":["https://xcimg.szwego.com/20230529/i1685339036_3688_0.jpg","https://xcimg.szwego.com/20230529/i1685339036_4430_1.jpg","https://xcimg.szwego.com/20230529/i1685339036_9700_2.jpg","https://xcimg.szwego.com/20230529/i1685339036_5684_3.jpg","https://xcimg.szwego.com/20230529/i1685339036_4356_4.jpg","https://xcimg.szwego.com/20230529/i1685339036_564_5.jpg","https://xcimg.szwego.com/20230529/i1685339036_1890_6.jpg","https://xcimg.szwego.com/20230529/i1685339036_8758_7.jpg","https://xcimg.szwego.com/20230529/i1685339036_9478_8.jpg"],"created_at":"2024-05-01T03:19:54.381Z"},{"id":"item-36931661b853","sku":"_dMqMqB6O95-FFGD34vzyicHoVjvnqbogXkhB25A","name_en":"Chanel Women Bags","name_cn":"白金版▪️正品级 包装如图\nChane1 23S春夏系列\n山茶花调节扣大mini 白色\n专柜售价41300rmb购入开发〰️\n\n23s山茶花调节扣链条口盖包\n具备cf的元素造型有着性感迷人的气质。\n设计方面更加优雅大方啦❕\n可️腋下、斜挎、单肩一包多用,很受欢迎哦👏🏻\n\n五金:全铜24K复古金\n皮料:   开料部zp小羊皮\n尺寸:13*20*7 cm","specs":{"source":"wsxcme","sourceId":"_dMqMqB6O95-FFGD34vzyicHoVjvnqbogXkhB25A","sourceTagId":47002745,"sourceTagName":"香奈儿/女包","dimensions":{"lengthCm":13,"heightCm":20,"widthCm":7},"rawTitle":"白金版▪️正品级 包装如图\nChane1 23S春夏系列\n山茶花调节扣大mini 白色\n专柜售价41300rmb购入开发〰️\n\n23s山茶花调节扣链条口盖包\n具备cf的元素造型有着性感迷人的气质。\n设计方面更加优雅大方啦❕\n可️腋下、斜挎、单肩一包多用,很受欢迎哦👏🏻\n\n五金:全铜24K复古金\n皮料:   开料部zp小羊皮\n尺寸:13*20*7 cm"},"price":null,"currency":"CNY","moq":1,"category":"chanel-women-bags","status":"active","alibaba_url":null,"images":["https://xcimg.szwego.com/20230529/i1685339792_8269_0.jpg","https://xcimg.szwego.com/20230529/i1685339792_6756_1.jpg","https://xcimg.szwego.com/20230529/i1685339792_5786_2.jpg","https://xcimg.szwego.com/20230529/i1685339792_2231_3.jpg","https://xcimg.szwego.com/20230529/i1685339792_7839_4.jpg","https://xcimg.szwego.com/20230529/i1685339792_132_5.jpg","https://xcimg.szwego.com/20230529/i1685339792_6824_6.jpg","https://xcimg.szwego.com/20230529/i1685339792_6660_7.jpg","https://xcimg.szwego.com/20230529/i1685339792_4440_8.jpg"],"created_at":"2024-05-01T03:19:54.373Z"},{"id":"item-358643b4bb69","sku":"_duvuvkAENNv4NXamKGtKbtPtuKF6krDzSuEFLOw","name_en":"Chanel Women Bags","name_cn":"上身效果#5293","specs":{"source":"wsxcme","sourceId":"_duvuvkAENNv4NXamKGtKbtPtuKF6krDzSuEFLOw","sourceTagId":47002745,"sourceTagName":"香奈儿/女包","rawTitle":"上身效果#5293"},"price":null,"currency":"CNY","moq":1,"category":"chanel-women-bags","status":"active","alibaba_url":null,"images":["https://xcimg.szwego.com/img/2a2a0253/20250314/i1741928307979_8738_0_0.jpg","https://xcimg.szwego.com/img/2a2a0253/20250314/i1741928307974_2184_0_1.jpg","https://xcimg.szwego.com/img/2a2a0253/20250314/i1741928307688_8023_0_2.jpg","https://xcimg.szwego.com/img/2a2a0253/20250314/i1741928307688_876_0_3.jpg","https://xcimg.szwego.com/img/2a2a0253/20250314/i1741928307690_4954_0_4.jpg","https://xcimg.szwego.com/img/2a2a0253/20250314/i1741928307975_1577_0_5.jpg","https://xcimg.szwego.com/img/2a2a0253/20250314/i1741928307977_1905_0_6.jpg","https://xcimg.szwego.com/img/2a2a0253/20250314/i1741928307978_2768_0_7.jpg","https://xcimg.szwego.com/img/2a2a0253/20250314/i1741928307688_2433_0_8.jpg","https://xcimg.szwego.com/img/2a2a0253/20250314/i1741928307726_6053_0_9.jpg","https://xcimg.szwego.com/img/2a2a0253/20250319/i1742359820583_3710_0_10.jpg","https://xcimg.szwego.com/img/2a2a0253/20250319/i1742359820584_7241_0_11.jpg","https://xcimg.szwego.com/img/2a2a0253/20250319/i1742359820584_3387_0_12.jpg","https://xcimg.szwego.com/img/2a2a0253/20250319/i1742359889711_9176_0_13.jpg","https://xcimg.szwego.com/img/2a2a0253/20250319/i1742359889904_4065_0_14.jpg","https://xcimg.szwego.com/img/2a2a0253/20250319/i1742359889711_6081_0_15.jpg"],"created_at":"2026-06-29T10:35:34.284Z"},{"id":"item-311c66048e2c","sku":"_drKrKyGM-lCUDb0TYg98Bfqnnqoa85XzEc9sqUw","name_en":"Chanel Women Bags","name_cn":"黑色","specs":{"source":"wsxcme","sourceId":"_drKrKyGM-lCUDb0TYg98Bfqnnqoa85XzEc9sqUw","sourceTagId":47002745,"sourceTagName":"香奈儿/女包","rawTitle":"黑色"},"price":null,"currency":"CNY","moq":1,"category":"chanel-women-bags","status":"active","alibaba_url":null,"images":["https://xcimg.szwego.com/img/8e603200/20240711/i1720633593_6949_0.jpg","https://xcimg.szwego.com/img/8e603200/20240711/i1720633593_497_0.jpg","https://xcimg.szwego.com/img/8e603200/20240711/i1720633592_8673_0.jpg","https://xcimg.szwego.com/img/8e603200/20240711/i1720633592_7680_0.jpg","https://xcimg.szwego.com/img/8e603200/20240711/i1720633593_5286_0.jpg","https://xcimg.szwego.com/img/8e603200/20240711/i1720633592_9549_0.jpg","https://xcimg.szwego.com/img/8e603200/20240721/i1721559122_4816_0.jpg","https://xcimg.szwego.com/img/8e603200/20240721/i1721559123_4061_0.jpg","https://xcimg.szwego.com/img/8e603200/20240721/i1721559112_1079_0.jpg"],"created_at":"2024-11-26T11:47:21.470Z"},{"id":"item-303a038ef86a","sku":"_dytyt3rgo3ef13-SnTtITC_o4rsx-OusuyWNfQQ","name_en":"Chanel Women Bags","name_cn":"原厂皮\n小香进口意大利小羊皮【升級版】\n货号:A\n尺寸:w20×h13×d3.5cm\n颜色:黑色羊皮金色鋼唛","specs":{"source":"wsxcme","sourceId":"_dytyt3rgo3ef13-SnTtITC_o4rsx-OusuyWNfQQ","sourceTagId":47002745,"sourceTagName":"香奈儿/女包","modelNumber":"A","rawTitle":"原厂皮\n小香进口意大利小羊皮【升級版】\n货号:A\n尺寸:w20×h13×d3.5cm\n颜色:黑色羊皮金色鋼唛"},"price":null,"currency":"CNY","moq":1,"category":"chanel-women-bags","status":"active","alibaba_url":null,"images":["https://xcimg.szwego.com/img/c4e87dad/20250407/i1744014142626_1838_0_0.jpg","https://xcimg.szwego.com/img/c4e87dad/20250407/i1744014142463_947_0_4.jpg","https://xcimg.szwego.com/img/c4e87dad/20250407/i1744014144402_3833_0_5.jpg","https://xcimg.szwego.com/img/c4e87dad/20250407/i1744014144360_5747_0_6.jpg","https://xcimg.szwego.com/img/c4e87dad/20250407/i1744014144344_2052_0_7.jpg","https://xcimg.szwego.com/img/c4e87dad/20250407/i1744014144396_4314_0_8.jpg"],"created_at":"2025-09-09T05:22:54.847Z"},{"id":"item-300a9f5e242d","sku":"_dxExE30EgXbrRtekfM8PqdQ6o_4kPr5rKMjCbsw","name_en":"Chanel Women Bags","name_cn":"白金版▪️正品级 包装如图\nChane1新品24P 早春系列\n黑金荔枝皮mini双肩包小书包\n专柜货售价34800rmb购入~\n\n可手提可单肩斜挎\n 一包多用 背法多种\n可爱精致 适合小个子女生~\n\n皮料:  原厂小球牛皮\n五金:厚镀14K淡金扣\n尺寸:13*18*9cm\n3753","specs":{"source":"wsxcme","sourceId":"_dxExE30EgXbrRtekfM8PqdQ6o_4kPr5rKMjCbsw","sourceTagId":47002745,"sourceTagName":"香奈儿/女包","dimensions":{"lengthCm":13,"heightCm":18,"widthCm":9},"rawTitle":"白金版▪️正品级 包装如图\nChane1新品24P 早春系列\n黑金荔枝皮mini双肩包小书包\n专柜货售价34800rmb购入~\n\n可手提可单肩斜挎\n 一包多用 背法多种\n可爱精致 适合小个子女生~\n\n皮料:  原厂小球牛皮\n五金:厚镀14K淡金扣\n尺寸:13*18*9cm\n3753"},"price":null,"currency":"CNY","moq":1,"category":"chanel-women-bags","status":"active","alibaba_url":null,"images":["https://xcimg.szwego.com/20240527/i1716793618_7574_0.jpg","https://xcimg.szwego.com/20240527/i1716793618_6_1.jpg","https://xcimg.szwego.com/20240527/i1716793618_8128_2.jpg","https://xcimg.szwego.com/20240527/i1716793618_6667_3.jpg","https://xcimg.szwego.com/20240527/i1716793618_3526_4.jpg","https://xcimg.szwego.com/20240527/i1716793618_3291_5.jpg","https://xcimg.szwego.com/20240527/i1716793618_3731_6.jpg","https://xcimg.szwego.com/20240527/i1716793618_397_7.jpg","https://xcimg.szwego.com/20240527/i1716793618_587_8.jpg"],"created_at":"2025-06-16T09:47:58.337Z"},{"id":"item-2f63a224a4a9","sku":"_deCeC4hYdd6WLkeTRvI1nxvJHMmk8r-WjucHiGw","name_en":"Chanel Women Bags","name_cn":"正品级,高版本\n这款微型Toujours竖版手袋是二零二五秋季成衣系列新品,时尚实用。采用黑色牛皮革精心制作,饰以超大藤格纹缉面线,宽敞的内部隔层可收纳各种日常用品。设有纤细皮革系带开合,可安全收纳各种物品,另有浅金色饰面金属CD Lock字母 D旋钮式扣环,可调节两侧,提升格调。顶部皮革手柄搭配可拆卸的皮革肩带,可手提、肩背或斜挎。\n\n型号2834\n尺寸13×15×12cm","specs":{"source":"wsxcme","sourceId":"_deCeC4hYdd6WLkeTRvI1nxvJHMmk8r-WjucHiGw","sourceTagId":47002745,"sourceTagName":"香奈儿/女包","modelNumber":"2834","dimensions":{"lengthCm":13,"heightCm":15,"widthCm":12},"rawTitle":"正品级,高版本\n这款微型Toujours竖版手袋是二零二五秋季成衣系列新品,时尚实用。采用黑色牛皮革精心制作,饰以超大藤格纹缉面线,宽敞的内部隔层可收纳各种日常用品。设有纤细皮革系带开合,可安全收纳各种物品,另有浅金色饰面金属CD Lock字母 D旋钮式扣环,可调节两侧,提升格调。顶部皮革手柄搭配可拆卸的皮革肩带,可手提、肩背或斜挎。\n\n型号2834\n尺寸13×15×12cm"},"price":null,"currency":"CNY","moq":1,"category":"chanel-women-bags","status":"active","alibaba_url":null,"images":["https://xcimg.szwego.com/img/ec683d96/20250417/i1744825770_1752_2.jpg","https://xcimg.szwego.com/img/ec683d96/20250417/i1744825771_8955_8.jpg","https://xcimg.szwego.com/img/ec683d96/20250417/i1744825770_4679_3.jpg","https://xcimg.szwego.com/img/ec683d96/20250417/i1744825771_5449_6.jpg","https://xcimg.szwego.com/img/ec683d96/20250417/i1744825770_5565_1.jpg","https://xcimg.szwego.com/img/ec683d96/20250417/i1744825770_9361_0.jpg","https://xcimg.szwego.com/img/ec683d96/20250417/i1744825771_1095_7.jpg","https://xcimg.szwego.com/img/ec683d96/20250417/i1744825771_5388_5.jpg","https://xcimg.szwego.com/img/ec683d96/20250417/i1744825771_6436_4.jpg"],"created_at":"2025-09-09T05:24:53.933Z"},{"id":"item-2efbb85e53fd","sku":"_d_c_cPPYsAX0Ogvhst_NwuxSGJmvKgVewq4FFtg","name_en":"Chanel Women Bags","name_cn":"原厂皮\n小香进口意大利小羊皮【升級版】\n货号:A\n尺寸:w20×h13×d3.5cm\n颜色:淺紫細球紋金色鋼唛","specs":{"source":"wsxcme","sourceId":"_d_c_cPPYsAX0Ogvhst_NwuxSGJmvKgVewq4FFtg","sourceTagId":47002745,"sourceTagName":"香奈儿/女包","modelNumber":"A","rawTitle":"原厂皮\n小香进口意大利小羊皮【升級版】\n货号:A\n尺寸:w20×h13×d3.5cm\n颜色:淺紫細球紋金色鋼唛"},"price":null,"currency":"CNY","moq":1,"category":"chanel-women-bags","status":"active","alibaba_url":null,"images":["https://xcimg.szwego.com/img/c4e87dad/20250516/i1747400498171_2110_0_0.jpg","https://xcimg.szwego.com/img/c4e87dad/20250516/i1747400496292_9662_0_1.jpg","https://xcimg.szwego.com/img/c4e87dad/20250516/i1747400496301_2633_0_2.jpg","https://xcimg.szwego.com/img/c4e87dad/20250516/i1747400496172_597_0_3.jpg","https://xcimg.szwego.com/img/c4e87dad/20250516/i1747400496197_7265_0_4.jpg","https://xcimg.szwego.com/img/c4e87dad/20250516/i1747400496247_4018_0_6.jpg","https://xcimg.szwego.com/img/c4e87dad/20250516/i1747400498159_4724_0_7.jpg"],"created_at":"2025-09-09T05:22:54.854Z"},{"id":"item-2e60e04c4830","sku":"_diAiAZ9zPbkBtXFSIAQyzgtx6kFUHdUJzgSdn3A","name_en":"Chanel Women Bags","name_cn":"香奈儿/女包","specs":{"source":"wsxcme","sourceId":"_diAiAZ9zPbkBtXFSIAQyzgtx6kFUHdUJzgSdn3A","sourceTagId":47002745,"sourceTagName":"香奈儿/女包","rawTitle":""},"price":null,"currency":"CNY","moq":1,"category":"chanel-women-bags","status":"active","alibaba_url":null,"images":["https://xcimg.szwego.com/img/d0c94e6f/20250823/i1755879996_8080_0.jpg"],"created_at":"2025-09-19T04:32:40.093Z"},{"id":"item-2cb0cb8be2c3","sku":"_dmemegQO__0mI6dsuLLK8lWpVhrO4kkFRddCKlA","name_en":"Chanel Women Bags","name_cn":"🆕 22手袋 \n新颜色小号黑金\n\n 原厂方框小牛皮👍皮质细腻有光泽,\n既柔软又耐磨,两者兼具\n简简单单的外观却藏着不少设计师的高级设计,镂空的chanel logo的金币,小小的点缀让整体气质提高了不止一个Level,满满的复古情怀,松松垮垮的慵懒感! 🍃\n\n尺寸:35*37*7cm","specs":{"source":"wsxcme","sourceId":"_dmemegQO__0mI6dsuLLK8lWpVhrO4kkFRddCKlA","sourceTagId":47002745,"sourceTagName":"香奈儿/女包","dimensions":{"lengthCm":35,"heightCm":37,"widthCm":7},"rawTitle":"🆕 22手袋 \n新颜色小号黑金\n\n 原厂方框小牛皮👍皮质细腻有光泽,\n既柔软又耐磨,两者兼具\n简简单单的外观却藏着不少设计师的高级设计,镂空的chanel logo的金币,小小的点缀让整体气质提高了不止一个Level,满满的复古情怀,松松垮垮的慵懒感! 🍃\n\n尺寸:35*37*7cm"},"price":null,"currency":"CNY","moq":1,"category":"chanel-women-bags","status":"active","alibaba_url":null,"images":["https://xcimg.szwego.com/20230626/i1687788171_4975_0.jpg","https://xcimg.szwego.com/20230626/i1687788171_4920_2.jpg","https://xcimg.szwego.com/20230626/i1687788171_3287_3.jpg","https://xcimg.szwego.com/img/1ea81fa8/20250107/i1736231179532_828_0_3.jpg","https://xcimg.szwego.com/img/1ea81fa8/20250107/i1736231179421_4811_0_4.jpg","https://xcimg.szwego.com/img/1ea81fa8/20250107/i1736231179417_4747_0_5.jpg","https://xcimg.szwego.com/img/1ea81fa8/20250107/i1736231179345_1885_0_6.jpg","https://xcimg.szwego.com/img/1ea81fa8/20250107/i1736231179475_1003_0_7.jpg","https://xcimg.szwego.com/img/1ea81fa8/20250107/i1736231179413_503_0_8.jpg"],"created_at":"2025-01-20T12:26:10.905Z"},{"id":"item-2c80ea5d80ef","sku":"_dmsmszX0BQdEtm-Lagena0bM8joJiffctwBYAqg","name_en":"Chanel Women Bags","name_cn":"原厂皮\n25c牛皮嘻哈包\n香奈儿 chanel hobo 腋下包 嬉皮腋下包小号\n复古金币纽扣抽绳水桶包+菱格纹+复古黑金\n经典链条设计,高级感十足!日常出行必备,外观精美,质感细腻,无论休闲装还是正式场合都能轻松驾驭\n款号AS5293\n尺寸30-26-14. \n​","specs":{"source":"wsxcme","sourceId":"_dmsmszX0BQdEtm-Lagena0bM8joJiffctwBYAqg","sourceTagId":47002745,"sourceTagName":"香奈儿/女包","modelNumber":"AS5293","rawTitle":"原厂皮\n25c牛皮嘻哈包\n香奈儿 chanel hobo 腋下包 嬉皮腋下包小号\n复古金币纽扣抽绳水桶包+菱格纹+复古黑金\n经典链条设计,高级感十足!日常出行必备,外观精美,质感细腻,无论休闲装还是正式场合都能轻松驾驭\n款号AS5293\n尺寸30-26-14. \n​"},"price":null,"currency":"CNY","moq":1,"category":"chanel-women-bags","status":"active","alibaba_url":null,"images":["https://xcimg.szwego.com/img/65f6763f/20250318/i1742270999_3886_4.jpg","https://xcimg.szwego.com/img/65f6763f/20250318/i1742270999_8181_6.jpg","https://xcimg.szwego.com/img/65f6763f/20250318/i1742270998_5916_1.jpg","https://xcimg.szwego.com/img/65f6763f/20250318/i1742270999_1304_3.jpg","https://xcimg.szwego.com/img/65f6763f/20250318/i1742270999_4506_2.jpg","https://xcimg.szwego.com/img/65f6763f/20250318/i1742270999_3784_5.jpg","https://xcimg.szwego.com/img/65f6763f/20250318/i1742270999_7559_8.jpg","https://xcimg.szwego.com/img/65f6763f/20250318/i1742270999_8828_7.jpg","https://xcimg.szwego.com/img/65f6763f/20250318/i1742270998_1879_0.jpg"],"created_at":"2025-09-09T05:17:44.463Z"},{"id":"item-2af87e97b9af","sku":"_dJeJeHXx5rkpiJ27PvrmC27bS0m6eKQ0URMAFMA","name_en":"Chanel Women Bags","name_cn":"3261 中号上身图实拍","specs":{"source":"wsxcme","sourceId":"_dJeJeHXx5rkpiJ27PvrmC27bS0m6eKQ0URMAFMA","sourceTagId":47002745,"sourceTagName":"香奈儿/女包","rawTitle":"3261 中号上身图实拍"},"price":null,"currency":"CNY","moq":1,"category":"chanel-women-bags","status":"active","alibaba_url":null,"images":["https://xcimg.szwego.com/img/4072b1f8/20240913/i1726183755_8668_0.jpg","https://xcimg.szwego.com/img/4072b1f8/20240913/i1726183755_9911_4.jpg","https://xcimg.szwego.com/img/4072b1f8/20240913/i1726183755_8651_5.jpg","https://xcimg.szwego.com/img/4072b1f8/20240913/i1726183755_7009_3.jpg","https://xcimg.szwego.com/img/4072b1f8/20240913/i1726183755_2416_1.jpg","https://xcimg.szwego.com/img/4072b1f8/20240913/i1726183755_103_2.jpg"],"created_at":"2024-09-24T07:45:17.267Z"},{"id":"item-2ae6960c440f","sku":"_d-p-pr4kuSaiv1dimMLrDtDhHIELo0Y0tcrTNgQ","name_en":"Chanel Women Bags","name_cn":"香奈儿/女包","specs":{"source":"wsxcme","sourceId":"_d-p-pr4kuSaiv1dimMLrDtDhHIELo0Y0tcrTNgQ","sourceTagId":47002745,"sourceTagName":"香奈儿/女包","rawTitle":""},"price":null,"currency":"CNY","moq":1,"category":"chanel-women-bags","status":"active","alibaba_url":null,"images":["https://xcimg.szwego.com/img/d0c94e6f/20250112/i1736689948_7473_0.jpg","https://xcimg.szwego.com/img/d0c94e6f/20250112/i1736689953_2165_0.jpg","https://xcimg.szwego.com/img/d0c94e6f/20250112/i1736689949_2472_6.jpg","https://xcimg.szwego.com/img/d0c94e6f/20250112/i1736689948_3144_1.jpg","https://xcimg.szwego.com/img/d0c94e6f/20250112/i1736689954_179_0.jpg","https://xcimg.szwego.com/img/d0c94e6f/20250112/i1736689948_4336_4.jpg","https://xcimg.szwego.com/img/d0c94e6f/20250112/i1736689949_1067_7.jpg","https://xcimg.szwego.com/img/d0c94e6f/20250112/i1736689948_1444_2.jpg","https://xcimg.szwego.com/img/d0c94e6f/20250112/i1736689953_5214_0.jpg"],"created_at":"2025-01-21T03:18:13.044Z"}],"page":269,"pageSize":24,"total":10075,"totalPages":420}
