{"items":[{"id":"item-1bd9209bb110","sku":"_dlPlPYCfesBE4Q8xAz3BxK-JuO3YAPGhDHAmO7A","name_en":"Gucci Women Bags","name_cn":"】\nGG Emblem系列小号肩背包\n2025秋冬系列, 全新GG Emblem系列焕新诠释品牌的隽永优雅风范和精湛工艺。设计精心搭配链式肩带,并随附可调节皮革肩带。\n型号:847448\n颜色:棕色压印全皮\n尺寸:20.5x13x7cm","specs":{"source":"wsxcme","sourceId":"_dlPlPYCfesBE4Q8xAz3BxK-JuO3YAPGhDHAmO7A","sourceTagId":47002679,"sourceTagName":"古驰/女包","modelNumber":"847448","dimensions":{"lengthCm":20.5,"heightCm":13,"widthCm":7},"rawTitle":"】\nGG Emblem系列小号肩背包\n2025秋冬系列, 全新GG Emblem系列焕新诠释品牌的隽永优雅风范和精湛工艺。设计精心搭配链式肩带,并随附可调节皮革肩带。\n型号:847448\n颜色:棕色压印全皮\n尺寸:20.5x13x7cm"},"price":null,"currency":"CNY","moq":1,"category":"gucci-women-bags","status":"active","alibaba_url":null,"images":["https://xcimg.szwego.com/img/dace2ca2/20250801/a1754019537583_3560.jpg","https://xcimg.szwego.com/img/dace2ca2/20250801/a1754019537611_7205.jpg","https://xcimg.szwego.com/img/dace2ca2/20250801/a1754019537606_6455.jpg","https://xcimg.szwego.com/img/dace2ca2/20250801/a1754019537600_6433.jpg","https://xcimg.szwego.com/img/dace2ca2/20250801/a1754019537610_1487.jpg","https://xcimg.szwego.com/img/dace2ca2/20250801/a1754019544928_7807.jpg","https://xcimg.szwego.com/img/dace2ca2/20250801/a1754019544930_3703.jpg","https://xcimg.szwego.com/img/dace2ca2/20250801/a1754019544930_3846.jpg","https://xcimg.szwego.com/img/dace2ca2/20250801/a1754019544929_6574.jpg"],"created_at":"2025-08-03T05:52:03.704Z"},{"id":"item-19ce6f817393","sku":"_di9i9NrRipxzpzAxbmgnZAbwSDjto5MSFqSQusA","name_en":"Gucci Women Bags","name_cn":"型号 781402\n尺寸 23/21/12cm \n\nGucci Ophidia hobo腋下包\n今天的气场是hobo给的!!!\n这个包真的非常融入日常,随性又时髦\n包身容量很大但又轻便小巧能很好的满足日常出门\n而且肩带比一般的腋下包都长一些还可以调节\n一见钟情,时髦使用同时兼顾!","specs":{"source":"wsxcme","sourceId":"_di9i9NrRipxzpzAxbmgnZAbwSDjto5MSFqSQusA","sourceTagId":47002679,"sourceTagName":"古驰/女包","modelNumber":"781402","rawTitle":"型号 781402\n尺寸 23/21/12cm \n\nGucci Ophidia hobo腋下包\n今天的气场是hobo给的!!!\n这个包真的非常融入日常,随性又时髦\n包身容量很大但又轻便小巧能很好的满足日常出门\n而且肩带比一般的腋下包都长一些还可以调节\n一见钟情,时髦使用同时兼顾!"},"price":null,"currency":"CNY","moq":1,"category":"gucci-women-bags","status":"active","alibaba_url":null,"images":["https://xcimg.szwego.com/img/d06f5dea/20240702/i1719894894_4520_5.jpg","https://xcimg.szwego.com/img/d06f5dea/20240702/i1719894894_1597_3.jpg","https://xcimg.szwego.com/img/d06f5dea/20240702/i1719894903_8860_0.jpg","https://xcimg.szwego.com/img/d06f5dea/20240702/i1719894894_9862_0.jpg","https://xcimg.szwego.com/img/d06f5dea/20240702/i1719894894_2296_1.jpg","https://xcimg.szwego.com/img/d06f5dea/20240702/i1719894894_8645_6.jpg","https://xcimg.szwego.com/img/d06f5dea/20240702/i1719894894_3775_7.jpg","https://xcimg.szwego.com/img/d06f5dea/20240702/i1719894894_9819_8.jpg","https://xcimg.szwego.com/img/d06f5dea/20240702/i1719894894_7144_2.jpg"],"created_at":"2026-05-20T03:19:23.318Z"},{"id":"item-1921ccb3ba13","sku":"_dgKgKeN6OzBrRCvxxe-TTGwjFWUGvToyd6b2aSw","name_en":"Gucci Women Bags","name_cn":"🔥官网参考\n\n型号:782849  尺寸:27.5x19x4cm","specs":{"source":"wsxcme","sourceId":"_dgKgKeN6OzBrRCvxxe-TTGwjFWUGvToyd6b2aSw","sourceTagId":47002679,"sourceTagName":"古驰/女包","modelNumber":"782849  尺寸:27.5x19x4cm","dimensions":{"lengthCm":27.5,"heightCm":19,"widthCm":4},"rawTitle":"🔥官网参考\n\n型号:782849  尺寸:27.5x19x4cm"},"price":null,"currency":"CNY","moq":1,"category":"gucci-women-bags","status":"active","alibaba_url":null,"images":["https://xcimg.szwego.com/img/dace2ca2/20241106/a1730899224036_4618.jpg","https://xcimg.szwego.com/img/dace2ca2/20241106/a1730899224023_7174.jpg","https://xcimg.szwego.com/img/dace2ca2/20241106/a1730899224035_7855.jpg","https://xcimg.szwego.com/img/dace2ca2/20241106/a1730899224033_3018.jpg","https://xcimg.szwego.com/img/dace2ca2/20241106/a1730899224024_8123.jpg","https://xcimg.szwego.com/img/dace2ca2/20241106/a1730899224026_2258.jpg","https://xcimg.szwego.com/img/dace2ca2/20241106/a1730899225063_2112.jpg","https://xcimg.szwego.com/img/dace2ca2/20241106/a1730899225062_6436.jpg"],"created_at":"2025-03-29T13:24:08.768Z"},{"id":"item-191fed1ca6da","sku":"_dQuQurxFQ0pwhxkEaBaymQFSnKEtH5eRR8wk8Mw","name_en":"Gucci Women Bags","name_cn":"【独家背景】实物实拍品质 款号:479197啡克 🌊🌊尺寸35✖️23✖️14","specs":{"source":"wsxcme","sourceId":"_dQuQurxFQ0pwhxkEaBaymQFSnKEtH5eRR8wk8Mw","sourceTagId":47002679,"sourceTagName":"古驰/女包","modelNumber":"479197啡克 🌊🌊尺寸35✖️23✖️14","rawTitle":"【独家背景】实物实拍品质 款号:479197啡克 🌊🌊尺寸35✖️23✖️14"},"price":null,"currency":"CNY","moq":1,"category":"gucci-women-bags","status":"active","alibaba_url":null,"images":["https://xcimg.szwego.com/img/ac9333ee/20250824/i1756018546526_6952_0_0.jpg","https://xcimg.szwego.com/img/ac9333ee/20250824/i1756018546676_3807_0_1.jpg","https://xcimg.szwego.com/img/ac9333ee/20250824/i1756018545155_2917_0_2.jpg","https://xcimg.szwego.com/img/ac9333ee/20250824/i1756018545395_336_0_3.jpg","https://xcimg.szwego.com/img/ac9333ee/20250824/i1756018545360_1356_0_4.jpg","https://xcimg.szwego.com/img/ac9333ee/20250824/i1756018545192_6985_0_5.jpg","https://xcimg.szwego.com/img/ac9333ee/20250824/i1756018545370_9556_0_6.jpg","https://xcimg.szwego.com/img/ac9333ee/20250824/i1756018546639_5186_0_7.jpg","https://xcimg.szwego.com/img/ac9333ee/20250824/i1756018546672_5678_0_8.jpg"],"created_at":"2026-06-29T11:04:23.234Z"},{"id":"item-12f113b558ee","sku":"_dJxJxZxPDPwIPq282sn6s4cTXj5asI9Ma8Td7RQ","name_en":"Gucci Women Bags","name_cn":"✅ 时尚百搭利器~ \n🖤黑色","specs":{"source":"wsxcme","sourceId":"_dJxJxZxPDPwIPq282sn6s4cTXj5asI9Ma8Td7RQ","sourceTagId":47002679,"sourceTagName":"古驰/女包","rawTitle":"✅ 时尚百搭利器~ \n🖤黑色"},"price":null,"currency":"CNY","moq":1,"category":"gucci-women-bags","status":"active","alibaba_url":null,"images":["https://xcimg.szwego.com/img/7f9d4644/20260130/i1769753630090_3607_0_0.jpg","https://xcimg.szwego.com/img/7f9d4644/20260130/i1769753630548_3215_0_1.jpg","https://xcimg.szwego.com/img/7f9d4644/20260130/i1769753630089_6522_0_2.jpg","https://xcimg.szwego.com/img/7f9d4644/20260130/i1769753630546_5780_0_3.jpg","https://xcimg.szwego.com/img/7f9d4644/20260130/i1769753630545_8920_0_4.jpg","https://xcimg.szwego.com/img/7f9d4644/20260130/i1769753630090_9876_0_5.jpg","https://xcimg.szwego.com/img/7f9d4644/20260130/i1769753630089_5217_0_6.jpg","https://xcimg.szwego.com/img/7f9d4644/20260130/i1769753630547_1542_0_7.jpg","https://xcimg.szwego.com/img/7f9d4644/20260130/i1769753630090_1435_0_8.jpg"],"created_at":"2026-05-20T03:19:23.568Z"},{"id":"item-1185856d18c5","sku":"_doKoKhYDf8G1FtFwy5vwtCJcw_uxCcB8v1EusSQ","name_en":"Gucci Women Bags","name_cn":"【顶级原单】🔥皮全套包装\n双G代表 长期以来对重塑和重新利用经典廓形作出的不懈努力。同色调双G配件谱写摩登叙事,典藏元素在这款GGMarmont系列V型绗缝皮革腰包上以焕新之姿巧妙呈现。\n材质✨采用专柜质感,天然饱满颗粒进口牛皮,与对版正品打磨垌五金。\n尺寸12x12.5x7cm 型号739599","specs":{"source":"wsxcme","sourceId":"_doKoKhYDf8G1FtFwy5vwtCJcw_uxCcB8v1EusSQ","sourceTagId":47002679,"sourceTagName":"古驰/女包","modelNumber":"739599","dimensions":{"lengthCm":12,"heightCm":12.5,"widthCm":7},"rawTitle":"【顶级原单】🔥皮全套包装\n双G代表 长期以来对重塑和重新利用经典廓形作出的不懈努力。同色调双G配件谱写摩登叙事,典藏元素在这款GGMarmont系列V型绗缝皮革腰包上以焕新之姿巧妙呈现。\n材质✨采用专柜质感,天然饱满颗粒进口牛皮,与对版正品打磨垌五金。\n尺寸12x12.5x7cm 型号739599"},"price":null,"currency":"CNY","moq":1,"category":"gucci-women-bags","status":"active","alibaba_url":null,"images":["https://xcimg.szwego.com/20230415/i1681507157_3260_0.jpg","https://xcimg.szwego.com/20230415/i1681507157_7060_1.jpg","https://xcimg.szwego.com/20230415/i1681507157_3540_2.jpg","https://xcimg.szwego.com/20230415/i1681507157_6919_3.jpg","https://xcimg.szwego.com/20230415/i1681507157_8041_4.jpg","https://xcimg.szwego.com/20230415/i1681507157_3448_5.jpg","https://xcimg.szwego.com/20230415/i1681507157_5751_6.jpg","https://xcimg.szwego.com/20230415/i1681507157_7084_7.jpg","https://xcimg.szwego.com/20230415/i1681507157_2756_8.jpg"],"created_at":"2024-10-20T11:19:56.212Z"},{"id":"item-1021aa0ba211","sku":"_dHQHQud_pQOtrb1n-FLVK7tkPqo17MVhDmCUA3A","name_en":"Gucci Women Bags","name_cn":"实拍#       只做头层皮 真牛皮\n\n款号:308364深棕\n尺寸:21x15x7cm\n\nGG disco soho相机包. 经典永不会过时\n浮雕双G配上皮革流苏.头层牛皮 超级软\n斜挎✅单肩✅手拿✅","specs":{"source":"wsxcme","sourceId":"_dHQHQud_pQOtrb1n-FLVK7tkPqo17MVhDmCUA3A","sourceTagId":47002679,"sourceTagName":"古驰/女包","modelNumber":"308364深棕","dimensions":{"lengthCm":21,"heightCm":15,"widthCm":7},"rawTitle":"实拍#       只做头层皮 真牛皮\n\n款号:308364深棕\n尺寸:21x15x7cm\n\nGG disco soho相机包. 经典永不会过时\n浮雕双G配上皮革流苏.头层牛皮 超级软\n斜挎✅单肩✅手拿✅"},"price":null,"currency":"CNY","moq":1,"category":"gucci-women-bags","status":"active","alibaba_url":null,"images":["https://xcimg.szwego.com/20221027/i1666863808_4752_0.jpg","https://xcimg.szwego.com/20221027/i1666863808_7693_1.jpg","https://xcimg.szwego.com/20221027/i1666863808_8476_2.jpg","https://xcimg.szwego.com/20221027/i1666863808_1142_3.jpg","https://xcimg.szwego.com/20221027/i1666863808_5266_4.jpg","https://xcimg.szwego.com/20221027/i1666863808_5892_5.jpg","https://xcimg.szwego.com/20221027/i1666863808_586_6.jpg","https://xcimg.szwego.com/20221027/i1666863808_8701_7.jpg"],"created_at":"2024-11-26T11:46:47.167Z"},{"id":"item-0c9286099c86","sku":"_dv-v-jF6AylDttS6KYC090oOfKvqXBCwsTFFuXA","name_en":"Gucci Women Bags","name_cn":"【原厂皮 】 自带高级感 \n 上一季就火遍时尚圈的GG Marmont 今年风头依然不减 新出的Mini系列\n将复古与华丽演绎的淋漓尽致 可爱爆棚😱型号:547260  尺寸:21*15*8cm","specs":{"source":"wsxcme","sourceId":"_dv-v-jF6AylDttS6KYC090oOfKvqXBCwsTFFuXA","sourceTagId":47002679,"sourceTagName":"古驰/女包","modelNumber":"547260  尺寸:21*15*8cm","dimensions":{"lengthCm":21,"heightCm":15,"widthCm":8},"rawTitle":"【原厂皮 】 自带高级感 \n 上一季就火遍时尚圈的GG Marmont 今年风头依然不减 新出的Mini系列\n将复古与华丽演绎的淋漓尽致 可爱爆棚😱型号:547260  尺寸:21*15*8cm"},"price":null,"currency":"CNY","moq":1,"category":"gucci-women-bags","status":"active","alibaba_url":null,"images":["https://xcimg.szwego.com/20220508/i1651943707_6227_0.jpg","https://xcimg.szwego.com/20220508/i1651943707_7543_1.jpg","https://xcimg.szwego.com/20220508/i1651943707_2784_2.jpg","https://xcimg.szwego.com/20220508/i1651943707_6490_3.jpg","https://xcimg.szwego.com/20220508/i1651943707_5853_4.jpg","https://xcimg.szwego.com/20220508/i1651943707_1080_7.jpg","https://xcimg.szwego.com/20220508/i1651943707_9210_5.jpg","https://xcimg.szwego.com/20220508/i1651943707_5943_6.jpg","https://xcimg.szwego.com/20220508/i1651943792_9623_0.jpg"],"created_at":"2024-10-20T11:19:56.244Z"},{"id":"item-0b9f009a57fb","sku":"_dbsbsbT36mJnUhywuJ3p5VJqCefe7l1DXfaUE0w","name_en":"Gucci Women Bags","name_cn":"【原厂皮 】 大货🔥 自带高级感 \n 🔥配包装上一季就火遍时尚圈的GG Marmont 今年风头依然不减 新出的Mini系列\n将复古与华丽演绎的淋漓尽致 可爱爆棚😱型号:547260  尺寸:21*15*8cm","specs":{"source":"wsxcme","sourceId":"_dbsbsbT36mJnUhywuJ3p5VJqCefe7l1DXfaUE0w","sourceTagId":47002679,"sourceTagName":"古驰/女包","modelNumber":"547260  尺寸:21*15*8cm","dimensions":{"lengthCm":21,"heightCm":15,"widthCm":8},"rawTitle":"【原厂皮 】 大货🔥 自带高级感 \n 🔥配包装上一季就火遍时尚圈的GG Marmont 今年风头依然不减 新出的Mini系列\n将复古与华丽演绎的淋漓尽致 可爱爆棚😱型号:547260  尺寸:21*15*8cm"},"price":null,"currency":"CNY","moq":1,"category":"gucci-women-bags","status":"active","alibaba_url":null,"images":["https://xcimg.szwego.com/20230507/i1683399450_9589_7.jpg","https://xcimg.szwego.com/20230507/i1683399450_4476_0.jpg","https://xcimg.szwego.com/20230507/i1683399450_1081_3.jpg","https://xcimg.szwego.com/20230507/i1683399450_3768_4.jpg","https://xcimg.szwego.com/20230507/i1683399450_87_1.jpg","https://xcimg.szwego.com/20230507/i1683399450_6988_2.jpg","https://xcimg.szwego.com/20230507/i1683399450_8855_5.jpg","https://xcimg.szwego.com/20230507/i1683399450_9876_8.jpg","https://xcimg.szwego.com/20230507/i1683399450_3420_6.jpg"],"created_at":"2024-10-20T11:19:56.247Z"},{"id":"item-094fad289fe5","sku":"_dzuzuY4sofvFAfyEcftFmNaniMCoTXnSiyqoGrA","name_en":"Gucci Women Bags","name_cn":"原厂皮👜配包装# \n🔥Marmont菱格原厂皮#\n全新Tote购物袋 ,整个包身下血本都用了原厂牛皮❗️袋口处加了锁扣设计更加有安全感,原厂皮质质感好到爆. 立体棱格绣花在灯光下让整个包活跃了起来,上身太好驾驭 不挑身高,也是全球打人必备的百搭单品!\n\n▫️型号681483\n▫️尺寸 26.5*19*11cm","specs":{"source":"wsxcme","sourceId":"_dzuzuY4sofvFAfyEcftFmNaniMCoTXnSiyqoGrA","sourceTagId":47002679,"sourceTagName":"古驰/女包","modelNumber":"681483","dimensions":{"lengthCm":26.5,"heightCm":19,"widthCm":11},"rawTitle":"原厂皮👜配包装# \n🔥Marmont菱格原厂皮#\n全新Tote购物袋 ,整个包身下血本都用了原厂牛皮❗️袋口处加了锁扣设计更加有安全感,原厂皮质质感好到爆. 立体棱格绣花在灯光下让整个包活跃了起来,上身太好驾驭 不挑身高,也是全球打人必备的百搭单品!\n\n▫️型号681483\n▫️尺寸 26.5*19*11cm"},"price":null,"currency":"CNY","moq":1,"category":"gucci-women-bags","status":"active","alibaba_url":null,"images":["https://xcimg.szwego.com/20211013/i1634105304_1453_0.jpg","https://xcimg.szwego.com/20211013/i1634105304_4140_1.jpg","https://xcimg.szwego.com/20211013/i1634105304_5031_2.jpg","https://xcimg.szwego.com/20211013/i1634105304_4482_3.jpg","https://xcimg.szwego.com/20211013/i1634105304_2163_4.jpg","https://xcimg.szwego.com/20211013/i1634105304_1069_5.jpg","https://xcimg.szwego.com/20211013/i1634105304_2950_6.jpg","https://xcimg.szwego.com/20211013/i1634105304_5609_7.jpg","https://xcimg.szwego.com/20211013/i1634105304_2973_8.jpg"],"created_at":"2024-10-20T11:19:56.248Z"},{"id":"item-0947d6b40b6e","sku":"_dUTUTXSozqcDZpvcH_HGiKMmZuBPuOpRFMOYHHQ","name_en":"Gucci Women Bags","name_cn":"【独家背景】实物实拍🌹🌹原厂品质 款号:781392啡棕  🌊🌊尺寸34✖️32✖️17","specs":{"source":"wsxcme","sourceId":"_dUTUTXSozqcDZpvcH_HGiKMmZuBPuOpRFMOYHHQ","sourceTagId":47002679,"sourceTagName":"古驰/女包","modelNumber":"781392啡棕  🌊🌊尺寸34✖️32✖️17","rawTitle":"【独家背景】实物实拍🌹🌹原厂品质 款号:781392啡棕  🌊🌊尺寸34✖️32✖️17"},"price":null,"currency":"CNY","moq":1,"category":"gucci-women-bags","status":"active","alibaba_url":null,"images":["https://xcimg.szwego.com/img/ac9333ee/20260127/i1769491481095_6008_0_0.jpg","https://xcimg.szwego.com/img/ac9333ee/20260127/i1769491480218_4895_0_1.jpg","https://xcimg.szwego.com/img/ac9333ee/20260127/i1769491480154_2095_0_2.jpg","https://xcimg.szwego.com/img/ac9333ee/20260127/i1769491481144_8289_0_3.jpg","https://xcimg.szwego.com/img/ac9333ee/20260127/i1769491481189_5947_0_4.jpg","https://xcimg.szwego.com/img/ac9333ee/20260127/i1769491480177_7427_0_5.jpg","https://xcimg.szwego.com/img/ac9333ee/20260127/i1769491480142_7273_0_6.jpg","https://xcimg.szwego.com/img/ac9333ee/20260127/i1769491481132_2130_0_7.jpg","https://xcimg.szwego.com/img/ac9333ee/20260127/i1769491481141_809_0_8.jpg","https://xcimg.szwego.com/img/ac9333ee/20260127/i1769491480235_5778_0_9.jpg"],"created_at":"2026-06-29T11:04:23.254Z"},{"id":"item-0941e7f0491c","sku":"_d9A9Au-iI8OlhSYm0MANAJEeqXMaLAUXuMhoUSw","name_en":"Gucci Women Bags","name_cn":"。💖《配全套原厂绿色包装》💖\nG家新款简介:沉浸在复古情怀之中Ophidia家族迎来了新的成员——中号手提包方正的造型让人联想到复古的设计GG高级人造帆布材质点缀红绿织带等品牌最富特色的经典元素体现出对品牌马术本源的致敬Ophidia Web \n型号:503877。\n尺寸:26*17*8cm。\n颜色:棕色/pvc。","specs":{"source":"wsxcme","sourceId":"_d9A9Au-iI8OlhSYm0MANAJEeqXMaLAUXuMhoUSw","sourceTagId":47002679,"sourceTagName":"古驰/女包","modelNumber":"503877","dimensions":{"lengthCm":26,"heightCm":17,"widthCm":8},"rawTitle":"。💖《配全套原厂绿色包装》💖\nG家新款简介:沉浸在复古情怀之中Ophidia家族迎来了新的成员——中号手提包方正的造型让人联想到复古的设计GG高级人造帆布材质点缀红绿织带等品牌最富特色的经典元素体现出对品牌马术本源的致敬Ophidia Web \n型号:503877。\n尺寸:26*17*8cm。\n颜色:棕色/pvc。"},"price":null,"currency":"CNY","moq":1,"category":"gucci-women-bags","status":"active","alibaba_url":null,"images":["https://xcimg.szwego.com/20210627/i1624802898_9769_0.jpg","https://xcimg.szwego.com/20210627/i1624802898_6418_1.jpg","https://xcimg.szwego.com/20210627/i1624802898_4412_2.jpg","https://xcimg.szwego.com/20210627/i1624802898_448_3.jpg","https://xcimg.szwego.com/20210627/i1624802898_7344_4.jpg","https://xcimg.szwego.com/20210627/i1624802898_8306_5.jpg","https://xcimg.szwego.com/20210627/i1624802898_526_6.jpg","https://xcimg.szwego.com/20210627/i1624802898_7184_7.jpg","https://xcimg.szwego.com/20210627/i1624802898_6377_8.jpg"],"created_at":"2024-05-01T03:19:15.941Z"},{"id":"item-317a1514d81e","sku":"_dJKJKyFDb1MzEHb5gpbnyA29rcsH_Ljc0urAyaw","name_en":"Gucci新款水桶包大小都给友友们上身啦","name_cn":"Gucci新款水桶包大小都给友友们上身啦\n简单大方又百搭,肩带还可以调节的哦🌝","specs":{"source":"wsxcme","sourceId":"_dJKJKyFDb1MzEHb5gpbnyA29rcsH_Ljc0urAyaw","sourceTagId":47002679,"sourceTagName":"古驰/女包","rawTitle":"Gucci新款水桶包大小都给友友们上身啦\n简单大方又百搭,肩带还可以调节的哦🌝"},"price":null,"currency":"CNY","moq":1,"category":"gucci-women-bags","status":"active","alibaba_url":null,"images":["https://xcimg.szwego.com/img/7f9d4644/20240319/i1710830824_9501_2.jpg","https://xcimg.szwego.com/img/7f9d4644/20240319/i1710830824_2867_1.jpg","https://xcimg.szwego.com/img/7f9d4644/20240319/i1710830908_1224_0.jpg","https://xcimg.szwego.com/img/7f9d4644/20240319/i1710830824_1248_0.jpg"],"created_at":"2026-06-29T11:04:23.774Z"},{"id":"item-8d7c42114c2e","sku":"_dwZwZ5ln0lFFTRX31UffkUs1SGtr-pBMwZGDtuQ","name_en":"GUCCI新款专柜品质,顶级原单货,实物实拍,款号443497克皮克五金,尺寸:W26x15.5x6cm","name_cn":"GUCCI新款专柜品质,顶级原单货,实物实拍,款号443497克皮克五金,尺寸:W26x15.5x6cm","specs":{"source":"wsxcme","sourceId":"_dwZwZ5ln0lFFTRX31UffkUs1SGtr-pBMwZGDtuQ","sourceTagId":47002679,"sourceTagName":"古驰/女包","modelNumber":"443497克皮克五金","rawTitle":"GUCCI新款专柜品质,顶级原单货,实物实拍,款号443497克皮克五金,尺寸:W26x15.5x6cm"},"price":null,"currency":"CNY","moq":1,"category":"gucci-women-bags","status":"active","alibaba_url":null,"images":["https://xcimg.szwego.com/20220520/i1653055790_9980_0.jpg","https://xcimg.szwego.com/20220520/i1653055790_9404_1.jpg","https://xcimg.szwego.com/20220520/i1653055790_336_2.jpg","https://xcimg.szwego.com/20220520/i1653055790_508_3.jpg","https://xcimg.szwego.com/20220520/i1653055790_5024_4.jpg","https://xcimg.szwego.com/20220520/i1653055790_5515_5.jpg","https://xcimg.szwego.com/20220520/i1653055790_63_6.jpg","https://xcimg.szwego.com/20220520/i1653055790_9768_7.jpg","https://xcimg.szwego.com/20220520/i1653055790_1753_8.jpg"],"created_at":"2026-06-29T11:04:23.714Z"},{"id":"item-11a6881e9ea3","sku":"_dt6t65lurANcTXTEOhrqjIaC0B-86pgK5Ziy_RA","name_en":"GUCCI新款专柜品质,顶级原单货,实物实拍!443497焦糖,尺寸:宽26x高15x侧宽7,","name_cn":"GUCCI新款专柜品质,顶级原单货,实物实拍!443497焦糖,尺寸:宽26x高15x侧宽7,","specs":{"source":"wsxcme","sourceId":"_dt6t65lurANcTXTEOhrqjIaC0B-86pgK5Ziy_RA","sourceTagId":47002679,"sourceTagName":"古驰/女包","rawTitle":"GUCCI新款专柜品质,顶级原单货,实物实拍!443497焦糖,尺寸:宽26x高15x侧宽7,"},"price":null,"currency":"CNY","moq":1,"category":"gucci-women-bags","status":"active","alibaba_url":null,"images":["https://xcimg.szwego.com/20210115/i1610640826_3496_0.jpg","https://xcimg.szwego.com/20210115/i1610640826_610_1.jpg","https://xcimg.szwego.com/20210115/i1610640826_3116_2.jpg","https://xcimg.szwego.com/20210115/i1610640826_2083_3.jpg","https://xcimg.szwego.com/20210115/i1610640826_4422_4.jpg","https://xcimg.szwego.com/20210115/i1610640826_2689_5.jpg","https://xcimg.szwego.com/20210115/i1610640826_9057_6.jpg","https://xcimg.szwego.com/20210115/i1610640826_1584_7.jpg","https://xcimg.szwego.com/20210115/i1610640826_8208_8.jpg"],"created_at":"2026-06-29T11:04:23.764Z"},{"id":"item-10cdcb9ebe28","sku":"_dopopEZO-5kkCwYQ37ecqPUCLZh-zA9Bw8DQq9Q","name_en":"GUCCI新款专柜品质,原单货,实物实拍!款号453188克压花全皮🎈🎈🎈尺寸:宽28X高19X侧宽11,🎉🎉🎉出货啦!","name_cn":"GUCCI新款专柜品质,原单货,实物实拍!款号453188克压花全皮🎈🎈🎈尺寸:宽28X高19X侧宽11,🎉🎉🎉出货啦!","specs":{"source":"wsxcme","sourceId":"_dopopEZO-5kkCwYQ37ecqPUCLZh-zA9Bw8DQq9Q","sourceTagId":47002679,"sourceTagName":"古驰/女包","modelNumber":"453188克压花全皮🎈🎈🎈尺寸:宽28X高19X侧宽11","rawTitle":"GUCCI新款专柜品质,原单货,实物实拍!款号453188克压花全皮🎈🎈🎈尺寸:宽28X高19X侧宽11,🎉🎉🎉出货啦!"},"price":null,"currency":"CNY","moq":1,"category":"gucci-women-bags","status":"active","alibaba_url":null,"images":["https://xcimg.szwego.com/20210416/i1618583692_1357_0.jpg","https://xcimg.szwego.com/20210416/i1618583692_6953_1.jpg","https://xcimg.szwego.com/20210416/i1618583692_3124_2.jpg","https://xcimg.szwego.com/20210416/i1618583692_215_3.jpg","https://xcimg.szwego.com/20210416/i1618583692_5556_4.jpg","https://xcimg.szwego.com/20210416/i1618583692_9821_5.jpg","https://xcimg.szwego.com/20210416/i1618583692_9231_6.jpg","https://xcimg.szwego.com/20210416/i1618583692_3612_7.jpg","https://xcimg.szwego.com/20210416/i1618583692_4487_8.jpg"],"created_at":"2024-05-03T05:18:22.157Z"},{"id":"item-b7fdc76df903","sku":"_dkCkCsPpf5ZKEcj2gR6hkmGqbRKGb4k9xoomCGw","name_en":"GUCCI新款专柜品质,原单货,实物实拍!款号636706酒红🎈🎈🎈尺寸:宽28X高19X侧宽4.5,🎉🎉🎉出货啦!","name_cn":"GUCCI新款专柜品质,原单货,实物实拍!款号636706酒红🎈🎈🎈尺寸:宽28X高19X侧宽4.5,🎉🎉🎉出货啦!","specs":{"source":"wsxcme","sourceId":"_dkCkCsPpf5ZKEcj2gR6hkmGqbRKGb4k9xoomCGw","sourceTagId":47002679,"sourceTagName":"古驰/女包","modelNumber":"636706酒红🎈🎈🎈尺寸:宽28X高19X侧宽4.5","rawTitle":"GUCCI新款专柜品质,原单货,实物实拍!款号636706酒红🎈🎈🎈尺寸:宽28X高19X侧宽4.5,🎉🎉🎉出货啦!"},"price":null,"currency":"CNY","moq":1,"category":"gucci-women-bags","status":"active","alibaba_url":null,"images":["https://xcimg.szwego.com/20211012/i1633975960_1084_0.jpg","https://xcimg.szwego.com/20211012/i1633975960_171_1.jpg","https://xcimg.szwego.com/20211012/i1633975960_24_2.jpg","https://xcimg.szwego.com/20211012/i1633975960_1417_3.jpg","https://xcimg.szwego.com/20211012/i1633975960_5625_4.jpg","https://xcimg.szwego.com/20211012/i1633975960_6586_5.jpg","https://xcimg.szwego.com/20211012/i1633975960_6116_6.jpg","https://xcimg.szwego.com/20211012/i1633975960_9134_7.jpg","https://xcimg.szwego.com/20211012/i1633975960_9200_8.jpg"],"created_at":"2024-05-03T05:18:22.158Z"},{"id":"item-b533404cebd8","sku":"_dnSnS23lpYrSuWrNfzALyafgV-kM1Z6bKoGqs5w","name_en":"GUCCI新款专柜品质,原单货,实物实拍!款号636706牛仔布🎈🎈🎈尺寸:宽28X高19X侧宽4.5,🎉🎉🎉出货啦!","name_cn":"GUCCI新款专柜品质,原单货,实物实拍!款号636706牛仔布🎈🎈🎈尺寸:宽28X高19X侧宽4.5,🎉🎉🎉出货啦!","specs":{"source":"wsxcme","sourceId":"_dnSnS23lpYrSuWrNfzALyafgV-kM1Z6bKoGqs5w","sourceTagId":47002679,"sourceTagName":"古驰/女包","modelNumber":"636706牛仔布🎈🎈🎈尺寸:宽28X高19X侧宽4.5","rawTitle":"GUCCI新款专柜品质,原单货,实物实拍!款号636706牛仔布🎈🎈🎈尺寸:宽28X高19X侧宽4.5,🎉🎉🎉出货啦!"},"price":null,"currency":"CNY","moq":1,"category":"gucci-women-bags","status":"active","alibaba_url":null,"images":["https://xcimg.szwego.com/20210410/i1618067095_1807_0.jpg","https://xcimg.szwego.com/20210410/i1618067095_2670_1.jpg","https://xcimg.szwego.com/20210410/i1618067095_7144_2.jpg","https://xcimg.szwego.com/20210410/i1618067095_5541_3.jpg","https://xcimg.szwego.com/20210410/i1618067095_4123_4.jpg","https://xcimg.szwego.com/20210410/i1618067095_3554_5.jpg","https://xcimg.szwego.com/20210410/i1618067095_5686_6.jpg","https://xcimg.szwego.com/20210410/i1618067095_5100_7.jpg","https://xcimg.szwego.com/20210410/i1618067095_6192_8.jpg"],"created_at":"2024-05-03T05:18:22.160Z"},{"id":"item-cadf96814269","sku":"_dnnnnEv5s7b9AjnH2skPZMqEWOXAOU35P1jzSPw","name_en":"GUCCI新款专柜品质,原单货,实物实拍!款号637092牛仔布🎈🎈🎈尺寸:宽19X高13X侧宽3,🎉🎉🎉出货啦!","name_cn":"GUCCI新款专柜品质,原单货,实物实拍!款号637092牛仔布🎈🎈🎈尺寸:宽19X高13X侧宽3,🎉🎉🎉出货啦!","specs":{"source":"wsxcme","sourceId":"_dnnnnEv5s7b9AjnH2skPZMqEWOXAOU35P1jzSPw","sourceTagId":47002679,"sourceTagName":"古驰/女包","modelNumber":"637092牛仔布🎈🎈🎈尺寸:宽19X高13X侧宽3","rawTitle":"GUCCI新款专柜品质,原单货,实物实拍!款号637092牛仔布🎈🎈🎈尺寸:宽19X高13X侧宽3,🎉🎉🎉出货啦!"},"price":null,"currency":"CNY","moq":1,"category":"gucci-women-bags","status":"active","alibaba_url":null,"images":["https://xcimg.szwego.com/20210406/i1617721181_7380_0.jpg","https://xcimg.szwego.com/20210406/i1617721181_5029_1.jpg","https://xcimg.szwego.com/20210406/i1617721181_5391_2.jpg","https://xcimg.szwego.com/20210406/i1617721181_7754_3.jpg","https://xcimg.szwego.com/20210406/i1617721181_319_4.jpg","https://xcimg.szwego.com/20210406/i1617721181_5438_5.jpg","https://xcimg.szwego.com/20210406/i1617721181_3452_6.jpg","https://xcimg.szwego.com/20210406/i1617721181_3608_7.jpg","https://xcimg.szwego.com/20210406/i1617721181_8753_8.jpg"],"created_at":"2024-05-17T04:25:09.554Z"},{"id":"item-a702724ed82d","sku":"_dq0q0E12b_WaSK-BEU-iTzKy0tn83esO50EDITw","name_en":"GUCCI新款专柜品质,原单货,实物实拍!款号658574牛仔布🎈🎈🎈尺寸:宽20.5X高14.5X侧宽5,🎉🎉🎉出货啦!","name_cn":"GUCCI新款专柜品质,原单货,实物实拍!款号658574牛仔布🎈🎈🎈尺寸:宽20.5X高14.5X侧宽5,🎉🎉🎉出货啦!","specs":{"source":"wsxcme","sourceId":"_dq0q0E12b_WaSK-BEU-iTzKy0tn83esO50EDITw","sourceTagId":47002679,"sourceTagName":"古驰/女包","modelNumber":"658574牛仔布🎈🎈🎈尺寸:宽20.5X高14.5X侧宽5","rawTitle":"GUCCI新款专柜品质,原单货,实物实拍!款号658574牛仔布🎈🎈🎈尺寸:宽20.5X高14.5X侧宽5,🎉🎉🎉出货啦!"},"price":null,"currency":"CNY","moq":1,"category":"gucci-women-bags","status":"active","alibaba_url":null,"images":["https://xcimg.szwego.com/20210710/i1625865599_4958_0.jpg","https://xcimg.szwego.com/20210710/i1625865599_6799_1.jpg","https://xcimg.szwego.com/20210710/i1625865599_8656_2.jpg","https://xcimg.szwego.com/20210710/i1625865599_6363_3.jpg","https://xcimg.szwego.com/20210710/i1625865599_4443_4.jpg","https://xcimg.szwego.com/20210710/i1625865599_4173_5.jpg","https://xcimg.szwego.com/20210710/i1625865599_6140_7.jpg","https://xcimg.szwego.com/20210710/i1625865599_5235_8.jpg","https://xcimg.szwego.com/20210710/i1625865605_9059_0.jpg"],"created_at":"2024-05-03T05:18:22.159Z"},{"id":"item-8a6239980c5f","sku":"_dbQbQ4gKdUGv9X3M2WuUVTgJJY5Mtuq9gqnBGTg","name_en":"GUCCI专柜品质,顶级原单货,实物实拍,款号443497酒红,尺寸:宽26x高15x深7cm。","name_cn":"GUCCI专柜品质,顶级原单货,实物实拍,款号443497酒红,尺寸:宽26x高15x深7cm。","specs":{"source":"wsxcme","sourceId":"_dbQbQ4gKdUGv9X3M2WuUVTgJJY5Mtuq9gqnBGTg","sourceTagId":47002679,"sourceTagName":"古驰/女包","modelNumber":"443497酒红","rawTitle":"GUCCI专柜品质,顶级原单货,实物实拍,款号443497酒红,尺寸:宽26x高15x深7cm。"},"price":null,"currency":"CNY","moq":1,"category":"gucci-women-bags","status":"active","alibaba_url":null,"images":["https://xcimg.szwego.com/img/545dbde1/20240515/i1715780332_980_8.jpg","https://xcimg.szwego.com/img/545dbde1/20240515/i1715780332_7928_9.jpg","https://xcimg.szwego.com/img/545dbde1/20240515/i1715780332_8552_3.jpg","https://xcimg.szwego.com/img/545dbde1/20240515/i1715780332_3096_4.jpg","https://xcimg.szwego.com/img/545dbde1/20240515/i1715780332_3320_7.jpg","https://xcimg.szwego.com/img/545dbde1/20240515/i1715780332_1010_0.jpg","https://xcimg.szwego.com/img/545dbde1/20240515/i1715780332_6106_11.jpg","https://xcimg.szwego.com/img/545dbde1/20240515/i1715780332_6297_2.jpg","https://xcimg.szwego.com/img/545dbde1/20240515/i1715780332_5935_1.jpg","https://xcimg.szwego.com/img/545dbde1/20240515/i1715780332_269_6.jpg","https://xcimg.szwego.com/img/545dbde1/20240515/i1715780332_1815_10.jpg","https://xcimg.szwego.com/img/545dbde1/20240515/i1715780332_9102_5.jpg"],"created_at":"2026-06-29T11:04:23.754Z"},{"id":"item-ed72d131e1f9","sku":"_dyNyNxFj9z9Ey0yiaoev7nRDK4vxuuQHJZekpkQ","name_en":"GUCCI最新爆款,专柜品质,顶级原单货,实物实拍,款号:443497白色,尺寸:宽26x高15x侧宽7,","name_cn":"GUCCI最新爆款,专柜品质,顶级原单货,实物实拍,款号:443497白色,尺寸:宽26x高15x侧宽7,","specs":{"source":"wsxcme","sourceId":"_dyNyNxFj9z9Ey0yiaoev7nRDK4vxuuQHJZekpkQ","sourceTagId":47002679,"sourceTagName":"古驰/女包","modelNumber":"443497白色","rawTitle":"GUCCI最新爆款,专柜品质,顶级原单货,实物实拍,款号:443497白色,尺寸:宽26x高15x侧宽7,"},"price":null,"currency":"CNY","moq":1,"category":"gucci-women-bags","status":"active","alibaba_url":null,"images":["https://xcimg.szwego.com/20201126/i1606400657_7420_0.jpg","https://xcimg.szwego.com/20201126/i1606400657_5796_1.jpg","https://xcimg.szwego.com/20201126/i1606400657_716_2.jpg","https://xcimg.szwego.com/20201126/i1606400657_3561_3.jpg","https://xcimg.szwego.com/20201126/i1606400657_5565_4.jpg","https://xcimg.szwego.com/20201126/i1606400657_3514_5.jpg","https://xcimg.szwego.com/20201126/i1606400657_383_6.jpg","https://xcimg.szwego.com/20201126/i1606400657_4048_7.jpg","https://xcimg.szwego.com/20201126/i1606400657_810_8.jpg"],"created_at":"2026-06-29T11:04:23.734Z"},{"id":"item-bb09d3e7d705","sku":"_dJJJJWUiy0MdE8ueGIAdz_h8zHhrm7xMI8f11FA","name_en":"GUCCI最新爆款,专柜品质,顶级原单货,实物实拍,款号:443497克色,尺寸:宽26x高15x侧宽7,","name_cn":"GUCCI最新爆款,专柜品质,顶级原单货,实物实拍,款号:443497克色,尺寸:宽26x高15x侧宽7,","specs":{"source":"wsxcme","sourceId":"_dJJJJWUiy0MdE8ueGIAdz_h8zHhrm7xMI8f11FA","sourceTagId":47002679,"sourceTagName":"古驰/女包","modelNumber":"443497克色","rawTitle":"GUCCI最新爆款,专柜品质,顶级原单货,实物实拍,款号:443497克色,尺寸:宽26x高15x侧宽7,"},"price":null,"currency":"CNY","moq":1,"category":"gucci-women-bags","status":"active","alibaba_url":null,"images":["https://xcimg.szwego.com/20201118/i1605712381_6227_0.jpg","https://xcimg.szwego.com/20201118/i1605712381_1776_1.jpg","https://xcimg.szwego.com/20201118/i1605712381_3612_2.jpg","https://xcimg.szwego.com/20201118/i1605712381_3458_3.jpg","https://xcimg.szwego.com/20201118/i1605712381_1976_4.jpg","https://xcimg.szwego.com/20201118/i1605712381_1130_5.jpg","https://xcimg.szwego.com/20201118/i1605712381_5824_6.jpg","https://xcimg.szwego.com/20201118/i1605712381_577_7.jpg","https://xcimg.szwego.com/20201118/i1605712381_9745_8.jpg"],"created_at":"2026-06-29T11:04:23.724Z"},{"id":"item-0380e4f7f570","sku":"_dKKKKNj1GpXE63Nk0nSnLZJ5QhtQFDBIlb4aPww","name_en":"GUCCI最新爆款,专柜品质,顶级原单货,实物实拍,款号:443497奶茶,尺寸:宽26x高15x侧宽7,","name_cn":"GUCCI最新爆款,专柜品质,顶级原单货,实物实拍,款号:443497奶茶,尺寸:宽26x高15x侧宽7,","specs":{"source":"wsxcme","sourceId":"_dKKKKNj1GpXE63Nk0nSnLZJ5QhtQFDBIlb4aPww","sourceTagId":47002679,"sourceTagName":"古驰/女包","modelNumber":"443497奶茶","rawTitle":"GUCCI最新爆款,专柜品质,顶级原单货,实物实拍,款号:443497奶茶,尺寸:宽26x高15x侧宽7,"},"price":null,"currency":"CNY","moq":1,"category":"gucci-women-bags","status":"active","alibaba_url":null,"images":["https://xcimg.szwego.com/20201128/i1606574268_3125_0.jpg","https://xcimg.szwego.com/20201128/i1606574268_6183_1.jpg","https://xcimg.szwego.com/20201128/i1606574268_4117_2.jpg","https://xcimg.szwego.com/20201128/i1606574268_8463_3.jpg","https://xcimg.szwego.com/20201128/i1606574268_7402_4.jpg","https://xcimg.szwego.com/20201128/i1606574268_7035_5.jpg","https://xcimg.szwego.com/20201128/i1606574268_1164_6.jpg","https://xcimg.szwego.com/20201128/i1606574268_4940_7.jpg","https://xcimg.szwego.com/20201128/i1606574268_1704_8.jpg"],"created_at":"2026-06-29T11:04:23.744Z"}],"page":324,"pageSize":24,"total":10075,"totalPages":420}
