{"items":[{"id":"item-51ad2f497f97","sku":"_dq2q2_8atstfryxLg8UIANra3KRgHCRZBuH37jA","name_en":"✨Chanel✨New Arrival🔥Model 2012, quilted calfskin single-zip wallet inside and out 💃Black with snake skin, multiple card slots 💫Super soft texture..💖💖Classic and timeless, size 19.5*10.5.💃","name_cn":"✨Chanel✨New Arrival🔥Model 2012, quilted calfskin single-zip wallet inside and out 💃Black with snake skin, multiple card slots 💫Super soft texture..💖💖Classic and timeless, size 19.5*10.5.💃","specs":{"source":"wsxcme","sourceId":"_dq2q2_8atstfryxLg8UIANra3KRgHCRZBuH37jA","sourceTagId":47002663,"sourceTagName":"length","modelNumber":"2012","rawTitle":"✨Chanel✨New Arrival🔥Model 2012, quilted calfskin single-zip wallet inside and out 💃Black with snake skin, multiple card slots 💫Super soft texture..💖💖Classic and timeless, size 19.5*10.5.💃"},"price":null,"currency":"CNY","moq":1,"category":"women-wallets","status":"active","alibaba_url":null,"images":["https://xcimg.szwego.com/img/edc8246d/20241004/i1728017550_8373_5.jpg","https://xcimg.szwego.com/img/edc8246d/20241004/i1728017550_8373_4.jpg","https://xcimg.szwego.com/img/edc8246d/20241004/i1728017549_4158_0.jpg","https://xcimg.szwego.com/img/edc8246d/20241004/i1728017550_1955_3.jpg","https://xcimg.szwego.com/img/edc8246d/20241004/i1728017550_2513_7.jpg","https://xcimg.szwego.com/img/edc8246d/20241004/i1728017550_972_2.jpg","https://xcimg.szwego.com/img/edc8246d/20241004/i1728017550_4788_8.jpg","https://xcimg.szwego.com/img/edc8246d/20241004/i1728017549_2779_1.jpg","https://xcimg.szwego.com/img/edc8246d/20241004/i1728017550_5211_6.jpg"],"created_at":"2025-01-20T13:02:58.448Z"},{"id":"item-61d566526797","sku":"_dmbmbfhNuvN8MTSzsjZ63r1gR7DEvFzbwkjtBWA","name_en":"✨Chanel✨New Arrival🔥Model 2012, quilted calfskin single-zip wallet inside and out 💃Black with white, multiple card slots 💫Super soft texture..💖💖Classic and timeless, size 19.5*10.5.💃","name_cn":"✨Chanel✨New Arrival🔥Model 2012, quilted calfskin single-zip wallet inside and out 💃Black with white, multiple card slots 💫Super soft texture..💖💖Classic and timeless, size 19.5*10.5.💃","specs":{"source":"wsxcme","sourceId":"_dmbmbfhNuvN8MTSzsjZ63r1gR7DEvFzbwkjtBWA","sourceTagId":47002663,"sourceTagName":"length","modelNumber":"2012","rawTitle":"✨Chanel✨New Arrival🔥Model 2012, quilted calfskin single-zip wallet inside and out 💃Black with white, multiple card slots 💫Super soft texture..💖💖Classic and timeless, size 19.5*10.5.💃"},"price":null,"currency":"CNY","moq":1,"category":"women-wallets","status":"active","alibaba_url":null,"images":["https://xcimg.szwego.com/img/edc8246d/20241004/i1728017628_5133_3.jpg","https://xcimg.szwego.com/img/edc8246d/20241004/i1728017628_5719_6.jpg","https://xcimg.szwego.com/img/edc8246d/20241004/i1728017628_9031_5.jpg","https://xcimg.szwego.com/img/edc8246d/20241004/i1728017628_172_1.jpg","https://xcimg.szwego.com/img/edc8246d/20241004/i1728017628_5845_7.jpg","https://xcimg.szwego.com/img/edc8246d/20241004/i1728017628_7344_2.jpg","https://xcimg.szwego.com/img/edc8246d/20241004/i1728017628_598_4.jpg","https://xcimg.szwego.com/img/edc8246d/20241004/i1728017628_7686_8.jpg","https://xcimg.szwego.com/img/edc8246d/20241004/i1728017628_8898_0.jpg"],"created_at":"2025-01-20T13:02:58.447Z"},{"id":"item-e53de21693b2","sku":"_dpZpZJEXizDXJTrb-jPm0HlX8mLONaeBTzC6xPQ","name_en":"✨Chanel✨new style 🔥Style No.2011, lambskin 💃 , 💫 ..💖💖 ,Size19.5*10.5.💃","name_cn":"✨Chanel✨new style 🔥Style No.2011, lambskin 💃 , 💫 ..💖💖 ,Size19.5*10.5.💃","specs":{"source":"wsxcme","sourceId":"_dpZpZJEXizDXJTrb-jPm0HlX8mLONaeBTzC6xPQ","sourceTagId":47002663,"sourceTagName":"length","modelNumber":"2011","rawTitle":"✨Chanel✨new style 🔥Style No.2011, lambskin 💃 , 💫 ..💖💖 ,Size19.5*10.5.💃"},"price":null,"currency":"CNY","moq":1,"category":"women-wallets","status":"active","alibaba_url":null,"images":["https://xcimg.szwego.com/img/edc8246d/20241004/i1728016508_1990_0.jpg","https://xcimg.szwego.com/img/edc8246d/20241004/i1728016508_6419_4.jpg","https://xcimg.szwego.com/img/edc8246d/20241004/i1728016508_9770_7.jpg","https://xcimg.szwego.com/img/edc8246d/20241004/i1728016508_8767_5.jpg","https://xcimg.szwego.com/img/edc8246d/20241004/i1728016508_5117_2.jpg","https://xcimg.szwego.com/img/edc8246d/20241004/i1728016508_762_3.jpg","https://xcimg.szwego.com/img/edc8246d/20241004/i1728016508_6397_6.jpg","https://xcimg.szwego.com/img/edc8246d/20241004/i1728016508_473_8.jpg","https://xcimg.szwego.com/img/edc8246d/20241004/i1728016508_7403_1.jpg"],"created_at":"2025-01-20T13:02:58.451Z"},{"id":"item-aa6e85fbe58f","sku":"_dkSkSQfx50FKMEwRK7ahUqF8hT8iPjLS0UHGAlQ","name_en":"✨Chanel✨new style 🔥Style No.2011, lambskin 💃 💫 ..💖💖 ,Size19.5*10.5.💃","name_cn":"✨Chanel✨new style 🔥Style No.2011, lambskin 💃 💫 ..💖💖 ,Size19.5*10.5.💃","specs":{"source":"wsxcme","sourceId":"_dkSkSQfx50FKMEwRK7ahUqF8hT8iPjLS0UHGAlQ","sourceTagId":47002663,"sourceTagName":"length","modelNumber":"2011","rawTitle":"✨Chanel✨new style 🔥Style No.2011, lambskin 💃 💫 ..💖💖 ,Size19.5*10.5.💃"},"price":null,"currency":"CNY","moq":1,"category":"women-wallets","status":"active","alibaba_url":null,"images":["https://xcimg.szwego.com/img/edc8246d/20241004/i1728017417_2440_4.jpg","https://xcimg.szwego.com/img/edc8246d/20241004/i1728017417_3941_2.jpg","https://xcimg.szwego.com/img/edc8246d/20241004/i1728017417_6329_8.jpg","https://xcimg.szwego.com/img/edc8246d/20241004/i1728017417_2656_6.jpg","https://xcimg.szwego.com/img/edc8246d/20241004/i1728017417_4631_1.jpg","https://xcimg.szwego.com/img/edc8246d/20241004/i1728017417_7327_5.jpg","https://xcimg.szwego.com/img/edc8246d/20241004/i1728017417_2104_0.jpg","https://xcimg.szwego.com/img/edc8246d/20241004/i1728017417_9966_3.jpg","https://xcimg.szwego.com/img/edc8246d/20241004/i1728017417_9788_7.jpg"],"created_at":"2025-01-20T13:02:58.450Z"},{"id":"item-a89152c27804","sku":"_doIoIBMO7PYGW-yuLJ2smKTciqfvzEhCqtzTjjQ","name_en":"✨EMILIE","name_cn":"✨EMILIE\nM82157\n Monogram canvas Monogram Reverse canvas series size:19 x 10 x 2cm","specs":{"source":"wsxcme","sourceId":"_doIoIBMO7PYGW-yuLJ2smKTciqfvzEhCqtzTjjQ","sourceTagId":47002663,"sourceTagName":"length","rawTitle":"✨EMILIE\nM82157\n Monogram canvas Monogram Reverse canvas series size:19 x 10 x 2cm"},"price":null,"currency":"CNY","moq":1,"category":"women-wallets","status":"active","alibaba_url":null,"images":["https://xcimg.szwego.com/20230322/i1679475183_7584_0.jpg","https://xcimg.szwego.com/20230322/i1679475183_3837_1.jpg","https://xcimg.szwego.com/20230322/i1679475183_8577_2.jpg","https://xcimg.szwego.com/20230322/i1679475183_2168_3.jpg","https://xcimg.szwego.com/20230322/i1679475183_4819_4.jpg","https://xcimg.szwego.com/20230322/i1679475183_503_5.jpg","https://xcimg.szwego.com/20230322/i1679475183_8162_6.jpg","https://xcimg.szwego.com/20230322/i1679475183_4203_7.jpg","https://xcimg.szwego.com/20230322/i1679475183_9557_8.jpg"],"created_at":"2025-01-20T13:02:58.465Z"},{"id":"item-e3ea208efd80","sku":"_djMjMMhtWho6ciW0-eYO-L065NXiTyT9FCDW40A","name_en":"✨Garden 36cm ✨","name_cn":"✨Garden 36cm ✨\ncanvas togo ZG hardware\n【in stock】","specs":{"source":"wsxcme","sourceId":"_djMjMMhtWho6ciW0-eYO-L065NXiTyT9FCDW40A","sourceTagId":76963559,"sourceTagName":"Hermes/women's bag","rawTitle":"✨Garden 36cm ✨\ncanvas togo ZG hardware\n【in stock】"},"price":null,"currency":"CNY","moq":1,"category":"hermes-women-bags","status":"active","alibaba_url":null,"images":["https://xcimg.szwego.com/20240621/i1718949522_556_0.jpg","https://xcimg.szwego.com/20240621/i1718949522_6223_1.jpg","https://xcimg.szwego.com/20240621/i1718949522_6794_2.jpg","https://xcimg.szwego.com/20240621/i1718949522_9902_3.jpg","https://xcimg.szwego.com/20240621/i1718949522_1866_4.jpg","https://xcimg.szwego.com/20240621/i1718949522_6805_5.jpg","https://xcimg.szwego.com/20240621/i1718949522_5552_6.jpg","https://xcimg.szwego.com/20240621/i1718949522_1348_7.jpg"],"created_at":"2024-10-22T05:04:33.223Z"},{"id":"item-de7aa6d4f224","sku":"_dRjRjn30oTRh7uQqNiJPgmeBGfkK8KyTtMdA-_g","name_en":"✨Garden 36cm ✨","name_cn":"✨Garden 36cm ✨\ncanvas togo ZG hardware\n【in stock】","specs":{"source":"wsxcme","sourceId":"_dRjRjn30oTRh7uQqNiJPgmeBGfkK8KyTtMdA-_g","sourceTagId":76963559,"sourceTagName":"Hermes/women's bag","rawTitle":"✨Garden 36cm ✨\ncanvas togo ZG hardware\n【in stock】"},"price":null,"currency":"CNY","moq":1,"category":"hermes-women-bags","status":"active","alibaba_url":null,"images":["https://xcimg.szwego.com/20240621/i1718949541_6244_0.jpg","https://xcimg.szwego.com/20240621/i1718949541_8602_1.jpg","https://xcimg.szwego.com/20240621/i1718949541_7156_2.jpg","https://xcimg.szwego.com/20240621/i1718949541_7134_3.jpg","https://xcimg.szwego.com/20240621/i1718949541_592_4.jpg","https://xcimg.szwego.com/20240621/i1718949541_5311_5.jpg","https://xcimg.szwego.com/20240621/i1718949541_4968_6.jpg","https://xcimg.szwego.com/20240621/i1718949541_7557_7.jpg"],"created_at":"2024-10-22T05:04:33.224Z"},{"id":"item-dd1a1ea6ce16","sku":"_dM3M31y3CTB1BVB7Jw59axEiQhXBwzWs2kKW2sw","name_en":"✨Garden 36cm ✨","name_cn":"✨Garden 36cm ✨\ncanvas togo ZG hardware\n【in stock】","specs":{"source":"wsxcme","sourceId":"_dM3M31y3CTB1BVB7Jw59axEiQhXBwzWs2kKW2sw","sourceTagId":76963559,"sourceTagName":"Hermes/women's bag","rawTitle":"✨Garden 36cm ✨\ncanvas togo ZG hardware\n【in stock】"},"price":null,"currency":"CNY","moq":1,"category":"hermes-women-bags","status":"active","alibaba_url":null,"images":["https://xcimg.szwego.com/20240517/i1715878217_6172_0.jpg","https://xcimg.szwego.com/20240517/i1715878217_5521_1.jpg","https://xcimg.szwego.com/20240517/i1715878217_9632_2.jpg","https://xcimg.szwego.com/20240517/i1715878217_4081_3.jpg","https://xcimg.szwego.com/20240517/i1715878217_9718_4.jpg","https://xcimg.szwego.com/20240517/i1715878217_1366_5.jpg","https://xcimg.szwego.com/20240517/i1715878217_9011_6.jpg","https://xcimg.szwego.com/20240517/i1715878217_6767_7.jpg"],"created_at":"2024-10-22T05:04:33.235Z"},{"id":"item-db2767d45dd9","sku":"_dCgCgRgyKUaoz3fzjxZ4rrdW7GmzgIFl0xcgtSQ","name_en":"✨Garden 36cm ✨","name_cn":"✨Garden 36cm ✨\ncanvas togo ZG hardware\n【in stock】","specs":{"source":"wsxcme","sourceId":"_dCgCgRgyKUaoz3fzjxZ4rrdW7GmzgIFl0xcgtSQ","sourceTagId":76963559,"sourceTagName":"Hermes/women's bag","rawTitle":"✨Garden 36cm ✨\ncanvas togo ZG hardware\n【in stock】"},"price":null,"currency":"CNY","moq":1,"category":"hermes-women-bags","status":"active","alibaba_url":null,"images":["https://xcimg.szwego.com/20240517/i1715878201_2239_0.jpg","https://xcimg.szwego.com/20240517/i1715878201_9674_1.jpg","https://xcimg.szwego.com/20240517/i1715878201_7858_2.jpg","https://xcimg.szwego.com/20240517/i1715878201_5001_3.jpg","https://xcimg.szwego.com/20240517/i1715878201_1222_4.jpg","https://xcimg.szwego.com/20240517/i1715878201_7823_5.jpg","https://xcimg.szwego.com/20240517/i1715878201_5686_6.jpg"],"created_at":"2024-10-22T05:04:33.234Z"},{"id":"item-be4ce4e6e89c","sku":"_dYsYs3KgcY8Dc0EAgJWHw0TPdntvnlTU72wzRrw","name_en":"✨Garden 36cm ✨","name_cn":"✨Garden 36cm ✨\ncanvas togo ZG hardware\n【in stock】","specs":{"source":"wsxcme","sourceId":"_dYsYs3KgcY8Dc0EAgJWHw0TPdntvnlTU72wzRrw","sourceTagId":76963559,"sourceTagName":"Hermes/women's bag","rawTitle":"✨Garden 36cm ✨\ncanvas togo ZG hardware\n【in stock】"},"price":null,"currency":"CNY","moq":1,"category":"hermes-women-bags","status":"active","alibaba_url":null,"images":["https://xcimg.szwego.com/20240621/i1718949671_3045_0.jpg","https://xcimg.szwego.com/20240621/i1718949671_2230_1.jpg","https://xcimg.szwego.com/20240621/i1718949671_9025_2.jpg","https://xcimg.szwego.com/20240621/i1718949671_3256_3.jpg","https://xcimg.szwego.com/20240621/i1718949671_4101_4.jpg","https://xcimg.szwego.com/20240621/i1718949671_1947_5.jpg","https://xcimg.szwego.com/20240621/i1718949671_4379_6.jpg","https://xcimg.szwego.com/20240621/i1718949671_183_7.jpg"],"created_at":"2024-10-22T05:04:33.230Z"},{"id":"item-bd4fdde742f6","sku":"_dxIxIN2xWFCvSI9SEeTjOJmop86jQHfjtYtzN-A","name_en":"✨Garden 36cm ✨","name_cn":"✨Garden 36cm ✨\ncanvas togo ZG hardware\n【in stock】","specs":{"source":"wsxcme","sourceId":"_dxIxIN2xWFCvSI9SEeTjOJmop86jQHfjtYtzN-A","sourceTagId":76963559,"sourceTagName":"Hermes/women's bag","rawTitle":"✨Garden 36cm ✨\ncanvas togo ZG hardware\n【in stock】"},"price":null,"currency":"CNY","moq":1,"category":"hermes-women-bags","status":"active","alibaba_url":null,"images":["https://xcimg.szwego.com/20240621/i1718949561_6994_0.jpg","https://xcimg.szwego.com/20240621/i1718949561_7546_1.jpg","https://xcimg.szwego.com/20240621/i1718949561_3275_2.jpg","https://xcimg.szwego.com/20240621/i1718949561_9789_3.jpg","https://xcimg.szwego.com/20240621/i1718949561_8449_4.jpg","https://xcimg.szwego.com/20240621/i1718949561_2096_5.jpg","https://xcimg.szwego.com/20240621/i1718949561_7004_6.jpg","https://xcimg.szwego.com/20240621/i1718949561_6877_7.jpg"],"created_at":"2024-10-22T05:04:33.225Z"},{"id":"item-989032171ede","sku":"_dhFhF-cRYjaW7xGYsV8gn4gatrY6u6wCay0gQCQ","name_en":"✨Garden 36cm ✨","name_cn":"✨Garden 36cm ✨\ncanvas togo ZG hardware\n【in stock】","specs":{"source":"wsxcme","sourceId":"_dhFhF-cRYjaW7xGYsV8gn4gatrY6u6wCay0gQCQ","sourceTagId":76963559,"sourceTagName":"Hermes/women's bag","rawTitle":"✨Garden 36cm ✨\ncanvas togo ZG hardware\n【in stock】"},"price":null,"currency":"CNY","moq":1,"category":"hermes-women-bags","status":"active","alibaba_url":null,"images":["https://xcimg.szwego.com/20240517/i1715878231_6393_0.jpg","https://xcimg.szwego.com/20240517/i1715878231_1843_1.jpg","https://xcimg.szwego.com/20240517/i1715878231_5956_2.jpg","https://xcimg.szwego.com/20240517/i1715878231_8458_3.jpg","https://xcimg.szwego.com/20240517/i1715878231_8244_4.jpg","https://xcimg.szwego.com/20240517/i1715878231_1000_5.jpg","https://xcimg.szwego.com/20240517/i1715878231_4644_6.jpg","https://xcimg.szwego.com/20240517/i1715878231_2518_7.jpg"],"created_at":"2024-10-22T05:04:33.236Z"},{"id":"item-9447ca54b99b","sku":"_dH-H-ROwrzBXb9IwP6PYLwfHkKIV_sAwT-_e8Hw","name_en":"✨Garden 36cm ✨","name_cn":"✨Garden 36cm ✨\ncanvas togo ZG hardware\n【in stock】","specs":{"source":"wsxcme","sourceId":"_dH-H-ROwrzBXb9IwP6PYLwfHkKIV_sAwT-_e8Hw","sourceTagId":76963559,"sourceTagName":"Hermes/women's bag","rawTitle":"✨Garden 36cm ✨\ncanvas togo ZG hardware\n【in stock】"},"price":null,"currency":"CNY","moq":1,"category":"hermes-women-bags","status":"active","alibaba_url":null,"images":["https://xcimg.szwego.com/20240517/i1715877823_2842_0.jpg","https://xcimg.szwego.com/20240517/i1715877823_9400_1.jpg","https://xcimg.szwego.com/20240517/i1715877823_9540_2.jpg","https://xcimg.szwego.com/20240517/i1715877823_4186_3.jpg","https://xcimg.szwego.com/20240517/i1715877823_9593_4.jpg","https://xcimg.szwego.com/20240517/i1715877823_1307_5.jpg","https://xcimg.szwego.com/20240517/i1715877823_4619_6.jpg","https://xcimg.szwego.com/20240517/i1715877823_2958_7.jpg"],"created_at":"2024-10-22T05:04:33.231Z"},{"id":"item-8b0c0317d21a","sku":"_dnbnb-k9ronJYr6QximwDNT1eu9CysJw56Fu2FQ","name_en":"✨Garden 36cm ✨","name_cn":"✨Garden 36cm ✨\ncanvas togo ZG hardware\n【in stock】","specs":{"source":"wsxcme","sourceId":"_dnbnb-k9ronJYr6QximwDNT1eu9CysJw56Fu2FQ","sourceTagId":76963559,"sourceTagName":"Hermes/women's bag","rawTitle":"✨Garden 36cm ✨\ncanvas togo ZG hardware\n【in stock】"},"price":null,"currency":"CNY","moq":1,"category":"hermes-women-bags","status":"active","alibaba_url":null,"images":["https://xcimg.szwego.com/20240517/i1715878165_9138_0.jpg","https://xcimg.szwego.com/20240517/i1715878165_6200_1.jpg","https://xcimg.szwego.com/20240517/i1715878165_576_2.jpg","https://xcimg.szwego.com/20240517/i1715878165_800_3.jpg","https://xcimg.szwego.com/20240517/i1715878165_1421_4.jpg","https://xcimg.szwego.com/20240517/i1715878165_2250_5.jpg","https://xcimg.szwego.com/20240517/i1715878165_4624_6.jpg","https://xcimg.szwego.com/20240517/i1715878165_6088_7.jpg"],"created_at":"2024-10-22T05:04:33.232Z"},{"id":"item-62c199435e67","sku":"_dxyxyDlMcAbKGnbHcbpV49mme1gmx8oOjRkJNZA","name_en":"✨Garden 36cm ✨","name_cn":"✨Garden 36cm ✨\ncanvas togo ZG hardware\n【in stock】","specs":{"source":"wsxcme","sourceId":"_dxyxyDlMcAbKGnbHcbpV49mme1gmx8oOjRkJNZA","sourceTagId":76963559,"sourceTagName":"Hermes/women's bag","rawTitle":"✨Garden 36cm ✨\ncanvas togo ZG hardware\n【in stock】"},"price":null,"currency":"CNY","moq":1,"category":"hermes-women-bags","status":"active","alibaba_url":null,"images":["https://xcimg.szwego.com/20240621/i1718949652_3799_0.jpg","https://xcimg.szwego.com/20240621/i1718949652_2061_1.jpg","https://xcimg.szwego.com/20240621/i1718949652_3055_2.jpg","https://xcimg.szwego.com/20240621/i1718949652_6683_3.jpg","https://xcimg.szwego.com/20240621/i1718949652_1437_4.jpg","https://xcimg.szwego.com/20240621/i1718949652_4582_5.jpg","https://xcimg.szwego.com/20240621/i1718949652_1265_6.jpg"],"created_at":"2024-10-22T05:04:33.229Z"},{"id":"item-4d56353945f2","sku":"_dv4v4ARJFTr73abnXH38C-ObybY9IyxY-TcHbEQ","name_en":"✨Garden 36cm ✨","name_cn":"✨Garden 36cm ✨\ncanvas togo ZG hardware\n【in stock】","specs":{"source":"wsxcme","sourceId":"_dv4v4ARJFTr73abnXH38C-ObybY9IyxY-TcHbEQ","sourceTagId":76963559,"sourceTagName":"Hermes/women's bag","rawTitle":"✨Garden 36cm ✨\ncanvas togo ZG hardware\n【in stock】"},"price":null,"currency":"CNY","moq":1,"category":"hermes-women-bags","status":"active","alibaba_url":null,"images":["https://xcimg.szwego.com/20240621/i1718949591_3882_0.jpg","https://xcimg.szwego.com/20240621/i1718949591_607_1.jpg","https://xcimg.szwego.com/20240621/i1718949591_6583_2.jpg","https://xcimg.szwego.com/20240621/i1718949591_7979_3.jpg","https://xcimg.szwego.com/20240621/i1718949591_1441_4.jpg","https://xcimg.szwego.com/20240621/i1718949591_7280_5.jpg","https://xcimg.szwego.com/20240621/i1718949591_4772_6.jpg","https://xcimg.szwego.com/20240621/i1718949591_361_7.jpg"],"created_at":"2024-10-22T05:04:33.227Z"},{"id":"item-482f44acf89e","sku":"_daQaQFVNklNK5rIy3adqMq3a2EQLrCUaqpaFLxA","name_en":"✨Garden 36cm ✨","name_cn":"✨Garden 36cm ✨\ncanvas togo ZG hardware\n【in stock】","specs":{"source":"wsxcme","sourceId":"_daQaQFVNklNK5rIy3adqMq3a2EQLrCUaqpaFLxA","sourceTagId":76963559,"sourceTagName":"Hermes/women's bag","rawTitle":"✨Garden 36cm ✨\ncanvas togo ZG hardware\n【in stock】"},"price":null,"currency":"CNY","moq":1,"category":"hermes-women-bags","status":"active","alibaba_url":null,"images":["https://xcimg.szwego.com/20240517/i1715878180_9542_0.jpg","https://xcimg.szwego.com/20240517/i1715878180_7675_1.jpg","https://xcimg.szwego.com/20240517/i1715878180_787_2.jpg","https://xcimg.szwego.com/20240517/i1715878180_1795_3.jpg","https://xcimg.szwego.com/20240517/i1715878180_3641_4.jpg","https://xcimg.szwego.com/20240517/i1715878180_4291_5.jpg","https://xcimg.szwego.com/20240517/i1715878180_522_6.jpg","https://xcimg.szwego.com/20240517/i1715878180_9697_7.jpg"],"created_at":"2024-10-22T05:04:33.233Z"},{"id":"item-2a386d5e832b","sku":"_dtOtO9LFw2YV-boWD4zK3CBNEINItdRqOckFMfw","name_en":"✨Garden 36cm ✨","name_cn":"✨Garden 36cm ✨\ncanvas togo ZG hardware\n【in stock】","specs":{"source":"wsxcme","sourceId":"_dtOtO9LFw2YV-boWD4zK3CBNEINItdRqOckFMfw","sourceTagId":76963559,"sourceTagName":"Hermes/women's bag","rawTitle":"✨Garden 36cm ✨\ncanvas togo ZG hardware\n【in stock】"},"price":null,"currency":"CNY","moq":1,"category":"hermes-women-bags","status":"active","alibaba_url":null,"images":["https://xcimg.szwego.com/20240621/i1718949575_8875_0.jpg","https://xcimg.szwego.com/20240621/i1718949575_5115_1.jpg","https://xcimg.szwego.com/20240621/i1718949575_6928_2.jpg","https://xcimg.szwego.com/20240621/i1718949575_2269_3.jpg","https://xcimg.szwego.com/20240621/i1718949575_2027_4.jpg","https://xcimg.szwego.com/20240621/i1718949575_4423_5.jpg","https://xcimg.szwego.com/20240621/i1718949575_6805_6.jpg","https://xcimg.szwego.com/20240621/i1718949575_3000_7.jpg"],"created_at":"2024-10-22T05:04:33.226Z"},{"id":"item-1ffa6eaced16","sku":"_dNxNxTGQoJZ9rcTCoplDHYIPEhlBqehw8Z1nq1g","name_en":"✨Garden 36cm ✨","name_cn":"✨Garden 36cm ✨\ncanvas togo ZG hardware\n【in stock】","specs":{"source":"wsxcme","sourceId":"_dNxNxTGQoJZ9rcTCoplDHYIPEhlBqehw8Z1nq1g","sourceTagId":76963559,"sourceTagName":"Hermes/women's bag","rawTitle":"✨Garden 36cm ✨\ncanvas togo ZG hardware\n【in stock】"},"price":null,"currency":"CNY","moq":1,"category":"hermes-women-bags","status":"active","alibaba_url":null,"images":["https://xcimg.szwego.com/20240621/i1718949613_3579_0.jpg","https://xcimg.szwego.com/20240621/i1718949613_4979_1.jpg","https://xcimg.szwego.com/20240621/i1718949613_3470_2.jpg","https://xcimg.szwego.com/20240621/i1718949613_7556_3.jpg","https://xcimg.szwego.com/20240621/i1718949613_8821_4.jpg","https://xcimg.szwego.com/20240621/i1718949613_2842_5.jpg","https://xcimg.szwego.com/20240621/i1718949613_7959_6.jpg","https://xcimg.szwego.com/20240621/i1718949613_5467_7.jpg"],"created_at":"2024-10-22T05:04:33.228Z"},{"id":"item-b11a1722fd42","sku":"_dl1l1OHLXblWg3UqPYbqn8pMnWaVNBmIhWN4MBg","name_en":"✨Glossy Soft Calfskin Bob Fold-over Tote","name_cn":"✨Glossy Soft Calfskin Bob Fold-over Tote\nModel: 1577\nDimensions: 47.5-39-9.5 cm\nThe Bob Fold-over Tote is a versatile interpretation of the Bobby shoe collection, featuring a unique cutout handle design. Its modular design allows for multiple carrying styles, serving as a tote, clutch, or crossbody bag. This version is made of glossy soft calfskin.\nShoulder, crossbody, or handheld\nDetachable and adjustable shoulder strap\nZipper closure\nOne external zip back pocket, one internal zip pocket\nFabric lining\nLOEWE embossed calfskin patch\ncm·in\nColour\nBlack\nMetallic colour\nPalladium Gold\nMain material\nGlossy soft calfskin\nStrap length\n84 - 135 cm\nShoulder strap length\n35 - 65 cm","specs":{"source":"wsxcme","sourceId":"_dl1l1OHLXblWg3UqPYbqn8pMnWaVNBmIhWN4MBg","sourceTagId":47002713,"sourceTagName":"/women's bag","modelNumber":"1577","rawTitle":"✨Glossy Soft Calfskin Bob Fold-over Tote\nModel: 1577\nDimensions: 47.5-39-9.5 cm\nThe Bob Fold-over Tote is a versatile interpretation of the Bobby shoe collection, featuring a unique cutout handle design. Its modular design allows for multiple carrying styles, serving as a tote, clutch, or crossbody bag. This version is made of glossy soft calfskin.\nShoulder, crossbody, or handheld\nDetachable and adjustable shoulder strap\nZipper closure\nOne external zip back pocket, one internal zip pocket\nFabric lining\nLOEWE embossed calfskin patch\ncm·in\nColour\nBlack\nMetallic colour\nPalladium Gold\nMain material\nGlossy soft calfskin\nStrap length\n84 - 135 cm\nShoulder strap length\n35 - 65 cm"},"price":null,"currency":"CNY","moq":1,"category":"loewe-women-bags","status":"active","alibaba_url":null,"images":["https://xcimg.szwego.com/img/7f9d4644/20260329/i1774754194868_1143_0_0.jpg","https://xcimg.szwego.com/img/7f9d4644/20260329/i1774754194741_7518_0_1.jpg","https://xcimg.szwego.com/img/7f9d4644/20260329/i1774754193154_8025_0_2.jpg","https://xcimg.szwego.com/img/7f9d4644/20260329/i1774754193101_4384_0_3.jpg","https://xcimg.szwego.com/img/7f9d4644/20260329/i1774754193138_6693_0_4.jpg","https://xcimg.szwego.com/img/7f9d4644/20260329/i1774754193106_636_0_5.jpg","https://xcimg.szwego.com/img/7f9d4644/20260329/i1774754193138_8856_0_6.jpg","https://xcimg.szwego.com/img/7f9d4644/20260329/i1774754194821_6214_0_7.jpg","https://xcimg.szwego.com/img/7f9d4644/20260329/i1774754194731_6387_0_8.jpg"],"created_at":"2026-05-20T08:54:03.071Z"},{"id":"item-bec272de464f","sku":"_doKoKhYDf8G1EvV8w5vYuA5Ix--BDcB8v1k2jSw","name_en":"✨Hobo Three-in-One Faux Fur Bag","name_cn":"✨Hobo Three-in-One Faux Fur Bag\n Collection Shot💫","specs":{"source":"wsxcme","sourceId":"_doKoKhYDf8G1EvV8w5vYuA5Ix--BDcB8v1k2jSw","sourceTagId":47002669,"sourceTagName":"Prada/women's bag","rawTitle":"✨Hobo Three-in-One Faux Fur Bag\n Collection Shot💫"},"price":null,"currency":"CNY","moq":1,"category":"prada-women-bags","status":"active","alibaba_url":null,"images":["https://xcimg.szwego.com/20230105/i1672894585_8035_0.jpg","https://xcimg.szwego.com/20230105/i1672894585_5901_1.jpg","https://xcimg.szwego.com/20230105/i1672894585_7131_2.jpg"],"created_at":"2024-09-12T05:22:07.599Z"},{"id":"item-fe13320bf16a","sku":"_dyxyxp1spZfUlA97Y4sNm8eeEfI8fS_5CQM2UEQ","name_en":"✨Kelly 2 Mini","name_cn":"✨Kelly 2 Mini\nColor: Iced White / Lipstick Pink\nImported Epsom leather, gold hardware\nMachine + half-hand stitched waxed thread\nSize: 19cm","specs":{"source":"wsxcme","sourceId":"_dyxyxp1spZfUlA97Y4sNm8eeEfI8fS_5CQM2UEQ","sourceTagId":76963559,"sourceTagName":"Hermes/women's bag","rawTitle":"✨Kelly 2 Mini\nColor: Iced White / Lipstick Pink\nImported Epsom leather, gold hardware\nMachine + half-hand stitched waxed thread\nSize: 19cm"},"price":null,"currency":"CNY","moq":1,"category":"hermes-women-bags","status":"active","alibaba_url":null,"images":["https://xcimg.szwego.com/img/88b306c4/20240903/a1725376009655_7642.jpg","https://xcimg.szwego.com/img/88b306c4/20240903/a1725376009578_4371.jpg","https://xcimg.szwego.com/img/88b306c4/20240903/a1725376009650_0741.jpg","https://xcimg.szwego.com/img/88b306c4/20240903/a1725376009888_7467.jpg","https://xcimg.szwego.com/img/88b306c4/20240903/a1725376009580_7327.jpg","https://xcimg.szwego.com/img/88b306c4/20240903/a1725376009806_8734.jpg","https://xcimg.szwego.com/img/88b306c4/20240903/a1725376011004_3135.jpg","https://xcimg.szwego.com/img/88b306c4/20240903/a1725376011037_2210.jpg","https://xcimg.szwego.com/img/88b306c4/20240903/a1725376010890_1654.jpg"],"created_at":"2024-10-22T05:04:33.209Z"},{"id":"item-fa9cd85e50fd","sku":"_dvlvlqztnDyoaODdqFmgc7AErxkxT-W4kSe2ULg","name_en":"✨Kelly 2 Mini","name_cn":"✨Kelly 2 Mini\nColor: Golden Brown / Milky White\nImported Epsom leather, gold hardware\nStitched with waxed thread, half-closed handle\nSize: 19cm","specs":{"source":"wsxcme","sourceId":"_dvlvlqztnDyoaODdqFmgc7AErxkxT-W4kSe2ULg","sourceTagId":76963559,"sourceTagName":"Hermes/women's bag","rawTitle":"✨Kelly 2 Mini\nColor: Golden Brown / Milky White\nImported Epsom leather, gold hardware\nStitched with waxed thread, half-closed handle\nSize: 19cm"},"price":null,"currency":"CNY","moq":1,"category":"hermes-women-bags","status":"active","alibaba_url":null,"images":["https://xcimg.szwego.com/img/88b306c4/20240904/a1725379937777_3403.jpg","https://xcimg.szwego.com/img/88b306c4/20240904/a1725379937925_4350.jpg","https://xcimg.szwego.com/img/88b306c4/20240904/a1725379937595_5380.jpg","https://xcimg.szwego.com/img/88b306c4/20240904/a1725379938056_8157.jpg","https://xcimg.szwego.com/img/88b306c4/20240904/a1725379937640_7350.jpg","https://xcimg.szwego.com/img/88b306c4/20240904/a1725379937626_6675.jpg","https://xcimg.szwego.com/img/88b306c4/20240904/a1725379943518_5220.jpg","https://xcimg.szwego.com/img/88b306c4/20240904/a1725379943549_2841.jpg","https://xcimg.szwego.com/img/88b306c4/20240904/a1725379943396_8157.jpg"],"created_at":"2024-10-22T05:04:33.190Z"},{"id":"item-f10c7595d2e3","sku":"_dototEMs8pPVvOA3VVevwCBV6-Vw86ncxpCwiBw","name_en":"✨Kelly 2 Mini","name_cn":"✨Kelly 2 Mini\nColor: Icy White/Dreamy Pink Purple/Gold Brown\nImported Epsom leather, silver hardware\nQuilted + half-hand stitched waxed thread\nSize: 19cm","specs":{"source":"wsxcme","sourceId":"_dototEMs8pPVvOA3VVevwCBV6-Vw86ncxpCwiBw","sourceTagId":76963559,"sourceTagName":"Hermes/women's bag","rawTitle":"✨Kelly 2 Mini\nColor: Icy White/Dreamy Pink Purple/Gold Brown\nImported Epsom leather, silver hardware\nQuilted + half-hand stitched waxed thread\nSize: 19cm"},"price":null,"currency":"CNY","moq":1,"category":"hermes-women-bags","status":"active","alibaba_url":null,"images":["https://xcimg.szwego.com/img/88b306c4/20240903/a1725373894063_3128.jpg","https://xcimg.szwego.com/img/88b306c4/20240903/a1725373893813_1580.jpg","https://xcimg.szwego.com/img/88b306c4/20240903/a1725373893931_7248.jpg","https://xcimg.szwego.com/img/88b306c4/20240903/a1725373894124_5216.jpg","https://xcimg.szwego.com/img/88b306c4/20240903/a1725373893825_6135.jpg","https://xcimg.szwego.com/img/88b306c4/20240903/a1725373893812_3401.jpg","https://xcimg.szwego.com/img/88b306c4/20240903/a1725373895054_7865.jpg","https://xcimg.szwego.com/img/88b306c4/20240903/a1725373895042_2064.jpg","https://xcimg.szwego.com/img/88b306c4/20240903/a1725373895041_3063.jpg"],"created_at":"2024-10-22T05:04:33.200Z"}],"page":79,"pageSize":24,"total":9921,"totalPages":414}
