{"items":[{"id":"item-45a19b52a1d2","sku":"_dpUpUIqu9qfvcq49THs3PJbc2s2kRJ5952F5qNQ","name_en":"L‚äö‚Ąģw‚ĄģNew ūüÜēMini Glossy Calfskin Puzzle Fold Handbag Inspired by the geometric lines of the brand's classic handbag series ūüÜēReinterprets the brand's classic handbag series with geometric lines, featuring geometric architectural patchwork that allows the bag to fold completely flat, making it a perfect travel companion ūüĖ§ The brand uses creative ingenuity to craft a soft and lightweight handbag, paired with a low-key and elegant LOEWE brand logo. This mini version is crafted from glossy calfskin, can be worn on the shoulder, crossbody, or handheld Removable and adjustable shoulder strap Suede lining L‚äö‚Ąģw‚Ąģ embossed.","name_cn":"L‚äö‚Ąģw‚ĄģNew ūüÜēMini Glossy Calfskin Puzzle Fold Handbag Inspired by the geometric lines of the brand's classic handbag series ūüÜēReinterprets the brand's classic handbag series with geometric lines, featuring geometric architectural patchwork that allows the bag to fold completely flat, making it a perfect travel companion ūüĖ§ The brand uses creative ingenuity to craft a soft and lightweight handbag, paired with a low-key and elegant LOEWE brand logo. This mini version is crafted from glossy calfskin, can be worn on the shoulder, crossbody, or handheld Removable and adjustable shoulder strap Suede lining L‚äö‚Ąģw‚Ąģ embossed.\nsize:16.5*9.5*20CM\nModel:052322","specs":{"source":"wsxcme","sourceId":"_dpUpUIqu9qfvcq49THs3PJbc2s2kRJ5952F5qNQ","sourceTagId":47002713,"sourceTagName":"/women's bag","modelNumber":"052322","rawTitle":"L‚äö‚Ąģw‚ĄģNew ūüÜēMini Glossy Calfskin Puzzle Fold Handbag Inspired by the geometric lines of the brand's classic handbag series ūüÜēReinterprets the brand's classic handbag series with geometric lines, featuring geometric architectural patchwork that allows the bag to fold completely flat, making it a perfect travel companion ūüĖ§ The brand uses creative ingenuity to craft a soft and lightweight handbag, paired with a low-key and elegant LOEWE brand logo. This mini version is crafted from glossy calfskin, can be worn on the shoulder, crossbody, or handheld Removable and adjustable shoulder strap Suede lining L‚äö‚Ąģw‚Ąģ embossed.\nsize:16.5*9.5*20CM\nModel:052322"},"price":null,"currency":"CNY","moq":1,"category":"loewe-women-bags","status":"active","alibaba_url":null,"images":["https://xcimg.szwego.com/img/6bf20321/20241222/i1734880128_9417_7.jpg","https://xcimg.szwego.com/img/6bf20321/20241222/i1734880128_7323_4.jpg","https://xcimg.szwego.com/img/6bf20321/20241222/i1734880128_1493_1.jpg","https://xcimg.szwego.com/img/6bf20321/20241222/i1734880128_4981_0.jpg","https://xcimg.szwego.com/img/6bf20321/20241222/i1734880128_6159_6.jpg","https://xcimg.szwego.com/img/6bf20321/20241222/i1734880128_1304_3.jpg","https://xcimg.szwego.com/img/6bf20321/20241222/i1734880128_6037_8.jpg","https://xcimg.szwego.com/img/6bf20321/20241222/i1734880128_2290_2.jpg","https://xcimg.szwego.com/img/6bf20321/20241222/i1734880128_4080_5.jpg"],"created_at":"2025-03-08T12:22:00.050Z"},{"id":"item-286512074d92","sku":"_dm0m0AH6i3ZhMrobuDtmEjeTX-8PdDhzlm3ZE7Q","name_en":"L‚äö‚Ąģw‚ĄģNew ūüÜēMini Glossy Calfskin Puzzle Fold Handbag Inspired by the geometric lines of the brand's classic handbag series ūüÜēReinterprets the brand's classic handbag series with geometric lines, featuring geometric architectural patchwork that allows the bag to fold completely flat, making it a perfect travel companion ūüĖ§ The brand uses creative ingenuity to craft a soft and lightweight handbag, paired with a low-key and elegant LOEWE brand logo. This mini version is crafted from glossy calfskin, can be worn on the shoulder, crossbody, or handheld Removable and adjustable shoulder strap Suede lining L‚äö‚Ąģw‚Ąģ embossed.","name_cn":"L‚äö‚Ąģw‚ĄģNew ūüÜēMini Glossy Calfskin Puzzle Fold Handbag Inspired by the geometric lines of the brand's classic handbag series ūüÜēReinterprets the brand's classic handbag series with geometric lines, featuring geometric architectural patchwork that allows the bag to fold completely flat, making it a perfect travel companion ūüĖ§ The brand uses creative ingenuity to craft a soft and lightweight handbag, paired with a low-key and elegant LOEWE brand logo. This mini version is crafted from glossy calfskin, can be worn on the shoulder, crossbody, or handheld Removable and adjustable shoulder strap Suede lining L‚äö‚Ąģw‚Ąģ embossed.\nsize:16.5*9.5*20CM\nModel:052322","specs":{"source":"wsxcme","sourceId":"_dm0m0AH6i3ZhMrobuDtmEjeTX-8PdDhzlm3ZE7Q","sourceTagId":47002713,"sourceTagName":"/women's bag","modelNumber":"052322","rawTitle":"L‚äö‚Ąģw‚ĄģNew ūüÜēMini Glossy Calfskin Puzzle Fold Handbag Inspired by the geometric lines of the brand's classic handbag series ūüÜēReinterprets the brand's classic handbag series with geometric lines, featuring geometric architectural patchwork that allows the bag to fold completely flat, making it a perfect travel companion ūüĖ§ The brand uses creative ingenuity to craft a soft and lightweight handbag, paired with a low-key and elegant LOEWE brand logo. This mini version is crafted from glossy calfskin, can be worn on the shoulder, crossbody, or handheld Removable and adjustable shoulder strap Suede lining L‚äö‚Ąģw‚Ąģ embossed.\nsize:16.5*9.5*20CM\nModel:052322"},"price":null,"currency":"CNY","moq":1,"category":"loewe-women-bags","status":"active","alibaba_url":null,"images":["https://xcimg.szwego.com/20230810/i1691600012_3119_0.jpg","https://xcimg.szwego.com/20230810/i1691600012_5493_1.jpg","https://xcimg.szwego.com/20230810/i1691600012_779_2.jpg","https://xcimg.szwego.com/20230810/i1691600012_2373_3.jpg","https://xcimg.szwego.com/20230810/i1691600012_67_4.jpg","https://xcimg.szwego.com/20230810/i1691600012_4509_5.jpg","https://xcimg.szwego.com/20230810/i1691600012_5959_6.jpg","https://xcimg.szwego.com/20230810/i1691600012_5761_7.jpg","https://xcimg.szwego.com/20230810/i1691600012_5059_8.jpg"],"created_at":"2025-02-10T14:06:11.364Z"},{"id":"item-7f2842a54d29","sku":"_ds-s-tlRQBRjS3vG-sOoEXcamGH4b7jkkfSl9zA","name_en":"L‚äö‚Ąģw‚Ąģnew styleūüÜēPuzzle Fold pouchhandbag , handbagseries ūüÜē , handbag calfskin „Äā shoulder carry„ÄĀ top handle -* *zipper * L‚äö‚Ąģw‚Ąģ „Äā","name_cn":"L‚äö‚Ąģw‚Ąģnew styleūüÜēPuzzle Fold pouchhandbag , handbagseries ūüÜē , handbag calfskin „Äā shoulder carry„ÄĀ top handle -* *zipper * L‚äö‚Ąģw‚Ąģ „Äā\nsize:23*6.5*15.5CM\nModel:012415","specs":{"source":"wsxcme","sourceId":"_ds-s-tlRQBRjS3vG-sOoEXcamGH4b7jkkfSl9zA","sourceTagId":47002713,"sourceTagName":"/women's bag","modelNumber":"012415","rawTitle":"L‚äö‚Ąģw‚Ąģnew styleūüÜēPuzzle Fold pouchhandbag , handbagseries ūüÜē , handbag calfskin „Äā shoulder carry„ÄĀ top handle -* *zipper * L‚äö‚Ąģw‚Ąģ „Äā\nsize:23*6.5*15.5CM\nModel:012415"},"price":null,"currency":"CNY","moq":1,"category":"loewe-women-bags","status":"active","alibaba_url":null,"images":["https://xcimg.szwego.com/img/6bf20321/20240702/i1719902415_7140_0.jpg","https://xcimg.szwego.com/img/6bf20321/20240702/i1719902415_198_2.jpg","https://xcimg.szwego.com/img/6bf20321/20240702/i1719902415_4553_8.jpg","https://xcimg.szwego.com/img/6bf20321/20240702/i1719902415_2621_5.jpg","https://xcimg.szwego.com/img/6bf20321/20240702/i1719902415_2571_3.jpg","https://xcimg.szwego.com/img/6bf20321/20240702/i1719902415_7454_6.jpg","https://xcimg.szwego.com/img/6bf20321/20240702/i1719902415_9189_4.jpg","https://xcimg.szwego.com/img/6bf20321/20240702/i1719902415_3253_1.jpg","https://xcimg.szwego.com/img/6bf20321/20240702/i1719902415_5779_7.jpg"],"created_at":"2025-01-21T03:10:17.841Z"},{"id":"item-f2cdc73c620c","sku":"_dgdgdsUmai_VeokPtYapfSxbAsQ9Q2tf-lGZaeA","name_en":"L‚äö‚Ąģw‚Ąģnew styleūüÜēsmall calfskin Puzzle Fold Tote , , L‚äö‚Ąģw‚Ąģ , ÔłŹshoulder carry top handle L‚äö‚Ąģw‚Ąģ „Äā","name_cn":"L‚äö‚Ąģw‚Ąģnew styleūüÜēsmall calfskin Puzzle Fold Tote , , L‚äö‚Ąģw‚Ąģ , ÔłŹshoulder carry top handle L‚äö‚Ąģw‚Ąģ „Äā\nsize:25.5*14.5*31.5CM\nModel:052316","specs":{"source":"wsxcme","sourceId":"_dgdgdsUmai_VeokPtYapfSxbAsQ9Q2tf-lGZaeA","sourceTagId":47002713,"sourceTagName":"/women's bag","modelNumber":"052316","rawTitle":"L‚äö‚Ąģw‚Ąģnew styleūüÜēsmall calfskin Puzzle Fold Tote , , L‚äö‚Ąģw‚Ąģ , ÔłŹshoulder carry top handle L‚äö‚Ąģw‚Ąģ „Äā\nsize:25.5*14.5*31.5CM\nModel:052316"},"price":null,"currency":"CNY","moq":1,"category":"loewe-women-bags","status":"active","alibaba_url":null,"images":["https://xcimg.szwego.com/img/6bf20321/20231013/i1697132567_4683_0.jpg","https://xcimg.szwego.com/img/6bf20321/20231013/i1697132567_2895_1.jpg","https://xcimg.szwego.com/img/6bf20321/20231013/i1697132567_3806_2.jpg","https://xcimg.szwego.com/img/6bf20321/20231013/i1697132567_3487_3.jpg","https://xcimg.szwego.com/img/6bf20321/20231013/i1697132567_1367_4.jpg","https://xcimg.szwego.com/img/6bf20321/20231013/i1697132567_7009_5.jpg","https://xcimg.szwego.com/img/6bf20321/20231013/i1697132567_7257_6.jpg","https://xcimg.szwego.com/img/6bf20321/20231013/i1697132567_1661_7.jpg","https://xcimg.szwego.com/img/6bf20321/20231013/i1697132567_914_8.jpg"],"created_at":"2025-02-10T14:06:11.324Z"},{"id":"item-d549ec245764","sku":"_drjrjlUn127k278tpfuEukKDIVfayD78d1IOx5A","name_en":"L‚äö‚Ąģw‚Ąģnew styleūüÜēsmall calfskin Puzzle Fold Tote , , L‚äö‚Ąģw‚Ąģ , ÔłŹshoulder carry top handle L‚äö‚Ąģw‚Ąģ „Äā","name_cn":"L‚äö‚Ąģw‚Ąģnew styleūüÜēsmall calfskin Puzzle Fold Tote , , L‚äö‚Ąģw‚Ąģ , ÔłŹshoulder carry top handle L‚äö‚Ąģw‚Ąģ „Äā\nsize:25.5*14.5*31.5CM\nModel:052316","specs":{"source":"wsxcme","sourceId":"_drjrjlUn127k278tpfuEukKDIVfayD78d1IOx5A","sourceTagId":47002713,"sourceTagName":"/women's bag","modelNumber":"052316","rawTitle":"L‚äö‚Ąģw‚Ąģnew styleūüÜēsmall calfskin Puzzle Fold Tote , , L‚äö‚Ąģw‚Ąģ , ÔłŹshoulder carry top handle L‚äö‚Ąģw‚Ąģ „Äā\nsize:25.5*14.5*31.5CM\nModel:052316"},"price":null,"currency":"CNY","moq":1,"category":"loewe-women-bags","status":"active","alibaba_url":null,"images":["https://xcimg.szwego.com/img/6bf20321/20231013/i1697132567_4683_0.jpg","https://xcimg.szwego.com/img/6bf20321/20231013/i1697132567_2895_1.jpg","https://xcimg.szwego.com/img/6bf20321/20231013/i1697132567_3806_2.jpg","https://xcimg.szwego.com/img/6bf20321/20231013/i1697132567_3487_3.jpg","https://xcimg.szwego.com/img/6bf20321/20231013/i1697132567_1367_4.jpg","https://xcimg.szwego.com/img/6bf20321/20231013/i1697132567_7009_5.jpg","https://xcimg.szwego.com/img/6bf20321/20231013/i1697132567_7257_6.jpg","https://xcimg.szwego.com/img/6bf20321/20231013/i1697132567_1661_7.jpg","https://xcimg.szwego.com/img/6bf20321/20231013/i1697132567_914_8.jpg"],"created_at":"2025-02-10T14:06:11.363Z"},{"id":"item-815a2e5749f1","sku":"_drOrOJRRWYh1TIV6POTV1N9VqVLK5hu7p8aAAUg","name_en":"L‚äö‚Ąģw‚Ąģnew styleūüÜēsmall calfskin Puzzle Fold Tote , , L‚äö‚Ąģw‚Ąģ , ÔłŹshoulder carry top handle L‚äö‚Ąģw‚Ąģ „Äā","name_cn":"L‚äö‚Ąģw‚Ąģnew styleūüÜēsmall calfskin Puzzle Fold Tote , , L‚äö‚Ąģw‚Ąģ , ÔłŹshoulder carry top handle L‚äö‚Ąģw‚Ąģ „Äā\nsize:25.5*14.5*31.5CM\nModel:052316","specs":{"source":"wsxcme","sourceId":"_drOrOJRRWYh1TIV6POTV1N9VqVLK5hu7p8aAAUg","sourceTagId":47002713,"sourceTagName":"/women's bag","modelNumber":"052316","rawTitle":"L‚äö‚Ąģw‚Ąģnew styleūüÜēsmall calfskin Puzzle Fold Tote , , L‚äö‚Ąģw‚Ąģ , ÔłŹshoulder carry top handle L‚äö‚Ąģw‚Ąģ „Äā\nsize:25.5*14.5*31.5CM\nModel:052316"},"price":null,"currency":"CNY","moq":1,"category":"loewe-women-bags","status":"active","alibaba_url":null,"images":["https://xcimg.szwego.com/img/6bf20321/20230925/i1695575762_3706_0.jpg","https://xcimg.szwego.com/img/6bf20321/20230925/i1695575762_8290_1.jpg","https://xcimg.szwego.com/img/6bf20321/20230925/i1695575762_8595_2.jpg","https://xcimg.szwego.com/img/6bf20321/20230925/i1695575762_2178_3.jpg","https://xcimg.szwego.com/img/6bf20321/20230925/i1695575762_759_4.jpg","https://xcimg.szwego.com/img/6bf20321/20230925/i1695575762_813_5.jpg","https://xcimg.szwego.com/img/6bf20321/20230925/i1695575762_385_6.jpg","https://xcimg.szwego.com/img/6bf20321/20230925/i1695575762_9760_7.jpg","https://xcimg.szwego.com/img/6bf20321/20230925/i1695575762_5581_8.jpg"],"created_at":"2025-02-10T14:06:11.321Z"},{"id":"item-1f25a88970b4","sku":"_doNoNz9bSZ7m-A5fV3CWTT3QGA0I1eF7gizPVXQ","name_en":"L‚äö‚Ąģw‚Ąģnew styleūüÜēsmall calfskin Puzzle Fold Tote , , L‚äö‚Ąģw‚Ąģ , ÔłŹshoulder carry top handle L‚äö‚Ąģw‚Ąģ „Äā","name_cn":"L‚äö‚Ąģw‚Ąģnew styleūüÜēsmall calfskin Puzzle Fold Tote , , L‚äö‚Ąģw‚Ąģ , ÔłŹshoulder carry top handle L‚äö‚Ąģw‚Ąģ „Äā\nsize:25.5*14.5*31.5CM\nModel:052316","specs":{"source":"wsxcme","sourceId":"_doNoNz9bSZ7m-A5fV3CWTT3QGA0I1eF7gizPVXQ","sourceTagId":47002713,"sourceTagName":"/women's bag","modelNumber":"052316","rawTitle":"L‚äö‚Ąģw‚Ąģnew styleūüÜēsmall calfskin Puzzle Fold Tote , , L‚äö‚Ąģw‚Ąģ , ÔłŹshoulder carry top handle L‚äö‚Ąģw‚Ąģ „Äā\nsize:25.5*14.5*31.5CM\nModel:052316"},"price":null,"currency":"CNY","moq":1,"category":"loewe-women-bags","status":"active","alibaba_url":null,"images":["https://xcimg.szwego.com/img/6bf20321/20230927/i1695745309_7242_0.jpg","https://xcimg.szwego.com/img/6bf20321/20230927/i1695745309_2233_1.jpg","https://xcimg.szwego.com/img/6bf20321/20230927/i1695745309_9763_2.jpg","https://xcimg.szwego.com/img/6bf20321/20230927/i1695745309_204_3.jpg","https://xcimg.szwego.com/img/6bf20321/20230927/i1695745309_2908_4.jpg","https://xcimg.szwego.com/img/6bf20321/20230927/i1695745309_4506_5.jpg","https://xcimg.szwego.com/img/6bf20321/20230927/i1695745309_6686_6.jpg","https://xcimg.szwego.com/img/6bf20321/20230927/i1695745309_4499_7.jpg","https://xcimg.szwego.com/img/6bf20321/20230927/i1695745309_4849_8.jpg"],"created_at":"2025-02-10T14:06:11.322Z"},{"id":"item-1dd6fe1a8759","sku":"_dEuEueXMXcn_Z7MoQrotp3j6m7587oSGhUZ2Ozw","name_en":"L‚äö‚Ąģw‚Ąģnew styleūüÜēsmall calfskin Puzzle Fold Tote , , L‚äö‚Ąģw‚Ąģ , ÔłŹshoulder carry top handle L‚äö‚Ąģw‚Ąģ „Äā","name_cn":"L‚äö‚Ąģw‚Ąģnew styleūüÜēsmall calfskin Puzzle Fold Tote , , L‚äö‚Ąģw‚Ąģ , ÔłŹshoulder carry top handle L‚äö‚Ąģw‚Ąģ „Äā\nsize:25.5*14.5*31.5CM\nModel:052316","specs":{"source":"wsxcme","sourceId":"_dEuEueXMXcn_Z7MoQrotp3j6m7587oSGhUZ2Ozw","sourceTagId":47002713,"sourceTagName":"/women's bag","modelNumber":"052316","rawTitle":"L‚äö‚Ąģw‚Ąģnew styleūüÜēsmall calfskin Puzzle Fold Tote , , L‚äö‚Ąģw‚Ąģ , ÔłŹshoulder carry top handle L‚äö‚Ąģw‚Ąģ „Äā\nsize:25.5*14.5*31.5CM\nModel:052316"},"price":null,"currency":"CNY","moq":1,"category":"loewe-women-bags","status":"active","alibaba_url":null,"images":["https://xcimg.szwego.com/20230819/i1692378235_1384_0.jpg","https://xcimg.szwego.com/20230819/i1692378235_6252_1.jpg","https://xcimg.szwego.com/20230819/i1692378235_1305_2.jpg","https://xcimg.szwego.com/20230819/i1692378235_1758_3.jpg","https://xcimg.szwego.com/20230819/i1692378235_5510_4.jpg","https://xcimg.szwego.com/20230819/i1692378235_7783_5.jpg","https://xcimg.szwego.com/20230819/i1692378235_7611_6.jpg","https://xcimg.szwego.com/20230819/i1692378235_1923_7.jpg","https://xcimg.szwego.com/20230819/i1692378235_3309_8.jpg"],"created_at":"2025-02-10T14:06:11.323Z"},{"id":"item-e40709849c7e","sku":"_dmwmwKEfp2oR9l2Y-rrefkVqMzwfrvXRszaUJdw","name_en":"Lady","name_cn":"Lady","specs":{"source":"wsxcme","sourceId":"_dmwmwKEfp2oR9l2Y-rrefkVqMzwfrvXRszaUJdw","sourceTagId":47002747,"sourceTagName":"Dior/women's bag","rawTitle":"Lady"},"price":null,"currency":"CNY","moq":1,"category":"dior-women-bags","status":"active","alibaba_url":null,"images":["https://xcimg.szwego.com/img/2b46f204/20240708/i1720420579_9206_0.jpg"],"created_at":"2024-11-11T09:13:17.010Z"},{"id":"item-94766ecabe56","sku":"_dwqwqZkwasg0dIsfjlObkMKfT9sc2g7laB7avqQ","name_en":"Lady","name_cn":"Lady","specs":{"source":"wsxcme","sourceId":"_dwqwqZkwasg0dIsfjlObkMKfT9sc2g7laB7avqQ","sourceTagId":47002747,"sourceTagName":"Dior/women's bag","rawTitle":"Lady"},"price":null,"currency":"CNY","moq":1,"category":"dior-women-bags","status":"active","alibaba_url":null,"images":["https://xcimg.szwego.com/img/2b46f204/20240525/i1716625866_1408_0.jpg"],"created_at":"2024-11-11T09:13:17.008Z"},{"id":"item-89d238559747","sku":"_d48487qUeByZsYWo5LGI7iNMpcTUipNp_8umplw","name_en":"Lady","name_cn":"Lady","specs":{"source":"wsxcme","sourceId":"_d48487qUeByZsYWo5LGI7iNMpcTUipNp_8umplw","sourceTagId":47002747,"sourceTagName":"Dior/women's bag","rawTitle":"Lady"},"price":null,"currency":"CNY","moq":1,"category":"dior-women-bags","status":"active","alibaba_url":null,"images":["https://xcimg.szwego.com/20201207/i1607354347_8363_0.jpg"],"created_at":"2024-11-11T09:13:17.018Z"},{"id":"item-7afecb0d7722","sku":"_dOkOk6C4Gf3wolqh80n5z0p356FYySVFnxqSLjg","name_en":"Lady","name_cn":"Lady","specs":{"source":"wsxcme","sourceId":"_dOkOk6C4Gf3wolqh80n5z0p356FYySVFnxqSLjg","sourceTagId":47002747,"sourceTagName":"Dior/women's bag","rawTitle":"Lady"},"price":null,"currency":"CNY","moq":1,"category":"dior-women-bags","status":"active","alibaba_url":null,"images":["https://xcimg.szwego.com/20210106/i1609874084_2803_0.jpg"],"created_at":"2024-11-11T09:13:17.017Z"},{"id":"item-699fc1ac0445","sku":"_d9h9hvb3ITQHJy3yhlhoVEMBAgioPEXII5NN9tA","name_en":"Lady","name_cn":"Lady","specs":{"source":"wsxcme","sourceId":"_d9h9hvb3ITQHJy3yhlhoVEMBAgioPEXII5NN9tA","sourceTagId":47002747,"sourceTagName":"Dior/women's bag","rawTitle":"Lady"},"price":null,"currency":"CNY","moq":1,"category":"dior-women-bags","status":"active","alibaba_url":null,"images":["https://xcimg.szwego.com/img/2b46f204/20240525/i1716625814_4202_0.jpg"],"created_at":"2024-11-11T09:13:17.006Z"},{"id":"item-22424b133317","sku":"_dfrfrcDqU30NGUEGy18PylsoemEbC5v5Dr21Zng","name_en":"Lady","name_cn":"Lady","specs":{"source":"wsxcme","sourceId":"_dfrfrcDqU30NGUEGy18PylsoemEbC5v5Dr21Zng","sourceTagId":47002747,"sourceTagName":"Dior/women's bag","rawTitle":"Lady"},"price":null,"currency":"CNY","moq":1,"category":"dior-women-bags","status":"active","alibaba_url":null,"images":["https://xcimg.szwego.com/20201229/i1609174261_6418_0.jpg"],"created_at":"2024-11-11T09:13:17.016Z"},{"id":"item-21614962d2a2","sku":"_doFoFoEzyukY6jWk4A1XVcY0Ou14neuzdSwcyqw","name_en":"Lady","name_cn":"Lady","specs":{"source":"wsxcme","sourceId":"_doFoFoEzyukY6jWk4A1XVcY0Ou14neuzdSwcyqw","sourceTagId":47002747,"sourceTagName":"Dior/women's bag","rawTitle":"Lady"},"price":null,"currency":"CNY","moq":1,"category":"dior-women-bags","status":"active","alibaba_url":null,"images":["https://xcimg.szwego.com/20201229/i1609174160_774_0.jpg"],"created_at":"2024-11-11T09:13:17.019Z"},{"id":"item-023b578936a2","sku":"_diIiIrZV3L8iDQldvxTEA_9Km-F4D09QynDUWKg","name_en":"Lady","name_cn":"Lady","specs":{"source":"wsxcme","sourceId":"_diIiIrZV3L8iDQldvxTEA_9Km-F4D09QynDUWKg","sourceTagId":47002747,"sourceTagName":"Dior/women's bag","rawTitle":"Lady"},"price":null,"currency":"CNY","moq":1,"category":"dior-women-bags","status":"active","alibaba_url":null,"images":["https://xcimg.szwego.com/20201229/i1609174233_8792_0.jpg"],"created_at":"2024-11-11T09:13:17.020Z"},{"id":"item-572d920ef459","sku":"_dn9n9_X3jKnsnVHoiUL661oFMcqtb848dvsc_XA","name_en":"Lady Di 3-Compartment Black Suede","name_cn":"Lady Di 3-Compartment Black Suede","specs":{"source":"wsxcme","sourceId":"_dn9n9_X3jKnsnVHoiUL661oFMcqtb848dvsc_XA","sourceTagId":47002747,"sourceTagName":"Dior/women's bag","rawTitle":"Lady Di 3-Compartment Black Suede"},"price":null,"currency":"CNY","moq":1,"category":"dior-women-bags","status":"active","alibaba_url":null,"images":["https://xcimg.szwego.com/20210106/i1609873938_5786_0.jpg"],"created_at":"2024-11-11T09:13:17.014Z"},{"id":"item-5a5f2eeaf4a9","sku":"_dKQKQ6AX1Gf476qglv9tOtJtqgGhti3RtbdRr9w","name_en":"Lady Di 4-Compartment Black Suede","name_cn":"Lady Di 4-Compartment Black Suede","specs":{"source":"wsxcme","sourceId":"_dKQKQ6AX1Gf476qglv9tOtJtqgGhti3RtbdRr9w","sourceTagId":47002747,"sourceTagName":"Dior/women's bag","rawTitle":"Lady Di 4-Compartment Black Suede"},"price":null,"currency":"CNY","moq":1,"category":"dior-women-bags","status":"active","alibaba_url":null,"images":["https://xcimg.szwego.com/20201207/i1607354803_2637_0.jpg"],"created_at":"2024-11-11T09:13:17.013Z"},{"id":"item-156568d5c571","sku":"_dptptVukhU2b2Od2Rbf422SWeHpgPoOn1gjyDVg","name_en":"Lady Di 4-Compartment Suede","name_cn":"Lady Di 4-Compartment Suede","specs":{"source":"wsxcme","sourceId":"_dptptVukhU2b2Od2Rbf422SWeHpgPoOn1gjyDVg","sourceTagId":47002747,"sourceTagName":"Dior/women's bag","rawTitle":"Lady Di 4-Compartment Suede"},"price":null,"currency":"CNY","moq":1,"category":"dior-women-bags","status":"active","alibaba_url":null,"images":["https://xcimg.szwego.com/20201207/i1607354443_6859_0.jpg"],"created_at":"2024-11-11T09:13:17.015Z"},{"id":"item-74b9f694fab4","sku":"_dMAMAt9KuHy5_xq_lS62Pv9dKlBAQgm2XYzdqeg","name_en":"Lady Di Horizontal Sheepskin Milk Tea","name_cn":"Lady Di Horizontal Sheepskin Milk Tea","specs":{"source":"wsxcme","sourceId":"_dMAMAt9KuHy5_xq_lS62Pv9dKlBAQgm2XYzdqeg","sourceTagId":47002747,"sourceTagName":"Dior/women's bag","rawTitle":"Lady Di Horizontal Sheepskin Milk Tea"},"price":null,"currency":"CNY","moq":1,"category":"dior-women-bags","status":"active","alibaba_url":null,"images":["https://xcimg.szwego.com/20220616/i1655343309_9875_0.jpg"],"created_at":"2024-11-11T09:13:16.932Z"},{"id":"item-9deac7712c46","sku":"_dGXGXfLjpdSGKcrkzo4ExszoE9JJqBtlMCZvCYg","name_en":"Lady Di Horizontal Sheepskin Retro Pink","name_cn":"Lady Di Horizontal Sheepskin Retro Pink","specs":{"source":"wsxcme","sourceId":"_dGXGXfLjpdSGKcrkzo4ExszoE9JJqBtlMCZvCYg","sourceTagId":47002747,"sourceTagName":"Dior/women's bag","rawTitle":"Lady Di Horizontal Sheepskin Retro Pink"},"price":null,"currency":"CNY","moq":1,"category":"dior-women-bags","status":"active","alibaba_url":null,"images":["https://xcimg.szwego.com/20220818/i1660799968_1699_0.jpg"],"created_at":"2024-11-11T09:13:16.931Z"},{"id":"item-24d10ab17f3c","sku":"_dHOHOFaxWhmxtLgpq1XurPId8rVft8zPaJqf1eA","name_en":"Lady Diana 3-compartment","name_cn":"Lady Diana 3-compartment","specs":{"source":"wsxcme","sourceId":"_dHOHOFaxWhmxtLgpq1XurPId8rVft8zPaJqf1eA","sourceTagId":47002747,"sourceTagName":"Dior/women's bag","rawTitle":"Lady Diana 3-compartment"},"price":null,"currency":"CNY","moq":1,"category":"dior-women-bags","status":"active","alibaba_url":null,"images":["https://xcimg.szwego.com/img/2b46f204/20240524/i1716540700_8155_0.jpg"],"created_at":"2024-11-11T09:13:16.978Z"},{"id":"item-b477a0367435","sku":"_dsasatHzUr7OmRE5qkUeTriht66-Mw9maPToyVA","name_en":"Lady Diana 4-compartment","name_cn":"Lady Diana 4-compartment","specs":{"source":"wsxcme","sourceId":"_dsasatHzUr7OmRE5qkUeTriht66-Mw9maPToyVA","sourceTagId":47002747,"sourceTagName":"Dior/women's bag","rawTitle":"Lady Diana 4-compartment"},"price":null,"currency":"CNY","moq":1,"category":"dior-women-bags","status":"active","alibaba_url":null,"images":["https://xcimg.szwego.com/img/2b46f204/20240524/i1716540455_820_0.jpg"],"created_at":"2024-11-11T09:13:16.976Z"},{"id":"item-c8930057708d","sku":"_dfNfNsD7WSRZ7ihJapT9giDUq6JrZ25NhE0DWeA","name_en":"Lady Dior Four-Compartment Calfskin Lady D Bag","name_cn":"Lady Dior Four-Compartment Calfskin Lady D Bag\nūüíē Peony Pink New Colorway\nūüíē A very romantic color\nūüíē Truly healing","specs":{"source":"wsxcme","sourceId":"_dfNfNsD7WSRZ7ihJapT9giDUq6JrZ25NhE0DWeA","sourceTagId":47002747,"sourceTagName":"Dior/women's bag","rawTitle":"Lady Dior Four-Compartment Calfskin Lady D Bag\nūüíē Peony Pink New Colorway\nūüíē A very romantic color\nūüíē Truly healing"},"price":null,"currency":"CNY","moq":1,"category":"dior-women-bags","status":"active","alibaba_url":null,"images":["https://xcimg.szwego.com/20221130/i1669778013_5671_0.jpg","https://xcimg.szwego.com/20221130/i1669778013_685_1.jpg","https://xcimg.szwego.com/20221130/i1669778013_8965_2.jpg","https://xcimg.szwego.com/20221130/i1669778013_9443_3.jpg","https://xcimg.szwego.com/20221130/i1669778013_5560_4.jpg","https://xcimg.szwego.com/20221130/i1669778013_6478_5.jpg"],"created_at":"2024-11-11T09:13:16.951Z"}],"page":272,"pageSize":24,"total":9921,"totalPages":414}
