{"items":[{"id":"item-2ba49ffafe38","sku":"_dA6A6Uo-Q70hSe3sX0SWHSLkjdvWlRXUxOu8Nqw","name_en":"升级版2025 Loewe罗意威新款卡片包","name_cn":"升级版2025 Loewe罗意威新款卡片包\n信用卡 小零钱 水波纹牛皮\n相比老款精致啦不止一点点呀~~配盒、防尘袋! 情人节选这种小配饰也不错 ~~\n款号:L1149\n尺寸:10*7.5cm","specs":{"source":"wsxcme","sourceId":"_dA6A6Uo-Q70hSe3sX0SWHSLkjdvWlRXUxOu8Nqw","sourceTagId":47002663,"sourceTagName":"长短款钱包","modelNumber":"L1149","rawTitle":"升级版2025 Loewe罗意威新款卡片包\n信用卡 小零钱 水波纹牛皮\n相比老款精致啦不止一点点呀~~配盒、防尘袋! 情人节选这种小配饰也不错 ~~\n款号:L1149\n尺寸:10*7.5cm"},"price":null,"currency":"CNY","moq":1,"category":"women-wallets","status":"active","alibaba_url":null,"images":["https://xcimg.szwego.com/imgHD/80e46a01/20260102/cmp_i1767354999890_5806_0_0.jpg","https://xcimg.szwego.com/imgHD/80e46a01/20260102/cmp_i1767354999813_6597_0_1.jpg","https://xcimg.szwego.com/imgHD/80e46a01/20260102/cmp_i1767354999875_404_0_2.jpg","https://xcimg.szwego.com/imgHD/80e46a01/20260102/cmp_i1767354999891_6978_0_3.jpg","https://xcimg.szwego.com/imgHD/80e46a01/20260102/cmp_i1767355000420_1003_0_4.jpg","https://xcimg.szwego.com/imgHD/80e46a01/20260102/cmp_i1767354999880_2698_0_5.jpg"],"created_at":"2026-05-20T08:55:15.984Z"},{"id":"item-1090e5e46c5d","sku":"_doKoKhYDf8G1EsV4z5vQtCZMw_-FJcB8v1k2jSw","name_en":"升级版本⚠️。N41207 白格!麻将包 这‮配款‬饰包‮谓可‬永‮的远‬经‮款典‬式 帆布‮成制‬的‮款一‬小‮轻巧‬便‮手的‬袋,可手‮可提‬斜挎,它是‮出你‬席任‮场何‬合都可以携带的经‮款典‬式。拉链‮式款‬设计是使‮更用‬便捷。尺寸:21 x 13 x 3 cm。","name_cn":"升级版本⚠️。N41207 白格!麻将包 这‮配款‬饰包‮谓可‬永‮的远‬经‮款典‬式 帆布‮成制‬的‮款一‬小‮轻巧‬便‮手的‬袋,可手‮可提‬斜挎,它是‮出你‬席任‮场何‬合都可以携带的经‮款典‬式。拉链‮式款‬设计是使‮更用‬便捷。尺寸:21 x 13 x 3 cm。","specs":{"source":"wsxcme","sourceId":"_doKoKhYDf8G1EsV4z5vQtCZMw_-FJcB8v1k2jSw","sourceTagId":47002622,"sourceTagName":"LV/女包","dimensions":{"lengthCm":21,"heightCm":13,"widthCm":3},"rawTitle":"升级版本⚠️。N41207 白格!麻将包 这‮配款‬饰包‮谓可‬永‮的远‬经‮款典‬式 帆布‮成制‬的‮款一‬小‮轻巧‬便‮手的‬袋,可手‮可提‬斜挎,它是‮出你‬席任‮场何‬合都可以携带的经‮款典‬式。拉链‮式款‬设计是使‮更用‬便捷。尺寸:21 x 13 x 3 cm。"},"price":null,"currency":"CNY","moq":1,"category":"lv-women-bags","status":"active","alibaba_url":null,"images":["https://xcimg.szwego.com/20220407/i1649268695_6609_0.jpg","https://xcimg.szwego.com/20220407/i1649268695_9673_1.jpg","https://xcimg.szwego.com/20220407/i1649268695_4526_2.jpg","https://xcimg.szwego.com/20220407/i1649268695_3541_3.jpg","https://xcimg.szwego.com/20220407/i1649268695_9931_4.jpg","https://xcimg.szwego.com/20220407/i1649268695_7198_5.jpg","https://xcimg.szwego.com/20220407/i1649268695_2832_6.jpg","https://xcimg.szwego.com/20220407/i1649268695_7206_7.jpg","https://xcimg.szwego.com/20220407/i1649268695_8891_8.jpg"],"created_at":"2024-05-01T03:18:16.070Z"},{"id":"item-ef3a29f0010c","sku":"_dtttt2Rlfg8Eo4WhauBMnTW6h5qw3DF2g_UGMug","name_en":"升级版本⚠️M40712 布蓝!麻将包 浅蓝色丹宁牛仔、这配款饰包谓可永的远经款典式 帆布成制的款一小轻巧便手的袋,可手可提斜挎,它是出你席任场何合都可以携带的经款典式。拉链式款设计是使更用便捷。尺寸:21 x 13 x 3 cm。","name_cn":"升级版本⚠️M40712 布蓝!麻将包 浅蓝色丹宁牛仔、这配款饰包谓可永的远经款典式 帆布成制的款一小轻巧便手的袋,可手可提斜挎,它是出你席任场何合都可以携带的经款典式。拉链式款设计是使更用便捷。尺寸:21 x 13 x 3 cm。","specs":{"source":"wsxcme","sourceId":"_dtttt2Rlfg8Eo4WhauBMnTW6h5qw3DF2g_UGMug","sourceTagId":47002622,"sourceTagName":"LV/女包","dimensions":{"lengthCm":21,"heightCm":13,"widthCm":3},"rawTitle":"升级版本⚠️M40712 布蓝!麻将包 浅蓝色丹宁牛仔、这配款饰包谓可永的远经款典式 帆布成制的款一小轻巧便手的袋,可手可提斜挎,它是出你席任场何合都可以携带的经款典式。拉链式款设计是使更用便捷。尺寸:21 x 13 x 3 cm。"},"price":null,"currency":"CNY","moq":1,"category":"lv-women-bags","status":"active","alibaba_url":null,"images":["https://xcimg.szwego.com/20240616/i1718484251_4602_0.jpg","https://xcimg.szwego.com/20240616/i1718484251_562_1.jpg","https://xcimg.szwego.com/20240616/i1718484251_5671_2.jpg","https://xcimg.szwego.com/20240616/i1718484251_8648_3.jpg","https://xcimg.szwego.com/20240616/i1718484251_3386_4.jpg","https://xcimg.szwego.com/20240616/i1718484251_8718_5.jpg","https://xcimg.szwego.com/20240616/i1718484251_2793_6.jpg","https://xcimg.szwego.com/20240616/i1718484251_120_7.jpg","https://xcimg.szwego.com/20240616/i1718484251_16_8.jpg"],"created_at":"2024-07-12T04:58:08.707Z"},{"id":"item-3e3c7720276a","sku":"_dLNLN4WoePbsv2T9IraG0MSLIn8DcAVssGXH_6Q","name_en":"升级版本⚠️M40712 老花!麻将包 这‮配款‬饰包‮谓可‬永‮的远‬经‮款典‬式 帆布‮成制‬的‮款一‬小‮轻巧‬便‮手的‬袋,可手‮可提‬斜挎,它是‮出你‬席任‮场何‬合都可以携带的经‮款典‬式。拉链‮式款‬设计是使‮更用‬便捷。尺寸:21 x 13 x 3 cm。","name_cn":"升级版本⚠️M40712 老花!麻将包 这‮配款‬饰包‮谓可‬永‮的远‬经‮款典‬式 帆布‮成制‬的‮款一‬小‮轻巧‬便‮手的‬袋,可手‮可提‬斜挎,它是‮出你‬席任‮场何‬合都可以携带的经‮款典‬式。拉链‮式款‬设计是使‮更用‬便捷。尺寸:21 x 13 x 3 cm。","specs":{"source":"wsxcme","sourceId":"_dLNLN4WoePbsv2T9IraG0MSLIn8DcAVssGXH_6Q","sourceTagId":47002622,"sourceTagName":"LV/女包","dimensions":{"lengthCm":21,"heightCm":13,"widthCm":3},"rawTitle":"升级版本⚠️M40712 老花!麻将包 这‮配款‬饰包‮谓可‬永‮的远‬经‮款典‬式 帆布‮成制‬的‮款一‬小‮轻巧‬便‮手的‬袋,可手‮可提‬斜挎,它是‮出你‬席任‮场何‬合都可以携带的经‮款典‬式。拉链‮式款‬设计是使‮更用‬便捷。尺寸:21 x 13 x 3 cm。"},"price":null,"currency":"CNY","moq":1,"category":"lv-women-bags","status":"active","alibaba_url":null,"images":["https://xcimg.szwego.com/20220407/i1649268768_8946_0.jpg","https://xcimg.szwego.com/20220407/i1649268768_4097_1.jpg","https://xcimg.szwego.com/20220407/i1649268768_3027_2.jpg","https://xcimg.szwego.com/20220407/i1649268768_7877_3.jpg","https://xcimg.szwego.com/20220407/i1649268768_6060_4.jpg","https://xcimg.szwego.com/20220407/i1649268768_4693_5.jpg","https://xcimg.szwego.com/20220407/i1649268768_2931_6.jpg","https://xcimg.szwego.com/20220407/i1649268768_6922_7.jpg","https://xcimg.szwego.com/20220407/i1649268768_113_8.jpg"],"created_at":"2024-05-01T03:18:16.069Z"},{"id":"item-7fed40269b25","sku":"_dR0R0tlEg6-mpHB0yaZZDKXdNSnekjHvIaKkUIQ","name_en":"升级版本⚠️M83532 浅蓝色丹宁牛仔 链条腋下包系列 Liv Pochette 手袋 Liv pochette重新采用漂白和石洗的Monogram牛仔布,具有复古的外观和夏季的感觉。这款小包旨在舒适地放在腋下,配有金色金属可拆卸链条和可拆卸、可调节的陈年天然皮革表带。它用路易威登雕刻的牌匾签名。尺寸:24.5 x 13.5 x 6.5厘米。","name_cn":"升级版本⚠️M83532 浅蓝色丹宁牛仔 链条腋下包系列 Liv Pochette 手袋 Liv pochette重新采用漂白和石洗的Monogram牛仔布,具有复古的外观和夏季的感觉。这款小包旨在舒适地放在腋下,配有金色金属可拆卸链条和可拆卸、可调节的陈年天然皮革表带。它用路易威登雕刻的牌匾签名。尺寸:24.5 x 13.5 x 6.5厘米。","specs":{"source":"wsxcme","sourceId":"_dR0R0tlEg6-mpHB0yaZZDKXdNSnekjHvIaKkUIQ","sourceTagId":47002622,"sourceTagName":"LV/女包","dimensions":{"lengthCm":24.5,"heightCm":13.5,"widthCm":6.5},"rawTitle":"升级版本⚠️M83532 浅蓝色丹宁牛仔 链条腋下包系列 Liv Pochette 手袋 Liv pochette重新采用漂白和石洗的Monogram牛仔布,具有复古的外观和夏季的感觉。这款小包旨在舒适地放在腋下,配有金色金属可拆卸链条和可拆卸、可调节的陈年天然皮革表带。它用路易威登雕刻的牌匾签名。尺寸:24.5 x 13.5 x 6.5厘米。"},"price":null,"currency":"CNY","moq":1,"category":"lv-women-bags","status":"active","alibaba_url":null,"images":["https://xcimg.szwego.com/20240615/i1718395533_7916_0.jpg","https://xcimg.szwego.com/20240615/i1718395533_6475_1.jpg","https://xcimg.szwego.com/20240615/i1718395533_351_2.jpg","https://xcimg.szwego.com/20240615/i1718395533_7648_3.jpg","https://xcimg.szwego.com/20240615/i1718395533_4801_4.jpg","https://xcimg.szwego.com/20240615/i1718395533_7328_5.jpg","https://xcimg.szwego.com/20240615/i1718395533_7701_6.jpg"],"created_at":"2024-07-12T04:58:08.708Z"},{"id":"item-dbd3833d8023","sku":"_dKvKvMVJZ8EFMhXBxYZCpW7-TrsWPDthx0vbscA","name_en":"升级版带芯片五金~杏色回货❤️Ohanel 19手袋","name_cn":"升级版带芯片五金~杏色回货❤️Ohanel 19手袋\n\n作为香奈儿的重要数字,“19”沿用里了品牌经典的命名方式,代表其所诞生的年份是2019,一如香奈儿女士于1955年2月推出的2.55手袋❗️\n\n 口盖包 小号 杏色ZP皮 全面出货!!\n\n轻盈绵柔质感羊皮结合大菱格设计元素\n三种背法:斜挎、单肩、手提\n链条拼接:古金、古银、亮银\n小号尺寸:16x26x9cm(图为)","specs":{"source":"wsxcme","sourceId":"_dKvKvMVJZ8EFMhXBxYZCpW7-TrsWPDthx0vbscA","sourceTagId":47002745,"sourceTagName":"香奈儿/女包","dimensions":{"lengthCm":16,"heightCm":26,"widthCm":9},"rawTitle":"升级版带芯片五金~杏色回货❤️Ohanel 19手袋\n\n作为香奈儿的重要数字,“19”沿用里了品牌经典的命名方式,代表其所诞生的年份是2019,一如香奈儿女士于1955年2月推出的2.55手袋❗️\n\n 口盖包 小号 杏色ZP皮 全面出货!!\n\n轻盈绵柔质感羊皮结合大菱格设计元素\n三种背法:斜挎、单肩、手提\n链条拼接:古金、古银、亮银\n小号尺寸:16x26x9cm(图为)"},"price":null,"currency":"CNY","moq":1,"category":"chanel-women-bags","status":"active","alibaba_url":null,"images":["https://xcimg.szwego.com/20220410/i1649559248_9231_0.jpg","https://xcimg.szwego.com/20220410/i1649559248_1468_1.jpg","https://xcimg.szwego.com/20220410/i1649559248_5909_2.jpg","https://xcimg.szwego.com/20220410/i1649559248_2248_3.jpg","https://xcimg.szwego.com/20220410/i1649559248_2422_4.jpg","https://xcimg.szwego.com/20220410/i1649559248_8908_5.jpg","https://xcimg.szwego.com/20220410/i1649559248_2918_6.jpg","https://xcimg.szwego.com/20220410/i1649559248_8809_7.jpg","https://xcimg.szwego.com/20220410/i1649559248_7066_8.jpg"],"created_at":"2024-05-01T03:19:54.452Z"},{"id":"item-d563c4e73978","sku":"_djejetR6Xcv8v85Fn9BDWklvKMC1r41el9pEbaQ","name_en":"升级版B家顶级新款收纳小水桶搭配格纹元素 更加经典休闲亮点是非常轻!空间大容易收纳 ,配有手提皮带,还有肩背皮带。","name_cn":"升级版B家顶级新款收纳小水桶搭配格纹元素 更加经典休闲亮点是非常轻!空间大容易收纳 ,配有手提皮带,还有肩背皮带。\n尺寸:21.14.24  、2232","specs":{"source":"wsxcme","sourceId":"_djejetR6Xcv8v85Fn9BDWklvKMC1r41el9pEbaQ","sourceTagId":80411239,"sourceTagName":"巴宝莉/女包","rawTitle":"升级版B家顶级新款收纳小水桶搭配格纹元素 更加经典休闲亮点是非常轻!空间大容易收纳 ,配有手提皮带,还有肩背皮带。\n尺寸:21.14.24  、2232"},"price":null,"currency":"CNY","moq":1,"category":"burberry-women-bags","status":"active","alibaba_url":null,"images":["https://xcimg.szwego.com/20220810/a1660108435561_6873.jpg","https://xcimg.szwego.com/20220810/a1660108435642_1107.jpg","https://xcimg.szwego.com/20220810/a1660108435722_6251.jpg","https://xcimg.szwego.com/20220810/a1660108435822_2886.jpg","https://xcimg.szwego.com/20220810/a1660108435939_1247.jpg","https://xcimg.szwego.com/20220810/a1660108436064_2360.jpg","https://xcimg.szwego.com/20220810/a1660108436173_2531.jpg","https://xcimg.szwego.com/20220810/a1660108436312_4388.jpg","https://xcimg.szwego.com/20220810/a1660108436413_0367.jpg"],"created_at":"2025-01-20T12:43:24.123Z"},{"id":"item-126ca83e376d","sku":"_dm4m4hLbhXTuLcFl9tsG0PtiW5StGRu3XbMUXhQ","name_en":"升级版B家顶级新款收纳小水桶搭配格纹元素 更加经典休闲亮点是非常轻!空间大容易收纳 ,配有手提皮带,还有肩背皮带。","name_cn":"升级版B家顶级新款收纳小水桶搭配格纹元素 更加经典休闲亮点是非常轻!空间大容易收纳 ,配有手提皮带,还有肩背皮带。\n尺寸:21.14.24  、2232","specs":{"source":"wsxcme","sourceId":"_dm4m4hLbhXTuLcFl9tsG0PtiW5StGRu3XbMUXhQ","sourceTagId":80411239,"sourceTagName":"巴宝莉/女包","rawTitle":"升级版B家顶级新款收纳小水桶搭配格纹元素 更加经典休闲亮点是非常轻!空间大容易收纳 ,配有手提皮带,还有肩背皮带。\n尺寸:21.14.24  、2232"},"price":null,"currency":"CNY","moq":1,"category":"burberry-women-bags","status":"active","alibaba_url":null,"images":["https://xcimg.szwego.com/20220810/a1660108446913_3775.jpg","https://xcimg.szwego.com/20220810/a1660108446990_7008.jpg","https://xcimg.szwego.com/20220810/a1660108447070_5032.jpg","https://xcimg.szwego.com/20220810/a1660108447158_3587.jpg","https://xcimg.szwego.com/20220810/a1660108447284_5406.jpg","https://xcimg.szwego.com/20220810/a1660108447347_3832.jpg","https://xcimg.szwego.com/20220810/a1660108447447_3023.jpg","https://xcimg.szwego.com/20220810/a1660108447553_7067.jpg","https://xcimg.szwego.com/20220810/a1660108447654_5466.jpg"],"created_at":"2025-01-20T12:43:24.122Z"},{"id":"item-f027df0e8944","sku":"_dHMHMweOgXJpY6fVrIVikEoNV_99JdRpmMMBaog","name_en":"升级版B家格子料皮革钱夹,随附链饰皮革肩背带。本品可作为小型手袋单独使用,或作为钱夹收置于日常手袋内。专柜品质、做工精细实物拍摄,黑色格子尺寸21cm*12cm*3cm、8687","name_cn":"升级版B家格子料皮革钱夹,随附链饰皮革肩背带。本品可作为小型手袋单独使用,或作为钱夹收置于日常手袋内。专柜品质、做工精细实物拍摄,黑色格子尺寸21cm*12cm*3cm、8687","specs":{"source":"wsxcme","sourceId":"_dHMHMweOgXJpY6fVrIVikEoNV_99JdRpmMMBaog","sourceTagId":80411239,"sourceTagName":"巴宝莉/女包","rawTitle":"升级版B家格子料皮革钱夹,随附链饰皮革肩背带。本品可作为小型手袋单独使用,或作为钱夹收置于日常手袋内。专柜品质、做工精细实物拍摄,黑色格子尺寸21cm*12cm*3cm、8687"},"price":null,"currency":"CNY","moq":1,"category":"burberry-women-bags","status":"active","alibaba_url":null,"images":["https://xcimg.szwego.com/o_1fu901hb98i3m9n1pa5frv1ld517.jpg","https://xcimg.szwego.com/o_1fu901hb9i9uigf10mujum34418.jpg","https://xcimg.szwego.com/o_1fu901hb91k3upuk10nb16t51gre19.jpg","https://xcimg.szwego.com/o_1fu901hb918gobci135a1pmg107k1a.jpg","https://xcimg.szwego.com/o_1fu901hb91alatjpj0k17ke1hk31b.jpg","https://xcimg.szwego.com/o_1fu901hb917m75251djh1t2o1hj81c.jpg","https://xcimg.szwego.com/o_1fu901hb9tcn1icehfupuiqmb1d.jpg","https://xcimg.szwego.com/o_1fu901hb9pkgvmn11lned1hgn1e.jpg"],"created_at":"2025-01-20T12:43:24.124Z"},{"id":"item-61648ab40a2f","sku":"_dpkpksFdh7JnwG9EoDSQ-q7L3Ng72xpgGVymeQg","name_en":"升级版B家格子料皮革钱夹,随附链饰皮革肩背带。本品可作为小型手袋单独使用,或作为钱夹收置于日常手袋内。专柜品质、做工精细实物拍摄,黑色格子尺寸21cm*12cm*3cm、8687","name_cn":"升级版B家格子料皮革钱夹,随附链饰皮革肩背带。本品可作为小型手袋单独使用,或作为钱夹收置于日常手袋内。专柜品质、做工精细实物拍摄,黑色格子尺寸21cm*12cm*3cm、8687","specs":{"source":"wsxcme","sourceId":"_dpkpksFdh7JnwG9EoDSQ-q7L3Ng72xpgGVymeQg","sourceTagId":80411239,"sourceTagName":"巴宝莉/女包","rawTitle":"升级版B家格子料皮革钱夹,随附链饰皮革肩背带。本品可作为小型手袋单独使用,或作为钱夹收置于日常手袋内。专柜品质、做工精细实物拍摄,黑色格子尺寸21cm*12cm*3cm、8687"},"price":null,"currency":"CNY","moq":1,"category":"burberry-women-bags","status":"active","alibaba_url":null,"images":["https://xcimg.szwego.com/o_1fu902olvip51uh91jrkscbi2945.jpg","https://xcimg.szwego.com/o_1fu902olvplt1rbh7cjse4s46.jpg","https://xcimg.szwego.com/o_1fu902olvs751prtb0t92lor47.jpg","https://xcimg.szwego.com/o_1fu902olv8e2tgv1fal1k5714qg48.jpg","https://xcimg.szwego.com/o_1fu902olvdul16cc5lc1pie12f449.jpg","https://xcimg.szwego.com/o_1fu902olvq4j47q1kvs1p481f1s4a.jpg","https://xcimg.szwego.com/o_1fu902olv1l1d3ej121s1umpcvg4b.jpg","https://xcimg.szwego.com/o_1fu902olv1ggd1so699dk10fnv4c.jpg"],"created_at":"2025-01-20T12:43:24.125Z"},{"id":"item-894683bf03ae","sku":"_dyNyNxFj9z9Ey0CiToeT-nBPI4P9tuQHJZekpkQ","name_en":"升级版LOEWE","name_cn":"升级版LOEWE \n小号 七字拉链 小零钱包 \n牛皮 制作拼色设计\n颜色如图 \n尺寸:12.5*7.5*1.5cm\n做工精致,  媲美!多功能小卡包,超级实用\n款号:L1144","specs":{"source":"wsxcme","sourceId":"_dyNyNxFj9z9Ey0CiToeT-nBPI4P9tuQHJZekpkQ","sourceTagId":47002663,"sourceTagName":"长短款钱包","modelNumber":"L1144","dimensions":{"lengthCm":12.5,"heightCm":7.5,"widthCm":1.5},"rawTitle":"升级版LOEWE \n小号 七字拉链 小零钱包 \n牛皮 制作拼色设计\n颜色如图 \n尺寸:12.5*7.5*1.5cm\n做工精致,  媲美!多功能小卡包,超级实用\n款号:L1144"},"price":null,"currency":"CNY","moq":1,"category":"women-wallets","status":"active","alibaba_url":null,"images":["https://xcimg.szwego.com/imgHD/80e46a01/20260107/cmp_i1767749655915_5199_0_6.jpg","https://xcimg.szwego.com/imgHD/80e46a01/20260107/cmp_i1767764171754_3030_0_1.jpg","https://xcimg.szwego.com/imgHD/80e46a01/20260107/cmp_i1767749558156_1929_0_2.jpg","https://xcimg.szwego.com/imgHD/80e46a01/20260107/cmp_i1767749558188_4471_0_3.jpg","https://xcimg.szwego.com/imgHD/80e46a01/20260107/cmp_i1767749558204_9480_0_4.jpg","https://xcimg.szwego.com/imgHD/80e46a01/20260107/cmp_i1767749558230_7043_0_5.jpg"],"created_at":"2026-05-20T08:55:15.604Z"},{"id":"item-7212e80e5dc1","sku":"_dwWwWrKFzqMrRDtDY7Vc-dm2mPxVlHgL_gUqWDA","name_en":"升级版LOEWE","name_cn":"升级版LOEWE \n小号 七字拉链 小零钱包 \n牛皮 制作 压logo\n颜色如图 \n尺寸:12.5*7.5*1.5cm\n做工精致,  媲美!多功能小卡包,超级实用\n款号:L1148","specs":{"source":"wsxcme","sourceId":"_dwWwWrKFzqMrRDtDY7Vc-dm2mPxVlHgL_gUqWDA","sourceTagId":47002663,"sourceTagName":"长短款钱包","modelNumber":"L1148","dimensions":{"lengthCm":12.5,"heightCm":7.5,"widthCm":1.5},"rawTitle":"升级版LOEWE \n小号 七字拉链 小零钱包 \n牛皮 制作 压logo\n颜色如图 \n尺寸:12.5*7.5*1.5cm\n做工精致,  媲美!多功能小卡包,超级实用\n款号:L1148"},"price":null,"currency":"CNY","moq":1,"category":"women-wallets","status":"active","alibaba_url":null,"images":["https://xcimg.szwego.com/imgHD/80e46a01/20260106/cmp_i1767699624000_587_0_0.jpg","https://xcimg.szwego.com/imgHD/80e46a01/20260106/cmp_i1767699623035_5195_0_1.jpg","https://xcimg.szwego.com/imgHD/80e46a01/20260106/cmp_i1767699623002_3335_0_2.jpg","https://xcimg.szwego.com/imgHD/80e46a01/20260106/cmp_i1767699622960_1795_0_3.jpg","https://xcimg.szwego.com/imgHD/80e46a01/20260106/cmp_i1767699622963_8552_0_4.jpg","https://xcimg.szwego.com/imgHD/80e46a01/20260106/cmp_i1767699622999_3059_0_5.jpg"],"created_at":"2026-05-20T08:55:15.764Z"},{"id":"item-5541480e0d06","sku":"_dlUlUialJMgA8LGOYSxwq7Wxt54ISlKbB5EEXRA","name_en":"升级版LOEWE","name_cn":"升级版LOEWE \n小号 七字拉链 小零钱包 \n牛皮 制作 压logo\n颜色如图 \n尺寸:12.5*7.5*1.5cm\n做工精致,  媲美!多功能小卡包,超级实用\n款号:L1148","specs":{"source":"wsxcme","sourceId":"_dlUlUialJMgA8LGOYSxwq7Wxt54ISlKbB5EEXRA","sourceTagId":47002663,"sourceTagName":"长短款钱包","modelNumber":"L1148","dimensions":{"lengthCm":12.5,"heightCm":7.5,"widthCm":1.5},"rawTitle":"升级版LOEWE \n小号 七字拉链 小零钱包 \n牛皮 制作 压logo\n颜色如图 \n尺寸:12.5*7.5*1.5cm\n做工精致,  媲美!多功能小卡包,超级实用\n款号:L1148"},"price":null,"currency":"CNY","moq":1,"category":"women-wallets","status":"active","alibaba_url":null,"images":["https://xcimg.szwego.com/imgHD/80e46a01/20260106/cmp_i1767699667717_6036_0_0.jpg","https://xcimg.szwego.com/imgHD/80e46a01/20260106/cmp_i1767699666752_9341_0_1.jpg","https://xcimg.szwego.com/imgHD/80e46a01/20260106/cmp_i1767699666694_8021_0_2.jpg","https://xcimg.szwego.com/imgHD/80e46a01/20260106/cmp_i1767699666668_4246_0_3.jpg","https://xcimg.szwego.com/imgHD/80e46a01/20260106/cmp_i1767699666717_8191_0_4.jpg","https://xcimg.szwego.com/imgHD/80e46a01/20260106/cmp_i1767699666710_9910_0_5.jpg"],"created_at":"2026-05-20T08:55:15.754Z"},{"id":"item-2cf0f5e317ca","sku":"_dkIkISe3y8qaDHj4YHn-IhcqBGVInhrTi9LEDgg","name_en":"升级版LOEWE","name_cn":"升级版LOEWE \n小号 七字拉链 小零钱包 \n牛皮 制作 压logo\n颜色如图 \n尺寸:12.5*7.5*1.5cm\n做工精致,  媲美!多功能小卡包,超级实用\n款号:L1148","specs":{"source":"wsxcme","sourceId":"_dkIkISe3y8qaDHj4YHn-IhcqBGVInhrTi9LEDgg","sourceTagId":47002663,"sourceTagName":"长短款钱包","modelNumber":"L1148","dimensions":{"lengthCm":12.5,"heightCm":7.5,"widthCm":1.5},"rawTitle":"升级版LOEWE \n小号 七字拉链 小零钱包 \n牛皮 制作 压logo\n颜色如图 \n尺寸:12.5*7.5*1.5cm\n做工精致,  媲美!多功能小卡包,超级实用\n款号:L1148"},"price":null,"currency":"CNY","moq":1,"category":"women-wallets","status":"active","alibaba_url":null,"images":["https://xcimg.szwego.com/imgHD/80e46a01/20260106/cmp_i1767699702241_4000_0_0.jpg","https://xcimg.szwego.com/imgHD/80e46a01/20260106/cmp_i1767699702275_4541_0_1.jpg","https://xcimg.szwego.com/imgHD/80e46a01/20260106/cmp_i1767699702248_8676_0_2.jpg","https://xcimg.szwego.com/imgHD/80e46a01/20260106/cmp_i1767699702248_7841_0_3.jpg","https://xcimg.szwego.com/imgHD/80e46a01/20260106/cmp_i1767699702259_4313_0_4.jpg","https://xcimg.szwego.com/imgHD/80e46a01/20260106/cmp_i1767699702863_1933_0_5.jpg"],"created_at":"2026-05-20T08:55:15.734Z"},{"id":"item-2483fe7a9cad","sku":"_dqgqgrCit9A53K09kt76Ry7azziIh5wRp_L7V8w","name_en":"升级版LOEWE","name_cn":"升级版LOEWE \n小号 七字拉链 小零钱包 \n牛皮 制作 压logo\n颜色如图 \n尺寸:12.5*7.5*1.5cm\n做工精致,  媲美!多功能小卡包,超级实用\n款号:L1148","specs":{"source":"wsxcme","sourceId":"_dqgqgrCit9A53K09kt76Ry7azziIh5wRp_L7V8w","sourceTagId":47002663,"sourceTagName":"长短款钱包","modelNumber":"L1148","dimensions":{"lengthCm":12.5,"heightCm":7.5,"widthCm":1.5},"rawTitle":"升级版LOEWE \n小号 七字拉链 小零钱包 \n牛皮 制作 压logo\n颜色如图 \n尺寸:12.5*7.5*1.5cm\n做工精致,  媲美!多功能小卡包,超级实用\n款号:L1148"},"price":null,"currency":"CNY","moq":1,"category":"women-wallets","status":"active","alibaba_url":null,"images":["https://xcimg.szwego.com/imgHD/80e46a01/20260106/cmp_i1767699683162_7361_0_0.jpg","https://xcimg.szwego.com/imgHD/80e46a01/20260106/cmp_i1767699683158_3703_0_1.jpg","https://xcimg.szwego.com/imgHD/80e46a01/20260106/cmp_i1767699683180_9480_0_2.jpg","https://xcimg.szwego.com/imgHD/80e46a01/20260106/cmp_i1767699683130_8730_0_3.jpg","https://xcimg.szwego.com/imgHD/80e46a01/20260106/cmp_i1767699683839_9191_0_4.jpg","https://xcimg.szwego.com/imgHD/80e46a01/20260106/cmp_i1767699683195_8151_0_5.jpg"],"created_at":"2026-05-20T08:55:15.744Z"},{"id":"item-201cd3ae72d3","sku":"_dpcpcggDzVVGFiGV7et85aj_ue76KkTaZXxgN2Q","name_en":"升级版LOEWE","name_cn":"升级版LOEWE \n小号 七字拉链 小零钱包 \n牛皮 制作拼色设计\n颜色如图 \n尺寸:12.5*7.5*1.5cm\n做工精致,  媲美!多功能小卡包,超级实用\n款号:L1144","specs":{"source":"wsxcme","sourceId":"_dpcpcggDzVVGFiGV7et85aj_ue76KkTaZXxgN2Q","sourceTagId":47002663,"sourceTagName":"长短款钱包","modelNumber":"L1144","dimensions":{"lengthCm":12.5,"heightCm":7.5,"widthCm":1.5},"rawTitle":"升级版LOEWE \n小号 七字拉链 小零钱包 \n牛皮 制作拼色设计\n颜色如图 \n尺寸:12.5*7.5*1.5cm\n做工精致,  媲美!多功能小卡包,超级实用\n款号:L1144"},"price":null,"currency":"CNY","moq":1,"category":"women-wallets","status":"active","alibaba_url":null,"images":["https://xcimg.szwego.com/imgHD/80e46a01/20260107/cmp_i1767764169391_2482_0_0.jpg","https://xcimg.szwego.com/imgHD/80e46a01/20260107/cmp_i1767749574681_4990_0_1.jpg","https://xcimg.szwego.com/imgHD/80e46a01/20260107/cmp_i1767749574683_397_0_2.jpg","https://xcimg.szwego.com/imgHD/80e46a01/20260107/cmp_i1767749574698_2557_0_3.jpg","https://xcimg.szwego.com/imgHD/80e46a01/20260107/cmp_i1767749574659_5703_0_4.jpg","https://xcimg.szwego.com/imgHD/80e46a01/20260107/cmp_i1767749574667_9080_0_5.jpg"],"created_at":"2026-05-20T08:55:15.614Z"},{"id":"item-ebe564d5eb32","sku":"_ddadatkcSlp-YiK3zwKBoZUqTEvX2W7HE3D8ZVg","name_en":"圣罗兰 标志正面翻盖包,配有马衔索式链条肩带、经典没流苏款,牛皮革,磁石按扣封口,内侧隔层袋,尺寸24×14.5×5.5cm,编号3613,","name_cn":"圣罗兰 标志正面翻盖包,配有马衔索式链条肩带、经典没流苏款,牛皮革,磁石按扣封口,内侧隔层袋,尺寸24×14.5×5.5cm,编号3613,","specs":{"source":"wsxcme","sourceId":"_ddadatkcSlp-YiK3zwKBoZUqTEvX2W7HE3D8ZVg","sourceTagId":47002761,"sourceTagName":"圣罗兰/女包","dimensions":{"lengthCm":24,"heightCm":14.5,"widthCm":5.5},"rawTitle":"圣罗兰 标志正面翻盖包,配有马衔索式链条肩带、经典没流苏款,牛皮革,磁石按扣封口,内侧隔层袋,尺寸24×14.5×5.5cm,编号3613,"},"price":null,"currency":"CNY","moq":1,"category":"ysl-women-bags","status":"active","alibaba_url":null,"images":["https://xcimg.szwego.com/20221102/i1667372083_8796_0.jpg","https://xcimg.szwego.com/20221102/i1667372083_1900_1.jpg","https://xcimg.szwego.com/20221102/i1667372083_1787_2.jpg","https://xcimg.szwego.com/20221102/i1667372083_5196_3.jpg","https://xcimg.szwego.com/20221102/i1667372083_2975_4.jpg","https://xcimg.szwego.com/20221102/i1667372083_8249_5.jpg","https://xcimg.szwego.com/20221102/i1667372083_6109_6.jpg","https://xcimg.szwego.com/20221102/i1667372083_8177_7.jpg","https://xcimg.szwego.com/20221102/i1667372083_3121_8.jpg"],"created_at":"2025-02-08T12:46:07.418Z"},{"id":"item-a19c801d4ce1","sku":"_dILILi5S0poHEYPTMvQelG4TBCfnM5l2nFtJCPA","name_en":"圣罗兰 标志正面翻盖包,配有马衔索式链条肩带、经典没流苏款,牛皮革,磁石按扣封口,内侧隔层袋,尺寸24×14.5×5.5cm,编号3613,","name_cn":"圣罗兰 标志正面翻盖包,配有马衔索式链条肩带、经典没流苏款,牛皮革,磁石按扣封口,内侧隔层袋,尺寸24×14.5×5.5cm,编号3613,","specs":{"source":"wsxcme","sourceId":"_dILILi5S0poHEYPTMvQelG4TBCfnM5l2nFtJCPA","sourceTagId":47002761,"sourceTagName":"圣罗兰/女包","dimensions":{"lengthCm":24,"heightCm":14.5,"widthCm":5.5},"rawTitle":"圣罗兰 标志正面翻盖包,配有马衔索式链条肩带、经典没流苏款,牛皮革,磁石按扣封口,内侧隔层袋,尺寸24×14.5×5.5cm,编号3613,"},"price":null,"currency":"CNY","moq":1,"category":"ysl-women-bags","status":"active","alibaba_url":null,"images":["https://xcimg.szwego.com/20221102/i1667372057_6930_0.jpg","https://xcimg.szwego.com/20221102/i1667372057_9083_1.jpg","https://xcimg.szwego.com/20221102/i1667372057_8597_2.jpg","https://xcimg.szwego.com/20221102/i1667372057_9998_3.jpg","https://xcimg.szwego.com/20221102/i1667372057_9303_4.jpg","https://xcimg.szwego.com/20221102/i1667372057_9884_5.jpg","https://xcimg.szwego.com/20221102/i1667372057_4905_6.jpg","https://xcimg.szwego.com/20221102/i1667372057_3497_7.jpg","https://xcimg.szwego.com/20221102/i1667372057_7546_8.jpg"],"created_at":"2025-02-08T12:46:07.419Z"},{"id":"item-5e75d36ea3a4","sku":"_d9090veBAyep7y_7pva-9OimKE18AqbsYP5WSNQ","name_en":"圣罗兰 标志正面翻盖包,配有马衔索式链条肩带、经典没流苏款,牛皮革,磁石按扣封口,内侧隔层袋,尺寸24×14.5×5.5cm,s03613,","name_cn":"圣罗兰 标志正面翻盖包,配有马衔索式链条肩带、经典没流苏款,牛皮革,磁石按扣封口,内侧隔层袋,尺寸24×14.5×5.5cm,s03613,","specs":{"source":"wsxcme","sourceId":"_d9090veBAyep7y_7pva-9OimKE18AqbsYP5WSNQ","sourceTagId":47002761,"sourceTagName":"圣罗兰/女包","dimensions":{"lengthCm":24,"heightCm":14.5,"widthCm":5.5},"rawTitle":"圣罗兰 标志正面翻盖包,配有马衔索式链条肩带、经典没流苏款,牛皮革,磁石按扣封口,内侧隔层袋,尺寸24×14.5×5.5cm,s03613,"},"price":null,"currency":"CNY","moq":1,"category":"ysl-women-bags","status":"active","alibaba_url":null,"images":["https://xcimg.szwego.com/20230225/i1677319377_8016_0.jpg","https://xcimg.szwego.com/20230225/i1677319377_3629_1.jpg","https://xcimg.szwego.com/20230225/i1677319377_8599_2.jpg","https://xcimg.szwego.com/20230225/i1677319377_8907_3.jpg","https://xcimg.szwego.com/20230225/i1677319377_2147_4.jpg","https://xcimg.szwego.com/20230225/i1677319377_4161_5.jpg"],"created_at":"2025-02-08T12:46:07.488Z"},{"id":"item-b7e5d46dafce","sku":"_dx2x2XK0FsfzTNQX3SRQoK3HgceOHHRWRbguw4Q","name_en":"圣罗兰 信封包 新鲜出炉啦!!简直是美到人心啦 高端货 原版五金logo 首选进口皮料 质感超赞😍😍所谓人人必备一款,这个款式必须自留 经典版型! 真的是让人眼前一亮 喜欢的美妞抓紧啦 实物简直太美💕尺寸23 15 货号377828","name_cn":"圣罗兰 信封包 新鲜出炉啦!!简直是美到人心啦 高端货 原版五金logo 首选进口皮料 质感超赞😍😍所谓人人必备一款,这个款式必须自留 经典版型! 真的是让人眼前一亮 喜欢的美妞抓紧啦 实物简直太美💕尺寸23 15 货号377828","specs":{"source":"wsxcme","sourceId":"_dx2x2XK0FsfzTNQX3SRQoK3HgceOHHRWRbguw4Q","sourceTagId":47002761,"sourceTagName":"圣罗兰/女包","modelNumber":"377828","rawTitle":"圣罗兰 信封包 新鲜出炉啦!!简直是美到人心啦 高端货 原版五金logo 首选进口皮料 质感超赞😍😍所谓人人必备一款,这个款式必须自留 经典版型! 真的是让人眼前一亮 喜欢的美妞抓紧啦 实物简直太美💕尺寸23 15 货号377828"},"price":null,"currency":"CNY","moq":1,"category":"ysl-women-bags","status":"active","alibaba_url":null,"images":["https://xcimg.szwego.com/20221213/i1670923575_9128_0.jpg","https://xcimg.szwego.com/20221213/i1670923575_5919_1.jpg","https://xcimg.szwego.com/20221213/i1670923575_3161_2.jpg","https://xcimg.szwego.com/20221213/i1670923575_6531_3.jpg","https://xcimg.szwego.com/20221213/i1670923575_227_4.jpg","https://xcimg.szwego.com/20221213/i1670923575_4462_5.jpg","https://xcimg.szwego.com/20221213/i1670923575_2935_6.jpg","https://xcimg.szwego.com/20221213/i1670923575_5445_7.jpg","https://xcimg.szwego.com/20221213/i1670923575_2433_8.jpg"],"created_at":"2025-02-08T12:46:07.420Z"},{"id":"item-89fee590ccb3","sku":"_dgagae5Cmotk-CqDXEzzVpHqWgZhIYSN-CfuJZw","name_en":"圣罗兰-SAINT LAURENT    ✨贝嫂、卡戴姗明星圣罗兰同款!牛皮,非市场一般五金,独家皮质,高品质,质量保证!款号:6011,6012,尺寸:32cm,26cm。","name_cn":"圣罗兰-SAINT LAURENT    ✨贝嫂、卡戴姗明星圣罗兰同款!牛皮,非市场一般五金,独家皮质,高品质,质量保证!款号:6011,6012,尺寸:32cm,26cm。","specs":{"source":"wsxcme","sourceId":"_dgagae5Cmotk-CqDXEzzVpHqWgZhIYSN-CfuJZw","sourceTagId":47002761,"sourceTagName":"圣罗兰/女包","modelNumber":"6011","rawTitle":"圣罗兰-SAINT LAURENT    ✨贝嫂、卡戴姗明星圣罗兰同款!牛皮,非市场一般五金,独家皮质,高品质,质量保证!款号:6011,6012,尺寸:32cm,26cm。"},"price":null,"currency":"CNY","moq":1,"category":"ysl-women-bags","status":"active","alibaba_url":null,"images":["https://xcimg.szwego.com/20230526/i1685073930_9684_0.jpg","https://xcimg.szwego.com/20230526/i1685073930_3115_1.jpg","https://xcimg.szwego.com/20230526/i1685073930_1710_2.jpg","https://xcimg.szwego.com/20230526/i1685073930_6553_3.jpg","https://xcimg.szwego.com/20230526/i1685073930_901_4.jpg","https://xcimg.szwego.com/20230526/i1685073930_6495_5.jpg","https://xcimg.szwego.com/20230526/i1685073930_5859_6.jpg","https://xcimg.szwego.com/20230526/i1685073930_7541_7.jpg","https://xcimg.szwego.com/20230526/i1685073930_4544_8.jpg"],"created_at":"2025-02-08T12:46:07.478Z"},{"id":"item-84b8fbfd556d","sku":"_dfYfYn92WcgFI4RenRJ9uxmdCODXCCQecA7nrvg","name_en":"圣罗兰-SAINT LAURENT    ✨贝嫂、卡戴姗明星圣罗兰同款!牛皮,非市场一般五金,独家皮质,高品质,质量保证!款号:6011,6012,尺寸:32cm,26cm。","name_cn":"圣罗兰-SAINT LAURENT    ✨贝嫂、卡戴姗明星圣罗兰同款!牛皮,非市场一般五金,独家皮质,高品质,质量保证!款号:6011,6012,尺寸:32cm,26cm。","specs":{"source":"wsxcme","sourceId":"_dfYfYn92WcgFI4RenRJ9uxmdCODXCCQecA7nrvg","sourceTagId":47002761,"sourceTagName":"圣罗兰/女包","modelNumber":"6011","rawTitle":"圣罗兰-SAINT LAURENT    ✨贝嫂、卡戴姗明星圣罗兰同款!牛皮,非市场一般五金,独家皮质,高品质,质量保证!款号:6011,6012,尺寸:32cm,26cm。"},"price":null,"currency":"CNY","moq":1,"category":"ysl-women-bags","status":"active","alibaba_url":null,"images":["https://xcimg.szwego.com/20230526/i1685074029_4087_0.jpg","https://xcimg.szwego.com/20230526/i1685074029_3615_1.jpg","https://xcimg.szwego.com/20230526/i1685074029_7619_2.jpg","https://xcimg.szwego.com/20230526/i1685074029_6462_3.jpg","https://xcimg.szwego.com/20230526/i1685074029_5501_4.jpg","https://xcimg.szwego.com/20230526/i1685074029_1463_5.jpg","https://xcimg.szwego.com/20230526/i1685074029_9997_6.jpg","https://xcimg.szwego.com/20230526/i1685074029_5488_7.jpg","https://xcimg.szwego.com/20230526/i1685074029_4596_8.jpg"],"created_at":"2025-02-08T12:46:07.480Z"},{"id":"item-5a723d8f6704","sku":"_dororhzw267IO3DxYDkDMZ17I-a9alYlHA6hV0Q","name_en":"圣罗兰-SAINT LAURENT    ✨贝嫂、卡戴姗明星圣罗兰同款!牛皮,非市场一般五金,独家皮质,高品质,质量保证!款号:6011,6012,尺寸:32cm,26cm。","name_cn":"圣罗兰-SAINT LAURENT    ✨贝嫂、卡戴姗明星圣罗兰同款!牛皮,非市场一般五金,独家皮质,高品质,质量保证!款号:6011,6012,尺寸:32cm,26cm。","specs":{"source":"wsxcme","sourceId":"_dororhzw267IO3DxYDkDMZ17I-a9alYlHA6hV0Q","sourceTagId":47002761,"sourceTagName":"圣罗兰/女包","modelNumber":"6011","rawTitle":"圣罗兰-SAINT LAURENT    ✨贝嫂、卡戴姗明星圣罗兰同款!牛皮,非市场一般五金,独家皮质,高品质,质量保证!款号:6011,6012,尺寸:32cm,26cm。"},"price":null,"currency":"CNY","moq":1,"category":"ysl-women-bags","status":"active","alibaba_url":null,"images":["https://xcimg.szwego.com/20230526/i1685073855_5495_0.jpg","https://xcimg.szwego.com/20230526/i1685073855_2576_1.jpg","https://xcimg.szwego.com/20230526/i1685073855_5505_2.jpg","https://xcimg.szwego.com/20230526/i1685073855_7895_3.jpg","https://xcimg.szwego.com/20230526/i1685073855_1314_4.jpg","https://xcimg.szwego.com/20230526/i1685073855_3954_5.jpg","https://xcimg.szwego.com/20230526/i1685073855_139_6.jpg","https://xcimg.szwego.com/20230526/i1685073855_2044_7.jpg","https://xcimg.szwego.com/20230526/i1685073855_8236_8.jpg"],"created_at":"2025-02-08T12:46:07.477Z"},{"id":"item-4832d78bc336","sku":"_d9Q9QJFoCLQJWtPvreF2XVPU5W8di2dxvXO7xyA","name_en":"圣罗兰-SAINT LAURENT    ✨贝嫂、卡戴姗明星圣罗兰同款!牛皮,非市场一般五金,独家皮质,高品质,质量保证!款号:6011,6012,尺寸:32cm,26cm。","name_cn":"圣罗兰-SAINT LAURENT    ✨贝嫂、卡戴姗明星圣罗兰同款!牛皮,非市场一般五金,独家皮质,高品质,质量保证!款号:6011,6012,尺寸:32cm,26cm。","specs":{"source":"wsxcme","sourceId":"_d9Q9QJFoCLQJWtPvreF2XVPU5W8di2dxvXO7xyA","sourceTagId":47002761,"sourceTagName":"圣罗兰/女包","modelNumber":"6011","rawTitle":"圣罗兰-SAINT LAURENT    ✨贝嫂、卡戴姗明星圣罗兰同款!牛皮,非市场一般五金,独家皮质,高品质,质量保证!款号:6011,6012,尺寸:32cm,26cm。"},"price":null,"currency":"CNY","moq":1,"category":"ysl-women-bags","status":"active","alibaba_url":null,"images":["https://xcimg.szwego.com/20230526/i1685073990_8469_0.jpg","https://xcimg.szwego.com/20230526/i1685073990_1500_1.jpg","https://xcimg.szwego.com/20230526/i1685073990_8871_2.jpg","https://xcimg.szwego.com/20230526/i1685073990_5188_3.jpg","https://xcimg.szwego.com/20230526/i1685073990_99_4.jpg","https://xcimg.szwego.com/20230526/i1685073990_6710_5.jpg","https://xcimg.szwego.com/20230526/i1685073990_8027_6.jpg","https://xcimg.szwego.com/20230526/i1685073990_5645_7.jpg","https://xcimg.szwego.com/20230526/i1685073990_1931_8.jpg"],"created_at":"2025-02-08T12:46:07.479Z"}],"page":176,"pageSize":24,"total":10075,"totalPages":420}
