{"items":[{"id":"item-5abe9c54f442","sku":"_dveveEK8ImtE23YiyyO-YNznwhZrw7D-0nTEXSw","name_en":"中号最新 Baguette FF logo","name_cn":"中号最新 Baguette FF logo\n刺绣系列#it’s not a bag,it’s Baguette! #\n大号26.13.6cm\n款号:0159","specs":{"source":"wsxcme","sourceId":"_dveveEK8ImtE23YiyyO-YNznwhZrw7D-0nTEXSw","sourceTagId":47002731,"sourceTagName":"芬迪/女包","modelNumber":"0159","rawTitle":"中号最新 Baguette FF logo\n刺绣系列#it’s not a bag,it’s Baguette! #\n大号26.13.6cm\n款号:0159"},"price":null,"currency":"CNY","moq":1,"category":"fendi-women-bags","status":"active","alibaba_url":null,"images":["https://xcimg.szwego.com/img/8655f6f1/20241213/i1734062335_8407_7.jpg","https://xcimg.szwego.com/img/8655f6f1/20241213/i1734062335_1667_6.jpg","https://xcimg.szwego.com/img/8655f6f1/20241213/i1734062335_8883_3.jpg","https://xcimg.szwego.com/img/8655f6f1/20241213/i1734062335_5168_1.jpg","https://xcimg.szwego.com/img/8655f6f1/20241213/i1734062335_8303_4.jpg","https://xcimg.szwego.com/img/8655f6f1/20241213/i1734062336_1377_8.jpg","https://xcimg.szwego.com/img/8655f6f1/20241213/i1734062335_3910_2.jpg","https://xcimg.szwego.com/img/8655f6f1/20241213/i1734062335_7116_5.jpg","https://xcimg.szwego.com/img/8655f6f1/20241213/i1734062335_7161_0.jpg"],"created_at":"2025-02-10T14:02:44.858Z"},{"id":"item-4406dd7a71c8","sku":"_djGjGJz038L_mEp6a36GS5XhkYfhsv5VNYFXzmg","name_en":"中号最新 Baguette FF logo","name_cn":"中号最新 Baguette FF logo\n刺绣系列#it’s not a bag,it’s Baguette! #\n大号26.13.6cm\n款号:0159","specs":{"source":"wsxcme","sourceId":"_djGjGJz038L_mEp6a36GS5XhkYfhsv5VNYFXzmg","sourceTagId":47002731,"sourceTagName":"芬迪/女包","modelNumber":"0159","rawTitle":"中号最新 Baguette FF logo\n刺绣系列#it’s not a bag,it’s Baguette! #\n大号26.13.6cm\n款号:0159"},"price":null,"currency":"CNY","moq":1,"category":"fendi-women-bags","status":"active","alibaba_url":null,"images":["https://xcimg.szwego.com/img/8655f6f1/20241213/i1734062491_7920_1.jpg","https://xcimg.szwego.com/img/8655f6f1/20241213/i1734062491_4147_8.jpg","https://xcimg.szwego.com/img/8655f6f1/20241213/i1734062491_8381_5.jpg","https://xcimg.szwego.com/img/8655f6f1/20241213/i1734062491_2985_7.jpg","https://xcimg.szwego.com/img/8655f6f1/20241213/i1734062491_4295_4.jpg","https://xcimg.szwego.com/img/8655f6f1/20241213/i1734062491_3371_2.jpg","https://xcimg.szwego.com/img/8655f6f1/20241213/i1734062491_3912_6.jpg","https://xcimg.szwego.com/img/8655f6f1/20241213/i1734062491_1044_3.jpg","https://xcimg.szwego.com/img/8655f6f1/20241213/i1734062491_5646_0.jpg"],"created_at":"2025-02-10T14:02:44.860Z"},{"id":"item-16e8abd93776","sku":"_dx3x32XGsC8NK1PPT04giHISoZs8_F4uhZ1IGJw","name_en":"中号最新 Baguette FF logo","name_cn":"中号最新 Baguette FF logo\n刺绣系列#it’s not a bag,it’s Baguette! #\n大号26.13.6cm\n款号:0159","specs":{"source":"wsxcme","sourceId":"_dx3x32XGsC8NK1PPT04giHISoZs8_F4uhZ1IGJw","sourceTagId":47002731,"sourceTagName":"芬迪/女包","modelNumber":"0159","rawTitle":"中号最新 Baguette FF logo\n刺绣系列#it’s not a bag,it’s Baguette! #\n大号26.13.6cm\n款号:0159"},"price":null,"currency":"CNY","moq":1,"category":"fendi-women-bags","status":"active","alibaba_url":null,"images":["https://xcimg.szwego.com/img/8655f6f1/20241213/i1734062702_3826_2.jpg","https://xcimg.szwego.com/img/8655f6f1/20241213/i1734062702_3027_1.jpg","https://xcimg.szwego.com/img/8655f6f1/20241213/i1734062702_7348_0.jpg","https://xcimg.szwego.com/img/8655f6f1/20241213/i1734062702_713_6.jpg","https://xcimg.szwego.com/img/8655f6f1/20241213/i1734062702_6437_5.jpg","https://xcimg.szwego.com/img/8655f6f1/20241213/i1734062702_915_3.jpg","https://xcimg.szwego.com/img/8655f6f1/20241213/i1734062702_9185_7.jpg","https://xcimg.szwego.com/img/8655f6f1/20241213/i1734062708_3810_0.jpg","https://xcimg.szwego.com/img/8655f6f1/20241213/i1734062702_9157_8.jpg"],"created_at":"2025-02-10T14:02:44.864Z"},{"id":"item-3ddba02e0ea1","sku":"_du8u84ob1TzE1XOCKkJO5M4LYBv9HYCf5hFwE-w","name_en":"中号Tote最新七夕限定系列,甜蜜的七夕,独属的浪漫造型,也太吸引女孩子拉,红色包身点缀着和小红花超级温柔甜蜜,帮你定格爱的瞬间,精美的刺绣搭配黑色的牛皮,甜美又不失优雅,包包自带可调节长肩带,既保留了包型的简洁,又兼具了大包的大容量,既可手拎又可斜跨,完全满足日常出行需求","name_cn":"中号Tote最新七夕限定系列,甜蜜的七夕,独属的浪漫造型,也太吸引女孩子拉,红色包身点缀着和小红花超级温柔甜蜜,帮你定格爱的瞬间,精美的刺绣搭配黑色的牛皮,甜美又不失优雅,包包自带可调节长肩带,既保留了包型的简洁,又兼具了大包的大容量,既可手拎又可斜跨,完全满足日常出行需求\nsize:36*16*27cm","specs":{"source":"wsxcme","sourceId":"_du8u84ob1TzE1XOCKkJO5M4LYBv9HYCf5hFwE-w","sourceTagId":47002747,"sourceTagName":"迪奥/女包","rawTitle":"中号Tote最新七夕限定系列,甜蜜的七夕,独属的浪漫造型,也太吸引女孩子拉,红色包身点缀着和小红花超级温柔甜蜜,帮你定格爱的瞬间,精美的刺绣搭配黑色的牛皮,甜美又不失优雅,包包自带可调节长肩带,既保留了包型的简洁,又兼具了大包的大容量,既可手拎又可斜跨,完全满足日常出行需求\nsize:36*16*27cm"},"price":null,"currency":"CNY","moq":1,"category":"dior-women-bags","status":"active","alibaba_url":null,"images":["https://xcimg.szwego.com/img/2b46f204/20240805/i1722829445_2908_0.jpg","https://xcimg.szwego.com/img/2b46f204/20240805/i1722829445_3025_1.jpg","https://xcimg.szwego.com/img/2b46f204/20240805/i1722829445_9961_6.jpg","https://xcimg.szwego.com/img/2b46f204/20240805/i1722829445_5744_3.jpg","https://xcimg.szwego.com/img/2b46f204/20240805/i1722829445_8414_5.jpg","https://xcimg.szwego.com/img/2b46f204/20240805/i1722829445_9792_7.jpg","https://xcimg.szwego.com/img/2b46f204/20240805/i1722829445_5835_4.jpg","https://xcimg.szwego.com/img/2b46f204/20240805/i1722829445_3622_8.jpg","https://xcimg.szwego.com/img/2b46f204/20240805/i1722829445_625_2.jpg"],"created_at":"2025-04-02T10:08:22.477Z"},{"id":"item-005e8e51a436","sku":"_dwRwRnJ6afNZKhiuMapnSxK_7Pd0QE-AuI4RRHw","name_en":"中號🎖️🎖️🎖️24 X 26 X 9.5 cm 现货啦🚩🚩🚩🆕CHANEL24a hobo这一季此❤️‍🔥❤️‍🔥h可以冲了!超轻无比!差不多要用的东西都装得下,包括手机!相比之前的hobo 这个的形状更饱满一些,皮是油蜡亮皮。⛅️⛅️肩带长度很够,搭配秋冬的厚重衣服它也压得住!单看照片会觉得一般,但摸到实物上身试了你会爱不释手!黑色很稳","name_cn":"中號🎖️🎖️🎖️24 X 26 X 9.5 cm 现货啦🚩🚩🚩🆕CHANEL24a hobo这一季此❤️‍🔥❤️‍🔥h可以冲了!超轻无比!差不多要用的东西都装得下,包括手机!相比之前的hobo 这个的形状更饱满一些,皮是油蜡亮皮。⛅️⛅️肩带长度很够,搭配秋冬的厚重衣服它也压得住!单看照片会觉得一般,但摸到实物上身试了你会爱不释手!黑色很稳!棕咖色特别复古的那种味道! 尺寸:26cm。  款号:9988","specs":{"source":"wsxcme","sourceId":"_dwRwRnJ6afNZKhiuMapnSxK_7Pd0QE-AuI4RRHw","sourceTagId":47002745,"sourceTagName":"香奈儿/女包","modelNumber":"9988","rawTitle":"中號🎖️🎖️🎖️24 X 26 X 9.5 cm 现货啦🚩🚩🚩🆕CHANEL24a hobo这一季此❤️‍🔥❤️‍🔥h可以冲了!超轻无比!差不多要用的东西都装得下,包括手机!相比之前的hobo 这个的形状更饱满一些,皮是油蜡亮皮。⛅️⛅️肩带长度很够,搭配秋冬的厚重衣服它也压得住!单看照片会觉得一般,但摸到实物上身试了你会爱不释手!黑色很稳!棕咖色特别复古的那种味道! 尺寸:26cm。  款号:9988"},"price":null,"currency":"CNY","moq":1,"category":"chanel-women-bags","status":"active","alibaba_url":null,"images":["https://xcimg.szwego.com/img/c4600ee2/20240701/i1719791787_677_4.jpg","https://xcimg.szwego.com/img/c4600ee2/20240701/i1719791787_4975_2.jpg","https://xcimg.szwego.com/img/c4600ee2/20240701/i1719791787_9452_5.jpg","https://xcimg.szwego.com/img/c4600ee2/20240701/i1719791787_2560_1.jpg","https://xcimg.szwego.com/img/c4600ee2/20240701/i1719791787_4725_7.jpg","https://xcimg.szwego.com/img/c4600ee2/20240701/i1719791787_7059_0.jpg","https://xcimg.szwego.com/img/c4600ee2/20240701/i1719791787_3103_3.jpg","https://xcimg.szwego.com/img/c4600ee2/20240701/i1719791787_1068_6.jpg","https://xcimg.szwego.com/img/c4600ee2/20240701/i1719791787_3369_8.jpg"],"created_at":"2024-08-04T12:55:15.620Z"},{"id":"item-2209e822dd0b","sku":"_dsXsXt0LVta-ed2Rshy_LfpSr8rEmHmWF6rl1Hg","name_en":"中號尺寸24.5 cm🤩🤩🤩指️Chanel香奈兒24p黑金hobo中號一直很喜歡22bag這種隨性的大包,唯一缺點就是沒有拉鍊沒有安全感,現在終於買到一顆實用耐操的荔枝牛大包了.一開始看這顆包覺得醜,後來看到有人指大號往下凹.隨性被燒到上次去拿新年禮順便問了Sa,說只有進中號24.5公分,然後唯一一顆現貨黑金Sa一直找不到,於是先試指了焦糖,回來後念","name_cn":"中號尺寸24.5 cm🤩🤩🤩指️Chanel香奈兒24p黑金hobo中號一直很喜歡22bag這種隨性的大包,唯一缺點就是沒有拉鍊沒有安全感,現在終於買到一顆實用耐操的荔枝牛大包了.一開始看這顆包覺得醜,後來看到有人指大號往下凹.隨性被燒到上次去拿新年禮順便問了Sa,說只有進中號24.5公分,然後唯一一顆現貨黑金Sa一直找不到,於是先試指了焦糖,回來後念念不忘,於是跟Sa說找到黑金幫我留,想說沒有就算了隨緣,本來想說無緣沒關係,沒想到Sa太,logo小小的很可愛,尺寸:19x 24.5 x 9cm款式A S 4293","specs":{"source":"wsxcme","sourceId":"_dsXsXt0LVta-ed2Rshy_LfpSr8rEmHmWF6rl1Hg","sourceTagId":47002745,"sourceTagName":"香奈儿/女包","dimensions":{"lengthCm":19,"heightCm":24.5,"widthCm":9},"rawTitle":"中號尺寸24.5 cm🤩🤩🤩指️Chanel香奈兒24p黑金hobo中號一直很喜歡22bag這種隨性的大包,唯一缺點就是沒有拉鍊沒有安全感,現在終於買到一顆實用耐操的荔枝牛大包了.一開始看這顆包覺得醜,後來看到有人指大號往下凹.隨性被燒到上次去拿新年禮順便問了Sa,說只有進中號24.5公分,然後唯一一顆現貨黑金Sa一直找不到,於是先試指了焦糖,回來後念念不忘,於是跟Sa說找到黑金幫我留,想說沒有就算了隨緣,本來想說無緣沒關係,沒想到Sa太,logo小小的很可愛,尺寸:19x 24.5 x 9cm款式A S 4293"},"price":null,"currency":"CNY","moq":1,"category":"chanel-women-bags","status":"active","alibaba_url":null,"images":["https://xcimg.szwego.com/img/d0c94e6f/20240410/i1712740750_6639_4.jpg","https://xcimg.szwego.com/img/d0c94e6f/20240410/i1712740750_4073_5.jpg","https://xcimg.szwego.com/img/d0c94e6f/20240410/i1712740750_4609_0.jpg","https://xcimg.szwego.com/img/d0c94e6f/20240410/i1712740750_1241_3.jpg","https://xcimg.szwego.com/img/d0c94e6f/20240410/i1712740751_1547_7.jpg","https://xcimg.szwego.com/img/d0c94e6f/20240410/i1712740751_6579_6.jpg","https://xcimg.szwego.com/img/d0c94e6f/20240410/i1712740750_3076_2.jpg","https://xcimg.szwego.com/img/d0c94e6f/20240410/i1712740750_3352_1.jpg","https://xcimg.szwego.com/img/d0c94e6f/20240410/i1712740751_4801_8.jpg"],"created_at":"2024-05-03T07:22:12.512Z"},{"id":"item-c0f51ecec0da","sku":"_ddNdNOBYTPb5U3ZNhPMIu6jhldyfyFyQYJpVrKA","name_en":"重塑经典,Swing回归啦,BOTTEGA VENETA葆蝶家女士Swing手提单肩包采用管状夹棉编织工艺打造,包身垂直编织的独特让人记忆深刻,整体透露出一股中古风,与现在复古的风潮相符合,简约百搭不失个性,职场通勤不同风格都可以随意适配,斜挎和手拎都为大家考虑而创作,是一款不失实用性与美貌的包包[跳跳][跳跳]","name_cn":"重塑经典,Swing回归啦,BOTTEGA VENETA葆蝶家女士Swing手提单肩包采用管状夹棉编织工艺打造,包身垂直编织的独特让人记忆深刻,整体透露出一股中古风,与现在复古的风潮相符合,简约百搭不失个性,职场通勤不同风格都可以随意适配,斜挎和手拎都为大家考虑而创作,是一款不失实用性与美貌的包包[跳跳][跳跳]\n款号:764073\n尺寸:25*19*6","specs":{"source":"wsxcme","sourceId":"_ddNdNOBYTPb5U3ZNhPMIu6jhldyfyFyQYJpVrKA","sourceTagId":79154589,"sourceTagName":"BV/女包","modelNumber":"764073","rawTitle":"重塑经典,Swing回归啦,BOTTEGA VENETA葆蝶家女士Swing手提单肩包采用管状夹棉编织工艺打造,包身垂直编织的独特让人记忆深刻,整体透露出一股中古风,与现在复古的风潮相符合,简约百搭不失个性,职场通勤不同风格都可以随意适配,斜挎和手拎都为大家考虑而创作,是一款不失实用性与美貌的包包[跳跳][跳跳]\n款号:764073\n尺寸:25*19*6"},"price":null,"currency":"CNY","moq":1,"category":"bv-women-bags","status":"active","alibaba_url":null,"images":["https://xcimg.szwego.com/img/ca05ca4b/20240725/i1721914809_4043_2.jpg","https://xcimg.szwego.com/img/ca05ca4b/20240725/i1721914809_410_4.jpg","https://xcimg.szwego.com/img/ca05ca4b/20240725/i1721914809_1915_5.jpg","https://xcimg.szwego.com/img/ca05ca4b/20240725/i1721914809_4404_7.jpg","https://xcimg.szwego.com/img/ca05ca4b/20240725/i1721914809_5359_3.jpg","https://xcimg.szwego.com/img/ca05ca4b/20240725/i1721914815_7419_0.jpg","https://xcimg.szwego.com/img/ca05ca4b/20240725/i1721914815_5985_0.jpg","https://xcimg.szwego.com/img/ca05ca4b/20240725/i1721914815_1473_0.jpg","https://xcimg.szwego.com/img/ca05ca4b/20240725/i1721914815_7644_0.jpg"],"created_at":"2025-01-21T02:30:45.781Z"},{"id":"item-6b187744e40f","sku":"_d8z8zfWfEADGTC4bQQAuUigC6uO6lUCVxNPgQsA","name_en":"重塑经典,Swing回归啦,BOTTEGA VENETA葆蝶家女士Swing手提单肩包采用管状夹棉编织工艺打造,包身垂直编织的独特让人记忆深刻,整体透露出一股中古风,与现在复古的风潮相符合,简约百搭不失个性,职场通勤不同风格都可以随意适配,斜挎和手拎都为大家考虑而创作,是一款不失实用性与美貌的包包[跳跳][跳跳]","name_cn":"重塑经典,Swing回归啦,BOTTEGA VENETA葆蝶家女士Swing手提单肩包采用管状夹棉编织工艺打造,包身垂直编织的独特让人记忆深刻,整体透露出一股中古风,与现在复古的风潮相符合,简约百搭不失个性,职场通勤不同风格都可以随意适配,斜挎和手拎都为大家考虑而创作,是一款不失实用性与美貌的包包[跳跳][跳跳]\n款号:764073\n尺寸:25*19*6","specs":{"source":"wsxcme","sourceId":"_d8z8zfWfEADGTC4bQQAuUigC6uO6lUCVxNPgQsA","sourceTagId":79154589,"sourceTagName":"BV/女包","modelNumber":"764073","rawTitle":"重塑经典,Swing回归啦,BOTTEGA VENETA葆蝶家女士Swing手提单肩包采用管状夹棉编织工艺打造,包身垂直编织的独特让人记忆深刻,整体透露出一股中古风,与现在复古的风潮相符合,简约百搭不失个性,职场通勤不同风格都可以随意适配,斜挎和手拎都为大家考虑而创作,是一款不失实用性与美貌的包包[跳跳][跳跳]\n款号:764073\n尺寸:25*19*6"},"price":null,"currency":"CNY","moq":1,"category":"bv-women-bags","status":"active","alibaba_url":null,"images":["https://xcimg.szwego.com/img/ca05ca4b/20231130/i1701273991_5454_3.jpg","https://xcimg.szwego.com/img/ca05ca4b/20231130/i1701273992_3191_8.jpg","https://xcimg.szwego.com/img/ca05ca4b/20231130/i1701273991_35_4.jpg","https://xcimg.szwego.com/img/ca05ca4b/20231130/i1701273991_8000_0.jpg","https://xcimg.szwego.com/img/ca05ca4b/20231130/i1701273991_7796_1.jpg","https://xcimg.szwego.com/img/ca05ca4b/20231130/i1701273991_1247_6.jpg","https://xcimg.szwego.com/img/ca05ca4b/20231130/i1701273991_4551_2.jpg","https://xcimg.szwego.com/img/ca05ca4b/20231130/i1701273991_6905_5.jpg","https://xcimg.szwego.com/img/ca05ca4b/20231130/i1701273992_9713_7.jpg"],"created_at":"2025-01-21T02:30:45.780Z"},{"id":"item-dbcbf81160bf","sku":"_dmpmpi2_wWmvymzXLeD52PNz1WP9hUjVIpBRLEg","name_en":"猪鼻子包🐷 Roulis  19cm 图片  现货 Evercolor皮拼帆布H✔ 进口蜜蜡线✔全钢五金配件✔低调~好装~方便~ 简约百搭款 可斜挎背 ~手拿~单肩背~","name_cn":"猪鼻子包🐷 Roulis  19cm 图片  现货 Evercolor皮拼帆布H✔ 进口蜜蜡线✔全钢五金配件✔低调~好装~方便~ 简约百搭款 可斜挎背 ~手拿~单肩背~","specs":{"source":"wsxcme","sourceId":"_dmpmpi2_wWmvymzXLeD52PNz1WP9hUjVIpBRLEg","sourceTagId":76963559,"sourceTagName":"爱马仕/女包","rawTitle":"猪鼻子包🐷 Roulis  19cm 图片  现货 Evercolor皮拼帆布H✔ 进口蜜蜡线✔全钢五金配件✔低调~好装~方便~ 简约百搭款 可斜挎背 ~手拿~单肩背~"},"price":null,"currency":"CNY","moq":1,"category":"hermes-women-bags","status":"active","alibaba_url":null,"images":["https://xcimg.szwego.com/20221103/a1667440452772_8188.jpg","https://xcimg.szwego.com/20221103/a1667440453076_2138.jpg","https://xcimg.szwego.com/20221103/a1667440453415_3504.jpg","https://xcimg.szwego.com/20221103/a1667440453481_1400.jpg","https://xcimg.szwego.com/20221103/a1667440453674_2516.jpg","https://xcimg.szwego.com/20221103/a1667440453884_2405.jpg"],"created_at":"2024-10-22T05:00:12.211Z"},{"id":"item-d48a4d723ca7","sku":"_dfIfI8X1SdVmtnOPHQ2-QtRkylQNcV2vtZnEzOg","name_en":"猪鼻子包🐷 Roulis  19cm 图片  现货 Evercolor皮拼帆布H✔ 进口蜜蜡线✔全钢五金配件✔低调~好装~方便~ 简约百搭款 可斜挎背 ~手拿~单肩背~","name_cn":"猪鼻子包🐷 Roulis  19cm 图片  现货 Evercolor皮拼帆布H✔ 进口蜜蜡线✔全钢五金配件✔低调~好装~方便~ 简约百搭款 可斜挎背 ~手拿~单肩背~","specs":{"source":"wsxcme","sourceId":"_dfIfI8X1SdVmtnOPHQ2-QtRkylQNcV2vtZnEzOg","sourceTagId":76963559,"sourceTagName":"爱马仕/女包","rawTitle":"猪鼻子包🐷 Roulis  19cm 图片  现货 Evercolor皮拼帆布H✔ 进口蜜蜡线✔全钢五金配件✔低调~好装~方便~ 简约百搭款 可斜挎背 ~手拿~单肩背~"},"price":null,"currency":"CNY","moq":1,"category":"hermes-women-bags","status":"active","alibaba_url":null,"images":["https://xcimg.szwego.com/20221103/a1667439476352_6438.jpg","https://xcimg.szwego.com/20221103/a1667439476566_5462.jpg","https://xcimg.szwego.com/20221103/a1667439476966_2718.jpg","https://xcimg.szwego.com/20221103/a1667439476967_5860.jpg","https://xcimg.szwego.com/20221103/a1667439477107_3415.jpg","https://xcimg.szwego.com/20221103/a1667439477453_5468.jpg","https://xcimg.szwego.com/20221103/a1667439477637_3273.jpg","https://xcimg.szwego.com/20221103/a1667439477843_8002.jpg","https://xcimg.szwego.com/20221103/a1667439478271_5110.jpg"],"created_at":"2024-10-22T05:00:12.209Z"},{"id":"item-61c68e191a67","sku":"_dhChCcbZHFHToXyUGuWehVdBHtXIDzsYEu6hD9w","name_en":"猪鼻子包🐷 Roulis  19cm 图片  现货 Evercolor皮拼帆布H✔ 进口蜜蜡线✔全钢五金配件✔低调~好装~方便~ 简约百搭款 可斜挎背 ~手拿~单肩背~","name_cn":"猪鼻子包🐷 Roulis  19cm 图片  现货 Evercolor皮拼帆布H✔ 进口蜜蜡线✔全钢五金配件✔低调~好装~方便~ 简约百搭款 可斜挎背 ~手拿~单肩背~","specs":{"source":"wsxcme","sourceId":"_dhChCcbZHFHToXyUGuWehVdBHtXIDzsYEu6hD9w","sourceTagId":76963559,"sourceTagName":"爱马仕/女包","rawTitle":"猪鼻子包🐷 Roulis  19cm 图片  现货 Evercolor皮拼帆布H✔ 进口蜜蜡线✔全钢五金配件✔低调~好装~方便~ 简约百搭款 可斜挎背 ~手拿~单肩背~"},"price":null,"currency":"CNY","moq":1,"category":"hermes-women-bags","status":"active","alibaba_url":null,"images":["https://xcimg.szwego.com/20221103/a1667439565670_2504.jpg","https://xcimg.szwego.com/20221103/a1667439565877_6565.jpg","https://xcimg.szwego.com/20221103/a1667439566054_2287.jpg","https://xcimg.szwego.com/20221103/a1667439566534_5722.jpg","https://xcimg.szwego.com/20221103/a1667439566535_6822.jpg","https://xcimg.szwego.com/20221103/a1667439566784_1463.jpg","https://xcimg.szwego.com/20221103/a1667439566980_1272.jpg","https://xcimg.szwego.com/20221103/a1667439567174_8737.jpg","https://xcimg.szwego.com/20221103/a1667439567702_8644.jpg"],"created_at":"2024-10-22T05:00:12.210Z"},{"id":"item-86a4a900942d","sku":"_dgqgqoup0MetnS-IPvwZGPzb7akiqoG0_IYP2Zw","name_en":"专柜品质,顶级原单货,实物实拍!768243啡胶/荧光橙,尺寸:宽11x高9,出货啦!💰","name_cn":"专柜品质,顶级原单货,实物实拍!768243啡胶/荧光橙,尺寸:宽11x高9,出货啦!💰","specs":{"source":"wsxcme","sourceId":"_dgqgqoup0MetnS-IPvwZGPzb7akiqoG0_IYP2Zw","sourceTagId":47002663,"sourceTagName":"长短款钱包","rawTitle":"专柜品质,顶级原单货,实物实拍!768243啡胶/荧光橙,尺寸:宽11x高9,出货啦!💰"},"price":null,"currency":"CNY","moq":1,"category":"women-wallets","status":"active","alibaba_url":null,"images":["https://xcimg.szwego.com/img/102e1c0f/20250517/i1747466218951_8251_0_0.jpg","https://xcimg.szwego.com/img/102e1c0f/20250517/i1747466218961_8103_0_1.jpg","https://xcimg.szwego.com/img/102e1c0f/20250517/i1747466218882_6720_0_2.jpg","https://xcimg.szwego.com/img/102e1c0f/20250517/i1747466218905_4552_0_3.jpg"],"created_at":"2025-08-03T05:43:10.100Z"},{"id":"item-0bf94a08dcbd","sku":"_doUoUsyVcDZwjmPhnnD5KzNCxquRhsLnSwHHMHw","name_en":"专柜品质,顶级原单货,实物实拍!768243啡胶/荧光绿,尺寸:宽11x高9,出货啦!💰","name_cn":"专柜品质,顶级原单货,实物实拍!768243啡胶/荧光绿,尺寸:宽11x高9,出货啦!💰","specs":{"source":"wsxcme","sourceId":"_doUoUsyVcDZwjmPhnnD5KzNCxquRhsLnSwHHMHw","sourceTagId":47002663,"sourceTagName":"长短款钱包","rawTitle":"专柜品质,顶级原单货,实物实拍!768243啡胶/荧光绿,尺寸:宽11x高9,出货啦!💰"},"price":null,"currency":"CNY","moq":1,"category":"women-wallets","status":"active","alibaba_url":null,"images":["https://xcimg.szwego.com/img/102e1c0f/20250517/i1747466181041_2944_0_0.jpg","https://xcimg.szwego.com/img/102e1c0f/20250517/i1747466181074_3374_0_1.jpg","https://xcimg.szwego.com/img/102e1c0f/20250517/i1747466181089_4667_0_2.jpg","https://xcimg.szwego.com/img/102e1c0f/20250517/i1747466181083_9543_0_3.jpg"],"created_at":"2025-08-03T05:43:10.099Z"},{"id":"item-a7c119a8f90e","sku":"_dvYvYKg9aAyrKxjhSIiQXUC2uCdJ67AuntQ4QfQ","name_en":"专柜品质,顶级原单货,实物实拍!768243啡胶/荧光玫,尺寸:宽11x高9,出货啦!💰","name_cn":"专柜品质,顶级原单货,实物实拍!768243啡胶/荧光玫,尺寸:宽11x高9,出货啦!💰","specs":{"source":"wsxcme","sourceId":"_dvYvYKg9aAyrKxjhSIiQXUC2uCdJ67AuntQ4QfQ","sourceTagId":47002663,"sourceTagName":"长短款钱包","rawTitle":"专柜品质,顶级原单货,实物实拍!768243啡胶/荧光玫,尺寸:宽11x高9,出货啦!💰"},"price":null,"currency":"CNY","moq":1,"category":"women-wallets","status":"active","alibaba_url":null,"images":["https://xcimg.szwego.com/img/102e1c0f/20250517/i1747466235167_3968_0_0.jpg","https://xcimg.szwego.com/img/102e1c0f/20250517/i1747466235112_2398_0_1.jpg","https://xcimg.szwego.com/img/102e1c0f/20250517/i1747466234851_8189_0_2.jpg","https://xcimg.szwego.com/img/102e1c0f/20250517/i1747466235146_2222_0_3.jpg"],"created_at":"2025-08-03T05:43:10.101Z"},{"id":"item-647e45c661a0","sku":"_dCFCFxxh63pZmI3SLOcdBdZFwKHhVmGudSzhkgQ","name_en":"专柜品质,顶级原单货,实物实拍!768248啡胶/荧光橙~尺寸:宽11x高7,出货啦!💰","name_cn":"专柜品质,顶级原单货,实物实拍!768248啡胶/荧光橙~尺寸:宽11x高7,出货啦!💰","specs":{"source":"wsxcme","sourceId":"_dCFCFxxh63pZmI3SLOcdBdZFwKHhVmGudSzhkgQ","sourceTagId":47002663,"sourceTagName":"长短款钱包","rawTitle":"专柜品质,顶级原单货,实物实拍!768248啡胶/荧光橙~尺寸:宽11x高7,出货啦!💰"},"price":null,"currency":"CNY","moq":1,"category":"women-wallets","status":"active","alibaba_url":null,"images":["https://xcimg.szwego.com/img/102e1c0f/20250517/i1747466398308_2347_0_0.jpg","https://xcimg.szwego.com/img/102e1c0f/20250517/i1747466398301_6523_0_1.jpg","https://xcimg.szwego.com/img/102e1c0f/20250517/i1747466398278_9800_0_2.jpg","https://xcimg.szwego.com/img/102e1c0f/20250517/i1747466398308_1118_0_3.jpg"],"created_at":"2025-08-03T05:43:10.103Z"},{"id":"item-3835d7e1946b","sku":"_ddtdt6BHbqpgRnY703auky7J9VRnItSyMMk1juw","name_en":"专柜品质,顶级原单货,实物实拍!768248啡胶/荧光绿~尺寸:宽11x高7,出货啦!💰","name_cn":"专柜品质,顶级原单货,实物实拍!768248啡胶/荧光绿~尺寸:宽11x高7,出货啦!💰","specs":{"source":"wsxcme","sourceId":"_ddtdt6BHbqpgRnY703auky7J9VRnItSyMMk1juw","sourceTagId":47002663,"sourceTagName":"长短款钱包","rawTitle":"专柜品质,顶级原单货,实物实拍!768248啡胶/荧光绿~尺寸:宽11x高7,出货啦!💰"},"price":null,"currency":"CNY","moq":1,"category":"women-wallets","status":"active","alibaba_url":null,"images":["https://xcimg.szwego.com/img/102e1c0f/20250517/i1747466354524_385_0_0.jpg","https://xcimg.szwego.com/img/102e1c0f/20250517/i1747466354530_2107_0_1.jpg","https://xcimg.szwego.com/img/102e1c0f/20250517/i1747466354567_2684_0_2.jpg","https://xcimg.szwego.com/img/102e1c0f/20250517/i1747466354531_8529_0_3.jpg"],"created_at":"2025-08-03T05:43:10.102Z"},{"id":"item-b0f276827933","sku":"_dnonouyrnr2AFG884QGtlClA9eAQxDDldljBxkA","name_en":"专柜品质,顶级原单货,实物实拍!768248啡胶/荧光玫~尺寸:宽11x高7,出货啦!💰","name_cn":"专柜品质,顶级原单货,实物实拍!768248啡胶/荧光玫~尺寸:宽11x高7,出货啦!💰","specs":{"source":"wsxcme","sourceId":"_dnonouyrnr2AFG884QGtlClA9eAQxDDldljBxkA","sourceTagId":47002663,"sourceTagName":"长短款钱包","rawTitle":"专柜品质,顶级原单货,实物实拍!768248啡胶/荧光玫~尺寸:宽11x高7,出货啦!💰"},"price":null,"currency":"CNY","moq":1,"category":"women-wallets","status":"active","alibaba_url":null,"images":["https://xcimg.szwego.com/img/102e1c0f/20250517/i1747466411025_7206_0_0.jpg","https://xcimg.szwego.com/img/102e1c0f/20250517/i1747466411053_87_0_1.jpg","https://xcimg.szwego.com/img/102e1c0f/20250517/i1747466411030_292_0_2.jpg","https://xcimg.szwego.com/img/102e1c0f/20250517/i1747466411034_7526_0_3.jpg"],"created_at":"2025-08-03T05:43:10.104Z"},{"id":"item-b1079e22e5e4","sku":"_deeeexuek2jmEauNwALemrvEpakHVo6wojbqSOw","name_en":"专柜品质,顶级原单货,实物实拍!768249啡胶/荧光橙~尺寸:宽7.5x高12,出货啦!💰","name_cn":"专柜品质,顶级原单货,实物实拍!768249啡胶/荧光橙~尺寸:宽7.5x高12,出货啦!💰","specs":{"source":"wsxcme","sourceId":"_deeeexuek2jmEauNwALemrvEpakHVo6wojbqSOw","sourceTagId":47002663,"sourceTagName":"长短款钱包","rawTitle":"专柜品质,顶级原单货,实物实拍!768249啡胶/荧光橙~尺寸:宽7.5x高12,出货啦!💰"},"price":null,"currency":"CNY","moq":1,"category":"women-wallets","status":"active","alibaba_url":null,"images":["https://xcimg.szwego.com/img/102e1c0f/20250517/i1747466032633_1083_0_0.jpg","https://xcimg.szwego.com/img/102e1c0f/20250517/i1747466032642_7893_0_1.jpg","https://xcimg.szwego.com/img/102e1c0f/20250517/i1747466032640_3849_0_2.jpg","https://xcimg.szwego.com/img/102e1c0f/20250517/i1747465803251_2158_0_9.jpg"],"created_at":"2025-08-03T05:43:10.097Z"},{"id":"item-f1994fabd321","sku":"_dp-p-FBbLZq2lxfSVhl7Q47LdsyQUrmmPkZCLug","name_en":"专柜品质,顶级原单货,实物实拍!768249啡胶/荧光绿~尺寸:宽7.5x高12,出货啦!💰","name_cn":"专柜品质,顶级原单货,实物实拍!768249啡胶/荧光绿~尺寸:宽7.5x高12,出货啦!💰","specs":{"source":"wsxcme","sourceId":"_dp-p-FBbLZq2lxfSVhl7Q47LdsyQUrmmPkZCLug","sourceTagId":47002663,"sourceTagName":"长短款钱包","rawTitle":"专柜品质,顶级原单货,实物实拍!768249啡胶/荧光绿~尺寸:宽7.5x高12,出货啦!💰"},"price":null,"currency":"CNY","moq":1,"category":"women-wallets","status":"active","alibaba_url":null,"images":["https://xcimg.szwego.com/img/102e1c0f/20250517/i1747465881265_1178_0_0.jpg","https://xcimg.szwego.com/img/102e1c0f/20250517/i1747465881284_922_0_1.jpg","https://xcimg.szwego.com/img/102e1c0f/20250517/i1747465881284_6681_0_2.jpg","https://xcimg.szwego.com/img/102e1c0f/20250517/i1747465880993_4419_0_3.jpg"],"created_at":"2025-08-03T05:43:10.096Z"},{"id":"item-89ad31e4a9d7","sku":"_dvEvERokKi4ctpfpvyABUdRHX2ea9quZNCbbKBg","name_en":"专柜品质,顶级原单货,实物实拍!768249啡胶/荧光玫~尺寸:宽7.5x高12,出货啦!💰","name_cn":"专柜品质,顶级原单货,实物实拍!768249啡胶/荧光玫~尺寸:宽7.5x高12,出货啦!💰","specs":{"source":"wsxcme","sourceId":"_dvEvERokKi4ctpfpvyABUdRHX2ea9quZNCbbKBg","sourceTagId":47002663,"sourceTagName":"长短款钱包","rawTitle":"专柜品质,顶级原单货,实物实拍!768249啡胶/荧光玫~尺寸:宽7.5x高12,出货啦!💰"},"price":null,"currency":"CNY","moq":1,"category":"women-wallets","status":"active","alibaba_url":null,"images":["https://xcimg.szwego.com/img/102e1c0f/20250517/i1747466117614_128_0_0.jpg","https://xcimg.szwego.com/img/102e1c0f/20250517/i1747466117704_4533_0_1.jpg","https://xcimg.szwego.com/img/102e1c0f/20250517/i1747466117664_7527_0_2.jpg","https://xcimg.szwego.com/img/102e1c0f/20250517/i1747466117615_6170_0_3.jpg"],"created_at":"2025-08-03T05:43:10.098Z"},{"id":"item-d8c5b586e255","sku":"_dzCzC0fBk078LnPxNxGv4ReIR976UNyQUk_6Dvw","name_en":"专柜品质,顶级原单货,实物实拍!835120克荔纹,尺寸:宽19x高10.4x侧宽2.5,💰","name_cn":"专柜品质,顶级原单货,实物实拍!835120克荔纹,尺寸:宽19x高10.4x侧宽2.5,💰","specs":{"source":"wsxcme","sourceId":"_dzCzC0fBk078LnPxNxGv4ReIR976UNyQUk_6Dvw","sourceTagId":47002663,"sourceTagName":"长短款钱包","rawTitle":"专柜品质,顶级原单货,实物实拍!835120克荔纹,尺寸:宽19x高10.4x侧宽2.5,💰"},"price":null,"currency":"CNY","moq":1,"category":"women-wallets","status":"active","alibaba_url":null,"images":["https://xcimg.szwego.com/img/102e1c0f/20250612/i1749703550950_789_0_0.jpg","https://xcimg.szwego.com/img/102e1c0f/20250612/i1749703550965_7282_0_1.jpg","https://xcimg.szwego.com/img/102e1c0f/20250612/i1749703550892_8747_0_2.jpg","https://xcimg.szwego.com/img/102e1c0f/20250612/i1749703550958_2148_0_3.jpg"],"created_at":"2025-08-03T05:43:10.121Z"},{"id":"item-b6859867ca38","sku":"_ddHdHJ9lsWnpBDna8dHQcMBclyx55j6y3Jint7Q","name_en":"专柜品质,顶级原单货,实物实拍!835120绿荔纹,尺寸:宽19x高10.4x侧宽2.5,💰","name_cn":"专柜品质,顶级原单货,实物实拍!835120绿荔纹,尺寸:宽19x高10.4x侧宽2.5,💰","specs":{"source":"wsxcme","sourceId":"_ddHdHJ9lsWnpBDna8dHQcMBclyx55j6y3Jint7Q","sourceTagId":47002663,"sourceTagName":"长短款钱包","rawTitle":"专柜品质,顶级原单货,实物实拍!835120绿荔纹,尺寸:宽19x高10.4x侧宽2.5,💰"},"price":null,"currency":"CNY","moq":1,"category":"women-wallets","status":"active","alibaba_url":null,"images":["https://xcimg.szwego.com/img/102e1c0f/20250612/i1749703417806_457_0_0.jpg","https://xcimg.szwego.com/img/102e1c0f/20250612/i1749703417785_707_0_1.jpg","https://xcimg.szwego.com/img/102e1c0f/20250612/i1749703417675_9949_0_2.jpg","https://xcimg.szwego.com/img/102e1c0f/20250612/i1749703417777_1428_0_3.jpg"],"created_at":"2025-08-03T05:43:10.120Z"},{"id":"item-6fc97c6ffe8b","sku":"_do_o_r3esZ0hG8vOKc_6fsvvn0hsHQ1_bw0ebqw","name_en":"专柜品质,顶级原单货,实物实拍!款号456116克荔/酒红,尺寸:宽19x高10x侧宽3.5cm。💰","name_cn":"专柜品质,顶级原单货,实物实拍!款号456116克荔/酒红,尺寸:宽19x高10x侧宽3.5cm。💰","specs":{"source":"wsxcme","sourceId":"_do_o_r3esZ0hG8vOKc_6fsvvn0hsHQ1_bw0ebqw","sourceTagId":47002663,"sourceTagName":"长短款钱包","modelNumber":"456116克荔/酒红","rawTitle":"专柜品质,顶级原单货,实物实拍!款号456116克荔/酒红,尺寸:宽19x高10x侧宽3.5cm。💰"},"price":null,"currency":"CNY","moq":1,"category":"women-wallets","status":"active","alibaba_url":null,"images":["https://xcimg.szwego.com/img/102e1c0f/20250730/i1753860624937_8539_0_0.jpg","https://xcimg.szwego.com/img/102e1c0f/20250730/i1753860625019_2101_0_1.jpg","https://xcimg.szwego.com/img/102e1c0f/20250730/i1753860624980_4144_0_2.jpg","https://xcimg.szwego.com/img/102e1c0f/20250730/i1753860624898_2553_0_3.jpg"],"created_at":"2025-08-03T05:43:10.127Z"},{"id":"item-1b3cdc89bf44","sku":"_dj1j1h9Ls7Ko74OIlwT5N2ZgsQVngyV_Za9YliQ","name_en":"专柜品质,顶级原单货,实物实拍!款号456116浅蓝/酒红,尺寸:宽19x高10x侧宽3.5cm。💰","name_cn":"专柜品质,顶级原单货,实物实拍!款号456116浅蓝/酒红,尺寸:宽19x高10x侧宽3.5cm。💰","specs":{"source":"wsxcme","sourceId":"_dj1j1h9Ls7Ko74OIlwT5N2ZgsQVngyV_Za9YliQ","sourceTagId":47002663,"sourceTagName":"长短款钱包","modelNumber":"456116浅蓝/酒红","rawTitle":"专柜品质,顶级原单货,实物实拍!款号456116浅蓝/酒红,尺寸:宽19x高10x侧宽3.5cm。💰"},"price":null,"currency":"CNY","moq":1,"category":"women-wallets","status":"active","alibaba_url":null,"images":["https://xcimg.szwego.com/img/102e1c0f/20250605/i1749107206650_704_0_0.jpg","https://xcimg.szwego.com/img/102e1c0f/20250605/i1749107206622_154_0_1.jpg","https://xcimg.szwego.com/img/102e1c0f/20250605/i1749107206646_400_0_2.jpg","https://xcimg.szwego.com/img/102e1c0f/20250605/i1749107206569_5279_0_3.jpg"],"created_at":"2025-08-03T05:43:10.126Z"}],"page":209,"pageSize":24,"total":10075,"totalPages":420}
