{"items":[{"id":"item-94d400b828c5","sku":"_dvsvsG-vKABUZTiI0jrfpvw_ncdNuR_hQj88C1g","name_en":"Gucci Women Bags","name_cn":"细链条自重很轻!日常容量也是妥妥得️,能装的包包更加分","specs":{"source":"wsxcme","sourceId":"_dvsvsG-vKABUZTiI0jrfpvw_ncdNuR_hQj88C1g","sourceTagId":47002679,"sourceTagName":"古驰/女包","rawTitle":"细链条自重很轻!日常容量也是妥妥得️,能装的包包更加分"},"price":null,"currency":"CNY","moq":1,"category":"gucci-women-bags","status":"active","alibaba_url":null,"images":["https://xcimg.szwego.com/20230524/i1684919618_2806_0.jpg","https://xcimg.szwego.com/20230524/i1684919618_3683_1.jpg"],"created_at":"2026-05-20T03:19:24.198Z"},{"id":"item-9403efc5b870","sku":"_dHwHwk1DcohvZ0ArJY3Oqi8mMhV21IV9xkr_kiA","name_en":"Gucci Women Bags","name_cn":"782849克色漆皮\n明星模特\n上身参考图","specs":{"source":"wsxcme","sourceId":"_dHwHwk1DcohvZ0ArJY3Oqi8mMhV21IV9xkr_kiA","sourceTagId":47002679,"sourceTagName":"古驰/女包","rawTitle":"782849克色漆皮\n明星模特\n上身参考图"},"price":null,"currency":"CNY","moq":1,"category":"gucci-women-bags","status":"active","alibaba_url":null,"images":["https://xcimg.szwego.com/img/dace2ca2/20241106/a1730903553973_0048.jpg","https://xcimg.szwego.com/img/dace2ca2/20241106/a1730903553970_1176.jpg","https://xcimg.szwego.com/img/dace2ca2/20241106/a1730903553974_1536.jpg"],"created_at":"2025-03-29T13:24:08.784Z"},{"id":"item-937cf1b057ae","sku":"_d-Q-QAyKl0dLwL8l7bxq_i90EfJh1DLwwKPxeYg","name_en":"Gucci Women Bags","name_cn":"🎁专柜品质,顶级货,实物实拍!\n款号734814尺寸:宽26.5X高13X侧宽7,","specs":{"source":"wsxcme","sourceId":"_d-Q-QAyKl0dLwL8l7bxq_i90EfJh1DLwwKPxeYg","sourceTagId":47002679,"sourceTagName":"古驰/女包","modelNumber":"734814尺寸:宽26.5X高13X侧宽7","rawTitle":"🎁专柜品质,顶级货,实物实拍!\n款号734814尺寸:宽26.5X高13X侧宽7,"},"price":null,"currency":"CNY","moq":1,"category":"gucci-women-bags","status":"active","alibaba_url":null,"images":["https://xcimg.szwego.com/img/89461437/20231019/i1697690180_320_0.jpg","https://xcimg.szwego.com/img/89461437/20231019/i1697690180_9_1.jpg","https://xcimg.szwego.com/img/89461437/20231019/i1697690180_966_2.jpg","https://xcimg.szwego.com/img/89461437/20231019/i1697690180_7226_3.jpg","https://xcimg.szwego.com/img/89461437/20231019/i1697690180_3232_4.jpg","https://xcimg.szwego.com/img/89461437/20231019/i1697690180_4156_5.jpg","https://xcimg.szwego.com/img/89461437/20231019/i1697690180_7321_6.jpg"],"created_at":"2024-11-26T11:46:47.130Z"},{"id":"item-8f9c03926447","sku":"_dvDvDXlAApZdoBpX_9Zng3gakuhul8P9Zz3JqPA","name_en":"Gucci Women Bags","name_cn":"782849淡绿色漆皮\n有一种美叫 Jackie \nGucci 经典款 Jackie 包包\n日常穿搭出游都是很好的选择","specs":{"source":"wsxcme","sourceId":"_dvDvDXlAApZdoBpX_9Zng3gakuhul8P9Zz3JqPA","sourceTagId":47002679,"sourceTagName":"古驰/女包","rawTitle":"782849淡绿色漆皮\n有一种美叫 Jackie \nGucci 经典款 Jackie 包包\n日常穿搭出游都是很好的选择"},"price":null,"currency":"CNY","moq":1,"category":"gucci-women-bags","status":"active","alibaba_url":null,"images":["https://xcimg.szwego.com/img/dace2ca2/20241106/a1730903230458_8718.jpg","https://xcimg.szwego.com/img/dace2ca2/20241106/a1730903274832_8278.jpg","https://xcimg.szwego.com/img/dace2ca2/20241106/a1730903274873_8314.jpg","https://xcimg.szwego.com/img/dace2ca2/20241106/a1730903274874_3653.jpg"],"created_at":"2025-03-29T13:24:08.778Z"},{"id":"item-8f0eeed8e52f","sku":"_dlMlM9WwoMqMR2IW0MuJpd1QU_VZl1dLzWn7-fg","name_en":"Gucci Women Bags","name_cn":"▪️ 上身效果","specs":{"source":"wsxcme","sourceId":"_dlMlM9WwoMqMR2IW0MuJpd1QU_VZl1dLzWn7-fg","sourceTagId":47002679,"sourceTagName":"古驰/女包","rawTitle":"▪️ 上身效果"},"price":null,"currency":"CNY","moq":1,"category":"gucci-women-bags","status":"active","alibaba_url":null,"images":["https://xcimg.szwego.com/img/7f9d4644/20260125/i1769322309317_3328_0_0.jpg","https://xcimg.szwego.com/img/7f9d4644/20260125/i1769322309317_1128_0_1.jpg","https://xcimg.szwego.com/img/7f9d4644/20260125/i1769322309317_7550_0_2.jpg","https://xcimg.szwego.com/img/7f9d4644/20260125/i1769322309317_9815_0_3.jpg","https://xcimg.szwego.com/img/7f9d4644/20260125/i1769322310091_9098_0_4.jpg","https://xcimg.szwego.com/img/7f9d4644/20260125/i1769322309317_530_0_5.jpg"],"created_at":"2026-05-20T03:19:23.838Z"},{"id":"item-8cb1b6e7b7bc","sku":"_dw7w7kYPGcNC9IXwgA9cCvRe8XYqtQ5ODD0iCAg","name_en":"Gucci Women Bags","name_cn":"【独家背景】实物实拍🌹🌹原厂品质 款号:857622克压花  🌊🌊尺寸28✖️16✖️7","specs":{"source":"wsxcme","sourceId":"_dw7w7kYPGcNC9IXwgA9cCvRe8XYqtQ5ODD0iCAg","sourceTagId":47002679,"sourceTagName":"古驰/女包","modelNumber":"857622克压花  🌊🌊尺寸28✖️16✖️7","rawTitle":"【独家背景】实物实拍🌹🌹原厂品质 款号:857622克压花  🌊🌊尺寸28✖️16✖️7"},"price":null,"currency":"CNY","moq":1,"category":"gucci-women-bags","status":"active","alibaba_url":null,"images":["https://xcimg.szwego.com/img/ac9333ee/20260127/i1769491389701_5835_0_0.jpg","https://xcimg.szwego.com/img/ac9333ee/20260127/i1769491389882_7602_0_1.jpg","https://xcimg.szwego.com/img/ac9333ee/20260127/i1769491389910_5888_0_2.jpg","https://xcimg.szwego.com/img/ac9333ee/20260127/i1769491389855_5019_0_3.jpg","https://xcimg.szwego.com/img/ac9333ee/20260127/i1769491391586_9247_0_4.jpg","https://xcimg.szwego.com/img/ac9333ee/20260127/i1769491391550_49_0_5.jpg","https://xcimg.szwego.com/img/ac9333ee/20260127/i1769491391609_9815_0_6.jpg","https://xcimg.szwego.com/img/ac9333ee/20260127/i1769491391625_8064_0_7.jpg","https://xcimg.szwego.com/img/ac9333ee/20260127/i1769491389744_1222_0_8.jpg"],"created_at":"2026-06-29T11:04:23.144Z"},{"id":"item-8c3a3dc0ecb1","sku":"_dkmkmPAxS6JcybiS0cIHNRyUwj03mMvJeKVW3Xg","name_en":"Gucci Women Bags","name_cn":"【独家背景】实物实拍🌹🌹原厂品质 款号:855371米白  🌊🌊尺寸23✖️17✖️9","specs":{"source":"wsxcme","sourceId":"_dkmkmPAxS6JcybiS0cIHNRyUwj03mMvJeKVW3Xg","sourceTagId":47002679,"sourceTagName":"古驰/女包","modelNumber":"855371米白  🌊🌊尺寸23✖️17✖️9","rawTitle":"【独家背景】实物实拍🌹🌹原厂品质 款号:855371米白  🌊🌊尺寸23✖️17✖️9"},"price":null,"currency":"CNY","moq":1,"category":"gucci-women-bags","status":"active","alibaba_url":null,"images":["https://xcimg.szwego.com/img/ac9333ee/20260127/i1769491320455_9193_0_0.jpg","https://xcimg.szwego.com/img/ac9333ee/20260127/i1769491318961_33_0_1.jpg","https://xcimg.szwego.com/img/ac9333ee/20260127/i1769491320477_8519_0_2.jpg","https://xcimg.szwego.com/img/ac9333ee/20260127/i1769491318900_413_0_3.jpg","https://xcimg.szwego.com/img/ac9333ee/20260127/i1769491320557_4357_0_4.jpg","https://xcimg.szwego.com/img/ac9333ee/20260127/i1769491318900_5455_0_5.jpg","https://xcimg.szwego.com/img/ac9333ee/20260127/i1769491318912_1440_0_6.jpg","https://xcimg.szwego.com/img/ac9333ee/20260127/i1769491320501_4629_0_7.jpg","https://xcimg.szwego.com/img/ac9333ee/20260127/i1769491318952_409_0_8.jpg","https://xcimg.szwego.com/img/ac9333ee/20260127/i1769491320424_4843_0_9.jpg"],"created_at":"2026-06-29T11:04:23.114Z"},{"id":"item-860cf8d28df9","sku":"_dhfhfgji5qHjXKuqE0SvBJVwR44Nduz2LUFDqpg","name_en":"Gucci Women Bags","name_cn":"【独家背景】实物实拍品质 款号:651055蓝胶  🌊🌊尺寸25✖️17.5✖️7","specs":{"source":"wsxcme","sourceId":"_dhfhfgji5qHjXKuqE0SvBJVwR44Nduz2LUFDqpg","sourceTagId":47002679,"sourceTagName":"古驰/女包","modelNumber":"651055蓝胶  🌊🌊尺寸25✖️17.5✖️7","rawTitle":"【独家背景】实物实拍品质 款号:651055蓝胶  🌊🌊尺寸25✖️17.5✖️7"},"price":null,"currency":"CNY","moq":1,"category":"gucci-women-bags","status":"active","alibaba_url":null,"images":["https://xcimg.szwego.com/img/ac9333ee/20251221/i1766299079984_9241_0_0.jpg","https://xcimg.szwego.com/img/ac9333ee/20251221/i1766299080034_2414_0_1.jpg","https://xcimg.szwego.com/img/ac9333ee/20251221/i1766299080032_2047_0_2.jpg","https://xcimg.szwego.com/img/ac9333ee/20251221/i1766299080027_8133_0_3.jpg","https://xcimg.szwego.com/img/ac9333ee/20251221/i1766299077631_637_0_5.jpg","https://xcimg.szwego.com/img/ac9333ee/20251221/i1766299077631_6047_0_6.jpg","https://xcimg.szwego.com/img/ac9333ee/20251221/i1766299077631_4735_0_7.jpg","https://xcimg.szwego.com/img/ac9333ee/20251221/i1766299077631_9498_0_8.jpg","https://xcimg.szwego.com/img/ac9333ee/20251221/i1766299077631_3679_0_9.jpg"],"created_at":"2026-06-29T11:04:23.194Z"},{"id":"item-817500e7720e","sku":"_dvFvFKd5TrEzYY12he8XvsCbHXUSpkEUmHDrFLA","name_en":"Gucci Women Bags","name_cn":"782849淡粉色漆皮\n永远为夏天心动\n樱花粉的包包\n永远为之着迷,心动","specs":{"source":"wsxcme","sourceId":"_dvFvFKd5TrEzYY12he8XvsCbHXUSpkEUmHDrFLA","sourceTagId":47002679,"sourceTagName":"古驰/女包","rawTitle":"782849淡粉色漆皮\n永远为夏天心动\n樱花粉的包包\n永远为之着迷,心动"},"price":null,"currency":"CNY","moq":1,"category":"gucci-women-bags","status":"active","alibaba_url":null,"images":["https://xcimg.szwego.com/img/dace2ca2/20241106/a1730900486927_2223.jpg","https://xcimg.szwego.com/img/dace2ca2/20241106/a1730900486924_7128.jpg","https://xcimg.szwego.com/img/dace2ca2/20241106/a1730900486925_7620.jpg","https://xcimg.szwego.com/img/dace2ca2/20241106/a1730900486922_7265.jpg","https://xcimg.szwego.com/img/dace2ca2/20241106/a1730900486932_0865.jpg","https://xcimg.szwego.com/img/dace2ca2/20241106/a1730900486929_5026.jpg"],"created_at":"2025-03-29T13:24:08.771Z"},{"id":"item-7ed5d6b1dc8d","sku":"_d-c-cOp2mJNXQ0-yBgV4IF4FlsgNLZa6CDv7GYA","name_en":"Gucci Women Bags","name_cn":"升级版实拍#       \n\n款号:498156小号\n尺寸:26x18x10cm\n\npadlock小号购物袋 \n小号略显精致、容量非常合理、也是绝对够用的!休闲正式场合上班通勤都可以、同样一点也不重、皮肩带背起来更舒适!精致耐看 低调百搭风","specs":{"source":"wsxcme","sourceId":"_d-c-cOp2mJNXQ0-yBgV4IF4FlsgNLZa6CDv7GYA","sourceTagId":47002679,"sourceTagName":"古驰/女包","modelNumber":"498156小号","dimensions":{"lengthCm":26,"heightCm":18,"widthCm":10},"rawTitle":"升级版实拍#       \n\n款号:498156小号\n尺寸:26x18x10cm\n\npadlock小号购物袋 \n小号略显精致、容量非常合理、也是绝对够用的!休闲正式场合上班通勤都可以、同样一点也不重、皮肩带背起来更舒适!精致耐看 低调百搭风"},"price":null,"currency":"CNY","moq":1,"category":"gucci-women-bags","status":"active","alibaba_url":null,"images":["https://xcimg.szwego.com/20210712/i1626094629_4317_1.jpg","https://xcimg.szwego.com/20210712/i1626094629_6552_2.jpg","https://xcimg.szwego.com/20210712/i1626094629_4447_3.jpg","https://xcimg.szwego.com/20210712/i1626094629_1092_4.jpg","https://xcimg.szwego.com/20210712/i1626094629_9903_5.jpg","https://xcimg.szwego.com/20210712/i1626094629_8521_7.jpg","https://xcimg.szwego.com/20210712/i1626094629_950_6.jpg","https://xcimg.szwego.com/20210712/i1626094629_6876_0.jpg","https://xcimg.szwego.com/20210712/i1626094629_4360_8.jpg"],"created_at":"2024-11-26T11:46:47.177Z"},{"id":"item-7a1fb294ee47","sku":"_du6u6sNjEu2ozaqfD-6I3U3V_m1IB7dBKUMUyWA","name_en":"Gucci Women Bags","name_cn":"▪️上身效果 \n太好看了叭🙆‍♂️","specs":{"source":"wsxcme","sourceId":"_du6u6sNjEu2ozaqfD-6I3U3V_m1IB7dBKUMUyWA","sourceTagId":47002679,"sourceTagName":"古驰/女包","rawTitle":"▪️上身效果 \n太好看了叭🙆‍♂️"},"price":null,"currency":"CNY","moq":1,"category":"gucci-women-bags","status":"active","alibaba_url":null,"images":["https://xcimg.szwego.com/img/7f9d4644/20260130/i1769753691248_4967_0_0.jpg","https://xcimg.szwego.com/img/7f9d4644/20260130/i1769753691248_4588_0_1.jpg","https://xcimg.szwego.com/img/7f9d4644/20260130/i1769753691248_2472_0_2.jpg","https://xcimg.szwego.com/img/7f9d4644/20260130/i1769753691653_2446_0_3.jpg","https://xcimg.szwego.com/img/7f9d4644/20260130/i1769753691651_1037_0_4.jpg","https://xcimg.szwego.com/img/7f9d4644/20260130/i1769753691248_2101_0_5.jpg","https://xcimg.szwego.com/img/7f9d4644/20260130/i1769753691249_8827_0_6.jpg","https://xcimg.szwego.com/img/7f9d4644/20260130/i1769753691653_6752_0_7.jpg","https://xcimg.szwego.com/img/7f9d4644/20260130/i1769753698164_7825_0_8.jpg"],"created_at":"2026-05-20T03:19:23.588Z"},{"id":"item-781849fcdeea","sku":"_dJqJq-2BKgcumYqbrwYGv6mRWIeESrTT9nrnTOw","name_en":"Gucci Women Bags","name_cn":"实拍#       只做头层皮 真牛皮\n\n款号:308364香槟金\n尺寸:21x15x7cm\n\nGG disco soho相机包. 经典永不会过时\n浮雕双G配上皮革流苏.头层牛皮 超级软\n斜挎✅单肩✅手拿✅","specs":{"source":"wsxcme","sourceId":"_dJqJq-2BKgcumYqbrwYGv6mRWIeESrTT9nrnTOw","sourceTagId":47002679,"sourceTagName":"古驰/女包","modelNumber":"308364香槟金","dimensions":{"lengthCm":21,"heightCm":15,"widthCm":7},"rawTitle":"实拍#       只做头层皮 真牛皮\n\n款号:308364香槟金\n尺寸:21x15x7cm\n\nGG disco soho相机包. 经典永不会过时\n浮雕双G配上皮革流苏.头层牛皮 超级软\n斜挎✅单肩✅手拿✅"},"price":null,"currency":"CNY","moq":1,"category":"gucci-women-bags","status":"active","alibaba_url":null,"images":["https://xcimg.szwego.com/20221027/i1666863677_315_0.jpg","https://xcimg.szwego.com/20221027/i1666863677_716_1.jpg","https://xcimg.szwego.com/20221027/i1666863677_2780_2.jpg","https://xcimg.szwego.com/20221027/i1666863677_7783_3.jpg","https://xcimg.szwego.com/20221027/i1666863677_1728_4.jpg","https://xcimg.szwego.com/20221027/i1666863677_7044_5.jpg","https://xcimg.szwego.com/20221027/i1666863677_8820_6.jpg","https://xcimg.szwego.com/20221027/i1666863677_3947_7.jpg","https://xcimg.szwego.com/20221027/i1666863677_7296_8.jpg"],"created_at":"2024-11-26T11:46:47.169Z"},{"id":"item-74f3015fa198","sku":"_dgtgt5GVWiEs7ZfhWpOQUjzAwc8ejiuJWALmcLw","name_en":"Gucci Women Bags","name_cn":"更多喜细节图","specs":{"source":"wsxcme","sourceId":"_dgtgt5GVWiEs7ZfhWpOQUjzAwc8ejiuJWALmcLw","sourceTagId":47002679,"sourceTagName":"古驰/女包","rawTitle":"更多喜细节图"},"price":null,"currency":"CNY","moq":1,"category":"gucci-women-bags","status":"active","alibaba_url":null,"images":["https://xcimg.szwego.com/img/7f9d4644/20260130/i1769753581284_1670_0_0.jpg","https://xcimg.szwego.com/img/7f9d4644/20260130/i1769753581582_9335_0_1.jpg","https://xcimg.szwego.com/img/7f9d4644/20260130/i1769753581287_8993_0_2.jpg","https://xcimg.szwego.com/img/7f9d4644/20260130/i1769753581287_4099_0_3.jpg","https://xcimg.szwego.com/img/7f9d4644/20260130/i1769753582076_8874_0_4.jpg","https://xcimg.szwego.com/img/7f9d4644/20260130/i1769753581526_5463_0_5.jpg"],"created_at":"2026-05-20T03:19:23.558Z"},{"id":"item-73293326fd95","sku":"_dxyxyDlMcAbKGnbHebp95-2-b1gq38oOjRkJNZA","name_en":"Gucci Women Bags","name_cn":"【顶级原单】🔥皮全套包装\n双G代表 长期以来对重塑和重新利用经典廓形作出的不懈努力。同色调双G配件谱写摩登叙事,典藏元素在这款GGMarmont系列V型绗缝皮革腰包上以焕新之姿巧妙呈现。\n材质✨采用专柜质感,天然饱满颗粒进口牛皮,与对版正品打磨垌五金。\n尺寸12x12.5x7cm 型号739599","specs":{"source":"wsxcme","sourceId":"_dxyxyDlMcAbKGnbHebp95-2-b1gq38oOjRkJNZA","sourceTagId":47002679,"sourceTagName":"古驰/女包","modelNumber":"739599","dimensions":{"lengthCm":12,"heightCm":12.5,"widthCm":7},"rawTitle":"【顶级原单】🔥皮全套包装\n双G代表 长期以来对重塑和重新利用经典廓形作出的不懈努力。同色调双G配件谱写摩登叙事,典藏元素在这款GGMarmont系列V型绗缝皮革腰包上以焕新之姿巧妙呈现。\n材质✨采用专柜质感,天然饱满颗粒进口牛皮,与对版正品打磨垌五金。\n尺寸12x12.5x7cm 型号739599"},"price":null,"currency":"CNY","moq":1,"category":"gucci-women-bags","status":"active","alibaba_url":null,"images":["https://xcimg.szwego.com/20230415/i1681507285_7596_0.jpg","https://xcimg.szwego.com/20230415/i1681507285_1962_1.jpg","https://xcimg.szwego.com/20230415/i1681507285_4383_2.jpg","https://xcimg.szwego.com/20230415/i1681507285_8012_3.jpg","https://xcimg.szwego.com/20230415/i1681507285_581_4.jpg","https://xcimg.szwego.com/20230415/i1681507285_7045_5.jpg","https://xcimg.szwego.com/20230415/i1681507285_3502_6.jpg","https://xcimg.szwego.com/20230415/i1681507285_3969_7.jpg","https://xcimg.szwego.com/20230415/i1681507285_5337_8.jpg"],"created_at":"2024-10-20T11:19:56.213Z"},{"id":"item-72ceb03b5fb8","sku":"_dkkkkLNZEnIXKE-Obws6II_nZcCODzz-oHI_tNw","name_en":"Gucci Women Bags","name_cn":"型号 :499623 黑\n尺寸:25x14x8cm   \n\n Gucci Dionysus钻扣酒神\n真香系列警告,太绝了。\n保留了酒神包的完美血统,\n但是开启了酒神革新时代!\n整个包最值钱的地方就是虎头钻石扣\n殿堂级宝藏单品。并非市场货。\n自重很轻,尺寸大小非常完美,推荐入。","specs":{"source":"wsxcme","sourceId":"_dkkkkLNZEnIXKE-Obws6II_nZcCODzz-oHI_tNw","sourceTagId":47002679,"sourceTagName":"古驰/女包","modelNumber":"499623 黑","dimensions":{"lengthCm":25,"heightCm":14,"widthCm":8},"rawTitle":"型号 :499623 黑\n尺寸:25x14x8cm   \n\n Gucci Dionysus钻扣酒神\n真香系列警告,太绝了。\n保留了酒神包的完美血统,\n但是开启了酒神革新时代!\n整个包最值钱的地方就是虎头钻石扣\n殿堂级宝藏单品。并非市场货。\n自重很轻,尺寸大小非常完美,推荐入。"},"price":null,"currency":"CNY","moq":1,"category":"gucci-women-bags","status":"active","alibaba_url":null,"images":["https://xcimg.szwego.com/img/d06f5dea/20240601/i1717221723_4874_8.jpg","https://xcimg.szwego.com/img/d06f5dea/20240601/i1717221723_9767_1.jpg","https://xcimg.szwego.com/img/d06f5dea/20240601/i1717221723_4740_6.jpg","https://xcimg.szwego.com/img/d06f5dea/20240601/i1717221723_9445_5.jpg","https://xcimg.szwego.com/img/d06f5dea/20240601/i1717221723_6340_2.jpg","https://xcimg.szwego.com/img/d06f5dea/20240601/i1717221723_6016_4.jpg","https://xcimg.szwego.com/img/d06f5dea/20240601/i1717221723_3581_3.jpg","https://xcimg.szwego.com/img/d06f5dea/20240601/i1717221723_3235_0.jpg","https://xcimg.szwego.com/img/d06f5dea/20240601/i1717221723_2970_7.jpg"],"created_at":"2026-05-20T03:19:23.338Z"},{"id":"item-715a957766a1","sku":"_dkJkJZRR_wfav8L0ivhKfkHcfdP6-OVZdoX-4-Q","name_en":"Gucci Women Bags","name_cn":"【独家背景】实物实拍品质 款号:857622灰绿压花  🌊🌊尺寸28✖️16✖️7","specs":{"source":"wsxcme","sourceId":"_dkJkJZRR_wfav8L0ivhKfkHcfdP6-OVZdoX-4-Q","sourceTagId":47002679,"sourceTagName":"古驰/女包","modelNumber":"857622灰绿压花  🌊🌊尺寸28✖️16✖️7","rawTitle":"【独家背景】实物实拍品质 款号:857622灰绿压花  🌊🌊尺寸28✖️16✖️7"},"price":null,"currency":"CNY","moq":1,"category":"gucci-women-bags","status":"active","alibaba_url":null,"images":["https://xcimg.szwego.com/img/ac9333ee/20260124/i1769254380241_584_0_0.jpg","https://xcimg.szwego.com/img/ac9333ee/20260124/i1769254380283_3745_0_1.jpg","https://xcimg.szwego.com/img/ac9333ee/20260124/i1769254379088_4228_0_2.jpg","https://xcimg.szwego.com/img/ac9333ee/20260124/i1769254379176_4031_0_3.jpg","https://xcimg.szwego.com/img/ac9333ee/20260124/i1769254380205_1285_0_4.jpg","https://xcimg.szwego.com/img/ac9333ee/20260124/i1769254379152_4960_0_5.jpg","https://xcimg.szwego.com/img/ac9333ee/20260124/i1769254379097_5140_0_6.jpg","https://xcimg.szwego.com/img/ac9333ee/20260124/i1769254379138_4933_0_7.jpg","https://xcimg.szwego.com/img/ac9333ee/20260124/i1769254380170_8758_0_8.jpg"],"created_at":"2026-06-29T11:04:23.164Z"},{"id":"item-64f7547c16c7","sku":"_doEoERWTUFzRWoL9oudkLF6yUWwExQGSa3hJDSg","name_en":"Gucci Women Bags","name_cn":"【独家背景】实物实拍品质 款号:651055燕麦  🌊🌊尺寸25✖️17.5✖️7","specs":{"source":"wsxcme","sourceId":"_doEoERWTUFzRWoL9oudkLF6yUWwExQGSa3hJDSg","sourceTagId":47002679,"sourceTagName":"古驰/女包","modelNumber":"651055燕麦  🌊🌊尺寸25✖️17.5✖️7","rawTitle":"【独家背景】实物实拍品质 款号:651055燕麦  🌊🌊尺寸25✖️17.5✖️7"},"price":null,"currency":"CNY","moq":1,"category":"gucci-women-bags","status":"active","alibaba_url":null,"images":["https://xcimg.szwego.com/img/ac9333ee/20251221/i1766299096440_3410_0_0.jpg","https://xcimg.szwego.com/img/ac9333ee/20251221/i1766299096406_3900_0_1.jpg","https://xcimg.szwego.com/img/ac9333ee/20251221/i1766299098030_8618_0_2.jpg","https://xcimg.szwego.com/img/ac9333ee/20251221/i1766299096536_6326_0_3.jpg","https://xcimg.szwego.com/img/ac9333ee/20251221/i1766299097924_3140_0_4.jpg","https://xcimg.szwego.com/img/ac9333ee/20251221/i1766299096489_3377_0_5.jpg","https://xcimg.szwego.com/img/ac9333ee/20251221/i1766299097997_3337_0_6.jpg","https://xcimg.szwego.com/img/ac9333ee/20251221/i1766299097939_27_0_7.jpg","https://xcimg.szwego.com/img/ac9333ee/20251221/i1766299096435_6606_0_8.jpg"],"created_at":"2026-06-29T11:04:23.184Z"},{"id":"item-6419ea85ce6e","sku":"_dhrhrY5auezP4-guYD9h2j388jJ-Hc6sKh2ouKg","name_en":"Gucci Women Bags","name_cn":"782849象牙白色漆皮\n明星模特\n上身参考图","specs":{"source":"wsxcme","sourceId":"_dhrhrY5auezP4-guYD9h2j388jJ-Hc6sKh2ouKg","sourceTagId":47002679,"sourceTagName":"古驰/女包","rawTitle":"782849象牙白色漆皮\n明星模特\n上身参考图"},"price":null,"currency":"CNY","moq":1,"category":"gucci-women-bags","status":"active","alibaba_url":null,"images":["https://xcimg.szwego.com/img/dace2ca2/20241106/a1730901583190_8204.jpg","https://xcimg.szwego.com/img/dace2ca2/20241106/a1730901583188_2521.jpg","https://xcimg.szwego.com/img/dace2ca2/20241106/a1730901583187_1016.jpg"],"created_at":"2025-03-29T13:24:08.775Z"},{"id":"item-63b3495f0fe4","sku":"_d-H-HbRqf7XQvanvRGC-7FISxbStfgS_qRGvBcg","name_en":"Gucci Women Bags","name_cn":"魅力红💄","specs":{"source":"wsxcme","sourceId":"_d-H-HbRqf7XQvanvRGC-7FISxbStfgS_qRGvBcg","sourceTagId":47002679,"sourceTagName":"古驰/女包","rawTitle":"魅力红💄"},"price":null,"currency":"CNY","moq":1,"category":"gucci-women-bags","status":"active","alibaba_url":null,"images":["https://xcimg.szwego.com/img/7f9d4644/20260130/i1769753988860_4409_0_0.jpg","https://xcimg.szwego.com/img/7f9d4644/20260130/i1769753988859_6871_0_1.jpg","https://xcimg.szwego.com/img/7f9d4644/20260130/i1769753988471_6574_0_2.jpg","https://xcimg.szwego.com/img/7f9d4644/20260130/i1769753988471_8440_0_3.jpg","https://xcimg.szwego.com/img/7f9d4644/20260130/i1769753988856_8200_0_4.jpg","https://xcimg.szwego.com/img/7f9d4644/20260130/i1769753988858_8027_0_5.jpg","https://xcimg.szwego.com/img/7f9d4644/20260130/i1769753988471_3628_0_6.jpg","https://xcimg.szwego.com/img/7f9d4644/20260130/i1769753988471_9922_0_7.jpg","https://xcimg.szwego.com/img/7f9d4644/20260130/i1769753988471_8871_0_8.jpg"],"created_at":"2026-05-20T03:19:23.658Z"},{"id":"item-61e9e122b3f8","sku":"_dAuAuKLSZ1UTxZOfw1i3U9vKq9_Vk3CU4LmorKQ","name_en":"Gucci Women Bags","name_cn":"【独家背景】实物实拍品质 款号:499623燕麦 🌊🌊尺寸25✖️13.5✖️7","specs":{"source":"wsxcme","sourceId":"_dAuAuKLSZ1UTxZOfw1i3U9vKq9_Vk3CU4LmorKQ","sourceTagId":47002679,"sourceTagName":"古驰/女包","modelNumber":"499623燕麦 🌊🌊尺寸25✖️13.5✖️7","rawTitle":"【独家背景】实物实拍品质 款号:499623燕麦 🌊🌊尺寸25✖️13.5✖️7"},"price":null,"currency":"CNY","moq":1,"category":"gucci-women-bags","status":"active","alibaba_url":null,"images":["https://xcimg.szwego.com/img/ac9333ee/20251021/i1761024619056_6861_0_0.jpg","https://xcimg.szwego.com/img/ac9333ee/20251021/i1761024619823_3580_0_1.jpg","https://xcimg.szwego.com/img/ac9333ee/20251021/i1761024619791_6682_0_2.jpg","https://xcimg.szwego.com/img/ac9333ee/20251021/i1761024618965_6198_0_3.jpg","https://xcimg.szwego.com/img/ac9333ee/20251021/i1761024619886_1536_0_4.jpg","https://xcimg.szwego.com/img/ac9333ee/20251021/i1761024619882_1955_0_5.jpg","https://xcimg.szwego.com/img/ac9333ee/20251021/i1761024619013_5276_0_6.jpg","https://xcimg.szwego.com/img/ac9333ee/20251021/i1761024618852_585_0_7.jpg","https://xcimg.szwego.com/img/ac9333ee/20251021/i1761024618979_9013_0_8.jpg"],"created_at":"2026-06-29T11:04:23.084Z"},{"id":"item-5fb89a6f5e1c","sku":"_doMoMnwbbhj6_gyR2nJF0XhxPJsTSMcC6AyTSAQ","name_en":"Gucci Women Bags","name_cn":"实拍#       只做头层皮 真牛皮\n\n款号:308364红色\n尺寸:21x15x7cm\n\nGG disco soho相机包. 经典永不会过时\n浮雕双G配上皮革流苏.头层牛皮 超级软\n斜挎✅单肩✅手拿✅","specs":{"source":"wsxcme","sourceId":"_doMoMnwbbhj6_gyR2nJF0XhxPJsTSMcC6AyTSAQ","sourceTagId":47002679,"sourceTagName":"古驰/女包","modelNumber":"308364红色","dimensions":{"lengthCm":21,"heightCm":15,"widthCm":7},"rawTitle":"实拍#       只做头层皮 真牛皮\n\n款号:308364红色\n尺寸:21x15x7cm\n\nGG disco soho相机包. 经典永不会过时\n浮雕双G配上皮革流苏.头层牛皮 超级软\n斜挎✅单肩✅手拿✅"},"price":null,"currency":"CNY","moq":1,"category":"gucci-women-bags","status":"active","alibaba_url":null,"images":["https://xcimg.szwego.com/20221027/i1666863911_5351_0.jpg","https://xcimg.szwego.com/20221027/i1666863911_1007_1.jpg","https://xcimg.szwego.com/20221027/i1666863911_2147_2.jpg","https://xcimg.szwego.com/20221027/i1666863911_9126_3.jpg","https://xcimg.szwego.com/20221027/i1666863911_9497_4.jpg","https://xcimg.szwego.com/20221027/i1666863911_599_5.jpg","https://xcimg.szwego.com/20221027/i1666863911_8399_6.jpg","https://xcimg.szwego.com/20221027/i1666863911_536_7.jpg","https://xcimg.szwego.com/20221027/i1666863911_3315_8.jpg"],"created_at":"2024-11-26T11:46:47.173Z"},{"id":"item-5e127a0da689","sku":"_dn9n9_X3jKnkmU3kqULC70YJIeKlR848dvME4Xg","name_en":"Gucci Women Bags","name_cn":"【独家背景】实物实拍品质 款号:499623克牛仔 🌊🌊尺寸25✖️13.5✖️7","specs":{"source":"wsxcme","sourceId":"_dn9n9_X3jKnkmU3kqULC70YJIeKlR848dvME4Xg","sourceTagId":47002679,"sourceTagName":"古驰/女包","modelNumber":"499623克牛仔 🌊🌊尺寸25✖️13.5✖️7","rawTitle":"【独家背景】实物实拍品质 款号:499623克牛仔 🌊🌊尺寸25✖️13.5✖️7"},"price":null,"currency":"CNY","moq":1,"category":"gucci-women-bags","status":"active","alibaba_url":null,"images":["https://xcimg.szwego.com/img/ac9333ee/20251021/i1761024597419_5022_0_0.jpg","https://xcimg.szwego.com/img/ac9333ee/20251021/i1761024595823_5734_0_1.jpg","https://xcimg.szwego.com/img/ac9333ee/20251021/i1761024597420_4805_0_2.jpg","https://xcimg.szwego.com/img/ac9333ee/20251021/i1761024595858_1854_0_3.jpg","https://xcimg.szwego.com/img/ac9333ee/20251021/i1761024597374_9660_0_4.jpg","https://xcimg.szwego.com/img/ac9333ee/20251021/i1761024595851_7152_0_5.jpg","https://xcimg.szwego.com/img/ac9333ee/20251021/i1761024595823_2118_0_6.jpg","https://xcimg.szwego.com/img/ac9333ee/20251021/i1761024595872_488_0_7.jpg","https://xcimg.szwego.com/img/ac9333ee/20251021/i1761024597363_2783_0_8.jpg"],"created_at":"2026-06-29T11:04:23.094Z"},{"id":"item-55e8ac05e4e9","sku":"_djMjMMhtWho6ciW08eYm_Iki8NXyTyT9FCDW40A","name_en":"Gucci Women Bags","name_cn":"【大货 🔥原厂皮】    实物随意拍🎬\n经典款焦糖色16.5cm!!️\n一只可爱的小金棕,终于等来marmont出新色了,而且不是那种让人扎眼的马卡龙色,这次是超级好看的焦糖色,这个颜色秋冬搭配衣服真的是绝了,现在用撞包几率也很低 所以赶紧买!!️","specs":{"source":"wsxcme","sourceId":"_djMjMMhtWho6ciW08eYm_Iki8NXyTyT9FCDW40A","sourceTagId":47002679,"sourceTagName":"古驰/女包","rawTitle":"【大货 🔥原厂皮】    实物随意拍🎬\n经典款焦糖色16.5cm!!️\n一只可爱的小金棕,终于等来marmont出新色了,而且不是那种让人扎眼的马卡龙色,这次是超级好看的焦糖色,这个颜色秋冬搭配衣服真的是绝了,现在用撞包几率也很低 所以赶紧买!!️"},"price":null,"currency":"CNY","moq":1,"category":"gucci-women-bags","status":"active","alibaba_url":null,"images":["https://xcimg.szwego.com/20220610/i1654791066_8109_0.jpg","https://xcimg.szwego.com/20220610/i1654791066_7691_1.jpg","https://xcimg.szwego.com/20220610/i1654791066_1944_2.jpg","https://xcimg.szwego.com/20220610/i1654791066_5418_3.jpg","https://xcimg.szwego.com/20220610/i1654791066_3207_4.jpg","https://xcimg.szwego.com/20220610/i1654791066_858_5.jpg","https://xcimg.szwego.com/20220610/i1654791066_9716_6.jpg","https://xcimg.szwego.com/20220610/i1654791066_7641_7.jpg","https://xcimg.szwego.com/20220610/i1654791066_1951_8.jpg"],"created_at":"2024-10-20T11:22:02.357Z"},{"id":"item-551d7a466fcc","sku":"_ddOdO0pQMqbwodm3rif3j1YQ9bsvE8XoeiZr94w","name_en":"Gucci Women Bags","name_cn":"【独家背景】实物实拍品质 款号:834981棕磨砂  🌊🌊尺寸42✖️36✖️2","specs":{"source":"wsxcme","sourceId":"_ddOdO0pQMqbwodm3rif3j1YQ9bsvE8XoeiZr94w","sourceTagId":47002679,"sourceTagName":"古驰/女包","modelNumber":"834981棕磨砂  🌊🌊尺寸42✖️36✖️2","rawTitle":"【独家背景】实物实拍品质 款号:834981棕磨砂  🌊🌊尺寸42✖️36✖️2"},"price":null,"currency":"CNY","moq":1,"category":"gucci-women-bags","status":"active","alibaba_url":null,"images":["https://xcimg.szwego.com/img/ac9333ee/20260124/i1769254440498_9539_0_0.jpg","https://xcimg.szwego.com/img/ac9333ee/20260124/i1769254440485_8803_0_1.jpg","https://xcimg.szwego.com/img/ac9333ee/20260124/i1769254441498_5909_0_2.jpg","https://xcimg.szwego.com/img/ac9333ee/20260124/i1769254441439_1212_0_3.jpg","https://xcimg.szwego.com/img/ac9333ee/20260124/i1769254440471_7940_0_4.jpg","https://xcimg.szwego.com/img/ac9333ee/20260124/i1769254441433_7159_0_5.jpg","https://xcimg.szwego.com/img/ac9333ee/20260124/i1769254440443_8001_0_6.jpg","https://xcimg.szwego.com/img/ac9333ee/20260124/i1769254440449_2115_0_7.jpg","https://xcimg.szwego.com/img/ac9333ee/20260124/i1769254441400_5945_0_8.jpg"],"created_at":"2026-06-29T11:04:23.224Z"}],"page":322,"pageSize":24,"total":10075,"totalPages":420}
