{"items":[{"id":"item-24ce721a1574","sku":"_dqFqFnnisADZnlcMMWjdmKGGuTuCeKfp5ldpqgA","name_en":"嘻皮包👛香奈儿24P hobo爱啦爱啦/❤️hobo小号牛皮、肩带长度满意、又轻容量真的太让我惊喜啦看着小实际非常能装[勾引]容量是爱心扣方胖子的两倍还多[天啊]hobo皮是亮晶晶的、","name_cn":"嘻皮包👛香奈儿24P hobo爱啦爱啦/❤️hobo小号牛皮、肩带长度满意、又轻容量真的太让我惊喜啦看着小实际非常能装[勾引]容量是爱心扣方胖子的两倍还多[天啊]hobo皮是亮晶晶的、\n尺寸:18袋底x23袋口 x 11.5 高X 5cm\n款号:  cc1018","specs":{"source":"wsxcme","sourceId":"_dqFqFnnisADZnlcMMWjdmKGGuTuCeKfp5ldpqgA","sourceTagId":47002745,"sourceTagName":"香奈儿/女包","modelNumber":"cc1018","rawTitle":"嘻皮包👛香奈儿24P hobo爱啦爱啦/❤️hobo小号牛皮、肩带长度满意、又轻容量真的太让我惊喜啦看着小实际非常能装[勾引]容量是爱心扣方胖子的两倍还多[天啊]hobo皮是亮晶晶的、\n尺寸:18袋底x23袋口 x 11.5 高X 5cm\n款号:  cc1018"},"price":null,"currency":"CNY","moq":1,"category":"chanel-women-bags","status":"active","alibaba_url":null,"images":["https://xcimg.szwego.com/img/c0f37100/20250110/i1736497120_912_0.jpg","https://xcimg.szwego.com/img/c0f37100/20250110/i1736497120_5915_0.jpg","https://xcimg.szwego.com/img/c0f37100/20250110/i1736497186_9630_2.jpg","https://xcimg.szwego.com/img/c0f37100/20250110/i1736497186_9134_4.jpg","https://xcimg.szwego.com/img/c0f37100/20250110/i1736497186_4613_3.jpg","https://xcimg.szwego.com/img/c0f37100/20250110/i1736497186_4347_6.jpg","https://xcimg.szwego.com/img/c0f37100/20250110/i1736497186_9795_0.jpg","https://xcimg.szwego.com/img/c0f37100/20250110/i1736497186_7944_5.jpg","https://xcimg.szwego.com/img/c0f37100/20250110/i1736497186_3363_1.jpg"],"created_at":"2025-02-04T12:08:24.981Z"},{"id":"item-feb2e5c0ffc2","sku":"_dKjKjkQRhszMZ9ROGjnBqpepoiRWSMRJQGL6nJw","name_en":"细节po","name_cn":"细节po","specs":{"source":"wsxcme","sourceId":"_dKjKjkQRhszMZ9ROGjnBqpepoiRWSMRJQGL6nJw","sourceTagId":47002761,"sourceTagName":"圣罗兰/女包","rawTitle":"细节po"},"price":null,"currency":"CNY","moq":1,"category":"ysl-women-bags","status":"active","alibaba_url":null,"images":["https://xcimg.szwego.com/img/f8c0bdc9/20240515/i1715775811_5641_2.jpg","https://xcimg.szwego.com/img/f8c0bdc9/20240515/i1715775811_2186_5.jpg","https://xcimg.szwego.com/img/f8c0bdc9/20240515/i1715775811_1246_4.jpg","https://xcimg.szwego.com/img/f8c0bdc9/20240515/i1715775811_1624_0.jpg","https://xcimg.szwego.com/img/f8c0bdc9/20240515/i1715775811_2828_1.jpg","https://xcimg.szwego.com/img/f8c0bdc9/20240515/i1715775811_23_3.jpg"],"created_at":"2026-05-20T04:01:38.893Z"},{"id":"item-fbe650e00e6a","sku":"_d8k8k2gFaRPBSWYRhl-aXYQ60mLb1saaC_ffs0A","name_en":"细节po","name_cn":"细节po","specs":{"source":"wsxcme","sourceId":"_d8k8k2gFaRPBSWYRhl-aXYQ60mLb1saaC_ffs0A","sourceTagId":47002756,"sourceTagName":"宝格丽/女包","rawTitle":"细节po"},"price":null,"currency":"CNY","moq":1,"category":"bvlgari-women-bags","status":"active","alibaba_url":null,"images":["https://xcimg.szwego.com/20230219/i1676790487_5821_0.jpg","https://xcimg.szwego.com/20230219/i1676790487_3638_1.jpg","https://xcimg.szwego.com/20230219/i1676790487_4986_2.jpg","https://xcimg.szwego.com/20230219/i1676790487_1774_3.jpg","https://xcimg.szwego.com/20230219/i1676790487_2676_4.jpg","https://xcimg.szwego.com/20230219/i1676790487_2604_5.jpg"],"created_at":"2024-10-07T10:58:53.577Z"},{"id":"item-f03dc41504bc","sku":"_dmrmrudRTJUYxsPYA8Dc3vbFf_FEluhro78Z51A","name_en":"细节po","name_cn":"细节po","specs":{"source":"wsxcme","sourceId":"_dmrmrudRTJUYxsPYA8Dc3vbFf_FEluhro78Z51A","sourceTagId":47002761,"sourceTagName":"圣罗兰/女包","rawTitle":"细节po"},"price":null,"currency":"CNY","moq":1,"category":"ysl-women-bags","status":"active","alibaba_url":null,"images":["https://xcimg.szwego.com/imgHD/f8c0bdc9/20260129/cmp_i1769677069987_1635_0_0.jpg","https://xcimg.szwego.com/imgHD/f8c0bdc9/20260129/cmp_i1769677077117_7737_0_1.jpg","https://xcimg.szwego.com/imgHD/f8c0bdc9/20260129/cmp_i1769677077039_1471_0_2.jpg","https://xcimg.szwego.com/imgHD/f8c0bdc9/20260129/cmp_i1769677070986_2557_0_3.jpg","https://xcimg.szwego.com/imgHD/f8c0bdc9/20260129/cmp_i1769677071468_2748_0_4.jpg"],"created_at":"2026-05-20T04:01:38.853Z"},{"id":"item-e317c91a3158","sku":"_doPoPpR4oXrJSoz-SgEQsUjRh5wPG2VapLJrOqQ","name_en":"细节po","name_cn":"细节po","specs":{"source":"wsxcme","sourceId":"_doPoPpR4oXrJSoz-SgEQsUjRh5wPG2VapLJrOqQ","sourceTagId":47002761,"sourceTagName":"圣罗兰/女包","rawTitle":"细节po"},"price":null,"currency":"CNY","moq":1,"category":"ysl-women-bags","status":"active","alibaba_url":null,"images":["https://xcimg.szwego.com/imgHD/f8c0bdc9/20260622/cmp_i1782121272490_5540_0_0.jpg","https://xcimg.szwego.com/imgHD/f8c0bdc9/20260622/cmp_i1782121275090_7325_0_1.jpg","https://xcimg.szwego.com/imgHD/f8c0bdc9/20260622/cmp_i1782121272059_6438_0_2.jpg","https://xcimg.szwego.com/imgHD/f8c0bdc9/20260622/cmp_i1782121273741_6097_0_3.jpg","https://xcimg.szwego.com/imgHD/f8c0bdc9/20260622/cmp_i1782121279267_469_0_4.jpg","https://xcimg.szwego.com/imgHD/f8c0bdc9/20260622/cmp_i1782121273612_6744_0_5.jpg","https://xcimg.szwego.com/imgHD/f8c0bdc9/20260622/cmp_i1782121272473_9590_0_6.jpg","https://xcimg.szwego.com/imgHD/f8c0bdc9/20260622/cmp_i1782121279410_8277_0_7.jpg","https://xcimg.szwego.com/imgHD/f8c0bdc9/20260622/cmp_i1782121279089_9414_0_8.jpg"],"created_at":"2026-06-29T10:48:59.449Z"},{"id":"item-e07b67bdf9ea","sku":"_dk0k0YbXQ-wC70sppgXIz6e6jpIxlFHAgYoCWwA","name_en":"细节po","name_cn":"细节po","specs":{"source":"wsxcme","sourceId":"_dk0k0YbXQ-wC70sppgXIz6e6jpIxlFHAgYoCWwA","sourceTagId":47002761,"sourceTagName":"圣罗兰/女包","rawTitle":"细节po"},"price":null,"currency":"CNY","moq":1,"category":"ysl-women-bags","status":"active","alibaba_url":null,"images":["https://xcimg.szwego.com/imgHD/f8c0bdc9/20250328/cmp_i1743146383735_9251_0_0.jpg","https://xcimg.szwego.com/imgHD/f8c0bdc9/20250328/cmp_i1743146386571_7425_0_1.jpg","https://xcimg.szwego.com/imgHD/f8c0bdc9/20250328/cmp_i1743146386527_701_0_2.jpg","https://xcimg.szwego.com/imgHD/f8c0bdc9/20250328/cmp_i1743146384136_3323_0_3.jpg","https://xcimg.szwego.com/imgHD/f8c0bdc9/20250328/cmp_i1743146384195_3079_0_4.jpg","https://xcimg.szwego.com/imgHD/f8c0bdc9/20250328/cmp_i1743146384253_4815_0_5.jpg","https://xcimg.szwego.com/imgHD/f8c0bdc9/20250328/cmp_i1743146384280_1442_0_6.jpg","https://xcimg.szwego.com/imgHD/f8c0bdc9/20250328/cmp_i1743146386602_1284_0_7.jpg"],"created_at":"2026-06-29T10:48:59.149Z"},{"id":"item-df0f62d29516","sku":"_dAEAEcygIYjBJ1tO3eUjNzBgEfzX9ljCw5gcyyw","name_en":"细节po","name_cn":"细节po","specs":{"source":"wsxcme","sourceId":"_dAEAEcygIYjBJ1tO3eUjNzBgEfzX9ljCw5gcyyw","sourceTagId":47002761,"sourceTagName":"圣罗兰/女包","rawTitle":"细节po"},"price":null,"currency":"CNY","moq":1,"category":"ysl-women-bags","status":"active","alibaba_url":null,"images":["https://xcimg.szwego.com/img/f8c0bdc9/20240811/i1723372828_3951_0.jpg","https://xcimg.szwego.com/img/f8c0bdc9/20240811/i1723372828_7056_0.jpg","https://xcimg.szwego.com/img/f8c0bdc9/20240811/i1723372828_3172_0.jpg","https://xcimg.szwego.com/img/f8c0bdc9/20240811/i1723372828_5720_0.jpg","https://xcimg.szwego.com/img/f8c0bdc9/20240811/i1723372828_880_0.jpg","https://xcimg.szwego.com/img/f8c0bdc9/20240811/i1723372828_1035_0.jpg"],"created_at":"2026-05-20T04:01:39.153Z"},{"id":"item-df0b30699acc","sku":"_dsdsdRQOUjeJ2Sil_AGS_kVuMlanYLNYK-jNKgg","name_en":"细节po","name_cn":"细节po","specs":{"source":"wsxcme","sourceId":"_dsdsdRQOUjeJ2Sil_AGS_kVuMlanYLNYK-jNKgg","sourceTagId":47002761,"sourceTagName":"圣罗兰/女包","rawTitle":"细节po"},"price":null,"currency":"CNY","moq":1,"category":"ysl-women-bags","status":"active","alibaba_url":null,"images":["https://xcimg.szwego.com/imgHD/f8c0bdc9/20260129/cmp_i1769676741145_4515_0_0.jpg","https://xcimg.szwego.com/imgHD/f8c0bdc9/20260129/cmp_i1769676742536_7623_0_1.jpg","https://xcimg.szwego.com/imgHD/f8c0bdc9/20260129/cmp_i1769676748979_2237_0_2.jpg","https://xcimg.szwego.com/imgHD/f8c0bdc9/20260129/cmp_i1769676748755_4854_0_3.jpg","https://xcimg.szwego.com/imgHD/f8c0bdc9/20260129/cmp_i1769676741160_3005_0_4.jpg"],"created_at":"2026-05-20T04:01:38.823Z"},{"id":"item-be5453e38ffe","sku":"_dmSmSAxndrRuMjCJw5arP1njFfZzh-cENi-A1Wg","name_en":"细节po","name_cn":"细节po","specs":{"source":"wsxcme","sourceId":"_dmSmSAxndrRuMjCJw5arP1njFfZzh-cENi-A1Wg","sourceTagId":47002761,"sourceTagName":"圣罗兰/女包","rawTitle":"细节po"},"price":null,"currency":"CNY","moq":1,"category":"ysl-women-bags","status":"active","alibaba_url":null,"images":["https://xcimg.szwego.com/imgHD/f8c0bdc9/20260420/cmp_i1776670985845_753_0_0.jpg","https://xcimg.szwego.com/imgHD/f8c0bdc9/20260420/cmp_i1776670985640_6089_0_1.jpg","https://xcimg.szwego.com/imgHD/f8c0bdc9/20260420/cmp_i1776670987446_923_0_2.jpg","https://xcimg.szwego.com/imgHD/f8c0bdc9/20260420/cmp_i1776670985569_1723_0_3.jpg","https://xcimg.szwego.com/imgHD/f8c0bdc9/20260420/cmp_i1776670984273_5961_0_4.jpg","https://xcimg.szwego.com/imgHD/f8c0bdc9/20260420/cmp_i1776670988243_3274_0_5.jpg","https://xcimg.szwego.com/imgHD/f8c0bdc9/20260420/cmp_i1776670987440_8568_0_6.jpg","https://xcimg.szwego.com/imgHD/f8c0bdc9/20260420/cmp_i1776670984505_8867_0_7.jpg"],"created_at":"2026-06-29T10:48:58.869Z"},{"id":"item-bb66478f5141","sku":"_d2S2SVcKfnmX5kKsnHw40XQTg_pcXBnd83k6rgA","name_en":"细节po","name_cn":"细节po","specs":{"source":"wsxcme","sourceId":"_d2S2SVcKfnmX5kKsnHw40XQTg_pcXBnd83k6rgA","sourceTagId":47002761,"sourceTagName":"圣罗兰/女包","rawTitle":"细节po"},"price":null,"currency":"CNY","moq":1,"category":"ysl-women-bags","status":"active","alibaba_url":null,"images":["https://xcimg.szwego.com/imgHD/f8c0bdc9/20250328/cmp_i1743146672079_1391_0_0.jpg","https://xcimg.szwego.com/imgHD/f8c0bdc9/20250328/cmp_i1743146672020_7549_0_1.jpg","https://xcimg.szwego.com/imgHD/f8c0bdc9/20250328/cmp_i1743146675666_6512_0_2.jpg","https://xcimg.szwego.com/imgHD/f8c0bdc9/20250328/cmp_i1743146672848_6631_0_3.jpg","https://xcimg.szwego.com/imgHD/f8c0bdc9/20250328/cmp_i1743146675589_3018_0_4.jpg","https://xcimg.szwego.com/imgHD/f8c0bdc9/20250328/cmp_i1743146672342_2763_0_5.jpg","https://xcimg.szwego.com/imgHD/f8c0bdc9/20250328/cmp_i1743146672056_9269_0_6.jpg","https://xcimg.szwego.com/imgHD/f8c0bdc9/20250328/cmp_i1743146675720_6493_0_7.jpg"],"created_at":"2026-06-29T10:48:59.249Z"},{"id":"item-b3725660ea16","sku":"_dwFwFk5AsbXCxz9ZnS21wkrjx1j9G06yaNN8o6Q","name_en":"细节po","name_cn":"细节po","specs":{"source":"wsxcme","sourceId":"_dwFwFk5AsbXCxz9ZnS21wkrjx1j9G06yaNN8o6Q","sourceTagId":47002761,"sourceTagName":"圣罗兰/女包","rawTitle":"细节po"},"price":null,"currency":"CNY","moq":1,"category":"ysl-women-bags","status":"active","alibaba_url":null,"images":["https://xcimg.szwego.com/imgHD/f8c0bdc9/20260622/cmp_i1782118406970_3461_0_0.jpg","https://xcimg.szwego.com/imgHD/f8c0bdc9/20260622/cmp_i1782118408236_4308_0_1.jpg","https://xcimg.szwego.com/imgHD/f8c0bdc9/20260622/cmp_i1782118408207_7238_0_2.jpg","https://xcimg.szwego.com/imgHD/f8c0bdc9/20260622/cmp_i1782118404497_528_0_8.jpg","https://xcimg.szwego.com/imgHD/f8c0bdc9/20260622/cmp_i1782118408303_5761_0_3.jpg","https://xcimg.szwego.com/imgHD/f8c0bdc9/20260622/cmp_i1782118402778_2425_0_4.jpg","https://xcimg.szwego.com/imgHD/f8c0bdc9/20260622/cmp_i1782118404312_7892_0_5.jpg","https://xcimg.szwego.com/imgHD/f8c0bdc9/20260622/cmp_i1782118404436_7797_0_6.jpg","https://xcimg.szwego.com/imgHD/f8c0bdc9/20260622/cmp_i1782118404292_6189_0_7.jpg"],"created_at":"2026-06-29T10:48:59.359Z"},{"id":"item-b292cf8befe9","sku":"_dIjIjf4Fq7qw5QbU2kMFqquJjkCllBqdLEaKDYw","name_en":"细节po","name_cn":"细节po","specs":{"source":"wsxcme","sourceId":"_dIjIjf4Fq7qw5QbU2kMFqquJjkCllBqdLEaKDYw","sourceTagId":47002761,"sourceTagName":"圣罗兰/女包","rawTitle":"细节po"},"price":null,"currency":"CNY","moq":1,"category":"ysl-women-bags","status":"active","alibaba_url":null,"images":["https://xcimg.szwego.com/img/f8c0bdc9/20240811/i1723372955_6153_0.jpg","https://xcimg.szwego.com/img/f8c0bdc9/20240811/i1723372955_3662_3.jpg","https://xcimg.szwego.com/img/f8c0bdc9/20240811/i1723372955_8380_2.jpg","https://xcimg.szwego.com/img/f8c0bdc9/20240811/i1723372955_537_4.jpg","https://xcimg.szwego.com/img/f8c0bdc9/20240811/i1723372955_6342_5.jpg","https://xcimg.szwego.com/img/f8c0bdc9/20240811/i1723372955_310_1.jpg"],"created_at":"2026-05-20T04:01:39.233Z"},{"id":"item-abf8e124f459","sku":"_dXUXUEg3SOWixYmacdESCE031ebEZZWZZcTCpeA","name_en":"细节po","name_cn":"细节po","specs":{"source":"wsxcme","sourceId":"_dXUXUEg3SOWixYmacdESCE031ebEZZWZZcTCpeA","sourceTagId":47002761,"sourceTagName":"圣罗兰/女包","rawTitle":"细节po"},"price":null,"currency":"CNY","moq":1,"category":"ysl-women-bags","status":"active","alibaba_url":null,"images":["https://xcimg.szwego.com/imgHD/f8c0bdc9/20260622/cmp_i1782122775831_9241_0_0.jpg","https://xcimg.szwego.com/imgHD/f8c0bdc9/20260622/cmp_i1782122778431_2910_0_1.jpg","https://xcimg.szwego.com/imgHD/f8c0bdc9/20260622/cmp_i1782122777062_6509_0_2.jpg","https://xcimg.szwego.com/imgHD/f8c0bdc9/20260622/cmp_i1782122775831_8745_0_3.jpg","https://xcimg.szwego.com/imgHD/f8c0bdc9/20260622/cmp_i1782122778324_1366_0_4.jpg","https://xcimg.szwego.com/imgHD/f8c0bdc9/20260622/cmp_i1782122775831_3007_0_5.jpg","https://xcimg.szwego.com/imgHD/f8c0bdc9/20260622/cmp_i1782122779438_5044_0_6.jpg","https://xcimg.szwego.com/imgHD/f8c0bdc9/20260622/cmp_i1782122776557_2193_0_7.jpg"],"created_at":"2026-06-29T10:48:59.489Z"},{"id":"item-9c276c2e94fc","sku":"_dfTfT4ONUeIU40oI4YMRoyffFCv0NbhA6XU3VJg","name_en":"细节po","name_cn":"细节po","specs":{"source":"wsxcme","sourceId":"_dfTfT4ONUeIU40oI4YMRoyffFCv0NbhA6XU3VJg","sourceTagId":47002761,"sourceTagName":"圣罗兰/女包","rawTitle":"细节po"},"price":null,"currency":"CNY","moq":1,"category":"ysl-women-bags","status":"active","alibaba_url":null,"images":["https://xcimg.szwego.com/imgHD/f8c0bdc9/20260129/cmp_i1769673351925_259_0_0.jpg","https://xcimg.szwego.com/imgHD/f8c0bdc9/20260129/cmp_i1769673362059_578_0_1.jpg","https://xcimg.szwego.com/imgHD/f8c0bdc9/20260129/cmp_i1769673362309_3183_0_2.jpg","https://xcimg.szwego.com/imgHD/f8c0bdc9/20260129/cmp_i1769673362111_8870_0_3.jpg","https://xcimg.szwego.com/imgHD/f8c0bdc9/20260129/cmp_i1769673362191_6853_0_4.jpg","https://xcimg.szwego.com/imgHD/f8c0bdc9/20260129/cmp_i1769673353941_1883_0_5.jpg","https://xcimg.szwego.com/imgHD/f8c0bdc9/20260129/cmp_i1769673354123_447_0_6.jpg","https://xcimg.szwego.com/imgHD/f8c0bdc9/20260129/cmp_i1769673354073_2998_0_7.jpg","https://xcimg.szwego.com/imgHD/f8c0bdc9/20260129/cmp_i1769673351966_2336_0_8.jpg"],"created_at":"2026-06-29T10:48:58.709Z"},{"id":"item-998d2a50738f","sku":"_dMEMEGeln1N3ueoAdk5--M_xfeo350aIxBwdnnw","name_en":"细节po","name_cn":"细节po","specs":{"source":"wsxcme","sourceId":"_dMEMEGeln1N3ueoAdk5--M_xfeo350aIxBwdnnw","sourceTagId":47002761,"sourceTagName":"圣罗兰/女包","rawTitle":"细节po"},"price":null,"currency":"CNY","moq":1,"category":"ysl-women-bags","status":"active","alibaba_url":null,"images":["https://xcimg.szwego.com/imgHD/f8c0bdc9/20260622/cmp_i1782119392389_3872_0_0.jpg","https://xcimg.szwego.com/imgHD/f8c0bdc9/20260622/cmp_i1782119395073_7185_0_1.jpg","https://xcimg.szwego.com/imgHD/f8c0bdc9/20260622/cmp_i1782119393629_2705_0_8.jpg","https://xcimg.szwego.com/imgHD/f8c0bdc9/20260622/cmp_i1782119396215_184_0_2.jpg","https://xcimg.szwego.com/imgHD/f8c0bdc9/20260622/cmp_i1782119392428_3455_0_3.jpg","https://xcimg.szwego.com/imgHD/f8c0bdc9/20260622/cmp_i1782119395000_1198_0_4.jpg","https://xcimg.szwego.com/imgHD/f8c0bdc9/20260622/cmp_i1782119391771_5905_0_5.jpg","https://xcimg.szwego.com/imgHD/f8c0bdc9/20260622/cmp_i1782119391745_2935_0_6.jpg","https://xcimg.szwego.com/imgHD/f8c0bdc9/20260622/cmp_i1782119396032_243_0_7.jpg"],"created_at":"2026-06-29T10:48:59.409Z"},{"id":"item-90ca91096193","sku":"_dHVHVAVMn1pNW0qwF-S9xwQnlwC3EwPc96HE4dA","name_en":"细节po","name_cn":"细节po","specs":{"source":"wsxcme","sourceId":"_dHVHVAVMn1pNW0qwF-S9xwQnlwC3EwPc96HE4dA","sourceTagId":47002761,"sourceTagName":"圣罗兰/女包","rawTitle":"细节po"},"price":null,"currency":"CNY","moq":1,"category":"ysl-women-bags","status":"active","alibaba_url":null,"images":["https://xcimg.szwego.com/img/f8c0bdc9/20240401/i1711964890_6001_4.jpg","https://xcimg.szwego.com/img/f8c0bdc9/20240401/i1711964890_5483_3.jpg","https://xcimg.szwego.com/img/f8c0bdc9/20240401/i1711964890_8159_2.jpg","https://xcimg.szwego.com/img/f8c0bdc9/20240401/i1711964889_6310_0.jpg","https://xcimg.szwego.com/img/f8c0bdc9/20240401/i1711964890_2643_1.jpg"],"created_at":"2026-05-20T04:01:39.123Z"},{"id":"item-87bab5ecea1b","sku":"_dgwgwATsrTK3xDWbIMIf-gwOO5Se2SPjOn4swZA","name_en":"细节po","name_cn":"细节po","specs":{"source":"wsxcme","sourceId":"_dgwgwATsrTK3xDWbIMIf-gwOO5Se2SPjOn4swZA","sourceTagId":47002761,"sourceTagName":"圣罗兰/女包","rawTitle":"细节po"},"price":null,"currency":"CNY","moq":1,"category":"ysl-women-bags","status":"active","alibaba_url":null,"images":["https://xcimg.szwego.com/imgHD/f8c0bdc9/20251229/cmp_i1766998203047_8018_0_0.jpg","https://xcimg.szwego.com/imgHD/f8c0bdc9/20251229/cmp_i1766998199385_824_0_1.jpg","https://xcimg.szwego.com/imgHD/f8c0bdc9/20251229/cmp_i1766998199559_7240_0_2.jpg","https://xcimg.szwego.com/imgHD/f8c0bdc9/20251229/cmp_i1766998203281_8816_0_3.jpg","https://xcimg.szwego.com/imgHD/f8c0bdc9/20251229/cmp_i1766998202949_2691_0_4.jpg","https://xcimg.szwego.com/imgHD/f8c0bdc9/20251229/cmp_i1766998200784_1528_0_5.jpg","https://xcimg.szwego.com/imgHD/f8c0bdc9/20251229/cmp_i1766998199341_677_0_6.jpg","https://xcimg.szwego.com/imgHD/f8c0bdc9/20251229/cmp_i1766998200625_4354_0_7.jpg"],"created_at":"2026-06-29T10:54:45.416Z"},{"id":"item-831763344b81","sku":"_dDMDMYFUOkWg0UNH8BnUVm_haNmLuOhnS95cJZg","name_en":"细节po","name_cn":"细节po","specs":{"source":"wsxcme","sourceId":"_dDMDMYFUOkWg0UNH8BnUVm_haNmLuOhnS95cJZg","sourceTagId":47002756,"sourceTagName":"宝格丽/女包","rawTitle":"细节po"},"price":null,"currency":"CNY","moq":1,"category":"bvlgari-women-bags","status":"active","alibaba_url":null,"images":["https://xcimg.szwego.com/20230219/i1676789509_7262_0.jpg","https://xcimg.szwego.com/20230219/i1676789509_6640_1.jpg","https://xcimg.szwego.com/20230219/i1676789509_370_2.jpg","https://xcimg.szwego.com/20230219/i1676789509_4201_3.jpg","https://xcimg.szwego.com/20230219/i1676789509_9460_4.jpg"],"created_at":"2024-10-07T10:58:53.572Z"},{"id":"item-82e9cbfefea2","sku":"_djrjrlKaHNd8we42NkBhuaOfyFk0oJbSS6nnh7g","name_en":"细节po","name_cn":"细节po","specs":{"source":"wsxcme","sourceId":"_djrjrlKaHNd8we42NkBhuaOfyFk0oJbSS6nnh7g","sourceTagId":47002761,"sourceTagName":"圣罗兰/女包","rawTitle":"细节po"},"price":null,"currency":"CNY","moq":1,"category":"ysl-women-bags","status":"active","alibaba_url":null,"images":["https://xcimg.szwego.com/imgHD/f8c0bdc9/20251229/cmp_i1766999922658_8517_0_0.jpg","https://xcimg.szwego.com/imgHD/f8c0bdc9/20251229/cmp_i1766999922709_4811_0_1.jpg","https://xcimg.szwego.com/imgHD/f8c0bdc9/20251229/cmp_i1766999924229_4009_0_2.jpg","https://xcimg.szwego.com/imgHD/f8c0bdc9/20251229/cmp_i1766999924068_3709_0_3.jpg","https://xcimg.szwego.com/imgHD/f8c0bdc9/20251229/cmp_i1766999924315_3848_0_4.jpg"],"created_at":"2026-06-29T10:54:45.466Z"},{"id":"item-820105dec0e9","sku":"_daRaRxkvCc0fnqmNCrTOHL1yOLgCs7Ys1udSwCw","name_en":"细节po","name_cn":"细节po","specs":{"source":"wsxcme","sourceId":"_daRaRxkvCc0fnqmNCrTOHL1yOLgCs7Ys1udSwCw","sourceTagId":47002761,"sourceTagName":"圣罗兰/女包","rawTitle":"细节po"},"price":null,"currency":"CNY","moq":1,"category":"ysl-women-bags","status":"active","alibaba_url":null,"images":["https://xcimg.szwego.com/img/f8c0bdc9/20250107/i1736242268005_6281_0_0.jpg","https://xcimg.szwego.com/img/f8c0bdc9/20250107/i1736242267852_9386_0_1.jpg","https://xcimg.szwego.com/img/f8c0bdc9/20250107/i1736242268139_8367_0_2.jpg","https://xcimg.szwego.com/img/f8c0bdc9/20250107/i1736242268069_9316_0_3.jpg","https://xcimg.szwego.com/img/f8c0bdc9/20250107/i1736242267928_4183_0_4.jpg"],"created_at":"2026-06-29T10:48:59.119Z"},{"id":"item-7982cc835af3","sku":"_dtdtdh2jm5BTBVVB8gdZn5YDoru0OuMHekQIYNA","name_en":"细节po","name_cn":"细节po","specs":{"source":"wsxcme","sourceId":"_dtdtdh2jm5BTBVVB8gdZn5YDoru0OuMHekQIYNA","sourceTagId":47002761,"sourceTagName":"圣罗兰/女包","rawTitle":"细节po"},"price":null,"currency":"CNY","moq":1,"category":"ysl-women-bags","status":"active","alibaba_url":null,"images":["https://xcimg.szwego.com/img/f8c0bdc9/20231225/i1703504866_1687_0.jpg","https://xcimg.szwego.com/img/f8c0bdc9/20231225/i1703504866_1096_1.jpg","https://xcimg.szwego.com/img/f8c0bdc9/20231225/i1703504866_9253_2.jpg","https://xcimg.szwego.com/img/f8c0bdc9/20231225/i1703504866_2613_3.jpg","https://xcimg.szwego.com/img/f8c0bdc9/20231225/i1703504866_4846_4.jpg","https://xcimg.szwego.com/img/f8c0bdc9/20231225/i1703504866_4819_5.jpg","https://xcimg.szwego.com/img/f8c0bdc9/20231225/i1703504866_2767_6.jpg","https://xcimg.szwego.com/img/f8c0bdc9/20231225/i1703504866_3253_7.jpg"],"created_at":"2026-05-20T04:01:38.953Z"},{"id":"item-73fad88a00bb","sku":"_d4k4kL2yuiYGlxJo1Lk_zvO0xnLcApKOF56Cacw","name_en":"细节po","name_cn":"细节po","specs":{"source":"wsxcme","sourceId":"_d4k4kL2yuiYGlxJo1Lk_zvO0xnLcApKOF56Cacw","sourceTagId":47002761,"sourceTagName":"圣罗兰/女包","rawTitle":"细节po"},"price":null,"currency":"CNY","moq":1,"category":"ysl-women-bags","status":"active","alibaba_url":null,"images":["https://xcimg.szwego.com/img/f8c0bdc9/20250107/i1736242421256_8814_0_0.jpg","https://xcimg.szwego.com/img/f8c0bdc9/20250107/i1736242421323_213_0_1.jpg","https://xcimg.szwego.com/img/f8c0bdc9/20250107/i1736242421190_6473_0_2.jpg","https://xcimg.szwego.com/img/f8c0bdc9/20250107/i1736242421123_7535_0_3.jpg","https://xcimg.szwego.com/img/f8c0bdc9/20250107/i1736242421060_1049_0_4.jpg","https://xcimg.szwego.com/img/f8c0bdc9/20250107/i1736242420994_9910_0_5.jpg","https://xcimg.szwego.com/img/f8c0bdc9/20250107/i1736242421460_6326_0_6.jpg","https://xcimg.szwego.com/img/f8c0bdc9/20250107/i1736242421388_14_0_7.jpg"],"created_at":"2026-06-29T10:48:59.219Z"},{"id":"item-72f4e7b3f598","sku":"_drsrsLrP_haRm9LItykdkBhkS6K2mpqHsztO8aw","name_en":"细节po","name_cn":"细节po","specs":{"source":"wsxcme","sourceId":"_drsrsLrP_haRm9LItykdkBhkS6K2mpqHsztO8aw","sourceTagId":47002761,"sourceTagName":"圣罗兰/女包","rawTitle":"细节po"},"price":null,"currency":"CNY","moq":1,"category":"ysl-women-bags","status":"active","alibaba_url":null,"images":["https://xcimg.szwego.com/imgHD/f8c0bdc9/20260420/cmp_i1776669992467_3361_0_0.jpg","https://xcimg.szwego.com/imgHD/f8c0bdc9/20260420/cmp_i1776669995361_8959_0_1.jpg","https://xcimg.szwego.com/imgHD/f8c0bdc9/20260420/cmp_i1776669996322_5611_0_2.jpg","https://xcimg.szwego.com/imgHD/f8c0bdc9/20260420/cmp_i1776669993738_2595_0_3.jpg","https://xcimg.szwego.com/imgHD/f8c0bdc9/20260420/cmp_i1776669994022_4601_0_4.jpg","https://xcimg.szwego.com/imgHD/f8c0bdc9/20260420/cmp_i1776669993841_5351_0_5.jpg","https://xcimg.szwego.com/imgHD/f8c0bdc9/20260420/cmp_i1776669998486_2159_0_6.jpg","https://xcimg.szwego.com/imgHD/f8c0bdc9/20260420/cmp_i1776669996177_2999_0_7.jpg","https://xcimg.szwego.com/imgHD/f8c0bdc9/20260420/cmp_i1776669992135_5904_0_8.jpg"],"created_at":"2026-06-29T10:48:58.949Z"},{"id":"item-708f392939d7","sku":"_djbjbIkZl60IuP5KsRCsNVQv-oWjR7nJJtIUZ2g","name_en":"细节po","name_cn":"细节po","specs":{"source":"wsxcme","sourceId":"_djbjbIkZl60IuP5KsRCsNVQv-oWjR7nJJtIUZ2g","sourceTagId":47002761,"sourceTagName":"圣罗兰/女包","rawTitle":"细节po"},"price":null,"currency":"CNY","moq":1,"category":"ysl-women-bags","status":"active","alibaba_url":null,"images":["https://xcimg.szwego.com/imgHD/f8c0bdc9/20251104/cmp_i1762245638302_6576_0_0.jpg","https://xcimg.szwego.com/imgHD/f8c0bdc9/20251104/cmp_i1762245636547_3126_0_1.jpg","https://xcimg.szwego.com/imgHD/f8c0bdc9/20251104/cmp_i1762245636404_2644_0_2.jpg","https://xcimg.szwego.com/imgHD/f8c0bdc9/20251104/cmp_i1762245636526_154_0_3.jpg","https://xcimg.szwego.com/imgHD/f8c0bdc9/20251104/cmp_i1762245636535_7706_0_4.jpg","https://xcimg.szwego.com/imgHD/f8c0bdc9/20251104/cmp_i1762245636415_1140_0_6.jpg","https://xcimg.szwego.com/imgHD/f8c0bdc9/20251104/cmp_i1762245638287_6109_0_5.jpg","https://xcimg.szwego.com/imgHD/f8c0bdc9/20251104/cmp_i1762245638304_7414_0_7.jpg"],"created_at":"2026-06-29T10:48:59.049Z"}],"page":182,"pageSize":24,"total":10075,"totalPages":420}
