{"items":[{"id":"item-b7af64cb5862","sku":"_dxrxrqyr1yznEjUts-R1RL3C_W39jXCcrSiL6wg","name_en":"Women Wallets","name_cn":"升级版 罗意威 对折长款钱包\n清晰可见大logo ,内里两个隔层\n带拉链的硬币隔层\n牛皮 平纹\n尺寸:19*10cm\n款号:L1134","specs":{"source":"wsxcme","sourceId":"_dxrxrqyr1yznEjUts-R1RL3C_W39jXCcrSiL6wg","sourceTagId":47002663,"sourceTagName":"长短款钱包","modelNumber":"L1134","rawTitle":"升级版 罗意威 对折长款钱包\n清晰可见大logo ,内里两个隔层\n带拉链的硬币隔层\n牛皮 平纹\n尺寸:19*10cm\n款号:L1134"},"price":null,"currency":"CNY","moq":1,"category":"women-wallets","status":"active","alibaba_url":null,"images":["https://xcimg.szwego.com/imgHD/80e46a01/20251228/cmp_i1766897368984_1197_0_0.jpg","https://xcimg.szwego.com/imgHD/80e46a01/20251228/cmp_i1766897364703_7416_0_1.jpg","https://xcimg.szwego.com/imgHD/80e46a01/20251228/cmp_i1766897364712_6060_0_2.jpg","https://xcimg.szwego.com/imgHD/80e46a01/20251228/cmp_i1766897369008_5471_0_3.jpg","https://xcimg.szwego.com/imgHD/80e46a01/20251228/cmp_i1766897364721_3639_0_4.jpg","https://xcimg.szwego.com/imgHD/80e46a01/20251228/cmp_i1766897368985_4828_0_5.jpg","https://xcimg.szwego.com/imgHD/80e46a01/20251228/cmp_i1766897364716_9944_0_6.jpg","https://xcimg.szwego.com/imgHD/80e46a01/20251228/cmp_i1766897369008_1236_0_7.jpg","https://xcimg.szwego.com/imgHD/80e46a01/20251228/cmp_i1766897364714_7761_0_8.jpg"],"created_at":"2026-05-20T08:55:16.134Z"},{"id":"item-afb7bf61a31a","sku":"_doDoDBJ-a1OAeHtw2Prj43QccFwd6Id0I7e30Ag","name_en":"Women Wallets","name_cn":"升级版 罗意威 短款对折款小钱包\n牛皮制作,拼色设计\n六个卡位\n一个大口袋\n带拉链的硬币隔层\n尺寸:9*12*3cm\n款号:L1143","specs":{"source":"wsxcme","sourceId":"_doDoDBJ-a1OAeHtw2Prj43QccFwd6Id0I7e30Ag","sourceTagId":47002663,"sourceTagName":"长短款钱包","modelNumber":"L1143","dimensions":{"lengthCm":9,"heightCm":12,"widthCm":3},"rawTitle":"升级版 罗意威 短款对折款小钱包\n牛皮制作,拼色设计\n六个卡位\n一个大口袋\n带拉链的硬币隔层\n尺寸:9*12*3cm\n款号:L1143"},"price":null,"currency":"CNY","moq":1,"category":"women-wallets","status":"active","alibaba_url":null,"images":["https://xcimg.szwego.com/imgHD/80e46a01/20260106/cmp_i1767700692149_8716_0_0.jpg","https://xcimg.szwego.com/imgHD/80e46a01/20260106/cmp_i1767700704227_5149_0_1.jpg","https://xcimg.szwego.com/imgHD/80e46a01/20260106/cmp_i1767700704790_309_0_2.jpg","https://xcimg.szwego.com/imgHD/80e46a01/20260106/cmp_i1767700704777_1849_0_3.jpg","https://xcimg.szwego.com/imgHD/80e46a01/20260106/cmp_i1767700699037_4633_0_4.jpg","https://xcimg.szwego.com/imgHD/80e46a01/20260106/cmp_i1767700697293_4436_0_5.jpg","https://xcimg.szwego.com/imgHD/80e46a01/20260106/cmp_i1767700692174_1417_0_6.jpg","https://xcimg.szwego.com/imgHD/80e46a01/20260106/cmp_i1767700695331_6968_0_7.jpg","https://xcimg.szwego.com/imgHD/80e46a01/20260106/cmp_i1767700695914_607_0_8.jpg"],"created_at":"2026-05-20T08:55:15.654Z"},{"id":"item-ad4e89d26b99","sku":"_dioio6uXbkQP2eySSITN1QlEJuiHH5fiDTuex9A","name_en":"Women Wallets","name_cn":"升级版 罗意威 短款对折款小钱包\n荔枝纹牛皮制作\n对比色钱包采用搭扣和按扣固定。\n六个卡位\n两个小口袋和一个大口袋\n带拉链的硬币隔层\n牛皮革衬里\nAnagram 压纹\n尺寸:9*12*3cm\n款号:L1125","specs":{"source":"wsxcme","sourceId":"_dioio6uXbkQP2eySSITN1QlEJuiHH5fiDTuex9A","sourceTagId":47002663,"sourceTagName":"长短款钱包","modelNumber":"L1125","dimensions":{"lengthCm":9,"heightCm":12,"widthCm":3},"rawTitle":"升级版 罗意威 短款对折款小钱包\n荔枝纹牛皮制作\n对比色钱包采用搭扣和按扣固定。\n六个卡位\n两个小口袋和一个大口袋\n带拉链的硬币隔层\n牛皮革衬里\nAnagram 压纹\n尺寸:9*12*3cm\n款号:L1125"},"price":null,"currency":"CNY","moq":1,"category":"women-wallets","status":"active","alibaba_url":null,"images":["https://xcimg.szwego.com/imgHD/80e46a01/20260106/cmp_i1767700050196_5242_0_0.jpg","https://xcimg.szwego.com/imgHD/80e46a01/20260106/cmp_i1767700051424_3989_0_1.jpg","https://xcimg.szwego.com/imgHD/80e46a01/20260106/cmp_i1767700050169_1530_0_2.jpg","https://xcimg.szwego.com/imgHD/80e46a01/20260106/cmp_i1767700051414_7503_0_3.jpg","https://xcimg.szwego.com/imgHD/80e46a01/20260106/cmp_i1767700050222_2408_0_4.jpg","https://xcimg.szwego.com/imgHD/80e46a01/20260106/cmp_i1767700051465_8126_0_5.jpg","https://xcimg.szwego.com/imgHD/80e46a01/20260106/cmp_i1767700051449_6128_0_6.jpg","https://xcimg.szwego.com/imgHD/80e46a01/20260106/cmp_i1767700050218_5676_0_7.jpg","https://xcimg.szwego.com/imgHD/80e46a01/20260106/cmp_i1767700050180_6613_0_8.jpg"],"created_at":"2026-05-20T08:55:15.704Z"},{"id":"item-a09aee621ea6","sku":"_dZVZV_mMu5Z9eKMBEi8J3yAzfCDhRAqAlOm8h6g","name_en":"Women Wallets","name_cn":"小香进口意大利颗粒小牛皮\n货号:A3396\n尺寸:w19×h10.5×3cm\n颜色:黑色细球纹皮镶钻五金","specs":{"source":"wsxcme","sourceId":"_dZVZV_mMu5Z9eKMBEi8J3yAzfCDhRAqAlOm8h6g","sourceTagId":47002663,"sourceTagName":"长短款钱包","modelNumber":"A3396","rawTitle":"小香进口意大利颗粒小牛皮\n货号:A3396\n尺寸:w19×h10.5×3cm\n颜色:黑色细球纹皮镶钻五金"},"price":null,"currency":"CNY","moq":1,"category":"women-wallets","status":"active","alibaba_url":null,"images":["https://xcimg.szwego.com/20230807/i1691392950_6013_0.jpg","https://xcimg.szwego.com/20230807/i1691392950_9866_1.jpg","https://xcimg.szwego.com/20230807/i1691392950_4525_2.jpg","https://xcimg.szwego.com/20230807/i1691392950_3134_3.jpg","https://xcimg.szwego.com/20230807/i1691392950_3877_4.jpg","https://xcimg.szwego.com/20230807/i1691392950_2005_5.jpg","https://xcimg.szwego.com/20230807/i1691392950_8041_6.jpg","https://xcimg.szwego.com/20230807/i1691392950_4834_7.jpg","https://xcimg.szwego.com/20230807/i1691392950_9728_8.jpg"],"created_at":"2025-01-20T12:58:24.683Z"},{"id":"item-93a92745f797","sku":"_duzuzkT_5jb48btnIOtISYPsHkxyu4v-mzONyiA","name_en":"Women Wallets","name_cn":"原厂皮\n【特级纯钢五金原厂皮】\nTRIOMPHE亮泽皮皮革短款钱包/2024小赛\n4个卡糟\n2个贴袋\n1个现金隔层\n1个可拆卸拉链卡包,配按扣\n编号:10l653DS3.04LU652\n653冰川蓝全皮\n尺寸:w9.5×h7.5×3cm","specs":{"source":"wsxcme","sourceId":"_duzuzkT_5jb48btnIOtISYPsHkxyu4v-mzONyiA","sourceTagId":47002663,"sourceTagName":"长短款钱包","rawTitle":"原厂皮\n【特级纯钢五金原厂皮】\nTRIOMPHE亮泽皮皮革短款钱包/2024小赛\n4个卡糟\n2个贴袋\n1个现金隔层\n1个可拆卸拉链卡包,配按扣\n编号:10l653DS3.04LU652\n653冰川蓝全皮\n尺寸:w9.5×h7.5×3cm"},"price":null,"currency":"CNY","moq":1,"category":"women-wallets","status":"active","alibaba_url":null,"images":["https://xcimg.szwego.com/img/c4e87dad/20240418/i1713436059_933_1.jpg","https://xcimg.szwego.com/img/c4e87dad/20240418/i1713436059_6491_0.jpg","https://xcimg.szwego.com/img/c4e87dad/20240418/i1713436059_2919_5.jpg","https://xcimg.szwego.com/img/c4e87dad/20240418/i1713436059_8754_6.jpg","https://xcimg.szwego.com/img/c4e87dad/20240418/i1713436059_413_7.jpg","https://xcimg.szwego.com/img/c4e87dad/20240418/i1713436059_5285_4.jpg","https://xcimg.szwego.com/img/c4e87dad/20240418/i1713436059_7099_8.jpg","https://xcimg.szwego.com/img/c4e87dad/20240418/i1713436059_9189_2.jpg","https://xcimg.szwego.com/img/c4e87dad/20240418/i1713436059_130_3.jpg"],"created_at":"2024-10-17T06:39:47.593Z"},{"id":"item-91943762c5ba","sku":"_d9j9jvYnijXB0iwIzq6o0pQL70mmGAqovJ4swAQ","name_en":"Women Wallets","name_cn":"原厂皮\n【特级纯钢五金原厂皮】\n  TRIOMPHE标志印花短款钱包/2024小赛\n4个卡糟\n2个贴袋\n1个现金隔层\n1个可拆卸拉链卡包,配按扣\n编号:10l652DS3.04LU653\n652黑白/老花\n尺寸:w9.5×h7.5×3cm","specs":{"source":"wsxcme","sourceId":"_d9j9jvYnijXB0iwIzq6o0pQL70mmGAqovJ4swAQ","sourceTagId":47002663,"sourceTagName":"长短款钱包","rawTitle":"原厂皮\n【特级纯钢五金原厂皮】\n  TRIOMPHE标志印花短款钱包/2024小赛\n4个卡糟\n2个贴袋\n1个现金隔层\n1个可拆卸拉链卡包,配按扣\n编号:10l652DS3.04LU653\n652黑白/老花\n尺寸:w9.5×h7.5×3cm"},"price":null,"currency":"CNY","moq":1,"category":"women-wallets","status":"active","alibaba_url":null,"images":["https://xcimg.szwego.com/img/c4e87dad/20240509/i1715235164_467_0.jpg","https://xcimg.szwego.com/img/c4e87dad/20240509/i1715235164_6275_3.jpg","https://xcimg.szwego.com/img/c4e87dad/20240509/i1715235164_6643_1.jpg","https://xcimg.szwego.com/img/c4e87dad/20240509/i1715235164_6150_6.jpg","https://xcimg.szwego.com/img/c4e87dad/20240509/i1715235164_4095_7.jpg","https://xcimg.szwego.com/img/c4e87dad/20240509/i1715235164_4927_8.jpg","https://xcimg.szwego.com/img/c4e87dad/20240509/i1715235164_9846_5.jpg","https://xcimg.szwego.com/img/c4e87dad/20240509/i1715235164_4887_2.jpg","https://xcimg.szwego.com/img/c4e87dad/20240509/i1715235164_6808_4.jpg"],"created_at":"2024-10-17T06:39:47.586Z"},{"id":"item-91883204270e","sku":"_daPaPaEJ3bOjp47lway4RlEMjf-kzQenXrNOjEQ","name_en":"Women Wallets","name_cn":"长短款钱包","specs":{"source":"wsxcme","sourceId":"_daPaPaEJ3bOjp47lway4RlEMjf-kzQenXrNOjEQ","sourceTagId":47002663,"sourceTagName":"长短款钱包","rawTitle":""},"price":null,"currency":"CNY","moq":1,"category":"women-wallets","status":"active","alibaba_url":null,"images":["https://xcimg.szwego.com/20191216/i1576461849_7073_0.jpg"],"created_at":"2025-09-19T03:25:02.964Z"},{"id":"item-8d70debe3e41","sku":"_dvGvGp9ZqQRa4LedTtZ5PKffNUYQV4eibJ1GcPQ","name_en":"Women Wallets","name_cn":"正品级\n 【顶级原单】M22399👏👏用双色完成的“波尔图·克莱尔”。以本季特有的同系颜色重新诠释的象征着庄园的单体无植入皮革设计,看起来很美。这款紧凑型配件配有金色饰品,配有多个口袋和隔间,尺寸:11 x 8.5 x 3.5厘米。🎁🎁","specs":{"source":"wsxcme","sourceId":"_dvGvGp9ZqQRa4LedTtZ5PKffNUYQV4eibJ1GcPQ","sourceTagId":47002663,"sourceTagName":"长短款钱包","dimensions":{"lengthCm":11,"heightCm":8.5,"widthCm":3.5},"rawTitle":"正品级\n 【顶级原单】M22399👏👏用双色完成的“波尔图·克莱尔”。以本季特有的同系颜色重新诠释的象征着庄园的单体无植入皮革设计,看起来很美。这款紧凑型配件配有金色饰品,配有多个口袋和隔间,尺寸:11 x 8.5 x 3.5厘米。🎁🎁"},"price":null,"currency":"CNY","moq":1,"category":"women-wallets","status":"active","alibaba_url":null,"images":["https://xcimg.szwego.com/img/89eaffab/20250714/i1752483585487_5886_0_1.jpg","https://xcimg.szwego.com/img/89eaffab/20250714/i1752483586555_183_0_2.jpg","https://xcimg.szwego.com/img/89eaffab/20250714/i1752483586456_7540_0_3.jpg","https://xcimg.szwego.com/img/89eaffab/20250714/i1752483586498_5074_0_4.jpg","https://xcimg.szwego.com/img/89eaffab/20250714/i1752483585401_3687_0_5.jpg","https://xcimg.szwego.com/img/89eaffab/20250714/i1752483586413_6434_0_7.jpg"],"created_at":"2025-07-31T08:04:28.176Z"},{"id":"item-8404525030b2","sku":"_dWpWpsPbAcuZpEinsDYqSvN12BpzbCIDIxRnEdQ","name_en":"Women Wallets","name_cn":"升级版 罗意威 短款对折款小钱包\n荔枝纹牛皮制作\n对比色钱包采用搭扣和按扣固定。\n六个卡位\n两个小口袋和一个大口袋\n带拉链的硬币隔层\n牛皮革衬里\nAnagram 压纹\n尺寸:9*12*3cm\n款号:L1125","specs":{"source":"wsxcme","sourceId":"_dWpWpsPbAcuZpEinsDYqSvN12BpzbCIDIxRnEdQ","sourceTagId":47002663,"sourceTagName":"长短款钱包","modelNumber":"L1125","dimensions":{"lengthCm":9,"heightCm":12,"widthCm":3},"rawTitle":"升级版 罗意威 短款对折款小钱包\n荔枝纹牛皮制作\n对比色钱包采用搭扣和按扣固定。\n六个卡位\n两个小口袋和一个大口袋\n带拉链的硬币隔层\n牛皮革衬里\nAnagram 压纹\n尺寸:9*12*3cm\n款号:L1125"},"price":null,"currency":"CNY","moq":1,"category":"women-wallets","status":"active","alibaba_url":null,"images":["https://xcimg.szwego.com/imgHD/80e46a01/20260106/cmp_i1767700127474_405_0_0.jpg","https://xcimg.szwego.com/imgHD/80e46a01/20260106/cmp_i1767700125026_9816_0_1.jpg","https://xcimg.szwego.com/imgHD/80e46a01/20260106/cmp_i1767700127489_5623_0_2.jpg","https://xcimg.szwego.com/imgHD/80e46a01/20260106/cmp_i1767700128812_7709_0_3.jpg","https://xcimg.szwego.com/imgHD/80e46a01/20260106/cmp_i1767700126948_8550_0_4.jpg","https://xcimg.szwego.com/imgHD/80e46a01/20260106/cmp_i1767700125204_252_0_5.jpg","https://xcimg.szwego.com/imgHD/80e46a01/20260106/cmp_i1767700125075_3700_0_6.jpg","https://xcimg.szwego.com/imgHD/80e46a01/20260106/cmp_i1767700125061_1225_0_7.jpg","https://xcimg.szwego.com/imgHD/80e46a01/20260106/cmp_i1767700127509_8529_0_8.jpg"],"created_at":"2026-05-20T08:55:15.664Z"},{"id":"item-7f274222fcc3","sku":"_dIWIWJzZ1u9tscVgE9Yt0lXXKPkLKitTS6uRJ6w","name_en":"Women Wallets","name_cn":"长短款钱包","specs":{"source":"wsxcme","sourceId":"_dIWIWJzZ1u9tscVgE9Yt0lXXKPkLKitTS6uRJ6w","sourceTagId":47002663,"sourceTagName":"长短款钱包","rawTitle":""},"price":null,"currency":"CNY","moq":1,"category":"women-wallets","status":"active","alibaba_url":null,"images":["https://xcimg.szwego.com/img/89eaffab/20250912/i1757660501705_3260_0_0.jpg"],"created_at":"2025-09-19T03:26:41.878Z"},{"id":"item-7e71852d256f","sku":"_do_o_r3esZ0hG_fCIc_ubtfjv0x8BQ1_bw0ebqw","name_en":"Women Wallets","name_cn":"正品级\n 【顶级原单】M13644👏🏻👏🏻适合路易·维顿的图标,本赛季特有的双色吸引眼球的“吉普提钱包”。在皮革上采用了用对比度的同系色表现出来的单体图案,以经典的金色装饰了精致的圆形拉链风格的开口部。尺寸:19.5 x 10.5 x 2.5厘米。🎁🎁","specs":{"source":"wsxcme","sourceId":"_do_o_r3esZ0hG_fCIc_ubtfjv0x8BQ1_bw0ebqw","sourceTagId":47002663,"sourceTagName":"长短款钱包","dimensions":{"lengthCm":19.5,"heightCm":10.5,"widthCm":2.5},"rawTitle":"正品级\n 【顶级原单】M13644👏🏻👏🏻适合路易·维顿的图标,本赛季特有的双色吸引眼球的“吉普提钱包”。在皮革上采用了用对比度的同系色表现出来的单体图案,以经典的金色装饰了精致的圆形拉链风格的开口部。尺寸:19.5 x 10.5 x 2.5厘米。🎁🎁"},"price":null,"currency":"CNY","moq":1,"category":"women-wallets","status":"active","alibaba_url":null,"images":["https://xcimg.szwego.com/img/89eaffab/20250714/i1752483491270_7235_0_2.jpg","https://xcimg.szwego.com/img/89eaffab/20250714/i1752483490293_9948_0_8.jpg","https://xcimg.szwego.com/img/89eaffab/20250714/i1752483490307_2594_0_4.jpg","https://xcimg.szwego.com/img/89eaffab/20250714/i1752483491288_3334_0_5.jpg","https://xcimg.szwego.com/img/89eaffab/20250714/i1752483490202_2591_0_6.jpg","https://xcimg.szwego.com/img/89eaffab/20250714/i1752483490360_6912_0_7.jpg"],"created_at":"2025-07-31T08:04:28.174Z"},{"id":"item-7dc5f56c8e95","sku":"_d9Q9QJFoCLQJWt_njeF2WWvc6VMNi2dxvXO7xyA","name_en":"Women Wallets","name_cn":"小香进口意大利小羊皮\n货号:A\n尺寸:w11×h7cm\n颜色:黑色羊皮","specs":{"source":"wsxcme","sourceId":"_d9Q9QJFoCLQJWt_njeF2WWvc6VMNi2dxvXO7xyA","sourceTagId":47002663,"sourceTagName":"长短款钱包","modelNumber":"A","rawTitle":"小香进口意大利小羊皮\n货号:A\n尺寸:w11×h7cm\n颜色:黑色羊皮"},"price":null,"currency":"CNY","moq":1,"category":"women-wallets","status":"active","alibaba_url":null,"images":["https://xcimg.szwego.com/img/c4e87dad/20240625/i1719300847_1038_6.jpg","https://xcimg.szwego.com/img/c4e87dad/20240625/i1719300847_8920_8.jpg","https://xcimg.szwego.com/img/c4e87dad/20240625/i1719300847_1281_3.jpg","https://xcimg.szwego.com/img/c4e87dad/20240625/i1719300847_8580_1.jpg","https://xcimg.szwego.com/img/c4e87dad/20240625/i1719300847_610_5.jpg","https://xcimg.szwego.com/img/c4e87dad/20240625/i1719300847_3716_4.jpg","https://xcimg.szwego.com/img/c4e87dad/20240625/i1719300847_6550_0.jpg","https://xcimg.szwego.com/img/c4e87dad/20240625/i1719300847_6572_2.jpg","https://xcimg.szwego.com/img/c4e87dad/20240625/i1719300847_855_7.jpg"],"created_at":"2025-01-20T12:58:24.685Z"},{"id":"item-7ad5c2636411","sku":"_du9u9vrQg-UCmHG1APlds8gjLYG6BK9WY8GohDg","name_en":"Women Wallets","name_cn":"原厂皮\n【特级纯钢五金原厂皮】TRIOMPHE亮泽皮皮革短款钱包/2024小赛\n4个卡糟\n2个贴袋\n1个现金隔层\n1个可拆卸拉链卡包,配按扣\n编号:10l653DS3.04LU652\n653 青銅全皮\n尺寸:w9.5×h7.5×3cm","specs":{"source":"wsxcme","sourceId":"_du9u9vrQg-UCmHG1APlds8gjLYG6BK9WY8GohDg","sourceTagId":47002663,"sourceTagName":"长短款钱包","rawTitle":"原厂皮\n【特级纯钢五金原厂皮】TRIOMPHE亮泽皮皮革短款钱包/2024小赛\n4个卡糟\n2个贴袋\n1个现金隔层\n1个可拆卸拉链卡包,配按扣\n编号:10l653DS3.04LU652\n653 青銅全皮\n尺寸:w9.5×h7.5×3cm"},"price":null,"currency":"CNY","moq":1,"category":"women-wallets","status":"active","alibaba_url":null,"images":["https://xcimg.szwego.com/img/c4e87dad/20240701/i1719826844_1083_6.jpg","https://xcimg.szwego.com/img/c4e87dad/20240701/i1719826844_8743_8.jpg","https://xcimg.szwego.com/img/c4e87dad/20240701/i1719826844_5961_0.jpg","https://xcimg.szwego.com/img/c4e87dad/20240701/i1719826844_4199_2.jpg","https://xcimg.szwego.com/img/c4e87dad/20240701/i1719826844_6474_3.jpg","https://xcimg.szwego.com/img/c4e87dad/20240701/i1719826844_6260_4.jpg","https://xcimg.szwego.com/img/c4e87dad/20240701/i1719826844_3206_1.jpg","https://xcimg.szwego.com/img/c4e87dad/20240701/i1719826844_1702_7.jpg","https://xcimg.szwego.com/img/c4e87dad/20240701/i1719826844_4603_5.jpg"],"created_at":"2024-10-17T06:39:47.592Z"},{"id":"item-7a55cba85405","sku":"_dgUgUOjw-SuwHucoI04dJpwT83CUARGbJqhAHpw","name_en":"Women Wallets","name_cn":"米色大老花手拿包\n编号:2esca490yxl_h27e_tu产品信息\n这款a5手拿包是一款优雅简约的配饰。采用米色和黑色超大 oblique印花面料精心制作,重新演绎品牌经典图案,正面点缀以dior标志,搭配粒面牛皮革饰边。拉链隔层设有一个手机贴袋和四个卡槽。可手拿或放入手袋中。米色和黑色超大oblique 印花面料正面饰以金属覆层黄铜dior标志内侧饰有dior压花标志金属覆层黄铜拉链内部贴袋4个卡槽\n尺码信息\n尺寸:26.5x17.5厘米(长x高)可收纳a5和美国信纸大小文件# 织物","specs":{"source":"wsxcme","sourceId":"_dgUgUOjw-SuwHucoI04dJpwT83CUARGbJqhAHpw","sourceTagId":47002663,"sourceTagName":"长短款钱包","rawTitle":"米色大老花手拿包\n编号:2esca490yxl_h27e_tu产品信息\n这款a5手拿包是一款优雅简约的配饰。采用米色和黑色超大 oblique印花面料精心制作,重新演绎品牌经典图案,正面点缀以dior标志,搭配粒面牛皮革饰边。拉链隔层设有一个手机贴袋和四个卡槽。可手拿或放入手袋中。米色和黑色超大oblique 印花面料正面饰以金属覆层黄铜dior标志内侧饰有dior压花标志金属覆层黄铜拉链内部贴袋4个卡槽\n尺码信息\n尺寸:26.5x17.5厘米(长x高)可收纳a5和美国信纸大小文件# 织物"},"price":null,"currency":"CNY","moq":1,"category":"women-wallets","status":"active","alibaba_url":null,"images":["https://xcimg.szwego.com/img/86bf3ea5/20231224/i1703348652_5433_0.jpg","https://xcimg.szwego.com/img/86bf3ea5/20231224/i1703348652_8414_1.jpg","https://xcimg.szwego.com/img/86bf3ea5/20231224/i1703348652_9590_2.jpg","https://xcimg.szwego.com/img/86bf3ea5/20231224/i1703348652_8788_3.jpg","https://xcimg.szwego.com/img/86bf3ea5/20231224/i1703348652_986_4.jpg","https://xcimg.szwego.com/img/86bf3ea5/20231224/i1703348652_8559_6.jpg","https://xcimg.szwego.com/img/86bf3ea5/20231224/i1703348652_3779_7.jpg","https://xcimg.szwego.com/img/86bf3ea5/20231224/i1703348652_9932_8.jpg","https://xcimg.szwego.com/img/86bf3ea5/20231224/i1703348742_4708_0.jpg"],"created_at":"2024-12-07T04:35:28.553Z"},{"id":"item-77e06b131c00","sku":"_dqLqLhbjLxzzjQaeTbr0L6PO9_jeCJKaokno66w","name_en":"Women Wallets","name_cn":"新版经典卡套 鱼子酱 金扣\n专柜售价3700rmb  \n✰𐄙✦零钱卡包\n\n风格一贯是香奶奶👵家的经典款\n后幅多了一个小卡槽◛\n配上标志性的双C logo~\n赚足眼球👀〰搭配任何小香的包包都是完美\n任何小香迷的粉丝都是果断拿下✓\n\n五金:全钢精雕24k金扣\n皮料:开料部zp鱼子酱牛皮\n尺寸:7.5*11.3*2.1cm\n型号:A0214","specs":{"source":"wsxcme","sourceId":"_dqLqLhbjLxzzjQaeTbr0L6PO9_jeCJKaokno66w","sourceTagId":47002663,"sourceTagName":"长短款钱包","modelNumber":"A0214","dimensions":{"lengthCm":7.5,"heightCm":11.3,"widthCm":2.1},"rawTitle":"新版经典卡套 鱼子酱 金扣\n专柜售价3700rmb  \n✰𐄙✦零钱卡包\n\n风格一贯是香奶奶👵家的经典款\n后幅多了一个小卡槽◛\n配上标志性的双C logo~\n赚足眼球👀〰搭配任何小香的包包都是完美\n任何小香迷的粉丝都是果断拿下✓\n\n五金:全钢精雕24k金扣\n皮料:开料部zp鱼子酱牛皮\n尺寸:7.5*11.3*2.1cm\n型号:A0214"},"price":null,"currency":"CNY","moq":1,"category":"women-wallets","status":"active","alibaba_url":null,"images":["https://xcimg.szwego.com/img/b885826e/20241207/i1733550086_3490_2.jpg","https://xcimg.szwego.com/img/b885826e/20241207/i1733550086_5040_6.jpg","https://xcimg.szwego.com/img/b885826e/20241207/i1733550086_4768_4.jpg","https://xcimg.szwego.com/img/b885826e/20241207/i1733550086_4461_1.jpg","https://xcimg.szwego.com/img/b885826e/20241207/i1733550086_7803_7.jpg","https://xcimg.szwego.com/img/b885826e/20241207/i1733550086_5805_0.jpg","https://xcimg.szwego.com/img/b885826e/20241207/i1733550086_6972_5.jpg","https://xcimg.szwego.com/img/b885826e/20241207/i1733550086_7254_3.jpg","https://xcimg.szwego.com/img/b885826e/20241207/i1733550103_7839_0.jpg"],"created_at":"2025-01-20T12:58:24.669Z"},{"id":"item-753fe5220ce9","sku":"_dmGmGSa17XmuwqiCG8ziTiWMO4HQvKwVpWhJ02g","name_en":"Women Wallets","name_cn":"正品级\n 【顶级原单】M14967👏👏“城市之春”系列中登场的“波特福伊·维克多莉娜”。以双色完成的经典项目,以庄园更新的单体图案着色。具有多个可收纳纸币、硬币、卡片的隔间,紧凑尺寸的时尚皮革饰品适合日常使用。金色金属配件增添了永恒的印象。尺寸:12 x 9.5 x 2.5厘米。🎁🎁","specs":{"source":"wsxcme","sourceId":"_dmGmGSa17XmuwqiCG8ziTiWMO4HQvKwVpWhJ02g","sourceTagId":47002663,"sourceTagName":"长短款钱包","dimensions":{"lengthCm":12,"heightCm":9.5,"widthCm":2.5},"rawTitle":"正品级\n 【顶级原单】M14967👏👏“城市之春”系列中登场的“波特福伊·维克多莉娜”。以双色完成的经典项目,以庄园更新的单体图案着色。具有多个可收纳纸币、硬币、卡片的隔间,紧凑尺寸的时尚皮革饰品适合日常使用。金色金属配件增添了永恒的印象。尺寸:12 x 9.5 x 2.5厘米。🎁🎁"},"price":null,"currency":"CNY","moq":1,"category":"women-wallets","status":"active","alibaba_url":null,"images":["https://xcimg.szwego.com/img/89eaffab/20250714/i1752483631421_1349_0_1.jpg","https://xcimg.szwego.com/img/89eaffab/20250714/i1752483631509_6832_0_2.jpg","https://xcimg.szwego.com/img/89eaffab/20250714/i1752483630522_6731_0_3.jpg","https://xcimg.szwego.com/img/89eaffab/20250714/i1752483630317_3312_0_4.jpg","https://xcimg.szwego.com/img/89eaffab/20250714/i1752483631456_7714_0_5.jpg","https://xcimg.szwego.com/img/89eaffab/20250714/i1752483630532_6123_0_6.jpg","https://xcimg.szwego.com/img/89eaffab/20250714/i1752483630456_8888_0_7.jpg","https://xcimg.szwego.com/img/89eaffab/20250714/i1752483630472_4326_0_8.jpg"],"created_at":"2025-07-31T08:04:28.177Z"},{"id":"item-725b721134e9","sku":"_dtGtGkjz2GDeG6JLNiGzaWe0uCjrJ9WcAn80qbg","name_en":"Women Wallets","name_cn":"升级版 罗意威 短款三折款小钱包\n清晰可见大logo \n带拉链的硬币隔层\n牛皮 平纹\n尺寸:9*12*3cm\n款号:L1133","specs":{"source":"wsxcme","sourceId":"_dtGtGkjz2GDeG6JLNiGzaWe0uCjrJ9WcAn80qbg","sourceTagId":47002663,"sourceTagName":"长短款钱包","modelNumber":"L1133","dimensions":{"lengthCm":9,"heightCm":12,"widthCm":3},"rawTitle":"升级版 罗意威 短款三折款小钱包\n清晰可见大logo \n带拉链的硬币隔层\n牛皮 平纹\n尺寸:9*12*3cm\n款号:L1133"},"price":null,"currency":"CNY","moq":1,"category":"women-wallets","status":"active","alibaba_url":null,"images":["https://xcimg.szwego.com/imgHD/80e46a01/20251228/cmp_i1766897182398_5088_0_0.jpg","https://xcimg.szwego.com/imgHD/80e46a01/20251228/cmp_i1766897177715_4411_0_1.jpg","https://xcimg.szwego.com/imgHD/80e46a01/20251228/cmp_i1766897228072_5436_0_2.jpg","https://xcimg.szwego.com/imgHD/80e46a01/20251228/cmp_i1766897173020_4736_0_3.jpg","https://xcimg.szwego.com/imgHD/80e46a01/20251228/cmp_i1766897173039_5177_0_4.jpg","https://xcimg.szwego.com/imgHD/80e46a01/20251228/cmp_i1766897173075_9368_0_5.jpg","https://xcimg.szwego.com/imgHD/80e46a01/20251228/cmp_i1766897228124_7229_0_6.jpg","https://xcimg.szwego.com/imgHD/80e46a01/20251228/cmp_i1766897173129_9203_0_7.jpg","https://xcimg.szwego.com/imgHD/80e46a01/20251228/cmp_i1766897228075_1741_0_8.jpg","https://xcimg.szwego.com/imgHD/80e46a01/20251228/cmp_i1766897228144_4223_0_9.jpg","https://xcimg.szwego.com/imgHD/80e46a01/20251228/cmp_i1766897270827_977_0_10.jpg","https://xcimg.szwego.com/imgHD/80e46a01/20251228/cmp_i1766897270824_1809_0_11.jpg"],"created_at":"2026-05-20T08:55:16.154Z"},{"id":"item-6b4f2ebd7a91","sku":"_dkVkV7aGYNB01gLxdsFqmi_AT5_5G_BUqI9eP8g","name_en":"Women Wallets","name_cn":"升级版 罗意威 短款对折款小钱包\n荔枝纹牛皮制作\n对比色钱包采用搭扣和按扣固定。\n六个卡位\n两个小口袋和一个大口袋\n带拉链的硬币隔层\n牛皮革衬里\nAnagram 压纹\n尺寸:9*12*3cm\n款号:L1125","specs":{"source":"wsxcme","sourceId":"_dkVkV7aGYNB01gLxdsFqmi_AT5_5G_BUqI9eP8g","sourceTagId":47002663,"sourceTagName":"长短款钱包","modelNumber":"L1125","dimensions":{"lengthCm":9,"heightCm":12,"widthCm":3},"rawTitle":"升级版 罗意威 短款对折款小钱包\n荔枝纹牛皮制作\n对比色钱包采用搭扣和按扣固定。\n六个卡位\n两个小口袋和一个大口袋\n带拉链的硬币隔层\n牛皮革衬里\nAnagram 压纹\n尺寸:9*12*3cm\n款号:L1125"},"price":null,"currency":"CNY","moq":1,"category":"women-wallets","status":"active","alibaba_url":null,"images":["https://xcimg.szwego.com/imgHD/80e46a01/20260106/cmp_i1767700086728_6340_0_0.jpg","https://xcimg.szwego.com/imgHD/80e46a01/20260106/cmp_i1767700086770_7227_0_1.jpg","https://xcimg.szwego.com/imgHD/80e46a01/20260106/cmp_i1767700087464_3198_0_2.jpg","https://xcimg.szwego.com/imgHD/80e46a01/20260106/cmp_i1767700086776_7391_0_3.jpg","https://xcimg.szwego.com/imgHD/80e46a01/20260106/cmp_i1767700087506_8723_0_4.jpg","https://xcimg.szwego.com/imgHD/80e46a01/20260106/cmp_i1767700086722_5434_0_5.jpg","https://xcimg.szwego.com/imgHD/80e46a01/20260106/cmp_i1767700086771_9876_0_6.jpg","https://xcimg.szwego.com/imgHD/80e46a01/20260106/cmp_i1767700087511_6975_0_7.jpg","https://xcimg.szwego.com/imgHD/80e46a01/20260106/cmp_i1767700087500_2521_0_8.jpg"],"created_at":"2026-05-20T08:55:15.684Z"},{"id":"item-6afc28f84979","sku":"_dkmkmPAxS6JQybyW8cI7NQyIyhUrmMvJeKVW3Xg","name_en":"Women Wallets","name_cn":"长短款钱包","specs":{"source":"wsxcme","sourceId":"_dkmkmPAxS6JQybyW8cI7NQyIyhUrmMvJeKVW3Xg","sourceTagId":47002663,"sourceTagName":"长短款钱包","rawTitle":""},"price":null,"currency":"CNY","moq":1,"category":"women-wallets","status":"active","alibaba_url":null,"images":["https://xcimg.szwego.com/imgHD/80e46a01/20250728/cmp_i1753677074355_3627_0_0.jpg"],"created_at":"2025-07-31T08:00:51.488Z"},{"id":"item-6948a3b26b13","sku":"_dkCkCsPpf5ZWFdj-nRq1nmWuUQq6a4k9xoomCGw","name_en":"Women Wallets","name_cn":"原厂皮\n【特级纯钢五金原厂皮】  TRIOMPHE标志性印花钱包/2024小赛\n12个卡糟\n1个拉链零钱口袋\n1个扁平口袋\n2个角撑隔层\n编号:10E312DPV.38NO 313\n312黃褐/老花\n尺寸:w19×10×3cm.","specs":{"source":"wsxcme","sourceId":"_dkCkCsPpf5ZWFdj-nRq1nmWuUQq6a4k9xoomCGw","sourceTagId":47002663,"sourceTagName":"长短款钱包","rawTitle":"原厂皮\n【特级纯钢五金原厂皮】  TRIOMPHE标志性印花钱包/2024小赛\n12个卡糟\n1个拉链零钱口袋\n1个扁平口袋\n2个角撑隔层\n编号:10E312DPV.38NO 313\n312黃褐/老花\n尺寸:w19×10×3cm."},"price":null,"currency":"CNY","moq":1,"category":"women-wallets","status":"active","alibaba_url":null,"images":["https://xcimg.szwego.com/img/c4e87dad/20240418/i1713429592_4803_2.jpg","https://xcimg.szwego.com/img/c4e87dad/20240418/i1713429592_9185_1.jpg","https://xcimg.szwego.com/img/c4e87dad/20240418/i1713429592_8601_5.jpg","https://xcimg.szwego.com/img/c4e87dad/20240418/i1713429592_4722_3.jpg","https://xcimg.szwego.com/img/c4e87dad/20240418/i1713429592_2857_0.jpg","https://xcimg.szwego.com/img/c4e87dad/20240418/i1713429592_8112_6.jpg","https://xcimg.szwego.com/img/c4e87dad/20240418/i1713429592_7651_4.jpg","https://xcimg.szwego.com/img/c4e87dad/20240418/i1713429592_4243_7.jpg","https://xcimg.szwego.com/img/c4e87dad/20240418/i1713429592_5699_8.jpg"],"created_at":"2024-10-17T06:39:47.581Z"},{"id":"item-69118d44b041","sku":"_dp8p8UiHAm2156wIa00tenP281CdccuxUUtyRhg","name_en":"Women Wallets","name_cn":"官网同款💵💵💵","specs":{"source":"wsxcme","sourceId":"_dp8p8UiHAm2156wIa00tenP281CdccuxUUtyRhg","sourceTagId":47002663,"sourceTagName":"长短款钱包","rawTitle":"官网同款💵💵💵"},"price":null,"currency":"CNY","moq":1,"category":"women-wallets","status":"active","alibaba_url":null,"images":["https://xcimg.szwego.com/img/4090ad17/20250730/i1753815411_3211_0.jpg","https://xcimg.szwego.com/img/4090ad17/20250730/i1753815411_7457_1.jpg","https://xcimg.szwego.com/img/4090ad17/20250730/i1753815411_6354_2.jpg","https://xcimg.szwego.com/img/4090ad17/20250730/i1753815411_5097_3.jpg","https://xcimg.szwego.com/img/4090ad17/20250730/i1753815411_9648_4.jpg"],"created_at":"2025-08-03T06:15:12.246Z"},{"id":"item-66dc1e860b64","sku":"_dhahafCeuBAjE8FxgZPNX4M7mAWDK-DChc2-t1Q","name_en":"Women Wallets","name_cn":"原厂皮\n【特级纯钢五金原厂皮】  TRIOMPHE亮泽皮皮革短款钱包/2024小赛\n4个卡糟\n2个贴袋\n1个现金隔层\n1个可拆卸拉链卡包,配按扣\n编号:10l652DS3.04LU653\n653阳光黄全皮\n尺寸:w9.5×h7.5×3cm","specs":{"source":"wsxcme","sourceId":"_dhahafCeuBAjE8FxgZPNX4M7mAWDK-DChc2-t1Q","sourceTagId":47002663,"sourceTagName":"长短款钱包","rawTitle":"原厂皮\n【特级纯钢五金原厂皮】  TRIOMPHE亮泽皮皮革短款钱包/2024小赛\n4个卡糟\n2个贴袋\n1个现金隔层\n1个可拆卸拉链卡包,配按扣\n编号:10l652DS3.04LU653\n653阳光黄全皮\n尺寸:w9.5×h7.5×3cm"},"price":null,"currency":"CNY","moq":1,"category":"women-wallets","status":"active","alibaba_url":null,"images":["https://xcimg.szwego.com/img/c4e87dad/20240418/i1713434290_7582_2.jpg","https://xcimg.szwego.com/img/c4e87dad/20240418/i1713434290_4914_4.jpg","https://xcimg.szwego.com/img/c4e87dad/20240418/i1713434290_4248_7.jpg","https://xcimg.szwego.com/img/c4e87dad/20240418/i1713434290_5649_3.jpg","https://xcimg.szwego.com/img/c4e87dad/20240418/i1713434290_201_8.jpg","https://xcimg.szwego.com/img/c4e87dad/20240418/i1713434290_2611_1.jpg","https://xcimg.szwego.com/img/c4e87dad/20240418/i1713434290_8311_5.jpg","https://xcimg.szwego.com/img/c4e87dad/20240418/i1713434290_7137_6.jpg","https://xcimg.szwego.com/img/c4e87dad/20240418/i1713434290_4032_0.jpg"],"created_at":"2024-10-17T06:39:47.589Z"},{"id":"item-5df0977143de","sku":"_du2u212LNm94bWRRcnTiROtQgKDTRkc2PkI2nCA","name_en":"Women Wallets","name_cn":"升级版 罗意威 短款对折款小钱包\n荔枝纹牛皮制作\n对比色钱包采用搭扣和按扣固定。\n六个卡位\n两个小口袋和一个大口袋\n带拉链的硬币隔层\n牛皮革衬里\nAnagram 压纹\n尺寸:9*12*3cm\n款号:L1125","specs":{"source":"wsxcme","sourceId":"_du2u212LNm94bWRRcnTiROtQgKDTRkc2PkI2nCA","sourceTagId":47002663,"sourceTagName":"长短款钱包","modelNumber":"L1125","dimensions":{"lengthCm":9,"heightCm":12,"widthCm":3},"rawTitle":"升级版 罗意威 短款对折款小钱包\n荔枝纹牛皮制作\n对比色钱包采用搭扣和按扣固定。\n六个卡位\n两个小口袋和一个大口袋\n带拉链的硬币隔层\n牛皮革衬里\nAnagram 压纹\n尺寸:9*12*3cm\n款号:L1125"},"price":null,"currency":"CNY","moq":1,"category":"women-wallets","status":"active","alibaba_url":null,"images":["https://xcimg.szwego.com/imgHD/80e46a01/20260106/cmp_i1767700109559_8662_0_0.jpg","https://xcimg.szwego.com/imgHD/80e46a01/20260106/cmp_i1767700105665_3880_0_1.jpg","https://xcimg.szwego.com/imgHD/80e46a01/20260106/cmp_i1767700105680_9051_0_2.jpg","https://xcimg.szwego.com/imgHD/80e46a01/20260106/cmp_i1767700113902_8656_0_3.jpg","https://xcimg.szwego.com/imgHD/80e46a01/20260106/cmp_i1767700112195_2038_0_4.jpg","https://xcimg.szwego.com/imgHD/80e46a01/20260106/cmp_i1767700110443_1680_0_5.jpg","https://xcimg.szwego.com/imgHD/80e46a01/20260106/cmp_i1767700109567_2626_0_6.jpg","https://xcimg.szwego.com/imgHD/80e46a01/20260106/cmp_i1767700105685_5494_0_7.jpg","https://xcimg.szwego.com/imgHD/80e46a01/20260106/cmp_i1767700105619_8417_0_8.jpg"],"created_at":"2026-05-20T08:55:15.674Z"},{"id":"item-5c6704decc6a","sku":"_dvvvvoP7fRTe6_Fax74EZYCQ3d4aMZfZV38R1yg","name_en":"Women Wallets","name_cn":"小香进口意大利小羊皮\n货号:A\n尺寸:w11×7.5cm\n颜色:黑色羊皮\n用途:卡包","specs":{"source":"wsxcme","sourceId":"_dvvvvoP7fRTe6_Fax74EZYCQ3d4aMZfZV38R1yg","sourceTagId":47002663,"sourceTagName":"长短款钱包","modelNumber":"A","rawTitle":"小香进口意大利小羊皮\n货号:A\n尺寸:w11×7.5cm\n颜色:黑色羊皮\n用途:卡包"},"price":null,"currency":"CNY","moq":1,"category":"women-wallets","status":"active","alibaba_url":null,"images":["https://xcimg.szwego.com/img/c4e87dad/20240625/i1719301009_9048_1.jpg","https://xcimg.szwego.com/img/c4e87dad/20240625/i1719301009_4187_3.jpg","https://xcimg.szwego.com/img/c4e87dad/20240625/i1719301009_8799_0.jpg","https://xcimg.szwego.com/img/c4e87dad/20240625/i1719301009_8300_2.jpg","https://xcimg.szwego.com/img/c4e87dad/20240625/i1719301009_2111_7.jpg","https://xcimg.szwego.com/img/c4e87dad/20240625/i1719301009_4045_4.jpg","https://xcimg.szwego.com/img/c4e87dad/20240625/i1719301009_6594_5.jpg","https://xcimg.szwego.com/img/c4e87dad/20240625/i1719301009_4056_8.jpg","https://xcimg.szwego.com/img/c4e87dad/20240625/i1719301009_4693_6.jpg"],"created_at":"2025-01-20T12:58:24.686Z"}],"page":418,"pageSize":24,"total":10075,"totalPages":420}
