{"items":[{"id":"item-f8fbaec3d782","sku":"_dqxqxp2TpqLliUZtj7302LxkXJsonQE1IT_pLyA","name_en":"BottegaVeneta葆蝶家 新出的保龄球包能装什么?新出的保龄球包你们Get了吗?超大容量~关键低调简约上身妥妥的休闲风~时髦感也丝毫不减,结合了BV经典的编织元素,电脑也可以装","name_cn":"BottegaVeneta葆蝶家 新出的保龄球包能装什么?新出的保龄球包你们Get了吗?超大容量~关键低调简约上身妥妥的休闲风~时髦感也丝毫不减,结合了BV经典的编织元素,电脑也可以装\t\n肩带长短都可以调节\n适合高个子女生背\n男生背也很阳光☀️\n款号:730327\n尺寸:28*21*16","specs":{"source":"wsxcme","sourceId":"_dqxqxp2TpqLliUZtj7302LxkXJsonQE1IT_pLyA","sourceTagId":79154589,"sourceTagName":"BV/女包","modelNumber":"730327","rawTitle":"BottegaVeneta葆蝶家 新出的保龄球包能装什么?新出的保龄球包你们Get了吗?超大容量~关键低调简约上身妥妥的休闲风~时髦感也丝毫不减,结合了BV经典的编织元素,电脑也可以装\t\n肩带长短都可以调节\n适合高个子女生背\n男生背也很阳光☀️\n款号:730327\n尺寸:28*21*16"},"price":null,"currency":"CNY","moq":1,"category":"bv-women-bags","status":"active","alibaba_url":null,"images":["https://xcimg.szwego.com/20230209/i1675882899_7642_0.jpg","https://xcimg.szwego.com/20230209/i1675882899_7321_1.jpg","https://xcimg.szwego.com/20230209/i1675882899_6339_2.jpg","https://xcimg.szwego.com/20230209/i1675882899_7554_3.jpg","https://xcimg.szwego.com/20230209/i1675882899_6458_4.jpg","https://xcimg.szwego.com/20230209/i1675882899_8203_5.jpg","https://xcimg.szwego.com/20230209/i1675882899_252_6.jpg","https://xcimg.szwego.com/20230209/i1675882899_863_7.jpg","https://xcimg.szwego.com/20230209/i1675882899_6975_8.jpg"],"created_at":"2025-01-21T02:30:45.739Z"},{"id":"item-de2186237acf","sku":"_dmVmVUoGtbBeGgOfJUS1RnanGp2dJUrDNqNqM8A","name_en":"BottegaVeneta葆蝶家 新出的保龄球包能装什么?新出的保龄球包你们Get了吗?超大容量~关键低调简约上身妥妥的休闲风~时髦感也丝毫不减,结合了BV经典的编织元素,电脑也可以装","name_cn":"BottegaVeneta葆蝶家 新出的保龄球包能装什么?新出的保龄球包你们Get了吗?超大容量~关键低调简约上身妥妥的休闲风~时髦感也丝毫不减,结合了BV经典的编织元素,电脑也可以装\t\n肩带长短都可以调节\n适合高个子女生背\n男生背也很阳光☀️\n款号:730327\n尺寸:28*21*16","specs":{"source":"wsxcme","sourceId":"_dmVmVUoGtbBeGgOfJUS1RnanGp2dJUrDNqNqM8A","sourceTagId":79154589,"sourceTagName":"BV/女包","modelNumber":"730327","rawTitle":"BottegaVeneta葆蝶家 新出的保龄球包能装什么?新出的保龄球包你们Get了吗?超大容量~关键低调简约上身妥妥的休闲风~时髦感也丝毫不减,结合了BV经典的编织元素,电脑也可以装\t\n肩带长短都可以调节\n适合高个子女生背\n男生背也很阳光☀️\n款号:730327\n尺寸:28*21*16"},"price":null,"currency":"CNY","moq":1,"category":"bv-women-bags","status":"active","alibaba_url":null,"images":["https://xcimg.szwego.com/20230406/i1680760566_748_0.jpg","https://xcimg.szwego.com/20230406/i1680760566_6858_1.jpg","https://xcimg.szwego.com/20230406/i1680760566_7440_2.jpg","https://xcimg.szwego.com/20230406/i1680760566_7139_3.jpg","https://xcimg.szwego.com/20230406/i1680760566_1912_4.jpg","https://xcimg.szwego.com/20230406/i1680760566_263_5.jpg","https://xcimg.szwego.com/20230406/i1680760566_3419_6.jpg","https://xcimg.szwego.com/20230406/i1680760566_6361_7.jpg","https://xcimg.szwego.com/20230406/i1680760566_9520_8.jpg"],"created_at":"2025-01-21T02:30:45.737Z"},{"id":"item-d9a23628c9c7","sku":"_dvtvt49jjFaI9OYwTpeHFXaJlnp6Au1_7LLuCrQ","name_en":"BottegaVeneta葆蝶家 新出的保龄球包能装什么?新出的保龄球包你们Get了吗?超大容量~关键低调简约上身妥妥的休闲风~时髦感也丝毫不减,结合了BV经典的编织元素,电脑也可以装","name_cn":"BottegaVeneta葆蝶家 新出的保龄球包能装什么?新出的保龄球包你们Get了吗?超大容量~关键低调简约上身妥妥的休闲风~时髦感也丝毫不减,结合了BV经典的编织元素,电脑也可以装\t\n肩带长短都可以调节\n适合高个子女生背\n男生背也很阳光☀️\n款号:730327\n尺寸:28*21*16","specs":{"source":"wsxcme","sourceId":"_dvtvt49jjFaI9OYwTpeHFXaJlnp6Au1_7LLuCrQ","sourceTagId":79154589,"sourceTagName":"BV/女包","modelNumber":"730327","rawTitle":"BottegaVeneta葆蝶家 新出的保龄球包能装什么?新出的保龄球包你们Get了吗?超大容量~关键低调简约上身妥妥的休闲风~时髦感也丝毫不减,结合了BV经典的编织元素,电脑也可以装\t\n肩带长短都可以调节\n适合高个子女生背\n男生背也很阳光☀️\n款号:730327\n尺寸:28*21*16"},"price":null,"currency":"CNY","moq":1,"category":"bv-women-bags","status":"active","alibaba_url":null,"images":["https://xcimg.szwego.com/20230406/i1680760533_1970_0.jpg","https://xcimg.szwego.com/20230406/i1680760533_2634_1.jpg","https://xcimg.szwego.com/20230406/i1680760533_8114_2.jpg","https://xcimg.szwego.com/20230406/i1680760533_9578_3.jpg","https://xcimg.szwego.com/20230406/i1680760533_558_4.jpg","https://xcimg.szwego.com/20230406/i1680760533_1706_5.jpg","https://xcimg.szwego.com/20230406/i1680760533_1280_6.jpg","https://xcimg.szwego.com/20230406/i1680760533_7933_7.jpg","https://xcimg.szwego.com/20230406/i1680760533_8880_8.jpg"],"created_at":"2025-01-21T02:30:45.741Z"},{"id":"item-a3b0c1eecb03","sku":"_duouoZxOo3vrxLgdWnPvsxl8gB2XSfkFKkVQO_g","name_en":"BottegaVeneta葆蝶家 新出的保龄球包能装什么?新出的保龄球包你们Get了吗?超大容量~关键低调简约上身妥妥的休闲风~时髦感也丝毫不减,结合了BV经典的编织元素,电脑也可以装","name_cn":"BottegaVeneta葆蝶家 新出的保龄球包能装什么?新出的保龄球包你们Get了吗?超大容量~关键低调简约上身妥妥的休闲风~时髦感也丝毫不减,结合了BV经典的编织元素,电脑也可以装\t\n肩带长短都可以调节\n适合高个子女生背\n男生背也很阳光☀️\n款号:730327\n尺寸:28*21*","specs":{"source":"wsxcme","sourceId":"_duouoZxOo3vrxLgdWnPvsxl8gB2XSfkFKkVQO_g","sourceTagId":79154589,"sourceTagName":"BV/女包","modelNumber":"730327","rawTitle":"BottegaVeneta葆蝶家 新出的保龄球包能装什么?新出的保龄球包你们Get了吗?超大容量~关键低调简约上身妥妥的休闲风~时髦感也丝毫不减,结合了BV经典的编织元素,电脑也可以装\t\n肩带长短都可以调节\n适合高个子女生背\n男生背也很阳光☀️\n款号:730327\n尺寸:28*21*"},"price":null,"currency":"CNY","moq":1,"category":"bv-women-bags","status":"active","alibaba_url":null,"images":["https://xcimg.szwego.com/20230209/i1675883064_5505_0.jpg","https://xcimg.szwego.com/20230209/i1675883064_5823_1.jpg","https://xcimg.szwego.com/20230209/i1675883064_4597_2.jpg","https://xcimg.szwego.com/20230209/i1675883064_7487_3.jpg","https://xcimg.szwego.com/20230209/i1675883064_5829_4.jpg","https://xcimg.szwego.com/20230209/i1675883064_4210_5.jpg","https://xcimg.szwego.com/20230209/i1675883064_2798_6.jpg","https://xcimg.szwego.com/20230209/i1675883064_2208_7.jpg","https://xcimg.szwego.com/20230209/i1675883064_6840_8.jpg"],"created_at":"2025-01-21T02:30:45.740Z"},{"id":"item-513b50b72a07","sku":"_dizizZseY8cddJxVIqQ8GFTF0pzz4HD1X8uBnFg","name_en":"BottegaVeneta葆蝶家 新出的保龄球包能装什么?新出的保龄球包你们Get了吗?超大容量~关键低调简约上身妥妥的休闲风~时髦感也丝毫不减,结合了BV经典的编织元素,电脑也可以装","name_cn":"BottegaVeneta葆蝶家 新出的保龄球包能装什么?新出的保龄球包你们Get了吗?超大容量~关键低调简约上身妥妥的休闲风~时髦感也丝毫不减,结合了BV经典的编织元素,电脑也可以装\t\n肩带长短都可以调节\n适合高个子女生背\n男生背也很阳光☀️\n款号:730327\n尺寸:28*21*16","specs":{"source":"wsxcme","sourceId":"_dizizZseY8cddJxVIqQ8GFTF0pzz4HD1X8uBnFg","sourceTagId":79154589,"sourceTagName":"BV/女包","modelNumber":"730327","rawTitle":"BottegaVeneta葆蝶家 新出的保龄球包能装什么?新出的保龄球包你们Get了吗?超大容量~关键低调简约上身妥妥的休闲风~时髦感也丝毫不减,结合了BV经典的编织元素,电脑也可以装\t\n肩带长短都可以调节\n适合高个子女生背\n男生背也很阳光☀️\n款号:730327\n尺寸:28*21*16"},"price":null,"currency":"CNY","moq":1,"category":"bv-women-bags","status":"active","alibaba_url":null,"images":["https://xcimg.szwego.com/20230406/i1680760593_6775_0.jpg","https://xcimg.szwego.com/20230406/i1680760593_6305_1.jpg","https://xcimg.szwego.com/20230406/i1680760593_5474_2.jpg","https://xcimg.szwego.com/20230406/i1680760593_8550_3.jpg","https://xcimg.szwego.com/20230406/i1680760593_7084_4.jpg","https://xcimg.szwego.com/20230406/i1680760593_1446_5.jpg","https://xcimg.szwego.com/20230406/i1680760593_847_6.jpg","https://xcimg.szwego.com/20230406/i1680760593_7248_7.jpg","https://xcimg.szwego.com/20230406/i1680760593_1078_8.jpg"],"created_at":"2025-01-21T02:30:45.738Z"},{"id":"item-cd49028d715e","sku":"_d-T-TaFo6-HowLmQO5W_BiVtCReqsL5tFL4x9yw","name_en":"BOULOGNE 手袋 #️⃣ M45832","name_cn":"BOULOGNE 手袋 #️⃣ M45832\n专柜正品版渠道货独家全网首发!此款按专柜法产定制工艺、动态芯片变码,原厂专款面料、原厂专款浅金电镀全钢五金(色泽与正品一致)\n如需对比正品请按正品法版进行比对!\n我们确保百分百还原正品真实感!独家正品原厂面料、五金、边油、车线+正品工艺、官网最新全套礼盒!\n29 x 16 x 9.5 厘米\n(长度 x 高 x 宽)\nMonogram 涂层帆布\n做旧牛皮革饰边\n织物内衬\n金属件\n皮革边角\n内贴袋\n肩带:可拆卸,可调节\n包带半长:31.0 厘米\n包带半长可调至:50.0 厘米\n链条:可拆卸\n链条半长:25.0 厘米\n本品产地为法国","specs":{"source":"wsxcme","sourceId":"_d-T-TaFo6-HowLmQO5W_BiVtCReqsL5tFL4x9yw","sourceTagId":47002622,"sourceTagName":"LV/女包","rawTitle":"BOULOGNE 手袋 #️⃣ M45832\n专柜正品版渠道货独家全网首发!此款按专柜法产定制工艺、动态芯片变码,原厂专款面料、原厂专款浅金电镀全钢五金(色泽与正品一致)\n如需对比正品请按正品法版进行比对!\n我们确保百分百还原正品真实感!独家正品原厂面料、五金、边油、车线+正品工艺、官网最新全套礼盒!\n29 x 16 x 9.5 厘米\n(长度 x 高 x 宽)\nMonogram 涂层帆布\n做旧牛皮革饰边\n织物内衬\n金属件\n皮革边角\n内贴袋\n肩带:可拆卸,可调节\n包带半长:31.0 厘米\n包带半长可调至:50.0 厘米\n链条:可拆卸\n链条半长:25.0 厘米\n本品产地为法国"},"price":null,"currency":"CNY","moq":1,"category":"lv-women-bags","status":"active","alibaba_url":null,"images":["https://xcimg.szwego.com/img/0814622f/20240605/i1717522159_6802_8.jpg","https://xcimg.szwego.com/img/0814622f/20240605/i1717522158_4484_3.jpg","https://xcimg.szwego.com/img/0814622f/20240605/i1717522158_5121_5.jpg","https://xcimg.szwego.com/img/0814622f/20240605/i1717522158_4821_6.jpg","https://xcimg.szwego.com/img/0814622f/20240605/i1717522158_2996_4.jpg","https://xcimg.szwego.com/img/0814622f/20240605/i1717522573_9127_0.jpg","https://xcimg.szwego.com/img/0814622f/20240605/i1717522158_2094_0.jpg","https://xcimg.szwego.com/img/0814622f/20240605/i1717522158_4781_2.jpg","https://xcimg.szwego.com/img/0814622f/20240605/i1717522158_4126_1.jpg"],"created_at":"2024-11-11T10:39:49.078Z"},{"id":"item-1a316d0f45c1","sku":"_dagagCn44HnYaMPrq48zsP9j1k_nX6aGdrhDH7w","name_en":"BOULOGNE 手袋#️⃣M45831","name_cn":"BOULOGNE 手袋#️⃣M45831\n专柜正品版渠道货独家全网首发!此款按专柜法产定制工艺、动态芯片变码,原厂专款面料、原厂专款浅金电镀全钢五金(色泽与正品一致)\n如需对比正品请按正品法版进行比对!\n我们确保百分百还原正品真实感!独家正品原厂面料、五金、边油、车线+正品工艺、官网最新全套礼盒!\n29 x 16 x 9.5 厘米\n(长度 x 高 x 宽)\nMonogram 涂层帆布\n牛皮革饰边\n织物内衬\n金属件\n皮革包角\n内贴袋\n肩带:可拆卸,可调节\n包带半长:31.0 厘米\n包带半长可调至:50.0 厘米\n链条:可拆卸\n链条半长:25.0 厘米\n本品产地为法国","specs":{"source":"wsxcme","sourceId":"_dagagCn44HnYaMPrq48zsP9j1k_nX6aGdrhDH7w","sourceTagId":47002622,"sourceTagName":"LV/女包","rawTitle":"BOULOGNE 手袋#️⃣M45831\n专柜正品版渠道货独家全网首发!此款按专柜法产定制工艺、动态芯片变码,原厂专款面料、原厂专款浅金电镀全钢五金(色泽与正品一致)\n如需对比正品请按正品法版进行比对!\n我们确保百分百还原正品真实感!独家正品原厂面料、五金、边油、车线+正品工艺、官网最新全套礼盒!\n29 x 16 x 9.5 厘米\n(长度 x 高 x 宽)\nMonogram 涂层帆布\n牛皮革饰边\n织物内衬\n金属件\n皮革包角\n内贴袋\n肩带:可拆卸,可调节\n包带半长:31.0 厘米\n包带半长可调至:50.0 厘米\n链条:可拆卸\n链条半长:25.0 厘米\n本品产地为法国"},"price":null,"currency":"CNY","moq":1,"category":"lv-women-bags","status":"active","alibaba_url":null,"images":["https://xcimg.szwego.com/img/0814622f/20240716/i1721061418_1235_1.jpg","https://xcimg.szwego.com/img/0814622f/20240716/i1721061418_6833_0.jpg","https://xcimg.szwego.com/img/0814622f/20240716/i1721061418_3757_4.jpg","https://xcimg.szwego.com/img/0814622f/20240716/i1721061418_1772_8.jpg","https://xcimg.szwego.com/img/0814622f/20240716/i1721061418_8781_2.jpg","https://xcimg.szwego.com/img/0814622f/20240716/i1721061418_5397_5.jpg","https://xcimg.szwego.com/img/0814622f/20240716/i1721061418_5516_7.jpg","https://xcimg.szwego.com/img/0814622f/20240716/i1721062498_7402_0.jpg","https://xcimg.szwego.com/img/0814622f/20240716/i1721061418_3385_3.jpg"],"created_at":"2024-11-11T10:39:49.041Z"},{"id":"item-7f3ce2abb5fa","sku":"_dylylb1iSu3aCVi-mKlU-CGr2w6XJviZ2YOVVZA","name_en":"Bur迷你水桶包,软质真皮,格纹宽肩带手提斜挎两用,复古百搭,轻奢耐看。","name_cn":"Bur迷你水桶包,软质真皮,格纹宽肩带手提斜挎两用,复古百搭,轻奢耐看。","specs":{"source":"wsxcme","sourceId":"_dylylb1iSu3aCVi-mKlU-CGr2w6XJviZ2YOVVZA","sourceTagId":80411239,"sourceTagName":"巴宝莉/女包","rawTitle":"Bur迷你水桶包,软质真皮,格纹宽肩带手提斜挎两用,复古百搭,轻奢耐看。"},"price":null,"currency":"CNY","moq":1,"category":"burberry-women-bags","status":"active","alibaba_url":null,"images":["https://xcimg.szwego.com/imgHD/b7f85c57/20260521/cmp_i1779335279643_4905_0_0.jpg","https://xcimg.szwego.com/imgHD/b7f85c57/20260521/cmp_i1779335279969_5462_0_1.jpg","https://xcimg.szwego.com/imgHD/b7f85c57/20260521/cmp_i1779335279649_8066_0_2.jpg","https://xcimg.szwego.com/imgHD/b7f85c57/20260521/cmp_i1779335279608_7659_0_3.jpg","https://xcimg.szwego.com/imgHD/b7f85c57/20260521/cmp_i1779335279615_3971_0_4.jpg"],"created_at":"2026-06-29T10:29:02.719Z"},{"id":"item-fdd6fa13bd63","sku":"_dyNyNxFj9z9Ey0yiaoer5nhfH5vlsuQHJZekpkQ","name_en":"Burberry Women Bags","name_cn":"在看一下五金 特供原厂五金,真金厚电镀工艺,五金字体清晰度非常精美,更多细节补充!","specs":{"source":"wsxcme","sourceId":"_dyNyNxFj9z9Ey0yiaoer5nhfH5vlsuQHJZekpkQ","sourceTagId":80411239,"sourceTagName":"巴宝莉/女包","rawTitle":"在看一下五金 特供原厂五金,真金厚电镀工艺,五金字体清晰度非常精美,更多细节补充!"},"price":null,"currency":"CNY","moq":1,"category":"burberry-women-bags","status":"active","alibaba_url":null,"images":["https://xcimg.szwego.com/20220323/i1648016790_3537_0.jpg","https://xcimg.szwego.com/20220323/i1648016790_1842_1.jpg","https://xcimg.szwego.com/20220323/i1648016790_6826_2.jpg","https://xcimg.szwego.com/20220323/i1648016790_6237_3.jpg","https://xcimg.szwego.com/20220323/i1648016790_7281_4.jpg","https://xcimg.szwego.com/20220323/i1648016790_4357_5.jpg","https://xcimg.szwego.com/20220323/i1648016790_5099_6.jpg"],"created_at":"2026-06-29T10:27:59.092Z"},{"id":"item-fb0ff6088739","sku":"_dVuVujPu70FvKo2PDTPmsD7dhjTBrgwP2IERiaw","name_en":"Burberry Women Bags","name_cn":"官网图","specs":{"source":"wsxcme","sourceId":"_dVuVujPu70FvKo2PDTPmsD7dhjTBrgwP2IERiaw","sourceTagId":80411239,"sourceTagName":"巴宝莉/女包","rawTitle":"官网图"},"price":null,"currency":"CNY","moq":1,"category":"burberry-women-bags","status":"active","alibaba_url":null,"images":["https://xcimg.szwego.com/20220423/i1650694026_6053_0.jpg","https://xcimg.szwego.com/20220423/i1650694026_2209_1.jpg","https://xcimg.szwego.com/20220423/i1650694026_8934_2.jpg","https://xcimg.szwego.com/20220423/i1650694026_9637_3.jpg","https://xcimg.szwego.com/20220423/i1650694026_6474_4.jpg"],"created_at":"2026-06-29T10:27:59.212Z"},{"id":"item-f801df50b4be","sku":"_dcZcZ40Dq9nT7x7OiojOq-G9g-X4My83D2Hjo8A","name_en":"Burberry Women Bags","name_cn":"巴宝莉【型号0621】顶级原单典藏灵感的托特包,精选帆布拼缉明线皮革制成,正面口袋装饰品牌徽标图案。可使用加固式皮革提柄手拎,或使用可拆式肩背带携带。\n尺寸:23 x 6 x 26.5cm\n内衬:92%棉,8%聚氨酯","specs":{"source":"wsxcme","sourceId":"_dcZcZ40Dq9nT7x7OiojOq-G9g-X4My83D2Hjo8A","sourceTagId":80411239,"sourceTagName":"巴宝莉/女包","modelNumber":"0621】顶级原单典藏灵感的托特包","dimensions":{"lengthCm":23,"heightCm":6,"widthCm":26.5},"rawTitle":"巴宝莉【型号0621】顶级原单典藏灵感的托特包,精选帆布拼缉明线皮革制成,正面口袋装饰品牌徽标图案。可使用加固式皮革提柄手拎,或使用可拆式肩背带携带。\n尺寸:23 x 6 x 26.5cm\n内衬:92%棉,8%聚氨酯"},"price":null,"currency":"CNY","moq":1,"category":"burberry-women-bags","status":"active","alibaba_url":null,"images":["https://xcimg.szwego.com/20210928/a1632839084982_3343.jpg","https://xcimg.szwego.com/20210928/a1632839085092_0503.jpg","https://xcimg.szwego.com/20210928/a1632839085229_0863.jpg","https://xcimg.szwego.com/20210928/a1632839085272_8853.jpg","https://xcimg.szwego.com/20210928/a1632839085372_5470.jpg","https://xcimg.szwego.com/20210928/a1632839085469_3867.jpg","https://xcimg.szwego.com/20210928/a1632839085550_0061.jpg","https://xcimg.szwego.com/20210928/a1632839085607_6084.jpg","https://xcimg.szwego.com/20210928/a1632839085672_6083.jpg"],"created_at":"2025-02-08T12:43:27.832Z"},{"id":"item-f6c5eb92d02c","sku":"_dgbgbvXCaitI88WaddfbDn-UMZT3tmjORlmP8pw","name_en":"Burberry Women Bags","name_cn":"棕色 配原厂防尘袋!","specs":{"source":"wsxcme","sourceId":"_dgbgbvXCaitI88WaddfbDn-UMZT3tmjORlmP8pw","sourceTagId":80411239,"sourceTagName":"巴宝莉/女包","rawTitle":"棕色 配原厂防尘袋!"},"price":null,"currency":"CNY","moq":1,"category":"burberry-women-bags","status":"active","alibaba_url":null,"images":["https://xcimg.szwego.com/20220323/i1648016846_4068_0.jpg"],"created_at":"2026-06-29T10:27:59.122Z"},{"id":"item-ecf643bda054","sku":"_dv4v4ARJFTr_2aLnVHHwG-uTzZ4ZHyxY-T8naFw","name_en":"Burberry Women Bags","name_cn":"来看实拍细节!\n新一季的这款桦木棕色水桶包,采用更容易打理的经典pvc材质🌟轻型耐用,容量又大,自带肩带可拆卸  开口是抽绳设计 方便收纳 高度推荐色","specs":{"source":"wsxcme","sourceId":"_dv4v4ARJFTr_2aLnVHHwG-uTzZ4ZHyxY-T8naFw","sourceTagId":80411239,"sourceTagName":"巴宝莉/女包","rawTitle":"来看实拍细节!\n新一季的这款桦木棕色水桶包,采用更容易打理的经典pvc材质🌟轻型耐用,容量又大,自带肩带可拆卸  开口是抽绳设计 方便收纳 高度推荐色"},"price":null,"currency":"CNY","moq":1,"category":"burberry-women-bags","status":"active","alibaba_url":null,"images":["https://xcimg.szwego.com/20230316/i1678938087_2297_0.jpg","https://xcimg.szwego.com/20230316/i1678938087_7976_1.jpg","https://xcimg.szwego.com/20230316/i1678938087_4455_2.jpg","https://xcimg.szwego.com/20230316/i1678938087_8304_3.jpg","https://xcimg.szwego.com/20230316/i1678938087_7720_4.jpg","https://xcimg.szwego.com/20230316/i1678938087_3852_5.jpg","https://xcimg.szwego.com/20230316/i1678938087_2495_6.jpg","https://xcimg.szwego.com/20230316/i1678938087_7886_7.jpg","https://xcimg.szwego.com/20230316/i1678938087_5604_8.jpg"],"created_at":"2025-01-20T12:46:12.755Z"},{"id":"item-e9b373ef16d4","sku":"_dyPyPjBGW7lft8WdB2A7L9m_BEd0TCkIdmV4lcA","name_en":"Burberry Women Bags","name_cn":"格纹经久不衰,低调经典时尚,这款钱包绝对是存放现金、卡片、票券与单据的首选!包包采用两折式的设计,可轻易地收纳入外套口袋!超多卡槽,还有拉链隔层,满足日常收纳所需!","specs":{"source":"wsxcme","sourceId":"_dyPyPjBGW7lft8WdB2A7L9m_BEd0TCkIdmV4lcA","sourceTagId":80411239,"sourceTagName":"巴宝莉/女包","rawTitle":"格纹经久不衰,低调经典时尚,这款钱包绝对是存放现金、卡片、票券与单据的首选!包包采用两折式的设计,可轻易地收纳入外套口袋!超多卡槽,还有拉链隔层,满足日常收纳所需!"},"price":null,"currency":"CNY","moq":1,"category":"burberry-women-bags","status":"active","alibaba_url":null,"images":["https://xcimg.szwego.com/20210903/i1630658338_9166_0.jpg","https://xcimg.szwego.com/20210903/i1630658338_9750_1.jpg","https://xcimg.szwego.com/20210903/i1630658338_3037_2.jpg","https://xcimg.szwego.com/20210903/i1630658338_2546_3.jpg","https://xcimg.szwego.com/20210903/i1630658338_2225_5.jpg","https://xcimg.szwego.com/20210903/i1630658338_8140_8.jpg","https://xcimg.szwego.com/20210903/i1630658338_6207_6.jpg","https://xcimg.szwego.com/20210903/i1630658338_9827_7.jpg","https://xcimg.szwego.com/20210903/i1630658338_5072_4.jpg"],"created_at":"2025-01-20T12:43:24.113Z"},{"id":"item-e7ced4f1c580","sku":"_dm4m4hLbhXTiLd1l0tcmyNNqR5ypIRu3XbMUXhQ","name_en":"Burberry Women Bags","name_cn":"上身图","specs":{"source":"wsxcme","sourceId":"_dm4m4hLbhXTiLd1l0tcmyNNqR5ypIRu3XbMUXhQ","sourceTagId":80411239,"sourceTagName":"巴宝莉/女包","rawTitle":"上身图"},"price":null,"currency":"CNY","moq":1,"category":"burberry-women-bags","status":"active","alibaba_url":null,"images":["https://xcimg.szwego.com/img/d5e7a5ce/20251114/a1763099287789_1400.jpg","https://xcimg.szwego.com/img/d5e7a5ce/20251114/a1763099287788_5121.jpg","https://xcimg.szwego.com/img/d5e7a5ce/20251114/a1763099287806_5487.jpg","https://xcimg.szwego.com/img/d5e7a5ce/20251114/a1763099287808_7835.jpg","https://xcimg.szwego.com/img/d5e7a5ce/20251114/a1763099287808_3748.jpg","https://xcimg.szwego.com/img/d5e7a5ce/20251114/a1763099287790_2260.jpg","https://xcimg.szwego.com/img/d5e7a5ce/20251114/a1763099288388_6354.jpg","https://xcimg.szwego.com/img/d5e7a5ce/20251114/a1763099288390_6871.jpg","https://xcimg.szwego.com/img/d5e7a5ce/20251114/a1763099288456_0225.jpg"],"created_at":"2026-06-29T10:29:03.019Z"},{"id":"item-e1dfc0239d64","sku":"_dt8t8wrk_R9Ll0g-8PhMaKha0PTEfjTQfFi3-CA","name_en":"Burberry Women Bags","name_cn":"上身参考 鳄鱼纹的皮面自带高级感!而且大小刚好 配有长肩带实用 多种用法!","specs":{"source":"wsxcme","sourceId":"_dt8t8wrk_R9Ll0g-8PhMaKha0PTEfjTQfFi3-CA","sourceTagId":80411239,"sourceTagName":"巴宝莉/女包","rawTitle":"上身参考 鳄鱼纹的皮面自带高级感!而且大小刚好 配有长肩带实用 多种用法!"},"price":null,"currency":"CNY","moq":1,"category":"burberry-women-bags","status":"active","alibaba_url":null,"images":["https://xcimg.szwego.com/img/044b8f29/20241220/i1734681801_1605_8.jpg","https://xcimg.szwego.com/img/044b8f29/20241220/i1734681801_6001_4.jpg","https://xcimg.szwego.com/img/044b8f29/20241220/i1734681801_806_1.jpg","https://xcimg.szwego.com/img/044b8f29/20241220/i1734681801_6437_2.jpg","https://xcimg.szwego.com/img/044b8f29/20241220/i1734681801_920_7.jpg","https://xcimg.szwego.com/img/044b8f29/20241220/i1734681801_8155_3.jpg","https://xcimg.szwego.com/img/044b8f29/20241220/i1734681801_1213_5.jpg","https://xcimg.szwego.com/img/044b8f29/20241220/i1734681801_2927_6.jpg","https://xcimg.szwego.com/img/044b8f29/20241220/i1734681801_3349_0.jpg"],"created_at":"2026-06-29T10:27:58.872Z"},{"id":"item-e169a1c14e52","sku":"_doNoNz9bSZ7m-A5bd3CeXSncPB0IyeF7hjzDVUQ","name_en":"Burberry Women Bags","name_cn":"新品\n【配盒】巴宝莉TB bag,TB专属标识锁扣设计包包,没有过于繁复的设计,简单又经典,恰到好处的容纳度,诠释摩登与传统的优雅交融,契合日常生活中各式各样的穿搭,收获了大批明星时尚icon的喜爱!!\n尺寸21-7-14CM","specs":{"source":"wsxcme","sourceId":"_doNoNz9bSZ7m-A5bd3CeXSncPB0IyeF7hjzDVUQ","sourceTagId":80411239,"sourceTagName":"巴宝莉/女包","rawTitle":"新品\n【配盒】巴宝莉TB bag,TB专属标识锁扣设计包包,没有过于繁复的设计,简单又经典,恰到好处的容纳度,诠释摩登与传统的优雅交融,契合日常生活中各式各样的穿搭,收获了大批明星时尚icon的喜爱!!\n尺寸21-7-14CM"},"price":null,"currency":"CNY","moq":1,"category":"burberry-women-bags","status":"active","alibaba_url":null,"images":["https://xcimg.szwego.com/20230320/i1679252474_5121_0.jpg","https://xcimg.szwego.com/20230320/i1679252474_2007_1.jpg","https://xcimg.szwego.com/20230320/i1679252474_9542_2.jpg","https://xcimg.szwego.com/20230320/i1679252474_5919_3.jpg","https://xcimg.szwego.com/20230320/i1679252474_3759_4.jpg","https://xcimg.szwego.com/20230320/i1679252474_8049_5.jpg","https://xcimg.szwego.com/20230320/i1679252474_4400_6.jpg","https://xcimg.szwego.com/20230320/i1679252474_3827_7.jpg","https://xcimg.szwego.com/20230320/i1679252474_587_8.jpg"],"created_at":"2025-02-08T12:43:27.842Z"},{"id":"item-e052d8ecc4ff","sku":"_dEyEy2yancC2xOdXjEmwxG3PULG1S5uRN8u2pJA","name_en":"Burberry Women Bags","name_cn":"老花格纹 配原厂防尘袋!","specs":{"source":"wsxcme","sourceId":"_dEyEy2yancC2xOdXjEmwxG3PULG1S5uRN8u2pJA","sourceTagId":80411239,"sourceTagName":"巴宝莉/女包","rawTitle":"老花格纹 配原厂防尘袋!"},"price":null,"currency":"CNY","moq":1,"category":"burberry-women-bags","status":"active","alibaba_url":null,"images":["https://xcimg.szwego.com/20220423/i1650693905_9838_0.jpg"],"created_at":"2026-06-29T10:27:59.202Z"},{"id":"item-db1a943729bb","sku":"_daEaEle6r-lrfUbrfgrMuuS8VxUFjcrgT74VMYg","name_en":"Burberry Women Bags","name_cn":"官网图","specs":{"source":"wsxcme","sourceId":"_daEaEle6r-lrfUbrfgrMuuS8VxUFjcrgT74VMYg","sourceTagId":80411239,"sourceTagName":"巴宝莉/女包","rawTitle":"官网图"},"price":null,"currency":"CNY","moq":1,"category":"burberry-women-bags","status":"active","alibaba_url":null,"images":["https://xcimg.szwego.com/img/d5e7a5ce/20250908/a1757318223494_3806.jpg","https://xcimg.szwego.com/img/d5e7a5ce/20250908/a1757318223492_3068.jpg","https://xcimg.szwego.com/img/d5e7a5ce/20250908/a1757318223489_2822.jpg"],"created_at":"2026-06-29T10:27:58.412Z"},{"id":"item-dab83e2113a1","sku":"_dcTcTLCYkYXuFBaLPBUXF-Eu0qUAuwAvD6fenPQ","name_en":"Burberry Women Bags","name_cn":"上身图","specs":{"source":"wsxcme","sourceId":"_dcTcTLCYkYXuFBaLPBUXF-Eu0qUAuwAvD6fenPQ","sourceTagId":80411239,"sourceTagName":"巴宝莉/女包","rawTitle":"上身图"},"price":null,"currency":"CNY","moq":1,"category":"burberry-women-bags","status":"active","alibaba_url":null,"images":["https://xcimg.szwego.com/img/d5e7a5ce/20231002/a1696228276502_3268.jpg","https://xcimg.szwego.com/img/d5e7a5ce/20231002/a1696228276502_4662.jpg","https://xcimg.szwego.com/img/d5e7a5ce/20231002/a1696228276544_6237.jpg","https://xcimg.szwego.com/img/d5e7a5ce/20231002/a1696228276588_2434.jpg","https://xcimg.szwego.com/img/d5e7a5ce/20231002/a1696228276631_4658.jpg","https://xcimg.szwego.com/img/d5e7a5ce/20231002/a1696228276696_0216.jpg"],"created_at":"2025-01-20T12:46:12.783Z"},{"id":"item-d8c80626216d","sku":"_duNuNAfvcsR8zVf7gCHKtkU6pDM1m70YlGNRANQ","name_en":"Burberry Women Bags","name_cn":"小号黑色上身效果参考","specs":{"source":"wsxcme","sourceId":"_duNuNAfvcsR8zVf7gCHKtkU6pDM1m70YlGNRANQ","sourceTagId":80411239,"sourceTagName":"巴宝莉/女包","rawTitle":"小号黑色上身效果参考"},"price":null,"currency":"CNY","moq":1,"category":"burberry-women-bags","status":"active","alibaba_url":null,"images":["https://xcimg.szwego.com/img/d5e7a5ce/20250403/a1743667631907_0215.jpg","https://xcimg.szwego.com/img/d5e7a5ce/20250403/a1743667631905_6386.jpg","https://xcimg.szwego.com/img/d5e7a5ce/20250403/a1743667631902_8213.jpg","https://xcimg.szwego.com/img/d5e7a5ce/20250403/a1743667631886_7882.jpg","https://xcimg.szwego.com/img/d5e7a5ce/20250403/a1743667631892_4057.jpg","https://xcimg.szwego.com/img/d5e7a5ce/20250403/a1743667631897_3183.jpg","https://xcimg.szwego.com/img/d5e7a5ce/20250403/a1743667632637_5046.jpg","https://xcimg.szwego.com/img/d5e7a5ce/20250403/a1743667632640_4154.jpg","https://xcimg.szwego.com/img/d5e7a5ce/20250403/a1743667632644_4567.jpg"],"created_at":"2026-06-29T10:27:59.272Z"},{"id":"item-d8aa2490284c","sku":"_db7b7wpnCsxSVjNrbu4tn5nv7j7T_yjl-gmstnw","name_en":"Burberry Women Bags","name_cn":"小熊🐻书包🎒发货实拍","specs":{"source":"wsxcme","sourceId":"_db7b7wpnCsxSVjNrbu4tn5nv7j7T_yjl-gmstnw","sourceTagId":80411239,"sourceTagName":"巴宝莉/女包","rawTitle":"小熊🐻书包🎒发货实拍"},"price":null,"currency":"CNY","moq":1,"category":"burberry-women-bags","status":"active","alibaba_url":null,"images":["https://xcimg.szwego.com/img/d5e7a5ce/20240930/a1727677410845_6740.jpg","https://xcimg.szwego.com/img/d5e7a5ce/20240930/a1727677410844_3268.jpg","https://xcimg.szwego.com/img/d5e7a5ce/20240930/a1727677413756_0253.jpg","https://xcimg.szwego.com/img/d5e7a5ce/20240930/a1727677410840_5424.jpg","https://xcimg.szwego.com/img/d5e7a5ce/20240930/a1727677410834_7703.jpg","https://xcimg.szwego.com/img/d5e7a5ce/20240930/a1727677410843_2302.jpg","https://xcimg.szwego.com/img/d5e7a5ce/20240930/a1727677410837_3652.jpg","https://xcimg.szwego.com/img/d5e7a5ce/20240930/a1727677411692_7120.jpg","https://xcimg.szwego.com/img/d5e7a5ce/20240930/a1727677411705_0642.jpg"],"created_at":"2025-01-20T12:43:24.102Z"},{"id":"item-d671adeaab86","sku":"_dqfqfuRVZVTPvA5R7_XMzO9eACAdI2kPwxUCbog","name_en":"Burberry Women Bags","name_cn":"上身图","specs":{"source":"wsxcme","sourceId":"_dqfqfuRVZVTPvA5R7_XMzO9eACAdI2kPwxUCbog","sourceTagId":80411239,"sourceTagName":"巴宝莉/女包","rawTitle":"上身图"},"price":null,"currency":"CNY","moq":1,"category":"burberry-women-bags","status":"active","alibaba_url":null,"images":["https://xcimg.szwego.com/img/d5e7a5ce/20250908/a1757317926186_2363.jpg","https://xcimg.szwego.com/img/d5e7a5ce/20250908/a1757317926188_5574.jpg","https://xcimg.szwego.com/img/d5e7a5ce/20250908/a1757317926191_2547.jpg","https://xcimg.szwego.com/img/d5e7a5ce/20250908/a1757317926189_6086.jpg","https://xcimg.szwego.com/img/d5e7a5ce/20250908/a1757317926190_3102.jpg","https://xcimg.szwego.com/img/d5e7a5ce/20250908/a1757317926192_1628.jpg","https://xcimg.szwego.com/img/d5e7a5ce/20250908/a1757317926702_1471.jpg","https://xcimg.szwego.com/img/d5e7a5ce/20250908/a1757317926703_0070.jpg","https://xcimg.szwego.com/img/d5e7a5ce/20250908/a1757317926704_5260.jpg"],"created_at":"2026-06-29T10:27:58.392Z"},{"id":"item-d5f92452f66a","sku":"_deVeV1xJTDs7aZw8bWfmKp8OlORW0ey2GlVXDtA","name_en":"Burberry Women Bags","name_cn":"新品\n【配盒】巴宝莉TB bag,TB专属标识锁扣设计包包,没有过于繁复的设计,简单又经典,恰到好处的容纳度,诠释摩登与传统的优雅交融,契合日常生活中各式各样的穿搭,收获了大批明星时尚icon的喜爱!!\n尺寸21-7-14CM","specs":{"source":"wsxcme","sourceId":"_deVeV1xJTDs7aZw8bWfmKp8OlORW0ey2GlVXDtA","sourceTagId":80411239,"sourceTagName":"巴宝莉/女包","rawTitle":"新品\n【配盒】巴宝莉TB bag,TB专属标识锁扣设计包包,没有过于繁复的设计,简单又经典,恰到好处的容纳度,诠释摩登与传统的优雅交融,契合日常生活中各式各样的穿搭,收获了大批明星时尚icon的喜爱!!\n尺寸21-7-14CM"},"price":null,"currency":"CNY","moq":1,"category":"burberry-women-bags","status":"active","alibaba_url":null,"images":["https://xcimg.szwego.com/20230320/i1679251539_4927_0.jpg","https://xcimg.szwego.com/20230320/i1679251539_2015_1.jpg","https://xcimg.szwego.com/20230320/i1679251539_6120_2.jpg","https://xcimg.szwego.com/20230320/i1679251539_9671_3.jpg","https://xcimg.szwego.com/20230320/i1679251539_7049_4.jpg","https://xcimg.szwego.com/20230320/i1679251539_6755_5.jpg","https://xcimg.szwego.com/20230320/i1679251539_5382_6.jpg","https://xcimg.szwego.com/20230320/i1679251539_4007_7.jpg","https://xcimg.szwego.com/20230320/i1679251539_999_8.jpg"],"created_at":"2025-02-08T12:43:27.844Z"}],"page":226,"pageSize":24,"total":10075,"totalPages":420}
