{"items":[{"id":"item-104f0441fd8f","sku":"_djtjtb2xE2mmbSdQ1MXgbY46DrWMIVQBhxwfe1A","name_en":"Celine Women Bags","name_cn":"原厂皮\n【特级纯钢五金原厂皮】TRIOMPHE亮泽皮皮革短款钱包/2024小赛\n4个卡糟\n2个贴袋\n1个现金隔层\n1个可拆卸拉链卡包,配按扣\n编号:10l653DS3.04LU652\n653浅蓝全皮\n尺寸:w9.5×h7.5×3cm","specs":{"source":"wsxcme","sourceId":"_djtjtb2xE2mmbSdQ1MXgbY46DrWMIVQBhxwfe1A","sourceTagId":47003106,"sourceTagName":"塞琳/女包","rawTitle":"原厂皮\n【特级纯钢五金原厂皮】TRIOMPHE亮泽皮皮革短款钱包/2024小赛\n4个卡糟\n2个贴袋\n1个现金隔层\n1个可拆卸拉链卡包,配按扣\n编号:10l653DS3.04LU652\n653浅蓝全皮\n尺寸:w9.5×h7.5×3cm"},"price":null,"currency":"CNY","moq":1,"category":"celine-women-bags","status":"active","alibaba_url":null,"images":["https://xcimg.szwego.com/img/c4e87dad/20240418/i1713435281_7595_4.jpg","https://xcimg.szwego.com/img/c4e87dad/20240418/i1713435281_1112_3.jpg","https://xcimg.szwego.com/img/c4e87dad/20240418/i1713435280_4334_2.jpg","https://xcimg.szwego.com/img/c4e87dad/20240418/i1713435281_1326_7.jpg","https://xcimg.szwego.com/img/c4e87dad/20240418/i1713435280_1554_0.jpg","https://xcimg.szwego.com/img/c4e87dad/20240418/i1713435281_818_5.jpg","https://xcimg.szwego.com/img/c4e87dad/20240418/i1713435281_9949_6.jpg","https://xcimg.szwego.com/img/c4e87dad/20240418/i1713435281_5032_8.jpg","https://xcimg.szwego.com/img/c4e87dad/20240418/i1713435280_9245_1.jpg"],"created_at":"2024-10-17T06:39:47.591Z"},{"id":"item-0fe4065c6423","sku":"_dlclcrDi6ZL3gqVk1XM_i_3QVAfB5A_tBt7Yj6A","name_en":"Celine Women Bags","name_cn":"小号正品级\n【CL家】爆款新版定制版笑脸包,CL168243,🇮🇹海外原单水货,LUGGAGE小牛皮手提/斜挎包  顶部为拉链闭合。内设简洁扁平口袋。古金色金属配件。尺寸:20cm","specs":{"source":"wsxcme","sourceId":"_dlclcrDi6ZL3gqVk1XM_i_3QVAfB5A_tBt7Yj6A","sourceTagId":47003106,"sourceTagName":"塞琳/女包","rawTitle":"小号正品级\n【CL家】爆款新版定制版笑脸包,CL168243,🇮🇹海外原单水货,LUGGAGE小牛皮手提/斜挎包  顶部为拉链闭合。内设简洁扁平口袋。古金色金属配件。尺寸:20cm"},"price":null,"currency":"CNY","moq":1,"category":"celine-women-bags","status":"active","alibaba_url":null,"images":["https://xcimg.szwego.com/20220714/i1657781289_9861_0.jpg","https://xcimg.szwego.com/20220714/i1657781289_1307_1.jpg","https://xcimg.szwego.com/20220714/i1657781289_7846_2.jpg","https://xcimg.szwego.com/20220714/i1657781289_6014_3.jpg","https://xcimg.szwego.com/20220714/i1657781289_1010_4.jpg","https://xcimg.szwego.com/20220714/i1657781289_5648_5.jpg","https://xcimg.szwego.com/20220714/i1657781289_7465_6.jpg","https://xcimg.szwego.com/20220714/i1657781289_9296_7.jpg","https://xcimg.szwego.com/20220714/i1657781289_8846_8.jpg"],"created_at":"2024-09-27T07:01:01.405Z"},{"id":"item-0d2dcd2dd644","sku":"_dxBxB_flxYacs2wR1exQNPAXJBKLoHmaLUyUOfA","name_en":"Celine Women Bags","name_cn":"赛琳腋下包老花•头层\n采用头层牛皮\n月牙形状透出俏皮感\n又甜又辣的风格🎀\n手拎腋下背都可\n尺寸:23×19×7cm","specs":{"source":"wsxcme","sourceId":"_dxBxB_flxYacs2wR1exQNPAXJBKLoHmaLUyUOfA","sourceTagId":47003106,"sourceTagName":"塞琳/女包","dimensions":{"lengthCm":23,"heightCm":19,"widthCm":7},"rawTitle":"赛琳腋下包老花•头层\n采用头层牛皮\n月牙形状透出俏皮感\n又甜又辣的风格🎀\n手拎腋下背都可\n尺寸:23×19×7cm"},"price":null,"currency":"CNY","moq":1,"category":"celine-women-bags","status":"active","alibaba_url":null,"images":["https://xcimg.szwego.com/20231012/i1697101423_5700_0.jpg","https://xcimg.szwego.com/20231012/i1697101423_4200_1.jpg","https://xcimg.szwego.com/20231012/i1697101423_6423_2.jpg","https://xcimg.szwego.com/20231012/i1697101423_2896_3.jpg","https://xcimg.szwego.com/20231012/i1697101423_8423_4.jpg","https://xcimg.szwego.com/20231012/i1697101423_7336_5.jpg","https://xcimg.szwego.com/20231012/i1697101423_9574_7.jpg","https://xcimg.szwego.com/20231012/i1697101423_5037_6.jpg","https://xcimg.szwego.com/20231012/i1697101423_6855_8.jpg"],"created_at":"2025-02-08T12:47:15.786Z"},{"id":"item-0d16067197ab","sku":"_dvOvON3wn15BE2TGQRjsVg38O3wjxfQfezb7jtw","name_en":"Celine Women Bags","name_cn":"💛","specs":{"source":"wsxcme","sourceId":"_dvOvON3wn15BE2TGQRjsVg38O3wjxfQfezb7jtw","sourceTagId":47003106,"sourceTagName":"塞琳/女包","rawTitle":"💛"},"price":null,"currency":"CNY","moq":1,"category":"celine-women-bags","status":"active","alibaba_url":null,"images":["https://xcimg.szwego.com/img/1a8dcad8/20250820/a1755621435142_3250.jpg","https://xcimg.szwego.com/img/1a8dcad8/20250820/a1755621435149_2286.jpg","https://xcimg.szwego.com/img/1a8dcad8/20250820/a1755621435134_3568.jpg","https://xcimg.szwego.com/img/1a8dcad8/20250820/a1755621435145_4481.jpg"],"created_at":"2026-05-20T03:16:24.286Z"},{"id":"item-0bccd6dcd895","sku":"_dlElEyVhhG3jMcay6xW6VUFSLafs71btfR4-GWA","name_en":"Celine Women Bags","name_cn":"新品上线🅰️🅰️\n托物上新🆕 新配色超好看 ~ 清新淡雅 蓝色条纹织物 与牛皮革凯旋门相呼应 ,打造春夏清新质感 得️得️做工精细,走线精致 ,整体设计清新温柔,有容量 有颜值 ,百搭不挑人 ,风格随意切换,❤️,同时又有肩带可以斜挎,兼具实用性与观赏性,\n休闲随性风,文艺小清新,森女系都很可️\n\n容量:容量不用质疑,妥妥抵👍\n\n款号:199162 \n尺寸:26×19×13","specs":{"source":"wsxcme","sourceId":"_dlElEyVhhG3jMcay6xW6VUFSLafs71btfR4-GWA","sourceTagId":47003106,"sourceTagName":"塞琳/女包","modelNumber":"199162","rawTitle":"新品上线🅰️🅰️\n托物上新🆕 新配色超好看 ~ 清新淡雅 蓝色条纹织物 与牛皮革凯旋门相呼应 ,打造春夏清新质感 得️得️做工精细,走线精致 ,整体设计清新温柔,有容量 有颜值 ,百搭不挑人 ,风格随意切换,❤️,同时又有肩带可以斜挎,兼具实用性与观赏性,\n休闲随性风,文艺小清新,森女系都很可️\n\n容量:容量不用质疑,妥妥抵👍\n\n款号:199162 \n尺寸:26×19×13"},"price":null,"currency":"CNY","moq":1,"category":"celine-women-bags","status":"active","alibaba_url":null,"images":["https://xcimg.szwego.com/20230624/i1687575687_2506_0.jpg","https://xcimg.szwego.com/20230624/i1687575687_9102_1.jpg","https://xcimg.szwego.com/20230624/i1687575687_1342_2.jpg","https://xcimg.szwego.com/20230624/i1687575687_8730_3.jpg","https://xcimg.szwego.com/20230624/i1687575687_9293_4.jpg","https://xcimg.szwego.com/20230624/i1687575687_6625_5.jpg","https://xcimg.szwego.com/20230624/i1687575687_8564_6.jpg","https://xcimg.szwego.com/20230624/i1687575687_1471_7.jpg"],"created_at":"2026-06-29T11:25:41.921Z"},{"id":"item-0b78fa9a9a47","sku":"_daDaDVk8lYlQDzluINQfVZ7fxFqmMX8GKHKFKLw","name_en":"Celine Women Bags","name_cn":"赛琳水桶老花大号•头层\n采用头层牛皮\n大号慵懒感十足\n酷酷的中号太飒啦\n尺寸:33×27×17cm","specs":{"source":"wsxcme","sourceId":"_daDaDVk8lYlQDzluINQfVZ7fxFqmMX8GKHKFKLw","sourceTagId":47003106,"sourceTagName":"塞琳/女包","dimensions":{"lengthCm":33,"heightCm":27,"widthCm":17},"rawTitle":"赛琳水桶老花大号•头层\n采用头层牛皮\n大号慵懒感十足\n酷酷的中号太飒啦\n尺寸:33×27×17cm"},"price":null,"currency":"CNY","moq":1,"category":"celine-women-bags","status":"active","alibaba_url":null,"images":["https://xcimg.szwego.com/20231012/i1697100668_8940_0.jpg","https://xcimg.szwego.com/20231012/i1697100668_1885_1.jpg","https://xcimg.szwego.com/20231012/i1697100668_6422_2.jpg","https://xcimg.szwego.com/20231012/i1697100668_6296_3.jpg","https://xcimg.szwego.com/20231012/i1697100668_2518_5.jpg","https://xcimg.szwego.com/20231012/i1697100668_9596_6.jpg","https://xcimg.szwego.com/20231012/i1697100668_3980_4.jpg","https://xcimg.szwego.com/20231012/i1697100668_1994_7.jpg","https://xcimg.szwego.com/20231012/i1697100668_2612_8.jpg"],"created_at":"2025-02-08T12:47:15.790Z"},{"id":"item-07c6bfda800f","sku":"_dgqgqoup0MehnRuAMvwRDOjX-aE6joG0_IYP2Zw","name_en":"Celine Women Bags","name_cn":"新品上线🅰️🅰️ 26春季系列全新笑脸包👛\n😐变🙂,CE笑脸包焕新回归!\nCE PRINTEMPS 2026春季系列!\nNEW LUGGAGE新版笑脸包\n记忆中的经典,焕新登场!\n👜轻盈的材质,摩登的线条\n依旧是那个辨识度拉满的It Bag!\n尽显简约利落的摩登气质。新任创意总监 Michael Rider 在2026春季首秀上让“笑脸包”惊喜回归,柔滑细腻且富有光泽的皮革,背缝工艺和滚边设计塑造出柔和圆润的横版轮廓,侧面拉链设计呈现独特的微笑弧度,巧妙呼应“笑脸包”这一美名。通过现代廓形重释经典设计,整体更加轻便百搭,呈现优雅又随性的风格!\n款号:123693\n尺寸:底部36x22x16cm\n袋口56cm","specs":{"source":"wsxcme","sourceId":"_dgqgqoup0MehnRuAMvwRDOjX-aE6joG0_IYP2Zw","sourceTagId":47003106,"sourceTagName":"塞琳/女包","modelNumber":"123693","rawTitle":"新品上线🅰️🅰️ 26春季系列全新笑脸包👛\n😐变🙂,CE笑脸包焕新回归!\nCE PRINTEMPS 2026春季系列!\nNEW LUGGAGE新版笑脸包\n记忆中的经典,焕新登场!\n👜轻盈的材质,摩登的线条\n依旧是那个辨识度拉满的It Bag!\n尽显简约利落的摩登气质。新任创意总监 Michael Rider 在2026春季首秀上让“笑脸包”惊喜回归,柔滑细腻且富有光泽的皮革,背缝工艺和滚边设计塑造出柔和圆润的横版轮廓,侧面拉链设计呈现独特的微笑弧度,巧妙呼应“笑脸包”这一美名。通过现代廓形重释经典设计,整体更加轻便百搭,呈现优雅又随性的风格!\n款号:123693\n尺寸:底部36x22x16cm\n袋口56cm"},"price":null,"currency":"CNY","moq":1,"category":"celine-women-bags","status":"active","alibaba_url":null,"images":["https://xcimg.szwego.com/img/77bdff09/20260509/i1778297763313_3895_0_0.jpg","https://xcimg.szwego.com/img/77bdff09/20260509/i1778297763324_4467_0_1.jpg","https://xcimg.szwego.com/img/77bdff09/20260509/i1778297773101_7271_0_2.jpg","https://xcimg.szwego.com/img/77bdff09/20260509/i1778297763316_5818_0_3.jpg","https://xcimg.szwego.com/img/77bdff09/20260509/i1778297754656_6295_0_4.jpg","https://xcimg.szwego.com/img/77bdff09/20260509/i1778297754747_4159_0_5.jpg","https://xcimg.szwego.com/img/77bdff09/20260509/i1778297763265_4289_0_6.jpg","https://xcimg.szwego.com/img/77bdff09/20260509/i1778297763234_6482_0_7.jpg"],"created_at":"2026-05-20T03:16:24.066Z"},{"id":"item-0736b178199f","sku":"_dssssiQAOEfFR3DffFB7uXPQMVvROM7biul4k5Q","name_en":"Celine Women Bags","name_cn":"正品级\n新品上线~\nC家凯旋门双肩包\n超实用凯旋门帆布印花双肩包,与它家之前出的双肩包相比,体型小了很多,但是看着更精致可爱。\n别看小小的一只但是容量十分大。\n既可以休闲搭配,也可以搭配夹克棒球服混搭不一样的风格\n\n款号:197662\n颜色:米白棕\n尺寸:20×10.5×17","specs":{"source":"wsxcme","sourceId":"_dssssiQAOEfFR3DffFB7uXPQMVvROM7biul4k5Q","sourceTagId":47003106,"sourceTagName":"塞琳/女包","modelNumber":"197662","rawTitle":"正品级\n新品上线~\nC家凯旋门双肩包\n超实用凯旋门帆布印花双肩包,与它家之前出的双肩包相比,体型小了很多,但是看着更精致可爱。\n别看小小的一只但是容量十分大。\n既可以休闲搭配,也可以搭配夹克棒球服混搭不一样的风格\n\n款号:197662\n颜色:米白棕\n尺寸:20×10.5×17"},"price":null,"currency":"CNY","moq":1,"category":"celine-women-bags","status":"active","alibaba_url":null,"images":["https://xcimg.szwego.com/20230611/i1686482601_2226_0.jpg","https://xcimg.szwego.com/20230611/i1686482601_8388_1.jpg","https://xcimg.szwego.com/20230611/i1686482601_628_2.jpg","https://xcimg.szwego.com/20230611/i1686482601_9328_3.jpg","https://xcimg.szwego.com/20230611/i1686482601_4604_4.jpg","https://xcimg.szwego.com/20230611/i1686482601_6825_5.jpg","https://xcimg.szwego.com/20230611/i1686482601_1302_6.jpg","https://xcimg.szwego.com/20230611/i1686482601_8819_7.jpg","https://xcimg.szwego.com/20230611/i1686482601_1171_8.jpg"],"created_at":"2024-09-27T07:01:46.116Z"},{"id":"item-047d4007cb42","sku":"_dqAqAOFg8gFV1VGcsCuBrNOhd6BmH5K3VYZaegw","name_en":"Celine Women Bags","name_cn":"正品级\n新品上线🅰️🅰️ CE新款~羊皮革链条腋下包,小羊皮➕金属logo ➕质感链 \n\n条,轻奢高级的感觉给人印象深刻!实物皮质非常舒服细 \n\n腻,链条的长度也很四季皆宜,也很有质感,时尚百搭还 \n\n高级!!️ \n搭配:偏向时尚达人风格,大小场合轻松驾驭 \n\n容量:日常使用容量杠杠哒 \n\n款号:111273 裸色\n\n尺寸:24-15-5 (配原版包装)","specs":{"source":"wsxcme","sourceId":"_dqAqAOFg8gFV1VGcsCuBrNOhd6BmH5K3VYZaegw","sourceTagId":47003106,"sourceTagName":"塞琳/女包","modelNumber":"111273 裸色","rawTitle":"正品级\n新品上线🅰️🅰️ CE新款~羊皮革链条腋下包,小羊皮➕金属logo ➕质感链 \n\n条,轻奢高级的感觉给人印象深刻!实物皮质非常舒服细 \n\n腻,链条的长度也很四季皆宜,也很有质感,时尚百搭还 \n\n高级!!️ \n搭配:偏向时尚达人风格,大小场合轻松驾驭 \n\n容量:日常使用容量杠杠哒 \n\n款号:111273 裸色\n\n尺寸:24-15-5 (配原版包装)"},"price":null,"currency":"CNY","moq":1,"category":"celine-women-bags","status":"active","alibaba_url":null,"images":["https://xcimg.szwego.com/20221129/i1669700394_7484_0.jpg","https://xcimg.szwego.com/20221129/i1669700394_5671_1.jpg","https://xcimg.szwego.com/20221129/i1669700394_3303_2.jpg","https://xcimg.szwego.com/20221129/i1669700394_7630_3.jpg","https://xcimg.szwego.com/20221129/i1669700462_2260_0.jpg","https://xcimg.szwego.com/20221129/i1669700462_6871_1.jpg","https://xcimg.szwego.com/20221129/i1669700462_3268_2.jpg","https://xcimg.szwego.com/20221129/i1669700462_41_3.jpg","https://xcimg.szwego.com/20221129/i1669700462_370_4.jpg"],"created_at":"2024-09-27T07:01:01.475Z"},{"id":"item-00e7efd11256","sku":"_dt3t3W2tm-ISs4QehrkvrhZQT_SokxC24VUOgYg","name_en":"Celine Women Bags","name_cn":"原厂皮\n【特级纯钢五金原厂皮】  TRIOMPHE亮泽牛皮革钱包/2024小赛\n12个卡糟\n1个拉链零钱口袋\n1个扁平口袋\n2个角撑隔层\n编号:10E313DPV.38NO 312\n313黑色全皮\n尺寸:w19×10×3cm","specs":{"source":"wsxcme","sourceId":"_dt3t3W2tm-ISs4QehrkvrhZQT_SokxC24VUOgYg","sourceTagId":47003106,"sourceTagName":"塞琳/女包","rawTitle":"原厂皮\n【特级纯钢五金原厂皮】  TRIOMPHE亮泽牛皮革钱包/2024小赛\n12个卡糟\n1个拉链零钱口袋\n1个扁平口袋\n2个角撑隔层\n编号:10E313DPV.38NO 312\n313黑色全皮\n尺寸:w19×10×3cm"},"price":null,"currency":"CNY","moq":1,"category":"celine-women-bags","status":"active","alibaba_url":null,"images":["https://xcimg.szwego.com/img/c4e87dad/20240418/i1713429917_3867_6.jpg","https://xcimg.szwego.com/img/c4e87dad/20240418/i1713429917_694_4.jpg","https://xcimg.szwego.com/img/c4e87dad/20240418/i1713429917_4024_8.jpg","https://xcimg.szwego.com/img/c4e87dad/20240418/i1713429917_2773_0.jpg","https://xcimg.szwego.com/img/c4e87dad/20240418/i1713429917_8405_1.jpg","https://xcimg.szwego.com/img/c4e87dad/20240418/i1713429917_6648_5.jpg","https://xcimg.szwego.com/img/c4e87dad/20240418/i1713429917_8326_7.jpg","https://xcimg.szwego.com/img/c4e87dad/20240418/i1713429917_6976_2.jpg","https://xcimg.szwego.com/img/c4e87dad/20240418/i1713429930_3824_0.jpg"],"created_at":"2024-10-17T06:39:47.582Z"},{"id":"item-c58e81098163","sku":"_dxSxS7QVLIwiHQFOD-_cbI-oTtyTHjBzqHqJDyw","name_en":"CELINE:编织菜篮子包","name_cn":"CELINE:编织菜篮子包\nBOTTEGA VENETA:蝴蝶包                                  五一小长假马上到啦,推荐出游的包包","specs":{"source":"wsxcme","sourceId":"_dxSxS7QVLIwiHQFOD-_cbI-oTtyTHjBzqHqJDyw","sourceTagId":47003106,"sourceTagName":"塞琳/女包","rawTitle":"CELINE:编织菜篮子包\nBOTTEGA VENETA:蝴蝶包                                  五一小长假马上到啦,推荐出游的包包"},"price":null,"currency":"CNY","moq":1,"category":"celine-women-bags","status":"active","alibaba_url":null,"images":["https://xcimg.szwego.com/20220409/i1649434340_3809_0.jpg","https://xcimg.szwego.com/20220409/i1649434340_8751_1.jpg","https://xcimg.szwego.com/20220409/i1649434340_3978_2.jpg","https://xcimg.szwego.com/20220409/i1649434340_6750_3.jpg","https://xcimg.szwego.com/20220409/i1649434340_2224_4.jpg","https://xcimg.szwego.com/20220409/i1649434340_6225_5.jpg","https://xcimg.szwego.com/20220409/i1649434340_5427_6.jpg","https://xcimg.szwego.com/20220409/i1649434340_5380_7.jpg"],"created_at":"2026-05-20T03:16:24.266Z"},{"id":"item-ce19ea8a6172","sku":"_dmpmpi2_wWmrzmTfBez1yO9_0UvhsUjVIphJKGg","name_en":"Celine/赛琳","name_cn":"Celine/赛琳\n经典半圆马鞍包\n链条包\n尺寸18cm","specs":{"source":"wsxcme","sourceId":"_dmpmpi2_wWmrzmTfBez1yO9_0UvhsUjVIphJKGg","sourceTagId":47003106,"sourceTagName":"塞琳/女包","rawTitle":"Celine/赛琳\n经典半圆马鞍包\n链条包\n尺寸18cm"},"price":null,"currency":"CNY","moq":1,"category":"celine-women-bags","status":"active","alibaba_url":null,"images":["https://xcimg.szwego.com/20221204/i1670157625_5289_0.jpg","https://xcimg.szwego.com/20221204/i1670157625_4905_1.jpg","https://xcimg.szwego.com/20221204/i1670157625_5941_2.jpg","https://xcimg.szwego.com/20221204/i1670157625_451_3.jpg","https://xcimg.szwego.com/20221204/i1670157625_6441_4.jpg","https://xcimg.szwego.com/20221204/i1670157625_5893_5.jpg","https://xcimg.szwego.com/20221204/i1670157625_8238_6.jpg","https://xcimg.szwego.com/20221204/i1670157625_819_7.jpg","https://xcimg.szwego.com/20221204/i1670157625_32_8.jpg"],"created_at":"2025-02-08T12:47:23.836Z"},{"id":"item-bd0ba94117e1","sku":"_dNdNd1tpDXkJJY09Cbgtl1bZGqnjg1M4zpQhZCw","name_en":"Celine/赛琳","name_cn":"Celine/赛琳\n经典半圆马鞍包\n链条包\n尺寸18cm","specs":{"source":"wsxcme","sourceId":"_dNdNd1tpDXkJJY09Cbgtl1bZGqnjg1M4zpQhZCw","sourceTagId":47003106,"sourceTagName":"塞琳/女包","rawTitle":"Celine/赛琳\n经典半圆马鞍包\n链条包\n尺寸18cm"},"price":null,"currency":"CNY","moq":1,"category":"celine-women-bags","status":"active","alibaba_url":null,"images":["https://xcimg.szwego.com/20221204/i1670157667_4075_0.jpg","https://xcimg.szwego.com/20221204/i1670157667_8872_1.jpg","https://xcimg.szwego.com/20221204/i1670157667_2067_2.jpg","https://xcimg.szwego.com/20221204/i1670157667_4854_3.jpg","https://xcimg.szwego.com/20221204/i1670157667_4857_4.jpg","https://xcimg.szwego.com/20221204/i1670157667_6224_5.jpg"],"created_at":"2025-02-08T12:47:23.837Z"},{"id":"item-c18ac1c8bc1a","sku":"_dcjcjaSODN2Raev4G06_ERCjfbPC8BsY0R7QN-g","name_en":"CELINE| FOLIO新款包包天然小牛皮”","name_cn":"CELINE| FOLIO新款包包天然小牛皮”\n带手柄的“凯旋门”Triomphe来了","specs":{"source":"wsxcme","sourceId":"_dcjcjaSODN2Raev4G06_ERCjfbPC8BsY0R7QN-g","sourceTagId":47003106,"sourceTagName":"塞琳/女包","rawTitle":"CELINE| FOLIO新款包包天然小牛皮”\n带手柄的“凯旋门”Triomphe来了"},"price":null,"currency":"CNY","moq":1,"category":"celine-women-bags","status":"active","alibaba_url":null,"images":["https://xcimg.szwego.com/img/1a8dcad8/20260416/a1776314130754_0843.jpg","https://xcimg.szwego.com/img/1a8dcad8/20260416/a1776314130725_8835.jpg","https://xcimg.szwego.com/img/1a8dcad8/20260416/a1776314130607_1382.jpg","https://xcimg.szwego.com/img/1a8dcad8/20260416/a1776314130599_8688.jpg","https://xcimg.szwego.com/img/1a8dcad8/20260416/a1776314130652_7368.jpg"],"created_at":"2026-05-20T03:16:24.496Z"},{"id":"item-401998168ade","sku":"_d7U7U0hQGccsInWW0Vrx6jr1IovSNAOGzrAL4aA","name_en":"CELINE|简简单单的静奢风","name_cn":"CELINE|简简单单的静奢风\nCELINE|低炫耀、高内里\n用顶级的材质、利落剪裁和克制设计“传递不费力气的贵气","specs":{"source":"wsxcme","sourceId":"_d7U7U0hQGccsInWW0Vrx6jr1IovSNAOGzrAL4aA","sourceTagId":47003106,"sourceTagName":"塞琳/女包","rawTitle":"CELINE|简简单单的静奢风\nCELINE|低炫耀、高内里\n用顶级的材质、利落剪裁和克制设计“传递不费力气的贵气"},"price":null,"currency":"CNY","moq":1,"category":"celine-women-bags","status":"active","alibaba_url":null,"images":["https://xcimg.szwego.com/img/1a8dcad8/20260514/a1778771119386_6081.jpg","https://xcimg.szwego.com/img/1a8dcad8/20260514/a1778771119446_6805.jpg","https://xcimg.szwego.com/img/1a8dcad8/20260514/a1778771119385_3154.jpg","https://xcimg.szwego.com/img/1a8dcad8/20260514/a1778771119426_4233.jpg","https://xcimg.szwego.com/img/1a8dcad8/20260514/a1778771119492_5608.jpg","https://xcimg.szwego.com/img/1a8dcad8/20260514/a1778771120893_5282.jpg"],"created_at":"2026-05-20T03:16:24.196Z"},{"id":"item-eff7f500606a","sku":"_dkMkMEqmUldfd40iwBQRYyEy4FS9Dv8s0jShuHg","name_en":"CELINE|小号HOBO 🤍","name_cn":"CELINE|小号HOBO 🤍","specs":{"source":"wsxcme","sourceId":"_dkMkMEqmUldfd40iwBQRYyEy4FS9Dv8s0jShuHg","sourceTagId":47003106,"sourceTagName":"塞琳/女包","rawTitle":"CELINE|小号HOBO 🤍"},"price":null,"currency":"CNY","moq":1,"category":"celine-women-bags","status":"active","alibaba_url":null,"images":["https://xcimg.szwego.com/img/f671a590/20260425/a1777132048024_7427.jpg","https://xcimg.szwego.com/img/f671a590/20260425/a1777132047924_0412.jpg","https://xcimg.szwego.com/img/f671a590/20260425/a1777132048017_2211.jpg","https://xcimg.szwego.com/img/f671a590/20260425/a1777132047691_6743.jpg","https://xcimg.szwego.com/img/f671a590/20260425/a1777132048036_7411.jpg","https://xcimg.szwego.com/img/f671a590/20260425/a1777132049503_7541.jpg","https://xcimg.szwego.com/img/f671a590/20260425/a1777132049504_3630.jpg","https://xcimg.szwego.com/img/f671a590/20260425/a1777132049239_2655.jpg","https://xcimg.szwego.com/img/f671a590/20260425/a1777132049230_2366.jpg"],"created_at":"2026-05-20T03:16:23.796Z"},{"id":"item-015ca632d59c","sku":"_d0000LcZE9uYzKvCc7ptV_XR6Tes0JrGPWqhymw","name_en":"CELINE|小号HOBO 🤎可拎可斜挎!","name_cn":"CELINE|小号HOBO 🤎可拎可斜挎!","specs":{"source":"wsxcme","sourceId":"_d0000LcZE9uYzKvCc7ptV_XR6Tes0JrGPWqhymw","sourceTagId":47003106,"sourceTagName":"塞琳/女包","rawTitle":"CELINE|小号HOBO 🤎可拎可斜挎!"},"price":null,"currency":"CNY","moq":1,"category":"celine-women-bags","status":"active","alibaba_url":null,"images":["https://xcimg.szwego.com/img/f671a590/20260425/a1777132303647_8202.jpg","https://xcimg.szwego.com/img/f671a590/20260425/a1777132303515_3810.jpg","https://xcimg.szwego.com/img/f671a590/20260425/a1777132303581_4024.jpg","https://xcimg.szwego.com/img/f671a590/20260425/a1777132303831_3622.jpg","https://xcimg.szwego.com/img/f671a590/20260425/a1777132303601_0553.jpg","https://xcimg.szwego.com/img/f671a590/20260425/a1777132306706_2046.jpg","https://xcimg.szwego.com/img/f671a590/20260425/a1777132306360_5508.jpg","https://xcimg.szwego.com/img/f671a590/20260425/a1777132306361_8080.jpg","https://xcimg.szwego.com/img/f671a590/20260425/a1777132306361_2368.jpg"],"created_at":"2026-05-20T03:16:23.816Z"},{"id":"item-48ebbda24115","sku":"_deQeQrwezrByvKP-LbFAiuIACanMRngMEsv6srg","name_en":"CELINE|新款hobo包🖤","name_cn":"CELINE|新款hobo包🖤","specs":{"source":"wsxcme","sourceId":"_deQeQrwezrByvKP-LbFAiuIACanMRngMEsv6srg","sourceTagId":47003106,"sourceTagName":"塞琳/女包","rawTitle":"CELINE|新款hobo包🖤"},"price":null,"currency":"CNY","moq":1,"category":"celine-women-bags","status":"active","alibaba_url":null,"images":["https://xcimg.szwego.com/img/f671a590/20260425/a1777131524473_0267.jpg","https://xcimg.szwego.com/img/f671a590/20260425/a1777131524092_6405.jpg","https://xcimg.szwego.com/img/f671a590/20260425/a1777131524443_1180.jpg","https://xcimg.szwego.com/img/f671a590/20260425/a1777131524456_7236.jpg","https://xcimg.szwego.com/img/f671a590/20260425/a1777131524093_3025.jpg","https://xcimg.szwego.com/img/f671a590/20260425/a1777131525251_7201.jpg"],"created_at":"2026-05-20T03:16:23.756Z"},{"id":"item-277b7536df96","sku":"_daWaW5izSMaaWpypBzGw6MTvLjGQ80Eq-R8yZSQ","name_en":"CELINE|HALFMOON小号手袋 浅棕色🤎","name_cn":"CELINE|HALFMOON小号手袋 浅棕色🤎","specs":{"source":"wsxcme","sourceId":"_daWaW5izSMaaWpypBzGw6MTvLjGQ80Eq-R8yZSQ","sourceTagId":47003106,"sourceTagName":"塞琳/女包","rawTitle":"CELINE|HALFMOON小号手袋 浅棕色🤎"},"price":null,"currency":"CNY","moq":1,"category":"celine-women-bags","status":"active","alibaba_url":null,"images":["https://xcimg.szwego.com/img/f671a590/20260426/a1777183026305_0016.jpg","https://xcimg.szwego.com/img/f671a590/20260426/a1777183026458_4514.jpg","https://xcimg.szwego.com/img/f671a590/20260426/a1777183026304_5133.jpg","https://xcimg.szwego.com/img/f671a590/20260426/a1777183026310_1611.jpg","https://xcimg.szwego.com/img/f671a590/20260426/a1777183026302_6842.jpg","https://xcimg.szwego.com/img/f671a590/20260426/a1777183028127_8165.jpg","https://xcimg.szwego.com/img/f671a590/20260426/a1777183028140_3473.jpg","https://xcimg.szwego.com/img/f671a590/20260426/a1777183028139_5701.jpg","https://xcimg.szwego.com/img/f671a590/20260426/a1777183027707_2261.jpg"],"created_at":"2026-05-20T03:16:23.836Z"},{"id":"item-c8fffe5809de","sku":"_dmXmX8oK9PjjY8qVnsielzlFdXuCCG62rhQhWiw","name_en":"CELINE|hobo小号 天空蓝💦","name_cn":"CELINE|hobo小号 天空蓝💦","specs":{"source":"wsxcme","sourceId":"_dmXmX8oK9PjjY8qVnsielzlFdXuCCG62rhQhWiw","sourceTagId":47003106,"sourceTagName":"塞琳/女包","rawTitle":"CELINE|hobo小号 天空蓝💦"},"price":null,"currency":"CNY","moq":1,"category":"celine-women-bags","status":"active","alibaba_url":null,"images":["https://xcimg.szwego.com/img/f671a590/20260425/a1777131887676_6475.jpg","https://xcimg.szwego.com/img/f671a590/20260425/a1777131887429_2003.jpg","https://xcimg.szwego.com/img/f671a590/20260425/a1777131887376_4377.jpg","https://xcimg.szwego.com/img/f671a590/20260425/a1777131887406_8856.jpg","https://xcimg.szwego.com/img/f671a590/20260425/a1777131887468_8016.jpg","https://xcimg.szwego.com/img/f671a590/20260425/a1777131889557_5467.jpg","https://xcimg.szwego.com/img/f671a590/20260425/a1777131888957_2034.jpg","https://xcimg.szwego.com/img/f671a590/20260425/a1777131888949_6178.jpg"],"created_at":"2026-05-20T03:16:23.776Z"},{"id":"item-60ad61eb01a9","sku":"_dsIsI-izvHi1gPC28mMPK46twSRb7BReVyX5zVg","name_en":"CELINE2022 新品上线Ava腋下包大花系列、经典版的区别就是凯旋门LOGO印花的大小,大花系列属于限定版,绝对不会烂大街喔,复古时髦范拿捏得妥妥滴!!️","name_cn":"CELINE2022 新品上线Ava腋下包大花系列、经典版的区别就是凯旋门LOGO印花的大小,大花系列属于限定版,绝对不会烂大街喔,复古时髦范拿捏得妥妥滴!!️\n\n搭配:百搭腋下包,各种风格随意切换,必入单品\n容量:日常出门妥妥当当👍\n款号:193952 \n尺寸:25x7x18 料棕","specs":{"source":"wsxcme","sourceId":"_dsIsI-izvHi1gPC28mMPK46twSRb7BReVyX5zVg","sourceTagId":47003106,"sourceTagName":"塞琳/女包","modelNumber":"193952","rawTitle":"CELINE2022 新品上线Ava腋下包大花系列、经典版的区别就是凯旋门LOGO印花的大小,大花系列属于限定版,绝对不会烂大街喔,复古时髦范拿捏得妥妥滴!!️\n\n搭配:百搭腋下包,各种风格随意切换,必入单品\n容量:日常出门妥妥当当👍\n款号:193952 \n尺寸:25x7x18 料棕"},"price":null,"currency":"CNY","moq":1,"category":"celine-women-bags","status":"active","alibaba_url":null,"images":["https://xcimg.szwego.com/20220810/i1660110968_2087_0.jpg","https://xcimg.szwego.com/20220810/i1660110968_5899_1.jpg","https://xcimg.szwego.com/20220810/i1660110968_3726_2.jpg","https://xcimg.szwego.com/20220810/i1660110968_3611_3.jpg","https://xcimg.szwego.com/20220810/i1660110968_2616_4.jpg","https://xcimg.szwego.com/20220810/i1660110968_3146_5.jpg","https://xcimg.szwego.com/20220810/i1660110968_6880_6.jpg","https://xcimg.szwego.com/20220810/i1660110968_1250_7.jpg","https://xcimg.szwego.com/20220810/i1660110968_6437_8.jpg"],"created_at":"2024-04-30T06:38:14.788Z"},{"id":"item-cb255992d997","sku":"_d_k_krJYlD1RNvzMlxasxBVmbJn44yuSNUJXJhw","name_en":"CELINE25|TEEN GARANCE编织藤编手袋-","name_cn":"CELINE25|TEEN GARANCE编织藤编手袋-\n🆕🆕🆕\n极致丝滑✨新品GARANCE\nCELINE的黄金60年代,一定要拥有的漆皮手袋🎩\n-恰到好处的精致感,纯粹又优雅\n-精致黑金~神秘又迷人,搭配秋冬色系高级感爆棚💯\n-全新设计手挽肩带~相较传统腋下包更舒适、更加挺括有型🆙\n看过秀的姐妹~应该都会被迷倒吧🤩\n藤编,羊皮革衬里,肩背和手提,TRIOMPHE金属锁扣,3个内侧隔层,1个内侧拉链口袋,1个内侧扁平口袋,皮革提手长24cm\n尺寸:18.5x13x6cm\n编号:118053","specs":{"source":"wsxcme","sourceId":"_d_k_krJYlD1RNvzMlxasxBVmbJn44yuSNUJXJhw","sourceTagId":47003106,"sourceTagName":"塞琳/女包","dimensions":{"lengthCm":18.5,"heightCm":13,"widthCm":6},"rawTitle":"CELINE25|TEEN GARANCE编织藤编手袋-\n🆕🆕🆕\n极致丝滑✨新品GARANCE\nCELINE的黄金60年代,一定要拥有的漆皮手袋🎩\n-恰到好处的精致感,纯粹又优雅\n-精致黑金~神秘又迷人,搭配秋冬色系高级感爆棚💯\n-全新设计手挽肩带~相较传统腋下包更舒适、更加挺括有型🆙\n看过秀的姐妹~应该都会被迷倒吧🤩\n藤编,羊皮革衬里,肩背和手提,TRIOMPHE金属锁扣,3个内侧隔层,1个内侧拉链口袋,1个内侧扁平口袋,皮革提手长24cm\n尺寸:18.5x13x6cm\n编号:118053"},"price":null,"currency":"CNY","moq":1,"category":"celine-women-bags","status":"active","alibaba_url":null,"images":["https://xcimg.szwego.com/img/1a8dcad8/20250829/a1756405911165_7584.jpg","https://xcimg.szwego.com/img/1a8dcad8/20250829/a1756405910892_7147.jpg","https://xcimg.szwego.com/img/1a8dcad8/20250829/a1756405911117_1373.jpg","https://xcimg.szwego.com/img/1a8dcad8/20250829/a1756405910888_5728.jpg","https://xcimg.szwego.com/img/1a8dcad8/20250829/a1756405911277_5645.jpg","https://xcimg.szwego.com/img/1a8dcad8/20250829/a1756405912942_5061.jpg","https://xcimg.szwego.com/img/1a8dcad8/20250829/a1756405913054_4605.jpg","https://xcimg.szwego.com/img/1a8dcad8/20250829/a1756405913083_2558.jpg"],"created_at":"2026-05-20T03:16:24.426Z"},{"id":"item-19b344463176","sku":"_dmPmPE9Keid62G-9vlJhePE3o8qwtgW0IGWIP_Q","name_en":"CELINE26夏新款TRIOMPHE FOLIO手袋这只新款手袋牛皮款的就已经很美了","name_cn":"CELINE26夏新款TRIOMPHE FOLIO手袋这只新款手袋牛皮款的就已经很美了\n定制鳄鱼皮款更是变得更加精致高级\n可斜挎可腋下可手拎\n是鳄鱼皮手袋中无可挑剔的一款","specs":{"source":"wsxcme","sourceId":"_dmPmPE9Keid62G-9vlJhePE3o8qwtgW0IGWIP_Q","sourceTagId":47003106,"sourceTagName":"塞琳/女包","rawTitle":"CELINE26夏新款TRIOMPHE FOLIO手袋这只新款手袋牛皮款的就已经很美了\n定制鳄鱼皮款更是变得更加精致高级\n可斜挎可腋下可手拎\n是鳄鱼皮手袋中无可挑剔的一款"},"price":null,"currency":"CNY","moq":1,"category":"celine-women-bags","status":"active","alibaba_url":null,"images":["https://xcimg.szwego.com/img/1a8dcad8/20260416/a1776313994465_1183.jpg","https://xcimg.szwego.com/img/1a8dcad8/20260416/a1776313994465_0757.jpg","https://xcimg.szwego.com/img/1a8dcad8/20260416/a1776313994500_8221.jpg","https://xcimg.szwego.com/img/1a8dcad8/20260416/a1776313994465_2443.jpg","https://xcimg.szwego.com/img/1a8dcad8/20260416/a1776313994508_6441.jpg","https://xcimg.szwego.com/img/1a8dcad8/20260416/a1776313995435_0884.jpg"],"created_at":"2026-05-20T03:16:24.486Z"},{"id":"item-5c3848c929ea","sku":"_dyZyZ3Vt5Dikbw-5lzxvJ_5SzcGqOcA-mu7tUyg","name_en":"CELINE草编腋下来咯!","name_cn":"CELINE草编腋下来咯!\n材质:拉菲草\n在马达加斯加手工编织而成,自重超级轻,有经典的TRIOMPHE标识","specs":{"source":"wsxcme","sourceId":"_dyZyZ3Vt5Dikbw-5lzxvJ_5SzcGqOcA-mu7tUyg","sourceTagId":47003106,"sourceTagName":"塞琳/女包","rawTitle":"CELINE草编腋下来咯!\n材质:拉菲草\n在马达加斯加手工编织而成,自重超级轻,有经典的TRIOMPHE标识"},"price":null,"currency":"CNY","moq":1,"category":"celine-women-bags","status":"active","alibaba_url":null,"images":["https://xcimg.szwego.com/img/1a8dcad8/20250829/a1756406684033_0567.jpg","https://xcimg.szwego.com/img/1a8dcad8/20250829/a1756406684078_6813.jpg","https://xcimg.szwego.com/img/1a8dcad8/20250829/a1756406684080_2068.jpg"],"created_at":"2026-05-20T03:16:24.406Z"}],"page":251,"pageSize":24,"total":10075,"totalPages":420}
