{"items":[{"id":"item-fa5cd7cf9f13","sku":"_djzjznvvUEq9skR4sQ_35UEwOGGhccche3LYd5w","name_en":"现货:Garden part(花园包)30cm 进口TC皮拼密织布 杏色拼锡器灰 银扣蜡线","name_cn":"现货:Garden part(花园包)30cm 进口TC皮拼密织布 杏色拼锡器灰 银扣蜡线","specs":{"source":"wsxcme","sourceId":"_djzjznvvUEq9skR4sQ_35UEwOGGhccche3LYd5w","sourceTagId":76963559,"sourceTagName":"爱马仕/女包","rawTitle":"现货:Garden part(花园包)30cm 进口TC皮拼密织布 杏色拼锡器灰 银扣蜡线"},"price":null,"currency":"CNY","moq":1,"category":"hermes-women-bags","status":"active","alibaba_url":null,"images":["https://xcimg.szwego.com/20230720/i1689846421_5595_0.jpg","https://xcimg.szwego.com/20230720/i1689846421_6496_1.jpg","https://xcimg.szwego.com/20230720/i1689846421_6880_2.jpg","https://xcimg.szwego.com/20230720/i1689846421_4196_3.jpg","https://xcimg.szwego.com/20230720/i1689846421_9121_4.jpg","https://xcimg.szwego.com/20230720/i1689846421_8724_5.jpg","https://xcimg.szwego.com/20230720/i1689846421_8563_6.jpg","https://xcimg.szwego.com/20230720/i1689846421_1791_7.jpg","https://xcimg.szwego.com/20230720/i1689846421_1670_8.jpg"],"created_at":"2024-10-22T05:00:12.149Z"},{"id":"item-f6f901a5533a","sku":"_d9s9sxtI9pjNIxL74-S9JDtpYLJL_V7Thg1A2oA","name_en":"现货!Chanel Cerf 新款托特包","name_cn":"现货!Chanel Cerf 新款托特包\n香奈儿2026 新款cerf托特包,\n以极简设计演绎永恒优雅。\n精选细腻压纹牛皮打造,\n标志性双C金扣点缀包身,经典永不过时。\n简约大气的托特版型,单肩背负毫无压力,\n适合各种穿搭风格。职场通勤打造干练气场,\n还是日常出行彰显高级品味,\n这只cerf托特都是香奈儿女孩的不二之选,\n将实用与奢华完美融合。卖过的都懂,\n太多太多人好评了\n尺寸39*20*13cm\n款号AS6243\n98105076","specs":{"source":"wsxcme","sourceId":"_d9s9sxtI9pjNIxL74-S9JDtpYLJL_V7Thg1A2oA","sourceTagId":47002745,"sourceTagName":"香奈儿/女包","modelNumber":"AS6243","dimensions":{"lengthCm":39,"heightCm":20,"widthCm":13},"rawTitle":"现货!Chanel Cerf 新款托特包\n香奈儿2026 新款cerf托特包,\n以极简设计演绎永恒优雅。\n精选细腻压纹牛皮打造,\n标志性双C金扣点缀包身,经典永不过时。\n简约大气的托特版型,单肩背负毫无压力,\n适合各种穿搭风格。职场通勤打造干练气场,\n还是日常出行彰显高级品味,\n这只cerf托特都是香奈儿女孩的不二之选,\n将实用与奢华完美融合。卖过的都懂,\n太多太多人好评了\n尺寸39*20*13cm\n款号AS6243\n98105076"},"price":null,"currency":"CNY","moq":1,"category":"chanel-women-bags","status":"active","alibaba_url":null,"images":["https://xcimg.szwego.com/img/fbe1a617/20260602/i1780405628636_1232_0_0.jpg","https://xcimg.szwego.com/img/fbe1a617/20260602/i1780405630264_342_0_1.jpg","https://xcimg.szwego.com/img/fbe1a617/20260602/i1780405630369_1261_0_2.jpg","https://xcimg.szwego.com/img/fbe1a617/20260602/i1780405628597_3084_0_3.jpg","https://xcimg.szwego.com/img/fbe1a617/20260602/i1780405631413_7579_0_4.jpg","https://xcimg.szwego.com/img/fbe1a617/20260602/i1780405631348_8443_0_5.jpg","https://xcimg.szwego.com/img/fbe1a617/20260602/i1780405630374_1625_0_6.jpg","https://xcimg.szwego.com/img/fbe1a617/20260602/i1780405631297_439_0_7.jpg","https://xcimg.szwego.com/img/fbe1a617/20260602/i1780405628581_7770_0_8.jpg"],"created_at":"2026-06-29T10:35:34.444Z"},{"id":"item-958eb821ffd7","sku":"_dmAmA5k03vlC3vD2HySrs4TjcCNdd0uWS-J40xA","name_en":"现货!Chanel Cerf 新款托特包","name_cn":"现货!Chanel Cerf 新款托特包\n香奈儿2026 新款cerf托特包,\n以极简设计演绎永恒优雅。\n精选细腻压纹牛皮打造,\n标志性双C金扣点缀包身,经典永不过时。\n简约大气的托特版型,单肩背负毫无压力,\n适合各种穿搭风格。职场通勤打造干练气场,\n还是日常出行彰显高级品味,\n这只cerf托特都是香奈儿女孩的不二之选,\n将实用与奢华完美融合。卖过的都懂,\n太多太多人好评了\n尺寸39*20*13cm\n款号AS6243\n98105076","specs":{"source":"wsxcme","sourceId":"_dmAmA5k03vlC3vD2HySrs4TjcCNdd0uWS-J40xA","sourceTagId":47002745,"sourceTagName":"香奈儿/女包","modelNumber":"AS6243","dimensions":{"lengthCm":39,"heightCm":20,"widthCm":13},"rawTitle":"现货!Chanel Cerf 新款托特包\n香奈儿2026 新款cerf托特包,\n以极简设计演绎永恒优雅。\n精选细腻压纹牛皮打造,\n标志性双C金扣点缀包身,经典永不过时。\n简约大气的托特版型,单肩背负毫无压力,\n适合各种穿搭风格。职场通勤打造干练气场,\n还是日常出行彰显高级品味,\n这只cerf托特都是香奈儿女孩的不二之选,\n将实用与奢华完美融合。卖过的都懂,\n太多太多人好评了\n尺寸39*20*13cm\n款号AS6243\n98105076"},"price":null,"currency":"CNY","moq":1,"category":"chanel-women-bags","status":"active","alibaba_url":null,"images":["https://xcimg.szwego.com/img/fbe1a617/20260602/i1780406469417_8683_0_0.jpg","https://xcimg.szwego.com/img/fbe1a617/20260602/i1780406467805_1565_0_1.jpg","https://xcimg.szwego.com/img/fbe1a617/20260602/i1780406470293_8075_0_2.jpg","https://xcimg.szwego.com/img/fbe1a617/20260602/i1780406467796_3853_0_3.jpg","https://xcimg.szwego.com/img/fbe1a617/20260602/i1780406468083_5027_0_4.jpg","https://xcimg.szwego.com/img/fbe1a617/20260602/i1780406469510_3012_0_5.jpg","https://xcimg.szwego.com/img/fbe1a617/20260602/i1780406469460_5496_0_6.jpg","https://xcimg.szwego.com/img/fbe1a617/20260602/i1780406470385_7073_0_7.jpg","https://xcimg.szwego.com/img/fbe1a617/20260602/i1780406470243_8644_0_8.jpg"],"created_at":"2026-06-29T10:35:34.464Z"},{"id":"item-49f32a6eaf78","sku":"_db3b362pKWGPXhaDHHI8TjouaxwRrag8Nk3A6yg","name_en":"现货!Chanel Cerf 新款托特包","name_cn":"现货!Chanel Cerf 新款托特包\n香奈儿2026 新款cerf托特包,\n以极简设计演绎永恒优雅。\n精选细腻压纹牛皮打造,\n标志性双C金扣点缀包身,经典永不过时。\n简约大气的托特版型,单肩背负毫无压力,\n适合各种穿搭风格。职场通勤打造干练气场,\n还是日常出行彰显高级品味,\n这只cerf托特都是香奈儿女孩的不二之选,\n将实用与奢华完美融合。卖过的都懂,\n太多太多人好评了\n尺寸39*20*13cm\n款号AS6243\n98105076","specs":{"source":"wsxcme","sourceId":"_db3b362pKWGPXhaDHHI8TjouaxwRrag8Nk3A6yg","sourceTagId":47002745,"sourceTagName":"香奈儿/女包","modelNumber":"AS6243","dimensions":{"lengthCm":39,"heightCm":20,"widthCm":13},"rawTitle":"现货!Chanel Cerf 新款托特包\n香奈儿2026 新款cerf托特包,\n以极简设计演绎永恒优雅。\n精选细腻压纹牛皮打造,\n标志性双C金扣点缀包身,经典永不过时。\n简约大气的托特版型,单肩背负毫无压力,\n适合各种穿搭风格。职场通勤打造干练气场,\n还是日常出行彰显高级品味,\n这只cerf托特都是香奈儿女孩的不二之选,\n将实用与奢华完美融合。卖过的都懂,\n太多太多人好评了\n尺寸39*20*13cm\n款号AS6243\n98105076"},"price":null,"currency":"CNY","moq":1,"category":"chanel-women-bags","status":"active","alibaba_url":null,"images":["https://xcimg.szwego.com/img/fbe1a617/20260602/i1780404856314_572_0_0.jpg","https://xcimg.szwego.com/img/fbe1a617/20260602/i1780404857421_4789_0_1.jpg","https://xcimg.szwego.com/img/fbe1a617/20260602/i1780404854643_1758_0_2.jpg","https://xcimg.szwego.com/img/fbe1a617/20260602/i1780404856428_2736_0_3.jpg","https://xcimg.szwego.com/img/fbe1a617/20260602/i1780404857464_8731_0_4.jpg","https://xcimg.szwego.com/img/fbe1a617/20260602/i1780404856237_1357_0_5.jpg","https://xcimg.szwego.com/img/fbe1a617/20260602/i1780404854708_4206_0_6.jpg","https://xcimg.szwego.com/img/fbe1a617/20260602/i1780404854776_8404_0_7.jpg","https://xcimg.szwego.com/img/fbe1a617/20260602/i1780404858049_3772_0_8.jpg"],"created_at":"2026-06-29T10:35:34.414Z"},{"id":"item-bc7b02fed81b","sku":"_d-H-HbRqf7XYub3vTGCy-Hoa3ayxagS_qQGzBdg","name_en":"现货✨ BK25黑金","name_cn":"现货✨ BK25黑金\nTogo皮铂金25cm\n全手缝蜡线 全钢五金 内里山羊皮","specs":{"source":"wsxcme","sourceId":"_d-H-HbRqf7XYub3vTGCy-Hoa3ayxagS_qQGzBdg","sourceTagId":76963559,"sourceTagName":"爱马仕/女包","rawTitle":"现货✨ BK25黑金\nTogo皮铂金25cm\n全手缝蜡线 全钢五金 内里山羊皮"},"price":null,"currency":"CNY","moq":1,"category":"hermes-women-bags","status":"active","alibaba_url":null,"images":["https://xcimg.szwego.com/img/9ee4266d/20240614/i1718350974_5027_1.jpg","https://xcimg.szwego.com/img/9ee4266d/20240614/i1718350975_953_7.jpg","https://xcimg.szwego.com/img/9ee4266d/20240614/i1718350974_88_0.jpg","https://xcimg.szwego.com/img/9ee4266d/20240614/i1718350974_9717_2.jpg","https://xcimg.szwego.com/img/9ee4266d/20240614/i1718350974_2418_3.jpg","https://xcimg.szwego.com/img/9ee4266d/20240614/i1718350975_5065_8.jpg","https://xcimg.szwego.com/img/9ee4266d/20240614/i1718350974_4698_4.jpg","https://xcimg.szwego.com/img/9ee4266d/20240614/i1718350974_4696_5.jpg","https://xcimg.szwego.com/img/9ee4266d/20240614/i1718350974_4019_6.jpg"],"created_at":"2024-10-22T04:43:02.186Z"},{"id":"item-1c665edece7e","sku":"_dFbFbTmQUgaQF4JiCljd9JLbqho7KrbQKszd5SA","name_en":"现货✨ BK25黑银","name_cn":"现货✨ BK25黑银\nTogo皮铂金25cm\n全手缝蜡线 全钢五金 内里山羊皮","specs":{"source":"wsxcme","sourceId":"_dFbFbTmQUgaQF4JiCljd9JLbqho7KrbQKszd5SA","sourceTagId":76963559,"sourceTagName":"爱马仕/女包","rawTitle":"现货✨ BK25黑银\nTogo皮铂金25cm\n全手缝蜡线 全钢五金 内里山羊皮"},"price":null,"currency":"CNY","moq":1,"category":"hermes-women-bags","status":"active","alibaba_url":null,"images":["https://xcimg.szwego.com/img/9ee4266d/20240614/i1718350877_1045_7.jpg","https://xcimg.szwego.com/img/9ee4266d/20240614/i1718350876_4515_1.jpg","https://xcimg.szwego.com/img/9ee4266d/20240614/i1718350876_3802_2.jpg","https://xcimg.szwego.com/img/9ee4266d/20240614/i1718350876_6864_3.jpg","https://xcimg.szwego.com/img/9ee4266d/20240614/i1718350876_9514_5.jpg","https://xcimg.szwego.com/img/9ee4266d/20240614/i1718350876_1314_4.jpg","https://xcimg.szwego.com/img/9ee4266d/20240614/i1718350876_5379_0.jpg","https://xcimg.szwego.com/img/9ee4266d/20240614/i1718350877_5334_8.jpg","https://xcimg.szwego.com/img/9ee4266d/20240614/i1718350877_97_6.jpg"],"created_at":"2024-10-22T04:43:02.185Z"},{"id":"item-d09062fc22fa","sku":"_dsQsQutRagqcZWR5PedxJJgQ0z6Xa2pezvDeUOA","name_en":"现货✨ BK25金棕","name_cn":"现货✨ BK25金棕\nTogo皮铂金25cm\n全手缝蜡线 全钢五金 内里山羊皮","specs":{"source":"wsxcme","sourceId":"_dsQsQutRagqcZWR5PedxJJgQ0z6Xa2pezvDeUOA","sourceTagId":76963559,"sourceTagName":"爱马仕/女包","rawTitle":"现货✨ BK25金棕\nTogo皮铂金25cm\n全手缝蜡线 全钢五金 内里山羊皮"},"price":null,"currency":"CNY","moq":1,"category":"hermes-women-bags","status":"active","alibaba_url":null,"images":["https://xcimg.szwego.com/img/9ee4266d/20240614/i1718359721_4869_2.jpg","https://xcimg.szwego.com/img/9ee4266d/20240614/i1718359721_7807_7.jpg","https://xcimg.szwego.com/img/9ee4266d/20240614/i1718359721_7495_5.jpg","https://xcimg.szwego.com/img/9ee4266d/20240614/i1718359721_6663_6.jpg","https://xcimg.szwego.com/img/9ee4266d/20240614/i1718359721_2241_4.jpg","https://xcimg.szwego.com/img/9ee4266d/20240614/i1718359721_8876_0.jpg","https://xcimg.szwego.com/img/9ee4266d/20240614/i1718359721_339_1.jpg","https://xcimg.szwego.com/img/9ee4266d/20240614/i1718359721_6224_3.jpg","https://xcimg.szwego.com/img/9ee4266d/20240614/i1718359729_6045_0.jpg"],"created_at":"2024-10-22T04:43:02.184Z"},{"id":"item-b3ea160f8e31","sku":"_dA8A8WomwJsDb-4enJMy-csM2RbmP2FXAK7Fliw","name_en":"现货✨ BK25金棕","name_cn":"现货✨ BK25金棕\nTogo皮铂金25cm\n全手缝蜡线 全钢五金 内里山羊皮","specs":{"source":"wsxcme","sourceId":"_dA8A8WomwJsDb-4enJMy-csM2RbmP2FXAK7Fliw","sourceTagId":76963559,"sourceTagName":"爱马仕/女包","rawTitle":"现货✨ BK25金棕\nTogo皮铂金25cm\n全手缝蜡线 全钢五金 内里山羊皮"},"price":null,"currency":"CNY","moq":1,"category":"hermes-women-bags","status":"active","alibaba_url":null,"images":["https://xcimg.szwego.com/img/9ee4266d/20240614/i1718359704_9430_3.jpg","https://xcimg.szwego.com/img/9ee4266d/20240614/i1718359704_907_2.jpg","https://xcimg.szwego.com/img/9ee4266d/20240614/i1718359704_3492_7.jpg","https://xcimg.szwego.com/img/9ee4266d/20240614/i1718359704_5953_1.jpg","https://xcimg.szwego.com/img/9ee4266d/20240614/i1718359704_9429_6.jpg","https://xcimg.szwego.com/img/9ee4266d/20240614/i1718359704_9422_4.jpg","https://xcimg.szwego.com/img/9ee4266d/20240614/i1718359704_2765_5.jpg","https://xcimg.szwego.com/img/9ee4266d/20240614/i1718359704_1940_8.jpg","https://xcimg.szwego.com/img/9ee4266d/20240614/i1718359704_6992_0.jpg"],"created_at":"2024-10-22T04:43:02.183Z"},{"id":"item-94763c36bf9b","sku":"_dvYvYKg9aAyvLzjpTIiUXUCysCdJ47AunswcXdw","name_en":"现货✨ BK25奶昔白","name_cn":"现货✨ BK25奶昔白\nTogo皮铂金25cm\n全手缝蜡线 全钢五金 内里山羊皮","specs":{"source":"wsxcme","sourceId":"_dvYvYKg9aAyvLzjpTIiUXUCysCdJ47AunswcXdw","sourceTagId":76963559,"sourceTagName":"爱马仕/女包","rawTitle":"现货✨ BK25奶昔白\nTogo皮铂金25cm\n全手缝蜡线 全钢五金 内里山羊皮"},"price":null,"currency":"CNY","moq":1,"category":"hermes-women-bags","status":"active","alibaba_url":null,"images":["https://xcimg.szwego.com/img/9ee4266d/20240614/i1718359764_5764_0.jpg","https://xcimg.szwego.com/img/9ee4266d/20240614/i1718359764_8767_0.jpg","https://xcimg.szwego.com/img/9ee4266d/20240614/i1718359764_4347_0.jpg","https://xcimg.szwego.com/img/9ee4266d/20240614/i1718359764_9167_0.jpg","https://xcimg.szwego.com/img/9ee4266d/20240614/i1718359764_6090_0.jpg","https://xcimg.szwego.com/img/9ee4266d/20240614/i1718359764_1030_0.jpg","https://xcimg.szwego.com/img/9ee4266d/20240614/i1718359764_8454_0.jpg","https://xcimg.szwego.com/img/9ee4266d/20240614/i1718359764_4661_0.jpg","https://xcimg.szwego.com/img/9ee4266d/20240614/i1718359764_7220_0.jpg"],"created_at":"2024-10-22T04:43:02.181Z"},{"id":"item-6d61602993c7","sku":"_dNYNY2SykAjewc0yi1A5brTWY3_FMDal0LrHkDg","name_en":"现货✨BK25","name_cn":"现货✨BK25\nTogo皮铂金25cm\n全手缝蜡线 全钢五金 内里山羊皮","specs":{"source":"wsxcme","sourceId":"_dNYNY2SykAjewc0yi1A5brTWY3_FMDal0LrHkDg","sourceTagId":76963559,"sourceTagName":"爱马仕/女包","rawTitle":"现货✨BK25\nTogo皮铂金25cm\n全手缝蜡线 全钢五金 内里山羊皮"},"price":null,"currency":"CNY","moq":1,"category":"hermes-women-bags","status":"active","alibaba_url":null,"images":["https://xcimg.szwego.com/img/9ee4266d/20240608/i1717840846_9816_7.jpg","https://xcimg.szwego.com/img/9ee4266d/20240608/i1717840846_5215_1.jpg","https://xcimg.szwego.com/img/9ee4266d/20240608/i1717840846_8149_8.jpg","https://xcimg.szwego.com/img/9ee4266d/20240608/i1717840846_1296_2.jpg","https://xcimg.szwego.com/img/9ee4266d/20240608/i1717840846_9235_3.jpg","https://xcimg.szwego.com/img/9ee4266d/20240608/i1717840846_1490_0.jpg","https://xcimg.szwego.com/img/9ee4266d/20240608/i1717840846_1301_4.jpg","https://xcimg.szwego.com/img/9ee4266d/20240608/i1717840846_3454_6.jpg","https://xcimg.szwego.com/img/9ee4266d/20240608/i1717840846_5227_5.jpg"],"created_at":"2024-10-22T04:43:02.187Z"},{"id":"item-12d3815f493d","sku":"_db2b2AEft8lrQJcGcmFVWNPumtKkWuD1YeuLy0Q","name_en":"现货✨BK25  Togo皮","name_cn":"现货✨BK25  Togo皮\nTogo皮铂金25cm\n全手缝蜡线 全钢五金 内里山羊皮","specs":{"source":"wsxcme","sourceId":"_db2b2AEft8lrQJcGcmFVWNPumtKkWuD1YeuLy0Q","sourceTagId":76963559,"sourceTagName":"爱马仕/女包","rawTitle":"现货✨BK25  Togo皮\nTogo皮铂金25cm\n全手缝蜡线 全钢五金 内里山羊皮"},"price":null,"currency":"CNY","moq":1,"category":"hermes-women-bags","status":"active","alibaba_url":null,"images":["https://xcimg.szwego.com/img/9ee4266d/20240528/i1716872441_6943_0.jpg","https://xcimg.szwego.com/img/9ee4266d/20240528/i1716867890_5259_5.jpg","https://xcimg.szwego.com/img/9ee4266d/20240528/i1716867890_7753_6.jpg","https://xcimg.szwego.com/img/9ee4266d/20240528/i1716872159_5715_1.jpg","https://xcimg.szwego.com/img/9ee4266d/20240528/i1716872159_8563_0.jpg","https://xcimg.szwego.com/img/9ee4266d/20240528/i1716872204_1536_0.jpg","https://xcimg.szwego.com/img/9ee4266d/20240528/i1716886349_9785_0.jpg","https://xcimg.szwego.com/img/9ee4266d/20240528/i1716872778_5576_0.jpg","https://xcimg.szwego.com/img/9ee4266d/20240528/i1716873178_1353_0.jpg"],"created_at":"2024-10-22T04:43:02.189Z"},{"id":"item-0e3795667559","sku":"_dh8h85rx9A27JoeQ3xIJnHzKhN4fnoJ9fcg4V1w","name_en":"现货✨BK25大象灰","name_cn":"现货✨BK25大象灰\nTogo皮铂金25cm\n全手缝蜡线 全钢五金 内里山羊皮","specs":{"source":"wsxcme","sourceId":"_dh8h85rx9A27JoeQ3xIJnHzKhN4fnoJ9fcg4V1w","sourceTagId":76963559,"sourceTagName":"爱马仕/女包","rawTitle":"现货✨BK25大象灰\nTogo皮铂金25cm\n全手缝蜡线 全钢五金 内里山羊皮"},"price":null,"currency":"CNY","moq":1,"category":"hermes-women-bags","status":"active","alibaba_url":null,"images":["https://xcimg.szwego.com/img/9ee4266d/20240608/i1717826920_7455_0.jpg","https://xcimg.szwego.com/img/9ee4266d/20240608/i1717826920_5908_2.jpg","https://xcimg.szwego.com/img/9ee4266d/20240608/i1717826920_4180_1.jpg","https://xcimg.szwego.com/img/9ee4266d/20240608/i1717826920_1482_6.jpg","https://xcimg.szwego.com/img/9ee4266d/20240608/i1717826920_513_3.jpg","https://xcimg.szwego.com/img/9ee4266d/20240608/i1717826920_7128_4.jpg","https://xcimg.szwego.com/img/9ee4266d/20240608/i1717826920_1321_5.jpg","https://xcimg.szwego.com/img/9ee4266d/20240608/i1717826921_3540_7.jpg","https://xcimg.szwego.com/img/9ee4266d/20240608/i1717826921_1160_8.jpg"],"created_at":"2024-10-22T04:43:02.188Z"},{"id":"item-50dca776b9bf","sku":"_duSuSImMMqTM-03ZWsEk8qoooaXV2CAOZrI5PzA","name_en":"现货✨BK25奶昔白","name_cn":"现货✨BK25奶昔白\nTogo皮铂金25cm\n全手缝蜡线 全钢五金 内里山羊皮","specs":{"source":"wsxcme","sourceId":"_duSuSImMMqTM-03ZWsEk8qoooaXV2CAOZrI5PzA","sourceTagId":76963559,"sourceTagName":"爱马仕/女包","rawTitle":"现货✨BK25奶昔白\nTogo皮铂金25cm\n全手缝蜡线 全钢五金 内里山羊皮"},"price":null,"currency":"CNY","moq":1,"category":"hermes-women-bags","status":"active","alibaba_url":null,"images":["https://xcimg.szwego.com/img/9ee4266d/20240612/i1718189958_9721_8.jpg","https://xcimg.szwego.com/img/9ee4266d/20240612/i1718189958_7963_4.jpg","https://xcimg.szwego.com/img/9ee4266d/20240612/i1718189958_9655_0.jpg","https://xcimg.szwego.com/img/9ee4266d/20240612/i1718189958_290_3.jpg","https://xcimg.szwego.com/img/9ee4266d/20240612/i1718189958_4566_1.jpg","https://xcimg.szwego.com/img/9ee4266d/20240612/i1718189958_1957_2.jpg","https://xcimg.szwego.com/img/9ee4266d/20240612/i1718189958_7642_5.jpg","https://xcimg.szwego.com/img/9ee4266d/20240612/i1718189958_9164_6.jpg","https://xcimg.szwego.com/img/9ee4266d/20240612/i1718189958_8179_7.jpg"],"created_at":"2024-10-22T04:43:02.182Z"},{"id":"item-830c673df338","sku":"_dtotoxNYSmgvvk5-XiJYmiAm2K1OLWncdLcMCgQ","name_en":"现货🔥百搭千鸟格baguette刺绣FF高级感十足~内里全千鸟格设计别有一番风味!!搭配两条胶肩带方便使用~","name_cn":"现货🔥百搭千鸟格baguette刺绣FF高级感十足~内里全千鸟格设计别有一番风味!!搭配两条胶肩带方便使用~\n款号600M尺寸27x6.5x15cm108F棕色","specs":{"source":"wsxcme","sourceId":"_dtotoxNYSmgvvk5-XiJYmiAm2K1OLWncdLcMCgQ","sourceTagId":47002731,"sourceTagName":"芬迪/女包","modelNumber":"600M尺寸27x6.5x15cm108F棕色","dimensions":{"lengthCm":27,"heightCm":6.5,"widthCm":15},"rawTitle":"现货🔥百搭千鸟格baguette刺绣FF高级感十足~内里全千鸟格设计别有一番风味!!搭配两条胶肩带方便使用~\n款号600M尺寸27x6.5x15cm108F棕色"},"price":null,"currency":"CNY","moq":1,"category":"fendi-women-bags","status":"active","alibaba_url":null,"images":["https://xcimg.szwego.com/20220923/i1663925042_4335_0.jpg","https://xcimg.szwego.com/20220923/i1663925042_3732_1.jpg","https://xcimg.szwego.com/20220923/i1663925042_1273_2.jpg","https://xcimg.szwego.com/20220923/i1663925042_1615_3.jpg","https://xcimg.szwego.com/20220923/i1663925042_9769_4.jpg","https://xcimg.szwego.com/20220923/i1663925042_8725_5.jpg","https://xcimg.szwego.com/20220923/i1663925042_4429_6.jpg","https://xcimg.szwego.com/20220923/i1663925042_4224_7.jpg","https://xcimg.szwego.com/20220923/i1663925042_8386_8.jpg"],"created_at":"2026-06-29T10:22:08.912Z"},{"id":"item-1b54d057c2ea","sku":"_dllllKPhdwD2CN94bDW-FrGOMgsqyfPx0lM6zrA","name_en":"现货🔥新款折叠包Origami  经典进口荔枝牛皮材质搭搭,灵感源自于折纸艺术,可随意变化包型,隐藏式磁扣保证物品的安全,也更加美观,打开是一个tote的样式,折起来是个水桶包,创意与实用美相结合","name_cn":"现货🔥新款折叠包Origami  经典进口荔枝牛皮材质搭搭,灵感源自于折纸艺术,可随意变化包型,隐藏式磁扣保证物品的安全,也更加美观,打开是一个tote的样式,折起来是个水桶包,创意与实用美相结合\n款号:848  尺寸27/15/27","specs":{"source":"wsxcme","sourceId":"_dllllKPhdwD2CN94bDW-FrGOMgsqyfPx0lM6zrA","sourceTagId":47002731,"sourceTagName":"芬迪/女包","modelNumber":"848  尺寸27/15/27","rawTitle":"现货🔥新款折叠包Origami  经典进口荔枝牛皮材质搭搭,灵感源自于折纸艺术,可随意变化包型,隐藏式磁扣保证物品的安全,也更加美观,打开是一个tote的样式,折起来是个水桶包,创意与实用美相结合\n款号:848  尺寸27/15/27"},"price":null,"currency":"CNY","moq":1,"category":"fendi-women-bags","status":"active","alibaba_url":null,"images":["https://xcimg.szwego.com/20230908/i1694142486_3481_0.jpg","https://xcimg.szwego.com/20230908/i1694142486_2368_1.jpg","https://xcimg.szwego.com/20230908/i1694142486_4952_2.jpg","https://xcimg.szwego.com/20230908/i1694142486_3917_3.jpg","https://xcimg.szwego.com/20230908/i1694142486_2475_4.jpg","https://xcimg.szwego.com/20230908/i1694142486_3295_5.jpg","https://xcimg.szwego.com/20230908/i1694142486_4297_6.jpg","https://xcimg.szwego.com/20230908/i1694142486_1809_7.jpg","https://xcimg.szwego.com/20230908/i1694142486_2090_8.jpg"],"created_at":"2025-02-10T14:02:44.850Z"},{"id":"item-c2e3a8a18c5a","sku":"_deIeI9I3CeJ485F6AGCBOr2Q1M3_bPR6C0e_pcQ","name_en":"现货🔥新款折叠包Origami  经典老花材质搭配FF字样,灵感源自于折纸艺术,可随意变化包型,隐藏式磁扣保证物品的安全,也更加美观,打开是一个tote的样式,折起来是个水桶包,创意与实用美相结合","name_cn":"现货🔥新款折叠包Origami  经典老花材质搭配FF字样,灵感源自于折纸艺术,可随意变化包型,隐藏式磁扣保证物品的安全,也更加美观,打开是一个tote的样式,折起来是个水桶包,创意与实用美相结合\n款号:848  尺寸27/15/27","specs":{"source":"wsxcme","sourceId":"_deIeI9I3CeJ485F6AGCBOr2Q1M3_bPR6C0e_pcQ","sourceTagId":47002731,"sourceTagName":"芬迪/女包","modelNumber":"848  尺寸27/15/27","rawTitle":"现货🔥新款折叠包Origami  经典老花材质搭配FF字样,灵感源自于折纸艺术,可随意变化包型,隐藏式磁扣保证物品的安全,也更加美观,打开是一个tote的样式,折起来是个水桶包,创意与实用美相结合\n款号:848  尺寸27/15/27"},"price":null,"currency":"CNY","moq":1,"category":"fendi-women-bags","status":"active","alibaba_url":null,"images":["https://xcimg.szwego.com/20230908/i1694142099_9268_0.jpg","https://xcimg.szwego.com/20230908/i1694142099_2775_1.jpg","https://xcimg.szwego.com/20230908/i1694142099_4116_2.jpg","https://xcimg.szwego.com/20230908/i1694142099_7149_3.jpg","https://xcimg.szwego.com/20230908/i1694142099_6453_4.jpg","https://xcimg.szwego.com/20230908/i1694142099_4451_5.jpg","https://xcimg.szwego.com/20230908/i1694142099_4594_6.jpg","https://xcimg.szwego.com/20230908/i1694142099_5732_7.jpg"],"created_at":"2025-02-10T14:02:44.849Z"},{"id":"item-1e0026c7a3d9","sku":"_dyIyIwi8JDlkVDPXXqvsDdH6X22Rdf5sDxRQVHA","name_en":"现货🔥Versace by Fendi系列的标志性方形Baguette迷你手袋。金色皮革材质,饰有FF图案金色激光打孔效果,风格类似Versace金属网眼。前翻盖上饰有三枚Medusa金属别针装饰。FF封口饰有别针。磁扣、FF布料衬里内部隔层,有内袋和金色饰面金属件。配有长手柄和可拆卸式肩带,可在腋下背携或斜跨。8BS066LM900","name_cn":"现货🔥Versace by Fendi系列的标志性方形Baguette迷你手袋。金色皮革材质,饰有FF图案金色激光打孔效果,风格类似Versace金属网眼。前翻盖上饰有三枚Medusa金属别针装饰。FF封口饰有别针。磁扣、FF布料衬里内部隔层,有内袋和金色饰面金属件。配有长手柄和可拆卸式肩带,可在腋下背携或斜跨。8BS066LM900\n尺寸:中号28*15*7cm","specs":{"source":"wsxcme","sourceId":"_dyIyIwi8JDlkVDPXXqvsDdH6X22Rdf5sDxRQVHA","sourceTagId":47002731,"sourceTagName":"芬迪/女包","rawTitle":"现货🔥Versace by Fendi系列的标志性方形Baguette迷你手袋。金色皮革材质,饰有FF图案金色激光打孔效果,风格类似Versace金属网眼。前翻盖上饰有三枚Medusa金属别针装饰。FF封口饰有别针。磁扣、FF布料衬里内部隔层,有内袋和金色饰面金属件。配有长手柄和可拆卸式肩带,可在腋下背携或斜跨。8BS066LM900\n尺寸:中号28*15*7cm"},"price":null,"currency":"CNY","moq":1,"category":"fendi-women-bags","status":"active","alibaba_url":null,"images":["https://xcimg.szwego.com/20220726/i1658818901_3713_0.jpg","https://xcimg.szwego.com/20220726/i1658818901_393_1.jpg","https://xcimg.szwego.com/20220726/i1658818901_2719_2.jpg","https://xcimg.szwego.com/20220726/i1658818901_409_3.jpg","https://xcimg.szwego.com/20220726/i1658818901_1006_4.jpg","https://xcimg.szwego.com/20220726/i1658818901_5784_5.jpg","https://xcimg.szwego.com/20220726/i1658818901_2383_6.jpg","https://xcimg.szwego.com/20220726/i1658818901_689_7.jpg","https://xcimg.szwego.com/20220726/i1658818901_4152_8.jpg"],"created_at":"2024-11-11T10:33:53.491Z"},{"id":"item-f77cd9063dbc","sku":"_diOiOUaRMnosJ70rDrNIQw3HHNx-mH_PZg0sqPw","name_en":"现货20cm","name_cn":"现货20cm \nFD 全新系列外缝 进口蟒蛇皮\n两个隔层方便实用~内里容量十足 配长肩带\nsize : 20x10×15cm","specs":{"source":"wsxcme","sourceId":"_diOiOUaRMnosJ70rDrNIQw3HHNx-mH_PZg0sqPw","sourceTagId":47002731,"sourceTagName":"芬迪/女包","rawTitle":"现货20cm \nFD 全新系列外缝 进口蟒蛇皮\n两个隔层方便实用~内里容量十足 配长肩带\nsize : 20x10×15cm"},"price":null,"currency":"CNY","moq":1,"category":"fendi-women-bags","status":"active","alibaba_url":null,"images":["https://xcimg.szwego.com/img/b73ab4f6/20240829/i1724890289_1691_3.jpg","https://xcimg.szwego.com/img/b73ab4f6/20240829/i1724890289_187_0.jpg","https://xcimg.szwego.com/img/b73ab4f6/20240829/i1724890289_4193_4.jpg","https://xcimg.szwego.com/img/b73ab4f6/20240829/i1724890289_264_1.jpg","https://xcimg.szwego.com/img/b73ab4f6/20240829/i1724890289_7440_2.jpg","https://xcimg.szwego.com/img/b73ab4f6/20240829/i1724890290_8960_5.jpg"],"created_at":"2025-02-10T14:02:44.795Z"},{"id":"item-b45a6db0f665","sku":"_dk9k9htlj60AsNdbNdTUK2HYWkUErQe4P8G3Qdw","name_en":"现货20cm","name_cn":"现货20cm \nFD 全新系列外缝 进口蟒蛇皮\n两个隔层方便实用~内里容量十足 配长肩带\nsize : 20x10×15cm","specs":{"source":"wsxcme","sourceId":"_dk9k9htlj60AsNdbNdTUK2HYWkUErQe4P8G3Qdw","sourceTagId":47002731,"sourceTagName":"芬迪/女包","rawTitle":"现货20cm \nFD 全新系列外缝 进口蟒蛇皮\n两个隔层方便实用~内里容量十足 配长肩带\nsize : 20x10×15cm"},"price":null,"currency":"CNY","moq":1,"category":"fendi-women-bags","status":"active","alibaba_url":null,"images":["https://xcimg.szwego.com/img/b73ab4f6/20240829/i1724890266_2662_0.jpg","https://xcimg.szwego.com/img/b73ab4f6/20240829/i1724890266_7523_2.jpg","https://xcimg.szwego.com/img/b73ab4f6/20240829/i1724890266_9923_1.jpg","https://xcimg.szwego.com/img/b73ab4f6/20240829/i1724890266_5719_4.jpg","https://xcimg.szwego.com/img/b73ab4f6/20240829/i1724890266_6711_5.jpg","https://xcimg.szwego.com/img/b73ab4f6/20240829/i1724890266_2938_3.jpg"],"created_at":"2025-02-10T14:02:44.794Z"},{"id":"item-9faa259486fb","sku":"_dcWcWTgafaUPJInNo9oaMqMJ13ccHNZ4igzmw-A","name_en":"现货20cm","name_cn":"现货20cm \nFD 全新系列外缝 进口蟒蛇皮\n两个隔层方便实用~内里容量十足 配长肩带\nsize : 20x10×15cm","specs":{"source":"wsxcme","sourceId":"_dcWcWTgafaUPJInNo9oaMqMJ13ccHNZ4igzmw-A","sourceTagId":47002731,"sourceTagName":"芬迪/女包","rawTitle":"现货20cm \nFD 全新系列外缝 进口蟒蛇皮\n两个隔层方便实用~内里容量十足 配长肩带\nsize : 20x10×15cm"},"price":null,"currency":"CNY","moq":1,"category":"fendi-women-bags","status":"active","alibaba_url":null,"images":["https://xcimg.szwego.com/img/b73ab4f6/20240829/i1724890051_2317_4.jpg","https://xcimg.szwego.com/img/b73ab4f6/20240829/i1724890051_5602_3.jpg","https://xcimg.szwego.com/img/b73ab4f6/20240829/i1724890051_2153_1.jpg","https://xcimg.szwego.com/img/b73ab4f6/20240829/i1724890051_6903_6.jpg","https://xcimg.szwego.com/img/b73ab4f6/20240829/i1724890051_7457_2.jpg","https://xcimg.szwego.com/img/b73ab4f6/20240829/i1724890051_1426_0.jpg","https://xcimg.szwego.com/img/b73ab4f6/20240829/i1724890051_5320_5.jpg"],"created_at":"2025-02-10T14:02:44.793Z"},{"id":"item-9eaec6c5d934","sku":"_dkBkBQp5QPaddr42pwFUQNTVMgPCKg4GDPyAXvw","name_en":"现货20cm","name_cn":"现货20cm \nFD 全新系列外缝 进口蟒蛇皮\n两个隔层方便实用~内里容量十足 配长肩带\nsize : 20x10×15cm","specs":{"source":"wsxcme","sourceId":"_dkBkBQp5QPaddr42pwFUQNTVMgPCKg4GDPyAXvw","sourceTagId":47002731,"sourceTagName":"芬迪/女包","rawTitle":"现货20cm \nFD 全新系列外缝 进口蟒蛇皮\n两个隔层方便实用~内里容量十足 配长肩带\nsize : 20x10×15cm"},"price":null,"currency":"CNY","moq":1,"category":"fendi-women-bags","status":"active","alibaba_url":null,"images":["https://xcimg.szwego.com/img/b73ab4f6/20240829/i1724890026_3871_1.jpg","https://xcimg.szwego.com/img/b73ab4f6/20240829/i1724890027_6502_4.jpg","https://xcimg.szwego.com/img/b73ab4f6/20240829/i1724890027_6785_3.jpg","https://xcimg.szwego.com/img/b73ab4f6/20240829/i1724890026_780_0.jpg","https://xcimg.szwego.com/img/b73ab4f6/20240829/i1724890026_319_2.jpg","https://xcimg.szwego.com/img/b73ab4f6/20240829/i1724890027_4265_5.jpg","https://xcimg.szwego.com/img/b73ab4f6/20240829/i1724890027_5463_6.jpg"],"created_at":"2025-02-10T14:02:44.792Z"},{"id":"item-1baba2528ee7","sku":"_dkAkAV2s0yhls8t0cDIe2RpwI3cGSrDlv3draqw","name_en":"现货20cm","name_cn":"现货20cm \nFD 全新系列外缝 进口蟒蛇皮\n两个隔层方便实用~内里容量十足 配长肩带\nsize : 20x10×15cm","specs":{"source":"wsxcme","sourceId":"_dkAkAV2s0yhls8t0cDIe2RpwI3cGSrDlv3draqw","sourceTagId":47002731,"sourceTagName":"芬迪/女包","rawTitle":"现货20cm \nFD 全新系列外缝 进口蟒蛇皮\n两个隔层方便实用~内里容量十足 配长肩带\nsize : 20x10×15cm"},"price":null,"currency":"CNY","moq":1,"category":"fendi-women-bags","status":"active","alibaba_url":null,"images":["https://xcimg.szwego.com/img/b73ab4f6/20240829/i1724890348_2449_0.jpg","https://xcimg.szwego.com/img/b73ab4f6/20240829/i1724890348_5004_1.jpg","https://xcimg.szwego.com/img/b73ab4f6/20240829/i1724890348_3752_4.jpg","https://xcimg.szwego.com/img/b73ab4f6/20240829/i1724890348_7066_3.jpg","https://xcimg.szwego.com/img/b73ab4f6/20240829/i1724890348_353_5.jpg","https://xcimg.szwego.com/img/b73ab4f6/20240829/i1724890348_1423_2.jpg","https://xcimg.szwego.com/img/b73ab4f6/20240829/i1724890348_5425_6.jpg"],"created_at":"2025-02-10T14:02:44.796Z"},{"id":"item-c7ef9c2e9de2","sku":"_dh9h9PHOR_1bnAyaQS1-wap_Z6j9iIxVsm-aDXw","name_en":"现货22创新总是不会让人失望,在原有的美感上融入力量与优雅的设计美学,便诞生了这款香奈儿流浪包(Gabrielle )。它初次亮相在2017春夏高级成衣系列发布会,而在刚结束的时装周上它的身影却无处不在,细腻柔软的袋身与硬朗挺阔的底部,充分体现了香奈儿女士追求自由舒适的精神。尺寸20cm","name_cn":"现货22创新总是不会让人失望,在原有的美感上融入力量与优雅的设计美学,便诞生了这款香奈儿流浪包(Gabrielle )。它初次亮相在2017春夏高级成衣系列发布会,而在刚结束的时装周上它的身影却无处不在,细腻柔软的袋身与硬朗挺阔的底部,充分体现了香奈儿女士追求自由舒适的精神。尺寸20cm","specs":{"source":"wsxcme","sourceId":"_dh9h9PHOR_1bnAyaQS1-wap_Z6j9iIxVsm-aDXw","sourceTagId":47002745,"sourceTagName":"香奈儿/女包","rawTitle":"现货22创新总是不会让人失望,在原有的美感上融入力量与优雅的设计美学,便诞生了这款香奈儿流浪包(Gabrielle )。它初次亮相在2017春夏高级成衣系列发布会,而在刚结束的时装周上它的身影却无处不在,细腻柔软的袋身与硬朗挺阔的底部,充分体现了香奈儿女士追求自由舒适的精神。尺寸20cm"},"price":null,"currency":"CNY","moq":1,"category":"chanel-women-bags","status":"active","alibaba_url":null,"images":["https://xcimg.szwego.com/20221101/i1667285736_2764_0.jpg","https://xcimg.szwego.com/20221101/i1667285736_5378_1.jpg","https://xcimg.szwego.com/20221101/i1667285736_7753_2.jpg","https://xcimg.szwego.com/20221101/i1667285736_8950_3.jpg","https://xcimg.szwego.com/20221101/i1667285736_5727_4.jpg","https://xcimg.szwego.com/20221101/i1667285736_1251_5.jpg","https://xcimg.szwego.com/20221101/i1667285736_6030_6.jpg","https://xcimg.szwego.com/20221101/i1667285736_5483_7.jpg","https://xcimg.szwego.com/20221101/i1667285736_6972_8.jpg"],"created_at":"2024-05-01T03:19:54.436Z"},{"id":"item-db5869d4ca2b","sku":"_dhthtQnVreYF4MzVrmJ5MiUiAXBQfTrTkd4j0-Q","name_en":"现货22k DUMA双肩小背包 女款背包 一眼爱上这个小牛皮,这个白不用担心了,耐脏喔!容量超感人~夏天的花洋装搭这个一定无敌仙女!冬天背也超仙🧚🏻‍♀️重点来了:视觉上体积只比方胖大一点点,背在身上超小巧可爱,容量却这么感人,手机、短夹、水瓶、伞,还有其他零碎小东西通通都可以超轻松装进,前面的磁扣可以放卡夹跟钥匙护唇膏,又仙又实用! 尺寸:18×18×","name_cn":"现货22k DUMA双肩小背包 女款背包 一眼爱上这个小牛皮,这个白不用担心了,耐脏喔!容量超感人~夏天的花洋装搭这个一定无敌仙女!冬天背也超仙🧚🏻‍♀️重点来了:视觉上体积只比方胖大一点点,背在身上超小巧可爱,容量却这么感人,手机、短夹、水瓶、伞,还有其他零碎小东西通通都可以超轻松装进,前面的磁扣可以放卡夹跟钥匙护唇膏,又仙又实用! 尺寸:18×18×12cm","specs":{"source":"wsxcme","sourceId":"_dhthtQnVreYF4MzVrmJ5MiUiAXBQfTrTkd4j0-Q","sourceTagId":47002745,"sourceTagName":"香奈儿/女包","dimensions":{"lengthCm":18,"heightCm":18,"widthCm":12},"rawTitle":"现货22k DUMA双肩小背包 女款背包 一眼爱上这个小牛皮,这个白不用担心了,耐脏喔!容量超感人~夏天的花洋装搭这个一定无敌仙女!冬天背也超仙🧚🏻‍♀️重点来了:视觉上体积只比方胖大一点点,背在身上超小巧可爱,容量却这么感人,手机、短夹、水瓶、伞,还有其他零碎小东西通通都可以超轻松装进,前面的磁扣可以放卡夹跟钥匙护唇膏,又仙又实用! 尺寸:18×18×12cm"},"price":null,"currency":"CNY","moq":1,"category":"chanel-women-bags","status":"active","alibaba_url":null,"images":["https://xcimg.szwego.com/20211130/i1638255841_5774_0.jpg","https://xcimg.szwego.com/20211130/i1638255841_4786_1.jpg","https://xcimg.szwego.com/20211130/i1638255841_4085_2.jpg","https://xcimg.szwego.com/20211130/i1638255841_1902_3.jpg","https://xcimg.szwego.com/20211130/i1638255841_8974_4.jpg","https://xcimg.szwego.com/20211130/i1638255841_4429_5.jpg","https://xcimg.szwego.com/20211130/i1638255841_2027_6.jpg","https://xcimg.szwego.com/20211130/i1638255841_7998_7.jpg","https://xcimg.szwego.com/20211130/i1638255841_5128_8.jpg"],"created_at":"2024-05-01T03:19:54.435Z"}],"page":186,"pageSize":24,"total":10075,"totalPages":420}
