{"items":[{"id":"item-b50af30543b4","sku":"_dvjvj3AYV_pLV5aP_uMpsqRlgZtdmZnU716b7aQ","name_en":"Chanel Women Bags","name_cn":"现货24春夏新款 \n牛仔以随性休闲著称,换上银色五金配色,焕然一新,瞬间年轻感爆棚,冲刺着青春与活力的气息,有春夏季节的清爽感...将简约舒适融为一体,为你打包整个春日🍃","specs":{"source":"wsxcme","sourceId":"_dvjvj3AYV_pLV5aP_uMpsqRlgZtdmZnU716b7aQ","sourceTagId":47002745,"sourceTagName":"香奈儿/女包","rawTitle":"现货24春夏新款 \n牛仔以随性休闲著称,换上银色五金配色,焕然一新,瞬间年轻感爆棚,冲刺着青春与活力的气息,有春夏季节的清爽感...将简约舒适融为一体,为你打包整个春日🍃"},"price":null,"currency":"CNY","moq":1,"category":"chanel-women-bags","status":"active","alibaba_url":null,"images":["https://xcimg.szwego.com/20240413/i1712946179_5727_0.jpg","https://xcimg.szwego.com/20240413/i1712946179_5358_1.jpg","https://xcimg.szwego.com/20240413/i1712946179_7818_2.jpg","https://xcimg.szwego.com/20240413/i1712946179_3962_3.jpg","https://xcimg.szwego.com/20240413/i1712946179_9640_4.jpg","https://xcimg.szwego.com/20240413/i1712946179_4308_5.jpg","https://xcimg.szwego.com/20240413/i1712946179_3269_6.jpg","https://xcimg.szwego.com/20240413/i1712946179_4717_7.jpg","https://xcimg.szwego.com/20240413/i1712946179_600_8.jpg"],"created_at":"2024-05-03T07:22:12.497Z"},{"id":"item-b4bef3a589d5","sku":"_dyqyqnEj4uW5PrerVtT_aT9LbBrXeQXTCQ38ufw","name_en":"Chanel Women Bags","name_cn":"原厂皮\n🌟新版本更新⭐️\nCHANE1  25s双金球盒子 新版金色内里\n香奈儿这季新品双金球我真的可 \n一眼就爱上了这个包包、经典黑金,两颗金珠,链条可调节长短 Sa有货赶紧冲这个包包我更喜欢手拎斜挎和单肩也可容量也可调节 。                                款号:66064  黑色                                           尺寸:17cm                                      \n配包装:","specs":{"source":"wsxcme","sourceId":"_dyqyqnEj4uW5PrerVtT_aT9LbBrXeQXTCQ38ufw","sourceTagId":47002745,"sourceTagName":"香奈儿/女包","modelNumber":"66064  黑色                                           尺寸:17cm","rawTitle":"原厂皮\n🌟新版本更新⭐️\nCHANE1  25s双金球盒子 新版金色内里\n香奈儿这季新品双金球我真的可 \n一眼就爱上了这个包包、经典黑金,两颗金珠,链条可调节长短 Sa有货赶紧冲这个包包我更喜欢手拎斜挎和单肩也可容量也可调节 。                                款号:66064  黑色                                           尺寸:17cm                                      \n配包装:"},"price":null,"currency":"CNY","moq":1,"category":"chanel-women-bags","status":"active","alibaba_url":null,"images":["https://xcimg.szwego.com/img/a5af95f4/20250813/i1755078954606_2007_0_0.jpg","https://xcimg.szwego.com/img/a5af95f4/20250813/i1755078954613_2202_0_1.jpg","https://xcimg.szwego.com/img/a5af95f4/20250813/i1755078954617_8715_0_2.jpg","https://xcimg.szwego.com/img/a5af95f4/20250813/i1755078954631_6616_0_3.jpg","https://xcimg.szwego.com/img/a5af95f4/20250813/i1755078956501_4275_0_4.jpg","https://xcimg.szwego.com/img/a5af95f4/20250813/i1755078956626_7995_0_5.jpg","https://xcimg.szwego.com/img/a5af95f4/20250813/i1755078954643_6922_0_6.jpg","https://xcimg.szwego.com/img/a5af95f4/20250813/i1755078956547_8369_0_7.jpg","https://xcimg.szwego.com/img/a5af95f4/20250813/i1755078956518_5819_0_8.jpg"],"created_at":"2025-09-09T05:20:40.194Z"},{"id":"item-b2416b833557","sku":"_dHbHbRq_S7VmX2FhNPLCrmXo4RcsnehmqWSl5QQ","name_en":"Chanel Women Bags","name_cn":"芯片▪️白金版 正品级 包装如图\n专柜售价53500rmb购入开发✃\n22p春夏新色系列〰️CF\n经典不止步,革新时尚让你眼前一亮\n颜值爆表了有木有❥☑️\n击中无数少女的心〰️☄︎\n集美们剁手也要拿下的包包🛒\n\n皮料:原厂进口小羊皮\n五金:全钢金扣\n尺寸:15.5*25.5*6.5cm","specs":{"source":"wsxcme","sourceId":"_dHbHbRq_S7VmX2FhNPLCrmXo4RcsnehmqWSl5QQ","sourceTagId":47002745,"sourceTagName":"香奈儿/女包","dimensions":{"lengthCm":15.5,"heightCm":25.5,"widthCm":6.5},"rawTitle":"芯片▪️白金版 正品级 包装如图\n专柜售价53500rmb购入开发✃\n22p春夏新色系列〰️CF\n经典不止步,革新时尚让你眼前一亮\n颜值爆表了有木有❥☑️\n击中无数少女的心〰️☄︎\n集美们剁手也要拿下的包包🛒\n\n皮料:原厂进口小羊皮\n五金:全钢金扣\n尺寸:15.5*25.5*6.5cm"},"price":null,"currency":"CNY","moq":1,"category":"chanel-women-bags","status":"active","alibaba_url":null,"images":["https://xcimg.szwego.com/20220609/i1654763524_4123_0.jpg","https://xcimg.szwego.com/20220609/i1654763524_1450_1.jpg","https://xcimg.szwego.com/20220609/i1654763524_6957_2.jpg","https://xcimg.szwego.com/20220609/i1654763524_5741_3.jpg","https://xcimg.szwego.com/20220609/i1654763524_6806_4.jpg","https://xcimg.szwego.com/20220609/i1654763524_4388_5.jpg","https://xcimg.szwego.com/20220609/i1654763524_7291_6.jpg","https://xcimg.szwego.com/20220609/i1654763524_6702_7.jpg","https://xcimg.szwego.com/20220609/i1654763524_6890_8.jpg"],"created_at":"2024-05-01T03:19:54.368Z"},{"id":"item-b115f4bc4036","sku":"_dp3p3n7HwrKc9q7RD5ZUZc1-Kp_fFxx3dZjED_g","name_en":"Chanel Women Bags","name_cn":"正品级\n🇫🇷AS5293CHANEL 25款又一个以年份命名的款, 25c球纹皮嘻哈包 香奈儿hobo 腋下包 嬉皮腋下包小号 复古金币纽扣抽绳水桶包+菱格纹+复古黑金 经典链条设计,高级感十足!日常出行必备,外观精美,质感细腻,无论休闲装还是正式场合都能轻松驾驭 尺寸:30x26x14cm","specs":{"source":"wsxcme","sourceId":"_dp3p3n7HwrKc9q7RD5ZUZc1-Kp_fFxx3dZjED_g","sourceTagId":47002745,"sourceTagName":"香奈儿/女包","dimensions":{"lengthCm":30,"heightCm":26,"widthCm":14},"rawTitle":"正品级\n🇫🇷AS5293CHANEL 25款又一个以年份命名的款, 25c球纹皮嘻哈包 香奈儿hobo 腋下包 嬉皮腋下包小号 复古金币纽扣抽绳水桶包+菱格纹+复古黑金 经典链条设计,高级感十足!日常出行必备,外观精美,质感细腻,无论休闲装还是正式场合都能轻松驾驭 尺寸:30x26x14cm"},"price":null,"currency":"CNY","moq":1,"category":"chanel-women-bags","status":"active","alibaba_url":null,"images":["https://xcimg.szwego.com/imgHD/b5cc9469/20250402/cmp_a1743591923888_2665.jpg","https://xcimg.szwego.com/imgHD/b5cc9469/20250402/cmp_a1743591923896_0844.jpg","https://xcimg.szwego.com/imgHD/b5cc9469/20250402/cmp_a1743591923899_8120.jpg","https://xcimg.szwego.com/imgHD/b5cc9469/20250402/cmp_a1743591923898_1363.jpg","https://xcimg.szwego.com/imgHD/b5cc9469/20250402/cmp_a1743591923894_3314.jpg","https://xcimg.szwego.com/imgHD/b5cc9469/20250402/cmp_a1743591925381_8411.jpg","https://xcimg.szwego.com/imgHD/b5cc9469/20250402/cmp_a1743591925380_5257.jpg","https://xcimg.szwego.com/imgHD/b5cc9469/20250402/cmp_a1743591925386_7348.jpg","https://xcimg.szwego.com/imgHD/b5cc9469/20250402/cmp_a1743591925385_6741.jpg"],"created_at":"2025-09-09T05:17:44.442Z"},{"id":"item-aed3fb81646b","sku":"_dn2n2bWClW-7eFhxXHP2d40cYvIVrnQmuMiZ79Q","name_en":"Chanel Women Bags","name_cn":"正品级\n🇫🇷AS5293CHANEL 25款又一个以年份命名的款, 25c球纹皮嘻哈包 香奈儿hobo 腋下包 嬉皮腋下包小号 复古金币纽扣抽绳水桶包+菱格纹+复古黑金 经典链条设计,高级感十足!日常出行必备,外观精美,质感细腻,无论休闲装还是正式场合都能轻松驾驭 尺寸:30x26x14cm","specs":{"source":"wsxcme","sourceId":"_dn2n2bWClW-7eFhxXHP2d40cYvIVrnQmuMiZ79Q","sourceTagId":47002745,"sourceTagName":"香奈儿/女包","dimensions":{"lengthCm":30,"heightCm":26,"widthCm":14},"rawTitle":"正品级\n🇫🇷AS5293CHANEL 25款又一个以年份命名的款, 25c球纹皮嘻哈包 香奈儿hobo 腋下包 嬉皮腋下包小号 复古金币纽扣抽绳水桶包+菱格纹+复古黑金 经典链条设计,高级感十足!日常出行必备,外观精美,质感细腻,无论休闲装还是正式场合都能轻松驾驭 尺寸:30x26x14cm"},"price":null,"currency":"CNY","moq":1,"category":"chanel-women-bags","status":"active","alibaba_url":null,"images":["https://xcimg.szwego.com/imgHD/b5cc9469/20250402/cmp_a1743591671834_1236.jpg","https://xcimg.szwego.com/imgHD/b5cc9469/20250402/cmp_a1743591671808_1015.jpg","https://xcimg.szwego.com/imgHD/b5cc9469/20250402/cmp_a1743591671840_5001.jpg","https://xcimg.szwego.com/imgHD/b5cc9469/20250402/cmp_a1743591671828_6771.jpg","https://xcimg.szwego.com/imgHD/b5cc9469/20250402/cmp_a1743591671842_8267.jpg","https://xcimg.szwego.com/imgHD/b5cc9469/20250402/cmp_a1743591673192_7058.jpg","https://xcimg.szwego.com/imgHD/b5cc9469/20250402/cmp_a1743591673194_3810.jpg","https://xcimg.szwego.com/imgHD/b5cc9469/20250402/cmp_a1743591673196_0326.jpg","https://xcimg.szwego.com/imgHD/b5cc9469/20250402/cmp_a1743591673196_5600.jpg"],"created_at":"2025-09-09T05:17:44.449Z"},{"id":"item-adbc501d9492","sku":"_dkPkPvjRrd1F3mIL4GT6miyfMipQLSEYoPqM5EA","name_en":"Chanel Women Bags","name_cn":"。白金版▪️正品级 包装如图\n全新到到🆕Chane1 24S春夏\n嬉皮hobo 牛仔款 竖版♥ \n专柜售价39000rmb购入开发〰️\n\n🔥24s大热款hobo斜挎嬉皮包\n复古的设计简直是一匹黑马啊〰️\n简约又大气有种漫不经心的酷飒感,\n真的会对它爱得深沉了❕\n\n五金:厚镀24k复古金\n皮料:   丹宁牛仔\n尺寸:24*22*6cm\n4532","specs":{"source":"wsxcme","sourceId":"_dkPkPvjRrd1F3mIL4GT6miyfMipQLSEYoPqM5EA","sourceTagId":47002745,"sourceTagName":"香奈儿/女包","dimensions":{"lengthCm":24,"heightCm":22,"widthCm":6},"rawTitle":"。白金版▪️正品级 包装如图\n全新到到🆕Chane1 24S春夏\n嬉皮hobo 牛仔款 竖版♥ \n专柜售价39000rmb购入开发〰️\n\n🔥24s大热款hobo斜挎嬉皮包\n复古的设计简直是一匹黑马啊〰️\n简约又大气有种漫不经心的酷飒感,\n真的会对它爱得深沉了❕\n\n五金:厚镀24k复古金\n皮料:   丹宁牛仔\n尺寸:24*22*6cm\n4532"},"price":null,"currency":"CNY","moq":1,"category":"chanel-women-bags","status":"active","alibaba_url":null,"images":["https://xcimg.szwego.com/20240430/i1714457473_2685_0.jpg","https://xcimg.szwego.com/20240430/i1714457473_3187_1.jpg","https://xcimg.szwego.com/20240430/i1714457473_5861_2.jpg","https://xcimg.szwego.com/20240430/i1714457473_5438_3.jpg","https://xcimg.szwego.com/20240430/i1714457473_889_4.jpg","https://xcimg.szwego.com/20240430/i1714457473_9494_5.jpg","https://xcimg.szwego.com/20240430/i1714457473_282_6.jpg","https://xcimg.szwego.com/20240430/i1714457473_3856_7.jpg","https://xcimg.szwego.com/20240430/i1714457473_2489_8.jpg"],"created_at":"2024-05-03T07:19:26.858Z"},{"id":"item-ad4a368d6832","sku":"_dYYYY-iy4M0wAQvdM3qU3LDRZZ94skPhimM7okQ","name_en":"Chanel Women Bags","name_cn":"香奈儿/女包","specs":{"source":"wsxcme","sourceId":"_dYYYY-iy4M0wAQvdM3qU3LDRZZ94skPhimM7okQ","sourceTagId":47002745,"sourceTagName":"香奈儿/女包","rawTitle":""},"price":null,"currency":"CNY","moq":1,"category":"chanel-women-bags","status":"active","alibaba_url":null,"images":["https://xcimg.szwego.com/img/d0c94e6f/20250911/i1757599309_600_0.jpg"],"created_at":"2025-09-19T04:32:40.144Z"},{"id":"item-acf0be50f992","sku":"_dk3k3ZBu4OKPR7w5WvotHKpELfVIm8HVrMdJHjg","name_en":"Chanel Women Bags","name_cn":"粉色🎀","specs":{"source":"wsxcme","sourceId":"_dk3k3ZBu4OKPR7w5WvotHKpELfVIm8HVrMdJHjg","sourceTagId":47002745,"sourceTagName":"香奈儿/女包","rawTitle":"粉色🎀"},"price":null,"currency":"CNY","moq":1,"category":"chanel-women-bags","status":"active","alibaba_url":null,"images":["https://xcimg.szwego.com/img/8e603200/20240711/i1720633524_5285_0.jpg","https://xcimg.szwego.com/img/8e603200/20240711/i1720633524_2274_0.jpg","https://xcimg.szwego.com/img/8e603200/20240711/i1720633524_3341_0.jpg","https://xcimg.szwego.com/img/8e603200/20240711/i1720633524_9459_0.jpg","https://xcimg.szwego.com/img/8e603200/20240711/i1720633524_2647_0.jpg","https://xcimg.szwego.com/img/8e603200/20240711/i1720633524_3291_0.jpg","https://xcimg.szwego.com/img/8e603200/20240711/i1720633524_7173_0.jpg","https://xcimg.szwego.com/img/8e603200/20240711/i1720633524_5221_0.jpg"],"created_at":"2024-11-26T11:47:21.469Z"},{"id":"item-aac7c258f7e6","sku":"_dbQbQ4gKdUGv9X3M2WuQWTwNJZJkkuq9gqnBGTg","name_en":"Chanel Women Bags","name_cn":"上身效果#3260、3261","specs":{"source":"wsxcme","sourceId":"_dbQbQ4gKdUGv9X3M2WuQWTwNJZJkkuq9gqnBGTg","sourceTagId":47002745,"sourceTagName":"香奈儿/女包","rawTitle":"上身效果#3260、3261"},"price":null,"currency":"CNY","moq":1,"category":"chanel-women-bags","status":"active","alibaba_url":null,"images":["https://xcimg.szwego.com/img/2a2a0253/20231028/i1698427181_1330_0.jpg","https://xcimg.szwego.com/img/2a2a0253/20231028/i1698427181_324_1.jpg","https://xcimg.szwego.com/img/2a2a0253/20231028/i1698427181_960_2.jpg","https://xcimg.szwego.com/img/2a2a0253/20231028/i1698427181_5619_3.jpg","https://xcimg.szwego.com/img/2a2a0253/20231028/i1698427181_1504_4.jpg","https://xcimg.szwego.com/img/2a2a0253/20231028/i1698427181_247_5.jpg","https://xcimg.szwego.com/img/2a2a0253/20231028/i1698427181_7197_6.jpg","https://xcimg.szwego.com/img/2a2a0253/20231028/i1698427181_6737_7.jpg","https://xcimg.szwego.com/img/2a2a0253/20231028/i1698427181_6085_8.jpg"],"created_at":"2026-06-29T10:35:34.164Z"},{"id":"item-a9abb3031191","sku":"_db8b897moyBJlczrSv1cAu70QxGA8QoNHBrEaBQ","name_en":"Chanel Women Bags","name_cn":"白金版▪️正品级 包装如图\n全新升级版到货!!️\nChanel 19bag  小号\n最新推出19包 黑色\n专柜售价40100rmb购入开发❕\n\n19黑色回归经典杰作🌱\n低调暗带满满的高级复古感\n黑色回归 容量特别美好直击我心♥\n成为当季最经典的潮范儿〰️\n\n三种背法:单肩、斜挎、手提\n链条拼接:砂银、古金、浅金\n小号Size:16*26*9cm","specs":{"source":"wsxcme","sourceId":"_db8b897moyBJlczrSv1cAu70QxGA8QoNHBrEaBQ","sourceTagId":47002745,"sourceTagName":"香奈儿/女包","rawTitle":"白金版▪️正品级 包装如图\n全新升级版到货!!️\nChanel 19bag  小号\n最新推出19包 黑色\n专柜售价40100rmb购入开发❕\n\n19黑色回归经典杰作🌱\n低调暗带满满的高级复古感\n黑色回归 容量特别美好直击我心♥\n成为当季最经典的潮范儿〰️\n\n三种背法:单肩、斜挎、手提\n链条拼接:砂银、古金、浅金\n小号Size:16*26*9cm"},"price":null,"currency":"CNY","moq":1,"category":"chanel-women-bags","status":"active","alibaba_url":null,"images":["https://xcimg.szwego.com/20230316/i1678946010_3060_0.jpg","https://xcimg.szwego.com/20230316/i1678946010_990_1.jpg","https://xcimg.szwego.com/20230316/i1678946010_6622_2.jpg","https://xcimg.szwego.com/20230316/i1678946010_7982_3.jpg","https://xcimg.szwego.com/20230316/i1678946010_9368_4.jpg","https://xcimg.szwego.com/20230316/i1678946010_111_5.jpg","https://xcimg.szwego.com/20230316/i1678946010_8521_6.jpg","https://xcimg.szwego.com/20230316/i1678946010_1244_7.jpg","https://xcimg.szwego.com/20230316/i1678946010_2594_8.jpg"],"created_at":"2024-05-01T03:19:54.384Z"},{"id":"item-a7b3785d745f","sku":"_d9R9RDKQCwU9CMaBasHXpazP4RBzyZDl_CfISPA","name_en":"Chanel Women Bags","name_cn":"芯片▪️白金版 正品级 包装如图\n专柜售价53500rmb购入开发✃\n22p春夏新色系列〰️CF\n经典不止步,革新时尚让你眼前一亮\n颜值爆表了有木有❥☑️\n击中无数少女的心〰️☄︎\n集美们剁手也要拿下的包包🛒\n\n皮料:原厂进口小羊皮\n五金:全钢银扣\n尺寸:15.5*25.5*6.5cm","specs":{"source":"wsxcme","sourceId":"_d9R9RDKQCwU9CMaBasHXpazP4RBzyZDl_CfISPA","sourceTagId":47002745,"sourceTagName":"香奈儿/女包","dimensions":{"lengthCm":15.5,"heightCm":25.5,"widthCm":6.5},"rawTitle":"芯片▪️白金版 正品级 包装如图\n专柜售价53500rmb购入开发✃\n22p春夏新色系列〰️CF\n经典不止步,革新时尚让你眼前一亮\n颜值爆表了有木有❥☑️\n击中无数少女的心〰️☄︎\n集美们剁手也要拿下的包包🛒\n\n皮料:原厂进口小羊皮\n五金:全钢银扣\n尺寸:15.5*25.5*6.5cm"},"price":null,"currency":"CNY","moq":1,"category":"chanel-women-bags","status":"active","alibaba_url":null,"images":["https://xcimg.szwego.com/20220609/i1654763166_5028_0.jpg","https://xcimg.szwego.com/20220609/i1654763166_7335_1.jpg","https://xcimg.szwego.com/20220609/i1654763166_9302_2.jpg","https://xcimg.szwego.com/20220609/i1654763166_5848_3.jpg","https://xcimg.szwego.com/20220609/i1654763166_8139_4.jpg","https://xcimg.szwego.com/20220609/i1654763166_6720_5.jpg","https://xcimg.szwego.com/20220609/i1654763166_865_6.jpg","https://xcimg.szwego.com/20220609/i1654763166_5601_7.jpg","https://xcimg.szwego.com/20220609/i1654763166_8095_8.jpg"],"created_at":"2024-05-01T03:19:54.367Z"},{"id":"item-a7171dff591c","sku":"_dnGnG8qZXeuGwsa_LRAWb6utCVYx1Z6UqTLeW8w","name_en":"Chanel Women Bags","name_cn":"。白金版▪️正品级 包装如图\n全新版本到货🆕Chane1 24P春夏新色\nDuma背包 粉色 大号 \n专柜售价49000RMB购入开发〰️\n\n全新Duma大号背包🎒原厂小牛皮。\n一眼就爱上的双肩链条Duma书包,\n采用了摔纹小牛皮,易打理更耐造❕\n容量方面很感人,日常通勤收纳轻松装扮✔️\n又酷又时髦,四季穿搭这颗无敌的少女心。\n\n五金:全钢14K淡金扣\n皮料:Masoni原厂小牛皮\n尺寸:18*24*15 CM","specs":{"source":"wsxcme","sourceId":"_dnGnG8qZXeuGwsa_LRAWb6utCVYx1Z6UqTLeW8w","sourceTagId":47002745,"sourceTagName":"香奈儿/女包","dimensions":{"lengthCm":18,"heightCm":24,"widthCm":15},"rawTitle":"。白金版▪️正品级 包装如图\n全新版本到货🆕Chane1 24P春夏新色\nDuma背包 粉色 大号 \n专柜售价49000RMB购入开发〰️\n\n全新Duma大号背包🎒原厂小牛皮。\n一眼就爱上的双肩链条Duma书包,\n采用了摔纹小牛皮,易打理更耐造❕\n容量方面很感人,日常通勤收纳轻松装扮✔️\n又酷又时髦,四季穿搭这颗无敌的少女心。\n\n五金:全钢14K淡金扣\n皮料:Masoni原厂小牛皮\n尺寸:18*24*15 CM"},"price":null,"currency":"CNY","moq":1,"category":"chanel-women-bags","status":"active","alibaba_url":null,"images":["https://xcimg.szwego.com/20240430/i1714460205_2136_0.jpg","https://xcimg.szwego.com/20240430/i1714460205_7112_1.jpg","https://xcimg.szwego.com/20240430/i1714460205_2804_2.jpg","https://xcimg.szwego.com/20240430/i1714460205_9588_3.jpg","https://xcimg.szwego.com/20240430/i1714460205_7686_4.jpg","https://xcimg.szwego.com/20240430/i1714460205_9568_5.jpg","https://xcimg.szwego.com/20240430/i1714460205_581_6.jpg","https://xcimg.szwego.com/20240430/i1714460205_7364_7.jpg","https://xcimg.szwego.com/20240430/i1714460205_1718_8.jpg"],"created_at":"2024-05-03T07:19:26.863Z"},{"id":"item-a691da6c0dc9","sku":"_dbJbJ3_xMrfuidbDo3ai-AAyd29vwwgSq1-fPuw","name_en":"Chanel Women Bags","name_cn":"原厂皮\n小香进口意大利小羊皮【升級版】\n货号:A\n尺寸:w20×h13×d3.5cm\n颜色:淺粉細球紋金色鋼唛","specs":{"source":"wsxcme","sourceId":"_dbJbJ3_xMrfuidbDo3ai-AAyd29vwwgSq1-fPuw","sourceTagId":47002745,"sourceTagName":"香奈儿/女包","modelNumber":"A","rawTitle":"原厂皮\n小香进口意大利小羊皮【升級版】\n货号:A\n尺寸:w20×h13×d3.5cm\n颜色:淺粉細球紋金色鋼唛"},"price":null,"currency":"CNY","moq":1,"category":"chanel-women-bags","status":"active","alibaba_url":null,"images":["https://xcimg.szwego.com/img/c4e87dad/20250516/i1747400036108_1835_0_0.jpg","https://xcimg.szwego.com/img/c4e87dad/20250516/i1747400034377_2088_0_1.jpg","https://xcimg.szwego.com/img/c4e87dad/20250516/i1747400036127_3732_0_2.jpg","https://xcimg.szwego.com/img/c4e87dad/20250516/i1747400034327_8494_0_4.jpg","https://xcimg.szwego.com/img/c4e87dad/20250516/i1747400034428_5930_0_7.jpg"],"created_at":"2025-09-09T05:22:54.850Z"},{"id":"item-a6907003cac1","sku":"_dCdCdKgVJFJ7dMHHKe2sS8w-5yQn9Mbyxm56xwg","name_en":"Chanel Women Bags","name_cn":"白金版▪️正品级 包装如图\nChane1 23S春夏系列\n山茶花调节扣 方胖子 浅蓝色\n专柜售价39800rmb购入开发〰️\n\n23s山茶花调节扣链条口盖包\n具备cf的元素造型有着性感迷人的气质。\n设计方面更加优雅大方啦❕\n可️腋下、斜挎、单肩一包多用,很受欢迎哦👏🏻\n\n五金:厚镀24k复古金\n皮料:   开料部zp小羊皮\n尺寸:13*18*7 cm","specs":{"source":"wsxcme","sourceId":"_dCdCdKgVJFJ7dMHHKe2sS8w-5yQn9Mbyxm56xwg","sourceTagId":47002745,"sourceTagName":"香奈儿/女包","dimensions":{"lengthCm":13,"heightCm":18,"widthCm":7},"rawTitle":"白金版▪️正品级 包装如图\nChane1 23S春夏系列\n山茶花调节扣 方胖子 浅蓝色\n专柜售价39800rmb购入开发〰️\n\n23s山茶花调节扣链条口盖包\n具备cf的元素造型有着性感迷人的气质。\n设计方面更加优雅大方啦❕\n可️腋下、斜挎、单肩一包多用,很受欢迎哦👏🏻\n\n五金:厚镀24k复古金\n皮料:   开料部zp小羊皮\n尺寸:13*18*7 cm"},"price":null,"currency":"CNY","moq":1,"category":"chanel-women-bags","status":"active","alibaba_url":null,"images":["https://xcimg.szwego.com/20230529/i1685340742_8789_0.jpg","https://xcimg.szwego.com/20230529/i1685340742_9264_1.jpg","https://xcimg.szwego.com/20230529/i1685340742_2484_2.jpg","https://xcimg.szwego.com/20230529/i1685340742_4602_3.jpg","https://xcimg.szwego.com/20230529/i1685340742_6174_4.jpg","https://xcimg.szwego.com/20230529/i1685340742_2038_5.jpg","https://xcimg.szwego.com/20230529/i1685340742_484_6.jpg","https://xcimg.szwego.com/20230529/i1685340742_6212_7.jpg","https://xcimg.szwego.com/20230529/i1685340742_9589_8.jpg"],"created_at":"2024-05-01T03:19:54.375Z"},{"id":"item-a33aa09685c2","sku":"_delelsTulZEt13zTztXQzSbC6fbZOh5zFRMjpWw","name_en":"Chanel Women Bags","name_cn":"上身图3980","specs":{"source":"wsxcme","sourceId":"_delelsTulZEt13zTztXQzSbC6fbZOh5zFRMjpWw","sourceTagId":47002745,"sourceTagName":"香奈儿/女包","rawTitle":"上身图3980"},"price":null,"currency":"CNY","moq":1,"category":"chanel-women-bags","status":"active","alibaba_url":null,"images":["https://xcimg.szwego.com/20230816/i1692173019_2435_0.jpg","https://xcimg.szwego.com/20230816/i1692173019_7097_1.jpg","https://xcimg.szwego.com/20230816/i1692173019_6487_2.jpg","https://xcimg.szwego.com/20230816/i1692173019_1119_3.jpg","https://xcimg.szwego.com/20230816/i1692173019_1955_4.jpg","https://xcimg.szwego.com/20230816/i1692173019_3698_5.jpg","https://xcimg.szwego.com/20230816/i1692173019_7893_6.jpg","https://xcimg.szwego.com/20230816/i1692173019_2089_7.jpg"],"created_at":"2026-06-29T10:35:34.044Z"},{"id":"item-a2afad9d4463","sku":"_dococ5dLEB5AbknWXLEgRBCPlBmndSm8Dy77GMA","name_en":"Chanel Women Bags","name_cn":"💰 小1000 中1050 \nChanel 24B 22Bag 中号印花垃圾袋出现货啦有️\n\n小号35cm 中号39cm\nAS3260 AS3261","specs":{"source":"wsxcme","sourceId":"_dococ5dLEB5AbknWXLEgRBCPlBmndSm8Dy77GMA","sourceTagId":47002745,"sourceTagName":"香奈儿/女包","rawTitle":"💰 小1000 中1050 \nChanel 24B 22Bag 中号印花垃圾袋出现货啦有️\n\n小号35cm 中号39cm\nAS3260 AS3261"},"price":null,"currency":"CNY","moq":1,"category":"chanel-women-bags","status":"active","alibaba_url":null,"images":["https://xcimg.szwego.com/img/b885826e/20250110/i1736479071548_2717_0_0.jpg","https://xcimg.szwego.com/img/b885826e/20250110/i1736479071301_9744_0_1.jpg","https://xcimg.szwego.com/img/b885826e/20250110/i1736479069504_9060_0_2.jpg","https://xcimg.szwego.com/img/b885826e/20250110/i1736479070779_3108_0_3.jpg","https://xcimg.szwego.com/img/b885826e/20250110/i1736479069777_5503_0_4.jpg","https://xcimg.szwego.com/img/b885826e/20250110/i1736479070008_371_0_8.jpg","https://xcimg.szwego.com/img/b885826e/20250110/i1736479070238_3615_0_6.jpg","https://xcimg.szwego.com/img/b885826e/20250110/i1736479071030_6382_0_7.jpg","https://xcimg.szwego.com/img/b885826e/20250110/i1736479070488_1819_0_5.jpg"],"created_at":"2025-01-20T12:26:10.930Z"},{"id":"item-a28b434b4a2f","sku":"_dkbkb6bVdx_VHqKjDSVxIdxMg4T2Ox6-GgrKidQ","name_en":"Chanel Women Bags","name_cn":"香奈儿/女包","specs":{"source":"wsxcme","sourceId":"_dkbkb6bVdx_VHqKjDSVxIdxMg4T2Ox6-GgrKidQ","sourceTagId":47002745,"sourceTagName":"香奈儿/女包","rawTitle":""},"price":null,"currency":"CNY","moq":1,"category":"chanel-women-bags","status":"active","alibaba_url":null,"images":["https://xcimg.szwego.com/img/d0c94e6f/20250911/i1757599126_1707_0.jpg"],"created_at":"2025-09-19T04:32:40.138Z"},{"id":"item-9e8f7f6e71e5","sku":"_daZaZXC0B_eKcet7oLRQ4S70KNYddhttacgc2jQ","name_en":"Chanel Women Bags","name_cn":"新品到货❤️口红化妆包\n高颜值的化妆包来了。扭扭手柄 精致无比。让整个包充满了贵气感。\n内容量非常大,内带化妆镜子。简直就是爱美女生的福音呀!\n必入单品❤️\n尺寸:9.5×17×7.8cm\n款号:6622","specs":{"source":"wsxcme","sourceId":"_daZaZXC0B_eKcet7oLRQ4S70KNYddhttacgc2jQ","sourceTagId":47002745,"sourceTagName":"香奈儿/女包","modelNumber":"6622","dimensions":{"lengthCm":9.5,"heightCm":17,"widthCm":7.8},"rawTitle":"新品到货❤️口红化妆包\n高颜值的化妆包来了。扭扭手柄 精致无比。让整个包充满了贵气感。\n内容量非常大,内带化妆镜子。简直就是爱美女生的福音呀!\n必入单品❤️\n尺寸:9.5×17×7.8cm\n款号:6622"},"price":null,"currency":"CNY","moq":1,"category":"chanel-women-bags","status":"active","alibaba_url":null,"images":["https://xcimg.szwego.com/img/c4600ee2/20240602/i1717286262_7673_3.jpg","https://xcimg.szwego.com/img/c4600ee2/20240602/i1717286262_4020_4.jpg","https://xcimg.szwego.com/img/c4600ee2/20240602/i1717286262_8304_6.jpg","https://xcimg.szwego.com/img/c4600ee2/20240602/i1717286262_2218_5.jpg","https://xcimg.szwego.com/img/c4600ee2/20240602/i1717286262_7131_1.jpg","https://xcimg.szwego.com/img/c4600ee2/20240602/i1717286262_3334_8.jpg","https://xcimg.szwego.com/img/c4600ee2/20240602/i1717286262_9730_7.jpg","https://xcimg.szwego.com/img/c4600ee2/20240602/i1717286262_6985_2.jpg","https://xcimg.szwego.com/img/c4600ee2/20240602/i1717286262_4584_0.jpg"],"created_at":"2024-08-04T12:55:15.633Z"},{"id":"item-9e5770e7a34d","sku":"_dp8p8UiHAm2155QMf00hamv-81iVYcuxUUtyRhg","name_en":"Chanel Women Bags","name_cn":"上身效果2057","specs":{"source":"wsxcme","sourceId":"_dp8p8UiHAm2155QMf00hamv-81iVYcuxUUtyRhg","sourceTagId":47002745,"sourceTagName":"香奈儿/女包","rawTitle":"上身效果2057"},"price":null,"currency":"CNY","moq":1,"category":"chanel-women-bags","status":"active","alibaba_url":null,"images":["https://xcimg.szwego.com/20201106/i1604592545_888_0.jpg","https://xcimg.szwego.com/20201106/i1604592545_2164_1.jpg","https://xcimg.szwego.com/20201106/i1604592545_6384_2.jpg"],"created_at":"2025-06-16T09:53:32.240Z"},{"id":"item-9e14419faf16","sku":"_daGaGRt2_2CYa6idGDDqcjpDsGGAs9sgxdnUAww","name_en":"Chanel Women Bags","name_cn":"白金版▪️正品级 包装如图\n全新发售🆕Chane1 25B新品\n双C链条调节扣woc亮银色🖤\n专柜售�00rmb购入开发~\n\n每一季度都有惊喜的ꫛꫀꪝ\n被这个小心机链条美到了✨\n优雅高级符合气质穿搭很绝配❕\n后知后觉更是让人心动不已啦💕\n\n五金:   全钢复古亮银\n皮料:原厂小球纹牛皮\n尺寸:11.5*19*4cm\n3938","specs":{"source":"wsxcme","sourceId":"_daGaGRt2_2CYa6idGDDqcjpDsGGAs9sgxdnUAww","sourceTagId":47002745,"sourceTagName":"香奈儿/女包","dimensions":{"lengthCm":11.5,"heightCm":19,"widthCm":4},"rawTitle":"白金版▪️正品级 包装如图\n全新发售🆕Chane1 25B新品\n双C链条调节扣woc亮银色🖤\n专柜售�00rmb购入开发~\n\n每一季度都有惊喜的ꫛꫀꪝ\n被这个小心机链条美到了✨\n优雅高级符合气质穿搭很绝配❕\n后知后觉更是让人心动不已啦💕\n\n五金:   全钢复古亮银\n皮料:原厂小球纹牛皮\n尺寸:11.5*19*4cm\n3938"},"price":null,"currency":"CNY","moq":1,"category":"chanel-women-bags","status":"active","alibaba_url":null,"images":["https://xcimg.szwego.com/imgHD/9d8f4332/20250909/cmp_i1757402225593_6618_0_0.jpg","https://xcimg.szwego.com/imgHD/9d8f4332/20250909/cmp_i1757402225593_5298_0_1.jpg","https://xcimg.szwego.com/imgHD/9d8f4332/20250909/cmp_i1757402227650_6196_0_2.jpg","https://xcimg.szwego.com/imgHD/9d8f4332/20250909/cmp_i1757402225588_4222_0_3.jpg","https://xcimg.szwego.com/imgHD/9d8f4332/20250909/cmp_i1757402225587_1997_0_4.jpg","https://xcimg.szwego.com/imgHD/9d8f4332/20250909/cmp_i1757402227650_9199_0_5.jpg","https://xcimg.szwego.com/imgHD/9d8f4332/20250909/cmp_i1757402227642_8063_0_6.jpg","https://xcimg.szwego.com/imgHD/9d8f4332/20250909/cmp_i1757402225587_4793_0_7.jpg","https://xcimg.szwego.com/imgHD/9d8f4332/20250909/cmp_i1757402227652_6062_0_8.jpg"],"created_at":"2025-09-19T04:32:40.124Z"},{"id":"item-9e07ba77291d","sku":"_d-E-EIivUraTaNEfqOx_kNcqfZpD_cWIiJD1-yQ","name_en":"Chanel Women Bags","name_cn":"香奈儿/女包","specs":{"source":"wsxcme","sourceId":"_d-E-EIivUraTaNEfqOx_kNcqfZpD_cWIiJD1-yQ","sourceTagId":47002745,"sourceTagName":"香奈儿/女包","rawTitle":""},"price":null,"currency":"CNY","moq":1,"category":"chanel-women-bags","status":"active","alibaba_url":null,"images":["https://xcimg.szwego.com/img/d0c94e6f/20250911/i1757599167_6795_0.jpg"],"created_at":"2025-09-19T04:32:40.136Z"},{"id":"item-9cfb7118aed4","sku":"_drSrS_leVbTDL7uZzefCBvDNS03ureoxA7zbYwg","name_en":"Chanel Women Bags","name_cn":"正品级\n 🇫🇷AS5293CHANEL 25款又一个以年份命名的款, 25c球纹皮嘻哈包 香奈儿hobo 腋下包 嬉皮腋下包小号 复古金币纽扣抽绳水桶包+菱格纹+复古黑金 经典链条设计,高级感十足!日常出行必备,外观精美,质感细腻,无论休闲装还是正式场合都能轻松驾驭 尺寸:30x26x14cm","specs":{"source":"wsxcme","sourceId":"_drSrS_leVbTDL7uZzefCBvDNS03ureoxA7zbYwg","sourceTagId":47002745,"sourceTagName":"香奈儿/女包","dimensions":{"lengthCm":30,"heightCm":26,"widthCm":14},"rawTitle":"正品级\n 🇫🇷AS5293CHANEL 25款又一个以年份命名的款, 25c球纹皮嘻哈包 香奈儿hobo 腋下包 嬉皮腋下包小号 复古金币纽扣抽绳水桶包+菱格纹+复古黑金 经典链条设计,高级感十足!日常出行必备,外观精美,质感细腻,无论休闲装还是正式场合都能轻松驾驭 尺寸:30x26x14cm"},"price":null,"currency":"CNY","moq":1,"category":"chanel-women-bags","status":"active","alibaba_url":null,"images":["https://xcimg.szwego.com/imgHD/b5cc9469/20250402/cmp_a1743591622222_8220.jpg","https://xcimg.szwego.com/imgHD/b5cc9469/20250402/cmp_a1743591622240_1512.jpg","https://xcimg.szwego.com/imgHD/b5cc9469/20250402/cmp_a1743591622221_6244.jpg","https://xcimg.szwego.com/imgHD/b5cc9469/20250402/cmp_a1743591622239_6230.jpg","https://xcimg.szwego.com/imgHD/b5cc9469/20250402/cmp_a1743591622220_4674.jpg","https://xcimg.szwego.com/imgHD/b5cc9469/20250402/cmp_a1743591623927_3734.jpg","https://xcimg.szwego.com/imgHD/b5cc9469/20250402/cmp_a1743591623930_6256.jpg","https://xcimg.szwego.com/imgHD/b5cc9469/20250402/cmp_a1743591623932_8705.jpg","https://xcimg.szwego.com/imgHD/b5cc9469/20250402/cmp_a1743591623932_5415.jpg"],"created_at":"2025-09-09T05:17:44.450Z"},{"id":"item-9ce1161de37a","sku":"_dfhfh5epSLdOUkhLOSBCvvu-RgmpVfTXAVpkXwA","name_en":"Chanel Women Bags","name_cn":"💰小1180  大1250 \nChanel 24A 保龄球包  \n\n\nSize:21*33*14.5cm  28*44*15.5cm\n型号:AS4905 AS4812","specs":{"source":"wsxcme","sourceId":"_dfhfh5epSLdOUkhLOSBCvvu-RgmpVfTXAVpkXwA","sourceTagId":47002745,"sourceTagName":"香奈儿/女包","modelNumber":"AS4905 AS4812","rawTitle":"💰小1180  大1250 \nChanel 24A 保龄球包  \n\n\nSize:21*33*14.5cm  28*44*15.5cm\n型号:AS4905 AS4812"},"price":null,"currency":"CNY","moq":1,"category":"chanel-women-bags","status":"active","alibaba_url":null,"images":["https://xcimg.szwego.com/img/b885826e/20241005/i1728136899_8177_8.jpg","https://xcimg.szwego.com/img/b885826e/20241005/i1728136899_7012_4.jpg","https://xcimg.szwego.com/img/b885826e/20241005/i1728136899_9073_5.jpg","https://xcimg.szwego.com/img/b885826e/20241005/i1728136899_8955_7.jpg","https://xcimg.szwego.com/img/b885826e/20241005/i1728136899_7304_0.jpg","https://xcimg.szwego.com/img/b885826e/20241005/i1728136899_6759_1.jpg","https://xcimg.szwego.com/img/b885826e/20241005/i1728136899_7870_6.jpg","https://xcimg.szwego.com/img/b885826e/20241005/i1728136899_9964_2.jpg","https://xcimg.szwego.com/img/b885826e/20241005/i1728136899_42_3.jpg"],"created_at":"2024-11-26T11:47:21.488Z"},{"id":"item-9a1d0b0b7e17","sku":"_dpgpgtgtZUan3ZmuuUXFlQJDsUhyf_7jTWXZ5nQ","name_en":"Chanel Women Bags","name_cn":"正品级,高版本\n这款微型Toujours竖版手袋是二零二五秋季成衣系列新品,时尚实用。采用粉色牛皮革精心制作,饰以超大藤格纹缉面线,宽敞的内部隔层可收纳各种日常用品。设有纤细皮革系带开合,可安全收纳各种物品,另有浅金色饰面金属CD Lock字母 D旋钮式扣环,可调节两侧,提升格调。顶部皮革手柄搭配可拆卸的皮革肩带,可手提、肩背或斜挎。\n\n型号2834\n尺寸13×15×12cm","specs":{"source":"wsxcme","sourceId":"_dpgpgtgtZUan3ZmuuUXFlQJDsUhyf_7jTWXZ5nQ","sourceTagId":47002745,"sourceTagName":"香奈儿/女包","modelNumber":"2834","dimensions":{"lengthCm":13,"heightCm":15,"widthCm":12},"rawTitle":"正品级,高版本\n这款微型Toujours竖版手袋是二零二五秋季成衣系列新品,时尚实用。采用粉色牛皮革精心制作,饰以超大藤格纹缉面线,宽敞的内部隔层可收纳各种日常用品。设有纤细皮革系带开合,可安全收纳各种物品,另有浅金色饰面金属CD Lock字母 D旋钮式扣环,可调节两侧,提升格调。顶部皮革手柄搭配可拆卸的皮革肩带,可手提、肩背或斜挎。\n\n型号2834\n尺寸13×15×12cm"},"price":null,"currency":"CNY","moq":1,"category":"chanel-women-bags","status":"active","alibaba_url":null,"images":["https://xcimg.szwego.com/img/ec683d96/20250424/i1745429126_5311_1.jpg","https://xcimg.szwego.com/img/ec683d96/20250424/i1745429126_2356_2.jpg","https://xcimg.szwego.com/img/ec683d96/20250424/i1745429127_4495_8.jpg","https://xcimg.szwego.com/img/ec683d96/20250424/i1745429127_7357_3.jpg","https://xcimg.szwego.com/img/ec683d96/20250424/i1745429127_2100_4.jpg","https://xcimg.szwego.com/img/ec683d96/20250424/i1745429127_8406_5.jpg","https://xcimg.szwego.com/img/ec683d96/20250424/i1745429127_650_6.jpg","https://xcimg.szwego.com/img/ec683d96/20250424/i1745429127_2921_7.jpg","https://xcimg.szwego.com/img/ec683d96/20250424/i1745429126_4375_0.jpg"],"created_at":"2025-09-09T05:24:53.931Z"}],"page":265,"pageSize":24,"total":10075,"totalPages":420}
