{"items":[{"id":"item-ad8c8e7377a6","sku":"_dDyDy0fLzd9B0ADn3pxvkMXLvV0Vfh0VV_yAvHQ","name_en":"Burberry Women Bags","name_cn":"立体实拍,原厂渠道独家品质经典的小枕头款型 款绝对是能一直背很久不过时的款,做工品质柜台啥样咱们啥样,尺寸很实用,官方一直是断货状态,想省钱又对品质有要求的千万别错过。","specs":{"source":"wsxcme","sourceId":"_dDyDy0fLzd9B0ADn3pxvkMXLvV0Vfh0VV_yAvHQ","sourceTagId":80411239,"sourceTagName":"巴宝莉/女包","rawTitle":"立体实拍,原厂渠道独家品质经典的小枕头款型 款绝对是能一直背很久不过时的款,做工品质柜台啥样咱们啥样,尺寸很实用,官方一直是断货状态,想省钱又对品质有要求的千万别错过。"},"price":null,"currency":"CNY","moq":1,"category":"burberry-women-bags","status":"active","alibaba_url":null,"images":["https://xcimg.szwego.com/20230308/i1678251085_998_0.jpg","https://xcimg.szwego.com/20230308/i1678251085_2871_1.jpg","https://xcimg.szwego.com/20230308/i1678251085_6314_2.jpg","https://xcimg.szwego.com/20230308/i1678251085_9997_3.jpg","https://xcimg.szwego.com/20230308/i1678251085_9663_4.jpg","https://xcimg.szwego.com/20230308/i1678251085_884_5.jpg"],"created_at":"2025-01-20T12:46:12.749Z"},{"id":"item-ac7985c7c3d0","sku":"_d8t8t3KqT1BF0-StdDOF3jvEWaENJZdtU7Af6wg","name_en":"Burberry Women Bags","name_cn":"新品\n【配盒】巴宝莉TB bag,TB专属标识锁扣设计包包,没有过于繁复的设计,简单又经典,恰到好处的容纳度,诠释摩登与传统的优雅交融,契合日常生活中各式各样的穿搭,收获了大批明星时尚icon的喜爱!!\n尺寸21-7-14CM","specs":{"source":"wsxcme","sourceId":"_d8t8t3KqT1BF0-StdDOF3jvEWaENJZdtU7Af6wg","sourceTagId":80411239,"sourceTagName":"巴宝莉/女包","rawTitle":"新品\n【配盒】巴宝莉TB bag,TB专属标识锁扣设计包包,没有过于繁复的设计,简单又经典,恰到好处的容纳度,诠释摩登与传统的优雅交融,契合日常生活中各式各样的穿搭,收获了大批明星时尚icon的喜爱!!\n尺寸21-7-14CM"},"price":null,"currency":"CNY","moq":1,"category":"burberry-women-bags","status":"active","alibaba_url":null,"images":["https://xcimg.szwego.com/20230320/i1679252489_600_0.jpg","https://xcimg.szwego.com/20230320/i1679252489_3691_1.jpg","https://xcimg.szwego.com/20230320/i1679252489_975_2.jpg","https://xcimg.szwego.com/20230320/i1679252489_4956_3.jpg","https://xcimg.szwego.com/20230320/i1679252489_5771_4.jpg","https://xcimg.szwego.com/20230320/i1679252489_7833_5.jpg","https://xcimg.szwego.com/20230320/i1679252489_6485_6.jpg","https://xcimg.szwego.com/20230320/i1679252489_2045_7.jpg","https://xcimg.szwego.com/20230320/i1679252489_8468_8.jpg"],"created_at":"2025-02-08T12:43:27.841Z"},{"id":"item-ac424d8f1cf9","sku":"_dQhQhxwRv8oNvHpNsXzTOpGEL-nXo1tePrBVjiQ","name_en":"Burberry Women Bags","name_cn":"现货","specs":{"source":"wsxcme","sourceId":"_dQhQhxwRv8oNvHpNsXzTOpGEL-nXo1tePrBVjiQ","sourceTagId":80411239,"sourceTagName":"巴宝莉/女包","rawTitle":"现货"},"price":null,"currency":"CNY","moq":1,"category":"burberry-women-bags","status":"active","alibaba_url":null,"images":["https://xcimg.szwego.com/img/d5e7a5ce/20250908/a1757318573223_8232.jpg","https://xcimg.szwego.com/img/d5e7a5ce/20250908/a1757318573186_3154.jpg","https://xcimg.szwego.com/img/d5e7a5ce/20250908/a1757318573177_4755.jpg","https://xcimg.szwego.com/img/d5e7a5ce/20250908/a1757318573169_0725.jpg","https://xcimg.szwego.com/img/d5e7a5ce/20250908/a1757318573173_6730.jpg","https://xcimg.szwego.com/img/d5e7a5ce/20250908/a1757318573174_0328.jpg","https://xcimg.szwego.com/img/d5e7a5ce/20250908/a1757318573671_4436.jpg","https://xcimg.szwego.com/img/d5e7a5ce/20250908/a1757318573667_5188.jpg","https://xcimg.szwego.com/img/d5e7a5ce/20250908/a1757318573668_8618.jpg"],"created_at":"2026-06-29T10:27:58.502Z"},{"id":"item-ac0a8915855d","sku":"_daUaUwlJlzwOziT2-RsJFYpKynWe740wVdMs_ng","name_en":"Burberry Women Bags","name_cn":"上身效果图!","specs":{"source":"wsxcme","sourceId":"_daUaUwlJlzwOziT2-RsJFYpKynWe740wVdMs_ng","sourceTagId":80411239,"sourceTagName":"巴宝莉/女包","rawTitle":"上身效果图!"},"price":null,"currency":"CNY","moq":1,"category":"burberry-women-bags","status":"active","alibaba_url":null,"images":["https://xcimg.szwego.com/20220323/i1648017832_6133_0.jpg","https://xcimg.szwego.com/20220323/i1648017832_7917_1.jpg","https://xcimg.szwego.com/20220323/i1648017832_3977_2.jpg","https://xcimg.szwego.com/20220323/i1648017832_4128_3.jpg","https://xcimg.szwego.com/20220323/i1648017832_9230_4.jpg"],"created_at":"2026-06-29T10:27:59.152Z"},{"id":"item-aa21d7df55e1","sku":"_dhHhH2wcmj1SADIG4kAkRd63Fv68lC3Kdf00UyQ","name_en":"Burberry Women Bags","name_cn":"❤️小号!黑色条纹!柔软立挺的肩背包,(专柜这样形容)咱家也是一致的 既柔软又立挺👍🌹\n可不像别家硬邦邦的🤭\n选用棉质斜纹面料打造。于意大利工坊匠制而成,装饰精纺 Bur 格纹。采用无内衬设计,质地轻盈。融入光滑小牛皮饰边,搭配可拆式拉链收纳袋。来自 Bur经典之作系列,以鲜明品牌风格诠释衣橱必备款式。人见人爱👍😘\n 长26.5 x 宽13.5 x 高(袋身高)23cm.","specs":{"source":"wsxcme","sourceId":"_dhHhH2wcmj1SADIG4kAkRd63Fv68lC3Kdf00UyQ","sourceTagId":80411239,"sourceTagName":"巴宝莉/女包","rawTitle":"❤️小号!黑色条纹!柔软立挺的肩背包,(专柜这样形容)咱家也是一致的 既柔软又立挺👍🌹\n可不像别家硬邦邦的🤭\n选用棉质斜纹面料打造。于意大利工坊匠制而成,装饰精纺 Bur 格纹。采用无内衬设计,质地轻盈。融入光滑小牛皮饰边,搭配可拆式拉链收纳袋。来自 Bur经典之作系列,以鲜明品牌风格诠释衣橱必备款式。人见人爱👍😘\n 长26.5 x 宽13.5 x 高(袋身高)23cm."},"price":null,"currency":"CNY","moq":1,"category":"burberry-women-bags","status":"active","alibaba_url":null,"images":["https://xcimg.szwego.com/img/d5e7a5ce/20250304/a1741079842816_3771.jpg","https://xcimg.szwego.com/img/d5e7a5ce/20250304/a1741079842822_0446.jpg","https://xcimg.szwego.com/img/d5e7a5ce/20250304/a1741079842819_1431.jpg","https://xcimg.szwego.com/img/d5e7a5ce/20250304/a1741079842817_4833.jpg","https://xcimg.szwego.com/img/d5e7a5ce/20250304/a1741079842820_2176.jpg","https://xcimg.szwego.com/img/d5e7a5ce/20250304/a1741079842819_4280.jpg","https://xcimg.szwego.com/img/d5e7a5ce/20250304/a1741079843745_5432.jpg","https://xcimg.szwego.com/img/d5e7a5ce/20250304/a1741079843747_0332.jpg","https://xcimg.szwego.com/img/d5e7a5ce/20250304/a1741079843748_7516.jpg"],"created_at":"2026-06-29T10:29:02.789Z"},{"id":"item-a8d466b467f2","sku":"_dmTmT6jyyxMeIPJzxkggNDmh73XqvAqDXLr7rdw","name_en":"Burberry Women Bags","name_cn":"官网图","specs":{"source":"wsxcme","sourceId":"_dmTmT6jyyxMeIPJzxkggNDmh73XqvAqDXLr7rdw","sourceTagId":80411239,"sourceTagName":"巴宝莉/女包","rawTitle":"官网图"},"price":null,"currency":"CNY","moq":1,"category":"burberry-women-bags","status":"active","alibaba_url":null,"images":["https://xcimg.szwego.com/20220323/i1648017754_2217_0.jpg","https://xcimg.szwego.com/20220323/i1648017754_5936_1.jpg","https://xcimg.szwego.com/20220323/i1648017754_5210_2.jpg","https://xcimg.szwego.com/20220323/i1648017754_4327_3.jpg","https://xcimg.szwego.com/20220323/i1648017764_3641_0.jpg"],"created_at":"2026-06-29T10:27:59.132Z"},{"id":"item-a67634d7397d","sku":"_d1a1a1_WwOhN1eaV5tSFZvhPTbyZDvigwwnIQaw","name_en":"Burberry Women Bags","name_cn":"#上身效果图","specs":{"source":"wsxcme","sourceId":"_d1a1a1_WwOhN1eaV5tSFZvhPTbyZDvigwwnIQaw","sourceTagId":80411239,"sourceTagName":"巴宝莉/女包","rawTitle":"#上身效果图"},"price":null,"currency":"CNY","moq":1,"category":"burberry-women-bags","status":"active","alibaba_url":null,"images":["https://xcimg.szwego.com/img/a78c42d4/20231023/i1698043406_6603_0.jpg","https://xcimg.szwego.com/img/a78c42d4/20231023/i1698043406_5420_1.jpg"],"created_at":"2026-06-29T10:29:02.939Z"},{"id":"item-a62df8c2777c","sku":"_d_1_1neB5DEfeli19YTc918HKe46bwGJDuvA8nQ","name_en":"Burberry Women Bags","name_cn":"新品\n【配盒】巴宝莉TB bag,TB专属标识锁扣设计包包,没有过于繁复的设计,简单又经典,恰到好处的容纳度,诠释摩登与传统的优雅交融,契合日常生活中各式各样的穿搭,收获了大批明星时尚icon的喜爱!!\n尺寸21-7-14CM","specs":{"source":"wsxcme","sourceId":"_d_1_1neB5DEfeli19YTc918HKe46bwGJDuvA8nQ","sourceTagId":80411239,"sourceTagName":"巴宝莉/女包","rawTitle":"新品\n【配盒】巴宝莉TB bag,TB专属标识锁扣设计包包,没有过于繁复的设计,简单又经典,恰到好处的容纳度,诠释摩登与传统的优雅交融,契合日常生活中各式各样的穿搭,收获了大批明星时尚icon的喜爱!!\n尺寸21-7-14CM"},"price":null,"currency":"CNY","moq":1,"category":"burberry-women-bags","status":"active","alibaba_url":null,"images":["https://xcimg.szwego.com/20230320/i1679251593_3886_0.jpg","https://xcimg.szwego.com/20230320/i1679251593_823_1.jpg","https://xcimg.szwego.com/20230320/i1679251593_2327_2.jpg","https://xcimg.szwego.com/20230320/i1679251593_8732_3.jpg","https://xcimg.szwego.com/20230320/i1679251593_2907_4.jpg","https://xcimg.szwego.com/20230320/i1679251593_4603_5.jpg","https://xcimg.szwego.com/20230320/i1679251593_2134_6.jpg","https://xcimg.szwego.com/20230320/i1679251593_6609_7.jpg","https://xcimg.szwego.com/20230320/i1679251593_2167_8.jpg"],"created_at":"2025-02-08T12:43:27.843Z"},{"id":"item-a55a3c09c0eb","sku":"_do4o4xvAslA5HC4FAHM7f3B74p3zT7yBjfGnW_Q","name_en":"Burberry Women Bags","name_cn":"巴宝莉【8871】大号\n精巧的「Title - 泰尔勒手袋」,精选典藏 Vintage 复古格纹裁片打造,装饰光滑皮革边饰与三粒铆钉。可用顶部提柄手拎,或以可拆式背带缔造肩背造型。32 x 15 x 25cm","specs":{"source":"wsxcme","sourceId":"_do4o4xvAslA5HC4FAHM7f3B74p3zT7yBjfGnW_Q","sourceTagId":80411239,"sourceTagName":"巴宝莉/女包","rawTitle":"巴宝莉【8871】大号\n精巧的「Title - 泰尔勒手袋」,精选典藏 Vintage 复古格纹裁片打造,装饰光滑皮革边饰与三粒铆钉。可用顶部提柄手拎,或以可拆式背带缔造肩背造型。32 x 15 x 25cm"},"price":null,"currency":"CNY","moq":1,"category":"burberry-women-bags","status":"active","alibaba_url":null,"images":["https://xcimg.szwego.com/20200723/a1595519862894_5120.jpg","https://xcimg.szwego.com/20200723/a1595519863338_2846.jpg","https://xcimg.szwego.com/20200723/a1595519863814_5131.jpg","https://xcimg.szwego.com/20200723/a1595519864199_2770.jpg","https://xcimg.szwego.com/20200723/a1595519864822_5170.jpg","https://xcimg.szwego.com/20200723/a1595519865186_7064.jpg","https://xcimg.szwego.com/20200723/a1595519865573_5648.jpg","https://xcimg.szwego.com/20200723/a1595519866002_7124.jpg","https://xcimg.szwego.com/20200723/a1595519866401_3815.jpg"],"created_at":"2025-02-08T12:43:27.837Z"},{"id":"item-a1ec0f8976f0","sku":"_dukukw-k4E3UV0j8acOLz7LOMOM6Ix3OVZSrjtQ","name_en":"Burberry Women Bags","name_cn":"官网图","specs":{"source":"wsxcme","sourceId":"_dukukw-k4E3UV0j8acOLz7LOMOM6Ix3OVZSrjtQ","sourceTagId":80411239,"sourceTagName":"巴宝莉/女包","rawTitle":"官网图"},"price":null,"currency":"CNY","moq":1,"category":"burberry-women-bags","status":"active","alibaba_url":null,"images":["https://xcimg.szwego.com/img/d5e7a5ce/20250530/a1748585166067_0102.jpg","https://xcimg.szwego.com/img/d5e7a5ce/20250530/a1748585166070_6177.jpg","https://xcimg.szwego.com/img/d5e7a5ce/20250530/a1748585166072_5214.jpg","https://xcimg.szwego.com/img/d5e7a5ce/20250530/a1748585166073_1156.jpg","https://xcimg.szwego.com/img/d5e7a5ce/20250530/a1748585166073_6400.jpg"],"created_at":"2026-06-29T10:27:58.632Z"},{"id":"item-a1183b5527c8","sku":"_dKdKdLhnRd36q36YChkxZysAcg68Nzq8qSiDjCw","name_en":"Burberry Women Bags","name_cn":"巴宝莉/女包","specs":{"source":"wsxcme","sourceId":"_dKdKdLhnRd36q36YChkxZysAcg68Nzq8qSiDjCw","sourceTagId":80411239,"sourceTagName":"巴宝莉/女包","rawTitle":""},"price":null,"currency":"CNY","moq":1,"category":"burberry-women-bags","status":"active","alibaba_url":null,"images":["https://xcimg.szwego.com/img/d5e7a5ce/20250530/a1748583482251_6675.jpg"],"created_at":"2026-06-29T10:27:58.782Z"},{"id":"item-902eea35215a","sku":"_dhwhwozm4ZaZJJqtRqYswzmzPwmzNpnJzgWfu7g","name_en":"Burberry Women Bags","name_cn":"挂拍细节,很有腔调的一款包,秋冬季大衣风衣的绝配,牛皮搭配战马面料,超有复古感,细节做的非常牛掰,两侧的铆钉设计也是绝了,非常独特的氛围!","specs":{"source":"wsxcme","sourceId":"_dhwhwozm4ZaZJJqtRqYswzmzPwmzNpnJzgWfu7g","sourceTagId":80411239,"sourceTagName":"巴宝莉/女包","rawTitle":"挂拍细节,很有腔调的一款包,秋冬季大衣风衣的绝配,牛皮搭配战马面料,超有复古感,细节做的非常牛掰,两侧的铆钉设计也是绝了,非常独特的氛围!"},"price":null,"currency":"CNY","moq":1,"category":"burberry-women-bags","status":"active","alibaba_url":null,"images":["https://xcimg.szwego.com/20211202/i1638456169_2311_0.jpg","https://xcimg.szwego.com/20211202/i1638456169_2824_1.jpg","https://xcimg.szwego.com/20211202/i1638456169_9942_2.jpg","https://xcimg.szwego.com/20211202/i1638456169_5581_3.jpg","https://xcimg.szwego.com/20211202/i1638456169_2073_4.jpg","https://xcimg.szwego.com/20211202/i1638456169_4281_5.jpg","https://xcimg.szwego.com/20211202/i1638456169_6541_6.jpg","https://xcimg.szwego.com/20211202/i1638456169_7445_7.jpg","https://xcimg.szwego.com/20211202/i1638456169_1802_8.jpg"],"created_at":"2025-01-20T12:46:12.724Z"},{"id":"item-88fb1f68866b","sku":"_dkOkONCPyfg666rWb1k2iH2DWDFB7O4vmqwXG4Q","name_en":"Burberry Women Bags","name_cn":"黑色平铺细节,秋冬系列线条简洁挺阔,造型复古又时尚,原汁原味的东西,品相完美","specs":{"source":"wsxcme","sourceId":"_dkOkONCPyfg666rWb1k2iH2DWDFB7O4vmqwXG4Q","sourceTagId":80411239,"sourceTagName":"巴宝莉/女包","rawTitle":"黑色平铺细节,秋冬系列线条简洁挺阔,造型复古又时尚,原汁原味的东西,品相完美"},"price":null,"currency":"CNY","moq":1,"category":"burberry-women-bags","status":"active","alibaba_url":null,"images":["https://xcimg.szwego.com/20211006/i1633503538_5350_1.jpg","https://xcimg.szwego.com/20211006/i1633503538_3745_2.jpg","https://xcimg.szwego.com/20211006/i1633503538_6838_3.jpg","https://xcimg.szwego.com/20211006/i1633503538_491_4.jpg","https://xcimg.szwego.com/20211006/i1633503538_2871_5.jpg","https://xcimg.szwego.com/20211006/i1633503538_4185_6.jpg"],"created_at":"2025-01-20T12:46:12.805Z"},{"id":"item-8791cba43b5b","sku":"_d4242Ij-4pEmSlBNlvF_UQEPVIHhA8tSq6oZczQ","name_en":"Burberry Women Bags","name_cn":"上身图","specs":{"source":"wsxcme","sourceId":"_d4242Ij-4pEmSlBNlvF_UQEPVIHhA8tSq6oZczQ","sourceTagId":80411239,"sourceTagName":"巴宝莉/女包","rawTitle":"上身图"},"price":null,"currency":"CNY","moq":1,"category":"burberry-women-bags","status":"active","alibaba_url":null,"images":["https://xcimg.szwego.com/img/d5e7a5ce/20250530/a1748583586617_8251.jpg","https://xcimg.szwego.com/img/d5e7a5ce/20250530/a1748583586696_7846.jpg","https://xcimg.szwego.com/img/d5e7a5ce/20250530/a1748583586624_6307.jpg","https://xcimg.szwego.com/img/d5e7a5ce/20250530/a1748583586665_6244.jpg","https://xcimg.szwego.com/img/d5e7a5ce/20250530/a1748583586631_7317.jpg","https://xcimg.szwego.com/img/d5e7a5ce/20250530/a1748583586659_7323.jpg","https://xcimg.szwego.com/img/d5e7a5ce/20250530/a1748583587461_4443.jpg","https://xcimg.szwego.com/img/d5e7a5ce/20250530/a1748583587495_8686.jpg","https://xcimg.szwego.com/img/d5e7a5ce/20250530/a1748583587451_3730.jpg"],"created_at":"2026-06-29T10:27:58.822Z"},{"id":"item-7f7867d9884c","sku":"_dA0A05HSf5b54kkvLxn5Onf0ePLHDER7Oa0x5Vg","name_en":"Burberry Women Bags","name_cn":"上身图","specs":{"source":"wsxcme","sourceId":"_dA0A05HSf5b54kkvLxn5Onf0ePLHDER7Oa0x5Vg","sourceTagId":80411239,"sourceTagName":"巴宝莉/女包","rawTitle":"上身图"},"price":null,"currency":"CNY","moq":1,"category":"burberry-women-bags","status":"active","alibaba_url":null,"images":["https://xcimg.szwego.com/img/d5e7a5ce/20251114/a1763099007902_6582.jpg","https://xcimg.szwego.com/img/d5e7a5ce/20251114/a1763099007900_5034.jpg","https://xcimg.szwego.com/img/d5e7a5ce/20251114/a1763099007899_6852.jpg","https://xcimg.szwego.com/img/d5e7a5ce/20251114/a1763099007901_4381.jpg","https://xcimg.szwego.com/img/d5e7a5ce/20251114/a1763099007902_7243.jpg","https://xcimg.szwego.com/img/d5e7a5ce/20251114/a1763099007903_2178.jpg","https://xcimg.szwego.com/img/d5e7a5ce/20251114/a1763099008440_0467.jpg","https://xcimg.szwego.com/img/d5e7a5ce/20251114/a1763099008442_7003.jpg","https://xcimg.szwego.com/img/d5e7a5ce/20251114/a1763099008443_8656.jpg"],"created_at":"2026-06-29T10:27:58.532Z"},{"id":"item-7f2ed43d045c","sku":"_dMnMnlhnFh761gWHbZlk95PaXC82BlxvfNXCm1w","name_en":"Burberry Women Bags","name_cn":"配原装盒","specs":{"source":"wsxcme","sourceId":"_dMnMnlhnFh761gWHbZlk95PaXC82BlxvfNXCm1w","sourceTagId":80411239,"sourceTagName":"巴宝莉/女包","rawTitle":"配原装盒"},"price":null,"currency":"CNY","moq":1,"category":"burberry-women-bags","status":"active","alibaba_url":null,"images":["https://xcimg.szwego.com/imgHD/b7f85c57/20260403/cmp_i1775187829866_9698_0_0.jpg","https://xcimg.szwego.com/imgHD/b7f85c57/20260403/cmp_i1775187829850_156_0_1.jpg","https://xcimg.szwego.com/imgHD/b7f85c57/20260403/cmp_i1775187829816_8841_0_2.jpg","https://xcimg.szwego.com/imgHD/b7f85c57/20260403/cmp_i1775187829860_3542_0_3.jpg"],"created_at":"2026-06-29T10:29:02.759Z"},{"id":"item-76d198074483","sku":"_dnnnnEv5s7bpAjHD_s0rbM6QdOngPU35P1jzSPw","name_en":"Burberry Women Bags","name_cn":"巴宝莉/女包","specs":{"source":"wsxcme","sourceId":"_dnnnnEv5s7bpAjHD_s0rbM6QdOngPU35P1jzSPw","sourceTagId":80411239,"sourceTagName":"巴宝莉/女包","rawTitle":""},"price":null,"currency":"CNY","moq":1,"category":"burberry-women-bags","status":"active","alibaba_url":null,"images":["https://xcimg.szwego.com/img/d5e7a5ce/20251114/a1763099264748_4128.jpg","https://xcimg.szwego.com/img/d5e7a5ce/20251114/a1763099264749_1121.jpg","https://xcimg.szwego.com/img/d5e7a5ce/20251114/a1763099264726_4153.jpg"],"created_at":"2026-06-29T10:29:03.009Z"},{"id":"item-75c637481d08","sku":"_duGuG9-QKyQj0NCTCl9Mp4h5zZnq2L4BIFzk0WA","name_en":"Burberry Women Bags","name_cn":"❤️大号!沙色条纹 大号背的是酷😎是高级 是独特 也不用挑身高 有一米六左右来驾驭也是超级无敌好看的,背上气质就出来了!专柜新面料(纯棉的)搭配原厂牛皮,肩背带的边边包的都是原厂牛皮✔️,咱家拒绝超纤哈❌支持对比!!\n尺寸长36 x 宽18.5 x 高(袋身高)33cm.","specs":{"source":"wsxcme","sourceId":"_duGuG9-QKyQj0NCTCl9Mp4h5zZnq2L4BIFzk0WA","sourceTagId":80411239,"sourceTagName":"巴宝莉/女包","rawTitle":"❤️大号!沙色条纹 大号背的是酷😎是高级 是独特 也不用挑身高 有一米六左右来驾驭也是超级无敌好看的,背上气质就出来了!专柜新面料(纯棉的)搭配原厂牛皮,肩背带的边边包的都是原厂牛皮✔️,咱家拒绝超纤哈❌支持对比!!\n尺寸长36 x 宽18.5 x 高(袋身高)33cm."},"price":null,"currency":"CNY","moq":1,"category":"burberry-women-bags","status":"active","alibaba_url":null,"images":["https://xcimg.szwego.com/img/d5e7a5ce/20250304/a1741079314828_1448.jpg","https://xcimg.szwego.com/img/d5e7a5ce/20250304/a1741079314831_1577.jpg","https://xcimg.szwego.com/img/d5e7a5ce/20250304/a1741079314832_8341.jpg","https://xcimg.szwego.com/img/d5e7a5ce/20250304/a1741079314833_7640.jpg","https://xcimg.szwego.com/img/d5e7a5ce/20250304/a1741079314836_4167.jpg","https://xcimg.szwego.com/img/d5e7a5ce/20250304/a1741079314839_2323.jpg","https://xcimg.szwego.com/img/d5e7a5ce/20250304/a1741079315687_0678.jpg","https://xcimg.szwego.com/img/d5e7a5ce/20250304/a1741079315663_8118.jpg","https://xcimg.szwego.com/img/d5e7a5ce/20250304/a1741079315665_4340.jpg"],"created_at":"2026-06-29T10:27:59.332Z"},{"id":"item-7201f5aa68c9","sku":"_dBWBW2E1WfR3R21yqvvB8dsGyDCi3OURQTplZ2A","name_en":"Burberry Women Bags","name_cn":"官网图","specs":{"source":"wsxcme","sourceId":"_dBWBW2E1WfR3R21yqvvB8dsGyDCi3OURQTplZ2A","sourceTagId":80411239,"sourceTagName":"巴宝莉/女包","rawTitle":"官网图"},"price":null,"currency":"CNY","moq":1,"category":"burberry-women-bags","status":"active","alibaba_url":null,"images":["https://xcimg.szwego.com/img/d5e7a5ce/20241022/a1729580004113_8815.jpg","https://xcimg.szwego.com/img/d5e7a5ce/20241022/a1729580004115_2741.jpg","https://xcimg.szwego.com/img/d5e7a5ce/20241022/a1729580004117_2633.jpg","https://xcimg.szwego.com/img/d5e7a5ce/20241022/a1729580004118_2846.jpg"],"created_at":"2026-06-29T10:27:58.662Z"},{"id":"item-6e708ce6338a","sku":"_diSiS-xHX3dQ7wVJCV1GMcTl7xYNgU3oJp4xgqQ","name_en":"Burberry Women Bags","name_cn":"官网 售价!","specs":{"source":"wsxcme","sourceId":"_diSiS-xHX3dQ7wVJCV1GMcTl7xYNgU3oJp4xgqQ","sourceTagId":80411239,"sourceTagName":"巴宝莉/女包","rawTitle":"官网 售价!"},"price":null,"currency":"CNY","moq":1,"category":"burberry-women-bags","status":"active","alibaba_url":null,"images":["https://xcimg.szwego.com/20220323/i1648017355_9999_0.jpg"],"created_at":"2026-06-29T10:27:59.062Z"},{"id":"item-6d37596ef27a","sku":"_dwMwMm8vQeau3s9bSyrWqy4LVfJbZcFZLOfvs5g","name_en":"Burberry Women Bags","name_cn":"巴宝莉/女包","specs":{"source":"wsxcme","sourceId":"_dwMwMm8vQeau3s9bSyrWqy4LVfJbZcFZLOfvs5g","sourceTagId":80411239,"sourceTagName":"巴宝莉/女包","rawTitle":""},"price":null,"currency":"CNY","moq":1,"category":"burberry-women-bags","status":"active","alibaba_url":null,"images":["https://xcimg.szwego.com/img/d5e7a5ce/20251114/a1763099152408_6183.jpg"],"created_at":"2026-06-29T10:27:58.592Z"},{"id":"item-6c651953758d","sku":"_dS5S5_BN3XMzEGKaJDGhwmCj5mg4-sQiPe-1YDg","name_en":"Burberry Women Bags","name_cn":"现货","specs":{"source":"wsxcme","sourceId":"_dS5S5_BN3XMzEGKaJDGhwmCj5mg4-sQiPe-1YDg","sourceTagId":80411239,"sourceTagName":"巴宝莉/女包","rawTitle":"现货"},"price":null,"currency":"CNY","moq":1,"category":"burberry-women-bags","status":"active","alibaba_url":null,"images":["https://xcimg.szwego.com/img/d5e7a5ce/20251105/a1762314519120_5185.jpg","https://xcimg.szwego.com/img/d5e7a5ce/20251105/a1762314519125_1221.jpg","https://xcimg.szwego.com/img/d5e7a5ce/20251105/a1762314519122_8785.jpg","https://xcimg.szwego.com/img/d5e7a5ce/20251105/a1762314519118_1760.jpg","https://xcimg.szwego.com/img/d5e7a5ce/20251105/a1762314519119_6406.jpg","https://xcimg.szwego.com/img/d5e7a5ce/20251105/a1762314519124_1514.jpg","https://xcimg.szwego.com/img/d5e7a5ce/20251105/a1762314519568_1364.jpg","https://xcimg.szwego.com/img/d5e7a5ce/20251105/a1762314519569_3447.jpg","https://xcimg.szwego.com/img/d5e7a5ce/20251105/a1762314519570_4052.jpg"],"created_at":"2026-06-29T10:27:59.032Z"},{"id":"item-6bd4c41b1005","sku":"_dPFPFYWdR_OxnOAVoakXadM7I7DLU84uo0wKDcw","name_en":"Burberry Women Bags","name_cn":"在看一下进口烫金➕独有防伪编码 水洗麦!","specs":{"source":"wsxcme","sourceId":"_dPFPFYWdR_OxnOAVoakXadM7I7DLU84uo0wKDcw","sourceTagId":80411239,"sourceTagName":"巴宝莉/女包","rawTitle":"在看一下进口烫金➕独有防伪编码 水洗麦!"},"price":null,"currency":"CNY","moq":1,"category":"burberry-women-bags","status":"active","alibaba_url":null,"images":["https://xcimg.szwego.com/20220423/i1650693893_7128_0.jpg","https://xcimg.szwego.com/20220423/i1650693893_5943_1.jpg","https://xcimg.szwego.com/20220423/i1650693893_3952_2.jpg","https://xcimg.szwego.com/20220423/i1650693893_678_3.jpg","https://xcimg.szwego.com/20220423/i1650693893_2041_4.jpg"],"created_at":"2026-06-29T10:27:59.192Z"},{"id":"item-6899284c6dd5","sku":"_dMPMPrmnC9jYo1RD4i_jfBPHKBtNRYgZ1gLwoZA","name_en":"Burberry Women Bags","name_cn":"在看一下进口烫金➕独有防伪编码 水洗麦!","specs":{"source":"wsxcme","sourceId":"_dMPMPrmnC9jYo1RD4i_jfBPHKBtNRYgZ1gLwoZA","sourceTagId":80411239,"sourceTagName":"巴宝莉/女包","rawTitle":"在看一下进口烫金➕独有防伪编码 水洗麦!"},"price":null,"currency":"CNY","moq":1,"category":"burberry-women-bags","status":"active","alibaba_url":null,"images":["https://xcimg.szwego.com/20220323/i1648016837_9606_0.jpg","https://xcimg.szwego.com/20220323/i1648016837_589_1.jpg","https://xcimg.szwego.com/20220323/i1648016837_8565_2.jpg","https://xcimg.szwego.com/20220323/i1648016837_4376_3.jpg","https://xcimg.szwego.com/20220323/i1648016837_4975_4.jpg"],"created_at":"2026-06-29T10:27:59.112Z"}],"page":228,"pageSize":24,"total":10075,"totalPages":420}
