{"items":[{"id":"item-76a84dfb89bd","sku":"_dututoD1YonBBn8NHhlDwouw0G8X3quI0LVuscg","name_en":"Coach蔻驰代工厂 渠道货Meadow 元宝托特包单肩包CR167帆布,妈咪包,33+25+15","name_cn":"Coach蔻驰代工厂 渠道货Meadow 元宝托特包单肩包CR167帆布,妈咪包,33+25+15","specs":{"source":"wsxcme","sourceId":"_dututoD1YonBBn8NHhlDwouw0G8X3quI0LVuscg","sourceTagId":77388356,"sourceTagName":"MCM、寇驰/女包","rawTitle":"Coach蔻驰代工厂 渠道货Meadow 元宝托特包单肩包CR167帆布,妈咪包,33+25+15"},"price":null,"currency":"CNY","moq":1,"category":"mcm-coach-women-bags","status":"active","alibaba_url":null,"images":["https://xcimg.szwego.com/img/0386cd27/20240521/i1716306120_9769_6.jpg","https://xcimg.szwego.com/img/0386cd27/20240521/i1716306120_1490_3.jpg","https://xcimg.szwego.com/img/0386cd27/20240521/i1716306120_439_0.jpg","https://xcimg.szwego.com/img/0386cd27/20240521/i1716306120_5580_1.jpg","https://xcimg.szwego.com/img/0386cd27/20240521/i1716306120_1830_4.jpg","https://xcimg.szwego.com/img/0386cd27/20240521/i1716306120_1519_2.jpg","https://xcimg.szwego.com/img/0386cd27/20240521/i1716306120_3641_5.jpg"],"created_at":"2024-12-02T06:17:13.234Z"},{"id":"item-8005aef76050","sku":"_dAEAEcygIYjJI0dG1eU7MyhoOfzf5ljCw5gcyyw","name_en":"coach蔻驰代工厂 新款茶花马鞍腋下包CU032白 CU536 EMMY 23  两色现货出 尺寸:22.5x13x5cm","name_cn":"coach蔻驰代工厂 新款茶花马鞍腋下包CU032白 CU536 EMMY 23  两色现货出 尺寸:22.5x13x5cm","specs":{"source":"wsxcme","sourceId":"_dAEAEcygIYjJI0dG1eU7MyhoOfzf5ljCw5gcyyw","sourceTagId":77388356,"sourceTagName":"MCM、寇驰/女包","dimensions":{"lengthCm":22.5,"heightCm":13,"widthCm":5},"rawTitle":"coach蔻驰代工厂 新款茶花马鞍腋下包CU032白 CU536 EMMY 23  两色现货出 尺寸:22.5x13x5cm"},"price":null,"currency":"CNY","moq":1,"category":"mcm-coach-women-bags","status":"active","alibaba_url":null,"images":["https://xcimg.szwego.com/img/acc04b4f/20240519/i1716084770_8924_0.jpg","https://xcimg.szwego.com/img/acc04b4f/20240519/i1716084766_3679_5.jpg","https://xcimg.szwego.com/img/acc04b4f/20240519/i1716084770_1619_0.jpg","https://xcimg.szwego.com/img/acc04b4f/20240519/i1716084770_9901_0.jpg","https://xcimg.szwego.com/img/acc04b4f/20240519/i1716084770_8970_0.jpg","https://xcimg.szwego.com/img/acc04b4f/20240519/i1716084766_7650_0.jpg","https://xcimg.szwego.com/img/acc04b4f/20240519/i1716084770_2825_0.jpg","https://xcimg.szwego.com/img/acc04b4f/20240519/i1716084766_4209_4.jpg","https://xcimg.szwego.com/img/acc04b4f/20240519/i1716084770_6088_0.jpg"],"created_at":"2024-12-02T06:17:13.213Z"},{"id":"item-4ebbee5d6104","sku":"_d_5_5R1-1_p4A-0V8ChPeo9ddulCPRFQzePn9qg","name_en":"coach蔻驰代工厂 新款茶花马鞍腋下包CU032白 CU536 EMMY 23  两色现货出 尺寸:22.5x13x5cm","name_cn":"coach蔻驰代工厂 新款茶花马鞍腋下包CU032白 CU536 EMMY 23  两色现货出 尺寸:22.5x13x5cm","specs":{"source":"wsxcme","sourceId":"_d_5_5R1-1_p4A-0V8ChPeo9ddulCPRFQzePn9qg","sourceTagId":77388356,"sourceTagName":"MCM、寇驰/女包","dimensions":{"lengthCm":22.5,"heightCm":13,"widthCm":5},"rawTitle":"coach蔻驰代工厂 新款茶花马鞍腋下包CU032白 CU536 EMMY 23  两色现货出 尺寸:22.5x13x5cm"},"price":null,"currency":"CNY","moq":1,"category":"mcm-coach-women-bags","status":"active","alibaba_url":null,"images":["https://xcimg.szwego.com/img/acc04b4f/20240519/i1716084751_4049_0.jpg","https://xcimg.szwego.com/img/acc04b4f/20240519/i1716084751_9835_0.jpg","https://xcimg.szwego.com/img/acc04b4f/20240519/i1716084751_2047_0.jpg","https://xcimg.szwego.com/img/acc04b4f/20240519/i1716084747_9442_7.jpg","https://xcimg.szwego.com/img/acc04b4f/20240519/i1716084747_176_5.jpg","https://xcimg.szwego.com/img/acc04b4f/20240519/i1716084750_3670_0.jpg","https://xcimg.szwego.com/img/acc04b4f/20240519/i1716084751_2647_0.jpg","https://xcimg.szwego.com/img/acc04b4f/20240519/i1716084751_5606_0.jpg","https://xcimg.szwego.com/img/acc04b4f/20240519/i1716084751_9128_0.jpg"],"created_at":"2024-12-02T06:17:13.212Z"},{"id":"item-e2766e1a3dcf","sku":"_dtRtRzlufMRfXZ0r9fXmKnsBlN4Y6j3MzE155tQ","name_en":"coach蔻驰代工厂 Coach 6月新款Andrea 马车相机包 CT778 真的不能错过呀 颜值也太高了吧!简约时尚,百搭又实用! 无论是自用还是送人都超有面子! 尺寸19/11/5","name_cn":"coach蔻驰代工厂 Coach 6月新款Andrea 马车相机包 CT778 真的不能错过呀 颜值也太高了吧!简约时尚,百搭又实用! 无论是自用还是送人都超有面子! 尺寸19/11/5","specs":{"source":"wsxcme","sourceId":"_dtRtRzlufMRfXZ0r9fXmKnsBlN4Y6j3MzE155tQ","sourceTagId":77388356,"sourceTagName":"MCM、寇驰/女包","rawTitle":"coach蔻驰代工厂 Coach 6月新款Andrea 马车相机包 CT778 真的不能错过呀 颜值也太高了吧!简约时尚,百搭又实用! 无论是自用还是送人都超有面子! 尺寸19/11/5"},"price":null,"currency":"CNY","moq":1,"category":"mcm-coach-women-bags","status":"active","alibaba_url":null,"images":["https://xcimg.szwego.com/20240616/i1718516847_9623_0.jpg","https://xcimg.szwego.com/20240616/i1718516847_7662_1.jpg","https://xcimg.szwego.com/20240616/i1718516847_2870_2.jpg","https://xcimg.szwego.com/20240616/i1718516847_1389_3.jpg","https://xcimg.szwego.com/20240616/i1718516847_9257_4.jpg","https://xcimg.szwego.com/20240616/i1718516847_6476_5.jpg","https://xcimg.szwego.com/20240616/i1718516847_1685_6.jpg","https://xcimg.szwego.com/20240616/i1718516847_963_7.jpg","https://xcimg.szwego.com/20240616/i1718516847_645_8.jpg"],"created_at":"2024-12-02T06:17:13.206Z"},{"id":"item-a1223a7693bb","sku":"_dn3n31tRHv8TRdMaGgrPcwJ4jXwS8KIvJzzsQlw","name_en":"coach蔻驰代工厂 Coach 6月新款Andrea 马车相机包 CT778 真的不能错过呀 颜值也太高了吧!简约时尚,百搭又实用! 无论是自用还是送人都超有面子! 尺寸19/11/5","name_cn":"coach蔻驰代工厂 Coach 6月新款Andrea 马车相机包 CT778 真的不能错过呀 颜值也太高了吧!简约时尚,百搭又实用! 无论是自用还是送人都超有面子! 尺寸19/11/5","specs":{"source":"wsxcme","sourceId":"_dn3n31tRHv8TRdMaGgrPcwJ4jXwS8KIvJzzsQlw","sourceTagId":77388356,"sourceTagName":"MCM、寇驰/女包","rawTitle":"coach蔻驰代工厂 Coach 6月新款Andrea 马车相机包 CT778 真的不能错过呀 颜值也太高了吧!简约时尚,百搭又实用! 无论是自用还是送人都超有面子! 尺寸19/11/5"},"price":null,"currency":"CNY","moq":1,"category":"mcm-coach-women-bags","status":"active","alibaba_url":null,"images":["https://xcimg.szwego.com/20240616/i1718516709_1572_0.jpg","https://xcimg.szwego.com/20240616/i1718516709_204_1.jpg","https://xcimg.szwego.com/20240616/i1718516709_9949_2.jpg","https://xcimg.szwego.com/20240616/i1718516709_6475_3.jpg","https://xcimg.szwego.com/20240616/i1718516709_9619_4.jpg","https://xcimg.szwego.com/20240616/i1718516709_746_5.jpg","https://xcimg.szwego.com/20240616/i1718516709_2738_6.jpg","https://xcimg.szwego.com/20240616/i1718516709_386_7.jpg","https://xcimg.szwego.com/20240616/i1718516709_2819_8.jpg"],"created_at":"2024-12-02T06:17:13.205Z"},{"id":"item-485df44cc31e","sku":"_d9s9sxtI9pjFJwLzz-SNLDNhfLpD3V7Thg1A2oA","name_en":"coach蔻驰代工厂 Coach 6月新款Andrea 马车相机包 CT778 真的不能错过呀 颜值也太高了吧!简约时尚,百搭又实用! 无论是自用还是送人都超有面子! 尺寸19/11/5","name_cn":"coach蔻驰代工厂 Coach 6月新款Andrea 马车相机包 CT778 真的不能错过呀 颜值也太高了吧!简约时尚,百搭又实用! 无论是自用还是送人都超有面子! 尺寸19/11/5","specs":{"source":"wsxcme","sourceId":"_d9s9sxtI9pjFJwLzz-SNLDNhfLpD3V7Thg1A2oA","sourceTagId":77388356,"sourceTagName":"MCM、寇驰/女包","rawTitle":"coach蔻驰代工厂 Coach 6月新款Andrea 马车相机包 CT778 真的不能错过呀 颜值也太高了吧!简约时尚,百搭又实用! 无论是自用还是送人都超有面子! 尺寸19/11/5"},"price":null,"currency":"CNY","moq":1,"category":"mcm-coach-women-bags","status":"active","alibaba_url":null,"images":["https://xcimg.szwego.com/20240616/i1718516961_7782_0.jpg","https://xcimg.szwego.com/20240616/i1718516961_7386_1.jpg","https://xcimg.szwego.com/20240616/i1718516961_5015_2.jpg","https://xcimg.szwego.com/20240616/i1718516961_9841_3.jpg","https://xcimg.szwego.com/20240616/i1718516961_9350_4.jpg","https://xcimg.szwego.com/20240616/i1718516961_9150_5.jpg","https://xcimg.szwego.com/20240616/i1718516961_8392_6.jpg","https://xcimg.szwego.com/20240616/i1718516961_6974_7.jpg","https://xcimg.szwego.com/20240616/i1718516961_7540_8.jpg"],"created_at":"2024-12-02T06:17:13.208Z"},{"id":"item-1ebe06828481","sku":"_dl6l6z12Psl_UPDNgqlMUSNa1qd5FLej9pzJdXg","name_en":"coach蔻驰代工厂 Coach 6月新款Andrea 马车相机包 CT778 真的不能错过呀 颜值也太高了吧!简约时尚,百搭又实用! 无论是自用还是送人都超有面子! 尺寸19/11/5","name_cn":"coach蔻驰代工厂 Coach 6月新款Andrea 马车相机包 CT778 真的不能错过呀 颜值也太高了吧!简约时尚,百搭又实用! 无论是自用还是送人都超有面子! 尺寸19/11/5","specs":{"source":"wsxcme","sourceId":"_dl6l6z12Psl_UPDNgqlMUSNa1qd5FLej9pzJdXg","sourceTagId":77388356,"sourceTagName":"MCM、寇驰/女包","rawTitle":"coach蔻驰代工厂 Coach 6月新款Andrea 马车相机包 CT778 真的不能错过呀 颜值也太高了吧!简约时尚,百搭又实用! 无论是自用还是送人都超有面子! 尺寸19/11/5"},"price":null,"currency":"CNY","moq":1,"category":"mcm-coach-women-bags","status":"active","alibaba_url":null,"images":["https://xcimg.szwego.com/20240616/i1718516941_2139_0.jpg","https://xcimg.szwego.com/20240616/i1718516941_8336_1.jpg","https://xcimg.szwego.com/20240616/i1718516941_4210_2.jpg","https://xcimg.szwego.com/20240616/i1718516941_3280_3.jpg","https://xcimg.szwego.com/20240616/i1718516941_3779_4.jpg","https://xcimg.szwego.com/20240616/i1718516941_5881_5.jpg","https://xcimg.szwego.com/20240616/i1718516941_2240_6.jpg","https://xcimg.szwego.com/20240616/i1718516941_1200_7.jpg","https://xcimg.szwego.com/20240616/i1718516941_880_8.jpg"],"created_at":"2024-12-02T06:17:13.207Z"},{"id":"item-f46387f1b1f9","sku":"_dSySycKub7bqUjCsmdBgIbd12JQDkHH67BpKQnw","name_en":"coach蔻驰代工厂 Coach 6月新款Andrea 真的不能错过呀 CT757 Andrea系列,颜值也太高了吧!简约时尚,百搭又实用!无论是自用还是送人都超有面子! 尺寸21/11/7","name_cn":"coach蔻驰代工厂 Coach 6月新款Andrea 真的不能错过呀 CT757 Andrea系列,颜值也太高了吧!简约时尚,百搭又实用!无论是自用还是送人都超有面子! 尺寸21/11/7","specs":{"source":"wsxcme","sourceId":"_dSySycKub7bqUjCsmdBgIbd12JQDkHH67BpKQnw","sourceTagId":77388356,"sourceTagName":"MCM、寇驰/女包","rawTitle":"coach蔻驰代工厂 Coach 6月新款Andrea 真的不能错过呀 CT757 Andrea系列,颜值也太高了吧!简约时尚,百搭又实用!无论是自用还是送人都超有面子! 尺寸21/11/7"},"price":null,"currency":"CNY","moq":1,"category":"mcm-coach-women-bags","status":"active","alibaba_url":null,"images":["https://xcimg.szwego.com/img/acc04b4f/20240621/i1718940921_9323_0.jpg","https://xcimg.szwego.com/img/acc04b4f/20240621/i1718940921_6924_0.jpg","https://xcimg.szwego.com/img/acc04b4f/20240621/i1718940921_5604_0.jpg","https://xcimg.szwego.com/img/acc04b4f/20240621/i1718940921_7617_0.jpg","https://xcimg.szwego.com/img/acc04b4f/20240621/i1718940921_9559_0.jpg","https://xcimg.szwego.com/img/acc04b4f/20240621/i1718940921_8876_0.jpg","https://xcimg.szwego.com/img/acc04b4f/20240621/i1718940921_8003_0.jpg","https://xcimg.szwego.com/img/acc04b4f/20240621/i1718940921_9246_0.jpg","https://xcimg.szwego.com/img/acc04b4f/20240621/i1718940921_320_0.jpg"],"created_at":"2024-12-02T06:17:13.210Z"},{"id":"item-703958b34148","sku":"_d8H8H7c_8Us3AZ6DSOkPawpAEVrx32aoFqn5b5Q","name_en":"coach蔻驰代工厂 Coach 6月新款Andrea 真的不能错过呀 CT757 Andrea系列,颜值也太高了吧!简约时尚,百搭又实用!无论是自用还是送人都超有面子! 尺寸21/11/7","name_cn":"coach蔻驰代工厂 Coach 6月新款Andrea 真的不能错过呀 CT757 Andrea系列,颜值也太高了吧!简约时尚,百搭又实用!无论是自用还是送人都超有面子! 尺寸21/11/7","specs":{"source":"wsxcme","sourceId":"_d8H8H7c_8Us3AZ6DSOkPawpAEVrx32aoFqn5b5Q","sourceTagId":77388356,"sourceTagName":"MCM、寇驰/女包","rawTitle":"coach蔻驰代工厂 Coach 6月新款Andrea 真的不能错过呀 CT757 Andrea系列,颜值也太高了吧!简约时尚,百搭又实用!无论是自用还是送人都超有面子! 尺寸21/11/7"},"price":null,"currency":"CNY","moq":1,"category":"mcm-coach-women-bags","status":"active","alibaba_url":null,"images":["https://xcimg.szwego.com/img/acc04b4f/20240621/i1718940934_7214_7.jpg","https://xcimg.szwego.com/img/acc04b4f/20240621/i1718940937_9234_0.jpg","https://xcimg.szwego.com/img/acc04b4f/20240621/i1718940934_8891_1.jpg","https://xcimg.szwego.com/img/acc04b4f/20240621/i1718940937_6698_0.jpg","https://xcimg.szwego.com/img/acc04b4f/20240621/i1718940934_6363_3.jpg","https://xcimg.szwego.com/img/acc04b4f/20240621/i1718940937_6675_0.jpg","https://xcimg.szwego.com/img/acc04b4f/20240621/i1718940937_1445_0.jpg","https://xcimg.szwego.com/img/acc04b4f/20240621/i1718940934_2882_6.jpg","https://xcimg.szwego.com/img/acc04b4f/20240621/i1718940937_2742_0.jpg"],"created_at":"2024-12-02T06:17:13.211Z"},{"id":"item-257f064c33c3","sku":"_dhJhJ7Q0PTsUL1olT3qLV9KlroLRcmjwUIQg2Tw","name_en":"coach蔻驰代工厂 Coach 6月新款Andrea 真的不能错过呀 CT757 Andrea系列,颜值也太高了吧!简约时尚,百搭又实用!无论是自用还是送人都超有面子! 尺寸21/11/7","name_cn":"coach蔻驰代工厂 Coach 6月新款Andrea 真的不能错过呀 CT757 Andrea系列,颜值也太高了吧!简约时尚,百搭又实用!无论是自用还是送人都超有面子! 尺寸21/11/7","specs":{"source":"wsxcme","sourceId":"_dhJhJ7Q0PTsUL1olT3qLV9KlroLRcmjwUIQg2Tw","sourceTagId":77388356,"sourceTagName":"MCM、寇驰/女包","rawTitle":"coach蔻驰代工厂 Coach 6月新款Andrea 真的不能错过呀 CT757 Andrea系列,颜值也太高了吧!简约时尚,百搭又实用!无论是自用还是送人都超有面子! 尺寸21/11/7"},"price":null,"currency":"CNY","moq":1,"category":"mcm-coach-women-bags","status":"active","alibaba_url":null,"images":["https://xcimg.szwego.com/img/acc04b4f/20240621/i1718940953_3987_0.jpg","https://xcimg.szwego.com/img/acc04b4f/20240621/i1718940954_580_0.jpg","https://xcimg.szwego.com/img/acc04b4f/20240621/i1718940950_6991_2.jpg","https://xcimg.szwego.com/img/acc04b4f/20240621/i1718940953_8636_0.jpg","https://xcimg.szwego.com/img/acc04b4f/20240621/i1718940953_6868_0.jpg","https://xcimg.szwego.com/img/acc04b4f/20240621/i1718940953_1110_0.jpg","https://xcimg.szwego.com/img/acc04b4f/20240621/i1718940950_4822_1.jpg","https://xcimg.szwego.com/img/acc04b4f/20240621/i1718940954_9750_0.jpg","https://xcimg.szwego.com/img/acc04b4f/20240621/i1718940953_3735_0.jpg"],"created_at":"2024-12-02T06:17:13.209Z"},{"id":"item-f243a13b7cfa","sku":"_dirirA7SsDbNqxrduVCPZMequy3S7R-14rEX8sg","name_en":"Coach四月新品CR653 Softtabby油蜡皮真的提升质感的好手~黑色All black真的太酷辣 尺寸26/16","name_cn":"Coach四月新品CR653 Softtabby油蜡皮真的提升质感的好手~黑色All black真的太酷辣 尺寸26/16","specs":{"source":"wsxcme","sourceId":"_dirirA7SsDbNqxrduVCPZMequy3S7R-14rEX8sg","sourceTagId":77388356,"sourceTagName":"MCM、寇驰/女包","rawTitle":"Coach四月新品CR653 Softtabby油蜡皮真的提升质感的好手~黑色All black真的太酷辣 尺寸26/16"},"price":null,"currency":"CNY","moq":1,"category":"mcm-coach-women-bags","status":"active","alibaba_url":null,"images":["https://xcimg.szwego.com/img/7350b429/20240416/i1713234626_2008_0.jpg","https://xcimg.szwego.com/img/7350b429/20240416/i1713234626_2825_0.jpg","https://xcimg.szwego.com/img/7350b429/20240416/i1713234627_8767_0.jpg","https://xcimg.szwego.com/img/7350b429/20240416/i1713234627_9287_0.jpg","https://xcimg.szwego.com/img/7350b429/20240416/i1713234627_7181_0.jpg","https://xcimg.szwego.com/img/7350b429/20240416/i1713234626_8211_0.jpg","https://xcimg.szwego.com/img/7350b429/20240416/i1713234627_5077_0.jpg","https://xcimg.szwego.com/img/7350b429/20240416/i1713234627_1776_0.jpg","https://xcimg.szwego.com/img/7350b429/20240416/i1713234627_3169_0.jpg"],"created_at":"2024-12-02T06:17:13.184Z"},{"id":"item-5f227a53a3b3","sku":"_doIoIBMO7PYCX-CmJJG4nLDMpr_vzEhCqtTLsiw","name_en":"Coach四月新品CR653 Softtabby油蜡皮真的提升质感的好手~黑色All black真的太酷辣 尺寸26/16","name_cn":"Coach四月新品CR653 Softtabby油蜡皮真的提升质感的好手~黑色All black真的太酷辣 尺寸26/16","specs":{"source":"wsxcme","sourceId":"_doIoIBMO7PYCX-CmJJG4nLDMpr_vzEhCqtTLsiw","sourceTagId":77388356,"sourceTagName":"MCM、寇驰/女包","rawTitle":"Coach四月新品CR653 Softtabby油蜡皮真的提升质感的好手~黑色All black真的太酷辣 尺寸26/16"},"price":null,"currency":"CNY","moq":1,"category":"mcm-coach-women-bags","status":"active","alibaba_url":null,"images":["https://xcimg.szwego.com/img/7350b429/20240416/i1713234590_766_0.jpg","https://xcimg.szwego.com/img/7350b429/20240416/i1713234590_1367_0.jpg","https://xcimg.szwego.com/img/7350b429/20240416/i1713234590_1895_0.jpg","https://xcimg.szwego.com/img/7350b429/20240416/i1713234590_8019_0.jpg","https://xcimg.szwego.com/img/7350b429/20240416/i1713234590_5694_0.jpg","https://xcimg.szwego.com/img/7350b429/20240416/i1713234590_5566_0.jpg","https://xcimg.szwego.com/img/7350b429/20240416/i1713234590_6414_0.jpg","https://xcimg.szwego.com/img/7350b429/20240416/i1713234590_4955_0.jpg","https://xcimg.szwego.com/img/7350b429/20240416/i1713234590_2357_0.jpg"],"created_at":"2024-12-02T06:17:13.183Z"},{"id":"item-6b6b62a24bd6","sku":"_dsTsTyQbWFu9g79F0xHjj--WAZd3QzT1DzIWbmg","name_en":"Coach四月新品CR653 Softtabby油蜡皮真的提升质感的好手~黑色All black真的太酷辣 尺寸26/16。21882166218","name_cn":"Coach四月新品CR653 Softtabby油蜡皮真的提升质感的好手~黑色All black真的太酷辣 尺寸26/16。21882166218","specs":{"source":"wsxcme","sourceId":"_dsTsTyQbWFu9g79F0xHjj--WAZd3QzT1DzIWbmg","sourceTagId":77388356,"sourceTagName":"MCM、寇驰/女包","rawTitle":"Coach四月新品CR653 Softtabby油蜡皮真的提升质感的好手~黑色All black真的太酷辣 尺寸26/16。21882166218"},"price":null,"currency":"CNY","moq":1,"category":"mcm-coach-women-bags","status":"active","alibaba_url":null,"images":["https://xcimg.szwego.com/img/7350b429/20240416/i1713234569_2668_6.jpg","https://xcimg.szwego.com/img/7350b429/20240416/i1713234569_7254_3.jpg","https://xcimg.szwego.com/img/7350b429/20240416/i1713234569_8320_7.jpg","https://xcimg.szwego.com/img/7350b429/20240416/i1713234569_8860_4.jpg","https://xcimg.szwego.com/img/7350b429/20240416/i1713234569_3990_1.jpg","https://xcimg.szwego.com/img/7350b429/20240416/i1713234569_4595_0.jpg","https://xcimg.szwego.com/img/7350b429/20240416/i1713234569_3504_2.jpg","https://xcimg.szwego.com/img/7350b429/20240416/i1713234569_8054_5.jpg","https://xcimg.szwego.com/img/7350b429/20240416/i1713234569_779_8.jpg"],"created_at":"2024-12-02T06:17:13.182Z"},{"id":"item-a5f7a3522deb","sku":"_d-5-5DWXof4ECwAZnJJ639WbVDYIj5BNqyWWG7A","name_en":"Constance 18 新款  0L积雨云灰   康斯坦  带镜子 全手工 原厂Epsom 镀厚金五金  金扣","name_cn":"Constance 18 新款  0L积雨云灰   康斯坦  带镜子 全手工 原厂Epsom 镀厚金五金  金扣","specs":{"source":"wsxcme","sourceId":"_d-5-5DWXof4ECwAZnJJ639WbVDYIj5BNqyWWG7A","sourceTagId":76963559,"sourceTagName":"爱马仕/女包","rawTitle":"Constance 18 新款  0L积雨云灰   康斯坦  带镜子 全手工 原厂Epsom 镀厚金五金  金扣"},"price":null,"currency":"CNY","moq":1,"category":"hermes-women-bags","status":"active","alibaba_url":null,"images":["https://xcimg.szwego.com/img/109d8128/20231224/a1703401190449_8135.jpg","https://xcimg.szwego.com/img/109d8128/20231224/a1703401190408_2702.jpg","https://xcimg.szwego.com/img/109d8128/20231224/a1703401190325_5806.jpg","https://xcimg.szwego.com/img/109d8128/20231224/a1703401190327_7641.jpg","https://xcimg.szwego.com/img/109d8128/20231224/a1703401190147_7878.jpg","https://xcimg.szwego.com/img/109d8128/20231224/a1703401190231_5030.jpg","https://xcimg.szwego.com/img/109d8128/20231224/a1703401191336_8851.jpg","https://xcimg.szwego.com/img/109d8128/20231224/a1703401191255_2857.jpg"],"created_at":"2024-10-22T05:00:12.216Z"},{"id":"item-ea0940d9a093","sku":"_dSZSZCNk7bEnAd2OzCN6Gs6mKFZd3mZ3Lw_-Fmw","name_en":"Constance 18 新款  CK18 大象灰 康斯坦  带镜子 全手工 原厂Epsom 电钯五金  银扣","name_cn":"Constance 18 新款  CK18 大象灰 康斯坦  带镜子 全手工 原厂Epsom 电钯五金  银扣","specs":{"source":"wsxcme","sourceId":"_dSZSZCNk7bEnAd2OzCN6Gs6mKFZd3mZ3Lw_-Fmw","sourceTagId":76963559,"sourceTagName":"爱马仕/女包","rawTitle":"Constance 18 新款  CK18 大象灰 康斯坦  带镜子 全手工 原厂Epsom 电钯五金  银扣"},"price":null,"currency":"CNY","moq":1,"category":"hermes-women-bags","status":"active","alibaba_url":null,"images":["https://xcimg.szwego.com/img/109d8128/20231224/a1703400207156_8843.jpg","https://xcimg.szwego.com/img/109d8128/20231224/a1703400206940_4333.jpg","https://xcimg.szwego.com/img/109d8128/20231224/a1703400206977_3427.jpg","https://xcimg.szwego.com/img/109d8128/20231224/a1703400206925_3575.jpg","https://xcimg.szwego.com/img/109d8128/20231224/a1703400207154_3054.jpg","https://xcimg.szwego.com/img/109d8128/20231224/a1703400207075_0246.jpg","https://xcimg.szwego.com/img/109d8128/20231224/a1703400207946_5348.jpg","https://xcimg.szwego.com/img/109d8128/20231224/a1703400207848_0276.jpg","https://xcimg.szwego.com/img/109d8128/20231224/a1703400207895_6233.jpg"],"created_at":"2024-10-22T05:00:12.214Z"},{"id":"item-1d7200ee592f","sku":"_dnYnYixYijx1qXlbnYBtCIWhSx0NVk-zvHhK_DQ","name_en":"Constance 18 新款  CK37金棕金    康斯坦  带镜子 全手工 原厂Epsom 镀厚金五金  金扣","name_cn":"Constance 18 新款  CK37金棕金    康斯坦  带镜子 全手工 原厂Epsom 镀厚金五金  金扣","specs":{"source":"wsxcme","sourceId":"_dnYnYixYijx1qXlbnYBtCIWhSx0NVk-zvHhK_DQ","sourceTagId":76963559,"sourceTagName":"爱马仕/女包","rawTitle":"Constance 18 新款  CK37金棕金    康斯坦  带镜子 全手工 原厂Epsom 镀厚金五金  金扣"},"price":null,"currency":"CNY","moq":1,"category":"hermes-women-bags","status":"active","alibaba_url":null,"images":["https://xcimg.szwego.com/img/109d8128/20231224/a1703401329061_0355.jpg","https://xcimg.szwego.com/img/109d8128/20231224/a1703401328799_7331.jpg","https://xcimg.szwego.com/img/109d8128/20231224/a1703401328404_0536.jpg","https://xcimg.szwego.com/img/109d8128/20231224/a1703401329002_3156.jpg","https://xcimg.szwego.com/img/109d8128/20231224/a1703401328752_0716.jpg","https://xcimg.szwego.com/img/109d8128/20231224/a1703401328756_2061.jpg","https://xcimg.szwego.com/img/109d8128/20231224/a1703401329848_6763.jpg","https://xcimg.szwego.com/img/109d8128/20231224/a1703401329911_6456.jpg","https://xcimg.szwego.com/img/109d8128/20231224/a1703401329934_0364.jpg"],"created_at":"2024-10-22T05:00:12.217Z"},{"id":"item-1c4b39e7e4fd","sku":"_dkFkFBFw2yRjUMX6MRLQhsYbvuLSqPyYHNikHog","name_en":"Constance 18 新款  CK89 康斯坦  带镜子 全手工 原厂Epsom 镀厚金五金  金扣","name_cn":"Constance 18 新款  CK89 康斯坦  带镜子 全手工 原厂Epsom 镀厚金五金  金扣","specs":{"source":"wsxcme","sourceId":"_dkFkFBFw2yRjUMX6MRLQhsYbvuLSqPyYHNikHog","sourceTagId":76963559,"sourceTagName":"爱马仕/女包","rawTitle":"Constance 18 新款  CK89 康斯坦  带镜子 全手工 原厂Epsom 镀厚金五金  金扣"},"price":null,"currency":"CNY","moq":1,"category":"hermes-women-bags","status":"active","alibaba_url":null,"images":["https://xcimg.szwego.com/img/109d8128/20231224/a1703400328767_4024.jpg","https://xcimg.szwego.com/img/109d8128/20231224/a1703400328706_5452.jpg","https://xcimg.szwego.com/img/109d8128/20231224/a1703400328637_6250.jpg","https://xcimg.szwego.com/img/109d8128/20231224/a1703400328712_4873.jpg","https://xcimg.szwego.com/img/109d8128/20231224/a1703400328832_4152.jpg","https://xcimg.szwego.com/img/109d8128/20231224/a1703400328796_1577.jpg","https://xcimg.szwego.com/img/109d8128/20231224/a1703400329601_7176.jpg","https://xcimg.szwego.com/img/109d8128/20231224/a1703400329633_4330.jpg","https://xcimg.szwego.com/img/109d8128/20231224/a1703400329676_6431.jpg"],"created_at":"2024-10-22T05:00:12.215Z"},{"id":"item-bc8c1b238c45","sku":"_drerehP3lv7gz_BYjF1TUN6MJgS1Ynk3oT5Aq2Q","name_en":"Constance 18 新款  Nata奶油白   康斯坦  带镜子 全手工 原厂Epsom 镀厚金五金  金扣","name_cn":"Constance 18 新款  Nata奶油白   康斯坦  带镜子 全手工 原厂Epsom 镀厚金五金  金扣","specs":{"source":"wsxcme","sourceId":"_drerehP3lv7gz_BYjF1TUN6MJgS1Ynk3oT5Aq2Q","sourceTagId":76963559,"sourceTagName":"爱马仕/女包","rawTitle":"Constance 18 新款  Nata奶油白   康斯坦  带镜子 全手工 原厂Epsom 镀厚金五金  金扣"},"price":null,"currency":"CNY","moq":1,"category":"hermes-women-bags","status":"active","alibaba_url":null,"images":["https://xcimg.szwego.com/img/109d8128/20231224/a1703401539125_7565.jpg","https://xcimg.szwego.com/img/109d8128/20231224/a1703401538680_1143.jpg","https://xcimg.szwego.com/img/109d8128/20231224/a1703401538608_8367.jpg","https://xcimg.szwego.com/img/109d8128/20231224/a1703401538834_1388.jpg","https://xcimg.szwego.com/img/109d8128/20231224/a1703401539192_0126.jpg","https://xcimg.szwego.com/img/109d8128/20231224/a1703401539150_7422.jpg","https://xcimg.szwego.com/img/109d8128/20231224/a1703401539872_7444.jpg","https://xcimg.szwego.com/img/109d8128/20231224/a1703401539850_3745.jpg","https://xcimg.szwego.com/img/109d8128/20231224/a1703401539851_5184.jpg"],"created_at":"2024-10-22T05:00:12.218Z"},{"id":"item-ad117407e95c","sku":"_dEoEoAQu3Trhofo_glSI2Q7hDVuo0pU6bRtQY1Q","name_en":"Constance 19","name_cn":"Constance 19\n进口 鳄鱼皮康康19cm\n全手缝蜡线 全钢五金  内里绵羊皮","specs":{"source":"wsxcme","sourceId":"_dEoEoAQu3Trhofo_glSI2Q7hDVuo0pU6bRtQY1Q","sourceTagId":76963559,"sourceTagName":"爱马仕/女包","rawTitle":"Constance 19\n进口 鳄鱼皮康康19cm\n全手缝蜡线 全钢五金  内里绵羊皮"},"price":null,"currency":"CNY","moq":1,"category":"hermes-women-bags","status":"active","alibaba_url":null,"images":["https://xcimg.szwego.com/img/9ee4266d/20240802/i1722594743_757_6.jpg","https://xcimg.szwego.com/img/9ee4266d/20240802/i1722594743_1576_1.jpg","https://xcimg.szwego.com/img/9ee4266d/20240802/i1722594743_2762_4.jpg","https://xcimg.szwego.com/img/9ee4266d/20240802/i1722594743_6278_0.jpg","https://xcimg.szwego.com/img/9ee4266d/20240802/i1722594743_5754_2.jpg","https://xcimg.szwego.com/img/9ee4266d/20240802/i1722594743_9673_5.jpg","https://xcimg.szwego.com/img/9ee4266d/20240802/i1722594747_8845_0.jpg"],"created_at":"2024-10-22T04:43:02.149Z"},{"id":"item-75c6f3d2d494","sku":"_dp7p76zsBESz9Wl44BxTNSHoOACSBpkC-31d-jQ","name_en":"Constance 19","name_cn":"Constance 19\n进口 鳄鱼皮康康19cm\n全手缝蜡线 全钢五金  内里绵羊皮","specs":{"source":"wsxcme","sourceId":"_dp7p76zsBESz9Wl44BxTNSHoOACSBpkC-31d-jQ","sourceTagId":76963559,"sourceTagName":"爱马仕/女包","rawTitle":"Constance 19\n进口 鳄鱼皮康康19cm\n全手缝蜡线 全钢五金  内里绵羊皮"},"price":null,"currency":"CNY","moq":1,"category":"hermes-women-bags","status":"active","alibaba_url":null,"images":["https://xcimg.szwego.com/img/9ee4266d/20240802/i1722594752_9457_0.jpg","https://xcimg.szwego.com/img/9ee4266d/20240802/i1722594756_523_0.jpg","https://xcimg.szwego.com/img/9ee4266d/20240802/i1722594753_9643_4.jpg","https://xcimg.szwego.com/img/9ee4266d/20240802/i1722594753_1801_5.jpg","https://xcimg.szwego.com/img/9ee4266d/20240802/i1722594752_937_2.jpg","https://xcimg.szwego.com/img/9ee4266d/20240802/i1722594752_7594_3.jpg"],"created_at":"2024-10-22T04:43:02.148Z"},{"id":"item-2a49f3d52dab","sku":"_diRiRQi-_ND24V0iylBOsDACWARcCHVSjT5zibQ","name_en":"constance 19cm 原版epsom 皮 gold 37金棕 金扣 in stock","name_cn":"constance 19cm 原版epsom 皮 gold 37金棕 金扣 in stock","specs":{"source":"wsxcme","sourceId":"_diRiRQi-_ND24V0iylBOsDACWARcCHVSjT5zibQ","sourceTagId":76963559,"sourceTagName":"爱马仕/女包","rawTitle":"constance 19cm 原版epsom 皮 gold 37金棕 金扣 in stock"},"price":null,"currency":"CNY","moq":1,"category":"hermes-women-bags","status":"active","alibaba_url":null,"images":["https://xcimg.szwego.com/20230627/i1687838765_3863_0.jpg","https://xcimg.szwego.com/20230627/i1687838765_4439_1.jpg","https://xcimg.szwego.com/20230627/i1687838765_2750_2.jpg","https://xcimg.szwego.com/20230627/i1687838765_5841_3.jpg","https://xcimg.szwego.com/20230627/i1687838765_9450_4.jpg","https://xcimg.szwego.com/20230627/i1687838765_4881_5.jpg","https://xcimg.szwego.com/20230627/i1687838765_9152_6.jpg"],"created_at":"2024-10-22T05:00:12.220Z"},{"id":"item-4dd4afa3af45","sku":"_dhlhlDj9EZwVjr2i_VmXsD_JkYVfrbZCakuCVWA","name_en":"constance 19cm epsom etoupe grey 18大象灰 金扣","name_cn":"constance 19cm epsom etoupe grey 18大象灰 金扣\nin stock","specs":{"source":"wsxcme","sourceId":"_dhlhlDj9EZwVjr2i_VmXsD_JkYVfrbZCakuCVWA","sourceTagId":76963559,"sourceTagName":"爱马仕/女包","rawTitle":"constance 19cm epsom etoupe grey 18大象灰 金扣\nin stock"},"price":null,"currency":"CNY","moq":1,"category":"hermes-women-bags","status":"active","alibaba_url":null,"images":["https://xcimg.szwego.com/20230812/i1691841378_4328_0.jpg","https://xcimg.szwego.com/20230812/i1691841378_978_1.jpg","https://xcimg.szwego.com/20230812/i1691841378_6987_2.jpg","https://xcimg.szwego.com/20230812/i1691841378_9547_3.jpg","https://xcimg.szwego.com/20230812/i1691841378_1407_4.jpg"],"created_at":"2024-10-22T05:00:12.221Z"},{"id":"item-33ad4a25de8c","sku":"_dc6c6TgCdYGhM3dbislqlB4kzkIBFaHtGfbwopw","name_en":"constance 19cm epsom Nior 89 黑色","name_cn":"constance 19cm epsom Nior 89 黑色\nin stock","specs":{"source":"wsxcme","sourceId":"_dc6c6TgCdYGhM3dbislqlB4kzkIBFaHtGfbwopw","sourceTagId":76963559,"sourceTagName":"爱马仕/女包","rawTitle":"constance 19cm epsom Nior 89 黑色\nin stock"},"price":null,"currency":"CNY","moq":1,"category":"hermes-women-bags","status":"active","alibaba_url":null,"images":["https://xcimg.szwego.com/20230812/i1691832062_1606_0.jpg","https://xcimg.szwego.com/20230812/i1691832062_7759_1.jpg","https://xcimg.szwego.com/20230812/i1691832062_9303_2.jpg","https://xcimg.szwego.com/20230812/i1691832062_9813_3.jpg","https://xcimg.szwego.com/20230812/i1691832062_4299_4.jpg","https://xcimg.szwego.com/20230812/i1691832062_5854_5.jpg","https://xcimg.szwego.com/20230812/i1691832062_20_6.jpg","https://xcimg.szwego.com/20230812/i1691832062_5990_7.jpg"],"created_at":"2024-10-22T05:00:12.223Z"},{"id":"item-7a46feee33b7","sku":"_dmXmX8oK9PjvY9qVnsSamwVNcUOSDG62rhQhWiw","name_en":"Constance ❷❸","name_cn":"Constance ❷❸\n ⸝⸝⸝奶昔白\n\n ʚ又叫空姐包 康康或者小方包.\n极简主义设计_百搭时尚单品~ \n吸睛而不张扬 选择的人自然多!\n实拍 金扣 \n18cm23cm","specs":{"source":"wsxcme","sourceId":"_dmXmX8oK9PjvY9qVnsSamwVNcUOSDG62rhQhWiw","sourceTagId":76963559,"sourceTagName":"爱马仕/女包","rawTitle":"Constance ❷❸\n ⸝⸝⸝奶昔白\n\n ʚ又叫空姐包 康康或者小方包.\n极简主义设计_百搭时尚单品~ \n吸睛而不张扬 选择的人自然多!\n实拍 金扣 \n18cm23cm"},"price":null,"currency":"CNY","moq":1,"category":"hermes-women-bags","status":"active","alibaba_url":null,"images":["https://xcimg.szwego.com/20221105/i1667623963_7678_0.jpg","https://xcimg.szwego.com/20221105/i1667623963_6891_1.jpg","https://xcimg.szwego.com/20221105/i1667623963_223_2.jpg","https://xcimg.szwego.com/20221105/i1667623963_8019_3.jpg","https://xcimg.szwego.com/20221105/i1667623963_3545_4.jpg","https://xcimg.szwego.com/20221105/i1667623963_689_5.jpg","https://xcimg.szwego.com/20221105/i1667623963_2007_6.jpg","https://xcimg.szwego.com/20221105/i1667623963_3962_8.jpg"],"created_at":"2025-01-20T12:29:05.616Z"}],"page":275,"pageSize":24,"total":10075,"totalPages":420}
