{"items":[{"id":"item-64087fa39db3","sku":"_d3737pb-BMkpaCsg_wJ1xFr4YE9vw8-Nb9rM5SA","name_en":"Burberry Women Bags","name_cn":"实拍,\n24款 Rocking Horse手袋\n一款结构柔软的手提袋,\n鳄鱼皮压纹牛皮,内衬是柔软麂皮,\n打造出奢华又内敛的质感。\n特点是”b”字母的closure, \n以及背后EKD的压纹印花 这款包包实用性强,可以当作tote bag, \n同时有可拆卸可调节长度的肩带来当作crossbody.\n日常通勤 见客户或者出席活动都可以用到的一只包!","specs":{"source":"wsxcme","sourceId":"_d3737pb-BMkpaCsg_wJ1xFr4YE9vw8-Nb9rM5SA","sourceTagId":80411239,"sourceTagName":"巴宝莉/女包","rawTitle":"实拍,\n24款 Rocking Horse手袋\n一款结构柔软的手提袋,\n鳄鱼皮压纹牛皮,内衬是柔软麂皮,\n打造出奢华又内敛的质感。\n特点是”b”字母的closure, \n以及背后EKD的压纹印花 这款包包实用性强,可以当作tote bag, \n同时有可拆卸可调节长度的肩带来当作crossbody.\n日常通勤 见客户或者出席活动都可以用到的一只包!"},"price":null,"currency":"CNY","moq":1,"category":"burberry-women-bags","status":"active","alibaba_url":null,"images":["https://xcimg.szwego.com/img/044b8f29/20241220/i1734681342_4709_3.jpg","https://xcimg.szwego.com/img/044b8f29/20241220/i1734681342_9276_1.jpg","https://xcimg.szwego.com/img/044b8f29/20241220/i1734681342_8716_2.jpg","https://xcimg.szwego.com/img/044b8f29/20241220/i1734681342_8094_4.jpg","https://xcimg.szwego.com/img/044b8f29/20241220/i1734681342_107_5.jpg","https://xcimg.szwego.com/img/044b8f29/20241220/i1734681342_2855_0.jpg","https://xcimg.szwego.com/img/044b8f29/20241220/i1734681342_1718_6.jpg","https://xcimg.szwego.com/img/044b8f29/20241220/i1734681342_856_8.jpg","https://xcimg.szwego.com/img/044b8f29/20241220/i1734681342_5503_7.jpg"],"created_at":"2026-06-29T10:27:58.852Z"},{"id":"item-61cd14ecb03d","sku":"_dbvbv9FQxd3JJK3R3Zh7EluZhHAMaaS-2CrrI2g","name_en":"Burberry Women Bags","name_cn":"上身图","specs":{"source":"wsxcme","sourceId":"_dbvbv9FQxd3JJK3R3Zh7EluZhHAMaaS-2CrrI2g","sourceTagId":80411239,"sourceTagName":"巴宝莉/女包","rawTitle":"上身图"},"price":null,"currency":"CNY","moq":1,"category":"burberry-women-bags","status":"active","alibaba_url":null,"images":["https://xcimg.szwego.com/img/d5e7a5ce/20250403/a1743668332066_0700.jpg","https://xcimg.szwego.com/img/d5e7a5ce/20250403/a1743668332071_0064.jpg","https://xcimg.szwego.com/img/d5e7a5ce/20250403/a1743668332074_1513.jpg","https://xcimg.szwego.com/img/d5e7a5ce/20250403/a1743668332069_2800.jpg","https://xcimg.szwego.com/img/d5e7a5ce/20250403/a1743668332074_6050.jpg","https://xcimg.szwego.com/img/d5e7a5ce/20250403/a1743668332072_0704.jpg","https://xcimg.szwego.com/img/d5e7a5ce/20250403/a1743668332863_2256.jpg","https://xcimg.szwego.com/img/d5e7a5ce/20250403/a1743668332865_5853.jpg","https://xcimg.szwego.com/img/d5e7a5ce/20250403/a1743668332867_4408.jpg","https://xcimg.szwego.com/img/d5e7a5ce/20250403/a1743668332869_6061.jpg"],"created_at":"2026-06-29T10:27:59.292Z"},{"id":"item-611bc68b5c96","sku":"_d8080YsnhsubRbCfb11p_LjxU8HKuazhOSS0RTQ","name_en":"Burberry Women Bags","name_cn":"上身图","specs":{"source":"wsxcme","sourceId":"_d8080YsnhsubRbCfb11p_LjxU8HKuazhOSS0RTQ","sourceTagId":80411239,"sourceTagName":"巴宝莉/女包","rawTitle":"上身图"},"price":null,"currency":"CNY","moq":1,"category":"burberry-women-bags","status":"active","alibaba_url":null,"images":["https://xcimg.szwego.com/img/d5e7a5ce/20250908/a1757318559689_1248.jpg","https://xcimg.szwego.com/img/d5e7a5ce/20250908/a1757318559690_1750.jpg","https://xcimg.szwego.com/img/d5e7a5ce/20250908/a1757318559691_3631.jpg","https://xcimg.szwego.com/img/d5e7a5ce/20250908/a1757318559692_0633.jpg","https://xcimg.szwego.com/img/d5e7a5ce/20250908/a1757318559693_2313.jpg","https://xcimg.szwego.com/img/d5e7a5ce/20250908/a1757318559694_0252.jpg","https://xcimg.szwego.com/img/d5e7a5ce/20250908/a1757318560442_5314.jpg","https://xcimg.szwego.com/img/d5e7a5ce/20250908/a1757318560437_5886.jpg","https://xcimg.szwego.com/img/d5e7a5ce/20250908/a1757318560440_7300.jpg"],"created_at":"2026-06-29T10:27:58.492Z"},{"id":"item-60f33f8c8ab1","sku":"_dZAZAOaeQk-OhDB9GIW2VNZ4xPpJaSSVZBMgvdA","name_en":"Burberry Women Bags","name_cn":"芭宝莉 尺寸28 15\n巴宝莉 Burberry中古腋下包,斜挎包 !也太百搭了吧! !不论休闲西装小裙纸都能搭配质量超级好很有质感摸起来也是软软的爱了爱了,没有年龄限制的一款腋下包!7003","specs":{"source":"wsxcme","sourceId":"_dZAZAOaeQk-OhDB9GIW2VNZ4xPpJaSSVZBMgvdA","sourceTagId":80411239,"sourceTagName":"巴宝莉/女包","rawTitle":"芭宝莉 尺寸28 15\n巴宝莉 Burberry中古腋下包,斜挎包 !也太百搭了吧! !不论休闲西装小裙纸都能搭配质量超级好很有质感摸起来也是软软的爱了爱了,没有年龄限制的一款腋下包!7003"},"price":null,"currency":"CNY","moq":1,"category":"burberry-women-bags","status":"active","alibaba_url":null,"images":["https://xcimg.szwego.com/20211112/i1636691141_2452_0.jpg","https://xcimg.szwego.com/20211112/i1636691141_2563_1.jpg","https://xcimg.szwego.com/20211112/i1636691141_1550_2.jpg","https://xcimg.szwego.com/20211112/i1636691141_6854_3.jpg","https://xcimg.szwego.com/20211112/i1636691141_4819_4.jpg","https://xcimg.szwego.com/20211112/i1636691141_4217_5.jpg","https://xcimg.szwego.com/20211112/i1636691141_6558_6.jpg","https://xcimg.szwego.com/20211112/i1636691141_7582_7.jpg","https://xcimg.szwego.com/20211112/i1636691141_6654_8.jpg"],"created_at":"2025-02-08T12:43:27.818Z"},{"id":"item-5eccf031218f","sku":"_dwQwQmDrCSCSRMT2YuEV4VSQROJbv9b4DpveSRg","name_en":"Burberry Women Bags","name_cn":"官网图","specs":{"source":"wsxcme","sourceId":"_dwQwQmDrCSCSRMT2YuEV4VSQROJbv9b4DpveSRg","sourceTagId":80411239,"sourceTagName":"巴宝莉/女包","rawTitle":"官网图"},"price":null,"currency":"CNY","moq":1,"category":"burberry-women-bags","status":"active","alibaba_url":null,"images":["https://xcimg.szwego.com/img/d5e7a5ce/20250530/a1748583578278_2063.jpg","https://xcimg.szwego.com/img/d5e7a5ce/20250530/a1748583578239_2228.jpg","https://xcimg.szwego.com/img/d5e7a5ce/20250530/a1748583578259_8068.jpg","https://xcimg.szwego.com/img/d5e7a5ce/20250530/a1748583578260_6255.jpg","https://xcimg.szwego.com/img/d5e7a5ce/20250530/a1748583578279_8526.jpg","https://xcimg.szwego.com/img/d5e7a5ce/20250530/a1748583578274_0764.jpg"],"created_at":"2026-06-29T10:27:58.812Z"},{"id":"item-5d158130fe4c","sku":"_dHrHrsdX-3Ru1eu0C7HKNzzvVGjkK5-WwYzbguQ","name_en":"Burberry Women Bags","name_cn":"现货","specs":{"source":"wsxcme","sourceId":"_dHrHrsdX-3Ru1eu0C7HKNzzvVGjkK5-WwYzbguQ","sourceTagId":80411239,"sourceTagName":"巴宝莉/女包","rawTitle":"现货"},"price":null,"currency":"CNY","moq":1,"category":"burberry-women-bags","status":"active","alibaba_url":null,"images":["https://xcimg.szwego.com/img/d5e7a5ce/20251114/a1763099167415_2576.jpg","https://xcimg.szwego.com/img/d5e7a5ce/20251114/a1763099167417_5148.jpg","https://xcimg.szwego.com/img/d5e7a5ce/20251114/a1763099167417_4832.jpg"],"created_at":"2026-06-29T10:27:58.602Z"},{"id":"item-5ba0b1aef2a1","sku":"_dYNYNTb-oolDduwRnqj0Gs7_4bYHpvHVaa3ebCg","name_en":"Burberry Women Bags","name_cn":"在看一下原厂光面小牛皮,上手触摸平滑舒适,光泽度质感非常棒,用料很厚实,走线做工精致 !","specs":{"source":"wsxcme","sourceId":"_dYNYNTb-oolDduwRnqj0Gs7_4bYHpvHVaa3ebCg","sourceTagId":80411239,"sourceTagName":"巴宝莉/女包","rawTitle":"在看一下原厂光面小牛皮,上手触摸平滑舒适,光泽度质感非常棒,用料很厚实,走线做工精致 !"},"price":null,"currency":"CNY","moq":1,"category":"burberry-women-bags","status":"active","alibaba_url":null,"images":["https://xcimg.szwego.com/20220323/i1648016809_1579_0.jpg","https://xcimg.szwego.com/20220323/i1648016809_4151_1.jpg","https://xcimg.szwego.com/20220323/i1648016809_9915_2.jpg","https://xcimg.szwego.com/20220323/i1648016809_3688_3.jpg","https://xcimg.szwego.com/20220323/i1648016809_9172_4.jpg","https://xcimg.szwego.com/20220323/i1648016809_139_5.jpg"],"created_at":"2026-06-29T10:27:59.102Z"},{"id":"item-58e350867cdf","sku":"_dIUIUOdoRDxsdrOt9z8ECpcXcJM3tKer3mckazA","name_en":"Burberry Women Bags","name_cn":"现货","specs":{"source":"wsxcme","sourceId":"_dIUIUOdoRDxsdrOt9z8ECpcXcJM3tKer3mckazA","sourceTagId":80411239,"sourceTagName":"巴宝莉/女包","rawTitle":"现货"},"price":null,"currency":"CNY","moq":1,"category":"burberry-women-bags","status":"active","alibaba_url":null,"images":["https://xcimg.szwego.com/img/d5e7a5ce/20250908/a1757318236921_4133.jpg","https://xcimg.szwego.com/img/d5e7a5ce/20250908/a1757318236872_5017.jpg","https://xcimg.szwego.com/img/d5e7a5ce/20250908/a1757318236863_0528.jpg","https://xcimg.szwego.com/img/d5e7a5ce/20250908/a1757318236867_7155.jpg","https://xcimg.szwego.com/img/d5e7a5ce/20250908/a1757318236858_6072.jpg","https://xcimg.szwego.com/img/d5e7a5ce/20250908/a1757318236924_0814.jpg","https://xcimg.szwego.com/img/d5e7a5ce/20250908/a1757318237618_7744.jpg","https://xcimg.szwego.com/img/d5e7a5ce/20250908/a1757318237616_2271.jpg","https://xcimg.szwego.com/img/d5e7a5ce/20250908/a1757318237619_4313.jpg"],"created_at":"2026-06-29T10:27:58.422Z"},{"id":"item-550fcfafc63f","sku":"_dwLwLYyWpY2CqtdbJzQXFtTuNbOYG-pzVNtAmrQ","name_en":"Burberry Women Bags","name_cn":"大号沙色 上身效果无敌酷😎","specs":{"source":"wsxcme","sourceId":"_dwLwLYyWpY2CqtdbJzQXFtTuNbOYG-pzVNtAmrQ","sourceTagId":80411239,"sourceTagName":"巴宝莉/女包","rawTitle":"大号沙色 上身效果无敌酷😎"},"price":null,"currency":"CNY","moq":1,"category":"burberry-women-bags","status":"active","alibaba_url":null,"images":["https://xcimg.szwego.com/img/d5e7a5ce/20250304/a1741079645159_6105.jpg","https://xcimg.szwego.com/img/d5e7a5ce/20250304/a1741079645165_1860.jpg","https://xcimg.szwego.com/img/d5e7a5ce/20250304/a1741079645164_5121.jpg","https://xcimg.szwego.com/img/d5e7a5ce/20250304/a1741079645163_8741.jpg","https://xcimg.szwego.com/img/d5e7a5ce/20250304/a1741079645161_8561.jpg","https://xcimg.szwego.com/img/d5e7a5ce/20250304/a1741079645167_1423.jpg","https://xcimg.szwego.com/img/d5e7a5ce/20250304/a1741079645908_1181.jpg","https://xcimg.szwego.com/img/d5e7a5ce/20250304/a1741079645912_6256.jpg","https://xcimg.szwego.com/img/d5e7a5ce/20250304/a1741079645916_0320.jpg"],"created_at":"2026-06-29T10:27:59.352Z"},{"id":"item-5427ef773e5f","sku":"_diCiCWrby57VBS90IRkG0CMPc8rJKeFaWhLSEaw","name_en":"Burberry Women Bags","name_cn":"水桶包型作为众多时尚博主的标志性包袋,通勤或休闲皆可,帆布材质更硬挺,耐磨耐造,背上身造型更加立体,容量可观,肩带可调节!而且包身自重非常轻!作为这个系列的新成员,怕是又有不少包控要沦陷咯!","specs":{"source":"wsxcme","sourceId":"_diCiCWrby57VBS90IRkG0CMPc8rJKeFaWhLSEaw","sourceTagId":80411239,"sourceTagName":"巴宝莉/女包","rawTitle":"水桶包型作为众多时尚博主的标志性包袋,通勤或休闲皆可,帆布材质更硬挺,耐磨耐造,背上身造型更加立体,容量可观,肩带可调节!而且包身自重非常轻!作为这个系列的新成员,怕是又有不少包控要沦陷咯!"},"price":null,"currency":"CNY","moq":1,"category":"burberry-women-bags","status":"active","alibaba_url":null,"images":["https://xcimg.szwego.com/20210910/i1631273588_3204_0.jpg","https://xcimg.szwego.com/20210910/i1631273588_3276_1.jpg","https://xcimg.szwego.com/20210910/i1631273588_3061_2.jpg","https://xcimg.szwego.com/20210910/i1631273588_3415_3.jpg","https://xcimg.szwego.com/20210910/i1631273588_6169_4.jpg","https://xcimg.szwego.com/20210910/i1631273588_2013_5.jpg","https://xcimg.szwego.com/20210910/i1631273588_9392_6.jpg","https://xcimg.szwego.com/20210910/i1631273588_1539_7.jpg","https://xcimg.szwego.com/20210910/i1631273588_4535_8.jpg"],"created_at":"2025-01-20T12:43:24.111Z"},{"id":"item-4f91e7ce0aee","sku":"_d_s_s01_byBCgmzHH99eOCX_V1-dbOX5xcQ9yig","name_en":"Burberry Women Bags","name_cn":"上身图","specs":{"source":"wsxcme","sourceId":"_d_s_s01_byBCgmzHH99eOCX_V1-dbOX5xcQ9yig","sourceTagId":80411239,"sourceTagName":"巴宝莉/女包","rawTitle":"上身图"},"price":null,"currency":"CNY","moq":1,"category":"burberry-women-bags","status":"active","alibaba_url":null,"images":["https://xcimg.szwego.com/img/d5e7a5ce/20241022/a1729580581475_0275.jpg","https://xcimg.szwego.com/img/d5e7a5ce/20241022/a1729580581464_8542.jpg","https://xcimg.szwego.com/img/d5e7a5ce/20241022/a1729580581468_4763.jpg","https://xcimg.szwego.com/img/d5e7a5ce/20241022/a1729580581467_2750.jpg","https://xcimg.szwego.com/img/d5e7a5ce/20241022/a1729580581490_4650.jpg","https://xcimg.szwego.com/img/d5e7a5ce/20241022/a1729580581485_8125.jpg","https://xcimg.szwego.com/img/d5e7a5ce/20241022/a1729580583018_8864.jpg","https://xcimg.szwego.com/img/d5e7a5ce/20241022/a1729580583015_3531.jpg","https://xcimg.szwego.com/img/d5e7a5ce/20241022/a1729580583023_8875.jpg"],"created_at":"2026-06-29T10:27:58.672Z"},{"id":"item-4b29f05abe88","sku":"_d-I-IgmhIIKlaS_9FtNqqVlsFyIRVJMmB9BNc4g","name_en":"Burberry Women Bags","name_cn":"小号足够日常携带随身物品~~","specs":{"source":"wsxcme","sourceId":"_d-I-IgmhIIKlaS_9FtNqqVlsFyIRVJMmB9BNc4g","sourceTagId":80411239,"sourceTagName":"巴宝莉/女包","rawTitle":"小号足够日常携带随身物品~~"},"price":null,"currency":"CNY","moq":1,"category":"burberry-women-bags","status":"active","alibaba_url":null,"images":["https://xcimg.szwego.com/img/d5e7a5ce/20251105/a1762314395307_5136.jpg","https://xcimg.szwego.com/img/d5e7a5ce/20251105/a1762314395307_4006.jpg","https://xcimg.szwego.com/img/d5e7a5ce/20251105/a1762314395309_5308.jpg","https://xcimg.szwego.com/img/d5e7a5ce/20251105/a1762314395309_4258.jpg","https://xcimg.szwego.com/img/d5e7a5ce/20251105/a1762314395310_2250.jpg","https://xcimg.szwego.com/img/d5e7a5ce/20251105/a1762314395309_7111.jpg","https://xcimg.szwego.com/img/d5e7a5ce/20251105/a1762314395862_4446.jpg","https://xcimg.szwego.com/img/d5e7a5ce/20251105/a1762314395861_0334.jpg","https://xcimg.szwego.com/img/d5e7a5ce/20251105/a1762314395864_8108.jpg"],"created_at":"2026-06-29T10:27:59.002Z"},{"id":"item-4a0372d1cbee","sku":"_drFrFjnManIRjOJK85ubUNUnhMadWC3XsFbCdBQ","name_en":"Burberry Women Bags","name_cn":"上身图","specs":{"source":"wsxcme","sourceId":"_drFrFjnManIRjOJK85ubUNUnhMadWC3XsFbCdBQ","sourceTagId":80411239,"sourceTagName":"巴宝莉/女包","rawTitle":"上身图"},"price":null,"currency":"CNY","moq":1,"category":"burberry-women-bags","status":"active","alibaba_url":null,"images":["https://xcimg.szwego.com/img/d5e7a5ce/20251114/a1763099018772_0064.jpg","https://xcimg.szwego.com/img/d5e7a5ce/20251114/a1763099018771_7510.jpg","https://xcimg.szwego.com/img/d5e7a5ce/20251114/a1763099018772_6320.jpg","https://xcimg.szwego.com/img/d5e7a5ce/20251114/a1763099018776_3764.jpg","https://xcimg.szwego.com/img/d5e7a5ce/20251114/a1763099018773_2663.jpg","https://xcimg.szwego.com/img/d5e7a5ce/20251114/a1763099018775_6765.jpg","https://xcimg.szwego.com/img/d5e7a5ce/20251114/a1763099019284_6465.jpg","https://xcimg.szwego.com/img/d5e7a5ce/20251114/a1763099019286_3068.jpg","https://xcimg.szwego.com/img/d5e7a5ce/20251114/a1763099019287_0530.jpg"],"created_at":"2026-06-29T10:27:58.542Z"},{"id":"item-426c30a3ba18","sku":"_dAXAXMrooXadNzbwUoHgpLL8NdfsjkouQeVcFZQ","name_en":"Burberry Women Bags","name_cn":"巴宝莉/女包","specs":{"source":"wsxcme","sourceId":"_dAXAXMrooXadNzbwUoHgpLL8NdfsjkouQeVcFZQ","sourceTagId":80411239,"sourceTagName":"巴宝莉/女包","rawTitle":""},"price":null,"currency":"CNY","moq":1,"category":"burberry-women-bags","status":"active","alibaba_url":null,"images":["https://xcimg.szwego.com/img/d5e7a5ce/20250908/a1757318551311_4741.jpg","https://xcimg.szwego.com/img/d5e7a5ce/20250908/a1757318551312_5285.jpg","https://xcimg.szwego.com/img/d5e7a5ce/20250908/a1757318551315_4540.jpg","https://xcimg.szwego.com/img/d5e7a5ce/20250908/a1757318551313_0164.jpg","https://xcimg.szwego.com/img/d5e7a5ce/20250908/a1757318551315_0654.jpg","https://xcimg.szwego.com/img/d5e7a5ce/20250908/a1757318551318_3521.jpg","https://xcimg.szwego.com/img/d5e7a5ce/20250908/a1757318551985_4253.jpg","https://xcimg.szwego.com/img/d5e7a5ce/20250908/a1757318551982_6203.jpg","https://xcimg.szwego.com/img/d5e7a5ce/20250908/a1757318551984_6052.jpg"],"created_at":"2026-06-29T10:27:58.482Z"},{"id":"item-420b583a9170","sku":"_dYWYW1rYeHm217RaARU18xUq_13snhqThnSLv0g","name_en":"Burberry Women Bags","name_cn":"官网图","specs":{"source":"wsxcme","sourceId":"_dYWYW1rYeHm217RaARU18xUq_13snhqThnSLv0g","sourceTagId":80411239,"sourceTagName":"巴宝莉/女包","rawTitle":"官网图"},"price":null,"currency":"CNY","moq":1,"category":"burberry-women-bags","status":"active","alibaba_url":null,"images":["https://xcimg.szwego.com/20220323/i1648017340_3435_0.jpg","https://xcimg.szwego.com/20220323/i1648017340_4763_1.jpg","https://xcimg.szwego.com/20220323/i1648017340_6094_2.jpg","https://xcimg.szwego.com/20220323/i1648017340_1335_3.jpg","https://xcimg.szwego.com/20220323/i1648017340_3847_4.jpg"],"created_at":"2026-06-29T10:27:59.052Z"},{"id":"item-3e1c08b3a658","sku":"_dpfpf6S1JICnuOvKi4bXEPV_FuvWon4mtKpBn1g","name_en":"Burberry Women Bags","name_cn":"官网售价!","specs":{"source":"wsxcme","sourceId":"_dpfpf6S1JICnuOvKi4bXEPV_FuvWon4mtKpBn1g","sourceTagId":80411239,"sourceTagName":"巴宝莉/女包","rawTitle":"官网售价!"},"price":null,"currency":"CNY","moq":1,"category":"burberry-women-bags","status":"active","alibaba_url":null,"images":["https://xcimg.szwego.com/20220323/i1648017775_9626_0.jpg"],"created_at":"2026-06-29T10:27:59.142Z"},{"id":"item-3cf103941cd6","sku":"_dbkbkLR1DxgxeFJt7G0Lr_xRLx9DdU9snQiJjxw","name_en":"Burberry Women Bags","name_cn":"上身图","specs":{"source":"wsxcme","sourceId":"_dbkbkLR1DxgxeFJt7G0Lr_xRLx9DdU9snQiJjxw","sourceTagId":80411239,"sourceTagName":"巴宝莉/女包","rawTitle":"上身图"},"price":null,"currency":"CNY","moq":1,"category":"burberry-women-bags","status":"active","alibaba_url":null,"images":["https://xcimg.szwego.com/img/d5e7a5ce/20251115/a1763194294097_5771.jpg","https://xcimg.szwego.com/img/d5e7a5ce/20251115/a1763194294095_0384.jpg","https://xcimg.szwego.com/img/d5e7a5ce/20251115/a1763194294095_8631.jpg","https://xcimg.szwego.com/img/d5e7a5ce/20251115/a1763194294098_0116.jpg","https://xcimg.szwego.com/img/d5e7a5ce/20251115/a1763194294106_1781.jpg","https://xcimg.szwego.com/img/d5e7a5ce/20251115/a1763194294103_4835.jpg","https://xcimg.szwego.com/img/d5e7a5ce/20251115/a1763194294669_7807.jpg","https://xcimg.szwego.com/img/d5e7a5ce/20251115/a1763194294670_3304.jpg","https://xcimg.szwego.com/img/d5e7a5ce/20251115/a1763194294671_4165.jpg"],"created_at":"2026-06-29T10:29:02.969Z"},{"id":"item-3ce7bf2b51d1","sku":"_d8C8CAkQoz6iKZyrdXdArATExuVgWsw9CWDzHqw","name_en":"Burberry Women Bags","name_cn":"在看一下五金 特供原厂五金,真金厚电镀工艺,五金字体清晰度非常精美,更多细节补充!","specs":{"source":"wsxcme","sourceId":"_d8C8CAkQoz6iKZyrdXdArATExuVgWsw9CWDzHqw","sourceTagId":80411239,"sourceTagName":"巴宝莉/女包","rawTitle":"在看一下五金 特供原厂五金,真金厚电镀工艺,五金字体清晰度非常精美,更多细节补充!"},"price":null,"currency":"CNY","moq":1,"category":"burberry-women-bags","status":"active","alibaba_url":null,"images":["https://xcimg.szwego.com/20220423/i1650693809_3025_0.jpg","https://xcimg.szwego.com/20220423/i1650693809_5855_1.jpg","https://xcimg.szwego.com/20220423/i1650693809_2171_2.jpg","https://xcimg.szwego.com/20220423/i1650693809_2738_3.jpg","https://xcimg.szwego.com/20220423/i1650693809_5747_4.jpg","https://xcimg.szwego.com/20220423/i1650693809_8250_5.jpg","https://xcimg.szwego.com/20220423/i1650693809_8781_6.jpg"],"created_at":"2026-06-29T10:27:59.172Z"},{"id":"item-3b13d47ddbed","sku":"_dbybyBRcPOSl07D2ijvl6XeHbQRDszGi3Slcqtg","name_en":"Burberry Women Bags","name_cn":"#上身效果图","specs":{"source":"wsxcme","sourceId":"_dbybyBRcPOSl07D2ijvl6XeHbQRDszGi3Slcqtg","sourceTagId":80411239,"sourceTagName":"巴宝莉/女包","rawTitle":"#上身效果图"},"price":null,"currency":"CNY","moq":1,"category":"burberry-women-bags","status":"active","alibaba_url":null,"images":["https://xcimg.szwego.com/img/a78c42d4/20250409/i1744182049250_5031_0_0.jpg","https://xcimg.szwego.com/img/a78c42d4/20250409/i1744182049250_8128_0_1.jpg","https://xcimg.szwego.com/img/a78c42d4/20250409/i1744182049250_8434_0_2.jpg"],"created_at":"2026-06-29T10:29:02.879Z"},{"id":"item-3ac87f7f66cb","sku":"_dpXpXyYx1hV7RcagLXqVZHnnI5yg99-FFB_4F_Q","name_en":"Burberry Women Bags","name_cn":"挂拍实拍,经典搭扣设计腋下包  这种原单战马料子一直有库存 代工厂渠道来的正品 质感非常棒。","specs":{"source":"wsxcme","sourceId":"_dpXpXyYx1hV7RcagLXqVZHnnI5yg99-FFB_4F_Q","sourceTagId":80411239,"sourceTagName":"巴宝莉/女包","rawTitle":"挂拍实拍,经典搭扣设计腋下包  这种原单战马料子一直有库存 代工厂渠道来的正品 质感非常棒。"},"price":null,"currency":"CNY","moq":1,"category":"burberry-women-bags","status":"active","alibaba_url":null,"images":["https://xcimg.szwego.com/20230629/i1688019818_6406_0.jpg","https://xcimg.szwego.com/20230629/i1688019818_5510_1.jpg","https://xcimg.szwego.com/20230629/i1688019818_520_2.jpg","https://xcimg.szwego.com/20230629/i1688019818_6471_3.jpg","https://xcimg.szwego.com/20230629/i1688019818_2358_4.jpg","https://xcimg.szwego.com/20230629/i1688019818_9308_5.jpg","https://xcimg.szwego.com/20230629/i1688019818_9634_6.jpg","https://xcimg.szwego.com/20230629/i1688019818_1141_7.jpg","https://xcimg.szwego.com/20230629/i1688019818_8266_8.jpg"],"created_at":"2025-01-20T12:46:12.813Z"},{"id":"item-3a8b308791b1","sku":"_dJwJwskEp4qPh5HDqu_246xmlyAKT5zh5KPrOeQ","name_en":"Burberry Women Bags","name_cn":"现货","specs":{"source":"wsxcme","sourceId":"_dJwJwskEp4qPh5HDqu_246xmlyAKT5zh5KPrOeQ","sourceTagId":80411239,"sourceTagName":"巴宝莉/女包","rawTitle":"现货"},"price":null,"currency":"CNY","moq":1,"category":"burberry-women-bags","status":"active","alibaba_url":null,"images":["https://xcimg.szwego.com/img/d5e7a5ce/20251105/a1762314496226_1165.jpg","https://xcimg.szwego.com/img/d5e7a5ce/20251105/a1762314496225_4605.jpg","https://xcimg.szwego.com/img/d5e7a5ce/20251105/a1762314496227_1438.jpg","https://xcimg.szwego.com/img/d5e7a5ce/20251105/a1762314496229_1843.jpg","https://xcimg.szwego.com/img/d5e7a5ce/20251105/a1762314496228_2381.jpg","https://xcimg.szwego.com/img/d5e7a5ce/20251105/a1762314496228_4156.jpg","https://xcimg.szwego.com/img/d5e7a5ce/20251105/a1762314496789_0424.jpg","https://xcimg.szwego.com/img/d5e7a5ce/20251105/a1762314496785_4853.jpg"],"created_at":"2026-06-29T10:27:59.022Z"},{"id":"item-368f4e307ccb","sku":"_d1I1Imqar9qjUTk9ZAiDhkShkQGvWiW22y1djGg","name_en":"Burberry Women Bags","name_cn":"官网图","specs":{"source":"wsxcme","sourceId":"_d1I1Imqar9qjUTk9ZAiDhkShkQGvWiW22y1djGg","sourceTagId":80411239,"sourceTagName":"巴宝莉/女包","rawTitle":"官网图"},"price":null,"currency":"CNY","moq":1,"category":"burberry-women-bags","status":"active","alibaba_url":null,"images":["https://xcimg.szwego.com/img/d5e7a5ce/20250908/a1757318538306_6710.jpg","https://xcimg.szwego.com/img/d5e7a5ce/20250908/a1757318538311_4565.jpg","https://xcimg.szwego.com/img/d5e7a5ce/20250908/a1757318538305_8811.jpg","https://xcimg.szwego.com/img/d5e7a5ce/20250908/a1757318538310_5557.jpg","https://xcimg.szwego.com/img/d5e7a5ce/20250908/a1757318538307_6857.jpg","https://xcimg.szwego.com/img/d5e7a5ce/20250908/a1757318538308_6014.jpg","https://xcimg.szwego.com/img/d5e7a5ce/20250908/a1757318538807_1860.jpg","https://xcimg.szwego.com/img/d5e7a5ce/20250908/a1757318538806_7423.jpg","https://xcimg.szwego.com/img/d5e7a5ce/20250908/a1757318538808_5411.jpg"],"created_at":"2026-06-29T10:27:58.472Z"},{"id":"item-33abb3bde08c","sku":"_dlzlzYxJDlxKgG7fs1R5aBfd2Nni_7V5B6SeRJw","name_en":"Burberry Women Bags","name_cn":"大号 上身效果无敌酷😎","specs":{"source":"wsxcme","sourceId":"_dlzlzYxJDlxKgG7fs1R5aBfd2Nni_7V5B6SeRJw","sourceTagId":80411239,"sourceTagName":"巴宝莉/女包","rawTitle":"大号 上身效果无敌酷😎"},"price":null,"currency":"CNY","moq":1,"category":"burberry-women-bags","status":"active","alibaba_url":null,"images":["https://xcimg.szwego.com/img/d5e7a5ce/20250304/a1741079631711_4780.jpg","https://xcimg.szwego.com/img/d5e7a5ce/20250304/a1741079631712_6421.jpg","https://xcimg.szwego.com/img/d5e7a5ce/20250304/a1741079631713_5444.jpg","https://xcimg.szwego.com/img/d5e7a5ce/20250304/a1741079631715_2088.jpg","https://xcimg.szwego.com/img/d5e7a5ce/20250304/a1741079631718_7378.jpg","https://xcimg.szwego.com/img/d5e7a5ce/20250304/a1741079631717_7122.jpg","https://xcimg.szwego.com/img/d5e7a5ce/20250304/a1741079632517_1781.jpg","https://xcimg.szwego.com/img/d5e7a5ce/20250304/a1741079632507_7547.jpg","https://xcimg.szwego.com/img/d5e7a5ce/20250304/a1741079632512_1774.jpg"],"created_at":"2026-06-29T10:27:59.342Z"},{"id":"item-2cf48b700249","sku":"_dLoLoaA1XaHmeTkz8Vv1l9cWnK31VFlDyot7e3Q","name_en":"Burberry Women Bags","name_cn":"上身效果图!","specs":{"source":"wsxcme","sourceId":"_dLoLoaA1XaHmeTkz8Vv1l9cWnK31VFlDyot7e3Q","sourceTagId":80411239,"sourceTagName":"巴宝莉/女包","rawTitle":"上身效果图!"},"price":null,"currency":"CNY","moq":1,"category":"burberry-women-bags","status":"active","alibaba_url":null,"images":["https://xcimg.szwego.com/img/f3ff0ddb/20231026/i1698303665_5794_0.jpg","https://xcimg.szwego.com/img/f3ff0ddb/20231026/i1698303665_9287_2.jpg","https://xcimg.szwego.com/img/f3ff0ddb/20231026/i1698303665_3611_3.jpg","https://xcimg.szwego.com/img/f3ff0ddb/20231026/i1698303665_8078_4.jpg","https://xcimg.szwego.com/img/f3ff0ddb/20231026/i1698303665_7509_5.jpg","https://xcimg.szwego.com/img/f3ff0ddb/20231026/i1698303665_48_1.jpg"],"created_at":"2025-01-20T12:46:12.778Z"}],"page":229,"pageSize":24,"total":10075,"totalPages":420}
