{"items":[{"id":"item-fc09fc3e95bb","sku":"_dDgDgATSSpQmbn91aU14F27HOM0rjc1GHO2PO7g","name_en":"5BB142灰色","name_cn":"5BB142灰色","specs":{"source":"wsxcme","sourceId":"_dDgDgATSSpQmbn91aU14F27HOM0rjc1GHO2PO7g","sourceTagId":68075769,"sourceTagName":"Miu Miu /女包","rawTitle":"5BB142灰色"},"price":null,"currency":"CNY","moq":1,"category":"miu-miu-women-bags","status":"active","alibaba_url":null,"images":["https://xcimg.szwego.com/20241113/i1731440206_8206_0.jpg","https://xcimg.szwego.com/20241113/i1731440206_191_1.jpg","https://xcimg.szwego.com/20241113/i1731440206_3445_2.jpg","https://xcimg.szwego.com/20241113/i1731440206_3403_3.jpg","https://xcimg.szwego.com/20241113/i1731440206_1073_4.jpg","https://xcimg.szwego.com/20241113/i1731440206_3755_5.jpg","https://xcimg.szwego.com/20241113/i1731440206_3039_6.jpg","https://xcimg.szwego.com/20241113/i1731440206_1729_7.jpg","https://xcimg.szwego.com/20241113/i1731440206_9327_8.jpg"],"created_at":"2025-01-20T13:11:33.103Z"},{"id":"item-33bf0a71ed35","sku":"_dvSvSXdYtHCfPBrWHAuaNA2arzgRSo4QJebKVjg","name_en":"5BB142奶茶粉杏","name_cn":"5BB142奶茶粉杏","specs":{"source":"wsxcme","sourceId":"_dvSvSXdYtHCfPBrWHAuaNA2arzgRSo4QJebKVjg","sourceTagId":68075769,"sourceTagName":"Miu Miu /女包","rawTitle":"5BB142奶茶粉杏"},"price":null,"currency":"CNY","moq":1,"category":"miu-miu-women-bags","status":"active","alibaba_url":null,"images":["https://xcimg.szwego.com/20240825/i1724524209_4205_0.jpg","https://xcimg.szwego.com/20240825/i1724574194_45_0.jpg","https://xcimg.szwego.com/20240825/i1724574194_4654_1.jpg","https://xcimg.szwego.com/20240825/i1724574194_6353_2.jpg","https://xcimg.szwego.com/20240825/i1724524209_4842_1.jpg","https://xcimg.szwego.com/20240825/i1724524209_395_2.jpg","https://xcimg.szwego.com/20240825/i1724524209_8499_3.jpg","https://xcimg.szwego.com/20240825/i1724574194_6310_3.jpg"],"created_at":"2024-11-11T10:30:45.876Z"},{"id":"item-38e694637bf8","sku":"_d33339UU6t5ek-bkDpS2ALhXU3Iuv7KpFb35Ycg","name_en":"5BB142楠木色","name_cn":"5BB142楠木色","specs":{"source":"wsxcme","sourceId":"_d33339UU6t5ek-bkDpS2ALhXU3Iuv7KpFb35Ycg","sourceTagId":68075769,"sourceTagName":"Miu Miu /女包","rawTitle":"5BB142楠木色"},"price":null,"currency":"CNY","moq":1,"category":"miu-miu-women-bags","status":"active","alibaba_url":null,"images":["https://xcimg.szwego.com/20240824/i1724487036_7649_0.jpg","https://xcimg.szwego.com/20240824/i1724487036_2690_1.jpg","https://xcimg.szwego.com/20240824/i1724487036_6884_2.jpg","https://xcimg.szwego.com/20240824/i1724487036_1911_3.jpg","https://xcimg.szwego.com/20240824/i1724487036_2954_4.jpg","https://xcimg.szwego.com/20240824/i1724487036_157_5.jpg","https://xcimg.szwego.com/20240824/i1724487036_4523_6.jpg"],"created_at":"2024-11-11T10:30:45.875Z"},{"id":"item-63d4a0180075","sku":"_df4f4u8SWSzDGqITZRMRd-fSNs9FD9GHAzvQvqQ","name_en":"5BB142巧克力色","name_cn":"5BB142巧克力色","specs":{"source":"wsxcme","sourceId":"_df4f4u8SWSzDGqITZRMRd-fSNs9FD9GHAzvQvqQ","sourceTagId":68075769,"sourceTagName":"Miu Miu /女包","rawTitle":"5BB142巧克力色"},"price":null,"currency":"CNY","moq":1,"category":"miu-miu-women-bags","status":"active","alibaba_url":null,"images":["https://xcimg.szwego.com/20240802/i1722537866_4031_0.jpg","https://xcimg.szwego.com/20240802/i1722537866_5052_1.jpg","https://xcimg.szwego.com/20240802/i1722537866_8039_2.jpg","https://xcimg.szwego.com/20240802/i1722537866_7232_3.jpg"],"created_at":"2024-11-11T10:30:45.870Z"},{"id":"item-2af49b67a986","sku":"_d6a6agboyDOOpadgoqzBmQtSnxVhn1J1-ckMg7w","name_en":"5BB142新版本","name_cn":"5BB142新版本","specs":{"source":"wsxcme","sourceId":"_d6a6agboyDOOpadgoqzBmQtSnxVhn1J1-ckMg7w","sourceTagId":68075769,"sourceTagName":"Miu Miu /女包","rawTitle":"5BB142新版本"},"price":null,"currency":"CNY","moq":1,"category":"miu-miu-women-bags","status":"active","alibaba_url":null,"images":["https://xcimg.szwego.com/20240725/i1721897472_858_0.jpg","https://xcimg.szwego.com/20240725/i1721897472_6329_1.jpg","https://xcimg.szwego.com/20240725/i1721897472_2849_2.jpg","https://xcimg.szwego.com/20240725/i1721897472_1482_3.jpg"],"created_at":"2024-11-11T10:30:45.879Z"},{"id":"item-7bf751451dc7","sku":"_dkAkAV2s0yhht8d0dD421RJwI1cmVrDlv2tnbrw","name_en":"5BB142新版本干邑色","name_cn":"5BB142新版本干邑色","specs":{"source":"wsxcme","sourceId":"_dkAkAV2s0yhht8d0dD421RJwI1cmVrDlv2tnbrw","sourceTagId":68075769,"sourceTagName":"Miu Miu /女包","rawTitle":"5BB142新版本干邑色"},"price":null,"currency":"CNY","moq":1,"category":"miu-miu-women-bags","status":"active","alibaba_url":null,"images":["https://xcimg.szwego.com/20240824/i1724491671_3099_0.jpg","https://xcimg.szwego.com/20240824/i1724491671_9138_1.jpg","https://xcimg.szwego.com/20240824/i1724491671_5260_2.jpg","https://xcimg.szwego.com/20240824/i1724491671_2330_3.jpg","https://xcimg.szwego.com/20240824/i1724491671_6153_4.jpg","https://xcimg.szwego.com/20240824/i1724491671_3629_5.jpg","https://xcimg.szwego.com/20240824/i1724491671_2053_6.jpg"],"created_at":"2024-11-11T10:30:45.872Z"},{"id":"item-b9e10a48df21","sku":"_dNvNv866ytUySVGEHlbIxt6zU5FhCkUpQPsJkuw","name_en":"5BB142新版本焦糖色","name_cn":"5BB142新版本焦糖色","specs":{"source":"wsxcme","sourceId":"_dNvNv866ytUySVGEHlbIxt6zU5FhCkUpQPsJkuw","sourceTagId":68075769,"sourceTagName":"Miu Miu /女包","rawTitle":"5BB142新版本焦糖色"},"price":null,"currency":"CNY","moq":1,"category":"miu-miu-women-bags","status":"active","alibaba_url":null,"images":["https://xcimg.szwego.com/20240824/i1724491352_9232_0.jpg","https://xcimg.szwego.com/20240824/i1724491352_4117_1.jpg","https://xcimg.szwego.com/20240824/i1724491352_2844_2.jpg","https://xcimg.szwego.com/20240824/i1724491352_8470_3.jpg","https://xcimg.szwego.com/20240824/i1724491352_5288_4.jpg","https://xcimg.szwego.com/20240824/i1724491352_7585_5.jpg","https://xcimg.szwego.com/20240824/i1724491352_8628_6.jpg","https://xcimg.szwego.com/20240824/i1724491352_3370_7.jpg","https://xcimg.szwego.com/20240824/i1724491750_4141_0.jpg"],"created_at":"2024-11-11T10:30:45.873Z"},{"id":"item-b274c8d5e596","sku":"_d9f9fLi44OpJn89qFW2dEaHTQDDEIpPoG9riTaQ","name_en":"5BB148","name_cn":"5BB148","specs":{"source":"wsxcme","sourceId":"_d9f9fLi44OpJn89qFW2dEaHTQDDEIpPoG9riTaQ","sourceTagId":68075769,"sourceTagName":"Miu Miu /女包","rawTitle":"5BB148"},"price":null,"currency":"CNY","moq":1,"category":"miu-miu-women-bags","status":"active","alibaba_url":null,"images":["https://xcimg.szwego.com/20240814/i1723618149_4679_0.jpg","https://xcimg.szwego.com/20240814/i1723618205_7242_0.jpg","https://xcimg.szwego.com/20240814/i1723618205_4808_1.jpg","https://xcimg.szwego.com/20240814/i1723618205_5469_2.jpg"],"created_at":"2024-11-11T10:30:45.822Z"},{"id":"item-244219d0935f","sku":"_dwEwEFzh91fGN1ovVMRqpNdBsQnWTcURiayYYGA","name_en":"5BB148,Miu家新款保龄球包包,火爆这个秋冬的麂绒元素,顶级头层麂绒小牛皮,包身精致立体有型,正面刻字徽标与皮革颜色相呼应,可拆卸可调节皮革长肩带,全新帆布衬里,配拉链式口袋,众多明星网红同款,尺寸27X12X9Cm,配原版包装","name_cn":"5BB148,Miu家新款保龄球包包,火爆这个秋冬的麂绒元素,顶级头层麂绒小牛皮,包身精致立体有型,正面刻字徽标与皮革颜色相呼应,可拆卸可调节皮革长肩带,全新帆布衬里,配拉链式口袋,众多明星网红同款,尺寸27X12X9Cm,配原版包装","specs":{"source":"wsxcme","sourceId":"_dwEwEFzh91fGN1ovVMRqpNdBsQnWTcURiayYYGA","sourceTagId":68075769,"sourceTagName":"Miu Miu /女包","dimensions":{"lengthCm":27,"heightCm":12,"widthCm":9},"rawTitle":"5BB148,Miu家新款保龄球包包,火爆这个秋冬的麂绒元素,顶级头层麂绒小牛皮,包身精致立体有型,正面刻字徽标与皮革颜色相呼应,可拆卸可调节皮革长肩带,全新帆布衬里,配拉链式口袋,众多明星网红同款,尺寸27X12X9Cm,配原版包装"},"price":null,"currency":"CNY","moq":1,"category":"miu-miu-women-bags","status":"active","alibaba_url":null,"images":["https://xcimg.szwego.com/20240814/i1723606561_5665_0.jpg","https://xcimg.szwego.com/20240814/i1723606561_2736_1.jpg","https://xcimg.szwego.com/20240814/i1723606561_3862_2.jpg","https://xcimg.szwego.com/20240814/i1723606561_5970_3.jpg","https://xcimg.szwego.com/20240814/i1723606561_3046_4.jpg","https://xcimg.szwego.com/20240814/i1723606561_7513_5.jpg","https://xcimg.szwego.com/20240814/i1723606561_6191_6.jpg","https://xcimg.szwego.com/20240814/i1723606561_3792_7.jpg","https://xcimg.szwego.com/20240814/i1723606561_3319_8.jpg"],"created_at":"2024-11-11T10:30:45.821Z"},{"id":"item-383e1bb76a6d","sku":"_dHhHh_unnDMVJQX5zd7wUnl6HaLLpxTuFtu2miw","name_en":"5BB168黑","name_cn":"5BB168黑","specs":{"source":"wsxcme","sourceId":"_dHhHh_unnDMVJQX5zd7wUnl6HaLLpxTuFtu2miw","sourceTagId":68075769,"sourceTagName":"Miu Miu /女包","rawTitle":"5BB168黑"},"price":null,"currency":"CNY","moq":1,"category":"miu-miu-women-bags","status":"active","alibaba_url":null,"images":["https://xcimg.szwego.com/20240826/i1724665150_9633_0.jpg","https://xcimg.szwego.com/20240826/i1724665150_7950_1.jpg","https://xcimg.szwego.com/20240826/i1724665150_8421_2.jpg","https://xcimg.szwego.com/20240826/i1724665150_8507_3.jpg","https://xcimg.szwego.com/20240826/i1724665150_3487_4.jpg","https://xcimg.szwego.com/20240826/i1724665150_9116_5.jpg","https://xcimg.szwego.com/20240826/i1724665150_6268_6.jpg","https://xcimg.szwego.com/20240826/i1724665150_7399_7.jpg","https://xcimg.szwego.com/20240826/i1724665150_8918_8.jpg"],"created_at":"2024-11-11T10:30:45.859Z"},{"id":"item-2db951e4c531","sku":"_dlXlXipU05vci4o3WS9siKF-SI3lsQgONVdlizQ","name_en":"5BB168石楠木,少量现货","name_cn":"5BB168石楠木,少量现货","specs":{"source":"wsxcme","sourceId":"_dlXlXipU05vci4o3WS9siKF-SI3lsQgONVdlizQ","sourceTagId":68075769,"sourceTagName":"Miu Miu /女包","rawTitle":"5BB168石楠木,少量现货"},"price":null,"currency":"CNY","moq":1,"category":"miu-miu-women-bags","status":"active","alibaba_url":null,"images":["https://xcimg.szwego.com/20240826/i1724665012_470_5.jpg","https://xcimg.szwego.com/20240826/i1724665012_7206_4.jpg","https://xcimg.szwego.com/20240826/i1724665012_5899_0.jpg","https://xcimg.szwego.com/20240826/i1724665012_7640_1.jpg","https://xcimg.szwego.com/20240826/i1724665012_2003_2.jpg","https://xcimg.szwego.com/20240826/i1724665012_6557_3.jpg","https://xcimg.szwego.com/20240826/i1724665012_6719_6.jpg","https://xcimg.szwego.com/20240826/i1724665039_222_0.jpg","https://xcimg.szwego.com/20240826/i1724665071_7556_0.jpg"],"created_at":"2024-11-11T10:30:45.885Z"},{"id":"item-1b1b1af73ad7","sku":"_dA9A9QL5fp0RaXJk8HdAzWIsxrbkuqI0kAIFl-g","name_en":"5BB168棕色","name_cn":"5BB168棕色","specs":{"source":"wsxcme","sourceId":"_dA9A9QL5fp0RaXJk8HdAzWIsxrbkuqI0kAIFl-g","sourceTagId":68075769,"sourceTagName":"Miu Miu /女包","rawTitle":"5BB168棕色"},"price":null,"currency":"CNY","moq":1,"category":"miu-miu-women-bags","status":"active","alibaba_url":null,"images":["https://xcimg.szwego.com/20240826/i1724666058_7797_1.jpg","https://xcimg.szwego.com/20240826/i1724666058_489_0.jpg","https://xcimg.szwego.com/20240826/i1724666058_8315_2.jpg","https://xcimg.szwego.com/20240826/i1724666058_5384_3.jpg","https://xcimg.szwego.com/20240826/i1724666058_6128_4.jpg"],"created_at":"2024-11-11T10:30:45.860Z"},{"id":"item-eef4b7dc1da8","sku":"_dXVXV8RqP2Fje6eBoSxH3xkxRdE31ygRx2FBOrg","name_en":"5BB169,Miu家新品爆款保龄球包,釆用顶级复古植柔羊皮,复古磨砂感做旧金属配件,这款Aventure Nappa 皮革手提包灵感源自 Miu家典藏单品,其结构经过调整,变得更加轻便,焕发全新个性,打造具有隽永魅力的经典包款,多元素的设计赋予这款手提包独特美感和经典气息,可拆卸可调节皮革肩带,帆布内里配拉链口袋和贴袋,尺寸:28 X16.5 X 10 c","name_cn":"5BB169,Miu家新品爆款保龄球包,釆用顶级复古植柔羊皮,复古磨砂感做旧金属配件,这款Aventure Nappa 皮革手提包灵感源自 Miu家典藏单品,其结构经过调整,变得更加轻便,焕发全新个性,打造具有隽永魅力的经典包款,多元素的设计赋予这款手提包独特美感和经典气息,可拆卸可调节皮革肩带,帆布内里配拉链口袋和贴袋,尺寸:28 X16.5 X 10 cm","specs":{"source":"wsxcme","sourceId":"_dXVXV8RqP2Fje6eBoSxH3xkxRdE31ygRx2FBOrg","sourceTagId":68075769,"sourceTagName":"Miu Miu /女包","dimensions":{"lengthCm":28,"heightCm":16.5,"widthCm":10},"rawTitle":"5BB169,Miu家新品爆款保龄球包,釆用顶级复古植柔羊皮,复古磨砂感做旧金属配件,这款Aventure Nappa 皮革手提包灵感源自 Miu家典藏单品,其结构经过调整,变得更加轻便,焕发全新个性,打造具有隽永魅力的经典包款,多元素的设计赋予这款手提包独特美感和经典气息,可拆卸可调节皮革肩带,帆布内里配拉链口袋和贴袋,尺寸:28 X16.5 X 10 cm"},"price":null,"currency":"CNY","moq":1,"category":"miu-miu-women-bags","status":"active","alibaba_url":null,"images":["https://xcimg.szwego.com/img/205b0922/20240819/i1724059518_3345_6.jpg","https://xcimg.szwego.com/img/205b0922/20240819/i1724059518_1425_2.jpg","https://xcimg.szwego.com/img/205b0922/20240819/i1724059518_4116_8.jpg","https://xcimg.szwego.com/img/205b0922/20240819/i1724059518_6057_0.jpg","https://xcimg.szwego.com/img/205b0922/20240819/i1724059518_4196_3.jpg","https://xcimg.szwego.com/img/205b0922/20240819/i1724059518_7507_5.jpg","https://xcimg.szwego.com/img/205b0922/20240819/i1724059518_8692_9.jpg","https://xcimg.szwego.com/img/205b0922/20240819/i1724059518_3551_7.jpg","https://xcimg.szwego.com/img/205b0922/20240819/i1724059518_4732_4.jpg"],"created_at":"2025-01-20T13:11:33.096Z"},{"id":"item-7b2247bd82d0","sku":"_dpIpI45vGJW7aS781pBiBgaETdwIuQ9TImE6G5w","name_en":"5BB169,Miu家新品爆款保龄球包,釆用顶级复古植柔羊皮,复古磨砂感做旧金属配件,这款Aventure Nappa 皮革手提包灵感源自 Miu家典藏单品,其结构经过调整,变得更加轻便,焕发全新个性,打造具有隽永魅力的经典包款,多元素的设计赋予这款手提包独特美感和经典气息,可拆卸可调节皮革肩带,帆布内里配拉链口袋和贴袋,尺寸:28 X16.5 X 10 c","name_cn":"5BB169,Miu家新品爆款保龄球包,釆用顶级复古植柔羊皮,复古磨砂感做旧金属配件,这款Aventure Nappa 皮革手提包灵感源自 Miu家典藏单品,其结构经过调整,变得更加轻便,焕发全新个性,打造具有隽永魅力的经典包款,多元素的设计赋予这款手提包独特美感和经典气息,可拆卸可调节皮革肩带,帆布内里配拉链口袋和贴袋,尺寸:28 X16.5 X 10 cm","specs":{"source":"wsxcme","sourceId":"_dpIpI45vGJW7aS781pBiBgaETdwIuQ9TImE6G5w","sourceTagId":68075769,"sourceTagName":"Miu Miu /女包","dimensions":{"lengthCm":28,"heightCm":16.5,"widthCm":10},"rawTitle":"5BB169,Miu家新品爆款保龄球包,釆用顶级复古植柔羊皮,复古磨砂感做旧金属配件,这款Aventure Nappa 皮革手提包灵感源自 Miu家典藏单品,其结构经过调整,变得更加轻便,焕发全新个性,打造具有隽永魅力的经典包款,多元素的设计赋予这款手提包独特美感和经典气息,可拆卸可调节皮革肩带,帆布内里配拉链口袋和贴袋,尺寸:28 X16.5 X 10 cm"},"price":null,"currency":"CNY","moq":1,"category":"miu-miu-women-bags","status":"active","alibaba_url":null,"images":["https://xcimg.szwego.com/20240827/i1724728665_228_0.jpg","https://xcimg.szwego.com/20240827/i1724728665_9578_1.jpg","https://xcimg.szwego.com/20240827/i1724728665_7348_2.jpg","https://xcimg.szwego.com/20240827/i1724728665_1296_3.jpg","https://xcimg.szwego.com/20240827/i1724728665_7495_4.jpg","https://xcimg.szwego.com/20240827/i1724728665_3085_5.jpg","https://xcimg.szwego.com/20240827/i1724728665_2364_6.jpg","https://xcimg.szwego.com/20240827/i1724728665_9565_7.jpg","https://xcimg.szwego.com/20240827/i1724728665_1068_8.jpg"],"created_at":"2025-01-20T13:11:33.100Z"},{"id":"item-3606fdab087a","sku":"_d_6_63J3eC2o8pjqK3zio4EvyYNXljbwpY8ChuQ","name_en":"5BB169,Miu家新品爆款保龄球包,釆用顶级复古植柔羊皮,复古磨砂感做旧金属配件,这款Aventure Nappa 皮革手提包灵感源自 Miu家典藏单品,其结构经过调整,变得更加轻便,焕发全新个性,打造具有隽永魅力的经典包款,多元素的设计赋予这款手提包独特美感和经典气息,可拆卸可调节皮革肩带,帆布内里配拉链口袋和贴袋,尺寸:28 X16.5 X 10 c","name_cn":"5BB169,Miu家新品爆款保龄球包,釆用顶级复古植柔羊皮,复古磨砂感做旧金属配件,这款Aventure Nappa 皮革手提包灵感源自 Miu家典藏单品,其结构经过调整,变得更加轻便,焕发全新个性,打造具有隽永魅力的经典包款,多元素的设计赋予这款手提包独特美感和经典气息,可拆卸可调节皮革肩带,帆布内里配拉链口袋和贴袋,尺寸:28 X16.5 X 10 cm","specs":{"source":"wsxcme","sourceId":"_d_6_63J3eC2o8pjqK3zio4EvyYNXljbwpY8ChuQ","sourceTagId":68075769,"sourceTagName":"Miu Miu /女包","dimensions":{"lengthCm":28,"heightCm":16.5,"widthCm":10},"rawTitle":"5BB169,Miu家新品爆款保龄球包,釆用顶级复古植柔羊皮,复古磨砂感做旧金属配件,这款Aventure Nappa 皮革手提包灵感源自 Miu家典藏单品,其结构经过调整,变得更加轻便,焕发全新个性,打造具有隽永魅力的经典包款,多元素的设计赋予这款手提包独特美感和经典气息,可拆卸可调节皮革肩带,帆布内里配拉链口袋和贴袋,尺寸:28 X16.5 X 10 cm"},"price":null,"currency":"CNY","moq":1,"category":"miu-miu-women-bags","status":"active","alibaba_url":null,"images":["https://xcimg.szwego.com/img/9401619d/20240912/i1726117816_7311_2.jpg","https://xcimg.szwego.com/img/9401619d/20240912/i1726117816_4001_1.jpg","https://xcimg.szwego.com/img/9401619d/20240912/i1726117816_835_3.jpg","https://xcimg.szwego.com/img/9401619d/20240912/i1726117816_2712_7.jpg","https://xcimg.szwego.com/img/9401619d/20240912/i1726117816_6622_5.jpg","https://xcimg.szwego.com/img/9401619d/20240912/i1726117816_9284_6.jpg","https://xcimg.szwego.com/img/9401619d/20240912/i1726117816_3395_8.jpg","https://xcimg.szwego.com/img/9401619d/20240912/i1726117816_4861_0.jpg","https://xcimg.szwego.com/img/9401619d/20240912/i1726117816_1038_4.jpg"],"created_at":"2025-02-10T13:52:13.569Z"},{"id":"item-2a3ddcbbf038","sku":"_dnFnF6OpQ_U6zB7hopDgKm_grJQvyjkz2xxTesQ","name_en":"5BB169,Miu家新品爆款保龄球包,釆用顶级复古植柔羊皮,复古磨砂感做旧金属配件,这款Aventure Nappa 皮革手提包灵感源自 Miu家典藏单品,其结构经过调整,变得更加轻便,焕发全新个性,打造具有隽永魅力的经典包款,多元素的设计赋予这款手提包独特美感和经典气息,可拆卸可调节皮革肩带,帆布内里配拉链口袋和贴袋,尺寸:28 X16.5 X 10 c","name_cn":"5BB169,Miu家新品爆款保龄球包,釆用顶级复古植柔羊皮,复古磨砂感做旧金属配件,这款Aventure Nappa 皮革手提包灵感源自 Miu家典藏单品,其结构经过调整,变得更加轻便,焕发全新个性,打造具有隽永魅力的经典包款,多元素的设计赋予这款手提包独特美感和经典气息,可拆卸可调节皮革肩带,帆布内里配拉链口袋和贴袋,尺寸:28 X16.5 X 10 cm","specs":{"source":"wsxcme","sourceId":"_dnFnF6OpQ_U6zB7hopDgKm_grJQvyjkz2xxTesQ","sourceTagId":68075769,"sourceTagName":"Miu Miu /女包","dimensions":{"lengthCm":28,"heightCm":16.5,"widthCm":10},"rawTitle":"5BB169,Miu家新品爆款保龄球包,釆用顶级复古植柔羊皮,复古磨砂感做旧金属配件,这款Aventure Nappa 皮革手提包灵感源自 Miu家典藏单品,其结构经过调整,变得更加轻便,焕发全新个性,打造具有隽永魅力的经典包款,多元素的设计赋予这款手提包独特美感和经典气息,可拆卸可调节皮革肩带,帆布内里配拉链口袋和贴袋,尺寸:28 X16.5 X 10 cm"},"price":null,"currency":"CNY","moq":1,"category":"miu-miu-women-bags","status":"active","alibaba_url":null,"images":["https://xcimg.szwego.com/img/205b0922/20240818/i1723964589_9837_0.jpg","https://xcimg.szwego.com/img/205b0922/20240818/i1723964589_6148_8.jpg","https://xcimg.szwego.com/img/205b0922/20240818/i1723964589_1340_4.jpg","https://xcimg.szwego.com/img/205b0922/20240818/i1723964589_6897_9.jpg","https://xcimg.szwego.com/img/205b0922/20240818/i1723964589_985_6.jpg","https://xcimg.szwego.com/img/205b0922/20240818/i1723964589_7274_2.jpg","https://xcimg.szwego.com/img/205b0922/20240818/i1723964589_4481_5.jpg","https://xcimg.szwego.com/img/205b0922/20240818/i1723964589_3984_7.jpg","https://xcimg.szwego.com/img/205b0922/20240818/i1723964589_3769_1.jpg"],"created_at":"2025-01-20T13:11:33.095Z"},{"id":"item-214b8599def5","sku":"_ddhdhtm2cL3Holps9mdwHyoKrgIYsSWGugD8Fbg","name_en":"5BB169,Miu家新品爆款保龄球包,釆用顶级复古植柔羊皮,复古磨砂感做旧金属配件,这款Aventure Nappa 皮革手提包灵感源自 Miu家典藏单品,其结构经过调整,变得更加轻便,焕发全新个性,打造具有隽永魅力的经典包款,多元素的设计赋予这款手提包独特美感和经典气息,可拆卸可调节皮革肩带,帆布内里配拉链口袋和贴袋,尺寸:28 X16.5 X 10 c","name_cn":"5BB169,Miu家新品爆款保龄球包,釆用顶级复古植柔羊皮,复古磨砂感做旧金属配件,这款Aventure Nappa 皮革手提包灵感源自 Miu家典藏单品,其结构经过调整,变得更加轻便,焕发全新个性,打造具有隽永魅力的经典包款,多元素的设计赋予这款手提包独特美感和经典气息,可拆卸可调节皮革肩带,帆布内里配拉链口袋和贴袋,尺寸:28 X16.5 X 10 cm","specs":{"source":"wsxcme","sourceId":"_ddhdhtm2cL3Holps9mdwHyoKrgIYsSWGugD8Fbg","sourceTagId":68075769,"sourceTagName":"Miu Miu /女包","dimensions":{"lengthCm":28,"heightCm":16.5,"widthCm":10},"rawTitle":"5BB169,Miu家新品爆款保龄球包,釆用顶级复古植柔羊皮,复古磨砂感做旧金属配件,这款Aventure Nappa 皮革手提包灵感源自 Miu家典藏单品,其结构经过调整,变得更加轻便,焕发全新个性,打造具有隽永魅力的经典包款,多元素的设计赋予这款手提包独特美感和经典气息,可拆卸可调节皮革肩带,帆布内里配拉链口袋和贴袋,尺寸:28 X16.5 X 10 cm"},"price":null,"currency":"CNY","moq":1,"category":"miu-miu-women-bags","status":"active","alibaba_url":null,"images":["https://xcimg.szwego.com/img/205b0922/20240818/i1723915280_9832_1.jpg","https://xcimg.szwego.com/img/205b0922/20240818/i1723915280_2990_4.jpg","https://xcimg.szwego.com/img/205b0922/20240818/i1723915280_9729_6.jpg","https://xcimg.szwego.com/img/205b0922/20240818/i1723915280_4676_0.jpg","https://xcimg.szwego.com/img/205b0922/20240818/i1723915280_9640_2.jpg","https://xcimg.szwego.com/img/205b0922/20240818/i1723915280_1203_3.jpg","https://xcimg.szwego.com/img/205b0922/20240818/i1723915280_3272_8.jpg","https://xcimg.szwego.com/img/205b0922/20240818/i1723915280_6759_5.jpg","https://xcimg.szwego.com/img/205b0922/20240818/i1723915280_8912_7.jpg"],"created_at":"2025-01-20T13:11:33.094Z"},{"id":"item-19a60acc70b3","sku":"_dPNPN43pRidz3447bweZkvUIXN30KFZiByXH1MA","name_en":"5BB169,Miu家新品爆款保龄球包,釆用顶级复古植柔羊皮,复古磨砂感做旧金属配件,这款Aventure Nappa 皮革手提包灵感源自 Miu家典藏单品,其结构经过调整,变得更加轻便,焕发全新个性,打造具有隽永魅力的经典包款,多元素的设计赋予这款手提包独特美感和经典气息,可拆卸可调节皮革肩带,帆布内里配拉链口袋和贴袋,尺寸:28 X16.5 X 10 c","name_cn":"5BB169,Miu家新品爆款保龄球包,釆用顶级复古植柔羊皮,复古磨砂感做旧金属配件,这款Aventure Nappa 皮革手提包灵感源自 Miu家典藏单品,其结构经过调整,变得更加轻便,焕发全新个性,打造具有隽永魅力的经典包款,多元素的设计赋予这款手提包独特美感和经典气息,可拆卸可调节皮革肩带,帆布内里配拉链口袋和贴袋,尺寸:28 X16.5 X 10 cm","specs":{"source":"wsxcme","sourceId":"_dPNPN43pRidz3447bweZkvUIXN30KFZiByXH1MA","sourceTagId":68075769,"sourceTagName":"Miu Miu /女包","dimensions":{"lengthCm":28,"heightCm":16.5,"widthCm":10},"rawTitle":"5BB169,Miu家新品爆款保龄球包,釆用顶级复古植柔羊皮,复古磨砂感做旧金属配件,这款Aventure Nappa 皮革手提包灵感源自 Miu家典藏单品,其结构经过调整,变得更加轻便,焕发全新个性,打造具有隽永魅力的经典包款,多元素的设计赋予这款手提包独特美感和经典气息,可拆卸可调节皮革肩带,帆布内里配拉链口袋和贴袋,尺寸:28 X16.5 X 10 cm"},"price":null,"currency":"CNY","moq":1,"category":"miu-miu-women-bags","status":"active","alibaba_url":null,"images":["https://xcimg.szwego.com/img/9401619d/20240914/i1726309525_1250_1.jpg","https://xcimg.szwego.com/img/9401619d/20240914/i1726309525_9839_8.jpg","https://xcimg.szwego.com/img/9401619d/20240914/i1726309525_7136_2.jpg","https://xcimg.szwego.com/img/9401619d/20240914/i1726309525_6669_4.jpg","https://xcimg.szwego.com/img/9401619d/20240914/i1726309525_9263_7.jpg","https://xcimg.szwego.com/img/9401619d/20240914/i1726309525_6870_3.jpg","https://xcimg.szwego.com/img/9401619d/20240914/i1726309525_8368_0.jpg","https://xcimg.szwego.com/img/9401619d/20240914/i1726309525_8728_5.jpg","https://xcimg.szwego.com/img/9401619d/20240914/i1726309525_4176_6.jpg"],"created_at":"2025-02-10T13:51:58.460Z"},{"id":"item-132aa2f9fbe0","sku":"_dl0l0l8HNWrvmxcY_f7nncsWiGdSjmsSi04fNEg","name_en":"5BB169,Miu家新品爆款保龄球包,釆用顶级复古植柔羊皮,复古磨砂感做旧金属配件,这款Aventure Nappa 皮革手提包灵感源自 Miu家典藏单品,其结构经过调整,变得更加轻便,焕发全新个性,打造具有隽永魅力的经典包款,多元素的设计赋予这款手提包独特美感和经典气息,可拆卸可调节皮革肩带,帆布内里配拉链口袋和贴袋,尺寸:28 X16.5 X 10 c","name_cn":"5BB169,Miu家新品爆款保龄球包,釆用顶级复古植柔羊皮,复古磨砂感做旧金属配件,这款Aventure Nappa 皮革手提包灵感源自 Miu家典藏单品,其结构经过调整,变得更加轻便,焕发全新个性,打造具有隽永魅力的经典包款,多元素的设计赋予这款手提包独特美感和经典气息,可拆卸可调节皮革肩带,帆布内里配拉链口袋和贴袋,尺寸:28 X16.5 X 10 cm","specs":{"source":"wsxcme","sourceId":"_dl0l0l8HNWrvmxcY_f7nncsWiGdSjmsSi04fNEg","sourceTagId":68075769,"sourceTagName":"Miu Miu /女包","dimensions":{"lengthCm":28,"heightCm":16.5,"widthCm":10},"rawTitle":"5BB169,Miu家新品爆款保龄球包,釆用顶级复古植柔羊皮,复古磨砂感做旧金属配件,这款Aventure Nappa 皮革手提包灵感源自 Miu家典藏单品,其结构经过调整,变得更加轻便,焕发全新个性,打造具有隽永魅力的经典包款,多元素的设计赋予这款手提包独特美感和经典气息,可拆卸可调节皮革肩带,帆布内里配拉链口袋和贴袋,尺寸:28 X16.5 X 10 cm"},"price":null,"currency":"CNY","moq":1,"category":"miu-miu-women-bags","status":"active","alibaba_url":null,"images":["https://xcimg.szwego.com/20240823/i1724384299_5309_0.jpg","https://xcimg.szwego.com/20240823/i1724384299_8817_1.jpg","https://xcimg.szwego.com/20240823/i1724384299_6468_2.jpg","https://xcimg.szwego.com/20240823/i1724384299_2483_3.jpg","https://xcimg.szwego.com/20240823/i1724384299_7951_4.jpg","https://xcimg.szwego.com/20240823/i1724384299_6367_5.jpg","https://xcimg.szwego.com/20240823/i1724384299_4013_6.jpg","https://xcimg.szwego.com/20240823/i1724384299_9064_7.jpg","https://xcimg.szwego.com/20240823/i1724384299_2154_8.jpg"],"created_at":"2025-01-20T13:11:33.101Z"},{"id":"item-1043030a0317","sku":"_d_M_MyA5y77r1ilcRG3gF1RIVYRD5Bjz8dpWBsA","name_en":"5BB169,Miu家新品爆款保龄球包,釆用顶级复古植柔羊皮,复古磨砂感做旧金属配件,这款Aventure Nappa 皮革手提包灵感源自 Miu家典藏单品,其结构经过调整,变得更加轻便,焕发全新个性,打造具有隽永魅力的经典包款,多元素的设计赋予这款手提包独特美感和经典气息,可拆卸可调节皮革肩带,帆布内里配拉链口袋和贴袋,尺寸:28 X16.5 X 10 c","name_cn":"5BB169,Miu家新品爆款保龄球包,釆用顶级复古植柔羊皮,复古磨砂感做旧金属配件,这款Aventure Nappa 皮革手提包灵感源自 Miu家典藏单品,其结构经过调整,变得更加轻便,焕发全新个性,打造具有隽永魅力的经典包款,多元素的设计赋予这款手提包独特美感和经典气息,可拆卸可调节皮革肩带,帆布内里配拉链口袋和贴袋,尺寸:28 X16.5 X 10 cm","specs":{"source":"wsxcme","sourceId":"_d_M_MyA5y77r1ilcRG3gF1RIVYRD5Bjz8dpWBsA","sourceTagId":68075769,"sourceTagName":"Miu Miu /女包","dimensions":{"lengthCm":28,"heightCm":16.5,"widthCm":10},"rawTitle":"5BB169,Miu家新品爆款保龄球包,釆用顶级复古植柔羊皮,复古磨砂感做旧金属配件,这款Aventure Nappa 皮革手提包灵感源自 Miu家典藏单品,其结构经过调整,变得更加轻便,焕发全新个性,打造具有隽永魅力的经典包款,多元素的设计赋予这款手提包独特美感和经典气息,可拆卸可调节皮革肩带,帆布内里配拉链口袋和贴袋,尺寸:28 X16.5 X 10 cm"},"price":null,"currency":"CNY","moq":1,"category":"miu-miu-women-bags","status":"active","alibaba_url":null,"images":["https://xcimg.szwego.com/img/9401619d/20240912/i1726117845_117_7.jpg","https://xcimg.szwego.com/img/9401619d/20240912/i1726117845_9344_0.jpg","https://xcimg.szwego.com/img/9401619d/20240912/i1726117845_344_8.jpg","https://xcimg.szwego.com/img/9401619d/20240912/i1726117845_3075_3.jpg","https://xcimg.szwego.com/img/9401619d/20240912/i1726117845_7761_2.jpg","https://xcimg.szwego.com/img/9401619d/20240912/i1726117845_1292_5.jpg","https://xcimg.szwego.com/img/9401619d/20240912/i1726117845_8525_6.jpg","https://xcimg.szwego.com/img/9401619d/20240912/i1726117845_6295_1.jpg","https://xcimg.szwego.com/img/9401619d/20240912/i1726117845_8948_4.jpg"],"created_at":"2025-02-10T13:52:06.083Z"},{"id":"item-83be9a5e8471","sku":"_drnrn_mivBVEloioPSCp9rUtvN8YJ0r_yBefncA","name_en":"5BB173:Miu新品保龄球,最新双色搭配设计,采用超柔软小牛皮材质,大胆创新的设计完美诠释了Miu不拘一格,潇洒随意包容的人生态度,这款包包很酷,定格精致的多功能设计,融合男装和女装元素,随性慵懒,自然洒脱,充满个性,全新的帆布衬里,火遍全网不是没道理的,各大时尚搏主明星都爱背它,尺寸:28X12X9cm","name_cn":"5BB173:Miu新品保龄球,最新双色搭配设计,采用超柔软小牛皮材质,大胆创新的设计完美诠释了Miu不拘一格,潇洒随意包容的人生态度,这款包包很酷,定格精致的多功能设计,融合男装和女装元素,随性慵懒,自然洒脱,充满个性,全新的帆布衬里,火遍全网不是没道理的,各大时尚搏主明星都爱背它,尺寸:28X12X9cm","specs":{"source":"wsxcme","sourceId":"_drnrn_mivBVEloioPSCp9rUtvN8YJ0r_yBefncA","sourceTagId":68075769,"sourceTagName":"Miu Miu /女包","dimensions":{"lengthCm":28,"heightCm":12,"widthCm":9},"rawTitle":"5BB173:Miu新品保龄球,最新双色搭配设计,采用超柔软小牛皮材质,大胆创新的设计完美诠释了Miu不拘一格,潇洒随意包容的人生态度,这款包包很酷,定格精致的多功能设计,融合男装和女装元素,随性慵懒,自然洒脱,充满个性,全新的帆布衬里,火遍全网不是没道理的,各大时尚搏主明星都爱背它,尺寸:28X12X9cm"},"price":null,"currency":"CNY","moq":1,"category":"miu-miu-women-bags","status":"active","alibaba_url":null,"images":["https://xcimg.szwego.com/imgHD/facca766/20250425/cmp_a1745559957429_8287.jpg","https://xcimg.szwego.com/imgHD/facca766/20250425/cmp_a1745559957786_4007.jpg","https://xcimg.szwego.com/imgHD/facca766/20250425/cmp_a1745559957812_3730.jpg","https://xcimg.szwego.com/imgHD/facca766/20250425/cmp_a1745559957442_4843.jpg","https://xcimg.szwego.com/imgHD/facca766/20250425/cmp_a1745559957440_6667.jpg","https://xcimg.szwego.com/imgHD/facca766/20250425/cmp_a1745559962630_8613.jpg","https://xcimg.szwego.com/imgHD/facca766/20250425/cmp_a1745559962639_5230.jpg","https://xcimg.szwego.com/imgHD/facca766/20250425/cmp_a1745559962641_5435.jpg","https://xcimg.szwego.com/imgHD/facca766/20250425/cmp_a1745559962905_8102.jpg"],"created_at":"2026-06-29T11:34:30.482Z"},{"id":"item-f7076070557e","sku":"_dgdgdsUmai_ZepkDkYqFcSRTAtgBZ2tf-lGZaeA","name_en":"5BC125:MiuMi新品MiuWander手袋,全新大胆配色设计,采用顶级进口小牛皮,复古磨砂五金,利用圆孤的曲线,保留了应有的俏皮感,表达运动优雅型格与当代百变气质,包型整体硬挺有型,充满个性,可甜可盐,容量可光,尺寸:20X13X7 cm","name_cn":"5BC125:MiuMi新品MiuWander手袋,全新大胆配色设计,采用顶级进口小牛皮,复古磨砂五金,利用圆孤的曲线,保留了应有的俏皮感,表达运动优雅型格与当代百变气质,包型整体硬挺有型,充满个性,可甜可盐,容量可光,尺寸:20X13X7 cm","specs":{"source":"wsxcme","sourceId":"_dgdgdsUmai_ZepkDkYqFcSRTAtgBZ2tf-lGZaeA","sourceTagId":68075769,"sourceTagName":"Miu Miu /女包","dimensions":{"lengthCm":20,"heightCm":13,"widthCm":7},"rawTitle":"5BC125:MiuMi新品MiuWander手袋,全新大胆配色设计,采用顶级进口小牛皮,复古磨砂五金,利用圆孤的曲线,保留了应有的俏皮感,表达运动优雅型格与当代百变气质,包型整体硬挺有型,充满个性,可甜可盐,容量可光,尺寸:20X13X7 cm"},"price":null,"currency":"CNY","moq":1,"category":"miu-miu-women-bags","status":"active","alibaba_url":null,"images":["https://xcimg.szwego.com/imgHD/facca766/20250516/cmp_a1747373320556_5318.jpg","https://xcimg.szwego.com/imgHD/facca766/20250516/cmp_a1747373320657_4037.jpg","https://xcimg.szwego.com/imgHD/facca766/20250516/cmp_a1747373320559_4135.jpg","https://xcimg.szwego.com/imgHD/facca766/20250516/cmp_a1747373320637_0111.jpg","https://xcimg.szwego.com/imgHD/facca766/20250516/cmp_a1747373320138_1132.jpg","https://xcimg.szwego.com/imgHD/facca766/20250516/cmp_a1747373324554_6238.jpg","https://xcimg.szwego.com/imgHD/facca766/20250516/cmp_a1747373324275_1738.jpg","https://xcimg.szwego.com/imgHD/facca766/20250516/cmp_a1747373324579_3485.jpg","https://xcimg.szwego.com/imgHD/facca766/20250516/cmp_a1747373324277_4372.jpg"],"created_at":"2026-06-29T11:34:30.412Z"},{"id":"item-c1352c98f321","sku":"_dIMIM6QD1_LTIlAYz3DBClK7RJ0BIZFXvpzHc8A","name_en":"5BC125:MiuMi新品MiuWander手袋,全新大胆配色设计,采用顶级进口小牛皮,复古磨砂五金,利用圆孤的曲线,保留了应有的俏皮感,表达运动优雅型格与当代百变气质,包型整体硬挺有型,充满个性,可甜可盐,容量可光,尺寸:20X13X7 cm","name_cn":"5BC125:MiuMi新品MiuWander手袋,全新大胆配色设计,采用顶级进口小牛皮,复古磨砂五金,利用圆孤的曲线,保留了应有的俏皮感,表达运动优雅型格与当代百变气质,包型整体硬挺有型,充满个性,可甜可盐,容量可光,尺寸:20X13X7 cm","specs":{"source":"wsxcme","sourceId":"_dIMIM6QD1_LTIlAYz3DBClK7RJ0BIZFXvpzHc8A","sourceTagId":68075769,"sourceTagName":"Miu Miu /女包","dimensions":{"lengthCm":20,"heightCm":13,"widthCm":7},"rawTitle":"5BC125:MiuMi新品MiuWander手袋,全新大胆配色设计,采用顶级进口小牛皮,复古磨砂五金,利用圆孤的曲线,保留了应有的俏皮感,表达运动优雅型格与当代百变气质,包型整体硬挺有型,充满个性,可甜可盐,容量可光,尺寸:20X13X7 cm"},"price":null,"currency":"CNY","moq":1,"category":"miu-miu-women-bags","status":"active","alibaba_url":null,"images":["https://xcimg.szwego.com/imgHD/facca766/20250516/cmp_a1747373465321_4613.jpg","https://xcimg.szwego.com/imgHD/facca766/20250516/cmp_a1747373465405_1273.jpg","https://xcimg.szwego.com/imgHD/facca766/20250516/cmp_a1747373464936_4467.jpg","https://xcimg.szwego.com/imgHD/facca766/20250516/cmp_a1747373464934_0111.jpg","https://xcimg.szwego.com/imgHD/facca766/20250516/cmp_a1747373465356_1771.jpg","https://xcimg.szwego.com/imgHD/facca766/20250516/cmp_a1747373469535_7367.jpg","https://xcimg.szwego.com/imgHD/facca766/20250516/cmp_a1747373469322_8030.jpg","https://xcimg.szwego.com/imgHD/facca766/20250516/cmp_a1747373469326_1268.jpg","https://xcimg.szwego.com/imgHD/facca766/20250516/cmp_a1747373469533_4073.jpg"],"created_at":"2026-06-29T11:34:30.402Z"},{"id":"item-ad70c4e92580","sku":"_d8O8OTY7HNPjQzE_1mNuAPK4fjlSrtDz3Lqyzmw","name_en":"5BC125:MiuMiu新品MiuWander手袋,采用进口小羊皮经典品牌标志性Matelasse纹理绣花,复古磨砂五金,利用圆孤的曲线,保留了应有的俏皮感,包型整体硬挺有型,充满个性,可甜可盐,容量可光,各大时尚搏主几乎人手一个,颜色多多,尺寸:20 X 17 X 6配原版包装","name_cn":"5BC125:MiuMiu新品MiuWander手袋,采用进口小羊皮经典品牌标志性Matelasse纹理绣花,复古磨砂五金,利用圆孤的曲线,保留了应有的俏皮感,包型整体硬挺有型,充满个性,可甜可盐,容量可光,各大时尚搏主几乎人手一个,颜色多多,尺寸:20 X 17 X 6配原版包装","specs":{"source":"wsxcme","sourceId":"_d8O8OTY7HNPjQzE_1mNuAPK4fjlSrtDz3Lqyzmw","sourceTagId":68075769,"sourceTagName":"Miu Miu /女包","rawTitle":"5BC125:MiuMiu新品MiuWander手袋,采用进口小羊皮经典品牌标志性Matelasse纹理绣花,复古磨砂五金,利用圆孤的曲线,保留了应有的俏皮感,包型整体硬挺有型,充满个性,可甜可盐,容量可光,各大时尚搏主几乎人手一个,颜色多多,尺寸:20 X 17 X 6配原版包装"},"price":null,"currency":"CNY","moq":1,"category":"miu-miu-women-bags","status":"active","alibaba_url":null,"images":["https://xcimg.szwego.com/20240502/i1714637171_994_0.jpg","https://xcimg.szwego.com/20240502/i1714637171_3138_1.jpg","https://xcimg.szwego.com/20240502/i1714637171_167_2.jpg","https://xcimg.szwego.com/20240502/i1714637171_3338_3.jpg","https://xcimg.szwego.com/20240502/i1714637171_1061_4.jpg","https://xcimg.szwego.com/20240502/i1714637171_7979_5.jpg","https://xcimg.szwego.com/20240502/i1714637171_9131_6.jpg","https://xcimg.szwego.com/20240502/i1714637171_129_7.jpg","https://xcimg.szwego.com/20240502/i1714637171_971_8.jpg"],"created_at":"2025-01-20T13:11:33.116Z"}],"page":130,"pageSize":24,"total":10075,"totalPages":420}
