{"items":[{"id":"item-e63ce0353630","sku":"_dufuf1nRgdtadjdP05WXAGVF73R71CB0QG8lcmw","name_en":"Bvlgari Women Bags","name_cn":"正品级\nSERPENTI CABOCHON”系列迷你斜挎包采用别具魅力的大号图形图案和大胆的金属质感细节,以精致实用的独特设计和现代风格绽放SERPENTI世界璀璨光芒。\n此款手袋配备可调节和可拆卸的皮革肩带,可用作手提包或手拿包,实现多变百搭功能,日夜皆宜。\n小号,设一个收纳层,一个内部拉链口袋和一个内部敞口口袋。镌刻BVLGARI宝格丽品牌标识的内侧金属铭牌。\n型号:291088\n尺寸:22.5×15×10厘米","specs":{"source":"wsxcme","sourceId":"_dufuf1nRgdtadjdP05WXAGVF73R71CB0QG8lcmw","sourceTagId":47002756,"sourceTagName":"宝格丽/女包","modelNumber":"291088","dimensions":{"lengthCm":22.5,"heightCm":15,"widthCm":10},"rawTitle":"正品级\nSERPENTI CABOCHON”系列迷你斜挎包采用别具魅力的大号图形图案和大胆的金属质感细节,以精致实用的独特设计和现代风格绽放SERPENTI世界璀璨光芒。\n此款手袋配备可调节和可拆卸的皮革肩带,可用作手提包或手拿包,实现多变百搭功能,日夜皆宜。\n小号,设一个收纳层,一个内部拉链口袋和一个内部敞口口袋。镌刻BVLGARI宝格丽品牌标识的内侧金属铭牌。\n型号:291088\n尺寸:22.5×15×10厘米"},"price":null,"currency":"CNY","moq":1,"category":"bvlgari-women-bags","status":"active","alibaba_url":null,"images":["https://xcimg.szwego.com/20230329/i1680068539_3775_0.jpg","https://xcimg.szwego.com/20230329/i1680068539_4128_1.jpg","https://xcimg.szwego.com/20230329/i1680068539_7515_2.jpg","https://xcimg.szwego.com/20230329/i1680068539_5768_3.jpg","https://xcimg.szwego.com/20230329/i1680068539_7917_4.jpg","https://xcimg.szwego.com/20230329/i1680068539_1209_5.jpg","https://xcimg.szwego.com/20230329/i1680068539_9495_6.jpg","https://xcimg.szwego.com/20230329/i1680068539_1500_7.jpg","https://xcimg.szwego.com/20230329/i1680068539_4310_8.jpg"],"created_at":"2024-09-27T06:51:04.094Z"},{"id":"item-df88b1c72df8","sku":"_dcecenYr_yCHSOFB5JtUB5j8FaNN0j3NGiwVQyQ","name_en":"Bvlgari Women Bags","name_cn":"正品级\nBVLGARISERPENTIFOREVER\n型号:38102 橙配酒红\n尺寸:22*13*5.5cm\n专柜热卖系列 Serpenti Forever 精致斜挎包 原单品质 进口胎牛皮 定制原单五金🔅点缀serpenti珐琅浅金镀金蛇首形搭扣  也可以当晚宴包用 精致如珠宝💎\"雨衣、镜子、礼盒包装、","specs":{"source":"wsxcme","sourceId":"_dcecenYr_yCHSOFB5JtUB5j8FaNN0j3NGiwVQyQ","sourceTagId":47002756,"sourceTagName":"宝格丽/女包","modelNumber":"38102 橙配酒红","dimensions":{"lengthCm":22,"heightCm":13,"widthCm":5.5},"rawTitle":"正品级\nBVLGARISERPENTIFOREVER\n型号:38102 橙配酒红\n尺寸:22*13*5.5cm\n专柜热卖系列 Serpenti Forever 精致斜挎包 原单品质 进口胎牛皮 定制原单五金🔅点缀serpenti珐琅浅金镀金蛇首形搭扣  也可以当晚宴包用 精致如珠宝💎\"雨衣、镜子、礼盒包装、"},"price":null,"currency":"CNY","moq":1,"category":"bvlgari-women-bags","status":"active","alibaba_url":null,"images":["https://xcimg.szwego.com/20230219/i1676789064_1831_0.jpg","https://xcimg.szwego.com/20230219/i1676789064_3383_1.jpg","https://xcimg.szwego.com/20230219/i1676789064_9541_2.jpg","https://xcimg.szwego.com/20230219/i1676789064_8381_3.jpg","https://xcimg.szwego.com/20230219/i1676789064_1605_4.jpg","https://xcimg.szwego.com/20230219/i1676789064_321_5.jpg","https://xcimg.szwego.com/20230219/i1676789064_5109_6.jpg","https://xcimg.szwego.com/20230219/i1676789064_5741_7.jpg","https://xcimg.szwego.com/20230219/i1676789064_3550_8.jpg"],"created_at":"2024-10-07T10:58:53.563Z"},{"id":"item-dddfdd2febeb","sku":"_deFeFwf_NaQ3w--vZxDNsPNG-OrBUd6Zf9LHMew","name_en":"Bvlgari Women Bags","name_cn":"正品级\nSERPENTI FOREVER系列中号手提包,采用祖小牛皮材质,搭配羊皮内里。巧妙融合经典设计与现代风格,淋漓尽致地展现了系列作品的无尽魅力。此款易于佩戴的手袋于标志性元素之中融入崭新细节,搭配皮革肩带,饰以标志性蛇首磁扣,其魅惑迷人的鳞片与设计从1960年代的SERPENTI系列珠宝中汲取灵感。设有一个隔层,一个正面口袋,一个背面外置拼接口袋,一个内部敞口口袋,一个配可个性化定制化妆镜的镜袋,背面饰BVLGARI宝格丽金属标识。\n款号:293665\n尺寸:20.5 X 15 X 9","specs":{"source":"wsxcme","sourceId":"_deFeFwf_NaQ3w--vZxDNsPNG-OrBUd6Zf9LHMew","sourceTagId":47002756,"sourceTagName":"宝格丽/女包","modelNumber":"293665","rawTitle":"正品级\nSERPENTI FOREVER系列中号手提包,采用祖小牛皮材质,搭配羊皮内里。巧妙融合经典设计与现代风格,淋漓尽致地展现了系列作品的无尽魅力。此款易于佩戴的手袋于标志性元素之中融入崭新细节,搭配皮革肩带,饰以标志性蛇首磁扣,其魅惑迷人的鳞片与设计从1960年代的SERPENTI系列珠宝中汲取灵感。设有一个隔层,一个正面口袋,一个背面外置拼接口袋,一个内部敞口口袋,一个配可个性化定制化妆镜的镜袋,背面饰BVLGARI宝格丽金属标识。\n款号:293665\n尺寸:20.5 X 15 X 9"},"price":null,"currency":"CNY","moq":1,"category":"bvlgari-women-bags","status":"active","alibaba_url":null,"images":["https://xcimg.szwego.com/20240817/i1723878766_2654_0.jpg","https://xcimg.szwego.com/20240817/i1723878766_2575_1.jpg","https://xcimg.szwego.com/20240817/i1723878766_6575_2.jpg","https://xcimg.szwego.com/20240817/i1723878766_9158_3.jpg","https://xcimg.szwego.com/20240817/i1723878766_6176_4.jpg","https://xcimg.szwego.com/20240817/i1723878766_31_5.jpg","https://xcimg.szwego.com/20240817/i1723878766_3538_6.jpg","https://xcimg.szwego.com/20240817/i1723878766_2455_7.jpg","https://xcimg.szwego.com/20240817/i1723878766_6862_8.jpg"],"created_at":"2024-09-27T06:51:04.181Z"},{"id":"item-dd7255db2539","sku":"_dDjDjRqnvo_F81tyQFnnDP3YanIn3yEcRIXrYaQ","name_en":"Bvlgari Women Bags","name_cn":"现货随拍上身图~","specs":{"source":"wsxcme","sourceId":"_dDjDjRqnvo_F81tyQFnnDP3YanIn3yEcRIXrYaQ","sourceTagId":47002756,"sourceTagName":"宝格丽/女包","rawTitle":"现货随拍上身图~"},"price":null,"currency":"CNY","moq":1,"category":"bvlgari-women-bags","status":"active","alibaba_url":null,"images":["https://xcimg.szwego.com/20230329/i1680069417_549_0.jpg","https://xcimg.szwego.com/20230329/i1680069417_7001_1.jpg","https://xcimg.szwego.com/20230329/i1680069417_1210_2.jpg","https://xcimg.szwego.com/20230329/i1680069417_4227_3.jpg"],"created_at":"2024-09-27T06:51:04.151Z"},{"id":"item-d7fdcb5cdeca","sku":"_dkukuqYx19iVFV3wuOG1XkXDF0JV-QZVDWmskaQ","name_en":"Bvlgari Women Bags","name_cn":"既优雅又随性,美丽又洒脱,完美结合","specs":{"source":"wsxcme","sourceId":"_dkukuqYx19iVFV3wuOG1XkXDF0JV-QZVDWmskaQ","sourceTagId":47002756,"sourceTagName":"宝格丽/女包","rawTitle":"既优雅又随性,美丽又洒脱,完美结合"},"price":null,"currency":"CNY","moq":1,"category":"bvlgari-women-bags","status":"active","alibaba_url":null,"images":["https://xcimg.szwego.com/20221220/i1671550118_1365_0.jpg","https://xcimg.szwego.com/20221220/i1671550118_7283_1.jpg","https://xcimg.szwego.com/20221220/i1671550118_4008_2.jpg","https://xcimg.szwego.com/20221220/i1671550118_9724_3.jpg"],"created_at":"2024-10-07T10:58:53.559Z"},{"id":"item-d6c7d696c424","sku":"_dO1O1rtn1QJPhCrJUdaOKfu3Tc5kdp3USmtDJdw","name_en":"Bvlgari Women Bags","name_cn":"颜值满满,难以抗拒的一款[爱心]\n\n19cm双层现货秒发","specs":{"source":"wsxcme","sourceId":"_dO1O1rtn1QJPhCrJUdaOKfu3Tc5kdp3USmtDJdw","sourceTagId":47002756,"sourceTagName":"宝格丽/女包","rawTitle":"颜值满满,难以抗拒的一款[爱心]\n\n19cm双层现货秒发"},"price":null,"currency":"CNY","moq":1,"category":"bvlgari-women-bags","status":"active","alibaba_url":null,"images":["https://xcimg.szwego.com/20230418/i1681811745_5394_0.jpg"],"created_at":"2024-10-07T10:58:53.561Z"},{"id":"item-d0588a49bf43","sku":"_duOuO2NORhhwvjqpozctPLvQ3EG_JRt0YVe2F3w","name_en":"Bvlgari Women Bags","name_cn":"正品级\nBVLGARISERPENTIFOREVER\n斜挎包\n型号:29032\n尺寸:25-17-8cm\n全新“Serpenti Forever”系列斜挎包彰显都市风格,时尚多变,为Serpenti世界增添别具一格的潮流时尚感。这款包袋采用蜜桃色小牛皮材质,搭配浅金镀金黄铜配饰。黑色和白玛瑙色珐琅和绿色孔雀石感性双眼,将经典蛇首搭扣点缀得魅惑迷人。可调节的蛇形链条和皮革肩带,轻松配搭时尚日装。中号,两个收纳层和一面小化妆镜。一个敞口口袋,一个拉链口袋和两个外部口袋。","specs":{"source":"wsxcme","sourceId":"_duOuO2NORhhwvjqpozctPLvQ3EG_JRt0YVe2F3w","sourceTagId":47002756,"sourceTagName":"宝格丽/女包","modelNumber":"29032","rawTitle":"正品级\nBVLGARISERPENTIFOREVER\n斜挎包\n型号:29032\n尺寸:25-17-8cm\n全新“Serpenti Forever”系列斜挎包彰显都市风格,时尚多变,为Serpenti世界增添别具一格的潮流时尚感。这款包袋采用蜜桃色小牛皮材质,搭配浅金镀金黄铜配饰。黑色和白玛瑙色珐琅和绿色孔雀石感性双眼,将经典蛇首搭扣点缀得魅惑迷人。可调节的蛇形链条和皮革肩带,轻松配搭时尚日装。中号,两个收纳层和一面小化妆镜。一个敞口口袋,一个拉链口袋和两个外部口袋。"},"price":null,"currency":"CNY","moq":1,"category":"bvlgari-women-bags","status":"active","alibaba_url":null,"images":["https://xcimg.szwego.com/20230418/i1681812300_8061_0.jpg","https://xcimg.szwego.com/20230418/i1681812300_3482_1.jpg","https://xcimg.szwego.com/20230418/i1681812300_7944_2.jpg","https://xcimg.szwego.com/20230418/i1681812300_757_3.jpg","https://xcimg.szwego.com/20230418/i1681812300_3095_4.jpg","https://xcimg.szwego.com/20230418/i1681812300_9736_5.jpg","https://xcimg.szwego.com/20230418/i1681812300_4030_6.jpg","https://xcimg.szwego.com/20230418/i1681812300_5551_7.jpg","https://xcimg.szwego.com/20230418/i1681812300_1956_8.jpg"],"created_at":"2024-09-27T06:51:04.134Z"},{"id":"item-d050c5e3a706","sku":"_duuuuQpj38L6z9v4rsRl2xs9DhWfXoh_igG1Mbw","name_en":"Bvlgari Women Bags","name_cn":"轻松驾驭多种风格","specs":{"source":"wsxcme","sourceId":"_duuuuQpj38L6z9v4rsRl2xs9DhWfXoh_igG1Mbw","sourceTagId":47002756,"sourceTagName":"宝格丽/女包","rawTitle":"轻松驾驭多种风格"},"price":null,"currency":"CNY","moq":1,"category":"bvlgari-women-bags","status":"active","alibaba_url":null,"images":["https://xcimg.szwego.com/20221220/i1671550783_6493_0.jpg"],"created_at":"2024-09-27T06:51:04.120Z"},{"id":"item-cdb5d727a8ac","sku":"_d8f8f_vhvEQBb5NfpOdalvy_cg4tyHjopYPixnQ","name_en":"Bvlgari Women Bags","name_cn":"现货上身拍~","specs":{"source":"wsxcme","sourceId":"_d8f8f_vhvEQBb5NfpOdalvy_cg4tyHjopYPixnQ","sourceTagId":47002756,"sourceTagName":"宝格丽/女包","rawTitle":"现货上身拍~"},"price":null,"currency":"CNY","moq":1,"category":"bvlgari-women-bags","status":"active","alibaba_url":null,"images":["https://xcimg.szwego.com/20230803/i1691051271_7149_0.jpg","https://xcimg.szwego.com/20230803/i1691051271_817_1.jpg","https://xcimg.szwego.com/20230803/i1691051271_5677_2.jpg","https://xcimg.szwego.com/20230803/i1691051271_8960_3.jpg"],"created_at":"2024-09-27T06:51:04.107Z"},{"id":"item-cc944b1d1407","sku":"_dSjSjhrd05qyTHYh-VLA4xd_rmbLhl2a0bz62Ow","name_en":"Bvlgari Women Bags","name_cn":"宝格丽/女包","specs":{"source":"wsxcme","sourceId":"_dSjSjhrd05qyTHYh-VLA4xd_rmbLhl2a0bz62Ow","sourceTagId":47002756,"sourceTagName":"宝格丽/女包","rawTitle":""},"price":null,"currency":"CNY","moq":1,"category":"bvlgari-women-bags","status":"active","alibaba_url":null,"images":["https://xcimg.szwego.com/20230219/i1676791336_2727_0.jpg"],"created_at":"2024-10-07T10:58:53.583Z"},{"id":"item-cafb6ed03dcc","sku":"_ddjdja4Pk27e-wZzPv1wC2WNtVIiAZOGJCNOQ8Q","name_en":"Bvlgari Women Bags","name_cn":"高级的配色,神秘的蛇头🐍\n上身很气质,小女人气质👧🏻","specs":{"source":"wsxcme","sourceId":"_ddjdja4Pk27e-wZzPv1wC2WNtVIiAZOGJCNOQ8Q","sourceTagId":47002756,"sourceTagName":"宝格丽/女包","rawTitle":"高级的配色,神秘的蛇头🐍\n上身很气质,小女人气质👧🏻"},"price":null,"currency":"CNY","moq":1,"category":"bvlgari-women-bags","status":"active","alibaba_url":null,"images":["https://xcimg.szwego.com/20230219/i1676792190_5183_0.jpg","https://xcimg.szwego.com/20230219/i1676792190_1620_1.jpg","https://xcimg.szwego.com/20230219/i1676792190_8281_2.jpg","https://xcimg.szwego.com/20230219/i1676792190_3210_3.jpg"],"created_at":"2024-10-07T10:58:53.587Z"},{"id":"item-c9fabb296575","sku":"_drTrTSrB3WIraCmd_FSWy3YHC6R05FCFlct_QFA","name_en":"Bvlgari Women Bags","name_cn":"每一个妖娆的美女都无法抗拒的一款。\n     \n\n25cm双层现货秒发","specs":{"source":"wsxcme","sourceId":"_drTrTSrB3WIraCmd_FSWy3YHC6R05FCFlct_QFA","sourceTagId":47002756,"sourceTagName":"宝格丽/女包","rawTitle":"每一个妖娆的美女都无法抗拒的一款。\n     \n\n25cm双层现货秒发"},"price":null,"currency":"CNY","moq":1,"category":"bvlgari-women-bags","status":"active","alibaba_url":null,"images":["https://xcimg.szwego.com/20230418/i1681812381_8552_0.jpg","https://xcimg.szwego.com/20230418/i1681812381_3867_1.jpg","https://xcimg.szwego.com/20230418/i1681812381_6422_2.jpg"],"created_at":"2024-09-27T06:51:04.103Z"},{"id":"item-c93f60bd564b","sku":"_dvkvkFhUiPAqFcZcMtpx_N7kiGY61ICBP3-2X-w","name_en":"Bvlgari Women Bags","name_cn":"合集❤️","specs":{"source":"wsxcme","sourceId":"_dvkvkFhUiPAqFcZcMtpx_N7kiGY61ICBP3-2X-w","sourceTagId":47002756,"sourceTagName":"宝格丽/女包","rawTitle":"合集❤️"},"price":null,"currency":"CNY","moq":1,"category":"bvlgari-women-bags","status":"active","alibaba_url":null,"images":["https://xcimg.szwego.com/20230418/i1681812978_7263_0.jpg","https://xcimg.szwego.com/20230418/i1681812978_835_1.jpg","https://xcimg.szwego.com/20230803/i1691051548_9162_0.jpg","https://xcimg.szwego.com/20230803/i1691051562_3934_0.jpg"],"created_at":"2024-09-27T06:51:04.137Z"},{"id":"item-c714a9f09ae6","sku":"_dMDMDeq3YfCDGND2luIkIe3zaKxEUHwlXG4yGOQ","name_en":"Bvlgari Women Bags","name_cn":"小白蛇","specs":{"source":"wsxcme","sourceId":"_dMDMDeq3YfCDGND2luIkIe3zaKxEUHwlXG4yGOQ","sourceTagId":47002756,"sourceTagName":"宝格丽/女包","rawTitle":"小白蛇"},"price":null,"currency":"CNY","moq":1,"category":"bvlgari-women-bags","status":"active","alibaba_url":null,"images":["https://xcimg.szwego.com/20240809/i1723191949_9233_0.jpg"],"created_at":"2024-09-27T06:51:04.161Z"},{"id":"item-c59472d4db7b","sku":"_dbzbzbemy7XphmKwmf77qn5Co_FCG4_kJ1kJsgQ","name_en":"Bvlgari Women Bags","name_cn":"宝格丽/女包","specs":{"source":"wsxcme","sourceId":"_dbzbzbemy7XphmKwmf77qn5Co_FCG4_kJ1kJsgQ","sourceTagId":47002756,"sourceTagName":"宝格丽/女包","rawTitle":""},"price":null,"currency":"CNY","moq":1,"category":"bvlgari-women-bags","status":"active","alibaba_url":null,"images":["https://xcimg.szwego.com/20230418/i1681811537_6824_0.jpg"],"created_at":"2024-09-27T06:51:04.128Z"},{"id":"item-c381103a8f51","sku":"_d0u0uUsrhc2OmADqMUHGAfegvNrm1g5VcGSH9Iw","name_en":"Bvlgari Women Bags","name_cn":"正品级\nBVLGARISERPENTIFOREVER\n型号:38102 祖母绿\n尺寸:22*13*5.5cm\n专柜热卖系列 Serpenti Forever 精致斜挎包 原单品质 进口胎牛皮 定制原单五金🔅点缀serpenti珐琅浅金镀金蛇首形搭扣  也可以当晚宴包用 精致如珠宝💎\"雨衣、镜子、礼盒包装","specs":{"source":"wsxcme","sourceId":"_d0u0uUsrhc2OmADqMUHGAfegvNrm1g5VcGSH9Iw","sourceTagId":47002756,"sourceTagName":"宝格丽/女包","modelNumber":"38102 祖母绿","dimensions":{"lengthCm":22,"heightCm":13,"widthCm":5.5},"rawTitle":"正品级\nBVLGARISERPENTIFOREVER\n型号:38102 祖母绿\n尺寸:22*13*5.5cm\n专柜热卖系列 Serpenti Forever 精致斜挎包 原单品质 进口胎牛皮 定制原单五金🔅点缀serpenti珐琅浅金镀金蛇首形搭扣  也可以当晚宴包用 精致如珠宝💎\"雨衣、镜子、礼盒包装"},"price":null,"currency":"CNY","moq":1,"category":"bvlgari-women-bags","status":"active","alibaba_url":null,"images":["https://xcimg.szwego.com/20230219/i1676791380_9194_0.jpg","https://xcimg.szwego.com/20230219/i1676791380_597_1.jpg","https://xcimg.szwego.com/20230219/i1676791380_9486_2.jpg","https://xcimg.szwego.com/20230219/i1676791380_9706_3.jpg","https://xcimg.szwego.com/20230219/i1676791380_3813_4.jpg","https://xcimg.szwego.com/20230219/i1676791380_8033_5.jpg","https://xcimg.szwego.com/20230219/i1676791380_9976_6.jpg","https://xcimg.szwego.com/20230219/i1676791380_4336_7.jpg","https://xcimg.szwego.com/20230219/i1676791380_2724_8.jpg"],"created_at":"2024-10-07T10:58:53.584Z"},{"id":"item-c2a9c6ea3cda","sku":"_dglglpIOm7cULvCF8aq0KxRrXtAa1kswqBS-08Q","name_en":"Bvlgari Women Bags","name_cn":"宝格丽/女包","specs":{"source":"wsxcme","sourceId":"_dglglpIOm7cULvCF8aq0KxRrXtAa1kswqBS-08Q","sourceTagId":47002756,"sourceTagName":"宝格丽/女包","rawTitle":""},"price":null,"currency":"CNY","moq":1,"category":"bvlgari-women-bags","status":"active","alibaba_url":null,"images":["https://xcimg.szwego.com/20220602/i1654155196_5872_0.jpg"],"created_at":"2024-09-27T06:51:04.114Z"},{"id":"item-b7c3b913e986","sku":"_dk3k3ZBu4OKPQ5w5XvoZGLJMLfVsi8HVrMdJHjg","name_en":"Bvlgari Women Bags","name_cn":"随拍上身图~","specs":{"source":"wsxcme","sourceId":"_dk3k3ZBu4OKPQ5w5XvoZGLJMLfVsi8HVrMdJHjg","sourceTagId":47002756,"sourceTagName":"宝格丽/女包","rawTitle":"随拍上身图~"},"price":null,"currency":"CNY","moq":1,"category":"bvlgari-women-bags","status":"active","alibaba_url":null,"images":["https://xcimg.szwego.com/20230329/i1680068700_2603_0.jpg","https://xcimg.szwego.com/20230329/i1680068700_8185_1.jpg","https://xcimg.szwego.com/20230329/i1680068700_8172_2.jpg","https://xcimg.szwego.com/20230329/i1680068700_3729_3.jpg"],"created_at":"2024-09-27T06:51:04.147Z"},{"id":"item-b67306d02a10","sku":"_dk2k2wgfTqd1XRvHIbCEjoZ0xrb2jl6toGkbTtw","name_en":"Bvlgari Women Bags","name_cn":"正品级\nBVLGARISERPENTIFOREVER\n型号:35107 拉丝银\n尺寸:20*15*5cm\n专柜热卖系列 原单品质 Serpenti Forever “单层”翻盖小方包包 浅金镀金黄铜配饰及珐琅蛇头包扣 ,小羊皮内里  全铜蛇身链条 两个扣板化妆镜口袋 \"雨衣、镜子、专柜礼盒包装、","specs":{"source":"wsxcme","sourceId":"_dk2k2wgfTqd1XRvHIbCEjoZ0xrb2jl6toGkbTtw","sourceTagId":47002756,"sourceTagName":"宝格丽/女包","modelNumber":"35107 拉丝银","dimensions":{"lengthCm":20,"heightCm":15,"widthCm":5},"rawTitle":"正品级\nBVLGARISERPENTIFOREVER\n型号:35107 拉丝银\n尺寸:20*15*5cm\n专柜热卖系列 原单品质 Serpenti Forever “单层”翻盖小方包包 浅金镀金黄铜配饰及珐琅蛇头包扣 ,小羊皮内里  全铜蛇身链条 两个扣板化妆镜口袋 \"雨衣、镜子、专柜礼盒包装、"},"price":null,"currency":"CNY","moq":1,"category":"bvlgari-women-bags","status":"active","alibaba_url":null,"images":["https://xcimg.szwego.com/20230718/i1689688634_3232_0.jpg","https://xcimg.szwego.com/20230718/i1689688634_7623_1.jpg","https://xcimg.szwego.com/20230718/i1689688634_4389_2.jpg","https://xcimg.szwego.com/20230718/i1689688634_457_3.jpg","https://xcimg.szwego.com/20230718/i1689688634_7738_4.jpg","https://xcimg.szwego.com/20230718/i1689688634_7503_5.jpg","https://xcimg.szwego.com/20230718/i1689688634_3785_6.jpg","https://xcimg.szwego.com/20230718/i1689688634_6317_7.jpg","https://xcimg.szwego.com/20230718/i1689688634_137_8.jpg"],"created_at":"2024-09-27T06:51:04.096Z"},{"id":"item-b1f24f5ebcf7","sku":"_dsvsvGvNWUDyxfL9IHNdcfE_A5bNAVaMWLnJ8mA","name_en":"Bvlgari Women Bags","name_cn":"温婉灵俏,尽展华美珣丽的夺目风采","specs":{"source":"wsxcme","sourceId":"_dsvsvGvNWUDyxfL9IHNdcfE_A5bNAVaMWLnJ8mA","sourceTagId":47002756,"sourceTagName":"宝格丽/女包","rawTitle":"温婉灵俏,尽展华美珣丽的夺目风采"},"price":null,"currency":"CNY","moq":1,"category":"bvlgari-women-bags","status":"active","alibaba_url":null,"images":["https://xcimg.szwego.com/20230329/i1680069525_9481_0.jpg","https://xcimg.szwego.com/20230329/i1680069525_7031_1.jpg","https://xcimg.szwego.com/20230329/i1680069525_3652_2.jpg"],"created_at":"2024-09-27T06:51:04.149Z"},{"id":"item-ad8e8a883959","sku":"_deXeXe8Ew91SVGRRXFkbuZo2GCXMQkDywvV0B9g","name_en":"Bvlgari Women Bags","name_cn":"正品级\n【Bvlgari 】宝格丽专柜热卖款 Serpenti Forever 手腕款风琴包 原单品质、进口南非皮➕定制原单五金🎉🎉点缀serpenti黑色和白色珐琅浅金镀金蛇首形搭扣,双眼镶嵌孔雀绿松石搭配可拆卸肩带🎀内里三格夹层简约实用满足你不同需求 \"雨衣、镜子、专柜礼盒包装、雷射防伪标与施印独立编码\"款号:38329 尺寸:18*16*9cm","specs":{"source":"wsxcme","sourceId":"_deXeXe8Ew91SVGRRXFkbuZo2GCXMQkDywvV0B9g","sourceTagId":47002756,"sourceTagName":"宝格丽/女包","modelNumber":"38329 尺寸:18*16*9cm","dimensions":{"lengthCm":18,"heightCm":16,"widthCm":9},"rawTitle":"正品级\n【Bvlgari 】宝格丽专柜热卖款 Serpenti Forever 手腕款风琴包 原单品质、进口南非皮➕定制原单五金🎉🎉点缀serpenti黑色和白色珐琅浅金镀金蛇首形搭扣,双眼镶嵌孔雀绿松石搭配可拆卸肩带🎀内里三格夹层简约实用满足你不同需求 \"雨衣、镜子、专柜礼盒包装、雷射防伪标与施印独立编码\"款号:38329 尺寸:18*16*9cm"},"price":null,"currency":"CNY","moq":1,"category":"bvlgari-women-bags","status":"active","alibaba_url":null,"images":["https://xcimg.szwego.com/20230805/i1691213750_4814_0.jpg","https://xcimg.szwego.com/20230805/i1691213750_7552_1.jpg","https://xcimg.szwego.com/20230805/i1691213750_6566_2.jpg","https://xcimg.szwego.com/20230805/i1691213750_8872_3.jpg","https://xcimg.szwego.com/20230805/i1691213750_724_4.jpg","https://xcimg.szwego.com/20230805/i1691213750_1005_5.jpg"],"created_at":"2024-10-07T10:58:53.601Z"},{"id":"item-ad70009be181","sku":"_dn-n-F3ivL4TaFc1V28lIvh4ZzUtSW9FLC6IxrQ","name_en":"Bvlgari Women Bags","name_cn":"正品级\n【Bvlgari 】宝格丽专柜热卖款 Serpenti Forever 手腕款风琴包 原单品质、进口南非皮➕定制原单五金🎉🎉点缀serpenti黑色和白色珐琅浅金镀金蛇首形搭扣,双眼镶嵌孔雀绿松石搭配可拆卸肩带🎀内里三格夹层简约实用满足你不同需求 \"雨衣、镜子、专柜礼盒包装、雷射防伪标与施印独立编码\"款号:38329 尺寸:18*16*9cm","specs":{"source":"wsxcme","sourceId":"_dn-n-F3ivL4TaFc1V28lIvh4ZzUtSW9FLC6IxrQ","sourceTagId":47002756,"sourceTagName":"宝格丽/女包","modelNumber":"38329 尺寸:18*16*9cm","dimensions":{"lengthCm":18,"heightCm":16,"widthCm":9},"rawTitle":"正品级\n【Bvlgari 】宝格丽专柜热卖款 Serpenti Forever 手腕款风琴包 原单品质、进口南非皮➕定制原单五金🎉🎉点缀serpenti黑色和白色珐琅浅金镀金蛇首形搭扣,双眼镶嵌孔雀绿松石搭配可拆卸肩带🎀内里三格夹层简约实用满足你不同需求 \"雨衣、镜子、专柜礼盒包装、雷射防伪标与施印独立编码\"款号:38329 尺寸:18*16*9cm"},"price":null,"currency":"CNY","moq":1,"category":"bvlgari-women-bags","status":"active","alibaba_url":null,"images":["https://xcimg.szwego.com/20221103/i1667461451_9957_0.jpg","https://xcimg.szwego.com/20221103/i1667461451_8320_1.jpg","https://xcimg.szwego.com/20221103/i1667461451_8151_2.jpg","https://xcimg.szwego.com/20221103/i1667461451_8229_3.jpg","https://xcimg.szwego.com/20221103/i1667461451_7202_4.jpg","https://xcimg.szwego.com/20221103/i1667461451_9239_5.jpg","https://xcimg.szwego.com/20221103/i1667461451_8400_6.jpg","https://xcimg.szwego.com/20221103/i1667461451_9077_7.jpg","https://xcimg.szwego.com/20221103/i1667461451_9075_8.jpg"],"created_at":"2024-10-07T10:58:53.597Z"},{"id":"item-abae0395d4d5","sku":"_dslsl55qauZ4Wvw_W4vNk60uc2GjbznW8q9j0-w","name_en":"Bvlgari Women Bags","name_cn":"正品级\n  “SERPENTI CABOCHON”系列迷你斜挎包采用别具魅力的大号图形图案和大胆的金属质感细节,以精致实用的独特设计和现代风格绽放SERPENTI世界璀璨光芒。\n此款手袋配备可调节和可拆卸的皮革肩带,可用作手提包或手拿包,实现多变百搭功能,日夜皆宜。\n小号,设一个收纳层,一个内部拉链口袋和一个内部敞口口袋。镌刻BVLGARI宝格丽品牌标识的内侧金属铭牌。\n型号:291088\n尺寸:22.5×15×10厘米","specs":{"source":"wsxcme","sourceId":"_dslsl55qauZ4Wvw_W4vNk60uc2GjbznW8q9j0-w","sourceTagId":47002756,"sourceTagName":"宝格丽/女包","modelNumber":"291088","dimensions":{"lengthCm":22.5,"heightCm":15,"widthCm":10},"rawTitle":"正品级\n  “SERPENTI CABOCHON”系列迷你斜挎包采用别具魅力的大号图形图案和大胆的金属质感细节,以精致实用的独特设计和现代风格绽放SERPENTI世界璀璨光芒。\n此款手袋配备可调节和可拆卸的皮革肩带,可用作手提包或手拿包,实现多变百搭功能,日夜皆宜。\n小号,设一个收纳层,一个内部拉链口袋和一个内部敞口口袋。镌刻BVLGARI宝格丽品牌标识的内侧金属铭牌。\n型号:291088\n尺寸:22.5×15×10厘米"},"price":null,"currency":"CNY","moq":1,"category":"bvlgari-women-bags","status":"active","alibaba_url":null,"images":["https://xcimg.szwego.com/20230329/i1680067682_2405_0.jpg","https://xcimg.szwego.com/20230329/i1680067682_1353_1.jpg","https://xcimg.szwego.com/20230329/i1680067682_2009_2.jpg","https://xcimg.szwego.com/20230329/i1680067682_2791_3.jpg","https://xcimg.szwego.com/20230329/i1680067682_5219_4.jpg","https://xcimg.szwego.com/20230329/i1680067682_5679_5.jpg","https://xcimg.szwego.com/20230329/i1680067682_1727_6.jpg","https://xcimg.szwego.com/20230329/i1680067682_8464_7.jpg","https://xcimg.szwego.com/20230329/i1680067682_9694_8.jpg"],"created_at":"2024-09-27T06:51:04.092Z"},{"id":"item-aba8a54840e9","sku":"_dsisidC26fNpikDANhoBtxrIRDG73tRcYZ9UUqw","name_en":"Bvlgari Women Bags","name_cn":"更多细节~","specs":{"source":"wsxcme","sourceId":"_dsisidC26fNpikDANhoBtxrIRDG73tRcYZ9UUqw","sourceTagId":47002756,"sourceTagName":"宝格丽/女包","rawTitle":"更多细节~"},"price":null,"currency":"CNY","moq":1,"category":"bvlgari-women-bags","status":"active","alibaba_url":null,"images":["https://xcimg.szwego.com/20230803/i1691051238_8371_0.jpg","https://xcimg.szwego.com/20230803/i1691051238_128_1.jpg","https://xcimg.szwego.com/20230803/i1691051238_2939_2.jpg","https://xcimg.szwego.com/20230803/i1691051238_7296_3.jpg","https://xcimg.szwego.com/20230803/i1691051238_95_4.jpg","https://xcimg.szwego.com/20230803/i1691051238_5921_5.jpg"],"created_at":"2024-09-27T06:51:04.106Z"}],"page":236,"pageSize":24,"total":10075,"totalPages":420}
