{"items":[{"id":"item-3b51cef6403f","sku":"_dzTzTeUYf13A34IDzI-6PavkakIMbHjb6Qx-l2Q","name_en":"Dior Women Bags","name_cn":"顶级原单 配全套包装\nLady最新限量版蝴蝶钉戴妃包🦋,人手一个必备的三格小包😍。迷人优雅又气场十足💃🏻,斜挎手拎也是女人味十足,经典时尚风格。ins和众多时尚icon都人手一个的美包,别错过哦❤️\nsize:20cm","specs":{"source":"wsxcme","sourceId":"_dzTzTeUYf13A34IDzI-6PavkakIMbHjb6Qx-l2Q","sourceTagId":47002747,"sourceTagName":"迪奥/女包","rawTitle":"顶级原单 配全套包装\nLady最新限量版蝴蝶钉戴妃包🦋,人手一个必备的三格小包😍。迷人优雅又气场十足💃🏻,斜挎手拎也是女人味十足,经典时尚风格。ins和众多时尚icon都人手一个的美包,别错过哦❤️\nsize:20cm"},"price":null,"currency":"CNY","moq":1,"category":"dior-women-bags","status":"active","alibaba_url":null,"images":["https://xcimg.szwego.com/img/2b46f204/20231112/i1699776935_6519_0.jpg","https://xcimg.szwego.com/img/2b46f204/20231112/i1699776935_2914_1.jpg","https://xcimg.szwego.com/img/2b46f204/20231112/i1699776935_3516_2.jpg","https://xcimg.szwego.com/img/2b46f204/20231112/i1699776935_2083_3.jpg","https://xcimg.szwego.com/img/2b46f204/20231112/i1699776935_4575_4.jpg","https://xcimg.szwego.com/img/2b46f204/20231112/i1699776935_508_5.jpg","https://xcimg.szwego.com/img/2b46f204/20231112/i1699776935_2535_6.jpg","https://xcimg.szwego.com/img/2b46f204/20231112/i1699776935_8029_7.jpg","https://xcimg.szwego.com/img/2b46f204/20231112/i1699776935_3870_8.jpg"],"created_at":"2024-11-11T09:13:17.026Z"},{"id":"item-c7cb60fbed65","sku":"_dTDTDCxVJVQzhJBE9HB3iJXSD0ETWBOgm_8_m-Q","name_en":"Dior Women Bags","name_cn":"顶级原厂 配全套包装\n【横版戴妃包】杏色磨砂皮迷你💯\n全新Lady D−Joy包包,很多人应该都被这只窄版戴妃包吸引住了。大爆款的节奏🔥,包包自带一长一短两根肩带,多种背法🙋🏻‍♀️,可斜挎可腋下,上身又美又飒,经典的菱格设计🥅,搭配柔软的绵羊皮优雅又时尚🌿\n型号:9230\nsize:16*5.5*10cm","specs":{"source":"wsxcme","sourceId":"_dTDTDCxVJVQzhJBE9HB3iJXSD0ETWBOgm_8_m-Q","sourceTagId":47002747,"sourceTagName":"迪奥/女包","modelNumber":"9230","rawTitle":"顶级原厂 配全套包装\n【横版戴妃包】杏色磨砂皮迷你💯\n全新Lady D−Joy包包,很多人应该都被这只窄版戴妃包吸引住了。大爆款的节奏🔥,包包自带一长一短两根肩带,多种背法🙋🏻‍♀️,可斜挎可腋下,上身又美又飒,经典的菱格设计🥅,搭配柔软的绵羊皮优雅又时尚🌿\n型号:9230\nsize:16*5.5*10cm"},"price":null,"currency":"CNY","moq":1,"category":"dior-women-bags","status":"active","alibaba_url":null,"images":["https://xcimg.szwego.com/img/ec683d96/20231224/i1703380975_1395_0.jpg","https://xcimg.szwego.com/img/ec683d96/20231224/i1703380976_2994_0.jpg","https://xcimg.szwego.com/img/ec683d96/20231224/i1703380976_6722_0.jpg","https://xcimg.szwego.com/img/ec683d96/20231224/i1703380975_1340_0.jpg","https://xcimg.szwego.com/img/ec683d96/20231224/i1703380975_7320_0.jpg","https://xcimg.szwego.com/img/ec683d96/20231224/i1703380976_2685_0.jpg","https://xcimg.szwego.com/img/ec683d96/20231224/i1703380977_2845_0.jpg","https://xcimg.szwego.com/img/ec683d96/20231224/i1703380976_6132_0.jpg","https://xcimg.szwego.com/img/ec683d96/20231224/i1703380976_2507_0.jpg"],"created_at":"2024-11-11T09:13:17.025Z"},{"id":"item-d41350a40a7d","sku":"_dkMkMEqmUldXc50uxBQJYzU-6FitPv8s0jipuHA","name_en":"Dior Women Bags","name_cn":"顶级原厂 配全套包装\n【横版戴妃包】奶白色皮迷你💯\n全新Lady D−Joy包包,很多人应该都被这只窄版戴妃包吸引住了。大爆款的节奏🔥,包包自带一长一短两根肩带,多种背法🙋🏻‍♀️,可斜挎可腋下,上身又美又飒,经典的菱格设计🥅,搭配柔软的绵羊皮优雅又时尚🌿\n型号:9230\nsize:16*5.5*10cm","specs":{"source":"wsxcme","sourceId":"_dkMkMEqmUldXc50uxBQJYzU-6FitPv8s0jipuHA","sourceTagId":47002747,"sourceTagName":"迪奥/女包","modelNumber":"9230","rawTitle":"顶级原厂 配全套包装\n【横版戴妃包】奶白色皮迷你💯\n全新Lady D−Joy包包,很多人应该都被这只窄版戴妃包吸引住了。大爆款的节奏🔥,包包自带一长一短两根肩带,多种背法🙋🏻‍♀️,可斜挎可腋下,上身又美又飒,经典的菱格设计🥅,搭配柔软的绵羊皮优雅又时尚🌿\n型号:9230\nsize:16*5.5*10cm"},"price":null,"currency":"CNY","moq":1,"category":"dior-women-bags","status":"active","alibaba_url":null,"images":["https://xcimg.szwego.com/img/ec683d96/20231214/i1702514758_797_4.jpg","https://xcimg.szwego.com/img/ec683d96/20231214/i1702514758_2414_8.jpg","https://xcimg.szwego.com/img/ec683d96/20231214/i1702514757_1374_1.jpg","https://xcimg.szwego.com/img/ec683d96/20231214/i1702514758_2134_6.jpg","https://xcimg.szwego.com/img/ec683d96/20231214/i1702514757_6785_0.jpg","https://xcimg.szwego.com/img/ec683d96/20231214/i1702514758_9294_5.jpg","https://xcimg.szwego.com/img/ec683d96/20231214/i1702514758_8986_7.jpg","https://xcimg.szwego.com/img/ec683d96/20231214/i1702514757_7680_2.jpg","https://xcimg.szwego.com/img/ec683d96/20231214/i1702514757_8318_3.jpg"],"created_at":"2024-11-11T09:13:17.024Z"},{"id":"item-b74adee8c50c","sku":"_d1c1cUGRw1ZkZd17HbzaceCPfG8wE6fq_MclR0w","name_en":"Dior Women Bags","name_cn":"顶级原厂 配全套包装\n【横版戴妃包】黑色羊皮迷你💯\n全新Lady D−Joy包包,很多人应该都被这只窄版戴妃包吸引住了。大爆款的节奏🔥,包包自带一长一短两根肩带,多种背法🙋🏻‍♀️,可斜挎可腋下,上身又美又飒,经典的菱格设计🥅,搭配柔软的绵羊皮优雅又时尚🌿\n型号:9230\nsize:16*5.5*10cm","specs":{"source":"wsxcme","sourceId":"_d1c1cUGRw1ZkZd17HbzaceCPfG8wE6fq_MclR0w","sourceTagId":47002747,"sourceTagName":"迪奥/女包","modelNumber":"9230","rawTitle":"顶级原厂 配全套包装\n【横版戴妃包】黑色羊皮迷你💯\n全新Lady D−Joy包包,很多人应该都被这只窄版戴妃包吸引住了。大爆款的节奏🔥,包包自带一长一短两根肩带,多种背法🙋🏻‍♀️,可斜挎可腋下,上身又美又飒,经典的菱格设计🥅,搭配柔软的绵羊皮优雅又时尚🌿\n型号:9230\nsize:16*5.5*10cm"},"price":null,"currency":"CNY","moq":1,"category":"dior-women-bags","status":"active","alibaba_url":null,"images":["https://xcimg.szwego.com/img/ec683d96/20231224/i1703381773_5155_0.jpg","https://xcimg.szwego.com/img/ec683d96/20231224/i1703381772_8625_0.jpg","https://xcimg.szwego.com/img/ec683d96/20231224/i1703381772_8082_0.jpg","https://xcimg.szwego.com/img/ec683d96/20231224/i1703381773_9198_0.jpg","https://xcimg.szwego.com/img/ec683d96/20231224/i1703381772_9467_0.jpg","https://xcimg.szwego.com/img/ec683d96/20231224/i1703381773_7613_0.jpg","https://xcimg.szwego.com/img/ec683d96/20231224/i1703381772_6233_0.jpg","https://xcimg.szwego.com/img/ec683d96/20231224/i1703381773_6590_0.jpg","https://xcimg.szwego.com/img/ec683d96/20231224/i1703381773_6616_0.jpg"],"created_at":"2024-11-11T09:13:17.023Z"},{"id":"item-4a6ce5193674","sku":"_dDVDVNPU-MnQ-2x2QJ0se0HtQ8xDbjG18SlSnLA","name_en":"Dior Women Bags","name_cn":"顶级原厂 配全套包装\n【横版戴妃包】黑色磨砂皮迷你💯\n全新Lady D−Joy包包,很多人应该都被这只窄版戴妃包吸引住了。大爆款的节奏🔥,包包自带一长一短两根肩带,多种背法🙋🏻‍♀️,可斜挎可腋下,上身又美又飒,经典的菱格设计🥅,搭配柔软的绵羊皮优雅又时尚🌿\nsize:16*5.5*10cm\n9230","specs":{"source":"wsxcme","sourceId":"_dDVDVNPU-MnQ-2x2QJ0se0HtQ8xDbjG18SlSnLA","sourceTagId":47002747,"sourceTagName":"迪奥/女包","rawTitle":"顶级原厂 配全套包装\n【横版戴妃包】黑色磨砂皮迷你💯\n全新Lady D−Joy包包,很多人应该都被这只窄版戴妃包吸引住了。大爆款的节奏🔥,包包自带一长一短两根肩带,多种背法🙋🏻‍♀️,可斜挎可腋下,上身又美又飒,经典的菱格设计🥅,搭配柔软的绵羊皮优雅又时尚🌿\nsize:16*5.5*10cm\n9230"},"price":null,"currency":"CNY","moq":1,"category":"dior-women-bags","status":"active","alibaba_url":null,"images":["https://xcimg.szwego.com/img/ec683d96/20231214/i1702514089_8776_3.jpg","https://xcimg.szwego.com/img/ec683d96/20231214/i1702514090_1153_7.jpg","https://xcimg.szwego.com/img/ec683d96/20231214/i1702514090_8336_6.jpg","https://xcimg.szwego.com/img/ec683d96/20231214/i1702514100_1256_0.jpg","https://xcimg.szwego.com/img/ec683d96/20231214/i1702514090_8896_5.jpg","https://xcimg.szwego.com/img/ec683d96/20231214/i1702514089_9627_1.jpg","https://xcimg.szwego.com/img/ec683d96/20231214/i1702514100_5601_0.jpg","https://xcimg.szwego.com/img/ec683d96/20231214/i1702514089_2813_2.jpg"],"created_at":"2024-11-11T09:13:17.022Z"},{"id":"item-e1cfcd936771","sku":"_dhBhBQ03950zWJ-Eek6U02nA61ioOIifDv4niug","name_en":"Dior Women Bags","name_cn":"顶级原厂 配全套包装\n迷你现货!!️\nD-Joy bag牛皮钻石纹雾面2023款,全新的钻石菱格,高品质牛皮压纹,搭配哑光五金,时尚果然就是轮回,回归了一把中古戴妃,复古时髦感超强,真是什么场合都可以把住🥳\nSize;16*5.5*10cm","specs":{"source":"wsxcme","sourceId":"_dhBhBQ03950zWJ-Eek6U02nA61ioOIifDv4niug","sourceTagId":47002747,"sourceTagName":"迪奥/女包","rawTitle":"顶级原厂 配全套包装\n迷你现货!!️\nD-Joy bag牛皮钻石纹雾面2023款,全新的钻石菱格,高品质牛皮压纹,搭配哑光五金,时尚果然就是轮回,回归了一把中古戴妃,复古时髦感超强,真是什么场合都可以把住🥳\nSize;16*5.5*10cm"},"price":null,"currency":"CNY","moq":1,"category":"dior-women-bags","status":"active","alibaba_url":null,"images":["https://xcimg.szwego.com/20230101/i1672564061_2990_0.jpg","https://xcimg.szwego.com/20230101/i1672564061_1346_1.jpg","https://xcimg.szwego.com/20230101/i1672564061_8518_2.jpg","https://xcimg.szwego.com/20230101/i1672564061_4783_3.jpg","https://xcimg.szwego.com/20230101/i1672564061_3379_4.jpg","https://xcimg.szwego.com/20230101/i1672564061_9354_5.jpg","https://xcimg.szwego.com/20230101/i1672564061_7211_6.jpg","https://xcimg.szwego.com/20230101/i1672564061_4805_7.jpg","https://xcimg.szwego.com/20230101/i1672564061_5179_8.jpg"],"created_at":"2024-11-11T09:13:17.021Z"},{"id":"item-023b578936a2","sku":"_diIiIrZV3L8iDQldvxTEA_9Km-F4D09QynDUWKg","name_en":"Lady 戴妃 三格白磨砂皮","name_cn":"Lady 戴妃 三格白磨砂皮","specs":{"source":"wsxcme","sourceId":"_diIiIrZV3L8iDQldvxTEA_9Km-F4D09QynDUWKg","sourceTagId":47002747,"sourceTagName":"迪奥/女包","rawTitle":"Lady 戴妃 三格白磨砂皮"},"price":null,"currency":"CNY","moq":1,"category":"dior-women-bags","status":"active","alibaba_url":null,"images":["https://xcimg.szwego.com/20201229/i1609174233_8792_0.jpg"],"created_at":"2024-11-11T09:13:17.020Z"},{"id":"item-21614962d2a2","sku":"_doFoFoEzyukY6jWk4A1XVcY0Ou14neuzdSwcyqw","name_en":"Lady 戴妃 三格灰磨砂皮","name_cn":"Lady 戴妃 三格灰磨砂皮","specs":{"source":"wsxcme","sourceId":"_doFoFoEzyukY6jWk4A1XVcY0Ou14neuzdSwcyqw","sourceTagId":47002747,"sourceTagName":"迪奥/女包","rawTitle":"Lady 戴妃 三格灰磨砂皮"},"price":null,"currency":"CNY","moq":1,"category":"dior-women-bags","status":"active","alibaba_url":null,"images":["https://xcimg.szwego.com/20201229/i1609174160_774_0.jpg"],"created_at":"2024-11-11T09:13:17.019Z"},{"id":"item-89d238559747","sku":"_d48487qUeByZsYWo5LGI7iNMpcTUipNp_8umplw","name_en":"Lady 戴妃四格灰磨砂皮","name_cn":"Lady 戴妃四格灰磨砂皮","specs":{"source":"wsxcme","sourceId":"_d48487qUeByZsYWo5LGI7iNMpcTUipNp_8umplw","sourceTagId":47002747,"sourceTagName":"迪奥/女包","rawTitle":"Lady 戴妃四格灰磨砂皮"},"price":null,"currency":"CNY","moq":1,"category":"dior-women-bags","status":"active","alibaba_url":null,"images":["https://xcimg.szwego.com/20201207/i1607354347_8363_0.jpg"],"created_at":"2024-11-11T09:13:17.018Z"},{"id":"item-7afecb0d7722","sku":"_dOkOk6C4Gf3wolqh80n5z0p356FYySVFnxqSLjg","name_en":"Lady 戴妃五格磨砂皮","name_cn":"Lady 戴妃五格磨砂皮","specs":{"source":"wsxcme","sourceId":"_dOkOk6C4Gf3wolqh80n5z0p356FYySVFnxqSLjg","sourceTagId":47002747,"sourceTagName":"迪奥/女包","rawTitle":"Lady 戴妃五格磨砂皮"},"price":null,"currency":"CNY","moq":1,"category":"dior-women-bags","status":"active","alibaba_url":null,"images":["https://xcimg.szwego.com/20210106/i1609874084_2803_0.jpg"],"created_at":"2024-11-11T09:13:17.017Z"},{"id":"item-22424b133317","sku":"_dfrfrcDqU30NGUEGy18PylsoemEbC5v5Dr21Zng","name_en":"Lady 戴妃 三格磨砂皮","name_cn":"Lady 戴妃 三格磨砂皮","specs":{"source":"wsxcme","sourceId":"_dfrfrcDqU30NGUEGy18PylsoemEbC5v5Dr21Zng","sourceTagId":47002747,"sourceTagName":"迪奥/女包","rawTitle":"Lady 戴妃 三格磨砂皮"},"price":null,"currency":"CNY","moq":1,"category":"dior-women-bags","status":"active","alibaba_url":null,"images":["https://xcimg.szwego.com/20201229/i1609174261_6418_0.jpg"],"created_at":"2024-11-11T09:13:17.016Z"},{"id":"item-156568d5c571","sku":"_dptptVukhU2b2Od2Rbf422SWeHpgPoOn1gjyDVg","name_en":"Lady 戴妃四格磨砂皮","name_cn":"Lady 戴妃四格磨砂皮","specs":{"source":"wsxcme","sourceId":"_dptptVukhU2b2Od2Rbf422SWeHpgPoOn1gjyDVg","sourceTagId":47002747,"sourceTagName":"迪奥/女包","rawTitle":"Lady 戴妃四格磨砂皮"},"price":null,"currency":"CNY","moq":1,"category":"dior-women-bags","status":"active","alibaba_url":null,"images":["https://xcimg.szwego.com/20201207/i1607354443_6859_0.jpg"],"created_at":"2024-11-11T09:13:17.015Z"},{"id":"item-572d920ef459","sku":"_dn9n9_X3jKnsnVHoiUL661oFMcqtb848dvsc_XA","name_en":"Lady 戴妃三格黑磨砂皮","name_cn":"Lady 戴妃三格黑磨砂皮","specs":{"source":"wsxcme","sourceId":"_dn9n9_X3jKnsnVHoiUL661oFMcqtb848dvsc_XA","sourceTagId":47002747,"sourceTagName":"迪奥/女包","rawTitle":"Lady 戴妃三格黑磨砂皮"},"price":null,"currency":"CNY","moq":1,"category":"dior-women-bags","status":"active","alibaba_url":null,"images":["https://xcimg.szwego.com/20210106/i1609873938_5786_0.jpg"],"created_at":"2024-11-11T09:13:17.014Z"},{"id":"item-5a5f2eeaf4a9","sku":"_dKQKQ6AX1Gf476qglv9tOtJtqgGhti3RtbdRr9w","name_en":"Lady 戴妃四格黑磨砂皮","name_cn":"Lady 戴妃四格黑磨砂皮","specs":{"source":"wsxcme","sourceId":"_dKQKQ6AX1Gf476qglv9tOtJtqgGhti3RtbdRr9w","sourceTagId":47002747,"sourceTagName":"迪奥/女包","rawTitle":"Lady 戴妃四格黑磨砂皮"},"price":null,"currency":"CNY","moq":1,"category":"dior-women-bags","status":"active","alibaba_url":null,"images":["https://xcimg.szwego.com/20201207/i1607354803_2637_0.jpg"],"created_at":"2024-11-11T09:13:17.013Z"},{"id":"item-f0041936d03a","sku":"_dv7v7h645n9BsetkMUs8StaoeqmxIkJdy1YGDSg","name_en":"Dior Women Bags","name_cn":"顶级原单 配全套包装\n现货!!️\nLady 限量金色珠子刺绣款,最优雅高贵的戴妃包💋,皮面上的每一根线🧵每一颗珠子都是手工制作的,非常精致的手工刺绣,将充满异域风情的图腾在包上完美的呈现🤗,打造出一个独特风格的Lady,是春夏搭配裙子的绝佳美包哦❤️\nsize:17cm","specs":{"source":"wsxcme","sourceId":"_dv7v7h645n9BsetkMUs8StaoeqmxIkJdy1YGDSg","sourceTagId":47002747,"sourceTagName":"迪奥/女包","rawTitle":"顶级原单 配全套包装\n现货!!️\nLady 限量金色珠子刺绣款,最优雅高贵的戴妃包💋,皮面上的每一根线🧵每一颗珠子都是手工制作的,非常精致的手工刺绣,将充满异域风情的图腾在包上完美的呈现🤗,打造出一个独特风格的Lady,是春夏搭配裙子的绝佳美包哦❤️\nsize:17cm"},"price":null,"currency":"CNY","moq":1,"category":"dior-women-bags","status":"active","alibaba_url":null,"images":["https://xcimg.szwego.com/20211222/i1640105344_4020_0.jpg","https://xcimg.szwego.com/20211222/i1640105344_395_1.jpg","https://xcimg.szwego.com/20211222/i1640105344_2388_2.jpg","https://xcimg.szwego.com/20211222/i1640105344_4248_3.jpg","https://xcimg.szwego.com/20211222/i1640105344_7614_4.jpg","https://xcimg.szwego.com/20211222/i1640105344_3558_5.jpg","https://xcimg.szwego.com/20211222/i1640105344_2987_6.jpg","https://xcimg.szwego.com/20211222/i1640105344_8511_7.jpg","https://xcimg.szwego.com/20211222/i1640105344_1799_8.jpg"],"created_at":"2024-11-11T09:13:17.012Z"},{"id":"item-5042a346314b","sku":"_de-e-aSmiPwi7HGuWp4A4Ptjob9VMFIzgxAeR4Q","name_en":"Dior Women Bags","name_cn":"顶级原单 配全套包装\nLady最新限量版重工珠子戴妃包,人手一个必备的三格小包😍。迷人优雅又气场十足💃🏻,斜挎手拎也是女人味十足,经典时尚风格。ins和众多时尚icon都人手一个的美包,别错过哦❤️\nsize:22cm","specs":{"source":"wsxcme","sourceId":"_de-e-aSmiPwi7HGuWp4A4Ptjob9VMFIzgxAeR4Q","sourceTagId":47002747,"sourceTagName":"迪奥/女包","rawTitle":"顶级原单 配全套包装\nLady最新限量版重工珠子戴妃包,人手一个必备的三格小包😍。迷人优雅又气场十足💃🏻,斜挎手拎也是女人味十足,经典时尚风格。ins和众多时尚icon都人手一个的美包,别错过哦❤️\nsize:22cm"},"price":null,"currency":"CNY","moq":1,"category":"dior-women-bags","status":"active","alibaba_url":null,"images":["https://xcimg.szwego.com/img/2b46f204/20240127/i1706346705_3473_3.jpg","https://xcimg.szwego.com/img/2b46f204/20240127/i1706346705_47_0.jpg","https://xcimg.szwego.com/img/2b46f204/20240127/i1706346705_5865_8.jpg","https://xcimg.szwego.com/img/2b46f204/20240127/i1706346705_5796_1.jpg","https://xcimg.szwego.com/img/2b46f204/20240127/i1706346705_2488_7.jpg","https://xcimg.szwego.com/img/2b46f204/20240127/i1706346705_3838_5.jpg","https://xcimg.szwego.com/img/2b46f204/20240127/i1706346705_280_6.jpg","https://xcimg.szwego.com/img/2b46f204/20240127/i1706346705_3103_2.jpg","https://xcimg.szwego.com/img/2b46f204/20240127/i1706346705_3387_4.jpg"],"created_at":"2024-11-11T09:13:17.011Z"},{"id":"item-e40709849c7e","sku":"_dmwmwKEfp2oR9l2Y-rrefkVqMzwfrvXRszaUJdw","name_en":"Lady 戴妃五格","name_cn":"Lady 戴妃五格","specs":{"source":"wsxcme","sourceId":"_dmwmwKEfp2oR9l2Y-rrefkVqMzwfrvXRszaUJdw","sourceTagId":47002747,"sourceTagName":"迪奥/女包","rawTitle":"Lady 戴妃五格"},"price":null,"currency":"CNY","moq":1,"category":"dior-women-bags","status":"active","alibaba_url":null,"images":["https://xcimg.szwego.com/img/2b46f204/20240708/i1720420579_9206_0.jpg"],"created_at":"2024-11-11T09:13:17.010Z"},{"id":"item-8532cf57b655","sku":"_dgmgmmYNHzPwxSr5MkR856Qlm8Cj9TOKJfO2AOA","name_en":"Dior Women Bags","name_cn":"顶级原厂 配全套包装\nClassic Lady 戴妃包,标志性的字母吊饰,经典的菱格,手感极好的绵羊皮,人手必备的三格小包😍。迷人优雅又气场十足💃🏻,斜挎手拎也是女人味十足,经典时尚风格。ins和众多时尚icon都人手一个的美包,别错过哦❤️\n\nsize:17*7*15cm","specs":{"source":"wsxcme","sourceId":"_dgmgmmYNHzPwxSr5MkR856Qlm8Cj9TOKJfO2AOA","sourceTagId":47002747,"sourceTagName":"迪奥/女包","rawTitle":"顶级原厂 配全套包装\nClassic Lady 戴妃包,标志性的字母吊饰,经典的菱格,手感极好的绵羊皮,人手必备的三格小包😍。迷人优雅又气场十足💃🏻,斜挎手拎也是女人味十足,经典时尚风格。ins和众多时尚icon都人手一个的美包,别错过哦❤️\n\nsize:17*7*15cm"},"price":null,"currency":"CNY","moq":1,"category":"dior-women-bags","status":"active","alibaba_url":null,"images":["https://xcimg.szwego.com/img/2b46f204/20240516/i1715846101_6583_4.jpg","https://xcimg.szwego.com/img/2b46f204/20240516/i1715846101_4850_6.jpg","https://xcimg.szwego.com/img/2b46f204/20240516/i1715846101_3925_3.jpg","https://xcimg.szwego.com/img/2b46f204/20240516/i1715846101_6097_7.jpg","https://xcimg.szwego.com/img/2b46f204/20240516/i1715846101_9239_2.jpg","https://xcimg.szwego.com/img/2b46f204/20240516/i1715846101_7066_5.jpg","https://xcimg.szwego.com/img/2b46f204/20240516/i1715846101_4504_8.jpg","https://xcimg.szwego.com/img/2b46f204/20240516/i1715846101_9769_0.jpg","https://xcimg.szwego.com/img/2b46f204/20240516/i1715846101_8611_1.jpg"],"created_at":"2024-11-11T09:13:17.009Z"},{"id":"item-94766ecabe56","sku":"_dwqwqZkwasg0dIsfjlObkMKfT9sc2g7laB7avqQ","name_en":"Lady 最新戴妃三格琳琅扣","name_cn":"Lady 最新戴妃三格琳琅扣","specs":{"source":"wsxcme","sourceId":"_dwqwqZkwasg0dIsfjlObkMKfT9sc2g7laB7avqQ","sourceTagId":47002747,"sourceTagName":"迪奥/女包","rawTitle":"Lady 最新戴妃三格琳琅扣"},"price":null,"currency":"CNY","moq":1,"category":"dior-women-bags","status":"active","alibaba_url":null,"images":["https://xcimg.szwego.com/img/2b46f204/20240525/i1716625866_1408_0.jpg"],"created_at":"2024-11-11T09:13:17.008Z"},{"id":"item-a68858ce8973","sku":"_dj4j4X5EMmQGjmpUfH6SpIUKEj0yTxvv0JWSNCg","name_en":"Dior Women Bags","name_cn":"顶级原厂 配全套包装\n现货!!️\n原厂皮配羊筋绒内里Classic Lady最新琳琅扣戴妃包,人手一个必备的三格小包😍。迷人优雅又气场十足💃🏻,斜挎手拎也是女人味十足,经典时尚风格。ins和众多时尚icon都人手一个的美包,别错过哦❤️\nsize:17*7*15cm","specs":{"source":"wsxcme","sourceId":"_dj4j4X5EMmQGjmpUfH6SpIUKEj0yTxvv0JWSNCg","sourceTagId":47002747,"sourceTagName":"迪奥/女包","rawTitle":"顶级原厂 配全套包装\n现货!!️\n原厂皮配羊筋绒内里Classic Lady最新琳琅扣戴妃包,人手一个必备的三格小包😍。迷人优雅又气场十足💃🏻,斜挎手拎也是女人味十足,经典时尚风格。ins和众多时尚icon都人手一个的美包,别错过哦❤️\nsize:17*7*15cm"},"price":null,"currency":"CNY","moq":1,"category":"dior-women-bags","status":"active","alibaba_url":null,"images":["https://xcimg.szwego.com/img/2b46f204/20240525/i1716625849_1391_4.jpg","https://xcimg.szwego.com/img/2b46f204/20240525/i1716625849_6003_7.jpg","https://xcimg.szwego.com/img/2b46f204/20240525/i1716625849_2434_3.jpg","https://xcimg.szwego.com/img/2b46f204/20240525/i1716625848_7003_2.jpg","https://xcimg.szwego.com/img/2b46f204/20240525/i1716625849_5802_6.jpg","https://xcimg.szwego.com/img/2b46f204/20240525/i1716625848_5371_1.jpg","https://xcimg.szwego.com/img/2b46f204/20240525/i1716625848_1359_0.jpg","https://xcimg.szwego.com/img/2b46f204/20240525/i1716625849_1855_8.jpg","https://xcimg.szwego.com/img/2b46f204/20240525/i1716625849_1725_5.jpg"],"created_at":"2024-11-11T09:13:17.007Z"},{"id":"item-699fc1ac0445","sku":"_d9h9hvb3ITQHJy3yhlhoVEMBAgioPEXII5NN9tA","name_en":"Lady 最新戴妃四格琳琅扣","name_cn":"Lady 最新戴妃四格琳琅扣","specs":{"source":"wsxcme","sourceId":"_d9h9hvb3ITQHJy3yhlhoVEMBAgioPEXII5NN9tA","sourceTagId":47002747,"sourceTagName":"迪奥/女包","rawTitle":"Lady 最新戴妃四格琳琅扣"},"price":null,"currency":"CNY","moq":1,"category":"dior-women-bags","status":"active","alibaba_url":null,"images":["https://xcimg.szwego.com/img/2b46f204/20240525/i1716625814_4202_0.jpg"],"created_at":"2024-11-11T09:13:17.006Z"},{"id":"item-45b38b975ac5","sku":"_dzLzLb8fyZDaYXDTfccKp6Sj1jy_YPZsRHV1cYw","name_en":"Dior Women Bags","name_cn":"顶级原厂 配全套包装\n现货!!️\n原厂皮配羊筋绒内里Lady最新琳琅扣戴妃四格系列,春夏最新颜色,小清新风格🆕,搭配最新的字母肩带😋,更是加分,字母配送6个⚠️,宝宝们可以随心挑选自己喜欢的扣子🙋🏻,不用一整套配哦\nsize:20*8*17cm","specs":{"source":"wsxcme","sourceId":"_dzLzLb8fyZDaYXDTfccKp6Sj1jy_YPZsRHV1cYw","sourceTagId":47002747,"sourceTagName":"迪奥/女包","rawTitle":"顶级原厂 配全套包装\n现货!!️\n原厂皮配羊筋绒内里Lady最新琳琅扣戴妃四格系列,春夏最新颜色,小清新风格🆕,搭配最新的字母肩带😋,更是加分,字母配送6个⚠️,宝宝们可以随心挑选自己喜欢的扣子🙋🏻,不用一整套配哦\nsize:20*8*17cm"},"price":null,"currency":"CNY","moq":1,"category":"dior-women-bags","status":"active","alibaba_url":null,"images":["https://xcimg.szwego.com/img/2b46f204/20240525/i1716625797_3433_1.jpg","https://xcimg.szwego.com/img/2b46f204/20240525/i1716625797_274_7.jpg","https://xcimg.szwego.com/img/2b46f204/20240525/i1716625797_3655_5.jpg","https://xcimg.szwego.com/img/2b46f204/20240525/i1716625797_2939_2.jpg","https://xcimg.szwego.com/img/2b46f204/20240525/i1716625797_1056_0.jpg","https://xcimg.szwego.com/img/2b46f204/20240525/i1716625797_8851_6.jpg","https://xcimg.szwego.com/img/2b46f204/20240525/i1716625797_6755_3.jpg","https://xcimg.szwego.com/img/2b46f204/20240525/i1716625797_8785_4.jpg","https://xcimg.szwego.com/img/2b46f204/20240525/i1716625798_5732_8.jpg"],"created_at":"2024-11-11T09:13:17.005Z"},{"id":"item-0bdf83a9c546","sku":"_dAaAaLc0b4RsFZYHxu5jhsqiyLi3cNxsL6GCYbw","name_en":"Dior Women Bags","name_cn":"顶级原厂 配全套包装\n拼色珐琅扣现货!!️\nClassic Lady 戴妃包,标志性的字母吊饰,经典的菱格,手感极好的绵羊皮,人手必备的三格小包😍。迷人优雅又气场十足💃🏻,斜挎手拎也是女人味十足,经典时尚风格。ins和众多时尚icon都人手一个的美包,别错过哦❤️\nsize:17*7*15cm","specs":{"source":"wsxcme","sourceId":"_dAaAaLc0b4RsFZYHxu5jhsqiyLi3cNxsL6GCYbw","sourceTagId":47002747,"sourceTagName":"迪奥/女包","rawTitle":"顶级原厂 配全套包装\n拼色珐琅扣现货!!️\nClassic Lady 戴妃包,标志性的字母吊饰,经典的菱格,手感极好的绵羊皮,人手必备的三格小包😍。迷人优雅又气场十足💃🏻,斜挎手拎也是女人味十足,经典时尚风格。ins和众多时尚icon都人手一个的美包,别错过哦❤️\nsize:17*7*15cm"},"price":null,"currency":"CNY","moq":1,"category":"dior-women-bags","status":"active","alibaba_url":null,"images":["https://xcimg.szwego.com/img/2b46f204/20240608/i1717785714_7580_1.jpg","https://xcimg.szwego.com/img/2b46f204/20240608/i1717785714_8523_6.jpg","https://xcimg.szwego.com/img/2b46f204/20240608/i1717785714_3507_4.jpg","https://xcimg.szwego.com/img/2b46f204/20240608/i1717785714_531_0.jpg","https://xcimg.szwego.com/img/2b46f204/20240608/i1717785714_5843_7.jpg","https://xcimg.szwego.com/img/2b46f204/20240608/i1717785714_6596_5.jpg","https://xcimg.szwego.com/img/2b46f204/20240608/i1717785714_9506_8.jpg","https://xcimg.szwego.com/img/2b46f204/20240608/i1717785714_5640_2.jpg","https://xcimg.szwego.com/img/2b46f204/20240608/i1717785714_2484_3.jpg"],"created_at":"2024-11-11T09:13:17.004Z"},{"id":"item-b99f6c1c5de1","sku":"_dq5q5OBjtFRr5T0QIBNRjJ7wgMobGeeD80FTbvg","name_en":"Dior Women Bags","name_cn":"顶级原厂 配全套包装\n拼色现货!!️\nClassic Lady 戴妃包,标志性的字母吊饰,经典的菱格,手感极好的绵羊皮,人手必备的三格小包😍。迷人优雅又气场十足💃🏻,斜挎手拎也是女人味十足,经典时尚风格。ins和众多时尚icon都人手一个的美包,别错过哦❤️\nsize:17*7*15cm","specs":{"source":"wsxcme","sourceId":"_dq5q5OBjtFRr5T0QIBNRjJ7wgMobGeeD80FTbvg","sourceTagId":47002747,"sourceTagName":"迪奥/女包","rawTitle":"顶级原厂 配全套包装\n拼色现货!!️\nClassic Lady 戴妃包,标志性的字母吊饰,经典的菱格,手感极好的绵羊皮,人手必备的三格小包😍。迷人优雅又气场十足💃🏻,斜挎手拎也是女人味十足,经典时尚风格。ins和众多时尚icon都人手一个的美包,别错过哦❤️\nsize:17*7*15cm"},"price":null,"currency":"CNY","moq":1,"category":"dior-women-bags","status":"active","alibaba_url":null,"images":["https://xcimg.szwego.com/img/2b46f204/20240608/i1717785575_2053_8.jpg","https://xcimg.szwego.com/img/2b46f204/20240608/i1717785575_111_6.jpg","https://xcimg.szwego.com/img/2b46f204/20240608/i1717785575_883_2.jpg","https://xcimg.szwego.com/img/2b46f204/20240608/i1717785575_1710_7.jpg","https://xcimg.szwego.com/img/2b46f204/20240608/i1717785575_8004_4.jpg","https://xcimg.szwego.com/img/2b46f204/20240608/i1717785575_4420_3.jpg","https://xcimg.szwego.com/img/2b46f204/20240608/i1717785575_7272_1.jpg","https://xcimg.szwego.com/img/2b46f204/20240608/i1717785575_547_5.jpg","https://xcimg.szwego.com/img/2b46f204/20240608/i1717785575_1_0.jpg"],"created_at":"2024-11-11T09:13:17.003Z"}],"page":28,"pageSize":24,"total":961,"totalPages":41}
