{"items":[{"id":"item-2548a52c197d","sku":"_duouoZxOo3vvxKgVWnPrtxlktCWbYfkFKkVQO_g","name_en":"C'EST DIOR Small Bag ❣️❣️❣️","name_cn":"C'EST DIOR Small Bag ❣️❣️❣️\nThis C'est Dior bag is a new arrival for Fall 2023, elegant and classic. Crafted from calfskin, it features a CD embossed logo on the front, showcasing Dior's craftsmanship. Bucket bag silhouette with CD Lock closure featuring a rotary letter D, securely holding daily essentials. Small size with top handle and detachable chain strap with adjustable leather band, can be carried by hand for a relaxed look.\nCD Lock closure\nDetachable chain strap with adjustable leather band\nTop detachable leather handle\nModel: 2272\nSize: 17×7×18cm","specs":{"source":"wsxcme","sourceId":"_duouoZxOo3vvxKgVWnPrtxlktCWbYfkFKkVQO_g","sourceTagId":47002747,"sourceTagName":"Dior/women's bag","modelNumber":"2272","dimensions":{"lengthCm":17,"heightCm":7,"widthCm":18},"rawTitle":"C'EST DIOR Small Bag ❣️❣️❣️\nThis C'est Dior bag is a new arrival for Fall 2023, elegant and classic. Crafted from calfskin, it features a CD embossed logo on the front, showcasing Dior's craftsmanship. Bucket bag silhouette with CD Lock closure featuring a rotary letter D, securely holding daily essentials. Small size with top handle and detachable chain strap with adjustable leather band, can be carried by hand for a relaxed look.\nCD Lock closure\nDetachable chain strap with adjustable leather band\nTop detachable leather handle\nModel: 2272\nSize: 17×7×18cm"},"price":null,"currency":"CNY","moq":1,"category":"dior-women-bags","status":"active","alibaba_url":null,"images":["https://xcimg.szwego.com/20230614/i1686753008_3816_0.jpg","https://xcimg.szwego.com/20230614/i1686753008_9092_1.jpg","https://xcimg.szwego.com/20230614/i1686753008_8544_2.jpg","https://xcimg.szwego.com/20230614/i1686753008_7328_3.jpg","https://xcimg.szwego.com/20230614/i1686753008_6986_4.jpg","https://xcimg.szwego.com/20230614/i1686753008_4460_5.jpg","https://xcimg.szwego.com/20230614/i1686753008_9525_6.jpg","https://xcimg.szwego.com/20230614/i1686753008_93_7.jpg","https://xcimg.szwego.com/20230614/i1686753008_4145_8.jpg"],"created_at":"2024-05-01T03:20:28.313Z"}],"page":41,"pageSize":24,"total":961,"totalPages":41}
