{"items":[{"id":"item-831763344b81","sku":"_dDMDMYFUOkWg0UNH8BnUVm_haNmLuOhnS95cJZg","name_en":"细节po","name_cn":"细节po","specs":{"source":"wsxcme","sourceId":"_dDMDMYFUOkWg0UNH8BnUVm_haNmLuOhnS95cJZg","sourceTagId":47002756,"sourceTagName":"宝格丽/女包","rawTitle":"细节po"},"price":null,"currency":"CNY","moq":1,"category":"bvlgari-women-bags","status":"active","alibaba_url":null,"images":["https://xcimg.szwego.com/20230219/i1676789509_7262_0.jpg","https://xcimg.szwego.com/20230219/i1676789509_6640_1.jpg","https://xcimg.szwego.com/20230219/i1676789509_370_2.jpg","https://xcimg.szwego.com/20230219/i1676789509_4201_3.jpg","https://xcimg.szwego.com/20230219/i1676789509_9460_4.jpg"],"created_at":"2024-10-07T10:58:53.572Z"},{"id":"item-981094e7def3","sku":"_dYkYkp2P8Rh_KWHZc2kF3Sejs3sUjmkqS8Jse8A","name_en":"Bvlgari Women Bags","name_cn":"正品级\nBVLGARISERPENTIFOREVER\n型号:38102 白配粉\n尺寸:22*13*5.5cm\n专柜热卖系列 Serpenti Forever 精致斜挎包 原单品质 进口胎牛皮 定制原单五金🔅点缀serpenti珐琅浅金镀金蛇首形搭扣  也可以当晚宴包用 精致如珠宝💎\"雨衣、镜子、礼盒包装","specs":{"source":"wsxcme","sourceId":"_dYkYkp2P8Rh_KWHZc2kF3Sejs3sUjmkqS8Jse8A","sourceTagId":47002756,"sourceTagName":"宝格丽/女包","modelNumber":"38102 白配粉","dimensions":{"lengthCm":22,"heightCm":13,"widthCm":5.5},"rawTitle":"正品级\nBVLGARISERPENTIFOREVER\n型号:38102 白配粉\n尺寸:22*13*5.5cm\n专柜热卖系列 Serpenti Forever 精致斜挎包 原单品质 进口胎牛皮 定制原单五金🔅点缀serpenti珐琅浅金镀金蛇首形搭扣  也可以当晚宴包用 精致如珠宝💎\"雨衣、镜子、礼盒包装"},"price":null,"currency":"CNY","moq":1,"category":"bvlgari-women-bags","status":"active","alibaba_url":null,"images":["https://xcimg.szwego.com/20230219/i1676789451_7563_0.jpg","https://xcimg.szwego.com/20230219/i1676789451_642_1.jpg","https://xcimg.szwego.com/20230219/i1676789451_1786_2.jpg","https://xcimg.szwego.com/20230219/i1676789451_8289_3.jpg","https://xcimg.szwego.com/20230219/i1676789451_7498_4.jpg","https://xcimg.szwego.com/20230219/i1676789451_2729_5.jpg","https://xcimg.szwego.com/20230219/i1676789451_2154_6.jpg","https://xcimg.szwego.com/20230219/i1676789451_2745_7.jpg","https://xcimg.szwego.com/20230219/i1676789451_8466_8.jpg"],"created_at":"2024-10-07T10:58:53.571Z"},{"id":"item-429fb2d203f0","sku":"_dKcKck2psVCDGiD7YwWAiAU5ThOzGG9yMJVmLBw","name_en":"Bvlgari Women Bags","name_cn":"宝格丽/女包","specs":{"source":"wsxcme","sourceId":"_dKcKck2psVCDGiD7YwWAiAU5ThOzGG9yMJVmLBw","sourceTagId":47002756,"sourceTagName":"宝格丽/女包","rawTitle":""},"price":null,"currency":"CNY","moq":1,"category":"bvlgari-women-bags","status":"active","alibaba_url":null,"images":["https://xcimg.szwego.com/20230219/i1676789361_3768_0.jpg"],"created_at":"2024-10-07T10:58:53.570Z"},{"id":"item-1b42ef09ebb9","sku":"_dmVmVUoGtbBaHgeXPUSVXlajAqWxOUrDNqtyP_g","name_en":"Bvlgari Women Bags","name_cn":"随拍上身图","specs":{"source":"wsxcme","sourceId":"_dmVmVUoGtbBaHgeXPUSVXlajAqWxOUrDNqtyP_g","sourceTagId":47002756,"sourceTagName":"宝格丽/女包","rawTitle":"随拍上身图"},"price":null,"currency":"CNY","moq":1,"category":"bvlgari-women-bags","status":"active","alibaba_url":null,"images":["https://xcimg.szwego.com/20230219/i1676789320_1674_0.jpg","https://xcimg.szwego.com/20230219/i1676789320_380_1.jpg","https://xcimg.szwego.com/20230219/i1676789320_4963_2.jpg","https://xcimg.szwego.com/20230219/i1676789320_4446_3.jpg"],"created_at":"2024-10-07T10:58:53.569Z"},{"id":"item-62ded42bb503","sku":"_dhThTWvWbF_aGB-gySxoiAgA3eZsvhRNlVmaqVA","name_en":"细节po","name_cn":"细节po","specs":{"source":"wsxcme","sourceId":"_dhThTWvWbF_aGB-gySxoiAgA3eZsvhRNlVmaqVA","sourceTagId":47002756,"sourceTagName":"宝格丽/女包","rawTitle":"细节po"},"price":null,"currency":"CNY","moq":1,"category":"bvlgari-women-bags","status":"active","alibaba_url":null,"images":["https://xcimg.szwego.com/20230219/i1676789274_6332_0.jpg","https://xcimg.szwego.com/20230219/i1676789274_4185_1.jpg","https://xcimg.szwego.com/20230219/i1676789274_7979_2.jpg","https://xcimg.szwego.com/20230219/i1676789274_8748_3.jpg","https://xcimg.szwego.com/20230219/i1676789274_4996_4.jpg","https://xcimg.szwego.com/20230219/i1676789274_2818_5.jpg"],"created_at":"2024-10-07T10:58:53.568Z"},{"id":"item-5da32f771b7a","sku":"_dStStN3cfwpTeNEjJD9cOs-WLNT3cZaqfj5U4Tw","name_en":"Bvlgari Women Bags","name_cn":"正品级\nBVLGARISERPENTIFOREVER\n型号:38102 大红配酒红\n尺寸:22*13*5.5cm\n专柜热卖系列 Serpenti Forever 精致斜挎包 原单品质 进口胎牛皮 定制原单五金🔅点缀serpenti珐琅浅金镀金蛇首形搭扣  也可以当晚宴包用 精致如珠宝💎\"雨衣、镜子、礼盒包装、","specs":{"source":"wsxcme","sourceId":"_dStStN3cfwpTeNEjJD9cOs-WLNT3cZaqfj5U4Tw","sourceTagId":47002756,"sourceTagName":"宝格丽/女包","modelNumber":"38102 大红配酒红","dimensions":{"lengthCm":22,"heightCm":13,"widthCm":5.5},"rawTitle":"正品级\nBVLGARISERPENTIFOREVER\n型号:38102 大红配酒红\n尺寸:22*13*5.5cm\n专柜热卖系列 Serpenti Forever 精致斜挎包 原单品质 进口胎牛皮 定制原单五金🔅点缀serpenti珐琅浅金镀金蛇首形搭扣  也可以当晚宴包用 精致如珠宝💎\"雨衣、镜子、礼盒包装、"},"price":null,"currency":"CNY","moq":1,"category":"bvlgari-women-bags","status":"active","alibaba_url":null,"images":["https://xcimg.szwego.com/20230219/i1676789219_1288_0.jpg","https://xcimg.szwego.com/20230219/i1676789219_5140_1.jpg","https://xcimg.szwego.com/20230219/i1676789219_2299_2.jpg","https://xcimg.szwego.com/20230219/i1676789219_4141_3.jpg","https://xcimg.szwego.com/20230219/i1676789219_5325_4.jpg","https://xcimg.szwego.com/20230219/i1676789219_3262_5.jpg","https://xcimg.szwego.com/20230219/i1676789219_7745_6.jpg","https://xcimg.szwego.com/20230219/i1676789219_9220_7.jpg","https://xcimg.szwego.com/20230219/i1676789219_1069_8.jpg"],"created_at":"2024-10-07T10:58:53.567Z"},{"id":"item-4743e4aa7848","sku":"_dkQkQ5tqxb3zaJSLO13Yl6hCilT8ClsYxvJXxJg","name_en":"Bvlgari Women Bags","name_cn":"宝格丽/女包","specs":{"source":"wsxcme","sourceId":"_dkQkQ5tqxb3zaJSLO13Yl6hCilT8ClsYxvJXxJg","sourceTagId":47002756,"sourceTagName":"宝格丽/女包","rawTitle":""},"price":null,"currency":"CNY","moq":1,"category":"bvlgari-women-bags","status":"active","alibaba_url":null,"images":["https://xcimg.szwego.com/20230219/i1676789178_4414_0.jpg"],"created_at":"2024-10-07T10:58:53.566Z"},{"id":"item-5bc721f1ace9","sku":"_dr8r8TF1-dWpNDaNuMY-7U9fMPkA1Qdm2VCPlWA","name_en":"Bvlgari Women Bags","name_cn":"上身随拍","specs":{"source":"wsxcme","sourceId":"_dr8r8TF1-dWpNDaNuMY-7U9fMPkA1Qdm2VCPlWA","sourceTagId":47002756,"sourceTagName":"宝格丽/女包","rawTitle":"上身随拍"},"price":null,"currency":"CNY","moq":1,"category":"bvlgari-women-bags","status":"active","alibaba_url":null,"images":["https://xcimg.szwego.com/20230219/i1676789144_4297_0.jpg","https://xcimg.szwego.com/20230219/i1676789144_882_1.jpg","https://xcimg.szwego.com/20230219/i1676789144_8191_2.jpg","https://xcimg.szwego.com/20230219/i1676789144_6966_3.jpg"],"created_at":"2024-10-07T10:58:53.565Z"},{"id":"item-9db3827ee15b","sku":"_djxjxlYqqGaAU-I0zsicj3CBBrYSBtobPrifNRw","name_en":"Bvlgari Women Bags","name_cn":"更多细节","specs":{"source":"wsxcme","sourceId":"_djxjxlYqqGaAU-I0zsicj3CBBrYSBtobPrifNRw","sourceTagId":47002756,"sourceTagName":"宝格丽/女包","rawTitle":"更多细节"},"price":null,"currency":"CNY","moq":1,"category":"bvlgari-women-bags","status":"active","alibaba_url":null,"images":["https://xcimg.szwego.com/20230219/i1676789115_9618_0.jpg","https://xcimg.szwego.com/20230219/i1676789115_3456_1.jpg","https://xcimg.szwego.com/20230219/i1676789115_925_2.jpg","https://xcimg.szwego.com/20230219/i1676789115_7293_3.jpg","https://xcimg.szwego.com/20230219/i1676789115_6032_4.jpg","https://xcimg.szwego.com/20230219/i1676789115_4202_5.jpg"],"created_at":"2024-10-07T10:58:53.564Z"},{"id":"item-df88b1c72df8","sku":"_dcecenYr_yCHSOFB5JtUB5j8FaNN0j3NGiwVQyQ","name_en":"Bvlgari Women Bags","name_cn":"正品级\nBVLGARISERPENTIFOREVER\n型号:38102 橙配酒红\n尺寸:22*13*5.5cm\n专柜热卖系列 Serpenti Forever 精致斜挎包 原单品质 进口胎牛皮 定制原单五金🔅点缀serpenti珐琅浅金镀金蛇首形搭扣  也可以当晚宴包用 精致如珠宝💎\"雨衣、镜子、礼盒包装、","specs":{"source":"wsxcme","sourceId":"_dcecenYr_yCHSOFB5JtUB5j8FaNN0j3NGiwVQyQ","sourceTagId":47002756,"sourceTagName":"宝格丽/女包","modelNumber":"38102 橙配酒红","dimensions":{"lengthCm":22,"heightCm":13,"widthCm":5.5},"rawTitle":"正品级\nBVLGARISERPENTIFOREVER\n型号:38102 橙配酒红\n尺寸:22*13*5.5cm\n专柜热卖系列 Serpenti Forever 精致斜挎包 原单品质 进口胎牛皮 定制原单五金🔅点缀serpenti珐琅浅金镀金蛇首形搭扣  也可以当晚宴包用 精致如珠宝💎\"雨衣、镜子、礼盒包装、"},"price":null,"currency":"CNY","moq":1,"category":"bvlgari-women-bags","status":"active","alibaba_url":null,"images":["https://xcimg.szwego.com/20230219/i1676789064_1831_0.jpg","https://xcimg.szwego.com/20230219/i1676789064_3383_1.jpg","https://xcimg.szwego.com/20230219/i1676789064_9541_2.jpg","https://xcimg.szwego.com/20230219/i1676789064_8381_3.jpg","https://xcimg.szwego.com/20230219/i1676789064_1605_4.jpg","https://xcimg.szwego.com/20230219/i1676789064_321_5.jpg","https://xcimg.szwego.com/20230219/i1676789064_5109_6.jpg","https://xcimg.szwego.com/20230219/i1676789064_5741_7.jpg","https://xcimg.szwego.com/20230219/i1676789064_3550_8.jpg"],"created_at":"2024-10-07T10:58:53.563Z"},{"id":"item-68145b026071","sku":"_dsRsR7IrSp6EqbyJmuRnuxMGIG-FdIKLRYXXidg","name_en":"Bvlgari Women Bags","name_cn":"张柏芝的夏日新格调~","specs":{"source":"wsxcme","sourceId":"_dsRsR7IrSp6EqbyJmuRnuxMGIG-FdIKLRYXXidg","sourceTagId":47002756,"sourceTagName":"宝格丽/女包","rawTitle":"张柏芝的夏日新格调~"},"price":null,"currency":"CNY","moq":1,"category":"bvlgari-women-bags","status":"active","alibaba_url":null,"images":["https://xcimg.szwego.com/20230329/i1680069450_9618_0.jpg","https://xcimg.szwego.com/20230329/i1680069450_3396_1.jpg","https://xcimg.szwego.com/20230329/i1680069450_7268_2.jpg"],"created_at":"2024-10-07T10:58:53.562Z"},{"id":"item-d6c7d696c424","sku":"_dO1O1rtn1QJPhCrJUdaOKfu3Tc5kdp3USmtDJdw","name_en":"Bvlgari Women Bags","name_cn":"颜值满满,难以抗拒的一款[爱心]\n\n19cm双层现货秒发","specs":{"source":"wsxcme","sourceId":"_dO1O1rtn1QJPhCrJUdaOKfu3Tc5kdp3USmtDJdw","sourceTagId":47002756,"sourceTagName":"宝格丽/女包","rawTitle":"颜值满满,难以抗拒的一款[爱心]\n\n19cm双层现货秒发"},"price":null,"currency":"CNY","moq":1,"category":"bvlgari-women-bags","status":"active","alibaba_url":null,"images":["https://xcimg.szwego.com/20230418/i1681811745_5394_0.jpg"],"created_at":"2024-10-07T10:58:53.561Z"},{"id":"item-7427625aa016","sku":"_dLBLBh62z45LAn9nOBUOkXgWqHROQydz7ZPrshQ","name_en":"Bvlgari Women Bags","name_cn":"3种背法自由切换","specs":{"source":"wsxcme","sourceId":"_dLBLBh62z45LAn9nOBUOkXgWqHROQydz7ZPrshQ","sourceTagId":47002756,"sourceTagName":"宝格丽/女包","rawTitle":"3种背法自由切换"},"price":null,"currency":"CNY","moq":1,"category":"bvlgari-women-bags","status":"active","alibaba_url":null,"images":["https://xcimg.szwego.com/20221220/i1671550462_2261_0.jpg"],"created_at":"2024-10-07T10:58:53.560Z"},{"id":"item-d7fdcb5cdeca","sku":"_dkukuqYx19iVFV3wuOG1XkXDF0JV-QZVDWmskaQ","name_en":"Bvlgari Women Bags","name_cn":"既优雅又随性,美丽又洒脱,完美结合","specs":{"source":"wsxcme","sourceId":"_dkukuqYx19iVFV3wuOG1XkXDF0JV-QZVDWmskaQ","sourceTagId":47002756,"sourceTagName":"宝格丽/女包","rawTitle":"既优雅又随性,美丽又洒脱,完美结合"},"price":null,"currency":"CNY","moq":1,"category":"bvlgari-women-bags","status":"active","alibaba_url":null,"images":["https://xcimg.szwego.com/20221220/i1671550118_1365_0.jpg","https://xcimg.szwego.com/20221220/i1671550118_7283_1.jpg","https://xcimg.szwego.com/20221220/i1671550118_4008_2.jpg","https://xcimg.szwego.com/20221220/i1671550118_9724_3.jpg"],"created_at":"2024-10-07T10:58:53.559Z"},{"id":"item-27981a1443b0","sku":"_dAUAUqXTSkN7Lx0IzVGMv_HMRjm9RgQInLvAydA","name_en":"Bvlgari Women Bags","name_cn":"三色合集~","specs":{"source":"wsxcme","sourceId":"_dAUAUqXTSkN7Lx0IzVGMv_HMRjm9RgQInLvAydA","sourceTagId":47002756,"sourceTagName":"宝格丽/女包","rawTitle":"三色合集~"},"price":null,"currency":"CNY","moq":1,"category":"bvlgari-women-bags","status":"active","alibaba_url":null,"images":["https://xcimg.szwego.com/20240817/i1723878915_4364_0.jpg"],"created_at":"2024-09-27T06:51:04.183Z"},{"id":"item-dddfdd2febeb","sku":"_deFeFwf_NaQ3w--vZxDNsPNG-OrBUd6Zf9LHMew","name_en":"Bvlgari Women Bags","name_cn":"正品级\nSERPENTI FOREVER系列中号手提包,采用祖小牛皮材质,搭配羊皮内里。巧妙融合经典设计与现代风格,淋漓尽致地展现了系列作品的无尽魅力。此款易于佩戴的手袋于标志性元素之中融入崭新细节,搭配皮革肩带,饰以标志性蛇首磁扣,其魅惑迷人的鳞片与设计从1960年代的SERPENTI系列珠宝中汲取灵感。设有一个隔层,一个正面口袋,一个背面外置拼接口袋,一个内部敞口口袋,一个配可个性化定制化妆镜的镜袋,背面饰BVLGARI宝格丽金属标识。\n款号:293665\n尺寸:20.5 X 15 X 9","specs":{"source":"wsxcme","sourceId":"_deFeFwf_NaQ3w--vZxDNsPNG-OrBUd6Zf9LHMew","sourceTagId":47002756,"sourceTagName":"宝格丽/女包","modelNumber":"293665","rawTitle":"正品级\nSERPENTI FOREVER系列中号手提包,采用祖小牛皮材质,搭配羊皮内里。巧妙融合经典设计与现代风格,淋漓尽致地展现了系列作品的无尽魅力。此款易于佩戴的手袋于标志性元素之中融入崭新细节,搭配皮革肩带,饰以标志性蛇首磁扣,其魅惑迷人的鳞片与设计从1960年代的SERPENTI系列珠宝中汲取灵感。设有一个隔层,一个正面口袋,一个背面外置拼接口袋,一个内部敞口口袋,一个配可个性化定制化妆镜的镜袋,背面饰BVLGARI宝格丽金属标识。\n款号:293665\n尺寸:20.5 X 15 X 9"},"price":null,"currency":"CNY","moq":1,"category":"bvlgari-women-bags","status":"active","alibaba_url":null,"images":["https://xcimg.szwego.com/20240817/i1723878766_2654_0.jpg","https://xcimg.szwego.com/20240817/i1723878766_2575_1.jpg","https://xcimg.szwego.com/20240817/i1723878766_6575_2.jpg","https://xcimg.szwego.com/20240817/i1723878766_9158_3.jpg","https://xcimg.szwego.com/20240817/i1723878766_6176_4.jpg","https://xcimg.szwego.com/20240817/i1723878766_31_5.jpg","https://xcimg.szwego.com/20240817/i1723878766_3538_6.jpg","https://xcimg.szwego.com/20240817/i1723878766_2455_7.jpg","https://xcimg.szwego.com/20240817/i1723878766_6862_8.jpg"],"created_at":"2024-09-27T06:51:04.181Z"},{"id":"item-d0d998467c40","sku":"_dj6j6aNR3vt-F7G-mdglKgB00gQKpEm8wEPsJlw","name_en":"SERPENTI FOREVER系列中号手提包,采用祖小牛皮材质,搭配羊皮内里。巧妙融合经典设计与现代风格,淋漓尽致地展现了系列作品的无尽魅力。此款易于佩戴的手袋于标志性元素之中融入崭新细节,搭配皮革肩带,饰以标志性蛇首磁扣,其魅惑迷人的鳞片与设计从1960年代的SERPENTI系列珠宝中汲取灵感。设有一个隔层,一个正面口袋,一个背面外置拼接口袋,一个内部敞","name_cn":"SERPENTI FOREVER系列中号手提包,采用祖小牛皮材质,搭配羊皮内里。巧妙融合经典设计与现代风格,淋漓尽致地展现了系列作品的无尽魅力。此款易于佩戴的手袋于标志性元素之中融入崭新细节,搭配皮革肩带,饰以标志性蛇首磁扣,其魅惑迷人的鳞片与设计从1960年代的SERPENTI系列珠宝中汲取灵感。设有一个隔层,一个正面口袋,一个背面外置拼接口袋,一个内部敞口口袋,一个配可个性化定制化妆镜的镜袋,背面饰BVLGARI宝格丽金属标识。\n款号:293665\n尺寸:20.5 X 15 X 9","specs":{"source":"wsxcme","sourceId":"_dj6j6aNR3vt-F7G-mdglKgB00gQKpEm8wEPsJlw","sourceTagId":47002756,"sourceTagName":"宝格丽/女包","modelNumber":"293665","rawTitle":"SERPENTI FOREVER系列中号手提包,采用祖小牛皮材质,搭配羊皮内里。巧妙融合经典设计与现代风格,淋漓尽致地展现了系列作品的无尽魅力。此款易于佩戴的手袋于标志性元素之中融入崭新细节,搭配皮革肩带,饰以标志性蛇首磁扣,其魅惑迷人的鳞片与设计从1960年代的SERPENTI系列珠宝中汲取灵感。设有一个隔层,一个正面口袋,一个背面外置拼接口袋,一个内部敞口口袋,一个配可个性化定制化妆镜的镜袋,背面饰BVLGARI宝格丽金属标识。\n款号:293665\n尺寸:20.5 X 15 X 9"},"price":null,"currency":"CNY","moq":1,"category":"bvlgari-women-bags","status":"active","alibaba_url":null,"images":["https://xcimg.szwego.com/20240817/i1723878680_2163_0.jpg","https://xcimg.szwego.com/20240817/i1723878680_3501_1.jpg","https://xcimg.szwego.com/20240817/i1723878680_4053_2.jpg","https://xcimg.szwego.com/20240817/i1723878680_7606_3.jpg"],"created_at":"2024-09-27T06:51:04.180Z"},{"id":"item-72460bc34fa2","sku":"_dlxlxDFvFOIjRh4_xWacY4KPqg8r7Rg8U1Gl1Zg","name_en":"Bvlgari Women Bags","name_cn":"八色现货","specs":{"source":"wsxcme","sourceId":"_dlxlxDFvFOIjRh4_xWacY4KPqg8r7Rg8U1Gl1Zg","sourceTagId":47002756,"sourceTagName":"宝格丽/女包","rawTitle":"八色现货"},"price":null,"currency":"CNY","moq":1,"category":"bvlgari-women-bags","status":"active","alibaba_url":null,"images":["https://xcimg.szwego.com/20240809/i1723193139_9863_0.jpg","https://xcimg.szwego.com/20240809/i1723193139_2983_1.jpg","https://xcimg.szwego.com/20240809/i1723193139_3628_2.jpg"],"created_at":"2024-09-27T06:51:04.176Z"},{"id":"item-a1bb05ee160c","sku":"_dd9d9P9aS1Sp94Dt0kf-b78dm_lJ1tZpDjULvIQ","name_en":"Bvlgari Women Bags","name_cn":"细节","specs":{"source":"wsxcme","sourceId":"_dd9d9P9aS1Sp94Dt0kf-b78dm_lJ1tZpDjULvIQ","sourceTagId":47002756,"sourceTagName":"宝格丽/女包","rawTitle":"细节"},"price":null,"currency":"CNY","moq":1,"category":"bvlgari-women-bags","status":"active","alibaba_url":null,"images":["https://xcimg.szwego.com/20240809/i1723192990_5043_0.jpg","https://xcimg.szwego.com/20240809/i1723192990_336_1.jpg","https://xcimg.szwego.com/20240809/i1723192990_7154_2.jpg","https://xcimg.szwego.com/20240809/i1723192990_4435_3.jpg"],"created_at":"2024-09-27T06:51:04.174Z"},{"id":"item-0d15eb75df0f","sku":"_dd6d6qJ2RcJTBMYjoZJjLiYbyc5HJJqeGCjs5cg","name_en":"Bvlgari Women Bags","name_cn":"正品级\nSERPENTI FOREVER系列迷你手提包,采用小牛皮材质,兼具现代气息与易于佩戴的实用性能,尽显时尚风采。作品搭配蛇形链条和皮革肩带,饰以标志性蛇首磁扣,其魅惑迷人的鳞片与设计从1960年代的SERPENTI系列珠宝中汲取灵感。设有一个隔层,一个正面口袋,一个背面外置拼接口袋,一个内部敞口口袋,一个配可个性化定制化妆镜的内部镜袋,背面饰BVLGARI宝格丽金属标识。\n款号:293666\n尺寸19 X 11 X 6","specs":{"source":"wsxcme","sourceId":"_dd6d6qJ2RcJTBMYjoZJjLiYbyc5HJJqeGCjs5cg","sourceTagId":47002756,"sourceTagName":"宝格丽/女包","modelNumber":"293666","rawTitle":"正品级\nSERPENTI FOREVER系列迷你手提包,采用小牛皮材质,兼具现代气息与易于佩戴的实用性能,尽显时尚风采。作品搭配蛇形链条和皮革肩带,饰以标志性蛇首磁扣,其魅惑迷人的鳞片与设计从1960年代的SERPENTI系列珠宝中汲取灵感。设有一个隔层,一个正面口袋,一个背面外置拼接口袋,一个内部敞口口袋,一个配可个性化定制化妆镜的内部镜袋,背面饰BVLGARI宝格丽金属标识。\n款号:293666\n尺寸19 X 11 X 6"},"price":null,"currency":"CNY","moq":1,"category":"bvlgari-women-bags","status":"active","alibaba_url":null,"images":["https://xcimg.szwego.com/20240809/i1723192946_2903_0.jpg","https://xcimg.szwego.com/20240809/i1723192946_3228_1.jpg","https://xcimg.szwego.com/20240809/i1723192946_7204_2.jpg","https://xcimg.szwego.com/20240809/i1723192946_2117_3.jpg","https://xcimg.szwego.com/20240809/i1723192946_9636_4.jpg","https://xcimg.szwego.com/20240809/i1723192946_4597_5.jpg","https://xcimg.szwego.com/20240809/i1723192946_8638_6.jpg","https://xcimg.szwego.com/20240809/i1723192946_3961_7.jpg","https://xcimg.szwego.com/20240809/i1723192946_5392_8.jpg"],"created_at":"2024-09-27T06:51:04.173Z"},{"id":"item-fa1689996f81","sku":"_dxAxAH1ZditQLnr_KqxcuU0kwokxXTyttQWTowg","name_en":"Bvlgari Women Bags","name_cn":"上身图","specs":{"source":"wsxcme","sourceId":"_dxAxAH1ZditQLnr_KqxcuU0kwokxXTyttQWTowg","sourceTagId":47002756,"sourceTagName":"宝格丽/女包","rawTitle":"上身图"},"price":null,"currency":"CNY","moq":1,"category":"bvlgari-women-bags","status":"active","alibaba_url":null,"images":["https://xcimg.szwego.com/20240809/i1723192004_255_0.jpg","https://xcimg.szwego.com/20240809/i1723192004_3107_1.jpg","https://xcimg.szwego.com/20240809/i1723192004_382_2.jpg"],"created_at":"2024-09-27T06:51:04.163Z"},{"id":"item-c714a9f09ae6","sku":"_dMDMDeq3YfCDGND2luIkIe3zaKxEUHwlXG4yGOQ","name_en":"Bvlgari Women Bags","name_cn":"小白蛇","specs":{"source":"wsxcme","sourceId":"_dMDMDeq3YfCDGND2luIkIe3zaKxEUHwlXG4yGOQ","sourceTagId":47002756,"sourceTagName":"宝格丽/女包","rawTitle":"小白蛇"},"price":null,"currency":"CNY","moq":1,"category":"bvlgari-women-bags","status":"active","alibaba_url":null,"images":["https://xcimg.szwego.com/20240809/i1723191949_9233_0.jpg"],"created_at":"2024-09-27T06:51:04.161Z"},{"id":"item-8d7e52e402d6","sku":"_d8e8e_r4q0CeSsqCvbzhECaxUpEZ08Cpa_Bb0uw","name_en":"Bvlgari Women Bags","name_cn":"细节~","specs":{"source":"wsxcme","sourceId":"_d8e8e_r4q0CeSsqCvbzhECaxUpEZ08Cpa_Bb0uw","sourceTagId":47002756,"sourceTagName":"宝格丽/女包","rawTitle":"细节~"},"price":null,"currency":"CNY","moq":1,"category":"bvlgari-women-bags","status":"active","alibaba_url":null,"images":["https://xcimg.szwego.com/20240809/i1723191500_4631_0.jpg","https://xcimg.szwego.com/20240809/i1723191500_765_1.jpg","https://xcimg.szwego.com/20240809/i1723191500_2817_2.jpg","https://xcimg.szwego.com/20240809/i1723191500_5574_3.jpg","https://xcimg.szwego.com/20240809/i1723191500_2934_4.jpg"],"created_at":"2024-09-27T06:51:04.156Z"},{"id":"item-4a162d0a729e","sku":"_dmTmT6jyyxMWIM5z_kgQKCG1223yvAqDXLLjodQ","name_en":"Bvlgari Women Bags","name_cn":"刘雯~","specs":{"source":"wsxcme","sourceId":"_dmTmT6jyyxMWIM5z_kgQKCG1223yvAqDXLLjodQ","sourceTagId":47002756,"sourceTagName":"宝格丽/女包","rawTitle":"刘雯~"},"price":null,"currency":"CNY","moq":1,"category":"bvlgari-women-bags","status":"active","alibaba_url":null,"images":["https://xcimg.szwego.com/20230329/i1680070106_8705_0.jpg"],"created_at":"2024-09-27T06:51:04.152Z"}],"page":2,"pageSize":24,"total":97,"totalPages":5}
