{"items":[{"id":"item-83b7cd87d4ce","sku":"_dpHpHh9fNxDVk5fLKVZUMq-waGp1kiyM_x4u4cg","name_en":"『YSL 圣罗兰』","name_cn":"『YSL 圣罗兰』\n\n超超超级无敌火爆款sunset,意大利订制的牙签纹皮料,zp开模的五金,追求每一个每一个细节,高品质却不高价,跑量款~\n尺寸:22×8×16   \n型号:422906","specs":{"source":"wsxcme","sourceId":"_dpHpHh9fNxDVk5fLKVZUMq-waGp1kiyM_x4u4cg","sourceTagId":47002761,"sourceTagName":"圣罗兰/女包","modelNumber":"422906","rawTitle":"『YSL 圣罗兰』\n\n超超超级无敌火爆款sunset,意大利订制的牙签纹皮料,zp开模的五金,追求每一个每一个细节,高品质却不高价,跑量款~\n尺寸:22×8×16   \n型号:422906"},"price":null,"currency":"CNY","moq":1,"category":"ysl-women-bags","status":"active","alibaba_url":null,"images":["https://xcimg.szwego.com/20210402/i1617341885_4116_0.jpg","https://xcimg.szwego.com/20210402/i1617341885_4744_1.jpg","https://xcimg.szwego.com/20210402/i1617341885_1823_2.jpg","https://xcimg.szwego.com/20210402/i1617341885_3222_3.jpg","https://xcimg.szwego.com/20210402/i1617341885_2020_4.jpg","https://xcimg.szwego.com/20210402/i1617341885_6245_5.jpg","https://xcimg.szwego.com/20210402/i1617341885_3821_6.jpg","https://xcimg.szwego.com/20210402/i1617341885_9307_7.jpg","https://xcimg.szwego.com/20210402/i1617341885_3753_8.jpg"],"created_at":"2025-02-08T12:45:27.794Z"},{"id":"item-2f0362b3f692","sku":"_dxUxUhK34y6VsiFHWsWUOb_adAHUn9msGqGu3DQ","name_en":"『YSL 圣罗兰』","name_cn":"『YSL 圣罗兰』\n\n超超超级无敌火爆款sunset,意大利订制的牙签纹皮料,zp开模的五金,追求每一个每一个细节,高品质却不高价,跑量款~\n尺寸:22×8×16   \n型号:422906","specs":{"source":"wsxcme","sourceId":"_dxUxUhK34y6VsiFHWsWUOb_adAHUn9msGqGu3DQ","sourceTagId":47002761,"sourceTagName":"圣罗兰/女包","modelNumber":"422906","rawTitle":"『YSL 圣罗兰』\n\n超超超级无敌火爆款sunset,意大利订制的牙签纹皮料,zp开模的五金,追求每一个每一个细节,高品质却不高价,跑量款~\n尺寸:22×8×16   \n型号:422906"},"price":null,"currency":"CNY","moq":1,"category":"ysl-women-bags","status":"active","alibaba_url":null,"images":["https://xcimg.szwego.com/20210402/i1617341804_4092_0.jpg","https://xcimg.szwego.com/20210402/i1617341804_1991_1.jpg","https://xcimg.szwego.com/20210402/i1617341804_1_2.jpg","https://xcimg.szwego.com/20210402/i1617341804_669_3.jpg","https://xcimg.szwego.com/20210402/i1617341804_1727_4.jpg","https://xcimg.szwego.com/20210402/i1617341804_1263_5.jpg","https://xcimg.szwego.com/20210402/i1617341804_7494_6.jpg","https://xcimg.szwego.com/20210402/i1617341804_948_7.jpg","https://xcimg.szwego.com/20210402/i1617341804_4313_8.jpg"],"created_at":"2025-02-08T12:45:27.793Z"},{"id":"item-2f91de900a59","sku":"_dgagae5Cmotk-CqDXEzzVp3iWjplPYSN-CfuJZw","name_en":"『YSL 圣罗兰』","name_cn":"『YSL 圣罗兰』\n\n超超超级无敌火爆款sunset,意大利订制的鳄鱼纹皮料,zp开模的五金,追求每一个每一个细节,高品质却不高价,跑量款~\n尺寸:22×8×16   \n型号:422906","specs":{"source":"wsxcme","sourceId":"_dgagae5Cmotk-CqDXEzzVp3iWjplPYSN-CfuJZw","sourceTagId":47002761,"sourceTagName":"圣罗兰/女包","modelNumber":"422906","rawTitle":"『YSL 圣罗兰』\n\n超超超级无敌火爆款sunset,意大利订制的鳄鱼纹皮料,zp开模的五金,追求每一个每一个细节,高品质却不高价,跑量款~\n尺寸:22×8×16   \n型号:422906"},"price":null,"currency":"CNY","moq":1,"category":"ysl-women-bags","status":"active","alibaba_url":null,"images":["https://xcimg.szwego.com/20201124/i1606156837_1945_0.jpg","https://xcimg.szwego.com/20201124/i1606156837_3913_1.jpg","https://xcimg.szwego.com/20201124/i1606156837_1624_2.jpg","https://xcimg.szwego.com/20201124/i1606156837_7998_3.jpg","https://xcimg.szwego.com/20201124/i1606156837_7354_4.jpg","https://xcimg.szwego.com/20201124/i1606156837_1562_5.jpg","https://xcimg.szwego.com/20201124/i1606156837_5608_6.jpg","https://xcimg.szwego.com/20201124/i1606156837_3160_7.jpg","https://xcimg.szwego.com/20201124/i1606156837_2471_8.jpg"],"created_at":"2025-02-08T12:45:27.792Z"},{"id":"item-cc807c03eabf","sku":"_dG2G2FMo3rvOdlZziHn49cR8BcSgavQ7Et4V4Lw","name_en":"『YSL 圣罗兰』","name_cn":"『YSL 圣罗兰』\n\n超超超级无敌火爆款sunset,意大利订制的鳄鱼纹皮料,zp开模的五金,追求每一个每一个细节,高品质却不高价,跑量款~\n尺寸:22×8×16   \n型号:422906","specs":{"source":"wsxcme","sourceId":"_dG2G2FMo3rvOdlZziHn49cR8BcSgavQ7Et4V4Lw","sourceTagId":47002761,"sourceTagName":"圣罗兰/女包","modelNumber":"422906","rawTitle":"『YSL 圣罗兰』\n\n超超超级无敌火爆款sunset,意大利订制的鳄鱼纹皮料,zp开模的五金,追求每一个每一个细节,高品质却不高价,跑量款~\n尺寸:22×8×16   \n型号:422906"},"price":null,"currency":"CNY","moq":1,"category":"ysl-women-bags","status":"active","alibaba_url":null,"images":["https://xcimg.szwego.com/20201124/i1606156446_6030_0.jpg","https://xcimg.szwego.com/20201124/i1606156446_6536_1.jpg","https://xcimg.szwego.com/20201124/i1606156446_2943_2.jpg","https://xcimg.szwego.com/20201124/i1606156446_7705_3.jpg","https://xcimg.szwego.com/20201124/i1606156446_6331_4.jpg","https://xcimg.szwego.com/20201124/i1606156446_2770_5.jpg","https://xcimg.szwego.com/20201124/i1606156446_1733_6.jpg","https://xcimg.szwego.com/20201124/i1606156446_9173_7.jpg","https://xcimg.szwego.com/20201124/i1606156446_8577_8.jpg"],"created_at":"2025-02-08T12:45:27.791Z"},{"id":"item-e3426194e501","sku":"_dmKmKUwm-jxD-DdQqFycmm8PsRUTyE0ns-OqqFQ","name_en":"『YSL 圣罗兰』","name_cn":"『YSL 圣罗兰』\n\n超超超级无敌火爆款sunset,意大利订制的鳄鱼纹皮料,zp开模的五金,追求每一个每一个细节,高品质却不高价,跑量款~\n尺寸:22×8×16   \n型号:422906","specs":{"source":"wsxcme","sourceId":"_dmKmKUwm-jxD-DdQqFycmm8PsRUTyE0ns-OqqFQ","sourceTagId":47002761,"sourceTagName":"圣罗兰/女包","modelNumber":"422906","rawTitle":"『YSL 圣罗兰』\n\n超超超级无敌火爆款sunset,意大利订制的鳄鱼纹皮料,zp开模的五金,追求每一个每一个细节,高品质却不高价,跑量款~\n尺寸:22×8×16   \n型号:422906"},"price":null,"currency":"CNY","moq":1,"category":"ysl-women-bags","status":"active","alibaba_url":null,"images":["https://xcimg.szwego.com/20201124/i1606156333_7158_0.jpg","https://xcimg.szwego.com/20201124/i1606156333_3400_1.jpg","https://xcimg.szwego.com/20201124/i1606156333_5460_2.jpg","https://xcimg.szwego.com/20201124/i1606156333_2700_3.jpg","https://xcimg.szwego.com/20201124/i1606156333_1561_4.jpg","https://xcimg.szwego.com/20201124/i1606156333_2658_5.jpg","https://xcimg.szwego.com/20201124/i1606156333_6756_6.jpg","https://xcimg.szwego.com/20201124/i1606156333_5139_7.jpg","https://xcimg.szwego.com/20201124/i1606156333_3538_8.jpg"],"created_at":"2025-02-08T12:45:27.790Z"},{"id":"item-db3a9adfd1b1","sku":"_dMTMTXImK6H2yoccblDtsQ0Hz63cbVqnpJyU9zA","name_en":"『YSL 圣罗兰』","name_cn":"『YSL 圣罗兰』\n\n超超超级无敌火爆款sunset,意大利订制的鳄鱼纹皮料,zp开模的五金,追求每一个每一个细节,高品质却不高价,跑量款~\n尺寸:22×8×16   \n型号:422906","specs":{"source":"wsxcme","sourceId":"_dMTMTXImK6H2yoccblDtsQ0Hz63cbVqnpJyU9zA","sourceTagId":47002761,"sourceTagName":"圣罗兰/女包","modelNumber":"422906","rawTitle":"『YSL 圣罗兰』\n\n超超超级无敌火爆款sunset,意大利订制的鳄鱼纹皮料,zp开模的五金,追求每一个每一个细节,高品质却不高价,跑量款~\n尺寸:22×8×16   \n型号:422906"},"price":null,"currency":"CNY","moq":1,"category":"ysl-women-bags","status":"active","alibaba_url":null,"images":["https://xcimg.szwego.com/20201124/i1606156091_3553_0.jpg","https://xcimg.szwego.com/20201124/i1606156091_7073_1.jpg","https://xcimg.szwego.com/20201124/i1606156091_6551_2.jpg","https://xcimg.szwego.com/20201124/i1606156091_3855_3.jpg","https://xcimg.szwego.com/20201124/i1606156091_3992_4.jpg","https://xcimg.szwego.com/20201124/i1606156091_8164_5.jpg","https://xcimg.szwego.com/20201124/i1606156091_2456_6.jpg","https://xcimg.szwego.com/20201124/i1606156091_9941_7.jpg","https://xcimg.szwego.com/20201124/i1606156091_2540_8.jpg"],"created_at":"2025-02-08T12:45:27.789Z"},{"id":"item-d576ba59a1a5","sku":"_dmQmQkI5vdDKM5xSrmPp__dltP21XkxuXuoqCtw","name_en":"『YSL 圣罗兰』","name_cn":"『YSL 圣罗兰』\n\n超超超级无敌火爆款sunset,意大利订制的鳄鱼纹皮料,zp开模的五金,追求每一个每一个细节,高品质却不高价,跑量款~\n尺寸:22×8×16   \n型号:422906","specs":{"source":"wsxcme","sourceId":"_dmQmQkI5vdDKM5xSrmPp__dltP21XkxuXuoqCtw","sourceTagId":47002761,"sourceTagName":"圣罗兰/女包","modelNumber":"422906","rawTitle":"『YSL 圣罗兰』\n\n超超超级无敌火爆款sunset,意大利订制的鳄鱼纹皮料,zp开模的五金,追求每一个每一个细节,高品质却不高价,跑量款~\n尺寸:22×8×16   \n型号:422906"},"price":null,"currency":"CNY","moq":1,"category":"ysl-women-bags","status":"active","alibaba_url":null,"images":["https://xcimg.szwego.com/20201124/i1606155969_1278_0.jpg","https://xcimg.szwego.com/20201124/i1606155969_6198_1.jpg","https://xcimg.szwego.com/20201124/i1606155969_1937_2.jpg","https://xcimg.szwego.com/20201124/i1606155969_9901_3.jpg","https://xcimg.szwego.com/20201124/i1606155969_7814_4.jpg","https://xcimg.szwego.com/20201124/i1606155969_885_5.jpg","https://xcimg.szwego.com/20201124/i1606155969_63_6.jpg","https://xcimg.szwego.com/20201124/i1606155969_3279_7.jpg","https://xcimg.szwego.com/20201124/i1606155969_8552_8.jpg"],"created_at":"2025-02-08T12:45:27.788Z"},{"id":"item-fbe922d14a3c","sku":"_dafafVU2MUTXZw3JO4YqbNqk6P3UibUL3-aFapg","name_en":"『YSL 圣罗兰』","name_cn":"『YSL 圣罗兰』\n\n超超超级无敌火爆款sunset,意大利订制的鳄鱼纹皮料,zp开模的五金,追求每一个每一个细节,高品质却不高价,跑量款~ 尺寸:22×8×16 型号:422906","specs":{"source":"wsxcme","sourceId":"_dafafVU2MUTXZw3JO4YqbNqk6P3UibUL3-aFapg","sourceTagId":47002761,"sourceTagName":"圣罗兰/女包","modelNumber":"422906","rawTitle":"『YSL 圣罗兰』\n\n超超超级无敌火爆款sunset,意大利订制的鳄鱼纹皮料,zp开模的五金,追求每一个每一个细节,高品质却不高价,跑量款~ 尺寸:22×8×16 型号:422906"},"price":null,"currency":"CNY","moq":1,"category":"ysl-women-bags","status":"active","alibaba_url":null,"images":["https://xcimg.szwego.com/20220425/a1650897820388_1243.jpg","https://xcimg.szwego.com/20220425/a1650897820548_1636.jpg","https://xcimg.szwego.com/20220425/a1650897820738_0681.jpg","https://xcimg.szwego.com/20220425/a1650897820946_0521.jpg","https://xcimg.szwego.com/20220425/a1650897821135_5070.jpg","https://xcimg.szwego.com/20220425/a1650897821305_5052.jpg","https://xcimg.szwego.com/20220425/a1650897821455_6331.jpg","https://xcimg.szwego.com/20220425/a1650897821583_4646.jpg","https://xcimg.szwego.com/20220425/a1650897821847_5502.jpg"],"created_at":"2025-02-08T12:45:27.787Z"},{"id":"item-f8b4aa2d2a69","sku":"_dtFtFbTs95TlCc7xyM8jzC2QIQ9Mr_68UT6xghw","name_en":"『YSL 圣罗兰』","name_cn":"『YSL 圣罗兰』\n\n超超超级无敌火爆款sunset,意大利订制的鳄鱼纹皮料,zp开模的五金,追求每一个每一个细节,高品质却不高价,跑量款~ 尺寸:22×8×16 型号:422906","specs":{"source":"wsxcme","sourceId":"_dtFtFbTs95TlCc7xyM8jzC2QIQ9Mr_68UT6xghw","sourceTagId":47002761,"sourceTagName":"圣罗兰/女包","modelNumber":"422906","rawTitle":"『YSL 圣罗兰』\n\n超超超级无敌火爆款sunset,意大利订制的鳄鱼纹皮料,zp开模的五金,追求每一个每一个细节,高品质却不高价,跑量款~ 尺寸:22×8×16 型号:422906"},"price":null,"currency":"CNY","moq":1,"category":"ysl-women-bags","status":"active","alibaba_url":null,"images":["https://xcimg.szwego.com/20220425/a1650897798520_2243.jpg","https://xcimg.szwego.com/20220425/a1650897798648_4742.jpg","https://xcimg.szwego.com/20220425/a1650897798784_5013.jpg","https://xcimg.szwego.com/20220425/a1650897798911_7520.jpg","https://xcimg.szwego.com/20220425/a1650897799071_7088.jpg","https://xcimg.szwego.com/20220425/a1650897799257_1423.jpg","https://xcimg.szwego.com/20220425/a1650897799471_6527.jpg","https://xcimg.szwego.com/20220425/a1650897799580_3241.jpg","https://xcimg.szwego.com/20220425/a1650897799681_0481.jpg"],"created_at":"2025-02-08T12:45:27.786Z"},{"id":"item-26705d3793ce","sku":"_dsMsM5W-KeCXzHs9BJmBiAwuqJEiF1dS27v20rw","name_en":"『YSL 圣罗兰』","name_cn":"『YSL 圣罗兰』\n\n超超超级无敌火爆款sunset,意大利订制的鳄鱼纹皮料,zp开模的五金,追求每一个每一个细节,高品质却不高价,跑量款~\n尺寸:22×8×16   \n型号:422906","specs":{"source":"wsxcme","sourceId":"_dsMsM5W-KeCXzHs9BJmBiAwuqJEiF1dS27v20rw","sourceTagId":47002761,"sourceTagName":"圣罗兰/女包","modelNumber":"422906","rawTitle":"『YSL 圣罗兰』\n\n超超超级无敌火爆款sunset,意大利订制的鳄鱼纹皮料,zp开模的五金,追求每一个每一个细节,高品质却不高价,跑量款~\n尺寸:22×8×16   \n型号:422906"},"price":null,"currency":"CNY","moq":1,"category":"ysl-women-bags","status":"active","alibaba_url":null,"images":["https://xcimg.szwego.com/20201124/i1606155228_5593_0.jpg","https://xcimg.szwego.com/20201124/i1606155228_6525_1.jpg","https://xcimg.szwego.com/20201124/i1606155228_2540_2.jpg","https://xcimg.szwego.com/20201124/i1606155228_4498_3.jpg","https://xcimg.szwego.com/20201124/i1606155228_7784_4.jpg","https://xcimg.szwego.com/20201124/i1606155228_8855_5.jpg","https://xcimg.szwego.com/20201124/i1606155228_83_6.jpg","https://xcimg.szwego.com/20201124/i1606155228_2874_7.jpg","https://xcimg.szwego.com/20201124/i1606155228_8813_8.jpg"],"created_at":"2025-02-08T12:45:27.785Z"},{"id":"item-81142bc8b272","sku":"_doWoWHWw_LOnxOhYfr11Oui1IxhCqXq6AgKnoHg","name_en":"『YSL 圣罗兰』","name_cn":"『YSL 圣罗兰』\n\n超超超级无敌火爆款sunset,意大利订制的鳄鱼纹皮料,zp开模的五金,追求每一个每一个细节,高品质却不高价,跑量款~\n尺寸:22×8×16   \n型号:422906","specs":{"source":"wsxcme","sourceId":"_doWoWHWw_LOnxOhYfr11Oui1IxhCqXq6AgKnoHg","sourceTagId":47002761,"sourceTagName":"圣罗兰/女包","modelNumber":"422906","rawTitle":"『YSL 圣罗兰』\n\n超超超级无敌火爆款sunset,意大利订制的鳄鱼纹皮料,zp开模的五金,追求每一个每一个细节,高品质却不高价,跑量款~\n尺寸:22×8×16   \n型号:422906"},"price":null,"currency":"CNY","moq":1,"category":"ysl-women-bags","status":"active","alibaba_url":null,"images":["https://xcimg.szwego.com/20201124/i1606155164_3187_0.jpg","https://xcimg.szwego.com/20201124/i1606155164_9520_1.jpg","https://xcimg.szwego.com/20201124/i1606155164_2246_2.jpg","https://xcimg.szwego.com/20201124/i1606155164_3677_3.jpg","https://xcimg.szwego.com/20201124/i1606155164_9517_4.jpg","https://xcimg.szwego.com/20201124/i1606155164_5260_5.jpg","https://xcimg.szwego.com/20201124/i1606155164_4442_6.jpg","https://xcimg.szwego.com/20201124/i1606155164_6659_7.jpg","https://xcimg.szwego.com/20201124/i1606155164_6961_8.jpg"],"created_at":"2025-02-08T12:45:27.784Z"},{"id":"item-5632cc0e70b4","sku":"_dzEzEsGXhhpbm7uEmru8DGPjAtx6aZkeCxjZhvg","name_en":"『YSL 圣罗兰』","name_cn":"『YSL 圣罗兰』\n\n超超超级无敌火爆款sunset,意大利订制的鳄鱼纹皮料,zp开模的五金,追求每一个每一个细节,高品质却不高价,跑量款~\n尺寸:22×8×16   \n型号:422906","specs":{"source":"wsxcme","sourceId":"_dzEzEsGXhhpbm7uEmru8DGPjAtx6aZkeCxjZhvg","sourceTagId":47002761,"sourceTagName":"圣罗兰/女包","modelNumber":"422906","rawTitle":"『YSL 圣罗兰』\n\n超超超级无敌火爆款sunset,意大利订制的鳄鱼纹皮料,zp开模的五金,追求每一个每一个细节,高品质却不高价,跑量款~\n尺寸:22×8×16   \n型号:422906"},"price":null,"currency":"CNY","moq":1,"category":"ysl-women-bags","status":"active","alibaba_url":null,"images":["https://xcimg.szwego.com/20201124/i1606154953_1453_0.jpg","https://xcimg.szwego.com/20201124/i1606154953_2143_1.jpg","https://xcimg.szwego.com/20201124/i1606154953_6075_2.jpg","https://xcimg.szwego.com/20201124/i1606154953_4668_3.jpg","https://xcimg.szwego.com/20201124/i1606154953_3494_4.jpg","https://xcimg.szwego.com/20201124/i1606154953_9945_5.jpg","https://xcimg.szwego.com/20201124/i1606154953_9673_6.jpg","https://xcimg.szwego.com/20201124/i1606154953_405_7.jpg","https://xcimg.szwego.com/20201124/i1606154953_4827_8.jpg"],"created_at":"2025-02-08T12:45:27.783Z"},{"id":"item-3e44b3d241a7","sku":"_dQTQTfCAa_v61h2f_mSp2EeWV744iczONK5e_1g","name_en":"『YSL 圣罗兰』","name_cn":"『YSL 圣罗兰』\n\n超超超级无敌火爆款sunset,意大利订制的鳄鱼纹皮料,zp开模的五金,追求每一个每一个细节,高品质却不高价,跑量款~\n尺寸:22×8×16   \n型号:422906","specs":{"source":"wsxcme","sourceId":"_dQTQTfCAa_v61h2f_mSp2EeWV744iczONK5e_1g","sourceTagId":47002761,"sourceTagName":"圣罗兰/女包","modelNumber":"422906","rawTitle":"『YSL 圣罗兰』\n\n超超超级无敌火爆款sunset,意大利订制的鳄鱼纹皮料,zp开模的五金,追求每一个每一个细节,高品质却不高价,跑量款~\n尺寸:22×8×16   \n型号:422906"},"price":null,"currency":"CNY","moq":1,"category":"ysl-women-bags","status":"active","alibaba_url":null,"images":["https://xcimg.szwego.com/20201124/i1606154896_661_0.jpg","https://xcimg.szwego.com/20201124/i1606154896_5567_1.jpg","https://xcimg.szwego.com/20201124/i1606154896_7971_2.jpg","https://xcimg.szwego.com/20201124/i1606154896_684_3.jpg","https://xcimg.szwego.com/20201124/i1606154896_1512_4.jpg","https://xcimg.szwego.com/20201124/i1606154896_9514_5.jpg","https://xcimg.szwego.com/20201124/i1606154896_7909_6.jpg","https://xcimg.szwego.com/20201124/i1606154896_7185_7.jpg","https://xcimg.szwego.com/20201124/i1606154896_8457_8.jpg"],"created_at":"2025-02-08T12:45:27.782Z"},{"id":"item-640a4b236795","sku":"_dlOlOQCpZN7eZaEPBpsMfBrAkbKzlrUWRFu4Dsg","name_en":"『YSL 圣罗兰』","name_cn":"『YSL 圣罗兰』\n\n超超超级无敌火爆款sunset,意大利订制的鳄鱼纹皮料,zp开模的五金,追求每一个每一个细节,高品质却不高价,跑量款~\n尺寸:22×8×16   \n型号:422906","specs":{"source":"wsxcme","sourceId":"_dlOlOQCpZN7eZaEPBpsMfBrAkbKzlrUWRFu4Dsg","sourceTagId":47002761,"sourceTagName":"圣罗兰/女包","modelNumber":"422906","rawTitle":"『YSL 圣罗兰』\n\n超超超级无敌火爆款sunset,意大利订制的鳄鱼纹皮料,zp开模的五金,追求每一个每一个细节,高品质却不高价,跑量款~\n尺寸:22×8×16   \n型号:422906"},"price":null,"currency":"CNY","moq":1,"category":"ysl-women-bags","status":"active","alibaba_url":null,"images":["https://xcimg.szwego.com/20201124/i1606154844_5394_0.jpg","https://xcimg.szwego.com/20201124/i1606154844_4814_1.jpg","https://xcimg.szwego.com/20201124/i1606154844_2721_2.jpg","https://xcimg.szwego.com/20201124/i1606154844_7513_3.jpg","https://xcimg.szwego.com/20201124/i1606154844_2820_4.jpg","https://xcimg.szwego.com/20201124/i1606154844_9082_5.jpg","https://xcimg.szwego.com/20201124/i1606154844_4194_6.jpg","https://xcimg.szwego.com/20201124/i1606154844_5532_7.jpg","https://xcimg.szwego.com/20201124/i1606154844_9533_8.jpg"],"created_at":"2025-02-08T12:45:27.781Z"},{"id":"item-ff37a1770d9a","sku":"_dBNBNdiPSIHTexv1FkAz_ECBDaDoO81Ip_NNGQw","name_en":"『YSL 圣罗兰』","name_cn":"『YSL 圣罗兰』\n\n超超超级无敌火爆款sunset,意大利订制的鳄鱼纹皮料,zp开模的五金,追求每一个每一个细节,高品质却不高价,跑量款~\n尺寸:22×8×16   \n型号:422906","specs":{"source":"wsxcme","sourceId":"_dBNBNdiPSIHTexv1FkAz_ECBDaDoO81Ip_NNGQw","sourceTagId":47002761,"sourceTagName":"圣罗兰/女包","modelNumber":"422906","rawTitle":"『YSL 圣罗兰』\n\n超超超级无敌火爆款sunset,意大利订制的鳄鱼纹皮料,zp开模的五金,追求每一个每一个细节,高品质却不高价,跑量款~\n尺寸:22×8×16   \n型号:422906"},"price":null,"currency":"CNY","moq":1,"category":"ysl-women-bags","status":"active","alibaba_url":null,"images":["https://xcimg.szwego.com/20201124/i1606154599_4659_0.jpg","https://xcimg.szwego.com/20201124/i1606154599_5256_1.jpg","https://xcimg.szwego.com/20201124/i1606154599_7688_2.jpg","https://xcimg.szwego.com/20201124/i1606154599_1854_3.jpg","https://xcimg.szwego.com/20201124/i1606154599_3885_4.jpg","https://xcimg.szwego.com/20201124/i1606154599_8965_5.jpg","https://xcimg.szwego.com/20201124/i1606154599_8433_6.jpg","https://xcimg.szwego.com/20201124/i1606154599_1293_7.jpg","https://xcimg.szwego.com/20201124/i1606154599_7627_8.jpg"],"created_at":"2025-02-08T12:45:27.780Z"},{"id":"item-44d8f0191b7b","sku":"_dbsbsbT36mJjVhS4mJHN8WJ2Dc_e3l1DXfaUE0w","name_en":"『YSL 圣罗兰』","name_cn":"『YSL 圣罗兰』\n\n超超超级无敌火爆款sunset,意大利订制的鳄鱼纹皮料,zp开模的五金,追求每一个每一个细节,高品质却不高价,跑量款~\n尺寸:22×8×16   \n型号:422906","specs":{"source":"wsxcme","sourceId":"_dbsbsbT36mJjVhS4mJHN8WJ2Dc_e3l1DXfaUE0w","sourceTagId":47002761,"sourceTagName":"圣罗兰/女包","modelNumber":"422906","rawTitle":"『YSL 圣罗兰』\n\n超超超级无敌火爆款sunset,意大利订制的鳄鱼纹皮料,zp开模的五金,追求每一个每一个细节,高品质却不高价,跑量款~\n尺寸:22×8×16   \n型号:422906"},"price":null,"currency":"CNY","moq":1,"category":"ysl-women-bags","status":"active","alibaba_url":null,"images":["https://xcimg.szwego.com/20220425/a1650897464953_2476.jpg","https://xcimg.szwego.com/20220425/a1650897465125_8117.jpg","https://xcimg.szwego.com/20220425/a1650897465364_8111.jpg","https://xcimg.szwego.com/20220425/a1650897465477_7318.jpg","https://xcimg.szwego.com/20220425/a1650897465617_0266.jpg","https://xcimg.szwego.com/20220425/a1650897465794_8276.jpg","https://xcimg.szwego.com/20220425/a1650897465979_8118.jpg","https://xcimg.szwego.com/20220425/a1650897466097_1027.jpg","https://xcimg.szwego.com/20220425/a1650897466205_3241.jpg"],"created_at":"2025-02-08T12:45:27.779Z"},{"id":"item-ce34208978fe","sku":"_d9m9mftPEmb1X8-k_jWzSDzyLiDIJ46Gc0icOPg","name_en":"『YSL 圣罗兰』","name_cn":"『YSL 圣罗兰』\n\n超超超级无敌火爆款sunset,意大利订制的鳄鱼纹皮料,zp开模的五金,追求每一个每一个细节,高品质却不高价,跑量款~ 尺寸:22×8×16 型号:422906","specs":{"source":"wsxcme","sourceId":"_d9m9mftPEmb1X8-k_jWzSDzyLiDIJ46Gc0icOPg","sourceTagId":47002761,"sourceTagName":"圣罗兰/女包","modelNumber":"422906","rawTitle":"『YSL 圣罗兰』\n\n超超超级无敌火爆款sunset,意大利订制的鳄鱼纹皮料,zp开模的五金,追求每一个每一个细节,高品质却不高价,跑量款~ 尺寸:22×8×16 型号:422906"},"price":null,"currency":"CNY","moq":1,"category":"ysl-women-bags","status":"active","alibaba_url":null,"images":["https://xcimg.szwego.com/20220425/a1650897489225_0427.jpg","https://xcimg.szwego.com/20220425/a1650897489361_0206.jpg","https://xcimg.szwego.com/20220425/a1650897489475_8221.jpg","https://xcimg.szwego.com/20220425/a1650897489572_1424.jpg","https://xcimg.szwego.com/20220425/a1650897489704_6003.jpg","https://xcimg.szwego.com/20220425/a1650897489857_5036.jpg","https://xcimg.szwego.com/20220425/a1650897489984_2460.jpg","https://xcimg.szwego.com/20220425/a1650897490158_3026.jpg","https://xcimg.szwego.com/20220425/a1650897490356_7582.jpg"],"created_at":"2025-02-08T12:45:27.778Z"},{"id":"item-1ef94ad2e842","sku":"_d4F4FOTLKMbWrlfi15kz_u5ucHpYkrCa6n7KQxg","name_en":"『YSL 圣罗兰』","name_cn":"『YSL 圣罗兰』\n\n超超超级无敌火爆款sunset,意大利订制的鳄鱼纹皮料,zp开模的五金,追求每一个每一个细节,高品质却不高价,跑量款~ 尺寸:22×8×16 型号:422906","specs":{"source":"wsxcme","sourceId":"_d4F4FOTLKMbWrlfi15kz_u5ucHpYkrCa6n7KQxg","sourceTagId":47002761,"sourceTagName":"圣罗兰/女包","modelNumber":"422906","rawTitle":"『YSL 圣罗兰』\n\n超超超级无敌火爆款sunset,意大利订制的鳄鱼纹皮料,zp开模的五金,追求每一个每一个细节,高品质却不高价,跑量款~ 尺寸:22×8×16 型号:422906"},"price":null,"currency":"CNY","moq":1,"category":"ysl-women-bags","status":"active","alibaba_url":null,"images":["https://xcimg.szwego.com/20220520/a1653054773510_3313.jpg","https://xcimg.szwego.com/20220520/a1653054773624_6340.jpg","https://xcimg.szwego.com/20220520/a1653054773781_4801.jpg","https://xcimg.szwego.com/20220520/a1653054773897_0353.jpg","https://xcimg.szwego.com/20220520/a1653054774104_2518.jpg","https://xcimg.szwego.com/20220520/a1653054774273_4644.jpg","https://xcimg.szwego.com/20220520/a1653054774415_6061.jpg","https://xcimg.szwego.com/20220520/a1653054774540_8763.jpg","https://xcimg.szwego.com/20220520/a1653054774742_1326.jpg"],"created_at":"2025-02-08T12:45:27.777Z"},{"id":"item-d16de9e3cb4b","sku":"_d6W6WIW3WKXd7EdCqL1rZgRMlNJ_WG8uaGjDEaw","name_en":"『YSL 圣罗兰』","name_cn":"『YSL 圣罗兰』\n\nLOULOU PUFFER 绗缝小羊皮包,100%小羊皮制作,手感柔软细腻,犹如怀抱云朵☁️般的感受;饰以 YSL 金属标志、哑光雾面的质感及其别致、银色拉丝金属饰件罗缎衬里磁性扣封口一个拉链内袋肩带长度:52厘米折叠后肩带长度:28厘米\n尺寸:29x17x11cm \n型号:577476","specs":{"source":"wsxcme","sourceId":"_d6W6WIW3WKXd7EdCqL1rZgRMlNJ_WG8uaGjDEaw","sourceTagId":47002761,"sourceTagName":"圣罗兰/女包","modelNumber":"577476","dimensions":{"lengthCm":29,"heightCm":17,"widthCm":11},"rawTitle":"『YSL 圣罗兰』\n\nLOULOU PUFFER 绗缝小羊皮包,100%小羊皮制作,手感柔软细腻,犹如怀抱云朵☁️般的感受;饰以 YSL 金属标志、哑光雾面的质感及其别致、银色拉丝金属饰件罗缎衬里磁性扣封口一个拉链内袋肩带长度:52厘米折叠后肩带长度:28厘米\n尺寸:29x17x11cm \n型号:577476"},"price":null,"currency":"CNY","moq":1,"category":"ysl-women-bags","status":"active","alibaba_url":null,"images":["https://xcimg.szwego.com/20211103/i1635924992_1675_0.jpg","https://xcimg.szwego.com/20211103/i1635924992_3393_1.jpg","https://xcimg.szwego.com/20211103/i1635924992_9204_2.jpg","https://xcimg.szwego.com/20211103/i1635924992_4185_3.jpg","https://xcimg.szwego.com/20211103/i1635924992_5894_4.jpg","https://xcimg.szwego.com/20211103/i1635924992_9292_5.jpg","https://xcimg.szwego.com/20211103/i1635924992_1136_6.jpg","https://xcimg.szwego.com/20211103/i1635924992_6061_7.jpg","https://xcimg.szwego.com/20211103/i1635924992_8411_8.jpg"],"created_at":"2025-02-08T12:45:27.776Z"},{"id":"item-e50c2ee7ed43","sku":"_djJjJhgXLMKQtBH9G2iJlhQdrdDWPASY5i02aMw","name_en":"『YSL 圣罗兰』","name_cn":"『YSL 圣罗兰』\n\nLOULOU PUFFER 绗缝小羊皮包,100%小羊皮制作,手感柔软细腻,犹如怀抱云朵☁️般的感受;饰以 YSL 金属标志、哑光雾面的质感及其别致、银色拉丝金属饰件罗缎衬里磁性扣封口一个拉链内袋肩带长度:52厘米折叠后肩带长度:28厘米  \n尺寸:29x17x11cm\n型号:577476","specs":{"source":"wsxcme","sourceId":"_djJjJhgXLMKQtBH9G2iJlhQdrdDWPASY5i02aMw","sourceTagId":47002761,"sourceTagName":"圣罗兰/女包","modelNumber":"577476","dimensions":{"lengthCm":29,"heightCm":17,"widthCm":11},"rawTitle":"『YSL 圣罗兰』\n\nLOULOU PUFFER 绗缝小羊皮包,100%小羊皮制作,手感柔软细腻,犹如怀抱云朵☁️般的感受;饰以 YSL 金属标志、哑光雾面的质感及其别致、银色拉丝金属饰件罗缎衬里磁性扣封口一个拉链内袋肩带长度:52厘米折叠后肩带长度:28厘米  \n尺寸:29x17x11cm\n型号:577476"},"price":null,"currency":"CNY","moq":1,"category":"ysl-women-bags","status":"active","alibaba_url":null,"images":["https://xcimg.szwego.com/20211103/i1635925188_5165_0.jpg","https://xcimg.szwego.com/20211103/i1635925188_4418_1.jpg","https://xcimg.szwego.com/20211103/i1635925188_3167_2.jpg","https://xcimg.szwego.com/20211103/i1635925188_2924_3.jpg","https://xcimg.szwego.com/20211103/i1635925188_213_4.jpg","https://xcimg.szwego.com/20211103/i1635925188_3986_5.jpg","https://xcimg.szwego.com/20211103/i1635925188_9138_6.jpg","https://xcimg.szwego.com/20211103/i1635925188_6710_7.jpg","https://xcimg.szwego.com/20211103/i1635925188_8093_8.jpg"],"created_at":"2025-02-08T12:45:27.775Z"},{"id":"item-fae6056a0393","sku":"_dhPhPljHNvLA4El-wVyD9RJKYCcaJpXpwoyfGzA","name_en":"『YSL 圣罗兰』","name_cn":"『YSL 圣罗兰』\n\nLOULOU PUFFER 绗缝小羊皮包,100%小羊皮制作,手感柔软细腻,犹如怀抱云朵☁️般的感受;饰以 YSL 金属标志、哑光雾面的质感及其别致、银色拉丝金属饰件罗缎衬里磁性扣封口一个拉链内袋肩带长度:52厘米折叠后肩带长度:28厘米  \n尺寸:29x17x11cm\n型号:577476","specs":{"source":"wsxcme","sourceId":"_dhPhPljHNvLA4El-wVyD9RJKYCcaJpXpwoyfGzA","sourceTagId":47002761,"sourceTagName":"圣罗兰/女包","modelNumber":"577476","dimensions":{"lengthCm":29,"heightCm":17,"widthCm":11},"rawTitle":"『YSL 圣罗兰』\n\nLOULOU PUFFER 绗缝小羊皮包,100%小羊皮制作,手感柔软细腻,犹如怀抱云朵☁️般的感受;饰以 YSL 金属标志、哑光雾面的质感及其别致、银色拉丝金属饰件罗缎衬里磁性扣封口一个拉链内袋肩带长度:52厘米折叠后肩带长度:28厘米  \n尺寸:29x17x11cm\n型号:577476"},"price":null,"currency":"CNY","moq":1,"category":"ysl-women-bags","status":"active","alibaba_url":null,"images":["https://xcimg.szwego.com/20211103/i1635925569_5730_0.jpg","https://xcimg.szwego.com/20211103/i1635925569_6476_1.jpg","https://xcimg.szwego.com/20211103/i1635925569_4277_2.jpg","https://xcimg.szwego.com/20211103/i1635925569_5687_3.jpg","https://xcimg.szwego.com/20211103/i1635925569_92_4.jpg","https://xcimg.szwego.com/20211103/i1635925569_8449_5.jpg","https://xcimg.szwego.com/20211103/i1635925569_2979_6.jpg","https://xcimg.szwego.com/20211103/i1635925569_9871_7.jpg","https://xcimg.szwego.com/20211103/i1635925569_7836_8.jpg"],"created_at":"2025-02-08T12:45:27.774Z"},{"id":"item-7354a1c1ca0e","sku":"_dewewPIRlBC9XFBUAn3LDmhT66Y_r1FYSsmPQdQ","name_en":"『YSL 圣罗兰』","name_cn":"『YSL 圣罗兰』\n\nLOULOU PUFFER 绗缝小羊皮包,100%小羊皮制作,手感柔软细腻,犹如怀抱云朵☁️般的感受;饰以 YSL 金属标志、哑光雾面的质感及其别致、银色拉丝金属饰件罗缎衬里磁性扣封口一个拉链内袋肩带长度:52厘米折叠后肩带长度:28厘米  \n尺寸:29x17x11cm\n型号:577476","specs":{"source":"wsxcme","sourceId":"_dewewPIRlBC9XFBUAn3LDmhT66Y_r1FYSsmPQdQ","sourceTagId":47002761,"sourceTagName":"圣罗兰/女包","modelNumber":"577476","dimensions":{"lengthCm":29,"heightCm":17,"widthCm":11},"rawTitle":"『YSL 圣罗兰』\n\nLOULOU PUFFER 绗缝小羊皮包,100%小羊皮制作,手感柔软细腻,犹如怀抱云朵☁️般的感受;饰以 YSL 金属标志、哑光雾面的质感及其别致、银色拉丝金属饰件罗缎衬里磁性扣封口一个拉链内袋肩带长度:52厘米折叠后肩带长度:28厘米  \n尺寸:29x17x11cm\n型号:577476"},"price":null,"currency":"CNY","moq":1,"category":"ysl-women-bags","status":"active","alibaba_url":null,"images":["https://xcimg.szwego.com/20211103/i1635925470_3220_0.jpg","https://xcimg.szwego.com/20211103/i1635925470_8028_1.jpg","https://xcimg.szwego.com/20211103/i1635925470_1276_2.jpg","https://xcimg.szwego.com/20211103/i1635925470_790_3.jpg","https://xcimg.szwego.com/20211103/i1635925470_8996_4.jpg","https://xcimg.szwego.com/20211103/i1635925470_6904_5.jpg","https://xcimg.szwego.com/20211103/i1635925470_9671_6.jpg","https://xcimg.szwego.com/20211103/i1635925470_2875_7.jpg","https://xcimg.szwego.com/20211103/i1635925470_7927_8.jpg"],"created_at":"2025-02-08T12:45:27.773Z"},{"id":"item-ce25863a3bc6","sku":"_dnknkJEio0agbEqGRmG9Rgsw4pgQAA8lqbuhjjA","name_en":"『YSL 圣罗兰』","name_cn":"『YSL 圣罗兰』\n\nLOULOU PUFFER 绗缝小羊皮包,100%小羊皮制作,手感柔软细腻,犹如怀抱云朵☁️般的感受;饰以 YSL 金属标志、哑光雾面的质感及其别致、银色拉丝金属饰件罗缎衬里磁性扣封口一个拉链内袋肩带长度:52厘米折叠后肩带长度:28厘米 \n尺寸:29x17x11cm\n型号:577476","specs":{"source":"wsxcme","sourceId":"_dnknkJEio0agbEqGRmG9Rgsw4pgQAA8lqbuhjjA","sourceTagId":47002761,"sourceTagName":"圣罗兰/女包","modelNumber":"577476","dimensions":{"lengthCm":29,"heightCm":17,"widthCm":11},"rawTitle":"『YSL 圣罗兰』\n\nLOULOU PUFFER 绗缝小羊皮包,100%小羊皮制作,手感柔软细腻,犹如怀抱云朵☁️般的感受;饰以 YSL 金属标志、哑光雾面的质感及其别致、银色拉丝金属饰件罗缎衬里磁性扣封口一个拉链内袋肩带长度:52厘米折叠后肩带长度:28厘米 \n尺寸:29x17x11cm\n型号:577476"},"price":null,"currency":"CNY","moq":1,"category":"ysl-women-bags","status":"active","alibaba_url":null,"images":["https://xcimg.szwego.com/20211103/i1635925288_7755_0.jpg","https://xcimg.szwego.com/20211103/i1635925288_1348_1.jpg","https://xcimg.szwego.com/20211103/i1635925288_1948_2.jpg","https://xcimg.szwego.com/20211103/i1635925288_4813_3.jpg","https://xcimg.szwego.com/20211103/i1635925288_408_4.jpg","https://xcimg.szwego.com/20211103/i1635925288_8135_5.jpg","https://xcimg.szwego.com/20211103/i1635925288_8343_6.jpg","https://xcimg.szwego.com/20211103/i1635925288_6673_7.jpg"],"created_at":"2025-02-08T12:45:27.772Z"},{"id":"item-00769bb94b1e","sku":"_d9696qmo_NoL6VSOShm-G2y6HMRefBXg2XERdsQ","name_en":"『YSL 圣罗兰』","name_cn":"『YSL 圣罗兰』\n\nLOULOU PUFFER 绗缝小羊皮包,100%小羊皮制作,手感柔软细腻,犹如怀抱云朵☁️般的感受;饰以 YSL 金属标志、哑光雾面的质感及其别致、银色拉丝金属饰件罗缎衬里磁性扣封口一个拉链内袋肩带长度:52厘米折叠后肩带长度:28厘米\n尺寸:29x17x11cm\n型号:577476","specs":{"source":"wsxcme","sourceId":"_d9696qmo_NoL6VSOShm-G2y6HMRefBXg2XERdsQ","sourceTagId":47002761,"sourceTagName":"圣罗兰/女包","modelNumber":"577476","dimensions":{"lengthCm":29,"heightCm":17,"widthCm":11},"rawTitle":"『YSL 圣罗兰』\n\nLOULOU PUFFER 绗缝小羊皮包,100%小羊皮制作,手感柔软细腻,犹如怀抱云朵☁️般的感受;饰以 YSL 金属标志、哑光雾面的质感及其别致、银色拉丝金属饰件罗缎衬里磁性扣封口一个拉链内袋肩带长度:52厘米折叠后肩带长度:28厘米\n尺寸:29x17x11cm\n型号:577476"},"price":null,"currency":"CNY","moq":1,"category":"ysl-women-bags","status":"active","alibaba_url":null,"images":["https://xcimg.szwego.com/20211103/i1635925109_3277_0.jpg","https://xcimg.szwego.com/20211103/i1635925109_6527_1.jpg","https://xcimg.szwego.com/20211103/i1635925109_8216_2.jpg","https://xcimg.szwego.com/20211103/i1635925109_8875_3.jpg","https://xcimg.szwego.com/20211103/i1635925109_5727_4.jpg","https://xcimg.szwego.com/20211103/i1635925109_1875_5.jpg","https://xcimg.szwego.com/20211103/i1635925109_2791_6.jpg","https://xcimg.szwego.com/20211103/i1635925109_9476_7.jpg","https://xcimg.szwego.com/20211103/i1635925109_3269_8.jpg"],"created_at":"2025-02-08T12:45:27.771Z"}],"page":29,"pageSize":24,"total":888,"totalPages":37}
