{"items":[{"id":"item-db3a0aa5382a","sku":"_dkgkgT2Yc8EwasMDrpAnDSRg0rMKXvcbymkf75A","name_en":"P圣罗兰YSL经典无流苏手包 进口牛皮钻石纹 市场顶级货 尺寸27x12.5x5 编码354029","name_cn":"P圣罗兰YSL经典无流苏手包 进口牛皮钻石纹 市场顶级货 尺寸27x12.5x5 编码354029","specs":{"source":"wsxcme","sourceId":"_dkgkgT2Yc8EwasMDrpAnDSRg0rMKXvcbymkf75A","sourceTagId":47002761,"sourceTagName":"圣罗兰/女包","rawTitle":"P圣罗兰YSL经典无流苏手包 进口牛皮钻石纹 市场顶级货 尺寸27x12.5x5 编码354029"},"price":null,"currency":"CNY","moq":1,"category":"ysl-women-bags","status":"active","alibaba_url":null,"images":["https://xcimg.szwego.com/1559456935_3647375758_1","https://xcimg.szwego.com/1559456935_1408427755_2","https://xcimg.szwego.com/1559456935_2842489752_3","https://xcimg.szwego.com/1559456935_652454219_4","https://xcimg.szwego.com/1559456935_232527483_5","https://xcimg.szwego.com/1559456935_4287828269_6","https://xcimg.szwego.com/1559456935_3541926780_7","https://xcimg.szwego.com/1559456935_20026264_8","https://xcimg.szwego.com/1559456935_286388227_0"],"created_at":"2024-12-08T05:53:10.374Z"},{"id":"item-305ea2333415","sku":"_dnKnKGFQc2l0PJRnRidF6a_1RPOorzS4yctVWLA","name_en":"P圣罗兰YSL经典无流苏手包 进口牛皮钻石纹 市场顶级货 尺寸27x12.5x5 编码354029","name_cn":"P圣罗兰YSL经典无流苏手包 进口牛皮钻石纹 市场顶级货 尺寸27x12.5x5 编码354029","specs":{"source":"wsxcme","sourceId":"_dnKnKGFQc2l0PJRnRidF6a_1RPOorzS4yctVWLA","sourceTagId":47002761,"sourceTagName":"圣罗兰/女包","rawTitle":"P圣罗兰YSL经典无流苏手包 进口牛皮钻石纹 市场顶级货 尺寸27x12.5x5 编码354029"},"price":null,"currency":"CNY","moq":1,"category":"ysl-women-bags","status":"active","alibaba_url":null,"images":["https://xcimg.szwego.com/1559456976_1145099572_0","https://xcimg.szwego.com/1559456976_2693467267_1","https://xcimg.szwego.com/1559456976_1826708143_2","https://xcimg.szwego.com/1559456976_1296673472_3","https://xcimg.szwego.com/1559456976_688497260_4","https://xcimg.szwego.com/1559456976_481119670_5","https://xcimg.szwego.com/1559456976_3833511103_6","https://xcimg.szwego.com/1559456976_3343235130_7","https://xcimg.szwego.com/1559456990_2314719346_0"],"created_at":"2024-12-08T05:52:59.451Z"},{"id":"item-6295f549f756","sku":"_dkPkPvjRrd1F2nID9GTKigSbMg5kKSEYoPaE4Fg","name_en":"P Nikin麂皮配牛皮 殿堂级爆款又出新品一麂皮配牛皮系列!完美复刻最顶级品质!里外全皮 复古五金 手感细腻 流浪背更酷简直爱不释手。尺寸28x20x8cm 编码498894","name_cn":"P Nikin麂皮配牛皮 殿堂级爆款又出新品一麂皮配牛皮系列!完美复刻最顶级品质!里外全皮 复古五金 手感细腻 流浪背更酷简直爱不释手。尺寸28x20x8cm 编码498894","specs":{"source":"wsxcme","sourceId":"_dkPkPvjRrd1F2nID9GTKigSbMg5kKSEYoPaE4Fg","sourceTagId":47002761,"sourceTagName":"圣罗兰/女包","dimensions":{"lengthCm":28,"heightCm":20,"widthCm":8},"rawTitle":"P Nikin麂皮配牛皮 殿堂级爆款又出新品一麂皮配牛皮系列!完美复刻最顶级品质!里外全皮 复古五金 手感细腻 流浪背更酷简直爱不释手。尺寸28x20x8cm 编码498894"},"price":null,"currency":"CNY","moq":1,"category":"ysl-women-bags","status":"active","alibaba_url":null,"images":["https://xcimg.szwego.com/20211027/a1635312472199_6761.jpg","https://xcimg.szwego.com/20211027/a1635312472516_5848.jpg","https://xcimg.szwego.com/20211027/a1635312472411_0685.jpg","https://xcimg.szwego.com/20211027/a1635312472723_7237.jpg","https://xcimg.szwego.com/20211027/a1635312473139_5102.jpg","https://xcimg.szwego.com/20211027/a1635312473257_4003.jpg","https://xcimg.szwego.com/20211027/a1635312473420_6555.jpg","https://xcimg.szwego.com/20211027/a1635312473545_1778.jpg","https://xcimg.szwego.com/20211027/a1635312474319_5054.jpg"],"created_at":"2024-12-08T05:52:45.868Z"},{"id":"item-7a6320b08542","sku":"_dcdcdobxGiSrK7616zkwhUdLjPocDgwgX-ph5jg","name_en":"P Nikin麂皮配牛皮 殿堂级爆款又出新品一麂皮配牛皮系列!完美复刻最顶级品质!里外全皮 复古五金 手感细腻 流浪背更酷简直爱不释手。尺寸22x16x12cm 编码498892","name_cn":"P Nikin麂皮配牛皮 殿堂级爆款又出新品一麂皮配牛皮系列!完美复刻最顶级品质!里外全皮 复古五金 手感细腻 流浪背更酷简直爱不释手。尺寸22x16x12cm 编码498892","specs":{"source":"wsxcme","sourceId":"_dcdcdobxGiSrK7616zkwhUdLjPocDgwgX-ph5jg","sourceTagId":47002761,"sourceTagName":"圣罗兰/女包","dimensions":{"lengthCm":22,"heightCm":16,"widthCm":12},"rawTitle":"P Nikin麂皮配牛皮 殿堂级爆款又出新品一麂皮配牛皮系列!完美复刻最顶级品质!里外全皮 复古五金 手感细腻 流浪背更酷简直爱不释手。尺寸22x16x12cm 编码498892"},"price":null,"currency":"CNY","moq":1,"category":"ysl-women-bags","status":"active","alibaba_url":null,"images":["https://xcimg.szwego.com/20211027/a1635312811325_5860.jpg","https://xcimg.szwego.com/20211027/a1635312811679_4570.jpg","https://xcimg.szwego.com/20211027/a1635312811564_7876.jpg","https://xcimg.szwego.com/20211027/a1635312811856_6502.jpg","https://xcimg.szwego.com/20211027/a1635312812361_4477.jpg","https://xcimg.szwego.com/20211027/a1635312812494_8505.jpg","https://xcimg.szwego.com/20211027/a1635312812644_2547.jpg","https://xcimg.szwego.com/20211027/a1635312812882_6587.jpg","https://xcimg.szwego.com/20211027/a1635312812985_3153.jpg"],"created_at":"2024-12-08T05:52:30.323Z"},{"id":"item-ed718817f83c","sku":"_d9N9N5sZwahTqmUwKNl1SM_4sBvFvl38mTTv-0A","name_en":"P YSL麂皮配牛皮 殿堂级爆款又出新品一麂皮配牛皮系列! 搭配纯皮的可调节肩带,最精致的logo设计,外观简洁有chic!尺寸18x15.5x5.5cm 编码619740","name_cn":"P YSL麂皮配牛皮 殿堂级爆款又出新品一麂皮配牛皮系列! 搭配纯皮的可调节肩带,最精致的logo设计,外观简洁有chic!尺寸18x15.5x5.5cm 编码619740","specs":{"source":"wsxcme","sourceId":"_d9N9N5sZwahTqmUwKNl1SM_4sBvFvl38mTTv-0A","sourceTagId":47002761,"sourceTagName":"圣罗兰/女包","dimensions":{"lengthCm":18,"heightCm":15.5,"widthCm":5.5},"rawTitle":"P YSL麂皮配牛皮 殿堂级爆款又出新品一麂皮配牛皮系列! 搭配纯皮的可调节肩带,最精致的logo设计,外观简洁有chic!尺寸18x15.5x5.5cm 编码619740"},"price":null,"currency":"CNY","moq":1,"category":"ysl-women-bags","status":"active","alibaba_url":null,"images":["https://xcimg.szwego.com/20211031/a1635663281679_4150.jpg","https://xcimg.szwego.com/20211031/a1635663281955_3826.jpg","https://xcimg.szwego.com/20211031/a1635663281834_0645.jpg","https://xcimg.szwego.com/20211031/a1635663282076_5437.jpg","https://xcimg.szwego.com/20211031/a1635663282510_3847.jpg","https://xcimg.szwego.com/20211031/a1635663282608_8565.jpg","https://xcimg.szwego.com/20211031/a1635663282726_1785.jpg","https://xcimg.szwego.com/20211031/a1635663282930_0266.jpg","https://xcimg.szwego.com/20211031/a1635663283218_3141.jpg"],"created_at":"2024-12-08T05:51:31.871Z"},{"id":"item-e1c633507045","sku":"_dDWDWi8ZIy3AZM7JMLgrLNoOmy1v-X4fUeYDkZg","name_en":"P YSL圣罗兰牛仔拼皮的niki,🌸增添了休闲感 容量一如既往的大,复古造型,还很好搭配,一年四季必备款,超好看。编码:498894 尺寸:28x22x9cm","name_cn":"P YSL圣罗兰牛仔拼皮的niki,🌸增添了休闲感 容量一如既往的大,复古造型,还很好搭配,一年四季必备款,超好看。编码:498894 尺寸:28x22x9cm","specs":{"source":"wsxcme","sourceId":"_dDWDWi8ZIy3AZM7JMLgrLNoOmy1v-X4fUeYDkZg","sourceTagId":47002761,"sourceTagName":"圣罗兰/女包","dimensions":{"lengthCm":28,"heightCm":22,"widthCm":9},"rawTitle":"P YSL圣罗兰牛仔拼皮的niki,🌸增添了休闲感 容量一如既往的大,复古造型,还很好搭配,一年四季必备款,超好看。编码:498894 尺寸:28x22x9cm"},"price":null,"currency":"CNY","moq":1,"category":"ysl-women-bags","status":"active","alibaba_url":null,"images":["https://xcimg.szwego.com/20220529/a1653803986572_8134.jpg","https://xcimg.szwego.com/20220529/a1653803986908_7520.jpg","https://xcimg.szwego.com/20220529/a1653803987216_7422.jpg","https://xcimg.szwego.com/20220529/a1653803987566_8712.jpg","https://xcimg.szwego.com/20220529/a1653803988019_0676.jpg","https://xcimg.szwego.com/20220529/a1653803988148_0512.jpg","https://xcimg.szwego.com/20220529/a1653803988348_0615.jpg","https://xcimg.szwego.com/20220529/a1653803988482_7722.jpg","https://xcimg.szwego.com/20220529/a1653803988832_6471.jpg"],"created_at":"2024-12-08T05:51:23.138Z"},{"id":"item-a46c71307dd5","sku":"_dphph6d11HdgwSXt8G-PkQ2Hc5UKaery0Afl0ow","name_en":"P YSL圣罗兰牛仔拼皮的niki,🌸增添了休闲感 容量一如既往的大,复古造型,还很好搭配,一年四季必备款,超好看。编码:498892 尺寸:22x16x22cm","name_cn":"P YSL圣罗兰牛仔拼皮的niki,🌸增添了休闲感 容量一如既往的大,复古造型,还很好搭配,一年四季必备款,超好看。编码:498892 尺寸:22x16x22cm","specs":{"source":"wsxcme","sourceId":"_dphph6d11HdgwSXt8G-PkQ2Hc5UKaery0Afl0ow","sourceTagId":47002761,"sourceTagName":"圣罗兰/女包","dimensions":{"lengthCm":22,"heightCm":16,"widthCm":22},"rawTitle":"P YSL圣罗兰牛仔拼皮的niki,🌸增添了休闲感 容量一如既往的大,复古造型,还很好搭配,一年四季必备款,超好看。编码:498892 尺寸:22x16x22cm"},"price":null,"currency":"CNY","moq":1,"category":"ysl-women-bags","status":"active","alibaba_url":null,"images":["https://xcimg.szwego.com/20220529/a1653804548390_2626.jpg","https://xcimg.szwego.com/20220529/a1653804548690_6735.jpg","https://xcimg.szwego.com/20220529/a1653804548991_1653.jpg","https://xcimg.szwego.com/20220529/a1653804549324_0202.jpg","https://xcimg.szwego.com/20220529/a1653804549806_5245.jpg","https://xcimg.szwego.com/20220529/a1653804550005_5741.jpg","https://xcimg.szwego.com/20220529/a1653804550421_6850.jpg","https://xcimg.szwego.com/20220529/a1653804550740_6056.jpg","https://xcimg.szwego.com/20220529/a1653804550872_6621.jpg"],"created_at":"2024-12-08T05:51:14.631Z"},{"id":"item-b16b1a992574","sku":"_dxsxsJZp2heHaEMBxT1-o6tfEiZx3JjDbpwUydg","name_en":"P【新款】热卖的亚麻配色,一丝浪漫土耳其风味,布艺不一样的时尚Style!需要划重点说明的是,开发的麻布材料的含麻量比之市场货要高得多,不懂没关系,含麻量足相对来说更耐磨成色更好看!Size:28cm  编码498894","name_cn":"P【新款】热卖的亚麻配色,一丝浪漫土耳其风味,布艺不一样的时尚Style!需要划重点说明的是,开发的麻布材料的含麻量比之市场货要高得多,不懂没关系,含麻量足相对来说更耐磨成色更好看!Size:28cm  编码498894","specs":{"source":"wsxcme","sourceId":"_dxsxsJZp2heHaEMBxT1-o6tfEiZx3JjDbpwUydg","sourceTagId":47002761,"sourceTagName":"圣罗兰/女包","rawTitle":"P【新款】热卖的亚麻配色,一丝浪漫土耳其风味,布艺不一样的时尚Style!需要划重点说明的是,开发的麻布材料的含麻量比之市场货要高得多,不懂没关系,含麻量足相对来说更耐磨成色更好看!Size:28cm  编码498894"},"price":null,"currency":"CNY","moq":1,"category":"ysl-women-bags","status":"active","alibaba_url":null,"images":["https://xcimg.szwego.com/20200924/i1600925982_7317_0.jpg","https://xcimg.szwego.com/20200924/i1600925982_1106_1.jpg","https://xcimg.szwego.com/20200924/i1600925982_944_2.jpg","https://xcimg.szwego.com/20200924/i1600925982_858_3.jpg","https://xcimg.szwego.com/20200924/i1600925982_1759_4.jpg","https://xcimg.szwego.com/20200924/i1600925982_2612_5.jpg","https://xcimg.szwego.com/20200924/i1600925982_8881_6.jpg","https://xcimg.szwego.com/20200924/i1600925982_1795_7.jpg","https://xcimg.szwego.com/20200924/i1600925982_7198_8.jpg"],"created_at":"2024-12-08T05:51:01.245Z"},{"id":"item-b7e6bf1300ec","sku":"_dw5w5avCFiaByGYblJWuqwNV6zCiTTzHVNgw5MA","name_en":"P【新款】热卖的亚麻配色,一丝浪漫土耳其风味,布艺不一样的时尚Style!需要划重点说明的是,开发的麻布材料的含麻量比之市场货要高得多,不懂没关系,含麻量足相对来说更耐磨成色更好看!Size:22cm  编码498892","name_cn":"P【新款】热卖的亚麻配色,一丝浪漫土耳其风味,布艺不一样的时尚Style!需要划重点说明的是,开发的麻布材料的含麻量比之市场货要高得多,不懂没关系,含麻量足相对来说更耐磨成色更好看!Size:22cm  编码498892","specs":{"source":"wsxcme","sourceId":"_dw5w5avCFiaByGYblJWuqwNV6zCiTTzHVNgw5MA","sourceTagId":47002761,"sourceTagName":"圣罗兰/女包","rawTitle":"P【新款】热卖的亚麻配色,一丝浪漫土耳其风味,布艺不一样的时尚Style!需要划重点说明的是,开发的麻布材料的含麻量比之市场货要高得多,不懂没关系,含麻量足相对来说更耐磨成色更好看!Size:22cm  编码498892"},"price":null,"currency":"CNY","moq":1,"category":"ysl-women-bags","status":"active","alibaba_url":null,"images":["https://xcimg.szwego.com/20200924/i1600925871_8968_0.jpg","https://xcimg.szwego.com/20200924/i1600925871_4973_1.jpg","https://xcimg.szwego.com/20200924/i1600925871_295_2.jpg","https://xcimg.szwego.com/20200924/i1600925871_6728_3.jpg","https://xcimg.szwego.com/20200924/i1600925871_5156_4.jpg","https://xcimg.szwego.com/20200924/i1600925871_9246_5.jpg","https://xcimg.szwego.com/20200924/i1600925871_3503_6.jpg","https://xcimg.szwego.com/20200924/i1600925871_8371_7.jpg","https://xcimg.szwego.com/20200924/i1600925871_998_8.jpg"],"created_at":"2024-12-08T05:50:33.222Z"},{"id":"item-5ca4d23521ad","sku":"_dzBzBrCniXNIYF-apBfwqeb1MF3GB1PFEWX_JeA","name_en":"P 新款出货cassandra 信封包升级款,浅色的是麻布配皮,头层牛皮 新款时尚加了手柄 。尺寸20x16x7.5cm  编码532753","name_cn":"P 新款出货cassandra 信封包升级款,浅色的是麻布配皮,头层牛皮 新款时尚加了手柄 。尺寸20x16x7.5cm  编码532753","specs":{"source":"wsxcme","sourceId":"_dzBzBrCniXNIYF-apBfwqeb1MF3GB1PFEWX_JeA","sourceTagId":47002761,"sourceTagName":"圣罗兰/女包","dimensions":{"lengthCm":20,"heightCm":16,"widthCm":7.5},"rawTitle":"P 新款出货cassandra 信封包升级款,浅色的是麻布配皮,头层牛皮 新款时尚加了手柄 。尺寸20x16x7.5cm  编码532753"},"price":null,"currency":"CNY","moq":1,"category":"ysl-women-bags","status":"active","alibaba_url":null,"images":["https://xcimg.szwego.com/20220711/a1657516688073_7318.jpg","https://xcimg.szwego.com/20220711/a1657516688346_4053.jpg","https://xcimg.szwego.com/20220711/a1657516688513_7762.jpg","https://xcimg.szwego.com/20220711/a1657516688603_8061.jpg","https://xcimg.szwego.com/20220711/a1657516688924_8623.jpg","https://xcimg.szwego.com/20220711/a1657516689161_5480.jpg","https://xcimg.szwego.com/20220711/a1657516689411_1421.jpg","https://xcimg.szwego.com/20220711/a1657516689497_7572.jpg","https://xcimg.szwego.com/20220711/a1657516689713_1455.jpg"],"created_at":"2024-12-08T05:50:17.292Z"},{"id":"item-e746ee48ae8e","sku":"_dyJyJGOWR7tty_ZfRS-urKhbVI3lMermg9RIyuw","name_en":"P YSL 最新款 全新的撞色 浅色的是麻布,头层牛皮 简洁的V线条勾勒出整个包的线条更显立体,Y家的信封设计的小包是当之无愧的产量王,顶层设计成可以自动回弹的活动锁扣 ▪️size22*6*16 编码532750","name_cn":"P YSL 最新款 全新的撞色 浅色的是麻布,头层牛皮 简洁的V线条勾勒出整个包的线条更显立体,Y家的信封设计的小包是当之无愧的产量王,顶层设计成可以自动回弹的活动锁扣 ▪️size22*6*16 编码532750","specs":{"source":"wsxcme","sourceId":"_dyJyJGOWR7tty_ZfRS-urKhbVI3lMermg9RIyuw","sourceTagId":47002761,"sourceTagName":"圣罗兰/女包","rawTitle":"P YSL 最新款 全新的撞色 浅色的是麻布,头层牛皮 简洁的V线条勾勒出整个包的线条更显立体,Y家的信封设计的小包是当之无愧的产量王,顶层设计成可以自动回弹的活动锁扣 ▪️size22*6*16 编码532750"},"price":null,"currency":"CNY","moq":1,"category":"ysl-women-bags","status":"active","alibaba_url":null,"images":["https://xcimg.szwego.com/20220711/a1657516790963_0010.jpg","https://xcimg.szwego.com/20220711/a1657516791209_8010.jpg","https://xcimg.szwego.com/20220711/a1657516790709_1447.jpg","https://xcimg.szwego.com/20220711/a1657516791307_6776.jpg","https://xcimg.szwego.com/20220711/a1657516791672_1252.jpg","https://xcimg.szwego.com/20220711/a1657516791819_5730.jpg","https://xcimg.szwego.com/20220711/a1657516791976_3488.jpg","https://xcimg.szwego.com/20220711/a1657516792162_4478.jpg","https://xcimg.szwego.com/20220711/a1657516792400_7333.jpg"],"created_at":"2024-12-08T05:50:05.457Z"},{"id":"item-61dda2b75556","sku":"_dBzBzIsCZ7hvRsZVGHzvz4Dyo33xXOV0sFECfeQ","name_en":"P sunset 蛇纹款 羊皮刻的蛇皮效果,鳞片是有点凸起的哦,非常非常的脆弱,请细心呵护。本来用牛皮做会耐用些,只是做出来效果没有羊皮好,而且正品也是羊皮。专柜指定区域限量发行。尺寸22x16x9cm  编码 441971","name_cn":"P sunset 蛇纹款 羊皮刻的蛇皮效果,鳞片是有点凸起的哦,非常非常的脆弱,请细心呵护。本来用牛皮做会耐用些,只是做出来效果没有羊皮好,而且正品也是羊皮。专柜指定区域限量发行。尺寸22x16x9cm  编码 441971","specs":{"source":"wsxcme","sourceId":"_dBzBzIsCZ7hvRsZVGHzvz4Dyo33xXOV0sFECfeQ","sourceTagId":47002761,"sourceTagName":"圣罗兰/女包","dimensions":{"lengthCm":22,"heightCm":16,"widthCm":9},"rawTitle":"P sunset 蛇纹款 羊皮刻的蛇皮效果,鳞片是有点凸起的哦,非常非常的脆弱,请细心呵护。本来用牛皮做会耐用些,只是做出来效果没有羊皮好,而且正品也是羊皮。专柜指定区域限量发行。尺寸22x16x9cm  编码 441971"},"price":null,"currency":"CNY","moq":1,"category":"ysl-women-bags","status":"active","alibaba_url":null,"images":["https://xcimg.szwego.com/1568527054_2553735674_1","https://xcimg.szwego.com/1568527054_2933297421_0","https://xcimg.szwego.com/1568527054_2898080498_2","https://xcimg.szwego.com/1568527054_2481242707_3","https://xcimg.szwego.com/1568527054_4019205844_4","https://xcimg.szwego.com/1568527054_3479164527_5","https://xcimg.szwego.com/1568527054_2617684102_6","https://xcimg.szwego.com/1568527054_1446142809_7","https://xcimg.szwego.com/1568527054_410779238_8"],"created_at":"2024-12-08T05:49:29.383Z"},{"id":"item-fdc726834202","sku":"_dllllKPhdwDyDNN0dDmSArWSOisy4fPx0lM6zrA","name_en":"P kate 蛇纹款 新款到了,尺寸不大不小,最适合夏天,同样适合任何身材的小姐姐们,羊皮刻的蛇纹效果,麟片是有点凸起的哦,非常非常的脆弱,请细心呵护。专柜指定区限量发行,撞包那绝对不可能的事。尺寸20x14x5cm 编码 377629","name_cn":"P kate 蛇纹款 新款到了,尺寸不大不小,最适合夏天,同样适合任何身材的小姐姐们,羊皮刻的蛇纹效果,麟片是有点凸起的哦,非常非常的脆弱,请细心呵护。专柜指定区限量发行,撞包那绝对不可能的事。尺寸20x14x5cm 编码 377629","specs":{"source":"wsxcme","sourceId":"_dllllKPhdwDyDNN0dDmSArWSOisy4fPx0lM6zrA","sourceTagId":47002761,"sourceTagName":"圣罗兰/女包","dimensions":{"lengthCm":20,"heightCm":14,"widthCm":5},"rawTitle":"P kate 蛇纹款 新款到了,尺寸不大不小,最适合夏天,同样适合任何身材的小姐姐们,羊皮刻的蛇纹效果,麟片是有点凸起的哦,非常非常的脆弱,请细心呵护。专柜指定区限量发行,撞包那绝对不可能的事。尺寸20x14x5cm 编码 377629"},"price":null,"currency":"CNY","moq":1,"category":"ysl-women-bags","status":"active","alibaba_url":null,"images":["https://xcimg.szwego.com/1568527289_4188053824_1","https://xcimg.szwego.com/1568527289_3725141660_0","https://xcimg.szwego.com/1568527289_1420720725_2","https://xcimg.szwego.com/1568527289_3438149972_3","https://xcimg.szwego.com/1568527289_2229328403_4","https://xcimg.szwego.com/1568527289_2802297568_5","https://xcimg.szwego.com/1568527289_2314940784_6","https://xcimg.szwego.com/1568527289_99878828_7","https://xcimg.szwego.com/1568527289_3341738671_8"],"created_at":"2024-12-08T05:49:19.979Z"},{"id":"item-396604f99081","sku":"_djTjTyHkF1D9TLnVJaQcdyt5pCRAblyCzUEqF5Q","name_en":"P sunset 蛇纹款 羊皮刻的蛇皮效果,鳞片是有点凸起的哦,非常非常的脆弱,请细心呵护。本来用牛皮做会耐用些,只是做出来效果没有羊皮好,而且正品也是羊皮。专柜指定区域限量发行。尺寸22x16x9cm  编码 441971","name_cn":"P sunset 蛇纹款 羊皮刻的蛇皮效果,鳞片是有点凸起的哦,非常非常的脆弱,请细心呵护。本来用牛皮做会耐用些,只是做出来效果没有羊皮好,而且正品也是羊皮。专柜指定区域限量发行。尺寸22x16x9cm  编码 441971","specs":{"source":"wsxcme","sourceId":"_djTjTyHkF1D9TLnVJaQcdyt5pCRAblyCzUEqF5Q","sourceTagId":47002761,"sourceTagName":"圣罗兰/女包","dimensions":{"lengthCm":22,"heightCm":16,"widthCm":9},"rawTitle":"P sunset 蛇纹款 羊皮刻的蛇皮效果,鳞片是有点凸起的哦,非常非常的脆弱,请细心呵护。本来用牛皮做会耐用些,只是做出来效果没有羊皮好,而且正品也是羊皮。专柜指定区域限量发行。尺寸22x16x9cm  编码 441971"},"price":null,"currency":"CNY","moq":1,"category":"ysl-women-bags","status":"active","alibaba_url":null,"images":["https://xcimg.szwego.com/20200511/i1589186274_7383_0.jpg","https://xcimg.szwego.com/20200511/i1589186274_7598_1.jpg","https://xcimg.szwego.com/20200511/i1589186274_616_2.jpg","https://xcimg.szwego.com/20200511/i1589186274_8669_3.jpg","https://xcimg.szwego.com/20200511/i1589186274_4437_4.jpg","https://xcimg.szwego.com/20200511/i1589186274_4395_5.jpg","https://xcimg.szwego.com/20200511/i1589186274_6483_6.jpg","https://xcimg.szwego.com/20200511/i1589186274_2839_7.jpg","https://xcimg.szwego.com/20200511/i1589186274_7962_8.jpg"],"created_at":"2024-12-08T05:49:11.220Z"},{"id":"item-5bcc31afd77c","sku":"_dxXxXmIFhqUv00I2dpsnbEpqjXeFUxE8iwgrNZw","name_en":"P 圣罗兰YSL 最新款 蛇纹信封元素的时尚单品,简洁的V线条勾勒出整个包的线条更显立体,Y家的信封设计的小包是当之无愧的产量王,顶层设计成可以自动回弹的活动锁扣 size:22*6*16 编码532750","name_cn":"P 圣罗兰YSL 最新款 蛇纹信封元素的时尚单品,简洁的V线条勾勒出整个包的线条更显立体,Y家的信封设计的小包是当之无愧的产量王,顶层设计成可以自动回弹的活动锁扣 size:22*6*16 编码532750","specs":{"source":"wsxcme","sourceId":"_dxXxXmIFhqUv00I2dpsnbEpqjXeFUxE8iwgrNZw","sourceTagId":47002761,"sourceTagName":"圣罗兰/女包","rawTitle":"P 圣罗兰YSL 最新款 蛇纹信封元素的时尚单品,简洁的V线条勾勒出整个包的线条更显立体,Y家的信封设计的小包是当之无愧的产量王,顶层设计成可以自动回弹的活动锁扣 size:22*6*16 编码532750"},"price":null,"currency":"CNY","moq":1,"category":"ysl-women-bags","status":"active","alibaba_url":null,"images":["https://xcimg.szwego.com/20200509/i1589002865_6862_0.jpg","https://xcimg.szwego.com/20200509/i1589002865_6124_1.jpg","https://xcimg.szwego.com/20200509/i1589002865_7083_2.jpg","https://xcimg.szwego.com/20200509/i1589002865_1692_3.jpg","https://xcimg.szwego.com/20200509/i1589002865_2778_4.jpg","https://xcimg.szwego.com/20200509/i1589002865_9112_5.jpg","https://xcimg.szwego.com/20200509/i1589002865_630_6.jpg","https://xcimg.szwego.com/20200509/i1589002865_9166_7.jpg","https://xcimg.szwego.com/20200509/i1589002865_1950_8.jpg"],"created_at":"2024-12-08T05:49:00.973Z"},{"id":"item-766ca4044c0e","sku":"_dfgfgkq3fctaHERONByk4522JCpPbc_TDTr21zw","name_en":"P kate 蛇纹款 新款到了,尺寸不大不小,最适合夏天,同样适合任何身材的小姐姐们,羊皮刻的蛇纹效果,麟片是有点凸起的哦,非常非常的脆弱,请细心呵护。专柜指定区限量发行,撞包那绝对不可能的事。尺寸20x14x5cm 编码 377629","name_cn":"P kate 蛇纹款 新款到了,尺寸不大不小,最适合夏天,同样适合任何身材的小姐姐们,羊皮刻的蛇纹效果,麟片是有点凸起的哦,非常非常的脆弱,请细心呵护。专柜指定区限量发行,撞包那绝对不可能的事。尺寸20x14x5cm 编码 377629","specs":{"source":"wsxcme","sourceId":"_dfgfgkq3fctaHERONByk4522JCpPbc_TDTr21zw","sourceTagId":47002761,"sourceTagName":"圣罗兰/女包","dimensions":{"lengthCm":20,"heightCm":14,"widthCm":5},"rawTitle":"P kate 蛇纹款 新款到了,尺寸不大不小,最适合夏天,同样适合任何身材的小姐姐们,羊皮刻的蛇纹效果,麟片是有点凸起的哦,非常非常的脆弱,请细心呵护。专柜指定区限量发行,撞包那绝对不可能的事。尺寸20x14x5cm 编码 377629"},"price":null,"currency":"CNY","moq":1,"category":"ysl-women-bags","status":"active","alibaba_url":null,"images":["https://xcimg.szwego.com/20200512/i1589257950_9496_0.jpg","https://xcimg.szwego.com/20200512/i1589257950_5464_1.jpg","https://xcimg.szwego.com/20200512/i1589257950_3965_2.jpg","https://xcimg.szwego.com/20200512/i1589257950_769_3.jpg","https://xcimg.szwego.com/20200512/i1589257950_6229_4.jpg","https://xcimg.szwego.com/20200512/i1589257950_2270_5.jpg","https://xcimg.szwego.com/20200512/i1589257950_1924_6.jpg","https://xcimg.szwego.com/20200512/i1589257950_749_7.jpg","https://xcimg.szwego.com/20200512/i1589257950_7301_8.jpg"],"created_at":"2024-12-08T05:48:52.106Z"},{"id":"item-1f49dff0f54d","sku":"_dfcfc1xh7hU_6OkDtcztxTrd6PirRqDpIOeUzsA","name_en":"P YSL圣罗兰 经典款 蛇纹配金属 流苏包  链条包可当手包,6个插卡,一个拉链袋[爱心]尺寸:19*12.5*4  编码 354122","name_cn":"P YSL圣罗兰 经典款 蛇纹配金属 流苏包  链条包可当手包,6个插卡,一个拉链袋[爱心]尺寸:19*12.5*4  编码 354122","specs":{"source":"wsxcme","sourceId":"_dfcfc1xh7hU_6OkDtcztxTrd6PirRqDpIOeUzsA","sourceTagId":47002761,"sourceTagName":"圣罗兰/女包","rawTitle":"P YSL圣罗兰 经典款 蛇纹配金属 流苏包  链条包可当手包,6个插卡,一个拉链袋[爱心]尺寸:19*12.5*4  编码 354122"},"price":null,"currency":"CNY","moq":1,"category":"ysl-women-bags","status":"active","alibaba_url":null,"images":["https://xcimg.szwego.com/20200522/i1590135069_1590_0.jpg","https://xcimg.szwego.com/20200522/i1590135069_9200_1.jpg","https://xcimg.szwego.com/20200522/i1590135069_2777_2.jpg","https://xcimg.szwego.com/20200522/i1590135069_1057_3.jpg","https://xcimg.szwego.com/20200522/i1590135069_7095_4.jpg","https://xcimg.szwego.com/20200522/i1590135069_6358_5.jpg","https://xcimg.szwego.com/20200522/i1590135069_1656_6.jpg","https://xcimg.szwego.com/20200522/i1590135069_3398_7.jpg","https://xcimg.szwego.com/20200522/i1590135069_7459_8.jpg"],"created_at":"2024-12-08T05:48:42.710Z"},{"id":"item-aaeab00f5825","sku":"_dc6c6TgCdYGhM3NbmslCgBIs3k4dCaHtGfbwopw","name_en":"P YSL圣罗兰 邮差包 最新早秋季老花包系列 复古感浓郁 棕色复古百搭经典 潮流的轮回 型号667490 尺寸:36X14.5X16","name_cn":"P YSL圣罗兰 邮差包 最新早秋季老花包系列 复古感浓郁 棕色复古百搭经典 潮流的轮回 型号667490 尺寸:36X14.5X16","specs":{"source":"wsxcme","sourceId":"_dc6c6TgCdYGhM3NbmslCgBIs3k4dCaHtGfbwopw","sourceTagId":47002761,"sourceTagName":"圣罗兰/女包","modelNumber":"667490 尺寸:36X14.5X16","rawTitle":"P YSL圣罗兰 邮差包 最新早秋季老花包系列 复古感浓郁 棕色复古百搭经典 潮流的轮回 型号667490 尺寸:36X14.5X16"},"price":null,"currency":"CNY","moq":1,"category":"ysl-women-bags","status":"active","alibaba_url":null,"images":["https://xcimg.szwego.com/20210822/i1629622012_3326_1.jpg","https://xcimg.szwego.com/20210822/i1629622012_3686_2.jpg","https://xcimg.szwego.com/20210822/i1629622012_8003_3.jpg","https://xcimg.szwego.com/20210822/i1629622012_568_4.jpg","https://xcimg.szwego.com/20210822/i1629622012_62_5.jpg","https://xcimg.szwego.com/20210822/i1629622012_3007_6.jpg","https://xcimg.szwego.com/20210822/i1629622012_3500_7.jpg","https://xcimg.szwego.com/20210822/i1629622012_354_8.jpg","https://xcimg.szwego.com/20210822/i1629622012_4709_0.jpg"],"created_at":"2024-12-08T05:48:32.915Z"},{"id":"item-08cf963535d3","sku":"_dPnPnd_V9lKutTIO2sQ136MmPcdzfTnWh-l1MLA","name_en":"P YSL圣罗兰 邮差包 最新早秋季老花包系列 复古感浓郁 棕色复古百搭经典 潮流的轮回","name_cn":"P YSL圣罗兰 邮差包 最新早秋季老花包系列 复古感浓郁 棕色复古百搭经典 潮流的轮回","specs":{"source":"wsxcme","sourceId":"_dPnPnd_V9lKutTIO2sQ136MmPcdzfTnWh-l1MLA","sourceTagId":47002761,"sourceTagName":"圣罗兰/女包","rawTitle":"P YSL圣罗兰 邮差包 最新早秋季老花包系列 复古感浓郁 棕色复古百搭经典 潮流的轮回"},"price":null,"currency":"CNY","moq":1,"category":"ysl-women-bags","status":"active","alibaba_url":null,"images":["https://xcimg.szwego.com/20210824/i1629790318_8155_1.jpg","https://xcimg.szwego.com/20210824/i1629790318_6773_2.jpg","https://xcimg.szwego.com/20210824/i1629790318_1977_3.jpg","https://xcimg.szwego.com/20210824/i1629790318_3343_4.jpg","https://xcimg.szwego.com/20210824/i1629790318_4198_5.jpg","https://xcimg.szwego.com/20210824/i1629790318_3535_6.jpg","https://xcimg.szwego.com/20210824/i1629790318_251_7.jpg","https://xcimg.szwego.com/20210824/i1629790318_2466_8.jpg","https://xcimg.szwego.com/20210824/i1629790318_1835_0.jpg"],"created_at":"2024-12-08T05:48:24.124Z"},{"id":"item-233cd65a9cfa","sku":"_dbdbdxpLOMkLJzQelrL1hAi_W2VNaAHJUdsI7zQ","name_en":"P Saint Laurent 圣罗兰老花包图案系列复古感十足 帆布涂层 耐磨耐用 ,即可调节肩带长度又让整个包包更别具一格。尺寸25x27x17cm 编码568606","name_cn":"P Saint Laurent 圣罗兰老花包图案系列复古感十足 帆布涂层 耐磨耐用 ,即可调节肩带长度又让整个包包更别具一格。尺寸25x27x17cm 编码568606","specs":{"source":"wsxcme","sourceId":"_dbdbdxpLOMkLJzQelrL1hAi_W2VNaAHJUdsI7zQ","sourceTagId":47002761,"sourceTagName":"圣罗兰/女包","dimensions":{"lengthCm":25,"heightCm":27,"widthCm":17},"rawTitle":"P Saint Laurent 圣罗兰老花包图案系列复古感十足 帆布涂层 耐磨耐用 ,即可调节肩带长度又让整个包包更别具一格。尺寸25x27x17cm 编码568606"},"price":null,"currency":"CNY","moq":1,"category":"ysl-women-bags","status":"active","alibaba_url":null,"images":["https://xcimg.szwego.com/20210905/a1630821165810_8043.jpg","https://xcimg.szwego.com/20210905/a1630821165928_3056.jpg","https://xcimg.szwego.com/20210905/a1630821166062_4683.jpg","https://xcimg.szwego.com/20210905/a1630821166195_8613.jpg","https://xcimg.szwego.com/20210905/a1630821166310_6422.jpg","https://xcimg.szwego.com/20210905/a1630821166611_4736.jpg","https://xcimg.szwego.com/20210905/a1630821166711_1762.jpg","https://xcimg.szwego.com/20210905/a1630821166994_6647.jpg","https://xcimg.szwego.com/20210905/a1630821167178_7774.jpg"],"created_at":"2024-12-08T05:48:13.744Z"},{"id":"item-24a68ad1e452","sku":"_dlQlQ-PAAhG8PZMbOYQQiWQdwmnDYvBgc-MHacA","name_en":"P YSL圣罗兰秋冬新款🍂 ROSE同款 轻巧又充满时尚感,手感超级好 软软的 搭配简单的ysl logo 真的巨好背!尺寸:30x31x13cm编码:753837","name_cn":"P YSL圣罗兰秋冬新款🍂 ROSE同款 轻巧又充满时尚感,手感超级好 软软的 搭配简单的ysl logo 真的巨好背!尺寸:30x31x13cm编码:753837","specs":{"source":"wsxcme","sourceId":"_dlQlQ-PAAhG8PZMbOYQQiWQdwmnDYvBgc-MHacA","sourceTagId":47002761,"sourceTagName":"圣罗兰/女包","dimensions":{"lengthCm":30,"heightCm":31,"widthCm":13},"rawTitle":"P YSL圣罗兰秋冬新款🍂 ROSE同款 轻巧又充满时尚感,手感超级好 软软的 搭配简单的ysl logo 真的巨好背!尺寸:30x31x13cm编码:753837"},"price":null,"currency":"CNY","moq":1,"category":"ysl-women-bags","status":"active","alibaba_url":null,"images":["https://xcimg.szwego.com/img/2781b905/20240118/i1705557994_5885_0.jpg","https://xcimg.szwego.com/img/aed707d3/20231013/a1697175711443_5418.jpg","https://xcimg.szwego.com/img/aed707d3/20231013/a1697175711808_0102.jpg","https://xcimg.szwego.com/img/aed707d3/20231013/a1697175712193_3688.jpg","https://xcimg.szwego.com/img/aed707d3/20231013/a1697175712558_6386.jpg","https://xcimg.szwego.com/img/aed707d3/20231013/a1697175713157_8261.jpg","https://xcimg.szwego.com/img/aed707d3/20231013/a1697175713408_7758.jpg","https://xcimg.szwego.com/img/aed707d3/20231013/a1697175713691_8002.jpg","https://xcimg.szwego.com/img/aed707d3/20231013/a1697175714258_8540.jpg"],"created_at":"2024-12-08T05:48:03.213Z"},{"id":"item-d9db3aa38b9d","sku":"_d-H-HbRqf7XYubnvXGCe_HoWzaS5YgS_qRGvBcg","name_en":"P YSL圣罗兰秋冬新款🍂 ROSE同款 轻巧又充满时尚感,手感超级好 软软的 搭配简单的ysl logo 真的巨好背!尺寸:30x31x13cm编码:753837","name_cn":"P YSL圣罗兰秋冬新款🍂 ROSE同款 轻巧又充满时尚感,手感超级好 软软的 搭配简单的ysl logo 真的巨好背!尺寸:30x31x13cm编码:753837","specs":{"source":"wsxcme","sourceId":"_d-H-HbRqf7XYubnvXGCe_HoWzaS5YgS_qRGvBcg","sourceTagId":47002761,"sourceTagName":"圣罗兰/女包","dimensions":{"lengthCm":30,"heightCm":31,"widthCm":13},"rawTitle":"P YSL圣罗兰秋冬新款🍂 ROSE同款 轻巧又充满时尚感,手感超级好 软软的 搭配简单的ysl logo 真的巨好背!尺寸:30x31x13cm编码:753837"},"price":null,"currency":"CNY","moq":1,"category":"ysl-women-bags","status":"active","alibaba_url":null,"images":["https://xcimg.szwego.com/img/aed707d3/20240111/a1704955350736_8204.jpg","https://xcimg.szwego.com/img/aed707d3/20240111/a1704955350681_6557.jpg","https://xcimg.szwego.com/img/aed707d3/20240111/a1704955350780_6245.jpg","https://xcimg.szwego.com/img/aed707d3/20240111/a1704955351927_0618.jpg","https://xcimg.szwego.com/img/aed707d3/20240111/a1704955350916_5718.jpg","https://xcimg.szwego.com/img/aed707d3/20240111/a1704955350879_3773.jpg","https://xcimg.szwego.com/img/aed707d3/20240111/a1704955350670_3363.jpg","https://xcimg.szwego.com/img/aed707d3/20240111/a1704955351855_7547.jpg","https://xcimg.szwego.com/img/aed707d3/20240111/a1704955351804_0281.jpg"],"created_at":"2024-12-08T05:47:54.610Z"},{"id":"item-24c2406e7ffd","sku":"_dlWlWcZcpS3x4r5rnSW29LQyTuXc_TnNi6wQSkA","name_en":"大号P YSL圣罗兰秋冬新款🍂 ROSE同款 新上的麂皮, 轻巧又充满时尚感,手感超级好 软软的 搭配简单的ysl logo 真的巨好背!尺寸:30x31x13cm编码:753837","name_cn":"大号P YSL圣罗兰秋冬新款🍂 ROSE同款 新上的麂皮, 轻巧又充满时尚感,手感超级好 软软的 搭配简单的ysl logo 真的巨好背!尺寸:30x31x13cm编码:753837","specs":{"source":"wsxcme","sourceId":"_dlWlWcZcpS3x4r5rnSW29LQyTuXc_TnNi6wQSkA","sourceTagId":47002761,"sourceTagName":"圣罗兰/女包","dimensions":{"lengthCm":30,"heightCm":31,"widthCm":13},"rawTitle":"大号P YSL圣罗兰秋冬新款🍂 ROSE同款 新上的麂皮, 轻巧又充满时尚感,手感超级好 软软的 搭配简单的ysl logo 真的巨好背!尺寸:30x31x13cm编码:753837"},"price":null,"currency":"CNY","moq":1,"category":"ysl-women-bags","status":"active","alibaba_url":null,"images":["https://xcimg.szwego.com/img/aed707d3/20231128/a1701150995467_7812.jpg","https://xcimg.szwego.com/img/aed707d3/20231128/a1701150995376_4002.jpg","https://xcimg.szwego.com/img/aed707d3/20231128/a1701150994989_2301.jpg","https://xcimg.szwego.com/img/aed707d3/20231128/a1701150995037_4717.jpg","https://xcimg.szwego.com/img/aed707d3/20231128/a1701150995031_8088.jpg","https://xcimg.szwego.com/img/aed707d3/20231128/a1701150995100_5885.jpg","https://xcimg.szwego.com/img/aed707d3/20231128/a1701150996384_7450.jpg","https://xcimg.szwego.com/img/aed707d3/20231128/a1701150996471_0505.jpg","https://xcimg.szwego.com/img/aed707d3/20231128/a1701150996438_6001.jpg"],"created_at":"2024-12-08T05:47:45.416Z"},{"id":"item-540ccb136c8e","sku":"_dlrlrKq584-2LrMlzN9A4_gldUfXnNZVkp0ZEeQ","name_en":"P niki 系列 新款购物袋又要火个底朝天了,上班通勤都很好,还可以做妈妈袋,不得不说真的很好背啊,自重超级轻,怎么搭配怎么好看,购物袋就是要大才好看啊。尺寸33x27x11.5cm  编码577999","name_cn":"P niki 系列 新款购物袋又要火个底朝天了,上班通勤都很好,还可以做妈妈袋,不得不说真的很好背啊,自重超级轻,怎么搭配怎么好看,购物袋就是要大才好看啊。尺寸33x27x11.5cm  编码577999","specs":{"source":"wsxcme","sourceId":"_dlrlrKq584-2LrMlzN9A4_gldUfXnNZVkp0ZEeQ","sourceTagId":47002761,"sourceTagName":"圣罗兰/女包","dimensions":{"lengthCm":33,"heightCm":27,"widthCm":11.5},"rawTitle":"P niki 系列 新款购物袋又要火个底朝天了,上班通勤都很好,还可以做妈妈袋,不得不说真的很好背啊,自重超级轻,怎么搭配怎么好看,购物袋就是要大才好看啊。尺寸33x27x11.5cm  编码577999"},"price":null,"currency":"CNY","moq":1,"category":"ysl-women-bags","status":"active","alibaba_url":null,"images":["https://xcimg.szwego.com/img/aed707d3/20240118/a1705556761999_8248.jpg","https://xcimg.szwego.com/img/aed707d3/20240118/a1705556761947_1721.jpg","https://xcimg.szwego.com/img/aed707d3/20240118/a1705556761987_8468.jpg","https://xcimg.szwego.com/img/aed707d3/20240118/a1705556761728_7040.jpg","https://xcimg.szwego.com/img/aed707d3/20240118/a1705556762327_0676.jpg","https://xcimg.szwego.com/img/aed707d3/20240118/a1705556762989_0252.jpg","https://xcimg.szwego.com/img/aed707d3/20240118/a1705556761319_6812.jpg","https://xcimg.szwego.com/img/aed707d3/20240118/a1705556762977_3631.jpg","https://xcimg.szwego.com/img/aed707d3/20240118/a1705556763324_2343.jpg"],"created_at":"2024-12-08T05:47:33.207Z"}],"page":34,"pageSize":24,"total":888,"totalPages":37}
