{"items":[{"id":"item-260d9ce088eb","sku":"_dQOQOeAYyYsVeJAdurlWyKqlLn0brqVEgcuVDcQ","name_en":"Saint Laurent Women Bags","name_cn":"复古 时髦 精致并存","specs":{"source":"wsxcme","sourceId":"_dQOQOeAYyYsVeJAdurlWyKqlLn0brqVEgcuVDcQ","sourceTagId":47002761,"sourceTagName":"圣罗兰/女包","rawTitle":"复古 时髦 精致并存"},"price":null,"currency":"CNY","moq":1,"category":"ysl-women-bags","status":"active","alibaba_url":null,"images":["https://xcimg.szwego.com/20230720/i1689849444_1977_0.jpg","https://xcimg.szwego.com/20230720/i1689849444_8627_1.jpg","https://xcimg.szwego.com/20230720/i1689849444_8285_2.jpg","https://xcimg.szwego.com/20230720/i1689849444_285_3.jpg","https://xcimg.szwego.com/20230720/i1689849444_3515_4.jpg","https://xcimg.szwego.com/20230720/i1689849444_6641_5.jpg","https://xcimg.szwego.com/20230720/i1689849444_6413_6.jpg","https://xcimg.szwego.com/20230720/i1689849444_7431_7.jpg"],"created_at":"2026-06-29T10:48:59.299Z"},{"id":"item-b64a2b52fdf0","sku":"_do_o_r3esZ0tG_PGAc_Wfuf_u2R0CQ1_bw0ebqw","name_en":"Zp图_","name_cn":"Zp图_","specs":{"source":"wsxcme","sourceId":"_do_o_r3esZ0tG_PGAc_Wfuf_u2R0CQ1_bw0ebqw","sourceTagId":47002761,"sourceTagName":"圣罗兰/女包","rawTitle":"Zp图_"},"price":null,"currency":"CNY","moq":1,"category":"ysl-women-bags","status":"active","alibaba_url":null,"images":["https://xcimg.szwego.com/20230720/i1689849328_4856_0.jpg","https://xcimg.szwego.com/20230720/i1689849328_2306_1.jpg","https://xcimg.szwego.com/20230720/i1689849328_260_2.jpg","https://xcimg.szwego.com/20230720/i1689849328_2728_3.jpg","https://xcimg.szwego.com/20230720/i1689849328_7167_4.jpg","https://xcimg.szwego.com/20230720/i1689849328_1717_5.jpg","https://xcimg.szwego.com/20230720/i1689849328_5551_6.jpg"],"created_at":"2026-06-29T10:48:59.289Z"},{"id":"item-c99a2ed121b7","sku":"_dk7k7RH9HRPOgDLSwHmnEtnxrTYnBonQ9VNDQPA","name_en":"Saint Laurent Women Bags","name_cn":"官网图_","specs":{"source":"wsxcme","sourceId":"_dk7k7RH9HRPOgDLSwHmnEtnxrTYnBonQ9VNDQPA","sourceTagId":47002761,"sourceTagName":"圣罗兰/女包","rawTitle":"官网图_"},"price":null,"currency":"CNY","moq":1,"category":"ysl-women-bags","status":"active","alibaba_url":null,"images":["https://xcimg.szwego.com/20230720/i1689849279_8170_0.jpg","https://xcimg.szwego.com/20230720/i1689849279_1231_1.jpg","https://xcimg.szwego.com/20230720/i1689849279_2949_2.jpg","https://xcimg.szwego.com/20230720/i1689849279_1994_3.jpg","https://xcimg.szwego.com/20230720/i1689849279_3707_4.jpg"],"created_at":"2026-06-29T10:48:59.279Z"},{"id":"item-3d8c77fc8e46","sku":"_drvrvYf7sehmWuSVN9yXb7YvGw5Fy3Dulus6M1Q","name_en":"Saint Laurent Women Bags","name_cn":"官网图_","specs":{"source":"wsxcme","sourceId":"_drvrvYf7sehmWuSVN9yXb7YvGw5Fy3Dulus6M1Q","sourceTagId":47002761,"sourceTagName":"圣罗兰/女包","rawTitle":"官网图_"},"price":null,"currency":"CNY","moq":1,"category":"ysl-women-bags","status":"active","alibaba_url":null,"images":["https://xcimg.szwego.com/20230720/i1689849264_5135_0.jpg","https://xcimg.szwego.com/20230720/i1689849264_2417_1.jpg","https://xcimg.szwego.com/20230720/i1689849264_4706_2.jpg","https://xcimg.szwego.com/20230720/i1689849264_8335_3.jpg","https://xcimg.szwego.com/20230720/i1689849264_5378_4.jpg","https://xcimg.szwego.com/20230720/i1689849264_7728_5.jpg"],"created_at":"2026-06-29T10:48:59.269Z"},{"id":"item-9488a4aa455b","sku":"_dkFkFBFw2yRrVN36HRL8luYLkvbyrPyYHNSoEpA","name_en":"Saint Laurent Women Bags","name_cn":"简洁的线条勾勒出包包的轮廓 展现出一种优雅而不失时尚的气质","specs":{"source":"wsxcme","sourceId":"_dkFkFBFw2yRrVN36HRL8luYLkvbyrPyYHNSoEpA","sourceTagId":47002761,"sourceTagName":"圣罗兰/女包","rawTitle":"简洁的线条勾勒出包包的轮廓 展现出一种优雅而不失时尚的气质"},"price":null,"currency":"CNY","moq":1,"category":"ysl-women-bags","status":"active","alibaba_url":null,"images":["https://xcimg.szwego.com/imgHD/f8c0bdc9/20250328/cmp_i1743146685200_6178_0_0.jpg","https://xcimg.szwego.com/imgHD/f8c0bdc9/20250328/cmp_i1743146685249_9308_0_1.jpg","https://xcimg.szwego.com/imgHD/f8c0bdc9/20250328/cmp_i1743146685255_3382_0_2.jpg"],"created_at":"2026-06-29T10:48:59.259Z"},{"id":"item-bb66478f5141","sku":"_d2S2SVcKfnmX5kKsnHw40XQTg_pcXBnd83k6rgA","name_en":"细节po","name_cn":"细节po","specs":{"source":"wsxcme","sourceId":"_d2S2SVcKfnmX5kKsnHw40XQTg_pcXBnd83k6rgA","sourceTagId":47002761,"sourceTagName":"圣罗兰/女包","rawTitle":"细节po"},"price":null,"currency":"CNY","moq":1,"category":"ysl-women-bags","status":"active","alibaba_url":null,"images":["https://xcimg.szwego.com/imgHD/f8c0bdc9/20250328/cmp_i1743146672079_1391_0_0.jpg","https://xcimg.szwego.com/imgHD/f8c0bdc9/20250328/cmp_i1743146672020_7549_0_1.jpg","https://xcimg.szwego.com/imgHD/f8c0bdc9/20250328/cmp_i1743146675666_6512_0_2.jpg","https://xcimg.szwego.com/imgHD/f8c0bdc9/20250328/cmp_i1743146672848_6631_0_3.jpg","https://xcimg.szwego.com/imgHD/f8c0bdc9/20250328/cmp_i1743146675589_3018_0_4.jpg","https://xcimg.szwego.com/imgHD/f8c0bdc9/20250328/cmp_i1743146672342_2763_0_5.jpg","https://xcimg.szwego.com/imgHD/f8c0bdc9/20250328/cmp_i1743146672056_9269_0_6.jpg","https://xcimg.szwego.com/imgHD/f8c0bdc9/20250328/cmp_i1743146675720_6493_0_7.jpg"],"created_at":"2026-06-29T10:48:59.249Z"},{"id":"item-54b35526dde8","sku":"_d9k9kRgpOEZ_V6ZtXb5TVFszmfL4gwNs8Vmpsnw","name_en":"Saint Laurent Women Bags","name_cn":"黑色鳄鱼纹金扣·\nCASSANDRE _链条包 超级实用的一款小包,意大利进口原厂鳄鱼纹牛皮,里外全皮。经典金属logo彰显个性,翻盖设计确保使用的安全性。肩带可拆卸,包包内设有十个卡片槽,一个纸币隔层,两个隔层,一个拉链内袋,装进所有!\n型号:743364\n尺寸:23x14x3cm \n肩带长度:47cm","specs":{"source":"wsxcme","sourceId":"_d9k9kRgpOEZ_V6ZtXb5TVFszmfL4gwNs8Vmpsnw","sourceTagId":47002761,"sourceTagName":"圣罗兰/女包","modelNumber":"743364","dimensions":{"lengthCm":23,"heightCm":14,"widthCm":3},"rawTitle":"黑色鳄鱼纹金扣·\nCASSANDRE _链条包 超级实用的一款小包,意大利进口原厂鳄鱼纹牛皮,里外全皮。经典金属logo彰显个性,翻盖设计确保使用的安全性。肩带可拆卸,包包内设有十个卡片槽,一个纸币隔层,两个隔层,一个拉链内袋,装进所有!\n型号:743364\n尺寸:23x14x3cm \n肩带长度:47cm"},"price":null,"currency":"CNY","moq":1,"category":"ysl-women-bags","status":"active","alibaba_url":null,"images":["https://xcimg.szwego.com/imgHD/f8c0bdc9/20250328/cmp_i1743146638962_3282_0_0.jpg","https://xcimg.szwego.com/imgHD/f8c0bdc9/20250328/cmp_i1743146636669_1236_0_1.jpg","https://xcimg.szwego.com/imgHD/f8c0bdc9/20250328/cmp_i1743146638459_2139_0_2.jpg","https://xcimg.szwego.com/imgHD/f8c0bdc9/20250328/cmp_i1743146636015_510_0_3.jpg","https://xcimg.szwego.com/imgHD/f8c0bdc9/20250328/cmp_i1743146638890_592_0_4.jpg","https://xcimg.szwego.com/imgHD/f8c0bdc9/20250328/cmp_i1743146636652_9258_0_5.jpg","https://xcimg.szwego.com/imgHD/f8c0bdc9/20250328/cmp_i1743146636066_7484_0_6.jpg","https://xcimg.szwego.com/imgHD/f8c0bdc9/20250328/cmp_i1743146638466_3698_0_7.jpg","https://xcimg.szwego.com/imgHD/f8c0bdc9/20250328/cmp_i1743146636711_9377_0_8.jpg"],"created_at":"2026-06-29T10:48:59.239Z"},{"id":"item-dc8f5ba5c427","sku":"_d_7_79Iw3AK7He5n230HgttqlWGc1v6OsqwEiNw","name_en":"Saint Laurent Women Bags","name_cn":"随拍上身参考","specs":{"source":"wsxcme","sourceId":"_d_7_79Iw3AK7He5n230HgttqlWGc1v6OsqwEiNw","sourceTagId":47002761,"sourceTagName":"圣罗兰/女包","rawTitle":"随拍上身参考"},"price":null,"currency":"CNY","moq":1,"category":"ysl-women-bags","status":"active","alibaba_url":null,"images":["https://xcimg.szwego.com/img/f8c0bdc9/20250107/i1736242432947_6078_0_0.jpg","https://xcimg.szwego.com/img/f8c0bdc9/20250107/i1736242432693_5028_0_1.jpg","https://xcimg.szwego.com/img/f8c0bdc9/20250107/i1736242432816_6032_0_2.jpg"],"created_at":"2026-06-29T10:48:59.229Z"},{"id":"item-73fad88a00bb","sku":"_d4k4kL2yuiYGlxJo1Lk_zvO0xnLcApKOF56Cacw","name_en":"细节po","name_cn":"细节po","specs":{"source":"wsxcme","sourceId":"_d4k4kL2yuiYGlxJo1Lk_zvO0xnLcApKOF56Cacw","sourceTagId":47002761,"sourceTagName":"圣罗兰/女包","rawTitle":"细节po"},"price":null,"currency":"CNY","moq":1,"category":"ysl-women-bags","status":"active","alibaba_url":null,"images":["https://xcimg.szwego.com/img/f8c0bdc9/20250107/i1736242421256_8814_0_0.jpg","https://xcimg.szwego.com/img/f8c0bdc9/20250107/i1736242421323_213_0_1.jpg","https://xcimg.szwego.com/img/f8c0bdc9/20250107/i1736242421190_6473_0_2.jpg","https://xcimg.szwego.com/img/f8c0bdc9/20250107/i1736242421123_7535_0_3.jpg","https://xcimg.szwego.com/img/f8c0bdc9/20250107/i1736242421060_1049_0_4.jpg","https://xcimg.szwego.com/img/f8c0bdc9/20250107/i1736242420994_9910_0_5.jpg","https://xcimg.szwego.com/img/f8c0bdc9/20250107/i1736242421460_6326_0_6.jpg","https://xcimg.szwego.com/img/f8c0bdc9/20250107/i1736242421388_14_0_7.jpg"],"created_at":"2026-06-29T10:48:59.219Z"},{"id":"item-faef69e08dea","sku":"_dx1x1Z0rHmU4pWdzeoHg0yELfZmuVf8X3ChL-LQ","name_en":"Saint Laurent Women Bags","name_cn":"白色鳄鱼纹金扣·\nCASSANDRE _链条包 超级实用的一款小包,意大利进口原厂鳄鱼纹牛皮,里外全皮。经典金属logo彰显个性,翻盖设计确保使用的安全性。肩带可拆卸,包包内设有十个卡片槽,一个纸币隔层,两个隔层,一个拉链内袋,装进所有!\n型号:743364\n尺寸:23x14x3cm \n肩带长度:47cm","specs":{"source":"wsxcme","sourceId":"_dx1x1Z0rHmU4pWdzeoHg0yELfZmuVf8X3ChL-LQ","sourceTagId":47002761,"sourceTagName":"圣罗兰/女包","modelNumber":"743364","dimensions":{"lengthCm":23,"heightCm":14,"widthCm":3},"rawTitle":"白色鳄鱼纹金扣·\nCASSANDRE _链条包 超级实用的一款小包,意大利进口原厂鳄鱼纹牛皮,里外全皮。经典金属logo彰显个性,翻盖设计确保使用的安全性。肩带可拆卸,包包内设有十个卡片槽,一个纸币隔层,两个隔层,一个拉链内袋,装进所有!\n型号:743364\n尺寸:23x14x3cm \n肩带长度:47cm"},"price":null,"currency":"CNY","moq":1,"category":"ysl-women-bags","status":"active","alibaba_url":null,"images":["https://xcimg.szwego.com/img/f8c0bdc9/20250107/i1736242357331_3385_0_0.jpg","https://xcimg.szwego.com/img/f8c0bdc9/20250107/i1736242357270_2170_0_1.jpg","https://xcimg.szwego.com/img/f8c0bdc9/20250107/i1736242357147_1849_0_2.jpg","https://xcimg.szwego.com/img/f8c0bdc9/20250107/i1736242357596_6527_0_3.jpg","https://xcimg.szwego.com/img/f8c0bdc9/20250107/i1736242357208_1348_0_4.jpg","https://xcimg.szwego.com/img/f8c0bdc9/20250107/i1736242357459_6770_0_5.jpg","https://xcimg.szwego.com/img/f8c0bdc9/20250107/i1736242357394_9041_0_6.jpg","https://xcimg.szwego.com/img/f8c0bdc9/20250107/i1736242357531_2379_0_7.jpg","https://xcimg.szwego.com/img/f8c0bdc9/20250107/i1736242357082_686_0_8.jpg"],"created_at":"2026-06-29T10:48:59.209Z"},{"id":"item-8f31635bb399","sku":"_dwFwFk5AsbXCxz9ZnS21wkrjx2DNE06yaNN8o6Q","name_en":"看起来像巧克力的Chain wallet!","name_cn":"看起来像巧克力的Chain wallet!","specs":{"source":"wsxcme","sourceId":"_dwFwFk5AsbXCxz9ZnS21wkrjx2DNE06yaNN8o6Q","sourceTagId":47002761,"sourceTagName":"圣罗兰/女包","rawTitle":"看起来像巧克力的Chain wallet!"},"price":null,"currency":"CNY","moq":1,"category":"ysl-women-bags","status":"active","alibaba_url":null,"images":["https://xcimg.szwego.com/20230720/i1689850056_9474_0.jpg","https://xcimg.szwego.com/20230720/i1689850056_2239_1.jpg","https://xcimg.szwego.com/20230720/i1689850056_4455_2.jpg","https://xcimg.szwego.com/20230720/i1689850056_1273_3.jpg"],"created_at":"2026-06-29T10:48:59.199Z"},{"id":"item-32ab6b3fd2f9","sku":"_dDADAUhegNGAu3wDv8z5xkITwXJ8fxmjmUVPkxA","name_en":"Saint Laurent Women Bags","name_cn":"小羊皮的高级质感 爱不释手","specs":{"source":"wsxcme","sourceId":"_dDADAUhegNGAu3wDv8z5xkITwXJ8fxmjmUVPkxA","sourceTagId":47002761,"sourceTagName":"圣罗兰/女包","rawTitle":"小羊皮的高级质感 爱不释手"},"price":null,"currency":"CNY","moq":1,"category":"ysl-women-bags","status":"active","alibaba_url":null,"images":["https://xcimg.szwego.com/20230720/i1689850017_7472_0.jpg","https://xcimg.szwego.com/20230720/i1689850017_7929_1.jpg","https://xcimg.szwego.com/20230720/i1689850017_8102_2.jpg","https://xcimg.szwego.com/20230720/i1689850017_1843_3.jpg","https://xcimg.szwego.com/20230720/i1689850017_9396_4.jpg","https://xcimg.szwego.com/20230720/i1689850017_1708_5.jpg","https://xcimg.szwego.com/20230720/i1689850017_2066_6.jpg","https://xcimg.szwego.com/20230720/i1689850017_4342_7.jpg"],"created_at":"2026-06-29T10:48:59.189Z"},{"id":"item-223996cdc49f","sku":"_dnKnKGFQc2l8OIhneidB7YPteNOkvzS4ycNNWLg","name_en":"Saint Laurent Women Bags","name_cn":"格纹链条包 复古潮流","specs":{"source":"wsxcme","sourceId":"_dnKnKGFQc2l8OIhneidB7YPteNOkvzS4ycNNWLg","sourceTagId":47002761,"sourceTagName":"圣罗兰/女包","rawTitle":"格纹链条包 复古潮流"},"price":null,"currency":"CNY","moq":1,"category":"ysl-women-bags","status":"active","alibaba_url":null,"images":["https://xcimg.szwego.com/20230720/i1689849940_803_0.jpg","https://xcimg.szwego.com/20230720/i1689849940_6989_1.jpg","https://xcimg.szwego.com/20230720/i1689849940_7587_2.jpg","https://xcimg.szwego.com/20230720/i1689849940_6932_3.jpg"],"created_at":"2026-06-29T10:48:59.179Z"},{"id":"item-1d54c987fbb2","sku":"_dkekem8_Raw87ozF65ObXbO7tqZ5vHeV7x7fGsw","name_en":"Saint Laurent Women Bags","name_cn":"官网图_","specs":{"source":"wsxcme","sourceId":"_dkekem8_Raw87ozF65ObXbO7tqZ5vHeV7x7fGsw","sourceTagId":47002761,"sourceTagName":"圣罗兰/女包","rawTitle":"官网图_"},"price":null,"currency":"CNY","moq":1,"category":"ysl-women-bags","status":"active","alibaba_url":null,"images":["https://xcimg.szwego.com/20230720/i1689849817_9871_0.jpg","https://xcimg.szwego.com/20230720/i1689849817_9590_1.jpg","https://xcimg.szwego.com/20230720/i1689849817_4098_2.jpg","https://xcimg.szwego.com/20230720/i1689849817_5201_3.jpg","https://xcimg.szwego.com/20230720/i1689849817_9290_4.jpg","https://xcimg.szwego.com/20230720/i1689849817_4675_5.jpg"],"created_at":"2026-06-29T10:48:59.169Z"},{"id":"item-56f94d273c81","sku":"_dm9m9vYyFzC__3aTXiN3aUyWo9Z_9J4iiH59yZw","name_en":"链条可拆卸 参加party当手拿包 又是一种新风格","name_cn":"链条可拆卸 参加party当手拿包 又是一种新风格","specs":{"source":"wsxcme","sourceId":"_dm9m9vYyFzC__3aTXiN3aUyWo9Z_9J4iiH59yZw","sourceTagId":47002761,"sourceTagName":"圣罗兰/女包","rawTitle":"链条可拆卸 参加party当手拿包 又是一种新风格"},"price":null,"currency":"CNY","moq":1,"category":"ysl-women-bags","status":"active","alibaba_url":null,"images":["https://xcimg.szwego.com/imgHD/f8c0bdc9/20250328/cmp_i1743146423919_9315_0_0.jpg","https://xcimg.szwego.com/imgHD/f8c0bdc9/20250328/cmp_i1743146423957_3555_0_1.jpg","https://xcimg.szwego.com/imgHD/f8c0bdc9/20250328/cmp_i1743146423918_3991_0_2.jpg"],"created_at":"2026-06-29T10:48:59.159Z"},{"id":"item-e07b67bdf9ea","sku":"_dk0k0YbXQ-wC70sppgXIz6e6jpIxlFHAgYoCWwA","name_en":"细节po","name_cn":"细节po","specs":{"source":"wsxcme","sourceId":"_dk0k0YbXQ-wC70sppgXIz6e6jpIxlFHAgYoCWwA","sourceTagId":47002761,"sourceTagName":"圣罗兰/女包","rawTitle":"细节po"},"price":null,"currency":"CNY","moq":1,"category":"ysl-women-bags","status":"active","alibaba_url":null,"images":["https://xcimg.szwego.com/imgHD/f8c0bdc9/20250328/cmp_i1743146383735_9251_0_0.jpg","https://xcimg.szwego.com/imgHD/f8c0bdc9/20250328/cmp_i1743146386571_7425_0_1.jpg","https://xcimg.szwego.com/imgHD/f8c0bdc9/20250328/cmp_i1743146386527_701_0_2.jpg","https://xcimg.szwego.com/imgHD/f8c0bdc9/20250328/cmp_i1743146384136_3323_0_3.jpg","https://xcimg.szwego.com/imgHD/f8c0bdc9/20250328/cmp_i1743146384195_3079_0_4.jpg","https://xcimg.szwego.com/imgHD/f8c0bdc9/20250328/cmp_i1743146384253_4815_0_5.jpg","https://xcimg.szwego.com/imgHD/f8c0bdc9/20250328/cmp_i1743146384280_1442_0_6.jpg","https://xcimg.szwego.com/imgHD/f8c0bdc9/20250328/cmp_i1743146386602_1284_0_7.jpg"],"created_at":"2026-06-29T10:48:59.149Z"},{"id":"item-bb3af17a24c6","sku":"_drBrB-n4J86sB_t3jEtZgGtuXcIfq2wZk75zxwQ","name_en":"Saint Laurent Women Bags","name_cn":"黑色羊皮绣格子·\nCASSANDRE _链条包 超级实用的一款小包,意大利进口原厂小羊皮,里外全皮。搭配方形格缝精细手工制作,经典金属logo彰显个性,翻盖设计确保使用的安全性。肩带可拆卸,包包内设有十个卡片槽,一个纸币隔层,两个隔层,一个拉链内袋,装进所有!\n型号:743364\n尺寸:23x14x3cm \n肩带长度:47cm","specs":{"source":"wsxcme","sourceId":"_drBrB-n4J86sB_t3jEtZgGtuXcIfq2wZk75zxwQ","sourceTagId":47002761,"sourceTagName":"圣罗兰/女包","modelNumber":"743364","dimensions":{"lengthCm":23,"heightCm":14,"widthCm":3},"rawTitle":"黑色羊皮绣格子·\nCASSANDRE _链条包 超级实用的一款小包,意大利进口原厂小羊皮,里外全皮。搭配方形格缝精细手工制作,经典金属logo彰显个性,翻盖设计确保使用的安全性。肩带可拆卸,包包内设有十个卡片槽,一个纸币隔层,两个隔层,一个拉链内袋,装进所有!\n型号:743364\n尺寸:23x14x3cm \n肩带长度:47cm"},"price":null,"currency":"CNY","moq":1,"category":"ysl-women-bags","status":"active","alibaba_url":null,"images":["https://xcimg.szwego.com/imgHD/f8c0bdc9/20250328/cmp_i1743146325803_1955_0_0.jpg","https://xcimg.szwego.com/imgHD/f8c0bdc9/20250328/cmp_i1743146325792_4153_0_1.jpg","https://xcimg.szwego.com/imgHD/f8c0bdc9/20250328/cmp_i1743146325183_4929_0_2.jpg","https://xcimg.szwego.com/imgHD/f8c0bdc9/20250328/cmp_i1743146325815_272_0_3.jpg","https://xcimg.szwego.com/imgHD/f8c0bdc9/20250328/cmp_i1743146322118_9620_0_4.jpg","https://xcimg.szwego.com/imgHD/f8c0bdc9/20250328/cmp_i1743146322779_9138_0_5.jpg","https://xcimg.szwego.com/imgHD/f8c0bdc9/20250328/cmp_i1743146322240_3371_0_6.jpg","https://xcimg.szwego.com/imgHD/f8c0bdc9/20250328/cmp_i1743146322308_4100_0_7.jpg","https://xcimg.szwego.com/imgHD/f8c0bdc9/20250328/cmp_i1743146322119_1638_0_8.jpg"],"created_at":"2026-06-29T10:48:59.139Z"},{"id":"item-ee77bf1e0e6b","sku":"_dfLfLjveb8u24hzM2Q1R8DMEPttf8MZnkmcVISQ","name_en":"Saint Laurent Women Bags","name_cn":"随拍上身参考","specs":{"source":"wsxcme","sourceId":"_dfLfLjveb8u24hzM2Q1R8DMEPttf8MZnkmcVISQ","sourceTagId":47002761,"sourceTagName":"圣罗兰/女包","rawTitle":"随拍上身参考"},"price":null,"currency":"CNY","moq":1,"category":"ysl-women-bags","status":"active","alibaba_url":null,"images":["https://xcimg.szwego.com/img/f8c0bdc9/20250107/i1736242280183_9423_0_0.jpg","https://xcimg.szwego.com/img/f8c0bdc9/20250107/i1736242280065_1748_0_1.jpg","https://xcimg.szwego.com/img/f8c0bdc9/20250107/i1736242280299_2617_0_2.jpg"],"created_at":"2026-06-29T10:48:59.129Z"},{"id":"item-820105dec0e9","sku":"_daRaRxkvCc0fnqmNCrTOHL1yOLgCs7Ys1udSwCw","name_en":"细节po","name_cn":"细节po","specs":{"source":"wsxcme","sourceId":"_daRaRxkvCc0fnqmNCrTOHL1yOLgCs7Ys1udSwCw","sourceTagId":47002761,"sourceTagName":"圣罗兰/女包","rawTitle":"细节po"},"price":null,"currency":"CNY","moq":1,"category":"ysl-women-bags","status":"active","alibaba_url":null,"images":["https://xcimg.szwego.com/img/f8c0bdc9/20250107/i1736242268005_6281_0_0.jpg","https://xcimg.szwego.com/img/f8c0bdc9/20250107/i1736242267852_9386_0_1.jpg","https://xcimg.szwego.com/img/f8c0bdc9/20250107/i1736242268139_8367_0_2.jpg","https://xcimg.szwego.com/img/f8c0bdc9/20250107/i1736242268069_9316_0_3.jpg","https://xcimg.szwego.com/img/f8c0bdc9/20250107/i1736242267928_4183_0_4.jpg"],"created_at":"2026-06-29T10:48:59.119Z"},{"id":"item-dc42a66b8543","sku":"_dkUkUjOZiWU15HuaQ-LwxjyTe_jQYHh9gmkQJKg","name_en":"Saint Laurent Women Bags","name_cn":"白色羊皮绣格子·\nCASSANDRE _链条包 超级实用的一款小包,意大利进口原厂小羊皮,里外全皮。搭配方形格缝精细手工制作,经典金属logo彰显个性,翻盖设计确保使用的安全性。肩带可拆卸,包包内设有十个卡片槽,一个纸币隔层,两个隔层,一个拉链内袋,装进所有!\n型号:743364\n尺寸:23x14x3cm \n肩带长度:47cm","specs":{"source":"wsxcme","sourceId":"_dkUkUjOZiWU15HuaQ-LwxjyTe_jQYHh9gmkQJKg","sourceTagId":47002761,"sourceTagName":"圣罗兰/女包","modelNumber":"743364","dimensions":{"lengthCm":23,"heightCm":14,"widthCm":3},"rawTitle":"白色羊皮绣格子·\nCASSANDRE _链条包 超级实用的一款小包,意大利进口原厂小羊皮,里外全皮。搭配方形格缝精细手工制作,经典金属logo彰显个性,翻盖设计确保使用的安全性。肩带可拆卸,包包内设有十个卡片槽,一个纸币隔层,两个隔层,一个拉链内袋,装进所有!\n型号:743364\n尺寸:23x14x3cm \n肩带长度:47cm"},"price":null,"currency":"CNY","moq":1,"category":"ysl-women-bags","status":"active","alibaba_url":null,"images":["https://xcimg.szwego.com/img/f8c0bdc9/20250107/i1736242206811_9606_0_0.jpg","https://xcimg.szwego.com/img/f8c0bdc9/20250107/i1736242206881_1038_0_1.jpg","https://xcimg.szwego.com/img/f8c0bdc9/20250107/i1736242207169_1744_0_2.jpg","https://xcimg.szwego.com/img/f8c0bdc9/20250107/i1736242207302_623_0_3.jpg","https://xcimg.szwego.com/img/f8c0bdc9/20250107/i1736242206741_6533_0_4.jpg","https://xcimg.szwego.com/img/f8c0bdc9/20250107/i1736242207023_9809_0_5.jpg","https://xcimg.szwego.com/img/f8c0bdc9/20250107/i1736242207236_8025_0_6.jpg","https://xcimg.szwego.com/img/f8c0bdc9/20250107/i1736242206951_7243_0_7.jpg","https://xcimg.szwego.com/img/f8c0bdc9/20250107/i1736242207095_1809_0_8.jpg"],"created_at":"2026-06-29T10:48:59.109Z"},{"id":"item-1b175be0d9d4","sku":"_d-I-IgmhIIKlaS_9FtNqsWVsFxIhQJMmB9BNc4g","name_en":"Saint Laurent Women Bags","name_cn":"酒红色漆皮超级显质感 \n无论是休闲or正装或者小礼裙 都可以完美驾驭","specs":{"source":"wsxcme","sourceId":"_d-I-IgmhIIKlaS_9FtNqsWVsFxIhQJMmB9BNc4g","sourceTagId":47002761,"sourceTagName":"圣罗兰/女包","rawTitle":"酒红色漆皮超级显质感 \n无论是休闲or正装或者小礼裙 都可以完美驾驭"},"price":null,"currency":"CNY","moq":1,"category":"ysl-women-bags","status":"active","alibaba_url":null,"images":["https://xcimg.szwego.com/imgHD/f8c0bdc9/20251104/cmp_i1762245929964_2234_0_0.jpg","https://xcimg.szwego.com/imgHD/f8c0bdc9/20251104/cmp_i1762245929954_4344_0_1.jpg","https://xcimg.szwego.com/imgHD/f8c0bdc9/20251104/cmp_i1762245929931_1086_0_2.jpg","https://xcimg.szwego.com/imgHD/f8c0bdc9/20251104/cmp_i1762245929985_9298_0_3.jpg"],"created_at":"2026-06-29T10:48:59.099Z"},{"id":"item-06608fd9e1c7","sku":"_dKCKCHArur4Dtj4DoEDoOYszsWWgQMvr9dPrSgw","name_en":"细节po","name_cn":"细节po","specs":{"source":"wsxcme","sourceId":"_dKCKCHArur4Dtj4DoEDoOYszsWWgQMvr9dPrSgw","sourceTagId":47002761,"sourceTagName":"圣罗兰/女包","rawTitle":"细节po"},"price":null,"currency":"CNY","moq":1,"category":"ysl-women-bags","status":"active","alibaba_url":null,"images":["https://xcimg.szwego.com/imgHD/f8c0bdc9/20251104/cmp_i1762245914161_1223_0_0.jpg","https://xcimg.szwego.com/imgHD/f8c0bdc9/20251104/cmp_i1762245917164_1545_0_1.jpg","https://xcimg.szwego.com/imgHD/f8c0bdc9/20251104/cmp_i1762245914092_6238_0_2.jpg","https://xcimg.szwego.com/imgHD/f8c0bdc9/20251104/cmp_i1762245917923_5324_0_3.jpg","https://xcimg.szwego.com/imgHD/f8c0bdc9/20251104/cmp_i1762245914007_4402_0_4.jpg","https://xcimg.szwego.com/imgHD/f8c0bdc9/20251104/cmp_i1762245913778_7860_0_5.jpg","https://xcimg.szwego.com/imgHD/f8c0bdc9/20251104/cmp_i1762245917161_8523_0_6.jpg","https://xcimg.szwego.com/imgHD/f8c0bdc9/20251104/cmp_i1762245914156_8134_0_7.jpg"],"created_at":"2026-06-29T10:48:59.089Z"},{"id":"item-f263ef0b0acd","sku":"_dr_r_A9jTSlNg44BnbC3QPw2pBVrfqn3MAwu0YA","name_en":"Saint Laurent Women Bags","name_cn":"枣红漆皮绣格子·\nCASSANDRE _链条包 超级实用的一款小包,意大利进口原厂光面牛皮,里外全皮。搭配方形格缝精细手工制作,经典金属logo彰显个性,翻盖设计确保使用的安全性。肩带可拆卸,包包内设有十个卡片槽,一个纸币隔层,两个隔层,一个拉链内袋,装进所有!\n型号:743364\n尺寸:23x14x3cm \n肩带长度:47cm","specs":{"source":"wsxcme","sourceId":"_dr_r_A9jTSlNg44BnbC3QPw2pBVrfqn3MAwu0YA","sourceTagId":47002761,"sourceTagName":"圣罗兰/女包","modelNumber":"743364","dimensions":{"lengthCm":23,"heightCm":14,"widthCm":3},"rawTitle":"枣红漆皮绣格子·\nCASSANDRE _链条包 超级实用的一款小包,意大利进口原厂光面牛皮,里外全皮。搭配方形格缝精细手工制作,经典金属logo彰显个性,翻盖设计确保使用的安全性。肩带可拆卸,包包内设有十个卡片槽,一个纸币隔层,两个隔层,一个拉链内袋,装进所有!\n型号:743364\n尺寸:23x14x3cm \n肩带长度:47cm"},"price":null,"currency":"CNY","moq":1,"category":"ysl-women-bags","status":"active","alibaba_url":null,"images":["https://xcimg.szwego.com/imgHD/f8c0bdc9/20251104/cmp_i1762245858036_1967_0_0.jpg","https://xcimg.szwego.com/imgHD/f8c0bdc9/20251104/cmp_i1762245860003_5964_0_1.jpg","https://xcimg.szwego.com/imgHD/f8c0bdc9/20251104/cmp_i1762245858112_7486_0_2.jpg","https://xcimg.szwego.com/imgHD/f8c0bdc9/20251104/cmp_i1762245859997_7492_0_3.jpg","https://xcimg.szwego.com/imgHD/f8c0bdc9/20251104/cmp_i1762245860128_8551_0_4.jpg","https://xcimg.szwego.com/imgHD/f8c0bdc9/20251104/cmp_i1762245858152_9092_0_5.jpg","https://xcimg.szwego.com/imgHD/f8c0bdc9/20251104/cmp_i1762245856930_8751_0_6.jpg","https://xcimg.szwego.com/imgHD/f8c0bdc9/20251104/cmp_i1762245858172_4464_0_7.jpg","https://xcimg.szwego.com/imgHD/f8c0bdc9/20251104/cmp_i1762245859966_7445_0_8.jpg"],"created_at":"2026-06-29T10:48:59.079Z"},{"id":"item-353b1a18d077","sku":"_dExExAX4YmGJrgN1WcDPEL_J77Vw8MwJH7_GoYQ","name_en":"Saint Laurent Women Bags","name_cn":"官网图","specs":{"source":"wsxcme","sourceId":"_dExExAX4YmGJrgN1WcDPEL_J77Vw8MwJH7_GoYQ","sourceTagId":47002761,"sourceTagName":"圣罗兰/女包","rawTitle":"官网图"},"price":null,"currency":"CNY","moq":1,"category":"ysl-women-bags","status":"active","alibaba_url":null,"images":["https://xcimg.szwego.com/imgHD/f8c0bdc9/20251104/cmp_i1762247287375_8278_0_0.jpg","https://xcimg.szwego.com/imgHD/f8c0bdc9/20251104/cmp_i1762247287376_6575_0_1.jpg","https://xcimg.szwego.com/imgHD/f8c0bdc9/20251104/cmp_i1762247287376_6628_0_2.jpg","https://xcimg.szwego.com/imgHD/f8c0bdc9/20251104/cmp_i1762247287939_1165_0_3.jpg","https://xcimg.szwego.com/imgHD/f8c0bdc9/20251104/cmp_i1762247287374_204_0_4.jpg","https://xcimg.szwego.com/imgHD/f8c0bdc9/20251104/cmp_i1762247287375_4492_0_5.jpg","https://xcimg.szwego.com/imgHD/f8c0bdc9/20251104/cmp_i1762247287938_8029_0_6.jpg"],"created_at":"2026-06-29T10:48:59.069Z"}],"page":6,"pageSize":24,"total":888,"totalPages":37}
