{"items":[{"id":"item-a38657b28c06","sku":"_d9N9N5sZwahXrn0wMNlVWMPguBfFql38mTTv-0A","name_en":"P YSL圣罗兰秋冬新款🍂 ROSE同款 轻巧又充满时尚感,手感超级好 软软的 搭配简单的ysl logo 真的巨好背!尺寸:22x22x10cm编码:713938","name_cn":"P YSL圣罗兰秋冬新款🍂 ROSE同款 轻巧又充满时尚感,手感超级好 软软的 搭配简单的ysl logo 真的巨好背!尺寸:22x22x10cm编码:713938","specs":{"source":"wsxcme","sourceId":"_d9N9N5sZwahXrn0wMNlVWMPguBfFql38mTTv-0A","sourceTagId":47002761,"sourceTagName":"圣罗兰/女包","dimensions":{"lengthCm":22,"heightCm":22,"widthCm":10},"rawTitle":"P YSL圣罗兰秋冬新款🍂 ROSE同款 轻巧又充满时尚感,手感超级好 软软的 搭配简单的ysl logo 真的巨好背!尺寸:22x22x10cm编码:713938"},"price":null,"currency":"CNY","moq":1,"category":"ysl-women-bags","status":"active","alibaba_url":null,"images":["https://xcimg.szwego.com/20230421/a1682075858632_6384.jpg","https://xcimg.szwego.com/20230421/a1682075859001_1073.jpg","https://xcimg.szwego.com/20230421/a1682075859248_8127.jpg","https://xcimg.szwego.com/20230421/a1682075859548_2236.jpg","https://xcimg.szwego.com/20230421/a1682075860086_4516.jpg","https://xcimg.szwego.com/20230421/a1682075860498_5245.jpg","https://xcimg.szwego.com/20230421/a1682075860732_5420.jpg","https://xcimg.szwego.com/20230421/a1682075860952_8551.jpg","https://xcimg.szwego.com/20230421/a1682075861335_5267.jpg"],"created_at":"2025-07-20T03:10:54.203Z"},{"id":"item-957305674a5e","sku":"_dcMcMU8cESTd-3NjNucW20P2QGcwa8ywagkRnlg","name_en":"P YSL圣罗兰秋冬新款🍂 ROSE同款 轻巧又充满时尚感,手感超级好 软软的 搭配简单的ysl logo 真的巨好背!尺寸:22x22x10cm编码:713938","name_cn":"P YSL圣罗兰秋冬新款🍂 ROSE同款 轻巧又充满时尚感,手感超级好 软软的 搭配简单的ysl logo 真的巨好背!尺寸:22x22x10cm编码:713938","specs":{"source":"wsxcme","sourceId":"_dcMcMU8cESTd-3NjNucW20P2QGcwa8ywagkRnlg","sourceTagId":47002761,"sourceTagName":"圣罗兰/女包","dimensions":{"lengthCm":22,"heightCm":22,"widthCm":10},"rawTitle":"P YSL圣罗兰秋冬新款🍂 ROSE同款 轻巧又充满时尚感,手感超级好 软软的 搭配简单的ysl logo 真的巨好背!尺寸:22x22x10cm编码:713938"},"price":null,"currency":"CNY","moq":1,"category":"ysl-women-bags","status":"active","alibaba_url":null,"images":["https://xcimg.szwego.com/20230421/a1682075816615_1440.jpg","https://xcimg.szwego.com/20230421/a1682075817065_0412.jpg","https://xcimg.szwego.com/20230421/a1682075817331_3037.jpg","https://xcimg.szwego.com/20230421/a1682075817606_6466.jpg","https://xcimg.szwego.com/20230421/a1682075818082_3836.jpg","https://xcimg.szwego.com/20230421/a1682075818457_5616.jpg","https://xcimg.szwego.com/20230421/a1682075818695_7048.jpg","https://xcimg.szwego.com/20230421/a1682075819069_7183.jpg","https://xcimg.szwego.com/20230421/a1682075819329_4804.jpg"],"created_at":"2025-07-20T03:10:54.202Z"},{"id":"item-2a038c2e4c68","sku":"_d_j_jy8nngv4jj7hY2A4mY0-70BGybqF4u3fMxw","name_en":"P YSL圣罗兰秋冬新款🍂 ROSE同款 轻巧又充满时尚感,手感超级好 软软的 搭配简单的ysl logo 真的巨好背!尺寸:22x22x10cm编码:713938","name_cn":"P YSL圣罗兰秋冬新款🍂 ROSE同款 轻巧又充满时尚感,手感超级好 软软的 搭配简单的ysl logo 真的巨好背!尺寸:22x22x10cm编码:713938","specs":{"source":"wsxcme","sourceId":"_d_j_jy8nngv4jj7hY2A4mY0-70BGybqF4u3fMxw","sourceTagId":47002761,"sourceTagName":"圣罗兰/女包","dimensions":{"lengthCm":22,"heightCm":22,"widthCm":10},"rawTitle":"P YSL圣罗兰秋冬新款🍂 ROSE同款 轻巧又充满时尚感,手感超级好 软软的 搭配简单的ysl logo 真的巨好背!尺寸:22x22x10cm编码:713938"},"price":null,"currency":"CNY","moq":1,"category":"ysl-women-bags","status":"active","alibaba_url":null,"images":["https://xcimg.szwego.com/20230421/a1682075791750_0650.jpg","https://xcimg.szwego.com/20230421/a1682075792250_2818.jpg","https://xcimg.szwego.com/20230421/a1682075792582_5841.jpg","https://xcimg.szwego.com/20230421/a1682075792900_2088.jpg","https://xcimg.szwego.com/20230421/a1682075793409_7885.jpg","https://xcimg.szwego.com/20230421/a1682075793831_3436.jpg","https://xcimg.szwego.com/20230421/a1682075794107_3285.jpg","https://xcimg.szwego.com/20230421/a1682075794308_6531.jpg","https://xcimg.szwego.com/20230421/a1682075794682_4113.jpg"],"created_at":"2025-07-20T03:10:54.201Z"},{"id":"item-ae4fedfa99c1","sku":"_dXDXDPlv-n4GC_v90s9htswL_1dvDiTzhmVOT5w","name_en":"P YSL圣罗兰秋冬新款🍂 ROSE同款 轻巧又充满时尚感,手感超级好 软软的 搭配简单的ysl logo 真的巨好背!尺寸:22x22x10cm编码:713938","name_cn":"P YSL圣罗兰秋冬新款🍂 ROSE同款 轻巧又充满时尚感,手感超级好 软软的 搭配简单的ysl logo 真的巨好背!尺寸:22x22x10cm编码:713938","specs":{"source":"wsxcme","sourceId":"_dXDXDPlv-n4GC_v90s9htswL_1dvDiTzhmVOT5w","sourceTagId":47002761,"sourceTagName":"圣罗兰/女包","dimensions":{"lengthCm":22,"heightCm":22,"widthCm":10},"rawTitle":"P YSL圣罗兰秋冬新款🍂 ROSE同款 轻巧又充满时尚感,手感超级好 软软的 搭配简单的ysl logo 真的巨好背!尺寸:22x22x10cm编码:713938"},"price":null,"currency":"CNY","moq":1,"category":"ysl-women-bags","status":"active","alibaba_url":null,"images":["https://xcimg.szwego.com/20230421/a1682075759818_5862.jpg","https://xcimg.szwego.com/20230421/a1682075760236_8600.jpg","https://xcimg.szwego.com/20230421/a1682075760488_6415.jpg","https://xcimg.szwego.com/20230421/a1682075760908_2754.jpg","https://xcimg.szwego.com/20230421/a1682075761417_3110.jpg","https://xcimg.szwego.com/20230421/a1682075761720_8477.jpg","https://xcimg.szwego.com/20230421/a1682075761933_8065.jpg","https://xcimg.szwego.com/20230421/a1682075762184_7766.jpg","https://xcimg.szwego.com/20230421/a1682075762583_5758.jpg"],"created_at":"2025-07-20T03:10:54.200Z"},{"id":"item-ae47b2b578f5","sku":"_d9c9c2YNesi4zNvJlLpig2xctAinJNYsVPPrGuw","name_en":"P YSL圣罗兰 NIKI光滑皮革相机包 高级的金属logo设计,正面翻盖和拉链开合设计,相机包实用性超高, 经典不过时的搭配,日常出行大小完全够用 , 单肩斜挎。尺寸:26x19x7.5 编码:712520","name_cn":"P YSL圣罗兰 NIKI光滑皮革相机包 高级的金属logo设计,正面翻盖和拉链开合设计,相机包实用性超高, 经典不过时的搭配,日常出行大小完全够用 , 单肩斜挎。尺寸:26x19x7.5 编码:712520","specs":{"source":"wsxcme","sourceId":"_d9c9c2YNesi4zNvJlLpig2xctAinJNYsVPPrGuw","sourceTagId":47002761,"sourceTagName":"圣罗兰/女包","rawTitle":"P YSL圣罗兰 NIKI光滑皮革相机包 高级的金属logo设计,正面翻盖和拉链开合设计,相机包实用性超高, 经典不过时的搭配,日常出行大小完全够用 , 单肩斜挎。尺寸:26x19x7.5 编码:712520"},"price":null,"currency":"CNY","moq":1,"category":"ysl-women-bags","status":"active","alibaba_url":null,"images":["https://xcimg.szwego.com/img/aed707d3/20231110/a1699595835927_7133.jpg","https://xcimg.szwego.com/img/aed707d3/20231110/a1699595836634_3656.jpg","https://xcimg.szwego.com/img/aed707d3/20231110/a1699595837210_7823.jpg","https://xcimg.szwego.com/img/aed707d3/20231110/a1699595839066_6777.jpg","https://xcimg.szwego.com/img/aed707d3/20231110/a1699595838267_5766.jpg","https://xcimg.szwego.com/img/aed707d3/20231110/a1699595837934_5802.jpg","https://xcimg.szwego.com/img/aed707d3/20231110/a1699595838708_2554.jpg","https://xcimg.szwego.com/img/aed707d3/20231110/a1699595839631_3213.jpg","https://xcimg.szwego.com/img/aed707d3/20231110/a1699595836260_7163.jpg"],"created_at":"2025-07-20T03:10:54.199Z"},{"id":"item-9e68b0036019","sku":"_dxjxjaEP1monsHQfwCagljDxu1E-TQtejGAhbeA","name_en":"P YSL圣罗兰 NIKI光滑皮革相机包 高级的金属logo设计,正面翻盖和拉链开合设计,相机包实用性超高, 经典不过时的搭配,日常出行大小完全够用 , 单肩斜挎。尺寸:26x19x7.5 编码:712520","name_cn":"P YSL圣罗兰 NIKI光滑皮革相机包 高级的金属logo设计,正面翻盖和拉链开合设计,相机包实用性超高, 经典不过时的搭配,日常出行大小完全够用 , 单肩斜挎。尺寸:26x19x7.5 编码:712520","specs":{"source":"wsxcme","sourceId":"_dxjxjaEP1monsHQfwCagljDxu1E-TQtejGAhbeA","sourceTagId":47002761,"sourceTagName":"圣罗兰/女包","rawTitle":"P YSL圣罗兰 NIKI光滑皮革相机包 高级的金属logo设计,正面翻盖和拉链开合设计,相机包实用性超高, 经典不过时的搭配,日常出行大小完全够用 , 单肩斜挎。尺寸:26x19x7.5 编码:712520"},"price":null,"currency":"CNY","moq":1,"category":"ysl-women-bags","status":"active","alibaba_url":null,"images":["https://xcimg.szwego.com/img/2781b905/20231110/i1699598496_7326_0.jpg","https://xcimg.szwego.com/img/aed707d3/20231110/a1699595638259_3322.jpg","https://xcimg.szwego.com/img/aed707d3/20231110/a1699595639943_8015.jpg","https://xcimg.szwego.com/img/aed707d3/20231110/a1699595639611_5633.jpg","https://xcimg.szwego.com/img/aed707d3/20231110/a1699595638527_4802.jpg","https://xcimg.szwego.com/img/aed707d3/20231110/a1699595639110_8585.jpg","https://xcimg.szwego.com/img/aed707d3/20231110/a1699595640259_8361.jpg","https://xcimg.szwego.com/img/aed707d3/20231110/a1699595640860_0432.jpg","https://xcimg.szwego.com/img/aed707d3/20231110/a1699595637510_0408.jpg"],"created_at":"2025-07-20T03:10:54.198Z"},{"id":"item-7a7d738b5a67","sku":"_dUqUqRKIe_ZaBGWfSlX4nm1vyPJVBnTBOy6QLuQ","name_en":"Saint Laurent Women Bags","name_cn":"有些包 他天生就是主角\n\n背上身超级时尚!!️可单肩可双肩,真是爱😘了","specs":{"source":"wsxcme","sourceId":"_dUqUqRKIe_ZaBGWfSlX4nm1vyPJVBnTBOy6QLuQ","sourceTagId":47002761,"sourceTagName":"圣罗兰/女包","rawTitle":"有些包 他天生就是主角\n\n背上身超级时尚!!️可单肩可双肩,真是爱😘了"},"price":null,"currency":"CNY","moq":1,"category":"ysl-women-bags","status":"active","alibaba_url":null,"images":["https://xcimg.szwego.com/img/d8a0fc73/20240818/i1723913984_7246_2.jpg","https://xcimg.szwego.com/img/d8a0fc73/20240818/i1723913986_6598_0.jpg","https://xcimg.szwego.com/img/d8a0fc73/20240818/i1723913984_394_6.jpg","https://xcimg.szwego.com/img/d8a0fc73/20240818/i1723913984_9093_0.jpg","https://xcimg.szwego.com/img/d8a0fc73/20240818/i1723913984_4810_1.jpg","https://xcimg.szwego.com/img/d8a0fc73/20240818/i1723913984_4160_3.jpg","https://xcimg.szwego.com/img/d8a0fc73/20240818/i1723913984_2494_5.jpg","https://xcimg.szwego.com/img/d8a0fc73/20240818/i1723913984_7399_4.jpg","https://xcimg.szwego.com/img/d8a0fc73/20240818/i1723913984_4133_8.jpg"],"created_at":"2025-07-20T03:05:44.268Z"},{"id":"item-ed61c865d0c3","sku":"_dn0n0u_8w8Nz9CGxQzkoN0mShfI_BtYaLfeRQ6Q","name_en":"Saint Laurent Women Bags","name_cn":"杨树林下一个爆款➡️福袋托特包","specs":{"source":"wsxcme","sourceId":"_dn0n0u_8w8Nz9CGxQzkoN0mShfI_BtYaLfeRQ6Q","sourceTagId":47002761,"sourceTagName":"圣罗兰/女包","rawTitle":"杨树林下一个爆款➡️福袋托特包"},"price":null,"currency":"CNY","moq":1,"category":"ysl-women-bags","status":"active","alibaba_url":null,"images":["https://xcimg.szwego.com/img/d8a0fc73/20240818/i1723913943_5275_6.jpg","https://xcimg.szwego.com/img/d8a0fc73/20240818/i1723913943_3288_0.jpg","https://xcimg.szwego.com/img/d8a0fc73/20240818/i1723913943_2496_1.jpg","https://xcimg.szwego.com/img/d8a0fc73/20240818/i1723913943_6906_5.jpg","https://xcimg.szwego.com/img/d8a0fc73/20240818/i1723913943_5309_8.jpg","https://xcimg.szwego.com/img/d8a0fc73/20240818/i1723913943_2242_3.jpg","https://xcimg.szwego.com/img/d8a0fc73/20240818/i1723913943_5774_2.jpg","https://xcimg.szwego.com/img/d8a0fc73/20240818/i1723913943_5546_7.jpg","https://xcimg.szwego.com/img/d8a0fc73/20240818/i1723913943_459_4.jpg"],"created_at":"2025-07-20T03:05:44.267Z"},{"id":"item-9b5b2f523030","sku":"_dp9p9MV-JW7MMwdodfJYxiaqSstR7czvPsod34A","name_en":"杨树林大號Jamie 4.3 pochon满满的松弛感,多种背法","name_cn":"杨树林大號Jamie 4.3 pochon满满的松弛感,多种背法\n听说還可以当双肩包🎒来背\n簡直不要太好用😍","specs":{"source":"wsxcme","sourceId":"_dp9p9MV-JW7MMwdodfJYxiaqSstR7czvPsod34A","sourceTagId":47002761,"sourceTagName":"圣罗兰/女包","rawTitle":"杨树林大號Jamie 4.3 pochon满满的松弛感,多种背法\n听说還可以当双肩包🎒来背\n簡直不要太好用😍"},"price":null,"currency":"CNY","moq":1,"category":"ysl-women-bags","status":"active","alibaba_url":null,"images":["https://xcimg.szwego.com/img/d8a0fc73/20240818/i1723913996_9158_2.jpg","https://xcimg.szwego.com/img/d8a0fc73/20240818/i1723913996_7470_8.jpg","https://xcimg.szwego.com/img/d8a0fc73/20240818/i1723913996_6818_6.jpg","https://xcimg.szwego.com/img/d8a0fc73/20240818/i1723913996_3696_3.jpg","https://xcimg.szwego.com/img/d8a0fc73/20240818/i1723913996_1163_0.jpg","https://xcimg.szwego.com/img/d8a0fc73/20240818/i1723913996_7156_1.jpg","https://xcimg.szwego.com/img/d8a0fc73/20240818/i1723913996_9017_7.jpg","https://xcimg.szwego.com/img/d8a0fc73/20240818/i1723913996_7413_4.jpg","https://xcimg.szwego.com/img/d8a0fc73/20240818/i1723913996_3920_5.jpg"],"created_at":"2025-07-20T03:05:44.266Z"},{"id":"item-7972cd1c5d0c","sku":"_dycyclhfY3KBVqoocb4ySKZNkCJtQysLL3lvUcw","name_en":"JAMIE 4.3 LARGE POCHON 全新上市","name_cn":"JAMIE 4.3 LARGE POCHON 全新上市\n新款福袋🐑进口原厂羊皮 皮質很軟\n抽绳设计让手袋呈現自然高級的褶褶感\n金属链条包\n自然散發松弛的時髦慵懶感\n福袋造型獨特又有態度\n超大容量 可放下筆記型電腦\n上班日常用通通沒問題👍可当托特包使用\n尺寸:27/34/3cm\n型号:809824","specs":{"source":"wsxcme","sourceId":"_dycyclhfY3KBVqoocb4ySKZNkCJtQysLL3lvUcw","sourceTagId":47002761,"sourceTagName":"圣罗兰/女包","modelNumber":"809824","rawTitle":"JAMIE 4.3 LARGE POCHON 全新上市\n新款福袋🐑进口原厂羊皮 皮質很軟\n抽绳设计让手袋呈現自然高級的褶褶感\n金属链条包\n自然散發松弛的時髦慵懶感\n福袋造型獨特又有態度\n超大容量 可放下筆記型電腦\n上班日常用通通沒問題👍可当托特包使用\n尺寸:27/34/3cm\n型号:809824"},"price":null,"currency":"CNY","moq":1,"category":"ysl-women-bags","status":"active","alibaba_url":null,"images":["https://xcimg.szwego.com/img/d8a0fc73/20240818/i1723913837_8576_4.jpg","https://xcimg.szwego.com/img/d8a0fc73/20240818/i1723913837_2040_1.jpg","https://xcimg.szwego.com/img/d8a0fc73/20240818/i1723913837_861_5.jpg","https://xcimg.szwego.com/img/d8a0fc73/20240818/i1723913837_1079_3.jpg","https://xcimg.szwego.com/img/d8a0fc73/20240818/i1723913837_2605_0.jpg","https://xcimg.szwego.com/img/d8a0fc73/20240818/i1723913837_5511_6.jpg","https://xcimg.szwego.com/img/d8a0fc73/20240818/i1723913837_2201_7.jpg","https://xcimg.szwego.com/img/d8a0fc73/20240818/i1723913837_1385_2.jpg","https://xcimg.szwego.com/img/d8a0fc73/20240818/i1723913905_9499_0.jpg"],"created_at":"2025-07-20T03:05:44.265Z"},{"id":"item-0db4c512c730","sku":"_d9j9jvYnijXF1jAE0q683qQL40GiBAqovJ4swAQ","name_en":"Saint Laurent Women Bags","name_cn":"有些包 他天生就是主角\n\n背上身超级时尚!!️可单肩可双肩,真是爱😘了","specs":{"source":"wsxcme","sourceId":"_d9j9jvYnijXF1jAE0q683qQL40GiBAqovJ4swAQ","sourceTagId":47002761,"sourceTagName":"圣罗兰/女包","rawTitle":"有些包 他天生就是主角\n\n背上身超级时尚!!️可单肩可双肩,真是爱😘了"},"price":null,"currency":"CNY","moq":1,"category":"ysl-women-bags","status":"active","alibaba_url":null,"images":["https://xcimg.szwego.com/img/d8a0fc73/20241219/i1734579653_5220_4.jpg","https://xcimg.szwego.com/img/d8a0fc73/20241219/i1734579653_8337_5.jpg","https://xcimg.szwego.com/img/d8a0fc73/20241219/i1734579653_8880_0.jpg","https://xcimg.szwego.com/img/d8a0fc73/20241219/i1734579653_5908_2.jpg","https://xcimg.szwego.com/img/d8a0fc73/20241219/i1734579653_788_6.jpg","https://xcimg.szwego.com/img/d8a0fc73/20241219/i1734579653_4260_3.jpg","https://xcimg.szwego.com/img/d8a0fc73/20241219/i1734579653_7641_1.jpg"],"created_at":"2025-07-20T03:05:44.264Z"},{"id":"item-30bc3a5c4288","sku":"_dhKhKh1FIt5mUy98l1N4j9H9GjWFiUsliCYd0uA","name_en":"JAMIE 4.3 LARGE POCHON 全新上市","name_cn":"JAMIE 4.3 LARGE POCHON 全新上市\n新款福袋🐑进口原厂羊皮 皮質很軟\n抽绳设计让手袋呈現自然高級的褶褶感\n金属链条包\n自然散發松弛的時髦慵懶感\n福袋造型獨特又有態度\n超大容量 可放下筆記型電腦\n上班日常用通通沒問題👍可当托特包使用\n尺寸:27/34/3cm\n型号:809824","specs":{"source":"wsxcme","sourceId":"_dhKhKh1FIt5mUy98l1N4j9H9GjWFiUsliCYd0uA","sourceTagId":47002761,"sourceTagName":"圣罗兰/女包","modelNumber":"809824","rawTitle":"JAMIE 4.3 LARGE POCHON 全新上市\n新款福袋🐑进口原厂羊皮 皮質很軟\n抽绳设计让手袋呈現自然高級的褶褶感\n金属链条包\n自然散發松弛的時髦慵懶感\n福袋造型獨特又有態度\n超大容量 可放下筆記型電腦\n上班日常用通通沒問題👍可当托特包使用\n尺寸:27/34/3cm\n型号:809824"},"price":null,"currency":"CNY","moq":1,"category":"ysl-women-bags","status":"active","alibaba_url":null,"images":["https://xcimg.szwego.com/img/d8a0fc73/20241219/i1734579159_2247_6.jpg","https://xcimg.szwego.com/img/d8a0fc73/20241219/i1734579159_7088_0.jpg","https://xcimg.szwego.com/img/d8a0fc73/20241219/i1734579159_1306_1.jpg","https://xcimg.szwego.com/img/d8a0fc73/20241219/i1734579159_1258_2.jpg","https://xcimg.szwego.com/img/d8a0fc73/20241219/i1734579159_5976_4.jpg","https://xcimg.szwego.com/img/d8a0fc73/20241219/i1734579159_6621_5.jpg","https://xcimg.szwego.com/img/d8a0fc73/20241219/i1734579159_2476_3.jpg","https://xcimg.szwego.com/img/d8a0fc73/20241219/i1734579159_7203_7.jpg","https://xcimg.szwego.com/img/d8a0fc73/20241219/i1734579159_8787_8.jpg"],"created_at":"2025-07-20T03:05:44.263Z"},{"id":"item-1c22c8ff4ad3","sku":"_dRdRd18-W-kQqBxXCg4UG47CEpanQoxW9jYRjaQ","name_en":"Saint Laurent Women Bags","name_cn":"小号上身效果~","specs":{"source":"wsxcme","sourceId":"_dRdRd18-W-kQqBxXCg4UG47CEpanQoxW9jYRjaQ","sourceTagId":47002761,"sourceTagName":"圣罗兰/女包","rawTitle":"小号上身效果~"},"price":null,"currency":"CNY","moq":1,"category":"ysl-women-bags","status":"active","alibaba_url":null,"images":["https://xcimg.szwego.com/img/58395cbb/20241026/a1729931971462_5800.jpg","https://xcimg.szwego.com/img/58395cbb/20241026/a1729931971457_2650.jpg","https://xcimg.szwego.com/img/58395cbb/20241026/a1729931971461_0024.jpg"],"created_at":"2025-07-20T03:05:44.262Z"},{"id":"item-0207635000e1","sku":"_dtKtKIz7EGrKZCZB1aYFVeQ7Jo3JBgVWKYJVogA","name_en":"Saint Laurent Women Bags","name_cn":"软乎乎的手感~爱了❤️❤️❤️","specs":{"source":"wsxcme","sourceId":"_dtKtKIz7EGrKZCZB1aYFVeQ7Jo3JBgVWKYJVogA","sourceTagId":47002761,"sourceTagName":"圣罗兰/女包","rawTitle":"软乎乎的手感~爱了❤️❤️❤️"},"price":null,"currency":"CNY","moq":1,"category":"ysl-women-bags","status":"active","alibaba_url":null,"images":["https://xcimg.szwego.com/img/58395cbb/20241026/a1729931443774_5762.jpg","https://xcimg.szwego.com/img/58395cbb/20241026/a1729931443815_4032.jpg","https://xcimg.szwego.com/img/58395cbb/20241026/a1729931443791_3643.jpg"],"created_at":"2025-07-20T03:05:44.261Z"},{"id":"item-d0f34936fc3b","sku":"_d9q9qdmcf0M4iJI_0KgZMHI8_ZT_1rCMWcAhz7A","name_en":"Saint Laurent Women Bags","name_cn":"软糯且有肌理感的羊皮材质 松弛慵懒感拉满","specs":{"source":"wsxcme","sourceId":"_d9q9qdmcf0M4iJI_0KgZMHI8_ZT_1rCMWcAhz7A","sourceTagId":47002761,"sourceTagName":"圣罗兰/女包","rawTitle":"软糯且有肌理感的羊皮材质 松弛慵懒感拉满"},"price":null,"currency":"CNY","moq":1,"category":"ysl-women-bags","status":"active","alibaba_url":null,"images":["https://xcimg.szwego.com/img/58395cbb/20241026/a1729931591706_5567.jpg","https://xcimg.szwego.com/img/58395cbb/20241026/a1729931591825_5266.jpg","https://xcimg.szwego.com/img/58395cbb/20241026/a1729931591707_7333.jpg","https://xcimg.szwego.com/img/58395cbb/20241026/a1729931591690_3747.jpg","https://xcimg.szwego.com/img/58395cbb/20241026/a1729931591707_5123.jpg","https://xcimg.szwego.com/img/58395cbb/20241026/a1729931591811_0777.jpg"],"created_at":"2025-07-20T03:05:44.260Z"},{"id":"item-3db556a6dfcd","sku":"_dj9j9OPreaY5AMujYRYqnUBKlL002fHU6ICnojw","name_en":"🌸 CALYPSO_大象纹羊皮链条包","name_cn":"🌸 CALYPSO_大象纹羊皮链条包\n进口意大利羊皮制作,手感柔软细腻,经典的Y家logo、链条及扣眼五金均采用巴金哑光五金,包袋开口处折叠后使用了磁性四合扣封口,密闭性及安全性一流;包内设有一个拉链内袋可放置手机及贵重物品,除此之外无多余内袋设计,使用起来随心所欲!\n尺寸:26×14×7cm\n型号:734153","specs":{"source":"wsxcme","sourceId":"_dj9j9OPreaY5AMujYRYqnUBKlL002fHU6ICnojw","sourceTagId":47002761,"sourceTagName":"圣罗兰/女包","modelNumber":"734153","dimensions":{"lengthCm":26,"heightCm":14,"widthCm":7},"rawTitle":"🌸 CALYPSO_大象纹羊皮链条包\n进口意大利羊皮制作,手感柔软细腻,经典的Y家logo、链条及扣眼五金均采用巴金哑光五金,包袋开口处折叠后使用了磁性四合扣封口,密闭性及安全性一流;包内设有一个拉链内袋可放置手机及贵重物品,除此之外无多余内袋设计,使用起来随心所欲!\n尺寸:26×14×7cm\n型号:734153"},"price":null,"currency":"CNY","moq":1,"category":"ysl-women-bags","status":"active","alibaba_url":null,"images":["https://xcimg.szwego.com/img/58395cbb/20241026/a1729931515773_8046.jpg","https://xcimg.szwego.com/img/58395cbb/20241026/a1729931516324_5345.jpg","https://xcimg.szwego.com/img/58395cbb/20241026/a1729931516149_1122.jpg","https://xcimg.szwego.com/img/58395cbb/20241026/a1729931515728_2783.jpg","https://xcimg.szwego.com/img/58395cbb/20241026/a1729931516467_1807.jpg","https://xcimg.szwego.com/img/58395cbb/20241026/a1729931516540_7804.jpg","https://xcimg.szwego.com/img/58395cbb/20241026/a1729931527975_4073.jpg","https://xcimg.szwego.com/img/58395cbb/20241026/a1729931527958_4538.jpg","https://xcimg.szwego.com/img/58395cbb/20241026/a1729931528051_8470.jpg"],"created_at":"2025-07-20T03:05:44.259Z"},{"id":"item-96801c002663","sku":"_djyjyVNgza5j49IBK6tIIP96w0gISJ7BV3q3h0A","name_en":"🌸 CALYPSO_大象纹羊皮链条包","name_cn":"🌸 CALYPSO_大象纹羊皮链条包\n进口意大利羊皮制作,手感柔软细腻,经典的Y家logo、链条及扣眼五金均采用巴金哑光五金,包袋开口处折叠后使用了磁性四合扣封口,密闭性及安全性一流;包内设有一个拉链内袋可放置手机及贵重物品,除此之外无多余内袋设计,使用起来随心所欲!\n尺寸:26×14×7cm\n型号:734153","specs":{"source":"wsxcme","sourceId":"_djyjyVNgza5j49IBK6tIIP96w0gISJ7BV3q3h0A","sourceTagId":47002761,"sourceTagName":"圣罗兰/女包","modelNumber":"734153","dimensions":{"lengthCm":26,"heightCm":14,"widthCm":7},"rawTitle":"🌸 CALYPSO_大象纹羊皮链条包\n进口意大利羊皮制作,手感柔软细腻,经典的Y家logo、链条及扣眼五金均采用巴金哑光五金,包袋开口处折叠后使用了磁性四合扣封口,密闭性及安全性一流;包内设有一个拉链内袋可放置手机及贵重物品,除此之外无多余内袋设计,使用起来随心所欲!\n尺寸:26×14×7cm\n型号:734153"},"price":null,"currency":"CNY","moq":1,"category":"ysl-women-bags","status":"active","alibaba_url":null,"images":["https://xcimg.szwego.com/img/58395cbb/20241026/a1729931294870_8027.jpg","https://xcimg.szwego.com/img/58395cbb/20241026/a1729931294170_3754.jpg","https://xcimg.szwego.com/img/58395cbb/20241026/a1729931294197_6174.jpg","https://xcimg.szwego.com/img/58395cbb/20241026/a1729931294164_5255.jpg","https://xcimg.szwego.com/img/58395cbb/20241026/a1729931294474_7427.jpg","https://xcimg.szwego.com/img/58395cbb/20241026/a1729931295325_2161.jpg","https://xcimg.szwego.com/img/58395cbb/20241026/a1729931308780_5225.jpg","https://xcimg.szwego.com/img/58395cbb/20241026/a1729931308491_1663.jpg","https://xcimg.szwego.com/img/58395cbb/20241026/a1729931308248_8450.jpg"],"created_at":"2025-07-20T03:05:44.258Z"},{"id":"item-63ecb434dbce","sku":"_dnXnX6NPzleFidAiuvzAmDerb3fM2J4kn60057A","name_en":"Saint Laurent Women Bags","name_cn":"正品上身效果~~","specs":{"source":"wsxcme","sourceId":"_dnXnX6NPzleFidAiuvzAmDerb3fM2J4kn60057A","sourceTagId":47002761,"sourceTagName":"圣罗兰/女包","rawTitle":"正品上身效果~~"},"price":null,"currency":"CNY","moq":1,"category":"ysl-women-bags","status":"active","alibaba_url":null,"images":["https://xcimg.szwego.com/img/58395cbb/20241026/a1729930233045_0182.jpg","https://xcimg.szwego.com/img/58395cbb/20241026/a1729930233034_4103.jpg","https://xcimg.szwego.com/img/58395cbb/20241026/a1729930233121_6686.jpg","https://xcimg.szwego.com/img/58395cbb/20241026/a1729930233186_5088.jpg","https://xcimg.szwego.com/img/58395cbb/20241026/a1729930243925_6306.jpg"],"created_at":"2025-07-20T03:05:44.257Z"},{"id":"item-034ada237010","sku":"_doMoMnwbbhj--hSRwnJlwXRxMIcvfMcC6ASLdDw","name_en":"Saint Laurent Women Bags","name_cn":"官网图_","specs":{"source":"wsxcme","sourceId":"_doMoMnwbbhj--hSRwnJlwXRxMIcvfMcC6ASLdDw","sourceTagId":47002761,"sourceTagName":"圣罗兰/女包","rawTitle":"官网图_"},"price":null,"currency":"CNY","moq":1,"category":"ysl-women-bags","status":"active","alibaba_url":null,"images":["https://xcimg.szwego.com/img/f8c0bdc9/20240819/i1724056542_6271_1.jpg","https://xcimg.szwego.com/img/f8c0bdc9/20240819/i1724056542_400_5.jpg","https://xcimg.szwego.com/img/f8c0bdc9/20240819/i1724056542_645_0.jpg","https://xcimg.szwego.com/img/f8c0bdc9/20240819/i1724056542_1054_2.jpg","https://xcimg.szwego.com/img/f8c0bdc9/20240819/i1724056542_5005_3.jpg","https://xcimg.szwego.com/img/f8c0bdc9/20240819/i1724056542_7499_4.jpg"],"created_at":"2025-07-20T03:05:44.256Z"},{"id":"item-a24871a42747","sku":"_dBHBHH_YveVwMFibdnTrM0jLqim2sW_VaMJMUng","name_en":"Saint Laurent Women Bags","name_cn":"🌸 【该尺寸不带包装】麂皮款_\nBea_新款购物袋/hobo包\n很多女生一到秋冬天就想买只大包,Bea这款就非常合适,从内到外的皮质感都很好,包身内侧有两根皮质系带,系上后就变成了只Hobo。容量非常充足,13寸macbook可纳入!\n搭配足够柔软的包身,包包还会形成自然的凹陷弧度,上身会给人非常轻松自在感觉,显得整个人随性又洒脱!\n型号:763435\n尺寸:50×28×18cm","specs":{"source":"wsxcme","sourceId":"_dBHBHH_YveVwMFibdnTrM0jLqim2sW_VaMJMUng","sourceTagId":47002761,"sourceTagName":"圣罗兰/女包","modelNumber":"763435","dimensions":{"lengthCm":50,"heightCm":28,"widthCm":18},"rawTitle":"🌸 【该尺寸不带包装】麂皮款_\nBea_新款购物袋/hobo包\n很多女生一到秋冬天就想买只大包,Bea这款就非常合适,从内到外的皮质感都很好,包身内侧有两根皮质系带,系上后就变成了只Hobo。容量非常充足,13寸macbook可纳入!\n搭配足够柔软的包身,包包还会形成自然的凹陷弧度,上身会给人非常轻松自在感觉,显得整个人随性又洒脱!\n型号:763435\n尺寸:50×28×18cm"},"price":null,"currency":"CNY","moq":1,"category":"ysl-women-bags","status":"active","alibaba_url":null,"images":["https://xcimg.szwego.com/20241025/a1729827898176_8473.jpg","https://xcimg.szwego.com/20241025/a1729827898399_0361.jpg","https://xcimg.szwego.com/20241025/a1729827898593_8333.jpg","https://xcimg.szwego.com/20241025/a1729827898796_2234.jpg","https://xcimg.szwego.com/20241025/a1729827899177_7404.jpg","https://xcimg.szwego.com/20241025/a1729827899467_6324.jpg","https://xcimg.szwego.com/20241025/a1729827902651_2332.jpg","https://xcimg.szwego.com/20241025/a1729827902653_6522.jpg","https://xcimg.szwego.com/20241025/a1729827902655_5421.jpg"],"created_at":"2025-07-20T03:05:44.255Z"},{"id":"item-d4e654293ff8","sku":"_dNGNGaOJzoGY7jEGtbpX6w3Kx5SE78DXvFtwsSA","name_en":"🌸 【该尺寸不带包装】Y家2024秋季新款LE 5A 7 HOBO手袋,继续着hobo经典风格,极简又有设计感👑包包采用黑色粒面牛皮制作,包口纵贯一条纤细皮革饰带,金色字母logo包扣成为焦点,搭配黑色绒面皮革内衬,利落实用的水桶包型于休闲度假或或都市场景都能适配👍","name_cn":"🌸 【该尺寸不带包装】Y家2024秋季新款LE 5A 7 HOBO手袋,继续着hobo经典风格,极简又有设计感👑包包采用黑色粒面牛皮制作,包口纵贯一条纤细皮革饰带,金色字母logo包扣成为焦点,搭配黑色绒面皮革内衬,利落实用的水桶包型于休闲度假或或都市场景都能适配👍\n型号:793088\n尺寸:26x31.5x15cm","specs":{"source":"wsxcme","sourceId":"_dNGNGaOJzoGY7jEGtbpX6w3Kx5SE78DXvFtwsSA","sourceTagId":47002761,"sourceTagName":"圣罗兰/女包","modelNumber":"793088","dimensions":{"lengthCm":26,"heightCm":31.5,"widthCm":15},"rawTitle":"🌸 【该尺寸不带包装】Y家2024秋季新款LE 5A 7 HOBO手袋,继续着hobo经典风格,极简又有设计感👑包包采用黑色粒面牛皮制作,包口纵贯一条纤细皮革饰带,金色字母logo包扣成为焦点,搭配黑色绒面皮革内衬,利落实用的水桶包型于休闲度假或或都市场景都能适配👍\n型号:793088\n尺寸:26x31.5x15cm"},"price":null,"currency":"CNY","moq":1,"category":"ysl-women-bags","status":"active","alibaba_url":null,"images":["https://xcimg.szwego.com/img/58395cbb/20241008/a1728373936712_4887.jpg","https://xcimg.szwego.com/img/58395cbb/20241008/a1728373936418_8070.jpg","https://xcimg.szwego.com/img/58395cbb/20241008/a1728373936786_5720.jpg","https://xcimg.szwego.com/img/58395cbb/20241008/a1728373936670_6884.jpg","https://xcimg.szwego.com/img/58395cbb/20241008/a1728373936510_2422.jpg","https://xcimg.szwego.com/img/58395cbb/20241008/a1728373936846_0115.jpg","https://xcimg.szwego.com/img/58395cbb/20241008/a1728373939358_6687.jpg","https://xcimg.szwego.com/img/58395cbb/20241008/a1728373939166_6011.jpg","https://xcimg.szwego.com/img/58395cbb/20241008/a1728373938990_4245.jpg","https://xcimg.szwego.com/img/58395cbb/20241008/a1728373938971_5153.jpg"],"created_at":"2025-07-20T03:05:44.254Z"},{"id":"item-2bbbfb78f5fc","sku":"_dmHmH1Dpw_n8UFhFFC7gobY5Pk2lyv2-fY32NdQ","name_en":"Saint Laurent Women Bags","name_cn":"松弛感十足!也太好看了吧😎","specs":{"source":"wsxcme","sourceId":"_dmHmH1Dpw_n8UFhFFC7gobY5Pk2lyv2-fY32NdQ","sourceTagId":47002761,"sourceTagName":"圣罗兰/女包","rawTitle":"松弛感十足!也太好看了吧😎"},"price":null,"currency":"CNY","moq":1,"category":"ysl-women-bags","status":"active","alibaba_url":null,"images":["https://xcimg.szwego.com/img/fce24e4d/20240913/i1726199901_9460_3.jpg","https://xcimg.szwego.com/img/fce24e4d/20240913/i1726199901_9215_1.jpg","https://xcimg.szwego.com/img/fce24e4d/20240913/i1726199901_1403_2.jpg","https://xcimg.szwego.com/img/fce24e4d/20240913/i1726199901_4083_0.jpg"],"created_at":"2025-07-20T03:05:44.253Z"},{"id":"item-314cb5aaac97","sku":"_dqDqDxktlTTR3plr0yTWQzxZP3_uEwk0HQQ7kbA","name_en":"ZP图#","name_cn":"ZP图#","specs":{"source":"wsxcme","sourceId":"_dqDqDxktlTTR3plr0yTWQzxZP3_uEwk0HQQ7kbA","sourceTagId":47002761,"sourceTagName":"圣罗兰/女包","rawTitle":"ZP图#"},"price":null,"currency":"CNY","moq":1,"category":"ysl-women-bags","status":"active","alibaba_url":null,"images":["https://xcimg.szwego.com/img/fce24e4d/20240913/i1726199266_471_0.jpg","https://xcimg.szwego.com/img/fce24e4d/20240913/i1726199266_8987_3.jpg","https://xcimg.szwego.com/img/fce24e4d/20240913/i1726199266_4846_2.jpg","https://xcimg.szwego.com/img/fce24e4d/20240913/i1726199266_9448_1.jpg"],"created_at":"2025-07-20T03:05:44.252Z"},{"id":"item-7a8bd83aa8cc","sku":"_d_X_XWxQ3kpBeWtYOIejds7WPXpHfTiCZEnuaFQ","name_en":"🌸 【该尺寸不带包装】🌈Y家依旧简约的新款水桶包,采用进口小羊皮抽绳搭配标志性logo,大容量设计 颜值与实用并存 非常能装  小羊皮柔软光滑的皮面质感高级!内配有可拆卸的小包,肩带可调节,随意切换腋下包or肩背包!满足了日常多种场合,立体感十足!完美诠释低调简约👍","name_cn":"🌸 【该尺寸不带包装】🌈Y家依旧简约的新款水桶包,采用进口小羊皮抽绳搭配标志性logo,大容量设计 颜值与实用并存 非常能装  小羊皮柔软光滑的皮面质感高级!内配有可拆卸的小包,肩带可调节,随意切换腋下包or肩背包!满足了日常多种场合,立体感十足!完美诠释低调简约👍\n型号:804302黑金羊皮\n尺寸:26×30×13cm","specs":{"source":"wsxcme","sourceId":"_d_X_XWxQ3kpBeWtYOIejds7WPXpHfTiCZEnuaFQ","sourceTagId":47002761,"sourceTagName":"圣罗兰/女包","modelNumber":"804302黑金羊皮","dimensions":{"lengthCm":26,"heightCm":30,"widthCm":13},"rawTitle":"🌸 【该尺寸不带包装】🌈Y家依旧简约的新款水桶包,采用进口小羊皮抽绳搭配标志性logo,大容量设计 颜值与实用并存 非常能装  小羊皮柔软光滑的皮面质感高级!内配有可拆卸的小包,肩带可调节,随意切换腋下包or肩背包!满足了日常多种场合,立体感十足!完美诠释低调简约👍\n型号:804302黑金羊皮\n尺寸:26×30×13cm"},"price":null,"currency":"CNY","moq":1,"category":"ysl-women-bags","status":"active","alibaba_url":null,"images":["https://xcimg.szwego.com/img/58395cbb/20240929/a1727597182039_2235.jpg","https://xcimg.szwego.com/img/58395cbb/20240929/a1727597182011_0378.jpg","https://xcimg.szwego.com/img/58395cbb/20240929/a1727597181583_4380.jpg","https://xcimg.szwego.com/img/58395cbb/20240929/a1727597181884_1872.jpg","https://xcimg.szwego.com/img/58395cbb/20240929/a1727597182013_2073.jpg","https://xcimg.szwego.com/img/58395cbb/20240929/a1727597182233_1337.jpg","https://xcimg.szwego.com/img/58395cbb/20240929/a1727597183513_0864.jpg","https://xcimg.szwego.com/img/58395cbb/20240929/a1727597183509_4037.jpg","https://xcimg.szwego.com/img/58395cbb/20240929/a1727597183767_1045.jpg"],"created_at":"2025-07-20T03:05:44.251Z"}],"page":15,"pageSize":24,"total":888,"totalPages":37}
