{"items":[{"id":"item-80acbb28fbee","sku":"_dj3j3RGcc52pA_mYEZyQHdx6JhHXOwiHiq7kXEg","name_en":"Saint Laurent Women Bags","name_cn":"绿色·\nICARE hobo纳帕羊皮手袋\n备受瞩目的可颂形状包包🥐闪亮登场,标志性的金属logo点缀其中,完美结合复古与现代感,堪称本季最令人期待的It Bag之一。经典的ICARE造型与十分有辨识度的曲面logo,时尚感十足!\n型号:698652\n尺寸:44×30×7cm","specs":{"source":"wsxcme","sourceId":"_dj3j3RGcc52pA_mYEZyQHdx6JhHXOwiHiq7kXEg","sourceTagId":47002761,"sourceTagName":"圣罗兰/女包","modelNumber":"698652","dimensions":{"lengthCm":44,"heightCm":30,"widthCm":7},"rawTitle":"绿色·\nICARE hobo纳帕羊皮手袋\n备受瞩目的可颂形状包包🥐闪亮登场,标志性的金属logo点缀其中,完美结合复古与现代感,堪称本季最令人期待的It Bag之一。经典的ICARE造型与十分有辨识度的曲面logo,时尚感十足!\n型号:698652\n尺寸:44×30×7cm"},"price":null,"currency":"CNY","moq":1,"category":"ysl-women-bags","status":"active","alibaba_url":null,"images":["https://xcimg.szwego.com/imgHD/f8c0bdc9/20260420/cmp_i1776670649952_3544_0_0.jpg","https://xcimg.szwego.com/imgHD/f8c0bdc9/20260420/cmp_i1776670651580_5275_0_1.jpg","https://xcimg.szwego.com/imgHD/f8c0bdc9/20260420/cmp_i1776670652949_934_0_2.jpg","https://xcimg.szwego.com/imgHD/f8c0bdc9/20260420/cmp_i1776670652941_9215_0_3.jpg","https://xcimg.szwego.com/imgHD/f8c0bdc9/20260420/cmp_i1776670648498_55_0_4.jpg","https://xcimg.szwego.com/imgHD/f8c0bdc9/20260420/cmp_i1776670651553_4807_0_5.jpg","https://xcimg.szwego.com/imgHD/f8c0bdc9/20260420/cmp_i1776670649809_3240_0_6.jpg","https://xcimg.szwego.com/imgHD/f8c0bdc9/20260420/cmp_i1776670650080_7551_0_7.jpg","https://xcimg.szwego.com/imgHD/f8c0bdc9/20260420/cmp_i1776670647656_7762_0_8.jpg"],"created_at":"2026-06-29T10:48:58.819Z"},{"id":"item-faad67a48113","sku":"_deHeH2u_drcxetCZMTgtHCRdkBSfq3Uqi2BqcPA","name_en":"Sac de jour·","name_cn":"Sac de jour·\n麦绿手搓纹金扣\n22/26/32cm","specs":{"source":"wsxcme","sourceId":"_deHeH2u_drcxetCZMTgtHCRdkBSfq3Uqi2BqcPA","sourceTagId":47002761,"sourceTagName":"圣罗兰/女包","rawTitle":"Sac de jour·\n麦绿手搓纹金扣\n22/26/32cm"},"price":null,"currency":"CNY","moq":1,"category":"ysl-women-bags","status":"active","alibaba_url":null,"images":["https://xcimg.szwego.com/imgHD/f8c0bdc9/20260129/cmp_i1769675747775_787_0_0.jpg","https://xcimg.szwego.com/imgHD/f8c0bdc9/20260129/cmp_i1769675747839_7103_0_1.jpg","https://xcimg.szwego.com/imgHD/f8c0bdc9/20260129/cmp_i1769673371319_9526_0_0.jpg","https://xcimg.szwego.com/imgHD/f8c0bdc9/20260129/cmp_i1769673614607_6689_0_0.jpg","https://xcimg.szwego.com/imgHD/f8c0bdc9/20260129/i1769675549455_8094_0_0.jpg"],"created_at":"2026-06-29T10:48:58.809Z"},{"id":"item-4399e86bc2a1","sku":"_dtbtb8wrXp8SU1baoxCeY62cDv07tSsxrKxqQcA","name_en":"Saint Laurent Women Bags","name_cn":"柜图","specs":{"source":"wsxcme","sourceId":"_dtbtb8wrXp8SU1baoxCeY62cDv07tSsxrKxqQcA","sourceTagId":47002761,"sourceTagName":"圣罗兰/女包","rawTitle":"柜图"},"price":null,"currency":"CNY","moq":1,"category":"ysl-women-bags","status":"active","alibaba_url":null,"images":["https://xcimg.szwego.com/imgHD/f8c0bdc9/20260129/cmp_i1769678963727_2080_0_0.jpg","https://xcimg.szwego.com/imgHD/f8c0bdc9/20260129/cmp_i1769678963726_2193_0_1.jpg"],"created_at":"2026-06-29T10:48:58.799Z"},{"id":"item-c349ad78231c","sku":"_dmpmpi2_wWmnznTXAeDVyNNj-UvNqUjVIpBRLEg","name_en":"Saint Laurent Women Bags","name_cn":"官网图","specs":{"source":"wsxcme","sourceId":"_dmpmpi2_wWmnznTXAeDVyNNj-UvNqUjVIpBRLEg","sourceTagId":47002761,"sourceTagName":"圣罗兰/女包","rawTitle":"官网图"},"price":null,"currency":"CNY","moq":1,"category":"ysl-women-bags","status":"active","alibaba_url":null,"images":["https://xcimg.szwego.com/imgHD/f8c0bdc9/20260129/cmp_i1769678954121_1029_0_0.jpg","https://xcimg.szwego.com/imgHD/f8c0bdc9/20260129/cmp_i1769678950513_7596_0_1.jpg","https://xcimg.szwego.com/imgHD/f8c0bdc9/20260129/cmp_i1769678950513_2796_0_2.jpg","https://xcimg.szwego.com/imgHD/f8c0bdc9/20260129/cmp_i1769678954123_1420_0_3.jpg","https://xcimg.szwego.com/imgHD/f8c0bdc9/20260129/cmp_i1769678950511_7843_0_4.jpg","https://xcimg.szwego.com/imgHD/f8c0bdc9/20260129/cmp_i1769678954122_7736_0_5.jpg","https://xcimg.szwego.com/imgHD/f8c0bdc9/20260129/cmp_i1769678950511_1703_0_6.jpg","https://xcimg.szwego.com/imgHD/f8c0bdc9/20260129/cmp_i1769678950509_4188_0_7.jpg"],"created_at":"2026-06-29T10:48:58.789Z"},{"id":"item-28545261a1e6","sku":"_dqWqWFQ6Sz6vUaVtIocVuQM37yZY_StcOM8qErQ","name_en":"Saint Laurent Women Bags","name_cn":"侧面风琴式皱褶 附带有手提\n肩背手提都很有气质","specs":{"source":"wsxcme","sourceId":"_dqWqWFQ6Sz6vUaVtIocVuQM37yZY_StcOM8qErQ","sourceTagId":47002761,"sourceTagName":"圣罗兰/女包","rawTitle":"侧面风琴式皱褶 附带有手提\n肩背手提都很有气质"},"price":null,"currency":"CNY","moq":1,"category":"ysl-women-bags","status":"active","alibaba_url":null,"images":["https://xcimg.szwego.com/imgHD/f8c0bdc9/20260129/cmp_i1769675549455_8094_0_0.jpg","https://xcimg.szwego.com/imgHD/f8c0bdc9/20260129/cmp_i1769675549419_1807_0_1.jpg","https://xcimg.szwego.com/imgHD/f8c0bdc9/20260129/cmp_i1769675549478_7505_0_2.jpg","https://xcimg.szwego.com/imgHD/f8c0bdc9/20260129/cmp_i1769675549395_8877_0_3.jpg"],"created_at":"2026-06-29T10:48:58.779Z"},{"id":"item-6e37d6e0f3b7","sku":"_dlzlzYxJDlxKgG7fs1R5cC_J_Mnm47V5B6yGWJQ","name_en":"细节po","name_cn":"细节po","specs":{"source":"wsxcme","sourceId":"_dlzlzYxJDlxKgG7fs1R5cC_J_Mnm47V5B6yGWJQ","sourceTagId":47002761,"sourceTagName":"圣罗兰/女包","rawTitle":"细节po"},"price":null,"currency":"CNY","moq":1,"category":"ysl-women-bags","status":"active","alibaba_url":null,"images":["https://xcimg.szwego.com/imgHD/f8c0bdc9/20260129/cmp_i1769675542417_6322_0_0.jpg","https://xcimg.szwego.com/imgHD/f8c0bdc9/20260129/cmp_i1769675536864_5285_0_1.jpg","https://xcimg.szwego.com/imgHD/f8c0bdc9/20260129/cmp_i1769675542633_4657_0_2.jpg","https://xcimg.szwego.com/imgHD/f8c0bdc9/20260129/cmp_i1769675550721_5959_0_3.jpg","https://xcimg.szwego.com/imgHD/f8c0bdc9/20260129/cmp_i1769675542520_145_0_4.jpg","https://xcimg.szwego.com/imgHD/f8c0bdc9/20260129/cmp_i1769675542454_1687_0_5.jpg","https://xcimg.szwego.com/imgHD/f8c0bdc9/20260129/cmp_i1769675550354_7327_0_6.jpg","https://xcimg.szwego.com/imgHD/f8c0bdc9/20260129/cmp_i1769675548564_3656_0_7.jpg","https://xcimg.szwego.com/imgHD/f8c0bdc9/20260129/cmp_i1769675535471_5548_0_8.jpg"],"created_at":"2026-06-29T10:48:58.769Z"},{"id":"item-7705427c9ca8","sku":"_d-P-P1L2C3l96goxskH-UdkwdmCgKcHXNPzmRIA","name_en":"麦绿手搓纹金扣·风琴包22cm","name_cn":"麦绿手搓纹金扣·风琴包22cm\n最优雅的风琴包系列sac de jour,永远的经典不过时,精湛的牙签纹牛皮,纹路清晰而且光泽度十足,十分贵气!肩带可以调节,长短自己选择!logo非常小,完美地诠释了低调奢华的格调~\n型号:717440\n尺寸:22x18x10.5cm","specs":{"source":"wsxcme","sourceId":"_d-P-P1L2C3l96goxskH-UdkwdmCgKcHXNPzmRIA","sourceTagId":47002761,"sourceTagName":"圣罗兰/女包","modelNumber":"717440","dimensions":{"lengthCm":22,"heightCm":18,"widthCm":10.5},"rawTitle":"麦绿手搓纹金扣·风琴包22cm\n最优雅的风琴包系列sac de jour,永远的经典不过时,精湛的牙签纹牛皮,纹路清晰而且光泽度十足,十分贵气!肩带可以调节,长短自己选择!logo非常小,完美地诠释了低调奢华的格调~\n型号:717440\n尺寸:22x18x10.5cm"},"price":null,"currency":"CNY","moq":1,"category":"ysl-women-bags","status":"active","alibaba_url":null,"images":["https://xcimg.szwego.com/imgHD/f8c0bdc9/20260129/cmp_i1769675482379_4912_0_0.jpg","https://xcimg.szwego.com/imgHD/f8c0bdc9/20260129/cmp_i1769675482399_7712_0_1.jpg","https://xcimg.szwego.com/imgHD/f8c0bdc9/20260129/cmp_i1769675475407_9497_0_2.jpg","https://xcimg.szwego.com/imgHD/f8c0bdc9/20260129/cmp_i1769675475067_8825_0_3.jpg","https://xcimg.szwego.com/imgHD/f8c0bdc9/20260129/cmp_i1769675482607_2022_0_4.jpg","https://xcimg.szwego.com/imgHD/f8c0bdc9/20260129/cmp_i1769675475081_3480_0_5.jpg","https://xcimg.szwego.com/imgHD/f8c0bdc9/20260129/cmp_i1769675475041_9636_0_6.jpg","https://xcimg.szwego.com/imgHD/f8c0bdc9/20260129/cmp_i1769675473837_7378_0_7.jpg","https://xcimg.szwego.com/imgHD/f8c0bdc9/20260129/cmp_i1769675482531_2513_0_8.jpg"],"created_at":"2026-06-29T10:48:58.759Z"},{"id":"item-a6bf51266931","sku":"_ds1s1s9lrhOaem84FYid0PfHdrkbUyTf0mBAYrw","name_en":"一只能使你气场全开的SAC DE JOUR风琴包","name_cn":"一只能使你气场全开的SAC DE JOUR风琴包\n干净利落的线条和硬朗的设计 简约大气","specs":{"source":"wsxcme","sourceId":"_ds1s1s9lrhOaem84FYid0PfHdrkbUyTf0mBAYrw","sourceTagId":47002761,"sourceTagName":"圣罗兰/女包","rawTitle":"一只能使你气场全开的SAC DE JOUR风琴包\n干净利落的线条和硬朗的设计 简约大气"},"price":null,"currency":"CNY","moq":1,"category":"ysl-women-bags","status":"active","alibaba_url":null,"images":["https://xcimg.szwego.com/imgHD/f8c0bdc9/20260129/cmp_i1769673614607_6689_0_0.jpg","https://xcimg.szwego.com/imgHD/f8c0bdc9/20260129/cmp_i1769673614575_230_0_1.jpg","https://xcimg.szwego.com/imgHD/f8c0bdc9/20260129/cmp_i1769673614596_2477_0_2.jpg","https://xcimg.szwego.com/imgHD/f8c0bdc9/20260129/cmp_i1769673614618_7688_0_3.jpg"],"created_at":"2026-06-29T10:48:58.749Z"},{"id":"item-4d1e8ffae8dc","sku":"_dnpnpljaHJpvOJZ6BFB2Pihn7SRkJqMh_EvfJDg","name_en":"细节po","name_cn":"细节po","specs":{"source":"wsxcme","sourceId":"_dnpnpljaHJpvOJZ6BFB2Pihn7SRkJqMh_EvfJDg","sourceTagId":47002761,"sourceTagName":"圣罗兰/女包","rawTitle":"细节po"},"price":null,"currency":"CNY","moq":1,"category":"ysl-women-bags","status":"active","alibaba_url":null,"images":["https://xcimg.szwego.com/imgHD/f8c0bdc9/20260129/cmp_i1769673606576_3976_0_8.jpg","https://xcimg.szwego.com/imgHD/f8c0bdc9/20260129/cmp_i1769673606868_6758_0_0.jpg","https://xcimg.szwego.com/imgHD/f8c0bdc9/20260129/cmp_i1769673606798_6090_0_1.jpg","https://xcimg.szwego.com/imgHD/f8c0bdc9/20260129/cmp_i1769673664045_8790_0_2.jpg","https://xcimg.szwego.com/imgHD/f8c0bdc9/20260129/cmp_i1769673663944_5561_0_3.jpg","https://xcimg.szwego.com/imgHD/f8c0bdc9/20260129/cmp_i1769673606798_9754_0_4.jpg","https://xcimg.szwego.com/imgHD/f8c0bdc9/20260129/cmp_i1769673663684_8777_0_5.jpg","https://xcimg.szwego.com/imgHD/f8c0bdc9/20260129/cmp_i1769673604769_3137_0_6.jpg","https://xcimg.szwego.com/imgHD/f8c0bdc9/20260129/cmp_i1769673663833_9207_0_7.jpg"],"created_at":"2026-06-29T10:48:58.739Z"},{"id":"item-b239e44bee2f","sku":"_druruhD6D1ze1CXhTy6QLjosYIAAZIn8uyuSsOA","name_en":"麦绿手搓纹·风琴包26cm","name_cn":"麦绿手搓纹·风琴包26cm\n最优雅的风琴包系列sac de jour,永远的经典不过时,精湛的手搓纹牛皮,纹路清晰而且光泽度十足,十分贵气!26cm内配有中隔,可取出做手包,肩带可以调节,长短自己选择!logo非常小,完美地诠释了低调奢华的格调~\n型号:421863/477477\n尺寸:26x20.5x12.5cm\n(26cm内配有中隔)","specs":{"source":"wsxcme","sourceId":"_druruhD6D1ze1CXhTy6QLjosYIAAZIn8uyuSsOA","sourceTagId":47002761,"sourceTagName":"圣罗兰/女包","modelNumber":"421863/477477","dimensions":{"lengthCm":26,"heightCm":20.5,"widthCm":12.5},"rawTitle":"麦绿手搓纹·风琴包26cm\n最优雅的风琴包系列sac de jour,永远的经典不过时,精湛的手搓纹牛皮,纹路清晰而且光泽度十足,十分贵气!26cm内配有中隔,可取出做手包,肩带可以调节,长短自己选择!logo非常小,完美地诠释了低调奢华的格调~\n型号:421863/477477\n尺寸:26x20.5x12.5cm\n(26cm内配有中隔)"},"price":null,"currency":"CNY","moq":1,"category":"ysl-women-bags","status":"active","alibaba_url":null,"images":["https://xcimg.szwego.com/imgHD/f8c0bdc9/20260129/cmp_i1769673572689_8294_0_0.jpg","https://xcimg.szwego.com/imgHD/f8c0bdc9/20260129/cmp_i1769673572782_5697_0_1.jpg","https://xcimg.szwego.com/imgHD/f8c0bdc9/20260129/cmp_i1769673536129_6919_0_2.jpg","https://xcimg.szwego.com/imgHD/f8c0bdc9/20260129/cmp_i1769673536172_7424_0_3.jpg","https://xcimg.szwego.com/imgHD/f8c0bdc9/20260129/cmp_i1769673536040_1213_0_4.jpg","https://xcimg.szwego.com/imgHD/f8c0bdc9/20260129/cmp_i1769673536045_5435_0_5.jpg","https://xcimg.szwego.com/imgHD/f8c0bdc9/20260129/cmp_i1769673573170_1913_0_6.jpg","https://xcimg.szwego.com/imgHD/f8c0bdc9/20260129/cmp_i1769673570693_7106_0_7.jpg","https://xcimg.szwego.com/imgHD/f8c0bdc9/20260129/cmp_i1769673536102_3920_0_8.jpg"],"created_at":"2026-06-29T10:48:58.729Z"},{"id":"item-bf63cf96efae","sku":"_dejejvRYbMSc5l6HMsEQglX6uUb3h3S81cW1fMw","name_en":"Saint Laurent Women Bags","name_cn":"折叠风琴包型立体有型\n可调节肩带 单肩法式慵懒感立刻有!","specs":{"source":"wsxcme","sourceId":"_dejejvRYbMSc5l6HMsEQglX6uUb3h3S81cW1fMw","sourceTagId":47002761,"sourceTagName":"圣罗兰/女包","rawTitle":"折叠风琴包型立体有型\n可调节肩带 单肩法式慵懒感立刻有!"},"price":null,"currency":"CNY","moq":1,"category":"ysl-women-bags","status":"active","alibaba_url":null,"images":["https://xcimg.szwego.com/imgHD/f8c0bdc9/20260129/cmp_i1769673371319_9526_0_0.jpg","https://xcimg.szwego.com/imgHD/f8c0bdc9/20260129/cmp_i1769673371370_1031_0_1.jpg","https://xcimg.szwego.com/imgHD/f8c0bdc9/20260129/cmp_i1769673371404_2792_0_2.jpg","https://xcimg.szwego.com/imgHD/f8c0bdc9/20260129/cmp_i1769673371336_200_0_3.jpg"],"created_at":"2026-06-29T10:48:58.719Z"},{"id":"item-9c276c2e94fc","sku":"_dfTfT4ONUeIU40oI4YMRoyffFCv0NbhA6XU3VJg","name_en":"细节po","name_cn":"细节po","specs":{"source":"wsxcme","sourceId":"_dfTfT4ONUeIU40oI4YMRoyffFCv0NbhA6XU3VJg","sourceTagId":47002761,"sourceTagName":"圣罗兰/女包","rawTitle":"细节po"},"price":null,"currency":"CNY","moq":1,"category":"ysl-women-bags","status":"active","alibaba_url":null,"images":["https://xcimg.szwego.com/imgHD/f8c0bdc9/20260129/cmp_i1769673351925_259_0_0.jpg","https://xcimg.szwego.com/imgHD/f8c0bdc9/20260129/cmp_i1769673362059_578_0_1.jpg","https://xcimg.szwego.com/imgHD/f8c0bdc9/20260129/cmp_i1769673362309_3183_0_2.jpg","https://xcimg.szwego.com/imgHD/f8c0bdc9/20260129/cmp_i1769673362111_8870_0_3.jpg","https://xcimg.szwego.com/imgHD/f8c0bdc9/20260129/cmp_i1769673362191_6853_0_4.jpg","https://xcimg.szwego.com/imgHD/f8c0bdc9/20260129/cmp_i1769673353941_1883_0_5.jpg","https://xcimg.szwego.com/imgHD/f8c0bdc9/20260129/cmp_i1769673354123_447_0_6.jpg","https://xcimg.szwego.com/imgHD/f8c0bdc9/20260129/cmp_i1769673354073_2998_0_7.jpg","https://xcimg.szwego.com/imgHD/f8c0bdc9/20260129/cmp_i1769673351966_2336_0_8.jpg"],"created_at":"2026-06-29T10:48:58.709Z"},{"id":"item-aac1f558bb73","sku":"_duGuG9-QKyQj0NCTCl9Mv7R5zan63L4BIFTc3Wg","name_en":"Saint Laurent Women Bags","name_cn":"麦绿手搓纹·\n风琴包32cm\n最优雅的风琴包系列sac de jour,永远的经典不过时,精湛的手搓纹牛皮,纹路清晰而且光泽度十足,十分贵气!32cm内配有中隔,可取出做手包,肩带可以调节,长短自己选择!logo非常小,完美地诠释了低调奢华的格调~\n型号:378299\n尺寸:32×25.5×15.5cm\n(32cm内配有中隔)","specs":{"source":"wsxcme","sourceId":"_duGuG9-QKyQj0NCTCl9Mv7R5zan63L4BIFTc3Wg","sourceTagId":47002761,"sourceTagName":"圣罗兰/女包","modelNumber":"378299","dimensions":{"lengthCm":32,"heightCm":25.5,"widthCm":15.5},"rawTitle":"麦绿手搓纹·\n风琴包32cm\n最优雅的风琴包系列sac de jour,永远的经典不过时,精湛的手搓纹牛皮,纹路清晰而且光泽度十足,十分贵气!32cm内配有中隔,可取出做手包,肩带可以调节,长短自己选择!logo非常小,完美地诠释了低调奢华的格调~\n型号:378299\n尺寸:32×25.5×15.5cm\n(32cm内配有中隔)"},"price":null,"currency":"CNY","moq":1,"category":"ysl-women-bags","status":"active","alibaba_url":null,"images":["https://xcimg.szwego.com/imgHD/f8c0bdc9/20260129/cmp_i1769673299197_2018_0_0.jpg","https://xcimg.szwego.com/imgHD/f8c0bdc9/20260129/cmp_i1769673310942_2645_0_1.jpg","https://xcimg.szwego.com/imgHD/f8c0bdc9/20260129/cmp_i1769673310998_8145_0_2.jpg","https://xcimg.szwego.com/imgHD/f8c0bdc9/20260129/cmp_i1769673297489_9255_0_3.jpg","https://xcimg.szwego.com/imgHD/f8c0bdc9/20260129/cmp_i1769673299266_8949_0_4.jpg","https://xcimg.szwego.com/imgHD/f8c0bdc9/20260129/cmp_i1769673299133_3913_0_5.jpg","https://xcimg.szwego.com/imgHD/f8c0bdc9/20260129/cmp_i1769673311070_9453_0_6.jpg","https://xcimg.szwego.com/imgHD/f8c0bdc9/20260129/cmp_i1769673297463_7573_0_7.jpg","https://xcimg.szwego.com/imgHD/f8c0bdc9/20260129/cmp_i1769673311053_891_0_8.jpg"],"created_at":"2026-06-29T10:48:58.699Z"},{"id":"item-3e3a4f52e25b","sku":"_d9L9LroMiPEWilTl-xi07QrOVJMIGzje4K7LamA","name_en":"Sac de jour·","name_cn":"Sac de jour·\n灰色手搓纹金扣\n22/26/32cm","specs":{"source":"wsxcme","sourceId":"_d9L9LroMiPEWilTl-xi07QrOVJMIGzje4K7LamA","sourceTagId":47002761,"sourceTagName":"圣罗兰/女包","rawTitle":"Sac de jour·\n灰色手搓纹金扣\n22/26/32cm"},"price":null,"currency":"CNY","moq":1,"category":"ysl-women-bags","status":"active","alibaba_url":null,"images":["https://xcimg.szwego.com/imgHD/f8c0bdc9/20251120/cmp_i1763630323662_3405_0_0.jpg","https://xcimg.szwego.com/imgHD/f8c0bdc9/20251120/cmp_i1763629512884_9007_0_2.jpg","https://xcimg.szwego.com/imgHD/f8c0bdc9/20251120/cmp_i1763629871891_5588_0_2.jpg","https://xcimg.szwego.com/imgHD/f8c0bdc9/20251120/cmp_i1763630165520_7863_0_2.jpg"],"created_at":"2026-06-29T10:48:58.689Z"},{"id":"item-a4056fee8a44","sku":"_drmrm6Mm8x0OGztokG_Fe74tPUvHEe5bNLp3-Aw","name_en":"Saint Laurent Women Bags","name_cn":"官网图","specs":{"source":"wsxcme","sourceId":"_drmrm6Mm8x0OGztokG_Fe74tPUvHEe5bNLp3-Aw","sourceTagId":47002761,"sourceTagName":"圣罗兰/女包","rawTitle":"官网图"},"price":null,"currency":"CNY","moq":1,"category":"ysl-women-bags","status":"active","alibaba_url":null,"images":["https://xcimg.szwego.com/imgHD/f8c0bdc9/20251120/cmp_i1763631322339_7228_0_0.jpg","https://xcimg.szwego.com/imgHD/f8c0bdc9/20251120/cmp_i1763631322340_3947_0_1.jpg","https://xcimg.szwego.com/imgHD/f8c0bdc9/20251120/cmp_i1763631322340_9890_0_2.jpg","https://xcimg.szwego.com/imgHD/f8c0bdc9/20251120/cmp_i1763631322339_9564_0_3.jpg","https://xcimg.szwego.com/imgHD/f8c0bdc9/20251120/cmp_i1763631322339_1431_0_4.jpg","https://xcimg.szwego.com/imgHD/f8c0bdc9/20251120/cmp_i1763631322912_1935_0_5.jpg","https://xcimg.szwego.com/imgHD/f8c0bdc9/20251120/cmp_i1763631325579_5795_0_6.jpg"],"created_at":"2026-06-29T10:48:58.679Z"},{"id":"item-dcc6a3556b60","sku":"_d9l9lgPhnhqvxpKAytwdIDFugAZqk0Zz6z4wXPQ","name_en":"Saint Laurent Women Bags","name_cn":"官网图","specs":{"source":"wsxcme","sourceId":"_d9l9lgPhnhqvxpKAytwdIDFugAZqk0Zz6z4wXPQ","sourceTagId":47002761,"sourceTagName":"圣罗兰/女包","rawTitle":"官网图"},"price":null,"currency":"CNY","moq":1,"category":"ysl-women-bags","status":"active","alibaba_url":null,"images":["https://xcimg.szwego.com/imgHD/f8c0bdc9/20251120/cmp_i1763631310287_6747_0_0.jpg","https://xcimg.szwego.com/imgHD/f8c0bdc9/20251120/cmp_i1763631310287_1184_0_1.jpg","https://xcimg.szwego.com/imgHD/f8c0bdc9/20251120/cmp_i1763631310287_6337_0_2.jpg"],"created_at":"2026-06-29T10:48:58.669Z"},{"id":"item-6d5ee7a791ad","sku":"_dlPlPYCfesBI4Tc5Kz3twIedkN34GPGhDHwuP4g","name_en":"Saint Laurent Women Bags","name_cn":"标志性的风琴褶设计 不仅增加了包包的立体感\n方正的包型搭配精致的牛皮搭扣 时尚又大气","specs":{"source":"wsxcme","sourceId":"_dlPlPYCfesBI4Tc5Kz3twIedkN34GPGhDHwuP4g","sourceTagId":47002761,"sourceTagName":"圣罗兰/女包","rawTitle":"标志性的风琴褶设计 不仅增加了包包的立体感\n方正的包型搭配精致的牛皮搭扣 时尚又大气"},"price":null,"currency":"CNY","moq":1,"category":"ysl-women-bags","status":"active","alibaba_url":null,"images":["https://xcimg.szwego.com/imgHD/f8c0bdc9/20251120/cmp_i1763630165522_7446_0_0.jpg","https://xcimg.szwego.com/imgHD/f8c0bdc9/20251120/cmp_i1763630165518_6512_0_1.jpg","https://xcimg.szwego.com/imgHD/f8c0bdc9/20251120/cmp_i1763630165520_7863_0_2.jpg","https://xcimg.szwego.com/imgHD/f8c0bdc9/20251120/cmp_i1763630165546_534_0_3.jpg"],"created_at":"2026-06-29T10:48:58.659Z"},{"id":"item-450441a78a2f","sku":"_dxYxY0zV47HLnYPjf9xrhVZsonzV5yEN3zwplEg","name_en":"细节po","name_cn":"细节po","specs":{"source":"wsxcme","sourceId":"_dxYxY0zV47HLnYPjf9xrhVZsonzV5yEN3zwplEg","sourceTagId":47002761,"sourceTagName":"圣罗兰/女包","rawTitle":"细节po"},"price":null,"currency":"CNY","moq":1,"category":"ysl-women-bags","status":"active","alibaba_url":null,"images":["https://xcimg.szwego.com/imgHD/f8c0bdc9/20251120/cmp_i1763630156462_6995_0_0.jpg","https://xcimg.szwego.com/imgHD/f8c0bdc9/20251120/cmp_i1763630152592_5801_0_1.jpg","https://xcimg.szwego.com/imgHD/f8c0bdc9/20251120/cmp_i1763630153417_121_0_2.jpg","https://xcimg.szwego.com/imgHD/f8c0bdc9/20251120/cmp_i1763630153312_8074_0_3.jpg","https://xcimg.szwego.com/imgHD/f8c0bdc9/20251120/cmp_i1763630153382_7561_0_4.jpg","https://xcimg.szwego.com/imgHD/f8c0bdc9/20251120/cmp_i1763630155431_2331_0_5.jpg","https://xcimg.szwego.com/imgHD/f8c0bdc9/20251120/cmp_i1763630154266_3691_0_6.jpg","https://xcimg.szwego.com/imgHD/f8c0bdc9/20251120/cmp_i1763630155541_5610_0_7.jpg"],"created_at":"2026-06-29T10:48:58.649Z"},{"id":"item-7e2b1a3bece9","sku":"_dLULU__bTE4QkMcCTkjCjpWU4tdPSQf7RFWCCxA","name_en":"720 灰色手搓纹金扣·风琴包22cm","name_cn":"720 灰色手搓纹金扣·风琴包22cm\n最优雅的风琴包系列sac de jour,永远的经典不过时,精湛的牙签纹牛皮,纹路清晰而且光泽度十足,十分贵气!肩带可以调节,长短自己选择!logo非常小,完美地诠释了低调奢华的格调~\n型号:717440\n尺寸:22x18x10.5cm","specs":{"source":"wsxcme","sourceId":"_dLULU__bTE4QkMcCTkjCjpWU4tdPSQf7RFWCCxA","sourceTagId":47002761,"sourceTagName":"圣罗兰/女包","modelNumber":"717440","dimensions":{"lengthCm":22,"heightCm":18,"widthCm":10.5},"rawTitle":"720 灰色手搓纹金扣·风琴包22cm\n最优雅的风琴包系列sac de jour,永远的经典不过时,精湛的牙签纹牛皮,纹路清晰而且光泽度十足,十分贵气!肩带可以调节,长短自己选择!logo非常小,完美地诠释了低调奢华的格调~\n型号:717440\n尺寸:22x18x10.5cm"},"price":null,"currency":"CNY","moq":1,"category":"ysl-women-bags","status":"active","alibaba_url":null,"images":["https://xcimg.szwego.com/imgHD/f8c0bdc9/20251120/cmp_i1763630100600_2329_0_0.jpg","https://xcimg.szwego.com/imgHD/f8c0bdc9/20251120/cmp_i1763630097899_7278_0_1.jpg","https://xcimg.szwego.com/imgHD/f8c0bdc9/20251120/cmp_i1763630102146_5950_0_2.jpg","https://xcimg.szwego.com/imgHD/f8c0bdc9/20251120/cmp_i1763630098016_580_0_3.jpg","https://xcimg.szwego.com/imgHD/f8c0bdc9/20251120/cmp_i1763630098490_8828_0_8.jpg","https://xcimg.szwego.com/imgHD/f8c0bdc9/20251120/cmp_i1763630102146_2355_0_4.jpg","https://xcimg.szwego.com/imgHD/f8c0bdc9/20251120/cmp_i1763630097950_6989_0_5.jpg","https://xcimg.szwego.com/imgHD/f8c0bdc9/20251120/cmp_i1763630102326_6396_0_6.jpg","https://xcimg.szwego.com/imgHD/f8c0bdc9/20251120/cmp_i1763630099612_9179_0_7.jpg"],"created_at":"2026-06-29T10:48:58.639Z"},{"id":"item-051a4c8f23c7","sku":"_dlflfVzZ5ZmfWPAC9EKTJX87KI4EiSgKlVgr4SA","name_en":"Sac de jour 一经推出便迅速成为时尚界的焦点","name_cn":"Sac de jour 一经推出便迅速成为时尚界的焦点\n它的设计灵感融合了经典与现代元素 简约而不失大气","specs":{"source":"wsxcme","sourceId":"_dlflfVzZ5ZmfWPAC9EKTJX87KI4EiSgKlVgr4SA","sourceTagId":47002761,"sourceTagName":"圣罗兰/女包","rawTitle":"Sac de jour 一经推出便迅速成为时尚界的焦点\n它的设计灵感融合了经典与现代元素 简约而不失大气"},"price":null,"currency":"CNY","moq":1,"category":"ysl-women-bags","status":"active","alibaba_url":null,"images":["https://xcimg.szwego.com/imgHD/f8c0bdc9/20251120/cmp_i1763629871941_4844_0_0.jpg","https://xcimg.szwego.com/imgHD/f8c0bdc9/20251120/cmp_i1763629871931_5844_0_1.jpg","https://xcimg.szwego.com/imgHD/f8c0bdc9/20251120/cmp_i1763629871891_5588_0_2.jpg","https://xcimg.szwego.com/imgHD/f8c0bdc9/20251120/cmp_i1763629871932_3483_0_3.jpg"],"created_at":"2026-06-29T10:48:58.629Z"},{"id":"item-3eb041bdbf94","sku":"_dp2p2xiErpVXkRNYHi_08-hicJxsi3aP6H3T5ww","name_en":"细节po","name_cn":"细节po","specs":{"source":"wsxcme","sourceId":"_dp2p2xiErpVXkRNYHi_08-hicJxsi3aP6H3T5ww","sourceTagId":47002761,"sourceTagName":"圣罗兰/女包","rawTitle":"细节po"},"price":null,"currency":"CNY","moq":1,"category":"ysl-women-bags","status":"active","alibaba_url":null,"images":["https://xcimg.szwego.com/imgHD/f8c0bdc9/20251120/cmp_i1763629850901_477_0_0.jpg","https://xcimg.szwego.com/imgHD/f8c0bdc9/20251120/cmp_i1763629853959_556_0_1.jpg","https://xcimg.szwego.com/imgHD/f8c0bdc9/20251120/cmp_i1763629853926_5758_0_2.jpg","https://xcimg.szwego.com/imgHD/f8c0bdc9/20251120/cmp_i1763629852341_518_0_3.jpg","https://xcimg.szwego.com/imgHD/f8c0bdc9/20251120/cmp_i1763629852189_509_0_4.jpg","https://xcimg.szwego.com/imgHD/f8c0bdc9/20251120/cmp_i1763629853942_9030_0_5.jpg","https://xcimg.szwego.com/imgHD/f8c0bdc9/20251120/cmp_i1763629852316_7067_0_6.jpg","https://xcimg.szwego.com/imgHD/f8c0bdc9/20251120/cmp_i1763629852349_1595_0_7.jpg"],"created_at":"2026-06-29T10:48:58.619Z"},{"id":"item-00005cb2cf1c","sku":"_dh7h7YDoKRN3QfJfFDmVArOCwHexXTrl90abp7A","name_en":"灰色手搓纹·风琴包26cm","name_cn":"灰色手搓纹·风琴包26cm\n最优雅的风琴包系列sac de jour,永远的经典不过时,精湛的手搓纹牛皮,纹路清晰而且光泽度十足,十分贵气!26cm内配有中隔,可取出做手包,肩带可以调节,长短自己选择!logo非常小,完美地诠释了低调奢华的格调~\n型号:421863/477477\n尺寸:26x20.5x12.5cm\n(26cm内配有中隔)","specs":{"source":"wsxcme","sourceId":"_dh7h7YDoKRN3QfJfFDmVArOCwHexXTrl90abp7A","sourceTagId":47002761,"sourceTagName":"圣罗兰/女包","modelNumber":"421863/477477","dimensions":{"lengthCm":26,"heightCm":20.5,"widthCm":12.5},"rawTitle":"灰色手搓纹·风琴包26cm\n最优雅的风琴包系列sac de jour,永远的经典不过时,精湛的手搓纹牛皮,纹路清晰而且光泽度十足,十分贵气!26cm内配有中隔,可取出做手包,肩带可以调节,长短自己选择!logo非常小,完美地诠释了低调奢华的格调~\n型号:421863/477477\n尺寸:26x20.5x12.5cm\n(26cm内配有中隔)"},"price":null,"currency":"CNY","moq":1,"category":"ysl-women-bags","status":"active","alibaba_url":null,"images":["https://xcimg.szwego.com/imgHD/f8c0bdc9/20251120/cmp_i1763629810581_8601_0_0.jpg","https://xcimg.szwego.com/imgHD/f8c0bdc9/20251120/cmp_i1763629810533_2344_0_1.jpg","https://xcimg.szwego.com/imgHD/f8c0bdc9/20251120/cmp_i1763629813047_8484_0_2.jpg","https://xcimg.szwego.com/imgHD/f8c0bdc9/20251120/cmp_i1763629812234_453_0_3.jpg","https://xcimg.szwego.com/imgHD/f8c0bdc9/20251120/cmp_i1763629808985_1564_0_4.jpg","https://xcimg.szwego.com/imgHD/f8c0bdc9/20251120/cmp_i1763629808952_3540_0_5.jpg","https://xcimg.szwego.com/imgHD/f8c0bdc9/20251120/cmp_i1763629810729_9122_0_6.jpg","https://xcimg.szwego.com/imgHD/f8c0bdc9/20251120/cmp_i1763629813245_9843_0_8.jpg","https://xcimg.szwego.com/imgHD/f8c0bdc9/20251120/cmp_i1763629811836_7248_0_7.jpg"],"created_at":"2026-06-29T10:48:58.609Z"},{"id":"item-2da1da35757b","sku":"_dofofJZ1ZDYjePEqKjC02d2eQvRinqiVLqP8RiQ","name_en":"Saint Laurent Women Bags","name_cn":"折叠风琴包型立体有型\n配有黄铜挂锁 简约大方","specs":{"source":"wsxcme","sourceId":"_dofofJZ1ZDYjePEqKjC02d2eQvRinqiVLqP8RiQ","sourceTagId":47002761,"sourceTagName":"圣罗兰/女包","rawTitle":"折叠风琴包型立体有型\n配有黄铜挂锁 简约大方"},"price":null,"currency":"CNY","moq":1,"category":"ysl-women-bags","status":"active","alibaba_url":null,"images":["https://xcimg.szwego.com/imgHD/f8c0bdc9/20251120/cmp_i1763629512892_7923_0_0.jpg","https://xcimg.szwego.com/imgHD/f8c0bdc9/20251120/cmp_i1763629512874_310_0_1.jpg","https://xcimg.szwego.com/imgHD/f8c0bdc9/20251120/cmp_i1763629512884_9007_0_2.jpg","https://xcimg.szwego.com/imgHD/f8c0bdc9/20251120/cmp_i1763629512877_2752_0_3.jpg"],"created_at":"2026-06-29T10:48:58.599Z"},{"id":"item-6a3bf9d9fe33","sku":"_duIuIuZfx0KzRqf7SOZC3HSHBWQgwZmylBUZ2gg","name_en":"细节po","name_cn":"细节po","specs":{"source":"wsxcme","sourceId":"_duIuIuZfx0KzRqf7SOZC3HSHBWQgwZmylBUZ2gg","sourceTagId":47002761,"sourceTagName":"圣罗兰/女包","rawTitle":"细节po"},"price":null,"currency":"CNY","moq":1,"category":"ysl-women-bags","status":"active","alibaba_url":null,"images":["https://xcimg.szwego.com/imgHD/f8c0bdc9/20251120/cmp_i1763629496604_2759_0_0.jpg","https://xcimg.szwego.com/imgHD/f8c0bdc9/20251120/cmp_i1763629499054_4616_0_1.jpg","https://xcimg.szwego.com/imgHD/f8c0bdc9/20251120/cmp_i1763629495646_1564_0_2.jpg","https://xcimg.szwego.com/imgHD/f8c0bdc9/20251120/cmp_i1763629495537_7929_0_3.jpg","https://xcimg.szwego.com/imgHD/f8c0bdc9/20251120/cmp_i1763629495415_6929_0_4.jpg","https://xcimg.szwego.com/imgHD/f8c0bdc9/20251120/cmp_i1763629498856_7209_0_5.jpg","https://xcimg.szwego.com/imgHD/f8c0bdc9/20251120/cmp_i1763629498894_362_0_6.jpg","https://xcimg.szwego.com/imgHD/f8c0bdc9/20251120/cmp_i1763629499176_1826_0_7.jpg","https://xcimg.szwego.com/imgHD/f8c0bdc9/20251120/cmp_i1763629495523_5317_0_8.jpg"],"created_at":"2026-06-29T10:48:58.589Z"}],"page":8,"pageSize":24,"total":888,"totalPages":37}
