{"items":[{"id":"item-8c1841f7b75e","sku":"_dLbLbdCqrSzBx1Ia21HkUuy5jqVt8V9TMS6SJ1A","name_en":"Saint Laurent Women Bags","name_cn":"方格纹缝线搭配漆皮材质 摩登感十足","specs":{"source":"wsxcme","sourceId":"_dLbLbdCqrSzBx1Ia21HkUuy5jqVt8V9TMS6SJ1A","sourceTagId":47002761,"sourceTagName":"圣罗兰/女包","rawTitle":"方格纹缝线搭配漆皮材质 摩登感十足"},"price":null,"currency":"CNY","moq":1,"category":"ysl-women-bags","status":"active","alibaba_url":null,"images":["https://xcimg.szwego.com/imgHD/f8c0bdc9/20251104/cmp_i1762245652530_7154_0_0.jpg","https://xcimg.szwego.com/imgHD/f8c0bdc9/20251104/cmp_i1762245652483_9788_0_1.jpg","https://xcimg.szwego.com/imgHD/f8c0bdc9/20251104/cmp_i1762245652561_1704_0_2.jpg","https://xcimg.szwego.com/imgHD/f8c0bdc9/20251104/cmp_i1762245652569_7034_0_3.jpg"],"created_at":"2026-06-29T10:48:59.059Z"},{"id":"item-708f392939d7","sku":"_djbjbIkZl60IuP5KsRCsNVQv-oWjR7nJJtIUZ2g","name_en":"细节po","name_cn":"细节po","specs":{"source":"wsxcme","sourceId":"_djbjbIkZl60IuP5KsRCsNVQv-oWjR7nJJtIUZ2g","sourceTagId":47002761,"sourceTagName":"圣罗兰/女包","rawTitle":"细节po"},"price":null,"currency":"CNY","moq":1,"category":"ysl-women-bags","status":"active","alibaba_url":null,"images":["https://xcimg.szwego.com/imgHD/f8c0bdc9/20251104/cmp_i1762245638302_6576_0_0.jpg","https://xcimg.szwego.com/imgHD/f8c0bdc9/20251104/cmp_i1762245636547_3126_0_1.jpg","https://xcimg.szwego.com/imgHD/f8c0bdc9/20251104/cmp_i1762245636404_2644_0_2.jpg","https://xcimg.szwego.com/imgHD/f8c0bdc9/20251104/cmp_i1762245636526_154_0_3.jpg","https://xcimg.szwego.com/imgHD/f8c0bdc9/20251104/cmp_i1762245636535_7706_0_4.jpg","https://xcimg.szwego.com/imgHD/f8c0bdc9/20251104/cmp_i1762245636415_1140_0_6.jpg","https://xcimg.szwego.com/imgHD/f8c0bdc9/20251104/cmp_i1762245638287_6109_0_5.jpg","https://xcimg.szwego.com/imgHD/f8c0bdc9/20251104/cmp_i1762245638304_7414_0_7.jpg"],"created_at":"2026-06-29T10:48:59.049Z"},{"id":"item-70e78606c217","sku":"_dr3r31-2ezRl3K-WH_bOZe-e_JXpqrayQbI_IHQ","name_en":"Saint Laurent Women Bags","name_cn":"黑色漆皮绣格子·\nCASSANDRE _链条包 超级实用的一款小包,意大利进口原厂光面牛皮,里外全皮。搭配方形格缝精细手工制作,经典金属logo彰显个性,翻盖设计确保使用的安全性。肩带可拆卸,包包内设有十个卡片槽,一个纸币隔层,两个隔层,一个拉链内袋,装进所有!\n型号:743364\n尺寸:23x14x3cm \n肩带长度:47cm","specs":{"source":"wsxcme","sourceId":"_dr3r31-2ezRl3K-WH_bOZe-e_JXpqrayQbI_IHQ","sourceTagId":47002761,"sourceTagName":"圣罗兰/女包","modelNumber":"743364","dimensions":{"lengthCm":23,"heightCm":14,"widthCm":3},"rawTitle":"黑色漆皮绣格子·\nCASSANDRE _链条包 超级实用的一款小包,意大利进口原厂光面牛皮,里外全皮。搭配方形格缝精细手工制作,经典金属logo彰显个性,翻盖设计确保使用的安全性。肩带可拆卸,包包内设有十个卡片槽,一个纸币隔层,两个隔层,一个拉链内袋,装进所有!\n型号:743364\n尺寸:23x14x3cm \n肩带长度:47cm"},"price":null,"currency":"CNY","moq":1,"category":"ysl-women-bags","status":"active","alibaba_url":null,"images":["https://xcimg.szwego.com/imgHD/f8c0bdc9/20251104/cmp_i1762245538088_2679_0_0.jpg","https://xcimg.szwego.com/imgHD/f8c0bdc9/20251104/cmp_i1762245538091_2790_0_1.jpg","https://xcimg.szwego.com/imgHD/f8c0bdc9/20251104/cmp_i1762245538090_4995_0_2.jpg","https://xcimg.szwego.com/imgHD/f8c0bdc9/20251104/cmp_i1762245538132_9857_0_3.jpg","https://xcimg.szwego.com/imgHD/f8c0bdc9/20251104/cmp_i1762245540508_8722_0_4.jpg","https://xcimg.szwego.com/imgHD/f8c0bdc9/20251104/cmp_i1762245539966_9683_0_5.jpg","https://xcimg.szwego.com/imgHD/f8c0bdc9/20251104/cmp_i1762245537419_7144_0_6.jpg","https://xcimg.szwego.com/imgHD/f8c0bdc9/20251104/cmp_i1762245540481_4808_0_7.jpg","https://xcimg.szwego.com/imgHD/f8c0bdc9/20251104/cmp_i1762245540459_1474_0_8.jpg"],"created_at":"2026-06-29T10:48:59.039Z"},{"id":"item-99f7eeea491d","sku":"_do-o-NLO1dvi_D0GEtvZBF7I38vDpfnIfHDnjhA","name_en":"Saint Laurent Women Bags","name_cn":"📸捕捉一个镜头感满分的黑金信封包","specs":{"source":"wsxcme","sourceId":"_do-o-NLO1dvi_D0GEtvZBF7I38vDpfnIfHDnjhA","sourceTagId":47002761,"sourceTagName":"圣罗兰/女包","rawTitle":"📸捕捉一个镜头感满分的黑金信封包"},"price":null,"currency":"CNY","moq":1,"category":"ysl-women-bags","status":"active","alibaba_url":null,"images":["https://xcimg.szwego.com/imgHD/f8c0bdc9/20250822/cmp_i1755849652695_4245_0_0.jpg","https://xcimg.szwego.com/imgHD/f8c0bdc9/20250822/cmp_i1755849652695_1895_0_1.jpg","https://xcimg.szwego.com/imgHD/f8c0bdc9/20250822/cmp_i1755849652695_8687_0_2.jpg","https://xcimg.szwego.com/imgHD/f8c0bdc9/20250822/cmp_i1755849652695_218_0_3.jpg"],"created_at":"2026-06-29T10:48:59.029Z"},{"id":"item-491f7ca6cd29","sku":"_dmHmH1Dpw_nwUFxFMC7EsYYpLkGh9v2-fY32NdQ","name_en":"Saint Laurent Women Bags","name_cn":"黑色\nEnvelope_鱼子酱纹路信封包.超级实用的一款小包,最经典的款式,意大利进口牛皮配上精细手工制作;定制金属Y家logo彰显个性;翻盖设计确保使用的安全性;小包包大容量,包内设有20个卡片槽,两个纸币隔层,两个中央隔层,一个拉链内袋,装尽所有!\n型号:620280\n尺寸:22.5x14x4cm","specs":{"source":"wsxcme","sourceId":"_dmHmH1Dpw_nwUFxFMC7EsYYpLkGh9v2-fY32NdQ","sourceTagId":47002761,"sourceTagName":"圣罗兰/女包","modelNumber":"620280","dimensions":{"lengthCm":22.5,"heightCm":14,"widthCm":4},"rawTitle":"黑色\nEnvelope_鱼子酱纹路信封包.超级实用的一款小包,最经典的款式,意大利进口牛皮配上精细手工制作;定制金属Y家logo彰显个性;翻盖设计确保使用的安全性;小包包大容量,包内设有20个卡片槽,两个纸币隔层,两个中央隔层,一个拉链内袋,装尽所有!\n型号:620280\n尺寸:22.5x14x4cm"},"price":null,"currency":"CNY","moq":1,"category":"ysl-women-bags","status":"active","alibaba_url":null,"images":["https://xcimg.szwego.com/imgHD/f8c0bdc9/20250822/cmp_i1755849610123_4199_0_0.jpg","https://xcimg.szwego.com/imgHD/f8c0bdc9/20250822/cmp_i1755849610125_8515_0_1.jpg","https://xcimg.szwego.com/imgHD/f8c0bdc9/20250822/cmp_i1755849609386_2100_0_2.jpg","https://xcimg.szwego.com/imgHD/f8c0bdc9/20250822/cmp_i1755849610125_4005_0_3.jpg","https://xcimg.szwego.com/imgHD/f8c0bdc9/20250822/cmp_i1755849609386_4535_0_4.jpg","https://xcimg.szwego.com/imgHD/f8c0bdc9/20250822/cmp_i1755849609386_8925_0_5.jpg","https://xcimg.szwego.com/imgHD/f8c0bdc9/20250822/cmp_i1755849609386_665_0_6.jpg","https://xcimg.szwego.com/imgHD/f8c0bdc9/20250822/cmp_i1755849610125_4126_0_7.jpg","https://xcimg.szwego.com/imgHD/f8c0bdc9/20250822/cmp_i1755849609385_2536_0_8.jpg"],"created_at":"2026-06-29T10:48:59.019Z"},{"id":"item-391c2ff66b45","sku":"_doRoRQOzYIYEpKXS2arbJA63GV7n4EwEvOL7K0Q","name_en":"Saint Laurent Women Bags","name_cn":"美美的白金配色洋溢着法式的浪漫","specs":{"source":"wsxcme","sourceId":"_doRoRQOzYIYEpKXS2arbJA63GV7n4EwEvOL7K0Q","sourceTagId":47002761,"sourceTagName":"圣罗兰/女包","rawTitle":"美美的白金配色洋溢着法式的浪漫"},"price":null,"currency":"CNY","moq":1,"category":"ysl-women-bags","status":"active","alibaba_url":null,"images":["https://xcimg.szwego.com/imgHD/f8c0bdc9/20250822/cmp_i1755849546273_226_0_0.jpg","https://xcimg.szwego.com/imgHD/f8c0bdc9/20250822/cmp_i1755849546273_8427_0_1.jpg","https://xcimg.szwego.com/imgHD/f8c0bdc9/20250822/cmp_i1755849546273_5393_0_2.jpg","https://xcimg.szwego.com/imgHD/f8c0bdc9/20250822/cmp_i1755849546273_7186_0_3.jpg"],"created_at":"2026-06-29T10:48:59.009Z"},{"id":"item-dc5aa6c56f3f","sku":"_dililoBdoj11t31-CRWWarEGGXexp221QeEjMiA","name_en":"Saint Laurent Women Bags","name_cn":"白色\nEnvelope_鱼子酱纹路信封包.超级实用的一款小包,最经典的款式,意大利进口牛皮配上精细手工制作;定制金属Y家logo彰显个性;翻盖设计确保使用的安全性;小包包大容量,包内设有20个卡片槽,两个纸币隔层,两个中央隔层,一个拉链内袋,装尽所有!\n型号:620280\n尺寸:22.5x14x4cm","specs":{"source":"wsxcme","sourceId":"_dililoBdoj11t31-CRWWarEGGXexp221QeEjMiA","sourceTagId":47002761,"sourceTagName":"圣罗兰/女包","modelNumber":"620280","dimensions":{"lengthCm":22.5,"heightCm":14,"widthCm":4},"rawTitle":"白色\nEnvelope_鱼子酱纹路信封包.超级实用的一款小包,最经典的款式,意大利进口牛皮配上精细手工制作;定制金属Y家logo彰显个性;翻盖设计确保使用的安全性;小包包大容量,包内设有20个卡片槽,两个纸币隔层,两个中央隔层,一个拉链内袋,装尽所有!\n型号:620280\n尺寸:22.5x14x4cm"},"price":null,"currency":"CNY","moq":1,"category":"ysl-women-bags","status":"active","alibaba_url":null,"images":["https://xcimg.szwego.com/imgHD/f8c0bdc9/20250822/cmp_i1755849505903_1810_0_0.jpg","https://xcimg.szwego.com/imgHD/f8c0bdc9/20250822/cmp_i1755849505899_1595_0_1.jpg","https://xcimg.szwego.com/imgHD/f8c0bdc9/20250822/cmp_i1755849505126_1716_0_2.jpg","https://xcimg.szwego.com/imgHD/f8c0bdc9/20250822/cmp_i1755849505126_4984_0_3.jpg","https://xcimg.szwego.com/imgHD/f8c0bdc9/20250822/cmp_i1755849505126_3302_0_4.jpg","https://xcimg.szwego.com/imgHD/f8c0bdc9/20250822/cmp_i1755849505898_9637_0_5.jpg","https://xcimg.szwego.com/imgHD/f8c0bdc9/20250822/cmp_i1755849505126_9669_0_6.jpg","https://xcimg.szwego.com/imgHD/f8c0bdc9/20250822/cmp_i1755849505126_4659_0_7.jpg","https://xcimg.szwego.com/imgHD/f8c0bdc9/20250822/cmp_i1755849505897_2156_0_8.jpg"],"created_at":"2026-06-29T10:48:58.999Z"},{"id":"item-a69e824b459d","sku":"_dcLcLaDUOjTG3B94a11rQ98IRhIV6uzbHuI7VqA","name_en":"Saint Laurent Women Bags","name_cn":"好温柔的杏色信封包\n简约精致 低调又不失柔美感","specs":{"source":"wsxcme","sourceId":"_dcLcLaDUOjTG3B94a11rQ98IRhIV6uzbHuI7VqA","sourceTagId":47002761,"sourceTagName":"圣罗兰/女包","rawTitle":"好温柔的杏色信封包\n简约精致 低调又不失柔美感"},"price":null,"currency":"CNY","moq":1,"category":"ysl-women-bags","status":"active","alibaba_url":null,"images":["https://xcimg.szwego.com/imgHD/f8c0bdc9/20250822/cmp_i1755848995207_5996_0_0.jpg","https://xcimg.szwego.com/imgHD/f8c0bdc9/20250822/cmp_i1755848995207_4376_0_1.jpg","https://xcimg.szwego.com/imgHD/f8c0bdc9/20250822/cmp_i1755848995207_1757_0_2.jpg","https://xcimg.szwego.com/imgHD/f8c0bdc9/20250822/cmp_i1755848995207_8474_0_3.jpg"],"created_at":"2026-06-29T10:48:58.989Z"},{"id":"item-56d3ed9215eb","sku":"_dGFGFKeep2bh02UzMepbA0HfhMWpsUNg8KqtYyQ","name_en":"Saint Laurent Women Bags","name_cn":"杏色\nEnvelope_鱼子酱纹路信封包.超级实用的一款小包,最经典的款式,意大利进口牛皮配上精细手工制作;定制金属Y家logo彰显个性;翻盖设计确保使用的安全性;小包包大容量,包内设有20个卡片槽,两个纸币隔层,两个中央隔层,一个拉链内袋,装尽所有!\n型号:620280\n尺寸:22.5x14x4cm","specs":{"source":"wsxcme","sourceId":"_dGFGFKeep2bh02UzMepbA0HfhMWpsUNg8KqtYyQ","sourceTagId":47002761,"sourceTagName":"圣罗兰/女包","modelNumber":"620280","dimensions":{"lengthCm":22.5,"heightCm":14,"widthCm":4},"rawTitle":"杏色\nEnvelope_鱼子酱纹路信封包.超级实用的一款小包,最经典的款式,意大利进口牛皮配上精细手工制作;定制金属Y家logo彰显个性;翻盖设计确保使用的安全性;小包包大容量,包内设有20个卡片槽,两个纸币隔层,两个中央隔层,一个拉链内袋,装尽所有!\n型号:620280\n尺寸:22.5x14x4cm"},"price":null,"currency":"CNY","moq":1,"category":"ysl-women-bags","status":"active","alibaba_url":null,"images":["https://xcimg.szwego.com/imgHD/f8c0bdc9/20250822/cmp_i1755847777626_5286_0_0.jpg","https://xcimg.szwego.com/imgHD/f8c0bdc9/20250822/cmp_i1755847777628_8931_0_1.jpg","https://xcimg.szwego.com/imgHD/f8c0bdc9/20250822/cmp_i1755847776740_1020_0_2.jpg","https://xcimg.szwego.com/imgHD/f8c0bdc9/20250822/cmp_i1755847777628_4473_0_3.jpg","https://xcimg.szwego.com/imgHD/f8c0bdc9/20250822/cmp_i1755847776740_3818_0_4.jpg","https://xcimg.szwego.com/imgHD/f8c0bdc9/20250822/cmp_i1755847776740_6734_0_5.jpg","https://xcimg.szwego.com/imgHD/f8c0bdc9/20250822/cmp_i1755847776740_1681_0_6.jpg","https://xcimg.szwego.com/imgHD/f8c0bdc9/20250822/cmp_i1755847776740_2827_0_7.jpg","https://xcimg.szwego.com/imgHD/f8c0bdc9/20250822/cmp_i1755847777628_9674_0_8.jpg"],"created_at":"2026-06-29T10:48:58.979Z"},{"id":"item-c267c20e4747","sku":"_dlKlKdbq-Xgo3LuokZlDhpoiqdYrEwLMUcWQU5A","name_en":"Saint Laurent Women Bags","name_cn":"官网图","specs":{"source":"wsxcme","sourceId":"_dlKlKdbq-Xgo3LuokZlDhpoiqdYrEwLMUcWQU5A","sourceTagId":47002761,"sourceTagName":"圣罗兰/女包","rawTitle":"官网图"},"price":null,"currency":"CNY","moq":1,"category":"ysl-women-bags","status":"active","alibaba_url":null,"images":["https://xcimg.szwego.com/imgHD/f8c0bdc9/20260420/cmp_i1776674072630_6633_0_0.jpg","https://xcimg.szwego.com/imgHD/f8c0bdc9/20260420/cmp_i1776674072630_1125_0_1.jpg","https://xcimg.szwego.com/imgHD/f8c0bdc9/20260420/cmp_i1776674072631_7427_0_2.jpg","https://xcimg.szwego.com/imgHD/f8c0bdc9/20260420/cmp_i1776674072632_1647_0_3.jpg","https://xcimg.szwego.com/imgHD/f8c0bdc9/20260420/cmp_i1776674073228_5293_0_4.jpg","https://xcimg.szwego.com/imgHD/f8c0bdc9/20260420/cmp_i1776674072630_7785_0_5.jpg"],"created_at":"2026-06-29T10:48:58.969Z"},{"id":"item-4e4d9f630125","sku":"_dfofo6zE4ucZ9NAHC-v1zb7LEmrMYBhUTnyb7bA","name_en":"安可拉红的shopping bag","name_cn":"安可拉红的shopping bag\n是经典是热烈\n藏在一片浓郁又复古的色彩之中","specs":{"source":"wsxcme","sourceId":"_dfofo6zE4ucZ9NAHC-v1zb7LEmrMYBhUTnyb7bA","sourceTagId":47002761,"sourceTagName":"圣罗兰/女包","rawTitle":"安可拉红的shopping bag\n是经典是热烈\n藏在一片浓郁又复古的色彩之中"},"price":null,"currency":"CNY","moq":1,"category":"ysl-women-bags","status":"active","alibaba_url":null,"images":["https://xcimg.szwego.com/imgHD/f8c0bdc9/20260420/cmp_i1776670111956_3021_0_0.jpg","https://xcimg.szwego.com/imgHD/f8c0bdc9/20260420/cmp_i1776670111896_9520_0_1.jpg","https://xcimg.szwego.com/imgHD/f8c0bdc9/20260420/cmp_i1776670111943_7528_0_2.jpg","https://xcimg.szwego.com/imgHD/f8c0bdc9/20260420/cmp_i1776670111982_1106_0_3.jpg"],"created_at":"2026-06-29T10:48:58.959Z"},{"id":"item-72f4e7b3f598","sku":"_drsrsLrP_haRm9LItykdkBhkS6K2mpqHsztO8aw","name_en":"细节po","name_cn":"细节po","specs":{"source":"wsxcme","sourceId":"_drsrsLrP_haRm9LItykdkBhkS6K2mpqHsztO8aw","sourceTagId":47002761,"sourceTagName":"圣罗兰/女包","rawTitle":"细节po"},"price":null,"currency":"CNY","moq":1,"category":"ysl-women-bags","status":"active","alibaba_url":null,"images":["https://xcimg.szwego.com/imgHD/f8c0bdc9/20260420/cmp_i1776669992467_3361_0_0.jpg","https://xcimg.szwego.com/imgHD/f8c0bdc9/20260420/cmp_i1776669995361_8959_0_1.jpg","https://xcimg.szwego.com/imgHD/f8c0bdc9/20260420/cmp_i1776669996322_5611_0_2.jpg","https://xcimg.szwego.com/imgHD/f8c0bdc9/20260420/cmp_i1776669993738_2595_0_3.jpg","https://xcimg.szwego.com/imgHD/f8c0bdc9/20260420/cmp_i1776669994022_4601_0_4.jpg","https://xcimg.szwego.com/imgHD/f8c0bdc9/20260420/cmp_i1776669993841_5351_0_5.jpg","https://xcimg.szwego.com/imgHD/f8c0bdc9/20260420/cmp_i1776669998486_2159_0_6.jpg","https://xcimg.szwego.com/imgHD/f8c0bdc9/20260420/cmp_i1776669996177_2999_0_7.jpg","https://xcimg.szwego.com/imgHD/f8c0bdc9/20260420/cmp_i1776669992135_5904_0_8.jpg"],"created_at":"2026-06-29T10:48:58.949Z"},{"id":"item-485af47ccc39","sku":"_dm0m0AH6i3ZtMqoXnDdOAg-Df9sbYDhzlmXBF6w","name_en":"Saint Laurent Women Bags","name_cn":"枣红·\nshopping tote bag_横款购物袋\n非常简约性冷淡风的一个系列,进口南非牛皮,内里配有一个手拿袋,可拆卸,它的特点就是容量大而且轻,搭配一个金属小logo,精致极了!\n尺寸:38×28×13cm\n型号:394195","specs":{"source":"wsxcme","sourceId":"_dm0m0AH6i3ZtMqoXnDdOAg-Df9sbYDhzlmXBF6w","sourceTagId":47002761,"sourceTagName":"圣罗兰/女包","modelNumber":"394195","dimensions":{"lengthCm":38,"heightCm":28,"widthCm":13},"rawTitle":"枣红·\nshopping tote bag_横款购物袋\n非常简约性冷淡风的一个系列,进口南非牛皮,内里配有一个手拿袋,可拆卸,它的特点就是容量大而且轻,搭配一个金属小logo,精致极了!\n尺寸:38×28×13cm\n型号:394195"},"price":null,"currency":"CNY","moq":1,"category":"ysl-women-bags","status":"active","alibaba_url":null,"images":["https://xcimg.szwego.com/imgHD/f8c0bdc9/20260420/cmp_i1776669939644_9163_0_0.jpg","https://xcimg.szwego.com/imgHD/f8c0bdc9/20260420/cmp_i1776669936651_1808_0_1.jpg","https://xcimg.szwego.com/imgHD/f8c0bdc9/20260420/cmp_i1776669939421_6126_0_8.jpg","https://xcimg.szwego.com/imgHD/f8c0bdc9/20260420/cmp_i1776669939388_1197_0_2.jpg","https://xcimg.szwego.com/imgHD/f8c0bdc9/20260420/cmp_i1776669936607_6067_0_3.jpg","https://xcimg.szwego.com/imgHD/f8c0bdc9/20260420/cmp_i1776669938594_4802_0_4.jpg","https://xcimg.szwego.com/imgHD/f8c0bdc9/20260420/cmp_i1776669934651_1867_0_5.jpg","https://xcimg.szwego.com/imgHD/f8c0bdc9/20260420/cmp_i1776669936581_4756_0_6.jpg","https://xcimg.szwego.com/imgHD/f8c0bdc9/20260420/cmp_i1776669936698_2845_0_7.jpg"],"created_at":"2026-06-29T10:48:58.939Z"},{"id":"item-682c742d4a97","sku":"_dsvsvGvNWUD6xc79GHNtddUrN7rVHVaMWLHxzkA","name_en":"Saint Laurent Women Bags","name_cn":"官网图","specs":{"source":"wsxcme","sourceId":"_dsvsvGvNWUD6xc79GHNtddUrN7rVHVaMWLHxzkA","sourceTagId":47002761,"sourceTagName":"圣罗兰/女包","rawTitle":"官网图"},"price":null,"currency":"CNY","moq":1,"category":"ysl-women-bags","status":"active","alibaba_url":null,"images":["https://xcimg.szwego.com/imgHD/f8c0bdc9/20260420/cmp_i1776674058340_2605_0_0.jpg","https://xcimg.szwego.com/imgHD/f8c0bdc9/20260420/cmp_i1776674058341_8040_0_1.jpg","https://xcimg.szwego.com/imgHD/f8c0bdc9/20260420/cmp_i1776674058338_8697_0_2.jpg","https://xcimg.szwego.com/imgHD/f8c0bdc9/20260420/cmp_i1776674058340_1705_0_3.jpg","https://xcimg.szwego.com/imgHD/f8c0bdc9/20260420/cmp_i1776674058340_1591_0_4.jpg"],"created_at":"2026-06-29T10:48:58.929Z"},{"id":"item-6240d1f6be79","sku":"_dhGhG7SidNEA-L0vzkRAlibFJtaCYMhrYxUmi-g","name_en":"Saint Laurent Women Bags","name_cn":"黑色搭配银色 更加低调\n极简设计 容量足够大\n公文包 旅行包 购物袋 妈妈包随意切换","specs":{"source":"wsxcme","sourceId":"_dhGhG7SidNEA-L0vzkRAlibFJtaCYMhrYxUmi-g","sourceTagId":47002761,"sourceTagName":"圣罗兰/女包","rawTitle":"黑色搭配银色 更加低调\n极简设计 容量足够大\n公文包 旅行包 购物袋 妈妈包随意切换"},"price":null,"currency":"CNY","moq":1,"category":"ysl-women-bags","status":"active","alibaba_url":null,"images":["https://xcimg.szwego.com/imgHD/f8c0bdc9/20260420/cmp_i1776669351727_8946_0_0.jpg","https://xcimg.szwego.com/imgHD/f8c0bdc9/20260420/cmp_i1776669351984_9242_0_1.jpg","https://xcimg.szwego.com/imgHD/f8c0bdc9/20260420/cmp_i1776669351862_7869_0_2.jpg","https://xcimg.szwego.com/imgHD/f8c0bdc9/20260420/cmp_i1776669351970_9630_0_3.jpg","https://xcimg.szwego.com/imgHD/f8c0bdc9/20260420/cmp_i1776669352014_3583_0_4.jpg"],"created_at":"2026-06-29T10:48:58.919Z"},{"id":"item-2100f6c7295c","sku":"_d_1_1neB5DETeki98Yj893MbLcoKdwGJDuvA8nQ","name_en":"细节po","name_cn":"细节po","specs":{"source":"wsxcme","sourceId":"_d_1_1neB5DETeki98Yj893MbLcoKdwGJDuvA8nQ","sourceTagId":47002761,"sourceTagName":"圣罗兰/女包","rawTitle":"细节po"},"price":null,"currency":"CNY","moq":1,"category":"ysl-women-bags","status":"active","alibaba_url":null,"images":["https://xcimg.szwego.com/imgHD/f8c0bdc9/20260420/cmp_i1776669330101_9444_0_8.jpg","https://xcimg.szwego.com/imgHD/f8c0bdc9/20260420/cmp_i1776669326111_7776_0_0.jpg","https://xcimg.szwego.com/imgHD/f8c0bdc9/20260420/cmp_i1776669328291_3722_0_1.jpg","https://xcimg.szwego.com/imgHD/f8c0bdc9/20260420/cmp_i1776669330076_6888_0_2.jpg","https://xcimg.szwego.com/imgHD/f8c0bdc9/20260420/cmp_i1776669328306_3976_0_3.jpg","https://xcimg.szwego.com/imgHD/f8c0bdc9/20260420/cmp_i1776669328104_6185_0_4.jpg","https://xcimg.szwego.com/imgHD/f8c0bdc9/20260420/cmp_i1776669330980_4958_0_5.jpg","https://xcimg.szwego.com/imgHD/f8c0bdc9/20260420/cmp_i1776669330033_7258_0_6.jpg","https://xcimg.szwego.com/imgHD/f8c0bdc9/20260420/cmp_i1776669326131_4780_0_7.jpg"],"created_at":"2026-06-29T10:48:58.909Z"},{"id":"item-137a14e20ceb","sku":"_deOeOugjrP--OoTdcsdo8_Jj8y6Ldizolwn9B8w","name_en":"Saint Laurent Women Bags","name_cn":"黑色银扣·\nshopping tote bag_横款购物袋\n非常简约性冷淡风的一个系列,进口南非牛皮,内里配有一个手拿袋,可拆卸,它的特点就是容量大而且轻,搭配一个金属小logo,精致极了!\n尺寸:38×28×13cm\n型号:394195","specs":{"source":"wsxcme","sourceId":"_deOeOugjrP--OoTdcsdo8_Jj8y6Ldizolwn9B8w","sourceTagId":47002761,"sourceTagName":"圣罗兰/女包","modelNumber":"394195","dimensions":{"lengthCm":38,"heightCm":28,"widthCm":13},"rawTitle":"黑色银扣·\nshopping tote bag_横款购物袋\n非常简约性冷淡风的一个系列,进口南非牛皮,内里配有一个手拿袋,可拆卸,它的特点就是容量大而且轻,搭配一个金属小logo,精致极了!\n尺寸:38×28×13cm\n型号:394195"},"price":null,"currency":"CNY","moq":1,"category":"ysl-women-bags","status":"active","alibaba_url":null,"images":["https://xcimg.szwego.com/imgHD/f8c0bdc9/20260420/cmp_i1776669263869_5626_0_0.jpg","https://xcimg.szwego.com/imgHD/f8c0bdc9/20260420/cmp_i1776669265419_5556_0_1.jpg","https://xcimg.szwego.com/imgHD/f8c0bdc9/20260420/cmp_i1776669266638_9321_0_2.jpg","https://xcimg.szwego.com/imgHD/f8c0bdc9/20260420/cmp_i1776669266668_7239_0_3.jpg","https://xcimg.szwego.com/imgHD/f8c0bdc9/20260420/cmp_i1776669262534_4777_0_4.jpg","https://xcimg.szwego.com/imgHD/f8c0bdc9/20260420/cmp_i1776669263999_2084_0_5.jpg","https://xcimg.szwego.com/imgHD/f8c0bdc9/20260420/cmp_i1776669261872_3020_0_6.jpg","https://xcimg.szwego.com/imgHD/f8c0bdc9/20260420/cmp_i1776669263967_8487_0_7.jpg","https://xcimg.szwego.com/imgHD/f8c0bdc9/20260420/cmp_i1776669265448_6196_0_8.jpg"],"created_at":"2026-06-29T10:48:58.899Z"},{"id":"item-0d46cea373ef","sku":"_dgigiAYuwNeG47b1gIAHc4lZX1dF9eQlKmwWhTw","name_en":"Saint Laurent Women Bags","name_cn":"官网图","specs":{"source":"wsxcme","sourceId":"_dgigiAYuwNeG47b1gIAHc4lZX1dF9eQlKmwWhTw","sourceTagId":47002761,"sourceTagName":"圣罗兰/女包","rawTitle":"官网图"},"price":null,"currency":"CNY","moq":1,"category":"ysl-women-bags","status":"active","alibaba_url":null,"images":["https://xcimg.szwego.com/imgHD/f8c0bdc9/20260420/cmp_i1776674188091_8481_0_0.jpg","https://xcimg.szwego.com/imgHD/f8c0bdc9/20260420/cmp_i1776674188091_4904_0_1.jpg","https://xcimg.szwego.com/imgHD/f8c0bdc9/20260420/cmp_i1776674188823_5008_0_2.jpg","https://xcimg.szwego.com/imgHD/f8c0bdc9/20260420/cmp_i1776674188091_6222_0_3.jpg","https://xcimg.szwego.com/imgHD/f8c0bdc9/20260420/cmp_i1776674188091_4673_0_4.jpg","https://xcimg.szwego.com/imgHD/f8c0bdc9/20260420/cmp_i1776674188090_6035_0_5.jpg"],"created_at":"2026-06-29T10:48:58.889Z"},{"id":"item-c44e3b6c2e61","sku":"_dmWmW3TMkoFpZGv_nk5xrfYOq_tSbCWpIdZwclg","name_en":"Saint Laurent Women Bags","name_cn":"哑光麂皮质感+极简线条\n基础穿搭都能穿出松弛贵气感","specs":{"source":"wsxcme","sourceId":"_dmWmW3TMkoFpZGv_nk5xrfYOq_tSbCWpIdZwclg","sourceTagId":47002761,"sourceTagName":"圣罗兰/女包","rawTitle":"哑光麂皮质感+极简线条\n基础穿搭都能穿出松弛贵气感"},"price":null,"currency":"CNY","moq":1,"category":"ysl-women-bags","status":"active","alibaba_url":null,"images":["https://xcimg.szwego.com/imgHD/f8c0bdc9/20260420/cmp_i1776671000738_4944_0_4.jpg","https://xcimg.szwego.com/imgHD/f8c0bdc9/20260420/cmp_i1776671000843_7464_0_1.jpg","https://xcimg.szwego.com/imgHD/f8c0bdc9/20260420/cmp_i1776671000862_1466_0_0.jpg","https://xcimg.szwego.com/imgHD/f8c0bdc9/20260420/cmp_i1776671000833_6918_0_2.jpg","https://xcimg.szwego.com/imgHD/f8c0bdc9/20260420/cmp_i1776671000895_930_0_3.jpg"],"created_at":"2026-06-29T10:48:58.879Z"},{"id":"item-be5453e38ffe","sku":"_dmSmSAxndrRuMjCJw5arP1njFfZzh-cENi-A1Wg","name_en":"细节po","name_cn":"细节po","specs":{"source":"wsxcme","sourceId":"_dmSmSAxndrRuMjCJw5arP1njFfZzh-cENi-A1Wg","sourceTagId":47002761,"sourceTagName":"圣罗兰/女包","rawTitle":"细节po"},"price":null,"currency":"CNY","moq":1,"category":"ysl-women-bags","status":"active","alibaba_url":null,"images":["https://xcimg.szwego.com/imgHD/f8c0bdc9/20260420/cmp_i1776670985845_753_0_0.jpg","https://xcimg.szwego.com/imgHD/f8c0bdc9/20260420/cmp_i1776670985640_6089_0_1.jpg","https://xcimg.szwego.com/imgHD/f8c0bdc9/20260420/cmp_i1776670987446_923_0_2.jpg","https://xcimg.szwego.com/imgHD/f8c0bdc9/20260420/cmp_i1776670985569_1723_0_3.jpg","https://xcimg.szwego.com/imgHD/f8c0bdc9/20260420/cmp_i1776670984273_5961_0_4.jpg","https://xcimg.szwego.com/imgHD/f8c0bdc9/20260420/cmp_i1776670988243_3274_0_5.jpg","https://xcimg.szwego.com/imgHD/f8c0bdc9/20260420/cmp_i1776670987440_8568_0_6.jpg","https://xcimg.szwego.com/imgHD/f8c0bdc9/20260420/cmp_i1776670984505_8867_0_7.jpg"],"created_at":"2026-06-29T10:48:58.869Z"},{"id":"item-51478bfea50c","sku":"_dwTwToh62blLtRt_wYklkgdGK7VOCMxt4d_tlGg","name_en":"Saint Laurent Women Bags","name_cn":"绿色石头纹·\n【原厂皮】(不含包装)\n爆款LE 5A7腋下包♡\n今年大火的中古款腋下包 一直很受欢迎 全皮细腻光滑 包型设计又很简单又高级 容量足够用 轻便能装 又不过时真是太完美la~\n复古feel凹造型 又一款种草爆款✔️\n型号:713938原厂皮\n尺寸:23×22×8.5cm","specs":{"source":"wsxcme","sourceId":"_dwTwToh62blLtRt_wYklkgdGK7VOCMxt4d_tlGg","sourceTagId":47002761,"sourceTagName":"圣罗兰/女包","modelNumber":"713938原厂皮","dimensions":{"lengthCm":23,"heightCm":22,"widthCm":8.5},"rawTitle":"绿色石头纹·\n【原厂皮】(不含包装)\n爆款LE 5A7腋下包♡\n今年大火的中古款腋下包 一直很受欢迎 全皮细腻光滑 包型设计又很简单又高级 容量足够用 轻便能装 又不过时真是太完美la~\n复古feel凹造型 又一款种草爆款✔️\n型号:713938原厂皮\n尺寸:23×22×8.5cm"},"price":null,"currency":"CNY","moq":1,"category":"ysl-women-bags","status":"active","alibaba_url":null,"images":["https://xcimg.szwego.com/imgHD/f8c0bdc9/20260420/cmp_i1776670878854_9818_0_0.jpg","https://xcimg.szwego.com/imgHD/f8c0bdc9/20260420/cmp_i1776670877528_9652_0_1.jpg","https://xcimg.szwego.com/imgHD/f8c0bdc9/20260420/cmp_i1776670879352_284_0_2.jpg","https://xcimg.szwego.com/imgHD/f8c0bdc9/20260420/cmp_i1776670878841_7115_0_3.jpg","https://xcimg.szwego.com/imgHD/f8c0bdc9/20260420/cmp_i1776670877385_2080_0_4.jpg","https://xcimg.szwego.com/imgHD/f8c0bdc9/20260420/cmp_i1776670876329_6630_0_5.jpg","https://xcimg.szwego.com/imgHD/f8c0bdc9/20260420/cmp_i1776670877659_6397_0_6.jpg","https://xcimg.szwego.com/imgHD/f8c0bdc9/20260420/cmp_i1776670878793_1779_0_7.jpg","https://xcimg.szwego.com/imgHD/f8c0bdc9/20260420/cmp_i1776670875944_4404_0_8.jpg"],"created_at":"2026-06-29T10:48:58.859Z"},{"id":"item-04bc7199d376","sku":"_dcicimB0aNL3ggGIUAvaiXwmbhryQftsoByxfcw","name_en":"Saint Laurent Women Bags","name_cn":"官网图","specs":{"source":"wsxcme","sourceId":"_dcicimB0aNL3ggGIUAvaiXwmbhryQftsoByxfcw","sourceTagId":47002761,"sourceTagName":"圣罗兰/女包","rawTitle":"官网图"},"price":null,"currency":"CNY","moq":1,"category":"ysl-women-bags","status":"active","alibaba_url":null,"images":["https://xcimg.szwego.com/imgHD/f8c0bdc9/20260420/cmp_i1776674166636_2476_0_0.jpg","https://xcimg.szwego.com/imgHD/f8c0bdc9/20260420/cmp_i1776674165837_2895_0_1.jpg","https://xcimg.szwego.com/imgHD/f8c0bdc9/20260420/cmp_i1776674165837_8369_0_2.jpg","https://xcimg.szwego.com/imgHD/f8c0bdc9/20260420/cmp_i1776674166636_7599_0_3.jpg","https://xcimg.szwego.com/imgHD/f8c0bdc9/20260420/cmp_i1776674165836_6254_0_4.jpg","https://xcimg.szwego.com/imgHD/f8c0bdc9/20260420/cmp_i1776674165838_8407_0_5.jpg","https://xcimg.szwego.com/imgHD/f8c0bdc9/20260420/cmp_i1776674165837_6280_0_6.jpg"],"created_at":"2026-06-29T10:48:58.849Z"},{"id":"item-e2424735144a","sku":"_dmamaQbOqFnEdakqYk6rzIFrpYG88dsjrfDX13Q","name_en":"ICARE HOBO腋下包","name_cn":"ICARE HOBO腋下包\n软质包身贴合日常 随手一挎便融入通勤 逛街或短途出行的节奏","specs":{"source":"wsxcme","sourceId":"_dmamaQbOqFnEdakqYk6rzIFrpYG88dsjrfDX13Q","sourceTagId":47002761,"sourceTagName":"圣罗兰/女包","rawTitle":"ICARE HOBO腋下包\n软质包身贴合日常 随手一挎便融入通勤 逛街或短途出行的节奏"},"price":null,"currency":"CNY","moq":1,"category":"ysl-women-bags","status":"active","alibaba_url":null,"images":["https://xcimg.szwego.com/imgHD/f8c0bdc9/20260420/cmp_i1776670687414_9388_0_0.jpg","https://xcimg.szwego.com/imgHD/f8c0bdc9/20260420/cmp_i1776670687186_6407_0_1.jpg","https://xcimg.szwego.com/imgHD/f8c0bdc9/20260420/cmp_i1776670687122_7563_0_2.jpg","https://xcimg.szwego.com/imgHD/f8c0bdc9/20260420/cmp_i1776670687217_4533_0_3.jpg"],"created_at":"2026-06-29T10:48:58.839Z"},{"id":"item-55b5439d2c03","sku":"_dwSwSWuZn3TXvJIoa_sF1CAcNHdhYRDZ8KAuhqw","name_en":"细节po","name_cn":"细节po","specs":{"source":"wsxcme","sourceId":"_dwSwSWuZn3TXvJIoa_sF1CAcNHdhYRDZ8KAuhqw","sourceTagId":47002761,"sourceTagName":"圣罗兰/女包","rawTitle":"细节po"},"price":null,"currency":"CNY","moq":1,"category":"ysl-women-bags","status":"active","alibaba_url":null,"images":["https://xcimg.szwego.com/imgHD/f8c0bdc9/20260420/cmp_i1776670672548_900_0_0.jpg","https://xcimg.szwego.com/imgHD/f8c0bdc9/20260420/cmp_i1776670678781_5246_0_1.jpg","https://xcimg.szwego.com/imgHD/f8c0bdc9/20260420/cmp_i1776670674078_2768_0_2.jpg","https://xcimg.szwego.com/imgHD/f8c0bdc9/20260420/cmp_i1776670673905_6109_0_3.jpg","https://xcimg.szwego.com/imgHD/f8c0bdc9/20260420/cmp_i1776670672857_2642_0_4.jpg","https://xcimg.szwego.com/imgHD/f8c0bdc9/20260420/cmp_i1776670674130_8844_0_5.jpg"],"created_at":"2026-06-29T10:48:58.829Z"}],"page":7,"pageSize":24,"total":888,"totalPages":37}
