{"items":[{"id":"item-fe8647060248","sku":"_dvivigGIhuZI7mh5q6DmRWl1TDhUkfoDzcpqPGQ","name_en":"『Celine 赛琳』","name_cn":"『Celine 赛琳』\n\n经典CABAS TRIOMPHE \n老花MiNi号竖款手袋🛍 65%涂层帆布,\n35%小牛皮,100%棉衬里,内侧插袋,  \n可调节可拆卸皮革肩带,\n尺寸:20cm X 17cm X 6cm   \n型号:2200#","specs":{"source":"wsxcme","sourceId":"_dvivigGIhuZI7mh5q6DmRWl1TDhUkfoDzcpqPGQ","sourceTagId":47003106,"sourceTagName":"塞琳/女包","modelNumber":"2200#","rawTitle":"『Celine 赛琳』\n\n经典CABAS TRIOMPHE \n老花MiNi号竖款手袋🛍 65%涂层帆布,\n35%小牛皮,100%棉衬里,内侧插袋,  \n可调节可拆卸皮革肩带,\n尺寸:20cm X 17cm X 6cm   \n型号:2200#"},"price":null,"currency":"CNY","moq":1,"category":"celine-women-bags","status":"active","alibaba_url":null,"images":["https://xcimg.szwego.com/20220504/i1651635207_279_0.jpg","https://xcimg.szwego.com/20220504/i1651635207_5171_1.jpg","https://xcimg.szwego.com/20220504/i1651635207_7563_2.jpg","https://xcimg.szwego.com/20220504/i1651635207_720_3.jpg","https://xcimg.szwego.com/20220504/i1651635207_3945_4.jpg","https://xcimg.szwego.com/20220504/i1651635207_1237_5.jpg","https://xcimg.szwego.com/20220504/i1651635207_2822_6.jpg","https://xcimg.szwego.com/20220504/i1651635207_4231_7.jpg","https://xcimg.szwego.com/20220504/i1651635207_6429_8.jpg"],"created_at":"2025-02-08T12:47:00.866Z"},{"id":"item-fe1891a781a2","sku":"_doNoNz9bSZ7m-A5bd3CeXTnQBB0M8eF7hjzDVUQ","name_en":"『Celine 赛琳』","name_cn":"『Celine 赛琳』\n\n🏠推出最新帆布经典设计风格展现了复古、简洁及自信。时尚的尖端,毫无时代的隔阂~鲜明个性为日常衣柜带来多重魅力🥳  小号尺寸:18.5-14-6 小号款号188423","specs":{"source":"wsxcme","sourceId":"_doNoNz9bSZ7m-A5bd3CeXTnQBB0M8eF7hjzDVUQ","sourceTagId":47003106,"sourceTagName":"塞琳/女包","modelNumber":"188423","rawTitle":"『Celine 赛琳』\n\n🏠推出最新帆布经典设计风格展现了复古、简洁及自信。时尚的尖端,毫无时代的隔阂~鲜明个性为日常衣柜带来多重魅力🥳  小号尺寸:18.5-14-6 小号款号188423"},"price":null,"currency":"CNY","moq":1,"category":"celine-women-bags","status":"active","alibaba_url":null,"images":["https://xcimg.szwego.com/20200512/a1589267061433_1675.jpg","https://xcimg.szwego.com/20200512/a1589267062060_5303.jpg","https://xcimg.szwego.com/20200512/a1589267062498_7468.jpg","https://xcimg.szwego.com/20200512/a1589267063185_1371.jpg","https://xcimg.szwego.com/20200512/a1589267063651_1235.jpg","https://xcimg.szwego.com/20200512/a1589267064577_1664.jpg","https://xcimg.szwego.com/20200512/a1589267065417_6625.jpg","https://xcimg.szwego.com/20200512/a1589267065873_1507.jpg","https://xcimg.szwego.com/20200512/a1589267066118_4464.jpg"],"created_at":"2025-02-08T12:47:15.843Z"},{"id":"item-fd71e6a92d30","sku":"_de8e8wkjyR0DHstJDO_ouVFXpChe9NNIyjKazkw","name_en":"『Celine 赛琳』","name_cn":"『Celine 赛琳』\n\n🏠推出最心情PVC Triomphe Canvas经典印老花设计风格展现了复古、简洁及自信。时尚的尖端,毫无时代的隔阂~鲜明个性为日常衣柜带来多重魅力🥳  尺寸:22-16-6 款号187368","specs":{"source":"wsxcme","sourceId":"_de8e8wkjyR0DHstJDO_ouVFXpChe9NNIyjKazkw","sourceTagId":47003106,"sourceTagName":"塞琳/女包","modelNumber":"187368","rawTitle":"『Celine 赛琳』\n\n🏠推出最心情PVC Triomphe Canvas经典印老花设计风格展现了复古、简洁及自信。时尚的尖端,毫无时代的隔阂~鲜明个性为日常衣柜带来多重魅力🥳  尺寸:22-16-6 款号187368"},"price":null,"currency":"CNY","moq":1,"category":"celine-women-bags","status":"active","alibaba_url":null,"images":["https://xcimg.szwego.com/20210412/a1618174824990_0668.jpg","https://xcimg.szwego.com/20210412/a1618174825136_0766.jpg","https://xcimg.szwego.com/20210412/a1618174825289_7514.jpg","https://xcimg.szwego.com/20210412/a1618174825438_7450.jpg","https://xcimg.szwego.com/20210412/a1618174825583_7681.jpg","https://xcimg.szwego.com/20210412/a1618174825781_4550.jpg","https://xcimg.szwego.com/20210412/a1618174825946_5654.jpg","https://xcimg.szwego.com/20210412/a1618174826131_2217.jpg","https://xcimg.szwego.com/20210412/a1618174826359_2713.jpg"],"created_at":"2025-02-08T12:47:15.838Z"},{"id":"item-fb1d53955e7a","sku":"_dq4q4jS4X3h-1aNR9-POSaE3o-ZjaCZXmFQMUdQ","name_en":"『Celine 赛琳』","name_cn":"『Celine 赛琳』\n\n胶囊系列上线❤️ 2022 春夏新色上线~\nTriomphe Mini Tote  包身在老花原有基础上加上金丝凯旋门logo ,logo 带入感十足,低调奢华!堪称搭配小精灵 ,百搭款,小小一只不要太可爱啦啦 涉猎广众集美们 停止不了的魅力\n款号:193302 料金丝\n尺寸:17-20-6","specs":{"source":"wsxcme","sourceId":"_dq4q4jS4X3h-1aNR9-POSaE3o-ZjaCZXmFQMUdQ","sourceTagId":47003106,"sourceTagName":"塞琳/女包","modelNumber":"193302 料金丝","rawTitle":"『Celine 赛琳』\n\n胶囊系列上线❤️ 2022 春夏新色上线~\nTriomphe Mini Tote  包身在老花原有基础上加上金丝凯旋门logo ,logo 带入感十足,低调奢华!堪称搭配小精灵 ,百搭款,小小一只不要太可爱啦啦 涉猎广众集美们 停止不了的魅力\n款号:193302 料金丝\n尺寸:17-20-6"},"price":null,"currency":"CNY","moq":1,"category":"celine-women-bags","status":"active","alibaba_url":null,"images":["https://xcimg.szwego.com/20220404/i1649063989_8449_0.jpg","https://xcimg.szwego.com/20220404/i1649063989_1265_1.jpg","https://xcimg.szwego.com/20220404/i1649063989_9132_2.jpg","https://xcimg.szwego.com/20220404/i1649063989_9927_3.jpg","https://xcimg.szwego.com/20220404/i1649063989_407_4.jpg","https://xcimg.szwego.com/20220404/i1649063989_4672_5.jpg","https://xcimg.szwego.com/20220404/i1649063989_3316_8.jpg","https://xcimg.szwego.com/20220404/i1649063989_7516_6.jpg","https://xcimg.szwego.com/20220404/i1649063989_5865_7.jpg"],"created_at":"2025-02-08T12:47:00.803Z"},{"id":"item-f97628a79811","sku":"_dB1B1OorUFruXE2s8lZJl5uDF7Na0VOS4AL9sPQ","name_en":"『Celine 赛琳』","name_cn":"『Celine 赛琳』\n\nCEL.INE TRIOMPHC FOLCO 高品质马鞍包  延续凯旋门  棕色包边部分采用头层牛皮制作 复古斜挎  耐看经典印花一点都不老套  还带着轻巧小俏皮  耐装耐磨 象征性的 结构简约 肩带长度可调节 \n款号:2179#\n尺寸:18.16.10cm","specs":{"source":"wsxcme","sourceId":"_dB1B1OorUFruXE2s8lZJl5uDF7Na0VOS4AL9sPQ","sourceTagId":47003106,"sourceTagName":"塞琳/女包","modelNumber":"2179#","rawTitle":"『Celine 赛琳』\n\nCEL.INE TRIOMPHC FOLCO 高品质马鞍包  延续凯旋门  棕色包边部分采用头层牛皮制作 复古斜挎  耐看经典印花一点都不老套  还带着轻巧小俏皮  耐装耐磨 象征性的 结构简约 肩带长度可调节 \n款号:2179#\n尺寸:18.16.10cm"},"price":null,"currency":"CNY","moq":1,"category":"celine-women-bags","status":"active","alibaba_url":null,"images":["https://xcimg.szwego.com/20220224/i1645679174_7105_0.jpg","https://xcimg.szwego.com/20220224/i1645679174_9932_1.jpg","https://xcimg.szwego.com/20220224/i1645679174_784_2.jpg","https://xcimg.szwego.com/20220224/i1645679174_2283_3.jpg","https://xcimg.szwego.com/20220224/i1645679174_2261_4.jpg","https://xcimg.szwego.com/20220224/i1645679174_838_5.jpg","https://xcimg.szwego.com/20220224/i1645679174_2680_6.jpg","https://xcimg.szwego.com/20220224/i1645679174_2396_7.jpg","https://xcimg.szwego.com/20220224/i1645679174_4438_8.jpg"],"created_at":"2025-02-08T12:47:23.797Z"},{"id":"item-f4a810db6c5d","sku":"_dx6x68bFA00ehDWiSYi_QrRlDrVCGoSP58ZvEhA","name_en":"『Celine 赛琳』","name_cn":"『Celine 赛琳』\n\n专柜升级版CELINE TRIOMPHE帆布和光滑小羊皮饰带钱包\n8 X 5英寸(20 X 11.5厘米)\n62%涂层帆布、38%小羊皮\n57%小牛皮、43%织物面料衬里\n斜挎和肩背\n按扣 \n2个角撑隔层 \n1个拉链口袋 \n1个扁平口袋 \n8个卡槽 \n可调节小牛皮肩带 长19英寸(48厘米)\n43至53厘米 \n款号:10D852","specs":{"source":"wsxcme","sourceId":"_dx6x68bFA00ehDWiSYi_QrRlDrVCGoSP58ZvEhA","sourceTagId":47003106,"sourceTagName":"塞琳/女包","modelNumber":"10D852","rawTitle":"『Celine 赛琳』\n\n专柜升级版CELINE TRIOMPHE帆布和光滑小羊皮饰带钱包\n8 X 5英寸(20 X 11.5厘米)\n62%涂层帆布、38%小羊皮\n57%小牛皮、43%织物面料衬里\n斜挎和肩背\n按扣 \n2个角撑隔层 \n1个拉链口袋 \n1个扁平口袋 \n8个卡槽 \n可调节小牛皮肩带 长19英寸(48厘米)\n43至53厘米 \n款号:10D852"},"price":null,"currency":"CNY","moq":1,"category":"celine-women-bags","status":"active","alibaba_url":null,"images":["https://xcimg.szwego.com/20220325/i1648211946_1963_1.jpg","https://xcimg.szwego.com/20220325/i1648211946_614_2.jpg","https://xcimg.szwego.com/20220325/i1648211946_7916_3.jpg","https://xcimg.szwego.com/20220325/i1648211946_8683_4.jpg","https://xcimg.szwego.com/20220325/i1648211946_6452_5.jpg","https://xcimg.szwego.com/20220325/i1648211946_970_6.jpg","https://xcimg.szwego.com/20220325/i1648211946_3875_7.jpg","https://xcimg.szwego.com/20220325/i1648211946_6831_8.jpg","https://xcimg.szwego.com/20220325/i1648211967_2260_0.jpg"],"created_at":"2025-02-08T12:47:15.820Z"},{"id":"item-f4308e347dce","sku":"_d9h9hvb3ITQDIyH2olR0QFMBBgScEEXII5NN9tA","name_en":"『Celine 赛琳』","name_cn":"『Celine 赛琳』\n\nbox24cm  奶昔白银扣\n\n经典款一直不过时💥\n头层牛皮配定制五金\n内侧拉链口袋和双层扁平口袋\n非常有质感的一款包🛍\n尺寸:24×18×7cm","specs":{"source":"wsxcme","sourceId":"_d9h9hvb3ITQDIyH2olR0QFMBBgScEEXII5NN9tA","sourceTagId":47003106,"sourceTagName":"塞琳/女包","dimensions":{"lengthCm":24,"heightCm":18,"widthCm":7},"rawTitle":"『Celine 赛琳』\n\nbox24cm  奶昔白银扣\n\n经典款一直不过时💥\n头层牛皮配定制五金\n内侧拉链口袋和双层扁平口袋\n非常有质感的一款包🛍\n尺寸:24×18×7cm"},"price":null,"currency":"CNY","moq":1,"category":"celine-women-bags","status":"active","alibaba_url":null,"images":["https://xcimg.szwego.com/20201130/i1606723636_2070_0.jpg","https://xcimg.szwego.com/20201130/i1606723636_9306_1.jpg","https://xcimg.szwego.com/20201130/i1606723636_8188_2.jpg","https://xcimg.szwego.com/20201130/i1606723636_540_3.jpg","https://xcimg.szwego.com/20201130/i1606723645_7268_0.jpg","https://xcimg.szwego.com/20201130/i1606723636_5425_4.jpg","https://xcimg.szwego.com/20201130/i1606723636_1490_5.jpg","https://xcimg.szwego.com/20201130/i1606723636_8893_6.jpg","https://xcimg.szwego.com/20201130/i1606723636_4558_7.jpg"],"created_at":"2025-02-08T12:47:15.861Z"},{"id":"item-f355d4e5b62c","sku":"_dqtqtgF-c8QXIl49Xryb_GMi5o0QrdHyfHkRDMQ","name_en":"『Celine 赛琳』","name_cn":"『Celine 赛琳』\n\nbox18.5cm 墨绿色\n\n专柜最新尺寸teen💥\n头层牛皮配定制五金\n内里两层\n内侧有扁平口袋✅\n尺寸:18.5×15.5×6cm","specs":{"source":"wsxcme","sourceId":"_dqtqtgF-c8QXIl49Xryb_GMi5o0QrdHyfHkRDMQ","sourceTagId":47003106,"sourceTagName":"塞琳/女包","dimensions":{"lengthCm":18.5,"heightCm":15.5,"widthCm":6},"rawTitle":"『Celine 赛琳』\n\nbox18.5cm 墨绿色\n\n专柜最新尺寸teen💥\n头层牛皮配定制五金\n内里两层\n内侧有扁平口袋✅\n尺寸:18.5×15.5×6cm"},"price":null,"currency":"CNY","moq":1,"category":"celine-women-bags","status":"active","alibaba_url":null,"images":["https://xcimg.szwego.com/20201126/i1606377362_4805_0.jpg","https://xcimg.szwego.com/20201126/i1606377362_959_1.jpg","https://xcimg.szwego.com/20201126/i1606377362_8935_2.jpg","https://xcimg.szwego.com/20201126/i1606377362_3576_3.jpg","https://xcimg.szwego.com/20201126/i1606377362_9456_4.jpg","https://xcimg.szwego.com/20201126/i1606377362_291_5.jpg","https://xcimg.szwego.com/20201126/i1606377362_1379_6.jpg","https://xcimg.szwego.com/20201126/i1606377362_3043_7.jpg","https://xcimg.szwego.com/20201126/i1606377362_4454_8.jpg"],"created_at":"2025-02-08T12:47:15.866Z"},{"id":"item-f1e81df6fdf1","sku":"_d9C9CWU5-RKd1GszUYjbdnF6p2vJn4oF9zBHlMw","name_en":"『Celine 赛琳』","name_cn":"『Celine 赛琳』 \nLisa同款AVA腋下月亮包\n全网最好包身版型⚡️最好拉链弧度⚡️\n全色系到货⚡️品质升级⚡️\n2021思琳女士臻礼系列\n尊享版 全钢五金 进口原厂小牛皮\n型号193953 \n2021新款腋下包系列强势回归,大热的腋下包也推出最新版la~\n复古的包型在上世纪六十年代巴黎时装周里就掀起热潮,不同的是如今大家伙儿的时髦态度已经融入生活,身背单品行走到哪都像在巴黎时装周,而且腋下包复古不过时,特别有味道~心尖尖喜欢的款 \nsize 23*14*7","specs":{"source":"wsxcme","sourceId":"_d9C9CWU5-RKd1GszUYjbdnF6p2vJn4oF9zBHlMw","sourceTagId":47003106,"sourceTagName":"塞琳/女包","modelNumber":"193953","rawTitle":"『Celine 赛琳』 \nLisa同款AVA腋下月亮包\n全网最好包身版型⚡️最好拉链弧度⚡️\n全色系到货⚡️品质升级⚡️\n2021思琳女士臻礼系列\n尊享版 全钢五金 进口原厂小牛皮\n型号193953 \n2021新款腋下包系列强势回归,大热的腋下包也推出最新版la~\n复古的包型在上世纪六十年代巴黎时装周里就掀起热潮,不同的是如今大家伙儿的时髦态度已经融入生活,身背单品行走到哪都像在巴黎时装周,而且腋下包复古不过时,特别有味道~心尖尖喜欢的款 \nsize 23*14*7"},"price":null,"currency":"CNY","moq":1,"category":"celine-women-bags","status":"active","alibaba_url":null,"images":["https://xcimg.szwego.com/20210812/i1628742750_2169_0.jpg","https://xcimg.szwego.com/20210812/i1628742750_1935_1.jpg","https://xcimg.szwego.com/20210812/i1628742750_2001_2.jpg","https://xcimg.szwego.com/20210812/i1628742750_6557_3.jpg","https://xcimg.szwego.com/20210812/i1628742750_6515_4.jpg","https://xcimg.szwego.com/20210812/i1628742750_2067_5.jpg","https://xcimg.szwego.com/20210812/i1628742750_4735_6.jpg","https://xcimg.szwego.com/20210812/i1628742750_7372_7.jpg"],"created_at":"2025-02-08T12:47:23.777Z"},{"id":"item-f15d4a14dcd1","sku":"_dUyUyzeSKTsl5xn0quFUIDk1Xb1wHrr_eYo9ENA","name_en":"『Celine 赛琳』","name_cn":"『Celine 赛琳』\n\n腋下包 老花\n\n定制版品质✨\n颜值无死角\n实用性超高\n\n尺寸24.5×18×7.5cm","specs":{"source":"wsxcme","sourceId":"_dUyUyzeSKTsl5xn0quFUIDk1Xb1wHrr_eYo9ENA","sourceTagId":47003106,"sourceTagName":"塞琳/女包","dimensions":{"lengthCm":24.5,"heightCm":18,"widthCm":7.5},"rawTitle":"『Celine 赛琳』\n\n腋下包 老花\n\n定制版品质✨\n颜值无死角\n实用性超高\n\n尺寸24.5×18×7.5cm"},"price":null,"currency":"CNY","moq":1,"category":"celine-women-bags","status":"active","alibaba_url":null,"images":["https://xcimg.szwego.com/20210407/i1617769074_1565_0.jpg","https://xcimg.szwego.com/20210407/i1617769074_9246_1.jpg","https://xcimg.szwego.com/20210407/i1617769074_399_2.jpg","https://xcimg.szwego.com/20210407/i1617769074_5612_3.jpg","https://xcimg.szwego.com/20210407/i1617769074_8719_4.jpg","https://xcimg.szwego.com/20210407/i1617769074_9609_5.jpg","https://xcimg.szwego.com/20210407/i1617769074_3384_6.jpg","https://xcimg.szwego.com/20210407/i1617769074_3800_7.jpg","https://xcimg.szwego.com/20210407/i1617769074_3966_8.jpg"],"created_at":"2025-02-08T12:47:00.827Z"},{"id":"item-f0470d9f38a6","sku":"_dU5U5vo7m-xhZ3rysSu_MLRnjdK_kNw9WzQbduA","name_en":"『Celine 赛琳』","name_cn":"『Celine 赛琳』\n\n经典CABAS TRIOMPHE \n白花MiNi号竖款手袋🛍 65%涂层帆布,\n35%小牛皮,100%棉衬里,内侧插袋,  \n可调节可拆卸皮革肩带,\n尺寸:20cm X 17cm X 6cm   \n型号:2200#","specs":{"source":"wsxcme","sourceId":"_dU5U5vo7m-xhZ3rysSu_MLRnjdK_kNw9WzQbduA","sourceTagId":47003106,"sourceTagName":"塞琳/女包","modelNumber":"2200#","rawTitle":"『Celine 赛琳』\n\n经典CABAS TRIOMPHE \n白花MiNi号竖款手袋🛍 65%涂层帆布,\n35%小牛皮,100%棉衬里,内侧插袋,  \n可调节可拆卸皮革肩带,\n尺寸:20cm X 17cm X 6cm   \n型号:2200#"},"price":null,"currency":"CNY","moq":1,"category":"celine-women-bags","status":"active","alibaba_url":null,"images":["https://xcimg.szwego.com/20220504/i1651635268_3369_0.jpg","https://xcimg.szwego.com/20220504/i1651635268_6483_1.jpg","https://xcimg.szwego.com/20220504/i1651635268_1246_2.jpg","https://xcimg.szwego.com/20220504/i1651635268_8196_3.jpg","https://xcimg.szwego.com/20220504/i1651635268_6642_4.jpg","https://xcimg.szwego.com/20220504/i1651635268_8022_5.jpg","https://xcimg.szwego.com/20220504/i1651635268_7319_6.jpg","https://xcimg.szwego.com/20220504/i1651635268_5400_7.jpg","https://xcimg.szwego.com/20220504/i1651635268_2859_8.jpg"],"created_at":"2025-02-08T12:47:00.865Z"},{"id":"item-ef9b5e0235dd","sku":"_dMCMCGf63jONW90U7p8DOVEyBHvuUnIq9bAgbbg","name_en":"『Celine 赛琳』","name_cn":"『Celine 赛琳』\n\n🔥爆款💯系列升级版\nCELINE  AVA TRIOMPHE帆布手袋\n原版购入打版👍原版实拍图📷复古老花腋下包lisa同款牛皮半月包真皮 单肩女包豌豆包\n9 X 6 X 3英寸(23 X 14 X 7厘米)\n61%涂层帆布,39%小牛皮\n编号:193952BZJ.04LU","specs":{"source":"wsxcme","sourceId":"_dMCMCGf63jONW90U7p8DOVEyBHvuUnIq9bAgbbg","sourceTagId":47003106,"sourceTagName":"塞琳/女包","rawTitle":"『Celine 赛琳』\n\n🔥爆款💯系列升级版\nCELINE  AVA TRIOMPHE帆布手袋\n原版购入打版👍原版实拍图📷复古老花腋下包lisa同款牛皮半月包真皮 单肩女包豌豆包\n9 X 6 X 3英寸(23 X 14 X 7厘米)\n61%涂层帆布,39%小牛皮\n编号:193952BZJ.04LU"},"price":null,"currency":"CNY","moq":1,"category":"celine-women-bags","status":"active","alibaba_url":null,"images":["https://xcimg.szwego.com/20220321/i1647834951_1037_0.jpg","https://xcimg.szwego.com/20220321/i1647834951_5881_1.jpg","https://xcimg.szwego.com/20220321/i1647834951_6231_2.jpg","https://xcimg.szwego.com/20220321/i1647834951_9354_3.jpg","https://xcimg.szwego.com/20220321/i1647834951_5901_4.jpg","https://xcimg.szwego.com/20220321/i1647834951_8079_5.jpg","https://xcimg.szwego.com/20220321/i1647834951_5921_6.jpg","https://xcimg.szwego.com/20220321/i1647834951_7200_7.jpg"],"created_at":"2025-02-08T12:47:15.823Z"},{"id":"item-ef1ce101f241","sku":"_dXuXuRdaFKwD_KfM6T3o9LxqMiTFsfjb7Esv5uA","name_en":"『Celine 赛琳』","name_cn":"『Celine 赛琳』\n\nCABAS CELINE 印花织物配小牛皮革小号竖款手提包\n13 X 11 X 3英寸(32 X 29 X 8厘米)\n织物/牛皮革\n衬里 : 织物/牛皮革\n内侧拉链口袋\n可调节皮革肩带长20英寸(50厘米)\n编号:3129海军褐色","specs":{"source":"wsxcme","sourceId":"_dXuXuRdaFKwD_KfM6T3o9LxqMiTFsfjb7Esv5uA","sourceTagId":47003106,"sourceTagName":"塞琳/女包","rawTitle":"『Celine 赛琳』\n\nCABAS CELINE 印花织物配小牛皮革小号竖款手提包\n13 X 11 X 3英寸(32 X 29 X 8厘米)\n织物/牛皮革\n衬里 : 织物/牛皮革\n内侧拉链口袋\n可调节皮革肩带长20英寸(50厘米)\n编号:3129海军褐色"},"price":null,"currency":"CNY","moq":1,"category":"celine-women-bags","status":"active","alibaba_url":null,"images":["https://xcimg.szwego.com/20200805/i1596617270_1197_0.jpg","https://xcimg.szwego.com/20200805/i1596617270_6661_1.jpg","https://xcimg.szwego.com/20200805/i1596617270_8612_2.jpg","https://xcimg.szwego.com/20200805/i1596617270_3899_3.jpg","https://xcimg.szwego.com/20200805/i1596617270_6054_4.jpg","https://xcimg.szwego.com/20200805/i1596617270_6714_5.jpg","https://xcimg.szwego.com/20200805/i1596617270_1364_6.jpg","https://xcimg.szwego.com/20200805/i1596617270_6410_7.jpg","https://xcimg.szwego.com/20200805/i1596617270_9611_8.jpg"],"created_at":"2025-02-08T12:47:00.814Z"},{"id":"item-ee895dafe841","sku":"_drkrkdnzasr7IFu_1QTS0mp9Z2XRpfoUmL3IGrA","name_en":"『Celine 赛琳』","name_cn":"『Celine 赛琳』\n\nCe.line 春夏新品Folco白色涂层帆布马鞍包 延续凯旋门 复古斜挎  耐看经典印花一点都不老套。\n尺寸:18x16x10cm\n型号:2179#","specs":{"source":"wsxcme","sourceId":"_drkrkdnzasr7IFu_1QTS0mp9Z2XRpfoUmL3IGrA","sourceTagId":47003106,"sourceTagName":"塞琳/女包","modelNumber":"2179#","dimensions":{"lengthCm":18,"heightCm":16,"widthCm":10},"rawTitle":"『Celine 赛琳』\n\nCe.line 春夏新品Folco白色涂层帆布马鞍包 延续凯旋门 复古斜挎  耐看经典印花一点都不老套。\n尺寸:18x16x10cm\n型号:2179#"},"price":null,"currency":"CNY","moq":1,"category":"celine-women-bags","status":"active","alibaba_url":null,"images":["https://xcimg.szwego.com/20220224/i1645679218_7663_0.jpg","https://xcimg.szwego.com/20220224/i1645679218_667_1.jpg","https://xcimg.szwego.com/20220224/i1645679218_6374_2.jpg","https://xcimg.szwego.com/20220224/i1645679218_2908_3.jpg","https://xcimg.szwego.com/20220224/i1645679218_4766_4.jpg","https://xcimg.szwego.com/20220224/i1645679218_103_5.jpg","https://xcimg.szwego.com/20220224/i1645679218_9096_6.jpg","https://xcimg.szwego.com/20220224/i1645679218_5806_7.jpg","https://xcimg.szwego.com/20220224/i1645679218_7219_8.jpg"],"created_at":"2025-02-08T12:47:00.845Z"},{"id":"item-ee5927e222e1","sku":"_dcmcmx-kWfSU3IG9T7pvxnzs5Y44bPHCh2oBDCw","name_en":"『Celine 赛琳』","name_cn":"『Celine 赛琳』\n\n腋下包 白花\n\n定制版品质✨\n颜值无死角\n实用性超高\n\n尺寸24.5×18×7.5cm","specs":{"source":"wsxcme","sourceId":"_dcmcmx-kWfSU3IG9T7pvxnzs5Y44bPHCh2oBDCw","sourceTagId":47003106,"sourceTagName":"塞琳/女包","dimensions":{"lengthCm":24.5,"heightCm":18,"widthCm":7.5},"rawTitle":"『Celine 赛琳』\n\n腋下包 白花\n\n定制版品质✨\n颜值无死角\n实用性超高\n\n尺寸24.5×18×7.5cm"},"price":null,"currency":"CNY","moq":1,"category":"celine-women-bags","status":"active","alibaba_url":null,"images":["https://xcimg.szwego.com/20210518/i1621323139_9040_0.jpg","https://xcimg.szwego.com/20210518/i1621323139_7477_1.jpg","https://xcimg.szwego.com/20210518/i1621323139_8682_2.jpg","https://xcimg.szwego.com/20210518/i1621323139_4421_3.jpg","https://xcimg.szwego.com/20210518/i1621323139_7791_4.jpg","https://xcimg.szwego.com/20210518/i1621323139_5632_5.jpg","https://xcimg.szwego.com/20210518/i1621323139_317_6.jpg","https://xcimg.szwego.com/20210518/i1621323139_6926_7.jpg","https://xcimg.szwego.com/20210518/i1621323139_7851_8.jpg"],"created_at":"2025-02-08T12:47:00.828Z"},{"id":"item-edb53623db30","sku":"_d9M9M24sXwf52vIyWD1a1fwvTUcqZbmPX2avY7Q","name_en":"『Celine 赛琳』","name_cn":"『Celine 赛琳』\n\n👑 春夏新品BESACE TRIOMPHE效果属于VVIP最新款、官网预售\n款号:尺寸:24.5×17x4cm链条长30CM \n  凯旋门黑金 BESACE TRIOMP亮泽牛皮链,整体风格:灰常大气,黑金YYDS依旧那么经典辣么华丽、#长度有所增加,再也不会\n像背腋下包一样\n自重不算轻、但是可以接受。包身皮料用的,硬挺容量手机粉饼车\n纸巾耳机还余旷量!\n机车皮夹克一穿,这也太酷了吧可以冲","specs":{"source":"wsxcme","sourceId":"_d9M9M24sXwf52vIyWD1a1fwvTUcqZbmPX2avY7Q","sourceTagId":47003106,"sourceTagName":"塞琳/女包","modelNumber":"尺寸:24.5×17x4cm链条长30CM","dimensions":{"lengthCm":24.5,"heightCm":17,"widthCm":4},"rawTitle":"『Celine 赛琳』\n\n👑 春夏新品BESACE TRIOMPHE效果属于VVIP最新款、官网预售\n款号:尺寸:24.5×17x4cm链条长30CM \n  凯旋门黑金 BESACE TRIOMP亮泽牛皮链,整体风格:灰常大气,黑金YYDS依旧那么经典辣么华丽、#长度有所增加,再也不会\n像背腋下包一样\n自重不算轻、但是可以接受。包身皮料用的,硬挺容量手机粉饼车\n纸巾耳机还余旷量!\n机车皮夹克一穿,这也太酷了吧可以冲"},"price":null,"currency":"CNY","moq":1,"category":"celine-women-bags","status":"active","alibaba_url":null,"images":["https://xcimg.szwego.com/20220714/i1657806024_6548_0.jpg","https://xcimg.szwego.com/20220714/i1657806024_1933_1.jpg","https://xcimg.szwego.com/20220714/i1657806024_458_2.jpg","https://xcimg.szwego.com/20220714/i1657806024_5737_3.jpg","https://xcimg.szwego.com/20220714/i1657806024_1022_4.jpg","https://xcimg.szwego.com/20220714/i1657806024_9139_5.jpg","https://xcimg.szwego.com/20220714/i1657806024_5796_6.jpg","https://xcimg.szwego.com/20220714/i1657806024_1265_7.jpg"],"created_at":"2025-02-08T12:47:23.807Z"},{"id":"item-ed18a0562460","sku":"_dvhvhqBqrgANPt-GnG2mpNRWtF1ZFq--2KqBPTA","name_en":"『Celine 赛琳』","name_cn":"『Celine 赛琳』\n\nCEL.INE🌞最新mini Tabou Clutch onStrap锁头饰带手包TRIOMPHE Canvas 标志腋下 手提包 白花/牛皮\n织物面料衬里 点睛的金色五金锁 \n包包设计有一长一短的皮肩带 不能调节 可以手提肩背®️\n尺寸:18 X 8 X 5cm\n型号:2298#","specs":{"source":"wsxcme","sourceId":"_dvhvhqBqrgANPt-GnG2mpNRWtF1ZFq--2KqBPTA","sourceTagId":47003106,"sourceTagName":"塞琳/女包","modelNumber":"2298#","dimensions":{"lengthCm":18,"heightCm":8,"widthCm":5},"rawTitle":"『Celine 赛琳』\n\nCEL.INE🌞最新mini Tabou Clutch onStrap锁头饰带手包TRIOMPHE Canvas 标志腋下 手提包 白花/牛皮\n织物面料衬里 点睛的金色五金锁 \n包包设计有一长一短的皮肩带 不能调节 可以手提肩背®️\n尺寸:18 X 8 X 5cm\n型号:2298#"},"price":null,"currency":"CNY","moq":1,"category":"celine-women-bags","status":"active","alibaba_url":null,"images":["https://xcimg.szwego.com/20220330/i1648612244_1465_0.jpg","https://xcimg.szwego.com/20220330/i1648612244_9176_1.jpg","https://xcimg.szwego.com/20220330/i1648612244_8539_2.jpg","https://xcimg.szwego.com/20220330/i1648612244_5800_3.jpg","https://xcimg.szwego.com/20220330/i1648612244_2952_4.jpg","https://xcimg.szwego.com/20220330/i1648612244_5169_5.jpg","https://xcimg.szwego.com/20220330/i1648612244_1602_6.jpg","https://xcimg.szwego.com/20220330/i1648612244_9478_7.jpg","https://xcimg.szwego.com/20220330/i1648612244_4364_8.jpg"],"created_at":"2025-02-08T12:47:00.855Z"},{"id":"item-eb99985438de","sku":"_dqRqRdNjD45eWTd1qdKZn4UWX3ahuXbzCXFqxNQ","name_en":"『Celine 赛琳』","name_cn":"『Celine 赛琳』\n\n🔥爆款💯系列🔥升级版\nCELINE  AVA TRIOMPHE帆布手袋\n原版购入打版👍原版实拍图📷复古老花腋下包lisa同款牛皮半月包真皮 单肩女包豌豆包\n9 X 6 X 3英寸(23 X 14 X 7厘米)\n61%涂层帆布,39%小牛皮\n编号:193952BZJ.04LU","specs":{"source":"wsxcme","sourceId":"_dqRqRdNjD45eWTd1qdKZn4UWX3ahuXbzCXFqxNQ","sourceTagId":47003106,"sourceTagName":"塞琳/女包","rawTitle":"『Celine 赛琳』\n\n🔥爆款💯系列🔥升级版\nCELINE  AVA TRIOMPHE帆布手袋\n原版购入打版👍原版实拍图📷复古老花腋下包lisa同款牛皮半月包真皮 单肩女包豌豆包\n9 X 6 X 3英寸(23 X 14 X 7厘米)\n61%涂层帆布,39%小牛皮\n编号:193952BZJ.04LU"},"price":null,"currency":"CNY","moq":1,"category":"celine-women-bags","status":"active","alibaba_url":null,"images":["https://xcimg.szwego.com/20220419/i1650335365_8348_0.jpg","https://xcimg.szwego.com/20220419/i1650335365_4492_1.jpg","https://xcimg.szwego.com/20220419/i1650335365_13_2.jpg","https://xcimg.szwego.com/20220419/i1650335365_8278_3.jpg","https://xcimg.szwego.com/20220419/i1650335365_6775_4.jpg","https://xcimg.szwego.com/20220419/i1650335365_6359_5.jpg","https://xcimg.szwego.com/20220419/i1650335365_2239_6.jpg"],"created_at":"2025-02-08T12:47:15.822Z"},{"id":"item-e97d065ae649","sku":"_doOoOKQZ3X8OdSougU0tBU6nax2kwKRDlI18dlA","name_en":"『Celine 赛琳』","name_cn":"『Celine 赛琳』\n\nCelin* 款号:8001【刺绣系列】超喜欢!腋下包出刺绣系列啦!复古达人走起~对比老花是两种Feel,都爱~ 大火的腋下包搭配真的超百搭,腋下包包型复古又帅气又有点可爱 超级精致小巧♡\n一直以来超喜欢C E L I NE.这种性冷淡风,复古又时髦 这样很能装轻巧又好搭的中古包,大家喜欢吗?\n尺寸:25x14x7cm","specs":{"source":"wsxcme","sourceId":"_doOoOKQZ3X8OdSougU0tBU6nax2kwKRDlI18dlA","sourceTagId":47003106,"sourceTagName":"塞琳/女包","modelNumber":"8001【刺绣系列】超喜欢!腋下包出刺绣系列啦!复古达人走起~对比老花是两种Feel","dimensions":{"lengthCm":25,"heightCm":14,"widthCm":7},"rawTitle":"『Celine 赛琳』\n\nCelin* 款号:8001【刺绣系列】超喜欢!腋下包出刺绣系列啦!复古达人走起~对比老花是两种Feel,都爱~ 大火的腋下包搭配真的超百搭,腋下包包型复古又帅气又有点可爱 超级精致小巧♡\n一直以来超喜欢C E L I NE.这种性冷淡风,复古又时髦 这样很能装轻巧又好搭的中古包,大家喜欢吗?\n尺寸:25x14x7cm"},"price":null,"currency":"CNY","moq":1,"category":"celine-women-bags","status":"active","alibaba_url":null,"images":["https://xcimg.szwego.com/20220607/i1654579050_1648_0.jpg","https://xcimg.szwego.com/20220607/i1654579203_7179_1.jpg","https://xcimg.szwego.com/20220607/i1654579050_7029_5.jpg","https://xcimg.szwego.com/20220607/i1654579050_6061_4.jpg","https://xcimg.szwego.com/20220607/i1654579050_2642_6.jpg","https://xcimg.szwego.com/20220607/i1654579050_5600_2.jpg","https://xcimg.szwego.com/20220607/i1654579050_9641_7.jpg","https://xcimg.szwego.com/20220607/i1654579050_6286_3.jpg","https://xcimg.szwego.com/20220607/i1654579203_4482_0.jpg"],"created_at":"2025-02-08T12:47:00.859Z"},{"id":"item-e864b4c1a9f7","sku":"_drhrhd8iSQpuadjiU5RFC4NSfqW2hZ__XHlQZ2A","name_en":"『Celine 赛琳』","name_cn":"『Celine 赛琳』\n\n老花系列,CABAS TRIOMPHE🛍帆布小号竖款手袋\n65%涂层帆布,35%小牛皮,\n100%棉衬里,内侧拉链口袋,\n可调节可拆卸皮革肩带    \n尺寸28.5 X 33 X 8 \n型号:0250#","specs":{"source":"wsxcme","sourceId":"_drhrhd8iSQpuadjiU5RFC4NSfqW2hZ__XHlQZ2A","sourceTagId":47003106,"sourceTagName":"塞琳/女包","modelNumber":"0250#","rawTitle":"『Celine 赛琳』\n\n老花系列,CABAS TRIOMPHE🛍帆布小号竖款手袋\n65%涂层帆布,35%小牛皮,\n100%棉衬里,内侧拉链口袋,\n可调节可拆卸皮革肩带    \n尺寸28.5 X 33 X 8 \n型号:0250#"},"price":null,"currency":"CNY","moq":1,"category":"celine-women-bags","status":"active","alibaba_url":null,"images":["https://xcimg.szwego.com/20220403/i1648958973_4062_0.jpg","https://xcimg.szwego.com/20220403/i1648958973_5122_1.jpg","https://xcimg.szwego.com/20220403/i1648958973_4268_2.jpg","https://xcimg.szwego.com/20220403/i1648958973_6419_3.jpg","https://xcimg.szwego.com/20220403/i1648958973_8170_4.jpg","https://xcimg.szwego.com/20220403/i1648958973_9773_5.jpg","https://xcimg.szwego.com/20220403/i1648958973_3292_6.jpg","https://xcimg.szwego.com/20220403/i1648958973_338_7.jpg","https://xcimg.szwego.com/20220403/i1648958973_1051_8.jpg"],"created_at":"2025-02-08T12:47:15.816Z"},{"id":"item-e841f2a474ce","sku":"_dfNfNsD7WSRd6iRNTpjhljDQs65nR25NhE0DWeA","name_en":"『Celine 赛琳』","name_cn":"『Celine 赛琳』\n\n🔅CEL.INE 新品Tnne Soft 16 牛皮革手袋®️内里磨砂皮/可斜挎和肩背,旋转锁扣开合\n2个内侧隔层 内侧拉链口袋 一条可拆卸织物肩带长52厘米) 去除手腕后增添年轻与时尚感、很有Hedi叛逆街头风。\n尺寸:23 X 15 X 9cm\n款号:1158#","specs":{"source":"wsxcme","sourceId":"_dfNfNsD7WSRd6iRNTpjhljDQs65nR25NhE0DWeA","sourceTagId":47003106,"sourceTagName":"塞琳/女包","modelNumber":"1158#","dimensions":{"lengthCm":23,"heightCm":15,"widthCm":9},"rawTitle":"『Celine 赛琳』\n\n🔅CEL.INE 新品Tnne Soft 16 牛皮革手袋®️内里磨砂皮/可斜挎和肩背,旋转锁扣开合\n2个内侧隔层 内侧拉链口袋 一条可拆卸织物肩带长52厘米) 去除手腕后增添年轻与时尚感、很有Hedi叛逆街头风。\n尺寸:23 X 15 X 9cm\n款号:1158#"},"price":null,"currency":"CNY","moq":1,"category":"celine-women-bags","status":"active","alibaba_url":null,"images":["https://xcimg.szwego.com/20220412/i1649737539_2610_0.jpg","https://xcimg.szwego.com/20220412/i1649737539_9284_1.jpg","https://xcimg.szwego.com/20220412/i1649737539_3060_2.jpg","https://xcimg.szwego.com/20220412/i1649737539_5508_3.jpg","https://xcimg.szwego.com/20220412/i1649737539_6734_4.jpg","https://xcimg.szwego.com/20220412/i1649737539_7908_5.jpg","https://xcimg.szwego.com/20220412/i1649737539_4396_6.jpg","https://xcimg.szwego.com/20220412/i1649737539_2460_7.jpg","https://xcimg.szwego.com/20220412/i1649737539_9216_8.jpg"],"created_at":"2025-02-08T12:47:00.811Z"},{"id":"item-e71966cb616c","sku":"_dkNkNY0DZx3U13y51DP0QytmS8NWVvbUICiQfAQ","name_en":"『Celine 赛琳』","name_cn":"『Celine 赛琳』\n\nCELINE 2022春夏系列 \n新出短款链条凯旋门浮雕系列腋下包平纹小牛皮肩背包,牛皮,内侧扁平口袋,21cm\n尺寸:21 X 10 X 4cm\n2002","specs":{"source":"wsxcme","sourceId":"_dkNkNY0DZx3U13y51DP0QytmS8NWVvbUICiQfAQ","sourceTagId":47003106,"sourceTagName":"塞琳/女包","dimensions":{"lengthCm":21,"heightCm":10,"widthCm":4},"rawTitle":"『Celine 赛琳』\n\nCELINE 2022春夏系列 \n新出短款链条凯旋门浮雕系列腋下包平纹小牛皮肩背包,牛皮,内侧扁平口袋,21cm\n尺寸:21 X 10 X 4cm\n2002"},"price":null,"currency":"CNY","moq":1,"category":"celine-women-bags","status":"active","alibaba_url":null,"images":["https://xcimg.szwego.com/20220601/i1654059128_3499_0.jpg","https://xcimg.szwego.com/20220601/i1654059128_7647_1.jpg","https://xcimg.szwego.com/20220601/i1654059128_2761_2.jpg","https://xcimg.szwego.com/20220601/i1654059128_816_3.jpg","https://xcimg.szwego.com/20220601/i1654059128_641_4.jpg","https://xcimg.szwego.com/20220601/i1654059128_5638_5.jpg","https://xcimg.szwego.com/20220601/i1654059128_238_6.jpg","https://xcimg.szwego.com/20220601/i1654059128_4704_8.jpg","https://xcimg.szwego.com/20220601/i1654061677_8208_0.jpg"],"created_at":"2025-02-08T12:47:00.856Z"},{"id":"item-e1ab9d81ef91","sku":"_dvPvPNpV3Mgl_2aHk4tdNI7LFkRg6bRbij0wfEg","name_en":"『Celine 赛琳』","name_cn":"『Celine 赛琳』\n\n新款TRIOMPHE 2022春季横款CABAS 托特手袋百搭托特  经典凯旋老花系列 手提不挑人 博主明星极荐 小牛皮pvc 大包中的战斗机、耐刮、轻便、容量大、时髦精必备单品!\n尺寸: 40×14.5×30\n款号: 1189#","specs":{"source":"wsxcme","sourceId":"_dvPvPNpV3Mgl_2aHk4tdNI7LFkRg6bRbij0wfEg","sourceTagId":47003106,"sourceTagName":"塞琳/女包","modelNumber":"1189#","rawTitle":"『Celine 赛琳』\n\n新款TRIOMPHE 2022春季横款CABAS 托特手袋百搭托特  经典凯旋老花系列 手提不挑人 博主明星极荐 小牛皮pvc 大包中的战斗机、耐刮、轻便、容量大、时髦精必备单品!\n尺寸: 40×14.5×30\n款号: 1189#"},"price":null,"currency":"CNY","moq":1,"category":"celine-women-bags","status":"active","alibaba_url":null,"images":["https://xcimg.szwego.com/20220421/i1650515290_2071_0.jpg","https://xcimg.szwego.com/20220421/i1650515290_1555_1.jpg","https://xcimg.szwego.com/20220421/i1650515290_228_2.jpg","https://xcimg.szwego.com/20220421/i1650515290_4723_3.jpg","https://xcimg.szwego.com/20220421/i1650515290_1140_4.jpg","https://xcimg.szwego.com/20220421/i1650515290_2822_5.jpg","https://xcimg.szwego.com/20220421/i1650515290_4612_6.jpg","https://xcimg.szwego.com/20220421/i1650515290_7782_7.jpg","https://xcimg.szwego.com/20220421/i1650515290_4268_8.jpg"],"created_at":"2025-02-08T12:47:15.814Z"},{"id":"item-e182eaeca5fe","sku":"_dlxlxDFvFOInRjI3-WqMZ5qLogc78Rg8U0GhybA","name_en":"『Celine 赛琳』","name_cn":"『Celine 赛琳』\n\n【咖啡色】\n\nCelin* BESACE  凯旋门肩背包▪️\n小巧精致的设计,方正复古的造型,优雅中带点随性,浪漫又带点慵懒气质  经典复古全皮设计一如既往百搭,双C锁扣triomphe让Celine⃝的狂热粉疯狂打Call !简洁利落的包身线条,真的超奶思 气场全开 简直不要太吸精!肩背包纖薄而圓潤,採用柔滑小牛皮打造,日常休逛街或通勤都非常適合\n尺寸: 宽18cmx高16cmx底部6cm","specs":{"source":"wsxcme","sourceId":"_dlxlxDFvFOInRjI3-WqMZ5qLogc78Rg8U0GhybA","sourceTagId":47003106,"sourceTagName":"塞琳/女包","rawTitle":"『Celine 赛琳』\n\n【咖啡色】\n\nCelin* BESACE  凯旋门肩背包▪️\n小巧精致的设计,方正复古的造型,优雅中带点随性,浪漫又带点慵懒气质  经典复古全皮设计一如既往百搭,双C锁扣triomphe让Celine⃝的狂热粉疯狂打Call !简洁利落的包身线条,真的超奶思 气场全开 简直不要太吸精!肩背包纖薄而圓潤,採用柔滑小牛皮打造,日常休逛街或通勤都非常適合\n尺寸: 宽18cmx高16cmx底部6cm"},"price":null,"currency":"CNY","moq":1,"category":"celine-women-bags","status":"active","alibaba_url":null,"images":["https://xcimg.szwego.com/20220628/i1656402731_2393_0.jpg","https://xcimg.szwego.com/20220628/i1656402731_2941_1.jpg","https://xcimg.szwego.com/20220628/i1656402731_4032_2.jpg","https://xcimg.szwego.com/20220628/i1656402731_5720_3.jpg","https://xcimg.szwego.com/20220628/i1656402731_7175_4.jpg","https://xcimg.szwego.com/20220628/i1656402731_6166_5.jpg"],"created_at":"2025-02-08T12:47:15.852Z"}],"page":1,"pageSize":24,"total":582,"totalPages":25}
