{"items":[{"id":"item-21e53442c7d0","sku":"_dijijnR4dqDJpP91CnkGp8eJIZYdJUIrTF3dPew","name_en":"TEEN LULU柔软粒面牛皮革手袋","name_cn":"TEEN LULU柔软粒面牛皮革手袋\n顶级\n可手提、肩背和斜挎\n本款型可装下PLUS等较大的智能手机机型\n牛皮革\n牛皮绒面革衬里\n金色饰面\n1个主隔层\n可调节提手,长度4.72英寸(12厘米)\n可调节和可拆卸肩带,最小长度20英寸(51厘米),最大长度24英寸(60厘米)\n尺寸:8.3 X 9.4 X 2英寸(21 X 24 X 5厘米)\n编号:120723","specs":{"source":"wsxcme","sourceId":"_dijijnR4dqDJpP91CnkGp8eJIZYdJUIrTF3dPew","sourceTagId":47003106,"sourceTagName":"塞琳/女包","rawTitle":"TEEN LULU柔软粒面牛皮革手袋\n顶级\n可手提、肩背和斜挎\n本款型可装下PLUS等较大的智能手机机型\n牛皮革\n牛皮绒面革衬里\n金色饰面\n1个主隔层\n可调节提手,长度4.72英寸(12厘米)\n可调节和可拆卸肩带,最小长度20英寸(51厘米),最大长度24英寸(60厘米)\n尺寸:8.3 X 9.4 X 2英寸(21 X 24 X 5厘米)\n编号:120723"},"price":null,"currency":"CNY","moq":1,"category":"celine-women-bags","status":"active","alibaba_url":null,"images":["https://xcimg.szwego.com/img/8de223b9/20250417/i1744874019136_8183_0_0.jpg","https://xcimg.szwego.com/img/8de223b9/20250417/i1744874020621_5327_0_1.jpg","https://xcimg.szwego.com/img/8de223b9/20250417/i1744874020612_6500_0_2.jpg","https://xcimg.szwego.com/img/8de223b9/20250417/i1744874019136_9931_0_3.jpg","https://xcimg.szwego.com/img/8de223b9/20250417/i1744874019133_8974_0_4.jpg","https://xcimg.szwego.com/img/8de223b9/20250417/i1744874019136_4101_0_5.jpg","https://xcimg.szwego.com/img/8de223b9/20250417/i1744874020618_1229_0_6.jpg","https://xcimg.szwego.com/img/8de223b9/20250417/i1744874019136_5719_0_7.jpg","https://xcimg.szwego.com/img/8de223b9/20250417/i1744874020613_5358_0_8.jpg"],"created_at":"2026-06-29T11:25:41.601Z"},{"id":"item-ca63c8fcb944","sku":"_dq9q9cQl43CW1DZhsLnd77rPF_gflak6Mto3j3w","name_en":"TRIOMPHE FOLIO中号手袋💯全钢五金!!️","name_cn":"TRIOMPHE FOLIO中号手袋💯全钢五金!!️\n牛皮革\n羊皮革衬里\n金色饰面\n肩背和手提\n2个主隔层\n1个内侧拉链袋\n1个内侧扁平口袋\n可拆卸和可调节肩带,最小长度(23厘米),最大长度(34厘米)\n提手,长度(2厘米)\n尺寸(25.5 X 14 X 7.5厘米)\n编号:L102U3","specs":{"source":"wsxcme","sourceId":"_dq9q9cQl43CW1DZhsLnd77rPF_gflak6Mto3j3w","sourceTagId":47003106,"sourceTagName":"塞琳/女包","rawTitle":"TRIOMPHE FOLIO中号手袋💯全钢五金!!️\n牛皮革\n羊皮革衬里\n金色饰面\n肩背和手提\n2个主隔层\n1个内侧拉链袋\n1个内侧扁平口袋\n可拆卸和可调节肩带,最小长度(23厘米),最大长度(34厘米)\n提手,长度(2厘米)\n尺寸(25.5 X 14 X 7.5厘米)\n编号:L102U3"},"price":null,"currency":"CNY","moq":1,"category":"celine-women-bags","status":"active","alibaba_url":null,"images":["https://xcimg.szwego.com/img/34b30588/20260417/i1776403545_1112_8.jpg","https://xcimg.szwego.com/img/34b30588/20260417/i1776403545_5104_0.jpg","https://xcimg.szwego.com/img/34b30588/20260417/i1776403545_7179_2.jpg","https://xcimg.szwego.com/img/34b30588/20260417/i1776403545_7482_1.jpg","https://xcimg.szwego.com/img/34b30588/20260417/i1776403545_785_7.jpg","https://xcimg.szwego.com/img/34b30588/20260417/i1776403545_6858_5.jpg","https://xcimg.szwego.com/img/34b30588/20260417/i1776403545_618_4.jpg","https://xcimg.szwego.com/img/34b30588/20260417/i1776403545_847_6.jpg","https://xcimg.szwego.com/img/34b30588/20260417/i1776403545_7894_3.jpg"],"created_at":"2026-06-29T11:25:41.671Z"},{"id":"item-634a10076b3e","sku":"_d9090veBAyel7zPzhvq64OiuJH18FqbsYP5WSNQ","name_en":"TRIOMPHE FRAME小号标志印花手袋4.9 X 4.9 X 4.9英寸(12.5 X 12.5 X 12.5厘米)","name_cn":"TRIOMPHE FRAME小号标志印花手袋4.9 X 4.9 X 4.9英寸(12.5 X 12.5 X 12.5厘米)\n标志印花,天然牛皮革包边\n羊皮革衬里\n金色饰面\n手提、手挽、肩背\nTRIOMPHE金属质感锁扣\n1个主隔层\n1个内侧梳妆镜\n可调节肩带,最小长度6.69英寸(17厘米),最大长度12.2英寸(31厘米)\n编号:124232 (配原版包装)","specs":{"source":"wsxcme","sourceId":"_d9090veBAyel7zPzhvq64OiuJH18FqbsYP5WSNQ","sourceTagId":47003106,"sourceTagName":"塞琳/女包","rawTitle":"TRIOMPHE FRAME小号标志印花手袋4.9 X 4.9 X 4.9英寸(12.5 X 12.5 X 12.5厘米)\n标志印花,天然牛皮革包边\n羊皮革衬里\n金色饰面\n手提、手挽、肩背\nTRIOMPHE金属质感锁扣\n1个主隔层\n1个内侧梳妆镜\n可调节肩带,最小长度6.69英寸(17厘米),最大长度12.2英寸(31厘米)\n编号:124232 (配原版包装)"},"price":null,"currency":"CNY","moq":1,"category":"celine-women-bags","status":"active","alibaba_url":null,"images":["https://xcimg.szwego.com/img/77bdff09/20260430/i1777515172063_7785_0_0.jpg","https://xcimg.szwego.com/img/77bdff09/20260430/i1777515172083_34_0_1.jpg","https://xcimg.szwego.com/img/77bdff09/20260430/i1777515170726_1754_0_2.jpg","https://xcimg.szwego.com/img/77bdff09/20260430/i1777515170726_1547_0_3.jpg","https://xcimg.szwego.com/img/77bdff09/20260430/i1777515170726_2439_0_4.jpg","https://xcimg.szwego.com/img/77bdff09/20260430/i1777515170726_7907_0_5.jpg","https://xcimg.szwego.com/img/77bdff09/20260430/i1777515170726_4869_0_6.jpg"],"created_at":"2026-05-20T03:16:24.516Z"},{"id":"item-5ec70ea3cecc","sku":"_dN1N18G9iFjJYdYfnalkQA98ZrRn5S9DapCNnWg","name_en":"TRIOMPHE FRAME小号标志印花手袋4.9 X 4.9 X 4.9英寸(12.5 X 12.5 X 12.5厘米)","name_cn":"TRIOMPHE FRAME小号标志印花手袋4.9 X 4.9 X 4.9英寸(12.5 X 12.5 X 12.5厘米)\n标志印花,天然牛皮革包边\n羊皮革衬里\n金色饰面\n手提、手挽、肩背\nTRIOMPHE金属质感锁扣\n1个主隔层\n1个内侧梳妆镜\n可调节肩带,最小长度6.69英寸(17厘米),最大长度12.2英寸(31厘米)\n编号:124232 (配原版包装)","specs":{"source":"wsxcme","sourceId":"_dN1N18G9iFjJYdYfnalkQA98ZrRn5S9DapCNnWg","sourceTagId":47003106,"sourceTagName":"塞琳/女包","rawTitle":"TRIOMPHE FRAME小号标志印花手袋4.9 X 4.9 X 4.9英寸(12.5 X 12.5 X 12.5厘米)\n标志印花,天然牛皮革包边\n羊皮革衬里\n金色饰面\n手提、手挽、肩背\nTRIOMPHE金属质感锁扣\n1个主隔层\n1个内侧梳妆镜\n可调节肩带,最小长度6.69英寸(17厘米),最大长度12.2英寸(31厘米)\n编号:124232 (配原版包装)"},"price":null,"currency":"CNY","moq":1,"category":"celine-women-bags","status":"active","alibaba_url":null,"images":["https://xcimg.szwego.com/img/1a8dcad8/20260117/i1768652317784_3043_0_0.jpg","https://xcimg.szwego.com/img/1a8dcad8/20260117/i1768652317682_6277_0_1.jpg","https://xcimg.szwego.com/img/1a8dcad8/20260117/i1768652318801_6933_0_2.jpg","https://xcimg.szwego.com/img/1a8dcad8/20260117/i1768652317787_2533_0_3.jpg","https://xcimg.szwego.com/img/1a8dcad8/20260117/i1768652318736_5885_0_4.jpg","https://xcimg.szwego.com/img/1a8dcad8/20260117/i1768652317773_7605_0_5.jpg","https://xcimg.szwego.com/img/1a8dcad8/20260117/i1768652317834_6914_0_6.jpg","https://xcimg.szwego.com/img/1a8dcad8/20260117/i1768652318774_6822_0_7.jpg","https://xcimg.szwego.com/img/1a8dcad8/20260117/i1768652318830_5002_0_8.jpg"],"created_at":"2026-05-20T03:16:24.536Z"},{"id":"item-2f58d04f0914","sku":"_ddmdm_LkZMhjbX3HER3Y8B_Lk4BBGL51i1aV5Sg","name_en":"TRIOMPHE FRAME小号标志印花手袋4.9 X 4.9 X 4.9英寸(12.5 X 12.5 X 12.5厘米)","name_cn":"TRIOMPHE FRAME小号标志印花手袋4.9 X 4.9 X 4.9英寸(12.5 X 12.5 X 12.5厘米)\n标志印花,天然牛皮革包边\n羊皮革衬里\n金色饰面\n手提、手挽、肩背\nTRIOMPHE金属质感锁扣\n1个主隔层\n1个内侧梳妆镜\n可调节肩带,最小长度6.69英寸(17厘米),最大长度12.2英寸(31厘米)\n编号:124232 (配原版包装)","specs":{"source":"wsxcme","sourceId":"_ddmdm_LkZMhjbX3HER3Y8B_Lk4BBGL51i1aV5Sg","sourceTagId":47003106,"sourceTagName":"塞琳/女包","rawTitle":"TRIOMPHE FRAME小号标志印花手袋4.9 X 4.9 X 4.9英寸(12.5 X 12.5 X 12.5厘米)\n标志印花,天然牛皮革包边\n羊皮革衬里\n金色饰面\n手提、手挽、肩背\nTRIOMPHE金属质感锁扣\n1个主隔层\n1个内侧梳妆镜\n可调节肩带,最小长度6.69英寸(17厘米),最大长度12.2英寸(31厘米)\n编号:124232 (配原版包装)"},"price":null,"currency":"CNY","moq":1,"category":"celine-women-bags","status":"active","alibaba_url":null,"images":["https://xcimg.szwego.com/img/1a8dcad8/20260117/i1768652156887_7602_0_0.jpg","https://xcimg.szwego.com/img/1a8dcad8/20260117/i1768652155648_8955_0_1.jpg","https://xcimg.szwego.com/img/1a8dcad8/20260117/i1768652155648_5166_0_2.jpg","https://xcimg.szwego.com/img/1a8dcad8/20260117/i1768652155648_7889_0_3.jpg","https://xcimg.szwego.com/img/1a8dcad8/20260117/i1768652155648_543_0_4.jpg","https://xcimg.szwego.com/img/1a8dcad8/20260117/i1768652156870_3855_0_5.jpg","https://xcimg.szwego.com/img/1a8dcad8/20260117/i1768652155675_1569_0_6.jpg","https://xcimg.szwego.com/img/1a8dcad8/20260117/i1768652156956_1758_0_7.jpg"],"created_at":"2026-05-20T03:16:24.526Z"},{"id":"item-e2490a7bdf9c","sku":"_dp6p6IJofG_BMpQFxNqFT5rO4FjXZMMFSknjDXQ","name_en":"TRIOMPHE又新添一新款🆕腋下包💋它是一款最百搭💯且最耐看的包包✨彩用亮面手搓纹牛皮🅰️真的特别耐看!特别百搭!而且很耐造!不用小心护着!","name_cn":"TRIOMPHE又新添一新款🆕腋下包💋它是一款最百搭💯且最耐看的包包✨彩用亮面手搓纹牛皮🅰️真的特别耐看!特别百搭!而且很耐造!不用小心护着!\n尺寸:24X11X8cm\n型号:120553","specs":{"source":"wsxcme","sourceId":"_dp6p6IJofG_BMpQFxNqFT5rO4FjXZMMFSknjDXQ","sourceTagId":47003106,"sourceTagName":"塞琳/女包","modelNumber":"120553","dimensions":{"lengthCm":24,"heightCm":11,"widthCm":8},"rawTitle":"TRIOMPHE又新添一新款🆕腋下包💋它是一款最百搭💯且最耐看的包包✨彩用亮面手搓纹牛皮🅰️真的特别耐看!特别百搭!而且很耐造!不用小心护着!\n尺寸:24X11X8cm\n型号:120553"},"price":null,"currency":"CNY","moq":1,"category":"celine-women-bags","status":"active","alibaba_url":null,"images":["https://xcimg.szwego.com/img/34b30588/20250424/i1745431585_7205_4.jpg","https://xcimg.szwego.com/img/34b30588/20250424/i1745431585_75_6.jpg","https://xcimg.szwego.com/img/34b30588/20250424/i1745431585_1739_9.jpg","https://xcimg.szwego.com/img/34b30588/20250424/i1745431585_7828_0.jpg","https://xcimg.szwego.com/img/34b30588/20250424/i1745431585_8222_1.jpg","https://xcimg.szwego.com/img/34b30588/20250424/i1745431585_5918_8.jpg","https://xcimg.szwego.com/img/34b30588/20250424/i1745431585_8512_7.jpg","https://xcimg.szwego.com/img/34b30588/20250424/i1745431585_1328_5.jpg","https://xcimg.szwego.com/img/34b30588/20250424/i1745431585_6439_2.jpg","https://xcimg.szwego.com/img/34b30588/20250424/i1745431585_8760_3.jpg"],"created_at":"2026-06-29T11:25:41.461Z"}],"page":25,"pageSize":24,"total":582,"totalPages":25}
