{"items":[{"id":"item-d8ab869177a1","sku":"_deHeH2u_drc5etyRETgJCCBdpCSPq3Uqi2BqcPA","name_en":"ohanel 22p 隐藏款 19bag so black全黑","name_cn":"ohanel 22p 隐藏款 19bag so black全黑\n\n阻止不了心动🖤一眼万年的19bag so black\n\n全黑五金设计→ 超级无敌酷!简直是飒飒女孩儿必备😘\n\n这款包简直是小香一切经典元素的结合,小香迷菱格纹、皮链袋、双C标志,一眼钟情!💘\n\n皮质摸起来软软的很舒服 喜翻~尺寸26cm","specs":{"source":"wsxcme","sourceId":"_deHeH2u_drc5etyRETgJCCBdpCSPq3Uqi2BqcPA","sourceTagId":47002745,"sourceTagName":"香奈儿/女包","rawTitle":"ohanel 22p 隐藏款 19bag so black全黑\n\n阻止不了心动🖤一眼万年的19bag so black\n\n全黑五金设计→ 超级无敌酷!简直是飒飒女孩儿必备😘\n\n这款包简直是小香一切经典元素的结合,小香迷菱格纹、皮链袋、双C标志,一眼钟情!💘\n\n皮质摸起来软软的很舒服 喜翻~尺寸26cm"},"price":null,"currency":"CNY","moq":1,"category":"chanel-women-bags","status":"active","alibaba_url":null,"images":["https://xcimg.szwego.com/20220515/i1652588249_6814_0.jpg","https://xcimg.szwego.com/20220515/i1652588249_5868_1.jpg","https://xcimg.szwego.com/20220515/i1652588249_8048_2.jpg","https://xcimg.szwego.com/20220515/i1652588249_163_3.jpg","https://xcimg.szwego.com/20220515/i1652588249_1793_4.jpg","https://xcimg.szwego.com/20220515/i1652588249_257_5.jpg","https://xcimg.szwego.com/20220515/i1652588249_1762_6.jpg","https://xcimg.szwego.com/20220515/i1652588249_2614_7.jpg","https://xcimg.szwego.com/20220515/i1652588249_1346_8.jpg"],"created_at":"2024-05-01T03:19:54.454Z"},{"id":"item-1b421e38504f","sku":"_djJjJhgXLMKUtA39P2SNgiQBoeDGNASY5i02aMw","name_en":"2022c早春系列   黑色银扣","name_cn":"2022c早春系列   黑色银扣\n\n最新推出〰️经典19黑色砂银扣\n\n低调暗带满满的高级复古感\n\n黑色回归 新色五金特别好看直击我心♥\n\n成为当季最经典的潮范儿〰️\n\n三种背法:单肩、斜挎、手提\n\n链条拼接:砂银、古金、浅金\n\n小号Size:16*26*9cm","specs":{"source":"wsxcme","sourceId":"_djJjJhgXLMKUtA39P2SNgiQBoeDGNASY5i02aMw","sourceTagId":47002745,"sourceTagName":"香奈儿/女包","rawTitle":"2022c早春系列   黑色银扣\n\n最新推出〰️经典19黑色砂银扣\n\n低调暗带满满的高级复古感\n\n黑色回归 新色五金特别好看直击我心♥\n\n成为当季最经典的潮范儿〰️\n\n三种背法:单肩、斜挎、手提\n\n链条拼接:砂银、古金、浅金\n\n小号Size:16*26*9cm"},"price":null,"currency":"CNY","moq":1,"category":"chanel-women-bags","status":"active","alibaba_url":null,"images":["https://xcimg.szwego.com/20211217/i1639707120_350_0.jpg","https://xcimg.szwego.com/20211217/i1639707120_4916_1.jpg","https://xcimg.szwego.com/20211217/i1639707120_5105_2.jpg","https://xcimg.szwego.com/20211217/i1639707120_9927_3.jpg","https://xcimg.szwego.com/20211217/i1639707120_3177_4.jpg","https://xcimg.szwego.com/20211217/i1639707120_5953_5.jpg","https://xcimg.szwego.com/20211217/i1639707120_8849_6.jpg","https://xcimg.szwego.com/20211217/i1639707120_2637_7.jpg","https://xcimg.szwego.com/20211217/i1639707120_7183_8.jpg"],"created_at":"2024-05-01T03:19:54.453Z"},{"id":"item-dbd3833d8023","sku":"_dKvKvMVJZ8EFMhXBxYZCpW7-TrsWPDthx0vbscA","name_en":"升级版带芯片五金~杏色回货❤️Ohanel 19手袋","name_cn":"升级版带芯片五金~杏色回货❤️Ohanel 19手袋\n\n作为香奈儿的重要数字,“19”沿用里了品牌经典的命名方式,代表其所诞生的年份是2019,一如香奈儿女士于1955年2月推出的2.55手袋❗️\n\n 口盖包 小号 杏色ZP皮 全面出货!!\n\n轻盈绵柔质感羊皮结合大菱格设计元素\n三种背法:斜挎、单肩、手提\n链条拼接:古金、古银、亮银\n小号尺寸:16x26x9cm(图为)","specs":{"source":"wsxcme","sourceId":"_dKvKvMVJZ8EFMhXBxYZCpW7-TrsWPDthx0vbscA","sourceTagId":47002745,"sourceTagName":"香奈儿/女包","dimensions":{"lengthCm":16,"heightCm":26,"widthCm":9},"rawTitle":"升级版带芯片五金~杏色回货❤️Ohanel 19手袋\n\n作为香奈儿的重要数字,“19”沿用里了品牌经典的命名方式,代表其所诞生的年份是2019,一如香奈儿女士于1955年2月推出的2.55手袋❗️\n\n 口盖包 小号 杏色ZP皮 全面出货!!\n\n轻盈绵柔质感羊皮结合大菱格设计元素\n三种背法:斜挎、单肩、手提\n链条拼接:古金、古银、亮银\n小号尺寸:16x26x9cm(图为)"},"price":null,"currency":"CNY","moq":1,"category":"chanel-women-bags","status":"active","alibaba_url":null,"images":["https://xcimg.szwego.com/20220410/i1649559248_9231_0.jpg","https://xcimg.szwego.com/20220410/i1649559248_1468_1.jpg","https://xcimg.szwego.com/20220410/i1649559248_5909_2.jpg","https://xcimg.szwego.com/20220410/i1649559248_2248_3.jpg","https://xcimg.szwego.com/20220410/i1649559248_2422_4.jpg","https://xcimg.szwego.com/20220410/i1649559248_8908_5.jpg","https://xcimg.szwego.com/20220410/i1649559248_2918_6.jpg","https://xcimg.szwego.com/20220410/i1649559248_8809_7.jpg","https://xcimg.szwego.com/20220410/i1649559248_7066_8.jpg"],"created_at":"2024-05-01T03:19:54.452Z"},{"id":"item-811c18abe328","sku":"_dpjpjXvlj73HL_Ay_XsHz400J8kQngrUslQFu4A","name_en":"CHANEL 22手袋","name_cn":"CHANEL 22手袋 \n中号 奶白色💕\n\n亮面牛皮上手顺滑 有清晰的皮质褶皱纹理\n做旧金属 、立体 Logo 、经典的黑金配色!\n顶部抽绳双链设计用双 C Logo 连接下半段单链,底部左右各一个小耳朵用 Logo “铆钉”固定单链尾端,内里有 一个拉链隔层 一条钥匙链 方便挂钥匙等小物件...将简约舒适融为一体,为你打包整个春日🍃\n\n尺寸:39*42*8cm","specs":{"source":"wsxcme","sourceId":"_dpjpjXvlj73HL_Ay_XsHz400J8kQngrUslQFu4A","sourceTagId":47002745,"sourceTagName":"香奈儿/女包","dimensions":{"lengthCm":39,"heightCm":42,"widthCm":8},"rawTitle":"CHANEL 22手袋 \n中号 奶白色💕\n\n亮面牛皮上手顺滑 有清晰的皮质褶皱纹理\n做旧金属 、立体 Logo 、经典的黑金配色!\n顶部抽绳双链设计用双 C Logo 连接下半段单链,底部左右各一个小耳朵用 Logo “铆钉”固定单链尾端,内里有 一个拉链隔层 一条钥匙链 方便挂钥匙等小物件...将简约舒适融为一体,为你打包整个春日🍃\n\n尺寸:39*42*8cm"},"price":null,"currency":"CNY","moq":1,"category":"chanel-women-bags","status":"active","alibaba_url":null,"images":["https://xcimg.szwego.com/20230508/i1683530587_3721_0.jpg","https://xcimg.szwego.com/20230508/i1683530587_5926_1.jpg","https://xcimg.szwego.com/20230508/i1683530587_5550_2.jpg","https://xcimg.szwego.com/20230508/i1683530587_8097_3.jpg","https://xcimg.szwego.com/20230508/i1683530587_8021_4.jpg","https://xcimg.szwego.com/20230508/i1683530587_4289_5.jpg"],"created_at":"2024-05-01T03:19:54.451Z"},{"id":"item-f9d7094622a3","sku":"_dkxkxOomPcr8jFF46i5tM_6Ub_mjIrZElmqvWTQ","name_en":"CHANEL 22手袋","name_cn":"CHANEL 22手袋 \n中号橄榄绿\n\n 真正的纯A 《白标》一级小牛皮👍\n皮质细腻有光泽,既柔软又耐磨,两者兼具\n简简单单的外观却藏着不少设计师的高级设计,镂空的chanel logo的金币,小小的点缀让整体气质提高了不止一个Level,满满的复古情怀,松松垮垮的慵懒感! 🍃\n\n尺寸:39*42*8cm","specs":{"source":"wsxcme","sourceId":"_dkxkxOomPcr8jFF46i5tM_6Ub_mjIrZElmqvWTQ","sourceTagId":47002745,"sourceTagName":"香奈儿/女包","dimensions":{"lengthCm":39,"heightCm":42,"widthCm":8},"rawTitle":"CHANEL 22手袋 \n中号橄榄绿\n\n 真正的纯A 《白标》一级小牛皮👍\n皮质细腻有光泽,既柔软又耐磨,两者兼具\n简简单单的外观却藏着不少设计师的高级设计,镂空的chanel logo的金币,小小的点缀让整体气质提高了不止一个Level,满满的复古情怀,松松垮垮的慵懒感! 🍃\n\n尺寸:39*42*8cm"},"price":null,"currency":"CNY","moq":1,"category":"chanel-women-bags","status":"active","alibaba_url":null,"images":["https://xcimg.szwego.com/20230508/i1683528820_470_0.jpg","https://xcimg.szwego.com/20230508/i1683528820_5401_1.jpg","https://xcimg.szwego.com/20230508/i1683528820_3195_2.jpg","https://xcimg.szwego.com/20230508/i1683528820_766_3.jpg"],"created_at":"2024-05-01T03:19:54.450Z"},{"id":"item-4edf7d691052","sku":"_d_L_L2tOwcIH0YCyaFRWpv0iGekuO4EYIierCmw","name_en":"CHANEL 22手袋","name_cn":"CHANEL 22手袋 \n小号白色金扣➿\n\n 真正的纯A 一级小牛皮👍\n皮质既柔软又耐磨,两者兼具\n简简单单的外观却藏着不少设计师的高级设计,镂空的chanel logo的金币,小小的点缀让整体气质提高了不止一个Level,满满的复古情怀,松松垮垮的慵懒感! 🍃\n\n尺寸:35×37×7cm","specs":{"source":"wsxcme","sourceId":"_d_L_L2tOwcIH0YCyaFRWpv0iGekuO4EYIierCmw","sourceTagId":47002745,"sourceTagName":"香奈儿/女包","dimensions":{"lengthCm":35,"heightCm":37,"widthCm":7},"rawTitle":"CHANEL 22手袋 \n小号白色金扣➿\n\n 真正的纯A 一级小牛皮👍\n皮质既柔软又耐磨,两者兼具\n简简单单的外观却藏着不少设计师的高级设计,镂空的chanel logo的金币,小小的点缀让整体气质提高了不止一个Level,满满的复古情怀,松松垮垮的慵懒感! 🍃\n\n尺寸:35×37×7cm"},"price":null,"currency":"CNY","moq":1,"category":"chanel-women-bags","status":"active","alibaba_url":null,"images":["https://xcimg.szwego.com/20230507/i1683434037_3093_0.jpg","https://xcimg.szwego.com/20230507/i1683434037_1134_1.jpg","https://xcimg.szwego.com/20230507/i1683434037_7886_2.jpg","https://xcimg.szwego.com/20230507/i1683434037_8056_3.jpg","https://xcimg.szwego.com/20230507/i1683434037_5979_4.jpg","https://xcimg.szwego.com/20230507/i1683434037_3564_5.jpg","https://xcimg.szwego.com/20230507/i1683434037_6021_6.jpg","https://xcimg.szwego.com/20230507/i1683434037_3987_7.jpg","https://xcimg.szwego.com/20230507/i1683434037_7315_8.jpg"],"created_at":"2024-05-01T03:19:54.449Z"},{"id":"item-dd7263d3ace6","sku":"_dbpbpsbzWohF7Zc5h5yXkvvwAK0VIE1rSGCMcVw","name_en":"Chanel Women Bags","name_cn":"22手袋 \n新颜色小号焦糖\n\n 原厂方框小牛皮👍皮质细腻有光泽,\n既柔软又耐磨,两者兼具\n简简单单的外观却藏着不少设计师的高级设计,镂空的chanel logo的金币,小小的点缀让整体气质提高了不止一个Level,满满的复古情怀,松松垮垮的慵懒感! 🍃\n\n尺寸:35*37*7cm","specs":{"source":"wsxcme","sourceId":"_dbpbpsbzWohF7Zc5h5yXkvvwAK0VIE1rSGCMcVw","sourceTagId":47002745,"sourceTagName":"香奈儿/女包","dimensions":{"lengthCm":35,"heightCm":37,"widthCm":7},"rawTitle":"22手袋 \n新颜色小号焦糖\n\n 原厂方框小牛皮👍皮质细腻有光泽,\n既柔软又耐磨,两者兼具\n简简单单的外观却藏着不少设计师的高级设计,镂空的chanel logo的金币,小小的点缀让整体气质提高了不止一个Level,满满的复古情怀,松松垮垮的慵懒感! 🍃\n\n尺寸:35*37*7cm"},"price":null,"currency":"CNY","moq":1,"category":"chanel-women-bags","status":"active","alibaba_url":null,"images":["https://xcimg.szwego.com/img/e8531d32/20240226/i1708934187_6130_7.jpg","https://xcimg.szwego.com/img/e8531d32/20240226/i1708934186_9691_3.jpg","https://xcimg.szwego.com/img/e8531d32/20240226/i1708934187_1726_6.jpg","https://xcimg.szwego.com/img/e8531d32/20240226/i1708934186_6210_2.jpg","https://xcimg.szwego.com/img/e8531d32/20240226/i1708934187_9059_8.jpg","https://xcimg.szwego.com/img/e8531d32/20240226/i1708934186_6934_0.jpg","https://xcimg.szwego.com/img/e8531d32/20240226/i1708934187_3215_4.jpg","https://xcimg.szwego.com/img/e8531d32/20240226/i1708934187_5137_5.jpg","https://xcimg.szwego.com/img/e8531d32/20240226/i1708934186_7049_1.jpg"],"created_at":"2024-05-01T03:19:54.448Z"},{"id":"item-f929fd8968a1","sku":"_dcycyvGKWndmJLuGtYKKjPP-QVa3nGXx1qpIpPA","name_en":"Chanel Women Bags","name_cn":"22手袋 小号灰金\n\n 原厂方框一级小牛皮👍皮质细腻有光泽,\n既柔软又耐磨,两者兼具\n简简单单的外观却藏着不少设计师的高级设计,镂空的chanel logo的金币,小小的点缀让整体气质提高了不止一个Level,满满的复古情怀,松松垮垮的慵懒感! 🍃\n\n尺寸:395*37*7cm","specs":{"source":"wsxcme","sourceId":"_dcycyvGKWndmJLuGtYKKjPP-QVa3nGXx1qpIpPA","sourceTagId":47002745,"sourceTagName":"香奈儿/女包","dimensions":{"lengthCm":395,"heightCm":37,"widthCm":7},"rawTitle":"22手袋 小号灰金\n\n 原厂方框一级小牛皮👍皮质细腻有光泽,\n既柔软又耐磨,两者兼具\n简简单单的外观却藏着不少设计师的高级设计,镂空的chanel logo的金币,小小的点缀让整体气质提高了不止一个Level,满满的复古情怀,松松垮垮的慵懒感! 🍃\n\n尺寸:395*37*7cm"},"price":null,"currency":"CNY","moq":1,"category":"chanel-women-bags","status":"active","alibaba_url":null,"images":["https://xcimg.szwego.com/img/e8531d32/20240226/i1708932455_3756_2.jpg","https://xcimg.szwego.com/img/e8531d32/20240226/i1708932455_1213_3.jpg","https://xcimg.szwego.com/img/e8531d32/20240226/i1708932455_792_0.jpg","https://xcimg.szwego.com/img/e8531d32/20240226/i1708932455_6639_1.jpg"],"created_at":"2024-05-01T03:19:54.447Z"},{"id":"item-e1d3c2a22e77","sku":"_dizizZseY8cZdIxdIqQ4EHDB1qD7yHD1X8uBnFg","name_en":"Chanel Women Bags","name_cn":"22手袋 中号粉配银\n\n 原厂方框一级小牛皮👍皮质细腻有光泽,\n既柔软又耐磨,两者兼具\n简简单单的外观却藏着不少设计师的高级设计,镂空的chanel logo的金币,小小的点缀让整体气质提高了不止一个Level,满满的复古情怀,松松垮垮的慵懒感! 🍃\n\n尺寸:39*42*8cm","specs":{"source":"wsxcme","sourceId":"_dizizZseY8cZdIxdIqQ4EHDB1qD7yHD1X8uBnFg","sourceTagId":47002745,"sourceTagName":"香奈儿/女包","dimensions":{"lengthCm":39,"heightCm":42,"widthCm":8},"rawTitle":"22手袋 中号粉配银\n\n 原厂方框一级小牛皮👍皮质细腻有光泽,\n既柔软又耐磨,两者兼具\n简简单单的外观却藏着不少设计师的高级设计,镂空的chanel logo的金币,小小的点缀让整体气质提高了不止一个Level,满满的复古情怀,松松垮垮的慵懒感! 🍃\n\n尺寸:39*42*8cm"},"price":null,"currency":"CNY","moq":1,"category":"chanel-women-bags","status":"active","alibaba_url":null,"images":["https://xcimg.szwego.com/img/e8531d32/20240226/i1708932213_6401_3.jpg","https://xcimg.szwego.com/img/e8531d32/20240226/i1708932213_1090_2.jpg","https://xcimg.szwego.com/img/e8531d32/20240226/i1708932213_8848_1.jpg","https://xcimg.szwego.com/img/e8531d32/20240226/i1708932213_1335_0.jpg"],"created_at":"2024-05-01T03:19:54.446Z"},{"id":"item-66e3bcb06903","sku":"_dYTYTFd1ibHIX1Cs2K-4WQou439ccBUMmsUMCcA","name_en":"Chanel Women Bags","name_cn":"22手袋 粉银\n\n 原厂方框一级小牛皮👍皮质细腻有光泽,\n既柔软又耐磨,两者兼具\n简简单单的外观却藏着不少设计师的高级设计,镂空的chanel logo的金币,小小的点缀让整体气质提高了不止一个Level,满满的复古情怀,松松垮垮的慵懒感! 🍃\n\n尺寸:35*37*7cm","specs":{"source":"wsxcme","sourceId":"_dYTYTFd1ibHIX1Cs2K-4WQou439ccBUMmsUMCcA","sourceTagId":47002745,"sourceTagName":"香奈儿/女包","dimensions":{"lengthCm":35,"heightCm":37,"widthCm":7},"rawTitle":"22手袋 粉银\n\n 原厂方框一级小牛皮👍皮质细腻有光泽,\n既柔软又耐磨,两者兼具\n简简单单的外观却藏着不少设计师的高级设计,镂空的chanel logo的金币,小小的点缀让整体气质提高了不止一个Level,满满的复古情怀,松松垮垮的慵懒感! 🍃\n\n尺寸:35*37*7cm"},"price":null,"currency":"CNY","moq":1,"category":"chanel-women-bags","status":"active","alibaba_url":null,"images":["https://xcimg.szwego.com/img/e8531d32/20240226/i1708932022_7760_0.jpg","https://xcimg.szwego.com/img/e8531d32/20240226/i1708932022_7920_2.jpg","https://xcimg.szwego.com/img/e8531d32/20240226/i1708932022_8962_1.jpg","https://xcimg.szwego.com/img/e8531d32/20240226/i1708932022_7924_3.jpg"],"created_at":"2024-05-01T03:19:54.445Z"},{"id":"item-bcf34ddb335d","sku":"_duGuG9-QKyQr0NybKl9oq7B5-ZHqyL4BIFzk0WA","name_en":"Chanel Women Bags","name_cn":"22手袋 黑配金\n\n 原厂方框一级小牛皮👍皮质细腻有光泽,\n既柔软又耐磨,两者兼具\n简简单单的外观却藏着不少设计师的高级设计,镂空的chanel logo的金币,小小的点缀让整体气质提高了不止一个Level,满满的复古情怀,松松垮垮的慵懒感! 🍃\n\n尺寸:39*42*8cm","specs":{"source":"wsxcme","sourceId":"_duGuG9-QKyQr0NybKl9oq7B5-ZHqyL4BIFzk0WA","sourceTagId":47002745,"sourceTagName":"香奈儿/女包","dimensions":{"lengthCm":39,"heightCm":42,"widthCm":8},"rawTitle":"22手袋 黑配金\n\n 原厂方框一级小牛皮👍皮质细腻有光泽,\n既柔软又耐磨,两者兼具\n简简单单的外观却藏着不少设计师的高级设计,镂空的chanel logo的金币,小小的点缀让整体气质提高了不止一个Level,满满的复古情怀,松松垮垮的慵懒感! 🍃\n\n尺寸:39*42*8cm"},"price":null,"currency":"CNY","moq":1,"category":"chanel-women-bags","status":"active","alibaba_url":null,"images":["https://xcimg.szwego.com/20230626/i1687788338_9499_0.jpg","https://xcimg.szwego.com/20230626/i1687788338_5609_1.jpg","https://xcimg.szwego.com/20230626/i1687788338_5505_2.jpg","https://xcimg.szwego.com/20230626/i1687788338_7333_3.jpg"],"created_at":"2024-05-01T03:19:54.444Z"},{"id":"item-5d6eba79f6b1","sku":"_dIDIDXj17Xf7yTtKLtV1dNxqZlDuPY6Fl9SKsMw","name_en":"Chanel Women Bags","name_cn":"22手袋 \n新颜色小号黑金\n\n 原厂方框小牛皮👍皮质细腻有光泽,\n既柔软又耐磨,两者兼具\n简简单单的外观却藏着不少设计师的高级设计,镂空的chanel logo的金币,小小的点缀让整体气质提高了不止一个Level,满满的复古情怀,松松垮垮的慵懒感! 🍃\n\n尺寸:35*37*7cm","specs":{"source":"wsxcme","sourceId":"_dIDIDXj17Xf7yTtKLtV1dNxqZlDuPY6Fl9SKsMw","sourceTagId":47002745,"sourceTagName":"香奈儿/女包","dimensions":{"lengthCm":35,"heightCm":37,"widthCm":7},"rawTitle":"22手袋 \n新颜色小号黑金\n\n 原厂方框小牛皮👍皮质细腻有光泽,\n既柔软又耐磨,两者兼具\n简简单单的外观却藏着不少设计师的高级设计,镂空的chanel logo的金币,小小的点缀让整体气质提高了不止一个Level,满满的复古情怀,松松垮垮的慵懒感! 🍃\n\n尺寸:35*37*7cm"},"price":null,"currency":"CNY","moq":1,"category":"chanel-women-bags","status":"active","alibaba_url":null,"images":["https://xcimg.szwego.com/20230626/i1687788171_4975_0.jpg","https://xcimg.szwego.com/20230626/i1687788171_3160_1.jpg","https://xcimg.szwego.com/20230626/i1687788171_4920_2.jpg","https://xcimg.szwego.com/20230626/i1687788171_3287_3.jpg"],"created_at":"2024-05-01T03:19:54.443Z"},{"id":"item-3a0c6cbf7ab3","sku":"_dplploMcxiB9wW5PNEGtfpW7aQ8k6q2O1jrWJlA","name_en":"Chanel Women Bags","name_cn":"22手袋 黑银\n\n 原厂方框一级小牛皮👍皮质细腻有光泽,\n既柔软又耐磨,两者兼具\n简简单单的外观却藏着不少设计师的高级设计,镂空的chanel logo的金币,小小的点缀让整体气质提高了不止一个Level,满满的复古情怀,松松垮垮的慵懒感! 🍃\n\n尺寸:39*42*8cm","specs":{"source":"wsxcme","sourceId":"_dplploMcxiB9wW5PNEGtfpW7aQ8k6q2O1jrWJlA","sourceTagId":47002745,"sourceTagName":"香奈儿/女包","dimensions":{"lengthCm":39,"heightCm":42,"widthCm":8},"rawTitle":"22手袋 黑银\n\n 原厂方框一级小牛皮👍皮质细腻有光泽,\n既柔软又耐磨,两者兼具\n简简单单的外观却藏着不少设计师的高级设计,镂空的chanel logo的金币,小小的点缀让整体气质提高了不止一个Level,满满的复古情怀,松松垮垮的慵懒感! 🍃\n\n尺寸:39*42*8cm"},"price":null,"currency":"CNY","moq":1,"category":"chanel-women-bags","status":"active","alibaba_url":null,"images":["https://xcimg.szwego.com/20230626/i1687787764_972_0.jpg","https://xcimg.szwego.com/20230626/i1687787764_5621_1.jpg","https://xcimg.szwego.com/20230626/i1687787764_7927_2.jpg","https://xcimg.szwego.com/20230626/i1687787764_4630_3.jpg"],"created_at":"2024-05-01T03:19:54.442Z"},{"id":"item-d9abd9c4d2f4","sku":"_deueukWDHp9ETM9VD_IbsAGSi1zsJy29NCVxuzQ","name_en":"Chanel Women Bags","name_cn":"22手袋 \n新颜色小号黑银\n\n 原厂方框小牛皮👍皮质细腻有光泽,\n既柔软又耐磨,两者兼具\n简简单单的外观却藏着不少设计师的高级设计,镂空的chanel logo的金币,小小的点缀让整体气质提高了不止一个Level,满满的复古情怀,松松垮垮的慵懒感! 🍃\n\n尺寸:35*37*7cm","specs":{"source":"wsxcme","sourceId":"_deueukWDHp9ETM9VD_IbsAGSi1zsJy29NCVxuzQ","sourceTagId":47002745,"sourceTagName":"香奈儿/女包","dimensions":{"lengthCm":35,"heightCm":37,"widthCm":7},"rawTitle":"22手袋 \n新颜色小号黑银\n\n 原厂方框小牛皮👍皮质细腻有光泽,\n既柔软又耐磨,两者兼具\n简简单单的外观却藏着不少设计师的高级设计,镂空的chanel logo的金币,小小的点缀让整体气质提高了不止一个Level,满满的复古情怀,松松垮垮的慵懒感! 🍃\n\n尺寸:35*37*7cm"},"price":null,"currency":"CNY","moq":1,"category":"chanel-women-bags","status":"active","alibaba_url":null,"images":["https://xcimg.szwego.com/20230626/i1687773734_6481_0.jpg","https://xcimg.szwego.com/20230626/i1687773734_7712_1.jpg","https://xcimg.szwego.com/20230626/i1687773734_1504_2.jpg","https://xcimg.szwego.com/20230626/i1687773734_3061_3.jpg","https://xcimg.szwego.com/20230626/i1687773734_3951_4.jpg","https://xcimg.szwego.com/20230626/i1687773734_6717_5.jpg"],"created_at":"2024-05-01T03:19:54.441Z"},{"id":"item-2d0b0f35a6fd","sku":"_dqOqOisBprKD0sz3eXKYTukmTqqqpNRhFzJS_xw","name_en":"24c手袋","name_cn":"24c手袋 \n中号湖蓝色金扣➿\n\n 真正的纯A 一级小牛皮👍\n皮质既柔软又耐磨,两者兼具\n简简单单的外观却藏着不少设计师的高级设计,镂空的chanel logo的金币,小小的点缀让整体气质提高了不止一个Level,满满的复古情怀,松松垮垮的慵懒感! 🍃\n\n尺寸:39×42×8cm","specs":{"source":"wsxcme","sourceId":"_dqOqOisBprKD0sz3eXKYTukmTqqqpNRhFzJS_xw","sourceTagId":47002745,"sourceTagName":"香奈儿/女包","dimensions":{"lengthCm":39,"heightCm":42,"widthCm":8},"rawTitle":"24c手袋 \n中号湖蓝色金扣➿\n\n 真正的纯A 一级小牛皮👍\n皮质既柔软又耐磨,两者兼具\n简简单单的外观却藏着不少设计师的高级设计,镂空的chanel logo的金币,小小的点缀让整体气质提高了不止一个Level,满满的复古情怀,松松垮垮的慵懒感! 🍃\n\n尺寸:39×42×8cm"},"price":null,"currency":"CNY","moq":1,"category":"chanel-women-bags","status":"active","alibaba_url":null,"images":["https://xcimg.szwego.com/img/e8531d32/20231227/i1703657342_7412_0.jpg","https://xcimg.szwego.com/img/e8531d32/20231227/i1703657342_1137_0.jpg","https://xcimg.szwego.com/img/e8531d32/20231227/i1703657342_2321_0.jpg","https://xcimg.szwego.com/img/e8531d32/20231227/i1703657342_2195_0.jpg"],"created_at":"2024-05-01T03:19:54.440Z"},{"id":"item-67c85ebe0e29","sku":"_ds0s0ZORom7rtp6UATgRgBTgzBuraIGHLYI0m7A","name_en":"原厂皮现货 Chane* Gabrielle#小香创新总是不会让人失望,在原有的美感上融入力量与优雅的设计美学,便诞生了这款香奈儿流浪包(Gabrielle )。它初次亮相在2017春夏高级成衣系列发布会,而在刚结束的时装周上它的身影却无处不在,细腻柔软的袋身与硬朗挺阔的底部,充分体现了香奈儿女士追求自由舒适的精神。尺寸20cm","name_cn":"原厂皮现货 Chane* Gabrielle#小香创新总是不会让人失望,在原有的美感上融入力量与优雅的设计美学,便诞生了这款香奈儿流浪包(Gabrielle )。它初次亮相在2017春夏高级成衣系列发布会,而在刚结束的时装周上它的身影却无处不在,细腻柔软的袋身与硬朗挺阔的底部,充分体现了香奈儿女士追求自由舒适的精神。尺寸20cm","specs":{"source":"wsxcme","sourceId":"_ds0s0ZORom7rtp6UATgRgBTgzBuraIGHLYI0m7A","sourceTagId":47002745,"sourceTagName":"香奈儿/女包","rawTitle":"原厂皮现货 Chane* Gabrielle#小香创新总是不会让人失望,在原有的美感上融入力量与优雅的设计美学,便诞生了这款香奈儿流浪包(Gabrielle )。它初次亮相在2017春夏高级成衣系列发布会,而在刚结束的时装周上它的身影却无处不在,细腻柔软的袋身与硬朗挺阔的底部,充分体现了香奈儿女士追求自由舒适的精神。尺寸20cm"},"price":null,"currency":"CNY","moq":1,"category":"chanel-women-bags","status":"active","alibaba_url":null,"images":["https://xcimg.szwego.com/20210428/i1619542973_4299_0.jpg","https://xcimg.szwego.com/20210428/i1619542973_7427_1.jpg","https://xcimg.szwego.com/20210428/i1619542973_1048_2.jpg","https://xcimg.szwego.com/20210428/i1619542973_7526_3.jpg","https://xcimg.szwego.com/20210428/i1619542973_2756_4.jpg","https://xcimg.szwego.com/20210428/i1619542973_6187_5.jpg","https://xcimg.szwego.com/20210428/i1619542973_4785_6.jpg","https://xcimg.szwego.com/20210428/i1619542973_4519_7.jpg","https://xcimg.szwego.com/20210428/i1619542973_3945_8.jpg"],"created_at":"2024-05-01T03:19:54.439Z"},{"id":"item-c7ef9c2e9de2","sku":"_dh9h9PHOR_1bnAyaQS1-wap_Z6j9iIxVsm-aDXw","name_en":"现货22创新总是不会让人失望,在原有的美感上融入力量与优雅的设计美学,便诞生了这款香奈儿流浪包(Gabrielle )。它初次亮相在2017春夏高级成衣系列发布会,而在刚结束的时装周上它的身影却无处不在,细腻柔软的袋身与硬朗挺阔的底部,充分体现了香奈儿女士追求自由舒适的精神。尺寸20cm","name_cn":"现货22创新总是不会让人失望,在原有的美感上融入力量与优雅的设计美学,便诞生了这款香奈儿流浪包(Gabrielle )。它初次亮相在2017春夏高级成衣系列发布会,而在刚结束的时装周上它的身影却无处不在,细腻柔软的袋身与硬朗挺阔的底部,充分体现了香奈儿女士追求自由舒适的精神。尺寸20cm","specs":{"source":"wsxcme","sourceId":"_dh9h9PHOR_1bnAyaQS1-wap_Z6j9iIxVsm-aDXw","sourceTagId":47002745,"sourceTagName":"香奈儿/女包","rawTitle":"现货22创新总是不会让人失望,在原有的美感上融入力量与优雅的设计美学,便诞生了这款香奈儿流浪包(Gabrielle )。它初次亮相在2017春夏高级成衣系列发布会,而在刚结束的时装周上它的身影却无处不在,细腻柔软的袋身与硬朗挺阔的底部,充分体现了香奈儿女士追求自由舒适的精神。尺寸20cm"},"price":null,"currency":"CNY","moq":1,"category":"chanel-women-bags","status":"active","alibaba_url":null,"images":["https://xcimg.szwego.com/20221101/i1667285736_2764_0.jpg","https://xcimg.szwego.com/20221101/i1667285736_5378_1.jpg","https://xcimg.szwego.com/20221101/i1667285736_7753_2.jpg","https://xcimg.szwego.com/20221101/i1667285736_8950_3.jpg","https://xcimg.szwego.com/20221101/i1667285736_5727_4.jpg","https://xcimg.szwego.com/20221101/i1667285736_1251_5.jpg","https://xcimg.szwego.com/20221101/i1667285736_6030_6.jpg","https://xcimg.szwego.com/20221101/i1667285736_5483_7.jpg","https://xcimg.szwego.com/20221101/i1667285736_6972_8.jpg"],"created_at":"2024-05-01T03:19:54.436Z"},{"id":"item-db5869d4ca2b","sku":"_dhthtQnVreYF4MzVrmJ5MiUiAXBQfTrTkd4j0-Q","name_en":"现货22k DUMA双肩小背包 女款背包 一眼爱上这个小牛皮,这个白不用担心了,耐脏喔!容量超感人~夏天的花洋装搭这个一定无敌仙女!冬天背也超仙🧚🏻‍♀️重点来了:视觉上体积只比方胖大一点点,背在身上超小巧可爱,容量却这么感人,手机、短夹、水瓶、伞,还有其他零碎小东西通通都可以超轻松装进,前面的磁扣可以放卡夹跟钥匙护唇膏,又仙又实用! 尺寸:18×18×","name_cn":"现货22k DUMA双肩小背包 女款背包 一眼爱上这个小牛皮,这个白不用担心了,耐脏喔!容量超感人~夏天的花洋装搭这个一定无敌仙女!冬天背也超仙🧚🏻‍♀️重点来了:视觉上体积只比方胖大一点点,背在身上超小巧可爱,容量却这么感人,手机、短夹、水瓶、伞,还有其他零碎小东西通通都可以超轻松装进,前面的磁扣可以放卡夹跟钥匙护唇膏,又仙又实用! 尺寸:18×18×12cm","specs":{"source":"wsxcme","sourceId":"_dhthtQnVreYF4MzVrmJ5MiUiAXBQfTrTkd4j0-Q","sourceTagId":47002745,"sourceTagName":"香奈儿/女包","dimensions":{"lengthCm":18,"heightCm":18,"widthCm":12},"rawTitle":"现货22k DUMA双肩小背包 女款背包 一眼爱上这个小牛皮,这个白不用担心了,耐脏喔!容量超感人~夏天的花洋装搭这个一定无敌仙女!冬天背也超仙🧚🏻‍♀️重点来了:视觉上体积只比方胖大一点点,背在身上超小巧可爱,容量却这么感人,手机、短夹、水瓶、伞,还有其他零碎小东西通通都可以超轻松装进,前面的磁扣可以放卡夹跟钥匙护唇膏,又仙又实用! 尺寸:18×18×12cm"},"price":null,"currency":"CNY","moq":1,"category":"chanel-women-bags","status":"active","alibaba_url":null,"images":["https://xcimg.szwego.com/20211130/i1638255841_5774_0.jpg","https://xcimg.szwego.com/20211130/i1638255841_4786_1.jpg","https://xcimg.szwego.com/20211130/i1638255841_4085_2.jpg","https://xcimg.szwego.com/20211130/i1638255841_1902_3.jpg","https://xcimg.szwego.com/20211130/i1638255841_8974_4.jpg","https://xcimg.szwego.com/20211130/i1638255841_4429_5.jpg","https://xcimg.szwego.com/20211130/i1638255841_2027_6.jpg","https://xcimg.szwego.com/20211130/i1638255841_7998_7.jpg","https://xcimg.szwego.com/20211130/i1638255841_5128_8.jpg"],"created_at":"2024-05-01T03:19:54.435Z"},{"id":"item-b63d87c1b7b3","sku":"_dt4t4oCC-DBCZy61PqXSKvdIIQjdeZX2fXv42Iw","name_en":"现货24c手柄woc","name_cn":"现货24c手柄woc\n简直是太精致了〰️\n打开内袋 里面还有一块logo大金属牌 \nChane1在细节的用心方面没得说✔️\n实物到手,绝对会被惊艳到✨尺寸:19*12*3.5*cm","specs":{"source":"wsxcme","sourceId":"_dt4t4oCC-DBCZy61PqXSKvdIIQjdeZX2fXv42Iw","sourceTagId":47002745,"sourceTagName":"香奈儿/女包","rawTitle":"现货24c手柄woc\n简直是太精致了〰️\n打开内袋 里面还有一块logo大金属牌 \nChane1在细节的用心方面没得说✔️\n实物到手,绝对会被惊艳到✨尺寸:19*12*3.5*cm"},"price":null,"currency":"CNY","moq":1,"category":"chanel-women-bags","status":"active","alibaba_url":null,"images":["https://xcimg.szwego.com/20231023/i1698053004_1168_0.jpg","https://xcimg.szwego.com/20231023/i1698053004_4516_1.jpg","https://xcimg.szwego.com/20231023/i1698053004_5462_2.jpg","https://xcimg.szwego.com/20231023/i1698053004_5850_3.jpg","https://xcimg.szwego.com/20231023/i1698053004_7629_4.jpg","https://xcimg.szwego.com/20231023/i1698053004_5299_5.jpg","https://xcimg.szwego.com/20231023/i1698053004_506_6.jpg","https://xcimg.szwego.com/20231023/i1698053004_2271_7.jpg","https://xcimg.szwego.com/20231023/i1698053004_6564_8.jpg"],"created_at":"2024-05-01T03:19:54.433Z"},{"id":"item-c41719157311","sku":"_dkXkXGwxddCksFFmiHMx_FQ9ua1DvvREMIlYX0g","name_en":"💥💥💥香奈儿24C最新款!紫色粗花配上亮晶晶的亮片💕💕好美腻啊 美包包💟💟","name_cn":"💥💥💥香奈儿24C最新款!紫色粗花配上亮晶晶的亮片💕💕好美腻啊 美包包💟💟","specs":{"source":"wsxcme","sourceId":"_dkXkXGwxddCksFFmiHMx_FQ9ua1DvvREMIlYX0g","sourceTagId":47002745,"sourceTagName":"香奈儿/女包","rawTitle":"💥💥💥香奈儿24C最新款!紫色粗花配上亮晶晶的亮片💕💕好美腻啊 美包包💟💟"},"price":null,"currency":"CNY","moq":1,"category":"chanel-women-bags","status":"active","alibaba_url":null,"images":["https://xcimg.szwego.com/img/5101f639/20231230/i1703929986_6822_0.jpg","https://xcimg.szwego.com/img/5101f639/20231230/i1703929996_3712_0.jpg","https://xcimg.szwego.com/img/5101f639/20231230/i1703930015_9680_0.jpg","https://xcimg.szwego.com/img/5101f639/20231230/i1703930031_183_0.jpg","https://xcimg.szwego.com/img/5101f639/20231230/i1703930046_6604_0.jpg","https://xcimg.szwego.com/img/5101f639/20231230/i1703930063_4159_0.jpg"],"created_at":"2024-05-01T03:19:54.432Z"},{"id":"item-eb219e650eb9","sku":"_dhLhL3vHi_6JOdUs9sqOQe4l3hB7eF95GgkWtjA","name_en":"Chanel  24c 春夏coco 手柄包","name_cn":"Chanel  24c 春夏coco 手柄包\n尺寸:13.5x23.5x5.5(cm)\n顶级品质现货💥💥💥🀄️24c超级美的手柄小香风布料买到了!!\n包包型号是24C 手柄 包 集合素:手柄、皮穿链、耐造的尼布、 mini的size\n太喜欢了呜呜X_X斜挎背长度也是正正好!\n款号:AS4569大号","specs":{"source":"wsxcme","sourceId":"_dhLhL3vHi_6JOdUs9sqOQe4l3hB7eF95GgkWtjA","sourceTagId":47002745,"sourceTagName":"香奈儿/女包","modelNumber":"是24C 手柄 包 集合素:手柄、皮穿链、耐造的尼布、 mini的size","rawTitle":"Chanel  24c 春夏coco 手柄包\n尺寸:13.5x23.5x5.5(cm)\n顶级品质现货💥💥💥🀄️24c超级美的手柄小香风布料买到了!!\n包包型号是24C 手柄 包 集合素:手柄、皮穿链、耐造的尼布、 mini的size\n太喜欢了呜呜X_X斜挎背长度也是正正好!\n款号:AS4569大号"},"price":null,"currency":"CNY","moq":1,"category":"chanel-women-bags","status":"active","alibaba_url":null,"images":["https://xcimg.szwego.com/img/8e603200/20231231/i1704017958_3152_0.jpg","https://xcimg.szwego.com/img/8e603200/20231231/i1704017958_5422_4.jpg","https://xcimg.szwego.com/img/8e603200/20231231/i1704017959_150_8.jpg","https://xcimg.szwego.com/img/8e603200/20231231/i1704017958_79_3.jpg","https://xcimg.szwego.com/img/8e603200/20231231/i1704017959_4678_5.jpg","https://xcimg.szwego.com/img/8e603200/20231231/i1704017959_213_6.jpg","https://xcimg.szwego.com/img/8e603200/20231231/i1704017959_5264_7.jpg","https://xcimg.szwego.com/img/8e603200/20231231/i1704017958_5730_1.jpg","https://xcimg.szwego.com/img/8e603200/20231231/i1704017958_5618_2.jpg"],"created_at":"2024-05-01T03:19:54.431Z"},{"id":"item-77bbe40b8156","sku":"_dYbYbl0kGoa42fRPQel1WK8Gp-Ryx5Nt5dSRY2w","name_en":"现货啦💥渐变色🇫🇷🇫🇷🇫🇷39*42*8cm/3261;小号35*37*7cm/3260🆕Chanel新款 黑银渐变色!22购物袋","name_cn":"现货啦💥渐变色🇫🇷🇫🇷🇫🇷39*42*8cm/3261;小号35*37*7cm/3260🆕Chanel新款 黑银渐变色!22购物袋\n延续经典菱格绗缝和皮革穿链肩带设计,外观简洁且注重实用功能,内部设有拉链口袋和弹簧钩固定的可️拆卸小袋,包口为磁扣和抽绳式松紧带设计,呈现慵懒而随性的风格,一枚镂空CHANEL双C吊坠增添点晴之笔。柔软且耐用的原厂油蜡皮制成,市场唯一高定五金 ,手感真的无敌 ,肉眼可见的能装[好的],太适合做妈咪袋了 ,健身党可️入尺寸:","specs":{"source":"wsxcme","sourceId":"_dYbYbl0kGoa42fRPQel1WK8Gp-Ryx5Nt5dSRY2w","sourceTagId":47002745,"sourceTagName":"香奈儿/女包","rawTitle":"现货啦💥渐变色🇫🇷🇫🇷🇫🇷39*42*8cm/3261;小号35*37*7cm/3260🆕Chanel新款 黑银渐变色!22购物袋\n延续经典菱格绗缝和皮革穿链肩带设计,外观简洁且注重实用功能,内部设有拉链口袋和弹簧钩固定的可️拆卸小袋,包口为磁扣和抽绳式松紧带设计,呈现慵懒而随性的风格,一枚镂空CHANEL双C吊坠增添点晴之笔。柔软且耐用的原厂油蜡皮制成,市场唯一高定五金 ,手感真的无敌 ,肉眼可见的能装[好的],太适合做妈咪袋了 ,健身党可️入尺寸:"},"price":null,"currency":"CNY","moq":1,"category":"chanel-women-bags","status":"active","alibaba_url":null,"images":["https://xcimg.szwego.com/img/d0c94e6f/20231227/i1703674727_7901_0.jpg","https://xcimg.szwego.com/img/d0c94e6f/20231227/i1703674727_5276_0.jpg","https://xcimg.szwego.com/img/d0c94e6f/20231227/i1703674727_3702_0.jpg","https://xcimg.szwego.com/img/d0c94e6f/20231227/i1703674727_8304_0.jpg","https://xcimg.szwego.com/img/d0c94e6f/20231227/i1703674727_6845_0.jpg","https://xcimg.szwego.com/img/d0c94e6f/20231227/i1703674727_2669_0.jpg","https://xcimg.szwego.com/img/d0c94e6f/20231227/i1703674727_5968_0.jpg","https://xcimg.szwego.com/img/d0c94e6f/20231227/i1703674727_935_0.jpg","https://xcimg.szwego.com/img/d0c94e6f/20231227/i1703674727_8123_0.jpg"],"created_at":"2024-05-01T03:19:54.430Z"},{"id":"item-5d13bd110e7a","sku":"_dgVgVBFVw2XY4Le06CLfS7P9spGY9ySdbrAyNJw","name_en":"Chanel  24c 收藏家系列(幻彩粉)","name_cn":"Chanel  24c 收藏家系列(幻彩粉)\n尺寸:13.5x8.5x4.2(cm)\n24手工坊CF幻彩钻重手工制作❤️现货供应💥💥💥Chanel🍷爱包包的来!极品.CF链条包它!来了!\n我终于看到实物了!真的好美!就满满的细节和高级感\n正面全是经典香奈儿元素打造的高级感\n珍珠链 皮穿链 钻石链 ~满分100 诠","specs":{"source":"wsxcme","sourceId":"_dgVgVBFVw2XY4Le06CLfS7P9spGY9ySdbrAyNJw","sourceTagId":47002745,"sourceTagName":"香奈儿/女包","rawTitle":"Chanel  24c 收藏家系列(幻彩粉)\n尺寸:13.5x8.5x4.2(cm)\n24手工坊CF幻彩钻重手工制作❤️现货供应💥💥💥Chanel🍷爱包包的来!极品.CF链条包它!来了!\n我终于看到实物了!真的好美!就满满的细节和高级感\n正面全是经典香奈儿元素打造的高级感\n珍珠链 皮穿链 钻石链 ~满分100 诠"},"price":null,"currency":"CNY","moq":1,"category":"chanel-women-bags","status":"active","alibaba_url":null,"images":["https://xcimg.szwego.com/img/8e603200/20231114/i1699963353_9316_0.jpg","https://xcimg.szwego.com/img/8e603200/20231114/i1699963353_9514_1.jpg","https://xcimg.szwego.com/img/8e603200/20231114/i1699963353_9017_3.jpg","https://xcimg.szwego.com/img/8e603200/20231114/i1699963353_911_4.jpg","https://xcimg.szwego.com/img/8e603200/20231114/i1699963353_4812_5.jpg","https://xcimg.szwego.com/img/8e603200/20231114/i1699963353_6712_6.jpg","https://xcimg.szwego.com/img/8e603200/20231114/i1699963353_7641_7.jpg","https://xcimg.szwego.com/img/8e603200/20231114/i1699965159_3743_0.jpg","https://xcimg.szwego.com/img/8e603200/20231114/i1699963353_9699_8.jpg"],"created_at":"2024-05-01T03:19:54.429Z"},{"id":"item-cf73971b34f3","sku":"_dfCfC-FN1ohQfsebX_zbuctrmW6Ck0i31S8o2PQ","name_en":"Chanel 23p 方胖子","name_cn":"Chanel 23p 方胖子\n尺寸:12.5x16x4.5(cm) \n23p珐琅扣爱心方胖子绝了这是一款柔软细腻的羊皮小可爱,上身效果也是特别特别漂亮,粉色双色的爱心、双clogo和宝石形状的珐琅装饰点缀在包包肩带上,~珐琅扣和肩带的搭配也使得珐琅方胖子的适配风格更广泛,哪怕是一件单调的衬衣,也能让整个人的穿搭看起来很有亮点,不愧是让许多姐妹都梦寐以求的神仙单品 \n款号AS3782","specs":{"source":"wsxcme","sourceId":"_dfCfC-FN1ohQfsebX_zbuctrmW6Ck0i31S8o2PQ","sourceTagId":47002745,"sourceTagName":"香奈儿/女包","modelNumber":"AS3782","rawTitle":"Chanel 23p 方胖子\n尺寸:12.5x16x4.5(cm) \n23p珐琅扣爱心方胖子绝了这是一款柔软细腻的羊皮小可爱,上身效果也是特别特别漂亮,粉色双色的爱心、双clogo和宝石形状的珐琅装饰点缀在包包肩带上,~珐琅扣和肩带的搭配也使得珐琅方胖子的适配风格更广泛,哪怕是一件单调的衬衣,也能让整个人的穿搭看起来很有亮点,不愧是让许多姐妹都梦寐以求的神仙单品 \n款号AS3782"},"price":null,"currency":"CNY","moq":1,"category":"chanel-women-bags","status":"active","alibaba_url":null,"images":["https://xcimg.szwego.com/img/8e603200/20231229/i1703849491_4629_0.jpg","https://xcimg.szwego.com/img/8e603200/20231229/i1703849491_2149_0.jpg","https://xcimg.szwego.com/img/8e603200/20231229/i1703849491_912_0.jpg","https://xcimg.szwego.com/img/8e603200/20231229/i1703849491_1583_0.jpg","https://xcimg.szwego.com/img/8e603200/20231229/i1703849491_6914_0.jpg","https://xcimg.szwego.com/img/8e603200/20231229/i1703849491_158_0.jpg","https://xcimg.szwego.com/img/8e603200/20231229/i1703849491_8699_0.jpg","https://xcimg.szwego.com/img/8e603200/20231229/i1703849491_260_0.jpg","https://xcimg.szwego.com/img/8e603200/20231229/i1703849491_8575_0.jpg"],"created_at":"2024-05-01T03:19:54.428Z"}],"page":43,"pageSize":24,"total":1102,"totalPages":46}
