{"items":[{"id":"item-d7b39483fdee","sku":"_ds1s1s9lrhOSemc8MYitzPfXQoEvTyTf0mBAYrw","name_en":"CELIN* 升级版凯旋门豆腐包187366_印花棕色_采用进口牛皮材质内里纯羊皮➕钢五金_凯旋门新理念的定义 添加巴黎的元素 复古风调 高贵的气质 被时尚领域再度认知 超多明星的热爱款 经典再创新 再次重塑经典包扣精致设计 很符合时尚前沿✔️","name_cn":"CELIN* 升级版凯旋门豆腐包187366_印花棕色_采用进口牛皮材质内里纯羊皮➕钢五金_凯旋门新理念的定义 添加巴黎的元素 复古风调 高贵的气质 被时尚领域再度认知 超多明星的热爱款 经典再创新 再次重塑经典包扣精致设计 很符合时尚前沿✔️\n尺寸:22.5-16.5-7.5 【配原厂礼品盒🎁】","specs":{"source":"wsxcme","sourceId":"_ds1s1s9lrhOSemc8MYitzPfXQoEvTyTf0mBAYrw","sourceTagId":47003106,"sourceTagName":"塞琳/女包","rawTitle":"CELIN* 升级版凯旋门豆腐包187366_印花棕色_采用进口牛皮材质内里纯羊皮➕钢五金_凯旋门新理念的定义 添加巴黎的元素 复古风调 高贵的气质 被时尚领域再度认知 超多明星的热爱款 经典再创新 再次重塑经典包扣精致设计 很符合时尚前沿✔️\n尺寸:22.5-16.5-7.5 【配原厂礼品盒🎁】"},"price":null,"currency":"CNY","moq":1,"category":"celine-women-bags","status":"active","alibaba_url":null,"images":["https://xcimg.szwego.com/20230216/i1676538201_5264_0.jpg","https://xcimg.szwego.com/20230216/i1676538201_1912_1.jpg","https://xcimg.szwego.com/20230216/i1676538201_8778_2.jpg","https://xcimg.szwego.com/20230216/i1676538201_4448_3.jpg","https://xcimg.szwego.com/20230216/i1676538201_3524_4.jpg","https://xcimg.szwego.com/20230216/i1676538201_9567_5.jpg","https://xcimg.szwego.com/20230216/i1676538201_2886_6.jpg","https://xcimg.szwego.com/20230216/i1676538201_3418_7.jpg","https://xcimg.szwego.com/20230216/i1676538201_9677_8.jpg"],"created_at":"2024-04-30T06:38:14.776Z"},{"id":"item-102331db5eae","sku":"_djijiRLZoUR1U6F39o0V9mipLeTO2wyW8Nd2kBw","name_en":"CELIN25新款包包来啦★春夏简直是主场","name_cn":"CELIN25新款包包来啦★春夏简直是主场","specs":{"source":"wsxcme","sourceId":"_djijiRLZoUR1U6F39o0V9mipLeTO2wyW8Nd2kBw","sourceTagId":47003106,"sourceTagName":"塞琳/女包","rawTitle":"CELIN25新款包包来啦★春夏简直是主场"},"price":null,"currency":"CNY","moq":1,"category":"celine-women-bags","status":"active","alibaba_url":null,"images":["https://xcimg.szwego.com/img/1a8dcad8/20250804/a1754240463657_2422.jpg","https://xcimg.szwego.com/img/1a8dcad8/20250804/a1754240463863_5872.jpg","https://xcimg.szwego.com/img/1a8dcad8/20250804/a1754240463736_6613.jpg","https://xcimg.szwego.com/img/1a8dcad8/20250804/a1754240463741_5140.jpg"],"created_at":"2026-05-20T03:16:24.366Z"},{"id":"item-f8c0bb007e52","sku":"_dq1q12tbf_5dxoLdzvOl568Qm4gi4PDLHQsWXkg","name_en":"CELIN26ss新款系列这一季太高级好看啦","name_cn":"CELIN26ss新款系列这一季太高级好看啦","specs":{"source":"wsxcme","sourceId":"_dq1q12tbf_5dxoLdzvOl568Qm4gi4PDLHQsWXkg","sourceTagId":47003106,"sourceTagName":"塞琳/女包","rawTitle":"CELIN26ss新款系列这一季太高级好看啦"},"price":null,"currency":"CNY","moq":1,"category":"celine-women-bags","status":"active","alibaba_url":null,"images":["https://xcimg.szwego.com/img/1a8dcad8/20260117/i1768652958523_5931_0_0.jpg","https://xcimg.szwego.com/img/1a8dcad8/20260117/i1768652958103_4665_0_1.jpg","https://xcimg.szwego.com/img/1a8dcad8/20260117/i1768652958103_5808_0_2.jpg","https://xcimg.szwego.com/img/1a8dcad8/20260117/i1768652958526_6873_0_3.jpg","https://xcimg.szwego.com/img/1a8dcad8/20260117/i1768652958101_540_0_4.jpg","https://xcimg.szwego.com/img/1a8dcad8/20260117/i1768652958099_1489_0_5.jpg","https://xcimg.szwego.com/img/1a8dcad8/20260117/i1768652958103_8286_0_6.jpg","https://xcimg.szwego.com/img/1a8dcad8/20260117/i1768652958526_8799_0_7.jpg"],"created_at":"2026-05-20T03:16:24.566Z"},{"id":"item-22e321089b7c","sku":"_d8787O8f_LNCoLetusKYQotP9dzCi-z_RqnHLFg","name_en":"CELIN新款黑金凯旋门FOLCO手提单肩皆可","name_cn":"CELIN新款黑金凯旋门FOLCO手提单肩皆可\n尺寸25.5*14**7.5cm算是大容量选手风琴褶结构利落挺拮简约又高级","specs":{"source":"wsxcme","sourceId":"_d8787O8f_LNCoLetusKYQotP9dzCi-z_RqnHLFg","sourceTagId":47003106,"sourceTagName":"塞琳/女包","rawTitle":"CELIN新款黑金凯旋门FOLCO手提单肩皆可\n尺寸25.5*14**7.5cm算是大容量选手风琴褶结构利落挺拮简约又高级"},"price":null,"currency":"CNY","moq":1,"category":"celine-women-bags","status":"active","alibaba_url":null,"images":["https://xcimg.szwego.com/img/1a8dcad8/20260416/a1776314315737_2201.jpg","https://xcimg.szwego.com/img/1a8dcad8/20260416/a1776314315772_8306.jpg","https://xcimg.szwego.com/img/1a8dcad8/20260416/a1776314315683_3322.jpg","https://xcimg.szwego.com/img/1a8dcad8/20260416/a1776314315782_7131.jpg","https://xcimg.szwego.com/img/1a8dcad8/20260416/a1776314315793_6040.jpg"],"created_at":"2026-05-20T03:16:24.506Z"},{"id":"item-016f23514731","sku":"_dmVmVUoGtbBSGhOfIUSxTm6_Hp2hLUrDNqtyP_g","name_en":"CELINE | 25ss新款","name_cn":"CELINE | 25ss新款\n搭配拉菲草nino\n度假风满满","specs":{"source":"wsxcme","sourceId":"_dmVmVUoGtbBSGhOfIUSxTm6_Hp2hLUrDNqtyP_g","sourceTagId":47003106,"sourceTagName":"塞琳/女包","rawTitle":"CELINE | 25ss新款\n搭配拉菲草nino\n度假风满满"},"price":null,"currency":"CNY","moq":1,"category":"celine-women-bags","status":"active","alibaba_url":null,"images":["https://xcimg.szwego.com/img/1a8dcad8/20250820/a1755621571784_0545.jpg","https://xcimg.szwego.com/img/1a8dcad8/20250820/a1755621571770_0128.jpg","https://xcimg.szwego.com/img/1a8dcad8/20250820/a1755621571771_8822.jpg","https://xcimg.szwego.com/img/1a8dcad8/20250820/a1755621571769_8475.jpg"],"created_at":"2026-05-20T03:16:24.386Z"},{"id":"item-ee6ad44aa458","sku":"_dgEgESqnbrF3t-zcqmIOGvkPk_TcCCbA8ziX0zQ","name_en":"CELINE | 度假风草编包","name_cn":"CELINE | 度假风草编包\n草编tilly超级可爱呀\n小长假一起去夏日海滩吧","specs":{"source":"wsxcme","sourceId":"_dgEgESqnbrF3t-zcqmIOGvkPk_TcCCbA8ziX0zQ","sourceTagId":47003106,"sourceTagName":"塞琳/女包","rawTitle":"CELINE | 度假风草编包\n草编tilly超级可爱呀\n小长假一起去夏日海滩吧"},"price":null,"currency":"CNY","moq":1,"category":"celine-women-bags","status":"active","alibaba_url":null,"images":["https://xcimg.szwego.com/img/1a8dcad8/20250829/a1756406803635_0311.jpg","https://xcimg.szwego.com/img/1a8dcad8/20250829/a1756406803646_0240.jpg","https://xcimg.szwego.com/img/1a8dcad8/20250829/a1756406803565_5418.jpg","https://xcimg.szwego.com/img/1a8dcad8/20250829/a1756406803637_0003.jpg","https://xcimg.szwego.com/img/1a8dcad8/20250829/a1756406803578_8875.jpg","https://xcimg.szwego.com/img/1a8dcad8/20250829/a1756406804789_0024.jpg","https://xcimg.szwego.com/img/1a8dcad8/20250829/a1756406804789_1052.jpg"],"created_at":"2026-05-20T03:16:24.416Z"},{"id":"item-9916e9dfcf92","sku":"_dxnxnQQsJ9wXEfbSun9uVQc_AEugs1uMPokc_GQ","name_en":"CELINE | 新款✨醫生包","name_cn":"CELINE | 新款✨醫生包\n🎓大容量~輕便實用~\n幼細紋小牛皮~質感滿分🤩","specs":{"source":"wsxcme","sourceId":"_dxnxnQQsJ9wXEfbSun9uVQc_AEugs1uMPokc_GQ","sourceTagId":47003106,"sourceTagName":"塞琳/女包","rawTitle":"CELINE | 新款✨醫生包\n🎓大容量~輕便實用~\n幼細紋小牛皮~質感滿分🤩"},"price":null,"currency":"CNY","moq":1,"category":"celine-women-bags","status":"active","alibaba_url":null,"images":["https://xcimg.szwego.com/img/77bdff09/20260501/i1777619956303_6304_0_0.jpg","https://xcimg.szwego.com/img/77bdff09/20260501/i1777619956489_3426_0_2.jpg","https://xcimg.szwego.com/img/77bdff09/20260501/i1777619956302_6831_0_1.jpg","https://xcimg.szwego.com/img/77bdff09/20260501/i1777619956458_5193_0_3.jpg"],"created_at":"2026-05-20T03:16:24.656Z"},{"id":"item-fd552683195e","sku":"_dezezqdUNaePNSIi9UoWND9wUf1Y_VlBm8ZqNUg","name_en":"CELINE | 新款✨醫生包🎓孙千同款","name_cn":"CELINE | 新款✨醫生包🎓孙千同款\nDoctor Pouch腋下包\n不管是 all black酷飒风,还是白 Polo休闲感,都能一秒拿捏\n容量超顶,通勤/约会都能装,实用性拉满\n法式慵懒感这不就来了!\n尺寸:35x18x18cm\n款号:104340","specs":{"source":"wsxcme","sourceId":"_dezezqdUNaePNSIi9UoWND9wUf1Y_VlBm8ZqNUg","sourceTagId":47003106,"sourceTagName":"塞琳/女包","modelNumber":"104340","dimensions":{"lengthCm":35,"heightCm":18,"widthCm":18},"rawTitle":"CELINE | 新款✨醫生包🎓孙千同款\nDoctor Pouch腋下包\n不管是 all black酷飒风,还是白 Polo休闲感,都能一秒拿捏\n容量超顶,通勤/约会都能装,实用性拉满\n法式慵懒感这不就来了!\n尺寸:35x18x18cm\n款号:104340"},"price":null,"currency":"CNY","moq":1,"category":"celine-women-bags","status":"active","alibaba_url":null,"images":["https://xcimg.szwego.com/img/77bdff09/20260502/i1777701504007_4877_0_0.jpg","https://xcimg.szwego.com/img/77bdff09/20260502/i1777701503973_1765_0_1.jpg","https://xcimg.szwego.com/img/77bdff09/20260502/i1777701502567_8822_0_2.jpg","https://xcimg.szwego.com/img/77bdff09/20260502/i1777701503982_3750_0_3.jpg","https://xcimg.szwego.com/img/77bdff09/20260502/i1777701502633_9830_0_4.jpg","https://xcimg.szwego.com/img/77bdff09/20260502/i1777701502567_1156_0_5.jpg","https://xcimg.szwego.com/img/77bdff09/20260502/i1777701502613_2040_0_6.jpg","https://xcimg.szwego.com/img/77bdff09/20260502/i1777701502575_9190_0_7.jpg"],"created_at":"2026-05-20T03:16:24.626Z"},{"id":"item-6696ff61b36b","sku":"_dj6j6aNR3vt2F4G-hdgxOhx80igKsEm8wEPsJlw","name_en":"CELINE | 新款✨醫生包🎓孙千同款","name_cn":"CELINE | 新款✨醫生包🎓孙千同款\nDoctor Pouch腋下包\n不管是 all black酷飒风,还是白 Polo休闲感,都能一秒拿捏\n容量超顶,通勤/约会都能装,实用性拉满\n法式慵懒感这不就来了!\n尺寸:35x18x18cm\n款号:104340","specs":{"source":"wsxcme","sourceId":"_dj6j6aNR3vt2F4G-hdgxOhx80igKsEm8wEPsJlw","sourceTagId":47003106,"sourceTagName":"塞琳/女包","modelNumber":"104340","dimensions":{"lengthCm":35,"heightCm":18,"widthCm":18},"rawTitle":"CELINE | 新款✨醫生包🎓孙千同款\nDoctor Pouch腋下包\n不管是 all black酷飒风,还是白 Polo休闲感,都能一秒拿捏\n容量超顶,通勤/约会都能装,实用性拉满\n法式慵懒感这不就来了!\n尺寸:35x18x18cm\n款号:104340"},"price":null,"currency":"CNY","moq":1,"category":"celine-women-bags","status":"active","alibaba_url":null,"images":["https://xcimg.szwego.com/img/77bdff09/20260502/i1777701526601_6256_0_0.jpg","https://xcimg.szwego.com/img/77bdff09/20260502/i1777701526662_5949_0_1.jpg","https://xcimg.szwego.com/img/77bdff09/20260502/i1777701527207_7622_0_2.jpg","https://xcimg.szwego.com/img/77bdff09/20260502/i1777701526643_9776_0_3.jpg","https://xcimg.szwego.com/img/77bdff09/20260502/i1777701526341_5682_0_4.jpg","https://xcimg.szwego.com/img/77bdff09/20260502/i1777701527245_5755_0_5.jpg","https://xcimg.szwego.com/img/77bdff09/20260502/i1777701526639_7800_0_6.jpg","https://xcimg.szwego.com/img/77bdff09/20260502/i1777701527315_6793_0_7.jpg"],"created_at":"2026-05-20T03:16:24.636Z"},{"id":"item-0ddc3ef76b29","sku":"_ds1s1s9lrhOaemM4MYi5xM_bQoUvQyTf0mh4ZoQ","name_en":"CELINE | 新款✨醫生包🎓孙千同款","name_cn":"CELINE | 新款✨醫生包🎓孙千同款\nDoctor Pouch腋下包\n不管是 all black酷飒风,还是白 Polo休闲感,都能一秒拿捏\n容量超顶,通勤/约会都能装,实用性拉满\n法式慵懒感这不就来了!\n尺寸:35x18x18cm\n款号:104340","specs":{"source":"wsxcme","sourceId":"_ds1s1s9lrhOaemM4MYi5xM_bQoUvQyTf0mh4ZoQ","sourceTagId":47003106,"sourceTagName":"塞琳/女包","modelNumber":"104340","dimensions":{"lengthCm":35,"heightCm":18,"widthCm":18},"rawTitle":"CELINE | 新款✨醫生包🎓孙千同款\nDoctor Pouch腋下包\n不管是 all black酷飒风,还是白 Polo休闲感,都能一秒拿捏\n容量超顶,通勤/约会都能装,实用性拉满\n法式慵懒感这不就来了!\n尺寸:35x18x18cm\n款号:104340"},"price":null,"currency":"CNY","moq":1,"category":"celine-women-bags","status":"active","alibaba_url":null,"images":["https://xcimg.szwego.com/img/77bdff09/20260502/i1777701557787_3867_0_0.jpg","https://xcimg.szwego.com/img/77bdff09/20260502/i1777701558605_9091_0_1.jpg","https://xcimg.szwego.com/img/77bdff09/20260502/i1777701557588_5699_0_2.jpg","https://xcimg.szwego.com/img/77bdff09/20260502/i1777701557796_5250_0_3.jpg","https://xcimg.szwego.com/img/77bdff09/20260502/i1777701557591_8427_0_4.jpg","https://xcimg.szwego.com/img/77bdff09/20260502/i1777701558627_1677_0_5.jpg","https://xcimg.szwego.com/img/77bdff09/20260502/i1777701557687_9551_0_6.jpg","https://xcimg.szwego.com/img/77bdff09/20260502/i1777701558523_9550_0_7.jpg"],"created_at":"2026-05-20T03:16:24.646Z"},{"id":"item-d7e88a058d68","sku":"_djjjj-w_RZSVnk86ePzk2UUTagJGAXzq1fMpO4g","name_en":"CELINE |精致女孩的包分享","name_cn":"CELINE |精致女孩的包分享\nNEW Celine Frame盒子包\n造型感十足!\n现货不多先到先得啦~","specs":{"source":"wsxcme","sourceId":"_djjjj-w_RZSVnk86ePzk2UUTagJGAXzq1fMpO4g","sourceTagId":47003106,"sourceTagName":"塞琳/女包","rawTitle":"CELINE |精致女孩的包分享\nNEW Celine Frame盒子包\n造型感十足!\n现货不多先到先得啦~"},"price":null,"currency":"CNY","moq":1,"category":"celine-women-bags","status":"active","alibaba_url":null,"images":["https://xcimg.szwego.com/img/1a8dcad8/20260117/i1768652673868_3581_0_0.jpg","https://xcimg.szwego.com/img/1a8dcad8/20260117/i1768652673868_3041_0_1.jpg","https://xcimg.szwego.com/img/1a8dcad8/20260117/i1768652673870_6073_0_2.jpg","https://xcimg.szwego.com/img/1a8dcad8/20260117/i1768652673868_3999_0_3.jpg","https://xcimg.szwego.com/img/1a8dcad8/20260117/i1768652673868_2037_0_4.jpg","https://xcimg.szwego.com/img/1a8dcad8/20260117/i1768652674232_9418_0_5.jpg"],"created_at":"2026-05-20T03:16:24.556Z"},{"id":"item-2daf67d14f1b","sku":"_duKuK2rENxTafZ4JPMiP_l1FWaYsIjUv6Qwk96g","name_en":"CELINE |蓝色HOBO也太好看了吧","name_cn":"CELINE |蓝色HOBO也太好看了吧\n看着就让人心情大好的蓝色hobo~","specs":{"source":"wsxcme","sourceId":"_duKuK2rENxTafZ4JPMiP_l1FWaYsIjUv6Qwk96g","sourceTagId":47003106,"sourceTagName":"塞琳/女包","rawTitle":"CELINE |蓝色HOBO也太好看了吧\n看着就让人心情大好的蓝色hobo~"},"price":null,"currency":"CNY","moq":1,"category":"celine-women-bags","status":"active","alibaba_url":null,"images":["https://xcimg.szwego.com/img/1a8dcad8/20260514/a1778771180066_5564.jpg","https://xcimg.szwego.com/img/1a8dcad8/20260514/a1778771180051_7043.jpg","https://xcimg.szwego.com/img/1a8dcad8/20260514/a1778771180058_6554.jpg","https://xcimg.szwego.com/img/1a8dcad8/20260514/a1778771180051_7717.jpg"],"created_at":"2026-05-20T03:16:24.206Z"},{"id":"item-8a1755408066","sku":"_dwSwSWuZn3TXvJ4oT_shwBwUIHd9TRDZ8KAuhqw","name_en":"CELINE |刘诗诗、孙千","name_cn":"CELINE |刘诗诗、孙千\n当然啦~新款包包Samll Hobo","specs":{"source":"wsxcme","sourceId":"_dwSwSWuZn3TXvJ4oT_shwBwUIHd9TRDZ8KAuhqw","sourceTagId":47003106,"sourceTagName":"塞琳/女包","rawTitle":"CELINE |刘诗诗、孙千\n当然啦~新款包包Samll Hobo"},"price":null,"currency":"CNY","moq":1,"category":"celine-women-bags","status":"active","alibaba_url":null,"images":["https://xcimg.szwego.com/img/1a8dcad8/20260514/a1778771518736_7322.jpg","https://xcimg.szwego.com/img/1a8dcad8/20260514/a1778771518745_4750.jpg","https://xcimg.szwego.com/img/1a8dcad8/20260514/a1778771518778_7276.jpg"],"created_at":"2026-05-20T03:16:24.236Z"},{"id":"item-a3ebee5c9392","sku":"_dwfwflVfgaUv7Fhpnjvys2Usu5STU1fnHD4U_pA","name_en":"CELINE 24ss|TEEN LOLA 编织手袋","name_cn":"CELINE 24ss|TEEN LOLA 编织手袋\n惊艳了时光⏳来自CELINE TEEN LOLA\n将60年代复古风格推到极致、惊艳亮相✨\n恰到好处的精致感、又兼顾到了容量需求\n-标志性老花元素\n秋冬衣橱必备的搭配元素、old money即视感get✔️\n-20x11.5x5cm\n-超长肩带57cm\n单肩、斜挎、手拎都可 堪称造型王者💯\n-凯旋门标志五金+TRIOMPHE按扣+可拆卸调节肩带 搭配多种背法\n颜色: 编织棕\n型号:119533","specs":{"source":"wsxcme","sourceId":"_dwfwflVfgaUv7Fhpnjvys2Usu5STU1fnHD4U_pA","sourceTagId":47003106,"sourceTagName":"塞琳/女包","modelNumber":"119533","rawTitle":"CELINE 24ss|TEEN LOLA 编织手袋\n惊艳了时光⏳来自CELINE TEEN LOLA\n将60年代复古风格推到极致、惊艳亮相✨\n恰到好处的精致感、又兼顾到了容量需求\n-标志性老花元素\n秋冬衣橱必备的搭配元素、old money即视感get✔️\n-20x11.5x5cm\n-超长肩带57cm\n单肩、斜挎、手拎都可 堪称造型王者💯\n-凯旋门标志五金+TRIOMPHE按扣+可拆卸调节肩带 搭配多种背法\n颜色: 编织棕\n型号:119533"},"price":null,"currency":"CNY","moq":1,"category":"celine-women-bags","status":"active","alibaba_url":null,"images":["https://xcimg.szwego.com/img/1a8dcad8/20250626/a1750915952059_2381.jpg","https://xcimg.szwego.com/img/1a8dcad8/20250626/a1750915953312_3047.jpg","https://xcimg.szwego.com/img/1a8dcad8/20250626/a1750915952402_7801.jpg","https://xcimg.szwego.com/img/1a8dcad8/20250626/a1750915952145_1286.jpg","https://xcimg.szwego.com/img/1a8dcad8/20250626/a1750915952451_8114.jpg","https://xcimg.szwego.com/img/1a8dcad8/20250626/a1750915952057_0670.jpg","https://xcimg.szwego.com/img/1a8dcad8/20250626/a1750915952194_6800.jpg","https://xcimg.szwego.com/img/1a8dcad8/20250626/a1750915953287_8770.jpg"],"created_at":"2026-05-20T03:16:24.296Z"},{"id":"item-916cb0e8bd47","sku":"_dktkt9CVPd3wbLqYKX0EbTiF73sovRtdD8EiQWA","name_en":"CELINE 新款HALFMOON 小号❤️","name_cn":"CELINE 新款HALFMOON 小号❤️\n半月弧形线条\n配上经典Triomphe金扣\n款号:L10373\n尺寸:25x13x5cm","specs":{"source":"wsxcme","sourceId":"_dktkt9CVPd3wbLqYKX0EbTiF73sovRtdD8EiQWA","sourceTagId":47003106,"sourceTagName":"塞琳/女包","modelNumber":"L10373","dimensions":{"lengthCm":25,"heightCm":13,"widthCm":5},"rawTitle":"CELINE 新款HALFMOON 小号❤️\n半月弧形线条\n配上经典Triomphe金扣\n款号:L10373\n尺寸:25x13x5cm"},"price":null,"currency":"CNY","moq":1,"category":"celine-women-bags","status":"active","alibaba_url":null,"images":["https://xcimg.szwego.com/img/f671a590/20260426/a1777182799883_4485.jpg","https://xcimg.szwego.com/img/f671a590/20260426/a1777182799881_1474.jpg","https://xcimg.szwego.com/img/f671a590/20260426/a1777182799992_5738.jpg","https://xcimg.szwego.com/img/f671a590/20260426/a1777182800055_4752.jpg","https://xcimg.szwego.com/img/f671a590/20260426/a1777182799875_3034.jpg","https://xcimg.szwego.com/img/f671a590/20260426/a1777182802009_0212.jpg","https://xcimg.szwego.com/img/f671a590/20260426/a1777182801990_0284.jpg","https://xcimg.szwego.com/img/f671a590/20260426/a1777182802007_1177.jpg","https://xcimg.szwego.com/img/f671a590/20260426/a1777182802056_1670.jpg"],"created_at":"2026-05-20T03:16:23.826Z"},{"id":"item-e83fbb7f2a2e","sku":"_dlklkzy4WJSEBsCHoe4xGXqiBwUbDVj2zeY3Ycw","name_en":"Celine clara植物材料和牛皮革经典提篮包黄褐色","name_cn":"Celine clara植物材料和牛皮革经典提篮包黄褐色\n植物材料,牛皮革包边无衬里金色饰面\n手提、肩背和斜挎抽绳皮革系带\n1个皮革提手长4英寸(9厘米)\n1条可拆卸和可调节肩带,最小长度17英寸(47厘米),最大长度20英寸(53厘米)\n款号:116882编织\n尺寸:23x25x20","specs":{"source":"wsxcme","sourceId":"_dlklkzy4WJSEBsCHoe4xGXqiBwUbDVj2zeY3Ycw","sourceTagId":47003106,"sourceTagName":"塞琳/女包","modelNumber":"116882编织","rawTitle":"Celine clara植物材料和牛皮革经典提篮包黄褐色\n植物材料,牛皮革包边无衬里金色饰面\n手提、肩背和斜挎抽绳皮革系带\n1个皮革提手长4英寸(9厘米)\n1条可拆卸和可调节肩带,最小长度17英寸(47厘米),最大长度20英寸(53厘米)\n款号:116882编织\n尺寸:23x25x20"},"price":null,"currency":"CNY","moq":1,"category":"celine-women-bags","status":"active","alibaba_url":null,"images":["https://xcimg.szwego.com/img/1a8dcad8/20250820/a1755621408876_7026.jpg","https://xcimg.szwego.com/img/1a8dcad8/20250820/a1755621408880_5723.jpg","https://xcimg.szwego.com/img/1a8dcad8/20250820/a1755621408855_5546.jpg","https://xcimg.szwego.com/img/1a8dcad8/20250820/a1755621408887_8080.jpg","https://xcimg.szwego.com/img/1a8dcad8/20250820/a1755621408898_1257.jpg","https://xcimg.szwego.com/img/1a8dcad8/20250820/a1755621408864_0624.jpg","https://xcimg.szwego.com/img/1a8dcad8/20250820/a1755621410896_3211.jpg","https://xcimg.szwego.com/img/1a8dcad8/20250820/a1755621410881_1417.jpg"],"created_at":"2026-05-20T03:16:24.276Z"},{"id":"item-db3e369aa593","sku":"_d8585iGLZ16pGgmjVWmejmjkk6ODUUZzPlEMFyw","name_en":"CELINE DOCTOR POUCH","name_cn":"CELINE DOCTOR POUCH\n大容量腋下医生包🤎","specs":{"source":"wsxcme","sourceId":"_d8585iGLZ16pGgmjVWmejmjkk6ODUUZzPlEMFyw","sourceTagId":47003106,"sourceTagName":"塞琳/女包","rawTitle":"CELINE DOCTOR POUCH\n大容量腋下医生包🤎"},"price":null,"currency":"CNY","moq":1,"category":"celine-women-bags","status":"active","alibaba_url":null,"images":["https://xcimg.szwego.com/img/77bdff09/20260501/i1777619729794_4313_0_0.jpg","https://xcimg.szwego.com/img/77bdff09/20260501/i1777619729794_3376_0_1.jpg","https://xcimg.szwego.com/img/77bdff09/20260501/i1777619729794_2664_0_2.jpg","https://xcimg.szwego.com/img/77bdff09/20260501/i1777619729794_2606_0_3.jpg","https://xcimg.szwego.com/img/77bdff09/20260501/i1777619729845_1290_0_4.jpg","https://xcimg.szwego.com/img/77bdff09/20260501/i1777619730714_7569_0_5.jpg"],"created_at":"2026-05-20T03:16:24.676Z"},{"id":"item-838c4f0c7481","sku":"_dqhqhSqk36UrvEEVVvERRrJWd_M6R2zbAtsUY0A","name_en":"CELINE FOLCO 秋冬新品","name_cn":"CELINE FOLCO 秋冬新品  \n延续凯旋门  复古斜挎  耐看经典印花一点都不老套  还带着轻巧小俏皮  耐装耐磨 象征性的 结构简约 肩带长度可调节 \n款号:191502老花棕\n尺寸:18*17*6.5cm(配原版盒子)","specs":{"source":"wsxcme","sourceId":"_dqhqhSqk36UrvEEVVvERRrJWd_M6R2zbAtsUY0A","sourceTagId":47003106,"sourceTagName":"塞琳/女包","modelNumber":"191502老花棕","dimensions":{"lengthCm":18,"heightCm":17,"widthCm":6.5},"rawTitle":"CELINE FOLCO 秋冬新品  \n延续凯旋门  复古斜挎  耐看经典印花一点都不老套  还带着轻巧小俏皮  耐装耐磨 象征性的 结构简约 肩带长度可调节 \n款号:191502老花棕\n尺寸:18*17*6.5cm(配原版盒子)"},"price":null,"currency":"CNY","moq":1,"category":"celine-women-bags","status":"active","alibaba_url":null,"images":["https://xcimg.szwego.com/20220805/i1659674292_4463_0.jpg","https://xcimg.szwego.com/20220805/i1659674292_1952_1.jpg","https://xcimg.szwego.com/20220805/i1659674292_5001_2.jpg","https://xcimg.szwego.com/20220805/i1659674292_1046_3.jpg","https://xcimg.szwego.com/20220805/i1659674292_6849_4.jpg","https://xcimg.szwego.com/20220805/i1659674292_3293_5.jpg","https://xcimg.szwego.com/20220805/i1659674292_8539_6.jpg","https://xcimg.szwego.com/20220805/i1659674292_3153_7.jpg","https://xcimg.szwego.com/20220805/i1659674292_3087_8.jpg"],"created_at":"2024-10-25T09:06:03.495Z"},{"id":"item-303cd0d78b7b","sku":"_drhrhd8iSQpqbdDqZ5hZG4dWZpWGkZ__XHlQZ2A","name_en":"CELINE FOLCO 秋冬新品  延续凯旋门  复古斜挎  耐看经典印花一点都不老套  还带着轻巧小俏皮  耐装耐磨 象征性的 结构简约 肩带长度可调节","name_cn":"CELINE FOLCO 秋冬新品  延续凯旋门  复古斜挎  耐看经典印花一点都不老套  还带着轻巧小俏皮  耐装耐磨 象征性的 结构简约 肩带长度可调节 \n款号:191502老花白🌱\n尺寸:18*17*6.5cm配原版盒子)","specs":{"source":"wsxcme","sourceId":"_drhrhd8iSQpqbdDqZ5hZG4dWZpWGkZ__XHlQZ2A","sourceTagId":47003106,"sourceTagName":"塞琳/女包","modelNumber":"191502老花白🌱","dimensions":{"lengthCm":18,"heightCm":17,"widthCm":6.5},"rawTitle":"CELINE FOLCO 秋冬新品  延续凯旋门  复古斜挎  耐看经典印花一点都不老套  还带着轻巧小俏皮  耐装耐磨 象征性的 结构简约 肩带长度可调节 \n款号:191502老花白🌱\n尺寸:18*17*6.5cm配原版盒子)"},"price":null,"currency":"CNY","moq":1,"category":"celine-women-bags","status":"active","alibaba_url":null,"images":["https://xcimg.szwego.com/20220805/i1659674228_9912_0.jpg","https://xcimg.szwego.com/20220805/i1659674228_1319_1.jpg","https://xcimg.szwego.com/20220805/i1659674228_7189_2.jpg","https://xcimg.szwego.com/20220805/i1659674228_2361_3.jpg","https://xcimg.szwego.com/20220805/i1659674228_1226_4.jpg","https://xcimg.szwego.com/20220805/i1659674228_9918_5.jpg","https://xcimg.szwego.com/20220805/i1659674931_6459_0.jpg","https://xcimg.szwego.com/20220805/i1659674228_6326_6.jpg","https://xcimg.szwego.com/20220805/i1659674228_275_7.jpg"],"created_at":"2024-10-25T09:06:03.494Z"},{"id":"item-0cae39781e62","sku":"_dlBlBeVPBXVMEER24zEXEaT0wCpUaZzVg2kSLvg","name_en":"CELINE NEW BAG「包好看的!","name_cn":"CELINE NEW BAG「包好看的!\n有特别的\n有季节性的\n有经典百搭的\n有稀有独特的\n有你喜欢的","specs":{"source":"wsxcme","sourceId":"_dlBlBeVPBXVMEER24zEXEaT0wCpUaZzVg2kSLvg","sourceTagId":47003106,"sourceTagName":"塞琳/女包","rawTitle":"CELINE NEW BAG「包好看的!\n有特别的\n有季节性的\n有经典百搭的\n有稀有独特的\n有你喜欢的"},"price":null,"currency":"CNY","moq":1,"category":"celine-women-bags","status":"active","alibaba_url":null,"images":["https://xcimg.szwego.com/img/1a8dcad8/20250829/a1756406211472_8115.jpg","https://xcimg.szwego.com/img/1a8dcad8/20250829/a1756406211569_1047.jpg","https://xcimg.szwego.com/img/1a8dcad8/20250829/a1756406211539_0433.jpg","https://xcimg.szwego.com/img/1a8dcad8/20250829/a1756406211540_4724.jpg"],"created_at":"2026-05-20T03:16:24.446Z"},{"id":"item-ffe4f65f2805","sku":"_du0u0jXwyxfaONVIMUWaDnqfoP2EOlV6Rlp-Jdg","name_en":"Celine Women Bags","name_cn":"正品级\n新品上线🅰️🅰️ CE新款 小号HELOISE HOBO 腋下包 必入系列!圆润流畅的弧线型包身 一眼看上去甚至有点像大家熟悉的AVA 的加大版 ~ 不得不说 Celine 一出手 就知有没有🫡 这款大HoBo 整体给人感觉非常法式慵懒且随性. 经典的色系搭配 时髦洋气不易过时 . 包包容量可️满足短途出差或者日常出勤 ,非常实用!\n款号:117253\n颜色:料/黄褐棕\n尺寸:23x17x21","specs":{"source":"wsxcme","sourceId":"_du0u0jXwyxfaONVIMUWaDnqfoP2EOlV6Rlp-Jdg","sourceTagId":47003106,"sourceTagName":"塞琳/女包","modelNumber":"117253","rawTitle":"正品级\n新品上线🅰️🅰️ CE新款 小号HELOISE HOBO 腋下包 必入系列!圆润流畅的弧线型包身 一眼看上去甚至有点像大家熟悉的AVA 的加大版 ~ 不得不说 Celine 一出手 就知有没有🫡 这款大HoBo 整体给人感觉非常法式慵懒且随性. 经典的色系搭配 时髦洋气不易过时 . 包包容量可️满足短途出差或者日常出勤 ,非常实用!\n款号:117253\n颜色:料/黄褐棕\n尺寸:23x17x21"},"price":null,"currency":"CNY","moq":1,"category":"celine-women-bags","status":"active","alibaba_url":null,"images":["https://xcimg.szwego.com/img/d9cd8092/20240530/i1717072564_5218_0.jpg","https://xcimg.szwego.com/img/d9cd8092/20240530/i1717072564_1054_6.jpg","https://xcimg.szwego.com/img/d9cd8092/20240530/i1717072564_8476_2.jpg","https://xcimg.szwego.com/img/d9cd8092/20240530/i1717072564_7490_1.jpg","https://xcimg.szwego.com/img/d9cd8092/20240530/i1717072564_6343_5.jpg","https://xcimg.szwego.com/img/d9cd8092/20240530/i1717072564_2558_3.jpg","https://xcimg.szwego.com/img/d9cd8092/20240530/i1717072564_6717_4.jpg","https://xcimg.szwego.com/img/d9cd8092/20240530/i1717072564_2589_7.jpg","https://xcimg.szwego.com/img/d9cd8092/20240530/i1717072564_8555_8.jpg"],"created_at":"2024-09-27T07:01:01.490Z"},{"id":"item-ff0482708a8a","sku":"_dgNgNWyi0uc-LxrFKq-MVAqFyMqSMzLrRZ21bGQ","name_en":"Celine Women Bags","name_cn":"新品上线🅰️🅰️\nCE新品织物托特~科技感logo印花,低调高级!柔软织物的材料,增加随性洒脱的味道。可️手提可️斜挎!托特跟水桶绝对是容量上的王者,上班族或者日常出门东西多的小仙女可以选这款!!️\n\n搭配上:百搭气质款,通勤上班,休闲随性风,文艺小清新,森女系都很可️\n\n容量:容量不用质疑,妥妥抵👍\n\n款号:199162 \n尺寸:26×19×13","specs":{"source":"wsxcme","sourceId":"_dgNgNWyi0uc-LxrFKq-MVAqFyMqSMzLrRZ21bGQ","sourceTagId":47003106,"sourceTagName":"塞琳/女包","modelNumber":"199162","rawTitle":"新品上线🅰️🅰️\nCE新品织物托特~科技感logo印花,低调高级!柔软织物的材料,增加随性洒脱的味道。可️手提可️斜挎!托特跟水桶绝对是容量上的王者,上班族或者日常出门东西多的小仙女可以选这款!!️\n\n搭配上:百搭气质款,通勤上班,休闲随性风,文艺小清新,森女系都很可️\n\n容量:容量不用质疑,妥妥抵👍\n\n款号:199162 \n尺寸:26×19×13"},"price":null,"currency":"CNY","moq":1,"category":"celine-women-bags","status":"active","alibaba_url":null,"images":["https://xcimg.szwego.com/img/1a8dcad8/20231003/i1696333692_5763_0.jpg","https://xcimg.szwego.com/img/1a8dcad8/20231003/i1696333692_3142_1.jpg","https://xcimg.szwego.com/img/1a8dcad8/20231003/i1696333692_7466_2.jpg","https://xcimg.szwego.com/img/1a8dcad8/20231003/i1696333692_7948_3.jpg","https://xcimg.szwego.com/img/1a8dcad8/20231003/i1696333692_8526_4.jpg","https://xcimg.szwego.com/img/1a8dcad8/20231003/i1696333692_7929_5.jpg","https://xcimg.szwego.com/img/1a8dcad8/20231003/i1696333692_262_6.jpg","https://xcimg.szwego.com/img/1a8dcad8/20231003/i1696333692_5562_7.jpg"],"created_at":"2026-06-29T11:25:41.881Z"},{"id":"item-fe9eb5dd2020","sku":"_d9f9fLi44OpNm8NuMWG9Db3HTBT0LpPoG9riTaQ","name_en":"Celine Women Bags","name_cn":"赛琳马鞍包老花•头层\nlisa最爱马鞍包\n穿搭王者款❤️\n采用头层牛皮\n更新官网新版本💥\n尺寸:18.5×17×8cm","specs":{"source":"wsxcme","sourceId":"_d9f9fLi44OpNm8NuMWG9Db3HTBT0LpPoG9riTaQ","sourceTagId":47003106,"sourceTagName":"塞琳/女包","dimensions":{"lengthCm":18.5,"heightCm":17,"widthCm":8},"rawTitle":"赛琳马鞍包老花•头层\nlisa最爱马鞍包\n穿搭王者款❤️\n采用头层牛皮\n更新官网新版本💥\n尺寸:18.5×17×8cm"},"price":null,"currency":"CNY","moq":1,"category":"celine-women-bags","status":"active","alibaba_url":null,"images":["https://xcimg.szwego.com/20231012/i1697097524_8736_0.jpg","https://xcimg.szwego.com/20231012/i1697097524_6529_5.jpg","https://xcimg.szwego.com/20231012/i1697097524_2780_8.jpg","https://xcimg.szwego.com/20231012/i1697097524_5135_2.jpg","https://xcimg.szwego.com/20231012/i1697097524_1314_6.jpg","https://xcimg.szwego.com/20231012/i1697097524_8554_4.jpg","https://xcimg.szwego.com/20231012/i1697097524_3933_1.jpg","https://xcimg.szwego.com/20231012/i1697097524_788_3.jpg","https://xcimg.szwego.com/20231012/i1697097524_6387_7.jpg"],"created_at":"2025-02-08T12:47:15.788Z"},{"id":"item-fe41c650c146","sku":"_dtitiEx7gokM7ohUFpp_XQf-_mJphCXJIuBEFgQ","name_en":"Celine Women Bags","name_cn":"小小的包大大的精致🥰","specs":{"source":"wsxcme","sourceId":"_dtitiEx7gokM7ohUFpp_XQf-_mJphCXJIuBEFgQ","sourceTagId":47003106,"sourceTagName":"塞琳/女包","rawTitle":"小小的包大大的精致🥰"},"price":null,"currency":"CNY","moq":1,"category":"celine-women-bags","status":"active","alibaba_url":null,"images":["https://xcimg.szwego.com/img/1a8dcad8/20250713/a1752339496094_0172.jpg","https://xcimg.szwego.com/img/1a8dcad8/20250713/a1752339496237_3625.jpg","https://xcimg.szwego.com/img/1a8dcad8/20250713/a1752339496232_0268.jpg","https://xcimg.szwego.com/img/1a8dcad8/20250713/a1752339496215_2403.jpg","https://xcimg.szwego.com/img/1a8dcad8/20250713/a1752339496216_0521.jpg","https://xcimg.szwego.com/img/1a8dcad8/20250713/a1752339496213_2227.jpg"],"created_at":"2026-05-20T03:16:24.336Z"}],"page":13,"pageSize":24,"total":582,"totalPages":25}
