{"items":[{"id":"item-da48132395c7","sku":"_dqVqVDZyEfuwx9UJcXoE4LzPfYaAwBJT77epUEg","name_en":"celine夏日包包选哪个","name_cn":"celine夏日包包选哪个\n感觉还是草编包比较夏天!","specs":{"source":"wsxcme","sourceId":"_dqVqVDZyEfuwx9UJcXoE4LzPfYaAwBJT77epUEg","sourceTagId":47003106,"sourceTagName":"塞琳/女包","rawTitle":"celine夏日包包选哪个\n感觉还是草编包比较夏天!"},"price":null,"currency":"CNY","moq":1,"category":"celine-women-bags","status":"active","alibaba_url":null,"images":["https://xcimg.szwego.com/20220409/i1649434735_1389_0.jpg","https://xcimg.szwego.com/20220409/i1649434735_3535_1.jpg","https://xcimg.szwego.com/20220409/i1649434735_4864_2.jpg","https://xcimg.szwego.com/20220409/i1649434735_341_3.jpg"],"created_at":"2026-05-20T03:16:24.256Z"},{"id":"item-e63e66911253","sku":"_dm2m2cebv-kqmj_nYoeF8I9bW3lhV_BY-WPzyOQ","name_en":"CELINE夏天的颜色☁️","name_cn":"CELINE夏天的颜色☁️\n马卡龙颜色来咯~\n太夏天咯~","specs":{"source":"wsxcme","sourceId":"_dm2m2cebv-kqmj_nYoeF8I9bW3lhV_BY-WPzyOQ","sourceTagId":47003106,"sourceTagName":"塞琳/女包","rawTitle":"CELINE夏天的颜色☁️\n马卡龙颜色来咯~\n太夏天咯~"},"price":null,"currency":"CNY","moq":1,"category":"celine-women-bags","status":"active","alibaba_url":null,"images":["https://xcimg.szwego.com/img/77bdff09/20260430/i1777515469268_4499_0_0.jpg","https://xcimg.szwego.com/img/77bdff09/20260430/i1777515469316_1914_0_1.jpg","https://xcimg.szwego.com/img/77bdff09/20260430/i1777515469157_6615_0_2.jpg"],"created_at":"2026-05-20T03:16:24.606Z"},{"id":"item-6118172dec62","sku":"_dzCzC0fBk07wLkv5HxGH-Q-cT9r-TNyQUk_6Dvw","name_en":"Celine笑脸包New Luggage回归目前有红黄白黑四个颜色","name_cn":"Celine笑脸包New Luggage回归目前有红黄白黑四个颜色\n尺寸0.5*31.5*44.5CM\n牛皮材质内里是麂皮","specs":{"source":"wsxcme","sourceId":"_dzCzC0fBk07wLkv5HxGH-Q-cT9r-TNyQUk_6Dvw","sourceTagId":47003106,"sourceTagName":"塞琳/女包","dimensions":{"lengthCm":0.5,"heightCm":31.5,"widthCm":44.5},"rawTitle":"Celine笑脸包New Luggage回归目前有红黄白黑四个颜色\n尺寸0.5*31.5*44.5CM\n牛皮材质内里是麂皮"},"price":null,"currency":"CNY","moq":1,"category":"celine-women-bags","status":"active","alibaba_url":null,"images":["https://xcimg.szwego.com/img/1a8dcad8/20251206/a1765010037875_0647.jpg","https://xcimg.szwego.com/img/1a8dcad8/20251206/a1765010038046_2730.jpg","https://xcimg.szwego.com/img/1a8dcad8/20251206/a1765010038109_2838.jpg","https://xcimg.szwego.com/img/1a8dcad8/20251206/a1765010038056_5423.jpg","https://xcimg.szwego.com/img/1a8dcad8/20251206/a1765010037981_6171.jpg"],"created_at":"2026-06-29T11:25:41.841Z"},{"id":"item-fec8fb3afebf","sku":"_d8j8jAETRAbIVvOr45cf64EwnVoX1rJctLPoT8A","name_en":"CELINE新款Teen Hobo","name_cn":"CELINE新款Teen Hobo\n尺寸:18x31x6 cm\n附一个小零钱包 11×8cm\n肩带长度:最大43.5CM最小35CM\n功能性💯手提或斜挎\n按扣&内置可拆卸拉链包\n型号:110113 (配原版包装)","specs":{"source":"wsxcme","sourceId":"_d8j8jAETRAbIVvOr45cf64EwnVoX1rJctLPoT8A","sourceTagId":47003106,"sourceTagName":"塞琳/女包","modelNumber":"110113 (配原版包装)","dimensions":{"lengthCm":18,"heightCm":31,"widthCm":6},"rawTitle":"CELINE新款Teen Hobo\n尺寸:18x31x6 cm\n附一个小零钱包 11×8cm\n肩带长度:最大43.5CM最小35CM\n功能性💯手提或斜挎\n按扣&内置可拆卸拉链包\n型号:110113 (配原版包装)"},"price":null,"currency":"CNY","moq":1,"category":"celine-women-bags","status":"active","alibaba_url":null,"images":["https://xcimg.szwego.com/img/1a8dcad8/20260514/a1778770978690_5517.jpg","https://xcimg.szwego.com/img/1a8dcad8/20260514/a1778770978646_7522.jpg","https://xcimg.szwego.com/img/1a8dcad8/20260514/a1778770978730_7173.jpg","https://xcimg.szwego.com/img/1a8dcad8/20260514/a1778770978911_4724.jpg","https://xcimg.szwego.com/img/1a8dcad8/20260514/a1778770979460_7384.jpg","https://xcimg.szwego.com/img/1a8dcad8/20260514/a1778770983506_2655.jpg","https://xcimg.szwego.com/img/1a8dcad8/20260514/a1778770984076_0488.jpg","https://xcimg.szwego.com/img/1a8dcad8/20260514/a1778770983425_8706.jpg"],"created_at":"2026-05-20T03:16:24.186Z"},{"id":"item-93c20cc7a4e7","sku":"_drLrLbYqha4Rq6b9swCR5n4wdGdljqpwDENo7xg","name_en":"CELINE新款Teen Hobo","name_cn":"CELINE新款Teen Hobo\n尺寸:18x31x6 cm\n附一个小零钱包 11×8cm\n肩带长度:最大43.5CM最小35CM\n功能性💯手提或斜挎\n按扣&内置可拆卸拉链包\n型号:110113 (配原版包装)","specs":{"source":"wsxcme","sourceId":"_drLrLbYqha4Rq6b9swCR5n4wdGdljqpwDENo7xg","sourceTagId":47003106,"sourceTagName":"塞琳/女包","modelNumber":"110113 (配原版包装)","dimensions":{"lengthCm":18,"heightCm":31,"widthCm":6},"rawTitle":"CELINE新款Teen Hobo\n尺寸:18x31x6 cm\n附一个小零钱包 11×8cm\n肩带长度:最大43.5CM最小35CM\n功能性💯手提或斜挎\n按扣&内置可拆卸拉链包\n型号:110113 (配原版包装)"},"price":null,"currency":"CNY","moq":1,"category":"celine-women-bags","status":"active","alibaba_url":null,"images":["https://xcimg.szwego.com/img/1a8dcad8/20260514/a1778770926665_0182.jpg","https://xcimg.szwego.com/img/1a8dcad8/20260514/a1778770926253_8476.jpg","https://xcimg.szwego.com/img/1a8dcad8/20260514/a1778770926433_3002.jpg","https://xcimg.szwego.com/img/1a8dcad8/20260514/a1778770926234_1556.jpg","https://xcimg.szwego.com/img/1a8dcad8/20260514/a1778770926375_4864.jpg","https://xcimg.szwego.com/img/1a8dcad8/20260514/a1778770929764_6346.jpg","https://xcimg.szwego.com/img/1a8dcad8/20260514/a1778770928731_6564.jpg","https://xcimg.szwego.com/img/1a8dcad8/20260514/a1778770928811_1846.jpg"],"created_at":"2026-05-20T03:16:24.166Z"},{"id":"item-550744ea8e99","sku":"_dkokozH3OW0iJE61jC62x5fgXUP0Zk4l75xJx_w","name_en":"CELINE新款Teen Hobo","name_cn":"CELINE新款Teen Hobo\n尺寸:18x31x6 cm\n附一个小零钱包 11×8cm\n肩带长度:最大43.5CM最小35CM\n功能性💯手提或斜挎\n按扣&内置可拆卸拉链包\n型号:110113 (配原版包装)","specs":{"source":"wsxcme","sourceId":"_dkokozH3OW0iJE61jC62x5fgXUP0Zk4l75xJx_w","sourceTagId":47003106,"sourceTagName":"塞琳/女包","modelNumber":"110113 (配原版包装)","dimensions":{"lengthCm":18,"heightCm":31,"widthCm":6},"rawTitle":"CELINE新款Teen Hobo\n尺寸:18x31x6 cm\n附一个小零钱包 11×8cm\n肩带长度:最大43.5CM最小35CM\n功能性💯手提或斜挎\n按扣&内置可拆卸拉链包\n型号:110113 (配原版包装)"},"price":null,"currency":"CNY","moq":1,"category":"celine-women-bags","status":"active","alibaba_url":null,"images":["https://xcimg.szwego.com/img/1a8dcad8/20260514/a1778770960254_0862.jpg","https://xcimg.szwego.com/img/1a8dcad8/20260514/a1778770959902_7861.jpg","https://xcimg.szwego.com/img/1a8dcad8/20260514/a1778770960211_1621.jpg","https://xcimg.szwego.com/img/1a8dcad8/20260514/a1778770960140_5278.jpg","https://xcimg.szwego.com/img/1a8dcad8/20260514/a1778770959880_6418.jpg","https://xcimg.szwego.com/img/1a8dcad8/20260514/a1778770961910_0244.jpg","https://xcimg.szwego.com/img/1a8dcad8/20260514/a1778770961819_3148.jpg","https://xcimg.szwego.com/img/1a8dcad8/20260514/a1778770961923_7532.jpg"],"created_at":"2026-05-20T03:16:24.176Z"},{"id":"item-26b188da1727","sku":"_dckckRULIXuCeOJPtrsLfu-JiVufy78OS-XAehw","name_en":"CELINE新款Teen Hobo","name_cn":"CELINE新款Teen Hobo\n尺寸:18x31x6 cm\n附一个小零钱包 11×8cm\n肩带长度:最大43.5CM最小35CM\n功能性💯手提或斜挎\n按扣&内置可拆卸拉链包\n型号:110113 (配原版包装)","specs":{"source":"wsxcme","sourceId":"_dckckRULIXuCeOJPtrsLfu-JiVufy78OS-XAehw","sourceTagId":47003106,"sourceTagName":"塞琳/女包","modelNumber":"110113 (配原版包装)","dimensions":{"lengthCm":18,"heightCm":31,"widthCm":6},"rawTitle":"CELINE新款Teen Hobo\n尺寸:18x31x6 cm\n附一个小零钱包 11×8cm\n肩带长度:最大43.5CM最小35CM\n功能性💯手提或斜挎\n按扣&内置可拆卸拉链包\n型号:110113 (配原版包装)"},"price":null,"currency":"CNY","moq":1,"category":"celine-women-bags","status":"active","alibaba_url":null,"images":["https://xcimg.szwego.com/img/1a8dcad8/20260514/a1778770868710_2455.jpg","https://xcimg.szwego.com/img/1a8dcad8/20260514/a1778770868627_6326.jpg","https://xcimg.szwego.com/img/1a8dcad8/20260514/a1778770868653_6440.jpg","https://xcimg.szwego.com/img/1a8dcad8/20260514/a1778770868627_4538.jpg","https://xcimg.szwego.com/img/1a8dcad8/20260514/a1778770870353_3876.jpg","https://xcimg.szwego.com/img/1a8dcad8/20260514/a1778770870705_8052.jpg","https://xcimg.szwego.com/img/1a8dcad8/20260514/a1778770870730_2748.jpg","https://xcimg.szwego.com/img/1a8dcad8/20260514/a1778770870253_7468.jpg"],"created_at":"2026-05-20T03:16:24.156Z"},{"id":"item-f2f6fba07ce7","sku":"_dhghgf9iatQWzO5RK_0rWLCTwl0v0BdWh8pkFCA","name_en":"CELINE新款Teen Hobo🎨","name_cn":"CELINE新款Teen Hobo🎨\n✍🏻尺寸:18x31x6 cm\n附一个小零钱包 11×8cm\n肩带长度:最大43.5CM/最小35CM\n功能性💯手提或斜挎\n按扣&内置可拆卸拉链包\n型号:L10133","specs":{"source":"wsxcme","sourceId":"_dhghgf9iatQWzO5RK_0rWLCTwl0v0BdWh8pkFCA","sourceTagId":47003106,"sourceTagName":"塞琳/女包","modelNumber":"L10133","dimensions":{"lengthCm":18,"heightCm":31,"widthCm":6},"rawTitle":"CELINE新款Teen Hobo🎨\n✍🏻尺寸:18x31x6 cm\n附一个小零钱包 11×8cm\n肩带长度:最大43.5CM/最小35CM\n功能性💯手提或斜挎\n按扣&内置可拆卸拉链包\n型号:L10133"},"price":null,"currency":"CNY","moq":1,"category":"celine-women-bags","status":"active","alibaba_url":null,"images":["https://xcimg.szwego.com/img/f671a590/20260425/a1777131050303_6024.jpg","https://xcimg.szwego.com/img/f671a590/20260425/a1777131049874_6016.jpg","https://xcimg.szwego.com/img/f671a590/20260425/a1777131049958_8247.jpg","https://xcimg.szwego.com/img/f671a590/20260425/a1777131049914_1712.jpg","https://xcimg.szwego.com/img/f671a590/20260425/a1777131050919_7837.jpg","https://xcimg.szwego.com/img/f671a590/20260425/a1777131052406_0872.jpg","https://xcimg.szwego.com/img/f671a590/20260425/a1777131052617_7162.jpg","https://xcimg.szwego.com/img/f671a590/20260425/a1777131052053_4420.jpg","https://xcimg.szwego.com/img/f671a590/20260425/a1777131052139_1702.jpg","https://xcimg.szwego.com/img/f671a590/20260425/a1777131052144_6617.jpg"],"created_at":"2026-05-20T03:16:23.746Z"},{"id":"item-5e2091b5aaed","sku":"_dnpnpljaHJpvOJp6IFBSKhB72RxcIqMh_EvfJDg","name_en":"CELINE新款Teen Hobo🎨","name_cn":"CELINE新款Teen Hobo🎨\n✍🏻尺寸:18x31x6 cm\n附一个小零钱包 11×8cm\n肩带长度:最大43.5CM/最小35CM\n功能性💯手提或斜挎\n按扣&内置可拆卸拉链包\n型号:L10133","specs":{"source":"wsxcme","sourceId":"_dnpnpljaHJpvOJp6IFBSKhB72RxcIqMh_EvfJDg","sourceTagId":47003106,"sourceTagName":"塞琳/女包","modelNumber":"L10133","dimensions":{"lengthCm":18,"heightCm":31,"widthCm":6},"rawTitle":"CELINE新款Teen Hobo🎨\n✍🏻尺寸:18x31x6 cm\n附一个小零钱包 11×8cm\n肩带长度:最大43.5CM/最小35CM\n功能性💯手提或斜挎\n按扣&内置可拆卸拉链包\n型号:L10133"},"price":null,"currency":"CNY","moq":1,"category":"celine-women-bags","status":"active","alibaba_url":null,"images":["https://xcimg.szwego.com/img/f671a590/20260425/a1777131613170_2852.jpg","https://xcimg.szwego.com/img/f671a590/20260425/a1777131612989_5834.jpg","https://xcimg.szwego.com/img/f671a590/20260425/a1777131613100_1633.jpg","https://xcimg.szwego.com/img/f671a590/20260425/a1777131613161_8028.jpg","https://xcimg.szwego.com/img/f671a590/20260425/a1777131613530_6004.jpg","https://xcimg.szwego.com/img/f671a590/20260425/a1777131614662_4438.jpg","https://xcimg.szwego.com/img/f671a590/20260425/a1777131615170_4843.jpg","https://xcimg.szwego.com/img/f671a590/20260425/a1777131615223_4302.jpg","https://xcimg.szwego.com/img/f671a590/20260425/a1777131615001_1851.jpg","https://xcimg.szwego.com/img/f671a590/20260425/a1777131615061_2202.jpg"],"created_at":"2026-05-20T03:16:23.766Z"},{"id":"item-3cceccc2c27a","sku":"_dA6A6Uo-Q70hSe3sX0SKDS7ohfPOhRXUxMewMrw","name_en":"CELINE新款Teen Hobo🎨","name_cn":"CELINE新款Teen Hobo🎨\n✍🏻尺寸:18x31x6 cm\n附一个小零钱包 11×8cm\n肩带长度:最大43.5CM/最小35CM\n功能性💯手提或斜挎\n按扣&内置可拆卸拉链包\n型号:L10133","specs":{"source":"wsxcme","sourceId":"_dA6A6Uo-Q70hSe3sX0SKDS7ohfPOhRXUxMewMrw","sourceTagId":47003106,"sourceTagName":"塞琳/女包","modelNumber":"L10133","dimensions":{"lengthCm":18,"heightCm":31,"widthCm":6},"rawTitle":"CELINE新款Teen Hobo🎨\n✍🏻尺寸:18x31x6 cm\n附一个小零钱包 11×8cm\n肩带长度:最大43.5CM/最小35CM\n功能性💯手提或斜挎\n按扣&内置可拆卸拉链包\n型号:L10133"},"price":null,"currency":"CNY","moq":1,"category":"celine-women-bags","status":"active","alibaba_url":null,"images":["https://xcimg.szwego.com/img/f671a590/20260425/a1777131969483_6074.jpg","https://xcimg.szwego.com/img/f671a590/20260425/a1777131969631_6832.jpg","https://xcimg.szwego.com/img/f671a590/20260425/a1777131969727_3378.jpg","https://xcimg.szwego.com/img/f671a590/20260425/a1777131969883_0632.jpg","https://xcimg.szwego.com/img/f671a590/20260425/a1777131969796_3520.jpg","https://xcimg.szwego.com/img/f671a590/20260425/a1777131971812_5654.jpg","https://xcimg.szwego.com/img/f671a590/20260425/a1777131971374_1618.jpg","https://xcimg.szwego.com/img/f671a590/20260425/a1777131971739_1734.jpg","https://xcimg.szwego.com/img/f671a590/20260425/a1777131971581_7830.jpg","https://xcimg.szwego.com/img/f671a590/20260425/a1777131971566_8565.jpg","https://xcimg.szwego.com/img/f671a590/20260425/a1777131973234_6841.jpg"],"created_at":"2026-05-20T03:16:23.786Z"},{"id":"item-21b3792c02fb","sku":"_de5e5arSo1wA0RJ4qGC1U4F1pGBu39QU9GbhOmg","name_en":"CELINE新款Teen Hobo🎨","name_cn":"CELINE新款Teen Hobo🎨\n✍🏻尺寸:18x31x6 cm\n附一个小零钱包 11×8cm\n肩带长度:最大43.5CM/最小35CM\n功能性💯手提或斜挎\n按扣&内置可拆卸拉链包\n型号:L10133","specs":{"source":"wsxcme","sourceId":"_de5e5arSo1wA0RJ4qGC1U4F1pGBu39QU9GbhOmg","sourceTagId":47003106,"sourceTagName":"塞琳/女包","modelNumber":"L10133","dimensions":{"lengthCm":18,"heightCm":31,"widthCm":6},"rawTitle":"CELINE新款Teen Hobo🎨\n✍🏻尺寸:18x31x6 cm\n附一个小零钱包 11×8cm\n肩带长度:最大43.5CM/最小35CM\n功能性💯手提或斜挎\n按扣&内置可拆卸拉链包\n型号:L10133"},"price":null,"currency":"CNY","moq":1,"category":"celine-women-bags","status":"active","alibaba_url":null,"images":["https://xcimg.szwego.com/img/f671a590/20260425/a1777132117292_7233.jpg","https://xcimg.szwego.com/img/f671a590/20260425/a1777132116898_4437.jpg","https://xcimg.szwego.com/img/f671a590/20260425/a1777132117340_6156.jpg","https://xcimg.szwego.com/img/f671a590/20260425/a1777132117332_2452.jpg","https://xcimg.szwego.com/img/f671a590/20260425/a1777132117682_7631.jpg","https://xcimg.szwego.com/img/f671a590/20260425/a1777132118903_7733.jpg","https://xcimg.szwego.com/img/f671a590/20260425/a1777132118386_2816.jpg","https://xcimg.szwego.com/img/f671a590/20260425/a1777132119019_2178.jpg","https://xcimg.szwego.com/img/f671a590/20260425/a1777132118746_5018.jpg","https://xcimg.szwego.com/img/f671a590/20260425/a1777132118595_3103.jpg"],"created_at":"2026-05-20T03:16:23.806Z"},{"id":"item-f6ab810d3675","sku":"_dJSJSM7cNXCdJwNJ6JJ4KGaj9bsIbh2q00g6-7w","name_en":"CELINE最新秀款盒子包~","name_cn":"CELINE最新秀款盒子包~\n实物图美美的\n26春夏订货会预定款","specs":{"source":"wsxcme","sourceId":"_dJSJSM7cNXCdJwNJ6JJ4KGaj9bsIbh2q00g6-7w","sourceTagId":47003106,"sourceTagName":"塞琳/女包","rawTitle":"CELINE最新秀款盒子包~\n实物图美美的\n26春夏订货会预定款"},"price":null,"currency":"CNY","moq":1,"category":"celine-women-bags","status":"active","alibaba_url":null,"images":["https://xcimg.szwego.com/img/1a8dcad8/20260117/i1768652600192_8498_0_0.jpg","https://xcimg.szwego.com/img/1a8dcad8/20260117/i1768652600193_7038_0_1.jpg","https://xcimg.szwego.com/img/1a8dcad8/20260117/i1768652600192_1484_0_2.jpg","https://xcimg.szwego.com/img/1a8dcad8/20260117/i1768652600192_5317_0_3.jpg","https://xcimg.szwego.com/img/1a8dcad8/20260117/i1768652600194_9997_0_4.jpg","https://xcimg.szwego.com/img/1a8dcad8/20260117/i1768652600778_857_0_5.jpg"],"created_at":"2026-05-20T03:16:24.546Z"},{"id":"item-52785eb3658d","sku":"_dvjvj3AYV_pPV5aH1u85rqBhga9hgZnU71a74YQ","name_en":"CLARA植物材料和牛皮革经典提篮包","name_cn":"CLARA植物材料和牛皮革经典提篮包\n黄褐色\n植物材料,牛皮革包边\n无衬里\n金色饰面\n手提、肩背和斜挎\n抽绳皮革系带\n1个皮革提手长4英寸(9厘米)\n1条可拆卸和可调节肩带,最小长度17英寸(47厘米),最大长度20英寸(53厘米)\n款号:117862黄褐色\n尺寸:23×25×20(配原版包装)","specs":{"source":"wsxcme","sourceId":"_dvjvj3AYV_pPV5aH1u85rqBhga9hgZnU71a74YQ","sourceTagId":47003106,"sourceTagName":"塞琳/女包","modelNumber":"117862黄褐色","rawTitle":"CLARA植物材料和牛皮革经典提篮包\n黄褐色\n植物材料,牛皮革包边\n无衬里\n金色饰面\n手提、肩背和斜挎\n抽绳皮革系带\n1个皮革提手长4英寸(9厘米)\n1条可拆卸和可调节肩带,最小长度17英寸(47厘米),最大长度20英寸(53厘米)\n款号:117862黄褐色\n尺寸:23×25×20(配原版包装)"},"price":null,"currency":"CNY","moq":1,"category":"celine-women-bags","status":"active","alibaba_url":null,"images":["https://xcimg.szwego.com/img/16355126/20240709/i1720498267_166_0.jpg","https://xcimg.szwego.com/img/16355126/20240709/i1720498267_3607_0.jpg","https://xcimg.szwego.com/img/16355126/20240709/i1720498267_3094_0.jpg","https://xcimg.szwego.com/img/16355126/20240709/i1720498267_1090_0.jpg","https://xcimg.szwego.com/img/16355126/20240709/i1720498267_9865_0.jpg","https://xcimg.szwego.com/img/16355126/20240709/i1720498265_6670_5.jpg","https://xcimg.szwego.com/img/16355126/20240709/i1720498267_3043_0.jpg","https://xcimg.szwego.com/img/16355126/20240709/i1720498267_7874_0.jpg","https://xcimg.szwego.com/img/16355126/20240709/i1720498267_4400_0.jpg"],"created_at":"2025-05-29T13:53:03.056Z"},{"id":"item-f54e1a62d2bd","sku":"_dvvvvoP7fRTS6-Fax7IAdbiQ2foKEZfZV3cx1yA","name_en":"DOCTOR POUCH手袋 💯全钢五金!!️","name_cn":"DOCTOR POUCH手袋 💯全钢五金!!️\n编号:L104J3","specs":{"source":"wsxcme","sourceId":"_dvvvvoP7fRTS6-Fax7IAdbiQ2foKEZfZV3cx1yA","sourceTagId":47003106,"sourceTagName":"塞琳/女包","rawTitle":"DOCTOR POUCH手袋 💯全钢五金!!️\n编号:L104J3"},"price":null,"currency":"CNY","moq":1,"category":"celine-women-bags","status":"active","alibaba_url":null,"images":["https://xcimg.szwego.com/img/34b30588/20260425/i1777057151507_493_0_0.jpg","https://xcimg.szwego.com/img/34b30588/20260425/i1777057151508_3761_0_1.jpg","https://xcimg.szwego.com/img/34b30588/20260425/i1777057151508_7985_0_2.jpg","https://xcimg.szwego.com/img/34b30588/20260425/i1777057151507_384_0_3.jpg"],"created_at":"2026-05-20T03:16:23.986Z"},{"id":"item-b104122575ac","sku":"_d_j_jy8nngv0jjbhY2A4mZUi72h6zbqF4u3fMxw","name_en":"DOCTOR POUCH手袋 💯全钢五金!!️","name_cn":"DOCTOR POUCH手袋 💯全钢五金!!️\n编号:L104J3","specs":{"source":"wsxcme","sourceId":"_d_j_jy8nngv0jjbhY2A4mZUi72h6zbqF4u3fMxw","sourceTagId":47003106,"sourceTagName":"塞琳/女包","rawTitle":"DOCTOR POUCH手袋 💯全钢五金!!️\n编号:L104J3"},"price":null,"currency":"CNY","moq":1,"category":"celine-women-bags","status":"active","alibaba_url":null,"images":["https://xcimg.szwego.com/img/34b30588/20260425/i1777057400781_9642_0_0.jpg","https://xcimg.szwego.com/img/34b30588/20260425/i1777057400781_5803_0_1.jpg","https://xcimg.szwego.com/img/34b30588/20260425/i1777057400777_4316_0_2.jpg","https://xcimg.szwego.com/img/34b30588/20260425/i1777057400779_3643_0_3.jpg","https://xcimg.szwego.com/img/34b30588/20260425/i1777057400780_6488_0_4.jpg"],"created_at":"2026-05-20T03:16:24.016Z"},{"id":"item-ac3857024f06","sku":"_dkXkXGwxddCssFFujHMx_Gghua1bgvREMIlYX0g","name_en":"DOCTOR POUCH手袋 💯全钢五金!!️","name_cn":"DOCTOR POUCH手袋 💯全钢五金!!️\n牛皮革\n牛剖层革衬里\n金色饰面\n手提、肩背\n1个主隔层\n1个内侧扁平口袋\n可拆卸腕带,长度(29厘米)\n尺寸:(35 X 18 X 18厘米)\n编号:L104J3","specs":{"source":"wsxcme","sourceId":"_dkXkXGwxddCssFFujHMx_Gghua1bgvREMIlYX0g","sourceTagId":47003106,"sourceTagName":"塞琳/女包","rawTitle":"DOCTOR POUCH手袋 💯全钢五金!!️\n牛皮革\n牛剖层革衬里\n金色饰面\n手提、肩背\n1个主隔层\n1个内侧扁平口袋\n可拆卸腕带,长度(29厘米)\n尺寸:(35 X 18 X 18厘米)\n编号:L104J3"},"price":null,"currency":"CNY","moq":1,"category":"celine-women-bags","status":"active","alibaba_url":null,"images":["https://xcimg.szwego.com/img/34b30588/20260425/i1777057449430_6619_0_0.jpg","https://xcimg.szwego.com/img/34b30588/20260425/i1777057449416_3327_0_1.jpg","https://xcimg.szwego.com/img/34b30588/20260425/i1777057450655_2677_0_2.jpg","https://xcimg.szwego.com/img/34b30588/20260425/i1777057449437_3866_0_3.jpg","https://xcimg.szwego.com/img/34b30588/20260425/i1777057450672_4135_0_4.jpg","https://xcimg.szwego.com/img/34b30588/20260425/i1777057450630_1551_0_5.jpg","https://xcimg.szwego.com/img/34b30588/20260425/i1777057449496_8293_0_6.jpg","https://xcimg.szwego.com/img/34b30588/20260425/i1777057449474_5489_0_7.jpg","https://xcimg.szwego.com/img/34b30588/20260425/i1777057450678_4885_0_8.jpg"],"created_at":"2026-05-20T03:16:24.026Z"},{"id":"item-6752350c20bb","sku":"_dXtXtwD9sgt0rIwffTUpQLK7IazE6IG1vKY9XBg","name_en":"DOCTOR POUCH手袋 💯全钢五金!!️","name_cn":"DOCTOR POUCH手袋 💯全钢五金!!️\n牛皮革\n牛剖层革衬里\n金色饰面\n手提、肩背\n1个主隔层\n1个内侧扁平口袋\n可拆卸腕带,长度(29厘米)\n尺寸:(35 X 18 X 18厘米)\n编号:L104J3","specs":{"source":"wsxcme","sourceId":"_dXtXtwD9sgt0rIwffTUpQLK7IazE6IG1vKY9XBg","sourceTagId":47003106,"sourceTagName":"塞琳/女包","rawTitle":"DOCTOR POUCH手袋 💯全钢五金!!️\n牛皮革\n牛剖层革衬里\n金色饰面\n手提、肩背\n1个主隔层\n1个内侧扁平口袋\n可拆卸腕带,长度(29厘米)\n尺寸:(35 X 18 X 18厘米)\n编号:L104J3"},"price":null,"currency":"CNY","moq":1,"category":"celine-women-bags","status":"active","alibaba_url":null,"images":["https://xcimg.szwego.com/img/34b30588/20260425/i1777057486343_2708_0_0.jpg","https://xcimg.szwego.com/img/34b30588/20260425/i1777057487459_5936_0_1.jpg","https://xcimg.szwego.com/img/34b30588/20260425/i1777057487434_8010_0_2.jpg","https://xcimg.szwego.com/img/34b30588/20260425/i1777057486339_7195_0_3.jpg","https://xcimg.szwego.com/img/34b30588/20260425/i1777057486379_7676_0_4.jpg","https://xcimg.szwego.com/img/34b30588/20260425/i1777057449496_8293_0_6.jpg","https://xcimg.szwego.com/img/34b30588/20260425/i1777057450678_4885_0_8.jpg","https://xcimg.szwego.com/img/34b30588/20260425/i1777057486298_1202_0_7.jpg","https://xcimg.szwego.com/img/34b30588/20260425/i1777057486331_4620_0_8.jpg"],"created_at":"2026-05-20T03:16:24.036Z"},{"id":"item-5aaded123798","sku":"_deReRAG7o_L0umEPJ2AikHyWY6AZJl-xv1HSOLQ","name_en":"DOCTOR POUCH手袋 💯全钢五金!!️","name_cn":"DOCTOR POUCH手袋 💯全钢五金!!️\n编号:L104J3","specs":{"source":"wsxcme","sourceId":"_deReRAG7o_L0umEPJ2AikHyWY6AZJl-xv1HSOLQ","sourceTagId":47003106,"sourceTagName":"塞琳/女包","rawTitle":"DOCTOR POUCH手袋 💯全钢五金!!️\n编号:L104J3"},"price":null,"currency":"CNY","moq":1,"category":"celine-women-bags","status":"active","alibaba_url":null,"images":["https://xcimg.szwego.com/img/34b30588/20260425/i1777057663107_8675_0_0.jpg","https://xcimg.szwego.com/img/34b30588/20260425/i1777057663539_6457_0_1.jpg","https://xcimg.szwego.com/img/34b30588/20260425/i1777057663499_9079_0_2.jpg","https://xcimg.szwego.com/img/34b30588/20260425/i1777057663518_1164_0_3.jpg"],"created_at":"2026-05-20T03:16:24.056Z"},{"id":"item-2c5467b2b4e3","sku":"_du6u6sNjEu2ozaqfD-6I3XHV-n1IB7dBKUMUyWA","name_en":"DOCTOR POUCH手袋 💯全钢五金!!️","name_cn":"DOCTOR POUCH手袋 💯全钢五金!!️\n编号:L104J3","specs":{"source":"wsxcme","sourceId":"_du6u6sNjEu2ozaqfD-6I3XHV-n1IB7dBKUMUyWA","sourceTagId":47003106,"sourceTagName":"塞琳/女包","rawTitle":"DOCTOR POUCH手袋 💯全钢五金!!️\n编号:L104J3"},"price":null,"currency":"CNY","moq":1,"category":"celine-women-bags","status":"active","alibaba_url":null,"images":["https://xcimg.szwego.com/img/34b30588/20260425/i1777057597041_8298_0_0.jpg","https://xcimg.szwego.com/img/34b30588/20260425/i1777057596478_2743_0_1.jpg","https://xcimg.szwego.com/img/34b30588/20260425/i1777057596479_7690_0_2.jpg","https://xcimg.szwego.com/img/34b30588/20260425/i1777057597042_9077_0_3.jpg","https://xcimg.szwego.com/img/34b30588/20260425/i1777057597043_963_0_4.jpg","https://xcimg.szwego.com/img/34b30588/20260425/i1777057597045_9775_0_5.jpg","https://xcimg.szwego.com/img/34b30588/20260425/i1777057596480_7047_0_6.jpg","https://xcimg.szwego.com/img/34b30588/20260425/i1777057596480_7265_0_7.jpg","https://xcimg.szwego.com/img/34b30588/20260425/i1777057596481_9716_0_8.jpg"],"created_at":"2026-05-20T03:16:24.046Z"},{"id":"item-1a1402831f19","sku":"_d9c9c2YNesi0zNPJlLpig3RAtDy3FNYsVPPrGuw","name_en":"DOCTOR POUCH手袋 💯全钢五金!!️","name_cn":"DOCTOR POUCH手袋 💯全钢五金!!️\n牛皮革\n牛剖层革衬里\n金色饰面\n手提、肩背\n1个主隔层\n1个内侧扁平口袋\n可拆卸腕带,长度(29厘米)\n尺寸:(35 X 18 X 18厘米)\n编号:L104J3","specs":{"source":"wsxcme","sourceId":"_d9c9c2YNesi0zNPJlLpig3RAtDy3FNYsVPPrGuw","sourceTagId":47003106,"sourceTagName":"塞琳/女包","rawTitle":"DOCTOR POUCH手袋 💯全钢五金!!️\n牛皮革\n牛剖层革衬里\n金色饰面\n手提、肩背\n1个主隔层\n1个内侧扁平口袋\n可拆卸腕带,长度(29厘米)\n尺寸:(35 X 18 X 18厘米)\n编号:L104J3"},"price":null,"currency":"CNY","moq":1,"category":"celine-women-bags","status":"active","alibaba_url":null,"images":["https://xcimg.szwego.com/img/34b30588/20260425/i1777055521333_6886_0_0.jpg","https://xcimg.szwego.com/img/34b30588/20260425/i1777055521289_6107_0_1.jpg","https://xcimg.szwego.com/img/34b30588/20260425/i1777055521269_3732_0_2.jpg","https://xcimg.szwego.com/img/34b30588/20260425/i1777055519778_5007_0_3.jpg","https://xcimg.szwego.com/img/34b30588/20260425/i1777055519686_4324_0_4.jpg","https://xcimg.szwego.com/img/34b30588/20260425/i1777055519742_3000_0_5.jpg","https://xcimg.szwego.com/img/34b30588/20260425/i1777055521274_332_0_6.jpg","https://xcimg.szwego.com/img/34b30588/20260425/i1777055519725_3807_0_7.jpg","https://xcimg.szwego.com/img/34b30588/20260425/i1777055519675_479_0_8.jpg"],"created_at":"2026-05-20T03:16:23.966Z"},{"id":"item-155fbf68723d","sku":"_dwlwlTE69qlkENA2gzf6NV06rfla0An2TMlj-AA","name_en":"DOCTOR POUCH手袋 💯全钢五金!!️","name_cn":"DOCTOR POUCH手袋 💯全钢五金!!️\n牛皮革\n牛剖层革衬里\n金色饰面\n手提、肩背\n1个主隔层\n1个内侧扁平口袋\n可拆卸腕带,长度(29厘米)\n尺寸:(35 X 18 X 18厘米)\n编号:L104J3","specs":{"source":"wsxcme","sourceId":"_dwlwlTE69qlkENA2gzf6NV06rfla0An2TMlj-AA","sourceTagId":47003106,"sourceTagName":"塞琳/女包","rawTitle":"DOCTOR POUCH手袋 💯全钢五金!!️\n牛皮革\n牛剖层革衬里\n金色饰面\n手提、肩背\n1个主隔层\n1个内侧扁平口袋\n可拆卸腕带,长度(29厘米)\n尺寸:(35 X 18 X 18厘米)\n编号:L104J3"},"price":null,"currency":"CNY","moq":1,"category":"celine-women-bags","status":"active","alibaba_url":null,"images":["https://xcimg.szwego.com/img/34b30588/20260425/i1777057294377_9145_0_0.jpg","https://xcimg.szwego.com/img/34b30588/20260425/i1777057293376_4754_0_1.jpg","https://xcimg.szwego.com/img/34b30588/20260425/i1777057294362_404_0_2.jpg","https://xcimg.szwego.com/img/34b30588/20260425/i1777057293447_3634_0_3.jpg","https://xcimg.szwego.com/img/34b30588/20260425/i1777057293443_8600_0_4.jpg","https://xcimg.szwego.com/img/34b30588/20260425/i1777057293443_1148_0_5.jpg","https://xcimg.szwego.com/img/34b30588/20260425/i1777057242402_1587_0_8.jpg","https://xcimg.szwego.com/img/34b30588/20260425/i1777057241219_982_0_5.jpg"],"created_at":"2026-05-20T03:16:24.006Z"},{"id":"item-0c9bc310e616","sku":"_dqSqSGRCim7YunHkjWkqJuzn7oSdtjSKkWBXWVQ","name_en":"DOCTOR POUCH手袋 💯全钢五金!!️","name_cn":"DOCTOR POUCH手袋 💯全钢五金!!️\n牛皮革\n牛剖层革衬里\n金色饰面\n手提、肩背\n1个主隔层\n1个内侧扁平口袋\n可拆卸腕带,长度(29厘米)\n尺寸:(35 X 18 X 18厘米)\n编号:L104J3","specs":{"source":"wsxcme","sourceId":"_dqSqSGRCim7YunHkjWkqJuzn7oSdtjSKkWBXWVQ","sourceTagId":47003106,"sourceTagName":"塞琳/女包","rawTitle":"DOCTOR POUCH手袋 💯全钢五金!!️\n牛皮革\n牛剖层革衬里\n金色饰面\n手提、肩背\n1个主隔层\n1个内侧扁平口袋\n可拆卸腕带,长度(29厘米)\n尺寸:(35 X 18 X 18厘米)\n编号:L104J3"},"price":null,"currency":"CNY","moq":1,"category":"celine-women-bags","status":"active","alibaba_url":null,"images":["https://xcimg.szwego.com/img/34b30588/20260425/i1777055583227_1162_0_0.jpg","https://xcimg.szwego.com/img/34b30588/20260425/i1777055521333_6886_0_0.jpg","https://xcimg.szwego.com/img/34b30588/20260425/i1777055519742_3000_0_5.jpg","https://xcimg.szwego.com/img/34b30588/20260425/i1777055584247_9262_0_3.jpg","https://xcimg.szwego.com/img/34b30588/20260425/i1777055583311_3619_0_4.jpg","https://xcimg.szwego.com/img/34b30588/20260425/i1777055583304_8506_0_5.jpg","https://xcimg.szwego.com/img/34b30588/20260425/i1777055584301_625_0_6.jpg"],"created_at":"2026-05-20T03:16:23.976Z"},{"id":"item-0328d7524ec9","sku":"_dWxWxYSqjgwJEXMBSKAN7knZwtN7Glu8JUuLuTg","name_en":"DOCTOR POUCH手袋 💯全钢五金!!️","name_cn":"DOCTOR POUCH手袋 💯全钢五金!!️\n牛皮革\n牛剖层革衬里\n金色饰面\n手提、肩背\n1个主隔层\n1个内侧扁平口袋\n可拆卸腕带,长度(29厘米)\n尺寸:(35 X 18 X 18厘米)\n编号:L104J3","specs":{"source":"wsxcme","sourceId":"_dWxWxYSqjgwJEXMBSKAN7knZwtN7Glu8JUuLuTg","sourceTagId":47003106,"sourceTagName":"塞琳/女包","rawTitle":"DOCTOR POUCH手袋 💯全钢五金!!️\n牛皮革\n牛剖层革衬里\n金色饰面\n手提、肩背\n1个主隔层\n1个内侧扁平口袋\n可拆卸腕带,长度(29厘米)\n尺寸:(35 X 18 X 18厘米)\n编号:L104J3"},"price":null,"currency":"CNY","moq":1,"category":"celine-women-bags","status":"active","alibaba_url":null,"images":["https://xcimg.szwego.com/img/34b30588/20260425/i1777057241252_8413_0_0.jpg","https://xcimg.szwego.com/img/34b30588/20260425/i1777057241238_6558_0_1.jpg","https://xcimg.szwego.com/img/34b30588/20260425/i1777057242409_4842_0_2.jpg","https://xcimg.szwego.com/img/34b30588/20260425/i1777057241076_894_0_3.jpg","https://xcimg.szwego.com/img/34b30588/20260425/i1777057242434_7146_0_4.jpg","https://xcimg.szwego.com/img/34b30588/20260425/i1777057241219_982_0_5.jpg","https://xcimg.szwego.com/img/34b30588/20260425/i1777057241255_6436_0_6.jpg","https://xcimg.szwego.com/img/34b30588/20260425/i1777057242390_466_0_7.jpg","https://xcimg.szwego.com/img/34b30588/20260425/i1777057242402_1587_0_8.jpg"],"created_at":"2026-05-20T03:16:23.996Z"},{"id":"item-9ca12c0e733d","sku":"_djJjJhgXLMKctA31O2SNghgdodDCLASY5i02aMw","name_en":"FLAT SHOPPER大号标志印花手袋💯全钢五金!!️","name_cn":"FLAT SHOPPER大号标志印花手袋💯全钢五金!!️\n编号:123842","specs":{"source":"wsxcme","sourceId":"_djJjJhgXLMKctA31O2SNghgdodDCLASY5i02aMw","sourceTagId":47003106,"sourceTagName":"塞琳/女包","rawTitle":"FLAT SHOPPER大号标志印花手袋💯全钢五金!!️\n编号:123842"},"price":null,"currency":"CNY","moq":1,"category":"celine-women-bags","status":"active","alibaba_url":null,"images":["https://xcimg.szwego.com/img/34b30588/20260425/i1777055190677_8087_0_0.jpg","https://xcimg.szwego.com/img/34b30588/20260425/i1777055190675_9627_0_1.jpg","https://xcimg.szwego.com/img/34b30588/20260425/i1777055190677_3641_0_2.jpg","https://xcimg.szwego.com/img/34b30588/20260425/i1777055190677_7444_0_3.jpg","https://xcimg.szwego.com/img/34b30588/20260425/i1777055190677_2134_0_4.jpg"],"created_at":"2026-05-20T03:16:23.956Z"}],"page":23,"pageSize":24,"total":582,"totalPages":25}
