{"items":[{"id":"item-2652aa54cc4a","sku":"_dpQpQLaJ1ymQ6fX_Jl2pg9Uh5Ta5g3Opw2AQFAw","name_en":"『Celine 赛琳』","name_cn":"『Celine 赛琳』\n\nCEL.INE 2022春夏FOLCO马鞍包、把涂层印花材质改成了小牛皮设计,磁吸扣开合特别方便、延续了经典包型的设计,会更有质感~而且凯旋门采用了立体雕花的工艺~真的特别精致、包包自重很轻而且能装女孩子出行必备的东西,实用性超强!\n尺寸:18.5×8×15cm\n型号:4201#","specs":{"source":"wsxcme","sourceId":"_dpQpQLaJ1ymQ6fX_Jl2pg9Uh5Ta5g3Opw2AQFAw","sourceTagId":47003106,"sourceTagName":"塞琳/女包","modelNumber":"4201#","dimensions":{"lengthCm":18.5,"heightCm":8,"widthCm":15},"rawTitle":"『Celine 赛琳』\n\nCEL.INE 2022春夏FOLCO马鞍包、把涂层印花材质改成了小牛皮设计,磁吸扣开合特别方便、延续了经典包型的设计,会更有质感~而且凯旋门采用了立体雕花的工艺~真的特别精致、包包自重很轻而且能装女孩子出行必备的东西,实用性超强!\n尺寸:18.5×8×15cm\n型号:4201#"},"price":null,"currency":"CNY","moq":1,"category":"celine-women-bags","status":"active","alibaba_url":null,"images":["https://xcimg.szwego.com/20220329/i1648516787_9826_0.jpg","https://xcimg.szwego.com/20220329/i1648516787_9269_1.jpg","https://xcimg.szwego.com/20220329/i1648516787_7374_2.jpg","https://xcimg.szwego.com/20220329/i1648516787_6703_3.jpg","https://xcimg.szwego.com/20220329/i1648516787_5454_4.jpg","https://xcimg.szwego.com/20220329/i1648516787_7177_5.jpg","https://xcimg.szwego.com/20220329/i1648516787_6976_6.jpg","https://xcimg.szwego.com/20220329/i1648516787_4976_7.jpg","https://xcimg.szwego.com/20220329/i1648516787_6649_8.jpg"],"created_at":"2025-02-08T12:47:23.798Z"},{"id":"item-2575ce1a9dd6","sku":"_dxpxpi5a5mVgj_rKIEbauRz8Rqv8EDQt6gqz-RQ","name_en":"『Celine 赛琳』","name_cn":"『Celine 赛琳』\n\nCEL.INE🌞最新mini Tabou Clutch onStrap锁头饰带手包TRIOMPHE Canvas 标志腋下 手提包 黑色/牛皮\n织物面料衬里 点睛的金色五金锁 \n包包设计有一长一短的皮肩带 不能调节 可以手提肩背®️\n尺寸:18 X 8 X 5cm\n型号:2298#","specs":{"source":"wsxcme","sourceId":"_dxpxpi5a5mVgj_rKIEbauRz8Rqv8EDQt6gqz-RQ","sourceTagId":47003106,"sourceTagName":"塞琳/女包","modelNumber":"2298#","dimensions":{"lengthCm":18,"heightCm":8,"widthCm":5},"rawTitle":"『Celine 赛琳』\n\nCEL.INE🌞最新mini Tabou Clutch onStrap锁头饰带手包TRIOMPHE Canvas 标志腋下 手提包 黑色/牛皮\n织物面料衬里 点睛的金色五金锁 \n包包设计有一长一短的皮肩带 不能调节 可以手提肩背®️\n尺寸:18 X 8 X 5cm\n型号:2298#"},"price":null,"currency":"CNY","moq":1,"category":"celine-women-bags","status":"active","alibaba_url":null,"images":["https://xcimg.szwego.com/20220330/i1648612097_111_0.jpg","https://xcimg.szwego.com/20220330/i1648612097_1694_1.jpg","https://xcimg.szwego.com/20220330/i1648612097_4304_2.jpg","https://xcimg.szwego.com/20220330/i1648612097_4413_3.jpg","https://xcimg.szwego.com/20220330/i1648612097_4876_4.jpg","https://xcimg.szwego.com/20220330/i1648612097_3487_5.jpg","https://xcimg.szwego.com/20220330/i1648612097_7645_6.jpg","https://xcimg.szwego.com/20220330/i1648612097_247_7.jpg","https://xcimg.szwego.com/20220330/i1648612097_7962_8.jpg"],"created_at":"2025-02-08T12:47:00.852Z"},{"id":"item-2346c8548811","sku":"_d-2-2LRZ6KhY_8lQK3jwPM0xVKWtvK_KDKskUgw","name_en":"『Celine 赛琳』","name_cn":"『Celine 赛琳』\n\nCABAS TRIOMPHE🛍帆布小号竖款手袋\n65%涂层帆布,35%小牛皮\n100%棉衬里\n内侧拉链口袋\n可调节可拆卸皮革肩带 长20英寸(50厘米)\n编号:2189爱绣\n尺寸11 X 13 X 3英寸(28.5 X 33 X 8厘米)","specs":{"source":"wsxcme","sourceId":"_d-2-2LRZ6KhY_8lQK3jwPM0xVKWtvK_KDKskUgw","sourceTagId":47003106,"sourceTagName":"塞琳/女包","rawTitle":"『Celine 赛琳』\n\nCABAS TRIOMPHE🛍帆布小号竖款手袋\n65%涂层帆布,35%小牛皮\n100%棉衬里\n内侧拉链口袋\n可调节可拆卸皮革肩带 长20英寸(50厘米)\n编号:2189爱绣\n尺寸11 X 13 X 3英寸(28.5 X 33 X 8厘米)"},"price":null,"currency":"CNY","moq":1,"category":"celine-women-bags","status":"active","alibaba_url":null,"images":["https://xcimg.szwego.com/20201119/i1605730348_5763_0.jpg","https://xcimg.szwego.com/20201119/i1605730348_4687_1.jpg","https://xcimg.szwego.com/20201119/i1605730348_1602_2.jpg","https://xcimg.szwego.com/20201119/i1605730348_19_3.jpg","https://xcimg.szwego.com/20201119/i1605730348_3151_4.jpg","https://xcimg.szwego.com/20201119/i1605730348_4099_5.jpg","https://xcimg.szwego.com/20201119/i1605730348_5932_6.jpg","https://xcimg.szwego.com/20201119/i1605730348_2988_7.jpg","https://xcimg.szwego.com/20201119/i1605730348_3593_8.jpg"],"created_at":"2025-02-08T12:47:00.818Z"},{"id":"item-22f333b7fe4a","sku":"_dBEBETMddLS4eLe5I64futo10Z7VBiYTpoffzQQ","name_en":"『Celine 赛琳』","name_cn":"『Celine 赛琳』\n\n🏠推出最新帆布经典设计风格展现了复古、简洁及自信。时尚的尖端,毫无时代的隔阂~鲜明个性为日常衣柜带来多重魅力🥳  小号尺寸:18.5-14-6  小号款号188423","specs":{"source":"wsxcme","sourceId":"_dBEBETMddLS4eLe5I64futo10Z7VBiYTpoffzQQ","sourceTagId":47003106,"sourceTagName":"塞琳/女包","modelNumber":"188423","rawTitle":"『Celine 赛琳』\n\n🏠推出最新帆布经典设计风格展现了复古、简洁及自信。时尚的尖端,毫无时代的隔阂~鲜明个性为日常衣柜带来多重魅力🥳  小号尺寸:18.5-14-6  小号款号188423"},"price":null,"currency":"CNY","moq":1,"category":"celine-women-bags","status":"active","alibaba_url":null,"images":["https://xcimg.szwego.com/20200512/a1589264960386_1108.jpg","https://xcimg.szwego.com/20200512/a1589265586561_8757.jpg","https://xcimg.szwego.com/20200512/a1589265586838_6137.jpg","https://xcimg.szwego.com/20200512/a1589265587103_0515.jpg","https://xcimg.szwego.com/20200512/a1589265587379_8802.jpg","https://xcimg.szwego.com/20200512/a1589265587635_6548.jpg","https://xcimg.szwego.com/20200512/a1589265587867_1882.jpg","https://xcimg.szwego.com/20200512/a1589265588152_8176.jpg","https://xcimg.szwego.com/20200512/a1589265588439_1012.jpg"],"created_at":"2025-02-08T12:47:15.835Z"},{"id":"item-22adf29103e4","sku":"_daWaW5izSMaWWoChJz20_MDnOhGE20Eq-R8yZSQ","name_en":"『Celine 赛琳』","name_cn":"『Celine 赛琳』\n\nMINI CABASC 七夕限量特定款,金线刺绣工艺,超mini超可爱❤️超火爆,可手提肩背斜挎,这个大小刚刚好。\n尺寸17x20x6 \n型号:3014","specs":{"source":"wsxcme","sourceId":"_daWaW5izSMaWWoChJz20_MDnOhGE20Eq-R8yZSQ","sourceTagId":47003106,"sourceTagName":"塞琳/女包","modelNumber":"3014","rawTitle":"『Celine 赛琳』\n\nMINI CABASC 七夕限量特定款,金线刺绣工艺,超mini超可爱❤️超火爆,可手提肩背斜挎,这个大小刚刚好。\n尺寸17x20x6 \n型号:3014"},"price":null,"currency":"CNY","moq":1,"category":"celine-women-bags","status":"active","alibaba_url":null,"images":["https://xcimg.szwego.com/20211229/i1640754684_753_0.jpg","https://xcimg.szwego.com/20211229/i1640754684_9228_1.jpg","https://xcimg.szwego.com/20211229/i1640754684_5264_2.jpg","https://xcimg.szwego.com/20211229/i1640754684_5838_3.jpg","https://xcimg.szwego.com/20211229/i1640754684_1042_4.jpg","https://xcimg.szwego.com/20211229/i1640754684_1068_5.jpg","https://xcimg.szwego.com/20211229/i1640754684_8763_6.jpg","https://xcimg.szwego.com/20211229/i1640754684_3327_7.jpg","https://xcimg.szwego.com/20211229/i1640754684_4277_8.jpg"],"created_at":"2025-02-08T12:47:00.834Z"},{"id":"item-21e3de521ea2","sku":"_dGGGGKY_-lD0GpAllbYFZlUsL23FNQ4Xcvq0EaQ","name_en":"『Celine 赛琳』","name_cn":"『Celine 赛琳』\n\nCABAS TRIOMPHE帆布# MiNi号竖款手袋。🧩65%涂层帆布,35%小牛皮、100%棉衬里,内侧插袋,搭配可调节可拆卸皮革肩带50cm、尺寸:17-21-4cm(🔍2200白印花)","specs":{"source":"wsxcme","sourceId":"_dGGGGKY_-lD0GpAllbYFZlUsL23FNQ4Xcvq0EaQ","sourceTagId":47003106,"sourceTagName":"塞琳/女包","rawTitle":"『Celine 赛琳』\n\nCABAS TRIOMPHE帆布# MiNi号竖款手袋。🧩65%涂层帆布,35%小牛皮、100%棉衬里,内侧插袋,搭配可调节可拆卸皮革肩带50cm、尺寸:17-21-4cm(🔍2200白印花)"},"price":null,"currency":"CNY","moq":1,"category":"celine-women-bags","status":"active","alibaba_url":null,"images":["https://xcimg.szwego.com/20201211/i1607671534_4903_0.jpg","https://xcimg.szwego.com/20201211/i1607671534_7025_1.jpg","https://xcimg.szwego.com/20201211/i1607671534_4816_2.jpg","https://xcimg.szwego.com/20201211/i1607671534_6994_3.jpg","https://xcimg.szwego.com/20201211/i1607671534_5172_4.jpg","https://xcimg.szwego.com/20201211/i1607671534_7067_5.jpg","https://xcimg.szwego.com/20201211/i1607671534_404_6.jpg","https://xcimg.szwego.com/20201211/i1607671534_1539_7.jpg","https://xcimg.szwego.com/20201211/i1607671534_9439_8.jpg"],"created_at":"2025-02-08T12:47:00.820Z"},{"id":"item-21ddd0e57f0d","sku":"_dododAJVm7c-2QOHdA4CwKwzxpJ0SmGoGQJkdxg","name_en":"『Celine 赛琳』","name_cn":"『Celine 赛琳』\n\nbox24cm  焦糖色\n\n经典款一直不过时💥\n头层牛皮配定制五金\n内侧拉链口袋和双层扁平口袋\n非常有质感的一款包🛍\n尺寸:24×18×7cm","specs":{"source":"wsxcme","sourceId":"_dododAJVm7c-2QOHdA4CwKwzxpJ0SmGoGQJkdxg","sourceTagId":47003106,"sourceTagName":"塞琳/女包","dimensions":{"lengthCm":24,"heightCm":18,"widthCm":7},"rawTitle":"『Celine 赛琳』\n\nbox24cm  焦糖色\n\n经典款一直不过时💥\n头层牛皮配定制五金\n内侧拉链口袋和双层扁平口袋\n非常有质感的一款包🛍\n尺寸:24×18×7cm"},"price":null,"currency":"CNY","moq":1,"category":"celine-women-bags","status":"active","alibaba_url":null,"images":["https://xcimg.szwego.com/20201130/i1606724499_2757_0.jpg","https://xcimg.szwego.com/20201130/i1606724499_5284_1.jpg","https://xcimg.szwego.com/20201130/i1606724499_8084_2.jpg","https://xcimg.szwego.com/20201130/i1606724499_3887_3.jpg","https://xcimg.szwego.com/20201130/i1606724499_252_4.jpg","https://xcimg.szwego.com/20201130/i1606724499_1850_5.jpg","https://xcimg.szwego.com/20201130/i1606724499_4857_6.jpg","https://xcimg.szwego.com/20201130/i1606724499_9138_7.jpg","https://xcimg.szwego.com/20201130/i1606724499_8440_8.jpg"],"created_at":"2025-02-08T12:47:15.863Z"},{"id":"item-20d695e7353b","sku":"_dxHxHWfv8zG6ar2YS2heu09ThbTIwU1OEJFF44A","name_en":"『Celine 赛琳』","name_cn":"『Celine 赛琳』\n\n新款FOLCO TRIOMPHE邮差包PVC/牛皮 衬里 : 织物 斜挎和肩背 带扣和磁扣 内侧扁平口袋  翻盖下设扁平口袋,背面扁平口袋 可调节肩带 长(53厘米)\n尺寸:31 X 24 X 9cm\n款号:3350#","specs":{"source":"wsxcme","sourceId":"_dxHxHWfv8zG6ar2YS2heu09ThbTIwU1OEJFF44A","sourceTagId":47003106,"sourceTagName":"塞琳/女包","modelNumber":"3350#","dimensions":{"lengthCm":31,"heightCm":24,"widthCm":9},"rawTitle":"『Celine 赛琳』\n\n新款FOLCO TRIOMPHE邮差包PVC/牛皮 衬里 : 织物 斜挎和肩背 带扣和磁扣 内侧扁平口袋  翻盖下设扁平口袋,背面扁平口袋 可调节肩带 长(53厘米)\n尺寸:31 X 24 X 9cm\n款号:3350#"},"price":null,"currency":"CNY","moq":1,"category":"celine-women-bags","status":"active","alibaba_url":null,"images":["https://xcimg.szwego.com/20220415/i1649993379_5750_0.jpg","https://xcimg.szwego.com/20220415/i1649993379_906_1.jpg","https://xcimg.szwego.com/20220415/i1649993379_7104_2.jpg","https://xcimg.szwego.com/20220415/i1649993379_5536_3.jpg","https://xcimg.szwego.com/20220415/i1649993379_7982_4.jpg","https://xcimg.szwego.com/20220415/i1649993379_9058_5.jpg","https://xcimg.szwego.com/20220415/i1649993379_8908_6.jpg","https://xcimg.szwego.com/20220415/i1649993379_9438_7.jpg","https://xcimg.szwego.com/20220415/i1649993379_7165_8.jpg"],"created_at":"2025-02-08T12:47:00.837Z"},{"id":"item-1f14ab802534","sku":"_dk3k3ZBu4OKLQ7AxYvYJHKpIJf1Aq8HVrMtBAgA","name_en":"『Celine 赛琳』","name_cn":"『Celine 赛琳』\n\nbox24cm  酒红色\n\n经典款一直不过时💥\n头层牛皮配定制五金\n内侧拉链口袋和双层扁平口袋\n非常有质感的一款包🛍\n尺寸:24×18×7cm","specs":{"source":"wsxcme","sourceId":"_dk3k3ZBu4OKLQ7AxYvYJHKpIJf1Aq8HVrMtBAgA","sourceTagId":47003106,"sourceTagName":"塞琳/女包","dimensions":{"lengthCm":24,"heightCm":18,"widthCm":7},"rawTitle":"『Celine 赛琳』\n\nbox24cm  酒红色\n\n经典款一直不过时💥\n头层牛皮配定制五金\n内侧拉链口袋和双层扁平口袋\n非常有质感的一款包🛍\n尺寸:24×18×7cm"},"price":null,"currency":"CNY","moq":1,"category":"celine-women-bags","status":"active","alibaba_url":null,"images":["https://xcimg.szwego.com/20201130/i1606724045_2350_7.jpg","https://xcimg.szwego.com/20201130/i1606724045_4922_5.jpg","https://xcimg.szwego.com/20201130/i1606724045_2073_6.jpg","https://xcimg.szwego.com/20201130/i1606724045_2645_0.jpg","https://xcimg.szwego.com/20201130/i1606724045_5036_1.jpg","https://xcimg.szwego.com/20201130/i1606724045_4316_2.jpg","https://xcimg.szwego.com/20201130/i1606724045_5072_3.jpg","https://xcimg.szwego.com/20201130/i1606724045_9157_4.jpg","https://xcimg.szwego.com/20201130/i1606724045_937_8.jpg"],"created_at":"2025-02-08T12:47:15.857Z"},{"id":"item-1eb4c9a81d2c","sku":"_dn2n2bWClW-7eHRxWH_6Y40MdtYNsnQmuMCB6_Q","name_en":"『Celine 赛琳』","name_cn":"『Celine 赛琳』\n\nCELINE腋下包印花AVA BAG首发款!韩国LISA热爱款 复古时髦风出镜 复古女孩look放送ing❤进口小牛皮 ,做工细节超赞!\n尺寸:24.18.7  \n型号:3112#","specs":{"source":"wsxcme","sourceId":"_dn2n2bWClW-7eHRxWH_6Y40MdtYNsnQmuMCB6_Q","sourceTagId":47003106,"sourceTagName":"塞琳/女包","modelNumber":"3112#","rawTitle":"『Celine 赛琳』\n\nCELINE腋下包印花AVA BAG首发款!韩国LISA热爱款 复古时髦风出镜 复古女孩look放送ing❤进口小牛皮 ,做工细节超赞!\n尺寸:24.18.7  \n型号:3112#"},"price":null,"currency":"CNY","moq":1,"category":"celine-women-bags","status":"active","alibaba_url":null,"images":["https://xcimg.szwego.com/20220330/i1648611954_7256_0.jpg","https://xcimg.szwego.com/20220330/i1648611954_3376_1.jpg","https://xcimg.szwego.com/20220330/i1648611954_9320_2.jpg","https://xcimg.szwego.com/20220330/i1648611954_5817_3.jpg","https://xcimg.szwego.com/20220330/i1648611954_3988_4.jpg","https://xcimg.szwego.com/20220330/i1648611954_3236_5.jpg","https://xcimg.szwego.com/20220330/i1648611954_9947_6.jpg","https://xcimg.szwego.com/20220330/i1648611954_7176_7.jpg","https://xcimg.szwego.com/20220330/i1648611954_4203_8.jpg"],"created_at":"2025-02-08T12:47:00.851Z"},{"id":"item-1d982f49bfe2","sku":"_drTrTSrB3WIvaAWVwFiGz24PF4hE6FCFlcN3fFg","name_en":"『Celine 赛琳』","name_cn":"『Celine 赛琳』\n\nCELINE ♥ TRIOMPHE SHOULDER BAG\n感觉这两年Celine是不是打开了任督二脉!出的包是越来越绝了!新款凯旋门腋下包简直惊喜爆棚!确认过眼神是我想要的包!必须要拥有的那种❗️尺寸:20*10*4cm","specs":{"source":"wsxcme","sourceId":"_drTrTSrB3WIvaAWVwFiGz24PF4hE6FCFlcN3fFg","sourceTagId":47003106,"sourceTagName":"塞琳/女包","dimensions":{"lengthCm":20,"heightCm":10,"widthCm":4},"rawTitle":"『Celine 赛琳』\n\nCELINE ♥ TRIOMPHE SHOULDER BAG\n感觉这两年Celine是不是打开了任督二脉!出的包是越来越绝了!新款凯旋门腋下包简直惊喜爆棚!确认过眼神是我想要的包!必须要拥有的那种❗️尺寸:20*10*4cm"},"price":null,"currency":"CNY","moq":1,"category":"celine-women-bags","status":"active","alibaba_url":null,"images":["https://xcimg.szwego.com/20220712/i1657590077_4095_0.jpg","https://xcimg.szwego.com/20220712/i1657590077_9319_1.jpg","https://xcimg.szwego.com/20220712/i1657590077_8437_2.jpg","https://xcimg.szwego.com/20220712/i1657590077_9255_3.jpg","https://xcimg.szwego.com/20220712/i1657590077_3003_4.jpg","https://xcimg.szwego.com/20220712/i1657590077_5302_5.jpg","https://xcimg.szwego.com/20220712/i1657590077_813_6.jpg","https://xcimg.szwego.com/20220712/i1657590077_7210_7.jpg","https://xcimg.szwego.com/20220712/i1657590077_6025_8.jpg"],"created_at":"2025-02-08T12:47:23.818Z"},{"id":"item-1d31e60b4080","sku":"_djWjWf9E5n6Oj4IpfN30y8XFUuNYMycareUkShg","name_en":"『Celine 赛琳』","name_cn":"『Celine 赛琳』\n\n新款FOLCO TRIOMPHE邮差包PVC/牛皮 衬里 : 织物 斜挎和肩背 带扣和磁扣 内侧扁平口袋  翻盖下设扁平口袋,背面扁平口袋 可调节肩带 长(53厘米)\n尺寸:31 X 24 X 9cm\n款号:3350#","specs":{"source":"wsxcme","sourceId":"_djWjWf9E5n6Oj4IpfN30y8XFUuNYMycareUkShg","sourceTagId":47003106,"sourceTagName":"塞琳/女包","modelNumber":"3350#","dimensions":{"lengthCm":31,"heightCm":24,"widthCm":9},"rawTitle":"『Celine 赛琳』\n\n新款FOLCO TRIOMPHE邮差包PVC/牛皮 衬里 : 织物 斜挎和肩背 带扣和磁扣 内侧扁平口袋  翻盖下设扁平口袋,背面扁平口袋 可调节肩带 长(53厘米)\n尺寸:31 X 24 X 9cm\n款号:3350#"},"price":null,"currency":"CNY","moq":1,"category":"celine-women-bags","status":"active","alibaba_url":null,"images":["https://xcimg.szwego.com/20220415/i1649993379_5750_0.jpg","https://xcimg.szwego.com/20220415/i1649993379_906_1.jpg","https://xcimg.szwego.com/20220415/i1649993379_7104_2.jpg","https://xcimg.szwego.com/20220415/i1649993379_5536_3.jpg","https://xcimg.szwego.com/20220415/i1649993379_7982_4.jpg","https://xcimg.szwego.com/20220415/i1649993379_9058_5.jpg","https://xcimg.szwego.com/20220415/i1649993379_8908_6.jpg","https://xcimg.szwego.com/20220415/i1649993379_9438_7.jpg","https://xcimg.szwego.com/20220415/i1649993379_7165_8.jpg"],"created_at":"2025-02-08T12:47:23.792Z"},{"id":"item-1d2ace67edbb","sku":"_dWvWvumupd8J8ZQhgU378XMuMcmPQJiTFAF062g","name_en":"『Celine 赛琳』","name_cn":"『Celine 赛琳』\n\n新款🔅CABAS TRIOMPHE帆布面料MiNi号竖款手袋,65%纺织布,35%小牛皮,100%棉衬里,内侧插袋,可调节可拆卸皮革肩带 长50厘米\n尺寸:20X 17X 6cm\n型号:2200#","specs":{"source":"wsxcme","sourceId":"_dWvWvumupd8J8ZQhgU378XMuMcmPQJiTFAF062g","sourceTagId":47003106,"sourceTagName":"塞琳/女包","modelNumber":"2200#","dimensions":{"lengthCm":20,"heightCm":17,"widthCm":6},"rawTitle":"『Celine 赛琳』\n\n新款🔅CABAS TRIOMPHE帆布面料MiNi号竖款手袋,65%纺织布,35%小牛皮,100%棉衬里,内侧插袋,可调节可拆卸皮革肩带 长50厘米\n尺寸:20X 17X 6cm\n型号:2200#"},"price":null,"currency":"CNY","moq":1,"category":"celine-women-bags","status":"active","alibaba_url":null,"images":["https://xcimg.szwego.com/20220504/i1651635065_2178_0.jpg","https://xcimg.szwego.com/20220504/i1651635065_8636_1.jpg","https://xcimg.szwego.com/20220504/i1651635065_924_2.jpg","https://xcimg.szwego.com/20220504/i1651635065_3932_3.jpg","https://xcimg.szwego.com/20220504/i1651635065_5849_4.jpg","https://xcimg.szwego.com/20220504/i1651635065_3682_5.jpg","https://xcimg.szwego.com/20220504/i1651635065_3910_6.jpg","https://xcimg.szwego.com/20220504/i1651635065_2278_7.jpg","https://xcimg.szwego.com/20220504/i1651635065_1022_8.jpg"],"created_at":"2025-02-08T12:47:00.869Z"},{"id":"item-1cfd843f5f4a","sku":"_dUYUYMc6uRczqEKD-1T7O3oLaMAe52UZ2c022Tg","name_en":"『Celine 赛琳』","name_cn":"『Celine 赛琳』\n\n👑 春夏新品BESACE TRIOMPHE效果属于VVIP最新款、官网预售\n款号:尺寸:24.5×17x4cm链条长30CM \n  凯旋门黑金 BESACE TRIOMP亮泽牛皮链,整体风格:灰常大气,黑金YYDS依旧那么经典辣么华丽、#长度有所增加,再也不会\n像背腋下包一样\n自重不算轻、但是可以接受。包身皮料用的,硬挺容量手机粉饼车\n纸巾耳机还余旷量!\n机车皮夹克一穿,这也太酷了吧可以冲","specs":{"source":"wsxcme","sourceId":"_dUYUYMc6uRczqEKD-1T7O3oLaMAe52UZ2c022Tg","sourceTagId":47003106,"sourceTagName":"塞琳/女包","modelNumber":"尺寸:24.5×17x4cm链条长30CM","dimensions":{"lengthCm":24.5,"heightCm":17,"widthCm":4},"rawTitle":"『Celine 赛琳』\n\n👑 春夏新品BESACE TRIOMPHE效果属于VVIP最新款、官网预售\n款号:尺寸:24.5×17x4cm链条长30CM \n  凯旋门黑金 BESACE TRIOMP亮泽牛皮链,整体风格:灰常大气,黑金YYDS依旧那么经典辣么华丽、#长度有所增加,再也不会\n像背腋下包一样\n自重不算轻、但是可以接受。包身皮料用的,硬挺容量手机粉饼车\n纸巾耳机还余旷量!\n机车皮夹克一穿,这也太酷了吧可以冲"},"price":null,"currency":"CNY","moq":1,"category":"celine-women-bags","status":"active","alibaba_url":null,"images":["https://xcimg.szwego.com/20220714/i1657806047_3462_0.jpg","https://xcimg.szwego.com/20220714/i1657806047_1052_1.jpg","https://xcimg.szwego.com/20220714/i1657806047_6755_2.jpg","https://xcimg.szwego.com/20220714/i1657806047_7925_3.jpg","https://xcimg.szwego.com/20220714/i1657806047_1262_4.jpg","https://xcimg.szwego.com/20220714/i1657806047_6403_5.jpg","https://xcimg.szwego.com/20220714/i1657806047_4346_6.jpg","https://xcimg.szwego.com/20220714/i1657806047_3704_7.jpg"],"created_at":"2025-02-08T12:47:23.808Z"},{"id":"item-1bd9d9501a85","sku":"_diaiapFLTfPK4_Cx7P9BHDAs7lzFiaUQk9fPd0Q","name_en":"『Celine 赛琳』","name_cn":"『Celine 赛琳』\n\n新款 赛琳老花系列 Celin.e TRIOMPHE帆布中号购物袋,65%涂层帆布和35%小牛皮,100%棉衬里,按扣开合,内侧扁平口袋,容量超大 既好看 又能装#购物逛街必带包# 超满足# \n尺寸30 X 37 X 22cm\n型号:4111#","specs":{"source":"wsxcme","sourceId":"_diaiapFLTfPK4_Cx7P9BHDAs7lzFiaUQk9fPd0Q","sourceTagId":47003106,"sourceTagName":"塞琳/女包","modelNumber":"4111#","dimensions":{"lengthCm":30,"heightCm":37,"widthCm":22},"rawTitle":"『Celine 赛琳』\n\n新款 赛琳老花系列 Celin.e TRIOMPHE帆布中号购物袋,65%涂层帆布和35%小牛皮,100%棉衬里,按扣开合,内侧扁平口袋,容量超大 既好看 又能装#购物逛街必带包# 超满足# \n尺寸30 X 37 X 22cm\n型号:4111#"},"price":null,"currency":"CNY","moq":1,"category":"celine-women-bags","status":"active","alibaba_url":null,"images":["https://xcimg.szwego.com/20220702/i1656743349_8609_0.jpg","https://xcimg.szwego.com/20220702/i1656743349_193_1.jpg","https://xcimg.szwego.com/20220702/i1656743349_2288_2.jpg","https://xcimg.szwego.com/20220702/i1656743349_5364_3.jpg","https://xcimg.szwego.com/20220702/i1656743349_2156_4.jpg","https://xcimg.szwego.com/20220702/i1656743349_5037_5.jpg","https://xcimg.szwego.com/20220702/i1656743349_3377_6.jpg","https://xcimg.szwego.com/20220702/i1656743349_1739_7.jpg","https://xcimg.szwego.com/20220702/i1656743349_955_8.jpg"],"created_at":"2025-02-08T12:47:23.795Z"},{"id":"item-1b3510886b61","sku":"_d-q-q7kkLE7HlOstt4_Z17UvBLIxA-FFD2mFYOQ","name_en":"『Celine 赛琳』","name_cn":"『Celine 赛琳』\n\n贝壳包 TRIOMPHE帆布相机包  64%涂层帆布,36%小牛皮 可斜挎和肩背 拉链锁闭 可调节皮革肩带长20英寸(50厘米)\n尺寸:20 X 15 X 5cm\n型号:3189#","specs":{"source":"wsxcme","sourceId":"_d-q-q7kkLE7HlOstt4_Z17UvBLIxA-FFD2mFYOQ","sourceTagId":47003106,"sourceTagName":"塞琳/女包","modelNumber":"3189#","dimensions":{"lengthCm":20,"heightCm":15,"widthCm":5},"rawTitle":"『Celine 赛琳』\n\n贝壳包 TRIOMPHE帆布相机包  64%涂层帆布,36%小牛皮 可斜挎和肩背 拉链锁闭 可调节皮革肩带长20英寸(50厘米)\n尺寸:20 X 15 X 5cm\n型号:3189#"},"price":null,"currency":"CNY","moq":1,"category":"celine-women-bags","status":"active","alibaba_url":null,"images":["https://xcimg.szwego.com/20220422/i1650601951_1683_0.jpg","https://xcimg.szwego.com/20220422/i1650601951_2083_1.jpg","https://xcimg.szwego.com/20220422/i1650601951_9653_2.jpg","https://xcimg.szwego.com/20220422/i1650601951_7059_3.jpg","https://xcimg.szwego.com/20220422/i1650601951_2523_4.jpg","https://xcimg.szwego.com/20220422/i1650601951_612_5.jpg","https://xcimg.szwego.com/20220422/i1650601951_9806_6.jpg","https://xcimg.szwego.com/20220422/i1650601951_7737_7.jpg","https://xcimg.szwego.com/20220422/i1650601951_984_8.jpg"],"created_at":"2025-02-08T12:47:15.813Z"},{"id":"item-1af65713de48","sku":"_dA0A05HSf5b14lknKxXZInfgXMbHBER7Ob0t5UA","name_en":"『Celine 赛琳』","name_cn":"『Celine 赛琳』\n\n新款Box 新款(凯旋门)老花信封包。大家都知道C家换了设计师 ,这次新款和旧款的最大不同之处在于钮扣,20s早春走秀款 将复古元素与一向拿手的利落线条完美结合 焕发出全新的动人魅力 尺寸 20-11.5-6cm","specs":{"source":"wsxcme","sourceId":"_dA0A05HSf5b14lknKxXZInfgXMbHBER7Ob0t5UA","sourceTagId":47003106,"sourceTagName":"塞琳/女包","rawTitle":"『Celine 赛琳』\n\n新款Box 新款(凯旋门)老花信封包。大家都知道C家换了设计师 ,这次新款和旧款的最大不同之处在于钮扣,20s早春走秀款 将复古元素与一向拿手的利落线条完美结合 焕发出全新的动人魅力 尺寸 20-11.5-6cm"},"price":null,"currency":"CNY","moq":1,"category":"celine-women-bags","status":"active","alibaba_url":null,"images":["https://xcimg.szwego.com/20210708/i1625675152_9331_0.jpg","https://xcimg.szwego.com/20210708/i1625675152_5562_1.jpg","https://xcimg.szwego.com/20210708/i1625675152_9473_2.jpg","https://xcimg.szwego.com/20210708/i1625675152_2204_3.jpg","https://xcimg.szwego.com/20210708/i1625675152_1783_4.jpg","https://xcimg.szwego.com/20210708/i1625675152_3035_5.jpg","https://xcimg.szwego.com/20210708/i1625675152_2620_6.jpg","https://xcimg.szwego.com/20210708/i1625675152_2043_7.jpg","https://xcimg.szwego.com/20210708/i1625675152_3470_8.jpg"],"created_at":"2025-02-08T12:47:00.800Z"},{"id":"item-1a9ec8b6badc","sku":"_dOVOVzyVSmVd3pjUEohUO4LjY_8WFwkP2hIyqCg","name_en":"『Celine 赛琳』","name_cn":"『Celine 赛琳』\n\nCeline 新品AVA TRIOMPHE帆布手袋Z复古白花腋下包lisa同款,单肩女包豌豆包,61%涂层帆布,39%小牛皮。\n尺寸:23x 14x 7cm\n型号:3112#","specs":{"source":"wsxcme","sourceId":"_dOVOVzyVSmVd3pjUEohUO4LjY_8WFwkP2hIyqCg","sourceTagId":47003106,"sourceTagName":"塞琳/女包","modelNumber":"3112#","dimensions":{"lengthCm":23,"heightCm":14,"widthCm":7},"rawTitle":"『Celine 赛琳』\n\nCeline 新品AVA TRIOMPHE帆布手袋Z复古白花腋下包lisa同款,单肩女包豌豆包,61%涂层帆布,39%小牛皮。\n尺寸:23x 14x 7cm\n型号:3112#"},"price":null,"currency":"CNY","moq":1,"category":"celine-women-bags","status":"active","alibaba_url":null,"images":["https://xcimg.szwego.com/20220330/i1648611906_5249_0.jpg","https://xcimg.szwego.com/20220330/i1648611906_2689_1.jpg","https://xcimg.szwego.com/20220330/i1648611906_7554_2.jpg","https://xcimg.szwego.com/20220330/i1648611906_697_3.jpg","https://xcimg.szwego.com/20220330/i1648611906_3678_4.jpg","https://xcimg.szwego.com/20220330/i1648611906_2319_5.jpg","https://xcimg.szwego.com/20220330/i1648611906_2252_6.jpg","https://xcimg.szwego.com/20220330/i1648611906_1949_7.jpg","https://xcimg.szwego.com/20220330/i1648611906_4078_8.jpg"],"created_at":"2025-02-08T12:47:00.850Z"},{"id":"item-1a3f07cdcda6","sku":"_dtGtGkjz2GDSG75DFi2rbW-0uCT_D9WcAncMqbA","name_en":"『Celine 赛琳』","name_cn":"『Celine 赛琳』\n\nbox24cm  黑色\n\n经典款一直不过时💥\n头层牛皮配定制五金\n内侧拉链口袋和双层扁平口袋\n非常有质感的一款包🛍\n尺寸:24×18×7cm","specs":{"source":"wsxcme","sourceId":"_dtGtGkjz2GDSG75DFi2rbW-0uCT_D9WcAncMqbA","sourceTagId":47003106,"sourceTagName":"塞琳/女包","dimensions":{"lengthCm":24,"heightCm":18,"widthCm":7},"rawTitle":"『Celine 赛琳』\n\nbox24cm  黑色\n\n经典款一直不过时💥\n头层牛皮配定制五金\n内侧拉链口袋和双层扁平口袋\n非常有质感的一款包🛍\n尺寸:24×18×7cm"},"price":null,"currency":"CNY","moq":1,"category":"celine-women-bags","status":"active","alibaba_url":null,"images":["https://xcimg.szwego.com/20201130/i1606724626_6632_0.jpg","https://xcimg.szwego.com/20201130/i1606724626_1722_1.jpg","https://xcimg.szwego.com/20201130/i1606724626_1603_2.jpg","https://xcimg.szwego.com/20201130/i1606724626_4309_3.jpg","https://xcimg.szwego.com/20201130/i1606724626_2507_4.jpg","https://xcimg.szwego.com/20201130/i1606724626_703_5.jpg","https://xcimg.szwego.com/20201130/i1606724626_3168_6.jpg","https://xcimg.szwego.com/20201130/i1606724626_3846_7.jpg","https://xcimg.szwego.com/20201130/i1606724626_6691_8.jpg"],"created_at":"2025-02-08T12:47:15.862Z"},{"id":"item-18f0e02b97c8","sku":"_dipipTHI8c8YTlhbhbYMDLajaeyQ5NH5WUpE6Qw","name_en":"『Celine 赛琳』","name_cn":"『Celine 赛琳』\n\nbox24cm  雾霾蓝\n\n经典款一直不过时💥\n头层牛皮配定制五金\n内侧拉链口袋和双层扁平口袋\n非常有质感的一款包🛍\n尺寸:24×18×7cm","specs":{"source":"wsxcme","sourceId":"_dipipTHI8c8YTlhbhbYMDLajaeyQ5NH5WUpE6Qw","sourceTagId":47003106,"sourceTagName":"塞琳/女包","dimensions":{"lengthCm":24,"heightCm":18,"widthCm":7},"rawTitle":"『Celine 赛琳』\n\nbox24cm  雾霾蓝\n\n经典款一直不过时💥\n头层牛皮配定制五金\n内侧拉链口袋和双层扁平口袋\n非常有质感的一款包🛍\n尺寸:24×18×7cm"},"price":null,"currency":"CNY","moq":1,"category":"celine-women-bags","status":"active","alibaba_url":null,"images":["https://xcimg.szwego.com/20201130/i1606723492_9873_0.jpg","https://xcimg.szwego.com/20201130/i1606723492_1616_1.jpg","https://xcimg.szwego.com/20201130/i1606723492_3934_2.jpg","https://xcimg.szwego.com/20201130/i1606723492_3457_3.jpg","https://xcimg.szwego.com/20201130/i1606723492_728_4.jpg","https://xcimg.szwego.com/20201130/i1606723492_8598_5.jpg","https://xcimg.szwego.com/20201130/i1606723492_2234_6.jpg","https://xcimg.szwego.com/20201130/i1606723492_3157_7.jpg","https://xcimg.szwego.com/20201130/i1606723492_8050_8.jpg"],"created_at":"2025-02-08T12:47:15.858Z"},{"id":"item-14dfd074d9ce","sku":"_dQ8Q8U8qGpsk7ymUryHgCD25nYjXzYE15hkEZyg","name_en":"『Celine 赛琳』","name_cn":"『Celine 赛琳』\n\nCELINE托特包 手拎和单肩都很好看有腔调!老花搭配任何衣服都非常百搭,四季可用,让你可甜可盐,今年的老花风潮风靡全世界,拥有这只一定让你成为全场最有话题的时髦精 尺寸17*21cm","specs":{"source":"wsxcme","sourceId":"_dQ8Q8U8qGpsk7ymUryHgCD25nYjXzYE15hkEZyg","sourceTagId":47003106,"sourceTagName":"塞琳/女包","rawTitle":"『Celine 赛琳』\n\nCELINE托特包 手拎和单肩都很好看有腔调!老花搭配任何衣服都非常百搭,四季可用,让你可甜可盐,今年的老花风潮风靡全世界,拥有这只一定让你成为全场最有话题的时髦精 尺寸17*21cm"},"price":null,"currency":"CNY","moq":1,"category":"celine-women-bags","status":"active","alibaba_url":null,"images":["https://xcimg.szwego.com/20220401/i1648813230_9141_0.jpg","https://xcimg.szwego.com/20220401/i1648813230_3157_1.jpg","https://xcimg.szwego.com/20220401/i1648813230_3121_2.jpg","https://xcimg.szwego.com/20220401/i1648813230_6281_3.jpg","https://xcimg.szwego.com/20220401/i1648813230_8168_4.jpg","https://xcimg.szwego.com/20220401/i1648813230_485_5.jpg","https://xcimg.szwego.com/20220401/i1648813230_5118_6.jpg","https://xcimg.szwego.com/20220401/i1648813230_2092_7.jpg","https://xcimg.szwego.com/20220401/i1648813230_1782_8.jpg"],"created_at":"2025-02-08T12:47:23.823Z"},{"id":"item-13de42796591","sku":"_duGuG9-QKyQv0MCbDlNsv4hp8Y3u4L4BIFzk0WA","name_en":"『Celine 赛琳』","name_cn":"『Celine 赛琳』\n\n凯旋门链条腋下包•粉色\n立体的皮质浮雕凯旋门🦋\n法式中带很多点酷\n简约大气无敌时髦👜\n\n尺寸:21×11.5×4cm","specs":{"source":"wsxcme","sourceId":"_duGuG9-QKyQv0MCbDlNsv4hp8Y3u4L4BIFzk0WA","sourceTagId":47003106,"sourceTagName":"塞琳/女包","dimensions":{"lengthCm":21,"heightCm":11.5,"widthCm":4},"rawTitle":"『Celine 赛琳』\n\n凯旋门链条腋下包•粉色\n立体的皮质浮雕凯旋门🦋\n法式中带很多点酷\n简约大气无敌时髦👜\n\n尺寸:21×11.5×4cm"},"price":null,"currency":"CNY","moq":1,"category":"celine-women-bags","status":"active","alibaba_url":null,"images":["https://xcimg.szwego.com/20220613/i1655096057_540_0.jpg","https://xcimg.szwego.com/20220613/i1655096057_7318_1.jpg","https://xcimg.szwego.com/20220613/i1655096057_5978_2.jpg","https://xcimg.szwego.com/20220613/i1655096057_7072_3.jpg","https://xcimg.szwego.com/20220613/i1655096057_5979_4.jpg","https://xcimg.szwego.com/20220613/i1655096057_1687_5.jpg","https://xcimg.szwego.com/20220613/i1655096057_7952_6.jpg","https://xcimg.szwego.com/20220613/i1655096057_7884_7.jpg","https://xcimg.szwego.com/20220613/i1655096057_6281_8.jpg"],"created_at":"2025-02-08T12:47:15.826Z"},{"id":"item-12d0ed2cb077","sku":"_dAEAEcygIYjNJ0dG_ekrJyhoIcjL7ljCw7QQyzw","name_en":"『Celine 赛琳』","name_cn":"『Celine 赛琳』\n\n凯旋门腋下包升级•老花\n\n全新升级版复古鎏金,五金更耐用更耐磨\n配TRIOMPHE金属质感锁扣\n复古摩登结合,日常必备穿搭💥\n\n尺寸:20×10×4cm","specs":{"source":"wsxcme","sourceId":"_dAEAEcygIYjNJ0dG_ekrJyhoIcjL7ljCw7QQyzw","sourceTagId":47003106,"sourceTagName":"塞琳/女包","dimensions":{"lengthCm":20,"heightCm":10,"widthCm":4},"rawTitle":"『Celine 赛琳』\n\n凯旋门腋下包升级•老花\n\n全新升级版复古鎏金,五金更耐用更耐磨\n配TRIOMPHE金属质感锁扣\n复古摩登结合,日常必备穿搭💥\n\n尺寸:20×10×4cm"},"price":null,"currency":"CNY","moq":1,"category":"celine-women-bags","status":"active","alibaba_url":null,"images":["https://xcimg.szwego.com/20220327/i1648373748_5152_0.jpg","https://xcimg.szwego.com/20220327/i1648373748_5625_1.jpg","https://xcimg.szwego.com/20220327/i1648373748_8158_2.jpg","https://xcimg.szwego.com/20220327/i1648373748_3371_3.jpg","https://xcimg.szwego.com/20220327/i1648373748_5808_4.jpg","https://xcimg.szwego.com/20220327/i1648373748_9367_5.jpg","https://xcimg.szwego.com/20220327/i1648373748_5171_6.jpg","https://xcimg.szwego.com/20220327/i1648373748_5043_7.jpg","https://xcimg.szwego.com/20220327/i1648373748_6281_8.jpg"],"created_at":"2025-02-08T12:47:15.829Z"},{"id":"item-126ef0b067c2","sku":"_dwVwVbGtanVtOePYe6jctd8-51cBuqO_hkPsX0w","name_en":"『Celine 赛琳』","name_cn":"『Celine 赛琳』\n\n腋下包 最近发现 复古的老花风潮 持续升温Lisa作为Celine亚洲唯一代言人Celine老花 出镜率都很高!高级感超强!尺寸24*14cm","specs":{"source":"wsxcme","sourceId":"_dwVwVbGtanVtOePYe6jctd8-51cBuqO_hkPsX0w","sourceTagId":47003106,"sourceTagName":"塞琳/女包","rawTitle":"『Celine 赛琳』\n\n腋下包 最近发现 复古的老花风潮 持续升温Lisa作为Celine亚洲唯一代言人Celine老花 出镜率都很高!高级感超强!尺寸24*14cm"},"price":null,"currency":"CNY","moq":1,"category":"celine-women-bags","status":"active","alibaba_url":null,"images":["https://xcimg.szwego.com/20220108/i1641636261_7813_0.jpg","https://xcimg.szwego.com/20220108/i1641636261_2102_1.jpg","https://xcimg.szwego.com/20220108/i1641636261_5614_2.jpg","https://xcimg.szwego.com/20220108/i1641636261_9018_3.jpg","https://xcimg.szwego.com/20220108/i1641636261_4349_4.jpg","https://xcimg.szwego.com/20220108/i1641636261_4761_5.jpg","https://xcimg.szwego.com/20220108/i1641636261_7280_6.jpg","https://xcimg.szwego.com/20220108/i1641636261_7868_7.jpg","https://xcimg.szwego.com/20220108/i1641636261_1910_8.jpg"],"created_at":"2025-02-08T12:47:23.822Z"}],"page":8,"pageSize":24,"total":582,"totalPages":25}
