{"items":[{"id":"item-ef9b4422a586","sku":"_djtjtb2xE2miaQNQ7MX4cbI-Brm4MVQBhxAXe1g","name_en":"【最高版本原厂皮顶级原单配专柜全套包装】本款 CarryAll Dark 中号手袋以柔软羊皮革塑造时尚慵懒廓形,为 2024 春夏秀场造型增添瞩目姿彩。抛光金属件与触感良好的微皱纹理互为映衬。充裕空间可容纳多样日常用品,成就出行良伴。","name_cn":"【最高版本原厂皮顶级原单配专柜全套包装】本款 CarryAll Dark 中号手袋以柔软羊皮革塑造时尚慵懒廓形,为 2024 春夏秀场造型增添瞩目姿彩。抛光金属件与触感良好的微皱纹理互为映衬。充裕空间可容纳多样日常用品,成就出行良伴。\n型号: M25143\n皮料: 是西班牙A级皮料\n尺寸:39.0 x 30.0 x 15.0 厘米 (长 x 高 x 宽)","specs":{"source":"wsxcme","sourceId":"_djtjtb2xE2miaQNQ7MX4cbI-Brm4MVQBhxAXe1g","sourceTagId":47002622,"sourceTagName":"LV/女包","modelNumber":"M25143","dimensions":{"lengthCm":39,"heightCm":30,"widthCm":15},"rawTitle":"【最高版本原厂皮顶级原单配专柜全套包装】本款 CarryAll Dark 中号手袋以柔软羊皮革塑造时尚慵懒廓形,为 2024 春夏秀场造型增添瞩目姿彩。抛光金属件与触感良好的微皱纹理互为映衬。充裕空间可容纳多样日常用品,成就出行良伴。\n型号: M25143\n皮料: 是西班牙A级皮料\n尺寸:39.0 x 30.0 x 15.0 厘米 (长 x 高 x 宽)"},"price":null,"currency":"CNY","moq":1,"category":"lv-women-bags","status":"active","alibaba_url":null,"images":["https://xcimg.szwego.com/img/a02886bd/20250811/a1754894836798_6670.jpg","https://xcimg.szwego.com/img/a02886bd/20250811/a1754894836778_6114.jpg","https://xcimg.szwego.com/img/a02886bd/20250811/a1754894835623_3868.jpg","https://xcimg.szwego.com/img/a02886bd/20250811/a1754894835900_5567.jpg","https://xcimg.szwego.com/img/a02886bd/20250811/a1754894838030_3657.jpg","https://xcimg.szwego.com/img/a02886bd/20250811/a1754894840247_5000.jpg","https://xcimg.szwego.com/img/a02886bd/20250811/a1754894840916_2001.jpg"],"created_at":"2025-09-19T04:46:55.848Z"},{"id":"item-1060b432eb01","sku":"_dohohE1IVb9zE6ozzuGghDxwrQ5sXyLQTdlk67w","name_en":"【最高版本原厂皮顶级原单配专柜全套包装】本款 CarryAll Cargo 小号手袋以柔软羊皮革呈现时尚微皱效果,并为深邃背景搭配抛光金属件与慵懒构型,成就昼夜场合佳选。可拆卸肩带与链带实现多种造型可能。","name_cn":"【最高版本原厂皮顶级原单配专柜全套包装】本款 CarryAll Cargo 小号手袋以柔软羊皮革呈现时尚微皱效果,并为深邃背景搭配抛光金属件与慵懒构型,成就昼夜场合佳选。可拆卸肩带与链带实现多种造型可能。\n型号: M24861\n皮料: 是西班牙A级皮料\n尺寸:33.5 x 23.0 x 15.0 厘米 (长 x 高 x 宽)","specs":{"source":"wsxcme","sourceId":"_dohohE1IVb9zE6ozzuGghDxwrQ5sXyLQTdlk67w","sourceTagId":47002622,"sourceTagName":"LV/女包","modelNumber":"M24861","dimensions":{"lengthCm":33.5,"heightCm":23,"widthCm":15},"rawTitle":"【最高版本原厂皮顶级原单配专柜全套包装】本款 CarryAll Cargo 小号手袋以柔软羊皮革呈现时尚微皱效果,并为深邃背景搭配抛光金属件与慵懒构型,成就昼夜场合佳选。可拆卸肩带与链带实现多种造型可能。\n型号: M24861\n皮料: 是西班牙A级皮料\n尺寸:33.5 x 23.0 x 15.0 厘米 (长 x 高 x 宽)"},"price":null,"currency":"CNY","moq":1,"category":"lv-women-bags","status":"active","alibaba_url":null,"images":["https://xcimg.szwego.com/img/a02886bd/20250814/a1755153074663_0376.jpg","https://xcimg.szwego.com/img/a02886bd/20250814/a1755153074675_5427.jpg","https://xcimg.szwego.com/img/a02886bd/20250814/a1755153074755_6570.jpg","https://xcimg.szwego.com/img/a02886bd/20250814/a1755153075765_6240.jpg","https://xcimg.szwego.com/img/a02886bd/20250814/a1755153076796_5375.jpg","https://xcimg.szwego.com/img/a02886bd/20250814/a1755153076771_8144.jpg","https://xcimg.szwego.com/img/a02886bd/20250814/a1755153076834_0630.jpg"],"created_at":"2025-09-19T04:46:45.593Z"},{"id":"item-020906b20d99","sku":"_dijijnR4dqDFpMN5Cnkqv8uVMbYtNUIrTF3dPew","name_en":"【最高版本原厂皮顶级原单配专柜全套包装】本款 CarryAll BB 手袋取材 Monogram 帆布,为耀目链条点缀 Monogram 花卉,以潮流之姿点亮昼夜场合。皮革名牌与系带开合相得益彰,拉链内袋方便日常取用信用卡。","name_cn":"【最高版本原厂皮顶级原单配专柜全套包装】本款 CarryAll BB 手袋取材 Monogram 帆布,为耀目链条点缀 Monogram 花卉,以潮流之姿点亮昼夜场合。皮革名牌与系带开合相得益彰,拉链内袋方便日常取用信用卡。\n型号: M12888\n皮料: 是意大利A级皮料\n尺寸:26.0 x 17.0 x 10.0 厘米 (长 x 高 x 宽)","specs":{"source":"wsxcme","sourceId":"_dijijnR4dqDFpMN5Cnkqv8uVMbYtNUIrTF3dPew","sourceTagId":47002622,"sourceTagName":"LV/女包","modelNumber":"M12888","dimensions":{"lengthCm":26,"heightCm":17,"widthCm":10},"rawTitle":"【最高版本原厂皮顶级原单配专柜全套包装】本款 CarryAll BB 手袋取材 Monogram 帆布,为耀目链条点缀 Monogram 花卉,以潮流之姿点亮昼夜场合。皮革名牌与系带开合相得益彰,拉链内袋方便日常取用信用卡。\n型号: M12888\n皮料: 是意大利A级皮料\n尺寸:26.0 x 17.0 x 10.0 厘米 (长 x 高 x 宽)"},"price":null,"currency":"CNY","moq":1,"category":"lv-women-bags","status":"active","alibaba_url":null,"images":["https://xcimg.szwego.com/img/a02886bd/20250814/a1755153303485_1022.jpg","https://xcimg.szwego.com/img/a02886bd/20250814/a1755153303662_7016.jpg","https://xcimg.szwego.com/img/a02886bd/20250814/a1755153303247_5706.jpg","https://xcimg.szwego.com/img/a02886bd/20250814/a1755153303932_5454.jpg","https://xcimg.szwego.com/img/a02886bd/20250814/a1755153308177_3787.jpg","https://xcimg.szwego.com/img/a02886bd/20250814/a1755153308146_2242.jpg","https://xcimg.szwego.com/img/a02886bd/20250814/a1755153308447_1113.jpg"],"created_at":"2025-09-19T04:46:37.158Z"},{"id":"item-5de8abed7203","sku":"_ddzdzkR2YTdogysh61Av9VK4_fqIgh6XBk4CdMg","name_en":"M40990 M40599-M41358-M41359","name_cn":"M40990 M40599-M41358-M41359\n实拍组合图","specs":{"source":"wsxcme","sourceId":"_ddzdzkR2YTdogysh61Av9VK4_fqIgh6XBk4CdMg","sourceTagId":47002622,"sourceTagName":"LV/女包","rawTitle":"M40990 M40599-M41358-M41359\n实拍组合图"},"price":null,"currency":"CNY","moq":1,"category":"lv-women-bags","status":"active","alibaba_url":null,"images":["https://xcimg.szwego.com/img/a3cc9079/20241220/i1734672808_3969_0.jpg"],"created_at":"2025-09-19T03:41:59.928Z"},{"id":"item-a8dcb45cdffa","sku":"_dmFmFhuWZy444DnlZM42NpxmKpMCXhxriAA0AdA","name_en":"M41602-M40598-M41359","name_cn":"M41602-M40598-M41359\nM40990啡格粉\n实拍组合图","specs":{"source":"wsxcme","sourceId":"_dmFmFhuWZy444DnlZM42NpxmKpMCXhxriAA0AdA","sourceTagId":47002622,"sourceTagName":"LV/女包","rawTitle":"M41602-M40598-M41359\nM40990啡格粉\n实拍组合图"},"price":null,"currency":"CNY","moq":1,"category":"lv-women-bags","status":"active","alibaba_url":null,"images":["https://xcimg.szwego.com/img/a3cc9079/20250102/i1735793483_1137_0.jpg"],"created_at":"2025-09-19T03:41:44.389Z"},{"id":"item-3179455bbf42","sku":"_diYiYtgzFAqBvKqO2N_y9NUH_cGI9KzQ_c0n-tw","name_en":"M40990 M41177 M41000","name_cn":"M40990 M41177 M41000\n实拍组合图","specs":{"source":"wsxcme","sourceId":"_diYiYtgzFAqBvKqO2N_y9NUH_cGI9KzQ_c0n-tw","sourceTagId":47002622,"sourceTagName":"LV/女包","rawTitle":"M40990 M41177 M41000\n实拍组合图"},"price":null,"currency":"CNY","moq":1,"category":"lv-women-bags","status":"active","alibaba_url":null,"images":["https://xcimg.szwego.com/img/a3cc9079/20241126/i1732600066_7748_0.jpg"],"created_at":"2025-09-19T03:41:27.108Z"},{"id":"item-31f0c0b88bad","sku":"_diyiyY9FoYsQ5MqdF5lP4z8D6pSoD91-9BaQ6bw","name_en":"M50365-M50366-M40994","name_cn":"M50365-M50366-M40994\n实拍组合图","specs":{"source":"wsxcme","sourceId":"_diyiyY9FoYsQ5MqdF5lP4z8D6pSoD91-9BaQ6bw","sourceTagId":47002622,"sourceTagName":"LV/女包","rawTitle":"M50365-M50366-M40994\n实拍组合图"},"price":null,"currency":"CNY","moq":1,"category":"lv-women-bags","status":"active","alibaba_url":null,"images":["https://xcimg.szwego.com/img/a3cc9079/20250103/i1735907508_132_0.jpg"],"created_at":"2025-09-19T03:40:58.605Z"},{"id":"item-0d1a96175d94","sku":"_d-8-8QPeWoaHSoYLi1LQFu1P8HomubCDavEsfmQ","name_en":"Louis Vuitton Women Bags","name_cn":"顶级原单,变码芯片\nM25453杏色 M47209黑色  \nM46492粉色  M25452白色\n本款 Summer Bundle 手袋出自 Dégradé 系列,崭新抽绳设计增添夏日氛围。Monogram Empreinte 压纹皮革包身呈现渐变色调,可点亮任意当季造型。双手柄与可拆卸斜挎肩带提供多种时尚背携方式,成就昼夜出行良伴。28.0 x 20.0 x 11.5 cm (长 x 高 x 宽)\n\t•\t压纹软牛皮革\n\t•\t牛皮革饰边\n\t•\t微纤维\n\t•\t金属件\n\t•\t可拆卸拉链袋\n\t•\tStrap:可拆卸,可调节\n\t•\tStrap drop:48.0 cm\n\t•\tStrap drop max:58.0 cm\n\t•\tHandle:双手柄","specs":{"source":"wsxcme","sourceId":"_d-8-8QPeWoaHSoYLi1LQFu1P8HomubCDavEsfmQ","sourceTagId":47002622,"sourceTagName":"LV/女包","rawTitle":"顶级原单,变码芯片\nM25453杏色 M47209黑色  \nM46492粉色  M25452白色\n本款 Summer Bundle 手袋出自 Dégradé 系列,崭新抽绳设计增添夏日氛围。Monogram Empreinte 压纹皮革包身呈现渐变色调,可点亮任意当季造型。双手柄与可拆卸斜挎肩带提供多种时尚背携方式,成就昼夜出行良伴。28.0 x 20.0 x 11.5 cm (长 x 高 x 宽)\n\t•\t压纹软牛皮革\n\t•\t牛皮革饰边\n\t•\t微纤维\n\t•\t金属件\n\t•\t可拆卸拉链袋\n\t•\tStrap:可拆卸,可调节\n\t•\tStrap drop:48.0 cm\n\t•\tStrap drop max:58.0 cm\n\t•\tHandle:双手柄"},"price":null,"currency":"CNY","moq":1,"category":"lv-women-bags","status":"active","alibaba_url":null,"images":["https://xcimg.szwego.com/img/a3cc9079/20241210/i1733830185_5126_0.jpg","https://xcimg.szwego.com/img/a3cc9079/20241210/i1733830186_2247_8.jpg","https://xcimg.szwego.com/img/a3cc9079/20241210/i1733830186_748_6.jpg","https://xcimg.szwego.com/img/a3cc9079/20241210/i1733830185_5951_1.jpg","https://xcimg.szwego.com/img/a3cc9079/20241210/i1733830186_411_3.jpg","https://xcimg.szwego.com/img/a3cc9079/20241210/i1733830186_82_4.jpg","https://xcimg.szwego.com/img/a3cc9079/20241210/i1733830186_7906_2.jpg","https://xcimg.szwego.com/img/a3cc9079/20241210/i1733830186_4304_5.jpg","https://xcimg.szwego.com/img/a3cc9079/20241210/i1733830186_9720_7.jpg"],"created_at":"2025-09-19T03:40:11.178Z"},{"id":"item-ea4b8502b0cc","sku":"_dlzlzYxJDlxGgFLTs1RdcAvJ9Nn297V5B6SeRJw","name_en":"Louis Vuitton Women Bags","name_cn":"顶级原单,变码芯片\nM25453杏色 M47209黑色  \nM46492粉色  M25452白色\n本款 Summer Bundle 手袋出自 Dégradé 系列,崭新抽绳设计增添夏日氛围。Monogram Empreinte 压纹皮革包身呈现渐变色调,可点亮任意当季造型。双手柄与可拆卸斜挎肩带提供多种时尚背携方式,成就昼夜出行良伴。28.0 x 20.0 x 11.5 cm (长 x 高 x 宽)\n\t•\t压纹软牛皮革\n\t•\t牛皮革饰边\n\t•\t微纤维\n\t•\t金属件\n\t•\t可拆卸拉链袋\n\t•\tStrap:可拆卸,可调节\n\t•\tStrap drop:48.0 cm\n\t•\tStrap drop max:58.0 cm\n\t•\tHandle:双手柄","specs":{"source":"wsxcme","sourceId":"_dlzlzYxJDlxGgFLTs1RdcAvJ9Nn297V5B6SeRJw","sourceTagId":47002622,"sourceTagName":"LV/女包","rawTitle":"顶级原单,变码芯片\nM25453杏色 M47209黑色  \nM46492粉色  M25452白色\n本款 Summer Bundle 手袋出自 Dégradé 系列,崭新抽绳设计增添夏日氛围。Monogram Empreinte 压纹皮革包身呈现渐变色调,可点亮任意当季造型。双手柄与可拆卸斜挎肩带提供多种时尚背携方式,成就昼夜出行良伴。28.0 x 20.0 x 11.5 cm (长 x 高 x 宽)\n\t•\t压纹软牛皮革\n\t•\t牛皮革饰边\n\t•\t微纤维\n\t•\t金属件\n\t•\t可拆卸拉链袋\n\t•\tStrap:可拆卸,可调节\n\t•\tStrap drop:48.0 cm\n\t•\tStrap drop max:58.0 cm\n\t•\tHandle:双手柄"},"price":null,"currency":"CNY","moq":1,"category":"lv-women-bags","status":"active","alibaba_url":null,"images":["https://xcimg.szwego.com/img/a3cc9079/20241227/i1735284664_5441_2.jpg","https://xcimg.szwego.com/img/a3cc9079/20241227/i1735284664_5615_0.jpg","https://xcimg.szwego.com/img/a3cc9079/20241227/i1735284664_3844_3.jpg","https://xcimg.szwego.com/img/a3cc9079/20241227/i1735284664_3463_8.jpg","https://xcimg.szwego.com/img/a3cc9079/20241227/i1735284664_9952_7.jpg","https://xcimg.szwego.com/img/a3cc9079/20241227/i1735284664_5919_4.jpg","https://xcimg.szwego.com/img/a3cc9079/20241227/i1735284664_4942_1.jpg","https://xcimg.szwego.com/img/a3cc9079/20241227/i1735284664_3006_5.jpg","https://xcimg.szwego.com/img/a3cc9079/20241227/i1735284664_7300_6.jpg"],"created_at":"2025-09-19T03:40:02.765Z"},{"id":"item-741f51a73a3d","sku":"_dmumuCPAtmvV2JaGK99t5_6J4PMklFCsWVYOwJA","name_en":"Louis Vuitton Women Bags","name_cn":"顶级原单,变码芯片\nM25453杏色 M47209黑色  \nM46492粉色  M25452白色\n本款 Summer Bundle 手袋出自 Dégradé 系列,崭新抽绳设计增添夏日氛围。Monogram Empreinte 压纹皮革包身呈现渐变色调,可点亮任意当季造型。双手柄与可拆卸斜挎肩带提供多种时尚背携方式,成就昼夜出行良伴。28.0 x 20.0 x 11.5 cm (长 x 高 x 宽)\n\t•\t压纹软牛皮革\n\t•\t牛皮革饰边\n\t•\t微纤维\n\t•\t金属件\n\t•\t可拆卸拉链袋\n\t•\tStrap:可拆卸,可调节\n\t•\tStrap drop:48.0 cm\n\t•\tStrap drop max:58.0 cm\n\t•\tHandle:双手柄","specs":{"source":"wsxcme","sourceId":"_dmumuCPAtmvV2JaGK99t5_6J4PMklFCsWVYOwJA","sourceTagId":47002622,"sourceTagName":"LV/女包","rawTitle":"顶级原单,变码芯片\nM25453杏色 M47209黑色  \nM46492粉色  M25452白色\n本款 Summer Bundle 手袋出自 Dégradé 系列,崭新抽绳设计增添夏日氛围。Monogram Empreinte 压纹皮革包身呈现渐变色调,可点亮任意当季造型。双手柄与可拆卸斜挎肩带提供多种时尚背携方式,成就昼夜出行良伴。28.0 x 20.0 x 11.5 cm (长 x 高 x 宽)\n\t•\t压纹软牛皮革\n\t•\t牛皮革饰边\n\t•\t微纤维\n\t•\t金属件\n\t•\t可拆卸拉链袋\n\t•\tStrap:可拆卸,可调节\n\t•\tStrap drop:48.0 cm\n\t•\tStrap drop max:58.0 cm\n\t•\tHandle:双手柄"},"price":null,"currency":"CNY","moq":1,"category":"lv-women-bags","status":"active","alibaba_url":null,"images":["https://xcimg.szwego.com/img/a3cc9079/20241210/i1733830218_532_1.jpg","https://xcimg.szwego.com/img/a3cc9079/20241210/i1733830218_3892_4.jpg","https://xcimg.szwego.com/img/a3cc9079/20241210/i1733830218_2805_8.jpg","https://xcimg.szwego.com/img/a3cc9079/20241210/i1733830218_2042_0.jpg","https://xcimg.szwego.com/img/a3cc9079/20241210/i1733830218_4679_2.jpg","https://xcimg.szwego.com/img/a3cc9079/20241210/i1733830218_3656_7.jpg","https://xcimg.szwego.com/img/a3cc9079/20241210/i1733830218_5378_3.jpg","https://xcimg.szwego.com/img/a3cc9079/20241210/i1733830218_7483_5.jpg","https://xcimg.szwego.com/img/a3cc9079/20241210/i1733830218_4434_6.jpg"],"created_at":"2025-09-19T03:39:54.866Z"},{"id":"item-2da8f37fea71","sku":"_dgogofgtHnsZDEXiNIKsuAe8QMNwI2kE00_FuYw","name_en":"Louis Vuitton Women Bags","name_cn":"顶级原单,变码芯片\nM25453杏色 M47209黑色  \nM46492粉色  M25452白色\n本款 Summer Bundle 手袋出自 Dégradé 系列,崭新抽绳设计增添夏日氛围。Monogram Empreinte 压纹皮革包身呈现渐变色调,可点亮任意当季造型。双手柄与可拆卸斜挎肩带提供多种时尚背携方式,成就昼夜出行良伴。28.0 x 20.0 x 11.5 cm (长 x 高 x 宽)\n\t•\t压纹软牛皮革\n\t•\t牛皮革饰边\n\t•\t微纤维\n\t•\t金属件\n\t•\t可拆卸拉链袋\n\t•\tStrap:可拆卸,可调节\n\t•\tStrap drop:48.0 cm\n\t•\tStrap drop max:58.0 cm\n\t•\tHandle:双手柄","specs":{"source":"wsxcme","sourceId":"_dgogofgtHnsZDEXiNIKsuAe8QMNwI2kE00_FuYw","sourceTagId":47002622,"sourceTagName":"LV/女包","rawTitle":"顶级原单,变码芯片\nM25453杏色 M47209黑色  \nM46492粉色  M25452白色\n本款 Summer Bundle 手袋出自 Dégradé 系列,崭新抽绳设计增添夏日氛围。Monogram Empreinte 压纹皮革包身呈现渐变色调,可点亮任意当季造型。双手柄与可拆卸斜挎肩带提供多种时尚背携方式,成就昼夜出行良伴。28.0 x 20.0 x 11.5 cm (长 x 高 x 宽)\n\t•\t压纹软牛皮革\n\t•\t牛皮革饰边\n\t•\t微纤维\n\t•\t金属件\n\t•\t可拆卸拉链袋\n\t•\tStrap:可拆卸,可调节\n\t•\tStrap drop:48.0 cm\n\t•\tStrap drop max:58.0 cm\n\t•\tHandle:双手柄"},"price":null,"currency":"CNY","moq":1,"category":"lv-women-bags","status":"active","alibaba_url":null,"images":["https://xcimg.szwego.com/img/a3cc9079/20241210/i1733830151_2561_5.jpg","https://xcimg.szwego.com/img/a3cc9079/20241210/i1733830151_4220_8.jpg","https://xcimg.szwego.com/img/a3cc9079/20241210/i1733830150_6565_0.jpg","https://xcimg.szwego.com/img/a3cc9079/20241210/i1733830150_1546_1.jpg","https://xcimg.szwego.com/img/a3cc9079/20241210/i1733830151_8218_6.jpg","https://xcimg.szwego.com/img/a3cc9079/20241210/i1733830151_6922_2.jpg","https://xcimg.szwego.com/img/a3cc9079/20241210/i1733830151_1477_4.jpg","https://xcimg.szwego.com/img/a3cc9079/20241210/i1733830151_6018_7.jpg","https://xcimg.szwego.com/img/a3cc9079/20241210/i1733830151_8312_3.jpg"],"created_at":"2025-09-19T03:39:46.687Z"},{"id":"item-5a38d4d0a3dc","sku":"_dldldgbylPIB0kLGB7jmZ5lSLSvTAjhXFkZ3RVA","name_en":"M25453杏色 M47209黑色","name_cn":"M25453杏色 M47209黑色  \nM46492粉色  M25452白色\n实拍组合图","specs":{"source":"wsxcme","sourceId":"_dldldgbylPIB0kLGB7jmZ5lSLSvTAjhXFkZ3RVA","sourceTagId":47002622,"sourceTagName":"LV/女包","rawTitle":"M25453杏色 M47209黑色  \nM46492粉色  M25452白色\n实拍组合图"},"price":null,"currency":"CNY","moq":1,"category":"lv-women-bags","status":"active","alibaba_url":null,"images":["https://xcimg.szwego.com/img/a3cc9079/20241227/i1735284754_9419_0.jpg"],"created_at":"2025-09-19T03:39:37.479Z"},{"id":"item-86fb7ca6534d","sku":"_daUaUwlJlzwCzhj6-RstEbJW9mGSx40wVdMs_ng","name_en":"Louis Vuitton Women Bags","name_cn":"顶级原单,变码芯片\nM45900小号 M45898大号\nGRAND PALAIS 手袋 Grand Palais 手袋为Monogram  再以名牌和挂锁续写的旅行精神 齐整隔层和口袋方便收纳 可拆卸并调节的肩带实现手持 肘挎和斜挎体验\nsize:34x24x15cm\nsize:29×18×12cm","specs":{"source":"wsxcme","sourceId":"_daUaUwlJlzwCzhj6-RstEbJW9mGSx40wVdMs_ng","sourceTagId":47002622,"sourceTagName":"LV/女包","rawTitle":"顶级原单,变码芯片\nM45900小号 M45898大号\nGRAND PALAIS 手袋 Grand Palais 手袋为Monogram  再以名牌和挂锁续写的旅行精神 齐整隔层和口袋方便收纳 可拆卸并调节的肩带实现手持 肘挎和斜挎体验\nsize:34x24x15cm\nsize:29×18×12cm"},"price":null,"currency":"CNY","moq":1,"category":"lv-women-bags","status":"active","alibaba_url":null,"images":["https://xcimg.szwego.com/img/a3cc9079/20241101/i1730458608_1837_4.jpg","https://xcimg.szwego.com/img/a3cc9079/20241101/i1730458608_8753_1.jpg","https://xcimg.szwego.com/img/a3cc9079/20241101/i1730458608_3537_6.jpg","https://xcimg.szwego.com/img/a3cc9079/20241101/i1730458608_2308_5.jpg","https://xcimg.szwego.com/img/a3cc9079/20241101/i1730458608_1858_2.jpg","https://xcimg.szwego.com/img/a3cc9079/20241101/i1730458608_9896_3.jpg","https://xcimg.szwego.com/img/a3cc9079/20241101/i1730458608_7005_0.jpg","https://xcimg.szwego.com/img/a3cc9079/20241101/i1730458609_4043_7.jpg","https://xcimg.szwego.com/img/a3cc9079/20241101/i1730458609_6040_8.jpg"],"created_at":"2025-09-19T03:39:26.239Z"},{"id":"item-38dda086a59b","sku":"_d8V8VBHza-8u_zJRYxyEjXhdOrbjnSVYmIhSo_w","name_en":"Louis Vuitton Women Bags","name_cn":"顶级原单,变码芯片\nM45900小号 M45898大号\nGRAND PALAIS 手袋 Grand Palais 手袋为Monogram  再以名牌和挂锁续写的旅行精神 齐整隔层和口袋方便收纳 可拆卸并调节的肩带实现手持 肘挎和斜挎体验\nsize:34x24x15cm\nsize:29×18×12cm","specs":{"source":"wsxcme","sourceId":"_d8V8VBHza-8u_zJRYxyEjXhdOrbjnSVYmIhSo_w","sourceTagId":47002622,"sourceTagName":"LV/女包","rawTitle":"顶级原单,变码芯片\nM45900小号 M45898大号\nGRAND PALAIS 手袋 Grand Palais 手袋为Monogram  再以名牌和挂锁续写的旅行精神 齐整隔层和口袋方便收纳 可拆卸并调节的肩带实现手持 肘挎和斜挎体验\nsize:34x24x15cm\nsize:29×18×12cm"},"price":null,"currency":"CNY","moq":1,"category":"lv-women-bags","status":"active","alibaba_url":null,"images":["https://xcimg.szwego.com/img/a3cc9079/20241101/i1730458661_6440_1.jpg","https://xcimg.szwego.com/img/a3cc9079/20241101/i1730458661_9042_3.jpg","https://xcimg.szwego.com/img/a3cc9079/20241101/i1730458662_6673_8.jpg","https://xcimg.szwego.com/img/a3cc9079/20241101/i1730458661_3151_4.jpg","https://xcimg.szwego.com/img/a3cc9079/20241101/i1730458662_2252_6.jpg","https://xcimg.szwego.com/img/a3cc9079/20241101/i1730458662_517_7.jpg","https://xcimg.szwego.com/img/a3cc9079/20241101/i1730458661_1835_5.jpg","https://xcimg.szwego.com/img/a3cc9079/20241101/i1730458661_1858_2.jpg","https://xcimg.szwego.com/img/a3cc9079/20241101/i1730458661_8657_0.jpg"],"created_at":"2025-09-19T03:39:17.901Z"},{"id":"item-c1d2cefb1385","sku":"_dagagCn44HncbOPri48XsP9z7lPTR6aGdrhDH7w","name_en":"M45900小号","name_cn":"M45900小号\nM45898大号\n实拍组合图","specs":{"source":"wsxcme","sourceId":"_dagagCn44HncbOPri48XsP9z7lPTR6aGdrhDH7w","sourceTagId":47002622,"sourceTagName":"LV/女包","rawTitle":"M45900小号\nM45898大号\n实拍组合图"},"price":null,"currency":"CNY","moq":1,"category":"lv-women-bags","status":"active","alibaba_url":null,"images":["https://xcimg.szwego.com/img/a3cc9079/20241101/i1730458714_2422_0.jpg"],"created_at":"2025-09-19T03:39:07.625Z"},{"id":"item-f1b67df7665b","sku":"_dtutumqGMvtQTlrwuUHqgLyhuuyJIMHYfomZmyA","name_en":"Louis Vuitton Women Bags","name_cn":"💰\n顶级原单,变码芯片 M13014\n本款 CarryAll BB 手袋取材 Monogram 帆布,为耀目链条点缀 Monogram 花卉,以潮流之姿点亮昼夜场合。皮革名牌与系带开合相得益彰,拉链内袋方便日常取用信用卡。\n\n17 x 10 x 26 厘米 \n(高 x 宽 x 长度)\nMonogram 涂层帆布\n牛皮革饰边\n织物内衬\n金属件\n系带和磁扣开合\n拉链内贴袋\n名牌\n可收纳智能手机、钥匙、Zippy 钱夹和耳机\n肩带:不可拆卸,可调节\n包带半长:40.0 厘米\n包带半长可调至:50.0 厘米\n手柄:单手柄,可拆卸","specs":{"source":"wsxcme","sourceId":"_dtutumqGMvtQTlrwuUHqgLyhuuyJIMHYfomZmyA","sourceTagId":47002622,"sourceTagName":"LV/女包","rawTitle":"💰\n顶级原单,变码芯片 M13014\n本款 CarryAll BB 手袋取材 Monogram 帆布,为耀目链条点缀 Monogram 花卉,以潮流之姿点亮昼夜场合。皮革名牌与系带开合相得益彰,拉链内袋方便日常取用信用卡。\n\n17 x 10 x 26 厘米 \n(高 x 宽 x 长度)\nMonogram 涂层帆布\n牛皮革饰边\n织物内衬\n金属件\n系带和磁扣开合\n拉链内贴袋\n名牌\n可收纳智能手机、钥匙、Zippy 钱夹和耳机\n肩带:不可拆卸,可调节\n包带半长:40.0 厘米\n包带半长可调至:50.0 厘米\n手柄:单手柄,可拆卸"},"price":null,"currency":"CNY","moq":1,"category":"lv-women-bags","status":"active","alibaba_url":null,"images":["https://xcimg.szwego.com/img/a3cc9079/20250114/i1736839220_4159_3.jpg","https://xcimg.szwego.com/img/a3cc9079/20250114/i1736839220_3841_1.jpg","https://xcimg.szwego.com/img/a3cc9079/20250114/i1736839221_153_7.jpg","https://xcimg.szwego.com/img/a3cc9079/20250114/i1736839221_6991_6.jpg","https://xcimg.szwego.com/img/a3cc9079/20250114/i1736839220_9261_0.jpg","https://xcimg.szwego.com/img/a3cc9079/20250114/i1736839220_6839_2.jpg","https://xcimg.szwego.com/img/a3cc9079/20250114/i1736839221_7712_8.jpg","https://xcimg.szwego.com/img/a3cc9079/20250114/i1736839220_2051_4.jpg","https://xcimg.szwego.com/img/a3cc9079/20250114/i1736839221_6567_5.jpg"],"created_at":"2025-09-19T03:38:43.150Z"},{"id":"item-f9b5299598ad","sku":"_dv-v-jF6AylHsvC2DYCU_04WaIfCYBCwsTFFuXA","name_en":"M12888黑 M13014老花","name_cn":"M12888黑 M13014老花\n实拍组合图,163芯片","specs":{"source":"wsxcme","sourceId":"_dv-v-jF6AylHsvC2DYCU_04WaIfCYBCwsTFFuXA","sourceTagId":47002622,"sourceTagName":"LV/女包","rawTitle":"M12888黑 M13014老花\n实拍组合图,163芯片"},"price":null,"currency":"CNY","moq":1,"category":"lv-women-bags","status":"active","alibaba_url":null,"images":["https://xcimg.szwego.com/img/a3cc9079/20250208/i1739007679_6269_0.jpg"],"created_at":"2025-09-19T03:38:33.972Z"},{"id":"item-6a7f94c93bfc","sku":"_deBeBcXAZEi46PdrTC2nkajPXuxh0N_xeffeMDA","name_en":"Louis Vuitton Women Bags","name_cn":"变码芯片,定制头层牛皮\n 顶级原单M47142新版蓝 M46613 枣红M44881杏色M41487黑色\nPOCHETTE MÉTIS 手袋Pochette Métis 手袋以内敛而不失巧思的设计演绎经典学院背包。柔软的 Monogram Empreinte 皮革塑造紧凑灵活的构型,将充裕空间藏匿其中。\n详细特征\n25 x 19 x 7 厘米 \n(长度 x 高 x 宽)\nMonogram Empreinte 压纹软粒面牛皮 / 软粒面牛皮\n软粒面牛皮饰边\n织物内衬\n肩带:可拆卸,可调节\n包带半长:48.0 厘米\n包带半长可调至:55.0 厘米\n手柄:单手柄","specs":{"source":"wsxcme","sourceId":"_deBeBcXAZEi46PdrTC2nkajPXuxh0N_xeffeMDA","sourceTagId":47002622,"sourceTagName":"LV/女包","rawTitle":"变码芯片,定制头层牛皮\n 顶级原单M47142新版蓝 M46613 枣红M44881杏色M41487黑色\nPOCHETTE MÉTIS 手袋Pochette Métis 手袋以内敛而不失巧思的设计演绎经典学院背包。柔软的 Monogram Empreinte 皮革塑造紧凑灵活的构型,将充裕空间藏匿其中。\n详细特征\n25 x 19 x 7 厘米 \n(长度 x 高 x 宽)\nMonogram Empreinte 压纹软粒面牛皮 / 软粒面牛皮\n软粒面牛皮饰边\n织物内衬\n肩带:可拆卸,可调节\n包带半长:48.0 厘米\n包带半长可调至:55.0 厘米\n手柄:单手柄"},"price":null,"currency":"CNY","moq":1,"category":"lv-women-bags","status":"active","alibaba_url":null,"images":["https://xcimg.szwego.com/img/a3cc9079/20240808/i1723095322_8772_8.jpg","https://xcimg.szwego.com/img/a3cc9079/20240808/i1723095322_5113_3.jpg","https://xcimg.szwego.com/img/a3cc9079/20240808/i1723095322_5093_7.jpg","https://xcimg.szwego.com/img/a3cc9079/20240808/i1723095322_9458_5.jpg","https://xcimg.szwego.com/img/a3cc9079/20240808/i1723095322_1514_2.jpg","https://xcimg.szwego.com/img/a3cc9079/20240808/i1723095322_1870_4.jpg","https://xcimg.szwego.com/img/a3cc9079/20240808/i1723095322_2156_0.jpg","https://xcimg.szwego.com/img/a3cc9079/20240808/i1723095322_4902_1.jpg","https://xcimg.szwego.com/img/a3cc9079/20240808/i1723095322_4042_6.jpg"],"created_at":"2025-09-19T03:38:23.755Z"},{"id":"item-bd08050e0be9","sku":"_dbgbgYGXDOeXj2oafAOINNAumqlO-el46V3Dxvw","name_en":"Louis Vuitton Women Bags","name_cn":"变码芯片,定制头层牛皮\n 顶级原单M47142新版蓝 M46613 枣红M44881杏色M41487黑色\nPOCHETTE MÉTIS 手袋Pochette Métis 手袋以内敛而不失巧思的设计演绎经典学院背包。柔软的 Monogram Empreinte 皮革塑造紧凑灵活的构型,将充裕空间藏匿其中。\n详细特征\n25 x 19 x 7 厘米 \n(长度 x 高 x 宽)\nMonogram Empreinte 压纹软粒面牛皮 / 软粒面牛皮\n软粒面牛皮饰边\n织物内衬\n肩带:可拆卸,可调节\n包带半长:48.0 厘米\n包带半长可调至:55.0 厘米\n手柄:单手柄","specs":{"source":"wsxcme","sourceId":"_dbgbgYGXDOeXj2oafAOINNAumqlO-el46V3Dxvw","sourceTagId":47002622,"sourceTagName":"LV/女包","rawTitle":"变码芯片,定制头层牛皮\n 顶级原单M47142新版蓝 M46613 枣红M44881杏色M41487黑色\nPOCHETTE MÉTIS 手袋Pochette Métis 手袋以内敛而不失巧思的设计演绎经典学院背包。柔软的 Monogram Empreinte 皮革塑造紧凑灵活的构型,将充裕空间藏匿其中。\n详细特征\n25 x 19 x 7 厘米 \n(长度 x 高 x 宽)\nMonogram Empreinte 压纹软粒面牛皮 / 软粒面牛皮\n软粒面牛皮饰边\n织物内衬\n肩带:可拆卸,可调节\n包带半长:48.0 厘米\n包带半长可调至:55.0 厘米\n手柄:单手柄"},"price":null,"currency":"CNY","moq":1,"category":"lv-women-bags","status":"active","alibaba_url":null,"images":["https://xcimg.szwego.com/img/a3cc9079/20240808/i1723095388_9994_8.jpg","https://xcimg.szwego.com/img/a3cc9079/20240808/i1723095387_4694_1.jpg","https://xcimg.szwego.com/img/a3cc9079/20240808/i1723095387_3295_0.jpg","https://xcimg.szwego.com/img/a3cc9079/20240808/i1723095387_6661_5.jpg","https://xcimg.szwego.com/img/a3cc9079/20240808/i1723095387_190_2.jpg","https://xcimg.szwego.com/img/a3cc9079/20240808/i1723095387_6418_3.jpg","https://xcimg.szwego.com/img/a3cc9079/20240808/i1723095387_3879_4.jpg","https://xcimg.szwego.com/img/a3cc9079/20240808/i1723095387_4773_6.jpg","https://xcimg.szwego.com/img/a3cc9079/20240808/i1723095388_4774_7.jpg"],"created_at":"2025-09-19T03:38:14.961Z"},{"id":"item-e7c299b545d8","sku":"_djejetR6Xcv8v-5Ju9xHRmVnINSFt41el9ZMaZw","name_en":"Louis Vuitton Women Bags","name_cn":"变码芯片,定制头层牛皮\n 顶级原单M47142新版蓝 M46613 枣红M44881杏色M41487黑色\nPOCHETTE MÉTIS 手袋Pochette Métis 手袋以内敛而不失巧思的设计演绎经典学院背包。柔软的 Monogram Empreinte 皮革塑造紧凑灵活的构型,将充裕空间藏匿其中。\n详细特征\n25 x 19 x 7 厘米 \n(长度 x 高 x 宽)\nMonogram Empreinte 压纹软粒面牛皮 / 软粒面牛皮\n软粒面牛皮饰边\n织物内衬\n肩带:可拆卸,可调节\n包带半长:48.0 厘米\n包带半长可调至:55.0 厘米\n手柄:单手柄","specs":{"source":"wsxcme","sourceId":"_djejetR6Xcv8v-5Ju9xHRmVnINSFt41el9ZMaZw","sourceTagId":47002622,"sourceTagName":"LV/女包","rawTitle":"变码芯片,定制头层牛皮\n 顶级原单M47142新版蓝 M46613 枣红M44881杏色M41487黑色\nPOCHETTE MÉTIS 手袋Pochette Métis 手袋以内敛而不失巧思的设计演绎经典学院背包。柔软的 Monogram Empreinte 皮革塑造紧凑灵活的构型,将充裕空间藏匿其中。\n详细特征\n25 x 19 x 7 厘米 \n(长度 x 高 x 宽)\nMonogram Empreinte 压纹软粒面牛皮 / 软粒面牛皮\n软粒面牛皮饰边\n织物内衬\n肩带:可拆卸,可调节\n包带半长:48.0 厘米\n包带半长可调至:55.0 厘米\n手柄:单手柄"},"price":null,"currency":"CNY","moq":1,"category":"lv-women-bags","status":"active","alibaba_url":null,"images":["https://xcimg.szwego.com/img/a3cc9079/20240808/i1723095513_325_1.jpg","https://xcimg.szwego.com/img/a3cc9079/20240808/i1723095513_4961_8.jpg","https://xcimg.szwego.com/img/a3cc9079/20240808/i1723095513_4628_3.jpg","https://xcimg.szwego.com/img/a3cc9079/20240808/i1723095513_9640_7.jpg","https://xcimg.szwego.com/img/a3cc9079/20240808/i1723095513_2757_0.jpg","https://xcimg.szwego.com/img/a3cc9079/20240808/i1723095513_8951_4.jpg","https://xcimg.szwego.com/img/a3cc9079/20240808/i1723095513_1336_2.jpg","https://xcimg.szwego.com/img/a3cc9079/20240808/i1723095513_2606_5.jpg","https://xcimg.szwego.com/img/a3cc9079/20240808/i1723095513_7055_6.jpg"],"created_at":"2025-09-19T03:38:06.850Z"},{"id":"item-d6c26c1f25c7","sku":"_d8484xbv5EN7AYUOl1Q06SkYoJEfp46j9zcQ3eA","name_en":"Louis Vuitton Women Bags","name_cn":"变码芯片,定制头层牛皮\n 顶级原单M47142新版蓝 M46613 枣红M44881杏色M41487黑色\nPOCHETTE MÉTIS 手袋Pochette Métis 手袋以内敛而不失巧思的设计演绎经典学院背包。柔软的 Monogram Empreinte 皮革塑造紧凑灵活的构型,将充裕空间藏匿其中。\n详细特征\n25 x 19 x 7 厘米 \n(长度 x 高 x 宽)\nMonogram Empreinte 压纹软粒面牛皮 / 软粒面牛皮\n软粒面牛皮饰边\n织物内衬\n肩带:可拆卸,可调节\n包带半长:48.0 厘米\n包带半长可调至:55.0 厘米\n手柄:单手柄","specs":{"source":"wsxcme","sourceId":"_d8484xbv5EN7AYUOl1Q06SkYoJEfp46j9zcQ3eA","sourceTagId":47002622,"sourceTagName":"LV/女包","rawTitle":"变码芯片,定制头层牛皮\n 顶级原单M47142新版蓝 M46613 枣红M44881杏色M41487黑色\nPOCHETTE MÉTIS 手袋Pochette Métis 手袋以内敛而不失巧思的设计演绎经典学院背包。柔软的 Monogram Empreinte 皮革塑造紧凑灵活的构型,将充裕空间藏匿其中。\n详细特征\n25 x 19 x 7 厘米 \n(长度 x 高 x 宽)\nMonogram Empreinte 压纹软粒面牛皮 / 软粒面牛皮\n软粒面牛皮饰边\n织物内衬\n肩带:可拆卸,可调节\n包带半长:48.0 厘米\n包带半长可调至:55.0 厘米\n手柄:单手柄"},"price":null,"currency":"CNY","moq":1,"category":"lv-women-bags","status":"active","alibaba_url":null,"images":["https://xcimg.szwego.com/img/a3cc9079/20240808/i1723095615_8224_7.jpg","https://xcimg.szwego.com/img/a3cc9079/20240808/i1723095614_5564_1.jpg","https://xcimg.szwego.com/img/a3cc9079/20240808/i1723095615_6974_6.jpg","https://xcimg.szwego.com/img/a3cc9079/20240808/i1723095614_3964_0.jpg","https://xcimg.szwego.com/img/a3cc9079/20240808/i1723095614_9110_3.jpg","https://xcimg.szwego.com/img/a3cc9079/20240808/i1723095615_4265_8.jpg","https://xcimg.szwego.com/img/a3cc9079/20240808/i1723095614_7324_4.jpg","https://xcimg.szwego.com/img/a3cc9079/20240808/i1723095615_708_5.jpg","https://xcimg.szwego.com/img/a3cc9079/20240808/i1723095614_2008_2.jpg"],"created_at":"2025-09-19T03:37:57.825Z"},{"id":"item-ec7f8c5f171e","sku":"_dPqPqL7_MsbSuYWnnJEIWqX1_e2-9BpXu5sT18A","name_en":"M47142新版蓝 M46613 枣红","name_cn":"M47142新版蓝 M46613 枣红\nM44881杏色M41487黑色\n实拍组合图","specs":{"source":"wsxcme","sourceId":"_dPqPqL7_MsbSuYWnnJEIWqX1_e2-9BpXu5sT18A","sourceTagId":47002622,"sourceTagName":"LV/女包","rawTitle":"M47142新版蓝 M46613 枣红\nM44881杏色M41487黑色\n实拍组合图"},"price":null,"currency":"CNY","moq":1,"category":"lv-women-bags","status":"active","alibaba_url":null,"images":["https://xcimg.szwego.com/img/a3cc9079/20240808/i1723095889_9184_0.jpg"],"created_at":"2025-09-19T03:37:50.070Z"},{"id":"item-60c57fd2e79d","sku":"_dicicimbsgIRgzn5148qCmuS9Mgew3EkC4WpQpg","name_en":"M45555杏色M45497黑色","name_cn":"M45555杏色M45497黑色\n组合图","specs":{"source":"wsxcme","sourceId":"_dicicimbsgIRgzn5148qCmuS9Mgew3EkC4WpQpg","sourceTagId":47002622,"sourceTagName":"LV/女包","rawTitle":"M45555杏色M45497黑色\n组合图"},"price":null,"currency":"CNY","moq":1,"category":"lv-women-bags","status":"active","alibaba_url":null,"images":["https://xcimg.szwego.com/img/a3cc9079/20240808/i1723095185_4633_0.jpg"],"created_at":"2025-09-19T03:37:31.121Z"},{"id":"item-b24ad0bee5d4","sku":"_dpRpRtXUapq3zlGCw0z2iyB6lY_Irzo44lXEzdQ","name_en":"Louis Vuitton Women Bags","name_cn":"变码芯片,定制头层牛皮\n顶级原单🔥\nM45497黑色M45555杏色\n本款 NéoNoé 中号水桶包将 LV 字母和 Monogram 花卉先印染后压印于皮革,以瞩目观感迷惑视觉。内袋可妥善安置贵重物品,可调节肩带实现肩背或斜挎。详细特征26.0 x 26.0 x 17.5 厘米 (长 x 高 x 宽) 压纹粒面牛皮粒面牛皮饰边超细纤维内衬金属件中央拉链袋隔层金属孔眼肩带:可拆卸,可调节包带半长:31.0 厘米包带半长可调至:54.0 厘米手柄:单手柄","specs":{"source":"wsxcme","sourceId":"_dpRpRtXUapq3zlGCw0z2iyB6lY_Irzo44lXEzdQ","sourceTagId":47002622,"sourceTagName":"LV/女包","rawTitle":"变码芯片,定制头层牛皮\n顶级原单🔥\nM45497黑色M45555杏色\n本款 NéoNoé 中号水桶包将 LV 字母和 Monogram 花卉先印染后压印于皮革,以瞩目观感迷惑视觉。内袋可妥善安置贵重物品,可调节肩带实现肩背或斜挎。详细特征26.0 x 26.0 x 17.5 厘米 (长 x 高 x 宽) 压纹粒面牛皮粒面牛皮饰边超细纤维内衬金属件中央拉链袋隔层金属孔眼肩带:可拆卸,可调节包带半长:31.0 厘米包带半长可调至:54.0 厘米手柄:单手柄"},"price":null,"currency":"CNY","moq":1,"category":"lv-women-bags","status":"active","alibaba_url":null,"images":["https://xcimg.szwego.com/img/a3cc9079/20240808/i1723095099_9037_0.jpg","https://xcimg.szwego.com/img/a3cc9079/20240808/i1723095099_7326_3.jpg","https://xcimg.szwego.com/img/a3cc9079/20240808/i1723095099_6277_2.jpg","https://xcimg.szwego.com/img/a3cc9079/20240808/i1723095099_7093_6.jpg","https://xcimg.szwego.com/img/a3cc9079/20240808/i1723095099_8738_8.jpg","https://xcimg.szwego.com/img/a3cc9079/20240808/i1723095099_7102_5.jpg","https://xcimg.szwego.com/img/a3cc9079/20240808/i1723095099_2191_7.jpg","https://xcimg.szwego.com/img/a3cc9079/20240808/i1723095099_7363_4.jpg","https://xcimg.szwego.com/img/a3cc9079/20240808/i1723095099_4855_1.jpg"],"created_at":"2025-09-19T03:37:22.446Z"}],"page":3,"pageSize":24,"total":1177,"totalPages":50}
