{"items":[{"id":"item-1d8a205295b3","sku":"_duIuIuZfx0KzRqv7bOZ-yFybBUwoxZmylB0h1jA","name_en":"New Arrival 🅰️🅰️ 🆕🆕🆕 In Stock 🎒🎒","name_cn":"New Arrival 🅰️🅰️ 🆕🆕🆕 In Stock 🎒🎒\nCE~LINE BONNIE Smooth Calfskin Backpack, Sheepskin Lining, Hand Carry, Backpack, and Shoulder Carry, TRIOMPHE Magnetic Snap, Leather Drawstring Strap, Leather Handle, Length 8cm\nAdjustable Shoulder Strap, Min Length 34cm, Max Length 45cm,\nDimensions: 25x18x13 cm\nModel: 118703 (Original Packaging)","specs":{"source":"wsxcme","sourceId":"_duIuIuZfx0KzRqv7bOZ-yFybBUwoxZmylB0h1jA","sourceTagId":47002743,"sourceTagName":"","modelNumber":"118703 ( packaging)","dimensions":{"lengthCm":25,"heightCm":18,"widthCm":13},"rawTitle":"New Arrival 🅰️🅰️ 🆕🆕🆕 In Stock 🎒🎒\nCE~LINE BONNIE Smooth Calfskin Backpack, Sheepskin Lining, Hand Carry, Backpack, and Shoulder Carry, TRIOMPHE Magnetic Snap, Leather Drawstring Strap, Leather Handle, Length 8cm\nAdjustable Shoulder Strap, Min Length 34cm, Max Length 45cm,\nDimensions: 25x18x13 cm\nModel: 118703 (Original Packaging)"},"price":null,"currency":"CNY","moq":1,"category":"women-backpacks","status":"active","alibaba_url":null,"images":["https://xcimg.szwego.com/img/1a8dcad8/20250306/i1741192704984_8591_0_0.jpg","https://xcimg.szwego.com/img/1a8dcad8/20250306/i1741192695052_8481_0_1.jpg","https://xcimg.szwego.com/img/1a8dcad8/20250306/i1741192701970_5370_0_2.jpg","https://xcimg.szwego.com/img/1a8dcad8/20250306/i1741192694987_6331_0_3.jpg","https://xcimg.szwego.com/img/1a8dcad8/20250306/i1741192694696_3840_0_4.jpg","https://xcimg.szwego.com/img/1a8dcad8/20250306/i1741192701980_6713_0_5.jpg","https://xcimg.szwego.com/img/1a8dcad8/20250306/i1741192694756_2629_0_6.jpg","https://xcimg.szwego.com/img/1a8dcad8/20250306/i1741192694993_1549_0_7.jpg"],"created_at":"2026-05-20T09:12:28.897Z"},{"id":"item-7151ab1a92ca","sku":"_dgIgIOUe27XWkzTQm7jgsx0cEejtrwOqe6JgoeA","name_en":"new styleVintage medium shoulder carry Vintage !!️(22X33)","name_cn":"new styleVintage medium shoulder carry Vintage !!️(22X33)","specs":{"source":"wsxcme","sourceId":"_dgIgIOUe27XWkzTQm7jgsx0cEejtrwOqe6JgoeA","sourceTagId":47002743,"sourceTagName":"","rawTitle":"new styleVintage medium shoulder carry Vintage !!️(22X33)"},"price":null,"currency":"CNY","moq":1,"category":"women-backpacks","status":"active","alibaba_url":null,"images":["https://xcimg.szwego.com/1563253654_2397097888_0","https://xcimg.szwego.com/1563253654_129557589_1","https://xcimg.szwego.com/1563253655_3760072737_2","https://xcimg.szwego.com/1563253655_365575219_3","https://xcimg.szwego.com/1563253655_3905414237_4","https://xcimg.szwego.com/1563253655_39522716_5","https://xcimg.szwego.com/1563253655_4055544624_6","https://xcimg.szwego.com/1563253655_4245581380_7"],"created_at":"2024-10-23T04:35:52.036Z"},{"id":"item-1ea98ce1cc84","sku":"_da8a8zMCJ1Qkt2JL9fsE7faRZRWhkohNxDlntgg","name_en":"Ophidia Backpack","name_cn":"Ophidia Backpack\n▫️Model 836854\n▫️Dimensions 19.5*20*12.5\nGucci's new Ophidia series presents a fresh silhouette and functionality with iconic beige and brown colors, crafting a soft-textured innovative bag.","specs":{"source":"wsxcme","sourceId":"_da8a8zMCJ1Qkt2JL9fsE7faRZRWhkohNxDlntgg","sourceTagId":47002743,"sourceTagName":"","modelNumber":"836854","rawTitle":"Ophidia Backpack\n▫️Model 836854\n▫️Dimensions 19.5*20*12.5\nGucci's new Ophidia series presents a fresh silhouette and functionality with iconic beige and brown colors, crafting a soft-textured innovative bag."},"price":null,"currency":"CNY","moq":1,"category":"women-backpacks","status":"active","alibaba_url":null,"images":["https://xcimg.szwego.com/img/7f9d4644/20260125/i1769321337312_8235_0_0.jpg","https://xcimg.szwego.com/img/7f9d4644/20260125/i1769321338764_9419_0_1.jpg","https://xcimg.szwego.com/img/7f9d4644/20260125/i1769321338846_3943_0_2.jpg","https://xcimg.szwego.com/img/7f9d4644/20260125/i1769321337312_8097_0_3.jpg","https://xcimg.szwego.com/img/7f9d4644/20260125/i1769321338876_3392_0_4.jpg","https://xcimg.szwego.com/img/7f9d4644/20260125/i1769321338749_7158_0_5.jpg","https://xcimg.szwego.com/img/7f9d4644/20260125/i1769321337312_1705_0_6.jpg","https://xcimg.szwego.com/img/7f9d4644/20260125/i1769321337312_7121_0_7.jpg","https://xcimg.szwego.com/img/7f9d4644/20260125/i1769321337312_2451_0_8.jpg"],"created_at":"2026-05-20T09:12:29.027Z"},{"id":"item-13bde9c0ea87","sku":"_dfjfjU-VjEKsawDpVspzuHRJsubQKlwYzPsYDcA","name_en":"Same as official website 🎒🎒🎒🎒","name_cn":"Same as official website 🎒🎒🎒🎒","specs":{"source":"wsxcme","sourceId":"_dfjfjU-VjEKsawDpVspzuHRJsubQKlwYzPsYDcA","sourceTagId":47002743,"sourceTagName":"","rawTitle":"Same as official website 🎒🎒🎒🎒"},"price":null,"currency":"CNY","moq":1,"category":"women-backpacks","status":"active","alibaba_url":null,"images":["https://xcimg.szwego.com/img/4090ad17/20250324/i1742752107_3150_0.jpg","https://xcimg.szwego.com/img/4090ad17/20250324/i1742752107_5102_1.jpg","https://xcimg.szwego.com/img/4090ad17/20250324/i1742752107_2200_2.jpg","https://xcimg.szwego.com/img/4090ad17/20250324/i1742752107_8635_3.jpg","https://xcimg.szwego.com/img/4090ad17/20250324/i1742752107_2081_4.jpg","https://xcimg.szwego.com/img/4090ad17/20250324/i1742752107_1271_5.jpg","https://xcimg.szwego.com/img/4090ad17/20250324/i1742752107_4708_6.jpg","https://xcimg.szwego.com/img/4090ad17/20250324/i1742752107_8545_7.jpg"],"created_at":"2026-05-20T09:12:28.837Z"},{"id":"item-3e32cd66f45e","sku":"_d-u-uytbocUxiYFwRhRUPwcAmYvtQs4J6AdY7Zw","name_en":"Shipped out🔮🔮🔮 OHANEL Chanel Saltzburg Backpack 🎒 Denim Blue Dark Tone is so beautiful, Jisoo style, love the Saltzburg series, stylish with details, very special and good-looking style, very light weight, hardware is matte vintage, bag body also has vintage effect, very NEW!","name_cn":"Shipped out🔮🔮🔮 OHANEL Chanel Saltzburg Backpack 🎒 Denim Blue Dark Tone is so beautiful, Jisoo style, love the Saltzburg series, stylish with details, very special and good-looking style, very light weight, hardware is matte vintage, bag body also has vintage effect, very NEW!","specs":{"source":"wsxcme","sourceId":"_d-u-uytbocUxiYFwRhRUPwcAmYvtQs4J6AdY7Zw","sourceTagId":47002743,"sourceTagName":"","rawTitle":"Shipped out🔮🔮🔮 OHANEL Chanel Saltzburg Backpack 🎒 Denim Blue Dark Tone is so beautiful, Jisoo style, love the Saltzburg series, stylish with details, very special and good-looking style, very light weight, hardware is matte vintage, bag body also has vintage effect, very NEW!"},"price":null,"currency":"CNY","moq":1,"category":"women-backpacks","status":"active","alibaba_url":null,"images":["https://xcimg.szwego.com/img/d0c94e6f/20250111/i1736593249_7206_2.jpg","https://xcimg.szwego.com/img/d0c94e6f/20250111/i1736593249_6337_3.jpg","https://xcimg.szwego.com/img/d0c94e6f/20250111/i1736593249_3869_6.jpg","https://xcimg.szwego.com/img/d0c94e6f/20250111/i1736593249_8435_5.jpg","https://xcimg.szwego.com/img/d0c94e6f/20250111/i1736593249_447_1.jpg","https://xcimg.szwego.com/img/d0c94e6f/20250111/i1736593249_336_4.jpg","https://xcimg.szwego.com/img/d0c94e6f/20250111/i1736593250_4141_7.jpg","https://xcimg.szwego.com/img/d0c94e6f/20250111/i1736593250_9459_8.jpg","https://xcimg.szwego.com/img/d0c94e6f/20250111/i1736593249_121_0.jpg"],"created_at":"2025-02-09T11:32:42.129Z"},{"id":"item-4fa56dfdb25c","sku":"_drvrvYf7sehqWvSVD9C7f44zJzpF23DuluM-P1w","name_en":"Size 17 x 22 x 10 cm","name_cn":"Size 17 x 22 x 10 cm\nL@V Hot-selling Color-block Palm Springs Mini Backpack, Overseas Channel Version in Stock. Counter Packaging! Supports Hong Kong Direct Mail Free Shipping. This playful Palm Springs mini backpack features multiple adjustable straps, convenient for crossbody wear and versatile usage.","specs":{"source":"wsxcme","sourceId":"_drvrvYf7sehqWvSVD9C7f44zJzpF23DuluM-P1w","sourceTagId":47002743,"sourceTagName":"","dimensions":{"lengthCm":17,"heightCm":22,"widthCm":10},"rawTitle":"Size 17 x 22 x 10 cm\nL@V Hot-selling Color-block Palm Springs Mini Backpack, Overseas Channel Version in Stock. Counter Packaging! Supports Hong Kong Direct Mail Free Shipping. This playful Palm Springs mini backpack features multiple adjustable straps, convenient for crossbody wear and versatile usage."},"price":null,"currency":"CNY","moq":1,"category":"women-backpacks","status":"active","alibaba_url":null,"images":["https://xcimg.szwego.com/20210415/i1618466632_213_0.jpg","https://xcimg.szwego.com/20210415/i1618466632_2195_1.jpg","https://xcimg.szwego.com/20210415/i1618466632_9254_2.jpg","https://xcimg.szwego.com/20210415/i1618466632_2541_3.jpg","https://xcimg.szwego.com/20210415/i1618466632_416_4.jpg","https://xcimg.szwego.com/20210415/i1618466632_7904_5.jpg","https://xcimg.szwego.com/20210415/i1618466632_2995_6.jpg","https://xcimg.szwego.com/20210415/i1618466632_7845_7.jpg","https://xcimg.szwego.com/20210415/i1618466632_2789_8.jpg"],"created_at":"2025-02-27T15:06:26.696Z"},{"id":"item-2771b86e8910","sku":"_dg_g_fVCell6Vu4p_eSxp-xX9ouoTLpkIX_-0kg","name_en":"Vintage Distressed Finish","name_cn":"Vintage Distressed Finish\nMIU New Arrival Academic Style Backpack: 5BZ043. Premium distressed lambskin paired with sturdy, wear-resistant linen-blend lining. This leather backpack features a campus-style design, blending exquisite craftsmanship with a casual attitude. Distinctive multi-pocket design highlights MIU's fashionable and playful spirit. Classic leather backpack strap and shoulder strap. A versatile styling essential: pairs with white T-shirt and jeans, khaki trench coat, casual sportswear... endless styles. Fits the universe inside: iPad, folding umbrella, makeup bag. Practical, lightweight, and full of sophistication.\nSize: 22X18X11.5cm","specs":{"source":"wsxcme","sourceId":"_dg_g_fVCell6Vu4p_eSxp-xX9ouoTLpkIX_-0kg","sourceTagId":47002743,"sourceTagName":"","dimensions":{"lengthCm":22,"heightCm":18,"widthCm":11.5},"rawTitle":"Vintage Distressed Finish\nMIU New Arrival Academic Style Backpack: 5BZ043. Premium distressed lambskin paired with sturdy, wear-resistant linen-blend lining. This leather backpack features a campus-style design, blending exquisite craftsmanship with a casual attitude. Distinctive multi-pocket design highlights MIU's fashionable and playful spirit. Classic leather backpack strap and shoulder strap. A versatile styling essential: pairs with white T-shirt and jeans, khaki trench coat, casual sportswear... endless styles. Fits the universe inside: iPad, folding umbrella, makeup bag. Practical, lightweight, and full of sophistication.\nSize: 22X18X11.5cm"},"price":null,"currency":"CNY","moq":1,"category":"women-backpacks","status":"active","alibaba_url":null,"images":["https://xcimg.szwego.com/imgHD/1698de7a/20260128/cmp_i1769600626304_2649_0_0.jpg","https://xcimg.szwego.com/imgHD/1698de7a/20260128/cmp_i1769600625056_1049_0_1.jpg","https://xcimg.szwego.com/imgHD/1698de7a/20260128/cmp_i1769600626348_4873_0_2.jpg","https://xcimg.szwego.com/imgHD/1698de7a/20260128/cmp_i1769600626331_5488_0_3.jpg","https://xcimg.szwego.com/imgHD/1698de7a/20260128/cmp_i1769600626329_254_0_4.jpg","https://xcimg.szwego.com/imgHD/1698de7a/20260128/cmp_i1769600624955_2051_0_5.jpg","https://xcimg.szwego.com/imgHD/1698de7a/20260128/cmp_i1769600628675_1250_0_6.jpg","https://xcimg.szwego.com/imgHD/1698de7a/20260128/cmp_i1769600626150_4928_0_8.jpg","https://xcimg.szwego.com/imgHD/1698de7a/20260128/cmp_i1769600624955_6253_0_7.jpg"],"created_at":"2026-05-20T09:12:28.727Z"},{"id":"item-0eb72c89cf28","sku":"_doYoYXZnBCsuw_z05IYelMfY8Az9i6w4u5tVFlQ","name_en":"Vintage Distressed Finish","name_cn":"Vintage Distressed Finish\nMIU New Arrival Academic Style Backpack: 5BZ042. High-quality cowhide paired with sturdy, wear-resistant linen-blend lining. This leather backpack features a campus-style design, blending exquisite craftsmanship with a casual attitude. Distinctive multi-pocket design highlights MIU's fashionable and playful spirit. Classic leather backpack strap and shoulder strap. A versatile styling essential: pairs with white T-shirt and jeans, khaki trench coat, casual sportswear... endless styles. Fits the universe inside: iPad, folding umbrella, makeup bag. Practical, lightweight, and full of sophistication.\nSize: 29.5X25X12.5cm","specs":{"source":"wsxcme","sourceId":"_doYoYXZnBCsuw_z05IYelMfY8Az9i6w4u5tVFlQ","sourceTagId":47002743,"sourceTagName":"","dimensions":{"lengthCm":29.5,"heightCm":25,"widthCm":12.5},"rawTitle":"Vintage Distressed Finish\nMIU New Arrival Academic Style Backpack: 5BZ042. High-quality cowhide paired with sturdy, wear-resistant linen-blend lining. This leather backpack features a campus-style design, blending exquisite craftsmanship with a casual attitude. Distinctive multi-pocket design highlights MIU's fashionable and playful spirit. Classic leather backpack strap and shoulder strap. A versatile styling essential: pairs with white T-shirt and jeans, khaki trench coat, casual sportswear... endless styles. Fits the universe inside: iPad, folding umbrella, makeup bag. Practical, lightweight, and full of sophistication.\nSize: 29.5X25X12.5cm"},"price":null,"currency":"CNY","moq":1,"category":"women-backpacks","status":"active","alibaba_url":null,"images":["https://xcimg.szwego.com/imgHD/1698de7a/20260128/cmp_i1769600568158_2603_0_0.jpg","https://xcimg.szwego.com/imgHD/1698de7a/20260128/cmp_i1769600568150_5142_0_1.jpg","https://xcimg.szwego.com/imgHD/1698de7a/20260128/cmp_i1769600565672_3268_0_2.jpg","https://xcimg.szwego.com/imgHD/1698de7a/20260128/cmp_i1769600565653_706_0_3.jpg","https://xcimg.szwego.com/imgHD/1698de7a/20260128/cmp_i1769600569274_251_0_4.jpg","https://xcimg.szwego.com/imgHD/1698de7a/20260128/cmp_i1769600568167_5240_0_7.jpg","https://xcimg.szwego.com/imgHD/1698de7a/20260128/cmp_i1769600565477_4125_0_5.jpg","https://xcimg.szwego.com/imgHD/1698de7a/20260128/cmp_i1769600567962_2788_0_6.jpg","https://xcimg.szwego.com/imgHD/1698de7a/20260128/cmp_i1769600567963_2549_0_9.jpg"],"created_at":"2026-05-20T09:12:28.717Z"}],"page":4,"pageSize":24,"total":80,"totalPages":4}
