{"items":[{"id":"item-2e4fc579d49e","sku":"_ddNdNOBYTPb5U1ZFkP8Mt6z5neivxFyQYJpVrKA","name_en":"PETIT FLOT MINI迷你水桶包作为\"PETIT FLOT PM\"的精致缩小版,包身轻盈小巧却始终保有标志性水桶造型,精巧皮革肩带使其在手持包,单肩包与斜挎包之间自如转换,尽显实用百搭特质。","name_cn":"PETIT FLOT MINI迷你水桶包作为\"PETIT FLOT PM\"的精致缩小版,包身轻盈小巧却始终保有标志性水桶造型,精巧皮革肩带使其在手持包,单肩包与斜挎包之间自如转换,尽显实用百搭特质。\nsize:12×10×17.5cm\n🔍020251","specs":{"source":"wsxcme","sourceId":"_ddNdNOBYTPb5U1ZFkP8Mt6z5neivxFyQYJpVrKA","sourceTagId":47003160,"sourceTagName":"戈雅/女包","rawTitle":"PETIT FLOT MINI迷你水桶包作为\"PETIT FLOT PM\"的精致缩小版,包身轻盈小巧却始终保有标志性水桶造型,精巧皮革肩带使其在手持包,单肩包与斜挎包之间自如转换,尽显实用百搭特质。\nsize:12×10×17.5cm\n🔍020251"},"price":null,"currency":"CNY","moq":1,"category":"goyard-women-bags","status":"active","alibaba_url":null,"images":["https://xcimg.szwego.com/img/b9b112cf/20250626/i1750914737_6099_1.jpg","https://xcimg.szwego.com/img/b9b112cf/20250626/i1750914737_8943_4.jpg","https://xcimg.szwego.com/img/b9b112cf/20250626/i1750914737_9096_6.jpg","https://xcimg.szwego.com/img/b9b112cf/20250626/i1750914737_2950_3.jpg","https://xcimg.szwego.com/img/b9b112cf/20250626/i1750914737_1714_2.jpg","https://xcimg.szwego.com/img/b9b112cf/20250626/i1750914736_7835_0.jpg","https://xcimg.szwego.com/img/b9b112cf/20250626/i1750914737_1624_5.jpg","https://xcimg.szwego.com/img/b9b112cf/20250626/i1750914737_8586_7.jpg","https://xcimg.szwego.com/img/b9b112cf/20250626/i1750914737_9207_8.jpg"],"created_at":"2025-09-04T13:01:27.210Z"},{"id":"item-193370847330","sku":"_duTuTdvC93-LNv9cbjfs5_lMTdKzJSW2eMoB6wQ","name_en":"PETIT FLOT MINI迷你水桶包作为\"PETIT FLOT PM\"的精致缩小版,包身轻盈小巧却始终保有标志性水桶造型,精巧皮革肩带使其在手持包,单肩包与斜挎包之间自如转换,尽显实用百搭特质。","name_cn":"PETIT FLOT MINI迷你水桶包作为\"PETIT FLOT PM\"的精致缩小版,包身轻盈小巧却始终保有标志性水桶造型,精巧皮革肩带使其在手持包,单肩包与斜挎包之间自如转换,尽显实用百搭特质。\nsize:12×10×17.5cm\n🔍020251","specs":{"source":"wsxcme","sourceId":"_duTuTdvC93-LNv9cbjfs5_lMTdKzJSW2eMoB6wQ","sourceTagId":47003160,"sourceTagName":"戈雅/女包","rawTitle":"PETIT FLOT MINI迷你水桶包作为\"PETIT FLOT PM\"的精致缩小版,包身轻盈小巧却始终保有标志性水桶造型,精巧皮革肩带使其在手持包,单肩包与斜挎包之间自如转换,尽显实用百搭特质。\nsize:12×10×17.5cm\n🔍020251"},"price":null,"currency":"CNY","moq":1,"category":"goyard-women-bags","status":"active","alibaba_url":null,"images":["https://xcimg.szwego.com/img/b9b112cf/20250626/i1750922631_2782_5.jpg","https://xcimg.szwego.com/img/b9b112cf/20250626/i1750922656_8430_0.jpg","https://xcimg.szwego.com/img/b9b112cf/20250626/i1750922631_5418_1.jpg","https://xcimg.szwego.com/img/b9b112cf/20250626/i1750922631_7325_4.jpg","https://xcimg.szwego.com/img/b9b112cf/20250626/i1750922631_8399_0.jpg","https://xcimg.szwego.com/img/b9b112cf/20250626/i1750922631_6428_3.jpg","https://xcimg.szwego.com/img/b9b112cf/20250626/i1750922631_4313_2.jpg","https://xcimg.szwego.com/img/b9b112cf/20250626/i1750922631_4699_8.jpg","https://xcimg.szwego.com/img/b9b112cf/20250626/i1750922688_3813_0.jpg"],"created_at":"2025-09-04T13:01:27.215Z"},{"id":"item-10f0009f05d1","sku":"_dwzwzqfyppVYRLg-0cZtRNKBit6T2A1GSFKFsug","name_en":"PETIT FLOT MINI迷你水桶包作为\"PETIT FLOT PM\"的精致缩小版,包身轻盈小巧却始终保有标志性水桶造型,精巧皮革肩带使其在手持包,单肩包与斜挎包之间自如转换,尽显实用百搭特质。","name_cn":"PETIT FLOT MINI迷你水桶包作为\"PETIT FLOT PM\"的精致缩小版,包身轻盈小巧却始终保有标志性水桶造型,精巧皮革肩带使其在手持包,单肩包与斜挎包之间自如转换,尽显实用百搭特质。\nsize:12×10×17.5cm\n🔍020251","specs":{"source":"wsxcme","sourceId":"_dwzwzqfyppVYRLg-0cZtRNKBit6T2A1GSFKFsug","sourceTagId":47003160,"sourceTagName":"戈雅/女包","rawTitle":"PETIT FLOT MINI迷你水桶包作为\"PETIT FLOT PM\"的精致缩小版,包身轻盈小巧却始终保有标志性水桶造型,精巧皮革肩带使其在手持包,单肩包与斜挎包之间自如转换,尽显实用百搭特质。\nsize:12×10×17.5cm\n🔍020251"},"price":null,"currency":"CNY","moq":1,"category":"goyard-women-bags","status":"active","alibaba_url":null,"images":["https://xcimg.szwego.com/img/b9b112cf/20250626/i1750924842_4142_0.jpg","https://xcimg.szwego.com/img/b9b112cf/20250626/i1750924842_5458_0.jpg","https://xcimg.szwego.com/img/b9b112cf/20250626/i1750924842_3039_0.jpg","https://xcimg.szwego.com/img/b9b112cf/20250626/i1750924843_7117_0.jpg","https://xcimg.szwego.com/img/b9b112cf/20250626/i1750924843_1597_0.jpg","https://xcimg.szwego.com/img/b9b112cf/20250626/i1750924842_3355_0.jpg","https://xcimg.szwego.com/img/b9b112cf/20250626/i1750924842_7449_0.jpg","https://xcimg.szwego.com/img/b9b112cf/20250626/i1750924843_1448_0.jpg","https://xcimg.szwego.com/img/b9b112cf/20250626/i1750924843_1870_0.jpg","https://xcimg.szwego.com/img/b9b112cf/20250626/i1750924843_7426_0.jpg"],"created_at":"2025-09-04T13:01:27.212Z"}],"page":7,"pageSize":24,"total":147,"totalPages":7}
