{"items":[{"id":"item-ad9dec16818f","sku":"_djrjrlKaHNdwwf4-MkxBvaOHxF0MoJbSS6Xvo5g","name_en":"Prada Women Bags","name_cn":"新款普拉达 2097 热火朝天的火爆 气场王 百搭王 一百万年都不过时   手提,斜挎  一年四季必备驾驭的了任何风格 市场独家工艺研制原版荔枝纹完美 你的衣橱绝对不可以少一个这么强的搭配神器!尺寸:30.22.13","specs":{"source":"wsxcme","sourceId":"_djrjrlKaHNdwwf4-MkxBvaOHxF0MoJbSS6Xvo5g","sourceTagId":47002669,"sourceTagName":"普拉达/女包","rawTitle":"新款普拉达 2097 热火朝天的火爆 气场王 百搭王 一百万年都不过时   手提,斜挎  一年四季必备驾驭的了任何风格 市场独家工艺研制原版荔枝纹完美 你的衣橱绝对不可以少一个这么强的搭配神器!尺寸:30.22.13"},"price":null,"currency":"CNY","moq":1,"category":"prada-women-bags","status":"active","alibaba_url":null,"images":["https://xcimg.szwego.com/20201121/i1605970960_3002_0.jpg","https://xcimg.szwego.com/20201121/i1605970960_1570_1.jpg","https://xcimg.szwego.com/20201121/i1605970960_396_2.jpg","https://xcimg.szwego.com/20201121/i1605963234_9407_0.jpg","https://xcimg.szwego.com/20201121/i1605963234_3152_1.jpg","https://xcimg.szwego.com/20201121/i1605963234_9741_2.jpg","https://xcimg.szwego.com/20201121/i1605963234_4311_3.jpg","https://xcimg.szwego.com/20201121/i1605963234_45_4.jpg","https://xcimg.szwego.com/20201121/i1605963234_5440_5.jpg"],"created_at":"2025-02-08T12:44:26.476Z"},{"id":"item-a96536faf832","sku":"_dg_g_fVCell6VuIp2eSJo_hXxouwbLpkIW_60ng","name_en":"Prada Women Bags","name_cn":"现货💕","specs":{"source":"wsxcme","sourceId":"_dg_g_fVCell6VuIp2eSJo_hXxouwbLpkIW_60ng","sourceTagId":47002669,"sourceTagName":"普拉达/女包","rawTitle":"现货💕"},"price":null,"currency":"CNY","moq":1,"category":"prada-women-bags","status":"active","alibaba_url":null,"images":["https://xcimg.szwego.com/20230821/i1692602591_9022_0.jpg","https://xcimg.szwego.com/20230821/i1692602591_2268_1.jpg","https://xcimg.szwego.com/20230821/i1692602591_714_2.jpg","https://xcimg.szwego.com/20230821/i1692602591_5311_3.jpg","https://xcimg.szwego.com/20230821/i1692602591_9315_4.jpg"],"created_at":"2026-06-29T11:07:24.367Z"},{"id":"item-a47c9c981810","sku":"_dq2q2_8atstfryBDo8UMEMLG5Kx4PCRZBuH37jA","name_en":"Prada Women Bags","name_cn":"原单 原厂定制皮料♥️\nPRAD*a 推出全新 2021春夏系列 Hobo手袋 精选小牛皮打造 杜鹃 文淇 邓恩熙赋予 全新演绎 原版复刻 轻便时尚  潮人必备 普拉达由玛丽奥·普拉达于1913年在意大利 米兰创建。Miuccia Prada的独特天赋在于对新创意的不懈追求,融合了对知识的好奇心和文化兴趣,从而开辟了先驱之路。她不仅能够预测时尚趋势,更能够引领时尚潮流 尺寸:27cm款号123","specs":{"source":"wsxcme","sourceId":"_dq2q2_8atstfryBDo8UMEMLG5Kx4PCRZBuH37jA","sourceTagId":47002669,"sourceTagName":"普拉达/女包","modelNumber":"123","rawTitle":"原单 原厂定制皮料♥️\nPRAD*a 推出全新 2021春夏系列 Hobo手袋 精选小牛皮打造 杜鹃 文淇 邓恩熙赋予 全新演绎 原版复刻 轻便时尚  潮人必备 普拉达由玛丽奥·普拉达于1913年在意大利 米兰创建。Miuccia Prada的独特天赋在于对新创意的不懈追求,融合了对知识的好奇心和文化兴趣,从而开辟了先驱之路。她不仅能够预测时尚趋势,更能够引领时尚潮流 尺寸:27cm款号123"},"price":null,"currency":"CNY","moq":1,"category":"prada-women-bags","status":"active","alibaba_url":null,"images":["https://xcimg.szwego.com/img/ee653128/20240427/i1714149620_9354_2.jpg","https://xcimg.szwego.com/img/ee653128/20240427/i1714149620_964_4.jpg","https://xcimg.szwego.com/img/ee653128/20240427/i1714149620_8712_7.jpg","https://xcimg.szwego.com/img/ee653128/20240427/i1714149620_8549_5.jpg","https://xcimg.szwego.com/img/ee653128/20240427/i1714149620_9285_8.jpg","https://xcimg.szwego.com/img/ee653128/20240427/i1714149620_1999_0.jpg","https://xcimg.szwego.com/img/ee653128/20240427/i1714149620_497_3.jpg","https://xcimg.szwego.com/img/ee653128/20240427/i1714149620_3499_1.jpg","https://xcimg.szwego.com/img/ee653128/20240427/i1714149620_3865_6.jpg"],"created_at":"2025-02-08T12:44:26.514Z"},{"id":"item-a41e9ceed11f","sku":"_dk6k6nQUnv7FYcO4ogusS0RE2AeLU5Ocjc9N06Q","name_en":"Prada Women Bags","name_cn":"现货💕","specs":{"source":"wsxcme","sourceId":"_dk6k6nQUnv7FYcO4ogusS0RE2AeLU5Ocjc9N06Q","sourceTagId":47002669,"sourceTagName":"普拉达/女包","rawTitle":"现货💕"},"price":null,"currency":"CNY","moq":1,"category":"prada-women-bags","status":"active","alibaba_url":null,"images":["https://xcimg.szwego.com/20230821/i1692602565_5359_0.jpg","https://xcimg.szwego.com/20230821/i1692602565_1198_1.jpg","https://xcimg.szwego.com/20230821/i1692602565_2128_8.jpg","https://xcimg.szwego.com/20230821/i1692602565_7239_2.jpg","https://xcimg.szwego.com/20230821/i1692602565_4618_3.jpg","https://xcimg.szwego.com/20230821/i1692602565_3015_4.jpg","https://xcimg.szwego.com/20230821/i1692602565_8803_5.jpg","https://xcimg.szwego.com/20230821/i1692602565_4962_6.jpg","https://xcimg.szwego.com/20230821/i1692602565_8587_7.jpg"],"created_at":"2026-06-29T11:07:24.357Z"},{"id":"item-a211ac6dddcb","sku":"_dbZbZse2Cniy9MN5MSKBe8yZS8TwCANJAKdgSvw","name_en":"Prada Women Bags","name_cn":"(普拉达)月亮/月牙包 时尚黑马[胜利]小牛皮搭配散字唛金色五金,小鹿纹配时尚鳄鱼🐊纹,更具时尚风,月牙形状自带调扣,整体皮穿链,可盐可甜 展现优雅的同时还有点小复古,两侧卡扣对扣秒变奶呼呼的呼啦圈,解锁一包多用。\n款号:1BH195\n尺寸:24×15×8cm","specs":{"source":"wsxcme","sourceId":"_dbZbZse2Cniy9MN5MSKBe8yZS8TwCANJAKdgSvw","sourceTagId":47002669,"sourceTagName":"普拉达/女包","modelNumber":"1BH195","dimensions":{"lengthCm":24,"heightCm":15,"widthCm":8},"rawTitle":"(普拉达)月亮/月牙包 时尚黑马[胜利]小牛皮搭配散字唛金色五金,小鹿纹配时尚鳄鱼🐊纹,更具时尚风,月牙形状自带调扣,整体皮穿链,可盐可甜 展现优雅的同时还有点小复古,两侧卡扣对扣秒变奶呼呼的呼啦圈,解锁一包多用。\n款号:1BH195\n尺寸:24×15×8cm"},"price":null,"currency":"CNY","moq":1,"category":"prada-women-bags","status":"active","alibaba_url":null,"images":["https://xcimg.szwego.com/20230312/i1678566209_5052_0.jpg","https://xcimg.szwego.com/20230312/i1678566209_3169_1.jpg","https://xcimg.szwego.com/20230312/i1678566209_5227_2.jpg","https://xcimg.szwego.com/20230312/i1678566209_2322_3.jpg","https://xcimg.szwego.com/20230312/i1678566209_1673_4.jpg","https://xcimg.szwego.com/20230312/i1678566209_5278_5.jpg"],"created_at":"2025-02-08T12:44:26.498Z"},{"id":"item-a10042104ed4","sku":"_dxSxS7QVLIwqHTFCB-_UYJOgQuCLDjBzqHKpAww","name_en":"Prada Women Bags","name_cn":"正品级\n🌟小羊皮三合一\n这款三合一加衬单肩包取材软羊革打造,塑就简约廓形,配有可拆卸尼龙长肩带和琏条,最爱的肩带上的小包。手感特别柔软,又实用又休闲!\n尺寸:长22x高18x底6.5cm\n款号:1BH204","specs":{"source":"wsxcme","sourceId":"_dxSxS7QVLIwqHTFCB-_UYJOgQuCLDjBzqHKpAww","sourceTagId":47002669,"sourceTagName":"普拉达/女包","modelNumber":"1BH204","rawTitle":"正品级\n🌟小羊皮三合一\n这款三合一加衬单肩包取材软羊革打造,塑就简约廓形,配有可拆卸尼龙长肩带和琏条,最爱的肩带上的小包。手感特别柔软,又实用又休闲!\n尺寸:长22x高18x底6.5cm\n款号:1BH204"},"price":null,"currency":"CNY","moq":1,"category":"prada-women-bags","status":"active","alibaba_url":null,"images":["https://xcimg.szwego.com/20230409/i1681041514_8833_0.jpg","https://xcimg.szwego.com/20230409/i1681041514_3643_1.jpg","https://xcimg.szwego.com/20230409/i1681041514_9788_2.jpg","https://xcimg.szwego.com/20230409/i1681041514_6038_3.jpg","https://xcimg.szwego.com/20230409/i1681041514_1216_4.jpg","https://xcimg.szwego.com/20230409/i1681041514_7179_5.jpg","https://xcimg.szwego.com/20230409/i1681041514_2128_6.jpg","https://xcimg.szwego.com/20230409/i1681041514_2756_7.jpg","https://xcimg.szwego.com/20230409/i1681041514_8037_8.jpg"],"created_at":"2024-09-12T05:21:07.523Z"},{"id":"item-9ea09e48d771","sku":"_duiuiiQdYWmMXHn3tlczeH_XyGR9c6Xu01z9Jmw","name_en":"Prada Women Bags","name_cn":"高级,精致","specs":{"source":"wsxcme","sourceId":"_duiuiiQdYWmMXHn3tlczeH_XyGR9c6Xu01z9Jmw","sourceTagId":47002669,"sourceTagName":"普拉达/女包","rawTitle":"高级,精致"},"price":null,"currency":"CNY","moq":1,"category":"prada-women-bags","status":"active","alibaba_url":null,"images":["https://xcimg.szwego.com/img/0307d510/20231007/i1696659611_8034_0.jpg","https://xcimg.szwego.com/img/0307d510/20231007/i1696659611_8017_1.jpg","https://xcimg.szwego.com/img/0307d510/20231007/i1696659611_1808_2.jpg","https://xcimg.szwego.com/img/0307d510/20231007/i1696659611_3364_3.jpg","https://xcimg.szwego.com/img/0307d510/20231007/i1696659611_1583_4.jpg","https://xcimg.szwego.com/img/0307d510/20231007/i1696659611_4632_8.jpg","https://xcimg.szwego.com/img/0307d510/20231007/i1696659611_5833_5.jpg","https://xcimg.szwego.com/img/0307d510/20231007/i1696659611_5118_6.jpg","https://xcimg.szwego.com/img/0307d510/20231007/i1696659611_7552_7.jpg"],"created_at":"2026-06-29T11:07:24.327Z"},{"id":"item-94ce5c50b6f9","sku":"_dl-l-cqhJEaXQRAAwoxPQDyCFVr_-sxoX2ha9Qg","name_en":"Prada Women Bags","name_cn":"🌟双提手手袋(大号)\n这款选用再生尼龙打造,融入特有的风格元素,搭配精致的Saffiano皮革细节,彻底颠覆人们对奢侈品传统的认知。在实用的设计点缀和精致的细节之间增添了独特的韵味。 \n尺寸:长35x高21.5x底10cm\n​款号:1BB114","specs":{"source":"wsxcme","sourceId":"_dl-l-cqhJEaXQRAAwoxPQDyCFVr_-sxoX2ha9Qg","sourceTagId":47002669,"sourceTagName":"普拉达/女包","modelNumber":"1BB114","rawTitle":"🌟双提手手袋(大号)\n这款选用再生尼龙打造,融入特有的风格元素,搭配精致的Saffiano皮革细节,彻底颠覆人们对奢侈品传统的认知。在实用的设计点缀和精致的细节之间增添了独特的韵味。 \n尺寸:长35x高21.5x底10cm\n​款号:1BB114"},"price":null,"currency":"CNY","moq":1,"category":"prada-women-bags","status":"active","alibaba_url":null,"images":["https://xcimg.szwego.com/img/2568964b/20240512/i1715510500_1535_2.jpg","https://xcimg.szwego.com/img/2568964b/20240512/i1715510500_277_3.jpg","https://xcimg.szwego.com/img/2568964b/20240512/i1715510500_5985_5.jpg","https://xcimg.szwego.com/img/2568964b/20240512/i1715510500_5044_0.jpg","https://xcimg.szwego.com/img/2568964b/20240512/i1715510500_5025_8.jpg","https://xcimg.szwego.com/img/2568964b/20240512/i1715510500_7378_6.jpg","https://xcimg.szwego.com/img/2568964b/20240512/i1715510500_4602_4.jpg","https://xcimg.szwego.com/img/2568964b/20240512/i1715510500_8675_1.jpg","https://xcimg.szwego.com/img/2568964b/20240512/i1715510500_6597_7.jpg"],"created_at":"2025-03-02T13:36:59.577Z"},{"id":"item-8cba4517ff1c","sku":"_dMdMd1SpV0LUabIbXt6RPCrqDfMs6LdzffIblyQ","name_en":"Prada Women Bags","name_cn":"新款普拉达 2097 热火朝天的火爆 气场王 百搭王 一百万年都不过时   手提,斜挎  一年四季必备驾驭的了任何风格 市场独家工艺研制原版荔枝纹完美 你的衣橱绝对不可以少一个这么强的搭配神器!尺寸:30.22.13","specs":{"source":"wsxcme","sourceId":"_dMdMd1SpV0LUabIbXt6RPCrqDfMs6LdzffIblyQ","sourceTagId":47002669,"sourceTagName":"普拉达/女包","rawTitle":"新款普拉达 2097 热火朝天的火爆 气场王 百搭王 一百万年都不过时   手提,斜挎  一年四季必备驾驭的了任何风格 市场独家工艺研制原版荔枝纹完美 你的衣橱绝对不可以少一个这么强的搭配神器!尺寸:30.22.13"},"price":null,"currency":"CNY","moq":1,"category":"prada-women-bags","status":"active","alibaba_url":null,"images":["https://xcimg.szwego.com/20201121/i1605970929_2595_0.jpg","https://xcimg.szwego.com/20201121/i1605970929_7646_1.jpg","https://xcimg.szwego.com/20201121/i1605970929_4083_2.jpg","https://xcimg.szwego.com/20201121/i1605963268_201_0.jpg","https://xcimg.szwego.com/20201121/i1605963268_8635_1.jpg","https://xcimg.szwego.com/20201121/i1605963268_6011_2.jpg","https://xcimg.szwego.com/20201121/i1605963268_9527_3.jpg","https://xcimg.szwego.com/20201121/i1605963268_9789_4.jpg","https://xcimg.szwego.com/20201121/i1605963268_8398_5.jpg"],"created_at":"2025-02-08T12:44:26.475Z"},{"id":"item-8aa11a20fa85","sku":"_drRrRZQcssTtEzVAzX8V4X3f4ABeBP5xRjUz-Mg","name_en":"Prada Women Bags","name_cn":"新款普拉达 2097《2019爆款》热火朝天的火爆 气场王 百搭王 一百万年都不过时   手提,斜挎  一年四季必备驾驭的了任何风格 市场独家工艺研制原版荔枝纹完美 你的衣橱绝对不可以少一个这么强的搭配神器!尺寸:30.22.13","specs":{"source":"wsxcme","sourceId":"_drRrRZQcssTtEzVAzX8V4X3f4ABeBP5xRjUz-Mg","sourceTagId":47002669,"sourceTagName":"普拉达/女包","rawTitle":"新款普拉达 2097《2019爆款》热火朝天的火爆 气场王 百搭王 一百万年都不过时   手提,斜挎  一年四季必备驾驭的了任何风格 市场独家工艺研制原版荔枝纹完美 你的衣橱绝对不可以少一个这么强的搭配神器!尺寸:30.22.13"},"price":null,"currency":"CNY","moq":1,"category":"prada-women-bags","status":"active","alibaba_url":null,"images":["https://xcimg.szwego.com/1571152716_2205587730_0","https://xcimg.szwego.com/1571152716_1963685628_1","https://xcimg.szwego.com/1571152716_2642017462_2","https://xcimg.szwego.com/1571152717_3079870233_3","https://xcimg.szwego.com/1571152717_1242461888_4","https://xcimg.szwego.com/1571152717_2568235048_5","https://xcimg.szwego.com/1571152717_2863545054_6","https://xcimg.szwego.com/1571152717_3746986978_7"],"created_at":"2025-02-08T12:44:26.508Z"},{"id":"item-85d643b2ce66","sku":"_dtCtCcTFgMsdRqq_PQh8L4M-22xLLZC_ANdSQaQ","name_en":"Prada Women Bags","name_cn":"(普拉达)腋下月亮/月牙包 时尚黑马[胜利]小牛皮搭配散字唛金色五金,小鹿纹配时尚鳄鱼🐊纹,更具时尚风,月牙形状自带调扣,整体皮穿链,可盐可甜 展现优雅的同时还有点小复古,两侧卡扣对扣秒变奶呼呼的呼啦圈,解锁一包多用。\n款号:0188\n尺寸:23×15×8cm","specs":{"source":"wsxcme","sourceId":"_dtCtCcTFgMsdRqq_PQh8L4M-22xLLZC_ANdSQaQ","sourceTagId":47002669,"sourceTagName":"普拉达/女包","modelNumber":"0188","dimensions":{"lengthCm":23,"heightCm":15,"widthCm":8},"rawTitle":"(普拉达)腋下月亮/月牙包 时尚黑马[胜利]小牛皮搭配散字唛金色五金,小鹿纹配时尚鳄鱼🐊纹,更具时尚风,月牙形状自带调扣,整体皮穿链,可盐可甜 展现优雅的同时还有点小复古,两侧卡扣对扣秒变奶呼呼的呼啦圈,解锁一包多用。\n款号:0188\n尺寸:23×15×8cm"},"price":null,"currency":"CNY","moq":1,"category":"prada-women-bags","status":"active","alibaba_url":null,"images":["https://xcimg.szwego.com/20230705/i1688500975_2734_0.jpg","https://xcimg.szwego.com/20230705/i1688500975_5458_1.jpg","https://xcimg.szwego.com/20230705/i1688500975_9001_2.jpg","https://xcimg.szwego.com/20230705/i1688500975_6007_3.jpg","https://xcimg.szwego.com/20230705/i1688500975_8971_4.jpg","https://xcimg.szwego.com/20230705/i1688500975_6787_5.jpg","https://xcimg.szwego.com/20230705/i1688500975_3094_6.jpg","https://xcimg.szwego.com/20230705/i1688500975_7224_7.jpg"],"created_at":"2025-02-08T12:44:26.499Z"},{"id":"item-81578553927a","sku":"_dHKHKW4x8DGte_ltGLw_YeMxiQtRZhkSUfsHh_Q","name_en":"Prada Women Bags","name_cn":"￼ 【油腊皮】\nPRADA  复古新升三合一\n\n再现2005年标志性风格的单肩包。将普拉达的设计代码凝聚成精致通用的轮廓,创造出过去和现在风格的对话。可调节肩带、金属零件、可拆卸钥匙圈,精致简约的皮革单品。珐琅金属的三角形标志散发着标志性魅力的设计。\n复古率性 充满摇滚气息的大胆与前卫 \n1BH209 尺寸/22×18×6","specs":{"source":"wsxcme","sourceId":"_dHKHKW4x8DGte_ltGLw_YeMxiQtRZhkSUfsHh_Q","sourceTagId":47002669,"sourceTagName":"普拉达/女包","rawTitle":"￼ 【油腊皮】\nPRADA  复古新升三合一\n\n再现2005年标志性风格的单肩包。将普拉达的设计代码凝聚成精致通用的轮廓,创造出过去和现在风格的对话。可调节肩带、金属零件、可拆卸钥匙圈,精致简约的皮革单品。珐琅金属的三角形标志散发着标志性魅力的设计。\n复古率性 充满摇滚气息的大胆与前卫 \n1BH209 尺寸/22×18×6"},"price":null,"currency":"CNY","moq":1,"category":"prada-women-bags","status":"active","alibaba_url":null,"images":["https://xcimg.szwego.com/img/c0f37100/20231205/i1701787131_5602_1.jpg","https://xcimg.szwego.com/img/c0f37100/20231205/i1701787131_2811_4.jpg","https://xcimg.szwego.com/img/c0f37100/20231205/i1701787131_3369_8.jpg","https://xcimg.szwego.com/img/c0f37100/20231205/i1701787131_866_6.jpg","https://xcimg.szwego.com/img/c0f37100/20231205/i1701787131_5646_5.jpg","https://xcimg.szwego.com/img/c0f37100/20231205/i1701787131_4501_3.jpg","https://xcimg.szwego.com/img/c0f37100/20231205/i1701787131_7107_7.jpg","https://xcimg.szwego.com/img/c0f37100/20231205/i1701787131_7458_2.jpg","https://xcimg.szwego.com/img/c0f37100/20231205/i1701787131_6398_0.jpg"],"created_at":"2025-02-08T12:44:26.516Z"},{"id":"item-80da77b59d61","sku":"_dmYmYdWdIX8KXdv9Q1iHsZuAlkI7EQDHQYuFKog","name_en":"Prada Women Bags","name_cn":"正品级\n【新版本】🌟Hobo三合一\n酷girl出街的王炸单品,更是解锁多种背法!单肩/斜挎/手拎/腋下/腰包👏🏻随便一刷明星网红博主都能看到的穿搭包,设计简约又百搭,无论什么穿搭都能轻松驾驭它~\n尺寸:22×12×6cm\n款号:1BH204","specs":{"source":"wsxcme","sourceId":"_dmYmYdWdIX8KXdv9Q1iHsZuAlkI7EQDHQYuFKog","sourceTagId":47002669,"sourceTagName":"普拉达/女包","modelNumber":"1BH204","dimensions":{"lengthCm":22,"heightCm":12,"widthCm":6},"rawTitle":"正品级\n【新版本】🌟Hobo三合一\n酷girl出街的王炸单品,更是解锁多种背法!单肩/斜挎/手拎/腋下/腰包👏🏻随便一刷明星网红博主都能看到的穿搭包,设计简约又百搭,无论什么穿搭都能轻松驾驭它~\n尺寸:22×12×6cm\n款号:1BH204"},"price":null,"currency":"CNY","moq":1,"category":"prada-women-bags","status":"active","alibaba_url":null,"images":["https://xcimg.szwego.com/20230808/i1691497855_1507_0.jpg","https://xcimg.szwego.com/20230808/i1691497855_4475_1.jpg","https://xcimg.szwego.com/20230808/i1691497855_6293_2.jpg","https://xcimg.szwego.com/20230808/i1691497855_4952_3.jpg","https://xcimg.szwego.com/20230808/i1691497855_6092_4.jpg","https://xcimg.szwego.com/20230808/i1691497855_215_5.jpg","https://xcimg.szwego.com/20230808/i1691497855_2333_6.jpg","https://xcimg.szwego.com/20230808/i1691497855_1367_7.jpg","https://xcimg.szwego.com/20230808/i1691497855_1915_8.jpg"],"created_at":"2024-09-12T05:21:07.540Z"},{"id":"item-7f8599ae4ac2","sku":"_dwjwjaMB7-gI9HZjj2Sma75YtLdldRCkARA5WuA","name_en":"Prada Women Bags","name_cn":"普拉达/女包","specs":{"source":"wsxcme","sourceId":"_dwjwjaMB7-gI9HZjj2Sma75YtLdldRCkARA5WuA","sourceTagId":47002669,"sourceTagName":"普拉达/女包","rawTitle":""},"price":null,"currency":"CNY","moq":1,"category":"prada-women-bags","status":"active","alibaba_url":null,"images":["https://xcimg.szwego.com/20260322/i1774161565_4473_0.jpg"],"created_at":"2026-06-29T11:07:24.597Z"},{"id":"item-7d85faf78ae1","sku":"_d-m-mwIzp2cnIjEynpi705lfP3Mi2bsUWVQ8Bmw","name_en":"Prada Women Bags","name_cn":"原单 原厂定制皮料♥️\nPRAD*a 推出全新 2021春夏系列 Hobo手袋 精选小牛皮打造 杜鹃 文淇 邓恩熙赋予 全新演绎 原版复刻 轻便时尚  潮人必备 普拉达由玛丽奥·普拉达于1913年在意大利 米兰创建。Miuccia Prada的独特天赋在于对新创意的不懈追求,融合了对知识的好奇心和文化兴趣,从而开辟了先驱之路。她不仅能够预测时尚趋势,更能够引领时尚潮流 尺寸:27cm款号123","specs":{"source":"wsxcme","sourceId":"_d-m-mwIzp2cnIjEynpi705lfP3Mi2bsUWVQ8Bmw","sourceTagId":47002669,"sourceTagName":"普拉达/女包","modelNumber":"123","rawTitle":"原单 原厂定制皮料♥️\nPRAD*a 推出全新 2021春夏系列 Hobo手袋 精选小牛皮打造 杜鹃 文淇 邓恩熙赋予 全新演绎 原版复刻 轻便时尚  潮人必备 普拉达由玛丽奥·普拉达于1913年在意大利 米兰创建。Miuccia Prada的独特天赋在于对新创意的不懈追求,融合了对知识的好奇心和文化兴趣,从而开辟了先驱之路。她不仅能够预测时尚趋势,更能够引领时尚潮流 尺寸:27cm款号123"},"price":null,"currency":"CNY","moq":1,"category":"prada-women-bags","status":"active","alibaba_url":null,"images":["https://xcimg.szwego.com/img/ee653128/20240427/i1714149578_2666_1.jpg","https://xcimg.szwego.com/img/ee653128/20240427/i1714149578_5338_8.jpg","https://xcimg.szwego.com/img/ee653128/20240427/i1714149578_658_6.jpg","https://xcimg.szwego.com/img/ee653128/20240427/i1714149578_4285_0.jpg","https://xcimg.szwego.com/img/ee653128/20240427/i1714149578_3332_5.jpg","https://xcimg.szwego.com/img/ee653128/20240427/i1714149578_9492_2.jpg","https://xcimg.szwego.com/img/ee653128/20240427/i1714149578_5996_4.jpg","https://xcimg.szwego.com/img/ee653128/20240427/i1714149578_3687_3.jpg","https://xcimg.szwego.com/img/ee653128/20240427/i1714149578_9778_7.jpg"],"created_at":"2025-02-08T12:44:26.515Z"},{"id":"item-7d293c2e30f7","sku":"_dxtxtdxUFhF8LLio-jS8JpJpJAH77r-rCxwKGDg","name_en":"Prada Women Bags","name_cn":"正品级\n【顶级原单】🎉2023新款闪钻三合一🎉1BH204🎉🎉 熠熠生辉的Re-Edition 2005迷你手袋通体采用仿水晶装饰,是Prada经典造型的全新演绎,尽显珍贵魅力。这款手袋采用可调节编织肩带与链条提手,并附带挂在饰带上的配套小包,可以多种方式佩戴。可仙可酷,什么场合都适合,三合一爆款元素一直网红/明星认可,又是一款永久火爆三合一🙊🙊值得入手👍美女们😘尺寸:长22cm*高18cm*底6.5cm","specs":{"source":"wsxcme","sourceId":"_dxtxtdxUFhF8LLio-jS8JpJpJAH77r-rCxwKGDg","sourceTagId":47002669,"sourceTagName":"普拉达/女包","rawTitle":"正品级\n【顶级原单】🎉2023新款闪钻三合一🎉1BH204🎉🎉 熠熠生辉的Re-Edition 2005迷你手袋通体采用仿水晶装饰,是Prada经典造型的全新演绎,尽显珍贵魅力。这款手袋采用可调节编织肩带与链条提手,并附带挂在饰带上的配套小包,可以多种方式佩戴。可仙可酷,什么场合都适合,三合一爆款元素一直网红/明星认可,又是一款永久火爆三合一🙊🙊值得入手👍美女们😘尺寸:长22cm*高18cm*底6.5cm"},"price":null,"currency":"CNY","moq":1,"category":"prada-women-bags","status":"active","alibaba_url":null,"images":["https://xcimg.szwego.com/img/db9d4425/20231022/a1697951637652_5636.jpg","https://xcimg.szwego.com/img/db9d4425/20231022/a1697951637768_3648.jpg","https://xcimg.szwego.com/img/db9d4425/20231022/a1697951637850_3738.jpg","https://xcimg.szwego.com/img/db9d4425/20231022/a1697951637998_6352.jpg","https://xcimg.szwego.com/img/db9d4425/20231022/a1697951638220_0246.jpg","https://xcimg.szwego.com/img/db9d4425/20231022/a1697951638480_0810.jpg","https://xcimg.szwego.com/img/db9d4425/20231022/a1697951638617_2684.jpg","https://xcimg.szwego.com/img/db9d4425/20231022/a1697951638745_3115.jpg","https://xcimg.szwego.com/img/db9d4425/20231022/a1697951638879_6065.jpg"],"created_at":"2024-09-12T05:22:07.603Z"},{"id":"item-775a6873ef18","sku":"_dxixiaOro_YDd05pH0oc7Tffh0uAKtpaDwlnWDg","name_en":"Prada Women Bags","name_cn":"新版吊牌款✨\n🎉Soft Lux油腊皮🎉小号🎉🎉这款手提斜挎包采用进口油腊皮,油亮的色泽散发出古典气息,配有一条可拆卸调节的长肩带,方便不同场合搭配,容量空间非常大,巨巨好用👏,绝对是时商达人们的必备款,赶紧把这款复古格调手拎包带回家吧!\n型号:1BA426\n尺寸:32x15.5x12cm","specs":{"source":"wsxcme","sourceId":"_dxixiaOro_YDd05pH0oc7Tffh0uAKtpaDwlnWDg","sourceTagId":47002669,"sourceTagName":"普拉达/女包","modelNumber":"1BA426","dimensions":{"lengthCm":32,"heightCm":15.5,"widthCm":12},"rawTitle":"新版吊牌款✨\n🎉Soft Lux油腊皮🎉小号🎉🎉这款手提斜挎包采用进口油腊皮,油亮的色泽散发出古典气息,配有一条可拆卸调节的长肩带,方便不同场合搭配,容量空间非常大,巨巨好用👏,绝对是时商达人们的必备款,赶紧把这款复古格调手拎包带回家吧!\n型号:1BA426\n尺寸:32x15.5x12cm"},"price":null,"currency":"CNY","moq":1,"category":"prada-women-bags","status":"active","alibaba_url":null,"images":["https://xcimg.szwego.com/img/cad1e969/20260614/i1781370468690_7050_0_0.jpg","https://xcimg.szwego.com/img/cad1e969/20260614/i1781370467149_4813_0_1.jpg","https://xcimg.szwego.com/img/cad1e969/20260614/i1781370467147_7770_0_2.jpg","https://xcimg.szwego.com/img/cad1e969/20260614/i1781370468724_4326_0_3.jpg","https://xcimg.szwego.com/img/cad1e969/20260614/i1781370467190_9297_0_4.jpg","https://xcimg.szwego.com/img/cad1e969/20260614/i1781370467172_6628_0_5.jpg","https://xcimg.szwego.com/img/cad1e969/20260614/i1781370468772_7185_0_6.jpg","https://xcimg.szwego.com/img/cad1e969/20260614/i1781370467132_831_0_7.jpg","https://xcimg.szwego.com/img/cad1e969/20260614/i1781370468749_914_0_8.jpg"],"created_at":"2026-06-29T11:07:24.257Z"},{"id":"item-7714ed59d5ac","sku":"_d_c_cPPYsAXwOgvlnt_NwuBGFKGDOgVewq4FFtg","name_en":"Prada Women Bags","name_cn":"正品级\n🌟(油蜡皮三合一)\n2023最新款Hobo原厂油蜡皮,配钥匙扣,可拆卸可调式徽标织物肩带 可拆卸拉链式皮质小袋 可拆卸金属链条肩带 顶部拉链拉合 尼龙衬里 涂珐琅三角形金属徽标\n尺寸:长22X高18X宽6.5CM\n款号:1BH204油蜡皮","specs":{"source":"wsxcme","sourceId":"_d_c_cPPYsAXwOgvlnt_NwuBGFKGDOgVewq4FFtg","sourceTagId":47002669,"sourceTagName":"普拉达/女包","modelNumber":"1BH204油蜡皮","dimensions":{"lengthCm":22,"heightCm":18,"widthCm":6.5},"rawTitle":"正品级\n🌟(油蜡皮三合一)\n2023最新款Hobo原厂油蜡皮,配钥匙扣,可拆卸可调式徽标织物肩带 可拆卸拉链式皮质小袋 可拆卸金属链条肩带 顶部拉链拉合 尼龙衬里 涂珐琅三角形金属徽标\n尺寸:长22X高18X宽6.5CM\n款号:1BH204油蜡皮"},"price":null,"currency":"CNY","moq":1,"category":"prada-women-bags","status":"active","alibaba_url":null,"images":["https://xcimg.szwego.com/img/2568964b/20231205/i1701764450_1590_7.jpg","https://xcimg.szwego.com/img/2568964b/20231205/i1701764449_623_5.jpg","https://xcimg.szwego.com/img/2568964b/20231205/i1701764449_351_4.jpg","https://xcimg.szwego.com/img/2568964b/20231205/i1701764449_5429_0.jpg","https://xcimg.szwego.com/img/2568964b/20231205/i1701764449_1469_1.jpg","https://xcimg.szwego.com/img/2568964b/20231205/i1701764449_4687_3.jpg","https://xcimg.szwego.com/img/2568964b/20231205/i1701764450_5829_8.jpg","https://xcimg.szwego.com/img/2568964b/20231205/i1701764449_6167_6.jpg","https://xcimg.szwego.com/img/2568964b/20231205/i1701764449_9934_2.jpg"],"created_at":"2024-09-12T05:21:07.513Z"},{"id":"item-7589fc1f235d","sku":"_dcecenYr_yCPTPlJ3JtQE6TgDb9R2j3NGjwRQxQ","name_en":"Prada Women Bags","name_cn":"现货💕","specs":{"source":"wsxcme","sourceId":"_dcecenYr_yCPTPlJ3JtQE6TgDb9R2j3NGjwRQxQ","sourceTagId":47002669,"sourceTagName":"普拉达/女包","rawTitle":"现货💕"},"price":null,"currency":"CNY","moq":1,"category":"prada-women-bags","status":"active","alibaba_url":null,"images":["https://xcimg.szwego.com/img/0307d510/20231007/i1696659566_454_0.jpg","https://xcimg.szwego.com/img/0307d510/20231007/i1696659566_3873_5.jpg","https://xcimg.szwego.com/img/0307d510/20231007/i1696659566_3804_6.jpg","https://xcimg.szwego.com/img/0307d510/20231007/i1696659566_3517_1.jpg","https://xcimg.szwego.com/img/0307d510/20231007/i1696659566_7858_2.jpg","https://xcimg.szwego.com/img/0307d510/20231007/i1696659566_8862_3.jpg","https://xcimg.szwego.com/img/0307d510/20231007/i1696659566_2699_4.jpg"],"created_at":"2026-06-29T11:07:24.337Z"},{"id":"item-757b677d0684","sku":"_dcscsaPM6p2-hrddlDSOTN-StUbkpTjBfT-p2bw","name_en":"Prada Women Bags","name_cn":"新款普拉达 2097《2019爆款》热火朝天的火爆 气场王 百搭王 一百万年都不过时   手提,斜挎  一年四季必备驾驭的了任何风格 市场独家工艺研制原版荔枝纹完美 你的衣橱绝对不可以少一个这么强的搭配神器!尺寸:30.22.13","specs":{"source":"wsxcme","sourceId":"_dcscsaPM6p2-hrddlDSOTN-StUbkpTjBfT-p2bw","sourceTagId":47002669,"sourceTagName":"普拉达/女包","rawTitle":"新款普拉达 2097《2019爆款》热火朝天的火爆 气场王 百搭王 一百万年都不过时   手提,斜挎  一年四季必备驾驭的了任何风格 市场独家工艺研制原版荔枝纹完美 你的衣橱绝对不可以少一个这么强的搭配神器!尺寸:30.22.13"},"price":null,"currency":"CNY","moq":1,"category":"prada-women-bags","status":"active","alibaba_url":null,"images":["https://xcimg.szwego.com/1571152746_1509164279_0","https://xcimg.szwego.com/1571152746_4167199651_1","https://xcimg.szwego.com/1571152746_3407427804_2","https://xcimg.szwego.com/1571152746_105284459_3","https://xcimg.szwego.com/1571152746_1536333014_4","https://xcimg.szwego.com/1571152746_1292598027_5","https://xcimg.szwego.com/1571152746_285896379_6","https://xcimg.szwego.com/1571152746_125006222_7","https://xcimg.szwego.com/1571152746_1939643404_8"],"created_at":"2025-02-08T12:44:26.506Z"},{"id":"item-71bb9b249268","sku":"_diWiW7S5PrYjFL5aojrUo4Wrxps9cg454l_Oq2g","name_en":"Prada Women Bags","name_cn":"🌟双提手手袋\n采用别致高贵亮皮➕进口尼龙面料优雅简洁的包身设计正面经典logo金色三角徽标长手柄可手提可腋下背,设有三个隔层满足精致收纳需求。\n尺寸:30×17.5×9cm\n款号:1BB115","specs":{"source":"wsxcme","sourceId":"_diWiW7S5PrYjFL5aojrUo4Wrxps9cg454l_Oq2g","sourceTagId":47002669,"sourceTagName":"普拉达/女包","modelNumber":"1BB115","dimensions":{"lengthCm":30,"heightCm":17.5,"widthCm":9},"rawTitle":"🌟双提手手袋\n采用别致高贵亮皮➕进口尼龙面料优雅简洁的包身设计正面经典logo金色三角徽标长手柄可手提可腋下背,设有三个隔层满足精致收纳需求。\n尺寸:30×17.5×9cm\n款号:1BB115"},"price":null,"currency":"CNY","moq":1,"category":"prada-women-bags","status":"active","alibaba_url":null,"images":["https://xcimg.szwego.com/img/2568964b/20240320/i1710943780_9009_7.jpg","https://xcimg.szwego.com/img/2568964b/20240320/i1710943780_5720_5.jpg","https://xcimg.szwego.com/img/2568964b/20240320/i1710943780_1988_1.jpg","https://xcimg.szwego.com/img/2568964b/20240320/i1710943780_3343_6.jpg","https://xcimg.szwego.com/img/2568964b/20240320/i1710943780_890_3.jpg","https://xcimg.szwego.com/img/2568964b/20240320/i1710943780_4112_4.jpg","https://xcimg.szwego.com/img/2568964b/20240320/i1710943797_4145_0.jpg","https://xcimg.szwego.com/img/2568964b/20240320/i1710943779_3336_0.jpg","https://xcimg.szwego.com/img/2568964b/20240320/i1710943780_9646_2.jpg"],"created_at":"2025-03-02T13:37:27.125Z"},{"id":"item-6fba4adbe6d2","sku":"_dT-T-RsQGgNIa7w5REMBL69oD2p30FsaR_FlrQg","name_en":"Prada Women Bags","name_cn":"新款普拉达 2097 热火朝天的火爆 气场王 百搭王 一百万年都不过时   手提,斜挎  一年四季必备驾驭的了任何风格 市场独家工艺研制原版荔枝纹完美 你的衣橱绝对不可以少一个这么强的搭配神器!尺寸:30.22.13","specs":{"source":"wsxcme","sourceId":"_dT-T-RsQGgNIa7w5REMBL69oD2p30FsaR_FlrQg","sourceTagId":47002669,"sourceTagName":"普拉达/女包","rawTitle":"新款普拉达 2097 热火朝天的火爆 气场王 百搭王 一百万年都不过时   手提,斜挎  一年四季必备驾驭的了任何风格 市场独家工艺研制原版荔枝纹完美 你的衣橱绝对不可以少一个这么强的搭配神器!尺寸:30.22.13"},"price":null,"currency":"CNY","moq":1,"category":"prada-women-bags","status":"active","alibaba_url":null,"images":["https://xcimg.szwego.com/20201121/i1605970946_2002_0.jpg","https://xcimg.szwego.com/20201121/i1605970946_8155_1.jpg","https://xcimg.szwego.com/20201121/i1605970946_6672_2.jpg","https://xcimg.szwego.com/20201121/i1605963255_5217_0.jpg","https://xcimg.szwego.com/20201121/i1605963255_5084_1.jpg","https://xcimg.szwego.com/20201121/i1605963255_9673_2.jpg","https://xcimg.szwego.com/20201121/i1605963255_1276_3.jpg","https://xcimg.szwego.com/20201121/i1605963255_4614_4.jpg","https://xcimg.szwego.com/20201121/i1605963255_3443_5.jpg"],"created_at":"2025-02-08T12:44:26.478Z"},{"id":"item-62966eb48a2d","sku":"_dLzLzn_-PUCKP7lQvji48s8NDc2R4Urhm-1sgEQ","name_en":"Prada Women Bags","name_cn":"正品级\n🌟草编三合一\n这款纯手工编织三合一设计太棒👏👏一包三用复杂工手显得格外大气/时尚,最爱的是肩带还挂着个小挂饰(小包)高级感拉满~\n尺寸:长23x高16x底7cm\n款号:1BH204","specs":{"source":"wsxcme","sourceId":"_dLzLzn_-PUCKP7lQvji48s8NDc2R4Urhm-1sgEQ","sourceTagId":47002669,"sourceTagName":"普拉达/女包","modelNumber":"1BH204","rawTitle":"正品级\n🌟草编三合一\n这款纯手工编织三合一设计太棒👏👏一包三用复杂工手显得格外大气/时尚,最爱的是肩带还挂着个小挂饰(小包)高级感拉满~\n尺寸:长23x高16x底7cm\n款号:1BH204"},"price":null,"currency":"CNY","moq":1,"category":"prada-women-bags","status":"active","alibaba_url":null,"images":["https://xcimg.szwego.com/img/2568964b/20231009/i1696840946_7223_0.jpg","https://xcimg.szwego.com/img/2568964b/20231009/i1696840946_3637_1.jpg","https://xcimg.szwego.com/img/2568964b/20231009/i1696840946_2182_2.jpg","https://xcimg.szwego.com/img/2568964b/20231009/i1696840946_5816_3.jpg","https://xcimg.szwego.com/img/2568964b/20231009/i1696840946_8869_4.jpg","https://xcimg.szwego.com/img/2568964b/20231009/i1696840946_981_5.jpg","https://xcimg.szwego.com/img/2568964b/20231009/i1696840946_4037_6.jpg","https://xcimg.szwego.com/img/2568964b/20231009/i1696840946_6224_7.jpg","https://xcimg.szwego.com/img/2568964b/20231009/i1696840946_6762_8.jpg"],"created_at":"2024-09-12T05:21:07.514Z"},{"id":"item-627784754808","sku":"_ducucIeAew1R2JTH0BxJ7HkVOiIXhXuMnMpvu8w","name_en":"Prada Women Bags","name_cn":"🎉新款油腊皮托特包🎉🎉🎉\n这款托特包采用进口油腊皮,油亮的色泽散发出古典气息,肩背/手提都可以,容量空间非常大,巨巨好用👏,绝对是时商达人们的必备款,赶紧把这款复古格托特包带回家吧!\n尺寸:1BG460\n尺寸:39X31X底10cm","specs":{"source":"wsxcme","sourceId":"_ducucIeAew1R2JTH0BxJ7HkVOiIXhXuMnMpvu8w","sourceTagId":47002669,"sourceTagName":"普拉达/女包","rawTitle":"🎉新款油腊皮托特包🎉🎉🎉\n这款托特包采用进口油腊皮,油亮的色泽散发出古典气息,肩背/手提都可以,容量空间非常大,巨巨好用👏,绝对是时商达人们的必备款,赶紧把这款复古格托特包带回家吧!\n尺寸:1BG460\n尺寸:39X31X底10cm"},"price":null,"currency":"CNY","moq":1,"category":"prada-women-bags","status":"active","alibaba_url":null,"images":["https://xcimg.szwego.com/img/b0657124/20250105/i1736010512408_9036_0_0.jpg","https://xcimg.szwego.com/img/b0657124/20250105/i1736010512618_1955_0_1.jpg","https://xcimg.szwego.com/img/b0657124/20250105/i1736010512552_8087_0_2.jpg","https://xcimg.szwego.com/img/b0657124/20250105/i1736010512729_9765_0_3.jpg","https://xcimg.szwego.com/img/b0657124/20250105/i1736010512679_2551_0_4.jpg","https://xcimg.szwego.com/img/b0657124/20250105/i1736010512999_485_0_5.jpg","https://xcimg.szwego.com/img/b0657124/20250105/i1736010512929_1612_0_6.jpg","https://xcimg.szwego.com/img/b0657124/20250105/i1736010512468_1527_0_7.jpg","https://xcimg.szwego.com/img/b0657124/20250105/i1736010512874_7518_0_8.jpg"],"created_at":"2025-01-20T12:53:04.562Z"}],"page":15,"pageSize":24,"total":383,"totalPages":16}
