{"items":[{"id":"item-5a6b8978570b","sku":"_dn3n31tRHv8XQdMaMgbfZw50mXA-wKIvJzzsQlw","name_en":"Prada Women Bags","name_cn":"新款开年新款普拉达\n5008 #  尺寸:31*22*12  \n专柜裁剪手法,采用进口小牛皮🐮搭配🐍纹,质感柔软 包型时尚大方[玫瑰]玩转时尚潮流前线[啤酒]原版专柜五金[爱心]手感柔软舒适,完美细节,超大容量,内置中隔,配有防尘袋,官网卡片,证书一一俱全,坚持高品质","specs":{"source":"wsxcme","sourceId":"_dn3n31tRHv8XQdMaMgbfZw50mXA-wKIvJzzsQlw","sourceTagId":47002669,"sourceTagName":"普拉达/女包","rawTitle":"新款开年新款普拉达\n5008 #  尺寸:31*22*12  \n专柜裁剪手法,采用进口小牛皮🐮搭配🐍纹,质感柔软 包型时尚大方[玫瑰]玩转时尚潮流前线[啤酒]原版专柜五金[爱心]手感柔软舒适,完美细节,超大容量,内置中隔,配有防尘袋,官网卡片,证书一一俱全,坚持高品质"},"price":null,"currency":"CNY","moq":1,"category":"prada-women-bags","status":"active","alibaba_url":null,"images":["https://xcimg.szwego.com/20201224/i1608802800_9536_0.jpg","https://xcimg.szwego.com/20201224/i1608802800_7170_1.jpg","https://xcimg.szwego.com/20201224/i1608802800_3511_2.jpg","https://xcimg.szwego.com/20201223/i1608722892_370_0.jpg","https://xcimg.szwego.com/20201223/i1608722892_748_1.jpg","https://xcimg.szwego.com/20201223/i1608722892_7440_3.jpg","https://xcimg.szwego.com/20201223/i1608722892_4581_4.jpg","https://xcimg.szwego.com/20201223/i1608722892_4927_5.jpg","https://xcimg.szwego.com/20201223/i1608726387_4094_0.jpg"],"created_at":"2025-02-08T12:44:26.531Z"},{"id":"item-5704949b930d","sku":"_dtItIJBKqqgAKkspPxunm_QkBW_GEElIiuJ2xDQ","name_en":"Prada Women Bags","name_cn":"肩带可调节","specs":{"source":"wsxcme","sourceId":"_dtItIJBKqqgAKkspPxunm_QkBW_GEElIiuJ2xDQ","sourceTagId":47002669,"sourceTagName":"普拉达/女包","rawTitle":"肩带可调节"},"price":null,"currency":"CNY","moq":1,"category":"prada-women-bags","status":"active","alibaba_url":null,"images":["https://xcimg.szwego.com/img/0307d510/20231007/i1696660389_5616_0.jpg","https://xcimg.szwego.com/img/0307d510/20231007/i1696660383_1096_0.jpg","https://xcimg.szwego.com/img/0307d510/20231007/i1696660383_9949_1.jpg"],"created_at":"2026-06-29T11:07:24.387Z"},{"id":"item-4ab81e1af2bc","sku":"_deCeC4hYdd6SLkeXavI1nwPdDPWg4r-WjucHiGw","name_en":"Prada Women Bags","name_cn":"正品级\n【顶级原单】🎉新款三合一🎉1B到货啦👏这款迷你信封包配有正面翻盖,标志性的刻字徽标点缀于正面,品牌格调一览无余。 磁扣扣合设计不失经典,织带肩带令其化身为斜挎包或单肩包,配有一个小零钱包,功能多样,又可当手包😘😘软羊革衬里配有带可拆卸镜子的小口袋,设计颇为贴心。简约又时尚,宝宝们赶紧入手吧🎉🎉🎉👏尺寸:长20x高12x底4cm!","specs":{"source":"wsxcme","sourceId":"_deCeC4hYdd6SLkeXavI1nwPdDPWg4r-WjucHiGw","sourceTagId":47002669,"sourceTagName":"普拉达/女包","rawTitle":"正品级\n【顶级原单】🎉新款三合一🎉1B到货啦👏这款迷你信封包配有正面翻盖,标志性的刻字徽标点缀于正面,品牌格调一览无余。 磁扣扣合设计不失经典,织带肩带令其化身为斜挎包或单肩包,配有一个小零钱包,功能多样,又可当手包😘😘软羊革衬里配有带可拆卸镜子的小口袋,设计颇为贴心。简约又时尚,宝宝们赶紧入手吧🎉🎉🎉👏尺寸:长20x高12x底4cm!"},"price":null,"currency":"CNY","moq":1,"category":"prada-women-bags","status":"active","alibaba_url":null,"images":["https://xcimg.szwego.com/img/db9d4425/20231004/a1696415035128_4007.jpg","https://xcimg.szwego.com/img/db9d4425/20231004/a1696415035203_8855.jpg","https://xcimg.szwego.com/img/db9d4425/20231004/a1696415035288_5071.jpg","https://xcimg.szwego.com/img/db9d4425/20231004/a1696415035369_0041.jpg","https://xcimg.szwego.com/img/db9d4425/20231004/a1696415035505_0754.jpg","https://xcimg.szwego.com/img/db9d4425/20231004/a1696415035538_0365.jpg","https://xcimg.szwego.com/img/db9d4425/20231004/a1696415035614_2742.jpg","https://xcimg.szwego.com/img/db9d4425/20231004/a1696415035698_2867.jpg","https://xcimg.szwego.com/img/db9d4425/20231004/a1696415035777_6605.jpg"],"created_at":"2024-09-12T05:22:07.601Z"},{"id":"item-424cdd19d75c","sku":"_dfWfWjsLeRvww4i22HSOJo0zkP0h0R-8FAbC5cw","name_en":"Prada Women Bags","name_cn":"🎉新款油腊皮托特包🎉🎉🎉\n这款托特包采用进口油腊皮,油亮的色泽散发出古典气息,肩背/手提都可以,容量空间非常大,巨巨好用👏,绝对是时商达人们的必备款,赶紧把这款复古格托特包带回家吧!\n尺寸:1BG460\n尺寸:39X31X底10cm","specs":{"source":"wsxcme","sourceId":"_dfWfWjsLeRvww4i22HSOJo0zkP0h0R-8FAbC5cw","sourceTagId":47002669,"sourceTagName":"普拉达/女包","rawTitle":"🎉新款油腊皮托特包🎉🎉🎉\n这款托特包采用进口油腊皮,油亮的色泽散发出古典气息,肩背/手提都可以,容量空间非常大,巨巨好用👏,绝对是时商达人们的必备款,赶紧把这款复古格托特包带回家吧!\n尺寸:1BG460\n尺寸:39X31X底10cm"},"price":null,"currency":"CNY","moq":1,"category":"prada-women-bags","status":"active","alibaba_url":null,"images":["https://xcimg.szwego.com/img/b0657124/20250105/i1736010624614_4319_0_0.jpg","https://xcimg.szwego.com/img/b0657124/20250105/i1736010624751_4420_0_1.jpg","https://xcimg.szwego.com/img/b0657124/20250105/i1736010624549_6112_0_2.jpg","https://xcimg.szwego.com/img/b0657124/20250105/i1736010624878_9585_0_3.jpg","https://xcimg.szwego.com/img/b0657124/20250105/i1736010624494_9391_0_4.jpg","https://xcimg.szwego.com/img/b0657124/20250105/i1736010624685_53_0_5.jpg","https://xcimg.szwego.com/img/b0657124/20250105/i1736010624297_582_0_6.jpg","https://xcimg.szwego.com/img/b0657124/20250105/i1736010624809_6728_0_7.jpg","https://xcimg.szwego.com/img/b0657124/20250105/i1736010624420_5417_0_8.jpg"],"created_at":"2025-01-20T12:53:04.565Z"},{"id":"item-3ece58054057","sku":"_dulul2zogVPuPeGFFDtIwmjYn91ev76dMG3mMiw","name_en":"Prada Women Bags","name_cn":"新款普拉达 2097《2019爆款》热火朝天的火爆 气场王 百搭王 一百万年都不过时   手提,斜挎  一年四季必备驾驭的了任何风格 市场独家工艺研制原版荔枝纹完美 你的衣橱绝对不可以少一个这么强的搭配神器!尺寸:30.22.13","specs":{"source":"wsxcme","sourceId":"_dulul2zogVPuPeGFFDtIwmjYn91ev76dMG3mMiw","sourceTagId":47002669,"sourceTagName":"普拉达/女包","rawTitle":"新款普拉达 2097《2019爆款》热火朝天的火爆 气场王 百搭王 一百万年都不过时   手提,斜挎  一年四季必备驾驭的了任何风格 市场独家工艺研制原版荔枝纹完美 你的衣橱绝对不可以少一个这么强的搭配神器!尺寸:30.22.13"},"price":null,"currency":"CNY","moq":1,"category":"prada-women-bags","status":"active","alibaba_url":null,"images":["https://xcimg.szwego.com/1571152732_525524479_0","https://xcimg.szwego.com/1571152733_1482071093_1","https://xcimg.szwego.com/1571152733_1071819641_2","https://xcimg.szwego.com/1571152733_3268998610_3","https://xcimg.szwego.com/1571152733_3463152903_4","https://xcimg.szwego.com/1571152733_3941632241_5","https://xcimg.szwego.com/1571152733_1854785642_6","https://xcimg.szwego.com/1571152733_2099798260_7","https://xcimg.szwego.com/1571152733_881813623_8"],"created_at":"2025-02-08T12:44:26.507Z"},{"id":"item-27a5deea408b","sku":"_dpipiRPRz-1AmglNRUH_S_9cBKMRmEqGyiI0VDQ","name_en":"Prada Women Bags","name_cn":"正品级\n🌟满钻三合一\n最美最闪的水钻ؔ💎进口钻网 亮闪闪的外表 夜灯下blingbling的效果非常吸睛 回头率特高!!一包三用,最爱的是肩带还挂着个小挂饰(小包),拿到哪里都会被人各种夸,这种闪钻包也特别好搭衣着,有了它就是焦!\n尺寸:长22cm*高18cm*底6.5cm\n款号:1BH204带钻","specs":{"source":"wsxcme","sourceId":"_dpipiRPRz-1AmglNRUH_S_9cBKMRmEqGyiI0VDQ","sourceTagId":47002669,"sourceTagName":"普拉达/女包","modelNumber":"1BH204带钻","rawTitle":"正品级\n🌟满钻三合一\n最美最闪的水钻ؔ💎进口钻网 亮闪闪的外表 夜灯下blingbling的效果非常吸睛 回头率特高!!一包三用,最爱的是肩带还挂着个小挂饰(小包),拿到哪里都会被人各种夸,这种闪钻包也特别好搭衣着,有了它就是焦!\n尺寸:长22cm*高18cm*底6.5cm\n款号:1BH204带钻"},"price":null,"currency":"CNY","moq":1,"category":"prada-women-bags","status":"active","alibaba_url":null,"images":["https://xcimg.szwego.com/20230108/i1673168463_9601_0.jpg","https://xcimg.szwego.com/20230108/i1673168463_4908_1.jpg","https://xcimg.szwego.com/20230108/i1673168463_5591_2.jpg","https://xcimg.szwego.com/20230108/i1673168463_5659_3.jpg","https://xcimg.szwego.com/20230108/i1673168463_8942_4.jpg","https://xcimg.szwego.com/20230108/i1673168463_4939_5.jpg","https://xcimg.szwego.com/20230108/i1673168463_8822_6.jpg","https://xcimg.szwego.com/20230108/i1673168463_541_7.jpg","https://xcimg.szwego.com/20230108/i1673168463_118_8.jpg"],"created_at":"2024-09-12T05:21:07.518Z"},{"id":"item-26d945180315","sku":"_dHlHlLjATIxYFEFBpxC18pyPEjAD1r2TETubVjA","name_en":"Prada Women Bags","name_cn":"🎉新款油腊皮托特包🎉🎉🎉\n这款托特包采用进口油腊皮,油亮的色泽散发出古典气息,肩背/手提都可以,容量空间非常大,巨巨好用👏,绝对是时商达人们的必备款,赶紧把这款复古格托特包带回家吧!\n尺寸:1BG460\n尺寸:39X31X底10cm","specs":{"source":"wsxcme","sourceId":"_dHlHlLjATIxYFEFBpxC18pyPEjAD1r2TETubVjA","sourceTagId":47002669,"sourceTagName":"普拉达/女包","rawTitle":"🎉新款油腊皮托特包🎉🎉🎉\n这款托特包采用进口油腊皮,油亮的色泽散发出古典气息,肩背/手提都可以,容量空间非常大,巨巨好用👏,绝对是时商达人们的必备款,赶紧把这款复古格托特包带回家吧!\n尺寸:1BG460\n尺寸:39X31X底10cm"},"price":null,"currency":"CNY","moq":1,"category":"prada-women-bags","status":"active","alibaba_url":null,"images":["https://xcimg.szwego.com/img/b0657124/20250105/i1736010423753_757_0_0.jpg","https://xcimg.szwego.com/img/b0657124/20250105/i1736010423314_7019_0_1.jpg","https://xcimg.szwego.com/img/b0657124/20250105/i1736010423195_3161_0_2.jpg","https://xcimg.szwego.com/img/b0657124/20250105/i1736010423697_4589_0_3.jpg","https://xcimg.szwego.com/img/b0657124/20250105/i1736010423258_6098_0_4.jpg","https://xcimg.szwego.com/img/b0657124/20250105/i1736010423386_4906_0_5.jpg","https://xcimg.szwego.com/img/b0657124/20250105/i1736010423638_1536_0_6.jpg","https://xcimg.szwego.com/img/b0657124/20250105/i1736010423825_4891_0_7.jpg","https://xcimg.szwego.com/img/b0657124/20250105/i1736010423578_1698_0_8.jpg"],"created_at":"2025-01-20T12:53:04.561Z"},{"id":"item-20623842dbef","sku":"_dmymy2IqkteHzKIs0JjmfNj0qygn0SvMD2btVZA","name_en":"Prada Women Bags","name_cn":"🎉新款油腊皮托特包🎉🎉🎉\n这款托特包采用进口油腊皮,油亮的色泽散发出古典气息,肩背/手提都可以,容量空间非常大,巨巨好用👏,绝对是时商达人们的必备款,赶紧把这款复古格托特包带回家吧!\n尺寸:1BG460\n尺寸:39X31X底10cm","specs":{"source":"wsxcme","sourceId":"_dmymy2IqkteHzKIs0JjmfNj0qygn0SvMD2btVZA","sourceTagId":47002669,"sourceTagName":"普拉达/女包","rawTitle":"🎉新款油腊皮托特包🎉🎉🎉\n这款托特包采用进口油腊皮,油亮的色泽散发出古典气息,肩背/手提都可以,容量空间非常大,巨巨好用👏,绝对是时商达人们的必备款,赶紧把这款复古格托特包带回家吧!\n尺寸:1BG460\n尺寸:39X31X底10cm"},"price":null,"currency":"CNY","moq":1,"category":"prada-women-bags","status":"active","alibaba_url":null,"images":["https://xcimg.szwego.com/img/b0657124/20250105/i1736010533011_4810_0_0.jpg","https://xcimg.szwego.com/img/b0657124/20250105/i1736010533335_1246_0_1.jpg","https://xcimg.szwego.com/img/b0657124/20250105/i1736010533392_9950_0_2.jpg","https://xcimg.szwego.com/img/b0657124/20250105/i1736010533067_5193_0_3.jpg","https://xcimg.szwego.com/img/b0657124/20250105/i1736010533137_7110_0_4.jpg","https://xcimg.szwego.com/img/b0657124/20250105/i1736010533211_6564_0_5.jpg","https://xcimg.szwego.com/img/b0657124/20250105/i1736010533273_3502_0_6.jpg","https://xcimg.szwego.com/img/b0657124/20250105/i1736010533449_5558_0_7.jpg","https://xcimg.szwego.com/img/b0657124/20250105/i1736010538545_1396_0_8.jpg"],"created_at":"2025-01-20T12:53:04.563Z"},{"id":"item-1f4ca5427a4d","sku":"_dtutumqGMvtcTmb8uUHKjIC5psixJMHYfoGhnzg","name_en":"Prada Women Bags","name_cn":"🎉新款腋下包🎉🎉🎉\n独特的Saffiano皮革重新定义了Re-Edition 2005的廓形。这款多功能手袋因其紧凑而高雅的设计而适合日夜使用,采用实用的拉链开合,并饰以标志性的涂珐琅金属三角形徽标。容量空间大,又是一款永久不过时爆款🎉🎉\n型号:1N204W\n尺寸:22x18x6cm","specs":{"source":"wsxcme","sourceId":"_dtutumqGMvtcTmb8uUHKjIC5psixJMHYfoGhnzg","sourceTagId":47002669,"sourceTagName":"普拉达/女包","modelNumber":"1N204W","dimensions":{"lengthCm":22,"heightCm":18,"widthCm":6},"rawTitle":"🎉新款腋下包🎉🎉🎉\n独特的Saffiano皮革重新定义了Re-Edition 2005的廓形。这款多功能手袋因其紧凑而高雅的设计而适合日夜使用,采用实用的拉链开合,并饰以标志性的涂珐琅金属三角形徽标。容量空间大,又是一款永久不过时爆款🎉🎉\n型号:1N204W\n尺寸:22x18x6cm"},"price":null,"currency":"CNY","moq":1,"category":"prada-women-bags","status":"active","alibaba_url":null,"images":["https://xcimg.szwego.com/img/cad1e969/20260623/i1782227452857_2046_0_0.jpg","https://xcimg.szwego.com/img/cad1e969/20260623/i1782227452809_7604_0_1.jpg","https://xcimg.szwego.com/img/cad1e969/20260623/i1782227450462_8667_0_2.jpg","https://xcimg.szwego.com/img/cad1e969/20260623/i1782227450427_2072_0_3.jpg","https://xcimg.szwego.com/img/cad1e969/20260623/i1782227452829_2942_0_4.jpg","https://xcimg.szwego.com/img/cad1e969/20260623/i1782227450498_9554_0_5.jpg","https://xcimg.szwego.com/img/cad1e969/20260623/i1782227450457_4224_0_6.jpg","https://xcimg.szwego.com/img/cad1e969/20260623/i1782227452830_6940_0_7.jpg","https://xcimg.szwego.com/img/cad1e969/20260623/i1782227450492_7706_0_8.jpg"],"created_at":"2026-06-29T11:07:24.827Z"},{"id":"item-1ec4ac6062cf","sku":"_dKMKM1BeDF9GXJ38S_xaOGl_Hf_5fg0vJtfSrQQ","name_en":"Prada Women Bags","name_cn":"🎉新款油腊皮托特包🎉🎉🎉\n这款托特包采用进口油腊皮,油亮的色泽散发出古典气息,肩背/手提都可以,容量空间非常大,巨巨好用👏,绝对是时商达人们的必备款,赶紧把这款复古格托特包带回家吧!\n尺寸:1BG460\n尺寸:39X31X底10cm","specs":{"source":"wsxcme","sourceId":"_dKMKM1BeDF9GXJ38S_xaOGl_Hf_5fg0vJtfSrQQ","sourceTagId":47002669,"sourceTagName":"普拉达/女包","rawTitle":"🎉新款油腊皮托特包🎉🎉🎉\n这款托特包采用进口油腊皮,油亮的色泽散发出古典气息,肩背/手提都可以,容量空间非常大,巨巨好用👏,绝对是时商达人们的必备款,赶紧把这款复古格托特包带回家吧!\n尺寸:1BG460\n尺寸:39X31X底10cm"},"price":null,"currency":"CNY","moq":1,"category":"prada-women-bags","status":"active","alibaba_url":null,"images":["https://xcimg.szwego.com/img/b0657124/20250105/i1736010604099_1498_0_0.jpg","https://xcimg.szwego.com/img/b0657124/20250105/i1736010604281_7085_0_1.jpg","https://xcimg.szwego.com/img/b0657124/20250105/i1736010604037_6701_0_2.jpg","https://xcimg.szwego.com/img/b0657124/20250105/i1736010603976_2072_0_3.jpg","https://xcimg.szwego.com/img/b0657124/20250105/i1736010603916_8558_0_4.jpg","https://xcimg.szwego.com/img/b0657124/20250105/i1736010604520_9033_0_5.jpg","https://xcimg.szwego.com/img/b0657124/20250105/i1736010604227_5590_0_6.jpg","https://xcimg.szwego.com/img/b0657124/20250105/i1736010604464_4196_0_7.jpg","https://xcimg.szwego.com/img/b0657124/20250105/i1736010604409_9115_0_8.jpg"],"created_at":"2025-01-20T12:53:04.564Z"},{"id":"item-181b81f61e5c","sku":"_dk9k9htlj60EsPtbPdjQI23IVnkQiQe4P82_RcQ","name_en":"Prada Women Bags","name_cn":"正品级\n🌹【顶级原单】🎉草编三合一🎉1BH204🎉🎉这款纯手工编织三合一设计太棒👏👏一包三用🎉🎉这款复杂工手显得格外大气/时尚,最爱的是肩带还挂着个小挂饰(小包),上身效果非常棒,回头率百分之百😘夏天必备🎉赶紧入手吧🎉🎉尺寸:长23x高16x底7cm!","specs":{"source":"wsxcme","sourceId":"_dk9k9htlj60EsPtbPdjQI23IVnkQiQe4P82_RcQ","sourceTagId":47002669,"sourceTagName":"普拉达/女包","rawTitle":"正品级\n🌹【顶级原单】🎉草编三合一🎉1BH204🎉🎉这款纯手工编织三合一设计太棒👏👏一包三用🎉🎉这款复杂工手显得格外大气/时尚,最爱的是肩带还挂着个小挂饰(小包),上身效果非常棒,回头率百分之百😘夏天必备🎉赶紧入手吧🎉🎉尺寸:长23x高16x底7cm!"},"price":null,"currency":"CNY","moq":1,"category":"prada-women-bags","status":"active","alibaba_url":null,"images":["https://xcimg.szwego.com/img/db9945f8/20231231/i1703996882_5992_0.jpg","https://xcimg.szwego.com/img/db9945f8/20231231/i1703996882_2699_0.jpg","https://xcimg.szwego.com/img/db9945f8/20231231/i1703996882_5543_0.jpg","https://xcimg.szwego.com/img/db9945f8/20231231/i1703996882_3476_0.jpg","https://xcimg.szwego.com/img/db9945f8/20231231/i1703996882_7089_0.jpg","https://xcimg.szwego.com/img/db9945f8/20231231/i1703996882_1422_0.jpg","https://xcimg.szwego.com/img/db9945f8/20231231/i1703996882_2957_0.jpg","https://xcimg.szwego.com/img/db9945f8/20231231/i1703996882_1881_0.jpg","https://xcimg.szwego.com/img/db9945f8/20231231/i1703996882_9028_0.jpg"],"created_at":"2024-09-12T05:21:07.524Z"},{"id":"item-162e37fb696b","sku":"_dskskQ2pLEB5rYPgvNPFrsjSFcjxTbsQDcuKd3A","name_en":"Prada Women Bags","name_cn":"🎉新款油腊皮托特包🎉🎉🎉\n这款托特包采用进口油腊皮,油亮的色泽散发出古典气息,肩背/手提都可以,容量空间非常大,巨巨好用👏,绝对是时商达人们的必备款,赶紧把这款复古格托特包带回家吧!\n尺寸:1BG460\n尺寸:39X31X底10cm","specs":{"source":"wsxcme","sourceId":"_dskskQ2pLEB5rYPgvNPFrsjSFcjxTbsQDcuKd3A","sourceTagId":47002669,"sourceTagName":"普拉达/女包","rawTitle":"🎉新款油腊皮托特包🎉🎉🎉\n这款托特包采用进口油腊皮,油亮的色泽散发出古典气息,肩背/手提都可以,容量空间非常大,巨巨好用👏,绝对是时商达人们的必备款,赶紧把这款复古格托特包带回家吧!\n尺寸:1BG460\n尺寸:39X31X底10cm"},"price":null,"currency":"CNY","moq":1,"category":"prada-women-bags","status":"active","alibaba_url":null,"images":["https://xcimg.szwego.com/img/b0657124/20250105/i1736010401287_8016_0_0.jpg","https://xcimg.szwego.com/img/b0657124/20250105/i1736010407286_2810_0_1.jpg","https://xcimg.szwego.com/img/b0657124/20250105/i1736010401287_9671_0_2.jpg","https://xcimg.szwego.com/img/b0657124/20250105/i1736010401287_8086_0_3.jpg","https://xcimg.szwego.com/img/b0657124/20250105/i1736010401287_9774_0_4.jpg","https://xcimg.szwego.com/img/b0657124/20250105/i1736010401287_5965_0_5.jpg","https://xcimg.szwego.com/img/b0657124/20250105/i1736010401287_3611_0_6.jpg","https://xcimg.szwego.com/img/b0657124/20250105/i1736010401287_3230_0_7.jpg","https://xcimg.szwego.com/img/b0657124/20250105/i1736010401287_710_0_8.jpg"],"created_at":"2025-01-20T12:53:04.560Z"},{"id":"item-13e02c187b88","sku":"_deDeDJSPIUYpJMTRHVu1qiV_NV20mitV4mq2NNA","name_en":"Prada Women Bags","name_cn":"新款普拉达 2097《2019爆款》热火朝天的火爆 气场王 百搭王 一百万年都不过时   手提,斜挎  一年四季必备驾驭的了任何风格 市场独家工艺研制原版荔枝纹完美 你的衣橱绝对不可以少一个这么强的搭配神器!尺寸:30.22.13","specs":{"source":"wsxcme","sourceId":"_deDeDJSPIUYpJMTRHVu1qiV_NV20mitV4mq2NNA","sourceTagId":47002669,"sourceTagName":"普拉达/女包","rawTitle":"新款普拉达 2097《2019爆款》热火朝天的火爆 气场王 百搭王 一百万年都不过时   手提,斜挎  一年四季必备驾驭的了任何风格 市场独家工艺研制原版荔枝纹完美 你的衣橱绝对不可以少一个这么强的搭配神器!尺寸:30.22.13"},"price":null,"currency":"CNY","moq":1,"category":"prada-women-bags","status":"active","alibaba_url":null,"images":["https://xcimg.szwego.com/1571152702_747409415_0","https://xcimg.szwego.com/1571152702_3977758694_1","https://xcimg.szwego.com/1571152702_3504891070_2","https://xcimg.szwego.com/1571152702_3057117319_3","https://xcimg.szwego.com/1571152702_2867472808_4","https://xcimg.szwego.com/1571152702_2274990323_5","https://xcimg.szwego.com/1571152702_3827604441_6","https://xcimg.szwego.com/1571152702_3650511154_7"],"created_at":"2025-02-08T12:44:26.509Z"},{"id":"item-13d7bd990e7d","sku":"_dnsnsbrrH67x2hl6CY7fMlPZ-lxM5hVT3RQJb-Q","name_en":"Prada Women Bags","name_cn":"【顶级原单】爆款!\n抽绳腋下包🎉1BD250小号/中古包🎉🎉\n这款新品抽绳腋下包采用进口尼龙面料和小牛皮组合成,肩带和底部/包身都为小牛皮,袋口抽绳设计,显得格外时尚又好看,容易空间大,简约又大气,又是一款永久不过时中古爆款🎉🎉\n长23c高18x底8cm","specs":{"source":"wsxcme","sourceId":"_dnsnsbrrH67x2hl6CY7fMlPZ-lxM5hVT3RQJb-Q","sourceTagId":47002669,"sourceTagName":"普拉达/女包","rawTitle":"【顶级原单】爆款!\n抽绳腋下包🎉1BD250小号/中古包🎉🎉\n这款新品抽绳腋下包采用进口尼龙面料和小牛皮组合成,肩带和底部/包身都为小牛皮,袋口抽绳设计,显得格外时尚又好看,容易空间大,简约又大气,又是一款永久不过时中古爆款🎉🎉\n长23c高18x底8cm"},"price":null,"currency":"CNY","moq":1,"category":"prada-women-bags","status":"active","alibaba_url":null,"images":["https://xcimg.szwego.com/img/4ebdbb7c/20240715/i1720982632_54_0.jpg","https://xcimg.szwego.com/img/4ebdbb7c/20240715/i1720982632_8788_8.jpg","https://xcimg.szwego.com/img/4ebdbb7c/20240715/i1720982632_3288_7.jpg","https://xcimg.szwego.com/img/4ebdbb7c/20240715/i1720982632_4248_4.jpg","https://xcimg.szwego.com/img/4ebdbb7c/20240715/i1720982632_673_3.jpg","https://xcimg.szwego.com/img/4ebdbb7c/20240715/i1720982632_4869_2.jpg","https://xcimg.szwego.com/img/4ebdbb7c/20240715/i1720982632_7160_5.jpg","https://xcimg.szwego.com/img/4ebdbb7c/20240715/i1720982632_1793_6.jpg","https://xcimg.szwego.com/img/4ebdbb7c/20240715/i1720982632_8206_1.jpg"],"created_at":"2025-03-02T13:34:53.319Z"},{"id":"item-1375ebd6560f","sku":"_do1o1U2xwtqB4tH6lLVGSYBQf71NXoJDQjrv9vw","name_en":"Prada Women Bags","name_cn":"🎉新款腋下包🎉🎉🎉\n独特的Saffiano皮革重新定义了Re-Edition 2005的廓形。这款多功能手袋因其紧凑而高雅的设计而适合日夜使用,采用实用的拉链开合,并饰以标志性的涂珐琅金属三角形徽标。容量空间大,又是一款永久不过时爆款🎉🎉\n型号:1N204W\n尺寸:22x18x6cm","specs":{"source":"wsxcme","sourceId":"_do1o1U2xwtqB4tH6lLVGSYBQf71NXoJDQjrv9vw","sourceTagId":47002669,"sourceTagName":"普拉达/女包","modelNumber":"1N204W","dimensions":{"lengthCm":22,"heightCm":18,"widthCm":6},"rawTitle":"🎉新款腋下包🎉🎉🎉\n独特的Saffiano皮革重新定义了Re-Edition 2005的廓形。这款多功能手袋因其紧凑而高雅的设计而适合日夜使用,采用实用的拉链开合,并饰以标志性的涂珐琅金属三角形徽标。容量空间大,又是一款永久不过时爆款🎉🎉\n型号:1N204W\n尺寸:22x18x6cm"},"price":null,"currency":"CNY","moq":1,"category":"prada-women-bags","status":"active","alibaba_url":null,"images":["https://xcimg.szwego.com/img/cad1e969/20260623/i1782227408404_6511_0_0.jpg","https://xcimg.szwego.com/img/cad1e969/20260623/i1782227406262_8945_0_1.jpg","https://xcimg.szwego.com/img/cad1e969/20260623/i1782227406292_9099_0_2.jpg","https://xcimg.szwego.com/img/cad1e969/20260623/i1782227406292_5561_0_3.jpg","https://xcimg.szwego.com/img/cad1e969/20260623/i1782227408443_8210_0_4.jpg","https://xcimg.szwego.com/img/cad1e969/20260623/i1782227406300_429_0_5.jpg","https://xcimg.szwego.com/img/cad1e969/20260623/i1782227408460_3665_0_6.jpg","https://xcimg.szwego.com/img/cad1e969/20260623/i1782227406289_9788_0_7.jpg","https://xcimg.szwego.com/img/cad1e969/20260623/i1782227408449_8344_0_8.jpg"],"created_at":"2026-06-29T11:07:24.817Z"},{"id":"item-0edb8e3efc65","sku":"_dgVgVBFVw2XQ4Lu8yCL_T4vhtoWoxySdbrAyNJw","name_en":"Prada Women Bags","name_cn":"普拉达/女包","specs":{"source":"wsxcme","sourceId":"_dgVgVBFVw2XQ4Lu8yCL_T4vhtoWoxySdbrAyNJw","sourceTagId":47002669,"sourceTagName":"普拉达/女包","rawTitle":""},"price":null,"currency":"CNY","moq":1,"category":"prada-women-bags","status":"active","alibaba_url":null,"images":["https://xcimg.szwego.com/img/2aeb7024/20250730/i1753852675_6885_0.jpg"],"created_at":"2026-06-29T11:07:24.517Z"},{"id":"item-0c8d0c4c05d3","sku":"_dwRwRnJ6afNdKjSuKapjUx63_P90eE-AuI4RRHw","name_en":"Prada Women Bags","name_cn":"🌟亮面翻盖单肩包\n别致高贵亮面小牛皮 精致时尚全新锁扣开合 大Logo三角徽标完美融合于包身 配有2条肩带可拆卸可调节 既可以作为腋下包也可以调节成斜挎包 线条流畅利落复古新潮!完美细节媲美砖柜超级棒👍🏻\n尺寸:24×11×4cm\n款号:1BD345","specs":{"source":"wsxcme","sourceId":"_dwRwRnJ6afNdKjSuKapjUx63_P90eE-AuI4RRHw","sourceTagId":47002669,"sourceTagName":"普拉达/女包","modelNumber":"1BD345","dimensions":{"lengthCm":24,"heightCm":11,"widthCm":4},"rawTitle":"🌟亮面翻盖单肩包\n别致高贵亮面小牛皮 精致时尚全新锁扣开合 大Logo三角徽标完美融合于包身 配有2条肩带可拆卸可调节 既可以作为腋下包也可以调节成斜挎包 线条流畅利落复古新潮!完美细节媲美砖柜超级棒👍🏻\n尺寸:24×11×4cm\n款号:1BD345"},"price":null,"currency":"CNY","moq":1,"category":"prada-women-bags","status":"active","alibaba_url":null,"images":["https://xcimg.szwego.com/20230821/i1692616279_7911_0.jpg","https://xcimg.szwego.com/20230821/i1692616279_614_1.jpg","https://xcimg.szwego.com/20230821/i1692616279_8537_2.jpg","https://xcimg.szwego.com/20230821/i1692616279_3885_3.jpg","https://xcimg.szwego.com/20230821/i1692616279_4581_4.jpg","https://xcimg.szwego.com/20230821/i1692616279_6832_5.jpg","https://xcimg.szwego.com/20230821/i1692616279_2627_6.jpg","https://xcimg.szwego.com/20230821/i1692616279_8588_7.jpg","https://xcimg.szwego.com/20230821/i1692616279_2608_8.jpg"],"created_at":"2025-03-02T13:36:31.587Z"},{"id":"item-091fbee9801d","sku":"_dkokozH3OW0iJEK1qC6Ww5PgXUP8Yk4l75BBx_Q","name_en":"Prada Women Bags","name_cn":"🎉新款腋下包🎉🎉🎉\n独特的Saffiano皮革重新定义了Re-Edition 2005的廓形。这款多功能手袋因其紧凑而高雅的设计而适合日夜使用,采用实用的拉链开合,并饰以标志性的涂珐琅金属三角形徽标。容量空间大,又是一款永久不过时爆款🎉🎉\n型号:1N204W\n尺寸:22x18x6cm","specs":{"source":"wsxcme","sourceId":"_dkokozH3OW0iJEK1qC6Ww5PgXUP8Yk4l75BBx_Q","sourceTagId":47002669,"sourceTagName":"普拉达/女包","modelNumber":"1N204W","dimensions":{"lengthCm":22,"heightCm":18,"widthCm":6},"rawTitle":"🎉新款腋下包🎉🎉🎉\n独特的Saffiano皮革重新定义了Re-Edition 2005的廓形。这款多功能手袋因其紧凑而高雅的设计而适合日夜使用,采用实用的拉链开合,并饰以标志性的涂珐琅金属三角形徽标。容量空间大,又是一款永久不过时爆款🎉🎉\n型号:1N204W\n尺寸:22x18x6cm"},"price":null,"currency":"CNY","moq":1,"category":"prada-women-bags","status":"active","alibaba_url":null,"images":["https://xcimg.szwego.com/img/cad1e969/20260623/i1782227470083_7685_0_0.jpg","https://xcimg.szwego.com/img/cad1e969/20260623/i1782227468023_419_0_1.jpg","https://xcimg.szwego.com/img/cad1e969/20260623/i1782227470056_9935_0_2.jpg","https://xcimg.szwego.com/img/cad1e969/20260623/i1782227468046_7046_0_3.jpg","https://xcimg.szwego.com/img/cad1e969/20260623/i1782227468024_315_0_4.jpg","https://xcimg.szwego.com/img/cad1e969/20260623/i1782227468013_4239_0_5.jpg","https://xcimg.szwego.com/img/cad1e969/20260623/i1782227470072_2225_0_6.jpg","https://xcimg.szwego.com/img/cad1e969/20260623/i1782227467988_288_0_7.jpg","https://xcimg.szwego.com/img/cad1e969/20260623/i1782227470060_2798_0_8.jpg"],"created_at":"2026-06-29T11:07:24.837Z"},{"id":"item-068857b6ce91","sku":"_dw_w_FyUHNETNqwS7tjWcfxGo4-S_nDFv6bwXog","name_en":"Prada Women Bags","name_cn":"新品🎉🎉","specs":{"source":"wsxcme","sourceId":"_dw_w_FyUHNETNqwS7tjWcfxGo4-S_nDFv6bwXog","sourceTagId":47002669,"sourceTagName":"普拉达/女包","rawTitle":"新品🎉🎉"},"price":null,"currency":"CNY","moq":1,"category":"prada-women-bags","status":"active","alibaba_url":null,"images":["https://xcimg.szwego.com/img/2aeb7024/20260421/i1776745436_8014_0.jpg"],"created_at":"2026-05-20T08:41:55.267Z"},{"id":"item-cf0a295ec345","sku":"_dxSxS7QVLIwuHRFOD-PYfJugTuSXJjBzqHqJDyw","name_en":"Prada最新🔥爆款🔥皮肩带金色五金Hobo包😘女士尼龙单肩包,型号:1NE204,采用进口原厂降落伞布料,手挽十字纹牛皮,轻便又实用的Hobo腋下包,超级简单又耐看👍👍,小/轻便/能装/好搭/的时髦腋下包,又可手拎,超级无敌好用😍😍。目前是明星们最火爆一款包包,难道你不心动吗😜😜,女士们赶紧哦,尺寸:长22cm高18cm底6.5cm","name_cn":"Prada最新🔥爆款🔥皮肩带金色五金Hobo包😘女士尼龙单肩包,型号:1NE204,采用进口原厂降落伞布料,手挽十字纹牛皮,轻便又实用的Hobo腋下包,超级简单又耐看👍👍,小/轻便/能装/好搭/的时髦腋下包,又可手拎,超级无敌好用😍😍。目前是明星们最火爆一款包包,难道你不心动吗😜😜,女士们赶紧哦,尺寸:长22cm高18cm底6.5cm","specs":{"source":"wsxcme","sourceId":"_dxSxS7QVLIwuHRFOD-PYfJugTuSXJjBzqHqJDyw","sourceTagId":47002669,"sourceTagName":"普拉达/女包","modelNumber":"1NE204","rawTitle":"Prada最新🔥爆款🔥皮肩带金色五金Hobo包😘女士尼龙单肩包,型号:1NE204,采用进口原厂降落伞布料,手挽十字纹牛皮,轻便又实用的Hobo腋下包,超级简单又耐看👍👍,小/轻便/能装/好搭/的时髦腋下包,又可手拎,超级无敌好用😍😍。目前是明星们最火爆一款包包,难道你不心动吗😜😜,女士们赶紧哦,尺寸:长22cm高18cm底6.5cm"},"price":null,"currency":"CNY","moq":1,"category":"prada-women-bags","status":"active","alibaba_url":null,"images":["https://xcimg.szwego.com/img/4ebdbb7c/20231207/i1701885571_2059_6.jpg","https://xcimg.szwego.com/img/4ebdbb7c/20231207/i1701885571_6959_3.jpg","https://xcimg.szwego.com/img/4ebdbb7c/20231207/i1701885571_5283_1.jpg","https://xcimg.szwego.com/img/4ebdbb7c/20231207/i1701885571_6881_2.jpg","https://xcimg.szwego.com/img/4ebdbb7c/20231207/i1701885571_3269_8.jpg","https://xcimg.szwego.com/img/4ebdbb7c/20231207/i1701885571_6335_5.jpg","https://xcimg.szwego.com/img/4ebdbb7c/20231207/i1701885571_5493_4.jpg","https://xcimg.szwego.com/img/4ebdbb7c/20231207/i1701885571_913_0.jpg","https://xcimg.szwego.com/img/4ebdbb7c/20231207/i1701885571_2477_7.jpg"],"created_at":"2025-01-20T12:53:04.503Z"},{"id":"item-561921655991","sku":"_dn6n6TAicFDZJrYxqWLaaPUWE-DqiUUdW7vuJiQ","name_en":"Prada最新🔥爆款🔥皮肩带Hobo包😘女士尼龙单肩包,型号:1NE204,采用进口原厂降落伞布料,手挽十字纹牛皮,轻便又实用的Hobo腋下包,超级简单又耐看👍👍,小/轻便/能装/好搭/的时髦腋下包,又可手拎,超级无敌好用😍😍。目前是明星们最火爆一款包包,难道你不心动吗😜😜,女士们赶紧哦,尺寸:长23cm高13cm底5cm","name_cn":"Prada最新🔥爆款🔥皮肩带Hobo包😘女士尼龙单肩包,型号:1NE204,采用进口原厂降落伞布料,手挽十字纹牛皮,轻便又实用的Hobo腋下包,超级简单又耐看👍👍,小/轻便/能装/好搭/的时髦腋下包,又可手拎,超级无敌好用😍😍。目前是明星们最火爆一款包包,难道你不心动吗😜😜,女士们赶紧哦,尺寸:长23cm高13cm底5cm","specs":{"source":"wsxcme","sourceId":"_dn6n6TAicFDZJrYxqWLaaPUWE-DqiUUdW7vuJiQ","sourceTagId":47002669,"sourceTagName":"普拉达/女包","modelNumber":"1NE204","rawTitle":"Prada最新🔥爆款🔥皮肩带Hobo包😘女士尼龙单肩包,型号:1NE204,采用进口原厂降落伞布料,手挽十字纹牛皮,轻便又实用的Hobo腋下包,超级简单又耐看👍👍,小/轻便/能装/好搭/的时髦腋下包,又可手拎,超级无敌好用😍😍。目前是明星们最火爆一款包包,难道你不心动吗😜😜,女士们赶紧哦,尺寸:长23cm高13cm底5cm"},"price":null,"currency":"CNY","moq":1,"category":"prada-women-bags","status":"active","alibaba_url":null,"images":["https://xcimg.szwego.com/20200515/i1589556852_609_0.jpg","https://xcimg.szwego.com/20200515/i1589556852_7482_1.jpg","https://xcimg.szwego.com/20200515/i1589556852_985_2.jpg","https://xcimg.szwego.com/20200515/i1589556852_8615_3.jpg","https://xcimg.szwego.com/20200515/i1589556852_7780_4.jpg","https://xcimg.szwego.com/20200515/i1589556852_8929_5.jpg","https://xcimg.szwego.com/20200515/i1589556852_8108_6.jpg","https://xcimg.szwego.com/20200515/i1589556852_8458_7.jpg","https://xcimg.szwego.com/20200515/i1589556852_9240_8.jpg"],"created_at":"2025-01-20T12:53:04.482Z"},{"id":"item-d7333943cc55","sku":"_dgegeF1CEmedzHdcgLH_fxjqLfvl_Bym2MbhGJw","name_en":"Prada最新🔥爆款🔥升级版金色五金HOBO...肯豆同款😘女士尼龙单肩包,型号:1NE515,采用进口原厂降落伞布料,轻便又实用的Hobo腋下包,超级简单又耐看👍👍,小/轻便/能装/好搭/的时髦腋下包,又可手拎,超级无敌好用😍😍。目前是明星们最火爆一款包包,难道你不心动吗😜😜,女士们赶紧哦,尺寸:长23cm高13cm底5cm","name_cn":"Prada最新🔥爆款🔥升级版金色五金HOBO...肯豆同款😘女士尼龙单肩包,型号:1NE515,采用进口原厂降落伞布料,轻便又实用的Hobo腋下包,超级简单又耐看👍👍,小/轻便/能装/好搭/的时髦腋下包,又可手拎,超级无敌好用😍😍。目前是明星们最火爆一款包包,难道你不心动吗😜😜,女士们赶紧哦,尺寸:长23cm高13cm底5cm","specs":{"source":"wsxcme","sourceId":"_dgegeF1CEmedzHdcgLH_fxjqLfvl_Bym2MbhGJw","sourceTagId":47002669,"sourceTagName":"普拉达/女包","modelNumber":"1NE515","rawTitle":"Prada最新🔥爆款🔥升级版金色五金HOBO...肯豆同款😘女士尼龙单肩包,型号:1NE515,采用进口原厂降落伞布料,轻便又实用的Hobo腋下包,超级简单又耐看👍👍,小/轻便/能装/好搭/的时髦腋下包,又可手拎,超级无敌好用😍😍。目前是明星们最火爆一款包包,难道你不心动吗😜😜,女士们赶紧哦,尺寸:长23cm高13cm底5cm"},"price":null,"currency":"CNY","moq":1,"category":"prada-women-bags","status":"active","alibaba_url":null,"images":["https://xcimg.szwego.com/img/4ebdbb7c/20231207/i1701886271_634_4.jpg","https://xcimg.szwego.com/img/4ebdbb7c/20231207/i1701886271_2495_2.jpg","https://xcimg.szwego.com/img/4ebdbb7c/20231207/i1701886271_2573_8.jpg","https://xcimg.szwego.com/img/4ebdbb7c/20231207/i1701886271_5780_6.jpg","https://xcimg.szwego.com/img/4ebdbb7c/20231207/i1701886271_4310_0.jpg","https://xcimg.szwego.com/img/4ebdbb7c/20231207/i1701886271_1236_1.jpg","https://xcimg.szwego.com/img/4ebdbb7c/20231207/i1701886271_3288_5.jpg","https://xcimg.szwego.com/img/4ebdbb7c/20231207/i1701886271_5094_3.jpg","https://xcimg.szwego.com/img/4ebdbb7c/20231207/i1701886271_3689_7.jpg"],"created_at":"2025-01-20T12:53:04.510Z"},{"id":"item-7d7d6b06db1a","sku":"_dgjgjMebQpaK7Nf1xqAlIPrkvMdlPAXnWjUhfPA","name_en":"Prada最新🔥爆款🔥升级版HOBO...肯豆同款😘女士尼龙单肩包,型号:1NE515,采用进口原厂降落伞布料,轻便又实用的Hobo腋下包,超级简单又耐看👍👍,小/轻便/能装/好搭/的时髦腋下包,又可手拎,超级无敌好用😍😍。目前是明星们最火爆一款包包,难道你不心动吗😜😜,女士们赶紧哦,尺寸:长23cm高13cm底5cm","name_cn":"Prada最新🔥爆款🔥升级版HOBO...肯豆同款😘女士尼龙单肩包,型号:1NE515,采用进口原厂降落伞布料,轻便又实用的Hobo腋下包,超级简单又耐看👍👍,小/轻便/能装/好搭/的时髦腋下包,又可手拎,超级无敌好用😍😍。目前是明星们最火爆一款包包,难道你不心动吗😜😜,女士们赶紧哦,尺寸:长23cm高13cm底5cm","specs":{"source":"wsxcme","sourceId":"_dgjgjMebQpaK7Nf1xqAlIPrkvMdlPAXnWjUhfPA","sourceTagId":47002669,"sourceTagName":"普拉达/女包","modelNumber":"1NE515","rawTitle":"Prada最新🔥爆款🔥升级版HOBO...肯豆同款😘女士尼龙单肩包,型号:1NE515,采用进口原厂降落伞布料,轻便又实用的Hobo腋下包,超级简单又耐看👍👍,小/轻便/能装/好搭/的时髦腋下包,又可手拎,超级无敌好用😍😍。目前是明星们最火爆一款包包,难道你不心动吗😜😜,女士们赶紧哦,尺寸:长23cm高13cm底5cm"},"price":null,"currency":"CNY","moq":1,"category":"prada-women-bags","status":"active","alibaba_url":null,"images":["https://xcimg.szwego.com/20210504/i1620140550_371_0.jpg","https://xcimg.szwego.com/20210504/i1620140550_2608_1.jpg","https://xcimg.szwego.com/20210504/i1620140550_7685_2.jpg","https://xcimg.szwego.com/20210504/i1620140550_5862_3.jpg","https://xcimg.szwego.com/20210504/i1620140550_7388_4.jpg","https://xcimg.szwego.com/20210504/i1620140550_6178_5.jpg","https://xcimg.szwego.com/20210504/i1620140550_8319_6.jpg","https://xcimg.szwego.com/20210504/i1620140550_7875_7.jpg","https://xcimg.szwego.com/20210504/i1620140550_5655_8.jpg"],"created_at":"2025-01-20T12:53:04.489Z"}],"page":16,"pageSize":24,"total":383,"totalPages":16}
