{"items":[{"id":"item-7a42423e2638","sku":"_dcBcB9JUTLPjj8KgTaaBsRplI3l4w3R3gNqBDXA","name_en":"文艺感还得看罗家!pebble hobo拉满🤩","name_cn":"文艺感还得看罗家!pebble hobo拉满🤩\n信封袋一样的pebble hobo✉️\n两边pebble小银球的点缀☝️\n粒面皮带来的质感无可比拟👏\n男女都可以入手!!!","specs":{"source":"wsxcme","sourceId":"_dcBcB9JUTLPjj8KgTaaBsRplI3l4w3R3gNqBDXA","sourceTagId":47002713,"sourceTagName":"罗意威/女包","rawTitle":"文艺感还得看罗家!pebble hobo拉满🤩\n信封袋一样的pebble hobo✉️\n两边pebble小银球的点缀☝️\n粒面皮带来的质感无可比拟👏\n男女都可以入手!!!"},"price":null,"currency":"CNY","moq":1,"category":"loewe-women-bags","status":"active","alibaba_url":null,"images":["https://xcimg.szwego.com/img/6bf20321/20250110/i1736445167268_3753_0_0.jpg","https://xcimg.szwego.com/img/6bf20321/20250110/i1736445167104_8699_0_1.jpg","https://xcimg.szwego.com/img/6bf20321/20250110/i1736445166915_8261_0_2.jpg","https://xcimg.szwego.com/img/6bf20321/20250110/i1736445166764_1693_0_3.jpg","https://xcimg.szwego.com/img/6bf20321/20250110/i1736445167096_8371_0_4.jpg","https://xcimg.szwego.com/img/6bf20321/20250110/i1736445166924_9098_0_5.jpg","https://xcimg.szwego.com/img/6bf20321/20250110/i1736445165543_452_0_6.jpg"],"created_at":"2025-01-21T02:52:53.992Z"},{"id":"item-c3689ba5aa19","sku":"_duauaglzhNB9GPt59MeIRu06y13bmMldx2W9GRA","name_en":"LO℮w℮🌟柔软粒面牛皮革Pebble Hobo 是一款设计简约得垂直包款,配有双重标志性Anagram Pebble.此版本采用柔软粒面牛皮革制成。*皮革肩带附肩袢*一个牛皮革拉链内袋*绒面革衬里LO℮w℮烫银.Anagram Pebble.","name_cn":"LO℮w℮🌟柔软粒面牛皮革Pebble Hobo 是一款设计简约得垂直包款,配有双重标志性Anagram Pebble.此版本采用柔软粒面牛皮革制成。*皮革肩带附肩袢*一个牛皮革拉链内袋*绒面革衬里LO℮w℮烫银.Anagram Pebble.\nsize:27.5*11.5*40CM\n型号:012442","specs":{"source":"wsxcme","sourceId":"_duauaglzhNB9GPt59MeIRu06y13bmMldx2W9GRA","sourceTagId":47002713,"sourceTagName":"罗意威/女包","modelNumber":"012442","rawTitle":"LO℮w℮🌟柔软粒面牛皮革Pebble Hobo 是一款设计简约得垂直包款,配有双重标志性Anagram Pebble.此版本采用柔软粒面牛皮革制成。*皮革肩带附肩袢*一个牛皮革拉链内袋*绒面革衬里LO℮w℮烫银.Anagram Pebble.\nsize:27.5*11.5*40CM\n型号:012442"},"price":null,"currency":"CNY","moq":1,"category":"loewe-women-bags","status":"active","alibaba_url":null,"images":["https://xcimg.szwego.com/img/6bf20321/20250110/i1736444172279_2187_0_0.jpg","https://xcimg.szwego.com/img/6bf20321/20250110/i1736444172957_6784_0_1.jpg","https://xcimg.szwego.com/img/6bf20321/20250110/i1736444640536_9281_0_3.jpg","https://xcimg.szwego.com/img/6bf20321/20250110/i1736444640536_6749_0_2.jpg","https://xcimg.szwego.com/img/6bf20321/20250110/i1736444172648_6030_0_7.jpg","https://xcimg.szwego.com/img/6bf20321/20250110/i1736444170454_2795_0_6.jpg","https://xcimg.szwego.com/img/6bf20321/20250110/i1736444171954_5868_0_5.jpg","https://xcimg.szwego.com/img/6bf20321/20250110/i1736444171206_1723_0_4.jpg","https://xcimg.szwego.com/img/6bf20321/20250110/i1736444172435_5318_0_8.jpg"],"created_at":"2025-01-21T02:52:53.991Z"},{"id":"item-08d9460d52f7","sku":"_ddidizmjUTlHjpEkKuqaEvKZXdpars6Fz-_Jw1w","name_en":"#四色可选#Pebble pouch","name_cn":"#四色可选#Pebble pouch","specs":{"source":"wsxcme","sourceId":"_ddidizmjUTlHjpEkKuqaEvKZXdpars6Fz-_Jw1w","sourceTagId":47002713,"sourceTagName":"罗意威/女包","rawTitle":"#四色可选#Pebble pouch"},"price":null,"currency":"CNY","moq":1,"category":"loewe-women-bags","status":"active","alibaba_url":null,"images":["https://xcimg.szwego.com/img/6bf20321/20241225/i1735058729_8254_0.jpg","https://xcimg.szwego.com/img/6bf20321/20241225/i1735058729_8408_2.jpg","https://xcimg.szwego.com/img/6bf20321/20241225/i1735058729_9343_1.jpg","https://xcimg.szwego.com/img/6bf20321/20250104/i1735930186553_4949_0_3.jpg"],"created_at":"2025-01-21T02:52:53.989Z"},{"id":"item-3cddd8607169","sku":"_dwywyn87jbZ6Kr2a2asikF9EnY8UcmXOkNZ1X_w","name_en":"Loewe Women Bags","name_cn":"罗家🌟新款 勃艮第红在秋冬也算是绝配哦!","specs":{"source":"wsxcme","sourceId":"_dwywyn87jbZ6Kr2a2asikF9EnY8UcmXOkNZ1X_w","sourceTagId":47002713,"sourceTagName":"罗意威/女包","rawTitle":"罗家🌟新款 勃艮第红在秋冬也算是绝配哦!"},"price":null,"currency":"CNY","moq":1,"category":"loewe-women-bags","status":"active","alibaba_url":null,"images":["https://xcimg.szwego.com/img/6bf20321/20241225/i1735058402_2541_2.jpg","https://xcimg.szwego.com/img/6bf20321/20241225/i1735058402_9048_0.jpg","https://xcimg.szwego.com/img/6bf20321/20241225/i1735058402_2687_1.jpg","https://xcimg.szwego.com/img/6bf20321/20241225/i1735058466_2436_2.jpg","https://xcimg.szwego.com/img/6bf20321/20241225/i1735058466_7062_5.jpg","https://xcimg.szwego.com/img/6bf20321/20241225/i1735058467_7198_6.jpg","https://xcimg.szwego.com/img/6bf20321/20241225/i1735058466_4399_0.jpg","https://xcimg.szwego.com/img/6bf20321/20241225/i1735058466_2876_4.jpg","https://xcimg.szwego.com/img/6bf20321/20241225/i1735058466_3181_3.jpg"],"created_at":"2025-01-21T02:52:53.987Z"},{"id":"item-40221cb8c2d6","sku":"_dpEpEcMJn5dJMxHH95K8pp2nhAJIrKabREpq6lg","name_en":"Hammock hobo沙漠黄 搭配大衣也很好看 ~","name_cn":"Hammock hobo沙漠黄 搭配大衣也很好看 ~","specs":{"source":"wsxcme","sourceId":"_dpEpEcMJn5dJMxHH95K8pp2nhAJIrKabREpq6lg","sourceTagId":47002713,"sourceTagName":"罗意威/女包","rawTitle":"Hammock hobo沙漠黄 搭配大衣也很好看 ~"},"price":null,"currency":"CNY","moq":1,"category":"loewe-women-bags","status":"active","alibaba_url":null,"images":["https://xcimg.szwego.com/img/6bf20321/20241219/i1734587068_8512_0.jpg","https://xcimg.szwego.com/img/6bf20321/20241219/i1734587068_2438_1.jpg","https://xcimg.szwego.com/img/6bf20321/20241219/i1734587068_2255_3.jpg","https://xcimg.szwego.com/img/6bf20321/20241219/i1734587068_6597_2.jpg"],"created_at":"2025-01-21T02:52:53.976Z"},{"id":"item-0685663b4e3c","sku":"_dflflfvaTj2AmRAoh25nkT9SNHqL7yAz1i_-zrA","name_en":"Loewe Women Bags","name_cn":"罗家🆕 此款包包是一系列以皮革替代竹子的艺术作品 时尚单品 ~","specs":{"source":"wsxcme","sourceId":"_dflflfvaTj2AmRAoh25nkT9SNHqL7yAz1i_-zrA","sourceTagId":47002713,"sourceTagName":"罗意威/女包","rawTitle":"罗家🆕 此款包包是一系列以皮革替代竹子的艺术作品 时尚单品 ~"},"price":null,"currency":"CNY","moq":1,"category":"loewe-women-bags","status":"active","alibaba_url":null,"images":["https://xcimg.szwego.com/img/6bf20321/20241101/i1730396255_5395_5.jpg","https://xcimg.szwego.com/img/6bf20321/20241101/i1730396255_3907_6.jpg","https://xcimg.szwego.com/img/6bf20321/20241101/i1730396255_5970_3.jpg","https://xcimg.szwego.com/img/6bf20321/20241101/i1730396255_9633_4.jpg","https://xcimg.szwego.com/img/6bf20321/20241101/i1730396255_9637_1.jpg","https://xcimg.szwego.com/img/6bf20321/20241101/i1730396255_9487_2.jpg","https://xcimg.szwego.com/img/6bf20321/20241101/i1730396255_2659_8.jpg","https://xcimg.szwego.com/img/6bf20321/20241101/i1730396255_826_0.jpg","https://xcimg.szwego.com/img/6bf20321/20241101/i1730396255_457_7.jpg"],"created_at":"2025-01-21T02:52:53.945Z"},{"id":"item-01487703179c","sku":"_djUjUH-TvdEGBtPPIoH5wtUQlzjZxhkTKNQHWlw","name_en":"Loewe Women Bags","name_cn":"新版福袋🆕秋冬最新配色 仙气飘飘 小清新风格~","specs":{"source":"wsxcme","sourceId":"_djUjUH-TvdEGBtPPIoH5wtUQlzjZxhkTKNQHWlw","sourceTagId":47002713,"sourceTagName":"罗意威/女包","rawTitle":"新版福袋🆕秋冬最新配色 仙气飘飘 小清新风格~"},"price":null,"currency":"CNY","moq":1,"category":"loewe-women-bags","status":"active","alibaba_url":null,"images":["https://xcimg.szwego.com/img/6bf20321/20240926/i1727284705_4157_7.jpg","https://xcimg.szwego.com/img/6bf20321/20240926/i1727284705_7754_3.jpg","https://xcimg.szwego.com/img/6bf20321/20240926/i1727284705_7824_4.jpg","https://xcimg.szwego.com/img/6bf20321/20240926/i1727284705_2190_2.jpg","https://xcimg.szwego.com/img/6bf20321/20240926/i1727284705_8045_8.jpg","https://xcimg.szwego.com/img/6bf20321/20240926/i1727284705_9298_5.jpg","https://xcimg.szwego.com/img/6bf20321/20240926/i1727284705_7109_6.jpg","https://xcimg.szwego.com/img/6bf20321/20240926/i1727284705_6911_1.jpg","https://xcimg.szwego.com/img/6bf20321/20240926/i1727284705_3208_0.jpg"],"created_at":"2025-01-21T02:52:53.937Z"},{"id":"item-a3b84e4a83b7","sku":"_d33339UU6t5al-boDpSWGLBTW3I6i7KpFY39Ydg","name_en":"罗家🌟新版本puzzle 松弛淡然的浅梨色 一个充满生机与活力的色彩~","name_cn":"罗家🌟新版本puzzle 松弛淡然的浅梨色 一个充满生机与活力的色彩~","specs":{"source":"wsxcme","sourceId":"_d33339UU6t5al-boDpSWGLBTW3I6i7KpFY39Ydg","sourceTagId":47002713,"sourceTagName":"罗意威/女包","rawTitle":"罗家🌟新版本puzzle 松弛淡然的浅梨色 一个充满生机与活力的色彩~"},"price":null,"currency":"CNY","moq":1,"category":"loewe-women-bags","status":"active","alibaba_url":null,"images":["https://xcimg.szwego.com/img/6bf20321/20240925/i1727260565_7844_4.jpg","https://xcimg.szwego.com/img/6bf20321/20240925/i1727260565_6990_2.jpg","https://xcimg.szwego.com/img/6bf20321/20240925/i1727260566_7953_7.jpg","https://xcimg.szwego.com/img/6bf20321/20240925/i1727260565_603_5.jpg","https://xcimg.szwego.com/img/6bf20321/20240925/i1727260565_5610_0.jpg","https://xcimg.szwego.com/img/6bf20321/20240925/i1727261032_5966_5.jpg","https://xcimg.szwego.com/img/6bf20321/20240925/i1727261032_9775_4.jpg","https://xcimg.szwego.com/img/6bf20321/20240925/i1727261032_4289_2.jpg","https://xcimg.szwego.com/img/6bf20321/20240925/i1727261032_8450_3.jpg"],"created_at":"2025-01-21T02:52:53.936Z"},{"id":"item-99907de18b1b","sku":"_dlQlQ-PAAhG4OZMbJYQ0iWAFym33ZvBgc-8PbeA","name_en":"#五色可选#新款 迷你 Amazona","name_cn":"#五色可选#新款 迷你 Amazona","specs":{"source":"wsxcme","sourceId":"_dlQlQ-PAAhG4OZMbJYQ0iWAFym33ZvBgc-8PbeA","sourceTagId":47002713,"sourceTagName":"罗意威/女包","rawTitle":"#五色可选#新款 迷你 Amazona"},"price":null,"currency":"CNY","moq":1,"category":"loewe-women-bags","status":"active","alibaba_url":null,"images":["https://xcimg.szwego.com/img/6bf20321/20240825/i1724522210_9105_2.jpg","https://xcimg.szwego.com/img/6bf20321/20240825/i1724522210_5615_3.jpg","https://xcimg.szwego.com/img/6bf20321/20240825/i1724522210_3524_1.jpg","https://xcimg.szwego.com/img/6bf20321/20240825/i1724522210_8634_4.jpg","https://xcimg.szwego.com/img/6bf20321/20240825/i1724522210_8627_0.jpg"],"created_at":"2025-01-21T02:52:53.932Z"},{"id":"item-f96337676c73","sku":"_de8e8wkjyR0DHsdBKOPovUVHrCxe_NNIyjKazkw","name_en":"Loewe Women Bags","name_cn":"爆款来袭⬇️颜色相当好看,相当特别!","specs":{"source":"wsxcme","sourceId":"_de8e8wkjyR0DHsdBKOPovUVHrCxe_NNIyjKazkw","sourceTagId":47002713,"sourceTagName":"罗意威/女包","rawTitle":"爆款来袭⬇️颜色相当好看,相当特别!"},"price":null,"currency":"CNY","moq":1,"category":"loewe-women-bags","status":"active","alibaba_url":null,"images":["https://xcimg.szwego.com/img/6bf20321/20240824/i1724439414_6408_2.jpg","https://xcimg.szwego.com/img/6bf20321/20240824/i1724439414_261_5.jpg","https://xcimg.szwego.com/img/6bf20321/20240824/i1724439414_4654_3.jpg","https://xcimg.szwego.com/img/6bf20321/20240824/i1724439414_4700_7.jpg","https://xcimg.szwego.com/img/6bf20321/20240824/i1724439414_113_1.jpg","https://xcimg.szwego.com/img/6bf20321/20240824/i1724439414_2389_0.jpg","https://xcimg.szwego.com/img/6bf20321/20240824/i1724439414_4611_6.jpg","https://xcimg.szwego.com/img/6bf20321/20240824/i1724439414_9386_4.jpg"],"created_at":"2025-01-21T02:52:53.931Z"},{"id":"item-f83429cdd597","sku":"_dwtwtEfMoSNPggOzndCovdNJ6tzCVBcvbcAOTKA","name_en":"新款全皮肩带和puzzle太高级太百搭了~","name_cn":"新款全皮肩带和puzzle太高级太百搭了~","specs":{"source":"wsxcme","sourceId":"_dwtwtEfMoSNPggOzndCovdNJ6tzCVBcvbcAOTKA","sourceTagId":47002713,"sourceTagName":"罗意威/女包","rawTitle":"新款全皮肩带和puzzle太高级太百搭了~"},"price":null,"currency":"CNY","moq":1,"category":"loewe-women-bags","status":"active","alibaba_url":null,"images":["https://xcimg.szwego.com/img/6bf20321/20240527/i1716747962_6803_4.jpg","https://xcimg.szwego.com/img/6bf20321/20240527/i1716747962_8261_1.jpg","https://xcimg.szwego.com/img/6bf20321/20240527/i1716747962_4442_3.jpg","https://xcimg.szwego.com/img/6bf20321/20240527/i1716747962_6963_7.jpg","https://xcimg.szwego.com/img/6bf20321/20240527/i1716747962_1997_0.jpg","https://xcimg.szwego.com/img/6bf20321/20240527/i1716747962_7398_5.jpg","https://xcimg.szwego.com/img/6bf20321/20240527/i1716747962_3784_2.jpg","https://xcimg.szwego.com/img/6bf20321/20240527/i1716747962_1067_6.jpg"],"created_at":"2025-01-21T02:52:53.909Z"},{"id":"item-049c447b7174","sku":"_dEgEgLLLTH_XI5eaTR67w0GcJHGvU05HZf2iv7A","name_en":"💋 这款 Dior Toujours竖版手袋是二零二五早春成衣系列新品,时尚实用,别具一格。采用黑色牛皮革精心制作,饰以超大藤格纹缉面线,宽敞的内部隔层可收纳各种日常用品。设有纤细皮革系带开合,可安全收纳各种物品,另有CD Lock 字母D旋钮式扣环,可调节两侧,提升格调。小号款式,顶部皮革手柄搭配可拆卸的皮革肩带,可手提、肩背或斜挎","name_cn":"💋 这款 Dior Toujours竖版手袋是二零二五早春成衣系列新品,时尚实用,别具一格。采用黑色牛皮革精心制作,饰以超大藤格纹缉面线,宽敞的内部隔层可收纳各种日常用品。设有纤细皮革系带开合,可安全收纳各种物品,另有CD Lock 字母D旋钮式扣环,可调节两侧,提升格调。小号款式,顶部皮革手柄搭配可拆卸的皮革肩带,可手提、肩背或斜挎\n主体:牛皮革里料:牛皮革\n尺寸:16×18×12cm 款号:2835 🎁","specs":{"source":"wsxcme","sourceId":"_dEgEgLLLTH_XI5eaTR67w0GcJHGvU05HZf2iv7A","sourceTagId":47002713,"sourceTagName":"罗意威/女包","modelNumber":"2835 🎁","dimensions":{"lengthCm":16,"heightCm":18,"widthCm":12},"rawTitle":"💋 这款 Dior Toujours竖版手袋是二零二五早春成衣系列新品,时尚实用,别具一格。采用黑色牛皮革精心制作,饰以超大藤格纹缉面线,宽敞的内部隔层可收纳各种日常用品。设有纤细皮革系带开合,可安全收纳各种物品,另有CD Lock 字母D旋钮式扣环,可调节两侧,提升格调。小号款式,顶部皮革手柄搭配可拆卸的皮革肩带,可手提、肩背或斜挎\n主体:牛皮革里料:牛皮革\n尺寸:16×18×12cm 款号:2835 🎁"},"price":null,"currency":"CNY","moq":1,"category":"loewe-women-bags","status":"active","alibaba_url":null,"images":["https://xcimg.szwego.com/img/ec683d96/20250104/i1735921573_3845_0.jpg","https://xcimg.szwego.com/img/ec683d96/20250104/i1735921573_4447_2.jpg","https://xcimg.szwego.com/img/ec683d96/20250104/i1735921574_697_7.jpg","https://xcimg.szwego.com/img/ec683d96/20250104/i1735921573_1133_3.jpg","https://xcimg.szwego.com/img/ec683d96/20250104/i1735921574_3954_5.jpg","https://xcimg.szwego.com/img/ec683d96/20250104/i1735921574_2315_8.jpg","https://xcimg.szwego.com/img/ec683d96/20250104/i1735921574_4209_6.jpg","https://xcimg.szwego.com/img/ec683d96/20250104/i1735921573_9148_4.jpg","https://xcimg.szwego.com/img/ec683d96/20250104/i1735921573_4209_1.jpg"],"created_at":"2025-01-20T11:53:52.590Z"},{"id":"item-cb0ec62e180c","sku":"_dpIpI45vGJW7aS781pxCFgqEQcQEtQ9TImE6G5w","name_en":"Loewe Women Bags","name_cn":"原厂皮\n11050A \n纳帕牛皮革 Flamenco 手拿包\n十九世纪七十年代发布的 Flamenco 手拿包,采用拉绳收紧,并打上标志性的盘绕结。此版本采用纳帕牛皮革制成。\nFlamenco 可容纳例如一只大号钱包、所有尺寸的手机或一本 A5 笔记本,0.5 升容量的瓶子和太阳镜盒\n可肩背、斜背或手拿\n可拆卸可调节肩带\n低调的磁扣开合\n金色绒面革衬里\nLoewe 烫金或烫银 30-19-24","specs":{"source":"wsxcme","sourceId":"_dpIpI45vGJW7aS781pxCFgqEQcQEtQ9TImE6G5w","sourceTagId":47002713,"sourceTagName":"罗意威/女包","rawTitle":"原厂皮\n11050A \n纳帕牛皮革 Flamenco 手拿包\n十九世纪七十年代发布的 Flamenco 手拿包,采用拉绳收紧,并打上标志性的盘绕结。此版本采用纳帕牛皮革制成。\nFlamenco 可容纳例如一只大号钱包、所有尺寸的手机或一本 A5 笔记本,0.5 升容量的瓶子和太阳镜盒\n可肩背、斜背或手拿\n可拆卸可调节肩带\n低调的磁扣开合\n金色绒面革衬里\nLoewe 烫金或烫银 30-19-24"},"price":null,"currency":"CNY","moq":1,"category":"loewe-women-bags","status":"active","alibaba_url":null,"images":["https://xcimg.szwego.com/20231210/i1702180109_4190_0.jpg","https://xcimg.szwego.com/20231210/i1702180109_4100_2.jpg","https://xcimg.szwego.com/20231210/i1702180109_9966_3.jpg","https://xcimg.szwego.com/20231210/i1702180109_5716_4.jpg","https://xcimg.szwego.com/20231210/i1702180109_6316_5.jpg","https://xcimg.szwego.com/20231210/i1702180109_914_6.jpg","https://xcimg.szwego.com/20231210/i1702180109_3912_1.jpg","https://xcimg.szwego.com/20231210/i1702180109_4552_7.jpg","https://xcimg.szwego.com/20231210/i1702180109_9355_8.jpg"],"created_at":"2025-01-20T11:52:30.402Z"},{"id":"item-3e8ff2c528cb","sku":"_doZoZtKzJkSAD7vmJcsctMU6eGqKnd6byuvRkrQ","name_en":"Loewe Women Bags","name_cn":"原厂皮\n新版烫金logo \n迷你纳帕牛皮革 Flamenco 手拿包\n型号11050S\n23.9-9-18cm\n十九世纪七十年代发布的 Flamenco 手拿包,采用拉绳收紧,并打上标志性的盘绕结。此迷你版本采用纳帕牛皮革制成。\n可肩背、斜挎或手提\n可拆卸可调整肩带\n低调的磁扣开合\n金色绒面革衬里\nLOEWE 烫金或烫银","specs":{"source":"wsxcme","sourceId":"_doZoZtKzJkSAD7vmJcsctMU6eGqKnd6byuvRkrQ","sourceTagId":47002713,"sourceTagName":"罗意威/女包","modelNumber":"11050S","rawTitle":"原厂皮\n新版烫金logo \n迷你纳帕牛皮革 Flamenco 手拿包\n型号11050S\n23.9-9-18cm\n十九世纪七十年代发布的 Flamenco 手拿包,采用拉绳收紧,并打上标志性的盘绕结。此迷你版本采用纳帕牛皮革制成。\n可肩背、斜挎或手提\n可拆卸可调整肩带\n低调的磁扣开合\n金色绒面革衬里\nLOEWE 烫金或烫银"},"price":null,"currency":"CNY","moq":1,"category":"loewe-women-bags","status":"active","alibaba_url":null,"images":["https://xcimg.szwego.com/20231210/i1702179192_2133_0.jpg","https://xcimg.szwego.com/20231210/i1702179192_2180_1.jpg","https://xcimg.szwego.com/20231210/i1702179192_9588_2.jpg","https://xcimg.szwego.com/20231210/i1702179192_2584_3.jpg","https://xcimg.szwego.com/20231210/i1702179192_8946_4.jpg","https://xcimg.szwego.com/20231210/i1702179192_4885_5.jpg","https://xcimg.szwego.com/20231210/i1702179192_8463_6.jpg","https://xcimg.szwego.com/20231210/i1702179192_7755_7.jpg","https://xcimg.szwego.com/20231210/i1702179192_8223_8.jpg"],"created_at":"2025-01-20T11:52:30.401Z"},{"id":"item-036e2f971eb6","sku":"_d8W8WVaMxiNvVnfC8bUuTQyJn-SQrKs6u2P3ZbA","name_en":"Loewe Women Bags","name_cn":"原厂皮\n新品 柔软羊皮\n*1776大号皮革Flamenco Purse\nFlamenco Purse手拿包采用褶皱设计,灵感来自Flamenco系列美学,主要细节如两侧的标志性绳结和甜甜圈链条,以更加宽大的比例重新演绎。此大号版本采用柔软纳帕羊皮革制成,搭配同色系金属配件。\n可肩背、斜挎或手提\n可拆卸可调节皮革肩带\n可拆卸甜甜圈链条,饰以Anagram Pebble\n精妙磁扣开合\n尺寸41-26-9","specs":{"source":"wsxcme","sourceId":"_d8W8WVaMxiNvVnfC8bUuTQyJn-SQrKs6u2P3ZbA","sourceTagId":47002713,"sourceTagName":"罗意威/女包","rawTitle":"原厂皮\n新品 柔软羊皮\n*1776大号皮革Flamenco Purse\nFlamenco Purse手拿包采用褶皱设计,灵感来自Flamenco系列美学,主要细节如两侧的标志性绳结和甜甜圈链条,以更加宽大的比例重新演绎。此大号版本采用柔软纳帕羊皮革制成,搭配同色系金属配件。\n可肩背、斜挎或手提\n可拆卸可调节皮革肩带\n可拆卸甜甜圈链条,饰以Anagram Pebble\n精妙磁扣开合\n尺寸41-26-9"},"price":null,"currency":"CNY","moq":1,"category":"loewe-women-bags","status":"active","alibaba_url":null,"images":["https://xcimg.szwego.com/img/8ad247dd/20250119/i1737259377583_5097_0_0.jpg","https://xcimg.szwego.com/img/8ad247dd/20250119/i1737259377846_4696_0_2.jpg","https://xcimg.szwego.com/img/8ad247dd/20250119/i1737259378109_5683_0_1.jpg","https://xcimg.szwego.com/img/8ad247dd/20250119/i1737259388280_9716_0_6.jpg","https://xcimg.szwego.com/img/8ad247dd/20250119/i1737259376911_9425_0_3.jpg","https://xcimg.szwego.com/img/8ad247dd/20250119/i1737259377148_8603_0_4.jpg","https://xcimg.szwego.com/img/8ad247dd/20250119/i1737259377311_8348_0_5.jpg","https://xcimg.szwego.com/img/8ad247dd/20250119/i1737259387795_1706_0_7.jpg","https://xcimg.szwego.com/img/8ad247dd/20250119/i1737259388016_3863_0_8.jpg"],"created_at":"2025-01-20T11:52:30.400Z"},{"id":"item-a382c5858c27","sku":"_dxoxopbhjzB1DzRej06E4iS77wmLRNg6gHYhGlA","name_en":"❤️现货!cubi全皮饭盒包","name_cn":"❤️现货!cubi全皮饭盒包 \nnapa纳帕牛皮  比起提花款 全皮来的更极简大方、轻便 新配色也是可爱到不行✋拉绳上的小五金件里有个小爱心,细节很到位,戳到心窝窝里去了姐妹们速速整起啦💓💓💓Size:20.5×17×12.5cm","specs":{"source":"wsxcme","sourceId":"_dxoxopbhjzB1DzRej06E4iS77wmLRNg6gHYhGlA","sourceTagId":47002713,"sourceTagName":"罗意威/女包","rawTitle":"❤️现货!cubi全皮饭盒包 \nnapa纳帕牛皮  比起提花款 全皮来的更极简大方、轻便 新配色也是可爱到不行✋拉绳上的小五金件里有个小爱心,细节很到位,戳到心窝窝里去了姐妹们速速整起啦💓💓💓Size:20.5×17×12.5cm"},"price":null,"currency":"CNY","moq":1,"category":"loewe-women-bags","status":"active","alibaba_url":null,"images":["https://xcimg.szwego.com/20220520/i1653039739_4068_0.jpg","https://xcimg.szwego.com/20220520/i1653039739_5971_1.jpg","https://xcimg.szwego.com/20220520/i1653039739_711_2.jpg","https://xcimg.szwego.com/20220520/i1653039739_5632_3.jpg","https://xcimg.szwego.com/20220520/i1653039739_9769_4.jpg","https://xcimg.szwego.com/20220520/i1653039739_6510_5.jpg","https://xcimg.szwego.com/20220520/i1653039739_7109_6.jpg","https://xcimg.szwego.com/20220520/i1653039739_4746_7.jpg","https://xcimg.szwego.com/20220520/i1653039739_9011_8.jpg"],"created_at":"2024-10-24T12:54:07.179Z"},{"id":"item-c145f09a3b1e","sku":"_dvLvLnctYu3LmmwUz1qjoCnVtxmVy1tSN9haSKQ","name_en":"❤️现货!cubi全皮饭盒包","name_cn":"❤️现货!cubi全皮饭盒包 \nnapa纳帕牛皮  比起提花款 全皮来的更极简大方、轻便 新配色也是可爱到不行✋拉绳上的小五金件里有个小爱心,细节很到位,戳到心窝窝里去了姐妹们速速整起啦💓💓💓Size:20.5×17×12.5cm","specs":{"source":"wsxcme","sourceId":"_dvLvLnctYu3LmmwUz1qjoCnVtxmVy1tSN9haSKQ","sourceTagId":47002713,"sourceTagName":"罗意威/女包","rawTitle":"❤️现货!cubi全皮饭盒包 \nnapa纳帕牛皮  比起提花款 全皮来的更极简大方、轻便 新配色也是可爱到不行✋拉绳上的小五金件里有个小爱心,细节很到位,戳到心窝窝里去了姐妹们速速整起啦💓💓💓Size:20.5×17×12.5cm"},"price":null,"currency":"CNY","moq":1,"category":"loewe-women-bags","status":"active","alibaba_url":null,"images":["https://xcimg.szwego.com/20220520/i1653038633_9799_0.jpg","https://xcimg.szwego.com/20220520/i1653038633_1800_1.jpg","https://xcimg.szwego.com/20220520/i1653038633_7313_2.jpg","https://xcimg.szwego.com/20220520/i1653038633_6945_3.jpg","https://xcimg.szwego.com/20220520/i1653038633_6630_4.jpg","https://xcimg.szwego.com/20220520/i1653038633_4938_5.jpg","https://xcimg.szwego.com/20220520/i1653038633_2125_6.jpg","https://xcimg.szwego.com/20220520/i1653038633_2_7.jpg","https://xcimg.szwego.com/20220520/i1653038633_2508_8.jpg"],"created_at":"2024-10-24T12:54:07.178Z"},{"id":"item-a509b44ba9a8","sku":"_dp_p_ZGJ100DvDzSEgM_L1tgjsuhO79Hj4qcLhw","name_en":"Loewe Women Bags","name_cn":"ꫛꫀꪝ\nFold Shopper 真的很炸~\n最新秀款购物袋/妈咪袋\n版型 轮廓超赞 自然慵懒又不失个性\n纸纹牛皮 上身轻盈又舒适 底部可折平 旅行必备\n长 短肩带可灵活切换 无论单肩、手拎颜值都很在线 日常通勤、短期旅游、出差都可\n当妈咪包也OK是非常时髦又实用的一款包!冲!\nsize:50*20*31cm","specs":{"source":"wsxcme","sourceId":"_dp_p_ZGJ100DvDzSEgM_L1tgjsuhO79Hj4qcLhw","sourceTagId":47002713,"sourceTagName":"罗意威/女包","rawTitle":"ꫛꫀꪝ\nFold Shopper 真的很炸~\n最新秀款购物袋/妈咪袋\n版型 轮廓超赞 自然慵懒又不失个性\n纸纹牛皮 上身轻盈又舒适 底部可折平 旅行必备\n长 短肩带可灵活切换 无论单肩、手拎颜值都很在线 日常通勤、短期旅游、出差都可\n当妈咪包也OK是非常时髦又实用的一款包!冲!\nsize:50*20*31cm"},"price":null,"currency":"CNY","moq":1,"category":"loewe-women-bags","status":"active","alibaba_url":null,"images":["https://xcimg.szwego.com/20230625/i1687685491_2092_0.jpg","https://xcimg.szwego.com/20230625/i1687685491_470_1.jpg","https://xcimg.szwego.com/20230625/i1687685491_6641_2.jpg","https://xcimg.szwego.com/20230625/i1687685491_111_3.jpg","https://xcimg.szwego.com/20230625/i1687685491_6386_4.jpg","https://xcimg.szwego.com/20230625/i1687685491_8809_5.jpg","https://xcimg.szwego.com/20230625/i1687685491_5983_6.jpg","https://xcimg.szwego.com/20230625/i1687685491_2677_7.jpg","https://xcimg.szwego.com/20230625/i1687685491_6909_8.jpg"],"created_at":"2024-10-24T12:54:07.177Z"},{"id":"item-db03f898ad4f","sku":"_datatKJIDuyTp4msVyOHLTpliNvvxiUfD2jaw6Q","name_en":"Loewe Women Bags","name_cn":"ꫛꫀꪝ\nFold Shopper 真的很炸~\n最新秀款购物袋/妈咪袋\n版型 轮廓超赞 自然慵懒又不失个性\n纸纹牛皮 上身轻盈又舒适 底部可折平 旅行必备\n长 短肩带可灵活切换 无论单肩、手拎颜值都很在线 日常通勤、短期旅游、出差都可\n当妈咪包也OK是非常时髦又实用的一款包!冲!\nsize:50*20*31cm","specs":{"source":"wsxcme","sourceId":"_datatKJIDuyTp4msVyOHLTpliNvvxiUfD2jaw6Q","sourceTagId":47002713,"sourceTagName":"罗意威/女包","rawTitle":"ꫛꫀꪝ\nFold Shopper 真的很炸~\n最新秀款购物袋/妈咪袋\n版型 轮廓超赞 自然慵懒又不失个性\n纸纹牛皮 上身轻盈又舒适 底部可折平 旅行必备\n长 短肩带可灵活切换 无论单肩、手拎颜值都很在线 日常通勤、短期旅游、出差都可\n当妈咪包也OK是非常时髦又实用的一款包!冲!\nsize:50*20*31cm"},"price":null,"currency":"CNY","moq":1,"category":"loewe-women-bags","status":"active","alibaba_url":null,"images":["https://xcimg.szwego.com/20230625/i1687685538_8628_0.jpg","https://xcimg.szwego.com/20230625/i1687685538_3961_1.jpg","https://xcimg.szwego.com/20230625/i1687685538_8385_2.jpg","https://xcimg.szwego.com/20230625/i1687685538_8018_3.jpg","https://xcimg.szwego.com/20230625/i1687685538_6804_4.jpg","https://xcimg.szwego.com/20230625/i1687685538_8982_5.jpg","https://xcimg.szwego.com/20230625/i1687685538_1942_6.jpg","https://xcimg.szwego.com/20230625/i1687685538_4648_7.jpg","https://xcimg.szwego.com/20230625/i1687685569_936_0.jpg"],"created_at":"2024-10-24T12:54:07.176Z"},{"id":"item-8c1b9ddcc24c","sku":"_d9w9w4JRJ2fOtnb5O-4iUzhfk7Ufye07_ObDKYg","name_en":"Lo*we新款🆕柔软光滑牛皮革和提花布军用邮差包👨","name_cn":"Lo*we新款🆕柔软光滑牛皮革和提花布军用邮差包👨\n拉链顶部隔层以及额外的前部翻盖隔层*带翻盖🚹这个版本采用牛皮革和提花布制成👇*Loewe提花肩带👏肩背或斜挎*可调式肩带,配有金属滑块*磁扣开合*内部插袋*人字纹棉质帆布衬里*Anagram 压纹🌟 \nSize:24.5*18*10.5cm \n型号:11388","specs":{"source":"wsxcme","sourceId":"_d9w9w4JRJ2fOtnb5O-4iUzhfk7Ufye07_ObDKYg","sourceTagId":47002713,"sourceTagName":"罗意威/女包","modelNumber":"11388","rawTitle":"Lo*we新款🆕柔软光滑牛皮革和提花布军用邮差包👨\n拉链顶部隔层以及额外的前部翻盖隔层*带翻盖🚹这个版本采用牛皮革和提花布制成👇*Loewe提花肩带👏肩背或斜挎*可调式肩带,配有金属滑块*磁扣开合*内部插袋*人字纹棉质帆布衬里*Anagram 压纹🌟 \nSize:24.5*18*10.5cm \n型号:11388"},"price":null,"currency":"CNY","moq":1,"category":"loewe-women-bags","status":"active","alibaba_url":null,"images":["https://xcimg.szwego.com/20220701/i1656607741_4266_0.jpg","https://xcimg.szwego.com/20220701/i1656607741_1048_1.jpg","https://xcimg.szwego.com/20220701/i1656607741_2478_2.jpg","https://xcimg.szwego.com/20220701/i1656607741_8088_3.jpg","https://xcimg.szwego.com/20220701/i1656607741_3728_4.jpg","https://xcimg.szwego.com/20220701/i1656607741_5682_5.jpg","https://xcimg.szwego.com/20220701/i1656607741_1267_6.jpg","https://xcimg.szwego.com/20220701/i1656607741_1371_7.jpg","https://xcimg.szwego.com/20220701/i1656607741_6453_8.jpg"],"created_at":"2024-10-24T12:54:07.175Z"},{"id":"item-b942e3c8665b","sku":"_dcncnsJnBLhdWBMJvuaDfaZo-hQna4r2Ibqry4g","name_en":"👄Flamenco系列升级版福袋到货💥选用优质柔软小牛皮","name_cn":"👄Flamenco系列升级版福袋到货💥选用优质柔软小牛皮\n束口抽绳演绎成福袋造型:简约却不失个性,磁扣开合 容量非常可,单肩或斜跨背 手拿ok,随性不失贵气的feel,简直就是造型加分项~小号Size:23.9*18*9cm","specs":{"source":"wsxcme","sourceId":"_dcncnsJnBLhdWBMJvuaDfaZo-hQna4r2Ibqry4g","sourceTagId":47002713,"sourceTagName":"罗意威/女包","rawTitle":"👄Flamenco系列升级版福袋到货💥选用优质柔软小牛皮\n束口抽绳演绎成福袋造型:简约却不失个性,磁扣开合 容量非常可,单肩或斜跨背 手拿ok,随性不失贵气的feel,简直就是造型加分项~小号Size:23.9*18*9cm"},"price":null,"currency":"CNY","moq":1,"category":"loewe-women-bags","status":"active","alibaba_url":null,"images":["https://xcimg.szwego.com/20210513/i1620896359_4344_0.jpg","https://xcimg.szwego.com/20210513/i1620896359_8210_1.jpg","https://xcimg.szwego.com/20210513/i1620896359_20_2.jpg","https://xcimg.szwego.com/20210513/i1620896359_74_3.jpg","https://xcimg.szwego.com/20210513/i1620896359_6162_4.jpg","https://xcimg.szwego.com/20210513/i1620896359_3690_5.jpg","https://xcimg.szwego.com/20210513/i1620896359_8139_6.jpg","https://xcimg.szwego.com/20210513/i1620896359_6601_7.jpg","https://xcimg.szwego.com/20210513/i1620896359_2953_8.jpg"],"created_at":"2024-10-24T12:54:07.174Z"},{"id":"item-a35b8f4433c9","sku":"_d9090veBAyet6yfzlva-8OCmKFF4AqbsYP5WSNQ","name_en":"👄Flamenco系列升级版福袋到货💥选用优质柔软小牛皮","name_cn":"👄Flamenco系列升级版福袋到货💥选用优质柔软小牛皮\n束口抽绳演绎成福袋造型:简约却不失个性,磁扣开合 容量非常可,单肩或斜跨背 手拿ok,随性不失贵气的feel,简直就是造型加分项~小号Size:23.9*18*9cm","specs":{"source":"wsxcme","sourceId":"_d9090veBAyet6yfzlva-8OCmKFF4AqbsYP5WSNQ","sourceTagId":47002713,"sourceTagName":"罗意威/女包","rawTitle":"👄Flamenco系列升级版福袋到货💥选用优质柔软小牛皮\n束口抽绳演绎成福袋造型:简约却不失个性,磁扣开合 容量非常可,单肩或斜跨背 手拿ok,随性不失贵气的feel,简直就是造型加分项~小号Size:23.9*18*9cm"},"price":null,"currency":"CNY","moq":1,"category":"loewe-women-bags","status":"active","alibaba_url":null,"images":["https://xcimg.szwego.com/20230306/i1678091981_2163_0.jpg","https://xcimg.szwego.com/20230306/i1678091981_6763_1.jpg","https://xcimg.szwego.com/20230306/i1678091981_3200_2.jpg","https://xcimg.szwego.com/20230306/i1678091981_1704_3.jpg","https://xcimg.szwego.com/20230306/i1678091981_3091_4.jpg","https://xcimg.szwego.com/20230306/i1678091981_6843_5.jpg","https://xcimg.szwego.com/20230306/i1678091981_4744_6.jpg","https://xcimg.szwego.com/20230306/i1678091981_1532_7.jpg","https://xcimg.szwego.com/20230306/i1678091981_357_8.jpg"],"created_at":"2024-10-24T12:54:07.173Z"},{"id":"item-da2980c6bcd7","sku":"_dkZkZ-_HrT8kmNy8TFQskf8IKlcURLmJgwfupwQ","name_en":"Loewe Women Bags","name_cn":"ꫛꫀꪝ\n puzzle本色压印 经典黑🎱到货√\n简约大气的几何设计 采用柔软小牛皮拼接 随便揉捏 包型都不变 手感舒适上身气质立马up~立体包型还蕴藏着非凡的容量 是永远都囤不够的热门单品啊size:29*12*19cm","specs":{"source":"wsxcme","sourceId":"_dkZkZ-_HrT8kmNy8TFQskf8IKlcURLmJgwfupwQ","sourceTagId":47002713,"sourceTagName":"罗意威/女包","rawTitle":"ꫛꫀꪝ\n puzzle本色压印 经典黑🎱到货√\n简约大气的几何设计 采用柔软小牛皮拼接 随便揉捏 包型都不变 手感舒适上身气质立马up~立体包型还蕴藏着非凡的容量 是永远都囤不够的热门单品啊size:29*12*19cm"},"price":null,"currency":"CNY","moq":1,"category":"loewe-women-bags","status":"active","alibaba_url":null,"images":["https://xcimg.szwego.com/20220808/i1659948942_1400_0.jpg","https://xcimg.szwego.com/20220808/i1659948942_8294_1.jpg","https://xcimg.szwego.com/20220808/i1659948942_9091_2.jpg","https://xcimg.szwego.com/20220808/i1659948942_5035_3.jpg","https://xcimg.szwego.com/20220808/i1659948942_4549_4.jpg","https://xcimg.szwego.com/20220808/i1659948942_5148_5.jpg","https://xcimg.szwego.com/20220808/i1659948942_7421_6.jpg","https://xcimg.szwego.com/20220808/i1659948942_9935_7.jpg","https://xcimg.szwego.com/20220808/i1659948942_5422_8.jpg"],"created_at":"2024-10-24T12:53:14.233Z"},{"id":"item-a9fee67c24b4","sku":"_db6b6HwPZm07o_a3EgGERBLrNYn6zsrJ8_0L7Uw","name_en":"Loewe Women Bags","name_cn":"ꫛꫀꪝ\n puzzle本色压印 经典黑🎱到货√\n简约大气的几何设计 采用柔软小牛皮拼接 随便揉捏 包型都不变 手感舒适上身气质立马up~立体包型还蕴藏着非凡的容量 是永远都囤不够的热门单品啊size:24*10*14cm","specs":{"source":"wsxcme","sourceId":"_db6b6HwPZm07o_a3EgGERBLrNYn6zsrJ8_0L7Uw","sourceTagId":47002713,"sourceTagName":"罗意威/女包","rawTitle":"ꫛꫀꪝ\n puzzle本色压印 经典黑🎱到货√\n简约大气的几何设计 采用柔软小牛皮拼接 随便揉捏 包型都不变 手感舒适上身气质立马up~立体包型还蕴藏着非凡的容量 是永远都囤不够的热门单品啊size:24*10*14cm"},"price":null,"currency":"CNY","moq":1,"category":"loewe-women-bags","status":"active","alibaba_url":null,"images":["https://xcimg.szwego.com/20220804/i1659601539_9459_0.jpg","https://xcimg.szwego.com/20220804/i1659601539_1997_1.jpg","https://xcimg.szwego.com/20220804/i1659601539_9139_2.jpg","https://xcimg.szwego.com/20220804/i1659601539_9538_3.jpg","https://xcimg.szwego.com/20220804/i1659601539_6209_4.jpg","https://xcimg.szwego.com/20220804/i1659601539_7703_5.jpg","https://xcimg.szwego.com/20220804/i1659601539_3779_6.jpg","https://xcimg.szwego.com/20220804/i1659601539_7237_7.jpg","https://xcimg.szwego.com/20220804/i1659601539_3527_8.jpg"],"created_at":"2024-10-24T12:53:14.232Z"}],"page":20,"pageSize":24,"total":578,"totalPages":25}
