{"items":[{"id":"item-0ba41bae71c8","sku":"_dcRcRGlj8sEdmujXKWr9-TWQq_FDqWB1PQOxKtw","name_en":"Loewe Women Bags","name_cn":"原厂皮\n褶皱纳帕皮革手链小包\n9751\n颜色: 深卡綠\n这款多功能管状小包采用褶皱纳帕羊皮革制成,可转换为手链佩戴。 两端都饰有压纹羊皮革饰板。\n可拆卸可调节带子,按扣固定\n拉链开合,带同色拉头\n无衬里\nAnagram 压纹 25-10-10","specs":{"source":"wsxcme","sourceId":"_dcRcRGlj8sEdmujXKWr9-TWQq_FDqWB1PQOxKtw","sourceTagId":47002713,"sourceTagName":"罗意威/女包","rawTitle":"原厂皮\n褶皱纳帕皮革手链小包\n9751\n颜色: 深卡綠\n这款多功能管状小包采用褶皱纳帕羊皮革制成,可转换为手链佩戴。 两端都饰有压纹羊皮革饰板。\n可拆卸可调节带子,按扣固定\n拉链开合,带同色拉头\n无衬里\nAnagram 压纹 25-10-10"},"price":null,"currency":"CNY","moq":1,"category":"loewe-women-bags","status":"active","alibaba_url":null,"images":["https://xcimg.szwego.com/img/8ad247dd/20240914/i1726291867_2195_7.jpg","https://xcimg.szwego.com/img/8ad247dd/20240914/i1726291867_9230_1.jpg","https://xcimg.szwego.com/img/8ad247dd/20240914/i1726291867_5912_6.jpg","https://xcimg.szwego.com/img/8ad247dd/20240914/i1726291867_3367_2.jpg","https://xcimg.szwego.com/img/8ad247dd/20240914/i1726291867_7071_3.jpg","https://xcimg.szwego.com/img/8ad247dd/20240914/i1726291867_152_0.jpg","https://xcimg.szwego.com/img/8ad247dd/20240914/i1726291867_8242_5.jpg","https://xcimg.szwego.com/img/8ad247dd/20240914/i1726291879_1240_0.jpg","https://xcimg.szwego.com/img/8ad247dd/20240914/i1726291917_7759_0.jpg"],"created_at":"2024-09-27T06:55:30.698Z"},{"id":"item-20dbdae31751","sku":"_dfrfrcDqU30NHWEK018D2kMgZk07L5v5Dr21Zng","name_en":"Loewe Women Bags","name_cn":"原厂皮\n新品明星同款  型号332 \n中号柔软牛皮革 Pebble Bucket 水桶手袋\nPebble 将纯粹的简约线条与瞩目设计风格巧妙融合,造就别具一格的创新的手袋设计。标志性的 Anagram 雕刻五金件兼具装饰和实用功能,可调节肩带长度并适合多种携带方式,独特的扭曲结构与微妙的细节相得益彰。此中号版本采用柔软牛皮革制成。\n可肩背或斜挎\n可调节肩带\n磁扣开合\n内袋\n合成革衬里\nAnagram 雕刻卵石\n尺寸:24.5*23.5*28cm","specs":{"source":"wsxcme","sourceId":"_dfrfrcDqU30NHWEK018D2kMgZk07L5v5Dr21Zng","sourceTagId":47002713,"sourceTagName":"罗意威/女包","modelNumber":"332","dimensions":{"lengthCm":24.5,"heightCm":23.5,"widthCm":28},"rawTitle":"原厂皮\n新品明星同款  型号332 \n中号柔软牛皮革 Pebble Bucket 水桶手袋\nPebble 将纯粹的简约线条与瞩目设计风格巧妙融合,造就别具一格的创新的手袋设计。标志性的 Anagram 雕刻五金件兼具装饰和实用功能,可调节肩带长度并适合多种携带方式,独特的扭曲结构与微妙的细节相得益彰。此中号版本采用柔软牛皮革制成。\n可肩背或斜挎\n可调节肩带\n磁扣开合\n内袋\n合成革衬里\nAnagram 雕刻卵石\n尺寸:24.5*23.5*28cm"},"price":null,"currency":"CNY","moq":1,"category":"loewe-women-bags","status":"active","alibaba_url":null,"images":["https://xcimg.szwego.com/img/8ad247dd/20240827/i1724744178_6142_0.jpg","https://xcimg.szwego.com/img/8ad247dd/20240827/i1724744207_7132_0.jpg","https://xcimg.szwego.com/img/8ad247dd/20240827/i1724744234_448_0.jpg","https://xcimg.szwego.com/img/8ad247dd/20240827/i1724744222_2574_1.jpg","https://xcimg.szwego.com/img/8ad247dd/20240827/i1724744163_4877_1.jpg","https://xcimg.szwego.com/img/8ad247dd/20240827/i1724744142_217_0.jpg","https://xcimg.szwego.com/img/8ad247dd/20240827/i1724744196_8284_0.jpg","https://xcimg.szwego.com/img/8ad247dd/20240827/i1724744222_1310_0.jpg","https://xcimg.szwego.com/img/8ad247dd/20240827/i1724744267_2605_0.jpg"],"created_at":"2024-09-27T06:55:30.697Z"}],"page":25,"pageSize":24,"total":578,"totalPages":25}
