{"items":[{"id":"item-0ba41bae71c8","sku":"_dcRcRGlj8sEdmujXKWr9-TWQq_FDqWB1PQOxKtw","name_en":"Loewe Women Bags","name_cn":"原厂皮\n褶皱纳帕皮革手链小包\n9751\n颜色: 深卡綠\n这款多功能管状小包采用褶皱纳帕羊皮革制成,可转换为手链佩戴。 两端都饰有压纹羊皮革饰板。\n可拆卸可调节带子,按扣固定\n拉链开合,带同色拉头\n无衬里\nAnagram 压纹 25-10-10","specs":{"source":"wsxcme","sourceId":"_dcRcRGlj8sEdmujXKWr9-TWQq_FDqWB1PQOxKtw","sourceTagId":47002713,"sourceTagName":"罗意威/女包","rawTitle":"原厂皮\n褶皱纳帕皮革手链小包\n9751\n颜色: 深卡綠\n这款多功能管状小包采用褶皱纳帕羊皮革制成,可转换为手链佩戴。 两端都饰有压纹羊皮革饰板。\n可拆卸可调节带子,按扣固定\n拉链开合,带同色拉头\n无衬里\nAnagram 压纹 25-10-10"},"price":null,"currency":"CNY","moq":1,"category":"loewe-women-bags","status":"active","alibaba_url":null,"images":["https://xcimg.szwego.com/img/8ad247dd/20240914/i1726291867_2195_7.jpg","https://xcimg.szwego.com/img/8ad247dd/20240914/i1726291867_9230_1.jpg","https://xcimg.szwego.com/img/8ad247dd/20240914/i1726291867_5912_6.jpg","https://xcimg.szwego.com/img/8ad247dd/20240914/i1726291867_3367_2.jpg","https://xcimg.szwego.com/img/8ad247dd/20240914/i1726291867_7071_3.jpg","https://xcimg.szwego.com/img/8ad247dd/20240914/i1726291867_152_0.jpg","https://xcimg.szwego.com/img/8ad247dd/20240914/i1726291867_8242_5.jpg","https://xcimg.szwego.com/img/8ad247dd/20240914/i1726291879_1240_0.jpg","https://xcimg.szwego.com/img/8ad247dd/20240914/i1726291917_7759_0.jpg"],"created_at":"2024-09-27T06:55:30.698Z"},{"id":"item-20dbdae31751","sku":"_dfrfrcDqU30NHWEK018D2kMgZk07L5v5Dr21Zng","name_en":"Loewe Women Bags","name_cn":"原厂皮\n新品明星同款  型号332 \n中号柔软牛皮革 Pebble Bucket 水桶手袋\nPebble 将纯粹的简约线条与瞩目设计风格巧妙融合,造就别具一格的创新的手袋设计。标志性的 Anagram 雕刻五金件兼具装饰和实用功能,可调节肩带长度并适合多种携带方式,独特的扭曲结构与微妙的细节相得益彰。此中号版本采用柔软牛皮革制成。\n可肩背或斜挎\n可调节肩带\n磁扣开合\n内袋\n合成革衬里\nAnagram 雕刻卵石\n尺寸:24.5*23.5*28cm","specs":{"source":"wsxcme","sourceId":"_dfrfrcDqU30NHWEK018D2kMgZk07L5v5Dr21Zng","sourceTagId":47002713,"sourceTagName":"罗意威/女包","modelNumber":"332","dimensions":{"lengthCm":24.5,"heightCm":23.5,"widthCm":28},"rawTitle":"原厂皮\n新品明星同款  型号332 \n中号柔软牛皮革 Pebble Bucket 水桶手袋\nPebble 将纯粹的简约线条与瞩目设计风格巧妙融合,造就别具一格的创新的手袋设计。标志性的 Anagram 雕刻五金件兼具装饰和实用功能,可调节肩带长度并适合多种携带方式,独特的扭曲结构与微妙的细节相得益彰。此中号版本采用柔软牛皮革制成。\n可肩背或斜挎\n可调节肩带\n磁扣开合\n内袋\n合成革衬里\nAnagram 雕刻卵石\n尺寸:24.5*23.5*28cm"},"price":null,"currency":"CNY","moq":1,"category":"loewe-women-bags","status":"active","alibaba_url":null,"images":["https://xcimg.szwego.com/img/8ad247dd/20240827/i1724744178_6142_0.jpg","https://xcimg.szwego.com/img/8ad247dd/20240827/i1724744207_7132_0.jpg","https://xcimg.szwego.com/img/8ad247dd/20240827/i1724744234_448_0.jpg","https://xcimg.szwego.com/img/8ad247dd/20240827/i1724744222_2574_1.jpg","https://xcimg.szwego.com/img/8ad247dd/20240827/i1724744163_4877_1.jpg","https://xcimg.szwego.com/img/8ad247dd/20240827/i1724744142_217_0.jpg","https://xcimg.szwego.com/img/8ad247dd/20240827/i1724744196_8284_0.jpg","https://xcimg.szwego.com/img/8ad247dd/20240827/i1724744222_1310_0.jpg","https://xcimg.szwego.com/img/8ad247dd/20240827/i1724744267_2605_0.jpg"],"created_at":"2024-09-27T06:55:30.697Z"},{"id":"item-27981a1443b0","sku":"_dAUAUqXTSkN7Lx0IzVGMv_HMRjm9RgQInLvAydA","name_en":"Bvlgari Women Bags","name_cn":"三色合集~","specs":{"source":"wsxcme","sourceId":"_dAUAUqXTSkN7Lx0IzVGMv_HMRjm9RgQInLvAydA","sourceTagId":47002756,"sourceTagName":"宝格丽/女包","rawTitle":"三色合集~"},"price":null,"currency":"CNY","moq":1,"category":"bvlgari-women-bags","status":"active","alibaba_url":null,"images":["https://xcimg.szwego.com/20240817/i1723878915_4364_0.jpg"],"created_at":"2024-09-27T06:51:04.183Z"},{"id":"item-dddfdd2febeb","sku":"_deFeFwf_NaQ3w--vZxDNsPNG-OrBUd6Zf9LHMew","name_en":"Bvlgari Women Bags","name_cn":"正品级\nSERPENTI FOREVER系列中号手提包,采用祖小牛皮材质,搭配羊皮内里。巧妙融合经典设计与现代风格,淋漓尽致地展现了系列作品的无尽魅力。此款易于佩戴的手袋于标志性元素之中融入崭新细节,搭配皮革肩带,饰以标志性蛇首磁扣,其魅惑迷人的鳞片与设计从1960年代的SERPENTI系列珠宝中汲取灵感。设有一个隔层,一个正面口袋,一个背面外置拼接口袋,一个内部敞口口袋,一个配可个性化定制化妆镜的镜袋,背面饰BVLGARI宝格丽金属标识。\n款号:293665\n尺寸:20.5 X 15 X 9","specs":{"source":"wsxcme","sourceId":"_deFeFwf_NaQ3w--vZxDNsPNG-OrBUd6Zf9LHMew","sourceTagId":47002756,"sourceTagName":"宝格丽/女包","modelNumber":"293665","rawTitle":"正品级\nSERPENTI FOREVER系列中号手提包,采用祖小牛皮材质,搭配羊皮内里。巧妙融合经典设计与现代风格,淋漓尽致地展现了系列作品的无尽魅力。此款易于佩戴的手袋于标志性元素之中融入崭新细节,搭配皮革肩带,饰以标志性蛇首磁扣,其魅惑迷人的鳞片与设计从1960年代的SERPENTI系列珠宝中汲取灵感。设有一个隔层,一个正面口袋,一个背面外置拼接口袋,一个内部敞口口袋,一个配可个性化定制化妆镜的镜袋,背面饰BVLGARI宝格丽金属标识。\n款号:293665\n尺寸:20.5 X 15 X 9"},"price":null,"currency":"CNY","moq":1,"category":"bvlgari-women-bags","status":"active","alibaba_url":null,"images":["https://xcimg.szwego.com/20240817/i1723878766_2654_0.jpg","https://xcimg.szwego.com/20240817/i1723878766_2575_1.jpg","https://xcimg.szwego.com/20240817/i1723878766_6575_2.jpg","https://xcimg.szwego.com/20240817/i1723878766_9158_3.jpg","https://xcimg.szwego.com/20240817/i1723878766_6176_4.jpg","https://xcimg.szwego.com/20240817/i1723878766_31_5.jpg","https://xcimg.szwego.com/20240817/i1723878766_3538_6.jpg","https://xcimg.szwego.com/20240817/i1723878766_2455_7.jpg","https://xcimg.szwego.com/20240817/i1723878766_6862_8.jpg"],"created_at":"2024-09-27T06:51:04.181Z"},{"id":"item-d0d998467c40","sku":"_dj6j6aNR3vt-F7G-mdglKgB00gQKpEm8wEPsJlw","name_en":"SERPENTI FOREVER系列中号手提包,采用祖小牛皮材质,搭配羊皮内里。巧妙融合经典设计与现代风格,淋漓尽致地展现了系列作品的无尽魅力。此款易于佩戴的手袋于标志性元素之中融入崭新细节,搭配皮革肩带,饰以标志性蛇首磁扣,其魅惑迷人的鳞片与设计从1960年代的SERPENTI系列珠宝中汲取灵感。设有一个隔层,一个正面口袋,一个背面外置拼接口袋,一个内部敞","name_cn":"SERPENTI FOREVER系列中号手提包,采用祖小牛皮材质,搭配羊皮内里。巧妙融合经典设计与现代风格,淋漓尽致地展现了系列作品的无尽魅力。此款易于佩戴的手袋于标志性元素之中融入崭新细节,搭配皮革肩带,饰以标志性蛇首磁扣,其魅惑迷人的鳞片与设计从1960年代的SERPENTI系列珠宝中汲取灵感。设有一个隔层,一个正面口袋,一个背面外置拼接口袋,一个内部敞口口袋,一个配可个性化定制化妆镜的镜袋,背面饰BVLGARI宝格丽金属标识。\n款号:293665\n尺寸:20.5 X 15 X 9","specs":{"source":"wsxcme","sourceId":"_dj6j6aNR3vt-F7G-mdglKgB00gQKpEm8wEPsJlw","sourceTagId":47002756,"sourceTagName":"宝格丽/女包","modelNumber":"293665","rawTitle":"SERPENTI FOREVER系列中号手提包,采用祖小牛皮材质,搭配羊皮内里。巧妙融合经典设计与现代风格,淋漓尽致地展现了系列作品的无尽魅力。此款易于佩戴的手袋于标志性元素之中融入崭新细节,搭配皮革肩带,饰以标志性蛇首磁扣,其魅惑迷人的鳞片与设计从1960年代的SERPENTI系列珠宝中汲取灵感。设有一个隔层,一个正面口袋,一个背面外置拼接口袋,一个内部敞口口袋,一个配可个性化定制化妆镜的镜袋,背面饰BVLGARI宝格丽金属标识。\n款号:293665\n尺寸:20.5 X 15 X 9"},"price":null,"currency":"CNY","moq":1,"category":"bvlgari-women-bags","status":"active","alibaba_url":null,"images":["https://xcimg.szwego.com/20240817/i1723878680_2163_0.jpg","https://xcimg.szwego.com/20240817/i1723878680_3501_1.jpg","https://xcimg.szwego.com/20240817/i1723878680_4053_2.jpg","https://xcimg.szwego.com/20240817/i1723878680_7606_3.jpg"],"created_at":"2024-09-27T06:51:04.180Z"},{"id":"item-72460bc34fa2","sku":"_dlxlxDFvFOIjRh4_xWacY4KPqg8r7Rg8U1Gl1Zg","name_en":"Bvlgari Women Bags","name_cn":"八色现货","specs":{"source":"wsxcme","sourceId":"_dlxlxDFvFOIjRh4_xWacY4KPqg8r7Rg8U1Gl1Zg","sourceTagId":47002756,"sourceTagName":"宝格丽/女包","rawTitle":"八色现货"},"price":null,"currency":"CNY","moq":1,"category":"bvlgari-women-bags","status":"active","alibaba_url":null,"images":["https://xcimg.szwego.com/20240809/i1723193139_9863_0.jpg","https://xcimg.szwego.com/20240809/i1723193139_2983_1.jpg","https://xcimg.szwego.com/20240809/i1723193139_3628_2.jpg"],"created_at":"2024-09-27T06:51:04.176Z"},{"id":"item-a1bb05ee160c","sku":"_dd9d9P9aS1Sp94Dt0kf-b78dm_lJ1tZpDjULvIQ","name_en":"Bvlgari Women Bags","name_cn":"细节","specs":{"source":"wsxcme","sourceId":"_dd9d9P9aS1Sp94Dt0kf-b78dm_lJ1tZpDjULvIQ","sourceTagId":47002756,"sourceTagName":"宝格丽/女包","rawTitle":"细节"},"price":null,"currency":"CNY","moq":1,"category":"bvlgari-women-bags","status":"active","alibaba_url":null,"images":["https://xcimg.szwego.com/20240809/i1723192990_5043_0.jpg","https://xcimg.szwego.com/20240809/i1723192990_336_1.jpg","https://xcimg.szwego.com/20240809/i1723192990_7154_2.jpg","https://xcimg.szwego.com/20240809/i1723192990_4435_3.jpg"],"created_at":"2024-09-27T06:51:04.174Z"},{"id":"item-0d15eb75df0f","sku":"_dd6d6qJ2RcJTBMYjoZJjLiYbyc5HJJqeGCjs5cg","name_en":"Bvlgari Women Bags","name_cn":"正品级\nSERPENTI FOREVER系列迷你手提包,采用小牛皮材质,兼具现代气息与易于佩戴的实用性能,尽显时尚风采。作品搭配蛇形链条和皮革肩带,饰以标志性蛇首磁扣,其魅惑迷人的鳞片与设计从1960年代的SERPENTI系列珠宝中汲取灵感。设有一个隔层,一个正面口袋,一个背面外置拼接口袋,一个内部敞口口袋,一个配可个性化定制化妆镜的内部镜袋,背面饰BVLGARI宝格丽金属标识。\n款号:293666\n尺寸19 X 11 X 6","specs":{"source":"wsxcme","sourceId":"_dd6d6qJ2RcJTBMYjoZJjLiYbyc5HJJqeGCjs5cg","sourceTagId":47002756,"sourceTagName":"宝格丽/女包","modelNumber":"293666","rawTitle":"正品级\nSERPENTI FOREVER系列迷你手提包,采用小牛皮材质,兼具现代气息与易于佩戴的实用性能,尽显时尚风采。作品搭配蛇形链条和皮革肩带,饰以标志性蛇首磁扣,其魅惑迷人的鳞片与设计从1960年代的SERPENTI系列珠宝中汲取灵感。设有一个隔层,一个正面口袋,一个背面外置拼接口袋,一个内部敞口口袋,一个配可个性化定制化妆镜的内部镜袋,背面饰BVLGARI宝格丽金属标识。\n款号:293666\n尺寸19 X 11 X 6"},"price":null,"currency":"CNY","moq":1,"category":"bvlgari-women-bags","status":"active","alibaba_url":null,"images":["https://xcimg.szwego.com/20240809/i1723192946_2903_0.jpg","https://xcimg.szwego.com/20240809/i1723192946_3228_1.jpg","https://xcimg.szwego.com/20240809/i1723192946_7204_2.jpg","https://xcimg.szwego.com/20240809/i1723192946_2117_3.jpg","https://xcimg.szwego.com/20240809/i1723192946_9636_4.jpg","https://xcimg.szwego.com/20240809/i1723192946_4597_5.jpg","https://xcimg.szwego.com/20240809/i1723192946_8638_6.jpg","https://xcimg.szwego.com/20240809/i1723192946_3961_7.jpg","https://xcimg.szwego.com/20240809/i1723192946_5392_8.jpg"],"created_at":"2024-09-27T06:51:04.173Z"},{"id":"item-fa1689996f81","sku":"_dxAxAH1ZditQLnr_KqxcuU0kwokxXTyttQWTowg","name_en":"Bvlgari Women Bags","name_cn":"上身图","specs":{"source":"wsxcme","sourceId":"_dxAxAH1ZditQLnr_KqxcuU0kwokxXTyttQWTowg","sourceTagId":47002756,"sourceTagName":"宝格丽/女包","rawTitle":"上身图"},"price":null,"currency":"CNY","moq":1,"category":"bvlgari-women-bags","status":"active","alibaba_url":null,"images":["https://xcimg.szwego.com/20240809/i1723192004_255_0.jpg","https://xcimg.szwego.com/20240809/i1723192004_3107_1.jpg","https://xcimg.szwego.com/20240809/i1723192004_382_2.jpg"],"created_at":"2024-09-27T06:51:04.163Z"},{"id":"item-c714a9f09ae6","sku":"_dMDMDeq3YfCDGND2luIkIe3zaKxEUHwlXG4yGOQ","name_en":"Bvlgari Women Bags","name_cn":"小白蛇","specs":{"source":"wsxcme","sourceId":"_dMDMDeq3YfCDGND2luIkIe3zaKxEUHwlXG4yGOQ","sourceTagId":47002756,"sourceTagName":"宝格丽/女包","rawTitle":"小白蛇"},"price":null,"currency":"CNY","moq":1,"category":"bvlgari-women-bags","status":"active","alibaba_url":null,"images":["https://xcimg.szwego.com/20240809/i1723191949_9233_0.jpg"],"created_at":"2024-09-27T06:51:04.161Z"},{"id":"item-8d7e52e402d6","sku":"_d8e8e_r4q0CeSsqCvbzhECaxUpEZ08Cpa_Bb0uw","name_en":"Bvlgari Women Bags","name_cn":"细节~","specs":{"source":"wsxcme","sourceId":"_d8e8e_r4q0CeSsqCvbzhECaxUpEZ08Cpa_Bb0uw","sourceTagId":47002756,"sourceTagName":"宝格丽/女包","rawTitle":"细节~"},"price":null,"currency":"CNY","moq":1,"category":"bvlgari-women-bags","status":"active","alibaba_url":null,"images":["https://xcimg.szwego.com/20240809/i1723191500_4631_0.jpg","https://xcimg.szwego.com/20240809/i1723191500_765_1.jpg","https://xcimg.szwego.com/20240809/i1723191500_2817_2.jpg","https://xcimg.szwego.com/20240809/i1723191500_5574_3.jpg","https://xcimg.szwego.com/20240809/i1723191500_2934_4.jpg"],"created_at":"2024-09-27T06:51:04.156Z"},{"id":"item-4a162d0a729e","sku":"_dmTmT6jyyxMWIM5z_kgQKCG1223yvAqDXLLjodQ","name_en":"Bvlgari Women Bags","name_cn":"刘雯~","specs":{"source":"wsxcme","sourceId":"_dmTmT6jyyxMWIM5z_kgQKCG1223yvAqDXLLjodQ","sourceTagId":47002756,"sourceTagName":"宝格丽/女包","rawTitle":"刘雯~"},"price":null,"currency":"CNY","moq":1,"category":"bvlgari-women-bags","status":"active","alibaba_url":null,"images":["https://xcimg.szwego.com/20230329/i1680070106_8705_0.jpg"],"created_at":"2024-09-27T06:51:04.152Z"},{"id":"item-dd7255db2539","sku":"_dDjDjRqnvo_F81tyQFnnDP3YanIn3yEcRIXrYaQ","name_en":"Bvlgari Women Bags","name_cn":"现货随拍上身图~","specs":{"source":"wsxcme","sourceId":"_dDjDjRqnvo_F81tyQFnnDP3YanIn3yEcRIXrYaQ","sourceTagId":47002756,"sourceTagName":"宝格丽/女包","rawTitle":"现货随拍上身图~"},"price":null,"currency":"CNY","moq":1,"category":"bvlgari-women-bags","status":"active","alibaba_url":null,"images":["https://xcimg.szwego.com/20230329/i1680069417_549_0.jpg","https://xcimg.szwego.com/20230329/i1680069417_7001_1.jpg","https://xcimg.szwego.com/20230329/i1680069417_1210_2.jpg","https://xcimg.szwego.com/20230329/i1680069417_4227_3.jpg"],"created_at":"2024-09-27T06:51:04.151Z"},{"id":"item-1ae506712554","sku":"_d6Z6ZoUJkHwCTxhARg8e4kpTvgNUnhu2nkROtCw","name_en":"Bvlgari Women Bags","name_cn":"上身效果➕容量","specs":{"source":"wsxcme","sourceId":"_d6Z6ZoUJkHwCTxhARg8e4kpTvgNUnhu2nkROtCw","sourceTagId":47002756,"sourceTagName":"宝格丽/女包","rawTitle":"上身效果➕容量"},"price":null,"currency":"CNY","moq":1,"category":"bvlgari-women-bags","status":"active","alibaba_url":null,"images":["https://xcimg.szwego.com/20230329/i1680069864_3966_0.jpg","https://xcimg.szwego.com/20230329/i1680069864_9890_1.jpg","https://xcimg.szwego.com/20230329/i1680069864_2913_2.jpg"],"created_at":"2024-09-27T06:51:04.150Z"},{"id":"item-b1f24f5ebcf7","sku":"_dsvsvGvNWUDyxfL9IHNdcfE_A5bNAVaMWLnJ8mA","name_en":"Bvlgari Women Bags","name_cn":"温婉灵俏,尽展华美珣丽的夺目风采","specs":{"source":"wsxcme","sourceId":"_dsvsvGvNWUDyxfL9IHNdcfE_A5bNAVaMWLnJ8mA","sourceTagId":47002756,"sourceTagName":"宝格丽/女包","rawTitle":"温婉灵俏,尽展华美珣丽的夺目风采"},"price":null,"currency":"CNY","moq":1,"category":"bvlgari-women-bags","status":"active","alibaba_url":null,"images":["https://xcimg.szwego.com/20230329/i1680069525_9481_0.jpg","https://xcimg.szwego.com/20230329/i1680069525_7031_1.jpg","https://xcimg.szwego.com/20230329/i1680069525_3652_2.jpg"],"created_at":"2024-09-27T06:51:04.149Z"},{"id":"item-57cc95efeb8b","sku":"_dlIlIqIo_A1lfSXJFiZA0nribCmGFdXcPhLZHsA","name_en":"Bvlgari Women Bags","name_cn":"正品级\n  “SERPENTI CABOCHON”系列迷你斜挎包采用别具魅力的大号图形图案和大胆的金属质感细节,以精致实用的独特设计和现代风格绽放SERPENTI世界璀璨光芒。\n此款手袋配备可调节和可拆卸的皮革肩带,可用作手提包或手拿包,实现多变百搭功能,日夜皆宜。\n超小号,设一个收纳层和一个卡位。镌刻BVLGARI宝格丽品牌标识的内侧金属铭牌。\n型号:291085\n尺寸:18 X 12 X 8 厘米","specs":{"source":"wsxcme","sourceId":"_dlIlIqIo_A1lfSXJFiZA0nribCmGFdXcPhLZHsA","sourceTagId":47002756,"sourceTagName":"宝格丽/女包","modelNumber":"291085","dimensions":{"lengthCm":18,"heightCm":12,"widthCm":8},"rawTitle":"正品级\n  “SERPENTI CABOCHON”系列迷你斜挎包采用别具魅力的大号图形图案和大胆的金属质感细节,以精致实用的独特设计和现代风格绽放SERPENTI世界璀璨光芒。\n此款手袋配备可调节和可拆卸的皮革肩带,可用作手提包或手拿包,实现多变百搭功能,日夜皆宜。\n超小号,设一个收纳层和一个卡位。镌刻BVLGARI宝格丽品牌标识的内侧金属铭牌。\n型号:291085\n尺寸:18 X 12 X 8 厘米"},"price":null,"currency":"CNY","moq":1,"category":"bvlgari-women-bags","status":"active","alibaba_url":null,"images":["https://xcimg.szwego.com/20230329/i1680069373_6346_0.jpg","https://xcimg.szwego.com/20230329/i1680069373_319_1.jpg","https://xcimg.szwego.com/20230329/i1680069373_8144_2.jpg","https://xcimg.szwego.com/20230329/i1680069373_8541_3.jpg","https://xcimg.szwego.com/20230329/i1680069373_7666_4.jpg","https://xcimg.szwego.com/20230329/i1680069373_2812_5.jpg","https://xcimg.szwego.com/20230329/i1680069373_832_6.jpg","https://xcimg.szwego.com/20230329/i1680069373_4395_7.jpg","https://xcimg.szwego.com/20230329/i1680069373_6010_8.jpg"],"created_at":"2024-09-27T06:51:04.148Z"},{"id":"item-b7c3b913e986","sku":"_dk3k3ZBu4OKPQ5w5XvoZGLJMLfVsi8HVrMdJHjg","name_en":"Bvlgari Women Bags","name_cn":"随拍上身图~","specs":{"source":"wsxcme","sourceId":"_dk3k3ZBu4OKPQ5w5XvoZGLJMLfVsi8HVrMdJHjg","sourceTagId":47002756,"sourceTagName":"宝格丽/女包","rawTitle":"随拍上身图~"},"price":null,"currency":"CNY","moq":1,"category":"bvlgari-women-bags","status":"active","alibaba_url":null,"images":["https://xcimg.szwego.com/20230329/i1680068700_2603_0.jpg","https://xcimg.szwego.com/20230329/i1680068700_8185_1.jpg","https://xcimg.szwego.com/20230329/i1680068700_8172_2.jpg","https://xcimg.szwego.com/20230329/i1680068700_3729_3.jpg"],"created_at":"2024-09-27T06:51:04.147Z"},{"id":"item-a3ec72b5b734","sku":"_dkTkTILue5r4s7QDLclD-wiJUhm-R2bTVtjEN6A","name_en":"Bvlgari Women Bags","name_cn":"专柜图","specs":{"source":"wsxcme","sourceId":"_dkTkTILue5r4s7QDLclD-wiJUhm-R2bTVtjEN6A","sourceTagId":47002756,"sourceTagName":"宝格丽/女包","rawTitle":"专柜图"},"price":null,"currency":"CNY","moq":1,"category":"bvlgari-women-bags","status":"active","alibaba_url":null,"images":["https://xcimg.szwego.com/20230329/i1680022318_761_0.jpg","https://xcimg.szwego.com/20230329/i1680022318_8968_1.jpg"],"created_at":"2024-09-27T06:51:04.142Z"},{"id":"item-69d24c6990e9","sku":"_doOoOKQZ3X8KdQYmvUE9AVanfxGY1KRDlIVkSnA","name_en":"Bvlgari Women Bags","name_cn":"正品级\n  SERPENTI CABOCHON”系列迷你斜挎包采用别具魅力的大号图形图案和大胆的金属质感细节,以精致实用的独特设计和现代风格绽放SERPENTI世界璀璨光芒。\n此款手袋配备可调节和可拆卸的皮革肩带,可用作手提包或手拿包,实现多变百搭功能,日夜皆宜。\n超小号,设一个收纳层和一个卡位。镌刻BVLGARI宝格丽品牌标识的内侧金属铭牌。\n型号:291085\n尺寸:18 X 12 X 8 厘米","specs":{"source":"wsxcme","sourceId":"_doOoOKQZ3X8KdQYmvUE9AVanfxGY1KRDlIVkSnA","sourceTagId":47002756,"sourceTagName":"宝格丽/女包","modelNumber":"291085","dimensions":{"lengthCm":18,"heightCm":12,"widthCm":8},"rawTitle":"正品级\n  SERPENTI CABOCHON”系列迷你斜挎包采用别具魅力的大号图形图案和大胆的金属质感细节,以精致实用的独特设计和现代风格绽放SERPENTI世界璀璨光芒。\n此款手袋配备可调节和可拆卸的皮革肩带,可用作手提包或手拿包,实现多变百搭功能,日夜皆宜。\n超小号,设一个收纳层和一个卡位。镌刻BVLGARI宝格丽品牌标识的内侧金属铭牌。\n型号:291085\n尺寸:18 X 12 X 8 厘米"},"price":null,"currency":"CNY","moq":1,"category":"bvlgari-women-bags","status":"active","alibaba_url":null,"images":["https://xcimg.szwego.com/20230329/i1680022145_8530_0.jpg","https://xcimg.szwego.com/20230329/i1680022145_6205_1.jpg","https://xcimg.szwego.com/20230329/i1680022145_6238_2.jpg","https://xcimg.szwego.com/20230329/i1680022145_3043_3.jpg","https://xcimg.szwego.com/20230329/i1680022145_6918_4.jpg","https://xcimg.szwego.com/20230329/i1680022145_7271_5.jpg","https://xcimg.szwego.com/20230329/i1680022145_3244_6.jpg","https://xcimg.szwego.com/20230329/i1680022145_1658_7.jpg","https://xcimg.szwego.com/20230329/i1680022145_4572_8.jpg"],"created_at":"2024-09-27T06:51:04.140Z"},{"id":"item-c93f60bd564b","sku":"_dvkvkFhUiPAqFcZcMtpx_N7kiGY61ICBP3-2X-w","name_en":"Bvlgari Women Bags","name_cn":"合集❤️","specs":{"source":"wsxcme","sourceId":"_dvkvkFhUiPAqFcZcMtpx_N7kiGY61ICBP3-2X-w","sourceTagId":47002756,"sourceTagName":"宝格丽/女包","rawTitle":"合集❤️"},"price":null,"currency":"CNY","moq":1,"category":"bvlgari-women-bags","status":"active","alibaba_url":null,"images":["https://xcimg.szwego.com/20230418/i1681812978_7263_0.jpg","https://xcimg.szwego.com/20230418/i1681812978_835_1.jpg","https://xcimg.szwego.com/20230803/i1691051548_9162_0.jpg","https://xcimg.szwego.com/20230803/i1691051562_3934_0.jpg"],"created_at":"2024-09-27T06:51:04.137Z"},{"id":"item-8ffd434e60ea","sku":"_dyXyXOOSkiJjLIC3OV0bGIJkpOOGjEtFzZRb2iw","name_en":"25cm  VS   19cm","name_cn":"25cm  VS   19cm","specs":{"source":"wsxcme","sourceId":"_dyXyXOOSkiJjLIC3OV0bGIJkpOOGjEtFzZRb2iw","sourceTagId":47002756,"sourceTagName":"宝格丽/女包","rawTitle":"25cm  VS   19cm"},"price":null,"currency":"CNY","moq":1,"category":"bvlgari-women-bags","status":"active","alibaba_url":null,"images":["https://xcimg.szwego.com/20230418/i1681812757_2309_0.jpg"],"created_at":"2024-09-27T06:51:04.136Z"},{"id":"item-f6a2ba9b0ffb","sku":"_d_R_RLoF1z6V0j96mjqyGc6KFUxdqhxuuuRK18Q","name_en":"Bvlgari Women Bags","name_cn":"正品级\nBVLGARISERPENTIFOREVER斜挎包\n型号:289676\n尺寸:19-13-7cm\n全新“Serpenti Forever”系列斜挎包彰显都市风格,时尚多变,为Serpenti世界增添别具一格的潮流时尚感。这款包袋采用蜜桃色小牛皮材质,搭配浅金镀金黄铜配饰。黑色和白玛瑙色珐琅和绿色孔雀石感性双眼,将经典蛇首搭扣点缀得魅惑迷人。可调节的蛇形链条和皮革肩带,轻松配搭时尚日装。小号,两个隔层,一面可个性化定制的精巧化妆镜。一个不可拆卸的信用卡夹,一个敞口口袋,一个拉链口袋和两个外部口袋。","specs":{"source":"wsxcme","sourceId":"_d_R_RLoF1z6V0j96mjqyGc6KFUxdqhxuuuRK18Q","sourceTagId":47002756,"sourceTagName":"宝格丽/女包","modelNumber":"289676","rawTitle":"正品级\nBVLGARISERPENTIFOREVER斜挎包\n型号:289676\n尺寸:19-13-7cm\n全新“Serpenti Forever”系列斜挎包彰显都市风格,时尚多变,为Serpenti世界增添别具一格的潮流时尚感。这款包袋采用蜜桃色小牛皮材质,搭配浅金镀金黄铜配饰。黑色和白玛瑙色珐琅和绿色孔雀石感性双眼,将经典蛇首搭扣点缀得魅惑迷人。可调节的蛇形链条和皮革肩带,轻松配搭时尚日装。小号,两个隔层,一面可个性化定制的精巧化妆镜。一个不可拆卸的信用卡夹,一个敞口口袋,一个拉链口袋和两个外部口袋。"},"price":null,"currency":"CNY","moq":1,"category":"bvlgari-women-bags","status":"active","alibaba_url":null,"images":["https://xcimg.szwego.com/20230418/i1681812529_5369_0.jpg","https://xcimg.szwego.com/20230418/i1681812529_6333_1.jpg","https://xcimg.szwego.com/20230418/i1681812529_6632_2.jpg","https://xcimg.szwego.com/20230418/i1681812529_6432_3.jpg","https://xcimg.szwego.com/20230418/i1681812529_6985_4.jpg","https://xcimg.szwego.com/20230418/i1681812529_8620_5.jpg","https://xcimg.szwego.com/20230418/i1681812529_6754_6.jpg","https://xcimg.szwego.com/20230418/i1681812529_3660_7.jpg","https://xcimg.szwego.com/20230418/i1681812529_3230_8.jpg"],"created_at":"2024-09-27T06:51:04.135Z"},{"id":"item-d0588a49bf43","sku":"_duOuO2NORhhwvjqpozctPLvQ3EG_JRt0YVe2F3w","name_en":"Bvlgari Women Bags","name_cn":"正品级\nBVLGARISERPENTIFOREVER\n斜挎包\n型号:29032\n尺寸:25-17-8cm\n全新“Serpenti Forever”系列斜挎包彰显都市风格,时尚多变,为Serpenti世界增添别具一格的潮流时尚感。这款包袋采用蜜桃色小牛皮材质,搭配浅金镀金黄铜配饰。黑色和白玛瑙色珐琅和绿色孔雀石感性双眼,将经典蛇首搭扣点缀得魅惑迷人。可调节的蛇形链条和皮革肩带,轻松配搭时尚日装。中号,两个收纳层和一面小化妆镜。一个敞口口袋,一个拉链口袋和两个外部口袋。","specs":{"source":"wsxcme","sourceId":"_duOuO2NORhhwvjqpozctPLvQ3EG_JRt0YVe2F3w","sourceTagId":47002756,"sourceTagName":"宝格丽/女包","modelNumber":"29032","rawTitle":"正品级\nBVLGARISERPENTIFOREVER\n斜挎包\n型号:29032\n尺寸:25-17-8cm\n全新“Serpenti Forever”系列斜挎包彰显都市风格,时尚多变,为Serpenti世界增添别具一格的潮流时尚感。这款包袋采用蜜桃色小牛皮材质,搭配浅金镀金黄铜配饰。黑色和白玛瑙色珐琅和绿色孔雀石感性双眼,将经典蛇首搭扣点缀得魅惑迷人。可调节的蛇形链条和皮革肩带,轻松配搭时尚日装。中号,两个收纳层和一面小化妆镜。一个敞口口袋,一个拉链口袋和两个外部口袋。"},"price":null,"currency":"CNY","moq":1,"category":"bvlgari-women-bags","status":"active","alibaba_url":null,"images":["https://xcimg.szwego.com/20230418/i1681812300_8061_0.jpg","https://xcimg.szwego.com/20230418/i1681812300_3482_1.jpg","https://xcimg.szwego.com/20230418/i1681812300_7944_2.jpg","https://xcimg.szwego.com/20230418/i1681812300_757_3.jpg","https://xcimg.szwego.com/20230418/i1681812300_3095_4.jpg","https://xcimg.szwego.com/20230418/i1681812300_9736_5.jpg","https://xcimg.szwego.com/20230418/i1681812300_4030_6.jpg","https://xcimg.szwego.com/20230418/i1681812300_5551_7.jpg","https://xcimg.szwego.com/20230418/i1681812300_1956_8.jpg"],"created_at":"2024-09-27T06:51:04.134Z"},{"id":"item-c59472d4db7b","sku":"_dbzbzbemy7XphmKwmf77qn5Co_FCG4_kJ1kJsgQ","name_en":"Bvlgari Women Bags","name_cn":"宝格丽/女包","specs":{"source":"wsxcme","sourceId":"_dbzbzbemy7XphmKwmf77qn5Co_FCG4_kJ1kJsgQ","sourceTagId":47002756,"sourceTagName":"宝格丽/女包","rawTitle":""},"price":null,"currency":"CNY","moq":1,"category":"bvlgari-women-bags","status":"active","alibaba_url":null,"images":["https://xcimg.szwego.com/20230418/i1681811537_6824_0.jpg"],"created_at":"2024-09-27T06:51:04.128Z"}],"page":370,"pageSize":24,"total":10075,"totalPages":420}
