{"items":[{"id":"item-76b4cee9d788","sku":"_dn4n4396ZPp3AWBWwBK9XxD5PX8icv5s7savKrQ","name_en":"🌸 【该尺寸无包装】黑色/古金 新款BEA手袋的横款托特包版本,皮革袢扣开合,饰以LE CASSANDRE。空间充裕,搭配同色系绒面革衬里,设有一个主隔层和一个内部拉链口袋。内部系带设计,两侧可以根据需要折叠或展开。柔软鹿皮bea 专属稀有奢华质感 ,简洁的外观再配上这种柔软度背上身一种慵懒风立显现两侧还可以收缩,有两种形态👑","name_cn":"🌸 【该尺寸无包装】黑色/古金 新款BEA手袋的横款托特包版本,皮革袢扣开合,饰以LE CASSANDRE。空间充裕,搭配同色系绒面革衬里,设有一个主隔层和一个内部拉链口袋。内部系带设计,两侧可以根据需要折叠或展开。柔软鹿皮bea 专属稀有奢华质感 ,简洁的外观再配上这种柔软度背上身一种慵懒风立显现两侧还可以收缩,有两种形态👑 \n型号:763435【白色金扣】 \n尺寸:50x28x18cm","specs":{"source":"wsxcme","sourceId":"_dn4n4396ZPp3AWBWwBK9XxD5PX8icv5s7savKrQ","sourceTagId":47002761,"sourceTagName":"圣罗兰/女包","modelNumber":"763435【白色金扣】","dimensions":{"lengthCm":50,"heightCm":28,"widthCm":18},"rawTitle":"🌸 【该尺寸无包装】黑色/古金 新款BEA手袋的横款托特包版本,皮革袢扣开合,饰以LE CASSANDRE。空间充裕,搭配同色系绒面革衬里,设有一个主隔层和一个内部拉链口袋。内部系带设计,两侧可以根据需要折叠或展开。柔软鹿皮bea 专属稀有奢华质感 ,简洁的外观再配上这种柔软度背上身一种慵懒风立显现两侧还可以收缩,有两种形态👑 \n型号:763435【白色金扣】 \n尺寸:50x28x18cm"},"price":null,"currency":"CNY","moq":1,"category":"ysl-women-bags","status":"active","alibaba_url":null,"images":["https://xcimg.szwego.com/20240516/a1715831029271_2287.jpg","https://xcimg.szwego.com/20240516/a1715831029467_3760.jpg","https://xcimg.szwego.com/20240516/a1715831029757_4257.jpg","https://xcimg.szwego.com/20240516/a1715831029964_6005.jpg","https://xcimg.szwego.com/20240516/a1715831030217_3376.jpg","https://xcimg.szwego.com/20240516/a1715831030533_3515.jpg","https://xcimg.szwego.com/20240516/a1715831030820_5047.jpg","https://xcimg.szwego.com/20240516/a1715831030963_7160.jpg","https://xcimg.szwego.com/20240516/a1715831031183_5250.jpg"],"created_at":"2025-07-20T03:10:54.223Z"},{"id":"item-163cc1d6dcda","sku":"_dtXtXP5eWR6hIhxj37LVVatco38hsXFhnHMYADg","name_en":"Jamie 4.3 Pochon","name_cn":"Jamie 4.3 Pochon","specs":{"source":"wsxcme","sourceId":"_dtXtXP5eWR6hIhxj37LVVatco38hsXFhnHMYADg","sourceTagId":47002761,"sourceTagName":"圣罗兰/女包","rawTitle":"Jamie 4.3 Pochon"},"price":null,"currency":"CNY","moq":1,"category":"ysl-women-bags","status":"active","alibaba_url":null,"images":["https://xcimg.szwego.com/img/bce60362/20240423/a1713851337515_8348.jpg","https://xcimg.szwego.com/img/bce60362/20240423/a1713851343634_2888.jpg","https://xcimg.szwego.com/img/bce60362/20240423/a1713851337517_7803.jpg","https://xcimg.szwego.com/img/bce60362/20240423/a1713851337522_8532.jpg","https://xcimg.szwego.com/img/bce60362/20240423/a1713851337511_4727.jpg","https://xcimg.szwego.com/img/bce60362/20240423/a1713851337501_6134.jpg","https://xcimg.szwego.com/img/bce60362/20240423/a1713851337505_5878.jpg","https://xcimg.szwego.com/img/bce60362/20240423/a1713851338120_2148.jpg","https://xcimg.szwego.com/img/bce60362/20240423/a1713851338119_0333.jpg"],"created_at":"2025-07-20T03:10:54.222Z"},{"id":"item-3fc483abbcfd","sku":"_djDjDHTknA7vK2GtajSu5ZKZeNF5-80QVytMVIg","name_en":"Saint Laurent Women Bags","name_cn":"专柜上身图","specs":{"source":"wsxcme","sourceId":"_djDjDHTknA7vK2GtajSu5ZKZeNF5-80QVytMVIg","sourceTagId":47002761,"sourceTagName":"圣罗兰/女包","rawTitle":"专柜上身图"},"price":null,"currency":"CNY","moq":1,"category":"ysl-women-bags","status":"active","alibaba_url":null,"images":["https://xcimg.szwego.com/img/bce60362/20240423/a1713851012488_7558.jpg","https://xcimg.szwego.com/img/bce60362/20240423/a1713851012495_6113.jpg","https://xcimg.szwego.com/img/bce60362/20240423/a1713851012493_5584.jpg","https://xcimg.szwego.com/img/bce60362/20240423/a1713851012493_7487.jpg","https://xcimg.szwego.com/img/bce60362/20240423/a1713851012496_6253.jpg","https://xcimg.szwego.com/img/bce60362/20240423/a1713851012494_5315.jpg"],"created_at":"2025-07-20T03:10:54.221Z"},{"id":"item-2b94be4f19eb","sku":"_da6a657Qfi3LeMWphSOLxj4tifkezTJImoKJHyQ","name_en":"Saint Laurent Women Bags","name_cn":"专柜实拍","specs":{"source":"wsxcme","sourceId":"_da6a657Qfi3LeMWphSOLxj4tifkezTJImoKJHyQ","sourceTagId":47002761,"sourceTagName":"圣罗兰/女包","rawTitle":"专柜实拍"},"price":null,"currency":"CNY","moq":1,"category":"ysl-women-bags","status":"active","alibaba_url":null,"images":["https://xcimg.szwego.com/img/bce60362/20240423/a1713841647208_0641.jpg","https://xcimg.szwego.com/img/bce60362/20240423/a1713841647207_1775.jpg","https://xcimg.szwego.com/img/bce60362/20240423/a1713841647209_8055.jpg","https://xcimg.szwego.com/img/bce60362/20240423/a1713841647208_1424.jpg","https://xcimg.szwego.com/img/bce60362/20240423/a1713841647209_1774.jpg","https://xcimg.szwego.com/img/bce60362/20240423/a1713841647210_6047.jpg","https://xcimg.szwego.com/img/bce60362/20240423/a1713841647941_3832.jpg","https://xcimg.szwego.com/img/bce60362/20240423/a1713841648028_7560.jpg","https://xcimg.szwego.com/img/bce60362/20240423/a1713841647935_4074.jpg"],"created_at":"2025-07-20T03:10:54.220Z"},{"id":"item-92ae9cfc51d5","sku":"_dr0r0Pvw7ocAu7i7JKudds2RQfEJoEkSAwpRz8g","name_en":"🌸 YSL/4.3 Pochon 垃圾袋","name_cn":"🌸 YSL/4.3 Pochon 垃圾袋\n【该尺寸不配原版包装】\n是谁还没买Jamie的新款POCHON包!\n全包采用柔软小羊皮,亲肤感极佳,超级有金属质感的链条,链条可收紧,营造出抽绳包版的廓形,也可以不收紧 ,体现出休闲随性感,里面配了一支可拆卸手拿包 增添实用与便捷!\n型格:781666\n尺寸38x33x2cm","specs":{"source":"wsxcme","sourceId":"_dr0r0Pvw7ocAu7i7JKudds2RQfEJoEkSAwpRz8g","sourceTagId":47002761,"sourceTagName":"圣罗兰/女包","dimensions":{"lengthCm":38,"heightCm":33,"widthCm":2},"rawTitle":"🌸 YSL/4.3 Pochon 垃圾袋\n【该尺寸不配原版包装】\n是谁还没买Jamie的新款POCHON包!\n全包采用柔软小羊皮,亲肤感极佳,超级有金属质感的链条,链条可收紧,营造出抽绳包版的廓形,也可以不收紧 ,体现出休闲随性感,里面配了一支可拆卸手拿包 增添实用与便捷!\n型格:781666\n尺寸38x33x2cm"},"price":null,"currency":"CNY","moq":1,"category":"ysl-women-bags","status":"active","alibaba_url":null,"images":["https://xcimg.szwego.com/img/58395cbb/20240430/a1714464799684_2575.jpg","https://xcimg.szwego.com/img/58395cbb/20240430/a1714464799927_3577.jpg","https://xcimg.szwego.com/img/58395cbb/20240430/a1714464799736_5455.jpg","https://xcimg.szwego.com/img/58395cbb/20240430/a1714464799628_1600.jpg","https://xcimg.szwego.com/img/58395cbb/20240430/a1714464800163_8281.jpg","https://xcimg.szwego.com/img/58395cbb/20240430/a1714464799978_6682.jpg","https://xcimg.szwego.com/img/58395cbb/20240430/a1714464804943_1130.jpg","https://xcimg.szwego.com/img/58395cbb/20240430/a1714464804549_6057.jpg","https://xcimg.szwego.com/img/58395cbb/20240430/a1714464804858_7688.jpg","https://xcimg.szwego.com/img/58395cbb/20240430/a1714464804685_2677.jpg","https://xcimg.szwego.com/img/58395cbb/20240430/a1714464804686_4286.jpg"],"created_at":"2025-07-20T03:10:54.219Z"},{"id":"item-e09a4ccf7552","sku":"_drHrHD7zOLYbB-FXiPFJnxw0ognMf40WPYaa70g","name_en":"Saint Laurent Women Bags","name_cn":"全新草编托特包_","specs":{"source":"wsxcme","sourceId":"_drHrHD7zOLYbB-FXiPFJnxw0ognMf40WPYaa70g","sourceTagId":47002761,"sourceTagName":"圣罗兰/女包","rawTitle":"全新草编托特包_"},"price":null,"currency":"CNY","moq":1,"category":"ysl-women-bags","status":"active","alibaba_url":null,"images":["https://xcimg.szwego.com/img/f8c0bdc9/20240105/i1704445885_4345_0.jpg","https://xcimg.szwego.com/img/f8c0bdc9/20240105/i1704445885_8620_1.jpg","https://xcimg.szwego.com/img/f8c0bdc9/20240105/i1704445885_3252_2.jpg","https://xcimg.szwego.com/img/f8c0bdc9/20240105/i1704445885_815_3.jpg","https://xcimg.szwego.com/img/f8c0bdc9/20240105/i1704445885_8087_4.jpg"],"created_at":"2025-07-20T03:10:54.218Z"},{"id":"item-64a9f1c896c1","sku":"_dtytyrXFOkvRnMPAvLVOQEMI7fkPQdbZCqJlOHg","name_en":"Zp图_","name_cn":"Zp图_","specs":{"source":"wsxcme","sourceId":"_dtytyrXFOkvRnMPAvLVOQEMI7fkPQdbZCqJlOHg","sourceTagId":47002761,"sourceTagName":"圣罗兰/女包","rawTitle":"Zp图_"},"price":null,"currency":"CNY","moq":1,"category":"ysl-women-bags","status":"active","alibaba_url":null,"images":["https://xcimg.szwego.com/img/f8c0bdc9/20240105/i1704445798_8588_0.jpg","https://xcimg.szwego.com/img/f8c0bdc9/20240105/i1704445798_6594_1.jpg","https://xcimg.szwego.com/img/f8c0bdc9/20240105/i1704445798_2742_2.jpg","https://xcimg.szwego.com/img/f8c0bdc9/20240105/i1704445798_4327_3.jpg","https://xcimg.szwego.com/img/f8c0bdc9/20240105/i1704445798_4293_4.jpg","https://xcimg.szwego.com/img/f8c0bdc9/20240105/i1704445798_9166_5.jpg","https://xcimg.szwego.com/img/f8c0bdc9/20240105/i1704445798_8754_6.jpg","https://xcimg.szwego.com/img/f8c0bdc9/20240105/i1704445798_6278_7.jpg","https://xcimg.szwego.com/img/f8c0bdc9/20240105/i1704445798_7918_8.jpg"],"created_at":"2025-07-20T03:10:54.217Z"},{"id":"item-d09e7e7c5aca","sku":"_dcCcCtnGepMP-ciwc-AeoTZ7DMUxz2ASoRfgcpw","name_en":"🌸 ICARE 拉菲草编包","name_cn":"🌸 ICARE 拉菲草编包 \n. YSL 新品ICARE拉菲草系列,无疑是这个春夏最值得期待的单品!拉菲草💐的设计独特,仿佛是大自然的馈赠,每一根都充满了生命力。它的颜色犹如春天的调色板🎨,丰富而鲜明,让人一看就心生欢喜~再回到包包本身:放大版的LOGO纯手工打造,全手工的钩编工艺质感拉满!还配有可拆卸的眼镜包,很适合春夏日出游🏖️\n 型号:772191. \n尺寸:37-55x43x5cm. \n眼镜包尺寸:21.7x16.9x2cm","specs":{"source":"wsxcme","sourceId":"_dcCcCtnGepMP-ciwc-AeoTZ7DMUxz2ASoRfgcpw","sourceTagId":47002761,"sourceTagName":"圣罗兰/女包","modelNumber":"772191.","dimensions":{"lengthCm":21.7,"heightCm":16.9,"widthCm":2},"rawTitle":"🌸 ICARE 拉菲草编包 \n. YSL 新品ICARE拉菲草系列,无疑是这个春夏最值得期待的单品!拉菲草💐的设计独特,仿佛是大自然的馈赠,每一根都充满了生命力。它的颜色犹如春天的调色板🎨,丰富而鲜明,让人一看就心生欢喜~再回到包包本身:放大版的LOGO纯手工打造,全手工的钩编工艺质感拉满!还配有可拆卸的眼镜包,很适合春夏日出游🏖️\n 型号:772191. \n尺寸:37-55x43x5cm. \n眼镜包尺寸:21.7x16.9x2cm"},"price":null,"currency":"CNY","moq":1,"category":"ysl-women-bags","status":"active","alibaba_url":null,"images":["https://xcimg.szwego.com/20240426/a1714109175884_7208.jpg","https://xcimg.szwego.com/20240426/a1714109176129_0183.jpg","https://xcimg.szwego.com/20240426/a1714109176625_3278.jpg","https://xcimg.szwego.com/20240426/a1714109177146_3645.jpg","https://xcimg.szwego.com/20240426/a1714109177457_8570.jpg","https://xcimg.szwego.com/20240426/a1714109177837_4888.jpg","https://xcimg.szwego.com/20240426/a1714109178219_6126.jpg","https://xcimg.szwego.com/20240426/a1714109178597_7310.jpg","https://xcimg.szwego.com/20240426/a1714109178978_1365.jpg"],"created_at":"2025-07-20T03:10:54.216Z"},{"id":"item-6c6a45323ae1","sku":"_d_r_rmZODapLE_FkPsWyRr8xAnHgSvFWflQ-sYA","name_en":"#June Box#","name_cn":"#June Box#\nYSL新款JUNE绗缝羊皮革箱形包,小小的包身空间很Nice,包包采用正面翻盖,定型桶形设计,手工极其复杂,搭配Y字母漩口设计和菱形纹绗缝包缝。时尚真的是个轮回,新款小盒子包眼前一亮的复古既视感!!\n尺寸:19 X 15 X 8 厘米","specs":{"source":"wsxcme","sourceId":"_d_r_rmZODapLE_FkPsWyRr8xAnHgSvFWflQ-sYA","sourceTagId":47002761,"sourceTagName":"圣罗兰/女包","dimensions":{"lengthCm":19,"heightCm":15,"widthCm":8},"rawTitle":"#June Box#\nYSL新款JUNE绗缝羊皮革箱形包,小小的包身空间很Nice,包包采用正面翻盖,定型桶形设计,手工极其复杂,搭配Y字母漩口设计和菱形纹绗缝包缝。时尚真的是个轮回,新款小盒子包眼前一亮的复古既视感!!\n尺寸:19 X 15 X 8 厘米"},"price":null,"currency":"CNY","moq":1,"category":"ysl-women-bags","status":"active","alibaba_url":null,"images":["https://xcimg.szwego.com/20221206/i1670301355_1336_0.jpg","https://xcimg.szwego.com/20221206/i1670301355_7549_1.jpg","https://xcimg.szwego.com/20221206/i1670301355_81_2.jpg","https://xcimg.szwego.com/20221206/i1670301355_2215_3.jpg","https://xcimg.szwego.com/20221206/i1670301355_5734_4.jpg","https://xcimg.szwego.com/20221206/i1670301355_828_5.jpg","https://xcimg.szwego.com/20221206/i1670301355_7109_6.jpg","https://xcimg.szwego.com/20221206/i1670301355_4846_8.jpg","https://xcimg.szwego.com/20221206/i1670301355_7445_7.jpg"],"created_at":"2025-07-20T03:10:54.215Z"},{"id":"item-a0eaefef57d0","sku":"_d9Q9QJFoCLQJWsfnje1ySUvA6WcVl2dxvXO7xyA","name_en":"男女同款June box箱型包","name_cn":"男女同款June box箱型包","specs":{"source":"wsxcme","sourceId":"_d9Q9QJFoCLQJWsfnje1ySUvA6WcVl2dxvXO7xyA","sourceTagId":47002761,"sourceTagName":"圣罗兰/女包","rawTitle":"男女同款June box箱型包"},"price":null,"currency":"CNY","moq":1,"category":"ysl-women-bags","status":"active","alibaba_url":null,"images":["https://xcimg.szwego.com/20230411/a1681185922190_7788.jpg","https://xcimg.szwego.com/20230411/a1681185922191_7001.jpg","https://xcimg.szwego.com/20230411/a1681185922277_5040.jpg","https://xcimg.szwego.com/20230411/a1681185922278_5373.jpg","https://xcimg.szwego.com/20230411/a1681185922278_7137.jpg"],"created_at":"2025-07-20T03:10:54.214Z"},{"id":"item-5c61d9f2985f","sku":"_dv8v8riODOtBU64ltBNYCS9f7a1lmrFLvWNBHGQ","name_en":"#June Box#银扣","name_cn":"#June Box#银扣\nYSL新款JUNE绗缝羊皮革箱形包,小小的包身空间很Nice,包包采用正面翻盖,定型桶形设计,手工极其复杂,搭配Y字母漩口设计和菱形纹绗缝包缝。时尚真的是个轮回,新款小盒子包眼前一亮的复古既视感!!\n尺寸:19 X 15 X 8 厘米","specs":{"source":"wsxcme","sourceId":"_dv8v8riODOtBU64ltBNYCS9f7a1lmrFLvWNBHGQ","sourceTagId":47002761,"sourceTagName":"圣罗兰/女包","dimensions":{"lengthCm":19,"heightCm":15,"widthCm":8},"rawTitle":"#June Box#银扣\nYSL新款JUNE绗缝羊皮革箱形包,小小的包身空间很Nice,包包采用正面翻盖,定型桶形设计,手工极其复杂,搭配Y字母漩口设计和菱形纹绗缝包缝。时尚真的是个轮回,新款小盒子包眼前一亮的复古既视感!!\n尺寸:19 X 15 X 8 厘米"},"price":null,"currency":"CNY","moq":1,"category":"ysl-women-bags","status":"active","alibaba_url":null,"images":["https://xcimg.szwego.com/20230411/i1681184375_5066_0.jpg","https://xcimg.szwego.com/20230411/i1681184411_1752_0.jpg","https://xcimg.szwego.com/20230411/i1681184398_3800_1.jpg","https://xcimg.szwego.com/20230411/i1681184398_7059_3.jpg","https://xcimg.szwego.com/20230411/i1681184398_3932_0.jpg","https://xcimg.szwego.com/20230411/i1681184375_5701_2.jpg","https://xcimg.szwego.com/20230411/i1681184375_6643_1.jpg","https://xcimg.szwego.com/20230411/i1681184375_2050_3.jpg","https://xcimg.szwego.com/20230411/i1681184398_307_2.jpg"],"created_at":"2025-07-20T03:10:54.213Z"},{"id":"item-4eafcb721af7","sku":"_dw1w1zTaW3gF8-7vOIkWKOMWnZT3PBL08bHX8yQ","name_en":"P 圣罗兰YSL经典流苏包没有流苏 进口南非皮 市场顶级货 尺寸:24*14.5*5.5 编码354021","name_cn":"P 圣罗兰YSL经典流苏包没有流苏 进口南非皮 市场顶级货 尺寸:24*14.5*5.5 编码354021","specs":{"source":"wsxcme","sourceId":"_dw1w1zTaW3gF8-7vOIkWKOMWnZT3PBL08bHX8yQ","sourceTagId":47002761,"sourceTagName":"圣罗兰/女包","rawTitle":"P 圣罗兰YSL经典流苏包没有流苏 进口南非皮 市场顶级货 尺寸:24*14.5*5.5 编码354021"},"price":null,"currency":"CNY","moq":1,"category":"ysl-women-bags","status":"active","alibaba_url":null,"images":["https://xcimg.szwego.com/img/aed707d3/20231022/a1697959438502_2806.jpg","https://xcimg.szwego.com/img/aed707d3/20231022/a1697959438862_7652.jpg","https://xcimg.szwego.com/img/aed707d3/20231022/a1697959440751_7331.jpg","https://xcimg.szwego.com/img/aed707d3/20231022/a1697959439206_1627.jpg","https://xcimg.szwego.com/img/aed707d3/20231022/a1697959440359_4865.jpg","https://xcimg.szwego.com/img/aed707d3/20231022/a1697959441022_7645.jpg","https://xcimg.szwego.com/img/aed707d3/20231022/a1697959441532_3187.jpg","https://xcimg.szwego.com/img/aed707d3/20231022/a1697959442069_6223.jpg","https://xcimg.szwego.com/img/aed707d3/20231022/a1697959439835_4176.jpg"],"created_at":"2025-07-20T03:10:54.212Z"},{"id":"item-31107ffed0ec","sku":"_dyGyGJjis9OuqpD4twKWFnnL87XqWCUTweITUNQ","name_en":"P 圣罗兰YSL经典流苏包没有流苏 进口南非皮 市场顶级货 尺寸:24*14.5*5.5 编码354021","name_cn":"P 圣罗兰YSL经典流苏包没有流苏 进口南非皮 市场顶级货 尺寸:24*14.5*5.5 编码354021","specs":{"source":"wsxcme","sourceId":"_dyGyGJjis9OuqpD4twKWFnnL87XqWCUTweITUNQ","sourceTagId":47002761,"sourceTagName":"圣罗兰/女包","rawTitle":"P 圣罗兰YSL经典流苏包没有流苏 进口南非皮 市场顶级货 尺寸:24*14.5*5.5 编码354021"},"price":null,"currency":"CNY","moq":1,"category":"ysl-women-bags","status":"active","alibaba_url":null,"images":["https://xcimg.szwego.com/img/aed707d3/20231022/a1697959381034_5641.jpg","https://xcimg.szwego.com/img/aed707d3/20231022/a1697959381407_6223.jpg","https://xcimg.szwego.com/img/aed707d3/20231022/a1697959382754_3855.jpg","https://xcimg.szwego.com/img/aed707d3/20231022/a1697959381737_1541.jpg","https://xcimg.szwego.com/img/aed707d3/20231022/a1697959383064_2146.jpg","https://xcimg.szwego.com/img/aed707d3/20231022/a1697959383369_2570.jpg","https://xcimg.szwego.com/img/aed707d3/20231022/a1697959383865_5162.jpg","https://xcimg.szwego.com/img/aed707d3/20231022/a1697959384403_6575.jpg","https://xcimg.szwego.com/img/aed707d3/20231022/a1697959382370_3755.jpg"],"created_at":"2025-07-20T03:10:54.211Z"},{"id":"item-0efe1b84245c","sku":"_doUoUsyVcDZwjl_pknDxPz9S1q-phsLnSwnfNHQ","name_en":"P YSL圣罗兰✨原单进口新南非牛皮流苏小包👝顶级原单📢📢流苏五金,原版铜链 每一个细节都与正品零0⃣️差距 大号尺寸:24*14.5*5.5cm  编码377829","name_cn":"P YSL圣罗兰✨原单进口新南非牛皮流苏小包👝顶级原单📢📢流苏五金,原版铜链 每一个细节都与正品零0⃣️差距 大号尺寸:24*14.5*5.5cm  编码377829","specs":{"source":"wsxcme","sourceId":"_doUoUsyVcDZwjl_pknDxPz9S1q-phsLnSwnfNHQ","sourceTagId":47002761,"sourceTagName":"圣罗兰/女包","dimensions":{"lengthCm":24,"heightCm":14.5,"widthCm":5.5},"rawTitle":"P YSL圣罗兰✨原单进口新南非牛皮流苏小包👝顶级原单📢📢流苏五金,原版铜链 每一个细节都与正品零0⃣️差距 大号尺寸:24*14.5*5.5cm  编码377829"},"price":null,"currency":"CNY","moq":1,"category":"ysl-women-bags","status":"active","alibaba_url":null,"images":["https://xcimg.szwego.com/img/aed707d3/20231022/a1697956683437_6721.jpg","https://xcimg.szwego.com/img/aed707d3/20231022/a1697956683849_7558.jpg","https://xcimg.szwego.com/img/aed707d3/20231022/a1697956684317_3243.jpg","https://xcimg.szwego.com/img/aed707d3/20231022/a1697956684784_4058.jpg","https://xcimg.szwego.com/img/aed707d3/20231022/a1697956685328_3445.jpg","https://xcimg.szwego.com/img/aed707d3/20231022/a1697956686484_2384.jpg","https://xcimg.szwego.com/img/aed707d3/20231022/a1697956686200_2785.jpg","https://xcimg.szwego.com/img/aed707d3/20231022/a1697956687016_8833.jpg","https://xcimg.szwego.com/img/aed707d3/20231022/a1697956685950_0077.jpg"],"created_at":"2025-07-20T03:10:54.210Z"},{"id":"item-8a9557da21a5","sku":"_dgpgpeU3qRrg4s0ayU-iWWTUA8EhWDM81jYDl_g","name_en":"P YSL圣罗兰✨原单进口新南非牛皮流苏小包👝顶级原单📢📢流苏五金,原版铜链 每一个细节都与正品零0⃣️差距 大号尺寸:24*14.5*5.5cm  编码377829","name_cn":"P YSL圣罗兰✨原单进口新南非牛皮流苏小包👝顶级原单📢📢流苏五金,原版铜链 每一个细节都与正品零0⃣️差距 大号尺寸:24*14.5*5.5cm  编码377829","specs":{"source":"wsxcme","sourceId":"_dgpgpeU3qRrg4s0ayU-iWWTUA8EhWDM81jYDl_g","sourceTagId":47002761,"sourceTagName":"圣罗兰/女包","dimensions":{"lengthCm":24,"heightCm":14.5,"widthCm":5.5},"rawTitle":"P YSL圣罗兰✨原单进口新南非牛皮流苏小包👝顶级原单📢📢流苏五金,原版铜链 每一个细节都与正品零0⃣️差距 大号尺寸:24*14.5*5.5cm  编码377829"},"price":null,"currency":"CNY","moq":1,"category":"ysl-women-bags","status":"active","alibaba_url":null,"images":["https://xcimg.szwego.com/img/aed707d3/20231022/a1697956630068_1836.jpg","https://xcimg.szwego.com/img/aed707d3/20231022/a1697956630485_0565.jpg","https://xcimg.szwego.com/img/aed707d3/20231022/a1697956630884_0858.jpg","https://xcimg.szwego.com/img/aed707d3/20231022/a1697956631386_6066.jpg","https://xcimg.szwego.com/img/aed707d3/20231022/a1697956631921_1334.jpg","https://xcimg.szwego.com/img/aed707d3/20231022/a1697956632246_6476.jpg","https://xcimg.szwego.com/img/aed707d3/20231022/a1697956632539_5646.jpg","https://xcimg.szwego.com/img/aed707d3/20231022/a1697956633074_6246.jpg","https://xcimg.szwego.com/img/aed707d3/20231022/a1697956633673_1016.jpg"],"created_at":"2025-07-20T03:10:54.209Z"},{"id":"item-acb76955ffb7","sku":"_dqTqT4yp2jQC5_Td8LFs8jLeFsWm0VtNCSU0Qlw","name_en":"大号P YSL圣罗兰秋冬新款🍂 ROSE同款 轻巧又充满时尚感,手感超级好 软软的 搭配简单的ysl logo 真的巨好背!尺寸:30x31x13cm编码:753837","name_cn":"大号P YSL圣罗兰秋冬新款🍂 ROSE同款 轻巧又充满时尚感,手感超级好 软软的 搭配简单的ysl logo 真的巨好背!尺寸:30x31x13cm编码:753837","specs":{"source":"wsxcme","sourceId":"_dqTqT4yp2jQC5_Td8LFs8jLeFsWm0VtNCSU0Qlw","sourceTagId":47002761,"sourceTagName":"圣罗兰/女包","dimensions":{"lengthCm":30,"heightCm":31,"widthCm":13},"rawTitle":"大号P YSL圣罗兰秋冬新款🍂 ROSE同款 轻巧又充满时尚感,手感超级好 软软的 搭配简单的ysl logo 真的巨好背!尺寸:30x31x13cm编码:753837"},"price":null,"currency":"CNY","moq":1,"category":"ysl-women-bags","status":"active","alibaba_url":null,"images":["https://xcimg.szwego.com/20230703/a1688367594032_8870.jpg","https://xcimg.szwego.com/20230703/a1688367594521_4468.jpg","https://xcimg.szwego.com/20230703/a1688367594957_1316.jpg","https://xcimg.szwego.com/20230703/a1688367595362_8578.jpg","https://xcimg.szwego.com/20230703/a1688367596031_8766.jpg","https://xcimg.szwego.com/20230703/a1688367596365_1633.jpg","https://xcimg.szwego.com/20230703/a1688367596694_7872.jpg","https://xcimg.szwego.com/20230703/a1688367596993_7825.jpg","https://xcimg.szwego.com/20230703/a1688367597384_6753.jpg"],"created_at":"2025-07-20T03:10:54.208Z"},{"id":"item-592a6845b847","sku":"_dgAgA2-FA1XUcKM1GrZEb8O3ecne0xwGUhHHKGQ","name_en":"P YSL圣罗兰秋冬新款🍂 ROSE同款 轻巧又充满时尚感,手感超级好 软软的 搭配简单的ysl logo 真的巨好背!尺寸:22x22x10cm编码:713938","name_cn":"P YSL圣罗兰秋冬新款🍂 ROSE同款 轻巧又充满时尚感,手感超级好 软软的 搭配简单的ysl logo 真的巨好背!尺寸:22x22x10cm编码:713938","specs":{"source":"wsxcme","sourceId":"_dgAgA2-FA1XUcKM1GrZEb8O3ecne0xwGUhHHKGQ","sourceTagId":47002761,"sourceTagName":"圣罗兰/女包","dimensions":{"lengthCm":22,"heightCm":22,"widthCm":10},"rawTitle":"P YSL圣罗兰秋冬新款🍂 ROSE同款 轻巧又充满时尚感,手感超级好 软软的 搭配简单的ysl logo 真的巨好背!尺寸:22x22x10cm编码:713938"},"price":null,"currency":"CNY","moq":1,"category":"ysl-women-bags","status":"active","alibaba_url":null,"images":["https://xcimg.szwego.com/img/aed707d3/20231119/a1700365792088_3686.jpg","https://xcimg.szwego.com/img/aed707d3/20231119/a1700365792036_3378.jpg","https://xcimg.szwego.com/img/aed707d3/20231119/a1700365792213_5617.jpg","https://xcimg.szwego.com/img/aed707d3/20231119/a1700365792192_5706.jpg","https://xcimg.szwego.com/img/aed707d3/20231119/a1700365792033_6440.jpg","https://xcimg.szwego.com/img/aed707d3/20231119/a1700365793811_1351.jpg","https://xcimg.szwego.com/img/aed707d3/20231119/a1700365793822_4111.jpg","https://xcimg.szwego.com/img/aed707d3/20231119/a1700365794005_2146.jpg","https://xcimg.szwego.com/img/aed707d3/20231119/a1700365792470_8227.jpg"],"created_at":"2025-07-20T03:10:54.207Z"},{"id":"item-4f76bc75e57e","sku":"_dgUgUOjw-Su0GvMgP04RLogPw3SsGRGbJqhAHpw","name_en":"P YSL圣罗兰秋冬新款🍂 ROSE同款 轻巧又充满时尚感,手感超级好 软软的 搭配简单的ysl logo 真的巨好背!尺寸:22x22x10cm编码:713938","name_cn":"P YSL圣罗兰秋冬新款🍂 ROSE同款 轻巧又充满时尚感,手感超级好 软软的 搭配简单的ysl logo 真的巨好背!尺寸:22x22x10cm编码:713938","specs":{"source":"wsxcme","sourceId":"_dgUgUOjw-Su0GvMgP04RLogPw3SsGRGbJqhAHpw","sourceTagId":47002761,"sourceTagName":"圣罗兰/女包","dimensions":{"lengthCm":22,"heightCm":22,"widthCm":10},"rawTitle":"P YSL圣罗兰秋冬新款🍂 ROSE同款 轻巧又充满时尚感,手感超级好 软软的 搭配简单的ysl logo 真的巨好背!尺寸:22x22x10cm编码:713938"},"price":null,"currency":"CNY","moq":1,"category":"ysl-women-bags","status":"active","alibaba_url":null,"images":["https://xcimg.szwego.com/img/aed707d3/20231011/a1697004027548_8887.jpg","https://xcimg.szwego.com/img/aed707d3/20231011/a1697004027995_7082.jpg","https://xcimg.szwego.com/img/aed707d3/20231011/a1697004028428_5641.jpg","https://xcimg.szwego.com/img/aed707d3/20231011/a1697004028784_5320.jpg","https://xcimg.szwego.com/img/aed707d3/20231011/a1697004029359_7167.jpg","https://xcimg.szwego.com/img/aed707d3/20231011/a1697004029678_2581.jpg","https://xcimg.szwego.com/img/aed707d3/20231011/a1697004030094_3808.jpg","https://xcimg.szwego.com/img/aed707d3/20231011/a1697004030326_7142.jpg","https://xcimg.szwego.com/img/aed707d3/20231011/a1697004030859_7304.jpg"],"created_at":"2025-07-20T03:10:54.206Z"},{"id":"item-b077660b52f1","sku":"_djMjMMhtWho-djm08eYG_K0i-NHCSyT9FCze73g","name_en":"P YSL圣罗兰秋冬新款🍂 ROSE同款 轻巧又充满时尚感,手感超级好 软软的 搭配简单的ysl logo 真的巨好背!尺寸:22x22x10cm编码:713938","name_cn":"P YSL圣罗兰秋冬新款🍂 ROSE同款 轻巧又充满时尚感,手感超级好 软软的 搭配简单的ysl logo 真的巨好背!尺寸:22x22x10cm编码:713938","specs":{"source":"wsxcme","sourceId":"_djMjMMhtWho-djm08eYG_K0i-NHCSyT9FCze73g","sourceTagId":47002761,"sourceTagName":"圣罗兰/女包","dimensions":{"lengthCm":22,"heightCm":22,"widthCm":10},"rawTitle":"P YSL圣罗兰秋冬新款🍂 ROSE同款 轻巧又充满时尚感,手感超级好 软软的 搭配简单的ysl logo 真的巨好背!尺寸:22x22x10cm编码:713938"},"price":null,"currency":"CNY","moq":1,"category":"ysl-women-bags","status":"active","alibaba_url":null,"images":["https://xcimg.szwego.com/img/aed707d3/20231029/a1698555715489_6462.jpg","https://xcimg.szwego.com/img/aed707d3/20231029/a1698555715986_2734.jpg","https://xcimg.szwego.com/img/aed707d3/20231029/a1698555716617_6600.jpg","https://xcimg.szwego.com/img/aed707d3/20231029/a1698555717071_8573.jpg","https://xcimg.szwego.com/img/aed707d3/20231029/a1698555717411_8275.jpg","https://xcimg.szwego.com/img/aed707d3/20231029/a1698555717903_5045.jpg","https://xcimg.szwego.com/img/aed707d3/20231029/a1698555718103_5175.jpg","https://xcimg.szwego.com/img/aed707d3/20231029/a1698555718354_8412.jpg","https://xcimg.szwego.com/img/aed707d3/20231029/a1698555718702_7218.jpg"],"created_at":"2025-07-20T03:10:54.205Z"},{"id":"item-772419acfa66","sku":"_doJoJjPVXFufM4vaXRNpNV2x49tUnfMyV0OO0yg","name_en":"P YSL圣罗兰秋冬新款🍂 ROSE同款 轻巧又充满时尚感,手感超级好 软软的 搭配简单的ysl logo 真的巨好背!尺寸:22x22x10cm编码:713938","name_cn":"P YSL圣罗兰秋冬新款🍂 ROSE同款 轻巧又充满时尚感,手感超级好 软软的 搭配简单的ysl logo 真的巨好背!尺寸:22x22x10cm编码:713938","specs":{"source":"wsxcme","sourceId":"_doJoJjPVXFufM4vaXRNpNV2x49tUnfMyV0OO0yg","sourceTagId":47002761,"sourceTagName":"圣罗兰/女包","dimensions":{"lengthCm":22,"heightCm":22,"widthCm":10},"rawTitle":"P YSL圣罗兰秋冬新款🍂 ROSE同款 轻巧又充满时尚感,手感超级好 软软的 搭配简单的ysl logo 真的巨好背!尺寸:22x22x10cm编码:713938"},"price":null,"currency":"CNY","moq":1,"category":"ysl-women-bags","status":"active","alibaba_url":null,"images":["https://xcimg.szwego.com/img/aed707d3/20231029/a1698555679862_4687.jpg","https://xcimg.szwego.com/img/aed707d3/20231029/a1698555680310_6051.jpg","https://xcimg.szwego.com/img/aed707d3/20231029/a1698555680699_3841.jpg","https://xcimg.szwego.com/img/aed707d3/20231029/a1698555681264_0172.jpg","https://xcimg.szwego.com/img/aed707d3/20231029/a1698555681854_2064.jpg","https://xcimg.szwego.com/img/aed707d3/20231029/a1698555682293_2152.jpg","https://xcimg.szwego.com/img/aed707d3/20231029/a1698555682520_5121.jpg","https://xcimg.szwego.com/img/aed707d3/20231029/a1698555682887_8154.jpg","https://xcimg.szwego.com/img/aed707d3/20231029/a1698555683403_0732.jpg"],"created_at":"2025-07-20T03:10:54.204Z"},{"id":"item-a38657b28c06","sku":"_d9N9N5sZwahXrn0wMNlVWMPguBfFql38mTTv-0A","name_en":"P YSL圣罗兰秋冬新款🍂 ROSE同款 轻巧又充满时尚感,手感超级好 软软的 搭配简单的ysl logo 真的巨好背!尺寸:22x22x10cm编码:713938","name_cn":"P YSL圣罗兰秋冬新款🍂 ROSE同款 轻巧又充满时尚感,手感超级好 软软的 搭配简单的ysl logo 真的巨好背!尺寸:22x22x10cm编码:713938","specs":{"source":"wsxcme","sourceId":"_d9N9N5sZwahXrn0wMNlVWMPguBfFql38mTTv-0A","sourceTagId":47002761,"sourceTagName":"圣罗兰/女包","dimensions":{"lengthCm":22,"heightCm":22,"widthCm":10},"rawTitle":"P YSL圣罗兰秋冬新款🍂 ROSE同款 轻巧又充满时尚感,手感超级好 软软的 搭配简单的ysl logo 真的巨好背!尺寸:22x22x10cm编码:713938"},"price":null,"currency":"CNY","moq":1,"category":"ysl-women-bags","status":"active","alibaba_url":null,"images":["https://xcimg.szwego.com/20230421/a1682075858632_6384.jpg","https://xcimg.szwego.com/20230421/a1682075859001_1073.jpg","https://xcimg.szwego.com/20230421/a1682075859248_8127.jpg","https://xcimg.szwego.com/20230421/a1682075859548_2236.jpg","https://xcimg.szwego.com/20230421/a1682075860086_4516.jpg","https://xcimg.szwego.com/20230421/a1682075860498_5245.jpg","https://xcimg.szwego.com/20230421/a1682075860732_5420.jpg","https://xcimg.szwego.com/20230421/a1682075860952_8551.jpg","https://xcimg.szwego.com/20230421/a1682075861335_5267.jpg"],"created_at":"2025-07-20T03:10:54.203Z"},{"id":"item-957305674a5e","sku":"_dcMcMU8cESTd-3NjNucW20P2QGcwa8ywagkRnlg","name_en":"P YSL圣罗兰秋冬新款🍂 ROSE同款 轻巧又充满时尚感,手感超级好 软软的 搭配简单的ysl logo 真的巨好背!尺寸:22x22x10cm编码:713938","name_cn":"P YSL圣罗兰秋冬新款🍂 ROSE同款 轻巧又充满时尚感,手感超级好 软软的 搭配简单的ysl logo 真的巨好背!尺寸:22x22x10cm编码:713938","specs":{"source":"wsxcme","sourceId":"_dcMcMU8cESTd-3NjNucW20P2QGcwa8ywagkRnlg","sourceTagId":47002761,"sourceTagName":"圣罗兰/女包","dimensions":{"lengthCm":22,"heightCm":22,"widthCm":10},"rawTitle":"P YSL圣罗兰秋冬新款🍂 ROSE同款 轻巧又充满时尚感,手感超级好 软软的 搭配简单的ysl logo 真的巨好背!尺寸:22x22x10cm编码:713938"},"price":null,"currency":"CNY","moq":1,"category":"ysl-women-bags","status":"active","alibaba_url":null,"images":["https://xcimg.szwego.com/20230421/a1682075816615_1440.jpg","https://xcimg.szwego.com/20230421/a1682075817065_0412.jpg","https://xcimg.szwego.com/20230421/a1682075817331_3037.jpg","https://xcimg.szwego.com/20230421/a1682075817606_6466.jpg","https://xcimg.szwego.com/20230421/a1682075818082_3836.jpg","https://xcimg.szwego.com/20230421/a1682075818457_5616.jpg","https://xcimg.szwego.com/20230421/a1682075818695_7048.jpg","https://xcimg.szwego.com/20230421/a1682075819069_7183.jpg","https://xcimg.szwego.com/20230421/a1682075819329_4804.jpg"],"created_at":"2025-07-20T03:10:54.202Z"},{"id":"item-2a038c2e4c68","sku":"_d_j_jy8nngv4jj7hY2A4mY0-70BGybqF4u3fMxw","name_en":"P YSL圣罗兰秋冬新款🍂 ROSE同款 轻巧又充满时尚感,手感超级好 软软的 搭配简单的ysl logo 真的巨好背!尺寸:22x22x10cm编码:713938","name_cn":"P YSL圣罗兰秋冬新款🍂 ROSE同款 轻巧又充满时尚感,手感超级好 软软的 搭配简单的ysl logo 真的巨好背!尺寸:22x22x10cm编码:713938","specs":{"source":"wsxcme","sourceId":"_d_j_jy8nngv4jj7hY2A4mY0-70BGybqF4u3fMxw","sourceTagId":47002761,"sourceTagName":"圣罗兰/女包","dimensions":{"lengthCm":22,"heightCm":22,"widthCm":10},"rawTitle":"P YSL圣罗兰秋冬新款🍂 ROSE同款 轻巧又充满时尚感,手感超级好 软软的 搭配简单的ysl logo 真的巨好背!尺寸:22x22x10cm编码:713938"},"price":null,"currency":"CNY","moq":1,"category":"ysl-women-bags","status":"active","alibaba_url":null,"images":["https://xcimg.szwego.com/20230421/a1682075791750_0650.jpg","https://xcimg.szwego.com/20230421/a1682075792250_2818.jpg","https://xcimg.szwego.com/20230421/a1682075792582_5841.jpg","https://xcimg.szwego.com/20230421/a1682075792900_2088.jpg","https://xcimg.szwego.com/20230421/a1682075793409_7885.jpg","https://xcimg.szwego.com/20230421/a1682075793831_3436.jpg","https://xcimg.szwego.com/20230421/a1682075794107_3285.jpg","https://xcimg.szwego.com/20230421/a1682075794308_6531.jpg","https://xcimg.szwego.com/20230421/a1682075794682_4113.jpg"],"created_at":"2025-07-20T03:10:54.201Z"},{"id":"item-ae4fedfa99c1","sku":"_dXDXDPlv-n4GC_v90s9htswL_1dvDiTzhmVOT5w","name_en":"P YSL圣罗兰秋冬新款🍂 ROSE同款 轻巧又充满时尚感,手感超级好 软软的 搭配简单的ysl logo 真的巨好背!尺寸:22x22x10cm编码:713938","name_cn":"P YSL圣罗兰秋冬新款🍂 ROSE同款 轻巧又充满时尚感,手感超级好 软软的 搭配简单的ysl logo 真的巨好背!尺寸:22x22x10cm编码:713938","specs":{"source":"wsxcme","sourceId":"_dXDXDPlv-n4GC_v90s9htswL_1dvDiTzhmVOT5w","sourceTagId":47002761,"sourceTagName":"圣罗兰/女包","dimensions":{"lengthCm":22,"heightCm":22,"widthCm":10},"rawTitle":"P YSL圣罗兰秋冬新款🍂 ROSE同款 轻巧又充满时尚感,手感超级好 软软的 搭配简单的ysl logo 真的巨好背!尺寸:22x22x10cm编码:713938"},"price":null,"currency":"CNY","moq":1,"category":"ysl-women-bags","status":"active","alibaba_url":null,"images":["https://xcimg.szwego.com/20230421/a1682075759818_5862.jpg","https://xcimg.szwego.com/20230421/a1682075760236_8600.jpg","https://xcimg.szwego.com/20230421/a1682075760488_6415.jpg","https://xcimg.szwego.com/20230421/a1682075760908_2754.jpg","https://xcimg.szwego.com/20230421/a1682075761417_3110.jpg","https://xcimg.szwego.com/20230421/a1682075761720_8477.jpg","https://xcimg.szwego.com/20230421/a1682075761933_8065.jpg","https://xcimg.szwego.com/20230421/a1682075762184_7766.jpg","https://xcimg.szwego.com/20230421/a1682075762583_5758.jpg"],"created_at":"2025-07-20T03:10:54.200Z"}],"page":108,"pageSize":24,"total":10075,"totalPages":420}
