{"items":[{"id":"item-c58e81098163","sku":"_dxSxS7QVLIwiHQFOD-_cbI-oTtyTHjBzqHqJDyw","name_en":"CELINE:编织菜篮子包","name_cn":"CELINE:编织菜篮子包\nBOTTEGA VENETA:蝴蝶包                                  五一小长假马上到啦,推荐出游的包包","specs":{"source":"wsxcme","sourceId":"_dxSxS7QVLIwiHQFOD-_cbI-oTtyTHjBzqHqJDyw","sourceTagId":47003106,"sourceTagName":"塞琳/女包","rawTitle":"CELINE:编织菜篮子包\nBOTTEGA VENETA:蝴蝶包                                  五一小长假马上到啦,推荐出游的包包"},"price":null,"currency":"CNY","moq":1,"category":"celine-women-bags","status":"active","alibaba_url":null,"images":["https://xcimg.szwego.com/20220409/i1649434340_3809_0.jpg","https://xcimg.szwego.com/20220409/i1649434340_8751_1.jpg","https://xcimg.szwego.com/20220409/i1649434340_3978_2.jpg","https://xcimg.szwego.com/20220409/i1649434340_6750_3.jpg","https://xcimg.szwego.com/20220409/i1649434340_2224_4.jpg","https://xcimg.szwego.com/20220409/i1649434340_6225_5.jpg","https://xcimg.szwego.com/20220409/i1649434340_5427_6.jpg","https://xcimg.szwego.com/20220409/i1649434340_5380_7.jpg"],"created_at":"2026-05-20T03:16:24.266Z"},{"id":"item-da48132395c7","sku":"_dqVqVDZyEfuwx9UJcXoE4LzPfYaAwBJT77epUEg","name_en":"celine夏日包包选哪个","name_cn":"celine夏日包包选哪个\n感觉还是草编包比较夏天!","specs":{"source":"wsxcme","sourceId":"_dqVqVDZyEfuwx9UJcXoE4LzPfYaAwBJT77epUEg","sourceTagId":47003106,"sourceTagName":"塞琳/女包","rawTitle":"celine夏日包包选哪个\n感觉还是草编包比较夏天!"},"price":null,"currency":"CNY","moq":1,"category":"celine-women-bags","status":"active","alibaba_url":null,"images":["https://xcimg.szwego.com/20220409/i1649434735_1389_0.jpg","https://xcimg.szwego.com/20220409/i1649434735_3535_1.jpg","https://xcimg.szwego.com/20220409/i1649434735_4864_2.jpg","https://xcimg.szwego.com/20220409/i1649434735_341_3.jpg"],"created_at":"2026-05-20T03:16:24.256Z"},{"id":"item-e5c422240c2b","sku":"_dzezeREcDLZ2TM1BcnkMR4cKT43xYW3OpuiRvKw","name_en":"2026春夏草编包TEEN TRIOMPHE CLASSIC棕榈叶牛皮革提篮包","name_cn":"2026春夏草编包TEEN TRIOMPHE CLASSIC棕榈叶牛皮革提篮包\nANIS\n7 X 8 X 4英寸(19 X 20 X 10厘米)\n棕榈叶,牛皮革包边\n牛皮革肩背或手提 款号:194002","specs":{"source":"wsxcme","sourceId":"_dzezeREcDLZ2TM1BcnkMR4cKT43xYW3OpuiRvKw","sourceTagId":47003106,"sourceTagName":"塞琳/女包","modelNumber":"194002","rawTitle":"2026春夏草编包TEEN TRIOMPHE CLASSIC棕榈叶牛皮革提篮包\nANIS\n7 X 8 X 4英寸(19 X 20 X 10厘米)\n棕榈叶,牛皮革包边\n牛皮革肩背或手提 款号:194002"},"price":null,"currency":"CNY","moq":1,"category":"celine-women-bags","status":"active","alibaba_url":null,"images":["https://xcimg.szwego.com/20220409/i1649433600_6066_0.jpg","https://xcimg.szwego.com/20220409/i1649433600_6217_1.jpg","https://xcimg.szwego.com/20220409/i1649433600_7425_2.jpg","https://xcimg.szwego.com/20220409/i1649433600_3459_3.jpg","https://xcimg.szwego.com/20220409/i1649433600_5268_4.jpg","https://xcimg.szwego.com/20220409/i1649433600_6295_5.jpg","https://xcimg.szwego.com/20220409/i1649433600_9271_6.jpg","https://xcimg.szwego.com/20220409/i1649433600_945_7.jpg"],"created_at":"2026-05-20T03:16:24.246Z"},{"id":"item-8a1755408066","sku":"_dwSwSWuZn3TXvJ4oT_shwBwUIHd9TRDZ8KAuhqw","name_en":"CELINE |刘诗诗、孙千","name_cn":"CELINE |刘诗诗、孙千\n当然啦~新款包包Samll Hobo","specs":{"source":"wsxcme","sourceId":"_dwSwSWuZn3TXvJ4oT_shwBwUIHd9TRDZ8KAuhqw","sourceTagId":47003106,"sourceTagName":"塞琳/女包","rawTitle":"CELINE |刘诗诗、孙千\n当然啦~新款包包Samll Hobo"},"price":null,"currency":"CNY","moq":1,"category":"celine-women-bags","status":"active","alibaba_url":null,"images":["https://xcimg.szwego.com/img/1a8dcad8/20260514/a1778771518736_7322.jpg","https://xcimg.szwego.com/img/1a8dcad8/20260514/a1778771518745_4750.jpg","https://xcimg.szwego.com/img/1a8dcad8/20260514/a1778771518778_7276.jpg"],"created_at":"2026-05-20T03:16:24.236Z"},{"id":"item-c30da2566750","sku":"_dC1C1f_qdTtzOS7s66KBkagS0_iEVjKCoH9Yxfg","name_en":"Celine Women Bags","name_cn":"长期主义|松弛感穿搭~\n休闲度假感十足\n超适合小韩散步与泰兰德的夏天~","specs":{"source":"wsxcme","sourceId":"_dC1C1f_qdTtzOS7s66KBkagS0_iEVjKCoH9Yxfg","sourceTagId":47003106,"sourceTagName":"塞琳/女包","rawTitle":"长期主义|松弛感穿搭~\n休闲度假感十足\n超适合小韩散步与泰兰德的夏天~"},"price":null,"currency":"CNY","moq":1,"category":"celine-women-bags","status":"active","alibaba_url":null,"images":["https://xcimg.szwego.com/img/1a8dcad8/20260514/a1778771327864_2673.jpg","https://xcimg.szwego.com/img/1a8dcad8/20260514/a1778771327866_7571.jpg","https://xcimg.szwego.com/img/1a8dcad8/20260514/a1778771327903_2566.jpg","https://xcimg.szwego.com/img/1a8dcad8/20260514/a1778771327820_3308.jpg","https://xcimg.szwego.com/img/1a8dcad8/20260514/a1778771327821_1453.jpg","https://xcimg.szwego.com/img/1a8dcad8/20260514/a1778771329301_0617.jpg","https://xcimg.szwego.com/img/1a8dcad8/20260514/a1778771329361_4838.jpg"],"created_at":"2026-05-20T03:16:24.226Z"},{"id":"item-1480b102b4f9","sku":"_dbXbXNDMHsORlpJWS21yb5scY1KetVYgFUB3ZOg","name_en":"2026年的CELINE新款包包SMALL HOBO","name_cn":"2026年的CELINE新款包包SMALL HOBO","specs":{"source":"wsxcme","sourceId":"_dbXbXNDMHsORlpJWS21yb5scY1KetVYgFUB3ZOg","sourceTagId":47003106,"sourceTagName":"塞琳/女包","rawTitle":"2026年的CELINE新款包包SMALL HOBO"},"price":null,"currency":"CNY","moq":1,"category":"celine-women-bags","status":"active","alibaba_url":null,"images":["https://xcimg.szwego.com/img/1a8dcad8/20260514/a1778771264279_1444.jpg","https://xcimg.szwego.com/img/1a8dcad8/20260514/a1778771264298_1736.jpg","https://xcimg.szwego.com/img/1a8dcad8/20260514/a1778771264279_7243.jpg","https://xcimg.szwego.com/img/1a8dcad8/20260514/a1778771264285_2456.jpg"],"created_at":"2026-05-20T03:16:24.216Z"},{"id":"item-2daf67d14f1b","sku":"_duKuK2rENxTafZ4JPMiP_l1FWaYsIjUv6Qwk96g","name_en":"CELINE |蓝色HOBO也太好看了吧","name_cn":"CELINE |蓝色HOBO也太好看了吧\n看着就让人心情大好的蓝色hobo~","specs":{"source":"wsxcme","sourceId":"_duKuK2rENxTafZ4JPMiP_l1FWaYsIjUv6Qwk96g","sourceTagId":47003106,"sourceTagName":"塞琳/女包","rawTitle":"CELINE |蓝色HOBO也太好看了吧\n看着就让人心情大好的蓝色hobo~"},"price":null,"currency":"CNY","moq":1,"category":"celine-women-bags","status":"active","alibaba_url":null,"images":["https://xcimg.szwego.com/img/1a8dcad8/20260514/a1778771180066_5564.jpg","https://xcimg.szwego.com/img/1a8dcad8/20260514/a1778771180051_7043.jpg","https://xcimg.szwego.com/img/1a8dcad8/20260514/a1778771180058_6554.jpg","https://xcimg.szwego.com/img/1a8dcad8/20260514/a1778771180051_7717.jpg"],"created_at":"2026-05-20T03:16:24.206Z"},{"id":"item-401998168ade","sku":"_d7U7U0hQGccsInWW0Vrx6jr1IovSNAOGzrAL4aA","name_en":"CELINE|简简单单的静奢风","name_cn":"CELINE|简简单单的静奢风\nCELINE|低炫耀、高内里\n用顶级的材质、利落剪裁和克制设计“传递不费力气的贵气","specs":{"source":"wsxcme","sourceId":"_d7U7U0hQGccsInWW0Vrx6jr1IovSNAOGzrAL4aA","sourceTagId":47003106,"sourceTagName":"塞琳/女包","rawTitle":"CELINE|简简单单的静奢风\nCELINE|低炫耀、高内里\n用顶级的材质、利落剪裁和克制设计“传递不费力气的贵气"},"price":null,"currency":"CNY","moq":1,"category":"celine-women-bags","status":"active","alibaba_url":null,"images":["https://xcimg.szwego.com/img/1a8dcad8/20260514/a1778771119386_6081.jpg","https://xcimg.szwego.com/img/1a8dcad8/20260514/a1778771119446_6805.jpg","https://xcimg.szwego.com/img/1a8dcad8/20260514/a1778771119385_3154.jpg","https://xcimg.szwego.com/img/1a8dcad8/20260514/a1778771119426_4233.jpg","https://xcimg.szwego.com/img/1a8dcad8/20260514/a1778771119492_5608.jpg","https://xcimg.szwego.com/img/1a8dcad8/20260514/a1778771120893_5282.jpg"],"created_at":"2026-05-20T03:16:24.196Z"},{"id":"item-fec8fb3afebf","sku":"_d8j8jAETRAbIVvOr45cf64EwnVoX1rJctLPoT8A","name_en":"CELINE新款Teen Hobo","name_cn":"CELINE新款Teen Hobo\n尺寸:18x31x6 cm\n附一个小零钱包 11×8cm\n肩带长度:最大43.5CM最小35CM\n功能性💯手提或斜挎\n按扣&内置可拆卸拉链包\n型号:110113 (配原版包装)","specs":{"source":"wsxcme","sourceId":"_d8j8jAETRAbIVvOr45cf64EwnVoX1rJctLPoT8A","sourceTagId":47003106,"sourceTagName":"塞琳/女包","modelNumber":"110113 (配原版包装)","dimensions":{"lengthCm":18,"heightCm":31,"widthCm":6},"rawTitle":"CELINE新款Teen Hobo\n尺寸:18x31x6 cm\n附一个小零钱包 11×8cm\n肩带长度:最大43.5CM最小35CM\n功能性💯手提或斜挎\n按扣&内置可拆卸拉链包\n型号:110113 (配原版包装)"},"price":null,"currency":"CNY","moq":1,"category":"celine-women-bags","status":"active","alibaba_url":null,"images":["https://xcimg.szwego.com/img/1a8dcad8/20260514/a1778770978690_5517.jpg","https://xcimg.szwego.com/img/1a8dcad8/20260514/a1778770978646_7522.jpg","https://xcimg.szwego.com/img/1a8dcad8/20260514/a1778770978730_7173.jpg","https://xcimg.szwego.com/img/1a8dcad8/20260514/a1778770978911_4724.jpg","https://xcimg.szwego.com/img/1a8dcad8/20260514/a1778770979460_7384.jpg","https://xcimg.szwego.com/img/1a8dcad8/20260514/a1778770983506_2655.jpg","https://xcimg.szwego.com/img/1a8dcad8/20260514/a1778770984076_0488.jpg","https://xcimg.szwego.com/img/1a8dcad8/20260514/a1778770983425_8706.jpg"],"created_at":"2026-05-20T03:16:24.186Z"},{"id":"item-550744ea8e99","sku":"_dkokozH3OW0iJE61jC62x5fgXUP0Zk4l75xJx_w","name_en":"CELINE新款Teen Hobo","name_cn":"CELINE新款Teen Hobo\n尺寸:18x31x6 cm\n附一个小零钱包 11×8cm\n肩带长度:最大43.5CM最小35CM\n功能性💯手提或斜挎\n按扣&内置可拆卸拉链包\n型号:110113 (配原版包装)","specs":{"source":"wsxcme","sourceId":"_dkokozH3OW0iJE61jC62x5fgXUP0Zk4l75xJx_w","sourceTagId":47003106,"sourceTagName":"塞琳/女包","modelNumber":"110113 (配原版包装)","dimensions":{"lengthCm":18,"heightCm":31,"widthCm":6},"rawTitle":"CELINE新款Teen Hobo\n尺寸:18x31x6 cm\n附一个小零钱包 11×8cm\n肩带长度:最大43.5CM最小35CM\n功能性💯手提或斜挎\n按扣&内置可拆卸拉链包\n型号:110113 (配原版包装)"},"price":null,"currency":"CNY","moq":1,"category":"celine-women-bags","status":"active","alibaba_url":null,"images":["https://xcimg.szwego.com/img/1a8dcad8/20260514/a1778770960254_0862.jpg","https://xcimg.szwego.com/img/1a8dcad8/20260514/a1778770959902_7861.jpg","https://xcimg.szwego.com/img/1a8dcad8/20260514/a1778770960211_1621.jpg","https://xcimg.szwego.com/img/1a8dcad8/20260514/a1778770960140_5278.jpg","https://xcimg.szwego.com/img/1a8dcad8/20260514/a1778770959880_6418.jpg","https://xcimg.szwego.com/img/1a8dcad8/20260514/a1778770961910_0244.jpg","https://xcimg.szwego.com/img/1a8dcad8/20260514/a1778770961819_3148.jpg","https://xcimg.szwego.com/img/1a8dcad8/20260514/a1778770961923_7532.jpg"],"created_at":"2026-05-20T03:16:24.176Z"},{"id":"item-93c20cc7a4e7","sku":"_drLrLbYqha4Rq6b9swCR5n4wdGdljqpwDENo7xg","name_en":"CELINE新款Teen Hobo","name_cn":"CELINE新款Teen Hobo\n尺寸:18x31x6 cm\n附一个小零钱包 11×8cm\n肩带长度:最大43.5CM最小35CM\n功能性💯手提或斜挎\n按扣&内置可拆卸拉链包\n型号:110113 (配原版包装)","specs":{"source":"wsxcme","sourceId":"_drLrLbYqha4Rq6b9swCR5n4wdGdljqpwDENo7xg","sourceTagId":47003106,"sourceTagName":"塞琳/女包","modelNumber":"110113 (配原版包装)","dimensions":{"lengthCm":18,"heightCm":31,"widthCm":6},"rawTitle":"CELINE新款Teen Hobo\n尺寸:18x31x6 cm\n附一个小零钱包 11×8cm\n肩带长度:最大43.5CM最小35CM\n功能性💯手提或斜挎\n按扣&内置可拆卸拉链包\n型号:110113 (配原版包装)"},"price":null,"currency":"CNY","moq":1,"category":"celine-women-bags","status":"active","alibaba_url":null,"images":["https://xcimg.szwego.com/img/1a8dcad8/20260514/a1778770926665_0182.jpg","https://xcimg.szwego.com/img/1a8dcad8/20260514/a1778770926253_8476.jpg","https://xcimg.szwego.com/img/1a8dcad8/20260514/a1778770926433_3002.jpg","https://xcimg.szwego.com/img/1a8dcad8/20260514/a1778770926234_1556.jpg","https://xcimg.szwego.com/img/1a8dcad8/20260514/a1778770926375_4864.jpg","https://xcimg.szwego.com/img/1a8dcad8/20260514/a1778770929764_6346.jpg","https://xcimg.szwego.com/img/1a8dcad8/20260514/a1778770928731_6564.jpg","https://xcimg.szwego.com/img/1a8dcad8/20260514/a1778770928811_1846.jpg"],"created_at":"2026-05-20T03:16:24.166Z"},{"id":"item-26b188da1727","sku":"_dckckRULIXuCeOJPtrsLfu-JiVufy78OS-XAehw","name_en":"CELINE新款Teen Hobo","name_cn":"CELINE新款Teen Hobo\n尺寸:18x31x6 cm\n附一个小零钱包 11×8cm\n肩带长度:最大43.5CM最小35CM\n功能性💯手提或斜挎\n按扣&内置可拆卸拉链包\n型号:110113 (配原版包装)","specs":{"source":"wsxcme","sourceId":"_dckckRULIXuCeOJPtrsLfu-JiVufy78OS-XAehw","sourceTagId":47003106,"sourceTagName":"塞琳/女包","modelNumber":"110113 (配原版包装)","dimensions":{"lengthCm":18,"heightCm":31,"widthCm":6},"rawTitle":"CELINE新款Teen Hobo\n尺寸:18x31x6 cm\n附一个小零钱包 11×8cm\n肩带长度:最大43.5CM最小35CM\n功能性💯手提或斜挎\n按扣&内置可拆卸拉链包\n型号:110113 (配原版包装)"},"price":null,"currency":"CNY","moq":1,"category":"celine-women-bags","status":"active","alibaba_url":null,"images":["https://xcimg.szwego.com/img/1a8dcad8/20260514/a1778770868710_2455.jpg","https://xcimg.szwego.com/img/1a8dcad8/20260514/a1778770868627_6326.jpg","https://xcimg.szwego.com/img/1a8dcad8/20260514/a1778770868653_6440.jpg","https://xcimg.szwego.com/img/1a8dcad8/20260514/a1778770868627_4538.jpg","https://xcimg.szwego.com/img/1a8dcad8/20260514/a1778770870353_3876.jpg","https://xcimg.szwego.com/img/1a8dcad8/20260514/a1778770870705_8052.jpg","https://xcimg.szwego.com/img/1a8dcad8/20260514/a1778770870730_2748.jpg","https://xcimg.szwego.com/img/1a8dcad8/20260514/a1778770870253_7468.jpg"],"created_at":"2026-05-20T03:16:24.156Z"},{"id":"item-62bbb92ac99b","sku":"_drkrkdnzasr3IEe39QjWxm51c0XNvfoUmK3EHqA","name_en":"Celine Women Bags","name_cn":"笑脸包黑鳄鱼纹上线🖤","specs":{"source":"wsxcme","sourceId":"_drkrkdnzasr3IEe39QjWxm51c0XNvfoUmK3EHqA","sourceTagId":47003106,"sourceTagName":"塞琳/女包","rawTitle":"笑脸包黑鳄鱼纹上线🖤"},"price":null,"currency":"CNY","moq":1,"category":"celine-women-bags","status":"active","alibaba_url":null,"images":["https://xcimg.szwego.com/img/77bdff09/20260509/i1778298751946_7559_0_0.jpg","https://xcimg.szwego.com/img/77bdff09/20260509/i1778298751945_8428_0_1.jpg","https://xcimg.szwego.com/img/77bdff09/20260509/i1778298751946_4187_0_2.jpg"],"created_at":"2026-05-20T03:16:24.146Z"},{"id":"item-c79900e59bc7","sku":"_dYkYkp2P8Rh3LXXRb2khzR-_r0ckomkqT8pUd8g","name_en":"Celine Women Bags","name_cn":"新品上线26春季系列全新笑脸包\nCE笑脸包焕新回归!\nCE PRINTEMPS 2026春季系列!\nNEW LAGE\n记忆中的经典,焕新登场!\n轻盈的材质,摩登的线条\n依旧是那个辨识度拉满的It Bag!\n尽显简约利落的摩登气质。新任创意总监Michael Rider惊喜回\n归,柔滑细腻且富有光泽的皮革,背缝工艺和滚边设计塑造出柔\n和圆润的横版轮廓,侧面拉链设计呈现独特的微笑弧度,巧妙呼\n应这一美名。通过现代廓形重释经典设计,整体更加轻便百\n搭,呈现优雅又随性的风格!\n款号: 124213\n尺寸:袋口36.5x12x19cm","specs":{"source":"wsxcme","sourceId":"_dYkYkp2P8Rh3LXXRb2khzR-_r0ckomkqT8pUd8g","sourceTagId":47003106,"sourceTagName":"塞琳/女包","modelNumber":"124213","rawTitle":"新品上线26春季系列全新笑脸包\nCE笑脸包焕新回归!\nCE PRINTEMPS 2026春季系列!\nNEW LAGE\n记忆中的经典,焕新登场!\n轻盈的材质,摩登的线条\n依旧是那个辨识度拉满的It Bag!\n尽显简约利落的摩登气质。新任创意总监Michael Rider惊喜回\n归,柔滑细腻且富有光泽的皮革,背缝工艺和滚边设计塑造出柔\n和圆润的横版轮廓,侧面拉链设计呈现独特的微笑弧度,巧妙呼\n应这一美名。通过现代廓形重释经典设计,整体更加轻便百\n搭,呈现优雅又随性的风格!\n款号: 124213\n尺寸:袋口36.5x12x19cm"},"price":null,"currency":"CNY","moq":1,"category":"celine-women-bags","status":"active","alibaba_url":null,"images":["https://xcimg.szwego.com/img/77bdff09/20260509/i1778298739605_7925_0_0.jpg","https://xcimg.szwego.com/img/77bdff09/20260509/i1778298739466_8530_0_1.jpg","https://xcimg.szwego.com/img/77bdff09/20260509/i1778298739530_9431_0_2.jpg","https://xcimg.szwego.com/img/77bdff09/20260509/i1778298740283_9253_0_3.jpg","https://xcimg.szwego.com/img/77bdff09/20260509/i1778298740171_2784_0_4.jpg","https://xcimg.szwego.com/img/77bdff09/20260509/i1778298740349_2742_0_5.jpg","https://xcimg.szwego.com/img/77bdff09/20260509/i1778298739561_8872_0_6.jpg","https://xcimg.szwego.com/img/77bdff09/20260509/i1778298739446_5622_0_7.jpg"],"created_at":"2026-05-20T03:16:24.136Z"},{"id":"item-967263e9ddb9","sku":"_doIoIBMO7PYKW_yuLJGsnLTAvrPP0EhCqtTLsiw","name_en":"Celine Women Bags","name_cn":"新色驾到💛","specs":{"source":"wsxcme","sourceId":"_doIoIBMO7PYKW_yuLJGsnLTAvrPP0EhCqtTLsiw","sourceTagId":47003106,"sourceTagName":"塞琳/女包","rawTitle":"新色驾到💛"},"price":null,"currency":"CNY","moq":1,"category":"celine-women-bags","status":"active","alibaba_url":null,"images":["https://xcimg.szwego.com/img/77bdff09/20260509/i1778298722018_4259_0_0.jpg","https://xcimg.szwego.com/img/77bdff09/20260509/i1778298722018_3297_0_1.jpg","https://xcimg.szwego.com/img/77bdff09/20260509/i1778298722017_5546_0_2.jpg","https://xcimg.szwego.com/img/77bdff09/20260509/i1778298722113_5868_0_3.jpg"],"created_at":"2026-05-20T03:16:24.126Z"},{"id":"item-d179ec185f56","sku":"_di6i6QkPxYVV2zsZSCZe1_UCu3m5geFLArQ70GA","name_en":"Celine Women Bags","name_cn":"新品上线26春季系列全新笑脸包\nCE笑脸包焕新回归!\nCE PRINTEMPS 2026春季系列!\nNEW LAGE\n记忆中的经典,焕新登场!\n轻盈的材质,摩登的线条\n依旧是那个辨识度拉满的It Bag!\n尽显简约利落的摩登气质。新任创意总监Michael Rider惊喜回\n归,柔滑细腻且富有光泽的皮革,背缝工艺和滚边设计塑造出柔\n和圆润的横版轮廓,侧面拉链设计呈现独特的微笑弧度,巧妙呼\n应这一美名。通过现代廓形重释经典设计,整体更加轻便百\n搭,呈现优雅又随性的风格!\n款号: 124213\n尺寸:袋口36.5x12x19cm","specs":{"source":"wsxcme","sourceId":"_di6i6QkPxYVV2zsZSCZe1_UCu3m5geFLArQ70GA","sourceTagId":47003106,"sourceTagName":"塞琳/女包","modelNumber":"124213","rawTitle":"新品上线26春季系列全新笑脸包\nCE笑脸包焕新回归!\nCE PRINTEMPS 2026春季系列!\nNEW LAGE\n记忆中的经典,焕新登场!\n轻盈的材质,摩登的线条\n依旧是那个辨识度拉满的It Bag!\n尽显简约利落的摩登气质。新任创意总监Michael Rider惊喜回\n归,柔滑细腻且富有光泽的皮革,背缝工艺和滚边设计塑造出柔\n和圆润的横版轮廓,侧面拉链设计呈现独特的微笑弧度,巧妙呼\n应这一美名。通过现代廓形重释经典设计,整体更加轻便百\n搭,呈现优雅又随性的风格!\n款号: 124213\n尺寸:袋口36.5x12x19cm"},"price":null,"currency":"CNY","moq":1,"category":"celine-women-bags","status":"active","alibaba_url":null,"images":["https://xcimg.szwego.com/img/77bdff09/20260509/i1778298704514_5024_0_0.jpg","https://xcimg.szwego.com/img/77bdff09/20260509/i1778298704483_8349_0_1.jpg","https://xcimg.szwego.com/img/77bdff09/20260509/i1778298705489_7590_0_2.jpg","https://xcimg.szwego.com/img/77bdff09/20260509/i1778298705428_4108_0_3.jpg","https://xcimg.szwego.com/img/77bdff09/20260509/i1778298704242_5788_0_4.jpg","https://xcimg.szwego.com/img/77bdff09/20260509/i1778298704535_8335_0_5.jpg","https://xcimg.szwego.com/img/77bdff09/20260509/i1778298705410_173_0_6.jpg","https://xcimg.szwego.com/img/77bdff09/20260509/i1778298704393_8055_0_7.jpg"],"created_at":"2026-05-20T03:16:24.116Z"},{"id":"item-fe05910e9901","sku":"_ddMdMebDBLhmyKTrrR7TSHRt514_JFitMS2gpzQ","name_en":"Celine Women Bags","name_cn":"💛","specs":{"source":"wsxcme","sourceId":"_ddMdMebDBLhmyKTrrR7TSHRt514_JFitMS2gpzQ","sourceTagId":47003106,"sourceTagName":"塞琳/女包","rawTitle":"💛"},"price":null,"currency":"CNY","moq":1,"category":"celine-women-bags","status":"active","alibaba_url":null,"images":["https://xcimg.szwego.com/img/77bdff09/20260509/i1778298031779_7366_0_0.jpg","https://xcimg.szwego.com/img/77bdff09/20260509/i1778298031779_4781_0_1.jpg","https://xcimg.szwego.com/img/77bdff09/20260509/i1778298031779_4462_0_2.jpg"],"created_at":"2026-05-20T03:16:24.106Z"},{"id":"item-55fe2e127994","sku":"_deqeqEdy6LZf9DG4omHpiVebp1ZlCJzSxVHcS3g","name_en":"Celine Women Bags","name_cn":"新品上线🅰️🅰️ 26春季系列全新笑脸包👛\n😐变🙂,CE笑脸包焕新回归!\nCE PRINTEMPS 2026春季系列!\nNEW LUGGAGE新版笑脸包\n记忆中的经典,焕新登场!\n👜轻盈的材质,摩登的线条\n依旧是那个辨识度拉满的It Bag!\n尽显简约利落的摩登气质。新任创意总监 Michael Rider 在2026春季首秀上让“笑脸包”惊喜回归,柔滑细腻且富有光泽的皮革,背缝工艺和滚边设计塑造出柔和圆润的横版轮廓,侧面拉链设计呈现独特的微笑弧度,巧妙呼应“笑脸包”这一美名。通过现代廓形重释经典设计,整体更加轻便百搭,呈现优雅又随性的风格!\n款号:123693\n尺寸:底部36x22x16cm\n袋口56cm","specs":{"source":"wsxcme","sourceId":"_deqeqEdy6LZf9DG4omHpiVebp1ZlCJzSxVHcS3g","sourceTagId":47003106,"sourceTagName":"塞琳/女包","modelNumber":"123693","rawTitle":"新品上线🅰️🅰️ 26春季系列全新笑脸包👛\n😐变🙂,CE笑脸包焕新回归!\nCE PRINTEMPS 2026春季系列!\nNEW LUGGAGE新版笑脸包\n记忆中的经典,焕新登场!\n👜轻盈的材质,摩登的线条\n依旧是那个辨识度拉满的It Bag!\n尽显简约利落的摩登气质。新任创意总监 Michael Rider 在2026春季首秀上让“笑脸包”惊喜回归,柔滑细腻且富有光泽的皮革,背缝工艺和滚边设计塑造出柔和圆润的横版轮廓,侧面拉链设计呈现独特的微笑弧度,巧妙呼应“笑脸包”这一美名。通过现代廓形重释经典设计,整体更加轻便百搭,呈现优雅又随性的风格!\n款号:123693\n尺寸:底部36x22x16cm\n袋口56cm"},"price":null,"currency":"CNY","moq":1,"category":"celine-women-bags","status":"active","alibaba_url":null,"images":["https://xcimg.szwego.com/img/77bdff09/20260509/i1778297814810_322_0_0.jpg","https://xcimg.szwego.com/img/77bdff09/20260509/i1778297812560_1459_0_1.jpg","https://xcimg.szwego.com/img/77bdff09/20260509/i1778297812514_6016_0_2.jpg","https://xcimg.szwego.com/img/77bdff09/20260509/i1778297814831_5269_0_3.jpg","https://xcimg.szwego.com/img/77bdff09/20260509/i1778297812574_3705_0_4.jpg","https://xcimg.szwego.com/img/77bdff09/20260509/i1778297812311_6464_0_5.jpg","https://xcimg.szwego.com/img/77bdff09/20260509/i1778297812556_5700_0_6.jpg","https://xcimg.szwego.com/img/77bdff09/20260509/i1778297814853_3472_0_7.jpg"],"created_at":"2026-05-20T03:16:24.096Z"},{"id":"item-763c5ad973c3","sku":"_do7o7u1Xs8V6i-yhaUvXDcipKsUselbiqhTsFpQ","name_en":"Celine Women Bags","name_cn":"新品上线🅰️🅰️ 26春季系列全新笑脸包👛\n😐变🙂,CE笑脸包焕新回归!\nCE PRINTEMPS 2026春季系列!\nNEW LUGGAGE新版笑脸包\n记忆中的经典,焕新登场!\n👜轻盈的材质,摩登的线条\n依旧是那个辨识度拉满的It Bag!\n尽显简约利落的摩登气质。新任创意总监 Michael Rider 在2026春季首秀上让“笑脸包”惊喜回归,柔滑细腻且富有光泽的皮革,背缝工艺和滚边设计塑造出柔和圆润的横版轮廓,侧面拉链设计呈现独特的微笑弧度,巧妙呼应“笑脸包”这一美名。通过现代廓形重释经典设计,整体更加轻便百搭,呈现优雅又随性的风格!\n款号:123693\n尺寸:底部36x22x16cm\n袋口56cm","specs":{"source":"wsxcme","sourceId":"_do7o7u1Xs8V6i-yhaUvXDcipKsUselbiqhTsFpQ","sourceTagId":47003106,"sourceTagName":"塞琳/女包","modelNumber":"123693","rawTitle":"新品上线🅰️🅰️ 26春季系列全新笑脸包👛\n😐变🙂,CE笑脸包焕新回归!\nCE PRINTEMPS 2026春季系列!\nNEW LUGGAGE新版笑脸包\n记忆中的经典,焕新登场!\n👜轻盈的材质,摩登的线条\n依旧是那个辨识度拉满的It Bag!\n尽显简约利落的摩登气质。新任创意总监 Michael Rider 在2026春季首秀上让“笑脸包”惊喜回归,柔滑细腻且富有光泽的皮革,背缝工艺和滚边设计塑造出柔和圆润的横版轮廓,侧面拉链设计呈现独特的微笑弧度,巧妙呼应“笑脸包”这一美名。通过现代廓形重释经典设计,整体更加轻便百搭,呈现优雅又随性的风格!\n款号:123693\n尺寸:底部36x22x16cm\n袋口56cm"},"price":null,"currency":"CNY","moq":1,"category":"celine-women-bags","status":"active","alibaba_url":null,"images":["https://xcimg.szwego.com/img/77bdff09/20260509/i1778297795717_4771_0_0.jpg","https://xcimg.szwego.com/img/77bdff09/20260509/i1778297797998_8970_0_1.jpg","https://xcimg.szwego.com/img/77bdff09/20260509/i1778297795751_9295_0_2.jpg","https://xcimg.szwego.com/img/77bdff09/20260509/i1778297798023_9244_0_3.jpg","https://xcimg.szwego.com/img/77bdff09/20260509/i1778297797926_2260_0_4.jpg","https://xcimg.szwego.com/img/77bdff09/20260509/i1778297795477_9787_0_5.jpg","https://xcimg.szwego.com/img/77bdff09/20260509/i1778297795678_8943_0_6.jpg","https://xcimg.szwego.com/img/77bdff09/20260509/i1778297795625_6808_0_7.jpg"],"created_at":"2026-05-20T03:16:24.086Z"},{"id":"item-308983071abc","sku":"_dq-q-Ijk2AJ_dD30JWgiIeLGiZhhmAl-qRsomRA","name_en":"Celine Women Bags","name_cn":"新品上线🅰️🅰️ 26春季系列全新笑脸包👛\n😐变🙂,CE笑脸包焕新回归!\nCE PRINTEMPS 2026春季系列!\nNEW LUGGAGE新版笑脸包\n记忆中的经典,焕新登场!\n👜轻盈的材质,摩登的线条\n依旧是那个辨识度拉满的It Bag!\n尽显简约利落的摩登气质。新任创意总监 Michael Rider 在2026春季首秀上让“笑脸包”惊喜回归,柔滑细腻且富有光泽的皮革,背缝工艺和滚边设计塑造出柔和圆润的横版轮廓,侧面拉链设计呈现独特的微笑弧度,巧妙呼应“笑脸包”这一美名。通过现代廓形重释经典设计,整体更加轻便百搭,呈现优雅又随性的风格!\n款号:123693\n尺寸:底部36x22x16cm\n袋口56cm","specs":{"source":"wsxcme","sourceId":"_dq-q-Ijk2AJ_dD30JWgiIeLGiZhhmAl-qRsomRA","sourceTagId":47003106,"sourceTagName":"塞琳/女包","modelNumber":"123693","rawTitle":"新品上线🅰️🅰️ 26春季系列全新笑脸包👛\n😐变🙂,CE笑脸包焕新回归!\nCE PRINTEMPS 2026春季系列!\nNEW LUGGAGE新版笑脸包\n记忆中的经典,焕新登场!\n👜轻盈的材质,摩登的线条\n依旧是那个辨识度拉满的It Bag!\n尽显简约利落的摩登气质。新任创意总监 Michael Rider 在2026春季首秀上让“笑脸包”惊喜回归,柔滑细腻且富有光泽的皮革,背缝工艺和滚边设计塑造出柔和圆润的横版轮廓,侧面拉链设计呈现独特的微笑弧度,巧妙呼应“笑脸包”这一美名。通过现代廓形重释经典设计,整体更加轻便百搭,呈现优雅又随性的风格!\n款号:123693\n尺寸:底部36x22x16cm\n袋口56cm"},"price":null,"currency":"CNY","moq":1,"category":"celine-women-bags","status":"active","alibaba_url":null,"images":["https://xcimg.szwego.com/img/77bdff09/20260509/i1778297776678_14_0_0.jpg","https://xcimg.szwego.com/img/77bdff09/20260509/i1778297779505_7078_0_1.jpg","https://xcimg.szwego.com/img/77bdff09/20260509/i1778297776629_9056_0_2.jpg","https://xcimg.szwego.com/img/77bdff09/20260509/i1778297776619_4388_0_3.jpg","https://xcimg.szwego.com/img/77bdff09/20260509/i1778297776698_722_0_4.jpg","https://xcimg.szwego.com/img/77bdff09/20260509/i1778297779425_6117_0_5.jpg","https://xcimg.szwego.com/img/77bdff09/20260509/i1778297779526_3739_0_6.jpg","https://xcimg.szwego.com/img/77bdff09/20260509/i1778297776650_4800_0_7.jpg"],"created_at":"2026-05-20T03:16:24.076Z"},{"id":"item-07c6bfda800f","sku":"_dgqgqoup0MehnRuAMvwRDOjX-aE6joG0_IYP2Zw","name_en":"Celine Women Bags","name_cn":"新品上线🅰️🅰️ 26春季系列全新笑脸包👛\n😐变🙂,CE笑脸包焕新回归!\nCE PRINTEMPS 2026春季系列!\nNEW LUGGAGE新版笑脸包\n记忆中的经典,焕新登场!\n👜轻盈的材质,摩登的线条\n依旧是那个辨识度拉满的It Bag!\n尽显简约利落的摩登气质。新任创意总监 Michael Rider 在2026春季首秀上让“笑脸包”惊喜回归,柔滑细腻且富有光泽的皮革,背缝工艺和滚边设计塑造出柔和圆润的横版轮廓,侧面拉链设计呈现独特的微笑弧度,巧妙呼应“笑脸包”这一美名。通过现代廓形重释经典设计,整体更加轻便百搭,呈现优雅又随性的风格!\n款号:123693\n尺寸:底部36x22x16cm\n袋口56cm","specs":{"source":"wsxcme","sourceId":"_dgqgqoup0MehnRuAMvwRDOjX-aE6joG0_IYP2Zw","sourceTagId":47003106,"sourceTagName":"塞琳/女包","modelNumber":"123693","rawTitle":"新品上线🅰️🅰️ 26春季系列全新笑脸包👛\n😐变🙂,CE笑脸包焕新回归!\nCE PRINTEMPS 2026春季系列!\nNEW LUGGAGE新版笑脸包\n记忆中的经典,焕新登场!\n👜轻盈的材质,摩登的线条\n依旧是那个辨识度拉满的It Bag!\n尽显简约利落的摩登气质。新任创意总监 Michael Rider 在2026春季首秀上让“笑脸包”惊喜回归,柔滑细腻且富有光泽的皮革,背缝工艺和滚边设计塑造出柔和圆润的横版轮廓,侧面拉链设计呈现独特的微笑弧度,巧妙呼应“笑脸包”这一美名。通过现代廓形重释经典设计,整体更加轻便百搭,呈现优雅又随性的风格!\n款号:123693\n尺寸:底部36x22x16cm\n袋口56cm"},"price":null,"currency":"CNY","moq":1,"category":"celine-women-bags","status":"active","alibaba_url":null,"images":["https://xcimg.szwego.com/img/77bdff09/20260509/i1778297763313_3895_0_0.jpg","https://xcimg.szwego.com/img/77bdff09/20260509/i1778297763324_4467_0_1.jpg","https://xcimg.szwego.com/img/77bdff09/20260509/i1778297773101_7271_0_2.jpg","https://xcimg.szwego.com/img/77bdff09/20260509/i1778297763316_5818_0_3.jpg","https://xcimg.szwego.com/img/77bdff09/20260509/i1778297754656_6295_0_4.jpg","https://xcimg.szwego.com/img/77bdff09/20260509/i1778297754747_4159_0_5.jpg","https://xcimg.szwego.com/img/77bdff09/20260509/i1778297763265_4289_0_6.jpg","https://xcimg.szwego.com/img/77bdff09/20260509/i1778297763234_6482_0_7.jpg"],"created_at":"2026-05-20T03:16:24.066Z"},{"id":"item-5aaded123798","sku":"_deReRAG7o_L0umEPJ2AikHyWY6AZJl-xv1HSOLQ","name_en":"DOCTOR POUCH手袋 💯全钢五金!!️","name_cn":"DOCTOR POUCH手袋 💯全钢五金!!️\n编号:L104J3","specs":{"source":"wsxcme","sourceId":"_deReRAG7o_L0umEPJ2AikHyWY6AZJl-xv1HSOLQ","sourceTagId":47003106,"sourceTagName":"塞琳/女包","rawTitle":"DOCTOR POUCH手袋 💯全钢五金!!️\n编号:L104J3"},"price":null,"currency":"CNY","moq":1,"category":"celine-women-bags","status":"active","alibaba_url":null,"images":["https://xcimg.szwego.com/img/34b30588/20260425/i1777057663107_8675_0_0.jpg","https://xcimg.szwego.com/img/34b30588/20260425/i1777057663539_6457_0_1.jpg","https://xcimg.szwego.com/img/34b30588/20260425/i1777057663499_9079_0_2.jpg","https://xcimg.szwego.com/img/34b30588/20260425/i1777057663518_1164_0_3.jpg"],"created_at":"2026-05-20T03:16:24.056Z"},{"id":"item-2c5467b2b4e3","sku":"_du6u6sNjEu2ozaqfD-6I3XHV-n1IB7dBKUMUyWA","name_en":"DOCTOR POUCH手袋 💯全钢五金!!️","name_cn":"DOCTOR POUCH手袋 💯全钢五金!!️\n编号:L104J3","specs":{"source":"wsxcme","sourceId":"_du6u6sNjEu2ozaqfD-6I3XHV-n1IB7dBKUMUyWA","sourceTagId":47003106,"sourceTagName":"塞琳/女包","rawTitle":"DOCTOR POUCH手袋 💯全钢五金!!️\n编号:L104J3"},"price":null,"currency":"CNY","moq":1,"category":"celine-women-bags","status":"active","alibaba_url":null,"images":["https://xcimg.szwego.com/img/34b30588/20260425/i1777057597041_8298_0_0.jpg","https://xcimg.szwego.com/img/34b30588/20260425/i1777057596478_2743_0_1.jpg","https://xcimg.szwego.com/img/34b30588/20260425/i1777057596479_7690_0_2.jpg","https://xcimg.szwego.com/img/34b30588/20260425/i1777057597042_9077_0_3.jpg","https://xcimg.szwego.com/img/34b30588/20260425/i1777057597043_963_0_4.jpg","https://xcimg.szwego.com/img/34b30588/20260425/i1777057597045_9775_0_5.jpg","https://xcimg.szwego.com/img/34b30588/20260425/i1777057596480_7047_0_6.jpg","https://xcimg.szwego.com/img/34b30588/20260425/i1777057596480_7265_0_7.jpg","https://xcimg.szwego.com/img/34b30588/20260425/i1777057596481_9716_0_8.jpg"],"created_at":"2026-05-20T03:16:24.046Z"},{"id":"item-6752350c20bb","sku":"_dXtXtwD9sgt0rIwffTUpQLK7IazE6IG1vKY9XBg","name_en":"DOCTOR POUCH手袋 💯全钢五金!!️","name_cn":"DOCTOR POUCH手袋 💯全钢五金!!️\n牛皮革\n牛剖层革衬里\n金色饰面\n手提、肩背\n1个主隔层\n1个内侧扁平口袋\n可拆卸腕带,长度(29厘米)\n尺寸:(35 X 18 X 18厘米)\n编号:L104J3","specs":{"source":"wsxcme","sourceId":"_dXtXtwD9sgt0rIwffTUpQLK7IazE6IG1vKY9XBg","sourceTagId":47003106,"sourceTagName":"塞琳/女包","rawTitle":"DOCTOR POUCH手袋 💯全钢五金!!️\n牛皮革\n牛剖层革衬里\n金色饰面\n手提、肩背\n1个主隔层\n1个内侧扁平口袋\n可拆卸腕带,长度(29厘米)\n尺寸:(35 X 18 X 18厘米)\n编号:L104J3"},"price":null,"currency":"CNY","moq":1,"category":"celine-women-bags","status":"active","alibaba_url":null,"images":["https://xcimg.szwego.com/img/34b30588/20260425/i1777057486343_2708_0_0.jpg","https://xcimg.szwego.com/img/34b30588/20260425/i1777057487459_5936_0_1.jpg","https://xcimg.szwego.com/img/34b30588/20260425/i1777057487434_8010_0_2.jpg","https://xcimg.szwego.com/img/34b30588/20260425/i1777057486339_7195_0_3.jpg","https://xcimg.szwego.com/img/34b30588/20260425/i1777057486379_7676_0_4.jpg","https://xcimg.szwego.com/img/34b30588/20260425/i1777057449496_8293_0_6.jpg","https://xcimg.szwego.com/img/34b30588/20260425/i1777057450678_4885_0_8.jpg","https://xcimg.szwego.com/img/34b30588/20260425/i1777057486298_1202_0_7.jpg","https://xcimg.szwego.com/img/34b30588/20260425/i1777057486331_4620_0_8.jpg"],"created_at":"2026-05-20T03:16:24.036Z"}],"page":79,"pageSize":24,"total":10075,"totalPages":420}
