{"items":[{"id":"item-e1dfc0239d64","sku":"_dt8t8wrk_R9Ll0g-8PhMaKha0PTEfjTQfFi3-CA","name_en":"Burberry Women Bags","name_cn":"上身参考 鳄鱼纹的皮面自带高级感!而且大小刚好 配有长肩带实用 多种用法!","specs":{"source":"wsxcme","sourceId":"_dt8t8wrk_R9Ll0g-8PhMaKha0PTEfjTQfFi3-CA","sourceTagId":80411239,"sourceTagName":"巴宝莉/女包","rawTitle":"上身参考 鳄鱼纹的皮面自带高级感!而且大小刚好 配有长肩带实用 多种用法!"},"price":null,"currency":"CNY","moq":1,"category":"burberry-women-bags","status":"active","alibaba_url":null,"images":["https://xcimg.szwego.com/img/044b8f29/20241220/i1734681801_1605_8.jpg","https://xcimg.szwego.com/img/044b8f29/20241220/i1734681801_6001_4.jpg","https://xcimg.szwego.com/img/044b8f29/20241220/i1734681801_806_1.jpg","https://xcimg.szwego.com/img/044b8f29/20241220/i1734681801_6437_2.jpg","https://xcimg.szwego.com/img/044b8f29/20241220/i1734681801_920_7.jpg","https://xcimg.szwego.com/img/044b8f29/20241220/i1734681801_8155_3.jpg","https://xcimg.szwego.com/img/044b8f29/20241220/i1734681801_1213_5.jpg","https://xcimg.szwego.com/img/044b8f29/20241220/i1734681801_2927_6.jpg","https://xcimg.szwego.com/img/044b8f29/20241220/i1734681801_3349_0.jpg"],"created_at":"2026-06-29T10:27:58.872Z"},{"id":"item-037135633882","sku":"_domomqtaPUvmOq_69tsLjlp-jaXofXxlSYeOUTw","name_en":"Burberry Women Bags","name_cn":"原版定制牛皮鳄鱼纹,\n专柜一致的皮料,软软绵绵的很舒服!","specs":{"source":"wsxcme","sourceId":"_domomqtaPUvmOq_69tsLjlp-jaXofXxlSYeOUTw","sourceTagId":80411239,"sourceTagName":"巴宝莉/女包","rawTitle":"原版定制牛皮鳄鱼纹,\n专柜一致的皮料,软软绵绵的很舒服!"},"price":null,"currency":"CNY","moq":1,"category":"burberry-women-bags","status":"active","alibaba_url":null,"images":["https://xcimg.szwego.com/img/044b8f29/20241220/i1734681516_3224_0.jpg","https://xcimg.szwego.com/img/044b8f29/20241220/i1734681516_5253_2.jpg","https://xcimg.szwego.com/img/044b8f29/20241220/i1734681516_9185_1.jpg","https://xcimg.szwego.com/img/044b8f29/20241220/i1734681516_5791_5.jpg","https://xcimg.szwego.com/img/044b8f29/20241220/i1734681516_1717_3.jpg","https://xcimg.szwego.com/img/044b8f29/20241220/i1734681516_8454_4.jpg"],"created_at":"2026-06-29T10:27:58.862Z"},{"id":"item-64087fa39db3","sku":"_d3737pb-BMkpaCsg_wJ1xFr4YE9vw8-Nb9rM5SA","name_en":"Burberry Women Bags","name_cn":"实拍,\n24款 Rocking Horse手袋\n一款结构柔软的手提袋,\n鳄鱼皮压纹牛皮,内衬是柔软麂皮,\n打造出奢华又内敛的质感。\n特点是”b”字母的closure, \n以及背后EKD的压纹印花 这款包包实用性强,可以当作tote bag, \n同时有可拆卸可调节长度的肩带来当作crossbody.\n日常通勤 见客户或者出席活动都可以用到的一只包!","specs":{"source":"wsxcme","sourceId":"_d3737pb-BMkpaCsg_wJ1xFr4YE9vw8-Nb9rM5SA","sourceTagId":80411239,"sourceTagName":"巴宝莉/女包","rawTitle":"实拍,\n24款 Rocking Horse手袋\n一款结构柔软的手提袋,\n鳄鱼皮压纹牛皮,内衬是柔软麂皮,\n打造出奢华又内敛的质感。\n特点是”b”字母的closure, \n以及背后EKD的压纹印花 这款包包实用性强,可以当作tote bag, \n同时有可拆卸可调节长度的肩带来当作crossbody.\n日常通勤 见客户或者出席活动都可以用到的一只包!"},"price":null,"currency":"CNY","moq":1,"category":"burberry-women-bags","status":"active","alibaba_url":null,"images":["https://xcimg.szwego.com/img/044b8f29/20241220/i1734681342_4709_3.jpg","https://xcimg.szwego.com/img/044b8f29/20241220/i1734681342_9276_1.jpg","https://xcimg.szwego.com/img/044b8f29/20241220/i1734681342_8716_2.jpg","https://xcimg.szwego.com/img/044b8f29/20241220/i1734681342_8094_4.jpg","https://xcimg.szwego.com/img/044b8f29/20241220/i1734681342_107_5.jpg","https://xcimg.szwego.com/img/044b8f29/20241220/i1734681342_2855_0.jpg","https://xcimg.szwego.com/img/044b8f29/20241220/i1734681342_1718_6.jpg","https://xcimg.szwego.com/img/044b8f29/20241220/i1734681342_856_8.jpg","https://xcimg.szwego.com/img/044b8f29/20241220/i1734681342_5503_7.jpg"],"created_at":"2026-06-29T10:27:58.852Z"},{"id":"item-44982477aa09","sku":"_dr9r9gRH-emXdiV1OynaqAR7h21Rnvu-ymZ5I-w","name_en":"更这个 莞产的bbr鳄鱼纹ROCKING HORSE TOTE 手袋 小号","name_cn":"更这个 莞产的bbr鳄鱼纹ROCKING HORSE TOTE 手袋 小号","specs":{"source":"wsxcme","sourceId":"_dr9r9gRH-emXdiV1OynaqAR7h21Rnvu-ymZ5I-w","sourceTagId":80411239,"sourceTagName":"巴宝莉/女包","rawTitle":"更这个 莞产的bbr鳄鱼纹ROCKING HORSE TOTE 手袋 小号"},"price":null,"currency":"CNY","moq":1,"category":"burberry-women-bags","status":"active","alibaba_url":null,"images":["https://xcimg.szwego.com/img/044b8f29/20241220/i1734681247_1897_0.jpg"],"created_at":"2026-06-29T10:27:58.842Z"},{"id":"item-bf5a7a428c86","sku":"_d9090veBAyel7z_zovqe7OyyEE1sCqbsYP5WSNQ","name_en":"Burberry Women Bags","name_cn":"上身图","specs":{"source":"wsxcme","sourceId":"_d9090veBAyel7z_zovqe7OyyEE1sCqbsYP5WSNQ","sourceTagId":80411239,"sourceTagName":"巴宝莉/女包","rawTitle":"上身图"},"price":null,"currency":"CNY","moq":1,"category":"burberry-women-bags","status":"active","alibaba_url":null,"images":["https://xcimg.szwego.com/img/d5e7a5ce/20250530/a1748583607234_5748.jpg","https://xcimg.szwego.com/img/d5e7a5ce/20250530/a1748583607385_7272.jpg","https://xcimg.szwego.com/img/d5e7a5ce/20250530/a1748583607311_6842.jpg","https://xcimg.szwego.com/img/d5e7a5ce/20250530/a1748583607237_2575.jpg","https://xcimg.szwego.com/img/d5e7a5ce/20250530/a1748583607240_8643.jpg","https://xcimg.szwego.com/img/d5e7a5ce/20250530/a1748583607243_8621.jpg","https://xcimg.szwego.com/img/d5e7a5ce/20250530/a1748583607982_4528.jpg","https://xcimg.szwego.com/img/d5e7a5ce/20250530/a1748583607981_1724.jpg","https://xcimg.szwego.com/img/d5e7a5ce/20250530/a1748583607983_0406.jpg"],"created_at":"2026-06-29T10:27:58.832Z"},{"id":"item-8791cba43b5b","sku":"_d4242Ij-4pEmSlBNlvF_UQEPVIHhA8tSq6oZczQ","name_en":"Burberry Women Bags","name_cn":"上身图","specs":{"source":"wsxcme","sourceId":"_d4242Ij-4pEmSlBNlvF_UQEPVIHhA8tSq6oZczQ","sourceTagId":80411239,"sourceTagName":"巴宝莉/女包","rawTitle":"上身图"},"price":null,"currency":"CNY","moq":1,"category":"burberry-women-bags","status":"active","alibaba_url":null,"images":["https://xcimg.szwego.com/img/d5e7a5ce/20250530/a1748583586617_8251.jpg","https://xcimg.szwego.com/img/d5e7a5ce/20250530/a1748583586696_7846.jpg","https://xcimg.szwego.com/img/d5e7a5ce/20250530/a1748583586624_6307.jpg","https://xcimg.szwego.com/img/d5e7a5ce/20250530/a1748583586665_6244.jpg","https://xcimg.szwego.com/img/d5e7a5ce/20250530/a1748583586631_7317.jpg","https://xcimg.szwego.com/img/d5e7a5ce/20250530/a1748583586659_7323.jpg","https://xcimg.szwego.com/img/d5e7a5ce/20250530/a1748583587461_4443.jpg","https://xcimg.szwego.com/img/d5e7a5ce/20250530/a1748583587495_8686.jpg","https://xcimg.szwego.com/img/d5e7a5ce/20250530/a1748583587451_3730.jpg"],"created_at":"2026-06-29T10:27:58.822Z"},{"id":"item-5eccf031218f","sku":"_dwQwQmDrCSCSRMT2YuEV4VSQROJbv9b4DpveSRg","name_en":"Burberry Women Bags","name_cn":"官网图","specs":{"source":"wsxcme","sourceId":"_dwQwQmDrCSCSRMT2YuEV4VSQROJbv9b4DpveSRg","sourceTagId":80411239,"sourceTagName":"巴宝莉/女包","rawTitle":"官网图"},"price":null,"currency":"CNY","moq":1,"category":"burberry-women-bags","status":"active","alibaba_url":null,"images":["https://xcimg.szwego.com/img/d5e7a5ce/20250530/a1748583578278_2063.jpg","https://xcimg.szwego.com/img/d5e7a5ce/20250530/a1748583578239_2228.jpg","https://xcimg.szwego.com/img/d5e7a5ce/20250530/a1748583578259_8068.jpg","https://xcimg.szwego.com/img/d5e7a5ce/20250530/a1748583578260_6255.jpg","https://xcimg.szwego.com/img/d5e7a5ce/20250530/a1748583578279_8526.jpg","https://xcimg.szwego.com/img/d5e7a5ce/20250530/a1748583578274_0764.jpg"],"created_at":"2026-06-29T10:27:58.812Z"},{"id":"item-e8ff96a777f1","sku":"_dWyWyuFmDNG5pkw963OyrUqeROMeyte7VUhP64g","name_en":"P❤️B家最新柔软立挺的托特包,选用粒纹小牛皮面料打造。于意大利工坊精制而成,搭配麂皮内衬。融入品牌标志性b 宇型开合,光滑小牛皮裁片点缀马术骑士徽标(EKD)压花。采用","name_cn":"P❤️B家最新柔软立挺的托特包,选用粒纹小牛皮面料打造。于意大利工坊精制而成,搭配麂皮内衬。融入品牌标志性b 宇型开合,光滑小牛皮裁片点缀马术骑士徽标(EKD)压花。采用\n可拆\n式肩背带,自如切换手提包和肩背包造型\n后侧饰有马术骑士徽标 (EKD)压花\n尺寸 30 x 13x 24cm.","specs":{"source":"wsxcme","sourceId":"_dWyWyuFmDNG5pkw963OyrUqeROMeyte7VUhP64g","sourceTagId":80411239,"sourceTagName":"巴宝莉/女包","dimensions":{"lengthCm":30,"heightCm":13,"widthCm":24},"rawTitle":"P❤️B家最新柔软立挺的托特包,选用粒纹小牛皮面料打造。于意大利工坊精制而成,搭配麂皮内衬。融入品牌标志性b 宇型开合,光滑小牛皮裁片点缀马术骑士徽标(EKD)压花。采用\n可拆\n式肩背带,自如切换手提包和肩背包造型\n后侧饰有马术骑士徽标 (EKD)压花\n尺寸 30 x 13x 24cm."},"price":null,"currency":"CNY","moq":1,"category":"burberry-women-bags","status":"active","alibaba_url":null,"images":["https://xcimg.szwego.com/img/d5e7a5ce/20250530/a1748583528636_4036.jpg","https://xcimg.szwego.com/img/d5e7a5ce/20250530/a1748583528629_3011.jpg","https://xcimg.szwego.com/img/d5e7a5ce/20250530/a1748583528631_1720.jpg","https://xcimg.szwego.com/img/d5e7a5ce/20250530/a1748583528641_6867.jpg","https://xcimg.szwego.com/img/d5e7a5ce/20250530/a1748583529567_6660.jpg","https://xcimg.szwego.com/img/d5e7a5ce/20250530/a1748583528644_8254.jpg","https://xcimg.szwego.com/img/d5e7a5ce/20250530/a1748583529568_7016.jpg","https://xcimg.szwego.com/img/d5e7a5ce/20250530/a1748583529583_5216.jpg","https://xcimg.szwego.com/img/d5e7a5ce/20250530/a1748583535222_5758.jpg"],"created_at":"2026-06-29T10:27:58.802Z"},{"id":"item-b2f1a85236b8","sku":"_dd4d4kh2PR0qGl03YSwIE46ZE3A26wntNxMUnxw","name_en":"Burberry Women Bags","name_cn":"上身图","specs":{"source":"wsxcme","sourceId":"_dd4d4kh2PR0qGl03YSwIE46ZE3A26wntNxMUnxw","sourceTagId":80411239,"sourceTagName":"巴宝莉/女包","rawTitle":"上身图"},"price":null,"currency":"CNY","moq":1,"category":"burberry-women-bags","status":"active","alibaba_url":null,"images":["https://xcimg.szwego.com/img/d5e7a5ce/20250530/a1748583496460_7053.jpg","https://xcimg.szwego.com/img/d5e7a5ce/20250530/a1748583496440_0643.jpg","https://xcimg.szwego.com/img/d5e7a5ce/20250530/a1748583496432_6684.jpg","https://xcimg.szwego.com/img/d5e7a5ce/20250530/a1748583496455_6056.jpg","https://xcimg.szwego.com/img/d5e7a5ce/20250530/a1748583496484_5712.jpg","https://xcimg.szwego.com/img/d5e7a5ce/20250530/a1748583496481_5326.jpg","https://xcimg.szwego.com/img/d5e7a5ce/20250530/a1748583497053_8232.jpg","https://xcimg.szwego.com/img/d5e7a5ce/20250530/a1748583497072_7570.jpg","https://xcimg.szwego.com/img/d5e7a5ce/20250530/a1748583497055_1762.jpg"],"created_at":"2026-06-29T10:27:58.792Z"},{"id":"item-a1183b5527c8","sku":"_dKdKdLhnRd36q36YChkxZysAcg68Nzq8qSiDjCw","name_en":"Burberry Women Bags","name_cn":"巴宝莉/女包","specs":{"source":"wsxcme","sourceId":"_dKdKdLhnRd36q36YChkxZysAcg68Nzq8qSiDjCw","sourceTagId":80411239,"sourceTagName":"巴宝莉/女包","rawTitle":""},"price":null,"currency":"CNY","moq":1,"category":"burberry-women-bags","status":"active","alibaba_url":null,"images":["https://xcimg.szwego.com/img/d5e7a5ce/20250530/a1748583482251_6675.jpg"],"created_at":"2026-06-29T10:27:58.782Z"},{"id":"item-7f9d5fca0dc2","sku":"_d_B_Bx6JC_v27uuocaPOfYgn-Hakj8BEEf9n2qQ","name_en":"P❤️B家最新柔软立挺的托特包,选用粒纹小牛皮面料打造。于意大利工坊精制而成,搭配麂皮内衬。融入品牌标志性b 宇型开合,光滑小牛皮裁片点缀马术骑士徽标(EKD)压花。采用","name_cn":"P❤️B家最新柔软立挺的托特包,选用粒纹小牛皮面料打造。于意大利工坊精制而成,搭配麂皮内衬。融入品牌标志性b 宇型开合,光滑小牛皮裁片点缀马术骑士徽标(EKD)压花。采用\n可拆\n式肩背带,自如切换手提包和肩背包造型\n后侧饰有马术骑士徽标 (EKD)压花\n尺寸 30 x 13x 24cm.","specs":{"source":"wsxcme","sourceId":"_d_B_Bx6JC_v27uuocaPOfYgn-Hakj8BEEf9n2qQ","sourceTagId":80411239,"sourceTagName":"巴宝莉/女包","dimensions":{"lengthCm":30,"heightCm":13,"widthCm":24},"rawTitle":"P❤️B家最新柔软立挺的托特包,选用粒纹小牛皮面料打造。于意大利工坊精制而成,搭配麂皮内衬。融入品牌标志性b 宇型开合,光滑小牛皮裁片点缀马术骑士徽标(EKD)压花。采用\n可拆\n式肩背带,自如切换手提包和肩背包造型\n后侧饰有马术骑士徽标 (EKD)压花\n尺寸 30 x 13x 24cm."},"price":null,"currency":"CNY","moq":1,"category":"burberry-women-bags","status":"active","alibaba_url":null,"images":["https://xcimg.szwego.com/img/d5e7a5ce/20250530/a1748583432827_0603.jpg","https://xcimg.szwego.com/img/d5e7a5ce/20250530/a1748583432834_3774.jpg","https://xcimg.szwego.com/img/d5e7a5ce/20250530/a1748583432835_3402.jpg","https://xcimg.szwego.com/img/d5e7a5ce/20250530/a1748583432833_7715.jpg","https://xcimg.szwego.com/img/d5e7a5ce/20250530/a1748583432832_6340.jpg","https://xcimg.szwego.com/img/d5e7a5ce/20250530/a1748583432841_4748.jpg","https://xcimg.szwego.com/img/d5e7a5ce/20250530/a1748583433539_7260.jpg","https://xcimg.szwego.com/img/d5e7a5ce/20250530/a1748583433623_2323.jpg","https://xcimg.szwego.com/img/d5e7a5ce/20250530/a1748583433542_0165.jpg"],"created_at":"2026-06-29T10:27:58.772Z"},{"id":"item-2328b956e218","sku":"_dxSxS7QVLIwiHQ1OK-_4YIu0euyDBjBzqHqJDyw","name_en":"Burberry Women Bags","name_cn":"上身图","specs":{"source":"wsxcme","sourceId":"_dxSxS7QVLIwiHQ1OK-_4YIu0euyDBjBzqHqJDyw","sourceTagId":80411239,"sourceTagName":"巴宝莉/女包","rawTitle":"上身图"},"price":null,"currency":"CNY","moq":1,"category":"burberry-women-bags","status":"active","alibaba_url":null,"images":["https://xcimg.szwego.com/img/d5e7a5ce/20250915/a1757934133263_5885.jpg","https://xcimg.szwego.com/img/d5e7a5ce/20250915/a1757934133265_5425.jpg","https://xcimg.szwego.com/img/d5e7a5ce/20250915/a1757934133261_6076.jpg","https://xcimg.szwego.com/img/d5e7a5ce/20250915/a1757934133268_0773.jpg","https://xcimg.szwego.com/img/d5e7a5ce/20250915/a1757934133267_0067.jpg","https://xcimg.szwego.com/img/d5e7a5ce/20250915/a1757934133266_6264.jpg","https://xcimg.szwego.com/img/d5e7a5ce/20250915/a1757934137112_4644.jpg","https://xcimg.szwego.com/img/d5e7a5ce/20250915/a1757934137121_8426.jpg","https://xcimg.szwego.com/img/d5e7a5ce/20250915/a1757934137119_3731.jpg"],"created_at":"2026-06-29T10:27:58.762Z"},{"id":"item-91405d9498fc","sku":"_dB8B8hL_QH7u0CDuCyX48eg5pXnHXsNtXN_a3-g","name_en":"❤️B家最新款托特包,选用小牛麂皮材质打造。手意大利工坊精制而成,搭配同种面料内衬。融入标志性b 字型开合,点缀光滑小牛皮裁片饰边,设有顶部提柄。采用可拆式皮革肩背带,自如切换手提包和肩背包造型。","name_cn":"❤️B家最新款托特包,选用小牛麂皮材质打造。手意大利工坊精制而成,搭配同种面料内衬。融入标志性b 字型开合,点缀光滑小牛皮裁片饰边,设有顶部提柄。采用可拆式皮革肩背带,自如切换手提包和肩背包造型。\n后侧饰有马术骑士徽标 (EKD) 压花\n尺寸30 × 13 × 24cm","specs":{"source":"wsxcme","sourceId":"_dB8B8hL_QH7u0CDuCyX48eg5pXnHXsNtXN_a3-g","sourceTagId":80411239,"sourceTagName":"巴宝莉/女包","dimensions":{"lengthCm":30,"heightCm":13,"widthCm":24},"rawTitle":"❤️B家最新款托特包,选用小牛麂皮材质打造。手意大利工坊精制而成,搭配同种面料内衬。融入标志性b 字型开合,点缀光滑小牛皮裁片饰边,设有顶部提柄。采用可拆式皮革肩背带,自如切换手提包和肩背包造型。\n后侧饰有马术骑士徽标 (EKD) 压花\n尺寸30 × 13 × 24cm"},"price":null,"currency":"CNY","moq":1,"category":"burberry-women-bags","status":"active","alibaba_url":null,"images":["https://xcimg.szwego.com/img/d5e7a5ce/20250915/a1757934095981_6800.jpg","https://xcimg.szwego.com/img/d5e7a5ce/20250915/a1757934096020_8020.jpg","https://xcimg.szwego.com/img/d5e7a5ce/20250915/a1757934095998_2346.jpg","https://xcimg.szwego.com/img/d5e7a5ce/20250915/a1757934095999_2782.jpg","https://xcimg.szwego.com/img/d5e7a5ce/20250915/a1757934099408_3850.jpg","https://xcimg.szwego.com/img/d5e7a5ce/20250915/a1757934095990_5832.jpg","https://xcimg.szwego.com/img/d5e7a5ce/20250915/a1757934096002_0821.jpg","https://xcimg.szwego.com/img/d5e7a5ce/20250915/a1757934099406_5250.jpg","https://xcimg.szwego.com/img/d5e7a5ce/20250915/a1757934099405_0504.jpg"],"created_at":"2026-06-29T10:27:58.752Z"},{"id":"item-c6ea019ee865","sku":"_dq1q12tbf_5dxo7d6vOB66sMq5w6yPDLHQsWXkg","name_en":"Burberry Women Bags","name_cn":"官网图","specs":{"source":"wsxcme","sourceId":"_dq1q12tbf_5dxo7d6vOB66sMq5w6yPDLHQsWXkg","sourceTagId":80411239,"sourceTagName":"巴宝莉/女包","rawTitle":"官网图"},"price":null,"currency":"CNY","moq":1,"category":"burberry-women-bags","status":"active","alibaba_url":null,"images":["https://xcimg.szwego.com/img/d5e7a5ce/20250915/a1757934068152_4025.jpg","https://xcimg.szwego.com/img/d5e7a5ce/20250915/a1757934068156_4026.jpg","https://xcimg.szwego.com/img/d5e7a5ce/20250915/a1757934068157_5720.jpg","https://xcimg.szwego.com/img/d5e7a5ce/20250915/a1757934068161_4431.jpg","https://xcimg.szwego.com/img/d5e7a5ce/20250915/a1757934068160_4014.jpg"],"created_at":"2026-06-29T10:27:58.742Z"},{"id":"item-aefb75006fa1","sku":"_dlDlDCkup8TK-5FMDJC8R6n0Wwee_-HT-MdWRUw","name_en":"Burberry Women Bags","name_cn":"小号","specs":{"source":"wsxcme","sourceId":"_dlDlDCkup8TK-5FMDJC8R6n0Wwee_-HT-MdWRUw","sourceTagId":80411239,"sourceTagName":"巴宝莉/女包","rawTitle":"小号"},"price":null,"currency":"CNY","moq":1,"category":"burberry-women-bags","status":"active","alibaba_url":null,"images":["https://xcimg.szwego.com/img/d5e7a5ce/20250915/a1757933963243_1200.jpg","https://xcimg.szwego.com/img/d5e7a5ce/20250915/a1757933963245_5163.jpg","https://xcimg.szwego.com/img/d5e7a5ce/20250915/a1757933963246_7824.jpg","https://xcimg.szwego.com/img/d5e7a5ce/20250915/a1757933963249_8185.jpg","https://xcimg.szwego.com/img/d5e7a5ce/20250915/a1757933963251_3707.jpg","https://xcimg.szwego.com/img/d5e7a5ce/20250915/a1757933963248_6580.jpg","https://xcimg.szwego.com/img/d5e7a5ce/20250915/a1757933963800_2280.jpg","https://xcimg.szwego.com/img/d5e7a5ce/20250915/a1757933963801_5073.jpg"],"created_at":"2026-06-29T10:27:58.732Z"},{"id":"item-34dda0d58ae9","sku":"_d_p_pmXRAaMTwCInIEv8reXFu1EaPcrq-aauSNQ","name_en":"P❤️B家最新款托特包,选用小牛麂皮材质打造。手意大利工坊精制而成,搭配同种面料内衬。融入标志性b 字型开合,点缀光滑小牛皮裁片饰边,设有顶部提柄。采用可拆式皮革肩背带,自如切换手提包和肩背包造型。","name_cn":"P❤️B家最新款托特包,选用小牛麂皮材质打造。手意大利工坊精制而成,搭配同种面料内衬。融入标志性b 字型开合,点缀光滑小牛皮裁片饰边,设有顶部提柄。采用可拆式皮革肩背带,自如切换手提包和肩背包造型。\n后侧饰有马术骑士徽标 (EKD) 压花\n尺寸30 × 13 × 24cm","specs":{"source":"wsxcme","sourceId":"_d_p_pmXRAaMTwCInIEv8reXFu1EaPcrq-aauSNQ","sourceTagId":80411239,"sourceTagName":"巴宝莉/女包","dimensions":{"lengthCm":30,"heightCm":13,"widthCm":24},"rawTitle":"P❤️B家最新款托特包,选用小牛麂皮材质打造。手意大利工坊精制而成,搭配同种面料内衬。融入标志性b 字型开合,点缀光滑小牛皮裁片饰边,设有顶部提柄。采用可拆式皮革肩背带,自如切换手提包和肩背包造型。\n后侧饰有马术骑士徽标 (EKD) 压花\n尺寸30 × 13 × 24cm"},"price":null,"currency":"CNY","moq":1,"category":"burberry-women-bags","status":"active","alibaba_url":null,"images":["https://xcimg.szwego.com/img/d5e7a5ce/20250915/a1757932942232_6345.jpg","https://xcimg.szwego.com/img/d5e7a5ce/20250915/a1757932942233_5337.jpg","https://xcimg.szwego.com/img/d5e7a5ce/20250915/a1757932942235_8026.jpg","https://xcimg.szwego.com/img/d5e7a5ce/20250915/a1757932947552_1816.jpg","https://xcimg.szwego.com/img/d5e7a5ce/20250915/a1757932942236_8221.jpg","https://xcimg.szwego.com/img/d5e7a5ce/20250915/a1757932942238_3476.jpg","https://xcimg.szwego.com/img/d5e7a5ce/20250915/a1757932942237_0856.jpg","https://xcimg.szwego.com/img/d5e7a5ce/20250915/a1757932942859_1703.jpg","https://xcimg.szwego.com/img/d5e7a5ce/20250915/a1757932942856_3334.jpg"],"created_at":"2026-06-29T10:27:58.722Z"},{"id":"item-24e6c4e4e0d0","sku":"_dBCBCq7PAH9U-6FKzDp8PJZvGaaQDjYuktdSqlQ","name_en":"Burberry Women Bags","name_cn":"上身图","specs":{"source":"wsxcme","sourceId":"_dBCBCq7PAH9U-6FKzDp8PJZvGaaQDjYuktdSqlQ","sourceTagId":80411239,"sourceTagName":"巴宝莉/女包","rawTitle":"上身图"},"price":null,"currency":"CNY","moq":1,"category":"burberry-women-bags","status":"active","alibaba_url":null,"images":["https://xcimg.szwego.com/img/d5e7a5ce/20250404/a1743750549097_3431.jpg","https://xcimg.szwego.com/img/d5e7a5ce/20250404/a1743750549131_6164.jpg","https://xcimg.szwego.com/img/d5e7a5ce/20250404/a1743750549129_6701.jpg","https://xcimg.szwego.com/img/d5e7a5ce/20250404/a1743750549103_7802.jpg","https://xcimg.szwego.com/img/d5e7a5ce/20250404/a1743750549108_1535.jpg","https://xcimg.szwego.com/img/d5e7a5ce/20250404/a1743750549112_2288.jpg","https://xcimg.szwego.com/img/d5e7a5ce/20250404/a1743750549970_5085.jpg","https://xcimg.szwego.com/img/d5e7a5ce/20250404/a1743750549969_8375.jpg","https://xcimg.szwego.com/img/d5e7a5ce/20250404/a1743750549967_0256.jpg"],"created_at":"2026-06-29T10:27:58.712Z"},{"id":"item-bcfe486c1f69","sku":"_d-v-v0caUduAmjDtrbW0zqvu7-ck0ptN0cuPP5w","name_en":"❤️B家最新款托特包,选用小牛麂皮材质打造。手意大利工坊精制而成,搭配同种面料内衬。融入标志性b 字型开合,点缀光滑小牛皮裁片饰边,设有顶部提柄。采用可拆式皮革肩背带,自如切换手提包和肩背包造型。","name_cn":"❤️B家最新款托特包,选用小牛麂皮材质打造。手意大利工坊精制而成,搭配同种面料内衬。融入标志性b 字型开合,点缀光滑小牛皮裁片饰边,设有顶部提柄。采用可拆式皮革肩背带,自如切换手提包和肩背包造型。\n后侧饰有马术骑士徽标 (EKD) 压花\n大号尺寸35.5x18 x 28cm","specs":{"source":"wsxcme","sourceId":"_d-v-v0caUduAmjDtrbW0zqvu7-ck0ptN0cuPP5w","sourceTagId":80411239,"sourceTagName":"巴宝莉/女包","dimensions":{"lengthCm":35.5,"heightCm":18,"widthCm":28},"rawTitle":"❤️B家最新款托特包,选用小牛麂皮材质打造。手意大利工坊精制而成,搭配同种面料内衬。融入标志性b 字型开合,点缀光滑小牛皮裁片饰边,设有顶部提柄。采用可拆式皮革肩背带,自如切换手提包和肩背包造型。\n后侧饰有马术骑士徽标 (EKD) 压花\n大号尺寸35.5x18 x 28cm"},"price":null,"currency":"CNY","moq":1,"category":"burberry-women-bags","status":"active","alibaba_url":null,"images":["https://xcimg.szwego.com/img/d5e7a5ce/20250404/a1743750496659_6551.jpg","https://xcimg.szwego.com/img/d5e7a5ce/20250404/a1743750496661_5337.jpg","https://xcimg.szwego.com/img/d5e7a5ce/20250404/a1743750496658_7408.jpg","https://xcimg.szwego.com/img/d5e7a5ce/20250404/a1743750496663_1413.jpg","https://xcimg.szwego.com/img/d5e7a5ce/20250404/a1743750496665_4285.jpg","https://xcimg.szwego.com/img/d5e7a5ce/20250404/a1743750496666_7426.jpg","https://xcimg.szwego.com/img/d5e7a5ce/20250404/a1743750497699_0760.jpg","https://xcimg.szwego.com/img/d5e7a5ce/20250404/a1743750497706_3488.jpg","https://xcimg.szwego.com/img/d5e7a5ce/20250404/a1743750497709_2200.jpg"],"created_at":"2026-06-29T10:27:58.702Z"},{"id":"item-d278419ccd90","sku":"_du3u3cNyp76fxD5DtdzzrsP1QRnPpLs131iO1nQ","name_en":"Burberry Women Bags","name_cn":"上身图","specs":{"source":"wsxcme","sourceId":"_du3u3cNyp76fxD5DtdzzrsP1QRnPpLs131iO1nQ","sourceTagId":80411239,"sourceTagName":"巴宝莉/女包","rawTitle":"上身图"},"price":null,"currency":"CNY","moq":1,"category":"burberry-women-bags","status":"active","alibaba_url":null,"images":["https://xcimg.szwego.com/img/d5e7a5ce/20250404/a1743750422820_1860.jpg","https://xcimg.szwego.com/img/d5e7a5ce/20250404/a1743750422745_0204.jpg","https://xcimg.szwego.com/img/d5e7a5ce/20250404/a1743750422728_8385.jpg","https://xcimg.szwego.com/img/d5e7a5ce/20250404/a1743750422731_4471.jpg","https://xcimg.szwego.com/img/d5e7a5ce/20250404/a1743750422737_7224.jpg","https://xcimg.szwego.com/img/d5e7a5ce/20250404/a1743750422760_8136.jpg","https://xcimg.szwego.com/img/d5e7a5ce/20250404/a1743750423608_5678.jpg","https://xcimg.szwego.com/img/d5e7a5ce/20250404/a1743750423607_0005.jpg","https://xcimg.szwego.com/img/d5e7a5ce/20250404/a1743750423605_6335.jpg"],"created_at":"2026-06-29T10:27:58.692Z"},{"id":"item-683b33289e64","sku":"_doRoRQOzYIYEpKXS2arbPDK3GV7jyEwEvOrjK0w","name_en":"❤️B家最新款托特包,选用小牛麂皮材质打造。手意大利工坊精制而成,搭配同种面料内衬。融入标志性b 字型开合,点缀光滑小牛皮裁片饰边,设有顶部提柄。采用可拆式皮革肩背带,自如切换手提包和肩背包造型。","name_cn":"❤️B家最新款托特包,选用小牛麂皮材质打造。手意大利工坊精制而成,搭配同种面料内衬。融入标志性b 字型开合,点缀光滑小牛皮裁片饰边,设有顶部提柄。采用可拆式皮革肩背带,自如切换手提包和肩背包造型。\n后侧饰有马术骑士徽标 (EKD) 压花\n大号尺寸35.5x18 x 28cm","specs":{"source":"wsxcme","sourceId":"_doRoRQOzYIYEpKXS2arbPDK3GV7jyEwEvOrjK0w","sourceTagId":80411239,"sourceTagName":"巴宝莉/女包","dimensions":{"lengthCm":35.5,"heightCm":18,"widthCm":28},"rawTitle":"❤️B家最新款托特包,选用小牛麂皮材质打造。手意大利工坊精制而成,搭配同种面料内衬。融入标志性b 字型开合,点缀光滑小牛皮裁片饰边,设有顶部提柄。采用可拆式皮革肩背带,自如切换手提包和肩背包造型。\n后侧饰有马术骑士徽标 (EKD) 压花\n大号尺寸35.5x18 x 28cm"},"price":null,"currency":"CNY","moq":1,"category":"burberry-women-bags","status":"active","alibaba_url":null,"images":["https://xcimg.szwego.com/img/d5e7a5ce/20250404/a1743750235651_0601.jpg","https://xcimg.szwego.com/img/d5e7a5ce/20250404/a1743750235650_3565.jpg","https://xcimg.szwego.com/img/d5e7a5ce/20250404/a1743750235657_7356.jpg","https://xcimg.szwego.com/img/d5e7a5ce/20250404/a1743750235653_4424.jpg","https://xcimg.szwego.com/img/d5e7a5ce/20250404/a1743750235654_5384.jpg","https://xcimg.szwego.com/img/d5e7a5ce/20250404/a1743750235702_5115.jpg","https://xcimg.szwego.com/img/d5e7a5ce/20250404/a1743750236552_5758.jpg","https://xcimg.szwego.com/img/d5e7a5ce/20250404/a1743750236776_2042.jpg","https://xcimg.szwego.com/img/d5e7a5ce/20250404/a1743750236699_6663.jpg"],"created_at":"2026-06-29T10:27:58.682Z"},{"id":"item-4f91e7ce0aee","sku":"_d_s_s01_byBCgmzHH99eOCX_V1-dbOX5xcQ9yig","name_en":"Burberry Women Bags","name_cn":"上身图","specs":{"source":"wsxcme","sourceId":"_d_s_s01_byBCgmzHH99eOCX_V1-dbOX5xcQ9yig","sourceTagId":80411239,"sourceTagName":"巴宝莉/女包","rawTitle":"上身图"},"price":null,"currency":"CNY","moq":1,"category":"burberry-women-bags","status":"active","alibaba_url":null,"images":["https://xcimg.szwego.com/img/d5e7a5ce/20241022/a1729580581475_0275.jpg","https://xcimg.szwego.com/img/d5e7a5ce/20241022/a1729580581464_8542.jpg","https://xcimg.szwego.com/img/d5e7a5ce/20241022/a1729580581468_4763.jpg","https://xcimg.szwego.com/img/d5e7a5ce/20241022/a1729580581467_2750.jpg","https://xcimg.szwego.com/img/d5e7a5ce/20241022/a1729580581490_4650.jpg","https://xcimg.szwego.com/img/d5e7a5ce/20241022/a1729580581485_8125.jpg","https://xcimg.szwego.com/img/d5e7a5ce/20241022/a1729580583018_8864.jpg","https://xcimg.szwego.com/img/d5e7a5ce/20241022/a1729580583015_3531.jpg","https://xcimg.szwego.com/img/d5e7a5ce/20241022/a1729580583023_8875.jpg"],"created_at":"2026-06-29T10:27:58.672Z"},{"id":"item-7201f5aa68c9","sku":"_dBWBW2E1WfR3R21yqvvB8dsGyDCi3OURQTplZ2A","name_en":"Burberry Women Bags","name_cn":"官网图","specs":{"source":"wsxcme","sourceId":"_dBWBW2E1WfR3R21yqvvB8dsGyDCi3OURQTplZ2A","sourceTagId":80411239,"sourceTagName":"巴宝莉/女包","rawTitle":"官网图"},"price":null,"currency":"CNY","moq":1,"category":"burberry-women-bags","status":"active","alibaba_url":null,"images":["https://xcimg.szwego.com/img/d5e7a5ce/20241022/a1729580004113_8815.jpg","https://xcimg.szwego.com/img/d5e7a5ce/20241022/a1729580004115_2741.jpg","https://xcimg.szwego.com/img/d5e7a5ce/20241022/a1729580004117_2633.jpg","https://xcimg.szwego.com/img/d5e7a5ce/20241022/a1729580004118_2846.jpg"],"created_at":"2026-06-29T10:27:58.662Z"},{"id":"item-4a719f668841","sku":"_dftftz3Bwy8CQOPYTW98SMEuJoTG5X99VbM3Raw","name_en":"❤️B家纯原最新柔软立挺的托特包,选用粒纹小牛皮面料打造。于意大利工坊精制而成,搭配麂皮内衬。融入品牌标志性b 宇型开合,光滑小牛皮裁片点缀马术骑士徽标(EKD)压花。采用","name_cn":"❤️B家纯原最新柔软立挺的托特包,选用粒纹小牛皮面料打造。于意大利工坊精制而成,搭配麂皮内衬。融入品牌标志性b 宇型开合,光滑小牛皮裁片点缀马术骑士徽标(EKD)压花。采用\n可拆\n式肩背带,自如切换手提包和肩背包造型\n后侧饰有马术骑士徽标 (EKD)压花\n尺寸35.5 × 18x 28cm","specs":{"source":"wsxcme","sourceId":"_dftftz3Bwy8CQOPYTW98SMEuJoTG5X99VbM3Raw","sourceTagId":80411239,"sourceTagName":"巴宝莉/女包","dimensions":{"lengthCm":35.5,"heightCm":18,"widthCm":28},"rawTitle":"❤️B家纯原最新柔软立挺的托特包,选用粒纹小牛皮面料打造。于意大利工坊精制而成,搭配麂皮内衬。融入品牌标志性b 宇型开合,光滑小牛皮裁片点缀马术骑士徽标(EKD)压花。采用\n可拆\n式肩背带,自如切换手提包和肩背包造型\n后侧饰有马术骑士徽标 (EKD)压花\n尺寸35.5 × 18x 28cm"},"price":null,"currency":"CNY","moq":1,"category":"burberry-women-bags","status":"active","alibaba_url":null,"images":["https://xcimg.szwego.com/img/d5e7a5ce/20241022/a1729579787901_2882.jpg","https://xcimg.szwego.com/img/d5e7a5ce/20241022/a1729579787895_7575.jpg","https://xcimg.szwego.com/img/d5e7a5ce/20241022/a1729579787895_8888.jpg","https://xcimg.szwego.com/img/d5e7a5ce/20241022/a1729579787901_6626.jpg","https://xcimg.szwego.com/img/d5e7a5ce/20241022/a1729579787896_8643.jpg","https://xcimg.szwego.com/img/d5e7a5ce/20241022/a1729579787902_5828.jpg","https://xcimg.szwego.com/img/d5e7a5ce/20241022/a1729579788704_8420.jpg","https://xcimg.szwego.com/img/d5e7a5ce/20241022/a1729579788711_1168.jpg","https://xcimg.szwego.com/img/d5e7a5ce/20241022/a1729579788709_5624.jpg"],"created_at":"2026-06-29T10:27:58.652Z"},{"id":"item-bd3b8d76dd1c","sku":"_dzEzEsGXhhpXm6uMnrecFGv_OuhWfZkeDxzRuuA","name_en":"Burberry Women Bags","name_cn":"对比","specs":{"source":"wsxcme","sourceId":"_dzEzEsGXhhpXm6uMnrecFGv_OuhWfZkeDxzRuuA","sourceTagId":80411239,"sourceTagName":"巴宝莉/女包","rawTitle":"对比"},"price":null,"currency":"CNY","moq":1,"category":"burberry-women-bags","status":"active","alibaba_url":null,"images":["https://xcimg.szwego.com/img/d5e7a5ce/20250530/a1748587121884_1824.jpg","https://xcimg.szwego.com/img/d5e7a5ce/20250530/a1748587121887_1643.jpg","https://xcimg.szwego.com/img/d5e7a5ce/20250530/a1748587121895_5163.jpg","https://xcimg.szwego.com/img/d5e7a5ce/20250530/a1748587121897_1481.jpg","https://xcimg.szwego.com/img/d5e7a5ce/20250530/a1748587121893_6187.jpg","https://xcimg.szwego.com/img/d5e7a5ce/20250530/a1748587121890_8322.jpg","https://xcimg.szwego.com/img/d5e7a5ce/20250530/a1748587122515_6423.jpg","https://xcimg.szwego.com/img/d5e7a5ce/20250530/a1748587122514_0604.jpg","https://xcimg.szwego.com/img/d5e7a5ce/20250530/a1748587122517_6554.jpg"],"created_at":"2026-06-29T10:27:58.642Z"}],"page":49,"pageSize":24,"total":10075,"totalPages":420}
