{"items":[{"id":"item-1a9ec8b6badc","sku":"_dOVOVzyVSmVd3pjUEohUO4LjY_8WFwkP2hIyqCg","name_en":"『Celine 赛琳』","name_cn":"『Celine 赛琳』\n\nCeline 新品AVA TRIOMPHE帆布手袋Z复古白花腋下包lisa同款,单肩女包豌豆包,61%涂层帆布,39%小牛皮。\n尺寸:23x 14x 7cm\n型号:3112#","specs":{"source":"wsxcme","sourceId":"_dOVOVzyVSmVd3pjUEohUO4LjY_8WFwkP2hIyqCg","sourceTagId":47003106,"sourceTagName":"塞琳/女包","modelNumber":"3112#","dimensions":{"lengthCm":23,"heightCm":14,"widthCm":7},"rawTitle":"『Celine 赛琳』\n\nCeline 新品AVA TRIOMPHE帆布手袋Z复古白花腋下包lisa同款,单肩女包豌豆包,61%涂层帆布,39%小牛皮。\n尺寸:23x 14x 7cm\n型号:3112#"},"price":null,"currency":"CNY","moq":1,"category":"celine-women-bags","status":"active","alibaba_url":null,"images":["https://xcimg.szwego.com/20220330/i1648611906_5249_0.jpg","https://xcimg.szwego.com/20220330/i1648611906_2689_1.jpg","https://xcimg.szwego.com/20220330/i1648611906_7554_2.jpg","https://xcimg.szwego.com/20220330/i1648611906_697_3.jpg","https://xcimg.szwego.com/20220330/i1648611906_3678_4.jpg","https://xcimg.szwego.com/20220330/i1648611906_2319_5.jpg","https://xcimg.szwego.com/20220330/i1648611906_2252_6.jpg","https://xcimg.szwego.com/20220330/i1648611906_1949_7.jpg","https://xcimg.szwego.com/20220330/i1648611906_4078_8.jpg"],"created_at":"2025-02-08T12:47:00.850Z"},{"id":"item-6e73f9088a21","sku":"_d9A9Au-iI8OhhTom9MwJFKkatXcCLAUXuMhoUSw","name_en":"『Celine 赛琳』","name_cn":"『Celine 赛琳』\n\n七夕系列,Celine AVA TRIOMPHE标志印花手袋 腋下包lisa同款,单肩女包豌豆包®️61%涂层帆布,39%小牛皮\n尺寸:23cmX 14cmX 7cm\n型号:3112#","specs":{"source":"wsxcme","sourceId":"_d9A9Au-iI8OhhTom9MwJFKkatXcCLAUXuMhoUSw","sourceTagId":47003106,"sourceTagName":"塞琳/女包","modelNumber":"3112#","rawTitle":"『Celine 赛琳』\n\n七夕系列,Celine AVA TRIOMPHE标志印花手袋 腋下包lisa同款,单肩女包豌豆包®️61%涂层帆布,39%小牛皮\n尺寸:23cmX 14cmX 7cm\n型号:3112#"},"price":null,"currency":"CNY","moq":1,"category":"celine-women-bags","status":"active","alibaba_url":null,"images":["https://xcimg.szwego.com/20220330/i1648611851_8266_0.jpg","https://xcimg.szwego.com/20220330/i1648611851_1536_1.jpg","https://xcimg.szwego.com/20220330/i1648611851_6425_2.jpg","https://xcimg.szwego.com/20220330/i1648611851_1631_3.jpg","https://xcimg.szwego.com/20220330/i1648611851_6988_4.jpg","https://xcimg.szwego.com/20220330/i1648611851_9287_5.jpg","https://xcimg.szwego.com/20220330/i1648611851_927_6.jpg","https://xcimg.szwego.com/20220330/i1648611851_2521_7.jpg","https://xcimg.szwego.com/20220330/i1648611851_1521_8.jpg"],"created_at":"2025-02-08T12:47:00.849Z"},{"id":"item-36ecbd054aab","sku":"_d9B9BdZaqBSv9jp2izzJrNivq4YDD-1V7pEktnw","name_en":"『Celine 赛琳』","name_cn":"『Celine 赛琳』\n\nCEL.IN新品|FOLCO TRIOMPHE CANVAS🎒迷你小背包,小小的超可️爱~\nTRIOMPHE CANVAS标志印花\n牛皮革包边,织物面料衬里,可手提,手柄长度 (8 厘米)\n尺寸:17 X 20 X 10cm\n型号:1159#","specs":{"source":"wsxcme","sourceId":"_d9B9BdZaqBSv9jp2izzJrNivq4YDD-1V7pEktnw","sourceTagId":47003106,"sourceTagName":"塞琳/女包","modelNumber":"1159#","dimensions":{"lengthCm":17,"heightCm":20,"widthCm":10},"rawTitle":"『Celine 赛琳』\n\nCEL.IN新品|FOLCO TRIOMPHE CANVAS🎒迷你小背包,小小的超可️爱~\nTRIOMPHE CANVAS标志印花\n牛皮革包边,织物面料衬里,可手提,手柄长度 (8 厘米)\n尺寸:17 X 20 X 10cm\n型号:1159#"},"price":null,"currency":"CNY","moq":1,"category":"celine-women-bags","status":"active","alibaba_url":null,"images":["https://xcimg.szwego.com/20220408/i1649390946_5051_0.jpg","https://xcimg.szwego.com/20220408/i1649390946_319_1.jpg","https://xcimg.szwego.com/20220408/i1649390946_7622_2.jpg","https://xcimg.szwego.com/20220408/i1649390946_6950_3.jpg","https://xcimg.szwego.com/20220408/i1649390946_3354_4.jpg","https://xcimg.szwego.com/20220408/i1649390946_5650_5.jpg","https://xcimg.szwego.com/20220408/i1649390946_2860_6.jpg","https://xcimg.szwego.com/20220408/i1649390946_1656_7.jpg","https://xcimg.szwego.com/20220408/i1649390946_2348_8.jpg"],"created_at":"2025-02-08T12:47:00.848Z"},{"id":"item-957514cc4de1","sku":"_duGuG9-QKyQv0MCbDlNsv4ht7Y3-2L4BIFTc3Wg","name_en":"『Celine 赛琳』","name_cn":"『Celine 赛琳』\n\nC🏠最新尺寸小水桶出货#颜值爆表老花系列,TRIOMPHE CANVAS NANO标志印花水桶包,人造革/牛皮革,织物面料衬里,斜挎和肩背,按扣开合,可调节皮革肩带,冬天配大衣再适合不过了 容量大 自重轻耐磨 防水 不易刮花 \n尺寸:22x26x13cm\n款号:2299#","specs":{"source":"wsxcme","sourceId":"_duGuG9-QKyQv0MCbDlNsv4ht7Y3-2L4BIFTc3Wg","sourceTagId":47003106,"sourceTagName":"塞琳/女包","modelNumber":"2299#","dimensions":{"lengthCm":22,"heightCm":26,"widthCm":13},"rawTitle":"『Celine 赛琳』\n\nC🏠最新尺寸小水桶出货#颜值爆表老花系列,TRIOMPHE CANVAS NANO标志印花水桶包,人造革/牛皮革,织物面料衬里,斜挎和肩背,按扣开合,可调节皮革肩带,冬天配大衣再适合不过了 容量大 自重轻耐磨 防水 不易刮花 \n尺寸:22x26x13cm\n款号:2299#"},"price":null,"currency":"CNY","moq":1,"category":"celine-women-bags","status":"active","alibaba_url":null,"images":["https://xcimg.szwego.com/20220224/i1645678990_3784_0.jpg","https://xcimg.szwego.com/20220224/i1645678990_5776_1.jpg","https://xcimg.szwego.com/20220224/i1645678990_6850_2.jpg","https://xcimg.szwego.com/20220224/i1645678990_7279_3.jpg","https://xcimg.szwego.com/20220224/i1645678990_4929_4.jpg","https://xcimg.szwego.com/20220224/i1645678990_4992_5.jpg","https://xcimg.szwego.com/20220224/i1645678990_9217_6.jpg","https://xcimg.szwego.com/20220224/i1645678990_4293_7.jpg","https://xcimg.szwego.com/20220224/i1645678990_2861_8.jpg"],"created_at":"2025-02-08T12:47:00.847Z"},{"id":"item-82a2f12229e1","sku":"_dkrkrcf07OiSUI4ekz5rmtOAuDsyJ4zTzDwvBSA","name_en":"『Celine 赛琳』","name_cn":"『Celine 赛琳』\n\nC🏠大号水桶出货#颜值爆表老花系列,TRIOMPHE CANVAS NANO标志印花水桶包,人造革/牛皮革,织物面料衬里,斜挎和肩背,按扣开合,可调节皮革肩带,冬天配大衣再适合不过了 容量大 自重轻耐磨 防水 不易刮花  超nice\n尺寸:35x27x18cm\n款号:2199#","specs":{"source":"wsxcme","sourceId":"_dkrkrcf07OiSUI4ekz5rmtOAuDsyJ4zTzDwvBSA","sourceTagId":47003106,"sourceTagName":"塞琳/女包","modelNumber":"2199#","dimensions":{"lengthCm":35,"heightCm":27,"widthCm":18},"rawTitle":"『Celine 赛琳』\n\nC🏠大号水桶出货#颜值爆表老花系列,TRIOMPHE CANVAS NANO标志印花水桶包,人造革/牛皮革,织物面料衬里,斜挎和肩背,按扣开合,可调节皮革肩带,冬天配大衣再适合不过了 容量大 自重轻耐磨 防水 不易刮花  超nice\n尺寸:35x27x18cm\n款号:2199#"},"price":null,"currency":"CNY","moq":1,"category":"celine-women-bags","status":"active","alibaba_url":null,"images":["https://xcimg.szwego.com/20220224/i1645678952_7080_0.jpg","https://xcimg.szwego.com/20220224/i1645678952_7499_1.jpg","https://xcimg.szwego.com/20220224/i1645678952_2219_2.jpg","https://xcimg.szwego.com/20220224/i1645678952_8045_3.jpg","https://xcimg.szwego.com/20220224/i1645678952_2644_4.jpg","https://xcimg.szwego.com/20220224/i1645678952_3855_5.jpg","https://xcimg.szwego.com/20220224/i1645678952_962_6.jpg","https://xcimg.szwego.com/20220224/i1645678952_21_7.jpg","https://xcimg.szwego.com/20220224/i1645678952_427_8.jpg"],"created_at":"2025-02-08T12:47:00.846Z"},{"id":"item-ee895dafe841","sku":"_drkrkdnzasr7IFu_1QTS0mp9Z2XRpfoUmL3IGrA","name_en":"『Celine 赛琳』","name_cn":"『Celine 赛琳』\n\nCe.line 春夏新品Folco白色涂层帆布马鞍包 延续凯旋门 复古斜挎  耐看经典印花一点都不老套。\n尺寸:18x16x10cm\n型号:2179#","specs":{"source":"wsxcme","sourceId":"_drkrkdnzasr7IFu_1QTS0mp9Z2XRpfoUmL3IGrA","sourceTagId":47003106,"sourceTagName":"塞琳/女包","modelNumber":"2179#","dimensions":{"lengthCm":18,"heightCm":16,"widthCm":10},"rawTitle":"『Celine 赛琳』\n\nCe.line 春夏新品Folco白色涂层帆布马鞍包 延续凯旋门 复古斜挎  耐看经典印花一点都不老套。\n尺寸:18x16x10cm\n型号:2179#"},"price":null,"currency":"CNY","moq":1,"category":"celine-women-bags","status":"active","alibaba_url":null,"images":["https://xcimg.szwego.com/20220224/i1645679218_7663_0.jpg","https://xcimg.szwego.com/20220224/i1645679218_667_1.jpg","https://xcimg.szwego.com/20220224/i1645679218_6374_2.jpg","https://xcimg.szwego.com/20220224/i1645679218_2908_3.jpg","https://xcimg.szwego.com/20220224/i1645679218_4766_4.jpg","https://xcimg.szwego.com/20220224/i1645679218_103_5.jpg","https://xcimg.szwego.com/20220224/i1645679218_9096_6.jpg","https://xcimg.szwego.com/20220224/i1645679218_5806_7.jpg","https://xcimg.szwego.com/20220224/i1645679218_7219_8.jpg"],"created_at":"2025-02-08T12:47:00.845Z"},{"id":"item-9996a4df9990","sku":"_dQkQk3si7crMu-WiDsbRliGkWQHavkNugS9wL6A","name_en":"『Celine 赛琳』","name_cn":"『Celine 赛琳』\n\nCEL.INE TRIOMPHC FOLCO 高品质马鞍包  延续凯旋门  棕色包边部分采用头层牛皮制作 复古斜挎  耐看经典印花一点都不老套  还带着轻巧小俏皮  耐装耐磨 象征性的 结构简约 肩带长度可调节 \n款号:2179#\n尺寸:18.16.10cm","specs":{"source":"wsxcme","sourceId":"_dQkQk3si7crMu-WiDsbRliGkWQHavkNugS9wL6A","sourceTagId":47003106,"sourceTagName":"塞琳/女包","modelNumber":"2179#","rawTitle":"『Celine 赛琳』\n\nCEL.INE TRIOMPHC FOLCO 高品质马鞍包  延续凯旋门  棕色包边部分采用头层牛皮制作 复古斜挎  耐看经典印花一点都不老套  还带着轻巧小俏皮  耐装耐磨 象征性的 结构简约 肩带长度可调节 \n款号:2179#\n尺寸:18.16.10cm"},"price":null,"currency":"CNY","moq":1,"category":"celine-women-bags","status":"active","alibaba_url":null,"images":["https://xcimg.szwego.com/20220224/i1645679174_7105_0.jpg","https://xcimg.szwego.com/20220224/i1645679174_9932_1.jpg","https://xcimg.szwego.com/20220224/i1645679174_784_2.jpg","https://xcimg.szwego.com/20220224/i1645679174_2283_3.jpg","https://xcimg.szwego.com/20220224/i1645679174_2261_4.jpg","https://xcimg.szwego.com/20220224/i1645679174_838_5.jpg","https://xcimg.szwego.com/20220224/i1645679174_2680_6.jpg","https://xcimg.szwego.com/20220224/i1645679174_2396_7.jpg","https://xcimg.szwego.com/20220224/i1645679174_4438_8.jpg"],"created_at":"2025-02-08T12:47:00.844Z"},{"id":"item-dd775bae103c","sku":"_d8B8BaH4r5MMU8W2Kj2fDLLedOHjb6mDFABYmVA","name_en":"『Celine 赛琳』","name_cn":"『Celine 赛琳』\n\nCELINE 七夕限定款CABAS TRIOMPHE®️标志印花MiNi号竖款手袋,内侧插袋,可调节可拆卸皮革肩带 长50厘米,\n尺寸17 X 21 X 4cm\n型号:2200#","specs":{"source":"wsxcme","sourceId":"_d8B8BaH4r5MMU8W2Kj2fDLLedOHjb6mDFABYmVA","sourceTagId":47003106,"sourceTagName":"塞琳/女包","modelNumber":"2200#","dimensions":{"lengthCm":17,"heightCm":21,"widthCm":4},"rawTitle":"『Celine 赛琳』\n\nCELINE 七夕限定款CABAS TRIOMPHE®️标志印花MiNi号竖款手袋,内侧插袋,可调节可拆卸皮革肩带 长50厘米,\n尺寸17 X 21 X 4cm\n型号:2200#"},"price":null,"currency":"CNY","moq":1,"category":"celine-women-bags","status":"active","alibaba_url":null,"images":["https://xcimg.szwego.com/20220504/i1651635308_5484_0.jpg","https://xcimg.szwego.com/20220504/i1651635308_5166_1.jpg","https://xcimg.szwego.com/20220504/i1651635308_4151_2.jpg","https://xcimg.szwego.com/20220504/i1651635308_8410_3.jpg","https://xcimg.szwego.com/20220504/i1651635308_6605_4.jpg","https://xcimg.szwego.com/20220504/i1651635308_1337_5.jpg","https://xcimg.szwego.com/20220504/i1651635308_4951_6.jpg","https://xcimg.szwego.com/20220504/i1651635308_2810_7.jpg","https://xcimg.szwego.com/20220504/i1651635308_8661_8.jpg"],"created_at":"2025-02-08T12:47:00.843Z"},{"id":"item-7f20029c8662","sku":"_drMrMOsxrmOQh8fJ4HGNKxnnLRtvAxYB2L_LmXQ","name_en":"『Celine 赛琳』","name_cn":"『Celine 赛琳』\n\nCELINE 经典CABAS TRIOMPHE \n白花MiNi号竖款手袋🛍 65%涂层帆布,\n35%小牛皮,100%棉衬里,内侧插袋,  \n可调节可拆卸皮革肩带,\n尺寸:20cm X 17cm X 6cm   \n型号:2200#","specs":{"source":"wsxcme","sourceId":"_drMrMOsxrmOQh8fJ4HGNKxnnLRtvAxYB2L_LmXQ","sourceTagId":47003106,"sourceTagName":"塞琳/女包","modelNumber":"2200#","rawTitle":"『Celine 赛琳』\n\nCELINE 经典CABAS TRIOMPHE \n白花MiNi号竖款手袋🛍 65%涂层帆布,\n35%小牛皮,100%棉衬里,内侧插袋,  \n可调节可拆卸皮革肩带,\n尺寸:20cm X 17cm X 6cm   \n型号:2200#"},"price":null,"currency":"CNY","moq":1,"category":"celine-women-bags","status":"active","alibaba_url":null,"images":["https://xcimg.szwego.com/20220504/i1651635268_3369_0.jpg","https://xcimg.szwego.com/20220504/i1651635268_6483_1.jpg","https://xcimg.szwego.com/20220504/i1651635268_1246_2.jpg","https://xcimg.szwego.com/20220504/i1651635268_8196_3.jpg","https://xcimg.szwego.com/20220504/i1651635268_6642_4.jpg","https://xcimg.szwego.com/20220504/i1651635268_8022_5.jpg","https://xcimg.szwego.com/20220504/i1651635268_7319_6.jpg","https://xcimg.szwego.com/20220504/i1651635268_5400_7.jpg","https://xcimg.szwego.com/20220504/i1651635268_2859_8.jpg"],"created_at":"2025-02-08T12:47:00.842Z"},{"id":"item-673afa0c749d","sku":"_dCaCajTGS3hm2rO_rrejfG9kmvOBOrvQh4VV68Q","name_en":"『Celine 赛琳』","name_cn":"『Celine 赛琳』\n\nCELINE 经典CABAS TRIOMPHE \n老花MiNi号竖款手袋🛍 65%涂层帆布,\n35%小牛皮,100%棉衬里,内侧插袋,  \n可调节可拆卸皮革肩带,\n尺寸:20cm X 17cm X 6cm   \n型号:2200#","specs":{"source":"wsxcme","sourceId":"_dCaCajTGS3hm2rO_rrejfG9kmvOBOrvQh4VV68Q","sourceTagId":47003106,"sourceTagName":"塞琳/女包","modelNumber":"2200#","rawTitle":"『Celine 赛琳』\n\nCELINE 经典CABAS TRIOMPHE \n老花MiNi号竖款手袋🛍 65%涂层帆布,\n35%小牛皮,100%棉衬里,内侧插袋,  \n可调节可拆卸皮革肩带,\n尺寸:20cm X 17cm X 6cm   \n型号:2200#"},"price":null,"currency":"CNY","moq":1,"category":"celine-women-bags","status":"active","alibaba_url":null,"images":["https://xcimg.szwego.com/20220504/i1651635207_279_0.jpg","https://xcimg.szwego.com/20220504/i1651635207_5171_1.jpg","https://xcimg.szwego.com/20220504/i1651635207_7563_2.jpg","https://xcimg.szwego.com/20220504/i1651635207_720_3.jpg","https://xcimg.szwego.com/20220504/i1651635207_3945_4.jpg","https://xcimg.szwego.com/20220504/i1651635207_1237_5.jpg","https://xcimg.szwego.com/20220504/i1651635207_2822_6.jpg","https://xcimg.szwego.com/20220504/i1651635207_4231_7.jpg","https://xcimg.szwego.com/20220504/i1651635207_6429_8.jpg"],"created_at":"2025-02-08T12:47:00.841Z"},{"id":"item-d5e96a6d7140","sku":"_dw5w5avCFiaFzGoTrJmKrxNZ9zS2cTzHVNAQ4Pg","name_en":"『Celine 赛琳』","name_cn":"『Celine 赛琳』\n\nscelin.e MINI CABASC 七夕限量特定款,金线刺绣工艺,超mini超可爱❤️超火爆,可手提肩背斜挎,这个大小刚刚好。\n尺寸17x20x6 \n型号:2240#","specs":{"source":"wsxcme","sourceId":"_dw5w5avCFiaFzGoTrJmKrxNZ9zS2cTzHVNAQ4Pg","sourceTagId":47003106,"sourceTagName":"塞琳/女包","modelNumber":"2240#","rawTitle":"『Celine 赛琳』\n\nscelin.e MINI CABASC 七夕限量特定款,金线刺绣工艺,超mini超可爱❤️超火爆,可手提肩背斜挎,这个大小刚刚好。\n尺寸17x20x6 \n型号:2240#"},"price":null,"currency":"CNY","moq":1,"category":"celine-women-bags","status":"active","alibaba_url":null,"images":["https://xcimg.szwego.com/20220504/i1651635172_5078_0.jpg","https://xcimg.szwego.com/20220504/i1651635172_1147_1.jpg","https://xcimg.szwego.com/20220504/i1651635172_5261_2.jpg","https://xcimg.szwego.com/20220504/i1651635172_7199_3.jpg","https://xcimg.szwego.com/20220504/i1651635172_6338_4.jpg","https://xcimg.szwego.com/20220504/i1651635172_3738_5.jpg","https://xcimg.szwego.com/20220504/i1651635172_3820_6.jpg","https://xcimg.szwego.com/20220504/i1651635172_3476_7.jpg","https://xcimg.szwego.com/20220504/i1651635172_1580_8.jpg"],"created_at":"2025-02-08T12:47:00.840Z"},{"id":"item-872a582054b7","sku":"_dtHtHEdM4QEMthlvRdBITFKo_r-03xbrLCfFZiA","name_en":"『Celine 赛琳』","name_cn":"『Celine 赛琳』\n\n新款🔅CABAS TRIOMPHE提花面料MiNi号竖款手袋,65%纺织布,35%小牛皮,100%棉衬里,内侧插袋,可调节可拆卸皮革肩带 长50厘米\n尺寸20X 17X 6厘米\n型号:2200#","specs":{"source":"wsxcme","sourceId":"_dtHtHEdM4QEMthlvRdBITFKo_r-03xbrLCfFZiA","sourceTagId":47003106,"sourceTagName":"塞琳/女包","modelNumber":"2200#","dimensions":{"lengthCm":20,"heightCm":17,"widthCm":6},"rawTitle":"『Celine 赛琳』\n\n新款🔅CABAS TRIOMPHE提花面料MiNi号竖款手袋,65%纺织布,35%小牛皮,100%棉衬里,内侧插袋,可调节可拆卸皮革肩带 长50厘米\n尺寸20X 17X 6厘米\n型号:2200#"},"price":null,"currency":"CNY","moq":1,"category":"celine-women-bags","status":"active","alibaba_url":null,"images":["https://xcimg.szwego.com/20220504/i1651635127_7756_0.jpg","https://xcimg.szwego.com/20220504/i1651635127_166_1.jpg","https://xcimg.szwego.com/20220504/i1651635127_1963_2.jpg","https://xcimg.szwego.com/20220504/i1651635127_4533_3.jpg","https://xcimg.szwego.com/20220504/i1651635127_2423_4.jpg","https://xcimg.szwego.com/20220504/i1651635127_7734_5.jpg","https://xcimg.szwego.com/20220504/i1651635127_2530_6.jpg","https://xcimg.szwego.com/20220504/i1651635127_4453_7.jpg"],"created_at":"2025-02-08T12:47:00.839Z"},{"id":"item-bf70b7960b3f","sku":"_dqPqPq40Ih_F09TVtd7QITCa5i7OvYig_5ys7pw","name_en":"『Celine 赛琳』","name_cn":"『Celine 赛琳』\n\nTriomphe Mini Tote \n💯搭配小精灵 〰️简直不要太可爱啦啦 涉猎广众集美们 停止不了的魅力🤳🏻\n款号:2200 麻布/马车\n尺寸:17-20-6","specs":{"source":"wsxcme","sourceId":"_dqPqPq40Ih_F09TVtd7QITCa5i7OvYig_5ys7pw","sourceTagId":47003106,"sourceTagName":"塞琳/女包","modelNumber":"2200 麻布/马车","rawTitle":"『Celine 赛琳』\n\nTriomphe Mini Tote \n💯搭配小精灵 〰️简直不要太可爱啦啦 涉猎广众集美们 停止不了的魅力🤳🏻\n款号:2200 麻布/马车\n尺寸:17-20-6"},"price":null,"currency":"CNY","moq":1,"category":"celine-women-bags","status":"active","alibaba_url":null,"images":["https://xcimg.szwego.com/20201210/i1607574742_2300_0.jpg","https://xcimg.szwego.com/20201210/i1607574742_2675_1.jpg","https://xcimg.szwego.com/20201210/i1607574742_831_2.jpg","https://xcimg.szwego.com/20201210/i1607574742_1106_3.jpg","https://xcimg.szwego.com/20201210/i1607574742_916_4.jpg","https://xcimg.szwego.com/20201210/i1607574742_5505_5.jpg","https://xcimg.szwego.com/20201210/i1607574742_2917_6.jpg","https://xcimg.szwego.com/20201210/i1607574742_2106_7.jpg","https://xcimg.szwego.com/20201210/i1607574742_3109_8.jpg"],"created_at":"2025-02-08T12:47:00.838Z"},{"id":"item-20d695e7353b","sku":"_dxHxHWfv8zG6ar2YS2heu09ThbTIwU1OEJFF44A","name_en":"『Celine 赛琳』","name_cn":"『Celine 赛琳』\n\n新款FOLCO TRIOMPHE邮差包PVC/牛皮 衬里 : 织物 斜挎和肩背 带扣和磁扣 内侧扁平口袋  翻盖下设扁平口袋,背面扁平口袋 可调节肩带 长(53厘米)\n尺寸:31 X 24 X 9cm\n款号:3350#","specs":{"source":"wsxcme","sourceId":"_dxHxHWfv8zG6ar2YS2heu09ThbTIwU1OEJFF44A","sourceTagId":47003106,"sourceTagName":"塞琳/女包","modelNumber":"3350#","dimensions":{"lengthCm":31,"heightCm":24,"widthCm":9},"rawTitle":"『Celine 赛琳』\n\n新款FOLCO TRIOMPHE邮差包PVC/牛皮 衬里 : 织物 斜挎和肩背 带扣和磁扣 内侧扁平口袋  翻盖下设扁平口袋,背面扁平口袋 可调节肩带 长(53厘米)\n尺寸:31 X 24 X 9cm\n款号:3350#"},"price":null,"currency":"CNY","moq":1,"category":"celine-women-bags","status":"active","alibaba_url":null,"images":["https://xcimg.szwego.com/20220415/i1649993379_5750_0.jpg","https://xcimg.szwego.com/20220415/i1649993379_906_1.jpg","https://xcimg.szwego.com/20220415/i1649993379_7104_2.jpg","https://xcimg.szwego.com/20220415/i1649993379_5536_3.jpg","https://xcimg.szwego.com/20220415/i1649993379_7982_4.jpg","https://xcimg.szwego.com/20220415/i1649993379_9058_5.jpg","https://xcimg.szwego.com/20220415/i1649993379_8908_6.jpg","https://xcimg.szwego.com/20220415/i1649993379_9438_7.jpg","https://xcimg.szwego.com/20220415/i1649993379_7165_8.jpg"],"created_at":"2025-02-08T12:47:00.837Z"},{"id":"item-2a8918947984","sku":"_d8V8VBHza-8u_x5VZxCAkUBZIqr3iSVYmIhSo_w","name_en":"『Celine 赛琳』","name_cn":"『Celine 赛琳』\n\nCelin  CABAS TRIOMPHE刺绣款提花面料MiNi号竖款手袋,65%纺织布,35%小牛皮,100%棉衬里,内侧插袋,可调节可拆卸皮革肩带 长50厘米,\n尺寸17X 21X 4厘米\n型号:3014","specs":{"source":"wsxcme","sourceId":"_d8V8VBHza-8u_x5VZxCAkUBZIqr3iSVYmIhSo_w","sourceTagId":47003106,"sourceTagName":"塞琳/女包","modelNumber":"3014","dimensions":{"lengthCm":17,"heightCm":21,"widthCm":4},"rawTitle":"『Celine 赛琳』\n\nCelin  CABAS TRIOMPHE刺绣款提花面料MiNi号竖款手袋,65%纺织布,35%小牛皮,100%棉衬里,内侧插袋,可调节可拆卸皮革肩带 长50厘米,\n尺寸17X 21X 4厘米\n型号:3014"},"price":null,"currency":"CNY","moq":1,"category":"celine-women-bags","status":"active","alibaba_url":null,"images":["https://xcimg.szwego.com/20210914/i1631586063_2438_0.jpg","https://xcimg.szwego.com/20210914/i1631586063_4413_1.jpg","https://xcimg.szwego.com/20210914/i1631586063_9381_2.jpg","https://xcimg.szwego.com/20210914/i1631586063_5921_3.jpg","https://xcimg.szwego.com/20210914/i1631586063_6013_4.jpg","https://xcimg.szwego.com/20210914/i1631586063_9820_5.jpg","https://xcimg.szwego.com/20210914/i1631586063_4081_6.jpg","https://xcimg.szwego.com/20210914/i1631586063_7514_7.jpg","https://xcimg.szwego.com/20210914/i1631586063_9377_8.jpg"],"created_at":"2025-02-08T12:47:00.836Z"},{"id":"item-b72fc127f7e8","sku":"_dststEkZiiql2DRhajpH0VkPhiouHg0ZuYz_vfA","name_en":"『Celine 赛琳』","name_cn":"『Celine 赛琳』\n\nCABAS TRIOMPHE提花面料MiNi号竖款手袋,65%纺织布,35%小牛皮,100%棉衬里,内侧插袋,可调节可拆卸皮革肩带 长50厘米\n尺寸20X 17X 6厘米\n型号:3014","specs":{"source":"wsxcme","sourceId":"_dststEkZiiql2DRhajpH0VkPhiouHg0ZuYz_vfA","sourceTagId":47003106,"sourceTagName":"塞琳/女包","modelNumber":"3014","dimensions":{"lengthCm":20,"heightCm":17,"widthCm":6},"rawTitle":"『Celine 赛琳』\n\nCABAS TRIOMPHE提花面料MiNi号竖款手袋,65%纺织布,35%小牛皮,100%棉衬里,内侧插袋,可调节可拆卸皮革肩带 长50厘米\n尺寸20X 17X 6厘米\n型号:3014"},"price":null,"currency":"CNY","moq":1,"category":"celine-women-bags","status":"active","alibaba_url":null,"images":["https://xcimg.szwego.com/20210914/i1631586374_3372_0.jpg","https://xcimg.szwego.com/20210914/i1631586374_7546_1.jpg","https://xcimg.szwego.com/20210914/i1631586374_5100_2.jpg","https://xcimg.szwego.com/20210914/i1631586374_3332_3.jpg","https://xcimg.szwego.com/20210914/i1631586374_5623_4.jpg","https://xcimg.szwego.com/20210914/i1631586374_338_5.jpg","https://xcimg.szwego.com/20210914/i1631586374_1242_6.jpg","https://xcimg.szwego.com/20210914/i1631586374_9964_7.jpg","https://xcimg.szwego.com/20210914/i1631586374_5741_8.jpg"],"created_at":"2025-02-08T12:47:00.835Z"},{"id":"item-22adf29103e4","sku":"_daWaW5izSMaWWoChJz20_MDnOhGE20Eq-R8yZSQ","name_en":"『Celine 赛琳』","name_cn":"『Celine 赛琳』\n\nMINI CABASC 七夕限量特定款,金线刺绣工艺,超mini超可爱❤️超火爆,可手提肩背斜挎,这个大小刚刚好。\n尺寸17x20x6 \n型号:3014","specs":{"source":"wsxcme","sourceId":"_daWaW5izSMaWWoChJz20_MDnOhGE20Eq-R8yZSQ","sourceTagId":47003106,"sourceTagName":"塞琳/女包","modelNumber":"3014","rawTitle":"『Celine 赛琳』\n\nMINI CABASC 七夕限量特定款,金线刺绣工艺,超mini超可爱❤️超火爆,可手提肩背斜挎,这个大小刚刚好。\n尺寸17x20x6 \n型号:3014"},"price":null,"currency":"CNY","moq":1,"category":"celine-women-bags","status":"active","alibaba_url":null,"images":["https://xcimg.szwego.com/20211229/i1640754684_753_0.jpg","https://xcimg.szwego.com/20211229/i1640754684_9228_1.jpg","https://xcimg.szwego.com/20211229/i1640754684_5264_2.jpg","https://xcimg.szwego.com/20211229/i1640754684_5838_3.jpg","https://xcimg.szwego.com/20211229/i1640754684_1042_4.jpg","https://xcimg.szwego.com/20211229/i1640754684_1068_5.jpg","https://xcimg.szwego.com/20211229/i1640754684_8763_6.jpg","https://xcimg.szwego.com/20211229/i1640754684_3327_7.jpg","https://xcimg.szwego.com/20211229/i1640754684_4277_8.jpg"],"created_at":"2025-02-08T12:47:00.834Z"},{"id":"item-87edfb00d03f","sku":"_dvDvDXlAApZdoB5f-9Zjm3QatshGj8P9Zz3JqPA","name_en":"『Celine 赛琳』","name_cn":"『Celine 赛琳』\n\n白花购物袋 白花配 棕色牛皮 这个包真的很酷 尺寸刚好 比起上一款竖版手拿包  型号3006  尺寸28x32cm","specs":{"source":"wsxcme","sourceId":"_dvDvDXlAApZdoB5f-9Zjm3QatshGj8P9Zz3JqPA","sourceTagId":47003106,"sourceTagName":"塞琳/女包","modelNumber":"3006  尺寸28x32cm","rawTitle":"『Celine 赛琳』\n\n白花购物袋 白花配 棕色牛皮 这个包真的很酷 尺寸刚好 比起上一款竖版手拿包  型号3006  尺寸28x32cm"},"price":null,"currency":"CNY","moq":1,"category":"celine-women-bags","status":"active","alibaba_url":null,"images":["https://xcimg.szwego.com/20210412/i1618230438_8827_0.jpg","https://xcimg.szwego.com/20210412/i1618230438_3213_1.jpg","https://xcimg.szwego.com/20210412/i1618230438_1712_2.jpg","https://xcimg.szwego.com/20210412/i1618230438_2612_3.jpg","https://xcimg.szwego.com/20210412/i1618230438_7375_4.jpg","https://xcimg.szwego.com/20210412/i1618230438_1492_5.jpg","https://xcimg.szwego.com/20210412/i1618230438_1637_6.jpg","https://xcimg.szwego.com/20210412/i1618230438_1141_7.jpg","https://xcimg.szwego.com/20210412/i1618230438_7756_8.jpg"],"created_at":"2025-02-08T12:47:00.833Z"},{"id":"item-97061d08d624","sku":"_dgZgZmKx74ZTx4U_lnp6s5C9zsytYX6HDR7ruCw","name_en":"『Celine 赛琳』","name_cn":"『Celine 赛琳』\n\n新款Box 新款(凯旋门)老花信封包。大家都知道C家换了设计师 ,这次新款和旧款的最大不同之处在于钮扣,20s早春走秀款 将复古元素与一向拿手的利落线条完美结合 焕发出全新的动人魅力 尺寸 20-11.5-6cm","specs":{"source":"wsxcme","sourceId":"_dgZgZmKx74ZTx4U_lnp6s5C9zsytYX6HDR7ruCw","sourceTagId":47003106,"sourceTagName":"塞琳/女包","rawTitle":"『Celine 赛琳』\n\n新款Box 新款(凯旋门)老花信封包。大家都知道C家换了设计师 ,这次新款和旧款的最大不同之处在于钮扣,20s早春走秀款 将复古元素与一向拿手的利落线条完美结合 焕发出全新的动人魅力 尺寸 20-11.5-6cm"},"price":null,"currency":"CNY","moq":1,"category":"celine-women-bags","status":"active","alibaba_url":null,"images":["https://xcimg.szwego.com/20210708/i1625675152_9331_0.jpg","https://xcimg.szwego.com/20210708/i1625675152_5562_1.jpg","https://xcimg.szwego.com/20210708/i1625675152_9473_2.jpg","https://xcimg.szwego.com/20210708/i1625675152_2204_3.jpg","https://xcimg.szwego.com/20210708/i1625675152_1783_4.jpg","https://xcimg.szwego.com/20210708/i1625675152_3035_5.jpg","https://xcimg.szwego.com/20210708/i1625675152_2620_6.jpg","https://xcimg.szwego.com/20210708/i1625675152_2043_7.jpg","https://xcimg.szwego.com/20210708/i1625675152_3470_8.jpg"],"created_at":"2025-02-08T12:47:00.832Z"},{"id":"item-04663850fb36","sku":"_dxTxTJP315UQ52kDAHXXGo3Ts_tn1CGyMSLQMDg","name_en":"『Celine 赛琳』","name_cn":"『Celine 赛琳』\n\nCeline 复古凯旋门 链条腋下包出货 版型是长长的横版 搭配标志C家五金 腋下背刚刚好 复古又时尚 尺寸:30cm  款号:3019","specs":{"source":"wsxcme","sourceId":"_dxTxTJP315UQ52kDAHXXGo3Ts_tn1CGyMSLQMDg","sourceTagId":47003106,"sourceTagName":"塞琳/女包","modelNumber":"3019","rawTitle":"『Celine 赛琳』\n\nCeline 复古凯旋门 链条腋下包出货 版型是长长的横版 搭配标志C家五金 腋下背刚刚好 复古又时尚 尺寸:30cm  款号:3019"},"price":null,"currency":"CNY","moq":1,"category":"celine-women-bags","status":"active","alibaba_url":null,"images":["https://xcimg.szwego.com/20210701/i1625119213_8469_0.jpg","https://xcimg.szwego.com/20210701/i1625119181_8565_8.jpg","https://xcimg.szwego.com/20210701/i1625119181_6401_2.jpg","https://xcimg.szwego.com/20210701/i1625119181_4163_3.jpg","https://xcimg.szwego.com/20210701/i1625119233_6043_0.jpg","https://xcimg.szwego.com/20210701/i1625119181_8310_4.jpg","https://xcimg.szwego.com/20210701/i1625119181_2541_5.jpg","https://xcimg.szwego.com/20210701/i1625119181_3042_6.jpg","https://xcimg.szwego.com/20210701/i1625119181_6094_7.jpg"],"created_at":"2025-02-08T12:47:00.831Z"},{"id":"item-7e93a55e168c","sku":"_dDDDDmx4gUFV95FJ8hwsi5YmSyofQssjMsFNitg","name_en":"『Celine 赛琳』","name_cn":"『Celine 赛琳』\n\nCeline 复古凯旋门 链条腋下包出货 版型是长长的横版 搭配标志C家五金 腋下背刚刚好 复古又时尚 尺寸:30cm  款号:3019","specs":{"source":"wsxcme","sourceId":"_dDDDDmx4gUFV95FJ8hwsi5YmSyofQssjMsFNitg","sourceTagId":47003106,"sourceTagName":"塞琳/女包","modelNumber":"3019","rawTitle":"『Celine 赛琳』\n\nCeline 复古凯旋门 链条腋下包出货 版型是长长的横版 搭配标志C家五金 腋下背刚刚好 复古又时尚 尺寸:30cm  款号:3019"},"price":null,"currency":"CNY","moq":1,"category":"celine-women-bags","status":"active","alibaba_url":null,"images":["https://xcimg.szwego.com/20210701/i1625118653_3859_0.jpg","https://xcimg.szwego.com/20210701/i1625118653_5996_1.jpg","https://xcimg.szwego.com/20210701/i1625118653_5743_2.jpg","https://xcimg.szwego.com/20210701/i1625118653_6327_3.jpg","https://xcimg.szwego.com/20210701/i1625118653_1532_4.jpg","https://xcimg.szwego.com/20210701/i1625118653_1422_5.jpg","https://xcimg.szwego.com/20210701/i1625118694_972_0.jpg","https://xcimg.szwego.com/20210701/i1625118653_8313_6.jpg","https://xcimg.szwego.com/20210701/i1625118653_2437_7.jpg"],"created_at":"2025-02-08T12:47:00.830Z"},{"id":"item-077d7470f7d0","sku":"_dlOlOQCpZN7eZaEPBpsMfBLIiZaXlrUWRFu4Dsg","name_en":"『Celine 赛琳』","name_cn":"『Celine 赛琳』\n\n复古凯旋门 链条腋下包出货 版型是长长的横版 搭配标志C家五金 腋下背刚刚好 复古又时尚 尺寸:30cm  款号:3019","specs":{"source":"wsxcme","sourceId":"_dlOlOQCpZN7eZaEPBpsMfBLIiZaXlrUWRFu4Dsg","sourceTagId":47003106,"sourceTagName":"塞琳/女包","modelNumber":"3019","rawTitle":"『Celine 赛琳』\n\n复古凯旋门 链条腋下包出货 版型是长长的横版 搭配标志C家五金 腋下背刚刚好 复古又时尚 尺寸:30cm  款号:3019"},"price":null,"currency":"CNY","moq":1,"category":"celine-women-bags","status":"active","alibaba_url":null,"images":["https://xcimg.szwego.com/20211211/i1639212725_7081_0.jpg","https://xcimg.szwego.com/20211211/i1639212725_8965_1.jpg","https://xcimg.szwego.com/20211211/i1639212725_525_2.jpg","https://xcimg.szwego.com/20211211/i1639212725_1238_3.jpg","https://xcimg.szwego.com/20211211/i1639212725_8974_4.jpg","https://xcimg.szwego.com/20211211/i1639212725_2383_5.jpg","https://xcimg.szwego.com/20211211/i1639212725_1148_6.jpg","https://xcimg.szwego.com/20211211/i1639212725_3586_7.jpg","https://xcimg.szwego.com/20211211/i1639212725_8200_8.jpg"],"created_at":"2025-02-08T12:47:00.829Z"},{"id":"item-ee5927e222e1","sku":"_dcmcmx-kWfSU3IG9T7pvxnzs5Y44bPHCh2oBDCw","name_en":"『Celine 赛琳』","name_cn":"『Celine 赛琳』\n\n腋下包 白花\n\n定制版品质✨\n颜值无死角\n实用性超高\n\n尺寸24.5×18×7.5cm","specs":{"source":"wsxcme","sourceId":"_dcmcmx-kWfSU3IG9T7pvxnzs5Y44bPHCh2oBDCw","sourceTagId":47003106,"sourceTagName":"塞琳/女包","dimensions":{"lengthCm":24.5,"heightCm":18,"widthCm":7.5},"rawTitle":"『Celine 赛琳』\n\n腋下包 白花\n\n定制版品质✨\n颜值无死角\n实用性超高\n\n尺寸24.5×18×7.5cm"},"price":null,"currency":"CNY","moq":1,"category":"celine-women-bags","status":"active","alibaba_url":null,"images":["https://xcimg.szwego.com/20210518/i1621323139_9040_0.jpg","https://xcimg.szwego.com/20210518/i1621323139_7477_1.jpg","https://xcimg.szwego.com/20210518/i1621323139_8682_2.jpg","https://xcimg.szwego.com/20210518/i1621323139_4421_3.jpg","https://xcimg.szwego.com/20210518/i1621323139_7791_4.jpg","https://xcimg.szwego.com/20210518/i1621323139_5632_5.jpg","https://xcimg.szwego.com/20210518/i1621323139_317_6.jpg","https://xcimg.szwego.com/20210518/i1621323139_6926_7.jpg","https://xcimg.szwego.com/20210518/i1621323139_7851_8.jpg"],"created_at":"2025-02-08T12:47:00.828Z"},{"id":"item-f15d4a14dcd1","sku":"_dUyUyzeSKTsl5xn0quFUIDk1Xb1wHrr_eYo9ENA","name_en":"『Celine 赛琳』","name_cn":"『Celine 赛琳』\n\n腋下包 老花\n\n定制版品质✨\n颜值无死角\n实用性超高\n\n尺寸24.5×18×7.5cm","specs":{"source":"wsxcme","sourceId":"_dUyUyzeSKTsl5xn0quFUIDk1Xb1wHrr_eYo9ENA","sourceTagId":47003106,"sourceTagName":"塞琳/女包","dimensions":{"lengthCm":24.5,"heightCm":18,"widthCm":7.5},"rawTitle":"『Celine 赛琳』\n\n腋下包 老花\n\n定制版品质✨\n颜值无死角\n实用性超高\n\n尺寸24.5×18×7.5cm"},"price":null,"currency":"CNY","moq":1,"category":"celine-women-bags","status":"active","alibaba_url":null,"images":["https://xcimg.szwego.com/20210407/i1617769074_1565_0.jpg","https://xcimg.szwego.com/20210407/i1617769074_9246_1.jpg","https://xcimg.szwego.com/20210407/i1617769074_399_2.jpg","https://xcimg.szwego.com/20210407/i1617769074_5612_3.jpg","https://xcimg.szwego.com/20210407/i1617769074_8719_4.jpg","https://xcimg.szwego.com/20210407/i1617769074_9609_5.jpg","https://xcimg.szwego.com/20210407/i1617769074_3384_6.jpg","https://xcimg.szwego.com/20210407/i1617769074_3800_7.jpg","https://xcimg.szwego.com/20210407/i1617769074_3966_8.jpg"],"created_at":"2025-02-08T12:47:00.827Z"}],"page":177,"pageSize":24,"total":10075,"totalPages":420}
