{"items":[{"id":"item-63802857b11c","sku":"_dvcvc5cJbSHpzOwP6Ad5_15LG0AptjnuUlaU5iQ","name_en":"《酒红色》25B最新🆕风琴包🚩🚩🚩爆闪钻🎖️🎖️🎖️mimi风琴包OHANEL 水钻手柄风琴包🎹双色水晶手柄真的绝绝绝美!复古华丽,精致的像艺术品一样双层的风琴包型,容量也很大可以放下2部📱,很实用的一款😄双C扣的设计也很特别,有种blingbling的感觉,好精致好米呀~糕🐑皮很独特!感觉很耐用哦!搭配任何衣服都能让你精致度.4831","name_cn":"《酒红色》25B最新🆕风琴包🚩🚩🚩爆闪钻🎖️🎖️🎖️mimi风琴包OHANEL 水钻手柄风琴包🎹双色水晶手柄真的绝绝绝美!复古华丽,精致的像艺术品一样双层的风琴包型,容量也很大可以放下2部📱,很实用的一款😄双C扣的设计也很特别,有种blingbling的感觉,好精致好米呀~糕🐑皮很独特!感觉很耐用哦!搭配任何衣服都能让你精致度.4831尺寸11*18.5*6cm/","specs":{"source":"wsxcme","sourceId":"_dvcvc5cJbSHpzOwP6Ad5_15LG0AptjnuUlaU5iQ","sourceTagId":47002745,"sourceTagName":"香奈儿/女包","dimensions":{"lengthCm":11,"heightCm":18.5,"widthCm":6},"rawTitle":"《酒红色》25B最新🆕风琴包🚩🚩🚩爆闪钻🎖️🎖️🎖️mimi风琴包OHANEL 水钻手柄风琴包🎹双色水晶手柄真的绝绝绝美!复古华丽,精致的像艺术品一样双层的风琴包型,容量也很大可以放下2部📱,很实用的一款😄双C扣的设计也很特别,有种blingbling的感觉,好精致好米呀~糕🐑皮很独特!感觉很耐用哦!搭配任何衣服都能让你精致度.4831尺寸11*18.5*6cm/"},"price":null,"currency":"CNY","moq":1,"category":"chanel-women-bags","status":"active","alibaba_url":null,"images":["https://xcimg.szwego.com/img/d0c94e6f/20250910/i1757504632_8876_6.jpg","https://xcimg.szwego.com/img/d0c94e6f/20250910/i1757504631_7705_2.jpg","https://xcimg.szwego.com/img/d0c94e6f/20250910/i1757504631_7072_4.jpg","https://xcimg.szwego.com/img/d0c94e6f/20250910/i1757504632_4004_7.jpg","https://xcimg.szwego.com/img/d0c94e6f/20250910/i1757504632_782_8.jpg","https://xcimg.szwego.com/img/d0c94e6f/20250910/i1757504631_4839_5.jpg","https://xcimg.szwego.com/img/d0c94e6f/20250910/i1757504631_7624_3.jpg","https://xcimg.szwego.com/img/d0c94e6f/20250910/i1757504643_1684_0.jpg","https://xcimg.szwego.com/img/d0c94e6f/20250910/i1757504631_9643_1.jpg"],"created_at":"2025-09-19T04:32:40.128Z"},{"id":"item-bf8e62b242ea","sku":"_dlQlQ-PAAhG4ObMXBYQ8kWAB2nnzdvBgc-8PbeA","name_en":"Chanel Women Bags","name_cn":"香奈儿/女包","specs":{"source":"wsxcme","sourceId":"_dlQlQ-PAAhG4ObMXBYQ8kWAB2nnzdvBgc-8PbeA","sourceTagId":47002745,"sourceTagName":"香奈儿/女包","rawTitle":""},"price":null,"currency":"CNY","moq":1,"category":"chanel-women-bags","status":"active","alibaba_url":null,"images":["https://xcimg.szwego.com/img/d0c94e6f/20250910/i1757504621_2109_0.jpg"],"created_at":"2025-09-19T04:32:40.127Z"},{"id":"item-1e60d0d209e1","sku":"_ds0s0ZORom7vtq6QITgdiDjk3C-vdIGHLYoMn4g","name_en":"《黑色》25B最新🆕风琴包🚩🚩🚩爆闪钻🎖️🎖️🎖️mimi风琴包OHANEL 水钻手柄风琴包🎹双色水晶手柄真的绝绝绝美!复古华丽,精致的像艺术品一样双层的风琴包型,容量也很大可以放下2部📱,很实用的一款😄双C扣的设计也很特别,有种blingbling的感觉,好精致好米呀~糕🐑皮很独特!感觉很耐用哦!搭配任何衣服都能让你精致度.4831尺","name_cn":"《黑色》25B最新🆕风琴包🚩🚩🚩爆闪钻🎖️🎖️🎖️mimi风琴包OHANEL 水钻手柄风琴包🎹双色水晶手柄真的绝绝绝美!复古华丽,精致的像艺术品一样双层的风琴包型,容量也很大可以放下2部📱,很实用的一款😄双C扣的设计也很特别,有种blingbling的感觉,好精致好米呀~糕🐑皮很独特!感觉很耐用哦!搭配任何衣服都能让你精致度.4831尺寸:11*18.5*6cm/","specs":{"source":"wsxcme","sourceId":"_ds0s0ZORom7vtq6QITgdiDjk3C-vdIGHLYoMn4g","sourceTagId":47002745,"sourceTagName":"香奈儿/女包","dimensions":{"lengthCm":11,"heightCm":18.5,"widthCm":6},"rawTitle":"《黑色》25B最新🆕风琴包🚩🚩🚩爆闪钻🎖️🎖️🎖️mimi风琴包OHANEL 水钻手柄风琴包🎹双色水晶手柄真的绝绝绝美!复古华丽,精致的像艺术品一样双层的风琴包型,容量也很大可以放下2部📱,很实用的一款😄双C扣的设计也很特别,有种blingbling的感觉,好精致好米呀~糕🐑皮很独特!感觉很耐用哦!搭配任何衣服都能让你精致度.4831尺寸:11*18.5*6cm/"},"price":null,"currency":"CNY","moq":1,"category":"chanel-women-bags","status":"active","alibaba_url":null,"images":["https://xcimg.szwego.com/img/d0c94e6f/20250910/i1757504599_6838_2.jpg","https://xcimg.szwego.com/img/d0c94e6f/20250910/i1757504599_3004_8.jpg","https://xcimg.szwego.com/img/d0c94e6f/20250910/i1757504599_3587_1.jpg","https://xcimg.szwego.com/img/d0c94e6f/20250910/i1757504599_6771_5.jpg","https://xcimg.szwego.com/img/d0c94e6f/20250910/i1757504599_1010_7.jpg","https://xcimg.szwego.com/img/d0c94e6f/20250910/i1757504599_9180_6.jpg","https://xcimg.szwego.com/img/d0c94e6f/20250910/i1757504599_4257_0.jpg","https://xcimg.szwego.com/img/d0c94e6f/20250910/i1757504599_4254_3.jpg","https://xcimg.szwego.com/img/d0c94e6f/20250910/i1757504599_8120_4.jpg"],"created_at":"2025-09-19T04:32:40.126Z"},{"id":"item-175649434414","sku":"_d2n2n69JvQcxI-wKhx-V3i9bdxJ9GscF6GsojnA","name_en":"Chanel Women Bags","name_cn":"白金版▪️正品级 包装如图\nChane1  25B 双C扣长盒子 亮银色\n专柜售价28900rmb购入开发〰️\n\n又一个爆品🪄\n整个包已经换了新元素\n包底下新增一个大Logo\n链条锁定🔒可以调节\n肩带长短 腋下斜单肩都可️\n盒子包已经是女生们爱不释手出街必备\n新款内是金色全皮➕小镜子🪞\n可以随时保持妆容\n美美哒💕\n\n面料:原厂小球纹牛皮\n五金:全钢复古亮银扣\n尺寸:9.5*17*8 cm\n3940","specs":{"source":"wsxcme","sourceId":"_d2n2n69JvQcxI-wKhx-V3i9bdxJ9GscF6GsojnA","sourceTagId":47002745,"sourceTagName":"香奈儿/女包","dimensions":{"lengthCm":9.5,"heightCm":17,"widthCm":8},"rawTitle":"白金版▪️正品级 包装如图\nChane1  25B 双C扣长盒子 亮银色\n专柜售价28900rmb购入开发〰️\n\n又一个爆品🪄\n整个包已经换了新元素\n包底下新增一个大Logo\n链条锁定🔒可以调节\n肩带长短 腋下斜单肩都可️\n盒子包已经是女生们爱不释手出街必备\n新款内是金色全皮➕小镜子🪞\n可以随时保持妆容\n美美哒💕\n\n面料:原厂小球纹牛皮\n五金:全钢复古亮银扣\n尺寸:9.5*17*8 cm\n3940"},"price":null,"currency":"CNY","moq":1,"category":"chanel-women-bags","status":"active","alibaba_url":null,"images":["https://xcimg.szwego.com/imgHD/9d8f4332/20250909/cmp_i1757402486813_2978_0_0.jpg","https://xcimg.szwego.com/imgHD/9d8f4332/20250909/cmp_i1757402488410_996_0_1.jpg","https://xcimg.szwego.com/imgHD/9d8f4332/20250909/cmp_i1757402488413_2045_0_2.jpg","https://xcimg.szwego.com/imgHD/9d8f4332/20250909/cmp_i1757402488402_6024_0_3.jpg","https://xcimg.szwego.com/imgHD/9d8f4332/20250909/cmp_i1757402486814_3016_0_4.jpg","https://xcimg.szwego.com/imgHD/9d8f4332/20250909/cmp_i1757402486808_976_0_5.jpg","https://xcimg.szwego.com/imgHD/9d8f4332/20250909/cmp_i1757402486808_2575_0_6.jpg","https://xcimg.szwego.com/imgHD/9d8f4332/20250909/cmp_i1757402488396_7238_0_7.jpg","https://xcimg.szwego.com/imgHD/9d8f4332/20250909/cmp_i1757402486808_9554_0_8.jpg"],"created_at":"2025-09-19T04:32:40.125Z"},{"id":"item-9e14419faf16","sku":"_daGaGRt2_2CYa6idGDDqcjpDsGGAs9sgxdnUAww","name_en":"Chanel Women Bags","name_cn":"白金版▪️正品级 包装如图\n全新发售🆕Chane1 25B新品\n双C链条调节扣woc亮银色🖤\n专柜售�00rmb购入开发~\n\n每一季度都有惊喜的ꫛꫀꪝ\n被这个小心机链条美到了✨\n优雅高级符合气质穿搭很绝配❕\n后知后觉更是让人心动不已啦💕\n\n五金:   全钢复古亮银\n皮料:原厂小球纹牛皮\n尺寸:11.5*19*4cm\n3938","specs":{"source":"wsxcme","sourceId":"_daGaGRt2_2CYa6idGDDqcjpDsGGAs9sgxdnUAww","sourceTagId":47002745,"sourceTagName":"香奈儿/女包","dimensions":{"lengthCm":11.5,"heightCm":19,"widthCm":4},"rawTitle":"白金版▪️正品级 包装如图\n全新发售🆕Chane1 25B新品\n双C链条调节扣woc亮银色🖤\n专柜售�00rmb购入开发~\n\n每一季度都有惊喜的ꫛꫀꪝ\n被这个小心机链条美到了✨\n优雅高级符合气质穿搭很绝配❕\n后知后觉更是让人心动不已啦💕\n\n五金:   全钢复古亮银\n皮料:原厂小球纹牛皮\n尺寸:11.5*19*4cm\n3938"},"price":null,"currency":"CNY","moq":1,"category":"chanel-women-bags","status":"active","alibaba_url":null,"images":["https://xcimg.szwego.com/imgHD/9d8f4332/20250909/cmp_i1757402225593_6618_0_0.jpg","https://xcimg.szwego.com/imgHD/9d8f4332/20250909/cmp_i1757402225593_5298_0_1.jpg","https://xcimg.szwego.com/imgHD/9d8f4332/20250909/cmp_i1757402227650_6196_0_2.jpg","https://xcimg.szwego.com/imgHD/9d8f4332/20250909/cmp_i1757402225588_4222_0_3.jpg","https://xcimg.szwego.com/imgHD/9d8f4332/20250909/cmp_i1757402225587_1997_0_4.jpg","https://xcimg.szwego.com/imgHD/9d8f4332/20250909/cmp_i1757402227650_9199_0_5.jpg","https://xcimg.szwego.com/imgHD/9d8f4332/20250909/cmp_i1757402227642_8063_0_6.jpg","https://xcimg.szwego.com/imgHD/9d8f4332/20250909/cmp_i1757402225587_4793_0_7.jpg","https://xcimg.szwego.com/imgHD/9d8f4332/20250909/cmp_i1757402227652_6062_0_8.jpg"],"created_at":"2025-09-19T04:32:40.124Z"},{"id":"item-d9747b5f80c0","sku":"_dxaxah5K5b8JKeTIUM2PCVxRtzrvVoQit0BqjKw","name_en":"大H实拍图片🔮🔮大小號🍠🍠🍠高身背包!《奶昔白色》《出口产品》OHANEL🚩🚩🚩25B四叶草系列双肩包🎒喜欢双肩包真的别错过这款🌟方方正正的包型; HAAs荔枝牛皮与砂金质感十足√四叶草勋章配饰吊坠做旧感很强!整体风格很“学院风”❤️❤️浓浓的vintage中古感甜酷又复古!不管是手拎或肩背都是凹造型神器!3653/5715,尺寸:22x","name_cn":"大H实拍图片🔮🔮大小號🍠🍠🍠高身背包!《奶昔白色》《出口产品》OHANEL🚩🚩🚩25B四叶草系列双肩包🎒喜欢双肩包真的别错过这款🌟方方正正的包型; HAAs荔枝牛皮与砂金质感十足√四叶草勋章配饰吊坠做旧感很强!整体风格很“学院风”❤️❤️浓浓的vintage中古感甜酷又复古!不管是手拎或肩背都是凹造型神器!3653/5715,尺寸:22x19.5x7cm","specs":{"source":"wsxcme","sourceId":"_dxaxah5K5b8JKeTIUM2PCVxRtzrvVoQit0BqjKw","sourceTagId":47002745,"sourceTagName":"香奈儿/女包","dimensions":{"lengthCm":22,"heightCm":19.5,"widthCm":7},"rawTitle":"大H实拍图片🔮🔮大小號🍠🍠🍠高身背包!《奶昔白色》《出口产品》OHANEL🚩🚩🚩25B四叶草系列双肩包🎒喜欢双肩包真的别错过这款🌟方方正正的包型; HAAs荔枝牛皮与砂金质感十足√四叶草勋章配饰吊坠做旧感很强!整体风格很“学院风”❤️❤️浓浓的vintage中古感甜酷又复古!不管是手拎或肩背都是凹造型神器!3653/5715,尺寸:22x19.5x7cm"},"price":null,"currency":"CNY","moq":1,"category":"chanel-women-bags","status":"active","alibaba_url":null,"images":["https://xcimg.szwego.com/img/d0c94e6f/20250831/i1756650324_4622_0.jpg"],"created_at":"2025-09-19T04:32:40.123Z"},{"id":"item-886c8a4703d7","sku":"_dohohE1IVb9zE6ozzuGgmCxwuRZkQyLQTdF875w","name_en":"Chanel Women Bags","name_cn":"香奈儿/女包","specs":{"source":"wsxcme","sourceId":"_dohohE1IVb9zE6ozzuGgmCxwuRZkQyLQTdF875w","sourceTagId":47002745,"sourceTagName":"香奈儿/女包","rawTitle":""},"price":null,"currency":"CNY","moq":1,"category":"chanel-women-bags","status":"active","alibaba_url":null,"images":["https://xcimg.szwego.com/img/d0c94e6f/20250828/i1756387970_5140_0.jpg"],"created_at":"2025-09-19T04:32:40.122Z"},{"id":"item-1d2fce2811a9","sku":"_dcxcxdf8wTr-5grsFQqR4quFTgiGafrswxzYltA","name_en":"《奶昔白》出口产品!🚩🚩🚩Chanel 25B 四叶草系列喜欢💕邮差包!真的别错过这款✨ 方方正正的包型;HAAs荔枝牛皮🐂与砂金质感十足✔️ 四叶草勋章🏅配饰吊坠做旧感很强!整体风格很“学院风” 🤩 浓浓的 vintage 中古感👜 甜酷又复古 !不管是手拎或肩背都是凹造型神器!3653尺寸:16.5×25× 8.5cm","name_cn":"《奶昔白》出口产品!🚩🚩🚩Chanel 25B 四叶草系列喜欢💕邮差包!真的别错过这款✨ 方方正正的包型;HAAs荔枝牛皮🐂与砂金质感十足✔️ 四叶草勋章🏅配饰吊坠做旧感很强!整体风格很“学院风” 🤩 浓浓的 vintage 中古感👜 甜酷又复古 !不管是手拎或肩背都是凹造型神器!3653尺寸:16.5×25× 8.5cm","specs":{"source":"wsxcme","sourceId":"_dcxcxdf8wTr-5grsFQqR4quFTgiGafrswxzYltA","sourceTagId":47002745,"sourceTagName":"香奈儿/女包","dimensions":{"lengthCm":16.5,"heightCm":25,"widthCm":8.5},"rawTitle":"《奶昔白》出口产品!🚩🚩🚩Chanel 25B 四叶草系列喜欢💕邮差包!真的别错过这款✨ 方方正正的包型;HAAs荔枝牛皮🐂与砂金质感十足✔️ 四叶草勋章🏅配饰吊坠做旧感很强!整体风格很“学院风” 🤩 浓浓的 vintage 中古感👜 甜酷又复古 !不管是手拎或肩背都是凹造型神器!3653尺寸:16.5×25× 8.5cm"},"price":null,"currency":"CNY","moq":1,"category":"chanel-women-bags","status":"active","alibaba_url":null,"images":["https://xcimg.szwego.com/img/d0c94e6f/20250828/i1756387945_4671_3.jpg","https://xcimg.szwego.com/img/d0c94e6f/20250828/i1756387945_5204_0.jpg","https://xcimg.szwego.com/img/d0c94e6f/20250828/i1756387945_9100_4.jpg","https://xcimg.szwego.com/img/d0c94e6f/20250828/i1756387945_8492_6.jpg","https://xcimg.szwego.com/img/d0c94e6f/20250828/i1756387945_6420_8.jpg","https://xcimg.szwego.com/img/d0c94e6f/20250828/i1756387945_8237_7.jpg","https://xcimg.szwego.com/img/d0c94e6f/20250828/i1756387945_8260_5.jpg","https://xcimg.szwego.com/img/d0c94e6f/20250828/i1756387945_1129_2.jpg","https://xcimg.szwego.com/img/d0c94e6f/20250828/i1756387945_135_1.jpg"],"created_at":"2025-09-19T04:32:40.121Z"},{"id":"item-3801e8e978c7","sku":"_dwfwflVfgaUj7Ghlujv-u3U0r5iTR1fnHDYw8rA","name_en":"Chanel Women Bags","name_cn":"香奈儿/女包","specs":{"source":"wsxcme","sourceId":"_dwfwflVfgaUj7Ghlujv-u3U0r5iTR1fnHDYw8rA","sourceTagId":47002745,"sourceTagName":"香奈儿/女包","rawTitle":""},"price":null,"currency":"CNY","moq":1,"category":"chanel-women-bags","status":"active","alibaba_url":null,"images":["https://xcimg.szwego.com/img/d0c94e6f/20250828/i1756387922_2481_0.jpg"],"created_at":"2025-09-19T04:32:40.120Z"},{"id":"item-2c5d49d296c0","sku":"_dtCtCcTFgMsdRoa7OQR0M5smw3xnIZC_ANdSQaQ","name_en":"小號🍠🍠🍠高身背包!《奶昔白色》《出口产品》OHANEL🚩🚩🚩25B四叶草系列双肩包🎒喜欢双肩包真的别错过这款🌟方方正正的包型; HAAs荔枝牛皮与砂金质感十足√四叶草勋章配饰吊坠做旧感很强!整体风格很“学院风”❤️❤️浓浓的vintage中古感甜酷又复古!不管是手拎或肩背都是凹造型神器!5715尺寸:22x19.5x7cm","name_cn":"小號🍠🍠🍠高身背包!《奶昔白色》《出口产品》OHANEL🚩🚩🚩25B四叶草系列双肩包🎒喜欢双肩包真的别错过这款🌟方方正正的包型; HAAs荔枝牛皮与砂金质感十足√四叶草勋章配饰吊坠做旧感很强!整体风格很“学院风”❤️❤️浓浓的vintage中古感甜酷又复古!不管是手拎或肩背都是凹造型神器!5715尺寸:22x19.5x7cm","specs":{"source":"wsxcme","sourceId":"_dtCtCcTFgMsdRoa7OQR0M5smw3xnIZC_ANdSQaQ","sourceTagId":47002745,"sourceTagName":"香奈儿/女包","dimensions":{"lengthCm":22,"heightCm":19.5,"widthCm":7},"rawTitle":"小號🍠🍠🍠高身背包!《奶昔白色》《出口产品》OHANEL🚩🚩🚩25B四叶草系列双肩包🎒喜欢双肩包真的别错过这款🌟方方正正的包型; HAAs荔枝牛皮与砂金质感十足√四叶草勋章配饰吊坠做旧感很强!整体风格很“学院风”❤️❤️浓浓的vintage中古感甜酷又复古!不管是手拎或肩背都是凹造型神器!5715尺寸:22x19.5x7cm"},"price":null,"currency":"CNY","moq":1,"category":"chanel-women-bags","status":"active","alibaba_url":null,"images":["https://xcimg.szwego.com/img/d0c94e6f/20250828/i1756387899_1061_3.jpg","https://xcimg.szwego.com/img/d0c94e6f/20250828/i1756387899_5733_4.jpg","https://xcimg.szwego.com/img/d0c94e6f/20250828/i1756387899_1762_2.jpg","https://xcimg.szwego.com/img/d0c94e6f/20250828/i1756387899_6662_7.jpg","https://xcimg.szwego.com/img/d0c94e6f/20250828/i1756387899_6886_8.jpg","https://xcimg.szwego.com/img/d0c94e6f/20250828/i1756387899_8460_6.jpg","https://xcimg.szwego.com/img/d0c94e6f/20250828/i1756387899_9377_0.jpg","https://xcimg.szwego.com/img/d0c94e6f/20250828/i1756387899_926_5.jpg","https://xcimg.szwego.com/img/d0c94e6f/20250828/i1756387899_1760_1.jpg"],"created_at":"2025-09-19T04:32:40.119Z"},{"id":"item-b3178d958a4c","sku":"_dveveEK8ImtE21oi7y--bNzn1gZ727D-0nTEXSw","name_en":"大H实拍图片🍠🍠🍠《铁灰色、咖啡色、樱花🌸粉、奶昔白、焦糖色》6⃣️色大H实拍图片🍠🍠🍠独家出货啦《出口产品》OHANEL🚩🚩🚩25k 大菱格牛皮LP盒子👅👅包黑金!玩转lp盒子包新款大菱格🌟🌟版本非常经典大气正面双C醒目又精致牛皮材质使用起来完全不娇气!!手提有质感,链条背又多了份随性优雅.轻松的适配不同风格,可️装得下日常出门","name_cn":"大H实拍图片🍠🍠🍠《铁灰色、咖啡色、樱花🌸粉、奶昔白、焦糖色》6⃣️色大H实拍图片🍠🍠🍠独家出货啦《出口产品》OHANEL🚩🚩🚩25k 大菱格牛皮LP盒子👅👅包黑金!玩转lp盒子包新款大菱格🌟🌟版本非常经典大气正面双C醒目又精致牛皮材质使用起来完全不娇气!!手提有质感,链条背又多了份随性优雅.轻松的适配不同风格,可️装得下日常出门的小物件背在身上回头率拉满~妥妥的时尚单品✓尺寸:17x19.5x5cm","specs":{"source":"wsxcme","sourceId":"_dveveEK8ImtE21oi7y--bNzn1gZ727D-0nTEXSw","sourceTagId":47002745,"sourceTagName":"香奈儿/女包","dimensions":{"lengthCm":17,"heightCm":19.5,"widthCm":5},"rawTitle":"大H实拍图片🍠🍠🍠《铁灰色、咖啡色、樱花🌸粉、奶昔白、焦糖色》6⃣️色大H实拍图片🍠🍠🍠独家出货啦《出口产品》OHANEL🚩🚩🚩25k 大菱格牛皮LP盒子👅👅包黑金!玩转lp盒子包新款大菱格🌟🌟版本非常经典大气正面双C醒目又精致牛皮材质使用起来完全不娇气!!手提有质感,链条背又多了份随性优雅.轻松的适配不同风格,可️装得下日常出门的小物件背在身上回头率拉满~妥妥的时尚单品✓尺寸:17x19.5x5cm"},"price":null,"currency":"CNY","moq":1,"category":"chanel-women-bags","status":"active","alibaba_url":null,"images":["https://xcimg.szwego.com/img/d0c94e6f/20250823/i1755935365_9122_0.jpg"],"created_at":"2025-09-19T04:32:40.118Z"},{"id":"item-f1b03750a80e","sku":"_dhbhb0Ml1uAwS5LGTkPoFdifU6OdZ2ouAC11hOg","name_en":"Chanel Women Bags","name_cn":"香奈儿/女包","specs":{"source":"wsxcme","sourceId":"_dhbhb0Ml1uAwS5LGTkPoFdifU6OdZ2ouAC11hOg","sourceTagId":47002745,"sourceTagName":"香奈儿/女包","rawTitle":""},"price":null,"currency":"CNY","moq":1,"category":"chanel-women-bags","status":"active","alibaba_url":null,"images":["https://xcimg.szwego.com/img/d0c94e6f/20250823/i1755959962_1068_0.jpg"],"created_at":"2025-09-19T04:32:40.117Z"},{"id":"item-9ec515a3bbfb","sku":"_dwswsn3V4mHZ1A6ggXRvfSkwR8mUQSXMiCc-CsQ","name_en":"暗黑色《出口产品》OHANEL🚩🚩🚩25k 大菱格牛皮LP盒子👅👅包黑金!玩转lp盒子包新款大菱格🌟🌟版本非常经典大气正面双C醒目又精致牛皮材质使用起来完全不娇气!!手提有质感,链条背又多了份随性优雅.轻松的适配不同风格,可️装得下日常出门的小物件背在身上回头率拉满~妥妥的时尚单品✓尺寸:17x19.5x5cm","name_cn":"暗黑色《出口产品》OHANEL🚩🚩🚩25k 大菱格牛皮LP盒子👅👅包黑金!玩转lp盒子包新款大菱格🌟🌟版本非常经典大气正面双C醒目又精致牛皮材质使用起来完全不娇气!!手提有质感,链条背又多了份随性优雅.轻松的适配不同风格,可️装得下日常出门的小物件背在身上回头率拉满~妥妥的时尚单品✓尺寸:17x19.5x5cm","specs":{"source":"wsxcme","sourceId":"_dwswsn3V4mHZ1A6ggXRvfSkwR8mUQSXMiCc-CsQ","sourceTagId":47002745,"sourceTagName":"香奈儿/女包","dimensions":{"lengthCm":17,"heightCm":19.5,"widthCm":5},"rawTitle":"暗黑色《出口产品》OHANEL🚩🚩🚩25k 大菱格牛皮LP盒子👅👅包黑金!玩转lp盒子包新款大菱格🌟🌟版本非常经典大气正面双C醒目又精致牛皮材质使用起来完全不娇气!!手提有质感,链条背又多了份随性优雅.轻松的适配不同风格,可️装得下日常出门的小物件背在身上回头率拉满~妥妥的时尚单品✓尺寸:17x19.5x5cm"},"price":null,"currency":"CNY","moq":1,"category":"chanel-women-bags","status":"active","alibaba_url":null,"images":["https://xcimg.szwego.com/img/d0c94e6f/20250823/i1755959874_1537_6.jpg","https://xcimg.szwego.com/img/d0c94e6f/20250823/i1755959874_7518_3.jpg","https://xcimg.szwego.com/img/d0c94e6f/20250823/i1755959896_4857_0.jpg","https://xcimg.szwego.com/img/d0c94e6f/20250823/i1755959874_4049_1.jpg","https://xcimg.szwego.com/img/d0c94e6f/20250823/i1755959874_5991_0.jpg","https://xcimg.szwego.com/img/d0c94e6f/20250823/i1755959874_8742_4.jpg","https://xcimg.szwego.com/img/d0c94e6f/20250823/i1755959896_527_0.jpg","https://xcimg.szwego.com/img/d0c94e6f/20250823/i1755959874_9354_7.jpg","https://xcimg.szwego.com/img/d0c94e6f/20250823/i1755959874_4923_8.jpg"],"created_at":"2025-09-19T04:32:40.116Z"},{"id":"item-4c478be990ba","sku":"_dvcvc5cJbSHpzOwP6Ad5_15LG1QFrjnuUl606jw","name_en":"Chanel Women Bags","name_cn":"香奈儿/女包","specs":{"source":"wsxcme","sourceId":"_dvcvc5cJbSHpzOwP6Ad5_15LG1QFrjnuUl606jw","sourceTagId":47002745,"sourceTagName":"香奈儿/女包","rawTitle":""},"price":null,"currency":"CNY","moq":1,"category":"chanel-women-bags","status":"active","alibaba_url":null,"images":["https://xcimg.szwego.com/img/d0c94e6f/20250823/i1755959696_4770_0.jpg"],"created_at":"2025-09-19T04:32:40.115Z"},{"id":"item-3bdaf5857dc6","sku":"_d0R0RtGr6trdkKcHqwChtrv0iLHqbDHvpLba1Uw","name_en":"焦糖色《出口产品》OHANEL🚩🚩🚩25k 大菱格牛皮LP盒子👅👅包黑金!玩转lp盒子包新款大菱格🌟🌟版本非常经典大气正面双C醒目又精致牛皮材质使用起来完全不娇气!!手提有质感,链条背又多了份随性优雅.轻松的适配不同风格,可️装得下日常出门的小物件背在身上回头率拉满~妥妥的时尚单品✓尺寸:17x19.5x5cm","name_cn":"焦糖色《出口产品》OHANEL🚩🚩🚩25k 大菱格牛皮LP盒子👅👅包黑金!玩转lp盒子包新款大菱格🌟🌟版本非常经典大气正面双C醒目又精致牛皮材质使用起来完全不娇气!!手提有质感,链条背又多了份随性优雅.轻松的适配不同风格,可️装得下日常出门的小物件背在身上回头率拉满~妥妥的时尚单品✓尺寸:17x19.5x5cm","specs":{"source":"wsxcme","sourceId":"_d0R0RtGr6trdkKcHqwChtrv0iLHqbDHvpLba1Uw","sourceTagId":47002745,"sourceTagName":"香奈儿/女包","dimensions":{"lengthCm":17,"heightCm":19.5,"widthCm":5},"rawTitle":"焦糖色《出口产品》OHANEL🚩🚩🚩25k 大菱格牛皮LP盒子👅👅包黑金!玩转lp盒子包新款大菱格🌟🌟版本非常经典大气正面双C醒目又精致牛皮材质使用起来完全不娇气!!手提有质感,链条背又多了份随性优雅.轻松的适配不同风格,可️装得下日常出门的小物件背在身上回头率拉满~妥妥的时尚单品✓尺寸:17x19.5x5cm"},"price":null,"currency":"CNY","moq":1,"category":"chanel-women-bags","status":"active","alibaba_url":null,"images":["https://xcimg.szwego.com/img/d0c94e6f/20250823/i1755959676_50_5.jpg","https://xcimg.szwego.com/img/d0c94e6f/20250823/i1755959676_7472_4.jpg","https://xcimg.szwego.com/img/d0c94e6f/20250823/i1755959676_787_1.jpg","https://xcimg.szwego.com/img/d0c94e6f/20250823/i1755959676_803_2.jpg","https://xcimg.szwego.com/img/d0c94e6f/20250823/i1755959676_1638_3.jpg","https://xcimg.szwego.com/img/d0c94e6f/20250823/i1755959676_749_8.jpg","https://xcimg.szwego.com/img/d0c94e6f/20250823/i1755959676_8009_6.jpg","https://xcimg.szwego.com/img/d0c94e6f/20250823/i1755959676_8392_7.jpg","https://xcimg.szwego.com/img/d0c94e6f/20250823/i1755959675_2875_0.jpg"],"created_at":"2025-09-19T04:32:40.114Z"},{"id":"item-7abacf4db89b","sku":"_dmHmH1Dpw_n8UGBJMC7srao5Lkmtwv2-fY32NdQ","name_en":"Chanel Women Bags","name_cn":"香奈儿/女包","specs":{"source":"wsxcme","sourceId":"_dmHmH1Dpw_n8UGBJMC7srao5Lkmtwv2-fY32NdQ","sourceTagId":47002745,"sourceTagName":"香奈儿/女包","rawTitle":""},"price":null,"currency":"CNY","moq":1,"category":"chanel-women-bags","status":"active","alibaba_url":null,"images":["https://xcimg.szwego.com/img/d0c94e6f/20250823/i1755959657_91_0.jpg"],"created_at":"2025-09-19T04:32:40.113Z"},{"id":"item-49502b75fe4e","sku":"_dNyNy4C3P5wZQbRLSmmpRAm-VMf6OsaA8f6pigQ","name_en":"深🍷酒红色《出口产品》OHANEL🚩🚩🚩25k 大菱格牛皮LP盒子👅👅包黑金!玩转lp盒子包新款大菱格🌟🌟版本非常经典大气正面双C醒目又精致牛皮材质使用起来完全不娇气!!手提有质感,链条背又多了份随性优雅.轻松的适配不同风格,可️装得下日常出门的小物件背在身上回头率拉满~妥妥的时尚单品✓尺寸:17x19.5x5cm","name_cn":"深🍷酒红色《出口产品》OHANEL🚩🚩🚩25k 大菱格牛皮LP盒子👅👅包黑金!玩转lp盒子包新款大菱格🌟🌟版本非常经典大气正面双C醒目又精致牛皮材质使用起来完全不娇气!!手提有质感,链条背又多了份随性优雅.轻松的适配不同风格,可️装得下日常出门的小物件背在身上回头率拉满~妥妥的时尚单品✓尺寸:17x19.5x5cm","specs":{"source":"wsxcme","sourceId":"_dNyNy4C3P5wZQbRLSmmpRAm-VMf6OsaA8f6pigQ","sourceTagId":47002745,"sourceTagName":"香奈儿/女包","dimensions":{"lengthCm":17,"heightCm":19.5,"widthCm":5},"rawTitle":"深🍷酒红色《出口产品》OHANEL🚩🚩🚩25k 大菱格牛皮LP盒子👅👅包黑金!玩转lp盒子包新款大菱格🌟🌟版本非常经典大气正面双C醒目又精致牛皮材质使用起来完全不娇气!!手提有质感,链条背又多了份随性优雅.轻松的适配不同风格,可️装得下日常出门的小物件背在身上回头率拉满~妥妥的时尚单品✓尺寸:17x19.5x5cm"},"price":null,"currency":"CNY","moq":1,"category":"chanel-women-bags","status":"active","alibaba_url":null,"images":["https://xcimg.szwego.com/img/d0c94e6f/20250823/i1755959609_878_7.jpg","https://xcimg.szwego.com/img/d0c94e6f/20250823/i1755959608_7455_4.jpg","https://xcimg.szwego.com/img/d0c94e6f/20250823/i1755959608_327_0.jpg","https://xcimg.szwego.com/img/d0c94e6f/20250823/i1755959609_6660_6.jpg","https://xcimg.szwego.com/img/d0c94e6f/20250823/i1755959608_7119_1.jpg","https://xcimg.szwego.com/img/d0c94e6f/20250823/i1755959608_7321_3.jpg","https://xcimg.szwego.com/img/d0c94e6f/20250823/i1755959609_4867_8.jpg","https://xcimg.szwego.com/img/d0c94e6f/20250823/i1755959608_6668_2.jpg","https://xcimg.szwego.com/img/d0c94e6f/20250823/i1755959609_5466_5.jpg"],"created_at":"2025-09-19T04:32:40.112Z"},{"id":"item-00d456704bba","sku":"_daxaxE0r4M_wPtmKXWaiWfIbbSg_P633qJ2sblw","name_en":"Chanel Women Bags","name_cn":"香奈儿/女包","specs":{"source":"wsxcme","sourceId":"_daxaxE0r4M_wPtmKXWaiWfIbbSg_P633qJ2sblw","sourceTagId":47002745,"sourceTagName":"香奈儿/女包","rawTitle":""},"price":null,"currency":"CNY","moq":1,"category":"chanel-women-bags","status":"active","alibaba_url":null,"images":["https://xcimg.szwego.com/img/d0c94e6f/20250823/i1755959593_3634_0.jpg"],"created_at":"2025-09-19T04:32:40.111Z"},{"id":"item-be09cc736c34","sku":"_dOOOOonA-0B8VUbLwZe9ka1FLgFqbR_Kuzid2Hw","name_en":"奶昔白《出口产品》OHANEL🚩🚩🚩25k 大菱格牛皮LP盒子👅👅包黑金!玩转lp盒子包新款大菱格🌟🌟版本非常经典大气正面双C醒目又精致牛皮材质使用起来完全不娇气!!手提有质感,链条背又多了份随性优雅.轻松的适配不同风格,可️装得下日常出门的小物件背在身上回头率拉满~妥妥的时尚单品✓尺寸:17x19.5x5cm","name_cn":"奶昔白《出口产品》OHANEL🚩🚩🚩25k 大菱格牛皮LP盒子👅👅包黑金!玩转lp盒子包新款大菱格🌟🌟版本非常经典大气正面双C醒目又精致牛皮材质使用起来完全不娇气!!手提有质感,链条背又多了份随性优雅.轻松的适配不同风格,可️装得下日常出门的小物件背在身上回头率拉满~妥妥的时尚单品✓尺寸:17x19.5x5cm","specs":{"source":"wsxcme","sourceId":"_dOOOOonA-0B8VUbLwZe9ka1FLgFqbR_Kuzid2Hw","sourceTagId":47002745,"sourceTagName":"香奈儿/女包","dimensions":{"lengthCm":17,"heightCm":19.5,"widthCm":5},"rawTitle":"奶昔白《出口产品》OHANEL🚩🚩🚩25k 大菱格牛皮LP盒子👅👅包黑金!玩转lp盒子包新款大菱格🌟🌟版本非常经典大气正面双C醒目又精致牛皮材质使用起来完全不娇气!!手提有质感,链条背又多了份随性优雅.轻松的适配不同风格,可️装得下日常出门的小物件背在身上回头率拉满~妥妥的时尚单品✓尺寸:17x19.5x5cm"},"price":null,"currency":"CNY","moq":1,"category":"chanel-women-bags","status":"active","alibaba_url":null,"images":["https://xcimg.szwego.com/img/d0c94e6f/20250823/i1755959568_5973_5.jpg","https://xcimg.szwego.com/img/d0c94e6f/20250823/i1755959568_4565_0.jpg","https://xcimg.szwego.com/img/d0c94e6f/20250823/i1755959568_9703_8.jpg","https://xcimg.szwego.com/img/d0c94e6f/20250823/i1755959568_912_3.jpg","https://xcimg.szwego.com/img/d0c94e6f/20250823/i1755959568_3179_6.jpg","https://xcimg.szwego.com/img/d0c94e6f/20250823/i1755959568_6287_2.jpg","https://xcimg.szwego.com/img/d0c94e6f/20250823/i1755959568_581_4.jpg","https://xcimg.szwego.com/img/d0c94e6f/20250823/i1755959568_3003_7.jpg","https://xcimg.szwego.com/img/d0c94e6f/20250823/i1755959568_9346_1.jpg"],"created_at":"2025-09-19T04:32:40.110Z"},{"id":"item-5507c8c4860a","sku":"_dx4x4YF6sFAHRmIozDS-RyMlHv3wYd57CLc2l5A","name_en":"Chanel Women Bags","name_cn":"香奈儿/女包","specs":{"source":"wsxcme","sourceId":"_dx4x4YF6sFAHRmIozDS-RyMlHv3wYd57CLc2l5A","sourceTagId":47002745,"sourceTagName":"香奈儿/女包","rawTitle":""},"price":null,"currency":"CNY","moq":1,"category":"chanel-women-bags","status":"active","alibaba_url":null,"images":["https://xcimg.szwego.com/img/d0c94e6f/20250823/i1755962161_4979_0.jpg"],"created_at":"2025-09-19T04:32:40.109Z"},{"id":"item-aa7a6f01dc8f","sku":"_dovovSDfCxz77CcK_zndvHbyjBIrt5yfGEpVEOg","name_en":"樱花🌸粉色《出口产品》OHANEL🚩🚩🚩25k 大菱格牛皮LP盒子👅👅包黑金!玩转lp盒子包新款大菱格🌟🌟版本非常经典大气正面双C醒目又精致牛皮材质使用起来完全不娇气!!手提有质感,链条背又多了份随性优雅.轻松的适配不同风格,可️装得下日常出门的小物件背在身上回头率拉满~妥妥的时尚单品✓尺寸:17x19.5x5cm","name_cn":"樱花🌸粉色《出口产品》OHANEL🚩🚩🚩25k 大菱格牛皮LP盒子👅👅包黑金!玩转lp盒子包新款大菱格🌟🌟版本非常经典大气正面双C醒目又精致牛皮材质使用起来完全不娇气!!手提有质感,链条背又多了份随性优雅.轻松的适配不同风格,可️装得下日常出门的小物件背在身上回头率拉满~妥妥的时尚单品✓尺寸:17x19.5x5cm","specs":{"source":"wsxcme","sourceId":"_dovovSDfCxz77CcK_zndvHbyjBIrt5yfGEpVEOg","sourceTagId":47002745,"sourceTagName":"香奈儿/女包","dimensions":{"lengthCm":17,"heightCm":19.5,"widthCm":5},"rawTitle":"樱花🌸粉色《出口产品》OHANEL🚩🚩🚩25k 大菱格牛皮LP盒子👅👅包黑金!玩转lp盒子包新款大菱格🌟🌟版本非常经典大气正面双C醒目又精致牛皮材质使用起来完全不娇气!!手提有质感,链条背又多了份随性优雅.轻松的适配不同风格,可️装得下日常出门的小物件背在身上回头率拉满~妥妥的时尚单品✓尺寸:17x19.5x5cm"},"price":null,"currency":"CNY","moq":1,"category":"chanel-women-bags","status":"active","alibaba_url":null,"images":["https://xcimg.szwego.com/img/d0c94e6f/20250823/i1755962110_7728_7.jpg","https://xcimg.szwego.com/img/d0c94e6f/20250823/i1755962109_4852_1.jpg","https://xcimg.szwego.com/img/d0c94e6f/20250823/i1755962109_7003_0.jpg","https://xcimg.szwego.com/img/d0c94e6f/20250823/i1755962110_1115_6.jpg","https://xcimg.szwego.com/img/d0c94e6f/20250823/i1755962109_4161_3.jpg","https://xcimg.szwego.com/img/d0c94e6f/20250823/i1755962110_9327_5.jpg","https://xcimg.szwego.com/img/d0c94e6f/20250823/i1755962110_2227_4.jpg","https://xcimg.szwego.com/img/d0c94e6f/20250823/i1755962110_456_8.jpg","https://xcimg.szwego.com/img/d0c94e6f/20250823/i1755962109_3387_2.jpg"],"created_at":"2025-09-19T04:32:40.108Z"},{"id":"item-66b7fc4e5c7e","sku":"_dtitiEx7gokA7rhYMppzVRfm7lZ5hCXJIuBEFgQ","name_en":"Chanel Women Bags","name_cn":"香奈儿/女包","specs":{"source":"wsxcme","sourceId":"_dtitiEx7gokA7rhYMppzVRfm7lZ5hCXJIuBEFgQ","sourceTagId":47002745,"sourceTagName":"香奈儿/女包","rawTitle":""},"price":null,"currency":"CNY","moq":1,"category":"chanel-women-bags","status":"active","alibaba_url":null,"images":["https://xcimg.szwego.com/img/d0c94e6f/20250823/i1755959850_776_0.jpg"],"created_at":"2025-09-19T04:32:40.107Z"},{"id":"item-f578e0fd4891","sku":"_dsjsja2NLKiYklS5rUBZQAYnHhUW47Uw4IJceCQ","name_en":"铁灰色《出口产品》OHANEL🚩🚩🚩25k 大菱格牛皮LP盒子👅👅包黑金!玩转lp盒子包新款大菱格🌟🌟版本非常经典大气正面双C醒目又精致牛皮材质使用起来完全不娇气!!手提有质感,链条背又多了份随性优雅.轻松的适配不同风格,可️装得下日常出门的小物件背在身上回头率拉满~妥妥的时尚单品✓尺寸:17x19.5x5cm","name_cn":"铁灰色《出口产品》OHANEL🚩🚩🚩25k 大菱格牛皮LP盒子👅👅包黑金!玩转lp盒子包新款大菱格🌟🌟版本非常经典大气正面双C醒目又精致牛皮材质使用起来完全不娇气!!手提有质感,链条背又多了份随性优雅.轻松的适配不同风格,可️装得下日常出门的小物件背在身上回头率拉满~妥妥的时尚单品✓尺寸:17x19.5x5cm","specs":{"source":"wsxcme","sourceId":"_dsjsja2NLKiYklS5rUBZQAYnHhUW47Uw4IJceCQ","sourceTagId":47002745,"sourceTagName":"香奈儿/女包","dimensions":{"lengthCm":17,"heightCm":19.5,"widthCm":5},"rawTitle":"铁灰色《出口产品》OHANEL🚩🚩🚩25k 大菱格牛皮LP盒子👅👅包黑金!玩转lp盒子包新款大菱格🌟🌟版本非常经典大气正面双C醒目又精致牛皮材质使用起来完全不娇气!!手提有质感,链条背又多了份随性优雅.轻松的适配不同风格,可️装得下日常出门的小物件背在身上回头率拉满~妥妥的时尚单品✓尺寸:17x19.5x5cm"},"price":null,"currency":"CNY","moq":1,"category":"chanel-women-bags","status":"active","alibaba_url":null,"images":["https://xcimg.szwego.com/img/d0c94e6f/20250823/i1755959829_1124_1.jpg","https://xcimg.szwego.com/img/d0c94e6f/20250823/i1755959843_3636_0.jpg","https://xcimg.szwego.com/img/d0c94e6f/20250823/i1755959829_2556_2.jpg","https://xcimg.szwego.com/img/d0c94e6f/20250823/i1755959828_3894_0.jpg","https://xcimg.szwego.com/img/d0c94e6f/20250823/i1755959829_6708_6.jpg","https://xcimg.szwego.com/img/d0c94e6f/20250823/i1755959829_8658_4.jpg","https://xcimg.szwego.com/img/d0c94e6f/20250823/i1755962088_3790_2.jpg","https://xcimg.szwego.com/img/d0c94e6f/20250823/i1755962088_1305_1.jpg","https://xcimg.szwego.com/img/d0c94e6f/20250823/i1755962088_2053_0.jpg"],"created_at":"2025-09-19T04:32:40.106Z"},{"id":"item-4141f64f0acc","sku":"_dj3j3RGcc52lA8WUEZy4AfR-AjXvLwiHirLoXHg","name_en":"Chanel Women Bags","name_cn":"香奈儿/女包","specs":{"source":"wsxcme","sourceId":"_dj3j3RGcc52lA8WUEZy4AfR-AjXvLwiHirLoXHg","sourceTagId":47002745,"sourceTagName":"香奈儿/女包","rawTitle":""},"price":null,"currency":"CNY","moq":1,"category":"chanel-women-bags","status":"active","alibaba_url":null,"images":["https://xcimg.szwego.com/img/d0c94e6f/20250813/i1755087200_9195_0.jpg"],"created_at":"2025-09-19T04:32:40.105Z"}],"page":86,"pageSize":24,"total":10075,"totalPages":420}
