{"items":[{"id":"item-5b3bad976efe","sku":"_dvzvzhBQp0JeXTw6rD-HqnHWACvOn341jAaRFCQ","name_en":"Chan1✔️Vintage original pre-owned CF Black Lamb Skin","name_cn":"Chan1✔️Vintage original pre-owned CF Black Lamb Skin\nThe CF Chanel grandma's heirloom is here! The most classic vintage CF black lamb skin with quilted pattern + gold metal, timeless classic flap\nRich vintage vibe~ really heart-fluttering. Twist lock closure with sliding chain, switch between shoulder and crossbody easily. Perfect size, super versatile for daily wear\nSize: 26cm\nNumber: A2220 Black Lamb Skin","specs":{"source":"wsxcme","sourceId":"_dvzvzhBQp0JeXTw6rD-HqnHWACvOn341jAaRFCQ","sourceTagId":47002745,"sourceTagName":"Chanel/women's bag","rawTitle":"Chan1✔️Vintage original pre-owned CF Black Lamb Skin\nThe CF Chanel grandma's heirloom is here! The most classic vintage CF black lamb skin with quilted pattern + gold metal, timeless classic flap\nRich vintage vibe~ really heart-fluttering. Twist lock closure with sliding chain, switch between shoulder and crossbody easily. Perfect size, super versatile for daily wear\nSize: 26cm\nNumber: A2220 Black Lamb Skin"},"price":null,"currency":"CNY","moq":1,"category":"chanel-women-bags","status":"active","alibaba_url":null,"images":["https://xcimg.szwego.com/img/65f6763f/20250314/i1741928685_3752_0.jpg","https://xcimg.szwego.com/img/65f6763f/20250314/i1741928685_4737_3.jpg","https://xcimg.szwego.com/img/65f6763f/20250314/i1741928685_3085_4.jpg","https://xcimg.szwego.com/img/65f6763f/20250314/i1741928686_3580_7.jpg","https://xcimg.szwego.com/img/65f6763f/20250314/i1741928685_4545_1.jpg","https://xcimg.szwego.com/img/65f6763f/20250314/i1741928685_3581_2.jpg","https://xcimg.szwego.com/img/65f6763f/20250314/i1741928686_4171_5.jpg","https://xcimg.szwego.com/img/65f6763f/20250314/i1741928686_7765_6.jpg","https://xcimg.szwego.com/img/65f6763f/20250314/i1741928686_2979_8.jpg"],"created_at":"2025-08-03T05:48:24.687Z"},{"id":"item-8b413f237d11","sku":"_dpPpPjDFIOaWDp0E0-RSVTBeAUORI0S4qqiJ_vw","name_en":"New: Pre-owned model zp edition","name_cn":"New: Pre-owned model zp edition\nChan1 Large Crossbody Bag Retro chain decoration makes the whole bag unique, full of artistic atmosphere. The flap design highlights a casual style, not too restrictive, letting you show your most natural state anytime, anywhere. The quality is reliable, no need to worry about defects. Made of premium materials, ensuring durability and longevity. Internal details are also exquisite, effectively protecting your items, giving you peace of mind when going out. In summary, this exclusive vintage pre-owned shoulder bag is the perfect choice for casual elegance! It not only boosts your fashion index but also shows your personality and taste. Whether at any time or place, it makes you radiate charm and become the focus of attention. Get it now, let yourself exude charm every day.\nCode: 3329\nSize: 34cm","specs":{"source":"wsxcme","sourceId":"_dpPpPjDFIOaWDp0E0-RSVTBeAUORI0S4qqiJ_vw","sourceTagId":47002745,"sourceTagName":"Chanel/women's bag","rawTitle":"New: Pre-owned model zp edition\nChan1 Large Crossbody Bag Retro chain decoration makes the whole bag unique, full of artistic atmosphere. The flap design highlights a casual style, not too restrictive, letting you show your most natural state anytime, anywhere. The quality is reliable, no need to worry about defects. Made of premium materials, ensuring durability and longevity. Internal details are also exquisite, effectively protecting your items, giving you peace of mind when going out. In summary, this exclusive vintage pre-owned shoulder bag is the perfect choice for casual elegance! It not only boosts your fashion index but also shows your personality and taste. Whether at any time or place, it makes you radiate charm and become the focus of attention. Get it now, let yourself exude charm every day.\nCode: 3329\nSize: 34cm"},"price":null,"currency":"CNY","moq":1,"category":"chanel-women-bags","status":"active","alibaba_url":null,"images":["https://xcimg.szwego.com/img/a5af95f4/20250630/i1751270121221_8532_0_0.jpg","https://xcimg.szwego.com/img/a5af95f4/20250630/i1751270140143_1664_0_1.jpg","https://xcimg.szwego.com/img/a5af95f4/20250630/i1751270121221_9833_0_2.jpg","https://xcimg.szwego.com/img/a5af95f4/20250630/i1751270140094_5112_0_3.jpg","https://xcimg.szwego.com/img/a5af95f4/20250630/i1751270140169_9212_0_4.jpg","https://xcimg.szwego.com/img/a5af95f4/20250630/i1751270121221_9925_0_5.jpg","https://xcimg.szwego.com/img/a5af95f4/20250630/i1751270121221_2453_0_6.jpg","https://xcimg.szwego.com/img/a5af95f4/20250630/i1751270140258_7727_0_7.jpg","https://xcimg.szwego.com/img/a5af95f4/20250630/i1751270121221_6239_0_8.jpg"],"created_at":"2025-08-03T05:47:19.148Z"},{"id":"item-b95b835514dd","sku":"_diiiiXFuuoLQW1pZfSH63_b_91F43UVeeThLAWQ","name_en":"Original leather, in stock. 25A Haute Couture suede and leather mix, really special. The chain shell style fits perfectly and looks great on. Easily holds a phone, lipstick, and compact powder. A Chanel 99490 product.","name_cn":"Original leather, in stock. 25A Haute Couture suede and leather mix, really special. The chain shell style fits perfectly and looks great on. Easily holds a phone, lipstick, and compact powder. A Chanel 99490 product.","specs":{"source":"wsxcme","sourceId":"_diiiiXFuuoLQW1pZfSH63_b_91F43UVeeThLAWQ","sourceTagId":47002745,"sourceTagName":"Chanel/women's bag","rawTitle":"Original leather, in stock. 25A Haute Couture suede and leather mix, really special. The chain shell style fits perfectly and looks great on. Easily holds a phone, lipstick, and compact powder. A Chanel 99490 product."},"price":null,"currency":"CNY","moq":1,"category":"chanel-women-bags","status":"active","alibaba_url":null,"images":["https://xcimg.szwego.com/20250625/i1750838497_7187_0.jpg","https://xcimg.szwego.com/20250625/i1750838497_5243_1.jpg","https://xcimg.szwego.com/20250625/i1750838497_7246_2.jpg","https://xcimg.szwego.com/20250625/i1750838497_8219_3.jpg","https://xcimg.szwego.com/20250625/i1750838497_172_4.jpg","https://xcimg.szwego.com/20250625/i1750838497_5692_5.jpg","https://xcimg.szwego.com/20250625/i1750838497_383_6.jpg","https://xcimg.szwego.com/20250625/i1750838497_5532_7.jpg","https://xcimg.szwego.com/20250625/i1750838497_8073_8.jpg"],"created_at":"2025-08-03T05:47:03.382Z"},{"id":"item-d29ea5153ba0","sku":"_diTiTHsTc2QOzuEPU-ELAQpe0PyTBCtyLTUzbdw","name_en":"Original leather, in stock. 25A Haute Couture suede and leather mix, really special. The chain shell style fits perfectly and looks great on. Easily holds a phone, lipstick, and compact powder. A Chanel 99490 product.","name_cn":"Original leather, in stock. 25A Haute Couture suede and leather mix, really special. The chain shell style fits perfectly and looks great on. Easily holds a phone, lipstick, and compact powder. A Chanel 99490 product.","specs":{"source":"wsxcme","sourceId":"_diTiTHsTc2QOzuEPU-ELAQpe0PyTBCtyLTUzbdw","sourceTagId":47002745,"sourceTagName":"Chanel/women's bag","rawTitle":"Original leather, in stock. 25A Haute Couture suede and leather mix, really special. The chain shell style fits perfectly and looks great on. Easily holds a phone, lipstick, and compact powder. A Chanel 99490 product."},"price":null,"currency":"CNY","moq":1,"category":"chanel-women-bags","status":"active","alibaba_url":null,"images":["https://xcimg.szwego.com/20250625/i1750838553_699_0.jpg","https://xcimg.szwego.com/20250625/i1750838553_3796_1.jpg","https://xcimg.szwego.com/20250625/i1750838553_9989_2.jpg","https://xcimg.szwego.com/20250625/i1750838553_2527_3.jpg","https://xcimg.szwego.com/20250625/i1750838553_954_4.jpg","https://xcimg.szwego.com/20250625/i1750838553_5707_5.jpg","https://xcimg.szwego.com/20250625/i1750838553_780_6.jpg","https://xcimg.szwego.com/20250625/i1750838553_6477_7.jpg","https://xcimg.szwego.com/20250625/i1750838553_97_8.jpg"],"created_at":"2025-08-03T05:46:54.044Z"},{"id":"item-7697389134b8","sku":"_doSoSlAobT3t_N4PtaU9xsKnAbh5hiHWSTCSwig","name_en":"Original leather, in stock. 25A Haute Couture super cute backpack. Super cute when worn! Grained leather is durable. Handle paired with a chain, can be carried by hand or slung over the shoulder! Dimensions: 18*24*6*cm 99494","name_cn":"Original leather, in stock. 25A Haute Couture super cute backpack. Super cute when worn! Grained leather is durable. Handle paired with a chain, can be carried by hand or slung over the shoulder! Dimensions: 18*24*6*cm 99494","specs":{"source":"wsxcme","sourceId":"_doSoSlAobT3t_N4PtaU9xsKnAbh5hiHWSTCSwig","sourceTagId":47002745,"sourceTagName":"Chanel/women's bag","rawTitle":"Original leather, in stock. 25A Haute Couture super cute backpack. Super cute when worn! Grained leather is durable. Handle paired with a chain, can be carried by hand or slung over the shoulder! Dimensions: 18*24*6*cm 99494"},"price":null,"currency":"CNY","moq":1,"category":"chanel-women-bags","status":"active","alibaba_url":null,"images":["https://xcimg.szwego.com/20250707/i1751818096_150_0.jpg","https://xcimg.szwego.com/20250707/i1751818096_4972_1.jpg","https://xcimg.szwego.com/20250707/i1751818096_9483_2.jpg","https://xcimg.szwego.com/20250707/i1751818096_8005_3.jpg","https://xcimg.szwego.com/20250707/i1751818096_5527_4.jpg","https://xcimg.szwego.com/20250707/i1751818096_6671_5.jpg","https://xcimg.szwego.com/20250707/i1751818096_3477_6.jpg","https://xcimg.szwego.com/20250707/i1751818096_1345_7.jpg","https://xcimg.szwego.com/20250707/i1751818096_5820_8.jpg"],"created_at":"2025-08-03T05:46:41.063Z"},{"id":"item-3ad075c20caa","sku":"_dx-x-Kyw4X9-ZOMoVmPB8EkZZEIB72VGPVYlRdQ","name_en":"Counter quality, top-tier original sample, real photos! Model 838900 Puppy, Dimensions: 10x7cm, 💰","name_cn":"Counter quality, top-tier original sample, real photos! Model 838900 Puppy, Dimensions: 10x7cm, 💰","specs":{"source":"wsxcme","sourceId":"_dx-x-Kyw4X9-ZOMoVmPB8EkZZEIB72VGPVYlRdQ","sourceTagId":47002663,"sourceTagName":"length","modelNumber":"838900","rawTitle":"Counter quality, top-tier original sample, real photos! Model 838900 Puppy, Dimensions: 10x7cm, 💰"},"price":null,"currency":"CNY","moq":1,"category":"women-wallets","status":"active","alibaba_url":null,"images":["https://xcimg.szwego.com/img/102e1c0f/20250612/i1749703702089_8506_0_0.jpg","https://xcimg.szwego.com/img/102e1c0f/20250612/i1749703702084_7782_0_1.jpg","https://xcimg.szwego.com/img/102e1c0f/20250612/i1749703702008_5779_0_2.jpg","https://xcimg.szwego.com/img/102e1c0f/20250612/i1749703702046_7901_0_3.jpg"],"created_at":"2025-08-03T05:43:10.130Z"},{"id":"item-138554cf9572","sku":"_dkFkFBFw2yRnVOXyNRLQlsobtub2rPyYHNSoEpA","name_en":"Counter quality, top-tier original sample, real photos! Model 841360 Coffee Gel/Claret, Dimensions: 11.5x8x3.5cm, 💰","name_cn":"Counter quality, top-tier original sample, real photos! Model 841360 Coffee Gel/Claret, Dimensions: 11.5x8x3.5cm, 💰","specs":{"source":"wsxcme","sourceId":"_dkFkFBFw2yRnVOXyNRLQlsobtub2rPyYHNSoEpA","sourceTagId":47002663,"sourceTagName":"length","modelNumber":"841360 /","rawTitle":"Counter quality, top-tier original sample, real photos! Model 841360 Coffee Gel/Claret, Dimensions: 11.5x8x3.5cm, 💰"},"price":null,"currency":"CNY","moq":1,"category":"women-wallets","status":"active","alibaba_url":null,"images":["https://xcimg.szwego.com/img/102e1c0f/20250605/i1749108191394_757_0_0.jpg","https://xcimg.szwego.com/img/102e1c0f/20250605/i1749108191425_3224_0_1.jpg","https://xcimg.szwego.com/img/102e1c0f/20250605/i1749108191438_7049_0_2.jpg","https://xcimg.szwego.com/img/102e1c0f/20250605/i1749108191433_1795_0_3.jpg"],"created_at":"2025-08-03T05:43:10.129Z"},{"id":"item-ce8336e236e2","sku":"_dpXpXyYx1hV7ReKoIXaZZG3nK7Csx9-FFB_4F_Q","name_en":"Counterfeit quality, top-tier replica, real photos! Model 790063 Light Blue/Wine Red, Dimensions: 11.5W x 8H x 3.5S cm, 💰","name_cn":"Counterfeit quality, top-tier replica, real photos! Model 790063 Light Blue/Wine Red, Dimensions: 11.5W x 8H x 3.5S cm, 💰","specs":{"source":"wsxcme","sourceId":"_dpXpXyYx1hV7ReKoIXaZZG3nK7Csx9-FFB_4F_Q","sourceTagId":47002663,"sourceTagName":"length","modelNumber":"790063 /","rawTitle":"Counterfeit quality, top-tier replica, real photos! Model 790063 Light Blue/Wine Red, Dimensions: 11.5W x 8H x 3.5S cm, 💰"},"price":null,"currency":"CNY","moq":1,"category":"women-wallets","status":"active","alibaba_url":null,"images":["https://xcimg.szwego.com/img/102e1c0f/20250605/i1749108349837_2330_0_0.jpg","https://xcimg.szwego.com/img/102e1c0f/20250605/i1749108349849_6542_0_1.jpg","https://xcimg.szwego.com/img/102e1c0f/20250605/i1749108349856_2752_0_3.jpg","https://xcimg.szwego.com/img/102e1c0f/20250605/i1749108349878_9774_0_2.jpg"],"created_at":"2025-08-03T05:43:10.128Z"},{"id":"item-6fc97c6ffe8b","sku":"_do_o_r3esZ0hG8vOKc_6fsvvn0hsHQ1_bw0ebqw","name_en":"Counterfeit quality, top-tier replica, real photos! Model 456116 Grey Grape/Wine Red, Dimensions: 19W x 10H x 3.5S cm. 💰","name_cn":"Counterfeit quality, top-tier replica, real photos! Model 456116 Grey Grape/Wine Red, Dimensions: 19W x 10H x 3.5S cm. 💰","specs":{"source":"wsxcme","sourceId":"_do_o_r3esZ0hG8vOKc_6fsvvn0hsHQ1_bw0ebqw","sourceTagId":47002663,"sourceTagName":"length","modelNumber":"456116 /","rawTitle":"Counterfeit quality, top-tier replica, real photos! Model 456116 Grey Grape/Wine Red, Dimensions: 19W x 10H x 3.5S cm. 💰"},"price":null,"currency":"CNY","moq":1,"category":"women-wallets","status":"active","alibaba_url":null,"images":["https://xcimg.szwego.com/img/102e1c0f/20250730/i1753860624937_8539_0_0.jpg","https://xcimg.szwego.com/img/102e1c0f/20250730/i1753860625019_2101_0_1.jpg","https://xcimg.szwego.com/img/102e1c0f/20250730/i1753860624980_4144_0_2.jpg","https://xcimg.szwego.com/img/102e1c0f/20250730/i1753860624898_2553_0_3.jpg"],"created_at":"2025-08-03T05:43:10.127Z"},{"id":"item-1b3cdc89bf44","sku":"_dj1j1h9Ls7Ko74OIlwT5N2ZgsQVngyV_Za9YliQ","name_en":"Counterfeit quality, top-tier replica, real photos! Model 456116 Light Blue/Wine Red, Dimensions: 19W x 10H x 3.5S cm. 💰","name_cn":"Counterfeit quality, top-tier replica, real photos! Model 456116 Light Blue/Wine Red, Dimensions: 19W x 10H x 3.5S cm. 💰","specs":{"source":"wsxcme","sourceId":"_dj1j1h9Ls7Ko74OIlwT5N2ZgsQVngyV_Za9YliQ","sourceTagId":47002663,"sourceTagName":"length","modelNumber":"456116 /","rawTitle":"Counterfeit quality, top-tier replica, real photos! Model 456116 Light Blue/Wine Red, Dimensions: 19W x 10H x 3.5S cm. 💰"},"price":null,"currency":"CNY","moq":1,"category":"women-wallets","status":"active","alibaba_url":null,"images":["https://xcimg.szwego.com/img/102e1c0f/20250605/i1749107206650_704_0_0.jpg","https://xcimg.szwego.com/img/102e1c0f/20250605/i1749107206622_154_0_1.jpg","https://xcimg.szwego.com/img/102e1c0f/20250605/i1749107206646_400_0_2.jpg","https://xcimg.szwego.com/img/102e1c0f/20250605/i1749107206569_5279_0_3.jpg"],"created_at":"2025-08-03T05:43:10.126Z"},{"id":"item-da362fd78853","sku":"_d-K-KTSCYFHPZHQJXPQc6uuGsPVfBNeQgbjqzBQ","name_en":"Counterfeit quality, top-tier replica, real photos! Model 835098 Grey Grape Pattern, Dimensions: 11W x 9H cm, 💰","name_cn":"Counterfeit quality, top-tier replica, real photos! Model 835098 Grey Grape Pattern, Dimensions: 11W x 9H cm, 💰","specs":{"source":"wsxcme","sourceId":"_d-K-KTSCYFHPZHQJXPQc6uuGsPVfBNeQgbjqzBQ","sourceTagId":47002663,"sourceTagName":"length","modelNumber":"835098","rawTitle":"Counterfeit quality, top-tier replica, real photos! Model 835098 Grey Grape Pattern, Dimensions: 11W x 9H cm, 💰"},"price":null,"currency":"CNY","moq":1,"category":"women-wallets","status":"active","alibaba_url":null,"images":["https://xcimg.szwego.com/img/102e1c0f/20250602/i1748840125315_795_0_0.jpg","https://xcimg.szwego.com/img/102e1c0f/20250602/i1748840125262_3159_0_1.jpg","https://xcimg.szwego.com/img/102e1c0f/20250602/i1748840125312_9389_0_2.jpg","https://xcimg.szwego.com/img/102e1c0f/20250602/i1748840125330_52_0_3.jpg"],"created_at":"2025-08-03T05:43:10.125Z"},{"id":"item-d13b8b01ac4e","sku":"_dpRpRtXUapq3zlWG60z-lzB2nYv4pzo44l3Mydw","name_en":"Counterfeit quality, top-tier replica, real photos! Model 835098 Green Grape Pattern, Dimensions: 11W x 9H cm, 💰","name_cn":"Counterfeit quality, top-tier replica, real photos! Model 835098 Green Grape Pattern, Dimensions: 11W x 9H cm, 💰","specs":{"source":"wsxcme","sourceId":"_dpRpRtXUapq3zlWG60z-lzB2nYv4pzo44l3Mydw","sourceTagId":47002663,"sourceTagName":"length","modelNumber":"835098","rawTitle":"Counterfeit quality, top-tier replica, real photos! Model 835098 Green Grape Pattern, Dimensions: 11W x 9H cm, 💰"},"price":null,"currency":"CNY","moq":1,"category":"women-wallets","status":"active","alibaba_url":null,"images":["https://xcimg.szwego.com/img/102e1c0f/20250605/i1749107798992_1884_0_0.jpg","https://xcimg.szwego.com/img/102e1c0f/20250605/i1749107798616_3780_0_1.jpg","https://xcimg.szwego.com/img/102e1c0f/20250605/i1749107798965_6957_0_3.jpg","https://xcimg.szwego.com/img/102e1c0f/20250605/i1749107798996_5615_0_2.jpg"],"created_at":"2025-08-03T05:43:10.124Z"},{"id":"item-faf0fefd1b45","sku":"_djnjnXn-ARB7g1WCepMBFFh9iiLp4kcwvswRBzw","name_en":"Counterfeit quality, top-tier replica, real photos! Model 835076, Cognac embossed leather, Size: 8W x 11H cm, 💰","name_cn":"Counterfeit quality, top-tier replica, real photos! Model 835076, Cognac embossed leather, Size: 8W x 11H cm, 💰","specs":{"source":"wsxcme","sourceId":"_djnjnXn-ARB7g1WCepMBFFh9iiLp4kcwvswRBzw","sourceTagId":47002663,"sourceTagName":"length","modelNumber":"835076","rawTitle":"Counterfeit quality, top-tier replica, real photos! Model 835076, Cognac embossed leather, Size: 8W x 11H cm, 💰"},"price":null,"currency":"CNY","moq":1,"category":"women-wallets","status":"active","alibaba_url":null,"images":["https://xcimg.szwego.com/img/102e1c0f/20250622/i1750581610752_7289_0_0.jpg","https://xcimg.szwego.com/img/102e1c0f/20250622/i1750581610748_3462_0_1.jpg","https://xcimg.szwego.com/img/102e1c0f/20250622/i1750581610751_5991_0_2.jpg","https://xcimg.szwego.com/img/102e1c0f/20250622/i1750581610704_2193_0_3.jpg"],"created_at":"2025-08-03T05:43:10.123Z"},{"id":"item-ffd241c838e3","sku":"_dp_p_ZGJ100HuBzaDg8zK0dkks-JC79Hj4qcLhw","name_en":"Counterfeit quality, top-tier replica, real photos! Model 835076, Green embossed leather, Size: 8W x 11H cm, 💰","name_cn":"Counterfeit quality, top-tier replica, real photos! Model 835076, Green embossed leather, Size: 8W x 11H cm, 💰","specs":{"source":"wsxcme","sourceId":"_dp_p_ZGJ100HuBzaDg8zK0dkks-JC79Hj4qcLhw","sourceTagId":47002663,"sourceTagName":"length","modelNumber":"835076","rawTitle":"Counterfeit quality, top-tier replica, real photos! Model 835076, Green embossed leather, Size: 8W x 11H cm, 💰"},"price":null,"currency":"CNY","moq":1,"category":"women-wallets","status":"active","alibaba_url":null,"images":["https://xcimg.szwego.com/img/102e1c0f/20250622/i1750581494410_6370_0_1.jpg","https://xcimg.szwego.com/img/102e1c0f/20250622/i1750581494445_9307_0_2.jpg","https://xcimg.szwego.com/img/102e1c0f/20250622/i1750581494451_1407_0_0.jpg","https://xcimg.szwego.com/img/102e1c0f/20250622/i1750581494418_1311_0_3.jpg"],"created_at":"2025-08-03T05:43:10.122Z"},{"id":"item-d8c5b586e255","sku":"_dzCzC0fBk078LnPxNxGv4ReIR976UNyQUk_6Dvw","name_en":"Counterfeit quality, top-tier replica, real photos! 835120, Cognac embossed leather, Size: 19W x 10.4H x 2.5S, 💰","name_cn":"Counterfeit quality, top-tier replica, real photos! 835120, Cognac embossed leather, Size: 19W x 10.4H x 2.5S, 💰","specs":{"source":"wsxcme","sourceId":"_dzCzC0fBk078LnPxNxGv4ReIR976UNyQUk_6Dvw","sourceTagId":47002663,"sourceTagName":"length","rawTitle":"Counterfeit quality, top-tier replica, real photos! 835120, Cognac embossed leather, Size: 19W x 10.4H x 2.5S, 💰"},"price":null,"currency":"CNY","moq":1,"category":"women-wallets","status":"active","alibaba_url":null,"images":["https://xcimg.szwego.com/img/102e1c0f/20250612/i1749703550950_789_0_0.jpg","https://xcimg.szwego.com/img/102e1c0f/20250612/i1749703550965_7282_0_1.jpg","https://xcimg.szwego.com/img/102e1c0f/20250612/i1749703550892_8747_0_2.jpg","https://xcimg.szwego.com/img/102e1c0f/20250612/i1749703550958_2148_0_3.jpg"],"created_at":"2025-08-03T05:43:10.121Z"},{"id":"item-b6859867ca38","sku":"_ddHdHJ9lsWnpBDna8dHQcMBclyx55j6y3Jint7Q","name_en":"Counterfeit quality, top-tier replica, real photos! 835120, Green embossed leather, Size: 19W x 10.4H x 2.5S, 💰","name_cn":"Counterfeit quality, top-tier replica, real photos! 835120, Green embossed leather, Size: 19W x 10.4H x 2.5S, 💰","specs":{"source":"wsxcme","sourceId":"_ddHdHJ9lsWnpBDna8dHQcMBclyx55j6y3Jint7Q","sourceTagId":47002663,"sourceTagName":"length","rawTitle":"Counterfeit quality, top-tier replica, real photos! 835120, Green embossed leather, Size: 19W x 10.4H x 2.5S, 💰"},"price":null,"currency":"CNY","moq":1,"category":"women-wallets","status":"active","alibaba_url":null,"images":["https://xcimg.szwego.com/img/102e1c0f/20250612/i1749703417806_457_0_0.jpg","https://xcimg.szwego.com/img/102e1c0f/20250612/i1749703417785_707_0_1.jpg","https://xcimg.szwego.com/img/102e1c0f/20250612/i1749703417675_9949_0_2.jpg","https://xcimg.szwego.com/img/102e1c0f/20250612/i1749703417777_1428_0_3.jpg"],"created_at":"2025-08-03T05:43:10.120Z"},{"id":"item-d217f68611bf","sku":"_dvVvVdhl7IYHEcooymJZMa1nUIu248UMKkaRB2w","name_en":"Counterfeit quality, top-tier replica, real photos! Model 835049, Cognac leather/White steel G, Size: 11W x 7H cm, 💰","name_cn":"Counterfeit quality, top-tier replica, real photos! Model 835049, Cognac leather/White steel G, Size: 11W x 7H cm, 💰","specs":{"source":"wsxcme","sourceId":"_dvVvVdhl7IYHEcooymJZMa1nUIu248UMKkaRB2w","sourceTagId":47002663,"sourceTagName":"length","modelNumber":"835049 / G","rawTitle":"Counterfeit quality, top-tier replica, real photos! Model 835049, Cognac leather/White steel G, Size: 11W x 7H cm, 💰"},"price":null,"currency":"CNY","moq":1,"category":"women-wallets","status":"active","alibaba_url":null,"images":["https://xcimg.szwego.com/img/102e1c0f/20250602/i1748840025210_9961_0_0.jpg","https://xcimg.szwego.com/img/102e1c0f/20250602/i1748840025252_220_0_1.jpg","https://xcimg.szwego.com/img/102e1c0f/20250602/i1748840025227_2198_0_2.jpg","https://xcimg.szwego.com/img/102e1c0f/20250602/i1748840025266_5513_0_3.jpg"],"created_at":"2025-08-03T05:43:10.119Z"},{"id":"item-b79e8d8c04cf","sku":"_d_T_TKYEOrXSwfZ7dGN8AFRdaiAv5ndPXcNNWGw","name_en":"Counterfeit quality, top-tier replica, real photos! Style 835049, Calfskin/Light Green G, Size: 11W x 7H cm, 💰","name_cn":"Counterfeit quality, top-tier replica, real photos! Style 835049, Calfskin/Light Green G, Size: 11W x 7H cm, 💰","specs":{"source":"wsxcme","sourceId":"_d_T_TKYEOrXSwfZ7dGN8AFRdaiAv5ndPXcNNWGw","sourceTagId":47002663,"sourceTagName":"length","modelNumber":"835049 / G","rawTitle":"Counterfeit quality, top-tier replica, real photos! Style 835049, Calfskin/Light Green G, Size: 11W x 7H cm, 💰"},"price":null,"currency":"CNY","moq":1,"category":"women-wallets","status":"active","alibaba_url":null,"images":["https://xcimg.szwego.com/img/102e1c0f/20250602/i1748840006141_4645_0_0.jpg","https://xcimg.szwego.com/img/102e1c0f/20250602/i1748840006187_7985_0_1.jpg","https://xcimg.szwego.com/img/102e1c0f/20250602/i1748840006168_4668_0_2.jpg","https://xcimg.szwego.com/img/102e1c0f/20250602/i1748840006113_1979_0_3.jpg"],"created_at":"2025-08-03T05:43:10.118Z"},{"id":"item-14230736c9dc","sku":"_d_R_RLoF1z6R0jtyijquHcaOBUh9ohxuuuRK18Q","name_en":"Counterfeit quality, top-tier replica, real photos! Style 835049, Calfskin/Orange G, Size: 11W x 7H cm, 💰","name_cn":"Counterfeit quality, top-tier replica, real photos! Style 835049, Calfskin/Orange G, Size: 11W x 7H cm, 💰","specs":{"source":"wsxcme","sourceId":"_d_R_RLoF1z6R0jtyijquHcaOBUh9ohxuuuRK18Q","sourceTagId":47002663,"sourceTagName":"length","modelNumber":"835049 / G","rawTitle":"Counterfeit quality, top-tier replica, real photos! Style 835049, Calfskin/Orange G, Size: 11W x 7H cm, 💰"},"price":null,"currency":"CNY","moq":1,"category":"women-wallets","status":"active","alibaba_url":null,"images":["https://xcimg.szwego.com/img/102e1c0f/20250602/i1748839971551_6346_0_0.jpg","https://xcimg.szwego.com/img/102e1c0f/20250602/i1748839971575_4039_0_1.jpg","https://xcimg.szwego.com/img/102e1c0f/20250602/i1748839971542_8593_0_2.jpg","https://xcimg.szwego.com/img/102e1c0f/20250602/i1748839971554_6275_0_3.jpg"],"created_at":"2025-08-03T05:43:10.117Z"},{"id":"item-b0126e42918a","sku":"_ddfdfZqCKBRSZIkgR8noI9j-3Av4AFWtVrcQKDg","name_en":"Counterfeit quality, top-tier replica, real photos! Style 835047, Calfskin/White Steel G, Size: 11W x 9H,","name_cn":"Counterfeit quality, top-tier replica, real photos! Style 835047, Calfskin/White Steel G, Size: 11W x 9H,","specs":{"source":"wsxcme","sourceId":"_ddfdfZqCKBRSZIkgR8noI9j-3Av4AFWtVrcQKDg","sourceTagId":47002663,"sourceTagName":"length","modelNumber":"835047 / G","rawTitle":"Counterfeit quality, top-tier replica, real photos! Style 835047, Calfskin/White Steel G, Size: 11W x 9H,"},"price":null,"currency":"CNY","moq":1,"category":"women-wallets","status":"active","alibaba_url":null,"images":["https://xcimg.szwego.com/img/102e1c0f/20250527/i1748331009144_3474_0_0.jpg","https://xcimg.szwego.com/img/102e1c0f/20250527/i1748331009164_4268_0_1.jpg","https://xcimg.szwego.com/img/102e1c0f/20250527/i1748331009100_0_0_2.jpg","https://xcimg.szwego.com/img/102e1c0f/20250527/i1748331009170_8297_0_3.jpg"],"created_at":"2025-08-03T05:43:10.116Z"},{"id":"item-80501c65ef30","sku":"_dvDvDXlAApZdoDZf19pvm2QessBej8P9Zz3JqPA","name_en":"Counterfeit quality, top-tier replica, real photos! Style 835047, Calfskin/Light Green G, Size: 11W x 9H,","name_cn":"Counterfeit quality, top-tier replica, real photos! Style 835047, Calfskin/Light Green G, Size: 11W x 9H,","specs":{"source":"wsxcme","sourceId":"_dvDvDXlAApZdoDZf19pvm2QessBej8P9Zz3JqPA","sourceTagId":47002663,"sourceTagName":"length","modelNumber":"835047 / G","rawTitle":"Counterfeit quality, top-tier replica, real photos! Style 835047, Calfskin/Light Green G, Size: 11W x 9H,"},"price":null,"currency":"CNY","moq":1,"category":"women-wallets","status":"active","alibaba_url":null,"images":["https://xcimg.szwego.com/img/102e1c0f/20250527/i1748331037056_3766_0_0.jpg","https://xcimg.szwego.com/img/102e1c0f/20250527/i1748331037042_3195_0_1.jpg","https://xcimg.szwego.com/img/102e1c0f/20250527/i1748331037084_4481_0_2.jpg","https://xcimg.szwego.com/img/102e1c0f/20250527/i1748331037052_5463_0_3.jpg"],"created_at":"2025-08-03T05:43:10.115Z"},{"id":"item-c8d50539cfc3","sku":"_d8C8CAkQoz6uKaSjXXdstBTU4vF8Tsw9CWDzHqw","name_en":"Counterfeit quality, top-tier replica, real photos! Style 835047, Calfskin/Orange G, Size: 11W x 9H,","name_cn":"Counterfeit quality, top-tier replica, real photos! Style 835047, Calfskin/Orange G, Size: 11W x 9H,","specs":{"source":"wsxcme","sourceId":"_d8C8CAkQoz6uKaSjXXdstBTU4vF8Tsw9CWDzHqw","sourceTagId":47002663,"sourceTagName":"length","modelNumber":"835047 / G","rawTitle":"Counterfeit quality, top-tier replica, real photos! Style 835047, Calfskin/Orange G, Size: 11W x 9H,"},"price":null,"currency":"CNY","moq":1,"category":"women-wallets","status":"active","alibaba_url":null,"images":["https://xcimg.szwego.com/img/102e1c0f/20250527/i1748331053174_458_0_0.jpg","https://xcimg.szwego.com/img/102e1c0f/20250527/i1748331053184_2415_0_1.jpg","https://xcimg.szwego.com/img/102e1c0f/20250527/i1748331053156_4681_0_2.jpg","https://xcimg.szwego.com/img/102e1c0f/20250527/i1748331053212_3323_0_3.jpg"],"created_at":"2025-08-03T05:43:10.114Z"},{"id":"item-de3a0f3d787f","sku":"_dueueVtlpNjjuKHTwhRtghhyis26fGSlmiCnREg","name_en":"Counterfeit quality, top-tier replica, real photos! Model 835048, Crocodile leather/White Gold G, Size: 11W x 9H,","name_cn":"Counterfeit quality, top-tier replica, real photos! Model 835048, Crocodile leather/White Gold G, Size: 11W x 9H,","specs":{"source":"wsxcme","sourceId":"_dueueVtlpNjjuKHTwhRtghhyis26fGSlmiCnREg","sourceTagId":47002663,"sourceTagName":"length","modelNumber":"835048 / G","rawTitle":"Counterfeit quality, top-tier replica, real photos! Model 835048, Crocodile leather/White Gold G, Size: 11W x 9H,"},"price":null,"currency":"CNY","moq":1,"category":"women-wallets","status":"active","alibaba_url":null,"images":["https://xcimg.szwego.com/img/102e1c0f/20250527/i1748330875351_1591_0_0.jpg","https://xcimg.szwego.com/img/102e1c0f/20250527/i1748330875356_7702_0_1.jpg","https://xcimg.szwego.com/img/102e1c0f/20250527/i1748330875345_1280_0_2.jpg","https://xcimg.szwego.com/img/102e1c0f/20250527/i1748330875347_41_0_3.jpg"],"created_at":"2025-08-03T05:43:10.113Z"},{"id":"item-41160200bad8","sku":"_dktkt9CVPd38bI6QJX0MeSyJ_1sQsRtdD80qRWg","name_en":"Counterfeit quality, top-tier replica, real photos! Model 835048, Crocodile leather/Light Green G, Size: 11W x 9H,","name_cn":"Counterfeit quality, top-tier replica, real photos! Model 835048, Crocodile leather/Light Green G, Size: 11W x 9H,","specs":{"source":"wsxcme","sourceId":"_dktkt9CVPd38bI6QJX0MeSyJ_1sQsRtdD80qRWg","sourceTagId":47002663,"sourceTagName":"length","modelNumber":"835048 / G","rawTitle":"Counterfeit quality, top-tier replica, real photos! Model 835048, Crocodile leather/Light Green G, Size: 11W x 9H,"},"price":null,"currency":"CNY","moq":1,"category":"women-wallets","status":"active","alibaba_url":null,"images":["https://xcimg.szwego.com/img/102e1c0f/20250527/i1748330938462_2270_0_0.jpg","https://xcimg.szwego.com/img/102e1c0f/20250527/i1748330938490_6614_0_1.jpg","https://xcimg.szwego.com/img/102e1c0f/20250527/i1748330938504_712_0_2.jpg","https://xcimg.szwego.com/img/102e1c0f/20250527/i1748330938468_5295_0_3.jpg"],"created_at":"2025-08-03T05:43:10.112Z"}],"page":102,"pageSize":24,"total":9921,"totalPages":414}
