{"items":[{"id":"item-f197c1152569","sku":"_dh0h0vVvHwnAtKPptPNjV6Yijz1WbPd2WQVCoiw","name_en":"Gucci Women Bags","name_cn":"782849淡粉色漆皮\nJackie 1961粉色蹲嘟太甜啦\n粉色是路过人间的情人节\n贩卖粉色的温柔,精致简单低调","specs":{"source":"wsxcme","sourceId":"_dh0h0vVvHwnAtKPptPNjV6Yijz1WbPd2WQVCoiw","sourceTagId":47002679,"sourceTagName":"古驰/女包","rawTitle":"782849淡粉色漆皮\nJackie 1961粉色蹲嘟太甜啦\n粉色是路过人间的情人节\n贩卖粉色的温柔,精致简单低调"},"price":null,"currency":"CNY","moq":1,"category":"gucci-women-bags","status":"active","alibaba_url":null,"images":["https://xcimg.szwego.com/img/dace2ca2/20241106/a1730900810975_2642.jpg","https://xcimg.szwego.com/img/dace2ca2/20241106/a1730900810982_1073.jpg","https://xcimg.szwego.com/img/dace2ca2/20241106/a1730900810988_7545.jpg","https://xcimg.szwego.com/img/dace2ca2/20241106/a1730900810992_6611.jpg","https://xcimg.szwego.com/img/dace2ca2/20241106/a1730900810996_4223.jpg","https://xcimg.szwego.com/img/dace2ca2/20241106/a1730900810989_7008.jpg"],"created_at":"2025-03-29T13:24:08.772Z"},{"id":"item-817500e7720e","sku":"_dvFvFKd5TrEzYY12he8XvsCbHXUSpkEUmHDrFLA","name_en":"Gucci Women Bags","name_cn":"782849淡粉色漆皮\n永远为夏天心动\n樱花粉的包包\n永远为之着迷,心动","specs":{"source":"wsxcme","sourceId":"_dvFvFKd5TrEzYY12he8XvsCbHXUSpkEUmHDrFLA","sourceTagId":47002679,"sourceTagName":"古驰/女包","rawTitle":"782849淡粉色漆皮\n永远为夏天心动\n樱花粉的包包\n永远为之着迷,心动"},"price":null,"currency":"CNY","moq":1,"category":"gucci-women-bags","status":"active","alibaba_url":null,"images":["https://xcimg.szwego.com/img/dace2ca2/20241106/a1730900486927_2223.jpg","https://xcimg.szwego.com/img/dace2ca2/20241106/a1730900486924_7128.jpg","https://xcimg.szwego.com/img/dace2ca2/20241106/a1730900486925_7620.jpg","https://xcimg.szwego.com/img/dace2ca2/20241106/a1730900486922_7265.jpg","https://xcimg.szwego.com/img/dace2ca2/20241106/a1730900486932_0865.jpg","https://xcimg.szwego.com/img/dace2ca2/20241106/a1730900486929_5026.jpg"],"created_at":"2025-03-29T13:24:08.771Z"},{"id":"item-aee25ae79935","sku":"_dqUqUukdNTgwiG2AY_mNY7VJe5eA6caPitLoicg","name_en":"Gucci Women Bags","name_cn":"🔥官网参考\n\n型号:782849  尺寸:27.5x19x4cm","specs":{"source":"wsxcme","sourceId":"_dqUqUukdNTgwiG2AY_mNY7VJe5eA6caPitLoicg","sourceTagId":47002679,"sourceTagName":"古驰/女包","modelNumber":"782849  尺寸:27.5x19x4cm","dimensions":{"lengthCm":27.5,"heightCm":19,"widthCm":4},"rawTitle":"🔥官网参考\n\n型号:782849  尺寸:27.5x19x4cm"},"price":null,"currency":"CNY","moq":1,"category":"gucci-women-bags","status":"active","alibaba_url":null,"images":["https://xcimg.szwego.com/img/dace2ca2/20241106/a1730899983470_4667.jpg","https://xcimg.szwego.com/img/dace2ca2/20241106/a1730899983471_6572.jpg","https://xcimg.szwego.com/img/dace2ca2/20241106/a1730899983466_8424.jpg","https://xcimg.szwego.com/img/dace2ca2/20241106/a1730899983470_2476.jpg","https://xcimg.szwego.com/img/dace2ca2/20241106/a1730899983465_0785.jpg","https://xcimg.szwego.com/img/dace2ca2/20241106/a1730899983470_5230.jpg","https://xcimg.szwego.com/img/dace2ca2/20241106/a1730899984542_2183.jpg","https://xcimg.szwego.com/img/dace2ca2/20241106/a1730899984541_6724.jpg"],"created_at":"2025-03-29T13:24:08.770Z"},{"id":"item-eb5d892e0a3e","sku":"_di_i_0-nx4epzTtNypmmo-apzmvPhW1MNVZ97wQ","name_en":"Gucci Women Bags","name_cn":"782849粉色漆皮\n明星模特\n上身参考图","specs":{"source":"wsxcme","sourceId":"_di_i_0-nx4epzTtNypmmo-apzmvPhW1MNVZ97wQ","sourceTagId":47002679,"sourceTagName":"古驰/女包","rawTitle":"782849粉色漆皮\n明星模特\n上身参考图"},"price":null,"currency":"CNY","moq":1,"category":"gucci-women-bags","status":"active","alibaba_url":null,"images":["https://xcimg.szwego.com/img/dace2ca2/20241106/a1730899266884_8331.jpg","https://xcimg.szwego.com/img/dace2ca2/20241106/a1730899266888_7860.jpg","https://xcimg.szwego.com/img/dace2ca2/20241106/a1730899266897_8104.jpg"],"created_at":"2025-03-29T13:24:08.769Z"},{"id":"item-1921ccb3ba13","sku":"_dgKgKeN6OzBrRCvxxe-TTGwjFWUGvToyd6b2aSw","name_en":"Gucci Women Bags","name_cn":"🔥官网参考\n\n型号:782849  尺寸:27.5x19x4cm","specs":{"source":"wsxcme","sourceId":"_dgKgKeN6OzBrRCvxxe-TTGwjFWUGvToyd6b2aSw","sourceTagId":47002679,"sourceTagName":"古驰/女包","modelNumber":"782849  尺寸:27.5x19x4cm","dimensions":{"lengthCm":27.5,"heightCm":19,"widthCm":4},"rawTitle":"🔥官网参考\n\n型号:782849  尺寸:27.5x19x4cm"},"price":null,"currency":"CNY","moq":1,"category":"gucci-women-bags","status":"active","alibaba_url":null,"images":["https://xcimg.szwego.com/img/dace2ca2/20241106/a1730899224036_4618.jpg","https://xcimg.szwego.com/img/dace2ca2/20241106/a1730899224023_7174.jpg","https://xcimg.szwego.com/img/dace2ca2/20241106/a1730899224035_7855.jpg","https://xcimg.szwego.com/img/dace2ca2/20241106/a1730899224033_3018.jpg","https://xcimg.szwego.com/img/dace2ca2/20241106/a1730899224024_8123.jpg","https://xcimg.szwego.com/img/dace2ca2/20241106/a1730899224026_2258.jpg","https://xcimg.szwego.com/img/dace2ca2/20241106/a1730899225063_2112.jpg","https://xcimg.szwego.com/img/dace2ca2/20241106/a1730899225062_6436.jpg"],"created_at":"2025-03-29T13:24:08.768Z"},{"id":"item-36897128d092","sku":"_da9a9ljb6FChE3HMWZxQVQBL2Z3nBb1w92P6PcQ","name_en":"原厂皮   P【配全套原厂绿盒包装】","name_cn":"原厂皮   P【配全套原厂绿盒包装】\n特级原厂皮   P【配专柜全套包装】\nGucci Jackie系列小号肩背包\n这款全新Gucci Jackie系列肩背包以上等优质皮革匠心打造,尽展品牌经典肩背包的精湛工艺、新月造型和时尚设计。浅金色调配件、皮革滚边和饰有红绿织带的附赠包带为这款以粉色漆皮打造而成的Gucci Jackie系列小号肩背包带来更多穿搭可能。\n型号:782849\n颜色:粉色漆皮\n尺寸:27.5x19x4cm","specs":{"source":"wsxcme","sourceId":"_da9a9ljb6FChE3HMWZxQVQBL2Z3nBb1w92P6PcQ","sourceTagId":47002679,"sourceTagName":"古驰/女包","modelNumber":"782849","dimensions":{"lengthCm":27.5,"heightCm":19,"widthCm":4},"rawTitle":"原厂皮   P【配全套原厂绿盒包装】\n特级原厂皮   P【配专柜全套包装】\nGucci Jackie系列小号肩背包\n这款全新Gucci Jackie系列肩背包以上等优质皮革匠心打造,尽展品牌经典肩背包的精湛工艺、新月造型和时尚设计。浅金色调配件、皮革滚边和饰有红绿织带的附赠包带为这款以粉色漆皮打造而成的Gucci Jackie系列小号肩背包带来更多穿搭可能。\n型号:782849\n颜色:粉色漆皮\n尺寸:27.5x19x4cm"},"price":null,"currency":"CNY","moq":1,"category":"gucci-women-bags","status":"active","alibaba_url":null,"images":["https://xcimg.szwego.com/img/dace2ca2/20241106/a1730898670611_2816.jpg","https://xcimg.szwego.com/img/dace2ca2/20241106/a1730898670598_0411.jpg","https://xcimg.szwego.com/img/dace2ca2/20241106/a1730898670611_2475.jpg","https://xcimg.szwego.com/img/dace2ca2/20241106/a1730898670591_4424.jpg","https://xcimg.szwego.com/img/dace2ca2/20241106/a1730898670611_6753.jpg","https://xcimg.szwego.com/img/dace2ca2/20241106/a1730898670607_3654.jpg","https://xcimg.szwego.com/img/dace2ca2/20241106/a1730898673396_2460.jpg","https://xcimg.szwego.com/img/dace2ca2/20241106/a1730898673387_7184.jpg","https://xcimg.szwego.com/img/dace2ca2/20241106/a1730898673392_6728.jpg"],"created_at":"2025-03-29T13:24:08.767Z"},{"id":"item-4c6b410ee834","sku":"_dklklku9tcGlKlffCDlBUzu9Ehgh2YSIfOGuEcQ","name_en":"Gucci Women Bags","name_cn":"782849橙色漆皮\n明星模特\n上身参考图","specs":{"source":"wsxcme","sourceId":"_dklklku9tcGlKlffCDlBUzu9Ehgh2YSIfOGuEcQ","sourceTagId":47002679,"sourceTagName":"古驰/女包","rawTitle":"782849橙色漆皮\n明星模特\n上身参考图"},"price":null,"currency":"CNY","moq":1,"category":"gucci-women-bags","status":"active","alibaba_url":null,"images":["https://xcimg.szwego.com/img/dace2ca2/20241106/a1730894937283_0131.jpg","https://xcimg.szwego.com/img/dace2ca2/20241106/a1730894937284_5323.jpg","https://xcimg.szwego.com/img/dace2ca2/20241106/a1730894937293_1266.jpg"],"created_at":"2025-03-29T13:24:08.766Z"},{"id":"item-de3b86433906","sku":"_dmOmOWFhDBPYrgGfArflPAHNhhRpDQSs-sz1esA","name_en":"Gucci Women Bags","name_cn":"🔥官网参考\n\n型号:782849  尺寸:27.5x19x4cm","specs":{"source":"wsxcme","sourceId":"_dmOmOWFhDBPYrgGfArflPAHNhhRpDQSs-sz1esA","sourceTagId":47002679,"sourceTagName":"古驰/女包","modelNumber":"782849  尺寸:27.5x19x4cm","dimensions":{"lengthCm":27.5,"heightCm":19,"widthCm":4},"rawTitle":"🔥官网参考\n\n型号:782849  尺寸:27.5x19x4cm"},"price":null,"currency":"CNY","moq":1,"category":"gucci-women-bags","status":"active","alibaba_url":null,"images":["https://xcimg.szwego.com/img/dace2ca2/20241106/a1730894895257_0850.jpg","https://xcimg.szwego.com/img/dace2ca2/20241106/a1730894895262_3080.jpg","https://xcimg.szwego.com/img/dace2ca2/20241106/a1730894895261_6750.jpg","https://xcimg.szwego.com/img/dace2ca2/20241106/a1730894895262_8207.jpg","https://xcimg.szwego.com/img/dace2ca2/20241106/a1730894895259_6332.jpg","https://xcimg.szwego.com/img/dace2ca2/20241106/a1730894895260_6080.jpg","https://xcimg.szwego.com/img/dace2ca2/20241106/a1730894896348_8264.jpg","https://xcimg.szwego.com/img/dace2ca2/20241106/a1730894896346_8636.jpg"],"created_at":"2025-03-29T13:24:08.765Z"},{"id":"item-bf8e45fa1e14","sku":"_datatKJIDuyXo4WsYyODMTpltPP74iUfD2jaw6Q","name_en":"原厂皮   P【配全套原厂绿盒包装】","name_cn":"原厂皮   P【配全套原厂绿盒包装】\n特级原厂皮   P【配专柜全套包装】\nGucci Jackie系列小号肩背包\n这款全新Gucci Jackie系列肩背包以上等优质皮革匠心打造,尽展品牌经典肩背包的精湛工艺、新月造型和时尚设计。浅金色调配件、皮革滚边和饰有红绿织带的附赠包带为这款以橙色漆皮打造而成的Gucci Jackie系列小号肩背包带来更多穿搭可能。\n型号:782849\n颜色:橙色漆皮\n尺寸:27.5x19x4cm","specs":{"source":"wsxcme","sourceId":"_datatKJIDuyXo4WsYyODMTpltPP74iUfD2jaw6Q","sourceTagId":47002679,"sourceTagName":"古驰/女包","modelNumber":"782849","dimensions":{"lengthCm":27.5,"heightCm":19,"widthCm":4},"rawTitle":"原厂皮   P【配全套原厂绿盒包装】\n特级原厂皮   P【配专柜全套包装】\nGucci Jackie系列小号肩背包\n这款全新Gucci Jackie系列肩背包以上等优质皮革匠心打造,尽展品牌经典肩背包的精湛工艺、新月造型和时尚设计。浅金色调配件、皮革滚边和饰有红绿织带的附赠包带为这款以橙色漆皮打造而成的Gucci Jackie系列小号肩背包带来更多穿搭可能。\n型号:782849\n颜色:橙色漆皮\n尺寸:27.5x19x4cm"},"price":null,"currency":"CNY","moq":1,"category":"gucci-women-bags","status":"active","alibaba_url":null,"images":["https://xcimg.szwego.com/img/dace2ca2/20241106/a1730894472448_8145.jpg","https://xcimg.szwego.com/img/dace2ca2/20241106/a1730894472455_3263.jpg","https://xcimg.szwego.com/img/dace2ca2/20241106/a1730894472443_1413.jpg","https://xcimg.szwego.com/img/dace2ca2/20241106/a1730894472443_0674.jpg","https://xcimg.szwego.com/img/dace2ca2/20241106/a1730894472445_0121.jpg","https://xcimg.szwego.com/img/dace2ca2/20241106/a1730894472450_8554.jpg","https://xcimg.szwego.com/img/dace2ca2/20241106/a1730894473868_0538.jpg","https://xcimg.szwego.com/img/dace2ca2/20241106/a1730894473867_6622.jpg","https://xcimg.szwego.com/img/dace2ca2/20241106/a1730894474918_0113.jpg"],"created_at":"2025-03-29T13:24:08.764Z"},{"id":"item-4db01d110806","sku":"_dHDHDVt24KYo3VpuOT92mvzQXvrVgjl1bwxm6cQ","name_en":"Gucci Women Bags","name_cn":"782849安可拉红漆皮\n好不容易酷一次\n天晴啦~\n和 Gucci Ancora 一起迎接美好的春天吧~","specs":{"source":"wsxcme","sourceId":"_dHDHDVt24KYo3VpuOT92mvzQXvrVgjl1bwxm6cQ","sourceTagId":47002679,"sourceTagName":"古驰/女包","rawTitle":"782849安可拉红漆皮\n好不容易酷一次\n天晴啦~\n和 Gucci Ancora 一起迎接美好的春天吧~"},"price":null,"currency":"CNY","moq":1,"category":"gucci-women-bags","status":"active","alibaba_url":null,"images":["https://xcimg.szwego.com/img/dace2ca2/20241106/a1730894222496_4885.jpg","https://xcimg.szwego.com/img/dace2ca2/20241106/a1730894222585_1403.jpg","https://xcimg.szwego.com/img/dace2ca2/20241106/a1730894222500_8721.jpg","https://xcimg.szwego.com/img/dace2ca2/20241106/a1730894222500_1234.jpg"],"created_at":"2025-03-29T13:24:08.763Z"},{"id":"item-2c3dd0fc1a7f","sku":"_dlElEyVhhG3vMdKy6xmaVUVCBYP481btfRI2JVg","name_en":"Gucci Women Bags","name_cn":"782849安可拉红漆皮\n安可拉红 outfit | 今年流行色统治者\n在安可拉红中看到无限可能性","specs":{"source":"wsxcme","sourceId":"_dlElEyVhhG3vMdKy6xmaVUVCBYP481btfRI2JVg","sourceTagId":47002679,"sourceTagName":"古驰/女包","rawTitle":"782849安可拉红漆皮\n安可拉红 outfit | 今年流行色统治者\n在安可拉红中看到无限可能性"},"price":null,"currency":"CNY","moq":1,"category":"gucci-women-bags","status":"active","alibaba_url":null,"images":["https://xcimg.szwego.com/img/dace2ca2/20241106/a1730894120436_3077.jpg","https://xcimg.szwego.com/img/dace2ca2/20241106/a1730894120429_3614.jpg","https://xcimg.szwego.com/img/dace2ca2/20241106/a1730894120429_0537.jpg","https://xcimg.szwego.com/img/dace2ca2/20241106/a1730894120434_2003.jpg","https://xcimg.szwego.com/img/dace2ca2/20241106/a1730894120430_8322.jpg","https://xcimg.szwego.com/img/dace2ca2/20241106/a1730894120438_8041.jpg","https://xcimg.szwego.com/img/dace2ca2/20241106/a1730894121864_4716.jpg","https://xcimg.szwego.com/img/dace2ca2/20241106/a1730894121869_4647.jpg","https://xcimg.szwego.com/img/dace2ca2/20241106/a1730894121876_4312.jpg"],"created_at":"2025-03-29T13:24:08.762Z"},{"id":"item-f73d7b86df8f","sku":"_dcrcrFy4VlDGyXbXDnyk7XwJd66nLaDP80Qb-PA","name_en":"Gucci Women Bags","name_cn":"🔥官网参考\n\n型号:782849  尺寸:27.5x19x4cm","specs":{"source":"wsxcme","sourceId":"_dcrcrFy4VlDGyXbXDnyk7XwJd66nLaDP80Qb-PA","sourceTagId":47002679,"sourceTagName":"古驰/女包","modelNumber":"782849  尺寸:27.5x19x4cm","dimensions":{"lengthCm":27.5,"heightCm":19,"widthCm":4},"rawTitle":"🔥官网参考\n\n型号:782849  尺寸:27.5x19x4cm"},"price":null,"currency":"CNY","moq":1,"category":"gucci-women-bags","status":"active","alibaba_url":null,"images":["https://xcimg.szwego.com/img/dace2ca2/20241106/a1730890203510_8775.jpg","https://xcimg.szwego.com/img/dace2ca2/20241106/a1730890203499_8014.jpg","https://xcimg.szwego.com/img/dace2ca2/20241106/a1730890203507_8377.jpg","https://xcimg.szwego.com/img/dace2ca2/20241106/a1730890203512_0304.jpg","https://xcimg.szwego.com/img/dace2ca2/20241106/a1730890203514_5274.jpg","https://xcimg.szwego.com/img/dace2ca2/20241106/a1730890203506_6822.jpg","https://xcimg.szwego.com/img/dace2ca2/20241106/a1730890204254_4177.jpg","https://xcimg.szwego.com/img/dace2ca2/20241106/a1730890204256_2347.jpg"],"created_at":"2025-03-29T13:24:08.761Z"},{"id":"item-9d417ea3ad4f","sku":"_dp-p-FBbLZq2lzvafhVzW5LPVuSQVrmmPkZCLug","name_en":"原厂皮   P【配全套原厂绿盒包装】","name_cn":"原厂皮   P【配全套原厂绿盒包装】\n特级原厂皮   P【配专柜全套包装】\nGucci Jackie系列小号肩背包\n这款全新Gucci Jackie系列肩背包以上等优质皮革匠心打造,尽展品牌经典肩背包的精湛工艺、新月造型和时尚设计。浅金色调配件、皮革滚边和饰有红绿织带的附赠包带结合,为这款以品牌经典红色Gucci Rosso Ancora皮革打造而成的Gucci Jackie系列小号肩背包带来更多穿搭可能。\n型号:782849\n颜色:安可拉红漆皮\n尺寸:27.5x19x4cm","specs":{"source":"wsxcme","sourceId":"_dp-p-FBbLZq2lzvafhVzW5LPVuSQVrmmPkZCLug","sourceTagId":47002679,"sourceTagName":"古驰/女包","modelNumber":"782849","dimensions":{"lengthCm":27.5,"heightCm":19,"widthCm":4},"rawTitle":"原厂皮   P【配全套原厂绿盒包装】\n特级原厂皮   P【配专柜全套包装】\nGucci Jackie系列小号肩背包\n这款全新Gucci Jackie系列肩背包以上等优质皮革匠心打造,尽展品牌经典肩背包的精湛工艺、新月造型和时尚设计。浅金色调配件、皮革滚边和饰有红绿织带的附赠包带结合,为这款以品牌经典红色Gucci Rosso Ancora皮革打造而成的Gucci Jackie系列小号肩背包带来更多穿搭可能。\n型号:782849\n颜色:安可拉红漆皮\n尺寸:27.5x19x4cm"},"price":null,"currency":"CNY","moq":1,"category":"gucci-women-bags","status":"active","alibaba_url":null,"images":["https://xcimg.szwego.com/img/dace2ca2/20241106/a1730890102502_8717.jpg","https://xcimg.szwego.com/img/dace2ca2/20241106/a1730890102502_8732.jpg","https://xcimg.szwego.com/img/dace2ca2/20241106/a1730890102493_2050.jpg","https://xcimg.szwego.com/img/dace2ca2/20241106/a1730890102505_4718.jpg","https://xcimg.szwego.com/img/dace2ca2/20241106/a1730890102503_0136.jpg","https://xcimg.szwego.com/img/dace2ca2/20241106/a1730890102455_2310.jpg","https://xcimg.szwego.com/img/dace2ca2/20241106/a1730890103547_8131.jpg","https://xcimg.szwego.com/img/dace2ca2/20241106/a1730890103545_7115.jpg","https://xcimg.szwego.com/img/dace2ca2/20241106/a1730890103548_7315.jpg"],"created_at":"2025-03-29T13:24:08.760Z"},{"id":"item-4dcfd07f5689","sku":"_drkrkdnzasr7IF-30QTWymZ9R2HZgfoUmK3EHqA","name_en":"Gucci Women Bags","name_cn":"782849克色全皮\n明星模特\n上身参考图","specs":{"source":"wsxcme","sourceId":"_drkrkdnzasr7IF-30QTWymZ9R2HZgfoUmK3EHqA","sourceTagId":47002679,"sourceTagName":"古驰/女包","rawTitle":"782849克色全皮\n明星模特\n上身参考图"},"price":null,"currency":"CNY","moq":1,"category":"gucci-women-bags","status":"active","alibaba_url":null,"images":["https://xcimg.szwego.com/img/dace2ca2/20241106/a1730887622466_1436.jpg","https://xcimg.szwego.com/img/dace2ca2/20241106/a1730887622461_8374.jpg","https://xcimg.szwego.com/img/dace2ca2/20241106/a1730887622468_3268.jpg"],"created_at":"2025-03-29T13:24:08.759Z"},{"id":"item-d205e35b87fa","sku":"_deVeV1xJTDs7aZg0aWfiMoMGkORK0ey2GlVXDtA","name_en":"Gucci Women Bags","name_cn":"🔥官网参考\n\n型号:782849  尺寸:27.5x19x4cm","specs":{"source":"wsxcme","sourceId":"_deVeV1xJTDs7aZg0aWfiMoMGkORK0ey2GlVXDtA","sourceTagId":47002679,"sourceTagName":"古驰/女包","modelNumber":"782849  尺寸:27.5x19x4cm","dimensions":{"lengthCm":27.5,"heightCm":19,"widthCm":4},"rawTitle":"🔥官网参考\n\n型号:782849  尺寸:27.5x19x4cm"},"price":null,"currency":"CNY","moq":1,"category":"gucci-women-bags","status":"active","alibaba_url":null,"images":["https://xcimg.szwego.com/img/dace2ca2/20241106/a1730887592611_6604.jpg","https://xcimg.szwego.com/img/dace2ca2/20241106/a1730887592634_4546.jpg","https://xcimg.szwego.com/img/dace2ca2/20241106/a1730887592645_5334.jpg","https://xcimg.szwego.com/img/dace2ca2/20241106/a1730887592619_3842.jpg","https://xcimg.szwego.com/img/dace2ca2/20241106/a1730887592630_3201.jpg","https://xcimg.szwego.com/img/dace2ca2/20241106/a1730887592628_6433.jpg","https://xcimg.szwego.com/img/dace2ca2/20241106/a1730887593423_7653.jpg","https://xcimg.szwego.com/img/dace2ca2/20241106/a1730887593422_3025.jpg"],"created_at":"2025-03-29T13:24:08.758Z"},{"id":"item-85eacc857376","sku":"_deVeV1xJTDs7aZg0aWfiMoMGkOR-0ey2GlVXDtA","name_en":"原厂皮   P【配全套原厂绿盒包装】","name_cn":"原厂皮   P【配全套原厂绿盒包装】\n特级原厂皮   P【配专柜全套包装】\nGucci Jackie系列小号肩背包\n这款全新Gucci Jackie系列肩背包以上等优质皮革匠心打造,尽展品牌经典肩背包的精湛工艺、新月造型和时尚设计。浅金色调配件、皮革滚边和附加条纹包带结合,为这款以黑色皮革打造而成的Gucci Jackie系列小号肩背包带来更多穿搭可能。\n型号:782849\n颜色:克色全皮\n尺寸:27.5x19x4cm","specs":{"source":"wsxcme","sourceId":"_deVeV1xJTDs7aZg0aWfiMoMGkOR-0ey2GlVXDtA","sourceTagId":47002679,"sourceTagName":"古驰/女包","modelNumber":"782849","dimensions":{"lengthCm":27.5,"heightCm":19,"widthCm":4},"rawTitle":"原厂皮   P【配全套原厂绿盒包装】\n特级原厂皮   P【配专柜全套包装】\nGucci Jackie系列小号肩背包\n这款全新Gucci Jackie系列肩背包以上等优质皮革匠心打造,尽展品牌经典肩背包的精湛工艺、新月造型和时尚设计。浅金色调配件、皮革滚边和附加条纹包带结合,为这款以黑色皮革打造而成的Gucci Jackie系列小号肩背包带来更多穿搭可能。\n型号:782849\n颜色:克色全皮\n尺寸:27.5x19x4cm"},"price":null,"currency":"CNY","moq":1,"category":"gucci-women-bags","status":"active","alibaba_url":null,"images":["https://xcimg.szwego.com/img/dace2ca2/20241106/a1730887549903_0303.jpg","https://xcimg.szwego.com/img/dace2ca2/20241106/a1730887549900_4525.jpg","https://xcimg.szwego.com/img/dace2ca2/20241106/a1730887549899_6056.jpg","https://xcimg.szwego.com/img/dace2ca2/20241106/a1730887549868_7451.jpg","https://xcimg.szwego.com/img/dace2ca2/20241106/a1730887549900_8803.jpg","https://xcimg.szwego.com/img/dace2ca2/20241106/a1730887549904_0415.jpg","https://xcimg.szwego.com/img/dace2ca2/20241106/a1730887550795_2207.jpg","https://xcimg.szwego.com/img/dace2ca2/20241106/a1730887550801_3420.jpg","https://xcimg.szwego.com/img/dace2ca2/20241106/a1730887550799_1361.jpg"],"created_at":"2025-03-29T13:24:08.757Z"},{"id":"item-eb3b7ca80ce0","sku":"_dRCRCIhGTuYP1X1ASIjsDsccTOQoIiQLhL4figw","name_en":"Gucci Women Bags","name_cn":"782849棕色全皮\n明星模特\n上身参考图","specs":{"source":"wsxcme","sourceId":"_dRCRCIhGTuYP1X1ASIjsDsccTOQoIiQLhL4figw","sourceTagId":47002679,"sourceTagName":"古驰/女包","rawTitle":"782849棕色全皮\n明星模特\n上身参考图"},"price":null,"currency":"CNY","moq":1,"category":"gucci-women-bags","status":"active","alibaba_url":null,"images":["https://xcimg.szwego.com/img/dace2ca2/20241106/a1730889667530_8406.jpg","https://xcimg.szwego.com/img/dace2ca2/20241106/a1730889667581_0540.jpg","https://xcimg.szwego.com/img/dace2ca2/20241106/a1730889667585_6451.jpg"],"created_at":"2025-03-29T13:24:08.756Z"},{"id":"item-a30d954693a4","sku":"_dwVwVbGtanVtOefQf6jYrdM213cJkqO_hkPsX0w","name_en":"Gucci Women Bags","name_cn":"🔥官网参考\n\n型号:782849  尺寸:27.5x19x4cm","specs":{"source":"wsxcme","sourceId":"_dwVwVbGtanVtOefQf6jYrdM213cJkqO_hkPsX0w","sourceTagId":47002679,"sourceTagName":"古驰/女包","modelNumber":"782849  尺寸:27.5x19x4cm","dimensions":{"lengthCm":27.5,"heightCm":19,"widthCm":4},"rawTitle":"🔥官网参考\n\n型号:782849  尺寸:27.5x19x4cm"},"price":null,"currency":"CNY","moq":1,"category":"gucci-women-bags","status":"active","alibaba_url":null,"images":["https://xcimg.szwego.com/img/dace2ca2/20241106/a1730889640909_6541.jpg","https://xcimg.szwego.com/img/dace2ca2/20241106/a1730889640908_6653.jpg","https://xcimg.szwego.com/img/dace2ca2/20241106/a1730889640912_0034.jpg","https://xcimg.szwego.com/img/dace2ca2/20241106/a1730889640920_7314.jpg","https://xcimg.szwego.com/img/dace2ca2/20241106/a1730889640947_2755.jpg","https://xcimg.szwego.com/img/dace2ca2/20241106/a1730889640946_5001.jpg","https://xcimg.szwego.com/img/dace2ca2/20241106/a1730889641678_3837.jpg","https://xcimg.szwego.com/img/dace2ca2/20241106/a1730889641682_2766.jpg"],"created_at":"2025-03-29T13:24:08.755Z"},{"id":"item-cc1d017fe206","sku":"_daRaRxkvCc0Tnr2NCrjqBI1mPLwii7Ys1udSwCw","name_en":"原厂皮   P【配全套原厂绿盒包装】","name_cn":"原厂皮   P【配全套原厂绿盒包装】\n特级原厂皮   P【配专柜全套包装】\nGucci Jackie系列小号肩背包\n这款全新Gucci Jackie系列肩背包以上等优质皮革匠心打造,尽展品牌经典肩背包的精湛工艺、新月造型和时尚设计。浅金色调配件、皮革滚边和饰有红绿织带的附赠包带为这款以棕色皮革打造而成的Gucci Jackie系列小号肩背包带来更多穿搭可能。\n型号:782849\n颜色:棕色全皮\n尺寸:27.5x19x4cm","specs":{"source":"wsxcme","sourceId":"_daRaRxkvCc0Tnr2NCrjqBI1mPLwii7Ys1udSwCw","sourceTagId":47002679,"sourceTagName":"古驰/女包","modelNumber":"782849","dimensions":{"lengthCm":27.5,"heightCm":19,"widthCm":4},"rawTitle":"原厂皮   P【配全套原厂绿盒包装】\n特级原厂皮   P【配专柜全套包装】\nGucci Jackie系列小号肩背包\n这款全新Gucci Jackie系列肩背包以上等优质皮革匠心打造,尽展品牌经典肩背包的精湛工艺、新月造型和时尚设计。浅金色调配件、皮革滚边和饰有红绿织带的附赠包带为这款以棕色皮革打造而成的Gucci Jackie系列小号肩背包带来更多穿搭可能。\n型号:782849\n颜色:棕色全皮\n尺寸:27.5x19x4cm"},"price":null,"currency":"CNY","moq":1,"category":"gucci-women-bags","status":"active","alibaba_url":null,"images":["https://xcimg.szwego.com/img/dace2ca2/20241106/a1730889602213_7710.jpg","https://xcimg.szwego.com/img/dace2ca2/20241106/a1730889602162_5745.jpg","https://xcimg.szwego.com/img/dace2ca2/20241106/a1730889602161_3802.jpg","https://xcimg.szwego.com/img/dace2ca2/20241106/a1730889602215_5608.jpg","https://xcimg.szwego.com/img/dace2ca2/20241106/a1730889602214_7041.jpg","https://xcimg.szwego.com/img/dace2ca2/20241106/a1730889602209_5362.jpg","https://xcimg.szwego.com/img/dace2ca2/20241106/a1730889603082_4560.jpg","https://xcimg.szwego.com/img/dace2ca2/20241106/a1730889603084_7524.jpg","https://xcimg.szwego.com/img/dace2ca2/20241106/a1730889603085_4014.jpg"],"created_at":"2025-03-29T13:24:08.754Z"},{"id":"item-d43f81c387c8","sku":"_dl3l3sbJhOgBBG9O8wQMF-uKCoAKCbI7cTDQnJQ","name_en":"Gucci Women Bags","name_cn":"782849浅棕色全皮\n明星模特\n上身参考图","specs":{"source":"wsxcme","sourceId":"_dl3l3sbJhOgBBG9O8wQMF-uKCoAKCbI7cTDQnJQ","sourceTagId":47002679,"sourceTagName":"古驰/女包","rawTitle":"782849浅棕色全皮\n明星模特\n上身参考图"},"price":null,"currency":"CNY","moq":1,"category":"gucci-women-bags","status":"active","alibaba_url":null,"images":["https://xcimg.szwego.com/img/dace2ca2/20241106/a1730897243354_2530.jpg","https://xcimg.szwego.com/img/dace2ca2/20241106/a1730897243353_5376.jpg"],"created_at":"2025-03-29T13:24:08.753Z"},{"id":"item-1fb1e0da445d","sku":"_dx-x-Kyw4X9-ZM8gfm_J6FUdRGI952VGPV4Feew","name_en":"Gucci Women Bags","name_cn":"🔥官网参考\n\n型号:782849  尺寸:27.5x19x4cm","specs":{"source":"wsxcme","sourceId":"_dx-x-Kyw4X9-ZM8gfm_J6FUdRGI952VGPV4Feew","sourceTagId":47002679,"sourceTagName":"古驰/女包","modelNumber":"782849  尺寸:27.5x19x4cm","dimensions":{"lengthCm":27.5,"heightCm":19,"widthCm":4},"rawTitle":"🔥官网参考\n\n型号:782849  尺寸:27.5x19x4cm"},"price":null,"currency":"CNY","moq":1,"category":"gucci-women-bags","status":"active","alibaba_url":null,"images":["https://xcimg.szwego.com/img/dace2ca2/20241106/a1730897205101_1307.jpg","https://xcimg.szwego.com/img/dace2ca2/20241106/a1730897205107_0107.jpg","https://xcimg.szwego.com/img/dace2ca2/20241106/a1730897205106_5244.jpg","https://xcimg.szwego.com/img/dace2ca2/20241106/a1730897205107_8622.jpg","https://xcimg.szwego.com/img/dace2ca2/20241106/a1730897205105_0802.jpg","https://xcimg.szwego.com/img/dace2ca2/20241106/a1730897205100_5522.jpg","https://xcimg.szwego.com/img/dace2ca2/20241106/a1730897207711_4012.jpg","https://xcimg.szwego.com/img/dace2ca2/20241106/a1730897207712_7335.jpg"],"created_at":"2025-03-29T13:24:08.752Z"},{"id":"item-fbc8ab8a294b","sku":"_di6i6QkPxYVZ2yMZbCpe2_0Kj12RjeFLArQ70GA","name_en":"原厂皮   P【配全套原厂绿盒包装】","name_cn":"原厂皮   P【配全套原厂绿盒包装】\n特级原厂皮   P【配专柜全套包装】\nGucci Jackie系列小号肩背包\n这款全新Gucci Jackie系列肩背包以上等优质皮革匠心打造,尽展品牌经典肩背包的精湛工艺、新月造型和时尚设计。浅金色调配件、皮革滚边和饰有红绿织带的附赠包带为这款以浅棕色皮革打造而成的Gucci Jackie系列小号肩背包带来更多穿搭可能。\n型号:782849\n颜色:浅棕色全皮\n尺寸:27.5x19x4cm","specs":{"source":"wsxcme","sourceId":"_di6i6QkPxYVZ2yMZbCpe2_0Kj12RjeFLArQ70GA","sourceTagId":47002679,"sourceTagName":"古驰/女包","modelNumber":"782849","dimensions":{"lengthCm":27.5,"heightCm":19,"widthCm":4},"rawTitle":"原厂皮   P【配全套原厂绿盒包装】\n特级原厂皮   P【配专柜全套包装】\nGucci Jackie系列小号肩背包\n这款全新Gucci Jackie系列肩背包以上等优质皮革匠心打造,尽展品牌经典肩背包的精湛工艺、新月造型和时尚设计。浅金色调配件、皮革滚边和饰有红绿织带的附赠包带为这款以浅棕色皮革打造而成的Gucci Jackie系列小号肩背包带来更多穿搭可能。\n型号:782849\n颜色:浅棕色全皮\n尺寸:27.5x19x4cm"},"price":null,"currency":"CNY","moq":1,"category":"gucci-women-bags","status":"active","alibaba_url":null,"images":["https://xcimg.szwego.com/img/dace2ca2/20241106/a1730896341007_1063.jpg","https://xcimg.szwego.com/img/dace2ca2/20241106/a1730896341003_1253.jpg","https://xcimg.szwego.com/img/dace2ca2/20241106/a1730896341003_4264.jpg","https://xcimg.szwego.com/img/dace2ca2/20241106/a1730896340997_2111.jpg","https://xcimg.szwego.com/img/dace2ca2/20241106/a1730896340999_3275.jpg","https://xcimg.szwego.com/img/dace2ca2/20241106/a1730896341005_0523.jpg","https://xcimg.szwego.com/img/dace2ca2/20241106/a1730896343085_5375.jpg","https://xcimg.szwego.com/img/dace2ca2/20241106/a1730896343086_3138.jpg","https://xcimg.szwego.com/img/dace2ca2/20241106/a1730896343083_6716.jpg"],"created_at":"2025-03-29T13:24:08.751Z"},{"id":"item-a54c30d80420","sku":"_dbfbfWNwSJu_APXaPMDIzJjJlj7Ft5br-dV5Eew","name_en":"Gucci Women Bags","name_cn":"782849白色帆布棕皮\n明星模特\n上身参考图","specs":{"source":"wsxcme","sourceId":"_dbfbfWNwSJu_APXaPMDIzJjJlj7Ft5br-dV5Eew","sourceTagId":47002679,"sourceTagName":"古驰/女包","rawTitle":"782849白色帆布棕皮\n明星模特\n上身参考图"},"price":null,"currency":"CNY","moq":1,"category":"gucci-women-bags","status":"active","alibaba_url":null,"images":["https://xcimg.szwego.com/img/dace2ca2/20241106/a1730867843922_0103.jpg","https://xcimg.szwego.com/img/dace2ca2/20241106/a1730867843924_0610.jpg"],"created_at":"2025-03-29T13:24:08.750Z"},{"id":"item-42ec6cd1becf","sku":"_d_D_DBgy4OQQ1iOI8xszj6fZZlbePulAnnjp8Ow","name_en":"Gucci Women Bags","name_cn":"🔥官网参考\n\n型号:782849  尺寸:27.5x19x4cm","specs":{"source":"wsxcme","sourceId":"_d_D_DBgy4OQQ1iOI8xszj6fZZlbePulAnnjp8Ow","sourceTagId":47002679,"sourceTagName":"古驰/女包","modelNumber":"782849  尺寸:27.5x19x4cm","dimensions":{"lengthCm":27.5,"heightCm":19,"widthCm":4},"rawTitle":"🔥官网参考\n\n型号:782849  尺寸:27.5x19x4cm"},"price":null,"currency":"CNY","moq":1,"category":"gucci-women-bags","status":"active","alibaba_url":null,"images":["https://xcimg.szwego.com/img/dace2ca2/20241106/a1730866990227_8720.jpg","https://xcimg.szwego.com/img/dace2ca2/20241106/a1730866990228_8427.jpg","https://xcimg.szwego.com/img/dace2ca2/20241106/a1730866990227_6554.jpg","https://xcimg.szwego.com/img/dace2ca2/20241106/a1730866990229_4231.jpg","https://xcimg.szwego.com/img/dace2ca2/20241106/a1730866990231_1607.jpg","https://xcimg.szwego.com/img/dace2ca2/20241106/a1730866990230_7344.jpg","https://xcimg.szwego.com/img/dace2ca2/20241106/a1730866991002_3368.jpg","https://xcimg.szwego.com/img/dace2ca2/20241106/a1730866991002_5643.jpg"],"created_at":"2025-03-29T13:24:08.749Z"}],"page":129,"pageSize":24,"total":10075,"totalPages":420}
