{"items":[{"id":"item-a1ec0f8976f0","sku":"_dukukw-k4E3UV0j8acOLz7LOMOM6Ix3OVZSrjtQ","name_en":"Burberry Women Bags","name_cn":"官网图","specs":{"source":"wsxcme","sourceId":"_dukukw-k4E3UV0j8acOLz7LOMOM6Ix3OVZSrjtQ","sourceTagId":80411239,"sourceTagName":"巴宝莉/女包","rawTitle":"官网图"},"price":null,"currency":"CNY","moq":1,"category":"burberry-women-bags","status":"active","alibaba_url":null,"images":["https://xcimg.szwego.com/img/d5e7a5ce/20250530/a1748585166067_0102.jpg","https://xcimg.szwego.com/img/d5e7a5ce/20250530/a1748585166070_6177.jpg","https://xcimg.szwego.com/img/d5e7a5ce/20250530/a1748585166072_5214.jpg","https://xcimg.szwego.com/img/d5e7a5ce/20250530/a1748585166073_1156.jpg","https://xcimg.szwego.com/img/d5e7a5ce/20250530/a1748585166073_6400.jpg"],"created_at":"2026-06-29T10:27:58.632Z"},{"id":"item-7bc704e5a02b","sku":"_dj2j2_ZsYs8dgmZ4Rd0Fsn95iCYaUP0T89wrUKA","name_en":"❤️B家最新柔软立挺的托特包,选用粒纹小牛皮面料打造。于意大利工坊精制而成,搭配麂皮内衬。融入品牌标志性b 宇型开合,光滑小牛皮裁片点缀马术骑士徽标(EKD)压花。采用","name_cn":"❤️B家最新柔软立挺的托特包,选用粒纹小牛皮面料打造。于意大利工坊精制而成,搭配麂皮内衬。融入品牌标志性b 宇型开合,光滑小牛皮裁片点缀马术骑士徽标(EKD)压花。采用\n可拆\n式肩背带,自如切换手提包和肩背包造型\n后侧饰有马术骑士徽标 (EKD)压花\n尺寸35.5 × 18x 28cm","specs":{"source":"wsxcme","sourceId":"_dj2j2_ZsYs8dgmZ4Rd0Fsn95iCYaUP0T89wrUKA","sourceTagId":80411239,"sourceTagName":"巴宝莉/女包","dimensions":{"lengthCm":35.5,"heightCm":18,"widthCm":28},"rawTitle":"❤️B家最新柔软立挺的托特包,选用粒纹小牛皮面料打造。于意大利工坊精制而成,搭配麂皮内衬。融入品牌标志性b 宇型开合,光滑小牛皮裁片点缀马术骑士徽标(EKD)压花。采用\n可拆\n式肩背带,自如切换手提包和肩背包造型\n后侧饰有马术骑士徽标 (EKD)压花\n尺寸35.5 × 18x 28cm"},"price":null,"currency":"CNY","moq":1,"category":"burberry-women-bags","status":"active","alibaba_url":null,"images":["https://xcimg.szwego.com/img/d5e7a5ce/20250530/a1748585107558_3138.jpg","https://xcimg.szwego.com/img/d5e7a5ce/20250530/a1748585107562_0481.jpg","https://xcimg.szwego.com/img/d5e7a5ce/20250530/a1748585107603_5567.jpg","https://xcimg.szwego.com/img/d5e7a5ce/20250530/a1748585107605_3416.jpg","https://xcimg.szwego.com/img/d5e7a5ce/20250530/a1748585107580_1371.jpg","https://xcimg.szwego.com/img/d5e7a5ce/20250530/a1748585107607_8052.jpg","https://xcimg.szwego.com/img/d5e7a5ce/20250530/a1748585108364_8563.jpg","https://xcimg.szwego.com/img/d5e7a5ce/20250530/a1748585108595_5841.jpg","https://xcimg.szwego.com/img/d5e7a5ce/20250530/a1748585108367_8280.jpg"],"created_at":"2026-06-29T10:27:58.622Z"},{"id":"item-d525f52cb4c0","sku":"_dctctEAE5GOQI8Hl2ITsbcxhQX--XFK2zuIYIeQ","name_en":"❤️B家手提包斜挎包,经典棉质格纹帆布拼牛皮,袋口拉链设计,两侧可收拢展开,多种背法,上身效果超赞,尺寸:21/20/13","name_cn":"❤️B家手提包斜挎包,经典棉质格纹帆布拼牛皮,袋口拉链设计,两侧可收拢展开,多种背法,上身效果超赞,尺寸:21/20/13","specs":{"source":"wsxcme","sourceId":"_dctctEAE5GOQI8Hl2ITsbcxhQX--XFK2zuIYIeQ","sourceTagId":80411239,"sourceTagName":"巴宝莉/女包","rawTitle":"❤️B家手提包斜挎包,经典棉质格纹帆布拼牛皮,袋口拉链设计,两侧可收拢展开,多种背法,上身效果超赞,尺寸:21/20/13"},"price":null,"currency":"CNY","moq":1,"category":"burberry-women-bags","status":"active","alibaba_url":null,"images":["https://xcimg.szwego.com/img/d5e7a5ce/20251114/a1763099178248_7244.jpg","https://xcimg.szwego.com/img/d5e7a5ce/20251114/a1763099178253_6753.jpg","https://xcimg.szwego.com/img/d5e7a5ce/20251114/a1763099178254_3626.jpg","https://xcimg.szwego.com/img/d5e7a5ce/20251114/a1763099178255_8223.jpg","https://xcimg.szwego.com/img/d5e7a5ce/20251114/a1763099178255_7027.jpg","https://xcimg.szwego.com/img/d5e7a5ce/20251114/a1763099178256_3456.jpg","https://xcimg.szwego.com/img/d5e7a5ce/20251114/a1763099178776_6858.jpg"],"created_at":"2026-06-29T10:27:58.612Z"},{"id":"item-5d158130fe4c","sku":"_dHrHrsdX-3Ru1eu0C7HKNzzvVGjkK5-WwYzbguQ","name_en":"Burberry Women Bags","name_cn":"现货","specs":{"source":"wsxcme","sourceId":"_dHrHrsdX-3Ru1eu0C7HKNzzvVGjkK5-WwYzbguQ","sourceTagId":80411239,"sourceTagName":"巴宝莉/女包","rawTitle":"现货"},"price":null,"currency":"CNY","moq":1,"category":"burberry-women-bags","status":"active","alibaba_url":null,"images":["https://xcimg.szwego.com/img/d5e7a5ce/20251114/a1763099167415_2576.jpg","https://xcimg.szwego.com/img/d5e7a5ce/20251114/a1763099167417_5148.jpg","https://xcimg.szwego.com/img/d5e7a5ce/20251114/a1763099167417_4832.jpg"],"created_at":"2026-06-29T10:27:58.602Z"},{"id":"item-6d37596ef27a","sku":"_dwMwMm8vQeau3s9bSyrWqy4LVfJbZcFZLOfvs5g","name_en":"Burberry Women Bags","name_cn":"巴宝莉/女包","specs":{"source":"wsxcme","sourceId":"_dwMwMm8vQeau3s9bSyrWqy4LVfJbZcFZLOfvs5g","sourceTagId":80411239,"sourceTagName":"巴宝莉/女包","rawTitle":""},"price":null,"currency":"CNY","moq":1,"category":"burberry-women-bags","status":"active","alibaba_url":null,"images":["https://xcimg.szwego.com/img/d5e7a5ce/20251114/a1763099152408_6183.jpg"],"created_at":"2026-06-29T10:27:58.592Z"},{"id":"item-77aca21e7509","sku":"_doioiwM-h9FjI9925YXvT8FEAn5gN-FX5lVsYRQ","name_en":"❤️B家手提包斜挎包,经典棉质格纹帆布拼牛皮,袋口拉链设计,两侧可收拢展开,多种背法,上身效果超赞,尺寸:21/20/13","name_cn":"❤️B家手提包斜挎包,经典棉质格纹帆布拼牛皮,袋口拉链设计,两侧可收拢展开,多种背法,上身效果超赞,尺寸:21/20/13","specs":{"source":"wsxcme","sourceId":"_doioiwM-h9FjI9925YXvT8FEAn5gN-FX5lVsYRQ","sourceTagId":80411239,"sourceTagName":"巴宝莉/女包","rawTitle":"❤️B家手提包斜挎包,经典棉质格纹帆布拼牛皮,袋口拉链设计,两侧可收拢展开,多种背法,上身效果超赞,尺寸:21/20/13"},"price":null,"currency":"CNY","moq":1,"category":"burberry-women-bags","status":"active","alibaba_url":null,"images":["https://xcimg.szwego.com/img/d5e7a5ce/20251114/a1763099122465_4638.jpg","https://xcimg.szwego.com/img/d5e7a5ce/20251114/a1763099122467_1030.jpg","https://xcimg.szwego.com/img/d5e7a5ce/20251114/a1763099122469_1633.jpg","https://xcimg.szwego.com/img/d5e7a5ce/20251114/a1763099122481_8205.jpg","https://xcimg.szwego.com/img/d5e7a5ce/20251114/a1763099122476_7622.jpg","https://xcimg.szwego.com/img/d5e7a5ce/20251114/a1763099122473_0736.jpg","https://xcimg.szwego.com/img/d5e7a5ce/20251114/a1763099123023_2671.jpg","https://xcimg.szwego.com/img/d5e7a5ce/20251114/a1763099123022_2507.jpg","https://xcimg.szwego.com/img/d5e7a5ce/20251114/a1763099123024_6410.jpg"],"created_at":"2026-06-29T10:27:58.582Z"},{"id":"item-980e37eb2f33","sku":"_dvmvmwkErRMI7uqB6RttG9GdMWqXlLAtYiR9cjg","name_en":"B家手提包斜挎包,经典棉质格纹帆布拼牛皮,袋口拉链设计,两侧可收拢展开,多种背法,棕色 黑色 杏色","name_cn":"B家手提包斜挎包,经典棉质格纹帆布拼牛皮,袋口拉链设计,两侧可收拢展开,多种背法,棕色 黑色 杏色","specs":{"source":"wsxcme","sourceId":"_dvmvmwkErRMI7uqB6RttG9GdMWqXlLAtYiR9cjg","sourceTagId":80411239,"sourceTagName":"巴宝莉/女包","rawTitle":"B家手提包斜挎包,经典棉质格纹帆布拼牛皮,袋口拉链设计,两侧可收拢展开,多种背法,棕色 黑色 杏色"},"price":null,"currency":"CNY","moq":1,"category":"burberry-women-bags","status":"active","alibaba_url":null,"images":["https://xcimg.szwego.com/img/d5e7a5ce/20251114/a1763099099407_1805.jpg","https://xcimg.szwego.com/img/d5e7a5ce/20251114/a1763099099418_1034.jpg","https://xcimg.szwego.com/img/d5e7a5ce/20251114/a1763099099418_7316.jpg","https://xcimg.szwego.com/img/d5e7a5ce/20251114/a1763099099419_5574.jpg","https://xcimg.szwego.com/img/d5e7a5ce/20251114/a1763099099419_0807.jpg","https://xcimg.szwego.com/img/d5e7a5ce/20251114/a1763099099420_4422.jpg","https://xcimg.szwego.com/img/d5e7a5ce/20251114/a1763099099932_0667.jpg","https://xcimg.szwego.com/img/d5e7a5ce/20251114/a1763099099928_2206.jpg","https://xcimg.szwego.com/img/d5e7a5ce/20251114/a1763099099931_3164.jpg"],"created_at":"2026-06-29T10:27:58.572Z"},{"id":"item-3960e4b56fba","sku":"_dGiGiMEZTavrkfKGQlqncR1sOC8tXUNN81EFkoA","name_en":"B家手提包斜挎包,经典棉质格纹帆布拼牛皮,袋口拉链设计,两侧可收拢展开,多种背法,上身效果超赞,尺寸:21/20/13,","name_cn":"B家手提包斜挎包,经典棉质格纹帆布拼牛皮,袋口拉链设计,两侧可收拢展开,多种背法,上身效果超赞,尺寸:21/20/13,","specs":{"source":"wsxcme","sourceId":"_dGiGiMEZTavrkfKGQlqncR1sOC8tXUNN81EFkoA","sourceTagId":80411239,"sourceTagName":"巴宝莉/女包","rawTitle":"B家手提包斜挎包,经典棉质格纹帆布拼牛皮,袋口拉链设计,两侧可收拢展开,多种背法,上身效果超赞,尺寸:21/20/13,"},"price":null,"currency":"CNY","moq":1,"category":"burberry-women-bags","status":"active","alibaba_url":null,"images":["https://xcimg.szwego.com/img/d5e7a5ce/20251114/a1763099088168_8887.jpg","https://xcimg.szwego.com/img/d5e7a5ce/20251114/a1763099088191_4861.jpg","https://xcimg.szwego.com/img/d5e7a5ce/20251114/a1763099088192_7328.jpg","https://xcimg.szwego.com/img/d5e7a5ce/20251114/a1763099088194_0475.jpg","https://xcimg.szwego.com/img/d5e7a5ce/20251114/a1763099088194_6140.jpg","https://xcimg.szwego.com/img/d5e7a5ce/20251114/a1763099088195_6185.jpg","https://xcimg.szwego.com/img/d5e7a5ce/20251114/a1763099088691_8676.jpg","https://xcimg.szwego.com/img/d5e7a5ce/20251114/a1763099088689_7754.jpg","https://xcimg.szwego.com/img/d5e7a5ce/20251114/a1763099088690_5828.jpg"],"created_at":"2026-06-29T10:27:58.562Z"},{"id":"item-80a38b4c5ee8","sku":"_dvXvXDGU2Qp_4QI8HpcX64CBMXoLhjJFYnXCg1A","name_en":"❤️B家手提包斜挎包,经典棉质格纹帆布拼牛皮,袋口拉链设计,两侧可收拢展开,多种背法,上身效果超赞,尺寸:21/20/13","name_cn":"❤️B家手提包斜挎包,经典棉质格纹帆布拼牛皮,袋口拉链设计,两侧可收拢展开,多种背法,上身效果超赞,尺寸:21/20/13","specs":{"source":"wsxcme","sourceId":"_dvXvXDGU2Qp_4QI8HpcX64CBMXoLhjJFYnXCg1A","sourceTagId":80411239,"sourceTagName":"巴宝莉/女包","rawTitle":"❤️B家手提包斜挎包,经典棉质格纹帆布拼牛皮,袋口拉链设计,两侧可收拢展开,多种背法,上身效果超赞,尺寸:21/20/13"},"price":null,"currency":"CNY","moq":1,"category":"burberry-women-bags","status":"active","alibaba_url":null,"images":["https://xcimg.szwego.com/img/d5e7a5ce/20251114/a1763099054276_1823.jpg","https://xcimg.szwego.com/img/d5e7a5ce/20251114/a1763099054277_6304.jpg","https://xcimg.szwego.com/img/d5e7a5ce/20251114/a1763099054273_2472.jpg","https://xcimg.szwego.com/img/d5e7a5ce/20251114/a1763099054274_5781.jpg","https://xcimg.szwego.com/img/d5e7a5ce/20251114/a1763099054277_1316.jpg","https://xcimg.szwego.com/img/d5e7a5ce/20251114/a1763099054277_0336.jpg","https://xcimg.szwego.com/img/d5e7a5ce/20251114/a1763099054870_3233.jpg","https://xcimg.szwego.com/img/d5e7a5ce/20251114/a1763099054867_0182.jpg","https://xcimg.szwego.com/img/d5e7a5ce/20251114/a1763099054872_8841.jpg"],"created_at":"2026-06-29T10:27:58.552Z"},{"id":"item-4a0372d1cbee","sku":"_drFrFjnManIRjOJK85ubUNUnhMadWC3XsFbCdBQ","name_en":"Burberry Women Bags","name_cn":"上身图","specs":{"source":"wsxcme","sourceId":"_drFrFjnManIRjOJK85ubUNUnhMadWC3XsFbCdBQ","sourceTagId":80411239,"sourceTagName":"巴宝莉/女包","rawTitle":"上身图"},"price":null,"currency":"CNY","moq":1,"category":"burberry-women-bags","status":"active","alibaba_url":null,"images":["https://xcimg.szwego.com/img/d5e7a5ce/20251114/a1763099018772_0064.jpg","https://xcimg.szwego.com/img/d5e7a5ce/20251114/a1763099018771_7510.jpg","https://xcimg.szwego.com/img/d5e7a5ce/20251114/a1763099018772_6320.jpg","https://xcimg.szwego.com/img/d5e7a5ce/20251114/a1763099018776_3764.jpg","https://xcimg.szwego.com/img/d5e7a5ce/20251114/a1763099018773_2663.jpg","https://xcimg.szwego.com/img/d5e7a5ce/20251114/a1763099018775_6765.jpg","https://xcimg.szwego.com/img/d5e7a5ce/20251114/a1763099019284_6465.jpg","https://xcimg.szwego.com/img/d5e7a5ce/20251114/a1763099019286_3068.jpg","https://xcimg.szwego.com/img/d5e7a5ce/20251114/a1763099019287_0530.jpg"],"created_at":"2026-06-29T10:27:58.542Z"},{"id":"item-7f7867d9884c","sku":"_dA0A05HSf5b54kkvLxn5Onf0ePLHDER7Oa0x5Vg","name_en":"Burberry Women Bags","name_cn":"上身图","specs":{"source":"wsxcme","sourceId":"_dA0A05HSf5b54kkvLxn5Onf0ePLHDER7Oa0x5Vg","sourceTagId":80411239,"sourceTagName":"巴宝莉/女包","rawTitle":"上身图"},"price":null,"currency":"CNY","moq":1,"category":"burberry-women-bags","status":"active","alibaba_url":null,"images":["https://xcimg.szwego.com/img/d5e7a5ce/20251114/a1763099007902_6582.jpg","https://xcimg.szwego.com/img/d5e7a5ce/20251114/a1763099007900_5034.jpg","https://xcimg.szwego.com/img/d5e7a5ce/20251114/a1763099007899_6852.jpg","https://xcimg.szwego.com/img/d5e7a5ce/20251114/a1763099007901_4381.jpg","https://xcimg.szwego.com/img/d5e7a5ce/20251114/a1763099007902_7243.jpg","https://xcimg.szwego.com/img/d5e7a5ce/20251114/a1763099007903_2178.jpg","https://xcimg.szwego.com/img/d5e7a5ce/20251114/a1763099008440_0467.jpg","https://xcimg.szwego.com/img/d5e7a5ce/20251114/a1763099008442_7003.jpg","https://xcimg.szwego.com/img/d5e7a5ce/20251114/a1763099008443_8656.jpg"],"created_at":"2026-06-29T10:27:58.532Z"},{"id":"item-3d896c5081e5","sku":"_diViVzUUWnx4XOtxQDz759XUSyycuhNC9i-jmCg","name_en":"❤️B家手提包斜挎包,经典棉质格纹帆布拼牛皮,袋口拉链设计,两侧可收拢展开,多种背法,上身效果超赞,尺寸:21/20/13","name_cn":"❤️B家手提包斜挎包,经典棉质格纹帆布拼牛皮,袋口拉链设计,两侧可收拢展开,多种背法,上身效果超赞,尺寸:21/20/13","specs":{"source":"wsxcme","sourceId":"_diViVzUUWnx4XOtxQDz759XUSyycuhNC9i-jmCg","sourceTagId":80411239,"sourceTagName":"巴宝莉/女包","rawTitle":"❤️B家手提包斜挎包,经典棉质格纹帆布拼牛皮,袋口拉链设计,两侧可收拢展开,多种背法,上身效果超赞,尺寸:21/20/13"},"price":null,"currency":"CNY","moq":1,"category":"burberry-women-bags","status":"active","alibaba_url":null,"images":["https://xcimg.szwego.com/img/d5e7a5ce/20251114/a1763098610536_7348.jpg","https://xcimg.szwego.com/img/d5e7a5ce/20251114/a1763098610537_4715.jpg","https://xcimg.szwego.com/img/d5e7a5ce/20251114/a1763098610534_3116.jpg","https://xcimg.szwego.com/img/d5e7a5ce/20251114/a1763098610534_4714.jpg","https://xcimg.szwego.com/img/d5e7a5ce/20251114/a1763098610536_0042.jpg","https://xcimg.szwego.com/img/d5e7a5ce/20251114/a1763098610538_5488.jpg","https://xcimg.szwego.com/img/d5e7a5ce/20251114/a1763098611160_3053.jpg","https://xcimg.szwego.com/img/d5e7a5ce/20251114/a1763098611162_6547.jpg","https://xcimg.szwego.com/img/d5e7a5ce/20251114/a1763098611162_3153.jpg"],"created_at":"2026-06-29T10:27:58.522Z"},{"id":"item-0b5e58d76825","sku":"_dohohE1IVb9_E5Y_zuGInDh0nQpoXyLQTdlk67w","name_en":"Burberry Women Bags","name_cn":"现货","specs":{"source":"wsxcme","sourceId":"_dohohE1IVb9_E5Y_zuGInDh0nQpoXyLQTdlk67w","sourceTagId":80411239,"sourceTagName":"巴宝莉/女包","rawTitle":"现货"},"price":null,"currency":"CNY","moq":1,"category":"burberry-women-bags","status":"active","alibaba_url":null,"images":["https://xcimg.szwego.com/img/d5e7a5ce/20250908/a1757318590969_7665.jpg","https://xcimg.szwego.com/img/d5e7a5ce/20250908/a1757318590971_4807.jpg","https://xcimg.szwego.com/img/d5e7a5ce/20250908/a1757318590972_7751.jpg"],"created_at":"2026-06-29T10:27:58.512Z"},{"id":"item-ac424d8f1cf9","sku":"_dQhQhxwRv8oNvHpNsXzTOpGEL-nXo1tePrBVjiQ","name_en":"Burberry Women Bags","name_cn":"现货","specs":{"source":"wsxcme","sourceId":"_dQhQhxwRv8oNvHpNsXzTOpGEL-nXo1tePrBVjiQ","sourceTagId":80411239,"sourceTagName":"巴宝莉/女包","rawTitle":"现货"},"price":null,"currency":"CNY","moq":1,"category":"burberry-women-bags","status":"active","alibaba_url":null,"images":["https://xcimg.szwego.com/img/d5e7a5ce/20250908/a1757318573223_8232.jpg","https://xcimg.szwego.com/img/d5e7a5ce/20250908/a1757318573186_3154.jpg","https://xcimg.szwego.com/img/d5e7a5ce/20250908/a1757318573177_4755.jpg","https://xcimg.szwego.com/img/d5e7a5ce/20250908/a1757318573169_0725.jpg","https://xcimg.szwego.com/img/d5e7a5ce/20250908/a1757318573173_6730.jpg","https://xcimg.szwego.com/img/d5e7a5ce/20250908/a1757318573174_0328.jpg","https://xcimg.szwego.com/img/d5e7a5ce/20250908/a1757318573671_4436.jpg","https://xcimg.szwego.com/img/d5e7a5ce/20250908/a1757318573667_5188.jpg","https://xcimg.szwego.com/img/d5e7a5ce/20250908/a1757318573668_8618.jpg"],"created_at":"2026-06-29T10:27:58.502Z"},{"id":"item-611bc68b5c96","sku":"_d8080YsnhsubRbCfb11p_LjxU8HKuazhOSS0RTQ","name_en":"Burberry Women Bags","name_cn":"上身图","specs":{"source":"wsxcme","sourceId":"_d8080YsnhsubRbCfb11p_LjxU8HKuazhOSS0RTQ","sourceTagId":80411239,"sourceTagName":"巴宝莉/女包","rawTitle":"上身图"},"price":null,"currency":"CNY","moq":1,"category":"burberry-women-bags","status":"active","alibaba_url":null,"images":["https://xcimg.szwego.com/img/d5e7a5ce/20250908/a1757318559689_1248.jpg","https://xcimg.szwego.com/img/d5e7a5ce/20250908/a1757318559690_1750.jpg","https://xcimg.szwego.com/img/d5e7a5ce/20250908/a1757318559691_3631.jpg","https://xcimg.szwego.com/img/d5e7a5ce/20250908/a1757318559692_0633.jpg","https://xcimg.szwego.com/img/d5e7a5ce/20250908/a1757318559693_2313.jpg","https://xcimg.szwego.com/img/d5e7a5ce/20250908/a1757318559694_0252.jpg","https://xcimg.szwego.com/img/d5e7a5ce/20250908/a1757318560442_5314.jpg","https://xcimg.szwego.com/img/d5e7a5ce/20250908/a1757318560437_5886.jpg","https://xcimg.szwego.com/img/d5e7a5ce/20250908/a1757318560440_7300.jpg"],"created_at":"2026-06-29T10:27:58.492Z"},{"id":"item-426c30a3ba18","sku":"_dAXAXMrooXadNzbwUoHgpLL8NdfsjkouQeVcFZQ","name_en":"Burberry Women Bags","name_cn":"巴宝莉/女包","specs":{"source":"wsxcme","sourceId":"_dAXAXMrooXadNzbwUoHgpLL8NdfsjkouQeVcFZQ","sourceTagId":80411239,"sourceTagName":"巴宝莉/女包","rawTitle":""},"price":null,"currency":"CNY","moq":1,"category":"burberry-women-bags","status":"active","alibaba_url":null,"images":["https://xcimg.szwego.com/img/d5e7a5ce/20250908/a1757318551311_4741.jpg","https://xcimg.szwego.com/img/d5e7a5ce/20250908/a1757318551312_5285.jpg","https://xcimg.szwego.com/img/d5e7a5ce/20250908/a1757318551315_4540.jpg","https://xcimg.szwego.com/img/d5e7a5ce/20250908/a1757318551313_0164.jpg","https://xcimg.szwego.com/img/d5e7a5ce/20250908/a1757318551315_0654.jpg","https://xcimg.szwego.com/img/d5e7a5ce/20250908/a1757318551318_3521.jpg","https://xcimg.szwego.com/img/d5e7a5ce/20250908/a1757318551985_4253.jpg","https://xcimg.szwego.com/img/d5e7a5ce/20250908/a1757318551982_6203.jpg","https://xcimg.szwego.com/img/d5e7a5ce/20250908/a1757318551984_6052.jpg"],"created_at":"2026-06-29T10:27:58.482Z"},{"id":"item-368f4e307ccb","sku":"_d1I1Imqar9qjUTk9ZAiDhkShkQGvWiW22y1djGg","name_en":"Burberry Women Bags","name_cn":"官网图","specs":{"source":"wsxcme","sourceId":"_d1I1Imqar9qjUTk9ZAiDhkShkQGvWiW22y1djGg","sourceTagId":80411239,"sourceTagName":"巴宝莉/女包","rawTitle":"官网图"},"price":null,"currency":"CNY","moq":1,"category":"burberry-women-bags","status":"active","alibaba_url":null,"images":["https://xcimg.szwego.com/img/d5e7a5ce/20250908/a1757318538306_6710.jpg","https://xcimg.szwego.com/img/d5e7a5ce/20250908/a1757318538311_4565.jpg","https://xcimg.szwego.com/img/d5e7a5ce/20250908/a1757318538305_8811.jpg","https://xcimg.szwego.com/img/d5e7a5ce/20250908/a1757318538310_5557.jpg","https://xcimg.szwego.com/img/d5e7a5ce/20250908/a1757318538307_6857.jpg","https://xcimg.szwego.com/img/d5e7a5ce/20250908/a1757318538308_6014.jpg","https://xcimg.szwego.com/img/d5e7a5ce/20250908/a1757318538807_1860.jpg","https://xcimg.szwego.com/img/d5e7a5ce/20250908/a1757318538806_7423.jpg","https://xcimg.szwego.com/img/d5e7a5ce/20250908/a1757318538808_5411.jpg"],"created_at":"2026-06-29T10:27:58.472Z"},{"id":"item-54fdb80aeb40","sku":"_dgHgHx_H6XPeB3VC1bQSKT5ohdc2ziMIjddMrMg","name_en":"❤️B家精巧的「Title - 泰尔勒手袋」,精选典藏 Vintage 复古格纹裁片打造,装饰光滑皮革边饰与三粒铆钉。可用顶部提柄手拎,或以可拆式背带缔造肩背造型。32 x 15 x 25cm","name_cn":"❤️B家精巧的「Title - 泰尔勒手袋」,精选典藏 Vintage 复古格纹裁片打造,装饰光滑皮革边饰与三粒铆钉。可用顶部提柄手拎,或以可拆式背带缔造肩背造型。32 x 15 x 25cm","specs":{"source":"wsxcme","sourceId":"_dgHgHx_H6XPeB3VC1bQSKT5ohdc2ziMIjddMrMg","sourceTagId":80411239,"sourceTagName":"巴宝莉/女包","rawTitle":"❤️B家精巧的「Title - 泰尔勒手袋」,精选典藏 Vintage 复古格纹裁片打造,装饰光滑皮革边饰与三粒铆钉。可用顶部提柄手拎,或以可拆式背带缔造肩背造型。32 x 15 x 25cm"},"price":null,"currency":"CNY","moq":1,"category":"burberry-women-bags","status":"active","alibaba_url":null,"images":["https://xcimg.szwego.com/img/d5e7a5ce/20250908/a1757318502806_4704.jpg","https://xcimg.szwego.com/img/d5e7a5ce/20250908/a1757318502802_8238.jpg","https://xcimg.szwego.com/img/d5e7a5ce/20250908/a1757318502805_4021.jpg","https://xcimg.szwego.com/img/d5e7a5ce/20250908/a1757318502810_7616.jpg","https://xcimg.szwego.com/img/d5e7a5ce/20250908/a1757318502803_0304.jpg","https://xcimg.szwego.com/img/d5e7a5ce/20250908/a1757318502809_4541.jpg","https://xcimg.szwego.com/img/d5e7a5ce/20250908/a1757318503377_3120.jpg","https://xcimg.szwego.com/img/d5e7a5ce/20250908/a1757318503453_8882.jpg","https://xcimg.szwego.com/img/d5e7a5ce/20250908/a1757318503381_6025.jpg"],"created_at":"2026-06-29T10:27:58.462Z"},{"id":"item-caf118ca83bc","sku":"_dkKkKfs-tmAwMwPPJ20c3Xb7eqKILQhwiJ3tbAw","name_en":"Burberry Women Bags","name_cn":"上身图","specs":{"source":"wsxcme","sourceId":"_dkKkKfs-tmAwMwPPJ20c3Xb7eqKILQhwiJ3tbAw","sourceTagId":80411239,"sourceTagName":"巴宝莉/女包","rawTitle":"上身图"},"price":null,"currency":"CNY","moq":1,"category":"burberry-women-bags","status":"active","alibaba_url":null,"images":["https://xcimg.szwego.com/img/d5e7a5ce/20250908/a1757318472392_0167.jpg","https://xcimg.szwego.com/img/d5e7a5ce/20250908/a1757318472396_0506.jpg","https://xcimg.szwego.com/img/d5e7a5ce/20250908/a1757318472393_2017.jpg","https://xcimg.szwego.com/img/d5e7a5ce/20250908/a1757318472394_1162.jpg","https://xcimg.szwego.com/img/d5e7a5ce/20250908/a1757318472400_2276.jpg","https://xcimg.szwego.com/img/d5e7a5ce/20250908/a1757318472410_8722.jpg","https://xcimg.szwego.com/img/d5e7a5ce/20250908/a1757318473006_7123.jpg","https://xcimg.szwego.com/img/d5e7a5ce/20250908/a1757318473008_6468.jpg","https://xcimg.szwego.com/img/d5e7a5ce/20250908/a1757318473009_4087.jpg"],"created_at":"2026-06-29T10:27:58.452Z"},{"id":"item-d34c5f414005","sku":"_ddEdEUL5vnM7J_-34bNiE4xDhLsqcaBpiC_sdiQ","name_en":"Burberry Women Bags","name_cn":"官网图","specs":{"source":"wsxcme","sourceId":"_ddEdEUL5vnM7J_-34bNiE4xDhLsqcaBpiC_sdiQ","sourceTagId":80411239,"sourceTagName":"巴宝莉/女包","rawTitle":"官网图"},"price":null,"currency":"CNY","moq":1,"category":"burberry-women-bags","status":"active","alibaba_url":null,"images":["https://xcimg.szwego.com/img/d5e7a5ce/20250908/a1757318458167_7015.jpg","https://xcimg.szwego.com/img/d5e7a5ce/20250908/a1757318458165_4787.jpg","https://xcimg.szwego.com/img/d5e7a5ce/20250908/a1757318458170_0355.jpg","https://xcimg.szwego.com/img/d5e7a5ce/20250908/a1757318458169_2516.jpg","https://xcimg.szwego.com/img/d5e7a5ce/20250908/a1757318458170_7716.jpg"],"created_at":"2026-06-29T10:27:58.442Z"},{"id":"item-fa342b793448","sku":"_ddwdw4z88qtoQ3x10U4AxERBG0WKCNGAlcVkgCw","name_en":"❤️B家精巧的「Title - 泰尔勒手袋」,精选典藏 Vintage 复古格纹裁片打造,装饰光滑皮革边饰与三粒铆钉。可用顶部提柄手拎,或以可拆式背带缔造肩背造型。32 x 15 x 25cm","name_cn":"❤️B家精巧的「Title - 泰尔勒手袋」,精选典藏 Vintage 复古格纹裁片打造,装饰光滑皮革边饰与三粒铆钉。可用顶部提柄手拎,或以可拆式背带缔造肩背造型。32 x 15 x 25cm","specs":{"source":"wsxcme","sourceId":"_ddwdw4z88qtoQ3x10U4AxERBG0WKCNGAlcVkgCw","sourceTagId":80411239,"sourceTagName":"巴宝莉/女包","rawTitle":"❤️B家精巧的「Title - 泰尔勒手袋」,精选典藏 Vintage 复古格纹裁片打造,装饰光滑皮革边饰与三粒铆钉。可用顶部提柄手拎,或以可拆式背带缔造肩背造型。32 x 15 x 25cm"},"price":null,"currency":"CNY","moq":1,"category":"burberry-women-bags","status":"active","alibaba_url":null,"images":["https://xcimg.szwego.com/img/d5e7a5ce/20250908/a1757318380137_2445.jpg","https://xcimg.szwego.com/img/d5e7a5ce/20250908/a1757318380138_5710.jpg","https://xcimg.szwego.com/img/d5e7a5ce/20250908/a1757318380139_3283.jpg","https://xcimg.szwego.com/img/d5e7a5ce/20250908/a1757318380141_2520.jpg","https://xcimg.szwego.com/img/d5e7a5ce/20250908/a1757318380143_0274.jpg","https://xcimg.szwego.com/img/d5e7a5ce/20250908/a1757318380144_2214.jpg","https://xcimg.szwego.com/img/d5e7a5ce/20250908/a1757318380866_5740.jpg","https://xcimg.szwego.com/img/d5e7a5ce/20250908/a1757318380941_6630.jpg","https://xcimg.szwego.com/img/d5e7a5ce/20250908/a1757318380867_0743.jpg"],"created_at":"2026-06-29T10:27:58.432Z"},{"id":"item-58e350867cdf","sku":"_dIUIUOdoRDxsdrOt9z8ECpcXcJM3tKer3mckazA","name_en":"Burberry Women Bags","name_cn":"现货","specs":{"source":"wsxcme","sourceId":"_dIUIUOdoRDxsdrOt9z8ECpcXcJM3tKer3mckazA","sourceTagId":80411239,"sourceTagName":"巴宝莉/女包","rawTitle":"现货"},"price":null,"currency":"CNY","moq":1,"category":"burberry-women-bags","status":"active","alibaba_url":null,"images":["https://xcimg.szwego.com/img/d5e7a5ce/20250908/a1757318236921_4133.jpg","https://xcimg.szwego.com/img/d5e7a5ce/20250908/a1757318236872_5017.jpg","https://xcimg.szwego.com/img/d5e7a5ce/20250908/a1757318236863_0528.jpg","https://xcimg.szwego.com/img/d5e7a5ce/20250908/a1757318236867_7155.jpg","https://xcimg.szwego.com/img/d5e7a5ce/20250908/a1757318236858_6072.jpg","https://xcimg.szwego.com/img/d5e7a5ce/20250908/a1757318236924_0814.jpg","https://xcimg.szwego.com/img/d5e7a5ce/20250908/a1757318237618_7744.jpg","https://xcimg.szwego.com/img/d5e7a5ce/20250908/a1757318237616_2271.jpg","https://xcimg.szwego.com/img/d5e7a5ce/20250908/a1757318237619_4313.jpg"],"created_at":"2026-06-29T10:27:58.422Z"},{"id":"item-db1a943729bb","sku":"_daEaEle6r-lrfUbrfgrMuuS8VxUFjcrgT74VMYg","name_en":"Burberry Women Bags","name_cn":"官网图","specs":{"source":"wsxcme","sourceId":"_daEaEle6r-lrfUbrfgrMuuS8VxUFjcrgT74VMYg","sourceTagId":80411239,"sourceTagName":"巴宝莉/女包","rawTitle":"官网图"},"price":null,"currency":"CNY","moq":1,"category":"burberry-women-bags","status":"active","alibaba_url":null,"images":["https://xcimg.szwego.com/img/d5e7a5ce/20250908/a1757318223494_3806.jpg","https://xcimg.szwego.com/img/d5e7a5ce/20250908/a1757318223492_3068.jpg","https://xcimg.szwego.com/img/d5e7a5ce/20250908/a1757318223489_2822.jpg"],"created_at":"2026-06-29T10:27:58.412Z"},{"id":"item-6c23b99afbfc","sku":"_diviv6EKqeFHfDz8Ovab0vIkIZ4xKf5G5GKREPg","name_en":"❤️B家版型精致的「Title - 泰勒尔手袋」,选用典藏 Vintage 复古格纹裁片打造,装饰光皮滑革边饰与精美三的粒铆钉。可用顶提部柄手拎,或以拆可式背带缔造肩造背型。尺寸:26 x 13.5 x 20cm","name_cn":"❤️B家版型精致的「Title - 泰勒尔手袋」,选用典藏 Vintage 复古格纹裁片打造,装饰光皮滑革边饰与精美三的粒铆钉。可用顶提部柄手拎,或以拆可式背带缔造肩造背型。尺寸:26 x 13.5 x 20cm","specs":{"source":"wsxcme","sourceId":"_diviv6EKqeFHfDz8Ovab0vIkIZ4xKf5G5GKREPg","sourceTagId":80411239,"sourceTagName":"巴宝莉/女包","dimensions":{"lengthCm":26,"heightCm":13.5,"widthCm":20},"rawTitle":"❤️B家版型精致的「Title - 泰勒尔手袋」,选用典藏 Vintage 复古格纹裁片打造,装饰光皮滑革边饰与精美三的粒铆钉。可用顶提部柄手拎,或以拆可式背带缔造肩造背型。尺寸:26 x 13.5 x 20cm"},"price":null,"currency":"CNY","moq":1,"category":"burberry-women-bags","status":"active","alibaba_url":null,"images":["https://xcimg.szwego.com/img/d5e7a5ce/20250908/a1757318165743_2328.jpg","https://xcimg.szwego.com/img/d5e7a5ce/20250908/a1757318165748_3612.jpg","https://xcimg.szwego.com/img/d5e7a5ce/20250908/a1757318165746_6623.jpg","https://xcimg.szwego.com/img/d5e7a5ce/20250908/a1757318165749_2636.jpg","https://xcimg.szwego.com/img/d5e7a5ce/20250908/a1757318165747_7662.jpg","https://xcimg.szwego.com/img/d5e7a5ce/20250908/a1757318165751_8863.jpg","https://xcimg.szwego.com/img/d5e7a5ce/20250908/a1757318166376_7222.jpg","https://xcimg.szwego.com/img/d5e7a5ce/20250908/a1757318166378_5336.jpg","https://xcimg.szwego.com/img/d5e7a5ce/20250908/a1757318166374_5760.jpg"],"created_at":"2026-06-29T10:27:58.402Z"}],"page":50,"pageSize":24,"total":10075,"totalPages":420}
