{"items":[{"id":"item-39ef37fa1099","sku":"_dNZNZpWBazU23JkVtMBKSfUsdR9far7TKc7AIHQ","name_en":"🎉新款PRADA双肩带头层原版双用包🎉1BA362双肩带🎉这款双肩带采用进口皮纹牛皮,配有两条可交换可调节长肩带设计。织物织带和牛皮搭配,太完美😘,不同场合不同衣着的全能混合搭配😘,容量空间大,格层多多,手感超柔软🎉赶紧入手吧🎉🎉🎉🎉👏👏👏Prada普拉达尺寸:18x9x19.5cm","name_cn":"🎉新款PRADA双肩带头层原版双用包🎉1BA362双肩带🎉这款双肩带采用进口皮纹牛皮,配有两条可交换可调节长肩带设计。织物织带和牛皮搭配,太完美😘,不同场合不同衣着的全能混合搭配😘,容量空间大,格层多多,手感超柔软🎉赶紧入手吧🎉🎉🎉🎉👏👏👏Prada普拉达尺寸:18x9x19.5cm","specs":{"source":"wsxcme","sourceId":"_dNZNZpWBazU23JkVtMBKSfUsdR9far7TKc7AIHQ","sourceTagId":47002669,"sourceTagName":"普拉达/女包","dimensions":{"lengthCm":18,"heightCm":9,"widthCm":19.5},"rawTitle":"🎉新款PRADA双肩带头层原版双用包🎉1BA362双肩带🎉这款双肩带采用进口皮纹牛皮,配有两条可交换可调节长肩带设计。织物织带和牛皮搭配,太完美😘,不同场合不同衣着的全能混合搭配😘,容量空间大,格层多多,手感超柔软🎉赶紧入手吧🎉🎉🎉🎉👏👏👏Prada普拉达尺寸:18x9x19.5cm"},"price":null,"currency":"CNY","moq":1,"category":"prada-women-bags","status":"active","alibaba_url":null,"images":["https://xcimg.szwego.com/20220514/i1652517255_2999_0.jpg","https://xcimg.szwego.com/20220514/i1652517255_23_1.jpg","https://xcimg.szwego.com/20220514/i1652517255_9506_2.jpg","https://xcimg.szwego.com/20220514/i1652517255_3055_3.jpg","https://xcimg.szwego.com/20220514/i1652517255_8785_4.jpg","https://xcimg.szwego.com/20220514/i1652517255_6811_5.jpg","https://xcimg.szwego.com/20220514/i1652517255_5729_6.jpg","https://xcimg.szwego.com/20220514/i1652517255_1916_7.jpg","https://xcimg.szwego.com/20220514/i1652517255_5922_8.jpg"],"created_at":"2025-02-08T12:44:26.552Z"},{"id":"item-cd997d055d28","sku":"_dpwpwkOGojcocBxyT920vPH0c5QfAE4zMOrdLEw","name_en":"🎉新款PRADA双肩带头层原版双用包🎉1BA362双肩带🎉这款双肩带采用进口皮纹牛皮,配有两条可交换可调节长肩带设计。织物织带和牛皮搭配,太完美😘,不同场合不同衣着的全能混合搭配😘,容量空间大,格层多多,手感超柔软🎉赶紧入手吧🎉🎉🎉🎉👏👏👏Prada普拉达尺寸:18x9x19.5cm","name_cn":"🎉新款PRADA双肩带头层原版双用包🎉1BA362双肩带🎉这款双肩带采用进口皮纹牛皮,配有两条可交换可调节长肩带设计。织物织带和牛皮搭配,太完美😘,不同场合不同衣着的全能混合搭配😘,容量空间大,格层多多,手感超柔软🎉赶紧入手吧🎉🎉🎉🎉👏👏👏Prada普拉达尺寸:18x9x19.5cm","specs":{"source":"wsxcme","sourceId":"_dpwpwkOGojcocBxyT920vPH0c5QfAE4zMOrdLEw","sourceTagId":47002669,"sourceTagName":"普拉达/女包","dimensions":{"lengthCm":18,"heightCm":9,"widthCm":19.5},"rawTitle":"🎉新款PRADA双肩带头层原版双用包🎉1BA362双肩带🎉这款双肩带采用进口皮纹牛皮,配有两条可交换可调节长肩带设计。织物织带和牛皮搭配,太完美😘,不同场合不同衣着的全能混合搭配😘,容量空间大,格层多多,手感超柔软🎉赶紧入手吧🎉🎉🎉🎉👏👏👏Prada普拉达尺寸:18x9x19.5cm"},"price":null,"currency":"CNY","moq":1,"category":"prada-women-bags","status":"active","alibaba_url":null,"images":["https://xcimg.szwego.com/20220514/i1652517233_3822_0.jpg","https://xcimg.szwego.com/20220514/i1652517233_8679_1.jpg","https://xcimg.szwego.com/20220514/i1652517233_4211_2.jpg","https://xcimg.szwego.com/20220514/i1652517233_4662_3.jpg","https://xcimg.szwego.com/20220514/i1652517233_9791_4.jpg","https://xcimg.szwego.com/20220514/i1652517233_5421_5.jpg","https://xcimg.szwego.com/20220514/i1652517233_9405_6.jpg","https://xcimg.szwego.com/20220514/i1652517233_6482_7.jpg","https://xcimg.szwego.com/20220514/i1652517233_2139_8.jpg"],"created_at":"2025-02-08T12:44:26.551Z"},{"id":"item-faf900c202c6","sku":"_dq_q_o-ZqiSFaPTVQvyjf8-dThMVZQxmajDMzpA","name_en":"🔥四季常青+专柜高品质🔥五色火爆上市🎉 普拉达/PRADA双拉链单肩斜挎包💪配置双肩带,2020四季新款时尚女性单肩包 ,条纹肩带原版真皮手袋,双拉隔层[玫瑰]时尚+实用[强]Model:《2100》Size:25/15/5cm","name_cn":"🔥四季常青+专柜高品质🔥五色火爆上市🎉 普拉达/PRADA双拉链单肩斜挎包💪配置双肩带,2020四季新款时尚女性单肩包 ,条纹肩带原版真皮手袋,双拉隔层[玫瑰]时尚+实用[强]Model:《2100》Size:25/15/5cm","specs":{"source":"wsxcme","sourceId":"_dq_q_o-ZqiSFaPTVQvyjf8-dThMVZQxmajDMzpA","sourceTagId":47002669,"sourceTagName":"普拉达/女包","rawTitle":"🔥四季常青+专柜高品质🔥五色火爆上市🎉 普拉达/PRADA双拉链单肩斜挎包💪配置双肩带,2020四季新款时尚女性单肩包 ,条纹肩带原版真皮手袋,双拉隔层[玫瑰]时尚+实用[强]Model:《2100》Size:25/15/5cm"},"price":null,"currency":"CNY","moq":1,"category":"prada-women-bags","status":"active","alibaba_url":null,"images":["https://xcimg.szwego.com/20220725/i1658692271_362_0.jpg","https://xcimg.szwego.com/20220725/i1658692271_4862_1.jpg","https://xcimg.szwego.com/20220725/i1658692271_9_2.jpg","https://xcimg.szwego.com/20220725/i1658692271_2689_3.jpg","https://xcimg.szwego.com/20220725/i1658692271_1803_4.jpg","https://xcimg.szwego.com/20220725/i1658692271_9148_5.jpg","https://xcimg.szwego.com/20220725/i1658692271_223_6.jpg","https://xcimg.szwego.com/20220725/i1658692271_457_7.jpg","https://xcimg.szwego.com/20220725/i1658692271_9290_8.jpg"],"created_at":"2025-02-08T12:44:26.550Z"},{"id":"item-473350fdcbd5","sku":"_dgWgWQkSlb8DoBqyQr1hvulnORJntqEwCy9pjjw","name_en":"🔥四季常青+专柜高品质🔥五色火爆上市🎉 普拉达/PRADA双拉链单肩斜挎包💪配置双肩带,2020四季新款时尚女性单肩包 ,条纹肩带原版真皮手袋,双拉隔层[玫瑰]时尚+实用[强]Model:《2100》Size:25/15/5cm","name_cn":"🔥四季常青+专柜高品质🔥五色火爆上市🎉 普拉达/PRADA双拉链单肩斜挎包💪配置双肩带,2020四季新款时尚女性单肩包 ,条纹肩带原版真皮手袋,双拉隔层[玫瑰]时尚+实用[强]Model:《2100》Size:25/15/5cm","specs":{"source":"wsxcme","sourceId":"_dgWgWQkSlb8DoBqyQr1hvulnORJntqEwCy9pjjw","sourceTagId":47002669,"sourceTagName":"普拉达/女包","rawTitle":"🔥四季常青+专柜高品质🔥五色火爆上市🎉 普拉达/PRADA双拉链单肩斜挎包💪配置双肩带,2020四季新款时尚女性单肩包 ,条纹肩带原版真皮手袋,双拉隔层[玫瑰]时尚+实用[强]Model:《2100》Size:25/15/5cm"},"price":null,"currency":"CNY","moq":1,"category":"prada-women-bags","status":"active","alibaba_url":null,"images":["https://xcimg.szwego.com/20220725/i1658692264_4905_0.jpg","https://xcimg.szwego.com/20220725/i1658692264_5784_1.jpg","https://xcimg.szwego.com/20220725/i1658692264_4614_2.jpg","https://xcimg.szwego.com/20220725/i1658692264_2395_3.jpg","https://xcimg.szwego.com/20220725/i1658692264_2933_4.jpg","https://xcimg.szwego.com/20220725/i1658692264_7269_5.jpg","https://xcimg.szwego.com/20220725/i1658692264_5350_6.jpg","https://xcimg.szwego.com/20220725/i1658692264_258_7.jpg"],"created_at":"2025-02-08T12:44:26.549Z"},{"id":"item-a5c2bbf46bd5","sku":"_dqwqwtcafm15D3FX6awu6VYvmFIzJbHB6PEs2Ww","name_en":"🔥四季常青+专柜高品质🔥五色火爆上市🎉 普拉达/PRADA双拉链单肩斜挎包💪配置双肩带,2020四季新款时尚女性单肩包 ,条纹肩带原版真皮手袋,双拉隔层[玫瑰]时尚+实用[强]Model:《2100》Size:25/15/5cm","name_cn":"🔥四季常青+专柜高品质🔥五色火爆上市🎉 普拉达/PRADA双拉链单肩斜挎包💪配置双肩带,2020四季新款时尚女性单肩包 ,条纹肩带原版真皮手袋,双拉隔层[玫瑰]时尚+实用[强]Model:《2100》Size:25/15/5cm","specs":{"source":"wsxcme","sourceId":"_dqwqwtcafm15D3FX6awu6VYvmFIzJbHB6PEs2Ww","sourceTagId":47002669,"sourceTagName":"普拉达/女包","rawTitle":"🔥四季常青+专柜高品质🔥五色火爆上市🎉 普拉达/PRADA双拉链单肩斜挎包💪配置双肩带,2020四季新款时尚女性单肩包 ,条纹肩带原版真皮手袋,双拉隔层[玫瑰]时尚+实用[强]Model:《2100》Size:25/15/5cm"},"price":null,"currency":"CNY","moq":1,"category":"prada-women-bags","status":"active","alibaba_url":null,"images":["https://xcimg.szwego.com/20220725/i1658692256_2895_0.jpg","https://xcimg.szwego.com/20220725/i1658692256_2298_1.jpg","https://xcimg.szwego.com/20220725/i1658692256_9962_2.jpg","https://xcimg.szwego.com/20220725/i1658692256_6751_3.jpg","https://xcimg.szwego.com/20220725/i1658692256_19_4.jpg","https://xcimg.szwego.com/20220725/i1658692256_7327_5.jpg","https://xcimg.szwego.com/20220725/i1658692256_6495_6.jpg","https://xcimg.szwego.com/20220725/i1658692256_7994_7.jpg","https://xcimg.szwego.com/20220725/i1658692256_7058_8.jpg"],"created_at":"2025-02-08T12:44:26.548Z"},{"id":"item-f7d9556ad2a4","sku":"_dqxqxp2TpqLliUplq7H0xKx8UKcwrQE1ITfhIzg","name_en":"🔥四季常青+专柜高品质🔥五色火爆上市🎉 普拉达/PRADA双拉链单肩斜挎包💪配置双肩带,2020四季新款时尚女性单肩包 ,条纹肩带原版真皮手袋,双拉隔层[玫瑰]时尚+实用[强]Model:《2100》Size:25/15/5cm","name_cn":"🔥四季常青+专柜高品质🔥五色火爆上市🎉 普拉达/PRADA双拉链单肩斜挎包💪配置双肩带,2020四季新款时尚女性单肩包 ,条纹肩带原版真皮手袋,双拉隔层[玫瑰]时尚+实用[强]Model:《2100》Size:25/15/5cm","specs":{"source":"wsxcme","sourceId":"_dqxqxp2TpqLliUplq7H0xKx8UKcwrQE1ITfhIzg","sourceTagId":47002669,"sourceTagName":"普拉达/女包","rawTitle":"🔥四季常青+专柜高品质🔥五色火爆上市🎉 普拉达/PRADA双拉链单肩斜挎包💪配置双肩带,2020四季新款时尚女性单肩包 ,条纹肩带原版真皮手袋,双拉隔层[玫瑰]时尚+实用[强]Model:《2100》Size:25/15/5cm"},"price":null,"currency":"CNY","moq":1,"category":"prada-women-bags","status":"active","alibaba_url":null,"images":["https://xcimg.szwego.com/20220725/i1658692233_7251_0.jpg","https://xcimg.szwego.com/20220725/i1658692233_6275_1.jpg","https://xcimg.szwego.com/20220725/i1658692233_8701_2.jpg","https://xcimg.szwego.com/20220725/i1658692233_2204_3.jpg","https://xcimg.szwego.com/20220725/i1658692233_7904_4.jpg","https://xcimg.szwego.com/20220725/i1658692233_6638_5.jpg","https://xcimg.szwego.com/20220725/i1658692233_5113_6.jpg","https://xcimg.szwego.com/20220725/i1658692233_3690_7.jpg","https://xcimg.szwego.com/20220725/i1658692233_1595_8.jpg"],"created_at":"2025-02-08T12:44:26.547Z"},{"id":"item-634763799d0d","sku":"_dJ_J_yOM2_fZjfneWKi9EQrdtrteBehVVPpn18A","name_en":"🔥四季常青+专柜高品质🔥五色火爆上市🎉 普拉达/PRADA双拉链单肩斜挎包💪配置双肩带,2020四季新款时尚女性单肩包 ,条纹肩带原版真皮手袋,双拉隔层[玫瑰]时尚+实用[强]Model:《2100》Size:25/15/5cm","name_cn":"🔥四季常青+专柜高品质🔥五色火爆上市🎉 普拉达/PRADA双拉链单肩斜挎包💪配置双肩带,2020四季新款时尚女性单肩包 ,条纹肩带原版真皮手袋,双拉隔层[玫瑰]时尚+实用[强]Model:《2100》Size:25/15/5cm","specs":{"source":"wsxcme","sourceId":"_dJ_J_yOM2_fZjfneWKi9EQrdtrteBehVVPpn18A","sourceTagId":47002669,"sourceTagName":"普拉达/女包","rawTitle":"🔥四季常青+专柜高品质🔥五色火爆上市🎉 普拉达/PRADA双拉链单肩斜挎包💪配置双肩带,2020四季新款时尚女性单肩包 ,条纹肩带原版真皮手袋,双拉隔层[玫瑰]时尚+实用[强]Model:《2100》Size:25/15/5cm"},"price":null,"currency":"CNY","moq":1,"category":"prada-women-bags","status":"active","alibaba_url":null,"images":["https://xcimg.szwego.com/20220725/i1658692240_1105_0.jpg","https://xcimg.szwego.com/20220725/i1658692240_8357_1.jpg","https://xcimg.szwego.com/20220725/i1658692240_4751_2.jpg","https://xcimg.szwego.com/20220725/i1658692240_7144_3.jpg","https://xcimg.szwego.com/20220725/i1658692240_2792_4.jpg","https://xcimg.szwego.com/20220725/i1658692240_3072_5.jpg","https://xcimg.szwego.com/20220725/i1658692240_7558_6.jpg","https://xcimg.szwego.com/20220725/i1658692240_5861_7.jpg","https://xcimg.szwego.com/20220725/i1658692240_1316_8.jpg"],"created_at":"2025-02-08T12:44:26.546Z"},{"id":"item-6c55f9f62ca0","sku":"_df8f8STszC1_zsaBBLemsrU7pJezDQIVaseKdRw","name_en":"🔥四季常青+专柜高品质🔥五色火爆上市🎉 普拉达/PRADA双拉链单肩斜挎包💪配置双肩带,2020四季新款时尚女性单肩包 ,条纹肩带原版真皮手袋,双拉隔层[玫瑰]时尚+实用[强]Model:《2100》Size:25/15/5cm","name_cn":"🔥四季常青+专柜高品质🔥五色火爆上市🎉 普拉达/PRADA双拉链单肩斜挎包💪配置双肩带,2020四季新款时尚女性单肩包 ,条纹肩带原版真皮手袋,双拉隔层[玫瑰]时尚+实用[强]Model:《2100》Size:25/15/5cm","specs":{"source":"wsxcme","sourceId":"_df8f8STszC1_zsaBBLemsrU7pJezDQIVaseKdRw","sourceTagId":47002669,"sourceTagName":"普拉达/女包","rawTitle":"🔥四季常青+专柜高品质🔥五色火爆上市🎉 普拉达/PRADA双拉链单肩斜挎包💪配置双肩带,2020四季新款时尚女性单肩包 ,条纹肩带原版真皮手袋,双拉隔层[玫瑰]时尚+实用[强]Model:《2100》Size:25/15/5cm"},"price":null,"currency":"CNY","moq":1,"category":"prada-women-bags","status":"active","alibaba_url":null,"images":["https://xcimg.szwego.com/20220725/i1658692248_9505_0.jpg","https://xcimg.szwego.com/20220725/i1658692248_8059_1.jpg","https://xcimg.szwego.com/20220725/i1658692248_9572_2.jpg","https://xcimg.szwego.com/20220725/i1658692248_5921_3.jpg","https://xcimg.szwego.com/20220725/i1658692248_1252_4.jpg","https://xcimg.szwego.com/20220725/i1658692248_8921_5.jpg","https://xcimg.szwego.com/20220725/i1658692248_7272_6.jpg","https://xcimg.szwego.com/20220725/i1658692248_361_7.jpg","https://xcimg.szwego.com/20220725/i1658692248_4394_8.jpg"],"created_at":"2025-02-08T12:44:26.545Z"},{"id":"item-9d06827fe128","sku":"_dMeMeYICRYFzOqTXOxuPToybuv46CLCHqY0pLoQ","name_en":"🔥四季常青+专柜高品质🔥五色火爆上市🎉 普拉达/PRADA双拉链单肩斜挎包💪配置双肩带,2020四季新款时尚女性单肩包 ,条纹肩带原版真皮手袋,双拉隔层[玫瑰]时尚+实用[强]Model:《2100》Size:25/15/5cm","name_cn":"🔥四季常青+专柜高品质🔥五色火爆上市🎉 普拉达/PRADA双拉链单肩斜挎包💪配置双肩带,2020四季新款时尚女性单肩包 ,条纹肩带原版真皮手袋,双拉隔层[玫瑰]时尚+实用[强]Model:《2100》Size:25/15/5cm","specs":{"source":"wsxcme","sourceId":"_dMeMeYICRYFzOqTXOxuPToybuv46CLCHqY0pLoQ","sourceTagId":47002669,"sourceTagName":"普拉达/女包","rawTitle":"🔥四季常青+专柜高品质🔥五色火爆上市🎉 普拉达/PRADA双拉链单肩斜挎包💪配置双肩带,2020四季新款时尚女性单肩包 ,条纹肩带原版真皮手袋,双拉隔层[玫瑰]时尚+实用[强]Model:《2100》Size:25/15/5cm"},"price":null,"currency":"CNY","moq":1,"category":"prada-women-bags","status":"active","alibaba_url":null,"images":["https://xcimg.szwego.com/20220725/i1658692224_4824_0.jpg","https://xcimg.szwego.com/20220725/i1658692224_7680_1.jpg","https://xcimg.szwego.com/20220725/i1658692224_2182_2.jpg","https://xcimg.szwego.com/20220725/i1658692224_3843_3.jpg","https://xcimg.szwego.com/20220725/i1658692224_2556_4.jpg","https://xcimg.szwego.com/20220725/i1658692224_3614_5.jpg","https://xcimg.szwego.com/20220725/i1658692224_8109_6.jpg","https://xcimg.szwego.com/20220725/i1658692224_4108_7.jpg","https://xcimg.szwego.com/20220725/i1658692224_7365_8.jpg"],"created_at":"2025-02-08T12:44:26.544Z"},{"id":"item-df5d4cad93fd","sku":"_d-J-J8FxZZpGuyoPqrh4DbztqodvsXiDsmPFdIw","name_en":"『PRADA 普拉达』","name_cn":"『PRADA 普拉达』\n\nPrad新品 出 鳄鱼纹牛皮 这只Prad 不止一点点酷哦,分分钟被它折服!一眼看中的酷盖包纯黑皮点缀银色小标朋克风拿捏住了,辣妹们请和它住 型号:1BD750","specs":{"source":"wsxcme","sourceId":"_d-J-J8FxZZpGuyoPqrh4DbztqodvsXiDsmPFdIw","sourceTagId":47002669,"sourceTagName":"普拉达/女包","modelNumber":"1BD750","rawTitle":"『PRADA 普拉达』\n\nPrad新品 出 鳄鱼纹牛皮 这只Prad 不止一点点酷哦,分分钟被它折服!一眼看中的酷盖包纯黑皮点缀银色小标朋克风拿捏住了,辣妹们请和它住 型号:1BD750"},"price":null,"currency":"CNY","moq":1,"category":"prada-women-bags","status":"active","alibaba_url":null,"images":["https://xcimg.szwego.com/20220701/i1656664878_8853_0.jpg","https://xcimg.szwego.com/20220701/i1656664878_9215_8.jpg","https://xcimg.szwego.com/20220701/i1656664878_7119_1.jpg","https://xcimg.szwego.com/20220701/i1656664878_4817_2.jpg","https://xcimg.szwego.com/20220701/i1656664878_6402_3.jpg","https://xcimg.szwego.com/20220701/i1656664878_2108_5.jpg","https://xcimg.szwego.com/20220701/i1656664878_6137_6.jpg","https://xcimg.szwego.com/20220701/i1656664878_6875_7.jpg","https://xcimg.szwego.com/20220701/i1656664937_3282_0.jpg"],"created_at":"2025-02-08T12:44:26.543Z"},{"id":"item-d9cabfc00c70","sku":"_dkXkXGwxddCgsE1mrH816GAhsZVPsvREMIlYX0g","name_en":"『PRADA 普拉达』","name_cn":"『PRADA 普拉达』\n\n新款 普拉达翻盖单肩斜挎包,型号2103,配置两条肩带,2020夏季新款时尚女包单肩包 条纹肩带真皮手袋,3⃣️隔层 [强]尺寸27-17-10cm","specs":{"source":"wsxcme","sourceId":"_dkXkXGwxddCgsE1mrH816GAhsZVPsvREMIlYX0g","sourceTagId":47002669,"sourceTagName":"普拉达/女包","modelNumber":"2103","rawTitle":"『PRADA 普拉达』\n\n新款 普拉达翻盖单肩斜挎包,型号2103,配置两条肩带,2020夏季新款时尚女包单肩包 条纹肩带真皮手袋,3⃣️隔层 [强]尺寸27-17-10cm"},"price":null,"currency":"CNY","moq":1,"category":"prada-women-bags","status":"active","alibaba_url":null,"images":["https://xcimg.szwego.com/20220415/i1649959092_7814_0.jpg","https://xcimg.szwego.com/20220415/i1649959092_499_1.jpg","https://xcimg.szwego.com/20220415/i1649959092_8931_2.jpg","https://xcimg.szwego.com/20220415/i1649959092_3702_3.jpg","https://xcimg.szwego.com/20220415/i1649959092_3843_4.jpg","https://xcimg.szwego.com/20220415/i1649959092_2780_5.jpg","https://xcimg.szwego.com/20220415/i1649959092_7548_6.jpg"],"created_at":"2025-02-08T12:44:26.542Z"},{"id":"item-20eb9c662661","sku":"_dbJbJ3_xMrfuifrDp3qu4Bgue3d7xwgSq1-fPuw","name_en":"普拉达prada👏最新春夏走秀款杀手包。进口牛皮配上高端24k金五金😍金黄金黄靓爆眼 看细节 看五金 😱😱😱2274长33cm高24cm宽12cm,整个市场最物超所值的一个经典款女包,选择我不会错","name_cn":"普拉达prada👏最新春夏走秀款杀手包。进口牛皮配上高端24k金五金😍金黄金黄靓爆眼 看细节 看五金 😱😱😱2274长33cm高24cm宽12cm,整个市场最物超所值的一个经典款女包,选择我不会错","specs":{"source":"wsxcme","sourceId":"_dbJbJ3_xMrfuifrDp3qu4Bgue3d7xwgSq1-fPuw","sourceTagId":47002669,"sourceTagName":"普拉达/女包","rawTitle":"普拉达prada👏最新春夏走秀款杀手包。进口牛皮配上高端24k金五金😍金黄金黄靓爆眼 看细节 看五金 😱😱😱2274长33cm高24cm宽12cm,整个市场最物超所值的一个经典款女包,选择我不会错"},"price":null,"currency":"CNY","moq":1,"category":"prada-women-bags","status":"active","alibaba_url":null,"images":["https://xcimg.szwego.com/20211206/i1638803693_3386_0.jpg","https://xcimg.szwego.com/20211206/i1638803693_8993_1.jpg","https://xcimg.szwego.com/20211206/i1638803693_4119_2.jpg","https://xcimg.szwego.com/20211206/i1638803693_642_3.jpg","https://xcimg.szwego.com/20211206/i1638803693_8212_4.jpg","https://xcimg.szwego.com/20211206/i1638803693_9593_5.jpg","https://xcimg.szwego.com/20211206/i1638803693_178_6.jpg","https://xcimg.szwego.com/20211206/i1638803693_4545_7.jpg","https://xcimg.szwego.com/20211206/i1638803693_9135_8.jpg"],"created_at":"2025-02-08T12:44:26.541Z"},{"id":"item-891bf9e6bf99","sku":"_dlClC4-r9gun_YlaXVqXSFZc1jza-tiHhaCLiyg","name_en":"🔥专柜高品质🔥普拉达《PRADA》 升级版Saffiano粗十字纹牛皮 🎉托特包🎉1BA358专柜醉新款🎉🎉这款采用Saffiano牛皮,包身配有双提手,可拆卸肩带便于多种方式携带(95cm),颇具功能性强😘包身饰以刻字徽标,又可拆卸装饰其它包上和衣着,太美了😘简约又大气时尚,值得拥有有😘赶紧入手吧👏👏长17x高19x底6cm🎉🎉\ud83c","name_cn":"🔥专柜高品质🔥普拉达《PRADA》 升级版Saffiano粗十字纹牛皮 🎉托特包🎉1BA358专柜醉新款🎉🎉这款采用Saffiano牛皮,包身配有双提手,可拆卸肩带便于多种方式携带(95cm),颇具功能性强😘包身饰以刻字徽标,又可拆卸装饰其它包上和衣着,太美了😘简约又大气时尚,值得拥有有😘赶紧入手吧👏👏长17x高19x底6cm🎉🎉🎉👏👏👏","specs":{"source":"wsxcme","sourceId":"_dlClC4-r9gun_YlaXVqXSFZc1jza-tiHhaCLiyg","sourceTagId":47002669,"sourceTagName":"普拉达/女包","rawTitle":"🔥专柜高品质🔥普拉达《PRADA》 升级版Saffiano粗十字纹牛皮 🎉托特包🎉1BA358专柜醉新款🎉🎉这款采用Saffiano牛皮,包身配有双提手,可拆卸肩带便于多种方式携带(95cm),颇具功能性强😘包身饰以刻字徽标,又可拆卸装饰其它包上和衣着,太美了😘简约又大气时尚,值得拥有有😘赶紧入手吧👏👏长17x高19x底6cm🎉🎉🎉👏👏👏"},"price":null,"currency":"CNY","moq":1,"category":"prada-women-bags","status":"active","alibaba_url":null,"images":["https://xcimg.szwego.com/20220927/i1664224094_2525_0.jpg","https://xcimg.szwego.com/20220927/i1664224094_6424_1.jpg","https://xcimg.szwego.com/20220927/i1664224094_3455_2.jpg","https://xcimg.szwego.com/20220927/i1664224094_9548_3.jpg","https://xcimg.szwego.com/20220927/i1664224094_9005_4.jpg","https://xcimg.szwego.com/20220927/i1664224094_9493_5.jpg","https://xcimg.szwego.com/20220927/i1664224094_6977_6.jpg","https://xcimg.szwego.com/20220927/i1664224094_4520_7.jpg"],"created_at":"2025-02-08T12:44:26.540Z"},{"id":"item-d73567737c04","sku":"_dHKHKW4x8DGte_ltGLw_YeMxiQthbhkSVes3g-Q","name_en":"🔥专柜高品质🔥普拉达《PRADA》 升级版Saffiano粗十字纹牛皮 🎉托特包🎉1BA358专柜醉新款🎉🎉这款采用Saffiano牛皮,包身配有双提手,可拆卸肩带便于多种方式携带(95cm),颇具功能性强😘包身饰以刻字徽标,又可拆卸装饰其它包上和衣着,太美了😘简约又大气时尚,值得拥有有😘赶紧入手吧👏👏长17x高19x底6cm🎉🎉\ud83c","name_cn":"🔥专柜高品质🔥普拉达《PRADA》 升级版Saffiano粗十字纹牛皮 🎉托特包🎉1BA358专柜醉新款🎉🎉这款采用Saffiano牛皮,包身配有双提手,可拆卸肩带便于多种方式携带(95cm),颇具功能性强😘包身饰以刻字徽标,又可拆卸装饰其它包上和衣着,太美了😘简约又大气时尚,值得拥有有😘赶紧入手吧👏👏长17x高19x底6cm🎉🎉🎉👏👏👏","specs":{"source":"wsxcme","sourceId":"_dHKHKW4x8DGte_ltGLw_YeMxiQthbhkSVes3g-Q","sourceTagId":47002669,"sourceTagName":"普拉达/女包","rawTitle":"🔥专柜高品质🔥普拉达《PRADA》 升级版Saffiano粗十字纹牛皮 🎉托特包🎉1BA358专柜醉新款🎉🎉这款采用Saffiano牛皮,包身配有双提手,可拆卸肩带便于多种方式携带(95cm),颇具功能性强😘包身饰以刻字徽标,又可拆卸装饰其它包上和衣着,太美了😘简约又大气时尚,值得拥有有😘赶紧入手吧👏👏长17x高19x底6cm🎉🎉🎉👏👏👏"},"price":null,"currency":"CNY","moq":1,"category":"prada-women-bags","status":"active","alibaba_url":null,"images":["https://xcimg.szwego.com/20220927/i1664224080_627_0.jpg","https://xcimg.szwego.com/20220927/i1664224080_8420_1.jpg","https://xcimg.szwego.com/20220927/i1664224080_7424_2.jpg","https://xcimg.szwego.com/20220927/i1664224080_5333_3.jpg","https://xcimg.szwego.com/20220927/i1664224080_1391_4.jpg","https://xcimg.szwego.com/20220927/i1664224080_4900_5.jpg","https://xcimg.szwego.com/20220927/i1664224080_4086_6.jpg","https://xcimg.szwego.com/20220927/i1664224080_1245_7.jpg"],"created_at":"2025-02-08T12:44:26.539Z"},{"id":"item-875b65eceeee","sku":"_db1b1upVmLQ0SU8_PLW4L9VzXM7-UnnHEwzxxcA","name_en":"新款✨Prada/普拉达盖头包💓款号:2125","name_cn":"新款✨Prada/普拉达盖头包💓款号:2125\n#,原版手掌纹牛皮.🔱顺滑油边,精致做工,拼色是整包的亮点,厚实柔软的皮质[玫瑰]绝对的爆款,质量看得见 [玫瑰]配长肩带!非常实用  ☑️上身更是美丽  尺寸26-20-11cm,时尚简约大💋","specs":{"source":"wsxcme","sourceId":"_db1b1upVmLQ0SU8_PLW4L9VzXM7-UnnHEwzxxcA","sourceTagId":47002669,"sourceTagName":"普拉达/女包","modelNumber":"2125","rawTitle":"新款✨Prada/普拉达盖头包💓款号:2125\n#,原版手掌纹牛皮.🔱顺滑油边,精致做工,拼色是整包的亮点,厚实柔软的皮质[玫瑰]绝对的爆款,质量看得见 [玫瑰]配长肩带!非常实用  ☑️上身更是美丽  尺寸26-20-11cm,时尚简约大💋"},"price":null,"currency":"CNY","moq":1,"category":"prada-women-bags","status":"active","alibaba_url":null,"images":["https://xcimg.szwego.com/20211210/i1639073188_2316_0.jpg","https://xcimg.szwego.com/20211210/i1639073188_5726_1.jpg","https://xcimg.szwego.com/20211210/i1639073188_4076_2.jpg","https://xcimg.szwego.com/20211210/i1639073188_1039_3.jpg","https://xcimg.szwego.com/20211210/i1639073188_9885_4.jpg","https://xcimg.szwego.com/20211210/i1639073188_2284_5.jpg","https://xcimg.szwego.com/20211210/i1639073188_800_6.jpg","https://xcimg.szwego.com/20211210/i1639073188_6838_7.jpg"],"created_at":"2025-02-08T12:44:26.538Z"},{"id":"item-e8fd40a79011","sku":"_dfofo6zE4ucV9MAPD-fVzY7XLlbgbBhUTnyb7bA","name_en":"新款✨Prada/普拉达盖头包💓款号:2125","name_cn":"新款✨Prada/普拉达盖头包💓款号:2125\n#,原版手掌纹牛皮.🔱顺滑油边,精致做工,拼色是整包的亮点,厚实柔软的皮质[玫瑰]绝对的爆款,质量看得见 [玫瑰]配长肩带!非常实用  ☑️上身更是美丽  尺寸26-20-11cm,时尚简约大💋","specs":{"source":"wsxcme","sourceId":"_dfofo6zE4ucV9MAPD-fVzY7XLlbgbBhUTnyb7bA","sourceTagId":47002669,"sourceTagName":"普拉达/女包","modelNumber":"2125","rawTitle":"新款✨Prada/普拉达盖头包💓款号:2125\n#,原版手掌纹牛皮.🔱顺滑油边,精致做工,拼色是整包的亮点,厚实柔软的皮质[玫瑰]绝对的爆款,质量看得见 [玫瑰]配长肩带!非常实用  ☑️上身更是美丽  尺寸26-20-11cm,时尚简约大💋"},"price":null,"currency":"CNY","moq":1,"category":"prada-women-bags","status":"active","alibaba_url":null,"images":["https://xcimg.szwego.com/20211210/i1639073224_5335_0.jpg","https://xcimg.szwego.com/20211210/i1639073224_9246_1.jpg","https://xcimg.szwego.com/20211210/i1639073224_7661_2.jpg","https://xcimg.szwego.com/20211210/i1639073224_4407_3.jpg","https://xcimg.szwego.com/20211210/i1639073224_1028_4.jpg","https://xcimg.szwego.com/20211210/i1639073224_6712_5.jpg","https://xcimg.szwego.com/20211210/i1639073224_4209_6.jpg","https://xcimg.szwego.com/20211210/i1639073224_8764_7.jpg"],"created_at":"2025-02-08T12:44:26.537Z"},{"id":"item-120b7b8e7c1c","sku":"_daFaFMXTv4NOcjxWDJ5ptPYXK0YVTjcJjVBFyMg","name_en":"新款✨Prada/普拉达盖头包💓款号:2125","name_cn":"新款✨Prada/普拉达盖头包💓款号:2125\n#,原版手掌纹牛皮.🔱顺滑油边,精致做工,拼色是整包的亮点,厚实柔软的皮质[玫瑰]绝对的爆款,质量看得见 [玫瑰]配长肩带!非常实用  ☑️上身更是美丽  尺寸26-20-11cm,时尚简约大💋","specs":{"source":"wsxcme","sourceId":"_daFaFMXTv4NOcjxWDJ5ptPYXK0YVTjcJjVBFyMg","sourceTagId":47002669,"sourceTagName":"普拉达/女包","modelNumber":"2125","rawTitle":"新款✨Prada/普拉达盖头包💓款号:2125\n#,原版手掌纹牛皮.🔱顺滑油边,精致做工,拼色是整包的亮点,厚实柔软的皮质[玫瑰]绝对的爆款,质量看得见 [玫瑰]配长肩带!非常实用  ☑️上身更是美丽  尺寸26-20-11cm,时尚简约大💋"},"price":null,"currency":"CNY","moq":1,"category":"prada-women-bags","status":"active","alibaba_url":null,"images":["https://xcimg.szwego.com/20211210/i1639073271_1708_0.jpg","https://xcimg.szwego.com/20211210/i1639073271_5174_1.jpg","https://xcimg.szwego.com/20211210/i1639073271_5487_2.jpg","https://xcimg.szwego.com/20211210/i1639073271_1448_3.jpg","https://xcimg.szwego.com/20211210/i1639073271_4731_4.jpg","https://xcimg.szwego.com/20211210/i1639073271_4514_5.jpg","https://xcimg.szwego.com/20211210/i1639073271_400_6.jpg","https://xcimg.szwego.com/20211210/i1639073271_7748_7.jpg"],"created_at":"2025-02-08T12:44:26.536Z"},{"id":"item-d7722a9e46ac","sku":"_dF6F63DI6fK2mSzRhc6FdM3k2kqndpkSlJxVzIA","name_en":"新款✨Prada/普拉达盖头包💓款号:2125","name_cn":"新款✨Prada/普拉达盖头包💓款号:2125\n#,原版手掌纹牛皮.🔱顺滑油边,精致做工,拼色是整包的亮点,厚实柔软的皮质[玫瑰]绝对的爆款,质量看得见 [玫瑰]配长肩带!非常实用  ☑️上身更是美丽  尺寸26-20-11cm,时尚简约大💋","specs":{"source":"wsxcme","sourceId":"_dF6F63DI6fK2mSzRhc6FdM3k2kqndpkSlJxVzIA","sourceTagId":47002669,"sourceTagName":"普拉达/女包","modelNumber":"2125","rawTitle":"新款✨Prada/普拉达盖头包💓款号:2125\n#,原版手掌纹牛皮.🔱顺滑油边,精致做工,拼色是整包的亮点,厚实柔软的皮质[玫瑰]绝对的爆款,质量看得见 [玫瑰]配长肩带!非常实用  ☑️上身更是美丽  尺寸26-20-11cm,时尚简约大💋"},"price":null,"currency":"CNY","moq":1,"category":"prada-women-bags","status":"active","alibaba_url":null,"images":["https://xcimg.szwego.com/20211210/i1639073254_3985_0.jpg","https://xcimg.szwego.com/20211210/i1639073254_27_1.jpg","https://xcimg.szwego.com/20211210/i1639073254_1453_2.jpg","https://xcimg.szwego.com/20211210/i1639073254_1456_3.jpg","https://xcimg.szwego.com/20211210/i1639073254_7643_4.jpg","https://xcimg.szwego.com/20211210/i1639073254_8321_5.jpg","https://xcimg.szwego.com/20211210/i1639073254_9927_6.jpg","https://xcimg.szwego.com/20211210/i1639073254_4830_7.jpg"],"created_at":"2025-02-08T12:44:26.535Z"},{"id":"item-4f3fde5ffc60","sku":"_dkpkpR0eMd8jjYhyMbmu5ezUMfU82i-U3p9QtfA","name_en":"新款✨Prada/普拉达盖头包💓款号:2125","name_cn":"新款✨Prada/普拉达盖头包💓款号:2125\n#,原版手掌纹牛皮.🔱顺滑油边,精致做工,拼色是整包的亮点,厚实柔软的皮质[玫瑰]绝对的爆款,质量看得见 [玫瑰]配长肩带!非常实用  ☑️上身更是美丽  尺寸26-20-11cm,时尚简约大💋","specs":{"source":"wsxcme","sourceId":"_dkpkpR0eMd8jjYhyMbmu5ezUMfU82i-U3p9QtfA","sourceTagId":47002669,"sourceTagName":"普拉达/女包","modelNumber":"2125","rawTitle":"新款✨Prada/普拉达盖头包💓款号:2125\n#,原版手掌纹牛皮.🔱顺滑油边,精致做工,拼色是整包的亮点,厚实柔软的皮质[玫瑰]绝对的爆款,质量看得见 [玫瑰]配长肩带!非常实用  ☑️上身更是美丽  尺寸26-20-11cm,时尚简约大💋"},"price":null,"currency":"CNY","moq":1,"category":"prada-women-bags","status":"active","alibaba_url":null,"images":["https://xcimg.szwego.com/20211210/i1639073210_1841_0.jpg","https://xcimg.szwego.com/20211210/i1639073210_7514_1.jpg","https://xcimg.szwego.com/20211210/i1639073210_7578_2.jpg","https://xcimg.szwego.com/20211210/i1639073210_6663_3.jpg","https://xcimg.szwego.com/20211210/i1639073210_2304_4.jpg","https://xcimg.szwego.com/20211210/i1639073210_2882_5.jpg","https://xcimg.szwego.com/20211210/i1639073210_748_6.jpg","https://xcimg.szwego.com/20211210/i1639073210_2041_7.jpg"],"created_at":"2025-02-08T12:44:26.534Z"},{"id":"item-6bac5b4923e8","sku":"_dqdqdFg8h7C0jCJ2TJi1ukZWjoVrIStsFkjGuPQ","name_en":"新款✨Prada/普拉达盖头包💓款号:2125","name_cn":"新款✨Prada/普拉达盖头包💓款号:2125\n#,原版手掌纹牛皮.🔱顺滑油边,精致做工,拼色是整包的亮点,厚实柔软的皮质[玫瑰]绝对的爆款,质量看得见 [玫瑰]配长肩带!非常实用  ☑️上身更是美丽  尺寸26-20-11cm,时尚简约大💋","specs":{"source":"wsxcme","sourceId":"_dqdqdFg8h7C0jCJ2TJi1ukZWjoVrIStsFkjGuPQ","sourceTagId":47002669,"sourceTagName":"普拉达/女包","modelNumber":"2125","rawTitle":"新款✨Prada/普拉达盖头包💓款号:2125\n#,原版手掌纹牛皮.🔱顺滑油边,精致做工,拼色是整包的亮点,厚实柔软的皮质[玫瑰]绝对的爆款,质量看得见 [玫瑰]配长肩带!非常实用  ☑️上身更是美丽  尺寸26-20-11cm,时尚简约大💋"},"price":null,"currency":"CNY","moq":1,"category":"prada-women-bags","status":"active","alibaba_url":null,"images":["https://xcimg.szwego.com/20211210/i1639073241_2251_0.jpg","https://xcimg.szwego.com/20211210/i1639073241_2698_1.jpg","https://xcimg.szwego.com/20211210/i1639073241_7809_2.jpg","https://xcimg.szwego.com/20211210/i1639073241_1348_3.jpg","https://xcimg.szwego.com/20211210/i1639073241_1322_4.jpg","https://xcimg.szwego.com/20211210/i1639073241_2675_5.jpg","https://xcimg.szwego.com/20211210/i1639073241_2282_6.jpg","https://xcimg.szwego.com/20211210/i1639073241_6883_7.jpg"],"created_at":"2025-02-08T12:44:26.533Z"},{"id":"item-b74b49b9a004","sku":"_dememR3Of0xl5wINilHfx05k6O8pV3EYEFULG8Q","name_en":"新款✨Prada/普拉达盖头包💓款号:2125","name_cn":"新款✨Prada/普拉达盖头包💓款号:2125\n#,原版手掌纹牛皮.🔱顺滑油边,精致做工,拼色是整包的亮点,厚实柔软的皮质[玫瑰]绝对的爆款,质量看得见 [玫瑰]配长肩带!非常实用  ☑️上身更是美丽  尺寸26-20-11cm,时尚简约大💋","specs":{"source":"wsxcme","sourceId":"_dememR3Of0xl5wINilHfx05k6O8pV3EYEFULG8Q","sourceTagId":47002669,"sourceTagName":"普拉达/女包","modelNumber":"2125","rawTitle":"新款✨Prada/普拉达盖头包💓款号:2125\n#,原版手掌纹牛皮.🔱顺滑油边,精致做工,拼色是整包的亮点,厚实柔软的皮质[玫瑰]绝对的爆款,质量看得见 [玫瑰]配长肩带!非常实用  ☑️上身更是美丽  尺寸26-20-11cm,时尚简约大💋"},"price":null,"currency":"CNY","moq":1,"category":"prada-women-bags","status":"active","alibaba_url":null,"images":["https://xcimg.szwego.com/20211210/i1639073094_3867_0.jpg","https://xcimg.szwego.com/20211210/i1639073094_6655_1.jpg","https://xcimg.szwego.com/20211210/i1639073094_1277_2.jpg","https://xcimg.szwego.com/20211210/i1639073094_1907_3.jpg","https://xcimg.szwego.com/20211210/i1639073094_1887_4.jpg","https://xcimg.szwego.com/20211210/i1639073094_3316_5.jpg","https://xcimg.szwego.com/20211210/i1639073094_7208_6.jpg","https://xcimg.szwego.com/20211210/i1639073094_679_7.jpg"],"created_at":"2025-02-08T12:44:26.532Z"},{"id":"item-5a6b8978570b","sku":"_dn3n31tRHv8XQdMaMgbfZw50mXA-wKIvJzzsQlw","name_en":"Prada Women Bags","name_cn":"新款开年新款普拉达\n5008 #  尺寸:31*22*12  \n专柜裁剪手法,采用进口小牛皮🐮搭配🐍纹,质感柔软 包型时尚大方[玫瑰]玩转时尚潮流前线[啤酒]原版专柜五金[爱心]手感柔软舒适,完美细节,超大容量,内置中隔,配有防尘袋,官网卡片,证书一一俱全,坚持高品质","specs":{"source":"wsxcme","sourceId":"_dn3n31tRHv8XQdMaMgbfZw50mXA-wKIvJzzsQlw","sourceTagId":47002669,"sourceTagName":"普拉达/女包","rawTitle":"新款开年新款普拉达\n5008 #  尺寸:31*22*12  \n专柜裁剪手法,采用进口小牛皮🐮搭配🐍纹,质感柔软 包型时尚大方[玫瑰]玩转时尚潮流前线[啤酒]原版专柜五金[爱心]手感柔软舒适,完美细节,超大容量,内置中隔,配有防尘袋,官网卡片,证书一一俱全,坚持高品质"},"price":null,"currency":"CNY","moq":1,"category":"prada-women-bags","status":"active","alibaba_url":null,"images":["https://xcimg.szwego.com/20201224/i1608802800_9536_0.jpg","https://xcimg.szwego.com/20201224/i1608802800_7170_1.jpg","https://xcimg.szwego.com/20201224/i1608802800_3511_2.jpg","https://xcimg.szwego.com/20201223/i1608722892_370_0.jpg","https://xcimg.szwego.com/20201223/i1608722892_748_1.jpg","https://xcimg.szwego.com/20201223/i1608722892_7440_3.jpg","https://xcimg.szwego.com/20201223/i1608722892_4581_4.jpg","https://xcimg.szwego.com/20201223/i1608722892_4927_5.jpg","https://xcimg.szwego.com/20201223/i1608726387_4094_0.jpg"],"created_at":"2025-02-08T12:44:26.531Z"},{"id":"item-f73e3260eb9e","sku":"_d9R9RDKQCwU5CNqBTs3TsZjT6RBnzZDl_CfISPA","name_en":"🔥劲爆醉新款🔥✨普拉达《PRADA》时尚盖头包💓原版鹿纹牛皮搭配鸵鸟纹更具时尚视觉感🔱油边顺滑细致,厚实柔软的皮质[玫瑰]绝对的爆款,质量看得见,更具实用性 [玫瑰]配长肩带!  ☑️上身更是美丽动人!","name_cn":"🔥劲爆醉新款🔥✨普拉达《PRADA》时尚盖头包💓原版鹿纹牛皮搭配鸵鸟纹更具时尚视觉感🔱油边顺滑细致,厚实柔软的皮质[玫瑰]绝对的爆款,质量看得见,更具实用性 [玫瑰]配长肩带!  ☑️上身更是美丽动人!\n款号:55118#\n尺寸:长27-高17-宽11\n完美细节!毋庸置疑!","specs":{"source":"wsxcme","sourceId":"_d9R9RDKQCwU5CNqBTs3TsZjT6RBnzZDl_CfISPA","sourceTagId":47002669,"sourceTagName":"普拉达/女包","modelNumber":"55118#","rawTitle":"🔥劲爆醉新款🔥✨普拉达《PRADA》时尚盖头包💓原版鹿纹牛皮搭配鸵鸟纹更具时尚视觉感🔱油边顺滑细致,厚实柔软的皮质[玫瑰]绝对的爆款,质量看得见,更具实用性 [玫瑰]配长肩带!  ☑️上身更是美丽动人!\n款号:55118#\n尺寸:长27-高17-宽11\n完美细节!毋庸置疑!"},"price":null,"currency":"CNY","moq":1,"category":"prada-women-bags","status":"active","alibaba_url":null,"images":["https://xcimg.szwego.com/20220922/i1663790038_8740_0.jpg","https://xcimg.szwego.com/20220922/i1663790038_7754_1.jpg","https://xcimg.szwego.com/20220922/i1663790038_8908_2.jpg","https://xcimg.szwego.com/20220922/i1663790038_1068_3.jpg","https://xcimg.szwego.com/20220922/i1663790038_1359_4.jpg","https://xcimg.szwego.com/20220922/i1663790038_155_5.jpg","https://xcimg.szwego.com/20220922/i1663790038_4062_6.jpg","https://xcimg.szwego.com/20220922/i1663790038_2315_7.jpg"],"created_at":"2025-02-08T12:44:26.530Z"},{"id":"item-97d8d611c8d0","sku":"_deVeV1xJTDs7aZw8bWfmKoMOrPhO8ey2GlVXDtA","name_en":"🔥劲爆醉新款🔥✨普拉达《PRADA》时尚盖头包💓原版鹿纹牛皮搭配鸵鸟纹更具时尚视觉感🔱油边顺滑细致,厚实柔软的皮质[玫瑰]绝对的爆款,质量看得见,更具实用性 [玫瑰]配长肩带!  ☑️上身更是美丽动人!","name_cn":"🔥劲爆醉新款🔥✨普拉达《PRADA》时尚盖头包💓原版鹿纹牛皮搭配鸵鸟纹更具时尚视觉感🔱油边顺滑细致,厚实柔软的皮质[玫瑰]绝对的爆款,质量看得见,更具实用性 [玫瑰]配长肩带!  ☑️上身更是美丽动人!\n款号:55118#\n尺寸:长27-高17-宽11\n完美细节!毋庸置疑!","specs":{"source":"wsxcme","sourceId":"_deVeV1xJTDs7aZw8bWfmKoMOrPhO8ey2GlVXDtA","sourceTagId":47002669,"sourceTagName":"普拉达/女包","modelNumber":"55118#","rawTitle":"🔥劲爆醉新款🔥✨普拉达《PRADA》时尚盖头包💓原版鹿纹牛皮搭配鸵鸟纹更具时尚视觉感🔱油边顺滑细致,厚实柔软的皮质[玫瑰]绝对的爆款,质量看得见,更具实用性 [玫瑰]配长肩带!  ☑️上身更是美丽动人!\n款号:55118#\n尺寸:长27-高17-宽11\n完美细节!毋庸置疑!"},"price":null,"currency":"CNY","moq":1,"category":"prada-women-bags","status":"active","alibaba_url":null,"images":["https://xcimg.szwego.com/20220922/i1663790026_9767_0.jpg","https://xcimg.szwego.com/20220922/i1663790026_3578_1.jpg","https://xcimg.szwego.com/20220922/i1663790026_471_2.jpg","https://xcimg.szwego.com/20220922/i1663790026_2195_3.jpg","https://xcimg.szwego.com/20220922/i1663790026_4165_4.jpg","https://xcimg.szwego.com/20220922/i1663790026_1800_5.jpg","https://xcimg.szwego.com/20220922/i1663790026_446_6.jpg","https://xcimg.szwego.com/20220922/i1663790026_3619_7.jpg"],"created_at":"2025-02-08T12:44:26.529Z"}],"page":193,"pageSize":24,"total":10075,"totalPages":420}
