{"items":[{"id":"item-c0e0cd2e3749","sku":"_dOPOPkzKp_t0zX0kc9SKHu_xDbZJKBJ7ypLqcrw","name_en":"Balenciaga Women Bags","name_cn":"最新款购物袋出货透明包\nB家新品📷实拍 巴黎世家购物袋Balenciag*最新走秀款购物袋来啦🌈专柜限量上市 娱乐周刊主推款~超正点 原版内里 高端时尚 潮爆全球💫潮范儿们跟上脚步吧 喜欢的抓紧自留啦 超级洋气 \n尺寸:大号尺寸47x33x16,款号6052,小号尺寸23x18x11,款号6032","specs":{"source":"wsxcme","sourceId":"_dOPOPkzKp_t0zX0kc9SKHu_xDbZJKBJ7ypLqcrw","sourceTagId":80697835,"sourceTagName":"巴黎世家/女包","modelNumber":"6052","rawTitle":"最新款购物袋出货透明包\nB家新品📷实拍 巴黎世家购物袋Balenciag*最新走秀款购物袋来啦🌈专柜限量上市 娱乐周刊主推款~超正点 原版内里 高端时尚 潮爆全球💫潮范儿们跟上脚步吧 喜欢的抓紧自留啦 超级洋气 \n尺寸:大号尺寸47x33x16,款号6052,小号尺寸23x18x11,款号6032"},"price":null,"currency":"CNY","moq":1,"category":"balenciaga-women-bags","status":"active","alibaba_url":null,"images":["https://xcimg.szwego.com/20230627/i1687804621_2059_0.jpg","https://xcimg.szwego.com/20230627/i1687804621_9891_1.jpg","https://xcimg.szwego.com/20230627/i1687804621_3179_2.jpg","https://xcimg.szwego.com/20230627/i1687804621_4733_3.jpg","https://xcimg.szwego.com/20230627/i1687804621_7103_4.jpg","https://xcimg.szwego.com/20230627/i1687804621_5089_5.jpg","https://xcimg.szwego.com/20230627/i1687804621_1645_6.jpg","https://xcimg.szwego.com/20230627/i1687804621_8594_7.jpg"],"created_at":"2025-02-08T12:29:39.447Z"},{"id":"item-685b5c728b2f","sku":"_doYoYXZnBCsiw-D8xIoCmOvc8BjNi6w4u5tVFlQ","name_en":"Balenciaga Women Bags","name_cn":"最新款购物袋出货透明包\nB家新品📷实拍 巴黎世家购物袋Balenciag*最新走秀款购物袋来啦🌈专柜限量上市 娱乐周刊主推款~超正点 原版内里 高端时尚 潮爆全球💫潮范儿们跟上脚步吧 喜欢的抓紧自留啦 超级洋气 \n尺寸:大号尺寸47x33x16,款号6052,小号尺寸23x18x11,款号6032","specs":{"source":"wsxcme","sourceId":"_doYoYXZnBCsiw-D8xIoCmOvc8BjNi6w4u5tVFlQ","sourceTagId":80697835,"sourceTagName":"巴黎世家/女包","modelNumber":"6052","rawTitle":"最新款购物袋出货透明包\nB家新品📷实拍 巴黎世家购物袋Balenciag*最新走秀款购物袋来啦🌈专柜限量上市 娱乐周刊主推款~超正点 原版内里 高端时尚 潮爆全球💫潮范儿们跟上脚步吧 喜欢的抓紧自留啦 超级洋气 \n尺寸:大号尺寸47x33x16,款号6052,小号尺寸23x18x11,款号6032"},"price":null,"currency":"CNY","moq":1,"category":"balenciaga-women-bags","status":"active","alibaba_url":null,"images":["https://xcimg.szwego.com/20230627/i1687804640_3487_0.jpg","https://xcimg.szwego.com/20230627/i1687804640_1696_1.jpg","https://xcimg.szwego.com/20230627/i1687804640_8030_2.jpg","https://xcimg.szwego.com/20230627/i1687804640_351_3.jpg","https://xcimg.szwego.com/20230627/i1687804640_7444_4.jpg","https://xcimg.szwego.com/20230627/i1687804640_854_5.jpg","https://xcimg.szwego.com/20230627/i1687804640_6509_6.jpg","https://xcimg.szwego.com/20230627/i1687804640_7230_7.jpg"],"created_at":"2025-02-08T12:29:39.446Z"},{"id":"item-7a199370d855","sku":"_dv6v68vfaugSx73dSS4xqjElszL4UvkaTbSjdFw","name_en":"Balenciaga巴黎世家 crush链条包⛓️","name_cn":"Balenciaga巴黎世家 crush链条包⛓️\n⏳经典沙漏轮廓却又像枕头般柔软,揉成团又展开的做旧折纸质感,耐看日常又百搭。crush包款以解构手法重释经典,包身延续了拱形包底与尖角边缘设计,去掉手柄,保留B扣。\n既可将链条穿过环圈对折作为手拎包或腋下包,亦可调整成单链条做单肩包或斜挎包,一个包有四种背法。\n款号:8911\n尺寸:39.9*24.9*13.0","specs":{"source":"wsxcme","sourceId":"_dv6v68vfaugSx73dSS4xqjElszL4UvkaTbSjdFw","sourceTagId":80697835,"sourceTagName":"巴黎世家/女包","modelNumber":"8911","rawTitle":"Balenciaga巴黎世家 crush链条包⛓️\n⏳经典沙漏轮廓却又像枕头般柔软,揉成团又展开的做旧折纸质感,耐看日常又百搭。crush包款以解构手法重释经典,包身延续了拱形包底与尖角边缘设计,去掉手柄,保留B扣。\n既可将链条穿过环圈对折作为手拎包或腋下包,亦可调整成单链条做单肩包或斜挎包,一个包有四种背法。\n款号:8911\n尺寸:39.9*24.9*13.0"},"price":null,"currency":"CNY","moq":1,"category":"balenciaga-women-bags","status":"active","alibaba_url":null,"images":["https://xcimg.szwego.com/20230511/i1683800436_379_3.jpg","https://xcimg.szwego.com/20230511/i1683800436_2109_0.jpg","https://xcimg.szwego.com/20230511/i1683800436_5574_1.jpg","https://xcimg.szwego.com/20230511/i1683800436_1130_2.jpg","https://xcimg.szwego.com/20230511/i1683800436_1390_4.jpg"],"created_at":"2025-02-08T12:29:39.445Z"},{"id":"item-db8d527216b1","sku":"_dWsWsY5u0AwkR3ouCl-gzoUM1BpC0mPTqImdvDg","name_en":"【 巴黎世家】克压印最新颜色💗颠覆潮流的大一面字母贝壳包~ 年度时尚界的顶端,街头风绝版的个性魅力款,不想撞包的,这是首选😊尺寸:26*12*22cm,超高品质👍 细节图","name_cn":"【 巴黎世家】克压印最新颜色💗颠覆潮流的大一面字母贝壳包~ 年度时尚界的顶端,街头风绝版的个性魅力款,不想撞包的,这是首选😊尺寸:26*12*22cm,超高品质👍 细节图","specs":{"source":"wsxcme","sourceId":"_dWsWsY5u0AwkR3ouCl-gzoUM1BpC0mPTqImdvDg","sourceTagId":80697835,"sourceTagName":"巴黎世家/女包","dimensions":{"lengthCm":26,"heightCm":12,"widthCm":22},"rawTitle":"【 巴黎世家】克压印最新颜色💗颠覆潮流的大一面字母贝壳包~ 年度时尚界的顶端,街头风绝版的个性魅力款,不想撞包的,这是首选😊尺寸:26*12*22cm,超高品质👍 细节图"},"price":null,"currency":"CNY","moq":1,"category":"balenciaga-women-bags","status":"active","alibaba_url":null,"images":["https://xcimg.szwego.com/20210711/i1625998151_2332_0.jpg","https://xcimg.szwego.com/20210711/i1625998151_7692_1.jpg","https://xcimg.szwego.com/20210711/i1625998151_3365_2.jpg","https://xcimg.szwego.com/20210711/i1625998151_8627_3.jpg","https://xcimg.szwego.com/20210711/i1625998151_7368_4.jpg","https://xcimg.szwego.com/20210711/i1625998151_3536_5.jpg","https://xcimg.szwego.com/20210711/i1625998151_2941_6.jpg","https://xcimg.szwego.com/20210711/i1625998151_1867_7.jpg","https://xcimg.szwego.com/20210711/i1625998151_7426_8.jpg"],"created_at":"2025-02-08T12:29:39.442Z"},{"id":"item-f070e53af2b4","sku":"_dEHEHwERWD1WYVtnDB0ubIG5MpkF_ThEoX6aULw","name_en":"【巴黎世家】克压印最新品颠覆潮流的一面大字母贝壳包XXS号超级mini可爱😊","name_cn":"【巴黎世家】克压印最新品颠覆潮流的一面大字母贝壳包XXS号超级mini可爱😊\n2020年时尚界的顶端,街头风绝版的个性魅力款,不想撞包的,这是首选😂超高品质👍 细节图、尺寸18*8*15","specs":{"source":"wsxcme","sourceId":"_dEHEHwERWD1WYVtnDB0ubIG5MpkF_ThEoX6aULw","sourceTagId":80697835,"sourceTagName":"巴黎世家/女包","rawTitle":"【巴黎世家】克压印最新品颠覆潮流的一面大字母贝壳包XXS号超级mini可爱😊\n2020年时尚界的顶端,街头风绝版的个性魅力款,不想撞包的,这是首选😂超高品质👍 细节图、尺寸18*8*15"},"price":null,"currency":"CNY","moq":1,"category":"balenciaga-women-bags","status":"active","alibaba_url":null,"images":["https://xcimg.szwego.com/20210711/i1625994882_394_0.jpg","https://xcimg.szwego.com/20210711/i1625994882_3554_1.jpg","https://xcimg.szwego.com/20210711/i1625994882_5228_2.jpg","https://xcimg.szwego.com/20210711/i1625994882_8634_3.jpg","https://xcimg.szwego.com/20210711/i1625994882_5535_4.jpg","https://xcimg.szwego.com/20210711/i1625994882_9242_5.jpg","https://xcimg.szwego.com/20210711/i1625994882_7958_6.jpg","https://xcimg.szwego.com/20210711/i1625994882_1940_7.jpg","https://xcimg.szwego.com/20210711/i1625994882_2583_8.jpg"],"created_at":"2025-02-08T12:29:39.441Z"},{"id":"item-4521560950d2","sku":"_dNHNHIZMQkM_Hilx3OthJhRjmxN68SNbou8hgBA","name_en":"【 巴黎世家】克/白银压印最新颜色💗颠覆潮流的大字母贝壳包~ 年度时尚界的顶端,街头风绝版的个性魅力款,不想撞包的,这是首选😊尺寸:26*12*22cm,超高品质👍 细节图","name_cn":"【 巴黎世家】克/白银压印最新颜色💗颠覆潮流的大字母贝壳包~ 年度时尚界的顶端,街头风绝版的个性魅力款,不想撞包的,这是首选😊尺寸:26*12*22cm,超高品质👍 细节图","specs":{"source":"wsxcme","sourceId":"_dNHNHIZMQkM_Hilx3OthJhRjmxN68SNbou8hgBA","sourceTagId":80697835,"sourceTagName":"巴黎世家/女包","dimensions":{"lengthCm":26,"heightCm":12,"widthCm":22},"rawTitle":"【 巴黎世家】克/白银压印最新颜色💗颠覆潮流的大字母贝壳包~ 年度时尚界的顶端,街头风绝版的个性魅力款,不想撞包的,这是首选😊尺寸:26*12*22cm,超高品质👍 细节图"},"price":null,"currency":"CNY","moq":1,"category":"balenciaga-women-bags","status":"active","alibaba_url":null,"images":["https://xcimg.szwego.com/20200829/i1598636556_917_0.jpg","https://xcimg.szwego.com/20200829/i1598636556_8405_1.jpg","https://xcimg.szwego.com/20200829/i1598636556_573_2.jpg","https://xcimg.szwego.com/20200829/i1598636556_2665_3.jpg","https://xcimg.szwego.com/20200829/i1598636556_4863_4.jpg","https://xcimg.szwego.com/20200829/i1598636556_2376_5.jpg","https://xcimg.szwego.com/20200829/i1598636556_9528_6.jpg","https://xcimg.szwego.com/20200829/i1598636556_7178_7.jpg","https://xcimg.szwego.com/20200829/i1598636556_928_8.jpg"],"created_at":"2025-02-08T12:29:39.440Z"},{"id":"item-87e2fef7f406","sku":"_d9g9gBeY500oCOTmYQvN0pIO9_myGn1K-NiyfRg","name_en":"【巴黎世家】克/白银印最新品颠覆潮流的大字母贝壳包XXS号超级mini可爱😊","name_cn":"【巴黎世家】克/白银印最新品颠覆潮流的大字母贝壳包XXS号超级mini可爱😊\n2020年时尚界的顶端,街头风绝版的个性魅力款,不想撞包的,这是首选😂超高品质👍 细节图、尺寸18*8*15","specs":{"source":"wsxcme","sourceId":"_d9g9gBeY500oCOTmYQvN0pIO9_myGn1K-NiyfRg","sourceTagId":80697835,"sourceTagName":"巴黎世家/女包","rawTitle":"【巴黎世家】克/白银印最新品颠覆潮流的大字母贝壳包XXS号超级mini可爱😊\n2020年时尚界的顶端,街头风绝版的个性魅力款,不想撞包的,这是首选😂超高品质👍 细节图、尺寸18*8*15"},"price":null,"currency":"CNY","moq":1,"category":"balenciaga-women-bags","status":"active","alibaba_url":null,"images":["https://xcimg.szwego.com/20200829/i1598636210_576_0.jpg","https://xcimg.szwego.com/20200829/i1598636210_2014_1.jpg","https://xcimg.szwego.com/20200829/i1598636210_8886_2.jpg","https://xcimg.szwego.com/20200829/i1598636210_2639_3.jpg","https://xcimg.szwego.com/20200829/i1598636210_2251_4.jpg","https://xcimg.szwego.com/20200829/i1598636210_8419_5.jpg","https://xcimg.szwego.com/20200829/i1598636210_5672_6.jpg","https://xcimg.szwego.com/20200829/i1598636210_1218_7.jpg","https://xcimg.szwego.com/20200829/i1598636210_1733_8.jpg"],"created_at":"2025-02-08T12:29:39.439Z"},{"id":"item-a9ae1d586289","sku":"_dhAhAs1r8ZM1enXh44XKKGjMNTrgXLz2ajAhLpQ","name_en":"【 巴黎世家】最新颜色💗颠覆潮流的大字母贝壳包~ 年度时尚界的顶端,街头风绝版的个性魅力款,不想撞包的,这是首选😊尺寸:26*12*22cm,超高品质👍 细节图","name_cn":"【 巴黎世家】最新颜色💗颠覆潮流的大字母贝壳包~ 年度时尚界的顶端,街头风绝版的个性魅力款,不想撞包的,这是首选😊尺寸:26*12*22cm,超高品质👍 细节图","specs":{"source":"wsxcme","sourceId":"_dhAhAs1r8ZM1enXh44XKKGjMNTrgXLz2ajAhLpQ","sourceTagId":80697835,"sourceTagName":"巴黎世家/女包","dimensions":{"lengthCm":26,"heightCm":12,"widthCm":22},"rawTitle":"【 巴黎世家】最新颜色💗颠覆潮流的大字母贝壳包~ 年度时尚界的顶端,街头风绝版的个性魅力款,不想撞包的,这是首选😊尺寸:26*12*22cm,超高品质👍 细节图"},"price":null,"currency":"CNY","moq":1,"category":"balenciaga-women-bags","status":"active","alibaba_url":null,"images":["https://xcimg.szwego.com/20200821/i1597967882_6312_0.jpg","https://xcimg.szwego.com/20200821/i1597967882_8572_1.jpg","https://xcimg.szwego.com/20200821/i1597967882_8541_2.jpg","https://xcimg.szwego.com/20200821/i1597967882_9597_3.jpg","https://xcimg.szwego.com/20200821/i1597967882_4845_4.jpg","https://xcimg.szwego.com/20200821/i1597967882_528_5.jpg","https://xcimg.szwego.com/20200821/i1597967882_6941_6.jpg","https://xcimg.szwego.com/20200821/i1597967882_9501_7.jpg","https://xcimg.szwego.com/20200821/i1597967882_8094_8.jpg"],"created_at":"2025-02-08T12:29:39.438Z"},{"id":"item-092369f907e7","sku":"_dozozaSIgaTy6EPXGEv9sB9sLPLB6DSnsiysDSQ","name_en":"【 巴黎世家】最新颜色💗颠覆潮流的大字母贝壳包~ 年度时尚界的顶端,街头风绝版的个性魅力款,不想撞包的,这是首选😊尺寸:26*12*22cm,超高品质👍 细节图","name_cn":"【 巴黎世家】最新颜色💗颠覆潮流的大字母贝壳包~ 年度时尚界的顶端,街头风绝版的个性魅力款,不想撞包的,这是首选😊尺寸:26*12*22cm,超高品质👍 细节图","specs":{"source":"wsxcme","sourceId":"_dozozaSIgaTy6EPXGEv9sB9sLPLB6DSnsiysDSQ","sourceTagId":80697835,"sourceTagName":"巴黎世家/女包","dimensions":{"lengthCm":26,"heightCm":12,"widthCm":22},"rawTitle":"【 巴黎世家】最新颜色💗颠覆潮流的大字母贝壳包~ 年度时尚界的顶端,街头风绝版的个性魅力款,不想撞包的,这是首选😊尺寸:26*12*22cm,超高品质👍 细节图"},"price":null,"currency":"CNY","moq":1,"category":"balenciaga-women-bags","status":"active","alibaba_url":null,"images":["https://xcimg.szwego.com/20200821/i1597967834_2179_0.jpg","https://xcimg.szwego.com/20200821/i1597967834_5254_1.jpg","https://xcimg.szwego.com/20200821/i1597967834_4637_2.jpg","https://xcimg.szwego.com/20200821/i1597967834_6056_3.jpg","https://xcimg.szwego.com/20200821/i1597967834_9738_4.jpg","https://xcimg.szwego.com/20200821/i1597967834_9505_5.jpg","https://xcimg.szwego.com/20200821/i1597967834_1018_6.jpg","https://xcimg.szwego.com/20200821/i1597967834_8372_7.jpg","https://xcimg.szwego.com/20200821/i1597967834_7015_8.jpg"],"created_at":"2025-02-08T12:29:39.437Z"},{"id":"item-da5aa19827ac","sku":"_dsKsKo9eITBw9SSGrPWqEs3RmjdHWWZ_tlBs0Ug","name_en":"【 巴黎世家】最新颜色💗颠覆潮流的大字母贝壳包~ 年度时尚界的顶端,街头风绝版的个性魅力款,不想撞包的,这是首选😊尺寸:26*12*22cm,超高品质👍 细节图","name_cn":"【 巴黎世家】最新颜色💗颠覆潮流的大字母贝壳包~ 年度时尚界的顶端,街头风绝版的个性魅力款,不想撞包的,这是首选😊尺寸:26*12*22cm,超高品质👍 细节图","specs":{"source":"wsxcme","sourceId":"_dsKsKo9eITBw9SSGrPWqEs3RmjdHWWZ_tlBs0Ug","sourceTagId":80697835,"sourceTagName":"巴黎世家/女包","dimensions":{"lengthCm":26,"heightCm":12,"widthCm":22},"rawTitle":"【 巴黎世家】最新颜色💗颠覆潮流的大字母贝壳包~ 年度时尚界的顶端,街头风绝版的个性魅力款,不想撞包的,这是首选😊尺寸:26*12*22cm,超高品质👍 细节图"},"price":null,"currency":"CNY","moq":1,"category":"balenciaga-women-bags","status":"active","alibaba_url":null,"images":["https://xcimg.szwego.com/20200821/i1597967789_2263_0.jpg","https://xcimg.szwego.com/20200821/i1597967789_4767_1.jpg","https://xcimg.szwego.com/20200821/i1597967789_7471_2.jpg","https://xcimg.szwego.com/20200821/i1597967789_1701_3.jpg","https://xcimg.szwego.com/20200821/i1597967789_8364_4.jpg","https://xcimg.szwego.com/20200821/i1597967789_5464_5.jpg","https://xcimg.szwego.com/20200821/i1597967789_2326_6.jpg","https://xcimg.szwego.com/20200821/i1597967789_6451_7.jpg","https://xcimg.szwego.com/20200821/i1597967789_216_8.jpg"],"created_at":"2025-02-08T12:29:39.436Z"},{"id":"item-5e7b74f63f56","sku":"_d2H2H0OsbLv04SB_LhaFptAP9wDjUojf1LMRvlQ","name_en":"【 巴黎世家】最新颜色💗颠覆潮流的大字母贝壳包~ 年度时尚界的顶端,街头风绝版的个性魅力款,不想撞包的,这是首选😊尺寸:26*12*22cm,超高品质👍 细节图","name_cn":"【 巴黎世家】最新颜色💗颠覆潮流的大字母贝壳包~ 年度时尚界的顶端,街头风绝版的个性魅力款,不想撞包的,这是首选😊尺寸:26*12*22cm,超高品质👍 细节图","specs":{"source":"wsxcme","sourceId":"_d2H2H0OsbLv04SB_LhaFptAP9wDjUojf1LMRvlQ","sourceTagId":80697835,"sourceTagName":"巴黎世家/女包","dimensions":{"lengthCm":26,"heightCm":12,"widthCm":22},"rawTitle":"【 巴黎世家】最新颜色💗颠覆潮流的大字母贝壳包~ 年度时尚界的顶端,街头风绝版的个性魅力款,不想撞包的,这是首选😊尺寸:26*12*22cm,超高品质👍 细节图"},"price":null,"currency":"CNY","moq":1,"category":"balenciaga-women-bags","status":"active","alibaba_url":null,"images":["https://xcimg.szwego.com/20200821/i1597967641_5805_0.jpg","https://xcimg.szwego.com/20200821/i1597967641_4716_1.jpg","https://xcimg.szwego.com/20200821/i1597967641_6787_2.jpg","https://xcimg.szwego.com/20200821/i1597967641_5197_3.jpg","https://xcimg.szwego.com/20200821/i1597967641_5732_4.jpg","https://xcimg.szwego.com/20200821/i1597967641_5371_5.jpg","https://xcimg.szwego.com/20200821/i1597967641_9848_6.jpg","https://xcimg.szwego.com/20200821/i1597967641_166_7.jpg","https://xcimg.szwego.com/20200821/i1597967641_5524_8.jpg"],"created_at":"2025-02-08T12:29:39.435Z"},{"id":"item-31d158e921ac","sku":"_d_y_ySIvf2-tbcd_ccu4wu68k9ODWlZfoukaM5w","name_en":"【 巴黎世家】最新颜色💗颠覆潮流的大字母贝壳包~ 年度时尚界的顶端,街头风绝版的个性魅力款,不想撞包的,这是首选😊尺寸:26*12*22cm,超高品质👍 细节图","name_cn":"【 巴黎世家】最新颜色💗颠覆潮流的大字母贝壳包~ 年度时尚界的顶端,街头风绝版的个性魅力款,不想撞包的,这是首选😊尺寸:26*12*22cm,超高品质👍 细节图","specs":{"source":"wsxcme","sourceId":"_d_y_ySIvf2-tbcd_ccu4wu68k9ODWlZfoukaM5w","sourceTagId":80697835,"sourceTagName":"巴黎世家/女包","dimensions":{"lengthCm":26,"heightCm":12,"widthCm":22},"rawTitle":"【 巴黎世家】最新颜色💗颠覆潮流的大字母贝壳包~ 年度时尚界的顶端,街头风绝版的个性魅力款,不想撞包的,这是首选😊尺寸:26*12*22cm,超高品质👍 细节图"},"price":null,"currency":"CNY","moq":1,"category":"balenciaga-women-bags","status":"active","alibaba_url":null,"images":["https://xcimg.szwego.com/20200821/i1597967732_7446_0.jpg","https://xcimg.szwego.com/20200821/i1597967732_9711_1.jpg","https://xcimg.szwego.com/20200821/i1597967732_8864_2.jpg","https://xcimg.szwego.com/20200821/i1597967732_6419_3.jpg","https://xcimg.szwego.com/20200821/i1597967732_8049_4.jpg","https://xcimg.szwego.com/20200821/i1597967732_9405_5.jpg","https://xcimg.szwego.com/20200821/i1597967732_4875_6.jpg","https://xcimg.szwego.com/20200821/i1597967732_5459_7.jpg","https://xcimg.szwego.com/20200821/i1597967732_1886_8.jpg"],"created_at":"2025-02-08T12:29:39.434Z"},{"id":"item-3526d95229dc","sku":"_dzqzqPWauuV7nylRpwAYl209ulten5gRvNw70ww","name_en":"【 巴黎世家】最新颜色💗颠覆潮流的大字母贝壳包~ 年度时尚界的顶端,街头风绝版的个性魅力款,不想撞包的,这是首选😊尺寸:26*12*22cm,超高品质👍 细节图","name_cn":"【 巴黎世家】最新颜色💗颠覆潮流的大字母贝壳包~ 年度时尚界的顶端,街头风绝版的个性魅力款,不想撞包的,这是首选😊尺寸:26*12*22cm,超高品质👍 细节图","specs":{"source":"wsxcme","sourceId":"_dzqzqPWauuV7nylRpwAYl209ulten5gRvNw70ww","sourceTagId":80697835,"sourceTagName":"巴黎世家/女包","dimensions":{"lengthCm":26,"heightCm":12,"widthCm":22},"rawTitle":"【 巴黎世家】最新颜色💗颠覆潮流的大字母贝壳包~ 年度时尚界的顶端,街头风绝版的个性魅力款,不想撞包的,这是首选😊尺寸:26*12*22cm,超高品质👍 细节图"},"price":null,"currency":"CNY","moq":1,"category":"balenciaga-women-bags","status":"active","alibaba_url":null,"images":["https://xcimg.szwego.com/20200821/i1597967590_7221_0.jpg","https://xcimg.szwego.com/20200821/i1597967590_727_1.jpg","https://xcimg.szwego.com/20200821/i1597967590_2391_2.jpg","https://xcimg.szwego.com/20200821/i1597967590_1274_3.jpg","https://xcimg.szwego.com/20200821/i1597967590_7091_4.jpg","https://xcimg.szwego.com/20200821/i1597967590_2258_5.jpg","https://xcimg.szwego.com/20200821/i1597967590_3317_6.jpg","https://xcimg.szwego.com/20200821/i1597967590_2341_7.jpg","https://xcimg.szwego.com/20200821/i1597967590_9001_8.jpg"],"created_at":"2025-02-08T12:29:39.433Z"},{"id":"item-556a4b056527","sku":"_dVdVdEDlBoDKrW-k9OoZw7F-4vwnlIpdH_GbM1A","name_en":"【 巴黎世家】最新颜色💗颠覆潮流的大字母贝壳包~ 年度时尚界的顶端,街头风绝版的个性魅力款,不想撞包的,这是首选😊尺寸:26*12*22cm,超高品质👍 细节图","name_cn":"【 巴黎世家】最新颜色💗颠覆潮流的大字母贝壳包~ 年度时尚界的顶端,街头风绝版的个性魅力款,不想撞包的,这是首选😊尺寸:26*12*22cm,超高品质👍 细节图","specs":{"source":"wsxcme","sourceId":"_dVdVdEDlBoDKrW-k9OoZw7F-4vwnlIpdH_GbM1A","sourceTagId":80697835,"sourceTagName":"巴黎世家/女包","dimensions":{"lengthCm":26,"heightCm":12,"widthCm":22},"rawTitle":"【 巴黎世家】最新颜色💗颠覆潮流的大字母贝壳包~ 年度时尚界的顶端,街头风绝版的个性魅力款,不想撞包的,这是首选😊尺寸:26*12*22cm,超高品质👍 细节图"},"price":null,"currency":"CNY","moq":1,"category":"balenciaga-women-bags","status":"active","alibaba_url":null,"images":["https://xcimg.szwego.com/20200821/i1597967549_3941_0.jpg","https://xcimg.szwego.com/20200821/i1597967549_9753_1.jpg","https://xcimg.szwego.com/20200821/i1597967549_6711_2.jpg","https://xcimg.szwego.com/20200821/i1597967549_8511_3.jpg","https://xcimg.szwego.com/20200821/i1597967549_9629_4.jpg","https://xcimg.szwego.com/20200821/i1597967549_6042_5.jpg","https://xcimg.szwego.com/20200821/i1597967549_1340_6.jpg","https://xcimg.szwego.com/20200821/i1597967549_218_7.jpg","https://xcimg.szwego.com/20200821/i1597967549_6459_8.jpg"],"created_at":"2025-02-08T12:29:39.432Z"},{"id":"item-8e7a1b8e9347","sku":"_d8n8npKsh46Qc79v-lFEJ7LaKgFyAs7mjvuJGXA","name_en":"【 巴黎世家】最新颜色💗颠覆潮流的大字母贝壳包~ 年度时尚界的顶端,街头风绝版的个性魅力款,不想撞包的,这是首选😊尺寸:26*12*22cm,超高品质👍 细节图","name_cn":"【 巴黎世家】最新颜色💗颠覆潮流的大字母贝壳包~ 年度时尚界的顶端,街头风绝版的个性魅力款,不想撞包的,这是首选😊尺寸:26*12*22cm,超高品质👍 细节图","specs":{"source":"wsxcme","sourceId":"_d8n8npKsh46Qc79v-lFEJ7LaKgFyAs7mjvuJGXA","sourceTagId":80697835,"sourceTagName":"巴黎世家/女包","dimensions":{"lengthCm":26,"heightCm":12,"widthCm":22},"rawTitle":"【 巴黎世家】最新颜色💗颠覆潮流的大字母贝壳包~ 年度时尚界的顶端,街头风绝版的个性魅力款,不想撞包的,这是首选😊尺寸:26*12*22cm,超高品质👍 细节图"},"price":null,"currency":"CNY","moq":1,"category":"balenciaga-women-bags","status":"active","alibaba_url":null,"images":["https://xcimg.szwego.com/20200821/i1597967472_1620_0.jpg","https://xcimg.szwego.com/20200821/i1597967472_7051_1.jpg","https://xcimg.szwego.com/20200821/i1597967472_7406_2.jpg","https://xcimg.szwego.com/20200821/i1597967472_7153_3.jpg","https://xcimg.szwego.com/20200821/i1597967472_5121_4.jpg","https://xcimg.szwego.com/20200821/i1597967472_2179_5.jpg","https://xcimg.szwego.com/20200821/i1597967472_9717_6.jpg","https://xcimg.szwego.com/20200821/i1597967472_1604_7.jpg","https://xcimg.szwego.com/20200821/i1597967472_7833_8.jpg"],"created_at":"2025-02-08T12:29:39.431Z"},{"id":"item-13517eb52fc7","sku":"_dZZZZaIbfrGLbBHswC0RPXcqsOfHqsTzABGsU6Q","name_en":"【 巴黎世家】最新颜色💗颠覆潮流的大字母贝壳包~ 年度时尚界的顶端,街头风绝版的个性魅力款,不想撞包的,这是首选😊尺寸:26*12*22cm,超高品质👍 细节图","name_cn":"【 巴黎世家】最新颜色💗颠覆潮流的大字母贝壳包~ 年度时尚界的顶端,街头风绝版的个性魅力款,不想撞包的,这是首选😊尺寸:26*12*22cm,超高品质👍 细节图","specs":{"source":"wsxcme","sourceId":"_dZZZZaIbfrGLbBHswC0RPXcqsOfHqsTzABGsU6Q","sourceTagId":80697835,"sourceTagName":"巴黎世家/女包","dimensions":{"lengthCm":26,"heightCm":12,"widthCm":22},"rawTitle":"【 巴黎世家】最新颜色💗颠覆潮流的大字母贝壳包~ 年度时尚界的顶端,街头风绝版的个性魅力款,不想撞包的,这是首选😊尺寸:26*12*22cm,超高品质👍 细节图"},"price":null,"currency":"CNY","moq":1,"category":"balenciaga-women-bags","status":"active","alibaba_url":null,"images":["https://xcimg.szwego.com/20200821/i1597967399_220_0.jpg","https://xcimg.szwego.com/20200821/i1597967399_701_1.jpg","https://xcimg.szwego.com/20200821/i1597967399_5350_2.jpg","https://xcimg.szwego.com/20200821/i1597967399_5234_3.jpg","https://xcimg.szwego.com/20200821/i1597967399_7500_4.jpg","https://xcimg.szwego.com/20200821/i1597967399_7263_5.jpg","https://xcimg.szwego.com/20200821/i1597967399_5592_6.jpg","https://xcimg.szwego.com/20200821/i1597967399_7268_7.jpg","https://xcimg.szwego.com/20200821/i1597967399_7735_8.jpg"],"created_at":"2025-02-08T12:29:39.430Z"},{"id":"item-c02f826db239","sku":"_dC5C5L-xAgsBImapcgAFob8aYJ4djIGn1CgMkGw","name_en":"【 巴黎世家】最新颜色💗颠覆潮流的大字母贝壳包~ 年度时尚界的顶端,街头风绝版的个性魅力款,不想撞包的,这是首选😊尺寸:26*12*22cm,超高品质👍 细节图","name_cn":"【 巴黎世家】最新颜色💗颠覆潮流的大字母贝壳包~ 年度时尚界的顶端,街头风绝版的个性魅力款,不想撞包的,这是首选😊尺寸:26*12*22cm,超高品质👍 细节图","specs":{"source":"wsxcme","sourceId":"_dC5C5L-xAgsBImapcgAFob8aYJ4djIGn1CgMkGw","sourceTagId":80697835,"sourceTagName":"巴黎世家/女包","dimensions":{"lengthCm":26,"heightCm":12,"widthCm":22},"rawTitle":"【 巴黎世家】最新颜色💗颠覆潮流的大字母贝壳包~ 年度时尚界的顶端,街头风绝版的个性魅力款,不想撞包的,这是首选😊尺寸:26*12*22cm,超高品质👍 细节图"},"price":null,"currency":"CNY","moq":1,"category":"balenciaga-women-bags","status":"active","alibaba_url":null,"images":["https://xcimg.szwego.com/20200821/i1597967298_5137_0.jpg","https://xcimg.szwego.com/20200821/i1597967298_4831_1.jpg","https://xcimg.szwego.com/20200821/i1597967298_5506_2.jpg","https://xcimg.szwego.com/20200821/i1597967298_6509_3.jpg","https://xcimg.szwego.com/20200821/i1597967298_5277_4.jpg","https://xcimg.szwego.com/20200821/i1597967298_6294_5.jpg","https://xcimg.szwego.com/20200821/i1597967298_1900_6.jpg","https://xcimg.szwego.com/20200821/i1597967298_5545_7.jpg","https://xcimg.szwego.com/20200821/i1597967298_1576_8.jpg"],"created_at":"2025-02-08T12:29:39.429Z"},{"id":"item-e7223f138df4","sku":"_daUaUwlJlzwCzjT-_RcpFbJSyn2Kz40wVdMs_ng","name_en":"【巴黎世家】最新品颠覆潮流的大字母贝壳包XXS号超级mini可爱😊","name_cn":"【巴黎世家】最新品颠覆潮流的大字母贝壳包XXS号超级mini可爱😊\n2020年时尚界的顶端,街头风绝版的个性魅力款,不想撞包的,这是首选😂超高品质👍 细节图、尺寸18*8*15","specs":{"source":"wsxcme","sourceId":"_daUaUwlJlzwCzjT-_RcpFbJSyn2Kz40wVdMs_ng","sourceTagId":80697835,"sourceTagName":"巴黎世家/女包","rawTitle":"【巴黎世家】最新品颠覆潮流的大字母贝壳包XXS号超级mini可爱😊\n2020年时尚界的顶端,街头风绝版的个性魅力款,不想撞包的,这是首选😂超高品质👍 细节图、尺寸18*8*15"},"price":null,"currency":"CNY","moq":1,"category":"balenciaga-women-bags","status":"active","alibaba_url":null,"images":["https://xcimg.szwego.com/20200821/i1597967018_4327_0.jpg","https://xcimg.szwego.com/20200821/i1597967018_9027_1.jpg","https://xcimg.szwego.com/20200821/i1597967018_4498_2.jpg","https://xcimg.szwego.com/20200821/i1597967018_2493_3.jpg","https://xcimg.szwego.com/20200821/i1597967018_2635_4.jpg","https://xcimg.szwego.com/20200821/i1597967018_6782_5.jpg","https://xcimg.szwego.com/20200821/i1597967018_9165_6.jpg","https://xcimg.szwego.com/20200821/i1597967018_9737_7.jpg","https://xcimg.szwego.com/20200821/i1597967018_5707_8.jpg"],"created_at":"2025-02-08T12:29:39.428Z"},{"id":"item-8794af0ad00b","sku":"_dw2w2j1_OoBivU-1_lJXFFbveRJQLyjqArnFAGg","name_en":"【巴黎世家】最新品颠覆潮流的大字母贝壳包XXS号超级mini可爱😊","name_cn":"【巴黎世家】最新品颠覆潮流的大字母贝壳包XXS号超级mini可爱😊\n2020年时尚界的顶端,街头风绝版的个性魅力款,不想撞包的,这是首选😂超高品质👍 细节图、尺寸18*8*15","specs":{"source":"wsxcme","sourceId":"_dw2w2j1_OoBivU-1_lJXFFbveRJQLyjqArnFAGg","sourceTagId":80697835,"sourceTagName":"巴黎世家/女包","rawTitle":"【巴黎世家】最新品颠覆潮流的大字母贝壳包XXS号超级mini可爱😊\n2020年时尚界的顶端,街头风绝版的个性魅力款,不想撞包的,这是首选😂超高品质👍 细节图、尺寸18*8*15"},"price":null,"currency":"CNY","moq":1,"category":"balenciaga-women-bags","status":"active","alibaba_url":null,"images":["https://xcimg.szwego.com/20200821/i1597966970_6318_0.jpg","https://xcimg.szwego.com/20200821/i1597966970_5697_1.jpg","https://xcimg.szwego.com/20200821/i1597966970_3967_2.jpg","https://xcimg.szwego.com/20200821/i1597966970_3750_3.jpg","https://xcimg.szwego.com/20200821/i1597966970_8669_4.jpg","https://xcimg.szwego.com/20200821/i1597966970_4300_5.jpg","https://xcimg.szwego.com/20200821/i1597966970_1621_6.jpg","https://xcimg.szwego.com/20200821/i1597966970_3032_7.jpg","https://xcimg.szwego.com/20200821/i1597966970_4242_8.jpg"],"created_at":"2025-02-08T12:29:39.427Z"},{"id":"item-e5a390c709d2","sku":"_dHaHa4PZ_NYpaArKdA8_jaM1n8kiNP3i0bnB-WQ","name_en":"【巴黎世家】最新品颠覆潮流的大字母贝壳包XXS号超级mini可爱😊","name_cn":"【巴黎世家】最新品颠覆潮流的大字母贝壳包XXS号超级mini可爱😊\n2020年时尚界的顶端,街头风绝版的个性魅力款,不想撞包的,这是首选😂超高品质👍 细节图、尺寸18*8*15","specs":{"source":"wsxcme","sourceId":"_dHaHa4PZ_NYpaArKdA8_jaM1n8kiNP3i0bnB-WQ","sourceTagId":80697835,"sourceTagName":"巴黎世家/女包","rawTitle":"【巴黎世家】最新品颠覆潮流的大字母贝壳包XXS号超级mini可爱😊\n2020年时尚界的顶端,街头风绝版的个性魅力款,不想撞包的,这是首选😂超高品质👍 细节图、尺寸18*8*15"},"price":null,"currency":"CNY","moq":1,"category":"balenciaga-women-bags","status":"active","alibaba_url":null,"images":["https://xcimg.szwego.com/20200821/i1597966876_3678_0.jpg","https://xcimg.szwego.com/20200821/i1597966876_6297_1.jpg","https://xcimg.szwego.com/20200821/i1597966876_5734_2.jpg","https://xcimg.szwego.com/20200821/i1597966876_7022_3.jpg","https://xcimg.szwego.com/20200821/i1597966876_2861_4.jpg","https://xcimg.szwego.com/20200821/i1597966876_7772_5.jpg","https://xcimg.szwego.com/20200821/i1597966876_1518_6.jpg","https://xcimg.szwego.com/20200821/i1597966876_6136_7.jpg","https://xcimg.szwego.com/20200821/i1597966876_9088_8.jpg"],"created_at":"2025-02-08T12:29:39.426Z"},{"id":"item-e9201a8d37ea","sku":"_djOjOCwrOPK-f40agOJRhl1KPSQ8oTTNwbIfDZA","name_en":"【巴黎世家】最新品颠覆潮流的大字母贝壳包XXS号超级mini可爱😊","name_cn":"【巴黎世家】最新品颠覆潮流的大字母贝壳包XXS号超级mini可爱😊\n2020年时尚界的顶端,街头风绝版的个性魅力款,不想撞包的,这是首选😂超高品质👍 细节图、尺寸18*8*15","specs":{"source":"wsxcme","sourceId":"_djOjOCwrOPK-f40agOJRhl1KPSQ8oTTNwbIfDZA","sourceTagId":80697835,"sourceTagName":"巴黎世家/女包","rawTitle":"【巴黎世家】最新品颠覆潮流的大字母贝壳包XXS号超级mini可爱😊\n2020年时尚界的顶端,街头风绝版的个性魅力款,不想撞包的,这是首选😂超高品质👍 细节图、尺寸18*8*15"},"price":null,"currency":"CNY","moq":1,"category":"balenciaga-women-bags","status":"active","alibaba_url":null,"images":["https://xcimg.szwego.com/20200821/i1597966799_4663_0.jpg","https://xcimg.szwego.com/20200821/i1597966799_1158_1.jpg","https://xcimg.szwego.com/20200821/i1597966799_7283_2.jpg","https://xcimg.szwego.com/20200821/i1597966799_2907_3.jpg","https://xcimg.szwego.com/20200821/i1597966799_3237_4.jpg","https://xcimg.szwego.com/20200821/i1597966799_2196_5.jpg","https://xcimg.szwego.com/20200821/i1597966799_4838_6.jpg","https://xcimg.szwego.com/20200821/i1597966799_648_7.jpg","https://xcimg.szwego.com/20200821/i1597966799_3242_8.jpg"],"created_at":"2025-02-08T12:29:39.425Z"},{"id":"item-8a574a261efb","sku":"_dCFCFxxh63pZmKXSAOsRHf5N5LnBRmGudSzhkgQ","name_en":"【巴黎世家】最新品颠覆潮流的大字母贝壳包XXS号超级mini可爱😊","name_cn":"【巴黎世家】最新品颠覆潮流的大字母贝壳包XXS号超级mini可爱😊\n2020年时尚界的顶端,街头风绝版的个性魅力款,不想撞包的,这是首选😂超高品质👍 细节图、尺寸18*8*15","specs":{"source":"wsxcme","sourceId":"_dCFCFxxh63pZmKXSAOsRHf5N5LnBRmGudSzhkgQ","sourceTagId":80697835,"sourceTagName":"巴黎世家/女包","rawTitle":"【巴黎世家】最新品颠覆潮流的大字母贝壳包XXS号超级mini可爱😊\n2020年时尚界的顶端,街头风绝版的个性魅力款,不想撞包的,这是首选😂超高品质👍 细节图、尺寸18*8*15"},"price":null,"currency":"CNY","moq":1,"category":"balenciaga-women-bags","status":"active","alibaba_url":null,"images":["https://xcimg.szwego.com/20200821/i1597966758_1631_0.jpg","https://xcimg.szwego.com/20200821/i1597966758_4885_1.jpg","https://xcimg.szwego.com/20200821/i1597966758_3745_2.jpg","https://xcimg.szwego.com/20200821/i1597966758_9905_3.jpg","https://xcimg.szwego.com/20200821/i1597966758_2694_4.jpg","https://xcimg.szwego.com/20200821/i1597966758_4817_5.jpg","https://xcimg.szwego.com/20200821/i1597966758_3784_6.jpg","https://xcimg.szwego.com/20200821/i1597966758_9732_7.jpg","https://xcimg.szwego.com/20200821/i1597966758_3573_8.jpg"],"created_at":"2025-02-08T12:29:39.424Z"},{"id":"item-4d959ee3366a","sku":"_dususmXlqkEn5YpZmnCaaA6V1URjyaXvf1yRj1A","name_en":"【巴黎世家】最新品颠覆潮流的大字母贝壳包XXS号超级mini可爱😊","name_cn":"【巴黎世家】最新品颠覆潮流的大字母贝壳包XXS号超级mini可爱😊\n2020年时尚界的顶端,街头风绝版的个性魅力款,不想撞包的,这是首选😂超高品质👍 细节图、尺寸18*8*15","specs":{"source":"wsxcme","sourceId":"_dususmXlqkEn5YpZmnCaaA6V1URjyaXvf1yRj1A","sourceTagId":80697835,"sourceTagName":"巴黎世家/女包","rawTitle":"【巴黎世家】最新品颠覆潮流的大字母贝壳包XXS号超级mini可爱😊\n2020年时尚界的顶端,街头风绝版的个性魅力款,不想撞包的,这是首选😂超高品质👍 细节图、尺寸18*8*15"},"price":null,"currency":"CNY","moq":1,"category":"balenciaga-women-bags","status":"active","alibaba_url":null,"images":["https://xcimg.szwego.com/20200821/i1597966616_1314_0.jpg","https://xcimg.szwego.com/20200821/i1597966616_3964_1.jpg","https://xcimg.szwego.com/20200821/i1597966616_1942_2.jpg","https://xcimg.szwego.com/20200821/i1597966616_2647_3.jpg","https://xcimg.szwego.com/20200821/i1597966616_1801_4.jpg","https://xcimg.szwego.com/20200821/i1597966616_8259_5.jpg","https://xcimg.szwego.com/20200821/i1597966616_2015_6.jpg","https://xcimg.szwego.com/20200821/i1597966616_8021_7.jpg","https://xcimg.szwego.com/20200821/i1597966616_9869_8.jpg"],"created_at":"2025-02-08T12:29:39.423Z"},{"id":"item-93b7fbfa61d4","sku":"_duRuRkdYgn8bGqVFeI91UUq-UZ5RY5sy6SwFVNg","name_en":"【巴黎世家】最新品颠覆潮流的大字母贝壳包XXS号超级mini可爱😊","name_cn":"【巴黎世家】最新品颠覆潮流的大字母贝壳包XXS号超级mini可爱😊\n2020年时尚界的顶端,街头风绝版的个性魅力款,不想撞包的,这是首选😂超高品质👍 细节图、尺寸18*8*15","specs":{"source":"wsxcme","sourceId":"_duRuRkdYgn8bGqVFeI91UUq-UZ5RY5sy6SwFVNg","sourceTagId":80697835,"sourceTagName":"巴黎世家/女包","rawTitle":"【巴黎世家】最新品颠覆潮流的大字母贝壳包XXS号超级mini可爱😊\n2020年时尚界的顶端,街头风绝版的个性魅力款,不想撞包的,这是首选😂超高品质👍 细节图、尺寸18*8*15"},"price":null,"currency":"CNY","moq":1,"category":"balenciaga-women-bags","status":"active","alibaba_url":null,"images":["https://xcimg.szwego.com/20200821/i1597966394_5377_0.jpg","https://xcimg.szwego.com/20200821/i1597966394_3873_1.jpg","https://xcimg.szwego.com/20200821/i1597966394_932_2.jpg","https://xcimg.szwego.com/20200821/i1597966394_1730_3.jpg","https://xcimg.szwego.com/20200821/i1597966394_1455_4.jpg","https://xcimg.szwego.com/20200821/i1597966394_6701_5.jpg","https://xcimg.szwego.com/20200821/i1597966394_5293_6.jpg","https://xcimg.szwego.com/20200821/i1597966394_4458_7.jpg","https://xcimg.szwego.com/20200821/i1597966394_8160_8.jpg"],"created_at":"2025-02-08T12:29:39.422Z"}],"page":206,"pageSize":24,"total":10075,"totalPages":420}
