{"items":[{"id":"item-c714a9f09ae6","sku":"_dMDMDeq3YfCDGND2luIkIe3zaKxEUHwlXG4yGOQ","name_en":"Little White Snake","name_cn":"Little White Snake","specs":{"source":"wsxcme","sourceId":"_dMDMDeq3YfCDGND2luIkIe3zaKxEUHwlXG4yGOQ","sourceTagId":47002756,"sourceTagName":"/women's bag","rawTitle":"Little White Snake"},"price":null,"currency":"CNY","moq":1,"category":"bvlgari-women-bags","status":"active","alibaba_url":null,"images":["https://xcimg.szwego.com/20240809/i1723191949_9233_0.jpg"],"created_at":"2024-09-27T06:51:04.161Z"},{"id":"item-8d7e52e402d6","sku":"_d8e8e_r4q0CeSsqCvbzhECaxUpEZ08Cpa_Bb0uw","name_en":"Details~","name_cn":"Details~","specs":{"source":"wsxcme","sourceId":"_d8e8e_r4q0CeSsqCvbzhECaxUpEZ08Cpa_Bb0uw","sourceTagId":47002756,"sourceTagName":"/women's bag","rawTitle":"Details~"},"price":null,"currency":"CNY","moq":1,"category":"bvlgari-women-bags","status":"active","alibaba_url":null,"images":["https://xcimg.szwego.com/20240809/i1723191500_4631_0.jpg","https://xcimg.szwego.com/20240809/i1723191500_765_1.jpg","https://xcimg.szwego.com/20240809/i1723191500_2817_2.jpg","https://xcimg.szwego.com/20240809/i1723191500_5574_3.jpg","https://xcimg.szwego.com/20240809/i1723191500_2934_4.jpg"],"created_at":"2024-09-27T06:51:04.156Z"},{"id":"item-4a162d0a729e","sku":"_dmTmT6jyyxMWIM5z_kgQKCG1223yvAqDXLLjodQ","name_en":"Wang Wen~","name_cn":"Wang Wen~","specs":{"source":"wsxcme","sourceId":"_dmTmT6jyyxMWIM5z_kgQKCG1223yvAqDXLLjodQ","sourceTagId":47002756,"sourceTagName":"/women's bag","rawTitle":"Wang Wen~"},"price":null,"currency":"CNY","moq":1,"category":"bvlgari-women-bags","status":"active","alibaba_url":null,"images":["https://xcimg.szwego.com/20230329/i1680070106_8705_0.jpg"],"created_at":"2024-09-27T06:51:04.152Z"},{"id":"item-dd7255db2539","sku":"_dDjDjRqnvo_F81tyQFnnDP3YanIn3yEcRIXrYaQ","name_en":"In Stock Photos~","name_cn":"In Stock Photos~","specs":{"source":"wsxcme","sourceId":"_dDjDjRqnvo_F81tyQFnnDP3YanIn3yEcRIXrYaQ","sourceTagId":47002756,"sourceTagName":"/women's bag","rawTitle":"In Stock Photos~"},"price":null,"currency":"CNY","moq":1,"category":"bvlgari-women-bags","status":"active","alibaba_url":null,"images":["https://xcimg.szwego.com/20230329/i1680069417_549_0.jpg","https://xcimg.szwego.com/20230329/i1680069417_7001_1.jpg","https://xcimg.szwego.com/20230329/i1680069417_1210_2.jpg","https://xcimg.szwego.com/20230329/i1680069417_4227_3.jpg"],"created_at":"2024-09-27T06:51:04.151Z"},{"id":"item-1ae506712554","sku":"_d6Z6ZoUJkHwCTxhARg8e4kpTvgNUnhu2nkROtCw","name_en":"Look on body + Capacity","name_cn":"Look on body + Capacity","specs":{"source":"wsxcme","sourceId":"_d6Z6ZoUJkHwCTxhARg8e4kpTvgNUnhu2nkROtCw","sourceTagId":47002756,"sourceTagName":"/women's bag","rawTitle":"Look on body + Capacity"},"price":null,"currency":"CNY","moq":1,"category":"bvlgari-women-bags","status":"active","alibaba_url":null,"images":["https://xcimg.szwego.com/20230329/i1680069864_3966_0.jpg","https://xcimg.szwego.com/20230329/i1680069864_9890_1.jpg","https://xcimg.szwego.com/20230329/i1680069864_2913_2.jpg"],"created_at":"2024-09-27T06:51:04.150Z"},{"id":"item-b1f24f5ebcf7","sku":"_dsvsvGvNWUDyxfL9IHNdcfE_A5bNAVaMWLnJ8mA","name_en":"Elegant and lively, showcasing the dazzling charm of exquisite beauty","name_cn":"Elegant and lively, showcasing the dazzling charm of exquisite beauty","specs":{"source":"wsxcme","sourceId":"_dsvsvGvNWUDyxfL9IHNdcfE_A5bNAVaMWLnJ8mA","sourceTagId":47002756,"sourceTagName":"/women's bag","rawTitle":"Elegant and lively, showcasing the dazzling charm of exquisite beauty"},"price":null,"currency":"CNY","moq":1,"category":"bvlgari-women-bags","status":"active","alibaba_url":null,"images":["https://xcimg.szwego.com/20230329/i1680069525_9481_0.jpg","https://xcimg.szwego.com/20230329/i1680069525_7031_1.jpg","https://xcimg.szwego.com/20230329/i1680069525_3652_2.jpg"],"created_at":"2024-09-27T06:51:04.149Z"},{"id":"item-57cc95efeb8b","sku":"_dlIlIqIo_A1lfSXJFiZA0nribCmGFdXcPhLZHsA","name_en":"Authentic Grade","name_cn":"Authentic Grade\n The \"SERPENTI CABOCHON\" series mini shoulder bag features a distinctive large-scale graphic pattern and bold metallic texture details, radiating the brilliance of the SERPENTI world with a refined and practical unique design and modern style.\n This handbag is equipped with an adjustable and detachable leather shoulder strap, serving as a handbag or clutch to achieve versatile and matching functions, suitable for both day and night.\n Extra small, with one storage compartment and one card slot. Engraved BVLGARI brand logo on the interior metal plate.\n Model: 291085\n Dimensions: 18 X 12 X 8 cm","specs":{"source":"wsxcme","sourceId":"_dlIlIqIo_A1lfSXJFiZA0nribCmGFdXcPhLZHsA","sourceTagId":47002756,"sourceTagName":"/women's bag","modelNumber":"291085","dimensions":{"lengthCm":18,"heightCm":12,"widthCm":8},"rawTitle":"Authentic Grade\n The \"SERPENTI CABOCHON\" series mini shoulder bag features a distinctive large-scale graphic pattern and bold metallic texture details, radiating the brilliance of the SERPENTI world with a refined and practical unique design and modern style.\n This handbag is equipped with an adjustable and detachable leather shoulder strap, serving as a handbag or clutch to achieve versatile and matching functions, suitable for both day and night.\n Extra small, with one storage compartment and one card slot. Engraved BVLGARI brand logo on the interior metal plate.\n Model: 291085\n Dimensions: 18 X 12 X 8 cm"},"price":null,"currency":"CNY","moq":1,"category":"bvlgari-women-bags","status":"active","alibaba_url":null,"images":["https://xcimg.szwego.com/20230329/i1680069373_6346_0.jpg","https://xcimg.szwego.com/20230329/i1680069373_319_1.jpg","https://xcimg.szwego.com/20230329/i1680069373_8144_2.jpg","https://xcimg.szwego.com/20230329/i1680069373_8541_3.jpg","https://xcimg.szwego.com/20230329/i1680069373_7666_4.jpg","https://xcimg.szwego.com/20230329/i1680069373_2812_5.jpg","https://xcimg.szwego.com/20230329/i1680069373_832_6.jpg","https://xcimg.szwego.com/20230329/i1680069373_4395_7.jpg","https://xcimg.szwego.com/20230329/i1680069373_6010_8.jpg"],"created_at":"2024-09-27T06:51:04.148Z"},{"id":"item-b7c3b913e986","sku":"_dk3k3ZBu4OKPQ5w5XvoZGLJMLfVsi8HVrMdJHjg","name_en":"Random photos of the bag on body~","name_cn":"Random photos of the bag on body~","specs":{"source":"wsxcme","sourceId":"_dk3k3ZBu4OKPQ5w5XvoZGLJMLfVsi8HVrMdJHjg","sourceTagId":47002756,"sourceTagName":"/women's bag","rawTitle":"Random photos of the bag on body~"},"price":null,"currency":"CNY","moq":1,"category":"bvlgari-women-bags","status":"active","alibaba_url":null,"images":["https://xcimg.szwego.com/20230329/i1680068700_2603_0.jpg","https://xcimg.szwego.com/20230329/i1680068700_8185_1.jpg","https://xcimg.szwego.com/20230329/i1680068700_8172_2.jpg","https://xcimg.szwego.com/20230329/i1680068700_3729_3.jpg"],"created_at":"2024-09-27T06:51:04.147Z"},{"id":"item-a3ec72b5b734","sku":"_dkTkTILue5r4s7QDLclD-wiJUhm-R2bTVtjEN6A","name_en":"Store photo","name_cn":"Store photo","specs":{"source":"wsxcme","sourceId":"_dkTkTILue5r4s7QDLclD-wiJUhm-R2bTVtjEN6A","sourceTagId":47002756,"sourceTagName":"/women's bag","rawTitle":"Store photo"},"price":null,"currency":"CNY","moq":1,"category":"bvlgari-women-bags","status":"active","alibaba_url":null,"images":["https://xcimg.szwego.com/20230329/i1680022318_761_0.jpg","https://xcimg.szwego.com/20230329/i1680022318_8968_1.jpg"],"created_at":"2024-09-27T06:51:04.142Z"},{"id":"item-69d24c6990e9","sku":"_doOoOKQZ3X8KdQYmvUE9AVanfxGY1KRDlIVkSnA","name_en":"Genuine quality","name_cn":"Genuine quality\n The SERPENTI CABOCHON mini shoulder bag features a distinctive large-scale graphic pattern and bold metal texture details, radiating the brilliance of the SERPENTI world with its exquisite, practical, unique design and modern style.\nThis bag is equipped with an adjustable and detachable leather shoulder strap, serving as a handbag or clutch to achieve versatile styling suitable for both day and night.\nExtra-small size with one storage compartment and one card slot. Engraved BVLGARI brand logo on the interior metal plate.\nModel: 291085\nDimensions: 18 x 12 x 8 cm","specs":{"source":"wsxcme","sourceId":"_doOoOKQZ3X8KdQYmvUE9AVanfxGY1KRDlIVkSnA","sourceTagId":47002756,"sourceTagName":"/women's bag","modelNumber":"291085","dimensions":{"lengthCm":18,"heightCm":12,"widthCm":8},"rawTitle":"Genuine quality\n The SERPENTI CABOCHON mini shoulder bag features a distinctive large-scale graphic pattern and bold metal texture details, radiating the brilliance of the SERPENTI world with its exquisite, practical, unique design and modern style.\nThis bag is equipped with an adjustable and detachable leather shoulder strap, serving as a handbag or clutch to achieve versatile styling suitable for both day and night.\nExtra-small size with one storage compartment and one card slot. Engraved BVLGARI brand logo on the interior metal plate.\nModel: 291085\nDimensions: 18 x 12 x 8 cm"},"price":null,"currency":"CNY","moq":1,"category":"bvlgari-women-bags","status":"active","alibaba_url":null,"images":["https://xcimg.szwego.com/20230329/i1680022145_8530_0.jpg","https://xcimg.szwego.com/20230329/i1680022145_6205_1.jpg","https://xcimg.szwego.com/20230329/i1680022145_6238_2.jpg","https://xcimg.szwego.com/20230329/i1680022145_3043_3.jpg","https://xcimg.szwego.com/20230329/i1680022145_6918_4.jpg","https://xcimg.szwego.com/20230329/i1680022145_7271_5.jpg","https://xcimg.szwego.com/20230329/i1680022145_3244_6.jpg","https://xcimg.szwego.com/20230329/i1680022145_1658_7.jpg","https://xcimg.szwego.com/20230329/i1680022145_4572_8.jpg"],"created_at":"2024-09-27T06:51:04.140Z"},{"id":"item-c93f60bd564b","sku":"_dvkvkFhUiPAqFcZcMtpx_N7kiGY61ICBP3-2X-w","name_en":"Collection ❤️","name_cn":"Collection ❤️","specs":{"source":"wsxcme","sourceId":"_dvkvkFhUiPAqFcZcMtpx_N7kiGY61ICBP3-2X-w","sourceTagId":47002756,"sourceTagName":"/women's bag","rawTitle":"Collection ❤️"},"price":null,"currency":"CNY","moq":1,"category":"bvlgari-women-bags","status":"active","alibaba_url":null,"images":["https://xcimg.szwego.com/20230418/i1681812978_7263_0.jpg","https://xcimg.szwego.com/20230418/i1681812978_835_1.jpg","https://xcimg.szwego.com/20230803/i1691051548_9162_0.jpg","https://xcimg.szwego.com/20230803/i1691051562_3934_0.jpg"],"created_at":"2024-09-27T06:51:04.137Z"},{"id":"item-8ffd434e60ea","sku":"_dyXyXOOSkiJjLIC3OV0bGIJkpOOGjEtFzZRb2iw","name_en":"25cm VS 19cm","name_cn":"25cm VS 19cm","specs":{"source":"wsxcme","sourceId":"_dyXyXOOSkiJjLIC3OV0bGIJkpOOGjEtFzZRb2iw","sourceTagId":47002756,"sourceTagName":"/women's bag","rawTitle":"25cm VS 19cm"},"price":null,"currency":"CNY","moq":1,"category":"bvlgari-women-bags","status":"active","alibaba_url":null,"images":["https://xcimg.szwego.com/20230418/i1681812757_2309_0.jpg"],"created_at":"2024-09-27T06:51:04.136Z"},{"id":"item-f6a2ba9b0ffb","sku":"_d_R_RLoF1z6V0j96mjqyGc6KFUxdqhxuuuRK18Q","name_en":"Genuine quality","name_cn":"Genuine quality\nBVLGARI SERPENTI FOREVER shoulder bag\nModel: 289676\nDimensions: 19-13-7cm\nThe new \"Serpenti Forever\" series shoulder bag highlights urban style and fashion versatility, adding a unique trendy touch to the Serpenti world. This bag is crafted from peach-colored calfskin with light gold-plated brass accessories. Black and white agate enamel and green malachite sensual eyes add a bewitching charm to the classic snake head clasp. An adjustable serpentine chain and leather shoulder strap easily match stylish daywear.\nSmall size, two compartments, and a delicate vanity mirror on one side that can be personalized. An unremovable credit card holder, an open pocket, a zip pocket, and two external pockets.","specs":{"source":"wsxcme","sourceId":"_d_R_RLoF1z6V0j96mjqyGc6KFUxdqhxuuuRK18Q","sourceTagId":47002756,"sourceTagName":"/women's bag","modelNumber":"289676","rawTitle":"Genuine quality\nBVLGARI SERPENTI FOREVER shoulder bag\nModel: 289676\nDimensions: 19-13-7cm\nThe new \"Serpenti Forever\" series shoulder bag highlights urban style and fashion versatility, adding a unique trendy touch to the Serpenti world. This bag is crafted from peach-colored calfskin with light gold-plated brass accessories. Black and white agate enamel and green malachite sensual eyes add a bewitching charm to the classic snake head clasp. An adjustable serpentine chain and leather shoulder strap easily match stylish daywear.\nSmall size, two compartments, and a delicate vanity mirror on one side that can be personalized. An unremovable credit card holder, an open pocket, a zip pocket, and two external pockets."},"price":null,"currency":"CNY","moq":1,"category":"bvlgari-women-bags","status":"active","alibaba_url":null,"images":["https://xcimg.szwego.com/20230418/i1681812529_5369_0.jpg","https://xcimg.szwego.com/20230418/i1681812529_6333_1.jpg","https://xcimg.szwego.com/20230418/i1681812529_6632_2.jpg","https://xcimg.szwego.com/20230418/i1681812529_6432_3.jpg","https://xcimg.szwego.com/20230418/i1681812529_6985_4.jpg","https://xcimg.szwego.com/20230418/i1681812529_8620_5.jpg","https://xcimg.szwego.com/20230418/i1681812529_6754_6.jpg","https://xcimg.szwego.com/20230418/i1681812529_3660_7.jpg","https://xcimg.szwego.com/20230418/i1681812529_3230_8.jpg"],"created_at":"2024-09-27T06:51:04.135Z"},{"id":"item-d0588a49bf43","sku":"_duOuO2NORhhwvjqpozctPLvQ3EG_JRt0YVe2F3w","name_en":"Genuine quality","name_cn":"Genuine quality\nBVLGARI SERPENTI FOREVER\nShoulder bag\nModel: 29032\nDimensions: 25-17-8cm\nThe new \"Serpenti Forever\" series shoulder bag highlights urban style and fashion versatility, adding a unique trendy touch to the Serpenti world. This bag is crafted from peach-colored calfskin with light gold-plated brass accessories. Black and white agate enamel and green malachite sensual eyes add a bewitching charm to the classic snake head clasp. An adjustable serpentine chain and leather shoulder strap easily match stylish daywear.\nMedium size, two storage compartments and a small vanity mirror. An open pocket, a zip pocket, and two external pockets.","specs":{"source":"wsxcme","sourceId":"_duOuO2NORhhwvjqpozctPLvQ3EG_JRt0YVe2F3w","sourceTagId":47002756,"sourceTagName":"/women's bag","modelNumber":"29032","rawTitle":"Genuine quality\nBVLGARI SERPENTI FOREVER\nShoulder bag\nModel: 29032\nDimensions: 25-17-8cm\nThe new \"Serpenti Forever\" series shoulder bag highlights urban style and fashion versatility, adding a unique trendy touch to the Serpenti world. This bag is crafted from peach-colored calfskin with light gold-plated brass accessories. Black and white agate enamel and green malachite sensual eyes add a bewitching charm to the classic snake head clasp. An adjustable serpentine chain and leather shoulder strap easily match stylish daywear.\nMedium size, two storage compartments and a small vanity mirror. An open pocket, a zip pocket, and two external pockets."},"price":null,"currency":"CNY","moq":1,"category":"bvlgari-women-bags","status":"active","alibaba_url":null,"images":["https://xcimg.szwego.com/20230418/i1681812300_8061_0.jpg","https://xcimg.szwego.com/20230418/i1681812300_3482_1.jpg","https://xcimg.szwego.com/20230418/i1681812300_7944_2.jpg","https://xcimg.szwego.com/20230418/i1681812300_757_3.jpg","https://xcimg.szwego.com/20230418/i1681812300_3095_4.jpg","https://xcimg.szwego.com/20230418/i1681812300_9736_5.jpg","https://xcimg.szwego.com/20230418/i1681812300_4030_6.jpg","https://xcimg.szwego.com/20230418/i1681812300_5551_7.jpg","https://xcimg.szwego.com/20230418/i1681812300_1956_8.jpg"],"created_at":"2024-09-27T06:51:04.134Z"},{"id":"item-c59472d4db7b","sku":"_dbzbzbemy7XphmKwmf77qn5Co_FCG4_kJ1kJsgQ","name_en":"Bvlgari Women Bags","name_cn":"/women's bag","specs":{"source":"wsxcme","sourceId":"_dbzbzbemy7XphmKwmf77qn5Co_FCG4_kJ1kJsgQ","sourceTagId":47002756,"sourceTagName":"/women's bag","rawTitle":""},"price":null,"currency":"CNY","moq":1,"category":"bvlgari-women-bags","status":"active","alibaba_url":null,"images":["https://xcimg.szwego.com/20230418/i1681811537_6824_0.jpg"],"created_at":"2024-09-27T06:51:04.128Z"},{"id":"item-444c3803ed2f","sku":"_d_L_L2tOwcIH0bC6cFRCtt02Gf0uD4EYIierCmw","name_en":"What is the Happy Planet~~ Only the white Bvlgari Chi Chi.","name_cn":"What is the Happy Planet~~ Only the white Bvlgari Chi Chi.\n25cm double-layer in stock","specs":{"source":"wsxcme","sourceId":"_d_L_L2tOwcIH0bC6cFRCtt02Gf0uD4EYIierCmw","sourceTagId":47002756,"sourceTagName":"/women's bag","rawTitle":"What is the Happy Planet~~ Only the white Bvlgari Chi Chi.\n25cm double-layer in stock"},"price":null,"currency":"CNY","moq":1,"category":"bvlgari-women-bags","status":"active","alibaba_url":null,"images":["https://xcimg.szwego.com/20230418/i1681811483_6652_0.jpg","https://xcimg.szwego.com/20230418/i1681811483_7428_1.jpg","https://xcimg.szwego.com/20230418/i1681811483_7348_2.jpg"],"created_at":"2024-09-27T06:51:04.127Z"},{"id":"item-c39621d6fb2f","sku":"_dtBtB3ugQ-jOUoHCTjU5s0UAnX7cLHQDYeZ8jgg","name_en":"Bvlgari❤ New Handbag Shoulder Bag, 5 colors in stock~","name_cn":"Bvlgari❤ New Handbag Shoulder Bag, 5 colors in stock~","specs":{"source":"wsxcme","sourceId":"_dtBtB3ugQ-jOUoHCTjU5s0UAnX7cLHQDYeZ8jgg","sourceTagId":47002756,"sourceTagName":"/women's bag","rawTitle":"Bvlgari❤ New Handbag Shoulder Bag, 5 colors in stock~"},"price":null,"currency":"CNY","moq":1,"category":"bvlgari-women-bags","status":"active","alibaba_url":null,"images":["https://xcimg.szwego.com/20220602/i1654155853_9034_0.jpg","https://xcimg.szwego.com/20220614/i1655186704_6477_0.jpg","https://xcimg.szwego.com/20220602/i1654155853_4539_1.jpg","https://xcimg.szwego.com/20220602/i1654155853_9177_2.jpg","https://xcimg.szwego.com/20230807/i1691392697_8171_0.jpg"],"created_at":"2024-09-27T06:51:04.125Z"},{"id":"item-569473646974","sku":"_dnHnH-2iF5ldjr6G8lWeE36IPwU9lPGxw7vKD_g","name_en":"Genuine quality","name_cn":"Genuine quality\n. 🆕SERPENTI FOREVER EAST-WEST Series Small Shoulder Bag❤\nCrafted from white calfskin leather, interpreting timeless elegance with a fashionable and avant-garde design.\nThe piece features a practical leather shoulder strap, adorned with a classic snake-head magnetic clasp. Its enchanting scales and design draw inspiration from the 1960s SERPENTI jewelry collection, suitable for daily wear. It includes a single compartment, a front pocket, a back patch pocket, an interior quilted pocket, three card slots, a customizable vanity mirror, and a BULGARI metal logo on the back.\nSize: 22 X 15 X 4.5 cm\nModel: 292104","specs":{"source":"wsxcme","sourceId":"_dnHnH-2iF5ldjr6G8lWeE36IPwU9lPGxw7vKD_g","sourceTagId":47002756,"sourceTagName":"/women's bag","modelNumber":"292104","dimensions":{"lengthCm":22,"heightCm":15,"widthCm":4.5},"rawTitle":"Genuine quality\n. 🆕SERPENTI FOREVER EAST-WEST Series Small Shoulder Bag❤\nCrafted from white calfskin leather, interpreting timeless elegance with a fashionable and avant-garde design.\nThe piece features a practical leather shoulder strap, adorned with a classic snake-head magnetic clasp. Its enchanting scales and design draw inspiration from the 1960s SERPENTI jewelry collection, suitable for daily wear. It includes a single compartment, a front pocket, a back patch pocket, an interior quilted pocket, three card slots, a customizable vanity mirror, and a BULGARI metal logo on the back.\nSize: 22 X 15 X 4.5 cm\nModel: 292104"},"price":null,"currency":"CNY","moq":1,"category":"bvlgari-women-bags","status":"active","alibaba_url":null,"images":["https://xcimg.szwego.com/20230807/i1691392455_3722_0.jpg","https://xcimg.szwego.com/20230807/i1691392455_8500_1.jpg","https://xcimg.szwego.com/20230807/i1691392455_9767_2.jpg","https://xcimg.szwego.com/20230807/i1691392455_1885_3.jpg","https://xcimg.szwego.com/20230807/i1691392455_3929_4.jpg","https://xcimg.szwego.com/20230807/i1691392455_7250_5.jpg","https://xcimg.szwego.com/20230807/i1691392455_1281_6.jpg","https://xcimg.szwego.com/20230807/i1691392455_1340_7.jpg","https://xcimg.szwego.com/20230807/i1691392455_6682_8.jpg"],"created_at":"2024-09-27T06:51:04.122Z"},{"id":"item-1b79cee857c2","sku":"_dxkxkb3TMmT5PTuHxQLDf09tPdx0EzvZHfZt4-w","name_en":"Bvlgari Women Bags","name_cn":"/women's bag","specs":{"source":"wsxcme","sourceId":"_dxkxkb3TMmT5PTuHxQLDf09tPdx0EzvZHfZt4-w","sourceTagId":47002756,"sourceTagName":"/women's bag","rawTitle":""},"price":null,"currency":"CNY","moq":1,"category":"bvlgari-women-bags","status":"active","alibaba_url":null,"images":["https://xcimg.szwego.com/20220614/i1655186362_8065_0.jpg"],"created_at":"2024-09-27T06:51:04.121Z"},{"id":"item-d050c5e3a706","sku":"_duuuuQpj38L6z9v4rsRl2xs9DhWfXoh_igG1Mbw","name_en":"Effortlessly versatile for various styles","name_cn":"Effortlessly versatile for various styles","specs":{"source":"wsxcme","sourceId":"_duuuuQpj38L6z9v4rsRl2xs9DhWfXoh_igG1Mbw","sourceTagId":47002756,"sourceTagName":"/women's bag","rawTitle":"Effortlessly versatile for various styles"},"price":null,"currency":"CNY","moq":1,"category":"bvlgari-women-bags","status":"active","alibaba_url":null,"images":["https://xcimg.szwego.com/20221220/i1671550783_6493_0.jpg"],"created_at":"2024-09-27T06:51:04.120Z"},{"id":"item-8b627c449f84","sku":"_do_o_r3esZ0lG8_GOc_mesPrj0hgAQ1_bw0ebqw","name_en":"White#On-body photo","name_cn":"White#On-body photo\nModel: 292104","specs":{"source":"wsxcme","sourceId":"_do_o_r3esZ0lG8_GOc_mesPrj0hgAQ1_bw0ebqw","sourceTagId":47002756,"sourceTagName":"/women's bag","modelNumber":"292104","rawTitle":"White#On-body photo\nModel: 292104"},"price":null,"currency":"CNY","moq":1,"category":"bvlgari-women-bags","status":"active","alibaba_url":null,"images":["https://xcimg.szwego.com/20220614/i1655186402_7921_0.jpg","https://xcimg.szwego.com/20220614/i1655186402_3839_1.jpg","https://xcimg.szwego.com/20220614/i1655186402_9709_2.jpg"],"created_at":"2024-09-27T06:51:04.119Z"},{"id":"item-79c14566e04a","sku":"_dlclcrDi6ZL3gqVk1XM7n_3QQBfVyA_tBt7Yj6A","name_en":"Genuine quality","name_cn":"Genuine quality\n🆕SERPENTI FOREVER EAST-WEST Series Small Shoulder Bag❤\nCrafted from white calfskin leather, interpreting timeless elegance with a fashionable and avant-garde design.\nThe piece features a practical leather shoulder strap, adorned with a classic snake-head magnetic clasp. Its enchanting scales and design draw inspiration from the 1960s SERPENTI jewelry collection, suitable for daily wear. It includes a single compartment, a front pocket, a back patch pocket, an interior quilted pocket, three card slots, a customizable vanity mirror, and a BULGARI metal logo on the back.\nSize: 22 X 15 X 4.5 cm\nModel: 292104","specs":{"source":"wsxcme","sourceId":"_dlclcrDi6ZL3gqVk1XM7n_3QQBfVyA_tBt7Yj6A","sourceTagId":47002756,"sourceTagName":"/women's bag","modelNumber":"292104","dimensions":{"lengthCm":22,"heightCm":15,"widthCm":4.5},"rawTitle":"Genuine quality\n🆕SERPENTI FOREVER EAST-WEST Series Small Shoulder Bag❤\nCrafted from white calfskin leather, interpreting timeless elegance with a fashionable and avant-garde design.\nThe piece features a practical leather shoulder strap, adorned with a classic snake-head magnetic clasp. Its enchanting scales and design draw inspiration from the 1960s SERPENTI jewelry collection, suitable for daily wear. It includes a single compartment, a front pocket, a back patch pocket, an interior quilted pocket, three card slots, a customizable vanity mirror, and a BULGARI metal logo on the back.\nSize: 22 X 15 X 4.5 cm\nModel: 292104"},"price":null,"currency":"CNY","moq":1,"category":"bvlgari-women-bags","status":"active","alibaba_url":null,"images":["https://xcimg.szwego.com/20220614/i1655186325_6965_0.jpg","https://xcimg.szwego.com/20220614/i1655186325_462_1.jpg","https://xcimg.szwego.com/20220614/i1655186325_3761_2.jpg","https://xcimg.szwego.com/20220614/i1655186325_6715_3.jpg","https://xcimg.szwego.com/20220614/i1655186325_1996_4.jpg","https://xcimg.szwego.com/20220614/i1655186325_1039_5.jpg","https://xcimg.szwego.com/20220614/i1655186325_1686_6.jpg","https://xcimg.szwego.com/20220614/i1655186325_2213_7.jpg","https://xcimg.szwego.com/20220614/i1655186325_521_8.jpg"],"created_at":"2024-09-27T06:51:04.118Z"},{"id":"item-0aa7e8043a71","sku":"_dvdvdcaX_iZnc9lQOJqA2X4qgRKRW6ex_Gbwp7Q","name_en":"Bvlgari Women Bags","name_cn":"/women's bag","specs":{"source":"wsxcme","sourceId":"_dvdvdcaX_iZnc9lQOJqA2X4qgRKRW6ex_Gbwp7Q","sourceTagId":47002756,"sourceTagName":"/women's bag","rawTitle":""},"price":null,"currency":"CNY","moq":1,"category":"bvlgari-women-bags","status":"active","alibaba_url":null,"images":["https://xcimg.szwego.com/20220602/i1654155701_3369_0.jpg"],"created_at":"2024-09-27T06:51:04.117Z"},{"id":"item-f5dd303bf8e5","sku":"_dyhyho9llFD0UQl51GdFpqHlztp1N7evlMuOvQg","name_en":"Black#Lifestyle Image","name_cn":"Black#Lifestyle Image\nModel: 292104","specs":{"source":"wsxcme","sourceId":"_dyhyho9llFD0UQl51GdFpqHlztp1N7evlMuOvQg","sourceTagId":47002756,"sourceTagName":"/women's bag","modelNumber":"292104","rawTitle":"Black#Lifestyle Image\nModel: 292104"},"price":null,"currency":"CNY","moq":1,"category":"bvlgari-women-bags","status":"active","alibaba_url":null,"images":["https://xcimg.szwego.com/20220602/i1654155756_3939_0.jpg","https://xcimg.szwego.com/20220602/i1654155756_9539_1.jpg","https://xcimg.szwego.com/20220602/i1654155756_770_2.jpg","https://xcimg.szwego.com/20220602/i1654155756_904_3.jpg","https://xcimg.szwego.com/20220602/i1654155756_1131_4.jpg","https://xcimg.szwego.com/20220602/i1654155756_521_5.jpg"],"created_at":"2024-09-27T06:51:04.116Z"}],"page":366,"pageSize":24,"total":9921,"totalPages":414}
