{"items":[{"id":"item-8aaf6addf061","sku":"_dvCvCnUUoyUbuL6XFQffrdZMjOPRk6ncnZz9sjA","name_en":"Fendi Women Bags","name_cn":"正品级 复刻版芬迪\n💗Fendi最新的大号Simply秀款,自带一种高级的松弛感,柔软的小牛皮材质手感超细腻,拉链式设计给你属于自己的私密小空间,可调节长短的肩带不要太香,可单肩,斜挎或手拎,一款能随心应变的包包,太酷啦!\n352\n尺寸39.5x5.5x28cm","specs":{"source":"wsxcme","sourceId":"_dvCvCnUUoyUbuL6XFQffrdZMjOPRk6ncnZz9sjA","sourceTagId":47002731,"sourceTagName":"芬迪/女包","dimensions":{"lengthCm":39.5,"heightCm":5.5,"widthCm":28},"rawTitle":"正品级 复刻版芬迪\n💗Fendi最新的大号Simply秀款,自带一种高级的松弛感,柔软的小牛皮材质手感超细腻,拉链式设计给你属于自己的私密小空间,可调节长短的肩带不要太香,可单肩,斜挎或手拎,一款能随心应变的包包,太酷啦!\n352\n尺寸39.5x5.5x28cm"},"price":null,"currency":"CNY","moq":1,"category":"fendi-women-bags","status":"active","alibaba_url":null,"images":["https://xcimg.szwego.com/20240824/i1724479653_6172_0.jpg","https://xcimg.szwego.com/20240824/i1724479653_6969_1.jpg","https://xcimg.szwego.com/20240824/i1724479653_19_2.jpg","https://xcimg.szwego.com/20240824/i1724479653_1500_3.jpg","https://xcimg.szwego.com/20240824/i1724479653_3798_4.jpg","https://xcimg.szwego.com/20240824/i1724479653_1738_5.jpg","https://xcimg.szwego.com/20240824/i1724479653_5548_6.jpg","https://xcimg.szwego.com/20240824/i1724479653_3594_7.jpg","https://xcimg.szwego.com/20240824/i1724479653_9737_8.jpg"],"created_at":"2024-11-11T10:33:53.436Z"},{"id":"item-8ae73020b8a1","sku":"_d8585iGLZ16hHhmvUWm6hnz4i7uXXUZzPlEMFyw","name_en":"Fendi Women Bags","name_cn":"正品级 复刻版芬迪\n💗Fendi 春夏新款帆布购物袋 ~~ 米色的帆布自重轻赋予这款包独有的魅力,经典刺绣大LOGO配上树脂双手柄材质也是一大亮点之一,肩背手提不在话下,容量也是超超超级大~~size 36×13×32cm \n款号 372s杏色","specs":{"source":"wsxcme","sourceId":"_d8585iGLZ16hHhmvUWm6hnz4i7uXXUZzPlEMFyw","sourceTagId":47002731,"sourceTagName":"芬迪/女包","modelNumber":"372s杏色","rawTitle":"正品级 复刻版芬迪\n💗Fendi 春夏新款帆布购物袋 ~~ 米色的帆布自重轻赋予这款包独有的魅力,经典刺绣大LOGO配上树脂双手柄材质也是一大亮点之一,肩背手提不在话下,容量也是超超超级大~~size 36×13×32cm \n款号 372s杏色"},"price":null,"currency":"CNY","moq":1,"category":"fendi-women-bags","status":"active","alibaba_url":null,"images":["https://xcimg.szwego.com/20221102/i1667360897_1766_0.jpg","https://xcimg.szwego.com/20221102/i1667360897_7158_1.jpg","https://xcimg.szwego.com/20221102/i1667360897_8959_2.jpg","https://xcimg.szwego.com/20221102/i1667360897_9243_3.jpg","https://xcimg.szwego.com/20221102/i1667360897_5727_4.jpg","https://xcimg.szwego.com/20221102/i1667360897_9544_5.jpg","https://xcimg.szwego.com/20221102/i1667360897_4152_6.jpg","https://xcimg.szwego.com/20221102/i1667360897_8030_7.jpg","https://xcimg.szwego.com/20221102/i1667360897_600_8.jpg"],"created_at":"2024-11-11T10:33:53.435Z"},{"id":"item-760a6e8e9b47","sku":"_dbLbLnGAHfH79QjKzG1H1TRP8ATC2HFza80lCoQ","name_en":"Fendi Women Bags","name_cn":"正品级 复刻版芬迪\n💗Fendi sunshine shopper 镂空手提包👜\n⚠️ 中号有配肩带\nSize: 35-17-31cm  \n372","specs":{"source":"wsxcme","sourceId":"_dbLbLnGAHfH79QjKzG1H1TRP8ATC2HFza80lCoQ","sourceTagId":47002731,"sourceTagName":"芬迪/女包","rawTitle":"正品级 复刻版芬迪\n💗Fendi sunshine shopper 镂空手提包👜\n⚠️ 中号有配肩带\nSize: 35-17-31cm  \n372"},"price":null,"currency":"CNY","moq":1,"category":"fendi-women-bags","status":"active","alibaba_url":null,"images":["https://xcimg.szwego.com/20220717/i1658043259_4633_1.jpg","https://xcimg.szwego.com/20220717/i1658043259_6135_2.jpg","https://xcimg.szwego.com/20220717/i1658043259_5133_3.jpg","https://xcimg.szwego.com/20220717/i1658043259_6637_4.jpg","https://xcimg.szwego.com/20220717/i1658043259_8069_5.jpg","https://xcimg.szwego.com/20220717/i1658043259_7337_6.jpg","https://xcimg.szwego.com/20220717/i1658043259_4279_7.jpg","https://xcimg.szwego.com/20220717/i1658043259_4516_8.jpg","https://xcimg.szwego.com/20220717/i1658043259_5357_0.jpg"],"created_at":"2024-11-11T10:33:53.434Z"},{"id":"item-626bec4f99b0","sku":"_dwxwxA9qg_l7sum0HaEzAS7N1mokQLlGpWJBHHg","name_en":"Fendi Women Bags","name_cn":"正品级 复刻版芬迪\n💗🎶Fend•🥖baguette经典中号款式 FF刺绣构成的彩色系浮雕图案  Size:19/4/11.5cm\n8017","specs":{"source":"wsxcme","sourceId":"_dwxwxA9qg_l7sum0HaEzAS7N1mokQLlGpWJBHHg","sourceTagId":47002731,"sourceTagName":"芬迪/女包","rawTitle":"正品级 复刻版芬迪\n💗🎶Fend•🥖baguette经典中号款式 FF刺绣构成的彩色系浮雕图案  Size:19/4/11.5cm\n8017"},"price":null,"currency":"CNY","moq":1,"category":"fendi-women-bags","status":"active","alibaba_url":null,"images":["https://xcimg.szwego.com/20240428/i1714297340_7503_0.jpg","https://xcimg.szwego.com/20240428/i1714297340_598_1.jpg","https://xcimg.szwego.com/20240428/i1714297340_9411_2.jpg","https://xcimg.szwego.com/20240428/i1714297340_612_3.jpg","https://xcimg.szwego.com/20240428/i1714297340_6898_4.jpg","https://xcimg.szwego.com/20240428/i1714297340_3987_5.jpg","https://xcimg.szwego.com/20240428/i1714297340_822_6.jpg","https://xcimg.szwego.com/20240428/i1714297340_6876_7.jpg","https://xcimg.szwego.com/20240428/i1714297340_7479_8.jpg"],"created_at":"2024-11-11T10:33:53.433Z"},{"id":"item-85e6db602f5d","sku":"_dKhKhTUbOtfcdyYQ1y3EWf9vKUwIyNVMSmbY7Rg","name_en":"Fendi Women Bags","name_cn":"正品级 复刻版芬迪\n💗🎶Fend•🥖baguette经典中号款式 FF刺绣构成的彩色系浮雕图案  Size:27-6-15 \n8600","specs":{"source":"wsxcme","sourceId":"_dKhKhTUbOtfcdyYQ1y3EWf9vKUwIyNVMSmbY7Rg","sourceTagId":47002731,"sourceTagName":"芬迪/女包","rawTitle":"正品级 复刻版芬迪\n💗🎶Fend•🥖baguette经典中号款式 FF刺绣构成的彩色系浮雕图案  Size:27-6-15 \n8600"},"price":null,"currency":"CNY","moq":1,"category":"fendi-women-bags","status":"active","alibaba_url":null,"images":["https://xcimg.szwego.com/20240427/i1714206995_8302_0.jpg","https://xcimg.szwego.com/20240427/i1714206995_2413_1.jpg","https://xcimg.szwego.com/20240427/i1714206995_8687_2.jpg","https://xcimg.szwego.com/20240427/i1714206995_1383_3.jpg","https://xcimg.szwego.com/20240427/i1714206995_8303_4.jpg","https://xcimg.szwego.com/20240427/i1714206995_5906_5.jpg","https://xcimg.szwego.com/20240427/i1714206995_7333_6.jpg","https://xcimg.szwego.com/20240427/i1714206995_2244_7.jpg","https://xcimg.szwego.com/20240427/i1714206995_3355_8.jpg"],"created_at":"2024-11-11T10:33:53.432Z"},{"id":"item-899fe718370e","sku":"_dwTwToh62blDsQdz4YkljitGA41qLMxt4dfNsGA","name_en":"Fendi Women Bags","name_cn":"正品级 复刻版芬迪\n💗🎶Fend•🥖baguette 彩色刺绣 超A怎么凹都可以 \nSize:27-6-15 \n8600","specs":{"source":"wsxcme","sourceId":"_dwTwToh62blDsQdz4YkljitGA41qLMxt4dfNsGA","sourceTagId":47002731,"sourceTagName":"芬迪/女包","rawTitle":"正品级 复刻版芬迪\n💗🎶Fend•🥖baguette 彩色刺绣 超A怎么凹都可以 \nSize:27-6-15 \n8600"},"price":null,"currency":"CNY","moq":1,"category":"fendi-women-bags","status":"active","alibaba_url":null,"images":["https://xcimg.szwego.com/20230925/i1695621906_6813_0.jpg","https://xcimg.szwego.com/20230925/i1695621906_3775_1.jpg","https://xcimg.szwego.com/20230925/i1695621906_980_2.jpg","https://xcimg.szwego.com/20230925/i1695621906_2924_3.jpg","https://xcimg.szwego.com/20230925/i1695621906_9401_4.jpg","https://xcimg.szwego.com/20230925/i1695621906_7887_5.jpg","https://xcimg.szwego.com/20230925/i1695621906_9158_8.jpg","https://xcimg.szwego.com/20230925/i1695621906_9781_6.jpg","https://xcimg.szwego.com/20230925/i1695621906_2351_7.jpg"],"created_at":"2024-11-11T10:33:53.431Z"},{"id":"item-c02a21260441","sku":"_dOlOl2NxKCQj16tU5ZLQc-et25C-JMzvKbXV9VQ","name_en":"Fendi Women Bags","name_cn":"正品级 复刻版芬迪\n💗FD🥖baguette 让人驻足的心动色调 \n彩线缝制工艺 太治愈了 随时准备拎包出门🚪🔜26cm\n款号8600","specs":{"source":"wsxcme","sourceId":"_dOlOl2NxKCQj16tU5ZLQc-et25C-JMzvKbXV9VQ","sourceTagId":47002731,"sourceTagName":"芬迪/女包","modelNumber":"8600","rawTitle":"正品级 复刻版芬迪\n💗FD🥖baguette 让人驻足的心动色调 \n彩线缝制工艺 太治愈了 随时准备拎包出门🚪🔜26cm\n款号8600"},"price":null,"currency":"CNY","moq":1,"category":"fendi-women-bags","status":"active","alibaba_url":null,"images":["https://xcimg.szwego.com/20220418/i1650268722_4387_0.jpg","https://xcimg.szwego.com/20220418/i1650268722_7040_1.jpg","https://xcimg.szwego.com/20220418/i1650268722_841_2.jpg","https://xcimg.szwego.com/20220418/i1650268722_1564_3.jpg","https://xcimg.szwego.com/20220418/i1650268722_8072_4.jpg","https://xcimg.szwego.com/20220418/i1650268722_8819_5.jpg","https://xcimg.szwego.com/20220418/i1650268722_5831_6.jpg","https://xcimg.szwego.com/20220418/i1650268722_6821_7.jpg","https://xcimg.szwego.com/20220418/i1650268722_3908_8.jpg"],"created_at":"2024-11-11T10:33:53.430Z"},{"id":"item-69edcaba64cb","sku":"_drGrGlAaz0m_0yd2qJFrJK6PwtEizRwkEbuyhPw","name_en":"Fendi Women Bags","name_cn":"正品级 复刻版芬迪\n💗F̶e̶n̶d̶i̶  ̶ Baguette 法棍, 春夏最新爆款 米色亚麻布材质,拼色刺绣缝线色彩🍭,采用翻盖设计,内衬配有拉链袋,手柄带可拆卸可手拎,🌈把夏天的颜色都揉入包里,时尚博主实名推荐,必入款 🧡 Size :26cm.\n款号8600","specs":{"source":"wsxcme","sourceId":"_drGrGlAaz0m_0yd2qJFrJK6PwtEizRwkEbuyhPw","sourceTagId":47002731,"sourceTagName":"芬迪/女包","modelNumber":"8600","rawTitle":"正品级 复刻版芬迪\n💗F̶e̶n̶d̶i̶  ̶ Baguette 法棍, 春夏最新爆款 米色亚麻布材质,拼色刺绣缝线色彩🍭,采用翻盖设计,内衬配有拉链袋,手柄带可拆卸可手拎,🌈把夏天的颜色都揉入包里,时尚博主实名推荐,必入款 🧡 Size :26cm.\n款号8600"},"price":null,"currency":"CNY","moq":1,"category":"fendi-women-bags","status":"active","alibaba_url":null,"images":["https://xcimg.szwego.com/20220418/i1650268264_8685_0.jpg","https://xcimg.szwego.com/20220418/i1650268264_6323_1.jpg","https://xcimg.szwego.com/20220418/i1650268264_9786_2.jpg","https://xcimg.szwego.com/20220418/i1650268264_4247_3.jpg","https://xcimg.szwego.com/20220418/i1650268264_5410_4.jpg","https://xcimg.szwego.com/20220418/i1650268264_8495_5.jpg","https://xcimg.szwego.com/20220418/i1650268264_4432_6.jpg","https://xcimg.szwego.com/20220418/i1650268264_3946_7.jpg","https://xcimg.szwego.com/20220418/i1650268264_892_8.jpg"],"created_at":"2024-11-11T10:33:53.429Z"},{"id":"item-243d0a3731a2","sku":"_dP9P9z1vSRew3KCeCxftvTufCQ4_0EAHROKVlDg","name_en":"Fendi Women Bags","name_cn":"正品级 复刻版芬迪\n💗FEND1 Vertigo夏季胶囊限量系列\n最新的Baguette 手袋,经典满字双F乍一看像是鱼眼镜头下拍出的立体感,个性十足,大胆创新,富有很高的趣味性,感觉元气满满💪💪\n尺寸26x13x6cm\n款号8600","specs":{"source":"wsxcme","sourceId":"_dP9P9z1vSRew3KCeCxftvTufCQ4_0EAHROKVlDg","sourceTagId":47002731,"sourceTagName":"芬迪/女包","modelNumber":"8600","dimensions":{"lengthCm":26,"heightCm":13,"widthCm":6},"rawTitle":"正品级 复刻版芬迪\n💗FEND1 Vertigo夏季胶囊限量系列\n最新的Baguette 手袋,经典满字双F乍一看像是鱼眼镜头下拍出的立体感,个性十足,大胆创新,富有很高的趣味性,感觉元气满满💪💪\n尺寸26x13x6cm\n款号8600"},"price":null,"currency":"CNY","moq":1,"category":"fendi-women-bags","status":"active","alibaba_url":null,"images":["https://xcimg.szwego.com/20220314/i1647242748_7435_0.jpg","https://xcimg.szwego.com/20220314/i1647242748_6570_1.jpg","https://xcimg.szwego.com/20220314/i1647242748_1174_2.jpg","https://xcimg.szwego.com/20220314/i1647242748_9276_3.jpg","https://xcimg.szwego.com/20220314/i1647242748_319_4.jpg","https://xcimg.szwego.com/20220314/i1647242748_2723_5.jpg","https://xcimg.szwego.com/20220314/i1647242748_1036_6.jpg","https://xcimg.szwego.com/20220314/i1647242748_9219_7.jpg","https://xcimg.szwego.com/20220314/i1647242748_3578_8.jpg"],"created_at":"2024-11-11T10:33:53.428Z"},{"id":"item-1f672d7f7810","sku":"_dEAEA1tnsFqAUn_EP5jioSmN_1bpZ-J0zTARwQQ","name_en":"Fendi Women Bags","name_cn":"正品级 复刻版芬迪\n💗🎶Fend•🥖baguette经典中号款式 FF刺绣构成的同色系浮雕图案  \nSize:27-6-15 \n8600","specs":{"source":"wsxcme","sourceId":"_dEAEA1tnsFqAUn_EP5jioSmN_1bpZ-J0zTARwQQ","sourceTagId":47002731,"sourceTagName":"芬迪/女包","rawTitle":"正品级 复刻版芬迪\n💗🎶Fend•🥖baguette经典中号款式 FF刺绣构成的同色系浮雕图案  \nSize:27-6-15 \n8600"},"price":null,"currency":"CNY","moq":1,"category":"fendi-women-bags","status":"active","alibaba_url":null,"images":["https://xcimg.szwego.com/20221227/i1672127588_7915_0.jpg","https://xcimg.szwego.com/20221227/i1672127588_630_1.jpg","https://xcimg.szwego.com/20221227/i1672127588_1376_2.jpg","https://xcimg.szwego.com/20221227/i1672127588_2940_3.jpg","https://xcimg.szwego.com/20221227/i1672127588_7109_4.jpg","https://xcimg.szwego.com/20221227/i1672127588_1383_5.jpg","https://xcimg.szwego.com/20221227/i1672127588_5473_6.jpg","https://xcimg.szwego.com/20221227/i1672127588_3459_7.jpg","https://xcimg.szwego.com/20221227/i1672127588_6256_8.jpg"],"created_at":"2024-11-11T10:33:53.427Z"},{"id":"item-89685d6109eb","sku":"_dwhwhwmLJ5eJewIuKVfInIAHf_MpArc3ZVFgsCA","name_en":"Fendi Women Bags","name_cn":"正品级 复刻版芬迪\n💗FENDI 火爆 🔥🔥主推款baguette  洗水牛仔布刺绣双F标志性,低调有内涵磁扣+翻盖设计安全性极高  一长一短肩带可拆卸  复古金内里\nsiez:27x5x15cm\n款号:8600","specs":{"source":"wsxcme","sourceId":"_dwhwhwmLJ5eJewIuKVfInIAHf_MpArc3ZVFgsCA","sourceTagId":47002731,"sourceTagName":"芬迪/女包","modelNumber":"8600","rawTitle":"正品级 复刻版芬迪\n💗FENDI 火爆 🔥🔥主推款baguette  洗水牛仔布刺绣双F标志性,低调有内涵磁扣+翻盖设计安全性极高  一长一短肩带可拆卸  复古金内里\nsiez:27x5x15cm\n款号:8600"},"price":null,"currency":"CNY","moq":1,"category":"fendi-women-bags","status":"active","alibaba_url":null,"images":["https://xcimg.szwego.com/20231012/i1697094243_3977_0.jpg","https://xcimg.szwego.com/20231012/i1697094243_1640_1.jpg","https://xcimg.szwego.com/20231012/i1697094243_3837_2.jpg","https://xcimg.szwego.com/20231012/i1697094243_1374_3.jpg","https://xcimg.szwego.com/20231012/i1697094243_9779_4.jpg","https://xcimg.szwego.com/20231012/i1697094243_6799_5.jpg","https://xcimg.szwego.com/20231012/i1697094243_816_6.jpg","https://xcimg.szwego.com/20231012/i1697094243_6519_7.jpg","https://xcimg.szwego.com/20231012/i1697094243_2257_8.jpg"],"created_at":"2024-11-11T10:33:53.426Z"},{"id":"item-754710aa60d5","sku":"_dzNzNIPB7TqP26OtfJvajbFp7_llyD3JeInQCNA","name_en":"Fendi Women Bags","name_cn":"正品级 复刻版芬迪\n💗🥖FD baguette 高级灰FF 不论以什么模样示人,都泛着时髦和经典的光芒🌟26cm\n款号8600","specs":{"source":"wsxcme","sourceId":"_dzNzNIPB7TqP26OtfJvajbFp7_llyD3JeInQCNA","sourceTagId":47002731,"sourceTagName":"芬迪/女包","modelNumber":"8600","rawTitle":"正品级 复刻版芬迪\n💗🥖FD baguette 高级灰FF 不论以什么模样示人,都泛着时髦和经典的光芒🌟26cm\n款号8600"},"price":null,"currency":"CNY","moq":1,"category":"fendi-women-bags","status":"active","alibaba_url":null,"images":["https://xcimg.szwego.com/20220418/i1650269166_2873_0.jpg","https://xcimg.szwego.com/20220418/i1650269166_5356_1.jpg","https://xcimg.szwego.com/20220418/i1650269166_3842_2.jpg","https://xcimg.szwego.com/20220418/i1650269166_5957_3.jpg","https://xcimg.szwego.com/20220418/i1650269166_4006_4.jpg","https://xcimg.szwego.com/20220418/i1650269166_5967_5.jpg","https://xcimg.szwego.com/20220418/i1650269166_1858_6.jpg","https://xcimg.szwego.com/20220418/i1650269166_6414_7.jpg","https://xcimg.szwego.com/20220418/i1650269166_358_8.jpg"],"created_at":"2024-11-11T10:33:53.425Z"},{"id":"item-218d4578a9e6","sku":"_dCKCKZm-IzPnoYCLL1umVDv3y7XzROZ-AInhSYQ","name_en":"Fendi Women Bags","name_cn":"正品级 复刻版芬迪\n💗🎶Fend•🥖baguette 牛仔布F字刺绣 超A怎么凹都可以 Size:27-6-15 \n8600","specs":{"source":"wsxcme","sourceId":"_dCKCKZm-IzPnoYCLL1umVDv3y7XzROZ-AInhSYQ","sourceTagId":47002731,"sourceTagName":"芬迪/女包","rawTitle":"正品级 复刻版芬迪\n💗🎶Fend•🥖baguette 牛仔布F字刺绣 超A怎么凹都可以 Size:27-6-15 \n8600"},"price":null,"currency":"CNY","moq":1,"category":"fendi-women-bags","status":"active","alibaba_url":null,"images":["https://xcimg.szwego.com/20230723/i1690102914_1280_0.jpg","https://xcimg.szwego.com/20230723/i1690102914_5952_1.jpg","https://xcimg.szwego.com/20230723/i1690102914_7733_2.jpg","https://xcimg.szwego.com/20230723/i1690102914_4955_3.jpg","https://xcimg.szwego.com/20230723/i1690102914_2301_6.jpg","https://xcimg.szwego.com/20230723/i1690102914_1510_7.jpg","https://xcimg.szwego.com/20230723/i1690102914_9829_8.jpg","https://xcimg.szwego.com/20230723/i1690102914_7872_4.jpg","https://xcimg.szwego.com/20230723/i1690102914_4493_5.jpg"],"created_at":"2024-11-11T10:33:53.424Z"},{"id":"item-d3500e939def","sku":"_dCWCWBdDShcH4h6gC8KlwXd82T_4f_KQrFnZPCg","name_en":"Fendi Women Bags","name_cn":"正品级 复刻版芬迪\nFENDI  火爆经典Baguette ,原材料采用帆布高级工艺打造,整只包双FF立体刺绣质感无敌,同时搭配精致的包边小撞色更加时髦洋气,宽肩带设计和翻盖实用性也强,处处可见的小细节,真的爱了~~size27×6×14cm \n款号8600灰","specs":{"source":"wsxcme","sourceId":"_dCWCWBdDShcH4h6gC8KlwXd82T_4f_KQrFnZPCg","sourceTagId":47002731,"sourceTagName":"芬迪/女包","modelNumber":"8600灰","rawTitle":"正品级 复刻版芬迪\nFENDI  火爆经典Baguette ,原材料采用帆布高级工艺打造,整只包双FF立体刺绣质感无敌,同时搭配精致的包边小撞色更加时髦洋气,宽肩带设计和翻盖实用性也强,处处可见的小细节,真的爱了~~size27×6×14cm \n款号8600灰"},"price":null,"currency":"CNY","moq":1,"category":"fendi-women-bags","status":"active","alibaba_url":null,"images":["https://xcimg.szwego.com/20240811/i1723344514_8774_0.jpg","https://xcimg.szwego.com/20240811/i1723344514_6552_1.jpg","https://xcimg.szwego.com/20240811/i1723344514_1883_2.jpg","https://xcimg.szwego.com/20240811/i1723344514_1667_3.jpg","https://xcimg.szwego.com/20240811/i1723344514_3361_4.jpg","https://xcimg.szwego.com/20240811/i1723344514_5021_5.jpg","https://xcimg.szwego.com/20240811/i1723344514_6700_6.jpg","https://xcimg.szwego.com/20240811/i1723344514_6885_7.jpg","https://xcimg.szwego.com/20240811/i1723344514_9906_8.jpg"],"created_at":"2024-11-11T10:33:53.423Z"},{"id":"item-98edefdde156","sku":"_dBcBc6E3J-yn0KEqQNEk3QeJvXviV0DcgLRpc-A","name_en":"Fendi Women Bags","name_cn":"正品级 复刻版芬迪\n💗Iconic Baguette中号手袋,灰色千鸟格纹羊毛材质,饰有FF刺绣\n图案。带有同色系皮革细节,并饰有FF搭扣。设有正面翻盖、磁\n扣、带衬里的内部隔层、拉链袋和金色金属件。手袋配有可拆\n卸式手柄和肩带,可手提、肩背或斜挎。\n尺寸:27*6*15\n款号8600","specs":{"source":"wsxcme","sourceId":"_dBcBc6E3J-yn0KEqQNEk3QeJvXviV0DcgLRpc-A","sourceTagId":47002731,"sourceTagName":"芬迪/女包","modelNumber":"8600","rawTitle":"正品级 复刻版芬迪\n💗Iconic Baguette中号手袋,灰色千鸟格纹羊毛材质,饰有FF刺绣\n图案。带有同色系皮革细节,并饰有FF搭扣。设有正面翻盖、磁\n扣、带衬里的内部隔层、拉链袋和金色金属件。手袋配有可拆\n卸式手柄和肩带,可手提、肩背或斜挎。\n尺寸:27*6*15\n款号8600"},"price":null,"currency":"CNY","moq":1,"category":"fendi-women-bags","status":"active","alibaba_url":null,"images":["https://xcimg.szwego.com/20240810/i1723281706_8200_0.jpg","https://xcimg.szwego.com/20240810/i1723281706_1445_1.jpg","https://xcimg.szwego.com/20240810/i1723281706_8640_2.jpg","https://xcimg.szwego.com/20240810/i1723281706_7817_3.jpg","https://xcimg.szwego.com/20240810/i1723281706_2233_4.jpg","https://xcimg.szwego.com/20240810/i1723281706_5870_5.jpg","https://xcimg.szwego.com/20240810/i1723281706_5541_6.jpg","https://xcimg.szwego.com/20240810/i1723281706_5512_7.jpg","https://xcimg.szwego.com/20240810/i1723281706_3822_8.jpg"],"created_at":"2024-11-11T10:33:53.422Z"},{"id":"item-3be307b4ddb7","sku":"_dcxcxdf8wTr64irsNQq54q-BQhyKdfrswxzYltA","name_en":"Fendi Women Bags","name_cn":"正品级 复刻版芬迪\n💗Iconic Baguette中号手袋,棕色千鸟格纹羊毛材质,饰有FF刺绣\n图案。带有同色系皮革细节,并饰有FF搭扣。设有正面翻盖、磁\n扣、带衬里的内部隔层、拉链袋和银白色金属件。手袋配有可拆\n卸式手柄和肩带,可手提、肩背或斜挎。\n尺寸:27*6*15\n款号8600","specs":{"source":"wsxcme","sourceId":"_dcxcxdf8wTr64irsNQq54q-BQhyKdfrswxzYltA","sourceTagId":47002731,"sourceTagName":"芬迪/女包","modelNumber":"8600","rawTitle":"正品级 复刻版芬迪\n💗Iconic Baguette中号手袋,棕色千鸟格纹羊毛材质,饰有FF刺绣\n图案。带有同色系皮革细节,并饰有FF搭扣。设有正面翻盖、磁\n扣、带衬里的内部隔层、拉链袋和银白色金属件。手袋配有可拆\n卸式手柄和肩带,可手提、肩背或斜挎。\n尺寸:27*6*15\n款号8600"},"price":null,"currency":"CNY","moq":1,"category":"fendi-women-bags","status":"active","alibaba_url":null,"images":["https://xcimg.szwego.com/20240805/i1722862089_9063_0.jpg","https://xcimg.szwego.com/20240805/i1722862089_6449_1.jpg","https://xcimg.szwego.com/20240805/i1722862089_7702_2.jpg","https://xcimg.szwego.com/20240805/i1722862089_3480_3.jpg","https://xcimg.szwego.com/20240805/i1722862089_3677_4.jpg","https://xcimg.szwego.com/20240805/i1722862089_8721_5.jpg","https://xcimg.szwego.com/20240805/i1722862089_2464_6.jpg","https://xcimg.szwego.com/20240805/i1722862089_3835_7.jpg","https://xcimg.szwego.com/20240805/i1722862089_1615_8.jpg"],"created_at":"2024-11-11T10:33:53.421Z"},{"id":"item-19fb9cb56f9a","sku":"_ddidizmjUTlDipEoKuq6CvaZQcJOps6Fz-_Jw1w","name_en":"Fendi Women Bags","name_cn":"正品级 复刻版芬迪\n💗最新全皮压花迷你法棍手机包,能同时放下2部手机噢,可爱又实用,不要太乖了,还能手提跟斜挎随意切换,快来把它带走吧。\n手机包\n尺寸:长19 宽3 高11","specs":{"source":"wsxcme","sourceId":"_ddidizmjUTlDipEoKuq6CvaZQcJOps6Fz-_Jw1w","sourceTagId":47002731,"sourceTagName":"芬迪/女包","rawTitle":"正品级 复刻版芬迪\n💗最新全皮压花迷你法棍手机包,能同时放下2部手机噢,可爱又实用,不要太乖了,还能手提跟斜挎随意切换,快来把它带走吧。\n手机包\n尺寸:长19 宽3 高11"},"price":null,"currency":"CNY","moq":1,"category":"fendi-women-bags","status":"active","alibaba_url":null,"images":["https://xcimg.szwego.com/img/f6bf40bb/20240411/i1712811595_9182_3.jpg","https://xcimg.szwego.com/img/f6bf40bb/20240411/i1712811595_9404_6.jpg","https://xcimg.szwego.com/img/f6bf40bb/20240411/i1712811595_9365_4.jpg","https://xcimg.szwego.com/img/f6bf40bb/20240411/i1712811595_3153_8.jpg","https://xcimg.szwego.com/img/f6bf40bb/20240411/i1712811595_5090_0.jpg","https://xcimg.szwego.com/img/f6bf40bb/20240411/i1712811595_3150_5.jpg","https://xcimg.szwego.com/img/f6bf40bb/20240411/i1712811595_6323_2.jpg","https://xcimg.szwego.com/img/f6bf40bb/20240411/i1712811595_5808_7.jpg","https://xcimg.szwego.com/img/f6bf40bb/20240411/i1712811595_496_1.jpg"],"created_at":"2024-11-11T10:33:53.420Z"},{"id":"item-304ddf7d0292","sku":"_dkpkpR0eMd8niYR2FbWO-fDIJfUg0i-U2o9Mudg","name_en":"Fendi Women Bags","name_cn":"正品级 复刻版芬迪\n💗白色银扣\n最新全皮压花迷你法棍手机包,能同时放下2部手机噢,可爱又实用,不要太乖了,还能手提跟斜挎随意切换,快来把它带走吧。\n手机包\n尺寸:长19 宽3 高11","specs":{"source":"wsxcme","sourceId":"_dkpkpR0eMd8niYR2FbWO-fDIJfUg0i-U2o9Mudg","sourceTagId":47002731,"sourceTagName":"芬迪/女包","rawTitle":"正品级 复刻版芬迪\n💗白色银扣\n最新全皮压花迷你法棍手机包,能同时放下2部手机噢,可爱又实用,不要太乖了,还能手提跟斜挎随意切换,快来把它带走吧。\n手机包\n尺寸:长19 宽3 高11"},"price":null,"currency":"CNY","moq":1,"category":"fendi-women-bags","status":"active","alibaba_url":null,"images":["https://xcimg.szwego.com/20240726/i1721962140_5072_0.jpg","https://xcimg.szwego.com/20240726/i1721962140_2821_1.jpg","https://xcimg.szwego.com/20240726/i1721962140_8036_2.jpg","https://xcimg.szwego.com/20240726/i1721962140_2050_3.jpg","https://xcimg.szwego.com/20240726/i1721962140_1898_4.jpg","https://xcimg.szwego.com/20240726/i1721962140_2184_5.jpg","https://xcimg.szwego.com/20240726/i1721962140_7605_6.jpg","https://xcimg.szwego.com/20240726/i1721962140_5915_7.jpg","https://xcimg.szwego.com/20240726/i1721962140_6824_8.jpg"],"created_at":"2024-11-11T10:33:53.419Z"},{"id":"item-14b15c7dac3b","sku":"_dehehe9r7QifgyEwALis0jTDPRMbEGUkPqg8eUg","name_en":"Fendi Women Bags","name_cn":"正品级 复刻版芬迪\n💗黑色白扣\n最新全皮压花迷你法棍手机包,能同时放下2部手机噢,可爱又实用,不要太乖了,还能手提跟斜挎随意切换,快来把它带走吧。\n手机包\n尺寸:长19 宽3 高11","specs":{"source":"wsxcme","sourceId":"_dehehe9r7QifgyEwALis0jTDPRMbEGUkPqg8eUg","sourceTagId":47002731,"sourceTagName":"芬迪/女包","rawTitle":"正品级 复刻版芬迪\n💗黑色白扣\n最新全皮压花迷你法棍手机包,能同时放下2部手机噢,可爱又实用,不要太乖了,还能手提跟斜挎随意切换,快来把它带走吧。\n手机包\n尺寸:长19 宽3 高11"},"price":null,"currency":"CNY","moq":1,"category":"fendi-women-bags","status":"active","alibaba_url":null,"images":["https://xcimg.szwego.com/20240726/i1721962192_900_0.jpg","https://xcimg.szwego.com/20240726/i1721962192_1174_1.jpg","https://xcimg.szwego.com/20240726/i1721962192_9262_2.jpg","https://xcimg.szwego.com/20240726/i1721962192_1618_3.jpg","https://xcimg.szwego.com/20240726/i1721962192_6900_4.jpg","https://xcimg.szwego.com/20240726/i1721962192_8057_5.jpg","https://xcimg.szwego.com/20240726/i1721962192_9016_6.jpg","https://xcimg.szwego.com/20240726/i1721962192_3485_7.jpg","https://xcimg.szwego.com/20240726/i1721962192_3459_8.jpg"],"created_at":"2024-11-11T10:33:53.418Z"},{"id":"item-c29b213b87e4","sku":"_dvqvq5kEJfC_3HObu8Vs3wLycnU-B1VtfGxB9Zg","name_en":"Fendi Women Bags","name_cn":"正品级 复刻版芬迪\n💗质量不负众望的爆款小包出货啦~全牛皮搭配琥珀手柄 高颜值好搭配# size 13×6×18cm \n款号:051白色","specs":{"source":"wsxcme","sourceId":"_dvqvq5kEJfC_3HObu8Vs3wLycnU-B1VtfGxB9Zg","sourceTagId":47002731,"sourceTagName":"芬迪/女包","modelNumber":"051白色","rawTitle":"正品级 复刻版芬迪\n💗质量不负众望的爆款小包出货啦~全牛皮搭配琥珀手柄 高颜值好搭配# size 13×6×18cm \n款号:051白色"},"price":null,"currency":"CNY","moq":1,"category":"fendi-women-bags","status":"active","alibaba_url":null,"images":["https://xcimg.szwego.com/20220429/i1651215602_6030_0.jpg","https://xcimg.szwego.com/20220429/i1651215602_4480_1.jpg","https://xcimg.szwego.com/20220429/i1651215602_6498_2.jpg","https://xcimg.szwego.com/20220429/i1651215602_8249_3.jpg","https://xcimg.szwego.com/20220429/i1651215602_549_4.jpg","https://xcimg.szwego.com/20220429/i1651215602_849_5.jpg","https://xcimg.szwego.com/20220429/i1651215602_1038_6.jpg","https://xcimg.szwego.com/20220429/i1651215602_8910_7.jpg","https://xcimg.szwego.com/20220429/i1651215602_4834_8.jpg"],"created_at":"2024-11-11T10:33:53.417Z"},{"id":"item-9ae59564e1ef","sku":"_d2E2EDo3xuTAJfl2dY2fNl2BAnSthMiY_YYKt_g","name_en":"Fendi Women Bags","name_cn":"正品级 复刻版芬迪\n💗质量不负众望的爆款小包出货啦~全牛皮搭配琥珀手柄 高颜值好搭配# size 13×6×18cm \n款号:051棕色","specs":{"source":"wsxcme","sourceId":"_d2E2EDo3xuTAJfl2dY2fNl2BAnSthMiY_YYKt_g","sourceTagId":47002731,"sourceTagName":"芬迪/女包","modelNumber":"051棕色","rawTitle":"正品级 复刻版芬迪\n💗质量不负众望的爆款小包出货啦~全牛皮搭配琥珀手柄 高颜值好搭配# size 13×6×18cm \n款号:051棕色"},"price":null,"currency":"CNY","moq":1,"category":"fendi-women-bags","status":"active","alibaba_url":null,"images":["https://xcimg.szwego.com/20220416/i1650104620_9151_0.jpg","https://xcimg.szwego.com/20220416/i1650104620_853_1.jpg","https://xcimg.szwego.com/20220416/i1650104620_3691_2.jpg","https://xcimg.szwego.com/20220416/i1650104620_4196_3.jpg","https://xcimg.szwego.com/20220416/i1650104620_354_4.jpg","https://xcimg.szwego.com/20220416/i1650104620_4773_5.jpg","https://xcimg.szwego.com/20220416/i1650104620_2186_6.jpg","https://xcimg.szwego.com/20220416/i1650104620_6187_7.jpg","https://xcimg.szwego.com/20220416/i1650104620_3753_8.jpg"],"created_at":"2024-11-11T10:33:53.416Z"},{"id":"item-4ac603675693","sku":"_dkAkAV2s0yhht8d0dD421R50O2sOUrDlv3draqw","name_en":"Fendi Women Bags","name_cn":"正品级 复刻版芬迪\n💗质量不负众望的爆款小包出货啦~全牛皮搭配琥珀手柄 高颜值好搭配# size 13×6×18cm \n款号:051浅蓝","specs":{"source":"wsxcme","sourceId":"_dkAkAV2s0yhht8d0dD421R50O2sOUrDlv3draqw","sourceTagId":47002731,"sourceTagName":"芬迪/女包","modelNumber":"051浅蓝","rawTitle":"正品级 复刻版芬迪\n💗质量不负众望的爆款小包出货啦~全牛皮搭配琥珀手柄 高颜值好搭配# size 13×6×18cm \n款号:051浅蓝"},"price":null,"currency":"CNY","moq":1,"category":"fendi-women-bags","status":"active","alibaba_url":null,"images":["https://xcimg.szwego.com/20220416/i1650104418_4042_0.jpg","https://xcimg.szwego.com/20220416/i1650104418_6568_1.jpg","https://xcimg.szwego.com/20220416/i1650104418_8998_2.jpg","https://xcimg.szwego.com/20220416/i1650104418_8889_3.jpg","https://xcimg.szwego.com/20220416/i1650104418_6259_4.jpg","https://xcimg.szwego.com/20220416/i1650104418_2949_5.jpg","https://xcimg.szwego.com/20220416/i1650104418_6165_6.jpg","https://xcimg.szwego.com/20220416/i1650104418_3173_7.jpg","https://xcimg.szwego.com/20220416/i1650104418_1854_8.jpg"],"created_at":"2024-11-11T10:33:53.415Z"},{"id":"item-4d1a34746aa3","sku":"_dm-m-C9Hxy0KgMUxI7nM-sJSH3tNvnUUBVd-urA","name_en":"Fendi Women Bags","name_cn":"正品级 复刻版芬迪\n💗质量不负众望的爆款小包出货啦~全牛皮搭配琥珀手柄 高颜值好搭配# size 13×6×18cm \n款号:051裸粉","specs":{"source":"wsxcme","sourceId":"_dm-m-C9Hxy0KgMUxI7nM-sJSH3tNvnUUBVd-urA","sourceTagId":47002731,"sourceTagName":"芬迪/女包","modelNumber":"051裸粉","rawTitle":"正品级 复刻版芬迪\n💗质量不负众望的爆款小包出货啦~全牛皮搭配琥珀手柄 高颜值好搭配# size 13×6×18cm \n款号:051裸粉"},"price":null,"currency":"CNY","moq":1,"category":"fendi-women-bags","status":"active","alibaba_url":null,"images":["https://xcimg.szwego.com/20220416/i1650104153_2799_0.jpg","https://xcimg.szwego.com/20220416/i1650104153_5806_1.jpg","https://xcimg.szwego.com/20220416/i1650104153_6848_2.jpg","https://xcimg.szwego.com/20220416/i1650104153_2287_3.jpg","https://xcimg.szwego.com/20220416/i1650104153_7352_4.jpg","https://xcimg.szwego.com/20220416/i1650104153_2841_5.jpg","https://xcimg.szwego.com/20220416/i1650104153_5552_6.jpg","https://xcimg.szwego.com/20220416/i1650104153_8449_7.jpg","https://xcimg.szwego.com/20220416/i1650104153_1386_8.jpg"],"created_at":"2024-11-11T10:33:53.414Z"},{"id":"item-82220df5609b","sku":"_dwKwKZqH2UxabSG1C6EAcIM5NKphYJT4MrTX66w","name_en":"Fendi Women Bags","name_cn":"正品级 复刻版芬迪\n💗FEND1 BAGUETTE 中号斜挎包 采用进口三维纹理羔羊皮材质 全幅FF图案 复古风金色金属件 采用翻盖设计 配有FF磁扣开合 内衬配有拉链袋 配有可拆卸的手柄和肩带\n Size:26-5-15  \n8600","specs":{"source":"wsxcme","sourceId":"_dwKwKZqH2UxabSG1C6EAcIM5NKphYJT4MrTX66w","sourceTagId":47002731,"sourceTagName":"芬迪/女包","rawTitle":"正品级 复刻版芬迪\n💗FEND1 BAGUETTE 中号斜挎包 采用进口三维纹理羔羊皮材质 全幅FF图案 复古风金色金属件 采用翻盖设计 配有FF磁扣开合 内衬配有拉链袋 配有可拆卸的手柄和肩带\n Size:26-5-15  \n8600"},"price":null,"currency":"CNY","moq":1,"category":"fendi-women-bags","status":"active","alibaba_url":null,"images":["https://xcimg.szwego.com/20240621/i1718980760_8234_0.jpg","https://xcimg.szwego.com/20240621/i1718980760_7639_1.jpg","https://xcimg.szwego.com/20240621/i1718980760_5706_2.jpg","https://xcimg.szwego.com/20240621/i1718980760_9656_3.jpg","https://xcimg.szwego.com/20240621/i1718980760_231_4.jpg","https://xcimg.szwego.com/20240621/i1718980760_9609_5.jpg","https://xcimg.szwego.com/20240621/i1718980760_1649_6.jpg","https://xcimg.szwego.com/20240621/i1718980760_7923_7.jpg","https://xcimg.szwego.com/20240621/i1718980760_6616_8.jpg"],"created_at":"2024-11-11T10:33:53.413Z"}],"page":303,"pageSize":24,"total":10075,"totalPages":420}
