{"items":[{"id":"item-c267c20e4747","sku":"_dlKlKdbq-Xgo3LuokZlDhpoiqdYrEwLMUcWQU5A","name_en":"Official website image","name_cn":"Official website image","specs":{"source":"wsxcme","sourceId":"_dlKlKdbq-Xgo3LuokZlDhpoiqdYrEwLMUcWQU5A","sourceTagId":47002761,"sourceTagName":"Saint Laurent/women's bag","rawTitle":"Official website image"},"price":null,"currency":"CNY","moq":1,"category":"ysl-women-bags","status":"active","alibaba_url":null,"images":["https://xcimg.szwego.com/imgHD/f8c0bdc9/20260420/cmp_i1776674072630_6633_0_0.jpg","https://xcimg.szwego.com/imgHD/f8c0bdc9/20260420/cmp_i1776674072630_1125_0_1.jpg","https://xcimg.szwego.com/imgHD/f8c0bdc9/20260420/cmp_i1776674072631_7427_0_2.jpg","https://xcimg.szwego.com/imgHD/f8c0bdc9/20260420/cmp_i1776674072632_1647_0_3.jpg","https://xcimg.szwego.com/imgHD/f8c0bdc9/20260420/cmp_i1776674073228_5293_0_4.jpg","https://xcimg.szwego.com/imgHD/f8c0bdc9/20260420/cmp_i1776674072630_7785_0_5.jpg"],"created_at":"2026-06-29T10:48:58.969Z"},{"id":"item-4e4d9f630125","sku":"_dfofo6zE4ucZ9NAHC-v1zb7LEmrMYBhUTnyb7bA","name_en":"Anacron Red shopping bag","name_cn":"Anacron Red shopping bag\nIt is classic, it is passionate\nHidden within a rich and retro color palette","specs":{"source":"wsxcme","sourceId":"_dfofo6zE4ucZ9NAHC-v1zb7LEmrMYBhUTnyb7bA","sourceTagId":47002761,"sourceTagName":"Saint Laurent/women's bag","rawTitle":"Anacron Red shopping bag\nIt is classic, it is passionate\nHidden within a rich and retro color palette"},"price":null,"currency":"CNY","moq":1,"category":"ysl-women-bags","status":"active","alibaba_url":null,"images":["https://xcimg.szwego.com/imgHD/f8c0bdc9/20260420/cmp_i1776670111956_3021_0_0.jpg","https://xcimg.szwego.com/imgHD/f8c0bdc9/20260420/cmp_i1776670111896_9520_0_1.jpg","https://xcimg.szwego.com/imgHD/f8c0bdc9/20260420/cmp_i1776670111943_7528_0_2.jpg","https://xcimg.szwego.com/imgHD/f8c0bdc9/20260420/cmp_i1776670111982_1106_0_3.jpg"],"created_at":"2026-06-29T10:48:58.959Z"},{"id":"item-72f4e7b3f598","sku":"_drsrsLrP_haRm9LItykdkBhkS6K2mpqHsztO8aw","name_en":"Detail photo","name_cn":"Detail photo","specs":{"source":"wsxcme","sourceId":"_drsrsLrP_haRm9LItykdkBhkS6K2mpqHsztO8aw","sourceTagId":47002761,"sourceTagName":"Saint Laurent/women's bag","rawTitle":"Detail photo"},"price":null,"currency":"CNY","moq":1,"category":"ysl-women-bags","status":"active","alibaba_url":null,"images":["https://xcimg.szwego.com/imgHD/f8c0bdc9/20260420/cmp_i1776669992467_3361_0_0.jpg","https://xcimg.szwego.com/imgHD/f8c0bdc9/20260420/cmp_i1776669995361_8959_0_1.jpg","https://xcimg.szwego.com/imgHD/f8c0bdc9/20260420/cmp_i1776669996322_5611_0_2.jpg","https://xcimg.szwego.com/imgHD/f8c0bdc9/20260420/cmp_i1776669993738_2595_0_3.jpg","https://xcimg.szwego.com/imgHD/f8c0bdc9/20260420/cmp_i1776669994022_4601_0_4.jpg","https://xcimg.szwego.com/imgHD/f8c0bdc9/20260420/cmp_i1776669993841_5351_0_5.jpg","https://xcimg.szwego.com/imgHD/f8c0bdc9/20260420/cmp_i1776669998486_2159_0_6.jpg","https://xcimg.szwego.com/imgHD/f8c0bdc9/20260420/cmp_i1776669996177_2999_0_7.jpg","https://xcimg.szwego.com/imgHD/f8c0bdc9/20260420/cmp_i1776669992135_5904_0_8.jpg"],"created_at":"2026-06-29T10:48:58.949Z"},{"id":"item-485af47ccc39","sku":"_dm0m0AH6i3ZtMqoXnDdOAg-Df9sbYDhzlmXBF6w","name_en":"Cinnabar Red·","name_cn":"Cinnabar Red·\nshopping tote bag_\nA very minimalist, cool-toned series made from imported South African cowhide. It comes with a detachable clutch inside. Its features are large capacity and lightweight, paired with a small metal logo for an exquisite look!\nSize:38×28×13cm\nModel:394195","specs":{"source":"wsxcme","sourceId":"_dm0m0AH6i3ZtMqoXnDdOAg-Df9sbYDhzlmXBF6w","sourceTagId":47002761,"sourceTagName":"Saint Laurent/women's bag","modelNumber":"394195","dimensions":{"lengthCm":38,"heightCm":28,"widthCm":13},"rawTitle":"Cinnabar Red·\nshopping tote bag_\nA very minimalist, cool-toned series made from imported South African cowhide. It comes with a detachable clutch inside. Its features are large capacity and lightweight, paired with a small metal logo for an exquisite look!\nSize:38×28×13cm\nModel:394195"},"price":null,"currency":"CNY","moq":1,"category":"ysl-women-bags","status":"active","alibaba_url":null,"images":["https://xcimg.szwego.com/imgHD/f8c0bdc9/20260420/cmp_i1776669939644_9163_0_0.jpg","https://xcimg.szwego.com/imgHD/f8c0bdc9/20260420/cmp_i1776669936651_1808_0_1.jpg","https://xcimg.szwego.com/imgHD/f8c0bdc9/20260420/cmp_i1776669939421_6126_0_8.jpg","https://xcimg.szwego.com/imgHD/f8c0bdc9/20260420/cmp_i1776669939388_1197_0_2.jpg","https://xcimg.szwego.com/imgHD/f8c0bdc9/20260420/cmp_i1776669936607_6067_0_3.jpg","https://xcimg.szwego.com/imgHD/f8c0bdc9/20260420/cmp_i1776669938594_4802_0_4.jpg","https://xcimg.szwego.com/imgHD/f8c0bdc9/20260420/cmp_i1776669934651_1867_0_5.jpg","https://xcimg.szwego.com/imgHD/f8c0bdc9/20260420/cmp_i1776669936581_4756_0_6.jpg","https://xcimg.szwego.com/imgHD/f8c0bdc9/20260420/cmp_i1776669936698_2845_0_7.jpg"],"created_at":"2026-06-29T10:48:58.939Z"},{"id":"item-682c742d4a97","sku":"_dsvsvGvNWUD6xc79GHNtddUrN7rVHVaMWLHxzkA","name_en":"Official website image","name_cn":"Official website image","specs":{"source":"wsxcme","sourceId":"_dsvsvGvNWUD6xc79GHNtddUrN7rVHVaMWLHxzkA","sourceTagId":47002761,"sourceTagName":"Saint Laurent/women's bag","rawTitle":"Official website image"},"price":null,"currency":"CNY","moq":1,"category":"ysl-women-bags","status":"active","alibaba_url":null,"images":["https://xcimg.szwego.com/imgHD/f8c0bdc9/20260420/cmp_i1776674058340_2605_0_0.jpg","https://xcimg.szwego.com/imgHD/f8c0bdc9/20260420/cmp_i1776674058341_8040_0_1.jpg","https://xcimg.szwego.com/imgHD/f8c0bdc9/20260420/cmp_i1776674058338_8697_0_2.jpg","https://xcimg.szwego.com/imgHD/f8c0bdc9/20260420/cmp_i1776674058340_1705_0_3.jpg","https://xcimg.szwego.com/imgHD/f8c0bdc9/20260420/cmp_i1776674058340_1591_0_4.jpg"],"created_at":"2026-06-29T10:48:58.929Z"},{"id":"item-6240d1f6be79","sku":"_dhGhG7SidNEA-L0vzkRAlibFJtaCYMhrYxUmi-g","name_en":"Black with silver accents, even more understated","name_cn":"Black with silver accents, even more understated\nMinimalist design, large enough capacity\nBriefcase, travel bag, shopping bag, or tote bag—easily switch between them","specs":{"source":"wsxcme","sourceId":"_dhGhG7SidNEA-L0vzkRAlibFJtaCYMhrYxUmi-g","sourceTagId":47002761,"sourceTagName":"Saint Laurent/women's bag","rawTitle":"Black with silver accents, even more understated\nMinimalist design, large enough capacity\nBriefcase, travel bag, shopping bag, or tote bag—easily switch between them"},"price":null,"currency":"CNY","moq":1,"category":"ysl-women-bags","status":"active","alibaba_url":null,"images":["https://xcimg.szwego.com/imgHD/f8c0bdc9/20260420/cmp_i1776669351727_8946_0_0.jpg","https://xcimg.szwego.com/imgHD/f8c0bdc9/20260420/cmp_i1776669351984_9242_0_1.jpg","https://xcimg.szwego.com/imgHD/f8c0bdc9/20260420/cmp_i1776669351862_7869_0_2.jpg","https://xcimg.szwego.com/imgHD/f8c0bdc9/20260420/cmp_i1776669351970_9630_0_3.jpg","https://xcimg.szwego.com/imgHD/f8c0bdc9/20260420/cmp_i1776669352014_3583_0_4.jpg"],"created_at":"2026-06-29T10:48:58.919Z"},{"id":"item-2100f6c7295c","sku":"_d_1_1neB5DETeki98Yj893MbLcoKdwGJDuvA8nQ","name_en":"Detail photo","name_cn":"Detail photo","specs":{"source":"wsxcme","sourceId":"_d_1_1neB5DETeki98Yj893MbLcoKdwGJDuvA8nQ","sourceTagId":47002761,"sourceTagName":"Saint Laurent/women's bag","rawTitle":"Detail photo"},"price":null,"currency":"CNY","moq":1,"category":"ysl-women-bags","status":"active","alibaba_url":null,"images":["https://xcimg.szwego.com/imgHD/f8c0bdc9/20260420/cmp_i1776669330101_9444_0_8.jpg","https://xcimg.szwego.com/imgHD/f8c0bdc9/20260420/cmp_i1776669326111_7776_0_0.jpg","https://xcimg.szwego.com/imgHD/f8c0bdc9/20260420/cmp_i1776669328291_3722_0_1.jpg","https://xcimg.szwego.com/imgHD/f8c0bdc9/20260420/cmp_i1776669330076_6888_0_2.jpg","https://xcimg.szwego.com/imgHD/f8c0bdc9/20260420/cmp_i1776669328306_3976_0_3.jpg","https://xcimg.szwego.com/imgHD/f8c0bdc9/20260420/cmp_i1776669328104_6185_0_4.jpg","https://xcimg.szwego.com/imgHD/f8c0bdc9/20260420/cmp_i1776669330980_4958_0_5.jpg","https://xcimg.szwego.com/imgHD/f8c0bdc9/20260420/cmp_i1776669330033_7258_0_6.jpg","https://xcimg.szwego.com/imgHD/f8c0bdc9/20260420/cmp_i1776669326131_4780_0_7.jpg"],"created_at":"2026-06-29T10:48:58.909Z"},{"id":"item-137a14e20ceb","sku":"_deOeOugjrP--OoTdcsdo8_Jj8y6Ldizolwn9B8w","name_en":"Black with silver buckle·","name_cn":"Black with silver buckle·\nshopping tote bag_Horizontal shopping bag\nA very minimalist, cool-toned series made from imported South African cowhide. It comes with a detachable clutch inside. Its features are large capacity and lightweight, paired with a small metal logo for an exquisite look!\nSize:38×28×13cm\nModel:394195","specs":{"source":"wsxcme","sourceId":"_deOeOugjrP--OoTdcsdo8_Jj8y6Ldizolwn9B8w","sourceTagId":47002761,"sourceTagName":"Saint Laurent/women's bag","modelNumber":"394195","dimensions":{"lengthCm":38,"heightCm":28,"widthCm":13},"rawTitle":"Black with silver buckle·\nshopping tote bag_Horizontal shopping bag\nA very minimalist, cool-toned series made from imported South African cowhide. It comes with a detachable clutch inside. Its features are large capacity and lightweight, paired with a small metal logo for an exquisite look!\nSize:38×28×13cm\nModel:394195"},"price":null,"currency":"CNY","moq":1,"category":"ysl-women-bags","status":"active","alibaba_url":null,"images":["https://xcimg.szwego.com/imgHD/f8c0bdc9/20260420/cmp_i1776669263869_5626_0_0.jpg","https://xcimg.szwego.com/imgHD/f8c0bdc9/20260420/cmp_i1776669265419_5556_0_1.jpg","https://xcimg.szwego.com/imgHD/f8c0bdc9/20260420/cmp_i1776669266638_9321_0_2.jpg","https://xcimg.szwego.com/imgHD/f8c0bdc9/20260420/cmp_i1776669266668_7239_0_3.jpg","https://xcimg.szwego.com/imgHD/f8c0bdc9/20260420/cmp_i1776669262534_4777_0_4.jpg","https://xcimg.szwego.com/imgHD/f8c0bdc9/20260420/cmp_i1776669263999_2084_0_5.jpg","https://xcimg.szwego.com/imgHD/f8c0bdc9/20260420/cmp_i1776669261872_3020_0_6.jpg","https://xcimg.szwego.com/imgHD/f8c0bdc9/20260420/cmp_i1776669263967_8487_0_7.jpg","https://xcimg.szwego.com/imgHD/f8c0bdc9/20260420/cmp_i1776669265448_6196_0_8.jpg"],"created_at":"2026-06-29T10:48:58.899Z"},{"id":"item-0d46cea373ef","sku":"_dgigiAYuwNeG47b1gIAHc4lZX1dF9eQlKmwWhTw","name_en":"Official website image","name_cn":"Official website image","specs":{"source":"wsxcme","sourceId":"_dgigiAYuwNeG47b1gIAHc4lZX1dF9eQlKmwWhTw","sourceTagId":47002761,"sourceTagName":"Saint Laurent/women's bag","rawTitle":"Official website image"},"price":null,"currency":"CNY","moq":1,"category":"ysl-women-bags","status":"active","alibaba_url":null,"images":["https://xcimg.szwego.com/imgHD/f8c0bdc9/20260420/cmp_i1776674188091_8481_0_0.jpg","https://xcimg.szwego.com/imgHD/f8c0bdc9/20260420/cmp_i1776674188091_4904_0_1.jpg","https://xcimg.szwego.com/imgHD/f8c0bdc9/20260420/cmp_i1776674188823_5008_0_2.jpg","https://xcimg.szwego.com/imgHD/f8c0bdc9/20260420/cmp_i1776674188091_6222_0_3.jpg","https://xcimg.szwego.com/imgHD/f8c0bdc9/20260420/cmp_i1776674188091_4673_0_4.jpg","https://xcimg.szwego.com/imgHD/f8c0bdc9/20260420/cmp_i1776674188090_6035_0_5.jpg"],"created_at":"2026-06-29T10:48:58.889Z"},{"id":"item-c44e3b6c2e61","sku":"_dmWmW3TMkoFpZGv_nk5xrfYOq_tSbCWpIdZwclg","name_en":"Matte suede texture + minimalist lines","name_cn":"Matte suede texture + minimalist lines\nBasic outfits look effortlessly luxurious","specs":{"source":"wsxcme","sourceId":"_dmWmW3TMkoFpZGv_nk5xrfYOq_tSbCWpIdZwclg","sourceTagId":47002761,"sourceTagName":"Saint Laurent/women's bag","rawTitle":"Matte suede texture + minimalist lines\nBasic outfits look effortlessly luxurious"},"price":null,"currency":"CNY","moq":1,"category":"ysl-women-bags","status":"active","alibaba_url":null,"images":["https://xcimg.szwego.com/imgHD/f8c0bdc9/20260420/cmp_i1776671000738_4944_0_4.jpg","https://xcimg.szwego.com/imgHD/f8c0bdc9/20260420/cmp_i1776671000843_7464_0_1.jpg","https://xcimg.szwego.com/imgHD/f8c0bdc9/20260420/cmp_i1776671000862_1466_0_0.jpg","https://xcimg.szwego.com/imgHD/f8c0bdc9/20260420/cmp_i1776671000833_6918_0_2.jpg","https://xcimg.szwego.com/imgHD/f8c0bdc9/20260420/cmp_i1776671000895_930_0_3.jpg"],"created_at":"2026-06-29T10:48:58.879Z"},{"id":"item-be5453e38ffe","sku":"_dmSmSAxndrRuMjCJw5arP1njFfZzh-cENi-A1Wg","name_en":"Detail photo","name_cn":"Detail photo","specs":{"source":"wsxcme","sourceId":"_dmSmSAxndrRuMjCJw5arP1njFfZzh-cENi-A1Wg","sourceTagId":47002761,"sourceTagName":"Saint Laurent/women's bag","rawTitle":"Detail photo"},"price":null,"currency":"CNY","moq":1,"category":"ysl-women-bags","status":"active","alibaba_url":null,"images":["https://xcimg.szwego.com/imgHD/f8c0bdc9/20260420/cmp_i1776670985845_753_0_0.jpg","https://xcimg.szwego.com/imgHD/f8c0bdc9/20260420/cmp_i1776670985640_6089_0_1.jpg","https://xcimg.szwego.com/imgHD/f8c0bdc9/20260420/cmp_i1776670987446_923_0_2.jpg","https://xcimg.szwego.com/imgHD/f8c0bdc9/20260420/cmp_i1776670985569_1723_0_3.jpg","https://xcimg.szwego.com/imgHD/f8c0bdc9/20260420/cmp_i1776670984273_5961_0_4.jpg","https://xcimg.szwego.com/imgHD/f8c0bdc9/20260420/cmp_i1776670988243_3274_0_5.jpg","https://xcimg.szwego.com/imgHD/f8c0bdc9/20260420/cmp_i1776670987440_8568_0_6.jpg","https://xcimg.szwego.com/imgHD/f8c0bdc9/20260420/cmp_i1776670984505_8867_0_7.jpg"],"created_at":"2026-06-29T10:48:58.869Z"},{"id":"item-51478bfea50c","sku":"_dwTwToh62blLtRt_wYklkgdGK7VOCMxt4d_tlGg","name_en":"Green Stone Pattern","name_cn":"Green Stone Pattern\n【Original Leather】(No Packaging)\nBest-selling LE 5A7 Shoulder Bag♡\nThis year's trending vintage shoulder bag is always popular. Full leather is fine and smooth. The simple yet sophisticated design has enough capacity, is lightweight, and is not outdated—it's truly perfect~\nRetro feel for styling, another viral bestseller✔️\nModel: 713938 Original Leather\nSize: 23×22×8.5cm","specs":{"source":"wsxcme","sourceId":"_dwTwToh62blLtRt_wYklkgdGK7VOCMxt4d_tlGg","sourceTagId":47002761,"sourceTagName":"Saint Laurent/women's bag","modelNumber":"713938","dimensions":{"lengthCm":23,"heightCm":22,"widthCm":8.5},"rawTitle":"Green Stone Pattern\n【Original Leather】(No Packaging)\nBest-selling LE 5A7 Shoulder Bag♡\nThis year's trending vintage shoulder bag is always popular. Full leather is fine and smooth. The simple yet sophisticated design has enough capacity, is lightweight, and is not outdated—it's truly perfect~\nRetro feel for styling, another viral bestseller✔️\nModel: 713938 Original Leather\nSize: 23×22×8.5cm"},"price":null,"currency":"CNY","moq":1,"category":"ysl-women-bags","status":"active","alibaba_url":null,"images":["https://xcimg.szwego.com/imgHD/f8c0bdc9/20260420/cmp_i1776670878854_9818_0_0.jpg","https://xcimg.szwego.com/imgHD/f8c0bdc9/20260420/cmp_i1776670877528_9652_0_1.jpg","https://xcimg.szwego.com/imgHD/f8c0bdc9/20260420/cmp_i1776670879352_284_0_2.jpg","https://xcimg.szwego.com/imgHD/f8c0bdc9/20260420/cmp_i1776670878841_7115_0_3.jpg","https://xcimg.szwego.com/imgHD/f8c0bdc9/20260420/cmp_i1776670877385_2080_0_4.jpg","https://xcimg.szwego.com/imgHD/f8c0bdc9/20260420/cmp_i1776670876329_6630_0_5.jpg","https://xcimg.szwego.com/imgHD/f8c0bdc9/20260420/cmp_i1776670877659_6397_0_6.jpg","https://xcimg.szwego.com/imgHD/f8c0bdc9/20260420/cmp_i1776670878793_1779_0_7.jpg","https://xcimg.szwego.com/imgHD/f8c0bdc9/20260420/cmp_i1776670875944_4404_0_8.jpg"],"created_at":"2026-06-29T10:48:58.859Z"},{"id":"item-04bc7199d376","sku":"_dcicimB0aNL3ggGIUAvaiXwmbhryQftsoByxfcw","name_en":"Official website image","name_cn":"Official website image","specs":{"source":"wsxcme","sourceId":"_dcicimB0aNL3ggGIUAvaiXwmbhryQftsoByxfcw","sourceTagId":47002761,"sourceTagName":"Saint Laurent/women's bag","rawTitle":"Official website image"},"price":null,"currency":"CNY","moq":1,"category":"ysl-women-bags","status":"active","alibaba_url":null,"images":["https://xcimg.szwego.com/imgHD/f8c0bdc9/20260420/cmp_i1776674166636_2476_0_0.jpg","https://xcimg.szwego.com/imgHD/f8c0bdc9/20260420/cmp_i1776674165837_2895_0_1.jpg","https://xcimg.szwego.com/imgHD/f8c0bdc9/20260420/cmp_i1776674165837_8369_0_2.jpg","https://xcimg.szwego.com/imgHD/f8c0bdc9/20260420/cmp_i1776674166636_7599_0_3.jpg","https://xcimg.szwego.com/imgHD/f8c0bdc9/20260420/cmp_i1776674165836_6254_0_4.jpg","https://xcimg.szwego.com/imgHD/f8c0bdc9/20260420/cmp_i1776674165838_8407_0_5.jpg","https://xcimg.szwego.com/imgHD/f8c0bdc9/20260420/cmp_i1776674165837_6280_0_6.jpg"],"created_at":"2026-06-29T10:48:58.849Z"},{"id":"item-e2424735144a","sku":"_dmamaQbOqFnEdakqYk6rzIFrpYG88dsjrfDX13Q","name_en":"ICARE HOBO Shoulder Bag","name_cn":"ICARE HOBO Shoulder Bag\nSoft body fits daily life; just throw it over your shoulder to blend into the rhythm of commuting, shopping, or short trips","specs":{"source":"wsxcme","sourceId":"_dmamaQbOqFnEdakqYk6rzIFrpYG88dsjrfDX13Q","sourceTagId":47002761,"sourceTagName":"Saint Laurent/women's bag","rawTitle":"ICARE HOBO Shoulder Bag\nSoft body fits daily life; just throw it over your shoulder to blend into the rhythm of commuting, shopping, or short trips"},"price":null,"currency":"CNY","moq":1,"category":"ysl-women-bags","status":"active","alibaba_url":null,"images":["https://xcimg.szwego.com/imgHD/f8c0bdc9/20260420/cmp_i1776670687414_9388_0_0.jpg","https://xcimg.szwego.com/imgHD/f8c0bdc9/20260420/cmp_i1776670687186_6407_0_1.jpg","https://xcimg.szwego.com/imgHD/f8c0bdc9/20260420/cmp_i1776670687122_7563_0_2.jpg","https://xcimg.szwego.com/imgHD/f8c0bdc9/20260420/cmp_i1776670687217_4533_0_3.jpg"],"created_at":"2026-06-29T10:48:58.839Z"},{"id":"item-55b5439d2c03","sku":"_dwSwSWuZn3TXvJIoa_sF1CAcNHdhYRDZ8KAuhqw","name_en":"Detail photo","name_cn":"Detail photo","specs":{"source":"wsxcme","sourceId":"_dwSwSWuZn3TXvJIoa_sF1CAcNHdhYRDZ8KAuhqw","sourceTagId":47002761,"sourceTagName":"Saint Laurent/women's bag","rawTitle":"Detail photo"},"price":null,"currency":"CNY","moq":1,"category":"ysl-women-bags","status":"active","alibaba_url":null,"images":["https://xcimg.szwego.com/imgHD/f8c0bdc9/20260420/cmp_i1776670672548_900_0_0.jpg","https://xcimg.szwego.com/imgHD/f8c0bdc9/20260420/cmp_i1776670678781_5246_0_1.jpg","https://xcimg.szwego.com/imgHD/f8c0bdc9/20260420/cmp_i1776670674078_2768_0_2.jpg","https://xcimg.szwego.com/imgHD/f8c0bdc9/20260420/cmp_i1776670673905_6109_0_3.jpg","https://xcimg.szwego.com/imgHD/f8c0bdc9/20260420/cmp_i1776670672857_2642_0_4.jpg","https://xcimg.szwego.com/imgHD/f8c0bdc9/20260420/cmp_i1776670674130_8844_0_5.jpg"],"created_at":"2026-06-29T10:48:58.829Z"},{"id":"item-80acbb28fbee","sku":"_dj3j3RGcc52pA_mYEZyQHdx6JhHXOwiHiq7kXEg","name_en":"Green","name_cn":"Green\nICARE hobo Nappa lambskin handbag\nThe highly anticipated croissant-shaped bag🥐 is here. It features a signature metal logo, perfectly combining retro and modern vibes, making it one of the most anticipated It Bags of the season. The classic I CARE shape and distinctive curved logo make it full of fashion sense!\nModel: 698652\nSize: 44×30×7cm","specs":{"source":"wsxcme","sourceId":"_dj3j3RGcc52pA_mYEZyQHdx6JhHXOwiHiq7kXEg","sourceTagId":47002761,"sourceTagName":"Saint Laurent/women's bag","modelNumber":"698652","dimensions":{"lengthCm":44,"heightCm":30,"widthCm":7},"rawTitle":"Green\nICARE hobo Nappa lambskin handbag\nThe highly anticipated croissant-shaped bag🥐 is here. It features a signature metal logo, perfectly combining retro and modern vibes, making it one of the most anticipated It Bags of the season. The classic I CARE shape and distinctive curved logo make it full of fashion sense!\nModel: 698652\nSize: 44×30×7cm"},"price":null,"currency":"CNY","moq":1,"category":"ysl-women-bags","status":"active","alibaba_url":null,"images":["https://xcimg.szwego.com/imgHD/f8c0bdc9/20260420/cmp_i1776670649952_3544_0_0.jpg","https://xcimg.szwego.com/imgHD/f8c0bdc9/20260420/cmp_i1776670651580_5275_0_1.jpg","https://xcimg.szwego.com/imgHD/f8c0bdc9/20260420/cmp_i1776670652949_934_0_2.jpg","https://xcimg.szwego.com/imgHD/f8c0bdc9/20260420/cmp_i1776670652941_9215_0_3.jpg","https://xcimg.szwego.com/imgHD/f8c0bdc9/20260420/cmp_i1776670648498_55_0_4.jpg","https://xcimg.szwego.com/imgHD/f8c0bdc9/20260420/cmp_i1776670651553_4807_0_5.jpg","https://xcimg.szwego.com/imgHD/f8c0bdc9/20260420/cmp_i1776670649809_3240_0_6.jpg","https://xcimg.szwego.com/imgHD/f8c0bdc9/20260420/cmp_i1776670650080_7551_0_7.jpg","https://xcimg.szwego.com/imgHD/f8c0bdc9/20260420/cmp_i1776670647656_7762_0_8.jpg"],"created_at":"2026-06-29T10:48:58.819Z"},{"id":"item-faad67a48113","sku":"_deHeH2u_drcxetCZMTgtHCRdkBSfq3Uqi2BqcPA","name_en":"Sac de jour","name_cn":"Sac de jour\nOlive hand-rubbed leather with gold buckle\n22/26/32cm","specs":{"source":"wsxcme","sourceId":"_deHeH2u_drcxetCZMTgtHCRdkBSfq3Uqi2BqcPA","sourceTagId":47002761,"sourceTagName":"Saint Laurent/women's bag","rawTitle":"Sac de jour\nOlive hand-rubbed leather with gold buckle\n22/26/32cm"},"price":null,"currency":"CNY","moq":1,"category":"ysl-women-bags","status":"active","alibaba_url":null,"images":["https://xcimg.szwego.com/imgHD/f8c0bdc9/20260129/cmp_i1769675747775_787_0_0.jpg","https://xcimg.szwego.com/imgHD/f8c0bdc9/20260129/cmp_i1769675747839_7103_0_1.jpg","https://xcimg.szwego.com/imgHD/f8c0bdc9/20260129/cmp_i1769673371319_9526_0_0.jpg","https://xcimg.szwego.com/imgHD/f8c0bdc9/20260129/cmp_i1769673614607_6689_0_0.jpg","https://xcimg.szwego.com/imgHD/f8c0bdc9/20260129/i1769675549455_8094_0_0.jpg"],"created_at":"2026-06-29T10:48:58.809Z"},{"id":"item-4399e86bc2a1","sku":"_dtbtb8wrXp8SU1baoxCeY62cDv07tSsxrKxqQcA","name_en":"Official image","name_cn":"Official image","specs":{"source":"wsxcme","sourceId":"_dtbtb8wrXp8SU1baoxCeY62cDv07tSsxrKxqQcA","sourceTagId":47002761,"sourceTagName":"Saint Laurent/women's bag","rawTitle":"Official image"},"price":null,"currency":"CNY","moq":1,"category":"ysl-women-bags","status":"active","alibaba_url":null,"images":["https://xcimg.szwego.com/imgHD/f8c0bdc9/20260129/cmp_i1769678963727_2080_0_0.jpg","https://xcimg.szwego.com/imgHD/f8c0bdc9/20260129/cmp_i1769678963726_2193_0_1.jpg"],"created_at":"2026-06-29T10:48:58.799Z"},{"id":"item-c349ad78231c","sku":"_dmpmpi2_wWmnznTXAeDVyNNj-UvNqUjVIpBRLEg","name_en":"Official website image","name_cn":"Official website image","specs":{"source":"wsxcme","sourceId":"_dmpmpi2_wWmnznTXAeDVyNNj-UvNqUjVIpBRLEg","sourceTagId":47002761,"sourceTagName":"Saint Laurent/women's bag","rawTitle":"Official website image"},"price":null,"currency":"CNY","moq":1,"category":"ysl-women-bags","status":"active","alibaba_url":null,"images":["https://xcimg.szwego.com/imgHD/f8c0bdc9/20260129/cmp_i1769678954121_1029_0_0.jpg","https://xcimg.szwego.com/imgHD/f8c0bdc9/20260129/cmp_i1769678950513_7596_0_1.jpg","https://xcimg.szwego.com/imgHD/f8c0bdc9/20260129/cmp_i1769678950513_2796_0_2.jpg","https://xcimg.szwego.com/imgHD/f8c0bdc9/20260129/cmp_i1769678954123_1420_0_3.jpg","https://xcimg.szwego.com/imgHD/f8c0bdc9/20260129/cmp_i1769678950511_7843_0_4.jpg","https://xcimg.szwego.com/imgHD/f8c0bdc9/20260129/cmp_i1769678954122_7736_0_5.jpg","https://xcimg.szwego.com/imgHD/f8c0bdc9/20260129/cmp_i1769678950511_1703_0_6.jpg","https://xcimg.szwego.com/imgHD/f8c0bdc9/20260129/cmp_i1769678950509_4188_0_7.jpg"],"created_at":"2026-06-29T10:48:58.789Z"},{"id":"item-28545261a1e6","sku":"_dqWqWFQ6Sz6vUaVtIocVuQM37yZY_StcOM8qErQ","name_en":"Side view showing accordion pleats, comes with a handle","name_cn":"Side view showing accordion pleats, comes with a handle\nBoth shoulder and handheld carry look very elegant","specs":{"source":"wsxcme","sourceId":"_dqWqWFQ6Sz6vUaVtIocVuQM37yZY_StcOM8qErQ","sourceTagId":47002761,"sourceTagName":"Saint Laurent/women's bag","rawTitle":"Side view showing accordion pleats, comes with a handle\nBoth shoulder and handheld carry look very elegant"},"price":null,"currency":"CNY","moq":1,"category":"ysl-women-bags","status":"active","alibaba_url":null,"images":["https://xcimg.szwego.com/imgHD/f8c0bdc9/20260129/cmp_i1769675549455_8094_0_0.jpg","https://xcimg.szwego.com/imgHD/f8c0bdc9/20260129/cmp_i1769675549419_1807_0_1.jpg","https://xcimg.szwego.com/imgHD/f8c0bdc9/20260129/cmp_i1769675549478_7505_0_2.jpg","https://xcimg.szwego.com/imgHD/f8c0bdc9/20260129/cmp_i1769675549395_8877_0_3.jpg"],"created_at":"2026-06-29T10:48:58.779Z"},{"id":"item-6e37d6e0f3b7","sku":"_dlzlzYxJDlxKgG7fs1R5cC_J_Mnm47V5B6yGWJQ","name_en":"Detail photo","name_cn":"Detail photo","specs":{"source":"wsxcme","sourceId":"_dlzlzYxJDlxKgG7fs1R5cC_J_Mnm47V5B6yGWJQ","sourceTagId":47002761,"sourceTagName":"Saint Laurent/women's bag","rawTitle":"Detail photo"},"price":null,"currency":"CNY","moq":1,"category":"ysl-women-bags","status":"active","alibaba_url":null,"images":["https://xcimg.szwego.com/imgHD/f8c0bdc9/20260129/cmp_i1769675542417_6322_0_0.jpg","https://xcimg.szwego.com/imgHD/f8c0bdc9/20260129/cmp_i1769675536864_5285_0_1.jpg","https://xcimg.szwego.com/imgHD/f8c0bdc9/20260129/cmp_i1769675542633_4657_0_2.jpg","https://xcimg.szwego.com/imgHD/f8c0bdc9/20260129/cmp_i1769675550721_5959_0_3.jpg","https://xcimg.szwego.com/imgHD/f8c0bdc9/20260129/cmp_i1769675542520_145_0_4.jpg","https://xcimg.szwego.com/imgHD/f8c0bdc9/20260129/cmp_i1769675542454_1687_0_5.jpg","https://xcimg.szwego.com/imgHD/f8c0bdc9/20260129/cmp_i1769675550354_7327_0_6.jpg","https://xcimg.szwego.com/imgHD/f8c0bdc9/20260129/cmp_i1769675548564_3656_0_7.jpg","https://xcimg.szwego.com/imgHD/f8c0bdc9/20260129/cmp_i1769675535471_5548_0_8.jpg"],"created_at":"2026-06-29T10:48:58.769Z"},{"id":"item-7705427c9ca8","sku":"_d-P-P1L2C3l96goxskH-UdkwdmCgKcHXNPzmRIA","name_en":"Olive hand-rubbed leather with gold buckle·Accordion bag 22cm","name_cn":"Olive hand-rubbed leather with gold buckle·Accordion bag 22cm\nThe most elegant Sac de Day series, a timeless classic. Exquisite pencil-stitched calfskin with clear texture and a rich luster, very luxurious! The strap is adjustable, choose the length you prefer! The logo is very small, perfectly interpreting the understated luxury style~\nModel: 717440\nDimensions: 22x18x10.5cm","specs":{"source":"wsxcme","sourceId":"_d-P-P1L2C3l96goxskH-UdkwdmCgKcHXNPzmRIA","sourceTagId":47002761,"sourceTagName":"Saint Laurent/women's bag","modelNumber":"717440","dimensions":{"lengthCm":22,"heightCm":18,"widthCm":10.5},"rawTitle":"Olive hand-rubbed leather with gold buckle·Accordion bag 22cm\nThe most elegant Sac de Day series, a timeless classic. Exquisite pencil-stitched calfskin with clear texture and a rich luster, very luxurious! The strap is adjustable, choose the length you prefer! The logo is very small, perfectly interpreting the understated luxury style~\nModel: 717440\nDimensions: 22x18x10.5cm"},"price":null,"currency":"CNY","moq":1,"category":"ysl-women-bags","status":"active","alibaba_url":null,"images":["https://xcimg.szwego.com/imgHD/f8c0bdc9/20260129/cmp_i1769675482379_4912_0_0.jpg","https://xcimg.szwego.com/imgHD/f8c0bdc9/20260129/cmp_i1769675482399_7712_0_1.jpg","https://xcimg.szwego.com/imgHD/f8c0bdc9/20260129/cmp_i1769675475407_9497_0_2.jpg","https://xcimg.szwego.com/imgHD/f8c0bdc9/20260129/cmp_i1769675475067_8825_0_3.jpg","https://xcimg.szwego.com/imgHD/f8c0bdc9/20260129/cmp_i1769675482607_2022_0_4.jpg","https://xcimg.szwego.com/imgHD/f8c0bdc9/20260129/cmp_i1769675475081_3480_0_5.jpg","https://xcimg.szwego.com/imgHD/f8c0bdc9/20260129/cmp_i1769675475041_9636_0_6.jpg","https://xcimg.szwego.com/imgHD/f8c0bdc9/20260129/cmp_i1769675473837_7378_0_7.jpg","https://xcimg.szwego.com/imgHD/f8c0bdc9/20260129/cmp_i1769675482531_2513_0_8.jpg"],"created_at":"2026-06-29T10:48:58.759Z"},{"id":"item-a6bf51266931","sku":"_ds1s1s9lrhOaem84FYid0PfHdrkbUyTf0mBAYrw","name_en":"A SAC DE JOUR accordion bag that makes you look powerful","name_cn":"A SAC DE JOUR accordion bag that makes you look powerful\nClean lines and a bold design, simple and elegant","specs":{"source":"wsxcme","sourceId":"_ds1s1s9lrhOaem84FYid0PfHdrkbUyTf0mBAYrw","sourceTagId":47002761,"sourceTagName":"Saint Laurent/women's bag","rawTitle":"A SAC DE JOUR accordion bag that makes you look powerful\nClean lines and a bold design, simple and elegant"},"price":null,"currency":"CNY","moq":1,"category":"ysl-women-bags","status":"active","alibaba_url":null,"images":["https://xcimg.szwego.com/imgHD/f8c0bdc9/20260129/cmp_i1769673614607_6689_0_0.jpg","https://xcimg.szwego.com/imgHD/f8c0bdc9/20260129/cmp_i1769673614575_230_0_1.jpg","https://xcimg.szwego.com/imgHD/f8c0bdc9/20260129/cmp_i1769673614596_2477_0_2.jpg","https://xcimg.szwego.com/imgHD/f8c0bdc9/20260129/cmp_i1769673614618_7688_0_3.jpg"],"created_at":"2026-06-29T10:48:58.749Z"},{"id":"item-4d1e8ffae8dc","sku":"_dnpnpljaHJpvOJZ6BFB2Pihn7SRkJqMh_EvfJDg","name_en":"Detail photo","name_cn":"Detail photo","specs":{"source":"wsxcme","sourceId":"_dnpnpljaHJpvOJZ6BFB2Pihn7SRkJqMh_EvfJDg","sourceTagId":47002761,"sourceTagName":"Saint Laurent/women's bag","rawTitle":"Detail photo"},"price":null,"currency":"CNY","moq":1,"category":"ysl-women-bags","status":"active","alibaba_url":null,"images":["https://xcimg.szwego.com/imgHD/f8c0bdc9/20260129/cmp_i1769673606576_3976_0_8.jpg","https://xcimg.szwego.com/imgHD/f8c0bdc9/20260129/cmp_i1769673606868_6758_0_0.jpg","https://xcimg.szwego.com/imgHD/f8c0bdc9/20260129/cmp_i1769673606798_6090_0_1.jpg","https://xcimg.szwego.com/imgHD/f8c0bdc9/20260129/cmp_i1769673664045_8790_0_2.jpg","https://xcimg.szwego.com/imgHD/f8c0bdc9/20260129/cmp_i1769673663944_5561_0_3.jpg","https://xcimg.szwego.com/imgHD/f8c0bdc9/20260129/cmp_i1769673606798_9754_0_4.jpg","https://xcimg.szwego.com/imgHD/f8c0bdc9/20260129/cmp_i1769673663684_8777_0_5.jpg","https://xcimg.szwego.com/imgHD/f8c0bdc9/20260129/cmp_i1769673604769_3137_0_6.jpg","https://xcimg.szwego.com/imgHD/f8c0bdc9/20260129/cmp_i1769673663833_9207_0_7.jpg"],"created_at":"2026-06-29T10:48:58.739Z"}],"page":29,"pageSize":24,"total":9921,"totalPages":414}
