{"items":[{"id":"item-c389d353ba4d","sku":"_dvMvME0tjkQ6fjcJ0kU3u6oHbqUYYeAmu-BC5jg","name_en":"🎉新品1BB149小号🎉🎉","name_cn":"🎉新品1BB149小号🎉🎉\n这款天然粒面皮革制成的顶部提手包袋以柔软的轮廓进行了重新诠释,可手提或搭配可拆式肩带佩戴,配有2个可拆卸吊牌。金属硬件。正面带有浮雕字母标志,拉链封口,带两个口袋,其中一个带拉链,容量空间大,又是一款永久不过时爆款。赶紧入手吧🎉\n长28x高20x底13cm🎉🎉🎉💰💰💰\n92698880","specs":{"source":"wsxcme","sourceId":"_dvMvME0tjkQ6fjcJ0kU3u6oHbqUYYeAmu-BC5jg","sourceTagId":47002669,"sourceTagName":"普拉达/女包","rawTitle":"🎉新品1BB149小号🎉🎉\n这款天然粒面皮革制成的顶部提手包袋以柔软的轮廓进行了重新诠释,可手提或搭配可拆式肩带佩戴,配有2个可拆卸吊牌。金属硬件。正面带有浮雕字母标志,拉链封口,带两个口袋,其中一个带拉链,容量空间大,又是一款永久不过时爆款。赶紧入手吧🎉\n长28x高20x底13cm🎉🎉🎉💰💰💰\n92698880"},"price":null,"currency":"CNY","moq":1,"category":"prada-women-bags","status":"active","alibaba_url":null,"images":["https://xcimg.szwego.com/20251101/i1761983037_103_0.jpg","https://xcimg.szwego.com/20251101/i1761983037_4850_1.jpg","https://xcimg.szwego.com/20251101/i1761983037_21_2.jpg","https://xcimg.szwego.com/20251101/i1761983037_6992_3.jpg","https://xcimg.szwego.com/20251101/i1761983037_2521_4.jpg","https://xcimg.szwego.com/20251101/i1761983037_906_5.jpg","https://xcimg.szwego.com/20251101/i1761983037_4375_6.jpg","https://xcimg.szwego.com/20251101/i1761983037_1833_7.jpg","https://xcimg.szwego.com/20251101/i1761983037_3236_8.jpg"],"created_at":"2026-05-20T08:41:55.307Z"},{"id":"item-6510d19d2ee2","sku":"_dA2A2atyZ1QJveNw7qXNNP76fleX9Vuf1Qx3tBw","name_en":"🎉新品1BB149小号🎉🎉","name_cn":"🎉新品1BB149小号🎉🎉\n这款天然粒面皮革制成的顶部提手包袋以柔软的轮廓进行了重新诠释,可手提或搭配可拆式肩带佩戴,配有2个可拆卸吊牌。金属硬件。正面带有浮雕字母标志,拉链封口,带两个口袋,其中一个带拉链,容量空间大,又是一款永久不过时爆款。赶紧入手吧🎉\n长28x高20x底13cm🎉🎉🎉💰💰💰\n9269880","specs":{"source":"wsxcme","sourceId":"_dA2A2atyZ1QJveNw7qXNNP76fleX9Vuf1Qx3tBw","sourceTagId":47002669,"sourceTagName":"普拉达/女包","rawTitle":"🎉新品1BB149小号🎉🎉\n这款天然粒面皮革制成的顶部提手包袋以柔软的轮廓进行了重新诠释,可手提或搭配可拆式肩带佩戴,配有2个可拆卸吊牌。金属硬件。正面带有浮雕字母标志,拉链封口,带两个口袋,其中一个带拉链,容量空间大,又是一款永久不过时爆款。赶紧入手吧🎉\n长28x高20x底13cm🎉🎉🎉💰💰💰\n9269880"},"price":null,"currency":"CNY","moq":1,"category":"prada-women-bags","status":"active","alibaba_url":null,"images":["https://xcimg.szwego.com/20251101/i1761982673_7048_0.jpg","https://xcimg.szwego.com/20251101/i1761982673_6819_1.jpg","https://xcimg.szwego.com/20251101/i1761982673_5354_2.jpg","https://xcimg.szwego.com/20251101/i1761982673_7738_3.jpg","https://xcimg.szwego.com/20251101/i1761982673_9492_4.jpg","https://xcimg.szwego.com/20251101/i1761982673_5531_5.jpg","https://xcimg.szwego.com/20251101/i1761982673_3106_6.jpg","https://xcimg.szwego.com/20251101/i1761982673_6365_7.jpg","https://xcimg.szwego.com/20251101/i1761982673_362_8.jpg"],"created_at":"2026-05-20T08:41:55.297Z"},{"id":"item-2a75f9a6f3aa","sku":"_dacacRpJL_SX-wGKqXzG31cL132gPiSFKlCDtiA","name_en":"🎉新品1BB148🎉🎉","name_cn":"🎉新品1BB148🎉🎉\n这款天然粒面皮革制成的顶部提手包袋以柔软的轮廓进行了重新诠释,可手提或搭配可拆式肩带佩戴,配有2个可拆卸吊牌。金属硬件。正面带有浮雕字母标志,拉链封口,带两个口袋,其中一个带拉链,容量空间大,又是一款永久不过时爆款。赶紧入手吧🎉\n长33x高22x底14cm🎉🎉🎉💰💰💰\n92698950","specs":{"source":"wsxcme","sourceId":"_dacacRpJL_SX-wGKqXzG31cL132gPiSFKlCDtiA","sourceTagId":47002669,"sourceTagName":"普拉达/女包","rawTitle":"🎉新品1BB148🎉🎉\n这款天然粒面皮革制成的顶部提手包袋以柔软的轮廓进行了重新诠释,可手提或搭配可拆式肩带佩戴,配有2个可拆卸吊牌。金属硬件。正面带有浮雕字母标志,拉链封口,带两个口袋,其中一个带拉链,容量空间大,又是一款永久不过时爆款。赶紧入手吧🎉\n长33x高22x底14cm🎉🎉🎉💰💰💰\n92698950"},"price":null,"currency":"CNY","moq":1,"category":"prada-women-bags","status":"active","alibaba_url":null,"images":["https://xcimg.szwego.com/20251024/i1761291756_7227_0.jpg","https://xcimg.szwego.com/20251024/i1761291756_7224_1.jpg","https://xcimg.szwego.com/20251024/i1761291756_2885_2.jpg","https://xcimg.szwego.com/20251024/i1761291756_3005_3.jpg","https://xcimg.szwego.com/20251024/i1761291756_6695_4.jpg","https://xcimg.szwego.com/20251024/i1761291756_1816_5.jpg","https://xcimg.szwego.com/20251024/i1761291756_1248_6.jpg","https://xcimg.szwego.com/20251024/i1761291756_6979_7.jpg","https://xcimg.szwego.com/20251024/i1761291756_8410_8.jpg"],"created_at":"2026-05-20T08:41:55.287Z"},{"id":"item-1c8232cb27f5","sku":"_dnVnVkUUriQHvWyzdGl9uVaRPqpQqazkD9bv67Q","name_en":"🎉新品1BB148🎉🎉","name_cn":"🎉新品1BB148🎉🎉\n这款天然粒面皮革制成的顶部提手包袋以柔软的轮廓进行了重新诠释,可手提或搭配可拆式肩带佩戴,配有2个可拆卸吊牌。金属硬件。正面带有浮雕字母标志,拉链封口,带两个口袋,其中一个带拉链,容量空间大,又是一款永久不过时爆款。赶紧入手吧🎉\n长33x高22x底14cm🎉🎉🎉💰💰💰\n92698950","specs":{"source":"wsxcme","sourceId":"_dnVnVkUUriQHvWyzdGl9uVaRPqpQqazkD9bv67Q","sourceTagId":47002669,"sourceTagName":"普拉达/女包","rawTitle":"🎉新品1BB148🎉🎉\n这款天然粒面皮革制成的顶部提手包袋以柔软的轮廓进行了重新诠释,可手提或搭配可拆式肩带佩戴,配有2个可拆卸吊牌。金属硬件。正面带有浮雕字母标志,拉链封口,带两个口袋,其中一个带拉链,容量空间大,又是一款永久不过时爆款。赶紧入手吧🎉\n长33x高22x底14cm🎉🎉🎉💰💰💰\n92698950"},"price":null,"currency":"CNY","moq":1,"category":"prada-women-bags","status":"active","alibaba_url":null,"images":["https://xcimg.szwego.com/20251024/i1761291004_4739_0.jpg","https://xcimg.szwego.com/20251024/i1761291004_9754_1.jpg","https://xcimg.szwego.com/20251024/i1761291004_9128_2.jpg","https://xcimg.szwego.com/20251024/i1761291004_6885_3.jpg","https://xcimg.szwego.com/20251024/i1761291004_2695_4.jpg","https://xcimg.szwego.com/20251024/i1761291004_5316_5.jpg","https://xcimg.szwego.com/20251024/i1761291054_2445_0.jpg","https://xcimg.szwego.com/20251024/i1761291004_1541_6.jpg","https://xcimg.szwego.com/20251024/i1761291127_7025_0.jpg"],"created_at":"2026-05-20T08:41:55.277Z"},{"id":"item-068857b6ce91","sku":"_dw_w_FyUHNETNqwS7tjWcfxGo4-S_nDFv6bwXog","name_en":"Prada Women Bags","name_cn":"新品🎉🎉","specs":{"source":"wsxcme","sourceId":"_dw_w_FyUHNETNqwS7tjWcfxGo4-S_nDFv6bwXog","sourceTagId":47002669,"sourceTagName":"普拉达/女包","rawTitle":"新品🎉🎉"},"price":null,"currency":"CNY","moq":1,"category":"prada-women-bags","status":"active","alibaba_url":null,"images":["https://xcimg.szwego.com/img/2aeb7024/20260421/i1776745436_8014_0.jpg"],"created_at":"2026-05-20T08:41:55.267Z"},{"id":"item-486593a93a9b","sku":"_da7a7zFHsYkW-O1bI9EPRSJdxTD3GsvCKurJCIg","name_en":"🎉新品托特🎉1BG571🎉🎉","name_cn":"🎉新品托特🎉1BG571🎉🎉\n这款托特包呈现挺括廓形,散发现代气息与精致优雅魅力。宽包口方便拿取,线条极简利落,皮革质地柔软细腻。这款实用的配饰融合了简约而精致的细节,是品牌匠心工艺的生动表达。容量空间大,又是一款永久不过时爆款🎉🎉\n长38x高24.5x底18cm🎉🎉🎉💰💰💰\n92698950","specs":{"source":"wsxcme","sourceId":"_da7a7zFHsYkW-O1bI9EPRSJdxTD3GsvCKurJCIg","sourceTagId":47002669,"sourceTagName":"普拉达/女包","rawTitle":"🎉新品托特🎉1BG571🎉🎉\n这款托特包呈现挺括廓形,散发现代气息与精致优雅魅力。宽包口方便拿取,线条极简利落,皮革质地柔软细腻。这款实用的配饰融合了简约而精致的细节,是品牌匠心工艺的生动表达。容量空间大,又是一款永久不过时爆款🎉🎉\n长38x高24.5x底18cm🎉🎉🎉💰💰💰\n92698950"},"price":null,"currency":"CNY","moq":1,"category":"prada-women-bags","status":"active","alibaba_url":null,"images":["https://xcimg.szwego.com/img/2aeb7024/20260421/i1776745328_1418_1.jpg","https://xcimg.szwego.com/img/2aeb7024/20260421/i1776745330_1160_0.jpg","https://xcimg.szwego.com/img/2aeb7024/20260421/i1776745329_7967_5.jpg","https://xcimg.szwego.com/img/2aeb7024/20260421/i1776745329_6137_3.jpg","https://xcimg.szwego.com/img/2aeb7024/20260421/i1776745329_8817_6.jpg","https://xcimg.szwego.com/img/2aeb7024/20260421/i1776745328_1680_0.jpg","https://xcimg.szwego.com/img/2aeb7024/20260421/i1776745329_3634_4.jpg","https://xcimg.szwego.com/img/2aeb7024/20260421/i1776745331_839_0.jpg","https://xcimg.szwego.com/img/2aeb7024/20260421/i1776745329_2676_8.jpg"],"created_at":"2026-05-20T08:41:55.257Z"},{"id":"item-870e0773485b","sku":"_dvsvsG-vKABUZTiI0jrDstwjmcNJpR_hQj88C1g","name_en":"🎉新品托特🎉1BG571🎉🎉","name_cn":"🎉新品托特🎉1BG571🎉🎉\n这款托特包呈现挺括廓形,散发现代气息与精致优雅魅力。宽包口方便拿取,线条极简利落,皮革质地柔软细腻。这款实用的配饰融合了简约而精致的细节,是品牌匠心工艺的生动表达。容量空间大,又是一款永久不过时爆款🎉🎉\n长38x高24.5x底18cm🎉🎉🎉💰💰💰\n92698950","specs":{"source":"wsxcme","sourceId":"_dvsvsG-vKABUZTiI0jrDstwjmcNJpR_hQj88C1g","sourceTagId":47002669,"sourceTagName":"普拉达/女包","rawTitle":"🎉新品托特🎉1BG571🎉🎉\n这款托特包呈现挺括廓形,散发现代气息与精致优雅魅力。宽包口方便拿取,线条极简利落,皮革质地柔软细腻。这款实用的配饰融合了简约而精致的细节,是品牌匠心工艺的生动表达。容量空间大,又是一款永久不过时爆款🎉🎉\n长38x高24.5x底18cm🎉🎉🎉💰💰💰\n92698950"},"price":null,"currency":"CNY","moq":1,"category":"prada-women-bags","status":"active","alibaba_url":null,"images":["https://xcimg.szwego.com/img/2aeb7024/20260421/i1776745239_2638_0.jpg","https://xcimg.szwego.com/img/2aeb7024/20260421/i1776745239_5233_0.jpg","https://xcimg.szwego.com/img/2aeb7024/20260421/i1776745240_8749_0.jpg","https://xcimg.szwego.com/img/2aeb7024/20260421/i1776745240_9222_0.jpg","https://xcimg.szwego.com/img/2aeb7024/20260421/i1776745239_7320_0.jpg","https://xcimg.szwego.com/img/2aeb7024/20260421/i1776745240_7583_0.jpg","https://xcimg.szwego.com/img/2aeb7024/20260421/i1776745240_2419_0.jpg","https://xcimg.szwego.com/img/2aeb7024/20260421/i1776745240_6251_0.jpg","https://xcimg.szwego.com/img/2aeb7024/20260421/i1776745239_3078_0.jpg"],"created_at":"2026-05-20T08:41:55.247Z"},{"id":"item-daa2243e60a1","sku":"_dhMhMkc93QB9U4KmqYXJe-s27cPhjXyl0Bf5bjg","name_en":"🎉新品托特🎉1BG571🎉🎉","name_cn":"🎉新品托特🎉1BG571🎉🎉\n这款托特包呈现挺括廓形,散发现代气息与精致优雅魅力。宽包口方便拿取,线条极简利落,皮革质地柔软细腻。这款实用的配饰融合了简约而精致的细节,是品牌匠心工艺的生动表达。容量空间大,又是一款永久不过时爆款🎉🎉\n长38x高24.5x底18cm🎉🎉🎉💰💰💰\n92698950","specs":{"source":"wsxcme","sourceId":"_dhMhMkc93QB9U4KmqYXJe-s27cPhjXyl0Bf5bjg","sourceTagId":47002669,"sourceTagName":"普拉达/女包","rawTitle":"🎉新品托特🎉1BG571🎉🎉\n这款托特包呈现挺括廓形,散发现代气息与精致优雅魅力。宽包口方便拿取,线条极简利落,皮革质地柔软细腻。这款实用的配饰融合了简约而精致的细节,是品牌匠心工艺的生动表达。容量空间大,又是一款永久不过时爆款🎉🎉\n长38x高24.5x底18cm🎉🎉🎉💰💰💰\n92698950"},"price":null,"currency":"CNY","moq":1,"category":"prada-women-bags","status":"active","alibaba_url":null,"images":["https://xcimg.szwego.com/img/2aeb7024/20260421/i1776745189_1875_0.jpg","https://xcimg.szwego.com/img/2aeb7024/20260421/i1776745190_1075_0.jpg","https://xcimg.szwego.com/img/2aeb7024/20260421/i1776745190_8738_0.jpg","https://xcimg.szwego.com/img/2aeb7024/20260421/i1776745190_9006_0.jpg","https://xcimg.szwego.com/img/2aeb7024/20260421/i1776745189_7977_0.jpg","https://xcimg.szwego.com/img/2aeb7024/20260421/i1776745190_5901_0.jpg","https://xcimg.szwego.com/img/2aeb7024/20260421/i1776745189_7199_0.jpg","https://xcimg.szwego.com/img/2aeb7024/20260421/i1776745188_2743_0.jpg","https://xcimg.szwego.com/img/2aeb7024/20260421/i1776745189_7657_0.jpg"],"created_at":"2026-05-20T08:41:55.237Z"},{"id":"item-58093cdae95e","sku":"_dm1m16NFgGKWKfyOWoWbIW8kLyJuXT3J4PBMiWw","name_en":"🎉托特包三合一🎉1BG380A升级板🎉🎉","name_cn":"🎉托特包三合一🎉1BG380A升级板🎉🎉\n这款 System托特包配有两条皮革提手,精致的拼缝技术塑造出三角形图案,彰显匠心工艺。可拆卸的编织尼龙肩带带来不同风格,最爱还是肩带的小包😘轻便又实用,赶紧入手吧🎉🎉\n长25x高21.5x底13cm🎉🎉🎉👏👏👏\n82698580","specs":{"source":"wsxcme","sourceId":"_dm1m16NFgGKWKfyOWoWbIW8kLyJuXT3J4PBMiWw","sourceTagId":47002669,"sourceTagName":"普拉达/女包","rawTitle":"🎉托特包三合一🎉1BG380A升级板🎉🎉\n这款 System托特包配有两条皮革提手,精致的拼缝技术塑造出三角形图案,彰显匠心工艺。可拆卸的编织尼龙肩带带来不同风格,最爱还是肩带的小包😘轻便又实用,赶紧入手吧🎉🎉\n长25x高21.5x底13cm🎉🎉🎉👏👏👏\n82698580"},"price":null,"currency":"CNY","moq":1,"category":"prada-women-bags","status":"active","alibaba_url":null,"images":["https://xcimg.szwego.com/20251222/i1766387138_6380_0.jpg","https://xcimg.szwego.com/20251222/i1766387138_7846_2.jpg","https://xcimg.szwego.com/20251222/i1766387138_3629_1.jpg","https://xcimg.szwego.com/20251222/i1766387138_9533_3.jpg","https://xcimg.szwego.com/20251222/i1766387138_1255_4.jpg","https://xcimg.szwego.com/20251222/i1766387249_4650_0.jpg","https://xcimg.szwego.com/20251222/i1766387228_1388_0.jpg","https://xcimg.szwego.com/20251222/i1766387138_2677_7.jpg","https://xcimg.szwego.com/20251222/i1766387268_7487_0.jpg"],"created_at":"2026-05-20T08:41:55.227Z"},{"id":"item-c337579e6477","sku":"_dicicimbsgIdgwn18482FnOK5NAW43EkC4mhQpA","name_en":"🎉托特包三合一🎉1BG380🎉🎉","name_cn":"🎉托特包三合一🎉1BG380🎉🎉\n这款 System托特包配有两条皮革提手,精致的拼缝技术塑造出三角形图案,彰显匠心工艺。可拆卸的编织尼龙肩带带来不同风格,最爱还是肩带的小包😘轻便又实用,赶紧入手吧🎉🎉\n长25x高21.5x底13cm🎉🎉🎉👏👏👏\n82698580","specs":{"source":"wsxcme","sourceId":"_dicicimbsgIdgwn18482FnOK5NAW43EkC4mhQpA","sourceTagId":47002669,"sourceTagName":"普拉达/女包","rawTitle":"🎉托特包三合一🎉1BG380🎉🎉\n这款 System托特包配有两条皮革提手,精致的拼缝技术塑造出三角形图案,彰显匠心工艺。可拆卸的编织尼龙肩带带来不同风格,最爱还是肩带的小包😘轻便又实用,赶紧入手吧🎉🎉\n长25x高21.5x底13cm🎉🎉🎉👏👏👏\n82698580"},"price":null,"currency":"CNY","moq":1,"category":"prada-women-bags","status":"active","alibaba_url":null,"images":["https://xcimg.szwego.com/20211010/i1633844624_1987_0.jpg","https://xcimg.szwego.com/20211010/i1633844563_6529_0.jpg","https://xcimg.szwego.com/20211010/i1633844563_1967_2.jpg","https://xcimg.szwego.com/20211010/i1633844563_5829_3.jpg","https://xcimg.szwego.com/20211010/i1633844563_2973_4.jpg","https://xcimg.szwego.com/20211010/i1633844563_1405_5.jpg","https://xcimg.szwego.com/20211010/i1633844563_64_7.jpg","https://xcimg.szwego.com/20240531/i1717132834_5459_0.jpg","https://xcimg.szwego.com/20240531/i1717132749_636_0.jpg"],"created_at":"2026-05-20T08:41:55.217Z"},{"id":"item-f7f82608f014","sku":"_dmfmfRvlMjYTCvchTlUXmeMo3hqpdyBVvmlb05A","name_en":"🎉新品Route🎉1BG660🎉🎉","name_cn":"🎉新品Route🎉1BG660🎉🎉\n这款Route包将功能性与独特的设计风格完美结合在一起。柔软的皮革材质配上实用型的口袋设计,让这款包更具特色。可拆卸的肩带则让它的使用方式更加多样,你可以根据自己的需求来选择不同的佩戴方式。上身效果时尚又好看,又是一款永久不过时爆款,赶紧入手吧🎉🎉\n长28x高21x底13cm🎉🎉🎉💰💰💰","specs":{"source":"wsxcme","sourceId":"_dmfmfRvlMjYTCvchTlUXmeMo3hqpdyBVvmlb05A","sourceTagId":47002669,"sourceTagName":"普拉达/女包","rawTitle":"🎉新品Route🎉1BG660🎉🎉\n这款Route包将功能性与独特的设计风格完美结合在一起。柔软的皮革材质配上实用型的口袋设计,让这款包更具特色。可拆卸的肩带则让它的使用方式更加多样,你可以根据自己的需求来选择不同的佩戴方式。上身效果时尚又好看,又是一款永久不过时爆款,赶紧入手吧🎉🎉\n长28x高21x底13cm🎉🎉🎉💰💰💰"},"price":null,"currency":"CNY","moq":1,"category":"prada-women-bags","status":"active","alibaba_url":null,"images":["https://xcimg.szwego.com/20260429/i1777446603_5770_0.jpg","https://xcimg.szwego.com/20260429/i1777446471_2006_1.jpg","https://xcimg.szwego.com/20260429/i1777446471_2081_2.jpg","https://xcimg.szwego.com/20260429/i1777446471_2781_3.jpg","https://xcimg.szwego.com/20260429/i1777446471_2481_4.jpg","https://xcimg.szwego.com/20260429/i1777446471_2499_5.jpg","https://xcimg.szwego.com/20260429/i1777446549_3826_0.jpg","https://xcimg.szwego.com/20260429/i1777446471_1071_7.jpg","https://xcimg.szwego.com/20260429/i1777446471_1338_6.jpg"],"created_at":"2026-05-20T08:41:55.207Z"},{"id":"item-9d4ae9f8b575","sku":"_diRiRQi-_ND-5UkiwlBaoDQSRBh8FHVSjT5zibQ","name_en":"🎉新品🎉1BB161早春款🎉","name_cn":"🎉新品🎉1BB161早春款🎉\n这款包袋设计风格体现了运动与实用并存的特点。皮革材质带有不规则的纹理,为整体造型增添了独特韵味;包袋配有便于使用的提手及肩带,适合多种场合佩戴。来自经典系列的金属配饰则为该配饰增添了实用性与时尚感。容量空间大,又是一款永久不过时爆款。赶紧入手吧🎉🎉\n长28.5x高12x底12cm🎉🎉","specs":{"source":"wsxcme","sourceId":"_diRiRQi-_ND-5UkiwlBaoDQSRBh8FHVSjT5zibQ","sourceTagId":47002669,"sourceTagName":"普拉达/女包","rawTitle":"🎉新品🎉1BB161早春款🎉\n这款包袋设计风格体现了运动与实用并存的特点。皮革材质带有不规则的纹理,为整体造型增添了独特韵味;包袋配有便于使用的提手及肩带,适合多种场合佩戴。来自经典系列的金属配饰则为该配饰增添了实用性与时尚感。容量空间大,又是一款永久不过时爆款。赶紧入手吧🎉🎉\n长28.5x高12x底12cm🎉🎉"},"price":null,"currency":"CNY","moq":1,"category":"prada-women-bags","status":"active","alibaba_url":null,"images":["https://xcimg.szwego.com/20260206/i1770361277_6961_0.jpg","https://xcimg.szwego.com/20260206/i1770361277_2512_2.jpg","https://xcimg.szwego.com/20260206/i1770361277_1451_1.jpg","https://xcimg.szwego.com/20260206/i1770361277_1843_3.jpg","https://xcimg.szwego.com/20260206/i1770361277_4587_4.jpg","https://xcimg.szwego.com/20260206/i1770361277_1612_5.jpg","https://xcimg.szwego.com/20260206/i1770361277_7465_6.jpg","https://xcimg.szwego.com/20260206/i1770361277_2255_7.jpg","https://xcimg.szwego.com/20260206/i1770361277_3691_8.jpg"],"created_at":"2026-05-20T08:41:55.197Z"},{"id":"item-b4e2f64857fe","sku":"_d_f_faVEdUjvOIiwOaI8DEYIKJkj9hdcMvnr7VA","name_en":"🎉新品🎉1BB161早春款🎉","name_cn":"🎉新品🎉1BB161早春款🎉\n这款包袋设计风格体现了运动与实用并存的特点。皮革材质带有不规则的纹理,为整体造型增添了独特韵味;包袋配有便于使用的提手及肩带,适合多种场合佩戴。来自经典系列的金属配饰则为该配饰增添了实用性与时尚感。容量空间大,又是一款永久不过时爆款。赶紧入手吧🎉🎉\n长28.5x高12x底12cm🎉🎉🎉","specs":{"source":"wsxcme","sourceId":"_d_f_faVEdUjvOIiwOaI8DEYIKJkj9hdcMvnr7VA","sourceTagId":47002669,"sourceTagName":"普拉达/女包","rawTitle":"🎉新品🎉1BB161早春款🎉\n这款包袋设计风格体现了运动与实用并存的特点。皮革材质带有不规则的纹理,为整体造型增添了独特韵味;包袋配有便于使用的提手及肩带,适合多种场合佩戴。来自经典系列的金属配饰则为该配饰增添了实用性与时尚感。容量空间大,又是一款永久不过时爆款。赶紧入手吧🎉🎉\n长28.5x高12x底12cm🎉🎉🎉"},"price":null,"currency":"CNY","moq":1,"category":"prada-women-bags","status":"active","alibaba_url":null,"images":["https://xcimg.szwego.com/20260206/i1770361228_5411_0.jpg","https://xcimg.szwego.com/20260206/i1770361228_975_1.jpg","https://xcimg.szwego.com/20260206/i1770361228_9208_2.jpg","https://xcimg.szwego.com/20260206/i1770361228_8086_3.jpg","https://xcimg.szwego.com/20260206/i1770361228_7845_4.jpg","https://xcimg.szwego.com/20260206/i1770361228_1251_5.jpg","https://xcimg.szwego.com/20260206/i1770361228_6780_7.jpg","https://xcimg.szwego.com/20260206/i1770361228_3316_6.jpg","https://xcimg.szwego.com/20260206/i1770361240_9243_0.jpg"],"created_at":"2026-05-20T08:41:55.187Z"},{"id":"item-f65058d2ccea","sku":"_dpFpFaiQuvMO8uDfsDvtysUCnnNDcJ-KmSCCj4w","name_en":"批  🎉新品Bonnie🎉1BG628🎉🎉","name_cn":"批  🎉新品Bonnie🎉1BG628🎉🎉\n这款复古质感的皮包体现了精致而现代的个性。几何轮廓将现代、金属带扣和侧边鞋带设计。而长手柄则表明了一种务实和休闲的态度。配有一条可拆卸长肩带,方便不同场合搭配,容量空间非常大。巨巨好用👍👍绝对是时尚达人们的必备款。赶紧把这款复古格调手拎包带回家吧🎉🎉\n长32x高17.5x底10.5cm🎉🎉🎉","specs":{"source":"wsxcme","sourceId":"_dpFpFaiQuvMO8uDfsDvtysUCnnNDcJ-KmSCCj4w","sourceTagId":47002669,"sourceTagName":"普拉达/女包","rawTitle":"批  🎉新品Bonnie🎉1BG628🎉🎉\n这款复古质感的皮包体现了精致而现代的个性。几何轮廓将现代、金属带扣和侧边鞋带设计。而长手柄则表明了一种务实和休闲的态度。配有一条可拆卸长肩带,方便不同场合搭配,容量空间非常大。巨巨好用👍👍绝对是时尚达人们的必备款。赶紧把这款复古格调手拎包带回家吧🎉🎉\n长32x高17.5x底10.5cm🎉🎉🎉"},"price":null,"currency":"CNY","moq":1,"category":"prada-women-bags","status":"active","alibaba_url":null,"images":["https://xcimg.szwego.com/img/14d1469c/20260402/a1775121626762_1037.jpg","https://xcimg.szwego.com/img/14d1469c/20260402/a1775121626535_6522.jpg","https://xcimg.szwego.com/img/14d1469c/20260402/a1775121626385_7313.jpg","https://xcimg.szwego.com/img/14d1469c/20260402/a1775121627093_2355.jpg","https://xcimg.szwego.com/img/14d1469c/20260402/a1775121626407_0410.jpg","https://xcimg.szwego.com/img/14d1469c/20260402/a1775121627911_8012.jpg","https://xcimg.szwego.com/img/14d1469c/20260402/a1775121627913_4048.jpg","https://xcimg.szwego.com/img/14d1469c/20260402/a1775121627993_8516.jpg","https://xcimg.szwego.com/img/14d1469c/20260402/a1775121628890_3462.jpg"],"created_at":"2026-05-20T08:41:55.177Z"},{"id":"item-f64e87055985","sku":"_de6e6hoUEcPaSLGmjEFmvjmFWNME4yMLDIr0afA","name_en":"批  🎉新品Bonnie🎉1BG628🎉🎉","name_cn":"批  🎉新品Bonnie🎉1BG628🎉🎉\n这款复古质感的皮包体现了精致而现代的个性。几何轮廓将现代、金属带扣和侧边鞋带设计。而长手柄则表明了一种务实和休闲的态度。配有一条可拆卸长肩带,方便不同场合搭配,容量空间非常大。巨巨好用👍👍绝对是时尚达人们的必备款。赶紧把这款复古格调手拎包带回家吧🎉🎉\n长32x高17.5x底10.5cm🎉🎉🎉","specs":{"source":"wsxcme","sourceId":"_de6e6hoUEcPaSLGmjEFmvjmFWNME4yMLDIr0afA","sourceTagId":47002669,"sourceTagName":"普拉达/女包","rawTitle":"批  🎉新品Bonnie🎉1BG628🎉🎉\n这款复古质感的皮包体现了精致而现代的个性。几何轮廓将现代、金属带扣和侧边鞋带设计。而长手柄则表明了一种务实和休闲的态度。配有一条可拆卸长肩带,方便不同场合搭配,容量空间非常大。巨巨好用👍👍绝对是时尚达人们的必备款。赶紧把这款复古格调手拎包带回家吧🎉🎉\n长32x高17.5x底10.5cm🎉🎉🎉"},"price":null,"currency":"CNY","moq":1,"category":"prada-women-bags","status":"active","alibaba_url":null,"images":["https://xcimg.szwego.com/img/14d1469c/20260402/a1775121603705_5437.jpg","https://xcimg.szwego.com/img/14d1469c/20260402/a1775121603368_5171.jpg","https://xcimg.szwego.com/img/14d1469c/20260402/a1775121603545_8185.jpg","https://xcimg.szwego.com/img/14d1469c/20260402/a1775121603806_7640.jpg","https://xcimg.szwego.com/img/14d1469c/20260402/a1775121603376_3217.jpg","https://xcimg.szwego.com/img/14d1469c/20260402/a1775121606737_7253.jpg","https://xcimg.szwego.com/img/14d1469c/20260402/a1775121606072_1820.jpg","https://xcimg.szwego.com/img/14d1469c/20260402/a1775121605390_2601.jpg","https://xcimg.szwego.com/img/14d1469c/20260402/a1775121605294_8434.jpg"],"created_at":"2026-05-20T08:41:55.167Z"},{"id":"item-cbd4e69b47bb","sku":"_degegd1aE2UIpHoYCW4hMoSAxpJyNnQt5iiOuYQ","name_en":"批  🎉新品Bonnie🎉1BG628🎉🎉","name_cn":"批  🎉新品Bonnie🎉1BG628🎉🎉\n这款复古质感的皮包体现了精致而现代的个性。几何轮廓将现代、金属带扣和侧边鞋带设计。而长手柄则表明了一种务实和休闲的态度。配有一条可拆卸长肩带,方便不同场合搭配,容量空间非常大。巨巨好用👍👍绝对是时尚达人们的必备款。赶紧把这款复古格调手拎包带回家吧🎉🎉\n长32x高17.5x底10.5cm🎉🎉🎉","specs":{"source":"wsxcme","sourceId":"_degegd1aE2UIpHoYCW4hMoSAxpJyNnQt5iiOuYQ","sourceTagId":47002669,"sourceTagName":"普拉达/女包","rawTitle":"批  🎉新品Bonnie🎉1BG628🎉🎉\n这款复古质感的皮包体现了精致而现代的个性。几何轮廓将现代、金属带扣和侧边鞋带设计。而长手柄则表明了一种务实和休闲的态度。配有一条可拆卸长肩带,方便不同场合搭配,容量空间非常大。巨巨好用👍👍绝对是时尚达人们的必备款。赶紧把这款复古格调手拎包带回家吧🎉🎉\n长32x高17.5x底10.5cm🎉🎉🎉"},"price":null,"currency":"CNY","moq":1,"category":"prada-women-bags","status":"active","alibaba_url":null,"images":["https://xcimg.szwego.com/img/14d1469c/20260402/a1775121174458_5030.jpg","https://xcimg.szwego.com/img/14d1469c/20260402/a1775121174339_1300.jpg","https://xcimg.szwego.com/img/14d1469c/20260402/a1775121173800_6787.jpg","https://xcimg.szwego.com/img/14d1469c/20260402/a1775121174097_7307.jpg","https://xcimg.szwego.com/img/14d1469c/20260402/a1775121175556_6327.jpg","https://xcimg.szwego.com/img/14d1469c/20260402/a1775121173713_5656.jpg","https://xcimg.szwego.com/img/14d1469c/20260402/a1775121175711_5048.jpg","https://xcimg.szwego.com/img/14d1469c/20260402/a1775121176360_0448.jpg","https://xcimg.szwego.com/img/14d1469c/20260402/a1775121175779_7820.jpg"],"created_at":"2026-05-20T08:41:55.157Z"},{"id":"item-39d3f97a547d","sku":"_dQfQfvLI2vDEzjLMvJI5aJEEOGYLI3eU9oA73iA","name_en":"批  🎉新品Bonnie🎉1BG628🎉🎉","name_cn":"批  🎉新品Bonnie🎉1BG628🎉🎉\n这款复古质感的皮包体现了精致而现代的个性。几何轮廓将现代、金属带扣和侧边鞋带设计。而长手柄则表明了一种务实和休闲的态度。配有一条可拆卸长肩带,方便不同场合搭配,容量空间非常大。巨巨好用👍👍绝对是时尚达人们的必备款。赶紧把这款复古格调手拎包带回家吧🎉🎉\n长32x高17.5x底10.5cm🎉🎉🎉","specs":{"source":"wsxcme","sourceId":"_dQfQfvLI2vDEzjLMvJI5aJEEOGYLI3eU9oA73iA","sourceTagId":47002669,"sourceTagName":"普拉达/女包","rawTitle":"批  🎉新品Bonnie🎉1BG628🎉🎉\n这款复古质感的皮包体现了精致而现代的个性。几何轮廓将现代、金属带扣和侧边鞋带设计。而长手柄则表明了一种务实和休闲的态度。配有一条可拆卸长肩带,方便不同场合搭配,容量空间非常大。巨巨好用👍👍绝对是时尚达人们的必备款。赶紧把这款复古格调手拎包带回家吧🎉🎉\n长32x高17.5x底10.5cm🎉🎉🎉"},"price":null,"currency":"CNY","moq":1,"category":"prada-women-bags","status":"active","alibaba_url":null,"images":["https://xcimg.szwego.com/img/14d1469c/20260402/a1775121226283_8805.jpg","https://xcimg.szwego.com/img/14d1469c/20260402/a1775121226099_3863.jpg","https://xcimg.szwego.com/img/14d1469c/20260402/a1775121225880_0053.jpg","https://xcimg.szwego.com/img/14d1469c/20260402/a1775121225880_6703.jpg","https://xcimg.szwego.com/img/14d1469c/20260402/a1775121225955_8356.jpg","https://xcimg.szwego.com/img/14d1469c/20260402/a1775121227599_4771.jpg","https://xcimg.szwego.com/img/14d1469c/20260402/a1775121227839_3581.jpg","https://xcimg.szwego.com/img/14d1469c/20260402/a1775121228234_8422.jpg","https://xcimg.szwego.com/img/14d1469c/20260402/a1775121227700_6610.jpg"],"created_at":"2026-05-20T08:41:55.147Z"},{"id":"item-8f909d779046","sku":"_dd1d1C9HkY5EzRP0T0pheBeg9yztV5WH0EslwsA","name_en":"批  🎉新品Bonnie🎉1BG628🎉🎉","name_cn":"批  🎉新品Bonnie🎉1BG628🎉🎉\n这款复古质感的皮包体现了精致而现代的个性。几何轮廓将现代、金属带扣和侧边鞋带设计。而长手柄则表明了一种务实和休闲的态度。配有一条可拆卸长肩带,方便不同场合搭配,容量空间非常大。巨巨好用👍👍绝对是时尚达人们的必备款。赶紧把这款复古格调手拎包带回家吧🎉🎉\n长32x高17.5x底10.5cm🎉🎉🎉","specs":{"source":"wsxcme","sourceId":"_dd1d1C9HkY5EzRP0T0pheBeg9yztV5WH0EslwsA","sourceTagId":47002669,"sourceTagName":"普拉达/女包","rawTitle":"批  🎉新品Bonnie🎉1BG628🎉🎉\n这款复古质感的皮包体现了精致而现代的个性。几何轮廓将现代、金属带扣和侧边鞋带设计。而长手柄则表明了一种务实和休闲的态度。配有一条可拆卸长肩带,方便不同场合搭配,容量空间非常大。巨巨好用👍👍绝对是时尚达人们的必备款。赶紧把这款复古格调手拎包带回家吧🎉🎉\n长32x高17.5x底10.5cm🎉🎉🎉"},"price":null,"currency":"CNY","moq":1,"category":"prada-women-bags","status":"active","alibaba_url":null,"images":["https://xcimg.szwego.com/img/14d1469c/20260402/a1775121115442_3053.jpg","https://xcimg.szwego.com/img/14d1469c/20260402/a1775121115021_7252.jpg","https://xcimg.szwego.com/img/14d1469c/20260402/a1775121115378_5502.jpg","https://xcimg.szwego.com/img/14d1469c/20260402/a1775121115137_6756.jpg","https://xcimg.szwego.com/img/14d1469c/20260402/a1775121115019_4087.jpg","https://xcimg.szwego.com/img/14d1469c/20260402/a1775121116829_6438.jpg","https://xcimg.szwego.com/img/14d1469c/20260402/a1775121116940_0160.jpg","https://xcimg.szwego.com/img/14d1469c/20260402/a1775121117288_3442.jpg","https://xcimg.szwego.com/img/14d1469c/20260402/a1775121116740_1365.jpg"],"created_at":"2026-05-20T08:41:55.137Z"},{"id":"item-759ab6eb34a1","sku":"_dqpqpkJEhM3slgcw39XV5QNuMtosdjsG75EjXMg","name_en":"Saint Laurent Women Bags","name_cn":"官网图","specs":{"source":"wsxcme","sourceId":"_dqpqpkJEhM3slgcw39XV5QNuMtosdjsG75EjXMg","sourceTagId":47002761,"sourceTagName":"圣罗兰/女包","rawTitle":"官网图"},"price":null,"currency":"CNY","moq":1,"category":"ysl-women-bags","status":"active","alibaba_url":null,"images":["https://xcimg.szwego.com/imgHD/f8c0bdc9/20251005/cmp_i1759661375391_5813_0_0.jpg","https://xcimg.szwego.com/imgHD/f8c0bdc9/20251005/cmp_i1759661375856_9771_0_1.jpg","https://xcimg.szwego.com/imgHD/f8c0bdc9/20251005/cmp_i1759661375855_2664_0_2.jpg","https://xcimg.szwego.com/imgHD/f8c0bdc9/20251005/cmp_i1759661375390_9755_0_3.jpg","https://xcimg.szwego.com/imgHD/f8c0bdc9/20251005/cmp_i1759661375389_1609_0_4.jpg","https://xcimg.szwego.com/imgHD/f8c0bdc9/20251005/cmp_i1759661375389_6913_0_5.jpg","https://xcimg.szwego.com/imgHD/f8c0bdc9/20251005/cmp_i1759661375390_2532_0_6.jpg"],"created_at":"2026-05-20T04:01:39.293Z"},{"id":"item-179d1054eca8","sku":"_dAQAQOxsbW2OwGjY9AtyWSEpN9gdZs7yG1EKBMA","name_en":"Saint Laurent Women Bags","name_cn":"安可拉红瞬间提升整体造型的时尚感","specs":{"source":"wsxcme","sourceId":"_dAQAQOxsbW2OwGjY9AtyWSEpN9gdZs7yG1EKBMA","sourceTagId":47002761,"sourceTagName":"圣罗兰/女包","rawTitle":"安可拉红瞬间提升整体造型的时尚感"},"price":null,"currency":"CNY","moq":1,"category":"ysl-women-bags","status":"active","alibaba_url":null,"images":["https://xcimg.szwego.com/imgHD/f8c0bdc9/20251005/cmp_i1759655446799_437_0_0.jpg","https://xcimg.szwego.com/imgHD/f8c0bdc9/20251005/cmp_i1759655446771_8659_0_1.jpg","https://xcimg.szwego.com/imgHD/f8c0bdc9/20251005/cmp_i1759655446754_8550_0_2.jpg","https://xcimg.szwego.com/imgHD/f8c0bdc9/20251005/cmp_i1759655447016_6061_0_3.jpg"],"created_at":"2026-05-20T04:01:39.283Z"},{"id":"item-0b391a3c000c","sku":"_dxGxGk7M-H6utS0sMrh9NjOw1SNPsZta--9ufLw","name_en":"细节po","name_cn":"细节po","specs":{"source":"wsxcme","sourceId":"_dxGxGk7M-H6utS0sMrh9NjOw1SNPsZta--9ufLw","sourceTagId":47002761,"sourceTagName":"圣罗兰/女包","rawTitle":"细节po"},"price":null,"currency":"CNY","moq":1,"category":"ysl-women-bags","status":"active","alibaba_url":null,"images":["https://xcimg.szwego.com/imgHD/f8c0bdc9/20251005/cmp_i1759655436021_7595_0_0.jpg","https://xcimg.szwego.com/imgHD/f8c0bdc9/20251005/cmp_i1759655435590_2525_0_1.jpg","https://xcimg.szwego.com/imgHD/f8c0bdc9/20251005/cmp_i1759655434321_6131_0_2.jpg","https://xcimg.szwego.com/imgHD/f8c0bdc9/20251005/cmp_i1759655434286_3121_0_3.jpg","https://xcimg.szwego.com/imgHD/f8c0bdc9/20251005/cmp_i1759655435602_8287_0_4.jpg","https://xcimg.szwego.com/imgHD/f8c0bdc9/20251005/cmp_i1759655434757_4508_0_5.jpg","https://xcimg.szwego.com/imgHD/f8c0bdc9/20251005/cmp_i1759655434354_3572_0_6.jpg","https://xcimg.szwego.com/imgHD/f8c0bdc9/20251005/cmp_i1759655434210_9506_0_7.jpg"],"created_at":"2026-05-20T04:01:39.273Z"},{"id":"item-9f11179418ae","sku":"_dm9m9vYyFzC__3qTeiNfeWiOo-JD8J4iiHZlyZQ","name_en":"CALYPSO_小羊皮链条包","name_cn":"CALYPSO_小羊皮链条包\n进口意大利小羊皮制作,手感柔软细腻,经典的Y家logo、链条及扣眼五金均采用巴金哑光五金,包袋开口处折叠后使用了磁性四合扣封口,密闭性及安全性一流;包内设有一个拉链内袋可放置手机及贵重物品,除此之外无多余内袋设计,使用起来随心所欲!\n尺寸:26×14×7cm\n型号:734153","specs":{"source":"wsxcme","sourceId":"_dm9m9vYyFzC__3qTeiNfeWiOo-JD8J4iiHZlyZQ","sourceTagId":47002761,"sourceTagName":"圣罗兰/女包","modelNumber":"734153","dimensions":{"lengthCm":26,"heightCm":14,"widthCm":7},"rawTitle":"CALYPSO_小羊皮链条包\n进口意大利小羊皮制作,手感柔软细腻,经典的Y家logo、链条及扣眼五金均采用巴金哑光五金,包袋开口处折叠后使用了磁性四合扣封口,密闭性及安全性一流;包内设有一个拉链内袋可放置手机及贵重物品,除此之外无多余内袋设计,使用起来随心所欲!\n尺寸:26×14×7cm\n型号:734153"},"price":null,"currency":"CNY","moq":1,"category":"ysl-women-bags","status":"active","alibaba_url":null,"images":["https://xcimg.szwego.com/imgHD/f8c0bdc9/20251005/cmp_i1759655404977_1772_0_0.jpg","https://xcimg.szwego.com/imgHD/f8c0bdc9/20251005/cmp_i1759655407791_7609_0_1.jpg","https://xcimg.szwego.com/imgHD/f8c0bdc9/20251005/cmp_i1759655407783_8258_0_2.jpg","https://xcimg.szwego.com/imgHD/f8c0bdc9/20251005/cmp_i1759655407786_6443_0_3.jpg","https://xcimg.szwego.com/imgHD/f8c0bdc9/20251005/cmp_i1759655404288_5088_0_4.jpg","https://xcimg.szwego.com/imgHD/f8c0bdc9/20251005/cmp_i1759655407263_6259_0_5.jpg","https://xcimg.szwego.com/imgHD/f8c0bdc9/20251005/cmp_i1759655404463_8244_0_6.jpg","https://xcimg.szwego.com/imgHD/f8c0bdc9/20251005/cmp_i1759655405019_703_0_7.jpg","https://xcimg.szwego.com/imgHD/f8c0bdc9/20251005/cmp_i1759655404976_3472_0_8.jpg"],"created_at":"2026-05-20T04:01:39.263Z"},{"id":"item-dec16ef6f0fc","sku":"_dksksCdYY9vl2MHKtKraSvYhdLHXUhjxVUbJqaQ","name_en":"Saint Laurent Women Bags","name_cn":"官网图_","specs":{"source":"wsxcme","sourceId":"_dksksCdYY9vl2MHKtKraSvYhdLHXUhjxVUbJqaQ","sourceTagId":47002761,"sourceTagName":"圣罗兰/女包","rawTitle":"官网图_"},"price":null,"currency":"CNY","moq":1,"category":"ysl-women-bags","status":"active","alibaba_url":null,"images":["https://xcimg.szwego.com/img/f8c0bdc9/20240811/i1723375269_1300_2.jpg","https://xcimg.szwego.com/img/f8c0bdc9/20240811/i1723375269_763_5.jpg","https://xcimg.szwego.com/img/f8c0bdc9/20240811/i1723375269_410_6.jpg","https://xcimg.szwego.com/img/f8c0bdc9/20240811/i1723375269_9655_7.jpg","https://xcimg.szwego.com/img/f8c0bdc9/20240811/i1723375269_4451_3.jpg","https://xcimg.szwego.com/img/f8c0bdc9/20240811/i1723375269_6989_0.jpg","https://xcimg.szwego.com/img/f8c0bdc9/20240811/i1723375269_2746_1.jpg","https://xcimg.szwego.com/img/f8c0bdc9/20240811/i1723375269_4180_4.jpg"],"created_at":"2026-05-20T04:01:39.253Z"},{"id":"item-e347e87d4af3","sku":"_dDVDVNPU-MnY_3x6RJ04f0nle-RLYjG18SlSnLA","name_en":"Saint Laurent Women Bags","name_cn":"随拍上身图_","specs":{"source":"wsxcme","sourceId":"_dDVDVNPU-MnY_3x6RJ04f0nle-RLYjG18SlSnLA","sourceTagId":47002761,"sourceTagName":"圣罗兰/女包","rawTitle":"随拍上身图_"},"price":null,"currency":"CNY","moq":1,"category":"ysl-women-bags","status":"active","alibaba_url":null,"images":["https://xcimg.szwego.com/img/f8c0bdc9/20240811/i1723372968_8578_3.jpg","https://xcimg.szwego.com/img/f8c0bdc9/20240811/i1723372968_2992_4.jpg","https://xcimg.szwego.com/img/f8c0bdc9/20240811/i1723372968_1705_2.jpg","https://xcimg.szwego.com/img/f8c0bdc9/20240811/i1723372968_7169_1.jpg","https://xcimg.szwego.com/img/f8c0bdc9/20240811/i1723372968_1171_0.jpg"],"created_at":"2026-05-20T04:01:39.243Z"}],"page":68,"pageSize":24,"total":10075,"totalPages":420}
