{"items":[{"id":"item-28991c85d460","sku":"_dBvBvIex5TLbd-VsEImGeaBRGR60mphhRXVGyWw","name_en":"Saint Laurent Women Bags","name_cn":"官网图参考▪️","specs":{"source":"wsxcme","sourceId":"_dBvBvIex5TLbd-VsEImGeaBRGR60mphhRXVGyWw","sourceTagId":47002761,"sourceTagName":"圣罗兰/女包","rawTitle":"官网图参考▪️"},"price":null,"currency":"CNY","moq":1,"category":"ysl-women-bags","status":"active","alibaba_url":null,"images":["https://xcimg.szwego.com/img/a2a6846e/20240630/i1719727629_8595_5.jpg","https://xcimg.szwego.com/img/a2a6846e/20240630/i1719727629_7905_1.jpg","https://xcimg.szwego.com/img/a2a6846e/20240630/i1719727629_6046_0.jpg","https://xcimg.szwego.com/img/a2a6846e/20240630/i1719727629_6749_4.jpg","https://xcimg.szwego.com/img/a2a6846e/20240630/i1719727629_6360_3.jpg","https://xcimg.szwego.com/img/a2a6846e/20240630/i1719727629_9352_6.jpg","https://xcimg.szwego.com/img/a2a6846e/20240630/i1719727629_6202_2.jpg"],"created_at":"2025-07-20T03:05:44.174Z"},{"id":"item-f98523b2f77c","sku":"_dtntn6DFfCscboN9E0R_8mgUn5zNkguQDo8lGGA","name_en":"Saint Laurent Women Bags","name_cn":"官网图参考▪️","specs":{"source":"wsxcme","sourceId":"_dtntn6DFfCscboN9E0R_8mgUn5zNkguQDo8lGGA","sourceTagId":47002761,"sourceTagName":"圣罗兰/女包","rawTitle":"官网图参考▪️"},"price":null,"currency":"CNY","moq":1,"category":"ysl-women-bags","status":"active","alibaba_url":null,"images":["https://xcimg.szwego.com/img/a2a6846e/20240425/i1714018149_8995_2.jpg","https://xcimg.szwego.com/img/a2a6846e/20240425/i1714018149_982_1.jpg","https://xcimg.szwego.com/img/a2a6846e/20240425/i1714018149_3514_3.jpg","https://xcimg.szwego.com/img/a2a6846e/20240425/i1714018149_8118_4.jpg","https://xcimg.szwego.com/img/a2a6846e/20240425/i1714018149_3986_0.jpg"],"created_at":"2025-07-20T03:05:44.173Z"},{"id":"item-0d91ac0be8ba","sku":"_dzPzP-KooHgqIuxEgKW_lBz4wIDpdgg3IADGSTA","name_en":"🌸【原厂皮配磁盒包装】▪️ROSE▪️秋冬新款,韩国明星同款Hobo!!今年火到爆炸的腋下包Y家虽迟但到!!包包身轮廓简洁、立体,看上去硬挺却不会太凌厉。搭配上品牌标志性的插入式包扣,整体给人一种既经典优雅,又很时髦现代的独特气质。","name_cn":"🌸【原厂皮配磁盒包装】▪️ROSE▪️秋冬新款,韩国明星同款Hobo!!今年火到爆炸的腋下包Y家虽迟但到!!包包身轮廓简洁、立体,看上去硬挺却不会太凌厉。搭配上品牌标志性的插入式包扣,整体给人一种既经典优雅,又很时髦现代的独特气质。\n 尺寸:23x22x8.5cm\n 型号:713938《黑色牛皮金扣》","specs":{"source":"wsxcme","sourceId":"_dzPzP-KooHgqIuxEgKW_lBz4wIDpdgg3IADGSTA","sourceTagId":47002761,"sourceTagName":"圣罗兰/女包","modelNumber":"713938《黑色牛皮金扣》","dimensions":{"lengthCm":23,"heightCm":22,"widthCm":8.5},"rawTitle":"🌸【原厂皮配磁盒包装】▪️ROSE▪️秋冬新款,韩国明星同款Hobo!!今年火到爆炸的腋下包Y家虽迟但到!!包包身轮廓简洁、立体,看上去硬挺却不会太凌厉。搭配上品牌标志性的插入式包扣,整体给人一种既经典优雅,又很时髦现代的独特气质。\n 尺寸:23x22x8.5cm\n 型号:713938《黑色牛皮金扣》"},"price":null,"currency":"CNY","moq":1,"category":"ysl-women-bags","status":"active","alibaba_url":null,"images":["https://xcimg.szwego.com/20240611/a1718091299700_4343.jpg","https://xcimg.szwego.com/20240611/a1718091299886_5522.jpg","https://xcimg.szwego.com/20240611/a1718091300083_7557.jpg","https://xcimg.szwego.com/20240611/a1718091300287_2110.jpg","https://xcimg.szwego.com/20240611/a1718091300600_7228.jpg","https://xcimg.szwego.com/20240611/a1718091300884_5206.jpg","https://xcimg.szwego.com/20240611/a1718091304911_4100.jpg","https://xcimg.szwego.com/20240611/a1718091304913_6527.jpg","https://xcimg.szwego.com/20240611/a1718091304915_8142.jpg"],"created_at":"2025-07-20T03:05:44.172Z"},{"id":"item-7c39086b3447","sku":"_ddTdTqbng7KntB-HqgI8bfXk6WF96DDvnngFOAw","name_en":"专柜sa上身图.","name_cn":"专柜sa上身图.\n搭配深色衣服真抢眼!","specs":{"source":"wsxcme","sourceId":"_ddTdTqbng7KntB-HqgI8bfXk6WF96DDvnngFOAw","sourceTagId":47002761,"sourceTagName":"圣罗兰/女包","rawTitle":"专柜sa上身图.\n搭配深色衣服真抢眼!"},"price":null,"currency":"CNY","moq":1,"category":"ysl-women-bags","status":"active","alibaba_url":null,"images":["https://xcimg.szwego.com/img/a2a6846e/20240425/i1714022080_7558_5.jpg","https://xcimg.szwego.com/img/a2a6846e/20240425/i1714022080_6527_1.jpg","https://xcimg.szwego.com/img/a2a6846e/20240425/i1714022080_1905_2.jpg","https://xcimg.szwego.com/img/a2a6846e/20240425/i1714022080_2790_3.jpg","https://xcimg.szwego.com/img/a2a6846e/20240425/i1714022080_6727_4.jpg","https://xcimg.szwego.com/img/a2a6846e/20240425/i1714022080_7775_0.jpg"],"created_at":"2025-07-20T03:05:44.171Z"},{"id":"item-eb83cb5f95b1","sku":"_djijiRLZoUR5U6l39o0V8mSxKfTS_wyW8Nd2kBw","name_en":"🌸 LE 5À7_该尺寸无包装","name_cn":"🌸 LE 5À7_该尺寸无包装\n大号光滑皮革柔软手袋大号,韩国明星同款Hobo!!今年火到爆炸的腋下包Y家虽迟但到!!包包身轮廓简洁、立体,看上去硬挺却不会太凌厉。搭配上品牌标志性的插入式包扣,整体给人一种既经典优雅,又很时髦现代的独特气质。\n尺寸:30x31x13cm\n型号:753837","specs":{"source":"wsxcme","sourceId":"_djijiRLZoUR5U6l39o0V8mSxKfTS_wyW8Nd2kBw","sourceTagId":47002761,"sourceTagName":"圣罗兰/女包","modelNumber":"753837","dimensions":{"lengthCm":30,"heightCm":31,"widthCm":13},"rawTitle":"🌸 LE 5À7_该尺寸无包装\n大号光滑皮革柔软手袋大号,韩国明星同款Hobo!!今年火到爆炸的腋下包Y家虽迟但到!!包包身轮廓简洁、立体,看上去硬挺却不会太凌厉。搭配上品牌标志性的插入式包扣,整体给人一种既经典优雅,又很时髦现代的独特气质。\n尺寸:30x31x13cm\n型号:753837"},"price":null,"currency":"CNY","moq":1,"category":"ysl-women-bags","status":"active","alibaba_url":null,"images":["https://xcimg.szwego.com/20240611/a1718090683905_5333.jpg","https://xcimg.szwego.com/20240611/a1718090684101_3726.jpg","https://xcimg.szwego.com/20240611/a1718090684299_5071.jpg","https://xcimg.szwego.com/20240611/a1718090684521_1841.jpg","https://xcimg.szwego.com/20240611/a1718090684807_4028.jpg","https://xcimg.szwego.com/20240611/a1718090685008_8853.jpg","https://xcimg.szwego.com/20240611/a1718090685248_7865.jpg","https://xcimg.szwego.com/20240611/a1718090685445_5174.jpg","https://xcimg.szwego.com/20240611/a1718090685696_6030.jpg"],"created_at":"2025-07-20T03:05:44.170Z"},{"id":"item-e6dfb95b02db","sku":"_dqiqiNulGJWGRswF5o1fc5SM1tK1CaASaJhKiCA","name_en":"🌸 🌈 Y家24新款Rose同款Mini Gaby Saint Laurent2024新款Mini Gaby 手袋双拉链设计方便开合,大隔层容纳手机、小钱包以及卡袋,可拆卸调节肩带,可做梳妆包也可轻松斜挎顶部配有提手,可作为手提包 Rose 同款~","name_cn":"🌸 🌈 Y家24新款Rose同款Mini Gaby Saint Laurent2024新款Mini Gaby 手袋双拉链设计方便开合,大隔层容纳手机、小钱包以及卡袋,可拆卸调节肩带,可做梳妆包也可轻松斜挎顶部配有提手,可作为手提包 Rose 同款~\n型号:766731  《黑色羊皮金扣》\n尺寸:18×11×6.5 cm","specs":{"source":"wsxcme","sourceId":"_dqiqiNulGJWGRswF5o1fc5SM1tK1CaASaJhKiCA","sourceTagId":47002761,"sourceTagName":"圣罗兰/女包","modelNumber":"766731  《黑色羊皮金扣》","dimensions":{"lengthCm":18,"heightCm":11,"widthCm":6.5},"rawTitle":"🌸 🌈 Y家24新款Rose同款Mini Gaby Saint Laurent2024新款Mini Gaby 手袋双拉链设计方便开合,大隔层容纳手机、小钱包以及卡袋,可拆卸调节肩带,可做梳妆包也可轻松斜挎顶部配有提手,可作为手提包 Rose 同款~\n型号:766731  《黑色羊皮金扣》\n尺寸:18×11×6.5 cm"},"price":null,"currency":"CNY","moq":1,"category":"ysl-women-bags","status":"active","alibaba_url":null,"images":["https://xcimg.szwego.com/20231226/a1703582875839_6555.jpg","https://xcimg.szwego.com/20231226/a1703582876056_8136.jpg","https://xcimg.szwego.com/20231226/a1703582876288_6660.jpg","https://xcimg.szwego.com/20231226/a1703582876489_7755.jpg","https://xcimg.szwego.com/20231226/a1703582876837_2682.jpg","https://xcimg.szwego.com/20231226/a1703582878370_2522.jpg","https://xcimg.szwego.com/20231226/a1703582878371_1563.jpg","https://xcimg.szwego.com/20231226/a1703582878374_4013.jpg","https://xcimg.szwego.com/20231226/a1703582878375_3366.jpg"],"created_at":"2025-07-20T03:05:44.169Z"},{"id":"item-449d738b29a0","sku":"_dcJcJ06Sz9e9SRBKZz_YdP20kILUvExQdels_fQ","name_en":"火爆推荐25C嬉皮小号Size","name_cn":"火爆推荐25C嬉皮小号Size\n一眼就醉爆的人气包王🔥\n可酷可时髦,超好質感\n让人彻底沦陷的购物袋🛍️","specs":{"source":"wsxcme","sourceId":"_dcJcJ06Sz9e9SRBKZz_YdP20kILUvExQdels_fQ","sourceTagId":47002745,"sourceTagName":"香奈儿/女包","rawTitle":"火爆推荐25C嬉皮小号Size\n一眼就醉爆的人气包王🔥\n可酷可时髦,超好質感\n让人彻底沦陷的购物袋🛍️"},"price":null,"currency":"CNY","moq":1,"category":"chanel-women-bags","status":"active","alibaba_url":null,"images":["https://xcimg.szwego.com/20250116/i1736996572_1804_0.jpg","https://xcimg.szwego.com/20250116/i1736996572_5916_1.jpg","https://xcimg.szwego.com/20250116/i1736996572_7389_2.jpg","https://xcimg.szwego.com/20250116/i1736996572_1710_3.jpg","https://xcimg.szwego.com/20250116/i1736996572_8821_4.jpg","https://xcimg.szwego.com/20250116/i1736996572_2045_5.jpg","https://xcimg.szwego.com/20250116/i1736996572_5908_6.jpg","https://xcimg.szwego.com/20250116/i1736996572_4555_7.jpg","https://xcimg.szwego.com/20250116/i1736996572_9207_8.jpg"],"created_at":"2025-07-18T11:19:50.063Z"},{"id":"item-bf1f1ec95c7a","sku":"_dZdZdf15yf2_pwxPDbHUnyK4fHUYPsHCmDuZpsA","name_en":"25C叱咤秀场嬉皮hobo🔥","name_cn":"25C叱咤秀场嬉皮hobo🔥\n酷飒风大号购物袋怎么看都高级\n耐磨耐用、大容量 每一点都很戳\n让你在人群中脱颖而出💯","specs":{"source":"wsxcme","sourceId":"_dZdZdf15yf2_pwxPDbHUnyK4fHUYPsHCmDuZpsA","sourceTagId":47002745,"sourceTagName":"香奈儿/女包","rawTitle":"25C叱咤秀场嬉皮hobo🔥\n酷飒风大号购物袋怎么看都高级\n耐磨耐用、大容量 每一点都很戳\n让你在人群中脱颖而出💯"},"price":null,"currency":"CNY","moq":1,"category":"chanel-women-bags","status":"active","alibaba_url":null,"images":["https://xcimg.szwego.com/20250116/i1736995701_2130_0.jpg","https://xcimg.szwego.com/20250116/i1736995701_4833_1.jpg","https://xcimg.szwego.com/20250116/i1736995701_236_2.jpg","https://xcimg.szwego.com/20250116/i1736995701_6001_3.jpg","https://xcimg.szwego.com/20250116/i1736995701_5872_4.jpg","https://xcimg.szwego.com/20250116/i1736995701_4319_5.jpg","https://xcimg.szwego.com/20250116/i1736995701_3962_6.jpg","https://xcimg.szwego.com/20250116/i1736995701_2461_7.jpg","https://xcimg.szwego.com/20250116/i1736995701_7563_8.jpg"],"created_at":"2025-07-18T11:19:28.067Z"},{"id":"item-4c494384648e","sku":"_dx4x4YF6sFAHRlooyDSSTyclPuH4Yd57CL8Wl5g","name_en":"最新发售🆕25s春夏kelly羊皮","name_cn":"最新发售🆕25s春夏kelly羊皮\n链条手提包大号 黑色♥\n专柜售价37500rmb购入开发~\n\n全网火爆款🔥链条kelly手提包\n叱咤整个秀场,简直美绝了〰️\n这季更新采用细腻小羊皮质感\n简约即复古的小手提质感很舒适\n又乖又耐看,实在绝对爱不释手啊!\n\n五金:厚镀24k复古金\n面料:Gaiera\"方框标\"小羊皮\n尺寸:13*19*7 cm","specs":{"source":"wsxcme","sourceId":"_dx4x4YF6sFAHRlooyDSSTyclPuH4Yd57CL8Wl5g","sourceTagId":47002745,"sourceTagName":"香奈儿/女包","dimensions":{"lengthCm":13,"heightCm":19,"widthCm":7},"rawTitle":"最新发售🆕25s春夏kelly羊皮\n链条手提包大号 黑色♥\n专柜售价37500rmb购入开发~\n\n全网火爆款🔥链条kelly手提包\n叱咤整个秀场,简直美绝了〰️\n这季更新采用细腻小羊皮质感\n简约即复古的小手提质感很舒适\n又乖又耐看,实在绝对爱不释手啊!\n\n五金:厚镀24k复古金\n面料:Gaiera\"方框标\"小羊皮\n尺寸:13*19*7 cm"},"price":null,"currency":"CNY","moq":1,"category":"chanel-women-bags","status":"active","alibaba_url":null,"images":["https://xcimg.szwego.com/imgHD/0cf5d261/20250617/cmp_i1750135802082_9455_0_0.jpg","https://xcimg.szwego.com/imgHD/0cf5d261/20250617/cmp_i1750135802638_7666_0_1.jpg","https://xcimg.szwego.com/imgHD/0cf5d261/20250617/cmp_i1750135805754_9691_0_2.jpg","https://xcimg.szwego.com/imgHD/0cf5d261/20250617/cmp_i1750135802200_2074_0_3.jpg","https://xcimg.szwego.com/imgHD/0cf5d261/20250617/cmp_i1750135802083_6396_0_4.jpg","https://xcimg.szwego.com/imgHD/0cf5d261/20250617/cmp_i1750135806100_8176_0_5.jpg","https://xcimg.szwego.com/imgHD/0cf5d261/20250617/cmp_i1750135802083_3723_0_6.jpg","https://xcimg.szwego.com/imgHD/0cf5d261/20250617/cmp_i1750135806163_2898_0_7.jpg","https://xcimg.szwego.com/imgHD/0cf5d261/20250617/cmp_i1750135805748_788_0_8.jpg"],"created_at":"2025-07-18T11:13:48.615Z"},{"id":"item-dc872cd56820","sku":"_dx2x2XK0FsfzTMAT4SRQpLXDgcOCDHRWRbAOx6Q","name_en":"Celine Women Bags","name_cn":"-\n新品上线🅰️🅰️ CE VANITY化妝包袋👛\n這個經典化妝袋取材自MAISON CE的化妝袋,\n今季在手袋系列煥發新意,大小做得很好哦\n化妝袋實用百搭而精緻,名稱來自其CE造型。\nCE VANITY首季推出 天然小牛皮,CE 最尊貴的原版皮皮革,質感結實,可塑造精巧鮮明结构!凱旋門的鎖鍊為靈感。黃褐色皮革飾邊是CE TRIOMPHE CANVAS特色!\n款号:119462\n颜色:老花棕(配原版包装)\n尺寸:18x12x18cm","specs":{"source":"wsxcme","sourceId":"_dx2x2XK0FsfzTMAT4SRQpLXDgcOCDHRWRbAOx6Q","sourceTagId":47003106,"sourceTagName":"塞琳/女包","modelNumber":"119462","dimensions":{"lengthCm":18,"heightCm":12,"widthCm":18},"rawTitle":"-\n新品上线🅰️🅰️ CE VANITY化妝包袋👛\n這個經典化妝袋取材自MAISON CE的化妝袋,\n今季在手袋系列煥發新意,大小做得很好哦\n化妝袋實用百搭而精緻,名稱來自其CE造型。\nCE VANITY首季推出 天然小牛皮,CE 最尊貴的原版皮皮革,質感結實,可塑造精巧鮮明结构!凱旋門的鎖鍊為靈感。黃褐色皮革飾邊是CE TRIOMPHE CANVAS特色!\n款号:119462\n颜色:老花棕(配原版包装)\n尺寸:18x12x18cm"},"price":null,"currency":"CNY","moq":1,"category":"celine-women-bags","status":"active","alibaba_url":null,"images":["https://xcimg.szwego.com/img/16355126/20250117/i1737091124178_5798_0_0.jpg","https://xcimg.szwego.com/img/16355126/20250117/i1737091122838_4284_0_1.jpg","https://xcimg.szwego.com/img/16355126/20250117/i1737091123957_3829_0_2.jpg","https://xcimg.szwego.com/img/16355126/20250117/i1737091122838_1152_0_3.jpg","https://xcimg.szwego.com/img/16355126/20250117/i1737091123795_3829_0_4.jpg","https://xcimg.szwego.com/img/16355126/20250117/i1737091122838_7264_0_5.jpg","https://xcimg.szwego.com/img/16355126/20250117/i1737091124515_9003_0_6.jpg","https://xcimg.szwego.com/img/16355126/20250117/i1737091123955_5473_0_7.jpg","https://xcimg.szwego.com/img/16355126/20250117/i1737091124344_8951_0_8.jpg"],"created_at":"2025-07-17T12:50:17.966Z"},{"id":"item-0b4d6e5faf5b","sku":"_dveveEK8ImtE22Ii1yO2dNT38gpv37D-0nTEXSw","name_en":"新品上线🅰️🅰️ CE VANITY化妝包袋👛","name_cn":"新品上线🅰️🅰️ CE VANITY化妝包袋👛\n這個經典化妝袋取材自MAISON CE的化妝袋,\n今季在手袋系列煥發新意,大小做得很好哦\n化妝袋實用百搭而精緻,名稱來自其CE造型。\nCE VANITY首季推出 天然小牛皮,CE 最尊貴的原版皮皮革,質感結實,可塑造精巧鮮明结构!凱旋門的鎖鍊為靈感。黃褐色皮革飾邊是CE TRIOMPHE CANVAS特色!\n款号:119463\n颜色:棕色(配原版包装)\n尺寸:18x12x18cm","specs":{"source":"wsxcme","sourceId":"_dveveEK8ImtE22Ii1yO2dNT38gpv37D-0nTEXSw","sourceTagId":47003106,"sourceTagName":"塞琳/女包","modelNumber":"119463","dimensions":{"lengthCm":18,"heightCm":12,"widthCm":18},"rawTitle":"新品上线🅰️🅰️ CE VANITY化妝包袋👛\n這個經典化妝袋取材自MAISON CE的化妝袋,\n今季在手袋系列煥發新意,大小做得很好哦\n化妝袋實用百搭而精緻,名稱來自其CE造型。\nCE VANITY首季推出 天然小牛皮,CE 最尊貴的原版皮皮革,質感結實,可塑造精巧鮮明结构!凱旋門的鎖鍊為靈感。黃褐色皮革飾邊是CE TRIOMPHE CANVAS特色!\n款号:119463\n颜色:棕色(配原版包装)\n尺寸:18x12x18cm"},"price":null,"currency":"CNY","moq":1,"category":"celine-women-bags","status":"active","alibaba_url":null,"images":["https://xcimg.szwego.com/img/16355126/20250115/i1736878862055_8003_0_0.jpg","https://xcimg.szwego.com/img/16355126/20250115/i1736878861908_7857_0_1.jpg","https://xcimg.szwego.com/img/16355126/20250115/i1736878861232_7337_0_2.jpg","https://xcimg.szwego.com/img/16355126/20250115/i1736878861746_8109_0_3.jpg","https://xcimg.szwego.com/img/16355126/20250115/i1736878861069_7604_0_4.jpg","https://xcimg.szwego.com/img/16355126/20250115/i1736878861419_4508_0_5.jpg","https://xcimg.szwego.com/img/16355126/20250115/i1736878861595_3287_0_6.jpg","https://xcimg.szwego.com/img/16355126/20250115/i1736878862219_1556_0_7.jpg","https://xcimg.szwego.com/img/16355126/20250115/i1736878860924_5400_0_8.jpg"],"created_at":"2025-07-17T12:50:09.925Z"},{"id":"item-908fd4d7f695","sku":"_doJoJjPVXFufM4vWQR9tIUmp9_NcqfMyV0OO0yg","name_en":"Saint Laurent Women Bags","name_cn":"随拍上身参考_","specs":{"source":"wsxcme","sourceId":"_doJoJjPVXFufM4vWQR9tIUmp9_NcqfMyV0OO0yg","sourceTagId":47002761,"sourceTagName":"圣罗兰/女包","rawTitle":"随拍上身参考_"},"price":null,"currency":"CNY","moq":1,"category":"ysl-women-bags","status":"active","alibaba_url":null,"images":["https://xcimg.szwego.com/img/c8ebba50/20240315/i1710491627_5488_1.jpg","https://xcimg.szwego.com/img/c8ebba50/20240315/i1710491627_5569_2.jpg","https://xcimg.szwego.com/img/c8ebba50/20240315/i1710491627_1227_0.jpg"],"created_at":"2025-07-17T12:45:32.037Z"},{"id":"item-81a7176de97b","sku":"_dv5v58EbOIZ_cqD5cntXkgh7fXOTpIj8fjGpiiQ","name_en":"Saint Laurent Women Bags","name_cn":"▪️黑色⚫️\nLE CASSANDRE新款化妆包\n牛皮材质简直是yyds~时髦高级的质感 值得拥有 特别的轻便 名副其实的高颜值 容量不容\n款号:736010\n尺寸:30×20×11cm","specs":{"source":"wsxcme","sourceId":"_dv5v58EbOIZ_cqD5cntXkgh7fXOTpIj8fjGpiiQ","sourceTagId":47002761,"sourceTagName":"圣罗兰/女包","modelNumber":"736010","dimensions":{"lengthCm":30,"heightCm":20,"widthCm":11},"rawTitle":"▪️黑色⚫️\nLE CASSANDRE新款化妆包\n牛皮材质简直是yyds~时髦高级的质感 值得拥有 特别的轻便 名副其实的高颜值 容量不容\n款号:736010\n尺寸:30×20×11cm"},"price":null,"currency":"CNY","moq":1,"category":"ysl-women-bags","status":"active","alibaba_url":null,"images":["https://xcimg.szwego.com/img/c8ebba50/20240315/i1710491563_8970_4.jpg","https://xcimg.szwego.com/img/c8ebba50/20240315/i1710491563_8089_2.jpg","https://xcimg.szwego.com/img/c8ebba50/20240315/i1710491563_6260_5.jpg","https://xcimg.szwego.com/img/c8ebba50/20240315/i1710491563_9359_6.jpg","https://xcimg.szwego.com/img/c8ebba50/20240315/i1710491563_7695_3.jpg","https://xcimg.szwego.com/img/c8ebba50/20240315/i1710491563_2131_0.jpg","https://xcimg.szwego.com/img/c8ebba50/20240315/i1710491563_4380_7.jpg","https://xcimg.szwego.com/img/c8ebba50/20240315/i1710491563_8622_1.jpg","https://xcimg.szwego.com/img/c8ebba50/20240315/i1710491577_2842_0.jpg"],"created_at":"2025-07-17T12:45:21.665Z"},{"id":"item-fbc31263a506","sku":"_djIjIeSfrcPuvRzv2EfRB2dtap8RIx821qMh5qA","name_en":"【配全套专柜包装】!!️这款Gucci Softbit系列肩背包匠心融蕴大号半马衔扣造型品牌经典马术风格配件。","name_cn":"【配全套专柜包装】!!️这款Gucci Softbit系列肩背包匠心融蕴大号半马衔扣造型品牌经典马术风格配件。\n黑色粒面牛皮革\n浅金色调配件\n深棕色超细纤维衬里\n半马衔扣\n型号:828147。\n尺寸:19x10x3.5cm。\n颜色:黑色/原厂皮。","specs":{"source":"wsxcme","sourceId":"_djIjIeSfrcPuvRzv2EfRB2dtap8RIx821qMh5qA","sourceTagId":47002663,"sourceTagName":"长短款钱包","modelNumber":"828147","dimensions":{"lengthCm":19,"heightCm":10,"widthCm":3.5},"rawTitle":"【配全套专柜包装】!!️这款Gucci Softbit系列肩背包匠心融蕴大号半马衔扣造型品牌经典马术风格配件。\n黑色粒面牛皮革\n浅金色调配件\n深棕色超细纤维衬里\n半马衔扣\n型号:828147。\n尺寸:19x10x3.5cm。\n颜色:黑色/原厂皮。"},"price":null,"currency":"CNY","moq":1,"category":"women-wallets","status":"active","alibaba_url":null,"images":["https://xcimg.szwego.com/img/545dbde1/20250428/i1745823854_6919_0.jpg","https://xcimg.szwego.com/img/545dbde1/20250428/i1745823854_1772_0.jpg","https://xcimg.szwego.com/img/545dbde1/20250428/i1745823854_3485_0.jpg","https://xcimg.szwego.com/img/545dbde1/20250428/i1745823854_9828_0.jpg","https://xcimg.szwego.com/img/545dbde1/20250428/i1745823854_1584_0.jpg","https://xcimg.szwego.com/img/545dbde1/20250428/i1745823854_5310_0.jpg","https://xcimg.szwego.com/img/545dbde1/20250428/i1745823854_5730_0.jpg","https://xcimg.szwego.com/img/545dbde1/20250428/i1745823854_81_0.jpg","https://xcimg.szwego.com/img/545dbde1/20250428/i1745823854_8126_0.jpg","https://xcimg.szwego.com/img/545dbde1/20250428/i1745823854_7547_0.jpg"],"created_at":"2025-06-23T05:41:28.408Z"},{"id":"item-2265d5146270","sku":"_daAaAsmPCy8cCVYYI26JT6S2Q08DTNYJheFoybw","name_en":"TRIOMPHE坠饰标志印花短款钱包","name_cn":"TRIOMPHE坠饰标志印花短款钱包\n编号10M102老花\n产品信息\n4 X 4 X 1英寸(9 X 10.5 X 2厘米)\nTRIOMPHE CANVAS标志印花,人造革\n衬里:牛皮革/织物\n金色饰面\n按扣和拉链开合\n1个TRIOMPHE功能性坠饰 \n1个大号纸币袋 \n2个扁平口袋 \n4个卡槽","specs":{"source":"wsxcme","sourceId":"_daAaAsmPCy8cCVYYI26JT6S2Q08DTNYJheFoybw","sourceTagId":47002663,"sourceTagName":"长短款钱包","rawTitle":"TRIOMPHE坠饰标志印花短款钱包\n编号10M102老花\n产品信息\n4 X 4 X 1英寸(9 X 10.5 X 2厘米)\nTRIOMPHE CANVAS标志印花,人造革\n衬里:牛皮革/织物\n金色饰面\n按扣和拉链开合\n1个TRIOMPHE功能性坠饰 \n1个大号纸币袋 \n2个扁平口袋 \n4个卡槽"},"price":null,"currency":"CNY","moq":1,"category":"women-wallets","status":"active","alibaba_url":null,"images":["https://xcimg.szwego.com/img/d60689b5/20250428/i1745824375815_6631_0_0.jpg","https://xcimg.szwego.com/img/d60689b5/20250428/i1745824375936_5815_0_1.jpg","https://xcimg.szwego.com/img/d60689b5/20250428/i1745824378194_8458_0_2.jpg","https://xcimg.szwego.com/img/d60689b5/20250428/i1745824375963_7104_0_3.jpg","https://xcimg.szwego.com/img/d60689b5/20250428/i1745824375879_9253_0_4.jpg","https://xcimg.szwego.com/img/d60689b5/20250428/i1745824375886_5889_0_5.jpg"],"created_at":"2025-06-23T05:40:51.462Z"},{"id":"item-eb4198a05163","sku":"_dAVAVafWAKWLtUoDI2crGJMQT5PAebJfBijhcMw","name_en":"YSL拉链钱包 12个卡位,1个拉链袋,2个钞票隔层,2个票据隔层","name_cn":"YSL拉链钱包 12个卡位,1个拉链袋,2个钞票隔层,2个票据隔层\n不得不说ysl的钱夹真的是好好用,经典的鱼子酱纹牛皮搭配大五金logo,简洁又凸显品牌风格设计,不管过了多少年都是拿得出手的,手机也可以放,耐磨耐用,不需要打理\n型号:358094 \n尺寸:19*10cm","specs":{"source":"wsxcme","sourceId":"_dAVAVafWAKWLtUoDI2crGJMQT5PAebJfBijhcMw","sourceTagId":47002663,"sourceTagName":"长短款钱包","modelNumber":"358094","rawTitle":"YSL拉链钱包 12个卡位,1个拉链袋,2个钞票隔层,2个票据隔层\n不得不说ysl的钱夹真的是好好用,经典的鱼子酱纹牛皮搭配大五金logo,简洁又凸显品牌风格设计,不管过了多少年都是拿得出手的,手机也可以放,耐磨耐用,不需要打理\n型号:358094 \n尺寸:19*10cm"},"price":null,"currency":"CNY","moq":1,"category":"women-wallets","status":"active","alibaba_url":null,"images":["https://xcimg.szwego.com/img/80e46a01/20241127/i1732706774_599_3.jpg","https://xcimg.szwego.com/img/80e46a01/20241127/i1732706774_8032_0.jpg","https://xcimg.szwego.com/img/80e46a01/20241127/i1732706775_6516_6.jpg","https://xcimg.szwego.com/img/80e46a01/20241127/i1732706774_7857_2.jpg","https://xcimg.szwego.com/img/80e46a01/20241127/i1732706774_1377_4.jpg","https://xcimg.szwego.com/img/80e46a01/20241127/i1732706775_220_5.jpg","https://xcimg.szwego.com/img/80e46a01/20241127/i1732706774_368_1.jpg","https://xcimg.szwego.com/img/80e46a01/20241127/i1732706775_5686_7.jpg","https://xcimg.szwego.com/img/80e46a01/20241127/i1732706775_8278_8.jpg"],"created_at":"2025-06-23T05:40:18.011Z"},{"id":"item-70afed5cfe71","sku":"_dagagCn44HncbN_no48frNtz8l_XU6aGdrhDH7w","name_en":"YSL鱼子酱卡包现货来约,原版在香港3100入手, 超实用的一款,麻雀虽小,但特能装,百元大钞可以,零钱硬币也可以可放拉链袋内!最贴心之处是设有可露脸的证件卡槽,[奸笑]!总之就是人手必入超级实用 牛皮➕羊皮 全套专柜包装","name_cn":"YSL鱼子酱卡包现货来约,原版在香港3100入手, 超实用的一款,麻雀虽小,但特能装,百元大钞可以,零钱硬币也可以可放拉链袋内!最贴心之处是设有可露脸的证件卡槽,[奸笑]!总之就是人手必入超级实用 牛皮➕羊皮 全套专柜包装\n型号:517045 \n尺寸:13*9*1.5cm","specs":{"source":"wsxcme","sourceId":"_dagagCn44HncbN_no48frNtz8l_XU6aGdrhDH7w","sourceTagId":47002663,"sourceTagName":"长短款钱包","modelNumber":"517045","dimensions":{"lengthCm":13,"heightCm":9,"widthCm":1.5},"rawTitle":"YSL鱼子酱卡包现货来约,原版在香港3100入手, 超实用的一款,麻雀虽小,但特能装,百元大钞可以,零钱硬币也可以可放拉链袋内!最贴心之处是设有可露脸的证件卡槽,[奸笑]!总之就是人手必入超级实用 牛皮➕羊皮 全套专柜包装\n型号:517045 \n尺寸:13*9*1.5cm"},"price":null,"currency":"CNY","moq":1,"category":"women-wallets","status":"active","alibaba_url":null,"images":["https://xcimg.szwego.com/img/80e46a01/20241124/i1732444837_2218_7.jpg","https://xcimg.szwego.com/img/80e46a01/20241124/i1732444837_2628_0.jpg","https://xcimg.szwego.com/img/80e46a01/20241124/i1732444837_6_6.jpg","https://xcimg.szwego.com/img/80e46a01/20241124/i1732444837_8120_4.jpg","https://xcimg.szwego.com/img/80e46a01/20241124/i1732444837_1469_2.jpg","https://xcimg.szwego.com/img/80e46a01/20241124/i1732444837_7141_8.jpg","https://xcimg.szwego.com/img/80e46a01/20241124/i1732444837_6091_3.jpg","https://xcimg.szwego.com/img/80e46a01/20241124/i1732444837_6140_5.jpg","https://xcimg.szwego.com/img/80e46a01/20241124/i1732444837_867_1.jpg"],"created_at":"2025-06-23T05:40:00.855Z"},{"id":"item-ebc79eefff38","sku":"_d8T8TVhnY4vzQliTvdLzap7xW9mJBD00A-fx1vQ","name_en":"ysl-517045 组合图 十二个颜色","name_cn":"ysl-517045 组合图 十二个颜色","specs":{"source":"wsxcme","sourceId":"_d8T8TVhnY4vzQliTvdLzap7xW9mJBD00A-fx1vQ","sourceTagId":47002663,"sourceTagName":"长短款钱包","rawTitle":"ysl-517045 组合图 十二个颜色"},"price":null,"currency":"CNY","moq":1,"category":"women-wallets","status":"active","alibaba_url":null,"images":["https://xcimg.szwego.com/img/80e46a01/20241124/i1732445249_767_0.jpg"],"created_at":"2025-06-23T05:39:49.848Z"},{"id":"item-9b2c86fb524b","sku":"_dkRkRhcHrpI_ieS_bXRwILoKVKfRGmaYnqV0t0w","name_en":"1MM268 prada 组合图","name_cn":"1MM268 prada 组合图","specs":{"source":"wsxcme","sourceId":"_dkRkRhcHrpI_ieS_bXRwILoKVKfRGmaYnqV0t0w","sourceTagId":47002663,"sourceTagName":"长短款钱包","rawTitle":"1MM268 prada 组合图"},"price":null,"currency":"CNY","moq":1,"category":"women-wallets","status":"active","alibaba_url":null,"images":["https://xcimg.szwego.com/img/80e46a01/20240929/i1727543896_1848_0.jpg"],"created_at":"2025-06-23T05:39:26.040Z"},{"id":"item-a2b57d731bfb","sku":"_dvovonVZxHiFcdrP7krLuRIzzNZSNpawSEvF75g","name_en":"💰 Prada 十字纹男女通用卡夹拉链包","name_cn":"💰 Prada 十字纹男女通用卡夹拉链包\n型号:1MM268    尺寸:10*8cm 原单品质 \n颜色详细如图所示 ,独家实拍 可放包里 也可以手拿 \n小巧可爱型皮具,十字纹牛皮制作\n经典实用的拉链设计,内里为褶裥式卡位,方便分类收纳,夏天单独搭配手机出门或者放在小包里再合适不过,您的最佳品味之选。","specs":{"source":"wsxcme","sourceId":"_dvovonVZxHiFcdrP7krLuRIzzNZSNpawSEvF75g","sourceTagId":47002663,"sourceTagName":"长短款钱包","modelNumber":"1MM268    尺寸:10*8cm 原单品质","rawTitle":"💰 Prada 十字纹男女通用卡夹拉链包\n型号:1MM268    尺寸:10*8cm 原单品质 \n颜色详细如图所示 ,独家实拍 可放包里 也可以手拿 \n小巧可爱型皮具,十字纹牛皮制作\n经典实用的拉链设计,内里为褶裥式卡位,方便分类收纳,夏天单独搭配手机出门或者放在小包里再合适不过,您的最佳品味之选。"},"price":null,"currency":"CNY","moq":1,"category":"women-wallets","status":"active","alibaba_url":null,"images":["https://xcimg.szwego.com/img/80e46a01/20240929/i1727543740_1764_5.jpg","https://xcimg.szwego.com/img/80e46a01/20240929/i1727543740_7512_0.jpg","https://xcimg.szwego.com/img/80e46a01/20240929/i1727543740_2985_2.jpg","https://xcimg.szwego.com/img/80e46a01/20240929/i1727543740_8823_8.jpg","https://xcimg.szwego.com/img/80e46a01/20240929/i1727543740_9112_3.jpg","https://xcimg.szwego.com/img/80e46a01/20240929/i1727543740_6609_4.jpg","https://xcimg.szwego.com/img/80e46a01/20240929/i1727543740_5308_1.jpg","https://xcimg.szwego.com/img/80e46a01/20240929/i1727543740_4416_6.jpg","https://xcimg.szwego.com/img/80e46a01/20240929/i1727543740_8227_7.jpg"],"created_at":"2025-06-23T05:39:10.693Z"},{"id":"item-546a233248e6","sku":"_dFhFhId7k2kZutNSlXQiXhLlZOLJqUy7HQ1ILWA","name_en":"穿搭点睛之笔|交叉手柄kelly BB蓝绝了💙","name_cn":"穿搭点睛之笔|交叉手柄kelly BB蓝绝了💙\n这抹治愈系像把蓝天白云揣进包啊〰️","specs":{"source":"wsxcme","sourceId":"_dFhFhId7k2kZutNSlXQiXhLlZOLJqUy7HQ1ILWA","sourceTagId":47002745,"sourceTagName":"香奈儿/女包","rawTitle":"穿搭点睛之笔|交叉手柄kelly BB蓝绝了💙\n这抹治愈系像把蓝天白云揣进包啊〰️"},"price":null,"currency":"CNY","moq":1,"category":"chanel-women-bags","status":"active","alibaba_url":null,"images":["https://xcimg.szwego.com/imgHD/0cf5d261/20250610/cmp_i1749529131354_7939_0_0.jpg","https://xcimg.szwego.com/imgHD/0cf5d261/20250610/cmp_i1749529125575_933_0_1.jpg","https://xcimg.szwego.com/imgHD/0cf5d261/20250610/cmp_i1749529124974_3706_0_2.jpg","https://xcimg.szwego.com/imgHD/0cf5d261/20250610/cmp_i1749529131434_5144_0_3.jpg","https://xcimg.szwego.com/imgHD/0cf5d261/20250610/cmp_i1749529125000_2158_0_4.jpg","https://xcimg.szwego.com/imgHD/0cf5d261/20250610/cmp_i1749529131997_6924_0_5.jpg","https://xcimg.szwego.com/imgHD/0cf5d261/20250610/cmp_i1749529131955_239_0_6.jpg","https://xcimg.szwego.com/imgHD/0cf5d261/20250610/cmp_i1749529125599_7004_0_7.jpg","https://xcimg.szwego.com/imgHD/0cf5d261/20250610/cmp_i1749529124498_5659_0_8.jpg"],"created_at":"2025-06-23T05:37:04.358Z"},{"id":"item-299491ce834c","sku":"_dwuwuc0Fhjv2CcV_5zMHgUyxirnBXysmvN-fbPw","name_en":"全新发售🆕Chane1 25s春夏","name_cn":"全新发售🆕Chane1 25s春夏\n交叉手柄MiniKelly淡蓝\n专柜售价31800rmb购入开发~\n\n爆款轮回🔥全新版本迷你kelly横款\n当Chanel传奇美学与精致工艺碰撞,\n这款交叉链手柄MiniKelly应运而生\n设计独具巧思,有优雅的手提韵味,\n又能随性斜挎,解锁多样时尚造型~\n\n五金:厚镀14k淡金扣\n面料:impala”三只羊“小球纹\n尺寸:10*18*4.5 cm","specs":{"source":"wsxcme","sourceId":"_dwuwuc0Fhjv2CcV_5zMHgUyxirnBXysmvN-fbPw","sourceTagId":47002745,"sourceTagName":"香奈儿/女包","dimensions":{"lengthCm":10,"heightCm":18,"widthCm":4.5},"rawTitle":"全新发售🆕Chane1 25s春夏\n交叉手柄MiniKelly淡蓝\n专柜售价31800rmb购入开发~\n\n爆款轮回🔥全新版本迷你kelly横款\n当Chanel传奇美学与精致工艺碰撞,\n这款交叉链手柄MiniKelly应运而生\n设计独具巧思,有优雅的手提韵味,\n又能随性斜挎,解锁多样时尚造型~\n\n五金:厚镀14k淡金扣\n面料:impala”三只羊“小球纹\n尺寸:10*18*4.5 cm"},"price":null,"currency":"CNY","moq":1,"category":"chanel-women-bags","status":"active","alibaba_url":null,"images":["https://xcimg.szwego.com/imgHD/0cf5d261/20250610/cmp_i1749528849804_9455_0_0.jpg","https://xcimg.szwego.com/imgHD/0cf5d261/20250610/cmp_i1749528849788_509_0_1.jpg","https://xcimg.szwego.com/imgHD/0cf5d261/20250610/cmp_i1749528845193_613_0_2.jpg","https://xcimg.szwego.com/imgHD/0cf5d261/20250610/cmp_i1749528845193_3583_0_3.jpg","https://xcimg.szwego.com/imgHD/0cf5d261/20250610/cmp_i1749528845193_7388_0_4.jpg","https://xcimg.szwego.com/imgHD/0cf5d261/20250610/cmp_i1749528845193_5327_0_5.jpg","https://xcimg.szwego.com/imgHD/0cf5d261/20250610/cmp_i1749528849800_6171_0_6.jpg","https://xcimg.szwego.com/imgHD/0cf5d261/20250610/cmp_i1749528849795_7193_0_7.jpg","https://xcimg.szwego.com/imgHD/0cf5d261/20250610/cmp_i1749528845193_970_0_8.jpg"],"created_at":"2025-06-23T05:37:04.357Z"},{"id":"item-5b544e672d21","sku":"_dQeQeVuFfEMczoEe795RI0IfOVu-KnF-_OqeZew","name_en":"最新横款交叉手柄kelly,粉到犯规〰️","name_cn":"最新横款交叉手柄kelly,粉到犯规〰️\n简直就是人间水蜜桃,把甜酷感拉满❕\n这是让我体会到“包治百病”的快乐啦✨","specs":{"source":"wsxcme","sourceId":"_dQeQeVuFfEMczoEe795RI0IfOVu-KnF-_OqeZew","sourceTagId":47002745,"sourceTagName":"香奈儿/女包","rawTitle":"最新横款交叉手柄kelly,粉到犯规〰️\n简直就是人间水蜜桃,把甜酷感拉满❕\n这是让我体会到“包治百病”的快乐啦✨"},"price":null,"currency":"CNY","moq":1,"category":"chanel-women-bags","status":"active","alibaba_url":null,"images":["https://xcimg.szwego.com/imgHD/0cf5d261/20250609/cmp_i1749453114608_6686_0_0.jpg","https://xcimg.szwego.com/imgHD/0cf5d261/20250609/cmp_i1749453120064_8369_0_1.jpg","https://xcimg.szwego.com/imgHD/0cf5d261/20250609/cmp_i1749453114585_6095_0_2.jpg","https://xcimg.szwego.com/imgHD/0cf5d261/20250609/cmp_i1749453114585_3450_0_3.jpg","https://xcimg.szwego.com/imgHD/0cf5d261/20250609/cmp_i1749453119122_6950_0_4.jpg","https://xcimg.szwego.com/imgHD/0cf5d261/20250609/cmp_i1749453120023_9146_0_5.jpg","https://xcimg.szwego.com/imgHD/0cf5d261/20250609/cmp_i1749453120105_2758_0_6.jpg","https://xcimg.szwego.com/imgHD/0cf5d261/20250609/cmp_i1749453114637_1053_0_7.jpg","https://xcimg.szwego.com/imgHD/0cf5d261/20250609/cmp_i1749453114586_8097_0_8.jpg"],"created_at":"2025-06-23T05:37:04.356Z"},{"id":"item-3ccfb9cbdaff","sku":"_dsUsUQ52AOQjQj9eqgwTHaW8YVBBlFZk1_f5SsA","name_en":"全新发售🆕Chane1 25s春夏","name_cn":"全新发售🆕Chane1 25s春夏\n交叉手柄MiniKelly淡粉\n专柜售价31800rmb购入开发~\n\n爆款轮回🔥全新版本迷你kelly横款\n当Chanel传奇美学与精致工艺碰撞,\n这款交叉链手柄MiniKelly应运而生\n设计独具巧思,有优雅的手提韵味,\n又能随性斜挎,解锁多样时尚造型~\n\n五金:厚镀14k淡金扣\n面料:impala”三只羊“小球纹\n尺寸:10*18*4.5 cm","specs":{"source":"wsxcme","sourceId":"_dsUsUQ52AOQjQj9eqgwTHaW8YVBBlFZk1_f5SsA","sourceTagId":47002745,"sourceTagName":"香奈儿/女包","dimensions":{"lengthCm":10,"heightCm":18,"widthCm":4.5},"rawTitle":"全新发售🆕Chane1 25s春夏\n交叉手柄MiniKelly淡粉\n专柜售价31800rmb购入开发~\n\n爆款轮回🔥全新版本迷你kelly横款\n当Chanel传奇美学与精致工艺碰撞,\n这款交叉链手柄MiniKelly应运而生\n设计独具巧思,有优雅的手提韵味,\n又能随性斜挎,解锁多样时尚造型~\n\n五金:厚镀14k淡金扣\n面料:impala”三只羊“小球纹\n尺寸:10*18*4.5 cm"},"price":null,"currency":"CNY","moq":1,"category":"chanel-women-bags","status":"active","alibaba_url":null,"images":["https://xcimg.szwego.com/imgHD/0cf5d261/20250609/cmp_i1749452743430_8508_0_0.jpg","https://xcimg.szwego.com/imgHD/0cf5d261/20250609/cmp_i1749452743430_5751_0_1.jpg","https://xcimg.szwego.com/imgHD/0cf5d261/20250609/cmp_i1749452776953_2553_0_2.jpg","https://xcimg.szwego.com/imgHD/0cf5d261/20250609/cmp_i1749452743430_2092_0_3.jpg","https://xcimg.szwego.com/imgHD/0cf5d261/20250609/cmp_i1749452747984_3456_0_4.jpg","https://xcimg.szwego.com/imgHD/0cf5d261/20250609/cmp_i1749452748431_8050_0_5.jpg","https://xcimg.szwego.com/imgHD/0cf5d261/20250609/cmp_i1749452743430_3529_0_6.jpg","https://xcimg.szwego.com/imgHD/0cf5d261/20250609/cmp_i1749452747993_9225_0_7.jpg","https://xcimg.szwego.com/imgHD/0cf5d261/20250609/cmp_i1749452743430_8016_0_8.jpg"],"created_at":"2025-06-23T05:37:04.355Z"}],"page":113,"pageSize":24,"total":10075,"totalPages":420}
