{"items":[{"id":"item-79b0e0eb4913","sku":"_dpxpxCie5Tn6v5LPQ8Dc2PUtgvs2bZ59BnLfWwQ","name_en":"半手工蜜蜡缝线 原厂皮 客定定做款❤️  可 ☄️25cm/28cm","name_cn":"半手工蜜蜡缝线 原厂皮 客定定做款❤️  可 ☄️25cm/28cm\n💫Dream bag~Kelly epsom 掌纹\n✨宝石红 夏天也难以抑制躁动的心❤️❤️","specs":{"source":"wsxcme","sourceId":"_dpxpxCie5Tn6v5LPQ8Dc2PUtgvs2bZ59BnLfWwQ","sourceTagId":76963559,"sourceTagName":"爱马仕/女包","rawTitle":"半手工蜜蜡缝线 原厂皮 客定定做款❤️  可 ☄️25cm/28cm\n💫Dream bag~Kelly epsom 掌纹\n✨宝石红 夏天也难以抑制躁动的心❤️❤️"},"price":null,"currency":"CNY","moq":1,"category":"hermes-women-bags","status":"active","alibaba_url":null,"images":["https://xcimg.szwego.com/20210801/i1627801890_7482_0.jpg","https://xcimg.szwego.com/20210801/i1627801890_3748_1.jpg","https://xcimg.szwego.com/20210801/i1627801890_8358_2.jpg","https://xcimg.szwego.com/20210801/i1627801890_982_3.jpg","https://xcimg.szwego.com/20210801/i1627801890_9101_4.jpg","https://xcimg.szwego.com/20210801/i1627801890_7966_5.jpg","https://xcimg.szwego.com/20210801/i1627801890_1271_6.jpg","https://xcimg.szwego.com/20210801/i1627801890_3147_7.jpg","https://xcimg.szwego.com/20210801/i1627801890_389_8.jpg"],"created_at":"2026-06-29T12:59:35.924Z"},{"id":"item-3b7c36700950","sku":"_dcHcHAax6LXNJBhF79zG_IBeP-3Opv895BLi-Lg","name_en":"半手工蜜蜡缝线 原厂皮 客定定做款❤️  可 ☄️25cm/28cm","name_cn":"半手工蜜蜡缝线 原厂皮 客定定做款❤️  可 ☄️25cm/28cm\n💫Dream bag~Kelly epsom 掌纹\n✨牛仔蓝 极简即是美❤️","specs":{"source":"wsxcme","sourceId":"_dcHcHAax6LXNJBhF79zG_IBeP-3Opv895BLi-Lg","sourceTagId":76963559,"sourceTagName":"爱马仕/女包","rawTitle":"半手工蜜蜡缝线 原厂皮 客定定做款❤️  可 ☄️25cm/28cm\n💫Dream bag~Kelly epsom 掌纹\n✨牛仔蓝 极简即是美❤️"},"price":null,"currency":"CNY","moq":1,"category":"hermes-women-bags","status":"active","alibaba_url":null,"images":["https://xcimg.szwego.com/20210801/i1627800823_6648_0.jpg","https://xcimg.szwego.com/20210801/i1627800823_9928_1.jpg","https://xcimg.szwego.com/20210801/i1627800823_7210_2.jpg","https://xcimg.szwego.com/20210801/i1627800823_4891_3.jpg","https://xcimg.szwego.com/20210801/i1627800823_6541_4.jpg","https://xcimg.szwego.com/20210801/i1627800823_6716_5.jpg","https://xcimg.szwego.com/20210801/i1627800823_4922_6.jpg","https://xcimg.szwego.com/20210801/i1627800823_2684_7.jpg","https://xcimg.szwego.com/20210801/i1627800823_9461_8.jpg"],"created_at":"2026-06-29T12:59:35.914Z"},{"id":"item-d95333faf4a7","sku":"_ddpdpgWKpygE8_AxwC6Vc35bR85uBV-FrK7W_Yg","name_en":"半手工蜜蜡缝线 原厂皮 客定定做款❤️  可 ☄️25cm/28cm","name_cn":"半手工蜜蜡缝线 原厂皮 客定定做款❤️  可 ☄️25cm/28cm\n💫Dream bag~Kelly epsom 掌纹\n✨63杏仁绿 生活那么难总要对自己好点❤️","specs":{"source":"wsxcme","sourceId":"_ddpdpgWKpygE8_AxwC6Vc35bR85uBV-FrK7W_Yg","sourceTagId":76963559,"sourceTagName":"爱马仕/女包","rawTitle":"半手工蜜蜡缝线 原厂皮 客定定做款❤️  可 ☄️25cm/28cm\n💫Dream bag~Kelly epsom 掌纹\n✨63杏仁绿 生活那么难总要对自己好点❤️"},"price":null,"currency":"CNY","moq":1,"category":"hermes-women-bags","status":"active","alibaba_url":null,"images":["https://xcimg.szwego.com/20210801/i1627800442_2814_0.jpg","https://xcimg.szwego.com/20210801/i1627800442_4539_1.jpg","https://xcimg.szwego.com/20210801/i1627800442_7383_2.jpg","https://xcimg.szwego.com/20210801/i1627800442_2265_3.jpg","https://xcimg.szwego.com/20210801/i1627800442_9832_4.jpg","https://xcimg.szwego.com/20210801/i1627800442_9962_5.jpg","https://xcimg.szwego.com/20210801/i1627800442_3022_6.jpg","https://xcimg.szwego.com/20210801/i1627800442_8588_7.jpg","https://xcimg.szwego.com/20210801/i1627800442_3843_8.jpg"],"created_at":"2026-06-29T12:59:35.904Z"},{"id":"item-f421eb3536cb","sku":"_dc3c3nC2qpCfGAp5qg-I4DlLQxO9C2wfW-ulYWg","name_en":"半手工蜜蜡缝线 原厂皮 客定定做款❤️  可 ☄️ 25cm/28cm","name_cn":"半手工蜜蜡缝线 原厂皮 客定定做款❤️  可 ☄️ 25cm/28cm\n💫✨Dream bag~Kelly epsom掌纹\n饱和而不俗套的粉 U5唇膏粉❤️","specs":{"source":"wsxcme","sourceId":"_dc3c3nC2qpCfGAp5qg-I4DlLQxO9C2wfW-ulYWg","sourceTagId":76963559,"sourceTagName":"爱马仕/女包","rawTitle":"半手工蜜蜡缝线 原厂皮 客定定做款❤️  可 ☄️ 25cm/28cm\n💫✨Dream bag~Kelly epsom掌纹\n饱和而不俗套的粉 U5唇膏粉❤️"},"price":null,"currency":"CNY","moq":1,"category":"hermes-women-bags","status":"active","alibaba_url":null,"images":["https://xcimg.szwego.com/20210801/i1627800148_2627_0.jpg","https://xcimg.szwego.com/20210801/i1627800148_47_1.jpg","https://xcimg.szwego.com/20210801/i1627800148_9294_2.jpg","https://xcimg.szwego.com/20210801/i1627800148_4596_3.jpg","https://xcimg.szwego.com/20210801/i1627800148_2240_4.jpg","https://xcimg.szwego.com/20210801/i1627800148_6757_5.jpg","https://xcimg.szwego.com/20210801/i1627800148_8313_6.jpg","https://xcimg.szwego.com/20210801/i1627800148_3054_7.jpg","https://xcimg.szwego.com/20210801/i1627800148_7746_8.jpg"],"created_at":"2026-06-29T12:59:35.894Z"},{"id":"item-b8bdbaaec2ec","sku":"_dqgqgrCit9A53KE9ttLiRx7Szyyou5wRp_L7V8w","name_en":"半手工蜜蜡缝线 原厂皮 客定定做款❤️  可 Kelly25 Epsom皮质,不易变形不怕刮痕容易打理❤️","name_cn":"半手工蜜蜡缝线 原厂皮 客定定做款❤️  可 Kelly25 Epsom皮质,不易变形不怕刮痕容易打理❤️","specs":{"source":"wsxcme","sourceId":"_dqgqgrCit9A53KE9ttLiRx7Szyyou5wRp_L7V8w","sourceTagId":76963559,"sourceTagName":"爱马仕/女包","rawTitle":"半手工蜜蜡缝线 原厂皮 客定定做款❤️  可 Kelly25 Epsom皮质,不易变形不怕刮痕容易打理❤️"},"price":null,"currency":"CNY","moq":1,"category":"hermes-women-bags","status":"active","alibaba_url":null,"images":["https://xcimg.szwego.com/20201128/i1606557262_9598_0.jpg","https://xcimg.szwego.com/20201128/i1606557262_640_1.jpg","https://xcimg.szwego.com/20201128/i1606557262_5816_2.jpg","https://xcimg.szwego.com/20201128/i1606557262_6290_3.jpg","https://xcimg.szwego.com/20201128/i1606557262_6175_4.jpg","https://xcimg.szwego.com/20201128/i1606557262_5502_5.jpg","https://xcimg.szwego.com/20201128/i1606557262_2316_6.jpg","https://xcimg.szwego.com/20201128/i1606557262_837_7.jpg","https://xcimg.szwego.com/20201128/i1606557262_6096_8.jpg"],"created_at":"2026-06-29T12:59:35.884Z"},{"id":"item-e61597fbeed1","sku":"_diviv6EKqeFHfDz8Ovq7zso8HZIlBf5G5G6ZDNg","name_en":"半手工蜜蜡缝线 原厂皮 客定定做款❤️  可 Kelly25 Epsom 颗粒饱满,皮质摸起来都是有些凹凸不平的❤️","name_cn":"半手工蜜蜡缝线 原厂皮 客定定做款❤️  可 Kelly25 Epsom 颗粒饱满,皮质摸起来都是有些凹凸不平的❤️","specs":{"source":"wsxcme","sourceId":"_diviv6EKqeFHfDz8Ovq7zso8HZIlBf5G5G6ZDNg","sourceTagId":76963559,"sourceTagName":"爱马仕/女包","rawTitle":"半手工蜜蜡缝线 原厂皮 客定定做款❤️  可 Kelly25 Epsom 颗粒饱满,皮质摸起来都是有些凹凸不平的❤️"},"price":null,"currency":"CNY","moq":1,"category":"hermes-women-bags","status":"active","alibaba_url":null,"images":["https://xcimg.szwego.com/20201128/i1606556932_2766_0.jpg","https://xcimg.szwego.com/20201128/i1606556932_510_1.jpg","https://xcimg.szwego.com/20201128/i1606556932_5922_2.jpg","https://xcimg.szwego.com/20201128/i1606556932_2800_3.jpg","https://xcimg.szwego.com/20201128/i1606556932_1236_4.jpg","https://xcimg.szwego.com/20201128/i1606556932_5770_5.jpg","https://xcimg.szwego.com/20201128/i1606556932_6986_6.jpg","https://xcimg.szwego.com/20201128/i1606556932_3896_7.jpg","https://xcimg.szwego.com/20201128/i1606556932_4855_8.jpg"],"created_at":"2026-06-29T12:59:35.874Z"},{"id":"item-2b43c8dd4fa5","sku":"_dU6U6IK2ZiXhC4-Mr8dVzRcVWqqDSSMMzL6NqgQ","name_en":"半手工蜜蜡缝线 原厂皮 客定定做款❤️  可 Kelly 25cm 8F锡器灰 金银扣 ❤️ 原厂Epsom皮 手工蜡线~❤️","name_cn":"半手工蜜蜡缝线 原厂皮 客定定做款❤️  可 Kelly 25cm 8F锡器灰 金银扣 ❤️ 原厂Epsom皮 手工蜡线~❤️","specs":{"source":"wsxcme","sourceId":"_dU6U6IK2ZiXhC4-Mr8dVzRcVWqqDSSMMzL6NqgQ","sourceTagId":76963559,"sourceTagName":"爱马仕/女包","rawTitle":"半手工蜜蜡缝线 原厂皮 客定定做款❤️  可 Kelly 25cm 8F锡器灰 金银扣 ❤️ 原厂Epsom皮 手工蜡线~❤️"},"price":null,"currency":"CNY","moq":1,"category":"hermes-women-bags","status":"active","alibaba_url":null,"images":["https://xcimg.szwego.com/20210307/i1615110032_1112_0.jpg","https://xcimg.szwego.com/20210307/i1615110032_1426_1.jpg","https://xcimg.szwego.com/20210307/i1615110032_762_2.jpg","https://xcimg.szwego.com/20210307/i1615110032_3191_3.jpg","https://xcimg.szwego.com/20210307/i1615110032_1328_4.jpg"],"created_at":"2026-06-29T12:59:35.864Z"},{"id":"item-ac71a3b371aa","sku":"_de6e6hoUEcPaSL2mqE1-uhmdVNc03yMLDIr0afA","name_en":"半手工蜜蜡缝线 原厂皮 客定定做款❤️  可 Kelly 25cm Q5国旗红 金扣 ❤️ 原厂Epsom皮 手工蜡线~❤️","name_cn":"半手工蜜蜡缝线 原厂皮 客定定做款❤️  可 Kelly 25cm Q5国旗红 金扣 ❤️ 原厂Epsom皮 手工蜡线~❤️","specs":{"source":"wsxcme","sourceId":"_de6e6hoUEcPaSL2mqE1-uhmdVNc03yMLDIr0afA","sourceTagId":76963559,"sourceTagName":"爱马仕/女包","rawTitle":"半手工蜜蜡缝线 原厂皮 客定定做款❤️  可 Kelly 25cm Q5国旗红 金扣 ❤️ 原厂Epsom皮 手工蜡线~❤️"},"price":null,"currency":"CNY","moq":1,"category":"hermes-women-bags","status":"active","alibaba_url":null,"images":["https://xcimg.szwego.com/20210307/i1615110015_6925_0.jpg","https://xcimg.szwego.com/20210307/i1615110015_6234_1.jpg","https://xcimg.szwego.com/20210307/i1615110015_9828_2.jpg","https://xcimg.szwego.com/20210307/i1615110015_9227_3.jpg","https://xcimg.szwego.com/20210307/i1615110015_4489_4.jpg"],"created_at":"2026-06-29T12:59:35.854Z"},{"id":"item-3827c1d1eaa3","sku":"_duKuK2rENxTafZIJGMSL7mFBUZY4NjUv6Qwk96g","name_en":"半手工蜜蜡缝线 原厂皮 客定定做款❤️  可 Kelly 25cm 大象灰 金银扣 ❤️ 原厂Epsom皮 手工缝制~❤️","name_cn":"半手工蜜蜡缝线 原厂皮 客定定做款❤️  可 Kelly 25cm 大象灰 金银扣 ❤️ 原厂Epsom皮 手工缝制~❤️","specs":{"source":"wsxcme","sourceId":"_duKuK2rENxTafZIJGMSL7mFBUZY4NjUv6Qwk96g","sourceTagId":76963559,"sourceTagName":"爱马仕/女包","rawTitle":"半手工蜜蜡缝线 原厂皮 客定定做款❤️  可 Kelly 25cm 大象灰 金银扣 ❤️ 原厂Epsom皮 手工缝制~❤️"},"price":null,"currency":"CNY","moq":1,"category":"hermes-women-bags","status":"active","alibaba_url":null,"images":["https://xcimg.szwego.com/20201125/i1606283706_7408_0.jpg","https://xcimg.szwego.com/20201125/i1606283706_9135_1.jpg","https://xcimg.szwego.com/20201125/i1606283706_6401_3.jpg","https://xcimg.szwego.com/20201125/i1606283706_4650_4.jpg","https://xcimg.szwego.com/20201125/i1606283706_7854_5.jpg","https://xcimg.szwego.com/20201125/i1606283706_5441_6.jpg"],"created_at":"2026-06-29T12:59:35.844Z"},{"id":"item-92ef83572022","sku":"_dflflfvaTj2MmQwop2JnkRNKPGqT6yAz1i_-zrA","name_en":"半手工蜜蜡缝线 原厂皮 客定定做款❤️  可 Kelly 25cm 63杏仁绿  金扣 ❤️ 原厂Epsom皮 手工蜡线~❤️","name_cn":"半手工蜜蜡缝线 原厂皮 客定定做款❤️  可 Kelly 25cm 63杏仁绿  金扣 ❤️ 原厂Epsom皮 手工蜡线~❤️","specs":{"source":"wsxcme","sourceId":"_dflflfvaTj2MmQwop2JnkRNKPGqT6yAz1i_-zrA","sourceTagId":76963559,"sourceTagName":"爱马仕/女包","rawTitle":"半手工蜜蜡缝线 原厂皮 客定定做款❤️  可 Kelly 25cm 63杏仁绿  金扣 ❤️ 原厂Epsom皮 手工蜡线~❤️"},"price":null,"currency":"CNY","moq":1,"category":"hermes-women-bags","status":"active","alibaba_url":null,"images":["https://xcimg.szwego.com/20201227/i1609050874_7243_0.jpg","https://xcimg.szwego.com/20201227/i1609050874_7232_1.jpg","https://xcimg.szwego.com/20201227/i1609050874_1596_2.jpg","https://xcimg.szwego.com/20201227/i1609050874_5518_3.jpg","https://xcimg.szwego.com/20201227/i1609050874_549_4.jpg","https://xcimg.szwego.com/20201227/i1609050874_3781_5.jpg"],"created_at":"2026-06-29T12:59:35.834Z"},{"id":"item-0a9f4b5403fa","sku":"_dbCbC_3_vrhbXXkvcFXfm-8XouLs0gCUqH_hWdw","name_en":"半手工蜜蜡缝线 原厂皮 客定定做款❤️  可 Kelly 25cm 奶昔白  银扣 ❤️ 原厂Epsom皮 手工蜡线~❤️","name_cn":"半手工蜜蜡缝线 原厂皮 客定定做款❤️  可 Kelly 25cm 奶昔白  银扣 ❤️ 原厂Epsom皮 手工蜡线~❤️","specs":{"source":"wsxcme","sourceId":"_dbCbC_3_vrhbXXkvcFXfm-8XouLs0gCUqH_hWdw","sourceTagId":76963559,"sourceTagName":"爱马仕/女包","rawTitle":"半手工蜜蜡缝线 原厂皮 客定定做款❤️  可 Kelly 25cm 奶昔白  银扣 ❤️ 原厂Epsom皮 手工蜡线~❤️"},"price":null,"currency":"CNY","moq":1,"category":"hermes-women-bags","status":"active","alibaba_url":null,"images":["https://xcimg.szwego.com/20201227/i1609050791_9715_0.jpg","https://xcimg.szwego.com/20201227/i1609050791_4643_1.jpg","https://xcimg.szwego.com/20201227/i1609050791_1163_2.jpg","https://xcimg.szwego.com/20201227/i1609050791_6287_3.jpg","https://xcimg.szwego.com/20201227/i1609050791_2803_4.jpg","https://xcimg.szwego.com/20201227/i1609050791_6799_5.jpg","https://xcimg.szwego.com/20201227/i1609050791_7202_6.jpg"],"created_at":"2026-06-29T12:59:35.824Z"},{"id":"item-e634ff2e881a","sku":"_djxjxlYqqGaIV_o89sS8j3SZEr46AtobPrifNRw","name_en":"半手工蜜蜡缝线 原厂皮 客定定做款❤️  可 Kelly 25cm C37金棕 金扣 ❤️ 原厂Epsom皮 手工蜡线~❤️","name_cn":"半手工蜜蜡缝线 原厂皮 客定定做款❤️  可 Kelly 25cm C37金棕 金扣 ❤️ 原厂Epsom皮 手工蜡线~❤️","specs":{"source":"wsxcme","sourceId":"_djxjxlYqqGaIV_o89sS8j3SZEr46AtobPrifNRw","sourceTagId":76963559,"sourceTagName":"爱马仕/女包","rawTitle":"半手工蜜蜡缝线 原厂皮 客定定做款❤️  可 Kelly 25cm C37金棕 金扣 ❤️ 原厂Epsom皮 手工蜡线~❤️"},"price":null,"currency":"CNY","moq":1,"category":"hermes-women-bags","status":"active","alibaba_url":null,"images":["https://xcimg.szwego.com/20201125/i1606283735_9534_0.jpg","https://xcimg.szwego.com/20201125/i1606283735_2731_1.jpg","https://xcimg.szwego.com/20201125/i1606283735_2585_2.jpg","https://xcimg.szwego.com/20201125/i1606283735_1334_3.jpg","https://xcimg.szwego.com/20201125/i1606283735_2575_4.jpg"],"created_at":"2026-06-29T12:59:35.814Z"},{"id":"item-f17ad74449fa","sku":"_dAyAyU8tTyReH8neE6IgQmzFJDjpNWp9L4mafzQ","name_en":"半手工蜜蜡缝线 原厂皮 客定定做款❤️  可 Kelly 25cm 奶昔粉 金扣 ❤️ 原厂Epsom皮 手工蜡线~❤️","name_cn":"半手工蜜蜡缝线 原厂皮 客定定做款❤️  可 Kelly 25cm 奶昔粉 金扣 ❤️ 原厂Epsom皮 手工蜡线~❤️","specs":{"source":"wsxcme","sourceId":"_dAyAyU8tTyReH8neE6IgQmzFJDjpNWp9L4mafzQ","sourceTagId":76963559,"sourceTagName":"爱马仕/女包","rawTitle":"半手工蜜蜡缝线 原厂皮 客定定做款❤️  可 Kelly 25cm 奶昔粉 金扣 ❤️ 原厂Epsom皮 手工蜡线~❤️"},"price":null,"currency":"CNY","moq":1,"category":"hermes-women-bags","status":"active","alibaba_url":null,"images":["https://xcimg.szwego.com/20201227/i1609050830_6583_0.jpg","https://xcimg.szwego.com/20201227/i1609050830_4715_1.jpg","https://xcimg.szwego.com/20201227/i1609050830_5886_2.jpg","https://xcimg.szwego.com/20201227/i1609050830_4961_3.jpg","https://xcimg.szwego.com/20201227/i1609050830_1837_4.jpg","https://xcimg.szwego.com/20201227/i1609050830_2558_5.jpg","https://xcimg.szwego.com/20201227/i1609050830_7684_6.jpg"],"created_at":"2026-06-29T12:59:35.804Z"},{"id":"item-e2f5ea00d6ad","sku":"_dsXsXt0LVta2edGZmhCrMdZav8rEuHmWF6rl1Hg","name_en":"半手工蜜蜡缝线 原厂皮 客定定做款❤️  可 Kelly 25cm U5唇膏粉 金扣 ❤️ 原厂Epsom皮 手工蜡线~❤️","name_cn":"半手工蜜蜡缝线 原厂皮 客定定做款❤️  可 Kelly 25cm U5唇膏粉 金扣 ❤️ 原厂Epsom皮 手工蜡线~❤️","specs":{"source":"wsxcme","sourceId":"_dsXsXt0LVta2edGZmhCrMdZav8rEuHmWF6rl1Hg","sourceTagId":76963559,"sourceTagName":"爱马仕/女包","rawTitle":"半手工蜜蜡缝线 原厂皮 客定定做款❤️  可 Kelly 25cm U5唇膏粉 金扣 ❤️ 原厂Epsom皮 手工蜡线~❤️"},"price":null,"currency":"CNY","moq":1,"category":"hermes-women-bags","status":"active","alibaba_url":null,"images":["https://xcimg.szwego.com/20201227/i1609050737_9862_0.jpg","https://xcimg.szwego.com/20201227/i1609050737_787_1.jpg","https://xcimg.szwego.com/20201227/i1609050737_7510_2.jpg","https://xcimg.szwego.com/20201227/i1609050737_7103_3.jpg","https://xcimg.szwego.com/20201227/i1609050737_5552_4.jpg"],"created_at":"2026-06-29T12:59:35.794Z"},{"id":"item-73c0b7e0c806","sku":"_drFrFjnManIRjOJK85e7TO0_uMaNQC3XsF7KdBw","name_en":"半手工蜜蜡缝线 原厂皮 客定定做款❤️  可 Kelly 25cm X9锦葵紫 金扣 ❤️ 原厂Epsom皮 手工蜡线~❤️","name_cn":"半手工蜜蜡缝线 原厂皮 客定定做款❤️  可 Kelly 25cm X9锦葵紫 金扣 ❤️ 原厂Epsom皮 手工蜡线~❤️","specs":{"source":"wsxcme","sourceId":"_drFrFjnManIRjOJK85e7TO0_uMaNQC3XsF7KdBw","sourceTagId":76963559,"sourceTagName":"爱马仕/女包","rawTitle":"半手工蜜蜡缝线 原厂皮 客定定做款❤️  可 Kelly 25cm X9锦葵紫 金扣 ❤️ 原厂Epsom皮 手工蜡线~❤️"},"price":null,"currency":"CNY","moq":1,"category":"hermes-women-bags","status":"active","alibaba_url":null,"images":["https://xcimg.szwego.com/20201227/i1609050471_4737_0.jpg","https://xcimg.szwego.com/20201227/i1609050471_4020_1.jpg","https://xcimg.szwego.com/20201227/i1609050471_2894_2.jpg","https://xcimg.szwego.com/20201227/i1609050471_730_3.jpg","https://xcimg.szwego.com/20201227/i1609050471_69_4.jpg","https://xcimg.szwego.com/20201227/i1609050471_9868_5.jpg"],"created_at":"2026-06-29T12:59:35.784Z"},{"id":"item-5023586bd1df","sku":"_dzczc_jIX-76Osk4mHPBNp9NCWGGx6knCogRxOA","name_en":"半手工蜜蜡缝线 原厂皮 ❤️  可 现货:Kelly 25cm 进口Epsom皮 琥珀黄 金扣蜡线❤️","name_cn":"半手工蜜蜡缝线 原厂皮 ❤️  可 现货:Kelly 25cm 进口Epsom皮 琥珀黄 金扣蜡线❤️","specs":{"source":"wsxcme","sourceId":"_dzczc_jIX-76Osk4mHPBNp9NCWGGx6knCogRxOA","sourceTagId":76963559,"sourceTagName":"爱马仕/女包","rawTitle":"半手工蜜蜡缝线 原厂皮 ❤️  可 现货:Kelly 25cm 进口Epsom皮 琥珀黄 金扣蜡线❤️"},"price":null,"currency":"CNY","moq":1,"category":"hermes-women-bags","status":"active","alibaba_url":null,"images":["https://xcimg.szwego.com/img/ff0351ea/20240416/i1713256381_9700_7.jpg","https://xcimg.szwego.com/img/ff0351ea/20240416/i1713256381_7831_3.jpg","https://xcimg.szwego.com/img/ff0351ea/20240416/i1713256381_4695_8.jpg","https://xcimg.szwego.com/img/ff0351ea/20240416/i1713256381_9538_4.jpg","https://xcimg.szwego.com/img/ff0351ea/20240416/i1713256381_8194_5.jpg","https://xcimg.szwego.com/img/ff0351ea/20240416/i1713256381_4481_1.jpg","https://xcimg.szwego.com/img/ff0351ea/20240416/i1713256381_2655_0.jpg","https://xcimg.szwego.com/img/ff0351ea/20240416/i1713256381_6015_6.jpg","https://xcimg.szwego.com/img/ff0351ea/20240416/i1713256381_2212_2.jpg"],"created_at":"2026-06-29T12:59:35.774Z"},{"id":"item-0891c9ae9336","sku":"_dfkfkcRMe5ziMpVuM-JbgaxkW_OTReD5brhKz3A","name_en":"半手工蜜蜡缝线 原厂皮 ❤️  可 现货:Kelly 25cm 进口Epsom皮 琥珀黄 银扣蜡线❤️","name_cn":"半手工蜜蜡缝线 原厂皮 ❤️  可 现货:Kelly 25cm 进口Epsom皮 琥珀黄 银扣蜡线❤️","specs":{"source":"wsxcme","sourceId":"_dfkfkcRMe5ziMpVuM-JbgaxkW_OTReD5brhKz3A","sourceTagId":76963559,"sourceTagName":"爱马仕/女包","rawTitle":"半手工蜜蜡缝线 原厂皮 ❤️  可 现货:Kelly 25cm 进口Epsom皮 琥珀黄 银扣蜡线❤️"},"price":null,"currency":"CNY","moq":1,"category":"hermes-women-bags","status":"active","alibaba_url":null,"images":["https://xcimg.szwego.com/img/ff0351ea/20240416/i1713256351_5224_5.jpg","https://xcimg.szwego.com/img/ff0351ea/20240416/i1713256351_2324_2.jpg","https://xcimg.szwego.com/img/ff0351ea/20240416/i1713256351_8751_3.jpg","https://xcimg.szwego.com/img/ff0351ea/20240416/i1713256351_2086_1.jpg","https://xcimg.szwego.com/img/ff0351ea/20240416/i1713256351_7418_7.jpg","https://xcimg.szwego.com/img/ff0351ea/20240416/i1713256351_4064_0.jpg","https://xcimg.szwego.com/img/ff0351ea/20240416/i1713256351_2613_6.jpg","https://xcimg.szwego.com/img/ff0351ea/20240416/i1713256351_5172_8.jpg","https://xcimg.szwego.com/img/ff0351ea/20240416/i1713256351_730_4.jpg"],"created_at":"2026-06-29T12:59:35.764Z"},{"id":"item-6d4eef4815fd","sku":"_dUaUaSoVhSYdTfVEZ8C9EIE1_gFCXMe1Ztt-kSg","name_en":"半手工蜜蜡缝线 原厂皮 ❤️  可 现货:Kelly 25cm 进口Epsom皮 孔雀绿🦚 金银扣蜡线❤️","name_cn":"半手工蜜蜡缝线 原厂皮 ❤️  可 现货:Kelly 25cm 进口Epsom皮 孔雀绿🦚 金银扣蜡线❤️","specs":{"source":"wsxcme","sourceId":"_dUaUaSoVhSYdTfVEZ8C9EIE1_gFCXMe1Ztt-kSg","sourceTagId":76963559,"sourceTagName":"爱马仕/女包","rawTitle":"半手工蜜蜡缝线 原厂皮 ❤️  可 现货:Kelly 25cm 进口Epsom皮 孔雀绿🦚 金银扣蜡线❤️"},"price":null,"currency":"CNY","moq":1,"category":"hermes-women-bags","status":"active","alibaba_url":null,"images":["https://xcimg.szwego.com/img/ff0351ea/20240416/i1713256316_2333_2.jpg","https://xcimg.szwego.com/img/ff0351ea/20240416/i1713256316_3886_1.jpg","https://xcimg.szwego.com/img/ff0351ea/20240416/i1713256316_274_7.jpg","https://xcimg.szwego.com/img/ff0351ea/20240416/i1713256316_2930_5.jpg","https://xcimg.szwego.com/img/ff0351ea/20240416/i1713256316_9787_6.jpg","https://xcimg.szwego.com/img/ff0351ea/20240416/i1713256316_400_0.jpg","https://xcimg.szwego.com/img/ff0351ea/20240416/i1713256316_15_4.jpg","https://xcimg.szwego.com/img/ff0351ea/20240416/i1713256316_4440_3.jpg","https://xcimg.szwego.com/img/ff0351ea/20240416/i1713256316_1988_8.jpg"],"created_at":"2026-06-29T12:59:35.754Z"},{"id":"item-366762c47ec0","sku":"_dp7p76zsBES78XF4zBBbMQnkKByCPpkC-21Z-iw","name_en":"半手工蜜蜡缝线 原厂皮 ❤️  可 现货:Kelly 25cm 进口Epsom皮 大红 金扣蜡线❤️","name_cn":"半手工蜜蜡缝线 原厂皮 ❤️  可 现货:Kelly 25cm 进口Epsom皮 大红 金扣蜡线❤️","specs":{"source":"wsxcme","sourceId":"_dp7p76zsBES78XF4zBBbMQnkKByCPpkC-21Z-iw","sourceTagId":76963559,"sourceTagName":"爱马仕/女包","rawTitle":"半手工蜜蜡缝线 原厂皮 ❤️  可 现货:Kelly 25cm 进口Epsom皮 大红 金扣蜡线❤️"},"price":null,"currency":"CNY","moq":1,"category":"hermes-women-bags","status":"active","alibaba_url":null,"images":["https://xcimg.szwego.com/img/ff0351ea/20240416/i1713256278_8520_7.jpg","https://xcimg.szwego.com/img/ff0351ea/20240416/i1713256278_1548_6.jpg","https://xcimg.szwego.com/img/ff0351ea/20240416/i1713256278_5273_0.jpg","https://xcimg.szwego.com/img/ff0351ea/20240416/i1713256278_8087_5.jpg","https://xcimg.szwego.com/img/ff0351ea/20240416/i1713256278_8222_4.jpg","https://xcimg.szwego.com/img/ff0351ea/20240416/i1713256278_5647_1.jpg","https://xcimg.szwego.com/img/ff0351ea/20240416/i1713256279_5126_8.jpg","https://xcimg.szwego.com/img/ff0351ea/20240416/i1713256278_1408_2.jpg","https://xcimg.szwego.com/img/ff0351ea/20240416/i1713256278_2788_3.jpg"],"created_at":"2026-06-29T12:59:35.744Z"},{"id":"item-d401e2bc671b","sku":"_dtGtGkjz2GDeG65LEi2raVe8uDD_A9WcAn80qbg","name_en":"半手工蜜蜡缝线 原厂皮 ❤️  可 现货:Kelly 25cm 进口Epsom皮 大红 银扣蜡线❤️","name_cn":"半手工蜜蜡缝线 原厂皮 ❤️  可 现货:Kelly 25cm 进口Epsom皮 大红 银扣蜡线❤️","specs":{"source":"wsxcme","sourceId":"_dtGtGkjz2GDeG65LEi2raVe8uDD_A9WcAn80qbg","sourceTagId":76963559,"sourceTagName":"爱马仕/女包","rawTitle":"半手工蜜蜡缝线 原厂皮 ❤️  可 现货:Kelly 25cm 进口Epsom皮 大红 银扣蜡线❤️"},"price":null,"currency":"CNY","moq":1,"category":"hermes-women-bags","status":"active","alibaba_url":null,"images":["https://xcimg.szwego.com/img/ff0351ea/20240416/i1713256249_647_6.jpg","https://xcimg.szwego.com/img/ff0351ea/20240416/i1713256249_2119_3.jpg","https://xcimg.szwego.com/img/ff0351ea/20240416/i1713256249_3759_8.jpg","https://xcimg.szwego.com/img/ff0351ea/20240416/i1713256249_8282_1.jpg","https://xcimg.szwego.com/img/ff0351ea/20240416/i1713256249_85_7.jpg","https://xcimg.szwego.com/img/ff0351ea/20240416/i1713256249_9959_2.jpg","https://xcimg.szwego.com/img/ff0351ea/20240416/i1713256249_4000_4.jpg","https://xcimg.szwego.com/img/ff0351ea/20240416/i1713256249_8997_0.jpg","https://xcimg.szwego.com/img/ff0351ea/20240416/i1713256249_6505_5.jpg"],"created_at":"2026-06-29T12:59:35.734Z"},{"id":"item-ceb11a35f435","sku":"_dvFvFKd5TrE_YZl2he8TovSXJUUKikEUmHDrFLA","name_en":"半手工蜜蜡缝线 原厂皮 ❤️  可 现货:Kelly 25cm 进口Epsom皮 牛油果绿🥑 银扣蜡线❤️","name_cn":"半手工蜜蜡缝线 原厂皮 ❤️  可 现货:Kelly 25cm 进口Epsom皮 牛油果绿🥑 银扣蜡线❤️","specs":{"source":"wsxcme","sourceId":"_dvFvFKd5TrE_YZl2he8TovSXJUUKikEUmHDrFLA","sourceTagId":76963559,"sourceTagName":"爱马仕/女包","rawTitle":"半手工蜜蜡缝线 原厂皮 ❤️  可 现货:Kelly 25cm 进口Epsom皮 牛油果绿🥑 银扣蜡线❤️"},"price":null,"currency":"CNY","moq":1,"category":"hermes-women-bags","status":"active","alibaba_url":null,"images":["https://xcimg.szwego.com/img/ff0351ea/20240416/i1713256176_8976_8.jpg","https://xcimg.szwego.com/img/ff0351ea/20240416/i1713256176_8169_5.jpg","https://xcimg.szwego.com/img/ff0351ea/20240416/i1713256176_6218_0.jpg","https://xcimg.szwego.com/img/ff0351ea/20240416/i1713256176_7705_6.jpg","https://xcimg.szwego.com/img/ff0351ea/20240416/i1713256176_7582_7.jpg","https://xcimg.szwego.com/img/ff0351ea/20240416/i1713256176_95_4.jpg","https://xcimg.szwego.com/img/ff0351ea/20240416/i1713256176_1277_3.jpg","https://xcimg.szwego.com/img/ff0351ea/20240416/i1713256176_326_2.jpg","https://xcimg.szwego.com/img/ff0351ea/20240416/i1713256176_6714_1.jpg"],"created_at":"2026-06-29T12:59:35.724Z"},{"id":"item-f31c785958da","sku":"_dcMcMU8cESTR-3djEusSy2fuSH8Mc8ywagkRnlg","name_en":"半手工蜜蜡缝线 原厂皮 ❤️  可 现货:Kelly 25cm 进口Epsom皮 牛仔蓝 金扣蜡线❤️","name_cn":"半手工蜜蜡缝线 原厂皮 ❤️  可 现货:Kelly 25cm 进口Epsom皮 牛仔蓝 金扣蜡线❤️","specs":{"source":"wsxcme","sourceId":"_dcMcMU8cESTR-3djEusSy2fuSH8Mc8ywagkRnlg","sourceTagId":76963559,"sourceTagName":"爱马仕/女包","rawTitle":"半手工蜜蜡缝线 原厂皮 ❤️  可 现货:Kelly 25cm 进口Epsom皮 牛仔蓝 金扣蜡线❤️"},"price":null,"currency":"CNY","moq":1,"category":"hermes-women-bags","status":"active","alibaba_url":null,"images":["https://xcimg.szwego.com/img/ff0351ea/20240416/i1713256138_4618_2.jpg","https://xcimg.szwego.com/img/ff0351ea/20240416/i1713256137_6392_0.jpg","https://xcimg.szwego.com/img/ff0351ea/20240416/i1713256137_2029_1.jpg","https://xcimg.szwego.com/img/ff0351ea/20240416/i1713256138_6532_5.jpg","https://xcimg.szwego.com/img/ff0351ea/20240416/i1713256138_3423_3.jpg","https://xcimg.szwego.com/img/ff0351ea/20240416/i1713256138_8804_8.jpg","https://xcimg.szwego.com/img/ff0351ea/20240416/i1713256138_4820_6.jpg","https://xcimg.szwego.com/img/ff0351ea/20240416/i1713256138_7336_7.jpg","https://xcimg.szwego.com/img/ff0351ea/20240416/i1713256138_9469_4.jpg"],"created_at":"2026-06-29T12:59:35.714Z"},{"id":"item-7142843327b0","sku":"_d_1_1neB5DETeki98YTc83cDEfYmdwGJDuvA8nQ","name_en":"半手工蜜蜡缝线 原厂皮 ❤️  可 现货:Kelly 25cm 进口Epsom皮 牛仔蓝 银扣蜡线❤️","name_cn":"半手工蜜蜡缝线 原厂皮 ❤️  可 现货:Kelly 25cm 进口Epsom皮 牛仔蓝 银扣蜡线❤️","specs":{"source":"wsxcme","sourceId":"_d_1_1neB5DETeki98YTc83cDEfYmdwGJDuvA8nQ","sourceTagId":76963559,"sourceTagName":"爱马仕/女包","rawTitle":"半手工蜜蜡缝线 原厂皮 ❤️  可 现货:Kelly 25cm 进口Epsom皮 牛仔蓝 银扣蜡线❤️"},"price":null,"currency":"CNY","moq":1,"category":"hermes-women-bags","status":"active","alibaba_url":null,"images":["https://xcimg.szwego.com/img/ff0351ea/20240416/i1713256108_5890_6.jpg","https://xcimg.szwego.com/img/ff0351ea/20240416/i1713256108_8801_4.jpg","https://xcimg.szwego.com/img/ff0351ea/20240416/i1713256108_3472_1.jpg","https://xcimg.szwego.com/img/ff0351ea/20240416/i1713256108_6123_5.jpg","https://xcimg.szwego.com/img/ff0351ea/20240416/i1713256108_2126_8.jpg","https://xcimg.szwego.com/img/ff0351ea/20240416/i1713256107_2370_0.jpg","https://xcimg.szwego.com/img/ff0351ea/20240416/i1713256108_4003_7.jpg","https://xcimg.szwego.com/img/ff0351ea/20240416/i1713256108_5979_3.jpg","https://xcimg.szwego.com/img/ff0351ea/20240416/i1713256108_9225_2.jpg"],"created_at":"2026-06-29T12:59:35.704Z"},{"id":"item-7774c5c6009c","sku":"_dTPTPgeb8AYNpWpOdFDO4v9bJJxyba6HeI6Cn8w","name_en":"MIUMIU 华达呢质感饭盒包","name_cn":"MIUMIU 华达呢质感饭盒包\n靛蓝色/紫红色\n\n进口混合华达呢织物,触感挺括细腻\n同色系刺绣字母徽标暗藏巧思\n\n编织腕带彰显 Miu Miu 风格本真\n✅可容纳IPhone 16 Pro\n\n▫️拉链开合\n▫️编织腕带配钩扣\n▫️带衬里\n▫️刺绣字母徽标\n\n🔍Size:18.5*14*10cm\n📌型号:5NE841M650","specs":{"source":"wsxcme","sourceId":"_dTPTPgeb8AYNpWpOdFDO4v9bJJxyba6HeI6Cn8w","sourceTagId":68075769,"sourceTagName":"Miu Miu /女包","modelNumber":"5NE841M650","rawTitle":"MIUMIU 华达呢质感饭盒包\n靛蓝色/紫红色\n\n进口混合华达呢织物,触感挺括细腻\n同色系刺绣字母徽标暗藏巧思\n\n编织腕带彰显 Miu Miu 风格本真\n✅可容纳IPhone 16 Pro\n\n▫️拉链开合\n▫️编织腕带配钩扣\n▫️带衬里\n▫️刺绣字母徽标\n\n🔍Size:18.5*14*10cm\n📌型号:5NE841M650"},"price":null,"currency":"CNY","moq":1,"category":"miu-miu-women-bags","status":"active","alibaba_url":null,"images":["https://xcimg.szwego.com/img/8a425f4e/20251127/a1764211688428_7688.jpg","https://xcimg.szwego.com/img/8a425f4e/20251127/a1764211687400_1713.jpg","https://xcimg.szwego.com/img/8a425f4e/20251127/a1764211687411_4873.jpg","https://xcimg.szwego.com/img/8a425f4e/20251127/a1764211687260_7253.jpg","https://xcimg.szwego.com/img/8a425f4e/20251127/a1764211688142_1803.jpg","https://xcimg.szwego.com/img/8a425f4e/20251127/a1764211687395_3266.jpg","https://xcimg.szwego.com/img/8a425f4e/20251127/a1764211688337_8454.jpg","https://xcimg.szwego.com/img/8a425f4e/20251127/a1764211686810_1667.jpg","https://xcimg.szwego.com/img/8a425f4e/20251127/a1764211688442_7402.jpg"],"created_at":"2026-06-29T11:34:31.172Z"}],"page":3,"pageSize":24,"total":10075,"totalPages":420}
