{"items":[{"id":"item-8b419ea4ced0","sku":"_dF0F0b6ltekHcgVf7t3jJw7tplL98OifRNUCuUg","name_en":"M81403短夹","name_cn":"M81403短夹\n2022 新款钱夹讲述 Damier Spray 主题的街头艺术风潮。光滑和粒面牛皮革经过特殊印花和压印工艺,为经典 Damier 图案赋予别样 3D 喷绘效果。","specs":{"source":"wsxcme","sourceId":"_dF0F0b6ltekHcgVf7t3jJw7tplL98OifRNUCuUg","sourceTagId":47002663,"sourceTagName":"长短款钱包","rawTitle":"M81403短夹\n2022 新款钱夹讲述 Damier Spray 主题的街头艺术风潮。光滑和粒面牛皮革经过特殊印花和压印工艺,为经典 Damier 图案赋予别样 3D 喷绘效果。"},"price":null,"currency":"CNY","moq":1,"category":"women-wallets","status":"active","alibaba_url":null,"images":["https://xcimg.szwego.com/20220705/i1656990008_508_7.jpg","https://xcimg.szwego.com/20220705/i1656990008_7292_0.jpg","https://xcimg.szwego.com/20220705/i1656990008_6167_1.jpg","https://xcimg.szwego.com/20220705/i1656990008_8272_2.jpg","https://xcimg.szwego.com/20220705/i1656990008_2085_3.jpg","https://xcimg.szwego.com/20220705/i1656990008_3929_4.jpg","https://xcimg.szwego.com/20220705/i1656990008_5170_5.jpg","https://xcimg.szwego.com/20220705/i1656990008_9025_6.jpg","https://xcimg.szwego.com/20220705/i1656990008_2622_8.jpg"],"created_at":"2024-05-08T09:49:54.884Z"},{"id":"item-a240c6f7a76d","sku":"_du1u1YT_seWO1ij13Uh0RHgTIhrL_gxDBW6qC-g","name_en":"M81403单拉","name_cn":"M81403单拉\n2022 新款钱夹讲述 Damier Spray 主题的街头艺术风潮。光滑和粒面牛皮革经过特殊印花和压印工艺,为经典 Damier 图案赋予别样 3D 喷绘效果。","specs":{"source":"wsxcme","sourceId":"_du1u1YT_seWO1ij13Uh0RHgTIhrL_gxDBW6qC-g","sourceTagId":47002663,"sourceTagName":"长短款钱包","rawTitle":"M81403单拉\n2022 新款钱夹讲述 Damier Spray 主题的街头艺术风潮。光滑和粒面牛皮革经过特殊印花和压印工艺,为经典 Damier 图案赋予别样 3D 喷绘效果。"},"price":null,"currency":"CNY","moq":1,"category":"women-wallets","status":"active","alibaba_url":null,"images":["https://xcimg.szwego.com/20220705/i1656990097_6787_0.jpg","https://xcimg.szwego.com/20220705/i1656990097_1065_1.jpg","https://xcimg.szwego.com/20220705/i1656990097_2111_2.jpg","https://xcimg.szwego.com/20220705/i1656990097_6207_3.jpg","https://xcimg.szwego.com/20220705/i1656990097_4225_4.jpg","https://xcimg.szwego.com/20220705/i1656990097_8913_5.jpg","https://xcimg.szwego.com/20220705/i1656990097_53_6.jpg","https://xcimg.szwego.com/20220705/i1656990097_8558_7.jpg","https://xcimg.szwego.com/20220705/i1656990097_8394_8.jpg"],"created_at":"2024-05-08T09:49:54.883Z"},{"id":"item-6994b59e8a05","sku":"_dokok0bQ6auKhAP38guj4aKWKT4dVgDDX3mf5sg","name_en":"M82820","name_cn":"M82820\n秋冬新款单拉\n本款钱夹为柔软 Epi XL 皮革压印考究 Damier Rush 印花,抒发时光飞逝、四季变迁之感,于经典设计中展露 2024 春夏系列的潮流风尚。","specs":{"source":"wsxcme","sourceId":"_dokok0bQ6auKhAP38guj4aKWKT4dVgDDX3mf5sg","sourceTagId":47002663,"sourceTagName":"长短款钱包","rawTitle":"M82820\n秋冬新款单拉\n本款钱夹为柔软 Epi XL 皮革压印考究 Damier Rush 印花,抒发时光飞逝、四季变迁之感,于经典设计中展露 2024 春夏系列的潮流风尚。"},"price":null,"currency":"CNY","moq":1,"category":"women-wallets","status":"active","alibaba_url":null,"images":["https://xcimg.szwego.com/img/9363eb03/20231129/i1701222424_1642_5.jpg","https://xcimg.szwego.com/img/9363eb03/20231129/i1701222424_1565_0.jpg","https://xcimg.szwego.com/img/9363eb03/20231129/i1701222425_3794_7.jpg","https://xcimg.szwego.com/img/9363eb03/20231129/i1701222424_2168_1.jpg","https://xcimg.szwego.com/img/9363eb03/20231129/i1701222424_9891_2.jpg","https://xcimg.szwego.com/img/9363eb03/20231129/i1701222425_7456_6.jpg","https://xcimg.szwego.com/img/9363eb03/20231129/i1701222424_1952_3.jpg","https://xcimg.szwego.com/img/9363eb03/20231129/i1701222425_1448_8.jpg","https://xcimg.szwego.com/img/9363eb03/20231129/i1701222424_3012_4.jpg"],"created_at":"2024-05-08T09:49:54.882Z"},{"id":"item-af21d03a2393","sku":"_dl0l0l8HNWrrmwcQ3fL_iesOkG9WmmsSi0IXEGg","name_en":"M82821","name_cn":"M82821\n秋冬新款短夹\n本款钱夹为柔软 Epi XL 皮革压印考究 Damier Rush 印花,抒发时光飞逝、四季变迁之感,于经典设计中展露 2024 春夏系列的潮流风尚。","specs":{"source":"wsxcme","sourceId":"_dl0l0l8HNWrrmwcQ3fL_iesOkG9WmmsSi0IXEGg","sourceTagId":47002663,"sourceTagName":"长短款钱包","rawTitle":"M82821\n秋冬新款短夹\n本款钱夹为柔软 Epi XL 皮革压印考究 Damier Rush 印花,抒发时光飞逝、四季变迁之感,于经典设计中展露 2024 春夏系列的潮流风尚。"},"price":null,"currency":"CNY","moq":1,"category":"women-wallets","status":"active","alibaba_url":null,"images":["https://xcimg.szwego.com/img/9363eb03/20231129/i1701222366_6140_7.jpg","https://xcimg.szwego.com/img/9363eb03/20231129/i1701222366_9054_5.jpg","https://xcimg.szwego.com/img/9363eb03/20231129/i1701222366_9783_0.jpg","https://xcimg.szwego.com/img/9363eb03/20231129/i1701222366_5867_3.jpg","https://xcimg.szwego.com/img/9363eb03/20231129/i1701222366_6607_1.jpg","https://xcimg.szwego.com/img/9363eb03/20231129/i1701222366_4956_8.jpg","https://xcimg.szwego.com/img/9363eb03/20231129/i1701222366_4587_6.jpg","https://xcimg.szwego.com/img/9363eb03/20231129/i1701222366_8259_2.jpg","https://xcimg.szwego.com/img/9363eb03/20231129/i1701222366_3663_4.jpg"],"created_at":"2024-05-08T09:49:54.881Z"},{"id":"item-fc703afa2f17","sku":"_dmfmfRvlMjYbCvcpblUTmcMo3gKtdyBVvmlb05A","name_en":"SLENDER 钱夹","name_cn":"SLENDER 钱夹 \nN63261\n以 Slender(纤巧)为名,极尽纤巧。紧凑小巧,在容纳所有必需品之后仍能轻松放入前后口袋。11.0x 9.0x 2.0 cm (长x 高x 宽) 。","specs":{"source":"wsxcme","sourceId":"_dmfmfRvlMjYbCvcpblUTmcMo3gKtdyBVvmlb05A","sourceTagId":47002663,"sourceTagName":"长短款钱包","rawTitle":"SLENDER 钱夹 \nN63261\n以 Slender(纤巧)为名,极尽纤巧。紧凑小巧,在容纳所有必需品之后仍能轻松放入前后口袋。11.0x 9.0x 2.0 cm (长x 高x 宽) 。"},"price":null,"currency":"CNY","moq":1,"category":"women-wallets","status":"active","alibaba_url":null,"images":["https://xcimg.szwego.com/img/9363eb03/20231219/i1702958554_4116_5.jpg","https://xcimg.szwego.com/img/9363eb03/20231219/i1702958554_9696_1.jpg","https://xcimg.szwego.com/img/9363eb03/20231219/i1702958554_1996_3.jpg","https://xcimg.szwego.com/img/9363eb03/20231219/i1702958554_513_6.jpg","https://xcimg.szwego.com/img/9363eb03/20231219/i1702958554_2301_4.jpg","https://xcimg.szwego.com/img/9363eb03/20231219/i1702958554_3007_2.jpg","https://xcimg.szwego.com/img/9363eb03/20231219/i1702958554_3701_7.jpg","https://xcimg.szwego.com/img/9363eb03/20231219/i1702958554_9039_8.jpg","https://xcimg.szwego.com/img/9363eb03/20231219/i1702958554_9582_0.jpg"],"created_at":"2024-05-08T09:49:54.880Z"},{"id":"item-49fbac509808","sku":"_d9090veBAyet7zP7pvqi9NSyIFlACqbsYP5WSNQ","name_en":"原单AMERIGO 钱夹","name_cn":"原单AMERIGO 钱夹 \nM60053 \n此款Amerigo钱夹将不朽的经典风格与极其实用的功能设计集于一体。设计简洁而又不失便捷,同时依旧小巧玲珑,可轻松收入牛仔裤后兜中。","specs":{"source":"wsxcme","sourceId":"_d9090veBAyet7zP7pvqi9NSyIFlACqbsYP5WSNQ","sourceTagId":47002663,"sourceTagName":"长短款钱包","rawTitle":"原单AMERIGO 钱夹 \nM60053 \n此款Amerigo钱夹将不朽的经典风格与极其实用的功能设计集于一体。设计简洁而又不失便捷,同时依旧小巧玲珑,可轻松收入牛仔裤后兜中。"},"price":null,"currency":"CNY","moq":1,"category":"women-wallets","status":"active","alibaba_url":null,"images":["https://xcimg.szwego.com/img/9363eb03/20231219/i1702957909_3213_3.jpg","https://xcimg.szwego.com/img/9363eb03/20231219/i1702957909_4296_5.jpg","https://xcimg.szwego.com/img/9363eb03/20231219/i1702957909_1764_0.jpg","https://xcimg.szwego.com/img/9363eb03/20231219/i1702957909_1706_2.jpg","https://xcimg.szwego.com/img/9363eb03/20231219/i1702957909_1052_7.jpg","https://xcimg.szwego.com/img/9363eb03/20231219/i1702957909_951_1.jpg","https://xcimg.szwego.com/img/9363eb03/20231219/i1702957909_5324_8.jpg","https://xcimg.szwego.com/img/9363eb03/20231219/i1702957909_2459_6.jpg","https://xcimg.szwego.com/img/9363eb03/20231219/i1702957909_1467_4.jpg"],"created_at":"2024-05-08T09:49:54.877Z"},{"id":"item-2b4ab405f5e2","sku":"_de2e2fLhfbkrCKKOdSn_1CLLo92s7tR9sOIjV8w","name_en":"海外原单N60742","name_cn":"海外原单N60742\n独家实拍!Clemence 钱夹,小巧紧凑但容量充盈,由精致耐用的Monogram帆布材质制成。亮色内衬与皮革拉链,尽显女性俏皮魅力。尺寸:19.5×9×1.5cm","specs":{"source":"wsxcme","sourceId":"_de2e2fLhfbkrCKKOdSn_1CLLo92s7tR9sOIjV8w","sourceTagId":47002663,"sourceTagName":"长短款钱包","dimensions":{"lengthCm":19.5,"heightCm":9,"widthCm":1.5},"rawTitle":"海外原单N60742\n独家实拍!Clemence 钱夹,小巧紧凑但容量充盈,由精致耐用的Monogram帆布材质制成。亮色内衬与皮革拉链,尽显女性俏皮魅力。尺寸:19.5×9×1.5cm"},"price":null,"currency":"CNY","moq":1,"category":"women-wallets","status":"active","alibaba_url":null,"images":["https://xcimg.szwego.com/20201030/i1604068101_9076_0.jpg","https://xcimg.szwego.com/20201030/i1604068101_8937_1.jpg","https://xcimg.szwego.com/20201030/i1604068101_2510_2.jpg","https://xcimg.szwego.com/20201030/i1604068101_7166_3.jpg","https://xcimg.szwego.com/20201030/i1604068101_9859_4.jpg","https://xcimg.szwego.com/20201030/i1604068101_4292_5.jpg","https://xcimg.szwego.com/20201030/i1604068101_3273_6.jpg","https://xcimg.szwego.com/20201030/i1604068101_5678_7.jpg","https://xcimg.szwego.com/20201030/i1604068101_1563_8.jpg"],"created_at":"2024-05-08T09:49:54.876Z"},{"id":"item-b0fe139d51a6","sku":"_dcgcgYiv7anM3gSQFEteLT3ygBI03Tm31xekbDw","name_en":"顶级ZIPPY VERTICAL 钱夹","name_cn":"顶级ZIPPY VERTICAL 钱夹\nM63095 \n这款男士竖款拉链钱夹以耐磨的Damier Graphite 帆布制成,气质优雅。多个实用的口袋和隔层设计可轻松容纳现金、信用卡和零钱。20x10cm。","specs":{"source":"wsxcme","sourceId":"_dcgcgYiv7anM3gSQFEteLT3ygBI03Tm31xekbDw","sourceTagId":47002663,"sourceTagName":"长短款钱包","rawTitle":"顶级ZIPPY VERTICAL 钱夹\nM63095 \n这款男士竖款拉链钱夹以耐磨的Damier Graphite 帆布制成,气质优雅。多个实用的口袋和隔层设计可轻松容纳现金、信用卡和零钱。20x10cm。"},"price":null,"currency":"CNY","moq":1,"category":"women-wallets","status":"active","alibaba_url":null,"images":["https://xcimg.szwego.com/20221211/i1670729385_4137_0.jpg","https://xcimg.szwego.com/20221211/i1670729385_1659_1.jpg","https://xcimg.szwego.com/20221211/i1670729385_669_2.jpg","https://xcimg.szwego.com/20221211/i1670729385_9388_3.jpg","https://xcimg.szwego.com/20221211/i1670729385_7200_4.jpg","https://xcimg.szwego.com/20221211/i1670729385_7703_5.jpg","https://xcimg.szwego.com/20221211/i1670729385_2320_6.jpg","https://xcimg.szwego.com/20221211/i1670729385_1463_7.jpg","https://xcimg.szwego.com/20221211/i1670729385_8600_8.jpg"],"created_at":"2024-05-08T09:49:54.875Z"},{"id":"item-f436eb15b3db","sku":"_dvjvj3AYV_pLV5aP0uMhqoh1nY9hmZnU71a74YQ","name_en":"顶级原单M69410 老花西装夹钱包","name_cn":"顶级原单M69410 老花西装夹钱包\n本款 Brazza 钱夹以 Monogram Macassar 涂层帆布和细滑牛皮重构纤长设计,在收入夹克口袋之余囊括卡位、零钱袋和容纳纸钞及票据的隔层。\n尺寸:10.0 x 19.0 x 2.0 厘米 (长 x 高 x 宽)","specs":{"source":"wsxcme","sourceId":"_dvjvj3AYV_pLV5aP0uMhqoh1nY9hmZnU71a74YQ","sourceTagId":47002663,"sourceTagName":"长短款钱包","dimensions":{"lengthCm":10,"heightCm":19,"widthCm":2},"rawTitle":"顶级原单M69410 老花西装夹钱包\n本款 Brazza 钱夹以 Monogram Macassar 涂层帆布和细滑牛皮重构纤长设计,在收入夹克口袋之余囊括卡位、零钱袋和容纳纸钞及票据的隔层。\n尺寸:10.0 x 19.0 x 2.0 厘米 (长 x 高 x 宽)"},"price":null,"currency":"CNY","moq":1,"category":"women-wallets","status":"active","alibaba_url":null,"images":["https://xcimg.szwego.com/20230806/a1691301519887_4551.jpg","https://xcimg.szwego.com/20230806/a1691301520113_8365.jpg","https://xcimg.szwego.com/20230806/a1691301520115_0187.jpg","https://xcimg.szwego.com/20230806/a1691301520466_5081.jpg","https://xcimg.szwego.com/20230806/a1691301520946_2368.jpg","https://xcimg.szwego.com/20230806/a1691301520949_3701.jpg"],"created_at":"2024-05-08T09:49:54.873Z"},{"id":"item-a1cf85f57fc3","sku":"_duVuVthWfGZgnQi50xDHs3zHNk8rGAx33f8MZvA","name_en":"M82157!黄花!EMILIE 钱夹释放 Monogram 帆布和 Monogram Reverse 帆布的摩登格调 简明轮廓和圆润翻盖提升系列辨识度 后贴袋再添功能细节 size:19 x 10 x 2cm。","name_cn":"M82157!黄花!EMILIE 钱夹释放 Monogram 帆布和 Monogram Reverse 帆布的摩登格调 简明轮廓和圆润翻盖提升系列辨识度 后贴袋再添功能细节 size:19 x 10 x 2cm。","specs":{"source":"wsxcme","sourceId":"_duVuVthWfGZgnQi50xDHs3zHNk8rGAx33f8MZvA","sourceTagId":47002663,"sourceTagName":"长短款钱包","rawTitle":"M82157!黄花!EMILIE 钱夹释放 Monogram 帆布和 Monogram Reverse 帆布的摩登格调 简明轮廓和圆润翻盖提升系列辨识度 后贴袋再添功能细节 size:19 x 10 x 2cm。"},"price":null,"currency":"CNY","moq":1,"category":"women-wallets","status":"active","alibaba_url":null,"images":["https://xcimg.szwego.com/20230806/a1691301469299_5225.jpg","https://xcimg.szwego.com/20230806/a1691301469561_6314.jpg","https://xcimg.szwego.com/20230806/a1691301470284_4754.jpg","https://xcimg.szwego.com/20230806/a1691301470287_1338.jpg","https://xcimg.szwego.com/20230806/a1691301470449_3352.jpg","https://xcimg.szwego.com/20230806/a1691301470690_5702.jpg","https://xcimg.szwego.com/20230806/a1691301471009_1425.jpg","https://xcimg.szwego.com/20230806/a1691301471014_6112.jpg","https://xcimg.szwego.com/20230806/a1691301471393_7501.jpg"],"created_at":"2024-05-08T09:49:54.872Z"},{"id":"item-787c1b4dea65","sku":"_dlslsL-N_ayTXOPyxMAxebr8Gb5LzFunWnITQIA","name_en":"专柜验货【顶级原单】M81537绿色 西装夹钱包系列 西装夹拼接头层牛皮,LV以工匠的技艺精湛著称,罕见的设计、特殊皮革将技术创新和经典风格相结合,老花绿皮西装夹,突出路易威登世界的存在。钱夹内部设计精巧独特,拥有各种口袋和信用卡槽。尺寸:19×10 cm","name_cn":"专柜验货【顶级原单】M81537绿色 西装夹钱包系列 西装夹拼接头层牛皮,LV以工匠的技艺精湛著称,罕见的设计、特殊皮革将技术创新和经典风格相结合,老花绿皮西装夹,突出路易威登世界的存在。钱夹内部设计精巧独特,拥有各种口袋和信用卡槽。尺寸:19×10 cm","specs":{"source":"wsxcme","sourceId":"_dlslsL-N_ayTXOPyxMAxebr8Gb5LzFunWnITQIA","sourceTagId":47002663,"sourceTagName":"长短款钱包","rawTitle":"专柜验货【顶级原单】M81537绿色 西装夹钱包系列 西装夹拼接头层牛皮,LV以工匠的技艺精湛著称,罕见的设计、特殊皮革将技术创新和经典风格相结合,老花绿皮西装夹,突出路易威登世界的存在。钱夹内部设计精巧独特,拥有各种口袋和信用卡槽。尺寸:19×10 cm"},"price":null,"currency":"CNY","moq":1,"category":"women-wallets","status":"active","alibaba_url":null,"images":["https://xcimg.szwego.com/20230806/a1691301430709_4748.jpg","https://xcimg.szwego.com/20230806/a1691301430711_0627.jpg","https://xcimg.szwego.com/20230806/a1691301430715_0363.jpg","https://xcimg.szwego.com/20230806/a1691301430718_4233.jpg","https://xcimg.szwego.com/20230806/a1691301430724_7442.jpg","https://xcimg.szwego.com/20230806/a1691301430831_5787.jpg","https://xcimg.szwego.com/20230806/a1691301430835_8825.jpg","https://xcimg.szwego.com/20230806/a1691301430964_4211.jpg"],"created_at":"2024-05-08T09:49:54.871Z"},{"id":"item-f1feb56faf8e","sku":"_dvkvkFhUiPAqFfZUDtp9-P7wjG4y7ICBP3eWX-Q","name_en":"专柜验货【顶级原单】M81538紫色 西装夹钱包系列 西装夹拼接头层牛皮,LV以工匠的技艺精湛著称,罕见的设计、特殊皮革将技术创新和经典风格相结合,老花绿皮西装夹,突出路易威登世界的存在。钱夹内部设计精巧独特,拥有各种口袋和信用卡槽。尺寸:19×10 cm","name_cn":"专柜验货【顶级原单】M81538紫色 西装夹钱包系列 西装夹拼接头层牛皮,LV以工匠的技艺精湛著称,罕见的设计、特殊皮革将技术创新和经典风格相结合,老花绿皮西装夹,突出路易威登世界的存在。钱夹内部设计精巧独特,拥有各种口袋和信用卡槽。尺寸:19×10 cm","specs":{"source":"wsxcme","sourceId":"_dvkvkFhUiPAqFfZUDtp9-P7wjG4y7ICBP3eWX-Q","sourceTagId":47002663,"sourceTagName":"长短款钱包","rawTitle":"专柜验货【顶级原单】M81538紫色 西装夹钱包系列 西装夹拼接头层牛皮,LV以工匠的技艺精湛著称,罕见的设计、特殊皮革将技术创新和经典风格相结合,老花绿皮西装夹,突出路易威登世界的存在。钱夹内部设计精巧独特,拥有各种口袋和信用卡槽。尺寸:19×10 cm"},"price":null,"currency":"CNY","moq":1,"category":"women-wallets","status":"active","alibaba_url":null,"images":["https://xcimg.szwego.com/20230806/a1691301411364_3288.jpg","https://xcimg.szwego.com/20230806/a1691301411366_4733.jpg","https://xcimg.szwego.com/20230806/a1691301411369_1450.jpg","https://xcimg.szwego.com/20230806/a1691301411372_4686.jpg","https://xcimg.szwego.com/20230806/a1691301411375_0338.jpg","https://xcimg.szwego.com/20230806/a1691301411450_4885.jpg","https://xcimg.szwego.com/20230806/a1691301411453_3337.jpg","https://xcimg.szwego.com/20230806/a1691301411622_8131.jpg"],"created_at":"2024-05-08T09:49:54.870Z"},{"id":"item-32557f92cc36","sku":"_dtrtrkuC1pA5hxbTicKquklCalXInfTEd8xlkDw","name_en":"顶级原单【独家实拍 m82560蓝 】本款口袋钱夹取材全粒面 taurillon 皮革,微妙浮现 lv 字母和 monogram 花卉压纹。精巧构型设有内袋,外袋方便取放信用卡或交通卡。详细特征7.5 x 11.1 x 1 厘米 (长度 x 高 x 宽)","name_cn":"顶级原单【独家实拍 m82560蓝 】本款口袋钱夹取材全粒面 taurillon 皮革,微妙浮现 lv 字母和 monogram 花卉压纹。精巧构型设有内袋,外袋方便取放信用卡或交通卡。详细特征7.5 x 11.1 x 1 厘米 (长度 x 高 x 宽)","specs":{"source":"wsxcme","sourceId":"_dtrtrkuC1pA5hxbTicKquklCalXInfTEd8xlkDw","sourceTagId":47002663,"sourceTagName":"长短款钱包","rawTitle":"顶级原单【独家实拍 m82560蓝 】本款口袋钱夹取材全粒面 taurillon 皮革,微妙浮现 lv 字母和 monogram 花卉压纹。精巧构型设有内袋,外袋方便取放信用卡或交通卡。详细特征7.5 x 11.1 x 1 厘米 (长度 x 高 x 宽)"},"price":null,"currency":"CNY","moq":1,"category":"women-wallets","status":"active","alibaba_url":null,"images":["https://xcimg.szwego.com/20230806/a1691301229752_6787.jpg","https://xcimg.szwego.com/20230806/a1691301230031_0064.jpg","https://xcimg.szwego.com/20230806/a1691301230411_1801.jpg","https://xcimg.szwego.com/20230806/a1691301230623_3510.jpg","https://xcimg.szwego.com/20230806/a1691301230921_0210.jpg","https://xcimg.szwego.com/20230806/a1691301230924_0574.jpg","https://xcimg.szwego.com/20230806/a1691301231172_1746.jpg"],"created_at":"2024-05-08T09:49:54.869Z"},{"id":"item-bde309a3b4bf","sku":"_dhihixWHH-tkohv5YMKyVojOTzpklXyFa5cHv9A","name_en":"专柜验货【顶级原单】M81540全皮压花 口袋钱夹钱包系列  本款口袋钱夹向设计师 Virgil Abloh 的色彩理念致敬。Taurillon 皮革压印经典 Monogram 图案,浸染鲜明亮色,成就馈赠 Monogram 爱好者的缤纷之选。8 x 11 x 1 厘米","name_cn":"专柜验货【顶级原单】M81540全皮压花 口袋钱夹钱包系列  本款口袋钱夹向设计师 Virgil Abloh 的色彩理念致敬。Taurillon 皮革压印经典 Monogram 图案,浸染鲜明亮色,成就馈赠 Monogram 爱好者的缤纷之选。8 x 11 x 1 厘米","specs":{"source":"wsxcme","sourceId":"_dhihixWHH-tkohv5YMKyVojOTzpklXyFa5cHv9A","sourceTagId":47002663,"sourceTagName":"长短款钱包","rawTitle":"专柜验货【顶级原单】M81540全皮压花 口袋钱夹钱包系列  本款口袋钱夹向设计师 Virgil Abloh 的色彩理念致敬。Taurillon 皮革压印经典 Monogram 图案,浸染鲜明亮色,成就馈赠 Monogram 爱好者的缤纷之选。8 x 11 x 1 厘米"},"price":null,"currency":"CNY","moq":1,"category":"women-wallets","status":"active","alibaba_url":null,"images":["https://xcimg.szwego.com/20230806/a1691301213004_2016.jpg","https://xcimg.szwego.com/20230806/a1691301213006_0663.jpg","https://xcimg.szwego.com/20230806/a1691301213008_7645.jpg","https://xcimg.szwego.com/20230806/a1691301213010_6782.jpg","https://xcimg.szwego.com/20230806/a1691301213013_0110.jpg","https://xcimg.szwego.com/20230806/a1691301213019_1156.jpg"],"created_at":"2024-05-08T09:49:54.868Z"},{"id":"item-da3982479599","sku":"_djqjq8zHICyUJGAbMEVS7HVVoLUe5sul0X4FCKw","name_en":"M62294 黑花 此款钱夹属于 Damier Graphite 帆布系列,设计时尚低调,便于收纳纸币、信用卡与收据,轻便耐用,可轻易放入上衣或裤装口袋。尺寸:12/9cm","name_cn":"M62294 黑花 此款钱夹属于 Damier Graphite 帆布系列,设计时尚低调,便于收纳纸币、信用卡与收据,轻便耐用,可轻易放入上衣或裤装口袋。尺寸:12/9cm","specs":{"source":"wsxcme","sourceId":"_djqjq8zHICyUJGAbMEVS7HVVoLUe5sul0X4FCKw","sourceTagId":47002663,"sourceTagName":"长短款钱包","rawTitle":"M62294 黑花 此款钱夹属于 Damier Graphite 帆布系列,设计时尚低调,便于收纳纸币、信用卡与收据,轻便耐用,可轻易放入上衣或裤装口袋。尺寸:12/9cm"},"price":null,"currency":"CNY","moq":1,"category":"women-wallets","status":"active","alibaba_url":null,"images":["https://xcimg.szwego.com/20230803/a1691045080061_0777.jpg","https://xcimg.szwego.com/20230803/a1691045080064_1046.jpg","https://xcimg.szwego.com/20230803/a1691045080071_8123.jpg","https://xcimg.szwego.com/20230803/a1691045080077_7064.jpg","https://xcimg.szwego.com/20230803/a1691045080095_1277.jpg","https://xcimg.szwego.com/20230803/a1691045080099_3313.jpg"],"created_at":"2024-05-08T09:49:54.867Z"},{"id":"item-3d073d446339","sku":"_doAoAhxYMVb31_SNEOFvNE7ZlZBp58-XR3eACjA","name_en":"原单新品上市!最新品!款号:M62288,","name_cn":"原单新品上市!最新品!款号:M62288,\n这款Monogram Marco钱夹设计有一个按扣袋,可收纳零钱,另有3个信用卡槽和一个长型纸钞隔层。尺寸10.5x10.5,包装:配包装盒,","specs":{"source":"wsxcme","sourceId":"_doAoAhxYMVb31_SNEOFvNE7ZlZBp58-XR3eACjA","sourceTagId":47002663,"sourceTagName":"长短款钱包","modelNumber":"M62288","rawTitle":"原单新品上市!最新品!款号:M62288,\n这款Monogram Marco钱夹设计有一个按扣袋,可收纳零钱,另有3个信用卡槽和一个长型纸钞隔层。尺寸10.5x10.5,包装:配包装盒,"},"price":null,"currency":"CNY","moq":1,"category":"women-wallets","status":"active","alibaba_url":null,"images":["https://xcimg.szwego.com/20230803/a1691045061477_5513.jpg","https://xcimg.szwego.com/20230803/a1691045061478_0205.jpg","https://xcimg.szwego.com/20230803/a1691045061480_8606.jpg","https://xcimg.szwego.com/20230803/a1691045061482_8661.jpg","https://xcimg.szwego.com/20230803/a1691045061485_3832.jpg","https://xcimg.szwego.com/20230803/a1691045061488_0856.jpg","https://xcimg.szwego.com/20230803/a1691045061493_6016.jpg","https://xcimg.szwego.com/20230803/a1691045061495_2777.jpg","https://xcimg.szwego.com/20230803/a1691045061498_8673.jpg"],"created_at":"2024-05-08T09:49:54.866Z"},{"id":"item-4e4a40150f4e","sku":"_dtztzS89-AOm-nrBGn9hJbm0N6mVLocIdLTNJPw","name_en":"顶级原单 M63801 水波纹黑色 名片夹作为名片夹它真的可️,外形简约大气时尚,容量也是非常不错,商务洽谈掏名片出来给人很专业稳重的感觉!随着E时代的发展,现金和银行卡越带越少,小钱夹越发受青睐!这款作为小钱夹也是无敌了,除了名片放点银行卡纸币都完全不在话下的,小小一只不占空间,日常配包还是随身携带都很方便实用哦!经典款最受欢迎,魅力力全开历久不衰,谁拿都","name_cn":"顶级原单 M63801 水波纹黑色 名片夹作为名片夹它真的可️,外形简约大气时尚,容量也是非常不错,商务洽谈掏名片出来给人很专业稳重的感觉!随着E时代的发展,现金和银行卡越带越少,小钱夹越发受青睐!这款作为小钱夹也是无敌了,除了名片放点银行卡纸币都完全不在话下的,小小一只不占空间,日常配包还是随身携带都很方便实用哦!经典款最受欢迎,魅力力全开历久不衰,谁拿都好看!尺寸:10.8 x 8 x 1cm","specs":{"source":"wsxcme","sourceId":"_dtztzS89-AOm-nrBGn9hJbm0N6mVLocIdLTNJPw","sourceTagId":47002663,"sourceTagName":"长短款钱包","dimensions":{"lengthCm":10.8,"heightCm":8,"widthCm":1},"rawTitle":"顶级原单 M63801 水波纹黑色 名片夹作为名片夹它真的可️,外形简约大气时尚,容量也是非常不错,商务洽谈掏名片出来给人很专业稳重的感觉!随着E时代的发展,现金和银行卡越带越少,小钱夹越发受青睐!这款作为小钱夹也是无敌了,除了名片放点银行卡纸币都完全不在话下的,小小一只不占空间,日常配包还是随身携带都很方便实用哦!经典款最受欢迎,魅力力全开历久不衰,谁拿都好看!尺寸:10.8 x 8 x 1cm"},"price":null,"currency":"CNY","moq":1,"category":"women-wallets","status":"active","alibaba_url":null,"images":["https://xcimg.szwego.com/20230226/i1677344747_7819_0.jpg","https://xcimg.szwego.com/20230226/i1677344747_1489_1.jpg","https://xcimg.szwego.com/20230226/i1677344747_4936_2.jpg","https://xcimg.szwego.com/20230226/i1677344747_4281_3.jpg","https://xcimg.szwego.com/20230226/i1677344747_2665_4.jpg","https://xcimg.szwego.com/20230226/i1677344747_6782_5.jpg","https://xcimg.szwego.com/20230226/i1677344747_2333_6.jpg","https://xcimg.szwego.com/20230226/i1677344747_2720_7.jpg","https://xcimg.szwego.com/20230226/i1677344747_8513_8.jpg"],"created_at":"2024-05-08T09:49:54.865Z"},{"id":"item-b8d7b23c8d0f","sku":"_dvjvj3AYV_pLV5aP0uMhqoh1matxmZnU716b7aQ","name_en":"顶级原单 M81551 十字纹绿 本款经典口袋钱夹展现 Taïga 牛皮革的细腻纹理,令字母含蓄标注一角。卡位和内隔层增添功能细节,亦可收入多数口袋中。详细特征8 x 11 x 1 厘米 (长度 x 高 x 宽)","name_cn":"顶级原单 M81551 十字纹绿 本款经典口袋钱夹展现 Taïga 牛皮革的细腻纹理,令字母含蓄标注一角。卡位和内隔层增添功能细节,亦可收入多数口袋中。详细特征8 x 11 x 1 厘米 (长度 x 高 x 宽)","specs":{"source":"wsxcme","sourceId":"_dvjvj3AYV_pLV5aP0uMhqoh1matxmZnU716b7aQ","sourceTagId":47002663,"sourceTagName":"长短款钱包","rawTitle":"顶级原单 M81551 十字纹绿 本款经典口袋钱夹展现 Taïga 牛皮革的细腻纹理,令字母含蓄标注一角。卡位和内隔层增添功能细节,亦可收入多数口袋中。详细特征8 x 11 x 1 厘米 (长度 x 高 x 宽)"},"price":null,"currency":"CNY","moq":1,"category":"women-wallets","status":"active","alibaba_url":null,"images":["https://xcimg.szwego.com/20230226/i1677344535_9675_0.jpg","https://xcimg.szwego.com/20230226/i1677344535_9914_1.jpg","https://xcimg.szwego.com/20230226/i1677344535_6570_2.jpg","https://xcimg.szwego.com/20230226/i1677344535_2725_3.jpg","https://xcimg.szwego.com/20230226/i1677344535_5511_4.jpg","https://xcimg.szwego.com/20230226/i1677344535_4460_5.jpg","https://xcimg.szwego.com/20230226/i1677344535_8545_6.jpg","https://xcimg.szwego.com/20230226/i1677344535_2443_7.jpg","https://xcimg.szwego.com/20230226/i1677344535_9033_8.jpg"],"created_at":"2024-05-08T09:49:54.864Z"},{"id":"item-034eb8c3681a","sku":"_dz9z9HlztQ7oUjSfswzPHFiW_1JKetavz1MkUCQ","name_en":"顶级原单 M81551 十字纹啡 本款经典口袋钱夹展现 Taïga 牛皮革的细腻纹理,令字母含蓄标注一角。卡位和内隔层增添功能细节,亦可收入多数口袋中。详细特征8 x 11 x 1 厘米 (长度 x 高 x 宽)","name_cn":"顶级原单 M81551 十字纹啡 本款经典口袋钱夹展现 Taïga 牛皮革的细腻纹理,令字母含蓄标注一角。卡位和内隔层增添功能细节,亦可收入多数口袋中。详细特征8 x 11 x 1 厘米 (长度 x 高 x 宽)","specs":{"source":"wsxcme","sourceId":"_dz9z9HlztQ7oUjSfswzPHFiW_1JKetavz1MkUCQ","sourceTagId":47002663,"sourceTagName":"长短款钱包","rawTitle":"顶级原单 M81551 十字纹啡 本款经典口袋钱夹展现 Taïga 牛皮革的细腻纹理,令字母含蓄标注一角。卡位和内隔层增添功能细节,亦可收入多数口袋中。详细特征8 x 11 x 1 厘米 (长度 x 高 x 宽)"},"price":null,"currency":"CNY","moq":1,"category":"women-wallets","status":"active","alibaba_url":null,"images":["https://xcimg.szwego.com/20230226/i1677344497_7267_0.jpg","https://xcimg.szwego.com/20230226/i1677344497_8087_1.jpg","https://xcimg.szwego.com/20230226/i1677344497_1662_2.jpg","https://xcimg.szwego.com/20230226/i1677344497_8623_3.jpg","https://xcimg.szwego.com/20230226/i1677344497_204_4.jpg","https://xcimg.szwego.com/20230226/i1677344497_4636_5.jpg","https://xcimg.szwego.com/20230226/i1677344497_3587_6.jpg","https://xcimg.szwego.com/20230226/i1677344497_3446_7.jpg","https://xcimg.szwego.com/20230226/i1677344497_4141_8.jpg"],"created_at":"2024-05-08T09:49:54.863Z"},{"id":"item-d7f488217109","sku":"_dCMCM5NWnnzyE9Odr5noqSPx6YI2_hknmq5anug","name_en":"顶级原单 M81628 十字纹绿色 本款 Slender 钱夹为 Taïga 压纹皮革渲染沉稳色调,以纤薄构型囊括卡位和钞票隔层,亦可轻松置于多数口袋中。详细特征:11 x 8.5 x 2 厘米 (长度 x 高 x 宽)","name_cn":"顶级原单 M81628 十字纹绿色 本款 Slender 钱夹为 Taïga 压纹皮革渲染沉稳色调,以纤薄构型囊括卡位和钞票隔层,亦可轻松置于多数口袋中。详细特征:11 x 8.5 x 2 厘米 (长度 x 高 x 宽)","specs":{"source":"wsxcme","sourceId":"_dCMCM5NWnnzyE9Odr5noqSPx6YI2_hknmq5anug","sourceTagId":47002663,"sourceTagName":"长短款钱包","rawTitle":"顶级原单 M81628 十字纹绿色 本款 Slender 钱夹为 Taïga 压纹皮革渲染沉稳色调,以纤薄构型囊括卡位和钞票隔层,亦可轻松置于多数口袋中。详细特征:11 x 8.5 x 2 厘米 (长度 x 高 x 宽)"},"price":null,"currency":"CNY","moq":1,"category":"women-wallets","status":"active","alibaba_url":null,"images":["https://xcimg.szwego.com/20230226/i1677344433_4031_0.jpg","https://xcimg.szwego.com/20230226/i1677344433_4159_1.jpg","https://xcimg.szwego.com/20230226/i1677344433_1525_2.jpg","https://xcimg.szwego.com/20230226/i1677344433_452_3.jpg","https://xcimg.szwego.com/20230226/i1677344433_8430_4.jpg","https://xcimg.szwego.com/20230226/i1677344433_3976_5.jpg","https://xcimg.szwego.com/20230226/i1677344433_1603_6.jpg","https://xcimg.szwego.com/20230226/i1677344433_1468_7.jpg","https://xcimg.szwego.com/20230226/i1677344433_2729_8.jpg"],"created_at":"2024-05-08T09:49:54.862Z"},{"id":"item-1590e4916a31","sku":"_da4a4ZwZgNIrQ8Vayvgi4WJg6xrd34nhlsSM7OQ","name_en":"顶级原单 M81628 十字纹啡色 本款 Slender 钱夹为 Taïga 压纹皮革渲染沉稳色调,以纤薄构型囊括卡位和钞票隔层,亦可轻松置于多数口袋中。详细特征:11 x 8.5 x 2 厘米 (长度 x 高 x 宽)","name_cn":"顶级原单 M81628 十字纹啡色 本款 Slender 钱夹为 Taïga 压纹皮革渲染沉稳色调,以纤薄构型囊括卡位和钞票隔层,亦可轻松置于多数口袋中。详细特征:11 x 8.5 x 2 厘米 (长度 x 高 x 宽)","specs":{"source":"wsxcme","sourceId":"_da4a4ZwZgNIrQ8Vayvgi4WJg6xrd34nhlsSM7OQ","sourceTagId":47002663,"sourceTagName":"长短款钱包","rawTitle":"顶级原单 M81628 十字纹啡色 本款 Slender 钱夹为 Taïga 压纹皮革渲染沉稳色调,以纤薄构型囊括卡位和钞票隔层,亦可轻松置于多数口袋中。详细特征:11 x 8.5 x 2 厘米 (长度 x 高 x 宽)"},"price":null,"currency":"CNY","moq":1,"category":"women-wallets","status":"active","alibaba_url":null,"images":["https://xcimg.szwego.com/20230226/i1677344373_893_0.jpg","https://xcimg.szwego.com/20230226/i1677344373_1934_1.jpg","https://xcimg.szwego.com/20230226/i1677344373_9327_2.jpg","https://xcimg.szwego.com/20230226/i1677344373_2246_3.jpg","https://xcimg.szwego.com/20230226/i1677344373_3697_4.jpg","https://xcimg.szwego.com/20230226/i1677344373_8316_5.jpg","https://xcimg.szwego.com/20230226/i1677344373_7097_6.jpg","https://xcimg.szwego.com/20230226/i1677344373_5940_7.jpg","https://xcimg.szwego.com/20230226/i1677344373_3662_8.jpg"],"created_at":"2024-05-08T09:49:54.861Z"},{"id":"item-5c9596943054","sku":"_dMBMB5xLnQZI3qe3ewCiryw8GkoLWjjI_OUacwQ","name_en":"顶级原单 M81628 十字纹灰色 本款 Slender 钱夹为 Taïga 压纹皮革渲染沉稳色调,以纤薄构型囊括卡位和钞票隔层,亦可轻松置于多数口袋中。详细特征:11 x 8.5 x 2 厘米 (长度 x 高 x 宽)","name_cn":"顶级原单 M81628 十字纹灰色 本款 Slender 钱夹为 Taïga 压纹皮革渲染沉稳色调,以纤薄构型囊括卡位和钞票隔层,亦可轻松置于多数口袋中。详细特征:11 x 8.5 x 2 厘米 (长度 x 高 x 宽)","specs":{"source":"wsxcme","sourceId":"_dMBMB5xLnQZI3qe3ewCiryw8GkoLWjjI_OUacwQ","sourceTagId":47002663,"sourceTagName":"长短款钱包","rawTitle":"顶级原单 M81628 十字纹灰色 本款 Slender 钱夹为 Taïga 压纹皮革渲染沉稳色调,以纤薄构型囊括卡位和钞票隔层,亦可轻松置于多数口袋中。详细特征:11 x 8.5 x 2 厘米 (长度 x 高 x 宽)"},"price":null,"currency":"CNY","moq":1,"category":"women-wallets","status":"active","alibaba_url":null,"images":["https://xcimg.szwego.com/20230226/i1677344320_3246_0.jpg","https://xcimg.szwego.com/20230226/i1677344320_9316_1.jpg","https://xcimg.szwego.com/20230226/i1677344320_5054_2.jpg","https://xcimg.szwego.com/20230226/i1677344320_9977_3.jpg","https://xcimg.szwego.com/20230226/i1677344320_642_4.jpg","https://xcimg.szwego.com/20230226/i1677344320_5686_5.jpg","https://xcimg.szwego.com/20230226/i1677344320_7949_6.jpg","https://xcimg.szwego.com/20230226/i1677344320_3102_7.jpg","https://xcimg.szwego.com/20230226/i1677344320_9329_8.jpg"],"created_at":"2024-05-08T09:49:54.860Z"},{"id":"item-ff81f54c0b7b","sku":"_d4i4i2ZfcacKazA-5dkPHQVvqSYHpc3XNzsz8SA","name_en":"顶级原单 M81554 十字纹绿色 BRAZZA 钱夹取材 Taïga 牛皮革,以内敛色彩烘托细腻纹理。隔层可收纳纸钞和票据,另设有零钱袋和卡位。尺寸:10 x 19 x 2 厘米","name_cn":"顶级原单 M81554 十字纹绿色 BRAZZA 钱夹取材 Taïga 牛皮革,以内敛色彩烘托细腻纹理。隔层可收纳纸钞和票据,另设有零钱袋和卡位。尺寸:10 x 19 x 2 厘米","specs":{"source":"wsxcme","sourceId":"_d4i4i2ZfcacKazA-5dkPHQVvqSYHpc3XNzsz8SA","sourceTagId":47002663,"sourceTagName":"长短款钱包","dimensions":{"lengthCm":10,"heightCm":19,"widthCm":2},"rawTitle":"顶级原单 M81554 十字纹绿色 BRAZZA 钱夹取材 Taïga 牛皮革,以内敛色彩烘托细腻纹理。隔层可收纳纸钞和票据,另设有零钱袋和卡位。尺寸:10 x 19 x 2 厘米"},"price":null,"currency":"CNY","moq":1,"category":"women-wallets","status":"active","alibaba_url":null,"images":["https://xcimg.szwego.com/20230226/i1677344229_5349_0.jpg","https://xcimg.szwego.com/20230226/i1677344229_7876_1.jpg","https://xcimg.szwego.com/20230226/i1677344229_8488_2.jpg","https://xcimg.szwego.com/20230226/i1677344229_6861_3.jpg","https://xcimg.szwego.com/20230226/i1677344229_4714_4.jpg","https://xcimg.szwego.com/20230226/i1677344229_2098_5.jpg","https://xcimg.szwego.com/20230226/i1677344229_3158_6.jpg","https://xcimg.szwego.com/20230226/i1677344229_8639_7.jpg","https://xcimg.szwego.com/20230226/i1677344229_4395_8.jpg"],"created_at":"2024-05-08T09:49:54.859Z"},{"id":"item-5a801233a9be","sku":"_dLLLLXr7KMK7inbxbnbSHLdQAJJO6jvYBNzQ62w","name_en":"顶级原单 M81554 十字纹啡色 BRAZZA 钱夹取材 Taïga 牛皮革,以内敛色彩烘托细腻纹理。隔层可收纳纸钞和票据,另设有零钱袋和卡位。尺寸:10 x 19 x 2 厘米","name_cn":"顶级原单 M81554 十字纹啡色 BRAZZA 钱夹取材 Taïga 牛皮革,以内敛色彩烘托细腻纹理。隔层可收纳纸钞和票据,另设有零钱袋和卡位。尺寸:10 x 19 x 2 厘米","specs":{"source":"wsxcme","sourceId":"_dLLLLXr7KMK7inbxbnbSHLdQAJJO6jvYBNzQ62w","sourceTagId":47002663,"sourceTagName":"长短款钱包","dimensions":{"lengthCm":10,"heightCm":19,"widthCm":2},"rawTitle":"顶级原单 M81554 十字纹啡色 BRAZZA 钱夹取材 Taïga 牛皮革,以内敛色彩烘托细腻纹理。隔层可收纳纸钞和票据,另设有零钱袋和卡位。尺寸:10 x 19 x 2 厘米"},"price":null,"currency":"CNY","moq":1,"category":"women-wallets","status":"active","alibaba_url":null,"images":["https://xcimg.szwego.com/20230226/i1677344159_8805_0.jpg","https://xcimg.szwego.com/20230226/i1677344159_9032_1.jpg","https://xcimg.szwego.com/20230226/i1677344159_785_2.jpg","https://xcimg.szwego.com/20230226/i1677344159_3448_3.jpg","https://xcimg.szwego.com/20230226/i1677344159_4246_4.jpg","https://xcimg.szwego.com/20230226/i1677344159_3834_5.jpg","https://xcimg.szwego.com/20230226/i1677344159_967_6.jpg","https://xcimg.szwego.com/20230226/i1677344159_89_7.jpg","https://xcimg.szwego.com/20230226/i1677344159_6877_8.jpg"],"created_at":"2024-05-08T09:49:54.858Z"}],"page":391,"pageSize":24,"total":10075,"totalPages":420}
