{"items":[{"id":"item-d0b11776eb6d","sku":"_daaaaYmY4FRmHcUq4PlzaejF1NABPGyKVFrPUAg","name_en":"❤️Loro piana 小水桶","name_cn":"❤️Loro piana 小水桶\nBale 迷你手袋\n颜色:大理石粉\nBale包的自在高雅品味与不朽风格,再次见证了Loro piana与众不同的传承。方型的造型与命名,源自用于堆存羊绒的大捆包,代表着Loro piana对精工匠艺的坚持。采用小牛皮制作的包身,拥有十分柔软的自然粒面。\n尺寸:长16✖️14✖️23CM","specs":{"source":"wsxcme","sourceId":"_daaaaYmY4FRmHcUq4PlzaejF1NABPGyKVFrPUAg","sourceTagId":80411239,"sourceTagName":"巴宝莉/女包","rawTitle":"❤️Loro piana 小水桶\nBale 迷你手袋\n颜色:大理石粉\nBale包的自在高雅品味与不朽风格,再次见证了Loro piana与众不同的传承。方型的造型与命名,源自用于堆存羊绒的大捆包,代表着Loro piana对精工匠艺的坚持。采用小牛皮制作的包身,拥有十分柔软的自然粒面。\n尺寸:长16✖️14✖️23CM"},"price":null,"currency":"CNY","moq":1,"category":"burberry-women-bags","status":"active","alibaba_url":null,"images":["https://xcimg.szwego.com/20230816/i1692124183_7119_0.jpg","https://xcimg.szwego.com/20230816/i1692124183_6034_1.jpg","https://xcimg.szwego.com/20230816/i1692124183_6436_2.jpg","https://xcimg.szwego.com/20230816/i1692124183_3831_3.jpg","https://xcimg.szwego.com/20230816/i1692124183_3182_4.jpg","https://xcimg.szwego.com/20230816/i1692124183_2262_5.jpg","https://xcimg.szwego.com/20230816/i1692124183_5009_6.jpg","https://xcimg.szwego.com/20230816/i1692124183_3453_7.jpg","https://xcimg.szwego.com/20230816/i1692124183_988_8.jpg"],"created_at":"2025-01-20T12:46:12.760Z"},{"id":"item-07a8a7ec8b35","sku":"_dj6j6aNR3vt6F5G-hdQ1LhxwzgwaqEm8wEPsJlw","name_en":"Burberry Women Bags","name_cn":"这种托特真的是超级百搭,友情提示:托特包几乎可以替代所有包袋哦!","specs":{"source":"wsxcme","sourceId":"_dj6j6aNR3vt6F5G-hdQ1LhxwzgwaqEm8wEPsJlw","sourceTagId":80411239,"sourceTagName":"巴宝莉/女包","rawTitle":"这种托特真的是超级百搭,友情提示:托特包几乎可以替代所有包袋哦!"},"price":null,"currency":"CNY","moq":1,"category":"burberry-women-bags","status":"active","alibaba_url":null,"images":["https://xcimg.szwego.com/20220328/i1648444670_4594_0.jpg","https://xcimg.szwego.com/20220326/i1648306669_4774_2.jpg","https://xcimg.szwego.com/20220328/i1648444703_776_0.jpg","https://xcimg.szwego.com/20220328/i1648444670_7998_1.jpg","https://xcimg.szwego.com/20220326/i1648306669_4874_4.jpg","https://xcimg.szwego.com/20220326/i1648306669_699_5.jpg","https://xcimg.szwego.com/20220326/i1648306669_5272_6.jpg","https://xcimg.szwego.com/20220326/i1648306669_1157_7.jpg","https://xcimg.szwego.com/20220326/i1648306669_3226_8.jpg"],"created_at":"2025-01-20T12:46:12.759Z"},{"id":"item-a318cdc64c48","sku":"_diiiiXFuuoLQW35RcS323_L791lw6UVeeTRDBVw","name_en":"❤B家 最新专属标识锁扣包,选用意大利鞣制粒纹皮革材质打造,搭配丁B 专属标识锁扣。非常独特。小巧实背的包型,容量也不小","name_cn":"❤B家 最新专属标识锁扣包,选用意大利鞣制粒纹皮革材质打造,搭配丁B 专属标识锁扣。非常独特。小巧实背的包型,容量也不小\n尺寸20 x 5.5 x 12.5cm","specs":{"source":"wsxcme","sourceId":"_diiiiXFuuoLQW35RcS323_L791lw6UVeeTRDBVw","sourceTagId":80411239,"sourceTagName":"巴宝莉/女包","dimensions":{"lengthCm":20,"heightCm":5.5,"widthCm":12.5},"rawTitle":"❤B家 最新专属标识锁扣包,选用意大利鞣制粒纹皮革材质打造,搭配丁B 专属标识锁扣。非常独特。小巧实背的包型,容量也不小\n尺寸20 x 5.5 x 12.5cm"},"price":null,"currency":"CNY","moq":1,"category":"burberry-women-bags","status":"active","alibaba_url":null,"images":["https://xcimg.szwego.com/20230914/i1694667888_2533_0.jpg","https://xcimg.szwego.com/20230914/i1694667888_5503_7.jpg","https://xcimg.szwego.com/20230914/i1694667888_5682_1.jpg","https://xcimg.szwego.com/20230914/i1694667888_3822_2.jpg","https://xcimg.szwego.com/20230914/i1694667888_6662_3.jpg","https://xcimg.szwego.com/20230914/i1694667888_8425_4.jpg","https://xcimg.szwego.com/20230914/i1694667888_6820_5.jpg","https://xcimg.szwego.com/20230914/i1694667888_162_8.jpg","https://xcimg.szwego.com/20230914/i1694667888_9820_6.jpg"],"created_at":"2025-01-20T12:46:12.758Z"},{"id":"item-2815210cee76","sku":"_d3939tWPQ_zyomGyoJayjUvBCegxbWLwIb7EKwA","name_en":"❤B家 最新专属标识锁扣包,选用意大利鞣制粒纹皮革材质打造,搭配丁B 专属标识锁扣。非常独特。小巧实背的包型,容量也不小","name_cn":"❤B家 最新专属标识锁扣包,选用意大利鞣制粒纹皮革材质打造,搭配丁B 专属标识锁扣。非常独特。小巧实背的包型,容量也不小\n尺寸20 x 5.5 x 12.5cm","specs":{"source":"wsxcme","sourceId":"_d3939tWPQ_zyomGyoJayjUvBCegxbWLwIb7EKwA","sourceTagId":80411239,"sourceTagName":"巴宝莉/女包","dimensions":{"lengthCm":20,"heightCm":5.5,"widthCm":12.5},"rawTitle":"❤B家 最新专属标识锁扣包,选用意大利鞣制粒纹皮革材质打造,搭配丁B 专属标识锁扣。非常独特。小巧实背的包型,容量也不小\n尺寸20 x 5.5 x 12.5cm"},"price":null,"currency":"CNY","moq":1,"category":"burberry-women-bags","status":"active","alibaba_url":null,"images":["https://xcimg.szwego.com/20230914/i1694667797_4332_0.jpg","https://xcimg.szwego.com/20230914/i1694667797_378_1.jpg","https://xcimg.szwego.com/20230914/i1694667797_4714_2.jpg","https://xcimg.szwego.com/20230914/i1694667797_699_3.jpg","https://xcimg.szwego.com/20230914/i1694667797_8504_4.jpg","https://xcimg.szwego.com/20230914/i1694667797_1308_5.jpg","https://xcimg.szwego.com/20230914/i1694667797_1156_6.jpg","https://xcimg.szwego.com/20230914/i1694667797_1143_7.jpg","https://xcimg.szwego.com/20230914/i1694667797_9853_8.jpg"],"created_at":"2025-01-20T12:46:12.757Z"},{"id":"item-44d76e756834","sku":"_d9M9M24sXwf52v46eD1a1fgjVWM-abmPX2avY7Q","name_en":"❤B家 最新专属标识锁扣包,选用意大利鞣制粒纹皮革材质打造,搭配丁B 专属标识锁扣。非常独特。小巧实背的包型,容量也不小","name_cn":"❤B家 最新专属标识锁扣包,选用意大利鞣制粒纹皮革材质打造,搭配丁B 专属标识锁扣。非常独特。小巧实背的包型,容量也不小\n尺寸20 x 5.5 x 12.5cm","specs":{"source":"wsxcme","sourceId":"_d9M9M24sXwf52v46eD1a1fgjVWM-abmPX2avY7Q","sourceTagId":80411239,"sourceTagName":"巴宝莉/女包","dimensions":{"lengthCm":20,"heightCm":5.5,"widthCm":12.5},"rawTitle":"❤B家 最新专属标识锁扣包,选用意大利鞣制粒纹皮革材质打造,搭配丁B 专属标识锁扣。非常独特。小巧实背的包型,容量也不小\n尺寸20 x 5.5 x 12.5cm"},"price":null,"currency":"CNY","moq":1,"category":"burberry-women-bags","status":"active","alibaba_url":null,"images":["https://xcimg.szwego.com/20230914/i1694667737_7062_0.jpg","https://xcimg.szwego.com/20230914/i1694667737_3055_1.jpg","https://xcimg.szwego.com/20230914/i1694667737_1978_2.jpg","https://xcimg.szwego.com/20230914/i1694667737_4365_3.jpg","https://xcimg.szwego.com/20230914/i1694667737_4898_4.jpg","https://xcimg.szwego.com/20230914/i1694667737_9020_5.jpg","https://xcimg.szwego.com/20230914/i1694667737_6219_6.jpg","https://xcimg.szwego.com/20230914/i1694667737_739_7.jpg","https://xcimg.szwego.com/20230914/i1694667737_4725_8.jpg"],"created_at":"2025-01-20T12:46:12.756Z"},{"id":"item-ecf643bda054","sku":"_dv4v4ARJFTr_2aLnVHHwG-uTzZ4ZHyxY-T8naFw","name_en":"Burberry Women Bags","name_cn":"来看实拍细节!\n新一季的这款桦木棕色水桶包,采用更容易打理的经典pvc材质🌟轻型耐用,容量又大,自带肩带可拆卸  开口是抽绳设计 方便收纳 高度推荐色","specs":{"source":"wsxcme","sourceId":"_dv4v4ARJFTr_2aLnVHHwG-uTzZ4ZHyxY-T8naFw","sourceTagId":80411239,"sourceTagName":"巴宝莉/女包","rawTitle":"来看实拍细节!\n新一季的这款桦木棕色水桶包,采用更容易打理的经典pvc材质🌟轻型耐用,容量又大,自带肩带可拆卸  开口是抽绳设计 方便收纳 高度推荐色"},"price":null,"currency":"CNY","moq":1,"category":"burberry-women-bags","status":"active","alibaba_url":null,"images":["https://xcimg.szwego.com/20230316/i1678938087_2297_0.jpg","https://xcimg.szwego.com/20230316/i1678938087_7976_1.jpg","https://xcimg.szwego.com/20230316/i1678938087_4455_2.jpg","https://xcimg.szwego.com/20230316/i1678938087_8304_3.jpg","https://xcimg.szwego.com/20230316/i1678938087_7720_4.jpg","https://xcimg.szwego.com/20230316/i1678938087_3852_5.jpg","https://xcimg.szwego.com/20230316/i1678938087_2495_6.jpg","https://xcimg.szwego.com/20230316/i1678938087_7886_7.jpg","https://xcimg.szwego.com/20230316/i1678938087_5604_8.jpg"],"created_at":"2025-01-20T12:46:12.755Z"},{"id":"item-447cda918071","sku":"_dOuOuqhnudUayBY8nJHaFiv3_i9N7zHNQ2_e7ow","name_en":"平铺实拍细节, 独家操作的款,这款包的设计灵感来自Trench风衣的衣领形状,是秀款来的,格纹拼皮质感满满,日常或者通勤都能背,感觉特别适合职场白领,很有想法和气场,肩带可调节的","name_cn":"平铺实拍细节, 独家操作的款,这款包的设计灵感来自Trench风衣的衣领形状,是秀款来的,格纹拼皮质感满满,日常或者通勤都能背,感觉特别适合职场白领,很有想法和气场,肩带可调节的","specs":{"source":"wsxcme","sourceId":"_dOuOuqhnudUayBY8nJHaFiv3_i9N7zHNQ2_e7ow","sourceTagId":80411239,"sourceTagName":"巴宝莉/女包","rawTitle":"平铺实拍细节, 独家操作的款,这款包的设计灵感来自Trench风衣的衣领形状,是秀款来的,格纹拼皮质感满满,日常或者通勤都能背,感觉特别适合职场白领,很有想法和气场,肩带可调节的"},"price":null,"currency":"CNY","moq":1,"category":"burberry-women-bags","status":"active","alibaba_url":null,"images":["https://xcimg.szwego.com/20221206/i1670326894_6468_0.jpg","https://xcimg.szwego.com/20221206/i1670327185_9370_0.jpg","https://xcimg.szwego.com/20221206/i1670326894_5013_3.jpg","https://xcimg.szwego.com/20221206/i1670326894_7890_4.jpg","https://xcimg.szwego.com/20221206/i1670326894_6069_2.jpg","https://xcimg.szwego.com/20221206/i1670326894_5508_5.jpg"],"created_at":"2025-01-20T12:46:12.754Z"},{"id":"item-18a6049f90ce","sku":"_dAiAibjkx154d_zCTn_f5I7Y5o6P-w38_re7phQ","name_en":"Burberry Women Bags","name_cn":"来看实拍细节 质感看得见 整体效果 即可商务又可休闲  但是更偏向于上班一族  配可拆卸肩带 肩背手提 两用","specs":{"source":"wsxcme","sourceId":"_dAiAibjkx154d_zCTn_f5I7Y5o6P-w38_re7phQ","sourceTagId":80411239,"sourceTagName":"巴宝莉/女包","rawTitle":"来看实拍细节 质感看得见 整体效果 即可商务又可休闲  但是更偏向于上班一族  配可拆卸肩带 肩背手提 两用"},"price":null,"currency":"CNY","moq":1,"category":"burberry-women-bags","status":"active","alibaba_url":null,"images":["https://xcimg.szwego.com/20230222/i1677035254_8743_0.jpg","https://xcimg.szwego.com/20230222/i1677035254_8540_1.jpg","https://xcimg.szwego.com/20230222/i1677035254_1425_2.jpg","https://xcimg.szwego.com/20230222/i1677035254_7670_3.jpg","https://xcimg.szwego.com/20230222/i1677035254_7966_4.jpg","https://xcimg.szwego.com/20230222/i1677035254_2807_5.jpg","https://xcimg.szwego.com/20230222/i1677035254_3980_6.jpg","https://xcimg.szwego.com/20230222/i1677035254_2981_7.jpg","https://xcimg.szwego.com/20230222/i1677035254_7981_8.jpg"],"created_at":"2025-01-20T12:46:12.753Z"},{"id":"item-e2f3b1e7f914","sku":"_dw6w6IPgP0wyABOkb6ZRkkIxQTRPJYxj-w4YInw","name_en":"❤️Loro piana 小水桶","name_cn":"❤️Loro piana 小水桶\nBale 迷你手袋\n颜色:午夜蓝\nBale包的自在高雅品味与不朽风格,再次见证了Loro piana与众不同的传承。方型的造型与命名,源自用于堆存羊绒的大捆包,代表着Loro piana对精工匠艺的坚持。采用小牛皮制作的包身,拥有十分柔软的自然粒面。\n尺寸:长16✖️14✖️23CM","specs":{"source":"wsxcme","sourceId":"_dw6w6IPgP0wyABOkb6ZRkkIxQTRPJYxj-w4YInw","sourceTagId":80411239,"sourceTagName":"巴宝莉/女包","rawTitle":"❤️Loro piana 小水桶\nBale 迷你手袋\n颜色:午夜蓝\nBale包的自在高雅品味与不朽风格,再次见证了Loro piana与众不同的传承。方型的造型与命名,源自用于堆存羊绒的大捆包,代表着Loro piana对精工匠艺的坚持。采用小牛皮制作的包身,拥有十分柔软的自然粒面。\n尺寸:长16✖️14✖️23CM"},"price":null,"currency":"CNY","moq":1,"category":"burberry-women-bags","status":"active","alibaba_url":null,"images":["https://xcimg.szwego.com/20230816/i1692123242_4873_0.jpg","https://xcimg.szwego.com/20230816/i1692123242_8555_1.jpg","https://xcimg.szwego.com/20230816/i1692123242_27_2.jpg","https://xcimg.szwego.com/20230816/i1692123242_6888_3.jpg","https://xcimg.szwego.com/20230816/i1692123791_9590_0.jpg","https://xcimg.szwego.com/20230816/i1692123242_7847_5.jpg","https://xcimg.szwego.com/20230816/i1692123242_6862_6.jpg","https://xcimg.szwego.com/20230816/i1692123242_1293_7.jpg","https://xcimg.szwego.com/20230816/i1692123242_4096_8.jpg"],"created_at":"2025-01-20T12:46:12.752Z"},{"id":"item-6189d66dd69d","sku":"_d4u4uo-Xyc_jBJQLLJCiVCfwA4D3MX-ZuMtZOXQ","name_en":"❤️Loro piana 小水桶","name_cn":"❤️Loro piana 小水桶\nBale 迷你手袋\n颜色:嫩白色\nBale包的自在高雅品味与不朽风格,再次见证了Loro piana与众不同的传承。方型的造型与命名,源自用于堆存羊绒的大捆包,代表着Loro piana对精工匠艺的坚持。采用小牛皮制作的包身,拥有十分柔软的自然粒面。\n尺寸:长16✖️14✖️23CM","specs":{"source":"wsxcme","sourceId":"_d4u4uo-Xyc_jBJQLLJCiVCfwA4D3MX-ZuMtZOXQ","sourceTagId":80411239,"sourceTagName":"巴宝莉/女包","rawTitle":"❤️Loro piana 小水桶\nBale 迷你手袋\n颜色:嫩白色\nBale包的自在高雅品味与不朽风格,再次见证了Loro piana与众不同的传承。方型的造型与命名,源自用于堆存羊绒的大捆包,代表着Loro piana对精工匠艺的坚持。采用小牛皮制作的包身,拥有十分柔软的自然粒面。\n尺寸:长16✖️14✖️23CM"},"price":null,"currency":"CNY","moq":1,"category":"burberry-women-bags","status":"active","alibaba_url":null,"images":["https://xcimg.szwego.com/20230816/i1692122718_8653_0.jpg","https://xcimg.szwego.com/20230816/i1692122718_7880_1.jpg","https://xcimg.szwego.com/20230816/i1692122718_3858_2.jpg","https://xcimg.szwego.com/20230816/i1692123763_7339_0.jpg","https://xcimg.szwego.com/20230816/i1692122718_9876_3.jpg","https://xcimg.szwego.com/20230816/i1692122718_886_4.jpg","https://xcimg.szwego.com/20230816/i1692122718_4774_6.jpg","https://xcimg.szwego.com/20230816/i1692122718_1553_7.jpg","https://xcimg.szwego.com/20230816/i1692122718_9240_8.jpg"],"created_at":"2025-01-20T12:46:12.751Z"},{"id":"item-9ec9a2c41cd7","sku":"_dfFfFyxA4-qROqkOUkAOP-DBcIq3_mEdEyei7Lw","name_en":"❤️Loro piana 小水桶","name_cn":"❤️Loro piana 小水桶\nBale 迷你手袋\n颜色:姜黄色\nBale包的自在高雅品味与不朽风格,再次见证了Loro piana与众不同的传承。方型的造型与命名,源自用于堆存羊绒的大捆包,代表着Loro piana对精工匠艺的坚持。采用小牛皮制作的包身,拥有十分柔软的自然粒面。\n尺寸:长16✖️14✖️23CM","specs":{"source":"wsxcme","sourceId":"_dfFfFyxA4-qROqkOUkAOP-DBcIq3_mEdEyei7Lw","sourceTagId":80411239,"sourceTagName":"巴宝莉/女包","rawTitle":"❤️Loro piana 小水桶\nBale 迷你手袋\n颜色:姜黄色\nBale包的自在高雅品味与不朽风格,再次见证了Loro piana与众不同的传承。方型的造型与命名,源自用于堆存羊绒的大捆包,代表着Loro piana对精工匠艺的坚持。采用小牛皮制作的包身,拥有十分柔软的自然粒面。\n尺寸:长16✖️14✖️23CM"},"price":null,"currency":"CNY","moq":1,"category":"burberry-women-bags","status":"active","alibaba_url":null,"images":["https://xcimg.szwego.com/20230816/i1692121730_398_0.jpg","https://xcimg.szwego.com/20230816/i1692121730_4361_1.jpg","https://xcimg.szwego.com/20230816/i1692121730_4619_2.jpg","https://xcimg.szwego.com/20230816/i1692123727_8569_0.jpg","https://xcimg.szwego.com/20230816/i1692121730_826_3.jpg","https://xcimg.szwego.com/20230816/i1692121730_998_5.jpg","https://xcimg.szwego.com/20230816/i1692121730_2282_6.jpg","https://xcimg.szwego.com/20230816/i1692121730_6164_7.jpg","https://xcimg.szwego.com/20230816/i1692121730_1551_8.jpg"],"created_at":"2025-01-20T12:46:12.750Z"},{"id":"item-ad8c8e7377a6","sku":"_dDyDy0fLzd9B0ADn3pxvkMXLvV0Vfh0VV_yAvHQ","name_en":"Burberry Women Bags","name_cn":"立体实拍,原厂渠道独家品质经典的小枕头款型 款绝对是能一直背很久不过时的款,做工品质柜台啥样咱们啥样,尺寸很实用,官方一直是断货状态,想省钱又对品质有要求的千万别错过。","specs":{"source":"wsxcme","sourceId":"_dDyDy0fLzd9B0ADn3pxvkMXLvV0Vfh0VV_yAvHQ","sourceTagId":80411239,"sourceTagName":"巴宝莉/女包","rawTitle":"立体实拍,原厂渠道独家品质经典的小枕头款型 款绝对是能一直背很久不过时的款,做工品质柜台啥样咱们啥样,尺寸很实用,官方一直是断货状态,想省钱又对品质有要求的千万别错过。"},"price":null,"currency":"CNY","moq":1,"category":"burberry-women-bags","status":"active","alibaba_url":null,"images":["https://xcimg.szwego.com/20230308/i1678251085_998_0.jpg","https://xcimg.szwego.com/20230308/i1678251085_2871_1.jpg","https://xcimg.szwego.com/20230308/i1678251085_6314_2.jpg","https://xcimg.szwego.com/20230308/i1678251085_9997_3.jpg","https://xcimg.szwego.com/20230308/i1678251085_9663_4.jpg","https://xcimg.szwego.com/20230308/i1678251085_884_5.jpg"],"created_at":"2025-01-20T12:46:12.749Z"},{"id":"item-4878833e0010","sku":"_dtltlUveL0rbbqaEcTl8bMBAIg8KFzMeaqmrpwg","name_en":"❤B家 格纹花呢 Lola(萝纳包)","name_cn":"❤B家 格纹花呢 Lola(萝纳包)\n精巧别致的时装款Lola,限量版,绝绝子\n选用意大利精纺棉质拼羊毛混纺花呢匠心打造滿\n皮链条设计:TB专属标识的精美搭配人\n尺寸:23 X6 X13 c m","specs":{"source":"wsxcme","sourceId":"_dtltlUveL0rbbqaEcTl8bMBAIg8KFzMeaqmrpwg","sourceTagId":80411239,"sourceTagName":"巴宝莉/女包","rawTitle":"❤B家 格纹花呢 Lola(萝纳包)\n精巧别致的时装款Lola,限量版,绝绝子\n选用意大利精纺棉质拼羊毛混纺花呢匠心打造滿\n皮链条设计:TB专属标识的精美搭配人\n尺寸:23 X6 X13 c m"},"price":null,"currency":"CNY","moq":1,"category":"burberry-women-bags","status":"active","alibaba_url":null,"images":["https://xcimg.szwego.com/20230830/i1693364776_4284_0.jpg","https://xcimg.szwego.com/20230830/i1693364776_3183_1.jpg","https://xcimg.szwego.com/20230830/i1693364776_6911_2.jpg","https://xcimg.szwego.com/20230830/i1693364776_9161_3.jpg","https://xcimg.szwego.com/20230830/i1693364776_2100_4.jpg","https://xcimg.szwego.com/20230830/i1693364776_6546_5.jpg","https://xcimg.szwego.com/20230830/i1693364776_5853_6.jpg","https://xcimg.szwego.com/20230830/i1693364776_4913_7.jpg","https://xcimg.szwego.com/20230830/i1693364776_3105_8.jpg"],"created_at":"2025-01-20T12:46:12.748Z"},{"id":"item-b0428f90f4a8","sku":"_du4u4qWvQNMeYFqh5Rkq3ZbfptEe6_FYZWQ0g-Q","name_en":"❤B家 精纺 House 格纹拼皮革钱夹,随附链饰拼皮革肩背带,既可作为小型手袋单独使用,又可纳入日常手袋之内作为钱夹使用。","name_cn":"❤B家 精纺 House 格纹拼皮革钱夹,随附链饰拼皮革肩背带,既可作为小型手袋单独使用,又可纳入日常手袋之内作为钱夹使用。\n21 x 4 x 11cm","specs":{"source":"wsxcme","sourceId":"_du4u4qWvQNMeYFqh5Rkq3ZbfptEe6_FYZWQ0g-Q","sourceTagId":80411239,"sourceTagName":"巴宝莉/女包","rawTitle":"❤B家 精纺 House 格纹拼皮革钱夹,随附链饰拼皮革肩背带,既可作为小型手袋单独使用,又可纳入日常手袋之内作为钱夹使用。\n21 x 4 x 11cm"},"price":null,"currency":"CNY","moq":1,"category":"burberry-women-bags","status":"active","alibaba_url":null,"images":["https://xcimg.szwego.com/20210921/i1632194951_7654_8.jpg","https://xcimg.szwego.com/20210921/i1632194951_5253_0.jpg","https://xcimg.szwego.com/20210921/i1632194951_7506_1.jpg","https://xcimg.szwego.com/20210921/i1632194951_5229_2.jpg","https://xcimg.szwego.com/20210921/i1632194951_2713_7.jpg","https://xcimg.szwego.com/20210921/i1632194951_1675_3.jpg","https://xcimg.szwego.com/20210921/i1632194951_2040_4.jpg","https://xcimg.szwego.com/20210921/i1632194951_7099_5.jpg","https://xcimg.szwego.com/20210921/i1632194951_5288_6.jpg"],"created_at":"2025-01-20T12:46:12.747Z"},{"id":"item-66f499442184","sku":"_dgCgCrpMxMrbtkblTizm8J-_iRGnYDNFr6nLJaQ","name_en":"❤B家 最新专属标识锁扣包,选用意大利鞣制粒纹皮革材质打造,搭配丁B 专属标识锁扣。非常独特。小巧实背的包型,容量也不小","name_cn":"❤B家 最新专属标识锁扣包,选用意大利鞣制粒纹皮革材质打造,搭配丁B 专属标识锁扣。非常独特。小巧实背的包型,容量也不小\n尺寸20 x 5.5 x 12.5cm","specs":{"source":"wsxcme","sourceId":"_dgCgCrpMxMrbtkblTizm8J-_iRGnYDNFr6nLJaQ","sourceTagId":80411239,"sourceTagName":"巴宝莉/女包","dimensions":{"lengthCm":20,"heightCm":5.5,"widthCm":12.5},"rawTitle":"❤B家 最新专属标识锁扣包,选用意大利鞣制粒纹皮革材质打造,搭配丁B 专属标识锁扣。非常独特。小巧实背的包型,容量也不小\n尺寸20 x 5.5 x 12.5cm"},"price":null,"currency":"CNY","moq":1,"category":"burberry-women-bags","status":"active","alibaba_url":null,"images":["https://xcimg.szwego.com/20230831/a1693470450861_4044.jpg","https://xcimg.szwego.com/20230831/a1693470450866_0086.jpg","https://xcimg.szwego.com/20230831/a1693470450874_4658.jpg","https://xcimg.szwego.com/20230831/a1693470450878_2466.jpg","https://xcimg.szwego.com/20230831/a1693470450882_0441.jpg","https://xcimg.szwego.com/20230831/a1693470450887_0562.jpg","https://xcimg.szwego.com/20230831/a1693470450893_8223.jpg","https://xcimg.szwego.com/20230831/a1693470450898_5244.jpg","https://xcimg.szwego.com/20230831/a1693470450908_2541.jpg"],"created_at":"2025-01-20T12:46:12.746Z"},{"id":"item-965ae93d7e3f","sku":"_dkWkWV1FVEKo7me33Uou-JXxnLJexjxoZqEmmyg","name_en":"❤B家 最新专属标识锁扣包,选用意大利鞣制粒纹皮革材质打造,搭配丁B 专属标识锁扣。非常独特。小巧实背的包型,容量也不小","name_cn":"❤B家 最新专属标识锁扣包,选用意大利鞣制粒纹皮革材质打造,搭配丁B 专属标识锁扣。非常独特。小巧实背的包型,容量也不小\n尺寸20 x 5.5 x 12.5cm","specs":{"source":"wsxcme","sourceId":"_dkWkWV1FVEKo7me33Uou-JXxnLJexjxoZqEmmyg","sourceTagId":80411239,"sourceTagName":"巴宝莉/女包","dimensions":{"lengthCm":20,"heightCm":5.5,"widthCm":12.5},"rawTitle":"❤B家 最新专属标识锁扣包,选用意大利鞣制粒纹皮革材质打造,搭配丁B 专属标识锁扣。非常独特。小巧实背的包型,容量也不小\n尺寸20 x 5.5 x 12.5cm"},"price":null,"currency":"CNY","moq":1,"category":"burberry-women-bags","status":"active","alibaba_url":null,"images":["https://xcimg.szwego.com/20230831/a1693469412547_7434.jpg","https://xcimg.szwego.com/20230831/a1693469412554_0161.jpg","https://xcimg.szwego.com/20230831/a1693469412558_2645.jpg","https://xcimg.szwego.com/20230831/a1693469412562_7336.jpg","https://xcimg.szwego.com/20230831/a1693469412569_1814.jpg","https://xcimg.szwego.com/20230831/a1693469412574_1876.jpg","https://xcimg.szwego.com/20230831/a1693469412579_8610.jpg","https://xcimg.szwego.com/20230831/a1693469412583_7064.jpg","https://xcimg.szwego.com/20230831/a1693469412587_6885.jpg"],"created_at":"2025-01-20T12:46:12.745Z"},{"id":"item-279eda483072","sku":"_deAeAQ--ZxgKpnByzuVZYlb8g_oqSLcpvZdj1vg","name_en":"❤B家 最新小羊皮手拿包 斜跨包🌟设计灵感源自品牌标志性格纹,装饰TB专属标识。","name_cn":"❤B家 最新小羊皮手拿包 斜跨包🌟设计灵感源自品牌标志性格纹,装饰TB专属标识。\n20 × 5 x 12cm","specs":{"source":"wsxcme","sourceId":"_deAeAQ--ZxgKpnByzuVZYlb8g_oqSLcpvZdj1vg","sourceTagId":80411239,"sourceTagName":"巴宝莉/女包","rawTitle":"❤B家 最新小羊皮手拿包 斜跨包🌟设计灵感源自品牌标志性格纹,装饰TB专属标识。\n20 × 5 x 12cm"},"price":null,"currency":"CNY","moq":1,"category":"burberry-women-bags","status":"active","alibaba_url":null,"images":["https://xcimg.szwego.com/20230623/i1687490720_9804_0.jpg","https://xcimg.szwego.com/20230623/i1687490720_6559_1.jpg","https://xcimg.szwego.com/20230623/i1687490720_838_2.jpg","https://xcimg.szwego.com/20230623/i1687490720_8671_3.jpg","https://xcimg.szwego.com/20230623/i1687490720_5986_4.jpg","https://xcimg.szwego.com/20230623/i1687490720_4461_5.jpg","https://xcimg.szwego.com/20230623/i1687490720_6224_6.jpg","https://xcimg.szwego.com/20230623/i1687490720_9421_7.jpg","https://xcimg.szwego.com/20230623/i1687490720_3739_8.jpg"],"created_at":"2025-01-20T12:46:12.744Z"},{"id":"item-f42926dc028f","sku":"_d-X-X-oAQwKKjHGmRcyO-diu-4DKiPOhp-mixMQ","name_en":"B家纯原时装秀款保龄球包「Cube - 立方包」,焕新精选双色皮革拼典藏 Vintage 复古格纹裁片打造,搭配顶部轧制提柄与可拆式肩背带。","name_cn":"B家纯原时装秀款保龄球包「Cube - 立方包」,焕新精选双色皮革拼典藏 Vintage 复古格纹裁片打造,搭配顶部轧制提柄与可拆式肩背带。\n34 x 19 x 21cm","specs":{"source":"wsxcme","sourceId":"_d-X-X-oAQwKKjHGmRcyO-diu-4DKiPOhp-mixMQ","sourceTagId":80411239,"sourceTagName":"巴宝莉/女包","rawTitle":"B家纯原时装秀款保龄球包「Cube - 立方包」,焕新精选双色皮革拼典藏 Vintage 复古格纹裁片打造,搭配顶部轧制提柄与可拆式肩背带。\n34 x 19 x 21cm"},"price":null,"currency":"CNY","moq":1,"category":"burberry-women-bags","status":"active","alibaba_url":null,"images":["https://xcimg.szwego.com/20220120/i1642653972_4162_0.jpg","https://xcimg.szwego.com/20220120/i1642653972_7817_1.jpg","https://xcimg.szwego.com/20220120/i1642653972_9527_2.jpg","https://xcimg.szwego.com/20220120/i1642653972_5264_3.jpg","https://xcimg.szwego.com/20220120/i1642653972_6679_8.jpg","https://xcimg.szwego.com/20220120/i1642653972_4161_4.jpg","https://xcimg.szwego.com/20220120/i1642653972_9915_7.jpg","https://xcimg.szwego.com/20220120/i1642653972_9507_5.jpg","https://xcimg.szwego.com/20220120/i1642653972_568_6.jpg"],"created_at":"2025-01-20T12:46:12.743Z"},{"id":"item-a024337b294d","sku":"_du1u1YT_seWK1jj9_URoREQDOhrP4gxDBWaSN-A","name_en":"先看黑色平铺细节,依然是独家操作的款,B家渠道放心入,可以随意进出专柜的,材质手感柔软舒适,自重很轻,肩带可调节,B家专属的衔缝格纹,#smhaaaa","name_cn":"先看黑色平铺细节,依然是独家操作的款,B家渠道放心入,可以随意进出专柜的,材质手感柔软舒适,自重很轻,肩带可调节,B家专属的衔缝格纹,#smhaaaa","specs":{"source":"wsxcme","sourceId":"_du1u1YT_seWK1jj9_URoREQDOhrP4gxDBWaSN-A","sourceTagId":80411239,"sourceTagName":"巴宝莉/女包","rawTitle":"先看黑色平铺细节,依然是独家操作的款,B家渠道放心入,可以随意进出专柜的,材质手感柔软舒适,自重很轻,肩带可调节,B家专属的衔缝格纹,#smhaaaa"},"price":null,"currency":"CNY","moq":1,"category":"burberry-women-bags","status":"active","alibaba_url":null,"images":["https://xcimg.szwego.com/20220802/i1659433751_1512_0.jpg","https://xcimg.szwego.com/20220802/i1659433751_1135_1.jpg","https://xcimg.szwego.com/20220802/i1659433751_1064_2.jpg","https://xcimg.szwego.com/20220802/i1659433751_3134_3.jpg","https://xcimg.szwego.com/20220802/i1659433751_103_4.jpg"],"created_at":"2025-01-20T12:46:12.742Z"},{"id":"item-252d4f0fe787","sku":"_dx6x68bFA00ehDmqaYi_QrBlGrVeEoSP58ZvEhA","name_en":"❤B家纯原专属标识皮logo锁扣包,单肩斜挎包,立挺有型的全新TB皮logo专属标识锁扣包,选用意大利鳄鱼压纹小牛皮 材质精心打造。纹理清晰,手感舒适有光泽,一眼看得到的高级。没有过于繁复的设计简单又经典,正面翻盖搭配镀金的专属标识搭扣。最新的搭扣设计非常特别,两面都很好看。内里由质地非常柔软的小羊皮制作。风琴款的设计有两个隔层,另设一个拉链内袋。容量方面是","name_cn":"❤B家纯原专属标识皮logo锁扣包,单肩斜挎包,立挺有型的全新TB皮logo专属标识锁扣包,选用意大利鳄鱼压纹小牛皮 材质精心打造。纹理清晰,手感舒适有光泽,一眼看得到的高级。没有过于繁复的设计简单又经典,正面翻盖搭配镀金的专属标识搭扣。最新的搭扣设计非常特别,两面都很好看。内里由质地非常柔软的小羊皮制作。风琴款的设计有两个隔层,另设一个拉链内袋。容量方面是真可,超级无敌能装的节奏,且上身轻便不累肩。这么简洁大气的款,搭配金色的链条,单肩斜挎都超级好看。真的是越背越爱,快点买起来!尺寸:21X16X6cm","specs":{"source":"wsxcme","sourceId":"_dx6x68bFA00ehDmqaYi_QrBlGrVeEoSP58ZvEhA","sourceTagId":80411239,"sourceTagName":"巴宝莉/女包","dimensions":{"lengthCm":21,"heightCm":16,"widthCm":6},"rawTitle":"❤B家纯原专属标识皮logo锁扣包,单肩斜挎包,立挺有型的全新TB皮logo专属标识锁扣包,选用意大利鳄鱼压纹小牛皮 材质精心打造。纹理清晰,手感舒适有光泽,一眼看得到的高级。没有过于繁复的设计简单又经典,正面翻盖搭配镀金的专属标识搭扣。最新的搭扣设计非常特别,两面都很好看。内里由质地非常柔软的小羊皮制作。风琴款的设计有两个隔层,另设一个拉链内袋。容量方面是真可,超级无敌能装的节奏,且上身轻便不累肩。这么简洁大气的款,搭配金色的链条,单肩斜挎都超级好看。真的是越背越爱,快点买起来!尺寸:21X16X6cm"},"price":null,"currency":"CNY","moq":1,"category":"burberry-women-bags","status":"active","alibaba_url":null,"images":["https://xcimg.szwego.com/20230330/i1680161775_6418_0.jpg","https://xcimg.szwego.com/20230330/i1680161775_3079_1.jpg","https://xcimg.szwego.com/20230330/i1680161794_6583_0.jpg","https://xcimg.szwego.com/20230330/i1680161775_1812_2.jpg","https://xcimg.szwego.com/20230330/i1680161775_722_3.jpg","https://xcimg.szwego.com/20230330/i1680161775_1364_4.jpg","https://xcimg.szwego.com/20230330/i1680161775_5171_5.jpg","https://xcimg.szwego.com/20230330/i1680161775_9275_6.jpg","https://xcimg.szwego.com/20230330/i1680161775_9385_7.jpg"],"created_at":"2025-01-20T12:46:12.741Z"},{"id":"item-38d5fffdfe9c","sku":"_dU2U2hp4_ycIbZFIW5YoO-fukbg0h8P1QMgmGtw","name_en":"❤B家纯原简约立挺的托特包,选用意大利鞣制皮革和帆布面料打造,装饰 TB 专属标!","name_cn":"❤B家纯原简约立挺的托特包,选用意大利鞣制皮革和帆布面料打造,装饰 TB 专属标!\n外层:100%棉(不包括涂层)\n装饰:100%小牛皮\n可拆可调式肩背带\n1个外插袋;1个内插袋;1个拉链内袋\n开放式包口设计,搭配磁扣开合\n尺寸:27 X11 X20 \n编号5721","specs":{"source":"wsxcme","sourceId":"_dU2U2hp4_ycIbZFIW5YoO-fukbg0h8P1QMgmGtw","sourceTagId":80411239,"sourceTagName":"巴宝莉/女包","rawTitle":"❤B家纯原简约立挺的托特包,选用意大利鞣制皮革和帆布面料打造,装饰 TB 专属标!\n外层:100%棉(不包括涂层)\n装饰:100%小牛皮\n可拆可调式肩背带\n1个外插袋;1个内插袋;1个拉链内袋\n开放式包口设计,搭配磁扣开合\n尺寸:27 X11 X20 \n编号5721"},"price":null,"currency":"CNY","moq":1,"category":"burberry-women-bags","status":"active","alibaba_url":null,"images":["https://xcimg.szwego.com/20230726/a1690361412937_3752.jpg","https://xcimg.szwego.com/20230726/a1690361412940_4188.jpg","https://xcimg.szwego.com/20230726/a1690361412941_4478.jpg","https://xcimg.szwego.com/20230726/a1690361412944_4126.jpg","https://xcimg.szwego.com/20230726/a1690361412945_7035.jpg","https://xcimg.szwego.com/20230726/a1690361412946_4634.jpg","https://xcimg.szwego.com/20230726/a1690361412947_4744.jpg","https://xcimg.szwego.com/20230726/a1690361412947_1814.jpg","https://xcimg.szwego.com/20230726/a1690361412948_4102.jpg"],"created_at":"2025-01-20T12:46:12.740Z"},{"id":"item-50b6e2c10dc4","sku":"_d0l0lh8o1-xY56o9_EO5pcQr6jGNeJUTiwcvcgw","name_en":"经典托特包型,皮革拼帆布,经典大logo,充满着文艺气息,这种款很适合通勤,一年四季都适合,立体的包型,容量大,可以装很多杂七杂八的东西,结实又耐用,手拎还是肩背都很OK,宽肩带,时尚又不累肩~","name_cn":"经典托特包型,皮革拼帆布,经典大logo,充满着文艺气息,这种款很适合通勤,一年四季都适合,立体的包型,容量大,可以装很多杂七杂八的东西,结实又耐用,手拎还是肩背都很OK,宽肩带,时尚又不累肩~","specs":{"source":"wsxcme","sourceId":"_d0l0lh8o1-xY56o9_EO5pcQr6jGNeJUTiwcvcgw","sourceTagId":80411239,"sourceTagName":"巴宝莉/女包","rawTitle":"经典托特包型,皮革拼帆布,经典大logo,充满着文艺气息,这种款很适合通勤,一年四季都适合,立体的包型,容量大,可以装很多杂七杂八的东西,结实又耐用,手拎还是肩背都很OK,宽肩带,时尚又不累肩~"},"price":null,"currency":"CNY","moq":1,"category":"burberry-women-bags","status":"active","alibaba_url":null,"images":["https://xcimg.szwego.com/20211011/i1633942937_1187_0.jpg","https://xcimg.szwego.com/20211011/i1633942937_5380_1.jpg","https://xcimg.szwego.com/20211011/i1633942937_2738_2.jpg","https://xcimg.szwego.com/20211011/i1633942937_8651_3.jpg","https://xcimg.szwego.com/20211011/i1633942937_5974_4.jpg","https://xcimg.szwego.com/20211011/i1633942937_2658_5.jpg","https://xcimg.szwego.com/20211011/i1633942937_6715_6.jpg","https://xcimg.szwego.com/20211011/i1633942937_1403_7.jpg","https://xcimg.szwego.com/20211011/i1633942937_4850_8.jpg"],"created_at":"2025-01-20T12:46:12.739Z"},{"id":"item-9a9b7795fa0e","sku":"_dkYkYdOdsS-E2PKRFfDMrvBylXERqYWG1_3dEaw","name_en":"先看平铺细节,官网最新款,独家首发!B家渠道放心拿,推荐人手一只,这种大容量托特很日常很实用,而且羊皮的包身很轻,特别软,好背!!️","name_cn":"先看平铺细节,官网最新款,独家首发!B家渠道放心拿,推荐人手一只,这种大容量托特很日常很实用,而且羊皮的包身很轻,特别软,好背!!️","specs":{"source":"wsxcme","sourceId":"_dkYkYdOdsS-E2PKRFfDMrvBylXERqYWG1_3dEaw","sourceTagId":80411239,"sourceTagName":"巴宝莉/女包","rawTitle":"先看平铺细节,官网最新款,独家首发!B家渠道放心拿,推荐人手一只,这种大容量托特很日常很实用,而且羊皮的包身很轻,特别软,好背!!️"},"price":null,"currency":"CNY","moq":1,"category":"burberry-women-bags","status":"active","alibaba_url":null,"images":["https://xcimg.szwego.com/20211228/i1640682100_2130_0.jpg","https://xcimg.szwego.com/20211228/i1640682100_4857_1.jpg","https://xcimg.szwego.com/20211228/i1640682100_9810_2.jpg","https://xcimg.szwego.com/20211228/i1640682100_6595_3.jpg","https://xcimg.szwego.com/20211228/i1640682100_668_4.jpg","https://xcimg.szwego.com/20211228/i1640682100_4794_5.jpg"],"created_at":"2025-01-20T12:46:12.738Z"},{"id":"item-44813cc7526e","sku":"_dfGfGd6s1QGlhZwcrAQR2-ErJzyNwkMlr7-G2UA","name_en":"平铺实拍,独家首发,莞产代工厂渠道,新款把之前的大logo改成了小logo,越发低调了,可手提可肩背带,太喜欢这个公文袋造型了,配色是b家最经典的焦糖色皮革拼白色帆布,学院风又有复古风,","name_cn":"平铺实拍,独家首发,莞产代工厂渠道,新款把之前的大logo改成了小logo,越发低调了,可手提可肩背带,太喜欢这个公文袋造型了,配色是b家最经典的焦糖色皮革拼白色帆布,学院风又有复古风,","specs":{"source":"wsxcme","sourceId":"_dfGfGd6s1QGlhZwcrAQR2-ErJzyNwkMlr7-G2UA","sourceTagId":80411239,"sourceTagName":"巴宝莉/女包","rawTitle":"平铺实拍,独家首发,莞产代工厂渠道,新款把之前的大logo改成了小logo,越发低调了,可手提可肩背带,太喜欢这个公文袋造型了,配色是b家最经典的焦糖色皮革拼白色帆布,学院风又有复古风,"},"price":null,"currency":"CNY","moq":1,"category":"burberry-women-bags","status":"active","alibaba_url":null,"images":["https://xcimg.szwego.com/20220616/i1655370356_7916_0.jpg","https://xcimg.szwego.com/20220616/i1655370356_5162_1.jpg","https://xcimg.szwego.com/20220616/i1655370356_4393_2.jpg","https://xcimg.szwego.com/20220616/i1655370356_3868_3.jpg","https://xcimg.szwego.com/20220616/i1655370356_1765_4.jpg","https://xcimg.szwego.com/20220616/i1655370356_5456_5.jpg"],"created_at":"2025-01-20T12:46:12.737Z"}],"page":251,"pageSize":24,"total":10075,"totalPages":420}
