{"items":[{"id":"item-b79e8d8c04cf","sku":"_d_T_TKYEOrXSwfZ7dGN8AFRdaiAv5ndPXcNNWGw","name_en":"专柜品质,顶级原单货,实物实拍!款号835049克皮/浅绿G,尺寸:宽11X高7cm,💰","name_cn":"专柜品质,顶级原单货,实物实拍!款号835049克皮/浅绿G,尺寸:宽11X高7cm,💰","specs":{"source":"wsxcme","sourceId":"_d_T_TKYEOrXSwfZ7dGN8AFRdaiAv5ndPXcNNWGw","sourceTagId":47002663,"sourceTagName":"长短款钱包","modelNumber":"835049克皮/浅绿G","rawTitle":"专柜品质,顶级原单货,实物实拍!款号835049克皮/浅绿G,尺寸:宽11X高7cm,💰"},"price":null,"currency":"CNY","moq":1,"category":"women-wallets","status":"active","alibaba_url":null,"images":["https://xcimg.szwego.com/img/102e1c0f/20250602/i1748840006141_4645_0_0.jpg","https://xcimg.szwego.com/img/102e1c0f/20250602/i1748840006187_7985_0_1.jpg","https://xcimg.szwego.com/img/102e1c0f/20250602/i1748840006168_4668_0_2.jpg","https://xcimg.szwego.com/img/102e1c0f/20250602/i1748840006113_1979_0_3.jpg"],"created_at":"2025-08-03T05:43:10.118Z"},{"id":"item-14230736c9dc","sku":"_d_R_RLoF1z6R0jtyijquHcaOBUh9ohxuuuRK18Q","name_en":"专柜品质,顶级原单货,实物实拍!款号835049克皮/橙G,尺寸:宽11X高7cm,💰","name_cn":"专柜品质,顶级原单货,实物实拍!款号835049克皮/橙G,尺寸:宽11X高7cm,💰","specs":{"source":"wsxcme","sourceId":"_d_R_RLoF1z6R0jtyijquHcaOBUh9ohxuuuRK18Q","sourceTagId":47002663,"sourceTagName":"长短款钱包","modelNumber":"835049克皮/橙G","rawTitle":"专柜品质,顶级原单货,实物实拍!款号835049克皮/橙G,尺寸:宽11X高7cm,💰"},"price":null,"currency":"CNY","moq":1,"category":"women-wallets","status":"active","alibaba_url":null,"images":["https://xcimg.szwego.com/img/102e1c0f/20250602/i1748839971551_6346_0_0.jpg","https://xcimg.szwego.com/img/102e1c0f/20250602/i1748839971575_4039_0_1.jpg","https://xcimg.szwego.com/img/102e1c0f/20250602/i1748839971542_8593_0_2.jpg","https://xcimg.szwego.com/img/102e1c0f/20250602/i1748839971554_6275_0_3.jpg"],"created_at":"2025-08-03T05:43:10.117Z"},{"id":"item-b0126e42918a","sku":"_ddfdfZqCKBRSZIkgR8noI9j-3Av4AFWtVrcQKDg","name_en":"专柜品质,顶级原单货,实物实拍!款号835047克皮/白钢G,尺寸:宽11X高9,","name_cn":"专柜品质,顶级原单货,实物实拍!款号835047克皮/白钢G,尺寸:宽11X高9,","specs":{"source":"wsxcme","sourceId":"_ddfdfZqCKBRSZIkgR8noI9j-3Av4AFWtVrcQKDg","sourceTagId":47002663,"sourceTagName":"长短款钱包","modelNumber":"835047克皮/白钢G","rawTitle":"专柜品质,顶级原单货,实物实拍!款号835047克皮/白钢G,尺寸:宽11X高9,"},"price":null,"currency":"CNY","moq":1,"category":"women-wallets","status":"active","alibaba_url":null,"images":["https://xcimg.szwego.com/img/102e1c0f/20250527/i1748331009144_3474_0_0.jpg","https://xcimg.szwego.com/img/102e1c0f/20250527/i1748331009164_4268_0_1.jpg","https://xcimg.szwego.com/img/102e1c0f/20250527/i1748331009100_0_0_2.jpg","https://xcimg.szwego.com/img/102e1c0f/20250527/i1748331009170_8297_0_3.jpg"],"created_at":"2025-08-03T05:43:10.116Z"},{"id":"item-80501c65ef30","sku":"_dvDvDXlAApZdoDZf19pvm2QessBej8P9Zz3JqPA","name_en":"专柜品质,顶级原单货,实物实拍!款号835047克皮/浅绿G,尺寸:宽11X高9,","name_cn":"专柜品质,顶级原单货,实物实拍!款号835047克皮/浅绿G,尺寸:宽11X高9,","specs":{"source":"wsxcme","sourceId":"_dvDvDXlAApZdoDZf19pvm2QessBej8P9Zz3JqPA","sourceTagId":47002663,"sourceTagName":"长短款钱包","modelNumber":"835047克皮/浅绿G","rawTitle":"专柜品质,顶级原单货,实物实拍!款号835047克皮/浅绿G,尺寸:宽11X高9,"},"price":null,"currency":"CNY","moq":1,"category":"women-wallets","status":"active","alibaba_url":null,"images":["https://xcimg.szwego.com/img/102e1c0f/20250527/i1748331037056_3766_0_0.jpg","https://xcimg.szwego.com/img/102e1c0f/20250527/i1748331037042_3195_0_1.jpg","https://xcimg.szwego.com/img/102e1c0f/20250527/i1748331037084_4481_0_2.jpg","https://xcimg.szwego.com/img/102e1c0f/20250527/i1748331037052_5463_0_3.jpg"],"created_at":"2025-08-03T05:43:10.115Z"},{"id":"item-c8d50539cfc3","sku":"_d8C8CAkQoz6uKaSjXXdstBTU4vF8Tsw9CWDzHqw","name_en":"专柜品质,顶级原单货,实物实拍!款号835047克皮/橙G,尺寸:宽11X高9,","name_cn":"专柜品质,顶级原单货,实物实拍!款号835047克皮/橙G,尺寸:宽11X高9,","specs":{"source":"wsxcme","sourceId":"_d8C8CAkQoz6uKaSjXXdstBTU4vF8Tsw9CWDzHqw","sourceTagId":47002663,"sourceTagName":"长短款钱包","modelNumber":"835047克皮/橙G","rawTitle":"专柜品质,顶级原单货,实物实拍!款号835047克皮/橙G,尺寸:宽11X高9,"},"price":null,"currency":"CNY","moq":1,"category":"women-wallets","status":"active","alibaba_url":null,"images":["https://xcimg.szwego.com/img/102e1c0f/20250527/i1748331053174_458_0_0.jpg","https://xcimg.szwego.com/img/102e1c0f/20250527/i1748331053184_2415_0_1.jpg","https://xcimg.szwego.com/img/102e1c0f/20250527/i1748331053156_4681_0_2.jpg","https://xcimg.szwego.com/img/102e1c0f/20250527/i1748331053212_3323_0_3.jpg"],"created_at":"2025-08-03T05:43:10.114Z"},{"id":"item-de3a0f3d787f","sku":"_dueueVtlpNjjuKHTwhRtghhyis26fGSlmiCnREg","name_en":"专柜品质,顶级原单货,实物实拍!款号835048克皮/白钢G,尺寸:宽11X高9,","name_cn":"专柜品质,顶级原单货,实物实拍!款号835048克皮/白钢G,尺寸:宽11X高9,","specs":{"source":"wsxcme","sourceId":"_dueueVtlpNjjuKHTwhRtghhyis26fGSlmiCnREg","sourceTagId":47002663,"sourceTagName":"长短款钱包","modelNumber":"835048克皮/白钢G","rawTitle":"专柜品质,顶级原单货,实物实拍!款号835048克皮/白钢G,尺寸:宽11X高9,"},"price":null,"currency":"CNY","moq":1,"category":"women-wallets","status":"active","alibaba_url":null,"images":["https://xcimg.szwego.com/img/102e1c0f/20250527/i1748330875351_1591_0_0.jpg","https://xcimg.szwego.com/img/102e1c0f/20250527/i1748330875356_7702_0_1.jpg","https://xcimg.szwego.com/img/102e1c0f/20250527/i1748330875345_1280_0_2.jpg","https://xcimg.szwego.com/img/102e1c0f/20250527/i1748330875347_41_0_3.jpg"],"created_at":"2025-08-03T05:43:10.113Z"},{"id":"item-41160200bad8","sku":"_dktkt9CVPd38bI6QJX0MeSyJ_1sQsRtdD80qRWg","name_en":"专柜品质,顶级原单货,实物实拍!款号835048克皮/浅绿G,尺寸:宽11X高9,","name_cn":"专柜品质,顶级原单货,实物实拍!款号835048克皮/浅绿G,尺寸:宽11X高9,","specs":{"source":"wsxcme","sourceId":"_dktkt9CVPd38bI6QJX0MeSyJ_1sQsRtdD80qRWg","sourceTagId":47002663,"sourceTagName":"长短款钱包","modelNumber":"835048克皮/浅绿G","rawTitle":"专柜品质,顶级原单货,实物实拍!款号835048克皮/浅绿G,尺寸:宽11X高9,"},"price":null,"currency":"CNY","moq":1,"category":"women-wallets","status":"active","alibaba_url":null,"images":["https://xcimg.szwego.com/img/102e1c0f/20250527/i1748330938462_2270_0_0.jpg","https://xcimg.szwego.com/img/102e1c0f/20250527/i1748330938490_6614_0_1.jpg","https://xcimg.szwego.com/img/102e1c0f/20250527/i1748330938504_712_0_2.jpg","https://xcimg.szwego.com/img/102e1c0f/20250527/i1748330938468_5295_0_3.jpg"],"created_at":"2025-08-03T05:43:10.112Z"},{"id":"item-64348545a7e1","sku":"_dububhRpfzygVD4m5poXAAxEbjQTsJea_EDomcQ","name_en":"专柜品质,顶级原单货,实物实拍!款号835048克皮/橙G,尺寸:宽11X高9,","name_cn":"专柜品质,顶级原单货,实物实拍!款号835048克皮/橙G,尺寸:宽11X高9,","specs":{"source":"wsxcme","sourceId":"_dububhRpfzygVD4m5poXAAxEbjQTsJea_EDomcQ","sourceTagId":47002663,"sourceTagName":"长短款钱包","modelNumber":"835048克皮/橙G","rawTitle":"专柜品质,顶级原单货,实物实拍!款号835048克皮/橙G,尺寸:宽11X高9,"},"price":null,"currency":"CNY","moq":1,"category":"women-wallets","status":"active","alibaba_url":null,"images":["https://xcimg.szwego.com/img/102e1c0f/20250527/i1748330976061_9305_0_0.jpg","https://xcimg.szwego.com/img/102e1c0f/20250527/i1748330976040_5770_0_1.jpg","https://xcimg.szwego.com/img/102e1c0f/20250527/i1748330976028_9073_0_2.jpg","https://xcimg.szwego.com/img/102e1c0f/20250527/i1748330976034_6135_0_3.jpg"],"created_at":"2025-08-03T05:43:10.111Z"},{"id":"item-82dd26bb13eb","sku":"_dnUnUpADmGCGDOMpmi9ISeDtVYn_CP-sUvfbFHQ","name_en":"专柜品质,顶级原单货,实物实拍!款号835053克皮/白钢G,尺寸:宽10.5X高7.5cm,💰","name_cn":"专柜品质,顶级原单货,实物实拍!款号835053克皮/白钢G,尺寸:宽10.5X高7.5cm,💰","specs":{"source":"wsxcme","sourceId":"_dnUnUpADmGCGDOMpmi9ISeDtVYn_CP-sUvfbFHQ","sourceTagId":47002663,"sourceTagName":"长短款钱包","modelNumber":"835053克皮/白钢G","rawTitle":"专柜品质,顶级原单货,实物实拍!款号835053克皮/白钢G,尺寸:宽10.5X高7.5cm,💰"},"price":null,"currency":"CNY","moq":1,"category":"women-wallets","status":"active","alibaba_url":null,"images":["https://xcimg.szwego.com/img/102e1c0f/20250602/i1748839930971_9072_0_0.jpg","https://xcimg.szwego.com/img/102e1c0f/20250602/i1748839930980_7721_0_1.jpg","https://xcimg.szwego.com/img/102e1c0f/20250602/i1748839930971_6658_0_2.jpg","https://xcimg.szwego.com/img/102e1c0f/20250602/i1748839930965_7287_0_3.jpg"],"created_at":"2025-08-03T05:43:10.110Z"},{"id":"item-a130f71369fd","sku":"_dtvtvnB4qtR_EpbiI59Pp99zrCXwyZShjVpUHPg","name_en":"专柜品质,顶级原单货,实物实拍!款号835053克皮/浅绿G,尺寸:宽10.5X高7.5cm,💰","name_cn":"专柜品质,顶级原单货,实物实拍!款号835053克皮/浅绿G,尺寸:宽10.5X高7.5cm,💰","specs":{"source":"wsxcme","sourceId":"_dtvtvnB4qtR_EpbiI59Pp99zrCXwyZShjVpUHPg","sourceTagId":47002663,"sourceTagName":"长短款钱包","modelNumber":"835053克皮/浅绿G","rawTitle":"专柜品质,顶级原单货,实物实拍!款号835053克皮/浅绿G,尺寸:宽10.5X高7.5cm,💰"},"price":null,"currency":"CNY","moq":1,"category":"women-wallets","status":"active","alibaba_url":null,"images":["https://xcimg.szwego.com/img/102e1c0f/20250602/i1748839908220_5465_0_0.jpg","https://xcimg.szwego.com/img/102e1c0f/20250602/i1748839908198_7622_0_1.jpg","https://xcimg.szwego.com/img/102e1c0f/20250602/i1748839908214_651_0_2.jpg","https://xcimg.szwego.com/img/102e1c0f/20250602/i1748839907910_7609_0_3.jpg"],"created_at":"2025-08-03T05:43:10.109Z"},{"id":"item-3f3e85477f4a","sku":"_da4a4ZwZgNIvQ_Fa5vgy4Upw-zL904nhlsSM7OQ","name_en":"专柜品质,顶级原单货,实物实拍!款号835053克皮/橙G,尺寸:宽10.5X高7.5cm,💰","name_cn":"专柜品质,顶级原单货,实物实拍!款号835053克皮/橙G,尺寸:宽10.5X高7.5cm,💰","specs":{"source":"wsxcme","sourceId":"_da4a4ZwZgNIvQ_Fa5vgy4Upw-zL904nhlsSM7OQ","sourceTagId":47002663,"sourceTagName":"长短款钱包","modelNumber":"835053克皮/橙G","rawTitle":"专柜品质,顶级原单货,实物实拍!款号835053克皮/橙G,尺寸:宽10.5X高7.5cm,💰"},"price":null,"currency":"CNY","moq":1,"category":"women-wallets","status":"active","alibaba_url":null,"images":["https://xcimg.szwego.com/img/102e1c0f/20250602/i1748839812953_7866_0_0.jpg","https://xcimg.szwego.com/img/102e1c0f/20250602/i1748839812950_8303_0_1.jpg","https://xcimg.szwego.com/img/102e1c0f/20250602/i1748839812928_9545_0_2.jpg","https://xcimg.szwego.com/img/102e1c0f/20250602/i1748839812933_1332_0_3.jpg"],"created_at":"2025-08-03T05:43:10.108Z"},{"id":"item-d2250d3b7c4d","sku":"_daSaSTR6ekmSUynOnj9c1kqWbLNqPd6BhYOmnlQ","name_en":"专柜品质,顶级原单货,实物实拍!款号835054克皮/白钢G,尺寸:宽10X高19X侧宽2,","name_cn":"专柜品质,顶级原单货,实物实拍!款号835054克皮/白钢G,尺寸:宽10X高19X侧宽2,","specs":{"source":"wsxcme","sourceId":"_daSaSTR6ekmSUynOnj9c1kqWbLNqPd6BhYOmnlQ","sourceTagId":47002663,"sourceTagName":"长短款钱包","modelNumber":"835054克皮/白钢G","rawTitle":"专柜品质,顶级原单货,实物实拍!款号835054克皮/白钢G,尺寸:宽10X高19X侧宽2,"},"price":null,"currency":"CNY","moq":1,"category":"women-wallets","status":"active","alibaba_url":null,"images":["https://xcimg.szwego.com/img/102e1c0f/20250615/i1749974517636_8044_0_0.jpg","https://xcimg.szwego.com/img/102e1c0f/20250615/i1749974517685_3180_0_1.jpg","https://xcimg.szwego.com/img/102e1c0f/20250615/i1749974517447_9369_0_2.jpg","https://xcimg.szwego.com/img/102e1c0f/20250615/i1749974517689_9743_0_3.jpg"],"created_at":"2025-08-03T05:43:10.107Z"},{"id":"item-8927a52f12d0","sku":"_dPjPj1jW0EFbkmkLRWeJ2_UPECcZcZnLoAi8IGg","name_en":"专柜品质,顶级原单货,实物实拍!款号835054克皮/橙G,尺寸:宽10X高19X侧宽2,","name_cn":"专柜品质,顶级原单货,实物实拍!款号835054克皮/橙G,尺寸:宽10X高19X侧宽2,","specs":{"source":"wsxcme","sourceId":"_dPjPj1jW0EFbkmkLRWeJ2_UPECcZcZnLoAi8IGg","sourceTagId":47002663,"sourceTagName":"长短款钱包","modelNumber":"835054克皮/橙G","rawTitle":"专柜品质,顶级原单货,实物实拍!款号835054克皮/橙G,尺寸:宽10X高19X侧宽2,"},"price":null,"currency":"CNY","moq":1,"category":"women-wallets","status":"active","alibaba_url":null,"images":["https://xcimg.szwego.com/img/102e1c0f/20250615/i1749974480377_3812_0_0.jpg","https://xcimg.szwego.com/img/102e1c0f/20250615/i1749974480407_660_0_1.jpg","https://xcimg.szwego.com/img/102e1c0f/20250615/i1749974480234_6979_0_3.jpg","https://xcimg.szwego.com/img/102e1c0f/20250615/i1749974480346_5168_0_2.jpg"],"created_at":"2025-08-03T05:43:10.106Z"},{"id":"item-a5400057960c","sku":"_drvrvYf7sehqWtydH9y7b5o_PyZ5w3Dulus6M1Q","name_en":"专柜品质,顶级原单货,实物实拍!款号835054克皮/浅绿G,尺寸:宽10X高19X侧宽2,","name_cn":"专柜品质,顶级原单货,实物实拍!款号835054克皮/浅绿G,尺寸:宽10X高19X侧宽2,","specs":{"source":"wsxcme","sourceId":"_drvrvYf7sehqWtydH9y7b5o_PyZ5w3Dulus6M1Q","sourceTagId":47002663,"sourceTagName":"长短款钱包","modelNumber":"835054克皮/浅绿G","rawTitle":"专柜品质,顶级原单货,实物实拍!款号835054克皮/浅绿G,尺寸:宽10X高19X侧宽2,"},"price":null,"currency":"CNY","moq":1,"category":"women-wallets","status":"active","alibaba_url":null,"images":["https://xcimg.szwego.com/img/102e1c0f/20250615/i1749974314054_9505_0_0.jpg","https://xcimg.szwego.com/img/102e1c0f/20250615/i1749974313759_7221_0_1.jpg","https://xcimg.szwego.com/img/102e1c0f/20250615/i1749974313978_6836_0_3.jpg","https://xcimg.szwego.com/img/102e1c0f/20250615/i1749974314033_4144_0_2.jpg"],"created_at":"2025-08-03T05:43:10.105Z"},{"id":"item-b0f276827933","sku":"_dnonouyrnr2AFG884QGtlClA9eAQxDDldljBxkA","name_en":"专柜品质,顶级原单货,实物实拍!768248啡胶/荧光玫~尺寸:宽11x高7,出货啦!💰","name_cn":"专柜品质,顶级原单货,实物实拍!768248啡胶/荧光玫~尺寸:宽11x高7,出货啦!💰","specs":{"source":"wsxcme","sourceId":"_dnonouyrnr2AFG884QGtlClA9eAQxDDldljBxkA","sourceTagId":47002663,"sourceTagName":"长短款钱包","rawTitle":"专柜品质,顶级原单货,实物实拍!768248啡胶/荧光玫~尺寸:宽11x高7,出货啦!💰"},"price":null,"currency":"CNY","moq":1,"category":"women-wallets","status":"active","alibaba_url":null,"images":["https://xcimg.szwego.com/img/102e1c0f/20250517/i1747466411025_7206_0_0.jpg","https://xcimg.szwego.com/img/102e1c0f/20250517/i1747466411053_87_0_1.jpg","https://xcimg.szwego.com/img/102e1c0f/20250517/i1747466411030_292_0_2.jpg","https://xcimg.szwego.com/img/102e1c0f/20250517/i1747466411034_7526_0_3.jpg"],"created_at":"2025-08-03T05:43:10.104Z"},{"id":"item-647e45c661a0","sku":"_dCFCFxxh63pZmI3SLOcdBdZFwKHhVmGudSzhkgQ","name_en":"专柜品质,顶级原单货,实物实拍!768248啡胶/荧光橙~尺寸:宽11x高7,出货啦!💰","name_cn":"专柜品质,顶级原单货,实物实拍!768248啡胶/荧光橙~尺寸:宽11x高7,出货啦!💰","specs":{"source":"wsxcme","sourceId":"_dCFCFxxh63pZmI3SLOcdBdZFwKHhVmGudSzhkgQ","sourceTagId":47002663,"sourceTagName":"长短款钱包","rawTitle":"专柜品质,顶级原单货,实物实拍!768248啡胶/荧光橙~尺寸:宽11x高7,出货啦!💰"},"price":null,"currency":"CNY","moq":1,"category":"women-wallets","status":"active","alibaba_url":null,"images":["https://xcimg.szwego.com/img/102e1c0f/20250517/i1747466398308_2347_0_0.jpg","https://xcimg.szwego.com/img/102e1c0f/20250517/i1747466398301_6523_0_1.jpg","https://xcimg.szwego.com/img/102e1c0f/20250517/i1747466398278_9800_0_2.jpg","https://xcimg.szwego.com/img/102e1c0f/20250517/i1747466398308_1118_0_3.jpg"],"created_at":"2025-08-03T05:43:10.103Z"},{"id":"item-3835d7e1946b","sku":"_ddtdt6BHbqpgRnY703auky7J9VRnItSyMMk1juw","name_en":"专柜品质,顶级原单货,实物实拍!768248啡胶/荧光绿~尺寸:宽11x高7,出货啦!💰","name_cn":"专柜品质,顶级原单货,实物实拍!768248啡胶/荧光绿~尺寸:宽11x高7,出货啦!💰","specs":{"source":"wsxcme","sourceId":"_ddtdt6BHbqpgRnY703auky7J9VRnItSyMMk1juw","sourceTagId":47002663,"sourceTagName":"长短款钱包","rawTitle":"专柜品质,顶级原单货,实物实拍!768248啡胶/荧光绿~尺寸:宽11x高7,出货啦!💰"},"price":null,"currency":"CNY","moq":1,"category":"women-wallets","status":"active","alibaba_url":null,"images":["https://xcimg.szwego.com/img/102e1c0f/20250517/i1747466354524_385_0_0.jpg","https://xcimg.szwego.com/img/102e1c0f/20250517/i1747466354530_2107_0_1.jpg","https://xcimg.szwego.com/img/102e1c0f/20250517/i1747466354567_2684_0_2.jpg","https://xcimg.szwego.com/img/102e1c0f/20250517/i1747466354531_8529_0_3.jpg"],"created_at":"2025-08-03T05:43:10.102Z"},{"id":"item-a7c119a8f90e","sku":"_dvYvYKg9aAyrKxjhSIiQXUC2uCdJ67AuntQ4QfQ","name_en":"专柜品质,顶级原单货,实物实拍!768243啡胶/荧光玫,尺寸:宽11x高9,出货啦!💰","name_cn":"专柜品质,顶级原单货,实物实拍!768243啡胶/荧光玫,尺寸:宽11x高9,出货啦!💰","specs":{"source":"wsxcme","sourceId":"_dvYvYKg9aAyrKxjhSIiQXUC2uCdJ67AuntQ4QfQ","sourceTagId":47002663,"sourceTagName":"长短款钱包","rawTitle":"专柜品质,顶级原单货,实物实拍!768243啡胶/荧光玫,尺寸:宽11x高9,出货啦!💰"},"price":null,"currency":"CNY","moq":1,"category":"women-wallets","status":"active","alibaba_url":null,"images":["https://xcimg.szwego.com/img/102e1c0f/20250517/i1747466235167_3968_0_0.jpg","https://xcimg.szwego.com/img/102e1c0f/20250517/i1747466235112_2398_0_1.jpg","https://xcimg.szwego.com/img/102e1c0f/20250517/i1747466234851_8189_0_2.jpg","https://xcimg.szwego.com/img/102e1c0f/20250517/i1747466235146_2222_0_3.jpg"],"created_at":"2025-08-03T05:43:10.101Z"},{"id":"item-86a4a900942d","sku":"_dgqgqoup0MetnS-IPvwZGPzb7akiqoG0_IYP2Zw","name_en":"专柜品质,顶级原单货,实物实拍!768243啡胶/荧光橙,尺寸:宽11x高9,出货啦!💰","name_cn":"专柜品质,顶级原单货,实物实拍!768243啡胶/荧光橙,尺寸:宽11x高9,出货啦!💰","specs":{"source":"wsxcme","sourceId":"_dgqgqoup0MetnS-IPvwZGPzb7akiqoG0_IYP2Zw","sourceTagId":47002663,"sourceTagName":"长短款钱包","rawTitle":"专柜品质,顶级原单货,实物实拍!768243啡胶/荧光橙,尺寸:宽11x高9,出货啦!💰"},"price":null,"currency":"CNY","moq":1,"category":"women-wallets","status":"active","alibaba_url":null,"images":["https://xcimg.szwego.com/img/102e1c0f/20250517/i1747466218951_8251_0_0.jpg","https://xcimg.szwego.com/img/102e1c0f/20250517/i1747466218961_8103_0_1.jpg","https://xcimg.szwego.com/img/102e1c0f/20250517/i1747466218882_6720_0_2.jpg","https://xcimg.szwego.com/img/102e1c0f/20250517/i1747466218905_4552_0_3.jpg"],"created_at":"2025-08-03T05:43:10.100Z"},{"id":"item-0bf94a08dcbd","sku":"_doUoUsyVcDZwjmPhnnD5KzNCxquRhsLnSwHHMHw","name_en":"专柜品质,顶级原单货,实物实拍!768243啡胶/荧光绿,尺寸:宽11x高9,出货啦!💰","name_cn":"专柜品质,顶级原单货,实物实拍!768243啡胶/荧光绿,尺寸:宽11x高9,出货啦!💰","specs":{"source":"wsxcme","sourceId":"_doUoUsyVcDZwjmPhnnD5KzNCxquRhsLnSwHHMHw","sourceTagId":47002663,"sourceTagName":"长短款钱包","rawTitle":"专柜品质,顶级原单货,实物实拍!768243啡胶/荧光绿,尺寸:宽11x高9,出货啦!💰"},"price":null,"currency":"CNY","moq":1,"category":"women-wallets","status":"active","alibaba_url":null,"images":["https://xcimg.szwego.com/img/102e1c0f/20250517/i1747466181041_2944_0_0.jpg","https://xcimg.szwego.com/img/102e1c0f/20250517/i1747466181074_3374_0_1.jpg","https://xcimg.szwego.com/img/102e1c0f/20250517/i1747466181089_4667_0_2.jpg","https://xcimg.szwego.com/img/102e1c0f/20250517/i1747466181083_9543_0_3.jpg"],"created_at":"2025-08-03T05:43:10.099Z"},{"id":"item-89ad31e4a9d7","sku":"_dvEvERokKi4ctpfpvyABUdRHX2ea9quZNCbbKBg","name_en":"专柜品质,顶级原单货,实物实拍!768249啡胶/荧光玫~尺寸:宽7.5x高12,出货啦!💰","name_cn":"专柜品质,顶级原单货,实物实拍!768249啡胶/荧光玫~尺寸:宽7.5x高12,出货啦!💰","specs":{"source":"wsxcme","sourceId":"_dvEvERokKi4ctpfpvyABUdRHX2ea9quZNCbbKBg","sourceTagId":47002663,"sourceTagName":"长短款钱包","rawTitle":"专柜品质,顶级原单货,实物实拍!768249啡胶/荧光玫~尺寸:宽7.5x高12,出货啦!💰"},"price":null,"currency":"CNY","moq":1,"category":"women-wallets","status":"active","alibaba_url":null,"images":["https://xcimg.szwego.com/img/102e1c0f/20250517/i1747466117614_128_0_0.jpg","https://xcimg.szwego.com/img/102e1c0f/20250517/i1747466117704_4533_0_1.jpg","https://xcimg.szwego.com/img/102e1c0f/20250517/i1747466117664_7527_0_2.jpg","https://xcimg.szwego.com/img/102e1c0f/20250517/i1747466117615_6170_0_3.jpg"],"created_at":"2025-08-03T05:43:10.098Z"},{"id":"item-b1079e22e5e4","sku":"_deeeexuek2jmEauNwALemrvEpakHVo6wojbqSOw","name_en":"专柜品质,顶级原单货,实物实拍!768249啡胶/荧光橙~尺寸:宽7.5x高12,出货啦!💰","name_cn":"专柜品质,顶级原单货,实物实拍!768249啡胶/荧光橙~尺寸:宽7.5x高12,出货啦!💰","specs":{"source":"wsxcme","sourceId":"_deeeexuek2jmEauNwALemrvEpakHVo6wojbqSOw","sourceTagId":47002663,"sourceTagName":"长短款钱包","rawTitle":"专柜品质,顶级原单货,实物实拍!768249啡胶/荧光橙~尺寸:宽7.5x高12,出货啦!💰"},"price":null,"currency":"CNY","moq":1,"category":"women-wallets","status":"active","alibaba_url":null,"images":["https://xcimg.szwego.com/img/102e1c0f/20250517/i1747466032633_1083_0_0.jpg","https://xcimg.szwego.com/img/102e1c0f/20250517/i1747466032642_7893_0_1.jpg","https://xcimg.szwego.com/img/102e1c0f/20250517/i1747466032640_3849_0_2.jpg","https://xcimg.szwego.com/img/102e1c0f/20250517/i1747465803251_2158_0_9.jpg"],"created_at":"2025-08-03T05:43:10.097Z"},{"id":"item-f1994fabd321","sku":"_dp-p-FBbLZq2lxfSVhl7Q47LdsyQUrmmPkZCLug","name_en":"专柜品质,顶级原单货,实物实拍!768249啡胶/荧光绿~尺寸:宽7.5x高12,出货啦!💰","name_cn":"专柜品质,顶级原单货,实物实拍!768249啡胶/荧光绿~尺寸:宽7.5x高12,出货啦!💰","specs":{"source":"wsxcme","sourceId":"_dp-p-FBbLZq2lxfSVhl7Q47LdsyQUrmmPkZCLug","sourceTagId":47002663,"sourceTagName":"长短款钱包","rawTitle":"专柜品质,顶级原单货,实物实拍!768249啡胶/荧光绿~尺寸:宽7.5x高12,出货啦!💰"},"price":null,"currency":"CNY","moq":1,"category":"women-wallets","status":"active","alibaba_url":null,"images":["https://xcimg.szwego.com/img/102e1c0f/20250517/i1747465881265_1178_0_0.jpg","https://xcimg.szwego.com/img/102e1c0f/20250517/i1747465881284_922_0_1.jpg","https://xcimg.szwego.com/img/102e1c0f/20250517/i1747465881284_6681_0_2.jpg","https://xcimg.szwego.com/img/102e1c0f/20250517/i1747465880993_4419_0_3.jpg"],"created_at":"2025-08-03T05:43:10.096Z"},{"id":"item-10d6dcc22a70","sku":"_daRaRxkvCc0TnpGFIrTmHLlqGIwis7Ys1udSwCw","name_en":"Loewe Women Bags","name_cn":"原厂皮\nL❤ewe Hammock新尺寸「浅青荔拼」\nHammock 是一款带有柔软侧面包身的多功能手袋,可释放侧面来改变形状。 环状带子可以使手袋有多种佩戴方式。 这个全新的紧凑版本采用柔软粒面牛皮革制成。\n斜挎,肩背或通过顶部提手携带\n可拆卸,可调节肩带\n内部钩扣封口\n两个内部插袋,一个外部拉链口袋\n可以使用肩带和个性化挂饰进行定制\n人字纹棉帆布衬里\nAnagram 压纹\n\n型号:3813\n尺寸:19.5×14.5×20cm","specs":{"source":"wsxcme","sourceId":"_daRaRxkvCc0TnpGFIrTmHLlqGIwis7Ys1udSwCw","sourceTagId":47002713,"sourceTagName":"罗意威/女包","modelNumber":"3813","dimensions":{"lengthCm":19.5,"heightCm":14.5,"widthCm":20},"rawTitle":"原厂皮\nL❤ewe Hammock新尺寸「浅青荔拼」\nHammock 是一款带有柔软侧面包身的多功能手袋,可释放侧面来改变形状。 环状带子可以使手袋有多种佩戴方式。 这个全新的紧凑版本采用柔软粒面牛皮革制成。\n斜挎,肩背或通过顶部提手携带\n可拆卸,可调节肩带\n内部钩扣封口\n两个内部插袋,一个外部拉链口袋\n可以使用肩带和个性化挂饰进行定制\n人字纹棉帆布衬里\nAnagram 压纹\n\n型号:3813\n尺寸:19.5×14.5×20cm"},"price":null,"currency":"CNY","moq":1,"category":"loewe-women-bags","status":"active","alibaba_url":null,"images":["https://xcimg.szwego.com/20250310/i1741594949_623_0.jpg","https://xcimg.szwego.com/20250310/i1741594949_6347_1.jpg","https://xcimg.szwego.com/20250310/i1741594949_9357_2.jpg","https://xcimg.szwego.com/20250310/i1741594949_2669_3.jpg","https://xcimg.szwego.com/20250310/i1741594949_5180_4.jpg","https://xcimg.szwego.com/20250310/i1741594949_2270_5.jpg","https://xcimg.szwego.com/20250310/i1741594949_6252_6.jpg","https://xcimg.szwego.com/20250310/i1741594949_7111_7.jpg","https://xcimg.szwego.com/20250310/i1741594949_8194_8.jpg"],"created_at":"2025-08-03T04:49:31.464Z"}],"page":103,"pageSize":24,"total":10075,"totalPages":420}
