{"items":[{"id":"item-dd45e922985c","sku":"_d92925jb3RPJ4vdmL8RuEJcpIikAWHzcXhIVIFQ","name_en":"Top-tier replica M82717 Magenta Mini Shell Bag Series New launch Nano Alma Handbag. Recreating the iconic Alma bag in a miniature Nano Alma version. Louis Vuitton's signature Monogram canvas material coordinated with natural leather trim. A meticulously crafted piece combining traditional charm and modern functionality. Opening the double zipper reveals a surprisingly spacious interior design. Utilizing two leather handles and an adjustable detachable shoulder strap, it can be styled in multiple ways. Dimensions: 18 x 12 x 8 cm","name_cn":"Top-tier replica M82717 Magenta Mini Shell Bag Series New launch Nano Alma Handbag. Recreating the iconic Alma bag in a miniature Nano Alma version. Louis Vuitton's signature Monogram canvas material coordinated with natural leather trim. A meticulously crafted piece combining traditional charm and modern functionality. Opening the double zipper reveals a surprisingly spacious interior design. Utilizing two leather handles and an adjustable detachable shoulder strap, it can be styled in multiple ways. Dimensions: 18 x 12 x 8 cm","specs":{"source":"wsxcme","sourceId":"_d92925jb3RPJ4vdmL8RuEJcpIikAWHzcXhIVIFQ","sourceTagId":47002622,"sourceTagName":"LV/women's bag","dimensions":{"lengthCm":18,"heightCm":12,"widthCm":8},"rawTitle":"Top-tier replica M82717 Magenta Mini Shell Bag Series New launch Nano Alma Handbag. Recreating the iconic Alma bag in a miniature Nano Alma version. Louis Vuitton's signature Monogram canvas material coordinated with natural leather trim. A meticulously crafted piece combining traditional charm and modern functionality. Opening the double zipper reveals a surprisingly spacious interior design. Utilizing two leather handles and an adjustable detachable shoulder strap, it can be styled in multiple ways. Dimensions: 18 x 12 x 8 cm"},"price":null,"currency":"CNY","moq":1,"category":"lv-women-bags","status":"active","alibaba_url":null,"images":["https://xcimg.szwego.com/img/9acee4e0/20240418/i1713449713_2629_0.jpg","https://xcimg.szwego.com/img/9acee4e0/20240418/i1713449713_1068_1.jpg","https://xcimg.szwego.com/img/9acee4e0/20240418/i1713449713_9223_2.jpg","https://xcimg.szwego.com/img/9acee4e0/20240418/i1713449713_2629_3.jpg","https://xcimg.szwego.com/img/9acee4e0/20240418/i1713449713_7725_4.jpg","https://xcimg.szwego.com/img/9acee4e0/20240418/i1713449713_4225_5.jpg","https://xcimg.szwego.com/img/9acee4e0/20240418/i1713449713_7419_6.jpg","https://xcimg.szwego.com/img/9acee4e0/20240418/i1713449713_1229_7.jpg","https://xcimg.szwego.com/img/9acee4e0/20240418/i1713449713_9817_8.jpg"],"created_at":"2024-04-24T05:53:47.146Z"},{"id":"item-b83513ac5761","sku":"_dkIkISe3y8qSDHz4cHnqIg8-AGVQjhrTi97IAjA","name_en":"Top-tier replica M82717 Orange Mini Shell Bag Series New launch Nano Alma Handbag. Recreating the iconic Alma bag in a miniature Nano Alma version. Louis Vuitton's signature Monogram canvas material coordinated with natural leather trim. A meticulously crafted piece combining traditional charm and modern functionality. Opening the double zipper reveals a surprisingly spacious interior design. Utilizing two leather handles and an adjustable detachable shoulder strap, it can be styled in multiple ways. Dimensions: 18 x 12 x 8 cm","name_cn":"Top-tier replica M82717 Orange Mini Shell Bag Series New launch Nano Alma Handbag. Recreating the iconic Alma bag in a miniature Nano Alma version. Louis Vuitton's signature Monogram canvas material coordinated with natural leather trim. A meticulously crafted piece combining traditional charm and modern functionality. Opening the double zipper reveals a surprisingly spacious interior design. Utilizing two leather handles and an adjustable detachable shoulder strap, it can be styled in multiple ways. Dimensions: 18 x 12 x 8 cm","specs":{"source":"wsxcme","sourceId":"_dkIkISe3y8qSDHz4cHnqIg8-AGVQjhrTi97IAjA","sourceTagId":47002622,"sourceTagName":"LV/women's bag","dimensions":{"lengthCm":18,"heightCm":12,"widthCm":8},"rawTitle":"Top-tier replica M82717 Orange Mini Shell Bag Series New launch Nano Alma Handbag. Recreating the iconic Alma bag in a miniature Nano Alma version. Louis Vuitton's signature Monogram canvas material coordinated with natural leather trim. A meticulously crafted piece combining traditional charm and modern functionality. Opening the double zipper reveals a surprisingly spacious interior design. Utilizing two leather handles and an adjustable detachable shoulder strap, it can be styled in multiple ways. Dimensions: 18 x 12 x 8 cm"},"price":null,"currency":"CNY","moq":1,"category":"lv-women-bags","status":"active","alibaba_url":null,"images":["https://xcimg.szwego.com/img/9acee4e0/20240418/i1713449615_7728_0.jpg","https://xcimg.szwego.com/img/9acee4e0/20240418/i1713449615_8638_1.jpg","https://xcimg.szwego.com/img/9acee4e0/20240418/i1713449615_5990_2.jpg","https://xcimg.szwego.com/img/9acee4e0/20240418/i1713449615_4671_3.jpg","https://xcimg.szwego.com/img/9acee4e0/20240418/i1713449615_6357_4.jpg","https://xcimg.szwego.com/img/9acee4e0/20240418/i1713449615_4020_5.jpg","https://xcimg.szwego.com/img/9acee4e0/20240418/i1713449615_8418_6.jpg","https://xcimg.szwego.com/img/9acee4e0/20240418/i1713449615_7046_7.jpg","https://xcimg.szwego.com/img/9acee4e0/20240418/i1713449615_5693_8.jpg"],"created_at":"2024-04-24T05:53:47.145Z"},{"id":"item-d55c11432dd8","sku":"_d9A9Au-iI8OlhSIuxMAFELkKrX8WPAUXuMhoUSw","name_en":"Top-tier replica M82717 Yellow Mini Shell Bag Series New launch Nano Alma Handbag. Recreating the iconic Alma bag in a miniature Nano Alma version. Louis Vuitton's signature Monogram canvas material coordinated with natural leather trim. A meticulously crafted piece combining traditional charm and modern functionality. Opening the double zipper reveals a surprisingly spacious interior design. Utilizing two leather handles and an adjustable detachable shoulder strap, it can be styled in multiple ways. Dimensions: 18 x 12 x 8 cm","name_cn":"Top-tier replica M82717 Yellow Mini Shell Bag Series New launch Nano Alma Handbag. Recreating the iconic Alma bag in a miniature Nano Alma version. Louis Vuitton's signature Monogram canvas material coordinated with natural leather trim. A meticulously crafted piece combining traditional charm and modern functionality. Opening the double zipper reveals a surprisingly spacious interior design. Utilizing two leather handles and an adjustable detachable shoulder strap, it can be styled in multiple ways. Dimensions: 18 x 12 x 8 cm","specs":{"source":"wsxcme","sourceId":"_d9A9Au-iI8OlhSIuxMAFELkKrX8WPAUXuMhoUSw","sourceTagId":47002622,"sourceTagName":"LV/women's bag","dimensions":{"lengthCm":18,"heightCm":12,"widthCm":8},"rawTitle":"Top-tier replica M82717 Yellow Mini Shell Bag Series New launch Nano Alma Handbag. Recreating the iconic Alma bag in a miniature Nano Alma version. Louis Vuitton's signature Monogram canvas material coordinated with natural leather trim. A meticulously crafted piece combining traditional charm and modern functionality. Opening the double zipper reveals a surprisingly spacious interior design. Utilizing two leather handles and an adjustable detachable shoulder strap, it can be styled in multiple ways. Dimensions: 18 x 12 x 8 cm"},"price":null,"currency":"CNY","moq":1,"category":"lv-women-bags","status":"active","alibaba_url":null,"images":["https://xcimg.szwego.com/img/9acee4e0/20240418/i1713449572_2055_0.jpg","https://xcimg.szwego.com/img/9acee4e0/20240418/i1713449572_1087_1.jpg","https://xcimg.szwego.com/img/9acee4e0/20240418/i1713449572_273_2.jpg","https://xcimg.szwego.com/img/9acee4e0/20240418/i1713449572_1586_3.jpg","https://xcimg.szwego.com/img/9acee4e0/20240418/i1713449572_9469_4.jpg","https://xcimg.szwego.com/img/9acee4e0/20240418/i1713449572_3323_5.jpg","https://xcimg.szwego.com/img/9acee4e0/20240418/i1713449572_3214_6.jpg","https://xcimg.szwego.com/img/9acee4e0/20240418/i1713449572_688_7.jpg","https://xcimg.szwego.com/img/9acee4e0/20240418/i1713449572_6621_8.jpg"],"created_at":"2024-04-24T05:53:47.144Z"},{"id":"item-a445640fd8df","sku":"_daEaEle6r-ljfU7rSgrgpvS4bw0xmcrgS5YlCZg","name_en":"Top-tier replica M82717 Green Mini Shell Bag Series New launch Nano Alma Handbag. Recreating the iconic Alma bag in a miniature Nano Alma version. Louis Vuitton's signature Monogram canvas material coordinated with natural leather trim. A meticulously crafted piece combining traditional charm and modern functionality. Opening the double zipper reveals a surprisingly spacious interior design. Utilizing two leather handles and an adjustable detachable shoulder strap, it can be styled in multiple ways. Dimensions: 18 x 12 x 8 cm","name_cn":"Top-tier replica M82717 Green Mini Shell Bag Series New launch Nano Alma Handbag. Recreating the iconic Alma bag in a miniature Nano Alma version. Louis Vuitton's signature Monogram canvas material coordinated with natural leather trim. A meticulously crafted piece combining traditional charm and modern functionality. Opening the double zipper reveals a surprisingly spacious interior design. Utilizing two leather handles and an adjustable detachable shoulder strap, it can be styled in multiple ways. Dimensions: 18 x 12 x 8 cm","specs":{"source":"wsxcme","sourceId":"_daEaEle6r-ljfU7rSgrgpvS4bw0xmcrgS5YlCZg","sourceTagId":47002622,"sourceTagName":"LV/women's bag","dimensions":{"lengthCm":18,"heightCm":12,"widthCm":8},"rawTitle":"Top-tier replica M82717 Green Mini Shell Bag Series New launch Nano Alma Handbag. Recreating the iconic Alma bag in a miniature Nano Alma version. Louis Vuitton's signature Monogram canvas material coordinated with natural leather trim. A meticulously crafted piece combining traditional charm and modern functionality. Opening the double zipper reveals a surprisingly spacious interior design. Utilizing two leather handles and an adjustable detachable shoulder strap, it can be styled in multiple ways. Dimensions: 18 x 12 x 8 cm"},"price":null,"currency":"CNY","moq":1,"category":"lv-women-bags","status":"active","alibaba_url":null,"images":["https://xcimg.szwego.com/img/9acee4e0/20240418/i1713449498_7254_0.jpg","https://xcimg.szwego.com/img/9acee4e0/20240418/i1713449498_8375_1.jpg","https://xcimg.szwego.com/img/9acee4e0/20240418/i1713449498_6638_2.jpg","https://xcimg.szwego.com/img/9acee4e0/20240418/i1713449498_4128_3.jpg","https://xcimg.szwego.com/img/9acee4e0/20240418/i1713449498_2996_4.jpg","https://xcimg.szwego.com/img/9acee4e0/20240418/i1713449498_244_5.jpg","https://xcimg.szwego.com/img/9acee4e0/20240418/i1713449498_1394_6.jpg","https://xcimg.szwego.com/img/9acee4e0/20240418/i1713449498_8115_7.jpg","https://xcimg.szwego.com/img/9acee4e0/20240418/i1713449498_182_8.jpg"],"created_at":"2024-04-24T05:53:47.143Z"},{"id":"item-6a41d7c477e8","sku":"_djPjPMa61kJxUrE5WuxrK4xR0x3QcVYFmdvDJcA","name_en":"Top-tier replica M24206 This Speedy Bandouliere 25 bag is crafted from soft lambskin leather, featuring a diamond quilting pattern for a visual impact. It is accented with glossy metal hardware and a classic key pouch. The embossed leather handle and detachable, adjustable leather shoulder strap upgrade the carrying experience. Dimensions: 25 × 19 × 15 cm","name_cn":"Top-tier replica M24206 This Speedy Bandouliere 25 bag is crafted from soft lambskin leather, featuring a diamond quilting pattern for a visual impact. It is accented with glossy metal hardware and a classic key pouch. The embossed leather handle and detachable, adjustable leather shoulder strap upgrade the carrying experience. Dimensions: 25 × 19 × 15 cm","specs":{"source":"wsxcme","sourceId":"_djPjPMa61kJxUrE5WuxrK4xR0x3QcVYFmdvDJcA","sourceTagId":47002622,"sourceTagName":"LV/women's bag","dimensions":{"lengthCm":25,"heightCm":19,"widthCm":15},"rawTitle":"Top-tier replica M24206 This Speedy Bandouliere 25 bag is crafted from soft lambskin leather, featuring a diamond quilting pattern for a visual impact. It is accented with glossy metal hardware and a classic key pouch. The embossed leather handle and detachable, adjustable leather shoulder strap upgrade the carrying experience. Dimensions: 25 × 19 × 15 cm"},"price":null,"currency":"CNY","moq":1,"category":"lv-women-bags","status":"active","alibaba_url":null,"images":["https://xcimg.szwego.com/img/9acee4e0/20240415/i1713172025_4386_0.jpg","https://xcimg.szwego.com/img/9acee4e0/20240415/i1713172025_2256_1.jpg","https://xcimg.szwego.com/img/9acee4e0/20240415/i1713172025_522_2.jpg","https://xcimg.szwego.com/img/9acee4e0/20240415/i1713172025_6452_3.jpg","https://xcimg.szwego.com/img/9acee4e0/20240415/i1713172025_3769_4.jpg","https://xcimg.szwego.com/img/9acee4e0/20240415/i1713172025_9011_5.jpg","https://xcimg.szwego.com/img/9acee4e0/20240415/i1713172025_8145_6.jpg","https://xcimg.szwego.com/img/9acee4e0/20240415/i1713172025_4094_7.jpg","https://xcimg.szwego.com/img/9acee4e0/20240415/i1713172025_2841_8.jpg"],"created_at":"2024-04-24T05:53:47.142Z"},{"id":"item-f5bcac5949e1","sku":"_dkYkYdOdsS-A2OaRBfzAquRmgV0toYWG1_3dEaw","name_en":"Top-tier replica M24153 Black This Alma BB bag features grained lambskin leather punctuated by glossy diamond studs, cleverly referencing the brand's hard case stitching interior design. The embossed leather handle and detachable, adjustable shoulder strap ensure comfortable carrying. Dimensions: 23.5 × 17.5 × 11.5 cm","name_cn":"Top-tier replica M24153 Black This Alma BB bag features grained lambskin leather punctuated by glossy diamond studs, cleverly referencing the brand's hard case stitching interior design. The embossed leather handle and detachable, adjustable shoulder strap ensure comfortable carrying. Dimensions: 23.5 × 17.5 × 11.5 cm","specs":{"source":"wsxcme","sourceId":"_dkYkYdOdsS-A2OaRBfzAquRmgV0toYWG1_3dEaw","sourceTagId":47002622,"sourceTagName":"LV/women's bag","dimensions":{"lengthCm":23.5,"heightCm":17.5,"widthCm":11.5},"rawTitle":"Top-tier replica M24153 Black This Alma BB bag features grained lambskin leather punctuated by glossy diamond studs, cleverly referencing the brand's hard case stitching interior design. The embossed leather handle and detachable, adjustable shoulder strap ensure comfortable carrying. Dimensions: 23.5 × 17.5 × 11.5 cm"},"price":null,"currency":"CNY","moq":1,"category":"lv-women-bags","status":"active","alibaba_url":null,"images":["https://xcimg.szwego.com/img/9acee4e0/20240415/i1713171932_6382_0.jpg","https://xcimg.szwego.com/img/9acee4e0/20240415/i1713171932_3145_1.jpg","https://xcimg.szwego.com/img/9acee4e0/20240415/i1713171932_7079_2.jpg","https://xcimg.szwego.com/img/9acee4e0/20240415/i1713171932_1851_3.jpg","https://xcimg.szwego.com/img/9acee4e0/20240415/i1713171932_8466_4.jpg","https://xcimg.szwego.com/img/9acee4e0/20240415/i1713171932_7467_5.jpg","https://xcimg.szwego.com/img/9acee4e0/20240415/i1713171932_9412_6.jpg","https://xcimg.szwego.com/img/9acee4e0/20240415/i1713171932_4963_7.jpg","https://xcimg.szwego.com/img/9acee4e0/20240415/i1713171932_1381_8.jpg"],"created_at":"2024-04-24T05:53:47.141Z"},{"id":"item-b933057cd5da","sku":"_d8_8_f4s2mLgzGqu3XujZjkRcAhoPVLSEzgwmLQ","name_en":"Top-tier replica M24153 Apricot This Alma BB bag features grained lambskin leather punctuated by glossy diamond studs, cleverly referencing the brand's hard case stitching interior design. The embossed leather handle and detachable, adjustable shoulder strap ensure comfortable carrying. Dimensions: 23.5 × 17.5 × 11.5 cm","name_cn":"Top-tier replica M24153 Apricot This Alma BB bag features grained lambskin leather punctuated by glossy diamond studs, cleverly referencing the brand's hard case stitching interior design. The embossed leather handle and detachable, adjustable shoulder strap ensure comfortable carrying. Dimensions: 23.5 × 17.5 × 11.5 cm","specs":{"source":"wsxcme","sourceId":"_d8_8_f4s2mLgzGqu3XujZjkRcAhoPVLSEzgwmLQ","sourceTagId":47002622,"sourceTagName":"LV/women's bag","dimensions":{"lengthCm":23.5,"heightCm":17.5,"widthCm":11.5},"rawTitle":"Top-tier replica M24153 Apricot This Alma BB bag features grained lambskin leather punctuated by glossy diamond studs, cleverly referencing the brand's hard case stitching interior design. The embossed leather handle and detachable, adjustable shoulder strap ensure comfortable carrying. Dimensions: 23.5 × 17.5 × 11.5 cm"},"price":null,"currency":"CNY","moq":1,"category":"lv-women-bags","status":"active","alibaba_url":null,"images":["https://xcimg.szwego.com/img/9acee4e0/20240415/i1713171895_6310_0.jpg","https://xcimg.szwego.com/img/9acee4e0/20240415/i1713171895_8630_1.jpg","https://xcimg.szwego.com/img/9acee4e0/20240415/i1713171895_4835_2.jpg","https://xcimg.szwego.com/img/9acee4e0/20240415/i1713171895_7354_3.jpg","https://xcimg.szwego.com/img/9acee4e0/20240415/i1713171895_9669_4.jpg","https://xcimg.szwego.com/img/9acee4e0/20240415/i1713171895_8305_5.jpg","https://xcimg.szwego.com/img/9acee4e0/20240415/i1713171895_3679_6.jpg","https://xcimg.szwego.com/img/9acee4e0/20240415/i1713171895_6277_7.jpg","https://xcimg.szwego.com/img/9acee4e0/20240415/i1713171895_7139_8.jpg"],"created_at":"2024-04-24T05:53:47.140Z"},{"id":"item-5146cd66bab1","sku":"_dlklkzy4WJSMBsSHse45CW66CyknJVj2ze4vYcQ","name_en":"Top-tier replica M24261 Cream This Speedy Bandouliere 20 bag is made of soft lambskin leather in a subtle tone, with a contrasting Malletage diamond quilt pattern to enhance the visual effect. The Toron handle and detachable chain leather shoulder strap expand carrying options, while the metal lock and double zipper closure add functional details. Dimensions: 20.5 × 13.5 × 12 cm","name_cn":"Top-tier replica M24261 Cream This Speedy Bandouliere 20 bag is made of soft lambskin leather in a subtle tone, with a contrasting Malletage diamond quilt pattern to enhance the visual effect. The Toron handle and detachable chain leather shoulder strap expand carrying options, while the metal lock and double zipper closure add functional details. Dimensions: 20.5 × 13.5 × 12 cm","specs":{"source":"wsxcme","sourceId":"_dlklkzy4WJSMBsSHse45CW66CyknJVj2ze4vYcQ","sourceTagId":47002622,"sourceTagName":"LV/women's bag","dimensions":{"lengthCm":20.5,"heightCm":13.5,"widthCm":12},"rawTitle":"Top-tier replica M24261 Cream This Speedy Bandouliere 20 bag is made of soft lambskin leather in a subtle tone, with a contrasting Malletage diamond quilt pattern to enhance the visual effect. The Toron handle and detachable chain leather shoulder strap expand carrying options, while the metal lock and double zipper closure add functional details. Dimensions: 20.5 × 13.5 × 12 cm"},"price":null,"currency":"CNY","moq":1,"category":"lv-women-bags","status":"active","alibaba_url":null,"images":["https://xcimg.szwego.com/img/9acee4e0/20240413/i1712999314_807_0.jpg","https://xcimg.szwego.com/img/9acee4e0/20240413/i1712999314_8901_1.jpg","https://xcimg.szwego.com/img/9acee4e0/20240413/i1712999314_6616_2.jpg","https://xcimg.szwego.com/img/9acee4e0/20240413/i1712999314_1590_3.jpg","https://xcimg.szwego.com/img/9acee4e0/20240413/i1712999314_6480_4.jpg","https://xcimg.szwego.com/img/9acee4e0/20240413/i1712999314_6400_5.jpg","https://xcimg.szwego.com/img/9acee4e0/20240413/i1712999314_2218_6.jpg","https://xcimg.szwego.com/img/9acee4e0/20240413/i1712999314_9015_7.jpg","https://xcimg.szwego.com/img/9acee4e0/20240413/i1712999314_6165_8.jpg"],"created_at":"2024-04-24T05:53:47.139Z"},{"id":"item-ba162a17bfc8","sku":"_dsxsxaGkifJvlSdO5hRDkyqrcUoz_lGst4WSxhg","name_en":"Top-tier replica M24261 Black This Speedy Bandouliere 20 bag is made of soft lambskin leather in a subtle tone, with a contrasting Malletage diamond quilt pattern to enhance the visual effect. The Toron handle and detachable chain leather shoulder strap expand carrying options, while the metal lock and double zipper closure add functional details. Dimensions: 20.5 × 13.5 × 12 cm","name_cn":"Top-tier replica M24261 Black This Speedy Bandouliere 20 bag is made of soft lambskin leather in a subtle tone, with a contrasting Malletage diamond quilt pattern to enhance the visual effect. The Toron handle and detachable chain leather shoulder strap expand carrying options, while the metal lock and double zipper closure add functional details. Dimensions: 20.5 × 13.5 × 12 cm","specs":{"source":"wsxcme","sourceId":"_dsxsxaGkifJvlSdO5hRDkyqrcUoz_lGst4WSxhg","sourceTagId":47002622,"sourceTagName":"LV/women's bag","dimensions":{"lengthCm":20.5,"heightCm":13.5,"widthCm":12},"rawTitle":"Top-tier replica M24261 Black This Speedy Bandouliere 20 bag is made of soft lambskin leather in a subtle tone, with a contrasting Malletage diamond quilt pattern to enhance the visual effect. The Toron handle and detachable chain leather shoulder strap expand carrying options, while the metal lock and double zipper closure add functional details. Dimensions: 20.5 × 13.5 × 12 cm"},"price":null,"currency":"CNY","moq":1,"category":"lv-women-bags","status":"active","alibaba_url":null,"images":["https://xcimg.szwego.com/img/9acee4e0/20240413/i1712999266_4216_0.jpg","https://xcimg.szwego.com/img/9acee4e0/20240413/i1712999266_1267_1.jpg","https://xcimg.szwego.com/img/9acee4e0/20240413/i1712999266_304_2.jpg","https://xcimg.szwego.com/img/9acee4e0/20240413/i1712999266_4091_3.jpg","https://xcimg.szwego.com/img/9acee4e0/20240413/i1712999266_4088_4.jpg","https://xcimg.szwego.com/img/9acee4e0/20240413/i1712999266_3664_5.jpg","https://xcimg.szwego.com/img/9acee4e0/20240413/i1712999266_5287_6.jpg","https://xcimg.szwego.com/img/9acee4e0/20240413/i1712999266_5953_7.jpg","https://xcimg.szwego.com/img/9acee4e0/20240413/i1712999266_3832_8.jpg"],"created_at":"2024-04-24T05:53:47.138Z"}],"page":414,"pageSize":24,"total":9921,"totalPages":414}
