{"items":[{"id":"item-6899284c6dd5","sku":"_dMPMPrmnC9jYo1RD4i_jfBPHKBtNRYgZ1gLwoZA","name_en":"Burberry Women Bags","name_cn":"在看一下进口烫金➕独有防伪编码 水洗麦!","specs":{"source":"wsxcme","sourceId":"_dMPMPrmnC9jYo1RD4i_jfBPHKBtNRYgZ1gLwoZA","sourceTagId":80411239,"sourceTagName":"巴宝莉/女包","rawTitle":"在看一下进口烫金➕独有防伪编码 水洗麦!"},"price":null,"currency":"CNY","moq":1,"category":"burberry-women-bags","status":"active","alibaba_url":null,"images":["https://xcimg.szwego.com/20220323/i1648016837_9606_0.jpg","https://xcimg.szwego.com/20220323/i1648016837_589_1.jpg","https://xcimg.szwego.com/20220323/i1648016837_8565_2.jpg","https://xcimg.szwego.com/20220323/i1648016837_4376_3.jpg","https://xcimg.szwego.com/20220323/i1648016837_4975_4.jpg"],"created_at":"2026-06-29T10:27:59.112Z"},{"id":"item-5ba0b1aef2a1","sku":"_dYNYNTb-oolDduwRnqj0Gs7_4bYHpvHVaa3ebCg","name_en":"Burberry Women Bags","name_cn":"在看一下原厂光面小牛皮,上手触摸平滑舒适,光泽度质感非常棒,用料很厚实,走线做工精致 !","specs":{"source":"wsxcme","sourceId":"_dYNYNTb-oolDduwRnqj0Gs7_4bYHpvHVaa3ebCg","sourceTagId":80411239,"sourceTagName":"巴宝莉/女包","rawTitle":"在看一下原厂光面小牛皮,上手触摸平滑舒适,光泽度质感非常棒,用料很厚实,走线做工精致 !"},"price":null,"currency":"CNY","moq":1,"category":"burberry-women-bags","status":"active","alibaba_url":null,"images":["https://xcimg.szwego.com/20220323/i1648016809_1579_0.jpg","https://xcimg.szwego.com/20220323/i1648016809_4151_1.jpg","https://xcimg.szwego.com/20220323/i1648016809_9915_2.jpg","https://xcimg.szwego.com/20220323/i1648016809_3688_3.jpg","https://xcimg.szwego.com/20220323/i1648016809_9172_4.jpg","https://xcimg.szwego.com/20220323/i1648016809_139_5.jpg"],"created_at":"2026-06-29T10:27:59.102Z"},{"id":"item-fdd6fa13bd63","sku":"_dyNyNxFj9z9Ey0yiaoer5nhfH5vlsuQHJZekpkQ","name_en":"Burberry Women Bags","name_cn":"在看一下五金 特供原厂五金,真金厚电镀工艺,五金字体清晰度非常精美,更多细节补充!","specs":{"source":"wsxcme","sourceId":"_dyNyNxFj9z9Ey0yiaoer5nhfH5vlsuQHJZekpkQ","sourceTagId":80411239,"sourceTagName":"巴宝莉/女包","rawTitle":"在看一下五金 特供原厂五金,真金厚电镀工艺,五金字体清晰度非常精美,更多细节补充!"},"price":null,"currency":"CNY","moq":1,"category":"burberry-women-bags","status":"active","alibaba_url":null,"images":["https://xcimg.szwego.com/20220323/i1648016790_3537_0.jpg","https://xcimg.szwego.com/20220323/i1648016790_1842_1.jpg","https://xcimg.szwego.com/20220323/i1648016790_6826_2.jpg","https://xcimg.szwego.com/20220323/i1648016790_6237_3.jpg","https://xcimg.szwego.com/20220323/i1648016790_7281_4.jpg","https://xcimg.szwego.com/20220323/i1648016790_4357_5.jpg","https://xcimg.szwego.com/20220323/i1648016790_5099_6.jpg"],"created_at":"2026-06-29T10:27:59.092Z"},{"id":"item-0002a93a6c05","sku":"_dhYhY6JkHoX_jNtWP2LC-KT8FMVwnFFThY6PBQw","name_en":"❤️B家纯原包身采用进口定制光滑意大利鞣制的缉明线小牛皮打造,,皮質柔軟光澤,皮紋清晰,手感特別舒服,整體看去非常高級,正面裝飾 Thomas Burberry 專屬金色五金Logo,搭配皮革包覆的镜子吊饰,非常低调又有标识性。开放式敞口设计,配有龙虾扣,帆布的内里,有贴袋和拉链内袋,容量极大,里面再放个包都没问题,背着还很舒服不累。出门旅馆,工作出差都OK","name_cn":"❤️B家纯原包身采用进口定制光滑意大利鞣制的缉明线小牛皮打造,,皮質柔軟光澤,皮紋清晰,手感特別舒服,整體看去非常高級,正面裝飾 Thomas Burberry 專屬金色五金Logo,搭配皮革包覆的镜子吊饰,非常低调又有标识性。开放式敞口设计,配有龙虾扣,帆布的内里,有贴袋和拉链内袋,容量极大,里面再放个包都没问题,背着还很舒服不累。出门旅馆,工作出差都OK,怎么背都好看,具有独特的慵懒复古风,上街凹造型神器。而且这种包包特别耐用耐脏不过时。背起相当显气质,非常实用的款,一年四季都适用,错过拍大腿!姐妹们,冲冲冲!尺寸:34X28X14cm","specs":{"source":"wsxcme","sourceId":"_dhYhY6JkHoX_jNtWP2LC-KT8FMVwnFFThY6PBQw","sourceTagId":80411239,"sourceTagName":"巴宝莉/女包","dimensions":{"lengthCm":34,"heightCm":28,"widthCm":14},"rawTitle":"❤️B家纯原包身采用进口定制光滑意大利鞣制的缉明线小牛皮打造,,皮質柔軟光澤,皮紋清晰,手感特別舒服,整體看去非常高級,正面裝飾 Thomas Burberry 專屬金色五金Logo,搭配皮革包覆的镜子吊饰,非常低调又有标识性。开放式敞口设计,配有龙虾扣,帆布的内里,有贴袋和拉链内袋,容量极大,里面再放个包都没问题,背着还很舒服不累。出门旅馆,工作出差都OK,怎么背都好看,具有独特的慵懒复古风,上街凹造型神器。而且这种包包特别耐用耐脏不过时。背起相当显气质,非常实用的款,一年四季都适用,错过拍大腿!姐妹们,冲冲冲!尺寸:34X28X14cm"},"price":null,"currency":"CNY","moq":1,"category":"burberry-women-bags","status":"active","alibaba_url":null,"images":["https://xcimg.szwego.com/20220323/i1648016767_5079_0.jpg","https://xcimg.szwego.com/20220323/i1648016767_1417_1.jpg","https://xcimg.szwego.com/20220323/i1648016767_9700_2.jpg","https://xcimg.szwego.com/20220323/i1648016767_5579_3.jpg","https://xcimg.szwego.com/20220323/i1648016767_9588_4.jpg","https://xcimg.szwego.com/20220323/i1648016767_3481_5.jpg","https://xcimg.szwego.com/20220323/i1648016767_57_6.jpg","https://xcimg.szwego.com/20220323/i1648016767_2437_7.jpg","https://xcimg.szwego.com/20220323/i1648016767_1693_8.jpg"],"created_at":"2026-06-29T10:27:59.082Z"},{"id":"item-026a4bca0e37","sku":"_dprprev4WYJ7YBpYjN_Lhqe47HAAliTqnQhEu7g","name_en":"Burberry Women Bags","name_cn":"上身效果图!","specs":{"source":"wsxcme","sourceId":"_dprprev4WYJ7YBpYjN_Lhqe47HAAliTqnQhEu7g","sourceTagId":80411239,"sourceTagName":"巴宝莉/女包","rawTitle":"上身效果图!"},"price":null,"currency":"CNY","moq":1,"category":"burberry-women-bags","status":"active","alibaba_url":null,"images":["https://xcimg.szwego.com/20220323/i1648017377_4125_0.jpg","https://xcimg.szwego.com/20220323/i1648017377_6592_1.jpg","https://xcimg.szwego.com/20220323/i1648017377_8825_2.jpg","https://xcimg.szwego.com/20220323/i1648017377_1459_3.jpg","https://xcimg.szwego.com/20220323/i1648017377_5660_4.jpg"],"created_at":"2026-06-29T10:27:59.072Z"},{"id":"item-6e708ce6338a","sku":"_diSiS-xHX3dQ7wVJCV1GMcTl7xYNgU3oJp4xgqQ","name_en":"Burberry Women Bags","name_cn":"官网 售价!","specs":{"source":"wsxcme","sourceId":"_diSiS-xHX3dQ7wVJCV1GMcTl7xYNgU3oJp4xgqQ","sourceTagId":80411239,"sourceTagName":"巴宝莉/女包","rawTitle":"官网 售价!"},"price":null,"currency":"CNY","moq":1,"category":"burberry-women-bags","status":"active","alibaba_url":null,"images":["https://xcimg.szwego.com/20220323/i1648017355_9999_0.jpg"],"created_at":"2026-06-29T10:27:59.062Z"},{"id":"item-420b583a9170","sku":"_dYWYW1rYeHm217RaARU18xUq_13snhqThnSLv0g","name_en":"Burberry Women Bags","name_cn":"官网图","specs":{"source":"wsxcme","sourceId":"_dYWYW1rYeHm217RaARU18xUq_13snhqThnSLv0g","sourceTagId":80411239,"sourceTagName":"巴宝莉/女包","rawTitle":"官网图"},"price":null,"currency":"CNY","moq":1,"category":"burberry-women-bags","status":"active","alibaba_url":null,"images":["https://xcimg.szwego.com/20220323/i1648017340_3435_0.jpg","https://xcimg.szwego.com/20220323/i1648017340_4763_1.jpg","https://xcimg.szwego.com/20220323/i1648017340_6094_2.jpg","https://xcimg.szwego.com/20220323/i1648017340_1335_3.jpg","https://xcimg.szwego.com/20220323/i1648017340_3847_4.jpg"],"created_at":"2026-06-29T10:27:59.052Z"},{"id":"item-a75195d95197","sku":"_dqeqeJ1d6CC5L_rJ6ydqkZwtRFbx4eBArmTS1qA","name_en":"B家精制托特包,版型精巧,选用格纹及缉明线皮革材质打造。可使用顶部提柄手拎,或使用可调式斜背带携带。此件精品的主要材料中至少 30% 来自生物基材料。生物基材料主要来源于植物和蓖麻油等可再生自然资源。23 x 8 x 19cm顶部皮革提柄.可调式斜背带.1个磁扣开合翻盖外袋;1个内侧插袋.按扣开合.手绘涂漆边缘.光泽金属配件.行李吊牌","name_cn":"B家精制托特包,版型精巧,选用格纹及缉明线皮革材质打造。可使用顶部提柄手拎,或使用可调式斜背带携带。此件精品的主要材料中至少 30% 来自生物基材料。生物基材料主要来源于植物和蓖麻油等可再生自然资源。23 x 8 x 19cm顶部皮革提柄.可调式斜背带.1个磁扣开合翻盖外袋;1个内侧插袋.按扣开合.手绘涂漆边缘.光泽金属配件.行李吊牌","specs":{"source":"wsxcme","sourceId":"_dqeqeJ1d6CC5L_rJ6ydqkZwtRFbx4eBArmTS1qA","sourceTagId":80411239,"sourceTagName":"巴宝莉/女包","rawTitle":"B家精制托特包,版型精巧,选用格纹及缉明线皮革材质打造。可使用顶部提柄手拎,或使用可调式斜背带携带。此件精品的主要材料中至少 30% 来自生物基材料。生物基材料主要来源于植物和蓖麻油等可再生自然资源。23 x 8 x 19cm顶部皮革提柄.可调式斜背带.1个磁扣开合翻盖外袋;1个内侧插袋.按扣开合.手绘涂漆边缘.光泽金属配件.行李吊牌"},"price":null,"currency":"CNY","moq":1,"category":"burberry-women-bags","status":"active","alibaba_url":null,"images":["https://xcimg.szwego.com/20220428/i1651128723_7145_0.jpg","https://xcimg.szwego.com/20220428/i1651128723_7467_1.jpg","https://xcimg.szwego.com/20220428/i1651128723_6503_2.jpg","https://xcimg.szwego.com/20220428/i1651128723_9906_3.jpg","https://xcimg.szwego.com/20220428/i1651128723_2858_4.jpg","https://xcimg.szwego.com/20220428/i1651128723_4789_5.jpg","https://xcimg.szwego.com/20220428/i1651128723_4005_6.jpg","https://xcimg.szwego.com/20220428/i1651128723_3716_7.jpg","https://xcimg.szwego.com/20220428/i1651128723_1123_8.jpg"],"created_at":"2026-06-29T10:27:59.042Z"},{"id":"item-6c651953758d","sku":"_dS5S5_BN3XMzEGKaJDGhwmCj5mg4-sQiPe-1YDg","name_en":"Burberry Women Bags","name_cn":"现货","specs":{"source":"wsxcme","sourceId":"_dS5S5_BN3XMzEGKaJDGhwmCj5mg4-sQiPe-1YDg","sourceTagId":80411239,"sourceTagName":"巴宝莉/女包","rawTitle":"现货"},"price":null,"currency":"CNY","moq":1,"category":"burberry-women-bags","status":"active","alibaba_url":null,"images":["https://xcimg.szwego.com/img/d5e7a5ce/20251105/a1762314519120_5185.jpg","https://xcimg.szwego.com/img/d5e7a5ce/20251105/a1762314519125_1221.jpg","https://xcimg.szwego.com/img/d5e7a5ce/20251105/a1762314519122_8785.jpg","https://xcimg.szwego.com/img/d5e7a5ce/20251105/a1762314519118_1760.jpg","https://xcimg.szwego.com/img/d5e7a5ce/20251105/a1762314519119_6406.jpg","https://xcimg.szwego.com/img/d5e7a5ce/20251105/a1762314519124_1514.jpg","https://xcimg.szwego.com/img/d5e7a5ce/20251105/a1762314519568_1364.jpg","https://xcimg.szwego.com/img/d5e7a5ce/20251105/a1762314519569_3447.jpg","https://xcimg.szwego.com/img/d5e7a5ce/20251105/a1762314519570_4052.jpg"],"created_at":"2026-06-29T10:27:59.032Z"},{"id":"item-3a8b308791b1","sku":"_dJwJwskEp4qPh5HDqu_246xmlyAKT5zh5KPrOeQ","name_en":"Burberry Women Bags","name_cn":"现货","specs":{"source":"wsxcme","sourceId":"_dJwJwskEp4qPh5HDqu_246xmlyAKT5zh5KPrOeQ","sourceTagId":80411239,"sourceTagName":"巴宝莉/女包","rawTitle":"现货"},"price":null,"currency":"CNY","moq":1,"category":"burberry-women-bags","status":"active","alibaba_url":null,"images":["https://xcimg.szwego.com/img/d5e7a5ce/20251105/a1762314496226_1165.jpg","https://xcimg.szwego.com/img/d5e7a5ce/20251105/a1762314496225_4605.jpg","https://xcimg.szwego.com/img/d5e7a5ce/20251105/a1762314496227_1438.jpg","https://xcimg.szwego.com/img/d5e7a5ce/20251105/a1762314496229_1843.jpg","https://xcimg.szwego.com/img/d5e7a5ce/20251105/a1762314496228_2381.jpg","https://xcimg.szwego.com/img/d5e7a5ce/20251105/a1762314496228_4156.jpg","https://xcimg.szwego.com/img/d5e7a5ce/20251105/a1762314496789_0424.jpg","https://xcimg.szwego.com/img/d5e7a5ce/20251105/a1762314496785_4853.jpg"],"created_at":"2026-06-29T10:27:59.022Z"},{"id":"item-bf01552fe950","sku":"_dufuf1nRgdtSdgtP65WnHH1R22hjwCB0QG8lcmw","name_en":"❤️B家最新格纹挎包💕肩带长短可以自动调节,单肩斜挎包手拿,随心所欲  进口小牛皮拼帆布格纹实用性超绝, 小号足够日常携带随身物品~~尺寸20x4x13","name_cn":"❤️B家最新格纹挎包💕肩带长短可以自动调节,单肩斜挎包手拿,随心所欲  进口小牛皮拼帆布格纹实用性超绝, 小号足够日常携带随身物品~~尺寸20x4x13","specs":{"source":"wsxcme","sourceId":"_dufuf1nRgdtSdgtP65WnHH1R22hjwCB0QG8lcmw","sourceTagId":80411239,"sourceTagName":"巴宝莉/女包","rawTitle":"❤️B家最新格纹挎包💕肩带长短可以自动调节,单肩斜挎包手拿,随心所欲  进口小牛皮拼帆布格纹实用性超绝, 小号足够日常携带随身物品~~尺寸20x4x13"},"price":null,"currency":"CNY","moq":1,"category":"burberry-women-bags","status":"active","alibaba_url":null,"images":["https://xcimg.szwego.com/img/d5e7a5ce/20251105/a1762314450195_8341.jpg","https://xcimg.szwego.com/img/d5e7a5ce/20251105/a1762314450199_8461.jpg","https://xcimg.szwego.com/img/d5e7a5ce/20251105/a1762314450195_8707.jpg","https://xcimg.szwego.com/img/d5e7a5ce/20251105/a1762314450196_2052.jpg","https://xcimg.szwego.com/img/d5e7a5ce/20251105/a1762314450199_7141.jpg","https://xcimg.szwego.com/img/d5e7a5ce/20251105/a1762314450198_2282.jpg","https://xcimg.szwego.com/img/d5e7a5ce/20251105/a1762314450851_3827.jpg","https://xcimg.szwego.com/img/d5e7a5ce/20251105/a1762314450850_6775.jpg","https://xcimg.szwego.com/img/d5e7a5ce/20251105/a1762314450852_8356.jpg"],"created_at":"2026-06-29T10:27:59.012Z"},{"id":"item-4b29f05abe88","sku":"_d-I-IgmhIIKlaS_9FtNqqVlsFyIRVJMmB9BNc4g","name_en":"Burberry Women Bags","name_cn":"小号足够日常携带随身物品~~","specs":{"source":"wsxcme","sourceId":"_d-I-IgmhIIKlaS_9FtNqqVlsFyIRVJMmB9BNc4g","sourceTagId":80411239,"sourceTagName":"巴宝莉/女包","rawTitle":"小号足够日常携带随身物品~~"},"price":null,"currency":"CNY","moq":1,"category":"burberry-women-bags","status":"active","alibaba_url":null,"images":["https://xcimg.szwego.com/img/d5e7a5ce/20251105/a1762314395307_5136.jpg","https://xcimg.szwego.com/img/d5e7a5ce/20251105/a1762314395307_4006.jpg","https://xcimg.szwego.com/img/d5e7a5ce/20251105/a1762314395309_5308.jpg","https://xcimg.szwego.com/img/d5e7a5ce/20251105/a1762314395309_4258.jpg","https://xcimg.szwego.com/img/d5e7a5ce/20251105/a1762314395310_2250.jpg","https://xcimg.szwego.com/img/d5e7a5ce/20251105/a1762314395309_7111.jpg","https://xcimg.szwego.com/img/d5e7a5ce/20251105/a1762314395862_4446.jpg","https://xcimg.szwego.com/img/d5e7a5ce/20251105/a1762314395861_0334.jpg","https://xcimg.szwego.com/img/d5e7a5ce/20251105/a1762314395864_8108.jpg"],"created_at":"2026-06-29T10:27:59.002Z"},{"id":"item-6c72ca4e5808","sku":"_drjrjlUn127o268hgfesskaTAVfWyD78d1IOx5A","name_en":"❤️B家最新格纹挎包💕肩带长短可以自动调节,单肩斜挎包手拿,随心所欲  进口小牛皮拼帆布格纹实用性超绝, 小号足够日常携带随身物品~~尺寸20x4x13","name_cn":"❤️B家最新格纹挎包💕肩带长短可以自动调节,单肩斜挎包手拿,随心所欲  进口小牛皮拼帆布格纹实用性超绝, 小号足够日常携带随身物品~~尺寸20x4x13","specs":{"source":"wsxcme","sourceId":"_drjrjlUn127o268hgfesskaTAVfWyD78d1IOx5A","sourceTagId":80411239,"sourceTagName":"巴宝莉/女包","rawTitle":"❤️B家最新格纹挎包💕肩带长短可以自动调节,单肩斜挎包手拿,随心所欲  进口小牛皮拼帆布格纹实用性超绝, 小号足够日常携带随身物品~~尺寸20x4x13"},"price":null,"currency":"CNY","moq":1,"category":"burberry-women-bags","status":"active","alibaba_url":null,"images":["https://xcimg.szwego.com/img/d5e7a5ce/20251105/a1762314370971_4324.jpg","https://xcimg.szwego.com/img/d5e7a5ce/20251105/a1762314370968_5348.jpg","https://xcimg.szwego.com/img/d5e7a5ce/20251105/a1762314370967_8486.jpg","https://xcimg.szwego.com/img/d5e7a5ce/20251105/a1762314370970_8067.jpg","https://xcimg.szwego.com/img/d5e7a5ce/20251105/a1762314370972_5351.jpg","https://xcimg.szwego.com/img/d5e7a5ce/20251105/a1762314370971_0630.jpg","https://xcimg.szwego.com/img/d5e7a5ce/20251105/a1762314371837_6541.jpg","https://xcimg.szwego.com/img/d5e7a5ce/20251105/a1762314371835_4551.jpg","https://xcimg.szwego.com/img/d5e7a5ce/20251105/a1762314371836_6228.jpg"],"created_at":"2026-06-29T10:27:58.992Z"},{"id":"item-72d75a6f27d7","sku":"_dh9h9PHOR_1TnACSYS1azZJ_U5DljIxVsm-aDXw","name_en":"新款 woc.牛皮拼帆布格纹","name_cn":"新款 woc.牛皮拼帆布格纹\n尺寸19","specs":{"source":"wsxcme","sourceId":"_dh9h9PHOR_1TnACSYS1azZJ_U5DljIxVsm-aDXw","sourceTagId":80411239,"sourceTagName":"巴宝莉/女包","rawTitle":"新款 woc.牛皮拼帆布格纹\n尺寸19"},"price":null,"currency":"CNY","moq":1,"category":"burberry-women-bags","status":"active","alibaba_url":null,"images":["https://xcimg.szwego.com/img/d5e7a5ce/20251105/a1762314338107_2012.jpg","https://xcimg.szwego.com/img/d5e7a5ce/20251105/a1762314338109_6472.jpg","https://xcimg.szwego.com/img/d5e7a5ce/20251105/a1762314338112_0332.jpg","https://xcimg.szwego.com/img/d5e7a5ce/20251105/a1762314338112_6587.jpg","https://xcimg.szwego.com/img/d5e7a5ce/20251105/a1762314338110_6672.jpg","https://xcimg.szwego.com/img/d5e7a5ce/20251105/a1762314338111_1606.jpg","https://xcimg.szwego.com/img/d5e7a5ce/20251105/a1762314338651_7647.jpg","https://xcimg.szwego.com/img/d5e7a5ce/20251105/a1762314338656_3513.jpg","https://xcimg.szwego.com/img/d5e7a5ce/20251105/a1762314338657_7638.jpg"],"created_at":"2026-06-29T10:27:58.982Z"},{"id":"item-01fee6d43ddd","sku":"_dtxtxo-jGkwhPhAZPPJE3RrOK1HwI7yzLVBfEgQ","name_en":"新款 woc.牛皮拼帆布格纹","name_cn":"新款 woc.牛皮拼帆布格纹\n尺寸19","specs":{"source":"wsxcme","sourceId":"_dtxtxo-jGkwhPhAZPPJE3RrOK1HwI7yzLVBfEgQ","sourceTagId":80411239,"sourceTagName":"巴宝莉/女包","rawTitle":"新款 woc.牛皮拼帆布格纹\n尺寸19"},"price":null,"currency":"CNY","moq":1,"category":"burberry-women-bags","status":"active","alibaba_url":null,"images":["https://xcimg.szwego.com/img/d5e7a5ce/20251105/a1762314314217_1058.jpg","https://xcimg.szwego.com/img/d5e7a5ce/20251105/a1762314314218_3382.jpg","https://xcimg.szwego.com/img/d5e7a5ce/20251105/a1762314314221_7256.jpg","https://xcimg.szwego.com/img/d5e7a5ce/20251105/a1762314314246_3271.jpg","https://xcimg.szwego.com/img/d5e7a5ce/20251105/a1762314314220_3534.jpg","https://xcimg.szwego.com/img/d5e7a5ce/20251105/a1762314314219_6070.jpg","https://xcimg.szwego.com/img/d5e7a5ce/20251105/a1762314314777_6235.jpg","https://xcimg.szwego.com/img/d5e7a5ce/20251105/a1762314314776_4383.jpg","https://xcimg.szwego.com/img/d5e7a5ce/20251105/a1762314314779_3201.jpg"],"created_at":"2026-06-29T10:27:58.972Z"},{"id":"item-80413ab7a505","sku":"_drjrjlUn127o268hgfesskaTAVfKzD78d1oGw4g","name_en":"❤️B家最新格纹挎包💕肩带长短可以自动调节,单肩斜挎包手拿,随心所欲  进口小牛皮拼帆布格纹实用性超绝, 小号足够日常携带随身物品~~尺寸20x4x13","name_cn":"❤️B家最新格纹挎包💕肩带长短可以自动调节,单肩斜挎包手拿,随心所欲  进口小牛皮拼帆布格纹实用性超绝, 小号足够日常携带随身物品~~尺寸20x4x13","specs":{"source":"wsxcme","sourceId":"_drjrjlUn127o268hgfesskaTAVfKzD78d1oGw4g","sourceTagId":80411239,"sourceTagName":"巴宝莉/女包","rawTitle":"❤️B家最新格纹挎包💕肩带长短可以自动调节,单肩斜挎包手拿,随心所欲  进口小牛皮拼帆布格纹实用性超绝, 小号足够日常携带随身物品~~尺寸20x4x13"},"price":null,"currency":"CNY","moq":1,"category":"burberry-women-bags","status":"active","alibaba_url":null,"images":["https://xcimg.szwego.com/img/d5e7a5ce/20251105/a1762314269580_0886.jpg","https://xcimg.szwego.com/img/d5e7a5ce/20251105/a1762314269583_0223.jpg","https://xcimg.szwego.com/img/d5e7a5ce/20251105/a1762314269582_0450.jpg","https://xcimg.szwego.com/img/d5e7a5ce/20251105/a1762314269581_0613.jpg","https://xcimg.szwego.com/img/d5e7a5ce/20251105/a1762314269582_6852.jpg","https://xcimg.szwego.com/img/d5e7a5ce/20251105/a1762314269582_8846.jpg","https://xcimg.szwego.com/img/d5e7a5ce/20251105/a1762314270505_0261.jpg","https://xcimg.szwego.com/img/d5e7a5ce/20251105/a1762314270503_7783.jpg","https://xcimg.szwego.com/img/d5e7a5ce/20251105/a1762314270509_4412.jpg"],"created_at":"2026-06-29T10:27:58.962Z"},{"id":"item-ce9efdc48e55","sku":"_doeoeGA6s1ZCs_QE1c_CAgD3GMEPTatxmCG_I1w","name_en":"B家格纹挎包配上宽肩带","name_cn":"B家格纹挎包配上宽肩带 \n实用性超绝,日常通勤、逛街出行,所需物品都能轻松装下","specs":{"source":"wsxcme","sourceId":"_doeoeGA6s1ZCs_QE1c_CAgD3GMEPTatxmCG_I1w","sourceTagId":80411239,"sourceTagName":"巴宝莉/女包","rawTitle":"B家格纹挎包配上宽肩带 \n实用性超绝,日常通勤、逛街出行,所需物品都能轻松装下"},"price":null,"currency":"CNY","moq":1,"category":"burberry-women-bags","status":"active","alibaba_url":null,"images":["https://xcimg.szwego.com/img/d5e7a5ce/20251105/a1762314091676_5503.jpg","https://xcimg.szwego.com/img/d5e7a5ce/20251105/a1762314091674_4177.jpg","https://xcimg.szwego.com/img/d5e7a5ce/20251105/a1762314091676_0061.jpg","https://xcimg.szwego.com/img/d5e7a5ce/20251105/a1762314091678_1384.jpg","https://xcimg.szwego.com/img/d5e7a5ce/20251105/a1762314091678_0110.jpg","https://xcimg.szwego.com/img/d5e7a5ce/20251105/a1762314091679_7145.jpg","https://xcimg.szwego.com/img/d5e7a5ce/20251105/a1762314092311_7814.jpg"],"created_at":"2026-06-29T10:27:58.952Z"},{"id":"item-8e3fccbf1e56","sku":"_dsvsvGvNWUD6xc79GHNtbekrN4rFIVaMWLHxzkA","name_en":"❤️B家最新格纹挎包配上宽肩带 💕肩带长短可以自动调节,单肩斜挎包手拿,随心所欲","name_cn":"❤️B家最新格纹挎包配上宽肩带 💕肩带长短可以自动调节,单肩斜挎包手拿,随心所欲 \n进口小牛皮拼帆布格纹实用性超绝,日常通勤、逛街出行,所需物品都能轻松装下 尺寸24x17x9","specs":{"source":"wsxcme","sourceId":"_dsvsvGvNWUD6xc79GHNtbekrN4rFIVaMWLHxzkA","sourceTagId":80411239,"sourceTagName":"巴宝莉/女包","rawTitle":"❤️B家最新格纹挎包配上宽肩带 💕肩带长短可以自动调节,单肩斜挎包手拿,随心所欲 \n进口小牛皮拼帆布格纹实用性超绝,日常通勤、逛街出行,所需物品都能轻松装下 尺寸24x17x9"},"price":null,"currency":"CNY","moq":1,"category":"burberry-women-bags","status":"active","alibaba_url":null,"images":["https://xcimg.szwego.com/img/d5e7a5ce/20251105/a1762314055771_4447.jpg","https://xcimg.szwego.com/img/d5e7a5ce/20251105/a1762314055768_3555.jpg","https://xcimg.szwego.com/img/d5e7a5ce/20251105/a1762314055769_1271.jpg","https://xcimg.szwego.com/img/d5e7a5ce/20251105/a1762314066584_8175.jpg","https://xcimg.szwego.com/img/d5e7a5ce/20251105/a1762314056488_1885.jpg","https://xcimg.szwego.com/img/d5e7a5ce/20251105/a1762314055765_2462.jpg","https://xcimg.szwego.com/img/d5e7a5ce/20251105/a1762314055766_7112.jpg","https://xcimg.szwego.com/img/d5e7a5ce/20251105/a1762314056399_0120.jpg","https://xcimg.szwego.com/img/d5e7a5ce/20251105/a1762314055800_1120.jpg"],"created_at":"2026-06-29T10:27:58.942Z"},{"id":"item-00c75145b90d","sku":"_dvivigGIhuZE7nhxr6zGXWlhbChwnfoDzcpqPGQ","name_en":"B家格纹挎包配上宽肩带","name_cn":"B家格纹挎包配上宽肩带 \n实用性超绝,日常通勤、逛街出行,所需物品都能轻松装下","specs":{"source":"wsxcme","sourceId":"_dvivigGIhuZE7nhxr6zGXWlhbChwnfoDzcpqPGQ","sourceTagId":80411239,"sourceTagName":"巴宝莉/女包","rawTitle":"B家格纹挎包配上宽肩带 \n实用性超绝,日常通勤、逛街出行,所需物品都能轻松装下"},"price":null,"currency":"CNY","moq":1,"category":"burberry-women-bags","status":"active","alibaba_url":null,"images":["https://xcimg.szwego.com/img/d5e7a5ce/20251105/a1762313811909_8134.jpg","https://xcimg.szwego.com/img/d5e7a5ce/20251105/a1762313811945_8210.jpg","https://xcimg.szwego.com/img/d5e7a5ce/20251105/a1762313811913_4830.jpg","https://xcimg.szwego.com/img/d5e7a5ce/20251105/a1762313811912_0751.jpg","https://xcimg.szwego.com/img/d5e7a5ce/20251105/a1762313811915_5178.jpg","https://xcimg.szwego.com/img/d5e7a5ce/20251105/a1762313811915_8200.jpg","https://xcimg.szwego.com/img/d5e7a5ce/20251105/a1762313812566_3163.jpg","https://xcimg.szwego.com/img/d5e7a5ce/20251105/a1762313812605_8005.jpg","https://xcimg.szwego.com/img/d5e7a5ce/20251105/a1762313812566_1630.jpg"],"created_at":"2026-06-29T10:27:58.932Z"},{"id":"item-11b4992f75a9","sku":"_djujuPZKTldP0476w8DfUKW1h1i341zkElIZlKQ","name_en":"❤️B家最新格纹挎包配上宽肩带 💕肩带长短可以自动调节,单肩斜挎包手拿,随心所欲","name_cn":"❤️B家最新格纹挎包配上宽肩带 💕肩带长短可以自动调节,单肩斜挎包手拿,随心所欲 \n进口小牛皮拼帆布格纹实用性超绝,日常通勤、逛街出行,所需物品都能轻松装下 尺寸24x17x9","specs":{"source":"wsxcme","sourceId":"_djujuPZKTldP0476w8DfUKW1h1i341zkElIZlKQ","sourceTagId":80411239,"sourceTagName":"巴宝莉/女包","rawTitle":"❤️B家最新格纹挎包配上宽肩带 💕肩带长短可以自动调节,单肩斜挎包手拿,随心所欲 \n进口小牛皮拼帆布格纹实用性超绝,日常通勤、逛街出行,所需物品都能轻松装下 尺寸24x17x9"},"price":null,"currency":"CNY","moq":1,"category":"burberry-women-bags","status":"active","alibaba_url":null,"images":["https://xcimg.szwego.com/img/d5e7a5ce/20251105/a1762313786637_3041.jpg","https://xcimg.szwego.com/img/d5e7a5ce/20251105/a1762313786638_3543.jpg","https://xcimg.szwego.com/img/d5e7a5ce/20251105/a1762313787426_6867.jpg","https://xcimg.szwego.com/img/d5e7a5ce/20251105/a1762313786638_8684.jpg","https://xcimg.szwego.com/img/d5e7a5ce/20251105/a1762313786636_8701.jpg","https://xcimg.szwego.com/img/d5e7a5ce/20251105/a1762313786637_8844.jpg","https://xcimg.szwego.com/img/d5e7a5ce/20251105/a1762313786639_1212.jpg","https://xcimg.szwego.com/img/d5e7a5ce/20251105/a1762313787425_5446.jpg","https://xcimg.szwego.com/img/d5e7a5ce/20251105/a1762313787520_3744.jpg"],"created_at":"2026-06-29T10:27:58.922Z"},{"id":"item-d3903e4f0d56","sku":"_dU_U_iFpiWEwuv5sg3EiQHKkkIAy3m_Y0ZQzvbQ","name_en":"Burberry Women Bags","name_cn":"现货","specs":{"source":"wsxcme","sourceId":"_dU_U_iFpiWEwuv5sg3EiQHKkkIAy3m_Y0ZQzvbQ","sourceTagId":80411239,"sourceTagName":"巴宝莉/女包","rawTitle":"现货"},"price":null,"currency":"CNY","moq":1,"category":"burberry-women-bags","status":"active","alibaba_url":null,"images":["https://xcimg.szwego.com/img/d5e7a5ce/20251105/a1762313700380_5413.jpg","https://xcimg.szwego.com/img/d5e7a5ce/20251105/a1762313700381_5553.jpg","https://xcimg.szwego.com/img/d5e7a5ce/20251105/a1762313700383_0416.jpg","https://xcimg.szwego.com/img/d5e7a5ce/20251105/a1762313700382_5222.jpg","https://xcimg.szwego.com/img/d5e7a5ce/20251105/a1762313700382_5630.jpg","https://xcimg.szwego.com/img/d5e7a5ce/20251105/a1762313700384_0562.jpg","https://xcimg.szwego.com/img/d5e7a5ce/20251105/a1762313701022_1140.jpg","https://xcimg.szwego.com/img/d5e7a5ce/20251105/a1762313701019_4651.jpg","https://xcimg.szwego.com/img/d5e7a5ce/20251105/a1762313701022_8775.jpg"],"created_at":"2026-06-29T10:27:58.912Z"},{"id":"item-397fc08c89cf","sku":"_dc5c5eVWW-4xoMUx18xgn8IKCtPBQKN2gyAGVZA","name_en":"❤️B家最新格纹挎包配上宽肩带 💕肩带长短可以自动调节,单肩斜挎包手拿,随心所欲","name_cn":"❤️B家最新格纹挎包配上宽肩带 💕肩带长短可以自动调节,单肩斜挎包手拿,随心所欲 \n进口小牛皮拼帆布格纹实用性超绝,日常通勤、逛街出行,所需物品都能轻松装下 尺寸24x17x9","specs":{"source":"wsxcme","sourceId":"_dc5c5eVWW-4xoMUx18xgn8IKCtPBQKN2gyAGVZA","sourceTagId":80411239,"sourceTagName":"巴宝莉/女包","rawTitle":"❤️B家最新格纹挎包配上宽肩带 💕肩带长短可以自动调节,单肩斜挎包手拿,随心所欲 \n进口小牛皮拼帆布格纹实用性超绝,日常通勤、逛街出行,所需物品都能轻松装下 尺寸24x17x9"},"price":null,"currency":"CNY","moq":1,"category":"burberry-women-bags","status":"active","alibaba_url":null,"images":["https://xcimg.szwego.com/img/d5e7a5ce/20251105/a1762313543786_3564.jpg","https://xcimg.szwego.com/img/d5e7a5ce/20251105/a1762313543787_0818.jpg","https://xcimg.szwego.com/img/d5e7a5ce/20251105/a1762313543787_8861.jpg","https://xcimg.szwego.com/img/d5e7a5ce/20251105/a1762313543786_4748.jpg","https://xcimg.szwego.com/img/d5e7a5ce/20251105/a1762313550766_8522.jpg","https://xcimg.szwego.com/img/d5e7a5ce/20251105/a1762313543784_2552.jpg","https://xcimg.szwego.com/img/d5e7a5ce/20251105/a1762313544451_1676.jpg","https://xcimg.szwego.com/img/d5e7a5ce/20251105/a1762313544454_8723.jpg","https://xcimg.szwego.com/img/d5e7a5ce/20251105/a1762313544454_1725.jpg"],"created_at":"2026-06-29T10:27:58.902Z"},{"id":"item-8c12b8ee52d5","sku":"_denenNAgbvR0g33BgergXTN-CjiAJ5aFyje0Tww","name_en":"大号到货尺寸35.5 x 18 x 28cm","name_cn":"大号到货尺寸35.5 x 18 x 28cm\n小号尺寸30x 13× 24cm.","specs":{"source":"wsxcme","sourceId":"_denenNAgbvR0g33BgergXTN-CjiAJ5aFyje0Tww","sourceTagId":80411239,"sourceTagName":"巴宝莉/女包","dimensions":{"lengthCm":35.5,"heightCm":18,"widthCm":28},"rawTitle":"大号到货尺寸35.5 x 18 x 28cm\n小号尺寸30x 13× 24cm."},"price":null,"currency":"CNY","moq":1,"category":"burberry-women-bags","status":"active","alibaba_url":null,"images":["https://xcimg.szwego.com/img/d5e7a5ce/20250820/a1755668983031_7170.jpg","https://xcimg.szwego.com/img/d5e7a5ce/20250820/a1755668983035_6872.jpg","https://xcimg.szwego.com/img/d5e7a5ce/20250820/a1755668983036_0810.jpg","https://xcimg.szwego.com/img/d5e7a5ce/20250820/a1755668983040_0441.jpg","https://xcimg.szwego.com/img/d5e7a5ce/20250820/a1755668983039_6258.jpg","https://xcimg.szwego.com/img/d5e7a5ce/20250820/a1755668983034_7821.jpg","https://xcimg.szwego.com/img/d5e7a5ce/20250820/a1755668983706_6338.jpg"],"created_at":"2026-06-29T10:27:58.892Z"},{"id":"item-bca761c49b63","sku":"_dwEwEFzh91fOM0YjdMRqoMtFgTnmRcURibycYHg","name_en":"小号尺寸30x 13x 24cm.","name_cn":"小号尺寸30x 13x 24cm.","specs":{"source":"wsxcme","sourceId":"_dwEwEFzh91fOM0YjdMRqoMtFgTnmRcURibycYHg","sourceTagId":80411239,"sourceTagName":"巴宝莉/女包","dimensions":{"lengthCm":30,"heightCm":13,"widthCm":24},"rawTitle":"小号尺寸30x 13x 24cm."},"price":null,"currency":"CNY","moq":1,"category":"burberry-women-bags","status":"active","alibaba_url":null,"images":["https://xcimg.szwego.com/img/d5e7a5ce/20250530/a1748583618417_0181.jpg","https://xcimg.szwego.com/img/d5e7a5ce/20250530/a1748583618419_5130.jpg","https://xcimg.szwego.com/img/d5e7a5ce/20250530/a1748583618346_6355.jpg","https://xcimg.szwego.com/img/d5e7a5ce/20250530/a1748583618351_3286.jpg"],"created_at":"2026-06-29T10:27:58.882Z"}],"page":48,"pageSize":24,"total":10075,"totalPages":420}
