{"items":[{"id":"item-444c3803ed2f","sku":"_d_L_L2tOwcIH0bC6cFRCtt02Gf0uD4EYIierCmw","name_en":"什么是快乐星球~~唯有白色宝格丽chi chi.","name_cn":"什么是快乐星球~~唯有白色宝格丽chi chi.      \n\n25cm双层现货","specs":{"source":"wsxcme","sourceId":"_d_L_L2tOwcIH0bC6cFRCtt02Gf0uD4EYIierCmw","sourceTagId":47002756,"sourceTagName":"宝格丽/女包","rawTitle":"什么是快乐星球~~唯有白色宝格丽chi chi.      \n\n25cm双层现货"},"price":null,"currency":"CNY","moq":1,"category":"bvlgari-women-bags","status":"active","alibaba_url":null,"images":["https://xcimg.szwego.com/20230418/i1681811483_6652_0.jpg","https://xcimg.szwego.com/20230418/i1681811483_7428_1.jpg","https://xcimg.szwego.com/20230418/i1681811483_7348_2.jpg"],"created_at":"2024-09-27T06:51:04.127Z"},{"id":"item-c39621d6fb2f","sku":"_dtBtB3ugQ-jOUoHCTjU5s0UAnX7cLHQDYeZ8jgg","name_en":"Bvlgari❤新款手袋肩包,五个颜色现货~","name_cn":"Bvlgari❤新款手袋肩包,五个颜色现货~","specs":{"source":"wsxcme","sourceId":"_dtBtB3ugQ-jOUoHCTjU5s0UAnX7cLHQDYeZ8jgg","sourceTagId":47002756,"sourceTagName":"宝格丽/女包","rawTitle":"Bvlgari❤新款手袋肩包,五个颜色现货~"},"price":null,"currency":"CNY","moq":1,"category":"bvlgari-women-bags","status":"active","alibaba_url":null,"images":["https://xcimg.szwego.com/20220602/i1654155853_9034_0.jpg","https://xcimg.szwego.com/20220614/i1655186704_6477_0.jpg","https://xcimg.szwego.com/20220602/i1654155853_4539_1.jpg","https://xcimg.szwego.com/20220602/i1654155853_9177_2.jpg","https://xcimg.szwego.com/20230807/i1691392697_8171_0.jpg"],"created_at":"2024-09-27T06:51:04.125Z"},{"id":"item-569473646974","sku":"_dnHnH-2iF5ldjr6G8lWeE36IPwU9lPGxw7vKD_g","name_en":"Bvlgari Women Bags","name_cn":"正品级\n. 🆕SERPENTI FOREVER EAST-WEST系列小号肩包❤\n采用白色小牛皮材质,以时尚前卫的造型演绎隽永经典的风尚。\n作品搭配实用皮革肩带,饰以经典蛇首磁扣,其魅惑迷人的鳞片与设计从1960年代的SERPENTI系列珠宝中汲取灵感,适合日常佩戴。设有单个隔层,一个正面口袋,一个背面拼接口袋,一个内部绗缝线口袋,三个卡位,一面可个性化定制化妆镜,背面饰BULGARI宝格丽金属标识。\n\n\n尺寸:22 X 15 X 4.5 厘米\n型号:292104","specs":{"source":"wsxcme","sourceId":"_dnHnH-2iF5ldjr6G8lWeE36IPwU9lPGxw7vKD_g","sourceTagId":47002756,"sourceTagName":"宝格丽/女包","modelNumber":"292104","dimensions":{"lengthCm":22,"heightCm":15,"widthCm":4.5},"rawTitle":"正品级\n. 🆕SERPENTI FOREVER EAST-WEST系列小号肩包❤\n采用白色小牛皮材质,以时尚前卫的造型演绎隽永经典的风尚。\n作品搭配实用皮革肩带,饰以经典蛇首磁扣,其魅惑迷人的鳞片与设计从1960年代的SERPENTI系列珠宝中汲取灵感,适合日常佩戴。设有单个隔层,一个正面口袋,一个背面拼接口袋,一个内部绗缝线口袋,三个卡位,一面可个性化定制化妆镜,背面饰BULGARI宝格丽金属标识。\n\n\n尺寸:22 X 15 X 4.5 厘米\n型号:292104"},"price":null,"currency":"CNY","moq":1,"category":"bvlgari-women-bags","status":"active","alibaba_url":null,"images":["https://xcimg.szwego.com/20230807/i1691392455_3722_0.jpg","https://xcimg.szwego.com/20230807/i1691392455_8500_1.jpg","https://xcimg.szwego.com/20230807/i1691392455_9767_2.jpg","https://xcimg.szwego.com/20230807/i1691392455_1885_3.jpg","https://xcimg.szwego.com/20230807/i1691392455_3929_4.jpg","https://xcimg.szwego.com/20230807/i1691392455_7250_5.jpg","https://xcimg.szwego.com/20230807/i1691392455_1281_6.jpg","https://xcimg.szwego.com/20230807/i1691392455_1340_7.jpg","https://xcimg.szwego.com/20230807/i1691392455_6682_8.jpg"],"created_at":"2024-09-27T06:51:04.122Z"},{"id":"item-1b79cee857c2","sku":"_dxkxkb3TMmT5PTuHxQLDf09tPdx0EzvZHfZt4-w","name_en":"Bvlgari Women Bags","name_cn":"宝格丽/女包","specs":{"source":"wsxcme","sourceId":"_dxkxkb3TMmT5PTuHxQLDf09tPdx0EzvZHfZt4-w","sourceTagId":47002756,"sourceTagName":"宝格丽/女包","rawTitle":""},"price":null,"currency":"CNY","moq":1,"category":"bvlgari-women-bags","status":"active","alibaba_url":null,"images":["https://xcimg.szwego.com/20220614/i1655186362_8065_0.jpg"],"created_at":"2024-09-27T06:51:04.121Z"},{"id":"item-d050c5e3a706","sku":"_duuuuQpj38L6z9v4rsRl2xs9DhWfXoh_igG1Mbw","name_en":"Bvlgari Women Bags","name_cn":"轻松驾驭多种风格","specs":{"source":"wsxcme","sourceId":"_duuuuQpj38L6z9v4rsRl2xs9DhWfXoh_igG1Mbw","sourceTagId":47002756,"sourceTagName":"宝格丽/女包","rawTitle":"轻松驾驭多种风格"},"price":null,"currency":"CNY","moq":1,"category":"bvlgari-women-bags","status":"active","alibaba_url":null,"images":["https://xcimg.szwego.com/20221220/i1671550783_6493_0.jpg"],"created_at":"2024-09-27T06:51:04.120Z"},{"id":"item-8b627c449f84","sku":"_do_o_r3esZ0lG8_GOc_mesPrj0hgAQ1_bw0ebqw","name_en":"Bvlgari Women Bags","name_cn":"白色#上身图\n\n\n\n\n\n\n\n型号:292104","specs":{"source":"wsxcme","sourceId":"_do_o_r3esZ0lG8_GOc_mesPrj0hgAQ1_bw0ebqw","sourceTagId":47002756,"sourceTagName":"宝格丽/女包","modelNumber":"292104","rawTitle":"白色#上身图\n\n\n\n\n\n\n\n型号:292104"},"price":null,"currency":"CNY","moq":1,"category":"bvlgari-women-bags","status":"active","alibaba_url":null,"images":["https://xcimg.szwego.com/20220614/i1655186402_7921_0.jpg","https://xcimg.szwego.com/20220614/i1655186402_3839_1.jpg","https://xcimg.szwego.com/20220614/i1655186402_9709_2.jpg"],"created_at":"2024-09-27T06:51:04.119Z"},{"id":"item-79c14566e04a","sku":"_dlclcrDi6ZL3gqVk1XM7n_3QQBfVyA_tBt7Yj6A","name_en":"Bvlgari Women Bags","name_cn":"正品级 \n🆕SERPENTI FOREVER EAST-WEST系列小号肩包❤\n采用白色小牛皮材质,以时尚前卫的造型演绎隽永经典的风尚。\n作品搭配实用皮革肩带,饰以经典蛇首磁扣,其魅惑迷人的鳞片与设计从1960年代的SERPENTI系列珠宝中汲取灵感,适合日常佩戴。设有单个隔层,一个正面口袋,一个背面拼接口袋,一个内部绗缝线口袋,三个卡位,一面可个性化定制化妆镜,背面饰BULGARI宝格丽金属标识。\n\n\n尺寸:22 X 15 X 4.5 厘米\n型号:292104","specs":{"source":"wsxcme","sourceId":"_dlclcrDi6ZL3gqVk1XM7n_3QQBfVyA_tBt7Yj6A","sourceTagId":47002756,"sourceTagName":"宝格丽/女包","modelNumber":"292104","dimensions":{"lengthCm":22,"heightCm":15,"widthCm":4.5},"rawTitle":"正品级 \n🆕SERPENTI FOREVER EAST-WEST系列小号肩包❤\n采用白色小牛皮材质,以时尚前卫的造型演绎隽永经典的风尚。\n作品搭配实用皮革肩带,饰以经典蛇首磁扣,其魅惑迷人的鳞片与设计从1960年代的SERPENTI系列珠宝中汲取灵感,适合日常佩戴。设有单个隔层,一个正面口袋,一个背面拼接口袋,一个内部绗缝线口袋,三个卡位,一面可个性化定制化妆镜,背面饰BULGARI宝格丽金属标识。\n\n\n尺寸:22 X 15 X 4.5 厘米\n型号:292104"},"price":null,"currency":"CNY","moq":1,"category":"bvlgari-women-bags","status":"active","alibaba_url":null,"images":["https://xcimg.szwego.com/20220614/i1655186325_6965_0.jpg","https://xcimg.szwego.com/20220614/i1655186325_462_1.jpg","https://xcimg.szwego.com/20220614/i1655186325_3761_2.jpg","https://xcimg.szwego.com/20220614/i1655186325_6715_3.jpg","https://xcimg.szwego.com/20220614/i1655186325_1996_4.jpg","https://xcimg.szwego.com/20220614/i1655186325_1039_5.jpg","https://xcimg.szwego.com/20220614/i1655186325_1686_6.jpg","https://xcimg.szwego.com/20220614/i1655186325_2213_7.jpg","https://xcimg.szwego.com/20220614/i1655186325_521_8.jpg"],"created_at":"2024-09-27T06:51:04.118Z"},{"id":"item-0aa7e8043a71","sku":"_dvdvdcaX_iZnc9lQOJqA2X4qgRKRW6ex_Gbwp7Q","name_en":"Bvlgari Women Bags","name_cn":"宝格丽/女包","specs":{"source":"wsxcme","sourceId":"_dvdvdcaX_iZnc9lQOJqA2X4qgRKRW6ex_Gbwp7Q","sourceTagId":47002756,"sourceTagName":"宝格丽/女包","rawTitle":""},"price":null,"currency":"CNY","moq":1,"category":"bvlgari-women-bags","status":"active","alibaba_url":null,"images":["https://xcimg.szwego.com/20220602/i1654155701_3369_0.jpg"],"created_at":"2024-09-27T06:51:04.117Z"},{"id":"item-f5dd303bf8e5","sku":"_dyhyho9llFD0UQl51GdFpqHlztp1N7evlMuOvQg","name_en":"Bvlgari Women Bags","name_cn":"黑色#上身图\n\n\n\n\n\n\n\n型号:292104","specs":{"source":"wsxcme","sourceId":"_dyhyho9llFD0UQl51GdFpqHlztp1N7evlMuOvQg","sourceTagId":47002756,"sourceTagName":"宝格丽/女包","modelNumber":"292104","rawTitle":"黑色#上身图\n\n\n\n\n\n\n\n型号:292104"},"price":null,"currency":"CNY","moq":1,"category":"bvlgari-women-bags","status":"active","alibaba_url":null,"images":["https://xcimg.szwego.com/20220602/i1654155756_3939_0.jpg","https://xcimg.szwego.com/20220602/i1654155756_9539_1.jpg","https://xcimg.szwego.com/20220602/i1654155756_770_2.jpg","https://xcimg.szwego.com/20220602/i1654155756_904_3.jpg","https://xcimg.szwego.com/20220602/i1654155756_1131_4.jpg","https://xcimg.szwego.com/20220602/i1654155756_521_5.jpg"],"created_at":"2024-09-27T06:51:04.116Z"},{"id":"item-7f9c80d26076","sku":"_db-b-FRzYnCi1bBN_O4qKxFD8iA5fExC2k4OoLw","name_en":"Bvlgari Women Bags","name_cn":"正品级\n🆕SERPENTI FOREVER EAST-WEST系列小号肩包❤\n采用黑色小牛皮材质,以时尚前卫的造型演绎隽永经典的风尚。\n作品搭配实用皮革肩带,饰以经典蛇首磁扣,其魅惑迷人的鳞片与设计从1960年代的SERPENTI系列珠宝中汲取灵感,适合日常佩戴。设有单个隔层,一个正面口袋,一个背面拼接口袋,一个内部绗缝线口袋,三个卡位,一面可个性化定制化妆镜,背面饰BULGARI宝格丽金属标识。\n\n\n尺寸:22 X 15 X 4.5 厘米\n型号:292104","specs":{"source":"wsxcme","sourceId":"_db-b-FRzYnCi1bBN_O4qKxFD8iA5fExC2k4OoLw","sourceTagId":47002756,"sourceTagName":"宝格丽/女包","modelNumber":"292104","dimensions":{"lengthCm":22,"heightCm":15,"widthCm":4.5},"rawTitle":"正品级\n🆕SERPENTI FOREVER EAST-WEST系列小号肩包❤\n采用黑色小牛皮材质,以时尚前卫的造型演绎隽永经典的风尚。\n作品搭配实用皮革肩带,饰以经典蛇首磁扣,其魅惑迷人的鳞片与设计从1960年代的SERPENTI系列珠宝中汲取灵感,适合日常佩戴。设有单个隔层,一个正面口袋,一个背面拼接口袋,一个内部绗缝线口袋,三个卡位,一面可个性化定制化妆镜,背面饰BULGARI宝格丽金属标识。\n\n\n尺寸:22 X 15 X 4.5 厘米\n型号:292104"},"price":null,"currency":"CNY","moq":1,"category":"bvlgari-women-bags","status":"active","alibaba_url":null,"images":["https://xcimg.szwego.com/20220602/i1654155600_8751_0.jpg","https://xcimg.szwego.com/20220602/i1654155600_4958_1.jpg","https://xcimg.szwego.com/20220602/i1654155600_4857_2.jpg","https://xcimg.szwego.com/20220602/i1654155600_3435_3.jpg","https://xcimg.szwego.com/20220602/i1654155600_7630_4.jpg","https://xcimg.szwego.com/20220602/i1654155600_7484_5.jpg","https://xcimg.szwego.com/20220602/i1654155600_996_6.jpg","https://xcimg.szwego.com/20220602/i1654155600_3184_7.jpg"],"created_at":"2024-09-27T06:51:04.115Z"},{"id":"item-c2a9c6ea3cda","sku":"_dglglpIOm7cULvCF8aq0KxRrXtAa1kswqBS-08Q","name_en":"Bvlgari Women Bags","name_cn":"宝格丽/女包","specs":{"source":"wsxcme","sourceId":"_dglglpIOm7cULvCF8aq0KxRrXtAa1kswqBS-08Q","sourceTagId":47002756,"sourceTagName":"宝格丽/女包","rawTitle":""},"price":null,"currency":"CNY","moq":1,"category":"bvlgari-women-bags","status":"active","alibaba_url":null,"images":["https://xcimg.szwego.com/20220602/i1654155196_5872_0.jpg"],"created_at":"2024-09-27T06:51:04.114Z"},{"id":"item-98642138c82d","sku":"_dASASY0EqFy_HFBILnWbKqCZ1tt_-7Y1u1c2-Ow","name_en":"Bvlgari Women Bags","name_cn":"粉色#上身图\n\n\n\n\n\n\n\n型号:292104","specs":{"source":"wsxcme","sourceId":"_dASASY0EqFy_HFBILnWbKqCZ1tt_-7Y1u1c2-Ow","sourceTagId":47002756,"sourceTagName":"宝格丽/女包","modelNumber":"292104","rawTitle":"粉色#上身图\n\n\n\n\n\n\n\n型号:292104"},"price":null,"currency":"CNY","moq":1,"category":"bvlgari-women-bags","status":"active","alibaba_url":null,"images":["https://xcimg.szwego.com/20220602/i1654155240_9557_0.jpg","https://xcimg.szwego.com/20220602/i1654155240_5487_1.jpg","https://xcimg.szwego.com/20220602/i1654155240_4108_2.jpg","https://xcimg.szwego.com/20220602/i1654155240_3345_3.jpg","https://xcimg.szwego.com/20220602/i1654155240_9171_4.jpg","https://xcimg.szwego.com/20220602/i1654155240_8123_5.jpg"],"created_at":"2024-09-27T06:51:04.113Z"},{"id":"item-56b4af6f3b0c","sku":"_d9o9ocelLAOsvi_QEdz27LJH3XMbc0dFfBHJxkg","name_en":"Bvlgari Women Bags","name_cn":"正品级\n🆕SERPENTI FOREVER EAST-WEST系列小号肩包❤\n采用粉色小牛皮材质,以时尚前卫的造型演绎隽永经典的风尚。\n作品搭配实用皮革肩带,饰以经典蛇首磁扣,其魅惑迷人的鳞片与设计从1960年代的SERPENTI系列珠宝中汲取灵感,适合日常佩戴。设有单个隔层,一个正面口袋,一个背面拼接口袋,一个内部绗缝线口袋,三个卡位,一面可个性化定制化妆镜,背面饰BULGARI宝格丽金属标识。\n\n\n尺寸:22 X 15 X 4.5 厘米\n型号:292104","specs":{"source":"wsxcme","sourceId":"_d9o9ocelLAOsvi_QEdz27LJH3XMbc0dFfBHJxkg","sourceTagId":47002756,"sourceTagName":"宝格丽/女包","modelNumber":"292104","dimensions":{"lengthCm":22,"heightCm":15,"widthCm":4.5},"rawTitle":"正品级\n🆕SERPENTI FOREVER EAST-WEST系列小号肩包❤\n采用粉色小牛皮材质,以时尚前卫的造型演绎隽永经典的风尚。\n作品搭配实用皮革肩带,饰以经典蛇首磁扣,其魅惑迷人的鳞片与设计从1960年代的SERPENTI系列珠宝中汲取灵感,适合日常佩戴。设有单个隔层,一个正面口袋,一个背面拼接口袋,一个内部绗缝线口袋,三个卡位,一面可个性化定制化妆镜,背面饰BULGARI宝格丽金属标识。\n\n\n尺寸:22 X 15 X 4.5 厘米\n型号:292104"},"price":null,"currency":"CNY","moq":1,"category":"bvlgari-women-bags","status":"active","alibaba_url":null,"images":["https://xcimg.szwego.com/20220602/i1654155161_5033_0.jpg","https://xcimg.szwego.com/20220602/i1654155161_5238_1.jpg","https://xcimg.szwego.com/20220602/i1654155161_6946_2.jpg","https://xcimg.szwego.com/20220602/i1654155161_3666_3.jpg","https://xcimg.szwego.com/20220602/i1654155161_297_4.jpg","https://xcimg.szwego.com/20220602/i1654155161_9646_5.jpg","https://xcimg.szwego.com/20220602/i1654155161_1307_6.jpg","https://xcimg.szwego.com/20220602/i1654155161_8292_7.jpg"],"created_at":"2024-09-27T06:51:04.112Z"},{"id":"item-0006bb901807","sku":"_di0i0A2YRUwnLCQ79hm8NxT3J7jmW6khJps1zUQ","name_en":"Bvlgari Women Bags","name_cn":"宝格丽/女包","specs":{"source":"wsxcme","sourceId":"_di0i0A2YRUwnLCQ79hm8NxT3J7jmW6khJps1zUQ","sourceTagId":47002756,"sourceTagName":"宝格丽/女包","rawTitle":""},"price":null,"currency":"CNY","moq":1,"category":"bvlgari-women-bags","status":"active","alibaba_url":null,"images":["https://xcimg.szwego.com/20220602/i1654154605_9573_0.jpg"],"created_at":"2024-09-27T06:51:04.111Z"},{"id":"item-356781d10994","sku":"_drIrIf-tqTpBvAgiPxwkgM3y0s0W9LXUW0wzBdw","name_en":"Bvlgari Women Bags","name_cn":"祖母绿#上身图\n\n\n\n\n\n\n\n型号:292104","specs":{"source":"wsxcme","sourceId":"_drIrIf-tqTpBvAgiPxwkgM3y0s0W9LXUW0wzBdw","sourceTagId":47002756,"sourceTagName":"宝格丽/女包","modelNumber":"292104","rawTitle":"祖母绿#上身图\n\n\n\n\n\n\n\n型号:292104"},"price":null,"currency":"CNY","moq":1,"category":"bvlgari-women-bags","status":"active","alibaba_url":null,"images":["https://xcimg.szwego.com/20220602/i1654154838_3173_0.jpg","https://xcimg.szwego.com/20220602/i1654154838_4860_1.jpg","https://xcimg.szwego.com/20220602/i1654154838_7088_2.jpg","https://xcimg.szwego.com/20220602/i1654154838_6631_3.jpg","https://xcimg.szwego.com/20220602/i1654154838_6338_4.jpg","https://xcimg.szwego.com/20220602/i1654154838_8152_5.jpg"],"created_at":"2024-09-27T06:51:04.110Z"},{"id":"item-3421699d2981","sku":"_df0f0Gbu0O5Of2E8cZCsG786ryGutEKD5RzPluA","name_en":"Bvlgari Women Bags","name_cn":"正品级\nSERPENTI FOREVER EAST-WEST系列小号肩包❤\n采用祖母绿小牛皮材质,以时尚前卫的造型演绎隽永经典的风尚。\n作品搭配实用皮革肩带,饰以经典蛇首磁扣,其魅惑迷人的鳞片与设计从1960年代的SERPENTI系列珠宝中汲取灵感,适合日常佩戴。设有单个隔层,一个正面口袋,一个背面拼接口袋,一个内部绗缝线口袋,三个卡位,一面可个性化定制化妆镜,背面饰BULGARI宝格丽金属标识。\n\n\n尺寸:22 X 15 X 4.5 厘米\n型号:292104","specs":{"source":"wsxcme","sourceId":"_df0f0Gbu0O5Of2E8cZCsG786ryGutEKD5RzPluA","sourceTagId":47002756,"sourceTagName":"宝格丽/女包","modelNumber":"292104","dimensions":{"lengthCm":22,"heightCm":15,"widthCm":4.5},"rawTitle":"正品级\nSERPENTI FOREVER EAST-WEST系列小号肩包❤\n采用祖母绿小牛皮材质,以时尚前卫的造型演绎隽永经典的风尚。\n作品搭配实用皮革肩带,饰以经典蛇首磁扣,其魅惑迷人的鳞片与设计从1960年代的SERPENTI系列珠宝中汲取灵感,适合日常佩戴。设有单个隔层,一个正面口袋,一个背面拼接口袋,一个内部绗缝线口袋,三个卡位,一面可个性化定制化妆镜,背面饰BULGARI宝格丽金属标识。\n\n\n尺寸:22 X 15 X 4.5 厘米\n型号:292104"},"price":null,"currency":"CNY","moq":1,"category":"bvlgari-women-bags","status":"active","alibaba_url":null,"images":["https://xcimg.szwego.com/20220602/i1654153818_8701_0.jpg","https://xcimg.szwego.com/20220602/i1654153818_9385_1.jpg","https://xcimg.szwego.com/20220602/i1654153818_7107_2.jpg","https://xcimg.szwego.com/20220602/i1654153818_9167_3.jpg","https://xcimg.szwego.com/20220602/i1654153818_8617_4.jpg","https://xcimg.szwego.com/20220602/i1654153818_540_5.jpg","https://xcimg.szwego.com/20220602/i1654153818_7148_6.jpg","https://xcimg.szwego.com/20220602/i1654153818_2249_7.jpg","https://xcimg.szwego.com/20220602/i1654153818_2626_8.jpg"],"created_at":"2024-09-27T06:51:04.109Z"},{"id":"item-9efc75d57b1b","sku":"_dwMwMm8vQeam3vNbcyrmtzYfYe5PecFZLPfrs6g","name_en":"Bvlgari Women Bags","name_cn":"~~~~~","specs":{"source":"wsxcme","sourceId":"_dwMwMm8vQeam3vNbcyrmtzYfYe5PecFZLPfrs6g","sourceTagId":47002756,"sourceTagName":"宝格丽/女包","rawTitle":"~~~~~"},"price":null,"currency":"CNY","moq":1,"category":"bvlgari-women-bags","status":"active","alibaba_url":null,"images":[],"created_at":"2024-09-27T06:51:04.108Z"},{"id":"item-cdb5d727a8ac","sku":"_d8f8f_vhvEQBb5NfpOdalvy_cg4tyHjopYPixnQ","name_en":"Bvlgari Women Bags","name_cn":"现货上身拍~","specs":{"source":"wsxcme","sourceId":"_d8f8f_vhvEQBb5NfpOdalvy_cg4tyHjopYPixnQ","sourceTagId":47002756,"sourceTagName":"宝格丽/女包","rawTitle":"现货上身拍~"},"price":null,"currency":"CNY","moq":1,"category":"bvlgari-women-bags","status":"active","alibaba_url":null,"images":["https://xcimg.szwego.com/20230803/i1691051271_7149_0.jpg","https://xcimg.szwego.com/20230803/i1691051271_817_1.jpg","https://xcimg.szwego.com/20230803/i1691051271_5677_2.jpg","https://xcimg.szwego.com/20230803/i1691051271_8960_3.jpg"],"created_at":"2024-09-27T06:51:04.107Z"},{"id":"item-aba8a54840e9","sku":"_dsisidC26fNpikDANhoBtxrIRDG73tRcYZ9UUqw","name_en":"Bvlgari Women Bags","name_cn":"更多细节~","specs":{"source":"wsxcme","sourceId":"_dsisidC26fNpikDANhoBtxrIRDG73tRcYZ9UUqw","sourceTagId":47002756,"sourceTagName":"宝格丽/女包","rawTitle":"更多细节~"},"price":null,"currency":"CNY","moq":1,"category":"bvlgari-women-bags","status":"active","alibaba_url":null,"images":["https://xcimg.szwego.com/20230803/i1691051238_8371_0.jpg","https://xcimg.szwego.com/20230803/i1691051238_128_1.jpg","https://xcimg.szwego.com/20230803/i1691051238_2939_2.jpg","https://xcimg.szwego.com/20230803/i1691051238_7296_3.jpg","https://xcimg.szwego.com/20230803/i1691051238_95_4.jpg","https://xcimg.szwego.com/20230803/i1691051238_5921_5.jpg"],"created_at":"2024-09-27T06:51:04.106Z"},{"id":"item-36290a8b4c54","sku":"_dqVqVDZyEfu4x-UJbXoQ8KDHeY6c0BJT77-lXFA","name_en":"Bvlgari Women Bags","name_cn":"正品级\nBVLGARISERPENTIFOREVER斜挎包\n型号:289676\n尺寸:19-13-7cm\n全新“Serpenti Forever”系列斜挎包彰显都市风格,时尚多变,为Serpenti世界增添别具一格的潮流时尚感。这款包袋采用蜜桃色小牛皮材质,搭配浅金镀金黄铜配饰。黑色和白玛瑙色珐琅和绿色孔雀石感性双眼,将经典蛇首搭扣点缀得魅惑迷人。可调节的蛇形链条和皮革肩带,轻松配搭时尚日装。小号,两个隔层,一面可个性化定制的精巧化妆镜。一个不可拆卸的信用卡夹,一个敞口口袋,一个拉链口袋和两个外部口袋","specs":{"source":"wsxcme","sourceId":"_dqVqVDZyEfu4x-UJbXoQ8KDHeY6c0BJT77-lXFA","sourceTagId":47002756,"sourceTagName":"宝格丽/女包","modelNumber":"289676","rawTitle":"正品级\nBVLGARISERPENTIFOREVER斜挎包\n型号:289676\n尺寸:19-13-7cm\n全新“Serpenti Forever”系列斜挎包彰显都市风格,时尚多变,为Serpenti世界增添别具一格的潮流时尚感。这款包袋采用蜜桃色小牛皮材质,搭配浅金镀金黄铜配饰。黑色和白玛瑙色珐琅和绿色孔雀石感性双眼,将经典蛇首搭扣点缀得魅惑迷人。可调节的蛇形链条和皮革肩带,轻松配搭时尚日装。小号,两个隔层,一面可个性化定制的精巧化妆镜。一个不可拆卸的信用卡夹,一个敞口口袋,一个拉链口袋和两个外部口袋"},"price":null,"currency":"CNY","moq":1,"category":"bvlgari-women-bags","status":"active","alibaba_url":null,"images":["https://xcimg.szwego.com/20230803/i1691051192_8861_0.jpg","https://xcimg.szwego.com/20230803/i1691051192_210_1.jpg","https://xcimg.szwego.com/20230803/i1691051192_8880_2.jpg","https://xcimg.szwego.com/20230803/i1691051192_9020_3.jpg","https://xcimg.szwego.com/20230803/i1691051192_7818_4.jpg","https://xcimg.szwego.com/20230803/i1691051192_9858_5.jpg","https://xcimg.szwego.com/20230803/i1691051192_2324_6.jpg","https://xcimg.szwego.com/20230803/i1691051192_4206_7.jpg","https://xcimg.szwego.com/20230803/i1691051192_920_8.jpg"],"created_at":"2024-09-27T06:51:04.105Z"},{"id":"item-6f4b151d5e40","sku":"_dJJJJWUiy0MVE_eeIIAp2-x00FBXi7xMI_fJ1EA","name_en":"Bvlgari Women Bags","name_cn":"王欧同款~","specs":{"source":"wsxcme","sourceId":"_dJJJJWUiy0MVE_eeIIAp2-x00FBXi7xMI_fJ1EA","sourceTagId":47002756,"sourceTagName":"宝格丽/女包","rawTitle":"王欧同款~"},"price":null,"currency":"CNY","moq":1,"category":"bvlgari-women-bags","status":"active","alibaba_url":null,"images":["https://xcimg.szwego.com/20230418/i1681812547_6608_0.jpg","https://xcimg.szwego.com/20230418/i1681812547_4039_1.jpg","https://xcimg.szwego.com/20230418/i1681812547_2922_2.jpg","https://xcimg.szwego.com/20230418/i1681812547_9345_3.jpg"],"created_at":"2024-09-27T06:51:04.104Z"},{"id":"item-c9fabb296575","sku":"_drTrTSrB3WIraCmd_FSWy3YHC6R05FCFlct_QFA","name_en":"Bvlgari Women Bags","name_cn":"每一个妖娆的美女都无法抗拒的一款。\n     \n\n25cm双层现货秒发","specs":{"source":"wsxcme","sourceId":"_drTrTSrB3WIraCmd_FSWy3YHC6R05FCFlct_QFA","sourceTagId":47002756,"sourceTagName":"宝格丽/女包","rawTitle":"每一个妖娆的美女都无法抗拒的一款。\n     \n\n25cm双层现货秒发"},"price":null,"currency":"CNY","moq":1,"category":"bvlgari-women-bags","status":"active","alibaba_url":null,"images":["https://xcimg.szwego.com/20230418/i1681812381_8552_0.jpg","https://xcimg.szwego.com/20230418/i1681812381_3867_1.jpg","https://xcimg.szwego.com/20230418/i1681812381_6422_2.jpg"],"created_at":"2024-09-27T06:51:04.103Z"},{"id":"item-a6cd26a9de53","sku":"_dMMMMFYQfaKPQJjOMA3Gm7ecLFqgml3kQKcvbQA","name_en":"Bvlgari Women Bags","name_cn":"正品级\n  【BVLGAR*】💋Serpenti Forever 世界迎来又一佳作🌝,为 Serpenti家族增添光彩,使得这一系列更加丰富多姿。这款包袋采用白色小牛皮包身,两侧饰以白玛瑙色和粉晶色小牛皮,搭配浅金镀金黄铜配饰。白色和粉晶色珐琅搭配黑色缟玛瑙感性双眼,😊将经典蛇首搭扣点缀得魅惑迷人。\n手提包款式有三个收纳层,并搭配可拆卸可可调节、蜿蜒如蛇身的链条和皮革肩带,实现多变百搭功能。小号,拉链口袋,搭配一面小化妆镜。让你每时每刻都做个精致的猪猪女孩❤\nsize:22.5×18.5×11cm 型号: 289835","specs":{"source":"wsxcme","sourceId":"_dMMMMFYQfaKPQJjOMA3Gm7ecLFqgml3kQKcvbQA","sourceTagId":47002756,"sourceTagName":"宝格丽/女包","modelNumber":"289835","rawTitle":"正品级\n  【BVLGAR*】💋Serpenti Forever 世界迎来又一佳作🌝,为 Serpenti家族增添光彩,使得这一系列更加丰富多姿。这款包袋采用白色小牛皮包身,两侧饰以白玛瑙色和粉晶色小牛皮,搭配浅金镀金黄铜配饰。白色和粉晶色珐琅搭配黑色缟玛瑙感性双眼,😊将经典蛇首搭扣点缀得魅惑迷人。\n手提包款式有三个收纳层,并搭配可拆卸可可调节、蜿蜒如蛇身的链条和皮革肩带,实现多变百搭功能。小号,拉链口袋,搭配一面小化妆镜。让你每时每刻都做个精致的猪猪女孩❤\nsize:22.5×18.5×11cm 型号: 289835"},"price":null,"currency":"CNY","moq":1,"category":"bvlgari-women-bags","status":"active","alibaba_url":null,"images":["https://xcimg.szwego.com/20230511/i1683791296_5848_0.jpg","https://xcimg.szwego.com/20230511/i1683791296_2077_1.jpg","https://xcimg.szwego.com/20230511/i1683791296_4420_2.jpg","https://xcimg.szwego.com/20230511/i1683791296_8923_3.jpg","https://xcimg.szwego.com/20230511/i1683791296_8264_4.jpg","https://xcimg.szwego.com/20230511/i1683791296_4283_5.jpg","https://xcimg.szwego.com/20230511/i1683791296_3452_6.jpg","https://xcimg.szwego.com/20230511/i1683791296_8054_7.jpg","https://xcimg.szwego.com/20230511/i1683791296_4931_8.jpg"],"created_at":"2024-09-27T06:51:04.101Z"},{"id":"item-2a427d4e3324","sku":"_dF5F5ejTixv9pIQYOG807aDsNuZTytWjCbIRF9Q","name_en":"Bvlgari Women Bags","name_cn":"正品级\nSERPENTI  BAIA系列—颜值颇高的腋下包,配有两条可拆卸蛇形粗链及额外链条装置~可随性延长肩带,实现多种佩戴方式。配有羊皮小福袋,雨衣。\n尺寸:27.5x18 x3.5cm\n款号:293208","specs":{"source":"wsxcme","sourceId":"_dF5F5ejTixv9pIQYOG807aDsNuZTytWjCbIRF9Q","sourceTagId":47002756,"sourceTagName":"宝格丽/女包","modelNumber":"293208","dimensions":{"lengthCm":27.5,"heightCm":18,"widthCm":3.5},"rawTitle":"正品级\nSERPENTI  BAIA系列—颜值颇高的腋下包,配有两条可拆卸蛇形粗链及额外链条装置~可随性延长肩带,实现多种佩戴方式。配有羊皮小福袋,雨衣。\n尺寸:27.5x18 x3.5cm\n款号:293208"},"price":null,"currency":"CNY","moq":1,"category":"bvlgari-women-bags","status":"active","alibaba_url":null,"images":["https://xcimg.szwego.com/20230718/i1689689390_5382_0.jpg","https://xcimg.szwego.com/20230718/i1689689390_8794_1.jpg","https://xcimg.szwego.com/20230718/i1689689390_7775_2.jpg","https://xcimg.szwego.com/20230718/i1689689390_1015_3.jpg","https://xcimg.szwego.com/20230718/i1689689390_2652_4.jpg","https://xcimg.szwego.com/20230718/i1689689390_254_5.jpg","https://xcimg.szwego.com/20230718/i1689689390_2990_6.jpg","https://xcimg.szwego.com/20230718/i1689689390_7321_7.jpg","https://xcimg.szwego.com/20230718/i1689689390_7277_8.jpg"],"created_at":"2024-09-27T06:51:04.098Z"}],"page":371,"pageSize":24,"total":10075,"totalPages":420}
