{"items":[{"id":"item-7992ee4efbdf","sku":"_dtqtqy7Z-0veTWjRF2nFi_ILWCRjRXfF8jufXrg","name_en":"Kelly elan大象灰·银","name_cn":"Kelly elan大象灰·银\n进口牛皮 十字纹 手工蜡线 全钢五金\n肩带可拆卸,手提和腋下包2种背法 容量好背 无敌好背!!\n尺寸:27x15x5","specs":{"source":"wsxcme","sourceId":"_dtqtqy7Z-0veTWjRF2nFi_ILWCRjRXfF8jufXrg","sourceTagId":76963559,"sourceTagName":"爱马仕/女包","rawTitle":"Kelly elan大象灰·银\n进口牛皮 十字纹 手工蜡线 全钢五金\n肩带可拆卸,手提和腋下包2种背法 容量好背 无敌好背!!\n尺寸:27x15x5"},"price":null,"currency":"CNY","moq":1,"category":"hermes-women-bags","status":"active","alibaba_url":null,"images":["https://xcimg.szwego.com/img/43e90bff/20240221/i1708500139_3113_8.jpg","https://xcimg.szwego.com/img/43e90bff/20240221/i1708500139_6857_6.jpg","https://xcimg.szwego.com/img/43e90bff/20240221/i1708500139_9672_5.jpg","https://xcimg.szwego.com/img/43e90bff/20240221/i1708500139_2196_7.jpg","https://xcimg.szwego.com/img/43e90bff/20240221/i1708500139_7494_0.jpg","https://xcimg.szwego.com/img/43e90bff/20240221/i1708500139_8874_4.jpg","https://xcimg.szwego.com/img/43e90bff/20240221/i1708500139_751_3.jpg","https://xcimg.szwego.com/img/43e90bff/20240221/i1708500139_53_1.jpg","https://xcimg.szwego.com/img/43e90bff/20240221/i1708500139_2338_2.jpg"],"created_at":"2024-10-22T04:49:50.772Z"},{"id":"item-2768f135ab07","sku":"_dlDlDCkup8TC_4lMIJCUX5H0exu-_-HT-MteeUQ","name_en":"Kelly elan大象灰·金","name_cn":"Kelly elan大象灰·金\n进口牛皮 十字纹 手工蜡线 全钢五金\n肩带可拆卸,手提和腋下包2种背法 容量好背 无敌好背!!\n尺寸:27x15x5","specs":{"source":"wsxcme","sourceId":"_dlDlDCkup8TC_4lMIJCUX5H0exu-_-HT-MteeUQ","sourceTagId":76963559,"sourceTagName":"爱马仕/女包","rawTitle":"Kelly elan大象灰·金\n进口牛皮 十字纹 手工蜡线 全钢五金\n肩带可拆卸,手提和腋下包2种背法 容量好背 无敌好背!!\n尺寸:27x15x5"},"price":null,"currency":"CNY","moq":1,"category":"hermes-women-bags","status":"active","alibaba_url":null,"images":["https://xcimg.szwego.com/img/43e90bff/20240221/i1708500024_5308_5.jpg","https://xcimg.szwego.com/img/43e90bff/20240221/i1708500024_946_2.jpg","https://xcimg.szwego.com/img/43e90bff/20240221/i1708500024_7824_1.jpg","https://xcimg.szwego.com/img/43e90bff/20240221/i1708500024_8682_4.jpg","https://xcimg.szwego.com/img/43e90bff/20240221/i1708500024_4318_7.jpg","https://xcimg.szwego.com/img/43e90bff/20240221/i1708500024_1870_6.jpg","https://xcimg.szwego.com/img/43e90bff/20240221/i1708500024_6952_0.jpg","https://xcimg.szwego.com/img/43e90bff/20240221/i1708500024_1612_3.jpg","https://xcimg.szwego.com/img/43e90bff/20240221/i1708500024_3830_8.jpg"],"created_at":"2024-10-22T04:49:50.771Z"},{"id":"item-becab643f0e8","sku":"_dSVSVH9EO4uWaMb5yasbd2CeDnCrlaRiXX8z8hw","name_en":"Kelly elan黑金","name_cn":"Kelly elan黑金\n进口牛皮 十字纹 手工蜡线 全钢五金\n肩带可拆卸,手提和腋下包2种背法 容量好背 无敌好背!!\n尺寸:27x15x5","specs":{"source":"wsxcme","sourceId":"_dSVSVH9EO4uWaMb5yasbd2CeDnCrlaRiXX8z8hw","sourceTagId":76963559,"sourceTagName":"爱马仕/女包","rawTitle":"Kelly elan黑金\n进口牛皮 十字纹 手工蜡线 全钢五金\n肩带可拆卸,手提和腋下包2种背法 容量好背 无敌好背!!\n尺寸:27x15x5"},"price":null,"currency":"CNY","moq":1,"category":"hermes-women-bags","status":"active","alibaba_url":null,"images":["https://xcimg.szwego.com/img/43e90bff/20240221/i1708499902_3555_4.jpg","https://xcimg.szwego.com/img/43e90bff/20240221/i1708499902_4130_1.jpg","https://xcimg.szwego.com/img/43e90bff/20240221/i1708499902_5878_0.jpg","https://xcimg.szwego.com/img/43e90bff/20240221/i1708499902_7315_2.jpg","https://xcimg.szwego.com/img/43e90bff/20240221/i1708499902_1018_5.jpg","https://xcimg.szwego.com/img/43e90bff/20240221/i1708499902_125_3.jpg"],"created_at":"2024-10-22T04:49:50.770Z"},{"id":"item-d3eb18470b2c","sku":"_d1R1RM4i-bDzs6XLaK9i5ebyeKOPYz-JD1d5JSQ","name_en":"Kelly elan黑银","name_cn":"Kelly elan黑银\n进口牛皮 十字纹 手工蜡线 全钢五金\n肩带可拆卸,手提和腋下包2种背法 容量好背 无敌好背!!\n尺寸:27x15x5","specs":{"source":"wsxcme","sourceId":"_d1R1RM4i-bDzs6XLaK9i5ebyeKOPYz-JD1d5JSQ","sourceTagId":76963559,"sourceTagName":"爱马仕/女包","rawTitle":"Kelly elan黑银\n进口牛皮 十字纹 手工蜡线 全钢五金\n肩带可拆卸,手提和腋下包2种背法 容量好背 无敌好背!!\n尺寸:27x15x5"},"price":null,"currency":"CNY","moq":1,"category":"hermes-women-bags","status":"active","alibaba_url":null,"images":["https://xcimg.szwego.com/img/43e90bff/20240221/i1708499462_410_0.jpg","https://xcimg.szwego.com/img/43e90bff/20240221/i1708499462_5691_1.jpg","https://xcimg.szwego.com/img/43e90bff/20240221/i1708499462_4791_6.jpg","https://xcimg.szwego.com/img/43e90bff/20240221/i1708499462_4379_7.jpg","https://xcimg.szwego.com/img/43e90bff/20240221/i1708499462_2510_2.jpg","https://xcimg.szwego.com/img/43e90bff/20240221/i1708499462_794_8.jpg","https://xcimg.szwego.com/img/43e90bff/20240221/i1708499462_5872_5.jpg","https://xcimg.szwego.com/img/43e90bff/20240221/i1708499462_7564_4.jpg","https://xcimg.szwego.com/img/43e90bff/20240221/i1708499462_799_3.jpg"],"created_at":"2024-10-22T04:49:50.769Z"},{"id":"item-aa13475a35a3","sku":"_dgxgxd8Hxh5v_L-VeZJLD9cS5OojzNvBjgYUDlQ","name_en":"小kl多色拼接","name_cn":"小kl多色拼接\n传统的kl背太多啦❗️需要给穿搭上添点新的花样了🤔️别小看它咯!背面还有一个小侧袋,小包包里有大乾坤☯️,放passport,美容卡,小卡包也是不错的呢😝","specs":{"source":"wsxcme","sourceId":"_dgxgxd8Hxh5v_L-VeZJLD9cS5OojzNvBjgYUDlQ","sourceTagId":76963559,"sourceTagName":"爱马仕/女包","rawTitle":"小kl多色拼接\n传统的kl背太多啦❗️需要给穿搭上添点新的花样了🤔️别小看它咯!背面还有一个小侧袋,小包包里有大乾坤☯️,放passport,美容卡,小卡包也是不错的呢😝"},"price":null,"currency":"CNY","moq":1,"category":"hermes-women-bags","status":"active","alibaba_url":null,"images":["https://xcimg.szwego.com/20220720/a1658262261725_3164.jpg","https://xcimg.szwego.com/20220720/a1658262261956_0361.jpg","https://xcimg.szwego.com/20220720/a1658262262262_6600.jpg","https://xcimg.szwego.com/20220720/a1658262262435_5767.jpg","https://xcimg.szwego.com/20220720/a1658262262833_2773.jpg","https://xcimg.szwego.com/20220720/a1658262262867_3261.jpg","https://xcimg.szwego.com/20220720/a1658262263163_6680.jpg","https://xcimg.szwego.com/20220720/a1658262263491_4122.jpg","https://xcimg.szwego.com/20220720/a1658262263624_1666.jpg"],"created_at":"2024-10-22T04:49:50.768Z"},{"id":"item-daa07256fed1","sku":"_dNsNsGKLp7FCE6M6Y7Jh0WATlKhY08hFnF1-wkg","name_en":"H家 30bk 多色拼接","name_cn":"H家 30bk 多色拼接\n传统的bk背太多啦❗️需要给穿搭上添点新的花样了🤔️别小看它咯!背面还有一个小袋,小包包里有大乾坤☯️,放passport,美容卡,小卡包也是不错的呢😝","specs":{"source":"wsxcme","sourceId":"_dNsNsGKLp7FCE6M6Y7Jh0WATlKhY08hFnF1-wkg","sourceTagId":76963559,"sourceTagName":"爱马仕/女包","rawTitle":"H家 30bk 多色拼接\n传统的bk背太多啦❗️需要给穿搭上添点新的花样了🤔️别小看它咯!背面还有一个小袋,小包包里有大乾坤☯️,放passport,美容卡,小卡包也是不错的呢😝"},"price":null,"currency":"CNY","moq":1,"category":"hermes-women-bags","status":"active","alibaba_url":null,"images":["https://xcimg.szwego.com/20220827/a1661614811635_3046.jpg","https://xcimg.szwego.com/20220827/a1661614811899_3380.jpg","https://xcimg.szwego.com/20220827/a1661614812303_4542.jpg","https://xcimg.szwego.com/20220827/a1661614812609_8010.jpg","https://xcimg.szwego.com/20220827/a1661614812892_6454.jpg","https://xcimg.szwego.com/20220827/a1661614813145_3311.jpg","https://xcimg.szwego.com/20220827/a1661614813291_3053.jpg","https://xcimg.szwego.com/20220827/a1661614813691_6122.jpg","https://xcimg.szwego.com/20220827/a1661614813831_6816.jpg"],"created_at":"2024-10-22T04:49:50.767Z"},{"id":"item-fccbb8a0900d","sku":"_dlnlna8TYgkBlBId3LjdSpHLQU0D-ITtc_XuNbQ","name_en":"H家 30bk 多色拼接","name_cn":"H家 30bk 多色拼接\n传统的bk背太多啦❗️需要给穿搭上添点新的花样了🤔️别小看它咯!背面还有一个小袋,小包包里有大乾坤☯️,放passport,美容卡,小卡包也是不错的呢😝","specs":{"source":"wsxcme","sourceId":"_dlnlna8TYgkBlBId3LjdSpHLQU0D-ITtc_XuNbQ","sourceTagId":76963559,"sourceTagName":"爱马仕/女包","rawTitle":"H家 30bk 多色拼接\n传统的bk背太多啦❗️需要给穿搭上添点新的花样了🤔️别小看它咯!背面还有一个小袋,小包包里有大乾坤☯️,放passport,美容卡,小卡包也是不错的呢😝"},"price":null,"currency":"CNY","moq":1,"category":"hermes-women-bags","status":"active","alibaba_url":null,"images":["https://xcimg.szwego.com/20220827/a1661614724550_2310.jpg","https://xcimg.szwego.com/20220827/a1661614724731_4045.jpg","https://xcimg.szwego.com/20220827/a1661614724970_0640.jpg","https://xcimg.szwego.com/20220827/a1661614725176_5201.jpg","https://xcimg.szwego.com/20220827/a1661614725642_7315.jpg","https://xcimg.szwego.com/20220827/a1661614725643_4177.jpg","https://xcimg.szwego.com/20220827/a1661614725650_0862.jpg","https://xcimg.szwego.com/20220827/a1661614725780_1417.jpg","https://xcimg.szwego.com/20220827/a1661614725873_0444.jpg"],"created_at":"2024-10-22T04:49:50.766Z"},{"id":"item-18818b8f476f","sku":"_dM5M5BYPT88Zfo12P6zmgmcQuMDmLtdpBGeNp3g","name_en":"H家 30bk 多色拼接","name_cn":"H家 30bk 多色拼接\n传统的bk背太多啦❗️需要给穿搭上添点新的花样了🤔️别小看它咯!背面还有一个小袋,小包包里有大乾坤☯️,放passport,美容卡,小卡包也是不错的呢😝","specs":{"source":"wsxcme","sourceId":"_dM5M5BYPT88Zfo12P6zmgmcQuMDmLtdpBGeNp3g","sourceTagId":76963559,"sourceTagName":"爱马仕/女包","rawTitle":"H家 30bk 多色拼接\n传统的bk背太多啦❗️需要给穿搭上添点新的花样了🤔️别小看它咯!背面还有一个小袋,小包包里有大乾坤☯️,放passport,美容卡,小卡包也是不错的呢😝"},"price":null,"currency":"CNY","moq":1,"category":"hermes-women-bags","status":"active","alibaba_url":null,"images":["https://xcimg.szwego.com/20221102/a1667355300437_8857.jpg","https://xcimg.szwego.com/20221102/a1667355300668_8744.jpg","https://xcimg.szwego.com/20221102/a1667355300927_0681.jpg","https://xcimg.szwego.com/20221102/a1667355301373_8635.jpg","https://xcimg.szwego.com/20221102/a1667355301373_5752.jpg","https://xcimg.szwego.com/20221102/a1667355301521_1524.jpg","https://xcimg.szwego.com/20221102/a1667355301711_4330.jpg","https://xcimg.szwego.com/20221102/a1667355301927_8787.jpg","https://xcimg.szwego.com/20221102/a1667355302132_4008.jpg"],"created_at":"2024-10-22T04:49:50.765Z"},{"id":"item-6e652fa84875","sku":"_dpfpf6S1JICvvPPKp4b_CM1_Nvvmsn4mtLJNn0g","name_en":"kelly2424 mini 21cm Evercolor/swift 强烈种草 年轻复古气息,不仅貌美,而且各种背法都可以轻松hold住(手提、单肩、斜挎、双肩),双肩带背法超实用,内容量很足。精致优雅又随性,每一种背法都能呈现出不同的风格。","name_cn":"kelly2424 mini 21cm Evercolor/swift 强烈种草 年轻复古气息,不仅貌美,而且各种背法都可以轻松hold住(手提、单肩、斜挎、双肩),双肩带背法超实用,内容量很足。精致优雅又随性,每一种背法都能呈现出不同的风格。","specs":{"source":"wsxcme","sourceId":"_dpfpf6S1JICvvPPKp4b_CM1_Nvvmsn4mtLJNn0g","sourceTagId":76963559,"sourceTagName":"爱马仕/女包","rawTitle":"kelly2424 mini 21cm Evercolor/swift 强烈种草 年轻复古气息,不仅貌美,而且各种背法都可以轻松hold住(手提、单肩、斜挎、双肩),双肩带背法超实用,内容量很足。精致优雅又随性,每一种背法都能呈现出不同的风格。"},"price":null,"currency":"CNY","moq":1,"category":"hermes-women-bags","status":"active","alibaba_url":null,"images":["https://xcimg.szwego.com/20220915/i1663223944_6511_0.jpg","https://xcimg.szwego.com/20220915/i1663223944_5476_1.jpg","https://xcimg.szwego.com/20220915/i1663223944_9236_2.jpg","https://xcimg.szwego.com/20220915/i1663223944_966_3.jpg","https://xcimg.szwego.com/20220915/i1663223944_4540_4.jpg"],"created_at":"2024-10-22T04:49:50.764Z"},{"id":"item-10cbed5e5514","sku":"_dktkt9CVPd34aK6YIX0IeQSZ-1sknRtdD9kmQXg","name_en":"kelly2424 mini 21cm Evercolor/swift 强烈种草 年轻复古气息,不仅貌美,而且各种背法都可以轻松hold住(手提、单肩、斜挎、双肩),双肩带背法超实用,内容量很足。精致优雅又随性,每一种背法都能呈现出不同的风格。","name_cn":"kelly2424 mini 21cm Evercolor/swift 强烈种草 年轻复古气息,不仅貌美,而且各种背法都可以轻松hold住(手提、单肩、斜挎、双肩),双肩带背法超实用,内容量很足。精致优雅又随性,每一种背法都能呈现出不同的风格。","specs":{"source":"wsxcme","sourceId":"_dktkt9CVPd34aK6YIX0IeQSZ-1sknRtdD9kmQXg","sourceTagId":76963559,"sourceTagName":"爱马仕/女包","rawTitle":"kelly2424 mini 21cm Evercolor/swift 强烈种草 年轻复古气息,不仅貌美,而且各种背法都可以轻松hold住(手提、单肩、斜挎、双肩),双肩带背法超实用,内容量很足。精致优雅又随性,每一种背法都能呈现出不同的风格。"},"price":null,"currency":"CNY","moq":1,"category":"hermes-women-bags","status":"active","alibaba_url":null,"images":["https://xcimg.szwego.com/20220915/i1663221261_3229_0.jpg","https://xcimg.szwego.com/20220915/i1663221261_711_1.jpg","https://xcimg.szwego.com/20220915/i1663221261_7090_2.jpg","https://xcimg.szwego.com/20220915/i1663221261_7052_3.jpg","https://xcimg.szwego.com/20220915/i1663221261_5764_4.jpg"],"created_at":"2024-10-22T04:49:50.763Z"},{"id":"item-1bd5f30ab4e7","sku":"_duDuDhIqpA652L5Ugwr50nRMleF0VQ8xyfmDqJw","name_en":"kelly2424 mini 21cm Evercolor/swift 强烈种草 年轻复古气息,不仅貌美,而且各种背法都可以轻松hold住(手提、单肩、斜挎、双肩),双肩带背法超实用,内容量很足。精致优雅又随性,每一种背法都能呈现出不同的风格。","name_cn":"kelly2424 mini 21cm Evercolor/swift 强烈种草 年轻复古气息,不仅貌美,而且各种背法都可以轻松hold住(手提、单肩、斜挎、双肩),双肩带背法超实用,内容量很足。精致优雅又随性,每一种背法都能呈现出不同的风格。","specs":{"source":"wsxcme","sourceId":"_duDuDhIqpA652L5Ugwr50nRMleF0VQ8xyfmDqJw","sourceTagId":76963559,"sourceTagName":"爱马仕/女包","rawTitle":"kelly2424 mini 21cm Evercolor/swift 强烈种草 年轻复古气息,不仅貌美,而且各种背法都可以轻松hold住(手提、单肩、斜挎、双肩),双肩带背法超实用,内容量很足。精致优雅又随性,每一种背法都能呈现出不同的风格。"},"price":null,"currency":"CNY","moq":1,"category":"hermes-women-bags","status":"active","alibaba_url":null,"images":["https://xcimg.szwego.com/20220915/i1663221169_7303_0.jpg","https://xcimg.szwego.com/20220915/i1663221169_3168_1.jpg","https://xcimg.szwego.com/20220915/i1663221169_7990_2.jpg","https://xcimg.szwego.com/20220915/i1663221169_9539_3.jpg"],"created_at":"2024-10-22T04:49:50.762Z"},{"id":"item-a5e2fbdcf12c","sku":"_dLjLj5EPbjpa8vyJi6SLJU2nYfsowChy4twmmig","name_en":"kelly2424 mini 21cm Evercolor/swift 强烈种草 年轻复古气息,不仅貌美,而且各种背法都可以轻松hold住(手提、单肩、斜挎、双肩),双肩带背法超实用,内容量很足。精致优雅又随性,每一种背法都能呈现出不同的风格。","name_cn":"kelly2424 mini 21cm Evercolor/swift 强烈种草 年轻复古气息,不仅貌美,而且各种背法都可以轻松hold住(手提、单肩、斜挎、双肩),双肩带背法超实用,内容量很足。精致优雅又随性,每一种背法都能呈现出不同的风格。","specs":{"source":"wsxcme","sourceId":"_dLjLj5EPbjpa8vyJi6SLJU2nYfsowChy4twmmig","sourceTagId":76963559,"sourceTagName":"爱马仕/女包","rawTitle":"kelly2424 mini 21cm Evercolor/swift 强烈种草 年轻复古气息,不仅貌美,而且各种背法都可以轻松hold住(手提、单肩、斜挎、双肩),双肩带背法超实用,内容量很足。精致优雅又随性,每一种背法都能呈现出不同的风格。"},"price":null,"currency":"CNY","moq":1,"category":"hermes-women-bags","status":"active","alibaba_url":null,"images":["https://xcimg.szwego.com/20220915/i1663221064_611_0.jpg","https://xcimg.szwego.com/20220915/i1663221064_1723_1.jpg","https://xcimg.szwego.com/20220915/i1663221064_6206_2.jpg","https://xcimg.szwego.com/20220915/i1663221064_2240_3.jpg","https://xcimg.szwego.com/20220915/i1663221064_3996_4.jpg"],"created_at":"2024-10-22T04:49:50.761Z"},{"id":"item-de506f80f6e4","sku":"_diviv6EKqeFPeCT8FvazysokAY4pLf5G5GKREPg","name_en":"kelly2424 mini 21cm Evercolor/swift 强烈种草 年轻复古气息,不仅貌美,而且各种背法都可以轻松hold住(手提、单肩、斜挎、双肩),双肩带背法超实用,内容量很足。精致优雅又随性,每一种背法都能呈现出不同的风格。","name_cn":"kelly2424 mini 21cm Evercolor/swift 强烈种草 年轻复古气息,不仅貌美,而且各种背法都可以轻松hold住(手提、单肩、斜挎、双肩),双肩带背法超实用,内容量很足。精致优雅又随性,每一种背法都能呈现出不同的风格。","specs":{"source":"wsxcme","sourceId":"_diviv6EKqeFPeCT8FvazysokAY4pLf5G5GKREPg","sourceTagId":76963559,"sourceTagName":"爱马仕/女包","rawTitle":"kelly2424 mini 21cm Evercolor/swift 强烈种草 年轻复古气息,不仅貌美,而且各种背法都可以轻松hold住(手提、单肩、斜挎、双肩),双肩带背法超实用,内容量很足。精致优雅又随性,每一种背法都能呈现出不同的风格。"},"price":null,"currency":"CNY","moq":1,"category":"hermes-women-bags","status":"active","alibaba_url":null,"images":["https://xcimg.szwego.com/20220915/i1663221010_2593_0.jpg","https://xcimg.szwego.com/20220915/i1663221010_6610_1.jpg","https://xcimg.szwego.com/20220915/i1663221010_9161_2.jpg","https://xcimg.szwego.com/20220915/i1663221010_5698_3.jpg"],"created_at":"2024-10-22T04:49:50.760Z"},{"id":"item-e2c5d2f33b49","sku":"_dPkPkfbvVyD_jkp5v6X0smxHF_CyoWuRJ8ZI-1A","name_en":"kelly2424 mini 21cm Evercolor/swift 强烈种草 年轻复古气息,不仅貌美,而且各种背法都可以轻松hold住(手提、单肩、斜挎、双肩),双肩带背法超实用,内容量很足。精致优雅又随性,每一种背法都能呈现出不同的风格。","name_cn":"kelly2424 mini 21cm Evercolor/swift 强烈种草 年轻复古气息,不仅貌美,而且各种背法都可以轻松hold住(手提、单肩、斜挎、双肩),双肩带背法超实用,内容量很足。精致优雅又随性,每一种背法都能呈现出不同的风格。","specs":{"source":"wsxcme","sourceId":"_dPkPkfbvVyD_jkp5v6X0smxHF_CyoWuRJ8ZI-1A","sourceTagId":76963559,"sourceTagName":"爱马仕/女包","rawTitle":"kelly2424 mini 21cm Evercolor/swift 强烈种草 年轻复古气息,不仅貌美,而且各种背法都可以轻松hold住(手提、单肩、斜挎、双肩),双肩带背法超实用,内容量很足。精致优雅又随性,每一种背法都能呈现出不同的风格。"},"price":null,"currency":"CNY","moq":1,"category":"hermes-women-bags","status":"active","alibaba_url":null,"images":["https://xcimg.szwego.com/20220915/i1663220955_4622_0.jpg","https://xcimg.szwego.com/20220915/i1663220955_3561_1.jpg","https://xcimg.szwego.com/20220915/i1663220955_3020_2.jpg","https://xcimg.szwego.com/20220915/i1663220955_2207_3.jpg","https://xcimg.szwego.com/20220915/i1663220955_1379_4.jpg"],"created_at":"2024-10-22T04:49:50.759Z"},{"id":"item-7214ceadb081","sku":"_dd2d2_D1Akkxtoo-9QmS5f1XVZYo4QhsqhXPNng","name_en":"kelly2424 mini 21cm Evercolor/swift 强烈种草 年轻复古气息,不仅貌美,而且各种背法都可以轻松hold住(手提、单肩、斜挎、双肩),双肩带背法超实用,内容量很足。精致优雅又随性,每一种背法都能呈现出不同的风格。","name_cn":"kelly2424 mini 21cm Evercolor/swift 强烈种草 年轻复古气息,不仅貌美,而且各种背法都可以轻松hold住(手提、单肩、斜挎、双肩),双肩带背法超实用,内容量很足。精致优雅又随性,每一种背法都能呈现出不同的风格。","specs":{"source":"wsxcme","sourceId":"_dd2d2_D1Akkxtoo-9QmS5f1XVZYo4QhsqhXPNng","sourceTagId":76963559,"sourceTagName":"爱马仕/女包","rawTitle":"kelly2424 mini 21cm Evercolor/swift 强烈种草 年轻复古气息,不仅貌美,而且各种背法都可以轻松hold住(手提、单肩、斜挎、双肩),双肩带背法超实用,内容量很足。精致优雅又随性,每一种背法都能呈现出不同的风格。"},"price":null,"currency":"CNY","moq":1,"category":"hermes-women-bags","status":"active","alibaba_url":null,"images":["https://xcimg.szwego.com/20220915/i1663220890_7363_0.jpg","https://xcimg.szwego.com/20220915/i1663220890_9161_1.jpg","https://xcimg.szwego.com/20220915/i1663220890_1834_2.jpg","https://xcimg.szwego.com/20220915/i1663220890_4413_3.jpg","https://xcimg.szwego.com/20220915/i1663220890_2655_4.jpg"],"created_at":"2024-10-22T04:49:50.758Z"},{"id":"item-0c6b17624ca5","sku":"_dD6D68do9HLrumOMo7JB7D71j8fohdbAFWtA34g","name_en":"kelly2424 mini 21cm Evercolor/swift 强烈种草 年轻复古气息,不仅貌美,而且各种背法都可以轻松hold住(手提、单肩、斜挎、双肩),双肩带背法超实用,内容量很足。精致优雅又随性,每一种背法都能呈现出不同的风格。","name_cn":"kelly2424 mini 21cm Evercolor/swift 强烈种草 年轻复古气息,不仅貌美,而且各种背法都可以轻松hold住(手提、单肩、斜挎、双肩),双肩带背法超实用,内容量很足。精致优雅又随性,每一种背法都能呈现出不同的风格。","specs":{"source":"wsxcme","sourceId":"_dD6D68do9HLrumOMo7JB7D71j8fohdbAFWtA34g","sourceTagId":76963559,"sourceTagName":"爱马仕/女包","rawTitle":"kelly2424 mini 21cm Evercolor/swift 强烈种草 年轻复古气息,不仅貌美,而且各种背法都可以轻松hold住(手提、单肩、斜挎、双肩),双肩带背法超实用,内容量很足。精致优雅又随性,每一种背法都能呈现出不同的风格。"},"price":null,"currency":"CNY","moq":1,"category":"hermes-women-bags","status":"active","alibaba_url":null,"images":["https://xcimg.szwego.com/20220915/i1663220839_9410_0.jpg","https://xcimg.szwego.com/20220915/i1663220839_4966_1.jpg","https://xcimg.szwego.com/20220915/i1663220839_9872_2.jpg","https://xcimg.szwego.com/20220915/i1663220839_1398_3.jpg"],"created_at":"2024-10-22T04:49:50.757Z"},{"id":"item-3023d9809f7c","sku":"_dFrFrnjboCU6_ttAu_rkAYC9enHic9dvbiRRa9Q","name_en":"kelly2424 mini 21cm Evercolor/swift 强烈种草 年轻复古气息,不仅貌美,而且各种背法都可以轻松hold住(手提、单肩、斜挎、双肩),双肩带背法超实用,内容量很足。精致优雅又随性,每一种背法都能呈现出不同的风格。","name_cn":"kelly2424 mini 21cm Evercolor/swift 强烈种草 年轻复古气息,不仅貌美,而且各种背法都可以轻松hold住(手提、单肩、斜挎、双肩),双肩带背法超实用,内容量很足。精致优雅又随性,每一种背法都能呈现出不同的风格。","specs":{"source":"wsxcme","sourceId":"_dFrFrnjboCU6_ttAu_rkAYC9enHic9dvbiRRa9Q","sourceTagId":76963559,"sourceTagName":"爱马仕/女包","rawTitle":"kelly2424 mini 21cm Evercolor/swift 强烈种草 年轻复古气息,不仅貌美,而且各种背法都可以轻松hold住(手提、单肩、斜挎、双肩),双肩带背法超实用,内容量很足。精致优雅又随性,每一种背法都能呈现出不同的风格。"},"price":null,"currency":"CNY","moq":1,"category":"hermes-women-bags","status":"active","alibaba_url":null,"images":["https://xcimg.szwego.com/20220915/i1663220785_3448_0.jpg","https://xcimg.szwego.com/20220915/i1663220785_1647_1.jpg","https://xcimg.szwego.com/20220915/i1663220785_7252_2.jpg","https://xcimg.szwego.com/20220915/i1663220785_887_3.jpg"],"created_at":"2024-10-22T04:49:50.756Z"},{"id":"item-4a439aef8572","sku":"_dYCYCmYHCFT14zIYW6neNcFZq5m_vveCCA5_A6g","name_en":"kelly2424 mini 21cm Evercolor/swift 强烈种草 年轻复古气息,不仅貌美,而且各种背法都可以轻松hold住(手提、单肩、斜挎、双肩),双肩带背法超实用,内容量很足。精致优雅又随性,每一种背法都能呈现出不同的风格。","name_cn":"kelly2424 mini 21cm Evercolor/swift 强烈种草 年轻复古气息,不仅貌美,而且各种背法都可以轻松hold住(手提、单肩、斜挎、双肩),双肩带背法超实用,内容量很足。精致优雅又随性,每一种背法都能呈现出不同的风格。","specs":{"source":"wsxcme","sourceId":"_dYCYCmYHCFT14zIYW6neNcFZq5m_vveCCA5_A6g","sourceTagId":76963559,"sourceTagName":"爱马仕/女包","rawTitle":"kelly2424 mini 21cm Evercolor/swift 强烈种草 年轻复古气息,不仅貌美,而且各种背法都可以轻松hold住(手提、单肩、斜挎、双肩),双肩带背法超实用,内容量很足。精致优雅又随性,每一种背法都能呈现出不同的风格。"},"price":null,"currency":"CNY","moq":1,"category":"hermes-women-bags","status":"active","alibaba_url":null,"images":["https://xcimg.szwego.com/20220915/i1663220724_6155_0.jpg","https://xcimg.szwego.com/20220915/i1663220724_2696_1.jpg","https://xcimg.szwego.com/20220915/i1663220724_7772_2.jpg","https://xcimg.szwego.com/20220915/i1663220724_4164_3.jpg"],"created_at":"2024-10-22T04:49:50.755Z"},{"id":"item-f11b924bec0c","sku":"_drPrPHgzQpioQJLYj7-C8qJVKSNJ69V6UsOhMuA","name_en":"kelly2424 mini 21cm Evercolor/swift 强烈种草 年轻复古气息,不仅貌美,而且各种背法都可以轻松hold住(手提、单肩、斜挎、双肩),双肩带背法超实用,内容量很足。精致优雅又随性,每一种背法都能呈现出不同的风格。","name_cn":"kelly2424 mini 21cm Evercolor/swift 强烈种草 年轻复古气息,不仅貌美,而且各种背法都可以轻松hold住(手提、单肩、斜挎、双肩),双肩带背法超实用,内容量很足。精致优雅又随性,每一种背法都能呈现出不同的风格。","specs":{"source":"wsxcme","sourceId":"_drPrPHgzQpioQJLYj7-C8qJVKSNJ69V6UsOhMuA","sourceTagId":76963559,"sourceTagName":"爱马仕/女包","rawTitle":"kelly2424 mini 21cm Evercolor/swift 强烈种草 年轻复古气息,不仅貌美,而且各种背法都可以轻松hold住(手提、单肩、斜挎、双肩),双肩带背法超实用,内容量很足。精致优雅又随性,每一种背法都能呈现出不同的风格。"},"price":null,"currency":"CNY","moq":1,"category":"hermes-women-bags","status":"active","alibaba_url":null,"images":["https://xcimg.szwego.com/20220915/i1663220654_9659_0.jpg","https://xcimg.szwego.com/20220915/i1663220654_6705_1.jpg","https://xcimg.szwego.com/20220915/i1663220654_1435_2.jpg","https://xcimg.szwego.com/20220915/i1663220654_437_3.jpg"],"created_at":"2024-10-22T04:49:50.754Z"},{"id":"item-b94ab1107cc5","sku":"_dekekoOVs57lCQLM6n3TjbfOxOCNHvn5gCeDFmg","name_en":"kelly2424 mini 21cm Evercolor/swift 强烈种草 年轻复古气息,不仅貌美,而且各种背法都可以轻松hold住(手提、单肩、斜挎、双肩),双肩带背法超实用,内容量很足。精致优雅又随性,每一种背法都能呈现出不同的风格。","name_cn":"kelly2424 mini 21cm Evercolor/swift 强烈种草 年轻复古气息,不仅貌美,而且各种背法都可以轻松hold住(手提、单肩、斜挎、双肩),双肩带背法超实用,内容量很足。精致优雅又随性,每一种背法都能呈现出不同的风格。","specs":{"source":"wsxcme","sourceId":"_dekekoOVs57lCQLM6n3TjbfOxOCNHvn5gCeDFmg","sourceTagId":76963559,"sourceTagName":"爱马仕/女包","rawTitle":"kelly2424 mini 21cm Evercolor/swift 强烈种草 年轻复古气息,不仅貌美,而且各种背法都可以轻松hold住(手提、单肩、斜挎、双肩),双肩带背法超实用,内容量很足。精致优雅又随性,每一种背法都能呈现出不同的风格。"},"price":null,"currency":"CNY","moq":1,"category":"hermes-women-bags","status":"active","alibaba_url":null,"images":["https://xcimg.szwego.com/20220915/i1663220537_974_0.jpg","https://xcimg.szwego.com/20220915/i1663220537_6759_1.jpg","https://xcimg.szwego.com/20220915/i1663220537_2233_2.jpg","https://xcimg.szwego.com/20220915/i1663220537_8092_3.jpg","https://xcimg.szwego.com/20220915/i1663220537_4629_4.jpg"],"created_at":"2024-10-22T04:49:50.753Z"},{"id":"item-60f59946cc52","sku":"_dmvmveELrPhkEt9P9ECTgpQMA-xV44JFmP34wPA","name_en":"kelly2424 mini 21cm Evercolor/swift 强烈种草 年轻复古气息,不仅貌美,而且各种背法都可以轻松hold住(手提、单肩、斜挎、双肩),双肩带背法超实用,内容量很足。精致优雅又随性,每一种背法都能呈现出不同的风格。","name_cn":"kelly2424 mini 21cm Evercolor/swift 强烈种草 年轻复古气息,不仅貌美,而且各种背法都可以轻松hold住(手提、单肩、斜挎、双肩),双肩带背法超实用,内容量很足。精致优雅又随性,每一种背法都能呈现出不同的风格。","specs":{"source":"wsxcme","sourceId":"_dmvmveELrPhkEt9P9ECTgpQMA-xV44JFmP34wPA","sourceTagId":76963559,"sourceTagName":"爱马仕/女包","rawTitle":"kelly2424 mini 21cm Evercolor/swift 强烈种草 年轻复古气息,不仅貌美,而且各种背法都可以轻松hold住(手提、单肩、斜挎、双肩),双肩带背法超实用,内容量很足。精致优雅又随性,每一种背法都能呈现出不同的风格。"},"price":null,"currency":"CNY","moq":1,"category":"hermes-women-bags","status":"active","alibaba_url":null,"images":["https://xcimg.szwego.com/20220915/i1663220480_2183_0.jpg","https://xcimg.szwego.com/20220915/i1663220480_3447_1.jpg","https://xcimg.szwego.com/20220915/i1663220480_9014_2.jpg","https://xcimg.szwego.com/20220915/i1663220480_5377_3.jpg"],"created_at":"2024-10-22T04:49:50.752Z"},{"id":"item-b2bdd4b74561","sku":"_dXaXageQpieCSIB6-MR51VpMAy15oOxIm1f_L_w","name_en":"kelly2424 mini 21cm Evercolor/swift 强烈种草 年轻复古气息,不仅貌美,而且各种背法都可以轻松hold住(手提、单肩、斜挎、双肩),双肩带背法超实用,内容量很足。精致优雅又随性,每一种背法都能呈现出不同的风格。","name_cn":"kelly2424 mini 21cm Evercolor/swift 强烈种草 年轻复古气息,不仅貌美,而且各种背法都可以轻松hold住(手提、单肩、斜挎、双肩),双肩带背法超实用,内容量很足。精致优雅又随性,每一种背法都能呈现出不同的风格。","specs":{"source":"wsxcme","sourceId":"_dXaXageQpieCSIB6-MR51VpMAy15oOxIm1f_L_w","sourceTagId":76963559,"sourceTagName":"爱马仕/女包","rawTitle":"kelly2424 mini 21cm Evercolor/swift 强烈种草 年轻复古气息,不仅貌美,而且各种背法都可以轻松hold住(手提、单肩、斜挎、双肩),双肩带背法超实用,内容量很足。精致优雅又随性,每一种背法都能呈现出不同的风格。"},"price":null,"currency":"CNY","moq":1,"category":"hermes-women-bags","status":"active","alibaba_url":null,"images":["https://xcimg.szwego.com/20220915/i1663220409_1540_0.jpg","https://xcimg.szwego.com/20220915/i1663220409_3871_1.jpg","https://xcimg.szwego.com/20220915/i1663220409_6977_2.jpg","https://xcimg.szwego.com/20220915/i1663220409_2996_3.jpg"],"created_at":"2024-10-22T04:49:50.751Z"},{"id":"item-43436fe58d5a","sku":"_dKxKxloc1EuWpT2lKBPkVAfPwB7lZA7bs-8knxA","name_en":"kelly2424 mini 21cm Evercolor/swift 强烈种草 年轻复古气息,不仅貌美,而且各种背法都可以轻松hold住(手提、单肩、斜挎、双肩),双肩带背法超实用,内容量很足。精致优雅又随性,每一种背法都能呈现出不同的风格。","name_cn":"kelly2424 mini 21cm Evercolor/swift 强烈种草 年轻复古气息,不仅貌美,而且各种背法都可以轻松hold住(手提、单肩、斜挎、双肩),双肩带背法超实用,内容量很足。精致优雅又随性,每一种背法都能呈现出不同的风格。","specs":{"source":"wsxcme","sourceId":"_dKxKxloc1EuWpT2lKBPkVAfPwB7lZA7bs-8knxA","sourceTagId":76963559,"sourceTagName":"爱马仕/女包","rawTitle":"kelly2424 mini 21cm Evercolor/swift 强烈种草 年轻复古气息,不仅貌美,而且各种背法都可以轻松hold住(手提、单肩、斜挎、双肩),双肩带背法超实用,内容量很足。精致优雅又随性,每一种背法都能呈现出不同的风格。"},"price":null,"currency":"CNY","moq":1,"category":"hermes-women-bags","status":"active","alibaba_url":null,"images":["https://xcimg.szwego.com/20220915/i1663220358_1184_0.jpg","https://xcimg.szwego.com/20220915/i1663220358_7727_1.jpg","https://xcimg.szwego.com/20220915/i1663220358_3488_2.jpg","https://xcimg.szwego.com/20220915/i1663220358_4256_3.jpg"],"created_at":"2024-10-22T04:49:50.750Z"},{"id":"item-5862f26c0bb4","sku":"_dnwnwCV-bGoaIiXmhpgFPdtx3L7tMXTzA_LcE0Q","name_en":"kelly2424 mini 21cm Evercolor/swift 强烈种草 年轻复古气息,不仅貌美,而且各种背法都可以轻松hold住(手提、单肩、斜挎、双肩),双肩带背法超实用,内容量很足。精致优雅又随性,每一种背法都能呈现出不同的风格。","name_cn":"kelly2424 mini 21cm Evercolor/swift 强烈种草 年轻复古气息,不仅貌美,而且各种背法都可以轻松hold住(手提、单肩、斜挎、双肩),双肩带背法超实用,内容量很足。精致优雅又随性,每一种背法都能呈现出不同的风格。","specs":{"source":"wsxcme","sourceId":"_dnwnwCV-bGoaIiXmhpgFPdtx3L7tMXTzA_LcE0Q","sourceTagId":76963559,"sourceTagName":"爱马仕/女包","rawTitle":"kelly2424 mini 21cm Evercolor/swift 强烈种草 年轻复古气息,不仅貌美,而且各种背法都可以轻松hold住(手提、单肩、斜挎、双肩),双肩带背法超实用,内容量很足。精致优雅又随性,每一种背法都能呈现出不同的风格。"},"price":null,"currency":"CNY","moq":1,"category":"hermes-women-bags","status":"active","alibaba_url":null,"images":["https://xcimg.szwego.com/20220915/i1663220242_7994_0.jpg","https://xcimg.szwego.com/20220915/i1663220242_1648_1.jpg","https://xcimg.szwego.com/20220915/i1663220242_1092_2.jpg","https://xcimg.szwego.com/20220915/i1663220242_375_3.jpg"],"created_at":"2024-10-22T04:49:50.749Z"}],"page":345,"pageSize":24,"total":10075,"totalPages":420}
