{"items":[{"id":"item-29591557a72a","sku":"_dirirA7SsDbJrxbVsVyfcMOquyHO4R-14rEX8sg","name_en":"B Brand 'Lola – Lana Bag' New Arrival, Mid-Autumn Festival & National Day Limited Edition. Size: 23 x 6 x 13cm!","name_cn":"B Brand 'Lola – Lana Bag' New Arrival, Mid-Autumn Festival & National Day Limited Edition. Size: 23 x 6 x 13cm!","specs":{"source":"wsxcme","sourceId":"_dirirA7SsDbJrxbVsVyfcMOquyHO4R-14rEX8sg","sourceTagId":80411239,"sourceTagName":"Burberry/women's bag","dimensions":{"lengthCm":23,"heightCm":6,"widthCm":13},"rawTitle":"B Brand 'Lola – Lana Bag' New Arrival, Mid-Autumn Festival & National Day Limited Edition. Size: 23 x 6 x 13cm!"},"price":null,"currency":"CNY","moq":1,"category":"burberry-women-bags","status":"active","alibaba_url":null,"images":["https://xcimg.szwego.com/img/d5e7a5ce/20230918/a1695028626198_5545.jpg","https://xcimg.szwego.com/img/d5e7a5ce/20230918/a1695028626201_2756.jpg","https://xcimg.szwego.com/img/d5e7a5ce/20230918/a1695028626205_5844.jpg","https://xcimg.szwego.com/img/d5e7a5ce/20230918/a1695028626208_2873.jpg","https://xcimg.szwego.com/img/d5e7a5ce/20230918/a1695028626211_0726.jpg","https://xcimg.szwego.com/img/d5e7a5ce/20230918/a1695028626215_5673.jpg","https://xcimg.szwego.com/img/d5e7a5ce/20230918/a1695028626219_2621.jpg","https://xcimg.szwego.com/img/d5e7a5ce/20230918/a1695028626243_3877.jpg"],"created_at":"2025-01-20T12:46:12.799Z"},{"id":"item-59e123564557","sku":"_dn6n6TAicFDZJrYxqWLabOESD_zuhUUdW7vuJiQ","name_en":"B The Banner House calfskin handbag House Check shoulder carry ,Size26x12x19","name_cn":"B The Banner House calfskin handbag House Check shoulder carry ,Size26x12x19","specs":{"source":"wsxcme","sourceId":"_dn6n6TAicFDZJrYxqWLabOESD_zuhUUdW7vuJiQ","sourceTagId":80411239,"sourceTagName":"Burberry/women's bag","rawTitle":"B The Banner House calfskin handbag House Check shoulder carry ,Size26x12x19"},"price":null,"currency":"CNY","moq":1,"category":"burberry-women-bags","status":"active","alibaba_url":null,"images":["https://xcimg.szwego.com/20220114/i1642131112_9144_0.jpg","https://xcimg.szwego.com/20220114/i1642131112_7945_1.jpg","https://xcimg.szwego.com/20220114/i1642131112_1740_2.jpg","https://xcimg.szwego.com/20220114/i1642131112_4366_3.jpg","https://xcimg.szwego.com/20220114/i1642131112_1763_4.jpg","https://xcimg.szwego.com/20220114/i1642131112_4395_5.jpg","https://xcimg.szwego.com/20220114/i1642131112_7875_6.jpg","https://xcimg.szwego.com/20220114/i1642131112_1207_7.jpg","https://xcimg.szwego.com/20220114/i1642131112_1380_8.jpg"],"created_at":"2025-01-20T12:46:12.798Z"},{"id":"item-af9e87965292","sku":"_dERERVvD_fecDZJ2gpafuMY_59uTQ3JuXZAOF6Q","name_en":"B 「The Banner handbag」, House , calfskin。34 x 16 x 25cm","name_cn":"B 「The Banner handbag」, House , calfskin。34 x 16 x 25cm","specs":{"source":"wsxcme","sourceId":"_dERERVvD_fecDZJ2gpafuMY_59uTQ3JuXZAOF6Q","sourceTagId":80411239,"sourceTagName":"Burberry/women's bag","rawTitle":"B 「The Banner handbag」, House , calfskin。34 x 16 x 25cm"},"price":null,"currency":"CNY","moq":1,"category":"burberry-women-bags","status":"active","alibaba_url":null,"images":["https://xcimg.szwego.com/20220114/i1642129901_2548_0.jpg","https://xcimg.szwego.com/20220114/i1642129901_6712_1.jpg","https://xcimg.szwego.com/20220114/i1642129901_3260_2.jpg","https://xcimg.szwego.com/20220114/i1642129901_264_8.jpg","https://xcimg.szwego.com/20220114/i1642129901_2843_3.jpg","https://xcimg.szwego.com/20220114/i1642129901_1444_4.jpg","https://xcimg.szwego.com/20220114/i1642129901_7425_5.jpg","https://xcimg.szwego.com/20220114/i1642129901_9092_6.jpg","https://xcimg.szwego.com/20220114/i1642129901_3058_7.jpg"],"created_at":"2025-01-20T12:46:12.797Z"},{"id":"item-1e0ea99d5cf7","sku":"_disisDkw8-7cmZvea9uepjmOwNJLDI3X2ZB24qA","name_en":"❤️B handbag, 🌟 Vintage , calfskin 。25 x 12 x 19cm","name_cn":"❤️B handbag, 🌟 Vintage , calfskin 。25 x 12 x 19cm","specs":{"source":"wsxcme","sourceId":"_disisDkw8-7cmZvea9uepjmOwNJLDI3X2ZB24qA","sourceTagId":80411239,"sourceTagName":"Burberry/women's bag","rawTitle":"❤️B handbag, 🌟 Vintage , calfskin 。25 x 12 x 19cm"},"price":null,"currency":"CNY","moq":1,"category":"burberry-women-bags","status":"active","alibaba_url":null,"images":["https://xcimg.szwego.com/img/d5e7a5ce/20231201/a1701413721585_3724.jpg","https://xcimg.szwego.com/img/d5e7a5ce/20231201/a1701413721604_1247.jpg","https://xcimg.szwego.com/img/d5e7a5ce/20231201/a1701413721580_1607.jpg","https://xcimg.szwego.com/img/d5e7a5ce/20231201/a1701413721590_8222.jpg","https://xcimg.szwego.com/img/d5e7a5ce/20231201/a1701413721589_5563.jpg","https://xcimg.szwego.com/img/d5e7a5ce/20231201/a1701413721600_1582.jpg","https://xcimg.szwego.com/img/d5e7a5ce/20231201/a1701413722452_3886.jpg","https://xcimg.szwego.com/img/d5e7a5ce/20231201/a1701413722450_7011.jpg","https://xcimg.szwego.com/img/d5e7a5ce/20231201/a1701413722445_3085.jpg"],"created_at":"2025-01-20T12:46:12.796Z"},{"id":"item-e7271410c440","sku":"_dkvkvtqqB_XEK6oVsLgzbb-sEvwepAxEPEf8S1w","name_en":"❤️B Note , crossbody , Vintage canvas+ ,height , , , , 。 , hardware , , , 。 , , 。 width , , , , , crossbody , , , , ! !Size:24X14X8cm","name_cn":"❤️B Note , crossbody , Vintage canvas+ ,height , , , , 。 , hardware , , , 。 , , 。 width , , , , , crossbody , , , , ! !Size:24X14X8cm","specs":{"source":"wsxcme","sourceId":"_dkvkvtqqB_XEK6oVsLgzbb-sEvwepAxEPEf8S1w","sourceTagId":80411239,"sourceTagName":"Burberry/women's bag","dimensions":{"lengthCm":24,"heightCm":14,"widthCm":8},"rawTitle":"❤️B Note , crossbody , Vintage canvas+ ,height , , , , 。 , hardware , , , 。 , , 。 width , , , , , crossbody , , , , ! !Size:24X14X8cm"},"price":null,"currency":"CNY","moq":1,"category":"burberry-women-bags","status":"active","alibaba_url":null,"images":["https://xcimg.szwego.com/20230409/i1681012101_9343_0.jpg","https://xcimg.szwego.com/20230409/i1681012101_2855_1.jpg","https://xcimg.szwego.com/20230409/i1681012101_8031_2.jpg","https://xcimg.szwego.com/20230409/i1681012101_530_3.jpg","https://xcimg.szwego.com/20230409/i1681012101_9609_4.jpg","https://xcimg.szwego.com/20230409/i1681012101_8871_5.jpg","https://xcimg.szwego.com/20230409/i1681012101_9134_6.jpg","https://xcimg.szwego.com/20230409/i1681012101_1561_7.jpg","https://xcimg.szwego.com/20230409/i1681012101_4050_8.jpg"],"created_at":"2025-01-20T12:46:12.795Z"},{"id":"item-ffab9b575e71","sku":"_dg3g3AEs0dvF2T72sMMd6lmxxxNR6BinLgEOsnQ","name_en":"❤️B Note , crossbody , Vintage canvas+ ,height , , , , 。 , hardware , , , 。 , , 。 width , , , , , crossbody , , , , ! !Size:24X14X8cm","name_cn":"❤️B Note , crossbody , Vintage canvas+ ,height , , , , 。 , hardware , , , 。 , , 。 width , , , , , crossbody , , , , ! !Size:24X14X8cm","specs":{"source":"wsxcme","sourceId":"_dg3g3AEs0dvF2T72sMMd6lmxxxNR6BinLgEOsnQ","sourceTagId":80411239,"sourceTagName":"Burberry/women's bag","dimensions":{"lengthCm":24,"heightCm":14,"widthCm":8},"rawTitle":"❤️B Note , crossbody , Vintage canvas+ ,height , , , , 。 , hardware , , , 。 , , 。 width , , , , , crossbody , , , , ! !Size:24X14X8cm"},"price":null,"currency":"CNY","moq":1,"category":"burberry-women-bags","status":"active","alibaba_url":null,"images":["https://xcimg.szwego.com/20230409/i1681012781_5126_0.jpg","https://xcimg.szwego.com/20230409/i1681012781_9675_1.jpg","https://xcimg.szwego.com/20230409/i1681012781_9727_2.jpg","https://xcimg.szwego.com/20230409/i1681012781_27_3.jpg","https://xcimg.szwego.com/20230409/i1681012781_2741_4.jpg","https://xcimg.szwego.com/20230409/i1681012781_2294_5.jpg","https://xcimg.szwego.com/20230409/i1681012781_8440_6.jpg","https://xcimg.szwego.com/20230409/i1681012781_6721_7.jpg","https://xcimg.szwego.com/20230409/i1681012781_3954_8.jpg"],"created_at":"2025-01-20T12:46:12.794Z"},{"id":"item-6bed54603e8b","sku":"_dcKcKKxiWV3f3_pRbYsJU2VL6_BefrDkV0dNyRA","name_en":"❤️B 「The Banner handbag」, House , calfskin ,22 x 12 x 17cm","name_cn":"❤️B 「The Banner handbag」, House , calfskin ,22 x 12 x 17cm","specs":{"source":"wsxcme","sourceId":"_dcKcKKxiWV3f3_pRbYsJU2VL6_BefrDkV0dNyRA","sourceTagId":80411239,"sourceTagName":"Burberry/women's bag","rawTitle":"❤️B 「The Banner handbag」, House , calfskin ,22 x 12 x 17cm"},"price":null,"currency":"CNY","moq":1,"category":"burberry-women-bags","status":"active","alibaba_url":null,"images":["https://xcimg.szwego.com/20230613/i1686637081_8725_0.jpg","https://xcimg.szwego.com/20230613/i1686637081_5935_1.jpg","https://xcimg.szwego.com/20230613/i1686637081_4449_2.jpg","https://xcimg.szwego.com/20230613/i1686637081_2033_3.jpg","https://xcimg.szwego.com/20230613/i1686637081_9460_4.jpg","https://xcimg.szwego.com/20230613/i1686637081_5344_5.jpg","https://xcimg.szwego.com/20230613/i1686637081_9525_6.jpg","https://xcimg.szwego.com/20230613/i1686637081_134_7.jpg","https://xcimg.szwego.com/20230613/i1686637081_3626_8.jpg"],"created_at":"2025-01-20T12:46:12.793Z"},{"id":"item-992cdaf4c8a8","sku":"_dBpBpO1crB28GvU5aU-FTqB_7j3LzDCLdqgj_yw","name_en":"❤️B 「The Banner handbag」, House , calfskin ,22 x 12 x 17cm","name_cn":"❤️B 「The Banner handbag」, House , calfskin ,22 x 12 x 17cm","specs":{"source":"wsxcme","sourceId":"_dBpBpO1crB28GvU5aU-FTqB_7j3LzDCLdqgj_yw","sourceTagId":80411239,"sourceTagName":"Burberry/women's bag","rawTitle":"❤️B 「The Banner handbag」, House , calfskin ,22 x 12 x 17cm"},"price":null,"currency":"CNY","moq":1,"category":"burberry-women-bags","status":"active","alibaba_url":null,"images":["https://xcimg.szwego.com/20230613/i1686637523_4548_0.jpg","https://xcimg.szwego.com/20230613/i1686637523_1171_1.jpg","https://xcimg.szwego.com/20230613/i1686637523_2594_2.jpg","https://xcimg.szwego.com/20230613/i1686637531_1860_0.jpg","https://xcimg.szwego.com/20230613/i1686637523_4969_3.jpg","https://xcimg.szwego.com/20230613/i1686637523_5244_4.jpg","https://xcimg.szwego.com/20230613/i1686637523_1067_5.jpg","https://xcimg.szwego.com/20230613/i1686637523_5755_6.jpg","https://xcimg.szwego.com/20230613/i1686637523_1715_7.jpg"],"created_at":"2025-01-20T12:46:12.792Z"},{"id":"item-72ccf393a066","sku":"_dososLFEXSEjyhE2gYozdaJGBolqtVo67LN0-xg","name_en":"B The Banner House calfskin handbag House Check shoulder carry ,Size26x12x19","name_cn":"B The Banner House calfskin handbag House Check shoulder carry ,Size26x12x19","specs":{"source":"wsxcme","sourceId":"_dososLFEXSEjyhE2gYozdaJGBolqtVo67LN0-xg","sourceTagId":80411239,"sourceTagName":"Burberry/women's bag","rawTitle":"B The Banner House calfskin handbag House Check shoulder carry ,Size26x12x19"},"price":null,"currency":"CNY","moq":1,"category":"burberry-women-bags","status":"active","alibaba_url":null,"images":["https://xcimg.szwego.com/20220114/i1642131007_8259_0.jpg","https://xcimg.szwego.com/20220114/i1642131007_3472_1.jpg","https://xcimg.szwego.com/20220114/i1642131007_2965_2.jpg","https://xcimg.szwego.com/20220114/i1642131007_1974_3.jpg","https://xcimg.szwego.com/20220114/i1642131007_3973_4.jpg","https://xcimg.szwego.com/20220114/i1642131007_1397_5.jpg","https://xcimg.szwego.com/20220114/i1642131007_4488_6.jpg","https://xcimg.szwego.com/20220114/i1642131007_7684_7.jpg","https://xcimg.szwego.com/20220114/i1642131007_3035_8.jpg"],"created_at":"2025-01-20T12:46:12.791Z"},{"id":"item-14833c8d39ef","sku":"_d8k8k2gFaRPFTWIZmlO6Wbwq1l7j8saaC-fbs1g","name_en":"B The Banner House calfskin handbag House Check shoulder carry ,Size26x12x19","name_cn":"B The Banner House calfskin handbag House Check shoulder carry ,Size26x12x19","specs":{"source":"wsxcme","sourceId":"_d8k8k2gFaRPFTWIZmlO6Wbwq1l7j8saaC-fbs1g","sourceTagId":80411239,"sourceTagName":"Burberry/women's bag","rawTitle":"B The Banner House calfskin handbag House Check shoulder carry ,Size26x12x19"},"price":null,"currency":"CNY","moq":1,"category":"burberry-women-bags","status":"active","alibaba_url":null,"images":["https://xcimg.szwego.com/20220114/i1642131476_1091_0.jpg","https://xcimg.szwego.com/20220114/i1642131476_7954_1.jpg","https://xcimg.szwego.com/20220114/i1642131476_1393_2.jpg","https://xcimg.szwego.com/20220114/i1642131476_8847_3.jpg","https://xcimg.szwego.com/20220114/i1642131476_3840_4.jpg","https://xcimg.szwego.com/20220114/i1642131476_1210_5.jpg","https://xcimg.szwego.com/20220114/i1642131476_1641_6.jpg","https://xcimg.szwego.com/20220114/i1642131476_2819_7.jpg","https://xcimg.szwego.com/20220114/i1642131476_9742_8.jpg"],"created_at":"2025-01-20T12:46:12.790Z"},{"id":"item-5396754b5064","sku":"_ds8s8OIBklYrh5wepZ441-aiYyKphfYDV00aP1g","name_en":"B The Banner House calfskin handbag House Check shoulder carry ,Size26x12x19","name_cn":"B The Banner House calfskin handbag House Check shoulder carry ,Size26x12x19","specs":{"source":"wsxcme","sourceId":"_ds8s8OIBklYrh5wepZ441-aiYyKphfYDV00aP1g","sourceTagId":80411239,"sourceTagName":"Burberry/women's bag","rawTitle":"B The Banner House calfskin handbag House Check shoulder carry ,Size26x12x19"},"price":null,"currency":"CNY","moq":1,"category":"burberry-women-bags","status":"active","alibaba_url":null,"images":["https://xcimg.szwego.com/20220817/i1660708603_1938_0.jpg","https://xcimg.szwego.com/20220817/i1660708603_9725_1.jpg","https://xcimg.szwego.com/20220817/i1660708603_5388_2.jpg","https://xcimg.szwego.com/20220817/i1660708603_9742_3.jpg","https://xcimg.szwego.com/20220817/i1660708603_2761_4.jpg","https://xcimg.szwego.com/20220817/i1660708603_1319_5.jpg","https://xcimg.szwego.com/20220817/i1660708603_5832_6.jpg","https://xcimg.szwego.com/20220817/i1660708603_9423_7.jpg","https://xcimg.szwego.com/20220817/i1660708603_3418_8.jpg"],"created_at":"2025-01-20T12:46:12.789Z"},{"id":"item-0677aa162a02","sku":"_daDaDVk8lYlQDzVmANQfVZrf0FqqJX8GKHKFKLw","name_en":"B 「The Banner handbag」, House , calfskin。34 x 16 x 25cm","name_cn":"B 「The Banner handbag」, House , calfskin。34 x 16 x 25cm","specs":{"source":"wsxcme","sourceId":"_daDaDVk8lYlQDzVmANQfVZrf0FqqJX8GKHKFKLw","sourceTagId":80411239,"sourceTagName":"Burberry/women's bag","rawTitle":"B 「The Banner handbag」, House , calfskin。34 x 16 x 25cm"},"price":null,"currency":"CNY","moq":1,"category":"burberry-women-bags","status":"active","alibaba_url":null,"images":["https://xcimg.szwego.com/20220114/i1642130413_230_0.jpg","https://xcimg.szwego.com/20220114/i1642130413_8260_1.jpg","https://xcimg.szwego.com/20220114/i1642130413_5569_2.jpg","https://xcimg.szwego.com/20220114/i1642130413_4231_3.jpg","https://xcimg.szwego.com/20220114/i1642130413_1929_4.jpg","https://xcimg.szwego.com/20220114/i1642130413_3351_5.jpg","https://xcimg.szwego.com/20220114/i1642130413_3196_6.jpg","https://xcimg.szwego.com/20220114/i1642130413_8400_7.jpg","https://xcimg.szwego.com/20220114/i1642130413_8223_8.jpg"],"created_at":"2025-01-20T12:46:12.788Z"},{"id":"item-86febdbf2e88","sku":"_dmVmVUoGtbBeGgOfIUi1Wm6zArmtLUrDNqtyP_g","name_en":"❤️B handbag, calfskin , 。 Vintage , 。26 x 12 x 19cm","name_cn":"❤️B handbag, calfskin , 。 Vintage , 。26 x 12 x 19cm","specs":{"source":"wsxcme","sourceId":"_dmVmVUoGtbBeGgOfIUi1Wm6zArmtLUrDNqtyP_g","sourceTagId":80411239,"sourceTagName":"Burberry/women's bag","rawTitle":"❤️B handbag, calfskin , 。 Vintage , 。26 x 12 x 19cm"},"price":null,"currency":"CNY","moq":1,"category":"burberry-women-bags","status":"active","alibaba_url":null,"images":["https://xcimg.szwego.com/img/d5e7a5ce/20231201/a1701413861966_0014.jpg","https://xcimg.szwego.com/img/d5e7a5ce/20231201/a1701413861957_2150.jpg","https://xcimg.szwego.com/img/d5e7a5ce/20231201/a1701413861992_4850.jpg","https://xcimg.szwego.com/img/d5e7a5ce/20231201/a1701413862049_5272.jpg","https://xcimg.szwego.com/img/d5e7a5ce/20231201/a1701413861962_8557.jpg","https://xcimg.szwego.com/img/d5e7a5ce/20231201/a1701413861961_7252.jpg","https://xcimg.szwego.com/img/d5e7a5ce/20231201/a1701413862929_4235.jpg","https://xcimg.szwego.com/img/d5e7a5ce/20231201/a1701413862890_0402.jpg","https://xcimg.szwego.com/img/d5e7a5ce/20231201/a1701413862910_0014.jpg"],"created_at":"2025-01-20T12:46:12.787Z"},{"id":"item-2e3c8adfe43d","sku":"_dWlWlOXUGQ2vjvvylPITPo3iqX5vPmdhffCODOQ","name_en":"❤️B handbag, calfskin , 。 Vintage , 。26 x 12 x 19cm","name_cn":"❤️B handbag, calfskin , 。 Vintage , 。26 x 12 x 19cm","specs":{"source":"wsxcme","sourceId":"_dWlWlOXUGQ2vjvvylPITPo3iqX5vPmdhffCODOQ","sourceTagId":80411239,"sourceTagName":"Burberry/women's bag","rawTitle":"❤️B handbag, calfskin , 。 Vintage , 。26 x 12 x 19cm"},"price":null,"currency":"CNY","moq":1,"category":"burberry-women-bags","status":"active","alibaba_url":null,"images":["https://xcimg.szwego.com/img/d5e7a5ce/20231201/a1701415211722_6601.jpg","https://xcimg.szwego.com/img/d5e7a5ce/20231201/a1701415211720_6838.jpg","https://xcimg.szwego.com/img/d5e7a5ce/20231201/a1701415211731_8256.jpg","https://xcimg.szwego.com/img/d5e7a5ce/20231201/a1701415211715_8875.jpg","https://xcimg.szwego.com/img/d5e7a5ce/20231201/a1701415211722_0644.jpg","https://xcimg.szwego.com/img/d5e7a5ce/20231201/a1701415211732_3343.jpg","https://xcimg.szwego.com/img/d5e7a5ce/20231201/a1701415212281_8181.jpg","https://xcimg.szwego.com/img/d5e7a5ce/20231201/a1701415212284_4061.jpg","https://xcimg.szwego.com/img/d5e7a5ce/20231201/a1701415212279_2087.jpg"],"created_at":"2025-01-20T12:46:12.786Z"},{"id":"item-09791cf52dad","sku":"_dv3v3aDa-OtggvDXQQxzNS4hXSvaoz-GO51ea0Q","name_en":"Front view","name_cn":"Front view","specs":{"source":"wsxcme","sourceId":"_dv3v3aDa-OtggvDXQQxzNS4hXSvaoz-GO51ea0Q","sourceTagId":80411239,"sourceTagName":"Burberry/women's bag","rawTitle":"Front view"},"price":null,"currency":"CNY","moq":1,"category":"burberry-women-bags","status":"active","alibaba_url":null,"images":["https://xcimg.szwego.com/img/d5e7a5ce/20231002/a1696228500460_6556.jpg","https://xcimg.szwego.com/img/d5e7a5ce/20231002/a1696228500461_5754.jpg","https://xcimg.szwego.com/img/d5e7a5ce/20231002/a1696228500462_2865.jpg","https://xcimg.szwego.com/img/d5e7a5ce/20231002/a1696228500463_7535.jpg","https://xcimg.szwego.com/img/d5e7a5ce/20231002/a1696228500464_1603.jpg","https://xcimg.szwego.com/img/d5e7a5ce/20231002/a1696228500537_6162.jpg","https://xcimg.szwego.com/img/d5e7a5ce/20231002/a1696228500583_2450.jpg","https://xcimg.szwego.com/img/d5e7a5ce/20231002/a1696228500628_6437.jpg"],"created_at":"2025-01-20T12:46:12.785Z"},{"id":"item-37cc1262b012","sku":"_drFrFjnManIdjP5K15e7SNE3qPq1WC3XsFbCdBQ","name_en":"❤️B ! 🌹 canvas+black logo calfskin! approx. , ! 。 💕 , ! 13 , 👍","name_cn":"❤️B ! 🌹 canvas+black logo calfskin! approx. , ! 。 💕 , ! 13 , 👍\nSize: length51, length36 51x18.5x29cm","specs":{"source":"wsxcme","sourceId":"_drFrFjnManIdjP5K15e7SNE3qPq1WC3XsFbCdBQ","sourceTagId":80411239,"sourceTagName":"Burberry/women's bag","rawTitle":"❤️B ! 🌹 canvas+black logo calfskin! approx. , ! 。 💕 , ! 13 , 👍\nSize: length51, length36 51x18.5x29cm"},"price":null,"currency":"CNY","moq":1,"category":"burberry-women-bags","status":"active","alibaba_url":null,"images":["https://xcimg.szwego.com/img/d5e7a5ce/20231002/a1696228470321_1160.jpg","https://xcimg.szwego.com/img/d5e7a5ce/20231002/a1696228470323_3063.jpg","https://xcimg.szwego.com/img/d5e7a5ce/20231002/a1696228470373_4416.jpg","https://xcimg.szwego.com/img/d5e7a5ce/20231002/a1696228470452_6530.jpg","https://xcimg.szwego.com/img/d5e7a5ce/20231002/a1696228470503_5257.jpg","https://xcimg.szwego.com/img/d5e7a5ce/20231002/a1696228470504_0400.jpg","https://xcimg.szwego.com/img/d5e7a5ce/20231002/a1696228470505_5182.jpg","https://xcimg.szwego.com/img/d5e7a5ce/20231002/a1696228470563_2635.jpg","https://xcimg.szwego.com/img/d5e7a5ce/20231002/a1696228470565_1058.jpg"],"created_at":"2025-01-20T12:46:12.784Z"},{"id":"item-dab83e2113a1","sku":"_dcTcTLCYkYXuFBaLPBUXF-Eu0qUAuwAvD6fenPQ","name_en":"Front view","name_cn":"Front view","specs":{"source":"wsxcme","sourceId":"_dcTcTLCYkYXuFBaLPBUXF-Eu0qUAuwAvD6fenPQ","sourceTagId":80411239,"sourceTagName":"Burberry/women's bag","rawTitle":"Front view"},"price":null,"currency":"CNY","moq":1,"category":"burberry-women-bags","status":"active","alibaba_url":null,"images":["https://xcimg.szwego.com/img/d5e7a5ce/20231002/a1696228276502_3268.jpg","https://xcimg.szwego.com/img/d5e7a5ce/20231002/a1696228276502_4662.jpg","https://xcimg.szwego.com/img/d5e7a5ce/20231002/a1696228276544_6237.jpg","https://xcimg.szwego.com/img/d5e7a5ce/20231002/a1696228276588_2434.jpg","https://xcimg.szwego.com/img/d5e7a5ce/20231002/a1696228276631_4658.jpg","https://xcimg.szwego.com/img/d5e7a5ce/20231002/a1696228276696_0216.jpg"],"created_at":"2025-01-20T12:46:12.783Z"},{"id":"item-f92cb0608a57","sku":"_dmKmKUwm-jxD-DtYiFycmmMDoTE_wE0ns-OqqFQ","name_en":"❤️B !small ! small 。Size35X11X27cm","name_cn":"❤️B !small ! small 。Size35X11X27cm","specs":{"source":"wsxcme","sourceId":"_dmKmKUwm-jxD-DtYiFycmmMDoTE_wE0ns-OqqFQ","sourceTagId":80411239,"sourceTagName":"Burberry/women's bag","dimensions":{"lengthCm":35,"heightCm":11,"widthCm":27},"rawTitle":"❤️B !small ! small 。Size35X11X27cm"},"price":null,"currency":"CNY","moq":1,"category":"burberry-women-bags","status":"active","alibaba_url":null,"images":["https://xcimg.szwego.com/img/d5e7a5ce/20231002/a1696228263008_5058.jpg","https://xcimg.szwego.com/img/d5e7a5ce/20231002/a1696228263010_8818.jpg","https://xcimg.szwego.com/img/d5e7a5ce/20231002/a1696228263011_5842.jpg","https://xcimg.szwego.com/img/d5e7a5ce/20231002/a1696228263089_8875.jpg","https://xcimg.szwego.com/img/d5e7a5ce/20231002/a1696228263143_7444.jpg","https://xcimg.szwego.com/img/d5e7a5ce/20231002/a1696228263144_3733.jpg","https://xcimg.szwego.com/img/d5e7a5ce/20231002/a1696228263194_4525.jpg","https://xcimg.szwego.com/img/d5e7a5ce/20231002/a1696228263195_6541.jpg","https://xcimg.szwego.com/img/d5e7a5ce/20231002/a1696228263253_7447.jpg"],"created_at":"2025-01-20T12:46:12.782Z"},{"id":"item-cb407708f3d0","sku":"_dnRnRgPFNXtkyGthKYceKKv3wIYGr4bYCp2X0Vg","name_en":"❤️B new style , canvas 。 Bur ,","name_cn":"❤️B new style , canvas 。 Bur ,\n zipper 。\nSize44 x 16x 24.5cm","specs":{"source":"wsxcme","sourceId":"_dnRnRgPFNXtkyGthKYceKKv3wIYGr4bYCp2X0Vg","sourceTagId":80411239,"sourceTagName":"Burberry/women's bag","dimensions":{"lengthCm":44,"heightCm":16,"widthCm":24.5},"rawTitle":"❤️B new style , canvas 。 Bur ,\n zipper 。\nSize44 x 16x 24.5cm"},"price":null,"currency":"CNY","moq":1,"category":"burberry-women-bags","status":"active","alibaba_url":null,"images":["https://xcimg.szwego.com/20230628/i1687923042_526_0.jpg","https://xcimg.szwego.com/20230628/i1687923042_6136_1.jpg","https://xcimg.szwego.com/20230628/i1687923042_9796_2.jpg","https://xcimg.szwego.com/20230628/i1687923042_8333_3.jpg","https://xcimg.szwego.com/20230628/i1687923042_1540_4.jpg","https://xcimg.szwego.com/20230628/i1687923042_6354_5.jpg","https://xcimg.szwego.com/20230628/i1687923042_9236_6.jpg","https://xcimg.szwego.com/20230628/i1687923042_2452_7.jpg","https://xcimg.szwego.com/20230628/i1687923042_7942_8.jpg"],"created_at":"2025-01-20T12:46:12.781Z"},{"id":"item-e7fe8a613595","sku":"_dw3w3dkJpkK6-z4jpb-xMJSck5QR4mbz265p0Pg","name_en":"❤️B , , Thomas Bur 。 , , 。16 x 15 x 17.5cm","name_cn":"❤️B , , Thomas Bur 。 , , 。16 x 15 x 17.5cm","specs":{"source":"wsxcme","sourceId":"_dw3w3dkJpkK6-z4jpb-xMJSck5QR4mbz265p0Pg","sourceTagId":80411239,"sourceTagName":"Burberry/women's bag","rawTitle":"❤️B , , Thomas Bur 。 , , 。16 x 15 x 17.5cm"},"price":null,"currency":"CNY","moq":1,"category":"burberry-women-bags","status":"active","alibaba_url":null,"images":["https://xcimg.szwego.com/img/d5e7a5ce/20231122/a1700634218992_3825.jpg","https://xcimg.szwego.com/img/d5e7a5ce/20231122/a1700634219772_1643.jpg","https://xcimg.szwego.com/img/d5e7a5ce/20231122/a1700634218994_2158.jpg","https://xcimg.szwego.com/img/d5e7a5ce/20231122/a1700634218980_0236.jpg","https://xcimg.szwego.com/img/d5e7a5ce/20231122/a1700634218988_5820.jpg","https://xcimg.szwego.com/img/d5e7a5ce/20231122/a1700634218997_2350.jpg","https://xcimg.szwego.com/img/d5e7a5ce/20231122/a1700634218998_2551.jpg","https://xcimg.szwego.com/img/d5e7a5ce/20231122/a1700634219766_8738.jpg","https://xcimg.szwego.com/img/d5e7a5ce/20231122/a1700634219765_2157.jpg"],"created_at":"2025-01-20T12:46:12.780Z"},{"id":"item-2c95e8517e5c","sku":"_djRjRAvuxxmcRQazRGOqy_oI1novig1r3nZd0lQ","name_en":"❤️B series TB , TB series , Vintage canvas+ , , , , 。 , Color , , height , Thomas Burberry , 。 , length ,top handle crossbody , , , , , , , , , 。Size:18.5X16.5X11cm","name_cn":"❤️B series TB , TB series , Vintage canvas+ , , , , 。 , Color , , height , Thomas Burberry , 。 , length ,top handle crossbody , , , , , , , , , 。Size:18.5X16.5X11cm","specs":{"source":"wsxcme","sourceId":"_djRjRAvuxxmcRQazRGOqy_oI1novig1r3nZd0lQ","sourceTagId":80411239,"sourceTagName":"Burberry/women's bag","dimensions":{"lengthCm":18.5,"heightCm":16.5,"widthCm":11},"rawTitle":"❤️B series TB , TB series , Vintage canvas+ , , , , 。 , Color , , height , Thomas Burberry , 。 , length ,top handle crossbody , , , , , , , , , 。Size:18.5X16.5X11cm"},"price":null,"currency":"CNY","moq":1,"category":"burberry-women-bags","status":"active","alibaba_url":null,"images":["https://xcimg.szwego.com/img/f3ff0ddb/20231026/i1698302731_2114_0.jpg","https://xcimg.szwego.com/img/f3ff0ddb/20231026/i1698302731_8313_1.jpg","https://xcimg.szwego.com/img/f3ff0ddb/20231026/i1698302731_9031_2.jpg","https://xcimg.szwego.com/img/f3ff0ddb/20231026/i1698302731_1507_3.jpg","https://xcimg.szwego.com/img/f3ff0ddb/20231026/i1698302731_7565_4.jpg","https://xcimg.szwego.com/img/f3ff0ddb/20231026/i1698302731_3122_5.jpg","https://xcimg.szwego.com/img/f3ff0ddb/20231026/i1698302731_3697_6.jpg","https://xcimg.szwego.com/img/f3ff0ddb/20231026/i1698302731_7009_7.jpg","https://xcimg.szwego.com/img/f3ff0ddb/20231026/i1698302731_5834_8.jpg"],"created_at":"2025-01-20T12:46:12.779Z"},{"id":"item-2cf48b700249","sku":"_dLoLoaA1XaHmeTkz8Vv1l9cWnK31VFlDyot7e3Q","name_en":"On-body effect!","name_cn":"On-body effect!","specs":{"source":"wsxcme","sourceId":"_dLoLoaA1XaHmeTkz8Vv1l9cWnK31VFlDyot7e3Q","sourceTagId":80411239,"sourceTagName":"Burberry/women's bag","rawTitle":"On-body effect!"},"price":null,"currency":"CNY","moq":1,"category":"burberry-women-bags","status":"active","alibaba_url":null,"images":["https://xcimg.szwego.com/img/f3ff0ddb/20231026/i1698303665_5794_0.jpg","https://xcimg.szwego.com/img/f3ff0ddb/20231026/i1698303665_9287_2.jpg","https://xcimg.szwego.com/img/f3ff0ddb/20231026/i1698303665_3611_3.jpg","https://xcimg.szwego.com/img/f3ff0ddb/20231026/i1698303665_8078_4.jpg","https://xcimg.szwego.com/img/f3ff0ddb/20231026/i1698303665_7509_5.jpg","https://xcimg.szwego.com/img/f3ff0ddb/20231026/i1698303665_48_1.jpg"],"created_at":"2025-01-20T12:46:12.778Z"},{"id":"item-de65aad62bdf","sku":"_dwWwWrKFzqMnRCtDY7lE_dW2jPBNmHgL_g0KfBA","name_en":"❤️B series TB , TB series , Vintage canvas+ , , , , 。 , Color , , height , Thomas Burberry , 。 , length ,top handle crossbody , , , , , , , , , 。Size:26X26X16cm","name_cn":"❤️B series TB , TB series , Vintage canvas+ , , , , 。 , Color , , height , Thomas Burberry , 。 , length ,top handle crossbody , , , , , , , , , 。Size:26X26X16cm","specs":{"source":"wsxcme","sourceId":"_dwWwWrKFzqMnRCtDY7lE_dW2jPBNmHgL_g0KfBA","sourceTagId":80411239,"sourceTagName":"Burberry/women's bag","dimensions":{"lengthCm":26,"heightCm":26,"widthCm":16},"rawTitle":"❤️B series TB , TB series , Vintage canvas+ , , , , 。 , Color , , height , Thomas Burberry , 。 , length ,top handle crossbody , , , , , , , , , 。Size:26X26X16cm"},"price":null,"currency":"CNY","moq":1,"category":"burberry-women-bags","status":"active","alibaba_url":null,"images":["https://xcimg.szwego.com/img/f3ff0ddb/20231026/i1698302626_1596_0.jpg","https://xcimg.szwego.com/img/f3ff0ddb/20231026/i1698302626_6263_1.jpg","https://xcimg.szwego.com/img/f3ff0ddb/20231026/i1698302626_9767_2.jpg","https://xcimg.szwego.com/img/f3ff0ddb/20231026/i1698302626_5998_3.jpg","https://xcimg.szwego.com/img/f3ff0ddb/20231026/i1698302626_9060_4.jpg","https://xcimg.szwego.com/img/f3ff0ddb/20231026/i1698302626_7938_5.jpg","https://xcimg.szwego.com/img/f3ff0ddb/20231026/i1698302626_2637_6.jpg","https://xcimg.szwego.com/img/f3ff0ddb/20231026/i1698302626_4972_7.jpg","https://xcimg.szwego.com/img/f3ff0ddb/20231026/i1698302626_701_8.jpg"],"created_at":"2025-01-20T12:46:12.777Z"},{"id":"item-423d10435c1b","sku":"_daNaN6Pc3qh38mJssxo7ZEIapZJlfzVktkA_dwQ","name_en":"B brown","name_cn":"B brown\n brown , 🌟 , , ,height !","specs":{"source":"wsxcme","sourceId":"_daNaN6Pc3qh38mJssxo7ZEIapZJlfzVktkA_dwQ","sourceTagId":80411239,"sourceTagName":"Burberry/women's bag","rawTitle":"B brown\n brown , 🌟 , , ,height !"},"price":null,"currency":"CNY","moq":1,"category":"burberry-women-bags","status":"active","alibaba_url":null,"images":["https://xcimg.szwego.com/img/14bb1ccb/20231120/i1700462671_4669_8.jpg","https://xcimg.szwego.com/img/14bb1ccb/20231120/i1700462671_9203_0.jpg","https://xcimg.szwego.com/img/14bb1ccb/20231120/i1700462671_8979_7.jpg","https://xcimg.szwego.com/img/14bb1ccb/20231120/i1700462671_2046_6.jpg","https://xcimg.szwego.com/img/14bb1ccb/20231120/i1700462671_8840_1.jpg","https://xcimg.szwego.com/img/14bb1ccb/20231120/i1700462671_6325_4.jpg","https://xcimg.szwego.com/img/14bb1ccb/20231120/i1700462671_5122_5.jpg","https://xcimg.szwego.com/img/14bb1ccb/20231120/i1700462671_8812_2.jpg","https://xcimg.szwego.com/img/14bb1ccb/20231120/i1700462671_1964_3.jpg"],"created_at":"2025-01-20T12:46:12.776Z"}],"page":248,"pageSize":24,"total":9921,"totalPages":414}
