{"items":[{"id":"item-1c2dcfb492d4","sku":"_du1u1YT_seWO0jz98UhkXEwDFgLD7gxDBW6qC-g","name_en":"🆕 款号:M12587  带可变码芯片","name_cn":"🆕 款号:M12587  带可变码芯片\n   本款 Montsouris 小号双肩包为亮泽羊皮革融入 Monogram 细节,巧妙道出 LV Vibe 系列身份。路典藏搭扣与皮革抽绳丰富功能设计,别致金属件成就点睛之笔。拉链前袋令小件物品稳妥随行。\n\n   28 x 30 x 18 厘米\n(长x 高x 宽)","specs":{"source":"wsxcme","sourceId":"_du1u1YT_seWO0jz98UhkXEwDFgLD7gxDBW6qC-g","sourceTagId":47002622,"sourceTagName":"LV/女包","modelNumber":"M12587  带可变码芯片","rawTitle":"🆕 款号:M12587  带可变码芯片\n   本款 Montsouris 小号双肩包为亮泽羊皮革融入 Monogram 细节,巧妙道出 LV Vibe 系列身份。路典藏搭扣与皮革抽绳丰富功能设计,别致金属件成就点睛之笔。拉链前袋令小件物品稳妥随行。\n\n   28 x 30 x 18 厘米\n(长x 高x 宽)"},"price":null,"currency":"CNY","moq":1,"category":"lv-women-bags","status":"active","alibaba_url":null,"images":["https://xcimg.szwego.com/img/6906c06d/20240920/i1726811951_2744_0.jpg","https://xcimg.szwego.com/img/6906c06d/20240920/i1726811951_2588_0.jpg","https://xcimg.szwego.com/img/6906c06d/20240920/i1726811951_8055_0.jpg","https://xcimg.szwego.com/img/6906c06d/20240920/i1726811951_7333_0.jpg","https://xcimg.szwego.com/img/6906c06d/20240920/i1726811951_3679_0.jpg","https://xcimg.szwego.com/img/6906c06d/20240920/i1726811951_4940_0.jpg","https://xcimg.szwego.com/img/6906c06d/20240920/i1726811951_8485_0.jpg","https://xcimg.szwego.com/img/6906c06d/20240920/i1726811951_5811_0.jpg","https://xcimg.szwego.com/img/6906c06d/20240920/i1726811951_5156_0.jpg"],"created_at":"2024-10-23T05:24:18.573Z"},{"id":"item-1c2dcfb492d4","sku":"_du1u1YT_seWO0jz98UhkXEwDFgLD7gxDBW6qC-g","name_en":"🆕 款号:M12587  带可变码芯片","name_cn":"🆕 款号:M12587  带可变码芯片\n   本款 Montsouris 小号双肩包为亮泽羊皮革融入 Monogram 细节,巧妙道出 LV Vibe 系列身份。路典藏搭扣与皮革抽绳丰富功能设计,别致金属件成就点睛之笔。拉链前袋令小件物品稳妥随行。\n\n   28 x 30 x 18 厘米\n(长x 高x 宽)","specs":{"source":"wsxcme","sourceId":"_du1u1YT_seWO0jz98UhkXEwDFgLD7gxDBW6qC-g","sourceTagId":47002743,"sourceTagName":"女士双肩包","modelNumber":"M12587  带可变码芯片","rawTitle":"🆕 款号:M12587  带可变码芯片\n   本款 Montsouris 小号双肩包为亮泽羊皮革融入 Monogram 细节,巧妙道出 LV Vibe 系列身份。路典藏搭扣与皮革抽绳丰富功能设计,别致金属件成就点睛之笔。拉链前袋令小件物品稳妥随行。\n\n   28 x 30 x 18 厘米\n(长x 高x 宽)"},"price":null,"currency":"CNY","moq":1,"category":"women-backpacks","status":"active","alibaba_url":null,"images":["https://xcimg.szwego.com/img/6906c06d/20240920/i1726811951_2744_0.jpg","https://xcimg.szwego.com/img/6906c06d/20240920/i1726811951_2588_0.jpg","https://xcimg.szwego.com/img/6906c06d/20240920/i1726811951_8055_0.jpg","https://xcimg.szwego.com/img/6906c06d/20240920/i1726811951_7333_0.jpg","https://xcimg.szwego.com/img/6906c06d/20240920/i1726811951_3679_0.jpg","https://xcimg.szwego.com/img/6906c06d/20240920/i1726811951_4940_0.jpg","https://xcimg.szwego.com/img/6906c06d/20240920/i1726811951_8485_0.jpg","https://xcimg.szwego.com/img/6906c06d/20240920/i1726811951_5811_0.jpg","https://xcimg.szwego.com/img/6906c06d/20240920/i1726811951_5156_0.jpg"],"created_at":"2024-10-23T05:24:18.573Z"},{"id":"item-2af1154cbc2b","sku":"_dmnmnImsN63oeH7qsPEoi9SzMIkZKySF2LFhxBQ","name_en":"❤️B家纯原最新双肩包🎒装饰精纺 Bur格纹。内衬为同种面料,点缀马术骑士徽标 (EKD)贴花。搭配 B 字型","name_cn":"❤️B家纯原最新双肩包🎒装饰精纺 Bur格纹。内衬为同种面料,点缀马术骑士徽标 (EKD)贴花。搭配 B 字型\n拉链头,设有1个外口袋,可容纳文件或笔记本电脑。来自Bur 经典之作系列,以鲜明品牌风格诠释衣橱必备款式。网纹顶部提柄 可式肩背带拉链开合2个拉链外袋;2个外插袋\n正面口袋饰有马术骑士徽标 (EKD)贴花\n尺寸35 ×14×41cm","specs":{"source":"wsxcme","sourceId":"_dmnmnImsN63oeH7qsPEoi9SzMIkZKySF2LFhxBQ","sourceTagId":47002743,"sourceTagName":"女士双肩包","dimensions":{"lengthCm":35,"heightCm":14,"widthCm":41},"rawTitle":"❤️B家纯原最新双肩包🎒装饰精纺 Bur格纹。内衬为同种面料,点缀马术骑士徽标 (EKD)贴花。搭配 B 字型\n拉链头,设有1个外口袋,可容纳文件或笔记本电脑。来自Bur 经典之作系列,以鲜明品牌风格诠释衣橱必备款式。网纹顶部提柄 可式肩背带拉链开合2个拉链外袋;2个外插袋\n正面口袋饰有马术骑士徽标 (EKD)贴花\n尺寸35 ×14×41cm"},"price":null,"currency":"CNY","moq":1,"category":"women-backpacks","status":"active","alibaba_url":null,"images":["https://xcimg.szwego.com/img/d5e7a5ce/20240923/a1727070731968_4053.jpg","https://xcimg.szwego.com/img/d5e7a5ce/20240923/a1727070731967_1023.jpg","https://xcimg.szwego.com/img/d5e7a5ce/20240923/a1727070731972_4228.jpg","https://xcimg.szwego.com/img/d5e7a5ce/20240923/a1727070731971_2688.jpg","https://xcimg.szwego.com/img/d5e7a5ce/20240923/a1727070732903_6615.jpg","https://xcimg.szwego.com/img/d5e7a5ce/20240923/a1727070731975_1444.jpg","https://xcimg.szwego.com/img/d5e7a5ce/20240923/a1727070731970_3458.jpg","https://xcimg.szwego.com/img/d5e7a5ce/20240923/a1727070732808_1812.jpg","https://xcimg.szwego.com/img/d5e7a5ce/20240923/a1727070732808_7822.jpg"],"created_at":"2024-10-23T04:56:23.551Z"},{"id":"item-0cf91daed1e6","sku":"_d_H_Hy5nOzhWLHvfAcqeW0fEBsEPrBcxWg9he3Q","name_en":"❤️B家纯原最新双肩包🎒装饰精纺 Bur格纹。内衬为同种面料,点缀马术骑士徽标 (EKD)贴花。搭配 B 字型","name_cn":"❤️B家纯原最新双肩包🎒装饰精纺 Bur格纹。内衬为同种面料,点缀马术骑士徽标 (EKD)贴花。搭配 B 字型\n拉链头,设有1个外口袋,可容纳文件或笔记本电脑。来自Bur 经典之作系列,以鲜明品牌风格诠释衣橱必备款式。网纹顶部提柄 可式肩背带拉链开合2个拉链外袋;2个外插袋\n正面口袋饰有马术骑士徽标 (EKD)贴花\n尺寸35 ×14×41cm","specs":{"source":"wsxcme","sourceId":"_d_H_Hy5nOzhWLHvfAcqeW0fEBsEPrBcxWg9he3Q","sourceTagId":47002743,"sourceTagName":"女士双肩包","dimensions":{"lengthCm":35,"heightCm":14,"widthCm":41},"rawTitle":"❤️B家纯原最新双肩包🎒装饰精纺 Bur格纹。内衬为同种面料,点缀马术骑士徽标 (EKD)贴花。搭配 B 字型\n拉链头,设有1个外口袋,可容纳文件或笔记本电脑。来自Bur 经典之作系列,以鲜明品牌风格诠释衣橱必备款式。网纹顶部提柄 可式肩背带拉链开合2个拉链外袋;2个外插袋\n正面口袋饰有马术骑士徽标 (EKD)贴花\n尺寸35 ×14×41cm"},"price":null,"currency":"CNY","moq":1,"category":"women-backpacks","status":"active","alibaba_url":null,"images":["https://xcimg.szwego.com/img/d5e7a5ce/20240923/a1727070543665_0328.jpg","https://xcimg.szwego.com/img/d5e7a5ce/20240923/a1727070543664_5262.jpg","https://xcimg.szwego.com/img/d5e7a5ce/20240923/a1727070543668_1785.jpg","https://xcimg.szwego.com/img/d5e7a5ce/20240923/a1727070543667_3735.jpg","https://xcimg.szwego.com/img/d5e7a5ce/20240923/a1727070543669_4615.jpg","https://xcimg.szwego.com/img/d5e7a5ce/20240923/a1727070543670_3106.jpg","https://xcimg.szwego.com/img/d5e7a5ce/20240923/a1727070544192_5820.jpg","https://xcimg.szwego.com/img/d5e7a5ce/20240923/a1727070544194_4525.jpg","https://xcimg.szwego.com/img/d5e7a5ce/20240923/a1727070544193_0532.jpg"],"created_at":"2024-10-23T04:56:23.550Z"},{"id":"item-7151ab1a92ca","sku":"_dgIgIOUe27XWkzTQm7jgsx0cEejtrwOqe6JgoeA","name_en":"专柜新款Vintage格纹双肩包 女款中号格子双肩背包 精选 Vintage 格纹棉质面料匠心打造 这一季的格子简直就是完美逆袭!!️(22X33)","name_cn":"专柜新款Vintage格纹双肩包 女款中号格子双肩背包 精选 Vintage 格纹棉质面料匠心打造 这一季的格子简直就是完美逆袭!!️(22X33)","specs":{"source":"wsxcme","sourceId":"_dgIgIOUe27XWkzTQm7jgsx0cEejtrwOqe6JgoeA","sourceTagId":47002743,"sourceTagName":"女士双肩包","rawTitle":"专柜新款Vintage格纹双肩包 女款中号格子双肩背包 精选 Vintage 格纹棉质面料匠心打造 这一季的格子简直就是完美逆袭!!️(22X33)"},"price":null,"currency":"CNY","moq":1,"category":"women-backpacks","status":"active","alibaba_url":null,"images":["https://xcimg.szwego.com/1563253654_2397097888_0","https://xcimg.szwego.com/1563253654_129557589_1","https://xcimg.szwego.com/1563253655_3760072737_2","https://xcimg.szwego.com/1563253655_365575219_3","https://xcimg.szwego.com/1563253655_3905414237_4","https://xcimg.szwego.com/1563253655_39522716_5","https://xcimg.szwego.com/1563253655_4055544624_6","https://xcimg.szwego.com/1563253655_4245581380_7"],"created_at":"2024-10-23T04:35:52.036Z"},{"id":"item-43cdc2cc4ded","sku":"_d8P8PH41voV0X-2NHUhjJ_KRRxbRDN6LARmWCVg","name_en":"B家桦木棕格双肩包🎒焕新选用格纹环保帆布制作。该环保帆布材质主要运用可再生资源制造,相较于传统的涂层帆布,时髼百搭,男女通用,上班族学生都可,容量超级大能装笔记本电脑,尺寸:36/25/15","name_cn":"B家桦木棕格双肩包🎒焕新选用格纹环保帆布制作。该环保帆布材质主要运用可再生资源制造,相较于传统的涂层帆布,时髼百搭,男女通用,上班族学生都可,容量超级大能装笔记本电脑,尺寸:36/25/15","specs":{"source":"wsxcme","sourceId":"_d8P8PH41voV0X-2NHUhjJ_KRRxbRDN6LARmWCVg","sourceTagId":47002743,"sourceTagName":"女士双肩包","rawTitle":"B家桦木棕格双肩包🎒焕新选用格纹环保帆布制作。该环保帆布材质主要运用可再生资源制造,相较于传统的涂层帆布,时髼百搭,男女通用,上班族学生都可,容量超级大能装笔记本电脑,尺寸:36/25/15"},"price":null,"currency":"CNY","moq":1,"category":"women-backpacks","status":"active","alibaba_url":null,"images":["https://xcimg.szwego.com/20221109/i1667966330_825_0.jpg","https://xcimg.szwego.com/20221109/i1667966330_7340_1.jpg","https://xcimg.szwego.com/20221109/i1667966330_6771_2.jpg","https://xcimg.szwego.com/20221109/i1667966330_4819_3.jpg","https://xcimg.szwego.com/20221109/i1667966330_5393_4.jpg","https://xcimg.szwego.com/20221109/i1667966330_6799_5.jpg","https://xcimg.szwego.com/20221109/i1667966330_3944_6.jpg","https://xcimg.szwego.com/20221109/i1667966330_5983_7.jpg","https://xcimg.szwego.com/20221109/i1667966330_2491_8.jpg"],"created_at":"2024-10-23T04:35:52.035Z"},{"id":"item-5418aef9fbc3","sku":"_dkdkdPlx_rmB--cXb7I85RF3qznwHDKv3Ip95VQ","name_en":"B家桦木棕格双肩包🎒焕新选用格纹环保帆布制作。该环保帆布材质主要运用可再生资源制造,相较于传统的涂层帆布,时髼百搭,男女通用,尺寸:24x13x37cm","name_cn":"B家桦木棕格双肩包🎒焕新选用格纹环保帆布制作。该环保帆布材质主要运用可再生资源制造,相较于传统的涂层帆布,时髼百搭,男女通用,尺寸:24x13x37cm","specs":{"source":"wsxcme","sourceId":"_dkdkdPlx_rmB--cXb7I85RF3qznwHDKv3Ip95VQ","sourceTagId":47002743,"sourceTagName":"女士双肩包","dimensions":{"lengthCm":24,"heightCm":13,"widthCm":37},"rawTitle":"B家桦木棕格双肩包🎒焕新选用格纹环保帆布制作。该环保帆布材质主要运用可再生资源制造,相较于传统的涂层帆布,时髼百搭,男女通用,尺寸:24x13x37cm"},"price":null,"currency":"CNY","moq":1,"category":"women-backpacks","status":"active","alibaba_url":null,"images":["https://xcimg.szwego.com/20221116/i1668573138_6305_0.jpg","https://xcimg.szwego.com/20221116/i1668573138_8682_1.jpg","https://xcimg.szwego.com/20221116/i1668573138_8346_2.jpg","https://xcimg.szwego.com/20221116/i1668573138_8720_3.jpg","https://xcimg.szwego.com/20221116/i1668573138_580_4.jpg","https://xcimg.szwego.com/20221116/i1668573138_2164_5.jpg","https://xcimg.szwego.com/20221116/i1668573138_3253_7.jpg","https://xcimg.szwego.com/20221116/i1668573138_8535_8.jpg"],"created_at":"2024-10-23T04:35:52.034Z"},{"id":"item-7e7d276bac9c","sku":"_dcicimB0aNL_hhmIeAvylUgmQjr6dftsoByxfcw","name_en":"B家桦木棕格迷你双肩包🎒装饰品牌大号格纹,搭配缉明线皮革边饰及品牌徽标镌刻按扣。此件精品的主要材料中至少 30% 来自生物基材料。生物基材料主要来源于植物和蓖麻油等可再生自然资源。尺寸16x8x18","name_cn":"B家桦木棕格迷你双肩包🎒装饰品牌大号格纹,搭配缉明线皮革边饰及品牌徽标镌刻按扣。此件精品的主要材料中至少 30% 来自生物基材料。生物基材料主要来源于植物和蓖麻油等可再生自然资源。尺寸16x8x18","specs":{"source":"wsxcme","sourceId":"_dcicimB0aNL_hhmIeAvylUgmQjr6dftsoByxfcw","sourceTagId":47002743,"sourceTagName":"女士双肩包","rawTitle":"B家桦木棕格迷你双肩包🎒装饰品牌大号格纹,搭配缉明线皮革边饰及品牌徽标镌刻按扣。此件精品的主要材料中至少 30% 来自生物基材料。生物基材料主要来源于植物和蓖麻油等可再生自然资源。尺寸16x8x18"},"price":null,"currency":"CNY","moq":1,"category":"women-backpacks","status":"active","alibaba_url":null,"images":["https://xcimg.szwego.com/20221225/i1671944413_8090_0.jpg","https://xcimg.szwego.com/20221225/i1671944413_1494_1.jpg","https://xcimg.szwego.com/20221225/i1671944413_5699_2.jpg","https://xcimg.szwego.com/20221225/i1671944413_1331_3.jpg","https://xcimg.szwego.com/20221225/i1671944413_4600_4.jpg","https://xcimg.szwego.com/20221225/i1671944413_9284_5.jpg","https://xcimg.szwego.com/20221225/i1671944413_4680_6.jpg","https://xcimg.szwego.com/20221225/i1671944413_4667_7.jpg","https://xcimg.szwego.com/20221225/i1671944413_5383_8.jpg"],"created_at":"2024-10-23T04:35:52.033Z"},{"id":"item-989032171ede","sku":"_dhFhF-cRYjaW7xGYsV8gn4gatrY6u6wCay0gQCQ","name_en":"✨Garden 花园包36cm ✨","name_cn":"✨Garden 花园包36cm ✨\n帆布拼togo皮 ZG最新涂鸦 全钢五金 手缝蜡线 \n【现货】","specs":{"source":"wsxcme","sourceId":"_dhFhF-cRYjaW7xGYsV8gn4gatrY6u6wCay0gQCQ","sourceTagId":76963559,"sourceTagName":"爱马仕/女包","rawTitle":"✨Garden 花园包36cm ✨\n帆布拼togo皮 ZG最新涂鸦 全钢五金 手缝蜡线 \n【现货】"},"price":null,"currency":"CNY","moq":1,"category":"hermes-women-bags","status":"active","alibaba_url":null,"images":["https://xcimg.szwego.com/20240517/i1715878231_6393_0.jpg","https://xcimg.szwego.com/20240517/i1715878231_1843_1.jpg","https://xcimg.szwego.com/20240517/i1715878231_5956_2.jpg","https://xcimg.szwego.com/20240517/i1715878231_8458_3.jpg","https://xcimg.szwego.com/20240517/i1715878231_8244_4.jpg","https://xcimg.szwego.com/20240517/i1715878231_1000_5.jpg","https://xcimg.szwego.com/20240517/i1715878231_4644_6.jpg","https://xcimg.szwego.com/20240517/i1715878231_2518_7.jpg"],"created_at":"2024-10-22T05:04:33.236Z"},{"id":"item-dd1a1ea6ce16","sku":"_dM3M31y3CTB1BVB7Jw59axEiQhXBwzWs2kKW2sw","name_en":"✨Garden 花园包36cm ✨","name_cn":"✨Garden 花园包36cm ✨\n帆布拼togo皮 ZG最新涂鸦 全钢五金 手缝蜡线 \n【现货】","specs":{"source":"wsxcme","sourceId":"_dM3M31y3CTB1BVB7Jw59axEiQhXBwzWs2kKW2sw","sourceTagId":76963559,"sourceTagName":"爱马仕/女包","rawTitle":"✨Garden 花园包36cm ✨\n帆布拼togo皮 ZG最新涂鸦 全钢五金 手缝蜡线 \n【现货】"},"price":null,"currency":"CNY","moq":1,"category":"hermes-women-bags","status":"active","alibaba_url":null,"images":["https://xcimg.szwego.com/20240517/i1715878217_6172_0.jpg","https://xcimg.szwego.com/20240517/i1715878217_5521_1.jpg","https://xcimg.szwego.com/20240517/i1715878217_9632_2.jpg","https://xcimg.szwego.com/20240517/i1715878217_4081_3.jpg","https://xcimg.szwego.com/20240517/i1715878217_9718_4.jpg","https://xcimg.szwego.com/20240517/i1715878217_1366_5.jpg","https://xcimg.szwego.com/20240517/i1715878217_9011_6.jpg","https://xcimg.szwego.com/20240517/i1715878217_6767_7.jpg"],"created_at":"2024-10-22T05:04:33.235Z"},{"id":"item-db2767d45dd9","sku":"_dCgCgRgyKUaoz3fzjxZ4rrdW7GmzgIFl0xcgtSQ","name_en":"✨Garden 花园包36cm ✨","name_cn":"✨Garden 花园包36cm ✨\n帆布拼togo皮 ZG最新涂鸦 全钢五金 手缝蜡线 \n【现货】","specs":{"source":"wsxcme","sourceId":"_dCgCgRgyKUaoz3fzjxZ4rrdW7GmzgIFl0xcgtSQ","sourceTagId":76963559,"sourceTagName":"爱马仕/女包","rawTitle":"✨Garden 花园包36cm ✨\n帆布拼togo皮 ZG最新涂鸦 全钢五金 手缝蜡线 \n【现货】"},"price":null,"currency":"CNY","moq":1,"category":"hermes-women-bags","status":"active","alibaba_url":null,"images":["https://xcimg.szwego.com/20240517/i1715878201_2239_0.jpg","https://xcimg.szwego.com/20240517/i1715878201_9674_1.jpg","https://xcimg.szwego.com/20240517/i1715878201_7858_2.jpg","https://xcimg.szwego.com/20240517/i1715878201_5001_3.jpg","https://xcimg.szwego.com/20240517/i1715878201_1222_4.jpg","https://xcimg.szwego.com/20240517/i1715878201_7823_5.jpg","https://xcimg.szwego.com/20240517/i1715878201_5686_6.jpg"],"created_at":"2024-10-22T05:04:33.234Z"},{"id":"item-482f44acf89e","sku":"_daQaQFVNklNK5rIy3adqMq3a2EQLrCUaqpaFLxA","name_en":"✨Garden 花园包36cm ✨","name_cn":"✨Garden 花园包36cm ✨\n帆布拼togo皮 ZG最新涂鸦 全钢五金 手缝蜡线 \n【现货】","specs":{"source":"wsxcme","sourceId":"_daQaQFVNklNK5rIy3adqMq3a2EQLrCUaqpaFLxA","sourceTagId":76963559,"sourceTagName":"爱马仕/女包","rawTitle":"✨Garden 花园包36cm ✨\n帆布拼togo皮 ZG最新涂鸦 全钢五金 手缝蜡线 \n【现货】"},"price":null,"currency":"CNY","moq":1,"category":"hermes-women-bags","status":"active","alibaba_url":null,"images":["https://xcimg.szwego.com/20240517/i1715878180_9542_0.jpg","https://xcimg.szwego.com/20240517/i1715878180_7675_1.jpg","https://xcimg.szwego.com/20240517/i1715878180_787_2.jpg","https://xcimg.szwego.com/20240517/i1715878180_1795_3.jpg","https://xcimg.szwego.com/20240517/i1715878180_3641_4.jpg","https://xcimg.szwego.com/20240517/i1715878180_4291_5.jpg","https://xcimg.szwego.com/20240517/i1715878180_522_6.jpg","https://xcimg.szwego.com/20240517/i1715878180_9697_7.jpg"],"created_at":"2024-10-22T05:04:33.233Z"},{"id":"item-8b0c0317d21a","sku":"_dnbnb-k9ronJYr6QximwDNT1eu9CysJw56Fu2FQ","name_en":"✨Garden 花园包36cm ✨","name_cn":"✨Garden 花园包36cm ✨\n帆布拼togo皮 ZG最新涂鸦 全钢五金 手缝蜡线 \n【现货】","specs":{"source":"wsxcme","sourceId":"_dnbnb-k9ronJYr6QximwDNT1eu9CysJw56Fu2FQ","sourceTagId":76963559,"sourceTagName":"爱马仕/女包","rawTitle":"✨Garden 花园包36cm ✨\n帆布拼togo皮 ZG最新涂鸦 全钢五金 手缝蜡线 \n【现货】"},"price":null,"currency":"CNY","moq":1,"category":"hermes-women-bags","status":"active","alibaba_url":null,"images":["https://xcimg.szwego.com/20240517/i1715878165_9138_0.jpg","https://xcimg.szwego.com/20240517/i1715878165_6200_1.jpg","https://xcimg.szwego.com/20240517/i1715878165_576_2.jpg","https://xcimg.szwego.com/20240517/i1715878165_800_3.jpg","https://xcimg.szwego.com/20240517/i1715878165_1421_4.jpg","https://xcimg.szwego.com/20240517/i1715878165_2250_5.jpg","https://xcimg.szwego.com/20240517/i1715878165_4624_6.jpg","https://xcimg.szwego.com/20240517/i1715878165_6088_7.jpg"],"created_at":"2024-10-22T05:04:33.232Z"},{"id":"item-9447ca54b99b","sku":"_dH-H-ROwrzBXb9IwP6PYLwfHkKIV_sAwT-_e8Hw","name_en":"✨Garden 花园包36cm ✨","name_cn":"✨Garden 花园包36cm ✨\n帆布拼togo皮 ZG最新涂鸦 全钢五金 手缝蜡线 \n【现货】","specs":{"source":"wsxcme","sourceId":"_dH-H-ROwrzBXb9IwP6PYLwfHkKIV_sAwT-_e8Hw","sourceTagId":76963559,"sourceTagName":"爱马仕/女包","rawTitle":"✨Garden 花园包36cm ✨\n帆布拼togo皮 ZG最新涂鸦 全钢五金 手缝蜡线 \n【现货】"},"price":null,"currency":"CNY","moq":1,"category":"hermes-women-bags","status":"active","alibaba_url":null,"images":["https://xcimg.szwego.com/20240517/i1715877823_2842_0.jpg","https://xcimg.szwego.com/20240517/i1715877823_9400_1.jpg","https://xcimg.szwego.com/20240517/i1715877823_9540_2.jpg","https://xcimg.szwego.com/20240517/i1715877823_4186_3.jpg","https://xcimg.szwego.com/20240517/i1715877823_9593_4.jpg","https://xcimg.szwego.com/20240517/i1715877823_1307_5.jpg","https://xcimg.szwego.com/20240517/i1715877823_4619_6.jpg","https://xcimg.szwego.com/20240517/i1715877823_2958_7.jpg"],"created_at":"2024-10-22T05:04:33.231Z"},{"id":"item-be4ce4e6e89c","sku":"_dYsYs3KgcY8Dc0EAgJWHw0TPdntvnlTU72wzRrw","name_en":"✨Garden 花园包36cm ✨","name_cn":"✨Garden 花园包36cm ✨\n帆布拼togo皮 ZG最新涂鸦 全钢五金 手缝蜡线 \n【现货】","specs":{"source":"wsxcme","sourceId":"_dYsYs3KgcY8Dc0EAgJWHw0TPdntvnlTU72wzRrw","sourceTagId":76963559,"sourceTagName":"爱马仕/女包","rawTitle":"✨Garden 花园包36cm ✨\n帆布拼togo皮 ZG最新涂鸦 全钢五金 手缝蜡线 \n【现货】"},"price":null,"currency":"CNY","moq":1,"category":"hermes-women-bags","status":"active","alibaba_url":null,"images":["https://xcimg.szwego.com/20240621/i1718949671_3045_0.jpg","https://xcimg.szwego.com/20240621/i1718949671_2230_1.jpg","https://xcimg.szwego.com/20240621/i1718949671_9025_2.jpg","https://xcimg.szwego.com/20240621/i1718949671_3256_3.jpg","https://xcimg.szwego.com/20240621/i1718949671_4101_4.jpg","https://xcimg.szwego.com/20240621/i1718949671_1947_5.jpg","https://xcimg.szwego.com/20240621/i1718949671_4379_6.jpg","https://xcimg.szwego.com/20240621/i1718949671_183_7.jpg"],"created_at":"2024-10-22T05:04:33.230Z"},{"id":"item-62c199435e67","sku":"_dxyxyDlMcAbKGnbHcbpV49mme1gmx8oOjRkJNZA","name_en":"✨Garden 花园包36cm ✨","name_cn":"✨Garden 花园包36cm ✨\n帆布拼togo皮 ZG最新涂鸦 全钢五金 手缝蜡线 \n【现货】","specs":{"source":"wsxcme","sourceId":"_dxyxyDlMcAbKGnbHcbpV49mme1gmx8oOjRkJNZA","sourceTagId":76963559,"sourceTagName":"爱马仕/女包","rawTitle":"✨Garden 花园包36cm ✨\n帆布拼togo皮 ZG最新涂鸦 全钢五金 手缝蜡线 \n【现货】"},"price":null,"currency":"CNY","moq":1,"category":"hermes-women-bags","status":"active","alibaba_url":null,"images":["https://xcimg.szwego.com/20240621/i1718949652_3799_0.jpg","https://xcimg.szwego.com/20240621/i1718949652_2061_1.jpg","https://xcimg.szwego.com/20240621/i1718949652_3055_2.jpg","https://xcimg.szwego.com/20240621/i1718949652_6683_3.jpg","https://xcimg.szwego.com/20240621/i1718949652_1437_4.jpg","https://xcimg.szwego.com/20240621/i1718949652_4582_5.jpg","https://xcimg.szwego.com/20240621/i1718949652_1265_6.jpg"],"created_at":"2024-10-22T05:04:33.229Z"},{"id":"item-1ffa6eaced16","sku":"_dNxNxTGQoJZ9rcTCoplDHYIPEhlBqehw8Z1nq1g","name_en":"✨Garden 花园包36cm ✨","name_cn":"✨Garden 花园包36cm ✨\n帆布拼togo皮 ZG最新涂鸦 全钢五金 手缝蜡线 \n【现货】","specs":{"source":"wsxcme","sourceId":"_dNxNxTGQoJZ9rcTCoplDHYIPEhlBqehw8Z1nq1g","sourceTagId":76963559,"sourceTagName":"爱马仕/女包","rawTitle":"✨Garden 花园包36cm ✨\n帆布拼togo皮 ZG最新涂鸦 全钢五金 手缝蜡线 \n【现货】"},"price":null,"currency":"CNY","moq":1,"category":"hermes-women-bags","status":"active","alibaba_url":null,"images":["https://xcimg.szwego.com/20240621/i1718949613_3579_0.jpg","https://xcimg.szwego.com/20240621/i1718949613_4979_1.jpg","https://xcimg.szwego.com/20240621/i1718949613_3470_2.jpg","https://xcimg.szwego.com/20240621/i1718949613_7556_3.jpg","https://xcimg.szwego.com/20240621/i1718949613_8821_4.jpg","https://xcimg.szwego.com/20240621/i1718949613_2842_5.jpg","https://xcimg.szwego.com/20240621/i1718949613_7959_6.jpg","https://xcimg.szwego.com/20240621/i1718949613_5467_7.jpg"],"created_at":"2024-10-22T05:04:33.228Z"},{"id":"item-4d56353945f2","sku":"_dv4v4ARJFTr73abnXH38C-ObybY9IyxY-TcHbEQ","name_en":"✨Garden 花园包36cm ✨","name_cn":"✨Garden 花园包36cm ✨\n帆布拼togo皮 ZG最新涂鸦 全钢五金 手缝蜡线 \n【现货】","specs":{"source":"wsxcme","sourceId":"_dv4v4ARJFTr73abnXH38C-ObybY9IyxY-TcHbEQ","sourceTagId":76963559,"sourceTagName":"爱马仕/女包","rawTitle":"✨Garden 花园包36cm ✨\n帆布拼togo皮 ZG最新涂鸦 全钢五金 手缝蜡线 \n【现货】"},"price":null,"currency":"CNY","moq":1,"category":"hermes-women-bags","status":"active","alibaba_url":null,"images":["https://xcimg.szwego.com/20240621/i1718949591_3882_0.jpg","https://xcimg.szwego.com/20240621/i1718949591_607_1.jpg","https://xcimg.szwego.com/20240621/i1718949591_6583_2.jpg","https://xcimg.szwego.com/20240621/i1718949591_7979_3.jpg","https://xcimg.szwego.com/20240621/i1718949591_1441_4.jpg","https://xcimg.szwego.com/20240621/i1718949591_7280_5.jpg","https://xcimg.szwego.com/20240621/i1718949591_4772_6.jpg","https://xcimg.szwego.com/20240621/i1718949591_361_7.jpg"],"created_at":"2024-10-22T05:04:33.227Z"},{"id":"item-2a386d5e832b","sku":"_dtOtO9LFw2YV-boWD4zK3CBNEINItdRqOckFMfw","name_en":"✨Garden 花园包36cm ✨","name_cn":"✨Garden 花园包36cm ✨\n帆布拼togo皮 ZG最新涂鸦 全钢五金 手缝蜡线 \n【现货】","specs":{"source":"wsxcme","sourceId":"_dtOtO9LFw2YV-boWD4zK3CBNEINItdRqOckFMfw","sourceTagId":76963559,"sourceTagName":"爱马仕/女包","rawTitle":"✨Garden 花园包36cm ✨\n帆布拼togo皮 ZG最新涂鸦 全钢五金 手缝蜡线 \n【现货】"},"price":null,"currency":"CNY","moq":1,"category":"hermes-women-bags","status":"active","alibaba_url":null,"images":["https://xcimg.szwego.com/20240621/i1718949575_8875_0.jpg","https://xcimg.szwego.com/20240621/i1718949575_5115_1.jpg","https://xcimg.szwego.com/20240621/i1718949575_6928_2.jpg","https://xcimg.szwego.com/20240621/i1718949575_2269_3.jpg","https://xcimg.szwego.com/20240621/i1718949575_2027_4.jpg","https://xcimg.szwego.com/20240621/i1718949575_4423_5.jpg","https://xcimg.szwego.com/20240621/i1718949575_6805_6.jpg","https://xcimg.szwego.com/20240621/i1718949575_3000_7.jpg"],"created_at":"2024-10-22T05:04:33.226Z"},{"id":"item-bd4fdde742f6","sku":"_dxIxIN2xWFCvSI9SEeTjOJmop86jQHfjtYtzN-A","name_en":"✨Garden 花园包36cm ✨","name_cn":"✨Garden 花园包36cm ✨\n帆布拼togo皮 ZG最新涂鸦 全钢五金 手缝蜡线 \n【现货】","specs":{"source":"wsxcme","sourceId":"_dxIxIN2xWFCvSI9SEeTjOJmop86jQHfjtYtzN-A","sourceTagId":76963559,"sourceTagName":"爱马仕/女包","rawTitle":"✨Garden 花园包36cm ✨\n帆布拼togo皮 ZG最新涂鸦 全钢五金 手缝蜡线 \n【现货】"},"price":null,"currency":"CNY","moq":1,"category":"hermes-women-bags","status":"active","alibaba_url":null,"images":["https://xcimg.szwego.com/20240621/i1718949561_6994_0.jpg","https://xcimg.szwego.com/20240621/i1718949561_7546_1.jpg","https://xcimg.szwego.com/20240621/i1718949561_3275_2.jpg","https://xcimg.szwego.com/20240621/i1718949561_9789_3.jpg","https://xcimg.szwego.com/20240621/i1718949561_8449_4.jpg","https://xcimg.szwego.com/20240621/i1718949561_2096_5.jpg","https://xcimg.szwego.com/20240621/i1718949561_7004_6.jpg","https://xcimg.szwego.com/20240621/i1718949561_6877_7.jpg"],"created_at":"2024-10-22T05:04:33.225Z"},{"id":"item-de7aa6d4f224","sku":"_dRjRjn30oTRh7uQqNiJPgmeBGfkK8KyTtMdA-_g","name_en":"✨Garden 花园包36cm ✨","name_cn":"✨Garden 花园包36cm ✨\n帆布拼togo皮 ZG最新涂鸦 全钢五金 手缝蜡线 \n【现货】","specs":{"source":"wsxcme","sourceId":"_dRjRjn30oTRh7uQqNiJPgmeBGfkK8KyTtMdA-_g","sourceTagId":76963559,"sourceTagName":"爱马仕/女包","rawTitle":"✨Garden 花园包36cm ✨\n帆布拼togo皮 ZG最新涂鸦 全钢五金 手缝蜡线 \n【现货】"},"price":null,"currency":"CNY","moq":1,"category":"hermes-women-bags","status":"active","alibaba_url":null,"images":["https://xcimg.szwego.com/20240621/i1718949541_6244_0.jpg","https://xcimg.szwego.com/20240621/i1718949541_8602_1.jpg","https://xcimg.szwego.com/20240621/i1718949541_7156_2.jpg","https://xcimg.szwego.com/20240621/i1718949541_7134_3.jpg","https://xcimg.szwego.com/20240621/i1718949541_592_4.jpg","https://xcimg.szwego.com/20240621/i1718949541_5311_5.jpg","https://xcimg.szwego.com/20240621/i1718949541_4968_6.jpg","https://xcimg.szwego.com/20240621/i1718949541_7557_7.jpg"],"created_at":"2024-10-22T05:04:33.224Z"},{"id":"item-e3ea208efd80","sku":"_djMjMMhtWho6ciW0-eYO-L065NXiTyT9FCDW40A","name_en":"✨Garden 花园包36cm ✨","name_cn":"✨Garden 花园包36cm ✨\n帆布拼togo皮 ZG最新涂鸦 全钢五金 手缝蜡线 \n【现货】","specs":{"source":"wsxcme","sourceId":"_djMjMMhtWho6ciW0-eYO-L065NXiTyT9FCDW40A","sourceTagId":76963559,"sourceTagName":"爱马仕/女包","rawTitle":"✨Garden 花园包36cm ✨\n帆布拼togo皮 ZG最新涂鸦 全钢五金 手缝蜡线 \n【现货】"},"price":null,"currency":"CNY","moq":1,"category":"hermes-women-bags","status":"active","alibaba_url":null,"images":["https://xcimg.szwego.com/20240621/i1718949522_556_0.jpg","https://xcimg.szwego.com/20240621/i1718949522_6223_1.jpg","https://xcimg.szwego.com/20240621/i1718949522_6794_2.jpg","https://xcimg.szwego.com/20240621/i1718949522_9902_3.jpg","https://xcimg.szwego.com/20240621/i1718949522_1866_4.jpg","https://xcimg.szwego.com/20240621/i1718949522_6805_5.jpg","https://xcimg.szwego.com/20240621/i1718949522_5552_6.jpg","https://xcimg.szwego.com/20240621/i1718949522_1348_7.jpg"],"created_at":"2024-10-22T05:04:33.223Z"},{"id":"item-ce076b168b24","sku":"_dlolod120MEsJbHigVKEuvOQqlU79GjyurzHqzw","name_en":"✨凯莉二代mini","name_cn":"✨凯莉二代mini \n颜色:大象灰/树皮色/克\n进口epsom皮、金扣\n机车+半收工手缝蜡线\n尺寸:19cm","specs":{"source":"wsxcme","sourceId":"_dlolod120MEsJbHigVKEuvOQqlU79GjyurzHqzw","sourceTagId":76963559,"sourceTagName":"爱马仕/女包","rawTitle":"✨凯莉二代mini \n颜色:大象灰/树皮色/克\n进口epsom皮、金扣\n机车+半收工手缝蜡线\n尺寸:19cm"},"price":null,"currency":"CNY","moq":1,"category":"hermes-women-bags","status":"active","alibaba_url":null,"images":["https://xcimg.szwego.com/img/88b306c4/20240903/a1725373313027_3384.jpg","https://xcimg.szwego.com/img/88b306c4/20240903/a1725373313064_2512.jpg","https://xcimg.szwego.com/img/88b306c4/20240903/a1725373313022_3103.jpg","https://xcimg.szwego.com/img/88b306c4/20240903/a1725373313421_7078.jpg","https://xcimg.szwego.com/img/88b306c4/20240903/a1725373313400_1011.jpg","https://xcimg.szwego.com/img/88b306c4/20240903/a1725373313398_6106.jpg","https://xcimg.szwego.com/img/88b306c4/20240903/a1725373314642_6850.jpg","https://xcimg.szwego.com/img/88b306c4/20240903/a1725373314682_5730.jpg","https://xcimg.szwego.com/img/88b306c4/20240903/a1725373314574_1710.jpg"],"created_at":"2024-10-22T05:04:33.222Z"},{"id":"item-67db27996d57","sku":"_dnSnS23lpYrOvXrJdzQDyZf4e-EgwZ6bKom2v7w","name_en":"✨凯莉二代mini","name_cn":"✨凯莉二代mini \n颜色:大象灰/树皮色/克\n进口epsom皮、银扣\n机车+半收工手缝蜡线\n尺寸:19cm","specs":{"source":"wsxcme","sourceId":"_dnSnS23lpYrOvXrJdzQDyZf4e-EgwZ6bKom2v7w","sourceTagId":76963559,"sourceTagName":"爱马仕/女包","rawTitle":"✨凯莉二代mini \n颜色:大象灰/树皮色/克\n进口epsom皮、银扣\n机车+半收工手缝蜡线\n尺寸:19cm"},"price":null,"currency":"CNY","moq":1,"category":"hermes-women-bags","status":"active","alibaba_url":null,"images":["https://xcimg.szwego.com/img/88b306c4/20240903/a1725372922256_0033.jpg","https://xcimg.szwego.com/img/88b306c4/20240903/a1725372922309_2527.jpg","https://xcimg.szwego.com/img/88b306c4/20240903/a1725372922212_1123.jpg","https://xcimg.szwego.com/img/88b306c4/20240903/a1725372922619_6632.jpg","https://xcimg.szwego.com/img/88b306c4/20240903/a1725372922211_7374.jpg","https://xcimg.szwego.com/img/88b306c4/20240903/a1725372922518_7056.jpg","https://xcimg.szwego.com/img/88b306c4/20240903/a1725372923785_4757.jpg","https://xcimg.szwego.com/img/88b306c4/20240903/a1725372923694_7663.jpg","https://xcimg.szwego.com/img/88b306c4/20240903/a1725372923681_5014.jpg"],"created_at":"2024-10-22T05:04:33.221Z"}],"page":335,"pageSize":24,"total":10075,"totalPages":420}
