{"items":[{"id":"item-5b21823c0db5","sku":"_dfVfVuU3wDpD6dMKp1YxPm3HgxJk54iSi-ZOL2Q","name_en":"Women Backpacks","name_cn":"白金版▪️正品级 包装如图\nChane1 25P 全新升级版🍀\n双口袋青蛙🐸复古背包 白色 中号\n专柜售价49800rmb购入开发〰️\n\n一向都是重头戏的复古双肩包ꫛꫀꪝ\n23P这款让人翘首以待的荔枝纹小牛~\n颜值担当属于耐看型,复古程度更是一见倾心♥\n双口袋小书包荔枝牛皮 向来都是最受欢迎的材质。\n易打理更耐造,日常通勤收纳轻松装扮✔️\n\n五金:全钢14K淡金扣\n皮料:Haas中球小牛皮\n尺寸:20.5*20*11.5 CM\n3860","specs":{"source":"wsxcme","sourceId":"_dfVfVuU3wDpD6dMKp1YxPm3HgxJk54iSi-ZOL2Q","sourceTagId":47002743,"sourceTagName":"女士双肩包","dimensions":{"lengthCm":20.5,"heightCm":20,"widthCm":11.5},"rawTitle":"白金版▪️正品级 包装如图\nChane1 25P 全新升级版🍀\n双口袋青蛙🐸复古背包 白色 中号\n专柜售价49800rmb购入开发〰️\n\n一向都是重头戏的复古双肩包ꫛꫀꪝ\n23P这款让人翘首以待的荔枝纹小牛~\n颜值担当属于耐看型,复古程度更是一见倾心♥\n双口袋小书包荔枝牛皮 向来都是最受欢迎的材质。\n易打理更耐造,日常通勤收纳轻松装扮✔️\n\n五金:全钢14K淡金扣\n皮料:Haas中球小牛皮\n尺寸:20.5*20*11.5 CM\n3860"},"price":null,"currency":"CNY","moq":1,"category":"women-backpacks","status":"active","alibaba_url":null,"images":["https://xcimg.szwego.com/imgHD/9d8f4332/20250609/cmp_i1749449698386_7641_0_0.jpg","https://xcimg.szwego.com/imgHD/9d8f4332/20250609/cmp_i1749449697262_6143_0_1.jpg","https://xcimg.szwego.com/imgHD/9d8f4332/20250609/cmp_i1749449697262_6425_0_2.jpg","https://xcimg.szwego.com/imgHD/9d8f4332/20250609/cmp_i1749449698384_1749_0_3.jpg","https://xcimg.szwego.com/imgHD/9d8f4332/20250609/cmp_i1749449698384_4408_0_4.jpg","https://xcimg.szwego.com/imgHD/9d8f4332/20250609/cmp_i1749449698382_8267_0_5.jpg","https://xcimg.szwego.com/imgHD/9d8f4332/20250609/cmp_i1749449697258_8282_0_6.jpg","https://xcimg.szwego.com/imgHD/9d8f4332/20250609/cmp_i1749449697257_2663_0_7.jpg","https://xcimg.szwego.com/imgHD/9d8f4332/20250609/cmp_i1749449697260_7813_0_8.jpg"],"created_at":"2025-06-16T09:47:58.358Z"},{"id":"item-593130a4728e","sku":"_dw2w2j1_OoBivWOx-l5fFGb3USpUOyjqArHlBGA","name_en":"Women Backpacks","name_cn":"女士双肩包","specs":{"source":"wsxcme","sourceId":"_dw2w2j1_OoBivWOx-l5fFGb3USpUOyjqArHlBGA","sourceTagId":47002743,"sourceTagName":"女士双肩包","rawTitle":""},"price":null,"currency":"CNY","moq":1,"category":"women-backpacks","status":"active","alibaba_url":null,"images":["https://xcimg.szwego.com/img/d0c94e6f/20250902/i1756824035_3263_0.jpg"],"created_at":"2025-09-19T04:25:53.920Z"},{"id":"item-483c2dfae8aa","sku":"_dbxbxxxFV3vlhgNwhikUTZlYKwH2tFoQe9k5pkg","name_en":"Women Backpacks","name_cn":"顶级原单,变码芯片\nM13357黑色 M13358卡其\nCoussin Backpack 小号手袋以双肩包构型瞩目加入 Coussin 系列,为柔软 Monogram 压纹皮革融入标志性 LV 挂锁,兼具摩登风范和功能考量。可拆卸 Coussin 链条释放金属锋芒,拉链前袋方便取放各式随行小物。\n\n26 x 10 x 21 厘米 \n(高 x 宽 x 长度)\n羊皮革\n牛皮革饰边\n织物内衬\n金属件\n磁扣开合\n拉链外袋\n挂锁\n可收纳智能手机、10 寸平板电脑、钥匙、Zippy 钱夹和耳机\n肩带:可拆卸,可调节\n包带半长:30.0 厘米\n包带半长可调至:37.0 厘米\n链条:可拆卸\n链条半长:21.0 厘米\n手柄:单手柄","specs":{"source":"wsxcme","sourceId":"_dbxbxxxFV3vlhgNwhikUTZlYKwH2tFoQe9k5pkg","sourceTagId":47002743,"sourceTagName":"女士双肩包","rawTitle":"顶级原单,变码芯片\nM13357黑色 M13358卡其\nCoussin Backpack 小号手袋以双肩包构型瞩目加入 Coussin 系列,为柔软 Monogram 压纹皮革融入标志性 LV 挂锁,兼具摩登风范和功能考量。可拆卸 Coussin 链条释放金属锋芒,拉链前袋方便取放各式随行小物。\n\n26 x 10 x 21 厘米 \n(高 x 宽 x 长度)\n羊皮革\n牛皮革饰边\n织物内衬\n金属件\n磁扣开合\n拉链外袋\n挂锁\n可收纳智能手机、10 寸平板电脑、钥匙、Zippy 钱夹和耳机\n肩带:可拆卸,可调节\n包带半长:30.0 厘米\n包带半长可调至:37.0 厘米\n链条:可拆卸\n链条半长:21.0 厘米\n手柄:单手柄"},"price":null,"currency":"CNY","moq":1,"category":"women-backpacks","status":"active","alibaba_url":null,"images":["https://xcimg.szwego.com/img/a3cc9079/20250408/i1744109607_1476_4.jpg","https://xcimg.szwego.com/img/a3cc9079/20250408/i1744109606_8198_0.jpg","https://xcimg.szwego.com/img/a3cc9079/20250408/i1744109606_312_1.jpg","https://xcimg.szwego.com/img/a3cc9079/20250408/i1744109606_613_3.jpg","https://xcimg.szwego.com/img/a3cc9079/20250408/i1744109607_6789_5.jpg","https://xcimg.szwego.com/img/a3cc9079/20250408/i1744109607_8986_7.jpg","https://xcimg.szwego.com/img/a3cc9079/20250408/i1744109606_3239_2.jpg","https://xcimg.szwego.com/img/a3cc9079/20250408/i1744109607_3121_8.jpg","https://xcimg.szwego.com/img/a3cc9079/20250408/i1744109607_7097_6.jpg"],"created_at":"2025-05-29T13:45:01.187Z"},{"id":"item-300a9f5e242d","sku":"_dxExE30EgXbrRtekfM8PqdQ6o_4kPr5rKMjCbsw","name_en":"Women Backpacks","name_cn":"白金版▪️正品级 包装如图\nChane1新品24P 早春系列\n黑金荔枝皮mini双肩包小书包\n专柜货售价34800rmb购入~\n\n可手提可单肩斜挎\n 一包多用 背法多种\n可爱精致 适合小个子女生~\n\n皮料:  原厂小球牛皮\n五金:厚镀14K淡金扣\n尺寸:13*18*9cm\n3753","specs":{"source":"wsxcme","sourceId":"_dxExE30EgXbrRtekfM8PqdQ6o_4kPr5rKMjCbsw","sourceTagId":47002743,"sourceTagName":"女士双肩包","dimensions":{"lengthCm":13,"heightCm":18,"widthCm":9},"rawTitle":"白金版▪️正品级 包装如图\nChane1新品24P 早春系列\n黑金荔枝皮mini双肩包小书包\n专柜货售价34800rmb购入~\n\n可手提可单肩斜挎\n 一包多用 背法多种\n可爱精致 适合小个子女生~\n\n皮料:  原厂小球牛皮\n五金:厚镀14K淡金扣\n尺寸:13*18*9cm\n3753"},"price":null,"currency":"CNY","moq":1,"category":"women-backpacks","status":"active","alibaba_url":null,"images":["https://xcimg.szwego.com/20240527/i1716793618_7574_0.jpg","https://xcimg.szwego.com/20240527/i1716793618_6_1.jpg","https://xcimg.szwego.com/20240527/i1716793618_8128_2.jpg","https://xcimg.szwego.com/20240527/i1716793618_6667_3.jpg","https://xcimg.szwego.com/20240527/i1716793618_3526_4.jpg","https://xcimg.szwego.com/20240527/i1716793618_3291_5.jpg","https://xcimg.szwego.com/20240527/i1716793618_3731_6.jpg","https://xcimg.szwego.com/20240527/i1716793618_397_7.jpg","https://xcimg.szwego.com/20240527/i1716793618_587_8.jpg"],"created_at":"2025-06-16T09:47:58.337Z"},{"id":"item-2ad56ae95294","sku":"_dububhRpfzykUBoi7po7GCBUThwPqJea_Fjsnew","name_en":"Women Backpacks","name_cn":"顶级原单 配全套包装\nDIO.R Oblique双肩背包# \n这是一款可以当情侣款的DIO.R Oblique双肩背包\n在老花的基础上还有金属材质的小Logo,软萌软萌的。帆布的材质十分轻便 容量大 重量小 实用颜值又在线 我先盘一个再说哇 反正我的血槽已经空了\n标志性的oblique复古印花图案已经融入大家伙儿的时髦态度中la 身背老花单品行走到哪都像在巴黎时装周 \n谁用谁时髦 情侣款走一个✌︎✌︎✌︎\n 大号:30x15x42cm","specs":{"source":"wsxcme","sourceId":"_dububhRpfzykUBoi7po7GCBUThwPqJea_Fjsnew","sourceTagId":47002743,"sourceTagName":"女士双肩包","rawTitle":"顶级原单 配全套包装\nDIO.R Oblique双肩背包# \n这是一款可以当情侣款的DIO.R Oblique双肩背包\n在老花的基础上还有金属材质的小Logo,软萌软萌的。帆布的材质十分轻便 容量大 重量小 实用颜值又在线 我先盘一个再说哇 反正我的血槽已经空了\n标志性的oblique复古印花图案已经融入大家伙儿的时髦态度中la 身背老花单品行走到哪都像在巴黎时装周 \n谁用谁时髦 情侣款走一个✌︎✌︎✌︎\n 大号:30x15x42cm"},"price":null,"currency":"CNY","moq":1,"category":"women-backpacks","status":"active","alibaba_url":null,"images":["https://xcimg.szwego.com/20220911/i1662869018_2325_0.jpg","https://xcimg.szwego.com/20220911/i1662869018_7001_1.jpg","https://xcimg.szwego.com/20220911/i1662869018_6653_2.jpg","https://xcimg.szwego.com/20220911/i1662869018_5764_3.jpg","https://xcimg.szwego.com/20220911/i1662869018_3107_4.jpg","https://xcimg.szwego.com/20220911/i1662869018_7631_5.jpg","https://xcimg.szwego.com/20220911/i1662869018_5701_6.jpg","https://xcimg.szwego.com/20220911/i1662869018_6628_7.jpg","https://xcimg.szwego.com/20220911/i1662869018_4304_8.jpg"],"created_at":"2024-11-11T10:28:58.802Z"},{"id":"item-2771b86e8910","sku":"_dg_g_fVCell6Vu4p_eSxp-xX9ouoTLpkIX_-0kg","name_en":"Women Backpacks","name_cn":"复古擦色\nMIU新品学院风双肩包:5BZ043,超高品质擦色小羊皮搭配厚实耐磨亚麻混纺内衬,这款皮革双肩包采用校园风设计,融合精湛工艺与休闲态度,别致的多口袋设计彰显MlU手袋的时尚趣致精神,经典皮革双肩背带与肩带,穿搭开挂神器:配白T牛仔,配卡其风衣,配休闲运动服...风格百变,内里装得下宇宙:iPad,折叠伞,化妆包,实用轻便又高级感十足\n尺寸:22X18X11.5cm","specs":{"source":"wsxcme","sourceId":"_dg_g_fVCell6Vu4p_eSxp-xX9ouoTLpkIX_-0kg","sourceTagId":47002743,"sourceTagName":"女士双肩包","dimensions":{"lengthCm":22,"heightCm":18,"widthCm":11.5},"rawTitle":"复古擦色\nMIU新品学院风双肩包:5BZ043,超高品质擦色小羊皮搭配厚实耐磨亚麻混纺内衬,这款皮革双肩包采用校园风设计,融合精湛工艺与休闲态度,别致的多口袋设计彰显MlU手袋的时尚趣致精神,经典皮革双肩背带与肩带,穿搭开挂神器:配白T牛仔,配卡其风衣,配休闲运动服...风格百变,内里装得下宇宙:iPad,折叠伞,化妆包,实用轻便又高级感十足\n尺寸:22X18X11.5cm"},"price":null,"currency":"CNY","moq":1,"category":"women-backpacks","status":"active","alibaba_url":null,"images":["https://xcimg.szwego.com/imgHD/1698de7a/20260128/cmp_i1769600626304_2649_0_0.jpg","https://xcimg.szwego.com/imgHD/1698de7a/20260128/cmp_i1769600625056_1049_0_1.jpg","https://xcimg.szwego.com/imgHD/1698de7a/20260128/cmp_i1769600626348_4873_0_2.jpg","https://xcimg.szwego.com/imgHD/1698de7a/20260128/cmp_i1769600626331_5488_0_3.jpg","https://xcimg.szwego.com/imgHD/1698de7a/20260128/cmp_i1769600626329_254_0_4.jpg","https://xcimg.szwego.com/imgHD/1698de7a/20260128/cmp_i1769600624955_2051_0_5.jpg","https://xcimg.szwego.com/imgHD/1698de7a/20260128/cmp_i1769600628675_1250_0_6.jpg","https://xcimg.szwego.com/imgHD/1698de7a/20260128/cmp_i1769600626150_4928_0_8.jpg","https://xcimg.szwego.com/imgHD/1698de7a/20260128/cmp_i1769600624955_6253_0_7.jpg"],"created_at":"2026-05-20T09:12:28.727Z"},{"id":"item-216615ac0810","sku":"_dp4p4tXNo7J_-WsaZ8BUXbbA7Anbhe_UzK-ie0Q","name_en":"Women Backpacks","name_cn":"【市场最高版本,欢迎对比】\nRIDER背包\n米色Dior Oblique提花机\n用小牛皮点缀的Dior Oblique提花制作的米色Rider双肩包。与休闲设计形成对比的经典图案和轻便提花材质制成,可轻松作为日常单品使用。宽敞的内部储物空间可携带15英寸笔记本电脑、文件、iPad等。正面的单拉链口袋可轻松收纳和取出钱包、手机、耳机、钥匙等随身物品。\n皮革管道的米色Dior Oblique提花\n铂金菲尼西Dior标志性镶饰正面黄铜\n内部Dior标志性压花\n皮革管道的可调尼龙衬垫肩带\n小牛皮顶部手柄\n顶部拉链锁\n前面单拉链口袋\n手提包或单肩包\n尺寸:30 x 42 x 15毫米\n包括灰尘背\n意大利制造\n商品号:1VOBA088YZY_H54E","specs":{"source":"wsxcme","sourceId":"_dp4p4tXNo7J_-WsaZ8BUXbbA7Anbhe_UzK-ie0Q","sourceTagId":47002743,"sourceTagName":"女士双肩包","rawTitle":"【市场最高版本,欢迎对比】\nRIDER背包\n米色Dior Oblique提花机\n用小牛皮点缀的Dior Oblique提花制作的米色Rider双肩包。与休闲设计形成对比的经典图案和轻便提花材质制成,可轻松作为日常单品使用。宽敞的内部储物空间可携带15英寸笔记本电脑、文件、iPad等。正面的单拉链口袋可轻松收纳和取出钱包、手机、耳机、钥匙等随身物品。\n皮革管道的米色Dior Oblique提花\n铂金菲尼西Dior标志性镶饰正面黄铜\n内部Dior标志性压花\n皮革管道的可调尼龙衬垫肩带\n小牛皮顶部手柄\n顶部拉链锁\n前面单拉链口袋\n手提包或单肩包\n尺寸:30 x 42 x 15毫米\n包括灰尘背\n意大利制造\n商品号:1VOBA088YZY_H54E"},"price":null,"currency":"CNY","moq":1,"category":"women-backpacks","status":"active","alibaba_url":null,"images":["https://xcimg.szwego.com/img/4090ad17/20250324/i1742752197_9889_0.jpg","https://xcimg.szwego.com/img/4090ad17/20250324/i1742752197_835_1.jpg","https://xcimg.szwego.com/img/4090ad17/20250324/i1742752197_4137_2.jpg","https://xcimg.szwego.com/img/4090ad17/20250324/i1742752197_4095_3.jpg","https://xcimg.szwego.com/img/4090ad17/20250324/i1742752197_7516_4.jpg","https://xcimg.szwego.com/img/4090ad17/20250324/i1742752197_9950_5.jpg","https://xcimg.szwego.com/img/4090ad17/20250324/i1742752197_6751_6.jpg","https://xcimg.szwego.com/img/4090ad17/20250324/i1742752197_1751_7.jpg","https://xcimg.szwego.com/img/4090ad17/20250324/i1742752197_3619_8.jpg"],"created_at":"2026-05-20T09:12:28.847Z"},{"id":"item-1d8a205295b3","sku":"_duIuIuZfx0KzRqv7bOZ-yFybBUwoxZmylB0h1jA","name_en":"Women Backpacks","name_cn":"新品~上线 🅰️🅰️ 🆕🆕🆕 出货 🎒🎒\nCE~LINE  BONNIE 光滑牛皮革背包,羊皮革衬里,手提、双肩背和单肩背,TRIOMPHE 磁扣,抽绳皮革系带,皮革提手 ,长度8cm\n可调节肩带,最小长度34cm,最大长度45cm,\n尺寸:25x18x13 cm\n型号 :  118703  (配原版包装)","specs":{"source":"wsxcme","sourceId":"_duIuIuZfx0KzRqv7bOZ-yFybBUwoxZmylB0h1jA","sourceTagId":47002743,"sourceTagName":"女士双肩包","modelNumber":"118703  (配原版包装)","dimensions":{"lengthCm":25,"heightCm":18,"widthCm":13},"rawTitle":"新品~上线 🅰️🅰️ 🆕🆕🆕 出货 🎒🎒\nCE~LINE  BONNIE 光滑牛皮革背包,羊皮革衬里,手提、双肩背和单肩背,TRIOMPHE 磁扣,抽绳皮革系带,皮革提手 ,长度8cm\n可调节肩带,最小长度34cm,最大长度45cm,\n尺寸:25x18x13 cm\n型号 :  118703  (配原版包装)"},"price":null,"currency":"CNY","moq":1,"category":"women-backpacks","status":"active","alibaba_url":null,"images":["https://xcimg.szwego.com/img/1a8dcad8/20250306/i1741192704984_8591_0_0.jpg","https://xcimg.szwego.com/img/1a8dcad8/20250306/i1741192695052_8481_0_1.jpg","https://xcimg.szwego.com/img/1a8dcad8/20250306/i1741192701970_5370_0_2.jpg","https://xcimg.szwego.com/img/1a8dcad8/20250306/i1741192694987_6331_0_3.jpg","https://xcimg.szwego.com/img/1a8dcad8/20250306/i1741192694696_3840_0_4.jpg","https://xcimg.szwego.com/img/1a8dcad8/20250306/i1741192701980_6713_0_5.jpg","https://xcimg.szwego.com/img/1a8dcad8/20250306/i1741192694756_2629_0_6.jpg","https://xcimg.szwego.com/img/1a8dcad8/20250306/i1741192694993_1549_0_7.jpg"],"created_at":"2026-05-20T09:12:28.897Z"},{"id":"item-13bde9c0ea87","sku":"_dfjfjU-VjEKsawDpVspzuHRJsubQKlwYzPsYDcA","name_en":"Women Backpacks","name_cn":"官网同款🎒🎒🎒🎒","specs":{"source":"wsxcme","sourceId":"_dfjfjU-VjEKsawDpVspzuHRJsubQKlwYzPsYDcA","sourceTagId":47002743,"sourceTagName":"女士双肩包","rawTitle":"官网同款🎒🎒🎒🎒"},"price":null,"currency":"CNY","moq":1,"category":"women-backpacks","status":"active","alibaba_url":null,"images":["https://xcimg.szwego.com/img/4090ad17/20250324/i1742752107_3150_0.jpg","https://xcimg.szwego.com/img/4090ad17/20250324/i1742752107_5102_1.jpg","https://xcimg.szwego.com/img/4090ad17/20250324/i1742752107_2200_2.jpg","https://xcimg.szwego.com/img/4090ad17/20250324/i1742752107_8635_3.jpg","https://xcimg.szwego.com/img/4090ad17/20250324/i1742752107_2081_4.jpg","https://xcimg.szwego.com/img/4090ad17/20250324/i1742752107_1271_5.jpg","https://xcimg.szwego.com/img/4090ad17/20250324/i1742752107_4708_6.jpg","https://xcimg.szwego.com/img/4090ad17/20250324/i1742752107_8545_7.jpg"],"created_at":"2026-05-20T09:12:28.837Z"},{"id":"item-0eb72c89cf28","sku":"_doYoYXZnBCsuw_z05IYelMfY8Az9i6w4u5tVFlQ","name_en":"Women Backpacks","name_cn":"复古擦色\nMIU新品学院风双肩包:5BZ042,高品质小牛皮搭配厚实耐磨亚麻混纺内衬,这款皮革双肩包采用校园风设计,融合精湛工艺与休闲态度,别致的多口袋设计彰显MlU手袋的时尚趣致精神,经典皮革双肩背带与肩带,穿搭开挂神器:配白T牛仔,配卡其风衣,配休闲运动服...风格百变,内里装得下宇宙:iPad,折叠伞,化妆包,实用轻便又高级感十足\n尺寸:29.5X25X12.5cm","specs":{"source":"wsxcme","sourceId":"_doYoYXZnBCsuw_z05IYelMfY8Az9i6w4u5tVFlQ","sourceTagId":47002743,"sourceTagName":"女士双肩包","dimensions":{"lengthCm":29.5,"heightCm":25,"widthCm":12.5},"rawTitle":"复古擦色\nMIU新品学院风双肩包:5BZ042,高品质小牛皮搭配厚实耐磨亚麻混纺内衬,这款皮革双肩包采用校园风设计,融合精湛工艺与休闲态度,别致的多口袋设计彰显MlU手袋的时尚趣致精神,经典皮革双肩背带与肩带,穿搭开挂神器:配白T牛仔,配卡其风衣,配休闲运动服...风格百变,内里装得下宇宙:iPad,折叠伞,化妆包,实用轻便又高级感十足\n尺寸:29.5X25X12.5cm"},"price":null,"currency":"CNY","moq":1,"category":"women-backpacks","status":"active","alibaba_url":null,"images":["https://xcimg.szwego.com/imgHD/1698de7a/20260128/cmp_i1769600568158_2603_0_0.jpg","https://xcimg.szwego.com/imgHD/1698de7a/20260128/cmp_i1769600568150_5142_0_1.jpg","https://xcimg.szwego.com/imgHD/1698de7a/20260128/cmp_i1769600565672_3268_0_2.jpg","https://xcimg.szwego.com/imgHD/1698de7a/20260128/cmp_i1769600565653_706_0_3.jpg","https://xcimg.szwego.com/imgHD/1698de7a/20260128/cmp_i1769600569274_251_0_4.jpg","https://xcimg.szwego.com/imgHD/1698de7a/20260128/cmp_i1769600568167_5240_0_7.jpg","https://xcimg.szwego.com/imgHD/1698de7a/20260128/cmp_i1769600565477_4125_0_5.jpg","https://xcimg.szwego.com/imgHD/1698de7a/20260128/cmp_i1769600567962_2788_0_6.jpg","https://xcimg.szwego.com/imgHD/1698de7a/20260128/cmp_i1769600567963_2549_0_9.jpg"],"created_at":"2026-05-20T09:12:28.717Z"},{"id":"item-00308366bd3a","sku":"_dqTqT4yp2jQO5_zd8LF08jrCItm-9VtNCSU0Qlw","name_en":"Women Backpacks","name_cn":"【市场最高版本,欢迎对比】\nRIDER背帕克迪奥泄漏提花\n商品番号:1VOBA088YKY_H00N\n“Rider(骑手)”背包吸引人的迷你剪影,让人想起经典上学的背包。我们使用黑色“迪奥”提示牌,将经典设计安排为现代。用双拉链、大前拉链口袋、长度可调节的带垫等功能性细节完成,是平时必不可少的物品。\n黑色“迪奥的泄漏”提花\n前台“DIOR”橡胶签名\n内部压花的“DIOR”签名\n双拉链关闭装置\n长度可调的垫尼龙巴克斯陷阱\n皮革的顶部手柄\n背面采用技术网格加固的剪裁规格\n前面的拉链口袋\n带尘袋的\n意大利制造的产品\n大小:30x42x15厘米\n可容纳平板电脑、15英寸笔记本电脑和文件","specs":{"source":"wsxcme","sourceId":"_dqTqT4yp2jQO5_zd8LF08jrCItm-9VtNCSU0Qlw","sourceTagId":47002743,"sourceTagName":"女士双肩包","rawTitle":"【市场最高版本,欢迎对比】\nRIDER背帕克迪奥泄漏提花\n商品番号:1VOBA088YKY_H00N\n“Rider(骑手)”背包吸引人的迷你剪影,让人想起经典上学的背包。我们使用黑色“迪奥”提示牌,将经典设计安排为现代。用双拉链、大前拉链口袋、长度可调节的带垫等功能性细节完成,是平时必不可少的物品。\n黑色“迪奥的泄漏”提花\n前台“DIOR”橡胶签名\n内部压花的“DIOR”签名\n双拉链关闭装置\n长度可调的垫尼龙巴克斯陷阱\n皮革的顶部手柄\n背面采用技术网格加固的剪裁规格\n前面的拉链口袋\n带尘袋的\n意大利制造的产品\n大小:30x42x15厘米\n可容纳平板电脑、15英寸笔记本电脑和文件"},"price":null,"currency":"CNY","moq":1,"category":"women-backpacks","status":"active","alibaba_url":null,"images":["https://xcimg.szwego.com/img/4090ad17/20250324/i1742752090_6209_0.jpg","https://xcimg.szwego.com/img/4090ad17/20250324/i1742752090_1827_1.jpg","https://xcimg.szwego.com/img/4090ad17/20250324/i1742752090_3533_2.jpg","https://xcimg.szwego.com/img/4090ad17/20250324/i1742752090_1269_3.jpg","https://xcimg.szwego.com/img/4090ad17/20250324/i1742752090_3446_4.jpg","https://xcimg.szwego.com/img/4090ad17/20250324/i1742752090_4266_5.jpg","https://xcimg.szwego.com/img/4090ad17/20250324/i1742752090_5781_6.jpg","https://xcimg.szwego.com/img/4090ad17/20250324/i1742752090_7094_7.jpg","https://xcimg.szwego.com/img/4090ad17/20250324/i1742752090_5863_8.jpg"],"created_at":"2026-05-20T09:12:28.827Z"}],"page":7,"pageSize":24,"total":155,"totalPages":7}
