{"items":[{"id":"item-24d10ab17f3c","sku":"_dHOHOFaxWhmxtLgpq1XurPId8rVft8zPaJqf1eA","name_en":"Lady 戴妃三格","name_cn":"Lady 戴妃三格","specs":{"source":"wsxcme","sourceId":"_dHOHOFaxWhmxtLgpq1XurPId8rVft8zPaJqf1eA","sourceTagId":47002747,"sourceTagName":"迪奥/女包","rawTitle":"Lady 戴妃三格"},"price":null,"currency":"CNY","moq":1,"category":"dior-women-bags","status":"active","alibaba_url":null,"images":["https://xcimg.szwego.com/img/2b46f204/20240524/i1716540700_8155_0.jpg"],"created_at":"2024-11-11T09:13:16.978Z"},{"id":"item-2c58bc0e6212","sku":"_dhIhIOJq9C2hmT-Ie828G96UEPzy9ITtRGK-73g","name_en":"Dior Women Bags","name_cn":"顶级原厂 配全套包装\n奶茶色现货!!️\nLady戴妃包,人手一个必备的三格小包😍。迷人优雅又气场十足💃🏻,斜挎手拎也是女人味十足,经典时尚风格。ins和众多时尚icon都人手一个的美包,别错过哦❤️\nsize:17*7*15cm","specs":{"source":"wsxcme","sourceId":"_dhIhIOJq9C2hmT-Ie828G96UEPzy9ITtRGK-73g","sourceTagId":47002747,"sourceTagName":"迪奥/女包","rawTitle":"顶级原厂 配全套包装\n奶茶色现货!!️\nLady戴妃包,人手一个必备的三格小包😍。迷人优雅又气场十足💃🏻,斜挎手拎也是女人味十足,经典时尚风格。ins和众多时尚icon都人手一个的美包,别错过哦❤️\nsize:17*7*15cm"},"price":null,"currency":"CNY","moq":1,"category":"dior-women-bags","status":"active","alibaba_url":null,"images":["https://xcimg.szwego.com/img/2b46f204/20240524/i1716540639_42_4.jpg","https://xcimg.szwego.com/img/2b46f204/20240524/i1716540639_5332_5.jpg","https://xcimg.szwego.com/img/2b46f204/20240524/i1716540639_9841_8.jpg","https://xcimg.szwego.com/img/2b46f204/20240524/i1716540639_6975_2.jpg","https://xcimg.szwego.com/img/2b46f204/20240524/i1716540639_7257_1.jpg","https://xcimg.szwego.com/img/2b46f204/20240524/i1716540639_3156_3.jpg","https://xcimg.szwego.com/img/2b46f204/20240524/i1716540639_9202_7.jpg","https://xcimg.szwego.com/img/2b46f204/20240524/i1716540639_9942_6.jpg"],"created_at":"2024-11-11T09:13:16.977Z"},{"id":"item-b477a0367435","sku":"_dsasatHzUr7OmRE5qkUeTriht66-Mw9maPToyVA","name_en":"Lady 戴妃四格","name_cn":"Lady 戴妃四格","specs":{"source":"wsxcme","sourceId":"_dsasatHzUr7OmRE5qkUeTriht66-Mw9maPToyVA","sourceTagId":47002747,"sourceTagName":"迪奥/女包","rawTitle":"Lady 戴妃四格"},"price":null,"currency":"CNY","moq":1,"category":"dior-women-bags","status":"active","alibaba_url":null,"images":["https://xcimg.szwego.com/img/2b46f204/20240524/i1716540455_820_0.jpg"],"created_at":"2024-11-11T09:13:16.976Z"},{"id":"item-937013c1362c","sku":"_dCZCZsbFFBx6aewBtE-IOctiYXqBFm9n9L9Euug","name_en":"Dior Women Bags","name_cn":"顶级原厂 配全套包装\n奶茶色现货!!️\nLady戴妃四格系列,春夏最新颜色,小清新风格🆕,搭配最新的字母肩带😋,更是加分,字母配送6个⚠️,宝宝们可以随心挑选自己喜欢的扣子🙋🏻,不用一整套配哦\nsize:20*8*17cm","specs":{"source":"wsxcme","sourceId":"_dCZCZsbFFBx6aewBtE-IOctiYXqBFm9n9L9Euug","sourceTagId":47002747,"sourceTagName":"迪奥/女包","rawTitle":"顶级原厂 配全套包装\n奶茶色现货!!️\nLady戴妃四格系列,春夏最新颜色,小清新风格🆕,搭配最新的字母肩带😋,更是加分,字母配送6个⚠️,宝宝们可以随心挑选自己喜欢的扣子🙋🏻,不用一整套配哦\nsize:20*8*17cm"},"price":null,"currency":"CNY","moq":1,"category":"dior-women-bags","status":"active","alibaba_url":null,"images":["https://xcimg.szwego.com/img/2b46f204/20240524/i1716540284_9599_3.jpg","https://xcimg.szwego.com/img/2b46f204/20240524/i1716540284_677_8.jpg","https://xcimg.szwego.com/img/2b46f204/20240524/i1716540284_1639_6.jpg","https://xcimg.szwego.com/img/2b46f204/20240524/i1716540284_8535_7.jpg","https://xcimg.szwego.com/img/2b46f204/20240524/i1716540284_3687_5.jpg","https://xcimg.szwego.com/img/2b46f204/20240524/i1716540284_3021_2.jpg","https://xcimg.szwego.com/img/2b46f204/20240524/i1716540284_3384_1.jpg","https://xcimg.szwego.com/img/2b46f204/20240524/i1716540284_3987_4.jpg"],"created_at":"2024-11-11T09:13:16.975Z"},{"id":"item-f162af418363","sku":"_dIzIzlzWi7jJWaKNquJU7bjPPFFFZYyEx-M30Yw","name_en":"Dior Women Bags","name_cn":"顶级原厂 配全套包装\n白色现货!!️\nLady戴妃包,人手一个必备的三格小包😍。迷人优雅又气场十足💃🏻,斜挎手拎也是女人味十足,经典时尚风格。ins和众多时尚icon都人手一个的美包,别错过哦❤️\nsize:17*7*15cm","specs":{"source":"wsxcme","sourceId":"_dIzIzlzWi7jJWaKNquJU7bjPPFFFZYyEx-M30Yw","sourceTagId":47002747,"sourceTagName":"迪奥/女包","rawTitle":"顶级原厂 配全套包装\n白色现货!!️\nLady戴妃包,人手一个必备的三格小包😍。迷人优雅又气场十足💃🏻,斜挎手拎也是女人味十足,经典时尚风格。ins和众多时尚icon都人手一个的美包,别错过哦❤️\nsize:17*7*15cm"},"price":null,"currency":"CNY","moq":1,"category":"dior-women-bags","status":"active","alibaba_url":null,"images":["https://xcimg.szwego.com/img/2b46f204/20240524/i1716540836_9854_2.jpg","https://xcimg.szwego.com/img/2b46f204/20240524/i1716540836_3167_4.jpg","https://xcimg.szwego.com/img/2b46f204/20240524/i1716540836_609_6.jpg","https://xcimg.szwego.com/img/2b46f204/20240524/i1716540836_7317_8.jpg","https://xcimg.szwego.com/img/2b46f204/20240524/i1716540836_151_5.jpg","https://xcimg.szwego.com/img/2b46f204/20240524/i1716540836_3695_1.jpg","https://xcimg.szwego.com/img/2b46f204/20240524/i1716540836_6336_3.jpg","https://xcimg.szwego.com/img/2b46f204/20240524/i1716540836_2769_7.jpg"],"created_at":"2024-11-11T09:13:16.974Z"},{"id":"item-addf42695bbc","sku":"_dPUPUlmuPPmA8tuJovGRbcYhmNfPhTCVM2WFf_Q","name_en":"Dior Women Bags","name_cn":"顶级原厂 配全套包装\n白色现货!!️\nLady戴妃四格系列,春夏最新颜色,小清新风格🆕,搭配最新的字母肩带😋,更是加分,字母配送6个⚠️,宝宝们可以随心挑选自己喜欢的扣子🙋🏻,不用一整套配哦\nsize:20*8*17cm","specs":{"source":"wsxcme","sourceId":"_dPUPUlmuPPmA8tuJovGRbcYhmNfPhTCVM2WFf_Q","sourceTagId":47002747,"sourceTagName":"迪奥/女包","rawTitle":"顶级原厂 配全套包装\n白色现货!!️\nLady戴妃四格系列,春夏最新颜色,小清新风格🆕,搭配最新的字母肩带😋,更是加分,字母配送6个⚠️,宝宝们可以随心挑选自己喜欢的扣子🙋🏻,不用一整套配哦\nsize:20*8*17cm"},"price":null,"currency":"CNY","moq":1,"category":"dior-women-bags","status":"active","alibaba_url":null,"images":["https://xcimg.szwego.com/img/2b46f204/20240524/i1716540767_2637_5.jpg","https://xcimg.szwego.com/img/2b46f204/20240524/i1716540767_6132_6.jpg","https://xcimg.szwego.com/img/2b46f204/20240524/i1716540767_4155_2.jpg","https://xcimg.szwego.com/img/2b46f204/20240524/i1716540767_2963_0.jpg","https://xcimg.szwego.com/img/2b46f204/20240524/i1716540767_4449_8.jpg","https://xcimg.szwego.com/img/2b46f204/20240524/i1716540767_9648_3.jpg","https://xcimg.szwego.com/img/2b46f204/20240524/i1716540767_7530_7.jpg","https://xcimg.szwego.com/img/2b46f204/20240524/i1716540767_4469_1.jpg"],"created_at":"2024-11-11T09:13:16.973Z"},{"id":"item-d524badf2064","sku":"_dt_t_OBc8BoLI3WGc_hkz0Zbe9VfFoJRuMUy_sw","name_en":"Dior Women Bags","name_cn":"顶级原厂 配全套包装\nCD Lady 五格戴妃\n市场最高版本升级,绝非市场通货,欢迎品鉴\n最新最高版本,细针刺绣工艺,顶级刺绣布面材质得运用. 耳目一新 刺绣 LOGO 正面添加 优雅🀄带着高贵气息  打破常规戴妃 搭配最新宽肩带 ,可以手提可斜背。这不是是包包,还是艺术品.\n尺寸:24X20X11CM\n6605","specs":{"source":"wsxcme","sourceId":"_dt_t_OBc8BoLI3WGc_hkz0Zbe9VfFoJRuMUy_sw","sourceTagId":47002747,"sourceTagName":"迪奥/女包","dimensions":{"lengthCm":24,"heightCm":20,"widthCm":11},"rawTitle":"顶级原厂 配全套包装\nCD Lady 五格戴妃\n市场最高版本升级,绝非市场通货,欢迎品鉴\n最新最高版本,细针刺绣工艺,顶级刺绣布面材质得运用. 耳目一新 刺绣 LOGO 正面添加 优雅🀄带着高贵气息  打破常规戴妃 搭配最新宽肩带 ,可以手提可斜背。这不是是包包,还是艺术品.\n尺寸:24X20X11CM\n6605"},"price":null,"currency":"CNY","moq":1,"category":"dior-women-bags","status":"active","alibaba_url":null,"images":["https://xcimg.szwego.com/20230315/a1678843006351_3402.jpg","https://xcimg.szwego.com/20230315/a1678843006390_1370.jpg","https://xcimg.szwego.com/20230315/a1678843006391_4455.jpg","https://xcimg.szwego.com/20230315/a1678843006459_6447.jpg","https://xcimg.szwego.com/20230315/a1678843006478_8767.jpg","https://xcimg.szwego.com/20230315/a1678843006510_1703.jpg","https://xcimg.szwego.com/20230315/a1678843006511_2586.jpg","https://xcimg.szwego.com/20230315/a1678843006512_5173.jpg","https://xcimg.szwego.com/20230315/a1678843006550_8818.jpg"],"created_at":"2024-11-11T09:13:16.972Z"},{"id":"item-aabb6638d23a","sku":"_disisDkw8-7YnZvSb9eCsi2O1PpDDI3X2ZB24qA","name_en":"Dior Women Bags","name_cn":"顶级原厂 配全套包装\n戴妃五格现货!!️\nLady巴黎地图刺绣系列,法式浪漫元素,独特的花卉刺绣,精湛的工艺🔍,简约的黑白配色,整体时尚又复古,高级又浪漫💓\nsize:24*11*20cm\n6605","specs":{"source":"wsxcme","sourceId":"_disisDkw8-7YnZvSb9eCsi2O1PpDDI3X2ZB24qA","sourceTagId":47002747,"sourceTagName":"迪奥/女包","rawTitle":"顶级原厂 配全套包装\n戴妃五格现货!!️\nLady巴黎地图刺绣系列,法式浪漫元素,独特的花卉刺绣,精湛的工艺🔍,简约的黑白配色,整体时尚又复古,高级又浪漫💓\nsize:24*11*20cm\n6605"},"price":null,"currency":"CNY","moq":1,"category":"dior-women-bags","status":"active","alibaba_url":null,"images":["https://xcimg.szwego.com/20230412/i1681280515_1748_0.jpg","https://xcimg.szwego.com/20230412/i1681280515_6797_1.jpg","https://xcimg.szwego.com/20230412/i1681280515_8110_2.jpg","https://xcimg.szwego.com/20230412/i1681280515_6579_3.jpg","https://xcimg.szwego.com/20230412/i1681280515_1893_4.jpg","https://xcimg.szwego.com/20230412/i1681280515_1119_5.jpg","https://xcimg.szwego.com/20230412/i1681280515_5248_6.jpg","https://xcimg.szwego.com/20230412/i1681280515_5130_7.jpg","https://xcimg.szwego.com/20230412/i1681280515_2509_8.jpg"],"created_at":"2024-11-11T09:13:16.971Z"},{"id":"item-d82f0f58a2e6","sku":"_dh5h5D00S1YiVZ1MadOlu3EMw2awseTM00ZQxmA","name_en":"Dior Women Bags","name_cn":"顶级原厂 配全套包装\n最新戴妃五格巴黎系列现货!!️\nLady巴黎地图刺绣系列,法式浪漫元素,独特的花卉刺绣,精湛的工艺🔍,简约的黑白配色,整体时尚又复古,高级又浪漫💓\nsize:24*11*20cm\n6605","specs":{"source":"wsxcme","sourceId":"_dh5h5D00S1YiVZ1MadOlu3EMw2awseTM00ZQxmA","sourceTagId":47002747,"sourceTagName":"迪奥/女包","rawTitle":"顶级原厂 配全套包装\n最新戴妃五格巴黎系列现货!!️\nLady巴黎地图刺绣系列,法式浪漫元素,独特的花卉刺绣,精湛的工艺🔍,简约的黑白配色,整体时尚又复古,高级又浪漫💓\nsize:24*11*20cm\n6605"},"price":null,"currency":"CNY","moq":1,"category":"dior-women-bags","status":"active","alibaba_url":null,"images":["https://xcimg.szwego.com/20230630/i1688138840_2246_0.jpg","https://xcimg.szwego.com/20230630/i1688138840_4452_1.jpg","https://xcimg.szwego.com/20230630/i1688138840_5573_2.jpg","https://xcimg.szwego.com/20230630/i1688138840_7013_3.jpg","https://xcimg.szwego.com/20230630/i1688138840_7345_4.jpg","https://xcimg.szwego.com/20230630/i1688138840_8091_5.jpg","https://xcimg.szwego.com/20230630/i1688138840_2271_6.jpg","https://xcimg.szwego.com/20230630/i1688138840_9419_7.jpg","https://xcimg.szwego.com/20230630/i1688138840_9899_8.jpg"],"created_at":"2024-11-11T09:13:16.970Z"},{"id":"item-a139a18a1363","sku":"_dtYtYSkqY93bigZn1BWzaeHxNHln3pCOayBiswg","name_en":"Dior Women Bags","name_cn":"顶级原厂 配全套包装\n最新印度风情戴妃五格大象白现货!!️\nLady最新丛林花园刺绣系列,仙气满满的,经典的图形刺绣,精湛的工艺🔍,完美的配色,整体时尚又复古,高级又浪漫💓\nsize:  24cm\n6605","specs":{"source":"wsxcme","sourceId":"_dtYtYSkqY93bigZn1BWzaeHxNHln3pCOayBiswg","sourceTagId":47002747,"sourceTagName":"迪奥/女包","rawTitle":"顶级原厂 配全套包装\n最新印度风情戴妃五格大象白现货!!️\nLady最新丛林花园刺绣系列,仙气满满的,经典的图形刺绣,精湛的工艺🔍,完美的配色,整体时尚又复古,高级又浪漫💓\nsize:  24cm\n6605"},"price":null,"currency":"CNY","moq":1,"category":"dior-women-bags","status":"active","alibaba_url":null,"images":["https://xcimg.szwego.com/20230601/i1685629075_9394_0.jpg","https://xcimg.szwego.com/20230601/i1685629075_8884_1.jpg","https://xcimg.szwego.com/20230601/i1685629075_5056_2.jpg","https://xcimg.szwego.com/20230601/i1685629075_8742_3.jpg","https://xcimg.szwego.com/20230601/i1685629075_76_4.jpg","https://xcimg.szwego.com/20230601/i1685629075_287_5.jpg","https://xcimg.szwego.com/20230601/i1685629075_3758_6.jpg","https://xcimg.szwego.com/20230601/i1685629075_7040_7.jpg","https://xcimg.szwego.com/20230601/i1685629075_8193_8.jpg"],"created_at":"2024-11-11T09:13:16.969Z"},{"id":"item-9942a1328d02","sku":"_dnVnVkUUriQPuXy_cGl5rV6BNrZopazkD97367w","name_en":"Dior Women Bags","name_cn":"顶级原厂 配全套包装\n最新印度风情戴妃五格大象杏现货!!️\nLady最新丛林花园刺绣系列,仙气满满的,经典的图形刺绣,精湛的工艺🔍,完美的配色,整体时尚又复古,高级又浪漫💓\nsize:  24cm\n6605","specs":{"source":"wsxcme","sourceId":"_dnVnVkUUriQPuXy_cGl5rV6BNrZopazkD97367w","sourceTagId":47002747,"sourceTagName":"迪奥/女包","rawTitle":"顶级原厂 配全套包装\n最新印度风情戴妃五格大象杏现货!!️\nLady最新丛林花园刺绣系列,仙气满满的,经典的图形刺绣,精湛的工艺🔍,完美的配色,整体时尚又复古,高级又浪漫💓\nsize:  24cm\n6605"},"price":null,"currency":"CNY","moq":1,"category":"dior-women-bags","status":"active","alibaba_url":null,"images":["https://xcimg.szwego.com/20230601/i1685629223_5070_0.jpg","https://xcimg.szwego.com/20230601/i1685629223_6777_1.jpg","https://xcimg.szwego.com/20230601/i1685629223_6248_2.jpg","https://xcimg.szwego.com/20230601/i1685629223_9476_3.jpg","https://xcimg.szwego.com/20230601/i1685629223_535_4.jpg","https://xcimg.szwego.com/20230601/i1685629223_2208_5.jpg","https://xcimg.szwego.com/20230601/i1685629223_9318_6.jpg","https://xcimg.szwego.com/20230601/i1685629223_8013_7.jpg","https://xcimg.szwego.com/20230601/i1685629223_2337_8.jpg"],"created_at":"2024-11-11T09:13:16.968Z"},{"id":"item-4ea86203c35c","sku":"_dTXTXdU1yGPnfHn3yki3CK693W0B0z4jl71MW_g","name_en":"Dior Women Bags","name_cn":"顶级原厂 配全套包装\n最新款戴妃五格旅行星现货!!️\nLady最新丛林花园刺绣系列,仙气满满的,经典的图形刺绣,精湛的工艺🔍,完美的配色,整体时尚又复古,高级又浪漫💓\nsize:  24cm\n6605","specs":{"source":"wsxcme","sourceId":"_dTXTXdU1yGPnfHn3yki3CK693W0B0z4jl71MW_g","sourceTagId":47002747,"sourceTagName":"迪奥/女包","rawTitle":"顶级原厂 配全套包装\n最新款戴妃五格旅行星现货!!️\nLady最新丛林花园刺绣系列,仙气满满的,经典的图形刺绣,精湛的工艺🔍,完美的配色,整体时尚又复古,高级又浪漫💓\nsize:  24cm\n6605"},"price":null,"currency":"CNY","moq":1,"category":"dior-women-bags","status":"active","alibaba_url":null,"images":["https://xcimg.szwego.com/20230604/i1685872977_3489_0.jpg","https://xcimg.szwego.com/20230604/i1685872977_9214_1.jpg","https://xcimg.szwego.com/20230604/i1685872977_1418_2.jpg","https://xcimg.szwego.com/20230604/i1685872977_9985_3.jpg","https://xcimg.szwego.com/20230604/i1685872977_478_4.jpg","https://xcimg.szwego.com/20230604/i1685872977_5468_5.jpg","https://xcimg.szwego.com/20230604/i1685872977_9372_6.jpg","https://xcimg.szwego.com/20230604/i1685872977_1754_7.jpg","https://xcimg.szwego.com/20230604/i1685872977_6660_8.jpg"],"created_at":"2024-11-11T09:13:16.967Z"},{"id":"item-e2479c0a9203","sku":"_daWaW5izSMaSXoylAzGo6NDjIhmA30Eq-Q82ZTw","name_en":"2024新款牛皮 Lady戴妃包","name_cn":"2024新款牛皮 Lady戴妃包","specs":{"source":"wsxcme","sourceId":"_daWaW5izSMaSXoylAzGo6NDjIhmA30Eq-Q82ZTw","sourceTagId":47002747,"sourceTagName":"迪奥/女包","rawTitle":"2024新款牛皮 Lady戴妃包"},"price":null,"currency":"CNY","moq":1,"category":"dior-women-bags","status":"active","alibaba_url":null,"images":["https://xcimg.szwego.com/img/2b46f204/20240408/i1712566864_7140_0.jpg"],"created_at":"2024-11-11T09:13:16.966Z"},{"id":"item-077eb55978f0","sku":"_dototEMs8pPVvOQ7WVe_xDxd--Vs66ncxpCwiBw","name_en":"CD Lady 五格戴妃 蓝星矢","name_cn":"CD Lady 五格戴妃 蓝星矢","specs":{"source":"wsxcme","sourceId":"_dototEMs8pPVvOQ7WVe_xDxd--Vs66ncxpCwiBw","sourceTagId":47002747,"sourceTagName":"迪奥/女包","rawTitle":"CD Lady 五格戴妃 蓝星矢"},"price":null,"currency":"CNY","moq":1,"category":"dior-women-bags","status":"active","alibaba_url":null,"images":["https://xcimg.szwego.com/20230315/a1678843027737_7780.jpg"],"created_at":"2024-11-11T09:13:16.965Z"},{"id":"item-21c5570e848b","sku":"_djojo0Eb6ctJWxD-FEoRe-c8Pwl2nwv9M6kbimw","name_en":"Dior Women Bags","name_cn":"❤️迷你镭射金\n原厂皮内里配羊筋绒D-Joy bag羊皮2023款时尚果然就是轮回,回归了一把中古戴妃、长方包形,短链条➕细长肩带直接封神!!复古时髦感超强,真是什么场合都可以把住😉绝对是lady中的天花板了,强势出圈啦姐妹们👱‍♀️\nSize;16*5.5*10cm","specs":{"source":"wsxcme","sourceId":"_djojo0Eb6ctJWxD-FEoRe-c8Pwl2nwv9M6kbimw","sourceTagId":47002747,"sourceTagName":"迪奥/女包","rawTitle":"❤️迷你镭射金\n原厂皮内里配羊筋绒D-Joy bag羊皮2023款时尚果然就是轮回,回归了一把中古戴妃、长方包形,短链条➕细长肩带直接封神!!复古时髦感超强,真是什么场合都可以把住😉绝对是lady中的天花板了,强势出圈啦姐妹们👱‍♀️\nSize;16*5.5*10cm"},"price":null,"currency":"CNY","moq":1,"category":"dior-women-bags","status":"active","alibaba_url":null,"images":["https://xcimg.szwego.com/img/2b46f204/20240513/i1715578462_7783_5.jpg","https://xcimg.szwego.com/img/2b46f204/20240513/i1715578462_5861_3.jpg","https://xcimg.szwego.com/img/2b46f204/20240513/i1715578463_5306_7.jpg","https://xcimg.szwego.com/img/2b46f204/20240513/i1715578462_596_2.jpg","https://xcimg.szwego.com/img/2b46f204/20240513/i1715578462_6863_1.jpg","https://xcimg.szwego.com/img/2b46f204/20240513/i1715578462_101_6.jpg","https://xcimg.szwego.com/img/2b46f204/20240513/i1715578462_9978_0.jpg","https://xcimg.szwego.com/img/2b46f204/20240513/i1715578462_2218_4.jpg","https://xcimg.szwego.com/img/2b46f204/20240513/i1715578463_191_8.jpg"],"created_at":"2024-11-11T09:13:16.964Z"},{"id":"item-71cdd326685f","sku":"_d9Q9QJFoCLQNXt_rie1qSUfQ5XsBg2dxvXO7xyA","name_en":"Dior Women Bags","name_cn":"❤️迷你白色\n原厂皮内里配羊筋绒D-Joy bag羊皮2023款时尚果然就是轮回,回归了一把中古戴妃、长方包形,短链条➕细长肩带直接封神!!复古时髦感超强,真是什么场合都可以把住😉绝对是lady中的天花板了,强势出圈啦姐妹们👱‍♀️\nSize;16*5.5*10cm","specs":{"source":"wsxcme","sourceId":"_d9Q9QJFoCLQNXt_rie1qSUfQ5XsBg2dxvXO7xyA","sourceTagId":47002747,"sourceTagName":"迪奥/女包","rawTitle":"❤️迷你白色\n原厂皮内里配羊筋绒D-Joy bag羊皮2023款时尚果然就是轮回,回归了一把中古戴妃、长方包形,短链条➕细长肩带直接封神!!复古时髦感超强,真是什么场合都可以把住😉绝对是lady中的天花板了,强势出圈啦姐妹们👱‍♀️\nSize;16*5.5*10cm"},"price":null,"currency":"CNY","moq":1,"category":"dior-women-bags","status":"active","alibaba_url":null,"images":["https://xcimg.szwego.com/img/2b46f204/20240513/i1715578428_7258_4.jpg","https://xcimg.szwego.com/img/2b46f204/20240513/i1715578428_3655_5.jpg","https://xcimg.szwego.com/img/2b46f204/20240513/i1715578428_8506_3.jpg","https://xcimg.szwego.com/img/2b46f204/20240513/i1715578428_5974_7.jpg","https://xcimg.szwego.com/img/2b46f204/20240513/i1715578428_6022_6.jpg","https://xcimg.szwego.com/img/2b46f204/20240513/i1715578428_2581_1.jpg","https://xcimg.szwego.com/img/2b46f204/20240513/i1715578428_4884_2.jpg","https://xcimg.szwego.com/img/2b46f204/20240513/i1715578428_2278_8.jpg","https://xcimg.szwego.com/img/2b46f204/20240513/i1715578428_3280_0.jpg"],"created_at":"2024-11-11T09:13:16.963Z"},{"id":"item-3d1049a97bbe","sku":"_davav8MefmxV7Ope_8V2HgwPJyeghiSdzBnwXxA","name_en":"Dior Women Bags","name_cn":"❤️迷你胭脂粉\n原厂皮内里配羊筋绒D-Joy bag羊皮2023款时尚果然就是轮回,回归了一把中古戴妃、长方包形,短链条➕细长肩带直接封神!!复古时髦感超强,真是什么场合都可以把住😉绝对是lady中的天花板了,强势出圈啦姐妹们👱‍♀️\nSize;16*5.5*10cm","specs":{"source":"wsxcme","sourceId":"_davav8MefmxV7Ope_8V2HgwPJyeghiSdzBnwXxA","sourceTagId":47002747,"sourceTagName":"迪奥/女包","rawTitle":"❤️迷你胭脂粉\n原厂皮内里配羊筋绒D-Joy bag羊皮2023款时尚果然就是轮回,回归了一把中古戴妃、长方包形,短链条➕细长肩带直接封神!!复古时髦感超强,真是什么场合都可以把住😉绝对是lady中的天花板了,强势出圈啦姐妹们👱‍♀️\nSize;16*5.5*10cm"},"price":null,"currency":"CNY","moq":1,"category":"dior-women-bags","status":"active","alibaba_url":null,"images":["https://xcimg.szwego.com/img/2b46f204/20240513/i1715578383_6558_1.jpg","https://xcimg.szwego.com/img/2b46f204/20240513/i1715578384_2038_8.jpg","https://xcimg.szwego.com/img/2b46f204/20240513/i1715578383_9630_2.jpg","https://xcimg.szwego.com/img/2b46f204/20240513/i1715578383_3050_3.jpg","https://xcimg.szwego.com/img/2b46f204/20240513/i1715578383_3362_4.jpg","https://xcimg.szwego.com/img/2b46f204/20240513/i1715578383_4926_0.jpg","https://xcimg.szwego.com/img/2b46f204/20240513/i1715578384_5613_7.jpg","https://xcimg.szwego.com/img/2b46f204/20240513/i1715578384_6402_6.jpg","https://xcimg.szwego.com/img/2b46f204/20240513/i1715578384_7731_5.jpg"],"created_at":"2024-11-11T09:13:16.962Z"},{"id":"item-d15105cccf78","sku":"_d9g9gBeY500sDOjiRQfR3roGz-2OGn1K_MCqcTg","name_en":"Dior Women Bags","name_cn":"❤️迷你黑色\n原厂皮内里配羊筋绒D-Joy bag羊皮2023款时尚果然就是轮回,回归了一把中古戴妃、长方包形,短链条➕细长肩带直接封神!!复古时髦感超强,真是什么场合都可以把住😉绝对是lady中的天花板了,强势出圈啦姐妹们👱‍♀️\nSize;16*5.5*10cm","specs":{"source":"wsxcme","sourceId":"_d9g9gBeY500sDOjiRQfR3roGz-2OGn1K_MCqcTg","sourceTagId":47002747,"sourceTagName":"迪奥/女包","rawTitle":"❤️迷你黑色\n原厂皮内里配羊筋绒D-Joy bag羊皮2023款时尚果然就是轮回,回归了一把中古戴妃、长方包形,短链条➕细长肩带直接封神!!复古时髦感超强,真是什么场合都可以把住😉绝对是lady中的天花板了,强势出圈啦姐妹们👱‍♀️\nSize;16*5.5*10cm"},"price":null,"currency":"CNY","moq":1,"category":"dior-women-bags","status":"active","alibaba_url":null,"images":["https://xcimg.szwego.com/img/2b46f204/20240513/i1715578333_4606_1.jpg","https://xcimg.szwego.com/img/2b46f204/20240513/i1715578333_5558_4.jpg","https://xcimg.szwego.com/img/2b46f204/20240513/i1715578333_9011_2.jpg","https://xcimg.szwego.com/img/2b46f204/20240513/i1715578333_2694_0.jpg","https://xcimg.szwego.com/img/2b46f204/20240513/i1715578333_3537_7.jpg","https://xcimg.szwego.com/img/2b46f204/20240513/i1715578333_6651_6.jpg","https://xcimg.szwego.com/img/2b46f204/20240513/i1715578333_4181_3.jpg","https://xcimg.szwego.com/img/2b46f204/20240513/i1715578333_8887_8.jpg","https://xcimg.szwego.com/img/2b46f204/20240513/i1715578333_4806_5.jpg"],"created_at":"2024-11-11T09:13:16.961Z"},{"id":"item-10fefe159434","sku":"_dTMTMKX-WwcaqTBQy8dqTvdLfgs9YoMnIvZyZrw","name_en":"Dior Women Bags","name_cn":"❤️迷你焦糖米杏\n原厂皮内里配羊筋绒D-Joy bag羊皮2023款时尚果然就是轮回,回归了一把中古戴妃、长方包形,短链条➕细长肩带直接封神!!复古时髦感超强,真是什么场合都可以把住😉绝对是lady中的天花板了,强势出圈啦姐妹们👱‍♀️\nSize;16*5.5*10cm","specs":{"source":"wsxcme","sourceId":"_dTMTMKX-WwcaqTBQy8dqTvdLfgs9YoMnIvZyZrw","sourceTagId":47002747,"sourceTagName":"迪奥/女包","rawTitle":"❤️迷你焦糖米杏\n原厂皮内里配羊筋绒D-Joy bag羊皮2023款时尚果然就是轮回,回归了一把中古戴妃、长方包形,短链条➕细长肩带直接封神!!复古时髦感超强,真是什么场合都可以把住😉绝对是lady中的天花板了,强势出圈啦姐妹们👱‍♀️\nSize;16*5.5*10cm"},"price":null,"currency":"CNY","moq":1,"category":"dior-women-bags","status":"active","alibaba_url":null,"images":["https://xcimg.szwego.com/img/2b46f204/20240513/i1715578285_4548_5.jpg","https://xcimg.szwego.com/img/2b46f204/20240513/i1715578285_3588_1.jpg","https://xcimg.szwego.com/img/2b46f204/20240513/i1715578286_8439_8.jpg","https://xcimg.szwego.com/img/2b46f204/20240513/i1715578286_7334_6.jpg","https://xcimg.szwego.com/img/2b46f204/20240513/i1715578285_2698_4.jpg","https://xcimg.szwego.com/img/2b46f204/20240513/i1715578285_4352_0.jpg","https://xcimg.szwego.com/img/2b46f204/20240513/i1715578286_4214_7.jpg","https://xcimg.szwego.com/img/2b46f204/20240513/i1715578285_8901_2.jpg","https://xcimg.szwego.com/img/2b46f204/20240513/i1715578285_3077_3.jpg"],"created_at":"2024-11-11T09:13:16.960Z"},{"id":"item-f0ee0d3d82c4","sku":"_dnZnZdCP8DPrAPpaorioNZ6tEcuyfcI3KG6ejag","name_en":"Dior Women Bags","name_cn":"❤️迷你湖水蓝\n原厂皮内里配羊筋绒D-Joy bag羊皮2023款时尚果然就是轮回,回归了一把中古戴妃、长方包形,短链条➕细长肩带直接封神!!复古时髦感超强,真是什么场合都可以把住😉绝对是lady中的天花板了,强势出圈啦姐妹们👱‍♀️\nSize;16*5.5*10cm","specs":{"source":"wsxcme","sourceId":"_dnZnZdCP8DPrAPpaorioNZ6tEcuyfcI3KG6ejag","sourceTagId":47002747,"sourceTagName":"迪奥/女包","rawTitle":"❤️迷你湖水蓝\n原厂皮内里配羊筋绒D-Joy bag羊皮2023款时尚果然就是轮回,回归了一把中古戴妃、长方包形,短链条➕细长肩带直接封神!!复古时髦感超强,真是什么场合都可以把住😉绝对是lady中的天花板了,强势出圈啦姐妹们👱‍♀️\nSize;16*5.5*10cm"},"price":null,"currency":"CNY","moq":1,"category":"dior-women-bags","status":"active","alibaba_url":null,"images":["https://xcimg.szwego.com/img/2b46f204/20240513/i1715578228_466_5.jpg","https://xcimg.szwego.com/img/2b46f204/20240513/i1715578228_8236_7.jpg","https://xcimg.szwego.com/img/2b46f204/20240513/i1715578228_2498_1.jpg","https://xcimg.szwego.com/img/2b46f204/20240513/i1715578228_7224_2.jpg","https://xcimg.szwego.com/img/2b46f204/20240513/i1715578228_7582_3.jpg","https://xcimg.szwego.com/img/2b46f204/20240513/i1715578228_9206_8.jpg","https://xcimg.szwego.com/img/2b46f204/20240513/i1715578228_319_4.jpg","https://xcimg.szwego.com/img/2b46f204/20240513/i1715578228_2136_6.jpg","https://xcimg.szwego.com/img/2b46f204/20240513/i1715578228_7150_0.jpg"],"created_at":"2024-11-11T09:13:16.959Z"},{"id":"item-a051f6f2dfca","sku":"_d3X3XpK1cpEycOiiwt3pSe4Z3uJo6eU7SaBWA-w","name_en":"Dior Women Bags","name_cn":"❤️迷你樱桃红\n原厂皮内里配羊筋绒D-Joy bag羊皮2023款时尚果然就是轮回,回归了一把中古戴妃、长方包形,短链条➕细长肩带直接封神!!复古时髦感超强,真是什么场合都可以把住😉绝对是lady中的天花板了,强势出圈啦姐妹们👱‍♀️\nSize;16*5.5*10cm","specs":{"source":"wsxcme","sourceId":"_d3X3XpK1cpEycOiiwt3pSe4Z3uJo6eU7SaBWA-w","sourceTagId":47002747,"sourceTagName":"迪奥/女包","rawTitle":"❤️迷你樱桃红\n原厂皮内里配羊筋绒D-Joy bag羊皮2023款时尚果然就是轮回,回归了一把中古戴妃、长方包形,短链条➕细长肩带直接封神!!复古时髦感超强,真是什么场合都可以把住😉绝对是lady中的天花板了,强势出圈啦姐妹们👱‍♀️\nSize;16*5.5*10cm"},"price":null,"currency":"CNY","moq":1,"category":"dior-women-bags","status":"active","alibaba_url":null,"images":["https://xcimg.szwego.com/img/2b46f204/20240513/i1715578182_6878_7.jpg","https://xcimg.szwego.com/img/2b46f204/20240513/i1715578182_9655_6.jpg","https://xcimg.szwego.com/img/2b46f204/20240513/i1715578182_6705_0.jpg","https://xcimg.szwego.com/img/2b46f204/20240513/i1715578182_9666_5.jpg","https://xcimg.szwego.com/img/2b46f204/20240513/i1715578182_6743_3.jpg","https://xcimg.szwego.com/img/2b46f204/20240513/i1715578182_4603_2.jpg","https://xcimg.szwego.com/img/2b46f204/20240513/i1715578182_6124_8.jpg","https://xcimg.szwego.com/img/2b46f204/20240513/i1715578182_9170_1.jpg","https://xcimg.szwego.com/img/2b46f204/20240513/i1715578182_1671_4.jpg"],"created_at":"2024-11-11T09:13:16.958Z"},{"id":"item-306478f73211","sku":"_dAtAtI339A4O015N82qBLLrhIRUZ_KNiwyoU45w","name_en":"Dior Women Bags","name_cn":"三格黑枪银扣\nDIOR Lady三格,真丝缎面钻\n全面升级,终极版本!\n进口丝绸 施华洛世奇贴钻 \n特别是在暗光的地方 一闪一闪 \n自带灯光效果真的美翻\n名媛气质优雅惊艳集于一体的宠儿 \n戴妃包的坑是一定要入的!!\n\nsize:17×15×7cm\n1004","specs":{"source":"wsxcme","sourceId":"_dAtAtI339A4O015N82qBLLrhIRUZ_KNiwyoU45w","sourceTagId":47002747,"sourceTagName":"迪奥/女包","rawTitle":"三格黑枪银扣\nDIOR Lady三格,真丝缎面钻\n全面升级,终极版本!\n进口丝绸 施华洛世奇贴钻 \n特别是在暗光的地方 一闪一闪 \n自带灯光效果真的美翻\n名媛气质优雅惊艳集于一体的宠儿 \n戴妃包的坑是一定要入的!!\n\nsize:17×15×7cm\n1004"},"price":null,"currency":"CNY","moq":1,"category":"dior-women-bags","status":"active","alibaba_url":null,"images":["https://xcimg.szwego.com/20220809/i1660039412_7739_0.jpg","https://xcimg.szwego.com/20220809/i1660039412_1192_1.jpg","https://xcimg.szwego.com/20220809/i1660039412_7275_2.jpg","https://xcimg.szwego.com/20220809/i1660039412_4821_8.jpg","https://xcimg.szwego.com/20220809/i1660039412_5265_3.jpg","https://xcimg.szwego.com/20220809/i1660039412_8152_4.jpg","https://xcimg.szwego.com/20220809/i1660039412_6998_7.jpg","https://xcimg.szwego.com/20220809/i1660039412_3439_5.jpg"],"created_at":"2024-11-11T09:13:16.957Z"},{"id":"item-a397400855b1","sku":"_dPDPDWDH8arqPBP5mzCwT7p09of8ljVykKSu_wA","name_en":"Dior Women Bags","name_cn":"三格银灰枪钻银扣\nDIOR Lady三格,真丝缎面钻\n全面升级,终极版本!\n进口丝绸 施华洛世奇贴钻 \n特别是在暗光的地方 一闪一闪 \n自带灯光效果真的美翻\n名媛气质优雅惊艳集于一体的宠儿 \n戴妃包的坑是一定要入的!!\n\nsize:17×15×7cm\n1004","specs":{"source":"wsxcme","sourceId":"_dPDPDWDH8arqPBP5mzCwT7p09of8ljVykKSu_wA","sourceTagId":47002747,"sourceTagName":"迪奥/女包","rawTitle":"三格银灰枪钻银扣\nDIOR Lady三格,真丝缎面钻\n全面升级,终极版本!\n进口丝绸 施华洛世奇贴钻 \n特别是在暗光的地方 一闪一闪 \n自带灯光效果真的美翻\n名媛气质优雅惊艳集于一体的宠儿 \n戴妃包的坑是一定要入的!!\n\nsize:17×15×7cm\n1004"},"price":null,"currency":"CNY","moq":1,"category":"dior-women-bags","status":"active","alibaba_url":null,"images":["https://xcimg.szwego.com/20220811/i1660212173_4275_0.jpg","https://xcimg.szwego.com/20220811/i1660212173_7815_1.jpg","https://xcimg.szwego.com/20220811/i1660212173_2801_2.jpg","https://xcimg.szwego.com/20220811/i1660212178_1677_0.jpg","https://xcimg.szwego.com/20220811/i1660212173_308_3.jpg","https://xcimg.szwego.com/20220811/i1660212173_1372_5.jpg","https://xcimg.szwego.com/20220811/i1660212173_8917_4.jpg","https://xcimg.szwego.com/20220811/i1660212173_8754_6.jpg"],"created_at":"2024-11-11T09:13:16.956Z"},{"id":"item-c0b4ff264a6e","sku":"_dUxUx55LAITre83fAIX3wKs2T7jQNjVXAPZ3tLA","name_en":"lady Dior 迷你戴妃包 酒红🍒金扣非常百搭,出席晚宴会让你大放光彩🌈一款值得入手的三格戴妃包!!️","name_cn":"lady Dior 迷你戴妃包 酒红🍒金扣非常百搭,出席晚宴会让你大放光彩🌈一款值得入手的三格戴妃包!!️","specs":{"source":"wsxcme","sourceId":"_dUxUx55LAITre83fAIX3wKs2T7jQNjVXAPZ3tLA","sourceTagId":47002747,"sourceTagName":"迪奥/女包","rawTitle":"lady Dior 迷你戴妃包 酒红🍒金扣非常百搭,出席晚宴会让你大放光彩🌈一款值得入手的三格戴妃包!!️"},"price":null,"currency":"CNY","moq":1,"category":"dior-women-bags","status":"active","alibaba_url":null,"images":["https://xcimg.szwego.com/20201116/i1605467416_1316_0","https://xcimg.szwego.com/20201116/i1605467416_6558_1","https://xcimg.szwego.com/20201116/i1605467416_5852_2","https://xcimg.szwego.com/20201116/i1605467416_6447_3","https://xcimg.szwego.com/20201116/i1605467416_8898_4","https://xcimg.szwego.com/20201116/i1605467417_3918_5","https://xcimg.szwego.com/20201116/i1605467417_3581_6","https://xcimg.szwego.com/20201116/i1605467417_2318_7","https://xcimg.szwego.com/20201116/i1605467417_5616_8"],"created_at":"2024-11-11T09:13:16.955Z"}],"page":30,"pageSize":24,"total":961,"totalPages":41}
