{"items":[{"id":"item-2548a52c197d","sku":"_duouoZxOo3vvxKgVWnPrtxlktCWbYfkFKkVQO_g","name_en":"C'EST DIOR 小号手袋 ❣️❣️❣️","name_cn":"C'EST DIOR 小号手袋 ❣️❣️❣️\n这款 C'est Dior 手袋是二零二三秋季新品,优雅而经典。采用牛皮革精心制作,正面饰以 CD 压花标志,彰显 Dior 的精湛工艺。水桶包造型,设有 CD Lock 开合,饰以旋钮式字母 D,可安全收纳各种日常用品。小号款式,搭配顶部手柄和饰以皮革带的可调节、可拆卸的链条肩带,可手提,打造轻松舒适的造型。\n\nCD Lock 开合\n可拆卸的链条肩带饰以可调节的皮革带\n顶部可拆卸皮革手柄\n\n型号:2272\n尺寸:17×7×18cm","specs":{"source":"wsxcme","sourceId":"_duouoZxOo3vvxKgVWnPrtxlktCWbYfkFKkVQO_g","sourceTagId":47002747,"sourceTagName":"迪奥/女包","modelNumber":"2272","dimensions":{"lengthCm":17,"heightCm":7,"widthCm":18},"rawTitle":"C'EST DIOR 小号手袋 ❣️❣️❣️\n这款 C'est Dior 手袋是二零二三秋季新品,优雅而经典。采用牛皮革精心制作,正面饰以 CD 压花标志,彰显 Dior 的精湛工艺。水桶包造型,设有 CD Lock 开合,饰以旋钮式字母 D,可安全收纳各种日常用品。小号款式,搭配顶部手柄和饰以皮革带的可调节、可拆卸的链条肩带,可手提,打造轻松舒适的造型。\n\nCD Lock 开合\n可拆卸的链条肩带饰以可调节的皮革带\n顶部可拆卸皮革手柄\n\n型号:2272\n尺寸:17×7×18cm"},"price":null,"currency":"CNY","moq":1,"category":"dior-women-bags","status":"active","alibaba_url":null,"images":["https://xcimg.szwego.com/20230614/i1686753008_3816_0.jpg","https://xcimg.szwego.com/20230614/i1686753008_9092_1.jpg","https://xcimg.szwego.com/20230614/i1686753008_8544_2.jpg","https://xcimg.szwego.com/20230614/i1686753008_7328_3.jpg","https://xcimg.szwego.com/20230614/i1686753008_6986_4.jpg","https://xcimg.szwego.com/20230614/i1686753008_4460_5.jpg","https://xcimg.szwego.com/20230614/i1686753008_9525_6.jpg","https://xcimg.szwego.com/20230614/i1686753008_93_7.jpg","https://xcimg.szwego.com/20230614/i1686753008_4145_8.jpg"],"created_at":"2024-05-01T03:20:28.313Z"}],"page":41,"pageSize":24,"total":961,"totalPages":41}
