{"items":[{"id":"item-fb0565a95c05","sku":"_digigD0e7uq6cT4iH3WGcau076TdjPtsFnV73Ug","name_en":"MCM and Coach Women Bags","name_cn":"编码:666242\n💄[MCM]秋冬新品SOFT BERLIN复古迷你小方包:Berlin系列的设计灵感来源于MCM根植于旅行的理念。这款腰包散发着女性的精致魅力,从经典的硬行李箱中汲取设计灵感,可拆卸皮革斜挎肩带,顶部皮革提手,饰有月桂叶雕刻的闭合机构,2个内部隔层,配有侧面拉链口袋及卡槽,金属保护支脚银色,织物衬里\n❤️尺寸:12x15x7","specs":{"source":"wsxcme","sourceId":"_digigD0e7uq6cT4iH3WGcau076TdjPtsFnV73Ug","sourceTagId":77388356,"sourceTagName":"MCM、寇驰/女包","rawTitle":"编码:666242\n💄[MCM]秋冬新品SOFT BERLIN复古迷你小方包:Berlin系列的设计灵感来源于MCM根植于旅行的理念。这款腰包散发着女性的精致魅力,从经典的硬行李箱中汲取设计灵感,可拆卸皮革斜挎肩带,顶部皮革提手,饰有月桂叶雕刻的闭合机构,2个内部隔层,配有侧面拉链口袋及卡槽,金属保护支脚银色,织物衬里\n❤️尺寸:12x15x7"},"price":null,"currency":"CNY","moq":1,"category":"mcm-coach-women-bags","status":"active","alibaba_url":null,"images":["https://xcimg.szwego.com/img/3bfc614b/20231031/a1698711535041_1212.jpg","https://xcimg.szwego.com/img/3bfc614b/20231031/a1698711535113_4268.jpg","https://xcimg.szwego.com/img/3bfc614b/20231031/a1698711535179_1284.jpg","https://xcimg.szwego.com/img/3bfc614b/20231031/a1698711535245_0188.jpg","https://xcimg.szwego.com/img/3bfc614b/20231031/a1698711535316_4742.jpg","https://xcimg.szwego.com/img/3bfc614b/20231031/a1698711535373_5220.jpg","https://xcimg.szwego.com/img/3bfc614b/20231031/a1698711535430_7557.jpg","https://xcimg.szwego.com/img/3bfc614b/20231031/a1698711535432_8682.jpg","https://xcimg.szwego.com/img/3bfc614b/20231031/a1698711535491_2868.jpg"],"created_at":"2024-10-28T06:11:08.324Z"},{"id":"item-fb9c3e3ee08d","sku":"_dtrtrkuC1pA5gwLbicKmrmlWXkHQgfTEd8xlkDw","name_en":"MCM and Coach Women Bags","name_cn":"旅行包\n💫MCM💫Traveler Visetos 周末旅行包单品采用耐用的 Visetos 印花🌺涂层帆布和粘合衬里制成,减少了重量,是我们轻盈质感数一数二的 Visetos 周末✈️旅行包。这款经典设计选用易开合的加长⛓️拉链,还能在不使用的时候折叠存放。尺寸:长50cm高29cm底厚20cm","specs":{"source":"wsxcme","sourceId":"_dtrtrkuC1pA5gwLbicKmrmlWXkHQgfTEd8xlkDw","sourceTagId":77388356,"sourceTagName":"MCM、寇驰/女包","rawTitle":"旅行包\n💫MCM💫Traveler Visetos 周末旅行包单品采用耐用的 Visetos 印花🌺涂层帆布和粘合衬里制成,减少了重量,是我们轻盈质感数一数二的 Visetos 周末✈️旅行包。这款经典设计选用易开合的加长⛓️拉链,还能在不使用的时候折叠存放。尺寸:长50cm高29cm底厚20cm"},"price":null,"currency":"CNY","moq":1,"category":"mcm-coach-women-bags","status":"active","alibaba_url":null,"images":["https://xcimg.szwego.com/20230727/a1690433008782_2107.jpg","https://xcimg.szwego.com/20230727/a1690433008785_6314.jpg","https://xcimg.szwego.com/20230727/a1690433008786_2384.jpg","https://xcimg.szwego.com/20230727/a1690433008788_7623.jpg","https://xcimg.szwego.com/20230727/a1690433008790_6347.jpg","https://xcimg.szwego.com/20230727/a1690433008794_6382.jpg","https://xcimg.szwego.com/20230727/a1690433008796_3312.jpg","https://xcimg.szwego.com/20230727/a1690433008797_6203.jpg","https://xcimg.szwego.com/20230727/a1690433008798_5420.jpg"],"created_at":"2024-10-28T06:11:08.323Z"},{"id":"item-ef3005a6ab4c","sku":"_dKLKLKmpVf0aaV3kvqhEBXAzsau6eI9CaBpVXTA","name_en":"编码:666703,新款菜篮子[MCM]Toni Visetos购物袋新面目,超级美👗 这款小巧的购物袋具有多功能性,历久弥新。 可别被这款迷你购物袋的尺寸蒙骗了,其内部及外部都设计有宽敞的隔层,可存放您所有的小型必需品。棉质帆布衬里上印有受到街头时尚启发的印花图案,隐秘地保留了MCM勇于冒险的美学精神。搭配随附的斜挎肩带,可实现免提功能,便携性更佳。 不","name_cn":"编码:666703,新款菜篮子[MCM]Toni Visetos购物袋新面目,超级美👗 这款小巧的购物袋具有多功能性,历久弥新。 可别被这款迷你购物袋的尺寸蒙骗了,其内部及外部都设计有宽敞的隔层,可存放您所有的小型必需品。棉质帆布衬里上印有受到街头时尚启发的印花图案,隐秘地保留了MCM勇于冒险的美学精神。搭配随附的斜挎肩带,可实现免提功能,便携性更佳。 不带❤️挂件 尺寸:18.5x19x9.5cm 袋口宽度为:26cm 肩带长度可调节拆卸 拉链闭合 外侧背面开缝口袋 内部拉链口袋 内部开放式口袋 皮革饰边 Nappa leather trim 金属色调五金件 织物衬里 外部D型环扣装饰","specs":{"source":"wsxcme","sourceId":"_dKLKLKmpVf0aaV3kvqhEBXAzsau6eI9CaBpVXTA","sourceTagId":77388356,"sourceTagName":"MCM、寇驰/女包","dimensions":{"lengthCm":18.5,"heightCm":19,"widthCm":9.5},"rawTitle":"编码:666703,新款菜篮子[MCM]Toni Visetos购物袋新面目,超级美👗 这款小巧的购物袋具有多功能性,历久弥新。 可别被这款迷你购物袋的尺寸蒙骗了,其内部及外部都设计有宽敞的隔层,可存放您所有的小型必需品。棉质帆布衬里上印有受到街头时尚启发的印花图案,隐秘地保留了MCM勇于冒险的美学精神。搭配随附的斜挎肩带,可实现免提功能,便携性更佳。 不带❤️挂件 尺寸:18.5x19x9.5cm 袋口宽度为:26cm 肩带长度可调节拆卸 拉链闭合 外侧背面开缝口袋 内部拉链口袋 内部开放式口袋 皮革饰边 Nappa leather trim 金属色调五金件 织物衬里 外部D型环扣装饰"},"price":null,"currency":"CNY","moq":1,"category":"mcm-coach-women-bags","status":"active","alibaba_url":null,"images":["https://xcimg.szwego.com/20230618/a1687090042055_7788.jpg","https://xcimg.szwego.com/20230618/a1687090042137_7602.jpg","https://xcimg.szwego.com/20230618/a1687090042217_5604.jpg","https://xcimg.szwego.com/20230618/a1687090042291_1477.jpg","https://xcimg.szwego.com/20230618/a1687090042367_0456.jpg","https://xcimg.szwego.com/20230618/a1687090042459_5240.jpg","https://xcimg.szwego.com/20230618/a1687090042540_8434.jpg","https://xcimg.szwego.com/20230618/a1687090042630_0323.jpg","https://xcimg.szwego.com/20230618/a1687090042736_4080.jpg"],"created_at":"2024-10-28T06:11:08.322Z"},{"id":"item-4d94bf197267","sku":"_dj9j9OPreaY9BNejQRY-mVBapKEw8fHU6ICnojw","name_en":"MCM Aren Visetos","name_cn":"MCM Aren Visetos\nX-mini粗肩带相机斜挎包\n\n独家®️经典干邑色\n\n这款超迷你Aren斜挎包采用经典Visetos材料制成,是旅途中免提包袋的不二之选。是打造时尚造型需要的主要包袋,专为全球的移动一族设计制作,其轻盈的构造使您行动更为自如。\n\n型号:MMRAAKC02CO001\n尺寸:迷你17*5*12.5cm 小号22*5.5*15.5\n肩带:79-138cm\n颜色:干邑色/棕色","specs":{"source":"wsxcme","sourceId":"_dj9j9OPreaY9BNejQRY-mVBapKEw8fHU6ICnojw","sourceTagId":77388356,"sourceTagName":"MCM、寇驰/女包","modelNumber":"MMRAAKC02CO001","rawTitle":"MCM Aren Visetos\nX-mini粗肩带相机斜挎包\n\n独家®️经典干邑色\n\n这款超迷你Aren斜挎包采用经典Visetos材料制成,是旅途中免提包袋的不二之选。是打造时尚造型需要的主要包袋,专为全球的移动一族设计制作,其轻盈的构造使您行动更为自如。\n\n型号:MMRAAKC02CO001\n尺寸:迷你17*5*12.5cm 小号22*5.5*15.5\n肩带:79-138cm\n颜色:干邑色/棕色"},"price":null,"currency":"CNY","moq":1,"category":"mcm-coach-women-bags","status":"active","alibaba_url":null,"images":["https://xcimg.szwego.com/img/22f63296/20231018/i1697627423_9912_0.jpg","https://xcimg.szwego.com/img/22f63296/20231018/i1697627423_2685_1.jpg","https://xcimg.szwego.com/img/22f63296/20231018/i1697627423_4271_2.jpg","https://xcimg.szwego.com/img/22f63296/20231018/i1697627423_5430_3.jpg","https://xcimg.szwego.com/img/22f63296/20231018/i1697627423_6982_4.jpg","https://xcimg.szwego.com/img/22f63296/20231018/i1697627423_4326_5.jpg","https://xcimg.szwego.com/img/22f63296/20231018/i1697627423_7005_6.jpg","https://xcimg.szwego.com/img/22f63296/20231018/i1697627423_4845_7.jpg","https://xcimg.szwego.com/img/22f63296/20231018/i1697627423_9320_8.jpg"],"created_at":"2024-10-28T06:11:08.321Z"},{"id":"item-878321a3e264","sku":"_dDlDl0imcZkwl7L12HmyXfytZPKSSwWSxdhOazQ","name_en":"MCM Aren Visetos","name_cn":"MCM Aren Visetos\n小号#斜挎单肩相机包\n升级版💰\n独家®️经典干邑色\n这款Aren斜挎包包如其名,是打造时尚造型需要的主要包袋,专为全球的移动一族设计制作,其轻盈的构造使您行动更为自如,是旅途中免提包袋的不二之选。\n\n型号:MMRAAKC02CO001\n尺寸:22*5*15.5cm\n肩带:80-140cm\n颜色:干邑色/Cognac🏾","specs":{"source":"wsxcme","sourceId":"_dDlDl0imcZkwl7L12HmyXfytZPKSSwWSxdhOazQ","sourceTagId":77388356,"sourceTagName":"MCM、寇驰/女包","modelNumber":"MMRAAKC02CO001","dimensions":{"lengthCm":22,"heightCm":5,"widthCm":15.5},"rawTitle":"MCM Aren Visetos\n小号#斜挎单肩相机包\n升级版💰\n独家®️经典干邑色\n这款Aren斜挎包包如其名,是打造时尚造型需要的主要包袋,专为全球的移动一族设计制作,其轻盈的构造使您行动更为自如,是旅途中免提包袋的不二之选。\n\n型号:MMRAAKC02CO001\n尺寸:22*5*15.5cm\n肩带:80-140cm\n颜色:干邑色/Cognac🏾"},"price":null,"currency":"CNY","moq":1,"category":"mcm-coach-women-bags","status":"active","alibaba_url":null,"images":["https://xcimg.szwego.com/img/22f63296/20240126/i1706264457_7140_0.jpg","https://xcimg.szwego.com/img/22f63296/20240126/i1706264457_1922_1.jpg","https://xcimg.szwego.com/img/22f63296/20240126/i1706264457_9577_2.jpg","https://xcimg.szwego.com/img/22f63296/20240126/i1706264457_581_3.jpg","https://xcimg.szwego.com/img/22f63296/20240126/i1706264457_8293_4.jpg","https://xcimg.szwego.com/img/22f63296/20240126/i1706264457_7025_5.jpg","https://xcimg.szwego.com/img/22f63296/20240126/i1706264457_8022_6.jpg","https://xcimg.szwego.com/img/22f63296/20240126/i1706264457_6798_7.jpg","https://xcimg.szwego.com/img/22f63296/20240126/i1706264457_2264_8.jpg"],"created_at":"2024-10-28T06:11:08.320Z"},{"id":"item-6daed26b0af9","sku":"_dFVFV1jDC6nuPG9N76wUr5Tq1tLyh97KeI9nuGg","name_en":"MCM and Coach Women Bags","name_cn":"中号链条包\n,🔗Millie Visetos斜挎包,MCM的悠久历史通过Millie系列的每一个特点展现出来😇 采用轻盈的Visetos材料制成,并饰以Nappa皮革饰边,是一款经典的现代风随身包袋,搭配可拆卸斜挎肩带及月桂叶锁扣,将动感十足的便携性与经典优雅气质集于一身。 小号约:18.5x11.5x4cm 中号约:23.5x13.5x5cm 饰有链环及皮革装饰的可拆卸斜挎肩带 ,月桂叶锁扣闭合,背面外侧开缝口袋, 内部开放式口袋及拉链口袋,内部卡槽 ,皮革饰边,金属色调五金件, 织物衬里","specs":{"source":"wsxcme","sourceId":"_dFVFV1jDC6nuPG9N76wUr5Tq1tLyh97KeI9nuGg","sourceTagId":77388356,"sourceTagName":"MCM、寇驰/女包","rawTitle":"中号链条包\n,🔗Millie Visetos斜挎包,MCM的悠久历史通过Millie系列的每一个特点展现出来😇 采用轻盈的Visetos材料制成,并饰以Nappa皮革饰边,是一款经典的现代风随身包袋,搭配可拆卸斜挎肩带及月桂叶锁扣,将动感十足的便携性与经典优雅气质集于一身。 小号约:18.5x11.5x4cm 中号约:23.5x13.5x5cm 饰有链环及皮革装饰的可拆卸斜挎肩带 ,月桂叶锁扣闭合,背面外侧开缝口袋, 内部开放式口袋及拉链口袋,内部卡槽 ,皮革饰边,金属色调五金件, 织物衬里"},"price":null,"currency":"CNY","moq":1,"category":"mcm-coach-women-bags","status":"active","alibaba_url":null,"images":["https://xcimg.szwego.com/20230618/a1687081563393_4710.jpg","https://xcimg.szwego.com/20230618/a1687081563504_1665.jpg","https://xcimg.szwego.com/20230618/a1687081563597_2306.jpg","https://xcimg.szwego.com/20230618/a1687081563742_5517.jpg","https://xcimg.szwego.com/20230618/a1687081563832_5125.jpg","https://xcimg.szwego.com/20230618/a1687081563925_2887.jpg","https://xcimg.szwego.com/20230618/a1687081564016_5003.jpg","https://xcimg.szwego.com/20230618/a1687081564139_7463.jpg","https://xcimg.szwego.com/20230618/a1687081564230_5208.jpg"],"created_at":"2024-10-28T06:11:08.319Z"},{"id":"item-ea0e12fcbd8b","sku":"_dpBpBr7N1exTX3fDZk8yyJxGdc1VFCNT8VmIVsg","name_en":"编码:666246🎈🎈MCM顶级小号Patricia单肩包,经典外形与现代设计融为一体,包身坚固耐用,空间宽阔,内部有风琴式隔层,侧边拉链口袋,翻盖月桂叶锁扣设计增添精致,搭配可拆卸调节斜挎肩带 尺寸:(cm)21x17x8","name_cn":"编码:666246🎈🎈MCM顶级小号Patricia单肩包,经典外形与现代设计融为一体,包身坚固耐用,空间宽阔,内部有风琴式隔层,侧边拉链口袋,翻盖月桂叶锁扣设计增添精致,搭配可拆卸调节斜挎肩带 尺寸:(cm)21x17x8","specs":{"source":"wsxcme","sourceId":"_dpBpBr7N1exTX3fDZk8yyJxGdc1VFCNT8VmIVsg","sourceTagId":77388356,"sourceTagName":"MCM、寇驰/女包","rawTitle":"编码:666246🎈🎈MCM顶级小号Patricia单肩包,经典外形与现代设计融为一体,包身坚固耐用,空间宽阔,内部有风琴式隔层,侧边拉链口袋,翻盖月桂叶锁扣设计增添精致,搭配可拆卸调节斜挎肩带 尺寸:(cm)21x17x8"},"price":null,"currency":"CNY","moq":1,"category":"mcm-coach-women-bags","status":"active","alibaba_url":null,"images":["https://xcimg.szwego.com/img/3bfc614b/20231222/a1703224263672_6052.jpg","https://xcimg.szwego.com/img/3bfc614b/20231222/a1703224263643_1221.jpg","https://xcimg.szwego.com/img/3bfc614b/20231222/a1703224263638_6335.jpg","https://xcimg.szwego.com/img/3bfc614b/20231222/a1703224263630_3013.jpg","https://xcimg.szwego.com/img/3bfc614b/20231222/a1703224263643_6420.jpg","https://xcimg.szwego.com/img/3bfc614b/20231222/a1703224263644_4428.jpg","https://xcimg.szwego.com/img/3bfc614b/20231222/a1703224264447_6016.jpg","https://xcimg.szwego.com/img/3bfc614b/20231222/a1703224264448_1080.jpg","https://xcimg.szwego.com/img/3bfc614b/20231222/a1703224264447_0733.jpg"],"created_at":"2024-10-28T06:11:08.318Z"},{"id":"item-9515b504128c","sku":"_drIrIf-tqTpBuCwiAxwkkM3y4tEm8LXUW0Q7AdQ","name_en":"MCM and Coach Women Bags","name_cn":"新款牛角包\n🇩🇪MCM🇩🇪原单货 2024新款牛角包AREN VISETOS HOBO肩背包\n这款Visetos Hobo包采用可调节🐂皮革肩带设计,并饰有带挂锁🔒的皮革吊牌单品对经典的休闲款式进行了现代风的全新演绎,在柔软与挺阔之间取得了理想的平衡。这款小号Aren Hobo肩背包采用了传统🇩🇪MCM🇩🇪行李箱的设计元素,包括一个可拆卸皮革吊牌及雕花Logo挂锁,达到锦上添花的效果\n材质:pvc配牛皮\n颜色:白色\n尺寸:26x19x9.5cm","specs":{"source":"wsxcme","sourceId":"_drIrIf-tqTpBuCwiAxwkkM3y4tEm8LXUW0Q7AdQ","sourceTagId":77388356,"sourceTagName":"MCM、寇驰/女包","dimensions":{"lengthCm":26,"heightCm":19,"widthCm":9.5},"rawTitle":"新款牛角包\n🇩🇪MCM🇩🇪原单货 2024新款牛角包AREN VISETOS HOBO肩背包\n这款Visetos Hobo包采用可调节🐂皮革肩带设计,并饰有带挂锁🔒的皮革吊牌单品对经典的休闲款式进行了现代风的全新演绎,在柔软与挺阔之间取得了理想的平衡。这款小号Aren Hobo肩背包采用了传统🇩🇪MCM🇩🇪行李箱的设计元素,包括一个可拆卸皮革吊牌及雕花Logo挂锁,达到锦上添花的效果\n材质:pvc配牛皮\n颜色:白色\n尺寸:26x19x9.5cm"},"price":null,"currency":"CNY","moq":1,"category":"mcm-coach-women-bags","status":"active","alibaba_url":null,"images":["https://xcimg.szwego.com/img/3bfc614b/20240408/a1712566591440_4682.jpg"],"created_at":"2024-10-28T06:11:08.317Z"},{"id":"item-528e5da0d39f","sku":"_dt8t8wrk_R9Dk1A-9Ph8ZLBO1PD4YjTQfEiL-BA","name_en":"MCM and Coach Women Bags","name_cn":"编码:661038\n💏[MCM]新款 原单品质 Fursten腰包\nFursten腰包采用我们的标志性Visetos印花涂层帆布制成,并以金字塔🏯勾勒出轮廓,融合时尚和功能🎼。将它系在腰间或斜挎在肩上,营造出现代街头风情。\n❤️尺寸:36*20*12","specs":{"source":"wsxcme","sourceId":"_dt8t8wrk_R9Dk1A-9Ph8ZLBO1PD4YjTQfEiL-BA","sourceTagId":77388356,"sourceTagName":"MCM、寇驰/女包","rawTitle":"编码:661038\n💏[MCM]新款 原单品质 Fursten腰包\nFursten腰包采用我们的标志性Visetos印花涂层帆布制成,并以金字塔🏯勾勒出轮廓,融合时尚和功能🎼。将它系在腰间或斜挎在肩上,营造出现代街头风情。\n❤️尺寸:36*20*12"},"price":null,"currency":"CNY","moq":1,"category":"mcm-coach-women-bags","status":"active","alibaba_url":null,"images":["https://xcimg.szwego.com/img/3bfc614b/20231120/a1700470009794_7176.jpg","https://xcimg.szwego.com/img/3bfc614b/20231120/a1700470009820_1034.jpg","https://xcimg.szwego.com/img/3bfc614b/20231120/a1700470009791_1038.jpg","https://xcimg.szwego.com/img/3bfc614b/20231120/a1700470009840_7175.jpg","https://xcimg.szwego.com/img/3bfc614b/20231120/a1700470009827_3507.jpg","https://xcimg.szwego.com/img/3bfc614b/20231120/a1700470009688_2732.jpg","https://xcimg.szwego.com/img/3bfc614b/20231120/a1700470011550_4024.jpg","https://xcimg.szwego.com/img/3bfc614b/20231120/a1700470011626_2463.jpg","https://xcimg.szwego.com/img/3bfc614b/20231120/a1700470011641_1726.jpg"],"created_at":"2024-10-28T06:11:08.316Z"},{"id":"item-e9f207d8bdb4","sku":"_dcecenYr_yCHSOFJ2JtkF7zoOa95zj3NGjwRQxQ","name_en":"MCM and Coach Women Bags","name_cn":"编码:661038\n💏[MCM]新款 原单品质 Fursten腰包\nFursten腰包采用我们的标志性Visetos印花涂层帆布制成,并以金字塔🏯勾勒出轮廓,融合时尚和功能🎼。将它系在腰间或斜挎在肩上,营造出现代街头风情。\n❤️尺寸:36*20*12","specs":{"source":"wsxcme","sourceId":"_dcecenYr_yCHSOFJ2JtkF7zoOa95zj3NGjwRQxQ","sourceTagId":77388356,"sourceTagName":"MCM、寇驰/女包","rawTitle":"编码:661038\n💏[MCM]新款 原单品质 Fursten腰包\nFursten腰包采用我们的标志性Visetos印花涂层帆布制成,并以金字塔🏯勾勒出轮廓,融合时尚和功能🎼。将它系在腰间或斜挎在肩上,营造出现代街头风情。\n❤️尺寸:36*20*12"},"price":null,"currency":"CNY","moq":1,"category":"mcm-coach-women-bags","status":"active","alibaba_url":null,"images":["https://xcimg.szwego.com/img/3bfc614b/20231120/a1700469946077_7772.jpg","https://xcimg.szwego.com/img/3bfc614b/20231120/a1700469946085_8318.jpg","https://xcimg.szwego.com/img/3bfc614b/20231120/a1700469946183_0761.jpg","https://xcimg.szwego.com/img/3bfc614b/20231120/a1700469946163_6025.jpg","https://xcimg.szwego.com/img/3bfc614b/20231120/a1700469946085_5704.jpg","https://xcimg.szwego.com/img/3bfc614b/20231120/a1700469945971_4647.jpg","https://xcimg.szwego.com/img/3bfc614b/20231120/a1700469951667_8246.jpg","https://xcimg.szwego.com/img/3bfc614b/20231120/a1700469951541_6387.jpg","https://xcimg.szwego.com/img/3bfc614b/20231120/a1700469951674_3276.jpg"],"created_at":"2024-10-28T06:11:08.315Z"},{"id":"item-57688636ff6f","sku":"_d9595_3mLBmq7O5uiMx9gTV34EweBA93IQ3CmFQ","name_en":"编码:666226.中号,🔗Millie Visetos斜挎包,MCM的悠久历史通过Millie系列的每一个特点展现出来😇 采用轻盈的Visetos材料制成,并饰以Nappa皮革饰边,是一款经典的现代风随身包袋,搭配可拆卸斜挎肩带及月桂叶锁扣,将动感十足的便携性与经典优雅气质集于一身。 小号约:18.5x11.5x4cm 中号约:23.5x13.5x5c","name_cn":"编码:666226.中号,🔗Millie Visetos斜挎包,MCM的悠久历史通过Millie系列的每一个特点展现出来😇 采用轻盈的Visetos材料制成,并饰以Nappa皮革饰边,是一款经典的现代风随身包袋,搭配可拆卸斜挎肩带及月桂叶锁扣,将动感十足的便携性与经典优雅气质集于一身。 小号约:18.5x11.5x4cm 中号约:23.5x13.5x5cm 饰有链环及皮革装饰的可拆卸斜挎肩带 ,月桂叶锁扣闭合,背面外侧开缝口袋, 内部开放式口袋及拉链口袋,内部卡槽 ,皮革饰边,金属色调五金件, 织物衬里","specs":{"source":"wsxcme","sourceId":"_d9595_3mLBmq7O5uiMx9gTV34EweBA93IQ3CmFQ","sourceTagId":77388356,"sourceTagName":"MCM、寇驰/女包","rawTitle":"编码:666226.中号,🔗Millie Visetos斜挎包,MCM的悠久历史通过Millie系列的每一个特点展现出来😇 采用轻盈的Visetos材料制成,并饰以Nappa皮革饰边,是一款经典的现代风随身包袋,搭配可拆卸斜挎肩带及月桂叶锁扣,将动感十足的便携性与经典优雅气质集于一身。 小号约:18.5x11.5x4cm 中号约:23.5x13.5x5cm 饰有链环及皮革装饰的可拆卸斜挎肩带 ,月桂叶锁扣闭合,背面外侧开缝口袋, 内部开放式口袋及拉链口袋,内部卡槽 ,皮革饰边,金属色调五金件, 织物衬里"},"price":null,"currency":"CNY","moq":1,"category":"mcm-coach-women-bags","status":"active","alibaba_url":null,"images":["https://xcimg.szwego.com/img/3bfc614b/20231112/a1699798512405_7506.jpg","https://xcimg.szwego.com/img/3bfc614b/20231112/a1699798512407_1068.jpg","https://xcimg.szwego.com/img/3bfc614b/20231112/a1699798512409_0574.jpg","https://xcimg.szwego.com/img/3bfc614b/20231112/a1699798512468_2721.jpg","https://xcimg.szwego.com/img/3bfc614b/20231112/a1699798512471_5344.jpg","https://xcimg.szwego.com/img/3bfc614b/20231112/a1699798512473_4327.jpg","https://xcimg.szwego.com/img/3bfc614b/20231112/a1699798512475_6317.jpg","https://xcimg.szwego.com/img/3bfc614b/20231112/a1699798512476_5251.jpg","https://xcimg.szwego.com/img/3bfc614b/20231112/a1699798512478_7187.jpg"],"created_at":"2024-10-28T06:11:08.314Z"},{"id":"item-b8f5312ce61f","sku":"_dDGDGlvyO3zypMXBqKAROThUMbdBjof2LKOwcyQ","name_en":"编码:666226.中号,🔗Millie Visetos斜挎包,MCM的悠久历史通过Millie系列的每一个特点展现出来😇 采用轻盈的Visetos材料制成,并饰以Nappa皮革饰边,是一款经典的现代风随身包袋,搭配可拆卸斜挎肩带及月桂叶锁扣,将动感十足的便携性与经典优雅气质集于一身。 小号约:18.5x11.5x4cm 中号约:23.5x13.5x5c","name_cn":"编码:666226.中号,🔗Millie Visetos斜挎包,MCM的悠久历史通过Millie系列的每一个特点展现出来😇 采用轻盈的Visetos材料制成,并饰以Nappa皮革饰边,是一款经典的现代风随身包袋,搭配可拆卸斜挎肩带及月桂叶锁扣,将动感十足的便携性与经典优雅气质集于一身。 小号约:18.5x11.5x4cm 中号约:23.5x13.5x5cm 饰有链环及皮革装饰的可拆卸斜挎肩带 ,月桂叶锁扣闭合,背面外侧开缝口袋, 内部开放式口袋及拉链口袋,内部卡槽 ,皮革饰边,金属色调五金件, 织物衬里","specs":{"source":"wsxcme","sourceId":"_dDGDGlvyO3zypMXBqKAROThUMbdBjof2LKOwcyQ","sourceTagId":77388356,"sourceTagName":"MCM、寇驰/女包","rawTitle":"编码:666226.中号,🔗Millie Visetos斜挎包,MCM的悠久历史通过Millie系列的每一个特点展现出来😇 采用轻盈的Visetos材料制成,并饰以Nappa皮革饰边,是一款经典的现代风随身包袋,搭配可拆卸斜挎肩带及月桂叶锁扣,将动感十足的便携性与经典优雅气质集于一身。 小号约:18.5x11.5x4cm 中号约:23.5x13.5x5cm 饰有链环及皮革装饰的可拆卸斜挎肩带 ,月桂叶锁扣闭合,背面外侧开缝口袋, 内部开放式口袋及拉链口袋,内部卡槽 ,皮革饰边,金属色调五金件, 织物衬里"},"price":null,"currency":"CNY","moq":1,"category":"mcm-coach-women-bags","status":"active","alibaba_url":null,"images":["https://xcimg.szwego.com/img/3bfc614b/20231112/a1699798460286_7106.jpg","https://xcimg.szwego.com/img/3bfc614b/20231112/a1699798460289_2806.jpg","https://xcimg.szwego.com/img/3bfc614b/20231112/a1699798460292_6538.jpg","https://xcimg.szwego.com/img/3bfc614b/20231112/a1699798460360_3084.jpg","https://xcimg.szwego.com/img/3bfc614b/20231112/a1699798460361_5688.jpg","https://xcimg.szwego.com/img/3bfc614b/20231112/a1699798460362_8413.jpg","https://xcimg.szwego.com/img/3bfc614b/20231112/a1699798460363_8305.jpg","https://xcimg.szwego.com/img/3bfc614b/20231112/a1699798460364_8864.jpg","https://xcimg.szwego.com/img/3bfc614b/20231112/a1699798460365_5182.jpg"],"created_at":"2024-10-28T06:11:08.313Z"},{"id":"item-061b6ed22287","sku":"_dp-p-FBbLZqykzfaehlnV4bPVtSEZrmmPkZCLug","name_en":"款号666218- 夏季新款 🌷MCM🌷原单货。乔欣 吴宣仪同款Patricia Visetos迷你斜挎马鞍包 这款Patricia肩背包是🌷MCM🌷的经典之作,以经典Patty风格为基础,结合了包豪斯灵感设计及工艺,展现了🌷MCM🌷制作奢华制品的优良传承。包袋正面饰以闪亮的月桂叶锁扣,是打造魅力造型的理想之选。尺寸7 x 18 x 18","name_cn":"款号666218- 夏季新款 🌷MCM🌷原单货。乔欣 吴宣仪同款Patricia Visetos迷你斜挎马鞍包 这款Patricia肩背包是🌷MCM🌷的经典之作,以经典Patty风格为基础,结合了包豪斯灵感设计及工艺,展现了🌷MCM🌷制作奢华制品的优良传承。包袋正面饰以闪亮的月桂叶锁扣,是打造魅力造型的理想之选。尺寸7 x 18 x 18","specs":{"source":"wsxcme","sourceId":"_dp-p-FBbLZqykzfaehlnV4bPVtSEZrmmPkZCLug","sourceTagId":77388356,"sourceTagName":"MCM、寇驰/女包","modelNumber":"666218- 夏季新款 🌷MCM🌷原单货","rawTitle":"款号666218- 夏季新款 🌷MCM🌷原单货。乔欣 吴宣仪同款Patricia Visetos迷你斜挎马鞍包 这款Patricia肩背包是🌷MCM🌷的经典之作,以经典Patty风格为基础,结合了包豪斯灵感设计及工艺,展现了🌷MCM🌷制作奢华制品的优良传承。包袋正面饰以闪亮的月桂叶锁扣,是打造魅力造型的理想之选。尺寸7 x 18 x 18"},"price":null,"currency":"CNY","moq":1,"category":"mcm-coach-women-bags","status":"active","alibaba_url":null,"images":["https://xcimg.szwego.com/img/3bfc614b/20231222/a1703224325279_1240.jpg","https://xcimg.szwego.com/img/3bfc614b/20231222/a1703224325275_8083.jpg","https://xcimg.szwego.com/img/3bfc614b/20231222/a1703224325276_1717.jpg","https://xcimg.szwego.com/img/3bfc614b/20231222/a1703224325274_7580.jpg","https://xcimg.szwego.com/img/3bfc614b/20231222/a1703224325273_6602.jpg","https://xcimg.szwego.com/img/3bfc614b/20231222/a1703224325277_1010.jpg","https://xcimg.szwego.com/img/3bfc614b/20231222/a1703224325986_6587.jpg","https://xcimg.szwego.com/img/3bfc614b/20231222/a1703224325988_5862.jpg","https://xcimg.szwego.com/img/3bfc614b/20231222/a1703224326057_8845.jpg"],"created_at":"2024-10-28T06:11:08.312Z"},{"id":"item-46358fc61a7c","sku":"_dnvnvkCKu0fp1K948xZQ_YwcyHdhokQkomMDiHQ","name_en":"款号:666262🇰🇷MCM🇰🇷夏季新款,赵丽颖同款相机包📷,经典印花,可放下PLUS和MAX大小的手机。肩带可以调节,可以单肩斜挎,也可以作为腰包使用 尺寸:17x12x7cm","name_cn":"款号:666262🇰🇷MCM🇰🇷夏季新款,赵丽颖同款相机包📷,经典印花,可放下PLUS和MAX大小的手机。肩带可以调节,可以单肩斜挎,也可以作为腰包使用 尺寸:17x12x7cm","specs":{"source":"wsxcme","sourceId":"_dnvnvkCKu0fp1K948xZQ_YwcyHdhokQkomMDiHQ","sourceTagId":77388356,"sourceTagName":"MCM、寇驰/女包","modelNumber":"666262🇰🇷MCM🇰🇷夏季新款","dimensions":{"lengthCm":17,"heightCm":12,"widthCm":7},"rawTitle":"款号:666262🇰🇷MCM🇰🇷夏季新款,赵丽颖同款相机包📷,经典印花,可放下PLUS和MAX大小的手机。肩带可以调节,可以单肩斜挎,也可以作为腰包使用 尺寸:17x12x7cm"},"price":null,"currency":"CNY","moq":1,"category":"mcm-coach-women-bags","status":"active","alibaba_url":null,"images":["https://xcimg.szwego.com/img/3bfc614b/20230912/a1694496815710_1020.jpg","https://xcimg.szwego.com/img/3bfc614b/20230912/a1694496815712_7682.jpg","https://xcimg.szwego.com/img/3bfc614b/20230912/a1694496815720_2318.jpg","https://xcimg.szwego.com/img/3bfc614b/20230912/a1694496815721_3802.jpg","https://xcimg.szwego.com/img/3bfc614b/20230912/a1694496815724_4206.jpg","https://xcimg.szwego.com/img/3bfc614b/20230912/a1694496815726_4076.jpg","https://xcimg.szwego.com/img/3bfc614b/20230912/a1694496815728_1267.jpg","https://xcimg.szwego.com/img/3bfc614b/20230912/a1694496815730_3664.jpg","https://xcimg.szwego.com/img/3bfc614b/20230912/a1694496815734_1312.jpg"],"created_at":"2024-10-28T06:11:08.311Z"}],"page":11,"pageSize":24,"total":254,"totalPages":11}
