{"items":[{"id":"item-02c80a9577ad","sku":"_dqGqGBh9S9TOOv6K4y8crG20KRJoIbJBu8RRzYg","name_en":"ꫛꫀꪝ","name_cn":"ꫛꫀꪝ\nNew puzzle version is here\nFresh mini adjustable shoulder strap, summer limited edition patchwork design\nLooks younger with visual depth\nPuzzle's capacity is always praised\nIt's not an exaggeration to say it holds the whole world, it's super practical! A stylish must-have for summer~\nSize:18*8*12cm","specs":{"source":"wsxcme","sourceId":"_dqGqGBh9S9TOOv6K4y8crG20KRJoIbJBu8RRzYg","sourceTagId":47002713,"sourceTagName":"/women's bag","rawTitle":"ꫛꫀꪝ\nNew puzzle version is here\nFresh mini adjustable shoulder strap, summer limited edition patchwork design\nLooks younger with visual depth\nPuzzle's capacity is always praised\nIt's not an exaggeration to say it holds the whole world, it's super practical! A stylish must-have for summer~\nSize:18*8*12cm"},"price":null,"currency":"CNY","moq":1,"category":"loewe-women-bags","status":"active","alibaba_url":null,"images":["https://xcimg.szwego.com/20230712/i1689150864_2740_0.jpg","https://xcimg.szwego.com/20230712/i1689150864_6473_1.jpg","https://xcimg.szwego.com/20230712/i1689150864_8863_2.jpg","https://xcimg.szwego.com/20230712/i1689150864_227_3.jpg","https://xcimg.szwego.com/20230712/i1689150864_2752_4.jpg","https://xcimg.szwego.com/20230712/i1689150864_4526_7.jpg","https://xcimg.szwego.com/20230712/i1689150864_4021_5.jpg","https://xcimg.szwego.com/20230712/i1689150864_7451_6.jpg","https://xcimg.szwego.com/20230712/i1689150873_9293_0.jpg"],"created_at":"2024-10-24T12:53:14.231Z"},{"id":"item-e6d713d3a54c","sku":"_dnini5AEOLN34ZCAuUfb-OEGVW_BAIuEdkc_scA","name_en":"ꫛꫀꪝ👄 Latest version puzzle, sand color in stock🎉 Celebrity style. Selected imported embossed cowhide, new version with sand color splicing all over the body. Very light weight, very spacious, practical and versatile. A must-have for travel, super versatile color~ Small Size 24*16*10cm","name_cn":"ꫛꫀꪝ👄 Latest version puzzle, sand color in stock🎉 Celebrity style. Selected imported embossed cowhide, new version with sand color splicing all over the body. Very light weight, very spacious, practical and versatile. A must-have for travel, super versatile color~ Small Size 24*16*10cm","specs":{"source":"wsxcme","sourceId":"_dnini5AEOLN34ZCAuUfb-OEGVW_BAIuEdkc_scA","sourceTagId":47002713,"sourceTagName":"/women's bag","rawTitle":"ꫛꫀꪝ👄 Latest version puzzle, sand color in stock🎉 Celebrity style. Selected imported embossed cowhide, new version with sand color splicing all over the body. Very light weight, very spacious, practical and versatile. A must-have for travel, super versatile color~ Small Size 24*16*10cm"},"price":null,"currency":"CNY","moq":1,"category":"loewe-women-bags","status":"active","alibaba_url":null,"images":["https://xcimg.szwego.com/20211116/i1637048676_5426_0.jpg","https://xcimg.szwego.com/20211116/i1637048676_5141_1.jpg","https://xcimg.szwego.com/20211116/i1637048676_1969_2.jpg","https://xcimg.szwego.com/20211116/i1637048676_4114_3.jpg","https://xcimg.szwego.com/20211116/i1637048676_5843_4.jpg","https://xcimg.szwego.com/20211116/i1637048676_6874_5.jpg","https://xcimg.szwego.com/20211116/i1637048676_1477_6.jpg","https://xcimg.szwego.com/20211116/i1637048676_3635_7.jpg","https://xcimg.szwego.com/20211116/i1637048676_4972_8.jpg"],"created_at":"2024-10-24T12:53:14.227Z"}],"page":25,"pageSize":24,"total":578,"totalPages":25}
