{"items":[{"id":"item-dc757675984e","sku":"_dxJxJf1DH12_Np2Pz7zEzGKT5Y95hYQhZYi9lDw","name_en":"Saint Laurent Women Bags","name_cn":"官网图","specs":{"source":"wsxcme","sourceId":"_dxJxJf1DH12_Np2Pz7zEzGKT5Y95hYQhZYi9lDw","sourceTagId":47002761,"sourceTagName":"圣罗兰/女包","rawTitle":"官网图"},"price":null,"currency":"CNY","moq":1,"category":"ysl-women-bags","status":"active","alibaba_url":null,"images":["https://xcimg.szwego.com/imgHD/f8c0bdc9/20260622/cmp_i1782124271505_1367_0_0.jpg","https://xcimg.szwego.com/imgHD/f8c0bdc9/20260622/cmp_i1782124271218_5712_0_1.jpg","https://xcimg.szwego.com/imgHD/f8c0bdc9/20260622/cmp_i1782124271218_5287_0_2.jpg","https://xcimg.szwego.com/imgHD/f8c0bdc9/20260622/cmp_i1782124271220_535_0_3.jpg","https://xcimg.szwego.com/imgHD/f8c0bdc9/20260622/cmp_i1782124271504_8487_0_4.jpg","https://xcimg.szwego.com/imgHD/f8c0bdc9/20260622/cmp_i1782124271218_1902_0_5.jpg","https://xcimg.szwego.com/imgHD/f8c0bdc9/20260622/cmp_i1782124271219_3117_0_6.jpg"],"created_at":"2026-06-29T10:48:59.429Z"},{"id":"item-dc5aa6c56f3f","sku":"_dililoBdoj11t31-CRWWarEGGXexp221QeEjMiA","name_en":"Saint Laurent Women Bags","name_cn":"白色\nEnvelope_鱼子酱纹路信封包.超级实用的一款小包,最经典的款式,意大利进口牛皮配上精细手工制作;定制金属Y家logo彰显个性;翻盖设计确保使用的安全性;小包包大容量,包内设有20个卡片槽,两个纸币隔层,两个中央隔层,一个拉链内袋,装尽所有!\n型号:620280\n尺寸:22.5x14x4cm","specs":{"source":"wsxcme","sourceId":"_dililoBdoj11t31-CRWWarEGGXexp221QeEjMiA","sourceTagId":47002761,"sourceTagName":"圣罗兰/女包","modelNumber":"620280","dimensions":{"lengthCm":22.5,"heightCm":14,"widthCm":4},"rawTitle":"白色\nEnvelope_鱼子酱纹路信封包.超级实用的一款小包,最经典的款式,意大利进口牛皮配上精细手工制作;定制金属Y家logo彰显个性;翻盖设计确保使用的安全性;小包包大容量,包内设有20个卡片槽,两个纸币隔层,两个中央隔层,一个拉链内袋,装尽所有!\n型号:620280\n尺寸:22.5x14x4cm"},"price":null,"currency":"CNY","moq":1,"category":"ysl-women-bags","status":"active","alibaba_url":null,"images":["https://xcimg.szwego.com/imgHD/f8c0bdc9/20250822/cmp_i1755849505903_1810_0_0.jpg","https://xcimg.szwego.com/imgHD/f8c0bdc9/20250822/cmp_i1755849505899_1595_0_1.jpg","https://xcimg.szwego.com/imgHD/f8c0bdc9/20250822/cmp_i1755849505126_1716_0_2.jpg","https://xcimg.szwego.com/imgHD/f8c0bdc9/20250822/cmp_i1755849505126_4984_0_3.jpg","https://xcimg.szwego.com/imgHD/f8c0bdc9/20250822/cmp_i1755849505126_3302_0_4.jpg","https://xcimg.szwego.com/imgHD/f8c0bdc9/20250822/cmp_i1755849505898_9637_0_5.jpg","https://xcimg.szwego.com/imgHD/f8c0bdc9/20250822/cmp_i1755849505126_9669_0_6.jpg","https://xcimg.szwego.com/imgHD/f8c0bdc9/20250822/cmp_i1755849505126_4659_0_7.jpg","https://xcimg.szwego.com/imgHD/f8c0bdc9/20250822/cmp_i1755849505897_2156_0_8.jpg"],"created_at":"2026-06-29T10:48:58.999Z"},{"id":"item-dc42a66b8543","sku":"_dkUkUjOZiWU15HuaQ-LwxjyTe_jQYHh9gmkQJKg","name_en":"Saint Laurent Women Bags","name_cn":"白色羊皮绣格子·\nCASSANDRE _链条包 超级实用的一款小包,意大利进口原厂小羊皮,里外全皮。搭配方形格缝精细手工制作,经典金属logo彰显个性,翻盖设计确保使用的安全性。肩带可拆卸,包包内设有十个卡片槽,一个纸币隔层,两个隔层,一个拉链内袋,装进所有!\n型号:743364\n尺寸:23x14x3cm \n肩带长度:47cm","specs":{"source":"wsxcme","sourceId":"_dkUkUjOZiWU15HuaQ-LwxjyTe_jQYHh9gmkQJKg","sourceTagId":47002761,"sourceTagName":"圣罗兰/女包","modelNumber":"743364","dimensions":{"lengthCm":23,"heightCm":14,"widthCm":3},"rawTitle":"白色羊皮绣格子·\nCASSANDRE _链条包 超级实用的一款小包,意大利进口原厂小羊皮,里外全皮。搭配方形格缝精细手工制作,经典金属logo彰显个性,翻盖设计确保使用的安全性。肩带可拆卸,包包内设有十个卡片槽,一个纸币隔层,两个隔层,一个拉链内袋,装进所有!\n型号:743364\n尺寸:23x14x3cm \n肩带长度:47cm"},"price":null,"currency":"CNY","moq":1,"category":"ysl-women-bags","status":"active","alibaba_url":null,"images":["https://xcimg.szwego.com/img/f8c0bdc9/20250107/i1736242206811_9606_0_0.jpg","https://xcimg.szwego.com/img/f8c0bdc9/20250107/i1736242206881_1038_0_1.jpg","https://xcimg.szwego.com/img/f8c0bdc9/20250107/i1736242207169_1744_0_2.jpg","https://xcimg.szwego.com/img/f8c0bdc9/20250107/i1736242207302_623_0_3.jpg","https://xcimg.szwego.com/img/f8c0bdc9/20250107/i1736242206741_6533_0_4.jpg","https://xcimg.szwego.com/img/f8c0bdc9/20250107/i1736242207023_9809_0_5.jpg","https://xcimg.szwego.com/img/f8c0bdc9/20250107/i1736242207236_8025_0_6.jpg","https://xcimg.szwego.com/img/f8c0bdc9/20250107/i1736242206951_7243_0_7.jpg","https://xcimg.szwego.com/img/f8c0bdc9/20250107/i1736242207095_1809_0_8.jpg"],"created_at":"2026-06-29T10:48:59.109Z"},{"id":"item-dba23acd2128","sku":"_dxFxFbn0fGxloosPrpnzQ4GJ3dGbZuLy8uUmS9g","name_en":"Saint Laurent Women Bags","name_cn":"白羊皮/金\n🌈最新爆款Mini羊皮革肩带手拿包化妆包到货!环绕式拉链手拿包,饰以LE CASSANDRE和菱形绗缝包缝、羊皮内衬、古铜色配件拉链开合一个卡片槽位、此款多功能单品配有皮革顶部提手和可调节可拆卸肩带、可肩背或斜挎!\n\n型号:766731【原厂皮】\n尺寸:18×11×6.5cm","specs":{"source":"wsxcme","sourceId":"_dxFxFbn0fGxloosPrpnzQ4GJ3dGbZuLy8uUmS9g","sourceTagId":47002761,"sourceTagName":"圣罗兰/女包","modelNumber":"766731【原厂皮】","dimensions":{"lengthCm":18,"heightCm":11,"widthCm":6.5},"rawTitle":"白羊皮/金\n🌈最新爆款Mini羊皮革肩带手拿包化妆包到货!环绕式拉链手拿包,饰以LE CASSANDRE和菱形绗缝包缝、羊皮内衬、古铜色配件拉链开合一个卡片槽位、此款多功能单品配有皮革顶部提手和可调节可拆卸肩带、可肩背或斜挎!\n\n型号:766731【原厂皮】\n尺寸:18×11×6.5cm"},"price":null,"currency":"CNY","moq":1,"category":"ysl-women-bags","status":"active","alibaba_url":null,"images":["https://xcimg.szwego.com/img/fce24e4d/20240614/i1718353575_7557_3.jpg","https://xcimg.szwego.com/img/fce24e4d/20240614/i1718353575_6114_0.jpg","https://xcimg.szwego.com/img/fce24e4d/20240614/i1718353575_1701_7.jpg","https://xcimg.szwego.com/img/fce24e4d/20240614/i1718353575_4799_1.jpg","https://xcimg.szwego.com/img/fce24e4d/20240614/i1718353575_7800_2.jpg","https://xcimg.szwego.com/img/fce24e4d/20240614/i1718353575_3345_5.jpg","https://xcimg.szwego.com/img/fce24e4d/20240614/i1718353575_4753_6.jpg","https://xcimg.szwego.com/img/fce24e4d/20240614/i1718353575_3595_4.jpg","https://xcimg.szwego.com/img/fce24e4d/20240614/i1718353575_2753_8.jpg"],"created_at":"2024-12-08T05:54:05.950Z"},{"id":"item-dab44fe1529c","sku":"_dPMPMGFuoocj7AdiBWRzTkQKNCPj83hlMt7Vvjw","name_en":"Saint Laurent Women Bags","name_cn":"软糯且有肌理感的羊皮材质 松弛慵懒感拉满","specs":{"source":"wsxcme","sourceId":"_dPMPMGFuoocj7AdiBWRzTkQKNCPj83hlMt7Vvjw","sourceTagId":47002761,"sourceTagName":"圣罗兰/女包","rawTitle":"软糯且有肌理感的羊皮材质 松弛慵懒感拉满"},"price":null,"currency":"CNY","moq":1,"category":"ysl-women-bags","status":"active","alibaba_url":null,"images":["https://xcimg.szwego.com/img/f8c0bdc9/20240515/i1715779039_6548_4.jpg","https://xcimg.szwego.com/img/f8c0bdc9/20240515/i1715779039_1031_3.jpg","https://xcimg.szwego.com/img/f8c0bdc9/20240515/i1715779039_6512_1.jpg","https://xcimg.szwego.com/img/f8c0bdc9/20240515/i1715779039_4168_2.jpg","https://xcimg.szwego.com/img/f8c0bdc9/20240515/i1715779039_3012_0.jpg"],"created_at":"2026-05-20T04:01:38.933Z"},{"id":"item-da4938fafbb9","sku":"_dwzwzqfyppVcQJg22cpNUNqFjtKrzA1GSFKFsug","name_en":"Saint Laurent Women Bags","name_cn":"【原厂皮】🌈精品专供🔥黑平纹/金\nLE5A7大号光滑皮革柔软手袋大号,韩国明星同款Hobo!!今年火到爆炸的腋下包Y家虽迟但到!!包包身轮廓简洁、立体,看上去硬挺却不会太凌厉。搭配上品牌标志性的插入式包扣,整体给人一种既经典优雅,又很时髦现代的独特气质。\n型号:753837【原厂皮】\n尺寸:30x31x13cm","specs":{"source":"wsxcme","sourceId":"_dwzwzqfyppVcQJg22cpNUNqFjtKrzA1GSFKFsug","sourceTagId":47002761,"sourceTagName":"圣罗兰/女包","modelNumber":"753837【原厂皮】","dimensions":{"lengthCm":30,"heightCm":31,"widthCm":13},"rawTitle":"【原厂皮】🌈精品专供🔥黑平纹/金\nLE5A7大号光滑皮革柔软手袋大号,韩国明星同款Hobo!!今年火到爆炸的腋下包Y家虽迟但到!!包包身轮廓简洁、立体,看上去硬挺却不会太凌厉。搭配上品牌标志性的插入式包扣,整体给人一种既经典优雅,又很时髦现代的独特气质。\n型号:753837【原厂皮】\n尺寸:30x31x13cm"},"price":null,"currency":"CNY","moq":1,"category":"ysl-women-bags","status":"active","alibaba_url":null,"images":["https://xcimg.szwego.com/20230710/i1688990993_4706_0.jpg","https://xcimg.szwego.com/20230710/i1688990993_7818_1.jpg","https://xcimg.szwego.com/20230710/i1688990993_5828_2.jpg","https://xcimg.szwego.com/20230710/i1688990993_5498_3.jpg","https://xcimg.szwego.com/20230710/i1688990993_7521_6.jpg","https://xcimg.szwego.com/20230710/i1688990993_2647_5.jpg","https://xcimg.szwego.com/20230710/i1688990993_5581_4.jpg","https://xcimg.szwego.com/20230710/i1688990993_9905_7.jpg","https://xcimg.szwego.com/20230710/i1688990993_7488_8.jpg"],"created_at":"2024-12-08T05:57:08.134Z"},{"id":"item-d9e8ba30c131","sku":"_dyDyDKf0eubSlilZpWbPaQW4j3GOlAxqD9AC87g","name_en":"Saint Laurent Women Bags","name_cn":"冰梅粉羊皮·\nwoc小号信封包来袭,说到信封包,Y家的这一只一定必须要拥有名字!整包采用意大利羊皮制作,版型立体,手感舒适!可拆卸的肩带设计丰富了包包的多用性,肩带拆掉可直接当手包&晚宴包使用,内置多个卡位,实用到爆炸,平时出门带上手机和卡片,一个小包就可以带你轻松走遍天下!\n型号:393953\n尺寸:19x11.5x4cm","specs":{"source":"wsxcme","sourceId":"_dyDyDKf0eubSlilZpWbPaQW4j3GOlAxqD9AC87g","sourceTagId":47002761,"sourceTagName":"圣罗兰/女包","modelNumber":"393953","dimensions":{"lengthCm":19,"heightCm":11.5,"widthCm":4},"rawTitle":"冰梅粉羊皮·\nwoc小号信封包来袭,说到信封包,Y家的这一只一定必须要拥有名字!整包采用意大利羊皮制作,版型立体,手感舒适!可拆卸的肩带设计丰富了包包的多用性,肩带拆掉可直接当手包&晚宴包使用,内置多个卡位,实用到爆炸,平时出门带上手机和卡片,一个小包就可以带你轻松走遍天下!\n型号:393953\n尺寸:19x11.5x4cm"},"price":null,"currency":"CNY","moq":1,"category":"ysl-women-bags","status":"active","alibaba_url":null,"images":["https://xcimg.szwego.com/imgHD/f8c0bdc9/20250331/cmp_i1743413736697_1146_0_0.jpg","https://xcimg.szwego.com/imgHD/f8c0bdc9/20250331/cmp_i1743413740389_8291_0_1.jpg","https://xcimg.szwego.com/imgHD/f8c0bdc9/20250331/cmp_i1743413740378_7396_0_2.jpg","https://xcimg.szwego.com/imgHD/f8c0bdc9/20250331/cmp_i1743413736698_7380_0_3.jpg","https://xcimg.szwego.com/imgHD/f8c0bdc9/20250331/cmp_i1743413740382_5156_0_4.jpg","https://xcimg.szwego.com/imgHD/f8c0bdc9/20250331/cmp_i1743413736696_9286_0_5.jpg","https://xcimg.szwego.com/imgHD/f8c0bdc9/20250331/cmp_i1743413736697_5392_0_6.jpg","https://xcimg.szwego.com/imgHD/f8c0bdc9/20250331/cmp_i1743413736699_3686_0_7.jpg","https://xcimg.szwego.com/imgHD/f8c0bdc9/20250331/cmp_i1743413740387_9895_0_8.jpg"],"created_at":"2026-06-29T10:54:45.266Z"},{"id":"item-d98e88403174","sku":"_doqoqSSr52_TqgaUoyf2RFZo3lAQdyYRjTUrzgA","name_en":"Saint Laurent Women Bags","name_cn":"白色大象纹配金扣\nniki_22cm简直不要太酷,包型好看没有缺点,柔软细腻羊皮营造出复古照旧风格  手拎或者腋下都很可 气场十足男女均可驾驭 时尚与功能兼备 上身舒适又时髦\n超大容量日常通勤旅行妥妥安排到位👌\n款号:633151\n尺寸:22×16.5×12cm","specs":{"source":"wsxcme","sourceId":"_doqoqSSr52_TqgaUoyf2RFZo3lAQdyYRjTUrzgA","sourceTagId":47002761,"sourceTagName":"圣罗兰/女包","modelNumber":"633151","dimensions":{"lengthCm":22,"heightCm":16.5,"widthCm":12},"rawTitle":"白色大象纹配金扣\nniki_22cm简直不要太酷,包型好看没有缺点,柔软细腻羊皮营造出复古照旧风格  手拎或者腋下都很可 气场十足男女均可驾驭 时尚与功能兼备 上身舒适又时髦\n超大容量日常通勤旅行妥妥安排到位👌\n款号:633151\n尺寸:22×16.5×12cm"},"price":null,"currency":"CNY","moq":1,"category":"ysl-women-bags","status":"active","alibaba_url":null,"images":["https://xcimg.szwego.com/img/7821319d/20240724/a1721798106420_8220.jpg","https://xcimg.szwego.com/img/7821319d/20240724/a1721798106433_6184.jpg","https://xcimg.szwego.com/img/7821319d/20240724/a1721798106420_0171.jpg","https://xcimg.szwego.com/img/7821319d/20240724/a1721798106515_0200.jpg","https://xcimg.szwego.com/img/7821319d/20240724/a1721798106433_2812.jpg","https://xcimg.szwego.com/img/7821319d/20240724/a1721798106432_4528.jpg","https://xcimg.szwego.com/img/7821319d/20240724/a1721798109078_4554.jpg","https://xcimg.szwego.com/img/7821319d/20240724/a1721798109076_7587.jpg","https://xcimg.szwego.com/img/7821319d/20240724/a1721798109076_1121.jpg"],"created_at":"2024-08-04T12:57:22.844Z"},{"id":"item-d8f00570dc64","sku":"_dsvsvGvNWUD6xc79GHNtddUrN77RIVaMWLnJ8mA","name_en":"Saint Laurent Women Bags","name_cn":"橙色系穿搭🍊\n给人温暖 充满活力的印象\n春夏明媚 秋冬温暖 四季皆宜","specs":{"source":"wsxcme","sourceId":"_dsvsvGvNWUD6xc79GHNtddUrN77RIVaMWLnJ8mA","sourceTagId":47002761,"sourceTagName":"圣罗兰/女包","rawTitle":"橙色系穿搭🍊\n给人温暖 充满活力的印象\n春夏明媚 秋冬温暖 四季皆宜"},"price":null,"currency":"CNY","moq":1,"category":"ysl-women-bags","status":"active","alibaba_url":null,"images":["https://xcimg.szwego.com/imgHD/f8c0bdc9/20260622/cmp_i1782119496320_7226_0_0.jpg","https://xcimg.szwego.com/imgHD/f8c0bdc9/20260622/cmp_i1782119492513_9012_0_1.jpg","https://xcimg.szwego.com/imgHD/f8c0bdc9/20260622/cmp_i1782119490879_9570_0_2.jpg","https://xcimg.szwego.com/imgHD/f8c0bdc9/20260622/cmp_i1782119490781_1236_0_3.jpg","https://xcimg.szwego.com/imgHD/f8c0bdc9/20260622/cmp_i1782119490882_1113_0_4.jpg","https://xcimg.szwego.com/imgHD/f8c0bdc9/20260622/cmp_i1782119491505_4857_0_5.jpg"],"created_at":"2026-06-29T10:48:59.419Z"},{"id":"item-d70157679bda","sku":"_dklklku9tcGpKkPfCDVlTzutIgQl2YSIfO2mHfw","name_en":"Saint Laurent Women Bags","name_cn":"黑色金扣·\nSOLFERINO BOX_23cm\n必火爆款,还没上市就攻陷了整个时尚圈,怀旧左岸,灵感来自巴黎左岸街名Rue De Solferino为名!包包采用原厂漆皮牛皮,手感及皮面的柔韧度都非常好!内里设计三层风琴隔,可轻松容纳日常所需物品,全新设计的“L”字母上下对半开扣,彻底颠覆你对包扣的认知,不禁让人发出惊叹,原来还能这样开包包,简直不要太有趣了!\n型号:634305\n尺寸:23x16x6cm","specs":{"source":"wsxcme","sourceId":"_dklklku9tcGpKkPfCDVlTzutIgQl2YSIfO2mHfw","sourceTagId":47002761,"sourceTagName":"圣罗兰/女包","modelNumber":"634305","dimensions":{"lengthCm":23,"heightCm":16,"widthCm":6},"rawTitle":"黑色金扣·\nSOLFERINO BOX_23cm\n必火爆款,还没上市就攻陷了整个时尚圈,怀旧左岸,灵感来自巴黎左岸街名Rue De Solferino为名!包包采用原厂漆皮牛皮,手感及皮面的柔韧度都非常好!内里设计三层风琴隔,可轻松容纳日常所需物品,全新设计的“L”字母上下对半开扣,彻底颠覆你对包扣的认知,不禁让人发出惊叹,原来还能这样开包包,简直不要太有趣了!\n型号:634305\n尺寸:23x16x6cm"},"price":null,"currency":"CNY","moq":1,"category":"ysl-women-bags","status":"active","alibaba_url":null,"images":["https://xcimg.szwego.com/img/f8c0bdc9/20241025/i1729841445_5147_6.jpg","https://xcimg.szwego.com/img/f8c0bdc9/20241025/i1729841445_2529_4.jpg","https://xcimg.szwego.com/img/f8c0bdc9/20241025/i1729841445_5815_7.jpg","https://xcimg.szwego.com/img/f8c0bdc9/20241025/i1729841445_3364_2.jpg","https://xcimg.szwego.com/img/f8c0bdc9/20241025/i1729841445_7787_0.jpg","https://xcimg.szwego.com/img/f8c0bdc9/20241025/i1729841445_4980_3.jpg","https://xcimg.szwego.com/img/f8c0bdc9/20241025/i1729841445_6601_8.jpg","https://xcimg.szwego.com/img/f8c0bdc9/20241025/i1729841445_1711_1.jpg","https://xcimg.szwego.com/img/f8c0bdc9/20241025/i1729841445_7495_5.jpg"],"created_at":"2026-06-29T10:54:45.096Z"},{"id":"item-d6b529d59f05","sku":"_dxZxZZZ9NkyzWiF1SbjKBh_2Cxlgn9bUVOHi5Tg","name_en":"Saint Laurent Women Bags","name_cn":"392737 细节实拍","specs":{"source":"wsxcme","sourceId":"_dxZxZZZ9NkyzWiF1SbjKBh_2Cxlgn9bUVOHi5Tg","sourceTagId":47002761,"sourceTagName":"圣罗兰/女包","rawTitle":"392737 细节实拍"},"price":null,"currency":"CNY","moq":1,"category":"ysl-women-bags","status":"active","alibaba_url":null,"images":["https://xcimg.szwego.com/20220510/i1652120881_6420_0.jpg","https://xcimg.szwego.com/20220510/i1652120881_9374_1.jpg","https://xcimg.szwego.com/20220510/i1652120881_7385_2.jpg","https://xcimg.szwego.com/20220510/i1652120881_2875_3.jpg","https://xcimg.szwego.com/20220510/i1652120881_544_4.jpg","https://xcimg.szwego.com/20220510/i1652120881_6680_5.jpg","https://xcimg.szwego.com/20220510/i1652120881_8924_6.jpg","https://xcimg.szwego.com/20220510/i1652120881_8168_7.jpg"],"created_at":"2026-05-20T04:01:38.463Z"},{"id":"item-d5e353aa802c","sku":"_dbpbpsbzWohB7Z8xg5yXkt_wAKURNE1rSGCMcVw","name_en":"Saint Laurent Women Bags","name_cn":"官网图_","specs":{"source":"wsxcme","sourceId":"_dbpbpsbzWohB7Z8xg5yXkt_wAKURNE1rSGCMcVw","sourceTagId":47002761,"sourceTagName":"圣罗兰/女包","rawTitle":"官网图_"},"price":null,"currency":"CNY","moq":1,"category":"ysl-women-bags","status":"active","alibaba_url":null,"images":["https://xcimg.szwego.com/img/f8c0bdc9/20240515/i1715778668_6479_1.jpg","https://xcimg.szwego.com/img/f8c0bdc9/20240515/i1715778668_1444_3.jpg","https://xcimg.szwego.com/img/f8c0bdc9/20240515/i1715778668_4040_2.jpg","https://xcimg.szwego.com/img/f8c0bdc9/20240515/i1715778668_5792_0.jpg","https://xcimg.szwego.com/img/f8c0bdc9/20240515/i1715778668_9256_4.jpg","https://xcimg.szwego.com/img/f8c0bdc9/20240515/i1715778668_5855_5.jpg"],"created_at":"2025-07-20T03:10:54.224Z"},{"id":"item-d59d10238497","sku":"_djsjsD7tveIFnPpFh44eJatd2yJz5tN93fZ6Pjg","name_en":"Saint Laurent Women Bags","name_cn":"💰\nMonogram college\n万年经典的邮差包!!!邮差包又名信使包,顾名思义就是邮递员投送报纸、信件时候挎的包,和邮差背的包类似的包统称邮差包,提到邮差包,Y家的这只必须榜上有名!\n尺寸:24x17x6.5cm\n型号:392737","specs":{"source":"wsxcme","sourceId":"_djsjsD7tveIFnPpFh44eJatd2yJz5tN93fZ6Pjg","sourceTagId":47002761,"sourceTagName":"圣罗兰/女包","modelNumber":"392737","dimensions":{"lengthCm":24,"heightCm":17,"widthCm":6.5},"rawTitle":"💰\nMonogram college\n万年经典的邮差包!!!邮差包又名信使包,顾名思义就是邮递员投送报纸、信件时候挎的包,和邮差背的包类似的包统称邮差包,提到邮差包,Y家的这只必须榜上有名!\n尺寸:24x17x6.5cm\n型号:392737"},"price":null,"currency":"CNY","moq":1,"category":"ysl-women-bags","status":"active","alibaba_url":null,"images":["https://xcimg.szwego.com/20211004/i1633334294_153_0.jpg","https://xcimg.szwego.com/20211004/i1633334294_6806_1.jpg","https://xcimg.szwego.com/20211004/i1633334294_7870_2.jpg","https://xcimg.szwego.com/20211004/i1633334294_7059_3.jpg","https://xcimg.szwego.com/20211004/i1633334294_2371_4.jpg","https://xcimg.szwego.com/20211004/i1633334294_1002_5.jpg","https://xcimg.szwego.com/20211004/i1633334294_6499_6.jpg","https://xcimg.szwego.com/20211004/i1633334294_9078_7.jpg","https://xcimg.szwego.com/20211004/i1633334294_6271_8.jpg"],"created_at":"2025-07-20T03:05:44.201Z"},{"id":"item-d461fddefee0","sku":"_dwcwcUGvhnppc5HZMlpQ12miVImA3S86oxWKLug","name_en":"Saint Laurent Women Bags","name_cn":"风琴包的造型简约而富有线条感","specs":{"source":"wsxcme","sourceId":"_dwcwcUGvhnppc5HZMlpQ12miVImA3S86oxWKLug","sourceTagId":47002761,"sourceTagName":"圣罗兰/女包","rawTitle":"风琴包的造型简约而富有线条感"},"price":null,"currency":"CNY","moq":1,"category":"ysl-women-bags","status":"active","alibaba_url":null,"images":["https://xcimg.szwego.com/imgHD/f8c0bdc9/20251209/cmp_i1765275088635_6689_0_0.jpg","https://xcimg.szwego.com/imgHD/f8c0bdc9/20251209/cmp_i1765275088628_7997_0_1.jpg","https://xcimg.szwego.com/imgHD/f8c0bdc9/20251209/cmp_i1765275088594_9318_0_2.jpg","https://xcimg.szwego.com/imgHD/f8c0bdc9/20251209/cmp_i1765275088655_2017_0_3.jpg"],"created_at":"2026-06-29T10:48:58.549Z"},{"id":"item-d42bd9bf78a0","sku":"_dp-p-FBbLZq2lyvaWhlzU5bfZtCsTrmmPk5KKuA","name_en":"Saint Laurent Women Bags","name_cn":"💰\n▪️ROSE同款▪️秋冬新款,下一个爆款就是它!韩国明星同款Hobo [玫瑰]今年火到爆炸的腋下包Y家,皮质柔软超舒服,自重很轻,容量足。日常通勤百搭又巨好看可 包包身轮廓简洁、立体,看上去硬挺却不会太凌厉。搭配上品牌标志性的插入式包扣,整体给人一种既经典优雅,又很时髦现代的独特气质。尺寸:23x22x8.5Cm 型号:713938","specs":{"source":"wsxcme","sourceId":"_dp-p-FBbLZq2lyvaWhlzU5bfZtCsTrmmPk5KKuA","sourceTagId":47002761,"sourceTagName":"圣罗兰/女包","modelNumber":"713938","dimensions":{"lengthCm":23,"heightCm":22,"widthCm":8.5},"rawTitle":"💰\n▪️ROSE同款▪️秋冬新款,下一个爆款就是它!韩国明星同款Hobo [玫瑰]今年火到爆炸的腋下包Y家,皮质柔软超舒服,自重很轻,容量足。日常通勤百搭又巨好看可 包包身轮廓简洁、立体,看上去硬挺却不会太凌厉。搭配上品牌标志性的插入式包扣,整体给人一种既经典优雅,又很时髦现代的独特气质。尺寸:23x22x8.5Cm 型号:713938"},"price":null,"currency":"CNY","moq":1,"category":"ysl-women-bags","status":"active","alibaba_url":null,"images":["https://xcimg.szwego.com/20240611/a1718091299700_4343.jpg","https://xcimg.szwego.com/20240611/a1718091299886_5522.jpg","https://xcimg.szwego.com/20240611/a1718091300083_7557.jpg","https://xcimg.szwego.com/20240611/a1718091300287_2110.jpg","https://xcimg.szwego.com/20240611/a1718091300600_7228.jpg","https://xcimg.szwego.com/20240611/a1718091300884_5206.jpg","https://xcimg.szwego.com/20240611/a1718091304911_4100.jpg","https://xcimg.szwego.com/20240611/a1718091304913_6527.jpg","https://xcimg.szwego.com/20240611/a1718091304915_8142.jpg"],"created_at":"2025-07-20T03:05:44.238Z"},{"id":"item-d3786012f416","sku":"_dfYfYn92WcgBJ4hWpR5Zvw2RDPTrJCQeYBLXutA","name_en":"Saint Laurent Women Bags","name_cn":"【原厂皮】🌈精品专供🔥棕平纹/金\nLE5A7大号光滑皮革柔软手袋大号,韩国明星同款Hobo!!今年火到爆炸的腋下包Y家虽迟但到!!包包身轮廓简洁、立体,看上去硬挺却不会太凌厉。搭配上品牌标志性的插入式包扣,整体给人一种既经典优雅,又很时髦现代的独特气质。\n型号:753837【原厂皮】\n尺寸:30x31x13cm","specs":{"source":"wsxcme","sourceId":"_dfYfYn92WcgBJ4hWpR5Zvw2RDPTrJCQeYBLXutA","sourceTagId":47002761,"sourceTagName":"圣罗兰/女包","modelNumber":"753837【原厂皮】","dimensions":{"lengthCm":30,"heightCm":31,"widthCm":13},"rawTitle":"【原厂皮】🌈精品专供🔥棕平纹/金\nLE5A7大号光滑皮革柔软手袋大号,韩国明星同款Hobo!!今年火到爆炸的腋下包Y家虽迟但到!!包包身轮廓简洁、立体,看上去硬挺却不会太凌厉。搭配上品牌标志性的插入式包扣,整体给人一种既经典优雅,又很时髦现代的独特气质。\n型号:753837【原厂皮】\n尺寸:30x31x13cm"},"price":null,"currency":"CNY","moq":1,"category":"ysl-women-bags","status":"active","alibaba_url":null,"images":["https://xcimg.szwego.com/img/fce24e4d/20240508/i1715158480_7530_8.jpg","https://xcimg.szwego.com/img/fce24e4d/20240508/i1715158480_7399_2.jpg","https://xcimg.szwego.com/img/fce24e4d/20240508/i1715158480_7395_5.jpg","https://xcimg.szwego.com/img/fce24e4d/20240508/i1715158480_4698_1.jpg","https://xcimg.szwego.com/img/fce24e4d/20240508/i1715158480_7762_6.jpg","https://xcimg.szwego.com/img/fce24e4d/20240508/i1715158480_8467_3.jpg","https://xcimg.szwego.com/img/fce24e4d/20240508/i1715158480_9092_4.jpg","https://xcimg.szwego.com/img/fce24e4d/20240508/i1715158480_9337_7.jpg","https://xcimg.szwego.com/img/fce24e4d/20240508/i1715158480_7212_0.jpg"],"created_at":"2024-12-08T05:56:57.187Z"},{"id":"item-d31f08684b76","sku":"_dnYnYixYijx1rVlThYxhHJmtSzURVk-zvHBS-Dw","name_en":"Saint Laurent Women Bags","name_cn":"灰牙签纹/银\nSunset 22cm#经典款贵气牙签纹sunset日落包 原厂皮版本!喜欢牙签纹包包的小伙伴不能错过的一款!高品质 正品皮,正品开模五金,追求每一个每一个细节,力求无穷大的接近正品 👍\n尺寸:22x8x16cm\n型号:442906","specs":{"source":"wsxcme","sourceId":"_dnYnYixYijx1rVlThYxhHJmtSzURVk-zvHBS-Dw","sourceTagId":47002761,"sourceTagName":"圣罗兰/女包","modelNumber":"442906","dimensions":{"lengthCm":22,"heightCm":8,"widthCm":16},"rawTitle":"灰牙签纹/银\nSunset 22cm#经典款贵气牙签纹sunset日落包 原厂皮版本!喜欢牙签纹包包的小伙伴不能错过的一款!高品质 正品皮,正品开模五金,追求每一个每一个细节,力求无穷大的接近正品 👍\n尺寸:22x8x16cm\n型号:442906"},"price":null,"currency":"CNY","moq":1,"category":"ysl-women-bags","status":"active","alibaba_url":null,"images":["https://xcimg.szwego.com/img/7821319d/20240615/i1718382978_3787_7.jpg","https://xcimg.szwego.com/img/7821319d/20240615/i1718382977_8925_0.jpg","https://xcimg.szwego.com/img/7821319d/20240615/i1718382977_404_4.jpg","https://xcimg.szwego.com/img/7821319d/20240615/i1718382977_6578_1.jpg","https://xcimg.szwego.com/img/7821319d/20240615/i1718382977_3906_3.jpg","https://xcimg.szwego.com/img/7821319d/20240615/i1718382977_410_6.jpg","https://xcimg.szwego.com/img/7821319d/20240615/i1718382977_2323_5.jpg","https://xcimg.szwego.com/img/7821319d/20240615/i1718382977_3427_2.jpg"],"created_at":"2024-08-04T12:57:22.847Z"},{"id":"item-d24afd88f410","sku":"_dk3k3ZBu4OKPR7w5WvotGLpAJf1Un8HVrMtBAgA","name_en":"Saint Laurent Women Bags","name_cn":"羊皮果绿/金❗️❗️顶级原单、精品专供❗️❗️\n #Loulou puffer#中号29CM🐑绗缝小羊皮包,原厂正品皮制作,手感柔软细腻,犹如怀抱云朵☁️般的感受;经典的Y家logo、链条及扣眼五金均采用巴金哑光银五金,包袋开口处折叠后使用了磁性四合扣封口,密闭性及安全性一流;包内设有一个拉链内袋可放置手机及贵重物品,除此之外无多余内袋设计,使用起来随心所欲!正品皮!正品皮!正品皮!\n尺寸:29x17x11cm  \n型号:577476","specs":{"source":"wsxcme","sourceId":"_dk3k3ZBu4OKPR7w5WvotGLpAJf1Un8HVrMtBAgA","sourceTagId":47002761,"sourceTagName":"圣罗兰/女包","modelNumber":"577476","dimensions":{"lengthCm":29,"heightCm":17,"widthCm":11},"rawTitle":"羊皮果绿/金❗️❗️顶级原单、精品专供❗️❗️\n #Loulou puffer#中号29CM🐑绗缝小羊皮包,原厂正品皮制作,手感柔软细腻,犹如怀抱云朵☁️般的感受;经典的Y家logo、链条及扣眼五金均采用巴金哑光银五金,包袋开口处折叠后使用了磁性四合扣封口,密闭性及安全性一流;包内设有一个拉链内袋可放置手机及贵重物品,除此之外无多余内袋设计,使用起来随心所欲!正品皮!正品皮!正品皮!\n尺寸:29x17x11cm  \n型号:577476"},"price":null,"currency":"CNY","moq":1,"category":"ysl-women-bags","status":"active","alibaba_url":null,"images":["https://xcimg.szwego.com/20220824/i1661271711_3238_0.jpg","https://xcimg.szwego.com/20220824/i1661271711_8794_1.jpg","https://xcimg.szwego.com/20220824/i1661271711_6489_2.jpg","https://xcimg.szwego.com/20220824/i1661271711_4416_3.jpg","https://xcimg.szwego.com/20220824/i1661271711_9448_4.jpg","https://xcimg.szwego.com/20220824/i1661271711_4996_5.jpg","https://xcimg.szwego.com/20220824/i1661271711_8434_6.jpg","https://xcimg.szwego.com/20220824/i1661271711_6437_7.jpg"],"created_at":"2024-12-08T05:44:10.568Z"},{"id":"item-d13cf3ab5516","sku":"_dububhRpfzysVAYuzpo7ACBUSig_vJea_EjQnfw","name_en":"Saint Laurent Women Bags","name_cn":"官网图","specs":{"source":"wsxcme","sourceId":"_dububhRpfzysVAYuzpo7ACBUSig_vJea_EjQnfw","sourceTagId":47002761,"sourceTagName":"圣罗兰/女包","rawTitle":"官网图"},"price":null,"currency":"CNY","moq":1,"category":"ysl-women-bags","status":"active","alibaba_url":null,"images":["https://xcimg.szwego.com/imgHD/f8c0bdc9/20260622/cmp_i1782124341332_1471_0_0.jpg","https://xcimg.szwego.com/imgHD/f8c0bdc9/20260622/cmp_i1782124341332_5263_0_1.jpg","https://xcimg.szwego.com/imgHD/f8c0bdc9/20260622/cmp_i1782124341332_1888_0_2.jpg","https://xcimg.szwego.com/imgHD/f8c0bdc9/20260622/cmp_i1782124341332_1308_0_3.jpg","https://xcimg.szwego.com/imgHD/f8c0bdc9/20260622/cmp_i1782124341333_2100_0_4.jpg"],"created_at":"2026-06-29T10:48:59.509Z"},{"id":"item-d0f34936fc3b","sku":"_d9q9qdmcf0M4iJI_0KgZMHI8_ZT_1rCMWcAhz7A","name_en":"Saint Laurent Women Bags","name_cn":"软糯且有肌理感的羊皮材质 松弛慵懒感拉满","specs":{"source":"wsxcme","sourceId":"_d9q9qdmcf0M4iJI_0KgZMHI8_ZT_1rCMWcAhz7A","sourceTagId":47002761,"sourceTagName":"圣罗兰/女包","rawTitle":"软糯且有肌理感的羊皮材质 松弛慵懒感拉满"},"price":null,"currency":"CNY","moq":1,"category":"ysl-women-bags","status":"active","alibaba_url":null,"images":["https://xcimg.szwego.com/img/58395cbb/20241026/a1729931591706_5567.jpg","https://xcimg.szwego.com/img/58395cbb/20241026/a1729931591825_5266.jpg","https://xcimg.szwego.com/img/58395cbb/20241026/a1729931591707_7333.jpg","https://xcimg.szwego.com/img/58395cbb/20241026/a1729931591690_3747.jpg","https://xcimg.szwego.com/img/58395cbb/20241026/a1729931591707_5123.jpg","https://xcimg.szwego.com/img/58395cbb/20241026/a1729931591811_0777.jpg"],"created_at":"2025-07-20T03:05:44.260Z"},{"id":"item-cebb27dc9c91","sku":"_d9e9e45Bo7ApCVsJ-magyMNKt_eAwv_hnGIAIWw","name_en":"Saint Laurent Women Bags","name_cn":"焦糖牛皮配帆布·\n质感轻盈非凡,得名于灵感源自时装屋典藏设计的精致Y标志。\n结构优雅挺括,提手采用镂空设计,配有可调节可拆卸背带,提供多种背携方式。\n给人一种随性慵懒、充满个性的感觉。男女都适用,可当公文包、可当旅行手袋,容量超大。\n款号:800224\n尺寸:23×29.5×3-8.5cm\n提手高度:7cm\n肩带长度:48cm","specs":{"source":"wsxcme","sourceId":"_d9e9e45Bo7ApCVsJ-magyMNKt_eAwv_hnGIAIWw","sourceTagId":47002761,"sourceTagName":"圣罗兰/女包","modelNumber":"800224","rawTitle":"焦糖牛皮配帆布·\n质感轻盈非凡,得名于灵感源自时装屋典藏设计的精致Y标志。\n结构优雅挺括,提手采用镂空设计,配有可调节可拆卸背带,提供多种背携方式。\n给人一种随性慵懒、充满个性的感觉。男女都适用,可当公文包、可当旅行手袋,容量超大。\n款号:800224\n尺寸:23×29.5×3-8.5cm\n提手高度:7cm\n肩带长度:48cm"},"price":null,"currency":"CNY","moq":1,"category":"ysl-women-bags","status":"active","alibaba_url":null,"images":["https://xcimg.szwego.com/imgHD/f8c0bdc9/20250703/cmp_i1751527557961_8277_0_0.jpg","https://xcimg.szwego.com/imgHD/f8c0bdc9/20250703/cmp_i1751527561590_1039_0_1.jpg","https://xcimg.szwego.com/imgHD/f8c0bdc9/20250703/cmp_i1751527561587_1383_0_2.jpg","https://xcimg.szwego.com/imgHD/f8c0bdc9/20250703/cmp_i1751527558366_8087_0_3.jpg","https://xcimg.szwego.com/imgHD/f8c0bdc9/20250703/cmp_i1751527562117_3740_0_4.jpg","https://xcimg.szwego.com/imgHD/f8c0bdc9/20250703/cmp_i1751527558711_1994_0_5.jpg","https://xcimg.szwego.com/imgHD/f8c0bdc9/20250703/cmp_i1751527557982_9428_0_6.jpg","https://xcimg.szwego.com/imgHD/f8c0bdc9/20250703/cmp_i1751527561621_8145_0_7.jpg","https://xcimg.szwego.com/imgHD/f8c0bdc9/20250703/cmp_i1751527558337_2625_0_8.jpg"],"created_at":"2025-08-03T06:09:53.659Z"},{"id":"item-cc849d185bd6","sku":"_diyiyY9FoYsc5PaRF5lr5y8H3pysI91-9BaQ6bw","name_en":"Saint Laurent Women Bags","name_cn":"官网图","specs":{"source":"wsxcme","sourceId":"_diyiyY9FoYsc5PaRF5lr5y8H3pysI91-9BaQ6bw","sourceTagId":47002761,"sourceTagName":"圣罗兰/女包","rawTitle":"官网图"},"price":null,"currency":"CNY","moq":1,"category":"ysl-women-bags","status":"active","alibaba_url":null,"images":["https://xcimg.szwego.com/imgHD/f8c0bdc9/20251209/cmp_i1765277346610_4392_0_0.jpg","https://xcimg.szwego.com/imgHD/f8c0bdc9/20251209/cmp_i1765277346611_6394_0_1.jpg","https://xcimg.szwego.com/imgHD/f8c0bdc9/20251209/cmp_i1765277346610_491_0_2.jpg","https://xcimg.szwego.com/imgHD/f8c0bdc9/20251209/cmp_i1765277346611_3866_0_3.jpg"],"created_at":"2026-06-29T10:54:45.556Z"},{"id":"item-cc232090949c","sku":"_d9l9lgPhnhqvxp6A7tw1MBV2gDZ6t0Zz6y4sWOQ","name_en":"Saint Laurent Women Bags","name_cn":"时尚感十足!","specs":{"source":"wsxcme","sourceId":"_d9l9lgPhnhqvxp6A7tw1MBV2gDZ6t0Zz6y4sWOQ","sourceTagId":47002761,"sourceTagName":"圣罗兰/女包","rawTitle":"时尚感十足!"},"price":null,"currency":"CNY","moq":1,"category":"ysl-women-bags","status":"active","alibaba_url":null,"images":["https://xcimg.szwego.com/img/f8c0bdc9/20240104/i1704356866_3013_0.jpg","https://xcimg.szwego.com/img/f8c0bdc9/20240104/i1704356866_3572_1.jpg","https://xcimg.szwego.com/img/f8c0bdc9/20240104/i1704356866_7252_2.jpg","https://xcimg.szwego.com/img/f8c0bdc9/20240104/i1704356866_1871_3.jpg"],"created_at":"2026-05-20T04:01:39.213Z"},{"id":"item-cc133b92218b","sku":"_dwbwbhFgwkf_2E6IY7M9-Gm6KLy5rbePJcNbEIg","name_en":"Saint Laurent Women Bags","name_cn":"枣红色·\nLE 5À7系列之新款超好看水桶包 带手提_全新包型,采用意大利小牛皮,包身轮廓简洁、立体,看上去硬挺又不会太凌厉,底部带有个金属脚钉,搭配经典标志性金属logo的插入式包扣,整体给人一种既经典优雅,又很时髦现代的独特气质!\n型号:742828\n尺寸:26×20×12cm","specs":{"source":"wsxcme","sourceId":"_dwbwbhFgwkf_2E6IY7M9-Gm6KLy5rbePJcNbEIg","sourceTagId":47002761,"sourceTagName":"圣罗兰/女包","modelNumber":"742828","dimensions":{"lengthCm":26,"heightCm":20,"widthCm":12},"rawTitle":"枣红色·\nLE 5À7系列之新款超好看水桶包 带手提_全新包型,采用意大利小牛皮,包身轮廓简洁、立体,看上去硬挺又不会太凌厉,底部带有个金属脚钉,搭配经典标志性金属logo的插入式包扣,整体给人一种既经典优雅,又很时髦现代的独特气质!\n型号:742828\n尺寸:26×20×12cm"},"price":null,"currency":"CNY","moq":1,"category":"ysl-women-bags","status":"active","alibaba_url":null,"images":["https://xcimg.szwego.com/img/f8c0bdc9/20241129/i1732862444_154_4.jpg","https://xcimg.szwego.com/img/f8c0bdc9/20241129/i1732862444_8090_8.jpg","https://xcimg.szwego.com/img/f8c0bdc9/20241129/i1732862444_8091_5.jpg","https://xcimg.szwego.com/img/f8c0bdc9/20241129/i1732862444_5950_7.jpg","https://xcimg.szwego.com/img/f8c0bdc9/20241129/i1732862444_7510_0.jpg","https://xcimg.szwego.com/img/f8c0bdc9/20241129/i1732862444_8911_3.jpg","https://xcimg.szwego.com/img/f8c0bdc9/20241129/i1732862444_1840_6.jpg","https://xcimg.szwego.com/img/f8c0bdc9/20241129/i1732862444_5841_1.jpg","https://xcimg.szwego.com/img/f8c0bdc9/20241129/i1732862444_353_2.jpg"],"created_at":"2026-06-29T10:54:45.156Z"}],"page":27,"pageSize":24,"total":888,"totalPages":37}
