{"items":[{"id":"item-4f8eba9e36dc","sku":"_dCtCt7-93v_0dBo_lePm8EmkOvH4oVx2t3756Mw","name_en":"Saint Laurent Women Bags","name_cn":"🔥精品原单🔥黑/金       \n【VOLTAIRE 】24最新款Voltaire mini腋下包_\n半月型简约设计,独特的Cassandra旋扣开合,彰显独特魅力与前卫格调,完美体现Y家现代女性的优雅气质\n款号:779642\n尺寸:17.5×13.5×5cm","specs":{"source":"wsxcme","sourceId":"_dCtCt7-93v_0dBo_lePm8EmkOvH4oVx2t3756Mw","sourceTagId":47002761,"sourceTagName":"圣罗兰/女包","modelNumber":"779642","dimensions":{"lengthCm":17.5,"heightCm":13.5,"widthCm":5},"rawTitle":"🔥精品原单🔥黑/金       \n【VOLTAIRE 】24最新款Voltaire mini腋下包_\n半月型简约设计,独特的Cassandra旋扣开合,彰显独特魅力与前卫格调,完美体现Y家现代女性的优雅气质\n款号:779642\n尺寸:17.5×13.5×5cm"},"price":null,"currency":"CNY","moq":1,"category":"ysl-women-bags","status":"active","alibaba_url":null,"images":["https://xcimg.szwego.com/img/c531d0e5/20240327/i1711551275_8626_7.jpg","https://xcimg.szwego.com/img/c531d0e5/20240327/i1711551275_5078_5.jpg","https://xcimg.szwego.com/img/c531d0e5/20240327/i1711551275_8522_2.jpg","https://xcimg.szwego.com/img/c531d0e5/20240327/i1711551275_6427_6.jpg","https://xcimg.szwego.com/img/c531d0e5/20240327/i1711551275_3669_0.jpg","https://xcimg.szwego.com/img/c531d0e5/20240327/i1711551275_4037_4.jpg","https://xcimg.szwego.com/img/c531d0e5/20240327/i1711551275_3006_1.jpg","https://xcimg.szwego.com/img/c531d0e5/20240327/i1711551275_4661_3.jpg"],"created_at":"2024-12-08T05:42:51.135Z"},{"id":"item-4dd9734a9575","sku":"_dKlKlouXtcRaQx8FrtrC4ZfHL5t96yS1dU4nVGQ","name_en":"Saint Laurent Women Bags","name_cn":"小仙女小鲜肉都无法抵抗","specs":{"source":"wsxcme","sourceId":"_dKlKlouXtcRaQx8FrtrC4ZfHL5t96yS1dU4nVGQ","sourceTagId":47002761,"sourceTagName":"圣罗兰/女包","rawTitle":"小仙女小鲜肉都无法抵抗"},"price":null,"currency":"CNY","moq":1,"category":"ysl-women-bags","status":"active","alibaba_url":null,"images":["https://xcimg.szwego.com/img/fce24e4d/20240513/i1715562079_7288_2.jpg","https://xcimg.szwego.com/img/fce24e4d/20240513/i1715562079_2353_5.jpg","https://xcimg.szwego.com/img/fce24e4d/20240513/i1715562079_1855_1.jpg","https://xcimg.szwego.com/img/fce24e4d/20240513/i1715562079_548_4.jpg","https://xcimg.szwego.com/img/fce24e4d/20240513/i1715562079_7476_6.jpg","https://xcimg.szwego.com/img/fce24e4d/20240513/i1715562079_2576_0.jpg"],"created_at":"2025-07-20T03:10:54.226Z"},{"id":"item-4c26f645bfc8","sku":"_dt6t65lurANUTUzMDhbOmIqCyDus9pgK5Ziy_RA","name_en":"Saint Laurent Women Bags","name_cn":"白色大象纹配金扣\nniki_28cm简直不要太酷,包型好看没有缺点,柔软细腻羊皮营造出复古照旧风格  手拎或者腋下都很可 气场十足男女均可驾驭 时尚与功能兼备 上身舒适又时髦\n超大容量日常通勤旅行妥妥安排到位👌\n款号:633158\n尺寸:28×20.5×8.5cm","specs":{"source":"wsxcme","sourceId":"_dt6t65lurANUTUzMDhbOmIqCyDus9pgK5Ziy_RA","sourceTagId":47002761,"sourceTagName":"圣罗兰/女包","modelNumber":"633158","dimensions":{"lengthCm":28,"heightCm":20.5,"widthCm":8.5},"rawTitle":"白色大象纹配金扣\nniki_28cm简直不要太酷,包型好看没有缺点,柔软细腻羊皮营造出复古照旧风格  手拎或者腋下都很可 气场十足男女均可驾驭 时尚与功能兼备 上身舒适又时髦\n超大容量日常通勤旅行妥妥安排到位👌\n款号:633158\n尺寸:28×20.5×8.5cm"},"price":null,"currency":"CNY","moq":1,"category":"ysl-women-bags","status":"active","alibaba_url":null,"images":["https://xcimg.szwego.com/img/7821319d/20240724/a1721798066568_4456.jpg","https://xcimg.szwego.com/img/7821319d/20240724/a1721798066558_2614.jpg","https://xcimg.szwego.com/img/7821319d/20240724/a1721798066564_0007.jpg","https://xcimg.szwego.com/img/7821319d/20240724/a1721798066552_1040.jpg","https://xcimg.szwego.com/img/7821319d/20240724/a1721798066563_3026.jpg","https://xcimg.szwego.com/img/7821319d/20240724/a1721798066557_4710.jpg","https://xcimg.szwego.com/img/7821319d/20240724/a1721798068437_3706.jpg","https://xcimg.szwego.com/img/7821319d/20240724/a1721798068440_1845.jpg","https://xcimg.szwego.com/img/7821319d/20240724/a1721798068439_7226.jpg"],"created_at":"2024-08-04T12:57:22.843Z"},{"id":"item-4b8a12e83d1f","sku":"_dhLhL3vHi_6BOdkk1sqqUdoh2ihfXF95GhkytiA","name_en":"Saint Laurent Women Bags","name_cn":"牛油果绿·\nSOLFERINO BOX_23cm\n必火爆款,还没上市就攻陷了整个时尚圈,怀旧左岸,灵感来自巴黎左岸街名Rue De Solferino为名!包包采用原厂漆皮牛皮,手感及皮面的柔韧度都非常好!内里设计三层风琴隔,可轻松容纳日常所需物品,全新设计的“L”字母上下对半开扣,彻底颠覆你对包扣的认知,不禁让人发出惊叹,原来还能这样开包包,简直不要太有趣了!\n型号:634305\n尺寸:23x16x6cm","specs":{"source":"wsxcme","sourceId":"_dhLhL3vHi_6BOdkk1sqqUdoh2ihfXF95GhkytiA","sourceTagId":47002761,"sourceTagName":"圣罗兰/女包","modelNumber":"634305","dimensions":{"lengthCm":23,"heightCm":16,"widthCm":6},"rawTitle":"牛油果绿·\nSOLFERINO BOX_23cm\n必火爆款,还没上市就攻陷了整个时尚圈,怀旧左岸,灵感来自巴黎左岸街名Rue De Solferino为名!包包采用原厂漆皮牛皮,手感及皮面的柔韧度都非常好!内里设计三层风琴隔,可轻松容纳日常所需物品,全新设计的“L”字母上下对半开扣,彻底颠覆你对包扣的认知,不禁让人发出惊叹,原来还能这样开包包,简直不要太有趣了!\n型号:634305\n尺寸:23x16x6cm"},"price":null,"currency":"CNY","moq":1,"category":"ysl-women-bags","status":"active","alibaba_url":null,"images":["https://xcimg.szwego.com/img/f8c0bdc9/20241025/i1729830294_9832_7.jpg","https://xcimg.szwego.com/img/f8c0bdc9/20241025/i1729830294_8931_2.jpg","https://xcimg.szwego.com/img/f8c0bdc9/20241025/i1729830294_4041_1.jpg","https://xcimg.szwego.com/img/f8c0bdc9/20241025/i1729830294_9562_3.jpg","https://xcimg.szwego.com/img/f8c0bdc9/20241025/i1729830294_1319_0.jpg","https://xcimg.szwego.com/img/f8c0bdc9/20241025/i1729830294_1726_4.jpg","https://xcimg.szwego.com/img/f8c0bdc9/20241025/i1729830294_6265_8.jpg","https://xcimg.szwego.com/img/f8c0bdc9/20241025/i1729830294_1495_5.jpg","https://xcimg.szwego.com/img/f8c0bdc9/20241025/i1729830294_3969_6.jpg"],"created_at":"2026-06-29T10:54:44.906Z"},{"id":"item-4b4bf865d1f2","sku":"_di4i43VwLKsOG3hZcNx5vNK1Q1756O6EouizZXg","name_en":"Saint Laurent Women Bags","name_cn":"官网图","specs":{"source":"wsxcme","sourceId":"_di4i43VwLKsOG3hZcNx5vNK1Q1756O6EouizZXg","sourceTagId":47002761,"sourceTagName":"圣罗兰/女包","rawTitle":"官网图"},"price":null,"currency":"CNY","moq":1,"category":"ysl-women-bags","status":"active","alibaba_url":null,"images":["https://xcimg.szwego.com/imgHD/f8c0bdc9/20260622/cmp_i1782124300398_2327_0_0.jpg","https://xcimg.szwego.com/imgHD/f8c0bdc9/20260622/cmp_i1782124300397_5153_0_1.jpg","https://xcimg.szwego.com/imgHD/f8c0bdc9/20260622/cmp_i1782124300398_3476_0_2.jpg","https://xcimg.szwego.com/imgHD/f8c0bdc9/20260622/cmp_i1782124300398_5900_0_3.jpg","https://xcimg.szwego.com/imgHD/f8c0bdc9/20260622/cmp_i1782124300398_7316_0_4.jpg"],"created_at":"2026-06-29T10:48:59.469Z"},{"id":"item-4aa142886e0c","sku":"_dlele2vXlRE4An5j0W0QKfYusxX9M975_t875Jw","name_en":"Saint Laurent Women Bags","name_cn":"【黑色金扣】\nLouLou_大号\n看一眼就陷进去的大包!!️自重感轻容量很大 进口意大利细腻牛皮,翻盖磁扣设计方便又安全  各大肯豆通勤娱乐必备款~完全不会过时的存在,快 get 这款男生/女生都可背的包包   休闲通勤还可容量大还很轻便!\n款号:574947\n尺寸:36×27×14cm","specs":{"source":"wsxcme","sourceId":"_dlele2vXlRE4An5j0W0QKfYusxX9M975_t875Jw","sourceTagId":47002761,"sourceTagName":"圣罗兰/女包","modelNumber":"574947","dimensions":{"lengthCm":36,"heightCm":27,"widthCm":14},"rawTitle":"【黑色金扣】\nLouLou_大号\n看一眼就陷进去的大包!!️自重感轻容量很大 进口意大利细腻牛皮,翻盖磁扣设计方便又安全  各大肯豆通勤娱乐必备款~完全不会过时的存在,快 get 这款男生/女生都可背的包包   休闲通勤还可容量大还很轻便!\n款号:574947\n尺寸:36×27×14cm"},"price":null,"currency":"CNY","moq":1,"category":"ysl-women-bags","status":"active","alibaba_url":null,"images":["https://xcimg.szwego.com/img/f8c0bdc9/20240606/i1717676477_6810_8.jpg","https://xcimg.szwego.com/img/f8c0bdc9/20240606/i1717676477_4063_4.jpg","https://xcimg.szwego.com/img/f8c0bdc9/20240606/i1717676477_7027_2.jpg","https://xcimg.szwego.com/img/f8c0bdc9/20240606/i1717676477_220_3.jpg","https://xcimg.szwego.com/img/f8c0bdc9/20240606/i1717676477_159_0.jpg","https://xcimg.szwego.com/img/f8c0bdc9/20240606/i1717676477_8196_1.jpg","https://xcimg.szwego.com/img/f8c0bdc9/20240606/i1717676477_3005_7.jpg","https://xcimg.szwego.com/img/f8c0bdc9/20240606/i1717676477_8871_6.jpg","https://xcimg.szwego.com/img/f8c0bdc9/20240606/i1717676477_1817_5.jpg"],"created_at":"2025-03-07T08:31:04.713Z"},{"id":"item-491f7ca6cd29","sku":"_dmHmH1Dpw_nwUFxFMC7EsYYpLkGh9v2-fY32NdQ","name_en":"Saint Laurent Women Bags","name_cn":"黑色\nEnvelope_鱼子酱纹路信封包.超级实用的一款小包,最经典的款式,意大利进口牛皮配上精细手工制作;定制金属Y家logo彰显个性;翻盖设计确保使用的安全性;小包包大容量,包内设有20个卡片槽,两个纸币隔层,两个中央隔层,一个拉链内袋,装尽所有!\n型号:620280\n尺寸:22.5x14x4cm","specs":{"source":"wsxcme","sourceId":"_dmHmH1Dpw_nwUFxFMC7EsYYpLkGh9v2-fY32NdQ","sourceTagId":47002761,"sourceTagName":"圣罗兰/女包","modelNumber":"620280","dimensions":{"lengthCm":22.5,"heightCm":14,"widthCm":4},"rawTitle":"黑色\nEnvelope_鱼子酱纹路信封包.超级实用的一款小包,最经典的款式,意大利进口牛皮配上精细手工制作;定制金属Y家logo彰显个性;翻盖设计确保使用的安全性;小包包大容量,包内设有20个卡片槽,两个纸币隔层,两个中央隔层,一个拉链内袋,装尽所有!\n型号:620280\n尺寸:22.5x14x4cm"},"price":null,"currency":"CNY","moq":1,"category":"ysl-women-bags","status":"active","alibaba_url":null,"images":["https://xcimg.szwego.com/imgHD/f8c0bdc9/20250822/cmp_i1755849610123_4199_0_0.jpg","https://xcimg.szwego.com/imgHD/f8c0bdc9/20250822/cmp_i1755849610125_8515_0_1.jpg","https://xcimg.szwego.com/imgHD/f8c0bdc9/20250822/cmp_i1755849609386_2100_0_2.jpg","https://xcimg.szwego.com/imgHD/f8c0bdc9/20250822/cmp_i1755849610125_4005_0_3.jpg","https://xcimg.szwego.com/imgHD/f8c0bdc9/20250822/cmp_i1755849609386_4535_0_4.jpg","https://xcimg.szwego.com/imgHD/f8c0bdc9/20250822/cmp_i1755849609386_8925_0_5.jpg","https://xcimg.szwego.com/imgHD/f8c0bdc9/20250822/cmp_i1755849609386_665_0_6.jpg","https://xcimg.szwego.com/imgHD/f8c0bdc9/20250822/cmp_i1755849610125_4126_0_7.jpg","https://xcimg.szwego.com/imgHD/f8c0bdc9/20250822/cmp_i1755849609385_2536_0_8.jpg"],"created_at":"2026-06-29T10:48:59.019Z"},{"id":"item-489f9f3ec9b0","sku":"_doYoYXZnBCsuw_D0wIYihN_AwBzBs6w4u5tVFlQ","name_en":"Saint Laurent Women Bags","name_cn":"奶茶色·\nSOLFERINO BOX_19cm\n必火爆款,还没上市就攻陷了整个时尚圈,怀旧左岸,灵感来自巴黎左岸街名Rue De Solferino为名!包包采用原厂细牙签纹Box牛皮,手感及皮面的柔韧度都非常好!内里设计三层风琴隔,可轻松容纳日常所需物品,全新设计的“L”字母上下对半开扣,彻底颠覆你对包扣的认知,不禁让人发出惊叹,原来还能这样开包包,简直不要太有趣了!\n型号:634306\n尺寸:19x13x5cm","specs":{"source":"wsxcme","sourceId":"_doYoYXZnBCsuw_D0wIYihN_AwBzBs6w4u5tVFlQ","sourceTagId":47002761,"sourceTagName":"圣罗兰/女包","modelNumber":"634306","dimensions":{"lengthCm":19,"heightCm":13,"widthCm":5},"rawTitle":"奶茶色·\nSOLFERINO BOX_19cm\n必火爆款,还没上市就攻陷了整个时尚圈,怀旧左岸,灵感来自巴黎左岸街名Rue De Solferino为名!包包采用原厂细牙签纹Box牛皮,手感及皮面的柔韧度都非常好!内里设计三层风琴隔,可轻松容纳日常所需物品,全新设计的“L”字母上下对半开扣,彻底颠覆你对包扣的认知,不禁让人发出惊叹,原来还能这样开包包,简直不要太有趣了!\n型号:634306\n尺寸:19x13x5cm"},"price":null,"currency":"CNY","moq":1,"category":"ysl-women-bags","status":"active","alibaba_url":null,"images":["https://xcimg.szwego.com/img/f8c0bdc9/20241025/i1729838741_3041_7.jpg","https://xcimg.szwego.com/img/f8c0bdc9/20241025/i1729838741_9466_2.jpg","https://xcimg.szwego.com/img/f8c0bdc9/20241025/i1729838741_2630_4.jpg","https://xcimg.szwego.com/img/f8c0bdc9/20241025/i1729838741_1013_5.jpg","https://xcimg.szwego.com/img/f8c0bdc9/20241025/i1729838741_2691_6.jpg","https://xcimg.szwego.com/img/f8c0bdc9/20241025/i1729838741_9556_3.jpg","https://xcimg.szwego.com/img/f8c0bdc9/20241025/i1729838750_9615_0.jpg","https://xcimg.szwego.com/img/f8c0bdc9/20241025/i1729838741_9364_1.jpg","https://xcimg.szwego.com/img/f8c0bdc9/20241025/i1729838741_5708_8.jpg"],"created_at":"2026-06-29T10:54:45.006Z"},{"id":"item-485af47ccc39","sku":"_dm0m0AH6i3ZtMqoXnDdOAg-Df9sbYDhzlmXBF6w","name_en":"Saint Laurent Women Bags","name_cn":"枣红·\nshopping tote bag_横款购物袋\n非常简约性冷淡风的一个系列,进口南非牛皮,内里配有一个手拿袋,可拆卸,它的特点就是容量大而且轻,搭配一个金属小logo,精致极了!\n尺寸:38×28×13cm\n型号:394195","specs":{"source":"wsxcme","sourceId":"_dm0m0AH6i3ZtMqoXnDdOAg-Df9sbYDhzlmXBF6w","sourceTagId":47002761,"sourceTagName":"圣罗兰/女包","modelNumber":"394195","dimensions":{"lengthCm":38,"heightCm":28,"widthCm":13},"rawTitle":"枣红·\nshopping tote bag_横款购物袋\n非常简约性冷淡风的一个系列,进口南非牛皮,内里配有一个手拿袋,可拆卸,它的特点就是容量大而且轻,搭配一个金属小logo,精致极了!\n尺寸:38×28×13cm\n型号:394195"},"price":null,"currency":"CNY","moq":1,"category":"ysl-women-bags","status":"active","alibaba_url":null,"images":["https://xcimg.szwego.com/imgHD/f8c0bdc9/20260420/cmp_i1776669939644_9163_0_0.jpg","https://xcimg.szwego.com/imgHD/f8c0bdc9/20260420/cmp_i1776669936651_1808_0_1.jpg","https://xcimg.szwego.com/imgHD/f8c0bdc9/20260420/cmp_i1776669939421_6126_0_8.jpg","https://xcimg.szwego.com/imgHD/f8c0bdc9/20260420/cmp_i1776669939388_1197_0_2.jpg","https://xcimg.szwego.com/imgHD/f8c0bdc9/20260420/cmp_i1776669936607_6067_0_3.jpg","https://xcimg.szwego.com/imgHD/f8c0bdc9/20260420/cmp_i1776669938594_4802_0_4.jpg","https://xcimg.szwego.com/imgHD/f8c0bdc9/20260420/cmp_i1776669934651_1867_0_5.jpg","https://xcimg.szwego.com/imgHD/f8c0bdc9/20260420/cmp_i1776669936581_4756_0_6.jpg","https://xcimg.szwego.com/imgHD/f8c0bdc9/20260420/cmp_i1776669936698_2845_0_7.jpg"],"created_at":"2026-06-29T10:48:58.939Z"},{"id":"item-46a7c5a082c6","sku":"_dMQMQ2hdUkSnH2-u0BGvVxBn8EEKKzOEoCQnS2Q","name_en":"Saint Laurent Women Bags","name_cn":"白牙签纹/金\nSunset 22cm#经典款贵气牙签纹sunset日落包 原厂皮版本!喜欢牙签纹包包的小伙伴不能错过的一款!高品质 正品皮,正品开模五金,追求每一个每一个细节,力求无穷大的接近正品 👍\n尺寸:22x8x16cm\n型号:442906","specs":{"source":"wsxcme","sourceId":"_dMQMQ2hdUkSnH2-u0BGvVxBn8EEKKzOEoCQnS2Q","sourceTagId":47002761,"sourceTagName":"圣罗兰/女包","modelNumber":"442906","dimensions":{"lengthCm":22,"heightCm":8,"widthCm":16},"rawTitle":"白牙签纹/金\nSunset 22cm#经典款贵气牙签纹sunset日落包 原厂皮版本!喜欢牙签纹包包的小伙伴不能错过的一款!高品质 正品皮,正品开模五金,追求每一个每一个细节,力求无穷大的接近正品 👍\n尺寸:22x8x16cm\n型号:442906"},"price":null,"currency":"CNY","moq":1,"category":"ysl-women-bags","status":"active","alibaba_url":null,"images":["https://xcimg.szwego.com/img/7821319d/20240615/i1718383051_4131_6.jpg","https://xcimg.szwego.com/img/7821319d/20240615/i1718383051_4667_3.jpg","https://xcimg.szwego.com/img/7821319d/20240615/i1718383050_8676_0.jpg","https://xcimg.szwego.com/img/7821319d/20240615/i1718383051_8830_8.jpg","https://xcimg.szwego.com/img/7821319d/20240615/i1718383051_6906_7.jpg","https://xcimg.szwego.com/img/7821319d/20240615/i1718383051_9519_1.jpg","https://xcimg.szwego.com/img/7821319d/20240615/i1718383051_2457_2.jpg","https://xcimg.szwego.com/img/7821319d/20240615/i1718383051_2262_4.jpg","https://xcimg.szwego.com/img/7821319d/20240615/i1718383051_9877_5.jpg"],"created_at":"2024-08-04T12:57:22.848Z"},{"id":"item-452a19e1dc25","sku":"_dsLsLJ9a6j6FnvtmgLwdYTcQi6QgoIxNAovmuRg","name_en":"Saint Laurent Women Bags","name_cn":"全网首发❗️\n超级柔软的材质,非常耐磨!","specs":{"source":"wsxcme","sourceId":"_dsLsLJ9a6j6FnvtmgLwdYTcQi6QgoIxNAovmuRg","sourceTagId":47002761,"sourceTagName":"圣罗兰/女包","rawTitle":"全网首发❗️\n超级柔软的材质,非常耐磨!"},"price":null,"currency":"CNY","moq":1,"category":"ysl-women-bags","status":"active","alibaba_url":null,"images":["https://xcimg.szwego.com/img/a2a6846e/20240629/i1719657205_201_2.jpg","https://xcimg.szwego.com/img/a2a6846e/20240629/i1719657205_9404_0.jpg","https://xcimg.szwego.com/img/a2a6846e/20240629/i1719657205_7324_1.jpg"],"created_at":"2025-07-20T03:05:44.177Z"},{"id":"item-43d1050978a4","sku":"_droroqf_A_BdxKu7BhBj-onJ7oswgd38qb0Jtkw","name_en":"Saint Laurent Women Bags","name_cn":"随拍上身图_","specs":{"source":"wsxcme","sourceId":"_droroqf_A_BdxKu7BhBj-onJ7oswgd38qb0Jtkw","sourceTagId":47002761,"sourceTagName":"圣罗兰/女包","rawTitle":"随拍上身图_"},"price":null,"currency":"CNY","moq":1,"category":"ysl-women-bags","status":"active","alibaba_url":null,"images":["https://xcimg.szwego.com/img/f8c0bdc9/20240811/i1723372860_3867_0.jpg","https://xcimg.szwego.com/img/f8c0bdc9/20240811/i1723372860_6687_1.jpg","https://xcimg.szwego.com/img/f8c0bdc9/20240811/i1723372860_3673_4.jpg","https://xcimg.szwego.com/img/f8c0bdc9/20240811/i1723372860_3922_2.jpg","https://xcimg.szwego.com/img/f8c0bdc9/20240811/i1723372860_7934_3.jpg"],"created_at":"2026-05-20T04:01:39.163Z"},{"id":"item-43bb1ea151b2","sku":"_dm1m16NFgGKaKfSOWoWHMX8gKzpSTT3J4PhUjXQ","name_en":"Saint Laurent Women Bags","name_cn":"💰\n🆕 小号麂皮Hobo腋下包\n下一个爆款就是它了🔥\n包身轮廓简洁、立体,绒面材质皮质柔软又有型✅ 搭配简单大气的品牌标志性的插入式包扣,既经典优雅,又很随性的独特气质。复古风格,颜色高级,简直不要太好看🤩\n尺寸:22x22x10cm\n型号:713938","specs":{"source":"wsxcme","sourceId":"_dm1m16NFgGKaKfSOWoWHMX8gKzpSTT3J4PhUjXQ","sourceTagId":47002761,"sourceTagName":"圣罗兰/女包","modelNumber":"713938","dimensions":{"lengthCm":22,"heightCm":22,"widthCm":10},"rawTitle":"💰\n🆕 小号麂皮Hobo腋下包\n下一个爆款就是它了🔥\n包身轮廓简洁、立体,绒面材质皮质柔软又有型✅ 搭配简单大气的品牌标志性的插入式包扣,既经典优雅,又很随性的独特气质。复古风格,颜色高级,简直不要太好看🤩\n尺寸:22x22x10cm\n型号:713938"},"price":null,"currency":"CNY","moq":1,"category":"ysl-women-bags","status":"active","alibaba_url":null,"images":["https://xcimg.szwego.com/img/98817bb3/20231026/i1698296447_552_0.jpg","https://xcimg.szwego.com/img/98817bb3/20231026/i1698296447_4771_1.jpg","https://xcimg.szwego.com/img/98817bb3/20231026/i1698296447_6730_2.jpg","https://xcimg.szwego.com/img/98817bb3/20231026/i1698296447_6006_3.jpg","https://xcimg.szwego.com/img/98817bb3/20231026/i1698296447_5997_4.jpg","https://xcimg.szwego.com/img/98817bb3/20231026/i1698296447_8214_5.jpg","https://xcimg.szwego.com/img/98817bb3/20231026/i1698296447_3429_6.jpg","https://xcimg.szwego.com/img/98817bb3/20231026/i1698296447_2477_7.jpg","https://xcimg.szwego.com/img/98817bb3/20231026/i1698296447_3556_8.jpg"],"created_at":"2025-07-20T03:05:44.235Z"},{"id":"item-4399e86bc2a1","sku":"_dtbtb8wrXp8SU1baoxCeY62cDv07tSsxrKxqQcA","name_en":"Saint Laurent Women Bags","name_cn":"柜图","specs":{"source":"wsxcme","sourceId":"_dtbtb8wrXp8SU1baoxCeY62cDv07tSsxrKxqQcA","sourceTagId":47002761,"sourceTagName":"圣罗兰/女包","rawTitle":"柜图"},"price":null,"currency":"CNY","moq":1,"category":"ysl-women-bags","status":"active","alibaba_url":null,"images":["https://xcimg.szwego.com/imgHD/f8c0bdc9/20260129/cmp_i1769678963727_2080_0_0.jpg","https://xcimg.szwego.com/imgHD/f8c0bdc9/20260129/cmp_i1769678963726_2193_0_1.jpg"],"created_at":"2026-06-29T10:48:58.799Z"},{"id":"item-4304b83e3211","sku":"_dEwEwPdfojYL4_zPqy69nlcZAOF9G9OTXSah36Q","name_en":"Saint Laurent Women Bags","name_cn":"💰\nLE5 À 7 BABY柔软粒面\n包身是精细粒面鹿皮革手袋的BABY版本,皮革袢扣开合、这款手袋结构柔软,搭配同色系绒面革衬里,轻盈柔美,设有一个内部卡包,搭配可调节肩带,可️手提可️肩背~夏天轻巧小包包就首选它了!\n尺寸:15×16x7CM\n款号:809461","specs":{"source":"wsxcme","sourceId":"_dEwEwPdfojYL4_zPqy69nlcZAOF9G9OTXSah36Q","sourceTagId":47002761,"sourceTagName":"圣罗兰/女包","modelNumber":"809461","dimensions":{"lengthCm":15,"heightCm":16,"widthCm":7},"rawTitle":"💰\nLE5 À 7 BABY柔软粒面\n包身是精细粒面鹿皮革手袋的BABY版本,皮革袢扣开合、这款手袋结构柔软,搭配同色系绒面革衬里,轻盈柔美,设有一个内部卡包,搭配可调节肩带,可️手提可️肩背~夏天轻巧小包包就首选它了!\n尺寸:15×16x7CM\n款号:809461"},"price":null,"currency":"CNY","moq":1,"category":"ysl-women-bags","status":"active","alibaba_url":null,"images":["https://xcimg.szwego.com/img/98817bb3/20240708/i1720418001_3769_6.jpg","https://xcimg.szwego.com/img/98817bb3/20240708/i1720418001_8414_8.jpg","https://xcimg.szwego.com/img/98817bb3/20240708/i1720418001_5158_2.jpg","https://xcimg.szwego.com/img/98817bb3/20240708/i1720418001_3496_5.jpg","https://xcimg.szwego.com/img/98817bb3/20240708/i1720418001_9688_1.jpg","https://xcimg.szwego.com/img/98817bb3/20240708/i1720418001_7686_0.jpg","https://xcimg.szwego.com/img/98817bb3/20240708/i1720418001_8588_3.jpg","https://xcimg.szwego.com/img/98817bb3/20240708/i1720418001_1520_7.jpg","https://xcimg.szwego.com/img/98817bb3/20240708/i1720418001_2811_4.jpg"],"created_at":"2025-07-20T03:05:44.205Z"},{"id":"item-41a129de6806","sku":"_dNXNXoV70Kfzw2nP5XMatI7RUuwSSy3t_mUCUTg","name_en":"Saint Laurent Women Bags","name_cn":"金叶磨砂金扣·\nNiki_baby \n男女可背的盐系学院风单肩斜挎包\n麂皮搭配内里轻便柔软的小牛皮 整体低调奢华又百搭 通勤包型可休闲可盐 标志性 logo 设计更为简约 肩带斜挎都可轻松凹造型\n喜欢的宝宝完全可以入手 不会过时的款噢\n款号:633151-1\n尺寸:22×16.5×12cm","specs":{"source":"wsxcme","sourceId":"_dNXNXoV70Kfzw2nP5XMatI7RUuwSSy3t_mUCUTg","sourceTagId":47002761,"sourceTagName":"圣罗兰/女包","modelNumber":"633151-1","dimensions":{"lengthCm":22,"heightCm":16.5,"widthCm":12},"rawTitle":"金叶磨砂金扣·\nNiki_baby \n男女可背的盐系学院风单肩斜挎包\n麂皮搭配内里轻便柔软的小牛皮 整体低调奢华又百搭 通勤包型可休闲可盐 标志性 logo 设计更为简约 肩带斜挎都可轻松凹造型\n喜欢的宝宝完全可以入手 不会过时的款噢\n款号:633151-1\n尺寸:22×16.5×12cm"},"price":null,"currency":"CNY","moq":1,"category":"ysl-women-bags","status":"active","alibaba_url":null,"images":["https://xcimg.szwego.com/imgHD/f8c0bdc9/20260129/cmp_i1769676257939_576_0_0.jpg","https://xcimg.szwego.com/imgHD/f8c0bdc9/20260129/cmp_i1769676248606_5963_0_1.jpg","https://xcimg.szwego.com/imgHD/f8c0bdc9/20260129/cmp_i1769676248722_7347_0_2.jpg","https://xcimg.szwego.com/imgHD/f8c0bdc9/20260129/cmp_i1769676249660_6985_0_3.jpg","https://xcimg.szwego.com/imgHD/f8c0bdc9/20260129/cmp_i1769676248643_3702_0_4.jpg","https://xcimg.szwego.com/imgHD/f8c0bdc9/20260129/cmp_i1769676257955_9195_0_5.jpg","https://xcimg.szwego.com/imgHD/f8c0bdc9/20260129/cmp_i1769676257902_5629_0_6.jpg","https://xcimg.szwego.com/imgHD/f8c0bdc9/20260129/cmp_i1769676267121_685_0_7.jpg","https://xcimg.szwego.com/imgHD/f8c0bdc9/20260129/cmp_i1769676249483_7261_0_8.jpg"],"created_at":"2026-05-20T04:01:38.783Z"},{"id":"item-41421ec8572c","sku":"_dx0x09tbaeb8zzCUVcsFav7roo4GSHP2SUCpDKw","name_en":"Saint Laurent Women Bags","name_cn":"土黄色·\n24ss 新款购物袋\n艺术与个性的独特融合,Y家总是眼光独到,深得时尚顶流的心,Y字牛皮的设计让人眼前一亮,给人一种随性慵懒、充满个性的感觉。超大容量,可以装ipad电脑,复古简约的设计,可凹造型,时髦又出片!\n款号:817602\n尺寸:38-50×33×16cm","specs":{"source":"wsxcme","sourceId":"_dx0x09tbaeb8zzCUVcsFav7roo4GSHP2SUCpDKw","sourceTagId":47002761,"sourceTagName":"圣罗兰/女包","modelNumber":"817602","rawTitle":"土黄色·\n24ss 新款购物袋\n艺术与个性的独特融合,Y家总是眼光独到,深得时尚顶流的心,Y字牛皮的设计让人眼前一亮,给人一种随性慵懒、充满个性的感觉。超大容量,可以装ipad电脑,复古简约的设计,可凹造型,时髦又出片!\n款号:817602\n尺寸:38-50×33×16cm"},"price":null,"currency":"CNY","moq":1,"category":"ysl-women-bags","status":"active","alibaba_url":null,"images":["https://xcimg.szwego.com/imgHD/f8c0bdc9/20250712/cmp_i1752301455358_3083_0_0.jpg","https://xcimg.szwego.com/imgHD/f8c0bdc9/20250712/cmp_i1752301457775_5016_0_1.jpg","https://xcimg.szwego.com/imgHD/f8c0bdc9/20250712/cmp_i1752301457779_3210_0_2.jpg","https://xcimg.szwego.com/imgHD/f8c0bdc9/20250712/cmp_i1752301457725_1111_0_3.jpg","https://xcimg.szwego.com/imgHD/f8c0bdc9/20250712/cmp_i1752301454864_2099_0_7.jpg","https://xcimg.szwego.com/imgHD/f8c0bdc9/20250712/cmp_i1752301457997_422_0_4.jpg","https://xcimg.szwego.com/imgHD/f8c0bdc9/20250712/cmp_i1752301455399_498_0_5.jpg","https://xcimg.szwego.com/imgHD/f8c0bdc9/20250712/cmp_i1752301454966_8389_0_6.jpg","https://xcimg.szwego.com/imgHD/f8c0bdc9/20250712/cmp_i1752301455009_5153_0_8.jpg"],"created_at":"2025-08-03T06:06:55.051Z"},{"id":"item-405fd70f961c","sku":"_dnTnTj4XxuMWxPL_p74_Lw6dGr_qoiOXRaeYulg","name_en":"Saint Laurent Women Bags","name_cn":"💰黑色·\n24ss 新款购物袋\n艺术与个性的独特融合,Y家总是眼光独到,深得时尚顶流的心,Y字牛皮的设计让人眼前一亮,给人一种随性慵懒、充满个性的感觉。超大容量,可以装ipad电脑,复古简约的设计,可凹造型,时髦又出片!\n款号:817602\n尺寸:38-50×33×16cm","specs":{"source":"wsxcme","sourceId":"_dnTnTj4XxuMWxPL_p74_Lw6dGr_qoiOXRaeYulg","sourceTagId":47002761,"sourceTagName":"圣罗兰/女包","modelNumber":"817602","rawTitle":"💰黑色·\n24ss 新款购物袋\n艺术与个性的独特融合,Y家总是眼光独到,深得时尚顶流的心,Y字牛皮的设计让人眼前一亮,给人一种随性慵懒、充满个性的感觉。超大容量,可以装ipad电脑,复古简约的设计,可凹造型,时髦又出片!\n款号:817602\n尺寸:38-50×33×16cm"},"price":null,"currency":"CNY","moq":1,"category":"ysl-women-bags","status":"active","alibaba_url":null,"images":["https://xcimg.szwego.com/img/f8c0bdc9/20240904/i1725441359_7981_6.jpg","https://xcimg.szwego.com/img/f8c0bdc9/20240904/i1725441359_3521_1.jpg","https://xcimg.szwego.com/img/f8c0bdc9/20240904/i1725441360_7986_8.jpg","https://xcimg.szwego.com/img/f8c0bdc9/20240904/i1725441359_6275_2.jpg","https://xcimg.szwego.com/img/f8c0bdc9/20240904/i1725441359_5572_7.jpg","https://xcimg.szwego.com/img/f8c0bdc9/20240904/i1725441359_8408_4.jpg","https://xcimg.szwego.com/img/f8c0bdc9/20240904/i1725441359_3272_0.jpg","https://xcimg.szwego.com/img/f8c0bdc9/20240904/i1725441359_4282_3.jpg","https://xcimg.szwego.com/img/f8c0bdc9/20240904/i1725441359_8663_5.jpg"],"created_at":"2025-02-09T12:26:33.658Z"},{"id":"item-3fc483abbcfd","sku":"_djDjDHTknA7vK2GtajSu5ZKZeNF5-80QVytMVIg","name_en":"Saint Laurent Women Bags","name_cn":"专柜上身图","specs":{"source":"wsxcme","sourceId":"_djDjDHTknA7vK2GtajSu5ZKZeNF5-80QVytMVIg","sourceTagId":47002761,"sourceTagName":"圣罗兰/女包","rawTitle":"专柜上身图"},"price":null,"currency":"CNY","moq":1,"category":"ysl-women-bags","status":"active","alibaba_url":null,"images":["https://xcimg.szwego.com/img/bce60362/20240423/a1713851012488_7558.jpg","https://xcimg.szwego.com/img/bce60362/20240423/a1713851012495_6113.jpg","https://xcimg.szwego.com/img/bce60362/20240423/a1713851012493_5584.jpg","https://xcimg.szwego.com/img/bce60362/20240423/a1713851012493_7487.jpg","https://xcimg.szwego.com/img/bce60362/20240423/a1713851012496_6253.jpg","https://xcimg.szwego.com/img/bce60362/20240423/a1713851012494_5315.jpg"],"created_at":"2025-07-20T03:10:54.221Z"},{"id":"item-3f82528d5935","sku":"_dD2D2Cdcf34Pq24YESfcgoDqYFaax4VoS6SuL9w","name_en":"Saint Laurent Women Bags","name_cn":"浅土黄·\nCALYPSO_小羊皮链条包\n进口意大利小羊皮制作,手感柔软细腻,经典的Y家logo、链条及扣眼五金均采用巴金哑光五金,包袋开口处折叠后使用了磁性四合扣封口,密闭性及安全性一流;包内设有一个拉链内袋可放置手机及贵重物品,除此之外无多余内袋设计,使用起来随心所欲!\n尺寸:26×14×7cm\n型号:734153","specs":{"source":"wsxcme","sourceId":"_dD2D2Cdcf34Pq24YESfcgoDqYFaax4VoS6SuL9w","sourceTagId":47002761,"sourceTagName":"圣罗兰/女包","modelNumber":"734153","dimensions":{"lengthCm":26,"heightCm":14,"widthCm":7},"rawTitle":"浅土黄·\nCALYPSO_小羊皮链条包\n进口意大利小羊皮制作,手感柔软细腻,经典的Y家logo、链条及扣眼五金均采用巴金哑光五金,包袋开口处折叠后使用了磁性四合扣封口,密闭性及安全性一流;包内设有一个拉链内袋可放置手机及贵重物品,除此之外无多余内袋设计,使用起来随心所欲!\n尺寸:26×14×7cm\n型号:734153"},"price":null,"currency":"CNY","moq":1,"category":"ysl-women-bags","status":"active","alibaba_url":null,"images":["https://xcimg.szwego.com/img/f8c0bdc9/20240904/i1725434971_4469_0.jpg","https://xcimg.szwego.com/img/f8c0bdc9/20240904/i1725434971_5556_1.jpg","https://xcimg.szwego.com/img/f8c0bdc9/20240904/i1725434971_3569_7.jpg","https://xcimg.szwego.com/img/f8c0bdc9/20240904/i1725434971_863_5.jpg","https://xcimg.szwego.com/img/f8c0bdc9/20240904/i1725434971_5820_4.jpg","https://xcimg.szwego.com/img/f8c0bdc9/20240904/i1725434971_5705_2.jpg","https://xcimg.szwego.com/img/f8c0bdc9/20240904/i1725434971_53_6.jpg","https://xcimg.szwego.com/img/f8c0bdc9/20240904/i1725434971_603_3.jpg","https://xcimg.szwego.com/img/f8c0bdc9/20240904/i1725434971_5661_8.jpg"],"created_at":"2026-05-20T04:01:39.063Z"},{"id":"item-3d8c77fc8e46","sku":"_drvrvYf7sehmWuSVN9yXb7YvGw5Fy3Dulus6M1Q","name_en":"Saint Laurent Women Bags","name_cn":"官网图_","specs":{"source":"wsxcme","sourceId":"_drvrvYf7sehmWuSVN9yXb7YvGw5Fy3Dulus6M1Q","sourceTagId":47002761,"sourceTagName":"圣罗兰/女包","rawTitle":"官网图_"},"price":null,"currency":"CNY","moq":1,"category":"ysl-women-bags","status":"active","alibaba_url":null,"images":["https://xcimg.szwego.com/20230720/i1689849264_5135_0.jpg","https://xcimg.szwego.com/20230720/i1689849264_2417_1.jpg","https://xcimg.szwego.com/20230720/i1689849264_4706_2.jpg","https://xcimg.szwego.com/20230720/i1689849264_8335_3.jpg","https://xcimg.szwego.com/20230720/i1689849264_5378_4.jpg","https://xcimg.szwego.com/20230720/i1689849264_7728_5.jpg"],"created_at":"2026-06-29T10:48:59.269Z"},{"id":"item-3d627c2e848c","sku":"_dqZqZZptmlE6JZ6KjKrEPlg4sjf8cFS9D38c_3A","name_en":"Saint Laurent Women Bags","name_cn":"【绿色】\nCALYPSO_大象纹羊皮链条包\n进口意大利小羊皮制作,手感柔软细腻,经典的Y家logo、链条及扣眼五金均采用巴金哑光五金,包袋开口处折叠后使用了磁性四合扣封口,密闭性及安全性一流;包内设有一个拉链内袋可放置手机及贵重物品,除此之外无多余内袋设计,使用起来随心所欲!\n尺寸:35.5×21×9cm\n型号:777399","specs":{"source":"wsxcme","sourceId":"_dqZqZZptmlE6JZ6KjKrEPlg4sjf8cFS9D38c_3A","sourceTagId":47002761,"sourceTagName":"圣罗兰/女包","modelNumber":"777399","dimensions":{"lengthCm":35.5,"heightCm":21,"widthCm":9},"rawTitle":"【绿色】\nCALYPSO_大象纹羊皮链条包\n进口意大利小羊皮制作,手感柔软细腻,经典的Y家logo、链条及扣眼五金均采用巴金哑光五金,包袋开口处折叠后使用了磁性四合扣封口,密闭性及安全性一流;包内设有一个拉链内袋可放置手机及贵重物品,除此之外无多余内袋设计,使用起来随心所欲!\n尺寸:35.5×21×9cm\n型号:777399"},"price":null,"currency":"CNY","moq":1,"category":"ysl-women-bags","status":"active","alibaba_url":null,"images":["https://xcimg.szwego.com/img/f8c0bdc9/20240515/i1715775624_9029_6.jpg","https://xcimg.szwego.com/img/f8c0bdc9/20240515/i1715775624_500_8.jpg","https://xcimg.szwego.com/img/f8c0bdc9/20240515/i1715775624_677_4.jpg","https://xcimg.szwego.com/img/f8c0bdc9/20240515/i1715775624_9906_3.jpg","https://xcimg.szwego.com/img/f8c0bdc9/20240515/i1715775624_9294_5.jpg","https://xcimg.szwego.com/img/f8c0bdc9/20240515/i1715775624_9368_7.jpg","https://xcimg.szwego.com/img/f8c0bdc9/20240515/i1715775624_5528_0.jpg","https://xcimg.szwego.com/img/f8c0bdc9/20240515/i1715775624_2426_2.jpg","https://xcimg.szwego.com/img/f8c0bdc9/20240515/i1715775624_1447_1.jpg"],"created_at":"2026-05-20T04:01:38.873Z"},{"id":"item-3c153928f021","sku":"_dy2y2QrZOp0DI_obyb77rhhu8znRx4_oabC-CXA","name_en":"Saint Laurent Women Bags","name_cn":"奶茶色·\nLE 37水桶包小号_\n超好看水桶包 带手提_全新包型,采用意大利小牛皮,包身轮廓简洁、立体,看上去硬挺又不会太凌厉,底部带有个金属脚钉,搭配经典标志性金属logo的插入式包扣,整体给人一种既经典优雅,又很时髦现代的独特气质!\n尺寸:17×20×13cm\n型号:749036","specs":{"source":"wsxcme","sourceId":"_dy2y2QrZOp0DI_obyb77rhhu8znRx4_oabC-CXA","sourceTagId":47002761,"sourceTagName":"圣罗兰/女包","modelNumber":"749036","dimensions":{"lengthCm":17,"heightCm":20,"widthCm":13},"rawTitle":"奶茶色·\nLE 37水桶包小号_\n超好看水桶包 带手提_全新包型,采用意大利小牛皮,包身轮廓简洁、立体,看上去硬挺又不会太凌厉,底部带有个金属脚钉,搭配经典标志性金属logo的插入式包扣,整体给人一种既经典优雅,又很时髦现代的独特气质!\n尺寸:17×20×13cm\n型号:749036"},"price":null,"currency":"CNY","moq":1,"category":"ysl-women-bags","status":"active","alibaba_url":null,"images":["https://xcimg.szwego.com/img/f8c0bdc9/20241018/i1729237541_7411_6.jpg","https://xcimg.szwego.com/img/f8c0bdc9/20241018/i1729237541_9044_7.jpg","https://xcimg.szwego.com/img/f8c0bdc9/20241018/i1729237541_7633_3.jpg","https://xcimg.szwego.com/img/f8c0bdc9/20241018/i1729237541_2892_2.jpg","https://xcimg.szwego.com/img/f8c0bdc9/20241018/i1729237541_297_0.jpg","https://xcimg.szwego.com/img/f8c0bdc9/20241018/i1729237541_1890_1.jpg","https://xcimg.szwego.com/img/f8c0bdc9/20241018/i1729237541_6667_4.jpg","https://xcimg.szwego.com/img/f8c0bdc9/20241018/i1729237541_8073_5.jpg","https://xcimg.szwego.com/img/f8c0bdc9/20241018/i1729237541_7242_8.jpg"],"created_at":"2026-06-29T10:54:44.746Z"},{"id":"item-3a82dfb84f28","sku":"_doqoqSSr52_bqjKcsyv-UE5s8lQ0SyYRjTUrzgA","name_en":"Saint Laurent Women Bags","name_cn":"金色链条拼皮肩带\n可以单肩or腋下背 很随性优雅","specs":{"source":"wsxcme","sourceId":"_doqoqSSr52_bqjKcsyv-UE5s8lQ0SyYRjTUrzgA","sourceTagId":47002761,"sourceTagName":"圣罗兰/女包","rawTitle":"金色链条拼皮肩带\n可以单肩or腋下背 很随性优雅"},"price":null,"currency":"CNY","moq":1,"category":"ysl-women-bags","status":"active","alibaba_url":null,"images":["https://xcimg.szwego.com/imgHD/f8c0bdc9/20250328/cmp_i1743147960804_6810_0_0.jpg","https://xcimg.szwego.com/imgHD/f8c0bdc9/20250328/cmp_i1743147960828_8346_0_1.jpg","https://xcimg.szwego.com/imgHD/f8c0bdc9/20250328/cmp_i1743147960785_1265_0_2.jpg","https://xcimg.szwego.com/imgHD/f8c0bdc9/20250328/cmp_i1743147960839_9597_0_3.jpg"],"created_at":"2026-05-20T04:01:39.053Z"}],"page":33,"pageSize":24,"total":888,"totalPages":37}
