{"items":[{"id":"item-e070076cfc0b","sku":"_dfbfb2PqsU2qruP3Mih_9zkgWbr0Vvu0BxqIWLw","name_en":"圣罗兰SAINT LAURENT 鱼子酱V型菱格绗缝纹路信封包,延续了Envelope的经典造型,却拥有着信封包的灵魂,实用指数马上激增!采用意大利原厂牛皮,配上精细手工精心制作,独家定制金属Y家logo彰显个性,翻盖设计确保使用的安全性,小包包大容量,包内设有18个卡片槽,两个纸币隔层,两个中央隔层,一个拉链内袋,型号:620280尺寸:22.5x14x4","name_cn":"圣罗兰SAINT LAURENT 鱼子酱V型菱格绗缝纹路信封包,延续了Envelope的经典造型,却拥有着信封包的灵魂,实用指数马上激增!采用意大利原厂牛皮,配上精细手工精心制作,独家定制金属Y家logo彰显个性,翻盖设计确保使用的安全性,小包包大容量,包内设有18个卡片槽,两个纸币隔层,两个中央隔层,一个拉链内袋,型号:620280尺寸:22.5x14x4cm","specs":{"source":"wsxcme","sourceId":"_dfbfb2PqsU2qruP3Mih_9zkgWbr0Vvu0BxqIWLw","sourceTagId":47002761,"sourceTagName":"圣罗兰/女包","modelNumber":"620280尺寸:22.5x14x4cm","dimensions":{"lengthCm":22.5,"heightCm":14,"widthCm":4},"rawTitle":"圣罗兰SAINT LAURENT 鱼子酱V型菱格绗缝纹路信封包,延续了Envelope的经典造型,却拥有着信封包的灵魂,实用指数马上激增!采用意大利原厂牛皮,配上精细手工精心制作,独家定制金属Y家logo彰显个性,翻盖设计确保使用的安全性,小包包大容量,包内设有18个卡片槽,两个纸币隔层,两个中央隔层,一个拉链内袋,型号:620280尺寸:22.5x14x4cm"},"price":null,"currency":"CNY","moq":1,"category":"ysl-women-bags","status":"active","alibaba_url":null,"images":["https://xcimg.szwego.com/20210530/i1622305824_5270_0.jpg","https://xcimg.szwego.com/20210530/i1622305824_3019_1.jpg","https://xcimg.szwego.com/20210530/i1622305824_1646_2.jpg","https://xcimg.szwego.com/20210530/i1622305824_7079_3.jpg","https://xcimg.szwego.com/20210530/i1622305824_7901_5.jpg","https://xcimg.szwego.com/20210530/i1622305824_2565_6.jpg","https://xcimg.szwego.com/20210530/i1622305824_5918_7.jpg","https://xcimg.szwego.com/20210530/i1622305824_2421_8.jpg"],"created_at":"2025-02-08T12:45:53.567Z"},{"id":"item-cd6e644aea2c","sku":"_djljlGApooaLkep9A4QPvLpd2nAsD9UXSmiglzg","name_en":"圣罗兰SAINT LAURENT 鱼子酱V型菱格绗缝纹路信封包,延续了Envelope的经典造型,却拥有着信封包的灵魂,实用指数马上激增!采用意大利原厂牛皮,配上精细手工精心制作,独家定制金属Y家logo彰显个性,翻盖设计确保使用的安全性,小包包大容量,包内设有18个卡片槽,两个纸币隔层,两个中央隔层,一个拉链内袋,型号:620280尺寸:22.5x14x4","name_cn":"圣罗兰SAINT LAURENT 鱼子酱V型菱格绗缝纹路信封包,延续了Envelope的经典造型,却拥有着信封包的灵魂,实用指数马上激增!采用意大利原厂牛皮,配上精细手工精心制作,独家定制金属Y家logo彰显个性,翻盖设计确保使用的安全性,小包包大容量,包内设有18个卡片槽,两个纸币隔层,两个中央隔层,一个拉链内袋,型号:620280尺寸:22.5x14x4cm","specs":{"source":"wsxcme","sourceId":"_djljlGApooaLkep9A4QPvLpd2nAsD9UXSmiglzg","sourceTagId":47002761,"sourceTagName":"圣罗兰/女包","modelNumber":"620280尺寸:22.5x14x4cm","dimensions":{"lengthCm":22.5,"heightCm":14,"widthCm":4},"rawTitle":"圣罗兰SAINT LAURENT 鱼子酱V型菱格绗缝纹路信封包,延续了Envelope的经典造型,却拥有着信封包的灵魂,实用指数马上激增!采用意大利原厂牛皮,配上精细手工精心制作,独家定制金属Y家logo彰显个性,翻盖设计确保使用的安全性,小包包大容量,包内设有18个卡片槽,两个纸币隔层,两个中央隔层,一个拉链内袋,型号:620280尺寸:22.5x14x4cm"},"price":null,"currency":"CNY","moq":1,"category":"ysl-women-bags","status":"active","alibaba_url":null,"images":["https://xcimg.szwego.com/20210801/i1627750683_1708_0.jpg","https://xcimg.szwego.com/20210801/i1627750683_2699_1.jpg","https://xcimg.szwego.com/20210801/i1627750683_6268_2.jpg","https://xcimg.szwego.com/20210801/i1627750683_1290_3.jpg","https://xcimg.szwego.com/20210801/i1627750683_4334_4.jpg","https://xcimg.szwego.com/20210801/i1627750683_6442_5.jpg","https://xcimg.szwego.com/20210801/i1627750683_584_6.jpg","https://xcimg.szwego.com/20210801/i1627750683_7954_7.jpg"],"created_at":"2025-02-08T12:45:53.569Z"},{"id":"item-9dc85a8845df","sku":"_dvGvGp9ZqQRa4KORatphLKPDGVIsU4eibJ1GcPQ","name_en":"圣罗兰SAINT LAURENT 鱼子酱V型菱格绗缝纹路信封包,延续了Envelope的经典造型,却拥有着信封包的灵魂,实用指数马上激增!采用意大利原厂牛皮,配上精细手工精心制作,独家定制金属Y家logo彰显个性,翻盖设计确保使用的安全性,小包包大容量,包内设有18个卡片槽,两个纸币隔层,两个中央隔层,一个拉链内袋,型号:620280尺寸:22.5x14x4","name_cn":"圣罗兰SAINT LAURENT 鱼子酱V型菱格绗缝纹路信封包,延续了Envelope的经典造型,却拥有着信封包的灵魂,实用指数马上激增!采用意大利原厂牛皮,配上精细手工精心制作,独家定制金属Y家logo彰显个性,翻盖设计确保使用的安全性,小包包大容量,包内设有18个卡片槽,两个纸币隔层,两个中央隔层,一个拉链内袋,型号:620280尺寸:22.5x14x4cm","specs":{"source":"wsxcme","sourceId":"_dvGvGp9ZqQRa4KORatphLKPDGVIsU4eibJ1GcPQ","sourceTagId":47002761,"sourceTagName":"圣罗兰/女包","modelNumber":"620280尺寸:22.5x14x4cm","dimensions":{"lengthCm":22.5,"heightCm":14,"widthCm":4},"rawTitle":"圣罗兰SAINT LAURENT 鱼子酱V型菱格绗缝纹路信封包,延续了Envelope的经典造型,却拥有着信封包的灵魂,实用指数马上激增!采用意大利原厂牛皮,配上精细手工精心制作,独家定制金属Y家logo彰显个性,翻盖设计确保使用的安全性,小包包大容量,包内设有18个卡片槽,两个纸币隔层,两个中央隔层,一个拉链内袋,型号:620280尺寸:22.5x14x4cm"},"price":null,"currency":"CNY","moq":1,"category":"ysl-women-bags","status":"active","alibaba_url":null,"images":["https://xcimg.szwego.com/20210108/i1610115820_5759_0.jpg","https://xcimg.szwego.com/20210108/i1610115820_2459_1.jpg","https://xcimg.szwego.com/20210108/i1610115820_165_2.jpg","https://xcimg.szwego.com/20210108/i1610115820_3909_3.jpg","https://xcimg.szwego.com/20210108/i1610115820_2566_4.jpg","https://xcimg.szwego.com/20210108/i1610115820_6951_5.jpg","https://xcimg.szwego.com/20210108/i1610115820_8076_6.jpg","https://xcimg.szwego.com/20210108/i1610115820_9181_7.jpg"],"created_at":"2025-02-08T12:45:53.568Z"},{"id":"item-3cbb611061a8","sku":"_dp1p1GfD1yHBmmp1pE8rxS1NLxvAuE97Tgv03mQ","name_en":"圣罗兰SAINT LAURENT 鱼子酱V型菱格绗缝纹路信封包,延续了Envelope的经典造型,却拥有着信封包的灵魂,实用指数马上激增!采用意大利原厂牛皮,配上精细手工精心制作,独家定制金属Y家logo彰显个性,翻盖设计确保使用的安全性,小包包大容量,包内设有18个卡片槽,两个纸币隔层,两个中央隔层,一个拉链内袋,型号:620280尺寸:22.5x14x4","name_cn":"圣罗兰SAINT LAURENT 鱼子酱V型菱格绗缝纹路信封包,延续了Envelope的经典造型,却拥有着信封包的灵魂,实用指数马上激增!采用意大利原厂牛皮,配上精细手工精心制作,独家定制金属Y家logo彰显个性,翻盖设计确保使用的安全性,小包包大容量,包内设有18个卡片槽,两个纸币隔层,两个中央隔层,一个拉链内袋,型号:620280尺寸:22.5x14x4cm","specs":{"source":"wsxcme","sourceId":"_dp1p1GfD1yHBmmp1pE8rxS1NLxvAuE97Tgv03mQ","sourceTagId":47002761,"sourceTagName":"圣罗兰/女包","modelNumber":"620280尺寸:22.5x14x4cm","dimensions":{"lengthCm":22.5,"heightCm":14,"widthCm":4},"rawTitle":"圣罗兰SAINT LAURENT 鱼子酱V型菱格绗缝纹路信封包,延续了Envelope的经典造型,却拥有着信封包的灵魂,实用指数马上激增!采用意大利原厂牛皮,配上精细手工精心制作,独家定制金属Y家logo彰显个性,翻盖设计确保使用的安全性,小包包大容量,包内设有18个卡片槽,两个纸币隔层,两个中央隔层,一个拉链内袋,型号:620280尺寸:22.5x14x4cm"},"price":null,"currency":"CNY","moq":1,"category":"ysl-women-bags","status":"active","alibaba_url":null,"images":["https://xcimg.szwego.com/20210108/i1610115429_9337_0.jpg","https://xcimg.szwego.com/20210108/i1610115429_7802_2.jpg","https://xcimg.szwego.com/20210108/i1610115429_4041_1.jpg","https://xcimg.szwego.com/20210108/i1610115429_8660_3.jpg","https://xcimg.szwego.com/20210108/i1610115429_3840_4.jpg","https://xcimg.szwego.com/20210108/i1610115429_4162_5.jpg","https://xcimg.szwego.com/20210108/i1610115429_8878_6.jpg","https://xcimg.szwego.com/20210108/i1610115429_5370_7.jpg"],"created_at":"2025-02-08T12:45:53.566Z"},{"id":"item-95e6a0016779","sku":"_dhXhXSK7jzphE9aOrNgMFknNImcvaOTM2E7BVrQ","name_en":"土黄荔枝纹金扣·22cm","name_cn":"土黄荔枝纹金扣·22cm\n最优雅的风琴包系列sac de jour,永远的经典不过时,精致的荔枝纹牛皮,且光泽度十足,十分贵气!肩带可以调节,长短自己选择!logo非常小,完美地诠释了低调奢华的格调~\n型号:717440\n尺寸:22x18x10.5cm","specs":{"source":"wsxcme","sourceId":"_dhXhXSK7jzphE9aOrNgMFknNImcvaOTM2E7BVrQ","sourceTagId":47002761,"sourceTagName":"圣罗兰/女包","modelNumber":"717440","dimensions":{"lengthCm":22,"heightCm":18,"widthCm":10.5},"rawTitle":"土黄荔枝纹金扣·22cm\n最优雅的风琴包系列sac de jour,永远的经典不过时,精致的荔枝纹牛皮,且光泽度十足,十分贵气!肩带可以调节,长短自己选择!logo非常小,完美地诠释了低调奢华的格调~\n型号:717440\n尺寸:22x18x10.5cm"},"price":null,"currency":"CNY","moq":1,"category":"ysl-women-bags","status":"active","alibaba_url":null,"images":["https://xcimg.szwego.com/imgHD/f8c0bdc9/20251229/cmp_i1767000115406_2890_0_0.jpg","https://xcimg.szwego.com/imgHD/f8c0bdc9/20251229/cmp_i1767000112829_7152_0_1.jpg","https://xcimg.szwego.com/imgHD/f8c0bdc9/20251229/cmp_i1767000114480_7482_0_2.jpg","https://xcimg.szwego.com/imgHD/f8c0bdc9/20251229/cmp_i1767000113312_1921_0_3.jpg","https://xcimg.szwego.com/imgHD/f8c0bdc9/20251229/cmp_i1767000112770_1148_0_8.jpg","https://xcimg.szwego.com/imgHD/f8c0bdc9/20251229/cmp_i1767000116798_3545_0_4.jpg","https://xcimg.szwego.com/imgHD/f8c0bdc9/20251229/cmp_i1767000114425_3856_0_5.jpg","https://xcimg.szwego.com/imgHD/f8c0bdc9/20251229/cmp_i1767000115404_2418_0_6.jpg","https://xcimg.szwego.com/imgHD/f8c0bdc9/20251229/cmp_i1767000116837_9457_0_7.jpg"],"created_at":"2026-06-29T10:54:45.486Z"},{"id":"item-e2a4f35620ba","sku":"_dVzVznk6qyeeIjJzehotpDHP1RpkZS57qjffzyg","name_en":"土黄荔枝纹金扣·26cm","name_cn":"土黄荔枝纹金扣·26cm\n最优雅的风琴包系列sac de jour,永远的经典不过时,精湛的荔枝纹牛皮,纹路清晰而且光泽度十足,十分贵气!26cm内配有中隔,可取出做手包,肩带可以调节,长短自己选择!logo非常小,完美地诠释了低调奢华的格调~\n型号:421863/477477\n尺寸:26x20.5x12.5cm\n(26cm内配有中隔)","specs":{"source":"wsxcme","sourceId":"_dVzVznk6qyeeIjJzehotpDHP1RpkZS57qjffzyg","sourceTagId":47002761,"sourceTagName":"圣罗兰/女包","modelNumber":"421863/477477","dimensions":{"lengthCm":26,"heightCm":20.5,"widthCm":12.5},"rawTitle":"土黄荔枝纹金扣·26cm\n最优雅的风琴包系列sac de jour,永远的经典不过时,精湛的荔枝纹牛皮,纹路清晰而且光泽度十足,十分贵气!26cm内配有中隔,可取出做手包,肩带可以调节,长短自己选择!logo非常小,完美地诠释了低调奢华的格调~\n型号:421863/477477\n尺寸:26x20.5x12.5cm\n(26cm内配有中隔)"},"price":null,"currency":"CNY","moq":1,"category":"ysl-women-bags","status":"active","alibaba_url":null,"images":["https://xcimg.szwego.com/imgHD/f8c0bdc9/20251229/cmp_i1766999883248_2253_0_0.jpg","https://xcimg.szwego.com/imgHD/f8c0bdc9/20251229/cmp_i1766999885915_6302_0_1.jpg","https://xcimg.szwego.com/imgHD/f8c0bdc9/20251229/cmp_i1766999883307_17_0_2.jpg","https://xcimg.szwego.com/imgHD/f8c0bdc9/20251229/cmp_i1766999883775_7595_0_7.jpg","https://xcimg.szwego.com/imgHD/f8c0bdc9/20251229/cmp_i1766999887240_146_0_3.jpg","https://xcimg.szwego.com/imgHD/f8c0bdc9/20251229/cmp_i1766999884831_7026_0_8.jpg","https://xcimg.szwego.com/imgHD/f8c0bdc9/20251229/cmp_i1766999887294_133_0_4.jpg","https://xcimg.szwego.com/imgHD/f8c0bdc9/20251229/cmp_i1766999883220_6740_0_5.jpg","https://xcimg.szwego.com/imgHD/f8c0bdc9/20251229/cmp_i1766999885960_7532_0_6.jpg"],"created_at":"2026-06-29T10:54:45.456Z"},{"id":"item-feb2e5c0ffc2","sku":"_dKjKjkQRhszMZ9ROGjnBqpepoiRWSMRJQGL6nJw","name_en":"细节po","name_cn":"细节po","specs":{"source":"wsxcme","sourceId":"_dKjKjkQRhszMZ9ROGjnBqpepoiRWSMRJQGL6nJw","sourceTagId":47002761,"sourceTagName":"圣罗兰/女包","rawTitle":"细节po"},"price":null,"currency":"CNY","moq":1,"category":"ysl-women-bags","status":"active","alibaba_url":null,"images":["https://xcimg.szwego.com/img/f8c0bdc9/20240515/i1715775811_5641_2.jpg","https://xcimg.szwego.com/img/f8c0bdc9/20240515/i1715775811_2186_5.jpg","https://xcimg.szwego.com/img/f8c0bdc9/20240515/i1715775811_1246_4.jpg","https://xcimg.szwego.com/img/f8c0bdc9/20240515/i1715775811_1624_0.jpg","https://xcimg.szwego.com/img/f8c0bdc9/20240515/i1715775811_2828_1.jpg","https://xcimg.szwego.com/img/f8c0bdc9/20240515/i1715775811_23_3.jpg"],"created_at":"2026-05-20T04:01:38.893Z"},{"id":"item-f03dc41504bc","sku":"_dmrmrudRTJUYxsPYA8Dc3vbFf_FEluhro78Z51A","name_en":"细节po","name_cn":"细节po","specs":{"source":"wsxcme","sourceId":"_dmrmrudRTJUYxsPYA8Dc3vbFf_FEluhro78Z51A","sourceTagId":47002761,"sourceTagName":"圣罗兰/女包","rawTitle":"细节po"},"price":null,"currency":"CNY","moq":1,"category":"ysl-women-bags","status":"active","alibaba_url":null,"images":["https://xcimg.szwego.com/imgHD/f8c0bdc9/20260129/cmp_i1769677069987_1635_0_0.jpg","https://xcimg.szwego.com/imgHD/f8c0bdc9/20260129/cmp_i1769677077117_7737_0_1.jpg","https://xcimg.szwego.com/imgHD/f8c0bdc9/20260129/cmp_i1769677077039_1471_0_2.jpg","https://xcimg.szwego.com/imgHD/f8c0bdc9/20260129/cmp_i1769677070986_2557_0_3.jpg","https://xcimg.szwego.com/imgHD/f8c0bdc9/20260129/cmp_i1769677071468_2748_0_4.jpg"],"created_at":"2026-05-20T04:01:38.853Z"},{"id":"item-e317c91a3158","sku":"_doPoPpR4oXrJSoz-SgEQsUjRh5wPG2VapLJrOqQ","name_en":"细节po","name_cn":"细节po","specs":{"source":"wsxcme","sourceId":"_doPoPpR4oXrJSoz-SgEQsUjRh5wPG2VapLJrOqQ","sourceTagId":47002761,"sourceTagName":"圣罗兰/女包","rawTitle":"细节po"},"price":null,"currency":"CNY","moq":1,"category":"ysl-women-bags","status":"active","alibaba_url":null,"images":["https://xcimg.szwego.com/imgHD/f8c0bdc9/20260622/cmp_i1782121272490_5540_0_0.jpg","https://xcimg.szwego.com/imgHD/f8c0bdc9/20260622/cmp_i1782121275090_7325_0_1.jpg","https://xcimg.szwego.com/imgHD/f8c0bdc9/20260622/cmp_i1782121272059_6438_0_2.jpg","https://xcimg.szwego.com/imgHD/f8c0bdc9/20260622/cmp_i1782121273741_6097_0_3.jpg","https://xcimg.szwego.com/imgHD/f8c0bdc9/20260622/cmp_i1782121279267_469_0_4.jpg","https://xcimg.szwego.com/imgHD/f8c0bdc9/20260622/cmp_i1782121273612_6744_0_5.jpg","https://xcimg.szwego.com/imgHD/f8c0bdc9/20260622/cmp_i1782121272473_9590_0_6.jpg","https://xcimg.szwego.com/imgHD/f8c0bdc9/20260622/cmp_i1782121279410_8277_0_7.jpg","https://xcimg.szwego.com/imgHD/f8c0bdc9/20260622/cmp_i1782121279089_9414_0_8.jpg"],"created_at":"2026-06-29T10:48:59.449Z"},{"id":"item-e07b67bdf9ea","sku":"_dk0k0YbXQ-wC70sppgXIz6e6jpIxlFHAgYoCWwA","name_en":"细节po","name_cn":"细节po","specs":{"source":"wsxcme","sourceId":"_dk0k0YbXQ-wC70sppgXIz6e6jpIxlFHAgYoCWwA","sourceTagId":47002761,"sourceTagName":"圣罗兰/女包","rawTitle":"细节po"},"price":null,"currency":"CNY","moq":1,"category":"ysl-women-bags","status":"active","alibaba_url":null,"images":["https://xcimg.szwego.com/imgHD/f8c0bdc9/20250328/cmp_i1743146383735_9251_0_0.jpg","https://xcimg.szwego.com/imgHD/f8c0bdc9/20250328/cmp_i1743146386571_7425_0_1.jpg","https://xcimg.szwego.com/imgHD/f8c0bdc9/20250328/cmp_i1743146386527_701_0_2.jpg","https://xcimg.szwego.com/imgHD/f8c0bdc9/20250328/cmp_i1743146384136_3323_0_3.jpg","https://xcimg.szwego.com/imgHD/f8c0bdc9/20250328/cmp_i1743146384195_3079_0_4.jpg","https://xcimg.szwego.com/imgHD/f8c0bdc9/20250328/cmp_i1743146384253_4815_0_5.jpg","https://xcimg.szwego.com/imgHD/f8c0bdc9/20250328/cmp_i1743146384280_1442_0_6.jpg","https://xcimg.szwego.com/imgHD/f8c0bdc9/20250328/cmp_i1743146386602_1284_0_7.jpg"],"created_at":"2026-06-29T10:48:59.149Z"},{"id":"item-df0f62d29516","sku":"_dAEAEcygIYjBJ1tO3eUjNzBgEfzX9ljCw5gcyyw","name_en":"细节po","name_cn":"细节po","specs":{"source":"wsxcme","sourceId":"_dAEAEcygIYjBJ1tO3eUjNzBgEfzX9ljCw5gcyyw","sourceTagId":47002761,"sourceTagName":"圣罗兰/女包","rawTitle":"细节po"},"price":null,"currency":"CNY","moq":1,"category":"ysl-women-bags","status":"active","alibaba_url":null,"images":["https://xcimg.szwego.com/img/f8c0bdc9/20240811/i1723372828_3951_0.jpg","https://xcimg.szwego.com/img/f8c0bdc9/20240811/i1723372828_7056_0.jpg","https://xcimg.szwego.com/img/f8c0bdc9/20240811/i1723372828_3172_0.jpg","https://xcimg.szwego.com/img/f8c0bdc9/20240811/i1723372828_5720_0.jpg","https://xcimg.szwego.com/img/f8c0bdc9/20240811/i1723372828_880_0.jpg","https://xcimg.szwego.com/img/f8c0bdc9/20240811/i1723372828_1035_0.jpg"],"created_at":"2026-05-20T04:01:39.153Z"},{"id":"item-df0b30699acc","sku":"_dsdsdRQOUjeJ2Sil_AGS_kVuMlanYLNYK-jNKgg","name_en":"细节po","name_cn":"细节po","specs":{"source":"wsxcme","sourceId":"_dsdsdRQOUjeJ2Sil_AGS_kVuMlanYLNYK-jNKgg","sourceTagId":47002761,"sourceTagName":"圣罗兰/女包","rawTitle":"细节po"},"price":null,"currency":"CNY","moq":1,"category":"ysl-women-bags","status":"active","alibaba_url":null,"images":["https://xcimg.szwego.com/imgHD/f8c0bdc9/20260129/cmp_i1769676741145_4515_0_0.jpg","https://xcimg.szwego.com/imgHD/f8c0bdc9/20260129/cmp_i1769676742536_7623_0_1.jpg","https://xcimg.szwego.com/imgHD/f8c0bdc9/20260129/cmp_i1769676748979_2237_0_2.jpg","https://xcimg.szwego.com/imgHD/f8c0bdc9/20260129/cmp_i1769676748755_4854_0_3.jpg","https://xcimg.szwego.com/imgHD/f8c0bdc9/20260129/cmp_i1769676741160_3005_0_4.jpg"],"created_at":"2026-05-20T04:01:38.823Z"},{"id":"item-be5453e38ffe","sku":"_dmSmSAxndrRuMjCJw5arP1njFfZzh-cENi-A1Wg","name_en":"细节po","name_cn":"细节po","specs":{"source":"wsxcme","sourceId":"_dmSmSAxndrRuMjCJw5arP1njFfZzh-cENi-A1Wg","sourceTagId":47002761,"sourceTagName":"圣罗兰/女包","rawTitle":"细节po"},"price":null,"currency":"CNY","moq":1,"category":"ysl-women-bags","status":"active","alibaba_url":null,"images":["https://xcimg.szwego.com/imgHD/f8c0bdc9/20260420/cmp_i1776670985845_753_0_0.jpg","https://xcimg.szwego.com/imgHD/f8c0bdc9/20260420/cmp_i1776670985640_6089_0_1.jpg","https://xcimg.szwego.com/imgHD/f8c0bdc9/20260420/cmp_i1776670987446_923_0_2.jpg","https://xcimg.szwego.com/imgHD/f8c0bdc9/20260420/cmp_i1776670985569_1723_0_3.jpg","https://xcimg.szwego.com/imgHD/f8c0bdc9/20260420/cmp_i1776670984273_5961_0_4.jpg","https://xcimg.szwego.com/imgHD/f8c0bdc9/20260420/cmp_i1776670988243_3274_0_5.jpg","https://xcimg.szwego.com/imgHD/f8c0bdc9/20260420/cmp_i1776670987440_8568_0_6.jpg","https://xcimg.szwego.com/imgHD/f8c0bdc9/20260420/cmp_i1776670984505_8867_0_7.jpg"],"created_at":"2026-06-29T10:48:58.869Z"},{"id":"item-bb66478f5141","sku":"_d2S2SVcKfnmX5kKsnHw40XQTg_pcXBnd83k6rgA","name_en":"细节po","name_cn":"细节po","specs":{"source":"wsxcme","sourceId":"_d2S2SVcKfnmX5kKsnHw40XQTg_pcXBnd83k6rgA","sourceTagId":47002761,"sourceTagName":"圣罗兰/女包","rawTitle":"细节po"},"price":null,"currency":"CNY","moq":1,"category":"ysl-women-bags","status":"active","alibaba_url":null,"images":["https://xcimg.szwego.com/imgHD/f8c0bdc9/20250328/cmp_i1743146672079_1391_0_0.jpg","https://xcimg.szwego.com/imgHD/f8c0bdc9/20250328/cmp_i1743146672020_7549_0_1.jpg","https://xcimg.szwego.com/imgHD/f8c0bdc9/20250328/cmp_i1743146675666_6512_0_2.jpg","https://xcimg.szwego.com/imgHD/f8c0bdc9/20250328/cmp_i1743146672848_6631_0_3.jpg","https://xcimg.szwego.com/imgHD/f8c0bdc9/20250328/cmp_i1743146675589_3018_0_4.jpg","https://xcimg.szwego.com/imgHD/f8c0bdc9/20250328/cmp_i1743146672342_2763_0_5.jpg","https://xcimg.szwego.com/imgHD/f8c0bdc9/20250328/cmp_i1743146672056_9269_0_6.jpg","https://xcimg.szwego.com/imgHD/f8c0bdc9/20250328/cmp_i1743146675720_6493_0_7.jpg"],"created_at":"2026-06-29T10:48:59.249Z"},{"id":"item-b3725660ea16","sku":"_dwFwFk5AsbXCxz9ZnS21wkrjx1j9G06yaNN8o6Q","name_en":"细节po","name_cn":"细节po","specs":{"source":"wsxcme","sourceId":"_dwFwFk5AsbXCxz9ZnS21wkrjx1j9G06yaNN8o6Q","sourceTagId":47002761,"sourceTagName":"圣罗兰/女包","rawTitle":"细节po"},"price":null,"currency":"CNY","moq":1,"category":"ysl-women-bags","status":"active","alibaba_url":null,"images":["https://xcimg.szwego.com/imgHD/f8c0bdc9/20260622/cmp_i1782118406970_3461_0_0.jpg","https://xcimg.szwego.com/imgHD/f8c0bdc9/20260622/cmp_i1782118408236_4308_0_1.jpg","https://xcimg.szwego.com/imgHD/f8c0bdc9/20260622/cmp_i1782118408207_7238_0_2.jpg","https://xcimg.szwego.com/imgHD/f8c0bdc9/20260622/cmp_i1782118404497_528_0_8.jpg","https://xcimg.szwego.com/imgHD/f8c0bdc9/20260622/cmp_i1782118408303_5761_0_3.jpg","https://xcimg.szwego.com/imgHD/f8c0bdc9/20260622/cmp_i1782118402778_2425_0_4.jpg","https://xcimg.szwego.com/imgHD/f8c0bdc9/20260622/cmp_i1782118404312_7892_0_5.jpg","https://xcimg.szwego.com/imgHD/f8c0bdc9/20260622/cmp_i1782118404436_7797_0_6.jpg","https://xcimg.szwego.com/imgHD/f8c0bdc9/20260622/cmp_i1782118404292_6189_0_7.jpg"],"created_at":"2026-06-29T10:48:59.359Z"},{"id":"item-b292cf8befe9","sku":"_dIjIjf4Fq7qw5QbU2kMFqquJjkCllBqdLEaKDYw","name_en":"细节po","name_cn":"细节po","specs":{"source":"wsxcme","sourceId":"_dIjIjf4Fq7qw5QbU2kMFqquJjkCllBqdLEaKDYw","sourceTagId":47002761,"sourceTagName":"圣罗兰/女包","rawTitle":"细节po"},"price":null,"currency":"CNY","moq":1,"category":"ysl-women-bags","status":"active","alibaba_url":null,"images":["https://xcimg.szwego.com/img/f8c0bdc9/20240811/i1723372955_6153_0.jpg","https://xcimg.szwego.com/img/f8c0bdc9/20240811/i1723372955_3662_3.jpg","https://xcimg.szwego.com/img/f8c0bdc9/20240811/i1723372955_8380_2.jpg","https://xcimg.szwego.com/img/f8c0bdc9/20240811/i1723372955_537_4.jpg","https://xcimg.szwego.com/img/f8c0bdc9/20240811/i1723372955_6342_5.jpg","https://xcimg.szwego.com/img/f8c0bdc9/20240811/i1723372955_310_1.jpg"],"created_at":"2026-05-20T04:01:39.233Z"},{"id":"item-abf8e124f459","sku":"_dXUXUEg3SOWixYmacdESCE031ebEZZWZZcTCpeA","name_en":"细节po","name_cn":"细节po","specs":{"source":"wsxcme","sourceId":"_dXUXUEg3SOWixYmacdESCE031ebEZZWZZcTCpeA","sourceTagId":47002761,"sourceTagName":"圣罗兰/女包","rawTitle":"细节po"},"price":null,"currency":"CNY","moq":1,"category":"ysl-women-bags","status":"active","alibaba_url":null,"images":["https://xcimg.szwego.com/imgHD/f8c0bdc9/20260622/cmp_i1782122775831_9241_0_0.jpg","https://xcimg.szwego.com/imgHD/f8c0bdc9/20260622/cmp_i1782122778431_2910_0_1.jpg","https://xcimg.szwego.com/imgHD/f8c0bdc9/20260622/cmp_i1782122777062_6509_0_2.jpg","https://xcimg.szwego.com/imgHD/f8c0bdc9/20260622/cmp_i1782122775831_8745_0_3.jpg","https://xcimg.szwego.com/imgHD/f8c0bdc9/20260622/cmp_i1782122778324_1366_0_4.jpg","https://xcimg.szwego.com/imgHD/f8c0bdc9/20260622/cmp_i1782122775831_3007_0_5.jpg","https://xcimg.szwego.com/imgHD/f8c0bdc9/20260622/cmp_i1782122779438_5044_0_6.jpg","https://xcimg.szwego.com/imgHD/f8c0bdc9/20260622/cmp_i1782122776557_2193_0_7.jpg"],"created_at":"2026-06-29T10:48:59.489Z"},{"id":"item-9c276c2e94fc","sku":"_dfTfT4ONUeIU40oI4YMRoyffFCv0NbhA6XU3VJg","name_en":"细节po","name_cn":"细节po","specs":{"source":"wsxcme","sourceId":"_dfTfT4ONUeIU40oI4YMRoyffFCv0NbhA6XU3VJg","sourceTagId":47002761,"sourceTagName":"圣罗兰/女包","rawTitle":"细节po"},"price":null,"currency":"CNY","moq":1,"category":"ysl-women-bags","status":"active","alibaba_url":null,"images":["https://xcimg.szwego.com/imgHD/f8c0bdc9/20260129/cmp_i1769673351925_259_0_0.jpg","https://xcimg.szwego.com/imgHD/f8c0bdc9/20260129/cmp_i1769673362059_578_0_1.jpg","https://xcimg.szwego.com/imgHD/f8c0bdc9/20260129/cmp_i1769673362309_3183_0_2.jpg","https://xcimg.szwego.com/imgHD/f8c0bdc9/20260129/cmp_i1769673362111_8870_0_3.jpg","https://xcimg.szwego.com/imgHD/f8c0bdc9/20260129/cmp_i1769673362191_6853_0_4.jpg","https://xcimg.szwego.com/imgHD/f8c0bdc9/20260129/cmp_i1769673353941_1883_0_5.jpg","https://xcimg.szwego.com/imgHD/f8c0bdc9/20260129/cmp_i1769673354123_447_0_6.jpg","https://xcimg.szwego.com/imgHD/f8c0bdc9/20260129/cmp_i1769673354073_2998_0_7.jpg","https://xcimg.szwego.com/imgHD/f8c0bdc9/20260129/cmp_i1769673351966_2336_0_8.jpg"],"created_at":"2026-06-29T10:48:58.709Z"},{"id":"item-998d2a50738f","sku":"_dMEMEGeln1N3ueoAdk5--M_xfeo350aIxBwdnnw","name_en":"细节po","name_cn":"细节po","specs":{"source":"wsxcme","sourceId":"_dMEMEGeln1N3ueoAdk5--M_xfeo350aIxBwdnnw","sourceTagId":47002761,"sourceTagName":"圣罗兰/女包","rawTitle":"细节po"},"price":null,"currency":"CNY","moq":1,"category":"ysl-women-bags","status":"active","alibaba_url":null,"images":["https://xcimg.szwego.com/imgHD/f8c0bdc9/20260622/cmp_i1782119392389_3872_0_0.jpg","https://xcimg.szwego.com/imgHD/f8c0bdc9/20260622/cmp_i1782119395073_7185_0_1.jpg","https://xcimg.szwego.com/imgHD/f8c0bdc9/20260622/cmp_i1782119393629_2705_0_8.jpg","https://xcimg.szwego.com/imgHD/f8c0bdc9/20260622/cmp_i1782119396215_184_0_2.jpg","https://xcimg.szwego.com/imgHD/f8c0bdc9/20260622/cmp_i1782119392428_3455_0_3.jpg","https://xcimg.szwego.com/imgHD/f8c0bdc9/20260622/cmp_i1782119395000_1198_0_4.jpg","https://xcimg.szwego.com/imgHD/f8c0bdc9/20260622/cmp_i1782119391771_5905_0_5.jpg","https://xcimg.szwego.com/imgHD/f8c0bdc9/20260622/cmp_i1782119391745_2935_0_6.jpg","https://xcimg.szwego.com/imgHD/f8c0bdc9/20260622/cmp_i1782119396032_243_0_7.jpg"],"created_at":"2026-06-29T10:48:59.409Z"},{"id":"item-90ca91096193","sku":"_dHVHVAVMn1pNW0qwF-S9xwQnlwC3EwPc96HE4dA","name_en":"细节po","name_cn":"细节po","specs":{"source":"wsxcme","sourceId":"_dHVHVAVMn1pNW0qwF-S9xwQnlwC3EwPc96HE4dA","sourceTagId":47002761,"sourceTagName":"圣罗兰/女包","rawTitle":"细节po"},"price":null,"currency":"CNY","moq":1,"category":"ysl-women-bags","status":"active","alibaba_url":null,"images":["https://xcimg.szwego.com/img/f8c0bdc9/20240401/i1711964890_6001_4.jpg","https://xcimg.szwego.com/img/f8c0bdc9/20240401/i1711964890_5483_3.jpg","https://xcimg.szwego.com/img/f8c0bdc9/20240401/i1711964890_8159_2.jpg","https://xcimg.szwego.com/img/f8c0bdc9/20240401/i1711964889_6310_0.jpg","https://xcimg.szwego.com/img/f8c0bdc9/20240401/i1711964890_2643_1.jpg"],"created_at":"2026-05-20T04:01:39.123Z"},{"id":"item-87bab5ecea1b","sku":"_dgwgwATsrTK3xDWbIMIf-gwOO5Se2SPjOn4swZA","name_en":"细节po","name_cn":"细节po","specs":{"source":"wsxcme","sourceId":"_dgwgwATsrTK3xDWbIMIf-gwOO5Se2SPjOn4swZA","sourceTagId":47002761,"sourceTagName":"圣罗兰/女包","rawTitle":"细节po"},"price":null,"currency":"CNY","moq":1,"category":"ysl-women-bags","status":"active","alibaba_url":null,"images":["https://xcimg.szwego.com/imgHD/f8c0bdc9/20251229/cmp_i1766998203047_8018_0_0.jpg","https://xcimg.szwego.com/imgHD/f8c0bdc9/20251229/cmp_i1766998199385_824_0_1.jpg","https://xcimg.szwego.com/imgHD/f8c0bdc9/20251229/cmp_i1766998199559_7240_0_2.jpg","https://xcimg.szwego.com/imgHD/f8c0bdc9/20251229/cmp_i1766998203281_8816_0_3.jpg","https://xcimg.szwego.com/imgHD/f8c0bdc9/20251229/cmp_i1766998202949_2691_0_4.jpg","https://xcimg.szwego.com/imgHD/f8c0bdc9/20251229/cmp_i1766998200784_1528_0_5.jpg","https://xcimg.szwego.com/imgHD/f8c0bdc9/20251229/cmp_i1766998199341_677_0_6.jpg","https://xcimg.szwego.com/imgHD/f8c0bdc9/20251229/cmp_i1766998200625_4354_0_7.jpg"],"created_at":"2026-06-29T10:54:45.416Z"},{"id":"item-82e9cbfefea2","sku":"_djrjrlKaHNd8we42NkBhuaOfyFk0oJbSS6nnh7g","name_en":"细节po","name_cn":"细节po","specs":{"source":"wsxcme","sourceId":"_djrjrlKaHNd8we42NkBhuaOfyFk0oJbSS6nnh7g","sourceTagId":47002761,"sourceTagName":"圣罗兰/女包","rawTitle":"细节po"},"price":null,"currency":"CNY","moq":1,"category":"ysl-women-bags","status":"active","alibaba_url":null,"images":["https://xcimg.szwego.com/imgHD/f8c0bdc9/20251229/cmp_i1766999922658_8517_0_0.jpg","https://xcimg.szwego.com/imgHD/f8c0bdc9/20251229/cmp_i1766999922709_4811_0_1.jpg","https://xcimg.szwego.com/imgHD/f8c0bdc9/20251229/cmp_i1766999924229_4009_0_2.jpg","https://xcimg.szwego.com/imgHD/f8c0bdc9/20251229/cmp_i1766999924068_3709_0_3.jpg","https://xcimg.szwego.com/imgHD/f8c0bdc9/20251229/cmp_i1766999924315_3848_0_4.jpg"],"created_at":"2026-06-29T10:54:45.466Z"},{"id":"item-820105dec0e9","sku":"_daRaRxkvCc0fnqmNCrTOHL1yOLgCs7Ys1udSwCw","name_en":"细节po","name_cn":"细节po","specs":{"source":"wsxcme","sourceId":"_daRaRxkvCc0fnqmNCrTOHL1yOLgCs7Ys1udSwCw","sourceTagId":47002761,"sourceTagName":"圣罗兰/女包","rawTitle":"细节po"},"price":null,"currency":"CNY","moq":1,"category":"ysl-women-bags","status":"active","alibaba_url":null,"images":["https://xcimg.szwego.com/img/f8c0bdc9/20250107/i1736242268005_6281_0_0.jpg","https://xcimg.szwego.com/img/f8c0bdc9/20250107/i1736242267852_9386_0_1.jpg","https://xcimg.szwego.com/img/f8c0bdc9/20250107/i1736242268139_8367_0_2.jpg","https://xcimg.szwego.com/img/f8c0bdc9/20250107/i1736242268069_9316_0_3.jpg","https://xcimg.szwego.com/img/f8c0bdc9/20250107/i1736242267928_4183_0_4.jpg"],"created_at":"2026-06-29T10:48:59.119Z"},{"id":"item-7982cc835af3","sku":"_dtdtdh2jm5BTBVVB8gdZn5YDoru0OuMHekQIYNA","name_en":"细节po","name_cn":"细节po","specs":{"source":"wsxcme","sourceId":"_dtdtdh2jm5BTBVVB8gdZn5YDoru0OuMHekQIYNA","sourceTagId":47002761,"sourceTagName":"圣罗兰/女包","rawTitle":"细节po"},"price":null,"currency":"CNY","moq":1,"category":"ysl-women-bags","status":"active","alibaba_url":null,"images":["https://xcimg.szwego.com/img/f8c0bdc9/20231225/i1703504866_1687_0.jpg","https://xcimg.szwego.com/img/f8c0bdc9/20231225/i1703504866_1096_1.jpg","https://xcimg.szwego.com/img/f8c0bdc9/20231225/i1703504866_9253_2.jpg","https://xcimg.szwego.com/img/f8c0bdc9/20231225/i1703504866_2613_3.jpg","https://xcimg.szwego.com/img/f8c0bdc9/20231225/i1703504866_4846_4.jpg","https://xcimg.szwego.com/img/f8c0bdc9/20231225/i1703504866_4819_5.jpg","https://xcimg.szwego.com/img/f8c0bdc9/20231225/i1703504866_2767_6.jpg","https://xcimg.szwego.com/img/f8c0bdc9/20231225/i1703504866_3253_7.jpg"],"created_at":"2026-05-20T04:01:38.953Z"}],"page":15,"pageSize":24,"total":888,"totalPages":37}
