{"items":[{"id":"item-2588287dddb4","sku":"_dDrDrBX1N1PvqvXKDzZSIAj_hFJFZo_f5xnyAjg","name_en":"Saint Laurent Women Bags","name_cn":"【原厂皮】🌈精品专供🔥黑羊皮/金\nCALYPSO 简约而不失优雅圣罗兰的新标志性手袋!浓郁的法式风情!古铜色配件按扣开合、一个内部拉链口袋。包型由细粒度进口羊皮制成、有衬垫绗缝、手袋柔软宽敞,是日常使用的理想尺寸、包袋简约大气略带复古感!是独立成功女姓的首选包包👍\n型号:777399【原厂皮】\n尺寸:37x21x10cm","specs":{"source":"wsxcme","sourceId":"_dDrDrBX1N1PvqvXKDzZSIAj_hFJFZo_f5xnyAjg","sourceTagId":47002761,"sourceTagName":"圣罗兰/女包","modelNumber":"777399【原厂皮】","dimensions":{"lengthCm":37,"heightCm":21,"widthCm":10},"rawTitle":"【原厂皮】🌈精品专供🔥黑羊皮/金\nCALYPSO 简约而不失优雅圣罗兰的新标志性手袋!浓郁的法式风情!古铜色配件按扣开合、一个内部拉链口袋。包型由细粒度进口羊皮制成、有衬垫绗缝、手袋柔软宽敞,是日常使用的理想尺寸、包袋简约大气略带复古感!是独立成功女姓的首选包包👍\n型号:777399【原厂皮】\n尺寸:37x21x10cm"},"price":null,"currency":"CNY","moq":1,"category":"ysl-women-bags","status":"active","alibaba_url":null,"images":["https://xcimg.szwego.com/img/fce24e4d/20240521/i1716295419_3942_3.jpg","https://xcimg.szwego.com/img/fce24e4d/20240521/i1716295419_6989_5.jpg","https://xcimg.szwego.com/img/fce24e4d/20240521/i1716295419_4260_0.jpg","https://xcimg.szwego.com/img/fce24e4d/20240521/i1716295419_5073_1.jpg","https://xcimg.szwego.com/img/fce24e4d/20240521/i1716295419_1730_6.jpg","https://xcimg.szwego.com/img/fce24e4d/20240521/i1716295419_8787_4.jpg","https://xcimg.szwego.com/img/fce24e4d/20240521/i1716295419_8432_7.jpg","https://xcimg.szwego.com/img/fce24e4d/20240521/i1716295419_7738_2.jpg","https://xcimg.szwego.com/img/fce24e4d/20240521/i1716295419_1757_8.jpg"],"created_at":"2025-02-08T12:46:07.485Z"},{"id":"item-223996cdc49f","sku":"_dnKnKGFQc2l8OIhneidB7YPteNOkvzS4ycNNWLg","name_en":"Saint Laurent Women Bags","name_cn":"格纹链条包 复古潮流","specs":{"source":"wsxcme","sourceId":"_dnKnKGFQc2l8OIhneidB7YPteNOkvzS4ycNNWLg","sourceTagId":47002761,"sourceTagName":"圣罗兰/女包","rawTitle":"格纹链条包 复古潮流"},"price":null,"currency":"CNY","moq":1,"category":"ysl-women-bags","status":"active","alibaba_url":null,"images":["https://xcimg.szwego.com/20230720/i1689849940_803_0.jpg","https://xcimg.szwego.com/20230720/i1689849940_6989_1.jpg","https://xcimg.szwego.com/20230720/i1689849940_7587_2.jpg","https://xcimg.szwego.com/20230720/i1689849940_6932_3.jpg"],"created_at":"2026-06-29T10:48:59.179Z"},{"id":"item-212806cf9308","sku":"_dfBfBNG1C6zbwmbZCjwl1KC3TSfRyhRNemEthBw","name_en":"Saint Laurent Women Bags","name_cn":"803541 细节实拍","specs":{"source":"wsxcme","sourceId":"_dfBfBNG1C6zbwmbZCjwl1KC3TSfRyhRNemEthBw","sourceTagId":47002761,"sourceTagName":"圣罗兰/女包","rawTitle":"803541 细节实拍"},"price":null,"currency":"CNY","moq":1,"category":"ysl-women-bags","status":"active","alibaba_url":null,"images":["https://xcimg.szwego.com/img/ffb49dcd/20250425/i1745577888624_1614_0_3.jpg","https://xcimg.szwego.com/img/ffb49dcd/20250425/i1745577886746_7880_0_4.jpg","https://xcimg.szwego.com/img/ffb49dcd/20250425/i1745577899775_6296_0_2.jpg","https://xcimg.szwego.com/img/ffb49dcd/20250425/i1745577899098_9057_0_3.jpg","https://xcimg.szwego.com/img/ffb49dcd/20250425/i1745577899163_2819_0_4.jpg","https://xcimg.szwego.com/img/ffb49dcd/20250425/i1745577899199_3061_0_5.jpg","https://xcimg.szwego.com/img/ffb49dcd/20250425/i1745577888427_6010_0_8.jpg","https://xcimg.szwego.com/img/ffb49dcd/20250425/i1745577888760_3919_0_0.jpg"],"created_at":"2026-05-20T04:01:38.753Z"},{"id":"item-2035da043724","sku":"_dqlqlUtpLETN00fgnB-t-S61OmNch7ceMd0RCGg","name_en":"Saint Laurent Women Bags","name_cn":"土黄牛皮配棉麻·\n24ss 新款购物袋\n艺术与个性的独特融合,Y家总是眼光独到,深得时尚顶流的心,Y字牛皮的设计让人眼前一亮,给人一种随性慵懒、充满个性的感觉。超大容量,可以装ipad电脑,复古简约的设计,可凹造型,时髦又出片!\n款号:817602\n尺寸:38-50×33×16cm","specs":{"source":"wsxcme","sourceId":"_dqlqlUtpLETN00fgnB-t-S61OmNch7ceMd0RCGg","sourceTagId":47002761,"sourceTagName":"圣罗兰/女包","modelNumber":"817602","rawTitle":"土黄牛皮配棉麻·\n24ss 新款购物袋\n艺术与个性的独特融合,Y家总是眼光独到,深得时尚顶流的心,Y字牛皮的设计让人眼前一亮,给人一种随性慵懒、充满个性的感觉。超大容量,可以装ipad电脑,复古简约的设计,可凹造型,时髦又出片!\n款号:817602\n尺寸:38-50×33×16cm"},"price":null,"currency":"CNY","moq":1,"category":"ysl-women-bags","status":"active","alibaba_url":null,"images":["https://xcimg.szwego.com/imgHD/f8c0bdc9/20250605/cmp_i1749114614818_8910_0_0.jpg","https://xcimg.szwego.com/imgHD/f8c0bdc9/20250605/cmp_i1749114617370_6960_0_1.jpg","https://xcimg.szwego.com/imgHD/f8c0bdc9/20250605/cmp_i1749114617650_173_0_2.jpg","https://xcimg.szwego.com/imgHD/f8c0bdc9/20250605/cmp_i1749114617642_3007_0_3.jpg","https://xcimg.szwego.com/imgHD/f8c0bdc9/20250605/cmp_i1749114615261_6866_0_4.jpg","https://xcimg.szwego.com/imgHD/f8c0bdc9/20250605/cmp_i1749114618022_734_0_5.jpg","https://xcimg.szwego.com/imgHD/f8c0bdc9/20250605/cmp_i1749114615195_2790_0_8.jpg","https://xcimg.szwego.com/imgHD/f8c0bdc9/20250605/cmp_i1749114614863_408_0_6.jpg","https://xcimg.szwego.com/imgHD/f8c0bdc9/20250605/cmp_i1749114614819_3708_0_7.jpg"],"created_at":"2025-08-03T06:08:58.466Z"},{"id":"item-1ec8986b6d41","sku":"_dvNvNRp0sDB53oeFBl-_kDxkxsqFm8BYeFPXreQ","name_en":"Saint Laurent Women Bags","name_cn":"独特的风琴褶设计 为包身增添了层次感和立体感\n使其在视觉上更具辨识度","specs":{"source":"wsxcme","sourceId":"_dvNvNRp0sDB53oeFBl-_kDxkxsqFm8BYeFPXreQ","sourceTagId":47002761,"sourceTagName":"圣罗兰/女包","rawTitle":"独特的风琴褶设计 为包身增添了层次感和立体感\n使其在视觉上更具辨识度"},"price":null,"currency":"CNY","moq":1,"category":"ysl-women-bags","status":"active","alibaba_url":null,"images":["https://xcimg.szwego.com/imgHD/f8c0bdc9/20251209/cmp_i1765274701788_688_0_0.jpg","https://xcimg.szwego.com/imgHD/f8c0bdc9/20251209/cmp_i1765274701771_4449_0_1.jpg","https://xcimg.szwego.com/imgHD/f8c0bdc9/20251209/cmp_i1765274701790_1574_0_2.jpg","https://xcimg.szwego.com/imgHD/f8c0bdc9/20251209/cmp_i1765274701775_9413_0_3.jpg"],"created_at":"2026-06-29T10:54:45.576Z"},{"id":"item-1dd37f3ce594","sku":"_db7b7wpnCsxeVi9rSuINn7Hn_jb_4yjl-gmstnw","name_en":"Saint Laurent Women Bags","name_cn":"配备了手提跟斜挎肩带 方便携带\n简洁大方 满足不同场合的需求","specs":{"source":"wsxcme","sourceId":"_db7b7wpnCsxeVi9rSuINn7Hn_jb_4yjl-gmstnw","sourceTagId":47002761,"sourceTagName":"圣罗兰/女包","rawTitle":"配备了手提跟斜挎肩带 方便携带\n简洁大方 满足不同场合的需求"},"price":null,"currency":"CNY","moq":1,"category":"ysl-women-bags","status":"active","alibaba_url":null,"images":["https://xcimg.szwego.com/imgHD/f8c0bdc9/20251209/cmp_i1765274896024_8328_0_0.jpg","https://xcimg.szwego.com/imgHD/f8c0bdc9/20251209/cmp_i1765274896001_8649_0_1.jpg","https://xcimg.szwego.com/imgHD/f8c0bdc9/20251209/cmp_i1765274896018_9931_0_2.jpg","https://xcimg.szwego.com/imgHD/f8c0bdc9/20251209/cmp_i1765274895968_68_0_3.jpg"],"created_at":"2026-06-29T10:48:58.519Z"},{"id":"item-1d54c987fbb2","sku":"_dkekem8_Raw87ozF65ObXbO7tqZ5vHeV7x7fGsw","name_en":"Saint Laurent Women Bags","name_cn":"官网图_","specs":{"source":"wsxcme","sourceId":"_dkekem8_Raw87ozF65ObXbO7tqZ5vHeV7x7fGsw","sourceTagId":47002761,"sourceTagName":"圣罗兰/女包","rawTitle":"官网图_"},"price":null,"currency":"CNY","moq":1,"category":"ysl-women-bags","status":"active","alibaba_url":null,"images":["https://xcimg.szwego.com/20230720/i1689849817_9871_0.jpg","https://xcimg.szwego.com/20230720/i1689849817_9590_1.jpg","https://xcimg.szwego.com/20230720/i1689849817_4098_2.jpg","https://xcimg.szwego.com/20230720/i1689849817_5201_3.jpg","https://xcimg.szwego.com/20230720/i1689849817_9290_4.jpg","https://xcimg.szwego.com/20230720/i1689849817_4675_5.jpg"],"created_at":"2026-06-29T10:48:59.169Z"},{"id":"item-1d26c35a4e44","sku":"_dowowgj92HAXVn7HvIdL-_x2HDcTo-DGSv7zWew","name_en":"Saint Laurent Women Bags","name_cn":"黑牙签纹/金\nSunset 22cm#经典款贵气牙签纹sunset日落包 原厂皮版本!喜欢牙签纹包包的小伙伴不能错过的一款!高品质 正品皮,正品开模五金,追求每一个每一个细节,力求无穷大的接近正品 👍\n尺寸:22x8x16cm\n型号:442906","specs":{"source":"wsxcme","sourceId":"_dowowgj92HAXVn7HvIdL-_x2HDcTo-DGSv7zWew","sourceTagId":47002761,"sourceTagName":"圣罗兰/女包","modelNumber":"442906","dimensions":{"lengthCm":22,"heightCm":8,"widthCm":16},"rawTitle":"黑牙签纹/金\nSunset 22cm#经典款贵气牙签纹sunset日落包 原厂皮版本!喜欢牙签纹包包的小伙伴不能错过的一款!高品质 正品皮,正品开模五金,追求每一个每一个细节,力求无穷大的接近正品 👍\n尺寸:22x8x16cm\n型号:442906"},"price":null,"currency":"CNY","moq":1,"category":"ysl-women-bags","status":"active","alibaba_url":null,"images":["https://xcimg.szwego.com/img/7821319d/20240615/i1718383079_8984_2.jpg","https://xcimg.szwego.com/img/7821319d/20240615/i1718383079_4928_6.jpg","https://xcimg.szwego.com/img/7821319d/20240615/i1718383079_1609_0.jpg","https://xcimg.szwego.com/img/7821319d/20240615/i1718383079_8411_8.jpg","https://xcimg.szwego.com/img/7821319d/20240615/i1718383079_9755_4.jpg","https://xcimg.szwego.com/img/7821319d/20240615/i1718383079_5560_7.jpg","https://xcimg.szwego.com/img/7821319d/20240615/i1718383079_4567_5.jpg","https://xcimg.szwego.com/img/7821319d/20240615/i1718383079_4659_1.jpg","https://xcimg.szwego.com/img/7821319d/20240615/i1718383079_2680_3.jpg"],"created_at":"2024-08-04T12:57:22.849Z"},{"id":"item-1c22c8ff4ad3","sku":"_dRdRd18-W-kQqBxXCg4UG47CEpanQoxW9jYRjaQ","name_en":"Saint Laurent Women Bags","name_cn":"小号上身效果~","specs":{"source":"wsxcme","sourceId":"_dRdRd18-W-kQqBxXCg4UG47CEpanQoxW9jYRjaQ","sourceTagId":47002761,"sourceTagName":"圣罗兰/女包","rawTitle":"小号上身效果~"},"price":null,"currency":"CNY","moq":1,"category":"ysl-women-bags","status":"active","alibaba_url":null,"images":["https://xcimg.szwego.com/img/58395cbb/20241026/a1729931971462_5800.jpg","https://xcimg.szwego.com/img/58395cbb/20241026/a1729931971457_2650.jpg","https://xcimg.szwego.com/img/58395cbb/20241026/a1729931971461_0024.jpg"],"created_at":"2025-07-20T03:05:44.262Z"},{"id":"item-1b175be0d9d4","sku":"_d-I-IgmhIIKlaS_9FtNqsWVsFxIhQJMmB9BNc4g","name_en":"Saint Laurent Women Bags","name_cn":"酒红色漆皮超级显质感 \n无论是休闲or正装或者小礼裙 都可以完美驾驭","specs":{"source":"wsxcme","sourceId":"_d-I-IgmhIIKlaS_9FtNqsWVsFxIhQJMmB9BNc4g","sourceTagId":47002761,"sourceTagName":"圣罗兰/女包","rawTitle":"酒红色漆皮超级显质感 \n无论是休闲or正装或者小礼裙 都可以完美驾驭"},"price":null,"currency":"CNY","moq":1,"category":"ysl-women-bags","status":"active","alibaba_url":null,"images":["https://xcimg.szwego.com/imgHD/f8c0bdc9/20251104/cmp_i1762245929964_2234_0_0.jpg","https://xcimg.szwego.com/imgHD/f8c0bdc9/20251104/cmp_i1762245929954_4344_0_1.jpg","https://xcimg.szwego.com/imgHD/f8c0bdc9/20251104/cmp_i1762245929931_1086_0_2.jpg","https://xcimg.szwego.com/imgHD/f8c0bdc9/20251104/cmp_i1762245929985_9298_0_3.jpg"],"created_at":"2026-06-29T10:48:59.099Z"},{"id":"item-1a61ad21131c","sku":"_dG7G7amhKlc2X04KehnYWfUvv9cXfiv_Du6W96g","name_en":"Saint Laurent Women Bags","name_cn":"土黄大象纹配金扣\nniki_22cm简直不要太酷,包型好看没有缺点,柔软细腻羊皮营造出复古照旧风格  手拎或者腋下都很可 气场十足男女均可驾驭 时尚与功能兼备 上身舒适又时髦\n超大容量日常通勤旅行妥妥安排到位👌\n款号:633151\n尺寸:22×16.5×12cm","specs":{"source":"wsxcme","sourceId":"_dG7G7amhKlc2X04KehnYWfUvv9cXfiv_Du6W96g","sourceTagId":47002761,"sourceTagName":"圣罗兰/女包","modelNumber":"633151","dimensions":{"lengthCm":22,"heightCm":16.5,"widthCm":12},"rawTitle":"土黄大象纹配金扣\nniki_22cm简直不要太酷,包型好看没有缺点,柔软细腻羊皮营造出复古照旧风格  手拎或者腋下都很可 气场十足男女均可驾驭 时尚与功能兼备 上身舒适又时髦\n超大容量日常通勤旅行妥妥安排到位👌\n款号:633151\n尺寸:22×16.5×12cm"},"price":null,"currency":"CNY","moq":1,"category":"ysl-women-bags","status":"active","alibaba_url":null,"images":["https://xcimg.szwego.com/img/7821319d/20240701/i1719763687_3723_1.jpg","https://xcimg.szwego.com/img/7821319d/20240701/i1719763687_8601_7.jpg","https://xcimg.szwego.com/img/7821319d/20240701/i1719763687_3597_6.jpg","https://xcimg.szwego.com/img/7821319d/20240701/i1719763687_8863_2.jpg","https://xcimg.szwego.com/img/7821319d/20240701/i1719763687_4984_8.jpg","https://xcimg.szwego.com/img/7821319d/20240701/i1719763687_5088_4.jpg","https://xcimg.szwego.com/img/7821319d/20240701/i1719763687_8062_5.jpg","https://xcimg.szwego.com/img/7821319d/20240701/i1719763686_5066_0.jpg","https://xcimg.szwego.com/img/7821319d/20240701/i1719763687_5327_3.jpg"],"created_at":"2024-08-04T12:57:22.840Z"},{"id":"item-1913c5389d09","sku":"_dn5n5qJzqDloEsEtzS1rZdO-iYyKVneBHNTqUPA","name_en":"Saint Laurent Women Bags","name_cn":"土黄麂皮\nPARIS VII 麂皮小号HOBO手袋\n牛皮抽绳开合,饰有标志性CASSANDRE吊坠,同色系绒面革衬里。\n这款手袋优雅、柔软,配有一个卡包和可调节肩带,演绎个性化佩戴方式。\n尺寸:30×25×3cm\n型号:796626","specs":{"source":"wsxcme","sourceId":"_dn5n5qJzqDloEsEtzS1rZdO-iYyKVneBHNTqUPA","sourceTagId":47002761,"sourceTagName":"圣罗兰/女包","modelNumber":"796626","dimensions":{"lengthCm":30,"heightCm":25,"widthCm":3},"rawTitle":"土黄麂皮\nPARIS VII 麂皮小号HOBO手袋\n牛皮抽绳开合,饰有标志性CASSANDRE吊坠,同色系绒面革衬里。\n这款手袋优雅、柔软,配有一个卡包和可调节肩带,演绎个性化佩戴方式。\n尺寸:30×25×3cm\n型号:796626"},"price":null,"currency":"CNY","moq":1,"category":"ysl-women-bags","status":"active","alibaba_url":null,"images":["https://xcimg.szwego.com/imgHD/f8c0bdc9/20251208/cmp_i1765187733687_4840_0_0.jpg","https://xcimg.szwego.com/imgHD/f8c0bdc9/20251208/cmp_i1765187730778_2673_0_1.jpg","https://xcimg.szwego.com/imgHD/f8c0bdc9/20251208/cmp_i1765187731444_1916_0_2.jpg","https://xcimg.szwego.com/imgHD/f8c0bdc9/20251208/cmp_i1765187735016_5153_0_3.jpg","https://xcimg.szwego.com/imgHD/f8c0bdc9/20251208/cmp_i1765187732862_4083_0_4.jpg","https://xcimg.szwego.com/imgHD/f8c0bdc9/20251208/cmp_i1765187731753_6296_0_5.jpg","https://xcimg.szwego.com/imgHD/f8c0bdc9/20251208/cmp_i1765187733638_8370_0_6.jpg","https://xcimg.szwego.com/imgHD/f8c0bdc9/20251208/cmp_i1765187730747_8063_0_7.jpg","https://xcimg.szwego.com/imgHD/f8c0bdc9/20251208/cmp_i1765187733697_6776_0_8.jpg"],"created_at":"2026-06-29T10:54:45.306Z"},{"id":"item-182b0e8cb12f","sku":"_d-4-4riFx_rLzfliPApfY370VvRkOQo3UEIqfnw","name_en":"Saint Laurent Women Bags","name_cn":"【原厂皮】🌈精品专供🔥金麦磨砂/金\nLE5A7大号光滑皮革柔软手袋大号,韩国明星同款Hobo!!今年火到爆炸的腋下包Y家虽迟但到!!包包身轮廓简洁、立体,看上去硬挺却不会太凌厉。搭配上品牌标志性的插入式包扣,整体给人一种既经典优雅,又很时髦现代的独特气质。\n型号:753837【原厂皮】\n尺寸:30x31x13cm","specs":{"source":"wsxcme","sourceId":"_d-4-4riFx_rLzfliPApfY370VvRkOQo3UEIqfnw","sourceTagId":47002761,"sourceTagName":"圣罗兰/女包","modelNumber":"753837【原厂皮】","dimensions":{"lengthCm":30,"heightCm":31,"widthCm":13},"rawTitle":"【原厂皮】🌈精品专供🔥金麦磨砂/金\nLE5A7大号光滑皮革柔软手袋大号,韩国明星同款Hobo!!今年火到爆炸的腋下包Y家虽迟但到!!包包身轮廓简洁、立体,看上去硬挺却不会太凌厉。搭配上品牌标志性的插入式包扣,整体给人一种既经典优雅,又很时髦现代的独特气质。\n型号:753837【原厂皮】\n尺寸:30x31x13cm"},"price":null,"currency":"CNY","moq":1,"category":"ysl-women-bags","status":"active","alibaba_url":null,"images":["https://xcimg.szwego.com/img/fce24e4d/20231208/i1702050184_2646_6.jpg","https://xcimg.szwego.com/img/fce24e4d/20231208/i1702050184_5736_5.jpg","https://xcimg.szwego.com/img/fce24e4d/20231208/i1702050184_3857_7.jpg","https://xcimg.szwego.com/img/fce24e4d/20231208/i1702050183_2836_1.jpg","https://xcimg.szwego.com/img/fce24e4d/20231208/i1702050184_4346_3.jpg","https://xcimg.szwego.com/img/fce24e4d/20231208/i1702050184_2506_2.jpg","https://xcimg.szwego.com/img/fce24e4d/20231208/i1702050183_5074_0.jpg","https://xcimg.szwego.com/img/fce24e4d/20231208/i1702050184_6356_8.jpg","https://xcimg.szwego.com/img/fce24e4d/20231208/i1702050184_381_4.jpg"],"created_at":"2024-12-08T05:57:17.781Z"},{"id":"item-181efa3f7e96","sku":"_dWIWIhNX-_IgQiQCjUozNGRALbBMi2TMRExPejg","name_en":"Saint Laurent Women Bags","name_cn":"浅绿·\nSOLFERINO BOX_23cm\n必火爆款,还没上市就攻陷了整个时尚圈,怀旧左岸,灵感来自巴黎左岸街名Rue De Solferino为名!包包采用原厂漆皮牛皮,手感及皮面的柔韧度都非常好!内里设计三层风琴隔,可轻松容纳日常所需物品,全新设计的“L”字母上下对半开扣,彻底颠覆你对包扣的认知,不禁让人发出惊叹,原来还能这样开包包,简直不要太有趣了!\n型号:634305\n尺寸:23x16x6cm","specs":{"source":"wsxcme","sourceId":"_dWIWIhNX-_IgQiQCjUozNGRALbBMi2TMRExPejg","sourceTagId":47002761,"sourceTagName":"圣罗兰/女包","modelNumber":"634305","dimensions":{"lengthCm":23,"heightCm":16,"widthCm":6},"rawTitle":"浅绿·\nSOLFERINO BOX_23cm\n必火爆款,还没上市就攻陷了整个时尚圈,怀旧左岸,灵感来自巴黎左岸街名Rue De Solferino为名!包包采用原厂漆皮牛皮,手感及皮面的柔韧度都非常好!内里设计三层风琴隔,可轻松容纳日常所需物品,全新设计的“L”字母上下对半开扣,彻底颠覆你对包扣的认知,不禁让人发出惊叹,原来还能这样开包包,简直不要太有趣了!\n型号:634305\n尺寸:23x16x6cm"},"price":null,"currency":"CNY","moq":1,"category":"ysl-women-bags","status":"active","alibaba_url":null,"images":["https://xcimg.szwego.com/img/f8c0bdc9/20241025/i1729836957_7813_7.jpg","https://xcimg.szwego.com/img/f8c0bdc9/20241025/i1729836957_6040_0.jpg","https://xcimg.szwego.com/img/f8c0bdc9/20241025/i1729836957_2922_4.jpg","https://xcimg.szwego.com/img/f8c0bdc9/20241025/i1729836957_9758_2.jpg","https://xcimg.szwego.com/img/f8c0bdc9/20241025/i1729836957_7108_5.jpg","https://xcimg.szwego.com/img/f8c0bdc9/20241025/i1729836957_9178_6.jpg","https://xcimg.szwego.com/img/f8c0bdc9/20241025/i1729836957_3396_1.jpg","https://xcimg.szwego.com/img/f8c0bdc9/20241025/i1729836957_5330_8.jpg","https://xcimg.szwego.com/img/f8c0bdc9/20241025/i1729836957_5470_3.jpg"],"created_at":"2026-06-29T10:54:44.936Z"},{"id":"item-179d1054eca8","sku":"_dAQAQOxsbW2OwGjY9AtyWSEpN9gdZs7yG1EKBMA","name_en":"Saint Laurent Women Bags","name_cn":"安可拉红瞬间提升整体造型的时尚感","specs":{"source":"wsxcme","sourceId":"_dAQAQOxsbW2OwGjY9AtyWSEpN9gdZs7yG1EKBMA","sourceTagId":47002761,"sourceTagName":"圣罗兰/女包","rawTitle":"安可拉红瞬间提升整体造型的时尚感"},"price":null,"currency":"CNY","moq":1,"category":"ysl-women-bags","status":"active","alibaba_url":null,"images":["https://xcimg.szwego.com/imgHD/f8c0bdc9/20251005/cmp_i1759655446799_437_0_0.jpg","https://xcimg.szwego.com/imgHD/f8c0bdc9/20251005/cmp_i1759655446771_8659_0_1.jpg","https://xcimg.szwego.com/imgHD/f8c0bdc9/20251005/cmp_i1759655446754_8550_0_2.jpg","https://xcimg.szwego.com/imgHD/f8c0bdc9/20251005/cmp_i1759655447016_6061_0_3.jpg"],"created_at":"2026-05-20T04:01:39.283Z"},{"id":"item-16eb4a5e33e1","sku":"_dx9x9AsMvclKbq9VpIIpwfYseNormPoWZuw4cVA","name_en":"Saint Laurent Women Bags","name_cn":"精品专供🔥绿色/古金\n▪ROSE▪️秋冬新款,韩国明星同款Hobo!!今年火到爆炸的腋下包Y家虽迟但到!!包包身轮廓简洁、立体,看上去硬挺却不会太凌厉。搭配上品牌标志性的插入式包扣,整体给人一种既经典优雅,又很时髦现代的独特气质👍\n型号:713938【原厂皮】\n尺寸:23x22x8cm","specs":{"source":"wsxcme","sourceId":"_dx9x9AsMvclKbq9VpIIpwfYseNormPoWZuw4cVA","sourceTagId":47002761,"sourceTagName":"圣罗兰/女包","modelNumber":"713938【原厂皮】","dimensions":{"lengthCm":23,"heightCm":22,"widthCm":8},"rawTitle":"精品专供🔥绿色/古金\n▪ROSE▪️秋冬新款,韩国明星同款Hobo!!今年火到爆炸的腋下包Y家虽迟但到!!包包身轮廓简洁、立体,看上去硬挺却不会太凌厉。搭配上品牌标志性的插入式包扣,整体给人一种既经典优雅,又很时髦现代的独特气质👍\n型号:713938【原厂皮】\n尺寸:23x22x8cm"},"price":null,"currency":"CNY","moq":1,"category":"ysl-women-bags","status":"active","alibaba_url":null,"images":["https://xcimg.szwego.com/img/fce24e4d/20230928/i1695900872_1492_0.jpg","https://xcimg.szwego.com/img/fce24e4d/20230928/i1695900872_8452_1.jpg","https://xcimg.szwego.com/img/fce24e4d/20230928/i1695900872_7104_2.jpg","https://xcimg.szwego.com/img/fce24e4d/20230928/i1695900872_9162_3.jpg","https://xcimg.szwego.com/img/fce24e4d/20230928/i1695900872_4735_4.jpg","https://xcimg.szwego.com/img/fce24e4d/20230928/i1695900872_5167_5.jpg","https://xcimg.szwego.com/img/fce24e4d/20230928/i1695900872_7370_6.jpg","https://xcimg.szwego.com/img/fce24e4d/20230928/i1695900872_7707_7.jpg","https://xcimg.szwego.com/img/fce24e4d/20230928/i1695900872_8781_8.jpg"],"created_at":"2024-12-08T05:55:23.864Z"},{"id":"item-15e329faa090","sku":"_dmSmSAxndrRiMjSJ55aPL23nIcZnr-cENi-A1Wg","name_en":"Saint Laurent Women Bags","name_cn":"💰\nMonogram college\n万年经典的邮差包!!!邮差包又名信使包,顾名思义就是邮递员投送报纸、信件时候挎的包,和邮差背的包类似的包统称邮差包,提到邮差包,Y家的这只必须榜上有名!\n尺寸:24x17x6.5cm\n型号:392737","specs":{"source":"wsxcme","sourceId":"_dmSmSAxndrRiMjSJ55aPL23nIcZnr-cENi-A1Wg","sourceTagId":47002761,"sourceTagName":"圣罗兰/女包","modelNumber":"392737","dimensions":{"lengthCm":24,"heightCm":17,"widthCm":6.5},"rawTitle":"💰\nMonogram college\n万年经典的邮差包!!!邮差包又名信使包,顾名思义就是邮递员投送报纸、信件时候挎的包,和邮差背的包类似的包统称邮差包,提到邮差包,Y家的这只必须榜上有名!\n尺寸:24x17x6.5cm\n型号:392737"},"price":null,"currency":"CNY","moq":1,"category":"ysl-women-bags","status":"active","alibaba_url":null,"images":["https://xcimg.szwego.com/20211004/i1633336424_9948_0.jpg","https://xcimg.szwego.com/20211004/i1633336424_6134_1.jpg","https://xcimg.szwego.com/20211004/i1633336424_3161_2.jpg","https://xcimg.szwego.com/20211004/i1633336424_4983_3.jpg","https://xcimg.szwego.com/20211004/i1633336424_2842_4.jpg","https://xcimg.szwego.com/20211004/i1633336424_2580_5.jpg","https://xcimg.szwego.com/20211004/i1633336424_9363_6.jpg","https://xcimg.szwego.com/20211004/i1633336424_1455_7.jpg","https://xcimg.szwego.com/20211004/i1633336424_4844_8.jpg"],"created_at":"2025-07-20T03:05:44.202Z"},{"id":"item-15d495f5102f","sku":"_dbubug9uaabgCGL9Xd_tMSwttkzef5jxUXRHO6g","name_en":"Saint Laurent Women Bags","name_cn":"羊皮深绿/金❗️❗️顶级原单、精品专供❗️❗️\n #Loulou puffer#中号29CM🐑绗缝小羊皮包,原厂正品皮制作,手感柔软细腻,犹如怀抱云朵☁️般的感受;经典的Y家logo、链条及扣眼五金均采用巴金哑光银五金,包袋开口处折叠后使用了磁性四合扣封口,密闭性及安全性一流;包内设有一个拉链内袋可放置手机及贵重物品,除此之外无多余内袋设计,使用起来随心所欲!正品皮!正品皮!正品皮!\n尺寸:29x17x11cm  \n型号:577476","specs":{"source":"wsxcme","sourceId":"_dbubug9uaabgCGL9Xd_tMSwttkzef5jxUXRHO6g","sourceTagId":47002761,"sourceTagName":"圣罗兰/女包","modelNumber":"577476","dimensions":{"lengthCm":29,"heightCm":17,"widthCm":11},"rawTitle":"羊皮深绿/金❗️❗️顶级原单、精品专供❗️❗️\n #Loulou puffer#中号29CM🐑绗缝小羊皮包,原厂正品皮制作,手感柔软细腻,犹如怀抱云朵☁️般的感受;经典的Y家logo、链条及扣眼五金均采用巴金哑光银五金,包袋开口处折叠后使用了磁性四合扣封口,密闭性及安全性一流;包内设有一个拉链内袋可放置手机及贵重物品,除此之外无多余内袋设计,使用起来随心所欲!正品皮!正品皮!正品皮!\n尺寸:29x17x11cm  \n型号:577476"},"price":null,"currency":"CNY","moq":1,"category":"ysl-women-bags","status":"active","alibaba_url":null,"images":["https://xcimg.szwego.com/20230329/i1680083370_9832_0.jpg","https://xcimg.szwego.com/20230329/i1680083370_7644_1.jpg","https://xcimg.szwego.com/20230329/i1680083370_9728_2.jpg","https://xcimg.szwego.com/20230329/i1680083370_5290_3.jpg","https://xcimg.szwego.com/20230329/i1680083370_8708_4.jpg","https://xcimg.szwego.com/20230329/i1680083370_7022_5.jpg","https://xcimg.szwego.com/20230329/i1680083370_4665_6.jpg","https://xcimg.szwego.com/20230329/i1680083370_7147_7.jpg","https://xcimg.szwego.com/20230329/i1680083370_5379_8.jpg"],"created_at":"2024-12-08T05:43:34.664Z"},{"id":"item-15ccd51c7e0f","sku":"_dsRsR7IrSp6ErZyJluhHuy8aJFORZIKLRZXTicg","name_en":"Saint Laurent Women Bags","name_cn":"绿色大象纹配金扣\nniki_28cm简直不要太酷,包型好看没有缺点,柔软细腻羊皮营造出复古照旧风格  手拎或者腋下都很可 气场十足男女均可驾驭 时尚与功能兼备 上身舒适又时髦\n超大容量日常通勤旅行妥妥安排到位👌\n款号:633158\n尺寸:28×20.5×8.5cm","specs":{"source":"wsxcme","sourceId":"_dsRsR7IrSp6ErZyJluhHuy8aJFORZIKLRZXTicg","sourceTagId":47002761,"sourceTagName":"圣罗兰/女包","modelNumber":"633158","dimensions":{"lengthCm":28,"heightCm":20.5,"widthCm":8.5},"rawTitle":"绿色大象纹配金扣\nniki_28cm简直不要太酷,包型好看没有缺点,柔软细腻羊皮营造出复古照旧风格  手拎或者腋下都很可 气场十足男女均可驾驭 时尚与功能兼备 上身舒适又时髦\n超大容量日常通勤旅行妥妥安排到位👌\n款号:633158\n尺寸:28×20.5×8.5cm"},"price":null,"currency":"CNY","moq":1,"category":"ysl-women-bags","status":"active","alibaba_url":null,"images":["https://xcimg.szwego.com/img/7821319d/20240724/a1721797943858_8548.jpg","https://xcimg.szwego.com/img/7821319d/20240724/a1721797943870_0041.jpg","https://xcimg.szwego.com/img/7821319d/20240724/a1721797943832_3422.jpg","https://xcimg.szwego.com/img/7821319d/20240724/a1721797943854_6515.jpg","https://xcimg.szwego.com/img/7821319d/20240724/a1721797943915_7435.jpg","https://xcimg.szwego.com/img/7821319d/20240724/a1721797943748_7644.jpg","https://xcimg.szwego.com/img/7821319d/20240724/a1721797945099_3251.jpg","https://xcimg.szwego.com/img/7821319d/20240724/a1721797945017_4601.jpg","https://xcimg.szwego.com/img/7821319d/20240724/a1721797945184_7877.jpg"],"created_at":"2024-08-04T12:57:22.841Z"},{"id":"item-157dbe78bde3","sku":"_duouoZxOo3vnxKQdenPPqwl8gCGzffkFKk1oO_A","name_en":"Saint Laurent Women Bags","name_cn":"浅绿·\nSOLFERINO BOX_19cm\n必火爆款,还没上市就攻陷了整个时尚圈,怀旧左岸,灵感来自巴黎左岸街名Rue De Solferino为名!包包采用原厂细牙签纹Box牛皮,手感及皮面的柔韧度都非常好!内里设计三层风琴隔,可轻松容纳日常所需物品,全新设计的“L”字母上下对半开扣,彻底颠覆你对包扣的认知,不禁让人发出惊叹,原来还能这样开包包,简直不要太有趣了!\n型号:634306\n尺寸:19x13x5cm","specs":{"source":"wsxcme","sourceId":"_duouoZxOo3vnxKQdenPPqwl8gCGzffkFKk1oO_A","sourceTagId":47002761,"sourceTagName":"圣罗兰/女包","modelNumber":"634306","dimensions":{"lengthCm":19,"heightCm":13,"widthCm":5},"rawTitle":"浅绿·\nSOLFERINO BOX_19cm\n必火爆款,还没上市就攻陷了整个时尚圈,怀旧左岸,灵感来自巴黎左岸街名Rue De Solferino为名!包包采用原厂细牙签纹Box牛皮,手感及皮面的柔韧度都非常好!内里设计三层风琴隔,可轻松容纳日常所需物品,全新设计的“L”字母上下对半开扣,彻底颠覆你对包扣的认知,不禁让人发出惊叹,原来还能这样开包包,简直不要太有趣了!\n型号:634306\n尺寸:19x13x5cm"},"price":null,"currency":"CNY","moq":1,"category":"ysl-women-bags","status":"active","alibaba_url":null,"images":["https://xcimg.szwego.com/img/f8c0bdc9/20241025/i1729837105_1304_6.jpg","https://xcimg.szwego.com/img/f8c0bdc9/20241025/i1729837105_7848_3.jpg","https://xcimg.szwego.com/img/f8c0bdc9/20241025/i1729837105_2495_1.jpg","https://xcimg.szwego.com/img/f8c0bdc9/20241025/i1729837105_5691_2.jpg","https://xcimg.szwego.com/img/f8c0bdc9/20241025/i1729837105_4575_8.jpg","https://xcimg.szwego.com/img/f8c0bdc9/20241025/i1729837105_9466_7.jpg","https://xcimg.szwego.com/img/f8c0bdc9/20241025/i1729837105_2205_0.jpg","https://xcimg.szwego.com/img/f8c0bdc9/20241025/i1729837105_8219_4.jpg","https://xcimg.szwego.com/img/f8c0bdc9/20241025/i1729837105_1921_5.jpg"],"created_at":"2026-06-29T10:54:44.946Z"},{"id":"item-13fd7ea44cfd","sku":"_dpIpI45vGJW3aTL88pxGEiKcZfQcrQ9TImE6G5w","name_en":"Saint Laurent Women Bags","name_cn":"鳄鱼纹信封包真的太美了!","specs":{"source":"wsxcme","sourceId":"_dpIpI45vGJW3aTL88pxGEiKcZfQcrQ9TImE6G5w","sourceTagId":47002761,"sourceTagName":"圣罗兰/女包","rawTitle":"鳄鱼纹信封包真的太美了!"},"price":null,"currency":"CNY","moq":1,"category":"ysl-women-bags","status":"active","alibaba_url":null,"images":["https://xcimg.szwego.com/20230720/i1689849515_245_0.jpg","https://xcimg.szwego.com/20230720/i1689849515_906_1.jpg","https://xcimg.szwego.com/20230720/i1689849515_4027_2.jpg","https://xcimg.szwego.com/20230720/i1689849515_8299_3.jpg","https://xcimg.szwego.com/20230720/i1689849515_9621_4.jpg","https://xcimg.szwego.com/20230720/i1689849515_8679_5.jpg"],"created_at":"2026-06-29T10:48:59.309Z"},{"id":"item-13e4fc10f24d","sku":"_dw8w82dPAPwaw75Pz4MJElUB0-zuHUmJXU6TnXA","name_en":"Saint Laurent Women Bags","name_cn":"黑色大象纹配银扣\nniki_22cm简直不要太酷,包型好看没有缺点,柔软细腻羊皮营造出复古照旧风格  手拎或者腋下都很可 气场十足男女均可驾驭 时尚与功能兼备 上身舒适又时髦\n超大容量日常通勤旅行妥妥安排到位👌\n款号:633151\n尺寸:22×16.5×12cm","specs":{"source":"wsxcme","sourceId":"_dw8w82dPAPwaw75Pz4MJElUB0-zuHUmJXU6TnXA","sourceTagId":47002761,"sourceTagName":"圣罗兰/女包","modelNumber":"633151","dimensions":{"lengthCm":22,"heightCm":16.5,"widthCm":12},"rawTitle":"黑色大象纹配银扣\nniki_22cm简直不要太酷,包型好看没有缺点,柔软细腻羊皮营造出复古照旧风格  手拎或者腋下都很可 气场十足男女均可驾驭 时尚与功能兼备 上身舒适又时髦\n超大容量日常通勤旅行妥妥安排到位👌\n款号:633151\n尺寸:22×16.5×12cm"},"price":null,"currency":"CNY","moq":1,"category":"ysl-women-bags","status":"active","alibaba_url":null,"images":["https://xcimg.szwego.com/img/7821319d/20240523/i1716394621_6857_2.jpg","https://xcimg.szwego.com/img/7821319d/20240523/i1716394621_4863_7.jpg","https://xcimg.szwego.com/img/7821319d/20240523/i1716394621_3698_0.jpg","https://xcimg.szwego.com/img/7821319d/20240523/i1716394621_58_8.jpg","https://xcimg.szwego.com/img/7821319d/20240523/i1716394621_6838_5.jpg","https://xcimg.szwego.com/img/7821319d/20240523/i1716394621_7051_4.jpg","https://xcimg.szwego.com/img/7821319d/20240523/i1716394621_7685_1.jpg","https://xcimg.szwego.com/img/7821319d/20240523/i1716394621_4261_6.jpg","https://xcimg.szwego.com/img/7821319d/20240523/i1716394621_1384_3.jpg"],"created_at":"2024-08-04T12:57:22.838Z"},{"id":"item-137a14e20ceb","sku":"_deOeOugjrP--OoTdcsdo8_Jj8y6Ldizolwn9B8w","name_en":"Saint Laurent Women Bags","name_cn":"黑色银扣·\nshopping tote bag_横款购物袋\n非常简约性冷淡风的一个系列,进口南非牛皮,内里配有一个手拿袋,可拆卸,它的特点就是容量大而且轻,搭配一个金属小logo,精致极了!\n尺寸:38×28×13cm\n型号:394195","specs":{"source":"wsxcme","sourceId":"_deOeOugjrP--OoTdcsdo8_Jj8y6Ldizolwn9B8w","sourceTagId":47002761,"sourceTagName":"圣罗兰/女包","modelNumber":"394195","dimensions":{"lengthCm":38,"heightCm":28,"widthCm":13},"rawTitle":"黑色银扣·\nshopping tote bag_横款购物袋\n非常简约性冷淡风的一个系列,进口南非牛皮,内里配有一个手拿袋,可拆卸,它的特点就是容量大而且轻,搭配一个金属小logo,精致极了!\n尺寸:38×28×13cm\n型号:394195"},"price":null,"currency":"CNY","moq":1,"category":"ysl-women-bags","status":"active","alibaba_url":null,"images":["https://xcimg.szwego.com/imgHD/f8c0bdc9/20260420/cmp_i1776669263869_5626_0_0.jpg","https://xcimg.szwego.com/imgHD/f8c0bdc9/20260420/cmp_i1776669265419_5556_0_1.jpg","https://xcimg.szwego.com/imgHD/f8c0bdc9/20260420/cmp_i1776669266638_9321_0_2.jpg","https://xcimg.szwego.com/imgHD/f8c0bdc9/20260420/cmp_i1776669266668_7239_0_3.jpg","https://xcimg.szwego.com/imgHD/f8c0bdc9/20260420/cmp_i1776669262534_4777_0_4.jpg","https://xcimg.szwego.com/imgHD/f8c0bdc9/20260420/cmp_i1776669263999_2084_0_5.jpg","https://xcimg.szwego.com/imgHD/f8c0bdc9/20260420/cmp_i1776669261872_3020_0_6.jpg","https://xcimg.szwego.com/imgHD/f8c0bdc9/20260420/cmp_i1776669263967_8487_0_7.jpg","https://xcimg.szwego.com/imgHD/f8c0bdc9/20260420/cmp_i1776669265448_6196_0_8.jpg"],"created_at":"2026-06-29T10:48:58.899Z"},{"id":"item-11a980e75a9a","sku":"_dbkbkLR1Dxg9eGplxG07p8hBLxtbXU9snQiJjxw","name_en":"Saint Laurent Women Bags","name_cn":"福袋编织包🏖️\n爆款来袭 Jamie福袋更新了拉菲草材质 这款福袋相比羊皮更加的chill 充满的度假氛围 容量感人!防晒霜 墨镜 草帽都可纳入,独特的编织纹理 记录着阳光的温度 每一张照片都洋溢着悠闲与惬意!\n型号:833948\n​尺寸:27×29×11cm","specs":{"source":"wsxcme","sourceId":"_dbkbkLR1Dxg9eGplxG07p8hBLxtbXU9snQiJjxw","sourceTagId":47002761,"sourceTagName":"圣罗兰/女包","modelNumber":"833948","dimensions":{"lengthCm":27,"heightCm":29,"widthCm":11},"rawTitle":"福袋编织包🏖️\n爆款来袭 Jamie福袋更新了拉菲草材质 这款福袋相比羊皮更加的chill 充满的度假氛围 容量感人!防晒霜 墨镜 草帽都可纳入,独特的编织纹理 记录着阳光的温度 每一张照片都洋溢着悠闲与惬意!\n型号:833948\n​尺寸:27×29×11cm"},"price":null,"currency":"CNY","moq":1,"category":"ysl-women-bags","status":"active","alibaba_url":null,"images":["https://xcimg.szwego.com/imgHD/f8c0bdc9/20250722/cmp_i1753170803606_3435_0_0.jpg","https://xcimg.szwego.com/imgHD/f8c0bdc9/20250722/cmp_i1753170803843_6109_0_1.jpg","https://xcimg.szwego.com/imgHD/f8c0bdc9/20250722/cmp_i1753170801693_9159_0_2.jpg","https://xcimg.szwego.com/imgHD/f8c0bdc9/20250722/cmp_i1753170801100_7750_0_3.jpg","https://xcimg.szwego.com/imgHD/f8c0bdc9/20250722/cmp_i1753170801100_2360_0_4.jpg","https://xcimg.szwego.com/imgHD/f8c0bdc9/20250722/cmp_i1753170803880_2835_0_5.jpg","https://xcimg.szwego.com/imgHD/f8c0bdc9/20250722/cmp_i1753170804219_9420_0_6.jpg","https://xcimg.szwego.com/imgHD/f8c0bdc9/20250722/cmp_i1753170801100_2712_0_7.jpg","https://xcimg.szwego.com/imgHD/f8c0bdc9/20250722/cmp_i1753170801357_7571_0_8.jpg"],"created_at":"2025-08-03T06:04:43.205Z"}],"page":35,"pageSize":24,"total":888,"totalPages":37}
