{"items":[{"id":"item-8aecf801fc79","sku":"_diBiB4QY4UgSugGoHhco0vLM7uhLj8m-9xS-KRA","name_en":"🇦🇴【海外原单】🛍🎁《全钢五金》CAMILLE 16💓2025年新款 SOFT小号光滑牛皮革手袋👜本款型无法装下较大的IPAD等智能平板电脑","name_cn":"🇦🇴【海外原单】🛍🎁《全钢五金》CAMILLE 16💓2025年新款 SOFT小号光滑牛皮革手袋👜本款型无法装下较大的IPAD等智能平板电脑\n牛皮革\n羊皮革衬里\n手提、肩背和斜挎\n旋转锁扣开合\n1个主隔层\n1个内侧拉链口袋\n1条可拆卸手提/肩背肩带,长度8.6英寸(22厘米) \n1条可拆卸和可调节肩带,9.7 X 8.5 X 2英寸(24.5 X 21.5 X 5厘米)\n适合斜挎,最小长度16.5英寸(42厘米),最大长度19英寸(48厘米)\n编号:120693FX9.04LU","specs":{"source":"wsxcme","sourceId":"_diBiB4QY4UgSugGoHhco0vLM7uhLj8m-9xS-KRA","sourceTagId":47003106,"sourceTagName":"塞琳/女包","rawTitle":"🇦🇴【海外原单】🛍🎁《全钢五金》CAMILLE 16💓2025年新款 SOFT小号光滑牛皮革手袋👜本款型无法装下较大的IPAD等智能平板电脑\n牛皮革\n羊皮革衬里\n手提、肩背和斜挎\n旋转锁扣开合\n1个主隔层\n1个内侧拉链口袋\n1条可拆卸手提/肩背肩带,长度8.6英寸(22厘米) \n1条可拆卸和可调节肩带,9.7 X 8.5 X 2英寸(24.5 X 21.5 X 5厘米)\n适合斜挎,最小长度16.5英寸(42厘米),最大长度19英寸(48厘米)\n编号:120693FX9.04LU"},"price":null,"currency":"CNY","moq":1,"category":"celine-women-bags","status":"active","alibaba_url":null,"images":["https://xcimg.szwego.com/20250303/i1740990916_4525_0.jpg","https://xcimg.szwego.com/20250303/i1740990916_273_1.jpg","https://xcimg.szwego.com/20250303/i1740990916_1975_2.jpg","https://xcimg.szwego.com/20250303/i1740990916_7354_3.jpg","https://xcimg.szwego.com/20250303/i1740990916_5674_4.jpg","https://xcimg.szwego.com/20250303/i1740990916_8668_5.jpg","https://xcimg.szwego.com/20250303/i1740990916_3374_6.jpg","https://xcimg.szwego.com/20250303/i1740990916_1670_7.jpg","https://xcimg.szwego.com/20250303/i1740990916_8026_8.jpg"],"created_at":"2025-03-07T08:35:01.806Z"},{"id":"item-6b20e98e1429","sku":"_d9O9OXhpDFamPJVWY8mgnT-z313VebxdBPJ1AAw","name_en":"Celine Women Bags","name_cn":"质量好到炸!!️\nCELINE nano笑脸包🔥  全新升级版❗️手工打造❗️精致细腻❗️现货首批数量有限❗️先下手为强❗️\n型号:189243荔枝纹/烟熏灰 \n尺寸:20-20-10(配原版包装)","specs":{"source":"wsxcme","sourceId":"_d9O9OXhpDFamPJVWY8mgnT-z313VebxdBPJ1AAw","sourceTagId":47003106,"sourceTagName":"塞琳/女包","modelNumber":"189243荔枝纹/烟熏灰","rawTitle":"质量好到炸!!️\nCELINE nano笑脸包🔥  全新升级版❗️手工打造❗️精致细腻❗️现货首批数量有限❗️先下手为强❗️\n型号:189243荔枝纹/烟熏灰 \n尺寸:20-20-10(配原版包装)"},"price":null,"currency":"CNY","moq":1,"category":"celine-women-bags","status":"active","alibaba_url":null,"images":["https://xcimg.szwego.com/img/16355126/20241208/i1733669977_851_4.jpg","https://xcimg.szwego.com/img/16355126/20241208/i1733669978_4646_0.jpg","https://xcimg.szwego.com/img/16355126/20241208/i1733669977_3361_6.jpg","https://xcimg.szwego.com/img/16355126/20241208/i1733669978_1200_0.jpg","https://xcimg.szwego.com/img/16355126/20241208/i1733669978_7257_0.jpg","https://xcimg.szwego.com/img/16355126/20241208/i1733669978_2313_0.jpg","https://xcimg.szwego.com/img/16355126/20241208/i1733669978_9393_0.jpg","https://xcimg.szwego.com/img/16355126/20241208/i1733669978_6928_0.jpg","https://xcimg.szwego.com/img/16355126/20241208/i1733669978_9003_0.jpg"],"created_at":"2025-03-07T08:34:30.383Z"},{"id":"item-97d2a2dc30d7","sku":"_dlVlVnjxh-WP0A7vZmwlSMAC9JhXcusu1irYh8A","name_en":"C家:Luggage 笑脸包▶","name_cn":"C家:Luggage 笑脸包▶\n️🔗经典 经久不衰 顶级版 全新升级🔻\n❤️一款火了很多年的旧款、今年依然没有放弃对他的热爱 \n❤️严实的外在 活力的精神 搭配复古银色金属件 帅气又高傲\n❤️完美的轮廓 由上宽下窄的结构结合 \n❤️即能满足上班族 又能打造休闲 魅力,不同风格 (配包装)\n款号:189793荔枝纹/烟熏灰\n尺寸:27-25-13","specs":{"source":"wsxcme","sourceId":"_dlVlVnjxh-WP0A7vZmwlSMAC9JhXcusu1irYh8A","sourceTagId":47003106,"sourceTagName":"塞琳/女包","modelNumber":"189793荔枝纹/烟熏灰","rawTitle":"C家:Luggage 笑脸包▶\n️🔗经典 经久不衰 顶级版 全新升级🔻\n❤️一款火了很多年的旧款、今年依然没有放弃对他的热爱 \n❤️严实的外在 活力的精神 搭配复古银色金属件 帅气又高傲\n❤️完美的轮廓 由上宽下窄的结构结合 \n❤️即能满足上班族 又能打造休闲 魅力,不同风格 (配包装)\n款号:189793荔枝纹/烟熏灰\n尺寸:27-25-13"},"price":null,"currency":"CNY","moq":1,"category":"celine-women-bags","status":"active","alibaba_url":null,"images":["https://xcimg.szwego.com/img/16355126/20240601/i1717217666_5578_5.jpg","https://xcimg.szwego.com/img/16355126/20240601/i1717217666_2453_4.jpg","https://xcimg.szwego.com/img/16355126/20240601/i1717217666_9403_0.jpg","https://xcimg.szwego.com/img/16355126/20240601/i1717217666_3460_1.jpg","https://xcimg.szwego.com/img/16355126/20240601/i1717217666_3755_6.jpg","https://xcimg.szwego.com/img/16355126/20240601/i1717217666_7326_8.jpg","https://xcimg.szwego.com/img/16355126/20240601/i1717217666_9806_2.jpg","https://xcimg.szwego.com/img/16355126/20240601/i1717217666_5191_7.jpg","https://xcimg.szwego.com/img/16355126/20240601/i1717217666_3670_3.jpg"],"created_at":"2025-03-07T08:34:18.053Z"},{"id":"item-b85809086d2a","sku":"_dfNfNsD7WSRd6iBNcpT5iiTEo45vT25NhE0DWeA","name_en":"Celine Women Bags","name_cn":"质量好到炸!!️\nCELINE nano笑脸包🔥  全新升级版❗️手工打造❗️精致细腻❗️现货首批数量有限❗️先下手为强❗️\n型号:189243荔枝纹/黑色银扣 ❣️ \n尺寸:20-20-10(配原版包装)","specs":{"source":"wsxcme","sourceId":"_dfNfNsD7WSRd6iBNcpT5iiTEo45vT25NhE0DWeA","sourceTagId":47003106,"sourceTagName":"塞琳/女包","modelNumber":"189243荔枝纹/黑色银扣 ❣️","rawTitle":"质量好到炸!!️\nCELINE nano笑脸包🔥  全新升级版❗️手工打造❗️精致细腻❗️现货首批数量有限❗️先下手为强❗️\n型号:189243荔枝纹/黑色银扣 ❣️ \n尺寸:20-20-10(配原版包装)"},"price":null,"currency":"CNY","moq":1,"category":"celine-women-bags","status":"active","alibaba_url":null,"images":["https://xcimg.szwego.com/20220531/i1653979161_110_0.jpg","https://xcimg.szwego.com/20220531/i1653979161_6990_1.jpg","https://xcimg.szwego.com/20220531/i1653979161_713_2.jpg","https://xcimg.szwego.com/20220531/i1653979161_5417_3.jpg","https://xcimg.szwego.com/20220531/i1653979161_2123_4.jpg","https://xcimg.szwego.com/20220531/i1653979161_3035_5.jpg","https://xcimg.szwego.com/20220531/i1653979161_246_6.jpg","https://xcimg.szwego.com/20220531/i1653979161_5163_7.jpg","https://xcimg.szwego.com/20220531/i1653979161_1236_8.jpg"],"created_at":"2025-03-07T08:32:56.039Z"},{"id":"item-fe0b46110a89","sku":"_dmTmT6jyyxMSIOJ7_kgYKDmx22HmsAqDXLr7rdw","name_en":"C家:Luggage 笑脸包▶","name_cn":"C家:Luggage 笑脸包▶\n️🔗经典 经久不衰 顶级版 全新升级🔻\n❤️一款火了很多年的旧款、今年依然没有放弃对他的热爱 \n❤️严实的外在 活力的精神 搭配复古银色金属件 帅气又高傲\n❤️完美的轮廓 由上宽下窄的结构结合 \n❤️即能满足上班族 又能打造休闲 魅力,不同风格 (配包装)\n款号:189793荔枝纹/克色\n尺寸:27-25-13","specs":{"source":"wsxcme","sourceId":"_dmTmT6jyyxMSIOJ7_kgYKDmx22HmsAqDXLr7rdw","sourceTagId":47003106,"sourceTagName":"塞琳/女包","modelNumber":"189793荔枝纹/克色","rawTitle":"C家:Luggage 笑脸包▶\n️🔗经典 经久不衰 顶级版 全新升级🔻\n❤️一款火了很多年的旧款、今年依然没有放弃对他的热爱 \n❤️严实的外在 活力的精神 搭配复古银色金属件 帅气又高傲\n❤️完美的轮廓 由上宽下窄的结构结合 \n❤️即能满足上班族 又能打造休闲 魅力,不同风格 (配包装)\n款号:189793荔枝纹/克色\n尺寸:27-25-13"},"price":null,"currency":"CNY","moq":1,"category":"celine-women-bags","status":"active","alibaba_url":null,"images":["https://xcimg.szwego.com/img/16355126/20240530/i1717031362_5549_4.jpg","https://xcimg.szwego.com/img/16355126/20240530/i1717031362_5934_0.jpg","https://xcimg.szwego.com/img/16355126/20240530/i1717031362_6633_5.jpg","https://xcimg.szwego.com/img/16355126/20240530/i1717031362_8730_3.jpg","https://xcimg.szwego.com/img/16355126/20240530/i1717031362_9794_6.jpg","https://xcimg.szwego.com/img/16355126/20240530/i1717031362_6683_2.jpg","https://xcimg.szwego.com/img/16355126/20240530/i1717031362_8510_1.jpg","https://xcimg.szwego.com/img/16355126/20240530/i1717031362_6103_7.jpg","https://xcimg.szwego.com/img/16355126/20240530/i1717031362_7843_8.jpg"],"created_at":"2025-03-07T08:32:34.318Z"},{"id":"item-66ca4e735841","sku":"_do7o7u1Xs8V2i_CpdUvLHcylKuEwclbiqhTsFpQ","name_en":"C家:Luggage 笑脸包▶","name_cn":"C家:Luggage 笑脸包▶\n️🔗经典 经久不衰 顶级版 全新升级🔻\n❤️一款火了很多年的旧款、今年依然没有放弃对他的热爱 \n❤️严实的外在 活力的精神 搭配复古银色金属件 帅气又高傲\n❤️完美的轮廓 由上宽下窄的结构结合 \n❤️即能满足上班族 又能打造休闲 魅力,不同风格 (配包装)\n款号:189793荔枝纹/裸杏\n尺寸:27-25-13","specs":{"source":"wsxcme","sourceId":"_do7o7u1Xs8V2i_CpdUvLHcylKuEwclbiqhTsFpQ","sourceTagId":47003106,"sourceTagName":"塞琳/女包","modelNumber":"189793荔枝纹/裸杏","rawTitle":"C家:Luggage 笑脸包▶\n️🔗经典 经久不衰 顶级版 全新升级🔻\n❤️一款火了很多年的旧款、今年依然没有放弃对他的热爱 \n❤️严实的外在 活力的精神 搭配复古银色金属件 帅气又高傲\n❤️完美的轮廓 由上宽下窄的结构结合 \n❤️即能满足上班族 又能打造休闲 魅力,不同风格 (配包装)\n款号:189793荔枝纹/裸杏\n尺寸:27-25-13"},"price":null,"currency":"CNY","moq":1,"category":"celine-women-bags","status":"active","alibaba_url":null,"images":["https://xcimg.szwego.com/img/16355126/20240601/i1717217591_6478_0.jpg","https://xcimg.szwego.com/img/16355126/20240601/i1717217591_5052_0.jpg","https://xcimg.szwego.com/img/16355126/20240601/i1717217591_4263_0.jpg","https://xcimg.szwego.com/img/16355126/20240601/i1717217591_6785_0.jpg","https://xcimg.szwego.com/img/16355126/20240601/i1717217591_2174_0.jpg","https://xcimg.szwego.com/img/16355126/20240601/i1717217591_8760_0.jpg","https://xcimg.szwego.com/img/16355126/20240601/i1717217591_7562_0.jpg","https://xcimg.szwego.com/img/16355126/20240601/i1717217591_4265_0.jpg","https://xcimg.szwego.com/img/16355126/20240601/i1717217591_7937_0.jpg"],"created_at":"2025-03-07T08:32:21.646Z"},{"id":"item-cc656aad9783","sku":"_dvOvON3wn15NE3jOYRTsVh30J3w_yfQffyb_juw","name_en":"Celine Women Bags","name_cn":"新品现货🅰️🅰️\nCe 2023新款Cabas全新16系列托特~大托特包身➕简单开合设计,使得整个包都很简洁大方,自重轻,容量大,开合方便。相对于旧款soft 来说,这款实用感更好!日常上班或出差,短途旅行,更或者妈咪包都非常实用!!️\n\n风格:轻成熟,职场女性,或做妈咪包都可️\n\n容量:超大容量~\n\n款号:112583 老花\n尺寸:37×15×27","specs":{"source":"wsxcme","sourceId":"_dvOvON3wn15NE3jOYRTsVh30J3w_yfQffyb_juw","sourceTagId":47003106,"sourceTagName":"塞琳/女包","modelNumber":"112583 老花","rawTitle":"新品现货🅰️🅰️\nCe 2023新款Cabas全新16系列托特~大托特包身➕简单开合设计,使得整个包都很简洁大方,自重轻,容量大,开合方便。相对于旧款soft 来说,这款实用感更好!日常上班或出差,短途旅行,更或者妈咪包都非常实用!!️\n\n风格:轻成熟,职场女性,或做妈咪包都可️\n\n容量:超大容量~\n\n款号:112583 老花\n尺寸:37×15×27"},"price":null,"currency":"CNY","moq":1,"category":"celine-women-bags","status":"active","alibaba_url":null,"images":["https://xcimg.szwego.com/img/77bdff09/20231007/i1696648061_2153_0.jpg","https://xcimg.szwego.com/img/77bdff09/20231007/i1696648061_4134_1.jpg","https://xcimg.szwego.com/img/77bdff09/20231007/i1696648061_7985_2.jpg","https://xcimg.szwego.com/img/77bdff09/20231007/i1696648061_9011_3.jpg","https://xcimg.szwego.com/img/77bdff09/20231007/i1696648061_2285_4.jpg","https://xcimg.szwego.com/img/77bdff09/20231007/i1696648061_7692_5.jpg","https://xcimg.szwego.com/img/77bdff09/20231007/i1696648061_1148_6.jpg","https://xcimg.szwego.com/img/77bdff09/20231007/i1696648061_3036_7.jpg"],"created_at":"2025-02-08T13:12:04.065Z"},{"id":"item-bd0ba94117e1","sku":"_dNdNd1tpDXkJJY09Cbgtl1bZGqnjg1M4zpQhZCw","name_en":"Celine/赛琳","name_cn":"Celine/赛琳\n经典半圆马鞍包\n链条包\n尺寸18cm","specs":{"source":"wsxcme","sourceId":"_dNdNd1tpDXkJJY09Cbgtl1bZGqnjg1M4zpQhZCw","sourceTagId":47003106,"sourceTagName":"塞琳/女包","rawTitle":"Celine/赛琳\n经典半圆马鞍包\n链条包\n尺寸18cm"},"price":null,"currency":"CNY","moq":1,"category":"celine-women-bags","status":"active","alibaba_url":null,"images":["https://xcimg.szwego.com/20221204/i1670157667_4075_0.jpg","https://xcimg.szwego.com/20221204/i1670157667_8872_1.jpg","https://xcimg.szwego.com/20221204/i1670157667_2067_2.jpg","https://xcimg.szwego.com/20221204/i1670157667_4854_3.jpg","https://xcimg.szwego.com/20221204/i1670157667_4857_4.jpg","https://xcimg.szwego.com/20221204/i1670157667_6224_5.jpg"],"created_at":"2025-02-08T12:47:23.837Z"},{"id":"item-ce19ea8a6172","sku":"_dmpmpi2_wWmrzmTfBez1yO9_0UvhsUjVIphJKGg","name_en":"Celine/赛琳","name_cn":"Celine/赛琳\n经典半圆马鞍包\n链条包\n尺寸18cm","specs":{"source":"wsxcme","sourceId":"_dmpmpi2_wWmrzmTfBez1yO9_0UvhsUjVIphJKGg","sourceTagId":47003106,"sourceTagName":"塞琳/女包","rawTitle":"Celine/赛琳\n经典半圆马鞍包\n链条包\n尺寸18cm"},"price":null,"currency":"CNY","moq":1,"category":"celine-women-bags","status":"active","alibaba_url":null,"images":["https://xcimg.szwego.com/20221204/i1670157625_5289_0.jpg","https://xcimg.szwego.com/20221204/i1670157625_4905_1.jpg","https://xcimg.szwego.com/20221204/i1670157625_5941_2.jpg","https://xcimg.szwego.com/20221204/i1670157625_451_3.jpg","https://xcimg.szwego.com/20221204/i1670157625_6441_4.jpg","https://xcimg.szwego.com/20221204/i1670157625_5893_5.jpg","https://xcimg.szwego.com/20221204/i1670157625_8238_6.jpg","https://xcimg.szwego.com/20221204/i1670157625_819_7.jpg","https://xcimg.szwego.com/20221204/i1670157625_32_8.jpg"],"created_at":"2025-02-08T12:47:23.836Z"},{"id":"item-489bf98160bd","sku":"_drmrm6Mm8x0CGytglGPle4IxFU_fEe5bNLJ__DQ","name_en":"赛琳  Celine Triomphe新款链条腋下包,当时秀场图一击入魂,太喜欢凯旋门+链条的设计,黑金实物太美啦!超级精致! !新款容量比老款大不少,也重了一-些,不过个人喜欢有点压肩的感觉会. 更有质感臼反正就是无敌喜欢,cp想要的姐妹赶快冲! !尺寸:30cm","name_cn":"赛琳  Celine Triomphe新款链条腋下包,当时秀场图一击入魂,太喜欢凯旋门+链条的设计,黑金实物太美啦!超级精致! !新款容量比老款大不少,也重了一-些,不过个人喜欢有点压肩的感觉会. 更有质感臼反正就是无敌喜欢,cp想要的姐妹赶快冲! !尺寸:30cm","specs":{"source":"wsxcme","sourceId":"_drmrm6Mm8x0CGytglGPle4IxFU_fEe5bNLJ__DQ","sourceTagId":47003106,"sourceTagName":"塞琳/女包","rawTitle":"赛琳  Celine Triomphe新款链条腋下包,当时秀场图一击入魂,太喜欢凯旋门+链条的设计,黑金实物太美啦!超级精致! !新款容量比老款大不少,也重了一-些,不过个人喜欢有点压肩的感觉会. 更有质感臼反正就是无敌喜欢,cp想要的姐妹赶快冲! !尺寸:30cm"},"price":null,"currency":"CNY","moq":1,"category":"celine-women-bags","status":"active","alibaba_url":null,"images":["https://xcimg.szwego.com/20221120/i1668957880_7852_0.jpg","https://xcimg.szwego.com/20221120/i1668957880_811_1.jpg","https://xcimg.szwego.com/20221120/i1668957880_5298_2.jpg","https://xcimg.szwego.com/20221120/i1668957880_3000_3.jpg","https://xcimg.szwego.com/20221120/i1668957880_8048_4.jpg","https://xcimg.szwego.com/20221120/i1668957880_3440_5.jpg","https://xcimg.szwego.com/20221120/i1668957880_9880_6.jpg","https://xcimg.szwego.com/20221120/i1668957880_6951_7.jpg","https://xcimg.szwego.com/20221120/i1668957880_2432_8.jpg"],"created_at":"2025-02-08T12:47:23.835Z"},{"id":"item-0790e63ba2b4","sku":"_dyDyDKf0eubeljlRoWrvbQmgl02CvAxqD8gG95A","name_en":"赛琳  Celine Triomphe新款链条腋下包,当时秀场图一击入魂,太喜欢凯旋门+链条的设计,黑金实物太美啦!超级精致! !新款容量比老款大不少,也重了一-些,不过个人喜欢有点压肩的感觉会. 更有质感臼反正就是无敌喜欢,cp想要的姐妹赶快冲! !尺寸:21cm","name_cn":"赛琳  Celine Triomphe新款链条腋下包,当时秀场图一击入魂,太喜欢凯旋门+链条的设计,黑金实物太美啦!超级精致! !新款容量比老款大不少,也重了一-些,不过个人喜欢有点压肩的感觉会. 更有质感臼反正就是无敌喜欢,cp想要的姐妹赶快冲! !尺寸:21cm","specs":{"source":"wsxcme","sourceId":"_dyDyDKf0eubeljlRoWrvbQmgl02CvAxqD8gG95A","sourceTagId":47003106,"sourceTagName":"塞琳/女包","rawTitle":"赛琳  Celine Triomphe新款链条腋下包,当时秀场图一击入魂,太喜欢凯旋门+链条的设计,黑金实物太美啦!超级精致! !新款容量比老款大不少,也重了一-些,不过个人喜欢有点压肩的感觉会. 更有质感臼反正就是无敌喜欢,cp想要的姐妹赶快冲! !尺寸:21cm"},"price":null,"currency":"CNY","moq":1,"category":"celine-women-bags","status":"active","alibaba_url":null,"images":["https://xcimg.szwego.com/20221120/i1668957822_8130_0.jpg","https://xcimg.szwego.com/20221120/i1668957822_9192_1.jpg","https://xcimg.szwego.com/20221120/i1668957822_2896_2.jpg","https://xcimg.szwego.com/20221120/i1668957822_56_3.jpg","https://xcimg.szwego.com/20221120/i1668957822_5642_4.jpg","https://xcimg.szwego.com/20221120/i1668957822_8367_5.jpg","https://xcimg.szwego.com/20221120/i1668957822_8904_6.jpg","https://xcimg.szwego.com/20221120/i1668957822_9156_7.jpg","https://xcimg.szwego.com/20221120/i1668957822_1794_8.jpg"],"created_at":"2025-02-08T12:47:23.834Z"},{"id":"item-0b480f9fa37e","sku":"_dhHhH2wcmj1eACIO5kwEXea_Ft6ItC3Kdf00UyQ","name_en":"赛琳  Celine Triomphe新款链条腋下包,当时秀场图一击入魂,太喜欢凯旋门+链条的设计,黑金实物太美啦!超级精致! !新款容量比老款大不少,也重了一-些,不过个人喜欢有点压肩的感觉会. 更有质感臼反正就是无敌喜欢,cp想要的姐妹赶快冲! !尺寸:30cm","name_cn":"赛琳  Celine Triomphe新款链条腋下包,当时秀场图一击入魂,太喜欢凯旋门+链条的设计,黑金实物太美啦!超级精致! !新款容量比老款大不少,也重了一-些,不过个人喜欢有点压肩的感觉会. 更有质感臼反正就是无敌喜欢,cp想要的姐妹赶快冲! !尺寸:30cm","specs":{"source":"wsxcme","sourceId":"_dhHhH2wcmj1eACIO5kwEXea_Ft6ItC3Kdf00UyQ","sourceTagId":47003106,"sourceTagName":"塞琳/女包","rawTitle":"赛琳  Celine Triomphe新款链条腋下包,当时秀场图一击入魂,太喜欢凯旋门+链条的设计,黑金实物太美啦!超级精致! !新款容量比老款大不少,也重了一-些,不过个人喜欢有点压肩的感觉会. 更有质感臼反正就是无敌喜欢,cp想要的姐妹赶快冲! !尺寸:30cm"},"price":null,"currency":"CNY","moq":1,"category":"celine-women-bags","status":"active","alibaba_url":null,"images":["https://xcimg.szwego.com/20221120/i1668956024_6912_0.jpg","https://xcimg.szwego.com/20221120/i1668956024_4049_1.jpg","https://xcimg.szwego.com/20221120/i1668956024_8823_2.jpg","https://xcimg.szwego.com/20221120/i1668956024_2118_3.jpg","https://xcimg.szwego.com/20221120/i1668956024_1195_4.jpg","https://xcimg.szwego.com/20221120/i1668956024_2105_5.jpg","https://xcimg.szwego.com/20221120/i1668956024_5077_6.jpg","https://xcimg.szwego.com/20221120/i1668956024_2399_7.jpg","https://xcimg.szwego.com/20221120/i1668956024_8267_8.jpg"],"created_at":"2025-02-08T12:47:23.833Z"},{"id":"item-57f38f247fc5","sku":"_dzNzNIPB7TqL36-pWJf6kaF18-FhyD3JfI3YCNg","name_en":"赛琳  Celine Triomphe新款链条腋下包,当时秀场图一击入魂,太喜欢凯旋门+链条的设计,黑金实物太美啦!超级精致! !新款容量比老款大不少,也重了一-些,不过个人喜欢有点压肩的感觉会. 更有质感臼反正就是无敌喜欢,cp想要的姐妹赶快冲! !尺寸:30cm","name_cn":"赛琳  Celine Triomphe新款链条腋下包,当时秀场图一击入魂,太喜欢凯旋门+链条的设计,黑金实物太美啦!超级精致! !新款容量比老款大不少,也重了一-些,不过个人喜欢有点压肩的感觉会. 更有质感臼反正就是无敌喜欢,cp想要的姐妹赶快冲! !尺寸:30cm","specs":{"source":"wsxcme","sourceId":"_dzNzNIPB7TqL36-pWJf6kaF18-FhyD3JfI3YCNg","sourceTagId":47003106,"sourceTagName":"塞琳/女包","rawTitle":"赛琳  Celine Triomphe新款链条腋下包,当时秀场图一击入魂,太喜欢凯旋门+链条的设计,黑金实物太美啦!超级精致! !新款容量比老款大不少,也重了一-些,不过个人喜欢有点压肩的感觉会. 更有质感臼反正就是无敌喜欢,cp想要的姐妹赶快冲! !尺寸:30cm"},"price":null,"currency":"CNY","moq":1,"category":"celine-women-bags","status":"active","alibaba_url":null,"images":["https://xcimg.szwego.com/20220519/i1652927620_8773_0.jpg","https://xcimg.szwego.com/20220519/i1652927620_7249_1.jpg","https://xcimg.szwego.com/20220519/i1652927620_7061_2.jpg","https://xcimg.szwego.com/20220519/i1652927620_5098_3.jpg","https://xcimg.szwego.com/20220519/i1652927620_7563_4.jpg","https://xcimg.szwego.com/20220519/i1652927620_8397_5.jpg","https://xcimg.szwego.com/20220519/i1652927620_7039_6.jpg","https://xcimg.szwego.com/20220519/i1652927620_2146_7.jpg","https://xcimg.szwego.com/20220519/i1652927620_344_8.jpg"],"created_at":"2025-02-08T12:47:23.832Z"},{"id":"item-658020ff664f","sku":"_drwrwOQ-XU-o5dMX7I64jgZC4BWWagfzEH_GjvQ","name_en":"👑Celine/赛琳22新款圆筒包经典老花印花单肩斜挎包男女通用哦     肩带可调节长短!  尺寸22-12.5-12.5    款号2208","name_cn":"👑Celine/赛琳22新款圆筒包经典老花印花单肩斜挎包男女通用哦     肩带可调节长短!  尺寸22-12.5-12.5    款号2208","specs":{"source":"wsxcme","sourceId":"_drwrwOQ-XU-o5dMX7I64jgZC4BWWagfzEH_GjvQ","sourceTagId":47003106,"sourceTagName":"塞琳/女包","modelNumber":"2208","rawTitle":"👑Celine/赛琳22新款圆筒包经典老花印花单肩斜挎包男女通用哦     肩带可调节长短!  尺寸22-12.5-12.5    款号2208"},"price":null,"currency":"CNY","moq":1,"category":"celine-women-bags","status":"active","alibaba_url":null,"images":["https://xcimg.szwego.com/20220706/i1657043609_1715_0.jpg","https://xcimg.szwego.com/20220706/i1657043609_3540_1.jpg","https://xcimg.szwego.com/20220706/i1657043609_7630_2.jpg","https://xcimg.szwego.com/20220706/i1657043609_1915_3.jpg","https://xcimg.szwego.com/20220706/i1657043609_8066_4.jpg","https://xcimg.szwego.com/20220706/i1657043609_2748_5.jpg","https://xcimg.szwego.com/20220706/i1657043609_4232_6.jpg","https://xcimg.szwego.com/20220706/i1657043609_5103_7.jpg","https://xcimg.szwego.com/20220706/i1657043609_4436_8.jpg"],"created_at":"2025-02-08T12:47:23.831Z"},{"id":"item-e6544f97a104","sku":"_dJMJMGfXkFl9w71WPCLyrB2TiT9OQdO9UMGds2Q","name_en":"Celine赛琳老花腋下包","name_cn":"Celine赛琳老花腋下包\n满满的设计感 复古中透露着优雅\n超级高级的配色 \n实物绝对惊艳到你 \n尺寸24 12","specs":{"source":"wsxcme","sourceId":"_dJMJMGfXkFl9w71WPCLyrB2TiT9OQdO9UMGds2Q","sourceTagId":47003106,"sourceTagName":"塞琳/女包","rawTitle":"Celine赛琳老花腋下包\n满满的设计感 复古中透露着优雅\n超级高级的配色 \n实物绝对惊艳到你 \n尺寸24 12"},"price":null,"currency":"CNY","moq":1,"category":"celine-women-bags","status":"active","alibaba_url":null,"images":["https://xcimg.szwego.com/20221105/i1667649648_2695_0.jpg","https://xcimg.szwego.com/20221105/i1667649648_9158_1.jpg","https://xcimg.szwego.com/20221105/i1667649648_511_2.jpg","https://xcimg.szwego.com/20221105/i1667649648_3754_3.jpg","https://xcimg.szwego.com/20221105/i1667649648_3002_4.jpg","https://xcimg.szwego.com/20221105/i1667649648_4214_5.jpg","https://xcimg.szwego.com/20221105/i1667649648_7283_6.jpg","https://xcimg.szwego.com/20221105/i1667649648_8103_7.jpg","https://xcimg.szwego.com/20221105/i1667649648_7697_8.jpg"],"created_at":"2025-02-08T12:47:23.830Z"},{"id":"item-cf515268f59a","sku":"_dv3v3aDa-OtggvzfYQxzNSotWS_mpz-GO5V-a0w","name_en":"赛琳 Celine小猪包","name_cn":"赛琳 Celine小猪包\n永远的百搭单品\n上身绝美 这份质感\n小仙女们值得拥有\n尺寸:18 15","specs":{"source":"wsxcme","sourceId":"_dv3v3aDa-OtggvzfYQxzNSotWS_mpz-GO5V-a0w","sourceTagId":47003106,"sourceTagName":"塞琳/女包","rawTitle":"赛琳 Celine小猪包\n永远的百搭单品\n上身绝美 这份质感\n小仙女们值得拥有\n尺寸:18 15"},"price":null,"currency":"CNY","moq":1,"category":"celine-women-bags","status":"active","alibaba_url":null,"images":["https://xcimg.szwego.com/20221105/i1667649476_706_0.jpg","https://xcimg.szwego.com/20221105/i1667649476_6418_1.jpg","https://xcimg.szwego.com/20221105/i1667649476_9099_2.jpg","https://xcimg.szwego.com/20221105/i1667649476_1279_3.jpg","https://xcimg.szwego.com/20221105/i1667649476_6853_4.jpg","https://xcimg.szwego.com/20221105/i1667649476_996_5.jpg","https://xcimg.szwego.com/20221105/i1667649476_2969_6.jpg","https://xcimg.szwego.com/20221105/i1667649476_4302_7.jpg","https://xcimg.szwego.com/20221105/i1667649476_5424_8.jpg"],"created_at":"2025-02-08T12:47:23.829Z"},{"id":"item-2d86bb285291","sku":"_dMPMPrmnC9jUo0RL5iPDZBPbACdNVYgZ1gLwoZA","name_en":"Celine Women Bags","name_cn":"赛琳 凯旋门腋下包(链条款)\nCeline满足日常所有需求\n简直能装下整个世界\n出门旅行非常方便\n时髦感满满\n尺寸19.5×11.5cm","specs":{"source":"wsxcme","sourceId":"_dMPMPrmnC9jUo0RL5iPDZBPbACdNVYgZ1gLwoZA","sourceTagId":47003106,"sourceTagName":"塞琳/女包","rawTitle":"赛琳 凯旋门腋下包(链条款)\nCeline满足日常所有需求\n简直能装下整个世界\n出门旅行非常方便\n时髦感满满\n尺寸19.5×11.5cm"},"price":null,"currency":"CNY","moq":1,"category":"celine-women-bags","status":"active","alibaba_url":null,"images":["https://xcimg.szwego.com/20221105/i1667648879_7563_0.jpg","https://xcimg.szwego.com/20221105/i1667648879_9548_1.jpg","https://xcimg.szwego.com/20221105/i1667648879_6648_2.jpg","https://xcimg.szwego.com/20221105/i1667648879_5959_3.jpg","https://xcimg.szwego.com/20221105/i1667648879_7108_4.jpg","https://xcimg.szwego.com/20221105/i1667648879_2611_5.jpg","https://xcimg.szwego.com/20221105/i1667648879_9601_6.jpg","https://xcimg.szwego.com/20221105/i1667648879_3087_7.jpg","https://xcimg.szwego.com/20221105/i1667648879_7943_8.jpg"],"created_at":"2025-02-08T12:47:23.828Z"},{"id":"item-1128b3d9cbde","sku":"_d0909TM_f9E40vsRU-sMf0cdffFShoRvNi7ds_w","name_en":"赛琳款号:8021TRIOMPHE波士顿包』","name_cn":"赛琳款号:8021TRIOMPHE波士顿包』\n近期火爆热销款、高颜值旅行袋✈️复古致极的凯旋印花图案简约线条流利、伴随原设计的颠覆性、真的很old school \n让人不经意秒get💢\n款号:190372料_黄鹤棕\n尺寸:31-18-16","specs":{"source":"wsxcme","sourceId":"_d0909TM_f9E40vsRU-sMf0cdffFShoRvNi7ds_w","sourceTagId":47003106,"sourceTagName":"塞琳/女包","modelNumber":"8021TRIOMPHE波士顿包』","rawTitle":"赛琳款号:8021TRIOMPHE波士顿包』\n近期火爆热销款、高颜值旅行袋✈️复古致极的凯旋印花图案简约线条流利、伴随原设计的颠覆性、真的很old school \n让人不经意秒get💢\n款号:190372料_黄鹤棕\n尺寸:31-18-16"},"price":null,"currency":"CNY","moq":1,"category":"celine-women-bags","status":"active","alibaba_url":null,"images":["https://xcimg.szwego.com/20220903/a1662138730413_1827.jpg","https://xcimg.szwego.com/20220903/a1662138730588_1811.jpg","https://xcimg.szwego.com/20220903/a1662138730593_3451.jpg","https://xcimg.szwego.com/20220903/a1662138730612_6433.jpg","https://xcimg.szwego.com/20220903/a1662138730626_3846.jpg","https://xcimg.szwego.com/20220903/a1662138730639_7334.jpg","https://xcimg.szwego.com/20220903/a1662138730653_5811.jpg","https://xcimg.szwego.com/20220903/a1662138730667_6527.jpg","https://xcimg.szwego.com/20220903/a1662138730948_2157.jpg"],"created_at":"2025-02-08T12:47:23.827Z"},{"id":"item-6ede9e574a66","sku":"_dekekoOVs57hDQrEwnHbjY_SzMC5Evn5gCeDFmg","name_en":"新款 赛琳老花系列 Celin.e TRIOMPHE帆布中号购物袋,65%涂层帆布和35%小牛皮,100%棉衬里,按扣开合,内侧扁平口袋,容量超大 既好看 又能装#购物逛街必带包# 超满足#","name_cn":"新款 赛琳老花系列 Celin.e TRIOMPHE帆布中号购物袋,65%涂层帆布和35%小牛皮,100%棉衬里,按扣开合,内侧扁平口袋,容量超大 既好看 又能装#购物逛街必带包# 超满足# \n尺寸30 X 37 X 22cm\n型号:4111#","specs":{"source":"wsxcme","sourceId":"_dekekoOVs57hDQrEwnHbjY_SzMC5Evn5gCeDFmg","sourceTagId":47003106,"sourceTagName":"塞琳/女包","modelNumber":"4111#","dimensions":{"lengthCm":30,"heightCm":37,"widthCm":22},"rawTitle":"新款 赛琳老花系列 Celin.e TRIOMPHE帆布中号购物袋,65%涂层帆布和35%小牛皮,100%棉衬里,按扣开合,内侧扁平口袋,容量超大 既好看 又能装#购物逛街必带包# 超满足# \n尺寸30 X 37 X 22cm\n型号:4111#"},"price":null,"currency":"CNY","moq":1,"category":"celine-women-bags","status":"active","alibaba_url":null,"images":["https://xcimg.szwego.com/20220702/i1656743349_8609_0.jpg","https://xcimg.szwego.com/20220702/i1656743349_193_1.jpg","https://xcimg.szwego.com/20220702/i1656743349_2288_2.jpg","https://xcimg.szwego.com/20220702/i1656743349_5364_3.jpg","https://xcimg.szwego.com/20220702/i1656743349_2156_4.jpg","https://xcimg.szwego.com/20220702/i1656743349_5037_5.jpg","https://xcimg.szwego.com/20220702/i1656743349_1739_7.jpg","https://xcimg.szwego.com/20220702/i1656743349_955_8.jpg"],"created_at":"2025-02-08T12:47:23.826Z"},{"id":"item-2cfac4c13ab7","sku":"_dk2k2wgfTqdxXTfPHbyUip582prOhl6toGkbTtw","name_en":"『Celine 赛琳』","name_cn":"『Celine 赛琳』\n\nCeline/赛琳22新款圆筒包\n经典老花印花单肩斜挎包\n男女通用哦 尺寸23 13cm \n肩带可调节长短!","specs":{"source":"wsxcme","sourceId":"_dk2k2wgfTqdxXTfPHbyUip582prOhl6toGkbTtw","sourceTagId":47003106,"sourceTagName":"塞琳/女包","rawTitle":"『Celine 赛琳』\n\nCeline/赛琳22新款圆筒包\n经典老花印花单肩斜挎包\n男女通用哦 尺寸23 13cm \n肩带可调节长短!"},"price":null,"currency":"CNY","moq":1,"category":"celine-women-bags","status":"active","alibaba_url":null,"images":["https://xcimg.szwego.com/20220629/i1656457574_1981_8.jpg","https://xcimg.szwego.com/20220629/i1656457574_6739_1.jpg","https://xcimg.szwego.com/20220629/i1656457574_1510_5.jpg","https://xcimg.szwego.com/20220629/i1656457574_1468_7.jpg","https://xcimg.szwego.com/20220629/i1656457574_1021_2.jpg","https://xcimg.szwego.com/20220629/i1656457574_9282_3.jpg","https://xcimg.szwego.com/20220629/i1656457574_7724_4.jpg","https://xcimg.szwego.com/20220629/i1656457574_5612_6.jpg","https://xcimg.szwego.com/20220629/i1656457574_2401_0.jpg"],"created_at":"2025-02-08T12:47:23.825Z"},{"id":"item-70954a3b7725","sku":"_dxVxVysACnUroH4XMDliVJTKaU4UYPyVcFCuChg","name_en":"『Celine 赛琳』","name_cn":"『Celine 赛琳』\n\n新品水桶包\n走秀款麻绳水桶\n一眼便爱上 \n太有夏天的味道了\n复古老花搭配朴实粗绳肩带\n一种法式的随意高级感!\n尺寸:19*23cm","specs":{"source":"wsxcme","sourceId":"_dxVxVysACnUroH4XMDliVJTKaU4UYPyVcFCuChg","sourceTagId":47003106,"sourceTagName":"塞琳/女包","rawTitle":"『Celine 赛琳』\n\n新品水桶包\n走秀款麻绳水桶\n一眼便爱上 \n太有夏天的味道了\n复古老花搭配朴实粗绳肩带\n一种法式的随意高级感!\n尺寸:19*23cm"},"price":null,"currency":"CNY","moq":1,"category":"celine-women-bags","status":"active","alibaba_url":null,"images":["https://xcimg.szwego.com/20220606/i1654507226_1515_0.jpg","https://xcimg.szwego.com/20220606/i1654507226_2330_1.jpg","https://xcimg.szwego.com/20220606/i1654507226_6850_2.jpg","https://xcimg.szwego.com/20220606/i1654507226_7536_3.jpg","https://xcimg.szwego.com/20220606/i1654507226_5140_4.jpg","https://xcimg.szwego.com/20220606/i1654507226_8517_5.jpg","https://xcimg.szwego.com/20220606/i1654507226_1173_6.jpg","https://xcimg.szwego.com/20220606/i1654507226_6766_7.jpg","https://xcimg.szwego.com/20220606/i1654507226_9670_8.jpg"],"created_at":"2025-02-08T12:47:23.824Z"},{"id":"item-14dfd074d9ce","sku":"_dQ8Q8U8qGpsk7ymUryHgCD25nYjXzYE15hkEZyg","name_en":"『Celine 赛琳』","name_cn":"『Celine 赛琳』\n\nCELINE托特包 手拎和单肩都很好看有腔调!老花搭配任何衣服都非常百搭,四季可用,让你可甜可盐,今年的老花风潮风靡全世界,拥有这只一定让你成为全场最有话题的时髦精 尺寸17*21cm","specs":{"source":"wsxcme","sourceId":"_dQ8Q8U8qGpsk7ymUryHgCD25nYjXzYE15hkEZyg","sourceTagId":47003106,"sourceTagName":"塞琳/女包","rawTitle":"『Celine 赛琳』\n\nCELINE托特包 手拎和单肩都很好看有腔调!老花搭配任何衣服都非常百搭,四季可用,让你可甜可盐,今年的老花风潮风靡全世界,拥有这只一定让你成为全场最有话题的时髦精 尺寸17*21cm"},"price":null,"currency":"CNY","moq":1,"category":"celine-women-bags","status":"active","alibaba_url":null,"images":["https://xcimg.szwego.com/20220401/i1648813230_9141_0.jpg","https://xcimg.szwego.com/20220401/i1648813230_3157_1.jpg","https://xcimg.szwego.com/20220401/i1648813230_3121_2.jpg","https://xcimg.szwego.com/20220401/i1648813230_6281_3.jpg","https://xcimg.szwego.com/20220401/i1648813230_8168_4.jpg","https://xcimg.szwego.com/20220401/i1648813230_485_5.jpg","https://xcimg.szwego.com/20220401/i1648813230_5118_6.jpg","https://xcimg.szwego.com/20220401/i1648813230_2092_7.jpg","https://xcimg.szwego.com/20220401/i1648813230_1782_8.jpg"],"created_at":"2025-02-08T12:47:23.823Z"},{"id":"item-126ef0b067c2","sku":"_dwVwVbGtanVtOePYe6jctd8-51cBuqO_hkPsX0w","name_en":"『Celine 赛琳』","name_cn":"『Celine 赛琳』\n\n腋下包 最近发现 复古的老花风潮 持续升温Lisa作为Celine亚洲唯一代言人Celine老花 出镜率都很高!高级感超强!尺寸24*14cm","specs":{"source":"wsxcme","sourceId":"_dwVwVbGtanVtOePYe6jctd8-51cBuqO_hkPsX0w","sourceTagId":47003106,"sourceTagName":"塞琳/女包","rawTitle":"『Celine 赛琳』\n\n腋下包 最近发现 复古的老花风潮 持续升温Lisa作为Celine亚洲唯一代言人Celine老花 出镜率都很高!高级感超强!尺寸24*14cm"},"price":null,"currency":"CNY","moq":1,"category":"celine-women-bags","status":"active","alibaba_url":null,"images":["https://xcimg.szwego.com/20220108/i1641636261_7813_0.jpg","https://xcimg.szwego.com/20220108/i1641636261_2102_1.jpg","https://xcimg.szwego.com/20220108/i1641636261_5614_2.jpg","https://xcimg.szwego.com/20220108/i1641636261_9018_3.jpg","https://xcimg.szwego.com/20220108/i1641636261_4349_4.jpg","https://xcimg.szwego.com/20220108/i1641636261_4761_5.jpg","https://xcimg.szwego.com/20220108/i1641636261_7280_6.jpg","https://xcimg.szwego.com/20220108/i1641636261_7868_7.jpg","https://xcimg.szwego.com/20220108/i1641636261_1910_8.jpg"],"created_at":"2025-02-08T12:47:23.822Z"},{"id":"item-7146b00391ff","sku":"_dS3S3Dev4ickxKkZaZcKfTy1kiCMxWoid3XFrJw","name_en":"『Celine 赛琳』","name_cn":"『Celine 赛琳』\n\n专柜同步 赛琳celine专柜最新款水桶购物袋🛍️全新搭配 原版18K金五金 高端品质 原版面料 超级大牌的一款 上身特别洋气 喜欢的美妞抓紧自留啦 尺寸小号:18*22cm 大号28*27","specs":{"source":"wsxcme","sourceId":"_dS3S3Dev4ickxKkZaZcKfTy1kiCMxWoid3XFrJw","sourceTagId":47003106,"sourceTagName":"塞琳/女包","rawTitle":"『Celine 赛琳』\n\n专柜同步 赛琳celine专柜最新款水桶购物袋🛍️全新搭配 原版18K金五金 高端品质 原版面料 超级大牌的一款 上身特别洋气 喜欢的美妞抓紧自留啦 尺寸小号:18*22cm 大号28*27"},"price":null,"currency":"CNY","moq":1,"category":"celine-women-bags","status":"active","alibaba_url":null,"images":["https://xcimg.szwego.com/20220628/i1656378862_3024_0.jpg","https://xcimg.szwego.com/20220628/i1656378862_115_4.jpg","https://xcimg.szwego.com/20220628/i1656378862_4225_1.jpg","https://xcimg.szwego.com/20220628/i1656378862_3512_2.jpg","https://xcimg.szwego.com/20220628/i1656378862_6955_3.jpg","https://xcimg.szwego.com/20220628/i1656378862_7685_5.jpg"],"created_at":"2025-02-08T12:47:23.821Z"}],"page":8,"pageSize":24,"total":582,"totalPages":25}
