{"items":[{"id":"item-d7b39483fdee","sku":"_ds1s1s9lrhOSemc8MYitzPfXQoEvTyTf0mBAYrw","name_en":"CELIN* 升级版凯旋门豆腐包187366_印花棕色_采用进口牛皮材质内里纯羊皮➕钢五金_凯旋门新理念的定义 添加巴黎的元素 复古风调 高贵的气质 被时尚领域再度认知 超多明星的热爱款 经典再创新 再次重塑经典包扣精致设计 很符合时尚前沿✔️","name_cn":"CELIN* 升级版凯旋门豆腐包187366_印花棕色_采用进口牛皮材质内里纯羊皮➕钢五金_凯旋门新理念的定义 添加巴黎的元素 复古风调 高贵的气质 被时尚领域再度认知 超多明星的热爱款 经典再创新 再次重塑经典包扣精致设计 很符合时尚前沿✔️\n尺寸:22.5-16.5-7.5 【配原厂礼品盒🎁】","specs":{"source":"wsxcme","sourceId":"_ds1s1s9lrhOSemc8MYitzPfXQoEvTyTf0mBAYrw","sourceTagId":47003106,"sourceTagName":"塞琳/女包","rawTitle":"CELIN* 升级版凯旋门豆腐包187366_印花棕色_采用进口牛皮材质内里纯羊皮➕钢五金_凯旋门新理念的定义 添加巴黎的元素 复古风调 高贵的气质 被时尚领域再度认知 超多明星的热爱款 经典再创新 再次重塑经典包扣精致设计 很符合时尚前沿✔️\n尺寸:22.5-16.5-7.5 【配原厂礼品盒🎁】"},"price":null,"currency":"CNY","moq":1,"category":"celine-women-bags","status":"active","alibaba_url":null,"images":["https://xcimg.szwego.com/20230216/i1676538201_5264_0.jpg","https://xcimg.szwego.com/20230216/i1676538201_1912_1.jpg","https://xcimg.szwego.com/20230216/i1676538201_8778_2.jpg","https://xcimg.szwego.com/20230216/i1676538201_4448_3.jpg","https://xcimg.szwego.com/20230216/i1676538201_3524_4.jpg","https://xcimg.szwego.com/20230216/i1676538201_9567_5.jpg","https://xcimg.szwego.com/20230216/i1676538201_2886_6.jpg","https://xcimg.szwego.com/20230216/i1676538201_3418_7.jpg","https://xcimg.szwego.com/20230216/i1676538201_9677_8.jpg"],"created_at":"2024-04-30T06:38:14.776Z"},{"id":"item-a79cf6612f0e","sku":"_daIaINO2AR3hncAkQB2U53Jypzu0nBW_HepZihg","name_en":"CELIN* 升级版凯旋门豆腐包187366_全皮奶茶色 采用进口牛皮材质内里纯羊皮➕钢五金_凯旋门新理念的定义 添加巴黎的元素 复古风调 高贵的气质 被时尚领域再度认知 超多明星的热爱款 经典再创新 再次重塑经典包扣精致设计 很符合时尚前沿✔️","name_cn":"CELIN* 升级版凯旋门豆腐包187366_全皮奶茶色 采用进口牛皮材质内里纯羊皮➕钢五金_凯旋门新理念的定义 添加巴黎的元素 复古风调 高贵的气质 被时尚领域再度认知 超多明星的热爱款 经典再创新 再次重塑经典包扣精致设计 很符合时尚前沿✔️\n尺寸:22.5-16.5-7.5 【配原厂礼品盒🎁】","specs":{"source":"wsxcme","sourceId":"_daIaINO2AR3hncAkQB2U53Jypzu0nBW_HepZihg","sourceTagId":47003106,"sourceTagName":"塞琳/女包","rawTitle":"CELIN* 升级版凯旋门豆腐包187366_全皮奶茶色 采用进口牛皮材质内里纯羊皮➕钢五金_凯旋门新理念的定义 添加巴黎的元素 复古风调 高贵的气质 被时尚领域再度认知 超多明星的热爱款 经典再创新 再次重塑经典包扣精致设计 很符合时尚前沿✔️\n尺寸:22.5-16.5-7.5 【配原厂礼品盒🎁】"},"price":null,"currency":"CNY","moq":1,"category":"celine-women-bags","status":"active","alibaba_url":null,"images":["https://xcimg.szwego.com/20230216/i1676536214_9797_0.jpg","https://xcimg.szwego.com/20230216/i1676536214_4334_1.jpg","https://xcimg.szwego.com/20230216/i1676536214_4926_2.jpg","https://xcimg.szwego.com/20230216/i1676536214_2524_3.jpg","https://xcimg.szwego.com/20230216/i1676536214_6755_4.jpg","https://xcimg.szwego.com/20230216/i1676536214_150_5.jpg","https://xcimg.szwego.com/20230216/i1676536214_1949_6.jpg","https://xcimg.szwego.com/20230216/i1676536214_8835_7.jpg","https://xcimg.szwego.com/20230216/i1676536214_5407_8.jpg"],"created_at":"2024-04-30T06:38:14.775Z"},{"id":"item-59e4ebc5a4f1","sku":"_dg3g3AEs0dvB2SrysM8N9mGx2zNJ9BinLgEOsnQ","name_en":"CELIN* 升级版凯旋门豆腐包187366_全皮墨绿色 采用进口牛皮材质内里纯羊皮➕钢五金_凯旋门新理念的定义 添加巴黎的元素 复古风调 高贵的气质 被时尚领域再度认知 超多明星的热爱款 经典再创新 再次重塑经典包扣精致设计 很符合时尚前沿✔️","name_cn":"CELIN* 升级版凯旋门豆腐包187366_全皮墨绿色 采用进口牛皮材质内里纯羊皮➕钢五金_凯旋门新理念的定义 添加巴黎的元素 复古风调 高贵的气质 被时尚领域再度认知 超多明星的热爱款 经典再创新 再次重塑经典包扣精致设计 很符合时尚前沿✔️\n尺寸:22.5-16.5-7.5 【配原厂礼品盒🎁】","specs":{"source":"wsxcme","sourceId":"_dg3g3AEs0dvB2SrysM8N9mGx2zNJ9BinLgEOsnQ","sourceTagId":47003106,"sourceTagName":"塞琳/女包","rawTitle":"CELIN* 升级版凯旋门豆腐包187366_全皮墨绿色 采用进口牛皮材质内里纯羊皮➕钢五金_凯旋门新理念的定义 添加巴黎的元素 复古风调 高贵的气质 被时尚领域再度认知 超多明星的热爱款 经典再创新 再次重塑经典包扣精致设计 很符合时尚前沿✔️\n尺寸:22.5-16.5-7.5 【配原厂礼品盒🎁】"},"price":null,"currency":"CNY","moq":1,"category":"celine-women-bags","status":"active","alibaba_url":null,"images":["https://xcimg.szwego.com/20230216/i1676535841_9433_0.jpg","https://xcimg.szwego.com/20230216/i1676535841_3348_1.jpg","https://xcimg.szwego.com/20230216/i1676535841_5688_2.jpg","https://xcimg.szwego.com/20230216/i1676535841_3296_3.jpg","https://xcimg.szwego.com/20230216/i1676535841_9551_4.jpg","https://xcimg.szwego.com/20230216/i1676535841_3993_5.jpg","https://xcimg.szwego.com/20230216/i1676535841_4156_6.jpg","https://xcimg.szwego.com/20230216/i1676535841_4737_7.jpg","https://xcimg.szwego.com/20230216/i1676535841_3975_8.jpg"],"created_at":"2024-04-30T06:38:14.774Z"},{"id":"item-930453545f2f","sku":"_dw-w-pIZ7C-K9D0lMoX6u1pkVfAmx-IC3uwczNQ","name_en":"CELIN* 升级版凯旋门豆腐包187366_全皮焦糖色 采用进口牛皮材质内里纯羊皮➕钢五金_凯旋门新理念的定义 添加巴黎的元素 复古风调 高贵的气质 被时尚领域再度认知 超多明星的热爱款 经典再创新 再次重塑经典包扣精致设计 很符合时尚前沿✔️","name_cn":"CELIN* 升级版凯旋门豆腐包187366_全皮焦糖色 采用进口牛皮材质内里纯羊皮➕钢五金_凯旋门新理念的定义 添加巴黎的元素 复古风调 高贵的气质 被时尚领域再度认知 超多明星的热爱款 经典再创新 再次重塑经典包扣精致设计 很符合时尚前沿✔️\n尺寸:22.5-16.5-7.5 【配原厂礼品盒🎁】","specs":{"source":"wsxcme","sourceId":"_dw-w-pIZ7C-K9D0lMoX6u1pkVfAmx-IC3uwczNQ","sourceTagId":47003106,"sourceTagName":"塞琳/女包","rawTitle":"CELIN* 升级版凯旋门豆腐包187366_全皮焦糖色 采用进口牛皮材质内里纯羊皮➕钢五金_凯旋门新理念的定义 添加巴黎的元素 复古风调 高贵的气质 被时尚领域再度认知 超多明星的热爱款 经典再创新 再次重塑经典包扣精致设计 很符合时尚前沿✔️\n尺寸:22.5-16.5-7.5 【配原厂礼品盒🎁】"},"price":null,"currency":"CNY","moq":1,"category":"celine-women-bags","status":"active","alibaba_url":null,"images":["https://xcimg.szwego.com/20230216/i1676534028_1848_0.jpg","https://xcimg.szwego.com/20230216/i1676534028_6894_1.jpg","https://xcimg.szwego.com/20230216/i1676534028_9485_2.jpg","https://xcimg.szwego.com/20230216/i1676534028_8281_3.jpg","https://xcimg.szwego.com/20230216/i1676534028_6946_4.jpg","https://xcimg.szwego.com/20230216/i1676534028_5635_5.jpg","https://xcimg.szwego.com/20230216/i1676534028_351_6.jpg","https://xcimg.szwego.com/20230216/i1676534028_4876_7.jpg","https://xcimg.szwego.com/20230216/i1676534028_7431_8.jpg"],"created_at":"2024-04-30T06:38:14.773Z"},{"id":"item-f184b88ec984","sku":"_dHEHEKVNtBRH9nwbujk2qCmMp7MVySHgifYovIQ","name_en":"CELIN* 升级版凯旋门豆腐包187366_全皮黑色 采用进口牛皮材质内里纯羊皮➕钢五金_凯旋门新理念的定义 添加巴黎的元素 复古风调 高贵的气质 被时尚领域再度认知 超多明星的热爱款 经典再创新 再次重塑经典包扣精致设计 很符合时尚前沿✔️","name_cn":"CELIN* 升级版凯旋门豆腐包187366_全皮黑色 采用进口牛皮材质内里纯羊皮➕钢五金_凯旋门新理念的定义 添加巴黎的元素 复古风调 高贵的气质 被时尚领域再度认知 超多明星的热爱款 经典再创新 再次重塑经典包扣精致设计 很符合时尚前沿✔️\n尺寸:22.5-16.5-7.5 【配原厂礼品盒🎁】","specs":{"source":"wsxcme","sourceId":"_dHEHEKVNtBRH9nwbujk2qCmMp7MVySHgifYovIQ","sourceTagId":47003106,"sourceTagName":"塞琳/女包","rawTitle":"CELIN* 升级版凯旋门豆腐包187366_全皮黑色 采用进口牛皮材质内里纯羊皮➕钢五金_凯旋门新理念的定义 添加巴黎的元素 复古风调 高贵的气质 被时尚领域再度认知 超多明星的热爱款 经典再创新 再次重塑经典包扣精致设计 很符合时尚前沿✔️\n尺寸:22.5-16.5-7.5 【配原厂礼品盒🎁】"},"price":null,"currency":"CNY","moq":1,"category":"celine-women-bags","status":"active","alibaba_url":null,"images":["https://xcimg.szwego.com/20230216/i1676532207_345_0.jpg","https://xcimg.szwego.com/20230216/i1676532207_4996_1.jpg","https://xcimg.szwego.com/20230216/i1676532207_2764_2.jpg","https://xcimg.szwego.com/20230216/i1676532207_8818_3.jpg","https://xcimg.szwego.com/20230216/i1676532207_4141_4.jpg","https://xcimg.szwego.com/20230216/i1676532207_2840_5.jpg","https://xcimg.szwego.com/20230216/i1676532207_9393_6.jpg","https://xcimg.szwego.com/20230216/i1676532207_1480_7.jpg","https://xcimg.szwego.com/20230216/i1676532207_6640_8.jpg"],"created_at":"2024-04-30T06:38:14.772Z"},{"id":"item-48fa4a7141ff","sku":"_dkYkYdOdsS-A2OaVFfzcsshyjXURoYWG1_3dEaw","name_en":"Celine Women Bags","name_cn":"大号,小号\nCELIN* Triomphe手袋 :💎全新凯旋Box系列,以双C标志为重点扣饰〰️承袭Classic精髓,简洁俐落方型轮廓与微光小牛皮,内里搭配小羊皮,全钢复古凯旋门扣,尽显复古典雅气韵。💕尺寸:22 X 16.5 X 7cm。🔮编号: 188423大","specs":{"source":"wsxcme","sourceId":"_dkYkYdOdsS-A2OaVFfzcsshyjXURoYWG1_3dEaw","sourceTagId":47003106,"sourceTagName":"塞琳/女包","dimensions":{"lengthCm":22,"heightCm":16.5,"widthCm":7},"rawTitle":"大号,小号\nCELIN* Triomphe手袋 :💎全新凯旋Box系列,以双C标志为重点扣饰〰️承袭Classic精髓,简洁俐落方型轮廓与微光小牛皮,内里搭配小羊皮,全钢复古凯旋门扣,尽显复古典雅气韵。💕尺寸:22 X 16.5 X 7cm。🔮编号: 188423大"},"price":null,"currency":"CNY","moq":1,"category":"celine-women-bags","status":"active","alibaba_url":null,"images":["https://xcimg.szwego.com/img/f671a590/20231011/a1696992908721_5620.jpg","https://xcimg.szwego.com/img/f671a590/20231011/a1696992908723_2414.jpg","https://xcimg.szwego.com/img/f671a590/20231011/a1696992908726_8742.jpg","https://xcimg.szwego.com/img/f671a590/20231011/a1696992908968_1735.jpg","https://xcimg.szwego.com/img/f671a590/20231011/a1696992909188_4215.jpg","https://xcimg.szwego.com/img/f671a590/20231011/a1696992910516_0188.jpg","https://xcimg.szwego.com/img/f671a590/20231011/a1696992910517_3540.jpg","https://xcimg.szwego.com/img/f671a590/20231011/a1696992910661_8051.jpg","https://xcimg.szwego.com/img/f671a590/20231011/a1696992910756_2648.jpg"],"created_at":"2024-04-30T06:38:14.771Z"}],"page":25,"pageSize":24,"total":582,"totalPages":25}
