{"items":[{"id":"item-22adf29103e4","sku":"_daWaW5izSMaWWoChJz20_MDnOhGE20Eq-R8yZSQ","name_en":"『Celine 赛琳』","name_cn":"『Celine 赛琳』\n\nMINI CABASC 七夕限量特定款,金线刺绣工艺,超mini超可爱❤️超火爆,可手提肩背斜挎,这个大小刚刚好。\n尺寸17x20x6 \n型号:3014","specs":{"source":"wsxcme","sourceId":"_daWaW5izSMaWWoChJz20_MDnOhGE20Eq-R8yZSQ","sourceTagId":47003106,"sourceTagName":"塞琳/女包","modelNumber":"3014","rawTitle":"『Celine 赛琳』\n\nMINI CABASC 七夕限量特定款,金线刺绣工艺,超mini超可爱❤️超火爆,可手提肩背斜挎,这个大小刚刚好。\n尺寸17x20x6 \n型号:3014"},"price":null,"currency":"CNY","moq":1,"category":"celine-women-bags","status":"active","alibaba_url":null,"images":["https://xcimg.szwego.com/20211229/i1640754684_753_0.jpg","https://xcimg.szwego.com/20211229/i1640754684_9228_1.jpg","https://xcimg.szwego.com/20211229/i1640754684_5264_2.jpg","https://xcimg.szwego.com/20211229/i1640754684_5838_3.jpg","https://xcimg.szwego.com/20211229/i1640754684_1042_4.jpg","https://xcimg.szwego.com/20211229/i1640754684_1068_5.jpg","https://xcimg.szwego.com/20211229/i1640754684_8763_6.jpg","https://xcimg.szwego.com/20211229/i1640754684_3327_7.jpg","https://xcimg.szwego.com/20211229/i1640754684_4277_8.jpg"],"created_at":"2025-02-08T12:47:00.834Z"},{"id":"item-87edfb00d03f","sku":"_dvDvDXlAApZdoB5f-9Zjm3QatshGj8P9Zz3JqPA","name_en":"『Celine 赛琳』","name_cn":"『Celine 赛琳』\n\n白花购物袋 白花配 棕色牛皮 这个包真的很酷 尺寸刚好 比起上一款竖版手拿包  型号3006  尺寸28x32cm","specs":{"source":"wsxcme","sourceId":"_dvDvDXlAApZdoB5f-9Zjm3QatshGj8P9Zz3JqPA","sourceTagId":47003106,"sourceTagName":"塞琳/女包","modelNumber":"3006  尺寸28x32cm","rawTitle":"『Celine 赛琳』\n\n白花购物袋 白花配 棕色牛皮 这个包真的很酷 尺寸刚好 比起上一款竖版手拿包  型号3006  尺寸28x32cm"},"price":null,"currency":"CNY","moq":1,"category":"celine-women-bags","status":"active","alibaba_url":null,"images":["https://xcimg.szwego.com/20210412/i1618230438_8827_0.jpg","https://xcimg.szwego.com/20210412/i1618230438_3213_1.jpg","https://xcimg.szwego.com/20210412/i1618230438_1712_2.jpg","https://xcimg.szwego.com/20210412/i1618230438_2612_3.jpg","https://xcimg.szwego.com/20210412/i1618230438_7375_4.jpg","https://xcimg.szwego.com/20210412/i1618230438_1492_5.jpg","https://xcimg.szwego.com/20210412/i1618230438_1637_6.jpg","https://xcimg.szwego.com/20210412/i1618230438_1141_7.jpg","https://xcimg.szwego.com/20210412/i1618230438_7756_8.jpg"],"created_at":"2025-02-08T12:47:00.833Z"},{"id":"item-97061d08d624","sku":"_dgZgZmKx74ZTx4U_lnp6s5C9zsytYX6HDR7ruCw","name_en":"『Celine 赛琳』","name_cn":"『Celine 赛琳』\n\n新款Box 新款(凯旋门)老花信封包。大家都知道C家换了设计师 ,这次新款和旧款的最大不同之处在于钮扣,20s早春走秀款 将复古元素与一向拿手的利落线条完美结合 焕发出全新的动人魅力 尺寸 20-11.5-6cm","specs":{"source":"wsxcme","sourceId":"_dgZgZmKx74ZTx4U_lnp6s5C9zsytYX6HDR7ruCw","sourceTagId":47003106,"sourceTagName":"塞琳/女包","rawTitle":"『Celine 赛琳』\n\n新款Box 新款(凯旋门)老花信封包。大家都知道C家换了设计师 ,这次新款和旧款的最大不同之处在于钮扣,20s早春走秀款 将复古元素与一向拿手的利落线条完美结合 焕发出全新的动人魅力 尺寸 20-11.5-6cm"},"price":null,"currency":"CNY","moq":1,"category":"celine-women-bags","status":"active","alibaba_url":null,"images":["https://xcimg.szwego.com/20210708/i1625675152_9331_0.jpg","https://xcimg.szwego.com/20210708/i1625675152_5562_1.jpg","https://xcimg.szwego.com/20210708/i1625675152_9473_2.jpg","https://xcimg.szwego.com/20210708/i1625675152_2204_3.jpg","https://xcimg.szwego.com/20210708/i1625675152_1783_4.jpg","https://xcimg.szwego.com/20210708/i1625675152_3035_5.jpg","https://xcimg.szwego.com/20210708/i1625675152_2620_6.jpg","https://xcimg.szwego.com/20210708/i1625675152_2043_7.jpg","https://xcimg.szwego.com/20210708/i1625675152_3470_8.jpg"],"created_at":"2025-02-08T12:47:00.832Z"},{"id":"item-04663850fb36","sku":"_dxTxTJP315UQ52kDAHXXGo3Ts_tn1CGyMSLQMDg","name_en":"『Celine 赛琳』","name_cn":"『Celine 赛琳』\n\nCeline 复古凯旋门 链条腋下包出货 版型是长长的横版 搭配标志C家五金 腋下背刚刚好 复古又时尚 尺寸:30cm  款号:3019","specs":{"source":"wsxcme","sourceId":"_dxTxTJP315UQ52kDAHXXGo3Ts_tn1CGyMSLQMDg","sourceTagId":47003106,"sourceTagName":"塞琳/女包","modelNumber":"3019","rawTitle":"『Celine 赛琳』\n\nCeline 复古凯旋门 链条腋下包出货 版型是长长的横版 搭配标志C家五金 腋下背刚刚好 复古又时尚 尺寸:30cm  款号:3019"},"price":null,"currency":"CNY","moq":1,"category":"celine-women-bags","status":"active","alibaba_url":null,"images":["https://xcimg.szwego.com/20210701/i1625119213_8469_0.jpg","https://xcimg.szwego.com/20210701/i1625119181_8565_8.jpg","https://xcimg.szwego.com/20210701/i1625119181_6401_2.jpg","https://xcimg.szwego.com/20210701/i1625119181_4163_3.jpg","https://xcimg.szwego.com/20210701/i1625119233_6043_0.jpg","https://xcimg.szwego.com/20210701/i1625119181_8310_4.jpg","https://xcimg.szwego.com/20210701/i1625119181_2541_5.jpg","https://xcimg.szwego.com/20210701/i1625119181_3042_6.jpg","https://xcimg.szwego.com/20210701/i1625119181_6094_7.jpg"],"created_at":"2025-02-08T12:47:00.831Z"},{"id":"item-7e93a55e168c","sku":"_dDDDDmx4gUFV95FJ8hwsi5YmSyofQssjMsFNitg","name_en":"『Celine 赛琳』","name_cn":"『Celine 赛琳』\n\nCeline 复古凯旋门 链条腋下包出货 版型是长长的横版 搭配标志C家五金 腋下背刚刚好 复古又时尚 尺寸:30cm  款号:3019","specs":{"source":"wsxcme","sourceId":"_dDDDDmx4gUFV95FJ8hwsi5YmSyofQssjMsFNitg","sourceTagId":47003106,"sourceTagName":"塞琳/女包","modelNumber":"3019","rawTitle":"『Celine 赛琳』\n\nCeline 复古凯旋门 链条腋下包出货 版型是长长的横版 搭配标志C家五金 腋下背刚刚好 复古又时尚 尺寸:30cm  款号:3019"},"price":null,"currency":"CNY","moq":1,"category":"celine-women-bags","status":"active","alibaba_url":null,"images":["https://xcimg.szwego.com/20210701/i1625118653_3859_0.jpg","https://xcimg.szwego.com/20210701/i1625118653_5996_1.jpg","https://xcimg.szwego.com/20210701/i1625118653_5743_2.jpg","https://xcimg.szwego.com/20210701/i1625118653_6327_3.jpg","https://xcimg.szwego.com/20210701/i1625118653_1532_4.jpg","https://xcimg.szwego.com/20210701/i1625118653_1422_5.jpg","https://xcimg.szwego.com/20210701/i1625118694_972_0.jpg","https://xcimg.szwego.com/20210701/i1625118653_8313_6.jpg","https://xcimg.szwego.com/20210701/i1625118653_2437_7.jpg"],"created_at":"2025-02-08T12:47:00.830Z"},{"id":"item-077d7470f7d0","sku":"_dlOlOQCpZN7eZaEPBpsMfBLIiZaXlrUWRFu4Dsg","name_en":"『Celine 赛琳』","name_cn":"『Celine 赛琳』\n\n复古凯旋门 链条腋下包出货 版型是长长的横版 搭配标志C家五金 腋下背刚刚好 复古又时尚 尺寸:30cm  款号:3019","specs":{"source":"wsxcme","sourceId":"_dlOlOQCpZN7eZaEPBpsMfBLIiZaXlrUWRFu4Dsg","sourceTagId":47003106,"sourceTagName":"塞琳/女包","modelNumber":"3019","rawTitle":"『Celine 赛琳』\n\n复古凯旋门 链条腋下包出货 版型是长长的横版 搭配标志C家五金 腋下背刚刚好 复古又时尚 尺寸:30cm  款号:3019"},"price":null,"currency":"CNY","moq":1,"category":"celine-women-bags","status":"active","alibaba_url":null,"images":["https://xcimg.szwego.com/20211211/i1639212725_7081_0.jpg","https://xcimg.szwego.com/20211211/i1639212725_8965_1.jpg","https://xcimg.szwego.com/20211211/i1639212725_525_2.jpg","https://xcimg.szwego.com/20211211/i1639212725_1238_3.jpg","https://xcimg.szwego.com/20211211/i1639212725_8974_4.jpg","https://xcimg.szwego.com/20211211/i1639212725_2383_5.jpg","https://xcimg.szwego.com/20211211/i1639212725_1148_6.jpg","https://xcimg.szwego.com/20211211/i1639212725_3586_7.jpg","https://xcimg.szwego.com/20211211/i1639212725_8200_8.jpg"],"created_at":"2025-02-08T12:47:00.829Z"},{"id":"item-ee5927e222e1","sku":"_dcmcmx-kWfSU3IG9T7pvxnzs5Y44bPHCh2oBDCw","name_en":"『Celine 赛琳』","name_cn":"『Celine 赛琳』\n\n腋下包 白花\n\n定制版品质✨\n颜值无死角\n实用性超高\n\n尺寸24.5×18×7.5cm","specs":{"source":"wsxcme","sourceId":"_dcmcmx-kWfSU3IG9T7pvxnzs5Y44bPHCh2oBDCw","sourceTagId":47003106,"sourceTagName":"塞琳/女包","dimensions":{"lengthCm":24.5,"heightCm":18,"widthCm":7.5},"rawTitle":"『Celine 赛琳』\n\n腋下包 白花\n\n定制版品质✨\n颜值无死角\n实用性超高\n\n尺寸24.5×18×7.5cm"},"price":null,"currency":"CNY","moq":1,"category":"celine-women-bags","status":"active","alibaba_url":null,"images":["https://xcimg.szwego.com/20210518/i1621323139_9040_0.jpg","https://xcimg.szwego.com/20210518/i1621323139_7477_1.jpg","https://xcimg.szwego.com/20210518/i1621323139_8682_2.jpg","https://xcimg.szwego.com/20210518/i1621323139_4421_3.jpg","https://xcimg.szwego.com/20210518/i1621323139_7791_4.jpg","https://xcimg.szwego.com/20210518/i1621323139_5632_5.jpg","https://xcimg.szwego.com/20210518/i1621323139_317_6.jpg","https://xcimg.szwego.com/20210518/i1621323139_6926_7.jpg","https://xcimg.szwego.com/20210518/i1621323139_7851_8.jpg"],"created_at":"2025-02-08T12:47:00.828Z"},{"id":"item-f15d4a14dcd1","sku":"_dUyUyzeSKTsl5xn0quFUIDk1Xb1wHrr_eYo9ENA","name_en":"『Celine 赛琳』","name_cn":"『Celine 赛琳』\n\n腋下包 老花\n\n定制版品质✨\n颜值无死角\n实用性超高\n\n尺寸24.5×18×7.5cm","specs":{"source":"wsxcme","sourceId":"_dUyUyzeSKTsl5xn0quFUIDk1Xb1wHrr_eYo9ENA","sourceTagId":47003106,"sourceTagName":"塞琳/女包","dimensions":{"lengthCm":24.5,"heightCm":18,"widthCm":7.5},"rawTitle":"『Celine 赛琳』\n\n腋下包 老花\n\n定制版品质✨\n颜值无死角\n实用性超高\n\n尺寸24.5×18×7.5cm"},"price":null,"currency":"CNY","moq":1,"category":"celine-women-bags","status":"active","alibaba_url":null,"images":["https://xcimg.szwego.com/20210407/i1617769074_1565_0.jpg","https://xcimg.szwego.com/20210407/i1617769074_9246_1.jpg","https://xcimg.szwego.com/20210407/i1617769074_399_2.jpg","https://xcimg.szwego.com/20210407/i1617769074_5612_3.jpg","https://xcimg.szwego.com/20210407/i1617769074_8719_4.jpg","https://xcimg.szwego.com/20210407/i1617769074_9609_5.jpg","https://xcimg.szwego.com/20210407/i1617769074_3384_6.jpg","https://xcimg.szwego.com/20210407/i1617769074_3800_7.jpg","https://xcimg.szwego.com/20210407/i1617769074_3966_8.jpg"],"created_at":"2025-02-08T12:47:00.827Z"},{"id":"item-365315735f87","sku":"_dElElEhfsgqwDdtZ4rZjeAB8NpAv0M9FwqOO0HA","name_en":"『Celine 赛琳』","name_cn":"『Celine 赛琳』\n\n新款 圆筒包 出 经典老花印花单肩斜挎包  男女通用哦 老花棕色 肩带可调节长短 尺寸 :23 13cm","specs":{"source":"wsxcme","sourceId":"_dElElEhfsgqwDdtZ4rZjeAB8NpAv0M9FwqOO0HA","sourceTagId":47003106,"sourceTagName":"塞琳/女包","rawTitle":"『Celine 赛琳』\n\n新款 圆筒包 出 经典老花印花单肩斜挎包  男女通用哦 老花棕色 肩带可调节长短 尺寸 :23 13cm"},"price":null,"currency":"CNY","moq":1,"category":"celine-women-bags","status":"active","alibaba_url":null,"images":["https://xcimg.szwego.com/20220706/i1657088357_8475_0.jpg","https://xcimg.szwego.com/20220706/i1657088357_9204_1.jpg","https://xcimg.szwego.com/20220706/i1657088357_608_2.jpg","https://xcimg.szwego.com/20220706/i1657088357_3056_3.jpg","https://xcimg.szwego.com/20220706/i1657088357_3545_5.jpg","https://xcimg.szwego.com/20220706/i1657088357_2011_6.jpg","https://xcimg.szwego.com/20220706/i1657088357_4569_7.jpg","https://xcimg.szwego.com/20220706/i1657088357_9915_8.jpg"],"created_at":"2025-02-08T12:47:00.826Z"},{"id":"item-8a6e96c11fbd","sku":"_dtsts0iOqymw5sugVx1qxrJat2JbezyZI1In-Yg","name_en":"『Celine 赛琳』","name_cn":"『Celine 赛琳』\n\nCABAS TRIOMPHE🛍提花纺织面料MiNi号竖款手袋\n65%纺织布,35%小牛皮\n100%棉衬里\n内侧插袋\n可调节可拆卸皮革肩带 长20英寸(50厘米)\n尺寸20X 17X 6厘米)\n型号:1230棕黄褐色","specs":{"source":"wsxcme","sourceId":"_dtsts0iOqymw5sugVx1qxrJat2JbezyZI1In-Yg","sourceTagId":47003106,"sourceTagName":"塞琳/女包","modelNumber":"1230棕黄褐色","dimensions":{"lengthCm":20,"heightCm":17,"widthCm":6},"rawTitle":"『Celine 赛琳』\n\nCABAS TRIOMPHE🛍提花纺织面料MiNi号竖款手袋\n65%纺织布,35%小牛皮\n100%棉衬里\n内侧插袋\n可调节可拆卸皮革肩带 长20英寸(50厘米)\n尺寸20X 17X 6厘米)\n型号:1230棕黄褐色"},"price":null,"currency":"CNY","moq":1,"category":"celine-women-bags","status":"active","alibaba_url":null,"images":["https://xcimg.szwego.com/20201121/i1605898856_8648_0.jpg","https://xcimg.szwego.com/20201121/i1605898856_9090_1.jpg","https://xcimg.szwego.com/20201121/i1605898856_8306_2.jpg","https://xcimg.szwego.com/20201121/i1605898856_4961_3.jpg","https://xcimg.szwego.com/20201121/i1605898856_3098_4.jpg","https://xcimg.szwego.com/20201121/i1605898856_3537_5.jpg","https://xcimg.szwego.com/20201121/i1605898856_836_6.jpg","https://xcimg.szwego.com/20201121/i1605898856_9579_7.jpg","https://xcimg.szwego.com/20201121/i1605898856_6921_8.jpg"],"created_at":"2025-02-08T12:47:00.825Z"},{"id":"item-2ba0dd49a37a","sku":"_dp_p_ZGJ100HuDTaIgM_K1dglsOlP79Hj4qcLhw","name_en":"『Celine 赛琳』","name_cn":"『Celine 赛琳』\n\n配全套包装CABAS TRIOMPHE🛍提花面料MiNi号竖款手袋\n65%纺织布,35%小牛皮\n100%棉衬里\n内侧插袋\n可调节可拆卸皮革肩带 长20英寸(50厘米)\n尺寸20X 17X 6厘米)\n型号:1230海军褐色","specs":{"source":"wsxcme","sourceId":"_dp_p_ZGJ100HuDTaIgM_K1dglsOlP79Hj4qcLhw","sourceTagId":47003106,"sourceTagName":"塞琳/女包","modelNumber":"1230海军褐色","dimensions":{"lengthCm":20,"heightCm":17,"widthCm":6},"rawTitle":"『Celine 赛琳』\n\n配全套包装CABAS TRIOMPHE🛍提花面料MiNi号竖款手袋\n65%纺织布,35%小牛皮\n100%棉衬里\n内侧插袋\n可调节可拆卸皮革肩带 长20英寸(50厘米)\n尺寸20X 17X 6厘米)\n型号:1230海军褐色"},"price":null,"currency":"CNY","moq":1,"category":"celine-women-bags","status":"active","alibaba_url":null,"images":["https://xcimg.szwego.com/20200805/i1596616769_1450_0.jpg","https://xcimg.szwego.com/20200805/i1596616769_6646_1.jpg","https://xcimg.szwego.com/20200805/i1596616769_1875_2.jpg","https://xcimg.szwego.com/20200805/i1596616769_9742_3.jpg","https://xcimg.szwego.com/20200805/i1596616769_4403_4.jpg","https://xcimg.szwego.com/20200805/i1596616769_2874_5.jpg","https://xcimg.szwego.com/20200805/i1596616769_3186_6.jpg","https://xcimg.szwego.com/20200805/i1596616769_7322_7.jpg","https://xcimg.szwego.com/20200805/i1596616769_3405_8.jpg"],"created_at":"2025-02-08T12:47:00.824Z"},{"id":"item-9dcce7f09810","sku":"_dEOEOU4WeJ3pmOr403L_ggbpWQx1ftQtB0TvOaA","name_en":"『Celine 赛琳』","name_cn":"『Celine 赛琳』\n\n配全套包装CABAS TRIOMPHE🛍提花面料MiNi号竖款手袋\n65%纺织布,35%小牛皮\n100%棉衬里\n内侧插袋\n可调节可拆卸皮革肩带 长20英寸(50厘米)\n尺寸20X 17X 6厘米)\n型号:1230天然棕","specs":{"source":"wsxcme","sourceId":"_dEOEOU4WeJ3pmOr403L_ggbpWQx1ftQtB0TvOaA","sourceTagId":47003106,"sourceTagName":"塞琳/女包","modelNumber":"1230天然棕","dimensions":{"lengthCm":20,"heightCm":17,"widthCm":6},"rawTitle":"『Celine 赛琳』\n\n配全套包装CABAS TRIOMPHE🛍提花面料MiNi号竖款手袋\n65%纺织布,35%小牛皮\n100%棉衬里\n内侧插袋\n可调节可拆卸皮革肩带 长20英寸(50厘米)\n尺寸20X 17X 6厘米)\n型号:1230天然棕"},"price":null,"currency":"CNY","moq":1,"category":"celine-women-bags","status":"active","alibaba_url":null,"images":["https://xcimg.szwego.com/20200805/i1596616712_8397_0.jpg","https://xcimg.szwego.com/20200805/i1596616712_7367_1.jpg","https://xcimg.szwego.com/20200805/i1596616712_4465_2.jpg","https://xcimg.szwego.com/20200805/i1596616712_4358_3.jpg","https://xcimg.szwego.com/20200805/i1596616712_5650_4.jpg","https://xcimg.szwego.com/20200805/i1596616712_3650_5.jpg","https://xcimg.szwego.com/20200805/i1596616712_5958_6.jpg","https://xcimg.szwego.com/20200805/i1596616712_3164_7.jpg","https://xcimg.szwego.com/20200805/i1596616712_5899_8.jpg"],"created_at":"2025-02-08T12:47:00.823Z"},{"id":"item-a01fdeab671d","sku":"_d_d_dw7S8Q2RgQrJ-oKDocQyBgQk-mm57pUsbfA","name_en":"『Celine 赛琳』","name_cn":"『Celine 赛琳』\n\n配全套包装CABAS TRIOMPHE🛍帆布MiNi号竖款手袋\n65%涂层帆布,35%小牛皮\n100%棉衬里\n内侧插袋\n可调节可拆卸皮革肩带 长20英寸(50厘米)\n尺寸20X 17X 6厘米)\n型号:2200爱绣","specs":{"source":"wsxcme","sourceId":"_d_d_dw7S8Q2RgQrJ-oKDocQyBgQk-mm57pUsbfA","sourceTagId":47003106,"sourceTagName":"塞琳/女包","modelNumber":"2200爱绣","dimensions":{"lengthCm":20,"heightCm":17,"widthCm":6},"rawTitle":"『Celine 赛琳』\n\n配全套包装CABAS TRIOMPHE🛍帆布MiNi号竖款手袋\n65%涂层帆布,35%小牛皮\n100%棉衬里\n内侧插袋\n可调节可拆卸皮革肩带 长20英寸(50厘米)\n尺寸20X 17X 6厘米)\n型号:2200爱绣"},"price":null,"currency":"CNY","moq":1,"category":"celine-women-bags","status":"active","alibaba_url":null,"images":["https://xcimg.szwego.com/20200912/i1599885661_9451_0.jpg","https://xcimg.szwego.com/20200912/i1599885661_2299_1.jpg","https://xcimg.szwego.com/20200912/i1599885661_1894_2.jpg","https://xcimg.szwego.com/20200912/i1599885661_3099_3.jpg","https://xcimg.szwego.com/20200912/i1599885661_4227_4.jpg","https://xcimg.szwego.com/20200912/i1599885661_3821_5.jpg","https://xcimg.szwego.com/20200912/i1599885661_206_6.jpg","https://xcimg.szwego.com/20200912/i1599885661_7341_7.jpg","https://xcimg.szwego.com/20200912/i1599885661_5437_8.jpg"],"created_at":"2025-02-08T12:47:00.822Z"},{"id":"item-0083e8ed085b","sku":"_da0a0Xa86hsJ8CYU2yJFwBzIjnRCk3uIr2g81Rw","name_en":"『Celine 赛琳』","name_cn":"『Celine 赛琳』\n\n🔥爆款💯系列🔥CABAS TRIOMPHE🛍帆布MiNi号竖款手袋\n65%涂层帆布,35%小牛皮\n100%棉衬里\n内侧插袋\n可调节可拆卸皮革肩带 长20英寸(50厘米)\n尺寸20X 17X 6厘米)\n型号:2200刺绣白花","specs":{"source":"wsxcme","sourceId":"_da0a0Xa86hsJ8CYU2yJFwBzIjnRCk3uIr2g81Rw","sourceTagId":47003106,"sourceTagName":"塞琳/女包","modelNumber":"2200刺绣白花","dimensions":{"lengthCm":20,"heightCm":17,"widthCm":6},"rawTitle":"『Celine 赛琳』\n\n🔥爆款💯系列🔥CABAS TRIOMPHE🛍帆布MiNi号竖款手袋\n65%涂层帆布,35%小牛皮\n100%棉衬里\n内侧插袋\n可调节可拆卸皮革肩带 长20英寸(50厘米)\n尺寸20X 17X 6厘米)\n型号:2200刺绣白花"},"price":null,"currency":"CNY","moq":1,"category":"celine-women-bags","status":"active","alibaba_url":null,"images":["https://xcimg.szwego.com/20210518/i1621270645_3777_0.jpg","https://xcimg.szwego.com/20210518/i1621270645_6850_1.jpg","https://xcimg.szwego.com/20210518/i1621270645_4739_2.jpg","https://xcimg.szwego.com/20210518/i1621270645_4019_3.jpg","https://xcimg.szwego.com/20210518/i1621270645_2070_4.jpg","https://xcimg.szwego.com/20210518/i1621270645_4031_5.jpg","https://xcimg.szwego.com/20210518/i1621270645_6900_6.jpg","https://xcimg.szwego.com/20210518/i1621270645_2141_7.jpg","https://xcimg.szwego.com/20210518/i1621270645_9179_8.jpg"],"created_at":"2025-02-08T12:47:00.821Z"},{"id":"item-21e3de521ea2","sku":"_dGGGGKY_-lD0GpAllbYFZlUsL23FNQ4Xcvq0EaQ","name_en":"『Celine 赛琳』","name_cn":"『Celine 赛琳』\n\nCABAS TRIOMPHE帆布# MiNi号竖款手袋。🧩65%涂层帆布,35%小牛皮、100%棉衬里,内侧插袋,搭配可调节可拆卸皮革肩带50cm、尺寸:17-21-4cm(🔍2200白印花)","specs":{"source":"wsxcme","sourceId":"_dGGGGKY_-lD0GpAllbYFZlUsL23FNQ4Xcvq0EaQ","sourceTagId":47003106,"sourceTagName":"塞琳/女包","rawTitle":"『Celine 赛琳』\n\nCABAS TRIOMPHE帆布# MiNi号竖款手袋。🧩65%涂层帆布,35%小牛皮、100%棉衬里,内侧插袋,搭配可调节可拆卸皮革肩带50cm、尺寸:17-21-4cm(🔍2200白印花)"},"price":null,"currency":"CNY","moq":1,"category":"celine-women-bags","status":"active","alibaba_url":null,"images":["https://xcimg.szwego.com/20201211/i1607671534_4903_0.jpg","https://xcimg.szwego.com/20201211/i1607671534_7025_1.jpg","https://xcimg.szwego.com/20201211/i1607671534_4816_2.jpg","https://xcimg.szwego.com/20201211/i1607671534_6994_3.jpg","https://xcimg.szwego.com/20201211/i1607671534_5172_4.jpg","https://xcimg.szwego.com/20201211/i1607671534_7067_5.jpg","https://xcimg.szwego.com/20201211/i1607671534_404_6.jpg","https://xcimg.szwego.com/20201211/i1607671534_1539_7.jpg","https://xcimg.szwego.com/20201211/i1607671534_9439_8.jpg"],"created_at":"2025-02-08T12:47:00.820Z"},{"id":"item-8b1e3615aced","sku":"_dcrcrFy4VlDGyXLfCnyg9XAJV66XKaDP81Qf-Og","name_en":"『Celine 赛琳』","name_cn":"『Celine 赛琳』\n\n配全套包装CABAS TRIOMPHE🛍帆布MiNi号竖款手袋\n65%涂层帆布,35%小牛皮\n100%棉衬里\n内侧插袋\n可调节可拆卸皮革肩带 长20英寸(50厘米)\n尺寸20X 17X 6厘米)\n型号:2200黄褐色","specs":{"source":"wsxcme","sourceId":"_dcrcrFy4VlDGyXLfCnyg9XAJV66XKaDP81Qf-Og","sourceTagId":47003106,"sourceTagName":"塞琳/女包","modelNumber":"2200黄褐色","dimensions":{"lengthCm":20,"heightCm":17,"widthCm":6},"rawTitle":"『Celine 赛琳』\n\n配全套包装CABAS TRIOMPHE🛍帆布MiNi号竖款手袋\n65%涂层帆布,35%小牛皮\n100%棉衬里\n内侧插袋\n可调节可拆卸皮革肩带 长20英寸(50厘米)\n尺寸20X 17X 6厘米)\n型号:2200黄褐色"},"price":null,"currency":"CNY","moq":1,"category":"celine-women-bags","status":"active","alibaba_url":null,"images":["https://xcimg.szwego.com/20200805/i1596616649_8532_0.jpg","https://xcimg.szwego.com/20200805/i1596616649_3472_1.jpg","https://xcimg.szwego.com/20200805/i1596616649_6750_2.jpg","https://xcimg.szwego.com/20200805/i1596616649_2218_3.jpg","https://xcimg.szwego.com/20200805/i1596616649_153_4.jpg","https://xcimg.szwego.com/20200805/i1596616649_9717_5.jpg","https://xcimg.szwego.com/20200805/i1596616649_7692_6.jpg","https://xcimg.szwego.com/20200805/i1596616649_9043_7.jpg","https://xcimg.szwego.com/20200805/i1596616649_5835_8.jpg"],"created_at":"2025-02-08T12:47:00.819Z"},{"id":"item-2346c8548811","sku":"_d-2-2LRZ6KhY_8lQK3jwPM0xVKWtvK_KDKskUgw","name_en":"『Celine 赛琳』","name_cn":"『Celine 赛琳』\n\nCABAS TRIOMPHE🛍帆布小号竖款手袋\n65%涂层帆布,35%小牛皮\n100%棉衬里\n内侧拉链口袋\n可调节可拆卸皮革肩带 长20英寸(50厘米)\n编号:2189爱绣\n尺寸11 X 13 X 3英寸(28.5 X 33 X 8厘米)","specs":{"source":"wsxcme","sourceId":"_d-2-2LRZ6KhY_8lQK3jwPM0xVKWtvK_KDKskUgw","sourceTagId":47003106,"sourceTagName":"塞琳/女包","rawTitle":"『Celine 赛琳』\n\nCABAS TRIOMPHE🛍帆布小号竖款手袋\n65%涂层帆布,35%小牛皮\n100%棉衬里\n内侧拉链口袋\n可调节可拆卸皮革肩带 长20英寸(50厘米)\n编号:2189爱绣\n尺寸11 X 13 X 3英寸(28.5 X 33 X 8厘米)"},"price":null,"currency":"CNY","moq":1,"category":"celine-women-bags","status":"active","alibaba_url":null,"images":["https://xcimg.szwego.com/20201119/i1605730348_5763_0.jpg","https://xcimg.szwego.com/20201119/i1605730348_4687_1.jpg","https://xcimg.szwego.com/20201119/i1605730348_1602_2.jpg","https://xcimg.szwego.com/20201119/i1605730348_19_3.jpg","https://xcimg.szwego.com/20201119/i1605730348_3151_4.jpg","https://xcimg.szwego.com/20201119/i1605730348_4099_5.jpg","https://xcimg.szwego.com/20201119/i1605730348_5932_6.jpg","https://xcimg.szwego.com/20201119/i1605730348_2988_7.jpg","https://xcimg.szwego.com/20201119/i1605730348_3593_8.jpg"],"created_at":"2025-02-08T12:47:00.818Z"},{"id":"item-6964737a856d","sku":"_drMrMOsxrmOQh8fJ4HGNKxnnLRtvGxYB2LfDnVQ","name_en":"『Celine 赛琳』","name_cn":"『Celine 赛琳』\n\n最新CABAS TRIOMPHE凯旋购物袋   看起来更时髦洋气  高级感满满  腔调十足  可单肩斜挎手拎  随意凹造型  上身自带气场  包包自重很轻  能装得下笔记本电脑  通勤没问题  出街约会也可以  盘他就对了👍(🔍2189白印花)尺寸:28.5/33/8","specs":{"source":"wsxcme","sourceId":"_drMrMOsxrmOQh8fJ4HGNKxnnLRtvGxYB2LfDnVQ","sourceTagId":47003106,"sourceTagName":"塞琳/女包","rawTitle":"『Celine 赛琳』\n\n最新CABAS TRIOMPHE凯旋购物袋   看起来更时髦洋气  高级感满满  腔调十足  可单肩斜挎手拎  随意凹造型  上身自带气场  包包自重很轻  能装得下笔记本电脑  通勤没问题  出街约会也可以  盘他就对了👍(🔍2189白印花)尺寸:28.5/33/8"},"price":null,"currency":"CNY","moq":1,"category":"celine-women-bags","status":"active","alibaba_url":null,"images":["https://xcimg.szwego.com/20201211/i1607664127_3434_0.jpg","https://xcimg.szwego.com/20201211/i1607664127_78_1.jpg","https://xcimg.szwego.com/20201211/i1607664127_1901_2.jpg","https://xcimg.szwego.com/20201211/i1607664127_8950_3.jpg","https://xcimg.szwego.com/20201211/i1607664127_3505_4.jpg","https://xcimg.szwego.com/20201211/i1607664127_7831_5.jpg","https://xcimg.szwego.com/20201211/i1607664127_6370_6.jpg","https://xcimg.szwego.com/20201211/i1607664127_7777_7.jpg","https://xcimg.szwego.com/20201211/i1607664127_4552_8.jpg"],"created_at":"2025-02-08T12:47:00.817Z"},{"id":"item-ccebb124d553","sku":"_drCrCBxaW5WEK8R-HoA1O_1kC-zjAk0m23kIvPA","name_en":"『Celine 赛琳』","name_cn":"『Celine 赛琳』\n\nCABAS TRIOMPHE🛍帆布小号竖款手袋\n65%涂层帆布,35%小牛皮\n100%棉衬里\n内侧拉链口袋\n可调节可拆卸皮革肩带 长20英寸(50厘米)\n尺寸11 X 13 X 3英寸(28.5 X 33 X 8厘米)\n型号:2189","specs":{"source":"wsxcme","sourceId":"_drCrCBxaW5WEK8R-HoA1O_1kC-zjAk0m23kIvPA","sourceTagId":47003106,"sourceTagName":"塞琳/女包","modelNumber":"2189","rawTitle":"『Celine 赛琳』\n\nCABAS TRIOMPHE🛍帆布小号竖款手袋\n65%涂层帆布,35%小牛皮\n100%棉衬里\n内侧拉链口袋\n可调节可拆卸皮革肩带 长20英寸(50厘米)\n尺寸11 X 13 X 3英寸(28.5 X 33 X 8厘米)\n型号:2189"},"price":null,"currency":"CNY","moq":1,"category":"celine-women-bags","status":"active","alibaba_url":null,"images":["https://xcimg.szwego.com/20201103/i1604389943_5600_0.jpg","https://xcimg.szwego.com/20201103/i1604389943_6990_1.jpg","https://xcimg.szwego.com/20201103/i1604389943_8502_2.jpg","https://xcimg.szwego.com/20201103/i1604389943_5645_3.jpg","https://xcimg.szwego.com/20201103/i1604389943_8244_4.jpg","https://xcimg.szwego.com/20201103/i1604389943_5795_5.jpg","https://xcimg.szwego.com/20201103/i1604389943_4147_6.jpg","https://xcimg.szwego.com/20201103/i1604389943_5058_7.jpg","https://xcimg.szwego.com/20201103/i1604389943_9890_8.jpg"],"created_at":"2025-02-08T12:47:00.816Z"},{"id":"item-af047a36f31d","sku":"_dZ8Z8y2YekAwNIQkpRPQfUDhtbqSyK5-bZFGCrg","name_en":"『Celine 赛琳』","name_cn":"『Celine 赛琳』\n\n🛍CABAS CELINE 🛍小号CELINE印花帆布和小牛皮竖款手袋\n 尺寸11 X 13 X 3英寸(28.5 X 33 X 8厘米)\n46%棉,54%小牛皮\n100%棉衬里\n内侧拉链口袋 \n可调节皮革肩带长20英寸(50厘米)\n编号:3129棕黄褐色","specs":{"source":"wsxcme","sourceId":"_dZ8Z8y2YekAwNIQkpRPQfUDhtbqSyK5-bZFGCrg","sourceTagId":47003106,"sourceTagName":"塞琳/女包","rawTitle":"『Celine 赛琳』\n\n🛍CABAS CELINE 🛍小号CELINE印花帆布和小牛皮竖款手袋\n 尺寸11 X 13 X 3英寸(28.5 X 33 X 8厘米)\n46%棉,54%小牛皮\n100%棉衬里\n内侧拉链口袋 \n可调节皮革肩带长20英寸(50厘米)\n编号:3129棕黄褐色"},"price":null,"currency":"CNY","moq":1,"category":"celine-women-bags","status":"active","alibaba_url":null,"images":["https://xcimg.szwego.com/20201119/i1605718524_6047_0.jpg","https://xcimg.szwego.com/20201119/i1605718524_6955_1.jpg","https://xcimg.szwego.com/20201119/i1605718524_3296_2.jpg","https://xcimg.szwego.com/20201119/i1605718524_4339_3.jpg","https://xcimg.szwego.com/20201119/i1605718524_3300_4.jpg","https://xcimg.szwego.com/20201119/i1605718524_3952_5.jpg","https://xcimg.szwego.com/20201119/i1605718524_2834_6.jpg","https://xcimg.szwego.com/20201119/i1605718524_4173_7.jpg","https://xcimg.szwego.com/20201119/i1605718524_8843_8.jpg"],"created_at":"2025-02-08T12:47:00.815Z"},{"id":"item-ef1ce101f241","sku":"_dXuXuRdaFKwD_KfM6T3o9LxqMiTFsfjb7Esv5uA","name_en":"『Celine 赛琳』","name_cn":"『Celine 赛琳』\n\nCABAS CELINE 印花织物配小牛皮革小号竖款手提包\n13 X 11 X 3英寸(32 X 29 X 8厘米)\n织物/牛皮革\n衬里 : 织物/牛皮革\n内侧拉链口袋\n可调节皮革肩带长20英寸(50厘米)\n编号:3129海军褐色","specs":{"source":"wsxcme","sourceId":"_dXuXuRdaFKwD_KfM6T3o9LxqMiTFsfjb7Esv5uA","sourceTagId":47003106,"sourceTagName":"塞琳/女包","rawTitle":"『Celine 赛琳』\n\nCABAS CELINE 印花织物配小牛皮革小号竖款手提包\n13 X 11 X 3英寸(32 X 29 X 8厘米)\n织物/牛皮革\n衬里 : 织物/牛皮革\n内侧拉链口袋\n可调节皮革肩带长20英寸(50厘米)\n编号:3129海军褐色"},"price":null,"currency":"CNY","moq":1,"category":"celine-women-bags","status":"active","alibaba_url":null,"images":["https://xcimg.szwego.com/20200805/i1596617270_1197_0.jpg","https://xcimg.szwego.com/20200805/i1596617270_6661_1.jpg","https://xcimg.szwego.com/20200805/i1596617270_8612_2.jpg","https://xcimg.szwego.com/20200805/i1596617270_3899_3.jpg","https://xcimg.szwego.com/20200805/i1596617270_6054_4.jpg","https://xcimg.szwego.com/20200805/i1596617270_6714_5.jpg","https://xcimg.szwego.com/20200805/i1596617270_1364_6.jpg","https://xcimg.szwego.com/20200805/i1596617270_6410_7.jpg","https://xcimg.szwego.com/20200805/i1596617270_9611_8.jpg"],"created_at":"2025-02-08T12:47:00.814Z"},{"id":"item-d410e62e2de1","sku":"_d_f_faVEdUjjOJS4Ga4kDF4cPKkH_hdcNuHn6Vg","name_en":"『Celine 赛琳』","name_cn":"『Celine 赛琳』\n\nCABAS CELINE 印花织物配小牛皮革小号竖款手提包\n13 X 11 X 3英寸(32 X 29 X 8厘米)\n织物/牛皮革\n衬里 : 织物/牛皮革\n内侧拉链口袋\n可调节皮革肩带长20英寸(50厘米)\n编号:3129天然棕","specs":{"source":"wsxcme","sourceId":"_d_f_faVEdUjjOJS4Ga4kDF4cPKkH_hdcNuHn6Vg","sourceTagId":47003106,"sourceTagName":"塞琳/女包","rawTitle":"『Celine 赛琳』\n\nCABAS CELINE 印花织物配小牛皮革小号竖款手提包\n13 X 11 X 3英寸(32 X 29 X 8厘米)\n织物/牛皮革\n衬里 : 织物/牛皮革\n内侧拉链口袋\n可调节皮革肩带长20英寸(50厘米)\n编号:3129天然棕"},"price":null,"currency":"CNY","moq":1,"category":"celine-women-bags","status":"active","alibaba_url":null,"images":["https://xcimg.szwego.com/20200805/i1596617137_1278_0.jpg","https://xcimg.szwego.com/20200805/i1596617137_1126_1.jpg","https://xcimg.szwego.com/20200805/i1596617137_4593_2.jpg","https://xcimg.szwego.com/20200805/i1596617137_3798_3.jpg","https://xcimg.szwego.com/20200805/i1596617137_9181_4.jpg","https://xcimg.szwego.com/20200805/i1596617137_6861_5.jpg","https://xcimg.szwego.com/20200805/i1596617137_7068_6.jpg","https://xcimg.szwego.com/20200805/i1596617137_3972_7.jpg","https://xcimg.szwego.com/20200805/i1596617137_5442_8.jpg"],"created_at":"2025-02-08T12:47:00.813Z"},{"id":"item-88441aecf9bc","sku":"_ddodoFJadvb4H4NU1lp8zz27g4ywgj-hoLIzU8g","name_en":"『Celine 赛琳』","name_cn":"『Celine 赛琳』\n\n新款FOLCO TRIOMPHE邮差包PVC/牛皮 衬里 : 织物 斜挎和肩背 带扣和磁扣 内侧扁平口袋  翻盖下设扁平口袋,背面扁平口袋 可调节肩带 长(53厘米)\n尺寸:31 X 24 X 9cm\n款号:3350#","specs":{"source":"wsxcme","sourceId":"_ddodoFJadvb4H4NU1lp8zz27g4ywgj-hoLIzU8g","sourceTagId":47003106,"sourceTagName":"塞琳/女包","modelNumber":"3350#","dimensions":{"lengthCm":31,"heightCm":24,"widthCm":9},"rawTitle":"『Celine 赛琳』\n\n新款FOLCO TRIOMPHE邮差包PVC/牛皮 衬里 : 织物 斜挎和肩背 带扣和磁扣 内侧扁平口袋  翻盖下设扁平口袋,背面扁平口袋 可调节肩带 长(53厘米)\n尺寸:31 X 24 X 9cm\n款号:3350#"},"price":null,"currency":"CNY","moq":1,"category":"celine-women-bags","status":"active","alibaba_url":null,"images":["https://xcimg.szwego.com/20220415/i1649993379_5750_0.jpg","https://xcimg.szwego.com/20220415/i1649993379_906_1.jpg","https://xcimg.szwego.com/20220415/i1649993379_7104_2.jpg","https://xcimg.szwego.com/20220415/i1649993379_5536_3.jpg","https://xcimg.szwego.com/20220415/i1649993379_7982_4.jpg","https://xcimg.szwego.com/20220415/i1649993379_9058_5.jpg","https://xcimg.szwego.com/20220415/i1649993379_8908_6.jpg","https://xcimg.szwego.com/20220415/i1649993379_9438_7.jpg","https://xcimg.szwego.com/20220415/i1649993379_7165_8.jpg"],"created_at":"2025-02-08T12:47:00.812Z"},{"id":"item-e841f2a474ce","sku":"_dfNfNsD7WSRd6iRNTpjhljDQs65nR25NhE0DWeA","name_en":"『Celine 赛琳』","name_cn":"『Celine 赛琳』\n\n🔅CEL.INE 新品Tnne Soft 16 牛皮革手袋®️内里磨砂皮/可斜挎和肩背,旋转锁扣开合\n2个内侧隔层 内侧拉链口袋 一条可拆卸织物肩带长52厘米) 去除手腕后增添年轻与时尚感、很有Hedi叛逆街头风。\n尺寸:23 X 15 X 9cm\n款号:1158#","specs":{"source":"wsxcme","sourceId":"_dfNfNsD7WSRd6iRNTpjhljDQs65nR25NhE0DWeA","sourceTagId":47003106,"sourceTagName":"塞琳/女包","modelNumber":"1158#","dimensions":{"lengthCm":23,"heightCm":15,"widthCm":9},"rawTitle":"『Celine 赛琳』\n\n🔅CEL.INE 新品Tnne Soft 16 牛皮革手袋®️内里磨砂皮/可斜挎和肩背,旋转锁扣开合\n2个内侧隔层 内侧拉链口袋 一条可拆卸织物肩带长52厘米) 去除手腕后增添年轻与时尚感、很有Hedi叛逆街头风。\n尺寸:23 X 15 X 9cm\n款号:1158#"},"price":null,"currency":"CNY","moq":1,"category":"celine-women-bags","status":"active","alibaba_url":null,"images":["https://xcimg.szwego.com/20220412/i1649737539_2610_0.jpg","https://xcimg.szwego.com/20220412/i1649737539_9284_1.jpg","https://xcimg.szwego.com/20220412/i1649737539_3060_2.jpg","https://xcimg.szwego.com/20220412/i1649737539_5508_3.jpg","https://xcimg.szwego.com/20220412/i1649737539_6734_4.jpg","https://xcimg.szwego.com/20220412/i1649737539_7908_5.jpg","https://xcimg.szwego.com/20220412/i1649737539_4396_6.jpg","https://xcimg.szwego.com/20220412/i1649737539_2460_7.jpg","https://xcimg.szwego.com/20220412/i1649737539_9216_8.jpg"],"created_at":"2025-02-08T12:47:00.811Z"}],"page":17,"pageSize":24,"total":582,"totalPages":25}
