{"items":[{"id":"item-9f850a9e15cd","sku":"_dhmhmqyJC79Ift6Qy2aNvXQf56vvRPm02hbdyEQ","name_en":"Chane1💞24c💦mini Sheepskin Small Backpack Multiple ways to carry, can be handheld, crossbody, or backpack. The leather is very good, capacity is okay, classic minimalist style, simply perfect. Size: 18×13×9cm","name_cn":"Chane1💞24c💦mini Sheepskin Small Backpack Multiple ways to carry, can be handheld, crossbody, or backpack. The leather is very good, capacity is okay, classic minimalist style, simply perfect. Size: 18×13×9cm","specs":{"source":"wsxcme","sourceId":"_dhmhmqyJC79Ift6Qy2aNvXQf56vvRPm02hbdyEQ","sourceTagId":47002743,"sourceTagName":"","dimensions":{"lengthCm":18,"heightCm":13,"widthCm":9},"rawTitle":"Chane1💞24c💦mini Sheepskin Small Backpack Multiple ways to carry, can be handheld, crossbody, or backpack. The leather is very good, capacity is okay, classic minimalist style, simply perfect. Size: 18×13×9cm"},"price":null,"currency":"CNY","moq":1,"category":"women-backpacks","status":"active","alibaba_url":null,"images":["https://xcimg.szwego.com/img/70762a6f/20240522/i1716389313_7776_0.jpg","https://xcimg.szwego.com/img/70762a6f/20240522/i1716389312_9714_0.jpg","https://xcimg.szwego.com/img/70762a6f/20240522/i1716389305_6792_5.jpg","https://xcimg.szwego.com/img/70762a6f/20240522/i1716389313_5649_0.jpg","https://xcimg.szwego.com/img/70762a6f/20240522/i1716389313_9734_0.jpg","https://xcimg.szwego.com/img/70762a6f/20240522/i1716389312_5404_0.jpg","https://xcimg.szwego.com/img/70762a6f/20240522/i1716389312_1528_0.jpg","https://xcimg.szwego.com/img/70762a6f/20240522/i1716389313_4061_0.jpg"],"created_at":"2025-02-06T09:20:31.897Z"},{"id":"item-53fc7a198223","sku":"_dmhmh1uE1ex9P2y6Wjgl2nHWuUIJf0znXIayrYA","name_en":"💰M12617 Top-tier Original Pooch Bag Dynamic Code This model. The Pooch Bag condenses Louis Vuitton classic design elements into a compact structure. The Monogram canvas body features vintage edging, leather is used for the top handle, handle attachments, and adjustable shoulder strap, creating a comfortable handheld and crossbody experience. The LV Lovers tag showcases Pharrell Williams' creative touch. 18.0 x 28.0 x 19.0 cm (L x H x W)","name_cn":"💰M12617 Top-tier Original Pooch Bag Dynamic Code This model. The Pooch Bag condenses Louis Vuitton classic design elements into a compact structure. The Monogram canvas body features vintage edging, leather is used for the top handle, handle attachments, and adjustable shoulder strap, creating a comfortable handheld and crossbody experience. The LV Lovers tag showcases Pharrell Williams' creative touch. 18.0 x 28.0 x 19.0 cm (L x H x W)\n\t•\tMonogram Coated Canvas\n\t•\tCalfskin Trim\n\t•\tFabric Lining\n\t•\tMetal Hardware\n\t•\tZip Closure\n\t•\tMain Compartment\n\t•\tDetachable tag displays LV Lovers palm print\n\t•\tStrap: Removable, Adjustable\n\t•\tStrap Half Length: 39.5 cm\n\t•\tStrap Half Length Adjustable To: 65.0 cm","specs":{"source":"wsxcme","sourceId":"_dmhmh1uE1ex9P2y6Wjgl2nHWuUIJf0znXIayrYA","sourceTagId":47002743,"sourceTagName":"","rawTitle":"💰M12617 Top-tier Original Pooch Bag Dynamic Code This model. The Pooch Bag condenses Louis Vuitton classic design elements into a compact structure. The Monogram canvas body features vintage edging, leather is used for the top handle, handle attachments, and adjustable shoulder strap, creating a comfortable handheld and crossbody experience. The LV Lovers tag showcases Pharrell Williams' creative touch. 18.0 x 28.0 x 19.0 cm (L x H x W)\n\t•\tMonogram Coated Canvas\n\t•\tCalfskin Trim\n\t•\tFabric Lining\n\t•\tMetal Hardware\n\t•\tZip Closure\n\t•\tMain Compartment\n\t•\tDetachable tag displays LV Lovers palm print\n\t•\tStrap: Removable, Adjustable\n\t•\tStrap Half Length: 39.5 cm\n\t•\tStrap Half Length Adjustable To: 65.0 cm"},"price":null,"currency":"CNY","moq":1,"category":"women-backpacks","status":"active","alibaba_url":null,"images":["https://xcimg.szwego.com/imgHD/2d10544c/20241229/cmp_i1735450091935_963_0_0.jpg","https://xcimg.szwego.com/imgHD/2d10544c/20241229/cmp_i1735450091895_2134_0_1.jpg","https://xcimg.szwego.com/imgHD/2d10544c/20241229/cmp_i1735450091922_4029_0_2.jpg","https://xcimg.szwego.com/imgHD/2d10544c/20241229/cmp_i1735450091999_196_0_3.jpg","https://xcimg.szwego.com/imgHD/2d10544c/20241229/cmp_i1735450091987_5665_0_4.jpg","https://xcimg.szwego.com/imgHD/2d10544c/20241229/cmp_i1735450091971_690_0_5.jpg","https://xcimg.szwego.com/imgHD/2d10544c/20241229/cmp_i1735450092016_6628_0_6.jpg","https://xcimg.szwego.com/imgHD/2d10544c/20241229/cmp_i1735450091910_6009_0_7.jpg","https://xcimg.szwego.com/imgHD/2d10544c/20241229/cmp_i1735450091955_3114_0_8.jpg"],"created_at":"2025-02-04T12:01:56.523Z"},{"id":"item-2af1154cbc2b","sku":"_dmnmnImsN63oeH7qsPEoi9SzMIkZKySF2LFhxBQ","name_en":"❤️B 🎒 Bur 。 , (EKD) 。 B","name_cn":"❤️B 🎒 Bur 。 , (EKD) 。 B\nzipper , 1 , 。 Bur series, 。 shoulder carry zipper 2 zipper ;2\n (EKD)\nSize35 ×14×41cm","specs":{"source":"wsxcme","sourceId":"_dmnmnImsN63oeH7qsPEoi9SzMIkZKySF2LFhxBQ","sourceTagId":47002743,"sourceTagName":"","dimensions":{"lengthCm":35,"heightCm":14,"widthCm":41},"rawTitle":"❤️B 🎒 Bur 。 , (EKD) 。 B\nzipper , 1 , 。 Bur series, 。 shoulder carry zipper 2 zipper ;2\n (EKD)\nSize35 ×14×41cm"},"price":null,"currency":"CNY","moq":1,"category":"women-backpacks","status":"active","alibaba_url":null,"images":["https://xcimg.szwego.com/img/d5e7a5ce/20240923/a1727070731968_4053.jpg","https://xcimg.szwego.com/img/d5e7a5ce/20240923/a1727070731967_1023.jpg","https://xcimg.szwego.com/img/d5e7a5ce/20240923/a1727070731972_4228.jpg","https://xcimg.szwego.com/img/d5e7a5ce/20240923/a1727070731971_2688.jpg","https://xcimg.szwego.com/img/d5e7a5ce/20240923/a1727070732903_6615.jpg","https://xcimg.szwego.com/img/d5e7a5ce/20240923/a1727070731975_1444.jpg","https://xcimg.szwego.com/img/d5e7a5ce/20240923/a1727070731970_3458.jpg","https://xcimg.szwego.com/img/d5e7a5ce/20240923/a1727070732808_1812.jpg","https://xcimg.szwego.com/img/d5e7a5ce/20240923/a1727070732808_7822.jpg"],"created_at":"2024-10-23T04:56:23.551Z"},{"id":"item-0cf91daed1e6","sku":"_d_H_Hy5nOzhWLHvfAcqeW0fEBsEPrBcxWg9he3Q","name_en":"❤️B 🎒 Bur 。 , (EKD) 。 B","name_cn":"❤️B 🎒 Bur 。 , (EKD) 。 B\nzipper , 1 , 。 Bur series, 。 shoulder carry zipper 2 zipper ;2\n (EKD)\nSize35 ×14×41cm","specs":{"source":"wsxcme","sourceId":"_d_H_Hy5nOzhWLHvfAcqeW0fEBsEPrBcxWg9he3Q","sourceTagId":47002743,"sourceTagName":"","dimensions":{"lengthCm":35,"heightCm":14,"widthCm":41},"rawTitle":"❤️B 🎒 Bur 。 , (EKD) 。 B\nzipper , 1 , 。 Bur series, 。 shoulder carry zipper 2 zipper ;2\n (EKD)\nSize35 ×14×41cm"},"price":null,"currency":"CNY","moq":1,"category":"women-backpacks","status":"active","alibaba_url":null,"images":["https://xcimg.szwego.com/img/d5e7a5ce/20240923/a1727070543665_0328.jpg","https://xcimg.szwego.com/img/d5e7a5ce/20240923/a1727070543664_5262.jpg","https://xcimg.szwego.com/img/d5e7a5ce/20240923/a1727070543668_1785.jpg","https://xcimg.szwego.com/img/d5e7a5ce/20240923/a1727070543667_3735.jpg","https://xcimg.szwego.com/img/d5e7a5ce/20240923/a1727070543669_4615.jpg","https://xcimg.szwego.com/img/d5e7a5ce/20240923/a1727070543670_3106.jpg","https://xcimg.szwego.com/img/d5e7a5ce/20240923/a1727070544192_5820.jpg","https://xcimg.szwego.com/img/d5e7a5ce/20240923/a1727070544194_4525.jpg","https://xcimg.szwego.com/img/d5e7a5ce/20240923/a1727070544193_0532.jpg"],"created_at":"2024-10-23T04:56:23.550Z"},{"id":"item-7151ab1a92ca","sku":"_dgIgIOUe27XWkzTQm7jgsx0cEejtrwOqe6JgoeA","name_en":"new styleVintage medium shoulder carry Vintage !!️(22X33)","name_cn":"new styleVintage medium shoulder carry Vintage !!️(22X33)","specs":{"source":"wsxcme","sourceId":"_dgIgIOUe27XWkzTQm7jgsx0cEejtrwOqe6JgoeA","sourceTagId":47002743,"sourceTagName":"","rawTitle":"new styleVintage medium shoulder carry Vintage !!️(22X33)"},"price":null,"currency":"CNY","moq":1,"category":"women-backpacks","status":"active","alibaba_url":null,"images":["https://xcimg.szwego.com/1563253654_2397097888_0","https://xcimg.szwego.com/1563253654_129557589_1","https://xcimg.szwego.com/1563253655_3760072737_2","https://xcimg.szwego.com/1563253655_365575219_3","https://xcimg.szwego.com/1563253655_3905414237_4","https://xcimg.szwego.com/1563253655_39522716_5","https://xcimg.szwego.com/1563253655_4055544624_6","https://xcimg.szwego.com/1563253655_4245581380_7"],"created_at":"2024-10-23T04:35:52.036Z"},{"id":"item-43cdc2cc4ded","sku":"_d8P8PH41voV0X-2NHUhjJ_KRRxbRDN6LARmWCVg","name_en":"B 🎒 canvas 。 canvas , canvas, , , , ,Size:36/25/15","name_cn":"B 🎒 canvas 。 canvas , canvas, , , , ,Size:36/25/15","specs":{"source":"wsxcme","sourceId":"_d8P8PH41voV0X-2NHUhjJ_KRRxbRDN6LARmWCVg","sourceTagId":47002743,"sourceTagName":"","rawTitle":"B 🎒 canvas 。 canvas , canvas, , , , ,Size:36/25/15"},"price":null,"currency":"CNY","moq":1,"category":"women-backpacks","status":"active","alibaba_url":null,"images":["https://xcimg.szwego.com/20221109/i1667966330_825_0.jpg","https://xcimg.szwego.com/20221109/i1667966330_7340_1.jpg","https://xcimg.szwego.com/20221109/i1667966330_6771_2.jpg","https://xcimg.szwego.com/20221109/i1667966330_4819_3.jpg","https://xcimg.szwego.com/20221109/i1667966330_5393_4.jpg","https://xcimg.szwego.com/20221109/i1667966330_6799_5.jpg","https://xcimg.szwego.com/20221109/i1667966330_3944_6.jpg","https://xcimg.szwego.com/20221109/i1667966330_5983_7.jpg","https://xcimg.szwego.com/20221109/i1667966330_2491_8.jpg"],"created_at":"2024-10-23T04:35:52.035Z"},{"id":"item-5418aef9fbc3","sku":"_dkdkdPlx_rmB--cXb7I85RF3qznwHDKv3Ip95VQ","name_en":"B 🎒 canvas 。 canvas , canvas, , ,Size:24x13x37cm","name_cn":"B 🎒 canvas 。 canvas , canvas, , ,Size:24x13x37cm","specs":{"source":"wsxcme","sourceId":"_dkdkdPlx_rmB--cXb7I85RF3qznwHDKv3Ip95VQ","sourceTagId":47002743,"sourceTagName":"","dimensions":{"lengthCm":24,"heightCm":13,"widthCm":37},"rawTitle":"B 🎒 canvas 。 canvas , canvas, , ,Size:24x13x37cm"},"price":null,"currency":"CNY","moq":1,"category":"women-backpacks","status":"active","alibaba_url":null,"images":["https://xcimg.szwego.com/20221116/i1668573138_6305_0.jpg","https://xcimg.szwego.com/20221116/i1668573138_8682_1.jpg","https://xcimg.szwego.com/20221116/i1668573138_8346_2.jpg","https://xcimg.szwego.com/20221116/i1668573138_8720_3.jpg","https://xcimg.szwego.com/20221116/i1668573138_580_4.jpg","https://xcimg.szwego.com/20221116/i1668573138_2164_5.jpg","https://xcimg.szwego.com/20221116/i1668573138_3253_7.jpg","https://xcimg.szwego.com/20221116/i1668573138_8535_8.jpg"],"created_at":"2024-10-23T04:35:52.034Z"},{"id":"item-7e7d276bac9c","sku":"_dcicimB0aNL_hhmIeAvylUgmQjr6dftsoByxfcw","name_en":"B 🎒 large ， 。 30% 。 。Size16x8x18","name_cn":"B 🎒 large ， 。 30% 。 。Size16x8x18","specs":{"source":"wsxcme","sourceId":"_dcicimB0aNL_hhmIeAvylUgmQjr6dftsoByxfcw","sourceTagId":47002743,"sourceTagName":"","rawTitle":"B 🎒 large ， 。 30% 。 。Size16x8x18"},"price":null,"currency":"CNY","moq":1,"category":"women-backpacks","status":"active","alibaba_url":null,"images":["https://xcimg.szwego.com/20221225/i1671944413_8090_0.jpg","https://xcimg.szwego.com/20221225/i1671944413_1494_1.jpg","https://xcimg.szwego.com/20221225/i1671944413_5699_2.jpg","https://xcimg.szwego.com/20221225/i1671944413_1331_3.jpg","https://xcimg.szwego.com/20221225/i1671944413_4600_4.jpg","https://xcimg.szwego.com/20221225/i1671944413_9284_5.jpg","https://xcimg.szwego.com/20221225/i1671944413_4680_6.jpg","https://xcimg.szwego.com/20221225/i1671944413_4667_7.jpg","https://xcimg.szwego.com/20221225/i1671944413_5383_8.jpg"],"created_at":"2024-10-23T04:35:52.033Z"}],"page":4,"pageSize":24,"total":80,"totalPages":4}
