{"items":[{"id":"item-a9b301132054","sku":"_dfHfHEIMT-Ia2hmvOqehhcculXBsPtIGzfc1AEA","name_en":"Balenciaga Women Bags","name_cn":"新款小号水桶机包,进口爆裂羊皮,颜色:复古银,尺寸:15*17*19\nBalenciag巴黎最新款LeCagole水桶机车包配备了爱心小镜子,小卡包真是太酷🆒了","specs":{"source":"wsxcme","sourceId":"_dfHfHEIMT-Ia2hmvOqehhcculXBsPtIGzfc1AEA","sourceTagId":80697835,"sourceTagName":"巴黎世家/女包","rawTitle":"新款小号水桶机包,进口爆裂羊皮,颜色:复古银,尺寸:15*17*19\nBalenciag巴黎最新款LeCagole水桶机车包配备了爱心小镜子,小卡包真是太酷🆒了"},"price":null,"currency":"CNY","moq":1,"category":"balenciaga-women-bags","status":"active","alibaba_url":null,"images":["https://xcimg.szwego.com/20220902/i1662106662_7935_0.jpg","https://xcimg.szwego.com/20220902/i1662106662_2478_1.jpg","https://xcimg.szwego.com/20220902/i1662106662_5660_2.jpg","https://xcimg.szwego.com/20220902/i1662106662_3986_3.jpg","https://xcimg.szwego.com/20220902/i1662106662_4193_4.jpg","https://xcimg.szwego.com/20220902/i1662106662_7615_5.jpg","https://xcimg.szwego.com/20220902/i1662106662_4199_6.jpg","https://xcimg.szwego.com/20220902/i1662106662_5866_7.jpg","https://xcimg.szwego.com/20220902/i1662106662_4290_8.jpg"],"created_at":"2025-02-08T12:56:36.997Z"},{"id":"item-a9027b55a6ac","sku":"_dsVsVYGRkOiLRTNKoA-swzpoU9-mg2HYzzRE5SA","name_en":"Balenciaga Women Bags","name_cn":"新款水桶机包,进口爆裂羊皮,颜色:浅紫,尺寸:30*23*17\nBalenciag巴黎最新款LeCagole水桶机车包配备了爱心小镜子,小卡包真是太酷🆒了","specs":{"source":"wsxcme","sourceId":"_dsVsVYGRkOiLRTNKoA-swzpoU9-mg2HYzzRE5SA","sourceTagId":80697835,"sourceTagName":"巴黎世家/女包","rawTitle":"新款水桶机包,进口爆裂羊皮,颜色:浅紫,尺寸:30*23*17\nBalenciag巴黎最新款LeCagole水桶机车包配备了爱心小镜子,小卡包真是太酷🆒了"},"price":null,"currency":"CNY","moq":1,"category":"balenciaga-women-bags","status":"active","alibaba_url":null,"images":["https://xcimg.szwego.com/20220805/i1659684685_2763_0.jpg","https://xcimg.szwego.com/20220805/i1659684685_2587_1.jpg","https://xcimg.szwego.com/20220805/i1659684685_7202_2.jpg","https://xcimg.szwego.com/20220805/i1659684685_1094_3.jpg","https://xcimg.szwego.com/20220805/i1659684685_9583_4.jpg","https://xcimg.szwego.com/20220805/i1659684685_6038_5.jpg","https://xcimg.szwego.com/20220805/i1659684685_4875_6.jpg","https://xcimg.szwego.com/20220805/i1659684685_3608_7.jpg","https://xcimg.szwego.com/20220805/i1659684685_5618_8.jpg"],"created_at":"2025-02-08T12:56:15.228Z"},{"id":"item-a2728be68098","sku":"_dcwcwJb_So-pbM96-giBtG4zJScynIS_6lvST6A","name_en":"Balenciaga Women Bags","name_cn":"【爆款大号】🆕现货深灰色\nNeo Cagole 新款机车包💋\n巴黎家新推出的机车包,重塑了经典包型,为‘机车包’注入新灵魂,顶级意大利进口爆裂羊皮制作,保留经典机车包的扁平柳钉,精致搭扣以及流苏拉链等原始DNA的基础上,增添可调节的编织肩带、可爱俏皮的爱心小镜子,完美缓和原版的中性气质👍🏻,🧐复古回潮,时髦精的最爱👄\n尺寸:38*17*24cm","specs":{"source":"wsxcme","sourceId":"_dcwcwJb_So-pbM96-giBtG4zJScynIS_6lvST6A","sourceTagId":80697835,"sourceTagName":"巴黎世家/女包","dimensions":{"lengthCm":38,"heightCm":17,"widthCm":24},"rawTitle":"【爆款大号】🆕现货深灰色\nNeo Cagole 新款机车包💋\n巴黎家新推出的机车包,重塑了经典包型,为‘机车包’注入新灵魂,顶级意大利进口爆裂羊皮制作,保留经典机车包的扁平柳钉,精致搭扣以及流苏拉链等原始DNA的基础上,增添可调节的编织肩带、可爱俏皮的爱心小镜子,完美缓和原版的中性气质👍🏻,🧐复古回潮,时髦精的最爱👄\n尺寸:38*17*24cm"},"price":null,"currency":"CNY","moq":1,"category":"balenciaga-women-bags","status":"active","alibaba_url":null,"images":["https://xcimg.szwego.com/20220929/i1664438428_7063_0.jpg","https://xcimg.szwego.com/20220929/i1664438428_8107_1.jpg","https://xcimg.szwego.com/20220929/i1664438428_1666_2.jpg","https://xcimg.szwego.com/20220929/i1664438428_5734_3.jpg","https://xcimg.szwego.com/20220929/i1664438428_6607_4.jpg","https://xcimg.szwego.com/20220929/i1664438428_9923_5.jpg","https://xcimg.szwego.com/20220929/i1664438428_1413_6.jpg","https://xcimg.szwego.com/20220929/i1664438428_4816_7.jpg","https://xcimg.szwego.com/20220929/i1664438428_1006_8.jpg"],"created_at":"2025-02-08T12:57:23.201Z"},{"id":"item-9b62a06a7ded","sku":"_do9o9jpcZlJHhB4XvLdEiom1e-a8KN8KRG5g5fQ","name_en":"Balenciaga Women Bags","name_cn":"巴黎世家|沙漏包又有新面孔啦! !的\n\n来自巴黎世家22年秋冬系列- -Crush手袋\n\n气场强大的实用型大包包强势回归! \n\n打破传统硬挺的包型.采用缝线柔软小牛皮材质搭配粗旷的金属滑链肩带司随意切换单肩斜挎背法.随性大气风格迎面扑来!\n\n大号32cm 小号26cm","specs":{"source":"wsxcme","sourceId":"_do9o9jpcZlJHhB4XvLdEiom1e-a8KN8KRG5g5fQ","sourceTagId":80697835,"sourceTagName":"巴黎世家/女包","rawTitle":"巴黎世家|沙漏包又有新面孔啦! !的\n\n来自巴黎世家22年秋冬系列- -Crush手袋\n\n气场强大的实用型大包包强势回归! \n\n打破传统硬挺的包型.采用缝线柔软小牛皮材质搭配粗旷的金属滑链肩带司随意切换单肩斜挎背法.随性大气风格迎面扑来!\n\n大号32cm 小号26cm"},"price":null,"currency":"CNY","moq":1,"category":"balenciaga-women-bags","status":"active","alibaba_url":null,"images":["https://xcimg.szwego.com/20221214/i1671010217_9821_0.jpg","https://xcimg.szwego.com/20221214/i1671010217_5241_1.jpg","https://xcimg.szwego.com/20221214/i1671010217_4938_2.jpg","https://xcimg.szwego.com/20221214/i1671010217_1112_3.jpg","https://xcimg.szwego.com/20221214/i1671010217_7075_4.jpg","https://xcimg.szwego.com/20221214/i1671010217_8245_5.jpg","https://xcimg.szwego.com/20221214/i1671010217_6139_6.jpg","https://xcimg.szwego.com/20221214/i1671010217_7975_7.jpg","https://xcimg.szwego.com/20221214/i1671010217_317_8.jpg"],"created_at":"2025-02-08T12:29:39.421Z"},{"id":"item-908ed1f5f91c","sku":"_dwBwBongknYxOBTEqJF88rSK66i7CKwEywakJQA","name_en":"Balenciaga Women Bags","name_cn":"小号\n【巴黎世家】新款crushtote包“垃圾袋”,将Trush造型与Crush元素完美结合,皱纹肌理更彰显出绝佳的触感,柔软水洗牛仔布和羊皮革➕搭配银色做旧五金➕抽绳闭合束口➕正logo标识印花,实物相较于22bag更加轻便牛皮比羊皮耐磨,比Chanel更抓住垃圾袋的精髓,妥妥的大容量水桶包,物品轻松扔进包内,束口设计是今年的时尚趋势,轻轻一拉就可以收拢包口,滑链设计可手拎、单肩或腋下,斜挎流流包等多种背法。随性、不羁就是这只包该有的态度✔️\n款号:BG0305,大号尺寸:长39.8X高45.9X宽13.9cm;小号尺寸:长23.8X高25.9X宽9.9cm。","specs":{"source":"wsxcme","sourceId":"_dwBwBongknYxOBTEqJF88rSK66i7CKwEywakJQA","sourceTagId":80697835,"sourceTagName":"巴黎世家/女包","modelNumber":"BG0305","dimensions":{"lengthCm":39.8,"heightCm":45.9,"widthCm":13.9},"rawTitle":"小号\n【巴黎世家】新款crushtote包“垃圾袋”,将Trush造型与Crush元素完美结合,皱纹肌理更彰显出绝佳的触感,柔软水洗牛仔布和羊皮革➕搭配银色做旧五金➕抽绳闭合束口➕正logo标识印花,实物相较于22bag更加轻便牛皮比羊皮耐磨,比Chanel更抓住垃圾袋的精髓,妥妥的大容量水桶包,物品轻松扔进包内,束口设计是今年的时尚趋势,轻轻一拉就可以收拢包口,滑链设计可手拎、单肩或腋下,斜挎流流包等多种背法。随性、不羁就是这只包该有的态度✔️\n款号:BG0305,大号尺寸:长39.8X高45.9X宽13.9cm;小号尺寸:长23.8X高25.9X宽9.9cm。"},"price":null,"currency":"CNY","moq":1,"category":"balenciaga-women-bags","status":"active","alibaba_url":null,"images":["https://xcimg.szwego.com/img/899b3320/20231205/i1701713233_3859_7.jpg","https://xcimg.szwego.com/img/899b3320/20231205/i1701713232_9801_2.jpg","https://xcimg.szwego.com/img/899b3320/20231205/i1701713232_299_3.jpg","https://xcimg.szwego.com/img/899b3320/20231205/i1701713233_5765_8.jpg","https://xcimg.szwego.com/img/899b3320/20231205/i1701713232_973_1.jpg","https://xcimg.szwego.com/img/899b3320/20231205/i1701713233_6017_5.jpg","https://xcimg.szwego.com/img/899b3320/20231205/i1701713233_4052_6.jpg","https://xcimg.szwego.com/img/899b3320/20231205/i1701713232_6415_0.jpg","https://xcimg.szwego.com/img/899b3320/20231205/i1701713232_9225_4.jpg"],"created_at":"2025-02-08T12:32:02.411Z"},{"id":"item-861dea5174fa","sku":"_dqKqK0mHjqSwFmfLBr2tqnLf4U-fPGj38ZZJv4A","name_en":"Balenciaga Women Bags","name_cn":"新款小号水桶机包,进口爆裂羊皮,颜色:白色,尺寸:15*17*19\nBalenciag巴黎最新款LeCagole水桶机车包配备了爱心小镜子,小卡包真是太酷🆒了","specs":{"source":"wsxcme","sourceId":"_dqKqK0mHjqSwFmfLBr2tqnLf4U-fPGj38ZZJv4A","sourceTagId":80697835,"sourceTagName":"巴黎世家/女包","rawTitle":"新款小号水桶机包,进口爆裂羊皮,颜色:白色,尺寸:15*17*19\nBalenciag巴黎最新款LeCagole水桶机车包配备了爱心小镜子,小卡包真是太酷🆒了"},"price":null,"currency":"CNY","moq":1,"category":"balenciaga-women-bags","status":"active","alibaba_url":null,"images":["https://xcimg.szwego.com/20220902/i1662106692_1245_0.jpg","https://xcimg.szwego.com/20220902/i1662106692_8980_1.jpg","https://xcimg.szwego.com/20220902/i1662106692_4251_2.jpg","https://xcimg.szwego.com/20220902/i1662106692_9549_3.jpg","https://xcimg.szwego.com/20220902/i1662106692_1342_4.jpg","https://xcimg.szwego.com/20220902/i1662106692_8327_5.jpg","https://xcimg.szwego.com/20220902/i1662106692_1984_6.jpg","https://xcimg.szwego.com/20220902/i1662106692_9885_7.jpg","https://xcimg.szwego.com/20220902/i1662106692_7583_8.jpg"],"created_at":"2025-02-08T12:55:57.758Z"},{"id":"item-784e1c9b9517","sku":"_dnYnYixYijxxrXFTtYxhHJmlRwEdWk-zvHhK_DQ","name_en":"Balenciaga Women Bags","name_cn":"【爆款大号】🆕现货\n Neo Cagole 新款机车包💋\n巴黎家新推出的机车包,重塑了经典包型,为‘机车包’注入新灵魂,顶级意大利进口爆裂羊皮制作,保留经典机车包的扁平柳钉,精致搭扣以及流苏拉链等原始DNA的基础上,增添可调节的编织肩带、可爱俏皮的爱心小镜子,完美缓和原版的中性气质👍🏻,🧐复古回潮,时髦精的最爱👄\n尺寸:38*17*24cm","specs":{"source":"wsxcme","sourceId":"_dnYnYixYijxxrXFTtYxhHJmlRwEdWk-zvHhK_DQ","sourceTagId":80697835,"sourceTagName":"巴黎世家/女包","dimensions":{"lengthCm":38,"heightCm":17,"widthCm":24},"rawTitle":"【爆款大号】🆕现货\n Neo Cagole 新款机车包💋\n巴黎家新推出的机车包,重塑了经典包型,为‘机车包’注入新灵魂,顶级意大利进口爆裂羊皮制作,保留经典机车包的扁平柳钉,精致搭扣以及流苏拉链等原始DNA的基础上,增添可调节的编织肩带、可爱俏皮的爱心小镜子,完美缓和原版的中性气质👍🏻,🧐复古回潮,时髦精的最爱👄\n尺寸:38*17*24cm"},"price":null,"currency":"CNY","moq":1,"category":"balenciaga-women-bags","status":"active","alibaba_url":null,"images":["https://xcimg.szwego.com/20220929/i1664438236_9825_0.jpg","https://xcimg.szwego.com/20220929/i1664438236_3264_1.jpg","https://xcimg.szwego.com/20220929/i1664438236_2535_2.jpg","https://xcimg.szwego.com/20220929/i1664438236_4674_3.jpg","https://xcimg.szwego.com/20220929/i1664438236_5863_4.jpg","https://xcimg.szwego.com/20220929/i1664438236_6096_5.jpg","https://xcimg.szwego.com/20220929/i1664438236_599_6.jpg","https://xcimg.szwego.com/20220929/i1664438236_8661_7.jpg","https://xcimg.szwego.com/20220929/i1664438236_507_8.jpg"],"created_at":"2025-02-08T12:57:13.055Z"},{"id":"item-78129524b70b","sku":"_dqaqaXu3LB7o5P8sRP0M-wT_KQYRO3M5EeMq0OA","name_en":"Balenciaga Women Bags","name_cn":"进口爆裂羊皮,颜色:橙色。   尺寸:26*13*18\n巴黎最新款Neo cagole机车包配备了爱心小镜子,酷飒的外表下是一颗甜心♡ 拎上就能提升整个气场,轻而易举的帅一地呀,甜心辣妹必入🧏🏻‍♀️","specs":{"source":"wsxcme","sourceId":"_dqaqaXu3LB7o5P8sRP0M-wT_KQYRO3M5EeMq0OA","sourceTagId":80697835,"sourceTagName":"巴黎世家/女包","rawTitle":"进口爆裂羊皮,颜色:橙色。   尺寸:26*13*18\n巴黎最新款Neo cagole机车包配备了爱心小镜子,酷飒的外表下是一颗甜心♡ 拎上就能提升整个气场,轻而易举的帅一地呀,甜心辣妹必入🧏🏻‍♀️"},"price":null,"currency":"CNY","moq":1,"category":"balenciaga-women-bags","status":"active","alibaba_url":null,"images":["https://xcimg.szwego.com/20220711/i1657553752_9054_0.jpg","https://xcimg.szwego.com/20220711/i1657553752_3755_1.jpg","https://xcimg.szwego.com/20220711/i1657553752_1641_2.jpg","https://xcimg.szwego.com/20220711/i1657553752_6985_3.jpg","https://xcimg.szwego.com/20220711/i1657553752_8074_4.jpg","https://xcimg.szwego.com/20220711/i1657553752_9048_5.jpg","https://xcimg.szwego.com/20220711/i1657553752_3684_6.jpg","https://xcimg.szwego.com/20220711/i1657553752_3819_7.jpg","https://xcimg.szwego.com/20220711/i1657553752_2861_8.jpg"],"created_at":"2025-02-08T12:57:43.628Z"},{"id":"item-685b5c728b2f","sku":"_doYoYXZnBCsiw-D8xIoCmOvc8BjNi6w4u5tVFlQ","name_en":"Balenciaga Women Bags","name_cn":"最新款购物袋出货透明包\nB家新品📷实拍 巴黎世家购物袋Balenciag*最新走秀款购物袋来啦🌈专柜限量上市 娱乐周刊主推款~超正点 原版内里 高端时尚 潮爆全球💫潮范儿们跟上脚步吧 喜欢的抓紧自留啦 超级洋气 \n尺寸:大号尺寸47x33x16,款号6052,小号尺寸23x18x11,款号6032","specs":{"source":"wsxcme","sourceId":"_doYoYXZnBCsiw-D8xIoCmOvc8BjNi6w4u5tVFlQ","sourceTagId":80697835,"sourceTagName":"巴黎世家/女包","modelNumber":"6052","rawTitle":"最新款购物袋出货透明包\nB家新品📷实拍 巴黎世家购物袋Balenciag*最新走秀款购物袋来啦🌈专柜限量上市 娱乐周刊主推款~超正点 原版内里 高端时尚 潮爆全球💫潮范儿们跟上脚步吧 喜欢的抓紧自留啦 超级洋气 \n尺寸:大号尺寸47x33x16,款号6052,小号尺寸23x18x11,款号6032"},"price":null,"currency":"CNY","moq":1,"category":"balenciaga-women-bags","status":"active","alibaba_url":null,"images":["https://xcimg.szwego.com/20230627/i1687804640_3487_0.jpg","https://xcimg.szwego.com/20230627/i1687804640_1696_1.jpg","https://xcimg.szwego.com/20230627/i1687804640_8030_2.jpg","https://xcimg.szwego.com/20230627/i1687804640_351_3.jpg","https://xcimg.szwego.com/20230627/i1687804640_7444_4.jpg","https://xcimg.szwego.com/20230627/i1687804640_854_5.jpg","https://xcimg.szwego.com/20230627/i1687804640_6509_6.jpg","https://xcimg.szwego.com/20230627/i1687804640_7230_7.jpg"],"created_at":"2025-02-08T12:29:39.446Z"},{"id":"item-65f6d10dfd07","sku":"_dOhOh7IJB3pSIihjJP80M9mEiR34gybtN5lcujg","name_en":"Balenciaga Women Bags","name_cn":"【爆款大号】🆕现货白色\nNeo Cagole 新款机车包💋\n巴黎家新推出的机车包,重塑了经典包型,为‘机车包’注入新灵魂,顶级意大利进口爆裂羊皮制作,保留经典机车包的扁平柳钉,精致搭扣以及流苏拉链等原始DNA的基础上,增添可调节的编织肩带、可爱俏皮的爱心小镜子,完美缓和原版的中性气质👍🏻,🧐复古回潮,时髦精的最爱👄\n尺寸:38*17*24cm","specs":{"source":"wsxcme","sourceId":"_dOhOh7IJB3pSIihjJP80M9mEiR34gybtN5lcujg","sourceTagId":80697835,"sourceTagName":"巴黎世家/女包","dimensions":{"lengthCm":38,"heightCm":17,"widthCm":24},"rawTitle":"【爆款大号】🆕现货白色\nNeo Cagole 新款机车包💋\n巴黎家新推出的机车包,重塑了经典包型,为‘机车包’注入新灵魂,顶级意大利进口爆裂羊皮制作,保留经典机车包的扁平柳钉,精致搭扣以及流苏拉链等原始DNA的基础上,增添可调节的编织肩带、可爱俏皮的爱心小镜子,完美缓和原版的中性气质👍🏻,🧐复古回潮,时髦精的最爱👄\n尺寸:38*17*24cm"},"price":null,"currency":"CNY","moq":1,"category":"balenciaga-women-bags","status":"active","alibaba_url":null,"images":["https://xcimg.szwego.com/20220929/i1664438500_5088_0.jpg","https://xcimg.szwego.com/20220929/i1664438500_8967_1.jpg","https://xcimg.szwego.com/20220929/i1664438500_5016_2.jpg","https://xcimg.szwego.com/20220929/i1664438500_5195_3.jpg","https://xcimg.szwego.com/20220929/i1664438500_6786_4.jpg","https://xcimg.szwego.com/20220929/i1664438500_9552_5.jpg","https://xcimg.szwego.com/20220929/i1664438500_7742_6.jpg","https://xcimg.szwego.com/20220929/i1664438500_5503_7.jpg","https://xcimg.szwego.com/20220929/i1664438500_5494_8.jpg"],"created_at":"2025-02-08T12:57:34.688Z"},{"id":"item-5eb8db9d1d70","sku":"_doPoPpR4oXrFSpz2Tg0wqUzJh6wTD2VapLJrOqQ","name_en":"Balenciaga Women Bags","name_cn":"大小 \nBalenciaga 水钻logo沙漏包❤️超炫酷\n包包上的字母logo是闪闪发亮的水 钻组成的呦~这也\n太闪了叭~特别是在光照环境下👛闭着眼睛入就是了😉一眼就让人眼前一亮呀超炫酷!\n小号:  19×8×13 大号:23*10*14\n款号:9010","specs":{"source":"wsxcme","sourceId":"_doPoPpR4oXrFSpz2Tg0wqUzJh6wTD2VapLJrOqQ","sourceTagId":80697835,"sourceTagName":"巴黎世家/女包","modelNumber":"9010","rawTitle":"大小 \nBalenciaga 水钻logo沙漏包❤️超炫酷\n包包上的字母logo是闪闪发亮的水 钻组成的呦~这也\n太闪了叭~特别是在光照环境下👛闭着眼睛入就是了😉一眼就让人眼前一亮呀超炫酷!\n小号:  19×8×13 大号:23*10*14\n款号:9010"},"price":null,"currency":"CNY","moq":1,"category":"balenciaga-women-bags","status":"active","alibaba_url":null,"images":["https://xcimg.szwego.com/20230628/i1687929388_5233_0.jpg","https://xcimg.szwego.com/20230628/i1687929388_3905_1.jpg","https://xcimg.szwego.com/20230628/i1687929388_2425_2.jpg","https://xcimg.szwego.com/20230628/i1687929388_4062_3.jpg","https://xcimg.szwego.com/20230628/i1687929388_5238_4.jpg","https://xcimg.szwego.com/20230628/i1687929388_5002_5.jpg"],"created_at":"2025-02-08T12:29:39.470Z"},{"id":"item-5a6ceda00ad0","sku":"_dwywyn87jbZ6KrGS_aciiF9UjZ8QamXOkNZ1X_w","name_en":"Balenciaga Women Bags","name_cn":"大号\n【巴黎世家】新款crushtote包“垃圾袋”,将Trush造型与Crush元素完美结合,皱纹肌理更彰显出绝佳的触感,柔软水洗牛仔布和羊皮革➕搭配银色做旧五金➕抽绳闭合束口➕正logo标识印花,实物相较于22bag更加轻便牛皮比羊皮耐磨,比Chanel更抓住垃圾袋的精髓,妥妥的大容量水桶包,物品轻松扔进包内,束口设计是今年的时尚趋势,轻轻一拉就可以收拢包口,滑链设计可手拎、单肩或腋下,斜挎流流包等多种背法。随性、不羁就是这只包该有的态度✔️\n款号:BG0305,大号尺寸:长39.8X高45.9X宽13.9cm;小号尺寸:长23.8X高25.9X宽9.9cm。","specs":{"source":"wsxcme","sourceId":"_dwywyn87jbZ6KrGS_aciiF9UjZ8QamXOkNZ1X_w","sourceTagId":80697835,"sourceTagName":"巴黎世家/女包","modelNumber":"BG0305","dimensions":{"lengthCm":39.8,"heightCm":45.9,"widthCm":13.9},"rawTitle":"大号\n【巴黎世家】新款crushtote包“垃圾袋”,将Trush造型与Crush元素完美结合,皱纹肌理更彰显出绝佳的触感,柔软水洗牛仔布和羊皮革➕搭配银色做旧五金➕抽绳闭合束口➕正logo标识印花,实物相较于22bag更加轻便牛皮比羊皮耐磨,比Chanel更抓住垃圾袋的精髓,妥妥的大容量水桶包,物品轻松扔进包内,束口设计是今年的时尚趋势,轻轻一拉就可以收拢包口,滑链设计可手拎、单肩或腋下,斜挎流流包等多种背法。随性、不羁就是这只包该有的态度✔️\n款号:BG0305,大号尺寸:长39.8X高45.9X宽13.9cm;小号尺寸:长23.8X高25.9X宽9.9cm。"},"price":null,"currency":"CNY","moq":1,"category":"balenciaga-women-bags","status":"active","alibaba_url":null,"images":["https://xcimg.szwego.com/img/899b3320/20231205/i1701714087_1042_8.jpg","https://xcimg.szwego.com/img/899b3320/20231205/i1701714086_1044_3.jpg","https://xcimg.szwego.com/img/899b3320/20231205/i1701714087_8191_7.jpg","https://xcimg.szwego.com/img/899b3320/20231205/i1701714086_1951_1.jpg","https://xcimg.szwego.com/img/899b3320/20231205/i1701714086_6826_5.jpg","https://xcimg.szwego.com/img/899b3320/20231205/i1701714086_8927_2.jpg","https://xcimg.szwego.com/img/899b3320/20231205/i1701714086_2478_0.jpg","https://xcimg.szwego.com/img/899b3320/20231205/i1701714086_993_4.jpg","https://xcimg.szwego.com/img/899b3320/20231205/i1701714086_8491_6.jpg"],"created_at":"2025-02-08T12:32:10.722Z"},{"id":"item-52ce5738c80b","sku":"_dpepe25D9lsu0XX9Eu07Z4FjCsbfm9m0PJWoY7Q","name_en":"Balenciaga Women Bags","name_cn":"新款水桶机包,进口爆裂羊皮,颜色:复古银,尺寸:30*23*17\nBalenciag巴黎最新款LeCagole水桶机车包配备了爱心小镜子,小卡包真是太酷🆒了","specs":{"source":"wsxcme","sourceId":"_dpepe25D9lsu0XX9Eu07Z4FjCsbfm9m0PJWoY7Q","sourceTagId":80697835,"sourceTagName":"巴黎世家/女包","rawTitle":"新款水桶机包,进口爆裂羊皮,颜色:复古银,尺寸:30*23*17\nBalenciag巴黎最新款LeCagole水桶机车包配备了爱心小镜子,小卡包真是太酷🆒了"},"price":null,"currency":"CNY","moq":1,"category":"balenciaga-women-bags","status":"active","alibaba_url":null,"images":["https://xcimg.szwego.com/20220805/i1659684791_8654_0.jpg","https://xcimg.szwego.com/20220805/i1659684791_8881_1.jpg","https://xcimg.szwego.com/20220805/i1659684791_368_2.jpg","https://xcimg.szwego.com/20220805/i1659684791_547_3.jpg","https://xcimg.szwego.com/20220805/i1659684791_616_4.jpg","https://xcimg.szwego.com/20220805/i1659684791_5886_5.jpg","https://xcimg.szwego.com/20220805/i1659684791_3326_6.jpg","https://xcimg.szwego.com/20220805/i1659684791_7789_7.jpg","https://xcimg.szwego.com/20220805/i1659684791_1165_8.jpg"],"created_at":"2025-02-08T12:56:44.833Z"},{"id":"item-484e39b35062","sku":"_dFPFP1jhzvgcu7yBjTuruzZAe_nZgVoact9ygmg","name_en":"Balenciaga Women Bags","name_cn":"最新款购物袋出货透明包\nB家新品📷实拍 巴黎世家购物袋Balenciag*最新走秀款购物袋来啦🌈专柜限量上市 娱乐周刊主推款~超正点 原版内里 高端时尚 潮爆全球💫潮范儿们跟上脚步吧 喜欢的抓紧自留啦 超级洋气 \n尺寸:大号尺寸47x33x16,款号6052,小号尺寸23x18x11,款号6032","specs":{"source":"wsxcme","sourceId":"_dFPFP1jhzvgcu7yBjTuruzZAe_nZgVoact9ygmg","sourceTagId":80697835,"sourceTagName":"巴黎世家/女包","modelNumber":"6052","rawTitle":"最新款购物袋出货透明包\nB家新品📷实拍 巴黎世家购物袋Balenciag*最新走秀款购物袋来啦🌈专柜限量上市 娱乐周刊主推款~超正点 原版内里 高端时尚 潮爆全球💫潮范儿们跟上脚步吧 喜欢的抓紧自留啦 超级洋气 \n尺寸:大号尺寸47x33x16,款号6052,小号尺寸23x18x11,款号6032"},"price":null,"currency":"CNY","moq":1,"category":"balenciaga-women-bags","status":"active","alibaba_url":null,"images":["https://xcimg.szwego.com/20230627/i1687804542_2596_0.jpg","https://xcimg.szwego.com/20230627/i1687804542_2442_1.jpg","https://xcimg.szwego.com/20230627/i1687804542_6085_2.jpg","https://xcimg.szwego.com/20230627/i1687804542_6864_3.jpg","https://xcimg.szwego.com/20230627/i1687804542_9173_4.jpg","https://xcimg.szwego.com/20230627/i1687804542_7894_5.jpg","https://xcimg.szwego.com/20230627/i1687804542_1031_6.jpg","https://xcimg.szwego.com/20230627/i1687804542_7513_7.jpg"],"created_at":"2025-02-08T12:29:39.450Z"},{"id":"item-451bdc547d4e","sku":"_dbnbnxghU7N9kcb8-WheH9L8E_DcSiaYKBwmAWA","name_en":"Balenciaga Women Bags","name_cn":"最新款购物袋出货透明包\nB家新品📷实拍 巴黎世家购物袋Balenciag*最新走秀款购物袋来啦🌈专柜限量上市 娱乐周刊主推款~超正点 原版内里 高端时尚 潮爆全球💫潮范儿们跟上脚步吧 喜欢的抓紧自留啦 超级洋气 \n尺寸:大号尺寸47x33x16,款号6052,小号尺寸23x18x11,款号6032","specs":{"source":"wsxcme","sourceId":"_dbnbnxghU7N9kcb8-WheH9L8E_DcSiaYKBwmAWA","sourceTagId":80697835,"sourceTagName":"巴黎世家/女包","modelNumber":"6052","rawTitle":"最新款购物袋出货透明包\nB家新品📷实拍 巴黎世家购物袋Balenciag*最新走秀款购物袋来啦🌈专柜限量上市 娱乐周刊主推款~超正点 原版内里 高端时尚 潮爆全球💫潮范儿们跟上脚步吧 喜欢的抓紧自留啦 超级洋气 \n尺寸:大号尺寸47x33x16,款号6052,小号尺寸23x18x11,款号6032"},"price":null,"currency":"CNY","moq":1,"category":"balenciaga-women-bags","status":"active","alibaba_url":null,"images":["https://xcimg.szwego.com/20230627/i1687804603_3948_0.jpg","https://xcimg.szwego.com/20230627/i1687804603_3525_1.jpg","https://xcimg.szwego.com/20230627/i1687804603_6778_2.jpg","https://xcimg.szwego.com/20230627/i1687804603_5324_3.jpg","https://xcimg.szwego.com/20230627/i1687804603_8089_4.jpg","https://xcimg.szwego.com/20230627/i1687804603_6228_5.jpg","https://xcimg.szwego.com/20230627/i1687804603_5789_6.jpg","https://xcimg.szwego.com/20230627/i1687804603_670_7.jpg"],"created_at":"2025-02-08T12:29:39.448Z"},{"id":"item-4075d1a6e07a","sku":"_dvhvhqBqrgANPt-GnG2moNBerEVFMq--2KKhMQg","name_en":"Balenciaga Women Bags","name_cn":"新款水桶机包,进口爆裂羊皮,颜色:经典黑,尺寸:30*23*17\nBalenciag巴黎最新款LeCagole水桶机车包配备了爱心小镜子,小卡包真是太酷🆒了","specs":{"source":"wsxcme","sourceId":"_dvhvhqBqrgANPt-GnG2moNBerEVFMq--2KKhMQg","sourceTagId":80697835,"sourceTagName":"巴黎世家/女包","rawTitle":"新款水桶机包,进口爆裂羊皮,颜色:经典黑,尺寸:30*23*17\nBalenciag巴黎最新款LeCagole水桶机车包配备了爱心小镜子,小卡包真是太酷🆒了"},"price":null,"currency":"CNY","moq":1,"category":"balenciaga-women-bags","status":"active","alibaba_url":null,"images":["https://xcimg.szwego.com/20220805/i1659684748_8201_0.jpg","https://xcimg.szwego.com/20220805/i1659684748_9604_1.jpg","https://xcimg.szwego.com/20220805/i1659684748_7523_2.jpg","https://xcimg.szwego.com/20220805/i1659684748_2540_3.jpg","https://xcimg.szwego.com/20220805/i1659684748_6500_4.jpg","https://xcimg.szwego.com/20220805/i1659684748_6505_5.jpg","https://xcimg.szwego.com/20220805/i1659684748_4761_6.jpg","https://xcimg.szwego.com/20220805/i1659684748_15_7.jpg","https://xcimg.szwego.com/20220805/i1659684748_8751_8.jpg"],"created_at":"2025-02-08T12:56:27.726Z"},{"id":"item-3f8d2b5a1c08","sku":"_d-D-DnjEQpdNx-UIegfrIOR6ZeWysBQ82h3gi8Q","name_en":"Balenciaga Women Bags","name_cn":"【爆款大号】🆕现货红色\n Neo Cagole 新款机车包💋\n巴黎家新推出的机车包,重塑了经典包型,为‘机车包’注入新灵魂,顶级意大利进口爆裂羊皮制作,保留经典机车包的扁平柳钉,精致搭扣以及流苏拉链等原始DNA的基础上,增添可调节的编织肩带、可爱俏皮的爱心小镜子,完美缓和原版的中性气质👍🏻,🧐复古回潮,时髦精的最爱👄\n尺寸:38*17*24cm","specs":{"source":"wsxcme","sourceId":"_d-D-DnjEQpdNx-UIegfrIOR6ZeWysBQ82h3gi8Q","sourceTagId":80697835,"sourceTagName":"巴黎世家/女包","dimensions":{"lengthCm":38,"heightCm":17,"widthCm":24},"rawTitle":"【爆款大号】🆕现货红色\n Neo Cagole 新款机车包💋\n巴黎家新推出的机车包,重塑了经典包型,为‘机车包’注入新灵魂,顶级意大利进口爆裂羊皮制作,保留经典机车包的扁平柳钉,精致搭扣以及流苏拉链等原始DNA的基础上,增添可调节的编织肩带、可爱俏皮的爱心小镜子,完美缓和原版的中性气质👍🏻,🧐复古回潮,时髦精的最爱👄\n尺寸:38*17*24cm"},"price":null,"currency":"CNY","moq":1,"category":"balenciaga-women-bags","status":"active","alibaba_url":null,"images":["https://xcimg.szwego.com/20220929/i1664438617_5922_0.jpg","https://xcimg.szwego.com/20220929/i1664438617_3749_1.jpg","https://xcimg.szwego.com/20220929/i1664438617_9199_2.jpg","https://xcimg.szwego.com/20220929/i1664438617_1966_3.jpg","https://xcimg.szwego.com/20220929/i1664438617_7251_4.jpg","https://xcimg.szwego.com/20220929/i1664438617_1490_5.jpg","https://xcimg.szwego.com/20220929/i1664438617_7498_6.jpg","https://xcimg.szwego.com/20220929/i1664438617_6722_7.jpg","https://xcimg.szwego.com/20220929/i1664438617_9511_8.jpg"],"created_at":"2025-02-08T12:57:52.467Z"},{"id":"item-3c335a9ef8b8","sku":"_dKXKXtGCjZQ1tBnVsOFHxw8QHd8W4qMSF-cnldQ","name_en":"Balenciaga Women Bags","name_cn":"小号绣花黑  \n\nBalenciaga 新款 Monaco 系列\n新一季的 Monaco 太美了 大包爱好者心中狂喜,软乎乎的手感,背法很多很好搭很实用\n给人很松弛的感觉\n像枕头一样柔软的包包 可以满足各种搭配需求的一款~\n\n款号:80026绣花\n小号尺寸:底长高27x宽9.9x18cm","specs":{"source":"wsxcme","sourceId":"_dKXKXtGCjZQ1tBnVsOFHxw8QHd8W4qMSF-cnldQ","sourceTagId":80697835,"sourceTagName":"巴黎世家/女包","modelNumber":"80026绣花","rawTitle":"小号绣花黑  \n\nBalenciaga 新款 Monaco 系列\n新一季的 Monaco 太美了 大包爱好者心中狂喜,软乎乎的手感,背法很多很好搭很实用\n给人很松弛的感觉\n像枕头一样柔软的包包 可以满足各种搭配需求的一款~\n\n款号:80026绣花\n小号尺寸:底长高27x宽9.9x18cm"},"price":null,"currency":"CNY","moq":1,"category":"balenciaga-women-bags","status":"active","alibaba_url":null,"images":["https://xcimg.szwego.com/img/7f3712fa/20231021/i1697880630_9355_0.jpg","https://xcimg.szwego.com/img/7f3712fa/20231021/i1697880630_4932_1.jpg","https://xcimg.szwego.com/img/7f3712fa/20231021/i1697880630_7104_2.jpg","https://xcimg.szwego.com/img/7f3712fa/20231021/i1697880630_8491_3.jpg","https://xcimg.szwego.com/img/7f3712fa/20231021/i1697880630_2384_4.jpg","https://xcimg.szwego.com/img/7f3712fa/20231021/i1697880630_9267_5.jpg","https://xcimg.szwego.com/img/7f3712fa/20231021/i1697880630_5139_6.jpg","https://xcimg.szwego.com/img/7f3712fa/20231021/i1697880633_9826_0.jpg","https://xcimg.szwego.com/img/7f3712fa/20231021/i1697880644_7934_0.jpg"],"created_at":"2025-02-08T12:29:39.454Z"},{"id":"item-39233dd062b4","sku":"_drvrvYf7sehqWvSdM9C3d7I3GzJB93DulvM-M0w","name_en":"Balenciaga Women Bags","name_cn":"【小平纹黑】出⏰\n\nBalenciaga lindsay系列新品\nBB全新推出了帅爆的腋下包 手袋配有链条肩带和可拆卸皮革肩帶,可实现手提、单肩包和斜挎造型,闭着眼睛入就是了🖤\n真的好酷啊🔥时尚人士必须背第一手!\n\n80093\n尺寸:29x13x4.8cm (平纹)","specs":{"source":"wsxcme","sourceId":"_drvrvYf7sehqWvSdM9C3d7I3GzJB93DulvM-M0w","sourceTagId":80697835,"sourceTagName":"巴黎世家/女包","dimensions":{"lengthCm":29,"heightCm":13,"widthCm":4.8},"rawTitle":"【小平纹黑】出⏰\n\nBalenciaga lindsay系列新品\nBB全新推出了帅爆的腋下包 手袋配有链条肩带和可拆卸皮革肩帶,可实现手提、单肩包和斜挎造型,闭着眼睛入就是了🖤\n真的好酷啊🔥时尚人士必须背第一手!\n\n80093\n尺寸:29x13x4.8cm (平纹)"},"price":null,"currency":"CNY","moq":1,"category":"balenciaga-women-bags","status":"active","alibaba_url":null,"images":["https://xcimg.szwego.com/20220812/i1660310500_8844_0.jpg","https://xcimg.szwego.com/20220812/i1660310500_2017_1.jpg","https://xcimg.szwego.com/20220812/i1660310500_8594_2.jpg","https://xcimg.szwego.com/20220812/i1660310500_8711_3.jpg","https://xcimg.szwego.com/20220812/i1660310500_4582_4.jpg","https://xcimg.szwego.com/20220812/i1660310500_4096_5.jpg","https://xcimg.szwego.com/20220812/i1660310500_1824_6.jpg","https://xcimg.szwego.com/20220812/i1660310500_1045_7.jpg","https://xcimg.szwego.com/20220812/i1660310500_3256_8.jpg"],"created_at":"2025-02-08T12:29:39.455Z"},{"id":"item-25a6bc879e05","sku":"_dhHhH2wcmj1eACIO5kwEQf6nDvqMvC3Kdf00UyQ","name_en":"Balenciaga Women Bags","name_cn":"大号\n【巴黎世家】新款crushtote包“垃圾袋”,将Trush造型与Crush元素完美结合,皱纹肌理更彰显出绝佳的触感,柔软具有光泽的小牛皮➕搭配金色做旧五金➕抽绳闭合束口➕正logo标识印花,实物相较于22bag更加轻便牛皮比羊皮耐磨,比Chanel更抓住垃圾袋的精髓,妥妥的大容量水桶包,物品轻松扔进包内,束口设计是今年的时尚趋势,轻轻一拉就可以收拢包口,滑链设计可手拎、单肩或腋下,斜挎流流包等多种背法。随性、不羁就是这只包该有的态度✔️\n款号:BG0305,大号尺寸:高43*宽15*底长35cm;小号尺寸:高27*宽10*底长32cm。","specs":{"source":"wsxcme","sourceId":"_dhHhH2wcmj1eACIO5kwEQf6nDvqMvC3Kdf00UyQ","sourceTagId":80697835,"sourceTagName":"巴黎世家/女包","modelNumber":"BG0305","rawTitle":"大号\n【巴黎世家】新款crushtote包“垃圾袋”,将Trush造型与Crush元素完美结合,皱纹肌理更彰显出绝佳的触感,柔软具有光泽的小牛皮➕搭配金色做旧五金➕抽绳闭合束口➕正logo标识印花,实物相较于22bag更加轻便牛皮比羊皮耐磨,比Chanel更抓住垃圾袋的精髓,妥妥的大容量水桶包,物品轻松扔进包内,束口设计是今年的时尚趋势,轻轻一拉就可以收拢包口,滑链设计可手拎、单肩或腋下,斜挎流流包等多种背法。随性、不羁就是这只包该有的态度✔️\n款号:BG0305,大号尺寸:高43*宽15*底长35cm;小号尺寸:高27*宽10*底长32cm。"},"price":null,"currency":"CNY","moq":1,"category":"balenciaga-women-bags","status":"active","alibaba_url":null,"images":["https://xcimg.szwego.com/img/899b3320/20231124/i1700820599_2224_0.jpg","https://xcimg.szwego.com/img/899b3320/20231124/i1700820592_4561_2.jpg","https://xcimg.szwego.com/img/899b3320/20231124/i1700820592_7933_4.jpg","https://xcimg.szwego.com/img/899b3320/20231124/i1700820592_293_1.jpg","https://xcimg.szwego.com/img/899b3320/20231124/i1700820592_7965_5.jpg","https://xcimg.szwego.com/img/899b3320/20231124/i1700820592_4746_3.jpg","https://xcimg.szwego.com/img/899b3320/20231124/i1700820593_3837_6.jpg","https://xcimg.szwego.com/img/899b3320/20231124/i1700820592_7132_0.jpg","https://xcimg.szwego.com/img/899b3320/20231124/i1700820593_4430_7.jpg"],"created_at":"2025-02-08T12:31:45.240Z"},{"id":"item-03a2d0e28c87","sku":"_d-c-cOp2mJNTR0O6PglcPEIBmtANLZa6CDv7GYA","name_en":"Balenciaga Women Bags","name_cn":"小号\n【巴黎世家】新款crushtote包“垃圾袋”,将Trush造型与Crush元素完美结合,皱纹肌理更彰显出绝佳的触感,柔软具有光泽的小牛皮➕搭配金色做旧五金➕抽绳闭合束口➕正logo标识印花,实物相较于22bag更加轻便牛皮比羊皮耐磨,比Chanel更抓住垃圾袋的精髓,妥妥的大容量水桶包,物品轻松扔进包内,束口设计是今年的时尚趋势,轻轻一拉就可以收拢包口,滑链设计可手拎、单肩或腋下,斜挎流流包等多种背法。随性、不羁就是这只包该有的态度✔️\n款号:BG0305,大号尺寸:高43*宽15*底长35cm;小号尺寸:高27*宽10*底长32cm。","specs":{"source":"wsxcme","sourceId":"_d-c-cOp2mJNTR0O6PglcPEIBmtANLZa6CDv7GYA","sourceTagId":80697835,"sourceTagName":"巴黎世家/女包","modelNumber":"BG0305","rawTitle":"小号\n【巴黎世家】新款crushtote包“垃圾袋”,将Trush造型与Crush元素完美结合,皱纹肌理更彰显出绝佳的触感,柔软具有光泽的小牛皮➕搭配金色做旧五金➕抽绳闭合束口➕正logo标识印花,实物相较于22bag更加轻便牛皮比羊皮耐磨,比Chanel更抓住垃圾袋的精髓,妥妥的大容量水桶包,物品轻松扔进包内,束口设计是今年的时尚趋势,轻轻一拉就可以收拢包口,滑链设计可手拎、单肩或腋下,斜挎流流包等多种背法。随性、不羁就是这只包该有的态度✔️\n款号:BG0305,大号尺寸:高43*宽15*底长35cm;小号尺寸:高27*宽10*底长32cm。"},"price":null,"currency":"CNY","moq":1,"category":"balenciaga-women-bags","status":"active","alibaba_url":null,"images":["https://xcimg.szwego.com/img/899b3320/20231124/i1700819761_4080_0.jpg","https://xcimg.szwego.com/img/899b3320/20231124/i1700814827_2856_2.jpg","https://xcimg.szwego.com/img/899b3320/20231124/i1700815001_35_0.jpg","https://xcimg.szwego.com/img/899b3320/20231124/i1700814827_7003_5.jpg","https://xcimg.szwego.com/img/899b3320/20231124/i1700815046_8506_1.jpg","https://xcimg.szwego.com/img/899b3320/20231124/i1700814827_432_1.jpg","https://xcimg.szwego.com/img/899b3320/20231124/i1700814827_2105_0.jpg","https://xcimg.szwego.com/img/899b3320/20231124/i1700814827_6104_4.jpg","https://xcimg.szwego.com/img/899b3320/20231124/i1700815001_370_1.jpg"],"created_at":"2025-02-08T12:31:54.366Z"},{"id":"item-7a199370d855","sku":"_dv6v68vfaugSx73dSS4xqjElszL4UvkaTbSjdFw","name_en":"Balenciaga巴黎世家 crush链条包⛓️","name_cn":"Balenciaga巴黎世家 crush链条包⛓️\n⏳经典沙漏轮廓却又像枕头般柔软,揉成团又展开的做旧折纸质感,耐看日常又百搭。crush包款以解构手法重释经典,包身延续了拱形包底与尖角边缘设计,去掉手柄,保留B扣。\n既可将链条穿过环圈对折作为手拎包或腋下包,亦可调整成单链条做单肩包或斜挎包,一个包有四种背法。\n款号:8911\n尺寸:39.9*24.9*13.0","specs":{"source":"wsxcme","sourceId":"_dv6v68vfaugSx73dSS4xqjElszL4UvkaTbSjdFw","sourceTagId":80697835,"sourceTagName":"巴黎世家/女包","modelNumber":"8911","rawTitle":"Balenciaga巴黎世家 crush链条包⛓️\n⏳经典沙漏轮廓却又像枕头般柔软,揉成团又展开的做旧折纸质感,耐看日常又百搭。crush包款以解构手法重释经典,包身延续了拱形包底与尖角边缘设计,去掉手柄,保留B扣。\n既可将链条穿过环圈对折作为手拎包或腋下包,亦可调整成单链条做单肩包或斜挎包,一个包有四种背法。\n款号:8911\n尺寸:39.9*24.9*13.0"},"price":null,"currency":"CNY","moq":1,"category":"balenciaga-women-bags","status":"active","alibaba_url":null,"images":["https://xcimg.szwego.com/20230511/i1683800436_379_3.jpg","https://xcimg.szwego.com/20230511/i1683800436_2109_0.jpg","https://xcimg.szwego.com/20230511/i1683800436_5574_1.jpg","https://xcimg.szwego.com/20230511/i1683800436_1130_2.jpg","https://xcimg.szwego.com/20230511/i1683800436_1390_4.jpg"],"created_at":"2025-02-08T12:29:39.445Z"},{"id":"item-cb192fc67187","sku":"_djLjL_tOr-1RZuFpm3erzM0fVDQDGi2SRapbk1Q","name_en":"Balenciaga小号沙漏链条包 鳄纹小牛皮材质 肩带可随意切换,单肩斜挎两种背法,帅气利落亦不复古!","name_cn":"Balenciaga小号沙漏链条包 鳄纹小牛皮材质 肩带可随意切换,单肩斜挎两种背法,帅气利落亦不复古!\n\n小号尺寸:底长25x15x9.5cm,8915#","specs":{"source":"wsxcme","sourceId":"_djLjL_tOr-1RZuFpm3erzM0fVDQDGi2SRapbk1Q","sourceTagId":80697835,"sourceTagName":"巴黎世家/女包","rawTitle":"Balenciaga小号沙漏链条包 鳄纹小牛皮材质 肩带可随意切换,单肩斜挎两种背法,帅气利落亦不复古!\n\n小号尺寸:底长25x15x9.5cm,8915#"},"price":null,"currency":"CNY","moq":1,"category":"balenciaga-women-bags","status":"active","alibaba_url":null,"images":["https://xcimg.szwego.com/20230312/i1678554690_4580_5.jpg","https://xcimg.szwego.com/20230312/i1678554690_4543_2.jpg","https://xcimg.szwego.com/20230312/i1678554690_5433_1.jpg","https://xcimg.szwego.com/20230312/i1678554690_1781_3.jpg","https://xcimg.szwego.com/20230312/i1678554690_6364_4.jpg","https://xcimg.szwego.com/20230312/i1678554690_5843_0.jpg"],"created_at":"2025-02-08T12:29:39.469Z"}],"page":5,"pageSize":24,"total":119,"totalPages":5}
