{"items":[{"id":"item-a691da6c0dc9","sku":"_dbJbJ3_xMrfuidbDo3ai-AAyd29vwwgSq1-fPuw","name_en":"Chanel Women Bags","name_cn":"原厂皮\n小香进口意大利小羊皮【升級版】\n货号:A\n尺寸:w20×h13×d3.5cm\n颜色:淺粉細球紋金色鋼唛","specs":{"source":"wsxcme","sourceId":"_dbJbJ3_xMrfuidbDo3ai-AAyd29vwwgSq1-fPuw","sourceTagId":47002745,"sourceTagName":"香奈儿/女包","modelNumber":"A","rawTitle":"原厂皮\n小香进口意大利小羊皮【升級版】\n货号:A\n尺寸:w20×h13×d3.5cm\n颜色:淺粉細球紋金色鋼唛"},"price":null,"currency":"CNY","moq":1,"category":"chanel-women-bags","status":"active","alibaba_url":null,"images":["https://xcimg.szwego.com/img/c4e87dad/20250516/i1747400036108_1835_0_0.jpg","https://xcimg.szwego.com/img/c4e87dad/20250516/i1747400034377_2088_0_1.jpg","https://xcimg.szwego.com/img/c4e87dad/20250516/i1747400036127_3732_0_2.jpg","https://xcimg.szwego.com/img/c4e87dad/20250516/i1747400034327_8494_0_4.jpg","https://xcimg.szwego.com/img/c4e87dad/20250516/i1747400034428_5930_0_7.jpg"],"created_at":"2025-09-09T05:22:54.850Z"},{"id":"item-a6907003cac1","sku":"_dCdCdKgVJFJ7dMHHKe2sS8w-5yQn9Mbyxm56xwg","name_en":"Chanel Women Bags","name_cn":"白金版▪️正品级 包装如图\nChane1 23S春夏系列\n山茶花调节扣 方胖子 浅蓝色\n专柜售价39800rmb购入开发〰️\n\n23s山茶花调节扣链条口盖包\n具备cf的元素造型有着性感迷人的气质。\n设计方面更加优雅大方啦❕\n可️腋下、斜挎、单肩一包多用,很受欢迎哦👏🏻\n\n五金:厚镀24k复古金\n皮料:   开料部zp小羊皮\n尺寸:13*18*7 cm","specs":{"source":"wsxcme","sourceId":"_dCdCdKgVJFJ7dMHHKe2sS8w-5yQn9Mbyxm56xwg","sourceTagId":47002745,"sourceTagName":"香奈儿/女包","dimensions":{"lengthCm":13,"heightCm":18,"widthCm":7},"rawTitle":"白金版▪️正品级 包装如图\nChane1 23S春夏系列\n山茶花调节扣 方胖子 浅蓝色\n专柜售价39800rmb购入开发〰️\n\n23s山茶花调节扣链条口盖包\n具备cf的元素造型有着性感迷人的气质。\n设计方面更加优雅大方啦❕\n可️腋下、斜挎、单肩一包多用,很受欢迎哦👏🏻\n\n五金:厚镀24k复古金\n皮料:   开料部zp小羊皮\n尺寸:13*18*7 cm"},"price":null,"currency":"CNY","moq":1,"category":"chanel-women-bags","status":"active","alibaba_url":null,"images":["https://xcimg.szwego.com/20230529/i1685340742_8789_0.jpg","https://xcimg.szwego.com/20230529/i1685340742_9264_1.jpg","https://xcimg.szwego.com/20230529/i1685340742_2484_2.jpg","https://xcimg.szwego.com/20230529/i1685340742_4602_3.jpg","https://xcimg.szwego.com/20230529/i1685340742_6174_4.jpg","https://xcimg.szwego.com/20230529/i1685340742_2038_5.jpg","https://xcimg.szwego.com/20230529/i1685340742_484_6.jpg","https://xcimg.szwego.com/20230529/i1685340742_6212_7.jpg","https://xcimg.szwego.com/20230529/i1685340742_9589_8.jpg"],"created_at":"2024-05-01T03:19:54.375Z"},{"id":"item-a33aa09685c2","sku":"_delelsTulZEt13zTztXQzSbC6fbZOh5zFRMjpWw","name_en":"Chanel Women Bags","name_cn":"上身图3980","specs":{"source":"wsxcme","sourceId":"_delelsTulZEt13zTztXQzSbC6fbZOh5zFRMjpWw","sourceTagId":47002745,"sourceTagName":"香奈儿/女包","rawTitle":"上身图3980"},"price":null,"currency":"CNY","moq":1,"category":"chanel-women-bags","status":"active","alibaba_url":null,"images":["https://xcimg.szwego.com/20230816/i1692173019_2435_0.jpg","https://xcimg.szwego.com/20230816/i1692173019_7097_1.jpg","https://xcimg.szwego.com/20230816/i1692173019_6487_2.jpg","https://xcimg.szwego.com/20230816/i1692173019_1119_3.jpg","https://xcimg.szwego.com/20230816/i1692173019_1955_4.jpg","https://xcimg.szwego.com/20230816/i1692173019_3698_5.jpg","https://xcimg.szwego.com/20230816/i1692173019_7893_6.jpg","https://xcimg.szwego.com/20230816/i1692173019_2089_7.jpg"],"created_at":"2026-06-29T10:35:34.044Z"},{"id":"item-a2afad9d4463","sku":"_dococ5dLEB5AbknWXLEgRBCPlBmndSm8Dy77GMA","name_en":"Chanel Women Bags","name_cn":"💰 小1000 中1050 \nChanel 24B 22Bag 中号印花垃圾袋出现货啦有️\n\n小号35cm 中号39cm\nAS3260 AS3261","specs":{"source":"wsxcme","sourceId":"_dococ5dLEB5AbknWXLEgRBCPlBmndSm8Dy77GMA","sourceTagId":47002745,"sourceTagName":"香奈儿/女包","rawTitle":"💰 小1000 中1050 \nChanel 24B 22Bag 中号印花垃圾袋出现货啦有️\n\n小号35cm 中号39cm\nAS3260 AS3261"},"price":null,"currency":"CNY","moq":1,"category":"chanel-women-bags","status":"active","alibaba_url":null,"images":["https://xcimg.szwego.com/img/b885826e/20250110/i1736479071548_2717_0_0.jpg","https://xcimg.szwego.com/img/b885826e/20250110/i1736479071301_9744_0_1.jpg","https://xcimg.szwego.com/img/b885826e/20250110/i1736479069504_9060_0_2.jpg","https://xcimg.szwego.com/img/b885826e/20250110/i1736479070779_3108_0_3.jpg","https://xcimg.szwego.com/img/b885826e/20250110/i1736479069777_5503_0_4.jpg","https://xcimg.szwego.com/img/b885826e/20250110/i1736479070008_371_0_8.jpg","https://xcimg.szwego.com/img/b885826e/20250110/i1736479070238_3615_0_6.jpg","https://xcimg.szwego.com/img/b885826e/20250110/i1736479071030_6382_0_7.jpg","https://xcimg.szwego.com/img/b885826e/20250110/i1736479070488_1819_0_5.jpg"],"created_at":"2025-01-20T12:26:10.930Z"},{"id":"item-a28b434b4a2f","sku":"_dkbkb6bVdx_VHqKjDSVxIdxMg4T2Ox6-GgrKidQ","name_en":"Chanel Women Bags","name_cn":"香奈儿/女包","specs":{"source":"wsxcme","sourceId":"_dkbkb6bVdx_VHqKjDSVxIdxMg4T2Ox6-GgrKidQ","sourceTagId":47002745,"sourceTagName":"香奈儿/女包","rawTitle":""},"price":null,"currency":"CNY","moq":1,"category":"chanel-women-bags","status":"active","alibaba_url":null,"images":["https://xcimg.szwego.com/img/d0c94e6f/20250911/i1757599126_1707_0.jpg"],"created_at":"2025-09-19T04:32:40.138Z"},{"id":"item-9e8f7f6e71e5","sku":"_daZaZXC0B_eKcet7oLRQ4S70KNYddhttacgc2jQ","name_en":"Chanel Women Bags","name_cn":"新品到货❤️口红化妆包\n高颜值的化妆包来了。扭扭手柄 精致无比。让整个包充满了贵气感。\n内容量非常大,内带化妆镜子。简直就是爱美女生的福音呀!\n必入单品❤️\n尺寸:9.5×17×7.8cm\n款号:6622","specs":{"source":"wsxcme","sourceId":"_daZaZXC0B_eKcet7oLRQ4S70KNYddhttacgc2jQ","sourceTagId":47002745,"sourceTagName":"香奈儿/女包","modelNumber":"6622","dimensions":{"lengthCm":9.5,"heightCm":17,"widthCm":7.8},"rawTitle":"新品到货❤️口红化妆包\n高颜值的化妆包来了。扭扭手柄 精致无比。让整个包充满了贵气感。\n内容量非常大,内带化妆镜子。简直就是爱美女生的福音呀!\n必入单品❤️\n尺寸:9.5×17×7.8cm\n款号:6622"},"price":null,"currency":"CNY","moq":1,"category":"chanel-women-bags","status":"active","alibaba_url":null,"images":["https://xcimg.szwego.com/img/c4600ee2/20240602/i1717286262_7673_3.jpg","https://xcimg.szwego.com/img/c4600ee2/20240602/i1717286262_4020_4.jpg","https://xcimg.szwego.com/img/c4600ee2/20240602/i1717286262_8304_6.jpg","https://xcimg.szwego.com/img/c4600ee2/20240602/i1717286262_2218_5.jpg","https://xcimg.szwego.com/img/c4600ee2/20240602/i1717286262_7131_1.jpg","https://xcimg.szwego.com/img/c4600ee2/20240602/i1717286262_3334_8.jpg","https://xcimg.szwego.com/img/c4600ee2/20240602/i1717286262_9730_7.jpg","https://xcimg.szwego.com/img/c4600ee2/20240602/i1717286262_6985_2.jpg","https://xcimg.szwego.com/img/c4600ee2/20240602/i1717286262_4584_0.jpg"],"created_at":"2024-08-04T12:55:15.633Z"},{"id":"item-9e5770e7a34d","sku":"_dp8p8UiHAm2155QMf00hamv-81iVYcuxUUtyRhg","name_en":"Chanel Women Bags","name_cn":"上身效果2057","specs":{"source":"wsxcme","sourceId":"_dp8p8UiHAm2155QMf00hamv-81iVYcuxUUtyRhg","sourceTagId":47002745,"sourceTagName":"香奈儿/女包","rawTitle":"上身效果2057"},"price":null,"currency":"CNY","moq":1,"category":"chanel-women-bags","status":"active","alibaba_url":null,"images":["https://xcimg.szwego.com/20201106/i1604592545_888_0.jpg","https://xcimg.szwego.com/20201106/i1604592545_2164_1.jpg","https://xcimg.szwego.com/20201106/i1604592545_6384_2.jpg"],"created_at":"2025-06-16T09:53:32.240Z"},{"id":"item-9e14419faf16","sku":"_daGaGRt2_2CYa6idGDDqcjpDsGGAs9sgxdnUAww","name_en":"Chanel Women Bags","name_cn":"白金版▪️正品级 包装如图\n全新发售🆕Chane1 25B新品\n双C链条调节扣woc亮银色🖤\n专柜售�00rmb购入开发~\n\n每一季度都有惊喜的ꫛꫀꪝ\n被这个小心机链条美到了✨\n优雅高级符合气质穿搭很绝配❕\n后知后觉更是让人心动不已啦💕\n\n五金:   全钢复古亮银\n皮料:原厂小球纹牛皮\n尺寸:11.5*19*4cm\n3938","specs":{"source":"wsxcme","sourceId":"_daGaGRt2_2CYa6idGDDqcjpDsGGAs9sgxdnUAww","sourceTagId":47002745,"sourceTagName":"香奈儿/女包","dimensions":{"lengthCm":11.5,"heightCm":19,"widthCm":4},"rawTitle":"白金版▪️正品级 包装如图\n全新发售🆕Chane1 25B新品\n双C链条调节扣woc亮银色🖤\n专柜售�00rmb购入开发~\n\n每一季度都有惊喜的ꫛꫀꪝ\n被这个小心机链条美到了✨\n优雅高级符合气质穿搭很绝配❕\n后知后觉更是让人心动不已啦💕\n\n五金:   全钢复古亮银\n皮料:原厂小球纹牛皮\n尺寸:11.5*19*4cm\n3938"},"price":null,"currency":"CNY","moq":1,"category":"chanel-women-bags","status":"active","alibaba_url":null,"images":["https://xcimg.szwego.com/imgHD/9d8f4332/20250909/cmp_i1757402225593_6618_0_0.jpg","https://xcimg.szwego.com/imgHD/9d8f4332/20250909/cmp_i1757402225593_5298_0_1.jpg","https://xcimg.szwego.com/imgHD/9d8f4332/20250909/cmp_i1757402227650_6196_0_2.jpg","https://xcimg.szwego.com/imgHD/9d8f4332/20250909/cmp_i1757402225588_4222_0_3.jpg","https://xcimg.szwego.com/imgHD/9d8f4332/20250909/cmp_i1757402225587_1997_0_4.jpg","https://xcimg.szwego.com/imgHD/9d8f4332/20250909/cmp_i1757402227650_9199_0_5.jpg","https://xcimg.szwego.com/imgHD/9d8f4332/20250909/cmp_i1757402227642_8063_0_6.jpg","https://xcimg.szwego.com/imgHD/9d8f4332/20250909/cmp_i1757402225587_4793_0_7.jpg","https://xcimg.szwego.com/imgHD/9d8f4332/20250909/cmp_i1757402227652_6062_0_8.jpg"],"created_at":"2025-09-19T04:32:40.124Z"},{"id":"item-9e07ba77291d","sku":"_d-E-EIivUraTaNEfqOx_kNcqfZpD_cWIiJD1-yQ","name_en":"Chanel Women Bags","name_cn":"香奈儿/女包","specs":{"source":"wsxcme","sourceId":"_d-E-EIivUraTaNEfqOx_kNcqfZpD_cWIiJD1-yQ","sourceTagId":47002745,"sourceTagName":"香奈儿/女包","rawTitle":""},"price":null,"currency":"CNY","moq":1,"category":"chanel-women-bags","status":"active","alibaba_url":null,"images":["https://xcimg.szwego.com/img/d0c94e6f/20250911/i1757599167_6795_0.jpg"],"created_at":"2025-09-19T04:32:40.136Z"},{"id":"item-9cfb7118aed4","sku":"_drSrS_leVbTDL7uZzefCBvDNS03ureoxA7zbYwg","name_en":"Chanel Women Bags","name_cn":"正品级\n 🇫🇷AS5293CHANEL 25款又一个以年份命名的款, 25c球纹皮嘻哈包 香奈儿hobo 腋下包 嬉皮腋下包小号 复古金币纽扣抽绳水桶包+菱格纹+复古黑金 经典链条设计,高级感十足!日常出行必备,外观精美,质感细腻,无论休闲装还是正式场合都能轻松驾驭 尺寸:30x26x14cm","specs":{"source":"wsxcme","sourceId":"_drSrS_leVbTDL7uZzefCBvDNS03ureoxA7zbYwg","sourceTagId":47002745,"sourceTagName":"香奈儿/女包","dimensions":{"lengthCm":30,"heightCm":26,"widthCm":14},"rawTitle":"正品级\n 🇫🇷AS5293CHANEL 25款又一个以年份命名的款, 25c球纹皮嘻哈包 香奈儿hobo 腋下包 嬉皮腋下包小号 复古金币纽扣抽绳水桶包+菱格纹+复古黑金 经典链条设计,高级感十足!日常出行必备,外观精美,质感细腻,无论休闲装还是正式场合都能轻松驾驭 尺寸:30x26x14cm"},"price":null,"currency":"CNY","moq":1,"category":"chanel-women-bags","status":"active","alibaba_url":null,"images":["https://xcimg.szwego.com/imgHD/b5cc9469/20250402/cmp_a1743591622222_8220.jpg","https://xcimg.szwego.com/imgHD/b5cc9469/20250402/cmp_a1743591622240_1512.jpg","https://xcimg.szwego.com/imgHD/b5cc9469/20250402/cmp_a1743591622221_6244.jpg","https://xcimg.szwego.com/imgHD/b5cc9469/20250402/cmp_a1743591622239_6230.jpg","https://xcimg.szwego.com/imgHD/b5cc9469/20250402/cmp_a1743591622220_4674.jpg","https://xcimg.szwego.com/imgHD/b5cc9469/20250402/cmp_a1743591623927_3734.jpg","https://xcimg.szwego.com/imgHD/b5cc9469/20250402/cmp_a1743591623930_6256.jpg","https://xcimg.szwego.com/imgHD/b5cc9469/20250402/cmp_a1743591623932_8705.jpg","https://xcimg.szwego.com/imgHD/b5cc9469/20250402/cmp_a1743591623932_5415.jpg"],"created_at":"2025-09-09T05:17:44.450Z"},{"id":"item-9ce1161de37a","sku":"_dfhfh5epSLdOUkhLOSBCvvu-RgmpVfTXAVpkXwA","name_en":"Chanel Women Bags","name_cn":"💰小1180  大1250 \nChanel 24A 保龄球包  \n\n\nSize:21*33*14.5cm  28*44*15.5cm\n型号:AS4905 AS4812","specs":{"source":"wsxcme","sourceId":"_dfhfh5epSLdOUkhLOSBCvvu-RgmpVfTXAVpkXwA","sourceTagId":47002745,"sourceTagName":"香奈儿/女包","modelNumber":"AS4905 AS4812","rawTitle":"💰小1180  大1250 \nChanel 24A 保龄球包  \n\n\nSize:21*33*14.5cm  28*44*15.5cm\n型号:AS4905 AS4812"},"price":null,"currency":"CNY","moq":1,"category":"chanel-women-bags","status":"active","alibaba_url":null,"images":["https://xcimg.szwego.com/img/b885826e/20241005/i1728136899_8177_8.jpg","https://xcimg.szwego.com/img/b885826e/20241005/i1728136899_7012_4.jpg","https://xcimg.szwego.com/img/b885826e/20241005/i1728136899_9073_5.jpg","https://xcimg.szwego.com/img/b885826e/20241005/i1728136899_8955_7.jpg","https://xcimg.szwego.com/img/b885826e/20241005/i1728136899_7304_0.jpg","https://xcimg.szwego.com/img/b885826e/20241005/i1728136899_6759_1.jpg","https://xcimg.szwego.com/img/b885826e/20241005/i1728136899_7870_6.jpg","https://xcimg.szwego.com/img/b885826e/20241005/i1728136899_9964_2.jpg","https://xcimg.szwego.com/img/b885826e/20241005/i1728136899_42_3.jpg"],"created_at":"2024-11-26T11:47:21.488Z"},{"id":"item-9a1d0b0b7e17","sku":"_dpgpgtgtZUan3ZmuuUXFlQJDsUhyf_7jTWXZ5nQ","name_en":"Chanel Women Bags","name_cn":"正品级,高版本\n这款微型Toujours竖版手袋是二零二五秋季成衣系列新品,时尚实用。采用粉色牛皮革精心制作,饰以超大藤格纹缉面线,宽敞的内部隔层可收纳各种日常用品。设有纤细皮革系带开合,可安全收纳各种物品,另有浅金色饰面金属CD Lock字母 D旋钮式扣环,可调节两侧,提升格调。顶部皮革手柄搭配可拆卸的皮革肩带,可手提、肩背或斜挎。\n\n型号2834\n尺寸13×15×12cm","specs":{"source":"wsxcme","sourceId":"_dpgpgtgtZUan3ZmuuUXFlQJDsUhyf_7jTWXZ5nQ","sourceTagId":47002745,"sourceTagName":"香奈儿/女包","modelNumber":"2834","dimensions":{"lengthCm":13,"heightCm":15,"widthCm":12},"rawTitle":"正品级,高版本\n这款微型Toujours竖版手袋是二零二五秋季成衣系列新品,时尚实用。采用粉色牛皮革精心制作,饰以超大藤格纹缉面线,宽敞的内部隔层可收纳各种日常用品。设有纤细皮革系带开合,可安全收纳各种物品,另有浅金色饰面金属CD Lock字母 D旋钮式扣环,可调节两侧,提升格调。顶部皮革手柄搭配可拆卸的皮革肩带,可手提、肩背或斜挎。\n\n型号2834\n尺寸13×15×12cm"},"price":null,"currency":"CNY","moq":1,"category":"chanel-women-bags","status":"active","alibaba_url":null,"images":["https://xcimg.szwego.com/img/ec683d96/20250424/i1745429126_5311_1.jpg","https://xcimg.szwego.com/img/ec683d96/20250424/i1745429126_2356_2.jpg","https://xcimg.szwego.com/img/ec683d96/20250424/i1745429127_4495_8.jpg","https://xcimg.szwego.com/img/ec683d96/20250424/i1745429127_7357_3.jpg","https://xcimg.szwego.com/img/ec683d96/20250424/i1745429127_2100_4.jpg","https://xcimg.szwego.com/img/ec683d96/20250424/i1745429127_8406_5.jpg","https://xcimg.szwego.com/img/ec683d96/20250424/i1745429127_650_6.jpg","https://xcimg.szwego.com/img/ec683d96/20250424/i1745429127_2921_7.jpg","https://xcimg.szwego.com/img/ec683d96/20250424/i1745429126_4375_0.jpg"],"created_at":"2025-09-09T05:24:53.931Z"},{"id":"item-963c0e712876","sku":"_dwzwzqfyppVcRIg-xcptQPKdhs6rwA1GSFqlrsg","name_en":"Chanel Women Bags","name_cn":"白金版▪️正品级 包装如图\nChane1 23S春夏系列\n火爆珍珠链条Mini 22Bag♥黑色\n独家意大利渠道皮,真品原材料❕\n专柜售价40600rmb(目前市场溢价极高)\n\n今年23s秀场主角珍珠mini22bag黑金,Jennie同款,没有理由不入手!\n珍珠 菱格 黑裂 砂金,这几个元素加在一起,简直太爱了!\n这款包还没等上市就已经火爆全网。\n出彩的设计直接封神!\n\n容量很美好,优雅时髦的造型超乎想象🖤\n\n五金:全铜24K复古金/人造珍珠链\n皮料:开料部zp褶皱亮面小牛皮\n尺寸:19*20*6 cm","specs":{"source":"wsxcme","sourceId":"_dwzwzqfyppVcRIg-xcptQPKdhs6rwA1GSFqlrsg","sourceTagId":47002745,"sourceTagName":"香奈儿/女包","dimensions":{"lengthCm":19,"heightCm":20,"widthCm":6},"rawTitle":"白金版▪️正品级 包装如图\nChane1 23S春夏系列\n火爆珍珠链条Mini 22Bag♥黑色\n独家意大利渠道皮,真品原材料❕\n专柜售价40600rmb(目前市场溢价极高)\n\n今年23s秀场主角珍珠mini22bag黑金,Jennie同款,没有理由不入手!\n珍珠 菱格 黑裂 砂金,这几个元素加在一起,简直太爱了!\n这款包还没等上市就已经火爆全网。\n出彩的设计直接封神!\n\n容量很美好,优雅时髦的造型超乎想象🖤\n\n五金:全铜24K复古金/人造珍珠链\n皮料:开料部zp褶皱亮面小牛皮\n尺寸:19*20*6 cm"},"price":null,"currency":"CNY","moq":1,"category":"chanel-women-bags","status":"active","alibaba_url":null,"images":["https://xcimg.szwego.com/20230407/i1680847036_9102_0.jpg","https://xcimg.szwego.com/20230407/i1680847036_5887_1.jpg","https://xcimg.szwego.com/20230407/i1680847036_4559_2.jpg","https://xcimg.szwego.com/20230407/i1680847036_3880_3.jpg","https://xcimg.szwego.com/20230407/i1680847036_3542_4.jpg","https://xcimg.szwego.com/20230407/i1680847036_5115_5.jpg","https://xcimg.szwego.com/20230407/i1680847036_713_6.jpg","https://xcimg.szwego.com/20230407/i1680847036_4766_7.jpg","https://xcimg.szwego.com/20230407/i1680847061_6353_0.jpg"],"created_at":"2024-05-01T03:19:54.365Z"},{"id":"item-95c9fef078cc","sku":"_dnwnwCV-bGoaJgHmnpgZPethxLbtIXTzA_rEE0w","name_en":"Chanel Women Bags","name_cn":"3260 小号上身图实拍","specs":{"source":"wsxcme","sourceId":"_dnwnwCV-bGoaJgHmnpgZPethxLbtIXTzA_rEE0w","sourceTagId":47002745,"sourceTagName":"香奈儿/女包","rawTitle":"3260 小号上身图实拍"},"price":null,"currency":"CNY","moq":1,"category":"chanel-women-bags","status":"active","alibaba_url":null,"images":["https://xcimg.szwego.com/img/4072b1f8/20240913/i1726183740_6008_3.jpg","https://xcimg.szwego.com/img/4072b1f8/20240913/i1726183739_5441_0.jpg","https://xcimg.szwego.com/img/4072b1f8/20240913/i1726183740_6110_5.jpg","https://xcimg.szwego.com/img/4072b1f8/20240913/i1726183739_9748_1.jpg","https://xcimg.szwego.com/img/4072b1f8/20240913/i1726183739_5184_2.jpg","https://xcimg.szwego.com/img/4072b1f8/20240913/i1726183740_7261_4.jpg"],"created_at":"2024-09-24T07:45:17.266Z"},{"id":"item-936be85f5e87","sku":"_d8i8iO1vvhoxK1SpwLsKrtBvJaHO0KpvslogMOA","name_en":"Chanel Women Bags","name_cn":"。白金版▪️正品级 包装如图\n全新到货!!️Chane1 24S手工坊\n迷你31Bag购物袋 苹果绿\n专柜售价36700rmb购入开发\nChane1“包王”全新设计31Bag迷你Size\n时尚代表作31Bag经典再现了〰️\n满足了时髦精的在所期待啦...\n这季推出新Size设计感更乖巧又迷人💡\n软萌的时髦感一下子就击中了🖤\n\n五金:厚镀14K淡金\n皮料:   原厂Bonaudo亮面小羊皮\n尺寸:22*24.5*5.5 cm","specs":{"source":"wsxcme","sourceId":"_d8i8iO1vvhoxK1SpwLsKrtBvJaHO0KpvslogMOA","sourceTagId":47002745,"sourceTagName":"香奈儿/女包","dimensions":{"lengthCm":22,"heightCm":24.5,"widthCm":5.5},"rawTitle":"。白金版▪️正品级 包装如图\n全新到货!!️Chane1 24S手工坊\n迷你31Bag购物袋 苹果绿\n专柜售价36700rmb购入开发\nChane1“包王”全新设计31Bag迷你Size\n时尚代表作31Bag经典再现了〰️\n满足了时髦精的在所期待啦...\n这季推出新Size设计感更乖巧又迷人💡\n软萌的时髦感一下子就击中了🖤\n\n五金:厚镀14K淡金\n皮料:   原厂Bonaudo亮面小羊皮\n尺寸:22*24.5*5.5 cm"},"price":null,"currency":"CNY","moq":1,"category":"chanel-women-bags","status":"active","alibaba_url":null,"images":["https://xcimg.szwego.com/20240430/i1714462108_6703_0.jpg","https://xcimg.szwego.com/20240430/i1714462108_4999_1.jpg","https://xcimg.szwego.com/20240430/i1714462108_9415_2.jpg","https://xcimg.szwego.com/20240430/i1714462108_4407_3.jpg","https://xcimg.szwego.com/20240430/i1714462108_6921_4.jpg","https://xcimg.szwego.com/20240430/i1714462108_4760_5.jpg","https://xcimg.szwego.com/20240430/i1714462108_4500_6.jpg","https://xcimg.szwego.com/20240430/i1714462108_9587_7.jpg","https://xcimg.szwego.com/20240430/i1714462108_9604_8.jpg"],"created_at":"2024-05-03T07:19:26.872Z"},{"id":"item-8fb211b13cff","sku":"_duquq9eCpT9ILh4EIBjQRyX-xK49PdfUjnlnxzw","name_en":"Chanel Women Bags","name_cn":"原厂皮\n小香进口意大利小羊皮【升級版】\n货号:A\n尺寸:w20×h13×d3.5cm\n颜色:淺藍細球紋金色鋼唛","specs":{"source":"wsxcme","sourceId":"_duquq9eCpT9ILh4EIBjQRyX-xK49PdfUjnlnxzw","sourceTagId":47002745,"sourceTagName":"香奈儿/女包","modelNumber":"A","rawTitle":"原厂皮\n小香进口意大利小羊皮【升級版】\n货号:A\n尺寸:w20×h13×d3.5cm\n颜色:淺藍細球紋金色鋼唛"},"price":null,"currency":"CNY","moq":1,"category":"chanel-women-bags","status":"active","alibaba_url":null,"images":["https://xcimg.szwego.com/img/c4e87dad/20250516/i1747400262123_791_0_0.jpg","https://xcimg.szwego.com/img/c4e87dad/20250516/i1747400264811_362_0_1.jpg","https://xcimg.szwego.com/img/c4e87dad/20250516/i1747400262209_9389_0_2.jpg","https://xcimg.szwego.com/img/c4e87dad/20250516/i1747400262105_655_0_3.jpg","https://xcimg.szwego.com/img/c4e87dad/20250516/i1747400264801_6109_0_4.jpg","https://xcimg.szwego.com/img/c4e87dad/20250516/i1747400262160_6460_0_6.jpg","https://xcimg.szwego.com/img/c4e87dad/20250516/i1747400264821_1912_0_7.jpg"],"created_at":"2025-09-09T05:22:54.852Z"},{"id":"item-8f14c9074910","sku":"_duEuEmJr_-s6V6RfvSLSgp-dkbJsVj6v2RgQ1tw","name_en":"Chanel Women Bags","name_cn":"。白金版▪️正品级 包装如图\n全新到货🆕Chane1 24s春夏\n双珍珠方胖子 淡紫色\n专柜售价47200rmb购入开发\n\n✨24s最闪耀的双珍珠口盖包\n链条两大汤圆是好运的降临呀💕\n滑链伸缩调节适合各种身高更方便了\n日常出街时髦感拉满,好美好气质啊\n\n五金:厚镀24k复古金\n皮料:   开料部真品小羊皮\n里皮:Montebello真品牛皮\n尺寸:11.5*17*5 cm","specs":{"source":"wsxcme","sourceId":"_duEuEmJr_-s6V6RfvSLSgp-dkbJsVj6v2RgQ1tw","sourceTagId":47002745,"sourceTagName":"香奈儿/女包","dimensions":{"lengthCm":11.5,"heightCm":17,"widthCm":5},"rawTitle":"。白金版▪️正品级 包装如图\n全新到货🆕Chane1 24s春夏\n双珍珠方胖子 淡紫色\n专柜售价47200rmb购入开发\n\n✨24s最闪耀的双珍珠口盖包\n链条两大汤圆是好运的降临呀💕\n滑链伸缩调节适合各种身高更方便了\n日常出街时髦感拉满,好美好气质啊\n\n五金:厚镀24k复古金\n皮料:   开料部真品小羊皮\n里皮:Montebello真品牛皮\n尺寸:11.5*17*5 cm"},"price":null,"currency":"CNY","moq":1,"category":"chanel-women-bags","status":"active","alibaba_url":null,"images":["https://xcimg.szwego.com/20240430/i1714461177_7576_0.jpg","https://xcimg.szwego.com/20240430/i1714461177_5043_1.jpg","https://xcimg.szwego.com/20240430/i1714461177_5378_2.jpg","https://xcimg.szwego.com/20240430/i1714461177_674_3.jpg","https://xcimg.szwego.com/20240430/i1714461177_7613_4.jpg","https://xcimg.szwego.com/20240430/i1714461177_6973_5.jpg","https://xcimg.szwego.com/20240430/i1714461177_204_6.jpg","https://xcimg.szwego.com/20240430/i1714461177_5168_7.jpg","https://xcimg.szwego.com/20240430/i1714461177_6818_8.jpg"],"created_at":"2024-05-03T07:19:26.868Z"},{"id":"item-8dc95ceadb95","sku":"_d9V9Vqt_lLtZSRq99HF9y1f8GalYUk177XKG7Iw","name_en":"Chanel Women Bags","name_cn":"白金版▪️正品级 包装如图\nChane1 23P春夏系列🍀\n双口袋复古背包 黑色♥ 小号\n专柜售价40600rmb购入开发〰️\n\n一向都是重头戏的复古双肩包ꫛꫀꪝ\n23P这款让人翘首以待的荔枝纹小牛~\n颜值担当属于耐看型,复古程度更是一见倾心♥\n双口袋小书包荔枝牛皮 向来都是最受欢迎的材质。\n易打理更耐造,日常通勤收纳轻松装扮✔️\n\n五金:全钢14K淡金扣\n皮料:Haas中球小牛皮\n尺寸:17.5*16.5*10 CM","specs":{"source":"wsxcme","sourceId":"_d9V9Vqt_lLtZSRq99HF9y1f8GalYUk177XKG7Iw","sourceTagId":47002745,"sourceTagName":"香奈儿/女包","dimensions":{"lengthCm":17.5,"heightCm":16.5,"widthCm":10},"rawTitle":"白金版▪️正品级 包装如图\nChane1 23P春夏系列🍀\n双口袋复古背包 黑色♥ 小号\n专柜售价40600rmb购入开发〰️\n\n一向都是重头戏的复古双肩包ꫛꫀꪝ\n23P这款让人翘首以待的荔枝纹小牛~\n颜值担当属于耐看型,复古程度更是一见倾心♥\n双口袋小书包荔枝牛皮 向来都是最受欢迎的材质。\n易打理更耐造,日常通勤收纳轻松装扮✔️\n\n五金:全钢14K淡金扣\n皮料:Haas中球小牛皮\n尺寸:17.5*16.5*10 CM"},"price":null,"currency":"CNY","moq":1,"category":"chanel-women-bags","status":"active","alibaba_url":null,"images":["https://xcimg.szwego.com/20230319/i1679202770_4271_0.jpg","https://xcimg.szwego.com/20230319/i1679202770_5223_1.jpg","https://xcimg.szwego.com/20230319/i1679202770_4319_2.jpg","https://xcimg.szwego.com/20230319/i1679202770_4469_3.jpg","https://xcimg.szwego.com/20230319/i1679202770_1981_4.jpg","https://xcimg.szwego.com/20230319/i1679202770_6523_5.jpg","https://xcimg.szwego.com/20230319/i1679202770_834_6.jpg","https://xcimg.szwego.com/20230319/i1679202770_7895_7.jpg","https://xcimg.szwego.com/20230319/i1679202770_8010_8.jpg"],"created_at":"2025-06-16T09:47:58.338Z"},{"id":"item-8d4ce63813b0","sku":"_dHrHrsdX-3Ru1eu0C7HKMzT3YGzUK5-WwZT_hsw","name_en":"Chanel Women Bags","name_cn":"香奈儿/女包","specs":{"source":"wsxcme","sourceId":"_dHrHrsdX-3Ru1eu0C7HKMzT3YGzUK5-WwZT_hsw","sourceTagId":47002745,"sourceTagName":"香奈儿/女包","rawTitle":""},"price":null,"currency":"CNY","moq":1,"category":"chanel-women-bags","status":"active","alibaba_url":null,"images":["https://xcimg.szwego.com/img/fbe1a617/20250515/i1747305106545_458_0_0.jpg"],"created_at":"2026-06-29T10:35:34.094Z"},{"id":"item-8d44f39ceb42","sku":"_doSoSlAobT3t_OYLoaUtwta7CZB9viHWSTiKxjA","name_en":"Chanel Women Bags","name_cn":"白金版▪️正品级 包装如图\n全新发售🆕chanel 25s 全新版本\n天猫精灵 hobo流浪包 小号黑色 \n专柜售rmb购入开发〰️\n\n25s hobo新款流浪包ꫛꫀꪝ\n全新版本,链条可以调节\n油蜡皮的材质、非常可观的容量☑️\n很受大家欢迎〰️\n直接绝美到词穷!\n单凭这个包的颜值,每个颜色都可以随便闭眼入!!\nVintage十足,浓浓的复古风!很对味☑️\n本季大爆款,姐妹们冲就对了!!\n\n五金:全钢24k复古金\n皮料:亮面油蜡小牛皮\n尺寸: 19*17*16 cm\n4323","specs":{"source":"wsxcme","sourceId":"_doSoSlAobT3t_OYLoaUtwta7CZB9viHWSTiKxjA","sourceTagId":47002745,"sourceTagName":"香奈儿/女包","dimensions":{"lengthCm":19,"heightCm":17,"widthCm":16},"rawTitle":"白金版▪️正品级 包装如图\n全新发售🆕chanel 25s 全新版本\n天猫精灵 hobo流浪包 小号黑色 \n专柜售rmb购入开发〰️\n\n25s hobo新款流浪包ꫛꫀꪝ\n全新版本,链条可以调节\n油蜡皮的材质、非常可观的容量☑️\n很受大家欢迎〰️\n直接绝美到词穷!\n单凭这个包的颜值,每个颜色都可以随便闭眼入!!\nVintage十足,浓浓的复古风!很对味☑️\n本季大爆款,姐妹们冲就对了!!\n\n五金:全钢24k复古金\n皮料:亮面油蜡小牛皮\n尺寸: 19*17*16 cm\n4323"},"price":null,"currency":"CNY","moq":1,"category":"chanel-women-bags","status":"active","alibaba_url":null,"images":["https://xcimg.szwego.com/imgHD/9d8f4332/20250609/cmp_i1749448678262_8246_0_0.jpg","https://xcimg.szwego.com/imgHD/9d8f4332/20250609/cmp_i1749448679306_5294_0_1.jpg","https://xcimg.szwego.com/imgHD/9d8f4332/20250609/cmp_i1749448679298_6953_0_2.jpg","https://xcimg.szwego.com/imgHD/9d8f4332/20250609/cmp_i1749448679299_8958_0_3.jpg","https://xcimg.szwego.com/imgHD/9d8f4332/20250609/cmp_i1749448678259_7726_0_4.jpg","https://xcimg.szwego.com/imgHD/9d8f4332/20250609/cmp_i1749448678257_508_0_5.jpg","https://xcimg.szwego.com/imgHD/9d8f4332/20250609/cmp_i1749448678259_490_0_6.jpg","https://xcimg.szwego.com/imgHD/9d8f4332/20250609/cmp_i1749448678257_9482_0_7.jpg","https://xcimg.szwego.com/imgHD/9d8f4332/20250609/cmp_i1749448679303_6536_0_8.jpg"],"created_at":"2025-06-16T09:53:32.245Z"},{"id":"item-8c267c1989f3","sku":"_dzHzHPd1Pp5zMT5ZGz5gTH1KLOYJ4IFSBx_CqXg","name_en":"Chanel Women Bags","name_cn":"白金版▪️正品级 包装如图\n全新发售!!️CF系列\n专柜售价58600mb购入开发➠\n\nClassic Flap Small小号 白色\n每年行情都在涨📈\n专柜可遇不可求 一直很难买到\n羊皮质感柔柔糯糯很nice〰️\n这次到达的都是开料部渠道zp皮\n伙伴们大可️闭眼入啦🪄\n好品质值得珍藏,一包背到老都不过时➿\n\n皮料:独家Gaiera zp小羊皮\n里皮:开料部zp内里羊皮\n辅料:意大利进口海绵、托料\n五金:全钢白叻银扣\n尺寸:14.5*23*6cm","specs":{"source":"wsxcme","sourceId":"_dzHzHPd1Pp5zMT5ZGz5gTH1KLOYJ4IFSBx_CqXg","sourceTagId":47002745,"sourceTagName":"香奈儿/女包","dimensions":{"lengthCm":14.5,"heightCm":23,"widthCm":6},"rawTitle":"白金版▪️正品级 包装如图\n全新发售!!️CF系列\n专柜售价58600mb购入开发➠\n\nClassic Flap Small小号 白色\n每年行情都在涨📈\n专柜可遇不可求 一直很难买到\n羊皮质感柔柔糯糯很nice〰️\n这次到达的都是开料部渠道zp皮\n伙伴们大可️闭眼入啦🪄\n好品质值得珍藏,一包背到老都不过时➿\n\n皮料:独家Gaiera zp小羊皮\n里皮:开料部zp内里羊皮\n辅料:意大利进口海绵、托料\n五金:全钢白叻银扣\n尺寸:14.5*23*6cm"},"price":null,"currency":"CNY","moq":1,"category":"chanel-women-bags","status":"active","alibaba_url":null,"images":["https://xcimg.szwego.com/20230412/i1681276428_7221_0.jpg","https://xcimg.szwego.com/20230412/i1681276428_6119_1.jpg","https://xcimg.szwego.com/20230412/i1681276428_4267_2.jpg","https://xcimg.szwego.com/20230412/i1681276428_3907_3.jpg","https://xcimg.szwego.com/20230412/i1681276428_9571_4.jpg","https://xcimg.szwego.com/20230412/i1681276428_4052_5.jpg","https://xcimg.szwego.com/20230412/i1681276428_7231_6.jpg","https://xcimg.szwego.com/20230412/i1681276428_6294_7.jpg","https://xcimg.szwego.com/20230412/i1681276428_7864_8.jpg"],"created_at":"2024-05-01T03:19:54.370Z"},{"id":"item-896735ebe762","sku":"_dnxnxAUqj6rOLOI57AlVQXdmhxxy34QJEJifMzQ","name_en":"Chanel Women Bags","name_cn":"白金版▪️正品级 包装如图\nChane1 25B新品现货 双C扣口盖包\n双C调节扣 mini 粉色\n专柜售价45800rmb购入开发〰️\n\n最新推出#双C链条口盖包mini💙\n具备CF元素造型有着性感迷人的气质\n链条双C调节扣设计很精致很复古~\n绝对是重量级必入收藏款️啦✔️\n\n五金:厚镀24K复古亮金\n皮料:   抛光小羊皮\n尺寸:13*18*7 cm\n5758","specs":{"source":"wsxcme","sourceId":"_dnxnxAUqj6rOLOI57AlVQXdmhxxy34QJEJifMzQ","sourceTagId":47002745,"sourceTagName":"香奈儿/女包","dimensions":{"lengthCm":13,"heightCm":18,"widthCm":7},"rawTitle":"白金版▪️正品级 包装如图\nChane1 25B新品现货 双C扣口盖包\n双C调节扣 mini 粉色\n专柜售价45800rmb购入开发〰️\n\n最新推出#双C链条口盖包mini💙\n具备CF元素造型有着性感迷人的气质\n链条双C调节扣设计很精致很复古~\n绝对是重量级必入收藏款️啦✔️\n\n五金:厚镀24K复古亮金\n皮料:   抛光小羊皮\n尺寸:13*18*7 cm\n5758"},"price":null,"currency":"CNY","moq":1,"category":"chanel-women-bags","status":"active","alibaba_url":null,"images":["https://xcimg.szwego.com/imgHD/9d8f4332/20250824/cmp_i1756014998404_3420_0_0.jpg","https://xcimg.szwego.com/imgHD/9d8f4332/20250824/cmp_i1756014999664_4145_0_1.jpg","https://xcimg.szwego.com/imgHD/9d8f4332/20250824/cmp_i1756014998402_108_0_2.jpg","https://xcimg.szwego.com/imgHD/9d8f4332/20250824/cmp_i1756014999660_4619_0_3.jpg","https://xcimg.szwego.com/imgHD/9d8f4332/20250824/cmp_i1756014796299_7828_0_4.jpg","https://xcimg.szwego.com/imgHD/9d8f4332/20250824/cmp_i1756014796298_1003_0_5.jpg","https://xcimg.szwego.com/imgHD/9d8f4332/20250824/cmp_i1756014798071_3752_0_6.jpg","https://xcimg.szwego.com/imgHD/9d8f4332/20250824/cmp_i1756014999661_8644_0_7.jpg","https://xcimg.szwego.com/imgHD/9d8f4332/20250824/cmp_i1756014798071_4600_0_8.jpg"],"created_at":"2025-09-19T04:32:40.068Z"},{"id":"item-894b277be188","sku":"_dkOkONCPyfg664raS1U-lG2XVCFF4O4vmqwXG4Q","name_en":"Chanel Women Bags","name_cn":"香奈儿/女包","specs":{"source":"wsxcme","sourceId":"_dkOkONCPyfg664raS1U-lG2XVCFF4O4vmqwXG4Q","sourceTagId":47002745,"sourceTagName":"香奈儿/女包","rawTitle":""},"price":null,"currency":"CNY","moq":1,"category":"chanel-women-bags","status":"active","alibaba_url":null,"images":["https://xcimg.szwego.com/img/d0c94e6f/20250811/i1754844177_6290_0.jpg"],"created_at":"2025-09-19T04:32:40.079Z"},{"id":"item-886c8a4703d7","sku":"_dohohE1IVb9zE6ozzuGgmCxwuRZkQyLQTdF875w","name_en":"Chanel Women Bags","name_cn":"香奈儿/女包","specs":{"source":"wsxcme","sourceId":"_dohohE1IVb9zE6ozzuGgmCxwuRZkQyLQTdF875w","sourceTagId":47002745,"sourceTagName":"香奈儿/女包","rawTitle":""},"price":null,"currency":"CNY","moq":1,"category":"chanel-women-bags","status":"active","alibaba_url":null,"images":["https://xcimg.szwego.com/img/d0c94e6f/20250828/i1756387970_5140_0.jpg"],"created_at":"2025-09-19T04:32:40.122Z"}],"page":38,"pageSize":24,"total":1102,"totalPages":46}
