{"items":[{"id":"item-828f7e8c85ef","sku":"_dgegeF1CEmedzFdUpL3zbzDiGcP1yBym2MbhGJw","name_en":"23🥰香奈儿的mini22击中红心了","name_cn":"23🥰香奈儿的mini22击中红心了\n香奈鹅的包包配饰永远都会被种草来自刚结束的2023春夏系列\n尤其是这一季新出的Minisize22 bag\n经典黑色款♌️迷你版 爱了爱了。\n款号AS3980\n尺寸19-20-6cm\n全套包装","specs":{"source":"wsxcme","sourceId":"_dgegeF1CEmedzFdUpL3zbzDiGcP1yBym2MbhGJw","sourceTagId":47002745,"sourceTagName":"香奈儿/女包","modelNumber":"AS3980","rawTitle":"23🥰香奈儿的mini22击中红心了\n香奈鹅的包包配饰永远都会被种草来自刚结束的2023春夏系列\n尤其是这一季新出的Minisize22 bag\n经典黑色款♌️迷你版 爱了爱了。\n款号AS3980\n尺寸19-20-6cm\n全套包装"},"price":null,"currency":"CNY","moq":1,"category":"chanel-women-bags","status":"active","alibaba_url":null,"images":["https://xcimg.szwego.com/20241013/i1728805461_467_0.jpg","https://xcimg.szwego.com/20241013/i1728805461_6791_1.jpg","https://xcimg.szwego.com/20241013/i1728805461_8773_2.jpg","https://xcimg.szwego.com/20241013/i1728805461_6146_3.jpg","https://xcimg.szwego.com/20241013/i1728805461_6130_4.jpg","https://xcimg.szwego.com/20241013/i1728805461_1479_5.jpg","https://xcimg.szwego.com/20241013/i1728805461_5921_6.jpg","https://xcimg.szwego.com/20241013/i1728805461_9123_7.jpg","https://xcimg.szwego.com/20241013/i1728805461_8473_8.jpg"],"created_at":"2025-09-09T05:19:29.861Z"},{"id":"item-5790b5c499bf","sku":"_dlrlrKq584-yKpMt8N9o89AhSWPDkNZVkp0ZEeQ","name_en":"23🥰香奈儿的mini22击中红心了","name_cn":"23🥰香奈儿的mini22击中红心了\n香奈鹅的包包配饰永远都会被种草来自刚结束的2023春夏系列\n尤其是这一季新出的Minisize22 bag\n经典黑色款♌️迷你版 爱了爱了。\n款号AS3980\n尺寸19-20-6cm\n全套包装","specs":{"source":"wsxcme","sourceId":"_dlrlrKq584-yKpMt8N9o89AhSWPDkNZVkp0ZEeQ","sourceTagId":47002745,"sourceTagName":"香奈儿/女包","modelNumber":"AS3980","rawTitle":"23🥰香奈儿的mini22击中红心了\n香奈鹅的包包配饰永远都会被种草来自刚结束的2023春夏系列\n尤其是这一季新出的Minisize22 bag\n经典黑色款♌️迷你版 爱了爱了。\n款号AS3980\n尺寸19-20-6cm\n全套包装"},"price":null,"currency":"CNY","moq":1,"category":"chanel-women-bags","status":"active","alibaba_url":null,"images":["https://xcimg.szwego.com/20230330/i1680182450_3643_0.jpg","https://xcimg.szwego.com/20230330/i1680182450_1579_1.jpg","https://xcimg.szwego.com/20230330/i1680182450_8191_2.jpg","https://xcimg.szwego.com/20230330/i1680182450_598_3.jpg","https://xcimg.szwego.com/20230330/i1680182450_8514_4.jpg","https://xcimg.szwego.com/20230330/i1680182450_7579_5.jpg","https://xcimg.szwego.com/20230330/i1680182450_5863_6.jpg","https://xcimg.szwego.com/20230330/i1680182450_2712_7.jpg","https://xcimg.szwego.com/20230330/i1680182450_253_8.jpg"],"created_at":"2025-09-09T05:19:29.852Z"},{"id":"item-4f9589ed239c","sku":"_djNjNaV2VkKf89uUhvcJ79eQt3TSj3SZRv1nLFw","name_en":"23🥰香奈儿的mini22击中红心了","name_cn":"23🥰香奈儿的mini22击中红心了\n香奈鹅的包包配饰永远都会被种草来自刚结束的2023春夏系列\n尤其是这一季新出的Minisize22 bag\n经典黑色款♌️迷你版 爱了爱了。\n款号AS3980\n尺寸19-20-6cm\n全套包装","specs":{"source":"wsxcme","sourceId":"_djNjNaV2VkKf89uUhvcJ79eQt3TSj3SZRv1nLFw","sourceTagId":47002745,"sourceTagName":"香奈儿/女包","modelNumber":"AS3980","rawTitle":"23🥰香奈儿的mini22击中红心了\n香奈鹅的包包配饰永远都会被种草来自刚结束的2023春夏系列\n尤其是这一季新出的Minisize22 bag\n经典黑色款♌️迷你版 爱了爱了。\n款号AS3980\n尺寸19-20-6cm\n全套包装"},"price":null,"currency":"CNY","moq":1,"category":"chanel-women-bags","status":"active","alibaba_url":null,"images":["https://xcimg.szwego.com/20230414/i1681446609_3570_0.jpg","https://xcimg.szwego.com/20230414/i1681446609_7178_1.jpg","https://xcimg.szwego.com/20230414/i1681446609_5587_2.jpg","https://xcimg.szwego.com/20230414/i1681446609_3317_3.jpg","https://xcimg.szwego.com/20230414/i1681446609_6753_4.jpg","https://xcimg.szwego.com/20230414/i1681446609_4727_5.jpg","https://xcimg.szwego.com/20230414/i1681446609_7190_6.jpg","https://xcimg.szwego.com/20230414/i1681446609_8047_7.jpg","https://xcimg.szwego.com/20230414/i1681446609_3282_8.jpg"],"created_at":"2025-09-09T05:19:29.858Z"},{"id":"item-2432bfa7925a","sku":"_dkWkWV1FVEKs7ke3zUY65Kn9lJ5G3jxoZqEmmyg","name_en":"23A31bag托特包回归,时髦百搭,还特别实用。肩带可以背,还有手柄可以提。优雅精致复古的感觉,耐看又大气,很难不爱","name_cn":"23A31bag托特包回归,时髦百搭,还特别实用。肩带可以背,还有手柄可以提。优雅精致复古的感觉,耐看又大气,很难不爱\n款号AS1010\n尺寸37-39-8","specs":{"source":"wsxcme","sourceId":"_dkWkWV1FVEKs7ke3zUY65Kn9lJ5G3jxoZqEmmyg","sourceTagId":47002745,"sourceTagName":"香奈儿/女包","modelNumber":"AS1010","rawTitle":"23A31bag托特包回归,时髦百搭,还特别实用。肩带可以背,还有手柄可以提。优雅精致复古的感觉,耐看又大气,很难不爱\n款号AS1010\n尺寸37-39-8"},"price":null,"currency":"CNY","moq":1,"category":"chanel-women-bags","status":"active","alibaba_url":null,"images":["https://xcimg.szwego.com/20230623/a1687484202556_1532.jpg","https://xcimg.szwego.com/20230623/a1687484202666_5716.jpg","https://xcimg.szwego.com/20230623/a1687484202761_2116.jpg","https://xcimg.szwego.com/20230623/a1687484202865_5021.jpg","https://xcimg.szwego.com/20230623/a1687484202986_8416.jpg","https://xcimg.szwego.com/20230623/a1687484203100_3570.jpg","https://xcimg.szwego.com/20230623/a1687484203214_6080.jpg","https://xcimg.szwego.com/20230623/a1687484203305_7037.jpg","https://xcimg.szwego.com/20230623/a1687484203400_0234.jpg"],"created_at":"2024-09-24T07:39:20.181Z"},{"id":"item-77b6faa3cd93","sku":"_dkLkL7uAOUOl1PZtVMy7a06kLFfu8rFDXEWuVdA","name_en":"24a 超有范的 保龄球包 大号 44cm","name_cn":"24a 超有范的 保龄球包 大号 44cm\n Chanel油腊皮 很复古 大酷啦🖤","specs":{"source":"wsxcme","sourceId":"_dkLkL7uAOUOl1PZtVMy7a06kLFfu8rFDXEWuVdA","sourceTagId":47002745,"sourceTagName":"香奈儿/女包","rawTitle":"24a 超有范的 保龄球包 大号 44cm\n Chanel油腊皮 很复古 大酷啦🖤"},"price":null,"currency":"CNY","moq":1,"category":"chanel-women-bags","status":"active","alibaba_url":null,"images":["https://xcimg.szwego.com/img/2f555c7e/20240731/i1722401943_9978_4.jpg","https://xcimg.szwego.com/img/2f555c7e/20240731/i1722401943_8542_3.jpg","https://xcimg.szwego.com/img/2f555c7e/20240731/i1722401943_2813_0.jpg","https://xcimg.szwego.com/img/2f555c7e/20240731/i1722401943_312_5.jpg","https://xcimg.szwego.com/img/2f555c7e/20240731/i1722401943_4567_1.jpg","https://xcimg.szwego.com/img/2f555c7e/20240731/i1722401943_1074_2.jpg","https://xcimg.szwego.com/img/2f555c7e/20240731/i1722401943_1005_8.jpg","https://xcimg.szwego.com/img/2f555c7e/20240731/i1722401943_1520_6.jpg","https://xcimg.szwego.com/img/2f555c7e/20240731/i1722401943_4834_7.jpg"],"created_at":"2024-11-26T11:47:21.479Z"},{"id":"item-c3c23edf4051","sku":"_dN0N0uoANIkGZUlaC3FVZ8k_JdZNodrIfFJjS1A","name_en":"24A 手工访系列 医生包 实物超级美 油蜡皮配金属链条 经典菱格设计  复古又时尚 尽显高贵优雅 非常喜欢的一款","name_cn":"24A 手工访系列 医生包 实物超级美 油蜡皮配金属链条 经典菱格设计  复古又时尚 尽显高贵优雅 非常喜欢的一款 \n款号AS4959\n尺寸16-23.5-8 。","specs":{"source":"wsxcme","sourceId":"_dN0N0uoANIkGZUlaC3FVZ8k_JdZNodrIfFJjS1A","sourceTagId":47002745,"sourceTagName":"香奈儿/女包","modelNumber":"AS4959","rawTitle":"24A 手工访系列 医生包 实物超级美 油蜡皮配金属链条 经典菱格设计  复古又时尚 尽显高贵优雅 非常喜欢的一款 \n款号AS4959\n尺寸16-23.5-8 。"},"price":null,"currency":"CNY","moq":1,"category":"chanel-women-bags","status":"active","alibaba_url":null,"images":["https://xcimg.szwego.com/img/65f6763f/20250318/i1742271042_7925_0.jpg","https://xcimg.szwego.com/img/65f6763f/20250318/i1742271041_8492_0.jpg","https://xcimg.szwego.com/img/65f6763f/20250318/i1742271041_598_0.jpg","https://xcimg.szwego.com/img/65f6763f/20250318/i1742271041_785_0.jpg","https://xcimg.szwego.com/img/65f6763f/20250318/i1742271042_4433_0.jpg","https://xcimg.szwego.com/img/65f6763f/20250318/i1742271041_4995_0.jpg","https://xcimg.szwego.com/img/65f6763f/20250318/i1742271041_6810_0.jpg","https://xcimg.szwego.com/img/65f6763f/20250318/i1742271041_1111_0.jpg","https://xcimg.szwego.com/img/65f6763f/20250318/i1742271041_1968_0.jpg"],"created_at":"2025-03-31T06:16:36.127Z"},{"id":"item-fa07dee36fb8","sku":"_d_B_Bx6JC_v67vukVa_qYbQ70HKAs8BEEf9n2qQ","name_en":"24A高级手工坊系列 Hobo","name_cn":"24A高级手工坊系列 Hobo\n油蜡小羊皮,复古做旧砂金扣\n款号AS4922\n小号尺寸22.5-19.5-8.5\n配包装","specs":{"source":"wsxcme","sourceId":"_d_B_Bx6JC_v67vukVa_qYbQ70HKAs8BEEf9n2qQ","sourceTagId":47002745,"sourceTagName":"香奈儿/女包","modelNumber":"AS4922","rawTitle":"24A高级手工坊系列 Hobo\n油蜡小羊皮,复古做旧砂金扣\n款号AS4922\n小号尺寸22.5-19.5-8.5\n配包装"},"price":null,"currency":"CNY","moq":1,"category":"chanel-women-bags","status":"active","alibaba_url":null,"images":["https://xcimg.szwego.com/20240614/i1718340266_5795_0.jpg","https://xcimg.szwego.com/20240614/i1718340266_9606_1.jpg","https://xcimg.szwego.com/20240614/i1718340266_5487_2.jpg","https://xcimg.szwego.com/20240614/i1718340266_7259_3.jpg","https://xcimg.szwego.com/20240614/i1718340266_1758_4.jpg","https://xcimg.szwego.com/20240614/i1718340266_1533_5.jpg","https://xcimg.szwego.com/20240614/i1718340266_7570_6.jpg","https://xcimg.szwego.com/20240614/i1718340266_11_7.jpg","https://xcimg.szwego.com/20240614/i1718340266_5060_8.jpg"],"created_at":"2025-02-10T13:58:23.276Z"},{"id":"item-a4c3a04f7305","sku":"_dk4k4r2UFZFaXmhwZZM95p_nE4htYnXUOp-kKXg","name_en":"24A高级手工坊系列 Hobo","name_cn":"24A高级手工坊系列 Hobo\n油蜡小羊皮,复古做旧砂金扣\n款号AS4922\n小号尺寸22.5-19.5-8.5\n配包装","specs":{"source":"wsxcme","sourceId":"_dk4k4r2UFZFaXmhwZZM95p_nE4htYnXUOp-kKXg","sourceTagId":47002745,"sourceTagName":"香奈儿/女包","modelNumber":"AS4922","rawTitle":"24A高级手工坊系列 Hobo\n油蜡小羊皮,复古做旧砂金扣\n款号AS4922\n小号尺寸22.5-19.5-8.5\n配包装"},"price":null,"currency":"CNY","moq":1,"category":"chanel-women-bags","status":"active","alibaba_url":null,"images":["https://xcimg.szwego.com/20240614/i1718340290_2313_0.jpg","https://xcimg.szwego.com/20240614/i1718340290_872_1.jpg","https://xcimg.szwego.com/20240614/i1718340290_5601_2.jpg","https://xcimg.szwego.com/20240614/i1718340290_85_3.jpg","https://xcimg.szwego.com/20240614/i1718340290_7529_4.jpg","https://xcimg.szwego.com/20240614/i1718340290_1560_5.jpg","https://xcimg.szwego.com/20240614/i1718340290_1773_6.jpg","https://xcimg.szwego.com/20240614/i1718340290_2206_7.jpg","https://xcimg.szwego.com/20240614/i1718340290_7390_8.jpg"],"created_at":"2025-02-10T13:58:23.277Z"},{"id":"item-96eb4a78b5db","sku":"_dvVvVdhl7IYHEeIsxm5RNYFrXJOi88UMKk6xG3Q","name_en":"24A高级手工坊系列 Hobo","name_cn":"24A高级手工坊系列 Hobo\n油蜡小羊皮,大号 复古做旧砂金扣\n款号AS4923\n小号尺寸29-32-10\n配包装","specs":{"source":"wsxcme","sourceId":"_dvVvVdhl7IYHEeIsxm5RNYFrXJOi88UMKk6xG3Q","sourceTagId":47002745,"sourceTagName":"香奈儿/女包","modelNumber":"AS4923","rawTitle":"24A高级手工坊系列 Hobo\n油蜡小羊皮,大号 复古做旧砂金扣\n款号AS4923\n小号尺寸29-32-10\n配包装"},"price":null,"currency":"CNY","moq":1,"category":"chanel-women-bags","status":"active","alibaba_url":null,"images":["https://xcimg.szwego.com/20240613/i1718247807_4364_0.jpg","https://xcimg.szwego.com/20240613/i1718247807_8213_1.jpg","https://xcimg.szwego.com/20240613/i1718247807_4410_2.jpg","https://xcimg.szwego.com/20240613/i1718247807_1466_3.jpg","https://xcimg.szwego.com/20240613/i1718247807_9459_4.jpg","https://xcimg.szwego.com/20240613/i1718247807_532_5.jpg","https://xcimg.szwego.com/20240613/i1718247807_8773_6.jpg","https://xcimg.szwego.com/20240613/i1718247807_7574_7.jpg","https://xcimg.szwego.com/20240613/i1718247807_1062_8.jpg"],"created_at":"2025-02-10T13:58:23.280Z"},{"id":"item-8485bf7aef61","sku":"_d9W9WMePEIQDz--L4WwPh9wMz-oBZ3mGVT1r3zg","name_en":"24A高级手工坊系列 Hobo","name_cn":"24A高级手工坊系列 Hobo\n油蜡小羊皮,大号 复古做旧砂金扣\n款号AS4923\n小号尺寸29-32-10\n配包装","specs":{"source":"wsxcme","sourceId":"_d9W9WMePEIQDz--L4WwPh9wMz-oBZ3mGVT1r3zg","sourceTagId":47002745,"sourceTagName":"香奈儿/女包","modelNumber":"AS4923","rawTitle":"24A高级手工坊系列 Hobo\n油蜡小羊皮,大号 复古做旧砂金扣\n款号AS4923\n小号尺寸29-32-10\n配包装"},"price":null,"currency":"CNY","moq":1,"category":"chanel-women-bags","status":"active","alibaba_url":null,"images":["https://xcimg.szwego.com/20240614/i1718340230_634_0.jpg","https://xcimg.szwego.com/20240614/i1718340230_4970_1.jpg","https://xcimg.szwego.com/20240614/i1718340230_3692_2.jpg","https://xcimg.szwego.com/20240614/i1718340230_7272_3.jpg","https://xcimg.szwego.com/20240614/i1718340230_1398_4.jpg","https://xcimg.szwego.com/20240614/i1718340230_7865_5.jpg","https://xcimg.szwego.com/20240614/i1718340230_7406_6.jpg","https://xcimg.szwego.com/20240614/i1718340230_5043_7.jpg","https://xcimg.szwego.com/20240614/i1718340230_9075_8.jpg"],"created_at":"2025-02-10T13:58:23.279Z"},{"id":"item-82a02f27f1bd","sku":"_doOoOKQZ3X8OdSoqoU0pAXKvYwmgzKRDlIVkSnA","name_en":"24A高级手工坊系列 Hobo","name_cn":"24A高级手工坊系列 Hobo\n油蜡小羊皮,大号 复古做旧砂金扣\n款号AS4923\n小号尺寸29-32-10\n配包装","specs":{"source":"wsxcme","sourceId":"_doOoOKQZ3X8OdSoqoU0pAXKvYwmgzKRDlIVkSnA","sourceTagId":47002745,"sourceTagName":"香奈儿/女包","modelNumber":"AS4923","rawTitle":"24A高级手工坊系列 Hobo\n油蜡小羊皮,大号 复古做旧砂金扣\n款号AS4923\n小号尺寸29-32-10\n配包装"},"price":null,"currency":"CNY","moq":1,"category":"chanel-women-bags","status":"active","alibaba_url":null,"images":["https://xcimg.szwego.com/20240614/i1718340204_4201_0.jpg","https://xcimg.szwego.com/20240614/i1718340204_3694_1.jpg","https://xcimg.szwego.com/20240614/i1718340204_3594_2.jpg","https://xcimg.szwego.com/20240614/i1718340204_9062_3.jpg","https://xcimg.szwego.com/20240614/i1718340204_2450_4.jpg","https://xcimg.szwego.com/20240614/i1718340204_5618_5.jpg","https://xcimg.szwego.com/20240614/i1718340204_8340_6.jpg","https://xcimg.szwego.com/20240614/i1718340204_2542_7.jpg","https://xcimg.szwego.com/20240614/i1718340204_2196_8.jpg"],"created_at":"2025-02-10T13:58:23.278Z"},{"id":"item-66cf5fdc65b8","sku":"_d-m-mwIzp2cnIh0ympS3x61fA08i3bsUWVQ8Bmw","name_en":"24A香奈儿的mini22击中红心了","name_cn":"24A香奈儿的mini22击中红心了\n香奈鹅的包包配饰永远都会被种草来自刚结束的2023春夏系列\n尤其是这一季新出的的Minisize22 bag\n经典黑色款♌️迷你版 爱了爱了。\n款号AS3980\n尺寸19-20-6cm\n全部包装","specs":{"source":"wsxcme","sourceId":"_d-m-mwIzp2cnIh0ympS3x61fA08i3bsUWVQ8Bmw","sourceTagId":47002745,"sourceTagName":"香奈儿/女包","modelNumber":"AS3980","rawTitle":"24A香奈儿的mini22击中红心了\n香奈鹅的包包配饰永远都会被种草来自刚结束的2023春夏系列\n尤其是这一季新出的的Minisize22 bag\n经典黑色款♌️迷你版 爱了爱了。\n款号AS3980\n尺寸19-20-6cm\n全部包装"},"price":null,"currency":"CNY","moq":1,"category":"chanel-women-bags","status":"active","alibaba_url":null,"images":["https://xcimg.szwego.com/20240706/i1720200882_8534_0.jpg","https://xcimg.szwego.com/20240706/i1720200882_8601_1.jpg","https://xcimg.szwego.com/20240706/i1720200882_8621_2.jpg","https://xcimg.szwego.com/20240706/i1720200882_6657_3.jpg","https://xcimg.szwego.com/20240706/i1720200882_8633_4.jpg","https://xcimg.szwego.com/20240706/i1720200882_5799_5.jpg","https://xcimg.szwego.com/20240706/i1720200882_7466_6.jpg","https://xcimg.szwego.com/20240706/i1720200882_3133_7.jpg","https://xcimg.szwego.com/20240706/i1720200882_3950_8.jpg"],"created_at":"2025-09-09T05:19:29.859Z"},{"id":"item-57f33532f384","sku":"_dsAsASdYv4vVk5joqy6pcKzwpz5VTX-rzauNDAw","name_en":"24A香奈儿的mini22击中红心了","name_cn":"24A香奈儿的mini22击中红心了\n香奈鹅的包包配饰永远都会被种草来自刚结束的2023春夏系列\n尤其是这一季新出的的Minisize22 bag\n经典黑色款♌️迷你版 爱了爱了。\n款号AS3980\n尺寸19-20-6cm\n全部包装","specs":{"source":"wsxcme","sourceId":"_dsAsASdYv4vVk5joqy6pcKzwpz5VTX-rzauNDAw","sourceTagId":47002745,"sourceTagName":"香奈儿/女包","modelNumber":"AS3980","rawTitle":"24A香奈儿的mini22击中红心了\n香奈鹅的包包配饰永远都会被种草来自刚结束的2023春夏系列\n尤其是这一季新出的的Minisize22 bag\n经典黑色款♌️迷你版 爱了爱了。\n款号AS3980\n尺寸19-20-6cm\n全部包装"},"price":null,"currency":"CNY","moq":1,"category":"chanel-women-bags","status":"active","alibaba_url":null,"images":["https://xcimg.szwego.com/20240906/i1725603144_6517_0.jpg","https://xcimg.szwego.com/20240906/i1725603144_187_1.jpg","https://xcimg.szwego.com/20240906/i1725603144_4178_2.jpg","https://xcimg.szwego.com/20240906/i1725603144_3403_3.jpg","https://xcimg.szwego.com/20240906/i1725603144_1486_4.jpg","https://xcimg.szwego.com/20240906/i1725603144_7356_5.jpg","https://xcimg.szwego.com/20240906/i1725603144_6169_6.jpg","https://xcimg.szwego.com/20240906/i1725603144_4118_7.jpg","https://xcimg.szwego.com/20240906/i1725603144_3845_8.jpg"],"created_at":"2025-09-09T05:19:29.849Z"},{"id":"item-d80f36b0acd6","sku":"_dgkgkzkFGQb30HkJrldDB_iuCc-RHO1KVi5b0UA","name_en":"24b贝壳包油蜡羊皮 的美貌屈服的一天呢 这款贝壳包无论是手提还是斜挎都非常精致。包身是闪闪油蜡羊皮 亮丽得恰到好处。提在手中,复古可爱感满分。来找寻你的复古贝壳宝藏吧","name_cn":"24b贝壳包油蜡羊皮 的美貌屈服的一天呢 这款贝壳包无论是手提还是斜挎都非常精致。包身是闪闪油蜡羊皮 亮丽得恰到好处。提在手中,复古可爱感满分。来找寻你的复古贝壳宝藏吧 \n款号\n尺寸:16x11x5.5\n配包装","specs":{"source":"wsxcme","sourceId":"_dgkgkzkFGQb30HkJrldDB_iuCc-RHO1KVi5b0UA","sourceTagId":47002745,"sourceTagName":"香奈儿/女包","modelNumber":"尺寸:16x11x5.5","rawTitle":"24b贝壳包油蜡羊皮 的美貌屈服的一天呢 这款贝壳包无论是手提还是斜挎都非常精致。包身是闪闪油蜡羊皮 亮丽得恰到好处。提在手中,复古可爱感满分。来找寻你的复古贝壳宝藏吧 \n款号\n尺寸:16x11x5.5\n配包装"},"price":null,"currency":"CNY","moq":1,"category":"chanel-women-bags","status":"active","alibaba_url":null,"images":["https://xcimg.szwego.com/20240908/i1725766326_5496_0.jpg","https://xcimg.szwego.com/20240908/i1725766326_3423_1.jpg","https://xcimg.szwego.com/20240908/i1725766326_8334_2.jpg","https://xcimg.szwego.com/20240908/i1725766326_6261_3.jpg","https://xcimg.szwego.com/20240908/i1725766326_9760_4.jpg","https://xcimg.szwego.com/20240908/i1725766326_138_5.jpg","https://xcimg.szwego.com/20240908/i1725766326_8066_6.jpg","https://xcimg.szwego.com/20240908/i1725766326_5321_7.jpg","https://xcimg.szwego.com/20240908/i1725766326_5526_8.jpg"],"created_at":"2024-09-10T05:52:21.167Z"},{"id":"item-d3d11b3ed264","sku":"_ddkdkq0K498FBc9WemuEmD0nJl3DM7iv_hcH51w","name_en":"24B限量款钻石手柄 长盒子包 化妆斜跨包配钻手柄 小羊皮金属 五金,手柄精致又贵气,手拎 斜挎 单肩都好看 真的太美了","name_cn":"24B限量款钻石手柄 长盒子包 化妆斜跨包配钻手柄 小羊皮金属 五金,手柄精致又贵气,手拎 斜挎 单肩都好看 真的太美了 \n款号\n尺寸11-8.5-7\n全套包装","specs":{"source":"wsxcme","sourceId":"_ddkdkq0K498FBc9WemuEmD0nJl3DM7iv_hcH51w","sourceTagId":47002745,"sourceTagName":"香奈儿/女包","modelNumber":"尺寸11-8.5-7","rawTitle":"24B限量款钻石手柄 长盒子包 化妆斜跨包配钻手柄 小羊皮金属 五金,手柄精致又贵气,手拎 斜挎 单肩都好看 真的太美了 \n款号\n尺寸11-8.5-7\n全套包装"},"price":null,"currency":"CNY","moq":1,"category":"chanel-women-bags","status":"active","alibaba_url":null,"images":["https://xcimg.szwego.com/20240908/i1725766404_3449_0.jpg","https://xcimg.szwego.com/20240908/i1725766404_9626_1.jpg","https://xcimg.szwego.com/20240908/i1725766404_4223_2.jpg","https://xcimg.szwego.com/20240908/i1725766404_1911_3.jpg","https://xcimg.szwego.com/20240908/i1725766404_7042_4.jpg","https://xcimg.szwego.com/20240908/i1725766404_9254_5.jpg","https://xcimg.szwego.com/20240908/i1725766404_6421_6.jpg","https://xcimg.szwego.com/20240908/i1725766404_5684_7.jpg","https://xcimg.szwego.com/20240908/i1725766404_7546_8.jpg"],"created_at":"2024-09-10T05:52:21.169Z"},{"id":"item-c68a9be4ccd0","sku":"_dd0d030L6Jb0wfwYU5ycRV8yB8PFw1GLB5n0UlA","name_en":"24B限量款钻石手柄 长盒子包 化妆斜跨包配钻手柄 小羊皮金属 五金,手柄精致又贵气,手拎 斜挎 单肩都好看 真的太美了","name_cn":"24B限量款钻石手柄 长盒子包 化妆斜跨包配钻手柄 小羊皮金属 五金,手柄精致又贵气,手拎 斜挎 单肩都好看 真的太美了 \n款号\n尺寸10-16-8\n全套包装","specs":{"source":"wsxcme","sourceId":"_dd0d030L6Jb0wfwYU5ycRV8yB8PFw1GLB5n0UlA","sourceTagId":47002745,"sourceTagName":"香奈儿/女包","modelNumber":"尺寸10-16-8","rawTitle":"24B限量款钻石手柄 长盒子包 化妆斜跨包配钻手柄 小羊皮金属 五金,手柄精致又贵气,手拎 斜挎 单肩都好看 真的太美了 \n款号\n尺寸10-16-8\n全套包装"},"price":null,"currency":"CNY","moq":1,"category":"chanel-women-bags","status":"active","alibaba_url":null,"images":["https://xcimg.szwego.com/20240908/i1725766536_8949_0.jpg","https://xcimg.szwego.com/20240908/i1725766536_3808_1.jpg","https://xcimg.szwego.com/20240908/i1725766536_2312_2.jpg","https://xcimg.szwego.com/20240908/i1725766536_3220_3.jpg","https://xcimg.szwego.com/20240908/i1725766536_9611_4.jpg","https://xcimg.szwego.com/20240908/i1725766536_3663_5.jpg","https://xcimg.szwego.com/20240908/i1725766536_5922_6.jpg","https://xcimg.szwego.com/20240908/i1725766536_4113_7.jpg","https://xcimg.szwego.com/20240908/i1725766536_4204_8.jpg"],"created_at":"2024-09-10T05:52:21.173Z"},{"id":"item-5d259ba9f08b","sku":"_dAaAaLc0b4RsEbYHwu5zls6u0LyTVNxsL6GCYbw","name_en":"24B限量款钻石手柄 长盒子包 化妆斜跨包配钻手柄 小羊皮金属 五金,手柄精致又贵气,手拎 斜挎 单肩都好看 真的太美了","name_cn":"24B限量款钻石手柄 长盒子包 化妆斜跨包配钻手柄 小羊皮金属 五金,手柄精致又贵气,手拎 斜挎 单肩都好看 真的太美了 \n款号A\n尺寸11-8.5-7\n全套包装","specs":{"source":"wsxcme","sourceId":"_dAaAaLc0b4RsEbYHwu5zls6u0LyTVNxsL6GCYbw","sourceTagId":47002745,"sourceTagName":"香奈儿/女包","modelNumber":"A","rawTitle":"24B限量款钻石手柄 长盒子包 化妆斜跨包配钻手柄 小羊皮金属 五金,手柄精致又贵气,手拎 斜挎 单肩都好看 真的太美了 \n款号A\n尺寸11-8.5-7\n全套包装"},"price":null,"currency":"CNY","moq":1,"category":"chanel-women-bags","status":"active","alibaba_url":null,"images":["https://xcimg.szwego.com/20240908/i1725766425_8639_0.jpg","https://xcimg.szwego.com/20240908/i1725766425_4815_1.jpg","https://xcimg.szwego.com/20240908/i1725766425_4167_2.jpg","https://xcimg.szwego.com/20240908/i1725766425_9035_3.jpg","https://xcimg.szwego.com/20240908/i1725766425_3102_4.jpg","https://xcimg.szwego.com/20240908/i1725766425_3752_5.jpg","https://xcimg.szwego.com/20240908/i1725766425_2853_6.jpg","https://xcimg.szwego.com/20240908/i1725766425_7471_7.jpg","https://xcimg.szwego.com/20240908/i1725766425_2023_8.jpg"],"created_at":"2024-09-10T05:52:21.170Z"},{"id":"item-8593c340e86c","sku":"_dyAyAzsoDk5_cCMBW8XS5BSMHKIi7chBqnQ4ivw","name_en":"24B新款保龄球牛仔布 正面链条带有一个加紧的鸡眼,加上内袋的大空间、一整个简约又时尚潮流,这种款式过多久都依旧在时尚的前线使用频率很高,不仅适合旅行使用,平时日常也是非常实用宜搭","name_cn":"24B新款保龄球牛仔布 正面链条带有一个加紧的鸡眼,加上内袋的大空间、一整个简约又时尚潮流,这种款式过多久都依旧在时尚的前线使用频率很高,不仅适合旅行使用,平时日常也是非常实用宜搭\n款号AS4905\n尺寸21-33-15","specs":{"source":"wsxcme","sourceId":"_dyAyAzsoDk5_cCMBW8XS5BSMHKIi7chBqnQ4ivw","sourceTagId":47002745,"sourceTagName":"香奈儿/女包","modelNumber":"AS4905","rawTitle":"24B新款保龄球牛仔布 正面链条带有一个加紧的鸡眼,加上内袋的大空间、一整个简约又时尚潮流,这种款式过多久都依旧在时尚的前线使用频率很高,不仅适合旅行使用,平时日常也是非常实用宜搭\n款号AS4905\n尺寸21-33-15"},"price":null,"currency":"CNY","moq":1,"category":"chanel-women-bags","status":"active","alibaba_url":null,"images":["https://xcimg.szwego.com/20240908/i1725766635_7468_0.jpg","https://xcimg.szwego.com/20240908/i1725766635_151_1.jpg","https://xcimg.szwego.com/20240908/i1725766635_8255_2.jpg","https://xcimg.szwego.com/20240908/i1725766635_7943_3.jpg","https://xcimg.szwego.com/20240908/i1725766635_93_4.jpg","https://xcimg.szwego.com/20240908/i1725766635_7646_5.jpg","https://xcimg.szwego.com/20240908/i1725766635_5097_6.jpg","https://xcimg.szwego.com/20240908/i1725766635_1665_7.jpg","https://xcimg.szwego.com/20240908/i1725766635_158_8.jpg"],"created_at":"2024-09-10T05:52:21.150Z"},{"id":"item-50a2198da1ca","sku":"_d8D8DmQx2eT_ASXlegIzmdK24LoIuKUqEdDErEw","name_en":"24B新款保龄球牛仔布 正面链条带有一个加紧的鸡眼,加上内袋的大空间、一整个简约又时尚潮流,这种款式过多久都依旧在时尚的前线使用频率很高,不仅适合旅行使用,平时日常也是非常实用宜搭","name_cn":"24B新款保龄球牛仔布 正面链条带有一个加紧的鸡眼,加上内袋的大空间、一整个简约又时尚潮流,这种款式过多久都依旧在时尚的前线使用频率很高,不仅适合旅行使用,平时日常也是非常实用宜搭\n款号AS4812\n尺寸28-44-15.5","specs":{"source":"wsxcme","sourceId":"_d8D8DmQx2eT_ASXlegIzmdK24LoIuKUqEdDErEw","sourceTagId":47002745,"sourceTagName":"香奈儿/女包","modelNumber":"AS4812","rawTitle":"24B新款保龄球牛仔布 正面链条带有一个加紧的鸡眼,加上内袋的大空间、一整个简约又时尚潮流,这种款式过多久都依旧在时尚的前线使用频率很高,不仅适合旅行使用,平时日常也是非常实用宜搭\n款号AS4812\n尺寸28-44-15.5"},"price":null,"currency":"CNY","moq":1,"category":"chanel-women-bags","status":"active","alibaba_url":null,"images":["https://xcimg.szwego.com/20240908/i1725766696_221_0.jpg","https://xcimg.szwego.com/20240908/i1725766696_5469_1.jpg","https://xcimg.szwego.com/20240908/i1725766696_6112_2.jpg","https://xcimg.szwego.com/20240908/i1725766696_9596_3.jpg","https://xcimg.szwego.com/20240908/i1725766696_312_4.jpg","https://xcimg.szwego.com/20240908/i1725766696_1571_5.jpg","https://xcimg.szwego.com/20240908/i1725766696_7204_6.jpg","https://xcimg.szwego.com/20240908/i1725766696_6486_7.jpg","https://xcimg.szwego.com/20240908/i1725766696_8002_8.jpg"],"created_at":"2024-09-10T05:52:21.152Z"},{"id":"item-2d0b0f35a6fd","sku":"_dqOqOisBprKD0sz3eXKYTukmTqqqpNRhFzJS_xw","name_en":"24c手袋","name_cn":"24c手袋 \n中号湖蓝色金扣➿\n\n 真正的纯A 一级小牛皮👍\n皮质既柔软又耐磨,两者兼具\n简简单单的外观却藏着不少设计师的高级设计,镂空的chanel logo的金币,小小的点缀让整体气质提高了不止一个Level,满满的复古情怀,松松垮垮的慵懒感! 🍃\n\n尺寸:39×42×8cm","specs":{"source":"wsxcme","sourceId":"_dqOqOisBprKD0sz3eXKYTukmTqqqpNRhFzJS_xw","sourceTagId":47002745,"sourceTagName":"香奈儿/女包","dimensions":{"lengthCm":39,"heightCm":42,"widthCm":8},"rawTitle":"24c手袋 \n中号湖蓝色金扣➿\n\n 真正的纯A 一级小牛皮👍\n皮质既柔软又耐磨,两者兼具\n简简单单的外观却藏着不少设计师的高级设计,镂空的chanel logo的金币,小小的点缀让整体气质提高了不止一个Level,满满的复古情怀,松松垮垮的慵懒感! 🍃\n\n尺寸:39×42×8cm"},"price":null,"currency":"CNY","moq":1,"category":"chanel-women-bags","status":"active","alibaba_url":null,"images":["https://xcimg.szwego.com/img/e8531d32/20231227/i1703657342_7412_0.jpg","https://xcimg.szwego.com/img/e8531d32/20231227/i1703657342_1137_0.jpg","https://xcimg.szwego.com/img/e8531d32/20231227/i1703657342_2321_0.jpg","https://xcimg.szwego.com/img/e8531d32/20231227/i1703657342_2195_0.jpg"],"created_at":"2024-05-01T03:19:54.440Z"},{"id":"item-07d8826f649f","sku":"_dwfwflVfgaUn7Fhhmjvys1kwv4yXV1fnHDYw8rA","name_en":"24C五角星双肩 闪耀迷人移不开眼 24C的C位是哪一只包包呢?毫无疑问,是这只五角星双肩包!","name_cn":"24C五角星双肩 闪耀迷人移不开眼 24C的C位是哪一只包包呢?毫无疑问,是这只五角星双肩包!\n作为24C“开场嘉宾”这只双肩成为了高热度人气选手备受瞩目。镭射面极为亮眼,真的有让人眼前一亮的感觉。这两年的书包款一直是大家眼中的焦点,从去年22K的漆皮双肩到现在这只五角星双肩横空出世,书包系列成了一包难求的单品这只双肩包非常经典,依旧是复古的横版造型,加上了24C季节感的五角星小吊坠,基础的造型上增添了许多灵动 五角星双肩当之无愧!\n款号AS4649\n尺寸18.5-23.5-8.5\n全套包装","specs":{"source":"wsxcme","sourceId":"_dwfwflVfgaUn7Fhhmjvys1kwv4yXV1fnHDYw8rA","sourceTagId":47002745,"sourceTagName":"香奈儿/女包","modelNumber":"AS4649","rawTitle":"24C五角星双肩 闪耀迷人移不开眼 24C的C位是哪一只包包呢?毫无疑问,是这只五角星双肩包!\n作为24C“开场嘉宾”这只双肩成为了高热度人气选手备受瞩目。镭射面极为亮眼,真的有让人眼前一亮的感觉。这两年的书包款一直是大家眼中的焦点,从去年22K的漆皮双肩到现在这只五角星双肩横空出世,书包系列成了一包难求的单品这只双肩包非常经典,依旧是复古的横版造型,加上了24C季节感的五角星小吊坠,基础的造型上增添了许多灵动 五角星双肩当之无愧!\n款号AS4649\n尺寸18.5-23.5-8.5\n全套包装"},"price":null,"currency":"CNY","moq":1,"category":"chanel-women-bags","status":"active","alibaba_url":null,"images":["https://xcimg.szwego.com/20231204/i1701673076_2228_0.jpg","https://xcimg.szwego.com/20231204/i1701673076_1955_1.jpg","https://xcimg.szwego.com/20231204/i1701673076_1743_2.jpg","https://xcimg.szwego.com/20231204/i1701673076_3054_3.jpg","https://xcimg.szwego.com/20231204/i1701673076_9043_4.jpg","https://xcimg.szwego.com/20231204/i1701673076_9156_5.jpg","https://xcimg.szwego.com/20231204/i1701673076_5887_6.jpg","https://xcimg.szwego.com/20231204/i1701673076_4925_7.jpg","https://xcimg.szwego.com/20231204/i1701673076_5178_8.jpg"],"created_at":"2024-05-01T03:19:54.396Z"},{"id":"item-d0f186b46775","sku":"_dhahafCeuBAjF9V1mZPZV4M_lAWTJ-DChc2-t1Q","name_en":"24C五角星CF闪耀迷人移不开眼 24C的C位是哪一只包包呢?毫无疑问,是这只五角星CF","name_cn":"24C五角星CF闪耀迷人移不开眼 24C的C位是哪一只包包呢?毫无疑问,是这只五角星CF\n作为24C“开场嘉宾”这只双肩成为了高热度人气选手备受瞩目。镭射面极为亮眼,真的有让人眼前一亮的感觉。依旧是复古的横版造型,加上了24C季节感的五角星小吊坠,基础的造型上增添了许多灵动 五角星口盖包当之无愧!\n款号AS4646\n尺寸12.5-19-5\n全套包装","specs":{"source":"wsxcme","sourceId":"_dhahafCeuBAjF9V1mZPZV4M_lAWTJ-DChc2-t1Q","sourceTagId":47002745,"sourceTagName":"香奈儿/女包","modelNumber":"AS4646","rawTitle":"24C五角星CF闪耀迷人移不开眼 24C的C位是哪一只包包呢?毫无疑问,是这只五角星CF\n作为24C“开场嘉宾”这只双肩成为了高热度人气选手备受瞩目。镭射面极为亮眼,真的有让人眼前一亮的感觉。依旧是复古的横版造型,加上了24C季节感的五角星小吊坠,基础的造型上增添了许多灵动 五角星口盖包当之无愧!\n款号AS4646\n尺寸12.5-19-5\n全套包装"},"price":null,"currency":"CNY","moq":1,"category":"chanel-women-bags","status":"active","alibaba_url":null,"images":["https://xcimg.szwego.com/20231208/i1702007331_6601_0.jpg","https://xcimg.szwego.com/20231208/i1702007331_4375_1.jpg","https://xcimg.szwego.com/20231208/i1702007331_9529_2.jpg","https://xcimg.szwego.com/20231208/i1702007331_3355_3.jpg","https://xcimg.szwego.com/20231208/i1702007331_3383_4.jpg","https://xcimg.szwego.com/20231208/i1702007331_2307_5.jpg","https://xcimg.szwego.com/20231208/i1702007331_857_6.jpg","https://xcimg.szwego.com/20231208/i1702007331_9130_7.jpg","https://xcimg.szwego.com/20231208/i1702007331_877_8.jpg"],"created_at":"2024-05-01T03:19:54.398Z"},{"id":"item-fdfd583f40cc","sku":"_dj0j0fSAMqwIG-2SpSl9gluHO0VQe7-iyi-qGUw","name_en":"24k 盒子包 最美爱心调节扣 可调节链条的 采用双c浮雕工艺logo精致绝美 :进口小羊皮","name_cn":"24k 盒子包 最美爱心调节扣 可调节链条的 采用双c浮雕工艺logo精致绝美 :进口小羊皮\n款号A\n尺寸11-8.5-7","specs":{"source":"wsxcme","sourceId":"_dj0j0fSAMqwIG-2SpSl9gluHO0VQe7-iyi-qGUw","sourceTagId":47002745,"sourceTagName":"香奈儿/女包","modelNumber":"A","rawTitle":"24k 盒子包 最美爱心调节扣 可调节链条的 采用双c浮雕工艺logo精致绝美 :进口小羊皮\n款号A\n尺寸11-8.5-7"},"price":null,"currency":"CNY","moq":1,"category":"chanel-women-bags","status":"active","alibaba_url":null,"images":["https://xcimg.szwego.com/img/ecb71349/20241212/i1733967690_3416_6.jpg","https://xcimg.szwego.com/img/ecb71349/20241212/i1733967690_559_3.jpg","https://xcimg.szwego.com/img/ecb71349/20241212/i1733967690_4210_5.jpg","https://xcimg.szwego.com/img/ecb71349/20241212/i1733967690_6717_0.jpg","https://xcimg.szwego.com/img/ecb71349/20241212/i1733967690_5133_1.jpg","https://xcimg.szwego.com/img/ecb71349/20241212/i1733967690_991_4.jpg","https://xcimg.szwego.com/img/ecb71349/20241212/i1733967690_884_2.jpg","https://xcimg.szwego.com/img/ecb71349/20241212/i1733967690_8600_8.jpg","https://xcimg.szwego.com/img/ecb71349/20241212/i1733967690_6221_7.jpg"],"created_at":"2025-01-20T12:26:10.915Z"},{"id":"item-ec3473382bd7","sku":"_dFBFBu9Uv5WHSJO5s05o6E27j-70TUGyp3AUYWw","name_en":"24k 盒子包 最美爱心调节扣 可调节链条的 采用双c浮雕工艺logo精致绝美 :进口小羊皮","name_cn":"24k 盒子包 最美爱心调节扣 可调节链条的 采用双c浮雕工艺logo精致绝美 :进口小羊皮\n款号A\n尺寸11-8.5-7","specs":{"source":"wsxcme","sourceId":"_dFBFBu9Uv5WHSJO5s05o6E27j-70TUGyp3AUYWw","sourceTagId":47002745,"sourceTagName":"香奈儿/女包","modelNumber":"A","rawTitle":"24k 盒子包 最美爱心调节扣 可调节链条的 采用双c浮雕工艺logo精致绝美 :进口小羊皮\n款号A\n尺寸11-8.5-7"},"price":null,"currency":"CNY","moq":1,"category":"chanel-women-bags","status":"active","alibaba_url":null,"images":["https://xcimg.szwego.com/img/ecb71349/20241212/i1733967800_9626_0.jpg","https://xcimg.szwego.com/img/ecb71349/20241212/i1733967801_3950_6.jpg","https://xcimg.szwego.com/img/ecb71349/20241212/i1733967800_132_1.jpg","https://xcimg.szwego.com/img/ecb71349/20241212/i1733967801_2291_7.jpg","https://xcimg.szwego.com/img/ecb71349/20241212/i1733967801_9311_4.jpg","https://xcimg.szwego.com/img/ecb71349/20241212/i1733967800_5391_2.jpg","https://xcimg.szwego.com/img/ecb71349/20241212/i1733967801_2775_8.jpg","https://xcimg.szwego.com/img/ecb71349/20241212/i1733967801_7072_5.jpg","https://xcimg.szwego.com/img/ecb71349/20241212/i1733967801_9727_3.jpg"],"created_at":"2025-01-20T12:26:10.918Z"}],"page":9,"pageSize":24,"total":1102,"totalPages":46}
