{"items":[{"id":"item-1965d3e1b96a","sku":"_djKjKEwH2lJ3o-N-xF6T7px9gEnbzrRA7q9v0vg","name_en":"Chanel Women Bags","name_cn":"白金版▪️正品级 包装如图\nChane1 25B新品现货 双C扣口盖包\n双C调节扣 大mini 粉色\n专柜售价47500rmb购入开发〰️\n\n最新推出#双C链条口盖包大mini💙\n具备CF元素造型有着性感迷人的气质\n链条双C调节扣设计很精致很复古~\n绝对是重量级必入收藏款️啦✔️\n\n五金:厚镀24K复古亮金\n皮料:   抛光小羊皮\n尺寸:13*20*7 cm\n5759","specs":{"source":"wsxcme","sourceId":"_djKjKEwH2lJ3o-N-xF6T7px9gEnbzrRA7q9v0vg","sourceTagId":47002745,"sourceTagName":"香奈儿/女包","dimensions":{"lengthCm":13,"heightCm":20,"widthCm":7},"rawTitle":"白金版▪️正品级 包装如图\nChane1 25B新品现货 双C扣口盖包\n双C调节扣 大mini 粉色\n专柜售价47500rmb购入开发〰️\n\n最新推出#双C链条口盖包大mini💙\n具备CF元素造型有着性感迷人的气质\n链条双C调节扣设计很精致很复古~\n绝对是重量级必入收藏款️啦✔️\n\n五金:厚镀24K复古亮金\n皮料:   抛光小羊皮\n尺寸:13*20*7 cm\n5759"},"price":null,"currency":"CNY","moq":1,"category":"chanel-women-bags","status":"active","alibaba_url":null,"images":["https://xcimg.szwego.com/imgHD/9d8f4332/20250824/cmp_i1756014798071_386_0_0.jpg","https://xcimg.szwego.com/imgHD/9d8f4332/20250824/cmp_i1756014796306_8975_0_1.jpg","https://xcimg.szwego.com/imgHD/9d8f4332/20250824/cmp_i1756014796302_4898_0_2.jpg","https://xcimg.szwego.com/imgHD/9d8f4332/20250824/cmp_i1756014798072_3405_0_3.jpg","https://xcimg.szwego.com/imgHD/9d8f4332/20250824/cmp_i1756014796299_7828_0_4.jpg","https://xcimg.szwego.com/imgHD/9d8f4332/20250824/cmp_i1756014796298_1003_0_5.jpg","https://xcimg.szwego.com/imgHD/9d8f4332/20250824/cmp_i1756014798071_3752_0_6.jpg","https://xcimg.szwego.com/imgHD/9d8f4332/20250824/cmp_i1756014796302_4070_0_7.jpg","https://xcimg.szwego.com/imgHD/9d8f4332/20250824/cmp_i1756014798071_4600_0_8.jpg"],"created_at":"2025-09-19T04:32:40.067Z"},{"id":"item-180f35ba38be","sku":"_dqtqtgF-c8QXInI9WrCX6GM24rU8pdHyfHkRDMQ","name_en":"Chanel Women Bags","name_cn":"原厂皮\n25c牛皮 球纹\n香奈儿 chanel hobo 腋下包 嬉皮腋下包小号\n复古金币纽扣抽绳水桶包+菱格纹+复古黑金\n经典链条设计,高级感十足!日常出行必备,\n外观精美,质感细腻,\n无论休闲装还是正式场合都能轻松驾驭❤️\n编号:AS5293 球纹 淡黄色\n尺寸:30*26*14","specs":{"source":"wsxcme","sourceId":"_dqtqtgF-c8QXInI9WrCX6GM24rU8pdHyfHkRDMQ","sourceTagId":47002745,"sourceTagName":"香奈儿/女包","rawTitle":"原厂皮\n25c牛皮 球纹\n香奈儿 chanel hobo 腋下包 嬉皮腋下包小号\n复古金币纽扣抽绳水桶包+菱格纹+复古黑金\n经典链条设计,高级感十足!日常出行必备,\n外观精美,质感细腻,\n无论休闲装还是正式场合都能轻松驾驭❤️\n编号:AS5293 球纹 淡黄色\n尺寸:30*26*14"},"price":null,"currency":"CNY","moq":1,"category":"chanel-women-bags","status":"active","alibaba_url":null,"images":["https://xcimg.szwego.com/img/fbe1a617/20250519/i1747642850799_7150_0_0.jpg","https://xcimg.szwego.com/img/fbe1a617/20250519/i1747642848890_4337_0_1.jpg","https://xcimg.szwego.com/img/fbe1a617/20250519/i1747642850837_8841_0_2.jpg","https://xcimg.szwego.com/img/fbe1a617/20250519/i1747642848814_1934_0_3.jpg","https://xcimg.szwego.com/img/fbe1a617/20250519/i1747642850808_5188_0_4.jpg","https://xcimg.szwego.com/img/fbe1a617/20250519/i1747642850853_4070_0_5.jpg","https://xcimg.szwego.com/img/fbe1a617/20250519/i1747642848631_2247_0_6.jpg","https://xcimg.szwego.com/img/fbe1a617/20250519/i1747642848980_2027_0_7.jpg","https://xcimg.szwego.com/img/fbe1a617/20250519/i1747642848839_8402_0_8.jpg"],"created_at":"2025-09-09T05:17:44.459Z"},{"id":"item-17e914deccb6","sku":"_dkrkrcf07OiWUJIevzJ_juuIpB8aJ4zTzDwvBSA","name_en":"Chanel Women Bags","name_cn":"。白金版▪️正品级 包装如图\n全新到货🆕Chane1 24s春夏\n双珍珠大Mini 灰色\n专柜售价50500rmb购入开发\n\n✨24s最闪耀的双珍珠口盖包\n链条两大汤圆是好运的降临呀💕\n滑链伸缩调节适合各种身高更方便了\n日常出街时髦感拉满,好美好气质啊\n\n五金:厚镀24k复古金\n皮料:   开料部真品小羊皮\n里皮:Montebello真品牛皮\n尺寸:13*20.5*6.5 cm","specs":{"source":"wsxcme","sourceId":"_dkrkrcf07OiWUJIevzJ_juuIpB8aJ4zTzDwvBSA","sourceTagId":47002745,"sourceTagName":"香奈儿/女包","dimensions":{"lengthCm":13,"heightCm":20.5,"widthCm":6.5},"rawTitle":"。白金版▪️正品级 包装如图\n全新到货🆕Chane1 24s春夏\n双珍珠大Mini 灰色\n专柜售价50500rmb购入开发\n\n✨24s最闪耀的双珍珠口盖包\n链条两大汤圆是好运的降临呀💕\n滑链伸缩调节适合各种身高更方便了\n日常出街时髦感拉满,好美好气质啊\n\n五金:厚镀24k复古金\n皮料:   开料部真品小羊皮\n里皮:Montebello真品牛皮\n尺寸:13*20.5*6.5 cm"},"price":null,"currency":"CNY","moq":1,"category":"chanel-women-bags","status":"active","alibaba_url":null,"images":["https://xcimg.szwego.com/20240430/i1714460603_348_0.jpg","https://xcimg.szwego.com/20240430/i1714460603_6679_1.jpg","https://xcimg.szwego.com/20240430/i1714460603_1694_2.jpg","https://xcimg.szwego.com/20240430/i1714460603_6305_3.jpg","https://xcimg.szwego.com/20240430/i1714460603_8740_4.jpg","https://xcimg.szwego.com/20240430/i1714460603_4082_5.jpg","https://xcimg.szwego.com/20240430/i1714460603_3101_6.jpg","https://xcimg.szwego.com/20240430/i1714460603_5002_7.jpg","https://xcimg.szwego.com/20240430/i1714460603_4639_8.jpg"],"created_at":"2024-05-03T07:19:26.865Z"},{"id":"item-178e7d71c5f6","sku":"_dt5t5Y7K6pHvrrskNHCgKC9QQLkUpmvsMi64OfA","name_en":"Chanel Women Bags","name_cn":"白金版▪️正品级 包装如图\nChane1 23S春夏系列\n山茶花调节扣 方胖子 白色\n专柜售价39800rmb购入开发〰️\n\n23s山茶花调节扣链条口盖包\n具备cf的元素造型有着性感迷人的气质。\n设计方面更加优雅大方啦❕\n可️腋下、斜挎、单肩一包多用,很受欢迎哦👏🏻\n\n五金:厚镀24k复古金\n皮料:   开料部zp小羊皮\n尺寸:13*18*7 cm","specs":{"source":"wsxcme","sourceId":"_dt5t5Y7K6pHvrrskNHCgKC9QQLkUpmvsMi64OfA","sourceTagId":47002745,"sourceTagName":"香奈儿/女包","dimensions":{"lengthCm":13,"heightCm":18,"widthCm":7},"rawTitle":"白金版▪️正品级 包装如图\nChane1 23S春夏系列\n山茶花调节扣 方胖子 白色\n专柜售价39800rmb购入开发〰️\n\n23s山茶花调节扣链条口盖包\n具备cf的元素造型有着性感迷人的气质。\n设计方面更加优雅大方啦❕\n可️腋下、斜挎、单肩一包多用,很受欢迎哦👏🏻\n\n五金:厚镀24k复古金\n皮料:   开料部zp小羊皮\n尺寸:13*18*7 cm"},"price":null,"currency":"CNY","moq":1,"category":"chanel-women-bags","status":"active","alibaba_url":null,"images":["https://xcimg.szwego.com/20230529/i1685339994_5826_0.jpg","https://xcimg.szwego.com/20230529/i1685339994_8651_1.jpg","https://xcimg.szwego.com/20230529/i1685339994_7632_2.jpg","https://xcimg.szwego.com/20230529/i1685339994_5463_3.jpg","https://xcimg.szwego.com/20230529/i1685339994_7652_4.jpg","https://xcimg.szwego.com/20230529/i1685339994_7107_5.jpg","https://xcimg.szwego.com/20230529/i1685339994_5703_6.jpg","https://xcimg.szwego.com/20230529/i1685339994_3128_7.jpg","https://xcimg.szwego.com/20230529/i1685339994_4456_8.jpg"],"created_at":"2024-05-01T03:19:54.372Z"},{"id":"item-175649434414","sku":"_d2n2n69JvQcxI-wKhx-V3i9bdxJ9GscF6GsojnA","name_en":"Chanel Women Bags","name_cn":"白金版▪️正品级 包装如图\nChane1  25B 双C扣长盒子 亮银色\n专柜售价28900rmb购入开发〰️\n\n又一个爆品🪄\n整个包已经换了新元素\n包底下新增一个大Logo\n链条锁定🔒可以调节\n肩带长短 腋下斜单肩都可️\n盒子包已经是女生们爱不释手出街必备\n新款内是金色全皮➕小镜子🪞\n可以随时保持妆容\n美美哒💕\n\n面料:原厂小球纹牛皮\n五金:全钢复古亮银扣\n尺寸:9.5*17*8 cm\n3940","specs":{"source":"wsxcme","sourceId":"_d2n2n69JvQcxI-wKhx-V3i9bdxJ9GscF6GsojnA","sourceTagId":47002745,"sourceTagName":"香奈儿/女包","dimensions":{"lengthCm":9.5,"heightCm":17,"widthCm":8},"rawTitle":"白金版▪️正品级 包装如图\nChane1  25B 双C扣长盒子 亮银色\n专柜售价28900rmb购入开发〰️\n\n又一个爆品🪄\n整个包已经换了新元素\n包底下新增一个大Logo\n链条锁定🔒可以调节\n肩带长短 腋下斜单肩都可️\n盒子包已经是女生们爱不释手出街必备\n新款内是金色全皮➕小镜子🪞\n可以随时保持妆容\n美美哒💕\n\n面料:原厂小球纹牛皮\n五金:全钢复古亮银扣\n尺寸:9.5*17*8 cm\n3940"},"price":null,"currency":"CNY","moq":1,"category":"chanel-women-bags","status":"active","alibaba_url":null,"images":["https://xcimg.szwego.com/imgHD/9d8f4332/20250909/cmp_i1757402486813_2978_0_0.jpg","https://xcimg.szwego.com/imgHD/9d8f4332/20250909/cmp_i1757402488410_996_0_1.jpg","https://xcimg.szwego.com/imgHD/9d8f4332/20250909/cmp_i1757402488413_2045_0_2.jpg","https://xcimg.szwego.com/imgHD/9d8f4332/20250909/cmp_i1757402488402_6024_0_3.jpg","https://xcimg.szwego.com/imgHD/9d8f4332/20250909/cmp_i1757402486814_3016_0_4.jpg","https://xcimg.szwego.com/imgHD/9d8f4332/20250909/cmp_i1757402486808_976_0_5.jpg","https://xcimg.szwego.com/imgHD/9d8f4332/20250909/cmp_i1757402486808_2575_0_6.jpg","https://xcimg.szwego.com/imgHD/9d8f4332/20250909/cmp_i1757402488396_7238_0_7.jpg","https://xcimg.szwego.com/imgHD/9d8f4332/20250909/cmp_i1757402486808_9554_0_8.jpg"],"created_at":"2025-09-19T04:32:40.125Z"},{"id":"item-174fd4cb7149","sku":"_d-0-0O_OREUfb1zL7mxuSCZ3UrggNlXS1Kv19jA","name_en":"Chanel Women Bags","name_cn":"白金版▪️正品级 包装如图\n全新到货🆕Chane1 25P 羊皮系列\n31Bag Nano 黑色\n专柜售价26900rmb购入开发〰️\n\n25P横版31mini可爱无敌Get❕\n“包王”经典再现巧妙设计🪄\n满足了时髦精的在所期待啦...\n软萌感让我毫无抵抗力〰️\n\n五金:厚镀14K淡金\n皮料:   金标zp原厂小羊皮\n尺寸:17.5*20.5*3.5 cm\n3656","specs":{"source":"wsxcme","sourceId":"_d-0-0O_OREUfb1zL7mxuSCZ3UrggNlXS1Kv19jA","sourceTagId":47002745,"sourceTagName":"香奈儿/女包","dimensions":{"lengthCm":17.5,"heightCm":20.5,"widthCm":3.5},"rawTitle":"白金版▪️正品级 包装如图\n全新到货🆕Chane1 25P 羊皮系列\n31Bag Nano 黑色\n专柜售价26900rmb购入开发〰️\n\n25P横版31mini可爱无敌Get❕\n“包王”经典再现巧妙设计🪄\n满足了时髦精的在所期待啦...\n软萌感让我毫无抵抗力〰️\n\n五金:厚镀14K淡金\n皮料:   金标zp原厂小羊皮\n尺寸:17.5*20.5*3.5 cm\n3656"},"price":null,"currency":"CNY","moq":1,"category":"chanel-women-bags","status":"active","alibaba_url":null,"images":["https://xcimg.szwego.com/imgHD/9d8f4332/20250609/cmp_i1749449352695_9110_0_0.jpg","https://xcimg.szwego.com/imgHD/9d8f4332/20250609/cmp_i1749449351532_4481_0_1.jpg","https://xcimg.szwego.com/imgHD/9d8f4332/20250609/cmp_i1749449351529_4826_0_2.jpg","https://xcimg.szwego.com/imgHD/9d8f4332/20250609/cmp_i1749449352688_704_0_3.jpg","https://xcimg.szwego.com/imgHD/9d8f4332/20250609/cmp_i1749449351528_7563_0_4.jpg","https://xcimg.szwego.com/imgHD/9d8f4332/20250609/cmp_i1749449351525_8103_0_5.jpg","https://xcimg.szwego.com/imgHD/9d8f4332/20250609/cmp_i1749449351524_6590_0_6.jpg","https://xcimg.szwego.com/imgHD/9d8f4332/20250609/cmp_i1749449352691_5303_0_7.jpg","https://xcimg.szwego.com/imgHD/9d8f4332/20250609/cmp_i1749449352684_9806_0_8.jpg"],"created_at":"2025-06-16T09:53:32.247Z"},{"id":"item-16a81c24a18b","sku":"_djnjnXn-ARB3g22KUpMtCEB1mjbx-kcwvsAZIzQ","name_en":"Chanel Women Bags","name_cn":"5293球纹","specs":{"source":"wsxcme","sourceId":"_djnjnXn-ARB3g22KUpMtCEB1mjbx-kcwvsAZIzQ","sourceTagId":47002745,"sourceTagName":"香奈儿/女包","rawTitle":"5293球纹"},"price":null,"currency":"CNY","moq":1,"category":"chanel-women-bags","status":"active","alibaba_url":null,"images":["https://xcimg.szwego.com/img/fbe1a617/20250322/i1742658648486_8825_0_0.jpg","https://xcimg.szwego.com/img/fbe1a617/20250322/i1742658643773_9016_0_0.jpg","https://xcimg.szwego.com/img/fbe1a617/20250322/i1742658653540_5062_0_0.jpg"],"created_at":"2026-06-29T10:35:34.264Z"},{"id":"item-159f0973bfaf","sku":"_dyDyDKf0eubaliVRhWbreTG8i3W6rAxqD8Am86g","name_en":"Chanel Women Bags","name_cn":"白金版▪️正品级 包装如图\nChane1 24C新品 横款22bag 黑银\n专柜售rmb购入开发\n\n今年上新的时髦点ꫛꫀꪝ\n以年份数字为命名❏\n对准它!!Chane1 22手袋〰️\"垃圾袋♥\"\n每个颜色都很爱!\n这草种得有点措不手及🤷‍♂️\n说垃圾袋也好 收纳袋也罢\n反正就是很对味🪄\n图片太多了实在火爆\n娱乐圈明星 超模们同款👀卷起来了!\n越看越上头呀!!\n\n五金:厚镀24k磨砂银\n皮料:亮面小牛皮\n尺寸:45*30*8 cm\n4486","specs":{"source":"wsxcme","sourceId":"_dyDyDKf0eubaliVRhWbreTG8i3W6rAxqD8Am86g","sourceTagId":47002745,"sourceTagName":"香奈儿/女包","dimensions":{"lengthCm":45,"heightCm":30,"widthCm":8},"rawTitle":"白金版▪️正品级 包装如图\nChane1 24C新品 横款22bag 黑银\n专柜售rmb购入开发\n\n今年上新的时髦点ꫛꫀꪝ\n以年份数字为命名❏\n对准它!!Chane1 22手袋〰️\"垃圾袋♥\"\n每个颜色都很爱!\n这草种得有点措不手及🤷‍♂️\n说垃圾袋也好 收纳袋也罢\n反正就是很对味🪄\n图片太多了实在火爆\n娱乐圈明星 超模们同款👀卷起来了!\n越看越上头呀!!\n\n五金:厚镀24k磨砂银\n皮料:亮面小牛皮\n尺寸:45*30*8 cm\n4486"},"price":null,"currency":"CNY","moq":1,"category":"chanel-women-bags","status":"active","alibaba_url":null,"images":["https://xcimg.szwego.com/20231115/i1700028127_444_0.jpg","https://xcimg.szwego.com/20231115/i1700028127_1819_1.jpg","https://xcimg.szwego.com/20231115/i1700028127_4955_2.jpg","https://xcimg.szwego.com/20231115/i1700028127_923_3.jpg","https://xcimg.szwego.com/20231115/i1700028127_8283_4.jpg","https://xcimg.szwego.com/20231115/i1700028127_7237_5.jpg","https://xcimg.szwego.com/20231115/i1700028127_2373_6.jpg","https://xcimg.szwego.com/20231115/i1700028127_8181_7.jpg","https://xcimg.szwego.com/20231115/i1700028127_575_8.jpg"],"created_at":"2024-05-01T03:19:54.389Z"},{"id":"item-1549a8b203f5","sku":"_dxAxAH1ZditULkr_EqBErUko9oEtZTyttQWTowg","name_en":"Chanel Women Bags","name_cn":"香奈儿/女包","specs":{"source":"wsxcme","sourceId":"_dxAxAH1ZditULkr_EqBErUko9oEtZTyttQWTowg","sourceTagId":47002745,"sourceTagName":"香奈儿/女包","rawTitle":""},"price":null,"currency":"CNY","moq":1,"category":"chanel-women-bags","status":"active","alibaba_url":null,"images":["https://xcimg.szwego.com/img/ecb71349/20241215/i1734243738_6312_0.jpg"],"created_at":"2025-05-29T14:00:39.112Z"},{"id":"item-15468f119f75","sku":"_dnAnAmwo0TIr4C_RaGT95p-l6Pxa45DYgz6NwZg","name_en":"Chanel Women Bags","name_cn":"白金版▪️正品级 包装如图\nChane1 24B新款 口袋款垃圾袋\n专柜售价35500rmb购入开发\n\n今年上新的时髦点ꫛꫀꪝ\n以年份数字为命名❏\n对准它!!Chane1 22手袋〰️\"垃圾袋♥\"\n每个颜色都很爱!\n这草种得有点措不手及🤷‍♂️\n说垃圾袋也好 收纳袋也罢\n反正就是很对味🪄\n图片太多了实在火爆\n娱乐圈明星 超模们同款👀卷起来了!\n越看越上头呀!!\n\n五金:厚镀24k磨砂银\n皮料:亮面小牛皮\n尺寸:35*37*7 cm","specs":{"source":"wsxcme","sourceId":"_dnAnAmwo0TIr4C_RaGT95p-l6Pxa45DYgz6NwZg","sourceTagId":47002745,"sourceTagName":"香奈儿/女包","dimensions":{"lengthCm":35,"heightCm":37,"widthCm":7},"rawTitle":"白金版▪️正品级 包装如图\nChane1 24B新款 口袋款垃圾袋\n专柜售价35500rmb购入开发\n\n今年上新的时髦点ꫛꫀꪝ\n以年份数字为命名❏\n对准它!!Chane1 22手袋〰️\"垃圾袋♥\"\n每个颜色都很爱!\n这草种得有点措不手及🤷‍♂️\n说垃圾袋也好 收纳袋也罢\n反正就是很对味🪄\n图片太多了实在火爆\n娱乐圈明星 超模们同款👀卷起来了!\n越看越上头呀!!\n\n五金:厚镀24k磨砂银\n皮料:亮面小牛皮\n尺寸:35*37*7 cm"},"price":null,"currency":"CNY","moq":1,"category":"chanel-women-bags","status":"active","alibaba_url":null,"images":["https://xcimg.szwego.com/20240906/i1725605398_3137_0.jpg","https://xcimg.szwego.com/20240906/i1725605398_5532_1.jpg","https://xcimg.szwego.com/20240906/i1725605398_5086_2.jpg","https://xcimg.szwego.com/20240906/i1725605398_1575_3.jpg","https://xcimg.szwego.com/20240906/i1725605398_2944_4.jpg","https://xcimg.szwego.com/20240906/i1725605398_3705_5.jpg","https://xcimg.szwego.com/20240906/i1725605398_6175_6.jpg","https://xcimg.szwego.com/20240906/i1725605398_2985_7.jpg","https://xcimg.szwego.com/20240906/i1725605398_8368_8.jpg"],"created_at":"2024-09-24T07:45:17.195Z"},{"id":"item-122d47e93895","sku":"_dToTo64ME_8bCm5GllCX3Ec6BKwt4f2faqOvNHg","name_en":"Chanel Women Bags","name_cn":"白金版▪️正品级 包装如图\n新品到货🆕Chane1 23K系列🖤\nKelly 手提链条包大号 黑色 \n专柜售价35600rmb购入开发〰️\n\n全网最热🔥23k秋冬kelly手提袋\n叱咤整个秀场,简直美绝了〰️\n简约又复古的小手提很灵魂很舒适。\n又乖又耐看,实在绝对爱不释手❕\n\n五金:厚镀24k复古金\n皮料:Velierq亮面小牛皮\n尺寸: 13*19*7 cm\n4416","specs":{"source":"wsxcme","sourceId":"_dToTo64ME_8bCm5GllCX3Ec6BKwt4f2faqOvNHg","sourceTagId":47002745,"sourceTagName":"香奈儿/女包","dimensions":{"lengthCm":13,"heightCm":19,"widthCm":7},"rawTitle":"白金版▪️正品级 包装如图\n新品到货🆕Chane1 23K系列🖤\nKelly 手提链条包大号 黑色 \n专柜售价35600rmb购入开发〰️\n\n全网最热🔥23k秋冬kelly手提袋\n叱咤整个秀场,简直美绝了〰️\n简约又复古的小手提很灵魂很舒适。\n又乖又耐看,实在绝对爱不释手❕\n\n五金:厚镀24k复古金\n皮料:Velierq亮面小牛皮\n尺寸: 13*19*7 cm\n4416"},"price":null,"currency":"CNY","moq":1,"category":"chanel-women-bags","status":"active","alibaba_url":null,"images":["https://xcimg.szwego.com/20231115/i1700028511_2799_0.jpg","https://xcimg.szwego.com/20231115/i1700028511_3753_1.jpg","https://xcimg.szwego.com/20231115/i1700028511_624_2.jpg","https://xcimg.szwego.com/20231115/i1700028511_2930_3.jpg","https://xcimg.szwego.com/20231115/i1700028511_9758_4.jpg","https://xcimg.szwego.com/20231115/i1700028511_424_5.jpg","https://xcimg.szwego.com/20231115/i1700028511_9920_6.jpg","https://xcimg.szwego.com/20231115/i1700028511_936_7.jpg","https://xcimg.szwego.com/20231115/i1700028511_9099_8.jpg"],"created_at":"2024-05-01T03:19:54.393Z"},{"id":"item-11226d563808","sku":"_dZDZDD5BXx_EOXqDhY5CbWHEAO5dmNRfQtDkjrQ","name_en":"Chanel Women Bags","name_cn":"原厂皮\n25c牛皮嘻哈包\n香奈儿 chanel hobo 腋下包 嬉皮腋下包小号\n复古金币纽扣抽绳水桶包+菱格纹+复古黑金\n经典链条设计,高级感十足!日常出行必备,外观精美,质感细腻,无论休闲装还是正式场合都能轻松驾驭\n编号:AS5293 黑色牛仔布\n尺寸:30-26-14.   \n​","specs":{"source":"wsxcme","sourceId":"_dZDZDD5BXx_EOXqDhY5CbWHEAO5dmNRfQtDkjrQ","sourceTagId":47002745,"sourceTagName":"香奈儿/女包","rawTitle":"原厂皮\n25c牛皮嘻哈包\n香奈儿 chanel hobo 腋下包 嬉皮腋下包小号\n复古金币纽扣抽绳水桶包+菱格纹+复古黑金\n经典链条设计,高级感十足!日常出行必备,外观精美,质感细腻,无论休闲装还是正式场合都能轻松驾驭\n编号:AS5293 黑色牛仔布\n尺寸:30-26-14.   \n​"},"price":null,"currency":"CNY","moq":1,"category":"chanel-women-bags","status":"active","alibaba_url":null,"images":["https://xcimg.szwego.com/img/a5af95f4/20250416/i1744791943814_2207_0_0.jpg","https://xcimg.szwego.com/img/a5af95f4/20250416/i1744791943650_8282_0_1.jpg","https://xcimg.szwego.com/img/a5af95f4/20250416/i1744791947309_7722_0_2.jpg","https://xcimg.szwego.com/img/a5af95f4/20250416/i1744791947355_2934_0_3.jpg","https://xcimg.szwego.com/img/a5af95f4/20250416/i1744791953640_6220_0_4.jpg","https://xcimg.szwego.com/img/a5af95f4/20250416/i1744791953668_8880_0_5.jpg","https://xcimg.szwego.com/img/a5af95f4/20250416/i1744791953639_9565_0_6.jpg","https://xcimg.szwego.com/img/a5af95f4/20250416/i1744791943731_9248_0_7.jpg","https://xcimg.szwego.com/img/a5af95f4/20250416/i1744791953670_7438_0_8.jpg"],"created_at":"2025-09-09T05:17:44.461Z"},{"id":"item-108e2de339b5","sku":"_dxPxPOIKveejJSfaH_mrCxikc9fbOjBch9rb6tQ","name_en":"Chanel Women Bags","name_cn":"香奈儿/女包","specs":{"source":"wsxcme","sourceId":"_dxPxPOIKveejJSfaH_mrCxikc9fbOjBch9rb6tQ","sourceTagId":47002745,"sourceTagName":"香奈儿/女包","rawTitle":""},"price":null,"currency":"CNY","moq":1,"category":"chanel-women-bags","status":"active","alibaba_url":null,"images":["https://xcimg.szwego.com/img/d0c94e6f/20250910/i1757504720_6075_0.jpg"],"created_at":"2025-09-19T04:32:40.131Z"},{"id":"item-0bfa463b48ed","sku":"_dymyme5k5DR5q0xKFmaRRbHrxOqU9dxR-mJB59A","name_en":"Chanel Women Bags","name_cn":"正品级,高版本\nDIOR❤️TOUJOURS 手袋〔黑色小号〕\n这款Dior Toujours 手袋于二零二三春夏系列发布秀精彩亮相,休闲实用的设计别具一格.采用黑色牛皮革精心制作,饰以超大藤格纹缉面线,宽敞的内部隔层搭配小袋,可整齐收纳各种日常用品,另有CD Lock 字母D旋钮式开合,可调节两侧,提升格调.皮革手柄带有可调节细节细节,可轻松手提.          CD Lock和系带开合 DIOR吊饰 可拆卸内部小袋 可调节皮革手柄 内含防尘袋  \n\n型号:2822\n尺寸:23x15x15cm。","specs":{"source":"wsxcme","sourceId":"_dymyme5k5DR5q0xKFmaRRbHrxOqU9dxR-mJB59A","sourceTagId":47002745,"sourceTagName":"香奈儿/女包","modelNumber":"2822","dimensions":{"lengthCm":23,"heightCm":15,"widthCm":15},"rawTitle":"正品级,高版本\nDIOR❤️TOUJOURS 手袋〔黑色小号〕\n这款Dior Toujours 手袋于二零二三春夏系列发布秀精彩亮相,休闲实用的设计别具一格.采用黑色牛皮革精心制作,饰以超大藤格纹缉面线,宽敞的内部隔层搭配小袋,可整齐收纳各种日常用品,另有CD Lock 字母D旋钮式开合,可调节两侧,提升格调.皮革手柄带有可调节细节细节,可轻松手提.          CD Lock和系带开合 DIOR吊饰 可拆卸内部小袋 可调节皮革手柄 内含防尘袋  \n\n型号:2822\n尺寸:23x15x15cm。"},"price":null,"currency":"CNY","moq":1,"category":"chanel-women-bags","status":"active","alibaba_url":null,"images":["https://xcimg.szwego.com/img/ec683d96/20231207/i1701936736_6924_0.jpg","https://xcimg.szwego.com/img/ec683d96/20231207/i1701936736_3910_6.jpg","https://xcimg.szwego.com/img/ec683d96/20231207/i1701936736_3385_2.jpg","https://xcimg.szwego.com/img/ec683d96/20231207/i1701936736_4646_1.jpg","https://xcimg.szwego.com/img/ec683d96/20231207/i1701936736_9045_7.jpg","https://xcimg.szwego.com/img/ec683d96/20231207/i1701936736_4526_8.jpg","https://xcimg.szwego.com/img/ec683d96/20231207/i1701936736_2025_5.jpg","https://xcimg.szwego.com/img/ec683d96/20231207/i1701936736_9463_3.jpg","https://xcimg.szwego.com/img/ec683d96/20231207/i1701936736_6166_4.jpg"],"created_at":"2025-09-09T05:24:53.929Z"},{"id":"item-0a9287808018","sku":"_dededHT-TRwvTl5RYJrhu5XkzcJ6vKdPeAJSysA","name_en":"Chanel Women Bags","name_cn":"原厂皮 现货 典万年款中古康鹏枕头包[爱心]\n正品溢价22000购入[愉快]\n经典中的天花板,专柜早已绝版[强][强]目前中古店也是稀缺!实物确实耐看精致,非常好搭配!容量也超级大,推荐[笑脸][笑脸]\nA2979(12*21*9cm)","specs":{"source":"wsxcme","sourceId":"_dededHT-TRwvTl5RYJrhu5XkzcJ6vKdPeAJSysA","sourceTagId":47002745,"sourceTagName":"香奈儿/女包","rawTitle":"原厂皮 现货 典万年款中古康鹏枕头包[爱心]\n正品溢价22000购入[愉快]\n经典中的天花板,专柜早已绝版[强][强]目前中古店也是稀缺!实物确实耐看精致,非常好搭配!容量也超级大,推荐[笑脸][笑脸]\nA2979(12*21*9cm)"},"price":null,"currency":"CNY","moq":1,"category":"chanel-women-bags","status":"active","alibaba_url":null,"images":["https://xcimg.szwego.com/20241229/i1735468640_569_0.jpg","https://xcimg.szwego.com/20241229/i1735468640_9674_1.jpg","https://xcimg.szwego.com/20241229/i1735468640_1822_2.jpg","https://xcimg.szwego.com/20241229/i1735468640_5594_3.jpg","https://xcimg.szwego.com/20241229/i1735468640_5773_4.jpg","https://xcimg.szwego.com/20241229/i1735468640_8366_5.jpg","https://xcimg.szwego.com/20241229/i1735468640_7223_6.jpg","https://xcimg.szwego.com/20241229/i1735468640_877_7.jpg","https://xcimg.szwego.com/20241229/i1735468640_8472_8.jpg"],"created_at":"2025-02-11T12:08:15.949Z"},{"id":"item-09dcce55bc60","sku":"_dQ4Q4G3Ka4pOv3bTXvdSDDo1nirMuXNP1dRlU5w","name_en":"Chanel Women Bags","name_cn":"正品级\n 🇫🇷AS5293CHANEL 25款又一个以年份命名的款, 25c球纹皮嘻哈包 香奈儿hobo 腋下包 嬉皮腋下包小号 复古金币纽扣抽绳水桶包+菱格纹+复古黑金 经典链条设计,高级感十足!日常出行必备,外观精美,质感细腻,无论休闲装还是正式场合都能轻松驾驭 尺寸:30x26x14cm","specs":{"source":"wsxcme","sourceId":"_dQ4Q4G3Ka4pOv3bTXvdSDDo1nirMuXNP1dRlU5w","sourceTagId":47002745,"sourceTagName":"香奈儿/女包","dimensions":{"lengthCm":30,"heightCm":26,"widthCm":14},"rawTitle":"正品级\n 🇫🇷AS5293CHANEL 25款又一个以年份命名的款, 25c球纹皮嘻哈包 香奈儿hobo 腋下包 嬉皮腋下包小号 复古金币纽扣抽绳水桶包+菱格纹+复古黑金 经典链条设计,高级感十足!日常出行必备,外观精美,质感细腻,无论休闲装还是正式场合都能轻松驾驭 尺寸:30x26x14cm"},"price":null,"currency":"CNY","moq":1,"category":"chanel-women-bags","status":"active","alibaba_url":null,"images":["https://xcimg.szwego.com/imgHD/b5cc9469/20250402/cmp_a1743591780892_2713.jpg","https://xcimg.szwego.com/imgHD/b5cc9469/20250402/cmp_a1743591780893_8715.jpg","https://xcimg.szwego.com/imgHD/b5cc9469/20250402/cmp_a1743591780886_0016.jpg","https://xcimg.szwego.com/imgHD/b5cc9469/20250402/cmp_a1743591780887_4660.jpg","https://xcimg.szwego.com/imgHD/b5cc9469/20250402/cmp_a1743591780889_6317.jpg","https://xcimg.szwego.com/imgHD/b5cc9469/20250402/cmp_a1743591782169_1355.jpg","https://xcimg.szwego.com/imgHD/b5cc9469/20250402/cmp_a1743591782171_3144.jpg","https://xcimg.szwego.com/imgHD/b5cc9469/20250402/cmp_a1743591782219_6122.jpg","https://xcimg.szwego.com/imgHD/b5cc9469/20250402/cmp_a1743591782215_1125.jpg"],"created_at":"2025-09-09T05:17:44.446Z"},{"id":"item-09a417df57a4","sku":"_dxUxUhK34y6VsiVHZsmEJbfecCHIg9msGqGu3DQ","name_en":"Chanel Women Bags","name_cn":"新款出货","specs":{"source":"wsxcme","sourceId":"_dxUxUhK34y6VsiVHZsmEJbfecCHIg9msGqGu3DQ","sourceTagId":47002745,"sourceTagName":"香奈儿/女包","rawTitle":"新款出货"},"price":null,"currency":"CNY","moq":1,"category":"chanel-women-bags","status":"active","alibaba_url":null,"images":["https://xcimg.szwego.com/20250212/i1739372095_6975_0.jpg","https://xcimg.szwego.com/20250212/i1739372095_4185_1.jpg","https://xcimg.szwego.com/20250212/i1739372095_7630_2.jpg","https://xcimg.szwego.com/20250212/i1739372095_8931_3.jpg","https://xcimg.szwego.com/20250212/i1739372095_5834_4.jpg","https://xcimg.szwego.com/20250212/i1739372095_9072_5.jpg","https://xcimg.szwego.com/20250212/i1739372095_6943_6.jpg","https://xcimg.szwego.com/20250212/i1739372095_5513_7.jpg","https://xcimg.szwego.com/20250212/i1739372095_7649_8.jpg"],"created_at":"2025-03-07T06:37:36.368Z"},{"id":"item-09441d6d808b","sku":"_dxjxjaEP1mojsHwXzCawlhTts2U2aQtejGAhbeA","name_en":"Chanel Women Bags","name_cn":"。白金版▪️正品级 包装如图\n全新到货🆕Chane1 24s春夏\n双珍珠方胖子 灰色\n专柜售价47200rmb购入开发\n\n✨24s最闪耀的双珍珠口盖包\n链条两大汤圆是好运的降临呀💕\n滑链伸缩调节适合各种身高更方便了\n日常出街时髦感拉满,好美好气质啊\n\n五金:厚镀24k复古金\n皮料:   开料部真品小羊皮\n里皮:Montebello真品牛皮\n尺寸:11.5*17*5 cm","specs":{"source":"wsxcme","sourceId":"_dxjxjaEP1mojsHwXzCawlhTts2U2aQtejGAhbeA","sourceTagId":47002745,"sourceTagName":"香奈儿/女包","dimensions":{"lengthCm":11.5,"heightCm":17,"widthCm":5},"rawTitle":"。白金版▪️正品级 包装如图\n全新到货🆕Chane1 24s春夏\n双珍珠方胖子 灰色\n专柜售价47200rmb购入开发\n\n✨24s最闪耀的双珍珠口盖包\n链条两大汤圆是好运的降临呀💕\n滑链伸缩调节适合各种身高更方便了\n日常出街时髦感拉满,好美好气质啊\n\n五金:厚镀24k复古金\n皮料:   开料部真品小羊皮\n里皮:Montebello真品牛皮\n尺寸:11.5*17*5 cm"},"price":null,"currency":"CNY","moq":1,"category":"chanel-women-bags","status":"active","alibaba_url":null,"images":["https://xcimg.szwego.com/20240430/i1714460799_9611_0.jpg","https://xcimg.szwego.com/20240430/i1714460799_7649_1.jpg","https://xcimg.szwego.com/20240430/i1714460799_3385_2.jpg","https://xcimg.szwego.com/20240430/i1714460799_4652_3.jpg","https://xcimg.szwego.com/20240430/i1714460799_3254_4.jpg","https://xcimg.szwego.com/20240430/i1714460799_9436_5.jpg","https://xcimg.szwego.com/20240430/i1714460799_332_6.jpg","https://xcimg.szwego.com/20240430/i1714460799_9201_7.jpg","https://xcimg.szwego.com/20240430/i1714460799_2792_8.jpg"],"created_at":"2024-05-03T07:19:26.866Z"},{"id":"item-092f9c725527","sku":"_d0A0AXqro5gNPlu-dGlOw_knjuwHctTvzokfy2g","name_en":"Chanel Women Bags","name_cn":"上身图3980","specs":{"source":"wsxcme","sourceId":"_d0A0AXqro5gNPlu-dGlOw_knjuwHctTvzokfy2g","sourceTagId":47002745,"sourceTagName":"香奈儿/女包","rawTitle":"上身图3980"},"price":null,"currency":"CNY","moq":1,"category":"chanel-women-bags","status":"active","alibaba_url":null,"images":["https://xcimg.szwego.com/20230816/i1692173094_8385_0.jpg","https://xcimg.szwego.com/20230816/i1692173094_9245_1.jpg","https://xcimg.szwego.com/20230816/i1692173094_9353_2.jpg","https://xcimg.szwego.com/20230816/i1692173094_7142_3.jpg","https://xcimg.szwego.com/20230816/i1692173094_7041_4.jpg","https://xcimg.szwego.com/20230816/i1692173094_2886_5.jpg","https://xcimg.szwego.com/20230816/i1692173094_2018_6.jpg","https://xcimg.szwego.com/20230816/i1692173094_95_7.jpg","https://xcimg.szwego.com/20230816/i1692173094_1781_8.jpg"],"created_at":"2026-06-29T10:35:34.034Z"},{"id":"item-0172a3fc961a","sku":"_dakakpbfRlgd-bfEIbuJOoBkW7R6yKrrLEoLeeQ","name_en":"Chanel Women Bags","name_cn":"香奈儿/女包","specs":{"source":"wsxcme","sourceId":"_dakakpbfRlgd-bfEIbuJOoBkW7R6yKrrLEoLeeQ","sourceTagId":47002745,"sourceTagName":"香奈儿/女包","rawTitle":""},"price":null,"currency":"CNY","moq":1,"category":"chanel-women-bags","status":"active","alibaba_url":null,"images":["https://xcimg.szwego.com/img/fbe1a617/20250515/i1747305111199_2437_0_0.jpg"],"created_at":"2026-06-29T10:35:34.104Z"},{"id":"item-00d456704bba","sku":"_daxaxE0r4M_wPtmKXWaiWfIbbSg_P633qJ2sblw","name_en":"Chanel Women Bags","name_cn":"香奈儿/女包","specs":{"source":"wsxcme","sourceId":"_daxaxE0r4M_wPtmKXWaiWfIbbSg_P633qJ2sblw","sourceTagId":47002745,"sourceTagName":"香奈儿/女包","rawTitle":""},"price":null,"currency":"CNY","moq":1,"category":"chanel-women-bags","status":"active","alibaba_url":null,"images":["https://xcimg.szwego.com/img/d0c94e6f/20250823/i1755959593_3634_0.jpg"],"created_at":"2025-09-19T04:32:40.111Z"},{"id":"item-00d450ebfb66","sku":"_dAkAkGTqwLP3_HQ4uULpI0ws0aMi8_kEa9d649A","name_en":"Chanel Women Bags","name_cn":"白金版▪️正品级 包装如图\nChane1 23S春夏系列\n山茶花调节扣大mini 黑色🖤\n专柜售价41300rmb购入开发〰️\n\n23s山茶花调节扣链条口盖包\n具备cf的元素造型有着性感迷人的气质。\n设计方面更加优雅大方啦❕\n可️腋下、斜挎、单肩一包多用,很受欢迎哦👏🏻\n\n五金:全铜24K复古金\n皮料:   开料部zp小羊皮\n尺寸:13*20*7 cm","specs":{"source":"wsxcme","sourceId":"_dAkAkGTqwLP3_HQ4uULpI0ws0aMi8_kEa9d649A","sourceTagId":47002745,"sourceTagName":"香奈儿/女包","dimensions":{"lengthCm":13,"heightCm":20,"widthCm":7},"rawTitle":"白金版▪️正品级 包装如图\nChane1 23S春夏系列\n山茶花调节扣大mini 黑色🖤\n专柜售价41300rmb购入开发〰️\n\n23s山茶花调节扣链条口盖包\n具备cf的元素造型有着性感迷人的气质。\n设计方面更加优雅大方啦❕\n可️腋下、斜挎、单肩一包多用,很受欢迎哦👏🏻\n\n五金:全铜24K复古金\n皮料:   开料部zp小羊皮\n尺寸:13*20*7 cm"},"price":null,"currency":"CNY","moq":1,"category":"chanel-women-bags","status":"active","alibaba_url":null,"images":["https://xcimg.szwego.com/20230505/i1683264152_5355_0.jpg","https://xcimg.szwego.com/20230505/i1683264152_1166_1.jpg","https://xcimg.szwego.com/20230505/i1683264152_8843_2.jpg","https://xcimg.szwego.com/20230505/i1683264152_3530_3.jpg","https://xcimg.szwego.com/20230505/i1683264152_1318_4.jpg","https://xcimg.szwego.com/20230505/i1683264152_4449_5.jpg","https://xcimg.szwego.com/20230505/i1683264152_5429_6.jpg","https://xcimg.szwego.com/20230505/i1683264152_7422_7.jpg","https://xcimg.szwego.com/20230505/i1683264152_5513_8.jpg"],"created_at":"2024-05-01T03:19:54.379Z"},{"id":"item-fab25329e03c","sku":"_du3u3cNyp76fxD5DtdzzqtvlRS3_hLs130iy1mQ","name_en":"Chanel☪️25B双C logo手柄 CF mini AS5701 精致手柄设计更显时尚 颗粒牛皮配金属复古五金  质感耐磨耐用 经典设计风格 百搭实用 这季新品让人很惊喜 尺寸:12×19.5×6.5cm","name_cn":"Chanel☪️25B双C logo手柄 CF mini AS5701 精致手柄设计更显时尚 颗粒牛皮配金属复古五金  质感耐磨耐用 经典设计风格 百搭实用 这季新品让人很惊喜 尺寸:12×19.5×6.5cm","specs":{"source":"wsxcme","sourceId":"_du3u3cNyp76fxD5DtdzzqtvlRS3_hLs130iy1mQ","sourceTagId":47002745,"sourceTagName":"香奈儿/女包","dimensions":{"lengthCm":12,"heightCm":19.5,"widthCm":6.5},"rawTitle":"Chanel☪️25B双C logo手柄 CF mini AS5701 精致手柄设计更显时尚 颗粒牛皮配金属复古五金  质感耐磨耐用 经典设计风格 百搭实用 这季新品让人很惊喜 尺寸:12×19.5×6.5cm"},"price":null,"currency":"CNY","moq":1,"category":"chanel-women-bags","status":"active","alibaba_url":null,"images":["https://xcimg.szwego.com/img/70762a6f/20250802/i1754073568062_3716_0_0.jpg","https://xcimg.szwego.com/img/70762a6f/20250802/i1754073568790_9403_0_1.jpg","https://xcimg.szwego.com/img/70762a6f/20250802/i1754073610449_6372_0_8.jpg","https://xcimg.szwego.com/img/70762a6f/20250802/i1754073568394_3676_0_3.jpg","https://xcimg.szwego.com/img/70762a6f/20250802/i1754073568397_5588_0_4.jpg","https://xcimg.szwego.com/img/70762a6f/20250802/i1754073567727_6013_0_5.jpg","https://xcimg.szwego.com/img/70762a6f/20250802/i1754073568045_38_0_6.jpg","https://xcimg.szwego.com/img/70762a6f/20250802/i1754073568157_1328_0_7.jpg","https://xcimg.szwego.com/img/70762a6f/20250802/i1754073567389_6774_0_8.jpg"],"created_at":"2026-06-29T10:31:18.529Z"},{"id":"item-962e7c448ace","sku":"_dOnOns0fw8Jqs3fDl3xJPMRvsUcFe7YWXUjSvlg","name_en":"Chanel☪️25B双C logo手柄 CF mini AS5701 精致手柄设计更显时尚 颗粒牛皮配金属复古五金  质感耐磨耐用 经典设计风格 百搭实用 这季新品让人很惊喜 尺寸:12×19.5×6.5cm","name_cn":"Chanel☪️25B双C logo手柄 CF mini AS5701 精致手柄设计更显时尚 颗粒牛皮配金属复古五金  质感耐磨耐用 经典设计风格 百搭实用 这季新品让人很惊喜 尺寸:12×19.5×6.5cm","specs":{"source":"wsxcme","sourceId":"_dOnOns0fw8Jqs3fDl3xJPMRvsUcFe7YWXUjSvlg","sourceTagId":47002745,"sourceTagName":"香奈儿/女包","dimensions":{"lengthCm":12,"heightCm":19.5,"widthCm":6.5},"rawTitle":"Chanel☪️25B双C logo手柄 CF mini AS5701 精致手柄设计更显时尚 颗粒牛皮配金属复古五金  质感耐磨耐用 经典设计风格 百搭实用 这季新品让人很惊喜 尺寸:12×19.5×6.5cm"},"price":null,"currency":"CNY","moq":1,"category":"chanel-women-bags","status":"active","alibaba_url":null,"images":["https://xcimg.szwego.com/img/70762a6f/20250808/i1754592729482_2727_0_0.jpg","https://xcimg.szwego.com/img/70762a6f/20250808/i1754593020091_9015_0_1.jpg","https://xcimg.szwego.com/img/70762a6f/20250808/i1754593113400_1673_0_9.jpg","https://xcimg.szwego.com/img/70762a6f/20250808/i1754593019727_5019_0_3.jpg","https://xcimg.szwego.com/img/70762a6f/20250808/i1754593020307_9784_0_4.jpg","https://xcimg.szwego.com/img/70762a6f/20250808/i1754593020496_6120_0_5.jpg","https://xcimg.szwego.com/img/70762a6f/20250808/i1754593019848_9540_0_6.jpg","https://xcimg.szwego.com/img/70762a6f/20250808/i1754593020307_2738_0_7.jpg","https://xcimg.szwego.com/img/70762a6f/20250808/i1754593019726_2726_0_8.jpg"],"created_at":"2026-06-29T10:31:18.539Z"}],"page":43,"pageSize":24,"total":1102,"totalPages":46}
