{"items":[{"id":"item-ca64917daf6e","sku":"_d_I_IMMd15sSx9x23CcezZOW1PuR8oEdY3IN4ew","name_en":"Chanel Women Bags","name_cn":"6243","specs":{"source":"wsxcme","sourceId":"_d_I_IMMd15sSx9x23CcezZOW1PuR8oEdY3IN4ew","sourceTagId":47002745,"sourceTagName":"Chanel/women's bag","rawTitle":"6243"},"price":null,"currency":"CNY","moq":1,"category":"chanel-women-bags","status":"active","alibaba_url":null,"images":["https://xcimg.szwego.com/img/fbe1a617/20260602/i1780405382435_6874_0_0.jpg","https://xcimg.szwego.com/img/fbe1a617/20260602/i1780405372220_7199_0_0.jpg","https://xcimg.szwego.com/img/fbe1a617/20260602/i1780405398521_9269_0_2.jpg","https://xcimg.szwego.com/img/fbe1a617/20260602/i1780405377626_4641_0_0.jpg"],"created_at":"2026-06-29T10:35:34.424Z"},{"id":"item-bf8e62b242ea","sku":"_dlQlQ-PAAhG4ObMXBYQ8kWAB2nnzdvBgc-8PbeA","name_en":"Chanel Women Bags","name_cn":"Chanel/women's bag","specs":{"source":"wsxcme","sourceId":"_dlQlQ-PAAhG4ObMXBYQ8kWAB2nnzdvBgc-8PbeA","sourceTagId":47002745,"sourceTagName":"Chanel/women's bag","rawTitle":""},"price":null,"currency":"CNY","moq":1,"category":"chanel-women-bags","status":"active","alibaba_url":null,"images":["https://xcimg.szwego.com/img/d0c94e6f/20250910/i1757504621_2109_0.jpg"],"created_at":"2025-09-19T04:32:40.127Z"},{"id":"item-bdd1d7bd10e4","sku":"_dEgEgLLLTH_bI4uaaR6_21mEPGmba05HZc2mo5g","name_en":"Chanel Women Bags","name_cn":"5293","specs":{"source":"wsxcme","sourceId":"_dEgEgLLLTH_bI4uaaR6_21mEPGmba05HZc2mo5g","sourceTagId":47002745,"sourceTagName":"Chanel/women's bag","rawTitle":"5293"},"price":null,"currency":"CNY","moq":1,"category":"chanel-women-bags","status":"active","alibaba_url":null,"images":["https://xcimg.szwego.com/img/fbe1a617/20250322/i1742658753965_5168_0_0.jpg","https://xcimg.szwego.com/img/fbe1a617/20250322/i1742658753964_3230_0_1.jpg","https://xcimg.szwego.com/img/fbe1a617/20250322/i1742658753965_1296_0_2.jpg"],"created_at":"2026-06-29T10:35:34.224Z"},{"id":"item-ad4a368d6832","sku":"_dYYYY-iy4M0wAQvdM3qU3LDRZZ94skPhimM7okQ","name_en":"Chanel Women Bags","name_cn":"Chanel/women's bag","specs":{"source":"wsxcme","sourceId":"_dYYYY-iy4M0wAQvdM3qU3LDRZZ94skPhimM7okQ","sourceTagId":47002745,"sourceTagName":"Chanel/women's bag","rawTitle":""},"price":null,"currency":"CNY","moq":1,"category":"chanel-women-bags","status":"active","alibaba_url":null,"images":["https://xcimg.szwego.com/img/d0c94e6f/20250911/i1757599309_600_0.jpg"],"created_at":"2025-09-19T04:32:40.144Z"},{"id":"item-a28b434b4a2f","sku":"_dkbkb6bVdx_VHqKjDSVxIdxMg4T2Ox6-GgrKidQ","name_en":"Chanel Women Bags","name_cn":"Chanel/women's bag","specs":{"source":"wsxcme","sourceId":"_dkbkb6bVdx_VHqKjDSVxIdxMg4T2Ox6-GgrKidQ","sourceTagId":47002745,"sourceTagName":"Chanel/women's bag","rawTitle":""},"price":null,"currency":"CNY","moq":1,"category":"chanel-women-bags","status":"active","alibaba_url":null,"images":["https://xcimg.szwego.com/img/d0c94e6f/20250911/i1757599126_1707_0.jpg"],"created_at":"2025-09-19T04:32:40.138Z"},{"id":"item-9e07ba77291d","sku":"_d-E-EIivUraTaNEfqOx_kNcqfZpD_cWIiJD1-yQ","name_en":"Chanel Women Bags","name_cn":"Chanel/women's bag","specs":{"source":"wsxcme","sourceId":"_d-E-EIivUraTaNEfqOx_kNcqfZpD_cWIiJD1-yQ","sourceTagId":47002745,"sourceTagName":"Chanel/women's bag","rawTitle":""},"price":null,"currency":"CNY","moq":1,"category":"chanel-women-bags","status":"active","alibaba_url":null,"images":["https://xcimg.szwego.com/img/d0c94e6f/20250911/i1757599167_6795_0.jpg"],"created_at":"2025-09-19T04:32:40.136Z"},{"id":"item-8d4ce63813b0","sku":"_dHrHrsdX-3Ru1eu0C7HKMzT3YGzUK5-WwZT_hsw","name_en":"Chanel Women Bags","name_cn":"Chanel/women's bag","specs":{"source":"wsxcme","sourceId":"_dHrHrsdX-3Ru1eu0C7HKMzT3YGzUK5-WwZT_hsw","sourceTagId":47002745,"sourceTagName":"Chanel/women's bag","rawTitle":""},"price":null,"currency":"CNY","moq":1,"category":"chanel-women-bags","status":"active","alibaba_url":null,"images":["https://xcimg.szwego.com/img/fbe1a617/20250515/i1747305106545_458_0_0.jpg"],"created_at":"2026-06-29T10:35:34.094Z"},{"id":"item-894b277be188","sku":"_dkOkONCPyfg664raS1U-lG2XVCFF4O4vmqwXG4Q","name_en":"Chanel Women Bags","name_cn":"Chanel/women's bag","specs":{"source":"wsxcme","sourceId":"_dkOkONCPyfg664raS1U-lG2XVCFF4O4vmqwXG4Q","sourceTagId":47002745,"sourceTagName":"Chanel/women's bag","rawTitle":""},"price":null,"currency":"CNY","moq":1,"category":"chanel-women-bags","status":"active","alibaba_url":null,"images":["https://xcimg.szwego.com/img/d0c94e6f/20250811/i1754844177_6290_0.jpg"],"created_at":"2025-09-19T04:32:40.079Z"},{"id":"item-886c8a4703d7","sku":"_dohohE1IVb9zE6ozzuGgmCxwuRZkQyLQTdF875w","name_en":"Chanel Women Bags","name_cn":"Chanel/women's bag","specs":{"source":"wsxcme","sourceId":"_dohohE1IVb9zE6ozzuGgmCxwuRZkQyLQTdF875w","sourceTagId":47002745,"sourceTagName":"Chanel/women's bag","rawTitle":""},"price":null,"currency":"CNY","moq":1,"category":"chanel-women-bags","status":"active","alibaba_url":null,"images":["https://xcimg.szwego.com/img/d0c94e6f/20250828/i1756387970_5140_0.jpg"],"created_at":"2025-09-19T04:32:40.122Z"},{"id":"item-82992ae72574","sku":"_d-O-Ohj0RlBK_otDtNHmWRVwSWwWodJOkcVDKBw","name_en":"Chanel Women Bags","name_cn":"Chanel/women's bag","specs":{"source":"wsxcme","sourceId":"_d-O-Ohj0RlBK_otDtNHmWRVwSWwWodJOkcVDKBw","sourceTagId":47002745,"sourceTagName":"Chanel/women's bag","rawTitle":""},"price":null,"currency":"CNY","moq":1,"category":"chanel-women-bags","status":"active","alibaba_url":null,"images":["https://xcimg.szwego.com/img/d0c94e6f/20250902/i1756823936_2245_0.jpg"],"created_at":"2025-09-19T04:25:53.916Z"},{"id":"item-809b2522871d","sku":"_dp3p3n7HwrKc9q7VD5ZQbdl-Oo_HLxx3dZjED_g","name_en":"Chanel Women Bags","name_cn":"Chanel/women's bag","specs":{"source":"wsxcme","sourceId":"_dp3p3n7HwrKc9q7VD5ZQbdl-Oo_HLxx3dZjED_g","sourceTagId":47002745,"sourceTagName":"Chanel/women's bag","rawTitle":""},"price":null,"currency":"CNY","moq":1,"category":"chanel-women-bags","status":"active","alibaba_url":null,"images":["https://xcimg.szwego.com/img/d0c94e6f/20250911/i1757599357_9362_0.jpg"],"created_at":"2025-09-19T04:32:40.140Z"},{"id":"item-7cdf2b71ac94","sku":"_d7_7_1P1iJ5qZZhQL8qw858R-yZXBtPoucb_DoA","name_en":"Chanel Women Bags","name_cn":"Chanel/women's bag","specs":{"source":"wsxcme","sourceId":"_d7_7_1P1iJ5qZZhQL8qw858R-yZXBtPoucb_DoA","sourceTagId":47002745,"sourceTagName":"Chanel/women's bag","rawTitle":""},"price":null,"currency":"CNY","moq":1,"category":"chanel-women-bags","status":"active","alibaba_url":null,"images":["https://xcimg.szwego.com/img/d0c94e6f/20250811/i1754844037_511_0.jpg"],"created_at":"2025-09-19T04:32:40.077Z"},{"id":"item-7ba0a7b198fa","sku":"_dbhbh0T5xyey39eLcbYkusLJTW074118JH7KNug","name_en":"Chanel Women Bags","name_cn":"Chanel/women's bag","specs":{"source":"wsxcme","sourceId":"_dbhbh0T5xyey39eLcbYkusLJTW074118JH7KNug","sourceTagId":47002745,"sourceTagName":"Chanel/women's bag","rawTitle":""},"price":null,"currency":"CNY","moq":1,"category":"chanel-women-bags","status":"active","alibaba_url":null,"images":["https://xcimg.szwego.com/img/d0c94e6f/20250823/i1755879341_2128_0.jpg"],"created_at":"2025-09-19T04:32:40.084Z"},{"id":"item-7abacf4db89b","sku":"_dmHmH1Dpw_n8UGBJMC7srao5Lkmtwv2-fY32NdQ","name_en":"Chanel Women Bags","name_cn":"Chanel/women's bag","specs":{"source":"wsxcme","sourceId":"_dmHmH1Dpw_n8UGBJMC7srao5Lkmtwv2-fY32NdQ","sourceTagId":47002745,"sourceTagName":"Chanel/women's bag","rawTitle":""},"price":null,"currency":"CNY","moq":1,"category":"chanel-women-bags","status":"active","alibaba_url":null,"images":["https://xcimg.szwego.com/img/d0c94e6f/20250823/i1755959657_91_0.jpg"],"created_at":"2025-09-19T04:32:40.113Z"},{"id":"item-7512d4ca264e","sku":"_dLvLvPaXv4lfpdS9eYM4-EMaHtV0ReifBuj7DEA","name_en":"Chanel Women Bags","name_cn":"Chanel/women's bag","specs":{"source":"wsxcme","sourceId":"_dLvLvPaXv4lfpdS9eYM4-EMaHtV0ReifBuj7DEA","sourceTagId":47002745,"sourceTagName":"Chanel/women's bag","rawTitle":""},"price":null,"currency":"CNY","moq":1,"category":"chanel-women-bags","status":"active","alibaba_url":null,"images":["https://xcimg.szwego.com/img/d0c94e6f/20250813/i1755087171_9648_0.jpg"],"created_at":"2025-09-19T04:32:40.103Z"},{"id":"item-71ed81340f5c","sku":"_dxvxvfdz4XLjbGFh1uFndojrwaJ8kBjBnwKHtcw","name_en":"Chanel Women Bags","name_cn":"Chanel/women's bag","specs":{"source":"wsxcme","sourceId":"_dxvxvfdz4XLjbGFh1uFndojrwaJ8kBjBnwKHtcw","sourceTagId":47002745,"sourceTagName":"Chanel/women's bag","rawTitle":""},"price":null,"currency":"CNY","moq":1,"category":"chanel-women-bags","status":"active","alibaba_url":null,"images":["https://xcimg.szwego.com/img/fbe1a617/20250515/i1747305116128_5734_0_0.jpg"],"created_at":"2026-06-29T10:35:34.114Z"},{"id":"item-6a9d3fac0b23","sku":"_dxKxKbFERMOQps1rTzTpc3FtWa6aiKEPS3PSS8w","name_en":"Chanel Women Bags","name_cn":"Chanel/women's bag","specs":{"source":"wsxcme","sourceId":"_dxKxKbFERMOQps1rTzTpc3FtWa6aiKEPS3PSS8w","sourceTagId":47002745,"sourceTagName":"Chanel/women's bag","rawTitle":""},"price":null,"currency":"CNY","moq":1,"category":"chanel-women-bags","status":"active","alibaba_url":null,"images":["https://xcimg.szwego.com/img/d0c94e6f/20250827/i1756302914_2810_0.jpg"],"created_at":"2025-09-19T04:32:40.082Z"},{"id":"item-673b5484f6ed","sku":"_dv3v3aDa-OtggtDbZQB7KT41VR_Csz-GO5V-a0w","name_en":"Chanel Women Bags","name_cn":"Chanel/women's bag","specs":{"source":"wsxcme","sourceId":"_dv3v3aDa-OtggtDbZQB7KT41VR_Csz-GO5V-a0w","sourceTagId":47002745,"sourceTagName":"Chanel/women's bag","rawTitle":""},"price":null,"currency":"CNY","moq":1,"category":"chanel-women-bags","status":"active","alibaba_url":null,"images":["https://xcimg.szwego.com/img/d0c94e6f/20250910/i1757504650_8482_0.jpg"],"created_at":"2025-09-19T04:32:40.129Z"},{"id":"item-66b7fc4e5c7e","sku":"_dtitiEx7gokA7rhYMppzVRfm7lZ5hCXJIuBEFgQ","name_en":"Chanel Women Bags","name_cn":"Chanel/women's bag","specs":{"source":"wsxcme","sourceId":"_dtitiEx7gokA7rhYMppzVRfm7lZ5hCXJIuBEFgQ","sourceTagId":47002745,"sourceTagName":"Chanel/women's bag","rawTitle":""},"price":null,"currency":"CNY","moq":1,"category":"chanel-women-bags","status":"active","alibaba_url":null,"images":["https://xcimg.szwego.com/img/d0c94e6f/20250823/i1755959850_776_0.jpg"],"created_at":"2025-09-19T04:32:40.107Z"},{"id":"item-60a9de8eae52","sku":"_dtptpLefqz_AMREoF3b6O49Ggu4zR7kREFGqsCg","name_en":"Chanel Women Bags","name_cn":"Chanel/women's bag","specs":{"source":"wsxcme","sourceId":"_dtptpLefqz_AMREoF3b6O49Ggu4zR7kREFGqsCg","sourceTagId":47002745,"sourceTagName":"Chanel/women's bag","rawTitle":""},"price":null,"currency":"CNY","moq":1,"category":"chanel-women-bags","status":"active","alibaba_url":null,"images":["https://xcimg.szwego.com/img/d0c94e6f/20250823/i1755879951_7168_0.jpg"],"created_at":"2025-09-19T04:32:40.091Z"},{"id":"item-5edf461d2b1b","sku":"_df0f0Gbu0O5Gf108SZCcA682rzGenEKD5RzPluA","name_en":"Chanel Women Bags","name_cn":"3980","specs":{"source":"wsxcme","sourceId":"_df0f0Gbu0O5Gf108SZCcA682rzGenEKD5RzPluA","sourceTagId":47002745,"sourceTagName":"Chanel/women's bag","rawTitle":"3980"},"price":null,"currency":"CNY","moq":1,"category":"chanel-women-bags","status":"active","alibaba_url":null,"images":["https://xcimg.szwego.com/20230816/i1692173309_9138_0.jpg","https://xcimg.szwego.com/20230816/i1692173309_9798_1.jpg","https://xcimg.szwego.com/20230816/i1692173309_7923_2.jpg","https://xcimg.szwego.com/20230816/i1692173309_6896_3.jpg","https://xcimg.szwego.com/20230816/i1692173309_9076_4.jpg","https://xcimg.szwego.com/20230816/i1692173309_3752_5.jpg","https://xcimg.szwego.com/20230816/i1692173309_9931_6.jpg","https://xcimg.szwego.com/20230816/i1692173309_6170_7.jpg","https://xcimg.szwego.com/20230816/i1692173309_7997_8.jpg"],"created_at":"2026-06-29T10:35:34.064Z"},{"id":"item-593130a4728e","sku":"_dw2w2j1_OoBivWOx-l5fFGb3USpUOyjqArHlBGA","name_en":"Chanel Women Bags","name_cn":"Chanel/women's bag","specs":{"source":"wsxcme","sourceId":"_dw2w2j1_OoBivWOx-l5fFGb3USpUOyjqArHlBGA","sourceTagId":47002745,"sourceTagName":"Chanel/women's bag","rawTitle":""},"price":null,"currency":"CNY","moq":1,"category":"chanel-women-bags","status":"active","alibaba_url":null,"images":["https://xcimg.szwego.com/img/d0c94e6f/20250902/i1756824035_3263_0.jpg"],"created_at":"2025-09-19T04:25:53.920Z"},{"id":"item-5507c8c4860a","sku":"_dx4x4YF6sFAHRmIozDS-RyMlHv3wYd57CLc2l5A","name_en":"Chanel Women Bags","name_cn":"Chanel/women's bag","specs":{"source":"wsxcme","sourceId":"_dx4x4YF6sFAHRmIozDS-RyMlHv3wYd57CLc2l5A","sourceTagId":47002745,"sourceTagName":"Chanel/women's bag","rawTitle":""},"price":null,"currency":"CNY","moq":1,"category":"chanel-women-bags","status":"active","alibaba_url":null,"images":["https://xcimg.szwego.com/img/d0c94e6f/20250823/i1755962161_4979_0.jpg"],"created_at":"2025-09-19T04:32:40.109Z"},{"id":"item-52313c46ffb2","sku":"_dq4q4jS4X3h-1Y9V8-_GVbUnp-5XSCZXmFQMUdQ","name_en":"Chanel Women Bags","name_cn":"Chanel/women's bag","specs":{"source":"wsxcme","sourceId":"_dq4q4jS4X3h-1Y9V8-_GVbUnp-5XSCZXmFQMUdQ","sourceTagId":47002745,"sourceTagName":"Chanel/women's bag","rawTitle":""},"price":null,"currency":"CNY","moq":1,"category":"chanel-women-bags","status":"active","alibaba_url":null,"images":["https://xcimg.szwego.com/img/d0c94e6f/20250823/i1755879885_184_0.jpg"],"created_at":"2025-09-19T04:32:40.089Z"}],"page":26,"pageSize":24,"total":1102,"totalPages":46}
