{"items":[{"id":"item-dc4c4cf20439","sku":"_duwuwxL3O40LWB2ceYwfai6UdwuOK7DTWu-OYQg","name_en":"Chanel 黑牛仔CF25cm 大货实拍","name_cn":"Chanel 黑牛仔CF25cm 大货实拍\n\n太喜欢这个小香牛仔风格了💙迫不及待入手了\n看起来会很挑人的颜色,实际上会给你惊喜的程度👍👍背上身一定是最特别最亮眼的小仙女🫡优雅时尚就是它的代名词了吧❤️‍🔥黑色牛仔色,搭配银色链条再加上银色五金,很难不爱啊❤️CF25cm尺寸,容量太足够了,出门逛街约会都可以,跟小姐妹一人一个闺蜜包也是太美了❗️❗️这是可以背N年的超久爆款💙\n\nSize:25cm\n型号:1112牛仔","specs":{"source":"wsxcme","sourceId":"_duwuwxL3O40LWB2ceYwfai6UdwuOK7DTWu-OYQg","sourceTagId":47002745,"sourceTagName":"香奈儿/女包","modelNumber":"1112牛仔","rawTitle":"Chanel 黑牛仔CF25cm 大货实拍\n\n太喜欢这个小香牛仔风格了💙迫不及待入手了\n看起来会很挑人的颜色,实际上会给你惊喜的程度👍👍背上身一定是最特别最亮眼的小仙女🫡优雅时尚就是它的代名词了吧❤️‍🔥黑色牛仔色,搭配银色链条再加上银色五金,很难不爱啊❤️CF25cm尺寸,容量太足够了,出门逛街约会都可以,跟小姐妹一人一个闺蜜包也是太美了❗️❗️这是可以背N年的超久爆款💙\n\nSize:25cm\n型号:1112牛仔"},"price":null,"currency":"CNY","moq":1,"category":"chanel-women-bags","status":"active","alibaba_url":null,"images":["https://xcimg.szwego.com/img/b885826e/20241011/i1728625576_6880_3.jpg","https://xcimg.szwego.com/img/b885826e/20241011/i1728625576_7918_2.jpg","https://xcimg.szwego.com/img/b885826e/20241011/i1728625576_1578_5.jpg","https://xcimg.szwego.com/img/b885826e/20241011/i1728625576_9459_0.jpg","https://xcimg.szwego.com/img/b885826e/20241011/i1728625576_5807_4.jpg","https://xcimg.szwego.com/img/b885826e/20241011/i1728625576_450_1.jpg","https://xcimg.szwego.com/img/b885826e/20241011/i1728625576_1169_8.jpg","https://xcimg.szwego.com/img/b885826e/20241011/i1728625576_1452_6.jpg","https://xcimg.szwego.com/img/b885826e/20241011/i1728625576_2361_7.jpg"],"created_at":"2024-11-26T11:47:21.496Z"},{"id":"item-bd8d0ba14dab","sku":"_dcfcfUe5u4osPlM1fE7hQ1sEa16oiilunqvkVtA","name_en":"chanel 泰迪31bag 细节","name_cn":"chanel 泰迪31bag 细节 \n\n型号AS4133","specs":{"source":"wsxcme","sourceId":"_dcfcfUe5u4osPlM1fE7hQ1sEa16oiilunqvkVtA","sourceTagId":47002745,"sourceTagName":"香奈儿/女包","modelNumber":"AS4133","rawTitle":"chanel 泰迪31bag 细节 \n\n型号AS4133"},"price":null,"currency":"CNY","moq":1,"category":"chanel-women-bags","status":"active","alibaba_url":null,"images":["https://xcimg.szwego.com/img/b885826e/20231221/i1703092067_9682_0.jpg","https://xcimg.szwego.com/img/b885826e/20231221/i1703092067_9926_1.jpg","https://xcimg.szwego.com/img/b885826e/20231221/i1703092067_691_2.jpg","https://xcimg.szwego.com/img/b885826e/20231221/i1703092067_3256_3.jpg","https://xcimg.szwego.com/img/b885826e/20231221/i1703092067_402_4.jpg","https://xcimg.szwego.com/img/b885826e/20231221/i1703092067_2279_5.jpg","https://xcimg.szwego.com/img/b885826e/20231221/i1703092067_2219_6.jpg","https://xcimg.szwego.com/img/b885826e/20231221/i1703092067_6114_7.jpg"],"created_at":"2024-11-26T11:47:21.494Z"},{"id":"item-2af5751bb890","sku":"_dtHtHEdM4QEItjVrZdxESEag_rOgzxbrLC_9Zig","name_en":"CHANEL 网兜购物袋","name_cn":"CHANEL 网兜购物袋\n尺寸:底长30cm 高40cm 加链条60cm\ncf小挂包13x11cm","specs":{"source":"wsxcme","sourceId":"_dtHtHEdM4QEItjVrZdxESEag_rOgzxbrLC_9Zig","sourceTagId":47002745,"sourceTagName":"香奈儿/女包","rawTitle":"CHANEL 网兜购物袋\n尺寸:底长30cm 高40cm 加链条60cm\ncf小挂包13x11cm"},"price":null,"currency":"CNY","moq":1,"category":"chanel-women-bags","status":"active","alibaba_url":null,"images":["https://xcimg.szwego.com/img/834e1079/20240601/a1717228315375_8507.jpg","https://xcimg.szwego.com/img/834e1079/20240601/a1717228314891_1121.jpg","https://xcimg.szwego.com/img/834e1079/20240601/a1717228315010_4480.jpg","https://xcimg.szwego.com/img/834e1079/20240601/a1717228314917_6652.jpg","https://xcimg.szwego.com/img/834e1079/20240601/a1717228314819_6725.jpg","https://xcimg.szwego.com/img/834e1079/20240601/a1717228314849_0840.jpg","https://xcimg.szwego.com/img/834e1079/20240601/a1717228316358_2112.jpg","https://xcimg.szwego.com/img/834e1079/20240601/a1717228316390_5281.jpg","https://xcimg.szwego.com/img/834e1079/20240601/a1717228316421_4703.jpg"],"created_at":"2024-09-10T05:52:21.166Z"},{"id":"item-845e56b4d1ce","sku":"_do7o7u1Xs8Vyi-ypbUvXDfS1Kv0YSlbiqhTsFpQ","name_en":"chanel 中古包 亚光牛皮 手感超级柔软 斜跨大包满满的复古风 简约大气百搭 内层大容量 邮差包尺寸37.26","name_cn":"chanel 中古包 亚光牛皮 手感超级柔软 斜跨大包满满的复古风 简约大气百搭 内层大容量 邮差包尺寸37.26","specs":{"source":"wsxcme","sourceId":"_do7o7u1Xs8Vyi-ypbUvXDfS1Kv0YSlbiqhTsFpQ","sourceTagId":47002745,"sourceTagName":"香奈儿/女包","rawTitle":"chanel 中古包 亚光牛皮 手感超级柔软 斜跨大包满满的复古风 简约大气百搭 内层大容量 邮差包尺寸37.26"},"price":null,"currency":"CNY","moq":1,"category":"chanel-women-bags","status":"active","alibaba_url":null,"images":["https://xcimg.szwego.com/20201103/i1604386530_397_0.jpg","https://xcimg.szwego.com/20201103/i1604386530_6579_1.jpg","https://xcimg.szwego.com/20201103/i1604386530_5018_2.jpg","https://xcimg.szwego.com/20201103/i1604386530_3613_3.jpg","https://xcimg.szwego.com/20201103/i1604386530_801_4.jpg","https://xcimg.szwego.com/20201103/i1604386530_4070_5.jpg","https://xcimg.szwego.com/20201103/i1604386530_3760_6.jpg","https://xcimg.szwego.com/20201103/i1604386530_8981_7.jpg","https://xcimg.szwego.com/20201103/i1604386530_3424_8.jpg"],"created_at":"2024-05-01T03:19:54.414Z"},{"id":"item-68ef440e7b24","sku":"_dxyxyDlMcAbKHlbPabZZ992uY0w-78oOjREpMYg","name_en":"CHANEL cf系列 🐠大球 #经典款!!   订制西班牙进口原厂细球小牛皮    手感柔软 版形超赞[强] 独家正品开发、底部任意拧压都会变回原型   白搭时尚款,华丽与气沿,是你想不到的尊贵 实物更完美!","name_cn":"CHANEL cf系列 🐠大球 #经典款!!   订制西班牙进口原厂细球小牛皮    手感柔软 版形超赞[强] 独家正品开发、底部任意拧压都会变回原型   白搭时尚款,华丽与气沿,是你想不到的尊贵 实物更完美!\n款号:1112\n颜色:黑色\n五金:金扣\n尺寸:25.5*15.5*6.5cn","specs":{"source":"wsxcme","sourceId":"_dxyxyDlMcAbKHlbPabZZ992uY0w-78oOjREpMYg","sourceTagId":47002745,"sourceTagName":"香奈儿/女包","modelNumber":"1112","rawTitle":"CHANEL cf系列 🐠大球 #经典款!!   订制西班牙进口原厂细球小牛皮    手感柔软 版形超赞[强] 独家正品开发、底部任意拧压都会变回原型   白搭时尚款,华丽与气沿,是你想不到的尊贵 实物更完美!\n款号:1112\n颜色:黑色\n五金:金扣\n尺寸:25.5*15.5*6.5cn"},"price":null,"currency":"CNY","moq":1,"category":"chanel-women-bags","status":"active","alibaba_url":null,"images":["https://xcimg.szwego.com/20220806/a1659796366345_8556.jpg","https://xcimg.szwego.com/20220806/a1659796366433_7471.jpg","https://xcimg.szwego.com/20220806/a1659796366532_5810.jpg","https://xcimg.szwego.com/20220806/a1659796366625_3374.jpg","https://xcimg.szwego.com/20220825/a1661368745869_0561.jpg","https://xcimg.szwego.com/20220806/a1659796367005_2545.jpg","https://xcimg.szwego.com/20220806/a1659796367105_5861.jpg","https://xcimg.szwego.com/20220806/a1659796367234_0713.jpg","https://xcimg.szwego.com/20220806/a1659796367309_7275.jpg"],"created_at":"2024-08-04T12:55:15.614Z"},{"id":"item-0e9a2a75e866","sku":"_dD4D4J21NdViSdx_Gts3x4xkeYfC1cFrARNJMPQ","name_en":"CHANEL GABRIELLE小号流浪包 复古五金➕褶皱小牛皮 尺寸:20x15x8cm 款号:91810","name_cn":"CHANEL GABRIELLE小号流浪包 复古五金➕褶皱小牛皮 尺寸:20x15x8cm 款号:91810","specs":{"source":"wsxcme","sourceId":"_dD4D4J21NdViSdx_Gts3x4xkeYfC1cFrARNJMPQ","sourceTagId":47002745,"sourceTagName":"香奈儿/女包","modelNumber":"91810","dimensions":{"lengthCm":20,"heightCm":15,"widthCm":8},"rawTitle":"CHANEL GABRIELLE小号流浪包 复古五金➕褶皱小牛皮 尺寸:20x15x8cm 款号:91810"},"price":null,"currency":"CNY","moq":1,"category":"chanel-women-bags","status":"active","alibaba_url":null,"images":["https://xcimg.szwego.com/20220428/a1651133415881_8643.jpg","https://xcimg.szwego.com/20220428/a1651133416011_5257.jpg","https://xcimg.szwego.com/20220428/a1651133416161_6112.jpg","https://xcimg.szwego.com/20220428/a1651133416262_3016.jpg","https://xcimg.szwego.com/20220428/a1651133416346_1702.jpg","https://xcimg.szwego.com/20220428/a1651133416464_7437.jpg","https://xcimg.szwego.com/20220428/a1651133416553_5408.jpg","https://xcimg.szwego.com/20220428/a1651133416640_0543.jpg","https://xcimg.szwego.com/20220428/a1651133416897_3818.jpg"],"created_at":"2024-11-26T11:47:21.522Z"},{"id":"item-5d553cb2eda5","sku":"_dqiqiNulGJWCQtQF_o1_Y5yUyuaNKaASaJhKiCA","name_en":"CHANEL GABRIELLE中号流浪包 复古五金➕褶皱小牛皮 尺寸:26x20x9cm 款号:1582","name_cn":"CHANEL GABRIELLE中号流浪包 复古五金➕褶皱小牛皮 尺寸:26x20x9cm 款号:1582","specs":{"source":"wsxcme","sourceId":"_dqiqiNulGJWCQtQF_o1_Y5yUyuaNKaASaJhKiCA","sourceTagId":47002745,"sourceTagName":"香奈儿/女包","modelNumber":"1582","dimensions":{"lengthCm":26,"heightCm":20,"widthCm":9},"rawTitle":"CHANEL GABRIELLE中号流浪包 复古五金➕褶皱小牛皮 尺寸:26x20x9cm 款号:1582"},"price":null,"currency":"CNY","moq":1,"category":"chanel-women-bags","status":"active","alibaba_url":null,"images":["https://xcimg.szwego.com/20220428/a1651133456227_0425.jpg","https://xcimg.szwego.com/20220428/a1651133456340_8550.jpg","https://xcimg.szwego.com/20220428/a1651133456478_2633.jpg","https://xcimg.szwego.com/20220428/a1651133456579_6771.jpg","https://xcimg.szwego.com/20220428/a1651133456680_7133.jpg","https://xcimg.szwego.com/20220428/a1651133456797_6354.jpg","https://xcimg.szwego.com/20220428/a1651133456879_8045.jpg","https://xcimg.szwego.com/20220428/a1651133457003_5350.jpg","https://xcimg.szwego.com/20220428/a1651133457315_2431.jpg"],"created_at":"2024-11-26T11:47:21.523Z"},{"id":"item-aa0a7cec3354","sku":"_dwwwwsAOKcaxu7TrLf_ophe1YytHRCXSwQrJi6w","name_en":"Chanel Leboy","name_cn":"Chanel Leboy\n\n菱格鱼子酱牛皮➕复古五金\n\n款号:67086,尺寸:25x15x9cm","specs":{"source":"wsxcme","sourceId":"_dwwwwsAOKcaxu7TrLf_ophe1YytHRCXSwQrJi6w","sourceTagId":47002745,"sourceTagName":"香奈儿/女包","modelNumber":"67086","dimensions":{"lengthCm":25,"heightCm":15,"widthCm":9},"rawTitle":"Chanel Leboy\n\n菱格鱼子酱牛皮➕复古五金\n\n款号:67086,尺寸:25x15x9cm"},"price":null,"currency":"CNY","moq":1,"category":"chanel-women-bags","status":"active","alibaba_url":null,"images":["https://xcimg.szwego.com/20220428/a1651134496106_1780.jpg","https://xcimg.szwego.com/20220428/a1651134496230_2464.jpg","https://xcimg.szwego.com/20220428/a1651134496381_5381.jpg","https://xcimg.szwego.com/20220428/a1651134496481_8014.jpg","https://xcimg.szwego.com/20220428/a1651134496596_6100.jpg","https://xcimg.szwego.com/20220428/a1651134496748_5270.jpg","https://xcimg.szwego.com/20220428/a1651134496874_5224.jpg","https://xcimg.szwego.com/20220428/a1651134497251_7741.jpg","https://xcimg.szwego.com/20220428/a1651134497530_8183.jpg"],"created_at":"2024-11-26T11:47:21.519Z"},{"id":"item-2aa0ddfb04c1","sku":"_dpapanLv9EztYMHgzIrahHNseW9YxOoUyg5ZKqw","name_en":"Chanel Leboy","name_cn":"Chanel Leboy\n\n菱格鱼子酱牛皮➕复古五金\n\n款号:67086,尺寸:25x15x9cm","specs":{"source":"wsxcme","sourceId":"_dpapanLv9EztYMHgzIrahHNseW9YxOoUyg5ZKqw","sourceTagId":47002745,"sourceTagName":"香奈儿/女包","modelNumber":"67086","dimensions":{"lengthCm":25,"heightCm":15,"widthCm":9},"rawTitle":"Chanel Leboy\n\n菱格鱼子酱牛皮➕复古五金\n\n款号:67086,尺寸:25x15x9cm"},"price":null,"currency":"CNY","moq":1,"category":"chanel-women-bags","status":"active","alibaba_url":null,"images":["https://xcimg.szwego.com/20220428/a1651134469460_4636.jpg","https://xcimg.szwego.com/20220428/a1651134469634_2108.jpg","https://xcimg.szwego.com/20220428/a1651134469757_8155.jpg","https://xcimg.szwego.com/20220428/a1651134469860_2821.jpg","https://xcimg.szwego.com/20220428/a1651134470000_4240.jpg","https://xcimg.szwego.com/20220428/a1651134470249_5180.jpg","https://xcimg.szwego.com/20220428/a1651134470375_7224.jpg","https://xcimg.szwego.com/20220428/a1651134470740_3152.jpg","https://xcimg.szwego.com/20220428/a1651134471037_3220.jpg"],"created_at":"2024-11-26T11:47:21.520Z"},{"id":"item-08a3a5e6939b","sku":"_dkdkdPlx_rmB--MXe7IQ-RlrszncADKv3IZ14XQ","name_en":"Chanel Leboy 菱格鱼子酱牛皮➕复古五金 款号:67085,尺寸:20.5x12x8.5cm","name_cn":"Chanel Leboy 菱格鱼子酱牛皮➕复古五金 款号:67085,尺寸:20.5x12x8.5cm","specs":{"source":"wsxcme","sourceId":"_dkdkdPlx_rmB--MXe7IQ-RlrszncADKv3IZ14XQ","sourceTagId":47002745,"sourceTagName":"香奈儿/女包","modelNumber":"67085","dimensions":{"lengthCm":20.5,"heightCm":12,"widthCm":8.5},"rawTitle":"Chanel Leboy 菱格鱼子酱牛皮➕复古五金 款号:67085,尺寸:20.5x12x8.5cm"},"price":null,"currency":"CNY","moq":1,"category":"chanel-women-bags","status":"active","alibaba_url":null,"images":["https://xcimg.szwego.com/20220428/a1651134231375_3450.jpg","https://xcimg.szwego.com/20220428/a1651134231486_8112.jpg","https://xcimg.szwego.com/20220428/a1651134231610_0432.jpg","https://xcimg.szwego.com/20220428/a1651134231697_8561.jpg","https://xcimg.szwego.com/20220428/a1651134231809_7281.jpg","https://xcimg.szwego.com/20220428/a1651134231926_4316.jpg","https://xcimg.szwego.com/20220428/a1651134232031_7523.jpg","https://xcimg.szwego.com/20220428/a1651134232421_2657.jpg","https://xcimg.szwego.com/20220428/a1651134232717_2111.jpg"],"created_at":"2024-11-26T11:47:21.521Z"},{"id":"item-3525f552b18d","sku":"_depepIMOkwAafYXljhL1V1d5emslF_zXSpch8_g","name_en":"CHANEL MINI CF亮片晚宴包","name_cn":"CHANEL MINI CF亮片晚宴包\n羊皮内里➕全钢五金\n黄色渐变像枫叶🍁\n尺寸:20x15x7cm\n款号:4144","specs":{"source":"wsxcme","sourceId":"_depepIMOkwAafYXljhL1V1d5emslF_zXSpch8_g","sourceTagId":47002745,"sourceTagName":"香奈儿/女包","modelNumber":"4144","dimensions":{"lengthCm":20,"heightCm":15,"widthCm":7},"rawTitle":"CHANEL MINI CF亮片晚宴包\n羊皮内里➕全钢五金\n黄色渐变像枫叶🍁\n尺寸:20x15x7cm\n款号:4144"},"price":null,"currency":"CNY","moq":1,"category":"chanel-women-bags","status":"active","alibaba_url":null,"images":["https://xcimg.szwego.com/20231124/i1700804479_5249_0.jpg","https://xcimg.szwego.com/20231124/i1700804479_2554_1.jpg","https://xcimg.szwego.com/20231124/i1700804479_9181_2.jpg","https://xcimg.szwego.com/20231124/i1700804479_7676_3.jpg","https://xcimg.szwego.com/20231124/i1700804479_5918_4.jpg","https://xcimg.szwego.com/20231124/i1700804479_299_5.jpg","https://xcimg.szwego.com/20231124/i1700804479_1376_6.jpg","https://xcimg.szwego.com/20231124/i1700804479_2518_7.jpg","https://xcimg.szwego.com/20231124/i1700804479_7878_8.jpg"],"created_at":"2024-05-03T07:22:12.505Z"},{"id":"item-446306057628","sku":"_dfVfVuU3wDpH6e8Kv1YhOnnbpwp844iSi-ZOL2Q","name_en":"CHANEL VINTAGE 保龄球波士顿旅行袋","name_cn":"CHANEL VINTAGE 保龄球波士顿旅行袋\n尺寸:46cm","specs":{"source":"wsxcme","sourceId":"_dfVfVuU3wDpH6e8Kv1YhOnnbpwp844iSi-ZOL2Q","sourceTagId":47002745,"sourceTagName":"香奈儿/女包","rawTitle":"CHANEL VINTAGE 保龄球波士顿旅行袋\n尺寸:46cm"},"price":null,"currency":"CNY","moq":1,"category":"chanel-women-bags","status":"active","alibaba_url":null,"images":["https://xcimg.szwego.com/img/834e1079/20240602/a1717263330278_0223.jpg","https://xcimg.szwego.com/img/834e1079/20240602/a1717263330230_5616.jpg","https://xcimg.szwego.com/img/834e1079/20240602/a1717263330406_6285.jpg","https://xcimg.szwego.com/img/834e1079/20240602/a1717263329050_3164.jpg","https://xcimg.szwego.com/img/834e1079/20240602/a1717263328857_3545.jpg","https://xcimg.szwego.com/img/834e1079/20240602/a1717263328969_3708.jpg","https://xcimg.szwego.com/img/834e1079/20240602/a1717263328842_0236.jpg","https://xcimg.szwego.com/img/834e1079/20240602/a1717263330354_5300.jpg","https://xcimg.szwego.com/img/834e1079/20240602/a1717263330146_2722.jpg"],"created_at":"2024-09-10T05:52:21.156Z"},{"id":"item-87abb6d92c1b","sku":"_dx9x9AsMvclKbq9VpIIpxeYocNojjPoWZuQYTVg","name_en":"Chanel vintage 贝嫂款背包 绝版款","name_cn":"Chanel vintage 贝嫂款背包 绝版款\nChanel jumbo贝嫂背包 背包款的贝嫂包非常特别 加上大双C logo 帅气吸睛 非常有范儿 想撞包都很难 vintage感很重 内置拉链 实用性很强 适合自用兼收藏的一款包 \nAS1102尺寸28*8*20cm","specs":{"source":"wsxcme","sourceId":"_dx9x9AsMvclKbq9VpIIpxeYocNojjPoWZuQYTVg","sourceTagId":47002745,"sourceTagName":"香奈儿/女包","dimensions":{"lengthCm":28,"heightCm":8,"widthCm":20},"rawTitle":"Chanel vintage 贝嫂款背包 绝版款\nChanel jumbo贝嫂背包 背包款的贝嫂包非常特别 加上大双C logo 帅气吸睛 非常有范儿 想撞包都很难 vintage感很重 内置拉链 实用性很强 适合自用兼收藏的一款包 \nAS1102尺寸28*8*20cm"},"price":null,"currency":"CNY","moq":1,"category":"chanel-women-bags","status":"active","alibaba_url":null,"images":["https://xcimg.szwego.com/20230924/i1695547892_9307_0.jpg","https://xcimg.szwego.com/20230924/i1695547892_9155_3.jpg","https://xcimg.szwego.com/20230924/i1695547892_8059_1.jpg","https://xcimg.szwego.com/20230924/i1695547892_6207_2.jpg","https://xcimg.szwego.com/20230924/i1695547892_3200_4.jpg","https://xcimg.szwego.com/20230924/i1695547892_7036_5.jpg","https://xcimg.szwego.com/20230924/i1695547892_7359_6.jpg","https://xcimg.szwego.com/20230924/i1695547892_1865_7.jpg","https://xcimg.szwego.com/20230924/i1695547892_2562_8.jpg"],"created_at":"2024-11-26T11:47:21.511Z"},{"id":"item-67506703c905","sku":"_dhMhMkc93QB1U7KqqYXdf-cq_d_ZnXyl0Bf5bjg","name_en":"CHANEL VINTAGE 涂鸦慵懒大包","name_cn":"CHANEL VINTAGE 涂鸦慵懒大包\n尺寸:42x25cm","specs":{"source":"wsxcme","sourceId":"_dhMhMkc93QB1U7KqqYXdf-cq_d_ZnXyl0Bf5bjg","sourceTagId":47002745,"sourceTagName":"香奈儿/女包","rawTitle":"CHANEL VINTAGE 涂鸦慵懒大包\n尺寸:42x25cm"},"price":null,"currency":"CNY","moq":1,"category":"chanel-women-bags","status":"active","alibaba_url":null,"images":["https://xcimg.szwego.com/img/834e1079/20240630/a1719719664405_0162.jpg","https://xcimg.szwego.com/img/834e1079/20240630/a1719719664406_5378.jpg","https://xcimg.szwego.com/img/834e1079/20240630/a1719719664278_5233.jpg","https://xcimg.szwego.com/img/834e1079/20240630/a1719719664246_5800.jpg","https://xcimg.szwego.com/img/834e1079/20240630/a1719719664214_0628.jpg","https://xcimg.szwego.com/img/834e1079/20240630/a1719719664352_5832.jpg","https://xcimg.szwego.com/img/834e1079/20240630/a1719719665249_6530.jpg","https://xcimg.szwego.com/img/834e1079/20240630/a1719719665285_5238.jpg","https://xcimg.szwego.com/img/834e1079/20240630/a1719719665325_5101.jpg"],"created_at":"2024-09-10T05:52:21.163Z"},{"id":"item-3c2e2115d19c","sku":"_dfpfpXu7AiDx4kbbxHDVuQVceiRaUQ0a9NIbmHA","name_en":"Chanel Vintage 中古 稻草包🍂","name_cn":"Chanel Vintage 中古 稻草包🍂\n尺寸:20*36*9cm    大号       \n香奶奶👵很喜欢稻穗🌾元素 在很多vintage款的首饰💍上总是能见到 在2010年春夏发布会 老佛爷👵在大皇宫中心复制了一个农场👩‍🌾场景 这只草编包🍃就出自此系列 软软糯糯 手感很好 像躺在谷仓🌾堆一般舒适😌只有松弛的海边度假🏖️能与编织款相匹配 早秋的海风🌊惬意又温柔 就和迷人的编织包袋👝一般","specs":{"source":"wsxcme","sourceId":"_dfpfpXu7AiDx4kbbxHDVuQVceiRaUQ0a9NIbmHA","sourceTagId":47002745,"sourceTagName":"香奈儿/女包","dimensions":{"lengthCm":20,"heightCm":36,"widthCm":9},"rawTitle":"Chanel Vintage 中古 稻草包🍂\n尺寸:20*36*9cm    大号       \n香奶奶👵很喜欢稻穗🌾元素 在很多vintage款的首饰💍上总是能见到 在2010年春夏发布会 老佛爷👵在大皇宫中心复制了一个农场👩‍🌾场景 这只草编包🍃就出自此系列 软软糯糯 手感很好 像躺在谷仓🌾堆一般舒适😌只有松弛的海边度假🏖️能与编织款相匹配 早秋的海风🌊惬意又温柔 就和迷人的编织包袋👝一般"},"price":null,"currency":"CNY","moq":1,"category":"chanel-women-bags","status":"active","alibaba_url":null,"images":["https://xcimg.szwego.com/img/8e603200/20241228/i1735359579_5188_1.jpg","https://xcimg.szwego.com/img/8e603200/20241228/i1735359579_8794_4.jpg","https://xcimg.szwego.com/img/8e603200/20241228/i1735359579_7114_2.jpg","https://xcimg.szwego.com/img/8e603200/20241228/i1735359579_7866_0.jpg","https://xcimg.szwego.com/img/8e603200/20241228/i1735359579_2102_5.jpg","https://xcimg.szwego.com/img/8e603200/20241228/i1735359579_9306_7.jpg","https://xcimg.szwego.com/img/8e603200/20241228/i1735359579_9889_3.jpg","https://xcimg.szwego.com/img/8e603200/20241228/i1735359579_3203_8.jpg","https://xcimg.szwego.com/img/8e603200/20241228/i1735359579_4071_6.jpg"],"created_at":"2025-01-21T03:18:13.029Z"},{"id":"item-6ef2ab3d0f38","sku":"_dxdxd8CD_--RPJpkczxZT6nEFjzKhFAW7Ik_K_g","name_en":"CHANEL VINTAGE jennie同款尼龙双肩","name_cn":"CHANEL VINTAGE jennie同款尼龙双肩 \n尺寸:44x35cm","specs":{"source":"wsxcme","sourceId":"_dxdxd8CD_--RPJpkczxZT6nEFjzKhFAW7Ik_K_g","sourceTagId":47002745,"sourceTagName":"香奈儿/女包","rawTitle":"CHANEL VINTAGE jennie同款尼龙双肩 \n尺寸:44x35cm"},"price":null,"currency":"CNY","moq":1,"category":"chanel-women-bags","status":"active","alibaba_url":null,"images":["https://xcimg.szwego.com/img/834e1079/20240513/a1715586522131_4682.jpg","https://xcimg.szwego.com/img/834e1079/20240513/a1715586522072_2285.jpg","https://xcimg.szwego.com/img/834e1079/20240513/a1715586522196_6513.jpg","https://xcimg.szwego.com/img/834e1079/20240513/a1715586522382_5607.jpg","https://xcimg.szwego.com/img/834e1079/20240513/a1715586522410_5372.jpg","https://xcimg.szwego.com/img/834e1079/20240513/a1715586522203_2367.jpg","https://xcimg.szwego.com/img/834e1079/20240513/a1715586523132_2775.jpg","https://xcimg.szwego.com/img/834e1079/20240513/a1715586523131_1556.jpg","https://xcimg.szwego.com/img/834e1079/20240513/a1715586523139_1485.jpg"],"created_at":"2024-09-10T05:52:21.161Z"},{"id":"item-4cdf748bafab","sku":"_dc-c-yMxruPU2Od2cR6OcdELP-KFT1kdp5lnPIQ","name_en":"Chanel vintage sport双肩包 男女同款","name_cn":"Chanel vintage sport双肩包 男女同款\n尺寸:28cm","specs":{"source":"wsxcme","sourceId":"_dc-c-yMxruPU2Od2cR6OcdELP-KFT1kdp5lnPIQ","sourceTagId":47002745,"sourceTagName":"香奈儿/女包","rawTitle":"Chanel vintage sport双肩包 男女同款\n尺寸:28cm"},"price":null,"currency":"CNY","moq":1,"category":"chanel-women-bags","status":"active","alibaba_url":null,"images":["https://xcimg.szwego.com/img/834e1079/20240601/a1717227630226_3048.jpg","https://xcimg.szwego.com/img/834e1079/20240601/a1717227630122_1463.jpg","https://xcimg.szwego.com/img/834e1079/20240601/a1717227631445_2351.jpg","https://xcimg.szwego.com/img/834e1079/20240601/a1717227630170_7431.jpg","https://xcimg.szwego.com/img/834e1079/20240601/a1717227631415_1245.jpg","https://xcimg.szwego.com/img/834e1079/20240601/a1717227630226_6841.jpg","https://xcimg.szwego.com/img/834e1079/20240601/a1717227631267_2324.jpg","https://xcimg.szwego.com/img/834e1079/20240601/a1717227630171_7142.jpg","https://xcimg.szwego.com/img/834e1079/20240601/a1717227631370_8514.jpg"],"created_at":"2024-09-10T05:52:21.165Z"},{"id":"item-be7bac5378b8","sku":"_dq5q5OBjtFRr4R0QJBNBnJr8mM4DAeeD80FTbvg","name_en":"Chanel vintage sport炸药包 男女同款","name_cn":"Chanel vintage sport炸药包 男女同款\n尺寸:37x16x17cm","specs":{"source":"wsxcme","sourceId":"_dq5q5OBjtFRr4R0QJBNBnJr8mM4DAeeD80FTbvg","sourceTagId":47002745,"sourceTagName":"香奈儿/女包","dimensions":{"lengthCm":37,"heightCm":16,"widthCm":17},"rawTitle":"Chanel vintage sport炸药包 男女同款\n尺寸:37x16x17cm"},"price":null,"currency":"CNY","moq":1,"category":"chanel-women-bags","status":"active","alibaba_url":null,"images":["https://xcimg.szwego.com/img/834e1079/20240601/a1717227124546_4305.jpg","https://xcimg.szwego.com/img/834e1079/20240601/a1717227124527_4044.jpg","https://xcimg.szwego.com/img/834e1079/20240601/a1717227124782_4764.jpg","https://xcimg.szwego.com/img/834e1079/20240601/a1717227129567_5248.jpg","https://xcimg.szwego.com/img/834e1079/20240601/a1717227127986_8134.jpg","https://xcimg.szwego.com/img/834e1079/20240601/a1717227128087_5246.jpg","https://xcimg.szwego.com/img/834e1079/20240601/a1717227128039_0634.jpg","https://xcimg.szwego.com/img/834e1079/20240601/a1717227129853_6772.jpg","https://xcimg.szwego.com/img/834e1079/20240601/a1717227127822_5724.jpg"],"created_at":"2024-09-10T05:52:21.164Z"},{"id":"item-ed54c8bcd6c6","sku":"_dsMsM5W-KeCTzFc5JJWNjBAusL0mA1dS27v20rw","name_en":"CHANEL VINTAGE编织亚麻麦穗翻盖包","name_cn":"CHANEL VINTAGE编织亚麻麦穗翻盖包\n尺寸:27cm","specs":{"source":"wsxcme","sourceId":"_dsMsM5W-KeCTzFc5JJWNjBAusL0mA1dS27v20rw","sourceTagId":47002745,"sourceTagName":"香奈儿/女包","rawTitle":"CHANEL VINTAGE编织亚麻麦穗翻盖包\n尺寸:27cm"},"price":null,"currency":"CNY","moq":1,"category":"chanel-women-bags","status":"active","alibaba_url":null,"images":["https://xcimg.szwego.com/img/834e1079/20240601/a1717227743259_1558.jpg","https://xcimg.szwego.com/img/834e1079/20240601/a1717227741208_6770.jpg","https://xcimg.szwego.com/img/834e1079/20240601/a1717227741335_0656.jpg","https://xcimg.szwego.com/img/834e1079/20240601/a1717227743417_2577.jpg","https://xcimg.szwego.com/img/834e1079/20240601/a1717227743288_2428.jpg","https://xcimg.szwego.com/img/834e1079/20240601/a1717227741239_0651.jpg","https://xcimg.szwego.com/img/834e1079/20240601/a1717227741379_1558.jpg","https://xcimg.szwego.com/img/834e1079/20240601/a1717227743338_0564.jpg","https://xcimg.szwego.com/img/834e1079/20240601/a1717227743415_5061.jpg"],"created_at":"2024-09-10T05:52:21.154Z"},{"id":"item-3a6ce1b7de04","sku":"_dsYsYy4f7Dn5uuZzMd1emtAyELJRXoMCFrm61ZQ","name_en":"Chanel VINTAGE流苏包","name_cn":"Chanel VINTAGE流苏包\n尺寸:25cm","specs":{"source":"wsxcme","sourceId":"_dsYsYy4f7Dn5uuZzMd1emtAyELJRXoMCFrm61ZQ","sourceTagId":47002745,"sourceTagName":"香奈儿/女包","rawTitle":"Chanel VINTAGE流苏包\n尺寸:25cm"},"price":null,"currency":"CNY","moq":1,"category":"chanel-women-bags","status":"active","alibaba_url":null,"images":["https://xcimg.szwego.com/img/834e1079/20240601/a1717228103290_3678.jpg","https://xcimg.szwego.com/img/834e1079/20240601/a1717228103243_2858.jpg","https://xcimg.szwego.com/img/834e1079/20240601/a1717228103170_7122.jpg","https://xcimg.szwego.com/img/834e1079/20240601/a1717228103322_6321.jpg","https://xcimg.szwego.com/img/834e1079/20240601/a1717228103340_0351.jpg","https://xcimg.szwego.com/img/834e1079/20240601/a1717228104439_4370.jpg","https://xcimg.szwego.com/img/834e1079/20240601/a1717228104522_4368.jpg","https://xcimg.szwego.com/img/834e1079/20240601/a1717228103235_6600.jpg","https://xcimg.szwego.com/img/834e1079/20240601/a1717228104373_8402.jpg"],"created_at":"2024-09-10T05:52:21.153Z"},{"id":"item-819980d69c67","sku":"_dicicimbsgIVgzn5848iEn-W9MAe13EkC4WpQpg","name_en":"Chanel vintage拼色丹宁徽章cf","name_cn":"Chanel vintage拼色丹宁徽章cf\n尺寸:17cm","specs":{"source":"wsxcme","sourceId":"_dicicimbsgIVgzn5848iEn-W9MAe13EkC4WpQpg","sourceTagId":47002745,"sourceTagName":"香奈儿/女包","rawTitle":"Chanel vintage拼色丹宁徽章cf\n尺寸:17cm"},"price":null,"currency":"CNY","moq":1,"category":"chanel-women-bags","status":"active","alibaba_url":null,"images":["https://xcimg.szwego.com/img/834e1079/20240601/a1717228017750_0584.jpg","https://xcimg.szwego.com/img/834e1079/20240601/a1717228017730_7822.jpg","https://xcimg.szwego.com/img/834e1079/20240601/a1717228017669_2862.jpg","https://xcimg.szwego.com/img/834e1079/20240601/a1717228017702_4342.jpg","https://xcimg.szwego.com/img/834e1079/20240601/a1717228017942_6874.jpg","https://xcimg.szwego.com/img/834e1079/20240601/a1717228017854_3032.jpg","https://xcimg.szwego.com/img/834e1079/20240601/a1717228019166_7250.jpg","https://xcimg.szwego.com/img/834e1079/20240601/a1717228019242_8083.jpg","https://xcimg.szwego.com/img/834e1079/20240601/a1717228019318_0334.jpg"],"created_at":"2024-09-10T05:52:21.157Z"},{"id":"item-537fada2a576","sku":"_dvovonVZxHiBcebD4krLoT4_yMpCKpawSEvF75g","name_en":"Chanel vintage乒乓球腋下包","name_cn":"Chanel vintage乒乓球腋下包\n尺寸:23cm","specs":{"source":"wsxcme","sourceId":"_dvovonVZxHiBcebD4krLoT4_yMpCKpawSEvF75g","sourceTagId":47002745,"sourceTagName":"香奈儿/女包","rawTitle":"Chanel vintage乒乓球腋下包\n尺寸:23cm"},"price":null,"currency":"CNY","moq":1,"category":"chanel-women-bags","status":"active","alibaba_url":null,"images":["https://xcimg.szwego.com/img/834e1079/20240630/a1719719432019_7381.jpg","https://xcimg.szwego.com/img/834e1079/20240630/a1719719431960_3703.jpg","https://xcimg.szwego.com/img/834e1079/20240630/a1719719432009_3683.jpg","https://xcimg.szwego.com/img/834e1079/20240630/a1719719432845_1664.jpg","https://xcimg.szwego.com/img/834e1079/20240630/a1719719432114_3421.jpg","https://xcimg.szwego.com/img/834e1079/20240630/a1719719432020_0770.jpg","https://xcimg.szwego.com/img/834e1079/20240630/a1719719432113_7838.jpg","https://xcimg.szwego.com/img/834e1079/20240630/a1719719432850_6468.jpg","https://xcimg.szwego.com/img/834e1079/20240630/a1719719432841_2543.jpg"],"created_at":"2024-09-10T05:52:21.159Z"},{"id":"item-fb1f9a41c9f3","sku":"_deLeLAvERdv0-GQWR-_fluHgGvAA4-b16peuEbA","name_en":"Chanel Women Bags","name_cn":"灰色","specs":{"source":"wsxcme","sourceId":"_deLeLAvERdv0-GQWR-_fluHgGvAA4-b16peuEbA","sourceTagId":47002745,"sourceTagName":"香奈儿/女包","rawTitle":"灰色"},"price":null,"currency":"CNY","moq":1,"category":"chanel-women-bags","status":"active","alibaba_url":null,"images":["https://xcimg.szwego.com/img/d0c94e6f/20240723/i1721747744_2481_2.jpg","https://xcimg.szwego.com/img/d0c94e6f/20240723/i1721747744_8059_1.jpg","https://xcimg.szwego.com/img/d0c94e6f/20240723/i1721747744_4921_5.jpg","https://xcimg.szwego.com/img/d0c94e6f/20240723/i1721747745_2814_6.jpg","https://xcimg.szwego.com/img/d0c94e6f/20240723/i1721747745_4649_7.jpg","https://xcimg.szwego.com/img/d0c94e6f/20240723/i1721747744_7323_0.jpg","https://xcimg.szwego.com/img/d0c94e6f/20240723/i1721747744_6586_3.jpg","https://xcimg.szwego.com/img/d0c94e6f/20240723/i1721747744_2950_4.jpg"],"created_at":"2024-11-26T11:47:21.471Z"},{"id":"item-f985e4866a5c","sku":"_dafafVU2MUTXZyHJP4omeNK85MHknbUL3-aFapg","name_en":"Chanel Women Bags","name_cn":"原厂皮\n25c牛皮 球纹\n香奈儿 chanel hobo 腋下包 嬉皮腋下包小号\n复古金币纽扣抽绳水桶包+菱格纹+复古黑金\n经典链条设计,高级感十足!日常出行必备,\n外观精美,质感细腻,\n无论休闲装还是正式场合都能轻松驾驭❤️\n编号:AS5293 球纹 红色\n尺寸:30*26*14","specs":{"source":"wsxcme","sourceId":"_dafafVU2MUTXZyHJP4omeNK85MHknbUL3-aFapg","sourceTagId":47002745,"sourceTagName":"香奈儿/女包","rawTitle":"原厂皮\n25c牛皮 球纹\n香奈儿 chanel hobo 腋下包 嬉皮腋下包小号\n复古金币纽扣抽绳水桶包+菱格纹+复古黑金\n经典链条设计,高级感十足!日常出行必备,\n外观精美,质感细腻,\n无论休闲装还是正式场合都能轻松驾驭❤️\n编号:AS5293 球纹 红色\n尺寸:30*26*14"},"price":null,"currency":"CNY","moq":1,"category":"chanel-women-bags","status":"active","alibaba_url":null,"images":["https://xcimg.szwego.com/img/fbe1a617/20250610/i1749567567548_36_0_0.jpg","https://xcimg.szwego.com/img/fbe1a617/20250610/i1749567567548_2981_0_1.jpg","https://xcimg.szwego.com/img/fbe1a617/20250610/i1749567567659_1028_0_2.jpg","https://xcimg.szwego.com/img/fbe1a617/20250610/i1749567567548_5088_0_3.jpg","https://xcimg.szwego.com/img/fbe1a617/20250610/i1749567569614_609_0_4.jpg","https://xcimg.szwego.com/img/fbe1a617/20250610/i1749567567664_645_0_5.jpg","https://xcimg.szwego.com/img/fbe1a617/20250610/i1749567569478_7348_0_6.jpg","https://xcimg.szwego.com/img/fbe1a617/20250610/i1749567569619_5895_0_7.jpg","https://xcimg.szwego.com/img/fbe1a617/20250610/i1749567569535_5976_0_8.jpg"],"created_at":"2025-09-09T05:17:44.453Z"}],"page":34,"pageSize":24,"total":1102,"totalPages":46}
