{"items":[{"id":"item-5792a6210220","sku":"_du2u212LNm90bVRZVnT2VONEiKjHdkc2PkI2nCA","name_en":"Chanel Women Bags","name_cn":"原厂皮\n25c牛皮嘻哈包\n香奈儿 chanel hobo 腋下包 嬉皮腋下包小号\n复古金币纽扣抽绳水桶包+菱格纹+复古黑金\n经典链条设计,高级感十足!日常出行必备,外观精美,质感细腻,无论休闲装还是正式场合都能轻松驾驭\n编号:AS5293 蓝色牛仔布\n尺寸:30-26-14\n​","specs":{"source":"wsxcme","sourceId":"_du2u212LNm90bVRZVnT2VONEiKjHdkc2PkI2nCA","sourceTagId":47002745,"sourceTagName":"香奈儿/女包","rawTitle":"原厂皮\n25c牛皮嘻哈包\n香奈儿 chanel hobo 腋下包 嬉皮腋下包小号\n复古金币纽扣抽绳水桶包+菱格纹+复古黑金\n经典链条设计,高级感十足!日常出行必备,外观精美,质感细腻,无论休闲装还是正式场合都能轻松驾驭\n编号:AS5293 蓝色牛仔布\n尺寸:30-26-14\n​"},"price":null,"currency":"CNY","moq":1,"category":"chanel-women-bags","status":"active","alibaba_url":null,"images":["https://xcimg.szwego.com/img/a5af95f4/20250416/i1744791973304_8567_0_0.jpg","https://xcimg.szwego.com/img/a5af95f4/20250416/i1744791964279_7861_0_1.jpg","https://xcimg.szwego.com/img/a5af95f4/20250416/i1744791964321_2565_0_2.jpg","https://xcimg.szwego.com/img/a5af95f4/20250416/i1744791971359_7474_0_3.jpg","https://xcimg.szwego.com/img/a5af95f4/20250416/i1744791964303_2140_0_4.jpg","https://xcimg.szwego.com/img/a5af95f4/20250416/i1744791971395_8136_0_5.jpg","https://xcimg.szwego.com/img/a5af95f4/20250416/i1744791964277_9143_0_6.jpg","https://xcimg.szwego.com/img/a5af95f4/20250416/i1744791973333_9661_0_7.jpg","https://xcimg.szwego.com/img/a5af95f4/20250416/i1744791964140_1339_0_8.jpg"],"created_at":"2025-09-09T05:17:44.462Z"},{"id":"item-5507c8c4860a","sku":"_dx4x4YF6sFAHRmIozDS-RyMlHv3wYd57CLc2l5A","name_en":"Chanel Women Bags","name_cn":"香奈儿/女包","specs":{"source":"wsxcme","sourceId":"_dx4x4YF6sFAHRmIozDS-RyMlHv3wYd57CLc2l5A","sourceTagId":47002745,"sourceTagName":"香奈儿/女包","rawTitle":""},"price":null,"currency":"CNY","moq":1,"category":"chanel-women-bags","status":"active","alibaba_url":null,"images":["https://xcimg.szwego.com/img/d0c94e6f/20250823/i1755962161_4979_0.jpg"],"created_at":"2025-09-19T04:32:40.109Z"},{"id":"item-52313c46ffb2","sku":"_dq4q4jS4X3h-1Y9V8-_GVbUnp-5XSCZXmFQMUdQ","name_en":"Chanel Women Bags","name_cn":"香奈儿/女包","specs":{"source":"wsxcme","sourceId":"_dq4q4jS4X3h-1Y9V8-_GVbUnp-5XSCZXmFQMUdQ","sourceTagId":47002745,"sourceTagName":"香奈儿/女包","rawTitle":""},"price":null,"currency":"CNY","moq":1,"category":"chanel-women-bags","status":"active","alibaba_url":null,"images":["https://xcimg.szwego.com/img/d0c94e6f/20250823/i1755879885_184_0.jpg"],"created_at":"2025-09-19T04:32:40.089Z"},{"id":"item-51dbc94d83d6","sku":"_dnvnvkCKu0fp1Kt4yxZk6ZQU-G9JpkQkomsbhFQ","name_en":"Chanel Women Bags","name_cn":"出货","specs":{"source":"wsxcme","sourceId":"_dnvnvkCKu0fp1Kt4yxZk6ZQU-G9JpkQkomsbhFQ","sourceTagId":47002745,"sourceTagName":"香奈儿/女包","rawTitle":"出货"},"price":null,"currency":"CNY","moq":1,"category":"chanel-women-bags","status":"active","alibaba_url":null,"images":["https://xcimg.szwego.com/img/d0c94e6f/20240707/i1720336455_7826_8.jpg","https://xcimg.szwego.com/img/d0c94e6f/20240707/i1720336454_8883_5.jpg","https://xcimg.szwego.com/img/d0c94e6f/20240707/i1720336454_7525_3.jpg","https://xcimg.szwego.com/img/d0c94e6f/20240707/i1720336454_8535_2.jpg","https://xcimg.szwego.com/img/d0c94e6f/20240707/i1720336454_4612_6.jpg","https://xcimg.szwego.com/img/d0c94e6f/20240707/i1720336454_2871_4.jpg","https://xcimg.szwego.com/img/d0c94e6f/20240707/i1720336454_7772_0.jpg","https://xcimg.szwego.com/img/d0c94e6f/20240707/i1720336454_9093_7.jpg","https://xcimg.szwego.com/img/d0c94e6f/20240707/i1720336454_245_1.jpg"],"created_at":"2024-11-26T11:47:21.476Z"},{"id":"item-4eecd3ed3268","sku":"_dk8k8XZDaYRmtzQkvBMRRHgYYHoooiW7RkpIObQ","name_en":"Chanel Women Bags","name_cn":"白金版▪️正品级 包装如图\nChane1 23c早春系列🌿\n珐琅黑白格球 Mini方胖子黑色 \n\n23c早春足球棋盘方胖子⚽️\n这款mini 真的爱了❕适合运动风格\n可调节珐琅金属球不仅做工一贯精美\n而且赋予了包包很多的背法〰️\n可️斜背 单肩 手拎 腋下包 看起来小,\n容量用起来蛮大的❕\n这季设计理念就是F1胜利的旗帜,\n感觉瞬间比经典款年轻时髦多了。\n黑色很百搭 一年四季可搭配 可盐可甜 谁背谁好看〰️\n\n五金:全钢14k淡金扣/珐琅黑白格\n皮料:独家开料部zp小羊皮\n尺寸: 13*20 *7 cm","specs":{"source":"wsxcme","sourceId":"_dk8k8XZDaYRmtzQkvBMRRHgYYHoooiW7RkpIObQ","sourceTagId":47002745,"sourceTagName":"香奈儿/女包","dimensions":{"lengthCm":13,"heightCm":20,"widthCm":7},"rawTitle":"白金版▪️正品级 包装如图\nChane1 23c早春系列🌿\n珐琅黑白格球 Mini方胖子黑色 \n\n23c早春足球棋盘方胖子⚽️\n这款mini 真的爱了❕适合运动风格\n可调节珐琅金属球不仅做工一贯精美\n而且赋予了包包很多的背法〰️\n可️斜背 单肩 手拎 腋下包 看起来小,\n容量用起来蛮大的❕\n这季设计理念就是F1胜利的旗帜,\n感觉瞬间比经典款年轻时髦多了。\n黑色很百搭 一年四季可搭配 可盐可甜 谁背谁好看〰️\n\n五金:全钢14k淡金扣/珐琅黑白格\n皮料:独家开料部zp小羊皮\n尺寸: 13*20 *7 cm"},"price":null,"currency":"CNY","moq":1,"category":"chanel-women-bags","status":"active","alibaba_url":null,"images":["https://xcimg.szwego.com/20230316/i1678943695_3403_0.jpg","https://xcimg.szwego.com/20230316/i1678943695_9895_1.jpg","https://xcimg.szwego.com/20230316/i1678943695_4427_2.jpg","https://xcimg.szwego.com/20230316/i1678943695_8305_3.jpg","https://xcimg.szwego.com/20230316/i1678943695_9954_4.jpg","https://xcimg.szwego.com/20230316/i1678943695_8567_5.jpg","https://xcimg.szwego.com/20230316/i1678943695_189_6.jpg","https://xcimg.szwego.com/20230316/i1678943695_9920_7.jpg","https://xcimg.szwego.com/20230316/i1678943695_7660_8.jpg"],"created_at":"2024-05-01T03:19:54.357Z"},{"id":"item-4deafeed166a","sku":"_d9-9-9hFjatQ-W0gv_bhzxl7KKh9EG-I0tnjigA","name_en":"Chanel Women Bags","name_cn":"原厂皮\n小香进口意大利小羊皮【升級版】\n货号:A\n尺寸:w20×h13×d3.5cm\n颜色:白色細球紋金色鋼唛","specs":{"source":"wsxcme","sourceId":"_d9-9-9hFjatQ-W0gv_bhzxl7KKh9EG-I0tnjigA","sourceTagId":47002745,"sourceTagName":"香奈儿/女包","modelNumber":"A","rawTitle":"原厂皮\n小香进口意大利小羊皮【升級版】\n货号:A\n尺寸:w20×h13×d3.5cm\n颜色:白色細球紋金色鋼唛"},"price":null,"currency":"CNY","moq":1,"category":"chanel-women-bags","status":"active","alibaba_url":null,"images":["https://xcimg.szwego.com/img/c4e87dad/20250516/i1747399922779_9087_0_2.jpg","https://xcimg.szwego.com/img/c4e87dad/20250516/i1747399919840_4054_0_4.jpg","https://xcimg.szwego.com/img/c4e87dad/20250516/i1747399919854_1695_0_6.jpg","https://xcimg.szwego.com/img/c4e87dad/20250516/i1747399919838_5760_0_7.jpg"],"created_at":"2025-09-09T05:22:54.849Z"},{"id":"item-4d9b1fbf2d3f","sku":"_dL-L-5ZyAUCYao0n3gmQY9GPaue7Wz34Fyp5VEQ","name_en":"Chanel Women Bags","name_cn":"白金版▪️正品级 包装如图\nChane1 23S春夏系列\n山茶花调节扣大号 白色\n\n23s山茶花调节扣链条口盖包\n具备cf的元素造型有着性感迷人的气质。\n设计方面更加优雅大方啦❕\n可️腋下、斜挎、单肩一包多用,很受欢迎哦👏🏻\n\n五金:全铜24K复古金\n皮料:   开料部zp小羊皮\n尺寸:14.5*23.5*7cm","specs":{"source":"wsxcme","sourceId":"_dL-L-5ZyAUCYao0n3gmQY9GPaue7Wz34Fyp5VEQ","sourceTagId":47002745,"sourceTagName":"香奈儿/女包","dimensions":{"lengthCm":14.5,"heightCm":23.5,"widthCm":7},"rawTitle":"白金版▪️正品级 包装如图\nChane1 23S春夏系列\n山茶花调节扣大号 白色\n\n23s山茶花调节扣链条口盖包\n具备cf的元素造型有着性感迷人的气质。\n设计方面更加优雅大方啦❕\n可️腋下、斜挎、单肩一包多用,很受欢迎哦👏🏻\n\n五金:全铜24K复古金\n皮料:   开料部zp小羊皮\n尺寸:14.5*23.5*7cm"},"price":null,"currency":"CNY","moq":1,"category":"chanel-women-bags","status":"active","alibaba_url":null,"images":["https://xcimg.szwego.com/20230611/i1686462916_2521_0.jpg","https://xcimg.szwego.com/20230611/i1686462916_9028_1.jpg","https://xcimg.szwego.com/20230611/i1686462916_2493_2.jpg","https://xcimg.szwego.com/20230611/i1686462916_9415_3.jpg","https://xcimg.szwego.com/20230611/i1686462916_3793_4.jpg","https://xcimg.szwego.com/20230611/i1686462916_6841_5.jpg","https://xcimg.szwego.com/20230611/i1686462916_5395_6.jpg","https://xcimg.szwego.com/20230611/i1686462916_3102_7.jpg","https://xcimg.szwego.com/20230611/i1686462916_626_8.jpg"],"created_at":"2024-05-01T03:19:54.374Z"},{"id":"item-4c478be990ba","sku":"_dvcvc5cJbSHpzOwP6Ad5_15LG1QFrjnuUl606jw","name_en":"Chanel Women Bags","name_cn":"香奈儿/女包","specs":{"source":"wsxcme","sourceId":"_dvcvc5cJbSHpzOwP6Ad5_15LG1QFrjnuUl606jw","sourceTagId":47002745,"sourceTagName":"香奈儿/女包","rawTitle":""},"price":null,"currency":"CNY","moq":1,"category":"chanel-women-bags","status":"active","alibaba_url":null,"images":["https://xcimg.szwego.com/img/d0c94e6f/20250823/i1755959696_4770_0.jpg"],"created_at":"2025-09-19T04:32:40.115Z"},{"id":"item-4bd5f7a35446","sku":"_dbDbDU1hBJ57DqJhBKySDhYC-XxNEgPv4cGsYLg","name_en":"Chanel Women Bags","name_cn":"原厂皮\n即将出货25c牛皮 球纹\n香奈儿 chanel hobo 腋下包 嬉皮腋下包小号\n复古金币纽扣抽绳水桶包+菱格纹+复古黑金\n经典链条设计,高级感十足!日常出行必备,\n外观精美,质感细腻,\n无论休闲装还是正式场合都能轻松驾驭❤️\n编号:AS5293 球纹 白色\n尺寸:30*26*14","specs":{"source":"wsxcme","sourceId":"_dbDbDU1hBJ57DqJhBKySDhYC-XxNEgPv4cGsYLg","sourceTagId":47002745,"sourceTagName":"香奈儿/女包","rawTitle":"原厂皮\n即将出货25c牛皮 球纹\n香奈儿 chanel hobo 腋下包 嬉皮腋下包小号\n复古金币纽扣抽绳水桶包+菱格纹+复古黑金\n经典链条设计,高级感十足!日常出行必备,\n外观精美,质感细腻,\n无论休闲装还是正式场合都能轻松驾驭❤️\n编号:AS5293 球纹 白色\n尺寸:30*26*14"},"price":null,"currency":"CNY","moq":1,"category":"chanel-women-bags","status":"active","alibaba_url":null,"images":["https://xcimg.szwego.com/img/fbe1a617/20250422/i1745329623354_4426_0_0.jpg","https://xcimg.szwego.com/img/fbe1a617/20250422/i1745329623594_56_0_1.jpg","https://xcimg.szwego.com/img/fbe1a617/20250422/i1745329623675_9402_0_2.jpg","https://xcimg.szwego.com/img/fbe1a617/20250422/i1745329623552_4721_0_3.jpg","https://xcimg.szwego.com/img/fbe1a617/20250422/i1745329625302_7920_0_4.jpg","https://xcimg.szwego.com/img/fbe1a617/20250422/i1745329623513_201_0_5.jpg","https://xcimg.szwego.com/img/fbe1a617/20250422/i1745329625151_4743_0_6.jpg","https://xcimg.szwego.com/img/fbe1a617/20250422/i1745329625221_1996_0_7.jpg","https://xcimg.szwego.com/img/fbe1a617/20250422/i1745329625146_8107_0_8.jpg"],"created_at":"2025-09-09T05:17:44.460Z"},{"id":"item-4835746bcb92","sku":"_d-P-P1L2C3lx6jY5skHSSfEwRniEMcHXNPzmRIA","name_en":"Chanel Women Bags","name_cn":"原厂皮\n小香进口意大利小羊皮【升級版】\n货号:A\n尺寸:w20×h13×d3.5cm\n颜色:黑色羊皮銀色鋼唛","specs":{"source":"wsxcme","sourceId":"_d-P-P1L2C3lx6jY5skHSSfEwRniEMcHXNPzmRIA","sourceTagId":47002745,"sourceTagName":"香奈儿/女包","modelNumber":"A","rawTitle":"原厂皮\n小香进口意大利小羊皮【升級版】\n货号:A\n尺寸:w20×h13×d3.5cm\n颜色:黑色羊皮銀色鋼唛"},"price":null,"currency":"CNY","moq":1,"category":"chanel-women-bags","status":"active","alibaba_url":null,"images":["https://xcimg.szwego.com/img/c4e87dad/20250407/i1744014291390_2710_0_3.jpg","https://xcimg.szwego.com/img/c4e87dad/20250407/i1744014293995_3083_0_5.jpg","https://xcimg.szwego.com/img/c4e87dad/20250407/i1744014291379_1696_0_6.jpg","https://xcimg.szwego.com/img/c4e87dad/20250407/i1744014291439_1504_0_7.jpg","https://xcimg.szwego.com/img/c4e87dad/20250407/i1744014291451_4838_0_8.jpg"],"created_at":"2025-09-09T05:22:54.848Z"},{"id":"item-4812725f448b","sku":"_dSCSCkZ1-tPAAfqPokPyrxAicTDlg01Wu1UlN-w","name_en":"Chanel Women Bags","name_cn":"香奈儿/女包","specs":{"source":"wsxcme","sourceId":"_dSCSCkZ1-tPAAfqPokPyrxAicTDlg01Wu1UlN-w","sourceTagId":47002745,"sourceTagName":"香奈儿/女包","rawTitle":""},"price":null,"currency":"CNY","moq":1,"category":"chanel-women-bags","status":"active","alibaba_url":null,"images":["https://xcimg.szwego.com/img/d0c94e6f/20250911/i1757599218_537_0.jpg"],"created_at":"2025-09-19T04:32:40.134Z"},{"id":"item-46b097b5083b","sku":"_dj-j-5YlqHEhkagVTa7d9Eu7yUeNuCbNnNpg95w","name_en":"Chanel Women Bags","name_cn":"白金版▪️正品级 包装如图\nChane1 24C新品 横款22bag 黑金\n专柜售rmb购入开发\n\n今年上新的时髦点ꫛꫀꪝ\n以年份数字为命名❏\n对准它!!Chane1 22手袋〰️\"垃圾袋♥\"\n每个颜色都很爱!\n这草种得有点措不手及🤷‍♂️\n说垃圾袋也好 收纳袋也罢\n反正就是很对味🪄\n图片太多了实在火爆\n娱乐圈明星 超模们同款👀卷起来了!\n越看越上头呀!!\n\n五金:厚镀24k磨砂银\n皮料:亮面小牛皮\n尺寸:45*30*8 cm\n4486","specs":{"source":"wsxcme","sourceId":"_dj-j-5YlqHEhkagVTa7d9Eu7yUeNuCbNnNpg95w","sourceTagId":47002745,"sourceTagName":"香奈儿/女包","dimensions":{"lengthCm":45,"heightCm":30,"widthCm":8},"rawTitle":"白金版▪️正品级 包装如图\nChane1 24C新品 横款22bag 黑金\n专柜售rmb购入开发\n\n今年上新的时髦点ꫛꫀꪝ\n以年份数字为命名❏\n对准它!!Chane1 22手袋〰️\"垃圾袋♥\"\n每个颜色都很爱!\n这草种得有点措不手及🤷‍♂️\n说垃圾袋也好 收纳袋也罢\n反正就是很对味🪄\n图片太多了实在火爆\n娱乐圈明星 超模们同款👀卷起来了!\n越看越上头呀!!\n\n五金:厚镀24k磨砂银\n皮料:亮面小牛皮\n尺寸:45*30*8 cm\n4486"},"price":null,"currency":"CNY","moq":1,"category":"chanel-women-bags","status":"active","alibaba_url":null,"images":["https://xcimg.szwego.com/20231115/i1700028270_4362_0.jpg","https://xcimg.szwego.com/20231115/i1700028270_3537_1.jpg","https://xcimg.szwego.com/20231115/i1700028270_4831_2.jpg","https://xcimg.szwego.com/20231115/i1700028270_7447_3.jpg","https://xcimg.szwego.com/20231115/i1700028270_4625_4.jpg","https://xcimg.szwego.com/20231115/i1700028270_8266_5.jpg","https://xcimg.szwego.com/20231115/i1700028270_3366_6.jpg","https://xcimg.szwego.com/20231115/i1700028270_1698_7.jpg","https://xcimg.szwego.com/20231115/i1700028270_3439_8.jpg"],"created_at":"2024-05-01T03:19:54.390Z"},{"id":"item-467aa98c838c","sku":"_dyMyMKykzn97Nsj3LwhLNqsQoclit3PcLMKv6Nw","name_en":"Chanel Women Bags","name_cn":"白金版▪️正品级 包装如图\nChanel 24s春夏新款 \n牛仔 22bag mini  灰蓝\n专柜售rmb购入开发\n\n24s牛仔mini22bag重磅来袭🔥可拆卸长肩带款,淡淡水洗牛仔色+银色铆钉亮点设计,年轻且俏皮,铆钉设计远看像珍珠,平添几分淑女气质~\n\n\n五金:复古银扣\n皮料:   丹宁牛仔\n尺寸:20*19*6cm","specs":{"source":"wsxcme","sourceId":"_dyMyMKykzn97Nsj3LwhLNqsQoclit3PcLMKv6Nw","sourceTagId":47002745,"sourceTagName":"香奈儿/女包","dimensions":{"lengthCm":20,"heightCm":19,"widthCm":6},"rawTitle":"白金版▪️正品级 包装如图\nChanel 24s春夏新款 \n牛仔 22bag mini  灰蓝\n专柜售rmb购入开发\n\n24s牛仔mini22bag重磅来袭🔥可拆卸长肩带款,淡淡水洗牛仔色+银色铆钉亮点设计,年轻且俏皮,铆钉设计远看像珍珠,平添几分淑女气质~\n\n\n五金:复古银扣\n皮料:   丹宁牛仔\n尺寸:20*19*6cm"},"price":null,"currency":"CNY","moq":1,"category":"chanel-women-bags","status":"active","alibaba_url":null,"images":["https://xcimg.szwego.com/20240422/i1713769189_7145_0.jpg","https://xcimg.szwego.com/20240422/i1713769189_1146_1.jpg","https://xcimg.szwego.com/20240422/i1713769189_3886_2.jpg","https://xcimg.szwego.com/20240422/i1713769189_4613_3.jpg","https://xcimg.szwego.com/20240422/i1713769189_7199_4.jpg","https://xcimg.szwego.com/20240422/i1713769189_4824_5.jpg","https://xcimg.szwego.com/20240422/i1713769189_8643_6.jpg","https://xcimg.szwego.com/20240422/i1713769189_3074_7.jpg","https://xcimg.szwego.com/20240422/i1713769189_8285_8.jpg"],"created_at":"2024-05-03T07:22:12.443Z"},{"id":"item-4141f64f0acc","sku":"_dj3j3RGcc52lA8WUEZy4AfR-AjXvLwiHirLoXHg","name_en":"Chanel Women Bags","name_cn":"香奈儿/女包","specs":{"source":"wsxcme","sourceId":"_dj3j3RGcc52lA8WUEZy4AfR-AjXvLwiHirLoXHg","sourceTagId":47002745,"sourceTagName":"香奈儿/女包","rawTitle":""},"price":null,"currency":"CNY","moq":1,"category":"chanel-women-bags","status":"active","alibaba_url":null,"images":["https://xcimg.szwego.com/img/d0c94e6f/20250813/i1755087200_9195_0.jpg"],"created_at":"2025-09-19T04:32:40.105Z"},{"id":"item-4001a42ec022","sku":"_dlVlVnjxh-WP0ArremA5UPAO5Kxzbusu1ibQo9g","name_en":"Chanel Women Bags","name_cn":"现货\nCHANL❤️‍🔥❤️‍🔥时来运转系列包!众多明星追捧🤩星球圆环链条包 Chanel香奈儿地球仪星球圆环链条包!牛皮滴 chanel银色圆饼很特别一只细节满满滴设计限定秀款时髦又实用的美丽香可️手拿斜挎太爱啦尺寸📐 22x22x4cm","specs":{"source":"wsxcme","sourceId":"_dlVlVnjxh-WP0ArremA5UPAO5Kxzbusu1ibQo9g","sourceTagId":47002745,"sourceTagName":"香奈儿/女包","rawTitle":"现货\nCHANL❤️‍🔥❤️‍🔥时来运转系列包!众多明星追捧🤩星球圆环链条包 Chanel香奈儿地球仪星球圆环链条包!牛皮滴 chanel银色圆饼很特别一只细节满满滴设计限定秀款时髦又实用的美丽香可️手拿斜挎太爱啦尺寸📐 22x22x4cm"},"price":null,"currency":"CNY","moq":1,"category":"chanel-women-bags","status":"active","alibaba_url":null,"images":["https://xcimg.szwego.com/img/d0c94e6f/20240505/i1714905526_371_4.jpg","https://xcimg.szwego.com/img/d0c94e6f/20240505/i1714905526_7986_8.jpg","https://xcimg.szwego.com/img/d0c94e6f/20240505/i1714905526_9434_7.jpg","https://xcimg.szwego.com/img/d0c94e6f/20240505/i1714905526_1817_1.jpg","https://xcimg.szwego.com/img/d0c94e6f/20240505/i1714905526_181_3.jpg","https://xcimg.szwego.com/img/d0c94e6f/20240505/i1714905526_4144_5.jpg","https://xcimg.szwego.com/img/d0c94e6f/20240505/i1714905526_6682_6.jpg","https://xcimg.szwego.com/img/d0c94e6f/20240505/i1714905526_4911_0.jpg","https://xcimg.szwego.com/img/d0c94e6f/20240505/i1714905526_7246_2.jpg"],"created_at":"2025-02-10T13:58:23.275Z"},{"id":"item-3ede9e517072","sku":"_dououxS5SlTneFibT0tie-1hsMPP10jJigqte4g","name_en":"Chanel Women Bags","name_cn":"原厂皮\n小香进口意大利小羊皮【升級版】\n货号:A\n尺寸:w20×h13×d3.5cm\n颜色:酒紅細球紋金色鋼唛","specs":{"source":"wsxcme","sourceId":"_dououxS5SlTneFibT0tie-1hsMPP10jJigqte4g","sourceTagId":47002745,"sourceTagName":"香奈儿/女包","modelNumber":"A","rawTitle":"原厂皮\n小香进口意大利小羊皮【升級版】\n货号:A\n尺寸:w20×h13×d3.5cm\n颜色:酒紅細球紋金色鋼唛"},"price":null,"currency":"CNY","moq":1,"category":"chanel-women-bags","status":"active","alibaba_url":null,"images":["https://xcimg.szwego.com/img/c4e87dad/20250516/i1747400352767_8321_0_0.jpg","https://xcimg.szwego.com/img/c4e87dad/20250516/i1747400350565_9919_0_1.jpg","https://xcimg.szwego.com/img/c4e87dad/20250516/i1747400350680_9880_0_2.jpg","https://xcimg.szwego.com/img/c4e87dad/20250516/i1747400350701_2046_0_3.jpg","https://xcimg.szwego.com/img/c4e87dad/20250516/i1747400350704_5223_0_7.jpg","https://xcimg.szwego.com/img/c4e87dad/20250516/i1747400352844_3651_0_5.jpg","https://xcimg.szwego.com/img/c4e87dad/20250516/i1747400352793_7442_0_6.jpg"],"created_at":"2025-09-09T05:22:54.853Z"},{"id":"item-3c9ab82ad589","sku":"_dnrnrNOx8-FceI-zlLwSOUyISO7k8sZnbrXmLLg","name_en":"Chanel Women Bags","name_cn":"。白金版▪️正品级 包装如图\n全新到货!!️Chane1 24S春夏\nNano 31Bag 淡紫色\n专柜售价26900rmb购入开发〰️\n\nChane1“包王”全新31 Nano Size\n时尚代表作mini 31Bag重卷来袭✨\n满足了时髦精的在所期待〰️\n推出新SizeNano柔软乖巧设计感很迷人💡\n软萌的酷飒风一下子就击中了🖤\n\n五金:厚镀14K淡金\n皮料:   原厂Bonaudo油蜡羊皮\n尺寸:20*17.5*3.5 cm","specs":{"source":"wsxcme","sourceId":"_dnrnrNOx8-FceI-zlLwSOUyISO7k8sZnbrXmLLg","sourceTagId":47002745,"sourceTagName":"香奈儿/女包","dimensions":{"lengthCm":20,"heightCm":17.5,"widthCm":3.5},"rawTitle":"。白金版▪️正品级 包装如图\n全新到货!!️Chane1 24S春夏\nNano 31Bag 淡紫色\n专柜售价26900rmb购入开发〰️\n\nChane1“包王”全新31 Nano Size\n时尚代表作mini 31Bag重卷来袭✨\n满足了时髦精的在所期待〰️\n推出新SizeNano柔软乖巧设计感很迷人💡\n软萌的酷飒风一下子就击中了🖤\n\n五金:厚镀14K淡金\n皮料:   原厂Bonaudo油蜡羊皮\n尺寸:20*17.5*3.5 cm"},"price":null,"currency":"CNY","moq":1,"category":"chanel-women-bags","status":"active","alibaba_url":null,"images":["https://xcimg.szwego.com/20240430/i1714462625_124_0.jpg","https://xcimg.szwego.com/20240430/i1714462625_1544_1.jpg","https://xcimg.szwego.com/20240430/i1714462625_6346_2.jpg","https://xcimg.szwego.com/20240430/i1714462625_9339_3.jpg","https://xcimg.szwego.com/20240430/i1714462625_7207_4.jpg","https://xcimg.szwego.com/20240430/i1714462625_5815_5.jpg","https://xcimg.szwego.com/20240430/i1714462625_2489_6.jpg","https://xcimg.szwego.com/20240430/i1714462625_7894_7.jpg","https://xcimg.szwego.com/20240430/i1714462625_7829_8.jpg"],"created_at":"2024-05-03T07:19:26.874Z"},{"id":"item-3c98ad05069e","sku":"_dx2x2XK0Fsf_TMQf2ShwvKHLjceaCHRWRbguw4Q","name_en":"Chanel Women Bags","name_cn":"上身效果#3260、3261","specs":{"source":"wsxcme","sourceId":"_dx2x2XK0Fsf_TMQf2ShwvKHLjceaCHRWRbguw4Q","sourceTagId":47002745,"sourceTagName":"香奈儿/女包","rawTitle":"上身效果#3260、3261"},"price":null,"currency":"CNY","moq":1,"category":"chanel-women-bags","status":"active","alibaba_url":null,"images":["https://xcimg.szwego.com/20230226/i1677418221_2550_0.jpg","https://xcimg.szwego.com/20230226/i1677418221_23_1.jpg","https://xcimg.szwego.com/20230226/i1677418221_4216_2.jpg","https://xcimg.szwego.com/20230226/i1677418221_2654_3.jpg","https://xcimg.szwego.com/20230226/i1677418221_335_4.jpg","https://xcimg.szwego.com/20230226/i1677418221_2558_5.jpg","https://xcimg.szwego.com/20230226/i1677418221_4684_6.jpg","https://xcimg.szwego.com/20230226/i1677418221_2017_7.jpg","https://xcimg.szwego.com/20230226/i1677418221_4437_8.jpg"],"created_at":"2026-06-29T10:35:34.134Z"},{"id":"item-3ba836e5c466","sku":"_d4k4kL2yuiYKly5k1LkX0tuw4kLMLpKOF66GadQ","name_en":"Chanel Women Bags","name_cn":"香奈儿/女包","specs":{"source":"wsxcme","sourceId":"_d4k4kL2yuiYKly5k1LkX0tuw4kLMLpKOF66GadQ","sourceTagId":47002745,"sourceTagName":"香奈儿/女包","rawTitle":""},"price":null,"currency":"CNY","moq":1,"category":"chanel-women-bags","status":"active","alibaba_url":null,"images":["https://xcimg.szwego.com/img/d0c94e6f/20250806/i1754492920_5568_0.jpg"],"created_at":"2025-09-19T04:32:40.098Z"},{"id":"item-3acb68c60a6e","sku":"_dvfvfQIDk2fPIQTywHD_c0DOyWYiRbqyO4Y2Ymw","name_en":"Chanel Women Bags","name_cn":"香奈儿/女包","specs":{"source":"wsxcme","sourceId":"_dvfvfQIDk2fPIQTywHD_c0DOyWYiRbqyO4Y2Ymw","sourceTagId":47002745,"sourceTagName":"香奈儿/女包","rawTitle":""},"price":null,"currency":"CNY","moq":1,"category":"chanel-women-bags","status":"active","alibaba_url":null,"images":["https://xcimg.szwego.com/img/d0c94e6f/20250806/i1754492879_7552_0.jpg"],"created_at":"2025-09-19T04:32:40.096Z"},{"id":"item-3a9d0b17d282","sku":"_dlYlY9zkElxjyDF4Pp22bzijHwjblgfgHAlR41A","name_en":"Chanel Women Bags","name_cn":"。白金版▪️正品级 包装如图\n全新现货!!️超级火爆22Bag小号\nChane1 22bag  24s 铆钉牛仔垃圾袋\n\n今年上新的时髦点ꫛꫀꪝ\n以年份数字为命名❏\n对准它!!Chane1 22手袋〰️\"垃圾袋♥\"\n春天到了🌿牛仔单品入起来!\n一直以飒爽英姿闻名的牛仔\n在这个春夏以温柔的色调捕捉你的眼光\n赶快安排好你的丹宁风吧〰\n这草种得有点措不手及🤷‍♂️\n说垃圾袋也好 收纳袋也罢\n反正就是很对味🪄\n图片太多了实在火爆\n娱乐圈明星 超模们同款👀卷起来了!\n越看越上头呀!!\n\n五金:厚镀24k磨砂银\n皮料:水洗丹宁牛仔\n尺寸:35*37*7cm","specs":{"source":"wsxcme","sourceId":"_dlYlY9zkElxjyDF4Pp22bzijHwjblgfgHAlR41A","sourceTagId":47002745,"sourceTagName":"香奈儿/女包","dimensions":{"lengthCm":35,"heightCm":37,"widthCm":7},"rawTitle":"。白金版▪️正品级 包装如图\n全新现货!!️超级火爆22Bag小号\nChane1 22bag  24s 铆钉牛仔垃圾袋\n\n今年上新的时髦点ꫛꫀꪝ\n以年份数字为命名❏\n对准它!!Chane1 22手袋〰️\"垃圾袋♥\"\n春天到了🌿牛仔单品入起来!\n一直以飒爽英姿闻名的牛仔\n在这个春夏以温柔的色调捕捉你的眼光\n赶快安排好你的丹宁风吧〰\n这草种得有点措不手及🤷‍♂️\n说垃圾袋也好 收纳袋也罢\n反正就是很对味🪄\n图片太多了实在火爆\n娱乐圈明星 超模们同款👀卷起来了!\n越看越上头呀!!\n\n五金:厚镀24k磨砂银\n皮料:水洗丹宁牛仔\n尺寸:35*37*7cm"},"price":null,"currency":"CNY","moq":1,"category":"chanel-women-bags","status":"active","alibaba_url":null,"images":["https://xcimg.szwego.com/20240430/i1714457021_8372_0.jpg","https://xcimg.szwego.com/20240430/i1714457021_6398_1.jpg","https://xcimg.szwego.com/20240430/i1714457021_5860_2.jpg","https://xcimg.szwego.com/20240430/i1714457021_2298_3.jpg","https://xcimg.szwego.com/20240430/i1714457021_1655_4.jpg","https://xcimg.szwego.com/20240430/i1714457021_5713_5.jpg","https://xcimg.szwego.com/20240430/i1714457021_8404_6.jpg","https://xcimg.szwego.com/20240430/i1714457021_7682_7.jpg","https://xcimg.szwego.com/20240430/i1714457021_4815_8.jpg"],"created_at":"2024-05-03T07:19:26.857Z"},{"id":"item-3a0c6cbf7ab3","sku":"_dplploMcxiB9wW5PNEGtfpW7aQ8k6q2O1jrWJlA","name_en":"Chanel Women Bags","name_cn":"22手袋 黑银\n\n 原厂方框一级小牛皮👍皮质细腻有光泽,\n既柔软又耐磨,两者兼具\n简简单单的外观却藏着不少设计师的高级设计,镂空的chanel logo的金币,小小的点缀让整体气质提高了不止一个Level,满满的复古情怀,松松垮垮的慵懒感! 🍃\n\n尺寸:39*42*8cm","specs":{"source":"wsxcme","sourceId":"_dplploMcxiB9wW5PNEGtfpW7aQ8k6q2O1jrWJlA","sourceTagId":47002745,"sourceTagName":"香奈儿/女包","dimensions":{"lengthCm":39,"heightCm":42,"widthCm":8},"rawTitle":"22手袋 黑银\n\n 原厂方框一级小牛皮👍皮质细腻有光泽,\n既柔软又耐磨,两者兼具\n简简单单的外观却藏着不少设计师的高级设计,镂空的chanel logo的金币,小小的点缀让整体气质提高了不止一个Level,满满的复古情怀,松松垮垮的慵懒感! 🍃\n\n尺寸:39*42*8cm"},"price":null,"currency":"CNY","moq":1,"category":"chanel-women-bags","status":"active","alibaba_url":null,"images":["https://xcimg.szwego.com/20230626/i1687787764_972_0.jpg","https://xcimg.szwego.com/20230626/i1687787764_5621_1.jpg","https://xcimg.szwego.com/20230626/i1687787764_7927_2.jpg","https://xcimg.szwego.com/20230626/i1687787764_4630_3.jpg"],"created_at":"2024-05-01T03:19:54.442Z"},{"id":"item-3801e8e978c7","sku":"_dwfwflVfgaUj7Ghlujv-u3U0r5iTR1fnHDYw8rA","name_en":"Chanel Women Bags","name_cn":"香奈儿/女包","specs":{"source":"wsxcme","sourceId":"_dwfwflVfgaUj7Ghlujv-u3U0r5iTR1fnHDYw8rA","sourceTagId":47002745,"sourceTagName":"香奈儿/女包","rawTitle":""},"price":null,"currency":"CNY","moq":1,"category":"chanel-women-bags","status":"active","alibaba_url":null,"images":["https://xcimg.szwego.com/img/d0c94e6f/20250828/i1756387922_2481_0.jpg"],"created_at":"2025-09-19T04:32:40.120Z"},{"id":"item-37ff19b4b5cf","sku":"_drNrNBJ9Ra0_LwvLyyJwpdVycA1U0KKT6tTRGOw","name_en":"Chanel Women Bags","name_cn":"白金版▪️正品级 包装如图\nChanel CF小号 杏色\n全名Classic Fla0 \n尺寸:Small 23*14.5*6cm\n皮料:原厂Haas细球鱼子酱\n五金:24K浅金电镀 \n\n经典的CF就是有着让人一见倾心的魅力,走到哪里都是移动的高雅标签,纯白色散发着文雅娴淑的女神范儿,搭配金扣精致奢华,堪称人手一见的奢侈品入门之选哦~","specs":{"source":"wsxcme","sourceId":"_drNrNBJ9Ra0_LwvLyyJwpdVycA1U0KKT6tTRGOw","sourceTagId":47002745,"sourceTagName":"香奈儿/女包","rawTitle":"白金版▪️正品级 包装如图\nChanel CF小号 杏色\n全名Classic Fla0 \n尺寸:Small 23*14.5*6cm\n皮料:原厂Haas细球鱼子酱\n五金:24K浅金电镀 \n\n经典的CF就是有着让人一见倾心的魅力,走到哪里都是移动的高雅标签,纯白色散发着文雅娴淑的女神范儿,搭配金扣精致奢华,堪称人手一见的奢侈品入门之选哦~"},"price":null,"currency":"CNY","moq":1,"category":"chanel-women-bags","status":"active","alibaba_url":null,"images":["https://xcimg.szwego.com/20230529/i1685339036_3688_0.jpg","https://xcimg.szwego.com/20230529/i1685339036_4430_1.jpg","https://xcimg.szwego.com/20230529/i1685339036_9700_2.jpg","https://xcimg.szwego.com/20230529/i1685339036_5684_3.jpg","https://xcimg.szwego.com/20230529/i1685339036_4356_4.jpg","https://xcimg.szwego.com/20230529/i1685339036_564_5.jpg","https://xcimg.szwego.com/20230529/i1685339036_1890_6.jpg","https://xcimg.szwego.com/20230529/i1685339036_8758_7.jpg","https://xcimg.szwego.com/20230529/i1685339036_9478_8.jpg"],"created_at":"2024-05-01T03:19:54.381Z"}],"page":41,"pageSize":24,"total":1102,"totalPages":46}
