{"items":[{"id":"item-2304698e4ba9","sku":"_dnDnDh9hPeuRo5dpNRmrFC0Wod_TCATfqh90JtQ","name_en":"In-stock Black!!️","name_cn":"In-stock Black!!️\nLady latest model double shoulder strap, beaded pendants, new strap looks so good🤩 Allows Lady to be worn underarm! A unique romantic style, too attractive to girls, helps you capture moments of love. Classic bag shape, sweet yet elegant. The bag comes with an adjustable shoulder strap, unlocking multiple carrying styles. Can't help falling in love.\nsize:17cm","specs":{"source":"wsxcme","sourceId":"_dnDnDh9hPeuRo5dpNRmrFC0Wod_TCATfqh90JtQ","sourceTagId":47002747,"sourceTagName":"Dior/women's bag","rawTitle":"In-stock Black!!️\nLady latest model double shoulder strap, beaded pendants, new strap looks so good🤩 Allows Lady to be worn underarm! A unique romantic style, too attractive to girls, helps you capture moments of love. Classic bag shape, sweet yet elegant. The bag comes with an adjustable shoulder strap, unlocking multiple carrying styles. Can't help falling in love.\nsize:17cm"},"price":null,"currency":"CNY","moq":1,"category":"dior-women-bags","status":"active","alibaba_url":null,"images":["https://xcimg.szwego.com/img/2b46f204/20241008/i1728331194_2128_8.jpg","https://xcimg.szwego.com/img/2b46f204/20241008/i1728331194_2649_4.jpg","https://xcimg.szwego.com/img/2b46f204/20241008/i1728331194_7052_5.jpg","https://xcimg.szwego.com/img/2b46f204/20241008/i1728331194_1345_7.jpg","https://xcimg.szwego.com/img/2b46f204/20241008/i1728331194_9460_2.jpg","https://xcimg.szwego.com/img/2b46f204/20241008/i1728331193_8956_1.jpg","https://xcimg.szwego.com/img/2b46f204/20241008/i1728331194_3546_3.jpg","https://xcimg.szwego.com/img/2b46f204/20241008/i1728331193_3120_0.jpg","https://xcimg.szwego.com/img/2b46f204/20241008/i1728331194_7285_6.jpg"],"created_at":"2024-10-25T09:04:45.688Z"},{"id":"item-ea8c9ccd1f0c","sku":"_dshshwhTupHjs7yX0iixJ5ILjW8gQNwABlD4gKg","name_en":"In-stock original leather Rouge!!️","name_cn":"In-stock original leather Rouge!!️\nDIOR Lady Suede Bing dynamic dazzling bold sci-fi visual impact is stunning🤤 The entire bag has a pearlescent laser effect, like a rainbow, very stunning! Paired with silver metal adds tension, so eye-catching👍 The contrast between elegance and coolness is unique. You must carry it out and walk around once you get it😌 It is truly excessively beautiful!!✔️\nSize;20×16.5×8cm","specs":{"source":"wsxcme","sourceId":"_dshshwhTupHjs7yX0iixJ5ILjW8gQNwABlD4gKg","sourceTagId":47002747,"sourceTagName":"Dior/women's bag","rawTitle":"In-stock original leather Rouge!!️\nDIOR Lady Suede Bing dynamic dazzling bold sci-fi visual impact is stunning🤤 The entire bag has a pearlescent laser effect, like a rainbow, very stunning! Paired with silver metal adds tension, so eye-catching👍 The contrast between elegance and coolness is unique. You must carry it out and walk around once you get it😌 It is truly excessively beautiful!!✔️\nSize;20×16.5×8cm"},"price":null,"currency":"CNY","moq":1,"category":"dior-women-bags","status":"active","alibaba_url":null,"images":["https://xcimg.szwego.com/img/2b46f204/20240516/i1715846179_3287_1.jpg","https://xcimg.szwego.com/img/2b46f204/20240516/i1715846179_3000_4.jpg","https://xcimg.szwego.com/img/2b46f204/20240516/i1715846179_3356_2.jpg","https://xcimg.szwego.com/img/2b46f204/20240516/i1715846179_8830_0.jpg","https://xcimg.szwego.com/img/2b46f204/20240516/i1715846179_8791_7.jpg","https://xcimg.szwego.com/img/2b46f204/20240516/i1715846179_5923_5.jpg","https://xcimg.szwego.com/img/2b46f204/20240516/i1715846179_7268_6.jpg","https://xcimg.szwego.com/img/2b46f204/20240516/i1715846180_2165_8.jpg","https://xcimg.szwego.com/img/2b46f204/20240516/i1715846179_156_3.jpg"],"created_at":"2024-10-25T09:04:45.691Z"},{"id":"item-0acfc8f669df","sku":"_dyjyjg9GyQB5q4lN0zp0HxRuGpOLZyHh2FKsvcg","name_en":"In-stock Red!!️","name_cn":"In-stock Red!!️\nLady Qixi Limited Series, sweet Qixi, unique romantic style, too attractive to girls, helps you capture moments of love, exquisite heart-shaped pendants, classic bag shape, sweet yet elegant, the bag comes with two shoulder straps, unlocking multiple carrying styles, can't help falling in love.\nsize:17*7*15cm","specs":{"source":"wsxcme","sourceId":"_dyjyjg9GyQB5q4lN0zp0HxRuGpOLZyHh2FKsvcg","sourceTagId":47002747,"sourceTagName":"Dior/women's bag","rawTitle":"In-stock Red!!️\nLady Qixi Limited Series, sweet Qixi, unique romantic style, too attractive to girls, helps you capture moments of love, exquisite heart-shaped pendants, classic bag shape, sweet yet elegant, the bag comes with two shoulder straps, unlocking multiple carrying styles, can't help falling in love.\nsize:17*7*15cm"},"price":null,"currency":"CNY","moq":1,"category":"dior-women-bags","status":"active","alibaba_url":null,"images":["https://xcimg.szwego.com/img/2b46f204/20240907/i1725697668_4609_5.jpg","https://xcimg.szwego.com/img/2b46f204/20240907/i1725697667_1289_0.jpg","https://xcimg.szwego.com/img/2b46f204/20240907/i1725697668_2183_6.jpg","https://xcimg.szwego.com/img/2b46f204/20240907/i1725697668_8708_9.jpg","https://xcimg.szwego.com/img/2b46f204/20240907/i1725697667_1763_3.jpg","https://xcimg.szwego.com/img/2b46f204/20240907/i1725697667_5064_2.jpg","https://xcimg.szwego.com/img/2b46f204/20240907/i1725697668_154_4.jpg","https://xcimg.szwego.com/img/2b46f204/20240907/i1725697668_4129_8.jpg","https://xcimg.szwego.com/img/2b46f204/20240907/i1725697668_9944_7.jpg"],"created_at":"2024-10-25T09:04:45.687Z"},{"id":"item-263c85dfb05e","sku":"_d1717UPTyvpqABvNpK_21pkbJ8SU-N9EVL1AJfg","name_en":"In-stock Rouge!!️","name_cn":"In-stock Rouge!!️\nLady latest model double shoulder strap, beaded pendants, new strap looks so good🤩 Allows Lady to be worn underarm! A unique romantic style, too attractive to girls, helps you capture moments of love. Classic bag shape, sweet yet elegant. The bag comes with an adjustable shoulder strap, unlocking multiple carrying styles. Can't help falling in love.\nsize:17cm","specs":{"source":"wsxcme","sourceId":"_d1717UPTyvpqABvNpK_21pkbJ8SU-N9EVL1AJfg","sourceTagId":47002747,"sourceTagName":"Dior/women's bag","rawTitle":"In-stock Rouge!!️\nLady latest model double shoulder strap, beaded pendants, new strap looks so good🤩 Allows Lady to be worn underarm! A unique romantic style, too attractive to girls, helps you capture moments of love. Classic bag shape, sweet yet elegant. The bag comes with an adjustable shoulder strap, unlocking multiple carrying styles. Can't help falling in love.\nsize:17cm"},"price":null,"currency":"CNY","moq":1,"category":"dior-women-bags","status":"active","alibaba_url":null,"images":["https://xcimg.szwego.com/img/2b46f204/20241008/i1728331447_7297_3.jpg","https://xcimg.szwego.com/img/2b46f204/20241008/i1728331447_5206_7.jpg","https://xcimg.szwego.com/img/2b46f204/20241008/i1728331447_6632_6.jpg","https://xcimg.szwego.com/img/2b46f204/20241008/i1728331447_3133_4.jpg","https://xcimg.szwego.com/img/2b46f204/20241008/i1728331447_4411_8.jpg","https://xcimg.szwego.com/img/2b46f204/20241008/i1728331447_4944_1.jpg","https://xcimg.szwego.com/img/2b46f204/20241008/i1728331447_9923_5.jpg","https://xcimg.szwego.com/img/2b46f204/20241008/i1728331446_5434_0.jpg","https://xcimg.szwego.com/img/2b46f204/20241008/i1728331447_6315_2.jpg"],"created_at":"2024-10-25T09:04:45.689Z"},{"id":"item-bf639bfccb05","sku":"_ddYdYpn0CFKxgrOIPWrgrjGHhyjaB7G6EMvm-2A","name_en":"In-stock White!!️","name_cn":"In-stock White!!️\nLady latest model double shoulder strap, beaded pendants, new strap looks so good🤩 Allows Lady to be worn underarm! A unique romantic style, too attractive to girls, helps you capture moments of love. Classic bag shape, sweet yet elegant. The bag comes with an adjustable shoulder strap, unlocking multiple carrying styles. Can't help falling in love.\nsize:20*8*17cm","specs":{"source":"wsxcme","sourceId":"_ddYdYpn0CFKxgrOIPWrgrjGHhyjaB7G6EMvm-2A","sourceTagId":47002747,"sourceTagName":"Dior/women's bag","rawTitle":"In-stock White!!️\nLady latest model double shoulder strap, beaded pendants, new strap looks so good🤩 Allows Lady to be worn underarm! A unique romantic style, too attractive to girls, helps you capture moments of love. Classic bag shape, sweet yet elegant. The bag comes with an adjustable shoulder strap, unlocking multiple carrying styles. Can't help falling in love.\nsize:20*8*17cm"},"price":null,"currency":"CNY","moq":1,"category":"dior-women-bags","status":"active","alibaba_url":null,"images":["https://xcimg.szwego.com/img/2b46f204/20241008/i1728331563_1154_7.jpg","https://xcimg.szwego.com/img/2b46f204/20241008/i1728331562_9331_0.jpg","https://xcimg.szwego.com/img/2b46f204/20241008/i1728331563_1294_8.jpg","https://xcimg.szwego.com/img/2b46f204/20241008/i1728331563_7642_1.jpg","https://xcimg.szwego.com/img/2b46f204/20241008/i1728331563_1919_4.jpg","https://xcimg.szwego.com/img/2b46f204/20241008/i1728331563_1794_3.jpg","https://xcimg.szwego.com/img/2b46f204/20241008/i1728331563_3379_5.jpg","https://xcimg.szwego.com/img/2b46f204/20241008/i1728331563_96_6.jpg","https://xcimg.szwego.com/img/2b46f204/20241008/i1728331563_5421_2.jpg"],"created_at":"2024-10-25T09:04:45.690Z"},{"id":"item-05120780513d","sku":"_ddUdUvvttPesJWXsVuSG0kVBEZBEq3kffXkpRnA","name_en":"Item number: M6323","name_cn":"Item number: M6323\n24 x 14 x 9 cm (L x H x W) See image","specs":{"source":"wsxcme","sourceId":"_ddUdUvvttPesJWXsVuSG0kVBEZBEq3kffXkpRnA","sourceTagId":47002747,"sourceTagName":"Dior/women's bag","rawTitle":"Item number: M6323\n24 x 14 x 9 cm (L x H x W) See image"},"price":null,"currency":"CNY","moq":1,"category":"dior-women-bags","status":"active","alibaba_url":null,"images":["https://xcimg.szwego.com/imgHD/730f3e37/20250723/cmp_windows1753313776595_190066747-992013921.jpg","https://xcimg.szwego.com/imgHD/730f3e37/20250723/cmp_windows1753313775824_159636084-992014946.jpg","https://xcimg.szwego.com/imgHD/730f3e37/20250723/cmp_windows1753313778091_1911471537-1858895506.jpg","https://xcimg.szwego.com/imgHD/730f3e37/20250723/cmp_windows1753313778106_1560099646-1858896531.jpg","https://xcimg.szwego.com/imgHD/730f3e37/20250723/cmp_windows1753313779595_782648898-1233556330.jpg","https://xcimg.szwego.com/imgHD/730f3e37/20250723/cmp_windows1753313779578_1134020789-1233555305.jpg","https://xcimg.szwego.com/imgHD/730f3e37/20250723/cmp_windows1753313781574_42719746-1456456075.jpg","https://xcimg.szwego.com/imgHD/730f3e37/20250723/cmp_windows1753313781560_1419675465-1456457100.jpg","https://xcimg.szwego.com/imgHD/730f3e37/20250723/cmp_windows1753313784143_1787464266-445417584.jpg"],"created_at":"2025-09-19T04:57:30.396Z"},{"id":"item-e40709849c7e","sku":"_dmwmwKEfp2oR9l2Y-rrefkVqMzwfrvXRszaUJdw","name_en":"Lady","name_cn":"Lady","specs":{"source":"wsxcme","sourceId":"_dmwmwKEfp2oR9l2Y-rrefkVqMzwfrvXRszaUJdw","sourceTagId":47002747,"sourceTagName":"Dior/women's bag","rawTitle":"Lady"},"price":null,"currency":"CNY","moq":1,"category":"dior-women-bags","status":"active","alibaba_url":null,"images":["https://xcimg.szwego.com/img/2b46f204/20240708/i1720420579_9206_0.jpg"],"created_at":"2024-11-11T09:13:17.010Z"},{"id":"item-94766ecabe56","sku":"_dwqwqZkwasg0dIsfjlObkMKfT9sc2g7laB7avqQ","name_en":"Lady","name_cn":"Lady","specs":{"source":"wsxcme","sourceId":"_dwqwqZkwasg0dIsfjlObkMKfT9sc2g7laB7avqQ","sourceTagId":47002747,"sourceTagName":"Dior/women's bag","rawTitle":"Lady"},"price":null,"currency":"CNY","moq":1,"category":"dior-women-bags","status":"active","alibaba_url":null,"images":["https://xcimg.szwego.com/img/2b46f204/20240525/i1716625866_1408_0.jpg"],"created_at":"2024-11-11T09:13:17.008Z"},{"id":"item-89d238559747","sku":"_d48487qUeByZsYWo5LGI7iNMpcTUipNp_8umplw","name_en":"Lady","name_cn":"Lady","specs":{"source":"wsxcme","sourceId":"_d48487qUeByZsYWo5LGI7iNMpcTUipNp_8umplw","sourceTagId":47002747,"sourceTagName":"Dior/women's bag","rawTitle":"Lady"},"price":null,"currency":"CNY","moq":1,"category":"dior-women-bags","status":"active","alibaba_url":null,"images":["https://xcimg.szwego.com/20201207/i1607354347_8363_0.jpg"],"created_at":"2024-11-11T09:13:17.018Z"},{"id":"item-7afecb0d7722","sku":"_dOkOk6C4Gf3wolqh80n5z0p356FYySVFnxqSLjg","name_en":"Lady","name_cn":"Lady","specs":{"source":"wsxcme","sourceId":"_dOkOk6C4Gf3wolqh80n5z0p356FYySVFnxqSLjg","sourceTagId":47002747,"sourceTagName":"Dior/women's bag","rawTitle":"Lady"},"price":null,"currency":"CNY","moq":1,"category":"dior-women-bags","status":"active","alibaba_url":null,"images":["https://xcimg.szwego.com/20210106/i1609874084_2803_0.jpg"],"created_at":"2024-11-11T09:13:17.017Z"},{"id":"item-699fc1ac0445","sku":"_d9h9hvb3ITQHJy3yhlhoVEMBAgioPEXII5NN9tA","name_en":"Lady","name_cn":"Lady","specs":{"source":"wsxcme","sourceId":"_d9h9hvb3ITQHJy3yhlhoVEMBAgioPEXII5NN9tA","sourceTagId":47002747,"sourceTagName":"Dior/women's bag","rawTitle":"Lady"},"price":null,"currency":"CNY","moq":1,"category":"dior-women-bags","status":"active","alibaba_url":null,"images":["https://xcimg.szwego.com/img/2b46f204/20240525/i1716625814_4202_0.jpg"],"created_at":"2024-11-11T09:13:17.006Z"},{"id":"item-22424b133317","sku":"_dfrfrcDqU30NGUEGy18PylsoemEbC5v5Dr21Zng","name_en":"Lady","name_cn":"Lady","specs":{"source":"wsxcme","sourceId":"_dfrfrcDqU30NGUEGy18PylsoemEbC5v5Dr21Zng","sourceTagId":47002747,"sourceTagName":"Dior/women's bag","rawTitle":"Lady"},"price":null,"currency":"CNY","moq":1,"category":"dior-women-bags","status":"active","alibaba_url":null,"images":["https://xcimg.szwego.com/20201229/i1609174261_6418_0.jpg"],"created_at":"2024-11-11T09:13:17.016Z"},{"id":"item-21614962d2a2","sku":"_doFoFoEzyukY6jWk4A1XVcY0Ou14neuzdSwcyqw","name_en":"Lady","name_cn":"Lady","specs":{"source":"wsxcme","sourceId":"_doFoFoEzyukY6jWk4A1XVcY0Ou14neuzdSwcyqw","sourceTagId":47002747,"sourceTagName":"Dior/women's bag","rawTitle":"Lady"},"price":null,"currency":"CNY","moq":1,"category":"dior-women-bags","status":"active","alibaba_url":null,"images":["https://xcimg.szwego.com/20201229/i1609174160_774_0.jpg"],"created_at":"2024-11-11T09:13:17.019Z"},{"id":"item-023b578936a2","sku":"_diIiIrZV3L8iDQldvxTEA_9Km-F4D09QynDUWKg","name_en":"Lady","name_cn":"Lady","specs":{"source":"wsxcme","sourceId":"_diIiIrZV3L8iDQldvxTEA_9Km-F4D09QynDUWKg","sourceTagId":47002747,"sourceTagName":"Dior/women's bag","rawTitle":"Lady"},"price":null,"currency":"CNY","moq":1,"category":"dior-women-bags","status":"active","alibaba_url":null,"images":["https://xcimg.szwego.com/20201229/i1609174233_8792_0.jpg"],"created_at":"2024-11-11T09:13:17.020Z"},{"id":"item-572d920ef459","sku":"_dn9n9_X3jKnsnVHoiUL661oFMcqtb848dvsc_XA","name_en":"Lady Di 3-Compartment Black Suede","name_cn":"Lady Di 3-Compartment Black Suede","specs":{"source":"wsxcme","sourceId":"_dn9n9_X3jKnsnVHoiUL661oFMcqtb848dvsc_XA","sourceTagId":47002747,"sourceTagName":"Dior/women's bag","rawTitle":"Lady Di 3-Compartment Black Suede"},"price":null,"currency":"CNY","moq":1,"category":"dior-women-bags","status":"active","alibaba_url":null,"images":["https://xcimg.szwego.com/20210106/i1609873938_5786_0.jpg"],"created_at":"2024-11-11T09:13:17.014Z"},{"id":"item-5a5f2eeaf4a9","sku":"_dKQKQ6AX1Gf476qglv9tOtJtqgGhti3RtbdRr9w","name_en":"Lady Di 4-Compartment Black Suede","name_cn":"Lady Di 4-Compartment Black Suede","specs":{"source":"wsxcme","sourceId":"_dKQKQ6AX1Gf476qglv9tOtJtqgGhti3RtbdRr9w","sourceTagId":47002747,"sourceTagName":"Dior/women's bag","rawTitle":"Lady Di 4-Compartment Black Suede"},"price":null,"currency":"CNY","moq":1,"category":"dior-women-bags","status":"active","alibaba_url":null,"images":["https://xcimg.szwego.com/20201207/i1607354803_2637_0.jpg"],"created_at":"2024-11-11T09:13:17.013Z"},{"id":"item-156568d5c571","sku":"_dptptVukhU2b2Od2Rbf422SWeHpgPoOn1gjyDVg","name_en":"Lady Di 4-Compartment Suede","name_cn":"Lady Di 4-Compartment Suede","specs":{"source":"wsxcme","sourceId":"_dptptVukhU2b2Od2Rbf422SWeHpgPoOn1gjyDVg","sourceTagId":47002747,"sourceTagName":"Dior/women's bag","rawTitle":"Lady Di 4-Compartment Suede"},"price":null,"currency":"CNY","moq":1,"category":"dior-women-bags","status":"active","alibaba_url":null,"images":["https://xcimg.szwego.com/20201207/i1607354443_6859_0.jpg"],"created_at":"2024-11-11T09:13:17.015Z"},{"id":"item-74b9f694fab4","sku":"_dMAMAt9KuHy5_xq_lS62Pv9dKlBAQgm2XYzdqeg","name_en":"Lady Di Horizontal Sheepskin Milk Tea","name_cn":"Lady Di Horizontal Sheepskin Milk Tea","specs":{"source":"wsxcme","sourceId":"_dMAMAt9KuHy5_xq_lS62Pv9dKlBAQgm2XYzdqeg","sourceTagId":47002747,"sourceTagName":"Dior/women's bag","rawTitle":"Lady Di Horizontal Sheepskin Milk Tea"},"price":null,"currency":"CNY","moq":1,"category":"dior-women-bags","status":"active","alibaba_url":null,"images":["https://xcimg.szwego.com/20220616/i1655343309_9875_0.jpg"],"created_at":"2024-11-11T09:13:16.932Z"},{"id":"item-9deac7712c46","sku":"_dGXGXfLjpdSGKcrkzo4ExszoE9JJqBtlMCZvCYg","name_en":"Lady Di Horizontal Sheepskin Retro Pink","name_cn":"Lady Di Horizontal Sheepskin Retro Pink","specs":{"source":"wsxcme","sourceId":"_dGXGXfLjpdSGKcrkzo4ExszoE9JJqBtlMCZvCYg","sourceTagId":47002747,"sourceTagName":"Dior/women's bag","rawTitle":"Lady Di Horizontal Sheepskin Retro Pink"},"price":null,"currency":"CNY","moq":1,"category":"dior-women-bags","status":"active","alibaba_url":null,"images":["https://xcimg.szwego.com/20220818/i1660799968_1699_0.jpg"],"created_at":"2024-11-11T09:13:16.931Z"},{"id":"item-24d10ab17f3c","sku":"_dHOHOFaxWhmxtLgpq1XurPId8rVft8zPaJqf1eA","name_en":"Lady Diana 3-compartment","name_cn":"Lady Diana 3-compartment","specs":{"source":"wsxcme","sourceId":"_dHOHOFaxWhmxtLgpq1XurPId8rVft8zPaJqf1eA","sourceTagId":47002747,"sourceTagName":"Dior/women's bag","rawTitle":"Lady Diana 3-compartment"},"price":null,"currency":"CNY","moq":1,"category":"dior-women-bags","status":"active","alibaba_url":null,"images":["https://xcimg.szwego.com/img/2b46f204/20240524/i1716540700_8155_0.jpg"],"created_at":"2024-11-11T09:13:16.978Z"},{"id":"item-b477a0367435","sku":"_dsasatHzUr7OmRE5qkUeTriht66-Mw9maPToyVA","name_en":"Lady Diana 4-compartment","name_cn":"Lady Diana 4-compartment","specs":{"source":"wsxcme","sourceId":"_dsasatHzUr7OmRE5qkUeTriht66-Mw9maPToyVA","sourceTagId":47002747,"sourceTagName":"Dior/women's bag","rawTitle":"Lady Diana 4-compartment"},"price":null,"currency":"CNY","moq":1,"category":"dior-women-bags","status":"active","alibaba_url":null,"images":["https://xcimg.szwego.com/img/2b46f204/20240524/i1716540455_820_0.jpg"],"created_at":"2024-11-11T09:13:16.976Z"},{"id":"item-c8930057708d","sku":"_dfNfNsD7WSRZ7ihJapT9giDUq6JrZ25NhE0DWeA","name_en":"Lady Dior Four-Compartment Calfskin Lady D Bag","name_cn":"Lady Dior Four-Compartment Calfskin Lady D Bag\n💕 Peony Pink New Colorway\n💕 A very romantic color\n💕 Truly healing","specs":{"source":"wsxcme","sourceId":"_dfNfNsD7WSRZ7ihJapT9giDUq6JrZ25NhE0DWeA","sourceTagId":47002747,"sourceTagName":"Dior/women's bag","rawTitle":"Lady Dior Four-Compartment Calfskin Lady D Bag\n💕 Peony Pink New Colorway\n💕 A very romantic color\n💕 Truly healing"},"price":null,"currency":"CNY","moq":1,"category":"dior-women-bags","status":"active","alibaba_url":null,"images":["https://xcimg.szwego.com/20221130/i1669778013_5671_0.jpg","https://xcimg.szwego.com/20221130/i1669778013_685_1.jpg","https://xcimg.szwego.com/20221130/i1669778013_8965_2.jpg","https://xcimg.szwego.com/20221130/i1669778013_9443_3.jpg","https://xcimg.szwego.com/20221130/i1669778013_5560_4.jpg","https://xcimg.szwego.com/20221130/i1669778013_6478_5.jpg"],"created_at":"2024-11-11T09:13:16.951Z"},{"id":"item-c0b4ff264a6e","sku":"_dUxUx55LAITre83fAIX3wKs2T7jQNjVXAPZ3tLA","name_en":"Lady Dior Mini Lady D Bag Burgundy 🍒 Gold Hardware Very Versatile, makes you shine at evening events 🌈 A three-compartment Lady D bag worth buying!!️","name_cn":"Lady Dior Mini Lady D Bag Burgundy 🍒 Gold Hardware Very Versatile, makes you shine at evening events 🌈 A three-compartment Lady D bag worth buying!!️","specs":{"source":"wsxcme","sourceId":"_dUxUx55LAITre83fAIX3wKs2T7jQNjVXAPZ3tLA","sourceTagId":47002747,"sourceTagName":"Dior/women's bag","rawTitle":"Lady Dior Mini Lady D Bag Burgundy 🍒 Gold Hardware Very Versatile, makes you shine at evening events 🌈 A three-compartment Lady D bag worth buying!!️"},"price":null,"currency":"CNY","moq":1,"category":"dior-women-bags","status":"active","alibaba_url":null,"images":["https://xcimg.szwego.com/20201116/i1605467416_1316_0","https://xcimg.szwego.com/20201116/i1605467416_6558_1","https://xcimg.szwego.com/20201116/i1605467416_5852_2","https://xcimg.szwego.com/20201116/i1605467416_6447_3","https://xcimg.szwego.com/20201116/i1605467416_8898_4","https://xcimg.szwego.com/20201116/i1605467417_3918_5","https://xcimg.szwego.com/20201116/i1605467417_3581_6","https://xcimg.szwego.com/20201116/i1605467417_2318_7","https://xcimg.szwego.com/20201116/i1605467417_5616_8"],"created_at":"2024-11-11T09:13:16.955Z"},{"id":"item-0a5e8a451bc9","sku":"_dfGfGd6s1QGhhYwQvAQd390jDyyp9kMlr7-G2UA","name_en":"Lady Dior quilted matte calfskin flap bag, including the hardware chain handle, features a textured matte finish that is versatile and elegant. Ultra mat finish metal accessories. Can be carried by hand, over the shoulder, or crossbody.","name_cn":"Lady Dior quilted matte calfskin flap bag, including the hardware chain handle, features a textured matte finish that is versatile and elegant. Ultra mat finish metal accessories. Can be carried by hand, over the shoulder, or crossbody.\nSize: 17cm.\nStyle No.: 6603","specs":{"source":"wsxcme","sourceId":"_dfGfGd6s1QGhhYwQvAQd390jDyyp9kMlr7-G2UA","sourceTagId":47002747,"sourceTagName":"Dior/women's bag","modelNumber":"6603","rawTitle":"Lady Dior quilted matte calfskin flap bag, including the hardware chain handle, features a textured matte finish that is versatile and elegant. Ultra mat finish metal accessories. Can be carried by hand, over the shoulder, or crossbody.\nSize: 17cm.\nStyle No.: 6603"},"price":null,"currency":"CNY","moq":1,"category":"dior-women-bags","status":"active","alibaba_url":null,"images":["https://xcimg.szwego.com/20210110/i1610251326_1314_0.jpg","https://xcimg.szwego.com/20210110/i1610251326_5538_1.jpg","https://xcimg.szwego.com/20210110/i1610251326_1937_2.jpg","https://xcimg.szwego.com/20210110/i1610251326_7916_3.jpg","https://xcimg.szwego.com/20210110/i1610251326_7130_4.jpg","https://xcimg.szwego.com/20210110/i1610251326_976_5.jpg","https://xcimg.szwego.com/20210110/i1610251326_3864_6.jpg","https://xcimg.szwego.com/20210110/i1610251326_2184_7.jpg","https://xcimg.szwego.com/20210110/i1610251326_6166_8.jpg"],"created_at":"2024-05-14T15:59:39.394Z"}],"page":22,"pageSize":24,"total":961,"totalPages":41}
