{"items":[{"id":"item-01b8972bcbad","sku":"_dwUwUmc8ZM7JdO32N29194-OTuuStnfGgOQsX0w","name_en":"Dior❤️ Toujours 手袋〔油蜡皮黑色中号〕","name_cn":"Dior❤️ Toujours 手袋〔油蜡皮黑色中号〕\n这款Dior Toujours 手袋于二零二三春夏系列发布秀精彩亮相,休闲实用的设计别具一格.采用黑色牛皮革精心制作,饰以超大藤格纹缉面线,宽敞的内部隔层搭配小袋,可整齐收纳各种日常用品,另有CD Lock 字母D旋钮式开合,可调节两侧,提升格调.皮革手柄带有可调节细节细节,可轻松手提.          CD Lock和系带开合 DIOR吊饰 可拆卸内部小袋 可调节皮革手柄 内含防尘袋  \n\n型号:2821\n尺寸:28.5x19x21.5cm。 000740","specs":{"source":"wsxcme","sourceId":"_dwUwUmc8ZM7JdO32N29194-OTuuStnfGgOQsX0w","sourceTagId":47002747,"sourceTagName":"迪奥/女包","modelNumber":"2821","dimensions":{"lengthCm":28.5,"heightCm":19,"widthCm":21.5},"rawTitle":"Dior❤️ Toujours 手袋〔油蜡皮黑色中号〕\n这款Dior Toujours 手袋于二零二三春夏系列发布秀精彩亮相,休闲实用的设计别具一格.采用黑色牛皮革精心制作,饰以超大藤格纹缉面线,宽敞的内部隔层搭配小袋,可整齐收纳各种日常用品,另有CD Lock 字母D旋钮式开合,可调节两侧,提升格调.皮革手柄带有可调节细节细节,可轻松手提.          CD Lock和系带开合 DIOR吊饰 可拆卸内部小袋 可调节皮革手柄 内含防尘袋  \n\n型号:2821\n尺寸:28.5x19x21.5cm。 000740"},"price":null,"currency":"CNY","moq":1,"category":"dior-women-bags","status":"active","alibaba_url":null,"images":["https://xcimg.szwego.com/img/ec683d96/20240403/i1712079238_4156_8.jpg","https://xcimg.szwego.com/img/ec683d96/20240403/i1712079238_9666_5.jpg","https://xcimg.szwego.com/img/ec683d96/20240403/i1712079238_8745_7.jpg","https://xcimg.szwego.com/img/ec683d96/20240403/i1712079237_1721_0.jpg","https://xcimg.szwego.com/img/ec683d96/20240403/i1712079238_9654_2.jpg","https://xcimg.szwego.com/img/ec683d96/20240403/i1712079238_5854_6.jpg","https://xcimg.szwego.com/img/ec683d96/20240403/i1712079238_1398_4.jpg","https://xcimg.szwego.com/img/ec683d96/20240403/i1712079237_4976_1.jpg","https://xcimg.szwego.com/img/ec683d96/20240403/i1712079238_8232_3.jpg"],"created_at":"2024-11-26T11:47:46.744Z"},{"id":"item-1aa1cd3b713c","sku":"_dqpqpkJEhM3kkhcwx9X59RtyDvI0ajsG75EjXMg","name_en":"Dior❤️ Toujours 手袋〔棕色中号〕","name_cn":"Dior❤️ Toujours 手袋〔棕色中号〕\n这款Dior Toujours 手袋于二零二三春夏系列发布秀精彩亮相,休闲实用的设计别具一格.采用棕色牛皮革精心制作,饰以超大藤格纹缉面线,宽敞的内部隔层搭配小袋,可整齐收纳各种日常用品,另有CD Lock 字母D旋钮式开合,可调节两侧,提升格调.皮革手柄带有可调节细节细节,可轻松手提.          CD Lock和系带开合 DIOR吊饰 可拆卸内部小袋 可调节皮革手柄 内含防尘袋  \n\n型号:2821\n尺寸:28.5x19x21.5cm","specs":{"source":"wsxcme","sourceId":"_dqpqpkJEhM3kkhcwx9X59RtyDvI0ajsG75EjXMg","sourceTagId":47002747,"sourceTagName":"迪奥/女包","modelNumber":"2821","dimensions":{"lengthCm":28.5,"heightCm":19,"widthCm":21.5},"rawTitle":"Dior❤️ Toujours 手袋〔棕色中号〕\n这款Dior Toujours 手袋于二零二三春夏系列发布秀精彩亮相,休闲实用的设计别具一格.采用棕色牛皮革精心制作,饰以超大藤格纹缉面线,宽敞的内部隔层搭配小袋,可整齐收纳各种日常用品,另有CD Lock 字母D旋钮式开合,可调节两侧,提升格调.皮革手柄带有可调节细节细节,可轻松手提.          CD Lock和系带开合 DIOR吊饰 可拆卸内部小袋 可调节皮革手柄 内含防尘袋  \n\n型号:2821\n尺寸:28.5x19x21.5cm"},"price":null,"currency":"CNY","moq":1,"category":"dior-women-bags","status":"active","alibaba_url":null,"images":["https://xcimg.szwego.com/img/ec683d96/20231205/i1701708444_2359_0.jpg","https://xcimg.szwego.com/img/ec683d96/20231205/i1701708444_3151_0.jpg","https://xcimg.szwego.com/img/ec683d96/20231205/i1701708444_2273_0.jpg","https://xcimg.szwego.com/img/ec683d96/20231205/i1701708444_8960_0.jpg","https://xcimg.szwego.com/img/ec683d96/20231205/i1701708444_3685_0.jpg","https://xcimg.szwego.com/img/ec683d96/20231205/i1701708444_8399_0.jpg","https://xcimg.szwego.com/img/ec683d96/20231205/i1701708445_4853_0.jpg","https://xcimg.szwego.com/img/ec683d96/20231205/i1701708444_1945_0.jpg","https://xcimg.szwego.com/img/ec683d96/20231205/i1701708445_8384_0.jpg"],"created_at":"2024-11-26T11:47:46.737Z"},{"id":"item-127efd8d9f81","sku":"_dkIkISe3y8qSDHjwZHniPgMmPH1EkhrTi97IAjA","name_en":"Dior❤30 MONTAIGNE HOBO AVENUE 迷你手袋「老花」","name_cn":"Dior❤30 MONTAIGNE HOBO AVENUE 迷你手袋「老花」\n这款 Hobo Avenue 迷你手袋是二零二三秋季成衣系列新品,丰富了 30 Montaigne 系列,彰显复古魅力。采用蓝色 Oblique 印花面料精心制作,搭配两个可拆卸的小袋,实用百搭。设计高雅,搭配皮革和链条肩带,以同色调珐琅 CD 链环打造。可肩背,作为本季各式造型的点睛之笔。\n\n正面饰以同色调珐琅 CD 标志\n宽大的隔层\n2 个可拆卸小袋,其中一个设有 1 个拉链开合和 3 个卡槽\n肩带链条部分采用同色调珐琅 CD 链环打造\n\n型号:2336\n尺寸:21×13×5cm","specs":{"source":"wsxcme","sourceId":"_dkIkISe3y8qSDHjwZHniPgMmPH1EkhrTi97IAjA","sourceTagId":47002747,"sourceTagName":"迪奥/女包","modelNumber":"2336","dimensions":{"lengthCm":21,"heightCm":13,"widthCm":5},"rawTitle":"Dior❤30 MONTAIGNE HOBO AVENUE 迷你手袋「老花」\n这款 Hobo Avenue 迷你手袋是二零二三秋季成衣系列新品,丰富了 30 Montaigne 系列,彰显复古魅力。采用蓝色 Oblique 印花面料精心制作,搭配两个可拆卸的小袋,实用百搭。设计高雅,搭配皮革和链条肩带,以同色调珐琅 CD 链环打造。可肩背,作为本季各式造型的点睛之笔。\n\n正面饰以同色调珐琅 CD 标志\n宽大的隔层\n2 个可拆卸小袋,其中一个设有 1 个拉链开合和 3 个卡槽\n肩带链条部分采用同色调珐琅 CD 链环打造\n\n型号:2336\n尺寸:21×13×5cm"},"price":null,"currency":"CNY","moq":1,"category":"dior-women-bags","status":"active","alibaba_url":null,"images":["https://xcimg.szwego.com/20230705/i1688566634_6511_0.jpg","https://xcimg.szwego.com/20230705/i1688566634_4107_1.jpg","https://xcimg.szwego.com/20230705/i1688566634_4166_2.jpg","https://xcimg.szwego.com/20230705/i1688566634_4053_8.jpg","https://xcimg.szwego.com/20230705/i1688566634_1101_3.jpg","https://xcimg.szwego.com/20230705/i1688566634_2989_4.jpg","https://xcimg.szwego.com/20230705/i1688566634_8155_5.jpg","https://xcimg.szwego.com/20230705/i1688566634_9714_6.jpg","https://xcimg.szwego.com/20230705/i1688566634_5949_7.jpg"],"created_at":"2024-05-01T03:20:28.359Z"},{"id":"item-d2c4e4d58594","sku":"_d92925jb3RPJ4vNuO8RmDJsxHjUAcHzcXhIVIFQ","name_en":"Dior❤中号 Travel Nomad 手拿包","name_cn":"Dior❤中号 Travel Nomad 手拿包\n本季新款手拿包融合多种元素,是一款时尚单品。采用黑色牛皮革精心制作!饰以别具一格的绗缝效果超大藤格纹。空间宽敞,造型灵活,可收纳手机和各种小件日常用品。便于手提和肩背,两侧设有金属环,可搭配Dior刺绣肩带。\n\n可收纳各种型号的iPhone和钱包\n\n尺寸:22×13×9.5cm\n型号:S5554","specs":{"source":"wsxcme","sourceId":"_d92925jb3RPJ4vNuO8RmDJsxHjUAcHzcXhIVIFQ","sourceTagId":47002747,"sourceTagName":"迪奥/女包","modelNumber":"的iPhone和钱包","dimensions":{"lengthCm":22,"heightCm":13,"widthCm":9.5},"rawTitle":"Dior❤中号 Travel Nomad 手拿包\n本季新款手拿包融合多种元素,是一款时尚单品。采用黑色牛皮革精心制作!饰以别具一格的绗缝效果超大藤格纹。空间宽敞,造型灵活,可收纳手机和各种小件日常用品。便于手提和肩背,两侧设有金属环,可搭配Dior刺绣肩带。\n\n可收纳各种型号的iPhone和钱包\n\n尺寸:22×13×9.5cm\n型号:S5554"},"price":null,"currency":"CNY","moq":1,"category":"dior-women-bags","status":"active","alibaba_url":null,"images":["https://xcimg.szwego.com/20220523/i1653289430_1911_0.jpg","https://xcimg.szwego.com/20220523/i1653289430_3739_1.jpg","https://xcimg.szwego.com/20220523/i1653289430_7014_2.jpg","https://xcimg.szwego.com/20220523/i1653289430_5175_3.jpg","https://xcimg.szwego.com/20220523/i1653289430_8163_4.jpg","https://xcimg.szwego.com/20220523/i1653289430_4941_5.jpg","https://xcimg.szwego.com/20220523/i1653289430_6434_6.jpg","https://xcimg.szwego.com/20220523/i1653289430_6370_7.jpg","https://xcimg.szwego.com/20220523/i1653289430_7281_8.jpg"],"created_at":"2024-05-01T03:20:28.355Z"},{"id":"item-9ba949dbe88c","sku":"_dsNsN487d9pVxehZFmDpTu9PjAmF62qorzt7qFg","name_en":"Dior❤中号 Travel Nomad 手拿包「布蓝➕肩带」","name_cn":"Dior❤中号 Travel Nomad 手拿包「布蓝➕肩带」\n本季新款手拿包融合多种元素,是一款时尚单品。采用经典老花精心制作!空间宽敞,造型灵活,可收纳手机和各种小件日常用品。便于手提和肩背,两侧设有金属环,配有同色皮肩带,可搭配Dior刺绣肩带。\n\n可收纳各种型号的iPhone和钱包\n\n尺寸:22×13×9.5cm\n型号:5554","specs":{"source":"wsxcme","sourceId":"_dsNsN487d9pVxehZFmDpTu9PjAmF62qorzt7qFg","sourceTagId":47002747,"sourceTagName":"迪奥/女包","modelNumber":"的iPhone和钱包","dimensions":{"lengthCm":22,"heightCm":13,"widthCm":9.5},"rawTitle":"Dior❤中号 Travel Nomad 手拿包「布蓝➕肩带」\n本季新款手拿包融合多种元素,是一款时尚单品。采用经典老花精心制作!空间宽敞,造型灵活,可收纳手机和各种小件日常用品。便于手提和肩背,两侧设有金属环,配有同色皮肩带,可搭配Dior刺绣肩带。\n\n可收纳各种型号的iPhone和钱包\n\n尺寸:22×13×9.5cm\n型号:5554"},"price":null,"currency":"CNY","moq":1,"category":"dior-women-bags","status":"active","alibaba_url":null,"images":["https://xcimg.szwego.com/20230602/i1685711750_3239_0.jpg","https://xcimg.szwego.com/20230602/i1685711750_5264_1.jpg","https://xcimg.szwego.com/20230602/i1685711750_20_2.jpg","https://xcimg.szwego.com/20230602/i1685711750_8815_3.jpg","https://xcimg.szwego.com/20230602/i1685711750_4254_4.jpg","https://xcimg.szwego.com/20230602/i1685711750_6659_5.jpg","https://xcimg.szwego.com/20230602/i1685711750_6563_6.jpg","https://xcimg.szwego.com/20230602/i1685711750_9333_7.jpg","https://xcimg.szwego.com/20230602/i1685711750_20_8.jpg"],"created_at":"2024-05-01T03:20:28.356Z"},{"id":"item-8c2c7b0ad4e8","sku":"_dpmpmuteX7uX-iK1Fc9ztkIGHE4bp90q4J3h-Ig","name_en":"DIOR❤️TOUJOURS 手袋〔白色小号〕","name_cn":"DIOR❤️TOUJOURS 手袋〔白色小号〕\n这款Dior Toujours 手袋于二零二三春夏系列发布秀精彩亮相,休闲实用的设计别具一格.采用白色牛皮革精心制作,饰以超大藤格纹缉面线,宽敞的内部隔层搭配小袋,可整齐收纳各种日常用品,另有CD Lock 字母D旋钮式开合,可调节两侧,提升格调.皮革手柄带有可调节细节细节,可轻松手提.          CD Lock和系带开合 DIOR吊饰 可拆卸内部小袋 可调节皮革手柄 内含防尘袋  \n\n型号:2822\n尺寸:23x15x15cm。 000690","specs":{"source":"wsxcme","sourceId":"_dpmpmuteX7uX-iK1Fc9ztkIGHE4bp90q4J3h-Ig","sourceTagId":47002747,"sourceTagName":"迪奥/女包","modelNumber":"2822","dimensions":{"lengthCm":23,"heightCm":15,"widthCm":15},"rawTitle":"DIOR❤️TOUJOURS 手袋〔白色小号〕\n这款Dior Toujours 手袋于二零二三春夏系列发布秀精彩亮相,休闲实用的设计别具一格.采用白色牛皮革精心制作,饰以超大藤格纹缉面线,宽敞的内部隔层搭配小袋,可整齐收纳各种日常用品,另有CD Lock 字母D旋钮式开合,可调节两侧,提升格调.皮革手柄带有可调节细节细节,可轻松手提.          CD Lock和系带开合 DIOR吊饰 可拆卸内部小袋 可调节皮革手柄 内含防尘袋  \n\n型号:2822\n尺寸:23x15x15cm。 000690"},"price":null,"currency":"CNY","moq":1,"category":"dior-women-bags","status":"active","alibaba_url":null,"images":["https://xcimg.szwego.com/img/ec683d96/20231205/i1701710433_2759_3.jpg","https://xcimg.szwego.com/img/ec683d96/20231205/i1701710432_1964_1.jpg","https://xcimg.szwego.com/img/ec683d96/20231205/i1701710433_8674_5.jpg","https://xcimg.szwego.com/img/ec683d96/20231205/i1701710432_9674_0.jpg","https://xcimg.szwego.com/img/ec683d96/20231205/i1701710433_4423_4.jpg","https://xcimg.szwego.com/img/ec683d96/20231205/i1701710433_92_6.jpg","https://xcimg.szwego.com/img/ec683d96/20231205/i1701710433_5327_8.jpg","https://xcimg.szwego.com/img/ec683d96/20231205/i1701710433_2463_7.jpg","https://xcimg.szwego.com/img/ec683d96/20231205/i1701710432_4920_2.jpg"],"created_at":"2024-11-26T11:47:46.741Z"},{"id":"item-41c44ace515c","sku":"_dLcLc_V41d1TocAR54dJQpRPrNfH-6XeZcFXTsg","name_en":"DIOR❤️TOUJOURS 手袋〔粉色小号〕","name_cn":"DIOR❤️TOUJOURS 手袋〔粉色小号〕\n这款Dior Toujours 手袋于二零二三春夏系列发布秀精彩亮相,休闲实用的设计别具一格.采用粉色牛皮革精心制作,饰以超大藤格纹缉面线,宽敞的内部隔层搭配小袋,可整齐收纳各种日常用品,另有CD Lock 字母D旋钮式开合,可调节两侧,提升格调.皮革手柄带有可调节细节细节,可轻松手提.          CD Lock和系带开合 DIOR吊饰 可拆卸内部小袋 可调节皮革手柄 内含防尘袋  \n\n型号:2822\n尺寸:23x15x15cm。","specs":{"source":"wsxcme","sourceId":"_dLcLc_V41d1TocAR54dJQpRPrNfH-6XeZcFXTsg","sourceTagId":47002747,"sourceTagName":"迪奥/女包","modelNumber":"2822","dimensions":{"lengthCm":23,"heightCm":15,"widthCm":15},"rawTitle":"DIOR❤️TOUJOURS 手袋〔粉色小号〕\n这款Dior Toujours 手袋于二零二三春夏系列发布秀精彩亮相,休闲实用的设计别具一格.采用粉色牛皮革精心制作,饰以超大藤格纹缉面线,宽敞的内部隔层搭配小袋,可整齐收纳各种日常用品,另有CD Lock 字母D旋钮式开合,可调节两侧,提升格调.皮革手柄带有可调节细节细节,可轻松手提.          CD Lock和系带开合 DIOR吊饰 可拆卸内部小袋 可调节皮革手柄 内含防尘袋  \n\n型号:2822\n尺寸:23x15x15cm。"},"price":null,"currency":"CNY","moq":1,"category":"dior-women-bags","status":"active","alibaba_url":null,"images":["https://xcimg.szwego.com/img/ec683d96/20240811/i1723308581_4424_1.jpg","https://xcimg.szwego.com/img/ec683d96/20240811/i1723308582_8650_4.jpg","https://xcimg.szwego.com/img/ec683d96/20240811/i1723308582_8761_3.jpg","https://xcimg.szwego.com/img/ec683d96/20240811/i1723308583_2959_6.jpg","https://xcimg.szwego.com/img/ec683d96/20240811/i1723308581_1775_2.jpg","https://xcimg.szwego.com/img/ec683d96/20240811/i1723308583_8069_7.jpg","https://xcimg.szwego.com/img/ec683d96/20240811/i1723308582_2675_5.jpg","https://xcimg.szwego.com/img/ec683d96/20240811/i1723308583_6103_8.jpg","https://xcimg.szwego.com/img/ec683d96/20240811/i1723308581_5747_0.jpg"],"created_at":"2024-11-26T11:47:46.736Z"},{"id":"item-12a3f3db4af3","sku":"_dm2m2cebv-kini_neoel5ItDV1l9W_BY-XvvyPw","name_en":"DIOR❤️TOUJOURS 手袋〔黑色小号〕","name_cn":"DIOR❤️TOUJOURS 手袋〔黑色小号〕\n这款Dior Toujours 手袋于二零二三春夏系列发布秀精彩亮相,休闲实用的设计别具一格.采用黑色牛皮革精心制作,饰以超大藤格纹缉面线,宽敞的内部隔层搭配小袋,可整齐收纳各种日常用品,另有CD Lock 字母D旋钮式开合,可调节两侧,提升格调.皮革手柄带有可调节细节细节,可轻松手提.          CD Lock和系带开合 DIOR吊饰 可拆卸内部小袋 可调节皮革手柄 内含防尘袋  \n\n型号:2822\n尺寸:23x15x15cm。 000690","specs":{"source":"wsxcme","sourceId":"_dm2m2cebv-kini_neoel5ItDV1l9W_BY-XvvyPw","sourceTagId":47002747,"sourceTagName":"迪奥/女包","modelNumber":"2822","dimensions":{"lengthCm":23,"heightCm":15,"widthCm":15},"rawTitle":"DIOR❤️TOUJOURS 手袋〔黑色小号〕\n这款Dior Toujours 手袋于二零二三春夏系列发布秀精彩亮相,休闲实用的设计别具一格.采用黑色牛皮革精心制作,饰以超大藤格纹缉面线,宽敞的内部隔层搭配小袋,可整齐收纳各种日常用品,另有CD Lock 字母D旋钮式开合,可调节两侧,提升格调.皮革手柄带有可调节细节细节,可轻松手提.          CD Lock和系带开合 DIOR吊饰 可拆卸内部小袋 可调节皮革手柄 内含防尘袋  \n\n型号:2822\n尺寸:23x15x15cm。 000690"},"price":null,"currency":"CNY","moq":1,"category":"dior-women-bags","status":"active","alibaba_url":null,"images":["https://xcimg.szwego.com/img/ec683d96/20231207/i1701936736_6924_0.jpg","https://xcimg.szwego.com/img/ec683d96/20231207/i1701936736_3910_6.jpg","https://xcimg.szwego.com/img/ec683d96/20231207/i1701936736_3385_2.jpg","https://xcimg.szwego.com/img/ec683d96/20231207/i1701936736_4646_1.jpg","https://xcimg.szwego.com/img/ec683d96/20231207/i1701936736_9045_7.jpg","https://xcimg.szwego.com/img/ec683d96/20231207/i1701936736_4526_8.jpg","https://xcimg.szwego.com/img/ec683d96/20231207/i1701936736_2025_5.jpg","https://xcimg.szwego.com/img/ec683d96/20231207/i1701936736_9463_3.jpg","https://xcimg.szwego.com/img/ec683d96/20231207/i1701936736_6166_4.jpg"],"created_at":"2024-11-26T11:47:46.740Z"},{"id":"item-0b578e39b993","sku":"_dFyFyHgo7HHdOOirKASozIPd_KL2kj5z_dR9_Tw","name_en":"DIOR❤️TOUJOURS 手袋〔浅杏小号〕","name_cn":"DIOR❤️TOUJOURS 手袋〔浅杏小号〕\n这款Dior Toujours 手袋于二零二三春夏系列发布秀精彩亮相,休闲实用的设计别具一格.采用黑浅杏牛皮革精心制作,饰以超大藤格纹缉面线,宽敞的内部隔层搭配小袋,可整齐收纳各种日常用品,另有CD Lock 字母D旋钮式开合,可调节两侧,提升格调.皮革手柄带有可调节细节细节,可轻松手提.          CD Lock和系带开合 DIOR吊饰 可拆卸内部小袋 可调节皮革手柄 内含防尘袋  \n\n型号:2822\n尺寸:23x15x15cm","specs":{"source":"wsxcme","sourceId":"_dFyFyHgo7HHdOOirKASozIPd_KL2kj5z_dR9_Tw","sourceTagId":47002747,"sourceTagName":"迪奥/女包","modelNumber":"2822","dimensions":{"lengthCm":23,"heightCm":15,"widthCm":15},"rawTitle":"DIOR❤️TOUJOURS 手袋〔浅杏小号〕\n这款Dior Toujours 手袋于二零二三春夏系列发布秀精彩亮相,休闲实用的设计别具一格.采用黑浅杏牛皮革精心制作,饰以超大藤格纹缉面线,宽敞的内部隔层搭配小袋,可整齐收纳各种日常用品,另有CD Lock 字母D旋钮式开合,可调节两侧,提升格调.皮革手柄带有可调节细节细节,可轻松手提.          CD Lock和系带开合 DIOR吊饰 可拆卸内部小袋 可调节皮革手柄 内含防尘袋  \n\n型号:2822\n尺寸:23x15x15cm"},"price":null,"currency":"CNY","moq":1,"category":"dior-women-bags","status":"active","alibaba_url":null,"images":["https://xcimg.szwego.com/img/ec683d96/20231204/i1701677282_8032_7.jpg","https://xcimg.szwego.com/img/ec683d96/20231204/i1701677281_6832_5.jpg","https://xcimg.szwego.com/img/ec683d96/20231204/i1701677281_3918_4.jpg","https://xcimg.szwego.com/img/ec683d96/20231204/i1701677281_7777_2.jpg","https://xcimg.szwego.com/img/ec683d96/20231204/i1701677282_3050_6.jpg","https://xcimg.szwego.com/img/ec683d96/20231204/i1701677281_5075_0.jpg","https://xcimg.szwego.com/img/ec683d96/20231204/i1701677281_9488_1.jpg","https://xcimg.szwego.com/img/ec683d96/20231204/i1701677282_3279_8.jpg","https://xcimg.szwego.com/img/ec683d96/20231204/i1701677281_4497_3.jpg"],"created_at":"2024-11-26T11:47:46.739Z"},{"id":"item-1602f7f0322a","sku":"_dWpWpsPbAcuRoFirtDYuWut13BpDWCIDJwxvNcw","name_en":"Dior白雪公主横版戴妃🔜","name_cn":"Dior白雪公主横版戴妃🔜\n这只拿到手惊呼太仙女了叭 \n只有dior才能做出如此lady的包❕❕❕","specs":{"source":"wsxcme","sourceId":"_dWpWpsPbAcuRoFirtDYuWut13BpDWCIDJwxvNcw","sourceTagId":47002747,"sourceTagName":"迪奥/女包","rawTitle":"Dior白雪公主横版戴妃🔜\n这只拿到手惊呼太仙女了叭 \n只有dior才能做出如此lady的包❕❕❕"},"price":null,"currency":"CNY","moq":1,"category":"dior-women-bags","status":"active","alibaba_url":null,"images":["https://xcimg.szwego.com/20220318/i1647596213_8932_0.jpg","https://xcimg.szwego.com/20220318/i1647596213_7862_1.jpg","https://xcimg.szwego.com/20220318/i1647596213_7051_2.jpg","https://xcimg.szwego.com/20220318/i1647596213_6107_3.jpg","https://xcimg.szwego.com/20220318/i1647596213_9319_4.jpg","https://xcimg.szwego.com/20220318/i1647596213_881_5.jpg","https://xcimg.szwego.com/20220318/i1647596213_4775_6.jpg","https://xcimg.szwego.com/20220318/i1647596213_778_7.jpg","https://xcimg.szwego.com/20220318/i1647596213_8971_8.jpg"],"created_at":"2024-11-11T09:13:16.948Z"},{"id":"item-aa392f130f5e","sku":"_dwLwLYyWpY2KqttXEzg7Cuz2NbOYA-pzVMtEmqQ","name_en":"Dior新款 ❤️❤️","name_cn":"Dior新款 ❤️❤️\n这款 Lady Dior 手拿包设计精巧,空间宽敞。采用白色羊皮革精心制作,饰以藤格纹缉面线,点缀以“D.I.O.R.”吊饰,彰显时尚经典的魅力。多隔层设计更加实用,可收纳各种日常用品。链条以珠饰装点,便于肩背或斜挎。\n\n正面“D.I.O.R.”吊饰\n翻盖开合设计\n1 个外侧隔层\n1 个内侧隔层\n1 个拉链口袋\n1 个贴袋\n6 个卡槽\n链条点缀以珠饰\n意大利制造\n款号:3105\n19.5 x 12.5 x 5 厘","specs":{"source":"wsxcme","sourceId":"_dwLwLYyWpY2KqttXEzg7Cuz2NbOYA-pzVMtEmqQ","sourceTagId":47002747,"sourceTagName":"迪奥/女包","modelNumber":"3105","rawTitle":"Dior新款 ❤️❤️\n这款 Lady Dior 手拿包设计精巧,空间宽敞。采用白色羊皮革精心制作,饰以藤格纹缉面线,点缀以“D.I.O.R.”吊饰,彰显时尚经典的魅力。多隔层设计更加实用,可收纳各种日常用品。链条以珠饰装点,便于肩背或斜挎。\n\n正面“D.I.O.R.”吊饰\n翻盖开合设计\n1 个外侧隔层\n1 个内侧隔层\n1 个拉链口袋\n1 个贴袋\n6 个卡槽\n链条点缀以珠饰\n意大利制造\n款号:3105\n19.5 x 12.5 x 5 厘"},"price":null,"currency":"CNY","moq":1,"category":"dior-women-bags","status":"active","alibaba_url":null,"images":["https://xcimg.szwego.com/20220927/i1664254036_4077_0.jpg","https://xcimg.szwego.com/20220927/i1664254135_7583_0.jpg","https://xcimg.szwego.com/20220927/i1664254105_860_0.jpg","https://xcimg.szwego.com/20220927/i1664254540_7467_0.jpg","https://xcimg.szwego.com/20220927/i1664254383_5016_0.jpg","https://xcimg.szwego.com/20220927/i1664254461_21_0.jpg","https://xcimg.szwego.com/20220927/i1664254268_8427_0.jpg","https://xcimg.szwego.com/20220927/i1664254036_2400_8.jpg","https://xcimg.szwego.com/20220927/i1664254036_6296_7.jpg"],"created_at":"2024-05-14T15:59:39.412Z"},{"id":"item-a5594c95184d","sku":"_dGLGLbfcGU2ZXkwofqWyzOryN-qvf5UV4VLMKWA","name_en":"Dior新款托特❤大号","name_cn":"Dior新款托特❤大号\n这款手袋集中体现了Dio.r 对典雅和美丽的深刻洞见。采用外牛皮革精心制作,以标志性的大菱格纹针脚打造绗缝细节,高雅经典的设计经久不衰。手提两侧可调节长短,饰以可拆卸枪色DIOR字母,内里配绒,再配一个拉链隔层和贴面口袋,侧面金属扣可相扣左右皮带,可改变包型,中间一条长皮带可穿过另一边的金属环,拉近两面的距离,又有设计感又有型!\n\n型号:1188\n尺寸:37×43×22cm","specs":{"source":"wsxcme","sourceId":"_dGLGLbfcGU2ZXkwofqWyzOryN-qvf5UV4VLMKWA","sourceTagId":47002747,"sourceTagName":"迪奥/女包","modelNumber":"1188","dimensions":{"lengthCm":37,"heightCm":43,"widthCm":22},"rawTitle":"Dior新款托特❤大号\n这款手袋集中体现了Dio.r 对典雅和美丽的深刻洞见。采用外牛皮革精心制作,以标志性的大菱格纹针脚打造绗缝细节,高雅经典的设计经久不衰。手提两侧可调节长短,饰以可拆卸枪色DIOR字母,内里配绒,再配一个拉链隔层和贴面口袋,侧面金属扣可相扣左右皮带,可改变包型,中间一条长皮带可穿过另一边的金属环,拉近两面的距离,又有设计感又有型!\n\n型号:1188\n尺寸:37×43×22cm"},"price":null,"currency":"CNY","moq":1,"category":"dior-women-bags","status":"active","alibaba_url":null,"images":["https://xcimg.szwego.com/20230210/i1676038552_8495_0.jpg","https://xcimg.szwego.com/20230210/i1676038552_2957_1.jpg","https://xcimg.szwego.com/20230210/i1676038552_8166_2.jpg","https://xcimg.szwego.com/20230210/i1676038552_5412_3.jpg","https://xcimg.szwego.com/20230210/i1676038552_9534_4.jpg","https://xcimg.szwego.com/20230210/i1676038552_1744_5.jpg","https://xcimg.szwego.com/20230210/i1676038552_9087_6.jpg","https://xcimg.szwego.com/20230210/i1676038552_1052_7.jpg","https://xcimg.szwego.com/20230210/i1676038552_1137_8.jpg"],"created_at":"2024-05-01T03:20:28.347Z"},{"id":"item-3ed5b9628881","sku":"_drUrUN2cv5aa81GbgOGtPJi7Hez7c_HrvxnzCxw","name_en":"Dior新款托特❤小号","name_cn":"Dior新款托特❤小号\n这款手袋集中体现了Dio.r 对典雅和美丽的深刻洞见。采用外牛皮革精心制作,以标志性的大菱格纹针脚打造绗缝细节,高雅经典的设计经久不衰。手提两侧可调节长短,饰以可拆卸枪色DIOR字母,内里配绒,再配一个拉链隔层和贴面口袋,侧面金属扣可相扣左右皮带,可改变包型,中间一条长皮带可穿过另一边的金属环,拉近两面的距离,又有设计感又有型!\n\n型号:1188\n尺寸:30×36×15cm","specs":{"source":"wsxcme","sourceId":"_drUrUN2cv5aa81GbgOGtPJi7Hez7c_HrvxnzCxw","sourceTagId":47002747,"sourceTagName":"迪奥/女包","modelNumber":"1188","dimensions":{"lengthCm":30,"heightCm":36,"widthCm":15},"rawTitle":"Dior新款托特❤小号\n这款手袋集中体现了Dio.r 对典雅和美丽的深刻洞见。采用外牛皮革精心制作,以标志性的大菱格纹针脚打造绗缝细节,高雅经典的设计经久不衰。手提两侧可调节长短,饰以可拆卸枪色DIOR字母,内里配绒,再配一个拉链隔层和贴面口袋,侧面金属扣可相扣左右皮带,可改变包型,中间一条长皮带可穿过另一边的金属环,拉近两面的距离,又有设计感又有型!\n\n型号:1188\n尺寸:30×36×15cm"},"price":null,"currency":"CNY","moq":1,"category":"dior-women-bags","status":"active","alibaba_url":null,"images":["https://xcimg.szwego.com/20230210/i1676034251_267_0.jpg","https://xcimg.szwego.com/20230210/i1676034251_3576_1.jpg","https://xcimg.szwego.com/20230210/i1676034251_8345_2.jpg","https://xcimg.szwego.com/20230210/i1676034251_8665_3.jpg","https://xcimg.szwego.com/20230210/i1676034251_9462_4.jpg","https://xcimg.szwego.com/20230210/i1676034251_5453_5.jpg","https://xcimg.szwego.com/20230210/i1676034251_3128_6.jpg","https://xcimg.szwego.com/20230210/i1676034251_6919_7.jpg","https://xcimg.szwego.com/20230210/i1676034251_8710_8.jpg"],"created_at":"2024-05-01T03:20:28.351Z"},{"id":"item-023b578936a2","sku":"_diIiIrZV3L8iDQldvxTEA_9Km-F4D09QynDUWKg","name_en":"Lady 戴妃 三格白磨砂皮","name_cn":"Lady 戴妃 三格白磨砂皮","specs":{"source":"wsxcme","sourceId":"_diIiIrZV3L8iDQldvxTEA_9Km-F4D09QynDUWKg","sourceTagId":47002747,"sourceTagName":"迪奥/女包","rawTitle":"Lady 戴妃 三格白磨砂皮"},"price":null,"currency":"CNY","moq":1,"category":"dior-women-bags","status":"active","alibaba_url":null,"images":["https://xcimg.szwego.com/20201229/i1609174233_8792_0.jpg"],"created_at":"2024-11-11T09:13:17.020Z"},{"id":"item-21614962d2a2","sku":"_doFoFoEzyukY6jWk4A1XVcY0Ou14neuzdSwcyqw","name_en":"Lady 戴妃 三格灰磨砂皮","name_cn":"Lady 戴妃 三格灰磨砂皮","specs":{"source":"wsxcme","sourceId":"_doFoFoEzyukY6jWk4A1XVcY0Ou14neuzdSwcyqw","sourceTagId":47002747,"sourceTagName":"迪奥/女包","rawTitle":"Lady 戴妃 三格灰磨砂皮"},"price":null,"currency":"CNY","moq":1,"category":"dior-women-bags","status":"active","alibaba_url":null,"images":["https://xcimg.szwego.com/20201229/i1609174160_774_0.jpg"],"created_at":"2024-11-11T09:13:17.019Z"},{"id":"item-22424b133317","sku":"_dfrfrcDqU30NGUEGy18PylsoemEbC5v5Dr21Zng","name_en":"Lady 戴妃 三格磨砂皮","name_cn":"Lady 戴妃 三格磨砂皮","specs":{"source":"wsxcme","sourceId":"_dfrfrcDqU30NGUEGy18PylsoemEbC5v5Dr21Zng","sourceTagId":47002747,"sourceTagName":"迪奥/女包","rawTitle":"Lady 戴妃 三格磨砂皮"},"price":null,"currency":"CNY","moq":1,"category":"dior-women-bags","status":"active","alibaba_url":null,"images":["https://xcimg.szwego.com/20201229/i1609174261_6418_0.jpg"],"created_at":"2024-11-11T09:13:17.016Z"},{"id":"item-24d10ab17f3c","sku":"_dHOHOFaxWhmxtLgpq1XurPId8rVft8zPaJqf1eA","name_en":"Lady 戴妃三格","name_cn":"Lady 戴妃三格","specs":{"source":"wsxcme","sourceId":"_dHOHOFaxWhmxtLgpq1XurPId8rVft8zPaJqf1eA","sourceTagId":47002747,"sourceTagName":"迪奥/女包","rawTitle":"Lady 戴妃三格"},"price":null,"currency":"CNY","moq":1,"category":"dior-women-bags","status":"active","alibaba_url":null,"images":["https://xcimg.szwego.com/img/2b46f204/20240524/i1716540700_8155_0.jpg"],"created_at":"2024-11-11T09:13:16.978Z"},{"id":"item-572d920ef459","sku":"_dn9n9_X3jKnsnVHoiUL661oFMcqtb848dvsc_XA","name_en":"Lady 戴妃三格黑磨砂皮","name_cn":"Lady 戴妃三格黑磨砂皮","specs":{"source":"wsxcme","sourceId":"_dn9n9_X3jKnsnVHoiUL661oFMcqtb848dvsc_XA","sourceTagId":47002747,"sourceTagName":"迪奥/女包","rawTitle":"Lady 戴妃三格黑磨砂皮"},"price":null,"currency":"CNY","moq":1,"category":"dior-women-bags","status":"active","alibaba_url":null,"images":["https://xcimg.szwego.com/20210106/i1609873938_5786_0.jpg"],"created_at":"2024-11-11T09:13:17.014Z"},{"id":"item-b477a0367435","sku":"_dsasatHzUr7OmRE5qkUeTriht66-Mw9maPToyVA","name_en":"Lady 戴妃四格","name_cn":"Lady 戴妃四格","specs":{"source":"wsxcme","sourceId":"_dsasatHzUr7OmRE5qkUeTriht66-Mw9maPToyVA","sourceTagId":47002747,"sourceTagName":"迪奥/女包","rawTitle":"Lady 戴妃四格"},"price":null,"currency":"CNY","moq":1,"category":"dior-women-bags","status":"active","alibaba_url":null,"images":["https://xcimg.szwego.com/img/2b46f204/20240524/i1716540455_820_0.jpg"],"created_at":"2024-11-11T09:13:16.976Z"},{"id":"item-5a5f2eeaf4a9","sku":"_dKQKQ6AX1Gf476qglv9tOtJtqgGhti3RtbdRr9w","name_en":"Lady 戴妃四格黑磨砂皮","name_cn":"Lady 戴妃四格黑磨砂皮","specs":{"source":"wsxcme","sourceId":"_dKQKQ6AX1Gf476qglv9tOtJtqgGhti3RtbdRr9w","sourceTagId":47002747,"sourceTagName":"迪奥/女包","rawTitle":"Lady 戴妃四格黑磨砂皮"},"price":null,"currency":"CNY","moq":1,"category":"dior-women-bags","status":"active","alibaba_url":null,"images":["https://xcimg.szwego.com/20201207/i1607354803_2637_0.jpg"],"created_at":"2024-11-11T09:13:17.013Z"},{"id":"item-89d238559747","sku":"_d48487qUeByZsYWo5LGI7iNMpcTUipNp_8umplw","name_en":"Lady 戴妃四格灰磨砂皮","name_cn":"Lady 戴妃四格灰磨砂皮","specs":{"source":"wsxcme","sourceId":"_d48487qUeByZsYWo5LGI7iNMpcTUipNp_8umplw","sourceTagId":47002747,"sourceTagName":"迪奥/女包","rawTitle":"Lady 戴妃四格灰磨砂皮"},"price":null,"currency":"CNY","moq":1,"category":"dior-women-bags","status":"active","alibaba_url":null,"images":["https://xcimg.szwego.com/20201207/i1607354347_8363_0.jpg"],"created_at":"2024-11-11T09:13:17.018Z"},{"id":"item-156568d5c571","sku":"_dptptVukhU2b2Od2Rbf422SWeHpgPoOn1gjyDVg","name_en":"Lady 戴妃四格磨砂皮","name_cn":"Lady 戴妃四格磨砂皮","specs":{"source":"wsxcme","sourceId":"_dptptVukhU2b2Od2Rbf422SWeHpgPoOn1gjyDVg","sourceTagId":47002747,"sourceTagName":"迪奥/女包","rawTitle":"Lady 戴妃四格磨砂皮"},"price":null,"currency":"CNY","moq":1,"category":"dior-women-bags","status":"active","alibaba_url":null,"images":["https://xcimg.szwego.com/20201207/i1607354443_6859_0.jpg"],"created_at":"2024-11-11T09:13:17.015Z"},{"id":"item-e40709849c7e","sku":"_dmwmwKEfp2oR9l2Y-rrefkVqMzwfrvXRszaUJdw","name_en":"Lady 戴妃五格","name_cn":"Lady 戴妃五格","specs":{"source":"wsxcme","sourceId":"_dmwmwKEfp2oR9l2Y-rrefkVqMzwfrvXRszaUJdw","sourceTagId":47002747,"sourceTagName":"迪奥/女包","rawTitle":"Lady 戴妃五格"},"price":null,"currency":"CNY","moq":1,"category":"dior-women-bags","status":"active","alibaba_url":null,"images":["https://xcimg.szwego.com/img/2b46f204/20240708/i1720420579_9206_0.jpg"],"created_at":"2024-11-11T09:13:17.010Z"},{"id":"item-7afecb0d7722","sku":"_dOkOk6C4Gf3wolqh80n5z0p356FYySVFnxqSLjg","name_en":"Lady 戴妃五格磨砂皮","name_cn":"Lady 戴妃五格磨砂皮","specs":{"source":"wsxcme","sourceId":"_dOkOk6C4Gf3wolqh80n5z0p356FYySVFnxqSLjg","sourceTagId":47002747,"sourceTagName":"迪奥/女包","rawTitle":"Lady 戴妃五格磨砂皮"},"price":null,"currency":"CNY","moq":1,"category":"dior-women-bags","status":"active","alibaba_url":null,"images":["https://xcimg.szwego.com/20210106/i1609874084_2803_0.jpg"],"created_at":"2024-11-11T09:13:17.017Z"}],"page":39,"pageSize":24,"total":961,"totalPages":41}
