{"items":[{"id":"item-8857743fcdaa","sku":"_dcdcdobxGiSrK7616zkwhUdLjPoYGgwgX-ph5jg","name_en":"VOLTAIRE_手提斜挎包","name_cn":"VOLTAIRE_手提斜挎包       \n这个名称源自于主张自由 倡导宽松18世纪“启蒙时代”的法国作家兼哲学家伏尔泰,整只包采用略带光泽的顶级奢华box小牛皮制作,使其变得柔软亮泽,放大皮面的纹路感,半月包型是非常chic的当代设计,具备时装屋布尔乔亚-Bourgeoisie风格的众多元素,尽显优雅魅力,可完美点缀都市风造型!\n型号:787671\n尺寸:24×15×5cm","specs":{"source":"wsxcme","sourceId":"_dcdcdobxGiSrK7616zkwhUdLjPoYGgwgX-ph5jg","sourceTagId":47002761,"sourceTagName":"圣罗兰/女包","modelNumber":"787671","dimensions":{"lengthCm":24,"heightCm":15,"widthCm":5},"rawTitle":"VOLTAIRE_手提斜挎包       \n这个名称源自于主张自由 倡导宽松18世纪“启蒙时代”的法国作家兼哲学家伏尔泰,整只包采用略带光泽的顶级奢华box小牛皮制作,使其变得柔软亮泽,放大皮面的纹路感,半月包型是非常chic的当代设计,具备时装屋布尔乔亚-Bourgeoisie风格的众多元素,尽显优雅魅力,可完美点缀都市风造型!\n型号:787671\n尺寸:24×15×5cm"},"price":null,"currency":"CNY","moq":1,"category":"ysl-women-bags","status":"active","alibaba_url":null,"images":["https://xcimg.szwego.com/img/c531d0e5/20240522/i1716349757_4127_8.jpg","https://xcimg.szwego.com/img/c531d0e5/20240522/i1716349757_1724_6.jpg","https://xcimg.szwego.com/img/c531d0e5/20240522/i1716349757_3014_0.jpg","https://xcimg.szwego.com/img/c531d0e5/20240522/i1716349757_8718_7.jpg","https://xcimg.szwego.com/img/c531d0e5/20240522/i1716349757_7053_4.jpg","https://xcimg.szwego.com/img/c531d0e5/20240522/i1716349757_1982_1.jpg","https://xcimg.szwego.com/img/c531d0e5/20240522/i1716349757_8135_5.jpg","https://xcimg.szwego.com/img/c531d0e5/20240522/i1716349757_8871_2.jpg","https://xcimg.szwego.com/img/c531d0e5/20240522/i1716349757_9281_3.jpg"],"created_at":"2024-12-08T05:42:33.170Z"},{"id":"item-33ae37e9e201","sku":"_dBMBMQ3fjtqEFuxkVyIMMJAaPsGShPEUH-EE-5A","name_en":"VOLTAIRE_手提斜挎包","name_cn":"VOLTAIRE_手提斜挎包\n这个名称源自于主张自由 倡导宽松18世纪“启蒙时代”的法国作家兼哲学家伏尔泰,整只包采用略带光泽的顶级奢华box小牛皮制作,使其变得柔软亮泽,放大皮面的纹路感,半月包型是非常chic的当代设计,具备时装屋布尔乔亚-Bourgeoisie风格的众多元素,尽显优雅魅力,可完美点缀都市风造型!\n型号:787671~168580\n尺寸:24×15×5cm","specs":{"source":"wsxcme","sourceId":"_dBMBMQ3fjtqEFuxkVyIMMJAaPsGShPEUH-EE-5A","sourceTagId":47002761,"sourceTagName":"圣罗兰/女包","modelNumber":"787671~168580","dimensions":{"lengthCm":24,"heightCm":15,"widthCm":5},"rawTitle":"VOLTAIRE_手提斜挎包\n这个名称源自于主张自由 倡导宽松18世纪“启蒙时代”的法国作家兼哲学家伏尔泰,整只包采用略带光泽的顶级奢华box小牛皮制作,使其变得柔软亮泽,放大皮面的纹路感,半月包型是非常chic的当代设计,具备时装屋布尔乔亚-Bourgeoisie风格的众多元素,尽显优雅魅力,可完美点缀都市风造型!\n型号:787671~168580\n尺寸:24×15×5cm"},"price":null,"currency":"CNY","moq":1,"category":"ysl-women-bags","status":"active","alibaba_url":null,"images":["https://xcimg.szwego.com/img/4bdd288e/20240804/a1722786641019_6878.jpg","https://xcimg.szwego.com/img/4bdd288e/20240804/a1722786641046_7550.jpg","https://xcimg.szwego.com/img/4bdd288e/20240804/a1722786641030_0587.jpg","https://xcimg.szwego.com/img/4bdd288e/20240804/a1722786641117_6500.jpg","https://xcimg.szwego.com/img/4bdd288e/20240804/a1722786641114_2301.jpg","https://xcimg.szwego.com/img/4bdd288e/20240804/a1722786641148_4417.jpg","https://xcimg.szwego.com/img/4bdd288e/20240804/a1722786643459_2555.jpg","https://xcimg.szwego.com/img/4bdd288e/20240804/a1722786643264_0378.jpg","https://xcimg.szwego.com/img/4bdd288e/20240804/a1722786643434_8107.jpg"],"created_at":"2025-07-20T03:05:44.207Z"},{"id":"item-3340b427b7d1","sku":"_dqGqGBh9S9TKPuKK8yMYuHWgKQpwFbJBu8RRzYg","name_en":"VOLTAIRE_手提斜挎包","name_cn":"VOLTAIRE_手提斜挎包\n这个名称源自于主张自由 倡导宽松18世纪“启蒙时代”的法国作家兼哲学家伏尔泰,整只包采用略带光泽的顶级奢华box小牛皮制作,使其变得柔软亮泽,放大皮面的纹路感,半月包型是非常chic的当代设计,具备时装屋布尔乔亚-Bourgeoisie风格的众多元素,尽显优雅魅力,可完美点缀都市风造型!\n型号:787671~168580\n尺寸:24×15×5cm","specs":{"source":"wsxcme","sourceId":"_dqGqGBh9S9TKPuKK8yMYuHWgKQpwFbJBu8RRzYg","sourceTagId":47002761,"sourceTagName":"圣罗兰/女包","modelNumber":"787671~168580","dimensions":{"lengthCm":24,"heightCm":15,"widthCm":5},"rawTitle":"VOLTAIRE_手提斜挎包\n这个名称源自于主张自由 倡导宽松18世纪“启蒙时代”的法国作家兼哲学家伏尔泰,整只包采用略带光泽的顶级奢华box小牛皮制作,使其变得柔软亮泽,放大皮面的纹路感,半月包型是非常chic的当代设计,具备时装屋布尔乔亚-Bourgeoisie风格的众多元素,尽显优雅魅力,可完美点缀都市风造型!\n型号:787671~168580\n尺寸:24×15×5cm"},"price":null,"currency":"CNY","moq":1,"category":"ysl-women-bags","status":"active","alibaba_url":null,"images":["https://xcimg.szwego.com/img/4bdd288e/20240528/a1716909841221_5642.jpg","https://xcimg.szwego.com/img/4bdd288e/20240528/a1716909841164_2854.jpg","https://xcimg.szwego.com/img/4bdd288e/20240528/a1716909841169_1474.jpg","https://xcimg.szwego.com/img/4bdd288e/20240528/a1716909841109_1428.jpg","https://xcimg.szwego.com/img/4bdd288e/20240528/a1716909841301_5354.jpg","https://xcimg.szwego.com/img/4bdd288e/20240528/a1716909841111_4525.jpg","https://xcimg.szwego.com/img/4bdd288e/20240528/a1716909842405_1837.jpg","https://xcimg.szwego.com/img/4bdd288e/20240528/a1716909842409_4555.jpg","https://xcimg.szwego.com/img/4bdd288e/20240528/a1716909842595_3305.jpg"],"created_at":"2025-07-20T03:05:44.208Z"},{"id":"item-17600142fa22","sku":"_dmxmxvM24WfzlyUDsBrW1s944S3WnN-4tMXe4-g","name_en":"VOLTAIRE_手提斜挎包","name_cn":"VOLTAIRE_手提斜挎包       \n这个名称源自于主张自由 倡导宽松18世纪“启蒙时代”的法国作家兼哲学家伏尔泰,整只包采用略带光泽的顶级奢华box小牛皮制作,使其变得柔软亮泽,放大皮面的纹路感,半月包型是非常chic的当代设计,具备时装屋布尔乔亚-Bourgeoisie风格的众多元素,尽显优雅魅力,可完美点缀都市风造型!\n型号:787671\n尺寸:24×15×5cm","specs":{"source":"wsxcme","sourceId":"_dmxmxvM24WfzlyUDsBrW1s944S3WnN-4tMXe4-g","sourceTagId":47002761,"sourceTagName":"圣罗兰/女包","modelNumber":"787671","dimensions":{"lengthCm":24,"heightCm":15,"widthCm":5},"rawTitle":"VOLTAIRE_手提斜挎包       \n这个名称源自于主张自由 倡导宽松18世纪“启蒙时代”的法国作家兼哲学家伏尔泰,整只包采用略带光泽的顶级奢华box小牛皮制作,使其变得柔软亮泽,放大皮面的纹路感,半月包型是非常chic的当代设计,具备时装屋布尔乔亚-Bourgeoisie风格的众多元素,尽显优雅魅力,可完美点缀都市风造型!\n型号:787671\n尺寸:24×15×5cm"},"price":null,"currency":"CNY","moq":1,"category":"ysl-women-bags","status":"active","alibaba_url":null,"images":["https://xcimg.szwego.com/img/c531d0e5/20240702/i1719935407_9567_1.jpg","https://xcimg.szwego.com/img/c531d0e5/20240702/i1719935407_6908_7.jpg","https://xcimg.szwego.com/img/c531d0e5/20240702/i1719935407_7566_4.jpg","https://xcimg.szwego.com/img/c531d0e5/20240702/i1719935407_5823_8.jpg","https://xcimg.szwego.com/img/c531d0e5/20240702/i1719935407_3537_6.jpg","https://xcimg.szwego.com/img/c531d0e5/20240702/i1719935407_1949_3.jpg","https://xcimg.szwego.com/img/c531d0e5/20240702/i1719935407_9756_5.jpg","https://xcimg.szwego.com/img/c531d0e5/20240702/i1719935407_1515_9.jpg","https://xcimg.szwego.com/img/c531d0e5/20240702/i1719935407_911_0.jpg"],"created_at":"2024-12-08T05:42:24.606Z"},{"id":"item-f751852851ca","sku":"_ddqdqrXNUQiuqxichzbwQ9C7g91uR_-0vfpDCKA","name_en":"West Hollywood_小号","name_cn":"West Hollywood_小号\n喜欢中古的复古包包,也一直就想要一个不会撞包且日常一些的款,选它就没错啦!复古感和酷感都在~\n包的容量也很够,翻盖设计,内部算上拉链一共四层,最外层很能装东西,非常适合平时通勤或出去玩的时候背.\n尺寸:24×15×10\n型号:738820","specs":{"source":"wsxcme","sourceId":"_ddqdqrXNUQiuqxichzbwQ9C7g91uR_-0vfpDCKA","sourceTagId":47002761,"sourceTagName":"圣罗兰/女包","modelNumber":"738820","rawTitle":"West Hollywood_小号\n喜欢中古的复古包包,也一直就想要一个不会撞包且日常一些的款,选它就没错啦!复古感和酷感都在~\n包的容量也很够,翻盖设计,内部算上拉链一共四层,最外层很能装东西,非常适合平时通勤或出去玩的时候背.\n尺寸:24×15×10\n型号:738820"},"price":null,"currency":"CNY","moq":1,"category":"ysl-women-bags","status":"active","alibaba_url":null,"images":["https://xcimg.szwego.com/img/f8c0bdc9/20241209/1733715812_417.jpg","https://xcimg.szwego.com/img/f8c0bdc9/20241209/1733715812_313.jpg","https://xcimg.szwego.com/img/f8c0bdc9/20241209/1733715812_151.jpg","https://xcimg.szwego.com/img/f8c0bdc9/20241209/1733715812_401.jpg","https://xcimg.szwego.com/img/f8c0bdc9/20241209/1733715812_329.jpg","https://xcimg.szwego.com/img/f8c0bdc9/20241209/1733715812_766.jpg","https://xcimg.szwego.com/img/f8c0bdc9/20241209/1733715811_442.jpg","https://xcimg.szwego.com/img/f8c0bdc9/20241209/1733715812_832.jpg","https://xcimg.szwego.com/img/f8c0bdc9/20241209/1733715812_234.jpg"],"created_at":"2026-06-29T10:54:45.236Z"},{"id":"item-9ba72c117927","sku":"_dxaxah5K5b8FKdjEUM2nEURRoy7jRoQit0BqjKw","name_en":"West Hollywood_小号","name_cn":"West Hollywood_小号\n喜欢中古的复古包包,也一直就想要一个不会撞包且日常一些的款,选它就没错啦!复古感和酷感都在~\n包的容量也很够,翻盖设计,内部算上拉链一共四层,最外层很能装东西,非常适合平时通勤或出去玩的时候背.\n尺寸:24×15×10\n型号:738820","specs":{"source":"wsxcme","sourceId":"_dxaxah5K5b8FKdjEUM2nEURRoy7jRoQit0BqjKw","sourceTagId":47002761,"sourceTagName":"圣罗兰/女包","modelNumber":"738820","rawTitle":"West Hollywood_小号\n喜欢中古的复古包包,也一直就想要一个不会撞包且日常一些的款,选它就没错啦!复古感和酷感都在~\n包的容量也很够,翻盖设计,内部算上拉链一共四层,最外层很能装东西,非常适合平时通勤或出去玩的时候背.\n尺寸:24×15×10\n型号:738820"},"price":null,"currency":"CNY","moq":1,"category":"ysl-women-bags","status":"active","alibaba_url":null,"images":["https://xcimg.szwego.com/img/f8c0bdc9/20241209/1733715477_427.jpg","https://xcimg.szwego.com/img/f8c0bdc9/20241209/1733715478_965.jpg","https://xcimg.szwego.com/img/f8c0bdc9/20241209/1733715477_590.jpg","https://xcimg.szwego.com/img/f8c0bdc9/20241209/1733715478_826.jpg","https://xcimg.szwego.com/img/f8c0bdc9/20241209/1733715478_983.jpg","https://xcimg.szwego.com/img/f8c0bdc9/20241209/1733715477_960.jpg","https://xcimg.szwego.com/img/f8c0bdc9/20241209/1733715478_953.jpg","https://xcimg.szwego.com/img/f8c0bdc9/20241209/1733715477_414.jpg","https://xcimg.szwego.com/img/f8c0bdc9/20241209/1733715487_369.jpg"],"created_at":"2026-06-29T10:54:45.226Z"},{"id":"item-92d443fe3796","sku":"_dEEEEDYOJd-_zbMAlUic5Gb2wjsMt9uaGyXrapA","name_en":"Y家24voltaire腋下包","name_cn":"Y家24voltaire腋下包\n极简主义最爱的款式、透露着高级的美感!椭圆腋下包型很有复古感、手拎腋下背法皆宜!翻盖搭扣很新颖~空间的话放手机也完全无压力哦!超精致的一款腋下包,黑色Box皮搭配金属五金精致不失个性!\n型号:779642\n尺寸:21X 11 X4.5cm\n肩带高度:24cm","specs":{"source":"wsxcme","sourceId":"_dEEEEDYOJd-_zbMAlUic5Gb2wjsMt9uaGyXrapA","sourceTagId":47002761,"sourceTagName":"圣罗兰/女包","modelNumber":"779642","dimensions":{"lengthCm":21,"heightCm":11,"widthCm":4.5},"rawTitle":"Y家24voltaire腋下包\n极简主义最爱的款式、透露着高级的美感!椭圆腋下包型很有复古感、手拎腋下背法皆宜!翻盖搭扣很新颖~空间的话放手机也完全无压力哦!超精致的一款腋下包,黑色Box皮搭配金属五金精致不失个性!\n型号:779642\n尺寸:21X 11 X4.5cm\n肩带高度:24cm"},"price":null,"currency":"CNY","moq":1,"category":"ysl-women-bags","status":"active","alibaba_url":null,"images":["https://xcimg.szwego.com/img/4bdd288e/20240510/a1715317817627_5517.jpg","https://xcimg.szwego.com/img/4bdd288e/20240510/a1715317817444_2751.jpg","https://xcimg.szwego.com/img/4bdd288e/20240510/a1715317817636_0147.jpg","https://xcimg.szwego.com/img/4bdd288e/20240510/a1715317816728_4526.jpg","https://xcimg.szwego.com/img/4bdd288e/20240510/a1715317817816_5632.jpg","https://xcimg.szwego.com/img/4bdd288e/20240510/a1715317817514_3280.jpg","https://xcimg.szwego.com/img/4bdd288e/20240510/a1715317818757_1227.jpg","https://xcimg.szwego.com/img/4bdd288e/20240510/a1715317819244_1465.jpg","https://xcimg.szwego.com/img/4bdd288e/20240510/a1715317819331_6625.jpg"],"created_at":"2025-07-20T03:05:44.210Z"},{"id":"item-14bf50341bad","sku":"_djYjYL8CRpp5hZ2laFTGxI-hjuFJk5e464zYBcA","name_en":"Y家24voltaire腋下包","name_cn":"Y家24voltaire腋下包\n极简主义最爱的款式、透露着高级的美感!椭圆腋下包型很有复古感、手拎腋下背法皆宜!翻盖搭扣很新颖~空间的话放手机也完全无压力哦!超精致的一款腋下包,黑色Box皮搭配金属五金精致不失个性!\n型号:779642\n尺寸:21X 11 X4.5cm\n肩带高度:24cm","specs":{"source":"wsxcme","sourceId":"_djYjYL8CRpp5hZ2laFTGxI-hjuFJk5e464zYBcA","sourceTagId":47002761,"sourceTagName":"圣罗兰/女包","modelNumber":"779642","dimensions":{"lengthCm":21,"heightCm":11,"widthCm":4.5},"rawTitle":"Y家24voltaire腋下包\n极简主义最爱的款式、透露着高级的美感!椭圆腋下包型很有复古感、手拎腋下背法皆宜!翻盖搭扣很新颖~空间的话放手机也完全无压力哦!超精致的一款腋下包,黑色Box皮搭配金属五金精致不失个性!\n型号:779642\n尺寸:21X 11 X4.5cm\n肩带高度:24cm"},"price":null,"currency":"CNY","moq":1,"category":"ysl-women-bags","status":"active","alibaba_url":null,"images":["https://xcimg.szwego.com/img/4bdd288e/20240509/a1715227636447_3330.jpg","https://xcimg.szwego.com/img/4bdd288e/20240509/a1715227636638_8232.jpg","https://xcimg.szwego.com/img/4bdd288e/20240509/a1715227636616_4163.jpg","https://xcimg.szwego.com/img/4bdd288e/20240509/a1715227636448_3765.jpg","https://xcimg.szwego.com/img/4bdd288e/20240509/a1715227636768_4616.jpg","https://xcimg.szwego.com/img/4bdd288e/20240509/a1715227636792_0528.jpg","https://xcimg.szwego.com/img/4bdd288e/20240509/a1715227638207_8376.jpg","https://xcimg.szwego.com/img/4bdd288e/20240509/a1715227638195_6786.jpg","https://xcimg.szwego.com/img/4bdd288e/20240509/a1715227638269_2244.jpg"],"created_at":"2025-07-20T03:05:44.209Z"},{"id":"item-4933c908a0bb","sku":"_dvDvDXlAApZZpBJXw9pHn2QWqsxCk8P9Zz3JqPA","name_en":"YSL 草编KATE 99,前翻盖式包有YSL字母和流苏配件,搭配可替换链条背带和可调节皮革背带,亦可取下肩背带当作手拿包使用哦!可做手包参加晚宴用都很合适!双肩带设计,配一条皮质长肩带、一根链条,可以自由拆换。短链条背上身就是时下最流行的腋下包!","name_cn":"YSL 草编KATE 99,前翻盖式包有YSL字母和流苏配件,搭配可替换链条背带和可调节皮革背带,亦可取下肩背带当作手拿包使用哦!可做手包参加晚宴用都很合适!双肩带设计,配一条皮质长肩带、一根链条,可以自由拆换。短链条背上身就是时下最流行的腋下包!\n型号:604276\n尺寸:26*13.5*4.5cm","specs":{"source":"wsxcme","sourceId":"_dvDvDXlAApZZpBJXw9pHn2QWqsxCk8P9Zz3JqPA","sourceTagId":47002761,"sourceTagName":"圣罗兰/女包","modelNumber":"604276","dimensions":{"lengthCm":26,"heightCm":13.5,"widthCm":4.5},"rawTitle":"YSL 草编KATE 99,前翻盖式包有YSL字母和流苏配件,搭配可替换链条背带和可调节皮革背带,亦可取下肩背带当作手拿包使用哦!可做手包参加晚宴用都很合适!双肩带设计,配一条皮质长肩带、一根链条,可以自由拆换。短链条背上身就是时下最流行的腋下包!\n型号:604276\n尺寸:26*13.5*4.5cm"},"price":null,"currency":"CNY","moq":1,"category":"ysl-women-bags","status":"active","alibaba_url":null,"images":["https://xcimg.szwego.com/img/b28ef27a/20240620/i1718854605_5887_4.jpg","https://xcimg.szwego.com/img/b28ef27a/20240620/i1718854605_9432_6.jpg","https://xcimg.szwego.com/img/b28ef27a/20240620/i1718854605_7197_8.jpg","https://xcimg.szwego.com/img/b28ef27a/20240620/i1718854605_8288_0.jpg","https://xcimg.szwego.com/img/b28ef27a/20240620/i1718854605_9564_5.jpg","https://xcimg.szwego.com/img/b28ef27a/20240620/i1718854605_2488_2.jpg","https://xcimg.szwego.com/img/b28ef27a/20240620/i1718854605_4750_3.jpg","https://xcimg.szwego.com/img/b28ef27a/20240620/i1718854605_931_1.jpg","https://xcimg.szwego.com/img/b28ef27a/20240620/i1718854605_3487_7.jpg"],"created_at":"2024-12-08T05:42:14.605Z"},{"id":"item-e8a989c7f369","sku":"_dkdkdPlx_rmB--MXe7IQ_QlvuznMCDKv3IZ14XQ","name_en":"YSL Liya 复古行李包/保龄球包","name_cn":"YSL Liya 复古行李包/保龄球包\n今年超爱这种复古Feel!\n最新保龄球包 LIYA 符合所有大容量大需求的出行,功能性一级棒!尺寸设计适合不同高度的姐妹驾驭,体现秋冬慵懒的一款包,简约设计且肩带可调节,易搭配。柔软细腻的皮质,兼具时髦和实用、时髦姐妹不要错过!\n尺寸31x16x13cm","specs":{"source":"wsxcme","sourceId":"_dkdkdPlx_rmB--MXe7IQ_QlvuznMCDKv3IZ14XQ","sourceTagId":47002761,"sourceTagName":"圣罗兰/女包","dimensions":{"lengthCm":31,"heightCm":16,"widthCm":13},"rawTitle":"YSL Liya 复古行李包/保龄球包\n今年超爱这种复古Feel!\n最新保龄球包 LIYA 符合所有大容量大需求的出行,功能性一级棒!尺寸设计适合不同高度的姐妹驾驭,体现秋冬慵懒的一款包,简约设计且肩带可调节,易搭配。柔软细腻的皮质,兼具时髦和实用、时髦姐妹不要错过!\n尺寸31x16x13cm"},"price":null,"currency":"CNY","moq":1,"category":"ysl-women-bags","status":"active","alibaba_url":null,"images":["https://xcimg.szwego.com/img/bce60362/20240408/i1712554600_4523_0.jpg","https://xcimg.szwego.com/img/bce60362/20240408/i1712554599_3413_0.jpg","https://xcimg.szwego.com/img/bce60362/20240408/i1712554587_8209_0.jpg","https://xcimg.szwego.com/img/bce60362/20240408/i1712554588_3565_5.jpg","https://xcimg.szwego.com/img/bce60362/20240408/i1712554600_9867_0.jpg","https://xcimg.szwego.com/img/bce60362/20240408/i1712554587_3622_1.jpg","https://xcimg.szwego.com/img/bce60362/20240408/i1712554588_5890_7.jpg","https://xcimg.szwego.com/img/bce60362/20240408/i1712554600_9288_0.jpg","https://xcimg.szwego.com/img/bce60362/20240408/i1712554600_7785_0.jpg"],"created_at":"2024-12-08T05:53:46.535Z"},{"id":"item-6554d6b30865","sku":"_d-4-4riFx_rPyfVqBAZ7Z2r4Uuh0PQo3UEIqfnw","name_en":"YSL圣罗兰 ,金扣","name_cn":"YSL圣罗兰 ,金扣\n专柜妖孽款SaintLaurent&SLP专柜最新版. 市场独家🍀🍀🍀进口皮原厂皮山羊纹,手工绣V线 超柔滑柔软舒适,包型精致,👏👏👏实用,袋口YSL金扣,五金完美无暇 细节精湛手工,配精致原版挂饰🍂🍂🍂🍂size24*20*8.5cm!F26611","specs":{"source":"wsxcme","sourceId":"_d-4-4riFx_rPyfVqBAZ7Z2r4Uuh0PQo3UEIqfnw","sourceTagId":47002761,"sourceTagName":"圣罗兰/女包","rawTitle":"YSL圣罗兰 ,金扣\n专柜妖孽款SaintLaurent&SLP专柜最新版. 市场独家🍀🍀🍀进口皮原厂皮山羊纹,手工绣V线 超柔滑柔软舒适,包型精致,👏👏👏实用,袋口YSL金扣,五金完美无暇 细节精湛手工,配精致原版挂饰🍂🍂🍂🍂size24*20*8.5cm!F26611"},"price":null,"currency":"CNY","moq":1,"category":"ysl-women-bags","status":"active","alibaba_url":null,"images":["https://xcimg.szwego.com/20230308/a1678255563055_0070.jpg","https://xcimg.szwego.com/20230308/a1678255563047_0344.jpg","https://xcimg.szwego.com/20230308/a1678255563052_8850.jpg","https://xcimg.szwego.com/20230308/a1678255563061_5731.jpg","https://xcimg.szwego.com/20230308/a1678255563419_5618.jpg"],"created_at":"2025-02-08T12:46:07.465Z"},{"id":"item-e74a2414668e","sku":"_dxJxJf1DH12zNo2Hy7DkzFqH3YtFkYQhZYCdkBw","name_en":"YSL圣罗兰 专柜妖孽款SaintLaurent&SLP专柜最新版. 市场独家,进口皮原厂皮山羊纹,手工绣V线 超柔滑柔软舒适,包型精致,👏👏👏实用,型号428056,袋口YS黑扣,五金完美无暇 细节精湛手工,配精致原版挂饰🍂🍂🍂🍂size24*20*8.5cm!F26611","name_cn":"YSL圣罗兰 专柜妖孽款SaintLaurent&SLP专柜最新版. 市场独家,进口皮原厂皮山羊纹,手工绣V线 超柔滑柔软舒适,包型精致,👏👏👏实用,型号428056,袋口YS黑扣,五金完美无暇 细节精湛手工,配精致原版挂饰🍂🍂🍂🍂size24*20*8.5cm!F26611","specs":{"source":"wsxcme","sourceId":"_dxJxJf1DH12zNo2Hy7DkzFqH3YtFkYQhZYCdkBw","sourceTagId":47002761,"sourceTagName":"圣罗兰/女包","modelNumber":"428056","rawTitle":"YSL圣罗兰 专柜妖孽款SaintLaurent&SLP专柜最新版. 市场独家,进口皮原厂皮山羊纹,手工绣V线 超柔滑柔软舒适,包型精致,👏👏👏实用,型号428056,袋口YS黑扣,五金完美无暇 细节精湛手工,配精致原版挂饰🍂🍂🍂🍂size24*20*8.5cm!F26611"},"price":null,"currency":"CNY","moq":1,"category":"ysl-women-bags","status":"active","alibaba_url":null,"images":["https://xcimg.szwego.com/1520524042_1200368748_0","https://xcimg.szwego.com/1520524042_428844343_1","https://xcimg.szwego.com/1520524042_4026934030_2","https://xcimg.szwego.com/1520524042_743139506_3","https://xcimg.szwego.com/1520524042_4146827864_4","https://xcimg.szwego.com/1520524042_2249634725_5","https://xcimg.szwego.com/1520524042_961430207_6","https://xcimg.szwego.com/1520524042_3540772664_7","https://xcimg.szwego.com/1520524042_3647894835_8"],"created_at":"2025-02-08T12:46:07.464Z"},{"id":"item-8985e9d26a00","sku":"_dULULfr-rc3Dc2pK2d7nBWU0BA0CUwO8SnjpoYA","name_en":"YSL圣罗兰购物袋。属实不得不赞叹“她","name_cn":"YSL圣罗兰购物袋。属实不得不赞叹“她\n\nYSL圣罗兰购物袋。属实不得不赞叹“她”真的很美。洋气美妞/街拍人,时尚潮女都必备的出街款教 教全新设计十全新面料演绎说全新哑光 鹿皮纹牛皮手感质感都超棒上山这款包车线多咱家追求均匀对齐,超级显档次诗设容量足够内里还带拉链暗袋! . F各种衣衣搭配还是出席各路场合,都ok )。速度 来一只吧强烈推荐!尺寸 25-21-10\n编码:8151","specs":{"source":"wsxcme","sourceId":"_dULULfr-rc3Dc2pK2d7nBWU0BA0CUwO8SnjpoYA","sourceTagId":47002761,"sourceTagName":"圣罗兰/女包","rawTitle":"YSL圣罗兰购物袋。属实不得不赞叹“她\n\nYSL圣罗兰购物袋。属实不得不赞叹“她”真的很美。洋气美妞/街拍人,时尚潮女都必备的出街款教 教全新设计十全新面料演绎说全新哑光 鹿皮纹牛皮手感质感都超棒上山这款包车线多咱家追求均匀对齐,超级显档次诗设容量足够内里还带拉链暗袋! . F各种衣衣搭配还是出席各路场合,都ok )。速度 来一只吧强烈推荐!尺寸 25-21-10\n编码:8151"},"price":null,"currency":"CNY","moq":1,"category":"ysl-women-bags","status":"active","alibaba_url":null,"images":["https://xcimg.szwego.com/20230403/i1680464310_3206_0.jpg","https://xcimg.szwego.com/20230403/i1680464310_9962_1.jpg","https://xcimg.szwego.com/20230403/i1680464310_5051_2.jpg","https://xcimg.szwego.com/20230403/i1680464310_7912_3.jpg","https://xcimg.szwego.com/20230403/i1680464310_385_4.jpg","https://xcimg.szwego.com/20230403/i1680464310_8181_5.jpg","https://xcimg.szwego.com/20230403/i1680464310_3878_6.jpg","https://xcimg.szwego.com/20230403/i1680464310_5512_7.jpg"],"created_at":"2025-02-08T12:46:07.425Z"},{"id":"item-ddcf717b9674","sku":"_dr9r9gRH-embdjV9PyX6sABvv2Fdmvu-ym5xI-Q","name_en":"YSL圣罗兰牛皮编织相机包|||【NEW】","name_cn":"YSL圣罗兰牛皮编织相机包|||【NEW】\nLou相机包_黑色配黑色编织金扣意大利牛皮相机包\n非常精致 可调节式肩带搭配时尚流苏吊坠\n小牛皮面料 罗缎衬里 包内有一个内插袋\n非常实用大气。          款号71166\n尺寸:23x16x6cm","specs":{"source":"wsxcme","sourceId":"_dr9r9gRH-embdjV9PyX6sABvv2Fdmvu-ym5xI-Q","sourceTagId":47002761,"sourceTagName":"圣罗兰/女包","modelNumber":"71166","dimensions":{"lengthCm":23,"heightCm":16,"widthCm":6},"rawTitle":"YSL圣罗兰牛皮编织相机包|||【NEW】\nLou相机包_黑色配黑色编织金扣意大利牛皮相机包\n非常精致 可调节式肩带搭配时尚流苏吊坠\n小牛皮面料 罗缎衬里 包内有一个内插袋\n非常实用大气。          款号71166\n尺寸:23x16x6cm"},"price":null,"currency":"CNY","moq":1,"category":"ysl-women-bags","status":"active","alibaba_url":null,"images":["https://xcimg.szwego.com/20230627/i1687804858_2592_0.jpg","https://xcimg.szwego.com/20230627/i1687804858_7420_1.jpg","https://xcimg.szwego.com/20230627/i1687804858_1273_2.jpg","https://xcimg.szwego.com/20230627/i1687804858_6061_3.jpg","https://xcimg.szwego.com/20230627/i1687804858_4447_4.jpg","https://xcimg.szwego.com/20230627/i1687804858_2124_5.jpg","https://xcimg.szwego.com/20230627/i1687804858_1965_6.jpg","https://xcimg.szwego.com/20230627/i1687804858_2188_7.jpg"],"created_at":"2025-02-08T12:46:07.453Z"},{"id":"item-4dca2f027326","sku":"_dm3m3mxKJNQZDuj61qKrzJd3Zdj1Ow4Znd23itw","name_en":"YSL圣罗兰牛皮编织相机包|||【NEW】","name_cn":"YSL圣罗兰牛皮编织相机包|||【NEW】\nLou相机包_黑色配黑色编织金扣意大利牛皮相机包\n非常精致 可调节式肩带搭配时尚流苏吊坠\n小牛皮面料 罗缎衬里 包内有一个内插袋\n非常实用大气。                        款号71166\n尺寸:23x16x6cm","specs":{"source":"wsxcme","sourceId":"_dm3m3mxKJNQZDuj61qKrzJd3Zdj1Ow4Znd23itw","sourceTagId":47002761,"sourceTagName":"圣罗兰/女包","modelNumber":"71166","dimensions":{"lengthCm":23,"heightCm":16,"widthCm":6},"rawTitle":"YSL圣罗兰牛皮编织相机包|||【NEW】\nLou相机包_黑色配黑色编织金扣意大利牛皮相机包\n非常精致 可调节式肩带搭配时尚流苏吊坠\n小牛皮面料 罗缎衬里 包内有一个内插袋\n非常实用大气。                        款号71166\n尺寸:23x16x6cm"},"price":null,"currency":"CNY","moq":1,"category":"ysl-women-bags","status":"active","alibaba_url":null,"images":["https://xcimg.szwego.com/20230510/i1683661286_4683_0.jpg","https://xcimg.szwego.com/20230510/i1683661286_4909_1.jpg","https://xcimg.szwego.com/20230510/i1683661286_3997_2.jpg","https://xcimg.szwego.com/20230510/i1683661286_8400_3.jpg","https://xcimg.szwego.com/20230510/i1683661286_8473_4.jpg","https://xcimg.szwego.com/20230510/i1683661286_1935_5.jpg","https://xcimg.szwego.com/20230510/i1683661286_1389_6.jpg","https://xcimg.szwego.com/20230510/i1683661286_5725_7.jpg"],"created_at":"2025-02-08T12:46:07.426Z"},{"id":"item-8ec56fb74976","sku":"_dieieJ8-SWZj34dxDm-V7WEgyW85adfG18moowg","name_en":"YSL圣罗兰腋下包lefermoir","name_cn":"YSL圣罗兰腋下包lefermoir\n\n整体设计简洁,空间满足日常\n\n马鞍包Hobo造型,洋气时髦\n\n百搭的气质款,复古又俏皮\n\nsize: 24x17 #小众包包#出街通勤最百搭的包包#小","specs":{"source":"wsxcme","sourceId":"_dieieJ8-SWZj34dxDm-V7WEgyW85adfG18moowg","sourceTagId":47002761,"sourceTagName":"圣罗兰/女包","rawTitle":"YSL圣罗兰腋下包lefermoir\n\n整体设计简洁,空间满足日常\n\n马鞍包Hobo造型,洋气时髦\n\n百搭的气质款,复古又俏皮\n\nsize: 24x17 #小众包包#出街通勤最百搭的包包#小"},"price":null,"currency":"CNY","moq":1,"category":"ysl-women-bags","status":"active","alibaba_url":null,"images":["https://xcimg.szwego.com/20240521/i1716300219_8583_0.jpg","https://xcimg.szwego.com/20240521/i1716300219_311_1.jpg","https://xcimg.szwego.com/20240521/i1716300219_4808_2.jpg","https://xcimg.szwego.com/20240521/i1716300219_5817_3.jpg","https://xcimg.szwego.com/20240521/i1716300219_9627_4.jpg","https://xcimg.szwego.com/20240521/i1716300219_5786_5.jpg","https://xcimg.szwego.com/20240521/i1716300219_8885_6.jpg","https://xcimg.szwego.com/20240521/i1716300219_1040_7.jpg","https://xcimg.szwego.com/20240521/i1716300219_6156_8.jpg"],"created_at":"2025-02-08T12:46:07.484Z"},{"id":"item-9e99d1cc7dfa","sku":"_d9s9sxtI9pjBIxb7x-SZKDt1YLpX1V7Thg1A2oA","name_en":"YSL新款酒红色Hobo腋下包","name_cn":"YSL新款酒红色Hobo腋下包","specs":{"source":"wsxcme","sourceId":"_d9s9sxtI9pjBIxb7x-SZKDt1YLpX1V7Thg1A2oA","sourceTagId":47002761,"sourceTagName":"圣罗兰/女包","rawTitle":"YSL新款酒红色Hobo腋下包"},"price":null,"currency":"CNY","moq":1,"category":"ysl-women-bags","status":"active","alibaba_url":null,"images":["https://xcimg.szwego.com/img/58395cbb/20240928/a1727520453905_8734.jpg","https://xcimg.szwego.com/img/58395cbb/20240928/a1727520393684_7082.jpg","https://xcimg.szwego.com/img/58395cbb/20240928/a1727520393624_4146.jpg","https://xcimg.szwego.com/img/58395cbb/20240928/a1727520393625_2622.jpg"],"created_at":"2025-07-20T03:05:44.250Z"},{"id":"item-cf02b43de400","sku":"_du9u9vrQg-UGnHmxPPVNr_QzLYGiBK9WY8GohDg","name_en":"YSLLouLou Puffer水洗牛仔包","name_cn":"YSLLouLou Puffer水洗牛仔包\nloulou今年专柜超火爆的牛仔款式牛仔经过水洗手感柔软舒适胖乎乎的外形像拿着棉花糖颜值很高的一款呀!\n实用性满分+复古范十足怎么搭配都好看又百搭自圣罗兰25x17x6,款号9009","specs":{"source":"wsxcme","sourceId":"_du9u9vrQg-UGnHmxPPVNr_QzLYGiBK9WY8GohDg","sourceTagId":47002761,"sourceTagName":"圣罗兰/女包","modelNumber":"9009","rawTitle":"YSLLouLou Puffer水洗牛仔包\nloulou今年专柜超火爆的牛仔款式牛仔经过水洗手感柔软舒适胖乎乎的外形像拿着棉花糖颜值很高的一款呀!\n实用性满分+复古范十足怎么搭配都好看又百搭自圣罗兰25x17x6,款号9009"},"price":null,"currency":"CNY","moq":1,"category":"ysl-women-bags","status":"active","alibaba_url":null,"images":["https://xcimg.szwego.com/20230313/i1678717253_4528_0.jpg","https://xcimg.szwego.com/20230313/i1678717253_9282_1.jpg","https://xcimg.szwego.com/20230313/i1678717253_3670_2.jpg","https://xcimg.szwego.com/20230313/i1678717253_8747_3.jpg","https://xcimg.szwego.com/20230313/i1678717253_1223_4.jpg","https://xcimg.szwego.com/20230313/i1678717253_2578_5.jpg","https://xcimg.szwego.com/20230313/i1678717253_2104_6.jpg","https://xcimg.szwego.com/20230313/i1678717253_5369_7.jpg","https://xcimg.szwego.com/20230313/i1678717253_1941_8.jpg"],"created_at":"2025-02-08T12:46:07.433Z"},{"id":"item-06f00a5d5c96","sku":"_dd_d_MzAMqtwFAUJggScUU-cB4BMHKSY2a6QbYg","name_en":"YSLLouLou Puffer水洗牛仔包loulou今年专柜超火爆的牛仔款式牛仔经过水洗手感柔软舒适胖乎乎的外形像拿着棉花糖颜值很高的一款呀!实用性满分+复古范十足怎么搭配都好看又百搭自圣罗兰尺寸26x20x7,款号71112","name_cn":"YSLLouLou Puffer水洗牛仔包loulou今年专柜超火爆的牛仔款式牛仔经过水洗手感柔软舒适胖乎乎的外形像拿着棉花糖颜值很高的一款呀!实用性满分+复古范十足怎么搭配都好看又百搭自圣罗兰尺寸26x20x7,款号71112","specs":{"source":"wsxcme","sourceId":"_dd_d_MzAMqtwFAUJggScUU-cB4BMHKSY2a6QbYg","sourceTagId":47002761,"sourceTagName":"圣罗兰/女包","modelNumber":"71112","rawTitle":"YSLLouLou Puffer水洗牛仔包loulou今年专柜超火爆的牛仔款式牛仔经过水洗手感柔软舒适胖乎乎的外形像拿着棉花糖颜值很高的一款呀!实用性满分+复古范十足怎么搭配都好看又百搭自圣罗兰尺寸26x20x7,款号71112"},"price":null,"currency":"CNY","moq":1,"category":"ysl-women-bags","status":"active","alibaba_url":null,"images":["https://xcimg.szwego.com/20230414/i1681482781_290_0.jpg","https://xcimg.szwego.com/20230414/i1681482781_6904_1.jpg","https://xcimg.szwego.com/20230414/i1681482781_4971_2.jpg","https://xcimg.szwego.com/20230414/i1681482781_9126_3.jpg","https://xcimg.szwego.com/20230414/i1681482781_34_4.jpg","https://xcimg.szwego.com/20230414/i1681482781_9649_5.jpg","https://xcimg.szwego.com/20230414/i1681482781_3592_6.jpg","https://xcimg.szwego.com/20230414/i1681482781_4093_7.jpg"],"created_at":"2025-02-08T12:46:07.432Z"},{"id":"item-b8b92d2ad167","sku":"_dzCzC0fBk078Lk_5OxGn8Q-cV9b-UNyQUk_6Dvw","name_en":"Zp图_","name_cn":"Zp图_","specs":{"source":"wsxcme","sourceId":"_dzCzC0fBk078Lk_5OxGn8Q-cV9b-UNyQUk_6Dvw","sourceTagId":47002761,"sourceTagName":"圣罗兰/女包","rawTitle":"Zp图_"},"price":null,"currency":"CNY","moq":1,"category":"ysl-women-bags","status":"active","alibaba_url":null,"images":["https://xcimg.szwego.com/img/f8c0bdc9/20240904/i1725444229_8079_0.jpg","https://xcimg.szwego.com/img/f8c0bdc9/20240904/i1725444229_9431_1.jpg","https://xcimg.szwego.com/img/f8c0bdc9/20240904/i1725444229_6812_3.jpg","https://xcimg.szwego.com/img/f8c0bdc9/20240904/i1725444235_7282_0.jpg","https://xcimg.szwego.com/img/f8c0bdc9/20240904/i1725444229_4085_2.jpg"],"created_at":"2025-07-20T03:05:44.247Z"},{"id":"item-b64a2b52fdf0","sku":"_do_o_r3esZ0tG_PGAc_Wfuf_u2R0CQ1_bw0ebqw","name_en":"Zp图_","name_cn":"Zp图_","specs":{"source":"wsxcme","sourceId":"_do_o_r3esZ0tG_PGAc_Wfuf_u2R0CQ1_bw0ebqw","sourceTagId":47002761,"sourceTagName":"圣罗兰/女包","rawTitle":"Zp图_"},"price":null,"currency":"CNY","moq":1,"category":"ysl-women-bags","status":"active","alibaba_url":null,"images":["https://xcimg.szwego.com/20230720/i1689849328_4856_0.jpg","https://xcimg.szwego.com/20230720/i1689849328_2306_1.jpg","https://xcimg.szwego.com/20230720/i1689849328_260_2.jpg","https://xcimg.szwego.com/20230720/i1689849328_2728_3.jpg","https://xcimg.szwego.com/20230720/i1689849328_7167_4.jpg","https://xcimg.szwego.com/20230720/i1689849328_1717_5.jpg","https://xcimg.szwego.com/20230720/i1689849328_5551_6.jpg"],"created_at":"2026-06-29T10:48:59.289Z"},{"id":"item-64a9f1c896c1","sku":"_dtytyrXFOkvRnMPAvLVOQEMI7fkPQdbZCqJlOHg","name_en":"Zp图_","name_cn":"Zp图_","specs":{"source":"wsxcme","sourceId":"_dtytyrXFOkvRnMPAvLVOQEMI7fkPQdbZCqJlOHg","sourceTagId":47002761,"sourceTagName":"圣罗兰/女包","rawTitle":"Zp图_"},"price":null,"currency":"CNY","moq":1,"category":"ysl-women-bags","status":"active","alibaba_url":null,"images":["https://xcimg.szwego.com/img/f8c0bdc9/20240105/i1704445798_8588_0.jpg","https://xcimg.szwego.com/img/f8c0bdc9/20240105/i1704445798_6594_1.jpg","https://xcimg.szwego.com/img/f8c0bdc9/20240105/i1704445798_2742_2.jpg","https://xcimg.szwego.com/img/f8c0bdc9/20240105/i1704445798_4327_3.jpg","https://xcimg.szwego.com/img/f8c0bdc9/20240105/i1704445798_4293_4.jpg","https://xcimg.szwego.com/img/f8c0bdc9/20240105/i1704445798_9166_5.jpg","https://xcimg.szwego.com/img/f8c0bdc9/20240105/i1704445798_8754_6.jpg","https://xcimg.szwego.com/img/f8c0bdc9/20240105/i1704445798_6278_7.jpg","https://xcimg.szwego.com/img/f8c0bdc9/20240105/i1704445798_7918_8.jpg"],"created_at":"2025-07-20T03:10:54.217Z"},{"id":"item-121d0d1c14cf","sku":"_d_l_le4E1U-ta_Ju4-NM2asNXoWbQ0q_pYMnpeg","name_en":"Zp图_","name_cn":"Zp图_","specs":{"source":"wsxcme","sourceId":"_d_l_le4E1U-ta_Ju4-NM2asNXoWbQ0q_pYMnpeg","sourceTagId":47002761,"sourceTagName":"圣罗兰/女包","rawTitle":"Zp图_"},"price":null,"currency":"CNY","moq":1,"category":"ysl-women-bags","status":"active","alibaba_url":null,"images":["https://xcimg.szwego.com/img/f8c0bdc9/20240515/i1715779017_9885_5.jpg","https://xcimg.szwego.com/img/f8c0bdc9/20240515/i1715779017_276_0.jpg","https://xcimg.szwego.com/img/f8c0bdc9/20240515/i1715779017_9373_2.jpg","https://xcimg.szwego.com/img/f8c0bdc9/20240515/i1715779017_4707_8.jpg","https://xcimg.szwego.com/img/f8c0bdc9/20240515/i1715779017_4786_3.jpg","https://xcimg.szwego.com/img/f8c0bdc9/20240515/i1715779017_6615_4.jpg","https://xcimg.szwego.com/img/f8c0bdc9/20240515/i1715779017_9006_1.jpg","https://xcimg.szwego.com/img/f8c0bdc9/20240515/i1715779017_7926_6.jpg","https://xcimg.szwego.com/img/f8c0bdc9/20240515/i1715779017_8319_7.jpg"],"created_at":"2026-05-20T04:01:38.923Z"},{"id":"item-314cb5aaac97","sku":"_dqDqDxktlTTR3plr0yTWQzxZP3_uEwk0HQQ7kbA","name_en":"ZP图#","name_cn":"ZP图#","specs":{"source":"wsxcme","sourceId":"_dqDqDxktlTTR3plr0yTWQzxZP3_uEwk0HQQ7kbA","sourceTagId":47002761,"sourceTagName":"圣罗兰/女包","rawTitle":"ZP图#"},"price":null,"currency":"CNY","moq":1,"category":"ysl-women-bags","status":"active","alibaba_url":null,"images":["https://xcimg.szwego.com/img/fce24e4d/20240913/i1726199266_471_0.jpg","https://xcimg.szwego.com/img/fce24e4d/20240913/i1726199266_8987_3.jpg","https://xcimg.szwego.com/img/fce24e4d/20240913/i1726199266_4846_2.jpg","https://xcimg.szwego.com/img/fce24e4d/20240913/i1726199266_9448_1.jpg"],"created_at":"2025-07-20T03:05:44.252Z"}],"page":37,"pageSize":24,"total":888,"totalPages":37}
