{"items":[{"id":"item-e71c365f4bd5","sku":"_dxuxu63jXN4AE27_l_kXETn-awdvQLDrIElZDLg","name_en":"Saint Laurent Women Bags","name_cn":"绿牙签纹/金\n🌈VOLTAIRE BOX 腋下包极简主义最爱的款式、透露着高级的美感!椭圆腋下包型很有复古感、手拎腋下背法皆宜!翻盖搭扣很新颖~空间的话放手机也完全无压力哦!这个包真是绝了!这就是极简遇上复古的感觉,完美体现杨树林家现代女性的优雅气质,随性的简约设计让穿衣搭配更简单高级~LE CASSANDRE旋扣开合,搭配可调节可拆卸旋转钩肩带,演绎个性化佩戴方式、五金设计真的是封神了!用的是box皮、质感真的超赞~容量也是很可观哟\n型号:787671【原厂皮】\n尺寸:25x15x5cm","specs":{"source":"wsxcme","sourceId":"_dxuxu63jXN4AE27_l_kXETn-awdvQLDrIElZDLg","sourceTagId":47002761,"sourceTagName":"圣罗兰/女包","modelNumber":"787671【原厂皮】","dimensions":{"lengthCm":25,"heightCm":15,"widthCm":5},"rawTitle":"绿牙签纹/金\n🌈VOLTAIRE BOX 腋下包极简主义最爱的款式、透露着高级的美感!椭圆腋下包型很有复古感、手拎腋下背法皆宜!翻盖搭扣很新颖~空间的话放手机也完全无压力哦!这个包真是绝了!这就是极简遇上复古的感觉,完美体现杨树林家现代女性的优雅气质,随性的简约设计让穿衣搭配更简单高级~LE CASSANDRE旋扣开合,搭配可调节可拆卸旋转钩肩带,演绎个性化佩戴方式、五金设计真的是封神了!用的是box皮、质感真的超赞~容量也是很可观哟\n型号:787671【原厂皮】\n尺寸:25x15x5cm"},"price":null,"currency":"CNY","moq":1,"category":"ysl-women-bags","status":"active","alibaba_url":null,"images":["https://xcimg.szwego.com/img/fce24e4d/20240808/i1723102176_9289_7.jpg","https://xcimg.szwego.com/img/fce24e4d/20240808/i1723102175_3044_5.jpg","https://xcimg.szwego.com/img/fce24e4d/20240808/i1723102175_4205_4.jpg","https://xcimg.szwego.com/img/fce24e4d/20240808/i1723102175_3152_3.jpg","https://xcimg.szwego.com/img/fce24e4d/20240808/i1723102175_1578_2.jpg","https://xcimg.szwego.com/img/fce24e4d/20240808/i1723102176_2145_8.jpg","https://xcimg.szwego.com/img/fce24e4d/20240808/i1723102175_2066_0.jpg","https://xcimg.szwego.com/img/fce24e4d/20240808/i1723102176_5034_6.jpg","https://xcimg.szwego.com/img/fce24e4d/20240808/i1723102175_9616_1.jpg"],"created_at":"2024-12-08T05:54:56.765Z"},{"id":"item-e7026ca680fd","sku":"_d_q_qScjd4Jfeb4wuVn5QCNWbqJH243xpzy1imA","name_en":"Saint Laurent Women Bags","name_cn":"大红·\nSOLFERINO BOX_23cm\n必火爆款,还没上市就攻陷了整个时尚圈,怀旧左岸,灵感来自巴黎左岸街名Rue De Solferino为名!包包采用原厂漆皮牛皮,手感及皮面的柔韧度都非常好!内里设计三层风琴隔,可轻松容纳日常所需物品,全新设计的“L”字母上下对半开扣,彻底颠覆你对包扣的认知,不禁让人发出惊叹,原来还能这样开包包,简直不要太有趣了!\n型号:634305\n尺寸:23x16x6cm","specs":{"source":"wsxcme","sourceId":"_d_q_qScjd4Jfeb4wuVn5QCNWbqJH243xpzy1imA","sourceTagId":47002761,"sourceTagName":"圣罗兰/女包","modelNumber":"634305","dimensions":{"lengthCm":23,"heightCm":16,"widthCm":6},"rawTitle":"大红·\nSOLFERINO BOX_23cm\n必火爆款,还没上市就攻陷了整个时尚圈,怀旧左岸,灵感来自巴黎左岸街名Rue De Solferino为名!包包采用原厂漆皮牛皮,手感及皮面的柔韧度都非常好!内里设计三层风琴隔,可轻松容纳日常所需物品,全新设计的“L”字母上下对半开扣,彻底颠覆你对包扣的认知,不禁让人发出惊叹,原来还能这样开包包,简直不要太有趣了!\n型号:634305\n尺寸:23x16x6cm"},"price":null,"currency":"CNY","moq":1,"category":"ysl-women-bags","status":"active","alibaba_url":null,"images":["https://xcimg.szwego.com/img/f8c0bdc9/20241025/i1729840305_2157_6.jpg","https://xcimg.szwego.com/img/f8c0bdc9/20241025/i1729840305_6630_7.jpg","https://xcimg.szwego.com/img/f8c0bdc9/20241025/i1729840305_1122_1.jpg","https://xcimg.szwego.com/img/f8c0bdc9/20241025/i1729840305_6148_2.jpg","https://xcimg.szwego.com/img/f8c0bdc9/20241025/i1729840305_5743_3.jpg","https://xcimg.szwego.com/img/f8c0bdc9/20241025/i1729840305_4740_8.jpg","https://xcimg.szwego.com/img/f8c0bdc9/20241025/i1729840305_9231_0.jpg","https://xcimg.szwego.com/img/f8c0bdc9/20241025/i1729840305_1541_5.jpg","https://xcimg.szwego.com/img/f8c0bdc9/20241025/i1729840305_3069_4.jpg"],"created_at":"2026-06-29T10:54:45.056Z"},{"id":"item-e6035044b382","sku":"_djZjZFjGwgNermRlzNp_3oAIMpxobM6FgYS5AGQ","name_en":"Saint Laurent Women Bags","name_cn":"黑色鱼子酱绣线·\nY家鱼子酱牛皮大号托特包/购物袋\n标志性LOGO化身摩登代码,在经典更迭延续间,续写灵感章节,以醒目刻印包揽多元姿态。超大容量,可以装ipad电脑,春夏出游的旅行袋,可造可凹造型,复古简约的设计,时髦又出片,ins博主推荐热款~真的太香啦!\n款号:668900\n尺寸:33×22×15","specs":{"source":"wsxcme","sourceId":"_djZjZFjGwgNermRlzNp_3oAIMpxobM6FgYS5AGQ","sourceTagId":47002761,"sourceTagName":"圣罗兰/女包","modelNumber":"668900","rawTitle":"黑色鱼子酱绣线·\nY家鱼子酱牛皮大号托特包/购物袋\n标志性LOGO化身摩登代码,在经典更迭延续间,续写灵感章节,以醒目刻印包揽多元姿态。超大容量,可以装ipad电脑,春夏出游的旅行袋,可造可凹造型,复古简约的设计,时髦又出片,ins博主推荐热款~真的太香啦!\n款号:668900\n尺寸:33×22×15"},"price":null,"currency":"CNY","moq":1,"category":"ysl-women-bags","status":"active","alibaba_url":null,"images":["https://xcimg.szwego.com/img/f8c0bdc9/20250106/i1736150525022_8694_0_0.jpg","https://xcimg.szwego.com/img/f8c0bdc9/20250106/i1736150524792_4401_0_1.jpg","https://xcimg.szwego.com/img/f8c0bdc9/20250106/i1736150524710_6067_0_2.jpg","https://xcimg.szwego.com/img/f8c0bdc9/20250106/i1736150525100_7012_0_3.jpg","https://xcimg.szwego.com/img/f8c0bdc9/20250106/i1736150524626_26_0_4.jpg","https://xcimg.szwego.com/img/f8c0bdc9/20250106/i1736150525261_2570_0_5.jpg","https://xcimg.szwego.com/img/f8c0bdc9/20250106/i1736150525185_5656_0_6.jpg","https://xcimg.szwego.com/img/f8c0bdc9/20250106/i1736150524858_694_0_7.jpg","https://xcimg.szwego.com/img/f8c0bdc9/20250106/i1736150524940_4232_0_8.jpg"],"created_at":"2025-02-09T12:24:59.172Z"},{"id":"item-e5fb8837bcb2","sku":"_dtwtwKWfBkcWDtthEeHm30uog6hokA-O327E7DQ","name_en":"Saint Laurent Women Bags","name_cn":"焦糖色系包包已悄然成为博主们的日常搭配\n自带暖意","specs":{"source":"wsxcme","sourceId":"_dtwtwKWfBkcWDtthEeHm30uog6hokA-O327E7DQ","sourceTagId":47002761,"sourceTagName":"圣罗兰/女包","rawTitle":"焦糖色系包包已悄然成为博主们的日常搭配\n自带暖意"},"price":null,"currency":"CNY","moq":1,"category":"ysl-women-bags","status":"active","alibaba_url":null,"images":["https://xcimg.szwego.com/imgHD/f8c0bdc9/20251229/cmp_i1767000162095_2074_0_0.jpg","https://xcimg.szwego.com/imgHD/f8c0bdc9/20251229/cmp_i1767000162034_211_0_1.jpg","https://xcimg.szwego.com/imgHD/f8c0bdc9/20251229/cmp_i1767000161594_2464_0_2.jpg","https://xcimg.szwego.com/imgHD/f8c0bdc9/20251229/cmp_i1767000162107_9899_0_3.jpg"],"created_at":"2026-06-29T10:54:45.506Z"},{"id":"item-e4d41f04bee5","sku":"_dDsDs1fAUk4-FbOhhyiXC2G7iSu-NBPP1AgF2Cg","name_en":"Saint Laurent Women Bags","name_cn":"鳄鱼纹黑色/枪链\nSunset 22cm#经典款贵气鳄鱼纹sunset日落包 原厂皮版本!喜欢鳄鱼纹包包的小伙伴不能错过的一款!高品质 正品皮,正品开模五金,追求每一个每一个细节,力求无穷大的接近正品 👍\n尺寸:22x8x16cm\n型号:442906","specs":{"source":"wsxcme","sourceId":"_dDsDs1fAUk4-FbOhhyiXC2G7iSu-NBPP1AgF2Cg","sourceTagId":47002761,"sourceTagName":"圣罗兰/女包","modelNumber":"442906","dimensions":{"lengthCm":22,"heightCm":8,"widthCm":16},"rawTitle":"鳄鱼纹黑色/枪链\nSunset 22cm#经典款贵气鳄鱼纹sunset日落包 原厂皮版本!喜欢鳄鱼纹包包的小伙伴不能错过的一款!高品质 正品皮,正品开模五金,追求每一个每一个细节,力求无穷大的接近正品 👍\n尺寸:22x8x16cm\n型号:442906"},"price":null,"currency":"CNY","moq":1,"category":"ysl-women-bags","status":"active","alibaba_url":null,"images":["https://xcimg.szwego.com/img/7821319d/20240615/i1718383610_8643_4.jpg","https://xcimg.szwego.com/img/7821319d/20240615/i1718383610_7234_6.jpg","https://xcimg.szwego.com/img/7821319d/20240615/i1718383610_5237_3.jpg","https://xcimg.szwego.com/img/7821319d/20240615/i1718383610_2207_1.jpg","https://xcimg.szwego.com/img/7821319d/20240615/i1718383610_1488_7.jpg","https://xcimg.szwego.com/img/7821319d/20240615/i1718383610_4099_2.jpg","https://xcimg.szwego.com/img/7821319d/20240615/i1718383610_8453_0.jpg","https://xcimg.szwego.com/img/7821319d/20240615/i1718383610_5514_5.jpg"],"created_at":"2024-08-04T12:57:22.859Z"},{"id":"item-e3efbb9b39a9","sku":"_do2o2XrMhqKxP16qX359NwW5crD3v7RiD8Oki7A","name_en":"Saint Laurent Women Bags","name_cn":"咖啡麂皮\nPARIS VII 麂皮小号HOBO手袋\n牛皮抽绳开合,饰有标志性CASSANDRE吊坠,同色系绒面革衬里。\n这款手袋优雅、柔软,配有一个卡包和可调节肩带,演绎个性化佩戴方式。\n尺寸:30×25×3cm\n型号:796626","specs":{"source":"wsxcme","sourceId":"_do2o2XrMhqKxP16qX359NwW5crD3v7RiD8Oki7A","sourceTagId":47002761,"sourceTagName":"圣罗兰/女包","modelNumber":"796626","dimensions":{"lengthCm":30,"heightCm":25,"widthCm":3},"rawTitle":"咖啡麂皮\nPARIS VII 麂皮小号HOBO手袋\n牛皮抽绳开合,饰有标志性CASSANDRE吊坠,同色系绒面革衬里。\n这款手袋优雅、柔软,配有一个卡包和可调节肩带,演绎个性化佩戴方式。\n尺寸:30×25×3cm\n型号:796626"},"price":null,"currency":"CNY","moq":1,"category":"ysl-women-bags","status":"active","alibaba_url":null,"images":["https://xcimg.szwego.com/imgHD/f8c0bdc9/20251208/cmp_i1765187535667_4968_0_0.jpg","https://xcimg.szwego.com/imgHD/f8c0bdc9/20251208/cmp_i1765187535685_4563_0_1.jpg","https://xcimg.szwego.com/imgHD/f8c0bdc9/20251208/cmp_i1765187533439_4602_0_2.jpg","https://xcimg.szwego.com/imgHD/f8c0bdc9/20251208/cmp_i1765187538429_585_0_3.jpg","https://xcimg.szwego.com/imgHD/f8c0bdc9/20251208/cmp_i1765187533428_9035_0_4.jpg","https://xcimg.szwego.com/imgHD/f8c0bdc9/20251208/cmp_i1765187534329_939_0_5.jpg","https://xcimg.szwego.com/imgHD/f8c0bdc9/20251208/cmp_i1765187536048_5782_0_6.jpg","https://xcimg.szwego.com/imgHD/f8c0bdc9/20251208/cmp_i1765187536631_2270_0_7.jpg","https://xcimg.szwego.com/imgHD/f8c0bdc9/20251208/cmp_i1765187536639_1971_0_8.jpg"],"created_at":"2026-06-29T10:54:45.296Z"},{"id":"item-e384b96ed904","sku":"_dgcgcyoVkc2qNawwyxQy-6r5jFchYiR3yLesaBQ","name_en":"Saint Laurent Women Bags","name_cn":"官网图_","specs":{"source":"wsxcme","sourceId":"_dgcgcyoVkc2qNawwyxQy-6r5jFchYiR3yLesaBQ","sourceTagId":47002761,"sourceTagName":"圣罗兰/女包","rawTitle":"官网图_"},"price":null,"currency":"CNY","moq":1,"category":"ysl-women-bags","status":"active","alibaba_url":null,"images":["https://xcimg.szwego.com/img/f8c0bdc9/20240904/i1725443934_5915_1.jpg","https://xcimg.szwego.com/img/f8c0bdc9/20240904/i1725443934_54_5.jpg","https://xcimg.szwego.com/img/f8c0bdc9/20240904/i1725443934_9603_0.jpg","https://xcimg.szwego.com/img/f8c0bdc9/20240904/i1725443934_9111_3.jpg","https://xcimg.szwego.com/img/f8c0bdc9/20240904/i1725443934_5476_2.jpg","https://xcimg.szwego.com/img/f8c0bdc9/20240904/i1725443934_152_4.jpg"],"created_at":"2026-05-20T04:01:39.103Z"},{"id":"item-e347e87d4af3","sku":"_dDVDVNPU-MnY_3x6RJ04f0nle-RLYjG18SlSnLA","name_en":"Saint Laurent Women Bags","name_cn":"随拍上身图_","specs":{"source":"wsxcme","sourceId":"_dDVDVNPU-MnY_3x6RJ04f0nle-RLYjG18SlSnLA","sourceTagId":47002761,"sourceTagName":"圣罗兰/女包","rawTitle":"随拍上身图_"},"price":null,"currency":"CNY","moq":1,"category":"ysl-women-bags","status":"active","alibaba_url":null,"images":["https://xcimg.szwego.com/img/f8c0bdc9/20240811/i1723372968_8578_3.jpg","https://xcimg.szwego.com/img/f8c0bdc9/20240811/i1723372968_2992_4.jpg","https://xcimg.szwego.com/img/f8c0bdc9/20240811/i1723372968_1705_2.jpg","https://xcimg.szwego.com/img/f8c0bdc9/20240811/i1723372968_7169_1.jpg","https://xcimg.szwego.com/img/f8c0bdc9/20240811/i1723372968_1171_0.jpg"],"created_at":"2026-05-20T04:01:39.243Z"},{"id":"item-e345a7802699","sku":"_dE7E7T26U_b2yNCqbhzk7T9yBW0WmatSs0w3YSQ","name_en":"Saint Laurent Women Bags","name_cn":"羊皮绿/金\n🌈最新爆款Mini羊皮革肩带手拿包化妆包到货!环绕式拉链手拿包,饰以LE CASSANDRE和菱形绗缝包缝、羊皮内衬、古铜色配件拉链开合一个卡片槽位、此款多功能单品配有皮革顶部提手和可调节可拆卸肩带、可肩背或斜挎!\n型号:766731【原厂皮】\n尺寸:18×11×6.5cm","specs":{"source":"wsxcme","sourceId":"_dE7E7T26U_b2yNCqbhzk7T9yBW0WmatSs0w3YSQ","sourceTagId":47002761,"sourceTagName":"圣罗兰/女包","modelNumber":"766731【原厂皮】","dimensions":{"lengthCm":18,"heightCm":11,"widthCm":6.5},"rawTitle":"羊皮绿/金\n🌈最新爆款Mini羊皮革肩带手拿包化妆包到货!环绕式拉链手拿包,饰以LE CASSANDRE和菱形绗缝包缝、羊皮内衬、古铜色配件拉链开合一个卡片槽位、此款多功能单品配有皮革顶部提手和可调节可拆卸肩带、可肩背或斜挎!\n型号:766731【原厂皮】\n尺寸:18×11×6.5cm"},"price":null,"currency":"CNY","moq":1,"category":"ysl-women-bags","status":"active","alibaba_url":null,"images":["https://xcimg.szwego.com/img/fce24e4d/20240715/i1721024007_1070_8.jpg","https://xcimg.szwego.com/img/fce24e4d/20240715/i1721024007_4778_5.jpg","https://xcimg.szwego.com/img/fce24e4d/20240715/i1721024007_3426_0.jpg","https://xcimg.szwego.com/img/fce24e4d/20240715/i1721024007_6253_7.jpg","https://xcimg.szwego.com/img/fce24e4d/20240715/i1721024007_8125_6.jpg","https://xcimg.szwego.com/img/fce24e4d/20240715/i1721024007_3388_1.jpg","https://xcimg.szwego.com/img/fce24e4d/20240715/i1721024007_1628_3.jpg","https://xcimg.szwego.com/img/fce24e4d/20240715/i1721024007_41_2.jpg","https://xcimg.szwego.com/img/fce24e4d/20240715/i1721024007_7133_4.jpg"],"created_at":"2024-12-08T05:53:55.858Z"},{"id":"item-e281bc41cffc","sku":"_dcQcQV1hMriT-9-AJVAcgPFHCLwmstEs5gFG5pQ","name_en":"Saint Laurent Women Bags","name_cn":"咖啡色·\n24ss 新款购物袋\n艺术与个性的独特融合,Y家总是眼光独到,深得时尚顶流的心,Y字牛皮的设计让人眼前一亮,给人一种随性慵懒、充满个性的感觉。超大容量,可以装ipad电脑,复古简约的设计,可凹造型,时髦又出片!\n款号:817602\n尺寸:38-50×33×16cm","specs":{"source":"wsxcme","sourceId":"_dcQcQV1hMriT-9-AJVAcgPFHCLwmstEs5gFG5pQ","sourceTagId":47002761,"sourceTagName":"圣罗兰/女包","modelNumber":"817602","rawTitle":"咖啡色·\n24ss 新款购物袋\n艺术与个性的独特融合,Y家总是眼光独到,深得时尚顶流的心,Y字牛皮的设计让人眼前一亮,给人一种随性慵懒、充满个性的感觉。超大容量,可以装ipad电脑,复古简约的设计,可凹造型,时髦又出片!\n款号:817602\n尺寸:38-50×33×16cm"},"price":null,"currency":"CNY","moq":1,"category":"ysl-women-bags","status":"active","alibaba_url":null,"images":["https://xcimg.szwego.com/img/f8c0bdc9/20241022/i1729587036_8256_7.jpg","https://xcimg.szwego.com/img/f8c0bdc9/20241022/i1729587036_3663_8.jpg","https://xcimg.szwego.com/img/f8c0bdc9/20241022/i1729587036_5133_5.jpg","https://xcimg.szwego.com/img/f8c0bdc9/20241022/i1729587036_7224_2.jpg","https://xcimg.szwego.com/img/f8c0bdc9/20241022/i1729587035_722_0.jpg","https://xcimg.szwego.com/img/f8c0bdc9/20241022/i1729587036_4199_6.jpg","https://xcimg.szwego.com/img/f8c0bdc9/20241022/i1729587036_8085_4.jpg","https://xcimg.szwego.com/img/f8c0bdc9/20241022/i1729587035_1438_1.jpg","https://xcimg.szwego.com/img/f8c0bdc9/20241022/i1729587036_8134_3.jpg"],"created_at":"2025-08-03T06:07:05.708Z"},{"id":"item-e2676a384307","sku":"_dAVAVafWAKWHtUoDC2cHHIMER6_UUbJfBijhcMw","name_en":"Saint Laurent Women Bags","name_cn":"经典的侧面风琴褶\n挺括的皮质特别有质感","specs":{"source":"wsxcme","sourceId":"_dAVAVafWAKWHtUoDC2cHHIMER6_UUbJfBijhcMw","sourceTagId":47002761,"sourceTagName":"圣罗兰/女包","rawTitle":"经典的侧面风琴褶\n挺括的皮质特别有质感"},"price":null,"currency":"CNY","moq":1,"category":"ysl-women-bags","status":"active","alibaba_url":null,"images":["https://xcimg.szwego.com/imgHD/f8c0bdc9/20251229/cmp_i1766999936331_8972_0_0.jpg","https://xcimg.szwego.com/imgHD/f8c0bdc9/20251229/cmp_i1766999936368_5128_0_1.jpg","https://xcimg.szwego.com/imgHD/f8c0bdc9/20251229/cmp_i1766999936392_7058_0_2.jpg","https://xcimg.szwego.com/imgHD/f8c0bdc9/20251229/cmp_i1766999936336_8660_0_3.jpg"],"created_at":"2026-06-29T10:54:45.476Z"},{"id":"item-e09a4ccf7552","sku":"_drHrHD7zOLYbB-FXiPFJnxw0ognMf40WPYaa70g","name_en":"Saint Laurent Women Bags","name_cn":"全新草编托特包_","specs":{"source":"wsxcme","sourceId":"_drHrHD7zOLYbB-FXiPFJnxw0ognMf40WPYaa70g","sourceTagId":47002761,"sourceTagName":"圣罗兰/女包","rawTitle":"全新草编托特包_"},"price":null,"currency":"CNY","moq":1,"category":"ysl-women-bags","status":"active","alibaba_url":null,"images":["https://xcimg.szwego.com/img/f8c0bdc9/20240105/i1704445885_4345_0.jpg","https://xcimg.szwego.com/img/f8c0bdc9/20240105/i1704445885_8620_1.jpg","https://xcimg.szwego.com/img/f8c0bdc9/20240105/i1704445885_3252_2.jpg","https://xcimg.szwego.com/img/f8c0bdc9/20240105/i1704445885_815_3.jpg","https://xcimg.szwego.com/img/f8c0bdc9/20240105/i1704445885_8087_4.jpg"],"created_at":"2025-07-20T03:10:54.218Z"},{"id":"item-df7d48f84ce9","sku":"_dhMhMkc93QB9U4KmqYXZa-su3cfhmXyl0Bf5bjg","name_en":"Saint Laurent Women Bags","name_cn":"872469 细节实拍","specs":{"source":"wsxcme","sourceId":"_dhMhMkc93QB9U4KmqYXZa-su3cfhmXyl0Bf5bjg","sourceTagId":47002761,"sourceTagName":"圣罗兰/女包","rawTitle":"872469 细节实拍"},"price":null,"currency":"CNY","moq":1,"category":"ysl-women-bags","status":"active","alibaba_url":null,"images":["https://xcimg.szwego.com/img/ffb49dcd/20260416/i1776351803556_6823_0_3.jpg","https://xcimg.szwego.com/img/ffb49dcd/20260416/i1776351805301_9234_0_4.jpg","https://xcimg.szwego.com/img/ffb49dcd/20260416/i1776351832611_7442_0_3.jpg","https://xcimg.szwego.com/img/ffb49dcd/20260416/i1776351832556_4263_0_2.jpg","https://xcimg.szwego.com/img/ffb49dcd/20260416/i1776351832041_4319_0_4.jpg","https://xcimg.szwego.com/img/ffb49dcd/20260416/i1776351806646_3709_0_8.jpg","https://xcimg.szwego.com/img/ffb49dcd/20260416/i1776351832045_8032_0_5.jpg","https://xcimg.szwego.com/img/ffb49dcd/20260416/i1776351803465_4084_0_0.jpg"],"created_at":"2026-05-20T04:01:38.513Z"},{"id":"item-df393106e4e1","sku":"_dYEYEEQpSrn3bgVNQKNEseoYSRmUTlUobIKi65A","name_en":"Saint Laurent Women Bags","name_cn":"黑牙签纹/枪\nSunset 22cm#经典款贵气牙签纹sunset日落包 原厂皮版本!喜欢牙签纹包包的小伙伴不能错过的一款!高品质 正品皮,正品开模五金,追求每一个每一个细节,力求无穷大的接近正品 👍\n尺寸:22x8x16cm\n型号:442906","specs":{"source":"wsxcme","sourceId":"_dYEYEEQpSrn3bgVNQKNEseoYSRmUTlUobIKi65A","sourceTagId":47002761,"sourceTagName":"圣罗兰/女包","modelNumber":"442906","dimensions":{"lengthCm":22,"heightCm":8,"widthCm":16},"rawTitle":"黑牙签纹/枪\nSunset 22cm#经典款贵气牙签纹sunset日落包 原厂皮版本!喜欢牙签纹包包的小伙伴不能错过的一款!高品质 正品皮,正品开模五金,追求每一个每一个细节,力求无穷大的接近正品 👍\n尺寸:22x8x16cm\n型号:442906"},"price":null,"currency":"CNY","moq":1,"category":"ysl-women-bags","status":"active","alibaba_url":null,"images":["https://xcimg.szwego.com/img/7821319d/20240615/i1718383181_8707_0.jpg","https://xcimg.szwego.com/img/7821319d/20240615/i1718383180_7389_0.jpg","https://xcimg.szwego.com/img/7821319d/20240615/i1718383180_2604_0.jpg","https://xcimg.szwego.com/img/7821319d/20240615/i1718383169_2361_1.jpg","https://xcimg.szwego.com/img/7821319d/20240615/i1718383180_2889_0.jpg","https://xcimg.szwego.com/img/7821319d/20240615/i1718383169_6888_2.jpg","https://xcimg.szwego.com/img/7821319d/20240615/i1718383180_5466_0.jpg","https://xcimg.szwego.com/img/7821319d/20240615/i1718383180_5309_0.jpg","https://xcimg.szwego.com/img/7821319d/20240615/i1718383181_4768_0.jpg"],"created_at":"2024-08-04T12:57:22.851Z"},{"id":"item-defc83402ef6","sku":"_dmhmh1uE1exxP3yybjQFzmXStU4Ve0znXIayrYA","name_en":"Saint Laurent Women Bags","name_cn":"黑色·\nLE 37水桶包小号_\n超好看水桶包 带手提_全新包型,采用意大利小牛皮,包身轮廓简洁、立体,看上去硬挺又不会太凌厉,底部带有个金属脚钉,搭配经典标志性金属logo的插入式包扣,整体给人一种既经典优雅,又很时髦现代的独特气质!\n尺寸:17×20×13cm\n型号:749036","specs":{"source":"wsxcme","sourceId":"_dmhmh1uE1exxP3yybjQFzmXStU4Ve0znXIayrYA","sourceTagId":47002761,"sourceTagName":"圣罗兰/女包","modelNumber":"749036","dimensions":{"lengthCm":17,"heightCm":20,"widthCm":13},"rawTitle":"黑色·\nLE 37水桶包小号_\n超好看水桶包 带手提_全新包型,采用意大利小牛皮,包身轮廓简洁、立体,看上去硬挺又不会太凌厉,底部带有个金属脚钉,搭配经典标志性金属logo的插入式包扣,整体给人一种既经典优雅,又很时髦现代的独特气质!\n尺寸:17×20×13cm\n型号:749036"},"price":null,"currency":"CNY","moq":1,"category":"ysl-women-bags","status":"active","alibaba_url":null,"images":["https://xcimg.szwego.com/img/f8c0bdc9/20241018/i1729236141_8597_0.jpg","https://xcimg.szwego.com/img/f8c0bdc9/20241018/i1729236141_3511_3.jpg","https://xcimg.szwego.com/img/f8c0bdc9/20241018/i1729236141_8023_2.jpg","https://xcimg.szwego.com/img/f8c0bdc9/20241018/i1729236141_364_7.jpg","https://xcimg.szwego.com/img/f8c0bdc9/20241018/i1729236141_4770_5.jpg","https://xcimg.szwego.com/img/f8c0bdc9/20241018/i1729236141_5191_8.jpg","https://xcimg.szwego.com/img/f8c0bdc9/20241018/i1729236141_4967_1.jpg","https://xcimg.szwego.com/img/f8c0bdc9/20241018/i1729236141_1382_6.jpg","https://xcimg.szwego.com/img/f8c0bdc9/20241018/i1729236141_879_4.jpg"],"created_at":"2026-06-29T10:54:44.736Z"},{"id":"item-dece554aea12","sku":"_dwzwzqfyppVURIg2wcphRNKFssKv6A1GSFqlrsg","name_en":"Saint Laurent Women Bags","name_cn":"随拍上身参考_","specs":{"source":"wsxcme","sourceId":"_dwzwzqfyppVURIg2wcphRNKFssKv6A1GSFqlrsg","sourceTagId":47002761,"sourceTagName":"圣罗兰/女包","rawTitle":"随拍上身参考_"},"price":null,"currency":"CNY","moq":1,"category":"ysl-women-bags","status":"active","alibaba_url":null,"images":["https://xcimg.szwego.com/img/f8c0bdc9/20240104/i1704353518_5779_0.jpg","https://xcimg.szwego.com/img/f8c0bdc9/20240104/i1704353518_485_1.jpg","https://xcimg.szwego.com/img/f8c0bdc9/20240104/i1704353518_9699_2.jpg","https://xcimg.szwego.com/img/f8c0bdc9/20240104/i1704353518_5821_3.jpg","https://xcimg.szwego.com/img/f8c0bdc9/20240104/i1704353518_4862_4.jpg","https://xcimg.szwego.com/img/f8c0bdc9/20240104/i1704353518_5243_5.jpg"],"created_at":"2026-05-20T04:01:39.193Z"},{"id":"item-dec16ef6f0fc","sku":"_dksksCdYY9vl2MHKtKraSvYhdLHXUhjxVUbJqaQ","name_en":"Saint Laurent Women Bags","name_cn":"官网图_","specs":{"source":"wsxcme","sourceId":"_dksksCdYY9vl2MHKtKraSvYhdLHXUhjxVUbJqaQ","sourceTagId":47002761,"sourceTagName":"圣罗兰/女包","rawTitle":"官网图_"},"price":null,"currency":"CNY","moq":1,"category":"ysl-women-bags","status":"active","alibaba_url":null,"images":["https://xcimg.szwego.com/img/f8c0bdc9/20240811/i1723375269_1300_2.jpg","https://xcimg.szwego.com/img/f8c0bdc9/20240811/i1723375269_763_5.jpg","https://xcimg.szwego.com/img/f8c0bdc9/20240811/i1723375269_410_6.jpg","https://xcimg.szwego.com/img/f8c0bdc9/20240811/i1723375269_9655_7.jpg","https://xcimg.szwego.com/img/f8c0bdc9/20240811/i1723375269_4451_3.jpg","https://xcimg.szwego.com/img/f8c0bdc9/20240811/i1723375269_6989_0.jpg","https://xcimg.szwego.com/img/f8c0bdc9/20240811/i1723375269_2746_1.jpg","https://xcimg.szwego.com/img/f8c0bdc9/20240811/i1723375269_4180_4.jpg"],"created_at":"2026-05-20T04:01:39.253Z"},{"id":"item-deb00d3ab83e","sku":"_dznznNdmOL4WRQFaRuapMjLU0v4_i6RLp7NXxIw","name_en":"Saint Laurent Women Bags","name_cn":"麂皮款·\nCALYPSO_麂皮链条包\n进口意大利麂皮制作,手感柔软细腻,经典的Y家logo、链条及扣眼五金均采用巴金哑光五金,包袋开口处折叠后使用了磁性四合扣封口,密闭性及安全性一流;包内设有一个拉链内袋可放置手机及贵重物品,除此之外无多余内袋设计,使用起来随心所欲!\n尺寸:38×21×10cm\n型号:777399","specs":{"source":"wsxcme","sourceId":"_dznznNdmOL4WRQFaRuapMjLU0v4_i6RLp7NXxIw","sourceTagId":47002761,"sourceTagName":"圣罗兰/女包","modelNumber":"777399","dimensions":{"lengthCm":38,"heightCm":21,"widthCm":10},"rawTitle":"麂皮款·\nCALYPSO_麂皮链条包\n进口意大利麂皮制作,手感柔软细腻,经典的Y家logo、链条及扣眼五金均采用巴金哑光五金,包袋开口处折叠后使用了磁性四合扣封口,密闭性及安全性一流;包内设有一个拉链内袋可放置手机及贵重物品,除此之外无多余内袋设计,使用起来随心所欲!\n尺寸:38×21×10cm\n型号:777399"},"price":null,"currency":"CNY","moq":1,"category":"ysl-women-bags","status":"active","alibaba_url":null,"images":["https://xcimg.szwego.com/imgHD/f8c0bdc9/20250712/cmp_i1752302825964_2238_0_0.jpg","https://xcimg.szwego.com/imgHD/f8c0bdc9/20250712/cmp_i1752302822936_1520_0_1.jpg","https://xcimg.szwego.com/imgHD/f8c0bdc9/20250712/cmp_i1752302822956_751_0_2.jpg","https://xcimg.szwego.com/imgHD/f8c0bdc9/20250712/cmp_i1752302826040_9265_0_3.jpg","https://xcimg.szwego.com/imgHD/f8c0bdc9/20250712/cmp_i1752302823288_837_0_4.jpg","https://xcimg.szwego.com/imgHD/f8c0bdc9/20250712/cmp_i1752302826202_5346_0_5.jpg","https://xcimg.szwego.com/imgHD/f8c0bdc9/20250712/cmp_i1752302823327_172_0_6.jpg","https://xcimg.szwego.com/imgHD/f8c0bdc9/20250712/cmp_i1752302826610_9466_0_7.jpg","https://xcimg.szwego.com/imgHD/f8c0bdc9/20250712/cmp_i1752302822902_4565_0_8.jpg"],"created_at":"2026-05-20T04:01:38.973Z"},{"id":"item-dcd7cc4718ff","sku":"_deSeSLaTJwQl83Ba5Ff32NHg5KfmtdkFaBByXjw","name_en":"Saint Laurent Women Bags","name_cn":"随拍上身参考_","specs":{"source":"wsxcme","sourceId":"_deSeSLaTJwQl83Ba5Ff32NHg5KfmtdkFaBByXjw","sourceTagId":47002761,"sourceTagName":"圣罗兰/女包","rawTitle":"随拍上身参考_"},"price":null,"currency":"CNY","moq":1,"category":"ysl-women-bags","status":"active","alibaba_url":null,"images":["https://xcimg.szwego.com/img/f8c0bdc9/20240515/i1715775851_4911_5.jpg","https://xcimg.szwego.com/img/f8c0bdc9/20240515/i1715775851_758_1.jpg","https://xcimg.szwego.com/img/f8c0bdc9/20240515/i1715775851_3253_0.jpg","https://xcimg.szwego.com/img/f8c0bdc9/20240515/i1715775851_5656_4.jpg","https://xcimg.szwego.com/img/f8c0bdc9/20240515/i1715775851_4712_2.jpg","https://xcimg.szwego.com/img/f8c0bdc9/20240515/i1715775851_9310_3.jpg"],"created_at":"2026-05-20T04:01:38.903Z"},{"id":"item-dcc6a3556b60","sku":"_d9l9lgPhnhqvxpKAytwdIDFugAZqk0Zz6z4wXPQ","name_en":"Saint Laurent Women Bags","name_cn":"官网图","specs":{"source":"wsxcme","sourceId":"_d9l9lgPhnhqvxpKAytwdIDFugAZqk0Zz6z4wXPQ","sourceTagId":47002761,"sourceTagName":"圣罗兰/女包","rawTitle":"官网图"},"price":null,"currency":"CNY","moq":1,"category":"ysl-women-bags","status":"active","alibaba_url":null,"images":["https://xcimg.szwego.com/imgHD/f8c0bdc9/20251120/cmp_i1763631310287_6747_0_0.jpg","https://xcimg.szwego.com/imgHD/f8c0bdc9/20251120/cmp_i1763631310287_1184_0_1.jpg","https://xcimg.szwego.com/imgHD/f8c0bdc9/20251120/cmp_i1763631310287_6337_0_2.jpg"],"created_at":"2026-06-29T10:48:58.669Z"},{"id":"item-dcc247adc3cc","sku":"_dS6S6PP2n3G1YBw6My8EQZfMeOZgc3HsizVvY0Q","name_en":"Saint Laurent Women Bags","name_cn":"麂皮\nGABY MINI 盒子包\n即将火爆新一季春夏的小可爱来袭~朴彩英同款化妆包/盒子包,采用麂皮➕独特衔缝工艺,双拉链设计方便开合,小小包身大大容量,可拆卸调节肩带,手拎斜挎都可️,还可做梳妆包,精致且实用,最新爆款,实至名归。\n款号:766731\n尺寸:18x11x6.5cm","specs":{"source":"wsxcme","sourceId":"_dS6S6PP2n3G1YBw6My8EQZfMeOZgc3HsizVvY0Q","sourceTagId":47002761,"sourceTagName":"圣罗兰/女包","modelNumber":"766731","dimensions":{"lengthCm":18,"heightCm":11,"widthCm":6.5},"rawTitle":"麂皮\nGABY MINI 盒子包\n即将火爆新一季春夏的小可爱来袭~朴彩英同款化妆包/盒子包,采用麂皮➕独特衔缝工艺,双拉链设计方便开合,小小包身大大容量,可拆卸调节肩带,手拎斜挎都可️,还可做梳妆包,精致且实用,最新爆款,实至名归。\n款号:766731\n尺寸:18x11x6.5cm"},"price":null,"currency":"CNY","moq":1,"category":"ysl-women-bags","status":"active","alibaba_url":null,"images":["https://xcimg.szwego.com/imgHD/f8c0bdc9/20260129/cmp_i1769676673048_4617_0_0.jpg","https://xcimg.szwego.com/imgHD/f8c0bdc9/20260129/cmp_i1769676671589_8485_0_1.jpg","https://xcimg.szwego.com/imgHD/f8c0bdc9/20260129/cmp_i1769676663942_2438_0_2.jpg","https://xcimg.szwego.com/imgHD/f8c0bdc9/20260129/cmp_i1769676662886_5384_0_3.jpg","https://xcimg.szwego.com/imgHD/f8c0bdc9/20260129/cmp_i1769676663979_2999_0_4.jpg","https://xcimg.szwego.com/imgHD/f8c0bdc9/20260129/cmp_i1769676673119_1503_0_5.jpg","https://xcimg.szwego.com/imgHD/f8c0bdc9/20260129/cmp_i1769676663921_9036_0_6.jpg","https://xcimg.szwego.com/imgHD/f8c0bdc9/20260129/cmp_i1769676663013_4872_0_7.jpg","https://xcimg.szwego.com/imgHD/f8c0bdc9/20260129/cmp_i1769676671627_7985_0_8.jpg"],"created_at":"2026-05-20T04:01:38.813Z"},{"id":"item-dcbdd434cf4b","sku":"_d_b_bYoGCHJeTE5Pt1BDDLuLRTAbgxOj-bMkOvw","name_en":"Saint Laurent Women Bags","name_cn":"羊皮黑/金❗️❗️顶级原单、精品专供❗️❗️\n #Loulou puffer#中号29CM🐑绗缝小羊皮包,原厂正品皮制作,手感柔软细腻,犹如怀抱云朵☁️般的感受;经典的Y家logo、链条及扣眼五金均采用巴金哑光银五金,包袋开口处折叠后使用了磁性四合扣封口,密闭性及安全性一流;包内设有一个拉链内袋可放置手机及贵重物品,除此之外无多余内袋设计,使用起来随心所欲!正品皮!正品皮!正品皮!\n尺寸:29x17x11cm  \n型号:577476","specs":{"source":"wsxcme","sourceId":"_d_b_bYoGCHJeTE5Pt1BDDLuLRTAbgxOj-bMkOvw","sourceTagId":47002761,"sourceTagName":"圣罗兰/女包","modelNumber":"577476","dimensions":{"lengthCm":29,"heightCm":17,"widthCm":11},"rawTitle":"羊皮黑/金❗️❗️顶级原单、精品专供❗️❗️\n #Loulou puffer#中号29CM🐑绗缝小羊皮包,原厂正品皮制作,手感柔软细腻,犹如怀抱云朵☁️般的感受;经典的Y家logo、链条及扣眼五金均采用巴金哑光银五金,包袋开口处折叠后使用了磁性四合扣封口,密闭性及安全性一流;包内设有一个拉链内袋可放置手机及贵重物品,除此之外无多余内袋设计,使用起来随心所欲!正品皮!正品皮!正品皮!\n尺寸:29x17x11cm  \n型号:577476"},"price":null,"currency":"CNY","moq":1,"category":"ysl-women-bags","status":"active","alibaba_url":null,"images":["https://xcimg.szwego.com/20220824/i1661271529_4714_0.jpg","https://xcimg.szwego.com/20220824/i1661271529_1687_1.jpg","https://xcimg.szwego.com/20220824/i1661271529_3981_2.jpg","https://xcimg.szwego.com/20220824/i1661271529_4897_3.jpg","https://xcimg.szwego.com/20220824/i1661271529_4572_4.jpg","https://xcimg.szwego.com/20220824/i1661271529_498_5.jpg","https://xcimg.szwego.com/20220824/i1661271529_3118_6.jpg","https://xcimg.szwego.com/20220824/i1661271529_1699_7.jpg"],"created_at":"2024-12-08T05:43:43.403Z"},{"id":"item-dcae563a9fb4","sku":"_d8B8BaH4r5MMU9G-CjGbGK7KYO3_e6mDFABYmVA","name_en":"Saint Laurent Women Bags","name_cn":"🔥拉菲草编织棕/金\n新推出的这款oxalis 编织肩背包也是度假玩耍的不二选择,采用拉菲草编织成网格纹理 镂空风格营造出轻盈透肤的视觉效果,又带着一点小精致的感觉!搭配双层皮革肩带 包包中央标志性搭配金色金属五金成为亮点👍\n型号:781289【原厂皮】\n尺寸:37x40x3cm","specs":{"source":"wsxcme","sourceId":"_d8B8BaH4r5MMU9G-CjGbGK7KYO3_e6mDFABYmVA","sourceTagId":47002761,"sourceTagName":"圣罗兰/女包","modelNumber":"781289【原厂皮】","dimensions":{"lengthCm":37,"heightCm":40,"widthCm":3},"rawTitle":"🔥拉菲草编织棕/金\n新推出的这款oxalis 编织肩背包也是度假玩耍的不二选择,采用拉菲草编织成网格纹理 镂空风格营造出轻盈透肤的视觉效果,又带着一点小精致的感觉!搭配双层皮革肩带 包包中央标志性搭配金色金属五金成为亮点👍\n型号:781289【原厂皮】\n尺寸:37x40x3cm"},"price":null,"currency":"CNY","moq":1,"category":"ysl-women-bags","status":"active","alibaba_url":null,"images":["https://xcimg.szwego.com/img/58395cbb/20240525/a1716627843696_2321.jpg","https://xcimg.szwego.com/img/58395cbb/20240525/a1716627843717_8128.jpg","https://xcimg.szwego.com/img/58395cbb/20240525/a1716627843651_7222.jpg","https://xcimg.szwego.com/img/58395cbb/20240525/a1716627843253_1872.jpg","https://xcimg.szwego.com/img/58395cbb/20240525/a1716627843386_6461.jpg","https://xcimg.szwego.com/img/58395cbb/20240525/a1716627843523_4508.jpg","https://xcimg.szwego.com/img/58395cbb/20240525/a1716627848844_4642.jpg","https://xcimg.szwego.com/img/58395cbb/20240525/a1716627848722_7005.jpg","https://xcimg.szwego.com/img/58395cbb/20240525/a1716627849074_2360.jpg","https://xcimg.szwego.com/img/58395cbb/20240525/a1716627848797_4028.jpg","https://xcimg.szwego.com/img/58395cbb/20240525/a1716627848696_8380.jpg"],"created_at":"2025-07-20T03:10:54.227Z"},{"id":"item-dc8f5ba5c427","sku":"_d_7_79Iw3AK7He5n230HgttqlWGc1v6OsqwEiNw","name_en":"Saint Laurent Women Bags","name_cn":"随拍上身参考","specs":{"source":"wsxcme","sourceId":"_d_7_79Iw3AK7He5n230HgttqlWGc1v6OsqwEiNw","sourceTagId":47002761,"sourceTagName":"圣罗兰/女包","rawTitle":"随拍上身参考"},"price":null,"currency":"CNY","moq":1,"category":"ysl-women-bags","status":"active","alibaba_url":null,"images":["https://xcimg.szwego.com/img/f8c0bdc9/20250107/i1736242432947_6078_0_0.jpg","https://xcimg.szwego.com/img/f8c0bdc9/20250107/i1736242432693_5028_0_1.jpg","https://xcimg.szwego.com/img/f8c0bdc9/20250107/i1736242432816_6032_0_2.jpg"],"created_at":"2026-06-29T10:48:59.229Z"}],"page":26,"pageSize":24,"total":888,"totalPages":37}
