{"items":[{"id":"item-39e76df80172","sku":"_dkfkfKs5Z4o17joOe6F7bk8YoZ-DR4al0Ptr4Mw","name_en":"绿色金扣·24cm","name_cn":"绿色金扣·24cm\nSOLFERINO BOX·腋下包\n这款腋下包轻盈精致 意大利进口box牛皮,LE CASSANDRE锁扣开合五金,羊皮内衬,肩带可调节,便于肩背携带!复古新风尚 优雅知性大方的一款百搭包包!\n货号:832330\n尺寸:24.5×15×8.5cm","specs":{"source":"wsxcme","sourceId":"_dkfkfKs5Z4o17joOe6F7bk8YoZ-DR4al0Ptr4Mw","sourceTagId":47002761,"sourceTagName":"圣罗兰/女包","modelNumber":"832330","dimensions":{"lengthCm":24.5,"heightCm":15,"widthCm":8.5},"rawTitle":"绿色金扣·24cm\nSOLFERINO BOX·腋下包\n这款腋下包轻盈精致 意大利进口box牛皮,LE CASSANDRE锁扣开合五金,羊皮内衬,肩带可调节,便于肩背携带!复古新风尚 优雅知性大方的一款百搭包包!\n货号:832330\n尺寸:24.5×15×8.5cm"},"price":null,"currency":"CNY","moq":1,"category":"ysl-women-bags","status":"active","alibaba_url":null,"images":["https://xcimg.szwego.com/imgHD/f8c0bdc9/20260622/cmp_i1782118085603_9977_0_0.jpg","https://xcimg.szwego.com/imgHD/f8c0bdc9/20260622/cmp_i1782118085578_6031_0_1.jpg","https://xcimg.szwego.com/imgHD/f8c0bdc9/20260622/cmp_i1782118083039_1414_0_2.jpg","https://xcimg.szwego.com/imgHD/f8c0bdc9/20260622/cmp_i1782118082756_7119_0_3.jpg","https://xcimg.szwego.com/imgHD/f8c0bdc9/20260622/cmp_i1782118080757_8243_0_4.jpg","https://xcimg.szwego.com/imgHD/f8c0bdc9/20260622/cmp_i1782118082889_5576_0_8.jpg","https://xcimg.szwego.com/imgHD/f8c0bdc9/20260622/cmp_i1782118084732_4617_0_5.jpg","https://xcimg.szwego.com/imgHD/f8c0bdc9/20260622/cmp_i1782118085788_5077_0_6.jpg","https://xcimg.szwego.com/imgHD/f8c0bdc9/20260622/cmp_i1782118082824_8473_0_7.jpg"],"created_at":"2026-06-29T10:48:59.319Z"},{"id":"item-b239e44bee2f","sku":"_druruhD6D1ze1CXhTy6QLjosYIAAZIn8uyuSsOA","name_en":"麦绿手搓纹·风琴包26cm","name_cn":"麦绿手搓纹·风琴包26cm\n最优雅的风琴包系列sac de jour,永远的经典不过时,精湛的手搓纹牛皮,纹路清晰而且光泽度十足,十分贵气!26cm内配有中隔,可取出做手包,肩带可以调节,长短自己选择!logo非常小,完美地诠释了低调奢华的格调~\n型号:421863/477477\n尺寸:26x20.5x12.5cm\n(26cm内配有中隔)","specs":{"source":"wsxcme","sourceId":"_druruhD6D1ze1CXhTy6QLjosYIAAZIn8uyuSsOA","sourceTagId":47002761,"sourceTagName":"圣罗兰/女包","modelNumber":"421863/477477","dimensions":{"lengthCm":26,"heightCm":20.5,"widthCm":12.5},"rawTitle":"麦绿手搓纹·风琴包26cm\n最优雅的风琴包系列sac de jour,永远的经典不过时,精湛的手搓纹牛皮,纹路清晰而且光泽度十足,十分贵气!26cm内配有中隔,可取出做手包,肩带可以调节,长短自己选择!logo非常小,完美地诠释了低调奢华的格调~\n型号:421863/477477\n尺寸:26x20.5x12.5cm\n(26cm内配有中隔)"},"price":null,"currency":"CNY","moq":1,"category":"ysl-women-bags","status":"active","alibaba_url":null,"images":["https://xcimg.szwego.com/imgHD/f8c0bdc9/20260129/cmp_i1769673572689_8294_0_0.jpg","https://xcimg.szwego.com/imgHD/f8c0bdc9/20260129/cmp_i1769673572782_5697_0_1.jpg","https://xcimg.szwego.com/imgHD/f8c0bdc9/20260129/cmp_i1769673536129_6919_0_2.jpg","https://xcimg.szwego.com/imgHD/f8c0bdc9/20260129/cmp_i1769673536172_7424_0_3.jpg","https://xcimg.szwego.com/imgHD/f8c0bdc9/20260129/cmp_i1769673536040_1213_0_4.jpg","https://xcimg.szwego.com/imgHD/f8c0bdc9/20260129/cmp_i1769673536045_5435_0_5.jpg","https://xcimg.szwego.com/imgHD/f8c0bdc9/20260129/cmp_i1769673573170_1913_0_6.jpg","https://xcimg.szwego.com/imgHD/f8c0bdc9/20260129/cmp_i1769673570693_7106_0_7.jpg","https://xcimg.szwego.com/imgHD/f8c0bdc9/20260129/cmp_i1769673536102_3920_0_8.jpg"],"created_at":"2026-06-29T10:48:58.729Z"},{"id":"item-7705427c9ca8","sku":"_d-P-P1L2C3l96goxskH-UdkwdmCgKcHXNPzmRIA","name_en":"麦绿手搓纹金扣·风琴包22cm","name_cn":"麦绿手搓纹金扣·风琴包22cm\n最优雅的风琴包系列sac de jour,永远的经典不过时,精湛的牙签纹牛皮,纹路清晰而且光泽度十足,十分贵气!肩带可以调节,长短自己选择!logo非常小,完美地诠释了低调奢华的格调~\n型号:717440\n尺寸:22x18x10.5cm","specs":{"source":"wsxcme","sourceId":"_d-P-P1L2C3l96goxskH-UdkwdmCgKcHXNPzmRIA","sourceTagId":47002761,"sourceTagName":"圣罗兰/女包","modelNumber":"717440","dimensions":{"lengthCm":22,"heightCm":18,"widthCm":10.5},"rawTitle":"麦绿手搓纹金扣·风琴包22cm\n最优雅的风琴包系列sac de jour,永远的经典不过时,精湛的牙签纹牛皮,纹路清晰而且光泽度十足,十分贵气!肩带可以调节,长短自己选择!logo非常小,完美地诠释了低调奢华的格调~\n型号:717440\n尺寸:22x18x10.5cm"},"price":null,"currency":"CNY","moq":1,"category":"ysl-women-bags","status":"active","alibaba_url":null,"images":["https://xcimg.szwego.com/imgHD/f8c0bdc9/20260129/cmp_i1769675482379_4912_0_0.jpg","https://xcimg.szwego.com/imgHD/f8c0bdc9/20260129/cmp_i1769675482399_7712_0_1.jpg","https://xcimg.szwego.com/imgHD/f8c0bdc9/20260129/cmp_i1769675475407_9497_0_2.jpg","https://xcimg.szwego.com/imgHD/f8c0bdc9/20260129/cmp_i1769675475067_8825_0_3.jpg","https://xcimg.szwego.com/imgHD/f8c0bdc9/20260129/cmp_i1769675482607_2022_0_4.jpg","https://xcimg.szwego.com/imgHD/f8c0bdc9/20260129/cmp_i1769675475081_3480_0_5.jpg","https://xcimg.szwego.com/imgHD/f8c0bdc9/20260129/cmp_i1769675475041_9636_0_6.jpg","https://xcimg.szwego.com/imgHD/f8c0bdc9/20260129/cmp_i1769675473837_7378_0_7.jpg","https://xcimg.szwego.com/imgHD/f8c0bdc9/20260129/cmp_i1769675482531_2513_0_8.jpg"],"created_at":"2026-06-29T10:48:58.759Z"},{"id":"item-6b0a9a6b2265","sku":"_dafafVU2MUTXZw3JO4YqbNq4-PnAmbUL3-aFapg","name_en":"秘新款-Saint Laurent Paris💓YSL圣罗兰经典款👉款号:66135🔺采用进口手掌纹牛皮制做,原版定制五金,手感非常舒适,此款保留经典的Logo设计,双隔层💋💋尺寸:24*20*11cm","name_cn":"秘新款-Saint Laurent Paris💓YSL圣罗兰经典款👉款号:66135🔺采用进口手掌纹牛皮制做,原版定制五金,手感非常舒适,此款保留经典的Logo设计,双隔层💋💋尺寸:24*20*11cm","specs":{"source":"wsxcme","sourceId":"_dafafVU2MUTXZw3JO4YqbNq4-PnAmbUL3-aFapg","sourceTagId":47002761,"sourceTagName":"圣罗兰/女包","modelNumber":"66135🔺采用进口手掌纹牛皮制做","dimensions":{"lengthCm":24,"heightCm":20,"widthCm":11},"rawTitle":"秘新款-Saint Laurent Paris💓YSL圣罗兰经典款👉款号:66135🔺采用进口手掌纹牛皮制做,原版定制五金,手感非常舒适,此款保留经典的Logo设计,双隔层💋💋尺寸:24*20*11cm"},"price":null,"currency":"CNY","moq":1,"category":"ysl-women-bags","status":"active","alibaba_url":null,"images":["https://xcimg.szwego.com/20220526/i1653508143_5358_0.jpg","https://xcimg.szwego.com/20220526/i1653508143_7697_1.jpg","https://xcimg.szwego.com/20220526/i1653508143_670_2.jpg","https://xcimg.szwego.com/20220526/i1653508143_7543_3.jpg","https://xcimg.szwego.com/20220526/i1653508143_9171_4.jpg"],"created_at":"2025-02-08T12:45:53.530Z"},{"id":"item-a0eaefef57d0","sku":"_d9Q9QJFoCLQJWsfnje1ySUvA6WcVl2dxvXO7xyA","name_en":"男女同款June box箱型包","name_cn":"男女同款June box箱型包","specs":{"source":"wsxcme","sourceId":"_d9Q9QJFoCLQJWsfnje1ySUvA6WcVl2dxvXO7xyA","sourceTagId":47002761,"sourceTagName":"圣罗兰/女包","rawTitle":"男女同款June box箱型包"},"price":null,"currency":"CNY","moq":1,"category":"ysl-women-bags","status":"active","alibaba_url":null,"images":["https://xcimg.szwego.com/20230411/a1681185922190_7788.jpg","https://xcimg.szwego.com/20230411/a1681185922191_7001.jpg","https://xcimg.szwego.com/20230411/a1681185922277_5040.jpg","https://xcimg.szwego.com/20230411/a1681185922278_5373.jpg","https://xcimg.szwego.com/20230411/a1681185922278_7137.jpg"],"created_at":"2025-07-20T03:10:54.214Z"},{"id":"item-ebe564d5eb32","sku":"_ddadatkcSlp-YiK3zwKBoZUqTEvX2W7HE3D8ZVg","name_en":"圣罗兰 标志正面翻盖包,配有马衔索式链条肩带、经典没流苏款,牛皮革,磁石按扣封口,内侧隔层袋,尺寸24×14.5×5.5cm,编号3613,","name_cn":"圣罗兰 标志正面翻盖包,配有马衔索式链条肩带、经典没流苏款,牛皮革,磁石按扣封口,内侧隔层袋,尺寸24×14.5×5.5cm,编号3613,","specs":{"source":"wsxcme","sourceId":"_ddadatkcSlp-YiK3zwKBoZUqTEvX2W7HE3D8ZVg","sourceTagId":47002761,"sourceTagName":"圣罗兰/女包","dimensions":{"lengthCm":24,"heightCm":14.5,"widthCm":5.5},"rawTitle":"圣罗兰 标志正面翻盖包,配有马衔索式链条肩带、经典没流苏款,牛皮革,磁石按扣封口,内侧隔层袋,尺寸24×14.5×5.5cm,编号3613,"},"price":null,"currency":"CNY","moq":1,"category":"ysl-women-bags","status":"active","alibaba_url":null,"images":["https://xcimg.szwego.com/20221102/i1667372083_8796_0.jpg","https://xcimg.szwego.com/20221102/i1667372083_1900_1.jpg","https://xcimg.szwego.com/20221102/i1667372083_1787_2.jpg","https://xcimg.szwego.com/20221102/i1667372083_5196_3.jpg","https://xcimg.szwego.com/20221102/i1667372083_2975_4.jpg","https://xcimg.szwego.com/20221102/i1667372083_8249_5.jpg","https://xcimg.szwego.com/20221102/i1667372083_6109_6.jpg","https://xcimg.szwego.com/20221102/i1667372083_8177_7.jpg","https://xcimg.szwego.com/20221102/i1667372083_3121_8.jpg"],"created_at":"2025-02-08T12:46:07.418Z"},{"id":"item-a19c801d4ce1","sku":"_dILILi5S0poHEYPTMvQelG4TBCfnM5l2nFtJCPA","name_en":"圣罗兰 标志正面翻盖包,配有马衔索式链条肩带、经典没流苏款,牛皮革,磁石按扣封口,内侧隔层袋,尺寸24×14.5×5.5cm,编号3613,","name_cn":"圣罗兰 标志正面翻盖包,配有马衔索式链条肩带、经典没流苏款,牛皮革,磁石按扣封口,内侧隔层袋,尺寸24×14.5×5.5cm,编号3613,","specs":{"source":"wsxcme","sourceId":"_dILILi5S0poHEYPTMvQelG4TBCfnM5l2nFtJCPA","sourceTagId":47002761,"sourceTagName":"圣罗兰/女包","dimensions":{"lengthCm":24,"heightCm":14.5,"widthCm":5.5},"rawTitle":"圣罗兰 标志正面翻盖包,配有马衔索式链条肩带、经典没流苏款,牛皮革,磁石按扣封口,内侧隔层袋,尺寸24×14.5×5.5cm,编号3613,"},"price":null,"currency":"CNY","moq":1,"category":"ysl-women-bags","status":"active","alibaba_url":null,"images":["https://xcimg.szwego.com/20221102/i1667372057_6930_0.jpg","https://xcimg.szwego.com/20221102/i1667372057_9083_1.jpg","https://xcimg.szwego.com/20221102/i1667372057_8597_2.jpg","https://xcimg.szwego.com/20221102/i1667372057_9998_3.jpg","https://xcimg.szwego.com/20221102/i1667372057_9303_4.jpg","https://xcimg.szwego.com/20221102/i1667372057_9884_5.jpg","https://xcimg.szwego.com/20221102/i1667372057_4905_6.jpg","https://xcimg.szwego.com/20221102/i1667372057_3497_7.jpg","https://xcimg.szwego.com/20221102/i1667372057_7546_8.jpg"],"created_at":"2025-02-08T12:46:07.419Z"},{"id":"item-5e75d36ea3a4","sku":"_d9090veBAyep7y_7pva-9OimKE18AqbsYP5WSNQ","name_en":"圣罗兰 标志正面翻盖包,配有马衔索式链条肩带、经典没流苏款,牛皮革,磁石按扣封口,内侧隔层袋,尺寸24×14.5×5.5cm,s03613,","name_cn":"圣罗兰 标志正面翻盖包,配有马衔索式链条肩带、经典没流苏款,牛皮革,磁石按扣封口,内侧隔层袋,尺寸24×14.5×5.5cm,s03613,","specs":{"source":"wsxcme","sourceId":"_d9090veBAyep7y_7pva-9OimKE18AqbsYP5WSNQ","sourceTagId":47002761,"sourceTagName":"圣罗兰/女包","dimensions":{"lengthCm":24,"heightCm":14.5,"widthCm":5.5},"rawTitle":"圣罗兰 标志正面翻盖包,配有马衔索式链条肩带、经典没流苏款,牛皮革,磁石按扣封口,内侧隔层袋,尺寸24×14.5×5.5cm,s03613,"},"price":null,"currency":"CNY","moq":1,"category":"ysl-women-bags","status":"active","alibaba_url":null,"images":["https://xcimg.szwego.com/20230225/i1677319377_8016_0.jpg","https://xcimg.szwego.com/20230225/i1677319377_3629_1.jpg","https://xcimg.szwego.com/20230225/i1677319377_8599_2.jpg","https://xcimg.szwego.com/20230225/i1677319377_8907_3.jpg","https://xcimg.szwego.com/20230225/i1677319377_2147_4.jpg","https://xcimg.szwego.com/20230225/i1677319377_4161_5.jpg"],"created_at":"2025-02-08T12:46:07.488Z"},{"id":"item-b7e5d46dafce","sku":"_dx2x2XK0FsfzTNQX3SRQoK3HgceOHHRWRbguw4Q","name_en":"圣罗兰 信封包 新鲜出炉啦!!简直是美到人心啦 高端货 原版五金logo 首选进口皮料 质感超赞😍😍所谓人人必备一款,这个款式必须自留 经典版型! 真的是让人眼前一亮 喜欢的美妞抓紧啦 实物简直太美💕尺寸23 15 货号377828","name_cn":"圣罗兰 信封包 新鲜出炉啦!!简直是美到人心啦 高端货 原版五金logo 首选进口皮料 质感超赞😍😍所谓人人必备一款,这个款式必须自留 经典版型! 真的是让人眼前一亮 喜欢的美妞抓紧啦 实物简直太美💕尺寸23 15 货号377828","specs":{"source":"wsxcme","sourceId":"_dx2x2XK0FsfzTNQX3SRQoK3HgceOHHRWRbguw4Q","sourceTagId":47002761,"sourceTagName":"圣罗兰/女包","modelNumber":"377828","rawTitle":"圣罗兰 信封包 新鲜出炉啦!!简直是美到人心啦 高端货 原版五金logo 首选进口皮料 质感超赞😍😍所谓人人必备一款,这个款式必须自留 经典版型! 真的是让人眼前一亮 喜欢的美妞抓紧啦 实物简直太美💕尺寸23 15 货号377828"},"price":null,"currency":"CNY","moq":1,"category":"ysl-women-bags","status":"active","alibaba_url":null,"images":["https://xcimg.szwego.com/20221213/i1670923575_9128_0.jpg","https://xcimg.szwego.com/20221213/i1670923575_5919_1.jpg","https://xcimg.szwego.com/20221213/i1670923575_3161_2.jpg","https://xcimg.szwego.com/20221213/i1670923575_6531_3.jpg","https://xcimg.szwego.com/20221213/i1670923575_227_4.jpg","https://xcimg.szwego.com/20221213/i1670923575_4462_5.jpg","https://xcimg.szwego.com/20221213/i1670923575_2935_6.jpg","https://xcimg.szwego.com/20221213/i1670923575_5445_7.jpg","https://xcimg.szwego.com/20221213/i1670923575_2433_8.jpg"],"created_at":"2025-02-08T12:46:07.420Z"},{"id":"item-89fee590ccb3","sku":"_dgagae5Cmotk-CqDXEzzVpHqWgZhIYSN-CfuJZw","name_en":"圣罗兰-SAINT LAURENT    ✨贝嫂、卡戴姗明星圣罗兰同款!牛皮,非市场一般五金,独家皮质,高品质,质量保证!款号:6011,6012,尺寸:32cm,26cm。","name_cn":"圣罗兰-SAINT LAURENT    ✨贝嫂、卡戴姗明星圣罗兰同款!牛皮,非市场一般五金,独家皮质,高品质,质量保证!款号:6011,6012,尺寸:32cm,26cm。","specs":{"source":"wsxcme","sourceId":"_dgagae5Cmotk-CqDXEzzVpHqWgZhIYSN-CfuJZw","sourceTagId":47002761,"sourceTagName":"圣罗兰/女包","modelNumber":"6011","rawTitle":"圣罗兰-SAINT LAURENT    ✨贝嫂、卡戴姗明星圣罗兰同款!牛皮,非市场一般五金,独家皮质,高品质,质量保证!款号:6011,6012,尺寸:32cm,26cm。"},"price":null,"currency":"CNY","moq":1,"category":"ysl-women-bags","status":"active","alibaba_url":null,"images":["https://xcimg.szwego.com/20230526/i1685073930_9684_0.jpg","https://xcimg.szwego.com/20230526/i1685073930_3115_1.jpg","https://xcimg.szwego.com/20230526/i1685073930_1710_2.jpg","https://xcimg.szwego.com/20230526/i1685073930_6553_3.jpg","https://xcimg.szwego.com/20230526/i1685073930_901_4.jpg","https://xcimg.szwego.com/20230526/i1685073930_6495_5.jpg","https://xcimg.szwego.com/20230526/i1685073930_5859_6.jpg","https://xcimg.szwego.com/20230526/i1685073930_7541_7.jpg","https://xcimg.szwego.com/20230526/i1685073930_4544_8.jpg"],"created_at":"2025-02-08T12:46:07.478Z"},{"id":"item-84b8fbfd556d","sku":"_dfYfYn92WcgFI4RenRJ9uxmdCODXCCQecA7nrvg","name_en":"圣罗兰-SAINT LAURENT    ✨贝嫂、卡戴姗明星圣罗兰同款!牛皮,非市场一般五金,独家皮质,高品质,质量保证!款号:6011,6012,尺寸:32cm,26cm。","name_cn":"圣罗兰-SAINT LAURENT    ✨贝嫂、卡戴姗明星圣罗兰同款!牛皮,非市场一般五金,独家皮质,高品质,质量保证!款号:6011,6012,尺寸:32cm,26cm。","specs":{"source":"wsxcme","sourceId":"_dfYfYn92WcgFI4RenRJ9uxmdCODXCCQecA7nrvg","sourceTagId":47002761,"sourceTagName":"圣罗兰/女包","modelNumber":"6011","rawTitle":"圣罗兰-SAINT LAURENT    ✨贝嫂、卡戴姗明星圣罗兰同款!牛皮,非市场一般五金,独家皮质,高品质,质量保证!款号:6011,6012,尺寸:32cm,26cm。"},"price":null,"currency":"CNY","moq":1,"category":"ysl-women-bags","status":"active","alibaba_url":null,"images":["https://xcimg.szwego.com/20230526/i1685074029_4087_0.jpg","https://xcimg.szwego.com/20230526/i1685074029_3615_1.jpg","https://xcimg.szwego.com/20230526/i1685074029_7619_2.jpg","https://xcimg.szwego.com/20230526/i1685074029_6462_3.jpg","https://xcimg.szwego.com/20230526/i1685074029_5501_4.jpg","https://xcimg.szwego.com/20230526/i1685074029_1463_5.jpg","https://xcimg.szwego.com/20230526/i1685074029_9997_6.jpg","https://xcimg.szwego.com/20230526/i1685074029_5488_7.jpg","https://xcimg.szwego.com/20230526/i1685074029_4596_8.jpg"],"created_at":"2025-02-08T12:46:07.480Z"},{"id":"item-5a723d8f6704","sku":"_dororhzw267IO3DxYDkDMZ17I-a9alYlHA6hV0Q","name_en":"圣罗兰-SAINT LAURENT    ✨贝嫂、卡戴姗明星圣罗兰同款!牛皮,非市场一般五金,独家皮质,高品质,质量保证!款号:6011,6012,尺寸:32cm,26cm。","name_cn":"圣罗兰-SAINT LAURENT    ✨贝嫂、卡戴姗明星圣罗兰同款!牛皮,非市场一般五金,独家皮质,高品质,质量保证!款号:6011,6012,尺寸:32cm,26cm。","specs":{"source":"wsxcme","sourceId":"_dororhzw267IO3DxYDkDMZ17I-a9alYlHA6hV0Q","sourceTagId":47002761,"sourceTagName":"圣罗兰/女包","modelNumber":"6011","rawTitle":"圣罗兰-SAINT LAURENT    ✨贝嫂、卡戴姗明星圣罗兰同款!牛皮,非市场一般五金,独家皮质,高品质,质量保证!款号:6011,6012,尺寸:32cm,26cm。"},"price":null,"currency":"CNY","moq":1,"category":"ysl-women-bags","status":"active","alibaba_url":null,"images":["https://xcimg.szwego.com/20230526/i1685073855_5495_0.jpg","https://xcimg.szwego.com/20230526/i1685073855_2576_1.jpg","https://xcimg.szwego.com/20230526/i1685073855_5505_2.jpg","https://xcimg.szwego.com/20230526/i1685073855_7895_3.jpg","https://xcimg.szwego.com/20230526/i1685073855_1314_4.jpg","https://xcimg.szwego.com/20230526/i1685073855_3954_5.jpg","https://xcimg.szwego.com/20230526/i1685073855_139_6.jpg","https://xcimg.szwego.com/20230526/i1685073855_2044_7.jpg","https://xcimg.szwego.com/20230526/i1685073855_8236_8.jpg"],"created_at":"2025-02-08T12:46:07.477Z"},{"id":"item-4832d78bc336","sku":"_d9Q9QJFoCLQJWtPvreF2XVPU5W8di2dxvXO7xyA","name_en":"圣罗兰-SAINT LAURENT    ✨贝嫂、卡戴姗明星圣罗兰同款!牛皮,非市场一般五金,独家皮质,高品质,质量保证!款号:6011,6012,尺寸:32cm,26cm。","name_cn":"圣罗兰-SAINT LAURENT    ✨贝嫂、卡戴姗明星圣罗兰同款!牛皮,非市场一般五金,独家皮质,高品质,质量保证!款号:6011,6012,尺寸:32cm,26cm。","specs":{"source":"wsxcme","sourceId":"_d9Q9QJFoCLQJWtPvreF2XVPU5W8di2dxvXO7xyA","sourceTagId":47002761,"sourceTagName":"圣罗兰/女包","modelNumber":"6011","rawTitle":"圣罗兰-SAINT LAURENT    ✨贝嫂、卡戴姗明星圣罗兰同款!牛皮,非市场一般五金,独家皮质,高品质,质量保证!款号:6011,6012,尺寸:32cm,26cm。"},"price":null,"currency":"CNY","moq":1,"category":"ysl-women-bags","status":"active","alibaba_url":null,"images":["https://xcimg.szwego.com/20230526/i1685073990_8469_0.jpg","https://xcimg.szwego.com/20230526/i1685073990_1500_1.jpg","https://xcimg.szwego.com/20230526/i1685073990_8871_2.jpg","https://xcimg.szwego.com/20230526/i1685073990_5188_3.jpg","https://xcimg.szwego.com/20230526/i1685073990_99_4.jpg","https://xcimg.szwego.com/20230526/i1685073990_6710_5.jpg","https://xcimg.szwego.com/20230526/i1685073990_8027_6.jpg","https://xcimg.szwego.com/20230526/i1685073990_5645_7.jpg","https://xcimg.szwego.com/20230526/i1685073990_1931_8.jpg"],"created_at":"2025-02-08T12:46:07.479Z"},{"id":"item-38208c7591ba","sku":"_d-K-KTSCYFHPZFwJcPgQ6v-CrO1HDNeQhaD-yDQ","name_en":"圣罗兰-SAINT LAURENT    ✨贝嫂、卡戴姗明星圣罗兰同款!牛皮,非市场一般五金,独家皮质,高品质,质量保证!款号:6011,6012,尺寸:32cm,26cm。","name_cn":"圣罗兰-SAINT LAURENT    ✨贝嫂、卡戴姗明星圣罗兰同款!牛皮,非市场一般五金,独家皮质,高品质,质量保证!款号:6011,6012,尺寸:32cm,26cm。","specs":{"source":"wsxcme","sourceId":"_d-K-KTSCYFHPZFwJcPgQ6v-CrO1HDNeQhaD-yDQ","sourceTagId":47002761,"sourceTagName":"圣罗兰/女包","modelNumber":"6011","rawTitle":"圣罗兰-SAINT LAURENT    ✨贝嫂、卡戴姗明星圣罗兰同款!牛皮,非市场一般五金,独家皮质,高品质,质量保证!款号:6011,6012,尺寸:32cm,26cm。"},"price":null,"currency":"CNY","moq":1,"category":"ysl-women-bags","status":"active","alibaba_url":null,"images":["https://xcimg.szwego.com/20230526/i1685074065_2185_0.jpg","https://xcimg.szwego.com/20230526/i1685074065_344_1.jpg","https://xcimg.szwego.com/20230526/i1685074065_9602_2.jpg","https://xcimg.szwego.com/20230526/i1685074065_9435_3.jpg","https://xcimg.szwego.com/20230526/i1685074065_3414_4.jpg","https://xcimg.szwego.com/20230526/i1685074065_7133_5.jpg","https://xcimg.szwego.com/20230526/i1685074065_9153_6.jpg","https://xcimg.szwego.com/20230526/i1685074065_6078_7.jpg","https://xcimg.szwego.com/20230526/i1685074065_1277_8.jpg"],"created_at":"2025-02-08T12:46:07.481Z"},{"id":"item-f816708e36ab","sku":"_dpwpwkOGojcocBxyT920vPXoZ5AbJE4zMOrdLEw","name_en":"圣罗兰经典传奇时尚与浪漫相结合❓YSL家的原版皮纹就富有这样的属性。说不出它有多迷人,就是有种魔力能把你吸引住,是许多女性衣橱中的基础必备款,能让你搭出简约有质感的Look,点缀感十足💋尺寸:30 型号 26821","name_cn":"圣罗兰经典传奇时尚与浪漫相结合❓YSL家的原版皮纹就富有这样的属性。说不出它有多迷人,就是有种魔力能把你吸引住,是许多女性衣橱中的基础必备款,能让你搭出简约有质感的Look,点缀感十足💋尺寸:30 型号 26821","specs":{"source":"wsxcme","sourceId":"_dpwpwkOGojcocBxyT920vPXoZ5AbJE4zMOrdLEw","sourceTagId":47002761,"sourceTagName":"圣罗兰/女包","modelNumber":"26821","rawTitle":"圣罗兰经典传奇时尚与浪漫相结合❓YSL家的原版皮纹就富有这样的属性。说不出它有多迷人,就是有种魔力能把你吸引住,是许多女性衣橱中的基础必备款,能让你搭出简约有质感的Look,点缀感十足💋尺寸:30 型号 26821"},"price":null,"currency":"CNY","moq":1,"category":"ysl-women-bags","status":"active","alibaba_url":null,"images":["https://xcimg.szwego.com/20220514/i1652522590_9868_0.jpg","https://xcimg.szwego.com/20220514/i1652522590_7336_3.jpg","https://xcimg.szwego.com/20220514/i1652522590_5142_4.jpg","https://xcimg.szwego.com/20220514/i1652522590_9342_6.jpg","https://xcimg.szwego.com/20220514/i1652522590_9303_1.jpg","https://xcimg.szwego.com/20220514/i1652522590_7725_2.jpg","https://xcimg.szwego.com/20220514/i1652522590_6467_5.jpg","https://xcimg.szwego.com/20220514/i1652522590_2874_7.jpg","https://xcimg.szwego.com/20220514/i1652522590_9053_8.jpg"],"created_at":"2025-02-08T12:45:53.574Z"},{"id":"item-bdca9be2dfe8","sku":"_dpMpM8N1V51nNyZ8rnG2BnuLxdVxx52OZQLKo3w","name_en":"圣罗兰经典传奇时尚与浪漫相结合❓YSL家的原版皮纹就富有这样的属性。说不出它有多迷人,就是有种魔力能把你吸引住,是许多女性衣橱中的基础必备款,能让你搭出简约有质感的Look,点缀感十足💋尺寸:30 型号 26821","name_cn":"圣罗兰经典传奇时尚与浪漫相结合❓YSL家的原版皮纹就富有这样的属性。说不出它有多迷人,就是有种魔力能把你吸引住,是许多女性衣橱中的基础必备款,能让你搭出简约有质感的Look,点缀感十足💋尺寸:30 型号 26821","specs":{"source":"wsxcme","sourceId":"_dpMpM8N1V51nNyZ8rnG2BnuLxdVxx52OZQLKo3w","sourceTagId":47002761,"sourceTagName":"圣罗兰/女包","modelNumber":"26821","rawTitle":"圣罗兰经典传奇时尚与浪漫相结合❓YSL家的原版皮纹就富有这样的属性。说不出它有多迷人,就是有种魔力能把你吸引住,是许多女性衣橱中的基础必备款,能让你搭出简约有质感的Look,点缀感十足💋尺寸:30 型号 26821"},"price":null,"currency":"CNY","moq":1,"category":"ysl-women-bags","status":"active","alibaba_url":null,"images":["https://xcimg.szwego.com/20191017/i1571276323_8142_0.jpg","https://xcimg.szwego.com/20191017/i1571276323_503_1.jpg","https://xcimg.szwego.com/20191017/i1571276323_5173_2.jpg","https://xcimg.szwego.com/20191017/i1571276323_8703_3.jpg","https://xcimg.szwego.com/20191017/i1571276323_6041_4.jpg","https://xcimg.szwego.com/20191017/i1571276323_3444_5.jpg","https://xcimg.szwego.com/20191017/i1571276323_1606_6.jpg","https://xcimg.szwego.com/20191017/i1571276323_6557_7.jpg"],"created_at":"2025-02-08T12:45:53.572Z"},{"id":"item-b0fad0e6b089","sku":"_d_h_hiNe53_3_0IvS6_hx760fkBnJuzIpKaajLQ","name_en":"圣罗兰经典传奇时尚与浪漫相结合❓YSL家的原版皮纹就富有这样的属性。说不出它有多迷人,就是有种魔力能把你吸引住,是许多女性衣橱中的基础必备款,能让你搭出简约有质感的Look,点缀感十足💋尺寸:30 型号 26821","name_cn":"圣罗兰经典传奇时尚与浪漫相结合❓YSL家的原版皮纹就富有这样的属性。说不出它有多迷人,就是有种魔力能把你吸引住,是许多女性衣橱中的基础必备款,能让你搭出简约有质感的Look,点缀感十足💋尺寸:30 型号 26821","specs":{"source":"wsxcme","sourceId":"_d_h_hiNe53_3_0IvS6_hx760fkBnJuzIpKaajLQ","sourceTagId":47002761,"sourceTagName":"圣罗兰/女包","modelNumber":"26821","rawTitle":"圣罗兰经典传奇时尚与浪漫相结合❓YSL家的原版皮纹就富有这样的属性。说不出它有多迷人,就是有种魔力能把你吸引住,是许多女性衣橱中的基础必备款,能让你搭出简约有质感的Look,点缀感十足💋尺寸:30 型号 26821"},"price":null,"currency":"CNY","moq":1,"category":"ysl-women-bags","status":"active","alibaba_url":null,"images":["https://xcimg.szwego.com/20211218/i1639761842_6122_0.jpg","https://xcimg.szwego.com/20211218/i1639761842_1690_1.jpg","https://xcimg.szwego.com/20211218/i1639761842_9266_2.jpg","https://xcimg.szwego.com/20211218/i1639761842_123_3.jpg","https://xcimg.szwego.com/20211218/i1639761842_9970_4.jpg","https://xcimg.szwego.com/20211218/i1639761842_406_5.jpg","https://xcimg.szwego.com/20211218/i1639761842_2337_6.jpg","https://xcimg.szwego.com/20211218/i1639761842_4868_7.jpg","https://xcimg.szwego.com/20211218/i1639761842_2327_8.jpg"],"created_at":"2025-02-08T12:45:53.576Z"},{"id":"item-a685612f72c1","sku":"_dh6h6yySxGCtVTUxIxWXeLNfc1f2yUlp0j1Y1qw","name_en":"圣罗兰经典传奇时尚与浪漫相结合❓YSL家的原版皮纹就富有这样的属性。说不出它有多迷人,就是有种魔力能把你吸引住,是许多女性衣橱中的基础必备款,能让你搭出简约有质感的Look,点缀感十足💋尺寸:30 型号 26821","name_cn":"圣罗兰经典传奇时尚与浪漫相结合❓YSL家的原版皮纹就富有这样的属性。说不出它有多迷人,就是有种魔力能把你吸引住,是许多女性衣橱中的基础必备款,能让你搭出简约有质感的Look,点缀感十足💋尺寸:30 型号 26821","specs":{"source":"wsxcme","sourceId":"_dh6h6yySxGCtVTUxIxWXeLNfc1f2yUlp0j1Y1qw","sourceTagId":47002761,"sourceTagName":"圣罗兰/女包","modelNumber":"26821","rawTitle":"圣罗兰经典传奇时尚与浪漫相结合❓YSL家的原版皮纹就富有这样的属性。说不出它有多迷人,就是有种魔力能把你吸引住,是许多女性衣橱中的基础必备款,能让你搭出简约有质感的Look,点缀感十足💋尺寸:30 型号 26821"},"price":null,"currency":"CNY","moq":1,"category":"ysl-women-bags","status":"active","alibaba_url":null,"images":["https://xcimg.szwego.com/20211218/i1639761770_594_0.jpg","https://xcimg.szwego.com/20211218/i1639761770_1167_1.jpg","https://xcimg.szwego.com/20211218/i1639761770_5918_2.jpg","https://xcimg.szwego.com/20211218/i1639761770_4128_3.jpg","https://xcimg.szwego.com/20211218/i1639761770_8133_4.jpg","https://xcimg.szwego.com/20211218/i1639761770_2665_5.jpg","https://xcimg.szwego.com/20211218/i1639761770_2566_6.jpg","https://xcimg.szwego.com/20211218/i1639761770_3348_7.jpg","https://xcimg.szwego.com/20211218/i1639761770_6197_8.jpg"],"created_at":"2025-02-08T12:45:53.575Z"},{"id":"item-7bfed1c01ed6","sku":"_dpnpn2o4nfN44GL8nrtO5kng-6A9CtBIci8oPiQ","name_en":"圣罗兰经典传奇时尚与浪漫相结合❓YSL家的原版皮纹就富有这样的属性。说不出它有多迷人,就是有种魔力能把你吸引住,是许多女性衣橱中的基础必备款,能让你搭出简约有质感的Look,点缀感十足💋尺寸:30 型号 26821","name_cn":"圣罗兰经典传奇时尚与浪漫相结合❓YSL家的原版皮纹就富有这样的属性。说不出它有多迷人,就是有种魔力能把你吸引住,是许多女性衣橱中的基础必备款,能让你搭出简约有质感的Look,点缀感十足💋尺寸:30 型号 26821","specs":{"source":"wsxcme","sourceId":"_dpnpn2o4nfN44GL8nrtO5kng-6A9CtBIci8oPiQ","sourceTagId":47002761,"sourceTagName":"圣罗兰/女包","modelNumber":"26821","rawTitle":"圣罗兰经典传奇时尚与浪漫相结合❓YSL家的原版皮纹就富有这样的属性。说不出它有多迷人,就是有种魔力能把你吸引住,是许多女性衣橱中的基础必备款,能让你搭出简约有质感的Look,点缀感十足💋尺寸:30 型号 26821"},"price":null,"currency":"CNY","moq":1,"category":"ysl-women-bags","status":"active","alibaba_url":null,"images":["https://xcimg.szwego.com/20230305/a1677994575350_0057.jpg","https://xcimg.szwego.com/20230305/a1677994575361_8575.jpg","https://xcimg.szwego.com/20230305/a1677994575372_5305.jpg","https://xcimg.szwego.com/20230305/a1677994575392_1846.jpg","https://xcimg.szwego.com/20230305/a1677994575400_5477.jpg","https://xcimg.szwego.com/20230305/a1677994575403_8501.jpg","https://xcimg.szwego.com/20230305/a1677994575582_7836.jpg"],"created_at":"2025-02-08T12:46:07.473Z"},{"id":"item-7b60061a95f3","sku":"_dq5q5OBjtFRv4TEUBB9NmIbgkN4zPeeD80lbauA","name_en":"圣罗兰经典传奇时尚与浪漫相结合❓YSL家的原版皮纹就富有这样的属性。说不出它有多迷人,就是有种魔力能把你吸引住,是许多女性衣橱中的基础必备款,能让你搭出简约有质感的Look,点缀感十足💋尺寸:30 型号 26821","name_cn":"圣罗兰经典传奇时尚与浪漫相结合❓YSL家的原版皮纹就富有这样的属性。说不出它有多迷人,就是有种魔力能把你吸引住,是许多女性衣橱中的基础必备款,能让你搭出简约有质感的Look,点缀感十足💋尺寸:30 型号 26821","specs":{"source":"wsxcme","sourceId":"_dq5q5OBjtFRv4TEUBB9NmIbgkN4zPeeD80lbauA","sourceTagId":47002761,"sourceTagName":"圣罗兰/女包","modelNumber":"26821","rawTitle":"圣罗兰经典传奇时尚与浪漫相结合❓YSL家的原版皮纹就富有这样的属性。说不出它有多迷人,就是有种魔力能把你吸引住,是许多女性衣橱中的基础必备款,能让你搭出简约有质感的Look,点缀感十足💋尺寸:30 型号 26821"},"price":null,"currency":"CNY","moq":1,"category":"ysl-women-bags","status":"active","alibaba_url":null,"images":["https://xcimg.szwego.com/20201018/i1603032984_8927_0.jpg","https://xcimg.szwego.com/20201018/i1603032984_2983_1.jpg","https://xcimg.szwego.com/20201018/i1603032984_814_2.jpg","https://xcimg.szwego.com/20201018/i1603032984_8926_3.jpg","https://xcimg.szwego.com/20201018/i1603032984_6511_4.jpg","https://xcimg.szwego.com/20201018/i1603032984_3683_5.jpg","https://xcimg.szwego.com/20201018/i1603032984_3844_6.jpg","https://xcimg.szwego.com/20201018/i1603032984_7610_7.jpg"],"created_at":"2025-02-08T12:45:53.578Z"},{"id":"item-4937c4cc95c6","sku":"_dpFpFaiQuvMC8vzXkDf1ytUChn9XaJ-KmTiOj7w","name_en":"圣罗兰经典传奇时尚与浪漫相结合❓YSL家的原版皮纹就富有这样的属性。说不出它有多迷人,就是有种魔力能把你吸引住,是许多女性衣橱中的基础必备款,能让你搭出简约有质感的Look,点缀感十足💋尺寸:30 型号 26821","name_cn":"圣罗兰经典传奇时尚与浪漫相结合❓YSL家的原版皮纹就富有这样的属性。说不出它有多迷人,就是有种魔力能把你吸引住,是许多女性衣橱中的基础必备款,能让你搭出简约有质感的Look,点缀感十足💋尺寸:30 型号 26821","specs":{"source":"wsxcme","sourceId":"_dpFpFaiQuvMC8vzXkDf1ytUChn9XaJ-KmTiOj7w","sourceTagId":47002761,"sourceTagName":"圣罗兰/女包","modelNumber":"26821","rawTitle":"圣罗兰经典传奇时尚与浪漫相结合❓YSL家的原版皮纹就富有这样的属性。说不出它有多迷人,就是有种魔力能把你吸引住,是许多女性衣橱中的基础必备款,能让你搭出简约有质感的Look,点缀感十足💋尺寸:30 型号 26821"},"price":null,"currency":"CNY","moq":1,"category":"ysl-women-bags","status":"active","alibaba_url":null,"images":["https://xcimg.szwego.com/20220514/i1652522762_2899_0.jpg","https://xcimg.szwego.com/20220514/i1652522762_7762_1.jpg","https://xcimg.szwego.com/20220514/i1652522762_3389_2.jpg","https://xcimg.szwego.com/20220514/i1652522762_2190_3.jpg","https://xcimg.szwego.com/20220514/i1652522762_652_4.jpg","https://xcimg.szwego.com/20220514/i1652522762_9820_5.jpg","https://xcimg.szwego.com/20220514/i1652522762_2997_6.jpg","https://xcimg.szwego.com/20220514/i1652522762_935_7.jpg"],"created_at":"2025-02-08T12:45:53.573Z"},{"id":"item-39af1f595399","sku":"_d6N6N5HzIO93O2Kj7jxsJnnyGG5VENBuPmQlPNQ","name_en":"圣罗兰经典传奇时尚与浪漫相结合❓YSL家的原版皮纹就富有这样的属性。说不出它有多迷人,就是有种魔力能把你吸引住,是许多女性衣橱中的基础必备款,能让你搭出简约有质感的Look,点缀感十足💋尺寸:30 型号 26821","name_cn":"圣罗兰经典传奇时尚与浪漫相结合❓YSL家的原版皮纹就富有这样的属性。说不出它有多迷人,就是有种魔力能把你吸引住,是许多女性衣橱中的基础必备款,能让你搭出简约有质感的Look,点缀感十足💋尺寸:30 型号 26821","specs":{"source":"wsxcme","sourceId":"_d6N6N5HzIO93O2Kj7jxsJnnyGG5VENBuPmQlPNQ","sourceTagId":47002761,"sourceTagName":"圣罗兰/女包","modelNumber":"26821","rawTitle":"圣罗兰经典传奇时尚与浪漫相结合❓YSL家的原版皮纹就富有这样的属性。说不出它有多迷人,就是有种魔力能把你吸引住,是许多女性衣橱中的基础必备款,能让你搭出简约有质感的Look,点缀感十足💋尺寸:30 型号 26821"},"price":null,"currency":"CNY","moq":1,"category":"ysl-women-bags","status":"active","alibaba_url":null,"images":["https://xcimg.szwego.com/20200622/i1592835057_6890_0.jpg","https://xcimg.szwego.com/20200622/i1592835057_5712_1.jpg","https://xcimg.szwego.com/20200622/i1592835057_6374_2.jpg","https://xcimg.szwego.com/20200622/i1592835057_7356_3.jpg","https://xcimg.szwego.com/20200622/i1592835057_6223_4.jpg","https://xcimg.szwego.com/20200622/i1592835057_6821_5.jpg","https://xcimg.szwego.com/20200622/i1592835057_9381_6.jpg","https://xcimg.szwego.com/20200622/i1592835057_5310_7.jpg"],"created_at":"2025-02-08T12:45:53.579Z"},{"id":"item-38c16e9394ae","sku":"_dsEsEXWq5MJGhQHTwuDNlGRSCZ98_esD0BgAOGQ","name_en":"圣罗兰经典传奇时尚与浪漫相结合❓YSL家的原版皮纹就富有这样的属性。说不出它有多迷人,就是有种魔力能把你吸引住,是许多女性衣橱中的基础必备款,能让你搭出简约有质感的Look,点缀感十足💋尺寸:30 型号 26821","name_cn":"圣罗兰经典传奇时尚与浪漫相结合❓YSL家的原版皮纹就富有这样的属性。说不出它有多迷人,就是有种魔力能把你吸引住,是许多女性衣橱中的基础必备款,能让你搭出简约有质感的Look,点缀感十足💋尺寸:30 型号 26821","specs":{"source":"wsxcme","sourceId":"_dsEsEXWq5MJGhQHTwuDNlGRSCZ98_esD0BgAOGQ","sourceTagId":47002761,"sourceTagName":"圣罗兰/女包","modelNumber":"26821","rawTitle":"圣罗兰经典传奇时尚与浪漫相结合❓YSL家的原版皮纹就富有这样的属性。说不出它有多迷人,就是有种魔力能把你吸引住,是许多女性衣橱中的基础必备款,能让你搭出简约有质感的Look,点缀感十足💋尺寸:30 型号 26821"},"price":null,"currency":"CNY","moq":1,"category":"ysl-women-bags","status":"active","alibaba_url":null,"images":["https://xcimg.szwego.com/20191017/i1571276128_9070_0.jpg","https://xcimg.szwego.com/20191017/i1571276128_5621_1.jpg","https://xcimg.szwego.com/20191017/i1571276128_2151_2.jpg","https://xcimg.szwego.com/20191017/i1571276128_4343_3.jpg","https://xcimg.szwego.com/20191017/i1571276128_5393_4.jpg","https://xcimg.szwego.com/20191017/i1571276128_7111_5.jpg","https://xcimg.szwego.com/20191017/i1571276128_9550_6.jpg","https://xcimg.szwego.com/20191017/i1571276128_5241_7.jpg"],"created_at":"2025-02-08T12:45:53.571Z"},{"id":"item-1ffd219f7424","sku":"_dlyly5_g0ZAVh2fsqzFknq65CCHWTDt-XJeplHQ","name_en":"圣罗兰经典传奇时尚与浪漫相结合❓YSL家的原版皮纹就富有这样的属性。说不出它有多迷人,就是有种魔力能把你吸引住,是许多女性衣橱中的基础必备款,能让你搭出简约有质感的Look,点缀感十足💋尺寸:30 型号 26821","name_cn":"圣罗兰经典传奇时尚与浪漫相结合❓YSL家的原版皮纹就富有这样的属性。说不出它有多迷人,就是有种魔力能把你吸引住,是许多女性衣橱中的基础必备款,能让你搭出简约有质感的Look,点缀感十足💋尺寸:30 型号 26821","specs":{"source":"wsxcme","sourceId":"_dlyly5_g0ZAVh2fsqzFknq65CCHWTDt-XJeplHQ","sourceTagId":47002761,"sourceTagName":"圣罗兰/女包","modelNumber":"26821","rawTitle":"圣罗兰经典传奇时尚与浪漫相结合❓YSL家的原版皮纹就富有这样的属性。说不出它有多迷人,就是有种魔力能把你吸引住,是许多女性衣橱中的基础必备款,能让你搭出简约有质感的Look,点缀感十足💋尺寸:30 型号 26821"},"price":null,"currency":"CNY","moq":1,"category":"ysl-women-bags","status":"active","alibaba_url":null,"images":["https://xcimg.szwego.com/20200622/i1592835082_7840_0.jpg","https://xcimg.szwego.com/20200622/i1592835082_9289_1.jpg","https://xcimg.szwego.com/20200622/i1592835082_1772_2.jpg","https://xcimg.szwego.com/20200622/i1592835082_1276_3.jpg","https://xcimg.szwego.com/20200622/i1592835082_1904_4.jpg","https://xcimg.szwego.com/20200622/i1592835106_1204_0.jpg","https://xcimg.szwego.com/20200622/i1592835082_9533_5.jpg","https://xcimg.szwego.com/20200622/i1592835082_9548_6.jpg"],"created_at":"2025-02-08T12:45:53.577Z"}],"page":13,"pageSize":24,"total":888,"totalPages":37}
