{"items":[{"id":"item-0eda4d30b0f5","sku":"_dmlmlXVSbArgMTnuKqTCUP7ADBaADBlWvBpSuIg","name_en":"Saint Laurent Women Bags","name_cn":"【原厂皮】🌈精品专供🔥牛仔棕皮/金\nYSL圣罗兰niki 22原厂皮牛仔布配棕皮,增添了休闲感 容量一如既往的大,复古造型,还很好搭配,一年四季必备款!超好看\n型号:633151 / 498892 牛仔\n尺寸:22x16x22cm","specs":{"source":"wsxcme","sourceId":"_dmlmlXVSbArgMTnuKqTCUP7ADBaADBlWvBpSuIg","sourceTagId":47002761,"sourceTagName":"圣罗兰/女包","modelNumber":"633151 / 498892 牛仔","dimensions":{"lengthCm":22,"heightCm":16,"widthCm":22},"rawTitle":"【原厂皮】🌈精品专供🔥牛仔棕皮/金\nYSL圣罗兰niki 22原厂皮牛仔布配棕皮,增添了休闲感 容量一如既往的大,复古造型,还很好搭配,一年四季必备款!超好看\n型号:633151 / 498892 牛仔\n尺寸:22x16x22cm"},"price":null,"currency":"CNY","moq":1,"category":"ysl-women-bags","status":"active","alibaba_url":null,"images":["https://xcimg.szwego.com/20220609/i1654764183_6792_0.jpg","https://xcimg.szwego.com/20220609/i1654764183_4010_1.jpg","https://xcimg.szwego.com/20220609/i1654764183_3801_3.jpg","https://xcimg.szwego.com/20220609/i1654764183_4996_4.jpg","https://xcimg.szwego.com/20220609/i1654764465_1971_0.jpg","https://xcimg.szwego.com/20220609/i1654764183_8093_6.jpg","https://xcimg.szwego.com/20220609/i1654764183_9203_5.jpg","https://xcimg.szwego.com/20220609/i1654764183_4153_7.jpg","https://xcimg.szwego.com/20220609/i1654764183_8465_8.jpg"],"created_at":"2025-02-08T12:46:07.457Z"},{"id":"item-0e360cfe5261","sku":"_dkykyGq_0y9kaHyZqpmzmaOlk5oyKE-tRlOHMUg","name_en":"Saint Laurent Women Bags","name_cn":"精品专供🔥杏色/古金\n▪ROSE▪️秋冬新款,韩国明星同款Hobo!!今年火到爆炸的腋下包Y家虽迟但到!!包包身轮廓简洁、立体,看上去硬挺却不会太凌厉。搭配上品牌标志性的插入式包扣,整体给人一种既经典优雅,又很时髦现代的独特气质👍\n型号:713938【原厂皮】\n尺寸:23x22x8cm","specs":{"source":"wsxcme","sourceId":"_dkykyGq_0y9kaHyZqpmzmaOlk5oyKE-tRlOHMUg","sourceTagId":47002761,"sourceTagName":"圣罗兰/女包","modelNumber":"713938【原厂皮】","dimensions":{"lengthCm":23,"heightCm":22,"widthCm":8},"rawTitle":"精品专供🔥杏色/古金\n▪ROSE▪️秋冬新款,韩国明星同款Hobo!!今年火到爆炸的腋下包Y家虽迟但到!!包包身轮廓简洁、立体,看上去硬挺却不会太凌厉。搭配上品牌标志性的插入式包扣,整体给人一种既经典优雅,又很时髦现代的独特气质👍\n型号:713938【原厂皮】\n尺寸:23x22x8cm"},"price":null,"currency":"CNY","moq":1,"category":"ysl-women-bags","status":"active","alibaba_url":null,"images":["https://xcimg.szwego.com/img/fce24e4d/20230925/i1695622704_766_0.jpg","https://xcimg.szwego.com/img/fce24e4d/20230925/i1695622704_6765_1.jpg","https://xcimg.szwego.com/img/fce24e4d/20230925/i1695622704_8778_2.jpg","https://xcimg.szwego.com/img/fce24e4d/20230925/i1695622704_6462_3.jpg","https://xcimg.szwego.com/img/fce24e4d/20230925/i1695622704_3857_4.jpg","https://xcimg.szwego.com/img/fce24e4d/20230925/i1695622704_5304_5.jpg","https://xcimg.szwego.com/img/fce24e4d/20230925/i1695622704_1819_6.jpg","https://xcimg.szwego.com/img/fce24e4d/20230925/i1695622704_9200_7.jpg","https://xcimg.szwego.com/img/fce24e4d/20230925/i1695622704_1388_8.jpg"],"created_at":"2024-12-08T05:55:31.979Z"},{"id":"item-0db4c512c730","sku":"_d9j9jvYnijXF1jAE0q683qQL40GiBAqovJ4swAQ","name_en":"Saint Laurent Women Bags","name_cn":"有些包 他天生就是主角\n\n背上身超级时尚!!️可单肩可双肩,真是爱😘了","specs":{"source":"wsxcme","sourceId":"_d9j9jvYnijXF1jAE0q683qQL40GiBAqovJ4swAQ","sourceTagId":47002761,"sourceTagName":"圣罗兰/女包","rawTitle":"有些包 他天生就是主角\n\n背上身超级时尚!!️可单肩可双肩,真是爱😘了"},"price":null,"currency":"CNY","moq":1,"category":"ysl-women-bags","status":"active","alibaba_url":null,"images":["https://xcimg.szwego.com/img/d8a0fc73/20241219/i1734579653_5220_4.jpg","https://xcimg.szwego.com/img/d8a0fc73/20241219/i1734579653_8337_5.jpg","https://xcimg.szwego.com/img/d8a0fc73/20241219/i1734579653_8880_0.jpg","https://xcimg.szwego.com/img/d8a0fc73/20241219/i1734579653_5908_2.jpg","https://xcimg.szwego.com/img/d8a0fc73/20241219/i1734579653_788_6.jpg","https://xcimg.szwego.com/img/d8a0fc73/20241219/i1734579653_4260_3.jpg","https://xcimg.szwego.com/img/d8a0fc73/20241219/i1734579653_7641_1.jpg"],"created_at":"2025-07-20T03:05:44.264Z"},{"id":"item-0d5f8f188679","sku":"_dGZGZTIvB0EmFsqk2OKHbZF0m_-UzBmtmfA5TcA","name_en":"Saint Laurent Women Bags","name_cn":"精品专供🔥灰色/古金\n▪ROSE▪️秋冬新款,韩国明星同款Hobo!!今年火到爆炸的腋下包Y家虽迟但到!!包包身轮廓简洁、立体,看上去硬挺却不会太凌厉。搭配上品牌标志性的插入式包扣,整体给人一种既经典优雅,又很时髦现代的独特气质👍\n型号:713938【原厂皮】\n尺寸:22x22x10cm","specs":{"source":"wsxcme","sourceId":"_dGZGZTIvB0EmFsqk2OKHbZF0m_-UzBmtmfA5TcA","sourceTagId":47002761,"sourceTagName":"圣罗兰/女包","modelNumber":"713938【原厂皮】","dimensions":{"lengthCm":22,"heightCm":22,"widthCm":10},"rawTitle":"精品专供🔥灰色/古金\n▪ROSE▪️秋冬新款,韩国明星同款Hobo!!今年火到爆炸的腋下包Y家虽迟但到!!包包身轮廓简洁、立体,看上去硬挺却不会太凌厉。搭配上品牌标志性的插入式包扣,整体给人一种既经典优雅,又很时髦现代的独特气质👍\n型号:713938【原厂皮】\n尺寸:22x22x10cm"},"price":null,"currency":"CNY","moq":1,"category":"ysl-women-bags","status":"active","alibaba_url":null,"images":["https://xcimg.szwego.com/20221110/a1668010729673_3225.jpg","https://xcimg.szwego.com/20221110/a1668010729677_8358.jpg","https://xcimg.szwego.com/20221110/a1668010729678_6427.jpg","https://xcimg.szwego.com/20221110/a1668010729679_6854.jpg","https://xcimg.szwego.com/20221110/a1668010729680_7423.jpg","https://xcimg.szwego.com/20221110/a1668010729681_6074.jpg","https://xcimg.szwego.com/20221110/a1668010729681_2830.jpg","https://xcimg.szwego.com/20221110/a1668010729682_7714.jpg","https://xcimg.szwego.com/20221110/a1668010729682_3823.jpg"],"created_at":"2024-12-08T05:56:19.009Z"},{"id":"item-0d46cea373ef","sku":"_dgigiAYuwNeG47b1gIAHc4lZX1dF9eQlKmwWhTw","name_en":"Saint Laurent Women Bags","name_cn":"官网图","specs":{"source":"wsxcme","sourceId":"_dgigiAYuwNeG47b1gIAHc4lZX1dF9eQlKmwWhTw","sourceTagId":47002761,"sourceTagName":"圣罗兰/女包","rawTitle":"官网图"},"price":null,"currency":"CNY","moq":1,"category":"ysl-women-bags","status":"active","alibaba_url":null,"images":["https://xcimg.szwego.com/imgHD/f8c0bdc9/20260420/cmp_i1776674188091_8481_0_0.jpg","https://xcimg.szwego.com/imgHD/f8c0bdc9/20260420/cmp_i1776674188091_4904_0_1.jpg","https://xcimg.szwego.com/imgHD/f8c0bdc9/20260420/cmp_i1776674188823_5008_0_2.jpg","https://xcimg.szwego.com/imgHD/f8c0bdc9/20260420/cmp_i1776674188091_6222_0_3.jpg","https://xcimg.szwego.com/imgHD/f8c0bdc9/20260420/cmp_i1776674188091_4673_0_4.jpg","https://xcimg.szwego.com/imgHD/f8c0bdc9/20260420/cmp_i1776674188090_6035_0_5.jpg"],"created_at":"2026-06-29T10:48:58.889Z"},{"id":"item-09549424e5fa","sku":"_dmRmRm_R7y3H4FDciOfudNj1_UuK9SoSU2KZYNg","name_en":"Saint Laurent Women Bags","name_cn":"复古最旧五金工艺\nSolferino包锁扣的设计十分精巧","specs":{"source":"wsxcme","sourceId":"_dmRmRm_R7y3H4FDciOfudNj1_UuK9SoSU2KZYNg","sourceTagId":47002761,"sourceTagName":"圣罗兰/女包","rawTitle":"复古最旧五金工艺\nSolferino包锁扣的设计十分精巧"},"price":null,"currency":"CNY","moq":1,"category":"ysl-women-bags","status":"active","alibaba_url":null,"images":["https://xcimg.szwego.com/imgHD/f8c0bdc9/20260622/cmp_i1782118163100_1269_0_0.jpg","https://xcimg.szwego.com/imgHD/f8c0bdc9/20260622/cmp_i1782118162918_1130_0_1.jpg","https://xcimg.szwego.com/imgHD/f8c0bdc9/20260622/cmp_i1782118164995_4909_0_5.jpg","https://xcimg.szwego.com/imgHD/f8c0bdc9/20260622/cmp_i1782118161197_4275_0_2.jpg","https://xcimg.szwego.com/imgHD/f8c0bdc9/20260622/cmp_i1782118161315_1768_0_3.jpg","https://xcimg.szwego.com/imgHD/f8c0bdc9/20260622/cmp_i1782118161783_7307_0_4.jpg"],"created_at":"2026-06-29T10:48:59.339Z"},{"id":"item-0841dd0456f3","sku":"_dJXJXX4ag5L5pd8aZtVrBK9YzvHGcQDyJqM-Clg","name_en":"Saint Laurent Women Bags","name_cn":"土黄大象纹配金扣\nniki_28cm简直不要太酷,包型好看没有缺点,柔软细腻羊皮营造出复古照旧风格  手拎或者腋下都很可 气场十足男女均可驾驭 时尚与功能兼备 上身舒适又时髦\n超大容量日常通勤旅行妥妥安排到位👌\n款号:633158\n尺寸:28×20.5×8.5cm","specs":{"source":"wsxcme","sourceId":"_dJXJXX4ag5L5pd8aZtVrBK9YzvHGcQDyJqM-Clg","sourceTagId":47002761,"sourceTagName":"圣罗兰/女包","modelNumber":"633158","dimensions":{"lengthCm":28,"heightCm":20.5,"widthCm":8.5},"rawTitle":"土黄大象纹配金扣\nniki_28cm简直不要太酷,包型好看没有缺点,柔软细腻羊皮营造出复古照旧风格  手拎或者腋下都很可 气场十足男女均可驾驭 时尚与功能兼备 上身舒适又时髦\n超大容量日常通勤旅行妥妥安排到位👌\n款号:633158\n尺寸:28×20.5×8.5cm"},"price":null,"currency":"CNY","moq":1,"category":"ysl-women-bags","status":"active","alibaba_url":null,"images":["https://xcimg.szwego.com/img/7821319d/20240701/i1719763643_1011_6.jpg","https://xcimg.szwego.com/img/7821319d/20240701/i1719763642_6794_1.jpg","https://xcimg.szwego.com/img/7821319d/20240701/i1719763642_460_3.jpg","https://xcimg.szwego.com/img/7821319d/20240701/i1719763642_304_4.jpg","https://xcimg.szwego.com/img/7821319d/20240701/i1719763642_4198_0.jpg","https://xcimg.szwego.com/img/7821319d/20240701/i1719763643_2123_8.jpg","https://xcimg.szwego.com/img/7821319d/20240701/i1719763642_2211_2.jpg","https://xcimg.szwego.com/img/7821319d/20240701/i1719763643_5471_7.jpg","https://xcimg.szwego.com/img/7821319d/20240701/i1719763643_3449_5.jpg"],"created_at":"2024-08-04T12:57:22.839Z"},{"id":"item-078a599fa349","sku":"_dkbkb6bVdx_RGoKvMSVdOdhQm5TyPx6-GgrKidQ","name_en":"Saint Laurent Women Bags","name_cn":"【原厂皮】🌈精品专供🔥磨砂金麦/古金\n▪ROSE▪️秋冬新款,韩国明星同款Hobo!!今年火到爆炸的腋下包Y家虽迟但到!!包包身轮廓简洁、立体,看上去硬挺却不会太凌厉。搭配上品牌标志性的插入式包扣,整体给人一种既经典优雅,又很时髦现代的独特气质👍\n型号:713938【原厂皮】\n尺寸:23x22x8cm","specs":{"source":"wsxcme","sourceId":"_dkbkb6bVdx_RGoKvMSVdOdhQm5TyPx6-GgrKidQ","sourceTagId":47002761,"sourceTagName":"圣罗兰/女包","modelNumber":"713938【原厂皮】","dimensions":{"lengthCm":23,"heightCm":22,"widthCm":8},"rawTitle":"【原厂皮】🌈精品专供🔥磨砂金麦/古金\n▪ROSE▪️秋冬新款,韩国明星同款Hobo!!今年火到爆炸的腋下包Y家虽迟但到!!包包身轮廓简洁、立体,看上去硬挺却不会太凌厉。搭配上品牌标志性的插入式包扣,整体给人一种既经典优雅,又很时髦现代的独特气质👍\n型号:713938【原厂皮】\n尺寸:23x22x8cm"},"price":null,"currency":"CNY","moq":1,"category":"ysl-women-bags","status":"active","alibaba_url":null,"images":["https://xcimg.szwego.com/img/fce24e4d/20231028/i1698486905_5271_0.jpg","https://xcimg.szwego.com/img/fce24e4d/20231028/i1698486905_5115_1.jpg","https://xcimg.szwego.com/img/fce24e4d/20231028/i1698486905_5788_2.jpg","https://xcimg.szwego.com/img/fce24e4d/20231028/i1698486905_1557_3.jpg","https://xcimg.szwego.com/img/fce24e4d/20231028/i1698486905_8051_4.jpg","https://xcimg.szwego.com/img/fce24e4d/20231028/i1698486905_2132_5.jpg","https://xcimg.szwego.com/img/fce24e4d/20231028/i1698486905_2992_6.jpg","https://xcimg.szwego.com/img/fce24e4d/20231028/i1698486905_9224_7.jpg","https://xcimg.szwego.com/img/fce24e4d/20231028/i1698486905_8431_8.jpg"],"created_at":"2024-12-08T05:40:02.557Z"},{"id":"item-0772cd916b95","sku":"_diPiPN06MS-Mt8ESbIsv1BpROiTAf6--A66582g","name_en":"Saint Laurent Women Bags","name_cn":"🌈精品专供🔥枣红/古金\n▪ROSE▪️秋冬新款,韩国明星同款Hobo!!今年火到爆炸的腋下包Y家虽迟但到!!包包身轮廓简洁、立体,看上去硬挺却不会太凌厉。搭配上品牌标志性的插入式包扣,整体给人一种既经典优雅,又很时髦现代的独特气质👍\n型号:713938【原厂皮】\n尺寸:22x22x10cm","specs":{"source":"wsxcme","sourceId":"_diPiPN06MS-Mt8ESbIsv1BpROiTAf6--A66582g","sourceTagId":47002761,"sourceTagName":"圣罗兰/女包","modelNumber":"713938【原厂皮】","dimensions":{"lengthCm":22,"heightCm":22,"widthCm":10},"rawTitle":"🌈精品专供🔥枣红/古金\n▪ROSE▪️秋冬新款,韩国明星同款Hobo!!今年火到爆炸的腋下包Y家虽迟但到!!包包身轮廓简洁、立体,看上去硬挺却不会太凌厉。搭配上品牌标志性的插入式包扣,整体给人一种既经典优雅,又很时髦现代的独特气质👍\n型号:713938【原厂皮】\n尺寸:22x22x10cm"},"price":null,"currency":"CNY","moq":1,"category":"ysl-women-bags","status":"active","alibaba_url":null,"images":["https://xcimg.szwego.com/20230411/i1681142702_6789_0.jpg","https://xcimg.szwego.com/20230411/i1681142702_9342_1.jpg","https://xcimg.szwego.com/20230411/i1681142702_4397_2.jpg","https://xcimg.szwego.com/20230411/i1681142702_1266_3.jpg","https://xcimg.szwego.com/20230411/i1681142702_534_4.jpg","https://xcimg.szwego.com/20230411/i1681142702_1354_5.jpg","https://xcimg.szwego.com/20230411/i1681142702_2304_6.jpg","https://xcimg.szwego.com/20230411/i1681142702_5448_7.jpg","https://xcimg.szwego.com/20230411/i1681142702_9644_8.jpg"],"created_at":"2024-12-08T05:55:49.124Z"},{"id":"item-05a71efbafde","sku":"_dcGcGqWhJ818a_6WlrDF6ZR3HCHqRdrWpDgjzjQ","name_en":"Saint Laurent Women Bags","name_cn":"可变化多种不同的背法","specs":{"source":"wsxcme","sourceId":"_dcGcGqWhJ818a_6WlrDF6ZR3HCHqRdrWpDgjzjQ","sourceTagId":47002761,"sourceTagName":"圣罗兰/女包","rawTitle":"可变化多种不同的背法"},"price":null,"currency":"CNY","moq":1,"category":"ysl-women-bags","status":"active","alibaba_url":null,"images":["https://xcimg.szwego.com/imgHD/f8c0bdc9/20260417/cmp_i1776418739379_9782_0_0.jpg","https://xcimg.szwego.com/imgHD/f8c0bdc9/20260417/cmp_i1776418739378_8050_0_1.jpg","https://xcimg.szwego.com/imgHD/f8c0bdc9/20260417/cmp_i1776418739380_2535_0_2.jpg","https://xcimg.szwego.com/imgHD/f8c0bdc9/20260417/cmp_i1776418739380_9657_0_3.jpg","https://xcimg.szwego.com/imgHD/f8c0bdc9/20260417/cmp_i1776418740184_9892_0_4.jpg","https://xcimg.szwego.com/imgHD/f8c0bdc9/20260417/cmp_i1776418739379_2880_0_5.jpg"],"created_at":"2026-05-20T04:01:38.553Z"},{"id":"item-04e23aefd245","sku":"_do0o0W4ZOeIZNu5HyW8eysnsdTSHdOr_ZDbJJ5A","name_en":"Saint Laurent Women Bags","name_cn":"这个夏天怎么可以没有草编包呢?","specs":{"source":"wsxcme","sourceId":"_do0o0W4ZOeIZNu5HyW8eysnsdTSHdOr_ZDbJJ5A","sourceTagId":47002761,"sourceTagName":"圣罗兰/女包","rawTitle":"这个夏天怎么可以没有草编包呢?"},"price":null,"currency":"CNY","moq":1,"category":"ysl-women-bags","status":"active","alibaba_url":null,"images":["https://xcimg.szwego.com/img/fce24e4d/20240513/i1715560525_5393_4.jpg","https://xcimg.szwego.com/img/fce24e4d/20240513/i1715560525_6878_7.jpg","https://xcimg.szwego.com/img/fce24e4d/20240513/i1715560524_7108_1.jpg","https://xcimg.szwego.com/img/fce24e4d/20240513/i1715560525_6838_8.jpg","https://xcimg.szwego.com/img/fce24e4d/20240513/i1715560525_8550_5.jpg","https://xcimg.szwego.com/img/fce24e4d/20240513/i1715560525_7113_2.jpg","https://xcimg.szwego.com/img/fce24e4d/20240513/i1715560525_2964_6.jpg","https://xcimg.szwego.com/img/fce24e4d/20240513/i1715560524_2150_0.jpg","https://xcimg.szwego.com/img/fce24e4d/20240513/i1715561057_4614_0.jpg"],"created_at":"2025-07-20T03:10:54.228Z"},{"id":"item-04bc7199d376","sku":"_dcicimB0aNL3ggGIUAvaiXwmbhryQftsoByxfcw","name_en":"Saint Laurent Women Bags","name_cn":"官网图","specs":{"source":"wsxcme","sourceId":"_dcicimB0aNL3ggGIUAvaiXwmbhryQftsoByxfcw","sourceTagId":47002761,"sourceTagName":"圣罗兰/女包","rawTitle":"官网图"},"price":null,"currency":"CNY","moq":1,"category":"ysl-women-bags","status":"active","alibaba_url":null,"images":["https://xcimg.szwego.com/imgHD/f8c0bdc9/20260420/cmp_i1776674166636_2476_0_0.jpg","https://xcimg.szwego.com/imgHD/f8c0bdc9/20260420/cmp_i1776674165837_2895_0_1.jpg","https://xcimg.szwego.com/imgHD/f8c0bdc9/20260420/cmp_i1776674165837_8369_0_2.jpg","https://xcimg.szwego.com/imgHD/f8c0bdc9/20260420/cmp_i1776674166636_7599_0_3.jpg","https://xcimg.szwego.com/imgHD/f8c0bdc9/20260420/cmp_i1776674165836_6254_0_4.jpg","https://xcimg.szwego.com/imgHD/f8c0bdc9/20260420/cmp_i1776674165838_8407_0_5.jpg","https://xcimg.szwego.com/imgHD/f8c0bdc9/20260420/cmp_i1776674165837_6280_0_6.jpg"],"created_at":"2026-06-29T10:48:58.849Z"},{"id":"item-047374478f60","sku":"_dL6L6E5BZ9PZVi_69I_iv5uu5i_xEkTD7KPW64g","name_en":"Saint Laurent Women Bags","name_cn":"🌸 【该尺寸不带包装】\n24ss 新款购物袋\n艺术与个性的独特融合,Y家总是眼光独到,深得时尚顶流的心,Y字牛皮的设计让人眼前一亮,给人一种随性慵懒、充满个性的感觉。超大容量,可以装ipad电脑,复古简约的设计,可凹造型,时髦又出片!\n款号:817602黑色牛皮\n尺寸:38-50×33×16cm","specs":{"source":"wsxcme","sourceId":"_dL6L6E5BZ9PZVi_69I_iv5uu5i_xEkTD7KPW64g","sourceTagId":47002761,"sourceTagName":"圣罗兰/女包","modelNumber":"817602黑色牛皮","rawTitle":"🌸 【该尺寸不带包装】\n24ss 新款购物袋\n艺术与个性的独特融合,Y家总是眼光独到,深得时尚顶流的心,Y字牛皮的设计让人眼前一亮,给人一种随性慵懒、充满个性的感觉。超大容量,可以装ipad电脑,复古简约的设计,可凹造型,时髦又出片!\n款号:817602黑色牛皮\n尺寸:38-50×33×16cm"},"price":null,"currency":"CNY","moq":1,"category":"ysl-women-bags","status":"active","alibaba_url":null,"images":["https://xcimg.szwego.com/img/58395cbb/20240920/a1726825986324_8574.jpg","https://xcimg.szwego.com/img/58395cbb/20240920/a1726825986470_1557.jpg","https://xcimg.szwego.com/img/58395cbb/20240920/a1726825986494_4183.jpg","https://xcimg.szwego.com/img/58395cbb/20240920/a1726825986461_5843.jpg","https://xcimg.szwego.com/img/58395cbb/20240920/a1726825342293_4626.jpg","https://xcimg.szwego.com/img/58395cbb/20240920/a1726825342950_1503.jpg","https://xcimg.szwego.com/img/58395cbb/20240920/a1726825347986_2188.jpg","https://xcimg.szwego.com/img/58395cbb/20240920/a1726825347791_2128.jpg","https://xcimg.szwego.com/img/58395cbb/20240920/a1726825347714_3536.jpg"],"created_at":"2025-07-20T03:05:44.243Z"},{"id":"item-043c350a93b1","sku":"_diUiUHUjULPdUI2s4aMLbodYljDIf05ornUAjyQ","name_en":"Saint Laurent Women Bags","name_cn":"绿色·\n24ss 新款购物袋\n艺术与个性的独特融合,Y家总是眼光独到,深得时尚顶流的心,Y字牛皮的设计让人眼前一亮,给人一种随性慵懒、充满个性的感觉。超大容量,可以装ipad电脑,复古简约的设计,可凹造型,时髦又出片!\n款号:817602\n尺寸:38-50×33×16cm","specs":{"source":"wsxcme","sourceId":"_diUiUHUjULPdUI2s4aMLbodYljDIf05ornUAjyQ","sourceTagId":47002761,"sourceTagName":"圣罗兰/女包","modelNumber":"817602","rawTitle":"绿色·\n24ss 新款购物袋\n艺术与个性的独特融合,Y家总是眼光独到,深得时尚顶流的心,Y字牛皮的设计让人眼前一亮,给人一种随性慵懒、充满个性的感觉。超大容量,可以装ipad电脑,复古简约的设计,可凹造型,时髦又出片!\n款号:817602\n尺寸:38-50×33×16cm"},"price":null,"currency":"CNY","moq":1,"category":"ysl-women-bags","status":"active","alibaba_url":null,"images":["https://xcimg.szwego.com/imgHD/f8c0bdc9/20250712/cmp_i1752301893876_311_0_0.jpg","https://xcimg.szwego.com/imgHD/f8c0bdc9/20250712/cmp_i1752301899123_7403_0_1.jpg","https://xcimg.szwego.com/imgHD/f8c0bdc9/20250712/cmp_i1752301894840_2922_0_2.jpg","https://xcimg.szwego.com/imgHD/f8c0bdc9/20250712/cmp_i1752301899350_3036_0_3.jpg","https://xcimg.szwego.com/imgHD/f8c0bdc9/20250712/cmp_i1752301899764_9165_0_4.jpg","https://xcimg.szwego.com/imgHD/f8c0bdc9/20250712/cmp_i1752301894825_7721_0_5.jpg","https://xcimg.szwego.com/imgHD/f8c0bdc9/20250712/cmp_i1752301899135_2819_0_6.jpg","https://xcimg.szwego.com/imgHD/f8c0bdc9/20250712/cmp_i1752301894847_2602_0_7.jpg","https://xcimg.szwego.com/imgHD/f8c0bdc9/20250712/cmp_i1752301894292_2049_0_8.jpg"],"created_at":"2025-08-03T06:06:46.014Z"},{"id":"item-0409fa512473","sku":"_da9a9ljb6FCtE2nMfZBcXRRH2Y33Bb1w92P6PcQ","name_en":"Saint Laurent Women Bags","name_cn":"薄荷绿\nGABY MINI 盒子包\n即将火爆新一季春夏的小可爱来袭~朴彩英同款化妆包/盒子包,采用小羊皮➕独特衔缝工艺,双拉链设计方便开合,小小包身大大容量,可拆卸调节肩带,手拎斜挎都可️,还可做梳妆包,精致且实用,最新爆款,实至名归。\n款号:766731\n尺寸:18x11x6.5cm","specs":{"source":"wsxcme","sourceId":"_da9a9ljb6FCtE2nMfZBcXRRH2Y33Bb1w92P6PcQ","sourceTagId":47002761,"sourceTagName":"圣罗兰/女包","modelNumber":"766731","dimensions":{"lengthCm":18,"heightCm":11,"widthCm":6.5},"rawTitle":"薄荷绿\nGABY MINI 盒子包\n即将火爆新一季春夏的小可爱来袭~朴彩英同款化妆包/盒子包,采用小羊皮➕独特衔缝工艺,双拉链设计方便开合,小小包身大大容量,可拆卸调节肩带,手拎斜挎都可️,还可做梳妆包,精致且实用,最新爆款,实至名归。\n款号:766731\n尺寸:18x11x6.5cm"},"price":null,"currency":"CNY","moq":1,"category":"ysl-women-bags","status":"active","alibaba_url":null,"images":["https://xcimg.szwego.com/imgHD/f8c0bdc9/20260129/cmp_i1769677017617_1815_0_0.jpg","https://xcimg.szwego.com/imgHD/f8c0bdc9/20260129/cmp_i1769677017760_7861_0_1.jpg","https://xcimg.szwego.com/imgHD/f8c0bdc9/20260129/cmp_i1769677030814_4290_0_2.jpg","https://xcimg.szwego.com/imgHD/f8c0bdc9/20260129/cmp_i1769677017741_5698_0_3.jpg","https://xcimg.szwego.com/imgHD/f8c0bdc9/20260129/cmp_i1769677015675_140_0_4.jpg","https://xcimg.szwego.com/imgHD/f8c0bdc9/20260129/cmp_i1769677017698_5308_0_5.jpg","https://xcimg.szwego.com/imgHD/f8c0bdc9/20260129/cmp_i1769677030694_6899_0_6.jpg","https://xcimg.szwego.com/imgHD/f8c0bdc9/20260129/cmp_i1769677028248_6921_0_7.jpg","https://xcimg.szwego.com/imgHD/f8c0bdc9/20260129/cmp_i1769677030635_2060_0_8.jpg"],"created_at":"2026-05-20T04:01:38.843Z"},{"id":"item-03d917b58d71","sku":"_dfLfLjveb8u24hDM_Q154BccPt9P6MZnkmcVISQ","name_en":"Saint Laurent Women Bags","name_cn":"磨砂肌理 触感软糯治愈\n自带不费力的文艺慵懒感","specs":{"source":"wsxcme","sourceId":"_dfLfLjveb8u24hDM_Q154BccPt9P6MZnkmcVISQ","sourceTagId":47002761,"sourceTagName":"圣罗兰/女包","rawTitle":"磨砂肌理 触感软糯治愈\n自带不费力的文艺慵懒感"},"price":null,"currency":"CNY","moq":1,"category":"ysl-women-bags","status":"active","alibaba_url":null,"images":["https://xcimg.szwego.com/imgHD/f8c0bdc9/20260129/cmp_i1769676333182_9175_0_0.jpg","https://xcimg.szwego.com/imgHD/f8c0bdc9/20260129/cmp_i1769676333213_5877_0_1.jpg","https://xcimg.szwego.com/imgHD/f8c0bdc9/20260129/cmp_i1769676333308_8558_0_2.jpg","https://xcimg.szwego.com/imgHD/f8c0bdc9/20260129/cmp_i1769676333263_636_0_3.jpg"],"created_at":"2026-05-20T04:01:38.803Z"},{"id":"item-034ada237010","sku":"_doMoMnwbbhj--hSRwnJlwXRxMIcvfMcC6ASLdDw","name_en":"Saint Laurent Women Bags","name_cn":"官网图_","specs":{"source":"wsxcme","sourceId":"_doMoMnwbbhj--hSRwnJlwXRxMIcvfMcC6ASLdDw","sourceTagId":47002761,"sourceTagName":"圣罗兰/女包","rawTitle":"官网图_"},"price":null,"currency":"CNY","moq":1,"category":"ysl-women-bags","status":"active","alibaba_url":null,"images":["https://xcimg.szwego.com/img/f8c0bdc9/20240819/i1724056542_6271_1.jpg","https://xcimg.szwego.com/img/f8c0bdc9/20240819/i1724056542_400_5.jpg","https://xcimg.szwego.com/img/f8c0bdc9/20240819/i1724056542_645_0.jpg","https://xcimg.szwego.com/img/f8c0bdc9/20240819/i1724056542_1054_2.jpg","https://xcimg.szwego.com/img/f8c0bdc9/20240819/i1724056542_5005_3.jpg","https://xcimg.szwego.com/img/f8c0bdc9/20240819/i1724056542_7499_4.jpg"],"created_at":"2025-07-20T03:05:44.256Z"},{"id":"item-02783843b938","sku":"_dxQxQy98DUq833IX2VrWDiaSza51u9OAsw9-DCg","name_en":"Saint Laurent Women Bags","name_cn":"【原厂皮】🌈精品专供🔥麻布棕皮/金\n新款HOBO腋下包,采用意大利麻布配牛皮制造,今年火到爆炸的腋下包Y家虽迟但到!!包包身轮廓简洁、立体,看上去硬挺却不会太凌厉。搭配上品牌标志性的插入式包扣,整体给人一种既经典优雅,又很时髦现代的独特气质👍\n型号:713938【原厂皮】\n尺寸:23x22x8cm","specs":{"source":"wsxcme","sourceId":"_dxQxQy98DUq833IX2VrWDiaSza51u9OAsw9-DCg","sourceTagId":47002761,"sourceTagName":"圣罗兰/女包","modelNumber":"713938【原厂皮】","dimensions":{"lengthCm":23,"heightCm":22,"widthCm":8},"rawTitle":"【原厂皮】🌈精品专供🔥麻布棕皮/金\n新款HOBO腋下包,采用意大利麻布配牛皮制造,今年火到爆炸的腋下包Y家虽迟但到!!包包身轮廓简洁、立体,看上去硬挺却不会太凌厉。搭配上品牌标志性的插入式包扣,整体给人一种既经典优雅,又很时髦现代的独特气质👍\n型号:713938【原厂皮】\n尺寸:23x22x8cm"},"price":null,"currency":"CNY","moq":1,"category":"ysl-women-bags","status":"active","alibaba_url":null,"images":["https://xcimg.szwego.com/20230701/i1688143893_385_0.jpg","https://xcimg.szwego.com/20230701/i1688143893_2392_1.jpg","https://xcimg.szwego.com/20230701/i1688143893_3100_2.jpg","https://xcimg.szwego.com/20230701/i1688143893_4575_3.jpg","https://xcimg.szwego.com/20230701/i1688143893_3110_4.jpg","https://xcimg.szwego.com/20230701/i1688143893_4413_5.jpg","https://xcimg.szwego.com/20230701/i1688143893_8270_6.jpg","https://xcimg.szwego.com/20230701/i1688143893_2640_7.jpg","https://xcimg.szwego.com/20230701/i1688143893_6452_8.jpg"],"created_at":"2024-12-08T05:57:42.970Z"},{"id":"item-0207635000e1","sku":"_dtKtKIz7EGrKZCZB1aYFVeQ7Jo3JBgVWKYJVogA","name_en":"Saint Laurent Women Bags","name_cn":"软乎乎的手感~爱了❤️❤️❤️","specs":{"source":"wsxcme","sourceId":"_dtKtKIz7EGrKZCZB1aYFVeQ7Jo3JBgVWKYJVogA","sourceTagId":47002761,"sourceTagName":"圣罗兰/女包","rawTitle":"软乎乎的手感~爱了❤️❤️❤️"},"price":null,"currency":"CNY","moq":1,"category":"ysl-women-bags","status":"active","alibaba_url":null,"images":["https://xcimg.szwego.com/img/58395cbb/20241026/a1729931443774_5762.jpg","https://xcimg.szwego.com/img/58395cbb/20241026/a1729931443815_4032.jpg","https://xcimg.szwego.com/img/58395cbb/20241026/a1729931443791_3643.jpg"],"created_at":"2025-07-20T03:05:44.261Z"},{"id":"item-0187ef7a1743","sku":"_d_s_s01_byBKhnDHI99aJDXna0eNSOX5xcQ9yig","name_en":"Saint Laurent Women Bags","name_cn":"羊皮橄榄绿/金❗️❗️顶级原单、精品专供❗️❗️\n #Loulou puffer#中号29CM🐑绗缝小羊皮包,原厂正品皮制作,手感柔软细腻,犹如怀抱云朵☁️般的感受;经典的Y家logo、链条及扣眼五金均采用巴金哑光银五金,包袋开口处折叠后使用了磁性四合扣封口,密闭性及安全性一流;包内设有一个拉链内袋可放置手机及贵重物品,除此之外无多余内袋设计,使用起来随心所欲!正品皮!正品皮!正品皮!\n尺寸:29x17x11cm  \n型号:577476","specs":{"source":"wsxcme","sourceId":"_d_s_s01_byBKhnDHI99aJDXna0eNSOX5xcQ9yig","sourceTagId":47002761,"sourceTagName":"圣罗兰/女包","modelNumber":"577476","dimensions":{"lengthCm":29,"heightCm":17,"widthCm":11},"rawTitle":"羊皮橄榄绿/金❗️❗️顶级原单、精品专供❗️❗️\n #Loulou puffer#中号29CM🐑绗缝小羊皮包,原厂正品皮制作,手感柔软细腻,犹如怀抱云朵☁️般的感受;经典的Y家logo、链条及扣眼五金均采用巴金哑光银五金,包袋开口处折叠后使用了磁性四合扣封口,密闭性及安全性一流;包内设有一个拉链内袋可放置手机及贵重物品,除此之外无多余内袋设计,使用起来随心所欲!正品皮!正品皮!正品皮!\n尺寸:29x17x11cm  \n型号:577476"},"price":null,"currency":"CNY","moq":1,"category":"ysl-women-bags","status":"active","alibaba_url":null,"images":["https://xcimg.szwego.com/img/fce24e4d/20240826/i1724667468_12_7.jpg","https://xcimg.szwego.com/img/fce24e4d/20240826/i1724667468_98_5.jpg","https://xcimg.szwego.com/img/fce24e4d/20240826/i1724667468_2480_4.jpg","https://xcimg.szwego.com/img/fce24e4d/20240826/i1724667467_2567_1.jpg","https://xcimg.szwego.com/img/fce24e4d/20240826/i1724667468_5191_8.jpg","https://xcimg.szwego.com/img/fce24e4d/20240826/i1724667468_4289_3.jpg","https://xcimg.szwego.com/img/fce24e4d/20240826/i1724667467_127_2.jpg","https://xcimg.szwego.com/img/fce24e4d/20240826/i1724667467_6037_0.jpg","https://xcimg.szwego.com/img/fce24e4d/20240826/i1724667468_8916_6.jpg"],"created_at":"2024-12-08T05:43:25.033Z"},{"id":"item-0042791cd1d5","sku":"_dCKCKZm-IzPvpZCHK1uOWDPv473jeOZ-AInhSYQ","name_en":"Saint Laurent Women Bags","name_cn":"官网图_","specs":{"source":"wsxcme","sourceId":"_dCKCKZm-IzPvpZCHK1uOWDPv473jeOZ-AInhSYQ","sourceTagId":47002761,"sourceTagName":"圣罗兰/女包","rawTitle":"官网图_"},"price":null,"currency":"CNY","moq":1,"category":"ysl-women-bags","status":"active","alibaba_url":null,"images":["https://xcimg.szwego.com/img/f8c0bdc9/20240104/i1704356834_9944_0.jpg","https://xcimg.szwego.com/img/f8c0bdc9/20240104/i1704356834_1151_1.jpg","https://xcimg.szwego.com/img/f8c0bdc9/20240104/i1704356834_1289_2.jpg","https://xcimg.szwego.com/img/f8c0bdc9/20240104/i1704356834_3628_3.jpg","https://xcimg.szwego.com/img/f8c0bdc9/20240104/i1704356834_9863_4.jpg"],"created_at":"2026-05-20T04:01:39.203Z"},{"id":"item-705ac6d6f2d4","sku":"_dVOVOCB6FWxF3rO7LZ0oQfztEhKTYtbk4En3uew","name_en":"sᴀɪɴᴛ ʟᴀᴜʀᴇɴᴛ","name_cn":"sᴀɪɴᴛ ʟᴀᴜʀᴇɴᴛ\n【VOLTAIRE 】24最新款伏尔泰Mini 椭圆形腋下背包!超chic的极简设计 尽显极致的圣罗兰法国风情、很正的复古感手拎腋下背皆宜、翻盖搭扣很新颖哇♥️空间的话Plus手机也完全无压力、正面翻盖设计LE CASSANDRE旋扣开合、皮革衬里古铜色配件 一个平袋!简单又大气 这是您最简单的入手\n货号:S8098\n尺寸:21×11×4.5cm","specs":{"source":"wsxcme","sourceId":"_dVOVOCB6FWxF3rO7LZ0oQfztEhKTYtbk4En3uew","sourceTagId":47002761,"sourceTagName":"圣罗兰/女包","modelNumber":"S8098","dimensions":{"lengthCm":21,"heightCm":11,"widthCm":4.5},"rawTitle":"sᴀɪɴᴛ ʟᴀᴜʀᴇɴᴛ\n【VOLTAIRE 】24最新款伏尔泰Mini 椭圆形腋下背包!超chic的极简设计 尽显极致的圣罗兰法国风情、很正的复古感手拎腋下背皆宜、翻盖搭扣很新颖哇♥️空间的话Plus手机也完全无压力、正面翻盖设计LE CASSANDRE旋扣开合、皮革衬里古铜色配件 一个平袋!简单又大气 这是您最简单的入手\n货号:S8098\n尺寸:21×11×4.5cm"},"price":null,"currency":"CNY","moq":1,"category":"ysl-women-bags","status":"active","alibaba_url":null,"images":["https://xcimg.szwego.com/img/c0f37100/20240505/i1714898570_7417_0.jpg","https://xcimg.szwego.com/img/c0f37100/20240505/i1714898570_6998_0.jpg","https://xcimg.szwego.com/img/c0f37100/20240505/i1714898568_6272_0.jpg","https://xcimg.szwego.com/img/c0f37100/20240505/i1714898570_2095_0.jpg","https://xcimg.szwego.com/img/c0f37100/20240505/i1714898569_7305_0.jpg","https://xcimg.szwego.com/img/c0f37100/20240505/i1714898569_5272_0.jpg","https://xcimg.szwego.com/img/c0f37100/20240505/i1714898568_4573_0.jpg","https://xcimg.szwego.com/img/c0f37100/20240505/i1714898569_8887_0.jpg","https://xcimg.szwego.com/img/c0f37100/20240505/i1714898569_8272_0.jpg"],"created_at":"2025-02-08T12:46:07.486Z"},{"id":"item-a2e56f5cb916","sku":"_dncncY7xAh2q0MecrTIL7wNQohqg0_-s6SUbtyQ","name_en":"Solferino Box 腋下包","name_cn":"Solferino Box 腋下包\n轻盈精致又时尚 背上它 瞬间提升气场","specs":{"source":"wsxcme","sourceId":"_dncncY7xAh2q0MecrTIL7wNQohqg0_-s6SUbtyQ","sourceTagId":47002761,"sourceTagName":"圣罗兰/女包","rawTitle":"Solferino Box 腋下包\n轻盈精致又时尚 背上它 瞬间提升气场"},"price":null,"currency":"CNY","moq":1,"category":"ysl-women-bags","status":"active","alibaba_url":null,"images":["https://xcimg.szwego.com/imgHD/f8c0bdc9/20260622/cmp_i1782118434076_1861_0_0.jpg","https://xcimg.szwego.com/imgHD/f8c0bdc9/20260622/cmp_i1782118433940_5835_0_1.jpg","https://xcimg.szwego.com/imgHD/f8c0bdc9/20260622/cmp_i1782118434064_6907_0_2.jpg","https://xcimg.szwego.com/imgHD/f8c0bdc9/20260622/cmp_i1782118431895_8329_0_3.jpg","https://xcimg.szwego.com/imgHD/f8c0bdc9/20260622/cmp_i1782118437228_6278_0_4.jpg","https://xcimg.szwego.com/imgHD/f8c0bdc9/20260622/cmp_i1782118432796_4140_0_5.jpg"],"created_at":"2026-06-29T10:48:59.369Z"},{"id":"item-ec4b191fe514","sku":"_dr3r31-2ezRl3K-WH_bOZe-e_JXFhrayQbo3JHw","name_en":"SOLFERINO BOX·腋下包","name_cn":"SOLFERINO BOX·腋下包\n绿色\n19/24.5cm\n合集","specs":{"source":"wsxcme","sourceId":"_dr3r31-2ezRl3K-WH_bOZe-e_JXFhrayQbo3JHw","sourceTagId":47002761,"sourceTagName":"圣罗兰/女包","rawTitle":"SOLFERINO BOX·腋下包\n绿色\n19/24.5cm\n合集"},"price":null,"currency":"CNY","moq":1,"category":"ysl-women-bags","status":"active","alibaba_url":null,"images":["https://xcimg.szwego.com/imgHD/f8c0bdc9/20260622/cmp_i1782118616961_5884_0_0.jpg","https://xcimg.szwego.com/imgHD/f8c0bdc9/20260622/cmp_i1782118614762_7772_0_1.jpg","https://xcimg.szwego.com/imgHD/f8c0bdc9/20260622/cmp_i1782118614625_4251_0_2.jpg","https://xcimg.szwego.com/imgHD/f8c0bdc9/20260622/cmp_i1782118614799_512_0_3.jpg","https://xcimg.szwego.com/imgHD/f8c0bdc9/20260622/cmp_i1782118161315_1768_0_3.jpg","https://xcimg.szwego.com/imgHD/f8c0bdc9/20260622/cmp_i1782118437228_6278_0_4.jpg"],"created_at":"2026-06-29T10:48:59.389Z"}],"page":36,"pageSize":24,"total":888,"totalPages":37}
