{"items":[{"id":"item-73fad88a00bb","sku":"_d4k4kL2yuiYGlxJo1Lk_zvO0xnLcApKOF56Cacw","name_en":"细节po","name_cn":"细节po","specs":{"source":"wsxcme","sourceId":"_d4k4kL2yuiYGlxJo1Lk_zvO0xnLcApKOF56Cacw","sourceTagId":47002761,"sourceTagName":"圣罗兰/女包","rawTitle":"细节po"},"price":null,"currency":"CNY","moq":1,"category":"ysl-women-bags","status":"active","alibaba_url":null,"images":["https://xcimg.szwego.com/img/f8c0bdc9/20250107/i1736242421256_8814_0_0.jpg","https://xcimg.szwego.com/img/f8c0bdc9/20250107/i1736242421323_213_0_1.jpg","https://xcimg.szwego.com/img/f8c0bdc9/20250107/i1736242421190_6473_0_2.jpg","https://xcimg.szwego.com/img/f8c0bdc9/20250107/i1736242421123_7535_0_3.jpg","https://xcimg.szwego.com/img/f8c0bdc9/20250107/i1736242421060_1049_0_4.jpg","https://xcimg.szwego.com/img/f8c0bdc9/20250107/i1736242420994_9910_0_5.jpg","https://xcimg.szwego.com/img/f8c0bdc9/20250107/i1736242421460_6326_0_6.jpg","https://xcimg.szwego.com/img/f8c0bdc9/20250107/i1736242421388_14_0_7.jpg"],"created_at":"2026-06-29T10:48:59.219Z"},{"id":"item-72f4e7b3f598","sku":"_drsrsLrP_haRm9LItykdkBhkS6K2mpqHsztO8aw","name_en":"细节po","name_cn":"细节po","specs":{"source":"wsxcme","sourceId":"_drsrsLrP_haRm9LItykdkBhkS6K2mpqHsztO8aw","sourceTagId":47002761,"sourceTagName":"圣罗兰/女包","rawTitle":"细节po"},"price":null,"currency":"CNY","moq":1,"category":"ysl-women-bags","status":"active","alibaba_url":null,"images":["https://xcimg.szwego.com/imgHD/f8c0bdc9/20260420/cmp_i1776669992467_3361_0_0.jpg","https://xcimg.szwego.com/imgHD/f8c0bdc9/20260420/cmp_i1776669995361_8959_0_1.jpg","https://xcimg.szwego.com/imgHD/f8c0bdc9/20260420/cmp_i1776669996322_5611_0_2.jpg","https://xcimg.szwego.com/imgHD/f8c0bdc9/20260420/cmp_i1776669993738_2595_0_3.jpg","https://xcimg.szwego.com/imgHD/f8c0bdc9/20260420/cmp_i1776669994022_4601_0_4.jpg","https://xcimg.szwego.com/imgHD/f8c0bdc9/20260420/cmp_i1776669993841_5351_0_5.jpg","https://xcimg.szwego.com/imgHD/f8c0bdc9/20260420/cmp_i1776669998486_2159_0_6.jpg","https://xcimg.szwego.com/imgHD/f8c0bdc9/20260420/cmp_i1776669996177_2999_0_7.jpg","https://xcimg.szwego.com/imgHD/f8c0bdc9/20260420/cmp_i1776669992135_5904_0_8.jpg"],"created_at":"2026-06-29T10:48:58.949Z"},{"id":"item-708f392939d7","sku":"_djbjbIkZl60IuP5KsRCsNVQv-oWjR7nJJtIUZ2g","name_en":"细节po","name_cn":"细节po","specs":{"source":"wsxcme","sourceId":"_djbjbIkZl60IuP5KsRCsNVQv-oWjR7nJJtIUZ2g","sourceTagId":47002761,"sourceTagName":"圣罗兰/女包","rawTitle":"细节po"},"price":null,"currency":"CNY","moq":1,"category":"ysl-women-bags","status":"active","alibaba_url":null,"images":["https://xcimg.szwego.com/imgHD/f8c0bdc9/20251104/cmp_i1762245638302_6576_0_0.jpg","https://xcimg.szwego.com/imgHD/f8c0bdc9/20251104/cmp_i1762245636547_3126_0_1.jpg","https://xcimg.szwego.com/imgHD/f8c0bdc9/20251104/cmp_i1762245636404_2644_0_2.jpg","https://xcimg.szwego.com/imgHD/f8c0bdc9/20251104/cmp_i1762245636526_154_0_3.jpg","https://xcimg.szwego.com/imgHD/f8c0bdc9/20251104/cmp_i1762245636535_7706_0_4.jpg","https://xcimg.szwego.com/imgHD/f8c0bdc9/20251104/cmp_i1762245636415_1140_0_6.jpg","https://xcimg.szwego.com/imgHD/f8c0bdc9/20251104/cmp_i1762245638287_6109_0_5.jpg","https://xcimg.szwego.com/imgHD/f8c0bdc9/20251104/cmp_i1762245638304_7414_0_7.jpg"],"created_at":"2026-06-29T10:48:59.049Z"},{"id":"item-6e37d6e0f3b7","sku":"_dlzlzYxJDlxKgG7fs1R5cC_J_Mnm47V5B6yGWJQ","name_en":"细节po","name_cn":"细节po","specs":{"source":"wsxcme","sourceId":"_dlzlzYxJDlxKgG7fs1R5cC_J_Mnm47V5B6yGWJQ","sourceTagId":47002761,"sourceTagName":"圣罗兰/女包","rawTitle":"细节po"},"price":null,"currency":"CNY","moq":1,"category":"ysl-women-bags","status":"active","alibaba_url":null,"images":["https://xcimg.szwego.com/imgHD/f8c0bdc9/20260129/cmp_i1769675542417_6322_0_0.jpg","https://xcimg.szwego.com/imgHD/f8c0bdc9/20260129/cmp_i1769675536864_5285_0_1.jpg","https://xcimg.szwego.com/imgHD/f8c0bdc9/20260129/cmp_i1769675542633_4657_0_2.jpg","https://xcimg.szwego.com/imgHD/f8c0bdc9/20260129/cmp_i1769675550721_5959_0_3.jpg","https://xcimg.szwego.com/imgHD/f8c0bdc9/20260129/cmp_i1769675542520_145_0_4.jpg","https://xcimg.szwego.com/imgHD/f8c0bdc9/20260129/cmp_i1769675542454_1687_0_5.jpg","https://xcimg.szwego.com/imgHD/f8c0bdc9/20260129/cmp_i1769675550354_7327_0_6.jpg","https://xcimg.szwego.com/imgHD/f8c0bdc9/20260129/cmp_i1769675548564_3656_0_7.jpg","https://xcimg.szwego.com/imgHD/f8c0bdc9/20260129/cmp_i1769675535471_5548_0_8.jpg"],"created_at":"2026-06-29T10:48:58.769Z"},{"id":"item-6a3bf9d9fe33","sku":"_duIuIuZfx0KzRqf7SOZC3HSHBWQgwZmylBUZ2gg","name_en":"细节po","name_cn":"细节po","specs":{"source":"wsxcme","sourceId":"_duIuIuZfx0KzRqf7SOZC3HSHBWQgwZmylBUZ2gg","sourceTagId":47002761,"sourceTagName":"圣罗兰/女包","rawTitle":"细节po"},"price":null,"currency":"CNY","moq":1,"category":"ysl-women-bags","status":"active","alibaba_url":null,"images":["https://xcimg.szwego.com/imgHD/f8c0bdc9/20251120/cmp_i1763629496604_2759_0_0.jpg","https://xcimg.szwego.com/imgHD/f8c0bdc9/20251120/cmp_i1763629499054_4616_0_1.jpg","https://xcimg.szwego.com/imgHD/f8c0bdc9/20251120/cmp_i1763629495646_1564_0_2.jpg","https://xcimg.szwego.com/imgHD/f8c0bdc9/20251120/cmp_i1763629495537_7929_0_3.jpg","https://xcimg.szwego.com/imgHD/f8c0bdc9/20251120/cmp_i1763629495415_6929_0_4.jpg","https://xcimg.szwego.com/imgHD/f8c0bdc9/20251120/cmp_i1763629498856_7209_0_5.jpg","https://xcimg.szwego.com/imgHD/f8c0bdc9/20251120/cmp_i1763629498894_362_0_6.jpg","https://xcimg.szwego.com/imgHD/f8c0bdc9/20251120/cmp_i1763629499176_1826_0_7.jpg","https://xcimg.szwego.com/imgHD/f8c0bdc9/20251120/cmp_i1763629495523_5317_0_8.jpg"],"created_at":"2026-06-29T10:48:58.589Z"},{"id":"item-55b5439d2c03","sku":"_dwSwSWuZn3TXvJIoa_sF1CAcNHdhYRDZ8KAuhqw","name_en":"细节po","name_cn":"细节po","specs":{"source":"wsxcme","sourceId":"_dwSwSWuZn3TXvJIoa_sF1CAcNHdhYRDZ8KAuhqw","sourceTagId":47002761,"sourceTagName":"圣罗兰/女包","rawTitle":"细节po"},"price":null,"currency":"CNY","moq":1,"category":"ysl-women-bags","status":"active","alibaba_url":null,"images":["https://xcimg.szwego.com/imgHD/f8c0bdc9/20260420/cmp_i1776670672548_900_0_0.jpg","https://xcimg.szwego.com/imgHD/f8c0bdc9/20260420/cmp_i1776670678781_5246_0_1.jpg","https://xcimg.szwego.com/imgHD/f8c0bdc9/20260420/cmp_i1776670674078_2768_0_2.jpg","https://xcimg.szwego.com/imgHD/f8c0bdc9/20260420/cmp_i1776670673905_6109_0_3.jpg","https://xcimg.szwego.com/imgHD/f8c0bdc9/20260420/cmp_i1776670672857_2642_0_4.jpg","https://xcimg.szwego.com/imgHD/f8c0bdc9/20260420/cmp_i1776670674130_8844_0_5.jpg"],"created_at":"2026-06-29T10:48:58.829Z"},{"id":"item-4d1e8ffae8dc","sku":"_dnpnpljaHJpvOJZ6BFB2Pihn7SRkJqMh_EvfJDg","name_en":"细节po","name_cn":"细节po","specs":{"source":"wsxcme","sourceId":"_dnpnpljaHJpvOJZ6BFB2Pihn7SRkJqMh_EvfJDg","sourceTagId":47002761,"sourceTagName":"圣罗兰/女包","rawTitle":"细节po"},"price":null,"currency":"CNY","moq":1,"category":"ysl-women-bags","status":"active","alibaba_url":null,"images":["https://xcimg.szwego.com/imgHD/f8c0bdc9/20260129/cmp_i1769673606576_3976_0_8.jpg","https://xcimg.szwego.com/imgHD/f8c0bdc9/20260129/cmp_i1769673606868_6758_0_0.jpg","https://xcimg.szwego.com/imgHD/f8c0bdc9/20260129/cmp_i1769673606798_6090_0_1.jpg","https://xcimg.szwego.com/imgHD/f8c0bdc9/20260129/cmp_i1769673664045_8790_0_2.jpg","https://xcimg.szwego.com/imgHD/f8c0bdc9/20260129/cmp_i1769673663944_5561_0_3.jpg","https://xcimg.szwego.com/imgHD/f8c0bdc9/20260129/cmp_i1769673606798_9754_0_4.jpg","https://xcimg.szwego.com/imgHD/f8c0bdc9/20260129/cmp_i1769673663684_8777_0_5.jpg","https://xcimg.szwego.com/imgHD/f8c0bdc9/20260129/cmp_i1769673604769_3137_0_6.jpg","https://xcimg.szwego.com/imgHD/f8c0bdc9/20260129/cmp_i1769673663833_9207_0_7.jpg"],"created_at":"2026-06-29T10:48:58.739Z"},{"id":"item-4a455ffff64d","sku":"_djcjcCK3Oc5BynXyfZWdR5YP1OxNr8hCe52gXbA","name_en":"细节po","name_cn":"细节po","specs":{"source":"wsxcme","sourceId":"_djcjcCK3Oc5BynXyfZWdR5YP1OxNr8hCe52gXbA","sourceTagId":47002761,"sourceTagName":"圣罗兰/女包","rawTitle":"细节po"},"price":null,"currency":"CNY","moq":1,"category":"ysl-women-bags","status":"active","alibaba_url":null,"images":["https://xcimg.szwego.com/imgHD/f8c0bdc9/20260129/cmp_i1769672454784_1045_0_0.jpg","https://xcimg.szwego.com/imgHD/f8c0bdc9/20260129/cmp_i1769672462477_6299_0_1.jpg","https://xcimg.szwego.com/imgHD/f8c0bdc9/20260129/cmp_i1769672456176_5118_0_2.jpg","https://xcimg.szwego.com/imgHD/f8c0bdc9/20260129/cmp_i1769672454608_1927_0_3.jpg","https://xcimg.szwego.com/imgHD/f8c0bdc9/20260129/cmp_i1769672462555_4992_0_4.jpg","https://xcimg.szwego.com/imgHD/f8c0bdc9/20260129/cmp_i1769672461080_7985_0_5.jpg","https://xcimg.szwego.com/imgHD/f8c0bdc9/20260129/cmp_i1769672462578_8235_0_6.jpg","https://xcimg.szwego.com/imgHD/f8c0bdc9/20260129/cmp_i1769672454762_7622_0_7.jpg"],"created_at":"2026-05-20T04:01:38.773Z"},{"id":"item-450441a78a2f","sku":"_dxYxY0zV47HLnYPjf9xrhVZsonzV5yEN3zwplEg","name_en":"细节po","name_cn":"细节po","specs":{"source":"wsxcme","sourceId":"_dxYxY0zV47HLnYPjf9xrhVZsonzV5yEN3zwplEg","sourceTagId":47002761,"sourceTagName":"圣罗兰/女包","rawTitle":"细节po"},"price":null,"currency":"CNY","moq":1,"category":"ysl-women-bags","status":"active","alibaba_url":null,"images":["https://xcimg.szwego.com/imgHD/f8c0bdc9/20251120/cmp_i1763630156462_6995_0_0.jpg","https://xcimg.szwego.com/imgHD/f8c0bdc9/20251120/cmp_i1763630152592_5801_0_1.jpg","https://xcimg.szwego.com/imgHD/f8c0bdc9/20251120/cmp_i1763630153417_121_0_2.jpg","https://xcimg.szwego.com/imgHD/f8c0bdc9/20251120/cmp_i1763630153312_8074_0_3.jpg","https://xcimg.szwego.com/imgHD/f8c0bdc9/20251120/cmp_i1763630153382_7561_0_4.jpg","https://xcimg.szwego.com/imgHD/f8c0bdc9/20251120/cmp_i1763630155431_2331_0_5.jpg","https://xcimg.szwego.com/imgHD/f8c0bdc9/20251120/cmp_i1763630154266_3691_0_6.jpg","https://xcimg.szwego.com/imgHD/f8c0bdc9/20251120/cmp_i1763630155541_5610_0_7.jpg"],"created_at":"2026-06-29T10:48:58.649Z"},{"id":"item-427e65cc0d89","sku":"_dM_M_nNF2GzTJlKqS-W0iyCxXKLQ0GiOTsvXWFA","name_en":"细节po","name_cn":"细节po","specs":{"source":"wsxcme","sourceId":"_dM_M_nNF2GzTJlKqS-W0iyCxXKLQ0GiOTsvXWFA","sourceTagId":47002761,"sourceTagName":"圣罗兰/女包","rawTitle":"细节po"},"price":null,"currency":"CNY","moq":1,"category":"ysl-women-bags","status":"active","alibaba_url":null,"images":["https://xcimg.szwego.com/imgHD/f8c0bdc9/20251209/cmp_i1765275079397_3655_0_0.jpg","https://xcimg.szwego.com/imgHD/f8c0bdc9/20251209/cmp_i1765275079400_9489_0_1.jpg","https://xcimg.szwego.com/imgHD/f8c0bdc9/20251209/cmp_i1765275078081_9358_0_2.jpg","https://xcimg.szwego.com/imgHD/f8c0bdc9/20251209/cmp_i1765275077989_2548_0_3.jpg","https://xcimg.szwego.com/imgHD/f8c0bdc9/20251209/cmp_i1765275079380_29_0_4.jpg","https://xcimg.szwego.com/imgHD/f8c0bdc9/20251209/cmp_i1765275079741_3686_0_5.jpg","https://xcimg.szwego.com/imgHD/f8c0bdc9/20251209/cmp_i1765275077402_759_0_6.jpg","https://xcimg.szwego.com/imgHD/f8c0bdc9/20251209/cmp_i1765275078073_7353_0_7.jpg","https://xcimg.szwego.com/imgHD/f8c0bdc9/20251209/cmp_i1765275077115_313_0_8.jpg"],"created_at":"2026-06-29T10:48:58.539Z"},{"id":"item-412a8f15c3cf","sku":"_dpZpZJEXizDbJSbb3j_CxGFTxmLuOaeBTziyyOw","name_en":"细节po","name_cn":"细节po","specs":{"source":"wsxcme","sourceId":"_dpZpZJEXizDbJSbb3j_CxGFTxmLuOaeBTziyyOw","sourceTagId":47002761,"sourceTagName":"圣罗兰/女包","rawTitle":"细节po"},"price":null,"currency":"CNY","moq":1,"category":"ysl-women-bags","status":"active","alibaba_url":null,"images":["https://xcimg.szwego.com/imgHD/f8c0bdc9/20251229/cmp_i1767000149346_2031_0_0.jpg","https://xcimg.szwego.com/imgHD/f8c0bdc9/20251229/cmp_i1767000147878_4577_0_1.jpg","https://xcimg.szwego.com/imgHD/f8c0bdc9/20251229/cmp_i1767000149109_8849_0_2.jpg","https://xcimg.szwego.com/imgHD/f8c0bdc9/20251229/cmp_i1767000149445_6426_0_3.jpg","https://xcimg.szwego.com/imgHD/f8c0bdc9/20251229/cmp_i1767000148011_5873_0_4.jpg"],"created_at":"2026-06-29T10:54:45.496Z"},{"id":"item-3ef354652235","sku":"_dkFkFBFw2yRrVN36HRL8ktYPovLunPyYHNSoEpA","name_en":"细节po","name_cn":"细节po","specs":{"source":"wsxcme","sourceId":"_dkFkFBFw2yRrVN36HRL8ktYPovLunPyYHNSoEpA","sourceTagId":47002761,"sourceTagName":"圣罗兰/女包","rawTitle":"细节po"},"price":null,"currency":"CNY","moq":1,"category":"ysl-women-bags","status":"active","alibaba_url":null,"images":["https://xcimg.szwego.com/imgHD/f8c0bdc9/20251209/cmp_i1765273985161_6860_0_0.jpg","https://xcimg.szwego.com/imgHD/f8c0bdc9/20251209/cmp_i1765273985325_800_0_1.jpg","https://xcimg.szwego.com/imgHD/f8c0bdc9/20251209/cmp_i1765273985106_4792_0_2.jpg","https://xcimg.szwego.com/imgHD/f8c0bdc9/20251209/cmp_i1765273985298_5644_0_3.jpg","https://xcimg.szwego.com/imgHD/f8c0bdc9/20251209/cmp_i1765273988595_8565_0_4.jpg","https://xcimg.szwego.com/imgHD/f8c0bdc9/20251209/cmp_i1765273988486_9440_0_5.jpg","https://xcimg.szwego.com/imgHD/f8c0bdc9/20251209/cmp_i1765273986513_6739_0_6.jpg"],"created_at":"2026-06-29T10:54:45.536Z"},{"id":"item-3eb041bdbf94","sku":"_dp2p2xiErpVXkRNYHi_08-hicJxsi3aP6H3T5ww","name_en":"细节po","name_cn":"细节po","specs":{"source":"wsxcme","sourceId":"_dp2p2xiErpVXkRNYHi_08-hicJxsi3aP6H3T5ww","sourceTagId":47002761,"sourceTagName":"圣罗兰/女包","rawTitle":"细节po"},"price":null,"currency":"CNY","moq":1,"category":"ysl-women-bags","status":"active","alibaba_url":null,"images":["https://xcimg.szwego.com/imgHD/f8c0bdc9/20251120/cmp_i1763629850901_477_0_0.jpg","https://xcimg.szwego.com/imgHD/f8c0bdc9/20251120/cmp_i1763629853959_556_0_1.jpg","https://xcimg.szwego.com/imgHD/f8c0bdc9/20251120/cmp_i1763629853926_5758_0_2.jpg","https://xcimg.szwego.com/imgHD/f8c0bdc9/20251120/cmp_i1763629852341_518_0_3.jpg","https://xcimg.szwego.com/imgHD/f8c0bdc9/20251120/cmp_i1763629852189_509_0_4.jpg","https://xcimg.szwego.com/imgHD/f8c0bdc9/20251120/cmp_i1763629853942_9030_0_5.jpg","https://xcimg.szwego.com/imgHD/f8c0bdc9/20251120/cmp_i1763629852316_7067_0_6.jpg","https://xcimg.szwego.com/imgHD/f8c0bdc9/20251120/cmp_i1763629852349_1595_0_7.jpg"],"created_at":"2026-06-29T10:48:58.619Z"},{"id":"item-3cf2a962b29b","sku":"_dEYEYvtxj5B0ZxSrXntuyEixsV84ULBxjvqtL_g","name_en":"细节po","name_cn":"细节po","specs":{"source":"wsxcme","sourceId":"_dEYEYvtxj5B0ZxSrXntuyEixsV84ULBxjvqtL_g","sourceTagId":47002761,"sourceTagName":"圣罗兰/女包","rawTitle":"细节po"},"price":null,"currency":"CNY","moq":1,"category":"ysl-women-bags","status":"active","alibaba_url":null,"images":["https://xcimg.szwego.com/imgHD/f8c0bdc9/20251229/cmp_i1766999217288_1462_0_0.jpg","https://xcimg.szwego.com/imgHD/f8c0bdc9/20251229/cmp_i1766999222250_4507_0_1.jpg","https://xcimg.szwego.com/imgHD/f8c0bdc9/20251229/cmp_i1766999221086_8350_0_2.jpg","https://xcimg.szwego.com/imgHD/f8c0bdc9/20251229/cmp_i1766999219773_5703_0_3.jpg","https://xcimg.szwego.com/imgHD/f8c0bdc9/20251229/cmp_i1766999219532_7856_0_4.jpg","https://xcimg.szwego.com/imgHD/f8c0bdc9/20251229/cmp_i1766999219525_3735_0_5.jpg","https://xcimg.szwego.com/imgHD/f8c0bdc9/20251229/cmp_i1766999219884_7075_0_6.jpg"],"created_at":"2026-06-29T10:54:45.436Z"},{"id":"item-30c703f27517","sku":"_dOoOo4bkk8Mw18Lmf7cA0d0YxIozofROmC0UUCA","name_en":"细节po","name_cn":"细节po","specs":{"source":"wsxcme","sourceId":"_dOoOo4bkk8Mw18Lmf7cA0d0YxIozofROmC0UUCA","sourceTagId":47002761,"sourceTagName":"圣罗兰/女包","rawTitle":"细节po"},"price":null,"currency":"CNY","moq":1,"category":"ysl-women-bags","status":"active","alibaba_url":null,"images":["https://xcimg.szwego.com/imgHD/f8c0bdc9/20250328/cmp_i1743147943911_6120_0_0.jpg","https://xcimg.szwego.com/imgHD/f8c0bdc9/20250328/cmp_i1743147943879_5782_0_1.jpg","https://xcimg.szwego.com/imgHD/f8c0bdc9/20250328/cmp_i1743147945542_249_0_2.jpg","https://xcimg.szwego.com/imgHD/f8c0bdc9/20250328/cmp_i1743147943940_5705_0_3.jpg","https://xcimg.szwego.com/imgHD/f8c0bdc9/20250328/cmp_i1743147943263_6312_0_4.jpg","https://xcimg.szwego.com/imgHD/f8c0bdc9/20250328/cmp_i1743147945063_7858_0_5.jpg","https://xcimg.szwego.com/imgHD/f8c0bdc9/20250328/cmp_i1743147942758_8229_0_6.jpg"],"created_at":"2026-05-20T04:01:39.043Z"},{"id":"item-2100f6c7295c","sku":"_d_1_1neB5DETeki98Yj893MbLcoKdwGJDuvA8nQ","name_en":"细节po","name_cn":"细节po","specs":{"source":"wsxcme","sourceId":"_d_1_1neB5DETeki98Yj893MbLcoKdwGJDuvA8nQ","sourceTagId":47002761,"sourceTagName":"圣罗兰/女包","rawTitle":"细节po"},"price":null,"currency":"CNY","moq":1,"category":"ysl-women-bags","status":"active","alibaba_url":null,"images":["https://xcimg.szwego.com/imgHD/f8c0bdc9/20260420/cmp_i1776669330101_9444_0_8.jpg","https://xcimg.szwego.com/imgHD/f8c0bdc9/20260420/cmp_i1776669326111_7776_0_0.jpg","https://xcimg.szwego.com/imgHD/f8c0bdc9/20260420/cmp_i1776669328291_3722_0_1.jpg","https://xcimg.szwego.com/imgHD/f8c0bdc9/20260420/cmp_i1776669330076_6888_0_2.jpg","https://xcimg.szwego.com/imgHD/f8c0bdc9/20260420/cmp_i1776669328306_3976_0_3.jpg","https://xcimg.szwego.com/imgHD/f8c0bdc9/20260420/cmp_i1776669328104_6185_0_4.jpg","https://xcimg.szwego.com/imgHD/f8c0bdc9/20260420/cmp_i1776669330980_4958_0_5.jpg","https://xcimg.szwego.com/imgHD/f8c0bdc9/20260420/cmp_i1776669330033_7258_0_6.jpg","https://xcimg.szwego.com/imgHD/f8c0bdc9/20260420/cmp_i1776669326131_4780_0_7.jpg"],"created_at":"2026-06-29T10:48:58.909Z"},{"id":"item-1b6f5e7a32ff","sku":"_dIgIg5dfc8KPR5Q2kGlS29K1NlptFTUq02rGI1g","name_en":"细节po","name_cn":"细节po","specs":{"source":"wsxcme","sourceId":"_dIgIg5dfc8KPR5Q2kGlS29K1NlptFTUq02rGI1g","sourceTagId":47002761,"sourceTagName":"圣罗兰/女包","rawTitle":"细节po"},"price":null,"currency":"CNY","moq":1,"category":"ysl-women-bags","status":"active","alibaba_url":null,"images":["https://xcimg.szwego.com/img/f8c0bdc9/20240104/i1704353493_7814_0.jpg","https://xcimg.szwego.com/img/f8c0bdc9/20240104/i1704353493_8813_1.jpg","https://xcimg.szwego.com/img/f8c0bdc9/20240104/i1704353493_9180_2.jpg","https://xcimg.szwego.com/img/f8c0bdc9/20240104/i1704353493_6206_3.jpg","https://xcimg.szwego.com/img/f8c0bdc9/20240104/i1704353493_8383_4.jpg"],"created_at":"2026-05-20T04:01:39.183Z"},{"id":"item-1af792ad050b","sku":"_dnbnb-k9ronBZqqQzim0DMD1UvNe4sJw56Fu2FQ","name_en":"细节po","name_cn":"细节po","specs":{"source":"wsxcme","sourceId":"_dnbnb-k9ronBZqqQzim0DMD1UvNe4sJw56Fu2FQ","sourceTagId":47002761,"sourceTagName":"圣罗兰/女包","rawTitle":"细节po"},"price":null,"currency":"CNY","moq":1,"category":"ysl-women-bags","status":"active","alibaba_url":null,"images":["https://xcimg.szwego.com/img/c8ebba50/20240326/i1711443528_7473_0.jpg","https://xcimg.szwego.com/img/c8ebba50/20240326/i1711443529_7918_3.jpg","https://xcimg.szwego.com/img/c8ebba50/20240326/i1711443529_5739_2.jpg","https://xcimg.szwego.com/img/c8ebba50/20240326/i1711443529_7997_1.jpg"],"created_at":"2026-05-20T04:01:39.013Z"},{"id":"item-1ad85389e584","sku":"_d-M-M3c4PgWEjCC-pX62Dupj2W9Q0O2w0BpyVQQ","name_en":"细节po","name_cn":"细节po","specs":{"source":"wsxcme","sourceId":"_d-M-M3c4PgWEjCC-pX62Dupj2W9Q0O2w0BpyVQQ","sourceTagId":47002761,"sourceTagName":"圣罗兰/女包","rawTitle":"细节po"},"price":null,"currency":"CNY","moq":1,"category":"ysl-women-bags","status":"active","alibaba_url":null,"images":["https://xcimg.szwego.com/imgHD/f8c0bdc9/20260129/cmp_i1769676308094_8982_0_0.jpg","https://xcimg.szwego.com/imgHD/f8c0bdc9/20260129/cmp_i1769676308306_3378_0_1.jpg","https://xcimg.szwego.com/imgHD/f8c0bdc9/20260129/cmp_i1769676318703_5528_0_2.jpg","https://xcimg.szwego.com/imgHD/f8c0bdc9/20260129/cmp_i1769676309290_8400_0_3.jpg","https://xcimg.szwego.com/imgHD/f8c0bdc9/20260129/cmp_i1769676314324_7658_0_4.jpg","https://xcimg.szwego.com/imgHD/f8c0bdc9/20260129/cmp_i1769676320350_7210_0_5.jpg","https://xcimg.szwego.com/imgHD/f8c0bdc9/20260129/cmp_i1769676319441_4268_0_8.jpg","https://xcimg.szwego.com/imgHD/f8c0bdc9/20260129/cmp_i1769676307897_4780_0_6.jpg","https://xcimg.szwego.com/imgHD/f8c0bdc9/20260129/cmp_i1769676308085_9899_0_7.jpg"],"created_at":"2026-05-20T04:01:38.793Z"},{"id":"item-16084b210447","sku":"_d1p1pS20QTQhJJN2gU33GKrvrtFISPQ_djGUEig","name_en":"细节po","name_cn":"细节po","specs":{"source":"wsxcme","sourceId":"_d1p1pS20QTQhJJN2gU33GKrvrtFISPQ_djGUEig","sourceTagId":47002761,"sourceTagName":"圣罗兰/女包","rawTitle":"细节po"},"price":null,"currency":"CNY","moq":1,"category":"ysl-women-bags","status":"active","alibaba_url":null,"images":["https://xcimg.szwego.com/imgHD/f8c0bdc9/20250712/cmp_i1752302911007_5231_0_0.jpg","https://xcimg.szwego.com/imgHD/f8c0bdc9/20250712/cmp_i1752302911306_7683_0_1.jpg","https://xcimg.szwego.com/imgHD/f8c0bdc9/20250712/cmp_i1752302912538_3131_0_2.jpg","https://xcimg.szwego.com/imgHD/f8c0bdc9/20250712/cmp_i1752302910838_1352_0_3.jpg","https://xcimg.szwego.com/imgHD/f8c0bdc9/20250712/cmp_i1752302913179_4301_0_4.jpg","https://xcimg.szwego.com/imgHD/f8c0bdc9/20250712/cmp_i1752302913237_8685_0_5.jpg","https://xcimg.szwego.com/imgHD/f8c0bdc9/20250712/cmp_i1752302912747_3971_0_6.jpg","https://xcimg.szwego.com/imgHD/f8c0bdc9/20250712/cmp_i1752302910885_6717_0_7.jpg","https://xcimg.szwego.com/imgHD/f8c0bdc9/20250712/cmp_i1752302910862_7112_0_8.jpg"],"created_at":"2026-05-20T04:01:38.983Z"},{"id":"item-129b17d960a4","sku":"_dC-C-mWuRvjOU1_jE5ZnlB41ph8X9xAQwbc06qg","name_en":"细节po","name_cn":"细节po","specs":{"source":"wsxcme","sourceId":"_dC-C-mWuRvjOU1_jE5ZnlB41ph8X9xAQwbc06qg","sourceTagId":47002761,"sourceTagName":"圣罗兰/女包","rawTitle":"细节po"},"price":null,"currency":"CNY","moq":1,"category":"ysl-women-bags","status":"active","alibaba_url":null,"images":["https://xcimg.szwego.com/img/f8c0bdc9/20240904/i1725435108_7634_1.jpg","https://xcimg.szwego.com/img/f8c0bdc9/20240904/i1725435108_9879_3.jpg","https://xcimg.szwego.com/img/f8c0bdc9/20240904/i1725435108_7251_4.jpg","https://xcimg.szwego.com/img/f8c0bdc9/20240904/i1725435108_1318_5.jpg","https://xcimg.szwego.com/img/f8c0bdc9/20240904/i1725435108_3506_2.jpg","https://xcimg.szwego.com/img/f8c0bdc9/20240904/i1725435108_9027_0.jpg"],"created_at":"2026-05-20T04:01:39.073Z"},{"id":"item-0b391a3c000c","sku":"_dxGxGk7M-H6utS0sMrh9NjOw1SNPsZta--9ufLw","name_en":"细节po","name_cn":"细节po","specs":{"source":"wsxcme","sourceId":"_dxGxGk7M-H6utS0sMrh9NjOw1SNPsZta--9ufLw","sourceTagId":47002761,"sourceTagName":"圣罗兰/女包","rawTitle":"细节po"},"price":null,"currency":"CNY","moq":1,"category":"ysl-women-bags","status":"active","alibaba_url":null,"images":["https://xcimg.szwego.com/imgHD/f8c0bdc9/20251005/cmp_i1759655436021_7595_0_0.jpg","https://xcimg.szwego.com/imgHD/f8c0bdc9/20251005/cmp_i1759655435590_2525_0_1.jpg","https://xcimg.szwego.com/imgHD/f8c0bdc9/20251005/cmp_i1759655434321_6131_0_2.jpg","https://xcimg.szwego.com/imgHD/f8c0bdc9/20251005/cmp_i1759655434286_3121_0_3.jpg","https://xcimg.szwego.com/imgHD/f8c0bdc9/20251005/cmp_i1759655435602_8287_0_4.jpg","https://xcimg.szwego.com/imgHD/f8c0bdc9/20251005/cmp_i1759655434757_4508_0_5.jpg","https://xcimg.szwego.com/imgHD/f8c0bdc9/20251005/cmp_i1759655434354_3572_0_6.jpg","https://xcimg.szwego.com/imgHD/f8c0bdc9/20251005/cmp_i1759655434210_9506_0_7.jpg"],"created_at":"2026-05-20T04:01:39.273Z"},{"id":"item-088b38312a27","sku":"_djUjUH-TvdEKBs_PAoHZxv0QoxjB-hkTKNgPXlQ","name_en":"细节po","name_cn":"细节po","specs":{"source":"wsxcme","sourceId":"_djUjUH-TvdEKBs_PAoHZxv0QoxjB-hkTKNgPXlQ","sourceTagId":47002761,"sourceTagName":"圣罗兰/女包","rawTitle":"细节po"},"price":null,"currency":"CNY","moq":1,"category":"ysl-women-bags","status":"active","alibaba_url":null,"images":["https://xcimg.szwego.com/imgHD/f8c0bdc9/20260622/cmp_i1782118132193_449_0_0.jpg","https://xcimg.szwego.com/imgHD/f8c0bdc9/20260622/cmp_i1782118132421_4100_0_1.jpg","https://xcimg.szwego.com/imgHD/f8c0bdc9/20260622/cmp_i1782118133802_3195_0_2.jpg","https://xcimg.szwego.com/imgHD/f8c0bdc9/20260622/cmp_i1782118136567_3702_0_3.jpg","https://xcimg.szwego.com/imgHD/f8c0bdc9/20260622/cmp_i1782118133830_9280_0_4.jpg","https://xcimg.szwego.com/imgHD/f8c0bdc9/20260622/cmp_i1782118136344_5156_0_5.jpg","https://xcimg.szwego.com/imgHD/f8c0bdc9/20260622/cmp_i1782118136472_7160_0_6.jpg","https://xcimg.szwego.com/imgHD/f8c0bdc9/20260622/cmp_i1782118133603_3911_0_7.jpg"],"created_at":"2026-06-29T10:48:59.329Z"},{"id":"item-06608fd9e1c7","sku":"_dKCKCHArur4Dtj4DoEDoOYszsWWgQMvr9dPrSgw","name_en":"细节po","name_cn":"细节po","specs":{"source":"wsxcme","sourceId":"_dKCKCHArur4Dtj4DoEDoOYszsWWgQMvr9dPrSgw","sourceTagId":47002761,"sourceTagName":"圣罗兰/女包","rawTitle":"细节po"},"price":null,"currency":"CNY","moq":1,"category":"ysl-women-bags","status":"active","alibaba_url":null,"images":["https://xcimg.szwego.com/imgHD/f8c0bdc9/20251104/cmp_i1762245914161_1223_0_0.jpg","https://xcimg.szwego.com/imgHD/f8c0bdc9/20251104/cmp_i1762245917164_1545_0_1.jpg","https://xcimg.szwego.com/imgHD/f8c0bdc9/20251104/cmp_i1762245914092_6238_0_2.jpg","https://xcimg.szwego.com/imgHD/f8c0bdc9/20251104/cmp_i1762245917923_5324_0_3.jpg","https://xcimg.szwego.com/imgHD/f8c0bdc9/20251104/cmp_i1762245914007_4402_0_4.jpg","https://xcimg.szwego.com/imgHD/f8c0bdc9/20251104/cmp_i1762245913778_7860_0_5.jpg","https://xcimg.szwego.com/imgHD/f8c0bdc9/20251104/cmp_i1762245917161_8523_0_6.jpg","https://xcimg.szwego.com/imgHD/f8c0bdc9/20251104/cmp_i1762245914156_8134_0_7.jpg"],"created_at":"2026-06-29T10:48:59.089Z"}],"page":16,"pageSize":24,"total":888,"totalPages":37}
