{"items":[{"id":"item-3eb041bdbf94","sku":"_dp2p2xiErpVXkRNYHi_08-hicJxsi3aP6H3T5ww","name_en":"Detail photo","name_cn":"Detail photo","specs":{"source":"wsxcme","sourceId":"_dp2p2xiErpVXkRNYHi_08-hicJxsi3aP6H3T5ww","sourceTagId":47002761,"sourceTagName":"Saint Laurent/women's bag","rawTitle":"Detail photo"},"price":null,"currency":"CNY","moq":1,"category":"ysl-women-bags","status":"active","alibaba_url":null,"images":["https://xcimg.szwego.com/imgHD/f8c0bdc9/20251120/cmp_i1763629850901_477_0_0.jpg","https://xcimg.szwego.com/imgHD/f8c0bdc9/20251120/cmp_i1763629853959_556_0_1.jpg","https://xcimg.szwego.com/imgHD/f8c0bdc9/20251120/cmp_i1763629853926_5758_0_2.jpg","https://xcimg.szwego.com/imgHD/f8c0bdc9/20251120/cmp_i1763629852341_518_0_3.jpg","https://xcimg.szwego.com/imgHD/f8c0bdc9/20251120/cmp_i1763629852189_509_0_4.jpg","https://xcimg.szwego.com/imgHD/f8c0bdc9/20251120/cmp_i1763629853942_9030_0_5.jpg","https://xcimg.szwego.com/imgHD/f8c0bdc9/20251120/cmp_i1763629852316_7067_0_6.jpg","https://xcimg.szwego.com/imgHD/f8c0bdc9/20251120/cmp_i1763629852349_1595_0_7.jpg"],"created_at":"2026-06-29T10:48:58.619Z"},{"id":"item-3cf2a962b29b","sku":"_dEYEYvtxj5B0ZxSrXntuyEixsV84ULBxjvqtL_g","name_en":"Detail photo","name_cn":"Detail photo","specs":{"source":"wsxcme","sourceId":"_dEYEYvtxj5B0ZxSrXntuyEixsV84ULBxjvqtL_g","sourceTagId":47002761,"sourceTagName":"Saint Laurent/women's bag","rawTitle":"Detail photo"},"price":null,"currency":"CNY","moq":1,"category":"ysl-women-bags","status":"active","alibaba_url":null,"images":["https://xcimg.szwego.com/imgHD/f8c0bdc9/20251229/cmp_i1766999217288_1462_0_0.jpg","https://xcimg.szwego.com/imgHD/f8c0bdc9/20251229/cmp_i1766999222250_4507_0_1.jpg","https://xcimg.szwego.com/imgHD/f8c0bdc9/20251229/cmp_i1766999221086_8350_0_2.jpg","https://xcimg.szwego.com/imgHD/f8c0bdc9/20251229/cmp_i1766999219773_5703_0_3.jpg","https://xcimg.szwego.com/imgHD/f8c0bdc9/20251229/cmp_i1766999219532_7856_0_4.jpg","https://xcimg.szwego.com/imgHD/f8c0bdc9/20251229/cmp_i1766999219525_3735_0_5.jpg","https://xcimg.szwego.com/imgHD/f8c0bdc9/20251229/cmp_i1766999219884_7075_0_6.jpg"],"created_at":"2026-06-29T10:54:45.436Z"},{"id":"item-30c703f27517","sku":"_dOoOo4bkk8Mw18Lmf7cA0d0YxIozofROmC0UUCA","name_en":"Detail photo","name_cn":"Detail photo","specs":{"source":"wsxcme","sourceId":"_dOoOo4bkk8Mw18Lmf7cA0d0YxIozofROmC0UUCA","sourceTagId":47002761,"sourceTagName":"Saint Laurent/women's bag","rawTitle":"Detail photo"},"price":null,"currency":"CNY","moq":1,"category":"ysl-women-bags","status":"active","alibaba_url":null,"images":["https://xcimg.szwego.com/imgHD/f8c0bdc9/20250328/cmp_i1743147943911_6120_0_0.jpg","https://xcimg.szwego.com/imgHD/f8c0bdc9/20250328/cmp_i1743147943879_5782_0_1.jpg","https://xcimg.szwego.com/imgHD/f8c0bdc9/20250328/cmp_i1743147945542_249_0_2.jpg","https://xcimg.szwego.com/imgHD/f8c0bdc9/20250328/cmp_i1743147943940_5705_0_3.jpg","https://xcimg.szwego.com/imgHD/f8c0bdc9/20250328/cmp_i1743147943263_6312_0_4.jpg","https://xcimg.szwego.com/imgHD/f8c0bdc9/20250328/cmp_i1743147945063_7858_0_5.jpg","https://xcimg.szwego.com/imgHD/f8c0bdc9/20250328/cmp_i1743147942758_8229_0_6.jpg"],"created_at":"2026-05-20T04:01:39.043Z"},{"id":"item-2100f6c7295c","sku":"_d_1_1neB5DETeki98Yj893MbLcoKdwGJDuvA8nQ","name_en":"Detail photo","name_cn":"Detail photo","specs":{"source":"wsxcme","sourceId":"_d_1_1neB5DETeki98Yj893MbLcoKdwGJDuvA8nQ","sourceTagId":47002761,"sourceTagName":"Saint Laurent/women's bag","rawTitle":"Detail photo"},"price":null,"currency":"CNY","moq":1,"category":"ysl-women-bags","status":"active","alibaba_url":null,"images":["https://xcimg.szwego.com/imgHD/f8c0bdc9/20260420/cmp_i1776669330101_9444_0_8.jpg","https://xcimg.szwego.com/imgHD/f8c0bdc9/20260420/cmp_i1776669326111_7776_0_0.jpg","https://xcimg.szwego.com/imgHD/f8c0bdc9/20260420/cmp_i1776669328291_3722_0_1.jpg","https://xcimg.szwego.com/imgHD/f8c0bdc9/20260420/cmp_i1776669330076_6888_0_2.jpg","https://xcimg.szwego.com/imgHD/f8c0bdc9/20260420/cmp_i1776669328306_3976_0_3.jpg","https://xcimg.szwego.com/imgHD/f8c0bdc9/20260420/cmp_i1776669328104_6185_0_4.jpg","https://xcimg.szwego.com/imgHD/f8c0bdc9/20260420/cmp_i1776669330980_4958_0_5.jpg","https://xcimg.szwego.com/imgHD/f8c0bdc9/20260420/cmp_i1776669330033_7258_0_6.jpg","https://xcimg.szwego.com/imgHD/f8c0bdc9/20260420/cmp_i1776669326131_4780_0_7.jpg"],"created_at":"2026-06-29T10:48:58.909Z"},{"id":"item-1b6f5e7a32ff","sku":"_dIgIg5dfc8KPR5Q2kGlS29K1NlptFTUq02rGI1g","name_en":"Detail photo","name_cn":"Detail photo","specs":{"source":"wsxcme","sourceId":"_dIgIg5dfc8KPR5Q2kGlS29K1NlptFTUq02rGI1g","sourceTagId":47002761,"sourceTagName":"Saint Laurent/women's bag","rawTitle":"Detail photo"},"price":null,"currency":"CNY","moq":1,"category":"ysl-women-bags","status":"active","alibaba_url":null,"images":["https://xcimg.szwego.com/img/f8c0bdc9/20240104/i1704353493_7814_0.jpg","https://xcimg.szwego.com/img/f8c0bdc9/20240104/i1704353493_8813_1.jpg","https://xcimg.szwego.com/img/f8c0bdc9/20240104/i1704353493_9180_2.jpg","https://xcimg.szwego.com/img/f8c0bdc9/20240104/i1704353493_6206_3.jpg","https://xcimg.szwego.com/img/f8c0bdc9/20240104/i1704353493_8383_4.jpg"],"created_at":"2026-05-20T04:01:39.183Z"},{"id":"item-1af792ad050b","sku":"_dnbnb-k9ronBZqqQzim0DMD1UvNe4sJw56Fu2FQ","name_en":"Detail photo","name_cn":"Detail photo","specs":{"source":"wsxcme","sourceId":"_dnbnb-k9ronBZqqQzim0DMD1UvNe4sJw56Fu2FQ","sourceTagId":47002761,"sourceTagName":"Saint Laurent/women's bag","rawTitle":"Detail photo"},"price":null,"currency":"CNY","moq":1,"category":"ysl-women-bags","status":"active","alibaba_url":null,"images":["https://xcimg.szwego.com/img/c8ebba50/20240326/i1711443528_7473_0.jpg","https://xcimg.szwego.com/img/c8ebba50/20240326/i1711443529_7918_3.jpg","https://xcimg.szwego.com/img/c8ebba50/20240326/i1711443529_5739_2.jpg","https://xcimg.szwego.com/img/c8ebba50/20240326/i1711443529_7997_1.jpg"],"created_at":"2026-05-20T04:01:39.013Z"},{"id":"item-1ad85389e584","sku":"_d-M-M3c4PgWEjCC-pX62Dupj2W9Q0O2w0BpyVQQ","name_en":"Detail photo","name_cn":"Detail photo","specs":{"source":"wsxcme","sourceId":"_d-M-M3c4PgWEjCC-pX62Dupj2W9Q0O2w0BpyVQQ","sourceTagId":47002761,"sourceTagName":"Saint Laurent/women's bag","rawTitle":"Detail photo"},"price":null,"currency":"CNY","moq":1,"category":"ysl-women-bags","status":"active","alibaba_url":null,"images":["https://xcimg.szwego.com/imgHD/f8c0bdc9/20260129/cmp_i1769676308094_8982_0_0.jpg","https://xcimg.szwego.com/imgHD/f8c0bdc9/20260129/cmp_i1769676308306_3378_0_1.jpg","https://xcimg.szwego.com/imgHD/f8c0bdc9/20260129/cmp_i1769676318703_5528_0_2.jpg","https://xcimg.szwego.com/imgHD/f8c0bdc9/20260129/cmp_i1769676309290_8400_0_3.jpg","https://xcimg.szwego.com/imgHD/f8c0bdc9/20260129/cmp_i1769676314324_7658_0_4.jpg","https://xcimg.szwego.com/imgHD/f8c0bdc9/20260129/cmp_i1769676320350_7210_0_5.jpg","https://xcimg.szwego.com/imgHD/f8c0bdc9/20260129/cmp_i1769676319441_4268_0_8.jpg","https://xcimg.szwego.com/imgHD/f8c0bdc9/20260129/cmp_i1769676307897_4780_0_6.jpg","https://xcimg.szwego.com/imgHD/f8c0bdc9/20260129/cmp_i1769676308085_9899_0_7.jpg"],"created_at":"2026-05-20T04:01:38.793Z"},{"id":"item-16084b210447","sku":"_d1p1pS20QTQhJJN2gU33GKrvrtFISPQ_djGUEig","name_en":"Detail photo","name_cn":"Detail photo","specs":{"source":"wsxcme","sourceId":"_d1p1pS20QTQhJJN2gU33GKrvrtFISPQ_djGUEig","sourceTagId":47002761,"sourceTagName":"Saint Laurent/women's bag","rawTitle":"Detail photo"},"price":null,"currency":"CNY","moq":1,"category":"ysl-women-bags","status":"active","alibaba_url":null,"images":["https://xcimg.szwego.com/imgHD/f8c0bdc9/20250712/cmp_i1752302911007_5231_0_0.jpg","https://xcimg.szwego.com/imgHD/f8c0bdc9/20250712/cmp_i1752302911306_7683_0_1.jpg","https://xcimg.szwego.com/imgHD/f8c0bdc9/20250712/cmp_i1752302912538_3131_0_2.jpg","https://xcimg.szwego.com/imgHD/f8c0bdc9/20250712/cmp_i1752302910838_1352_0_3.jpg","https://xcimg.szwego.com/imgHD/f8c0bdc9/20250712/cmp_i1752302913179_4301_0_4.jpg","https://xcimg.szwego.com/imgHD/f8c0bdc9/20250712/cmp_i1752302913237_8685_0_5.jpg","https://xcimg.szwego.com/imgHD/f8c0bdc9/20250712/cmp_i1752302912747_3971_0_6.jpg","https://xcimg.szwego.com/imgHD/f8c0bdc9/20250712/cmp_i1752302910885_6717_0_7.jpg","https://xcimg.szwego.com/imgHD/f8c0bdc9/20250712/cmp_i1752302910862_7112_0_8.jpg"],"created_at":"2026-05-20T04:01:38.983Z"},{"id":"item-129b17d960a4","sku":"_dC-C-mWuRvjOU1_jE5ZnlB41ph8X9xAQwbc06qg","name_en":"Detail photo","name_cn":"Detail photo","specs":{"source":"wsxcme","sourceId":"_dC-C-mWuRvjOU1_jE5ZnlB41ph8X9xAQwbc06qg","sourceTagId":47002761,"sourceTagName":"Saint Laurent/women's bag","rawTitle":"Detail photo"},"price":null,"currency":"CNY","moq":1,"category":"ysl-women-bags","status":"active","alibaba_url":null,"images":["https://xcimg.szwego.com/img/f8c0bdc9/20240904/i1725435108_7634_1.jpg","https://xcimg.szwego.com/img/f8c0bdc9/20240904/i1725435108_9879_3.jpg","https://xcimg.szwego.com/img/f8c0bdc9/20240904/i1725435108_7251_4.jpg","https://xcimg.szwego.com/img/f8c0bdc9/20240904/i1725435108_1318_5.jpg","https://xcimg.szwego.com/img/f8c0bdc9/20240904/i1725435108_3506_2.jpg","https://xcimg.szwego.com/img/f8c0bdc9/20240904/i1725435108_9027_0.jpg"],"created_at":"2026-05-20T04:01:39.073Z"},{"id":"item-0b391a3c000c","sku":"_dxGxGk7M-H6utS0sMrh9NjOw1SNPsZta--9ufLw","name_en":"Detail photo","name_cn":"Detail photo","specs":{"source":"wsxcme","sourceId":"_dxGxGk7M-H6utS0sMrh9NjOw1SNPsZta--9ufLw","sourceTagId":47002761,"sourceTagName":"Saint Laurent/women's bag","rawTitle":"Detail photo"},"price":null,"currency":"CNY","moq":1,"category":"ysl-women-bags","status":"active","alibaba_url":null,"images":["https://xcimg.szwego.com/imgHD/f8c0bdc9/20251005/cmp_i1759655436021_7595_0_0.jpg","https://xcimg.szwego.com/imgHD/f8c0bdc9/20251005/cmp_i1759655435590_2525_0_1.jpg","https://xcimg.szwego.com/imgHD/f8c0bdc9/20251005/cmp_i1759655434321_6131_0_2.jpg","https://xcimg.szwego.com/imgHD/f8c0bdc9/20251005/cmp_i1759655434286_3121_0_3.jpg","https://xcimg.szwego.com/imgHD/f8c0bdc9/20251005/cmp_i1759655435602_8287_0_4.jpg","https://xcimg.szwego.com/imgHD/f8c0bdc9/20251005/cmp_i1759655434757_4508_0_5.jpg","https://xcimg.szwego.com/imgHD/f8c0bdc9/20251005/cmp_i1759655434354_3572_0_6.jpg","https://xcimg.szwego.com/imgHD/f8c0bdc9/20251005/cmp_i1759655434210_9506_0_7.jpg"],"created_at":"2026-05-20T04:01:39.273Z"},{"id":"item-088b38312a27","sku":"_djUjUH-TvdEKBs_PAoHZxv0QoxjB-hkTKNgPXlQ","name_en":"Detail photo","name_cn":"Detail photo","specs":{"source":"wsxcme","sourceId":"_djUjUH-TvdEKBs_PAoHZxv0QoxjB-hkTKNgPXlQ","sourceTagId":47002761,"sourceTagName":"Saint Laurent/women's bag","rawTitle":"Detail photo"},"price":null,"currency":"CNY","moq":1,"category":"ysl-women-bags","status":"active","alibaba_url":null,"images":["https://xcimg.szwego.com/imgHD/f8c0bdc9/20260622/cmp_i1782118132193_449_0_0.jpg","https://xcimg.szwego.com/imgHD/f8c0bdc9/20260622/cmp_i1782118132421_4100_0_1.jpg","https://xcimg.szwego.com/imgHD/f8c0bdc9/20260622/cmp_i1782118133802_3195_0_2.jpg","https://xcimg.szwego.com/imgHD/f8c0bdc9/20260622/cmp_i1782118136567_3702_0_3.jpg","https://xcimg.szwego.com/imgHD/f8c0bdc9/20260622/cmp_i1782118133830_9280_0_4.jpg","https://xcimg.szwego.com/imgHD/f8c0bdc9/20260622/cmp_i1782118136344_5156_0_5.jpg","https://xcimg.szwego.com/imgHD/f8c0bdc9/20260622/cmp_i1782118136472_7160_0_6.jpg","https://xcimg.szwego.com/imgHD/f8c0bdc9/20260622/cmp_i1782118133603_3911_0_7.jpg"],"created_at":"2026-06-29T10:48:59.329Z"},{"id":"item-06608fd9e1c7","sku":"_dKCKCHArur4Dtj4DoEDoOYszsWWgQMvr9dPrSgw","name_en":"Detail photo","name_cn":"Detail photo","specs":{"source":"wsxcme","sourceId":"_dKCKCHArur4Dtj4DoEDoOYszsWWgQMvr9dPrSgw","sourceTagId":47002761,"sourceTagName":"Saint Laurent/women's bag","rawTitle":"Detail photo"},"price":null,"currency":"CNY","moq":1,"category":"ysl-women-bags","status":"active","alibaba_url":null,"images":["https://xcimg.szwego.com/imgHD/f8c0bdc9/20251104/cmp_i1762245914161_1223_0_0.jpg","https://xcimg.szwego.com/imgHD/f8c0bdc9/20251104/cmp_i1762245917164_1545_0_1.jpg","https://xcimg.szwego.com/imgHD/f8c0bdc9/20251104/cmp_i1762245914092_6238_0_2.jpg","https://xcimg.szwego.com/imgHD/f8c0bdc9/20251104/cmp_i1762245917923_5324_0_3.jpg","https://xcimg.szwego.com/imgHD/f8c0bdc9/20251104/cmp_i1762245914007_4402_0_4.jpg","https://xcimg.szwego.com/imgHD/f8c0bdc9/20251104/cmp_i1762245913778_7860_0_5.jpg","https://xcimg.szwego.com/imgHD/f8c0bdc9/20251104/cmp_i1762245917161_8523_0_6.jpg","https://xcimg.szwego.com/imgHD/f8c0bdc9/20251104/cmp_i1762245914156_8134_0_7.jpg"],"created_at":"2026-06-29T10:48:59.089Z"},{"id":"item-ada9de3b2caa","sku":"_disisDkw8-7QmYfeT9e-ojGa3OpfAI3X2Zx-_pg","name_en":"Earth Yellow·","name_cn":"Earth Yellow·\nLE 5À7 Series New Bucket Bag with Handle_New shape, made of Italian calfskin. The bag features a simple, structured silhouette that looks structured yet not too sharp. It has metal studs at the bottom and a classic metal logo insert buckle. The overall look gives a unique blend of classic elegance and modern chic!\nModel: 742828\nSize: 26×20×12cm","specs":{"source":"wsxcme","sourceId":"_disisDkw8-7QmYfeT9e-ojGa3OpfAI3X2Zx-_pg","sourceTagId":47002761,"sourceTagName":"Saint Laurent/women's bag","modelNumber":"742828","dimensions":{"lengthCm":26,"heightCm":20,"widthCm":12},"rawTitle":"Earth Yellow·\nLE 5À7 Series New Bucket Bag with Handle_New shape, made of Italian calfskin. The bag features a simple, structured silhouette that looks structured yet not too sharp. It has metal studs at the bottom and a classic metal logo insert buckle. The overall look gives a unique blend of classic elegance and modern chic!\nModel: 742828\nSize: 26×20×12cm"},"price":null,"currency":"CNY","moq":1,"category":"ysl-women-bags","status":"active","alibaba_url":null,"images":["https://xcimg.szwego.com/img/f8c0bdc9/20241018/i1729237163_3793_6.jpg","https://xcimg.szwego.com/img/f8c0bdc9/20241018/i1729237163_7978_1.jpg","https://xcimg.szwego.com/img/f8c0bdc9/20241018/i1729237163_5183_2.jpg","https://xcimg.szwego.com/img/f8c0bdc9/20241018/i1729237163_2330_5.jpg","https://xcimg.szwego.com/img/f8c0bdc9/20241018/i1729237163_6011_7.jpg","https://xcimg.szwego.com/img/f8c0bdc9/20241018/i1729237163_7940_0.jpg","https://xcimg.szwego.com/img/f8c0bdc9/20241018/i1729237163_6453_8.jpg","https://xcimg.szwego.com/img/f8c0bdc9/20241018/i1729237163_6449_4.jpg","https://xcimg.szwego.com/img/f8c0bdc9/20241018/i1729237163_7211_3.jpg"],"created_at":"2026-06-29T10:54:45.116Z"},{"id":"item-1dd37f3ce594","sku":"_db7b7wpnCsxeVi9rSuINn7Hn_jb_4yjl-gmstnw","name_en":"Equipped with a handle and crossbody strap for convenient carrying.","name_cn":"Equipped with a handle and crossbody strap for convenient carrying.\nSimple and elegant, meeting the needs of different occasions.","specs":{"source":"wsxcme","sourceId":"_db7b7wpnCsxeVi9rSuINn7Hn_jb_4yjl-gmstnw","sourceTagId":47002761,"sourceTagName":"Saint Laurent/women's bag","rawTitle":"Equipped with a handle and crossbody strap for convenient carrying.\nSimple and elegant, meeting the needs of different occasions."},"price":null,"currency":"CNY","moq":1,"category":"ysl-women-bags","status":"active","alibaba_url":null,"images":["https://xcimg.szwego.com/imgHD/f8c0bdc9/20251209/cmp_i1765274896024_8328_0_0.jpg","https://xcimg.szwego.com/imgHD/f8c0bdc9/20251209/cmp_i1765274896001_8649_0_1.jpg","https://xcimg.szwego.com/imgHD/f8c0bdc9/20251209/cmp_i1765274896018_9931_0_2.jpg","https://xcimg.szwego.com/imgHD/f8c0bdc9/20251209/cmp_i1765274895968_68_0_3.jpg"],"created_at":"2026-06-29T10:48:58.519Z"},{"id":"item-4dd9734a9575","sku":"_dKlKlouXtcRaQx8FrtrC4ZfHL5t96yS1dU4nVGQ","name_en":"Even fairies and heartthrobs cannot resist","name_cn":"Even fairies and heartthrobs cannot resist","specs":{"source":"wsxcme","sourceId":"_dKlKlouXtcRaQx8FrtrC4ZfHL5t96yS1dU4nVGQ","sourceTagId":47002761,"sourceTagName":"Saint Laurent/women's bag","rawTitle":"Even fairies and heartthrobs cannot resist"},"price":null,"currency":"CNY","moq":1,"category":"ysl-women-bags","status":"active","alibaba_url":null,"images":["https://xcimg.szwego.com/img/fce24e4d/20240513/i1715562079_7288_2.jpg","https://xcimg.szwego.com/img/fce24e4d/20240513/i1715562079_2353_5.jpg","https://xcimg.szwego.com/img/fce24e4d/20240513/i1715562079_1855_1.jpg","https://xcimg.szwego.com/img/fce24e4d/20240513/i1715562079_548_4.jpg","https://xcimg.szwego.com/img/fce24e4d/20240513/i1715562079_7476_6.jpg","https://xcimg.szwego.com/img/fce24e4d/20240513/i1715562079_2576_0.jpg"],"created_at":"2025-07-20T03:10:54.226Z"},{"id":"item-e7812f0ee7a5","sku":"_dfLfLjveb8u64gzE3QFx8AsQBuNH5MZnkmcVISQ","name_en":"Exclusive New Arrival 🆕🆕 YSL Saint Laurent has released a bestseller ❗❗ The Saint Laurent shoulder bag, which is already very popular in the fashion world, can be used as a handbag with the crocodile leather strap. It is another bestseller, exuding a charming aura inside and out. The bag has 4 card slots, and the front pocket can hold ✨ paired with exquisite craftsmanship 😖 The quality lives up to expectations. Model=26607, Size 22x15.5x6cm","name_cn":"Exclusive New Arrival 🆕🆕 YSL Saint Laurent has released a bestseller ❗❗ The Saint Laurent shoulder bag, which is already very popular in the fashion world, can be used as a handbag with the crocodile leather strap. It is another bestseller, exuding a charming aura inside and out. The bag has 4 card slots, and the front pocket can hold ✨ paired with exquisite craftsmanship 😖 The quality lives up to expectations. Model=26607, Size 22x15.5x6cm","specs":{"source":"wsxcme","sourceId":"_dfLfLjveb8u64gzE3QFx8AsQBuNH5MZnkmcVISQ","sourceTagId":47002761,"sourceTagName":"Saint Laurent/women's bag","modelNumber":"=26607 Size22x15.5x6cm","dimensions":{"lengthCm":22,"heightCm":15.5,"widthCm":6},"rawTitle":"Exclusive New Arrival 🆕🆕 YSL Saint Laurent has released a bestseller ❗❗ The Saint Laurent shoulder bag, which is already very popular in the fashion world, can be used as a handbag with the crocodile leather strap. It is another bestseller, exuding a charming aura inside and out. The bag has 4 card slots, and the front pocket can hold ✨ paired with exquisite craftsmanship 😖 The quality lives up to expectations. Model=26607, Size 22x15.5x6cm"},"price":null,"currency":"CNY","moq":1,"category":"ysl-women-bags","status":"active","alibaba_url":null,"images":["https://xcimg.szwego.com/1559670180_3555759241_0","https://xcimg.szwego.com/1559670180_2047638203_1","https://xcimg.szwego.com/1559670180_477212297_2","https://xcimg.szwego.com/1559670180_697269671_3","https://xcimg.szwego.com/1559670180_4066648654_4","https://xcimg.szwego.com/1559670180_2384617367_5","https://xcimg.szwego.com/1559670180_1661491111_6","https://xcimg.szwego.com/1559670181_3661857706_7","https://xcimg.szwego.com/1559670181_2739976621_8"],"created_at":"2025-02-08T12:46:07.423Z"},{"id":"item-16eb4a5e33e1","sku":"_dx9x9AsMvclKbq9VpIIpwfYseNormPoWZuw4cVA","name_en":"Exclusive Premium🔥Green/Antique Gold","name_cn":"Exclusive Premium🔥Green/Antique Gold\n▪ROSE▪️Autumn/Winter New, Korean Celebrity Hobo!! The popular shoulder bag Y finally arrived!! The bag features a simple, structured silhouette that looks structured without being too sharp. Paired with the brand's signature insert buckle, it gives a unique vibe that is both classic and elegant, yet very modern and stylish👍\nModel: 713938【Genuine Leather】\nSize: 23x22x8cm","specs":{"source":"wsxcme","sourceId":"_dx9x9AsMvclKbq9VpIIpwfYseNormPoWZuw4cVA","sourceTagId":47002761,"sourceTagName":"Saint Laurent/women's bag","modelNumber":"713938【 】","dimensions":{"lengthCm":23,"heightCm":22,"widthCm":8},"rawTitle":"Exclusive Premium🔥Green/Antique Gold\n▪ROSE▪️Autumn/Winter New, Korean Celebrity Hobo!! The popular shoulder bag Y finally arrived!! The bag features a simple, structured silhouette that looks structured without being too sharp. Paired with the brand's signature insert buckle, it gives a unique vibe that is both classic and elegant, yet very modern and stylish👍\nModel: 713938【Genuine Leather】\nSize: 23x22x8cm"},"price":null,"currency":"CNY","moq":1,"category":"ysl-women-bags","status":"active","alibaba_url":null,"images":["https://xcimg.szwego.com/img/fce24e4d/20230928/i1695900872_1492_0.jpg","https://xcimg.szwego.com/img/fce24e4d/20230928/i1695900872_8452_1.jpg","https://xcimg.szwego.com/img/fce24e4d/20230928/i1695900872_7104_2.jpg","https://xcimg.szwego.com/img/fce24e4d/20230928/i1695900872_9162_3.jpg","https://xcimg.szwego.com/img/fce24e4d/20230928/i1695900872_4735_4.jpg","https://xcimg.szwego.com/img/fce24e4d/20230928/i1695900872_5167_5.jpg","https://xcimg.szwego.com/img/fce24e4d/20230928/i1695900872_7370_6.jpg","https://xcimg.szwego.com/img/fce24e4d/20230928/i1695900872_7707_7.jpg","https://xcimg.szwego.com/img/fce24e4d/20230928/i1695900872_8781_8.jpg"],"created_at":"2024-12-08T05:55:23.864Z"},{"id":"item-86119e466529","sku":"_daAaAsmPCy8YDUoYN26hS6iuX0MjRNYJheFoybw","name_en":"Exclusive Premium🔥Matte Brown/Antique Gold","name_cn":"Exclusive Premium🔥Matte Brown/Antique Gold\n▪ROSE▪️Autumn/Winter New, Korean Celebrity Hobo!! The popular shoulder bag Y finally arrived!! The bag features a simple, structured silhouette that looks structured without being too sharp. Paired with the brand's signature insert buckle, it gives a unique vibe that is both classic and elegant, yet very modern and stylish👍\nModel: 713938【Genuine Leather】\nSize: 23x22x8cm","specs":{"source":"wsxcme","sourceId":"_daAaAsmPCy8YDUoYN26hS6iuX0MjRNYJheFoybw","sourceTagId":47002761,"sourceTagName":"Saint Laurent/women's bag","modelNumber":"713938【 】","dimensions":{"lengthCm":23,"heightCm":22,"widthCm":8},"rawTitle":"Exclusive Premium🔥Matte Brown/Antique Gold\n▪ROSE▪️Autumn/Winter New, Korean Celebrity Hobo!! The popular shoulder bag Y finally arrived!! The bag features a simple, structured silhouette that looks structured without being too sharp. Paired with the brand's signature insert buckle, it gives a unique vibe that is both classic and elegant, yet very modern and stylish👍\nModel: 713938【Genuine Leather】\nSize: 23x22x8cm"},"price":null,"currency":"CNY","moq":1,"category":"ysl-women-bags","status":"active","alibaba_url":null,"images":["https://xcimg.szwego.com/img/fce24e4d/20231028/i1698486732_2456_0.jpg","https://xcimg.szwego.com/img/fce24e4d/20231028/i1698486732_9058_1.jpg","https://xcimg.szwego.com/img/fce24e4d/20231028/i1698486732_2994_2.jpg","https://xcimg.szwego.com/img/fce24e4d/20231028/i1698486732_4477_3.jpg","https://xcimg.szwego.com/img/fce24e4d/20231028/i1698486732_943_4.jpg","https://xcimg.szwego.com/img/fce24e4d/20231028/i1698486732_3365_5.jpg","https://xcimg.szwego.com/img/fce24e4d/20231028/i1698486732_5627_6.jpg","https://xcimg.szwego.com/img/fce24e4d/20231028/i1698486732_5447_7.jpg","https://xcimg.szwego.com/img/fce24e4d/20231028/i1698486732_4746_8.jpg"],"created_at":"2024-12-08T05:55:15.402Z"},{"id":"item-948cd4f02957","sku":"_dq-q-Ijk2AJ3cC30PWgCMfbCgbxhkAl-qRsomRA","name_en":"Exclusive Premium🔥Matte Wheat Gold/Antique Gold","name_cn":"Exclusive Premium🔥Matte Wheat Gold/Antique Gold\n▪ROSE▪️Autumn/Winter New, Korean Celebrity Hobo!! The popular shoulder bag Y finally arrived!! The bag features a simple, structured silhouette that looks structured without being too sharp. Paired with the brand's signature insert buckle, it gives a unique vibe that is both classic and elegant, yet very modern and stylish👍\nModel: 713938【Genuine Leather】\nSize: 23x22x8cm","specs":{"source":"wsxcme","sourceId":"_dq-q-Ijk2AJ3cC30PWgCMfbCgbxhkAl-qRsomRA","sourceTagId":47002761,"sourceTagName":"Saint Laurent/women's bag","modelNumber":"713938【 】","dimensions":{"lengthCm":23,"heightCm":22,"widthCm":8},"rawTitle":"Exclusive Premium🔥Matte Wheat Gold/Antique Gold\n▪ROSE▪️Autumn/Winter New, Korean Celebrity Hobo!! The popular shoulder bag Y finally arrived!! The bag features a simple, structured silhouette that looks structured without being too sharp. Paired with the brand's signature insert buckle, it gives a unique vibe that is both classic and elegant, yet very modern and stylish👍\nModel: 713938【Genuine Leather】\nSize: 23x22x8cm"},"price":null,"currency":"CNY","moq":1,"category":"ysl-women-bags","status":"active","alibaba_url":null,"images":["https://xcimg.szwego.com/img/fce24e4d/20231028/i1698486905_5271_0.jpg","https://xcimg.szwego.com/img/fce24e4d/20231028/i1698486905_5115_1.jpg","https://xcimg.szwego.com/img/fce24e4d/20231028/i1698486905_5788_2.jpg","https://xcimg.szwego.com/img/fce24e4d/20231028/i1698486905_1557_3.jpg","https://xcimg.szwego.com/img/fce24e4d/20231028/i1698486905_8051_4.jpg","https://xcimg.szwego.com/img/fce24e4d/20231028/i1698486905_2132_5.jpg","https://xcimg.szwego.com/img/fce24e4d/20231028/i1698486905_2992_6.jpg","https://xcimg.szwego.com/img/fce24e4d/20231028/i1698486905_9224_7.jpg","https://xcimg.szwego.com/img/fce24e4d/20231028/i1698486905_8431_8.jpg"],"created_at":"2024-12-08T05:55:06.711Z"},{"id":"item-bf63cf96efae","sku":"_dejejvRYbMSc5l6HMsEQglX6uUb3h3S81cW1fMw","name_en":"Folded accordion bag, 3D and stylish","name_cn":"Folded accordion bag, 3D and stylish\nAdjustable shoulder strap, a French lazy chic look instantly achieved!","specs":{"source":"wsxcme","sourceId":"_dejejvRYbMSc5l6HMsEQglX6uUb3h3S81cW1fMw","sourceTagId":47002761,"sourceTagName":"Saint Laurent/women's bag","rawTitle":"Folded accordion bag, 3D and stylish\nAdjustable shoulder strap, a French lazy chic look instantly achieved!"},"price":null,"currency":"CNY","moq":1,"category":"ysl-women-bags","status":"active","alibaba_url":null,"images":["https://xcimg.szwego.com/imgHD/f8c0bdc9/20260129/cmp_i1769673371319_9526_0_0.jpg","https://xcimg.szwego.com/imgHD/f8c0bdc9/20260129/cmp_i1769673371370_1031_0_1.jpg","https://xcimg.szwego.com/imgHD/f8c0bdc9/20260129/cmp_i1769673371404_2792_0_2.jpg","https://xcimg.szwego.com/imgHD/f8c0bdc9/20260129/cmp_i1769673371336_200_0_3.jpg"],"created_at":"2026-06-29T10:48:58.719Z"},{"id":"item-2da1da35757b","sku":"_dofofJZ1ZDYjePEqKjC02d2eQvRinqiVLqP8RiQ","name_en":"Folded accordion style, structured and stylish","name_cn":"Folded accordion style, structured and stylish\nEquipped with a brass lock, simple and elegant","specs":{"source":"wsxcme","sourceId":"_dofofJZ1ZDYjePEqKjC02d2eQvRinqiVLqP8RiQ","sourceTagId":47002761,"sourceTagName":"Saint Laurent/women's bag","rawTitle":"Folded accordion style, structured and stylish\nEquipped with a brass lock, simple and elegant"},"price":null,"currency":"CNY","moq":1,"category":"ysl-women-bags","status":"active","alibaba_url":null,"images":["https://xcimg.szwego.com/imgHD/f8c0bdc9/20251120/cmp_i1763629512892_7923_0_0.jpg","https://xcimg.szwego.com/imgHD/f8c0bdc9/20251120/cmp_i1763629512874_310_0_1.jpg","https://xcimg.szwego.com/imgHD/f8c0bdc9/20251120/cmp_i1763629512884_9007_0_2.jpg","https://xcimg.szwego.com/imgHD/f8c0bdc9/20251120/cmp_i1763629512877_2752_0_3.jpg"],"created_at":"2026-06-29T10:48:58.599Z"},{"id":"item-2bbbfb78f5fc","sku":"_dmHmH1Dpw_n8UFhFFC7gobY5Pk2lyv2-fY32NdQ","name_en":"Full of a relaxed vibe! It looks so good 😎","name_cn":"Full of a relaxed vibe! It looks so good 😎","specs":{"source":"wsxcme","sourceId":"_dmHmH1Dpw_n8UFhFFC7gobY5Pk2lyv2-fY32NdQ","sourceTagId":47002761,"sourceTagName":"Saint Laurent/women's bag","rawTitle":"Full of a relaxed vibe! It looks so good 😎"},"price":null,"currency":"CNY","moq":1,"category":"ysl-women-bags","status":"active","alibaba_url":null,"images":["https://xcimg.szwego.com/img/fce24e4d/20240913/i1726199901_9460_3.jpg","https://xcimg.szwego.com/img/fce24e4d/20240913/i1726199901_9215_1.jpg","https://xcimg.szwego.com/img/fce24e4d/20240913/i1726199901_1403_2.jpg","https://xcimg.szwego.com/img/fce24e4d/20240913/i1726199901_4083_0.jpg"],"created_at":"2025-07-20T03:05:44.253Z"},{"id":"item-173671916a9a","sku":"_dFfFf4zHN6Px29DcXWX7KIZeZX4uRDUzatzuK2g","name_en":"Gaby Vanity","name_cn":"Gaby Vanity\nUnderstated luxury, timeless silhouette","specs":{"source":"wsxcme","sourceId":"_dFfFf4zHN6Px29DcXWX7KIZeZX4uRDUzatzuK2g","sourceTagId":47002761,"sourceTagName":"Saint Laurent/women's bag","rawTitle":"Gaby Vanity\nUnderstated luxury, timeless silhouette"},"price":null,"currency":"CNY","moq":1,"category":"ysl-women-bags","status":"active","alibaba_url":null,"images":["https://xcimg.szwego.com/imgHD/f8c0bdc9/20260129/cmp_i1769677083582_5175_0_0.jpg","https://xcimg.szwego.com/imgHD/f8c0bdc9/20260129/cmp_i1769677083607_2091_0_1.jpg","https://xcimg.szwego.com/imgHD/f8c0bdc9/20260129/cmp_i1769677083604_2022_0_2.jpg","https://xcimg.szwego.com/imgHD/f8c0bdc9/20260129/cmp_i1769677083566_7125_0_3.jpg"],"created_at":"2026-05-20T04:01:38.863Z"},{"id":"item-8b04595225d7","sku":"_doToTJTC0DX7mMUcO_6VO4kESFOA__j_566VgEg","name_en":"Give me a reason to say no to it 😁","name_cn":"Give me a reason to say no to it 😁\nHow can you not love such a cute mini hobo!","specs":{"source":"wsxcme","sourceId":"_doToTJTC0DX7mMUcO_6VO4kESFOA__j_566VgEg","sourceTagId":47002761,"sourceTagName":"Saint Laurent/women's bag","rawTitle":"Give me a reason to say no to it 😁\nHow can you not love such a cute mini hobo!"},"price":null,"currency":"CNY","moq":1,"category":"ysl-women-bags","status":"active","alibaba_url":null,"images":["https://xcimg.szwego.com/img/a2a6846e/20240630/i1719727965_1325_2.jpg","https://xcimg.szwego.com/img/a2a6846e/20240630/i1719727965_3022_0.jpg","https://xcimg.szwego.com/img/a2a6846e/20240630/i1719727965_9119_3.jpg","https://xcimg.szwego.com/img/a2a6846e/20240630/i1719727965_7632_4.jpg","https://xcimg.szwego.com/img/a2a6846e/20240630/i1719728085_5172_0.jpg"],"created_at":"2025-07-20T03:05:44.176Z"}],"page":20,"pageSize":24,"total":888,"totalPages":37}
