{"items":[{"id":"item-74b2bc1ef204","sku":"_diHiH0UoL2RjBrd64KOd8dBwoe-iErhXTPVSdhw","name_en":"。💕《配全套原厂绿盒包装》💕GG👉《古驰创星说》(Gucci Cosmogonie)系列在意大利历史悠久的蒙特城堡亮相。秀场上,不同时代、不同地理位置的美学元素交相辉映,将过去与当下相连结。这一全新的新月造型肩背包是秀场单品之一,它从品牌典藏元素汲取灵感,采用柔软皮革材质呈现,并饰有在20世纪70年代亮相的双G标志。紫色软皮,闪亮金色调配件,内部:1个","name_cn":"。💕《配全套原厂绿盒包装》💕GG👉《古驰创星说》(Gucci Cosmogonie)系列在意大利历史悠久的蒙特城堡亮相。秀场上,不同时代、不同地理位置的美学元素交相辉映,将过去与当下相连结。这一全新的新月造型肩背包是秀场单品之一,它从品牌典藏元素汲取灵感,采用柔软皮革材质呈现,并饰有在20世纪70年代亮相的双G标志。紫色软皮,闪亮金色调配件,内部:1个拉链口袋,这款手袋附赠额外的肩带,可通过搭扣固定在手袋上,提手可调节肩带,饰双G磁吸搭扣。\n型号:726274。\n尺寸:39(宽)x 38(高)x 2(深)\n颜色:紫色/原厂皮。","specs":{"source":"wsxcme","sourceId":"_diHiH0UoL2RjBrd64KOd8dBwoe-iErhXTPVSdhw","sourceTagId":47002679,"sourceTagName":"古驰/女包","modelNumber":"726274","rawTitle":"。💕《配全套原厂绿盒包装》💕GG👉《古驰创星说》(Gucci Cosmogonie)系列在意大利历史悠久的蒙特城堡亮相。秀场上,不同时代、不同地理位置的美学元素交相辉映,将过去与当下相连结。这一全新的新月造型肩背包是秀场单品之一,它从品牌典藏元素汲取灵感,采用柔软皮革材质呈现,并饰有在20世纪70年代亮相的双G标志。紫色软皮,闪亮金色调配件,内部:1个拉链口袋,这款手袋附赠额外的肩带,可通过搭扣固定在手袋上,提手可调节肩带,饰双G磁吸搭扣。\n型号:726274。\n尺寸:39(宽)x 38(高)x 2(深)\n颜色:紫色/原厂皮。"},"price":null,"currency":"CNY","moq":1,"category":"gucci-women-bags","status":"active","alibaba_url":null,"images":["https://xcimg.szwego.com/20230103/i1672753006_4019_0.jpg","https://xcimg.szwego.com/20230103/i1672753006_6377_1.jpg","https://xcimg.szwego.com/20230103/i1672753006_1182_2.jpg","https://xcimg.szwego.com/20230103/i1672753006_5230_3.jpg","https://xcimg.szwego.com/20230103/i1672753006_9071_4.jpg","https://xcimg.szwego.com/20230103/i1672753006_3842_5.jpg","https://xcimg.szwego.com/20230103/i1672753006_6068_6.jpg","https://xcimg.szwego.com/20230103/i1672753006_1625_7.jpg","https://xcimg.szwego.com/20230103/i1672753006_475_8.jpg"],"created_at":"2024-05-01T03:19:15.869Z"},{"id":"item-206cadc7d525","sku":"_dOFOFnIVQHAF_XVPGx2QsL9g2cIrmcCtX35y9uQ","name_en":"。💕《配全套原厂绿盒包装》💕GG👉《古驰创星说》(Gucci Cosmogonie)系列在意大利历史悠久的蒙特城堡亮相。秀场上,不同时代、不同地理位置的美学元素交相辉映,将过去与当下相连结。这一全新的新月造型肩背包是秀场单品之一,它从品牌典藏元素汲取灵感,采用柔软皮革材质呈现,并饰有在20世纪70年代亮相的双G标志。浅棕色软皮,闪亮金色调配件,内部:1","name_cn":"。💕《配全套原厂绿盒包装》💕GG👉《古驰创星说》(Gucci Cosmogonie)系列在意大利历史悠久的蒙特城堡亮相。秀场上,不同时代、不同地理位置的美学元素交相辉映,将过去与当下相连结。这一全新的新月造型肩背包是秀场单品之一,它从品牌典藏元素汲取灵感,采用柔软皮革材质呈现,并饰有在20世纪70年代亮相的双G标志。浅棕色软皮,闪亮金色调配件,内部:1个拉链口袋,这款手袋附赠额外的肩带,可通过搭扣固定在手袋上,提手可调节肩带,饰双G磁吸搭扣。\n型号:726274。\n尺寸:39(宽)x 38(高)x 2(深)\n颜色:浅棕色/原厂皮。","specs":{"source":"wsxcme","sourceId":"_dOFOFnIVQHAF_XVPGx2QsL9g2cIrmcCtX35y9uQ","sourceTagId":47002679,"sourceTagName":"古驰/女包","modelNumber":"726274","rawTitle":"。💕《配全套原厂绿盒包装》💕GG👉《古驰创星说》(Gucci Cosmogonie)系列在意大利历史悠久的蒙特城堡亮相。秀场上,不同时代、不同地理位置的美学元素交相辉映,将过去与当下相连结。这一全新的新月造型肩背包是秀场单品之一,它从品牌典藏元素汲取灵感,采用柔软皮革材质呈现,并饰有在20世纪70年代亮相的双G标志。浅棕色软皮,闪亮金色调配件,内部:1个拉链口袋,这款手袋附赠额外的肩带,可通过搭扣固定在手袋上,提手可调节肩带,饰双G磁吸搭扣。\n型号:726274。\n尺寸:39(宽)x 38(高)x 2(深)\n颜色:浅棕色/原厂皮。"},"price":null,"currency":"CNY","moq":1,"category":"gucci-women-bags","status":"active","alibaba_url":null,"images":["https://xcimg.szwego.com/20221205/i1670246681_2444_0.jpg","https://xcimg.szwego.com/20221205/i1670246681_3751_1.jpg","https://xcimg.szwego.com/20221205/i1670246681_585_2.jpg","https://xcimg.szwego.com/20221205/i1670246681_8336_3.jpg","https://xcimg.szwego.com/20221205/i1670246681_2066_4.jpg","https://xcimg.szwego.com/20221205/i1670246681_3132_5.jpg","https://xcimg.szwego.com/20221205/i1670246681_9145_6.jpg","https://xcimg.szwego.com/20221205/i1670246681_344_7.jpg","https://xcimg.szwego.com/20221205/i1670246681_6630_8.jpg"],"created_at":"2024-05-01T03:19:15.868Z"},{"id":"item-75afc5b4be38","sku":"_dkhkhYkh9CqpVgs5YplHryWpq1sGWTF9Uawj84g","name_en":"。💕《配全套原厂绿盒包装》💕GG👉《古驰创星说》(Gucci Cosmogonie)系列在意大利历史悠久的蒙特城堡亮相。秀场上,不同时代、不同地理位置的美学元素交相辉映,将过去与当下相连结。这一全新的新月造型肩背包是秀场单品之一,它从品牌典藏元素汲取灵感,采用柔软皮革材质呈现,并饰有在20世纪70年代亮相的双G标志。粉色软皮,闪亮金色调配件,内部:1个","name_cn":"。💕《配全套原厂绿盒包装》💕GG👉《古驰创星说》(Gucci Cosmogonie)系列在意大利历史悠久的蒙特城堡亮相。秀场上,不同时代、不同地理位置的美学元素交相辉映,将过去与当下相连结。这一全新的新月造型肩背包是秀场单品之一,它从品牌典藏元素汲取灵感,采用柔软皮革材质呈现,并饰有在20世纪70年代亮相的双G标志。粉色软皮,闪亮金色调配件,内部:1个拉链口袋,这款手袋附赠额外的肩带,可通过搭扣固定在手袋上,提手可调节肩带,饰双G磁吸搭扣。\n型号:726274。\n尺寸:39(宽)x 38(高)x 2(深)\n颜色:粉色/原厂皮。","specs":{"source":"wsxcme","sourceId":"_dkhkhYkh9CqpVgs5YplHryWpq1sGWTF9Uawj84g","sourceTagId":47002679,"sourceTagName":"古驰/女包","modelNumber":"726274","rawTitle":"。💕《配全套原厂绿盒包装》💕GG👉《古驰创星说》(Gucci Cosmogonie)系列在意大利历史悠久的蒙特城堡亮相。秀场上,不同时代、不同地理位置的美学元素交相辉映,将过去与当下相连结。这一全新的新月造型肩背包是秀场单品之一,它从品牌典藏元素汲取灵感,采用柔软皮革材质呈现,并饰有在20世纪70年代亮相的双G标志。粉色软皮,闪亮金色调配件,内部:1个拉链口袋,这款手袋附赠额外的肩带,可通过搭扣固定在手袋上,提手可调节肩带,饰双G磁吸搭扣。\n型号:726274。\n尺寸:39(宽)x 38(高)x 2(深)\n颜色:粉色/原厂皮。"},"price":null,"currency":"CNY","moq":1,"category":"gucci-women-bags","status":"active","alibaba_url":null,"images":["https://xcimg.szwego.com/20221204/i1670094958_1046_0.jpg","https://xcimg.szwego.com/20221204/i1670094958_2363_1.jpg","https://xcimg.szwego.com/20221204/i1670094958_8206_2.jpg","https://xcimg.szwego.com/20221204/i1670094958_4576_3.jpg","https://xcimg.szwego.com/20221204/i1670094958_4716_4.jpg","https://xcimg.szwego.com/20221204/i1670094958_1432_5.jpg","https://xcimg.szwego.com/20221204/i1670094958_3763_6.jpg","https://xcimg.szwego.com/20221204/i1670094958_9951_7.jpg","https://xcimg.szwego.com/20221204/i1670094958_6601_8.jpg"],"created_at":"2024-05-01T03:19:15.867Z"},{"id":"item-49f1a2a56c53","sku":"_dkMkMEqmUldXd40qxBQRYx0-7FCpOv8s0jShuHg","name_en":"。💕《配全套原厂绿盒包装》💕GG👉《古驰创星说》(Gucci Cosmogonie)系列在意大利历史悠久的蒙特城堡亮相。秀场上,不同时代、不同地理位置的美学元素交相辉映,将过去与当下相连结。这一全新的新月造型肩背包是秀场单品之一,它从品牌典藏元素汲取灵感,采用柔软皮革材质呈现,并饰有在20世纪70年代亮相的双G标志。白色软皮,闪亮金色调配件,内部:1个","name_cn":"。💕《配全套原厂绿盒包装》💕GG👉《古驰创星说》(Gucci Cosmogonie)系列在意大利历史悠久的蒙特城堡亮相。秀场上,不同时代、不同地理位置的美学元素交相辉映,将过去与当下相连结。这一全新的新月造型肩背包是秀场单品之一,它从品牌典藏元素汲取灵感,采用柔软皮革材质呈现,并饰有在20世纪70年代亮相的双G标志。白色软皮,闪亮金色调配件,内部:1个拉链口袋,这款手袋附赠额外的肩带,可通过搭扣固定在手袋上,提手可调节肩带,饰双G磁吸搭扣。\n型号:726274。\n尺寸:39(宽)x 38(高)x 2(深)\n颜色:白色/原厂皮。","specs":{"source":"wsxcme","sourceId":"_dkMkMEqmUldXd40qxBQRYx0-7FCpOv8s0jShuHg","sourceTagId":47002679,"sourceTagName":"古驰/女包","modelNumber":"726274","rawTitle":"。💕《配全套原厂绿盒包装》💕GG👉《古驰创星说》(Gucci Cosmogonie)系列在意大利历史悠久的蒙特城堡亮相。秀场上,不同时代、不同地理位置的美学元素交相辉映,将过去与当下相连结。这一全新的新月造型肩背包是秀场单品之一,它从品牌典藏元素汲取灵感,采用柔软皮革材质呈现,并饰有在20世纪70年代亮相的双G标志。白色软皮,闪亮金色调配件,内部:1个拉链口袋,这款手袋附赠额外的肩带,可通过搭扣固定在手袋上,提手可调节肩带,饰双G磁吸搭扣。\n型号:726274。\n尺寸:39(宽)x 38(高)x 2(深)\n颜色:白色/原厂皮。"},"price":null,"currency":"CNY","moq":1,"category":"gucci-women-bags","status":"active","alibaba_url":null,"images":["https://xcimg.szwego.com/20221204/i1670094989_4716_0.jpg","https://xcimg.szwego.com/20221204/i1670094989_9833_1.jpg","https://xcimg.szwego.com/20221204/i1670094989_2073_2.jpg","https://xcimg.szwego.com/20221204/i1670094989_9060_3.jpg","https://xcimg.szwego.com/20221204/i1670094989_5034_4.jpg","https://xcimg.szwego.com/20221204/i1670094989_8305_5.jpg","https://xcimg.szwego.com/20221204/i1670094989_1967_6.jpg","https://xcimg.szwego.com/20221204/i1670094989_6983_7.jpg","https://xcimg.szwego.com/20221204/i1670094989_5261_8.jpg"],"created_at":"2024-05-01T03:19:15.866Z"},{"id":"item-90999bc9b1b5","sku":"_dvSvSXdYtHCfOArSHAu-PCmOrzwNbo4QJe7qVjA","name_en":"。💕《配全套原厂绿盒包装》💕GG👉《古驰创星说》(Gucci Cosmogonie)系列在意大利历史悠久的蒙特城堡亮相。秀场上,不同时代、不同地理位置的美学元素交相辉映,将过去与当下相连结。这一全新的新月造型肩背包是秀场单品之一,它从品牌典藏元素汲取灵感,采用柔软皮革材质呈现,并饰有在20世纪70年代亮相的双G标志。红色软皮,闪亮金色调配件,内部:1个","name_cn":"。💕《配全套原厂绿盒包装》💕GG👉《古驰创星说》(Gucci Cosmogonie)系列在意大利历史悠久的蒙特城堡亮相。秀场上,不同时代、不同地理位置的美学元素交相辉映,将过去与当下相连结。这一全新的新月造型肩背包是秀场单品之一,它从品牌典藏元素汲取灵感,采用柔软皮革材质呈现,并饰有在20世纪70年代亮相的双G标志。红色软皮,闪亮金色调配件,内部:1个拉链口袋,这款手袋附赠额外的肩带,可通过搭扣固定在手袋上,提手可调节肩带,饰双G磁吸搭扣。\n型号:726274。\n尺寸:39(宽)x 38(高)x 2(深)\n颜色:红色/原厂皮。","specs":{"source":"wsxcme","sourceId":"_dvSvSXdYtHCfOArSHAu-PCmOrzwNbo4QJe7qVjA","sourceTagId":47002679,"sourceTagName":"古驰/女包","modelNumber":"726274","rawTitle":"。💕《配全套原厂绿盒包装》💕GG👉《古驰创星说》(Gucci Cosmogonie)系列在意大利历史悠久的蒙特城堡亮相。秀场上,不同时代、不同地理位置的美学元素交相辉映,将过去与当下相连结。这一全新的新月造型肩背包是秀场单品之一,它从品牌典藏元素汲取灵感,采用柔软皮革材质呈现,并饰有在20世纪70年代亮相的双G标志。红色软皮,闪亮金色调配件,内部:1个拉链口袋,这款手袋附赠额外的肩带,可通过搭扣固定在手袋上,提手可调节肩带,饰双G磁吸搭扣。\n型号:726274。\n尺寸:39(宽)x 38(高)x 2(深)\n颜色:红色/原厂皮。"},"price":null,"currency":"CNY","moq":1,"category":"gucci-women-bags","status":"active","alibaba_url":null,"images":["https://xcimg.szwego.com/20221204/i1670094924_8862_0.jpg","https://xcimg.szwego.com/20221204/i1670094924_2009_1.jpg","https://xcimg.szwego.com/20221204/i1670094924_2568_2.jpg","https://xcimg.szwego.com/20221204/i1670094924_2963_3.jpg","https://xcimg.szwego.com/20221204/i1670094924_4996_4.jpg","https://xcimg.szwego.com/20221204/i1670094924_829_5.jpg","https://xcimg.szwego.com/20221204/i1670094924_1430_6.jpg","https://xcimg.szwego.com/20221204/i1670094924_9606_7.jpg","https://xcimg.szwego.com/20221204/i1670094924_1193_8.jpg"],"created_at":"2024-05-01T03:19:15.865Z"},{"id":"item-79dbde86d494","sku":"_dwVwVbGtanVpOf_YX6TYoecy71M1tqO_hkPsX0w","name_en":"。💕《配全套原厂绿盒包装》💕GG👉《古驰创星说》(Gucci Cosmogonie)系列在意大利历史悠久的蒙特城堡亮相。秀场上,不同时代、不同地理位置的美学元素交相辉映,将过去与当下相连结。这一全新的新月造型肩背包是秀场单品之一,它从品牌典藏元素汲取灵感,采用柔软皮革材质呈现,并饰有在20世纪70年代亮相的双G标志。黑色软皮,闪亮金色调配件,内部:1个","name_cn":"。💕《配全套原厂绿盒包装》💕GG👉《古驰创星说》(Gucci Cosmogonie)系列在意大利历史悠久的蒙特城堡亮相。秀场上,不同时代、不同地理位置的美学元素交相辉映,将过去与当下相连结。这一全新的新月造型肩背包是秀场单品之一,它从品牌典藏元素汲取灵感,采用柔软皮革材质呈现,并饰有在20世纪70年代亮相的双G标志。黑色软皮,闪亮金色调配件,内部:1个拉链口袋,这款手袋附赠额外的肩带,可通过搭扣固定在手袋上,提手可调节肩带,饰双G磁吸搭扣。\n型号:726274。\n尺寸:39(宽)x 38(高)x 2(深)\n颜色:黑色/原厂皮。","specs":{"source":"wsxcme","sourceId":"_dwVwVbGtanVpOf_YX6TYoecy71M1tqO_hkPsX0w","sourceTagId":47002679,"sourceTagName":"古驰/女包","modelNumber":"726274","rawTitle":"。💕《配全套原厂绿盒包装》💕GG👉《古驰创星说》(Gucci Cosmogonie)系列在意大利历史悠久的蒙特城堡亮相。秀场上,不同时代、不同地理位置的美学元素交相辉映,将过去与当下相连结。这一全新的新月造型肩背包是秀场单品之一,它从品牌典藏元素汲取灵感,采用柔软皮革材质呈现,并饰有在20世纪70年代亮相的双G标志。黑色软皮,闪亮金色调配件,内部:1个拉链口袋,这款手袋附赠额外的肩带,可通过搭扣固定在手袋上,提手可调节肩带,饰双G磁吸搭扣。\n型号:726274。\n尺寸:39(宽)x 38(高)x 2(深)\n颜色:黑色/原厂皮。"},"price":null,"currency":"CNY","moq":1,"category":"gucci-women-bags","status":"active","alibaba_url":null,"images":["https://xcimg.szwego.com/20221110/i1668091276_4653_0.jpg","https://xcimg.szwego.com/20221110/i1668091276_478_1.jpg","https://xcimg.szwego.com/20221110/i1668091276_1720_2.jpg","https://xcimg.szwego.com/20221110/i1668091276_9098_3.jpg","https://xcimg.szwego.com/20221110/i1668091276_4768_4.jpg","https://xcimg.szwego.com/20221110/i1668091276_2799_5.jpg","https://xcimg.szwego.com/20221110/i1668091276_9037_6.jpg","https://xcimg.szwego.com/20221110/i1668091276_2511_7.jpg","https://xcimg.szwego.com/20221110/i1668091276_785_8.jpg"],"created_at":"2024-05-01T03:19:15.864Z"},{"id":"item-4147518b2190","sku":"_dqsqsA3gkcY3MBJrzPuw5cIpel1aQntmxH4vkwA","name_en":"。💕《配全套原厂绿盒包装》💕GG👉《古驰创星说》(Gucci Cosmogonie)系列在意大利历史悠久的蒙特城堡亮相。秀场上,不同时代、不同地理位置的美学元素交相辉映,将过去与当下相连结。这一全新的新月造型肩背包是秀场单品之一,它从品牌典藏元素汲取灵感,采用柔软皮革材质呈现,并饰有在20世纪70年代亮相的双G标志。绿色软皮,闪亮金色调配件,内部:1个","name_cn":"。💕《配全套原厂绿盒包装》💕GG👉《古驰创星说》(Gucci Cosmogonie)系列在意大利历史悠久的蒙特城堡亮相。秀场上,不同时代、不同地理位置的美学元素交相辉映,将过去与当下相连结。这一全新的新月造型肩背包是秀场单品之一,它从品牌典藏元素汲取灵感,采用柔软皮革材质呈现,并饰有在20世纪70年代亮相的双G标志。绿色软皮,闪亮金色调配件,内部:1个拉链口袋,这款手袋附赠额外的肩带,可通过搭扣固定在手袋上,提手可调节肩带,饰双G磁吸搭扣。\n型号:726274。\n尺寸:39(宽)x 38(高)x 2(深)\n颜色:绿色/原厂皮。","specs":{"source":"wsxcme","sourceId":"_dqsqsA3gkcY3MBJrzPuw5cIpel1aQntmxH4vkwA","sourceTagId":47002679,"sourceTagName":"古驰/女包","modelNumber":"726274","rawTitle":"。💕《配全套原厂绿盒包装》💕GG👉《古驰创星说》(Gucci Cosmogonie)系列在意大利历史悠久的蒙特城堡亮相。秀场上,不同时代、不同地理位置的美学元素交相辉映,将过去与当下相连结。这一全新的新月造型肩背包是秀场单品之一,它从品牌典藏元素汲取灵感,采用柔软皮革材质呈现,并饰有在20世纪70年代亮相的双G标志。绿色软皮,闪亮金色调配件,内部:1个拉链口袋,这款手袋附赠额外的肩带,可通过搭扣固定在手袋上,提手可调节肩带,饰双G磁吸搭扣。\n型号:726274。\n尺寸:39(宽)x 38(高)x 2(深)\n颜色:绿色/原厂皮。"},"price":null,"currency":"CNY","moq":1,"category":"gucci-women-bags","status":"active","alibaba_url":null,"images":["https://xcimg.szwego.com/20221114/i1668436489_3084_0.jpg","https://xcimg.szwego.com/20221114/i1668436489_226_1.jpg","https://xcimg.szwego.com/20221114/i1668436489_3897_2.jpg","https://xcimg.szwego.com/20221114/i1668436489_5951_3.jpg","https://xcimg.szwego.com/20221114/i1668436489_8126_4.jpg","https://xcimg.szwego.com/20221114/i1668436489_8831_5.jpg","https://xcimg.szwego.com/20221114/i1668436489_1875_6.jpg","https://xcimg.szwego.com/20221114/i1668436489_5107_7.jpg","https://xcimg.szwego.com/20221114/i1668436489_6927_8.jpg"],"created_at":"2024-05-01T03:19:15.862Z"},{"id":"item-8d73d800ab35","sku":"_dwvwvh8ErRKTX-T3m7vPS-LS0tC8ssDJauam84w","name_en":"。💖《配全套原厂绿盒包装》💖GG Marmont系列迷你肩背包。金色调双G造型配件不仅是GG Marmont系列的标志性元素,亦是对Gucci典藏图案的现代化演绎。这款白色皮革迷你肩背包配有链式包带和拉链开合,内部设有两个卡片隔层,可轻松收纳各类卡片。白色皮革,金色调配件,塔夫绸衬里双G,内部:两个卡片隔层,链式包带(57厘米高)拉链开合。","name_cn":"。💖《配全套原厂绿盒包装》💖GG Marmont系列迷你肩背包。金色调双G造型配件不仅是GG Marmont系列的标志性元素,亦是对Gucci典藏图案的现代化演绎。这款白色皮革迷你肩背包配有链式包带和拉链开合,内部设有两个卡片隔层,可轻松收纳各类卡片。白色皮革,金色调配件,塔夫绸衬里双G,内部:两个卡片隔层,链式包带(57厘米高)拉链开合。\n型号:772759。\n尺寸:11(长)x 18.5(宽)x 4cm(厚)\n颜色:白色/原厂皮。\n意大利创作\n重量:约0.3千克","specs":{"source":"wsxcme","sourceId":"_dwvwvh8ErRKTX-T3m7vPS-LS0tC8ssDJauam84w","sourceTagId":47002679,"sourceTagName":"古驰/女包","modelNumber":"772759","rawTitle":"。💖《配全套原厂绿盒包装》💖GG Marmont系列迷你肩背包。金色调双G造型配件不仅是GG Marmont系列的标志性元素,亦是对Gucci典藏图案的现代化演绎。这款白色皮革迷你肩背包配有链式包带和拉链开合,内部设有两个卡片隔层,可轻松收纳各类卡片。白色皮革,金色调配件,塔夫绸衬里双G,内部:两个卡片隔层,链式包带(57厘米高)拉链开合。\n型号:772759。\n尺寸:11(长)x 18.5(宽)x 4cm(厚)\n颜色:白色/原厂皮。\n意大利创作\n重量:约0.3千克"},"price":null,"currency":"CNY","moq":1,"category":"gucci-women-bags","status":"active","alibaba_url":null,"images":["https://xcimg.szwego.com/20231202/i1701525751_5306_0.jpg","https://xcimg.szwego.com/20231202/i1701525751_5900_1.jpg","https://xcimg.szwego.com/20231202/i1701525751_8305_2.jpg","https://xcimg.szwego.com/20231202/i1701525751_7120_3.jpg","https://xcimg.szwego.com/20231202/i1701525751_2950_4.jpg","https://xcimg.szwego.com/20231202/i1701525751_3339_5.jpg","https://xcimg.szwego.com/20231202/i1701525751_5926_6.jpg","https://xcimg.szwego.com/20231202/i1701525751_5789_7.jpg","https://xcimg.szwego.com/20231202/i1701525751_6000_8.jpg"],"created_at":"2024-05-01T03:19:15.861Z"},{"id":"item-9c0dd3470b9e","sku":"_d_m_mtjzD2mn88qPSpCzNh5hQqDHQZivMk0oY6g","name_en":"。💖《配全套原厂绿盒包装》💖GG Marmont系列迷你肩背包。金色调双G造型配件不仅是GG Marmont系列的标志性元素,亦是对Gucci典藏图案的现代化演绎。这款棕色皮革迷你肩背包配有链式包带和拉链开合,内部设有两个卡片隔层,可轻松收纳各类卡片。棕色皮革,金色调配件,塔夫绸衬里双G,内部:两个卡片隔层,链式包带(57厘米高)拉链开合。","name_cn":"。💖《配全套原厂绿盒包装》💖GG Marmont系列迷你肩背包。金色调双G造型配件不仅是GG Marmont系列的标志性元素,亦是对Gucci典藏图案的现代化演绎。这款棕色皮革迷你肩背包配有链式包带和拉链开合,内部设有两个卡片隔层,可轻松收纳各类卡片。棕色皮革,金色调配件,塔夫绸衬里双G,内部:两个卡片隔层,链式包带(57厘米高)拉链开合。\n型号:772759。\n尺寸:11(长)x 18.5(宽)x 4cm(厚)\n颜色:棕色/原厂皮。\n意大利创作\n重量:约0.3千克","specs":{"source":"wsxcme","sourceId":"_d_m_mtjzD2mn88qPSpCzNh5hQqDHQZivMk0oY6g","sourceTagId":47002679,"sourceTagName":"古驰/女包","modelNumber":"772759","rawTitle":"。💖《配全套原厂绿盒包装》💖GG Marmont系列迷你肩背包。金色调双G造型配件不仅是GG Marmont系列的标志性元素,亦是对Gucci典藏图案的现代化演绎。这款棕色皮革迷你肩背包配有链式包带和拉链开合,内部设有两个卡片隔层,可轻松收纳各类卡片。棕色皮革,金色调配件,塔夫绸衬里双G,内部:两个卡片隔层,链式包带(57厘米高)拉链开合。\n型号:772759。\n尺寸:11(长)x 18.5(宽)x 4cm(厚)\n颜色:棕色/原厂皮。\n意大利创作\n重量:约0.3千克"},"price":null,"currency":"CNY","moq":1,"category":"gucci-women-bags","status":"active","alibaba_url":null,"images":["https://xcimg.szwego.com/20231202/i1701525720_9468_0.jpg","https://xcimg.szwego.com/20231202/i1701525720_9264_1.jpg","https://xcimg.szwego.com/20231202/i1701525720_5187_2.jpg","https://xcimg.szwego.com/20231202/i1701525720_6888_3.jpg","https://xcimg.szwego.com/20231202/i1701525720_3994_4.jpg","https://xcimg.szwego.com/20231202/i1701525720_616_5.jpg","https://xcimg.szwego.com/20231202/i1701525720_1735_6.jpg","https://xcimg.szwego.com/20231202/i1701525720_1009_7.jpg","https://xcimg.szwego.com/20231202/i1701525720_4996_8.jpg"],"created_at":"2024-05-01T03:19:15.860Z"},{"id":"item-5c9162c5d5b8","sku":"_duDuDhIqpA653Kpcjwr1xnRcie1wZQ8xyfmDqJw","name_en":"。💖《配全套原厂绿盒包装》💖GG Marmont系列迷你肩背包。金色调双G造型配件不仅是GG Marmont系列的标志性元素,亦是对Gucci典藏图案的现代化演绎。这款黑色皮革迷你肩背包配有链式包带和拉链开合,内部设有两个卡片隔层,可轻松收纳各类卡片。黑色皮革,金色调配件,塔夫绸衬里双G,内部:两个卡片隔层,链式包带(57厘米高)拉链开合。","name_cn":"。💖《配全套原厂绿盒包装》💖GG Marmont系列迷你肩背包。金色调双G造型配件不仅是GG Marmont系列的标志性元素,亦是对Gucci典藏图案的现代化演绎。这款黑色皮革迷你肩背包配有链式包带和拉链开合,内部设有两个卡片隔层,可轻松收纳各类卡片。黑色皮革,金色调配件,塔夫绸衬里双G,内部:两个卡片隔层,链式包带(57厘米高)拉链开合。\n型号:772759。\n尺寸:11(长)x 18.5(宽)x 4cm(厚)\n颜色:黑色/原厂皮。\n意大利创作\n重量:约0.3千克","specs":{"source":"wsxcme","sourceId":"_duDuDhIqpA653Kpcjwr1xnRcie1wZQ8xyfmDqJw","sourceTagId":47002679,"sourceTagName":"古驰/女包","modelNumber":"772759","rawTitle":"。💖《配全套原厂绿盒包装》💖GG Marmont系列迷你肩背包。金色调双G造型配件不仅是GG Marmont系列的标志性元素,亦是对Gucci典藏图案的现代化演绎。这款黑色皮革迷你肩背包配有链式包带和拉链开合,内部设有两个卡片隔层,可轻松收纳各类卡片。黑色皮革,金色调配件,塔夫绸衬里双G,内部:两个卡片隔层,链式包带(57厘米高)拉链开合。\n型号:772759。\n尺寸:11(长)x 18.5(宽)x 4cm(厚)\n颜色:黑色/原厂皮。\n意大利创作\n重量:约0.3千克"},"price":null,"currency":"CNY","moq":1,"category":"gucci-women-bags","status":"active","alibaba_url":null,"images":["https://xcimg.szwego.com/20231121/i1700580306_5191_0.jpg","https://xcimg.szwego.com/20231121/i1700580306_647_1.jpg","https://xcimg.szwego.com/20231121/i1700580306_4215_2.jpg","https://xcimg.szwego.com/20231121/i1700580306_3632_3.jpg","https://xcimg.szwego.com/20231121/i1700580306_5133_4.jpg","https://xcimg.szwego.com/20231121/i1700580306_3770_5.jpg","https://xcimg.szwego.com/20231121/i1700580306_6053_6.jpg","https://xcimg.szwego.com/20231121/i1700580306_9251_7.jpg","https://xcimg.szwego.com/20231121/i1700580306_7469_8.jpg"],"created_at":"2024-05-01T03:19:15.859Z"},{"id":"item-ca83fb52ac4e","sku":"_doNoNz9bSZ7i-BJbU3yaSQHQBBUEweF7hjTbaXw","name_en":"。💖《配全套原厂绿盒包装》💖Ophidia系列饰马衔扣印花迷你手袋。GG Supreme帆布巧妙融入马衔扣条纹印花,呼应该面料的历史本源。这种帆布材质长久地运用于多个系列当中,已成为品牌的标志性材质。经典配色为这款Ophidia系列迷你手袋赋予鲜明魅力。浅粉色皮革滚边令这款配饰魅力倍添。米色和乌木色马衔扣条纹GG Supreme帆布,浅粉色皮革滚边,金色","name_cn":"。💖《配全套原厂绿盒包装》💖Ophidia系列饰马衔扣印花迷你手袋。GG Supreme帆布巧妙融入马衔扣条纹印花,呼应该面料的历史本源。这种帆布材质长久地运用于多个系列当中,已成为品牌的标志性材质。经典配色为这款Ophidia系列迷你手袋赋予鲜明魅力。浅粉色皮革滚边令这款配饰魅力倍添。米色和乌木色马衔扣条纹GG Supreme帆布,浅粉色皮革滚边,金色调配件,塔夫绸衬里双G,两个卡片隔层,可调节提手(15厘米高)。\n型号:774336。\n尺寸:15(长)x 20(宽)x 5cm(厚)\n颜色:杏色/啡pvc印花。\n重量:约0.226千克","specs":{"source":"wsxcme","sourceId":"_doNoNz9bSZ7i-BJbU3yaSQHQBBUEweF7hjTbaXw","sourceTagId":47002679,"sourceTagName":"古驰/女包","modelNumber":"774336","rawTitle":"。💖《配全套原厂绿盒包装》💖Ophidia系列饰马衔扣印花迷你手袋。GG Supreme帆布巧妙融入马衔扣条纹印花,呼应该面料的历史本源。这种帆布材质长久地运用于多个系列当中,已成为品牌的标志性材质。经典配色为这款Ophidia系列迷你手袋赋予鲜明魅力。浅粉色皮革滚边令这款配饰魅力倍添。米色和乌木色马衔扣条纹GG Supreme帆布,浅粉色皮革滚边,金色调配件,塔夫绸衬里双G,两个卡片隔层,可调节提手(15厘米高)。\n型号:774336。\n尺寸:15(长)x 20(宽)x 5cm(厚)\n颜色:杏色/啡pvc印花。\n重量:约0.226千克"},"price":null,"currency":"CNY","moq":1,"category":"gucci-women-bags","status":"active","alibaba_url":null,"images":["https://xcimg.szwego.com/20231202/i1701524429_8159_0.jpg","https://xcimg.szwego.com/20231202/i1701524429_5434_1.jpg","https://xcimg.szwego.com/20231202/i1701524429_4384_2.jpg","https://xcimg.szwego.com/20231202/i1701524429_3062_3.jpg","https://xcimg.szwego.com/20231202/i1701524429_5696_4.jpg","https://xcimg.szwego.com/20231202/i1701524429_4696_5.jpg","https://xcimg.szwego.com/20231202/i1701524429_1139_6.jpg","https://xcimg.szwego.com/20231202/i1701524429_6540_7.jpg","https://xcimg.szwego.com/20231202/i1701524429_7937_8.jpg"],"created_at":"2024-05-01T03:19:15.858Z"},{"id":"item-d4e060496998","sku":"_dwLwLYyWpY2KqttTBzQzGuz-CaugH-pzVNtAmrQ","name_en":"。💖《配全套原厂绿盒包装》💖这款简洁纤长的手包采用GG 系列饰以同色调皮革滚边和互扣式双G标牌,突显经典设计的魅力。GGSupreme手包 环保材料。皮革滚边。粘胶纤维衬里,椭圆形互扣式双G皮革标牌。两个钞票隔层。","name_cn":"。💖《配全套原厂绿盒包装》💖这款简洁纤长的手包采用GG 系列饰以同色调皮革滚边和互扣式双G标牌,突显经典设计的魅力。GGSupreme手包 环保材料。皮革滚边。粘胶纤维衬里,椭圆形互扣式双G皮革标牌。两个钞票隔层。\n尺寸:26*20*5.6cm。\n颜色:蓝色/pvc。\n型号:625549。","specs":{"source":"wsxcme","sourceId":"_dwLwLYyWpY2KqttTBzQzGuz-CaugH-pzVNtAmrQ","sourceTagId":47002679,"sourceTagName":"古驰/女包","modelNumber":"625549","dimensions":{"lengthCm":26,"heightCm":20,"widthCm":5.6},"rawTitle":"。💖《配全套原厂绿盒包装》💖这款简洁纤长的手包采用GG 系列饰以同色调皮革滚边和互扣式双G标牌,突显经典设计的魅力。GGSupreme手包 环保材料。皮革滚边。粘胶纤维衬里,椭圆形互扣式双G皮革标牌。两个钞票隔层。\n尺寸:26*20*5.6cm。\n颜色:蓝色/pvc。\n型号:625549。"},"price":null,"currency":"CNY","moq":1,"category":"gucci-women-bags","status":"active","alibaba_url":null,"images":["https://xcimg.szwego.com/20220322/i1647958781_2216_0.jpg","https://xcimg.szwego.com/20220322/i1647958781_7794_1.jpg","https://xcimg.szwego.com/20220322/i1647958781_1185_2.jpg","https://xcimg.szwego.com/20220322/i1647958781_5655_3.jpg","https://xcimg.szwego.com/20220322/i1647958781_1065_4.jpg","https://xcimg.szwego.com/20220322/i1647958781_6354_5.jpg","https://xcimg.szwego.com/20220322/i1647958781_1881_6.jpg","https://xcimg.szwego.com/20220322/i1647958781_1006_7.jpg","https://xcimg.szwego.com/20220322/i1647958781_3296_8.jpg"],"created_at":"2024-05-01T03:19:15.857Z"},{"id":"item-17563943e495","sku":"_dnunui5mxsXUObiPs4nyvhZuGatDm8zc4cmjWhA","name_en":"。💖《配全套原厂绿盒包装》💖G👉家最新钱夹到货,也可作为钱夹使用,是品牌主推的一款实用设计单品。经典GG图案是品牌在30年代开始使用的标志性元素之一,历经近一个世纪的发展依然为品牌探索全新表达提供灵感。","name_cn":"。💖《配全套原厂绿盒包装》💖G👉家最新钱夹到货,也可作为钱夹使用,是品牌主推的一款实用设计单品。经典GG图案是品牌在30年代开始使用的标志性元素之一,历经近一个世纪的发展依然为品牌探索全新表达提供灵感。\n型号:523154。\n尺寸:19*10*3.5cm。\n颜色:蓝色/pvc。","specs":{"source":"wsxcme","sourceId":"_dnunui5mxsXUObiPs4nyvhZuGatDm8zc4cmjWhA","sourceTagId":47002679,"sourceTagName":"古驰/女包","modelNumber":"523154","dimensions":{"lengthCm":19,"heightCm":10,"widthCm":3.5},"rawTitle":"。💖《配全套原厂绿盒包装》💖G👉家最新钱夹到货,也可作为钱夹使用,是品牌主推的一款实用设计单品。经典GG图案是品牌在30年代开始使用的标志性元素之一,历经近一个世纪的发展依然为品牌探索全新表达提供灵感。\n型号:523154。\n尺寸:19*10*3.5cm。\n颜色:蓝色/pvc。"},"price":null,"currency":"CNY","moq":1,"category":"gucci-women-bags","status":"active","alibaba_url":null,"images":["https://xcimg.szwego.com/20220322/i1647958746_457_0.jpg","https://xcimg.szwego.com/20220322/i1647958746_1140_1.jpg","https://xcimg.szwego.com/20220322/i1647958746_5360_2.jpg","https://xcimg.szwego.com/20220322/i1647958746_2834_3.jpg","https://xcimg.szwego.com/20220322/i1647958746_1901_4.jpg","https://xcimg.szwego.com/20220322/i1647958746_7588_5.jpg","https://xcimg.szwego.com/20220322/i1647958746_2526_6.jpg","https://xcimg.szwego.com/20220322/i1647958746_7603_7.jpg","https://xcimg.szwego.com/20220322/i1647958746_9778_8.jpg"],"created_at":"2024-05-01T03:19:15.856Z"},{"id":"item-16626a27b86e","sku":"_djnjnXn-ARB_g2GCcpMJAHB9kibR2kcwvsAZIzQ","name_en":"。💖《配全套原厂绿盒包装》💖G👉家最新钱夹到货,也可作为钱夹使用,是品牌主推的一款实用设计单品。经典GG图案是品牌在30年代开始使用的标志性元素之一,历经近一个世纪的发展依然为品牌探索全新表达提供灵感。","name_cn":"。💖《配全套原厂绿盒包装》💖G👉家最新钱夹到货,也可作为钱夹使用,是品牌主推的一款实用设计单品。经典GG图案是品牌在30年代开始使用的标志性元素之一,历经近一个世纪的发展依然为品牌探索全新表达提供灵感。\n型号:597606。\n尺寸:12*9.5*1.5cm。\n颜色:蓝色/pvc。","specs":{"source":"wsxcme","sourceId":"_djnjnXn-ARB_g2GCcpMJAHB9kibR2kcwvsAZIzQ","sourceTagId":47002679,"sourceTagName":"古驰/女包","modelNumber":"597606","dimensions":{"lengthCm":12,"heightCm":9.5,"widthCm":1.5},"rawTitle":"。💖《配全套原厂绿盒包装》💖G👉家最新钱夹到货,也可作为钱夹使用,是品牌主推的一款实用设计单品。经典GG图案是品牌在30年代开始使用的标志性元素之一,历经近一个世纪的发展依然为品牌探索全新表达提供灵感。\n型号:597606。\n尺寸:12*9.5*1.5cm。\n颜色:蓝色/pvc。"},"price":null,"currency":"CNY","moq":1,"category":"gucci-women-bags","status":"active","alibaba_url":null,"images":["https://xcimg.szwego.com/20220329/i1648563085_1645_0.jpg","https://xcimg.szwego.com/20220329/i1648563085_7532_1.jpg","https://xcimg.szwego.com/20220329/i1648563085_3838_2.jpg","https://xcimg.szwego.com/20220329/i1648563085_1761_3.jpg","https://xcimg.szwego.com/20220329/i1648563085_9843_4.jpg","https://xcimg.szwego.com/20220329/i1648563085_4485_5.jpg","https://xcimg.szwego.com/20220329/i1648563085_3006_6.jpg","https://xcimg.szwego.com/20220329/i1648563085_8983_7.jpg","https://xcimg.szwego.com/20220329/i1648563085_9587_8.jpg"],"created_at":"2024-05-01T03:19:15.855Z"}],"page":32,"pageSize":24,"total":758,"totalPages":32}
