{"items":[{"id":"item-2f7d5851a971","sku":"_dvWvWyrIVclfCRa7jlGKdGZABrz73Hpl0l4wiXw","name_en":"💰中小号Simply FENDI手袋,2024-25秋冬季时装秀亮相的一款柔软单肩包,以20世纪90年代初的典藏款式为灵感来源,因其优雅基础款设计命名。米色低光泽小牛皮材质。饰有同色系漆皮标志性FF装饰。设有打结长小牛皮拉链头,带拉链袋的内部衬里隔层,搭配银色金属件。配有可调节肩带,可肩背或斜挎","name_cn":"💰中小号Simply FENDI手袋,2024-25秋冬季时装秀亮相的一款柔软单肩包,以20世纪90年代初的典藏款式为灵感来源,因其优雅基础款设计命名。米色低光泽小牛皮材质。饰有同色系漆皮标志性FF装饰。设有打结长小牛皮拉链头,带拉链袋的内部衬里隔层,搭配银色金属件。配有可调节肩带,可肩背或斜挎\n款号:5591,尺寸:22/13/4.5","specs":{"source":"wsxcme","sourceId":"_dvWvWyrIVclfCRa7jlGKdGZABrz73Hpl0l4wiXw","sourceTagId":47002731,"sourceTagName":"芬迪/女包","modelNumber":"5591","rawTitle":"💰中小号Simply FENDI手袋,2024-25秋冬季时装秀亮相的一款柔软单肩包,以20世纪90年代初的典藏款式为灵感来源,因其优雅基础款设计命名。米色低光泽小牛皮材质。饰有同色系漆皮标志性FF装饰。设有打结长小牛皮拉链头,带拉链袋的内部衬里隔层,搭配银色金属件。配有可调节肩带,可肩背或斜挎\n款号:5591,尺寸:22/13/4.5"},"price":null,"currency":"CNY","moq":1,"category":"fendi-women-bags","status":"active","alibaba_url":null,"images":["https://xcimg.szwego.com/img/7e6c96fb/20240909/a1725859440482_4380.jpg","https://xcimg.szwego.com/img/7e6c96fb/20240909/a1725859440478_0457.jpg","https://xcimg.szwego.com/img/7e6c96fb/20240909/a1725859440479_2153.jpg","https://xcimg.szwego.com/img/7e6c96fb/20240909/a1725859440478_5331.jpg","https://xcimg.szwego.com/img/7e6c96fb/20240909/a1725859440480_8163.jpg","https://xcimg.szwego.com/img/7e6c96fb/20240909/a1725859440476_5364.jpg","https://xcimg.szwego.com/img/7e6c96fb/20240909/a1725859441440_0080.jpg","https://xcimg.szwego.com/img/7e6c96fb/20240909/a1725859441436_8236.jpg","https://xcimg.szwego.com/img/7e6c96fb/20240909/a1725859441441_0510.jpg"],"created_at":"2024-11-11T10:33:53.476Z"},{"id":"item-d9fd01a54eef","sku":"_dJGJGjE37zpjHsIr51oKiDhSKPbPFYLTsb-Zrpw","name_en":"💰中号Simply FENDI手袋,2024-25秋冬季时装秀亮相的一款柔软单肩包,以20世纪90年代初的典藏款式为灵感来源,因其优雅基础款设计命名。米色低光泽小牛皮材质。饰有同色系漆皮标志性FF装饰。设有打结长小牛皮拉链头,带拉链袋的内部衬里隔层,搭配银色金属件。配有可调节肩带,可肩背或斜挎","name_cn":"💰中号Simply FENDI手袋,2024-25秋冬季时装秀亮相的一款柔软单肩包,以20世纪90年代初的典藏款式为灵感来源,因其优雅基础款设计命名。米色低光泽小牛皮材质。饰有同色系漆皮标志性FF装饰。设有打结长小牛皮拉链头,带拉链袋的内部衬里隔层,搭配银色金属件。配有可调节肩带,可肩背或斜挎\n款号:5592,尺寸:34.5/20/4.5","specs":{"source":"wsxcme","sourceId":"_dJGJGjE37zpjHsIr51oKiDhSKPbPFYLTsb-Zrpw","sourceTagId":47002731,"sourceTagName":"芬迪/女包","modelNumber":"5592","rawTitle":"💰中号Simply FENDI手袋,2024-25秋冬季时装秀亮相的一款柔软单肩包,以20世纪90年代初的典藏款式为灵感来源,因其优雅基础款设计命名。米色低光泽小牛皮材质。饰有同色系漆皮标志性FF装饰。设有打结长小牛皮拉链头,带拉链袋的内部衬里隔层,搭配银色金属件。配有可调节肩带,可肩背或斜挎\n款号:5592,尺寸:34.5/20/4.5"},"price":null,"currency":"CNY","moq":1,"category":"fendi-women-bags","status":"active","alibaba_url":null,"images":["https://xcimg.szwego.com/20240907/i1725713000_7574_0.jpg","https://xcimg.szwego.com/20240907/i1725713000_497_1.jpg","https://xcimg.szwego.com/20240907/i1725713000_2180_2.jpg","https://xcimg.szwego.com/20240907/i1725713000_4453_3.jpg","https://xcimg.szwego.com/20240907/i1725713000_7341_4.jpg","https://xcimg.szwego.com/20240907/i1725713000_2829_5.jpg","https://xcimg.szwego.com/20240907/i1725713000_7331_6.jpg","https://xcimg.szwego.com/20240907/i1725713000_3768_7.jpg","https://xcimg.szwego.com/20240907/i1725713000_1513_8.jpg"],"created_at":"2024-11-11T10:33:53.475Z"},{"id":"item-fa3d4848453e","sku":"_d1Z1ZTUPxJZvSETQpKNUDaKH98bzzKf5KBsxrJw","name_en":"Fendi Women Bags","name_cn":"正品级 复刻版芬迪\n💗FEND1标志性Peekaboo ISeeU手袋,小巧可人。白色带夹层纳帕软\n皮革材质,两侧缀以经典的扭锁。内部配有衬里,两个隔层\n由硬质隔板隔开,配有内袋和金色金属件。配有手柄和可调\n节可拆卸式肩带,可手提或斜挎。意大利制造.\n尺寸11-20-15\n款号8336","specs":{"source":"wsxcme","sourceId":"_d1Z1ZTUPxJZvSETQpKNUDaKH98bzzKf5KBsxrJw","sourceTagId":47002731,"sourceTagName":"芬迪/女包","modelNumber":"8336","rawTitle":"正品级 复刻版芬迪\n💗FEND1标志性Peekaboo ISeeU手袋,小巧可人。白色带夹层纳帕软\n皮革材质,两侧缀以经典的扭锁。内部配有衬里,两个隔层\n由硬质隔板隔开,配有内袋和金色金属件。配有手柄和可调\n节可拆卸式肩带,可手提或斜挎。意大利制造.\n尺寸11-20-15\n款号8336"},"price":null,"currency":"CNY","moq":1,"category":"fendi-women-bags","status":"active","alibaba_url":null,"images":["https://xcimg.szwego.com/20220424/i1650730956_5182_0.jpg","https://xcimg.szwego.com/20220424/i1650730956_9494_1.jpg","https://xcimg.szwego.com/20220424/i1650730956_3416_2.jpg","https://xcimg.szwego.com/20220424/i1650730956_4957_3.jpg","https://xcimg.szwego.com/20220424/i1650730956_9709_4.jpg","https://xcimg.szwego.com/20220424/i1650730956_2115_5.jpg","https://xcimg.szwego.com/20220424/i1650730956_3313_6.jpg","https://xcimg.szwego.com/20220424/i1650730956_2885_7.jpg","https://xcimg.szwego.com/20220424/i1650730956_7465_8.jpg"],"created_at":"2024-11-11T10:33:53.474Z"},{"id":"item-e3ce1b87abde","sku":"_dQLQLpA2RP_C9lBFOC8iUknGw50B70weYiBaLyQ","name_en":"Fendi Women Bags","name_cn":"正品级 复刻版芬迪\n💗FEND1标志性Peekaboo ISeeU手袋,小巧可人。黑色带夹层纳帕软\n皮革材质,两侧缀以经典的扭锁。内部配有衬里,两个隔层\n由硬质隔板隔开,配有内袋和金色金属件。配有手柄和可调\n节可拆卸式肩带,可手提或斜挎。意大利制造.\n尺寸11-20-15\n款号8336","specs":{"source":"wsxcme","sourceId":"_dQLQLpA2RP_C9lBFOC8iUknGw50B70weYiBaLyQ","sourceTagId":47002731,"sourceTagName":"芬迪/女包","modelNumber":"8336","rawTitle":"正品级 复刻版芬迪\n💗FEND1标志性Peekaboo ISeeU手袋,小巧可人。黑色带夹层纳帕软\n皮革材质,两侧缀以经典的扭锁。内部配有衬里,两个隔层\n由硬质隔板隔开,配有内袋和金色金属件。配有手柄和可调\n节可拆卸式肩带,可手提或斜挎。意大利制造.\n尺寸11-20-15\n款号8336"},"price":null,"currency":"CNY","moq":1,"category":"fendi-women-bags","status":"active","alibaba_url":null,"images":["https://xcimg.szwego.com/20220424/i1650731304_3121_0.jpg","https://xcimg.szwego.com/20220424/i1650731304_8705_1.jpg","https://xcimg.szwego.com/20220424/i1650731304_3446_2.jpg","https://xcimg.szwego.com/20220424/i1650731304_1433_3.jpg","https://xcimg.szwego.com/20220424/i1650731304_9653_4.jpg","https://xcimg.szwego.com/20220424/i1650731304_2023_5.jpg","https://xcimg.szwego.com/20220424/i1650731304_5763_6.jpg","https://xcimg.szwego.com/20220424/i1650731304_3804_7.jpg","https://xcimg.szwego.com/20220424/i1650731304_3767_8.jpg"],"created_at":"2024-11-11T10:33:53.473Z"},{"id":"item-2ac980cd562c","sku":"_d0R0RtGr6trZlIcHiwCJtr_whKHqdDHvpLba1Uw","name_en":"Fendi Women Bags","name_cn":"正品级 复刻版芬迪\n💗FEND1标志性Peekaboo ISeeU手袋,小巧可人。红色带夹层纳帕软\n皮革材质,两侧缀以经典的扭锁。内部配有衬里,两个隔层\n由硬质隔板隔开,配有内袋和银色金属件。配有手柄和可调\n节可拆卸式肩带,可手提或斜挎。意大利制造.\n尺寸11-20-15\n款号8336","specs":{"source":"wsxcme","sourceId":"_d0R0RtGr6trZlIcHiwCJtr_whKHqdDHvpLba1Uw","sourceTagId":47002731,"sourceTagName":"芬迪/女包","modelNumber":"8336","rawTitle":"正品级 复刻版芬迪\n💗FEND1标志性Peekaboo ISeeU手袋,小巧可人。红色带夹层纳帕软\n皮革材质,两侧缀以经典的扭锁。内部配有衬里,两个隔层\n由硬质隔板隔开,配有内袋和银色金属件。配有手柄和可调\n节可拆卸式肩带,可手提或斜挎。意大利制造.\n尺寸11-20-15\n款号8336"},"price":null,"currency":"CNY","moq":1,"category":"fendi-women-bags","status":"active","alibaba_url":null,"images":["https://xcimg.szwego.com/20220423/i1650727026_6127_0.jpg","https://xcimg.szwego.com/20220423/i1650727026_1485_1.jpg","https://xcimg.szwego.com/20220423/i1650727026_7506_2.jpg","https://xcimg.szwego.com/20220423/i1650727026_8113_3.jpg","https://xcimg.szwego.com/20220423/i1650727026_340_4.jpg","https://xcimg.szwego.com/20220423/i1650727026_7683_5.jpg","https://xcimg.szwego.com/20220423/i1650727026_3034_6.jpg","https://xcimg.szwego.com/20220423/i1650727026_477_7.jpg","https://xcimg.szwego.com/20220423/i1650727026_7286_8.jpg"],"created_at":"2024-11-11T10:33:53.472Z"},{"id":"item-845edb831f00","sku":"_dpOpOiLvHDSLo56d4GQq8ZjR4Ecadm0EAxetdgQ","name_en":"Fendi Women Bags","name_cn":"正品级 复刻版芬迪\n💗FEND1标志性Peekaboo ISeeU手袋,小巧可人。杏色带夹层纳帕软\n皮革材质,两侧缀以经典的扭锁。内部配有衬里,两个隔层\n由硬质隔板隔开,配有内袋和金色金属件。配有手柄和可调\n节可拆卸式肩带,可手提或斜挎。意大利制造.\n尺寸11-20-15\n款号8336","specs":{"source":"wsxcme","sourceId":"_dpOpOiLvHDSLo56d4GQq8ZjR4Ecadm0EAxetdgQ","sourceTagId":47002731,"sourceTagName":"芬迪/女包","modelNumber":"8336","rawTitle":"正品级 复刻版芬迪\n💗FEND1标志性Peekaboo ISeeU手袋,小巧可人。杏色带夹层纳帕软\n皮革材质,两侧缀以经典的扭锁。内部配有衬里,两个隔层\n由硬质隔板隔开,配有内袋和金色金属件。配有手柄和可调\n节可拆卸式肩带,可手提或斜挎。意大利制造.\n尺寸11-20-15\n款号8336"},"price":null,"currency":"CNY","moq":1,"category":"fendi-women-bags","status":"active","alibaba_url":null,"images":["https://xcimg.szwego.com/20220501/i1651393618_4206_0.jpg","https://xcimg.szwego.com/20220501/i1651393618_1879_1.jpg","https://xcimg.szwego.com/20220501/i1651393618_2709_2.jpg","https://xcimg.szwego.com/20220501/i1651393618_3220_3.jpg","https://xcimg.szwego.com/20220501/i1651393618_3120_4.jpg","https://xcimg.szwego.com/20220501/i1651393618_4136_5.jpg","https://xcimg.szwego.com/20220501/i1651393618_3973_6.jpg","https://xcimg.szwego.com/20220501/i1651393618_3586_7.jpg","https://xcimg.szwego.com/20220501/i1651393618_8156_8.jpg"],"created_at":"2024-11-11T10:33:53.471Z"},{"id":"item-7f383260762f","sku":"_daNaN6Pc3qhz9mJgtxYbeFYKpYplUzVktkA_dwQ","name_en":"Fendi Women Bags","name_cn":"正品级 复刻版芬迪\n💗FEND1标志性Peekaboo ISeeU手袋,小巧可人。粉色带夹层纳帕软\n皮革材质,两侧缀以经典的扭锁。内部配有衬里,两个隔层\n由硬质隔板隔开,配有内袋和金色金属件。配有手柄和可调\n节可拆卸式肩带,可手提或斜挎。意大利制造.\n尺寸11-20-15\n款号8336","specs":{"source":"wsxcme","sourceId":"_daNaN6Pc3qhz9mJgtxYbeFYKpYplUzVktkA_dwQ","sourceTagId":47002731,"sourceTagName":"芬迪/女包","modelNumber":"8336","rawTitle":"正品级 复刻版芬迪\n💗FEND1标志性Peekaboo ISeeU手袋,小巧可人。粉色带夹层纳帕软\n皮革材质,两侧缀以经典的扭锁。内部配有衬里,两个隔层\n由硬质隔板隔开,配有内袋和金色金属件。配有手柄和可调\n节可拆卸式肩带,可手提或斜挎。意大利制造.\n尺寸11-20-15\n款号8336"},"price":null,"currency":"CNY","moq":1,"category":"fendi-women-bags","status":"active","alibaba_url":null,"images":["https://xcimg.szwego.com/20220520/i1653026439_9333_0.jpg","https://xcimg.szwego.com/20220520/i1653026439_7290_1.jpg","https://xcimg.szwego.com/20220520/i1653026439_7065_2.jpg","https://xcimg.szwego.com/20220520/i1653026439_7688_3.jpg","https://xcimg.szwego.com/20220520/i1653026439_6294_4.jpg","https://xcimg.szwego.com/20220520/i1653026439_2874_5.jpg","https://xcimg.szwego.com/20220520/i1653026439_2587_6.jpg","https://xcimg.szwego.com/20220520/i1653026439_7478_7.jpg","https://xcimg.szwego.com/20220520/i1653026439_4472_8.jpg"],"created_at":"2024-11-11T10:33:53.470Z"},{"id":"item-67b2b924ba8c","sku":"_dJZJZ8m6J7eJ9clVxjKTAcQVKfD97Nh_xl9rCHQ","name_en":"Fendi Women Bags","name_cn":"正品级 复刻版芬迪\n💗🎶 Fend•Iconic Peekaboo ISeeU Mini 进口羊皮材质, 两侧饰有经典扭锁两个隔层 配有手柄和可调节可拆卸式肩带 \n8336\nsize:20-11-15.5cm","specs":{"source":"wsxcme","sourceId":"_dJZJZ8m6J7eJ9clVxjKTAcQVKfD97Nh_xl9rCHQ","sourceTagId":47002731,"sourceTagName":"芬迪/女包","rawTitle":"正品级 复刻版芬迪\n💗🎶 Fend•Iconic Peekaboo ISeeU Mini 进口羊皮材质, 两侧饰有经典扭锁两个隔层 配有手柄和可调节可拆卸式肩带 \n8336\nsize:20-11-15.5cm"},"price":null,"currency":"CNY","moq":1,"category":"fendi-women-bags","status":"active","alibaba_url":null,"images":["https://xcimg.szwego.com/20221017/i1665982558_7497_0.jpg","https://xcimg.szwego.com/20221017/i1665982558_687_1.jpg","https://xcimg.szwego.com/20221017/i1665982558_3042_2.jpg","https://xcimg.szwego.com/20221017/i1665982558_2852_3.jpg","https://xcimg.szwego.com/20221017/i1665982558_7276_4.jpg","https://xcimg.szwego.com/20221017/i1665982558_1355_5.jpg","https://xcimg.szwego.com/20221017/i1665982558_2042_6.jpg","https://xcimg.szwego.com/20221017/i1665982558_4350_7.jpg","https://xcimg.szwego.com/20221017/i1665982558_9314_8.jpg"],"created_at":"2024-11-11T10:33:53.469Z"},{"id":"item-c49ca814f99c","sku":"_dqRqRdNjD45aXTtxjd65g5UGR0qBuXbzCXFqxNQ","name_en":"Fendi Women Bags","name_cn":"正品级 复刻版芬迪\n💗 FEND1Iconic Peekaboo小号手袋,焦糖色Cuoio Romano皮革材质,饰有\n手工缝线,两侧有经典扭锁。棕色皮革内里,两个隔层由硬质隔\n板隔开,设有内部拉链袋和银色金属件。手袋配有手柄和可调\n节、可拆卸式肩带,可手提、肩背或斜挎。尺寸23*11*18。","specs":{"source":"wsxcme","sourceId":"_dqRqRdNjD45aXTtxjd65g5UGR0qBuXbzCXFqxNQ","sourceTagId":47002731,"sourceTagName":"芬迪/女包","rawTitle":"正品级 复刻版芬迪\n💗 FEND1Iconic Peekaboo小号手袋,焦糖色Cuoio Romano皮革材质,饰有\n手工缝线,两侧有经典扭锁。棕色皮革内里,两个隔层由硬质隔\n板隔开,设有内部拉链袋和银色金属件。手袋配有手柄和可调\n节、可拆卸式肩带,可手提、肩背或斜挎。尺寸23*11*18。"},"price":null,"currency":"CNY","moq":1,"category":"fendi-women-bags","status":"active","alibaba_url":null,"images":["https://xcimg.szwego.com/20230506/i1683351368_2646_0.jpg","https://xcimg.szwego.com/20230506/i1683351368_402_1.jpg","https://xcimg.szwego.com/20230506/i1683351368_9108_2.jpg","https://xcimg.szwego.com/20230506/i1683351368_1292_3.jpg","https://xcimg.szwego.com/20230506/i1683351368_2147_4.jpg","https://xcimg.szwego.com/20230506/i1683351368_4502_5.jpg","https://xcimg.szwego.com/20230506/i1683351368_7510_6.jpg","https://xcimg.szwego.com/20230506/i1683351368_5251_7.jpg","https://xcimg.szwego.com/20230506/i1683351368_2370_8.jpg"],"created_at":"2024-11-11T10:33:53.468Z"},{"id":"item-cadf634837c8","sku":"_dwOwODzAEcJOa0qMS6Z-EvomfZaqcnA589AxZBg","name_en":"Fendi Women Bags","name_cn":"正品级 复刻版芬迪\n💗小号peekaboo i see u系列\n让人眼前一亮,不可自拔的手工包系列,意大利原厂荔枝纹togo小牛皮,搭配全进口定制蜡线纯手工外缝,经典的selleria缝线,顶级法国原装水性油边,纯手工完美结合,可拎背可斜挎,超重工的一款经典之作!\n尺寸 小号23/12/18cm","specs":{"source":"wsxcme","sourceId":"_dwOwODzAEcJOa0qMS6Z-EvomfZaqcnA589AxZBg","sourceTagId":47002731,"sourceTagName":"芬迪/女包","rawTitle":"正品级 复刻版芬迪\n💗小号peekaboo i see u系列\n让人眼前一亮,不可自拔的手工包系列,意大利原厂荔枝纹togo小牛皮,搭配全进口定制蜡线纯手工外缝,经典的selleria缝线,顶级法国原装水性油边,纯手工完美结合,可拎背可斜挎,超重工的一款经典之作!\n尺寸 小号23/12/18cm"},"price":null,"currency":"CNY","moq":1,"category":"fendi-women-bags","status":"active","alibaba_url":null,"images":["https://xcimg.szwego.com/20220401/i1648750610_7441_0.jpg","https://xcimg.szwego.com/20220401/i1648750610_7295_1.jpg","https://xcimg.szwego.com/20220401/i1648750978_3065_1.jpg","https://xcimg.szwego.com/20220401/i1648750978_2073_2.jpg","https://xcimg.szwego.com/20220401/i1648750978_5085_0.jpg","https://xcimg.szwego.com/20220401/i1648750978_5035_3.jpg","https://xcimg.szwego.com/20220401/i1648750978_283_4.jpg","https://xcimg.szwego.com/20220401/i1648750978_3758_5.jpg","https://xcimg.szwego.com/20220401/i1648750978_6194_6.jpg"],"created_at":"2024-11-11T10:33:53.467Z"},{"id":"item-f957dc999a52","sku":"_dbDbDU1hBJ5_CoJlJKy-BgYG5XhJAgPv4cGsYLg","name_en":"Fendi Women Bags","name_cn":"正品级 复刻版芬迪\n💗标志性迷你By The Way Soft手袋,在2024-25秋冬时装秀中经过再造,呈现休闲轻盈外观。提花布料材质,饰有标志性棕色FF图案。内部配有布料内衬、深棕色小牛皮饰边和金色金属件。定制吊坠和打结长拉链头。此手袋配有提手和可调节、可拆卸可打结肩带,可手提、肩背或斜挎\n尺寸20.12.9cm  124","specs":{"source":"wsxcme","sourceId":"_dbDbDU1hBJ5_CoJlJKy-BgYG5XhJAgPv4cGsYLg","sourceTagId":47002731,"sourceTagName":"芬迪/女包","rawTitle":"正品级 复刻版芬迪\n💗标志性迷你By The Way Soft手袋,在2024-25秋冬时装秀中经过再造,呈现休闲轻盈外观。提花布料材质,饰有标志性棕色FF图案。内部配有布料内衬、深棕色小牛皮饰边和金色金属件。定制吊坠和打结长拉链头。此手袋配有提手和可调节、可拆卸可打结肩带,可手提、肩背或斜挎\n尺寸20.12.9cm  124"},"price":null,"currency":"CNY","moq":1,"category":"fendi-women-bags","status":"active","alibaba_url":null,"images":["https://xcimg.szwego.com/20240830/i1724953130_7574_0.jpg","https://xcimg.szwego.com/20240830/i1724953130_7648_1.jpg","https://xcimg.szwego.com/20240830/i1724953130_827_2.jpg","https://xcimg.szwego.com/20240830/i1724953130_1486_3.jpg","https://xcimg.szwego.com/20240830/i1724953130_2006_4.jpg","https://xcimg.szwego.com/20240830/i1724953130_5802_5.jpg","https://xcimg.szwego.com/20240830/i1724953130_2478_6.jpg","https://xcimg.szwego.com/20240830/i1724953130_5662_7.jpg","https://xcimg.szwego.com/20240830/i1724953130_1496_8.jpg"],"created_at":"2024-11-11T10:33:53.466Z"},{"id":"item-83417c6a2e0e","sku":"_dgtgt5GVWiEk6YftXpO0WhTc3dsOriuJWALmcLw","name_en":"Fendi Women Bags","name_cn":"正品级 复刻版芬迪\n💗标志性中号By The Way Soft手袋,在2024-25秋冬时装秀中经过升级改良,呈现柔软轻盈外观。提花布料材质,饰有标志性棕色FF图案。内部配有布料内衬、深棕色小牛皮细节和金色金属件。定制吊坠和打结长拉链头。此手袋配有提手和可调节、可拆卸可打结肩带,可手提、肩背或斜挎\n尺寸29.17.13\n128","specs":{"source":"wsxcme","sourceId":"_dgtgt5GVWiEk6YftXpO0WhTc3dsOriuJWALmcLw","sourceTagId":47002731,"sourceTagName":"芬迪/女包","rawTitle":"正品级 复刻版芬迪\n💗标志性中号By The Way Soft手袋,在2024-25秋冬时装秀中经过升级改良,呈现柔软轻盈外观。提花布料材质,饰有标志性棕色FF图案。内部配有布料内衬、深棕色小牛皮细节和金色金属件。定制吊坠和打结长拉链头。此手袋配有提手和可调节、可拆卸可打结肩带,可手提、肩背或斜挎\n尺寸29.17.13\n128"},"price":null,"currency":"CNY","moq":1,"category":"fendi-women-bags","status":"active","alibaba_url":null,"images":["https://xcimg.szwego.com/20240830/i1724953168_7549_0.jpg","https://xcimg.szwego.com/20240830/i1724953168_3703_1.jpg","https://xcimg.szwego.com/20240830/i1724953168_4371_2.jpg","https://xcimg.szwego.com/20240830/i1724953168_1953_3.jpg","https://xcimg.szwego.com/20240830/i1724953168_7161_4.jpg","https://xcimg.szwego.com/20240830/i1724953168_4857_5.jpg","https://xcimg.szwego.com/20240830/i1724953168_2590_6.jpg","https://xcimg.szwego.com/20240830/i1724953168_2559_7.jpg","https://xcimg.szwego.com/20240830/i1724953168_6686_8.jpg"],"created_at":"2024-11-11T10:33:53.465Z"},{"id":"item-fbf0cc4e9727","sku":"_dththig5bITvWHp-woXlOpBfOP_Bv-nzeSqfx-g","name_en":"Fendi Women Bags","name_cn":"正品级 复刻版芬迪\n💗peekaboo ICONIC胶囊系列\n让人眼前一亮,不可自拔的手工包系列,意大利原厂粒面小牛皮,搭配全进口定制蜡线纯手工外缝,经典的selleria缝线,顶级法国原装水性油边,纯手工完美结合,搭配两条肩带,可拎背可斜挎,超重工的一款经典之作!小号23/12/18cm","specs":{"source":"wsxcme","sourceId":"_dththig5bITvWHp-woXlOpBfOP_Bv-nzeSqfx-g","sourceTagId":47002731,"sourceTagName":"芬迪/女包","rawTitle":"正品级 复刻版芬迪\n💗peekaboo ICONIC胶囊系列\n让人眼前一亮,不可自拔的手工包系列,意大利原厂粒面小牛皮,搭配全进口定制蜡线纯手工外缝,经典的selleria缝线,顶级法国原装水性油边,纯手工完美结合,搭配两条肩带,可拎背可斜挎,超重工的一款经典之作!小号23/12/18cm"},"price":null,"currency":"CNY","moq":1,"category":"fendi-women-bags","status":"active","alibaba_url":null,"images":["https://xcimg.szwego.com/20220515/i1652553158_5427_0.jpg","https://xcimg.szwego.com/20220515/i1652553158_7740_1.jpg","https://xcimg.szwego.com/20220515/i1652553158_5821_2.jpg","https://xcimg.szwego.com/20220515/i1652553158_3808_3.jpg","https://xcimg.szwego.com/20220515/i1652553158_6873_8.jpg","https://xcimg.szwego.com/20220515/i1652553158_5601_4.jpg","https://xcimg.szwego.com/20220515/i1652553158_9860_5.jpg","https://xcimg.szwego.com/20220515/i1652553158_5716_6.jpg","https://xcimg.szwego.com/20220515/i1652553158_2208_7.jpg"],"created_at":"2024-11-11T10:33:53.464Z"},{"id":"item-af605bd51410","sku":"_d_P_PhFEweKu7MkLU-FJZxHIpM1wo6gZQGWRpgg","name_en":"Fendi Women Bags","name_cn":"复刻版芬迪\n💗Fendi First新款首发 别致倾斜F标识简而有型,轻柔色系小羊皮唤醒意式优雅,肩背斜挎手拿可百变百搭。\n小号尺寸25*9*18\n款号129","specs":{"source":"wsxcme","sourceId":"_d_P_PhFEweKu7MkLU-FJZxHIpM1wo6gZQGWRpgg","sourceTagId":47002731,"sourceTagName":"芬迪/女包","modelNumber":"129","rawTitle":"复刻版芬迪\n💗Fendi First新款首发 别致倾斜F标识简而有型,轻柔色系小羊皮唤醒意式优雅,肩背斜挎手拿可百变百搭。\n小号尺寸25*9*18\n款号129"},"price":null,"currency":"CNY","moq":1,"category":"fendi-women-bags","status":"active","alibaba_url":null,"images":["https://xcimg.szwego.com/20230828/i1693190319_6595_0.jpg","https://xcimg.szwego.com/20230828/i1693190319_7719_1.jpg","https://xcimg.szwego.com/20230828/i1693190319_9862_2.jpg","https://xcimg.szwego.com/20230828/i1693190319_8491_3.jpg","https://xcimg.szwego.com/20230828/i1693190319_145_4.jpg","https://xcimg.szwego.com/20230828/i1693190319_6467_5.jpg","https://xcimg.szwego.com/20230828/i1693190319_5624_6.jpg","https://xcimg.szwego.com/20230828/i1693190319_4411_7.jpg","https://xcimg.szwego.com/20230828/i1693190319_1429_8.jpg"],"created_at":"2024-11-11T10:33:53.463Z"},{"id":"item-ec20011d1841","sku":"_d7I7IYbHiVFA2YiZ23QXoIDLgrYER9vdCXNzQsA","name_en":"Fendi Women Bags","name_cn":"正品级 复刻版芬迪\n💗🎶 Fend•Iconic Peekaboo ISeeU Mini 进口皮材质, 边缘和正面饰有同色系辫两侧编细节 饰有经典扭锁两个隔层 配有手柄和可调节可拆卸式肩带 可手提或斜挎Size:20-11-15.5cm \n8336","specs":{"source":"wsxcme","sourceId":"_d7I7IYbHiVFA2YiZ23QXoIDLgrYER9vdCXNzQsA","sourceTagId":47002731,"sourceTagName":"芬迪/女包","rawTitle":"正品级 复刻版芬迪\n💗🎶 Fend•Iconic Peekaboo ISeeU Mini 进口皮材质, 边缘和正面饰有同色系辫两侧编细节 饰有经典扭锁两个隔层 配有手柄和可调节可拆卸式肩带 可手提或斜挎Size:20-11-15.5cm \n8336"},"price":null,"currency":"CNY","moq":1,"category":"fendi-women-bags","status":"active","alibaba_url":null,"images":["https://xcimg.szwego.com/20240106/i1704519541_4485_0.jpg","https://xcimg.szwego.com/20240106/i1704519541_4015_1.jpg","https://xcimg.szwego.com/20240106/i1704519541_4752_2.jpg","https://xcimg.szwego.com/20240106/i1704519541_3372_3.jpg","https://xcimg.szwego.com/20240106/i1704519541_9097_4.jpg","https://xcimg.szwego.com/20240106/i1704519541_1560_5.jpg","https://xcimg.szwego.com/20240106/i1704519541_3320_6.jpg","https://xcimg.szwego.com/20240106/i1704519541_7666_7.jpg","https://xcimg.szwego.com/20240106/i1704519541_3669_8.jpg"],"created_at":"2024-11-11T10:33:53.462Z"},{"id":"item-f4e5d37418e9","sku":"_dklklku9tcGhLl_TKDVlVyepOgA93YSIfO2mHfw","name_en":"Fendi Women Bags","name_cn":"正品级 复刻版芬迪\n💗 Fend•Iconic Peekaboo ISeeU Mini 进口皮材质, 边缘和皮面饰有手工同色系拉菲草交织设计 饰有经典扭锁两个隔层 配有手柄和可调节可拆卸式肩带 可手提或斜挎Size:20-11-15.5cm \n8336","specs":{"source":"wsxcme","sourceId":"_dklklku9tcGhLl_TKDVlVyepOgA93YSIfO2mHfw","sourceTagId":47002731,"sourceTagName":"芬迪/女包","rawTitle":"正品级 复刻版芬迪\n💗 Fend•Iconic Peekaboo ISeeU Mini 进口皮材质, 边缘和皮面饰有手工同色系拉菲草交织设计 饰有经典扭锁两个隔层 配有手柄和可调节可拆卸式肩带 可手提或斜挎Size:20-11-15.5cm \n8336"},"price":null,"currency":"CNY","moq":1,"category":"fendi-women-bags","status":"active","alibaba_url":null,"images":["https://xcimg.szwego.com/20240709/i1720510935_1034_0.jpg","https://xcimg.szwego.com/20240709/i1720510935_3426_1.jpg","https://xcimg.szwego.com/20240709/i1720510935_1621_2.jpg","https://xcimg.szwego.com/20240709/i1720510935_8521_3.jpg","https://xcimg.szwego.com/20240709/i1720510935_3755_4.jpg","https://xcimg.szwego.com/20240709/i1720510935_3111_5.jpg","https://xcimg.szwego.com/20240709/i1720510935_9790_6.jpg","https://xcimg.szwego.com/20240709/i1720510935_6215_7.jpg","https://xcimg.szwego.com/20240709/i1720510935_4640_8.jpg"],"created_at":"2024-11-11T10:33:53.461Z"},{"id":"item-5f3303bc11e3","sku":"_dr6r6x2VDoM7QtIxCQgaxN6S-oJloGOlLFrzW5w","name_en":"Fendi Women Bags","name_cn":"正品级复刻版 芬迪\n💗Fend•Iconic Peekaboo ISeeU 进口皮材质, 边缘和皮面饰有手工同色系拉菲草交织设计 饰有经典扭锁两个隔层 配有手柄和可调节可拆卸式肩带 可手提或斜挎Size:27-11-21cm \n327","specs":{"source":"wsxcme","sourceId":"_dr6r6x2VDoM7QtIxCQgaxN6S-oJloGOlLFrzW5w","sourceTagId":47002731,"sourceTagName":"芬迪/女包","rawTitle":"正品级复刻版 芬迪\n💗Fend•Iconic Peekaboo ISeeU 进口皮材质, 边缘和皮面饰有手工同色系拉菲草交织设计 饰有经典扭锁两个隔层 配有手柄和可调节可拆卸式肩带 可手提或斜挎Size:27-11-21cm \n327"},"price":null,"currency":"CNY","moq":1,"category":"fendi-women-bags","status":"active","alibaba_url":null,"images":["https://xcimg.szwego.com/20240708/i1720418581_9763_0.jpg","https://xcimg.szwego.com/20240708/i1720418581_2128_1.jpg","https://xcimg.szwego.com/20240708/i1720418581_8344_2.jpg","https://xcimg.szwego.com/20240708/i1720418581_9562_3.jpg","https://xcimg.szwego.com/20240708/i1720418581_2725_4.jpg","https://xcimg.szwego.com/20240708/i1720418581_3265_5.jpg","https://xcimg.szwego.com/20240708/i1720418581_8011_6.jpg","https://xcimg.szwego.com/20240708/i1720418581_3902_7.jpg","https://xcimg.szwego.com/20240708/i1720418581_2885_8.jpg"],"created_at":"2024-11-11T10:33:53.460Z"},{"id":"item-71252065f969","sku":"_dbEbEYQ5cAIWBebaARBmlmoUmwStGM4ETDMZMMQ","name_en":"Fendi Women Bags","name_cn":"正品级 复刻版芬迪\n💗🎶 Fend•Iconic Peekaboo ISeeU 进口皮材质, 边缘和正面饰有同色系辫两侧编细节 饰有经典扭锁两个隔层 配有手柄和可调节可拆卸式肩带 可手提或斜挎Size:27-11-21cm \n327","specs":{"source":"wsxcme","sourceId":"_dbEbEYQ5cAIWBebaARBmlmoUmwStGM4ETDMZMMQ","sourceTagId":47002731,"sourceTagName":"芬迪/女包","rawTitle":"正品级 复刻版芬迪\n💗🎶 Fend•Iconic Peekaboo ISeeU 进口皮材质, 边缘和正面饰有同色系辫两侧编细节 饰有经典扭锁两个隔层 配有手柄和可调节可拆卸式肩带 可手提或斜挎Size:27-11-21cm \n327"},"price":null,"currency":"CNY","moq":1,"category":"fendi-women-bags","status":"active","alibaba_url":null,"images":["https://xcimg.szwego.com/20240619/i1718772024_5694_0.jpg","https://xcimg.szwego.com/20240619/i1718772024_8454_1.jpg","https://xcimg.szwego.com/20240619/i1718772024_4465_2.jpg","https://xcimg.szwego.com/20240619/i1718772024_241_3.jpg","https://xcimg.szwego.com/20240619/i1718772024_9792_4.jpg","https://xcimg.szwego.com/20240619/i1718772024_2046_5.jpg","https://xcimg.szwego.com/20240619/i1718772024_7019_6.jpg","https://xcimg.szwego.com/20240619/i1718772024_1280_7.jpg","https://xcimg.szwego.com/20240619/i1718772024_8964_8.jpg"],"created_at":"2024-11-11T10:33:53.459Z"},{"id":"item-031d9358838e","sku":"_dH2H2HCB1NSB7o1k9-W0To3pcBgC41oF1A6njkA","name_en":"Fendi Women Bags","name_cn":"正品级 复刻版芬迪\n💗杏色\n🎶Fend1•🥖baguette 经典中号款式 荔枝纹皮料, 不一样的设计 散发新的时尚感 \nSize:27-6-15 \n8600荔枝","specs":{"source":"wsxcme","sourceId":"_dH2H2HCB1NSB7o1k9-W0To3pcBgC41oF1A6njkA","sourceTagId":47002731,"sourceTagName":"芬迪/女包","rawTitle":"正品级 复刻版芬迪\n💗杏色\n🎶Fend1•🥖baguette 经典中号款式 荔枝纹皮料, 不一样的设计 散发新的时尚感 \nSize:27-6-15 \n8600荔枝"},"price":null,"currency":"CNY","moq":1,"category":"fendi-women-bags","status":"active","alibaba_url":null,"images":["https://xcimg.szwego.com/20240719/i1721380461_2030_0.jpg","https://xcimg.szwego.com/20240719/i1721380461_6226_1.jpg","https://xcimg.szwego.com/20240719/i1721380461_9797_2.jpg","https://xcimg.szwego.com/20240719/i1721380461_6339_3.jpg","https://xcimg.szwego.com/20240719/i1721380461_1769_4.jpg","https://xcimg.szwego.com/20240719/i1721380461_5879_5.jpg","https://xcimg.szwego.com/20240719/i1721380461_6139_6.jpg","https://xcimg.szwego.com/20240719/i1721380461_8707_7.jpg","https://xcimg.szwego.com/20240719/i1721380461_9194_8.jpg"],"created_at":"2024-11-11T10:33:53.458Z"},{"id":"item-5aff478bdd41","sku":"_d-O-Ohj0RlBO-qtDlNHOXQ1wVXQKqdJOkcVDKBw","name_en":"Fendi Women Bags","name_cn":"正品级 复刻版芬迪\n💗最新的老花Roll迷你菜篮子,深咖色小牛皮配老花字母带点复古感的时尚,自带的小牛皮长肩带可以自由拆卸,能斜挎也能手拎,容量也是杠杠的,可爱俏皮又实用!\n328\n尺寸:23*19.5*15","specs":{"source":"wsxcme","sourceId":"_d-O-Ohj0RlBO-qtDlNHOXQ1wVXQKqdJOkcVDKBw","sourceTagId":47002731,"sourceTagName":"芬迪/女包","rawTitle":"正品级 复刻版芬迪\n💗最新的老花Roll迷你菜篮子,深咖色小牛皮配老花字母带点复古感的时尚,自带的小牛皮长肩带可以自由拆卸,能斜挎也能手拎,容量也是杠杠的,可爱俏皮又实用!\n328\n尺寸:23*19.5*15"},"price":null,"currency":"CNY","moq":1,"category":"fendi-women-bags","status":"active","alibaba_url":null,"images":["https://xcimg.szwego.com/20240515/i1715711006_8141_0.jpg","https://xcimg.szwego.com/20240515/i1715711006_4059_1.jpg","https://xcimg.szwego.com/20240515/i1715711006_9509_2.jpg","https://xcimg.szwego.com/20240515/i1715711006_116_3.jpg","https://xcimg.szwego.com/20240515/i1715711006_6242_4.jpg","https://xcimg.szwego.com/20240515/i1715711006_195_5.jpg","https://xcimg.szwego.com/20240515/i1715711006_4257_6.jpg","https://xcimg.szwego.com/20240515/i1715711006_5085_7.jpg","https://xcimg.szwego.com/20240515/i1715711006_4042_8.jpg"],"created_at":"2024-11-11T10:33:53.457Z"},{"id":"item-3c395528357d","sku":"_dzQzQC6qceVssCvNA6pd_Gjijblhkh6io2uKuCw","name_en":"Fendi Women Bags","name_cn":"正品级 复刻版芬迪\n💗最新老花迷你法棍手机包,能同时放下2部手机噢,可爱又实用,不要太乖了,还能手提跟斜挎随意切换,快来把它带走吧。\n手机包\n尺寸:长19 宽3 高11\n8019","specs":{"source":"wsxcme","sourceId":"_dzQzQC6qceVssCvNA6pd_Gjijblhkh6io2uKuCw","sourceTagId":47002731,"sourceTagName":"芬迪/女包","rawTitle":"正品级 复刻版芬迪\n💗最新老花迷你法棍手机包,能同时放下2部手机噢,可爱又实用,不要太乖了,还能手提跟斜挎随意切换,快来把它带走吧。\n手机包\n尺寸:长19 宽3 高11\n8019"},"price":null,"currency":"CNY","moq":1,"category":"fendi-women-bags","status":"active","alibaba_url":null,"images":["https://xcimg.szwego.com/20240515/i1715711212_3351_0.jpg","https://xcimg.szwego.com/20240515/i1715711212_6743_1.jpg","https://xcimg.szwego.com/20240515/i1715711212_599_2.jpg","https://xcimg.szwego.com/20240515/i1715711212_9505_3.jpg","https://xcimg.szwego.com/20240515/i1715711212_2952_4.jpg","https://xcimg.szwego.com/20240515/i1715711212_7742_5.jpg","https://xcimg.szwego.com/20240515/i1715711212_1902_6.jpg","https://xcimg.szwego.com/20240515/i1715711212_2611_7.jpg","https://xcimg.szwego.com/20240515/i1715711212_498_8.jpg"],"created_at":"2024-11-11T10:33:53.456Z"},{"id":"item-55e3c21e7b0f","sku":"_dfmfmqBWvgRw4_oKz53MXVxJdB6KMMi9q_hIvhw","name_en":"Fendi Women Bags","name_cn":"正品级 复刻版芬迪\n💗新款老花版二合一链条包 Fendi Graphy,经典老花配上金属logo,简单不失格调,可以斜挎也能手拿,内附小卡袋,完美!\n款号076\n尺寸22x5x11cm","specs":{"source":"wsxcme","sourceId":"_dfmfmqBWvgRw4_oKz53MXVxJdB6KMMi9q_hIvhw","sourceTagId":47002731,"sourceTagName":"芬迪/女包","modelNumber":"076","dimensions":{"lengthCm":22,"heightCm":5,"widthCm":11},"rawTitle":"正品级 复刻版芬迪\n💗新款老花版二合一链条包 Fendi Graphy,经典老花配上金属logo,简单不失格调,可以斜挎也能手拿,内附小卡袋,完美!\n款号076\n尺寸22x5x11cm"},"price":null,"currency":"CNY","moq":1,"category":"fendi-women-bags","status":"active","alibaba_url":null,"images":["https://xcimg.szwego.com/20240530/i1717063174_6954_0.jpg","https://xcimg.szwego.com/20240530/i1717063174_8360_1.jpg","https://xcimg.szwego.com/20240530/i1717063174_5789_2.jpg","https://xcimg.szwego.com/20240530/i1717063174_6025_3.jpg","https://xcimg.szwego.com/20240530/i1717063174_2731_4.jpg","https://xcimg.szwego.com/20240530/i1717063174_8148_5.jpg","https://xcimg.szwego.com/20240530/i1717063174_1790_6.jpg","https://xcimg.szwego.com/20240530/i1717063174_5036_7.jpg","https://xcimg.szwego.com/20240530/i1717063174_9182_8.jpg"],"created_at":"2024-11-11T10:33:53.455Z"},{"id":"item-995e192ea599","sku":"_duiuiiQdYWmEWGX7llc3dG_L0HxhY6Xu01TFAmQ","name_en":"Fendi Women Bags","name_cn":"正品级 复刻版芬迪\n💗标志性小号Mon Tresor水桶包,全新比例,方便携带随身物品。原色拉菲草编材质。棕色皮革FENDI Roma字样。配有衬里和金色饰面金属件。饰有棕色皮革细节。一长一短两条可拆卸肩带,可单肩背或斜挎。\n12.14.18cm\n277","specs":{"source":"wsxcme","sourceId":"_duiuiiQdYWmEWGX7llc3dG_L0HxhY6Xu01TFAmQ","sourceTagId":47002731,"sourceTagName":"芬迪/女包","rawTitle":"正品级 复刻版芬迪\n💗标志性小号Mon Tresor水桶包,全新比例,方便携带随身物品。原色拉菲草编材质。棕色皮革FENDI Roma字样。配有衬里和金色饰面金属件。饰有棕色皮革细节。一长一短两条可拆卸肩带,可单肩背或斜挎。\n12.14.18cm\n277"},"price":null,"currency":"CNY","moq":1,"category":"fendi-women-bags","status":"active","alibaba_url":null,"images":["https://xcimg.szwego.com/20240702/i1719916401_3085_0.jpg","https://xcimg.szwego.com/20240702/i1719916401_3912_1.jpg","https://xcimg.szwego.com/20240702/i1719916401_5988_2.jpg","https://xcimg.szwego.com/20240702/i1719916401_6149_3.jpg","https://xcimg.szwego.com/20240702/i1719916401_9352_4.jpg","https://xcimg.szwego.com/20240702/i1719916401_2035_5.jpg","https://xcimg.szwego.com/20240702/i1719916401_6856_6.jpg","https://xcimg.szwego.com/20240702/i1719916401_8192_7.jpg","https://xcimg.szwego.com/20240702/i1719916401_23_8.jpg"],"created_at":"2024-11-11T10:33:53.454Z"},{"id":"item-0476124213b6","sku":"_dxpxpi5a5mVki_bOBEr6pQzoTrfgFDQt6gKT3Qw","name_en":"Fendi Women Bags","name_cn":"正品级 复刻版芬迪\n💗迷你新月包,原色拉菲草编材质。棕色皮革细节饰边,饰有复古金色金属FENDI字样。拉链开合,设有布料衬里内隔层,配金色饰面金属件。钩扣可作为提手手提,或搭配可调可拆式细肩带斜挎背着\n尺寸20cm\n款号8081","specs":{"source":"wsxcme","sourceId":"_dxpxpi5a5mVki_bOBEr6pQzoTrfgFDQt6gKT3Qw","sourceTagId":47002731,"sourceTagName":"芬迪/女包","modelNumber":"8081","rawTitle":"正品级 复刻版芬迪\n💗迷你新月包,原色拉菲草编材质。棕色皮革细节饰边,饰有复古金色金属FENDI字样。拉链开合,设有布料衬里内隔层,配金色饰面金属件。钩扣可作为提手手提,或搭配可调可拆式细肩带斜挎背着\n尺寸20cm\n款号8081"},"price":null,"currency":"CNY","moq":1,"category":"fendi-women-bags","status":"active","alibaba_url":null,"images":["https://xcimg.szwego.com/20240705/i1720112935_9487_0.jpg","https://xcimg.szwego.com/20240705/i1720112935_3531_1.jpg","https://xcimg.szwego.com/20240705/i1720112935_2883_2.jpg","https://xcimg.szwego.com/20240705/i1720112935_6198_3.jpg","https://xcimg.szwego.com/20240705/i1720112935_8688_4.jpg","https://xcimg.szwego.com/20240705/i1720112935_9708_5.jpg","https://xcimg.szwego.com/20240705/i1720112935_2068_6.jpg","https://xcimg.szwego.com/20240705/i1720112935_3180_7.jpg","https://xcimg.szwego.com/20240705/i1720112935_6136_8.jpg"],"created_at":"2024-11-11T10:33:53.453Z"}],"page":12,"pageSize":24,"total":348,"totalPages":15}
