{"items":[{"id":"item-364743a70605","sku":"_dvEvERokKi4ctqvhsyAJQcxTT2ey4quZNC7fJCA","name_en":"Saint Laurent Women Bags","name_cn":"💰\nys1 Jamie 4.3 large pochon羊皮腋下包\n设计师真的太懂消费者需要什么了吧\n很多托特包的设计都没法让颜值和实用性两者都兼得\n但是!这只tote做到了!\n它包身轻,容量大,而且还很优雅!\n是有设计在线,且贵气满满的实用型tote\n我觉得比22bag好看耶\n这是可以说的吗😝\n还是一只可以让你实现优雅带娃的妈咪包~\n34×27×3cm\n型号:809824","specs":{"source":"wsxcme","sourceId":"_dvEvERokKi4ctqvhsyAJQcxTT2ey4quZNC7fJCA","sourceTagId":47002761,"sourceTagName":"圣罗兰/女包","modelNumber":"809824","rawTitle":"💰\nys1 Jamie 4.3 large pochon羊皮腋下包\n设计师真的太懂消费者需要什么了吧\n很多托特包的设计都没法让颜值和实用性两者都兼得\n但是!这只tote做到了!\n它包身轻,容量大,而且还很优雅!\n是有设计在线,且贵气满满的实用型tote\n我觉得比22bag好看耶\n这是可以说的吗😝\n还是一只可以让你实现优雅带娃的妈咪包~\n34×27×3cm\n型号:809824"},"price":null,"currency":"CNY","moq":1,"category":"ysl-women-bags","status":"active","alibaba_url":null,"images":["https://xcimg.szwego.com/img/70397b92/20240917/i1726563899_3868_7.jpg","https://xcimg.szwego.com/img/70397b92/20240917/i1726563899_2470_4.jpg","https://xcimg.szwego.com/img/70397b92/20240917/i1726563899_5965_8.jpg","https://xcimg.szwego.com/img/70397b92/20240917/i1726563899_4360_1.jpg","https://xcimg.szwego.com/img/70397b92/20240917/i1726563899_8007_3.jpg","https://xcimg.szwego.com/img/70397b92/20240917/i1726563898_8372_0.jpg","https://xcimg.szwego.com/img/70397b92/20240917/i1726563899_2330_6.jpg","https://xcimg.szwego.com/img/70397b92/20240917/i1726563899_841_5.jpg","https://xcimg.szwego.com/img/70397b92/20240917/i1726563899_2736_2.jpg"],"created_at":"2025-07-20T03:05:44.234Z"},{"id":"item-353b1a18d077","sku":"_dExExAX4YmGJrgN1WcDPEL_J77Vw8MwJH7_GoYQ","name_en":"Saint Laurent Women Bags","name_cn":"官网图","specs":{"source":"wsxcme","sourceId":"_dExExAX4YmGJrgN1WcDPEL_J77Vw8MwJH7_GoYQ","sourceTagId":47002761,"sourceTagName":"圣罗兰/女包","rawTitle":"官网图"},"price":null,"currency":"CNY","moq":1,"category":"ysl-women-bags","status":"active","alibaba_url":null,"images":["https://xcimg.szwego.com/imgHD/f8c0bdc9/20251104/cmp_i1762247287375_8278_0_0.jpg","https://xcimg.szwego.com/imgHD/f8c0bdc9/20251104/cmp_i1762247287376_6575_0_1.jpg","https://xcimg.szwego.com/imgHD/f8c0bdc9/20251104/cmp_i1762247287376_6628_0_2.jpg","https://xcimg.szwego.com/imgHD/f8c0bdc9/20251104/cmp_i1762247287939_1165_0_3.jpg","https://xcimg.szwego.com/imgHD/f8c0bdc9/20251104/cmp_i1762247287374_204_0_4.jpg","https://xcimg.szwego.com/imgHD/f8c0bdc9/20251104/cmp_i1762247287375_4492_0_5.jpg","https://xcimg.szwego.com/imgHD/f8c0bdc9/20251104/cmp_i1762247287938_8029_0_6.jpg"],"created_at":"2026-06-29T10:48:59.069Z"},{"id":"item-34fcf79a2332","sku":"_d-C-CWpBgnJ97yaIRWzpcblyVfv8cckKeAQWUIg","name_en":"Saint Laurent Women Bags","name_cn":"暖棕调勾勒出美式复古的浪漫\n为整体搭配奠定低饱和的高级柔韵","specs":{"source":"wsxcme","sourceId":"_d-C-CWpBgnJ97yaIRWzpcblyVfv8cckKeAQWUIg","sourceTagId":47002761,"sourceTagName":"圣罗兰/女包","rawTitle":"暖棕调勾勒出美式复古的浪漫\n为整体搭配奠定低饱和的高级柔韵"},"price":null,"currency":"CNY","moq":1,"category":"ysl-women-bags","status":"active","alibaba_url":null,"images":["https://xcimg.szwego.com/imgHD/f8c0bdc9/20260622/cmp_i1782122807450_6884_0_0.jpg","https://xcimg.szwego.com/imgHD/f8c0bdc9/20260622/cmp_i1782122811893_3267_0_1.jpg","https://xcimg.szwego.com/imgHD/f8c0bdc9/20260622/cmp_i1782122807510_5472_0_2.jpg","https://xcimg.szwego.com/imgHD/f8c0bdc9/20260622/cmp_i1782122808255_3004_0_3.jpg","https://xcimg.szwego.com/imgHD/f8c0bdc9/20260622/cmp_i1782122809514_4557_0_4.jpg","https://xcimg.szwego.com/imgHD/f8c0bdc9/20260622/cmp_i1782122810804_7039_0_5.jpg","https://xcimg.szwego.com/imgHD/f8c0bdc9/20260622/cmp_i1782122808137_7170_0_6.jpg","https://xcimg.szwego.com/imgHD/f8c0bdc9/20260622/cmp_i1782122810297_8854_0_7.jpg","https://xcimg.szwego.com/imgHD/f8c0bdc9/20260622/cmp_i1782122810333_4083_0_8.jpg"],"created_at":"2026-06-29T10:48:59.499Z"},{"id":"item-347265af8813","sku":"_dqQqQP6k1Bk3KKu7q7m_pVuPHeSQkli46ZqZYRw","name_en":"Saint Laurent Women Bags","name_cn":"奶茶色·\nLE 5À7系列之新款超好看水桶包 带手提_全新包型,采用意大利小牛皮,包身轮廓简洁、立体,看上去硬挺又不会太凌厉,底部带有个金属脚钉,搭配经典标志性金属logo的插入式包扣,整体给人一种既经典优雅,又很时髦现代的独特气质!\n型号:742828\n尺寸:26×20×12cm","specs":{"source":"wsxcme","sourceId":"_dqQqQP6k1Bk3KKu7q7m_pVuPHeSQkli46ZqZYRw","sourceTagId":47002761,"sourceTagName":"圣罗兰/女包","modelNumber":"742828","dimensions":{"lengthCm":26,"heightCm":20,"widthCm":12},"rawTitle":"奶茶色·\nLE 5À7系列之新款超好看水桶包 带手提_全新包型,采用意大利小牛皮,包身轮廓简洁、立体,看上去硬挺又不会太凌厉,底部带有个金属脚钉,搭配经典标志性金属logo的插入式包扣,整体给人一种既经典优雅,又很时髦现代的独特气质!\n型号:742828\n尺寸:26×20×12cm"},"price":null,"currency":"CNY","moq":1,"category":"ysl-women-bags","status":"active","alibaba_url":null,"images":["https://xcimg.szwego.com/img/f8c0bdc9/20241018/i1729237437_7242_6.jpg","https://xcimg.szwego.com/img/f8c0bdc9/20241018/i1729237437_2035_2.jpg","https://xcimg.szwego.com/img/f8c0bdc9/20241018/i1729237437_9883_7.jpg","https://xcimg.szwego.com/img/f8c0bdc9/20241018/i1729237437_3583_3.jpg","https://xcimg.szwego.com/img/f8c0bdc9/20241018/i1729237437_3190_4.jpg","https://xcimg.szwego.com/img/f8c0bdc9/20241018/i1729237437_1138_0.jpg","https://xcimg.szwego.com/img/f8c0bdc9/20241018/i1729237437_2019_5.jpg","https://xcimg.szwego.com/img/f8c0bdc9/20241018/i1729237437_9756_1.jpg","https://xcimg.szwego.com/img/f8c0bdc9/20241018/i1729237437_6065_8.jpg"],"created_at":"2026-06-29T10:54:45.136Z"},{"id":"item-33fbf503d84a","sku":"_dtFtFbTs95TlCcrx9MM70DmIKStYg_68UT6xghw","name_en":"Saint Laurent Women Bags","name_cn":"【黑色银扣】\nLouLou_大号\n看一眼就陷进去的大包!!️自重感轻容量很大 进口意大利细腻牛皮,翻盖磁扣设计方便又安全  各大肯豆通勤娱乐必备款~完全不会过时的存在,快 get 这款男生/女生都可背的包包   休闲通勤还可容量大还很轻便!\n款号:574947\n尺寸:36×27×14cm","specs":{"source":"wsxcme","sourceId":"_dtFtFbTs95TlCcrx9MM70DmIKStYg_68UT6xghw","sourceTagId":47002761,"sourceTagName":"圣罗兰/女包","modelNumber":"574947","dimensions":{"lengthCm":36,"heightCm":27,"widthCm":14},"rawTitle":"【黑色银扣】\nLouLou_大号\n看一眼就陷进去的大包!!️自重感轻容量很大 进口意大利细腻牛皮,翻盖磁扣设计方便又安全  各大肯豆通勤娱乐必备款~完全不会过时的存在,快 get 这款男生/女生都可背的包包   休闲通勤还可容量大还很轻便!\n款号:574947\n尺寸:36×27×14cm"},"price":null,"currency":"CNY","moq":1,"category":"ysl-women-bags","status":"active","alibaba_url":null,"images":["https://xcimg.szwego.com/img/f8c0bdc9/20240606/i1717676151_8792_3.jpg","https://xcimg.szwego.com/img/f8c0bdc9/20240606/i1717676151_3541_4.jpg","https://xcimg.szwego.com/img/f8c0bdc9/20240606/i1717676151_9352_8.jpg","https://xcimg.szwego.com/img/f8c0bdc9/20240606/i1717676151_4599_7.jpg","https://xcimg.szwego.com/img/f8c0bdc9/20240606/i1717676151_9899_1.jpg","https://xcimg.szwego.com/img/f8c0bdc9/20240606/i1717676151_1562_6.jpg","https://xcimg.szwego.com/img/f8c0bdc9/20240606/i1717676151_4774_2.jpg","https://xcimg.szwego.com/img/f8c0bdc9/20240606/i1717676151_3444_0.jpg","https://xcimg.szwego.com/img/f8c0bdc9/20240606/i1717676151_4759_5.jpg"],"created_at":"2025-03-07T08:30:45.109Z"},{"id":"item-32ab6b3fd2f9","sku":"_dDADAUhegNGAu3wDv8z5xkITwXJ8fxmjmUVPkxA","name_en":"Saint Laurent Women Bags","name_cn":"小羊皮的高级质感 爱不释手","specs":{"source":"wsxcme","sourceId":"_dDADAUhegNGAu3wDv8z5xkITwXJ8fxmjmUVPkxA","sourceTagId":47002761,"sourceTagName":"圣罗兰/女包","rawTitle":"小羊皮的高级质感 爱不释手"},"price":null,"currency":"CNY","moq":1,"category":"ysl-women-bags","status":"active","alibaba_url":null,"images":["https://xcimg.szwego.com/20230720/i1689850017_7472_0.jpg","https://xcimg.szwego.com/20230720/i1689850017_7929_1.jpg","https://xcimg.szwego.com/20230720/i1689850017_8102_2.jpg","https://xcimg.szwego.com/20230720/i1689850017_1843_3.jpg","https://xcimg.szwego.com/20230720/i1689850017_9396_4.jpg","https://xcimg.szwego.com/20230720/i1689850017_1708_5.jpg","https://xcimg.szwego.com/20230720/i1689850017_2066_6.jpg","https://xcimg.szwego.com/20230720/i1689850017_4342_7.jpg"],"created_at":"2026-06-29T10:48:59.189Z"},{"id":"item-3165f17ce86d","sku":"_dp4p4tXNo7J3_Xsaf8BsTbLE0AHbke_UzK-ie0Q","name_en":"Saint Laurent Women Bags","name_cn":"【黑色】\nLE 5A7系列新成员_手机包👓\n墙裂推荐这款迷你手机包 对于览包无数的时髦精 安利这种设计精致小巧 轻松凹造型✌🏻️极简外形+金属logo扣开合设计!\n实用又时髦 是日常搭配率蛮高的单品la~\n尺寸:18×13.5×3.5cm\n型号:735214","specs":{"source":"wsxcme","sourceId":"_dp4p4tXNo7J3_Xsaf8BsTbLE0AHbke_UzK-ie0Q","sourceTagId":47002761,"sourceTagName":"圣罗兰/女包","modelNumber":"735214","dimensions":{"lengthCm":18,"heightCm":13.5,"widthCm":3.5},"rawTitle":"【黑色】\nLE 5A7系列新成员_手机包👓\n墙裂推荐这款迷你手机包 对于览包无数的时髦精 安利这种设计精致小巧 轻松凹造型✌🏻️极简外形+金属logo扣开合设计!\n实用又时髦 是日常搭配率蛮高的单品la~\n尺寸:18×13.5×3.5cm\n型号:735214"},"price":null,"currency":"CNY","moq":1,"category":"ysl-women-bags","status":"active","alibaba_url":null,"images":["https://xcimg.szwego.com/20230417/i1681729893_6806_0.jpg","https://xcimg.szwego.com/20230417/i1681729893_6979_1.jpg","https://xcimg.szwego.com/20230417/i1681729893_7541_2.jpg","https://xcimg.szwego.com/20230417/i1681729893_5529_3.jpg","https://xcimg.szwego.com/20230417/i1681729893_4990_4.jpg","https://xcimg.szwego.com/20230417/i1681729893_8194_5.jpg","https://xcimg.szwego.com/20230417/i1681729893_4002_6.jpg","https://xcimg.szwego.com/20230417/i1681729893_3391_7.jpg","https://xcimg.szwego.com/20230417/i1681729893_9582_8.jpg"],"created_at":"2024-12-08T05:44:28.955Z"},{"id":"item-310cd544dc32","sku":"_dp8p8UiHAm2555QAQ00danfi73SVacuxUUtyRhg","name_en":"Saint Laurent Women Bags","name_cn":"酒红色·\nLE 37_水桶包迷你\n出场既火爆时尚圈的水桶包!\n光面牛皮包身轮廓简洁、立体,看上去硬挺却不会太凌厉。\n搭配上品牌标志性logo新设计的插入式包扣,整体给人一种既经典优雅,又很时髦现代的独特气质。\n款号:765870\n尺寸:15x13x6cm","specs":{"source":"wsxcme","sourceId":"_dp8p8UiHAm2555QAQ00danfi73SVacuxUUtyRhg","sourceTagId":47002761,"sourceTagName":"圣罗兰/女包","modelNumber":"765870","dimensions":{"lengthCm":15,"heightCm":13,"widthCm":6},"rawTitle":"酒红色·\nLE 37_水桶包迷你\n出场既火爆时尚圈的水桶包!\n光面牛皮包身轮廓简洁、立体,看上去硬挺却不会太凌厉。\n搭配上品牌标志性logo新设计的插入式包扣,整体给人一种既经典优雅,又很时髦现代的独特气质。\n款号:765870\n尺寸:15x13x6cm"},"price":null,"currency":"CNY","moq":1,"category":"ysl-women-bags","status":"active","alibaba_url":null,"images":["https://xcimg.szwego.com/img/f8c0bdc9/20241018/i1729243662_356_1.jpg","https://xcimg.szwego.com/img/f8c0bdc9/20241018/i1729243662_9083_7.jpg","https://xcimg.szwego.com/img/f8c0bdc9/20241018/i1729243662_6121_3.jpg","https://xcimg.szwego.com/img/f8c0bdc9/20241018/i1729243662_8523_6.jpg","https://xcimg.szwego.com/img/f8c0bdc9/20241018/i1729243662_9788_4.jpg","https://xcimg.szwego.com/img/f8c0bdc9/20241018/i1729243662_847_5.jpg","https://xcimg.szwego.com/img/f8c0bdc9/20241018/i1729243662_3862_8.jpg","https://xcimg.szwego.com/img/f8c0bdc9/20241018/i1729243662_6968_2.jpg","https://xcimg.szwego.com/img/f8c0bdc9/20241018/i1729243662_2878_0.jpg"],"created_at":"2026-06-29T10:54:44.786Z"},{"id":"item-2f533d8dcf36","sku":"_dcxcxdf8wTr-5jLgMQqd7reFXgiKZfrswwzclsA","name_en":"Saint Laurent Women Bags","name_cn":"黑色金扣油蜡皮·双链条\nLoulou Puffer mini_迷你号双链条包来袭!整包采用进口油蜡皮制作,搭配Y家斜条纹绗缝工艺,拥有柔和质地的前翻盖袋,搭配可拆卸肩带,可以做收纳包,还可以使用调节扣来做腋下包,轻松实现一包多用!\n型号:759337~168520\n尺寸:23×15.5×8.5cm","specs":{"source":"wsxcme","sourceId":"_dcxcxdf8wTr-5jLgMQqd7reFXgiKZfrswwzclsA","sourceTagId":47002761,"sourceTagName":"圣罗兰/女包","modelNumber":"759337~168520","dimensions":{"lengthCm":23,"heightCm":15.5,"widthCm":8.5},"rawTitle":"黑色金扣油蜡皮·双链条\nLoulou Puffer mini_迷你号双链条包来袭!整包采用进口油蜡皮制作,搭配Y家斜条纹绗缝工艺,拥有柔和质地的前翻盖袋,搭配可拆卸肩带,可以做收纳包,还可以使用调节扣来做腋下包,轻松实现一包多用!\n型号:759337~168520\n尺寸:23×15.5×8.5cm"},"price":null,"currency":"CNY","moq":1,"category":"ysl-women-bags","status":"active","alibaba_url":null,"images":["https://xcimg.szwego.com/img/4bdd288e/20240616/a1718552755261_0760.jpg","https://xcimg.szwego.com/img/4bdd288e/20240616/a1718552755193_5445.jpg","https://xcimg.szwego.com/img/4bdd288e/20240616/a1718552755181_3056.jpg","https://xcimg.szwego.com/img/4bdd288e/20240616/a1718552755162_5351.jpg","https://xcimg.szwego.com/img/4bdd288e/20240616/a1718552755631_1044.jpg","https://xcimg.szwego.com/img/4bdd288e/20240616/a1718552755404_4523.jpg","https://xcimg.szwego.com/img/4bdd288e/20240616/a1718552758421_1011.jpg","https://xcimg.szwego.com/img/4bdd288e/20240616/a1718552758417_7805.jpg","https://xcimg.szwego.com/img/4bdd288e/20240616/a1718552758944_3020.jpg"],"created_at":"2025-07-20T03:05:44.193Z"},{"id":"item-2f2dcd3c0d1d","sku":"_dd5d5SNDvViD67lobreF31ZkWwEmlKGNWVrPXbQ","name_en":"Saint Laurent Women Bags","name_cn":"💰\n22YSL秋冬平纹压印皮革\nSAINT LAURENT PARIS迷你购物包\n迷你购物包,按扣开合设计,搭配可拆卸皮革包覆经典YSL标志吊饰!黑色亮面牛皮的材质,很耐用质感也很棒!\n款号:773995560\n尺寸:18 X 17 X 8","specs":{"source":"wsxcme","sourceId":"_dd5d5SNDvViD67lobreF31ZkWwEmlKGNWVrPXbQ","sourceTagId":47002761,"sourceTagName":"圣罗兰/女包","modelNumber":"773995560","rawTitle":"💰\n22YSL秋冬平纹压印皮革\nSAINT LAURENT PARIS迷你购物包\n迷你购物包,按扣开合设计,搭配可拆卸皮革包覆经典YSL标志吊饰!黑色亮面牛皮的材质,很耐用质感也很棒!\n款号:773995560\n尺寸:18 X 17 X 8"},"price":null,"currency":"CNY","moq":1,"category":"ysl-women-bags","status":"active","alibaba_url":null,"images":["https://xcimg.szwego.com/img/b28ef27a/20240429/i1714379192_7750_3.jpg","https://xcimg.szwego.com/img/b28ef27a/20240429/i1714379192_4914_5.jpg","https://xcimg.szwego.com/img/b28ef27a/20240429/i1714379192_961_6.jpg","https://xcimg.szwego.com/img/b28ef27a/20240429/i1714379192_2388_4.jpg","https://xcimg.szwego.com/img/b28ef27a/20240429/i1714379192_2020_7.jpg","https://xcimg.szwego.com/img/b28ef27a/20240429/i1714379192_3154_1.jpg","https://xcimg.szwego.com/img/b28ef27a/20240429/i1714379192_5676_0.jpg","https://xcimg.szwego.com/img/b28ef27a/20240429/i1714379192_4912_2.jpg","https://xcimg.szwego.com/img/b28ef27a/20240429/i1714379193_4598_8.jpg"],"created_at":"2025-07-20T03:05:44.206Z"},{"id":"item-2da1da35757b","sku":"_dofofJZ1ZDYjePEqKjC02d2eQvRinqiVLqP8RiQ","name_en":"Saint Laurent Women Bags","name_cn":"折叠风琴包型立体有型\n配有黄铜挂锁 简约大方","specs":{"source":"wsxcme","sourceId":"_dofofJZ1ZDYjePEqKjC02d2eQvRinqiVLqP8RiQ","sourceTagId":47002761,"sourceTagName":"圣罗兰/女包","rawTitle":"折叠风琴包型立体有型\n配有黄铜挂锁 简约大方"},"price":null,"currency":"CNY","moq":1,"category":"ysl-women-bags","status":"active","alibaba_url":null,"images":["https://xcimg.szwego.com/imgHD/f8c0bdc9/20251120/cmp_i1763629512892_7923_0_0.jpg","https://xcimg.szwego.com/imgHD/f8c0bdc9/20251120/cmp_i1763629512874_310_0_1.jpg","https://xcimg.szwego.com/imgHD/f8c0bdc9/20251120/cmp_i1763629512884_9007_0_2.jpg","https://xcimg.szwego.com/imgHD/f8c0bdc9/20251120/cmp_i1763629512877_2752_0_3.jpg"],"created_at":"2026-06-29T10:48:58.599Z"},{"id":"item-2d0604ea70ac","sku":"_d_c_cPPYsAX4Ojfpst_h3vRWHKWDAgVewq4FFtg","name_en":"Saint Laurent Women Bags","name_cn":"黑色银扣·\nSOLFERINO BOX_19cm\n必火爆款,还没上市就攻陷了整个时尚圈,怀旧左岸,灵感来自巴黎左岸街名Rue De Solferino为名!包包采用原厂细牙签纹Box牛皮,手感及皮面的柔韧度都非常好!内里设计三层风琴隔,可轻松容纳日常所需物品,全新设计的“L”字母上下对半开扣,彻底颠覆你对包扣的认知,不禁让人发出惊叹,原来还能这样开包包,简直不要太有趣了!\n型号:634306\n尺寸:19x13x5cm","specs":{"source":"wsxcme","sourceId":"_d_c_cPPYsAX4Ojfpst_h3vRWHKWDAgVewq4FFtg","sourceTagId":47002761,"sourceTagName":"圣罗兰/女包","modelNumber":"634306","dimensions":{"lengthCm":19,"heightCm":13,"widthCm":5},"rawTitle":"黑色银扣·\nSOLFERINO BOX_19cm\n必火爆款,还没上市就攻陷了整个时尚圈,怀旧左岸,灵感来自巴黎左岸街名Rue De Solferino为名!包包采用原厂细牙签纹Box牛皮,手感及皮面的柔韧度都非常好!内里设计三层风琴隔,可轻松容纳日常所需物品,全新设计的“L”字母上下对半开扣,彻底颠覆你对包扣的认知,不禁让人发出惊叹,原来还能这样开包包,简直不要太有趣了!\n型号:634306\n尺寸:19x13x5cm"},"price":null,"currency":"CNY","moq":1,"category":"ysl-women-bags","status":"active","alibaba_url":null,"images":["https://xcimg.szwego.com/img/f8c0bdc9/20241025/i1729830699_6484_0.jpg","https://xcimg.szwego.com/img/f8c0bdc9/20241025/i1729830700_5841_5.jpg","https://xcimg.szwego.com/img/f8c0bdc9/20241025/i1729830699_5600_1.jpg","https://xcimg.szwego.com/img/f8c0bdc9/20241025/i1729830700_4443_7.jpg","https://xcimg.szwego.com/img/f8c0bdc9/20241025/i1729830700_8247_8.jpg","https://xcimg.szwego.com/img/f8c0bdc9/20241025/i1729830699_7186_3.jpg","https://xcimg.szwego.com/img/f8c0bdc9/20241025/i1729830700_2124_4.jpg","https://xcimg.szwego.com/img/f8c0bdc9/20241025/i1729830700_3840_6.jpg","https://xcimg.szwego.com/img/f8c0bdc9/20241025/i1729830699_8399_2.jpg"],"created_at":"2026-06-29T10:54:44.926Z"},{"id":"item-2bbbfb78f5fc","sku":"_dmHmH1Dpw_n8UFhFFC7gobY5Pk2lyv2-fY32NdQ","name_en":"Saint Laurent Women Bags","name_cn":"松弛感十足!也太好看了吧😎","specs":{"source":"wsxcme","sourceId":"_dmHmH1Dpw_n8UFhFFC7gobY5Pk2lyv2-fY32NdQ","sourceTagId":47002761,"sourceTagName":"圣罗兰/女包","rawTitle":"松弛感十足!也太好看了吧😎"},"price":null,"currency":"CNY","moq":1,"category":"ysl-women-bags","status":"active","alibaba_url":null,"images":["https://xcimg.szwego.com/img/fce24e4d/20240913/i1726199901_9460_3.jpg","https://xcimg.szwego.com/img/fce24e4d/20240913/i1726199901_9215_1.jpg","https://xcimg.szwego.com/img/fce24e4d/20240913/i1726199901_1403_2.jpg","https://xcimg.szwego.com/img/fce24e4d/20240913/i1726199901_4083_0.jpg"],"created_at":"2025-07-20T03:05:44.253Z"},{"id":"item-2b94be4f19eb","sku":"_da6a657Qfi3LeMWphSOLxj4tifkezTJImoKJHyQ","name_en":"Saint Laurent Women Bags","name_cn":"专柜实拍","specs":{"source":"wsxcme","sourceId":"_da6a657Qfi3LeMWphSOLxj4tifkezTJImoKJHyQ","sourceTagId":47002761,"sourceTagName":"圣罗兰/女包","rawTitle":"专柜实拍"},"price":null,"currency":"CNY","moq":1,"category":"ysl-women-bags","status":"active","alibaba_url":null,"images":["https://xcimg.szwego.com/img/bce60362/20240423/a1713841647208_0641.jpg","https://xcimg.szwego.com/img/bce60362/20240423/a1713841647207_1775.jpg","https://xcimg.szwego.com/img/bce60362/20240423/a1713841647209_8055.jpg","https://xcimg.szwego.com/img/bce60362/20240423/a1713841647208_1424.jpg","https://xcimg.szwego.com/img/bce60362/20240423/a1713841647209_1774.jpg","https://xcimg.szwego.com/img/bce60362/20240423/a1713841647210_6047.jpg","https://xcimg.szwego.com/img/bce60362/20240423/a1713841647941_3832.jpg","https://xcimg.szwego.com/img/bce60362/20240423/a1713841648028_7560.jpg","https://xcimg.szwego.com/img/bce60362/20240423/a1713841647935_4074.jpg"],"created_at":"2025-07-20T03:10:54.220Z"},{"id":"item-28991c85d460","sku":"_dBvBvIex5TLbd-VsEImGeaBRGR60mphhRXVGyWw","name_en":"Saint Laurent Women Bags","name_cn":"官网图参考▪️","specs":{"source":"wsxcme","sourceId":"_dBvBvIex5TLbd-VsEImGeaBRGR60mphhRXVGyWw","sourceTagId":47002761,"sourceTagName":"圣罗兰/女包","rawTitle":"官网图参考▪️"},"price":null,"currency":"CNY","moq":1,"category":"ysl-women-bags","status":"active","alibaba_url":null,"images":["https://xcimg.szwego.com/img/a2a6846e/20240630/i1719727629_8595_5.jpg","https://xcimg.szwego.com/img/a2a6846e/20240630/i1719727629_7905_1.jpg","https://xcimg.szwego.com/img/a2a6846e/20240630/i1719727629_6046_0.jpg","https://xcimg.szwego.com/img/a2a6846e/20240630/i1719727629_6749_4.jpg","https://xcimg.szwego.com/img/a2a6846e/20240630/i1719727629_6360_3.jpg","https://xcimg.szwego.com/img/a2a6846e/20240630/i1719727629_9352_6.jpg","https://xcimg.szwego.com/img/a2a6846e/20240630/i1719727629_6202_2.jpg"],"created_at":"2025-07-20T03:05:44.174Z"},{"id":"item-28545261a1e6","sku":"_dqWqWFQ6Sz6vUaVtIocVuQM37yZY_StcOM8qErQ","name_en":"Saint Laurent Women Bags","name_cn":"侧面风琴式皱褶 附带有手提\n肩背手提都很有气质","specs":{"source":"wsxcme","sourceId":"_dqWqWFQ6Sz6vUaVtIocVuQM37yZY_StcOM8qErQ","sourceTagId":47002761,"sourceTagName":"圣罗兰/女包","rawTitle":"侧面风琴式皱褶 附带有手提\n肩背手提都很有气质"},"price":null,"currency":"CNY","moq":1,"category":"ysl-women-bags","status":"active","alibaba_url":null,"images":["https://xcimg.szwego.com/imgHD/f8c0bdc9/20260129/cmp_i1769675549455_8094_0_0.jpg","https://xcimg.szwego.com/imgHD/f8c0bdc9/20260129/cmp_i1769675549419_1807_0_1.jpg","https://xcimg.szwego.com/imgHD/f8c0bdc9/20260129/cmp_i1769675549478_7505_0_2.jpg","https://xcimg.szwego.com/imgHD/f8c0bdc9/20260129/cmp_i1769675549395_8877_0_3.jpg"],"created_at":"2026-06-29T10:48:58.779Z"},{"id":"item-26fce344768c","sku":"_ddTdTqbng7KjsAeHsgIcee344XV5_DDvnngFOAw","name_en":"Saint Laurent Women Bags","name_cn":"羊皮黑/银❗️❗️顶级原单、精品专供❗️❗️\n #Loulou puffer#中号29CM🐑绗缝小羊皮包,原厂正品皮制作,手感柔软细腻,犹如怀抱云朵☁️般的感受;经典的Y家logo、链条及扣眼五金均采用巴金哑光银五金,包袋开口处折叠后使用了磁性四合扣封口,密闭性及安全性一流;包内设有一个拉链内袋可放置手机及贵重物品,除此之外无多余内袋设计,使用起来随心所欲!正品皮!正品皮!正品皮!\n尺寸:29x17x11cm  \n型号:577476","specs":{"source":"wsxcme","sourceId":"_ddTdTqbng7KjsAeHsgIcee344XV5_DDvnngFOAw","sourceTagId":47002761,"sourceTagName":"圣罗兰/女包","modelNumber":"577476","dimensions":{"lengthCm":29,"heightCm":17,"widthCm":11},"rawTitle":"羊皮黑/银❗️❗️顶级原单、精品专供❗️❗️\n #Loulou puffer#中号29CM🐑绗缝小羊皮包,原厂正品皮制作,手感柔软细腻,犹如怀抱云朵☁️般的感受;经典的Y家logo、链条及扣眼五金均采用巴金哑光银五金,包袋开口处折叠后使用了磁性四合扣封口,密闭性及安全性一流;包内设有一个拉链内袋可放置手机及贵重物品,除此之外无多余内袋设计,使用起来随心所欲!正品皮!正品皮!正品皮!\n尺寸:29x17x11cm  \n型号:577476"},"price":null,"currency":"CNY","moq":1,"category":"ysl-women-bags","status":"active","alibaba_url":null,"images":["https://xcimg.szwego.com/20220824/i1661271457_1696_0.jpg","https://xcimg.szwego.com/20220824/i1661271457_7526_1.jpg","https://xcimg.szwego.com/20220824/i1661271457_2262_2.jpg","https://xcimg.szwego.com/20220824/i1661271457_8301_3.jpg","https://xcimg.szwego.com/20220824/i1661271457_100_4.jpg","https://xcimg.szwego.com/20220824/i1661271457_9726_5.jpg","https://xcimg.szwego.com/20220824/i1661271457_6136_6.jpg","https://xcimg.szwego.com/20220824/i1661271457_9202_7.jpg"],"created_at":"2024-12-08T05:43:52.004Z"},{"id":"item-26cabe5033d0","sku":"_dt9t9cAHM6xEK3a667PYFjsqM_v3cMu-OhNrU-A","name_en":"Saint Laurent Women Bags","name_cn":"杏色·\nSOLFERINO BOX_19cm\n必火爆款,还没上市就攻陷了整个时尚圈,怀旧左岸,灵感来自巴黎左岸街名Rue De Solferino为名!包包采用原厂细牙签纹Box牛皮,手感及皮面的柔韧度都非常好!内里设计三层风琴隔,可轻松容纳日常所需物品,全新设计的“L”字母上下对半开扣,彻底颠覆你对包扣的认知,不禁让人发出惊叹,原来还能这样开包包,简直不要太有趣了!\n型号:634306\n尺寸:19x13x5cm","specs":{"source":"wsxcme","sourceId":"_dt9t9cAHM6xEK3a667PYFjsqM_v3cMu-OhNrU-A","sourceTagId":47002761,"sourceTagName":"圣罗兰/女包","modelNumber":"634306","dimensions":{"lengthCm":19,"heightCm":13,"widthCm":5},"rawTitle":"杏色·\nSOLFERINO BOX_19cm\n必火爆款,还没上市就攻陷了整个时尚圈,怀旧左岸,灵感来自巴黎左岸街名Rue De Solferino为名!包包采用原厂细牙签纹Box牛皮,手感及皮面的柔韧度都非常好!内里设计三层风琴隔,可轻松容纳日常所需物品,全新设计的“L”字母上下对半开扣,彻底颠覆你对包扣的认知,不禁让人发出惊叹,原来还能这样开包包,简直不要太有趣了!\n型号:634306\n尺寸:19x13x5cm"},"price":null,"currency":"CNY","moq":1,"category":"ysl-women-bags","status":"active","alibaba_url":null,"images":["https://xcimg.szwego.com/img/f8c0bdc9/20241025/i1729837620_79_2.jpg","https://xcimg.szwego.com/img/f8c0bdc9/20241025/i1729837620_8853_8.jpg","https://xcimg.szwego.com/img/f8c0bdc9/20241025/i1729837620_2212_7.jpg","https://xcimg.szwego.com/img/f8c0bdc9/20241025/i1729837620_9736_4.jpg","https://xcimg.szwego.com/img/f8c0bdc9/20241025/i1729837620_8309_6.jpg","https://xcimg.szwego.com/img/f8c0bdc9/20241025/i1729837620_9910_0.jpg","https://xcimg.szwego.com/img/f8c0bdc9/20241025/i1729837620_1325_1.jpg","https://xcimg.szwego.com/img/f8c0bdc9/20241025/i1729837620_5293_5.jpg","https://xcimg.szwego.com/img/f8c0bdc9/20241025/i1729837620_8456_3.jpg"],"created_at":"2026-06-29T10:54:44.966Z"},{"id":"item-260d9ce088eb","sku":"_dQOQOeAYyYsVeJAdurlWyKqlLn0brqVEgcuVDcQ","name_en":"Saint Laurent Women Bags","name_cn":"复古 时髦 精致并存","specs":{"source":"wsxcme","sourceId":"_dQOQOeAYyYsVeJAdurlWyKqlLn0brqVEgcuVDcQ","sourceTagId":47002761,"sourceTagName":"圣罗兰/女包","rawTitle":"复古 时髦 精致并存"},"price":null,"currency":"CNY","moq":1,"category":"ysl-women-bags","status":"active","alibaba_url":null,"images":["https://xcimg.szwego.com/20230720/i1689849444_1977_0.jpg","https://xcimg.szwego.com/20230720/i1689849444_8627_1.jpg","https://xcimg.szwego.com/20230720/i1689849444_8285_2.jpg","https://xcimg.szwego.com/20230720/i1689849444_285_3.jpg","https://xcimg.szwego.com/20230720/i1689849444_3515_4.jpg","https://xcimg.szwego.com/20230720/i1689849444_6641_5.jpg","https://xcimg.szwego.com/20230720/i1689849444_6413_6.jpg","https://xcimg.szwego.com/20230720/i1689849444_7431_7.jpg"],"created_at":"2026-06-29T10:48:59.299Z"},{"id":"item-2588287dddb4","sku":"_dDrDrBX1N1PvqvXKDzZSIAj_hFJFZo_f5xnyAjg","name_en":"Saint Laurent Women Bags","name_cn":"【原厂皮】🌈精品专供🔥黑羊皮/金\nCALYPSO 简约而不失优雅圣罗兰的新标志性手袋!浓郁的法式风情!古铜色配件按扣开合、一个内部拉链口袋。包型由细粒度进口羊皮制成、有衬垫绗缝、手袋柔软宽敞,是日常使用的理想尺寸、包袋简约大气略带复古感!是独立成功女姓的首选包包👍\n型号:777399【原厂皮】\n尺寸:37x21x10cm","specs":{"source":"wsxcme","sourceId":"_dDrDrBX1N1PvqvXKDzZSIAj_hFJFZo_f5xnyAjg","sourceTagId":47002761,"sourceTagName":"圣罗兰/女包","modelNumber":"777399【原厂皮】","dimensions":{"lengthCm":37,"heightCm":21,"widthCm":10},"rawTitle":"【原厂皮】🌈精品专供🔥黑羊皮/金\nCALYPSO 简约而不失优雅圣罗兰的新标志性手袋!浓郁的法式风情!古铜色配件按扣开合、一个内部拉链口袋。包型由细粒度进口羊皮制成、有衬垫绗缝、手袋柔软宽敞,是日常使用的理想尺寸、包袋简约大气略带复古感!是独立成功女姓的首选包包👍\n型号:777399【原厂皮】\n尺寸:37x21x10cm"},"price":null,"currency":"CNY","moq":1,"category":"ysl-women-bags","status":"active","alibaba_url":null,"images":["https://xcimg.szwego.com/img/fce24e4d/20240521/i1716295419_3942_3.jpg","https://xcimg.szwego.com/img/fce24e4d/20240521/i1716295419_6989_5.jpg","https://xcimg.szwego.com/img/fce24e4d/20240521/i1716295419_4260_0.jpg","https://xcimg.szwego.com/img/fce24e4d/20240521/i1716295419_5073_1.jpg","https://xcimg.szwego.com/img/fce24e4d/20240521/i1716295419_1730_6.jpg","https://xcimg.szwego.com/img/fce24e4d/20240521/i1716295419_8787_4.jpg","https://xcimg.szwego.com/img/fce24e4d/20240521/i1716295419_8432_7.jpg","https://xcimg.szwego.com/img/fce24e4d/20240521/i1716295419_7738_2.jpg","https://xcimg.szwego.com/img/fce24e4d/20240521/i1716295419_1757_8.jpg"],"created_at":"2025-02-08T12:46:07.485Z"},{"id":"item-223996cdc49f","sku":"_dnKnKGFQc2l8OIhneidB7YPteNOkvzS4ycNNWLg","name_en":"Saint Laurent Women Bags","name_cn":"格纹链条包 复古潮流","specs":{"source":"wsxcme","sourceId":"_dnKnKGFQc2l8OIhneidB7YPteNOkvzS4ycNNWLg","sourceTagId":47002761,"sourceTagName":"圣罗兰/女包","rawTitle":"格纹链条包 复古潮流"},"price":null,"currency":"CNY","moq":1,"category":"ysl-women-bags","status":"active","alibaba_url":null,"images":["https://xcimg.szwego.com/20230720/i1689849940_803_0.jpg","https://xcimg.szwego.com/20230720/i1689849940_6989_1.jpg","https://xcimg.szwego.com/20230720/i1689849940_7587_2.jpg","https://xcimg.szwego.com/20230720/i1689849940_6932_3.jpg"],"created_at":"2026-06-29T10:48:59.179Z"},{"id":"item-212806cf9308","sku":"_dfBfBNG1C6zbwmbZCjwl1KC3TSfRyhRNemEthBw","name_en":"Saint Laurent Women Bags","name_cn":"803541 细节实拍","specs":{"source":"wsxcme","sourceId":"_dfBfBNG1C6zbwmbZCjwl1KC3TSfRyhRNemEthBw","sourceTagId":47002761,"sourceTagName":"圣罗兰/女包","rawTitle":"803541 细节实拍"},"price":null,"currency":"CNY","moq":1,"category":"ysl-women-bags","status":"active","alibaba_url":null,"images":["https://xcimg.szwego.com/img/ffb49dcd/20250425/i1745577888624_1614_0_3.jpg","https://xcimg.szwego.com/img/ffb49dcd/20250425/i1745577886746_7880_0_4.jpg","https://xcimg.szwego.com/img/ffb49dcd/20250425/i1745577899775_6296_0_2.jpg","https://xcimg.szwego.com/img/ffb49dcd/20250425/i1745577899098_9057_0_3.jpg","https://xcimg.szwego.com/img/ffb49dcd/20250425/i1745577899163_2819_0_4.jpg","https://xcimg.szwego.com/img/ffb49dcd/20250425/i1745577899199_3061_0_5.jpg","https://xcimg.szwego.com/img/ffb49dcd/20250425/i1745577888427_6010_0_8.jpg","https://xcimg.szwego.com/img/ffb49dcd/20250425/i1745577888760_3919_0_0.jpg"],"created_at":"2026-05-20T04:01:38.753Z"},{"id":"item-2035da043724","sku":"_dqlqlUtpLETN00fgnB-t-S61OmNch7ceMd0RCGg","name_en":"Saint Laurent Women Bags","name_cn":"土黄牛皮配棉麻·\n24ss 新款购物袋\n艺术与个性的独特融合,Y家总是眼光独到,深得时尚顶流的心,Y字牛皮的设计让人眼前一亮,给人一种随性慵懒、充满个性的感觉。超大容量,可以装ipad电脑,复古简约的设计,可凹造型,时髦又出片!\n款号:817602\n尺寸:38-50×33×16cm","specs":{"source":"wsxcme","sourceId":"_dqlqlUtpLETN00fgnB-t-S61OmNch7ceMd0RCGg","sourceTagId":47002761,"sourceTagName":"圣罗兰/女包","modelNumber":"817602","rawTitle":"土黄牛皮配棉麻·\n24ss 新款购物袋\n艺术与个性的独特融合,Y家总是眼光独到,深得时尚顶流的心,Y字牛皮的设计让人眼前一亮,给人一种随性慵懒、充满个性的感觉。超大容量,可以装ipad电脑,复古简约的设计,可凹造型,时髦又出片!\n款号:817602\n尺寸:38-50×33×16cm"},"price":null,"currency":"CNY","moq":1,"category":"ysl-women-bags","status":"active","alibaba_url":null,"images":["https://xcimg.szwego.com/imgHD/f8c0bdc9/20250605/cmp_i1749114614818_8910_0_0.jpg","https://xcimg.szwego.com/imgHD/f8c0bdc9/20250605/cmp_i1749114617370_6960_0_1.jpg","https://xcimg.szwego.com/imgHD/f8c0bdc9/20250605/cmp_i1749114617650_173_0_2.jpg","https://xcimg.szwego.com/imgHD/f8c0bdc9/20250605/cmp_i1749114617642_3007_0_3.jpg","https://xcimg.szwego.com/imgHD/f8c0bdc9/20250605/cmp_i1749114615261_6866_0_4.jpg","https://xcimg.szwego.com/imgHD/f8c0bdc9/20250605/cmp_i1749114618022_734_0_5.jpg","https://xcimg.szwego.com/imgHD/f8c0bdc9/20250605/cmp_i1749114615195_2790_0_8.jpg","https://xcimg.szwego.com/imgHD/f8c0bdc9/20250605/cmp_i1749114614863_408_0_6.jpg","https://xcimg.szwego.com/imgHD/f8c0bdc9/20250605/cmp_i1749114614819_3708_0_7.jpg"],"created_at":"2025-08-03T06:08:58.466Z"},{"id":"item-1ec8986b6d41","sku":"_dvNvNRp0sDB53oeFBl-_kDxkxsqFm8BYeFPXreQ","name_en":"Saint Laurent Women Bags","name_cn":"独特的风琴褶设计 为包身增添了层次感和立体感\n使其在视觉上更具辨识度","specs":{"source":"wsxcme","sourceId":"_dvNvNRp0sDB53oeFBl-_kDxkxsqFm8BYeFPXreQ","sourceTagId":47002761,"sourceTagName":"圣罗兰/女包","rawTitle":"独特的风琴褶设计 为包身增添了层次感和立体感\n使其在视觉上更具辨识度"},"price":null,"currency":"CNY","moq":1,"category":"ysl-women-bags","status":"active","alibaba_url":null,"images":["https://xcimg.szwego.com/imgHD/f8c0bdc9/20251209/cmp_i1765274701788_688_0_0.jpg","https://xcimg.szwego.com/imgHD/f8c0bdc9/20251209/cmp_i1765274701771_4449_0_1.jpg","https://xcimg.szwego.com/imgHD/f8c0bdc9/20251209/cmp_i1765274701790_1574_0_2.jpg","https://xcimg.szwego.com/imgHD/f8c0bdc9/20251209/cmp_i1765274701775_9413_0_3.jpg"],"created_at":"2026-06-29T10:54:45.576Z"}],"page":410,"pageSize":24,"total":10075,"totalPages":420}
