{"items":[{"id":"item-c656154a0746","sku":"_dfnfnAEmAmZtPrQM477q6XxclI5mwG7MQ01mo_Q","name_en":"Saint Laurent Women Bags","name_cn":"羊皮奶杏/金❗️❗️顶级原单、精品专供❗️❗️\n #Loulou puffer#中号29CM🐑绗缝小羊皮包,原厂正品皮制作,手感柔软细腻,犹如怀抱云朵☁️般的感受;经典的Y家logo、链条及扣眼五金均采用巴金哑光银五金,包袋开口处折叠后使用了磁性四合扣封口,密闭性及安全性一流;包内设有一个拉链内袋可放置手机及贵重物品,除此之外无多余内袋设计,使用起来随心所欲!正品皮!正品皮!正品皮!\n尺寸:29x17x11cm  \n型号:577476","specs":{"source":"wsxcme","sourceId":"_dfnfnAEmAmZtPrQM477q6XxclI5mwG7MQ01mo_Q","sourceTagId":47002761,"sourceTagName":"圣罗兰/女包","modelNumber":"577476","dimensions":{"lengthCm":29,"heightCm":17,"widthCm":11},"rawTitle":"羊皮奶杏/金❗️❗️顶级原单、精品专供❗️❗️\n #Loulou puffer#中号29CM🐑绗缝小羊皮包,原厂正品皮制作,手感柔软细腻,犹如怀抱云朵☁️般的感受;经典的Y家logo、链条及扣眼五金均采用巴金哑光银五金,包袋开口处折叠后使用了磁性四合扣封口,密闭性及安全性一流;包内设有一个拉链内袋可放置手机及贵重物品,除此之外无多余内袋设计,使用起来随心所欲!正品皮!正品皮!正品皮!\n尺寸:29x17x11cm  \n型号:577476"},"price":null,"currency":"CNY","moq":1,"category":"ysl-women-bags","status":"active","alibaba_url":null,"images":["https://xcimg.szwego.com/20220824/i1661271801_9214_0.jpg","https://xcimg.szwego.com/20220824/i1661271801_1899_1.jpg","https://xcimg.szwego.com/20220824/i1661271801_1469_2.jpg","https://xcimg.szwego.com/20220824/i1661271801_3564_3.jpg","https://xcimg.szwego.com/20220824/i1661271801_7344_4.jpg","https://xcimg.szwego.com/20220824/i1661271801_5005_5.jpg","https://xcimg.szwego.com/20220824/i1661271801_6760_6.jpg","https://xcimg.szwego.com/20220824/i1661271801_7071_7.jpg","https://xcimg.szwego.com/20220824/i1661271801_7270_8.jpg"],"created_at":"2024-12-08T05:44:36.311Z"},{"id":"item-c564389529ac","sku":"_dmtmtCVsFca3oIfJR8A5uFzW-S_k18erCnfkRtA","name_en":"Saint Laurent Women Bags","name_cn":"新款圣罗兰经典邮差包,时尚界的常青树🌟|||🔥圣罗兰的这款经典邮差包,简直是时尚界的扛把子!感觉它能让你一秒变身时尚达人!😍\n1️⃣首先,它的设计真的是太经典了!既有时尚感,又不过时,真的是很难得。👜\n2️⃣材质也非常棒,手感舒适,摸着就很有质感。👝\n3️⃣空间足够大,能装下很多日常必备的小物件,比如手机、钱包、钥匙等等。���leta手机、钱包、钥匙等等。📱🏺\n4️⃣背带长度合适,可以单肩背,也可以斜挎,非常方便。\n5️⃣颜色选择也很多,适合各种风格和场合。我入手的这个星空灰,超级百搭!✨\n🔥总的来说,圣罗兰的这款经典邮差包,真的是一款非常值得入手的时尚单品!不管是搭配衣服还是作为日常背包,都非常合适。👗👚👠。            尺寸25x15x8,      款号80993","specs":{"source":"wsxcme","sourceId":"_dmtmtCVsFca3oIfJR8A5uFzW-S_k18erCnfkRtA","sourceTagId":47002761,"sourceTagName":"圣罗兰/女包","modelNumber":"80993","rawTitle":"新款圣罗兰经典邮差包,时尚界的常青树🌟|||🔥圣罗兰的这款经典邮差包,简直是时尚界的扛把子!感觉它能让你一秒变身时尚达人!😍\n1️⃣首先,它的设计真的是太经典了!既有时尚感,又不过时,真的是很难得。👜\n2️⃣材质也非常棒,手感舒适,摸着就很有质感。👝\n3️⃣空间足够大,能装下很多日常必备的小物件,比如手机、钱包、钥匙等等。���leta手机、钱包、钥匙等等。📱🏺\n4️⃣背带长度合适,可以单肩背,也可以斜挎,非常方便。\n5️⃣颜色选择也很多,适合各种风格和场合。我入手的这个星空灰,超级百搭!✨\n🔥总的来说,圣罗兰的这款经典邮差包,真的是一款非常值得入手的时尚单品!不管是搭配衣服还是作为日常背包,都非常合适。👗👚👠。            尺寸25x15x8,      款号80993"},"price":null,"currency":"CNY","moq":1,"category":"ysl-women-bags","status":"active","alibaba_url":null,"images":["https://xcimg.szwego.com/20230920/i1695190393_4322_0.jpg","https://xcimg.szwego.com/20230920/i1695190393_5206_1.jpg","https://xcimg.szwego.com/20230920/i1695190393_46_2.jpg","https://xcimg.szwego.com/20230920/i1695190393_9032_3.jpg","https://xcimg.szwego.com/20230920/i1695190393_8041_4.jpg","https://xcimg.szwego.com/20230920/i1695190393_7806_5.jpg","https://xcimg.szwego.com/20230920/i1695190393_912_6.jpg","https://xcimg.szwego.com/20230920/i1695190393_7801_7.jpg","https://xcimg.szwego.com/20230920/i1695190393_2541_8.jpg"],"created_at":"2025-02-08T12:46:07.461Z"},{"id":"item-c44e3b6c2e61","sku":"_dmWmW3TMkoFpZGv_nk5xrfYOq_tSbCWpIdZwclg","name_en":"Saint Laurent Women Bags","name_cn":"哑光麂皮质感+极简线条\n基础穿搭都能穿出松弛贵气感","specs":{"source":"wsxcme","sourceId":"_dmWmW3TMkoFpZGv_nk5xrfYOq_tSbCWpIdZwclg","sourceTagId":47002761,"sourceTagName":"圣罗兰/女包","rawTitle":"哑光麂皮质感+极简线条\n基础穿搭都能穿出松弛贵气感"},"price":null,"currency":"CNY","moq":1,"category":"ysl-women-bags","status":"active","alibaba_url":null,"images":["https://xcimg.szwego.com/imgHD/f8c0bdc9/20260420/cmp_i1776671000738_4944_0_4.jpg","https://xcimg.szwego.com/imgHD/f8c0bdc9/20260420/cmp_i1776671000843_7464_0_1.jpg","https://xcimg.szwego.com/imgHD/f8c0bdc9/20260420/cmp_i1776671000862_1466_0_0.jpg","https://xcimg.szwego.com/imgHD/f8c0bdc9/20260420/cmp_i1776671000833_6918_0_2.jpg","https://xcimg.szwego.com/imgHD/f8c0bdc9/20260420/cmp_i1776671000895_930_0_3.jpg"],"created_at":"2026-06-29T10:48:58.879Z"},{"id":"item-c40183c28924","sku":"_dlblbmbvtyZ3bE19aFxNX5u8P0m75XLIMviXITA","name_en":"Saint Laurent Women Bags","name_cn":"🔥精品原厂皮🔥       \nY家24新款Rose同款Mini Gaby Saint Laurent2024新款Mini Gaby 手袋双拉链设计方便开合,大隔层容纳手机、小钱包以及卡袋,可拆卸调节肩带,可做梳妆包也可轻松斜挎顶部配有提手,可作为手提包 Rose 同款~\n型号:766731 \n尺寸:18×11×6.5 cm","specs":{"source":"wsxcme","sourceId":"_dlblbmbvtyZ3bE19aFxNX5u8P0m75XLIMviXITA","sourceTagId":47002761,"sourceTagName":"圣罗兰/女包","modelNumber":"766731","dimensions":{"lengthCm":18,"heightCm":11,"widthCm":6.5},"rawTitle":"🔥精品原厂皮🔥       \nY家24新款Rose同款Mini Gaby Saint Laurent2024新款Mini Gaby 手袋双拉链设计方便开合,大隔层容纳手机、小钱包以及卡袋,可拆卸调节肩带,可做梳妆包也可轻松斜挎顶部配有提手,可作为手提包 Rose 同款~\n型号:766731 \n尺寸:18×11×6.5 cm"},"price":null,"currency":"CNY","moq":1,"category":"ysl-women-bags","status":"active","alibaba_url":null,"images":["https://xcimg.szwego.com/img/c531d0e5/20240312/i1710218272_1957_6.jpg","https://xcimg.szwego.com/img/c531d0e5/20240312/i1710218272_210_2.jpg","https://xcimg.szwego.com/img/c531d0e5/20240312/i1710218272_125_1.jpg","https://xcimg.szwego.com/img/c531d0e5/20240312/i1710218272_8962_5.jpg","https://xcimg.szwego.com/img/c531d0e5/20240312/i1710218272_9403_3.jpg","https://xcimg.szwego.com/img/c531d0e5/20240312/i1710218272_6023_0.jpg","https://xcimg.szwego.com/img/c531d0e5/20240312/i1710218272_7666_4.jpg","https://xcimg.szwego.com/img/c531d0e5/20240312/i1710218273_8594_7.jpg","https://xcimg.szwego.com/img/c531d0e5/20240312/i1710218273_5288_8.jpg"],"created_at":"2024-12-08T05:42:42.303Z"},{"id":"item-c349ad78231c","sku":"_dmpmpi2_wWmnznTXAeDVyNNj-UvNqUjVIpBRLEg","name_en":"Saint Laurent Women Bags","name_cn":"官网图","specs":{"source":"wsxcme","sourceId":"_dmpmpi2_wWmnznTXAeDVyNNj-UvNqUjVIpBRLEg","sourceTagId":47002761,"sourceTagName":"圣罗兰/女包","rawTitle":"官网图"},"price":null,"currency":"CNY","moq":1,"category":"ysl-women-bags","status":"active","alibaba_url":null,"images":["https://xcimg.szwego.com/imgHD/f8c0bdc9/20260129/cmp_i1769678954121_1029_0_0.jpg","https://xcimg.szwego.com/imgHD/f8c0bdc9/20260129/cmp_i1769678950513_7596_0_1.jpg","https://xcimg.szwego.com/imgHD/f8c0bdc9/20260129/cmp_i1769678950513_2796_0_2.jpg","https://xcimg.szwego.com/imgHD/f8c0bdc9/20260129/cmp_i1769678954123_1420_0_3.jpg","https://xcimg.szwego.com/imgHD/f8c0bdc9/20260129/cmp_i1769678950511_7843_0_4.jpg","https://xcimg.szwego.com/imgHD/f8c0bdc9/20260129/cmp_i1769678954122_7736_0_5.jpg","https://xcimg.szwego.com/imgHD/f8c0bdc9/20260129/cmp_i1769678950511_1703_0_6.jpg","https://xcimg.szwego.com/imgHD/f8c0bdc9/20260129/cmp_i1769678950509_4188_0_7.jpg"],"created_at":"2026-06-29T10:48:58.789Z"},{"id":"item-c267c20e4747","sku":"_dlKlKdbq-Xgo3LuokZlDhpoiqdYrEwLMUcWQU5A","name_en":"Saint Laurent Women Bags","name_cn":"官网图","specs":{"source":"wsxcme","sourceId":"_dlKlKdbq-Xgo3LuokZlDhpoiqdYrEwLMUcWQU5A","sourceTagId":47002761,"sourceTagName":"圣罗兰/女包","rawTitle":"官网图"},"price":null,"currency":"CNY","moq":1,"category":"ysl-women-bags","status":"active","alibaba_url":null,"images":["https://xcimg.szwego.com/imgHD/f8c0bdc9/20260420/cmp_i1776674072630_6633_0_0.jpg","https://xcimg.szwego.com/imgHD/f8c0bdc9/20260420/cmp_i1776674072630_1125_0_1.jpg","https://xcimg.szwego.com/imgHD/f8c0bdc9/20260420/cmp_i1776674072631_7427_0_2.jpg","https://xcimg.szwego.com/imgHD/f8c0bdc9/20260420/cmp_i1776674072632_1647_0_3.jpg","https://xcimg.szwego.com/imgHD/f8c0bdc9/20260420/cmp_i1776674073228_5293_0_4.jpg","https://xcimg.szwego.com/imgHD/f8c0bdc9/20260420/cmp_i1776674072630_7785_0_5.jpg"],"created_at":"2026-06-29T10:48:58.969Z"},{"id":"item-c162679d1914","sku":"_dzAzAuHr91HiH0l2WzO0SYyDHQRTl53PbigWMPg","name_en":"Saint Laurent Women Bags","name_cn":"【杏色】\nLE 5A7系列新成员_手机包👓\n墙裂推荐这款迷你手机包 对于览包无数的时髦精 安利这种设计精致小巧 轻松凹造型✌🏻️极简外形+金属logo扣开合设计!\n实用又时髦 是日常搭配率蛮高的单品la~\n尺寸:18×13.5×3.5cm\n型号:735214","specs":{"source":"wsxcme","sourceId":"_dzAzAuHr91HiH0l2WzO0SYyDHQRTl53PbigWMPg","sourceTagId":47002761,"sourceTagName":"圣罗兰/女包","modelNumber":"735214","dimensions":{"lengthCm":18,"heightCm":13.5,"widthCm":3.5},"rawTitle":"【杏色】\nLE 5A7系列新成员_手机包👓\n墙裂推荐这款迷你手机包 对于览包无数的时髦精 安利这种设计精致小巧 轻松凹造型✌🏻️极简外形+金属logo扣开合设计!\n实用又时髦 是日常搭配率蛮高的单品la~\n尺寸:18×13.5×3.5cm\n型号:735214"},"price":null,"currency":"CNY","moq":1,"category":"ysl-women-bags","status":"active","alibaba_url":null,"images":["https://xcimg.szwego.com/20230417/i1681729538_593_0.jpg","https://xcimg.szwego.com/20230417/i1681729538_3264_1.jpg","https://xcimg.szwego.com/20230417/i1681729538_6397_2.jpg","https://xcimg.szwego.com/20230417/i1681729538_7016_3.jpg","https://xcimg.szwego.com/20230417/i1681729538_5623_4.jpg","https://xcimg.szwego.com/20230417/i1681729538_6701_5.jpg","https://xcimg.szwego.com/20230417/i1681729538_2042_6.jpg","https://xcimg.szwego.com/20230417/i1681729538_8909_7.jpg","https://xcimg.szwego.com/20230417/i1681729538_6723_8.jpg"],"created_at":"2024-12-08T05:44:45.653Z"},{"id":"item-c0a3e2cd67dc","sku":"_dtEtEBlrzQC-GNlokTZdyIcH6P8WRnu8buzreqQ","name_en":"Saint Laurent Women Bags","name_cn":"杏牙签纹/金\nSunset 22cm#经典款贵气牙签纹sunset日落包 原厂皮版本!喜欢牙签纹包包的小伙伴不能错过的一款!高品质 正品皮,正品开模五金,追求每一个每一个细节,力求无穷大的接近正品 👍\n尺寸:22x8x16cm\n型号:442906","specs":{"source":"wsxcme","sourceId":"_dtEtEBlrzQC-GNlokTZdyIcH6P8WRnu8buzreqQ","sourceTagId":47002761,"sourceTagName":"圣罗兰/女包","modelNumber":"442906","dimensions":{"lengthCm":22,"heightCm":8,"widthCm":16},"rawTitle":"杏牙签纹/金\nSunset 22cm#经典款贵气牙签纹sunset日落包 原厂皮版本!喜欢牙签纹包包的小伙伴不能错过的一款!高品质 正品皮,正品开模五金,追求每一个每一个细节,力求无穷大的接近正品 👍\n尺寸:22x8x16cm\n型号:442906"},"price":null,"currency":"CNY","moq":1,"category":"ysl-women-bags","status":"active","alibaba_url":null,"images":["https://xcimg.szwego.com/img/7821319d/20240725/a1721884366270_3086.jpg","https://xcimg.szwego.com/img/7821319d/20240725/a1721884366265_7751.jpg","https://xcimg.szwego.com/img/7821319d/20240725/a1721884366268_3800.jpg","https://xcimg.szwego.com/img/7821319d/20240725/a1721884366266_6566.jpg","https://xcimg.szwego.com/img/7821319d/20240725/a1721884366273_4630.jpg","https://xcimg.szwego.com/img/7821319d/20240725/a1721884366272_7456.jpg","https://xcimg.szwego.com/img/7821319d/20240725/a1721884368835_1043.jpg","https://xcimg.szwego.com/img/7821319d/20240725/a1721884368833_8436.jpg","https://xcimg.szwego.com/img/7821319d/20240725/a1721884368834_0377.jpg"],"created_at":"2024-08-04T12:57:22.852Z"},{"id":"item-bf63cf96efae","sku":"_dejejvRYbMSc5l6HMsEQglX6uUb3h3S81cW1fMw","name_en":"Saint Laurent Women Bags","name_cn":"折叠风琴包型立体有型\n可调节肩带 单肩法式慵懒感立刻有!","specs":{"source":"wsxcme","sourceId":"_dejejvRYbMSc5l6HMsEQglX6uUb3h3S81cW1fMw","sourceTagId":47002761,"sourceTagName":"圣罗兰/女包","rawTitle":"折叠风琴包型立体有型\n可调节肩带 单肩法式慵懒感立刻有!"},"price":null,"currency":"CNY","moq":1,"category":"ysl-women-bags","status":"active","alibaba_url":null,"images":["https://xcimg.szwego.com/imgHD/f8c0bdc9/20260129/cmp_i1769673371319_9526_0_0.jpg","https://xcimg.szwego.com/imgHD/f8c0bdc9/20260129/cmp_i1769673371370_1031_0_1.jpg","https://xcimg.szwego.com/imgHD/f8c0bdc9/20260129/cmp_i1769673371404_2792_0_2.jpg","https://xcimg.szwego.com/imgHD/f8c0bdc9/20260129/cmp_i1769673371336_200_0_3.jpg"],"created_at":"2026-06-29T10:48:58.719Z"},{"id":"item-bc3649180a35","sku":"_dh7h7YDoKRN_Re5fKDmRBp-a8HONTTrl81q3o4g","name_en":"Saint Laurent Women Bags","name_cn":"【原厂皮】🌈精品专供🔥磨砂棕皮/金\nLE5A7大号光滑皮革柔软手袋大号,韩国明星同款Hobo!!今年火到爆炸的腋下包Y家虽迟但到!!包包身轮廓简洁、立体,看上去硬挺却不会太凌厉。搭配上品牌标志性的插入式包扣,整体给人一种既经典优雅,又很时髦现代的独特气质。\n型号:753837【原厂皮】\n尺寸:30x31x13cm","specs":{"source":"wsxcme","sourceId":"_dh7h7YDoKRN_Re5fKDmRBp-a8HONTTrl81q3o4g","sourceTagId":47002761,"sourceTagName":"圣罗兰/女包","modelNumber":"753837【原厂皮】","dimensions":{"lengthCm":30,"heightCm":31,"widthCm":13},"rawTitle":"【原厂皮】🌈精品专供🔥磨砂棕皮/金\nLE5A7大号光滑皮革柔软手袋大号,韩国明星同款Hobo!!今年火到爆炸的腋下包Y家虽迟但到!!包包身轮廓简洁、立体,看上去硬挺却不会太凌厉。搭配上品牌标志性的插入式包扣,整体给人一种既经典优雅,又很时髦现代的独特气质。\n型号:753837【原厂皮】\n尺寸:30x31x13cm"},"price":null,"currency":"CNY","moq":1,"category":"ysl-women-bags","status":"active","alibaba_url":null,"images":["https://xcimg.szwego.com/img/fce24e4d/20231208/i1702050076_341_1.jpg","https://xcimg.szwego.com/img/fce24e4d/20231208/i1702050076_8752_2.jpg","https://xcimg.szwego.com/img/fce24e4d/20231208/i1702050076_7579_7.jpg","https://xcimg.szwego.com/img/fce24e4d/20231208/i1702050076_4510_0.jpg","https://xcimg.szwego.com/img/fce24e4d/20231208/i1702050076_7000_4.jpg","https://xcimg.szwego.com/img/fce24e4d/20231208/i1702050076_7553_6.jpg","https://xcimg.szwego.com/img/fce24e4d/20231208/i1702050076_1283_8.jpg","https://xcimg.szwego.com/img/fce24e4d/20231208/i1702050076_648_3.jpg","https://xcimg.szwego.com/img/fce24e4d/20231208/i1702050076_2144_5.jpg"],"created_at":"2024-12-08T05:57:26.657Z"},{"id":"item-bc1d0565a3ca","sku":"_dxaxah5K5b8FKdjEUM2nFXRVkyr3SoQit0BqjKw","name_en":"Saint Laurent Women Bags","name_cn":"官网图","specs":{"source":"wsxcme","sourceId":"_dxaxah5K5b8FKdjEUM2nFXRVkyr3SoQit0BqjKw","sourceTagId":47002761,"sourceTagName":"圣罗兰/女包","rawTitle":"官网图"},"price":null,"currency":"CNY","moq":1,"category":"ysl-women-bags","status":"active","alibaba_url":null,"images":["https://xcimg.szwego.com/imgHD/f8c0bdc9/20260622/cmp_i1782124240579_9654_0_0.jpg","https://xcimg.szwego.com/imgHD/f8c0bdc9/20260622/cmp_i1782124240579_6214_0_1.jpg","https://xcimg.szwego.com/imgHD/f8c0bdc9/20260622/cmp_i1782124240578_8160_0_2.jpg","https://xcimg.szwego.com/imgHD/f8c0bdc9/20260622/cmp_i1782124240580_6792_0_3.jpg","https://xcimg.szwego.com/imgHD/f8c0bdc9/20260622/cmp_i1782124240577_4828_0_4.jpg"],"created_at":"2026-06-29T10:48:59.379Z"},{"id":"item-bb3af17a24c6","sku":"_drBrB-n4J86sB_t3jEtZgGtuXcIfq2wZk75zxwQ","name_en":"Saint Laurent Women Bags","name_cn":"黑色羊皮绣格子·\nCASSANDRE _链条包 超级实用的一款小包,意大利进口原厂小羊皮,里外全皮。搭配方形格缝精细手工制作,经典金属logo彰显个性,翻盖设计确保使用的安全性。肩带可拆卸,包包内设有十个卡片槽,一个纸币隔层,两个隔层,一个拉链内袋,装进所有!\n型号:743364\n尺寸:23x14x3cm \n肩带长度:47cm","specs":{"source":"wsxcme","sourceId":"_drBrB-n4J86sB_t3jEtZgGtuXcIfq2wZk75zxwQ","sourceTagId":47002761,"sourceTagName":"圣罗兰/女包","modelNumber":"743364","dimensions":{"lengthCm":23,"heightCm":14,"widthCm":3},"rawTitle":"黑色羊皮绣格子·\nCASSANDRE _链条包 超级实用的一款小包,意大利进口原厂小羊皮,里外全皮。搭配方形格缝精细手工制作,经典金属logo彰显个性,翻盖设计确保使用的安全性。肩带可拆卸,包包内设有十个卡片槽,一个纸币隔层,两个隔层,一个拉链内袋,装进所有!\n型号:743364\n尺寸:23x14x3cm \n肩带长度:47cm"},"price":null,"currency":"CNY","moq":1,"category":"ysl-women-bags","status":"active","alibaba_url":null,"images":["https://xcimg.szwego.com/imgHD/f8c0bdc9/20250328/cmp_i1743146325803_1955_0_0.jpg","https://xcimg.szwego.com/imgHD/f8c0bdc9/20250328/cmp_i1743146325792_4153_0_1.jpg","https://xcimg.szwego.com/imgHD/f8c0bdc9/20250328/cmp_i1743146325183_4929_0_2.jpg","https://xcimg.szwego.com/imgHD/f8c0bdc9/20250328/cmp_i1743146325815_272_0_3.jpg","https://xcimg.szwego.com/imgHD/f8c0bdc9/20250328/cmp_i1743146322118_9620_0_4.jpg","https://xcimg.szwego.com/imgHD/f8c0bdc9/20250328/cmp_i1743146322779_9138_0_5.jpg","https://xcimg.szwego.com/imgHD/f8c0bdc9/20250328/cmp_i1743146322240_3371_0_6.jpg","https://xcimg.szwego.com/imgHD/f8c0bdc9/20250328/cmp_i1743146322308_4100_0_7.jpg","https://xcimg.szwego.com/imgHD/f8c0bdc9/20250328/cmp_i1743146322119_1638_0_8.jpg"],"created_at":"2026-06-29T10:48:59.139Z"},{"id":"item-ba5c360ce6b8","sku":"_dj3j3RGcc52lA-2QKZyoAdhuAjnXDwiHiqLsYFA","name_en":"Saint Laurent Women Bags","name_cn":"黑色鱼子酱绣线·\nY家鱼子酱牛皮大号托特包/购物袋\n标志性LOGO化身摩登代码,在经典更迭延续间,续写灵感章节,以醒目刻印包揽多元姿态。超大容量,可以装ipad电脑,春夏出游的旅行袋,可造可凹造型,复古简约的设计,时髦又出片,ins博主推荐热款~真的太香啦!\n款号:668900\n尺寸:33×22×15","specs":{"source":"wsxcme","sourceId":"_dj3j3RGcc52lA-2QKZyoAdhuAjnXDwiHiqLsYFA","sourceTagId":47002761,"sourceTagName":"圣罗兰/女包","modelNumber":"668900","rawTitle":"黑色鱼子酱绣线·\nY家鱼子酱牛皮大号托特包/购物袋\n标志性LOGO化身摩登代码,在经典更迭延续间,续写灵感章节,以醒目刻印包揽多元姿态。超大容量,可以装ipad电脑,春夏出游的旅行袋,可造可凹造型,复古简约的设计,时髦又出片,ins博主推荐热款~真的太香啦!\n款号:668900\n尺寸:33×22×15"},"price":null,"currency":"CNY","moq":1,"category":"ysl-women-bags","status":"active","alibaba_url":null,"images":["https://xcimg.szwego.com/img/f8c0bdc9/20250106/i1736150525022_8694_0_0.jpg","https://xcimg.szwego.com/img/f8c0bdc9/20250106/i1736150524792_4401_0_1.jpg","https://xcimg.szwego.com/img/f8c0bdc9/20250106/i1736150524710_6067_0_2.jpg","https://xcimg.szwego.com/img/f8c0bdc9/20250106/i1736150525100_7012_0_3.jpg","https://xcimg.szwego.com/img/f8c0bdc9/20250106/i1736150524626_26_0_4.jpg","https://xcimg.szwego.com/img/f8c0bdc9/20250106/i1736150525261_2570_0_5.jpg","https://xcimg.szwego.com/img/f8c0bdc9/20250106/i1736150525185_5656_0_6.jpg","https://xcimg.szwego.com/img/f8c0bdc9/20250106/i1736150524858_694_0_7.jpg","https://xcimg.szwego.com/img/f8c0bdc9/20250106/i1736150524940_4232_0_8.jpg"],"created_at":"2025-03-07T08:39:00.488Z"},{"id":"item-b9bd433f4052","sku":"_dJOJOCOxOybX8oatvDc4lrZyNO6CbSs1bnzAfXg","name_en":"Saint Laurent Women Bags","name_cn":"官网图_","specs":{"source":"wsxcme","sourceId":"_dJOJOCOxOybX8oatvDc4lrZyNO6CbSs1bnzAfXg","sourceTagId":47002761,"sourceTagName":"圣罗兰/女包","rawTitle":"官网图_"},"price":null,"currency":"CNY","moq":1,"category":"ysl-women-bags","status":"active","alibaba_url":null,"images":["https://xcimg.szwego.com/img/f8c0bdc9/20240515/i1715778986_5897_1.jpg","https://xcimg.szwego.com/img/f8c0bdc9/20240515/i1715778986_2442_6.jpg","https://xcimg.szwego.com/img/f8c0bdc9/20240515/i1715778986_2431_5.jpg","https://xcimg.szwego.com/img/f8c0bdc9/20240515/i1715778986_7964_3.jpg","https://xcimg.szwego.com/img/f8c0bdc9/20240515/i1715778986_7286_7.jpg","https://xcimg.szwego.com/img/f8c0bdc9/20240515/i1715778986_3440_0.jpg","https://xcimg.szwego.com/img/f8c0bdc9/20240515/i1715778986_6231_4.jpg","https://xcimg.szwego.com/img/f8c0bdc9/20240515/i1715778986_1327_2.jpg"],"created_at":"2026-05-20T04:01:38.913Z"},{"id":"item-b7c3c86ddc55","sku":"_d8n8npKsh46cc6Nn2l1ML5LaKgViPs7mjvuJGXA","name_en":"Saint Laurent Women Bags","name_cn":"随拍上身参考_","specs":{"source":"wsxcme","sourceId":"_d8n8npKsh46cc6Nn2l1ML5LaKgViPs7mjvuJGXA","sourceTagId":47002761,"sourceTagName":"圣罗兰/女包","rawTitle":"随拍上身参考_"},"price":null,"currency":"CNY","moq":1,"category":"ysl-women-bags","status":"active","alibaba_url":null,"images":["https://xcimg.szwego.com/img/c8ebba50/20240326/i1711443539_4321_3.jpg","https://xcimg.szwego.com/img/c8ebba50/20240326/i1711443539_7290_2.jpg","https://xcimg.szwego.com/img/c8ebba50/20240326/i1711443539_5637_4.jpg","https://xcimg.szwego.com/img/c8ebba50/20240326/i1711443539_9236_0.jpg","https://xcimg.szwego.com/img/c8ebba50/20240326/i1711443539_399_1.jpg"],"created_at":"2026-05-20T04:01:39.023Z"},{"id":"item-b685416af8de","sku":"_dphph6d11HdkxSnlzGOrjRmbf40ubery0A_t7pQ","name_en":"Saint Laurent Women Bags","name_cn":"💰黑色·\n24ss 秋冬限定公文包\n艺术与个性的独特融合,Y家总是眼光独到,深得时尚顶流的心,Y字牛皮的设计让人眼前一亮,给人一种随性慵懒、充满个性的感觉。男女都适用,可当公文包、可当旅行手袋,容量超大。\n款号:817603\n尺寸:30×33×10cm","specs":{"source":"wsxcme","sourceId":"_dphph6d11HdkxSnlzGOrjRmbf40ubery0A_t7pQ","sourceTagId":47002761,"sourceTagName":"圣罗兰/女包","modelNumber":"817603","dimensions":{"lengthCm":30,"heightCm":33,"widthCm":10},"rawTitle":"💰黑色·\n24ss 秋冬限定公文包\n艺术与个性的独特融合,Y家总是眼光独到,深得时尚顶流的心,Y字牛皮的设计让人眼前一亮,给人一种随性慵懒、充满个性的感觉。男女都适用,可当公文包、可当旅行手袋,容量超大。\n款号:817603\n尺寸:30×33×10cm"},"price":null,"currency":"CNY","moq":1,"category":"ysl-women-bags","status":"active","alibaba_url":null,"images":["https://xcimg.szwego.com/img/f8c0bdc9/20240904/i1725441557_4784_2.jpg","https://xcimg.szwego.com/img/f8c0bdc9/20240904/i1725441557_7066_6.jpg","https://xcimg.szwego.com/img/f8c0bdc9/20240904/i1725441557_3931_5.jpg","https://xcimg.szwego.com/img/f8c0bdc9/20240904/i1725441557_3955_3.jpg","https://xcimg.szwego.com/img/f8c0bdc9/20240904/i1725441557_7120_4.jpg","https://xcimg.szwego.com/img/f8c0bdc9/20240904/i1725441557_9399_1.jpg","https://xcimg.szwego.com/img/f8c0bdc9/20240904/i1725441557_5827_7.jpg","https://xcimg.szwego.com/img/f8c0bdc9/20240904/i1725441557_7117_0.jpg","https://xcimg.szwego.com/img/f8c0bdc9/20240904/i1725441557_7625_8.jpg"],"created_at":"2025-02-09T12:26:45.981Z"},{"id":"item-b64269c2e48c","sku":"_dsOsOwXBWhw40lzSpJgyojewbF-EuTPX3MzIcEQ","name_en":"Saint Laurent Women Bags","name_cn":"~~刘雯同款上身效果😘😘","specs":{"source":"wsxcme","sourceId":"_dsOsOwXBWhw40lzSpJgyojewbF-EuTPX3MzIcEQ","sourceTagId":47002761,"sourceTagName":"圣罗兰/女包","rawTitle":"~~刘雯同款上身效果😘😘"},"price":null,"currency":"CNY","moq":1,"category":"ysl-women-bags","status":"active","alibaba_url":null,"images":["https://xcimg.szwego.com/img/58395cbb/20240920/a1726825518028_7001.jpg","https://xcimg.szwego.com/img/58395cbb/20240920/a1726825518151_1838.jpg","https://xcimg.szwego.com/img/58395cbb/20240920/a1726825518108_3314.jpg","https://xcimg.szwego.com/img/58395cbb/20240920/a1726825518049_8432.jpg","https://xcimg.szwego.com/img/58395cbb/20240920/a1726825517961_3627.jpg"],"created_at":"2025-07-20T03:05:44.244Z"},{"id":"item-b4ca1614f49d","sku":"_de4e4ILJCbKBYpXt9OVoI3K26_WWGZNzt1-FopA","name_en":"Saint Laurent Women Bags","name_cn":"黑色金扣·\nSOLFERINO BOX_19cm\n必火爆款,还没上市就攻陷了整个时尚圈,怀旧左岸,灵感来自巴黎左岸街名Rue De Solferino为名!包包采用原厂细牙签纹Box牛皮,手感及皮面的柔韧度都非常好!内里设计三层风琴隔,可轻松容纳日常所需物品,全新设计的“L”字母上下对半开扣,彻底颠覆你对包扣的认知,不禁让人发出惊叹,原来还能这样开包包,简直不要太有趣了!\n型号:634306\n尺寸:19x13x5cm","specs":{"source":"wsxcme","sourceId":"_de4e4ILJCbKBYpXt9OVoI3K26_WWGZNzt1-FopA","sourceTagId":47002761,"sourceTagName":"圣罗兰/女包","modelNumber":"634306","dimensions":{"lengthCm":19,"heightCm":13,"widthCm":5},"rawTitle":"黑色金扣·\nSOLFERINO BOX_19cm\n必火爆款,还没上市就攻陷了整个时尚圈,怀旧左岸,灵感来自巴黎左岸街名Rue De Solferino为名!包包采用原厂细牙签纹Box牛皮,手感及皮面的柔韧度都非常好!内里设计三层风琴隔,可轻松容纳日常所需物品,全新设计的“L”字母上下对半开扣,彻底颠覆你对包扣的认知,不禁让人发出惊叹,原来还能这样开包包,简直不要太有趣了!\n型号:634306\n尺寸:19x13x5cm"},"price":null,"currency":"CNY","moq":1,"category":"ysl-women-bags","status":"active","alibaba_url":null,"images":["https://xcimg.szwego.com/img/f8c0bdc9/20241025/i1729841614_7147_0.jpg","https://xcimg.szwego.com/img/f8c0bdc9/20241025/i1729841614_3246_4.jpg","https://xcimg.szwego.com/img/f8c0bdc9/20241025/i1729841614_4772_8.jpg","https://xcimg.szwego.com/img/f8c0bdc9/20241025/i1729841614_8088_1.jpg","https://xcimg.szwego.com/img/f8c0bdc9/20241025/i1729841614_3445_3.jpg","https://xcimg.szwego.com/img/f8c0bdc9/20241025/i1729841614_230_2.jpg","https://xcimg.szwego.com/img/f8c0bdc9/20241025/i1729841614_9972_6.jpg","https://xcimg.szwego.com/img/f8c0bdc9/20241025/i1729841614_7181_7.jpg","https://xcimg.szwego.com/img/f8c0bdc9/20241025/i1729841614_2098_5.jpg"],"created_at":"2026-06-29T10:54:45.106Z"},{"id":"item-b1d66f46ab95","sku":"_dYNYNTb-oolPdugRuqjQEsb71aovpvHVaa3ebCg","name_en":"Saint Laurent Women Bags","name_cn":"💰\n🆕 大号麂皮Hobo腋下包\n下一个爆款就是它了🔥\n包身轮廓简洁、立体,绒面材质柔软又有型✅ 搭配简单大气的品牌标志性的插入式包扣,既经典优雅,又很随性的独特气质。超大容量,复古风格,颜色高级,简直不要太好看🤩\n尺寸:30x31x13cm\n型号:753837","specs":{"source":"wsxcme","sourceId":"_dYNYNTb-oolPdugRuqjQEsb71aovpvHVaa3ebCg","sourceTagId":47002761,"sourceTagName":"圣罗兰/女包","modelNumber":"753837","dimensions":{"lengthCm":30,"heightCm":31,"widthCm":13},"rawTitle":"💰\n🆕 大号麂皮Hobo腋下包\n下一个爆款就是它了🔥\n包身轮廓简洁、立体,绒面材质柔软又有型✅ 搭配简单大气的品牌标志性的插入式包扣,既经典优雅,又很随性的独特气质。超大容量,复古风格,颜色高级,简直不要太好看🤩\n尺寸:30x31x13cm\n型号:753837"},"price":null,"currency":"CNY","moq":1,"category":"ysl-women-bags","status":"active","alibaba_url":null,"images":["https://xcimg.szwego.com/img/98817bb3/20231023/i1698046841_3597_0.jpg","https://xcimg.szwego.com/img/98817bb3/20231023/i1698046841_4847_1.jpg","https://xcimg.szwego.com/img/98817bb3/20231023/i1698046841_8443_2.jpg","https://xcimg.szwego.com/img/98817bb3/20231023/i1698046841_5932_3.jpg","https://xcimg.szwego.com/img/98817bb3/20231023/i1698046841_2613_4.jpg","https://xcimg.szwego.com/img/98817bb3/20231023/i1698046841_471_5.jpg","https://xcimg.szwego.com/img/98817bb3/20231023/i1698046841_9113_6.jpg","https://xcimg.szwego.com/img/98817bb3/20231023/i1698046841_361_7.jpg","https://xcimg.szwego.com/img/98817bb3/20231023/i1698046841_1580_8.jpg"],"created_at":"2025-07-20T03:05:44.236Z"},{"id":"item-b15592ace992","sku":"_dHuHumVUYfpNRzPvlIVqHpVWexs2PFMhaY_ypMw","name_en":"Saint Laurent Women Bags","name_cn":"古典里的贵气色系 💜\n藏着宇宙级的浪漫与神秘 是一场层次交织的视觉盛宴","specs":{"source":"wsxcme","sourceId":"_dHuHumVUYfpNRzPvlIVqHpVWexs2PFMhaY_ypMw","sourceTagId":47002761,"sourceTagName":"圣罗兰/女包","rawTitle":"古典里的贵气色系 💜\n藏着宇宙级的浪漫与神秘 是一场层次交织的视觉盛宴"},"price":null,"currency":"CNY","moq":1,"category":"ysl-women-bags","status":"active","alibaba_url":null,"images":["https://xcimg.szwego.com/imgHD/f8c0bdc9/20251209/cmp_i1765273997464_5224_0_0.jpg","https://xcimg.szwego.com/imgHD/f8c0bdc9/20251209/cmp_i1765273997453_5822_0_1.jpg","https://xcimg.szwego.com/imgHD/f8c0bdc9/20251209/cmp_i1765273997492_3314_0_2.jpg","https://xcimg.szwego.com/imgHD/f8c0bdc9/20251209/cmp_i1765273997543_4261_0_3.jpg"],"created_at":"2026-06-29T10:54:45.546Z"},{"id":"item-ada9de3b2caa","sku":"_disisDkw8-7QmYfeT9e-ojGa3OpfAI3X2Zx-_pg","name_en":"Saint Laurent Women Bags","name_cn":"土黄·\nLE 5À7系列之新款超好看水桶包 带手提_全新包型,采用意大利小牛皮,包身轮廓简洁、立体,看上去硬挺又不会太凌厉,底部带有个金属脚钉,搭配经典标志性金属logo的插入式包扣,整体给人一种既经典优雅,又很时髦现代的独特气质!\n型号:742828\n尺寸:26×20×12cm","specs":{"source":"wsxcme","sourceId":"_disisDkw8-7QmYfeT9e-ojGa3OpfAI3X2Zx-_pg","sourceTagId":47002761,"sourceTagName":"圣罗兰/女包","modelNumber":"742828","dimensions":{"lengthCm":26,"heightCm":20,"widthCm":12},"rawTitle":"土黄·\nLE 5À7系列之新款超好看水桶包 带手提_全新包型,采用意大利小牛皮,包身轮廓简洁、立体,看上去硬挺又不会太凌厉,底部带有个金属脚钉,搭配经典标志性金属logo的插入式包扣,整体给人一种既经典优雅,又很时髦现代的独特气质!\n型号:742828\n尺寸:26×20×12cm"},"price":null,"currency":"CNY","moq":1,"category":"ysl-women-bags","status":"active","alibaba_url":null,"images":["https://xcimg.szwego.com/img/f8c0bdc9/20241018/i1729237163_3793_6.jpg","https://xcimg.szwego.com/img/f8c0bdc9/20241018/i1729237163_7978_1.jpg","https://xcimg.szwego.com/img/f8c0bdc9/20241018/i1729237163_5183_2.jpg","https://xcimg.szwego.com/img/f8c0bdc9/20241018/i1729237163_2330_5.jpg","https://xcimg.szwego.com/img/f8c0bdc9/20241018/i1729237163_6011_7.jpg","https://xcimg.szwego.com/img/f8c0bdc9/20241018/i1729237163_7940_0.jpg","https://xcimg.szwego.com/img/f8c0bdc9/20241018/i1729237163_6453_8.jpg","https://xcimg.szwego.com/img/f8c0bdc9/20241018/i1729237163_6449_4.jpg","https://xcimg.szwego.com/img/f8c0bdc9/20241018/i1729237163_7211_3.jpg"],"created_at":"2026-06-29T10:54:45.116Z"},{"id":"item-ada550ffc7df","sku":"_dHjHj_OV8ZdXFG3KTrH3P9sJD1EQrJhXVUyPcfA","name_en":"Saint Laurent Women Bags","name_cn":"🗯💰\n▪️LE 5 À 7▪️\n今年火到爆炸的腋下包Y家虽迟但到!!️\n当时一看到,就觉得这个名字好特别,灵感来源于小众电影《Cléo from 5 to 7》,讲述的是下班后和回到家之间的5-7点,主角Cléo如何逐渐展露出独立女性一面的故事。再看回到包包本包上面,包身轮廓简洁、立体,看上去硬挺却不会太凌厉。\n搭配上品牌标志性的插入式包扣,整体给人一种既经典优雅,又很时髦现代的独特气质。\n尺寸:24.5x16x6cm\n型号:657228漆皮","specs":{"source":"wsxcme","sourceId":"_dHjHj_OV8ZdXFG3KTrH3P9sJD1EQrJhXVUyPcfA","sourceTagId":47002761,"sourceTagName":"圣罗兰/女包","modelNumber":"657228漆皮","dimensions":{"lengthCm":24.5,"heightCm":16,"widthCm":6},"rawTitle":"🗯💰\n▪️LE 5 À 7▪️\n今年火到爆炸的腋下包Y家虽迟但到!!️\n当时一看到,就觉得这个名字好特别,灵感来源于小众电影《Cléo from 5 to 7》,讲述的是下班后和回到家之间的5-7点,主角Cléo如何逐渐展露出独立女性一面的故事。再看回到包包本包上面,包身轮廓简洁、立体,看上去硬挺却不会太凌厉。\n搭配上品牌标志性的插入式包扣,整体给人一种既经典优雅,又很时髦现代的独特气质。\n尺寸:24.5x16x6cm\n型号:657228漆皮"},"price":null,"currency":"CNY","moq":1,"category":"ysl-women-bags","status":"active","alibaba_url":null,"images":["https://xcimg.szwego.com/img/58395cbb/20240108/a1704700832577_5700.jpg","https://xcimg.szwego.com/img/58395cbb/20240108/a1704700832605_0537.jpg","https://xcimg.szwego.com/img/58395cbb/20240108/a1704700832877_3673.jpg","https://xcimg.szwego.com/img/58395cbb/20240108/a1704700832681_3426.jpg","https://xcimg.szwego.com/img/58395cbb/20240108/a1704700832564_2374.jpg","https://xcimg.szwego.com/img/58395cbb/20240108/a1704700832430_1770.jpg","https://xcimg.szwego.com/img/58395cbb/20240108/a1704700836158_4623.jpg","https://xcimg.szwego.com/img/58395cbb/20240108/a1704700836316_2611.jpg","https://xcimg.szwego.com/img/58395cbb/20240108/a1704700836410_6534.jpg"],"created_at":"2025-07-20T03:05:44.228Z"},{"id":"item-ad566eecefeb","sku":"_dvAvAchK2y2d8aRKJSeZ15Wz-fvzRmHi7maTgKw","name_en":"Saint Laurent Women Bags","name_cn":"【白色】\nLE 5A7系列新成员_手机包👓\n墙裂推荐这款迷你手机包 对于览包无数的时髦精 安利这种设计精致小巧 轻松凹造型✌🏻️极简外形+金属logo扣开合设计!\n实用又时髦 是日常搭配率蛮高的单品la~\n尺寸:18×13.5×3.5cm\n型号:735214","specs":{"source":"wsxcme","sourceId":"_dvAvAchK2y2d8aRKJSeZ15Wz-fvzRmHi7maTgKw","sourceTagId":47002761,"sourceTagName":"圣罗兰/女包","modelNumber":"735214","dimensions":{"lengthCm":18,"heightCm":13.5,"widthCm":3.5},"rawTitle":"【白色】\nLE 5A7系列新成员_手机包👓\n墙裂推荐这款迷你手机包 对于览包无数的时髦精 安利这种设计精致小巧 轻松凹造型✌🏻️极简外形+金属logo扣开合设计!\n实用又时髦 是日常搭配率蛮高的单品la~\n尺寸:18×13.5×3.5cm\n型号:735214"},"price":null,"currency":"CNY","moq":1,"category":"ysl-women-bags","status":"active","alibaba_url":null,"images":["https://xcimg.szwego.com/20230417/i1681729150_302_0.jpg","https://xcimg.szwego.com/20230417/i1681729150_8965_1.jpg","https://xcimg.szwego.com/20230417/i1681729150_9298_2.jpg","https://xcimg.szwego.com/20230417/i1681729150_6432_3.jpg","https://xcimg.szwego.com/20230417/i1681729150_1830_4.jpg","https://xcimg.szwego.com/20230417/i1681729150_6669_5.jpg","https://xcimg.szwego.com/20230417/i1681729150_5343_6.jpg","https://xcimg.szwego.com/20230417/i1681729150_9244_7.jpg","https://xcimg.szwego.com/20230417/i1681729150_8818_8.jpg"],"created_at":"2024-12-08T05:44:55.004Z"},{"id":"item-acc1a6430ed9","sku":"_dh3h3Is7vAyL_DSgptVYLfm71Xrd_O0HB8e_fbw","name_en":"Saint Laurent Women Bags","name_cn":"秀款购物袋 \n大容量 笔记本A4纸都能放 \n设计简约低调 搭配随性又帅气","specs":{"source":"wsxcme","sourceId":"_dh3h3Is7vAyL_DSgptVYLfm71Xrd_O0HB8e_fbw","sourceTagId":47002761,"sourceTagName":"圣罗兰/女包","rawTitle":"秀款购物袋 \n大容量 笔记本A4纸都能放 \n设计简约低调 搭配随性又帅气"},"price":null,"currency":"CNY","moq":1,"category":"ysl-women-bags","status":"active","alibaba_url":null,"images":["https://xcimg.szwego.com/imgHD/f8c0bdc9/20250712/cmp_i1752301683615_2991_0_0.jpg","https://xcimg.szwego.com/imgHD/f8c0bdc9/20250712/cmp_i1752301683617_2332_0_1.jpg","https://xcimg.szwego.com/imgHD/f8c0bdc9/20250712/cmp_i1752301683586_593_0_2.jpg"],"created_at":"2025-08-03T06:06:26.248Z"}],"page":404,"pageSize":24,"total":10075,"totalPages":420}
