{"items":[{"id":"item-288a0ff61e2e","sku":"_dZvZvASlmjrTWLcYCVOgj_YkSB0F0GDjaGFB_CQ","name_en":"『Balenciaga 巴黎世家』","name_cn":"『Balenciaga 巴黎世家』\n\nBALENCIAG* 新款Gossip bag 斜挎包!平纹\n全新推出Gossip帅爆的小包包,前盖BB logo设计搭配复古五金,实物高级感满满,又酷又飒,可以根据日常随意搭配,时髦感和休闲感并存!\n必须是新宠~🤩\n小号:19x10x6.9cm 款号:9522","specs":{"source":"wsxcme","sourceId":"_dZvZvASlmjrTWLcYCVOgj_YkSB0F0GDjaGFB_CQ","sourceTagId":80697835,"sourceTagName":"巴黎世家/女包","modelNumber":"9522","rawTitle":"『Balenciaga 巴黎世家』\n\nBALENCIAG* 新款Gossip bag 斜挎包!平纹\n全新推出Gossip帅爆的小包包,前盖BB logo设计搭配复古五金,实物高级感满满,又酷又飒,可以根据日常随意搭配,时髦感和休闲感并存!\n必须是新宠~🤩\n小号:19x10x6.9cm 款号:9522"},"price":null,"currency":"CNY","moq":1,"category":"balenciaga-women-bags","status":"active","alibaba_url":null,"images":["https://xcimg.szwego.com/20220325/i1648216338_8967_0.jpg","https://xcimg.szwego.com/20220325/i1648216338_296_1.jpg","https://xcimg.szwego.com/20220325/i1648216338_9569_2.jpg","https://xcimg.szwego.com/20220325/i1648216338_1397_3.jpg","https://xcimg.szwego.com/20220325/i1648216338_9521_4.jpg","https://xcimg.szwego.com/20220325/i1648216338_5566_5.jpg","https://xcimg.szwego.com/20220325/i1648216338_4876_6.jpg","https://xcimg.szwego.com/20220325/i1648216338_9997_7.jpg","https://xcimg.szwego.com/20220325/i1648216338_5358_8.jpg"],"created_at":"2025-02-08T12:29:39.386Z"},{"id":"item-1c9c42ac0cc2","sku":"_ddkdkq0K498BBeNSWmeIhBEjBknrH7iv_gcD52w","name_en":"『Balenciaga 巴黎世家』","name_cn":"『Balenciaga 巴黎世家』\n\nBALENCIAG* 新款Gossip bag 斜挎包!平纹\n全新推出Gossip帅爆的小包包,前盖BB logo设计搭配复古五金,实物高级感满满,又酷又飒,可以根据日常随意搭配,时髦感和休闲感并存!\n必须是新宠~🤩\n小号:19x10x6.9cm 款号:9522","specs":{"source":"wsxcme","sourceId":"_ddkdkq0K498BBeNSWmeIhBEjBknrH7iv_gcD52w","sourceTagId":80697835,"sourceTagName":"巴黎世家/女包","modelNumber":"9522","rawTitle":"『Balenciaga 巴黎世家』\n\nBALENCIAG* 新款Gossip bag 斜挎包!平纹\n全新推出Gossip帅爆的小包包,前盖BB logo设计搭配复古五金,实物高级感满满,又酷又飒,可以根据日常随意搭配,时髦感和休闲感并存!\n必须是新宠~🤩\n小号:19x10x6.9cm 款号:9522"},"price":null,"currency":"CNY","moq":1,"category":"balenciaga-women-bags","status":"active","alibaba_url":null,"images":["https://xcimg.szwego.com/20220325/i1648216072_5486_0.jpg","https://xcimg.szwego.com/20220325/i1648216072_3245_1.jpg","https://xcimg.szwego.com/20220325/i1648216072_1502_2.jpg","https://xcimg.szwego.com/20220325/i1648216072_7339_3.jpg","https://xcimg.szwego.com/20220325/i1648216072_7887_4.jpg","https://xcimg.szwego.com/20220325/i1648216072_1322_5.jpg","https://xcimg.szwego.com/20220325/i1648216072_8686_6.jpg","https://xcimg.szwego.com/20220325/i1648216072_2619_7.jpg","https://xcimg.szwego.com/20220325/i1648216072_8330_8.jpg"],"created_at":"2025-02-08T12:29:39.384Z"},{"id":"item-187ad543fc59","sku":"_ddxdxGR8JCoNXns534yM6B29nVJX6ebjccfAvtA","name_en":"『Balenciaga 巴黎世家』","name_cn":"『Balenciaga 巴黎世家』\n\nBalen~~~ga爆款/鳄鱼纹沙漏包来啦!半月弯弧线.独特的外形.美美哒无法言语形容.【HOURGLASS】-配有可调节的长肩 带配有B家品牌标识\nSize尺寸:\n中号-高14cmx底厚10cmx宽度23cm型号2256\n小号-高13cmx底厚8.0cmx宽度19cm型号2257","specs":{"source":"wsxcme","sourceId":"_ddxdxGR8JCoNXns534yM6B29nVJX6ebjccfAvtA","sourceTagId":80697835,"sourceTagName":"巴黎世家/女包","modelNumber":"2256","rawTitle":"『Balenciaga 巴黎世家』\n\nBalen~~~ga爆款/鳄鱼纹沙漏包来啦!半月弯弧线.独特的外形.美美哒无法言语形容.【HOURGLASS】-配有可调节的长肩 带配有B家品牌标识\nSize尺寸:\n中号-高14cmx底厚10cmx宽度23cm型号2256\n小号-高13cmx底厚8.0cmx宽度19cm型号2257"},"price":null,"currency":"CNY","moq":1,"category":"balenciaga-women-bags","status":"active","alibaba_url":null,"images":["https://xcimg.szwego.com/20201219/i1608343770_5934_0.jpg","https://xcimg.szwego.com/20201219/i1608343770_8718_1.jpg","https://xcimg.szwego.com/20201219/i1608343770_8938_2.jpg","https://xcimg.szwego.com/20201219/i1608343770_9010_3.jpg","https://xcimg.szwego.com/20201219/i1608343770_1750_4.jpg","https://xcimg.szwego.com/20201219/i1608343770_7493_5.jpg","https://xcimg.szwego.com/20201219/i1608343770_5441_6.jpg","https://xcimg.szwego.com/20201219/i1608343770_6697_7.jpg","https://xcimg.szwego.com/20201219/i1608343770_9948_8.jpg"],"created_at":"2025-02-08T12:29:39.404Z"},{"id":"item-1063d2bc5f5c","sku":"_d8v8vC98jc1KiZJvARn7c4BPakIwrJcLScTMAKg","name_en":"『Balenciaga 巴黎世家』","name_cn":"『Balenciaga 巴黎世家』\n\n沙漏包鳄鱼纹黑色金扣小号\nBalenciagα本季重磅Hourglass鳄鱼纹沙漏包,独特的标志性弧线形状造型极具辨识度,一眼就让人眼前一亮呀超炫酷!表面光滑平整,外观呈现一轮半月状,上坠一个金属B形拉环,牛皮质感也非常感人非常有腔调!宝宝们使劲买不要停!!🖤🖤🖤\n小号尺寸:19x8x21cm","specs":{"source":"wsxcme","sourceId":"_d8v8vC98jc1KiZJvARn7c4BPakIwrJcLScTMAKg","sourceTagId":80697835,"sourceTagName":"巴黎世家/女包","dimensions":{"lengthCm":19,"heightCm":8,"widthCm":21},"rawTitle":"『Balenciaga 巴黎世家』\n\n沙漏包鳄鱼纹黑色金扣小号\nBalenciagα本季重磅Hourglass鳄鱼纹沙漏包,独特的标志性弧线形状造型极具辨识度,一眼就让人眼前一亮呀超炫酷!表面光滑平整,外观呈现一轮半月状,上坠一个金属B形拉环,牛皮质感也非常感人非常有腔调!宝宝们使劲买不要停!!🖤🖤🖤\n小号尺寸:19x8x21cm"},"price":null,"currency":"CNY","moq":1,"category":"balenciaga-women-bags","status":"active","alibaba_url":null,"images":["https://xcimg.szwego.com/20220330/i1648608886_6831_0.jpg","https://xcimg.szwego.com/20220330/i1648608886_1829_1.jpg","https://xcimg.szwego.com/20220330/i1648608886_2886_2.jpg","https://xcimg.szwego.com/20220330/i1648608886_171_3.jpg","https://xcimg.szwego.com/20220330/i1648608886_6727_4.jpg","https://xcimg.szwego.com/20220330/i1648608886_8474_5.jpg","https://xcimg.szwego.com/20220330/i1648608886_5697_6.jpg","https://xcimg.szwego.com/20220330/i1648608886_9112_7.jpg","https://xcimg.szwego.com/20220330/i1648608886_144_8.jpg"],"created_at":"2025-02-08T12:29:39.388Z"},{"id":"item-103cd4c8093e","sku":"_diRiRQi-_NDy5VUq4lxCuBQKdBxIEHVSiTJ7raw","name_en":"『Balenciaga 巴黎世家』","name_cn":"『Balenciaga 巴黎世家』\n\nBALENCIAG* 新款Gossip bag 斜挎包!\n全新推出Gossip帅爆的小包包,前盖BB logo设计搭配复古五金,实物高级感满满,又酷又飒,可以根据日常随意搭配,时髦感和休闲感并存!\n必须是新宠~🤩\n小号:19x10x6.9cm 款号:9522","specs":{"source":"wsxcme","sourceId":"_diRiRQi-_NDy5VUq4lxCuBQKdBxIEHVSiTJ7raw","sourceTagId":80697835,"sourceTagName":"巴黎世家/女包","modelNumber":"9522","rawTitle":"『Balenciaga 巴黎世家』\n\nBALENCIAG* 新款Gossip bag 斜挎包!\n全新推出Gossip帅爆的小包包,前盖BB logo设计搭配复古五金,实物高级感满满,又酷又飒,可以根据日常随意搭配,时髦感和休闲感并存!\n必须是新宠~🤩\n小号:19x10x6.9cm 款号:9522"},"price":null,"currency":"CNY","moq":1,"category":"balenciaga-women-bags","status":"active","alibaba_url":null,"images":["https://xcimg.szwego.com/20220325/i1648215755_9724_0.jpg","https://xcimg.szwego.com/20220325/i1648215755_6247_1.jpg","https://xcimg.szwego.com/20220325/i1648215755_6328_2.jpg","https://xcimg.szwego.com/20220325/i1648215755_2747_3.jpg","https://xcimg.szwego.com/20220325/i1648215755_6447_4.jpg","https://xcimg.szwego.com/20220325/i1648215755_2268_5.jpg","https://xcimg.szwego.com/20220325/i1648215755_978_6.jpg","https://xcimg.szwego.com/20220325/i1648215755_3781_7.jpg","https://xcimg.szwego.com/20220325/i1648215755_1124_8.jpg"],"created_at":"2025-02-08T12:29:39.382Z"},{"id":"item-ff14ff6be750","sku":"_dlGlGhYYj-CwN-Soe1SWnD13GWP0g7YpswRCX1g","name_en":"『Burberry 巴宝莉』","name_cn":"『Burberry 巴宝莉』\n\nB家新款来袭、精巧别致的绗缝款。萝纳包、选用意大利鞣制羔羊皮材质匠心打造、装饰Thoms  Burberry. 专属标识、搭配亮泽的链条肩背带。可肩背、或缔造斜背造型。27.5*11*12cm、链条拼羔羊皮肩背带。1个内插袋、拉链开合、手绘涂漆边缘、光泽金属配件。1124","specs":{"source":"wsxcme","sourceId":"_dlGlGhYYj-CwN-Soe1SWnD13GWP0g7YpswRCX1g","sourceTagId":80411239,"sourceTagName":"巴宝莉/女包","rawTitle":"『Burberry 巴宝莉』\n\nB家新款来袭、精巧别致的绗缝款。萝纳包、选用意大利鞣制羔羊皮材质匠心打造、装饰Thoms  Burberry. 专属标识、搭配亮泽的链条肩背带。可肩背、或缔造斜背造型。27.5*11*12cm、链条拼羔羊皮肩背带。1个内插袋、拉链开合、手绘涂漆边缘、光泽金属配件。1124"},"price":null,"currency":"CNY","moq":1,"category":"burberry-women-bags","status":"active","alibaba_url":null,"images":["https://xcimg.szwego.com/20210925/i1632584181_2168_0.jpg","https://xcimg.szwego.com/20210925/i1632584181_8419_1.jpg","https://xcimg.szwego.com/20210925/i1632584181_9457_2.jpg","https://xcimg.szwego.com/20210925/i1632584181_6549_3.jpg","https://xcimg.szwego.com/20210925/i1632584181_8792_4.jpg","https://xcimg.szwego.com/20210925/i1632584181_1727_5.jpg","https://xcimg.szwego.com/20210925/i1632584181_4965_6.jpg","https://xcimg.szwego.com/20210925/i1632584181_5090_7.jpg","https://xcimg.szwego.com/20210925/i1632584181_6385_8.jpg"],"created_at":"2025-02-08T12:43:38.699Z"},{"id":"item-fd9f82e36890","sku":"_dfYfYn92WcgFI4RenRJ9uw2RNNDzFCQeYBLXutA","name_en":"『Burberry 巴宝莉』","name_cn":"『Burberry 巴宝莉』\n\nB家精巧的斜背包,选用意大利鞣制纹皮革与典藏 Vintage 复古格纹裁片打造。可单肩背、斜背,或缔造手拿包造型。21 x 4.5 x 12.5cm 型号:905268。","specs":{"source":"wsxcme","sourceId":"_dfYfYn92WcgFI4RenRJ9uw2RNNDzFCQeYBLXutA","sourceTagId":80411239,"sourceTagName":"巴宝莉/女包","modelNumber":"905268","rawTitle":"『Burberry 巴宝莉』\n\nB家精巧的斜背包,选用意大利鞣制纹皮革与典藏 Vintage 复古格纹裁片打造。可单肩背、斜背,或缔造手拿包造型。21 x 4.5 x 12.5cm 型号:905268。"},"price":null,"currency":"CNY","moq":1,"category":"burberry-women-bags","status":"active","alibaba_url":null,"images":["https://xcimg.szwego.com/20220418/i1650260036_6681_0.jpg","https://xcimg.szwego.com/20220418/i1650260036_8481_1.jpg","https://xcimg.szwego.com/20220418/i1650260036_4859_2.jpg","https://xcimg.szwego.com/20220418/i1650260036_496_3.jpg","https://xcimg.szwego.com/20220418/i1650260036_1830_4.jpg","https://xcimg.szwego.com/20220418/i1650260036_7263_5.jpg","https://xcimg.szwego.com/20220418/i1650260036_4266_6.jpg","https://xcimg.szwego.com/20220418/i1650260036_6788_7.jpg","https://xcimg.szwego.com/20220418/i1650260036_3921_8.jpg"],"created_at":"2025-02-08T12:43:38.703Z"},{"id":"item-fcf7ca713f80","sku":"_dgHgHx_H6XPSB2VK0bgyMS50gcM-1iMIjddMrMg","name_en":"『Burberry 巴宝莉』","name_cn":"『Burberry 巴宝莉』\n\n🔥🔥B家格子料皮革钱夹,随附链饰皮革肩背带。本品可作为小型手袋单独使用,或作为钱夹收置于日常手袋内。👍专柜品质、做工精细💋实物拍摄📷,🆔🆔40609791西瓜红色,尺寸21cm*12cm*3cm","specs":{"source":"wsxcme","sourceId":"_dgHgHx_H6XPSB2VK0bgyMS50gcM-1iMIjddMrMg","sourceTagId":80411239,"sourceTagName":"巴宝莉/女包","rawTitle":"『Burberry 巴宝莉』\n\n🔥🔥B家格子料皮革钱夹,随附链饰皮革肩背带。本品可作为小型手袋单独使用,或作为钱夹收置于日常手袋内。👍专柜品质、做工精细💋实物拍摄📷,🆔🆔40609791西瓜红色,尺寸21cm*12cm*3cm"},"price":null,"currency":"CNY","moq":1,"category":"burberry-women-bags","status":"active","alibaba_url":null,"images":["https://xcimg.szwego.com/1568531309_934095792_0","https://xcimg.szwego.com/1568531309_3714615366_1","https://xcimg.szwego.com/1568531309_2947937142_2","https://xcimg.szwego.com/1568531309_1269426674_3","https://xcimg.szwego.com/1568531309_1256171864_4","https://xcimg.szwego.com/1568531309_2837870404_5","https://xcimg.szwego.com/1568531309_4067190747_6","https://xcimg.szwego.com/1568531309_2275090239_7","https://xcimg.szwego.com/1568531309_359582732_8"],"created_at":"2025-02-08T12:43:27.862Z"},{"id":"item-f8bd9ddaca90","sku":"_dphph6d11HdkxSnlyGOrlQ2HS7ESeery0A_t7pQ","name_en":"『Burberry 巴宝莉』","name_cn":"『Burberry 巴宝莉』\n\n时装秀款保龄球包,焕新打造为精巧的斜背包,外层:100%棉 装饰:100%小牛皮 \n内层:100%小牛皮 可拆式斜背带\n1个外插袋;1个内插袋 拉链开合 手绘涂漆边缘\n亮泽金属装饰包身装饰品牌 Horseferry 印花,同时搭配皮革裹覆的挂锁与钥匙。\n尺寸:18 x 8 x 11cm\n背带垂直佩戴长度:52cm\n型号:6888#","specs":{"source":"wsxcme","sourceId":"_dphph6d11HdkxSnlyGOrlQ2HS7ESeery0A_t7pQ","sourceTagId":80411239,"sourceTagName":"巴宝莉/女包","modelNumber":"6888#","dimensions":{"lengthCm":18,"heightCm":8,"widthCm":11},"rawTitle":"『Burberry 巴宝莉』\n\n时装秀款保龄球包,焕新打造为精巧的斜背包,外层:100%棉 装饰:100%小牛皮 \n内层:100%小牛皮 可拆式斜背带\n1个外插袋;1个内插袋 拉链开合 手绘涂漆边缘\n亮泽金属装饰包身装饰品牌 Horseferry 印花,同时搭配皮革裹覆的挂锁与钥匙。\n尺寸:18 x 8 x 11cm\n背带垂直佩戴长度:52cm\n型号:6888#"},"price":null,"currency":"CNY","moq":1,"category":"burberry-women-bags","status":"active","alibaba_url":null,"images":["https://xcimg.szwego.com/20210428/i1619591082_6235_0.jpg","https://xcimg.szwego.com/20210428/i1619591082_9652_1.jpg","https://xcimg.szwego.com/20210428/i1619591082_9434_2.jpg","https://xcimg.szwego.com/20210428/i1619591082_392_3.jpg","https://xcimg.szwego.com/20210428/i1619591082_4145_4.jpg","https://xcimg.szwego.com/20210428/i1619591082_9903_5.jpg","https://xcimg.szwego.com/20210428/i1619591082_4969_6.jpg","https://xcimg.szwego.com/20210428/i1619591082_7484_7.jpg","https://xcimg.szwego.com/20210428/i1619591082_9755_8.jpg"],"created_at":"2025-02-08T12:43:38.706Z"},{"id":"item-f7a48d6254c9","sku":"_dmmmmYqIJYsyUCKZs8gYRp1KETMrfTdtlnQamXg","name_en":"『Burberry 巴宝莉』","name_cn":"『Burberry 巴宝莉』\n\n🔥🔥B家格子料皮革钱夹,随附链饰皮革肩背带。本品可作为小型手袋单独使用,或作为钱夹收置于日常手袋内。👍专柜品质、做工精细💋实物拍摄📷,🆔🆔40609791杏色、尺寸21cm*12cm*3cm","specs":{"source":"wsxcme","sourceId":"_dmmmmYqIJYsyUCKZs8gYRp1KETMrfTdtlnQamXg","sourceTagId":80411239,"sourceTagName":"巴宝莉/女包","rawTitle":"『Burberry 巴宝莉』\n\n🔥🔥B家格子料皮革钱夹,随附链饰皮革肩背带。本品可作为小型手袋单独使用,或作为钱夹收置于日常手袋内。👍专柜品质、做工精细💋实物拍摄📷,🆔🆔40609791杏色、尺寸21cm*12cm*3cm"},"price":null,"currency":"CNY","moq":1,"category":"burberry-women-bags","status":"active","alibaba_url":null,"images":["https://xcimg.szwego.com/1568531158_1753620798_0","https://xcimg.szwego.com/1568531158_1826619347_1","https://xcimg.szwego.com/1568531158_196549052_2","https://xcimg.szwego.com/1568531158_2917147659_3","https://xcimg.szwego.com/1568531158_1213864715_4","https://xcimg.szwego.com/1568531158_4269067982_5","https://xcimg.szwego.com/1568531158_2509272694_6","https://xcimg.szwego.com/1568531158_1944659700_7","https://xcimg.szwego.com/1568531158_1080712022_8"],"created_at":"2025-02-08T12:43:27.863Z"},{"id":"item-f5c4be5aa7ea","sku":"_d_7_79Iw3AK3Hf5v33Engvd2kUGMwv6OsqwEiNw","name_en":"『Burberry 巴宝莉』","name_cn":"『Burberry 巴宝莉』\n\nBURBERRY🇬🇧B家专柜经典款立体挺括的班纳手袋再次出货!!🎁装饰源自品牌六十年代的 Vintage 复古格纹,点缀马术灵感皮革元素。超级百搭的一款 40598尺寸:27.5*18*12cm","specs":{"source":"wsxcme","sourceId":"_d_7_79Iw3AK3Hf5v33Engvd2kUGMwv6OsqwEiNw","sourceTagId":80411239,"sourceTagName":"巴宝莉/女包","dimensions":{"lengthCm":27.5,"heightCm":18,"widthCm":12},"rawTitle":"『Burberry 巴宝莉』\n\nBURBERRY🇬🇧B家专柜经典款立体挺括的班纳手袋再次出货!!🎁装饰源自品牌六十年代的 Vintage 复古格纹,点缀马术灵感皮革元素。超级百搭的一款 40598尺寸:27.5*18*12cm"},"price":null,"currency":"CNY","moq":1,"category":"burberry-women-bags","status":"active","alibaba_url":null,"images":["https://xcimg.szwego.com/1567262365_2017156051_0","https://xcimg.szwego.com/1567262365_876001088_1","https://xcimg.szwego.com/1567262365_242651690_2","https://xcimg.szwego.com/1567262365_1397003422_3","https://xcimg.szwego.com/1567262365_1003974496_4","https://xcimg.szwego.com/1567262365_3912341871_5","https://xcimg.szwego.com/1567262365_1012810771_6","https://xcimg.szwego.com/1567262365_2666448303_7","https://xcimg.szwego.com/1567262365_2007055716_8"],"created_at":"2025-02-08T12:43:27.861Z"},{"id":"item-eaa82433a45f","sku":"_dqSqSGRCim7Uum3srWUuMvjn3qCFmjSKkWhfWVw","name_en":"『Burberry 巴宝莉』","name_cn":"『Burberry 巴宝莉』\n\n🔥🔥B家精巧的斜背包,选用粒纹皮革与 Vintage 复古格纹打造,设有徽标镌刻按扣。搭配可拆式背带,点缀提花精纺的品牌徽标。随心变换为肩背包或手拿包造型。25 x 8.5 x 18cm、1208","specs":{"source":"wsxcme","sourceId":"_dqSqSGRCim7Uum3srWUuMvjn3qCFmjSKkWhfWVw","sourceTagId":80411239,"sourceTagName":"巴宝莉/女包","rawTitle":"『Burberry 巴宝莉』\n\n🔥🔥B家精巧的斜背包,选用粒纹皮革与 Vintage 复古格纹打造,设有徽标镌刻按扣。搭配可拆式背带,点缀提花精纺的品牌徽标。随心变换为肩背包或手拿包造型。25 x 8.5 x 18cm、1208"},"price":null,"currency":"CNY","moq":1,"category":"burberry-women-bags","status":"active","alibaba_url":null,"images":["https://xcimg.szwego.com/20201213/a1607869187121_6728.jpg","https://xcimg.szwego.com/20201213/a1607869187664_8388.jpg","https://xcimg.szwego.com/20201213/a1607869188045_4082.jpg","https://xcimg.szwego.com/20201213/a1607869188502_8320.jpg","https://xcimg.szwego.com/20201213/a1607869188839_8311.jpg","https://xcimg.szwego.com/20201213/a1607869189289_8508.jpg","https://xcimg.szwego.com/20201213/a1607869189964_8013.jpg","https://xcimg.szwego.com/20201213/a1607869190373_2577.jpg","https://xcimg.szwego.com/20201213/a1607869190740_7446.jpg"],"created_at":"2025-02-08T12:43:27.855Z"},{"id":"item-e97be62ef7a8","sku":"_dZcZc4I6RgS21MbmscMAaPZ-MK6HxH_mQCFQXoQ","name_en":"『Burberry 巴宝莉』","name_cn":"『Burberry 巴宝莉』\n\n🔥🔥B家中古系列邮差包,战马系列中古邮差包,这款几乎市面上你找不到,中古店也是一包难求,必须种草!尺寸:27x17cm、6886","specs":{"source":"wsxcme","sourceId":"_dZcZc4I6RgS21MbmscMAaPZ-MK6HxH_mQCFQXoQ","sourceTagId":80411239,"sourceTagName":"巴宝莉/女包","rawTitle":"『Burberry 巴宝莉』\n\n🔥🔥B家中古系列邮差包,战马系列中古邮差包,这款几乎市面上你找不到,中古店也是一包难求,必须种草!尺寸:27x17cm、6886"},"price":null,"currency":"CNY","moq":1,"category":"burberry-women-bags","status":"active","alibaba_url":null,"images":["https://xcimg.szwego.com/o_1f7fpurss1mmmqeeiu71oldnt4b.jpg","https://xcimg.szwego.com/o_1f7fpurssg0si7aen3ke71t8u4c.jpg","https://xcimg.szwego.com/o_1f7fpurssp11146vbkl52j17q44d.jpg","https://xcimg.szwego.com/o_1f7fpurss1k5d9351o5qd4r19da4e.jpg","https://xcimg.szwego.com/o_1f7fpurss1sr91kom1tl23nh1nrs4f.jpg","https://xcimg.szwego.com/o_1f7fpursu8u5da71h9114j317u74g.jpg","https://xcimg.szwego.com/o_1f7fpursuen7129b1jt81i8ohjo4h.jpg","https://xcimg.szwego.com/o_1f7fpursuoj6j3tvaa1vebaai4i.jpg","https://xcimg.szwego.com/o_1f7fpursul9717q216ho1h10i594j.jpg"],"created_at":"2025-02-08T12:43:38.722Z"},{"id":"item-e480c2fb4d22","sku":"_dk3k3ZBu4OKLQ7AxYvYJHLpEHf1Mi8HVrMtBAgA","name_en":"『Burberry 巴宝莉』","name_cn":"『Burberry 巴宝莉』\n\n🔥🔥B家精巧的斜背包,设有徽标镌刻按扣。搭配可拆式背带,点缀提花精纺的品牌徽标。随心变换为肩背包或手拿包造型。25 x 8.5 x 18cm、1209","specs":{"source":"wsxcme","sourceId":"_dk3k3ZBu4OKLQ7AxYvYJHLpEHf1Mi8HVrMtBAgA","sourceTagId":80411239,"sourceTagName":"巴宝莉/女包","rawTitle":"『Burberry 巴宝莉』\n\n🔥🔥B家精巧的斜背包,设有徽标镌刻按扣。搭配可拆式背带,点缀提花精纺的品牌徽标。随心变换为肩背包或手拿包造型。25 x 8.5 x 18cm、1209"},"price":null,"currency":"CNY","moq":1,"category":"burberry-women-bags","status":"active","alibaba_url":null,"images":["https://xcimg.szwego.com/20210201/a1612164800732_3881.jpg","https://xcimg.szwego.com/20210201/a1612164801355_6003.jpg","https://xcimg.szwego.com/20210201/a1612164801488_3461.jpg","https://xcimg.szwego.com/20210201/a1612164801640_6177.jpg","https://xcimg.szwego.com/20210201/a1612164801788_5438.jpg","https://xcimg.szwego.com/20210201/a1612164801913_1112.jpg","https://xcimg.szwego.com/20210201/a1612164802054_5431.jpg","https://xcimg.szwego.com/20210201/a1612164802221_6267.jpg","https://xcimg.szwego.com/20210201/a1612164802346_5162.jpg"],"created_at":"2025-02-08T12:43:27.858Z"},{"id":"item-e0371a09977a","sku":"_dm1m16NFgGKaKeCGeomDIWc4GzZCZT3J4PhUjXQ","name_en":"『Burberry 巴宝莉』","name_cn":"『Burberry 巴宝莉』\n\n🔥🔥巴宝莉新款精巧的斜背包,原单品质!精选棉质帆布材质制成,搭配精美的皮革细节;装饰品牌 Horseferry 印花与精美的三粒铆钉,可斜背或卸下背带缔造手拿包造型。18 x 8 x 12cm、4541","specs":{"source":"wsxcme","sourceId":"_dm1m16NFgGKaKeCGeomDIWc4GzZCZT3J4PhUjXQ","sourceTagId":80411239,"sourceTagName":"巴宝莉/女包","rawTitle":"『Burberry 巴宝莉』\n\n🔥🔥巴宝莉新款精巧的斜背包,原单品质!精选棉质帆布材质制成,搭配精美的皮革细节;装饰品牌 Horseferry 印花与精美的三粒铆钉,可斜背或卸下背带缔造手拿包造型。18 x 8 x 12cm、4541"},"price":null,"currency":"CNY","moq":1,"category":"burberry-women-bags","status":"active","alibaba_url":null,"images":["https://xcimg.szwego.com/20200518/a1589809379988_7370.jpg","https://xcimg.szwego.com/20200518/a1589809380672_5534.jpg","https://xcimg.szwego.com/20200518/a1589809381141_2026.jpg","https://xcimg.szwego.com/20200518/a1589809381478_5013.jpg","https://xcimg.szwego.com/20200518/a1589809381830_2453.jpg","https://xcimg.szwego.com/20200518/a1589809382205_4618.jpg","https://xcimg.szwego.com/20200518/a1589809382490_6353.jpg","https://xcimg.szwego.com/20200518/a1589809382752_3365.jpg","https://xcimg.szwego.com/20200518/a1589809383085_6755.jpg"],"created_at":"2025-02-08T12:43:27.807Z"},{"id":"item-ddd7b5f0ea2c","sku":"_dididyTVlKipBEVkfeVCQcGHyhGL2PLrm0GWTWg","name_en":"『Burberry 巴宝莉』","name_cn":"『Burberry 巴宝莉』\n\n🔥🔥B家新款迷你双色帆布拼皮托特包,选用缉明线皮革及棉质帆布制成,可使用顶部提柄手拎,或使用可调式肩背带携带。\n尺寸:23 x 8 x19cm、2412","specs":{"source":"wsxcme","sourceId":"_dididyTVlKipBEVkfeVCQcGHyhGL2PLrm0GWTWg","sourceTagId":80411239,"sourceTagName":"巴宝莉/女包","dimensions":{"lengthCm":23,"heightCm":8,"widthCm":19},"rawTitle":"『Burberry 巴宝莉』\n\n🔥🔥B家新款迷你双色帆布拼皮托特包,选用缉明线皮革及棉质帆布制成,可使用顶部提柄手拎,或使用可调式肩背带携带。\n尺寸:23 x 8 x19cm、2412"},"price":null,"currency":"CNY","moq":1,"category":"burberry-women-bags","status":"active","alibaba_url":null,"images":["https://xcimg.szwego.com/20211013/a1634102576471_5554.jpg","https://xcimg.szwego.com/20211013/a1634102576564_0571.jpg","https://xcimg.szwego.com/20211013/a1634102576662_5676.jpg","https://xcimg.szwego.com/20211013/a1634102576775_6117.jpg","https://xcimg.szwego.com/20211013/a1634102576870_1446.jpg","https://xcimg.szwego.com/20211013/a1634102576966_2230.jpg","https://xcimg.szwego.com/20211013/a1634102577064_6127.jpg","https://xcimg.szwego.com/20211013/a1634102577183_7468.jpg","https://xcimg.szwego.com/20211013/a1634102577290_8745.jpg"],"created_at":"2025-02-08T12:43:27.883Z"},{"id":"item-dac2fb447cce","sku":"_dhChCcbZHFHXpXScMumSlVtJNvnUAzsYEu6hD9w","name_en":"『Burberry 巴宝莉』","name_cn":"『Burberry 巴宝莉』\n\nB家中古vintage系列新款小号邮差包!进口复古棕厚度1.4厚牛皮,进口利蒙塔中古系列新款! 头层牛皮 搭配经典格纹 复古的棕色增加了文艺范! 格纹环保干净好打理,包包容量大小合适,可单肩可斜挎!满足日常所需!好物必收!\n尺寸:21/8.5/18cm!\n6880","specs":{"source":"wsxcme","sourceId":"_dhChCcbZHFHXpXScMumSlVtJNvnUAzsYEu6hD9w","sourceTagId":80411239,"sourceTagName":"巴宝莉/女包","rawTitle":"『Burberry 巴宝莉』\n\nB家中古vintage系列新款小号邮差包!进口复古棕厚度1.4厚牛皮,进口利蒙塔中古系列新款! 头层牛皮 搭配经典格纹 复古的棕色增加了文艺范! 格纹环保干净好打理,包包容量大小合适,可单肩可斜挎!满足日常所需!好物必收!\n尺寸:21/8.5/18cm!\n6880"},"price":null,"currency":"CNY","moq":1,"category":"burberry-women-bags","status":"active","alibaba_url":null,"images":["https://xcimg.szwego.com/20210902/i1630565560_2001_0.jpg","https://xcimg.szwego.com/20210902/i1630565560_6639_1.jpg","https://xcimg.szwego.com/20210902/i1630565560_1267_2.jpg","https://xcimg.szwego.com/20210902/i1630565560_4703_3.jpg","https://xcimg.szwego.com/20210902/i1630565560_1145_4.jpg","https://xcimg.szwego.com/20210902/i1630565560_507_5.jpg","https://xcimg.szwego.com/20210902/i1630565560_2498_6.jpg","https://xcimg.szwego.com/20210902/i1630565560_8677_7.jpg"],"created_at":"2025-02-08T12:43:38.729Z"},{"id":"item-d918499a9151","sku":"_doEoERWTUFzdWpL1putAPEKyfUgMzQGSa2BNCTg","name_en":"『Burberry 巴宝莉』","name_cn":"『Burberry 巴宝莉』\n\nB家中古vintage系列新款小号邮差包!进口复古棕厚度1.4厚牛皮,进口利蒙塔中古系列新款! 头层牛皮 搭配经典格纹 复古的棕色增加了文艺范! 格纹环保干净好打理,包包容量大小合适,可单肩可斜挎!满足日常所需!好物必收!\n尺寸:21/8.5/18cm!","specs":{"source":"wsxcme","sourceId":"_doEoERWTUFzdWpL1putAPEKyfUgMzQGSa2BNCTg","sourceTagId":80411239,"sourceTagName":"巴宝莉/女包","rawTitle":"『Burberry 巴宝莉』\n\nB家中古vintage系列新款小号邮差包!进口复古棕厚度1.4厚牛皮,进口利蒙塔中古系列新款! 头层牛皮 搭配经典格纹 复古的棕色增加了文艺范! 格纹环保干净好打理,包包容量大小合适,可单肩可斜挎!满足日常所需!好物必收!\n尺寸:21/8.5/18cm!"},"price":null,"currency":"CNY","moq":1,"category":"burberry-women-bags","status":"active","alibaba_url":null,"images":["https://xcimg.szwego.com/20210902/i1630565517_8029_0.jpg","https://xcimg.szwego.com/20210902/i1630565517_9875_1.jpg","https://xcimg.szwego.com/20210902/i1630565517_7802_2.jpg","https://xcimg.szwego.com/20210902/i1630565517_3608_3.jpg","https://xcimg.szwego.com/20210902/i1630565517_6571_4.jpg","https://xcimg.szwego.com/20210902/i1630565517_1931_5.jpg","https://xcimg.szwego.com/20210902/i1630565517_6264_6.jpg","https://xcimg.szwego.com/20210902/i1630565517_2255_7.jpg","https://xcimg.szwego.com/20210902/i1630565517_5594_8.jpg"],"created_at":"2025-02-08T12:43:27.899Z"},{"id":"item-d78b69bd207d","sku":"_dcgcgYiv7anI3hiQFEdCLRXqtDIoxTm31xekbDw","name_en":"『Burberry 巴宝莉』","name_cn":"『Burberry 巴宝莉』\n\n🔥🔥B家新款羊皮精巧别致的绗缝学院风萝纳包🤪🤪装饰 Thomas Burberry 专属标识,搭配亮泽的链条背带。可肩背,或使用顶部提柄缔造手拿包造型。26 x 10 x 18cm、8396","specs":{"source":"wsxcme","sourceId":"_dcgcgYiv7anI3hiQFEdCLRXqtDIoxTm31xekbDw","sourceTagId":80411239,"sourceTagName":"巴宝莉/女包","rawTitle":"『Burberry 巴宝莉』\n\n🔥🔥B家新款羊皮精巧别致的绗缝学院风萝纳包🤪🤪装饰 Thomas Burberry 专属标识,搭配亮泽的链条背带。可肩背,或使用顶部提柄缔造手拿包造型。26 x 10 x 18cm、8396"},"price":null,"currency":"CNY","moq":1,"category":"burberry-women-bags","status":"active","alibaba_url":null,"images":["https://xcimg.szwego.com/20220425/a1650880777410_4850.jpg","https://xcimg.szwego.com/20220425/a1650880777515_7071.jpg","https://xcimg.szwego.com/20220425/a1650880777618_5228.jpg","https://xcimg.szwego.com/20220425/a1650880777718_1083.jpg","https://xcimg.szwego.com/20220425/a1650880777834_4755.jpg","https://xcimg.szwego.com/20220425/a1650880777942_7175.jpg","https://xcimg.szwego.com/20220425/a1650880778059_4541.jpg","https://xcimg.szwego.com/20220425/a1650880778170_1187.jpg","https://xcimg.szwego.com/20220425/a1650880778287_7408.jpg"],"created_at":"2025-02-08T12:43:38.708Z"},{"id":"item-d376370796cb","sku":"_dpjpjXvlj73DL-wy2XcD26UsF_0ksgrUslQFu4A","name_en":"『Burberry 巴宝莉』","name_cn":"『Burberry 巴宝莉』\n\n🇬🇧B家专柜经典款立体挺括的班纳手袋再次出货!!🎁装饰源自品牌六十年代的 Vintage 复古格纹,点缀马术灵感皮革元素。超级百搭的一款 40598尺寸:27.5*18*12cm","specs":{"source":"wsxcme","sourceId":"_dpjpjXvlj73DL-wy2XcD26UsF_0ksgrUslQFu4A","sourceTagId":80411239,"sourceTagName":"巴宝莉/女包","dimensions":{"lengthCm":27.5,"heightCm":18,"widthCm":12},"rawTitle":"『Burberry 巴宝莉』\n\n🇬🇧B家专柜经典款立体挺括的班纳手袋再次出货!!🎁装饰源自品牌六十年代的 Vintage 复古格纹,点缀马术灵感皮革元素。超级百搭的一款 40598尺寸:27.5*18*12cm"},"price":null,"currency":"CNY","moq":1,"category":"burberry-women-bags","status":"active","alibaba_url":null,"images":["https://xcimg.szwego.com/1567262365_2017156051_0","https://xcimg.szwego.com/1567262365_876001088_1","https://xcimg.szwego.com/1567262365_242651690_2","https://xcimg.szwego.com/1567262365_1397003422_3","https://xcimg.szwego.com/1567262365_1003974496_4","https://xcimg.szwego.com/1567262365_3912341871_5","https://xcimg.szwego.com/1567262365_1012810771_6","https://xcimg.szwego.com/1567262365_2666448303_7","https://xcimg.szwego.com/1567262365_2007055716_8"],"created_at":"2025-02-08T12:43:38.684Z"},{"id":"item-d20b035145b3","sku":"_dvqvq5kEJfC72H-fn8lMwwLuXm0yA1VtfGxB9Zg","name_en":"『Burberry 巴宝莉』","name_cn":"『Burberry 巴宝莉』\n\n🔥🔥B家精巧的斜背包,选用意大利鞣制粒纹皮革与典藏 Vintage 复古格纹裁片打造。😁😁可单肩背、斜背,或缔造手拿包造型。21 x 4.5 x 12.5cm、6601","specs":{"source":"wsxcme","sourceId":"_dvqvq5kEJfC72H-fn8lMwwLuXm0yA1VtfGxB9Zg","sourceTagId":80411239,"sourceTagName":"巴宝莉/女包","rawTitle":"『Burberry 巴宝莉』\n\n🔥🔥B家精巧的斜背包,选用意大利鞣制粒纹皮革与典藏 Vintage 复古格纹裁片打造。😁😁可单肩背、斜背,或缔造手拿包造型。21 x 4.5 x 12.5cm、6601"},"price":null,"currency":"CNY","moq":1,"category":"burberry-women-bags","status":"active","alibaba_url":null,"images":["https://xcimg.szwego.com/o_1f2dto4991v471mrerfu1afa10276v.jpg","https://xcimg.szwego.com/o_1f2dto4991hvc1riodg61kba14h070.jpg","https://xcimg.szwego.com/o_1f2dto499apn1gj8176arhrjb471.jpg","https://xcimg.szwego.com/o_1f2dto49914ph9kf1m251399cil72.jpg","https://xcimg.szwego.com/o_1f2dto49919n51j241ag1hr91jhk73.jpg","https://xcimg.szwego.com/o_1f2dto499rh1ukmqsu1aku1k0874.jpg","https://xcimg.szwego.com/o_1f2dto4991l23tv7i9q14nep5875.jpg","https://xcimg.szwego.com/o_1f2dto4991b6j1kaf1jh5112p110v76.jpg","https://xcimg.szwego.com/o_1f2dto4991pai1aih1pnu1m5em5d77.jpg"],"created_at":"2025-02-08T12:43:27.876Z"},{"id":"item-d19b9683bf73","sku":"_dididyTVlKipBEVkfeVCQcGHyhGbwPLrm1GSTXA","name_en":"『Burberry 巴宝莉』","name_cn":"『Burberry 巴宝莉』\n\n【B家顶级原单】小号双色帆布拼皮皮革Freya意大利精制托特包,选用缉明线皮革及棉质帆布制成,装饰品牌 Horseferry 印花。可使用顶部提柄手拎,或肩背携带。\n尺寸:33 x 12.5 x26cm\n2422","specs":{"source":"wsxcme","sourceId":"_dididyTVlKipBEVkfeVCQcGHyhGbwPLrm1GSTXA","sourceTagId":80411239,"sourceTagName":"巴宝莉/女包","dimensions":{"lengthCm":33,"heightCm":12.5,"widthCm":26},"rawTitle":"『Burberry 巴宝莉』\n\n【B家顶级原单】小号双色帆布拼皮皮革Freya意大利精制托特包,选用缉明线皮革及棉质帆布制成,装饰品牌 Horseferry 印花。可使用顶部提柄手拎,或肩背携带。\n尺寸:33 x 12.5 x26cm\n2422"},"price":null,"currency":"CNY","moq":1,"category":"burberry-women-bags","status":"active","alibaba_url":null,"images":["https://xcimg.szwego.com/20211010/i1633835746_5509_0.jpg","https://xcimg.szwego.com/20211010/i1633835746_8010_1.jpg","https://xcimg.szwego.com/20211010/i1633835746_7688_2.jpg","https://xcimg.szwego.com/20211010/i1633835746_6168_3.jpg","https://xcimg.szwego.com/20211010/i1633835746_2473_4.jpg","https://xcimg.szwego.com/20211010/i1633835746_2252_5.jpg","https://xcimg.szwego.com/20211010/i1633835746_2708_6.jpg","https://xcimg.szwego.com/20211010/i1633835746_292_7.jpg","https://xcimg.szwego.com/20211010/i1633835746_5944_8.jpg"],"created_at":"2025-02-08T12:43:27.880Z"},{"id":"item-d118cb51401d","sku":"_dlhlhKup5uGPAAkgEuK1l_0_a9ybpCvzWq7NNuA","name_en":"『Burberry 巴宝莉』","name_cn":"『Burberry 巴宝莉』\n\n🔥🔥B家最新款典藏灵感的托特包,精选双色帆布拼缉明线细节的皮革制成,[玫瑰]顶部提柄携带,或使用可拆式肩背带。1个外侧翻盖口袋采用磁扣开合;1个内侧拉链口袋 尺寸:23 x 6 x 26.5c、2735","specs":{"source":"wsxcme","sourceId":"_dlhlhKup5uGPAAkgEuK1l_0_a9ybpCvzWq7NNuA","sourceTagId":80411239,"sourceTagName":"巴宝莉/女包","rawTitle":"『Burberry 巴宝莉』\n\n🔥🔥B家最新款典藏灵感的托特包,精选双色帆布拼缉明线细节的皮革制成,[玫瑰]顶部提柄携带,或使用可拆式肩背带。1个外侧翻盖口袋采用磁扣开合;1个内侧拉链口袋 尺寸:23 x 6 x 26.5c、2735"},"price":null,"currency":"CNY","moq":1,"category":"burberry-women-bags","status":"active","alibaba_url":null,"images":["https://xcimg.szwego.com/20200610/a1591768354786_7877.jpg","https://xcimg.szwego.com/20200610/a1591768356063_0834.jpg","https://xcimg.szwego.com/20200610/a1591768356686_7318.jpg","https://xcimg.szwego.com/20200610/a1591768357222_4658.jpg","https://xcimg.szwego.com/20200610/a1591768357728_1010.jpg","https://xcimg.szwego.com/20200610/a1591768358256_6316.jpg","https://xcimg.szwego.com/20200610/a1591768359025_5477.jpg","https://xcimg.szwego.com/20200610/a1591768359832_3100.jpg","https://xcimg.szwego.com/20200610/a1591768360605_8442.jpg"],"created_at":"2025-02-08T12:43:38.734Z"},{"id":"item-c99596103d38","sku":"_dvLvLnctYu3PnmQc_1qjpDXZizG961tSN9haSKQ","name_en":"『Burberry 巴宝莉』","name_cn":"『Burberry 巴宝莉』\n\n🅱家新款精巧的「Title - 泰尔勒手袋」,精选光滑双色皮革与 Vintage 复古格纹裁片打造,装饰精美的三粒铆钉。可用顶部提柄手拎,或以可拆式背带缔造肩背造型。编号:8347尺寸:26 - 13 - 20cm。","specs":{"source":"wsxcme","sourceId":"_dvLvLnctYu3PnmQc_1qjpDXZizG961tSN9haSKQ","sourceTagId":80411239,"sourceTagName":"巴宝莉/女包","rawTitle":"『Burberry 巴宝莉』\n\n🅱家新款精巧的「Title - 泰尔勒手袋」,精选光滑双色皮革与 Vintage 复古格纹裁片打造,装饰精美的三粒铆钉。可用顶部提柄手拎,或以可拆式背带缔造肩背造型。编号:8347尺寸:26 - 13 - 20cm。"},"price":null,"currency":"CNY","moq":1,"category":"burberry-women-bags","status":"active","alibaba_url":null,"images":["https://xcimg.szwego.com/20210902/i1630520388_1602_0.jpg","https://xcimg.szwego.com/20210902/i1630520388_7533_1.jpg","https://xcimg.szwego.com/20210902/i1630520388_927_2.jpg","https://xcimg.szwego.com/20210902/i1630520388_8614_3.jpg","https://xcimg.szwego.com/20210902/i1630520388_3371_4.jpg","https://xcimg.szwego.com/20210902/i1630520388_8951_5.jpg","https://xcimg.szwego.com/20210902/i1630520388_5272_6.jpg","https://xcimg.szwego.com/20210902/i1630520388_9645_7.jpg","https://xcimg.szwego.com/20210902/i1630520388_6407_8.jpg"],"created_at":"2025-02-08T12:43:38.690Z"}],"page":32,"pageSize":24,"total":10075,"totalPages":420}
