{"items":[{"id":"item-90ca91096193","sku":"_dHVHVAVMn1pNW0qwF-S9xwQnlwC3EwPc96HE4dA","name_en":"Detail photo","name_cn":"Detail photo","specs":{"source":"wsxcme","sourceId":"_dHVHVAVMn1pNW0qwF-S9xwQnlwC3EwPc96HE4dA","sourceTagId":47002761,"sourceTagName":"Saint Laurent/women's bag","rawTitle":"Detail photo"},"price":null,"currency":"CNY","moq":1,"category":"ysl-women-bags","status":"active","alibaba_url":null,"images":["https://xcimg.szwego.com/img/f8c0bdc9/20240401/i1711964890_6001_4.jpg","https://xcimg.szwego.com/img/f8c0bdc9/20240401/i1711964890_5483_3.jpg","https://xcimg.szwego.com/img/f8c0bdc9/20240401/i1711964890_8159_2.jpg","https://xcimg.szwego.com/img/f8c0bdc9/20240401/i1711964889_6310_0.jpg","https://xcimg.szwego.com/img/f8c0bdc9/20240401/i1711964890_2643_1.jpg"],"created_at":"2026-05-20T04:01:39.123Z"},{"id":"item-87bab5ecea1b","sku":"_dgwgwATsrTK3xDWbIMIf-gwOO5Se2SPjOn4swZA","name_en":"Detail photo","name_cn":"Detail photo","specs":{"source":"wsxcme","sourceId":"_dgwgwATsrTK3xDWbIMIf-gwOO5Se2SPjOn4swZA","sourceTagId":47002761,"sourceTagName":"Saint Laurent/women's bag","rawTitle":"Detail photo"},"price":null,"currency":"CNY","moq":1,"category":"ysl-women-bags","status":"active","alibaba_url":null,"images":["https://xcimg.szwego.com/imgHD/f8c0bdc9/20251229/cmp_i1766998203047_8018_0_0.jpg","https://xcimg.szwego.com/imgHD/f8c0bdc9/20251229/cmp_i1766998199385_824_0_1.jpg","https://xcimg.szwego.com/imgHD/f8c0bdc9/20251229/cmp_i1766998199559_7240_0_2.jpg","https://xcimg.szwego.com/imgHD/f8c0bdc9/20251229/cmp_i1766998203281_8816_0_3.jpg","https://xcimg.szwego.com/imgHD/f8c0bdc9/20251229/cmp_i1766998202949_2691_0_4.jpg","https://xcimg.szwego.com/imgHD/f8c0bdc9/20251229/cmp_i1766998200784_1528_0_5.jpg","https://xcimg.szwego.com/imgHD/f8c0bdc9/20251229/cmp_i1766998199341_677_0_6.jpg","https://xcimg.szwego.com/imgHD/f8c0bdc9/20251229/cmp_i1766998200625_4354_0_7.jpg"],"created_at":"2026-06-29T10:54:45.416Z"},{"id":"item-831763344b81","sku":"_dDMDMYFUOkWg0UNH8BnUVm_haNmLuOhnS95cJZg","name_en":"Detail photo","name_cn":"Detail photo","specs":{"source":"wsxcme","sourceId":"_dDMDMYFUOkWg0UNH8BnUVm_haNmLuOhnS95cJZg","sourceTagId":47002756,"sourceTagName":"/women's bag","rawTitle":"Detail photo"},"price":null,"currency":"CNY","moq":1,"category":"bvlgari-women-bags","status":"active","alibaba_url":null,"images":["https://xcimg.szwego.com/20230219/i1676789509_7262_0.jpg","https://xcimg.szwego.com/20230219/i1676789509_6640_1.jpg","https://xcimg.szwego.com/20230219/i1676789509_370_2.jpg","https://xcimg.szwego.com/20230219/i1676789509_4201_3.jpg","https://xcimg.szwego.com/20230219/i1676789509_9460_4.jpg"],"created_at":"2024-10-07T10:58:53.572Z"},{"id":"item-82e9cbfefea2","sku":"_djrjrlKaHNd8we42NkBhuaOfyFk0oJbSS6nnh7g","name_en":"Detail photo","name_cn":"Detail photo","specs":{"source":"wsxcme","sourceId":"_djrjrlKaHNd8we42NkBhuaOfyFk0oJbSS6nnh7g","sourceTagId":47002761,"sourceTagName":"Saint Laurent/women's bag","rawTitle":"Detail photo"},"price":null,"currency":"CNY","moq":1,"category":"ysl-women-bags","status":"active","alibaba_url":null,"images":["https://xcimg.szwego.com/imgHD/f8c0bdc9/20251229/cmp_i1766999922658_8517_0_0.jpg","https://xcimg.szwego.com/imgHD/f8c0bdc9/20251229/cmp_i1766999922709_4811_0_1.jpg","https://xcimg.szwego.com/imgHD/f8c0bdc9/20251229/cmp_i1766999924229_4009_0_2.jpg","https://xcimg.szwego.com/imgHD/f8c0bdc9/20251229/cmp_i1766999924068_3709_0_3.jpg","https://xcimg.szwego.com/imgHD/f8c0bdc9/20251229/cmp_i1766999924315_3848_0_4.jpg"],"created_at":"2026-06-29T10:54:45.466Z"},{"id":"item-820105dec0e9","sku":"_daRaRxkvCc0fnqmNCrTOHL1yOLgCs7Ys1udSwCw","name_en":"Detail photo","name_cn":"Detail photo","specs":{"source":"wsxcme","sourceId":"_daRaRxkvCc0fnqmNCrTOHL1yOLgCs7Ys1udSwCw","sourceTagId":47002761,"sourceTagName":"Saint Laurent/women's bag","rawTitle":"Detail photo"},"price":null,"currency":"CNY","moq":1,"category":"ysl-women-bags","status":"active","alibaba_url":null,"images":["https://xcimg.szwego.com/img/f8c0bdc9/20250107/i1736242268005_6281_0_0.jpg","https://xcimg.szwego.com/img/f8c0bdc9/20250107/i1736242267852_9386_0_1.jpg","https://xcimg.szwego.com/img/f8c0bdc9/20250107/i1736242268139_8367_0_2.jpg","https://xcimg.szwego.com/img/f8c0bdc9/20250107/i1736242268069_9316_0_3.jpg","https://xcimg.szwego.com/img/f8c0bdc9/20250107/i1736242267928_4183_0_4.jpg"],"created_at":"2026-06-29T10:48:59.119Z"},{"id":"item-7982cc835af3","sku":"_dtdtdh2jm5BTBVVB8gdZn5YDoru0OuMHekQIYNA","name_en":"Detail photo","name_cn":"Detail photo","specs":{"source":"wsxcme","sourceId":"_dtdtdh2jm5BTBVVB8gdZn5YDoru0OuMHekQIYNA","sourceTagId":47002761,"sourceTagName":"Saint Laurent/women's bag","rawTitle":"Detail photo"},"price":null,"currency":"CNY","moq":1,"category":"ysl-women-bags","status":"active","alibaba_url":null,"images":["https://xcimg.szwego.com/img/f8c0bdc9/20231225/i1703504866_1687_0.jpg","https://xcimg.szwego.com/img/f8c0bdc9/20231225/i1703504866_1096_1.jpg","https://xcimg.szwego.com/img/f8c0bdc9/20231225/i1703504866_9253_2.jpg","https://xcimg.szwego.com/img/f8c0bdc9/20231225/i1703504866_2613_3.jpg","https://xcimg.szwego.com/img/f8c0bdc9/20231225/i1703504866_4846_4.jpg","https://xcimg.szwego.com/img/f8c0bdc9/20231225/i1703504866_4819_5.jpg","https://xcimg.szwego.com/img/f8c0bdc9/20231225/i1703504866_2767_6.jpg","https://xcimg.szwego.com/img/f8c0bdc9/20231225/i1703504866_3253_7.jpg"],"created_at":"2026-05-20T04:01:38.953Z"},{"id":"item-73fad88a00bb","sku":"_d4k4kL2yuiYGlxJo1Lk_zvO0xnLcApKOF56Cacw","name_en":"Detail photo","name_cn":"Detail photo","specs":{"source":"wsxcme","sourceId":"_d4k4kL2yuiYGlxJo1Lk_zvO0xnLcApKOF56Cacw","sourceTagId":47002761,"sourceTagName":"Saint Laurent/women's bag","rawTitle":"Detail photo"},"price":null,"currency":"CNY","moq":1,"category":"ysl-women-bags","status":"active","alibaba_url":null,"images":["https://xcimg.szwego.com/img/f8c0bdc9/20250107/i1736242421256_8814_0_0.jpg","https://xcimg.szwego.com/img/f8c0bdc9/20250107/i1736242421323_213_0_1.jpg","https://xcimg.szwego.com/img/f8c0bdc9/20250107/i1736242421190_6473_0_2.jpg","https://xcimg.szwego.com/img/f8c0bdc9/20250107/i1736242421123_7535_0_3.jpg","https://xcimg.szwego.com/img/f8c0bdc9/20250107/i1736242421060_1049_0_4.jpg","https://xcimg.szwego.com/img/f8c0bdc9/20250107/i1736242420994_9910_0_5.jpg","https://xcimg.szwego.com/img/f8c0bdc9/20250107/i1736242421460_6326_0_6.jpg","https://xcimg.szwego.com/img/f8c0bdc9/20250107/i1736242421388_14_0_7.jpg"],"created_at":"2026-06-29T10:48:59.219Z"},{"id":"item-72f4e7b3f598","sku":"_drsrsLrP_haRm9LItykdkBhkS6K2mpqHsztO8aw","name_en":"Detail photo","name_cn":"Detail photo","specs":{"source":"wsxcme","sourceId":"_drsrsLrP_haRm9LItykdkBhkS6K2mpqHsztO8aw","sourceTagId":47002761,"sourceTagName":"Saint Laurent/women's bag","rawTitle":"Detail photo"},"price":null,"currency":"CNY","moq":1,"category":"ysl-women-bags","status":"active","alibaba_url":null,"images":["https://xcimg.szwego.com/imgHD/f8c0bdc9/20260420/cmp_i1776669992467_3361_0_0.jpg","https://xcimg.szwego.com/imgHD/f8c0bdc9/20260420/cmp_i1776669995361_8959_0_1.jpg","https://xcimg.szwego.com/imgHD/f8c0bdc9/20260420/cmp_i1776669996322_5611_0_2.jpg","https://xcimg.szwego.com/imgHD/f8c0bdc9/20260420/cmp_i1776669993738_2595_0_3.jpg","https://xcimg.szwego.com/imgHD/f8c0bdc9/20260420/cmp_i1776669994022_4601_0_4.jpg","https://xcimg.szwego.com/imgHD/f8c0bdc9/20260420/cmp_i1776669993841_5351_0_5.jpg","https://xcimg.szwego.com/imgHD/f8c0bdc9/20260420/cmp_i1776669998486_2159_0_6.jpg","https://xcimg.szwego.com/imgHD/f8c0bdc9/20260420/cmp_i1776669996177_2999_0_7.jpg","https://xcimg.szwego.com/imgHD/f8c0bdc9/20260420/cmp_i1776669992135_5904_0_8.jpg"],"created_at":"2026-06-29T10:48:58.949Z"},{"id":"item-708f392939d7","sku":"_djbjbIkZl60IuP5KsRCsNVQv-oWjR7nJJtIUZ2g","name_en":"Detail photo","name_cn":"Detail photo","specs":{"source":"wsxcme","sourceId":"_djbjbIkZl60IuP5KsRCsNVQv-oWjR7nJJtIUZ2g","sourceTagId":47002761,"sourceTagName":"Saint Laurent/women's bag","rawTitle":"Detail photo"},"price":null,"currency":"CNY","moq":1,"category":"ysl-women-bags","status":"active","alibaba_url":null,"images":["https://xcimg.szwego.com/imgHD/f8c0bdc9/20251104/cmp_i1762245638302_6576_0_0.jpg","https://xcimg.szwego.com/imgHD/f8c0bdc9/20251104/cmp_i1762245636547_3126_0_1.jpg","https://xcimg.szwego.com/imgHD/f8c0bdc9/20251104/cmp_i1762245636404_2644_0_2.jpg","https://xcimg.szwego.com/imgHD/f8c0bdc9/20251104/cmp_i1762245636526_154_0_3.jpg","https://xcimg.szwego.com/imgHD/f8c0bdc9/20251104/cmp_i1762245636535_7706_0_4.jpg","https://xcimg.szwego.com/imgHD/f8c0bdc9/20251104/cmp_i1762245636415_1140_0_6.jpg","https://xcimg.szwego.com/imgHD/f8c0bdc9/20251104/cmp_i1762245638287_6109_0_5.jpg","https://xcimg.szwego.com/imgHD/f8c0bdc9/20251104/cmp_i1762245638304_7414_0_7.jpg"],"created_at":"2026-06-29T10:48:59.049Z"},{"id":"item-6e37d6e0f3b7","sku":"_dlzlzYxJDlxKgG7fs1R5cC_J_Mnm47V5B6yGWJQ","name_en":"Detail photo","name_cn":"Detail photo","specs":{"source":"wsxcme","sourceId":"_dlzlzYxJDlxKgG7fs1R5cC_J_Mnm47V5B6yGWJQ","sourceTagId":47002761,"sourceTagName":"Saint Laurent/women's bag","rawTitle":"Detail photo"},"price":null,"currency":"CNY","moq":1,"category":"ysl-women-bags","status":"active","alibaba_url":null,"images":["https://xcimg.szwego.com/imgHD/f8c0bdc9/20260129/cmp_i1769675542417_6322_0_0.jpg","https://xcimg.szwego.com/imgHD/f8c0bdc9/20260129/cmp_i1769675536864_5285_0_1.jpg","https://xcimg.szwego.com/imgHD/f8c0bdc9/20260129/cmp_i1769675542633_4657_0_2.jpg","https://xcimg.szwego.com/imgHD/f8c0bdc9/20260129/cmp_i1769675550721_5959_0_3.jpg","https://xcimg.szwego.com/imgHD/f8c0bdc9/20260129/cmp_i1769675542520_145_0_4.jpg","https://xcimg.szwego.com/imgHD/f8c0bdc9/20260129/cmp_i1769675542454_1687_0_5.jpg","https://xcimg.szwego.com/imgHD/f8c0bdc9/20260129/cmp_i1769675550354_7327_0_6.jpg","https://xcimg.szwego.com/imgHD/f8c0bdc9/20260129/cmp_i1769675548564_3656_0_7.jpg","https://xcimg.szwego.com/imgHD/f8c0bdc9/20260129/cmp_i1769675535471_5548_0_8.jpg"],"created_at":"2026-06-29T10:48:58.769Z"},{"id":"item-6a3bf9d9fe33","sku":"_duIuIuZfx0KzRqf7SOZC3HSHBWQgwZmylBUZ2gg","name_en":"Detail photo","name_cn":"Detail photo","specs":{"source":"wsxcme","sourceId":"_duIuIuZfx0KzRqf7SOZC3HSHBWQgwZmylBUZ2gg","sourceTagId":47002761,"sourceTagName":"Saint Laurent/women's bag","rawTitle":"Detail photo"},"price":null,"currency":"CNY","moq":1,"category":"ysl-women-bags","status":"active","alibaba_url":null,"images":["https://xcimg.szwego.com/imgHD/f8c0bdc9/20251120/cmp_i1763629496604_2759_0_0.jpg","https://xcimg.szwego.com/imgHD/f8c0bdc9/20251120/cmp_i1763629499054_4616_0_1.jpg","https://xcimg.szwego.com/imgHD/f8c0bdc9/20251120/cmp_i1763629495646_1564_0_2.jpg","https://xcimg.szwego.com/imgHD/f8c0bdc9/20251120/cmp_i1763629495537_7929_0_3.jpg","https://xcimg.szwego.com/imgHD/f8c0bdc9/20251120/cmp_i1763629495415_6929_0_4.jpg","https://xcimg.szwego.com/imgHD/f8c0bdc9/20251120/cmp_i1763629498856_7209_0_5.jpg","https://xcimg.szwego.com/imgHD/f8c0bdc9/20251120/cmp_i1763629498894_362_0_6.jpg","https://xcimg.szwego.com/imgHD/f8c0bdc9/20251120/cmp_i1763629499176_1826_0_7.jpg","https://xcimg.szwego.com/imgHD/f8c0bdc9/20251120/cmp_i1763629495523_5317_0_8.jpg"],"created_at":"2026-06-29T10:48:58.589Z"},{"id":"item-62ded42bb503","sku":"_dhThTWvWbF_aGB-gySxoiAgA3eZsvhRNlVmaqVA","name_en":"Detail photo","name_cn":"Detail photo","specs":{"source":"wsxcme","sourceId":"_dhThTWvWbF_aGB-gySxoiAgA3eZsvhRNlVmaqVA","sourceTagId":47002756,"sourceTagName":"/women's bag","rawTitle":"Detail photo"},"price":null,"currency":"CNY","moq":1,"category":"bvlgari-women-bags","status":"active","alibaba_url":null,"images":["https://xcimg.szwego.com/20230219/i1676789274_6332_0.jpg","https://xcimg.szwego.com/20230219/i1676789274_4185_1.jpg","https://xcimg.szwego.com/20230219/i1676789274_7979_2.jpg","https://xcimg.szwego.com/20230219/i1676789274_8748_3.jpg","https://xcimg.szwego.com/20230219/i1676789274_4996_4.jpg","https://xcimg.szwego.com/20230219/i1676789274_2818_5.jpg"],"created_at":"2024-10-07T10:58:53.568Z"},{"id":"item-57d26ae67749","sku":"_dUXUXJqNendsJ3SHWEOd4NkUt6ryXxgzjfAil5w","name_en":"Detail photo","name_cn":"Detail photo","specs":{"source":"wsxcme","sourceId":"_dUXUXJqNendsJ3SHWEOd4NkUt6ryXxgzjfAil5w","sourceTagId":47002756,"sourceTagName":"/women's bag","rawTitle":"Detail photo"},"price":null,"currency":"CNY","moq":1,"category":"bvlgari-women-bags","status":"active","alibaba_url":null,"images":["https://xcimg.szwego.com/20230219/i1676790980_3385_0.jpg","https://xcimg.szwego.com/20230219/i1676790980_7728_1.jpg","https://xcimg.szwego.com/20230219/i1676790980_4302_2.jpg","https://xcimg.szwego.com/20230219/i1676790980_9415_3.jpg","https://xcimg.szwego.com/20230219/i1676790980_236_4.jpg","https://xcimg.szwego.com/20230219/i1676790980_5613_5.jpg"],"created_at":"2024-10-07T10:58:53.581Z"},{"id":"item-55b5439d2c03","sku":"_dwSwSWuZn3TXvJIoa_sF1CAcNHdhYRDZ8KAuhqw","name_en":"Detail photo","name_cn":"Detail photo","specs":{"source":"wsxcme","sourceId":"_dwSwSWuZn3TXvJIoa_sF1CAcNHdhYRDZ8KAuhqw","sourceTagId":47002761,"sourceTagName":"Saint Laurent/women's bag","rawTitle":"Detail photo"},"price":null,"currency":"CNY","moq":1,"category":"ysl-women-bags","status":"active","alibaba_url":null,"images":["https://xcimg.szwego.com/imgHD/f8c0bdc9/20260420/cmp_i1776670672548_900_0_0.jpg","https://xcimg.szwego.com/imgHD/f8c0bdc9/20260420/cmp_i1776670678781_5246_0_1.jpg","https://xcimg.szwego.com/imgHD/f8c0bdc9/20260420/cmp_i1776670674078_2768_0_2.jpg","https://xcimg.szwego.com/imgHD/f8c0bdc9/20260420/cmp_i1776670673905_6109_0_3.jpg","https://xcimg.szwego.com/imgHD/f8c0bdc9/20260420/cmp_i1776670672857_2642_0_4.jpg","https://xcimg.szwego.com/imgHD/f8c0bdc9/20260420/cmp_i1776670674130_8844_0_5.jpg"],"created_at":"2026-06-29T10:48:58.829Z"},{"id":"item-4d1e8ffae8dc","sku":"_dnpnpljaHJpvOJZ6BFB2Pihn7SRkJqMh_EvfJDg","name_en":"Detail photo","name_cn":"Detail photo","specs":{"source":"wsxcme","sourceId":"_dnpnpljaHJpvOJZ6BFB2Pihn7SRkJqMh_EvfJDg","sourceTagId":47002761,"sourceTagName":"Saint Laurent/women's bag","rawTitle":"Detail photo"},"price":null,"currency":"CNY","moq":1,"category":"ysl-women-bags","status":"active","alibaba_url":null,"images":["https://xcimg.szwego.com/imgHD/f8c0bdc9/20260129/cmp_i1769673606576_3976_0_8.jpg","https://xcimg.szwego.com/imgHD/f8c0bdc9/20260129/cmp_i1769673606868_6758_0_0.jpg","https://xcimg.szwego.com/imgHD/f8c0bdc9/20260129/cmp_i1769673606798_6090_0_1.jpg","https://xcimg.szwego.com/imgHD/f8c0bdc9/20260129/cmp_i1769673664045_8790_0_2.jpg","https://xcimg.szwego.com/imgHD/f8c0bdc9/20260129/cmp_i1769673663944_5561_0_3.jpg","https://xcimg.szwego.com/imgHD/f8c0bdc9/20260129/cmp_i1769673606798_9754_0_4.jpg","https://xcimg.szwego.com/imgHD/f8c0bdc9/20260129/cmp_i1769673663684_8777_0_5.jpg","https://xcimg.szwego.com/imgHD/f8c0bdc9/20260129/cmp_i1769673604769_3137_0_6.jpg","https://xcimg.szwego.com/imgHD/f8c0bdc9/20260129/cmp_i1769673663833_9207_0_7.jpg"],"created_at":"2026-06-29T10:48:58.739Z"},{"id":"item-4a455ffff64d","sku":"_djcjcCK3Oc5BynXyfZWdR5YP1OxNr8hCe52gXbA","name_en":"Detail photo","name_cn":"Detail photo","specs":{"source":"wsxcme","sourceId":"_djcjcCK3Oc5BynXyfZWdR5YP1OxNr8hCe52gXbA","sourceTagId":47002761,"sourceTagName":"Saint Laurent/women's bag","rawTitle":"Detail photo"},"price":null,"currency":"CNY","moq":1,"category":"ysl-women-bags","status":"active","alibaba_url":null,"images":["https://xcimg.szwego.com/imgHD/f8c0bdc9/20260129/cmp_i1769672454784_1045_0_0.jpg","https://xcimg.szwego.com/imgHD/f8c0bdc9/20260129/cmp_i1769672462477_6299_0_1.jpg","https://xcimg.szwego.com/imgHD/f8c0bdc9/20260129/cmp_i1769672456176_5118_0_2.jpg","https://xcimg.szwego.com/imgHD/f8c0bdc9/20260129/cmp_i1769672454608_1927_0_3.jpg","https://xcimg.szwego.com/imgHD/f8c0bdc9/20260129/cmp_i1769672462555_4992_0_4.jpg","https://xcimg.szwego.com/imgHD/f8c0bdc9/20260129/cmp_i1769672461080_7985_0_5.jpg","https://xcimg.szwego.com/imgHD/f8c0bdc9/20260129/cmp_i1769672462578_8235_0_6.jpg","https://xcimg.szwego.com/imgHD/f8c0bdc9/20260129/cmp_i1769672454762_7622_0_7.jpg"],"created_at":"2026-05-20T04:01:38.773Z"},{"id":"item-450441a78a2f","sku":"_dxYxY0zV47HLnYPjf9xrhVZsonzV5yEN3zwplEg","name_en":"Detail photo","name_cn":"Detail photo","specs":{"source":"wsxcme","sourceId":"_dxYxY0zV47HLnYPjf9xrhVZsonzV5yEN3zwplEg","sourceTagId":47002761,"sourceTagName":"Saint Laurent/women's bag","rawTitle":"Detail photo"},"price":null,"currency":"CNY","moq":1,"category":"ysl-women-bags","status":"active","alibaba_url":null,"images":["https://xcimg.szwego.com/imgHD/f8c0bdc9/20251120/cmp_i1763630156462_6995_0_0.jpg","https://xcimg.szwego.com/imgHD/f8c0bdc9/20251120/cmp_i1763630152592_5801_0_1.jpg","https://xcimg.szwego.com/imgHD/f8c0bdc9/20251120/cmp_i1763630153417_121_0_2.jpg","https://xcimg.szwego.com/imgHD/f8c0bdc9/20251120/cmp_i1763630153312_8074_0_3.jpg","https://xcimg.szwego.com/imgHD/f8c0bdc9/20251120/cmp_i1763630153382_7561_0_4.jpg","https://xcimg.szwego.com/imgHD/f8c0bdc9/20251120/cmp_i1763630155431_2331_0_5.jpg","https://xcimg.szwego.com/imgHD/f8c0bdc9/20251120/cmp_i1763630154266_3691_0_6.jpg","https://xcimg.szwego.com/imgHD/f8c0bdc9/20251120/cmp_i1763630155541_5610_0_7.jpg"],"created_at":"2026-06-29T10:48:58.649Z"},{"id":"item-427e65cc0d89","sku":"_dM_M_nNF2GzTJlKqS-W0iyCxXKLQ0GiOTsvXWFA","name_en":"Detail photo","name_cn":"Detail photo","specs":{"source":"wsxcme","sourceId":"_dM_M_nNF2GzTJlKqS-W0iyCxXKLQ0GiOTsvXWFA","sourceTagId":47002761,"sourceTagName":"Saint Laurent/women's bag","rawTitle":"Detail photo"},"price":null,"currency":"CNY","moq":1,"category":"ysl-women-bags","status":"active","alibaba_url":null,"images":["https://xcimg.szwego.com/imgHD/f8c0bdc9/20251209/cmp_i1765275079397_3655_0_0.jpg","https://xcimg.szwego.com/imgHD/f8c0bdc9/20251209/cmp_i1765275079400_9489_0_1.jpg","https://xcimg.szwego.com/imgHD/f8c0bdc9/20251209/cmp_i1765275078081_9358_0_2.jpg","https://xcimg.szwego.com/imgHD/f8c0bdc9/20251209/cmp_i1765275077989_2548_0_3.jpg","https://xcimg.szwego.com/imgHD/f8c0bdc9/20251209/cmp_i1765275079380_29_0_4.jpg","https://xcimg.szwego.com/imgHD/f8c0bdc9/20251209/cmp_i1765275079741_3686_0_5.jpg","https://xcimg.szwego.com/imgHD/f8c0bdc9/20251209/cmp_i1765275077402_759_0_6.jpg","https://xcimg.szwego.com/imgHD/f8c0bdc9/20251209/cmp_i1765275078073_7353_0_7.jpg","https://xcimg.szwego.com/imgHD/f8c0bdc9/20251209/cmp_i1765275077115_313_0_8.jpg"],"created_at":"2026-06-29T10:48:58.539Z"},{"id":"item-412a8f15c3cf","sku":"_dpZpZJEXizDbJSbb3j_CxGFTxmLuOaeBTziyyOw","name_en":"Detail photo","name_cn":"Detail photo","specs":{"source":"wsxcme","sourceId":"_dpZpZJEXizDbJSbb3j_CxGFTxmLuOaeBTziyyOw","sourceTagId":47002761,"sourceTagName":"Saint Laurent/women's bag","rawTitle":"Detail photo"},"price":null,"currency":"CNY","moq":1,"category":"ysl-women-bags","status":"active","alibaba_url":null,"images":["https://xcimg.szwego.com/imgHD/f8c0bdc9/20251229/cmp_i1767000149346_2031_0_0.jpg","https://xcimg.szwego.com/imgHD/f8c0bdc9/20251229/cmp_i1767000147878_4577_0_1.jpg","https://xcimg.szwego.com/imgHD/f8c0bdc9/20251229/cmp_i1767000149109_8849_0_2.jpg","https://xcimg.szwego.com/imgHD/f8c0bdc9/20251229/cmp_i1767000149445_6426_0_3.jpg","https://xcimg.szwego.com/imgHD/f8c0bdc9/20251229/cmp_i1767000148011_5873_0_4.jpg"],"created_at":"2026-06-29T10:54:45.496Z"},{"id":"item-3ef354652235","sku":"_dkFkFBFw2yRrVN36HRL8ktYPovLunPyYHNSoEpA","name_en":"Detail photo","name_cn":"Detail photo","specs":{"source":"wsxcme","sourceId":"_dkFkFBFw2yRrVN36HRL8ktYPovLunPyYHNSoEpA","sourceTagId":47002761,"sourceTagName":"Saint Laurent/women's bag","rawTitle":"Detail photo"},"price":null,"currency":"CNY","moq":1,"category":"ysl-women-bags","status":"active","alibaba_url":null,"images":["https://xcimg.szwego.com/imgHD/f8c0bdc9/20251209/cmp_i1765273985161_6860_0_0.jpg","https://xcimg.szwego.com/imgHD/f8c0bdc9/20251209/cmp_i1765273985325_800_0_1.jpg","https://xcimg.szwego.com/imgHD/f8c0bdc9/20251209/cmp_i1765273985106_4792_0_2.jpg","https://xcimg.szwego.com/imgHD/f8c0bdc9/20251209/cmp_i1765273985298_5644_0_3.jpg","https://xcimg.szwego.com/imgHD/f8c0bdc9/20251209/cmp_i1765273988595_8565_0_4.jpg","https://xcimg.szwego.com/imgHD/f8c0bdc9/20251209/cmp_i1765273988486_9440_0_5.jpg","https://xcimg.szwego.com/imgHD/f8c0bdc9/20251209/cmp_i1765273986513_6739_0_6.jpg"],"created_at":"2026-06-29T10:54:45.536Z"},{"id":"item-3eb041bdbf94","sku":"_dp2p2xiErpVXkRNYHi_08-hicJxsi3aP6H3T5ww","name_en":"Detail photo","name_cn":"Detail photo","specs":{"source":"wsxcme","sourceId":"_dp2p2xiErpVXkRNYHi_08-hicJxsi3aP6H3T5ww","sourceTagId":47002761,"sourceTagName":"Saint Laurent/women's bag","rawTitle":"Detail photo"},"price":null,"currency":"CNY","moq":1,"category":"ysl-women-bags","status":"active","alibaba_url":null,"images":["https://xcimg.szwego.com/imgHD/f8c0bdc9/20251120/cmp_i1763629850901_477_0_0.jpg","https://xcimg.szwego.com/imgHD/f8c0bdc9/20251120/cmp_i1763629853959_556_0_1.jpg","https://xcimg.szwego.com/imgHD/f8c0bdc9/20251120/cmp_i1763629853926_5758_0_2.jpg","https://xcimg.szwego.com/imgHD/f8c0bdc9/20251120/cmp_i1763629852341_518_0_3.jpg","https://xcimg.szwego.com/imgHD/f8c0bdc9/20251120/cmp_i1763629852189_509_0_4.jpg","https://xcimg.szwego.com/imgHD/f8c0bdc9/20251120/cmp_i1763629853942_9030_0_5.jpg","https://xcimg.szwego.com/imgHD/f8c0bdc9/20251120/cmp_i1763629852316_7067_0_6.jpg","https://xcimg.szwego.com/imgHD/f8c0bdc9/20251120/cmp_i1763629852349_1595_0_7.jpg"],"created_at":"2026-06-29T10:48:58.619Z"},{"id":"item-3cf2a962b29b","sku":"_dEYEYvtxj5B0ZxSrXntuyEixsV84ULBxjvqtL_g","name_en":"Detail photo","name_cn":"Detail photo","specs":{"source":"wsxcme","sourceId":"_dEYEYvtxj5B0ZxSrXntuyEixsV84ULBxjvqtL_g","sourceTagId":47002761,"sourceTagName":"Saint Laurent/women's bag","rawTitle":"Detail photo"},"price":null,"currency":"CNY","moq":1,"category":"ysl-women-bags","status":"active","alibaba_url":null,"images":["https://xcimg.szwego.com/imgHD/f8c0bdc9/20251229/cmp_i1766999217288_1462_0_0.jpg","https://xcimg.szwego.com/imgHD/f8c0bdc9/20251229/cmp_i1766999222250_4507_0_1.jpg","https://xcimg.szwego.com/imgHD/f8c0bdc9/20251229/cmp_i1766999221086_8350_0_2.jpg","https://xcimg.szwego.com/imgHD/f8c0bdc9/20251229/cmp_i1766999219773_5703_0_3.jpg","https://xcimg.szwego.com/imgHD/f8c0bdc9/20251229/cmp_i1766999219532_7856_0_4.jpg","https://xcimg.szwego.com/imgHD/f8c0bdc9/20251229/cmp_i1766999219525_3735_0_5.jpg","https://xcimg.szwego.com/imgHD/f8c0bdc9/20251229/cmp_i1766999219884_7075_0_6.jpg"],"created_at":"2026-06-29T10:54:45.436Z"},{"id":"item-30c703f27517","sku":"_dOoOo4bkk8Mw18Lmf7cA0d0YxIozofROmC0UUCA","name_en":"Detail photo","name_cn":"Detail photo","specs":{"source":"wsxcme","sourceId":"_dOoOo4bkk8Mw18Lmf7cA0d0YxIozofROmC0UUCA","sourceTagId":47002761,"sourceTagName":"Saint Laurent/women's bag","rawTitle":"Detail photo"},"price":null,"currency":"CNY","moq":1,"category":"ysl-women-bags","status":"active","alibaba_url":null,"images":["https://xcimg.szwego.com/imgHD/f8c0bdc9/20250328/cmp_i1743147943911_6120_0_0.jpg","https://xcimg.szwego.com/imgHD/f8c0bdc9/20250328/cmp_i1743147943879_5782_0_1.jpg","https://xcimg.szwego.com/imgHD/f8c0bdc9/20250328/cmp_i1743147945542_249_0_2.jpg","https://xcimg.szwego.com/imgHD/f8c0bdc9/20250328/cmp_i1743147943940_5705_0_3.jpg","https://xcimg.szwego.com/imgHD/f8c0bdc9/20250328/cmp_i1743147943263_6312_0_4.jpg","https://xcimg.szwego.com/imgHD/f8c0bdc9/20250328/cmp_i1743147945063_7858_0_5.jpg","https://xcimg.szwego.com/imgHD/f8c0bdc9/20250328/cmp_i1743147942758_8229_0_6.jpg"],"created_at":"2026-05-20T04:01:39.043Z"},{"id":"item-2100f6c7295c","sku":"_d_1_1neB5DETeki98Yj893MbLcoKdwGJDuvA8nQ","name_en":"Detail photo","name_cn":"Detail photo","specs":{"source":"wsxcme","sourceId":"_d_1_1neB5DETeki98Yj893MbLcoKdwGJDuvA8nQ","sourceTagId":47002761,"sourceTagName":"Saint Laurent/women's bag","rawTitle":"Detail photo"},"price":null,"currency":"CNY","moq":1,"category":"ysl-women-bags","status":"active","alibaba_url":null,"images":["https://xcimg.szwego.com/imgHD/f8c0bdc9/20260420/cmp_i1776669330101_9444_0_8.jpg","https://xcimg.szwego.com/imgHD/f8c0bdc9/20260420/cmp_i1776669326111_7776_0_0.jpg","https://xcimg.szwego.com/imgHD/f8c0bdc9/20260420/cmp_i1776669328291_3722_0_1.jpg","https://xcimg.szwego.com/imgHD/f8c0bdc9/20260420/cmp_i1776669330076_6888_0_2.jpg","https://xcimg.szwego.com/imgHD/f8c0bdc9/20260420/cmp_i1776669328306_3976_0_3.jpg","https://xcimg.szwego.com/imgHD/f8c0bdc9/20260420/cmp_i1776669328104_6185_0_4.jpg","https://xcimg.szwego.com/imgHD/f8c0bdc9/20260420/cmp_i1776669330980_4958_0_5.jpg","https://xcimg.szwego.com/imgHD/f8c0bdc9/20260420/cmp_i1776669330033_7258_0_6.jpg","https://xcimg.szwego.com/imgHD/f8c0bdc9/20260420/cmp_i1776669326131_4780_0_7.jpg"],"created_at":"2026-06-29T10:48:58.909Z"}],"page":215,"pageSize":24,"total":9921,"totalPages":414}
