{"items":[{"id":"item-22424b133317","sku":"_dfrfrcDqU30NGUEGy18PylsoemEbC5v5Dr21Zng","name_en":"Lady 戴妃 三格磨砂皮","name_cn":"Lady 戴妃 三格磨砂皮","specs":{"source":"wsxcme","sourceId":"_dfrfrcDqU30NGUEGy18PylsoemEbC5v5Dr21Zng","sourceTagId":47002747,"sourceTagName":"迪奥/女包","rawTitle":"Lady 戴妃 三格磨砂皮"},"price":null,"currency":"CNY","moq":1,"category":"dior-women-bags","status":"active","alibaba_url":null,"images":["https://xcimg.szwego.com/20201229/i1609174261_6418_0.jpg"],"created_at":"2024-11-11T09:13:17.016Z"},{"id":"item-24d10ab17f3c","sku":"_dHOHOFaxWhmxtLgpq1XurPId8rVft8zPaJqf1eA","name_en":"Lady 戴妃三格","name_cn":"Lady 戴妃三格","specs":{"source":"wsxcme","sourceId":"_dHOHOFaxWhmxtLgpq1XurPId8rVft8zPaJqf1eA","sourceTagId":47002747,"sourceTagName":"迪奥/女包","rawTitle":"Lady 戴妃三格"},"price":null,"currency":"CNY","moq":1,"category":"dior-women-bags","status":"active","alibaba_url":null,"images":["https://xcimg.szwego.com/img/2b46f204/20240524/i1716540700_8155_0.jpg"],"created_at":"2024-11-11T09:13:16.978Z"},{"id":"item-572d920ef459","sku":"_dn9n9_X3jKnsnVHoiUL661oFMcqtb848dvsc_XA","name_en":"Lady 戴妃三格黑磨砂皮","name_cn":"Lady 戴妃三格黑磨砂皮","specs":{"source":"wsxcme","sourceId":"_dn9n9_X3jKnsnVHoiUL661oFMcqtb848dvsc_XA","sourceTagId":47002747,"sourceTagName":"迪奥/女包","rawTitle":"Lady 戴妃三格黑磨砂皮"},"price":null,"currency":"CNY","moq":1,"category":"dior-women-bags","status":"active","alibaba_url":null,"images":["https://xcimg.szwego.com/20210106/i1609873938_5786_0.jpg"],"created_at":"2024-11-11T09:13:17.014Z"},{"id":"item-b477a0367435","sku":"_dsasatHzUr7OmRE5qkUeTriht66-Mw9maPToyVA","name_en":"Lady 戴妃四格","name_cn":"Lady 戴妃四格","specs":{"source":"wsxcme","sourceId":"_dsasatHzUr7OmRE5qkUeTriht66-Mw9maPToyVA","sourceTagId":47002747,"sourceTagName":"迪奥/女包","rawTitle":"Lady 戴妃四格"},"price":null,"currency":"CNY","moq":1,"category":"dior-women-bags","status":"active","alibaba_url":null,"images":["https://xcimg.szwego.com/img/2b46f204/20240524/i1716540455_820_0.jpg"],"created_at":"2024-11-11T09:13:16.976Z"},{"id":"item-5a5f2eeaf4a9","sku":"_dKQKQ6AX1Gf476qglv9tOtJtqgGhti3RtbdRr9w","name_en":"Lady 戴妃四格黑磨砂皮","name_cn":"Lady 戴妃四格黑磨砂皮","specs":{"source":"wsxcme","sourceId":"_dKQKQ6AX1Gf476qglv9tOtJtqgGhti3RtbdRr9w","sourceTagId":47002747,"sourceTagName":"迪奥/女包","rawTitle":"Lady 戴妃四格黑磨砂皮"},"price":null,"currency":"CNY","moq":1,"category":"dior-women-bags","status":"active","alibaba_url":null,"images":["https://xcimg.szwego.com/20201207/i1607354803_2637_0.jpg"],"created_at":"2024-11-11T09:13:17.013Z"},{"id":"item-89d238559747","sku":"_d48487qUeByZsYWo5LGI7iNMpcTUipNp_8umplw","name_en":"Lady 戴妃四格灰磨砂皮","name_cn":"Lady 戴妃四格灰磨砂皮","specs":{"source":"wsxcme","sourceId":"_d48487qUeByZsYWo5LGI7iNMpcTUipNp_8umplw","sourceTagId":47002747,"sourceTagName":"迪奥/女包","rawTitle":"Lady 戴妃四格灰磨砂皮"},"price":null,"currency":"CNY","moq":1,"category":"dior-women-bags","status":"active","alibaba_url":null,"images":["https://xcimg.szwego.com/20201207/i1607354347_8363_0.jpg"],"created_at":"2024-11-11T09:13:17.018Z"},{"id":"item-156568d5c571","sku":"_dptptVukhU2b2Od2Rbf422SWeHpgPoOn1gjyDVg","name_en":"Lady 戴妃四格磨砂皮","name_cn":"Lady 戴妃四格磨砂皮","specs":{"source":"wsxcme","sourceId":"_dptptVukhU2b2Od2Rbf422SWeHpgPoOn1gjyDVg","sourceTagId":47002747,"sourceTagName":"迪奥/女包","rawTitle":"Lady 戴妃四格磨砂皮"},"price":null,"currency":"CNY","moq":1,"category":"dior-women-bags","status":"active","alibaba_url":null,"images":["https://xcimg.szwego.com/20201207/i1607354443_6859_0.jpg"],"created_at":"2024-11-11T09:13:17.015Z"},{"id":"item-e40709849c7e","sku":"_dmwmwKEfp2oR9l2Y-rrefkVqMzwfrvXRszaUJdw","name_en":"Lady 戴妃五格","name_cn":"Lady 戴妃五格","specs":{"source":"wsxcme","sourceId":"_dmwmwKEfp2oR9l2Y-rrefkVqMzwfrvXRszaUJdw","sourceTagId":47002747,"sourceTagName":"迪奥/女包","rawTitle":"Lady 戴妃五格"},"price":null,"currency":"CNY","moq":1,"category":"dior-women-bags","status":"active","alibaba_url":null,"images":["https://xcimg.szwego.com/img/2b46f204/20240708/i1720420579_9206_0.jpg"],"created_at":"2024-11-11T09:13:17.010Z"},{"id":"item-7afecb0d7722","sku":"_dOkOk6C4Gf3wolqh80n5z0p356FYySVFnxqSLjg","name_en":"Lady 戴妃五格磨砂皮","name_cn":"Lady 戴妃五格磨砂皮","specs":{"source":"wsxcme","sourceId":"_dOkOk6C4Gf3wolqh80n5z0p356FYySVFnxqSLjg","sourceTagId":47002747,"sourceTagName":"迪奥/女包","rawTitle":"Lady 戴妃五格磨砂皮"},"price":null,"currency":"CNY","moq":1,"category":"dior-women-bags","status":"active","alibaba_url":null,"images":["https://xcimg.szwego.com/20210106/i1609874084_2803_0.jpg"],"created_at":"2024-11-11T09:13:17.017Z"},{"id":"item-6a659860c2b5","sku":"_daUaUwlJlzwGyjj62Rs1GZpa8m2ey40wVdMs_ng","name_en":"Lady 横版戴妃牛仔布","name_cn":"Lady 横版戴妃牛仔布","specs":{"source":"wsxcme","sourceId":"_daUaUwlJlzwGyjj62Rs1GZpa8m2ey40wVdMs_ng","sourceTagId":47002747,"sourceTagName":"迪奥/女包","rawTitle":"Lady 横版戴妃牛仔布"},"price":null,"currency":"CNY","moq":1,"category":"dior-women-bags","status":"active","alibaba_url":null,"images":["https://xcimg.szwego.com/20220813/i1660372094_3462_0.jpg"],"created_at":"2024-11-11T09:13:16.997Z"},{"id":"item-2b052d7d0717","sku":"_dQ3Q38IB3YVepyIG9NvdxOYJDNa3Zxa86UaPq8Q","name_en":"Lady 横版戴妃牛仔布小号","name_cn":"Lady 横版戴妃牛仔布小号\n22厘米","specs":{"source":"wsxcme","sourceId":"_dQ3Q38IB3YVepyIG9NvdxOYJDNa3Zxa86UaPq8Q","sourceTagId":47002747,"sourceTagName":"迪奥/女包","rawTitle":"Lady 横版戴妃牛仔布小号\n22厘米"},"price":null,"currency":"CNY","moq":1,"category":"dior-women-bags","status":"active","alibaba_url":null,"images":["https://xcimg.szwego.com/20230511/i1683786111_8911_0.jpg"],"created_at":"2024-11-11T09:13:16.995Z"},{"id":"item-d4ff34741d79","sku":"_drbrbREESI6s0rr94R3oeJzwNNdz6JjCBlme5Tg","name_en":"Lady 横版戴妃牛仔小号","name_cn":"Lady 横版戴妃牛仔小号\n22厘米","specs":{"source":"wsxcme","sourceId":"_drbrbREESI6s0rr94R3oeJzwNNdz6JjCBlme5Tg","sourceTagId":47002747,"sourceTagName":"迪奥/女包","rawTitle":"Lady 横版戴妃牛仔小号\n22厘米"},"price":null,"currency":"CNY","moq":1,"category":"dior-women-bags","status":"active","alibaba_url":null,"images":["https://xcimg.szwego.com/20230511/i1683785992_7949_0.jpg"],"created_at":"2024-11-11T09:13:16.996Z"},{"id":"item-9deac7712c46","sku":"_dGXGXfLjpdSGKcrkzo4ExszoE9JJqBtlMCZvCYg","name_en":"Lady 横版戴妃羊皮复古粉","name_cn":"Lady 横版戴妃羊皮复古粉","specs":{"source":"wsxcme","sourceId":"_dGXGXfLjpdSGKcrkzo4ExszoE9JJqBtlMCZvCYg","sourceTagId":47002747,"sourceTagName":"迪奥/女包","rawTitle":"Lady 横版戴妃羊皮复古粉"},"price":null,"currency":"CNY","moq":1,"category":"dior-women-bags","status":"active","alibaba_url":null,"images":["https://xcimg.szwego.com/20220818/i1660799968_1699_0.jpg"],"created_at":"2024-11-11T09:13:16.931Z"},{"id":"item-74b9f694fab4","sku":"_dMAMAt9KuHy5_xq_lS62Pv9dKlBAQgm2XYzdqeg","name_en":"Lady 横版戴妃羊皮奶茶色","name_cn":"Lady 横版戴妃羊皮奶茶色","specs":{"source":"wsxcme","sourceId":"_dMAMAt9KuHy5_xq_lS62Pv9dKlBAQgm2XYzdqeg","sourceTagId":47002747,"sourceTagName":"迪奥/女包","rawTitle":"Lady 横版戴妃羊皮奶茶色"},"price":null,"currency":"CNY","moq":1,"category":"dior-women-bags","status":"active","alibaba_url":null,"images":["https://xcimg.szwego.com/20220616/i1655343309_9875_0.jpg"],"created_at":"2024-11-11T09:13:16.932Z"},{"id":"item-94766ecabe56","sku":"_dwqwqZkwasg0dIsfjlObkMKfT9sc2g7laB7avqQ","name_en":"Lady 最新戴妃三格琳琅扣","name_cn":"Lady 最新戴妃三格琳琅扣","specs":{"source":"wsxcme","sourceId":"_dwqwqZkwasg0dIsfjlObkMKfT9sc2g7laB7avqQ","sourceTagId":47002747,"sourceTagName":"迪奥/女包","rawTitle":"Lady 最新戴妃三格琳琅扣"},"price":null,"currency":"CNY","moq":1,"category":"dior-women-bags","status":"active","alibaba_url":null,"images":["https://xcimg.szwego.com/img/2b46f204/20240525/i1716625866_1408_0.jpg"],"created_at":"2024-11-11T09:13:17.008Z"},{"id":"item-699fc1ac0445","sku":"_d9h9hvb3ITQHJy3yhlhoVEMBAgioPEXII5NN9tA","name_en":"Lady 最新戴妃四格琳琅扣","name_cn":"Lady 最新戴妃四格琳琅扣","specs":{"source":"wsxcme","sourceId":"_d9h9hvb3ITQHJy3yhlhoVEMBAgioPEXII5NN9tA","sourceTagId":47002747,"sourceTagName":"迪奥/女包","rawTitle":"Lady 最新戴妃四格琳琅扣"},"price":null,"currency":"CNY","moq":1,"category":"dior-women-bags","status":"active","alibaba_url":null,"images":["https://xcimg.szwego.com/img/2b46f204/20240525/i1716625814_4202_0.jpg"],"created_at":"2024-11-11T09:13:17.006Z"},{"id":"item-c0b4ff264a6e","sku":"_dUxUx55LAITre83fAIX3wKs2T7jQNjVXAPZ3tLA","name_en":"lady Dior 迷你戴妃包 酒红🍒金扣非常百搭,出席晚宴会让你大放光彩🌈一款值得入手的三格戴妃包!!️","name_cn":"lady Dior 迷你戴妃包 酒红🍒金扣非常百搭,出席晚宴会让你大放光彩🌈一款值得入手的三格戴妃包!!️","specs":{"source":"wsxcme","sourceId":"_dUxUx55LAITre83fAIX3wKs2T7jQNjVXAPZ3tLA","sourceTagId":47002747,"sourceTagName":"迪奥/女包","rawTitle":"lady Dior 迷你戴妃包 酒红🍒金扣非常百搭,出席晚宴会让你大放光彩🌈一款值得入手的三格戴妃包!!️"},"price":null,"currency":"CNY","moq":1,"category":"dior-women-bags","status":"active","alibaba_url":null,"images":["https://xcimg.szwego.com/20201116/i1605467416_1316_0","https://xcimg.szwego.com/20201116/i1605467416_6558_1","https://xcimg.szwego.com/20201116/i1605467416_5852_2","https://xcimg.szwego.com/20201116/i1605467416_6447_3","https://xcimg.szwego.com/20201116/i1605467416_8898_4","https://xcimg.szwego.com/20201116/i1605467417_3918_5","https://xcimg.szwego.com/20201116/i1605467417_3581_6","https://xcimg.szwego.com/20201116/i1605467417_2318_7","https://xcimg.szwego.com/20201116/i1605467417_5616_8"],"created_at":"2024-11-11T09:13:16.955Z"},{"id":"item-c8930057708d","sku":"_dfNfNsD7WSRZ7ihJapT9giDUq6JrZ25NhE0DWeA","name_en":"Lady dior四格羊皮戴妃包","name_cn":"Lady dior四格羊皮戴妃包\n💕牡丹粉最新配色\n💕好浪漫的颜色\n💕真的很治愈","specs":{"source":"wsxcme","sourceId":"_dfNfNsD7WSRZ7ihJapT9giDUq6JrZ25NhE0DWeA","sourceTagId":47002747,"sourceTagName":"迪奥/女包","rawTitle":"Lady dior四格羊皮戴妃包\n💕牡丹粉最新配色\n💕好浪漫的颜色\n💕真的很治愈"},"price":null,"currency":"CNY","moq":1,"category":"dior-women-bags","status":"active","alibaba_url":null,"images":["https://xcimg.szwego.com/20221130/i1669778013_5671_0.jpg","https://xcimg.szwego.com/20221130/i1669778013_685_1.jpg","https://xcimg.szwego.com/20221130/i1669778013_8965_2.jpg","https://xcimg.szwego.com/20221130/i1669778013_9443_3.jpg","https://xcimg.szwego.com/20221130/i1669778013_5560_4.jpg","https://xcimg.szwego.com/20221130/i1669778013_6478_5.jpg"],"created_at":"2024-11-11T09:13:16.951Z"},{"id":"item-eb111fb8f20d","sku":"_dOLOLpcMgIwlMM_IGmU_isaPFjTKd3FetTBUlFg","name_en":"Lady Dior藤格纹哑光小牛皮翻盖式手提包,连同五金链条手提全部是有质感的磨砂配色百搭又大气,Ultra mat饰面金属配饰。 可手提亦可肩背或斜挎","name_cn":"Lady Dior藤格纹哑光小牛皮翻盖式手提包,连同五金链条手提全部是有质感的磨砂配色百搭又大气,Ultra mat饰面金属配饰。 可手提亦可肩背或斜挎  \n尺寸:17cm\n款号:6603","specs":{"source":"wsxcme","sourceId":"_dOLOLpcMgIwlMM_IGmU_isaPFjTKd3FetTBUlFg","sourceTagId":47002747,"sourceTagName":"迪奥/女包","modelNumber":"6603","rawTitle":"Lady Dior藤格纹哑光小牛皮翻盖式手提包,连同五金链条手提全部是有质感的磨砂配色百搭又大气,Ultra mat饰面金属配饰。 可手提亦可肩背或斜挎  \n尺寸:17cm\n款号:6603"},"price":null,"currency":"CNY","moq":1,"category":"dior-women-bags","status":"active","alibaba_url":null,"images":["https://xcimg.szwego.com/20200611/i1591847077_6264_0.jpg","https://xcimg.szwego.com/20200611/i1591847077_7774_1.jpg","https://xcimg.szwego.com/20200611/i1591847077_4957_2.jpg","https://xcimg.szwego.com/20200611/i1591847077_6093_3.jpg","https://xcimg.szwego.com/20200611/i1591847077_4250_4.jpg","https://xcimg.szwego.com/20200611/i1591847077_7155_5.jpg","https://xcimg.szwego.com/20200611/i1591847077_1223_6.jpg","https://xcimg.szwego.com/20200611/i1591847077_4734_7.jpg","https://xcimg.szwego.com/20200611/i1591847077_6586_8.jpg"],"created_at":"2024-05-14T15:59:39.391Z"},{"id":"item-0a5e8a451bc9","sku":"_dfGfGd6s1QGhhYwQvAQd390jDyyp9kMlr7-G2UA","name_en":"Lady Dior藤格纹哑光小牛皮翻盖式手提包,连同五金链条手提全部是有质感的磨砂配色百搭又大气,Ultra mat饰面金属配饰。 可手提亦可肩背或斜挎","name_cn":"Lady Dior藤格纹哑光小牛皮翻盖式手提包,连同五金链条手提全部是有质感的磨砂配色百搭又大气,Ultra mat饰面金属配饰。 可手提亦可肩背或斜挎  \n尺寸:17cm。\n款号:6603","specs":{"source":"wsxcme","sourceId":"_dfGfGd6s1QGhhYwQvAQd390jDyyp9kMlr7-G2UA","sourceTagId":47002747,"sourceTagName":"迪奥/女包","modelNumber":"6603","rawTitle":"Lady Dior藤格纹哑光小牛皮翻盖式手提包,连同五金链条手提全部是有质感的磨砂配色百搭又大气,Ultra mat饰面金属配饰。 可手提亦可肩背或斜挎  \n尺寸:17cm。\n款号:6603"},"price":null,"currency":"CNY","moq":1,"category":"dior-women-bags","status":"active","alibaba_url":null,"images":["https://xcimg.szwego.com/20210110/i1610251326_1314_0.jpg","https://xcimg.szwego.com/20210110/i1610251326_5538_1.jpg","https://xcimg.szwego.com/20210110/i1610251326_1937_2.jpg","https://xcimg.szwego.com/20210110/i1610251326_7916_3.jpg","https://xcimg.szwego.com/20210110/i1610251326_7130_4.jpg","https://xcimg.szwego.com/20210110/i1610251326_976_5.jpg","https://xcimg.szwego.com/20210110/i1610251326_3864_6.jpg","https://xcimg.szwego.com/20210110/i1610251326_2184_7.jpg","https://xcimg.szwego.com/20210110/i1610251326_6166_8.jpg"],"created_at":"2024-05-14T15:59:39.394Z"},{"id":"item-f2f4f85281b4","sku":"_dBZBZjtQjtC4QcxAWom37xjW4WNN_bw23I4WBcQ","name_en":"Lady最新款五格蝴蝶结🎀戴妃包,采用小羊皮精心制作、人手一个必备的戴妃包😍。迷人优雅又气场十足💃🏻,斜挎手拎也是女人味十足,经典时尚风格。ins和众多时尚icon都人手一个的美包,别错过哦❤️","name_cn":"Lady最新款五格蝴蝶结🎀戴妃包,采用小羊皮精心制作、人手一个必备的戴妃包😍。迷人优雅又气场十足💃🏻,斜挎手拎也是女人味十足,经典时尚风格。ins和众多时尚icon都人手一个的美包,别错过哦❤️\nsize:24cm","specs":{"source":"wsxcme","sourceId":"_dBZBZjtQjtC4QcxAWom37xjW4WNN_bw23I4WBcQ","sourceTagId":47002747,"sourceTagName":"迪奥/女包","rawTitle":"Lady最新款五格蝴蝶结🎀戴妃包,采用小羊皮精心制作、人手一个必备的戴妃包😍。迷人优雅又气场十足💃🏻,斜挎手拎也是女人味十足,经典时尚风格。ins和众多时尚icon都人手一个的美包,别错过哦❤️\nsize:24cm"},"price":null,"currency":"CNY","moq":1,"category":"dior-women-bags","status":"active","alibaba_url":null,"images":["https://xcimg.szwego.com/img/78f636d9/20260622/i1782110333140_7712_0_0.jpg","https://xcimg.szwego.com/img/78f636d9/20260622/i1782110332286_2686_0_1.jpg","https://xcimg.szwego.com/img/78f636d9/20260622/i1782110333177_2755_0_2.jpg","https://xcimg.szwego.com/img/78f636d9/20260622/i1782110332340_125_0_3.jpg","https://xcimg.szwego.com/img/78f636d9/20260622/i1782110332275_1471_0_4.jpg","https://xcimg.szwego.com/img/78f636d9/20260622/i1782110332269_8599_0_5.jpg","https://xcimg.szwego.com/img/78f636d9/20260622/i1782110332971_2856_0_6.jpg","https://xcimg.szwego.com/img/78f636d9/20260622/i1782110332050_7391_0_7.jpg"],"created_at":"2026-06-29T10:40:47.643Z"},{"id":"item-d2f2fbaba6b1","sku":"_diYiYtgzFAqNvJaC2N_W9NEfwdWY8KzQ_c0n-tw","name_en":"Lady最新款五格蝴蝶结🎀戴妃包,采用小羊皮精心制作、人手一个必备的戴妃包😍。迷人优雅又气场十足💃🏻,斜挎手拎也是女人味十足,经典时尚风格。ins和众多时尚icon都人手一个的美包,别错过哦❤️","name_cn":"Lady最新款五格蝴蝶结🎀戴妃包,采用小羊皮精心制作、人手一个必备的戴妃包😍。迷人优雅又气场十足💃🏻,斜挎手拎也是女人味十足,经典时尚风格。ins和众多时尚icon都人手一个的美包,别错过哦❤️\nsize:24cm","specs":{"source":"wsxcme","sourceId":"_diYiYtgzFAqNvJaC2N_W9NEfwdWY8KzQ_c0n-tw","sourceTagId":47002747,"sourceTagName":"迪奥/女包","rawTitle":"Lady最新款五格蝴蝶结🎀戴妃包,采用小羊皮精心制作、人手一个必备的戴妃包😍。迷人优雅又气场十足💃🏻,斜挎手拎也是女人味十足,经典时尚风格。ins和众多时尚icon都人手一个的美包,别错过哦❤️\nsize:24cm"},"price":null,"currency":"CNY","moq":1,"category":"dior-women-bags","status":"active","alibaba_url":null,"images":["https://xcimg.szwego.com/img/78f636d9/20260622/i1782110454569_8096_0_0.jpg","https://xcimg.szwego.com/img/78f636d9/20260622/i1782110454577_4611_0_1.jpg","https://xcimg.szwego.com/img/78f636d9/20260622/i1782110454589_853_0_2.jpg","https://xcimg.szwego.com/img/78f636d9/20260622/i1782110453719_6936_0_3.jpg","https://xcimg.szwego.com/img/78f636d9/20260622/i1782110453680_3562_0_4.jpg","https://xcimg.szwego.com/img/78f636d9/20260622/i1782110453612_9869_0_5.jpg","https://xcimg.szwego.com/img/78f636d9/20260622/i1782110454407_2830_0_6.jpg","https://xcimg.szwego.com/img/78f636d9/20260622/i1782110453612_7772_0_7.jpg","https://xcimg.szwego.com/img/78f636d9/20260622/i1782110453656_8412_0_8.jpg"],"created_at":"2026-06-29T10:40:47.663Z"},{"id":"item-cc84f7dceae2","sku":"_d1r1rBDrBC9YcbOzN0c-Mj6XpHsWQg6lzR46rNw","name_en":"Lady最新款五格蝴蝶结🎀戴妃包,采用小羊皮精心制作、人手一个必备的戴妃包😍。迷人优雅又气场十足💃🏻,斜挎手拎也是女人味十足,经典时尚风格。ins和众多时尚icon都人手一个的美包,别错过哦❤️","name_cn":"Lady最新款五格蝴蝶结🎀戴妃包,采用小羊皮精心制作、人手一个必备的戴妃包😍。迷人优雅又气场十足💃🏻,斜挎手拎也是女人味十足,经典时尚风格。ins和众多时尚icon都人手一个的美包,别错过哦❤️\nsize:24cm","specs":{"source":"wsxcme","sourceId":"_d1r1rBDrBC9YcbOzN0c-Mj6XpHsWQg6lzR46rNw","sourceTagId":47002747,"sourceTagName":"迪奥/女包","rawTitle":"Lady最新款五格蝴蝶结🎀戴妃包,采用小羊皮精心制作、人手一个必备的戴妃包😍。迷人优雅又气场十足💃🏻,斜挎手拎也是女人味十足,经典时尚风格。ins和众多时尚icon都人手一个的美包,别错过哦❤️\nsize:24cm"},"price":null,"currency":"CNY","moq":1,"category":"dior-women-bags","status":"active","alibaba_url":null,"images":["https://xcimg.szwego.com/img/78f636d9/20260622/i1782110535291_7549_0_0.jpg","https://xcimg.szwego.com/img/78f636d9/20260622/i1782110536378_6630_0_1.jpg","https://xcimg.szwego.com/img/78f636d9/20260622/i1782110536342_4577_0_2.jpg","https://xcimg.szwego.com/img/78f636d9/20260622/i1782110535287_2511_0_3.jpg","https://xcimg.szwego.com/img/78f636d9/20260622/i1782110535286_1100_0_4.jpg","https://xcimg.szwego.com/img/78f636d9/20260622/i1782110536379_5312_0_5.jpg","https://xcimg.szwego.com/img/78f636d9/20260622/i1782110535245_8492_0_6.jpg","https://xcimg.szwego.com/img/78f636d9/20260622/i1782110536163_5851_0_7.jpg","https://xcimg.szwego.com/img/78f636d9/20260622/i1782110535249_484_0_8.jpg"],"created_at":"2026-06-29T10:40:47.683Z"},{"id":"item-a0b97fe60f17","sku":"_dl7l7HRU5AhB0MnPML8zdNM9BJGy-RPBLSHp8ew","name_en":"Lady最新款五格蝴蝶结🎀戴妃包,采用小羊皮精心制作、人手一个必备的戴妃包😍。迷人优雅又气场十足💃🏻,斜挎手拎也是女人味十足,经典时尚风格。ins和众多时尚icon都人手一个的美包,别错过哦❤️","name_cn":"Lady最新款五格蝴蝶结🎀戴妃包,采用小羊皮精心制作、人手一个必备的戴妃包😍。迷人优雅又气场十足💃🏻,斜挎手拎也是女人味十足,经典时尚风格。ins和众多时尚icon都人手一个的美包,别错过哦❤️\nsize:24cm","specs":{"source":"wsxcme","sourceId":"_dl7l7HRU5AhB0MnPML8zdNM9BJGy-RPBLSHp8ew","sourceTagId":47002747,"sourceTagName":"迪奥/女包","rawTitle":"Lady最新款五格蝴蝶结🎀戴妃包,采用小羊皮精心制作、人手一个必备的戴妃包😍。迷人优雅又气场十足💃🏻,斜挎手拎也是女人味十足,经典时尚风格。ins和众多时尚icon都人手一个的美包,别错过哦❤️\nsize:24cm"},"price":null,"currency":"CNY","moq":1,"category":"dior-women-bags","status":"active","alibaba_url":null,"images":["https://xcimg.szwego.com/img/2b46f204/20260406/i1775464878_4093_8.jpg","https://xcimg.szwego.com/img/2b46f204/20260406/i1775464878_2339_0.jpg","https://xcimg.szwego.com/img/2b46f204/20260406/i1775464878_7364_6.jpg","https://xcimg.szwego.com/img/2b46f204/20260406/i1775464878_5086_1.jpg","https://xcimg.szwego.com/img/2b46f204/20260406/i1775464878_8057_2.jpg","https://xcimg.szwego.com/img/2b46f204/20260406/i1775464878_3631_7.jpg","https://xcimg.szwego.com/img/2b46f204/20260406/i1775464878_3930_4.jpg","https://xcimg.szwego.com/img/2b46f204/20260406/i1775464878_5737_3.jpg","https://xcimg.szwego.com/img/2b46f204/20260406/i1775464878_3689_5.jpg"],"created_at":"2026-06-29T10:43:31.850Z"}],"page":335,"pageSize":24,"total":10075,"totalPages":420}
