{"items":[{"id":"item-bc1d0565a3ca","sku":"_dxaxah5K5b8FKdjEUM2nFXRVkyr3SoQit0BqjKw","name_en":"Official website image","name_cn":"Official website image","specs":{"source":"wsxcme","sourceId":"_dxaxah5K5b8FKdjEUM2nFXRVkyr3SoQit0BqjKw","sourceTagId":47002761,"sourceTagName":"Saint Laurent/women's bag","rawTitle":"Official website image"},"price":null,"currency":"CNY","moq":1,"category":"ysl-women-bags","status":"active","alibaba_url":null,"images":["https://xcimg.szwego.com/imgHD/f8c0bdc9/20260622/cmp_i1782124240579_9654_0_0.jpg","https://xcimg.szwego.com/imgHD/f8c0bdc9/20260622/cmp_i1782124240579_6214_0_1.jpg","https://xcimg.szwego.com/imgHD/f8c0bdc9/20260622/cmp_i1782124240578_8160_0_2.jpg","https://xcimg.szwego.com/imgHD/f8c0bdc9/20260622/cmp_i1782124240580_6792_0_3.jpg","https://xcimg.szwego.com/imgHD/f8c0bdc9/20260622/cmp_i1782124240577_4828_0_4.jpg"],"created_at":"2026-06-29T10:48:59.379Z"},{"id":"item-a8d466b467f2","sku":"_dmTmT6jyyxMeIPJzxkggNDmh73XqvAqDXLr7rdw","name_en":"Official website image","name_cn":"Official website image","specs":{"source":"wsxcme","sourceId":"_dmTmT6jyyxMeIPJzxkggNDmh73XqvAqDXLr7rdw","sourceTagId":80411239,"sourceTagName":"Burberry/women's bag","rawTitle":"Official website image"},"price":null,"currency":"CNY","moq":1,"category":"burberry-women-bags","status":"active","alibaba_url":null,"images":["https://xcimg.szwego.com/20220323/i1648017754_2217_0.jpg","https://xcimg.szwego.com/20220323/i1648017754_5936_1.jpg","https://xcimg.szwego.com/20220323/i1648017754_5210_2.jpg","https://xcimg.szwego.com/20220323/i1648017754_4327_3.jpg","https://xcimg.szwego.com/20220323/i1648017764_3641_0.jpg"],"created_at":"2026-06-29T10:27:59.132Z"},{"id":"item-a4056fee8a44","sku":"_drmrm6Mm8x0OGztokG_Fe74tPUvHEe5bNLp3-Aw","name_en":"Official website image","name_cn":"Official website image","specs":{"source":"wsxcme","sourceId":"_drmrm6Mm8x0OGztokG_Fe74tPUvHEe5bNLp3-Aw","sourceTagId":47002761,"sourceTagName":"Saint Laurent/women's bag","rawTitle":"Official website image"},"price":null,"currency":"CNY","moq":1,"category":"ysl-women-bags","status":"active","alibaba_url":null,"images":["https://xcimg.szwego.com/imgHD/f8c0bdc9/20251120/cmp_i1763631322339_7228_0_0.jpg","https://xcimg.szwego.com/imgHD/f8c0bdc9/20251120/cmp_i1763631322340_3947_0_1.jpg","https://xcimg.szwego.com/imgHD/f8c0bdc9/20251120/cmp_i1763631322340_9890_0_2.jpg","https://xcimg.szwego.com/imgHD/f8c0bdc9/20251120/cmp_i1763631322339_9564_0_3.jpg","https://xcimg.szwego.com/imgHD/f8c0bdc9/20251120/cmp_i1763631322339_1431_0_4.jpg","https://xcimg.szwego.com/imgHD/f8c0bdc9/20251120/cmp_i1763631322912_1935_0_5.jpg","https://xcimg.szwego.com/imgHD/f8c0bdc9/20251120/cmp_i1763631325579_5795_0_6.jpg"],"created_at":"2026-06-29T10:48:58.679Z"},{"id":"item-a1ec0f8976f0","sku":"_dukukw-k4E3UV0j8acOLz7LOMOM6Ix3OVZSrjtQ","name_en":"Official website image","name_cn":"Official website image","specs":{"source":"wsxcme","sourceId":"_dukukw-k4E3UV0j8acOLz7LOMOM6Ix3OVZSrjtQ","sourceTagId":80411239,"sourceTagName":"Burberry/women's bag","rawTitle":"Official website image"},"price":null,"currency":"CNY","moq":1,"category":"burberry-women-bags","status":"active","alibaba_url":null,"images":["https://xcimg.szwego.com/img/d5e7a5ce/20250530/a1748585166067_0102.jpg","https://xcimg.szwego.com/img/d5e7a5ce/20250530/a1748585166070_6177.jpg","https://xcimg.szwego.com/img/d5e7a5ce/20250530/a1748585166072_5214.jpg","https://xcimg.szwego.com/img/d5e7a5ce/20250530/a1748585166073_1156.jpg","https://xcimg.szwego.com/img/d5e7a5ce/20250530/a1748585166073_6400.jpg"],"created_at":"2026-06-29T10:27:58.632Z"},{"id":"item-759ab6eb34a1","sku":"_dqpqpkJEhM3slgcw39XV5QNuMtosdjsG75EjXMg","name_en":"Official website image","name_cn":"Official website image","specs":{"source":"wsxcme","sourceId":"_dqpqpkJEhM3slgcw39XV5QNuMtosdjsG75EjXMg","sourceTagId":47002761,"sourceTagName":"Saint Laurent/women's bag","rawTitle":"Official website image"},"price":null,"currency":"CNY","moq":1,"category":"ysl-women-bags","status":"active","alibaba_url":null,"images":["https://xcimg.szwego.com/imgHD/f8c0bdc9/20251005/cmp_i1759661375391_5813_0_0.jpg","https://xcimg.szwego.com/imgHD/f8c0bdc9/20251005/cmp_i1759661375856_9771_0_1.jpg","https://xcimg.szwego.com/imgHD/f8c0bdc9/20251005/cmp_i1759661375855_2664_0_2.jpg","https://xcimg.szwego.com/imgHD/f8c0bdc9/20251005/cmp_i1759661375390_9755_0_3.jpg","https://xcimg.szwego.com/imgHD/f8c0bdc9/20251005/cmp_i1759661375389_1609_0_4.jpg","https://xcimg.szwego.com/imgHD/f8c0bdc9/20251005/cmp_i1759661375389_6913_0_5.jpg","https://xcimg.szwego.com/imgHD/f8c0bdc9/20251005/cmp_i1759661375390_2532_0_6.jpg"],"created_at":"2026-05-20T04:01:39.293Z"},{"id":"item-7201f5aa68c9","sku":"_dBWBW2E1WfR3R21yqvvB8dsGyDCi3OURQTplZ2A","name_en":"Official website image","name_cn":"Official website image","specs":{"source":"wsxcme","sourceId":"_dBWBW2E1WfR3R21yqvvB8dsGyDCi3OURQTplZ2A","sourceTagId":80411239,"sourceTagName":"Burberry/women's bag","rawTitle":"Official website image"},"price":null,"currency":"CNY","moq":1,"category":"burberry-women-bags","status":"active","alibaba_url":null,"images":["https://xcimg.szwego.com/img/d5e7a5ce/20241022/a1729580004113_8815.jpg","https://xcimg.szwego.com/img/d5e7a5ce/20241022/a1729580004115_2741.jpg","https://xcimg.szwego.com/img/d5e7a5ce/20241022/a1729580004117_2633.jpg","https://xcimg.szwego.com/img/d5e7a5ce/20241022/a1729580004118_2846.jpg"],"created_at":"2026-06-29T10:27:58.662Z"},{"id":"item-682c742d4a97","sku":"_dsvsvGvNWUD6xc79GHNtddUrN7rVHVaMWLHxzkA","name_en":"Official website image","name_cn":"Official website image","specs":{"source":"wsxcme","sourceId":"_dsvsvGvNWUD6xc79GHNtddUrN7rVHVaMWLHxzkA","sourceTagId":47002761,"sourceTagName":"Saint Laurent/women's bag","rawTitle":"Official website image"},"price":null,"currency":"CNY","moq":1,"category":"ysl-women-bags","status":"active","alibaba_url":null,"images":["https://xcimg.szwego.com/imgHD/f8c0bdc9/20260420/cmp_i1776674058340_2605_0_0.jpg","https://xcimg.szwego.com/imgHD/f8c0bdc9/20260420/cmp_i1776674058341_8040_0_1.jpg","https://xcimg.szwego.com/imgHD/f8c0bdc9/20260420/cmp_i1776674058338_8697_0_2.jpg","https://xcimg.szwego.com/imgHD/f8c0bdc9/20260420/cmp_i1776674058340_1705_0_3.jpg","https://xcimg.szwego.com/imgHD/f8c0bdc9/20260420/cmp_i1776674058340_1591_0_4.jpg"],"created_at":"2026-06-29T10:48:58.929Z"},{"id":"item-5eccf031218f","sku":"_dwQwQmDrCSCSRMT2YuEV4VSQROJbv9b4DpveSRg","name_en":"Official website image","name_cn":"Official website image","specs":{"source":"wsxcme","sourceId":"_dwQwQmDrCSCSRMT2YuEV4VSQROJbv9b4DpveSRg","sourceTagId":80411239,"sourceTagName":"Burberry/women's bag","rawTitle":"Official website image"},"price":null,"currency":"CNY","moq":1,"category":"burberry-women-bags","status":"active","alibaba_url":null,"images":["https://xcimg.szwego.com/img/d5e7a5ce/20250530/a1748583578278_2063.jpg","https://xcimg.szwego.com/img/d5e7a5ce/20250530/a1748583578239_2228.jpg","https://xcimg.szwego.com/img/d5e7a5ce/20250530/a1748583578259_8068.jpg","https://xcimg.szwego.com/img/d5e7a5ce/20250530/a1748583578260_6255.jpg","https://xcimg.szwego.com/img/d5e7a5ce/20250530/a1748583578279_8526.jpg","https://xcimg.szwego.com/img/d5e7a5ce/20250530/a1748583578274_0764.jpg"],"created_at":"2026-06-29T10:27:58.812Z"},{"id":"item-4b4bf865d1f2","sku":"_di4i43VwLKsOG3hZcNx5vNK1Q1756O6EouizZXg","name_en":"Official website image","name_cn":"Official website image","specs":{"source":"wsxcme","sourceId":"_di4i43VwLKsOG3hZcNx5vNK1Q1756O6EouizZXg","sourceTagId":47002761,"sourceTagName":"Saint Laurent/women's bag","rawTitle":"Official website image"},"price":null,"currency":"CNY","moq":1,"category":"ysl-women-bags","status":"active","alibaba_url":null,"images":["https://xcimg.szwego.com/imgHD/f8c0bdc9/20260622/cmp_i1782124300398_2327_0_0.jpg","https://xcimg.szwego.com/imgHD/f8c0bdc9/20260622/cmp_i1782124300397_5153_0_1.jpg","https://xcimg.szwego.com/imgHD/f8c0bdc9/20260622/cmp_i1782124300398_3476_0_2.jpg","https://xcimg.szwego.com/imgHD/f8c0bdc9/20260622/cmp_i1782124300398_5900_0_3.jpg","https://xcimg.szwego.com/imgHD/f8c0bdc9/20260622/cmp_i1782124300398_7316_0_4.jpg"],"created_at":"2026-06-29T10:48:59.469Z"},{"id":"item-420b583a9170","sku":"_dYWYW1rYeHm217RaARU18xUq_13snhqThnSLv0g","name_en":"Official website image","name_cn":"Official website image","specs":{"source":"wsxcme","sourceId":"_dYWYW1rYeHm217RaARU18xUq_13snhqThnSLv0g","sourceTagId":80411239,"sourceTagName":"Burberry/women's bag","rawTitle":"Official website image"},"price":null,"currency":"CNY","moq":1,"category":"burberry-women-bags","status":"active","alibaba_url":null,"images":["https://xcimg.szwego.com/20220323/i1648017340_3435_0.jpg","https://xcimg.szwego.com/20220323/i1648017340_4763_1.jpg","https://xcimg.szwego.com/20220323/i1648017340_6094_2.jpg","https://xcimg.szwego.com/20220323/i1648017340_1335_3.jpg","https://xcimg.szwego.com/20220323/i1648017340_3847_4.jpg"],"created_at":"2026-06-29T10:27:59.052Z"},{"id":"item-383ed2d7aadf","sku":"_d4q4qHJ7HtOE-_jOG4zMforyXRM51EcylHiybiA","name_en":"Official website image","name_cn":"Official website image","specs":{"source":"wsxcme","sourceId":"_d4q4qHJ7HtOE-_jOG4zMforyXRM51EcylHiybiA","sourceTagId":47002761,"sourceTagName":"Saint Laurent/women's bag","rawTitle":"Official website image"},"price":null,"currency":"CNY","moq":1,"category":"ysl-women-bags","status":"active","alibaba_url":null,"images":["https://xcimg.szwego.com/imgHD/f8c0bdc9/20251229/cmp_i1767000910549_3248_0_0.jpg","https://xcimg.szwego.com/imgHD/f8c0bdc9/20251229/cmp_i1767000910550_5103_0_1.jpg","https://xcimg.szwego.com/imgHD/f8c0bdc9/20251229/cmp_i1767000910549_7832_0_2.jpg","https://xcimg.szwego.com/imgHD/f8c0bdc9/20251229/cmp_i1767000911586_9574_0_3.jpg","https://xcimg.szwego.com/imgHD/f8c0bdc9/20251229/cmp_i1767000910549_8357_0_4.jpg","https://xcimg.szwego.com/imgHD/f8c0bdc9/20251229/cmp_i1767000910549_5473_0_5.jpg"],"created_at":"2026-06-29T10:54:45.516Z"},{"id":"item-368f4e307ccb","sku":"_d1I1Imqar9qjUTk9ZAiDhkShkQGvWiW22y1djGg","name_en":"Official website image","name_cn":"Official website image","specs":{"source":"wsxcme","sourceId":"_d1I1Imqar9qjUTk9ZAiDhkShkQGvWiW22y1djGg","sourceTagId":80411239,"sourceTagName":"Burberry/women's bag","rawTitle":"Official website image"},"price":null,"currency":"CNY","moq":1,"category":"burberry-women-bags","status":"active","alibaba_url":null,"images":["https://xcimg.szwego.com/img/d5e7a5ce/20250908/a1757318538306_6710.jpg","https://xcimg.szwego.com/img/d5e7a5ce/20250908/a1757318538311_4565.jpg","https://xcimg.szwego.com/img/d5e7a5ce/20250908/a1757318538305_8811.jpg","https://xcimg.szwego.com/img/d5e7a5ce/20250908/a1757318538310_5557.jpg","https://xcimg.szwego.com/img/d5e7a5ce/20250908/a1757318538307_6857.jpg","https://xcimg.szwego.com/img/d5e7a5ce/20250908/a1757318538308_6014.jpg","https://xcimg.szwego.com/img/d5e7a5ce/20250908/a1757318538807_1860.jpg","https://xcimg.szwego.com/img/d5e7a5ce/20250908/a1757318538806_7423.jpg","https://xcimg.szwego.com/img/d5e7a5ce/20250908/a1757318538808_5411.jpg"],"created_at":"2026-06-29T10:27:58.472Z"},{"id":"item-353b1a18d077","sku":"_dExExAX4YmGJrgN1WcDPEL_J77Vw8MwJH7_GoYQ","name_en":"Official website image","name_cn":"Official website image","specs":{"source":"wsxcme","sourceId":"_dExExAX4YmGJrgN1WcDPEL_J77Vw8MwJH7_GoYQ","sourceTagId":47002761,"sourceTagName":"Saint Laurent/women's bag","rawTitle":"Official website image"},"price":null,"currency":"CNY","moq":1,"category":"ysl-women-bags","status":"active","alibaba_url":null,"images":["https://xcimg.szwego.com/imgHD/f8c0bdc9/20251104/cmp_i1762247287375_8278_0_0.jpg","https://xcimg.szwego.com/imgHD/f8c0bdc9/20251104/cmp_i1762247287376_6575_0_1.jpg","https://xcimg.szwego.com/imgHD/f8c0bdc9/20251104/cmp_i1762247287376_6628_0_2.jpg","https://xcimg.szwego.com/imgHD/f8c0bdc9/20251104/cmp_i1762247287939_1165_0_3.jpg","https://xcimg.szwego.com/imgHD/f8c0bdc9/20251104/cmp_i1762247287374_204_0_4.jpg","https://xcimg.szwego.com/imgHD/f8c0bdc9/20251104/cmp_i1762247287375_4492_0_5.jpg","https://xcimg.szwego.com/imgHD/f8c0bdc9/20251104/cmp_i1762247287938_8029_0_6.jpg"],"created_at":"2026-06-29T10:48:59.069Z"},{"id":"item-2b362022996a","sku":"_dneneO5S8GAHzuPuG8zKkS2YtTZA3Xy-roClBrA","name_en":"Official website image","name_cn":"Official website image","specs":{"source":"wsxcme","sourceId":"_dneneO5S8GAHzuPuG8zKkS2YtTZA3Xy-roClBrA","sourceTagId":80411239,"sourceTagName":"Burberry/women's bag","rawTitle":"Official website image"},"price":null,"currency":"CNY","moq":1,"category":"burberry-women-bags","status":"active","alibaba_url":null,"images":["https://xcimg.szwego.com/20220114/i1642101028_356_0.jpg","https://xcimg.szwego.com/20220114/i1642101028_3127_1.jpg","https://xcimg.szwego.com/20220114/i1642101028_1322_2.jpg","https://xcimg.szwego.com/20220114/i1642101028_2986_3.jpg","https://xcimg.szwego.com/20220114/i1642101028_6156_4.jpg"],"created_at":"2025-01-20T12:46:12.732Z"},{"id":"item-0d46cea373ef","sku":"_dgigiAYuwNeG47b1gIAHc4lZX1dF9eQlKmwWhTw","name_en":"Official website image","name_cn":"Official website image","specs":{"source":"wsxcme","sourceId":"_dgigiAYuwNeG47b1gIAHc4lZX1dF9eQlKmwWhTw","sourceTagId":47002761,"sourceTagName":"Saint Laurent/women's bag","rawTitle":"Official website image"},"price":null,"currency":"CNY","moq":1,"category":"ysl-women-bags","status":"active","alibaba_url":null,"images":["https://xcimg.szwego.com/imgHD/f8c0bdc9/20260420/cmp_i1776674188091_8481_0_0.jpg","https://xcimg.szwego.com/imgHD/f8c0bdc9/20260420/cmp_i1776674188091_4904_0_1.jpg","https://xcimg.szwego.com/imgHD/f8c0bdc9/20260420/cmp_i1776674188823_5008_0_2.jpg","https://xcimg.szwego.com/imgHD/f8c0bdc9/20260420/cmp_i1776674188091_6222_0_3.jpg","https://xcimg.szwego.com/imgHD/f8c0bdc9/20260420/cmp_i1776674188091_4673_0_4.jpg","https://xcimg.szwego.com/imgHD/f8c0bdc9/20260420/cmp_i1776674188090_6035_0_5.jpg"],"created_at":"2026-06-29T10:48:58.889Z"},{"id":"item-0cb3f512e84c","sku":"_dtqtqy7Z-0vWSXDRO2ntk8oLeDRzQXfF8jufXrg","name_en":"Official website image","name_cn":"Official website image","specs":{"source":"wsxcme","sourceId":"_dtqtqy7Z-0vWSXDRO2ntk8oLeDRzQXfF8jufXrg","sourceTagId":80411239,"sourceTagName":"Burberry/women's bag","rawTitle":"Official website image"},"price":null,"currency":"CNY","moq":1,"category":"burberry-women-bags","status":"active","alibaba_url":null,"images":["https://xcimg.szwego.com/img/d5e7a5ce/20250403/a1743667614633_0418.jpg","https://xcimg.szwego.com/img/d5e7a5ce/20250403/a1743667614605_0180.jpg","https://xcimg.szwego.com/img/d5e7a5ce/20250403/a1743667614612_8112.jpg","https://xcimg.szwego.com/img/d5e7a5ce/20250403/a1743667614619_2322.jpg","https://xcimg.szwego.com/img/d5e7a5ce/20250403/a1743667614622_6385.jpg","https://xcimg.szwego.com/img/d5e7a5ce/20250403/a1743667614627_2153.jpg","https://xcimg.szwego.com/img/d5e7a5ce/20250403/a1743667615501_8022.jpg","https://xcimg.szwego.com/img/d5e7a5ce/20250403/a1743667615497_2721.jpg","https://xcimg.szwego.com/img/d5e7a5ce/20250403/a1743667615502_4061.jpg"],"created_at":"2026-06-29T10:27:59.262Z"},{"id":"item-04bc7199d376","sku":"_dcicimB0aNL3ggGIUAvaiXwmbhryQftsoByxfcw","name_en":"Official website image","name_cn":"Official website image","specs":{"source":"wsxcme","sourceId":"_dcicimB0aNL3ggGIUAvaiXwmbhryQftsoByxfcw","sourceTagId":47002761,"sourceTagName":"Saint Laurent/women's bag","rawTitle":"Official website image"},"price":null,"currency":"CNY","moq":1,"category":"ysl-women-bags","status":"active","alibaba_url":null,"images":["https://xcimg.szwego.com/imgHD/f8c0bdc9/20260420/cmp_i1776674166636_2476_0_0.jpg","https://xcimg.szwego.com/imgHD/f8c0bdc9/20260420/cmp_i1776674165837_2895_0_1.jpg","https://xcimg.szwego.com/imgHD/f8c0bdc9/20260420/cmp_i1776674165837_8369_0_2.jpg","https://xcimg.szwego.com/imgHD/f8c0bdc9/20260420/cmp_i1776674166636_7599_0_3.jpg","https://xcimg.szwego.com/imgHD/f8c0bdc9/20260420/cmp_i1776674165836_6254_0_4.jpg","https://xcimg.szwego.com/imgHD/f8c0bdc9/20260420/cmp_i1776674165838_8407_0_5.jpg","https://xcimg.szwego.com/imgHD/f8c0bdc9/20260420/cmp_i1776674165837_6280_0_6.jpg"],"created_at":"2026-06-29T10:48:58.849Z"},{"id":"item-e384b96ed904","sku":"_dgcgcyoVkc2qNawwyxQy-6r5jFchYiR3yLesaBQ","name_en":"Official website image_","name_cn":"Official website image_","specs":{"source":"wsxcme","sourceId":"_dgcgcyoVkc2qNawwyxQy-6r5jFchYiR3yLesaBQ","sourceTagId":47002761,"sourceTagName":"Saint Laurent/women's bag","rawTitle":"Official website image_"},"price":null,"currency":"CNY","moq":1,"category":"ysl-women-bags","status":"active","alibaba_url":null,"images":["https://xcimg.szwego.com/img/f8c0bdc9/20240904/i1725443934_5915_1.jpg","https://xcimg.szwego.com/img/f8c0bdc9/20240904/i1725443934_54_5.jpg","https://xcimg.szwego.com/img/f8c0bdc9/20240904/i1725443934_9603_0.jpg","https://xcimg.szwego.com/img/f8c0bdc9/20240904/i1725443934_9111_3.jpg","https://xcimg.szwego.com/img/f8c0bdc9/20240904/i1725443934_5476_2.jpg","https://xcimg.szwego.com/img/f8c0bdc9/20240904/i1725443934_152_4.jpg"],"created_at":"2026-05-20T04:01:39.103Z"},{"id":"item-dec16ef6f0fc","sku":"_dksksCdYY9vl2MHKtKraSvYhdLHXUhjxVUbJqaQ","name_en":"Official website image_","name_cn":"Official website image_","specs":{"source":"wsxcme","sourceId":"_dksksCdYY9vl2MHKtKraSvYhdLHXUhjxVUbJqaQ","sourceTagId":47002761,"sourceTagName":"Saint Laurent/women's bag","rawTitle":"Official website image_"},"price":null,"currency":"CNY","moq":1,"category":"ysl-women-bags","status":"active","alibaba_url":null,"images":["https://xcimg.szwego.com/img/f8c0bdc9/20240811/i1723375269_1300_2.jpg","https://xcimg.szwego.com/img/f8c0bdc9/20240811/i1723375269_763_5.jpg","https://xcimg.szwego.com/img/f8c0bdc9/20240811/i1723375269_410_6.jpg","https://xcimg.szwego.com/img/f8c0bdc9/20240811/i1723375269_9655_7.jpg","https://xcimg.szwego.com/img/f8c0bdc9/20240811/i1723375269_4451_3.jpg","https://xcimg.szwego.com/img/f8c0bdc9/20240811/i1723375269_6989_0.jpg","https://xcimg.szwego.com/img/f8c0bdc9/20240811/i1723375269_2746_1.jpg","https://xcimg.szwego.com/img/f8c0bdc9/20240811/i1723375269_4180_4.jpg"],"created_at":"2026-05-20T04:01:39.253Z"},{"id":"item-d5e353aa802c","sku":"_dbpbpsbzWohB7Z8xg5yXkt_wAKURNE1rSGCMcVw","name_en":"Official website image_","name_cn":"Official website image_","specs":{"source":"wsxcme","sourceId":"_dbpbpsbzWohB7Z8xg5yXkt_wAKURNE1rSGCMcVw","sourceTagId":47002761,"sourceTagName":"Saint Laurent/women's bag","rawTitle":"Official website image_"},"price":null,"currency":"CNY","moq":1,"category":"ysl-women-bags","status":"active","alibaba_url":null,"images":["https://xcimg.szwego.com/img/f8c0bdc9/20240515/i1715778668_6479_1.jpg","https://xcimg.szwego.com/img/f8c0bdc9/20240515/i1715778668_1444_3.jpg","https://xcimg.szwego.com/img/f8c0bdc9/20240515/i1715778668_4040_2.jpg","https://xcimg.szwego.com/img/f8c0bdc9/20240515/i1715778668_5792_0.jpg","https://xcimg.szwego.com/img/f8c0bdc9/20240515/i1715778668_9256_4.jpg","https://xcimg.szwego.com/img/f8c0bdc9/20240515/i1715778668_5855_5.jpg"],"created_at":"2025-07-20T03:10:54.224Z"},{"id":"item-c99a2ed121b7","sku":"_dk7k7RH9HRPOgDLSwHmnEtnxrTYnBonQ9VNDQPA","name_en":"Official website image_","name_cn":"Official website image_","specs":{"source":"wsxcme","sourceId":"_dk7k7RH9HRPOgDLSwHmnEtnxrTYnBonQ9VNDQPA","sourceTagId":47002761,"sourceTagName":"Saint Laurent/women's bag","rawTitle":"Official website image_"},"price":null,"currency":"CNY","moq":1,"category":"ysl-women-bags","status":"active","alibaba_url":null,"images":["https://xcimg.szwego.com/20230720/i1689849279_8170_0.jpg","https://xcimg.szwego.com/20230720/i1689849279_1231_1.jpg","https://xcimg.szwego.com/20230720/i1689849279_2949_2.jpg","https://xcimg.szwego.com/20230720/i1689849279_1994_3.jpg","https://xcimg.szwego.com/20230720/i1689849279_3707_4.jpg"],"created_at":"2026-06-29T10:48:59.279Z"},{"id":"item-b9bd433f4052","sku":"_dJOJOCOxOybX8oatvDc4lrZyNO6CbSs1bnzAfXg","name_en":"Official website image_","name_cn":"Official website image_","specs":{"source":"wsxcme","sourceId":"_dJOJOCOxOybX8oatvDc4lrZyNO6CbSs1bnzAfXg","sourceTagId":47002761,"sourceTagName":"Saint Laurent/women's bag","rawTitle":"Official website image_"},"price":null,"currency":"CNY","moq":1,"category":"ysl-women-bags","status":"active","alibaba_url":null,"images":["https://xcimg.szwego.com/img/f8c0bdc9/20240515/i1715778986_5897_1.jpg","https://xcimg.szwego.com/img/f8c0bdc9/20240515/i1715778986_2442_6.jpg","https://xcimg.szwego.com/img/f8c0bdc9/20240515/i1715778986_2431_5.jpg","https://xcimg.szwego.com/img/f8c0bdc9/20240515/i1715778986_7964_3.jpg","https://xcimg.szwego.com/img/f8c0bdc9/20240515/i1715778986_7286_7.jpg","https://xcimg.szwego.com/img/f8c0bdc9/20240515/i1715778986_3440_0.jpg","https://xcimg.szwego.com/img/f8c0bdc9/20240515/i1715778986_6231_4.jpg","https://xcimg.szwego.com/img/f8c0bdc9/20240515/i1715778986_1327_2.jpg"],"created_at":"2026-05-20T04:01:38.913Z"},{"id":"item-8a90110aa2f9","sku":"_dIiIivW0-8BKmdcqvTjLdq5DYE46rpeIz78i_vw","name_en":"Official website image_","name_cn":"Official website image_","specs":{"source":"wsxcme","sourceId":"_dIiIivW0-8BKmdcqvTjLdq5DYE46rpeIz78i_vw","sourceTagId":47002761,"sourceTagName":"Saint Laurent/women's bag","rawTitle":"Official website image_"},"price":null,"currency":"CNY","moq":1,"category":"ysl-women-bags","status":"active","alibaba_url":null,"images":["https://xcimg.szwego.com/img/c8ebba50/20240326/i1711450813_2243_2.jpg","https://xcimg.szwego.com/img/c8ebba50/20240326/i1711450813_686_5.jpg","https://xcimg.szwego.com/img/c8ebba50/20240326/i1711450813_3142_1.jpg","https://xcimg.szwego.com/img/c8ebba50/20240326/i1711450813_5969_4.jpg","https://xcimg.szwego.com/img/c8ebba50/20240326/i1711450813_6258_0.jpg","https://xcimg.szwego.com/img/c8ebba50/20240326/i1711450813_8747_3.jpg"],"created_at":"2026-05-20T04:01:39.033Z"},{"id":"item-3d8c77fc8e46","sku":"_drvrvYf7sehmWuSVN9yXb7YvGw5Fy3Dulus6M1Q","name_en":"Official website image_","name_cn":"Official website image_","specs":{"source":"wsxcme","sourceId":"_drvrvYf7sehmWuSVN9yXb7YvGw5Fy3Dulus6M1Q","sourceTagId":47002761,"sourceTagName":"Saint Laurent/women's bag","rawTitle":"Official website image_"},"price":null,"currency":"CNY","moq":1,"category":"ysl-women-bags","status":"active","alibaba_url":null,"images":["https://xcimg.szwego.com/20230720/i1689849264_5135_0.jpg","https://xcimg.szwego.com/20230720/i1689849264_2417_1.jpg","https://xcimg.szwego.com/20230720/i1689849264_4706_2.jpg","https://xcimg.szwego.com/20230720/i1689849264_8335_3.jpg","https://xcimg.szwego.com/20230720/i1689849264_5378_4.jpg","https://xcimg.szwego.com/20230720/i1689849264_7728_5.jpg"],"created_at":"2026-06-29T10:48:59.269Z"}],"page":336,"pageSize":24,"total":9921,"totalPages":414}
