{"items":[{"id":"item-9c86e4215093","sku":"_d_z_zqVmz4WJJ7o67gSQdMaU77U95BCNfxvzjlQ","name_en":"『Burberry 巴宝莉』","name_cn":"『Burberry 巴宝莉』\n\n🔥🔥B家最新款收纳袋,🥰精选 Vintage 复古格纹棉质拼皮革材料,可肩背,或卸下背带随心缔造手拿包造型。21 x 4 x 12.2 cm、6801","specs":{"source":"wsxcme","sourceId":"_d_z_zqVmz4WJJ7o67gSQdMaU77U95BCNfxvzjlQ","sourceTagId":80411239,"sourceTagName":"巴宝莉/女包","rawTitle":"『Burberry 巴宝莉』\n\n🔥🔥B家最新款收纳袋,🥰精选 Vintage 复古格纹棉质拼皮革材料,可肩背,或卸下背带随心缔造手拿包造型。21 x 4 x 12.2 cm、6801"},"price":null,"currency":"CNY","moq":1,"category":"burberry-women-bags","status":"active","alibaba_url":null,"images":["https://xcimg.szwego.com/o_1f447kkkg1pvql4e1ugdvg116mn11.jpg","https://xcimg.szwego.com/o_1f447kkkg1oh612in1t5nmgn1udp12.jpg","https://xcimg.szwego.com/o_1f447kkkg10hbqdq1cds1sv57aj13.jpg","https://xcimg.szwego.com/o_1f447kkkg1v41ulh1qi3te31duq14.jpg","https://xcimg.szwego.com/o_1f447kkkh1i2u1nv36741qrdrr315.jpg","https://xcimg.szwego.com/o_1f447kkkh1p8p1chs3n714l51v6u16.jpg","https://xcimg.szwego.com/o_1f447kkkh1ai613uqa231da4b7q17.jpg","https://xcimg.szwego.com/o_1f447kkkh1eno12rog0hjdi18su18.jpg"],"created_at":"2025-02-08T12:43:27.868Z"},{"id":"item-9b4e3ef21c3b","sku":"_dzxzxOdyX_BlrtDOSjFG30Jj4HLXk89b97iQFZg","name_en":"『Burberry 巴宝莉』","name_cn":"『Burberry 巴宝莉』\n\n🔥🔥B家精巧的斜背包,设有徽标镌刻按扣。搭配可拆式背带,点缀提花精纺的品牌徽标。随心变换为肩背包或手拿包造型。25 x 8.5 x 18cm、1209","specs":{"source":"wsxcme","sourceId":"_dzxzxOdyX_BlrtDOSjFG30Jj4HLXk89b97iQFZg","sourceTagId":80411239,"sourceTagName":"巴宝莉/女包","rawTitle":"『Burberry 巴宝莉』\n\n🔥🔥B家精巧的斜背包,设有徽标镌刻按扣。搭配可拆式背带,点缀提花精纺的品牌徽标。随心变换为肩背包或手拿包造型。25 x 8.5 x 18cm、1209"},"price":null,"currency":"CNY","moq":1,"category":"burberry-women-bags","status":"active","alibaba_url":null,"images":["https://xcimg.szwego.com/20210605/i1622876126_7692_0.jpg","https://xcimg.szwego.com/20210605/i1622876126_6498_1.jpg","https://xcimg.szwego.com/20210605/i1622876126_3514_2.jpg","https://xcimg.szwego.com/20210605/i1622876126_5179_3.jpg","https://xcimg.szwego.com/20210605/i1622876126_9148_4.jpg","https://xcimg.szwego.com/20210605/i1622876126_2998_5.jpg","https://xcimg.szwego.com/20210605/i1622876126_7112_6.jpg","https://xcimg.szwego.com/20210605/i1622876126_5227_7.jpg","https://xcimg.szwego.com/20210605/i1622876126_9321_8.jpg"],"created_at":"2025-02-08T12:43:27.859Z"},{"id":"item-98639bd63444","sku":"_dcNcN-jeByyAT3MErD0AVzxWfIZRjtQsna7C2CQ","name_en":"『Burberry 巴宝莉』","name_cn":"『Burberry 巴宝莉』\n\nB家最新走秀款🌀立体结构感的手掌纹皮革斜背包👝搭配House格纹正面棉质裁👜翻折式皮革正面💫搭配别致的锁扣设计与调斜可拆式背带👍款号38996👻多个内侧与外侧隔层👸🏻精湛手工涂漆边缘👀尺寸24:19:9搭配抛光金属配件❤完美展现卓越品质","specs":{"source":"wsxcme","sourceId":"_dcNcN-jeByyAT3MErD0AVzxWfIZRjtQsna7C2CQ","sourceTagId":80411239,"sourceTagName":"巴宝莉/女包","modelNumber":"38996👻多个内侧与外侧隔层👸🏻精湛手工涂漆边缘👀尺寸24:19:9搭配抛光金属配件❤完美展现卓越品质","rawTitle":"『Burberry 巴宝莉』\n\nB家最新走秀款🌀立体结构感的手掌纹皮革斜背包👝搭配House格纹正面棉质裁👜翻折式皮革正面💫搭配别致的锁扣设计与调斜可拆式背带👍款号38996👻多个内侧与外侧隔层👸🏻精湛手工涂漆边缘👀尺寸24:19:9搭配抛光金属配件❤完美展现卓越品质"},"price":null,"currency":"CNY","moq":1,"category":"burberry-women-bags","status":"active","alibaba_url":null,"images":["https://xcimg.szwego.com/1539500289_3019879406_0","https://xcimg.szwego.com/1539500290_324285499_1","https://xcimg.szwego.com/1539500290_2877438965_2","https://xcimg.szwego.com/1539500290_2466563646_3","https://xcimg.szwego.com/1539500290_2930532669_4","https://xcimg.szwego.com/1539500290_927517991_5","https://xcimg.szwego.com/1539500290_3787783424_6","https://xcimg.szwego.com/1539500290_1622305511_7","https://xcimg.szwego.com/1539500290_1940986459_8"],"created_at":"2025-02-08T12:43:27.806Z"},{"id":"item-983fe0997ae8","sku":"_djHjHdyNhk0YIVTyw34TuPjSKQmt0QzAPXoMnyw","name_en":"『Burberry 巴宝莉』","name_cn":"『Burberry 巴宝莉』\n\n🔥🔥B家格子料皮革钱夹,随附链饰皮革肩背带。本品可作为小型手袋单独使用,或作为钱夹收置于日常手袋内。专柜品质、做工精细实物拍摄,黑色格子尺寸21cm*12cm*3cm、8687","specs":{"source":"wsxcme","sourceId":"_djHjHdyNhk0YIVTyw34TuPjSKQmt0QzAPXoMnyw","sourceTagId":80411239,"sourceTagName":"巴宝莉/女包","rawTitle":"『Burberry 巴宝莉』\n\n🔥🔥B家格子料皮革钱夹,随附链饰皮革肩背带。本品可作为小型手袋单独使用,或作为钱夹收置于日常手袋内。专柜品质、做工精细实物拍摄,黑色格子尺寸21cm*12cm*3cm、8687"},"price":null,"currency":"CNY","moq":1,"category":"burberry-women-bags","status":"active","alibaba_url":null,"images":["https://xcimg.szwego.com/o_1fu902olvip51uh91jrkscbi2945.jpg","https://xcimg.szwego.com/o_1fu902olvplt1rbh7cjse4s46.jpg","https://xcimg.szwego.com/o_1fu902olvs751prtb0t92lor47.jpg","https://xcimg.szwego.com/o_1fu902olv8e2tgv1fal1k5714qg48.jpg","https://xcimg.szwego.com/o_1fu902olvdul16cc5lc1pie12f449.jpg","https://xcimg.szwego.com/o_1fu902olvq4j47q1kvs1p481f1s4a.jpg","https://xcimg.szwego.com/o_1fu902olv1l1d3ej121s1umpcvg4b.jpg","https://xcimg.szwego.com/o_1fu902olv1ggd1so699dk10fnv4c.jpg"],"created_at":"2025-02-08T12:43:38.720Z"},{"id":"item-97993656bdda","sku":"_dfSfSKuFg6pO5tMYNl7UrQJNxnDw1lODkOKVrlg","name_en":"『Burberry 巴宝莉』","name_cn":"『Burberry 巴宝莉』\n\n🔥🔥B家最新款典藏灵感的托特包,精选双色帆布拼缉明线细节的皮革制成,[玫瑰]顶部提柄携带,或使用可拆式肩背带。1个外侧翻盖口袋采用磁扣开合;1个内侧拉链口袋 尺寸:23 x 6 x 26.5c、2735","specs":{"source":"wsxcme","sourceId":"_dfSfSKuFg6pO5tMYNl7UrQJNxnDw1lODkOKVrlg","sourceTagId":80411239,"sourceTagName":"巴宝莉/女包","rawTitle":"『Burberry 巴宝莉』\n\n🔥🔥B家最新款典藏灵感的托特包,精选双色帆布拼缉明线细节的皮革制成,[玫瑰]顶部提柄携带,或使用可拆式肩背带。1个外侧翻盖口袋采用磁扣开合;1个内侧拉链口袋 尺寸:23 x 6 x 26.5c、2735"},"price":null,"currency":"CNY","moq":1,"category":"burberry-women-bags","status":"active","alibaba_url":null,"images":["https://xcimg.szwego.com/20200610/a1591767934722_2881.jpg","https://xcimg.szwego.com/20200610/a1591767935884_4434.jpg","https://xcimg.szwego.com/20200610/a1591767936440_2136.jpg","https://xcimg.szwego.com/20200610/a1591767937198_3201.jpg","https://xcimg.szwego.com/20200610/a1591767937726_7710.jpg","https://xcimg.szwego.com/20200610/a1591767938468_3610.jpg","https://xcimg.szwego.com/20200610/a1591767939315_6302.jpg","https://xcimg.szwego.com/20200610/a1591767940246_0416.jpg","https://xcimg.szwego.com/20200610/a1591767940831_5282.jpg"],"created_at":"2025-02-08T12:43:38.732Z"},{"id":"item-9546cfa2959a","sku":"_dIAIAHIRLzdhtow_-aWRfIQUIvqdmyCYDU75H8g","name_en":"『Burberry 巴宝莉』","name_cn":"『Burberry 巴宝莉』\n\n🔥🔥B家新款大号羊皮精巧别致的绗缝学院风萝纳包🤪🤪装饰 Thomas Burberry 专属标识,搭配亮泽的链条背带。可肩背,或使用顶部提柄缔造手拿包造型。24x6x15cm、8392","specs":{"source":"wsxcme","sourceId":"_dIAIAHIRLzdhtow_-aWRfIQUIvqdmyCYDU75H8g","sourceTagId":80411239,"sourceTagName":"巴宝莉/女包","rawTitle":"『Burberry 巴宝莉』\n\n🔥🔥B家新款大号羊皮精巧别致的绗缝学院风萝纳包🤪🤪装饰 Thomas Burberry 专属标识,搭配亮泽的链条背带。可肩背,或使用顶部提柄缔造手拿包造型。24x6x15cm、8392"},"price":null,"currency":"CNY","moq":1,"category":"burberry-women-bags","status":"active","alibaba_url":null,"images":["https://xcimg.szwego.com/20220425/a1650883419762_4007.jpg","https://xcimg.szwego.com/20220425/a1650883419835_6135.jpg","https://xcimg.szwego.com/20220425/a1650883419918_0461.jpg","https://xcimg.szwego.com/20220425/a1650883420000_7403.jpg","https://xcimg.szwego.com/20220425/a1650883420083_7835.jpg","https://xcimg.szwego.com/20220425/a1650883420187_8465.jpg","https://xcimg.szwego.com/20220425/a1650883420275_2871.jpg","https://xcimg.szwego.com/20220425/a1650883420375_1835.jpg","https://xcimg.szwego.com/20220425/a1650883420467_8258.jpg"],"created_at":"2025-02-08T12:43:38.709Z"},{"id":"item-93cf43bf221c","sku":"_dIvIvnGcH6kNp0EqLog3avTtnYEfFVKxEMt2QaQ","name_en":"『Burberry 巴宝莉』","name_cn":"『Burberry 巴宝莉』\n\n🔥🔥B家最经典中古vintage法棍腋下包,肩背或手提怎么搭配都洋气,包身很轻,内里一个拉链口袋,收纳方便,😆容量足 经典必入,洋气百搭,可休闲可职业,优雅与魅力,自带高级感!尺寸26-7-16!、2152","specs":{"source":"wsxcme","sourceId":"_dIvIvnGcH6kNp0EqLog3avTtnYEfFVKxEMt2QaQ","sourceTagId":80411239,"sourceTagName":"巴宝莉/女包","rawTitle":"『Burberry 巴宝莉』\n\n🔥🔥B家最经典中古vintage法棍腋下包,肩背或手提怎么搭配都洋气,包身很轻,内里一个拉链口袋,收纳方便,😆容量足 经典必入,洋气百搭,可休闲可职业,优雅与魅力,自带高级感!尺寸26-7-16!、2152"},"price":null,"currency":"CNY","moq":1,"category":"burberry-women-bags","status":"active","alibaba_url":null,"images":["https://xcimg.szwego.com/20201227/a1609076423133_8278.jpg","https://xcimg.szwego.com/20201227/a1609076423228_7023.jpg","https://xcimg.szwego.com/20201227/a1609076423326_6728.jpg","https://xcimg.szwego.com/20201227/a1609076423426_2564.jpg","https://xcimg.szwego.com/20201227/a1609076423526_7541.jpg","https://xcimg.szwego.com/20201227/a1609076423635_3188.jpg","https://xcimg.szwego.com/20201227/a1609076423727_8758.jpg","https://xcimg.szwego.com/20201227/a1609076423843_6660.jpg","https://xcimg.szwego.com/20201227/a1609076423952_7312.jpg"],"created_at":"2025-02-08T12:43:27.867Z"},{"id":"item-8f1281887fa0","sku":"_dLkLkST5cZgf7ehyfmLUhAFtODJc8HTupbe7zvw","name_en":"『Burberry 巴宝莉』","name_cn":"『Burberry 巴宝莉』\n\nB家中古vintage系列新款小号邮差包!进口复古棕厚度1.4厚牛皮,进口利蒙塔中古系列新款! 头层牛皮 搭配经典格纹 复古的棕色增加了文艺范! 格纹环保干净好打理,包包容量大小合适,可单肩可斜挎!满足日常所需!好物必收!\n尺寸:21/8.5/18cm!\n6880","specs":{"source":"wsxcme","sourceId":"_dLkLkST5cZgf7ehyfmLUhAFtODJc8HTupbe7zvw","sourceTagId":80411239,"sourceTagName":"巴宝莉/女包","rawTitle":"『Burberry 巴宝莉』\n\nB家中古vintage系列新款小号邮差包!进口复古棕厚度1.4厚牛皮,进口利蒙塔中古系列新款! 头层牛皮 搭配经典格纹 复古的棕色增加了文艺范! 格纹环保干净好打理,包包容量大小合适,可单肩可斜挎!满足日常所需!好物必收!\n尺寸:21/8.5/18cm!\n6880"},"price":null,"currency":"CNY","moq":1,"category":"burberry-women-bags","status":"active","alibaba_url":null,"images":["https://xcimg.szwego.com/20210902/i1630565517_8029_0.jpg","https://xcimg.szwego.com/20210902/i1630565517_9875_1.jpg","https://xcimg.szwego.com/20210902/i1630565517_7802_2.jpg","https://xcimg.szwego.com/20210902/i1630565517_3608_3.jpg","https://xcimg.szwego.com/20210902/i1630565517_6571_4.jpg","https://xcimg.szwego.com/20210902/i1630565517_1931_5.jpg","https://xcimg.szwego.com/20210902/i1630565517_6264_6.jpg","https://xcimg.szwego.com/20210902/i1630565517_2255_7.jpg","https://xcimg.szwego.com/20210902/i1630565517_5594_8.jpg"],"created_at":"2025-02-08T12:43:38.728Z"},{"id":"item-8c92804c1f35","sku":"_d9M9M24sXwf52vIyWD1a1ewvQWMCbbmPX2avY7Q","name_en":"『Burberry 巴宝莉』","name_cn":"『Burberry 巴宝莉』\n\n立挺有型的全新 TB 专属标识锁扣包,焕新精选意大利鞣制皮革打造。搭配 Thomas Bur专属标识锁扣,可缔造肩背或斜挎造型。\n尺寸:20 x 5.5 x 12.5cm\n款号:80522321\n外层:100%小牛皮\n装饰:100%小牛皮\n内衬:100%粘胶纤维\n可调式链条肩背带\n2个内侧卡位\n顶部翻盖搭配锁扣设计\n手绘涂漆边缘\n光泽金属配件\n意大利制","specs":{"source":"wsxcme","sourceId":"_d9M9M24sXwf52vIyWD1a1ewvQWMCbbmPX2avY7Q","sourceTagId":80411239,"sourceTagName":"巴宝莉/女包","modelNumber":"80522321","dimensions":{"lengthCm":20,"heightCm":5.5,"widthCm":12.5},"rawTitle":"『Burberry 巴宝莉』\n\n立挺有型的全新 TB 专属标识锁扣包,焕新精选意大利鞣制皮革打造。搭配 Thomas Bur专属标识锁扣,可缔造肩背或斜挎造型。\n尺寸:20 x 5.5 x 12.5cm\n款号:80522321\n外层:100%小牛皮\n装饰:100%小牛皮\n内衬:100%粘胶纤维\n可调式链条肩背带\n2个内侧卡位\n顶部翻盖搭配锁扣设计\n手绘涂漆边缘\n光泽金属配件\n意大利制"},"price":null,"currency":"CNY","moq":1,"category":"burberry-women-bags","status":"active","alibaba_url":null,"images":["https://xcimg.szwego.com/20220524/a1653324048300_8344.jpg","https://xcimg.szwego.com/20220524/a1653324048400_6086.jpg","https://xcimg.szwego.com/20220524/a1653324048519_4345.jpg","https://xcimg.szwego.com/20220524/a1653324048585_1513.jpg","https://xcimg.szwego.com/20220524/a1653324048669_2450.jpg","https://xcimg.szwego.com/20220524/a1653324048750_3331.jpg","https://xcimg.szwego.com/20220524/a1653324048884_6026.jpg","https://xcimg.szwego.com/20220524/a1653324048985_8411.jpg","https://xcimg.szwego.com/20220524/a1653324049066_8188.jpg"],"created_at":"2025-02-08T12:43:27.903Z"},{"id":"item-8bed65cb5321","sku":"_d_z_zqVmz4WJJ7o67gSQdMaU77U16BCNfxvzjlQ","name_en":"『Burberry 巴宝莉』","name_cn":"『Burberry 巴宝莉』\n\nB家中古vintage系列新款小号邮差包!进口复古棕厚度1.4厚牛皮,进口利蒙塔中古系列新款! 头层牛皮 搭配经典格纹 复古的棕色增加了文艺范! 格纹环保干净好打理,包包容量大小合适,可单肩可斜挎!满足日常所需!好物必收!\n尺寸:21/8.5/18cm!","specs":{"source":"wsxcme","sourceId":"_d_z_zqVmz4WJJ7o67gSQdMaU77U16BCNfxvzjlQ","sourceTagId":80411239,"sourceTagName":"巴宝莉/女包","rawTitle":"『Burberry 巴宝莉』\n\nB家中古vintage系列新款小号邮差包!进口复古棕厚度1.4厚牛皮,进口利蒙塔中古系列新款! 头层牛皮 搭配经典格纹 复古的棕色增加了文艺范! 格纹环保干净好打理,包包容量大小合适,可单肩可斜挎!满足日常所需!好物必收!\n尺寸:21/8.5/18cm!"},"price":null,"currency":"CNY","moq":1,"category":"burberry-women-bags","status":"active","alibaba_url":null,"images":["https://xcimg.szwego.com/20210902/i1630565560_2001_0.jpg","https://xcimg.szwego.com/20210902/i1630565560_6639_1.jpg","https://xcimg.szwego.com/20210902/i1630565560_1267_2.jpg","https://xcimg.szwego.com/20210902/i1630565560_4703_3.jpg","https://xcimg.szwego.com/20210902/i1630565560_1145_4.jpg","https://xcimg.szwego.com/20210902/i1630565560_507_5.jpg","https://xcimg.szwego.com/20210902/i1630565560_2498_6.jpg","https://xcimg.szwego.com/20210902/i1630565560_8677_7.jpg"],"created_at":"2025-02-08T12:43:27.898Z"},{"id":"item-8be3ac48ce40","sku":"_dtCtCcTFgMsdRqq_PQh8L58641RHJZC_ANdSQaQ","name_en":"『Burberry 巴宝莉』","name_cn":"『Burberry 巴宝莉』\n\n【B家】小号「Title - 泰尔勒手袋」,精选典藏 Vintage 复古格纹片裁‬打造,装饰光皮滑‬革边饰与三铆粒‬钉。可用顶提部‬柄手拎,或以拆可‬式背带缔造肩造背‬型。款号 8347\n尺寸:26 x 13.5 x 20cm","specs":{"source":"wsxcme","sourceId":"_dtCtCcTFgMsdRqq_PQh8L58641RHJZC_ANdSQaQ","sourceTagId":80411239,"sourceTagName":"巴宝莉/女包","modelNumber":"8347","dimensions":{"lengthCm":26,"heightCm":13.5,"widthCm":20},"rawTitle":"『Burberry 巴宝莉』\n\n【B家】小号「Title - 泰尔勒手袋」,精选典藏 Vintage 复古格纹片裁‬打造,装饰光皮滑‬革边饰与三铆粒‬钉。可用顶提部‬柄手拎,或以拆可‬式背带缔造肩造背‬型。款号 8347\n尺寸:26 x 13.5 x 20cm"},"price":null,"currency":"CNY","moq":1,"category":"burberry-women-bags","status":"active","alibaba_url":null,"images":["https://xcimg.szwego.com/20210629/i1624902958_8981_0.jpg","https://xcimg.szwego.com/20210629/i1624902958_462_1.jpg","https://xcimg.szwego.com/20210629/i1624902958_637_2.jpg","https://xcimg.szwego.com/20210629/i1624902958_3648_3.jpg","https://xcimg.szwego.com/20210629/i1624902958_1292_4.jpg","https://xcimg.szwego.com/20210629/i1624902958_8123_5.jpg","https://xcimg.szwego.com/20210629/i1624902958_4582_6.jpg","https://xcimg.szwego.com/20210629/i1624902958_3380_7.jpg","https://xcimg.szwego.com/20210629/i1624902958_9060_8.jpg"],"created_at":"2025-02-08T12:43:38.689Z"},{"id":"item-89e2c7274135","sku":"_dKCKCHArur4Pti4LpEzIOaM7kWW0ZMvr9dPrSgw","name_en":"『Burberry 巴宝莉』","name_cn":"『Burberry 巴宝莉』\n\n【B家顶级原单】小号双色帆布拼皮皮革Freya意大利精制托特包,选用缉明线皮革及棉质帆布制成,装饰品牌 Horseferry 印花。可使用顶部提柄手拎,或肩背携带。\n尺寸:33 x 12.5 x26cm\n2422","specs":{"source":"wsxcme","sourceId":"_dKCKCHArur4Pti4LpEzIOaM7kWW0ZMvr9dPrSgw","sourceTagId":80411239,"sourceTagName":"巴宝莉/女包","dimensions":{"lengthCm":33,"heightCm":12.5,"widthCm":26},"rawTitle":"『Burberry 巴宝莉』\n\n【B家顶级原单】小号双色帆布拼皮皮革Freya意大利精制托特包,选用缉明线皮革及棉质帆布制成,装饰品牌 Horseferry 印花。可使用顶部提柄手拎,或肩背携带。\n尺寸:33 x 12.5 x26cm\n2422"},"price":null,"currency":"CNY","moq":1,"category":"burberry-women-bags","status":"active","alibaba_url":null,"images":["https://xcimg.szwego.com/20210830/i1630331249_5189_0.jpg","https://xcimg.szwego.com/20210830/i1630331249_8918_1.jpg","https://xcimg.szwego.com/20210830/i1630331249_837_2.jpg","https://xcimg.szwego.com/20210830/i1630331249_6053_3.jpg","https://xcimg.szwego.com/20210830/i1630331249_5473_4.jpg","https://xcimg.szwego.com/20210830/i1630331249_5874_5.jpg","https://xcimg.szwego.com/20210830/i1630331249_8126_6.jpg","https://xcimg.szwego.com/20210830/i1630331249_2247_7.jpg","https://xcimg.szwego.com/20210830/i1630331249_8483_8.jpg"],"created_at":"2025-02-08T12:43:27.879Z"},{"id":"item-89af2e1ec42d","sku":"_d7575rpVw7Xim8uBxmduoLwE_EIfCEDdfSxiBkA","name_en":"『Burberry 巴宝莉』","name_cn":"『Burberry 巴宝莉』\n\nB家  精巧的斜背包,精选缉明线皮革与帆布打造,装饰品牌时装秀款 Horseferry 印花,设有精美的徽标镌刻按扣。随心打造斜背、肩背或手拿包造型。\n尺寸:25 x 8.5 x 18cm\n款号:8350","specs":{"source":"wsxcme","sourceId":"_d7575rpVw7Xim8uBxmduoLwE_EIfCEDdfSxiBkA","sourceTagId":80411239,"sourceTagName":"巴宝莉/女包","modelNumber":"8350","dimensions":{"lengthCm":25,"heightCm":8.5,"widthCm":18},"rawTitle":"『Burberry 巴宝莉』\n\nB家  精巧的斜背包,精选缉明线皮革与帆布打造,装饰品牌时装秀款 Horseferry 印花,设有精美的徽标镌刻按扣。随心打造斜背、肩背或手拿包造型。\n尺寸:25 x 8.5 x 18cm\n款号:8350"},"price":null,"currency":"CNY","moq":1,"category":"burberry-women-bags","status":"active","alibaba_url":null,"images":["https://xcimg.szwego.com/20210630/i1624983735_71_0.jpg","https://xcimg.szwego.com/20210630/i1624983735_1411_1.jpg","https://xcimg.szwego.com/20210630/i1624983735_2712_2.jpg","https://xcimg.szwego.com/20210630/i1624983735_6008_3.jpg","https://xcimg.szwego.com/20210630/i1624983735_3555_4.jpg","https://xcimg.szwego.com/20210630/i1624983735_2498_5.jpg","https://xcimg.szwego.com/20210630/i1624983735_907_6.jpg","https://xcimg.szwego.com/20210630/i1624983735_9989_7.jpg","https://xcimg.szwego.com/20210630/i1624983735_243_8.jpg"],"created_at":"2025-02-08T12:43:38.688Z"},{"id":"item-8952abe2f0c6","sku":"_dycyclhfY3KBVr4gUbI2WL5RoBJxQysLL3lvUcw","name_en":"『Burberry 巴宝莉』","name_cn":"『Burberry 巴宝莉』\n\n🔥🔥B家格子料皮革钱夹,随附链饰皮革肩背带。本品可作为小型手袋单独使用,或作为钱夹收置于日常手袋内。专柜品质、做工精细实物拍摄,黑色格子尺寸21cm*12cm*3cm、8687","specs":{"source":"wsxcme","sourceId":"_dycyclhfY3KBVr4gUbI2WL5RoBJxQysLL3lvUcw","sourceTagId":80411239,"sourceTagName":"巴宝莉/女包","rawTitle":"『Burberry 巴宝莉』\n\n🔥🔥B家格子料皮革钱夹,随附链饰皮革肩背带。本品可作为小型手袋单独使用,或作为钱夹收置于日常手袋内。专柜品质、做工精细实物拍摄,黑色格子尺寸21cm*12cm*3cm、8687"},"price":null,"currency":"CNY","moq":1,"category":"burberry-women-bags","status":"active","alibaba_url":null,"images":["https://xcimg.szwego.com/o_1fu9013n81fn41dc41jmc12kj13mtq.jpg","https://xcimg.szwego.com/o_1fu901hb98i3m9n1pa5frv1ld517.jpg","https://xcimg.szwego.com/o_1fu901hb9i9uigf10mujum34418.jpg","https://xcimg.szwego.com/o_1fu901hb91k3upuk10nb16t51gre19.jpg","https://xcimg.szwego.com/o_1fu901hb918gobci135a1pmg107k1a.jpg","https://xcimg.szwego.com/o_1fu901hb91alatjpj0k17ke1hk31b.jpg","https://xcimg.szwego.com/o_1fu901hb917m75251djh1t2o1hj81c.jpg","https://xcimg.szwego.com/o_1fu901hb9tcn1icehfupuiqmb1d.jpg","https://xcimg.szwego.com/o_1fu901hb9pkgvmn11lned1hgn1e.jpg"],"created_at":"2025-02-08T12:43:38.718Z"},{"id":"item-87112ed0b89b","sku":"_dsUsUQ52AOQjQi9WhgAfAbWwUWRthFZk1_f5SsA","name_en":"『Burberry 巴宝莉』","name_cn":"『Burberry 巴宝莉』\n\n🔥🔥B家中古战马水桶包,原单品质!🤩进口战马格纹pvc,双经双纬细帆布内衬都是别家拿来做面料的,完美的水桶定型,尺寸22×15×27cm、6882","specs":{"source":"wsxcme","sourceId":"_dsUsUQ52AOQjQi9WhgAfAbWwUWRthFZk1_f5SsA","sourceTagId":80411239,"sourceTagName":"巴宝莉/女包","dimensions":{"lengthCm":22,"heightCm":15,"widthCm":27},"rawTitle":"『Burberry 巴宝莉』\n\n🔥🔥B家中古战马水桶包,原单品质!🤩进口战马格纹pvc,双经双纬细帆布内衬都是别家拿来做面料的,完美的水桶定型,尺寸22×15×27cm、6882"},"price":null,"currency":"CNY","moq":1,"category":"burberry-women-bags","status":"active","alibaba_url":null,"images":["https://xcimg.szwego.com/o_1f5aivagc192h1hgpqsc1k9f1fpv76.jpg","https://xcimg.szwego.com/o_1f5aivagd18f3k9j1vtjhq0gdb77.jpg","https://xcimg.szwego.com/o_1f5aivagd1nii1fei2b51dol1l7878.jpg","https://xcimg.szwego.com/o_1f5aivagd1tse1p511k6s1asb1qd79.jpg","https://xcimg.szwego.com/o_1f5aivagde3i9m8fjq1pl91d4f7a.jpg","https://xcimg.szwego.com/o_1f5aivagd1dhq1p2kpo315e7jiq7b.jpg","https://xcimg.szwego.com/o_1f5aivagd1ipn8nc211aa1c8e7c.jpg","https://xcimg.szwego.com/o_1f5aivagdqfi1a0r1v2q3b6ret7d.jpg","https://xcimg.szwego.com/o_1f5aivagd7751vcs1af91qgp1uc77e.jpg"],"created_at":"2025-02-08T12:43:38.724Z"},{"id":"item-866a326a4460","sku":"_dddddmet2MU7-rlmbXpyw0CnKQR2I-fJCDgCHsw","name_en":"『Burberry 巴宝莉』","name_cn":"『Burberry 巴宝莉』\n\n🔥🔥B家精巧的斜背包,选用意大利鞣制粒纹皮革与典藏 Vintage 复古格纹裁片打造。😁😁可单肩背、斜背,或缔造手拿包造型。21 x 4.5 x 12.5cm、6601","specs":{"source":"wsxcme","sourceId":"_dddddmet2MU7-rlmbXpyw0CnKQR2I-fJCDgCHsw","sourceTagId":80411239,"sourceTagName":"巴宝莉/女包","rawTitle":"『Burberry 巴宝莉』\n\n🔥🔥B家精巧的斜背包,选用意大利鞣制粒纹皮革与典藏 Vintage 复古格纹裁片打造。😁😁可单肩背、斜背,或缔造手拿包造型。21 x 4.5 x 12.5cm、6601"},"price":null,"currency":"CNY","moq":1,"category":"burberry-women-bags","status":"active","alibaba_url":null,"images":["https://xcimg.szwego.com/o_1f2dtkh834hkc82kenakg1d53l.jpg","https://xcimg.szwego.com/o_1f2dtkh8318ca7a21cspqek1m1em.jpg","https://xcimg.szwego.com/o_1f2dtkh83ktd10fl1g7ocmc13hhn.jpg","https://xcimg.szwego.com/o_1f2dtkh83v4n1ue11rra1aqbaf0o.jpg","https://xcimg.szwego.com/o_1f2dtkh83ugidql1l26j3hlqip.jpg","https://xcimg.szwego.com/o_1f2dtkh83op91i7r431no6o8rq.jpg","https://xcimg.szwego.com/o_1f2dtkh836msamojlm1n8t4qsr.jpg","https://xcimg.szwego.com/o_1f2dtkh8313g814jq1b2j1u4l1uf1s.jpg","https://xcimg.szwego.com/o_1f2dtkh831vnjb4v1bptf1t9eit.jpg"],"created_at":"2025-02-08T12:43:38.716Z"},{"id":"item-84595db75c1b","sku":"_dHoHoiYfQasArI3wnQ-LQObX27xXB8g76YoBjyw","name_en":"『Burberry 巴宝莉』","name_cn":"『Burberry 巴宝莉』\n\n🔥🔥B家新款羊皮精巧别致的绗缝学院风萝纳包🤪🤪装饰 Thomas Burberry 专属标识,搭配亮泽的链条背带。可肩背,或使用顶部提柄缔造手拿包造型。26 x 10 x 18cm、8396","specs":{"source":"wsxcme","sourceId":"_dHoHoiYfQasArI3wnQ-LQObX27xXB8g76YoBjyw","sourceTagId":80411239,"sourceTagName":"巴宝莉/女包","rawTitle":"『Burberry 巴宝莉』\n\n🔥🔥B家新款羊皮精巧别致的绗缝学院风萝纳包🤪🤪装饰 Thomas Burberry 专属标识,搭配亮泽的链条背带。可肩背,或使用顶部提柄缔造手拿包造型。26 x 10 x 18cm、8396"},"price":null,"currency":"CNY","moq":1,"category":"burberry-women-bags","status":"active","alibaba_url":null,"images":["https://xcimg.szwego.com/20220425/a1650880791124_4117.jpg","https://xcimg.szwego.com/20220425/a1650880791227_8261.jpg","https://xcimg.szwego.com/20220425/a1650880791334_8300.jpg","https://xcimg.szwego.com/20220425/a1650880791450_0652.jpg","https://xcimg.szwego.com/20220425/a1650880791567_3828.jpg","https://xcimg.szwego.com/20220425/a1650880791677_6164.jpg","https://xcimg.szwego.com/20220425/a1650880791790_8411.jpg","https://xcimg.szwego.com/20220425/a1650880791910_3135.jpg","https://xcimg.szwego.com/20220425/a1650880792026_0872.jpg"],"created_at":"2025-02-08T12:43:38.707Z"},{"id":"item-7ea5b2b4864e","sku":"_dtWtW9AVh_2ZoKaw6c7FRWLs6sFf9Fu42oBT4Tg","name_en":"『Burberry 巴宝莉』","name_cn":"『Burberry 巴宝莉』\n\n🔥🔥B家精巧的斜背包,选用粒纹皮革与 Vintage 复古格纹打造,设有徽标镌刻按扣。搭配可拆式背带,点缀提花精纺的品牌徽标。随心变换为肩背包或手拿包造型。25 x 8.5 x 18cm、1208","specs":{"source":"wsxcme","sourceId":"_dtWtW9AVh_2ZoKaw6c7FRWLs6sFf9Fu42oBT4Tg","sourceTagId":80411239,"sourceTagName":"巴宝莉/女包","rawTitle":"『Burberry 巴宝莉』\n\n🔥🔥B家精巧的斜背包,选用粒纹皮革与 Vintage 复古格纹打造,设有徽标镌刻按扣。搭配可拆式背带,点缀提花精纺的品牌徽标。随心变换为肩背包或手拿包造型。25 x 8.5 x 18cm、1208"},"price":null,"currency":"CNY","moq":1,"category":"burberry-women-bags","status":"active","alibaba_url":null,"images":["https://xcimg.szwego.com/20201213/a1607869262703_4467.jpg","https://xcimg.szwego.com/20201213/a1607869263344_1411.jpg","https://xcimg.szwego.com/20201213/a1607869263718_1786.jpg","https://xcimg.szwego.com/20201213/a1607869264097_4212.jpg","https://xcimg.szwego.com/20201213/a1607869264425_5087.jpg","https://xcimg.szwego.com/20201213/a1607869264816_5050.jpg","https://xcimg.szwego.com/20201213/a1607869265435_5470.jpg","https://xcimg.szwego.com/20201213/a1607869265933_8587.jpg","https://xcimg.szwego.com/20201213/a1607869266560_2813.jpg"],"created_at":"2025-02-08T12:43:27.856Z"},{"id":"item-7e5995df1fd6","sku":"_dTvTv3dMXxJfcHldHHz40NCTCT6NXe81Q4wJmsw","name_en":"『Burberry 巴宝莉』","name_cn":"『Burberry 巴宝莉』\n\n【Burberry•柏宝利】原单出品🇮🇹~~小肩包手包两用🎉👉细腻[玫瑰]柔软的进口小牛皮搭配格子面料,金色五金配件,👍专柜品质、做工精细💋实物拍摄📷,🆔🆔18696棕色,尺寸19cm*13.5cm*5cm","specs":{"source":"wsxcme","sourceId":"_dTvTv3dMXxJfcHldHHz40NCTCT6NXe81Q4wJmsw","sourceTagId":80411239,"sourceTagName":"巴宝莉/女包","rawTitle":"『Burberry 巴宝莉』\n\n【Burberry•柏宝利】原单出品🇮🇹~~小肩包手包两用🎉👉细腻[玫瑰]柔软的进口小牛皮搭配格子面料,金色五金配件,👍专柜品质、做工精细💋实物拍摄📷,🆔🆔18696棕色,尺寸19cm*13.5cm*5cm"},"price":null,"currency":"CNY","moq":1,"category":"burberry-women-bags","status":"active","alibaba_url":null,"images":["https://xcimg.szwego.com/1531640465_2894210061_0","https://xcimg.szwego.com/1531640465_3044033011_1","https://xcimg.szwego.com/1531640465_2313787834_2","https://xcimg.szwego.com/1531640465_1436689406_3","https://xcimg.szwego.com/1531640465_234171227_4","https://xcimg.szwego.com/1531640465_1047705546_5","https://xcimg.szwego.com/1531640465_4224895450_6","https://xcimg.szwego.com/1531640465_2040930900_7","https://xcimg.szwego.com/1531640465_392243786_8"],"created_at":"2025-02-08T12:43:38.715Z"},{"id":"item-795d28ed8823","sku":"_dwGwGaiH3FOoqdkIi30RrjOULaTtP9KhY1JjO2g","name_en":"『Burberry 巴宝莉』","name_cn":"『Burberry 巴宝莉』\n\nB家柔和挺括的相机包,选用典藏 Vintage 复古格纹材质制作,搭配意大利鞣制皮革边饰。可单肩挎背,或调节背带缔造斜背造型。\n尺寸:23 x 4.7 x 13cm、6618!","specs":{"source":"wsxcme","sourceId":"_dwGwGaiH3FOoqdkIi30RrjOULaTtP9KhY1JjO2g","sourceTagId":80411239,"sourceTagName":"巴宝莉/女包","dimensions":{"lengthCm":23,"heightCm":4.7,"widthCm":13},"rawTitle":"『Burberry 巴宝莉』\n\nB家柔和挺括的相机包,选用典藏 Vintage 复古格纹材质制作,搭配意大利鞣制皮革边饰。可单肩挎背,或调节背带缔造斜背造型。\n尺寸:23 x 4.7 x 13cm、6618!"},"price":null,"currency":"CNY","moq":1,"category":"burberry-women-bags","status":"active","alibaba_url":null,"images":["https://xcimg.szwego.com/20220530/i1653889124_1074_0.jpg","https://xcimg.szwego.com/20220530/i1653889124_6399_1.jpg","https://xcimg.szwego.com/20220530/i1653889124_6781_2.jpg","https://xcimg.szwego.com/20220530/i1653889124_5907_3.jpg","https://xcimg.szwego.com/20220530/i1653889124_4013_4.jpg","https://xcimg.szwego.com/20220530/i1653889124_6366_5.jpg","https://xcimg.szwego.com/20220530/i1653889124_9913_6.jpg","https://xcimg.szwego.com/20220530/i1653889124_2850_7.jpg"],"created_at":"2025-02-08T12:43:27.804Z"},{"id":"item-730e13165349","sku":"_dsxsxaGkifJrlT9G1hhPlyq3TWY7_lGst42qxhA","name_en":"『Burberry 巴宝莉』","name_cn":"『Burberry 巴宝莉』\n\n🔥 🔥Vintage 格纹拼皮革钱夹,随附链饰皮革肩背带。本品可作为小型手袋单独使用,或作为钱夹收置于日常手袋内。👍专柜品质、做工精细💋实物拍摄📷,8687丅B花格,尺寸21cm*12cm*3cm  !","specs":{"source":"wsxcme","sourceId":"_dsxsxaGkifJrlT9G1hhPlyq3TWY7_lGst42qxhA","sourceTagId":80411239,"sourceTagName":"巴宝莉/女包","rawTitle":"『Burberry 巴宝莉』\n\n🔥 🔥Vintage 格纹拼皮革钱夹,随附链饰皮革肩背带。本品可作为小型手袋单独使用,或作为钱夹收置于日常手袋内。👍专柜品质、做工精细💋实物拍摄📷,8687丅B花格,尺寸21cm*12cm*3cm  !"},"price":null,"currency":"CNY","moq":1,"category":"burberry-women-bags","status":"active","alibaba_url":null,"images":["https://xcimg.szwego.com/20200412/a1586668424206_5876.jpg","https://xcimg.szwego.com/20200412/a1586668424749_6013.jpg","https://xcimg.szwego.com/20200412/a1586668425139_6007.jpg","https://xcimg.szwego.com/20200412/a1586668425522_1805.jpg","https://xcimg.szwego.com/20200412/a1586668425881_6773.jpg","https://xcimg.szwego.com/20200412/a1586668426211_1513.jpg","https://xcimg.szwego.com/20200412/a1586668426647_7688.jpg","https://xcimg.szwego.com/20200412/a1586668427114_5256.jpg","https://xcimg.szwego.com/20200412/a1586668427677_5713.jpg"],"created_at":"2025-02-08T12:43:38.721Z"},{"id":"item-722f5a24413f","sku":"_dj8j8r5D0wjtYcm1_Uw4J7PUt3zG4XdGHMZ6yTw","name_en":"『Burberry 巴宝莉』","name_cn":"『Burberry 巴宝莉』\n\n小号斜背包款「Title-泰尔特手袋」,精选li缉明线装饰的皮革与帆布打造,装饰时装秀款Horseferry印花,采用精致顶部金属杆设计,以及三粒铆钉开合\n尺寸:W19×H15×D5cm\n款号:2731、小号\n肩背带最短垂直佩戴长度:47cm\n肩背带最长垂直佩戴长度:53cm\n可调式斜背带\n2个内侧隔层\n顶部翻盖采用磁扣开合\n手绘涂漆边缘\n亮泽金属配件\n意大利制","specs":{"source":"wsxcme","sourceId":"_dj8j8r5D0wjtYcm1_Uw4J7PUt3zG4XdGHMZ6yTw","sourceTagId":80411239,"sourceTagName":"巴宝莉/女包","modelNumber":"2731、小号","rawTitle":"『Burberry 巴宝莉』\n\n小号斜背包款「Title-泰尔特手袋」,精选li缉明线装饰的皮革与帆布打造,装饰时装秀款Horseferry印花,采用精致顶部金属杆设计,以及三粒铆钉开合\n尺寸:W19×H15×D5cm\n款号:2731、小号\n肩背带最短垂直佩戴长度:47cm\n肩背带最长垂直佩戴长度:53cm\n可调式斜背带\n2个内侧隔层\n顶部翻盖采用磁扣开合\n手绘涂漆边缘\n亮泽金属配件\n意大利制"},"price":null,"currency":"CNY","moq":1,"category":"burberry-women-bags","status":"active","alibaba_url":null,"images":["https://xcimg.szwego.com/20210926/i1632637738_7037_0.jpg","https://xcimg.szwego.com/20210926/i1632637738_9017_1.jpg","https://xcimg.szwego.com/20210926/i1632637738_8877_2.jpg","https://xcimg.szwego.com/20210926/i1632637738_3758_3.jpg","https://xcimg.szwego.com/20210926/i1632637738_3182_4.jpg","https://xcimg.szwego.com/20210926/i1632637738_7997_5.jpg","https://xcimg.szwego.com/20210926/i1632637738_9450_6.jpg","https://xcimg.szwego.com/20210926/i1632637738_5134_7.jpg","https://xcimg.szwego.com/20210926/i1632637738_5405_8.jpg"],"created_at":"2025-02-08T12:43:27.897Z"},{"id":"item-71e85cc332a4","sku":"_dl2l2pt5yVOkYNk117BJnbksd8B9aJTWmvv6y6g","name_en":"『Burberry 巴宝莉』","name_cn":"『Burberry 巴宝莉』\n\n🔥🔥B家新款大号双色帆布拼皮托特包,选用缉明线皮革及棉质帆布制成,可使用顶部提柄手拎,或使用可调式肩背带携带。\n尺寸:33x12.5x26cm、2422","specs":{"source":"wsxcme","sourceId":"_dl2l2pt5yVOkYNk117BJnbksd8B9aJTWmvv6y6g","sourceTagId":80411239,"sourceTagName":"巴宝莉/女包","dimensions":{"lengthCm":33,"heightCm":12.5,"widthCm":26},"rawTitle":"『Burberry 巴宝莉』\n\n🔥🔥B家新款大号双色帆布拼皮托特包,选用缉明线皮革及棉质帆布制成,可使用顶部提柄手拎,或使用可调式肩背带携带。\n尺寸:33x12.5x26cm、2422"},"price":null,"currency":"CNY","moq":1,"category":"burberry-women-bags","status":"active","alibaba_url":null,"images":["https://xcimg.szwego.com/20211013/a1634102892322_3171.jpg","https://xcimg.szwego.com/20211013/a1634102892414_8221.jpg","https://xcimg.szwego.com/20211013/a1634102892537_7345.jpg","https://xcimg.szwego.com/20211013/a1634102892672_6747.jpg","https://xcimg.szwego.com/20211013/a1634102892797_2375.jpg","https://xcimg.szwego.com/20211013/a1634102892947_4345.jpg","https://xcimg.szwego.com/20211013/a1634102893082_5151.jpg","https://xcimg.szwego.com/20211013/a1634102893231_0650.jpg","https://xcimg.szwego.com/20211013/a1634102893388_4851.jpg"],"created_at":"2025-02-08T12:43:27.886Z"},{"id":"item-71b28536288f","sku":"_dJIJIEVn5GwXNqmcss5ITdP_eqx8-Mw8F3pDHHg","name_en":"『Burberry 巴宝莉』","name_cn":"『Burberry 巴宝莉』\n\n🔥🔥B家 Haymarket Check格纹巴宝莉枕头包 小牛皮😄 顶级抛光五金  超百搭 超能装 尺寸:20cm14cm11cm、1219","specs":{"source":"wsxcme","sourceId":"_dJIJIEVn5GwXNqmcss5ITdP_eqx8-Mw8F3pDHHg","sourceTagId":80411239,"sourceTagName":"巴宝莉/女包","rawTitle":"『Burberry 巴宝莉』\n\n🔥🔥B家 Haymarket Check格纹巴宝莉枕头包 小牛皮😄 顶级抛光五金  超百搭 超能装 尺寸:20cm14cm11cm、1219"},"price":null,"currency":"CNY","moq":1,"category":"burberry-women-bags","status":"active","alibaba_url":null,"images":["https://xcimg.szwego.com/20201227/a1609075632316_4154.jpg","https://xcimg.szwego.com/20201227/a1609075632432_4558.jpg","https://xcimg.szwego.com/20201227/a1609075632572_5105.jpg","https://xcimg.szwego.com/20201227/a1609075632696_2612.jpg","https://xcimg.szwego.com/20201227/a1609075632802_2073.jpg","https://xcimg.szwego.com/20201227/a1609075632916_4437.jpg","https://xcimg.szwego.com/20201227/a1609075633038_6687.jpg","https://xcimg.szwego.com/20201227/a1609075633177_2141.jpg","https://xcimg.szwego.com/20201227/a1609075633290_6743.jpg"],"created_at":"2025-02-08T12:43:38.700Z"}],"page":34,"pageSize":24,"total":10075,"totalPages":420}
