{"items":[{"id":"item-e70e1427bf04","sku":"_d-D-DnjEQpdJw-0AUgvjJPRuZeG6jBQ82g38j-w","name_en":"Birkin 25 亮面鳄鱼🐊 全手工","name_cn":"Birkin 25 亮面鳄鱼🐊 全手工","specs":{"source":"wsxcme","sourceId":"_d-D-DnjEQpdJw-0AUgvjJPRuZeG6jBQ82g38j-w","sourceTagId":76963559,"sourceTagName":"爱马仕/女包","rawTitle":"Birkin 25 亮面鳄鱼🐊 全手工"},"price":null,"currency":"CNY","moq":1,"category":"hermes-women-bags","status":"active","alibaba_url":null,"images":["https://xcimg.szwego.com/img/9ee4266d/20240802/i1722587104_12_6.jpg","https://xcimg.szwego.com/img/9ee4266d/20240802/i1722587104_8279_2.jpg","https://xcimg.szwego.com/img/9ee4266d/20240802/i1722587104_7387_1.jpg","https://xcimg.szwego.com/img/9ee4266d/20240802/i1722587104_5069_5.jpg","https://xcimg.szwego.com/img/9ee4266d/20240802/i1722587104_7331_4.jpg","https://xcimg.szwego.com/img/9ee4266d/20240802/i1722587104_8294_3.jpg","https://xcimg.szwego.com/img/9ee4266d/20240802/i1722587104_8400_0.jpg"],"created_at":"2024-10-22T04:43:02.151Z"},{"id":"item-db53f5d59de7","sku":"_dJxJxZxPDPwAOrm80sn2p68bRiJKiI9Ma8Td7RQ","name_en":"Birkin 25 亮面鳄鱼🐊 全手工","name_cn":"Birkin 25 亮面鳄鱼🐊 全手工","specs":{"source":"wsxcme","sourceId":"_dJxJxZxPDPwAOrm80sn2p68bRiJKiI9Ma8Td7RQ","sourceTagId":76963559,"sourceTagName":"爱马仕/女包","rawTitle":"Birkin 25 亮面鳄鱼🐊 全手工"},"price":null,"currency":"CNY","moq":1,"category":"hermes-women-bags","status":"active","alibaba_url":null,"images":["https://xcimg.szwego.com/img/9ee4266d/20240802/i1722586238_9776_2.jpg","https://xcimg.szwego.com/img/9ee4266d/20240802/i1722586238_7479_0.jpg","https://xcimg.szwego.com/img/9ee4266d/20240802/i1722586238_1769_1.jpg","https://xcimg.szwego.com/img/9ee4266d/20240802/i1722586238_9525_3.jpg","https://xcimg.szwego.com/img/9ee4266d/20240802/i1722586239_6749_4.jpg","https://xcimg.szwego.com/img/9ee4266d/20240802/i1722586239_1538_5.jpg","https://xcimg.szwego.com/img/9ee4266d/20240802/i1722586243_1791_0.jpg"],"created_at":"2024-10-22T04:43:02.175Z"},{"id":"item-ce39718a85ee","sku":"_dgOgOias2_ynrD_z1AbiMv2xQslAD_P02K1zphg","name_en":"Birkin 25 亮面鳄鱼🐊 全手工","name_cn":"Birkin 25 亮面鳄鱼🐊 全手工","specs":{"source":"wsxcme","sourceId":"_dgOgOias2_ynrD_z1AbiMv2xQslAD_P02K1zphg","sourceTagId":76963559,"sourceTagName":"爱马仕/女包","rawTitle":"Birkin 25 亮面鳄鱼🐊 全手工"},"price":null,"currency":"CNY","moq":1,"category":"hermes-women-bags","status":"active","alibaba_url":null,"images":["https://xcimg.szwego.com/img/9ee4266d/20240802/i1722585632_8634_1.jpg","https://xcimg.szwego.com/img/9ee4266d/20240802/i1722585632_672_3.jpg","https://xcimg.szwego.com/img/9ee4266d/20240802/i1722585631_2971_0.jpg","https://xcimg.szwego.com/img/9ee4266d/20240802/i1722585632_6077_4.jpg","https://xcimg.szwego.com/img/9ee4266d/20240802/i1722585632_7476_5.jpg","https://xcimg.szwego.com/img/9ee4266d/20240802/i1722585632_5558_6.jpg","https://xcimg.szwego.com/img/9ee4266d/20240802/i1722585632_348_2.jpg"],"created_at":"2024-10-22T04:43:02.170Z"},{"id":"item-cdaf1b188b1f","sku":"_djwjw1nwFQq64_NOWwLM2sQ7oxcp6YmvaR5W9Fg","name_en":"Birkin 25 亮面鳄鱼🐊 全手工","name_cn":"Birkin 25 亮面鳄鱼🐊 全手工","specs":{"source":"wsxcme","sourceId":"_djwjw1nwFQq64_NOWwLM2sQ7oxcp6YmvaR5W9Fg","sourceTagId":76963559,"sourceTagName":"爱马仕/女包","rawTitle":"Birkin 25 亮面鳄鱼🐊 全手工"},"price":null,"currency":"CNY","moq":1,"category":"hermes-women-bags","status":"active","alibaba_url":null,"images":["https://xcimg.szwego.com/img/9ee4266d/20240802/i1722586409_6137_6.jpg","https://xcimg.szwego.com/img/9ee4266d/20240802/i1722586409_4375_3.jpg","https://xcimg.szwego.com/img/9ee4266d/20240802/i1722586409_1699_2.jpg","https://xcimg.szwego.com/img/9ee4266d/20240802/i1722586409_5000_4.jpg","https://xcimg.szwego.com/img/9ee4266d/20240802/i1722586409_7097_0.jpg","https://xcimg.szwego.com/img/9ee4266d/20240802/i1722586409_9285_1.jpg","https://xcimg.szwego.com/img/9ee4266d/20240802/i1722586409_7652_5.jpg"],"created_at":"2024-10-22T04:43:02.176Z"},{"id":"item-c6b1ce26d20d","sku":"_dxlxlLWBCjA1DHks10EMeynEh2lKLCz5jOayW1Q","name_en":"Birkin 25 亮面鳄鱼🐊 全手工","name_cn":"Birkin 25 亮面鳄鱼🐊 全手工","specs":{"source":"wsxcme","sourceId":"_dxlxlLWBCjA1DHks10EMeynEh2lKLCz5jOayW1Q","sourceTagId":76963559,"sourceTagName":"爱马仕/女包","rawTitle":"Birkin 25 亮面鳄鱼🐊 全手工"},"price":null,"currency":"CNY","moq":1,"category":"hermes-women-bags","status":"active","alibaba_url":null,"images":["https://xcimg.szwego.com/img/9ee4266d/20240802/i1722586187_8432_6.jpg","https://xcimg.szwego.com/img/9ee4266d/20240802/i1722586187_6291_2.jpg","https://xcimg.szwego.com/img/9ee4266d/20240802/i1722586187_6097_0.jpg","https://xcimg.szwego.com/img/9ee4266d/20240802/i1722586187_9324_1.jpg","https://xcimg.szwego.com/img/9ee4266d/20240802/i1722586187_6552_7.jpg","https://xcimg.szwego.com/img/9ee4266d/20240802/i1722586187_3506_3.jpg","https://xcimg.szwego.com/img/9ee4266d/20240802/i1722586187_7412_9.jpg","https://xcimg.szwego.com/img/9ee4266d/20240802/i1722586187_3140_4.jpg","https://xcimg.szwego.com/img/9ee4266d/20240802/i1722586187_661_5.jpg","https://xcimg.szwego.com/img/9ee4266d/20240802/i1722586187_1049_8.jpg"],"created_at":"2024-10-22T04:43:02.173Z"},{"id":"item-b8ce2e963b6d","sku":"_dEqEqxcXuSZ14kvD0L7yZPwMBe7CYD5AXpq6wLw","name_en":"Birkin 25 亮面鳄鱼🐊 全手工","name_cn":"Birkin 25 亮面鳄鱼🐊 全手工","specs":{"source":"wsxcme","sourceId":"_dEqEqxcXuSZ14kvD0L7yZPwMBe7CYD5AXpq6wLw","sourceTagId":76963559,"sourceTagName":"爱马仕/女包","rawTitle":"Birkin 25 亮面鳄鱼🐊 全手工"},"price":null,"currency":"CNY","moq":1,"category":"hermes-women-bags","status":"active","alibaba_url":null,"images":["https://xcimg.szwego.com/img/9ee4266d/20240722/i1721651503_1733_3.jpg","https://xcimg.szwego.com/img/9ee4266d/20240722/i1721651503_7762_1.jpg","https://xcimg.szwego.com/img/9ee4266d/20240722/i1721651502_832_0.jpg","https://xcimg.szwego.com/img/9ee4266d/20240722/i1721651503_544_5.jpg","https://xcimg.szwego.com/img/9ee4266d/20240722/i1721651503_6643_2.jpg","https://xcimg.szwego.com/img/9ee4266d/20240722/i1721651503_2305_4.jpg","https://xcimg.szwego.com/img/9ee4266d/20240722/i1721651503_6862_6.jpg"],"created_at":"2024-10-22T04:43:02.159Z"},{"id":"item-b82b3cdf9ba1","sku":"_dQJQJ4nj648-KnkPyeUMXY5skmrrIxbs0LFtVzw","name_en":"Birkin 25 亮面鳄鱼🐊 全手工","name_cn":"Birkin 25 亮面鳄鱼🐊 全手工","specs":{"source":"wsxcme","sourceId":"_dQJQJ4nj648-KnkPyeUMXY5skmrrIxbs0LFtVzw","sourceTagId":76963559,"sourceTagName":"爱马仕/女包","rawTitle":"Birkin 25 亮面鳄鱼🐊 全手工"},"price":null,"currency":"CNY","moq":1,"category":"hermes-women-bags","status":"active","alibaba_url":null,"images":["https://xcimg.szwego.com/img/9ee4266d/20240722/i1721652332_9641_6.jpg","https://xcimg.szwego.com/img/9ee4266d/20240722/i1721652332_7835_2.jpg","https://xcimg.szwego.com/img/9ee4266d/20240722/i1721652332_9189_1.jpg","https://xcimg.szwego.com/img/9ee4266d/20240722/i1721652335_7135_0.jpg","https://xcimg.szwego.com/img/9ee4266d/20240722/i1721652335_4216_0.jpg","https://xcimg.szwego.com/img/9ee4266d/20240722/i1721652332_4623_4.jpg","https://xcimg.szwego.com/img/9ee4266d/20240722/i1721652332_7774_5.jpg"],"created_at":"2024-10-22T04:43:02.164Z"},{"id":"item-b11a02f792e4","sku":"_d6S6S5w6FeT-nsnUN5ZwSUdTYR8GOY4CcMRphhw","name_en":"Birkin 25 亮面鳄鱼🐊 全手工","name_cn":"Birkin 25 亮面鳄鱼🐊 全手工","specs":{"source":"wsxcme","sourceId":"_d6S6S5w6FeT-nsnUN5ZwSUdTYR8GOY4CcMRphhw","sourceTagId":76963559,"sourceTagName":"爱马仕/女包","rawTitle":"Birkin 25 亮面鳄鱼🐊 全手工"},"price":null,"currency":"CNY","moq":1,"category":"hermes-women-bags","status":"active","alibaba_url":null,"images":["https://xcimg.szwego.com/img/9ee4266d/20240802/i1722586208_7421_1.jpg","https://xcimg.szwego.com/img/9ee4266d/20240802/i1722586208_7841_4.jpg","https://xcimg.szwego.com/img/9ee4266d/20240802/i1722586208_2959_3.jpg","https://xcimg.szwego.com/img/9ee4266d/20240802/i1722586208_3144_0.jpg","https://xcimg.szwego.com/img/9ee4266d/20240802/i1722586208_7423_2.jpg","https://xcimg.szwego.com/img/9ee4266d/20240802/i1722586208_2653_5.jpg","https://xcimg.szwego.com/img/9ee4266d/20240802/i1722586208_681_6.jpg"],"created_at":"2024-10-22T04:43:02.174Z"},{"id":"item-af0065886b5b","sku":"_dWiWi5Q23OraI8-T3l6b06T1FLXclE037dq0CNg","name_en":"Birkin 25 亮面鳄鱼🐊 全手工","name_cn":"Birkin 25 亮面鳄鱼🐊 全手工","specs":{"source":"wsxcme","sourceId":"_dWiWi5Q23OraI8-T3l6b06T1FLXclE037dq0CNg","sourceTagId":76963559,"sourceTagName":"爱马仕/女包","rawTitle":"Birkin 25 亮面鳄鱼🐊 全手工"},"price":null,"currency":"CNY","moq":1,"category":"hermes-women-bags","status":"active","alibaba_url":null,"images":["https://xcimg.szwego.com/img/9ee4266d/20240722/i1721645690_5639_5.jpg","https://xcimg.szwego.com/img/9ee4266d/20240722/i1721645690_5170_0.jpg","https://xcimg.szwego.com/img/9ee4266d/20240722/i1721645690_3642_1.jpg","https://xcimg.szwego.com/img/9ee4266d/20240722/i1721645690_724_2.jpg","https://xcimg.szwego.com/img/9ee4266d/20240722/i1721645690_5109_4.jpg","https://xcimg.szwego.com/img/9ee4266d/20240722/i1721645690_3695_6.jpg","https://xcimg.szwego.com/img/9ee4266d/20240722/i1721645690_1523_7.jpg"],"created_at":"2024-10-22T04:43:02.154Z"},{"id":"item-a6c40336656a","sku":"_dtotoxNYSmgnulZ-ciJwgiQm9LlSLWncdK8IFiw","name_en":"Birkin 25 亮面鳄鱼🐊 全手工","name_cn":"Birkin 25 亮面鳄鱼🐊 全手工","specs":{"source":"wsxcme","sourceId":"_dtotoxNYSmgnulZ-ciJwgiQm9LlSLWncdK8IFiw","sourceTagId":76963559,"sourceTagName":"爱马仕/女包","rawTitle":"Birkin 25 亮面鳄鱼🐊 全手工"},"price":null,"currency":"CNY","moq":1,"category":"hermes-women-bags","status":"active","alibaba_url":null,"images":["https://xcimg.szwego.com/img/9ee4266d/20240802/i1722586828_8388_0.jpg","https://xcimg.szwego.com/img/9ee4266d/20240802/i1722586828_4347_4.jpg","https://xcimg.szwego.com/img/9ee4266d/20240802/i1722586829_7986_7.jpg","https://xcimg.szwego.com/img/9ee4266d/20240802/i1722586828_6583_1.jpg","https://xcimg.szwego.com/img/9ee4266d/20240802/i1722586828_4949_2.jpg","https://xcimg.szwego.com/img/9ee4266d/20240802/i1722586828_2703_3.jpg","https://xcimg.szwego.com/img/9ee4266d/20240802/i1722586829_0_5.jpg","https://xcimg.szwego.com/img/9ee4266d/20240802/i1722586829_2758_6.jpg"],"created_at":"2024-10-22T04:43:02.153Z"},{"id":"item-a47618ed057e","sku":"_d8F8F6v-Djxbax8Avz5yiz1ZDJ0aalLw1L9v6yw","name_en":"Birkin 25 亮面鳄鱼🐊 全手工","name_cn":"Birkin 25 亮面鳄鱼🐊 全手工","specs":{"source":"wsxcme","sourceId":"_d8F8F6v-Djxbax8Avz5yiz1ZDJ0aalLw1L9v6yw","sourceTagId":76963559,"sourceTagName":"爱马仕/女包","rawTitle":"Birkin 25 亮面鳄鱼🐊 全手工"},"price":null,"currency":"CNY","moq":1,"category":"hermes-women-bags","status":"active","alibaba_url":null,"images":["https://xcimg.szwego.com/img/9ee4266d/20240802/i1722579312_7353_6.jpg","https://xcimg.szwego.com/img/9ee4266d/20240802/i1722579312_394_4.jpg","https://xcimg.szwego.com/img/9ee4266d/20240802/i1722579312_1641_3.jpg","https://xcimg.szwego.com/img/9ee4266d/20240802/i1722579312_6572_5.jpg","https://xcimg.szwego.com/img/9ee4266d/20240802/i1722579312_4016_2.jpg","https://xcimg.szwego.com/img/9ee4266d/20240802/i1722579312_4889_1.jpg","https://xcimg.szwego.com/img/9ee4266d/20240802/i1722579312_9085_0.jpg"],"created_at":"2024-10-22T04:43:02.168Z"},{"id":"item-992cf17dcef5","sku":"_da2a2DOkq02kUwaITg4h82gYPmSwmUCKDp3I4vA","name_en":"Birkin 25 亮面鳄鱼🐊 全手工","name_cn":"Birkin 25 亮面鳄鱼🐊 全手工","specs":{"source":"wsxcme","sourceId":"_da2a2DOkq02kUwaITg4h82gYPmSwmUCKDp3I4vA","sourceTagId":76963559,"sourceTagName":"爱马仕/女包","rawTitle":"Birkin 25 亮面鳄鱼🐊 全手工"},"price":null,"currency":"CNY","moq":1,"category":"hermes-women-bags","status":"active","alibaba_url":null,"images":["https://xcimg.szwego.com/img/9ee4266d/20240802/i1722586428_9992_1.jpg","https://xcimg.szwego.com/img/9ee4266d/20240802/i1722586428_4978_6.jpg","https://xcimg.szwego.com/img/9ee4266d/20240802/i1722586428_3781_2.jpg","https://xcimg.szwego.com/img/9ee4266d/20240802/i1722586428_3834_0.jpg","https://xcimg.szwego.com/img/9ee4266d/20240802/i1722586428_4272_3.jpg","https://xcimg.szwego.com/img/9ee4266d/20240802/i1722586428_4905_4.jpg","https://xcimg.szwego.com/img/9ee4266d/20240802/i1722586428_6697_5.jpg"],"created_at":"2024-10-22T04:43:02.177Z"},{"id":"item-906e50002078","sku":"_dwtwtEfMoSNLhgezkdCguddd8tDWUBcvbcAOTKA","name_en":"Birkin 25 亮面鳄鱼🐊 全手工","name_cn":"Birkin 25 亮面鳄鱼🐊 全手工","specs":{"source":"wsxcme","sourceId":"_dwtwtEfMoSNLhgezkdCguddd8tDWUBcvbcAOTKA","sourceTagId":76963559,"sourceTagName":"爱马仕/女包","rawTitle":"Birkin 25 亮面鳄鱼🐊 全手工"},"price":null,"currency":"CNY","moq":1,"category":"hermes-women-bags","status":"active","alibaba_url":null,"images":["https://xcimg.szwego.com/img/9ee4266d/20240802/i1722585612_8926_0.jpg","https://xcimg.szwego.com/img/9ee4266d/20240802/i1722585612_5929_0.jpg","https://xcimg.szwego.com/img/9ee4266d/20240802/i1722585612_6380_0.jpg","https://xcimg.szwego.com/img/9ee4266d/20240802/i1722585612_9212_0.jpg","https://xcimg.szwego.com/img/9ee4266d/20240802/i1722585611_2040_0.jpg","https://xcimg.szwego.com/img/9ee4266d/20240802/i1722585612_1209_0.jpg","https://xcimg.szwego.com/img/9ee4266d/20240802/i1722585607_3869_1.jpg"],"created_at":"2024-10-22T04:43:02.169Z"},{"id":"item-8dff54f3ebf3","sku":"_drDrDnZ_aBilPXfUdOAOxktJF6O5bXVhWv5X5ew","name_en":"Birkin 25 亮面鳄鱼🐊 全手工","name_cn":"Birkin 25 亮面鳄鱼🐊 全手工","specs":{"source":"wsxcme","sourceId":"_drDrDnZ_aBilPXfUdOAOxktJF6O5bXVhWv5X5ew","sourceTagId":76963559,"sourceTagName":"爱马仕/女包","rawTitle":"Birkin 25 亮面鳄鱼🐊 全手工"},"price":null,"currency":"CNY","moq":1,"category":"hermes-women-bags","status":"active","alibaba_url":null,"images":["https://xcimg.szwego.com/img/9ee4266d/20240722/i1721645809_9119_6.jpg","https://xcimg.szwego.com/img/9ee4266d/20240722/i1721645809_3296_0.jpg","https://xcimg.szwego.com/img/9ee4266d/20240722/i1721645809_4798_1.jpg","https://xcimg.szwego.com/img/9ee4266d/20240722/i1721645809_6165_2.jpg","https://xcimg.szwego.com/img/9ee4266d/20240722/i1721645809_5722_4.jpg","https://xcimg.szwego.com/img/9ee4266d/20240722/i1721645809_9205_3.jpg","https://xcimg.szwego.com/img/9ee4266d/20240722/i1721645809_2336_5.jpg"],"created_at":"2024-10-22T04:43:02.158Z"},{"id":"item-86391a1aa38b","sku":"_dg8g8vjX9yjSc1iYBAYL5PI0rjWmU2CaYJ416kw","name_en":"Birkin 25 亮面鳄鱼🐊 全手工","name_cn":"Birkin 25 亮面鳄鱼🐊 全手工","specs":{"source":"wsxcme","sourceId":"_dg8g8vjX9yjSc1iYBAYL5PI0rjWmU2CaYJ416kw","sourceTagId":76963559,"sourceTagName":"爱马仕/女包","rawTitle":"Birkin 25 亮面鳄鱼🐊 全手工"},"price":null,"currency":"CNY","moq":1,"category":"hermes-women-bags","status":"active","alibaba_url":null,"images":["https://xcimg.szwego.com/img/9ee4266d/20240722/i1721651650_4417_5.jpg","https://xcimg.szwego.com/img/9ee4266d/20240722/i1721651650_4166_6.jpg","https://xcimg.szwego.com/img/9ee4266d/20240722/i1721651650_2593_2.jpg","https://xcimg.szwego.com/img/9ee4266d/20240722/i1721651650_5178_0.jpg","https://xcimg.szwego.com/img/9ee4266d/20240722/i1721651650_6021_1.jpg","https://xcimg.szwego.com/img/9ee4266d/20240722/i1721651650_321_3.jpg","https://xcimg.szwego.com/img/9ee4266d/20240722/i1721651650_6662_4.jpg"],"created_at":"2024-10-22T04:43:02.161Z"},{"id":"item-80d050ff5f1d","sku":"_do1o1U2xwtqJ5sn6uLVqWZBYY7FddoJDQirz9uQ","name_en":"Birkin 25 亮面鳄鱼🐊 全手工","name_cn":"Birkin 25 亮面鳄鱼🐊 全手工","specs":{"source":"wsxcme","sourceId":"_do1o1U2xwtqJ5sn6uLVqWZBYY7FddoJDQirz9uQ","sourceTagId":76963559,"sourceTagName":"爱马仕/女包","rawTitle":"Birkin 25 亮面鳄鱼🐊 全手工"},"price":null,"currency":"CNY","moq":1,"category":"hermes-women-bags","status":"active","alibaba_url":null,"images":["https://xcimg.szwego.com/img/9ee4266d/20240722/i1721645761_9016_4.jpg","https://xcimg.szwego.com/img/9ee4266d/20240722/i1721645761_8678_1.jpg","https://xcimg.szwego.com/img/9ee4266d/20240722/i1721645761_8654_0.jpg","https://xcimg.szwego.com/img/9ee4266d/20240722/i1721645761_2337_5.jpg","https://xcimg.szwego.com/img/9ee4266d/20240722/i1721645761_5254_2.jpg","https://xcimg.szwego.com/img/9ee4266d/20240722/i1721645762_7979_6.jpg","https://xcimg.szwego.com/img/9ee4266d/20240722/i1721645761_8719_3.jpg"],"created_at":"2024-10-22T04:43:02.156Z"},{"id":"item-60face325ed9","sku":"_dwmwmSHa3Gs_gfuwMxwpQq-ExPjLa1jE64U_WIQ","name_en":"Birkin 25 亮面鳄鱼🐊 全手工","name_cn":"Birkin 25 亮面鳄鱼🐊 全手工","specs":{"source":"wsxcme","sourceId":"_dwmwmSHa3Gs_gfuwMxwpQq-ExPjLa1jE64U_WIQ","sourceTagId":76963559,"sourceTagName":"爱马仕/女包","rawTitle":"Birkin 25 亮面鳄鱼🐊 全手工"},"price":null,"currency":"CNY","moq":1,"category":"hermes-women-bags","status":"active","alibaba_url":null,"images":["https://xcimg.szwego.com/img/9ee4266d/20240722/i1721656463_6811_0.jpg","https://xcimg.szwego.com/img/9ee4266d/20240722/i1721656463_1202_0.jpg","https://xcimg.szwego.com/img/9ee4266d/20240722/i1721656461_8221_0.jpg","https://xcimg.szwego.com/img/9ee4266d/20240722/i1721656463_2147_0.jpg","https://xcimg.szwego.com/img/9ee4266d/20240722/i1721656463_6286_0.jpg","https://xcimg.szwego.com/img/9ee4266d/20240722/i1721656463_1386_0.jpg","https://xcimg.szwego.com/img/9ee4266d/20240722/i1721656463_4095_0.jpg","https://xcimg.szwego.com/img/9ee4266d/20240722/i1721656462_5478_0.jpg","https://xcimg.szwego.com/img/9ee4266d/20240722/i1721656463_9353_0.jpg"],"created_at":"2024-10-22T04:43:02.166Z"},{"id":"item-591f0cf1ff97","sku":"_dqqqqNILGyizrd5M2g48sE0zAMRcPKOBlflI_3A","name_en":"Birkin 25 亮面鳄鱼🐊 全手工","name_cn":"Birkin 25 亮面鳄鱼🐊 全手工","specs":{"source":"wsxcme","sourceId":"_dqqqqNILGyizrd5M2g48sE0zAMRcPKOBlflI_3A","sourceTagId":76963559,"sourceTagName":"爱马仕/女包","rawTitle":"Birkin 25 亮面鳄鱼🐊 全手工"},"price":null,"currency":"CNY","moq":1,"category":"hermes-women-bags","status":"active","alibaba_url":null,"images":["https://xcimg.szwego.com/img/9ee4266d/20240722/i1721656489_8857_0.jpg","https://xcimg.szwego.com/img/9ee4266d/20240722/i1721656489_2072_0.jpg","https://xcimg.szwego.com/img/9ee4266d/20240722/i1721656480_3310_5.jpg","https://xcimg.szwego.com/img/9ee4266d/20240722/i1721656489_6092_0.jpg","https://xcimg.szwego.com/img/9ee4266d/20240722/i1721656489_5080_0.jpg","https://xcimg.szwego.com/img/9ee4266d/20240722/i1721656489_8206_0.jpg","https://xcimg.szwego.com/img/9ee4266d/20240722/i1721656489_8329_0.jpg","https://xcimg.szwego.com/img/9ee4266d/20240722/i1721656489_9654_0.jpg"],"created_at":"2024-10-22T04:43:02.167Z"},{"id":"item-586a36accd0d","sku":"_d6Q6QxYX8w8yh8RLQgdifHN_WgfCXCJRLiiZYdw","name_en":"Birkin 25 亮面鳄鱼🐊 全手工","name_cn":"Birkin 25 亮面鳄鱼🐊 全手工","specs":{"source":"wsxcme","sourceId":"_d6Q6QxYX8w8yh8RLQgdifHN_WgfCXCJRLiiZYdw","sourceTagId":76963559,"sourceTagName":"爱马仕/女包","rawTitle":"Birkin 25 亮面鳄鱼🐊 全手工"},"price":null,"currency":"CNY","moq":1,"category":"hermes-women-bags","status":"active","alibaba_url":null,"images":["https://xcimg.szwego.com/img/9ee4266d/20240722/i1721656420_1664_0.jpg","https://xcimg.szwego.com/img/9ee4266d/20240722/i1721656420_1137_0.jpg","https://xcimg.szwego.com/img/9ee4266d/20240722/i1721656421_1421_0.jpg","https://xcimg.szwego.com/img/9ee4266d/20240722/i1721656421_177_0.jpg","https://xcimg.szwego.com/img/9ee4266d/20240722/i1721656421_2710_0.jpg","https://xcimg.szwego.com/img/9ee4266d/20240722/i1721656420_2017_0.jpg","https://xcimg.szwego.com/img/9ee4266d/20240722/i1721656420_4725_0.jpg","https://xcimg.szwego.com/img/9ee4266d/20240722/i1721656421_6401_0.jpg"],"created_at":"2024-10-22T04:43:02.165Z"},{"id":"item-4df87176a482","sku":"_dj0j0fSAMqwMH-mSrSV1mk-DN0Fsd7-iyi-qGUw","name_en":"Birkin 25 亮面鳄鱼🐊 全手工","name_cn":"Birkin 25 亮面鳄鱼🐊 全手工","specs":{"source":"wsxcme","sourceId":"_dj0j0fSAMqwMH-mSrSV1mk-DN0Fsd7-iyi-qGUw","sourceTagId":76963559,"sourceTagName":"爱马仕/女包","rawTitle":"Birkin 25 亮面鳄鱼🐊 全手工"},"price":null,"currency":"CNY","moq":1,"category":"hermes-women-bags","status":"active","alibaba_url":null,"images":["https://xcimg.szwego.com/img/9ee4266d/20240722/i1721645735_4077_0.jpg","https://xcimg.szwego.com/img/9ee4266d/20240722/i1721645735_2288_0.jpg","https://xcimg.szwego.com/img/9ee4266d/20240722/i1721645729_5686_4.jpg","https://xcimg.szwego.com/img/9ee4266d/20240722/i1721645735_3934_0.jpg","https://xcimg.szwego.com/img/9ee4266d/20240722/i1721645735_189_0.jpg","https://xcimg.szwego.com/img/9ee4266d/20240722/i1721645735_4207_0.jpg","https://xcimg.szwego.com/img/9ee4266d/20240722/i1721645735_2193_0.jpg"],"created_at":"2024-10-22T04:43:02.155Z"},{"id":"item-41dba14393cb","sku":"_dyPyPjBGW7lbs8GdD2wzL9m3HENkRCkIdm18meA","name_en":"Birkin 25 亮面鳄鱼🐊 全手工","name_cn":"Birkin 25 亮面鳄鱼🐊 全手工","specs":{"source":"wsxcme","sourceId":"_dyPyPjBGW7lbs8GdD2wzL9m3HENkRCkIdm18meA","sourceTagId":76963559,"sourceTagName":"爱马仕/女包","rawTitle":"Birkin 25 亮面鳄鱼🐊 全手工"},"price":null,"currency":"CNY","moq":1,"category":"hermes-women-bags","status":"active","alibaba_url":null,"images":["https://xcimg.szwego.com/img/9ee4266d/20240722/i1721652303_1448_2.jpg","https://xcimg.szwego.com/img/9ee4266d/20240722/i1721652303_9148_4.jpg","https://xcimg.szwego.com/img/9ee4266d/20240722/i1721652303_4976_1.jpg","https://xcimg.szwego.com/img/9ee4266d/20240722/i1721652304_6260_6.jpg","https://xcimg.szwego.com/img/9ee4266d/20240722/i1721652303_9328_3.jpg","https://xcimg.szwego.com/img/9ee4266d/20240722/i1721652304_7860_5.jpg","https://xcimg.szwego.com/img/9ee4266d/20240722/i1721652303_6240_0.jpg"],"created_at":"2024-10-22T04:43:02.163Z"},{"id":"item-26b0fe70d636","sku":"_dEbEbB1Fgw1aH8GxVWzT_B2J5aIdPsuYieT_hOA","name_en":"Birkin 25 亮面鳄鱼🐊 全手工","name_cn":"Birkin 25 亮面鳄鱼🐊 全手工","specs":{"source":"wsxcme","sourceId":"_dEbEbB1Fgw1aH8GxVWzT_B2J5aIdPsuYieT_hOA","sourceTagId":76963559,"sourceTagName":"爱马仕/女包","rawTitle":"Birkin 25 亮面鳄鱼🐊 全手工"},"price":null,"currency":"CNY","moq":1,"category":"hermes-women-bags","status":"active","alibaba_url":null,"images":["https://xcimg.szwego.com/img/9ee4266d/20240722/i1721651625_2515_2.jpg","https://xcimg.szwego.com/img/9ee4266d/20240722/i1721651625_7375_4.jpg","https://xcimg.szwego.com/img/9ee4266d/20240722/i1721651625_3352_0.jpg","https://xcimg.szwego.com/img/9ee4266d/20240722/i1721651626_2771_7.jpg","https://xcimg.szwego.com/img/9ee4266d/20240722/i1721651625_9273_1.jpg","https://xcimg.szwego.com/img/9ee4266d/20240722/i1721651626_3765_6.jpg","https://xcimg.szwego.com/img/9ee4266d/20240722/i1721651626_5549_5.jpg","https://xcimg.szwego.com/img/9ee4266d/20240722/i1721651625_38_3.jpg"],"created_at":"2024-10-22T04:43:02.160Z"},{"id":"item-1f7d8096ae00","sku":"_dElElEhfsgq0CdNRyrpreBB8OpwfwM9FwpOK0GA","name_en":"Birkin 25 亮面鳄鱼🐊 全手工","name_cn":"Birkin 25 亮面鳄鱼🐊 全手工","specs":{"source":"wsxcme","sourceId":"_dElElEhfsgq0CdNRyrpreBB8OpwfwM9FwpOK0GA","sourceTagId":76963559,"sourceTagName":"爱马仕/女包","rawTitle":"Birkin 25 亮面鳄鱼🐊 全手工"},"price":null,"currency":"CNY","moq":1,"category":"hermes-women-bags","status":"active","alibaba_url":null,"images":["https://xcimg.szwego.com/img/9ee4266d/20240722/i1721651955_707_0.jpg","https://xcimg.szwego.com/img/9ee4266d/20240722/i1721651954_880_0.jpg","https://xcimg.szwego.com/img/9ee4266d/20240722/i1721651955_8237_0.jpg","https://xcimg.szwego.com/img/9ee4266d/20240722/i1721651955_8630_0.jpg","https://xcimg.szwego.com/img/9ee4266d/20240722/i1721651955_2158_0.jpg","https://xcimg.szwego.com/img/9ee4266d/20240722/i1721651955_8784_0.jpg","https://xcimg.szwego.com/img/9ee4266d/20240722/i1721651955_7510_0.jpg"],"created_at":"2024-10-22T04:43:02.162Z"},{"id":"item-075527ce92ea","sku":"_dgygy3oS-jKEmyXvTeUWkajHGZxRPGsfC-lMwZQ","name_en":"Birkin 25 亮面鳄鱼🐊 全手工","name_cn":"Birkin 25 亮面鳄鱼🐊 全手工","specs":{"source":"wsxcme","sourceId":"_dgygy3oS-jKEmyXvTeUWkajHGZxRPGsfC-lMwZQ","sourceTagId":76963559,"sourceTagName":"爱马仕/女包","rawTitle":"Birkin 25 亮面鳄鱼🐊 全手工"},"price":null,"currency":"CNY","moq":1,"category":"hermes-women-bags","status":"active","alibaba_url":null,"images":["https://xcimg.szwego.com/img/9ee4266d/20240722/i1721645787_8759_4.jpg","https://xcimg.szwego.com/img/9ee4266d/20240722/i1721645787_5012_2.jpg","https://xcimg.szwego.com/img/9ee4266d/20240722/i1721645787_4783_1.jpg","https://xcimg.szwego.com/img/9ee4266d/20240722/i1721645787_6426_5.jpg","https://xcimg.szwego.com/img/9ee4266d/20240722/i1721645787_5600_6.jpg","https://xcimg.szwego.com/img/9ee4266d/20240722/i1721645787_7216_3.jpg","https://xcimg.szwego.com/img/9ee4266d/20240722/i1721645787_6308_0.jpg"],"created_at":"2024-10-22T04:43:02.157Z"}],"page":218,"pageSize":24,"total":10075,"totalPages":420}
