{"items":[{"id":"item-76c83dc25b28","sku":"_dcwcwJb_So-lbNNy2gSZtFYrNT8evIS_6lvST6A","name_en":"GUCCl 官网同步新款!Ophidia系列~短夹钱包,采用GG Supreme 猪皮纹搭PVC配以标志性双G 五金唛头,经典著作红绿色织带,高端棉布拉链~精制而成!","name_cn":"GUCCl 官网同步新款!Ophidia系列~短夹钱包,采用GG Supreme 猪皮纹搭PVC配以标志性双G 五金唛头,经典著作红绿色织带,高端棉布拉链~精制而成!\n款号: 838487\n尺寸: 11cm x 8cm x 3cm \n颜色: 枣红","specs":{"source":"wsxcme","sourceId":"_dcwcwJb_So-lbNNy2gSZtFYrNT8evIS_6lvST6A","sourceTagId":47002663,"sourceTagName":"长短款钱包","modelNumber":"838487","rawTitle":"GUCCl 官网同步新款!Ophidia系列~短夹钱包,采用GG Supreme 猪皮纹搭PVC配以标志性双G 五金唛头,经典著作红绿色织带,高端棉布拉链~精制而成!\n款号: 838487\n尺寸: 11cm x 8cm x 3cm \n颜色: 枣红"},"price":null,"currency":"CNY","moq":1,"category":"women-wallets","status":"active","alibaba_url":null,"images":["https://xcimg.szwego.com/img/3c7fb30c/20251012/i1760276274687_673_0_0.jpg","https://xcimg.szwego.com/img/3c7fb30c/20251012/i1760276274675_8321_0_1.jpg","https://xcimg.szwego.com/img/3c7fb30c/20251012/i1760276274747_8261_0_5.jpg","https://xcimg.szwego.com/img/3c7fb30c/20251012/i1760276274757_7299_0_2.jpg","https://xcimg.szwego.com/img/3c7fb30c/20251012/i1760276276039_4988_0_3.jpg","https://xcimg.szwego.com/img/3c7fb30c/20251012/i1760276276071_1587_0_4.jpg"],"created_at":"2026-05-20T08:59:47.431Z"},{"id":"item-2718c8fabac8","sku":"_dBrBrAnPUP1ydnsQ1NEswyHLF2iYCQLvrIkmeDg","name_en":"GUCCl 官网同步新款!Ophidia系列~短夹钱包,采用GG Supreme 猪皮纹搭PVC配以标志性双G 五金唛头,经典著作红绿色织带,高端棉布拉链~精制而成!","name_cn":"GUCCl 官网同步新款!Ophidia系列~短夹钱包,采用GG Supreme 猪皮纹搭PVC配以标志性双G 五金唛头,经典著作红绿色织带,高端棉布拉链~精制而成!\n款号: 838487\n尺寸: 11cm x 8cm x 3cm \n颜色: 啡色","specs":{"source":"wsxcme","sourceId":"_dBrBrAnPUP1ydnsQ1NEswyHLF2iYCQLvrIkmeDg","sourceTagId":47002663,"sourceTagName":"长短款钱包","modelNumber":"838487","rawTitle":"GUCCl 官网同步新款!Ophidia系列~短夹钱包,采用GG Supreme 猪皮纹搭PVC配以标志性双G 五金唛头,经典著作红绿色织带,高端棉布拉链~精制而成!\n款号: 838487\n尺寸: 11cm x 8cm x 3cm \n颜色: 啡色"},"price":null,"currency":"CNY","moq":1,"category":"women-wallets","status":"active","alibaba_url":null,"images":["https://xcimg.szwego.com/img/3c7fb30c/20251012/i1760276450466_3234_0_0.jpg","https://xcimg.szwego.com/img/3c7fb30c/20251012/i1760276450475_265_0_1.jpg","https://xcimg.szwego.com/img/3c7fb30c/20251012/i1760276451932_8942_0_5.jpg","https://xcimg.szwego.com/img/3c7fb30c/20251012/i1760276450524_7785_0_2.jpg","https://xcimg.szwego.com/img/3c7fb30c/20251012/i1760276450486_2756_0_3.jpg","https://xcimg.szwego.com/img/3c7fb30c/20251012/i1760276450559_3215_0_4.jpg"],"created_at":"2026-05-20T08:59:47.441Z"},{"id":"item-002d423dd24c","sku":"_drrrr8oYGXMiSyebQJlCzilvbfHAs9XLx-WRuTw","name_en":"GUCCl 官网同步新款!Ophidia系列~短式钱包,采用GG Supreme 猪皮纹搭PVC配以标志性双G 五金唛头,经典著作红绿色织带,高端棉布拉链~精制而成!","name_cn":"GUCCl 官网同步新款!Ophidia系列~短式钱包,采用GG Supreme 猪皮纹搭PVC配以标志性双G 五金唛头,经典著作红绿色织带,高端棉布拉链~精制而成!\n款号: 834271\n尺寸: 11cm x 10cm x 1.5cm \n颜色: 枣红","specs":{"source":"wsxcme","sourceId":"_drrrr8oYGXMiSyebQJlCzilvbfHAs9XLx-WRuTw","sourceTagId":47002663,"sourceTagName":"长短款钱包","modelNumber":"834271","rawTitle":"GUCCl 官网同步新款!Ophidia系列~短式钱包,采用GG Supreme 猪皮纹搭PVC配以标志性双G 五金唛头,经典著作红绿色织带,高端棉布拉链~精制而成!\n款号: 834271\n尺寸: 11cm x 10cm x 1.5cm \n颜色: 枣红"},"price":null,"currency":"CNY","moq":1,"category":"women-wallets","status":"active","alibaba_url":null,"images":["https://xcimg.szwego.com/img/3c7fb30c/20251012/i1760274318662_112_0_0.jpg","https://xcimg.szwego.com/img/3c7fb30c/20251012/i1760274318662_3554_0_1.jpg","https://xcimg.szwego.com/img/3c7fb30c/20251012/i1760274318662_939_0_5.jpg","https://xcimg.szwego.com/img/3c7fb30c/20251012/i1760274318662_8175_0_2.jpg","https://xcimg.szwego.com/img/3c7fb30c/20251012/i1760274320736_2493_0_3.jpg","https://xcimg.szwego.com/img/3c7fb30c/20251012/i1760274318662_7217_0_4.jpg"],"created_at":"2026-05-20T08:59:47.421Z"},{"id":"item-d0d1784c8788","sku":"_dBABAagSXUWoBxNKNL2HwzFehhtVS5N2f_Gk_Qg","name_en":"GUCCl 官网同步新款!Ophidia系列~卡包钱包,采用GG Supreme 猪皮纹搭PVC配以标志性双G 五金唛头,经典著作红绿色织带,高端棉布拉链~精制而成!","name_cn":"GUCCl 官网同步新款!Ophidia系列~卡包钱包,采用GG Supreme 猪皮纹搭PVC配以标志性双G 五金唛头,经典著作红绿色织带,高端棉布拉链~精制而成!\n款号: 834691\n尺寸: 12cm x 7.5cm x 1.5cm \n颜色: 枣红","specs":{"source":"wsxcme","sourceId":"_dBABAagSXUWoBxNKNL2HwzFehhtVS5N2f_Gk_Qg","sourceTagId":47002663,"sourceTagName":"长短款钱包","modelNumber":"834691","rawTitle":"GUCCl 官网同步新款!Ophidia系列~卡包钱包,采用GG Supreme 猪皮纹搭PVC配以标志性双G 五金唛头,经典著作红绿色织带,高端棉布拉链~精制而成!\n款号: 834691\n尺寸: 12cm x 7.5cm x 1.5cm \n颜色: 枣红"},"price":null,"currency":"CNY","moq":1,"category":"women-wallets","status":"active","alibaba_url":null,"images":["https://xcimg.szwego.com/img/3c7fb30c/20251012/i1760276601538_294_0_0.jpg","https://xcimg.szwego.com/img/3c7fb30c/20251012/i1760276601578_8776_0_1.jpg","https://xcimg.szwego.com/img/3c7fb30c/20251012/i1760276601662_6500_0_4.jpg","https://xcimg.szwego.com/img/3c7fb30c/20251012/i1760276603186_4632_0_2.jpg","https://xcimg.szwego.com/img/3c7fb30c/20251012/i1760276601718_4648_0_5.jpg","https://xcimg.szwego.com/img/3c7fb30c/20251012/i1760276601654_9857_0_3.jpg"],"created_at":"2026-05-20T08:59:47.451Z"},{"id":"item-65943298dce3","sku":"_dPuPuWCtVtvikcalg5BoX9gVTSy0fm4kg6P0FCw","name_en":"GUCCl 官网同步新款!Ophidia系列~卡包钱包,采用GG Supreme 猪皮纹搭PVC配以标志性双G 五金唛头,经典著作红绿色织带,高端棉布拉链~精制而成!","name_cn":"GUCCl 官网同步新款!Ophidia系列~卡包钱包,采用GG Supreme 猪皮纹搭PVC配以标志性双G 五金唛头,经典著作红绿色织带,高端棉布拉链~精制而成!\n款号: 834691\n尺寸: 12cm x 7.5cm x 1.5cm \n颜色: 啡色","specs":{"source":"wsxcme","sourceId":"_dPuPuWCtVtvikcalg5BoX9gVTSy0fm4kg6P0FCw","sourceTagId":47002663,"sourceTagName":"长短款钱包","modelNumber":"834691","rawTitle":"GUCCl 官网同步新款!Ophidia系列~卡包钱包,采用GG Supreme 猪皮纹搭PVC配以标志性双G 五金唛头,经典著作红绿色织带,高端棉布拉链~精制而成!\n款号: 834691\n尺寸: 12cm x 7.5cm x 1.5cm \n颜色: 啡色"},"price":null,"currency":"CNY","moq":1,"category":"women-wallets","status":"active","alibaba_url":null,"images":["https://xcimg.szwego.com/img/3c7fb30c/20251012/i1760276966381_1681_0_0.jpg","https://xcimg.szwego.com/img/3c7fb30c/20251012/i1760276966339_4423_0_1.jpg","https://xcimg.szwego.com/img/3c7fb30c/20251012/i1760276966482_621_0_4.jpg","https://xcimg.szwego.com/img/3c7fb30c/20251012/i1760276966447_5863_0_2.jpg","https://xcimg.szwego.com/img/3c7fb30c/20251012/i1760276968632_6639_0_5.jpg","https://xcimg.szwego.com/img/3c7fb30c/20251012/i1760276966339_4477_0_3.jpg"],"created_at":"2026-05-20T08:59:47.461Z"},{"id":"item-301c8a200a68","sku":"_ddDdDS1wScuRZZMv0190YhJ6PyaFDe6IAQrHVAg","name_en":"GUCCl 官网同步新款!Ophidia系列~两折长夹,采用GG Supreme高级PVC面料 配以标志性双G 五金唛头,经典著作红绿色织带,精制而成!","name_cn":"GUCCl 官网同步新款!Ophidia系列~两折长夹,采用GG Supreme高级PVC面料 配以标志性双G 五金唛头,经典著作红绿色织带,精制而成!\n款号: 523153\n尺寸: 19cmx10cmx3cm\n颜色: 卡其","specs":{"source":"wsxcme","sourceId":"_ddDdDS1wScuRZZMv0190YhJ6PyaFDe6IAQrHVAg","sourceTagId":47002663,"sourceTagName":"长短款钱包","modelNumber":"523153","rawTitle":"GUCCl 官网同步新款!Ophidia系列~两折长夹,采用GG Supreme高级PVC面料 配以标志性双G 五金唛头,经典著作红绿色织带,精制而成!\n款号: 523153\n尺寸: 19cmx10cmx3cm\n颜色: 卡其"},"price":null,"currency":"CNY","moq":1,"category":"women-wallets","status":"active","alibaba_url":null,"images":["https://xcimg.szwego.com/img/3c7fb30c/20250921/i1758389845369_9939_0_0.jpg","https://xcimg.szwego.com/img/3c7fb30c/20250921/i1758389847378_840_0_1.jpg","https://xcimg.szwego.com/img/3c7fb30c/20250921/i1758389845369_8452_0_5.jpg","https://xcimg.szwego.com/img/3c7fb30c/20250921/i1758389847419_568_0_3.jpg","https://xcimg.szwego.com/img/3c7fb30c/20250921/i1758389845369_2350_0_4.jpg","https://xcimg.szwego.com/img/3c7fb30c/20250921/i1758389845369_5647_0_2.jpg"],"created_at":"2026-05-20T08:59:47.341Z"},{"id":"item-2848249e58ef","sku":"_dt4t4oCC-DBKZy69OqXOOvdMLTDdYZX2fXPE1IQ","name_en":"GUCCl 官网同步新款!Ophidia系列~两折长夹,采用GG Supreme高级PVC面料 配以标志性双G 五金唛头,经典著作红绿色织带,精制而成!","name_cn":"GUCCl 官网同步新款!Ophidia系列~两折长夹,采用GG Supreme高级PVC面料 配以标志性双G 五金唛头,经典著作红绿色织带,精制而成!\n款号: 523153\n尺寸: 19cmx10cmx3cm\n颜色: 啡色","specs":{"source":"wsxcme","sourceId":"_dt4t4oCC-DBKZy69OqXOOvdMLTDdYZX2fXPE1IQ","sourceTagId":47002663,"sourceTagName":"长短款钱包","modelNumber":"523153","rawTitle":"GUCCl 官网同步新款!Ophidia系列~两折长夹,采用GG Supreme高级PVC面料 配以标志性双G 五金唛头,经典著作红绿色织带,精制而成!\n款号: 523153\n尺寸: 19cmx10cmx3cm\n颜色: 啡色"},"price":null,"currency":"CNY","moq":1,"category":"women-wallets","status":"active","alibaba_url":null,"images":["https://xcimg.szwego.com/img/3c7fb30c/20250805/i1754397783054_7743_0_0.jpg","https://xcimg.szwego.com/img/3c7fb30c/20250805/i1754397783054_4256_0_1.jpg","https://xcimg.szwego.com/img/3c7fb30c/20250805/i1754397783054_1641_0_4.jpg","https://xcimg.szwego.com/img/3c7fb30c/20250805/i1754397783054_349_0_2.jpg","https://xcimg.szwego.com/img/3c7fb30c/20250805/i1754397785962_9924_0_3.jpg","https://xcimg.szwego.com/img/3c7fb30c/20250805/i1754397783054_1639_0_5.jpg"],"created_at":"2026-05-20T08:59:47.351Z"},{"id":"item-c102ab9ff69b","sku":"_doSoSlAobT3h_OoHuaUpwv6nHYh1niHWSTCSwig","name_en":"GUCCl 官网同步新款!Ophidia系列~两折长夹,采用GG Supreme高级PVC面料 配以标志性双G 五金唛头,经典著作蓝红色织带,精制而成!","name_cn":"GUCCl 官网同步新款!Ophidia系列~两折长夹,采用GG Supreme高级PVC面料 配以标志性双G 五金唛头,经典著作蓝红色织带,精制而成!\n款号: 523153\n尺寸: 19cmx10cmx3cm\n颜色: 蓝色","specs":{"source":"wsxcme","sourceId":"_doSoSlAobT3h_OoHuaUpwv6nHYh1niHWSTCSwig","sourceTagId":47002663,"sourceTagName":"长短款钱包","modelNumber":"523153","rawTitle":"GUCCl 官网同步新款!Ophidia系列~两折长夹,采用GG Supreme高级PVC面料 配以标志性双G 五金唛头,经典著作蓝红色织带,精制而成!\n款号: 523153\n尺寸: 19cmx10cmx3cm\n颜色: 蓝色"},"price":null,"currency":"CNY","moq":1,"category":"women-wallets","status":"active","alibaba_url":null,"images":["https://xcimg.szwego.com/img/3c7fb30c/20250805/i1754399423677_8925_0_0.jpg","https://xcimg.szwego.com/img/3c7fb30c/20250805/i1754399423677_5940_0_1.jpg","https://xcimg.szwego.com/img/3c7fb30c/20250805/i1754399425432_6229_0_5.jpg","https://xcimg.szwego.com/img/3c7fb30c/20250805/i1754399423677_7607_0_2.jpg","https://xcimg.szwego.com/img/3c7fb30c/20250805/i1754399423774_9038_0_3.jpg","https://xcimg.szwego.com/img/3c7fb30c/20250805/i1754399423677_9953_0_4.jpg"],"created_at":"2026-05-20T08:59:47.321Z"},{"id":"item-71eeaabe857a","sku":"_d-D-DnjEQpdBx_kAWgvzINx-cf2mgBQ82h3gi8Q","name_en":"GUCCl 官网同步新款!Ophidia系列~两折长夹,采用GG Supreme高级PVC面料 配以标志性双G 五金唛头,经典著作蓝红色织带,精制而成!","name_cn":"GUCCl 官网同步新款!Ophidia系列~两折长夹,采用GG Supreme高级PVC面料 配以标志性双G 五金唛头,经典著作蓝红色织带,精制而成!\n款号: 523153\n尺寸: 19cmx10cmx3cm\n颜色: 白色","specs":{"source":"wsxcme","sourceId":"_d-D-DnjEQpdBx_kAWgvzINx-cf2mgBQ82h3gi8Q","sourceTagId":47002663,"sourceTagName":"长短款钱包","modelNumber":"523153","rawTitle":"GUCCl 官网同步新款!Ophidia系列~两折长夹,采用GG Supreme高级PVC面料 配以标志性双G 五金唛头,经典著作蓝红色织带,精制而成!\n款号: 523153\n尺寸: 19cmx10cmx3cm\n颜色: 白色"},"price":null,"currency":"CNY","moq":1,"category":"women-wallets","status":"active","alibaba_url":null,"images":["https://xcimg.szwego.com/img/3c7fb30c/20250805/i1754399632984_9177_0_0.jpg","https://xcimg.szwego.com/img/3c7fb30c/20250805/i1754399634675_7865_0_1.jpg","https://xcimg.szwego.com/img/3c7fb30c/20250805/i1754399632995_4337_0_5.jpg","https://xcimg.szwego.com/img/3c7fb30c/20250805/i1754399633062_3763_0_2.jpg","https://xcimg.szwego.com/img/3c7fb30c/20250805/i1754399632942_9878_0_4.jpg","https://xcimg.szwego.com/img/3c7fb30c/20250805/i1754399632934_4137_0_3.jpg"],"created_at":"2026-05-20T08:59:47.331Z"},{"id":"item-f7e310fa187c","sku":"_dEkEkfkmGcmVi3GecpyMDtQS1NDJE9OibY9iNZw","name_en":"GUCCl 官网同步新款!Ophidia系列~两折长夹,采用GG Supreme高级PVC面料 配以标志性双G 五金唛头,经典著作棕红色织带,精制而成!","name_cn":"GUCCl 官网同步新款!Ophidia系列~两折长夹,采用GG Supreme高级PVC面料 配以标志性双G 五金唛头,经典著作棕红色织带,精制而成!\n款号: 523153\n尺寸: 19cmx10cmx3cm\n颜色: 米白","specs":{"source":"wsxcme","sourceId":"_dEkEkfkmGcmVi3GecpyMDtQS1NDJE9OibY9iNZw","sourceTagId":47002663,"sourceTagName":"长短款钱包","modelNumber":"523153","rawTitle":"GUCCl 官网同步新款!Ophidia系列~两折长夹,采用GG Supreme高级PVC面料 配以标志性双G 五金唛头,经典著作棕红色织带,精制而成!\n款号: 523153\n尺寸: 19cmx10cmx3cm\n颜色: 米白"},"price":null,"currency":"CNY","moq":1,"category":"women-wallets","status":"active","alibaba_url":null,"images":["https://xcimg.szwego.com/img/3c7fb30c/20251004/i1759510176560_5200_0_0.jpg","https://xcimg.szwego.com/img/3c7fb30c/20251004/i1759510176655_9834_0_1.jpg","https://xcimg.szwego.com/img/3c7fb30c/20251004/i1759510176558_7681_0_2.jpg","https://xcimg.szwego.com/img/3c7fb30c/20251004/i1759510177780_9263_0_3.jpg","https://xcimg.szwego.com/img/3c7fb30c/20251004/i1759510176662_573_0_4.jpg","https://xcimg.szwego.com/img/3c7fb30c/20251004/i1759510176646_4071_0_5.jpg"],"created_at":"2026-05-20T08:59:47.361Z"},{"id":"item-c3eeae1b2a05","sku":"_d-E-EIivUrafaOETjOxviPsqYZZj5cWIiJD1-yQ","name_en":"GUCCl 最新钱夹到货,也可作为钱夹使用,是品牌主推的一款实用设计单品。经典GG图案是品牌在30年代开始使用的标志性元素之一,历经近一个世纪的发展依然为品牌探索全新表达提供灵感。","name_cn":"GUCCl 最新钱夹到货,也可作为钱夹使用,是品牌主推的一款实用设计单品。经典GG图案是品牌在30年代开始使用的标志性元素之一,历经近一个世纪的发展依然为品牌探索全新表达提供灵感。\n款号: 597606\n尺寸: 11cm x 10cm x 1.5cm\n颜色: 白色","specs":{"source":"wsxcme","sourceId":"_d-E-EIivUrafaOETjOxviPsqYZZj5cWIiJD1-yQ","sourceTagId":47002663,"sourceTagName":"长短款钱包","modelNumber":"597606","rawTitle":"GUCCl 最新钱夹到货,也可作为钱夹使用,是品牌主推的一款实用设计单品。经典GG图案是品牌在30年代开始使用的标志性元素之一,历经近一个世纪的发展依然为品牌探索全新表达提供灵感。\n款号: 597606\n尺寸: 11cm x 10cm x 1.5cm\n颜色: 白色"},"price":null,"currency":"CNY","moq":1,"category":"women-wallets","status":"active","alibaba_url":null,"images":["https://xcimg.szwego.com/img/3c7fb30c/20251009/i1760013006137_4675_0_2.jpg","https://xcimg.szwego.com/img/3c7fb30c/20251009/i1760013008375_3332_0_1.jpg","https://xcimg.szwego.com/img/3c7fb30c/20251009/i1760013006079_4103_0_0.jpg","https://xcimg.szwego.com/img/3c7fb30c/20251009/i1760013006095_2382_0_3.jpg","https://xcimg.szwego.com/img/3c7fb30c/20251002/i1759417451882_5897_0_4.jpg","https://xcimg.szwego.com/img/3c7fb30c/20251002/i1759418367832_9579_0_5.jpg"],"created_at":"2026-05-20T08:59:47.411Z"},{"id":"item-a61815c328ed","sku":"_ddYdYpn0CFK5hqeIKWrkugWHjyDaA7G6EMvm-2A","name_en":"GUCCl 最新钱夹到货,也可作为钱夹使用,是品牌主推的一款实用设计单品。经典GG图案是品牌在30年代开始使用的标志性元素之一,历经近一个世纪的发展依然为品牌探索全新表达提供灵感。","name_cn":"GUCCl 最新钱夹到货,也可作为钱夹使用,是品牌主推的一款实用设计单品。经典GG图案是品牌在30年代开始使用的标志性元素之一,历经近一个世纪的发展依然为品牌探索全新表达提供灵感。\n款号: 597606\n尺寸: 11cm x 10cm x 1.5cm\n颜色: 米白","specs":{"source":"wsxcme","sourceId":"_ddYdYpn0CFK5hqeIKWrkugWHjyDaA7G6EMvm-2A","sourceTagId":47002663,"sourceTagName":"长短款钱包","modelNumber":"597606","rawTitle":"GUCCl 最新钱夹到货,也可作为钱夹使用,是品牌主推的一款实用设计单品。经典GG图案是品牌在30年代开始使用的标志性元素之一,历经近一个世纪的发展依然为品牌探索全新表达提供灵感。\n款号: 597606\n尺寸: 11cm x 10cm x 1.5cm\n颜色: 米白"},"price":null,"currency":"CNY","moq":1,"category":"women-wallets","status":"active","alibaba_url":null,"images":["https://xcimg.szwego.com/img/3c7fb30c/20251002/i1759417451779_9509_0_0.jpg","https://xcimg.szwego.com/img/3c7fb30c/20251002/i1759417453089_1813_0_1.jpg","https://xcimg.szwego.com/img/3c7fb30c/20251002/i1759417451779_7743_0_2.jpg","https://xcimg.szwego.com/img/3c7fb30c/20251002/i1759417451888_6934_0_3.jpg","https://xcimg.szwego.com/img/3c7fb30c/20251002/i1759417451882_5897_0_4.jpg","https://xcimg.szwego.com/img/3c7fb30c/20251002/i1759418367832_9579_0_5.jpg"],"created_at":"2026-05-20T08:59:47.371Z"},{"id":"item-7d34a4b81ed1","sku":"_dnanaT_9DCrXTyGM6jks4vq-Rr8poj60diwLB5w","name_en":"GUCCl 最新钱夹到货,也可作为钱夹使用,是品牌主推的一款实用设计单品。经典GG图案是品牌在30年代开始使用的标志性元素之一,历经近一个世纪的发展依然为品牌探索全新表达提供灵感。","name_cn":"GUCCl 最新钱夹到货,也可作为钱夹使用,是品牌主推的一款实用设计单品。经典GG图案是品牌在30年代开始使用的标志性元素之一,历经近一个世纪的发展依然为品牌探索全新表达提供灵感。\n款号: 597606\n尺寸: 11cm x 10cm x 1.5cm\n颜色: 卡其","specs":{"source":"wsxcme","sourceId":"_dnanaT_9DCrXTyGM6jks4vq-Rr8poj60diwLB5w","sourceTagId":47002663,"sourceTagName":"长短款钱包","modelNumber":"597606","rawTitle":"GUCCl 最新钱夹到货,也可作为钱夹使用,是品牌主推的一款实用设计单品。经典GG图案是品牌在30年代开始使用的标志性元素之一,历经近一个世纪的发展依然为品牌探索全新表达提供灵感。\n款号: 597606\n尺寸: 11cm x 10cm x 1.5cm\n颜色: 卡其"},"price":null,"currency":"CNY","moq":1,"category":"women-wallets","status":"active","alibaba_url":null,"images":["https://xcimg.szwego.com/img/3c7fb30c/20251002/i1759418706724_9187_0_0.jpg","https://xcimg.szwego.com/img/3c7fb30c/20251002/i1759418706788_1538_0_1.jpg","https://xcimg.szwego.com/img/3c7fb30c/20251002/i1759418706792_1687_0_2.jpg","https://xcimg.szwego.com/img/3c7fb30c/20251002/i1759418708389_4875_0_3.jpg","https://xcimg.szwego.com/img/3c7fb30c/20251002/i1759418706762_1190_0_4.jpg","https://xcimg.szwego.com/img/3c7fb30c/20251002/i1759418706669_5489_0_5.jpg"],"created_at":"2026-05-20T08:59:47.391Z"},{"id":"item-5069ce94a67f","sku":"_dkKkKfs-tmAwMw_PA20kwU7_QqKcOQhwiJHhYCw","name_en":"GUCCl 最新钱夹到货,也可作为钱夹使用,是品牌主推的一款实用设计单品。经典GG图案是品牌在30年代开始使用的标志性元素之一,历经近一个世纪的发展依然为品牌探索全新表达提供灵感。","name_cn":"GUCCl 最新钱夹到货,也可作为钱夹使用,是品牌主推的一款实用设计单品。经典GG图案是品牌在30年代开始使用的标志性元素之一,历经近一个世纪的发展依然为品牌探索全新表达提供灵感。\n款号: 597606\n尺寸: 11cm x 10cm x 1.5cm\n颜色: 蓝色","specs":{"source":"wsxcme","sourceId":"_dkKkKfs-tmAwMw_PA20kwU7_QqKcOQhwiJHhYCw","sourceTagId":47002663,"sourceTagName":"长短款钱包","modelNumber":"597606","rawTitle":"GUCCl 最新钱夹到货,也可作为钱夹使用,是品牌主推的一款实用设计单品。经典GG图案是品牌在30年代开始使用的标志性元素之一,历经近一个世纪的发展依然为品牌探索全新表达提供灵感。\n款号: 597606\n尺寸: 11cm x 10cm x 1.5cm\n颜色: 蓝色"},"price":null,"currency":"CNY","moq":1,"category":"women-wallets","status":"active","alibaba_url":null,"images":["https://xcimg.szwego.com/img/3c7fb30c/20250814/i1755104496405_5783_0_0.jpg","https://xcimg.szwego.com/img/3c7fb30c/20250814/i1755104493185_21_0_1.jpg","https://xcimg.szwego.com/img/3c7fb30c/20250814/i1755104492996_6554_0_5.jpg","https://xcimg.szwego.com/img/3c7fb30c/20250814/i1755104493190_6414_0_2.jpg","https://xcimg.szwego.com/img/3c7fb30c/20250814/i1755104493140_145_0_3.jpg","https://xcimg.szwego.com/img/3c7fb30c/20250814/i1755104493220_5356_0_4.jpg"],"created_at":"2026-05-20T08:59:47.381Z"},{"id":"item-2ac731445923","sku":"_dririeTAxbH1O6siwYLRJHsYDGDiSsRvVevqtrQ","name_en":"GUCCl 最新钱夹到货,也可作为钱夹使用,是品牌主推的一款实用设计单品。经典GG图案是品牌在30年代开始使用的标志性元素之一,历经近一个世纪的发展依然为品牌探索全新表达提供灵感。","name_cn":"GUCCl 最新钱夹到货,也可作为钱夹使用,是品牌主推的一款实用设计单品。经典GG图案是品牌在30年代开始使用的标志性元素之一,历经近一个世纪的发展依然为品牌探索全新表达提供灵感。\n款号: 597606\n尺寸: 11cm x 10cm x 1.5cm\n颜色: 啡色/咖啡","specs":{"source":"wsxcme","sourceId":"_dririeTAxbH1O6siwYLRJHsYDGDiSsRvVevqtrQ","sourceTagId":47002663,"sourceTagName":"长短款钱包","modelNumber":"597606","rawTitle":"GUCCl 最新钱夹到货,也可作为钱夹使用,是品牌主推的一款实用设计单品。经典GG图案是品牌在30年代开始使用的标志性元素之一,历经近一个世纪的发展依然为品牌探索全新表达提供灵感。\n款号: 597606\n尺寸: 11cm x 10cm x 1.5cm\n颜色: 啡色/咖啡"},"price":null,"currency":"CNY","moq":1,"category":"women-wallets","status":"active","alibaba_url":null,"images":["https://xcimg.szwego.com/img/3c7fb30c/20250814/i1755104637368_1301_0_0.jpg","https://xcimg.szwego.com/img/3c7fb30c/20250814/i1755104637397_5266_0_1.jpg","https://xcimg.szwego.com/img/3c7fb30c/20250814/i1755104637350_7423_0_5.jpg","https://xcimg.szwego.com/img/3c7fb30c/20250814/i1755104637355_5909_0_4.jpg","https://xcimg.szwego.com/img/3c7fb30c/20250814/i1755104637267_9363_0_2.jpg","https://xcimg.szwego.com/img/3c7fb30c/20250814/i1755104638416_206_0_3.jpg"],"created_at":"2026-05-20T08:59:47.401Z"},{"id":"item-d72fab26e726","sku":"_dnhnh3QulA3qVYnYVoNLZ8HNX4NDck0-ZfBT6Cw","name_en":"Guccl Dionysus 经典酒神包无论是少女还是女王都无一列外被它俘虏...如美酒般迷人心醉~型号:421970尺寸:20*15.5*5cm","name_cn":"Guccl Dionysus 经典酒神包无论是少女还是女王都无一列外被它俘虏...如美酒般迷人心醉~型号:421970尺寸:20*15.5*5cm","specs":{"source":"wsxcme","sourceId":"_dnhnh3QulA3qVYnYVoNLZ8HNX4NDck0-ZfBT6Cw","sourceTagId":47002679,"sourceTagName":"古驰/女包","modelNumber":"421970尺寸:20*15.5*5cm","dimensions":{"lengthCm":20,"heightCm":15.5,"widthCm":5},"rawTitle":"Guccl Dionysus 经典酒神包无论是少女还是女王都无一列外被它俘虏...如美酒般迷人心醉~型号:421970尺寸:20*15.5*5cm"},"price":null,"currency":"CNY","moq":1,"category":"gucci-women-bags","status":"active","alibaba_url":null,"images":["https://xcimg.szwego.com/img/89648692/20240729/i1722243049_1606_4.jpg","https://xcimg.szwego.com/img/89648692/20240729/i1722243049_4349_5.jpg","https://xcimg.szwego.com/img/89648692/20240729/i1722243049_9934_3.jpg","https://xcimg.szwego.com/img/89648692/20240729/i1722243049_8856_2.jpg","https://xcimg.szwego.com/img/89648692/20240729/i1722243049_5707_6.jpg","https://xcimg.szwego.com/img/89648692/20240729/i1722243053_5151_0.jpg","https://xcimg.szwego.com/img/89648692/20240729/i1722243049_2883_0.jpg","https://xcimg.szwego.com/img/89648692/20240729/i1722243049_3753_8.jpg","https://xcimg.szwego.com/img/89648692/20240729/i1722243053_1216_0.jpg"],"created_at":"2024-08-04T13:01:05.849Z"},{"id":"item-ee465b8a6e95","sku":"_djKjKEwH2lJzp8dy6F6X4pRpiFXbzrRA7q9v0vg","name_en":"H Limited edition","name_cn":"H Limited edition\nBk42 帆布橙色/box calf leather and cavas palladium hardware","specs":{"source":"wsxcme","sourceId":"_djKjKEwH2lJzp8dy6F6X4pRpiFXbzrRA7q9v0vg","sourceTagId":76963559,"sourceTagName":"爱马仕/女包","rawTitle":"H Limited edition\nBk42 帆布橙色/box calf leather and cavas palladium hardware"},"price":null,"currency":"CNY","moq":1,"category":"hermes-women-bags","status":"active","alibaba_url":null,"images":["https://xcimg.szwego.com/20230102/a1672663225338_5233.jpg","https://xcimg.szwego.com/20230102/a1672663225606_2288.jpg","https://xcimg.szwego.com/20230102/a1672663226071_0864.jpg","https://xcimg.szwego.com/20230102/a1672663226162_7888.jpg","https://xcimg.szwego.com/20230102/a1672663226375_0676.jpg","https://xcimg.szwego.com/20230102/a1672663226917_7304.jpg"],"created_at":"2024-10-22T05:00:12.213Z"},{"id":"item-e7198904dcbc","sku":"_dxpxpi5a5mVki_LCCErWqQD4SqP4ADQt6gKT3Qw","name_en":"H Limited edition","name_cn":"H Limited edition\nBk30 帆布橙色/box calf leather and cavas palladium hardware","specs":{"source":"wsxcme","sourceId":"_dxpxpi5a5mVki_LCCErWqQD4SqP4ADQt6gKT3Qw","sourceTagId":76963559,"sourceTagName":"爱马仕/女包","rawTitle":"H Limited edition\nBk30 帆布橙色/box calf leather and cavas palladium hardware"},"price":null,"currency":"CNY","moq":1,"category":"hermes-women-bags","status":"active","alibaba_url":null,"images":["https://xcimg.szwego.com/20230102/a1672662899380_7023.jpg","https://xcimg.szwego.com/20230102/a1672662900427_3646.jpg","https://xcimg.szwego.com/20230102/a1672662900740_7282.jpg","https://xcimg.szwego.com/20230102/a1672662901014_4644.jpg","https://xcimg.szwego.com/20230102/a1672662901558_0810.jpg","https://xcimg.szwego.com/20230102/a1672662901860_2647.jpg"],"created_at":"2024-10-22T05:00:12.212Z"},{"id":"item-ee3f8fe934e8","sku":"_dxDxD06Zr737OhoLxkseSimevXg9sf1JWLOfKcw","name_en":"H Mɪɴɪ Kᴇʟʟʏ 19","name_cn":"H Mɪɴɪ Kᴇʟʟʏ 19\n_奶昔白_金扣_\n• 独家高性价比版本\n• 里外全皮完美机缝\n• Mini包中的霸主\n“麻雀虽小、五脏俱全”🎁 除了可以携带随身所需小物_更可容纳品味 将品味“背着走”。\n现货19Cm 7878080","specs":{"source":"wsxcme","sourceId":"_dxDxD06Zr737OhoLxkseSimevXg9sf1JWLOfKcw","sourceTagId":76963559,"sourceTagName":"爱马仕/女包","rawTitle":"H Mɪɴɪ Kᴇʟʟʏ 19\n_奶昔白_金扣_\n• 独家高性价比版本\n• 里外全皮完美机缝\n• Mini包中的霸主\n“麻雀虽小、五脏俱全”🎁 除了可以携带随身所需小物_更可容纳品味 将品味“背着走”。\n现货19Cm 7878080"},"price":null,"currency":"CNY","moq":1,"category":"hermes-women-bags","status":"active","alibaba_url":null,"images":["https://xcimg.szwego.com/img/b17e98d7/20240624/i1719222465_3473_4.jpg","https://xcimg.szwego.com/img/b17e98d7/20240624/i1719222465_6334_0.jpg","https://xcimg.szwego.com/img/b17e98d7/20240624/i1719222465_5480_7.jpg","https://xcimg.szwego.com/img/b17e98d7/20240624/i1719222465_4233_1.jpg","https://xcimg.szwego.com/img/b17e98d7/20240624/i1719222465_5337_6.jpg","https://xcimg.szwego.com/img/b17e98d7/20240624/i1719222465_5975_2.jpg","https://xcimg.szwego.com/img/b17e98d7/20240624/i1719222465_176_3.jpg","https://xcimg.szwego.com/img/b17e98d7/20240624/i1719222465_5182_5.jpg","https://xcimg.szwego.com/img/b17e98d7/20240624/i1719222465_867_8.jpg"],"created_at":"2024-10-22T05:04:33.156Z"},{"id":"item-a5b0cbfe9ef2","sku":"_djOjOCwrOPK6e4USqO5Znl1SHTQEhTTNwb4XAbA","name_en":"H Picotin 14印花涂鸦款","name_cn":"H Picotin 14印花涂鸦款\n进入浪漫💕的倒计时⏳......如果说男人至死是少年,那么每个女人心中永远住着一个小公主👸,期待甜蜜又简单的幸福感,那么从这只小印花菜篮🧺开始......","specs":{"source":"wsxcme","sourceId":"_djOjOCwrOPK6e4USqO5Znl1SHTQEhTTNwb4XAbA","sourceTagId":76963559,"sourceTagName":"爱马仕/女包","rawTitle":"H Picotin 14印花涂鸦款\n进入浪漫💕的倒计时⏳......如果说男人至死是少年,那么每个女人心中永远住着一个小公主👸,期待甜蜜又简单的幸福感,那么从这只小印花菜篮🧺开始......"},"price":null,"currency":"CNY","moq":1,"category":"hermes-women-bags","status":"active","alibaba_url":null,"images":["https://xcimg.szwego.com/20221005/a1664941915170_8005.jpg","https://xcimg.szwego.com/20221005/a1664941915335_2640.jpg","https://xcimg.szwego.com/20221005/a1664941915553_1586.jpg","https://xcimg.szwego.com/20221005/a1664941915702_0537.jpg","https://xcimg.szwego.com/20221005/a1664941915949_4747.jpg","https://xcimg.szwego.com/20221005/a1664941916152_1570.jpg","https://xcimg.szwego.com/20221005/a1664941916319_3834.jpg","https://xcimg.szwego.com/20221005/a1664941916770_7440.jpg"],"created_at":"2024-10-22T04:49:50.745Z"},{"id":"item-262b6f0de2a5","sku":"_dhrhrY5auezL5-QuTDNtwgno0jJqCc6sKh2ouKg","name_en":"H Picotin 14印花涂鸦款","name_cn":"H Picotin 14印花涂鸦款\n进入浪漫💕的倒计时⏳......如果说男人至死是少年,那么每个女人心中永远住着一个小公主👸,期待甜蜜又简单的幸福感,那么从这只小印花菜篮🧺开始......","specs":{"source":"wsxcme","sourceId":"_dhrhrY5auezL5-QuTDNtwgno0jJqCc6sKh2ouKg","sourceTagId":76963559,"sourceTagName":"爱马仕/女包","rawTitle":"H Picotin 14印花涂鸦款\n进入浪漫💕的倒计时⏳......如果说男人至死是少年,那么每个女人心中永远住着一个小公主👸,期待甜蜜又简单的幸福感,那么从这只小印花菜篮🧺开始......"},"price":null,"currency":"CNY","moq":1,"category":"hermes-women-bags","status":"active","alibaba_url":null,"images":["https://xcimg.szwego.com/20221005/a1664942188223_2814.jpg","https://xcimg.szwego.com/20221005/a1664942188395_8605.jpg","https://xcimg.szwego.com/20221005/a1664942188661_7372.jpg","https://xcimg.szwego.com/20221005/a1664942188754_1528.jpg","https://xcimg.szwego.com/20221005/a1664942189060_8038.jpg","https://xcimg.szwego.com/20221005/a1664942189143_6148.jpg","https://xcimg.szwego.com/20221005/a1664942189392_3316.jpg","https://xcimg.szwego.com/20221005/a1664942189548_0835.jpg","https://xcimg.szwego.com/20221005/a1664942189803_3538.jpg"],"created_at":"2024-10-22T04:49:50.747Z"},{"id":"item-36ad5ef5ed21","sku":"_deGeGXFOy3nmXIvo3fbbGQEQZTyUjGfPRMTAbeQ","name_en":"H Picotin 18印花涂鸦款","name_cn":"H Picotin 18印花涂鸦款\n进入浪漫💕的倒计时⏳......如果说男人至死是少年,那么每个女人心中永远住着一个小公主👸,期待甜蜜又简单的幸福感,那么从这只小印花菜篮🧺开始......","specs":{"source":"wsxcme","sourceId":"_deGeGXFOy3nmXIvo3fbbGQEQZTyUjGfPRMTAbeQ","sourceTagId":76963559,"sourceTagName":"爱马仕/女包","rawTitle":"H Picotin 18印花涂鸦款\n进入浪漫💕的倒计时⏳......如果说男人至死是少年,那么每个女人心中永远住着一个小公主👸,期待甜蜜又简单的幸福感,那么从这只小印花菜篮🧺开始......"},"price":null,"currency":"CNY","moq":1,"category":"hermes-women-bags","status":"active","alibaba_url":null,"images":["https://xcimg.szwego.com/20221005/a1664941968079_2877.jpg","https://xcimg.szwego.com/20221005/a1664941968314_5410.jpg","https://xcimg.szwego.com/20221005/a1664941968529_3673.jpg","https://xcimg.szwego.com/20221005/a1664941968981_6038.jpg","https://xcimg.szwego.com/20221005/a1664941968982_4325.jpg","https://xcimg.szwego.com/20221005/a1664941969207_3213.jpg","https://xcimg.szwego.com/20221005/a1664941969433_1781.jpg","https://xcimg.szwego.com/20221005/a1664941969700_0801.jpg"],"created_at":"2024-10-22T04:49:50.746Z"},{"id":"item-75895e1e98fc","sku":"_d9R9RDKQCwU9DNKJZsHbsazP9Qhz8ZDl_CfISPA","name_en":"H Picotin 18印花涂鸦款 进入浪漫💕的倒计时⏳......如果说男人至死是少年,那么每个女人心中永远住着一个小公主👸,期待甜蜜又简单的幸福感,那么从这只小印花菜篮🧺开始......","name_cn":"H Picotin 18印花涂鸦款 进入浪漫💕的倒计时⏳......如果说男人至死是少年,那么每个女人心中永远住着一个小公主👸,期待甜蜜又简单的幸福感,那么从这只小印花菜篮🧺开始......","specs":{"source":"wsxcme","sourceId":"_d9R9RDKQCwU9DNKJZsHbsazP9Qhz8ZDl_CfISPA","sourceTagId":76963559,"sourceTagName":"爱马仕/女包","rawTitle":"H Picotin 18印花涂鸦款 进入浪漫💕的倒计时⏳......如果说男人至死是少年,那么每个女人心中永远住着一个小公主👸,期待甜蜜又简单的幸福感,那么从这只小印花菜篮🧺开始......"},"price":null,"currency":"CNY","moq":1,"category":"hermes-women-bags","status":"active","alibaba_url":null,"images":["https://xcimg.szwego.com/20221005/a1664942232233_5143.jpg","https://xcimg.szwego.com/20221005/a1664942232454_3683.jpg","https://xcimg.szwego.com/20221005/a1664942232643_7263.jpg","https://xcimg.szwego.com/20221005/a1664942232849_0220.jpg","https://xcimg.szwego.com/20221005/a1664942233273_7338.jpg","https://xcimg.szwego.com/20221005/a1664942233303_5038.jpg","https://xcimg.szwego.com/20221005/a1664942233512_7883.jpg","https://xcimg.szwego.com/20221005/a1664942233699_8374.jpg","https://xcimg.szwego.com/20221005/a1664942233928_1035.jpg"],"created_at":"2024-10-22T04:49:50.748Z"},{"id":"item-188dcd7d3ec2","sku":"_dEZEZreVT7pTLY0Jn0rfyMN1HMm9BNLrTP4tcSA","name_en":"H Picotin 18印花涂鸦款 进入浪漫💕的倒计时⏳......如果说男人至死是少年,那么每个女人心中永远住着一个小公主👸,期待甜蜜又简单的幸福感,那么从这只小印花菜篮🧺开始......","name_cn":"H Picotin 18印花涂鸦款 进入浪漫💕的倒计时⏳......如果说男人至死是少年,那么每个女人心中永远住着一个小公主👸,期待甜蜜又简单的幸福感,那么从这只小印花菜篮🧺开始......","specs":{"source":"wsxcme","sourceId":"_dEZEZreVT7pTLY0Jn0rfyMN1HMm9BNLrTP4tcSA","sourceTagId":76963559,"sourceTagName":"爱马仕/女包","rawTitle":"H Picotin 18印花涂鸦款 进入浪漫💕的倒计时⏳......如果说男人至死是少年,那么每个女人心中永远住着一个小公主👸,期待甜蜜又简单的幸福感,那么从这只小印花菜篮🧺开始......"},"price":null,"currency":"CNY","moq":1,"category":"hermes-women-bags","status":"active","alibaba_url":null,"images":["https://xcimg.szwego.com/20221005/a1664941346946_2010.jpg","https://xcimg.szwego.com/20221005/a1664941347148_6721.jpg","https://xcimg.szwego.com/20221005/a1664941347480_7654.jpg","https://xcimg.szwego.com/20221005/a1664941347553_8381.jpg","https://xcimg.szwego.com/20221005/a1664941347953_5030.jpg","https://xcimg.szwego.com/20221005/a1664941348128_3268.jpg","https://xcimg.szwego.com/20221005/a1664941348296_4365.jpg","https://xcimg.szwego.com/20221005/a1664941348568_4203.jpg","https://xcimg.szwego.com/20221005/a1664941348830_2673.jpg"],"created_at":"2024-10-22T04:49:50.744Z"}],"page":325,"pageSize":24,"total":10075,"totalPages":420}
