{"items":[{"id":"item-8d4b1109e288","sku":"_drXrXeLAP_LjgZ8nU4CV0bhXC2AHmIhIS-Fbw4w","name_en":"5BC125楠木色","name_cn":"5BC125楠木色","specs":{"source":"wsxcme","sourceId":"_drXrXeLAP_LjgZ8nU4CV0bhXC2AHmIhIS-Fbw4w","sourceTagId":68075769,"sourceTagName":"Miu Miu /女包","rawTitle":"5BC125楠木色"},"price":null,"currency":"CNY","moq":1,"category":"miu-miu-women-bags","status":"active","alibaba_url":null,"images":["https://xcimg.szwego.com/20240824/i1724487132_1201_3.jpg","https://xcimg.szwego.com/20240824/i1724487132_7977_0.jpg","https://xcimg.szwego.com/20240824/i1724487132_7731_1.jpg","https://xcimg.szwego.com/20240824/i1724487132_7865_2.jpg"],"created_at":"2024-09-27T07:07:24.227Z"},{"id":"item-43c1427c2278","sku":"_dlclcrDi6ZL3hoVozXMLh_nASB_N0A_tBtbcg7g","name_en":"5BC125楠木色","name_cn":"5BC125楠木色","specs":{"source":"wsxcme","sourceId":"_dlclcrDi6ZL3hoVozXMLh_nASB_N0A_tBtbcg7g","sourceTagId":68075769,"sourceTagName":"Miu Miu /女包","rawTitle":"5BC125楠木色"},"price":null,"currency":"CNY","moq":1,"category":"miu-miu-women-bags","status":"active","alibaba_url":null,"images":["https://xcimg.szwego.com/20240824/i1724487132_1201_3.jpg","https://xcimg.szwego.com/20240824/i1724487132_7977_0.jpg","https://xcimg.szwego.com/20240824/i1724487132_7731_1.jpg","https://xcimg.szwego.com/20240824/i1724487132_7865_2.jpg"],"created_at":"2024-11-11T10:30:45.820Z"},{"id":"item-8f57295567cb","sku":"_dk4k4r2UFZFeXkR8eZ8t8qPnD5RJenXUOpOsNVg","name_en":"5BC125泰迪熊羊羔毛系列","name_cn":"5BC125泰迪熊羊羔毛系列","specs":{"source":"wsxcme","sourceId":"_dk4k4r2UFZFeXkR8eZ8t8qPnD5RJenXUOpOsNVg","sourceTagId":68075769,"sourceTagName":"Miu Miu /女包","rawTitle":"5BC125泰迪熊羊羔毛系列"},"price":null,"currency":"CNY","moq":1,"category":"miu-miu-women-bags","status":"active","alibaba_url":null,"images":["https://xcimg.szwego.com/20231213/i1702407566_4823_0.jpg","https://xcimg.szwego.com/20231213/i1702407566_598_1.jpg","https://xcimg.szwego.com/20231213/i1702407566_7659_2.jpg","https://xcimg.szwego.com/20231213/i1702407566_2989_3.jpg","https://xcimg.szwego.com/20231213/i1702407566_824_4.jpg","https://xcimg.szwego.com/20231213/i1702407566_664_5.jpg","https://xcimg.szwego.com/20231213/i1702407566_2008_6.jpg","https://xcimg.szwego.com/20231213/i1702407566_6915_7.jpg","https://xcimg.szwego.com/20231213/i1702407566_2318_8.jpg"],"created_at":"2024-09-27T07:07:24.201Z"},{"id":"item-1b88e321d310","sku":"_duZuZGjREwig4we_Tz8EP2cnA5QzgtO0Itkivlw","name_en":"5BC125泰迪熊羊羔毛系列","name_cn":"5BC125泰迪熊羊羔毛系列","specs":{"source":"wsxcme","sourceId":"_duZuZGjREwig4we_Tz8EP2cnA5QzgtO0Itkivlw","sourceTagId":68075769,"sourceTagName":"Miu Miu /女包","rawTitle":"5BC125泰迪熊羊羔毛系列"},"price":null,"currency":"CNY","moq":1,"category":"miu-miu-women-bags","status":"active","alibaba_url":null,"images":["https://xcimg.szwego.com/20231213/i1702407566_4823_0.jpg","https://xcimg.szwego.com/20231213/i1702407566_598_1.jpg","https://xcimg.szwego.com/20231213/i1702407566_7659_2.jpg","https://xcimg.szwego.com/20231213/i1702407566_2989_3.jpg","https://xcimg.szwego.com/20231213/i1702407566_824_4.jpg","https://xcimg.szwego.com/20231213/i1702407566_664_5.jpg","https://xcimg.szwego.com/20231213/i1702407566_2008_6.jpg","https://xcimg.szwego.com/20231213/i1702407566_6915_7.jpg","https://xcimg.szwego.com/20231213/i1702407566_2318_8.jpg"],"created_at":"2024-11-11T10:31:19.655Z"},{"id":"item-416443b40fe1","sku":"_deBeBcXAZEi87NdrbC2DkYzDdvBp7N_xeefiNCA","name_en":"5BC125新色裸杏,焦糖棕","name_cn":"5BC125新色裸杏,焦糖棕","specs":{"source":"wsxcme","sourceId":"_deBeBcXAZEi87NdrbC2DkYzDdvBp7N_xeefiNCA","sourceTagId":68075769,"sourceTagName":"Miu Miu /女包","rawTitle":"5BC125新色裸杏,焦糖棕"},"price":null,"currency":"CNY","moq":1,"category":"miu-miu-women-bags","status":"active","alibaba_url":null,"images":["https://xcimg.szwego.com/20230613/i1686588461_9533_0.jpg","https://xcimg.szwego.com/20230613/i1686588461_8774_1.jpg","https://xcimg.szwego.com/20230613/i1686588461_5775_2.jpg","https://xcimg.szwego.com/20230613/i1686588461_3184_3.jpg","https://xcimg.szwego.com/20230613/i1686588461_5191_4.jpg"],"created_at":"2024-11-11T10:31:19.653Z"},{"id":"item-022a1d28c190","sku":"_dIuIuLEvWexJSVEMq4qtR1FQCO7owPdgWRuQDSA","name_en":"5BC151","name_cn":"5BC151","specs":{"source":"wsxcme","sourceId":"_dIuIuLEvWexJSVEMq4qtR1FQCO7owPdgWRuQDSA","sourceTagId":68075769,"sourceTagName":"Miu Miu /女包","rawTitle":"5BC151"},"price":null,"currency":"CNY","moq":1,"category":"miu-miu-women-bags","status":"active","alibaba_url":null,"images":["https://xcimg.szwego.com/20240606/i1717615342_6971_0.jpg","https://xcimg.szwego.com/20240606/i1717615342_9140_1.jpg","https://xcimg.szwego.com/20240606/i1717615342_4952_2.jpg","https://xcimg.szwego.com/20240606/i1717615342_7407_3.jpg","https://xcimg.szwego.com/20240606/i1717615342_9986_4.jpg"],"created_at":"2024-11-11T10:30:45.852Z"},{"id":"item-20fb6d26775c","sku":"_dpmpmuteX7uX_gK1Ec9DpkIeFGIXq90q4J3h-Ig","name_en":"5BC157 hobo 腋下包","name_cn":"5BC157 hobo 腋下包","specs":{"source":"wsxcme","sourceId":"_dpmpmuteX7uX_gK1Ec9DpkIeFGIXq90q4J3h-Ig","sourceTagId":68075769,"sourceTagName":"Miu Miu /女包","rawTitle":"5BC157 hobo 腋下包"},"price":null,"currency":"CNY","moq":1,"category":"miu-miu-women-bags","status":"active","alibaba_url":null,"images":["https://xcimg.szwego.com/20231021/i1697882184_4876_0.jpg","https://xcimg.szwego.com/20231021/i1697882184_3750_1.jpg","https://xcimg.szwego.com/20231021/i1697882184_1796_2.jpg","https://xcimg.szwego.com/20231021/i1697882184_7270_3.jpg","https://xcimg.szwego.com/20231021/i1697882184_7787_4.jpg","https://xcimg.szwego.com/20231021/i1697882184_1686_5.jpg","https://xcimg.szwego.com/20231021/i1697882184_3464_6.jpg","https://xcimg.szwego.com/20231021/i1697882184_4075_7.jpg"],"created_at":"2024-09-27T07:07:24.218Z"},{"id":"item-86f04bcbb9d2","sku":"_dxvxvfdz4XLvbHFt8u1DarjvzbZ4pBjBnwKHtcw","name_en":"5BC158:Miu家新品,经典Matelasse工艺,顶级进口小羊皮,包型精致的立体效果,高级纹理质感重新诠释了这款软羊革手袋的柔美魅力,制作工艺与外观设计融合了众多MlUMlU最为独特的标志性元素,搭配可调节的皮革肩带,背法多样,进一步增添时尚魅力与摩登风范,内配棉质缎面衬里,尺寸:长24CM,高11.5CM,宽7CM💕(配原版包装)","name_cn":"5BC158:Miu家新品,经典Matelasse工艺,顶级进口小羊皮,包型精致的立体效果,高级纹理质感重新诠释了这款软羊革手袋的柔美魅力,制作工艺与外观设计融合了众多MlUMlU最为独特的标志性元素,搭配可调节的皮革肩带,背法多样,进一步增添时尚魅力与摩登风范,内配棉质缎面衬里,尺寸:长24CM,高11.5CM,宽7CM💕(配原版包装)","specs":{"source":"wsxcme","sourceId":"_dxvxvfdz4XLvbHFt8u1DarjvzbZ4pBjBnwKHtcw","sourceTagId":68075769,"sourceTagName":"Miu Miu /女包","rawTitle":"5BC158:Miu家新品,经典Matelasse工艺,顶级进口小羊皮,包型精致的立体效果,高级纹理质感重新诠释了这款软羊革手袋的柔美魅力,制作工艺与外观设计融合了众多MlUMlU最为独特的标志性元素,搭配可调节的皮革肩带,背法多样,进一步增添时尚魅力与摩登风范,内配棉质缎面衬里,尺寸:长24CM,高11.5CM,宽7CM💕(配原版包装)"},"price":null,"currency":"CNY","moq":1,"category":"miu-miu-women-bags","status":"active","alibaba_url":null,"images":["https://xcimg.szwego.com/img/1b3490b8/20241015/i1728967160_3175_1.jpg","https://xcimg.szwego.com/img/1b3490b8/20241015/i1728967160_4547_3.jpg","https://xcimg.szwego.com/img/1b3490b8/20241015/i1728967160_5773_0.jpg","https://xcimg.szwego.com/img/1b3490b8/20241015/i1728967160_6129_4.jpg","https://xcimg.szwego.com/img/1b3490b8/20241015/i1728967160_1358_6.jpg","https://xcimg.szwego.com/img/1b3490b8/20241015/i1728967160_2151_2.jpg","https://xcimg.szwego.com/img/1b3490b8/20241015/i1728967160_3347_7.jpg","https://xcimg.szwego.com/img/1b3490b8/20241015/i1728967160_517_5.jpg","https://xcimg.szwego.com/img/1b3490b8/20241015/i1728967160_7570_8.jpg"],"created_at":"2025-02-10T13:49:27.520Z"},{"id":"item-762fb4183d8c","sku":"_dOIOI8ocqxzvnuFVRGQNWJMxlB-8XldDA5DJnLg","name_en":"5BE089","name_cn":"5BE089","specs":{"source":"wsxcme","sourceId":"_dOIOI8ocqxzvnuFVRGQNWJMxlB-8XldDA5DJnLg","sourceTagId":68075769,"sourceTagName":"Miu Miu /女包","rawTitle":"5BE089"},"price":null,"currency":"CNY","moq":1,"category":"miu-miu-women-bags","status":"active","alibaba_url":null,"images":["https://xcimg.szwego.com/20240514/i1715627968_3573_0.jpg","https://xcimg.szwego.com/20240514/i1715627968_6159_1.jpg","https://xcimg.szwego.com/20240514/i1715627968_7773_2.jpg","https://xcimg.szwego.com/20240514/i1715627968_9702_3.jpg","https://xcimg.szwego.com/20240514/i1715627968_7543_4.jpg","https://xcimg.szwego.com/20240514/i1715627968_1817_5.jpg","https://xcimg.szwego.com/20240514/i1715627968_8084_6.jpg"],"created_at":"2024-11-11T10:30:45.838Z"},{"id":"item-cebaebf52965","sku":"_dwDwDQIpdBqENvBMYqL36NNAEm5roT9EGFeWFJg","name_en":"5BE090","name_cn":"5BE090","specs":{"source":"wsxcme","sourceId":"_dwDwDQIpdBqENvBMYqL36NNAEm5roT9EGFeWFJg","sourceTagId":68075769,"sourceTagName":"Miu Miu /女包","rawTitle":"5BE090"},"price":null,"currency":"CNY","moq":1,"category":"miu-miu-women-bags","status":"active","alibaba_url":null,"images":["https://xcimg.szwego.com/20240514/i1715627301_309_0.jpg","https://xcimg.szwego.com/20240514/i1715627301_4045_1.jpg","https://xcimg.szwego.com/20240514/i1715627301_7141_2.jpg","https://xcimg.szwego.com/20240514/i1715627301_1394_3.jpg","https://xcimg.szwego.com/20240514/i1715627301_458_4.jpg","https://xcimg.szwego.com/20240514/i1715627301_6153_5.jpg","https://xcimg.szwego.com/20240514/i1715627301_8807_6.jpg","https://xcimg.szwego.com/20240514/i1715627301_5221_7.jpg","https://xcimg.szwego.com/20240514/i1715627301_4422_8.jpg"],"created_at":"2024-11-11T10:30:45.836Z"},{"id":"item-14ba6b3ce41f","sku":"_dSzSzPKxUMHI0_yegf77NJ-eQqWtgpB6EQ2dgqQ","name_en":"5BE090,Miu家新款水桶包","name_cn":"5BE090,Miu家新款水桶包","specs":{"source":"wsxcme","sourceId":"_dSzSzPKxUMHI0_yegf77NJ-eQqWtgpB6EQ2dgqQ","sourceTagId":68075769,"sourceTagName":"Miu Miu /女包","rawTitle":"5BE090,Miu家新款水桶包"},"price":null,"currency":"CNY","moq":1,"category":"miu-miu-women-bags","status":"active","alibaba_url":null,"images":["https://xcimg.szwego.com/20240516/i1715822829_2776_0.jpg","https://xcimg.szwego.com/20240516/i1715822829_7196_1.jpg","https://xcimg.szwego.com/20240516/i1715822829_4456_2.jpg","https://xcimg.szwego.com/20240516/i1715822829_4712_3.jpg","https://xcimg.szwego.com/20240516/i1715822829_1330_4.jpg"],"created_at":"2024-11-11T10:30:45.835Z"},{"id":"item-a7c7bef8d34a","sku":"_dbEbEYQ5cAIeAfrWIRBilnYMkxCpDM4EQCMhJNw","name_en":"5BF131,Miu新品特色款式贝壳双肩包,精致细腻光泽小牛皮,简约线条结合时装秀的灵感和现代女性气质,在风格实验和精致多样性之间取得了平衡,手袋有多种佩戴方式:单肩,手拿,斜挎,双肩,呈现百搭复古风格,延续 miu不拘一格,大胆创新,慵懒不鞍却又自然洒脱的风格,个性鲜明,能驾驭各种风格,上班通勤外出逛街都是绝佳选择","name_cn":"5BF131,Miu新品特色款式贝壳双肩包,精致细腻光泽小牛皮,简约线条结合时装秀的灵感和现代女性气质,在风格实验和精致多样性之间取得了平衡,手袋有多种佩戴方式:单肩,手拿,斜挎,双肩,呈现百搭复古风格,延续 miu不拘一格,大胆创新,慵懒不鞍却又自然洒脱的风格,个性鲜明,能驾驭各种风格,上班通勤外出逛街都是绝佳选择\n尺寸:24 X 14 X8.5 cm","specs":{"source":"wsxcme","sourceId":"_dbEbEYQ5cAIeAfrWIRBilnYMkxCpDM4EQCMhJNw","sourceTagId":68075769,"sourceTagName":"Miu Miu /女包","dimensions":{"lengthCm":24,"heightCm":14,"widthCm":8.5},"rawTitle":"5BF131,Miu新品特色款式贝壳双肩包,精致细腻光泽小牛皮,简约线条结合时装秀的灵感和现代女性气质,在风格实验和精致多样性之间取得了平衡,手袋有多种佩戴方式:单肩,手拿,斜挎,双肩,呈现百搭复古风格,延续 miu不拘一格,大胆创新,慵懒不鞍却又自然洒脱的风格,个性鲜明,能驾驭各种风格,上班通勤外出逛街都是绝佳选择\n尺寸:24 X 14 X8.5 cm"},"price":null,"currency":"CNY","moq":1,"category":"miu-miu-women-bags","status":"active","alibaba_url":null,"images":["https://xcimg.szwego.com/imgHD/1698de7a/20260120/cmp_i1768909932873_5556_0_0.jpg","https://xcimg.szwego.com/imgHD/1698de7a/20260120/cmp_i1768909932891_5642_0_2.jpg","https://xcimg.szwego.com/imgHD/1698de7a/20260120/cmp_i1768909932885_7880_0_1.jpg","https://xcimg.szwego.com/imgHD/1698de7a/20260120/cmp_i1768909935241_8028_0_3.jpg","https://xcimg.szwego.com/imgHD/1698de7a/20260120/cmp_i1768909935043_2931_0_4.jpg","https://xcimg.szwego.com/imgHD/1698de7a/20260120/cmp_i1768909932812_9090_0_6.jpg","https://xcimg.szwego.com/imgHD/1698de7a/20260120/cmp_i1768909932812_7046_0_5.jpg","https://xcimg.szwego.com/imgHD/1698de7a/20260120/cmp_i1768909935043_7978_0_7.jpg","https://xcimg.szwego.com/imgHD/1698de7a/20260120/cmp_i1768909935254_3117_0_8.jpg"],"created_at":"2026-06-29T11:34:31.082Z"},{"id":"item-634bd3c63cef","sku":"_dbNbNtVxgUq-UvEsQXoW38BA3iAVJ4OS7vAyhpw","name_en":"5BF131,Miu新品特色款式贝壳双肩包,精致细腻光泽小牛皮,简约线条结合时装秀的灵感和现代女性气质,在风格实验和精致多样性之间取得了平衡,手袋有多种佩戴方式:单肩,手拿,斜挎,双肩,呈现百搭复古风格,延续 miu不拘一格,大胆创新,慵懒不鞍却又自然洒脱的风格,个性鲜明,能驾驭各种风格,上班通勤外出逛街都是绝佳选择","name_cn":"5BF131,Miu新品特色款式贝壳双肩包,精致细腻光泽小牛皮,简约线条结合时装秀的灵感和现代女性气质,在风格实验和精致多样性之间取得了平衡,手袋有多种佩戴方式:单肩,手拿,斜挎,双肩,呈现百搭复古风格,延续 miu不拘一格,大胆创新,慵懒不鞍却又自然洒脱的风格,个性鲜明,能驾驭各种风格,上班通勤外出逛街都是绝佳选择\n尺寸:24 X 14 X8.5 cm\n\n5BF131,Miu新品特色款式贝壳双肩包,精致细腻光泽小牛皮,简约线条结合时装秀的灵感和现代女性气质,在风格实验和精致多样性之间取得了平衡,手袋有多种佩戴方式:单肩,手拿,斜挎,双肩,呈现百搭复古风格,延续 miu不拘一格,大胆创新,慵懒不鞍却又自然洒脱的风格,个性鲜明,能驾驭各种风格,上班通勤外出逛街都是绝佳选择\n尺寸:24 X 14 X8.5 cm","specs":{"source":"wsxcme","sourceId":"_dbNbNtVxgUq-UvEsQXoW38BA3iAVJ4OS7vAyhpw","sourceTagId":68075769,"sourceTagName":"Miu Miu /女包","dimensions":{"lengthCm":24,"heightCm":14,"widthCm":8.5},"rawTitle":"5BF131,Miu新品特色款式贝壳双肩包,精致细腻光泽小牛皮,简约线条结合时装秀的灵感和现代女性气质,在风格实验和精致多样性之间取得了平衡,手袋有多种佩戴方式:单肩,手拿,斜挎,双肩,呈现百搭复古风格,延续 miu不拘一格,大胆创新,慵懒不鞍却又自然洒脱的风格,个性鲜明,能驾驭各种风格,上班通勤外出逛街都是绝佳选择\n尺寸:24 X 14 X8.5 cm\n\n5BF131,Miu新品特色款式贝壳双肩包,精致细腻光泽小牛皮,简约线条结合时装秀的灵感和现代女性气质,在风格实验和精致多样性之间取得了平衡,手袋有多种佩戴方式:单肩,手拿,斜挎,双肩,呈现百搭复古风格,延续 miu不拘一格,大胆创新,慵懒不鞍却又自然洒脱的风格,个性鲜明,能驾驭各种风格,上班通勤外出逛街都是绝佳选择\n尺寸:24 X 14 X8.5 cm"},"price":null,"currency":"CNY","moq":1,"category":"miu-miu-women-bags","status":"active","alibaba_url":null,"images":["https://xcimg.szwego.com/imgHD/1698de7a/20260120/cmp_i1768910182092_4987_0_0.jpg","https://xcimg.szwego.com/imgHD/1698de7a/20260120/cmp_i1768910183892_5518_0_1.jpg","https://xcimg.szwego.com/imgHD/1698de7a/20260120/cmp_i1768910182065_6826_0_2.jpg","https://xcimg.szwego.com/imgHD/1698de7a/20260120/cmp_i1768910183876_8263_0_3.jpg","https://xcimg.szwego.com/imgHD/1698de7a/20260120/cmp_i1768910181816_891_0_6.jpg","https://xcimg.szwego.com/imgHD/1698de7a/20260120/cmp_i1768910182075_2720_0_4.jpg","https://xcimg.szwego.com/imgHD/1698de7a/20260120/cmp_i1768910183729_7097_0_5.jpg","https://xcimg.szwego.com/imgHD/1698de7a/20260120/cmp_i1768910182065_5368_0_7.jpg","https://xcimg.szwego.com/imgHD/1698de7a/20260120/cmp_i1768910183886_8604_0_8.jpg"],"created_at":"2026-06-29T11:34:31.112Z"},{"id":"item-58b6c1b6dcc7","sku":"_da9a9ljb6FCtE2XMWZBwUQBH-ZHzGb1w92P6PcQ","name_en":"5BF131,Miu新品特色款式贝壳双肩包,精致细腻光泽小牛皮,简约线条结合时装秀的灵感和现代女性气质,在风格实验和精致多样性之间取得了平衡,手袋有多种佩戴方式:单肩,手拿,斜挎,双肩,呈现百搭复古风格,延续 miu不拘一格,大胆创新,慵懒不鞍却又自然洒脱的风格,个性鲜明,能驾驭各种风格,上班通勤外出逛街都是绝佳选择","name_cn":"5BF131,Miu新品特色款式贝壳双肩包,精致细腻光泽小牛皮,简约线条结合时装秀的灵感和现代女性气质,在风格实验和精致多样性之间取得了平衡,手袋有多种佩戴方式:单肩,手拿,斜挎,双肩,呈现百搭复古风格,延续 miu不拘一格,大胆创新,慵懒不鞍却又自然洒脱的风格,个性鲜明,能驾驭各种风格,上班通勤外出逛街都是绝佳选择\n尺寸:24 X 14 X8.5 cm","specs":{"source":"wsxcme","sourceId":"_da9a9ljb6FCtE2XMWZBwUQBH-ZHzGb1w92P6PcQ","sourceTagId":68075769,"sourceTagName":"Miu Miu /女包","dimensions":{"lengthCm":24,"heightCm":14,"widthCm":8.5},"rawTitle":"5BF131,Miu新品特色款式贝壳双肩包,精致细腻光泽小牛皮,简约线条结合时装秀的灵感和现代女性气质,在风格实验和精致多样性之间取得了平衡,手袋有多种佩戴方式:单肩,手拿,斜挎,双肩,呈现百搭复古风格,延续 miu不拘一格,大胆创新,慵懒不鞍却又自然洒脱的风格,个性鲜明,能驾驭各种风格,上班通勤外出逛街都是绝佳选择\n尺寸:24 X 14 X8.5 cm"},"price":null,"currency":"CNY","moq":1,"category":"miu-miu-women-bags","status":"active","alibaba_url":null,"images":["https://xcimg.szwego.com/imgHD/1698de7a/20260120/cmp_i1768910023922_1467_0_0.jpg","https://xcimg.szwego.com/imgHD/1698de7a/20260120/cmp_i1768910022661_481_0_2.jpg","https://xcimg.szwego.com/imgHD/1698de7a/20260120/cmp_i1768910023903_396_0_1.jpg","https://xcimg.szwego.com/imgHD/1698de7a/20260120/cmp_i1768910022676_534_0_3.jpg","https://xcimg.szwego.com/imgHD/1698de7a/20260120/cmp_i1768910023702_1536_0_4.jpg","https://xcimg.szwego.com/imgHD/1698de7a/20260120/cmp_i1768910022477_9011_0_5.jpg","https://xcimg.szwego.com/imgHD/1698de7a/20260120/cmp_i1768910022476_1440_0_6.jpg","https://xcimg.szwego.com/imgHD/1698de7a/20260120/cmp_i1768910023904_6121_0_7.jpg","https://xcimg.szwego.com/imgHD/1698de7a/20260120/cmp_i1768910022663_869_0_8.jpg"],"created_at":"2026-06-29T11:34:31.092Z"},{"id":"item-37b29353eea7","sku":"_dbwbwme8lavHhO-4cm4HXZ0sKEyUstrJEFkiZGQ","name_en":"5BF131,Miu新品特色款式贝壳双肩包,精致细腻光泽小牛皮,简约线条结合时装秀的灵感和现代女性气质,在风格实验和精致多样性之间取得了平衡,手袋有多种佩戴方式:单肩,手拿,斜挎,双肩,呈现百搭复古风格,延续 miu不拘一格,大胆创新,慵懒不鞍却又自然洒脱的风格,个性鲜明,能驾驭各种风格,上班通勤外出逛街都是绝佳选择","name_cn":"5BF131,Miu新品特色款式贝壳双肩包,精致细腻光泽小牛皮,简约线条结合时装秀的灵感和现代女性气质,在风格实验和精致多样性之间取得了平衡,手袋有多种佩戴方式:单肩,手拿,斜挎,双肩,呈现百搭复古风格,延续 miu不拘一格,大胆创新,慵懒不鞍却又自然洒脱的风格,个性鲜明,能驾驭各种风格,上班通勤外出逛街都是绝佳选择\n尺寸:24 X 14 X8.5 cm","specs":{"source":"wsxcme","sourceId":"_dbwbwme8lavHhO-4cm4HXZ0sKEyUstrJEFkiZGQ","sourceTagId":68075769,"sourceTagName":"Miu Miu /女包","dimensions":{"lengthCm":24,"heightCm":14,"widthCm":8.5},"rawTitle":"5BF131,Miu新品特色款式贝壳双肩包,精致细腻光泽小牛皮,简约线条结合时装秀的灵感和现代女性气质,在风格实验和精致多样性之间取得了平衡,手袋有多种佩戴方式:单肩,手拿,斜挎,双肩,呈现百搭复古风格,延续 miu不拘一格,大胆创新,慵懒不鞍却又自然洒脱的风格,个性鲜明,能驾驭各种风格,上班通勤外出逛街都是绝佳选择\n尺寸:24 X 14 X8.5 cm"},"price":null,"currency":"CNY","moq":1,"category":"miu-miu-women-bags","status":"active","alibaba_url":null,"images":["https://xcimg.szwego.com/imgHD/1698de7a/20260120/cmp_i1768910093291_5601_0_1.jpg","https://xcimg.szwego.com/imgHD/1698de7a/20260120/cmp_i1768910093280_4524_0_2.jpg","https://xcimg.szwego.com/imgHD/1698de7a/20260120/cmp_i1768910093300_1004_0_0.jpg","https://xcimg.szwego.com/imgHD/1698de7a/20260120/cmp_i1768910094608_2296_0_3.jpg","https://xcimg.szwego.com/imgHD/1698de7a/20260120/cmp_i1768910094589_5922_0_6.jpg","https://xcimg.szwego.com/imgHD/1698de7a/20260120/cmp_i1768910093104_1170_0_4.jpg","https://xcimg.szwego.com/imgHD/1698de7a/20260120/cmp_i1768910093103_6070_0_5.jpg","https://xcimg.szwego.com/imgHD/1698de7a/20260120/cmp_i1768910094443_2253_0_7.jpg","https://xcimg.szwego.com/imgHD/1698de7a/20260120/cmp_i1768910094587_3536_0_8.jpg"],"created_at":"2026-06-29T11:34:31.102Z"},{"id":"item-6b9bb4c56a27","sku":"_daDaDVk8lYlUDxVmHNgLRZ7TzFKGGX8GKHKFKLw","name_en":"5BG231","name_cn":"5BG231","specs":{"source":"wsxcme","sourceId":"_daDaDVk8lYlUDxVmHNgLRZ7TzFKGGX8GKHKFKLw","sourceTagId":68075769,"sourceTagName":"Miu Miu /女包","rawTitle":"5BG231"},"price":null,"currency":"CNY","moq":1,"category":"miu-miu-women-bags","status":"active","alibaba_url":null,"images":["https://xcimg.szwego.com/20240624/i1719171257_1373_0.jpg","https://xcimg.szwego.com/20240624/i1719171257_540_1.jpg","https://xcimg.szwego.com/20240624/i1719171257_5719_2.jpg","https://xcimg.szwego.com/20240624/i1719171257_3929_3.jpg","https://xcimg.szwego.com/20240624/i1719171542_4491_0.jpg"],"created_at":"2024-09-27T07:07:24.208Z"},{"id":"item-abd6dfc347e8","sku":"_drnrn_mivBVMkpSkHSCt9qUxoNcwI0r_yB-Xmfg","name_en":"5BG276","name_cn":"5BG276","specs":{"source":"wsxcme","sourceId":"_drnrn_mivBVMkpSkHSCt9qUxoNcwI0r_yB-Xmfg","sourceTagId":68075769,"sourceTagName":"Miu Miu /女包","rawTitle":"5BG276"},"price":null,"currency":"CNY","moq":1,"category":"miu-miu-women-bags","status":"active","alibaba_url":null,"images":["https://xcimg.szwego.com/20240105/i1704391076_213_0.jpg","https://xcimg.szwego.com/20240105/i1704391076_9998_1.jpg","https://xcimg.szwego.com/20240105/i1704391076_5833_2.jpg","https://xcimg.szwego.com/20240105/i1704391076_7124_3.jpg","https://xcimg.szwego.com/20240105/i1704391076_9927_4.jpg"],"created_at":"2024-11-11T10:30:45.843Z"},{"id":"item-ce8b1b3a2b2f","sku":"_dzEzEsGXhhpfn7eAvrecEHf7BvxafZkeDxzRuuA","name_en":"5BG276,Miu家新款伊势丹限定托特包,官网主推,今年绝对爆🔥款式,顶级进口小牛皮,皮面细腻光滑柔软,上乘的皮革质感高级,包身软而不塌,大尺寸设计,气质随性慵懒,容量超大,日常出街背它回头率百分百,手工缝制皮面Logo标志,内里全新麻布里,配两个拉链式口袋,尺寸38X 38 X18Cm,配原版包装","name_cn":"5BG276,Miu家新款伊势丹限定托特包,官网主推,今年绝对爆🔥款式,顶级进口小牛皮,皮面细腻光滑柔软,上乘的皮革质感高级,包身软而不塌,大尺寸设计,气质随性慵懒,容量超大,日常出街背它回头率百分百,手工缝制皮面Logo标志,内里全新麻布里,配两个拉链式口袋,尺寸38X 38 X18Cm,配原版包装","specs":{"source":"wsxcme","sourceId":"_dzEzEsGXhhpfn7eAvrecEHf7BvxafZkeDxzRuuA","sourceTagId":68075769,"sourceTagName":"Miu Miu /女包","dimensions":{"lengthCm":38,"heightCm":38,"widthCm":18},"rawTitle":"5BG276,Miu家新款伊势丹限定托特包,官网主推,今年绝对爆🔥款式,顶级进口小牛皮,皮面细腻光滑柔软,上乘的皮革质感高级,包身软而不塌,大尺寸设计,气质随性慵懒,容量超大,日常出街背它回头率百分百,手工缝制皮面Logo标志,内里全新麻布里,配两个拉链式口袋,尺寸38X 38 X18Cm,配原版包装"},"price":null,"currency":"CNY","moq":1,"category":"miu-miu-women-bags","status":"active","alibaba_url":null,"images":["https://xcimg.szwego.com/20231111/i1699639314_2487_0.jpg","https://xcimg.szwego.com/20231111/i1699639314_8937_1.jpg","https://xcimg.szwego.com/20231111/i1699639314_6036_2.jpg","https://xcimg.szwego.com/20231111/i1699639314_5964_3.jpg","https://xcimg.szwego.com/20231111/i1699639314_9609_4.jpg","https://xcimg.szwego.com/20231111/i1699639314_9280_5.jpg","https://xcimg.szwego.com/20231111/i1699639314_4729_6.jpg","https://xcimg.szwego.com/20231111/i1699639314_2211_7.jpg","https://xcimg.szwego.com/20231111/i1699639314_2460_8.jpg"],"created_at":"2024-11-11T10:30:45.845Z"},{"id":"item-8eb4b8621600","sku":"_dZgZgERy7DLrVdDFpdVDbzes5yJfVeUh_Qmhw3Q","name_en":"5BG276灯芯绒","name_cn":"5BG276灯芯绒","specs":{"source":"wsxcme","sourceId":"_dZgZgERy7DLrVdDFpdVDbzes5yJfVeUh_Qmhw3Q","sourceTagId":68075769,"sourceTagName":"Miu Miu /女包","rawTitle":"5BG276灯芯绒"},"price":null,"currency":"CNY","moq":1,"category":"miu-miu-women-bags","status":"active","alibaba_url":null,"images":["https://xcimg.szwego.com/20231130/i1701283325_6608_0.jpg","https://xcimg.szwego.com/20231130/i1701283325_3088_1.jpg","https://xcimg.szwego.com/20231130/i1701283325_2968_2.jpg","https://xcimg.szwego.com/20231130/i1701283325_3756_3.jpg","https://xcimg.szwego.com/20231130/i1701283325_4058_4.jpg","https://xcimg.szwego.com/20231130/i1701283325_4818_5.jpg","https://xcimg.szwego.com/20231130/i1701283325_4964_6.jpg","https://xcimg.szwego.com/20231130/i1701283325_1172_7.jpg","https://xcimg.szwego.com/20231130/i1701283325_6099_8.jpg"],"created_at":"2024-11-11T10:30:45.842Z"},{"id":"item-aae11411469b","sku":"_dizizZseY8cZcJxZIqQcGFTF0pzH1HD1X8uBnFg","name_en":"5BG276复古擦色皮","name_cn":"5BG276复古擦色皮","specs":{"source":"wsxcme","sourceId":"_dizizZseY8cZcJxZIqQcGFTF0pzH1HD1X8uBnFg","sourceTagId":68075769,"sourceTagName":"Miu Miu /女包","rawTitle":"5BG276复古擦色皮"},"price":null,"currency":"CNY","moq":1,"category":"miu-miu-women-bags","status":"active","alibaba_url":null,"images":["https://xcimg.szwego.com/20240317/i1710612170_1103_2.jpg","https://xcimg.szwego.com/20240317/i1710612170_1666_1.jpg","https://xcimg.szwego.com/20240317/i1710612170_3881_3.jpg","https://xcimg.szwego.com/20240317/i1710612170_9098_0.jpg","https://xcimg.szwego.com/20240317/i1710612170_7411_4.jpg","https://xcimg.szwego.com/20240317/i1710612170_4711_5.jpg","https://xcimg.szwego.com/20240317/i1710612170_7845_8.jpg","https://xcimg.szwego.com/20240317/i1710612170_2481_6.jpg","https://xcimg.szwego.com/20240317/i1710612170_8347_7.jpg"],"created_at":"2024-11-11T10:30:45.847Z"},{"id":"item-1332a5b454a0","sku":"_dlele2vXlRE8BnZnyW0oKfI-tyX1O975-s8n5Iw","name_en":"5BG287","name_cn":"5BG287","specs":{"source":"wsxcme","sourceId":"_dlele2vXlRE8BnZnyW0oKfI-tyX1O975-s8n5Iw","sourceTagId":68075769,"sourceTagName":"Miu Miu /女包","rawTitle":"5BG287"},"price":null,"currency":"CNY","moq":1,"category":"miu-miu-women-bags","status":"active","alibaba_url":null,"images":["https://xcimg.szwego.com/20240606/i1717615281_7079_1.jpg","https://xcimg.szwego.com/20240606/i1717615281_555_0.jpg","https://xcimg.szwego.com/20240606/i1717615281_7859_6.jpg","https://xcimg.szwego.com/20240606/i1717615281_9842_2.jpg","https://xcimg.szwego.com/20240606/i1717615281_1393_3.jpg","https://xcimg.szwego.com/20240606/i1717615281_5174_4.jpg","https://xcimg.szwego.com/20240606/i1717615281_6296_5.jpg"],"created_at":"2024-11-11T10:30:45.854Z"},{"id":"item-f598f618e0e1","sku":"_dt5t5Y7K6pHvqqsgNHCEIAtUSKEEpmvsMiaENfg","name_en":"5BG288","name_cn":"5BG288","specs":{"source":"wsxcme","sourceId":"_dt5t5Y7K6pHvqqsgNHCEIAtUSKEEpmvsMiaENfg","sourceTagId":68075769,"sourceTagName":"Miu Miu /女包","rawTitle":"5BG288"},"price":null,"currency":"CNY","moq":1,"category":"miu-miu-women-bags","status":"active","alibaba_url":null,"images":["https://xcimg.szwego.com/20231130/i1701284507_1975_0.jpg","https://xcimg.szwego.com/20231130/i1701284507_4394_1.jpg","https://xcimg.szwego.com/20231130/i1701284507_4948_2.jpg","https://xcimg.szwego.com/20231130/i1701333971_4072_0.jpg","https://xcimg.szwego.com/20231130/i1701333971_6095_1.jpg"],"created_at":"2024-11-11T10:30:45.826Z"},{"id":"item-e9a3005b2f4e","sku":"_dtLtL9ZoEHTbhNbObhYR-B27JTw-D6f2lnLtzMA","name_en":"5BG288,Miu家新款伊势丹限定托特包,官网主推,今年绝对爆🔥款式,顶级进口小牛皮,皮面细腻光滑柔软,上乘的皮革质感高级,包身软而不塌,小尺寸设计更加精致,气质随性慵懒,日常出街背它回头率百分百,手工缝制皮面Logo标志,内里全新麻布里,配两个拉链式口袋,可调节皮革长肩带,尺寸22X 14X11Cm,配原版包装","name_cn":"5BG288,Miu家新款伊势丹限定托特包,官网主推,今年绝对爆🔥款式,顶级进口小牛皮,皮面细腻光滑柔软,上乘的皮革质感高级,包身软而不塌,小尺寸设计更加精致,气质随性慵懒,日常出街背它回头率百分百,手工缝制皮面Logo标志,内里全新麻布里,配两个拉链式口袋,可调节皮革长肩带,尺寸22X 14X11Cm,配原版包装","specs":{"source":"wsxcme","sourceId":"_dtLtL9ZoEHTbhNbObhYR-B27JTw-D6f2lnLtzMA","sourceTagId":68075769,"sourceTagName":"Miu Miu /女包","dimensions":{"lengthCm":22,"heightCm":14,"widthCm":11},"rawTitle":"5BG288,Miu家新款伊势丹限定托特包,官网主推,今年绝对爆🔥款式,顶级进口小牛皮,皮面细腻光滑柔软,上乘的皮革质感高级,包身软而不塌,小尺寸设计更加精致,气质随性慵懒,日常出街背它回头率百分百,手工缝制皮面Logo标志,内里全新麻布里,配两个拉链式口袋,可调节皮革长肩带,尺寸22X 14X11Cm,配原版包装"},"price":null,"currency":"CNY","moq":1,"category":"miu-miu-women-bags","status":"active","alibaba_url":null,"images":["https://xcimg.szwego.com/img/7f9d4644/20250314/i1741916548_4914_1.jpg","https://xcimg.szwego.com/img/7f9d4644/20250314/i1741916548_5153_3.jpg","https://xcimg.szwego.com/img/7f9d4644/20250314/i1741916548_4620_7.jpg","https://xcimg.szwego.com/img/7f9d4644/20250314/i1741916548_3771_0.jpg","https://xcimg.szwego.com/img/7f9d4644/20250314/i1741916548_8499_6.jpg","https://xcimg.szwego.com/img/7f9d4644/20250314/i1741916548_6320_2.jpg","https://xcimg.szwego.com/img/7f9d4644/20250314/i1741916548_4773_4.jpg","https://xcimg.szwego.com/img/7f9d4644/20250314/i1741916548_4029_8.jpg","https://xcimg.szwego.com/img/7f9d4644/20250314/i1741916548_4964_5.jpg"],"created_at":"2026-06-29T11:34:30.372Z"},{"id":"item-853bb9b7be9a","sku":"_dvRvRUnOJyn3FygKuh1GtFtbQranx77vgaftX7w","name_en":"5BG288,Miu家新款伊势丹限定托特包,官网主推,今年绝对爆🔥款式,顶级进口小牛皮,皮面细腻光滑柔软,上乘的皮革质感高级,包身软而不塌,小尺寸设计更加精致,气质随性慵懒,日常出街背它回头率百分百,手工缝制皮面Logo标志,内里全新麻布里,配两个拉链式口袋,可调节皮革长肩带,尺寸22X 14X11Cm,配原版包装","name_cn":"5BG288,Miu家新款伊势丹限定托特包,官网主推,今年绝对爆🔥款式,顶级进口小牛皮,皮面细腻光滑柔软,上乘的皮革质感高级,包身软而不塌,小尺寸设计更加精致,气质随性慵懒,日常出街背它回头率百分百,手工缝制皮面Logo标志,内里全新麻布里,配两个拉链式口袋,可调节皮革长肩带,尺寸22X 14X11Cm,配原版包装","specs":{"source":"wsxcme","sourceId":"_dvRvRUnOJyn3FygKuh1GtFtbQranx77vgaftX7w","sourceTagId":68075769,"sourceTagName":"Miu Miu /女包","dimensions":{"lengthCm":22,"heightCm":14,"widthCm":11},"rawTitle":"5BG288,Miu家新款伊势丹限定托特包,官网主推,今年绝对爆🔥款式,顶级进口小牛皮,皮面细腻光滑柔软,上乘的皮革质感高级,包身软而不塌,小尺寸设计更加精致,气质随性慵懒,日常出街背它回头率百分百,手工缝制皮面Logo标志,内里全新麻布里,配两个拉链式口袋,可调节皮革长肩带,尺寸22X 14X11Cm,配原版包装"},"price":null,"currency":"CNY","moq":1,"category":"miu-miu-women-bags","status":"active","alibaba_url":null,"images":["https://xcimg.szwego.com/20231123/i1700677990_7226_0.jpg","https://xcimg.szwego.com/20231123/i1700677990_3773_1.jpg","https://xcimg.szwego.com/20231123/i1700677990_9297_2.jpg"],"created_at":"2024-11-11T10:30:45.840Z"}],"page":131,"pageSize":24,"total":10075,"totalPages":420}
