{"items":[{"id":"item-5b25ae2d8a12","sku":"_dUQUQjYxwRXwHau1wikuW7SBqW881DdCoF3H34A","name_en":"『Celine 赛琳』","name_cn":"『Celine 赛琳』\n\nCELI.NE贝壳包 TRIOMPHE帆布相机包  64%涂层帆布,36%小牛皮 可斜挎和肩背 拉链锁闭 可调节皮革肩带长20英寸(50厘米)\n尺寸:20 X 15 X 5cm\n型号:3189#","specs":{"source":"wsxcme","sourceId":"_dUQUQjYxwRXwHau1wikuW7SBqW881DdCoF3H34A","sourceTagId":47003106,"sourceTagName":"塞琳/女包","modelNumber":"3189#","dimensions":{"lengthCm":20,"heightCm":15,"widthCm":5},"rawTitle":"『Celine 赛琳』\n\nCELI.NE贝壳包 TRIOMPHE帆布相机包  64%涂层帆布,36%小牛皮 可斜挎和肩背 拉链锁闭 可调节皮革肩带长20英寸(50厘米)\n尺寸:20 X 15 X 5cm\n型号:3189#"},"price":null,"currency":"CNY","moq":1,"category":"celine-women-bags","status":"active","alibaba_url":null,"images":["https://xcimg.szwego.com/20220422/i1650601915_3079_0.jpg","https://xcimg.szwego.com/20220422/i1650601915_5892_1.jpg","https://xcimg.szwego.com/20220422/i1650601915_3795_2.jpg","https://xcimg.szwego.com/20220422/i1650601915_2463_3.jpg","https://xcimg.szwego.com/20220422/i1650601915_6503_4.jpg","https://xcimg.szwego.com/20220422/i1650601915_1721_5.jpg","https://xcimg.szwego.com/20220422/i1650601915_9345_6.jpg","https://xcimg.szwego.com/20220422/i1650601915_866_7.jpg","https://xcimg.szwego.com/20220422/i1650601915_1166_8.jpg"],"created_at":"2025-02-08T12:47:23.801Z"},{"id":"item-5af1cf909de5","sku":"_dflflfvaTj2AmRwgo2JnlStGIH6j6yAz1i_-zrA","name_en":"『Celine 赛琳』","name_cn":"『Celine 赛琳』\n\nCABAS TRIOMPHE🛍老花MiNi号竖款手袋65%纺织布,35%小牛皮100%棉衬里内侧插袋可调节可拆卸皮革肩带 长20英寸(50厘米)尺寸20X 17X 6厘米)","specs":{"source":"wsxcme","sourceId":"_dflflfvaTj2AmRwgo2JnlStGIH6j6yAz1i_-zrA","sourceTagId":47003106,"sourceTagName":"塞琳/女包","dimensions":{"lengthCm":20,"heightCm":17,"widthCm":6},"rawTitle":"『Celine 赛琳』\n\nCABAS TRIOMPHE🛍老花MiNi号竖款手袋65%纺织布,35%小牛皮100%棉衬里内侧插袋可调节可拆卸皮革肩带 长20英寸(50厘米)尺寸20X 17X 6厘米)"},"price":null,"currency":"CNY","moq":1,"category":"celine-women-bags","status":"active","alibaba_url":null,"images":["https://xcimg.szwego.com/20210408/i1617827623_1843_0.jpg","https://xcimg.szwego.com/20210408/i1617827623_7202_1.jpg","https://xcimg.szwego.com/20210408/i1617827623_3330_2.jpg","https://xcimg.szwego.com/20210408/i1617827623_1301_3.jpg","https://xcimg.szwego.com/20210408/i1617827623_7079_4.jpg","https://xcimg.szwego.com/20210408/i1617827623_9626_5.jpg","https://xcimg.szwego.com/20210408/i1617827623_3157_6.jpg","https://xcimg.szwego.com/20210408/i1617827623_6371_7.jpg"],"created_at":"2025-02-08T12:47:00.797Z"},{"id":"item-5a3ecdecf1f4","sku":"_doXoXU02AUss7vLSRONrwrULYWWAsTgynOhVl1A","name_en":"『Celine 赛琳』","name_cn":"『Celine 赛琳』\n\nbox18.5cm 奶昔白金扣\n\n专柜最新尺寸teen💥\n头层牛皮配定制五金\n内里两层\n内侧有扁平口袋✅\n尺寸:18.5×15.5×6cm","specs":{"source":"wsxcme","sourceId":"_doXoXU02AUss7vLSRONrwrULYWWAsTgynOhVl1A","sourceTagId":47003106,"sourceTagName":"塞琳/女包","dimensions":{"lengthCm":18.5,"heightCm":15.5,"widthCm":6},"rawTitle":"『Celine 赛琳』\n\nbox18.5cm 奶昔白金扣\n\n专柜最新尺寸teen💥\n头层牛皮配定制五金\n内里两层\n内侧有扁平口袋✅\n尺寸:18.5×15.5×6cm"},"price":null,"currency":"CNY","moq":1,"category":"celine-women-bags","status":"active","alibaba_url":null,"images":["https://xcimg.szwego.com/20201126/i1606378008_4406_0.jpg","https://xcimg.szwego.com/20201126/i1606378008_1120_1.jpg","https://xcimg.szwego.com/20201126/i1606378008_5193_2.jpg","https://xcimg.szwego.com/20201126/i1606378008_106_4.jpg","https://xcimg.szwego.com/20201126/i1606378008_6210_5.jpg","https://xcimg.szwego.com/20201126/i1606378008_9848_6.jpg","https://xcimg.szwego.com/20201126/i1606378008_5222_7.jpg","https://xcimg.szwego.com/20201126/i1606378008_5919_8.jpg","https://xcimg.szwego.com/20201126/i1606378008_7869_3.jpg"],"created_at":"2025-02-08T12:47:15.867Z"},{"id":"item-575c3033e7b3","sku":"_dajaj4Sbtcb_vi3E6h1745dub4gdt-r5FuuhN2w","name_en":"『Celine 赛琳』","name_cn":"『Celine 赛琳』\n\nCELINE 2021春夏新品TRIOMPHE凯旋标志平纹小牛皮肩背包,凯旋腋下包,牛皮包边,羊皮衬里,内侧扁平口袋,可调节皮革肩带长20cm\n尺寸:20 X 10 X 4cm","specs":{"source":"wsxcme","sourceId":"_dajaj4Sbtcb_vi3E6h1745dub4gdt-r5FuuhN2w","sourceTagId":47003106,"sourceTagName":"塞琳/女包","dimensions":{"lengthCm":20,"heightCm":10,"widthCm":4},"rawTitle":"『Celine 赛琳』\n\nCELINE 2021春夏新品TRIOMPHE凯旋标志平纹小牛皮肩背包,凯旋腋下包,牛皮包边,羊皮衬里,内侧扁平口袋,可调节皮革肩带长20cm\n尺寸:20 X 10 X 4cm"},"price":null,"currency":"CNY","moq":1,"category":"celine-women-bags","status":"active","alibaba_url":null,"images":["https://xcimg.szwego.com/20220410/i1649574402_6748_0.jpg","https://xcimg.szwego.com/20220410/i1649574402_8113_1.jpg","https://xcimg.szwego.com/20220410/i1649574402_4437_2.jpg","https://xcimg.szwego.com/20220410/i1649574402_7860_3.jpg","https://xcimg.szwego.com/20220410/i1649574402_6767_4.jpg","https://xcimg.szwego.com/20220410/i1649574402_572_5.jpg","https://xcimg.szwego.com/20220410/i1649574402_5592_6.jpg","https://xcimg.szwego.com/20220410/i1649574402_4570_7.jpg","https://xcimg.szwego.com/20220410/i1649574402_6316_8.jpg"],"created_at":"2025-02-08T12:47:00.876Z"},{"id":"item-56f11f429265","sku":"_dmEmEPi0owW4onFEdsV-OICNjQCB2-VCBUWmnHw","name_en":"『Celine 赛琳』","name_cn":"『Celine 赛琳』\n\nTriomphe_新经典®️凯旋门新理念的定义 添加巴黎的元素 复古风调 高贵的气质 被时尚领域再度认知 超多明星的热爱款 经典再创新 再次重塑经典包扣精致设计 很符合时尚前沿✔️\n尺寸:22-16-6\n款号:187368 格纹","specs":{"source":"wsxcme","sourceId":"_dmEmEPi0owW4onFEdsV-OICNjQCB2-VCBUWmnHw","sourceTagId":47003106,"sourceTagName":"塞琳/女包","modelNumber":"187368 格纹","rawTitle":"『Celine 赛琳』\n\nTriomphe_新经典®️凯旋门新理念的定义 添加巴黎的元素 复古风调 高贵的气质 被时尚领域再度认知 超多明星的热爱款 经典再创新 再次重塑经典包扣精致设计 很符合时尚前沿✔️\n尺寸:22-16-6\n款号:187368 格纹"},"price":null,"currency":"CNY","moq":1,"category":"celine-women-bags","status":"active","alibaba_url":null,"images":["https://xcimg.szwego.com/20201212/a1607741972459_8431.jpg","https://xcimg.szwego.com/20201212/a1607741972639_7428.jpg","https://xcimg.szwego.com/20201212/a1607741972807_8362.jpg","https://xcimg.szwego.com/20201212/a1607741972938_5455.jpg","https://xcimg.szwego.com/20201212/a1607741973103_1764.jpg","https://xcimg.szwego.com/20201212/a1607741973333_8818.jpg","https://xcimg.szwego.com/20201212/a1607741973701_4722.jpg","https://xcimg.szwego.com/20201212/a1607741974358_8418.jpg","https://xcimg.szwego.com/20201212/a1607741974364_4845.jpg"],"created_at":"2025-02-08T12:47:15.845Z"},{"id":"item-56bacb7ae084","sku":"_d6W6WIW3WKXd7EdCqL1rZgxEjPJjQG8uaGjDEaw","name_en":"『Celine 赛琳』","name_cn":"『Celine 赛琳』\n\n凯旋门腋下全皮法棍包出 牛皮 粉紫色 甜美可爱 尺寸:20cm 款号:3018  象牙白","specs":{"source":"wsxcme","sourceId":"_d6W6WIW3WKXd7EdCqL1rZgxEjPJjQG8uaGjDEaw","sourceTagId":47003106,"sourceTagName":"塞琳/女包","modelNumber":"3018  象牙白","rawTitle":"『Celine 赛琳』\n\n凯旋门腋下全皮法棍包出 牛皮 粉紫色 甜美可爱 尺寸:20cm 款号:3018  象牙白"},"price":null,"currency":"CNY","moq":1,"category":"celine-women-bags","status":"active","alibaba_url":null,"images":["https://xcimg.szwego.com/20220324/i1648109435_2767_0.jpg","https://xcimg.szwego.com/20220324/i1648109435_2886_1.jpg","https://xcimg.szwego.com/20220324/i1648109435_4339_2.jpg","https://xcimg.szwego.com/20220324/i1648109435_8038_3.jpg","https://xcimg.szwego.com/20220324/i1648109435_6067_4.jpg","https://xcimg.szwego.com/20220324/i1648109435_7418_5.jpg","https://xcimg.szwego.com/20220324/i1648109435_2405_6.jpg","https://xcimg.szwego.com/20220324/i1648109435_7083_7.jpg","https://xcimg.szwego.com/20220324/i1648109438_5767_0.jpg"],"created_at":"2025-02-08T12:47:00.802Z"},{"id":"item-5529f5bc5a02","sku":"_deSeSLaTJwQp82xSxFv_yMno1JP-vdkFbAhuRjQ","name_en":"『Celine 赛琳』","name_cn":"『Celine 赛琳』\n\nCELI_NE 2022春夏季横款CABAS 托特手袋百搭托特 新出尺寸小号|经典凯旋老花系列 手提不挑人 博主明星极荐 小牛皮➕pvc 中性的包包的战斗机、耐刮、轻便、容量大、时髦精必备单品!小个子也不用担心压身高啦、轻轻松松出街!\n尺寸: 34×12.5×23","specs":{"source":"wsxcme","sourceId":"_deSeSLaTJwQp82xSxFv_yMno1JP-vdkFbAhuRjQ","sourceTagId":47003106,"sourceTagName":"塞琳/女包","rawTitle":"『Celine 赛琳』\n\nCELI_NE 2022春夏季横款CABAS 托特手袋百搭托特 新出尺寸小号|经典凯旋老花系列 手提不挑人 博主明星极荐 小牛皮➕pvc 中性的包包的战斗机、耐刮、轻便、容量大、时髦精必备单品!小个子也不用担心压身高啦、轻轻松松出街!\n尺寸: 34×12.5×23"},"price":null,"currency":"CNY","moq":1,"category":"celine-women-bags","status":"active","alibaba_url":null,"images":["https://xcimg.szwego.com/20220628/i1656400749_805_0.jpg","https://xcimg.szwego.com/20220628/i1656400749_4039_1.jpg","https://xcimg.szwego.com/20220628/i1656400749_6920_2.jpg","https://xcimg.szwego.com/20220628/i1656400749_5683_3.jpg","https://xcimg.szwego.com/20220628/i1656400749_6926_4.jpg","https://xcimg.szwego.com/20220628/i1656400749_2047_5.jpg","https://xcimg.szwego.com/20220628/i1656400749_8290_6.jpg","https://xcimg.szwego.com/20220628/i1656400749_335_7.jpg","https://xcimg.szwego.com/20220628/i1656400749_3666_8.jpg"],"created_at":"2025-02-08T12:47:15.854Z"},{"id":"item-54837a4787b2","sku":"_dtitiEx7gokA7pRcNpZ7SQP-_kZlkCXJIuBEFgQ","name_en":"『Celine 赛琳』","name_cn":"『Celine 赛琳』\n\nCEL.INE 2022春夏FOLCO马鞍包、把涂层印花材质改成了小牛皮设计,磁吸扣开合特别方便、延续了经典包型的设计,会更有质感~而且凯旋门采用了立体雕花的工艺~真的特别精致、包包自重很轻而且能装女孩子出行必备的东西,实用性超强!\n尺寸:18.5×8×15cm\n型号:4201#","specs":{"source":"wsxcme","sourceId":"_dtitiEx7gokA7pRcNpZ7SQP-_kZlkCXJIuBEFgQ","sourceTagId":47003106,"sourceTagName":"塞琳/女包","modelNumber":"4201#","dimensions":{"lengthCm":18.5,"heightCm":8,"widthCm":15},"rawTitle":"『Celine 赛琳』\n\nCEL.INE 2022春夏FOLCO马鞍包、把涂层印花材质改成了小牛皮设计,磁吸扣开合特别方便、延续了经典包型的设计,会更有质感~而且凯旋门采用了立体雕花的工艺~真的特别精致、包包自重很轻而且能装女孩子出行必备的东西,实用性超强!\n尺寸:18.5×8×15cm\n型号:4201#"},"price":null,"currency":"CNY","moq":1,"category":"celine-women-bags","status":"active","alibaba_url":null,"images":["https://xcimg.szwego.com/20220329/i1648516657_2710_0.jpg","https://xcimg.szwego.com/20220329/i1648516657_845_1.jpg","https://xcimg.szwego.com/20220329/i1648516657_2600_2.jpg","https://xcimg.szwego.com/20220329/i1648516657_8668_3.jpg","https://xcimg.szwego.com/20220329/i1648516657_5335_4.jpg","https://xcimg.szwego.com/20220329/i1648516657_8365_5.jpg","https://xcimg.szwego.com/20220329/i1648516657_9451_6.jpg","https://xcimg.szwego.com/20220329/i1648516657_2009_7.jpg","https://xcimg.szwego.com/20220329/i1648516657_5153_8.jpg"],"created_at":"2025-02-08T12:47:23.799Z"},{"id":"item-523746844401","sku":"_dk3k3ZBu4OKLQ7AxYvYJHKpIJf1Mq8HVrMdJHjg","name_en":"『Celine 赛琳』","name_cn":"『Celine 赛琳』\n\n【酒红色】\n\nCelin* BESACE  凯旋门肩背包▪️\n小巧精致的设计,方正复古的造型,优雅中带点随性,浪漫又带点慵懒气质  经典复古全皮设计一如既往百搭,双C锁扣triomphe让Celine⃝的狂热粉疯狂打Call !简洁利落的包身线条,真的超奶思 气场全开 简直不要太吸精!肩背包纖薄而圓潤,採用柔滑小牛皮打造,日常休逛街或通勤都非常適合\n尺寸: 宽18cmx高16cmx底部6cm","specs":{"source":"wsxcme","sourceId":"_dk3k3ZBu4OKLQ7AxYvYJHKpIJf1Mq8HVrMdJHjg","sourceTagId":47003106,"sourceTagName":"塞琳/女包","rawTitle":"『Celine 赛琳』\n\n【酒红色】\n\nCelin* BESACE  凯旋门肩背包▪️\n小巧精致的设计,方正复古的造型,优雅中带点随性,浪漫又带点慵懒气质  经典复古全皮设计一如既往百搭,双C锁扣triomphe让Celine⃝的狂热粉疯狂打Call !简洁利落的包身线条,真的超奶思 气场全开 简直不要太吸精!肩背包纖薄而圓潤,採用柔滑小牛皮打造,日常休逛街或通勤都非常適合\n尺寸: 宽18cmx高16cmx底部6cm"},"price":null,"currency":"CNY","moq":1,"category":"celine-women-bags","status":"active","alibaba_url":null,"images":["https://xcimg.szwego.com/20220628/i1656402628_313_0.jpg","https://xcimg.szwego.com/20220628/i1656402628_9847_1.jpg","https://xcimg.szwego.com/20220628/i1656402628_9225_2.jpg","https://xcimg.szwego.com/20220628/i1656402628_260_3.jpg","https://xcimg.szwego.com/20220628/i1656402628_3206_4.jpg","https://xcimg.szwego.com/20220628/i1656402628_4727_5.jpg"],"created_at":"2025-02-08T12:47:15.851Z"},{"id":"item-50d1701cc2c3","sku":"_dL5L5TkLtrDqz1eIayY9iVuPMcH2Lx_H3q9SJaA","name_en":"『Celine 赛琳』","name_cn":"『Celine 赛琳』\n\n🇦🇴【海外原单】🛍🎁CELINE 秀场新品|小号TRIOMPHE 皮标标志印花链条包\n小款链条腋下包✔️棕色皮扣质感满分,搭配金色金属链条,简直不要太高级!!\n牛皮+羊皮内里,肩背,搭配TRIOMPHE 牛皮logo质感锁扣\n尺寸:21 X 13 X 5厘米\n编号:199243BF4.38NO","specs":{"source":"wsxcme","sourceId":"_dL5L5TkLtrDqz1eIayY9iVuPMcH2Lx_H3q9SJaA","sourceTagId":47003106,"sourceTagName":"塞琳/女包","dimensions":{"lengthCm":21,"heightCm":13,"widthCm":5},"rawTitle":"『Celine 赛琳』\n\n🇦🇴【海外原单】🛍🎁CELINE 秀场新品|小号TRIOMPHE 皮标标志印花链条包\n小款链条腋下包✔️棕色皮扣质感满分,搭配金色金属链条,简直不要太高级!!\n牛皮+羊皮内里,肩背,搭配TRIOMPHE 牛皮logo质感锁扣\n尺寸:21 X 13 X 5厘米\n编号:199243BF4.38NO"},"price":null,"currency":"CNY","moq":1,"category":"celine-women-bags","status":"active","alibaba_url":null,"images":["https://xcimg.szwego.com/20220427/i1651049008_238_0.jpg","https://xcimg.szwego.com/20220427/i1651049008_501_1.jpg","https://xcimg.szwego.com/20220427/i1651049008_5986_2.jpg","https://xcimg.szwego.com/20220427/i1651049008_8508_3.jpg","https://xcimg.szwego.com/20220427/i1651049008_4475_4.jpg","https://xcimg.szwego.com/20220427/i1651049008_3015_5.jpg","https://xcimg.szwego.com/20220427/i1651049008_9929_6.jpg","https://xcimg.szwego.com/20220427/i1651049008_1166_7.jpg","https://xcimg.szwego.com/20220427/i1651049008_4814_8.jpg"],"created_at":"2025-02-08T12:47:23.786Z"},{"id":"item-4f3298cb6532","sku":"_dcOcO9wLpGHcL-scDQA-c8_Bw3Eizvp0r2EtJZg","name_en":"『Celine 赛琳』","name_cn":"『Celine 赛琳』\n\nFOLCO TRIOMPHE帆布中号手袋7 X 7 X 3英寸(18 X 17 X 6.5厘米)59%涂层帆布,41%小牛皮肩背斜挎和肩背搭扣内侧扁平口袋外侧口袋可调节皮革肩带长20英寸(50厘米)编号:191502BZJ.04LU","specs":{"source":"wsxcme","sourceId":"_dcOcO9wLpGHcL-scDQA-c8_Bw3Eizvp0r2EtJZg","sourceTagId":47003106,"sourceTagName":"塞琳/女包","rawTitle":"『Celine 赛琳』\n\nFOLCO TRIOMPHE帆布中号手袋7 X 7 X 3英寸(18 X 17 X 6.5厘米)59%涂层帆布,41%小牛皮肩背斜挎和肩背搭扣内侧扁平口袋外侧口袋可调节皮革肩带长20英寸(50厘米)编号:191502BZJ.04LU"},"price":null,"currency":"CNY","moq":1,"category":"celine-women-bags","status":"active","alibaba_url":null,"images":["https://xcimg.szwego.com/20200422/a1587492172565_6336.jpg","https://xcimg.szwego.com/20200422/a1587492173185_1862.jpg","https://xcimg.szwego.com/20200422/a1587492173744_3351.jpg","https://xcimg.szwego.com/20200422/a1587492174183_4072.jpg","https://xcimg.szwego.com/20200422/a1587492174588_6466.jpg","https://xcimg.szwego.com/20200422/a1587492175025_3450.jpg","https://xcimg.szwego.com/20200422/a1587492176451_4480.jpg","https://xcimg.szwego.com/20200422/a1587492177115_4883.jpg","https://xcimg.szwego.com/20200422/a1587492177604_8365.jpg"],"created_at":"2025-02-08T12:47:15.841Z"},{"id":"item-4e6800fc3771","sku":"_djWjWf9E5n6Oj4IpfN30y8XFUuNEMycareUkShg","name_en":"『Celine 赛琳』","name_cn":"『Celine 赛琳』\n\nCELINE ♥ TRIOMPHE SHOULDER BAG\n感觉这两年Celine是不是打开了任督二脉!出的包是越来越绝了!新款凯旋门腋下包简直惊喜爆棚!确认过眼神是我想要的包!必须要拥有的那种❗️尺寸:20*10*4cm","specs":{"source":"wsxcme","sourceId":"_djWjWf9E5n6Oj4IpfN30y8XFUuNEMycareUkShg","sourceTagId":47003106,"sourceTagName":"塞琳/女包","dimensions":{"lengthCm":20,"heightCm":10,"widthCm":4},"rawTitle":"『Celine 赛琳』\n\nCELINE ♥ TRIOMPHE SHOULDER BAG\n感觉这两年Celine是不是打开了任督二脉!出的包是越来越绝了!新款凯旋门腋下包简直惊喜爆棚!确认过眼神是我想要的包!必须要拥有的那种❗️尺寸:20*10*4cm"},"price":null,"currency":"CNY","moq":1,"category":"celine-women-bags","status":"active","alibaba_url":null,"images":["https://xcimg.szwego.com/20220712/i1657590032_7894_0.jpg","https://xcimg.szwego.com/20220712/i1657590032_5467_1.jpg","https://xcimg.szwego.com/20220712/i1657590032_8741_2.jpg","https://xcimg.szwego.com/20220712/i1657590032_462_3.jpg","https://xcimg.szwego.com/20220712/i1657590032_1646_4.jpg","https://xcimg.szwego.com/20220712/i1657590032_1875_5.jpg","https://xcimg.szwego.com/20220712/i1657590032_451_6.jpg","https://xcimg.szwego.com/20220712/i1657590032_4289_7.jpg","https://xcimg.szwego.com/20220712/i1657590032_8140_8.jpg"],"created_at":"2025-02-08T12:47:23.814Z"},{"id":"item-4b6845b8359f","sku":"_dvPvPNpV3Mgl_2aHk4tdNI7PCkBsybRbijUQeHA","name_en":"『Celine 赛琳』","name_cn":"『Celine 赛琳』\n\n胶囊系列上线❤️ \nCELINE2022 AVA腋下包新色、从去年开始一直火到现在的C家腋下包,又出新色啦😍😍这个新色,是在老花的基础下加上金丝刺绣的凯旋门logo ,整个包身都是满满的logo ,logo 代入感极强!\n全钢五金→精美大货细节、堪称完美 这款腋下包颜值真的无死角!\n尺寸:24.5-18-7.5 料金丝\n款号:3112","specs":{"source":"wsxcme","sourceId":"_dvPvPNpV3Mgl_2aHk4tdNI7PCkBsybRbijUQeHA","sourceTagId":47003106,"sourceTagName":"塞琳/女包","modelNumber":"3112","rawTitle":"『Celine 赛琳』\n\n胶囊系列上线❤️ \nCELINE2022 AVA腋下包新色、从去年开始一直火到现在的C家腋下包,又出新色啦😍😍这个新色,是在老花的基础下加上金丝刺绣的凯旋门logo ,整个包身都是满满的logo ,logo 代入感极强!\n全钢五金→精美大货细节、堪称完美 这款腋下包颜值真的无死角!\n尺寸:24.5-18-7.5 料金丝\n款号:3112"},"price":null,"currency":"CNY","moq":1,"category":"celine-women-bags","status":"active","alibaba_url":null,"images":["https://xcimg.szwego.com/20220322/i1647944332_1669_0.jpg","https://xcimg.szwego.com/20220322/i1647944332_1261_1.jpg","https://xcimg.szwego.com/20220322/i1647944332_2095_2.jpg","https://xcimg.szwego.com/20220322/i1647944332_9471_3.jpg","https://xcimg.szwego.com/20220322/i1647944332_1501_4.jpg","https://xcimg.szwego.com/20220322/i1647944332_7370_5.jpg","https://xcimg.szwego.com/20220322/i1647944332_3518_6.jpg","https://xcimg.szwego.com/20220322/i1647944332_2628_7.jpg","https://xcimg.szwego.com/20220322/i1647944332_5943_8.jpg"],"created_at":"2025-02-08T12:47:00.804Z"},{"id":"item-4adc2e727494","sku":"_dqaqaXu3LB7o5P8sRP0M_wTvIQ4dI3M5Eesi0Og","name_en":"『Celine 赛琳』","name_cn":"『Celine 赛琳』\n\n新款FOLCO TRIOMPHE邮差包PVC/牛皮 衬里 : 织物 斜挎和肩背 带扣和磁扣 内侧扁平口袋  翻盖下设扁平口袋,背面扁平口袋 可调节肩带 长(53厘米)\n尺寸:31 X 24 X 9cm\n款号:3350#","specs":{"source":"wsxcme","sourceId":"_dqaqaXu3LB7o5P8sRP0M_wTvIQ4dI3M5Eesi0Og","sourceTagId":47003106,"sourceTagName":"塞琳/女包","modelNumber":"3350#","dimensions":{"lengthCm":31,"heightCm":24,"widthCm":9},"rawTitle":"『Celine 赛琳』\n\n新款FOLCO TRIOMPHE邮差包PVC/牛皮 衬里 : 织物 斜挎和肩背 带扣和磁扣 内侧扁平口袋  翻盖下设扁平口袋,背面扁平口袋 可调节肩带 长(53厘米)\n尺寸:31 X 24 X 9cm\n款号:3350#"},"price":null,"currency":"CNY","moq":1,"category":"celine-women-bags","status":"active","alibaba_url":null,"images":["https://xcimg.szwego.com/20211113/i1636775013_9030_0.jpg","https://xcimg.szwego.com/20211113/i1636775013_7617_1.jpg","https://xcimg.szwego.com/20211113/i1636775013_9621_2.jpg","https://xcimg.szwego.com/20211113/i1636775013_2748_3.jpg","https://xcimg.szwego.com/20211113/i1636775013_1212_4.jpg","https://xcimg.szwego.com/20211113/i1636775013_6545_5.jpg","https://xcimg.szwego.com/20211113/i1636775013_6656_6.jpg","https://xcimg.szwego.com/20211113/i1636775013_7710_7.jpg","https://xcimg.szwego.com/20211113/i1636775013_611_8.jpg"],"created_at":"2025-02-08T12:47:00.870Z"},{"id":"item-4a59e0eaa0e9","sku":"_dlplp-PfzGKWdascnnjiWlOE7YGCvbf1ayDMXdA","name_en":"『Celine 赛琳』","name_cn":"『Celine 赛琳』\n\n🏠推出最新帆布PVC Triomphe Canvas经典印老花设计风格展现了复古、简洁及自信。时尚的尖端,毫无时代的隔阂~鲜明个性为日常衣柜带来多重魅力🥳  小号尺寸:18.5-14-6 小号款号188423","specs":{"source":"wsxcme","sourceId":"_dlplp-PfzGKWdascnnjiWlOE7YGCvbf1ayDMXdA","sourceTagId":47003106,"sourceTagName":"塞琳/女包","modelNumber":"188423","rawTitle":"『Celine 赛琳』\n\n🏠推出最新帆布PVC Triomphe Canvas经典印老花设计风格展现了复古、简洁及自信。时尚的尖端,毫无时代的隔阂~鲜明个性为日常衣柜带来多重魅力🥳  小号尺寸:18.5-14-6 小号款号188423"},"price":null,"currency":"CNY","moq":1,"category":"celine-women-bags","status":"active","alibaba_url":null,"images":["https://xcimg.szwego.com/20200422/a1587494149966_0708.jpg","https://xcimg.szwego.com/20200422/a1587494151131_8756.jpg","https://xcimg.szwego.com/20200422/a1587494151754_6244.jpg","https://xcimg.szwego.com/20200422/a1587494152073_8617.jpg","https://xcimg.szwego.com/20200422/a1587494152977_0418.jpg","https://xcimg.szwego.com/20200422/a1587494153505_3820.jpg","https://xcimg.szwego.com/20200422/a1587494153829_1756.jpg","https://xcimg.szwego.com/20200422/a1587494154199_8772.jpg","https://xcimg.szwego.com/20200422/a1587494154593_5283.jpg"],"created_at":"2025-02-08T12:47:15.836Z"},{"id":"item-49b6da1cf26f","sku":"_dhshstXq0hJwf61nN_ZiLL4udyR26PV04FfF8mQ","name_en":"『Celine 赛琳』","name_cn":"『Celine 赛琳』\n\nC家最新布配皮🐤 笑脸包 原版牛皮 经典之作!号称最能展现职业女性的特质,以精致和时尚闻名,独特的笑脸包身设计,不仅体现小女人的俏皮,又能够体现知性女人的优雅,更显女生魅力,不同色系的Celine囧脸包凸显不一样的特点,时尚潮流的尖端!尺寸26*26*13cm!款号3308 [嘴唇][嘴唇][勾引][勾引]","specs":{"source":"wsxcme","sourceId":"_dhshstXq0hJwf61nN_ZiLL4udyR26PV04FfF8mQ","sourceTagId":47003106,"sourceTagName":"塞琳/女包","modelNumber":"3308 [嘴唇][嘴唇][勾引][勾引]","dimensions":{"lengthCm":26,"heightCm":26,"widthCm":13},"rawTitle":"『Celine 赛琳』\n\nC家最新布配皮🐤 笑脸包 原版牛皮 经典之作!号称最能展现职业女性的特质,以精致和时尚闻名,独特的笑脸包身设计,不仅体现小女人的俏皮,又能够体现知性女人的优雅,更显女生魅力,不同色系的Celine囧脸包凸显不一样的特点,时尚潮流的尖端!尺寸26*26*13cm!款号3308 [嘴唇][嘴唇][勾引][勾引]"},"price":null,"currency":"CNY","moq":1,"category":"celine-women-bags","status":"active","alibaba_url":null,"images":["https://xcimg.szwego.com/20200711/a1594410638653_3572.jpg","https://xcimg.szwego.com/20200711/a1594410638756_8221.jpg","https://xcimg.szwego.com/20200711/a1594410638881_6705.jpg","https://xcimg.szwego.com/20200711/a1594410638964_8016.jpg","https://xcimg.szwego.com/20200711/a1594410639113_8350.jpg","https://xcimg.szwego.com/20200711/a1594410639317_2817.jpg","https://xcimg.szwego.com/20200711/a1594410639513_6588.jpg","https://xcimg.szwego.com/20200711/a1594410639580_1364.jpg","https://xcimg.szwego.com/20200711/a1594410639662_8401.jpg"],"created_at":"2025-02-08T12:47:15.848Z"},{"id":"item-47433db41e8c","sku":"_dx9x9AsMvclOaqNdnI4NxeYkeN4jkPoWZuQYTVg","name_en":"『Celine 赛琳』","name_cn":"『Celine 赛琳』\n\n凯旋门腋下包升级•黑色\n\n全新升级版复古鎏金,五金更耐用更耐磨\n配TRIOMPHE金属质感锁扣\n复古摩登结合,日常必备穿搭💥\n\n尺寸:20×10×4cm","specs":{"source":"wsxcme","sourceId":"_dx9x9AsMvclOaqNdnI4NxeYkeN4jkPoWZuQYTVg","sourceTagId":47003106,"sourceTagName":"塞琳/女包","dimensions":{"lengthCm":20,"heightCm":10,"widthCm":4},"rawTitle":"『Celine 赛琳』\n\n凯旋门腋下包升级•黑色\n\n全新升级版复古鎏金,五金更耐用更耐磨\n配TRIOMPHE金属质感锁扣\n复古摩登结合,日常必备穿搭💥\n\n尺寸:20×10×4cm"},"price":null,"currency":"CNY","moq":1,"category":"celine-women-bags","status":"active","alibaba_url":null,"images":["https://xcimg.szwego.com/20220327/i1648373207_8032_0.jpg","https://xcimg.szwego.com/20220327/i1648373207_2189_1.jpg","https://xcimg.szwego.com/20220327/i1648373207_40_8.jpg","https://xcimg.szwego.com/20220327/i1648373207_2952_2.jpg","https://xcimg.szwego.com/20220327/i1648373207_7003_3.jpg","https://xcimg.szwego.com/20220327/i1648373207_7337_4.jpg","https://xcimg.szwego.com/20220327/i1648373207_9707_5.jpg","https://xcimg.szwego.com/20220327/i1648373207_4650_6.jpg","https://xcimg.szwego.com/20220327/i1648373207_7498_7.jpg"],"created_at":"2025-02-08T12:47:15.831Z"},{"id":"item-4582df5f04e7","sku":"_df_f_wbuMEqOuSGjSyi_so3PLmyGvZZd9U1IO1w","name_en":"『Celine 赛琳』","name_cn":"『Celine 赛琳』\n\n【杏色】\n\nCelin* BESACE  凯旋门肩背包▪️\n小巧精致的设计,方正复古的造型,优雅中带点随性,浪漫又带点慵懒气质  经典复古全皮设计一如既往百搭,双C锁扣triomphe让Celine⃝的狂热粉疯狂打Call !简洁利落的包身线条,真的超奶思 气场全开 简直不要太吸精!肩背包纖薄而圓潤,採用柔滑小牛皮打造,日常休逛街或通勤都非常適合\n尺寸: 宽18cmx高16cmx底部6cm","specs":{"source":"wsxcme","sourceId":"_df_f_wbuMEqOuSGjSyi_so3PLmyGvZZd9U1IO1w","sourceTagId":47003106,"sourceTagName":"塞琳/女包","rawTitle":"『Celine 赛琳』\n\n【杏色】\n\nCelin* BESACE  凯旋门肩背包▪️\n小巧精致的设计,方正复古的造型,优雅中带点随性,浪漫又带点慵懒气质  经典复古全皮设计一如既往百搭,双C锁扣triomphe让Celine⃝的狂热粉疯狂打Call !简洁利落的包身线条,真的超奶思 气场全开 简直不要太吸精!肩背包纖薄而圓潤,採用柔滑小牛皮打造,日常休逛街或通勤都非常適合\n尺寸: 宽18cmx高16cmx底部6cm"},"price":null,"currency":"CNY","moq":1,"category":"celine-women-bags","status":"active","alibaba_url":null,"images":["https://xcimg.szwego.com/20220628/i1656402268_1824_0.jpg","https://xcimg.szwego.com/20220628/i1656402268_5053_1.jpg","https://xcimg.szwego.com/20220628/i1656402268_233_2.jpg","https://xcimg.szwego.com/20220628/i1656402268_9815_3.jpg","https://xcimg.szwego.com/20220628/i1656402268_3775_4.jpg","https://xcimg.szwego.com/20220628/i1656402268_977_5.jpg"],"created_at":"2025-02-08T12:47:15.850Z"},{"id":"item-45349ce91e3b","sku":"_d_x_xuKLjr6Wv-C7kOOMLFjpOT_yV0pLK24sF-g","name_en":"『Celine 赛琳』","name_cn":"『Celine 赛琳』\n\nCELINE 2021春夏新品TRIOMPHE凯旋标志平纹小牛皮肩背包,凯旋腋下包,牛皮包边,羊皮衬里,内侧扁平口袋,可调节皮革肩带长20cm\n尺寸:20 X 10 X 4cm","specs":{"source":"wsxcme","sourceId":"_d_x_xuKLjr6Wv-C7kOOMLFjpOT_yV0pLK24sF-g","sourceTagId":47003106,"sourceTagName":"塞琳/女包","dimensions":{"lengthCm":20,"heightCm":10,"widthCm":4},"rawTitle":"『Celine 赛琳』\n\nCELINE 2021春夏新品TRIOMPHE凯旋标志平纹小牛皮肩背包,凯旋腋下包,牛皮包边,羊皮衬里,内侧扁平口袋,可调节皮革肩带长20cm\n尺寸:20 X 10 X 4cm"},"price":null,"currency":"CNY","moq":1,"category":"celine-women-bags","status":"active","alibaba_url":null,"images":["https://xcimg.szwego.com/20220410/i1649574315_8629_0.jpg","https://xcimg.szwego.com/20220410/i1649574315_250_1.jpg","https://xcimg.szwego.com/20220410/i1649574315_4424_2.jpg","https://xcimg.szwego.com/20220410/i1649574315_686_3.jpg","https://xcimg.szwego.com/20220410/i1649574315_3620_4.jpg","https://xcimg.szwego.com/20220410/i1649574315_850_5.jpg","https://xcimg.szwego.com/20220410/i1649574315_8277_6.jpg","https://xcimg.szwego.com/20220410/i1649574315_1439_7.jpg","https://xcimg.szwego.com/20220410/i1649574315_1877_8.jpg"],"created_at":"2025-02-08T12:47:00.881Z"},{"id":"item-446bbfb28c1c","sku":"_djzjznvvUEq5tkxwmQP79V08PEmZfcche27Uc7Q","name_en":"『Celine 赛琳』","name_cn":"『Celine 赛琳』\n\n🇦🇴【海外原单】🛍🎁CELINE 秀场新品|小号TRIOMPHE 皮标标志印花链条包\n小款链条腋下包✔️棕色皮扣质感满分,搭配金色金属链条,简直不要太高级!!\n牛皮+羊皮内里,肩背,搭配TRIOMPHE 牛皮logo质感锁扣\n尺寸:21 X 13 X 5厘米\n编号:199243BF4.38NO","specs":{"source":"wsxcme","sourceId":"_djzjznvvUEq5tkxwmQP79V08PEmZfcche27Uc7Q","sourceTagId":47003106,"sourceTagName":"塞琳/女包","dimensions":{"lengthCm":21,"heightCm":13,"widthCm":5},"rawTitle":"『Celine 赛琳』\n\n🇦🇴【海外原单】🛍🎁CELINE 秀场新品|小号TRIOMPHE 皮标标志印花链条包\n小款链条腋下包✔️棕色皮扣质感满分,搭配金色金属链条,简直不要太高级!!\n牛皮+羊皮内里,肩背,搭配TRIOMPHE 牛皮logo质感锁扣\n尺寸:21 X 13 X 5厘米\n编号:199243BF4.38NO"},"price":null,"currency":"CNY","moq":1,"category":"celine-women-bags","status":"active","alibaba_url":null,"images":["https://xcimg.szwego.com/20220427/i1651048977_6501_0.jpg","https://xcimg.szwego.com/20220427/i1651048977_9701_1.jpg","https://xcimg.szwego.com/20220427/i1651048977_1288_2.jpg","https://xcimg.szwego.com/20220427/i1651048977_4160_3.jpg","https://xcimg.szwego.com/20220427/i1651048977_8121_4.jpg","https://xcimg.szwego.com/20220427/i1651048977_9419_5.jpg","https://xcimg.szwego.com/20220427/i1651048977_3775_6.jpg","https://xcimg.szwego.com/20220427/i1651048977_9434_7.jpg","https://xcimg.szwego.com/20220427/i1651048977_1581_8.jpg"],"created_at":"2025-02-08T12:47:23.787Z"},{"id":"item-431bd57927b3","sku":"_dhBhBQ039503XJOAXkKIx3nA71SgIIifDv4niug","name_en":"『Celine 赛琳』","name_cn":"『Celine 赛琳』\n\n链条⛓️腋下包\n手搓纹小牛皮链条肩背包\n8 X 4 X 2英寸(20.5 X 10.5 X 4厘米)\nTRIOMPHE CANVAS标志印花\n羊皮革衬里\n肩背\n编号:197993","specs":{"source":"wsxcme","sourceId":"_dhBhBQ039503XJOAXkKIx3nA71SgIIifDv4niug","sourceTagId":47003106,"sourceTagName":"塞琳/女包","rawTitle":"『Celine 赛琳』\n\n链条⛓️腋下包\n手搓纹小牛皮链条肩背包\n8 X 4 X 2英寸(20.5 X 10.5 X 4厘米)\nTRIOMPHE CANVAS标志印花\n羊皮革衬里\n肩背\n编号:197993"},"price":null,"currency":"CNY","moq":1,"category":"celine-women-bags","status":"active","alibaba_url":null,"images":["https://xcimg.szwego.com/20220415/i1649955227_7738_0.jpg","https://xcimg.szwego.com/20220415/i1649955227_8876_1.jpg","https://xcimg.szwego.com/20220415/i1649955227_6076_2.jpg","https://xcimg.szwego.com/20220415/i1649955227_2178_3.jpg","https://xcimg.szwego.com/20220415/i1649955227_3119_4.jpg","https://xcimg.szwego.com/20220415/i1649955227_3585_5.jpg","https://xcimg.szwego.com/20220415/i1649955227_8402_6.jpg","https://xcimg.szwego.com/20220415/i1649955227_4279_7.jpg","https://xcimg.szwego.com/20220415/i1649955227_4467_8.jpg"],"created_at":"2025-02-08T12:47:15.821Z"},{"id":"item-4293c1832952","sku":"_dhWhWOxan798Xh0LRtAEaJrfQ8-5cW0IVZdFGHg","name_en":"『Celine 赛琳』","name_cn":"『Celine 赛琳』\n\n🇦🇴【海外原单】🛍TRIOMPHE帆布和小牛皮小号手袋\n7 X 6 X 2英寸(18.5 X 14 X 6厘米)\n81%小牛皮、19%织物面料\n100%小羊皮衬里\n斜挎和肩背\n编号:188423BZ4.04L","specs":{"source":"wsxcme","sourceId":"_dhWhWOxan798Xh0LRtAEaJrfQ8-5cW0IVZdFGHg","sourceTagId":47003106,"sourceTagName":"塞琳/女包","rawTitle":"『Celine 赛琳』\n\n🇦🇴【海外原单】🛍TRIOMPHE帆布和小牛皮小号手袋\n7 X 6 X 2英寸(18.5 X 14 X 6厘米)\n81%小牛皮、19%织物面料\n100%小羊皮衬里\n斜挎和肩背\n编号:188423BZ4.04L"},"price":null,"currency":"CNY","moq":1,"category":"celine-women-bags","status":"active","alibaba_url":null,"images":["https://xcimg.szwego.com/20220613/i1655098412_6708_0.jpg","https://xcimg.szwego.com/20220613/i1655098412_5756_1.jpg","https://xcimg.szwego.com/20220613/i1655098412_3509_2.jpg","https://xcimg.szwego.com/20220613/i1655098412_8489_3.jpg","https://xcimg.szwego.com/20220613/i1655098412_7668_4.jpg","https://xcimg.szwego.com/20220613/i1655098412_7575_5.jpg","https://xcimg.szwego.com/20220613/i1655098412_5919_6.jpg","https://xcimg.szwego.com/20220613/i1655098412_2583_7.jpg","https://xcimg.szwego.com/20220613/i1655098412_1323_8.jpg"],"created_at":"2025-02-08T12:47:23.783Z"},{"id":"item-4175143e0a74","sku":"_daSaSTR6ekmSUwHOsjNQ1lqWdL92Ld6BhYOmnlQ","name_en":"『Celine 赛琳』","name_cn":"『Celine 赛琳』\n\nTriomphe_新经典®️凯旋门新理念的定义 添加巴黎的元素 复古风调 高贵的气质 被时尚领域再度认知 超多明星的热爱款 经典再创新 再次重塑经典包扣精致设计 很符合时尚前沿✔️\n尺寸:18-14-6\n款号:186423 格纹","specs":{"source":"wsxcme","sourceId":"_daSaSTR6ekmSUwHOsjNQ1lqWdL92Ld6BhYOmnlQ","sourceTagId":47003106,"sourceTagName":"塞琳/女包","modelNumber":"186423 格纹","rawTitle":"『Celine 赛琳』\n\nTriomphe_新经典®️凯旋门新理念的定义 添加巴黎的元素 复古风调 高贵的气质 被时尚领域再度认知 超多明星的热爱款 经典再创新 再次重塑经典包扣精致设计 很符合时尚前沿✔️\n尺寸:18-14-6\n款号:186423 格纹"},"price":null,"currency":"CNY","moq":1,"category":"celine-women-bags","status":"active","alibaba_url":null,"images":["https://xcimg.szwego.com/20201212/a1607742405945_2074.jpg","https://xcimg.szwego.com/20201212/a1607742406135_2558.jpg","https://xcimg.szwego.com/20201212/a1607742406334_3540.jpg","https://xcimg.szwego.com/20201212/a1607742406599_2485.jpg","https://xcimg.szwego.com/20201212/a1607742406785_0761.jpg","https://xcimg.szwego.com/20201212/a1607742407191_7160.jpg","https://xcimg.szwego.com/20201212/a1607742407631_5144.jpg","https://xcimg.szwego.com/20201212/a1607742407633_6118.jpg","https://xcimg.szwego.com/20201212/a1607742407836_6215.jpg"],"created_at":"2025-02-08T12:47:15.844Z"},{"id":"item-416993a5b1f2","sku":"_dnjnjCVPPJzfDtq_zxlSuthYgByzw5pQv_HxhJQ","name_en":"『Celine 赛琳』","name_cn":"『Celine 赛琳』\n\nCELINE 2021春夏新品TRIOMPHE凯旋标志平纹小牛皮肩背包,凯旋腋下包,牛皮包边,羊皮衬里,内侧扁平口袋,可调节皮革肩带长20cm\n尺寸:20 X 10 X 4cm","specs":{"source":"wsxcme","sourceId":"_dnjnjCVPPJzfDtq_zxlSuthYgByzw5pQv_HxhJQ","sourceTagId":47003106,"sourceTagName":"塞琳/女包","dimensions":{"lengthCm":20,"heightCm":10,"widthCm":4},"rawTitle":"『Celine 赛琳』\n\nCELINE 2021春夏新品TRIOMPHE凯旋标志平纹小牛皮肩背包,凯旋腋下包,牛皮包边,羊皮衬里,内侧扁平口袋,可调节皮革肩带长20cm\n尺寸:20 X 10 X 4cm"},"price":null,"currency":"CNY","moq":1,"category":"celine-women-bags","status":"active","alibaba_url":null,"images":["https://xcimg.szwego.com/20220410/i1649574352_8026_0.jpg","https://xcimg.szwego.com/20220410/i1649574352_9805_1.jpg","https://xcimg.szwego.com/20220410/i1649574352_100_2.jpg","https://xcimg.szwego.com/20220410/i1649574352_296_3.jpg","https://xcimg.szwego.com/20220410/i1649574352_6789_4.jpg","https://xcimg.szwego.com/20220410/i1649574352_3472_5.jpg","https://xcimg.szwego.com/20220410/i1649574352_5140_6.jpg","https://xcimg.szwego.com/20220410/i1649574352_6025_7.jpg","https://xcimg.szwego.com/20220410/i1649574352_9138_8.jpg"],"created_at":"2025-02-08T12:47:00.882Z"}],"page":42,"pageSize":24,"total":10075,"totalPages":420}
