{"items":[{"id":"item-9c73475f772e","sku":"_dwNwN4YoxgaQuTIMGO75CCNR2tNFysynoHJO5ag","name_en":"『Celine 赛琳』","name_cn":"『Celine 赛琳』\n\n🏠推出最新帆布经典设计风格展现了复古、简洁及自信。时尚的尖端,毫无时代的隔阂~鲜明个性为日常衣柜带来多重魅力🥳  小号尺寸:18.5-14-6  小号款号186423","specs":{"source":"wsxcme","sourceId":"_dwNwN4YoxgaQuTIMGO75CCNR2tNFysynoHJO5ag","sourceTagId":47003106,"sourceTagName":"塞琳/女包","modelNumber":"186423","rawTitle":"『Celine 赛琳』\n\n🏠推出最新帆布经典设计风格展现了复古、简洁及自信。时尚的尖端,毫无时代的隔阂~鲜明个性为日常衣柜带来多重魅力🥳  小号尺寸:18.5-14-6  小号款号186423"},"price":null,"currency":"CNY","moq":1,"category":"celine-women-bags","status":"active","alibaba_url":null,"images":["https://xcimg.szwego.com/20200810/a1597035379757_1634.jpg","https://xcimg.szwego.com/20200810/a1597035379854_6680.jpg","https://xcimg.szwego.com/20200810/a1597035379955_0857.jpg","https://xcimg.szwego.com/20200810/a1597035380021_3083.jpg","https://xcimg.szwego.com/20200810/a1597035380155_6378.jpg","https://xcimg.szwego.com/20200810/a1597035380225_8071.jpg","https://xcimg.szwego.com/20200810/a1597035380312_5054.jpg","https://xcimg.szwego.com/20200810/a1597035380402_3850.jpg","https://xcimg.szwego.com/20200810/a1597035380470_7085.jpg"],"created_at":"2025-02-08T12:47:15.846Z"},{"id":"item-9bc2241301a4","sku":"_dxIxIN2xWFCrTIdaOejvKJWsp-KDQHfjsY97N-g","name_en":"『Celine 赛琳』","name_cn":"『Celine 赛琳』\n\n🇦🇴【海外原单】🛍🎁新款TRIOMPHE 标志印花链条包\n黄褐色\n20500 CNY\n13 X 5 X 2英寸(33 X 13 X 5厘米)\nTRIOMPHE CANVAS标志印花\n羊皮革衬里\n肩背\nTRIOMPHE 金属质感锁扣\n内侧扁平口袋\n翻盖下方设扁平口袋\n链条手挽长12英寸(30厘米)\n编号:197412DQW.04LU","specs":{"source":"wsxcme","sourceId":"_dxIxIN2xWFCrTIdaOejvKJWsp-KDQHfjsY97N-g","sourceTagId":47003106,"sourceTagName":"塞琳/女包","rawTitle":"『Celine 赛琳』\n\n🇦🇴【海外原单】🛍🎁新款TRIOMPHE 标志印花链条包\n黄褐色\n20500 CNY\n13 X 5 X 2英寸(33 X 13 X 5厘米)\nTRIOMPHE CANVAS标志印花\n羊皮革衬里\n肩背\nTRIOMPHE 金属质感锁扣\n内侧扁平口袋\n翻盖下方设扁平口袋\n链条手挽长12英寸(30厘米)\n编号:197412DQW.04LU"},"price":null,"currency":"CNY","moq":1,"category":"celine-women-bags","status":"active","alibaba_url":null,"images":["https://xcimg.szwego.com/20220501/i1651385382_3043_0.jpg","https://xcimg.szwego.com/20220501/i1651385382_6378_1.jpg","https://xcimg.szwego.com/20220501/i1651385382_1403_2.jpg","https://xcimg.szwego.com/20220501/i1651385382_5811_3.jpg","https://xcimg.szwego.com/20220501/i1651385382_9125_4.jpg","https://xcimg.szwego.com/20220501/i1651385382_8474_5.jpg","https://xcimg.szwego.com/20220501/i1651385382_4844_6.jpg","https://xcimg.szwego.com/20220501/i1651385382_1226_7.jpg","https://xcimg.szwego.com/20220501/i1651385382_4_8.jpg"],"created_at":"2025-02-08T12:47:23.790Z"},{"id":"item-9a97df2f4aeb","sku":"_d8N8N5EaUdv94ebcZ3mfrgzvhhFkWbZlvA4t1sg","name_en":"『Celine 赛琳』","name_cn":"『Celine 赛琳』\n\nCelin* 款号:8001【刺绣系列】超喜欢!腋下包出刺绣系列啦!复古达人走起~对比老花是两种Feel,都爱~ 大火的腋下包搭配真的超百搭,腋下包包型复古又帅气又有点可爱 超级精致小巧♡\n一直以来超喜欢C E L I NE.这种性冷淡风,复古又时髦 这样很能装轻巧又好搭的中古包,大家喜欢吗?\n尺寸:25x14x7cm","specs":{"source":"wsxcme","sourceId":"_d8N8N5EaUdv94ebcZ3mfrgzvhhFkWbZlvA4t1sg","sourceTagId":47003106,"sourceTagName":"塞琳/女包","modelNumber":"8001【刺绣系列】超喜欢!腋下包出刺绣系列啦!复古达人走起~对比老花是两种Feel","dimensions":{"lengthCm":25,"heightCm":14,"widthCm":7},"rawTitle":"『Celine 赛琳』\n\nCelin* 款号:8001【刺绣系列】超喜欢!腋下包出刺绣系列啦!复古达人走起~对比老花是两种Feel,都爱~ 大火的腋下包搭配真的超百搭,腋下包包型复古又帅气又有点可爱 超级精致小巧♡\n一直以来超喜欢C E L I NE.这种性冷淡风,复古又时髦 这样很能装轻巧又好搭的中古包,大家喜欢吗?\n尺寸:25x14x7cm"},"price":null,"currency":"CNY","moq":1,"category":"celine-women-bags","status":"active","alibaba_url":null,"images":["https://xcimg.szwego.com/20220607/i1654579050_1648_0.jpg","https://xcimg.szwego.com/20220607/i1654579203_7179_1.jpg","https://xcimg.szwego.com/20220607/i1654579050_7029_5.jpg","https://xcimg.szwego.com/20220607/i1654579050_6061_4.jpg","https://xcimg.szwego.com/20220607/i1654579050_2642_6.jpg","https://xcimg.szwego.com/20220607/i1654579050_5600_2.jpg","https://xcimg.szwego.com/20220607/i1654579050_9641_7.jpg","https://xcimg.szwego.com/20220607/i1654579050_6286_3.jpg","https://xcimg.szwego.com/20220607/i1654579203_4482_0.jpg"],"created_at":"2025-02-08T12:47:00.860Z"},{"id":"item-9a5cb29b1d13","sku":"_deaea18eUfG1QP_8DzixSPRbkFVvjLQFGQP1uYw","name_en":"『Celine 赛琳』","name_cn":"『Celine 赛琳』\n\nCABAS TRIOMPHE🛍老花MiNi号竖款手袋65%纺织布,35%小牛皮100%棉衬里内侧插袋可调节可拆卸皮革肩带 长20英寸(50厘米)尺寸20X 17X 6厘米)","specs":{"source":"wsxcme","sourceId":"_deaea18eUfG1QP_8DzixSPRbkFVvjLQFGQP1uYw","sourceTagId":47003106,"sourceTagName":"塞琳/女包","dimensions":{"lengthCm":20,"heightCm":17,"widthCm":6},"rawTitle":"『Celine 赛琳』\n\nCABAS TRIOMPHE🛍老花MiNi号竖款手袋65%纺织布,35%小牛皮100%棉衬里内侧插袋可调节可拆卸皮革肩带 长20英寸(50厘米)尺寸20X 17X 6厘米)"},"price":null,"currency":"CNY","moq":1,"category":"celine-women-bags","status":"active","alibaba_url":null,"images":["https://xcimg.szwego.com/20210408/i1617827648_7948_0.jpg","https://xcimg.szwego.com/20210408/i1617827648_130_1.jpg","https://xcimg.szwego.com/20210408/i1617827648_2559_2.jpg","https://xcimg.szwego.com/20210408/i1617827648_1166_3.jpg","https://xcimg.szwego.com/20210408/i1617827648_3018_4.jpg","https://xcimg.szwego.com/20210408/i1617827648_986_5.jpg","https://xcimg.szwego.com/20210408/i1617827648_7123_6.jpg","https://xcimg.szwego.com/20210408/i1617827648_5800_7.jpg"],"created_at":"2025-02-08T12:47:00.796Z"},{"id":"item-9996a4df9990","sku":"_dQkQk3si7crMu-WiDsbRliGkWQHavkNugS9wL6A","name_en":"『Celine 赛琳』","name_cn":"『Celine 赛琳』\n\nCEL.INE TRIOMPHC FOLCO 高品质马鞍包  延续凯旋门  棕色包边部分采用头层牛皮制作 复古斜挎  耐看经典印花一点都不老套  还带着轻巧小俏皮  耐装耐磨 象征性的 结构简约 肩带长度可调节 \n款号:2179#\n尺寸:18.16.10cm","specs":{"source":"wsxcme","sourceId":"_dQkQk3si7crMu-WiDsbRliGkWQHavkNugS9wL6A","sourceTagId":47003106,"sourceTagName":"塞琳/女包","modelNumber":"2179#","rawTitle":"『Celine 赛琳』\n\nCEL.INE TRIOMPHC FOLCO 高品质马鞍包  延续凯旋门  棕色包边部分采用头层牛皮制作 复古斜挎  耐看经典印花一点都不老套  还带着轻巧小俏皮  耐装耐磨 象征性的 结构简约 肩带长度可调节 \n款号:2179#\n尺寸:18.16.10cm"},"price":null,"currency":"CNY","moq":1,"category":"celine-women-bags","status":"active","alibaba_url":null,"images":["https://xcimg.szwego.com/20220224/i1645679174_7105_0.jpg","https://xcimg.szwego.com/20220224/i1645679174_9932_1.jpg","https://xcimg.szwego.com/20220224/i1645679174_784_2.jpg","https://xcimg.szwego.com/20220224/i1645679174_2283_3.jpg","https://xcimg.szwego.com/20220224/i1645679174_2261_4.jpg","https://xcimg.szwego.com/20220224/i1645679174_838_5.jpg","https://xcimg.szwego.com/20220224/i1645679174_2680_6.jpg","https://xcimg.szwego.com/20220224/i1645679174_2396_7.jpg","https://xcimg.szwego.com/20220224/i1645679174_4438_8.jpg"],"created_at":"2025-02-08T12:47:00.844Z"},{"id":"item-9940b1d98c8b","sku":"_dmKmKUwm-jxD-DdQqFycmmcHqTkz2E0ns-uyrGw","name_en":"『Celine 赛琳』","name_cn":"『Celine 赛琳』\n\n凯旋门腋下全皮法棍包出 牛皮 粉紫色 甜美可爱 尺寸:20cm 款号:3018 玫粉色","specs":{"source":"wsxcme","sourceId":"_dmKmKUwm-jxD-DdQqFycmmcHqTkz2E0ns-uyrGw","sourceTagId":47003106,"sourceTagName":"塞琳/女包","modelNumber":"3018 玫粉色","rawTitle":"『Celine 赛琳』\n\n凯旋门腋下全皮法棍包出 牛皮 粉紫色 甜美可爱 尺寸:20cm 款号:3018 玫粉色"},"price":null,"currency":"CNY","moq":1,"category":"celine-women-bags","status":"active","alibaba_url":null,"images":["https://xcimg.szwego.com/20220324/i1648109229_5513_0.jpg","https://xcimg.szwego.com/20220324/i1648109229_2807_1.jpg","https://xcimg.szwego.com/20220324/i1648109229_9951_2.jpg","https://xcimg.szwego.com/20220324/i1648109229_355_3.jpg","https://xcimg.szwego.com/20220324/i1648109229_397_4.jpg","https://xcimg.szwego.com/20220324/i1648109229_1111_8.jpg","https://xcimg.szwego.com/20220324/i1648109229_9736_5.jpg","https://xcimg.szwego.com/20220324/i1648109229_144_6.jpg","https://xcimg.szwego.com/20220324/i1648109229_2955_7.jpg"],"created_at":"2025-02-08T12:47:00.801Z"},{"id":"item-971467d0ed9c","sku":"_deYeYw4Vxb2mUzrjSyL-7NpTu8HjrzIUp9Ahnrg","name_en":"『Celine 赛琳』","name_cn":"『Celine 赛琳』\n\nCELINE 2021春夏新品TRIOMPHE凯旋标志平纹小牛皮肩背包,凯旋腋下包,牛皮包边,羊皮衬里,内侧扁平口袋,可调节皮革肩带长20cm\n尺寸:20 X 10 X 4cm","specs":{"source":"wsxcme","sourceId":"_deYeYw4Vxb2mUzrjSyL-7NpTu8HjrzIUp9Ahnrg","sourceTagId":47003106,"sourceTagName":"塞琳/女包","dimensions":{"lengthCm":20,"heightCm":10,"widthCm":4},"rawTitle":"『Celine 赛琳』\n\nCELINE 2021春夏新品TRIOMPHE凯旋标志平纹小牛皮肩背包,凯旋腋下包,牛皮包边,羊皮衬里,内侧扁平口袋,可调节皮革肩带长20cm\n尺寸:20 X 10 X 4cm"},"price":null,"currency":"CNY","moq":1,"category":"celine-women-bags","status":"active","alibaba_url":null,"images":["https://xcimg.szwego.com/20220410/i1649574384_9495_0.jpg","https://xcimg.szwego.com/20220410/i1649574384_3486_1.jpg","https://xcimg.szwego.com/20220410/i1649574384_6520_2.jpg","https://xcimg.szwego.com/20220410/i1649574384_25_3.jpg","https://xcimg.szwego.com/20220410/i1649574384_942_4.jpg","https://xcimg.szwego.com/20220410/i1649574384_2951_5.jpg","https://xcimg.szwego.com/20220410/i1649574384_3105_6.jpg","https://xcimg.szwego.com/20220410/i1649574384_6943_7.jpg","https://xcimg.szwego.com/20220410/i1649574384_6086_8.jpg"],"created_at":"2025-02-08T12:47:15.812Z"},{"id":"item-97061d08d624","sku":"_dgZgZmKx74ZTx4U_lnp6s5C9zsytYX6HDR7ruCw","name_en":"『Celine 赛琳』","name_cn":"『Celine 赛琳』\n\n新款Box 新款(凯旋门)老花信封包。大家都知道C家换了设计师 ,这次新款和旧款的最大不同之处在于钮扣,20s早春走秀款 将复古元素与一向拿手的利落线条完美结合 焕发出全新的动人魅力 尺寸 20-11.5-6cm","specs":{"source":"wsxcme","sourceId":"_dgZgZmKx74ZTx4U_lnp6s5C9zsytYX6HDR7ruCw","sourceTagId":47003106,"sourceTagName":"塞琳/女包","rawTitle":"『Celine 赛琳』\n\n新款Box 新款(凯旋门)老花信封包。大家都知道C家换了设计师 ,这次新款和旧款的最大不同之处在于钮扣,20s早春走秀款 将复古元素与一向拿手的利落线条完美结合 焕发出全新的动人魅力 尺寸 20-11.5-6cm"},"price":null,"currency":"CNY","moq":1,"category":"celine-women-bags","status":"active","alibaba_url":null,"images":["https://xcimg.szwego.com/20210708/i1625675152_9331_0.jpg","https://xcimg.szwego.com/20210708/i1625675152_5562_1.jpg","https://xcimg.szwego.com/20210708/i1625675152_9473_2.jpg","https://xcimg.szwego.com/20210708/i1625675152_2204_3.jpg","https://xcimg.szwego.com/20210708/i1625675152_1783_4.jpg","https://xcimg.szwego.com/20210708/i1625675152_3035_5.jpg","https://xcimg.szwego.com/20210708/i1625675152_2620_6.jpg","https://xcimg.szwego.com/20210708/i1625675152_2043_7.jpg","https://xcimg.szwego.com/20210708/i1625675152_3470_8.jpg"],"created_at":"2025-02-08T12:47:00.832Z"},{"id":"item-957514cc4de1","sku":"_duGuG9-QKyQv0MCbDlNsv4ht7Y3-2L4BIFTc3Wg","name_en":"『Celine 赛琳』","name_cn":"『Celine 赛琳』\n\nC🏠最新尺寸小水桶出货#颜值爆表老花系列,TRIOMPHE CANVAS NANO标志印花水桶包,人造革/牛皮革,织物面料衬里,斜挎和肩背,按扣开合,可调节皮革肩带,冬天配大衣再适合不过了 容量大 自重轻耐磨 防水 不易刮花 \n尺寸:22x26x13cm\n款号:2299#","specs":{"source":"wsxcme","sourceId":"_duGuG9-QKyQv0MCbDlNsv4ht7Y3-2L4BIFTc3Wg","sourceTagId":47003106,"sourceTagName":"塞琳/女包","modelNumber":"2299#","dimensions":{"lengthCm":22,"heightCm":26,"widthCm":13},"rawTitle":"『Celine 赛琳』\n\nC🏠最新尺寸小水桶出货#颜值爆表老花系列,TRIOMPHE CANVAS NANO标志印花水桶包,人造革/牛皮革,织物面料衬里,斜挎和肩背,按扣开合,可调节皮革肩带,冬天配大衣再适合不过了 容量大 自重轻耐磨 防水 不易刮花 \n尺寸:22x26x13cm\n款号:2299#"},"price":null,"currency":"CNY","moq":1,"category":"celine-women-bags","status":"active","alibaba_url":null,"images":["https://xcimg.szwego.com/20220224/i1645678990_3784_0.jpg","https://xcimg.szwego.com/20220224/i1645678990_5776_1.jpg","https://xcimg.szwego.com/20220224/i1645678990_6850_2.jpg","https://xcimg.szwego.com/20220224/i1645678990_7279_3.jpg","https://xcimg.szwego.com/20220224/i1645678990_4929_4.jpg","https://xcimg.szwego.com/20220224/i1645678990_4992_5.jpg","https://xcimg.szwego.com/20220224/i1645678990_9217_6.jpg","https://xcimg.szwego.com/20220224/i1645678990_4293_7.jpg","https://xcimg.szwego.com/20220224/i1645678990_2861_8.jpg"],"created_at":"2025-02-08T12:47:00.847Z"},{"id":"item-956e8a0a1bec","sku":"_dzOzOupTWhXtg5qrPruS3xjX2SUkziKrNjArzlg","name_en":"『Celine 赛琳』","name_cn":"『Celine 赛琳』\n\n凯旋门链条腋下包•老花\n立体的皮质浮雕凯旋门🦋\n法式中带很多点酷\n简约大气无敌时髦👜\n\n尺寸:21×11.5×4cm","specs":{"source":"wsxcme","sourceId":"_dzOzOupTWhXtg5qrPruS3xjX2SUkziKrNjArzlg","sourceTagId":47003106,"sourceTagName":"塞琳/女包","dimensions":{"lengthCm":21,"heightCm":11.5,"widthCm":4},"rawTitle":"『Celine 赛琳』\n\n凯旋门链条腋下包•老花\n立体的皮质浮雕凯旋门🦋\n法式中带很多点酷\n简约大气无敌时髦👜\n\n尺寸:21×11.5×4cm"},"price":null,"currency":"CNY","moq":1,"category":"celine-women-bags","status":"active","alibaba_url":null,"images":["https://xcimg.szwego.com/20220613/i1655096089_6960_0.jpg","https://xcimg.szwego.com/20220613/i1655096089_3442_1.jpg","https://xcimg.szwego.com/20220613/i1655096089_2481_2.jpg","https://xcimg.szwego.com/20220613/i1655096089_8581_3.jpg","https://xcimg.szwego.com/20220613/i1655096089_6689_4.jpg","https://xcimg.szwego.com/20220613/i1655096089_1884_5.jpg","https://xcimg.szwego.com/20220613/i1655096089_5513_6.jpg","https://xcimg.szwego.com/20220613/i1655096089_7073_7.jpg","https://xcimg.szwego.com/20220613/i1655096089_6909_8.jpg"],"created_at":"2025-02-08T12:47:15.827Z"},{"id":"item-92ced37dcf6b","sku":"_dPUPUlmuPPmE9teNhv2NedYlhPvLtTCVM1WFc9w","name_en":"『Celine 赛琳』","name_cn":"『Celine 赛琳』\n\nCEL.INE TRIOMPHC FOLCO 高品质马鞍包  延续凯旋门  棕色包边部分采用头层牛皮制作 复古斜挎  耐看经典印花一点都不老套  还带着轻巧小俏皮  耐装耐磨 象征性的 结构简约 肩带长度可调节 \n款号:2179#\n尺寸:18.16.10cm","specs":{"source":"wsxcme","sourceId":"_dPUPUlmuPPmE9teNhv2NedYlhPvLtTCVM1WFc9w","sourceTagId":47003106,"sourceTagName":"塞琳/女包","modelNumber":"2179#","rawTitle":"『Celine 赛琳』\n\nCEL.INE TRIOMPHC FOLCO 高品质马鞍包  延续凯旋门  棕色包边部分采用头层牛皮制作 复古斜挎  耐看经典印花一点都不老套  还带着轻巧小俏皮  耐装耐磨 象征性的 结构简约 肩带长度可调节 \n款号:2179#\n尺寸:18.16.10cm"},"price":null,"currency":"CNY","moq":1,"category":"celine-women-bags","status":"active","alibaba_url":null,"images":["https://xcimg.szwego.com/20220224/i1645679174_7105_0.jpg","https://xcimg.szwego.com/20220224/i1645679174_9932_1.jpg","https://xcimg.szwego.com/20220224/i1645679174_784_2.jpg","https://xcimg.szwego.com/20220224/i1645679174_2283_3.jpg","https://xcimg.szwego.com/20220224/i1645679174_2261_4.jpg","https://xcimg.szwego.com/20220224/i1645679174_838_5.jpg","https://xcimg.szwego.com/20220224/i1645679174_2680_6.jpg","https://xcimg.szwego.com/20220224/i1645679174_2396_7.jpg","https://xcimg.szwego.com/20220224/i1645679174_4438_8.jpg"],"created_at":"2025-02-08T12:47:00.807Z"},{"id":"item-925bc7689fec","sku":"_diYiYtgzFAqBvIaK3NP29M0L9eWg4KzQ_c0n-tw","name_en":"『Celine 赛琳』","name_cn":"『Celine 赛琳』\n\n凯旋门链条腋下包•黑色\n立体的皮质浮雕凯旋门🦋\n法式中带很多点酷\n简约大气无敌时髦👜\n\n尺寸:21×11.5×4cm","specs":{"source":"wsxcme","sourceId":"_diYiYtgzFAqBvIaK3NP29M0L9eWg4KzQ_c0n-tw","sourceTagId":47003106,"sourceTagName":"塞琳/女包","dimensions":{"lengthCm":21,"heightCm":11.5,"widthCm":4},"rawTitle":"『Celine 赛琳』\n\n凯旋门链条腋下包•黑色\n立体的皮质浮雕凯旋门🦋\n法式中带很多点酷\n简约大气无敌时髦👜\n\n尺寸:21×11.5×4cm"},"price":null,"currency":"CNY","moq":1,"category":"celine-women-bags","status":"active","alibaba_url":null,"images":["https://xcimg.szwego.com/20220613/i1655096120_1199_0.jpg","https://xcimg.szwego.com/20220613/i1655096120_2647_1.jpg","https://xcimg.szwego.com/20220613/i1655096120_4272_2.jpg","https://xcimg.szwego.com/20220613/i1655096120_7350_3.jpg","https://xcimg.szwego.com/20220613/i1655096120_6047_4.jpg","https://xcimg.szwego.com/20220613/i1655096120_7571_5.jpg","https://xcimg.szwego.com/20220613/i1655096120_3131_6.jpg","https://xcimg.szwego.com/20220613/i1655096120_5133_7.jpg","https://xcimg.szwego.com/20220613/i1655096120_7734_8.jpg"],"created_at":"2025-02-08T12:47:15.828Z"},{"id":"item-8fe22f6a50fa","sku":"_di5i5jwM99wsLfOIsh9UCrg62cBDSlvUwT_-ajw","name_en":"『Celine 赛琳』","name_cn":"『Celine 赛琳』\n\nC家最新布配皮🐤 笑脸包 原版牛皮 经典之作!号称最能展现职业女性的特质,以精致和时尚闻名,独特的笑脸包身设计,不仅体现小女人的俏皮,又能够体现知性女人的优雅,更显女生魅力,不同色系的Celine囧脸包凸显不一样的特点,时尚潮流的尖端!尺寸小号20*20*8cm!款号3308 [嘴唇][嘴唇][勾引][勾引]","specs":{"source":"wsxcme","sourceId":"_di5i5jwM99wsLfOIsh9UCrg62cBDSlvUwT_-ajw","sourceTagId":47003106,"sourceTagName":"塞琳/女包","modelNumber":"3308 [嘴唇][嘴唇][勾引][勾引]","rawTitle":"『Celine 赛琳』\n\nC家最新布配皮🐤 笑脸包 原版牛皮 经典之作!号称最能展现职业女性的特质,以精致和时尚闻名,独特的笑脸包身设计,不仅体现小女人的俏皮,又能够体现知性女人的优雅,更显女生魅力,不同色系的Celine囧脸包凸显不一样的特点,时尚潮流的尖端!尺寸小号20*20*8cm!款号3308 [嘴唇][嘴唇][勾引][勾引]"},"price":null,"currency":"CNY","moq":1,"category":"celine-women-bags","status":"active","alibaba_url":null,"images":["https://xcimg.szwego.com/20200519/a1589865635620_0825.jpg","https://xcimg.szwego.com/20200519/a1589865651923_3445.jpg","https://xcimg.szwego.com/20200519/a1589865652344_0121.jpg","https://xcimg.szwego.com/20200519/a1589865652753_3232.jpg","https://xcimg.szwego.com/20200519/a1589865653152_0160.jpg","https://xcimg.szwego.com/20200519/a1589865653605_5217.jpg","https://xcimg.szwego.com/20200519/a1589865654080_3872.jpg","https://xcimg.szwego.com/20200519/a1589865654581_5040.jpg","https://xcimg.szwego.com/20200519/a1589865655008_6380.jpg"],"created_at":"2025-02-08T12:47:15.849Z"},{"id":"item-8fd4ae89c26e","sku":"_dahahyPM4Aik_XLvpCw12e6qVJ8bAdTg4MwtyRw","name_en":"『Celine 赛琳』","name_cn":"『Celine 赛琳』\n\n凯旋门腋下包升级•黄色\n\n全新升级版复古鎏金,五金更耐用更耐磨\n配TRIOMPHE金属质感锁扣\n复古摩登结合,日常必备穿搭💥\n\n尺寸:20×10×4cm","specs":{"source":"wsxcme","sourceId":"_dahahyPM4Aik_XLvpCw12e6qVJ8bAdTg4MwtyRw","sourceTagId":47003106,"sourceTagName":"塞琳/女包","dimensions":{"lengthCm":20,"heightCm":10,"widthCm":4},"rawTitle":"『Celine 赛琳』\n\n凯旋门腋下包升级•黄色\n\n全新升级版复古鎏金,五金更耐用更耐磨\n配TRIOMPHE金属质感锁扣\n复古摩登结合,日常必备穿搭💥\n\n尺寸:20×10×4cm"},"price":null,"currency":"CNY","moq":1,"category":"celine-women-bags","status":"active","alibaba_url":null,"images":["https://xcimg.szwego.com/20220327/i1648373862_8759_0.jpg","https://xcimg.szwego.com/20220327/i1648373862_8491_1.jpg","https://xcimg.szwego.com/20220327/i1648373862_6112_2.jpg","https://xcimg.szwego.com/20220327/i1648373862_9674_3.jpg","https://xcimg.szwego.com/20220327/i1648373862_279_4.jpg","https://xcimg.szwego.com/20220327/i1648373862_5798_7.jpg","https://xcimg.szwego.com/20220327/i1648373862_7288_6.jpg","https://xcimg.szwego.com/20220327/i1648373862_9947_8.jpg","https://xcimg.szwego.com/20220327/i1648373862_9616_5.jpg"],"created_at":"2025-02-08T12:47:15.833Z"},{"id":"item-8be21f8bb7ba","sku":"_dAnAn3IGxilPJfseceyYLoDJ5vAgquhmXm92v0Q","name_en":"『Celine 赛琳』","name_cn":"『Celine 赛琳』\n\nTRIOMPHE标志印花牛皮革肩背包8 X 4 X 2英寸(20 X 10 X 4厘米)TRIOMPHE CANVAS标志印花,牛皮革包边羊皮革衬里肩背TRIOMPHE 金属质感锁扣内侧扁平口袋可调节皮革肩带长8英寸(20厘米)","specs":{"source":"wsxcme","sourceId":"_dAnAn3IGxilPJfseceyYLoDJ5vAgquhmXm92v0Q","sourceTagId":47003106,"sourceTagName":"塞琳/女包","rawTitle":"『Celine 赛琳』\n\nTRIOMPHE标志印花牛皮革肩背包8 X 4 X 2英寸(20 X 10 X 4厘米)TRIOMPHE CANVAS标志印花,牛皮革包边羊皮革衬里肩背TRIOMPHE 金属质感锁扣内侧扁平口袋可调节皮革肩带长8英寸(20厘米)"},"price":null,"currency":"CNY","moq":1,"category":"celine-women-bags","status":"active","alibaba_url":null,"images":["https://xcimg.szwego.com/20210408/i1617827421_724_0.jpg","https://xcimg.szwego.com/20210408/i1617827421_1902_1.jpg","https://xcimg.szwego.com/20210408/i1617827421_1330_2.jpg","https://xcimg.szwego.com/20210408/i1617827421_4797_3.jpg","https://xcimg.szwego.com/20210408/i1617827421_9558_4.jpg","https://xcimg.szwego.com/20210408/i1617827421_3182_5.jpg","https://xcimg.szwego.com/20210408/i1617827421_9934_6.jpg","https://xcimg.szwego.com/20210408/i1617827421_3132_7.jpg"],"created_at":"2025-02-08T12:47:00.799Z"},{"id":"item-8bc9dd28feec","sku":"_dxOxOCK2m6ESROl8BbOQu2hUVd_iER5fOPEuk5Q","name_en":"『Celine 赛琳』","name_cn":"『Celine 赛琳』\n\nbox18.5cm 灰色银扣\n\n专柜最新尺寸teen💥\n头层牛皮配定制五金\n内里两层\n内侧有扁平口袋✅\n尺寸:18.5×15.5×6cm","specs":{"source":"wsxcme","sourceId":"_dxOxOCK2m6ESROl8BbOQu2hUVd_iER5fOPEuk5Q","sourceTagId":47003106,"sourceTagName":"塞琳/女包","dimensions":{"lengthCm":18.5,"heightCm":15.5,"widthCm":6},"rawTitle":"『Celine 赛琳』\n\nbox18.5cm 灰色银扣\n\n专柜最新尺寸teen💥\n头层牛皮配定制五金\n内里两层\n内侧有扁平口袋✅\n尺寸:18.5×15.5×6cm"},"price":null,"currency":"CNY","moq":1,"category":"celine-women-bags","status":"active","alibaba_url":null,"images":["https://xcimg.szwego.com/20201126/i1606377839_5238_0.jpg","https://xcimg.szwego.com/20201126/i1606377839_5828_1.jpg","https://xcimg.szwego.com/20201126/i1606377839_1392_2.jpg","https://xcimg.szwego.com/20201126/i1606377839_4006_3.jpg","https://xcimg.szwego.com/20201126/i1606377839_9068_4.jpg","https://xcimg.szwego.com/20201126/i1606377839_7144_5.jpg","https://xcimg.szwego.com/20201126/i1606377839_1138_6.jpg","https://xcimg.szwego.com/20201126/i1606377839_7088_7.jpg","https://xcimg.szwego.com/20201126/i1606377839_6659_8.jpg"],"created_at":"2025-02-08T12:47:00.786Z"},{"id":"item-8b1e3615aced","sku":"_dcrcrFy4VlDGyXLfCnyg9XAJV66XKaDP81Qf-Og","name_en":"『Celine 赛琳』","name_cn":"『Celine 赛琳』\n\n配全套包装CABAS TRIOMPHE🛍帆布MiNi号竖款手袋\n65%涂层帆布,35%小牛皮\n100%棉衬里\n内侧插袋\n可调节可拆卸皮革肩带 长20英寸(50厘米)\n尺寸20X 17X 6厘米)\n型号:2200黄褐色","specs":{"source":"wsxcme","sourceId":"_dcrcrFy4VlDGyXLfCnyg9XAJV66XKaDP81Qf-Og","sourceTagId":47003106,"sourceTagName":"塞琳/女包","modelNumber":"2200黄褐色","dimensions":{"lengthCm":20,"heightCm":17,"widthCm":6},"rawTitle":"『Celine 赛琳』\n\n配全套包装CABAS TRIOMPHE🛍帆布MiNi号竖款手袋\n65%涂层帆布,35%小牛皮\n100%棉衬里\n内侧插袋\n可调节可拆卸皮革肩带 长20英寸(50厘米)\n尺寸20X 17X 6厘米)\n型号:2200黄褐色"},"price":null,"currency":"CNY","moq":1,"category":"celine-women-bags","status":"active","alibaba_url":null,"images":["https://xcimg.szwego.com/20200805/i1596616649_8532_0.jpg","https://xcimg.szwego.com/20200805/i1596616649_3472_1.jpg","https://xcimg.szwego.com/20200805/i1596616649_6750_2.jpg","https://xcimg.szwego.com/20200805/i1596616649_2218_3.jpg","https://xcimg.szwego.com/20200805/i1596616649_153_4.jpg","https://xcimg.szwego.com/20200805/i1596616649_9717_5.jpg","https://xcimg.szwego.com/20200805/i1596616649_7692_6.jpg","https://xcimg.szwego.com/20200805/i1596616649_9043_7.jpg","https://xcimg.szwego.com/20200805/i1596616649_5835_8.jpg"],"created_at":"2025-02-08T12:47:00.819Z"},{"id":"item-8a6e96c11fbd","sku":"_dtsts0iOqymw5sugVx1qxrJat2JbezyZI1In-Yg","name_en":"『Celine 赛琳』","name_cn":"『Celine 赛琳』\n\nCABAS TRIOMPHE🛍提花纺织面料MiNi号竖款手袋\n65%纺织布,35%小牛皮\n100%棉衬里\n内侧插袋\n可调节可拆卸皮革肩带 长20英寸(50厘米)\n尺寸20X 17X 6厘米)\n型号:1230棕黄褐色","specs":{"source":"wsxcme","sourceId":"_dtsts0iOqymw5sugVx1qxrJat2JbezyZI1In-Yg","sourceTagId":47003106,"sourceTagName":"塞琳/女包","modelNumber":"1230棕黄褐色","dimensions":{"lengthCm":20,"heightCm":17,"widthCm":6},"rawTitle":"『Celine 赛琳』\n\nCABAS TRIOMPHE🛍提花纺织面料MiNi号竖款手袋\n65%纺织布,35%小牛皮\n100%棉衬里\n内侧插袋\n可调节可拆卸皮革肩带 长20英寸(50厘米)\n尺寸20X 17X 6厘米)\n型号:1230棕黄褐色"},"price":null,"currency":"CNY","moq":1,"category":"celine-women-bags","status":"active","alibaba_url":null,"images":["https://xcimg.szwego.com/20201121/i1605898856_8648_0.jpg","https://xcimg.szwego.com/20201121/i1605898856_9090_1.jpg","https://xcimg.szwego.com/20201121/i1605898856_8306_2.jpg","https://xcimg.szwego.com/20201121/i1605898856_4961_3.jpg","https://xcimg.szwego.com/20201121/i1605898856_3098_4.jpg","https://xcimg.szwego.com/20201121/i1605898856_3537_5.jpg","https://xcimg.szwego.com/20201121/i1605898856_836_6.jpg","https://xcimg.szwego.com/20201121/i1605898856_9579_7.jpg","https://xcimg.szwego.com/20201121/i1605898856_6921_8.jpg"],"created_at":"2025-02-08T12:47:00.825Z"},{"id":"item-89781cae5960","sku":"_dmOmOWFhDBPYrgWXBrfhJA3NojRhEQSs-sz1esA","name_en":"『Celine 赛琳』","name_cn":"『Celine 赛琳』\n\n贝壳包 TRIOMPHE帆布相机包  64%涂层帆布,36%小牛皮 可斜挎和肩背 拉链锁闭 可调节皮革肩带长20英寸(50厘米)\n尺寸:20 X 15 X 5cm\n型号:3189#","specs":{"source":"wsxcme","sourceId":"_dmOmOWFhDBPYrgWXBrfhJA3NojRhEQSs-sz1esA","sourceTagId":47003106,"sourceTagName":"塞琳/女包","modelNumber":"3189#","dimensions":{"lengthCm":20,"heightCm":15,"widthCm":5},"rawTitle":"『Celine 赛琳』\n\n贝壳包 TRIOMPHE帆布相机包  64%涂层帆布,36%小牛皮 可斜挎和肩背 拉链锁闭 可调节皮革肩带长20英寸(50厘米)\n尺寸:20 X 15 X 5cm\n型号:3189#"},"price":null,"currency":"CNY","moq":1,"category":"celine-women-bags","status":"active","alibaba_url":null,"images":["https://xcimg.szwego.com/20220422/i1650601951_1683_0.jpg","https://xcimg.szwego.com/20220422/i1650601951_2083_1.jpg","https://xcimg.szwego.com/20220422/i1650601951_9653_2.jpg","https://xcimg.szwego.com/20220422/i1650601951_7059_3.jpg","https://xcimg.szwego.com/20220422/i1650601951_2523_4.jpg","https://xcimg.szwego.com/20220422/i1650601951_612_5.jpg","https://xcimg.szwego.com/20220422/i1650601951_9806_6.jpg","https://xcimg.szwego.com/20220422/i1650601951_7737_7.jpg","https://xcimg.szwego.com/20220422/i1650601951_984_8.jpg"],"created_at":"2025-02-08T12:47:00.806Z"},{"id":"item-88441aecf9bc","sku":"_ddodoFJadvb4H4NU1lp8zz27g4ywgj-hoLIzU8g","name_en":"『Celine 赛琳』","name_cn":"『Celine 赛琳』\n\n新款FOLCO TRIOMPHE邮差包PVC/牛皮 衬里 : 织物 斜挎和肩背 带扣和磁扣 内侧扁平口袋  翻盖下设扁平口袋,背面扁平口袋 可调节肩带 长(53厘米)\n尺寸:31 X 24 X 9cm\n款号:3350#","specs":{"source":"wsxcme","sourceId":"_ddodoFJadvb4H4NU1lp8zz27g4ywgj-hoLIzU8g","sourceTagId":47003106,"sourceTagName":"塞琳/女包","modelNumber":"3350#","dimensions":{"lengthCm":31,"heightCm":24,"widthCm":9},"rawTitle":"『Celine 赛琳』\n\n新款FOLCO TRIOMPHE邮差包PVC/牛皮 衬里 : 织物 斜挎和肩背 带扣和磁扣 内侧扁平口袋  翻盖下设扁平口袋,背面扁平口袋 可调节肩带 长(53厘米)\n尺寸:31 X 24 X 9cm\n款号:3350#"},"price":null,"currency":"CNY","moq":1,"category":"celine-women-bags","status":"active","alibaba_url":null,"images":["https://xcimg.szwego.com/20220415/i1649993379_5750_0.jpg","https://xcimg.szwego.com/20220415/i1649993379_906_1.jpg","https://xcimg.szwego.com/20220415/i1649993379_7104_2.jpg","https://xcimg.szwego.com/20220415/i1649993379_5536_3.jpg","https://xcimg.szwego.com/20220415/i1649993379_7982_4.jpg","https://xcimg.szwego.com/20220415/i1649993379_9058_5.jpg","https://xcimg.szwego.com/20220415/i1649993379_8908_6.jpg","https://xcimg.szwego.com/20220415/i1649993379_9438_7.jpg","https://xcimg.szwego.com/20220415/i1649993379_7165_8.jpg"],"created_at":"2025-02-08T12:47:00.812Z"},{"id":"item-87edfb00d03f","sku":"_dvDvDXlAApZdoB5f-9Zjm3QatshGj8P9Zz3JqPA","name_en":"『Celine 赛琳』","name_cn":"『Celine 赛琳』\n\n白花购物袋 白花配 棕色牛皮 这个包真的很酷 尺寸刚好 比起上一款竖版手拿包  型号3006  尺寸28x32cm","specs":{"source":"wsxcme","sourceId":"_dvDvDXlAApZdoB5f-9Zjm3QatshGj8P9Zz3JqPA","sourceTagId":47003106,"sourceTagName":"塞琳/女包","modelNumber":"3006  尺寸28x32cm","rawTitle":"『Celine 赛琳』\n\n白花购物袋 白花配 棕色牛皮 这个包真的很酷 尺寸刚好 比起上一款竖版手拿包  型号3006  尺寸28x32cm"},"price":null,"currency":"CNY","moq":1,"category":"celine-women-bags","status":"active","alibaba_url":null,"images":["https://xcimg.szwego.com/20210412/i1618230438_8827_0.jpg","https://xcimg.szwego.com/20210412/i1618230438_3213_1.jpg","https://xcimg.szwego.com/20210412/i1618230438_1712_2.jpg","https://xcimg.szwego.com/20210412/i1618230438_2612_3.jpg","https://xcimg.szwego.com/20210412/i1618230438_7375_4.jpg","https://xcimg.szwego.com/20210412/i1618230438_1492_5.jpg","https://xcimg.szwego.com/20210412/i1618230438_1637_6.jpg","https://xcimg.szwego.com/20210412/i1618230438_1141_7.jpg","https://xcimg.szwego.com/20210412/i1618230438_7756_8.jpg"],"created_at":"2025-02-08T12:47:00.833Z"},{"id":"item-872a582054b7","sku":"_dtHtHEdM4QEMthlvRdBITFKo_r-03xbrLCfFZiA","name_en":"『Celine 赛琳』","name_cn":"『Celine 赛琳』\n\n新款🔅CABAS TRIOMPHE提花面料MiNi号竖款手袋,65%纺织布,35%小牛皮,100%棉衬里,内侧插袋,可调节可拆卸皮革肩带 长50厘米\n尺寸20X 17X 6厘米\n型号:2200#","specs":{"source":"wsxcme","sourceId":"_dtHtHEdM4QEMthlvRdBITFKo_r-03xbrLCfFZiA","sourceTagId":47003106,"sourceTagName":"塞琳/女包","modelNumber":"2200#","dimensions":{"lengthCm":20,"heightCm":17,"widthCm":6},"rawTitle":"『Celine 赛琳』\n\n新款🔅CABAS TRIOMPHE提花面料MiNi号竖款手袋,65%纺织布,35%小牛皮,100%棉衬里,内侧插袋,可调节可拆卸皮革肩带 长50厘米\n尺寸20X 17X 6厘米\n型号:2200#"},"price":null,"currency":"CNY","moq":1,"category":"celine-women-bags","status":"active","alibaba_url":null,"images":["https://xcimg.szwego.com/20220504/i1651635127_7756_0.jpg","https://xcimg.szwego.com/20220504/i1651635127_166_1.jpg","https://xcimg.szwego.com/20220504/i1651635127_1963_2.jpg","https://xcimg.szwego.com/20220504/i1651635127_4533_3.jpg","https://xcimg.szwego.com/20220504/i1651635127_2423_4.jpg","https://xcimg.szwego.com/20220504/i1651635127_7734_5.jpg","https://xcimg.szwego.com/20220504/i1651635127_2530_6.jpg","https://xcimg.szwego.com/20220504/i1651635127_4453_7.jpg"],"created_at":"2025-02-08T12:47:00.839Z"},{"id":"item-87005f04ee1b","sku":"_djkjkdmKKsZjrIO6Ud6gNYGHE22H8AxUkHtvs0g","name_en":"『Celine 赛琳』","name_cn":"『Celine 赛琳』\n\nCELINE ♥ TRIOMPHE SHOULDER BAG\n感觉这两年Celine是不是打开了任督二脉!出的包是越来越绝了!新款凯旋门腋下包简直惊喜爆棚!确认过眼神是我想要的包!必须要拥有的那种❗️尺寸:20*10*4cm","specs":{"source":"wsxcme","sourceId":"_djkjkdmKKsZjrIO6Ud6gNYGHE22H8AxUkHtvs0g","sourceTagId":47003106,"sourceTagName":"塞琳/女包","dimensions":{"lengthCm":20,"heightCm":10,"widthCm":4},"rawTitle":"『Celine 赛琳』\n\nCELINE ♥ TRIOMPHE SHOULDER BAG\n感觉这两年Celine是不是打开了任督二脉!出的包是越来越绝了!新款凯旋门腋下包简直惊喜爆棚!确认过眼神是我想要的包!必须要拥有的那种❗️尺寸:20*10*4cm"},"price":null,"currency":"CNY","moq":1,"category":"celine-women-bags","status":"active","alibaba_url":null,"images":["https://xcimg.szwego.com/20220712/i1657590090_4005_0.jpg","https://xcimg.szwego.com/20220712/i1657590090_1163_1.jpg","https://xcimg.szwego.com/20220712/i1657590090_1678_2.jpg","https://xcimg.szwego.com/20220712/i1657590090_522_3.jpg","https://xcimg.szwego.com/20220712/i1657590090_6724_4.jpg","https://xcimg.szwego.com/20220712/i1657590090_54_5.jpg","https://xcimg.szwego.com/20220712/i1657590090_8150_6.jpg","https://xcimg.szwego.com/20220712/i1657590090_8482_7.jpg","https://xcimg.szwego.com/20220712/i1657590090_8654_8.jpg"],"created_at":"2025-02-08T12:47:23.819Z"},{"id":"item-86d14a1d60d2","sku":"_dnini5AEOLNz5ZiIiUfb_PECQWPNOIuEdkc_scA","name_en":"『Celine 赛琳』","name_cn":"『Celine 赛琳』\n\nTRIOMPHE标志印花牛皮革肩背包8 X 4 X 2英寸(20 X 10 X 4厘米)TRIOMPHE CANVAS标志印花,牛皮革包边羊皮革衬里肩背TRIOMPHE 金属质感锁扣内侧扁平口袋可调节皮革肩带长8英寸(20厘米)","specs":{"source":"wsxcme","sourceId":"_dnini5AEOLNz5ZiIiUfb_PECQWPNOIuEdkc_scA","sourceTagId":47003106,"sourceTagName":"塞琳/女包","rawTitle":"『Celine 赛琳』\n\nTRIOMPHE标志印花牛皮革肩背包8 X 4 X 2英寸(20 X 10 X 4厘米)TRIOMPHE CANVAS标志印花,牛皮革包边羊皮革衬里肩背TRIOMPHE 金属质感锁扣内侧扁平口袋可调节皮革肩带长8英寸(20厘米)"},"price":null,"currency":"CNY","moq":1,"category":"celine-women-bags","status":"active","alibaba_url":null,"images":["https://xcimg.szwego.com/20210731/i1627739324_7606_0.jpg","https://xcimg.szwego.com/20210731/i1627739324_6761_1.jpg","https://xcimg.szwego.com/20210731/i1627739324_551_2.jpg","https://xcimg.szwego.com/20210731/i1627739324_5414_3.jpg","https://xcimg.szwego.com/20210731/i1627739324_7610_4.jpg","https://xcimg.szwego.com/20210731/i1627739324_2214_5.jpg","https://xcimg.szwego.com/20210731/i1627739324_9060_6.jpg","https://xcimg.szwego.com/20210731/i1627739324_4688_7.jpg"],"created_at":"2025-02-08T12:47:00.798Z"}],"page":40,"pageSize":24,"total":10075,"totalPages":420}
