{"items":[{"id":"item-e8a989c7f369","sku":"_dkdkdPlx_rmB--MXe7IQ_QlvuznMCDKv3IZ14XQ","name_en":"YSL Liya 复古行李包/保龄球包","name_cn":"YSL Liya 复古行李包/保龄球包\n今年超爱这种复古Feel!\n最新保龄球包 LIYA 符合所有大容量大需求的出行,功能性一级棒!尺寸设计适合不同高度的姐妹驾驭,体现秋冬慵懒的一款包,简约设计且肩带可调节,易搭配。柔软细腻的皮质,兼具时髦和实用、时髦姐妹不要错过!\n尺寸31x16x13cm","specs":{"source":"wsxcme","sourceId":"_dkdkdPlx_rmB--MXe7IQ_QlvuznMCDKv3IZ14XQ","sourceTagId":47002761,"sourceTagName":"圣罗兰/女包","dimensions":{"lengthCm":31,"heightCm":16,"widthCm":13},"rawTitle":"YSL Liya 复古行李包/保龄球包\n今年超爱这种复古Feel!\n最新保龄球包 LIYA 符合所有大容量大需求的出行,功能性一级棒!尺寸设计适合不同高度的姐妹驾驭,体现秋冬慵懒的一款包,简约设计且肩带可调节,易搭配。柔软细腻的皮质,兼具时髦和实用、时髦姐妹不要错过!\n尺寸31x16x13cm"},"price":null,"currency":"CNY","moq":1,"category":"ysl-women-bags","status":"active","alibaba_url":null,"images":["https://xcimg.szwego.com/img/bce60362/20240408/i1712554600_4523_0.jpg","https://xcimg.szwego.com/img/bce60362/20240408/i1712554599_3413_0.jpg","https://xcimg.szwego.com/img/bce60362/20240408/i1712554587_8209_0.jpg","https://xcimg.szwego.com/img/bce60362/20240408/i1712554588_3565_5.jpg","https://xcimg.szwego.com/img/bce60362/20240408/i1712554600_9867_0.jpg","https://xcimg.szwego.com/img/bce60362/20240408/i1712554587_3622_1.jpg","https://xcimg.szwego.com/img/bce60362/20240408/i1712554588_5890_7.jpg","https://xcimg.szwego.com/img/bce60362/20240408/i1712554600_9288_0.jpg","https://xcimg.szwego.com/img/bce60362/20240408/i1712554600_7785_0.jpg"],"created_at":"2024-12-08T05:53:46.535Z"},{"id":"item-ebc79eefff38","sku":"_d8T8TVhnY4vzQliTvdLzap7xW9mJBD00A-fx1vQ","name_en":"ysl-517045 组合图 十二个颜色","name_cn":"ysl-517045 组合图 十二个颜色","specs":{"source":"wsxcme","sourceId":"_d8T8TVhnY4vzQliTvdLzap7xW9mJBD00A-fx1vQ","sourceTagId":47002663,"sourceTagName":"长短款钱包","rawTitle":"ysl-517045 组合图 十二个颜色"},"price":null,"currency":"CNY","moq":1,"category":"women-wallets","status":"active","alibaba_url":null,"images":["https://xcimg.szwego.com/img/80e46a01/20241124/i1732445249_767_0.jpg"],"created_at":"2025-06-23T05:39:49.848Z"},{"id":"item-eb4198a05163","sku":"_dAVAVafWAKWLtUoDI2crGJMQT5PAebJfBijhcMw","name_en":"YSL拉链钱包 12个卡位,1个拉链袋,2个钞票隔层,2个票据隔层","name_cn":"YSL拉链钱包 12个卡位,1个拉链袋,2个钞票隔层,2个票据隔层\n不得不说ysl的钱夹真的是好好用,经典的鱼子酱纹牛皮搭配大五金logo,简洁又凸显品牌风格设计,不管过了多少年都是拿得出手的,手机也可以放,耐磨耐用,不需要打理\n型号:358094 \n尺寸:19*10cm","specs":{"source":"wsxcme","sourceId":"_dAVAVafWAKWLtUoDI2crGJMQT5PAebJfBijhcMw","sourceTagId":47002663,"sourceTagName":"长短款钱包","modelNumber":"358094","rawTitle":"YSL拉链钱包 12个卡位,1个拉链袋,2个钞票隔层,2个票据隔层\n不得不说ysl的钱夹真的是好好用,经典的鱼子酱纹牛皮搭配大五金logo,简洁又凸显品牌风格设计,不管过了多少年都是拿得出手的,手机也可以放,耐磨耐用,不需要打理\n型号:358094 \n尺寸:19*10cm"},"price":null,"currency":"CNY","moq":1,"category":"women-wallets","status":"active","alibaba_url":null,"images":["https://xcimg.szwego.com/img/80e46a01/20241127/i1732706774_599_3.jpg","https://xcimg.szwego.com/img/80e46a01/20241127/i1732706774_8032_0.jpg","https://xcimg.szwego.com/img/80e46a01/20241127/i1732706775_6516_6.jpg","https://xcimg.szwego.com/img/80e46a01/20241127/i1732706774_7857_2.jpg","https://xcimg.szwego.com/img/80e46a01/20241127/i1732706774_1377_4.jpg","https://xcimg.szwego.com/img/80e46a01/20241127/i1732706775_220_5.jpg","https://xcimg.szwego.com/img/80e46a01/20241127/i1732706774_368_1.jpg","https://xcimg.szwego.com/img/80e46a01/20241127/i1732706775_5686_7.jpg","https://xcimg.szwego.com/img/80e46a01/20241127/i1732706775_8278_8.jpg"],"created_at":"2025-06-23T05:40:18.011Z"},{"id":"item-6554d6b30865","sku":"_d-4-4riFx_rPyfVqBAZ7Z2r4Uuh0PQo3UEIqfnw","name_en":"YSL圣罗兰 ,金扣","name_cn":"YSL圣罗兰 ,金扣\n专柜妖孽款SaintLaurent&SLP专柜最新版. 市场独家🍀🍀🍀进口皮原厂皮山羊纹,手工绣V线 超柔滑柔软舒适,包型精致,👏👏👏实用,袋口YSL金扣,五金完美无暇 细节精湛手工,配精致原版挂饰🍂🍂🍂🍂size24*20*8.5cm!F26611","specs":{"source":"wsxcme","sourceId":"_d-4-4riFx_rPyfVqBAZ7Z2r4Uuh0PQo3UEIqfnw","sourceTagId":47002761,"sourceTagName":"圣罗兰/女包","rawTitle":"YSL圣罗兰 ,金扣\n专柜妖孽款SaintLaurent&SLP专柜最新版. 市场独家🍀🍀🍀进口皮原厂皮山羊纹,手工绣V线 超柔滑柔软舒适,包型精致,👏👏👏实用,袋口YSL金扣,五金完美无暇 细节精湛手工,配精致原版挂饰🍂🍂🍂🍂size24*20*8.5cm!F26611"},"price":null,"currency":"CNY","moq":1,"category":"ysl-women-bags","status":"active","alibaba_url":null,"images":["https://xcimg.szwego.com/20230308/a1678255563055_0070.jpg","https://xcimg.szwego.com/20230308/a1678255563047_0344.jpg","https://xcimg.szwego.com/20230308/a1678255563052_8850.jpg","https://xcimg.szwego.com/20230308/a1678255563061_5731.jpg","https://xcimg.szwego.com/20230308/a1678255563419_5618.jpg"],"created_at":"2025-02-08T12:46:07.465Z"},{"id":"item-e74a2414668e","sku":"_dxJxJf1DH12zNo2Hy7DkzFqH3YtFkYQhZYCdkBw","name_en":"YSL圣罗兰 专柜妖孽款SaintLaurent&SLP专柜最新版. 市场独家,进口皮原厂皮山羊纹,手工绣V线 超柔滑柔软舒适,包型精致,👏👏👏实用,型号428056,袋口YS黑扣,五金完美无暇 细节精湛手工,配精致原版挂饰🍂🍂🍂🍂size24*20*8.5cm!F26611","name_cn":"YSL圣罗兰 专柜妖孽款SaintLaurent&SLP专柜最新版. 市场独家,进口皮原厂皮山羊纹,手工绣V线 超柔滑柔软舒适,包型精致,👏👏👏实用,型号428056,袋口YS黑扣,五金完美无暇 细节精湛手工,配精致原版挂饰🍂🍂🍂🍂size24*20*8.5cm!F26611","specs":{"source":"wsxcme","sourceId":"_dxJxJf1DH12zNo2Hy7DkzFqH3YtFkYQhZYCdkBw","sourceTagId":47002761,"sourceTagName":"圣罗兰/女包","modelNumber":"428056","rawTitle":"YSL圣罗兰 专柜妖孽款SaintLaurent&SLP专柜最新版. 市场独家,进口皮原厂皮山羊纹,手工绣V线 超柔滑柔软舒适,包型精致,👏👏👏实用,型号428056,袋口YS黑扣,五金完美无暇 细节精湛手工,配精致原版挂饰🍂🍂🍂🍂size24*20*8.5cm!F26611"},"price":null,"currency":"CNY","moq":1,"category":"ysl-women-bags","status":"active","alibaba_url":null,"images":["https://xcimg.szwego.com/1520524042_1200368748_0","https://xcimg.szwego.com/1520524042_428844343_1","https://xcimg.szwego.com/1520524042_4026934030_2","https://xcimg.szwego.com/1520524042_743139506_3","https://xcimg.szwego.com/1520524042_4146827864_4","https://xcimg.szwego.com/1520524042_2249634725_5","https://xcimg.szwego.com/1520524042_961430207_6","https://xcimg.szwego.com/1520524042_3540772664_7","https://xcimg.szwego.com/1520524042_3647894835_8"],"created_at":"2025-02-08T12:46:07.464Z"},{"id":"item-8985e9d26a00","sku":"_dULULfr-rc3Dc2pK2d7nBWU0BA0CUwO8SnjpoYA","name_en":"YSL圣罗兰购物袋。属实不得不赞叹“她","name_cn":"YSL圣罗兰购物袋。属实不得不赞叹“她\n\nYSL圣罗兰购物袋。属实不得不赞叹“她”真的很美。洋气美妞/街拍人,时尚潮女都必备的出街款教 教全新设计十全新面料演绎说全新哑光 鹿皮纹牛皮手感质感都超棒上山这款包车线多咱家追求均匀对齐,超级显档次诗设容量足够内里还带拉链暗袋! . F各种衣衣搭配还是出席各路场合,都ok )。速度 来一只吧强烈推荐!尺寸 25-21-10\n编码:8151","specs":{"source":"wsxcme","sourceId":"_dULULfr-rc3Dc2pK2d7nBWU0BA0CUwO8SnjpoYA","sourceTagId":47002761,"sourceTagName":"圣罗兰/女包","rawTitle":"YSL圣罗兰购物袋。属实不得不赞叹“她\n\nYSL圣罗兰购物袋。属实不得不赞叹“她”真的很美。洋气美妞/街拍人,时尚潮女都必备的出街款教 教全新设计十全新面料演绎说全新哑光 鹿皮纹牛皮手感质感都超棒上山这款包车线多咱家追求均匀对齐,超级显档次诗设容量足够内里还带拉链暗袋! . F各种衣衣搭配还是出席各路场合,都ok )。速度 来一只吧强烈推荐!尺寸 25-21-10\n编码:8151"},"price":null,"currency":"CNY","moq":1,"category":"ysl-women-bags","status":"active","alibaba_url":null,"images":["https://xcimg.szwego.com/20230403/i1680464310_3206_0.jpg","https://xcimg.szwego.com/20230403/i1680464310_9962_1.jpg","https://xcimg.szwego.com/20230403/i1680464310_5051_2.jpg","https://xcimg.szwego.com/20230403/i1680464310_7912_3.jpg","https://xcimg.szwego.com/20230403/i1680464310_385_4.jpg","https://xcimg.szwego.com/20230403/i1680464310_8181_5.jpg","https://xcimg.szwego.com/20230403/i1680464310_3878_6.jpg","https://xcimg.szwego.com/20230403/i1680464310_5512_7.jpg"],"created_at":"2025-02-08T12:46:07.425Z"},{"id":"item-ddcf717b9674","sku":"_dr9r9gRH-embdjV9PyX6sABvv2Fdmvu-ym5xI-Q","name_en":"YSL圣罗兰牛皮编织相机包|||【NEW】","name_cn":"YSL圣罗兰牛皮编织相机包|||【NEW】\nLou相机包_黑色配黑色编织金扣意大利牛皮相机包\n非常精致 可调节式肩带搭配时尚流苏吊坠\n小牛皮面料 罗缎衬里 包内有一个内插袋\n非常实用大气。          款号71166\n尺寸:23x16x6cm","specs":{"source":"wsxcme","sourceId":"_dr9r9gRH-embdjV9PyX6sABvv2Fdmvu-ym5xI-Q","sourceTagId":47002761,"sourceTagName":"圣罗兰/女包","modelNumber":"71166","dimensions":{"lengthCm":23,"heightCm":16,"widthCm":6},"rawTitle":"YSL圣罗兰牛皮编织相机包|||【NEW】\nLou相机包_黑色配黑色编织金扣意大利牛皮相机包\n非常精致 可调节式肩带搭配时尚流苏吊坠\n小牛皮面料 罗缎衬里 包内有一个内插袋\n非常实用大气。          款号71166\n尺寸:23x16x6cm"},"price":null,"currency":"CNY","moq":1,"category":"ysl-women-bags","status":"active","alibaba_url":null,"images":["https://xcimg.szwego.com/20230627/i1687804858_2592_0.jpg","https://xcimg.szwego.com/20230627/i1687804858_7420_1.jpg","https://xcimg.szwego.com/20230627/i1687804858_1273_2.jpg","https://xcimg.szwego.com/20230627/i1687804858_6061_3.jpg","https://xcimg.szwego.com/20230627/i1687804858_4447_4.jpg","https://xcimg.szwego.com/20230627/i1687804858_2124_5.jpg","https://xcimg.szwego.com/20230627/i1687804858_1965_6.jpg","https://xcimg.szwego.com/20230627/i1687804858_2188_7.jpg"],"created_at":"2025-02-08T12:46:07.453Z"},{"id":"item-4dca2f027326","sku":"_dm3m3mxKJNQZDuj61qKrzJd3Zdj1Ow4Znd23itw","name_en":"YSL圣罗兰牛皮编织相机包|||【NEW】","name_cn":"YSL圣罗兰牛皮编织相机包|||【NEW】\nLou相机包_黑色配黑色编织金扣意大利牛皮相机包\n非常精致 可调节式肩带搭配时尚流苏吊坠\n小牛皮面料 罗缎衬里 包内有一个内插袋\n非常实用大气。                        款号71166\n尺寸:23x16x6cm","specs":{"source":"wsxcme","sourceId":"_dm3m3mxKJNQZDuj61qKrzJd3Zdj1Ow4Znd23itw","sourceTagId":47002761,"sourceTagName":"圣罗兰/女包","modelNumber":"71166","dimensions":{"lengthCm":23,"heightCm":16,"widthCm":6},"rawTitle":"YSL圣罗兰牛皮编织相机包|||【NEW】\nLou相机包_黑色配黑色编织金扣意大利牛皮相机包\n非常精致 可调节式肩带搭配时尚流苏吊坠\n小牛皮面料 罗缎衬里 包内有一个内插袋\n非常实用大气。                        款号71166\n尺寸:23x16x6cm"},"price":null,"currency":"CNY","moq":1,"category":"ysl-women-bags","status":"active","alibaba_url":null,"images":["https://xcimg.szwego.com/20230510/i1683661286_4683_0.jpg","https://xcimg.szwego.com/20230510/i1683661286_4909_1.jpg","https://xcimg.szwego.com/20230510/i1683661286_3997_2.jpg","https://xcimg.szwego.com/20230510/i1683661286_8400_3.jpg","https://xcimg.szwego.com/20230510/i1683661286_8473_4.jpg","https://xcimg.szwego.com/20230510/i1683661286_1935_5.jpg","https://xcimg.szwego.com/20230510/i1683661286_1389_6.jpg","https://xcimg.szwego.com/20230510/i1683661286_5725_7.jpg"],"created_at":"2025-02-08T12:46:07.426Z"},{"id":"item-8ec56fb74976","sku":"_dieieJ8-SWZj34dxDm-V7WEgyW85adfG18moowg","name_en":"YSL圣罗兰腋下包lefermoir","name_cn":"YSL圣罗兰腋下包lefermoir\n\n整体设计简洁,空间满足日常\n\n马鞍包Hobo造型,洋气时髦\n\n百搭的气质款,复古又俏皮\n\nsize: 24x17 #小众包包#出街通勤最百搭的包包#小","specs":{"source":"wsxcme","sourceId":"_dieieJ8-SWZj34dxDm-V7WEgyW85adfG18moowg","sourceTagId":47002761,"sourceTagName":"圣罗兰/女包","rawTitle":"YSL圣罗兰腋下包lefermoir\n\n整体设计简洁,空间满足日常\n\n马鞍包Hobo造型,洋气时髦\n\n百搭的气质款,复古又俏皮\n\nsize: 24x17 #小众包包#出街通勤最百搭的包包#小"},"price":null,"currency":"CNY","moq":1,"category":"ysl-women-bags","status":"active","alibaba_url":null,"images":["https://xcimg.szwego.com/20240521/i1716300219_8583_0.jpg","https://xcimg.szwego.com/20240521/i1716300219_311_1.jpg","https://xcimg.szwego.com/20240521/i1716300219_4808_2.jpg","https://xcimg.szwego.com/20240521/i1716300219_5817_3.jpg","https://xcimg.szwego.com/20240521/i1716300219_9627_4.jpg","https://xcimg.szwego.com/20240521/i1716300219_5786_5.jpg","https://xcimg.szwego.com/20240521/i1716300219_8885_6.jpg","https://xcimg.szwego.com/20240521/i1716300219_1040_7.jpg","https://xcimg.szwego.com/20240521/i1716300219_6156_8.jpg"],"created_at":"2025-02-08T12:46:07.484Z"},{"id":"item-9e99d1cc7dfa","sku":"_d9s9sxtI9pjBIxb7x-SZKDt1YLpX1V7Thg1A2oA","name_en":"YSL新款酒红色Hobo腋下包","name_cn":"YSL新款酒红色Hobo腋下包","specs":{"source":"wsxcme","sourceId":"_d9s9sxtI9pjBIxb7x-SZKDt1YLpX1V7Thg1A2oA","sourceTagId":47002761,"sourceTagName":"圣罗兰/女包","rawTitle":"YSL新款酒红色Hobo腋下包"},"price":null,"currency":"CNY","moq":1,"category":"ysl-women-bags","status":"active","alibaba_url":null,"images":["https://xcimg.szwego.com/img/58395cbb/20240928/a1727520453905_8734.jpg","https://xcimg.szwego.com/img/58395cbb/20240928/a1727520393684_7082.jpg","https://xcimg.szwego.com/img/58395cbb/20240928/a1727520393624_4146.jpg","https://xcimg.szwego.com/img/58395cbb/20240928/a1727520393625_2622.jpg"],"created_at":"2025-07-20T03:05:44.250Z"},{"id":"item-70afed5cfe71","sku":"_dagagCn44HncbN_no48frNtz8l_XU6aGdrhDH7w","name_en":"YSL鱼子酱卡包现货来约,原版在香港3100入手, 超实用的一款,麻雀虽小,但特能装,百元大钞可以,零钱硬币也可以可放拉链袋内!最贴心之处是设有可露脸的证件卡槽,[奸笑]!总之就是人手必入超级实用 牛皮➕羊皮 全套专柜包装","name_cn":"YSL鱼子酱卡包现货来约,原版在香港3100入手, 超实用的一款,麻雀虽小,但特能装,百元大钞可以,零钱硬币也可以可放拉链袋内!最贴心之处是设有可露脸的证件卡槽,[奸笑]!总之就是人手必入超级实用 牛皮➕羊皮 全套专柜包装\n型号:517045 \n尺寸:13*9*1.5cm","specs":{"source":"wsxcme","sourceId":"_dagagCn44HncbN_no48frNtz8l_XU6aGdrhDH7w","sourceTagId":47002663,"sourceTagName":"长短款钱包","modelNumber":"517045","dimensions":{"lengthCm":13,"heightCm":9,"widthCm":1.5},"rawTitle":"YSL鱼子酱卡包现货来约,原版在香港3100入手, 超实用的一款,麻雀虽小,但特能装,百元大钞可以,零钱硬币也可以可放拉链袋内!最贴心之处是设有可露脸的证件卡槽,[奸笑]!总之就是人手必入超级实用 牛皮➕羊皮 全套专柜包装\n型号:517045 \n尺寸:13*9*1.5cm"},"price":null,"currency":"CNY","moq":1,"category":"women-wallets","status":"active","alibaba_url":null,"images":["https://xcimg.szwego.com/img/80e46a01/20241124/i1732444837_2218_7.jpg","https://xcimg.szwego.com/img/80e46a01/20241124/i1732444837_2628_0.jpg","https://xcimg.szwego.com/img/80e46a01/20241124/i1732444837_6_6.jpg","https://xcimg.szwego.com/img/80e46a01/20241124/i1732444837_8120_4.jpg","https://xcimg.szwego.com/img/80e46a01/20241124/i1732444837_1469_2.jpg","https://xcimg.szwego.com/img/80e46a01/20241124/i1732444837_7141_8.jpg","https://xcimg.szwego.com/img/80e46a01/20241124/i1732444837_6091_3.jpg","https://xcimg.szwego.com/img/80e46a01/20241124/i1732444837_6140_5.jpg","https://xcimg.szwego.com/img/80e46a01/20241124/i1732444837_867_1.jpg"],"created_at":"2025-06-23T05:40:00.855Z"},{"id":"item-cf02b43de400","sku":"_du9u9vrQg-UGnHmxPPVNr_QzLYGiBK9WY8GohDg","name_en":"YSLLouLou Puffer水洗牛仔包","name_cn":"YSLLouLou Puffer水洗牛仔包\nloulou今年专柜超火爆的牛仔款式牛仔经过水洗手感柔软舒适胖乎乎的外形像拿着棉花糖颜值很高的一款呀!\n实用性满分+复古范十足怎么搭配都好看又百搭自圣罗兰25x17x6,款号9009","specs":{"source":"wsxcme","sourceId":"_du9u9vrQg-UGnHmxPPVNr_QzLYGiBK9WY8GohDg","sourceTagId":47002761,"sourceTagName":"圣罗兰/女包","modelNumber":"9009","rawTitle":"YSLLouLou Puffer水洗牛仔包\nloulou今年专柜超火爆的牛仔款式牛仔经过水洗手感柔软舒适胖乎乎的外形像拿着棉花糖颜值很高的一款呀!\n实用性满分+复古范十足怎么搭配都好看又百搭自圣罗兰25x17x6,款号9009"},"price":null,"currency":"CNY","moq":1,"category":"ysl-women-bags","status":"active","alibaba_url":null,"images":["https://xcimg.szwego.com/20230313/i1678717253_4528_0.jpg","https://xcimg.szwego.com/20230313/i1678717253_9282_1.jpg","https://xcimg.szwego.com/20230313/i1678717253_3670_2.jpg","https://xcimg.szwego.com/20230313/i1678717253_8747_3.jpg","https://xcimg.szwego.com/20230313/i1678717253_1223_4.jpg","https://xcimg.szwego.com/20230313/i1678717253_2578_5.jpg","https://xcimg.szwego.com/20230313/i1678717253_2104_6.jpg","https://xcimg.szwego.com/20230313/i1678717253_5369_7.jpg","https://xcimg.szwego.com/20230313/i1678717253_1941_8.jpg"],"created_at":"2025-02-08T12:46:07.433Z"},{"id":"item-06f00a5d5c96","sku":"_dd_d_MzAMqtwFAUJggScUU-cB4BMHKSY2a6QbYg","name_en":"YSLLouLou Puffer水洗牛仔包loulou今年专柜超火爆的牛仔款式牛仔经过水洗手感柔软舒适胖乎乎的外形像拿着棉花糖颜值很高的一款呀!实用性满分+复古范十足怎么搭配都好看又百搭自圣罗兰尺寸26x20x7,款号71112","name_cn":"YSLLouLou Puffer水洗牛仔包loulou今年专柜超火爆的牛仔款式牛仔经过水洗手感柔软舒适胖乎乎的外形像拿着棉花糖颜值很高的一款呀!实用性满分+复古范十足怎么搭配都好看又百搭自圣罗兰尺寸26x20x7,款号71112","specs":{"source":"wsxcme","sourceId":"_dd_d_MzAMqtwFAUJggScUU-cB4BMHKSY2a6QbYg","sourceTagId":47002761,"sourceTagName":"圣罗兰/女包","modelNumber":"71112","rawTitle":"YSLLouLou Puffer水洗牛仔包loulou今年专柜超火爆的牛仔款式牛仔经过水洗手感柔软舒适胖乎乎的外形像拿着棉花糖颜值很高的一款呀!实用性满分+复古范十足怎么搭配都好看又百搭自圣罗兰尺寸26x20x7,款号71112"},"price":null,"currency":"CNY","moq":1,"category":"ysl-women-bags","status":"active","alibaba_url":null,"images":["https://xcimg.szwego.com/20230414/i1681482781_290_0.jpg","https://xcimg.szwego.com/20230414/i1681482781_6904_1.jpg","https://xcimg.szwego.com/20230414/i1681482781_4971_2.jpg","https://xcimg.szwego.com/20230414/i1681482781_9126_3.jpg","https://xcimg.szwego.com/20230414/i1681482781_34_4.jpg","https://xcimg.szwego.com/20230414/i1681482781_9649_5.jpg","https://xcimg.szwego.com/20230414/i1681482781_3592_6.jpg","https://xcimg.szwego.com/20230414/i1681482781_4093_7.jpg"],"created_at":"2025-02-08T12:46:07.432Z"},{"id":"item-b8b92d2ad167","sku":"_dzCzC0fBk078Lk_5OxGn8Q-cV9b-UNyQUk_6Dvw","name_en":"Zp图_","name_cn":"Zp图_","specs":{"source":"wsxcme","sourceId":"_dzCzC0fBk078Lk_5OxGn8Q-cV9b-UNyQUk_6Dvw","sourceTagId":47002761,"sourceTagName":"圣罗兰/女包","rawTitle":"Zp图_"},"price":null,"currency":"CNY","moq":1,"category":"ysl-women-bags","status":"active","alibaba_url":null,"images":["https://xcimg.szwego.com/img/f8c0bdc9/20240904/i1725444229_8079_0.jpg","https://xcimg.szwego.com/img/f8c0bdc9/20240904/i1725444229_9431_1.jpg","https://xcimg.szwego.com/img/f8c0bdc9/20240904/i1725444229_6812_3.jpg","https://xcimg.szwego.com/img/f8c0bdc9/20240904/i1725444235_7282_0.jpg","https://xcimg.szwego.com/img/f8c0bdc9/20240904/i1725444229_4085_2.jpg"],"created_at":"2025-07-20T03:05:44.247Z"},{"id":"item-b64a2b52fdf0","sku":"_do_o_r3esZ0tG_PGAc_Wfuf_u2R0CQ1_bw0ebqw","name_en":"Zp图_","name_cn":"Zp图_","specs":{"source":"wsxcme","sourceId":"_do_o_r3esZ0tG_PGAc_Wfuf_u2R0CQ1_bw0ebqw","sourceTagId":47002761,"sourceTagName":"圣罗兰/女包","rawTitle":"Zp图_"},"price":null,"currency":"CNY","moq":1,"category":"ysl-women-bags","status":"active","alibaba_url":null,"images":["https://xcimg.szwego.com/20230720/i1689849328_4856_0.jpg","https://xcimg.szwego.com/20230720/i1689849328_2306_1.jpg","https://xcimg.szwego.com/20230720/i1689849328_260_2.jpg","https://xcimg.szwego.com/20230720/i1689849328_2728_3.jpg","https://xcimg.szwego.com/20230720/i1689849328_7167_4.jpg","https://xcimg.szwego.com/20230720/i1689849328_1717_5.jpg","https://xcimg.szwego.com/20230720/i1689849328_5551_6.jpg"],"created_at":"2026-06-29T10:48:59.289Z"},{"id":"item-64a9f1c896c1","sku":"_dtytyrXFOkvRnMPAvLVOQEMI7fkPQdbZCqJlOHg","name_en":"Zp图_","name_cn":"Zp图_","specs":{"source":"wsxcme","sourceId":"_dtytyrXFOkvRnMPAvLVOQEMI7fkPQdbZCqJlOHg","sourceTagId":47002761,"sourceTagName":"圣罗兰/女包","rawTitle":"Zp图_"},"price":null,"currency":"CNY","moq":1,"category":"ysl-women-bags","status":"active","alibaba_url":null,"images":["https://xcimg.szwego.com/img/f8c0bdc9/20240105/i1704445798_8588_0.jpg","https://xcimg.szwego.com/img/f8c0bdc9/20240105/i1704445798_6594_1.jpg","https://xcimg.szwego.com/img/f8c0bdc9/20240105/i1704445798_2742_2.jpg","https://xcimg.szwego.com/img/f8c0bdc9/20240105/i1704445798_4327_3.jpg","https://xcimg.szwego.com/img/f8c0bdc9/20240105/i1704445798_4293_4.jpg","https://xcimg.szwego.com/img/f8c0bdc9/20240105/i1704445798_9166_5.jpg","https://xcimg.szwego.com/img/f8c0bdc9/20240105/i1704445798_8754_6.jpg","https://xcimg.szwego.com/img/f8c0bdc9/20240105/i1704445798_6278_7.jpg","https://xcimg.szwego.com/img/f8c0bdc9/20240105/i1704445798_7918_8.jpg"],"created_at":"2025-07-20T03:10:54.217Z"},{"id":"item-121d0d1c14cf","sku":"_d_l_le4E1U-ta_Ju4-NM2asNXoWbQ0q_pYMnpeg","name_en":"Zp图_","name_cn":"Zp图_","specs":{"source":"wsxcme","sourceId":"_d_l_le4E1U-ta_Ju4-NM2asNXoWbQ0q_pYMnpeg","sourceTagId":47002761,"sourceTagName":"圣罗兰/女包","rawTitle":"Zp图_"},"price":null,"currency":"CNY","moq":1,"category":"ysl-women-bags","status":"active","alibaba_url":null,"images":["https://xcimg.szwego.com/img/f8c0bdc9/20240515/i1715779017_9885_5.jpg","https://xcimg.szwego.com/img/f8c0bdc9/20240515/i1715779017_276_0.jpg","https://xcimg.szwego.com/img/f8c0bdc9/20240515/i1715779017_9373_2.jpg","https://xcimg.szwego.com/img/f8c0bdc9/20240515/i1715779017_4707_8.jpg","https://xcimg.szwego.com/img/f8c0bdc9/20240515/i1715779017_4786_3.jpg","https://xcimg.szwego.com/img/f8c0bdc9/20240515/i1715779017_6615_4.jpg","https://xcimg.szwego.com/img/f8c0bdc9/20240515/i1715779017_9006_1.jpg","https://xcimg.szwego.com/img/f8c0bdc9/20240515/i1715779017_7926_6.jpg","https://xcimg.szwego.com/img/f8c0bdc9/20240515/i1715779017_8319_7.jpg"],"created_at":"2026-05-20T04:01:38.923Z"},{"id":"item-314cb5aaac97","sku":"_dqDqDxktlTTR3plr0yTWQzxZP3_uEwk0HQQ7kbA","name_en":"ZP图#","name_cn":"ZP图#","specs":{"source":"wsxcme","sourceId":"_dqDqDxktlTTR3plr0yTWQzxZP3_uEwk0HQQ7kbA","sourceTagId":47002761,"sourceTagName":"圣罗兰/女包","rawTitle":"ZP图#"},"price":null,"currency":"CNY","moq":1,"category":"ysl-women-bags","status":"active","alibaba_url":null,"images":["https://xcimg.szwego.com/img/fce24e4d/20240913/i1726199266_471_0.jpg","https://xcimg.szwego.com/img/fce24e4d/20240913/i1726199266_8987_3.jpg","https://xcimg.szwego.com/img/fce24e4d/20240913/i1726199266_4846_2.jpg","https://xcimg.szwego.com/img/fce24e4d/20240913/i1726199266_9448_1.jpg"],"created_at":"2025-07-20T03:05:44.252Z"},{"id":"item-e6d713d3a54c","sku":"_dnini5AEOLN34ZCAuUfb-OEGVW_BAIuEdkc_scA","name_en":"ꫛꫀꪝ👄 最🆕版本puzzle 沙色出货🎉明星同款 选用进口荔面牛皮 ,全新版本整个包身都是沙色拼接 包包自重很轻 容量非常可观 实用百搭又方便 出行,超级百搭色是必入款~小号Size24*16*10cm","name_cn":"ꫛꫀꪝ👄 最🆕版本puzzle 沙色出货🎉明星同款 选用进口荔面牛皮 ,全新版本整个包身都是沙色拼接 包包自重很轻 容量非常可观 实用百搭又方便 出行,超级百搭色是必入款~小号Size24*16*10cm","specs":{"source":"wsxcme","sourceId":"_dnini5AEOLN34ZCAuUfb-OEGVW_BAIuEdkc_scA","sourceTagId":47002713,"sourceTagName":"罗意威/女包","rawTitle":"ꫛꫀꪝ👄 最🆕版本puzzle 沙色出货🎉明星同款 选用进口荔面牛皮 ,全新版本整个包身都是沙色拼接 包包自重很轻 容量非常可观 实用百搭又方便 出行,超级百搭色是必入款~小号Size24*16*10cm"},"price":null,"currency":"CNY","moq":1,"category":"loewe-women-bags","status":"active","alibaba_url":null,"images":["https://xcimg.szwego.com/20211116/i1637048676_5426_0.jpg","https://xcimg.szwego.com/20211116/i1637048676_5141_1.jpg","https://xcimg.szwego.com/20211116/i1637048676_1969_2.jpg","https://xcimg.szwego.com/20211116/i1637048676_4114_3.jpg","https://xcimg.szwego.com/20211116/i1637048676_5843_4.jpg","https://xcimg.szwego.com/20211116/i1637048676_6874_5.jpg","https://xcimg.szwego.com/20211116/i1637048676_1477_6.jpg","https://xcimg.szwego.com/20211116/i1637048676_3635_7.jpg","https://xcimg.szwego.com/20211116/i1637048676_4972_8.jpg"],"created_at":"2024-10-24T12:53:14.227Z"}],"page":420,"pageSize":24,"total":10075,"totalPages":420}
