{"items":[{"id":"item-d4e115c311ff","sku":"_detetdhm41lGwMGouQu3P-VdQgWy9kuLuEuvitg","name_en":"Burberry Women Bags","name_cn":"❤【鸵鸟纹奶茶色】\nLoro Piana Extra pocket L19系列 断货王\n\n不被定义的生活才最自在,就像loro piana的材质设计,不需要繁复设计的款式,简洁柔和的轮廓优雅耐看,像一只精美的化妆箱,完美兼顾了颜值和功能性。皮质细腻,手感像黄油一般柔软,小小包身大容量,不光是手提配细肩带还可以斜挎哦,对极简风情有独钟得姐妹可以入手啦,简约百搭,越简单越不同,明星ins网红都在种草,配上稀有的皮料很难不爱。\n\n尺寸:小号:长19×宽7×高12cm","specs":{"source":"wsxcme","sourceId":"_detetdhm41lGwMGouQu3P-VdQgWy9kuLuEuvitg","sourceTagId":80411239,"sourceTagName":"巴宝莉/女包","rawTitle":"❤【鸵鸟纹奶茶色】\nLoro Piana Extra pocket L19系列 断货王\n\n不被定义的生活才最自在,就像loro piana的材质设计,不需要繁复设计的款式,简洁柔和的轮廓优雅耐看,像一只精美的化妆箱,完美兼顾了颜值和功能性。皮质细腻,手感像黄油一般柔软,小小包身大容量,不光是手提配细肩带还可以斜挎哦,对极简风情有独钟得姐妹可以入手啦,简约百搭,越简单越不同,明星ins网红都在种草,配上稀有的皮料很难不爱。\n\n尺寸:小号:长19×宽7×高12cm"},"price":null,"currency":"CNY","moq":1,"category":"burberry-women-bags","status":"active","alibaba_url":null,"images":["https://xcimg.szwego.com/20230816/i1692176452_162_0.jpg","https://xcimg.szwego.com/20230816/i1692176452_9288_1.jpg","https://xcimg.szwego.com/20230816/i1692176452_5926_2.jpg","https://xcimg.szwego.com/20230816/i1692176452_7106_3.jpg","https://xcimg.szwego.com/20230816/i1692176452_7656_4.jpg","https://xcimg.szwego.com/20230816/i1692176452_4872_5.jpg","https://xcimg.szwego.com/20230816/i1692176452_9580_6.jpg","https://xcimg.szwego.com/20230816/i1692176452_6136_7.jpg","https://xcimg.szwego.com/20230816/i1692176452_9325_8.jpg"],"created_at":"2025-01-20T12:43:24.094Z"},{"id":"item-d3e1c26c0a7a","sku":"_djnjnXn-ARB3g22KUpMtDEhtrjrp-kcwvsAZIzQ","name_en":"Burberry Women Bags","name_cn":"❤️大号!黑色条纹 大号背的是酷😎是高级 是独特 也不用挑身高 有一米六左右来驾驭也是超级无敌好看的,背上气质就出来了!专柜新面料(纯棉的)搭配原厂牛皮,肩背带的边边包的都是原厂牛皮✔️,咱家拒绝超纤哈❌支持对比!!\n尺寸长36 x 宽18.5 x 高(袋身高)33cm.","specs":{"source":"wsxcme","sourceId":"_djnjnXn-ARB3g22KUpMtDEhtrjrp-kcwvsAZIzQ","sourceTagId":80411239,"sourceTagName":"巴宝莉/女包","rawTitle":"❤️大号!黑色条纹 大号背的是酷😎是高级 是独特 也不用挑身高 有一米六左右来驾驭也是超级无敌好看的,背上气质就出来了!专柜新面料(纯棉的)搭配原厂牛皮,肩背带的边边包的都是原厂牛皮✔️,咱家拒绝超纤哈❌支持对比!!\n尺寸长36 x 宽18.5 x 高(袋身高)33cm."},"price":null,"currency":"CNY","moq":1,"category":"burberry-women-bags","status":"active","alibaba_url":null,"images":["https://xcimg.szwego.com/img/d5e7a5ce/20250304/a1741079184206_4682.jpg","https://xcimg.szwego.com/img/d5e7a5ce/20250304/a1741079184203_6447.jpg","https://xcimg.szwego.com/img/d5e7a5ce/20250304/a1741079184205_7203.jpg","https://xcimg.szwego.com/img/d5e7a5ce/20250304/a1741079184209_6123.jpg","https://xcimg.szwego.com/img/d5e7a5ce/20250304/a1741079184201_6504.jpg","https://xcimg.szwego.com/img/d5e7a5ce/20250304/a1741079184210_1774.jpg","https://xcimg.szwego.com/img/d5e7a5ce/20250304/a1741079185106_6232.jpg","https://xcimg.szwego.com/img/d5e7a5ce/20250304/a1741079185100_5877.jpg","https://xcimg.szwego.com/img/d5e7a5ce/20250304/a1741079185104_6547.jpg"],"created_at":"2026-06-29T10:27:59.322Z"},{"id":"item-d3903e4f0d56","sku":"_dU_U_iFpiWEwuv5sg3EiQHKkkIAy3m_Y0ZQzvbQ","name_en":"Burberry Women Bags","name_cn":"现货","specs":{"source":"wsxcme","sourceId":"_dU_U_iFpiWEwuv5sg3EiQHKkkIAy3m_Y0ZQzvbQ","sourceTagId":80411239,"sourceTagName":"巴宝莉/女包","rawTitle":"现货"},"price":null,"currency":"CNY","moq":1,"category":"burberry-women-bags","status":"active","alibaba_url":null,"images":["https://xcimg.szwego.com/img/d5e7a5ce/20251105/a1762313700380_5413.jpg","https://xcimg.szwego.com/img/d5e7a5ce/20251105/a1762313700381_5553.jpg","https://xcimg.szwego.com/img/d5e7a5ce/20251105/a1762313700383_0416.jpg","https://xcimg.szwego.com/img/d5e7a5ce/20251105/a1762313700382_5222.jpg","https://xcimg.szwego.com/img/d5e7a5ce/20251105/a1762313700382_5630.jpg","https://xcimg.szwego.com/img/d5e7a5ce/20251105/a1762313700384_0562.jpg","https://xcimg.szwego.com/img/d5e7a5ce/20251105/a1762313701022_1140.jpg","https://xcimg.szwego.com/img/d5e7a5ce/20251105/a1762313701019_4651.jpg","https://xcimg.szwego.com/img/d5e7a5ce/20251105/a1762313701022_8775.jpg"],"created_at":"2026-06-29T10:27:58.912Z"},{"id":"item-d34c5f414005","sku":"_ddEdEUL5vnM7J_-34bNiE4xDhLsqcaBpiC_sdiQ","name_en":"Burberry Women Bags","name_cn":"官网图","specs":{"source":"wsxcme","sourceId":"_ddEdEUL5vnM7J_-34bNiE4xDhLsqcaBpiC_sdiQ","sourceTagId":80411239,"sourceTagName":"巴宝莉/女包","rawTitle":"官网图"},"price":null,"currency":"CNY","moq":1,"category":"burberry-women-bags","status":"active","alibaba_url":null,"images":["https://xcimg.szwego.com/img/d5e7a5ce/20250908/a1757318458167_7015.jpg","https://xcimg.szwego.com/img/d5e7a5ce/20250908/a1757318458165_4787.jpg","https://xcimg.szwego.com/img/d5e7a5ce/20250908/a1757318458170_0355.jpg","https://xcimg.szwego.com/img/d5e7a5ce/20250908/a1757318458169_2516.jpg","https://xcimg.szwego.com/img/d5e7a5ce/20250908/a1757318458170_7716.jpg"],"created_at":"2026-06-29T10:27:58.442Z"},{"id":"item-d278419ccd90","sku":"_du3u3cNyp76fxD5DtdzzrsP1QRnPpLs131iO1nQ","name_en":"Burberry Women Bags","name_cn":"上身图","specs":{"source":"wsxcme","sourceId":"_du3u3cNyp76fxD5DtdzzrsP1QRnPpLs131iO1nQ","sourceTagId":80411239,"sourceTagName":"巴宝莉/女包","rawTitle":"上身图"},"price":null,"currency":"CNY","moq":1,"category":"burberry-women-bags","status":"active","alibaba_url":null,"images":["https://xcimg.szwego.com/img/d5e7a5ce/20250404/a1743750422820_1860.jpg","https://xcimg.szwego.com/img/d5e7a5ce/20250404/a1743750422745_0204.jpg","https://xcimg.szwego.com/img/d5e7a5ce/20250404/a1743750422728_8385.jpg","https://xcimg.szwego.com/img/d5e7a5ce/20250404/a1743750422731_4471.jpg","https://xcimg.szwego.com/img/d5e7a5ce/20250404/a1743750422737_7224.jpg","https://xcimg.szwego.com/img/d5e7a5ce/20250404/a1743750422760_8136.jpg","https://xcimg.szwego.com/img/d5e7a5ce/20250404/a1743750423608_5678.jpg","https://xcimg.szwego.com/img/d5e7a5ce/20250404/a1743750423607_0005.jpg","https://xcimg.szwego.com/img/d5e7a5ce/20250404/a1743750423605_6335.jpg"],"created_at":"2026-06-29T10:27:58.692Z"},{"id":"item-d259c9afcc3c","sku":"_dOWOWE6vNFcJa8-1jrIWQeKfIlwRVyLU2HtOWiw","name_en":"Burberry Women Bags","name_cn":"大号沙色上身效果参考","specs":{"source":"wsxcme","sourceId":"_dOWOWE6vNFcJa8-1jrIWQeKfIlwRVyLU2HtOWiw","sourceTagId":80411239,"sourceTagName":"巴宝莉/女包","rawTitle":"大号沙色上身效果参考"},"price":null,"currency":"CNY","moq":1,"category":"burberry-women-bags","status":"active","alibaba_url":null,"images":["https://xcimg.szwego.com/img/d5e7a5ce/20250403/a1743668435402_8462.jpg","https://xcimg.szwego.com/img/d5e7a5ce/20250403/a1743668435406_4536.jpg","https://xcimg.szwego.com/img/d5e7a5ce/20250403/a1743668435409_5573.jpg","https://xcimg.szwego.com/img/d5e7a5ce/20250403/a1743668435412_6222.jpg","https://xcimg.szwego.com/img/d5e7a5ce/20250403/a1743668435415_7025.jpg","https://xcimg.szwego.com/img/d5e7a5ce/20250403/a1743668435414_7038.jpg","https://xcimg.szwego.com/img/d5e7a5ce/20250403/a1743668436222_4447.jpg"],"created_at":"2026-06-29T10:27:59.312Z"},{"id":"item-d1d932f3c5fa","sku":"_d9X9XbcO5z5XlqvnEt65V_c-mqNUCDr78P9C_fA","name_en":"Burberry Women Bags","name_cn":"上身图","specs":{"source":"wsxcme","sourceId":"_d9X9XbcO5z5XlqvnEt65V_c-mqNUCDr78P9C_fA","sourceTagId":80411239,"sourceTagName":"巴宝莉/女包","rawTitle":"上身图"},"price":null,"currency":"CNY","moq":1,"category":"burberry-women-bags","status":"active","alibaba_url":null,"images":["https://xcimg.szwego.com/img/d5e7a5ce/20251114/a1763101832719_0270.jpg","https://xcimg.szwego.com/img/d5e7a5ce/20251114/a1763101832719_1835.jpg","https://xcimg.szwego.com/img/d5e7a5ce/20251114/a1763101832721_1036.jpg","https://xcimg.szwego.com/img/d5e7a5ce/20251114/a1763101832723_1658.jpg","https://xcimg.szwego.com/img/d5e7a5ce/20251114/a1763101832722_0437.jpg","https://xcimg.szwego.com/img/d5e7a5ce/20251114/a1763101832722_0670.jpg","https://xcimg.szwego.com/img/d5e7a5ce/20251114/a1763101833287_6201.jpg","https://xcimg.szwego.com/img/d5e7a5ce/20251114/a1763101833288_1754.jpg"],"created_at":"2026-06-29T10:27:58.372Z"},{"id":"item-d07a9464f584","sku":"_djQjQyiXIXSBv8Otf71pdG1LBNQbM7vztJ9x33g","name_en":"Burberry Women Bags","name_cn":"巴宝莉【型号0621】顶级原单典藏灵感的托特包,精选帆布拼缉明线皮革制成,正面口袋装饰品牌徽标图案。可使用加固式皮革提柄手拎,或使用可拆式肩背带携带。\n尺寸:23 x 6 x 26.5cm\n内衬:92%棉,8%聚氨酯","specs":{"source":"wsxcme","sourceId":"_djQjQyiXIXSBv8Otf71pdG1LBNQbM7vztJ9x33g","sourceTagId":80411239,"sourceTagName":"巴宝莉/女包","modelNumber":"0621】顶级原单典藏灵感的托特包","dimensions":{"lengthCm":23,"heightCm":6,"widthCm":26.5},"rawTitle":"巴宝莉【型号0621】顶级原单典藏灵感的托特包,精选帆布拼缉明线皮革制成,正面口袋装饰品牌徽标图案。可使用加固式皮革提柄手拎,或使用可拆式肩背带携带。\n尺寸:23 x 6 x 26.5cm\n内衬:92%棉,8%聚氨酯"},"price":null,"currency":"CNY","moq":1,"category":"burberry-women-bags","status":"active","alibaba_url":null,"images":["https://xcimg.szwego.com/20210928/a1632839067266_6250.jpg","https://xcimg.szwego.com/20210928/a1632839067361_0861.jpg","https://xcimg.szwego.com/20210928/a1632839067456_3434.jpg","https://xcimg.szwego.com/20210928/a1632839067622_6137.jpg","https://xcimg.szwego.com/20210928/a1632839067775_6806.jpg","https://xcimg.szwego.com/20210928/a1632839067843_4277.jpg","https://xcimg.szwego.com/20210928/a1632839067928_0151.jpg","https://xcimg.szwego.com/20210928/a1632839068005_4701.jpg","https://xcimg.szwego.com/20210928/a1632839068072_8172.jpg"],"created_at":"2025-02-08T12:43:27.831Z"},{"id":"item-cbf1bb208ba7","sku":"_d0J0JF3HY7D5--xKkeI3WHy_cb6vs7gMo7fzg1Q","name_en":"Burberry Women Bags","name_cn":"来看一下 原厂防水复古格纹环保帆布+光滑的意大利鞣制皮革打造,亮眼装饰格纹印花和对比缉明线,材质硬挺有型,上身超级吸睛亮眼。","specs":{"source":"wsxcme","sourceId":"_d0J0JF3HY7D5--xKkeI3WHy_cb6vs7gMo7fzg1Q","sourceTagId":80411239,"sourceTagName":"巴宝莉/女包","rawTitle":"来看一下 原厂防水复古格纹环保帆布+光滑的意大利鞣制皮革打造,亮眼装饰格纹印花和对比缉明线,材质硬挺有型,上身超级吸睛亮眼。"},"price":null,"currency":"CNY","moq":1,"category":"burberry-women-bags","status":"active","alibaba_url":null,"images":["https://xcimg.szwego.com/20220423/i1650693835_4293_0.jpg","https://xcimg.szwego.com/20220423/i1650693835_6859_1.jpg","https://xcimg.szwego.com/20220423/i1650693835_2768_2.jpg","https://xcimg.szwego.com/20220423/i1650693835_1602_3.jpg","https://xcimg.szwego.com/20220423/i1650693835_2753_4.jpg","https://xcimg.szwego.com/20220423/i1650693835_2146_5.jpg","https://xcimg.szwego.com/20220423/i1650693835_4562_6.jpg"],"created_at":"2026-06-29T10:27:59.182Z"},{"id":"item-caf118ca83bc","sku":"_dkKkKfs-tmAwMwPPJ20c3Xb7eqKILQhwiJ3tbAw","name_en":"Burberry Women Bags","name_cn":"上身图","specs":{"source":"wsxcme","sourceId":"_dkKkKfs-tmAwMwPPJ20c3Xb7eqKILQhwiJ3tbAw","sourceTagId":80411239,"sourceTagName":"巴宝莉/女包","rawTitle":"上身图"},"price":null,"currency":"CNY","moq":1,"category":"burberry-women-bags","status":"active","alibaba_url":null,"images":["https://xcimg.szwego.com/img/d5e7a5ce/20250908/a1757318472392_0167.jpg","https://xcimg.szwego.com/img/d5e7a5ce/20250908/a1757318472396_0506.jpg","https://xcimg.szwego.com/img/d5e7a5ce/20250908/a1757318472393_2017.jpg","https://xcimg.szwego.com/img/d5e7a5ce/20250908/a1757318472394_1162.jpg","https://xcimg.szwego.com/img/d5e7a5ce/20250908/a1757318472400_2276.jpg","https://xcimg.szwego.com/img/d5e7a5ce/20250908/a1757318472410_8722.jpg","https://xcimg.szwego.com/img/d5e7a5ce/20250908/a1757318473006_7123.jpg","https://xcimg.szwego.com/img/d5e7a5ce/20250908/a1757318473008_6468.jpg","https://xcimg.szwego.com/img/d5e7a5ce/20250908/a1757318473009_4087.jpg"],"created_at":"2026-06-29T10:27:58.452Z"},{"id":"item-c82be74a94c1","sku":"_d8k8k2gFaRPFTW4RulO6Wagm_nrT3saaC-fbs1g","name_en":"Burberry Women Bags","name_cn":"芭宝莉 尺寸28 15\n巴宝莉 Burberry中古腋下包,斜挎包 !也太百搭了吧! !不论休闲西装小裙纸都能搭配质量超级好很有质感摸起来也是软软的爱了爱了,没有年龄限制的一款腋下包!7003","specs":{"source":"wsxcme","sourceId":"_d8k8k2gFaRPFTW4RulO6Wagm_nrT3saaC-fbs1g","sourceTagId":80411239,"sourceTagName":"巴宝莉/女包","rawTitle":"芭宝莉 尺寸28 15\n巴宝莉 Burberry中古腋下包,斜挎包 !也太百搭了吧! !不论休闲西装小裙纸都能搭配质量超级好很有质感摸起来也是软软的爱了爱了,没有年龄限制的一款腋下包!7003"},"price":null,"currency":"CNY","moq":1,"category":"burberry-women-bags","status":"active","alibaba_url":null,"images":["https://xcimg.szwego.com/20211117/i1637080965_244_3.jpg","https://xcimg.szwego.com/20211117/i1637080965_503_0.jpg","https://xcimg.szwego.com/20211117/i1637080965_3430_8.jpg","https://xcimg.szwego.com/20211117/i1637080965_9913_7.jpg","https://xcimg.szwego.com/20211117/i1637080965_6029_2.jpg","https://xcimg.szwego.com/20211117/i1637080965_9870_5.jpg","https://xcimg.szwego.com/20211117/i1637080965_7068_1.jpg","https://xcimg.szwego.com/20211117/i1637080965_5745_4.jpg","https://xcimg.szwego.com/20211117/i1637080965_6616_6.jpg"],"created_at":"2025-02-08T12:43:27.819Z"},{"id":"item-c790e7d22b8e","sku":"_d9-9-9hFjatQ-UEgu_rt1x1nHKhpIG-I0tnjigA","name_en":"Burberry Women Bags","name_cn":"芭宝莉 尺寸28 15\n巴宝莉 Burberry中古腋下包,斜挎包 !也太百搭了吧! !不论休闲西装小裙纸都能搭配质量超级好很有质感摸起来也是软软的爱了爱了,没有年龄限制的一款腋下包!7003","specs":{"source":"wsxcme","sourceId":"_d9-9-9hFjatQ-UEgu_rt1x1nHKhpIG-I0tnjigA","sourceTagId":80411239,"sourceTagName":"巴宝莉/女包","rawTitle":"芭宝莉 尺寸28 15\n巴宝莉 Burberry中古腋下包,斜挎包 !也太百搭了吧! !不论休闲西装小裙纸都能搭配质量超级好很有质感摸起来也是软软的爱了爱了,没有年龄限制的一款腋下包!7003"},"price":null,"currency":"CNY","moq":1,"category":"burberry-women-bags","status":"active","alibaba_url":null,"images":["https://xcimg.szwego.com/20211107/i1636265661_5114_0.jpg","https://xcimg.szwego.com/20211107/i1636265661_9873_1.jpg","https://xcimg.szwego.com/20211107/i1636265661_590_2.jpg","https://xcimg.szwego.com/20211107/i1636265661_7362_3.jpg","https://xcimg.szwego.com/20211107/i1636265661_2745_4.jpg","https://xcimg.szwego.com/20211107/i1636265661_8182_5.jpg","https://xcimg.szwego.com/20211107/i1636265661_3613_6.jpg","https://xcimg.szwego.com/20211107/i1636265661_1513_7.jpg","https://xcimg.szwego.com/20211107/i1636265661_667_8.jpg"],"created_at":"2025-02-08T12:43:27.820Z"},{"id":"item-c75558a54601","sku":"_dbGbGPspfSMDAc7whlSLIyMNgsVfgiUxEUukHQw","name_en":"Burberry Women Bags","name_cn":"巴宝莉【型号0621】顶级原单典藏灵感的托特包,精选帆布拼缉明线皮革制成,正面口袋装饰品牌徽标图案。可使用加固式皮革提柄手拎,或使用可拆式肩背带携带。\n尺寸:23 x 6 x 26.5cm\n内衬:92%棉,8%聚氨酯","specs":{"source":"wsxcme","sourceId":"_dbGbGPspfSMDAc7whlSLIyMNgsVfgiUxEUukHQw","sourceTagId":80411239,"sourceTagName":"巴宝莉/女包","modelNumber":"0621】顶级原单典藏灵感的托特包","dimensions":{"lengthCm":23,"heightCm":6,"widthCm":26.5},"rawTitle":"巴宝莉【型号0621】顶级原单典藏灵感的托特包,精选帆布拼缉明线皮革制成,正面口袋装饰品牌徽标图案。可使用加固式皮革提柄手拎,或使用可拆式肩背带携带。\n尺寸:23 x 6 x 26.5cm\n内衬:92%棉,8%聚氨酯"},"price":null,"currency":"CNY","moq":1,"category":"burberry-women-bags","status":"active","alibaba_url":null,"images":["https://xcimg.szwego.com/20210928/a1632839022277_0322.jpg","https://xcimg.szwego.com/20210928/a1632839022397_6202.jpg","https://xcimg.szwego.com/20210928/a1632839022480_8763.jpg","https://xcimg.szwego.com/20210928/a1632839022575_7386.jpg","https://xcimg.szwego.com/20210928/a1632839022697_7176.jpg","https://xcimg.szwego.com/20210928/a1632839022788_5030.jpg","https://xcimg.szwego.com/20210928/a1632839022892_4373.jpg","https://xcimg.szwego.com/20210928/a1632839022964_8318.jpg","https://xcimg.szwego.com/20210928/a1632839023033_0602.jpg"],"created_at":"2025-02-08T12:43:27.833Z"},{"id":"item-c6ea019ee865","sku":"_dq1q12tbf_5dxo7d6vOB66sMq5w6yPDLHQsWXkg","name_en":"Burberry Women Bags","name_cn":"官网图","specs":{"source":"wsxcme","sourceId":"_dq1q12tbf_5dxo7d6vOB66sMq5w6yPDLHQsWXkg","sourceTagId":80411239,"sourceTagName":"巴宝莉/女包","rawTitle":"官网图"},"price":null,"currency":"CNY","moq":1,"category":"burberry-women-bags","status":"active","alibaba_url":null,"images":["https://xcimg.szwego.com/img/d5e7a5ce/20250915/a1757934068152_4025.jpg","https://xcimg.szwego.com/img/d5e7a5ce/20250915/a1757934068156_4026.jpg","https://xcimg.szwego.com/img/d5e7a5ce/20250915/a1757934068157_5720.jpg","https://xcimg.szwego.com/img/d5e7a5ce/20250915/a1757934068161_4431.jpg","https://xcimg.szwego.com/img/d5e7a5ce/20250915/a1757934068160_4014.jpg"],"created_at":"2026-06-29T10:27:58.742Z"},{"id":"item-c58efff3befd","sku":"_dmXmX8oK9PjjY8aVusi6mz1ZQUuyCG62rhw5Vgw","name_en":"Burberry Women Bags","name_cn":"小号沙色上身效果参考","specs":{"source":"wsxcme","sourceId":"_dmXmX8oK9PjjY8aVusi6mz1ZQUuyCG62rhw5Vgw","sourceTagId":80411239,"sourceTagName":"巴宝莉/女包","rawTitle":"小号沙色上身效果参考"},"price":null,"currency":"CNY","moq":1,"category":"burberry-women-bags","status":"active","alibaba_url":null,"images":["https://xcimg.szwego.com/img/d5e7a5ce/20250403/a1743667469868_2711.jpg","https://xcimg.szwego.com/img/d5e7a5ce/20250403/a1743667469873_6778.jpg","https://xcimg.szwego.com/img/d5e7a5ce/20250403/a1743667469871_0276.jpg","https://xcimg.szwego.com/img/d5e7a5ce/20250403/a1743667469884_8133.jpg","https://xcimg.szwego.com/img/d5e7a5ce/20250403/a1743667469877_7762.jpg","https://xcimg.szwego.com/img/d5e7a5ce/20250403/a1743667469886_1201.jpg","https://xcimg.szwego.com/img/d5e7a5ce/20250403/a1743667471029_3822.jpg","https://xcimg.szwego.com/img/d5e7a5ce/20250403/a1743667471033_3383.jpg","https://xcimg.szwego.com/img/d5e7a5ce/20250403/a1743667471031_3442.jpg"],"created_at":"2026-06-29T10:27:59.242Z"},{"id":"item-bf5a7a428c86","sku":"_d9090veBAyel7z_zovqe7OyyEE1sCqbsYP5WSNQ","name_en":"Burberry Women Bags","name_cn":"上身图","specs":{"source":"wsxcme","sourceId":"_d9090veBAyel7z_zovqe7OyyEE1sCqbsYP5WSNQ","sourceTagId":80411239,"sourceTagName":"巴宝莉/女包","rawTitle":"上身图"},"price":null,"currency":"CNY","moq":1,"category":"burberry-women-bags","status":"active","alibaba_url":null,"images":["https://xcimg.szwego.com/img/d5e7a5ce/20250530/a1748583607234_5748.jpg","https://xcimg.szwego.com/img/d5e7a5ce/20250530/a1748583607385_7272.jpg","https://xcimg.szwego.com/img/d5e7a5ce/20250530/a1748583607311_6842.jpg","https://xcimg.szwego.com/img/d5e7a5ce/20250530/a1748583607237_2575.jpg","https://xcimg.szwego.com/img/d5e7a5ce/20250530/a1748583607240_8643.jpg","https://xcimg.szwego.com/img/d5e7a5ce/20250530/a1748583607243_8621.jpg","https://xcimg.szwego.com/img/d5e7a5ce/20250530/a1748583607982_4528.jpg","https://xcimg.szwego.com/img/d5e7a5ce/20250530/a1748583607981_1724.jpg","https://xcimg.szwego.com/img/d5e7a5ce/20250530/a1748583607983_0406.jpg"],"created_at":"2026-06-29T10:27:58.832Z"},{"id":"item-bd3b8d76dd1c","sku":"_dzEzEsGXhhpXm6uMnrecFGv_OuhWfZkeDxzRuuA","name_en":"Burberry Women Bags","name_cn":"对比","specs":{"source":"wsxcme","sourceId":"_dzEzEsGXhhpXm6uMnrecFGv_OuhWfZkeDxzRuuA","sourceTagId":80411239,"sourceTagName":"巴宝莉/女包","rawTitle":"对比"},"price":null,"currency":"CNY","moq":1,"category":"burberry-women-bags","status":"active","alibaba_url":null,"images":["https://xcimg.szwego.com/img/d5e7a5ce/20250530/a1748587121884_1824.jpg","https://xcimg.szwego.com/img/d5e7a5ce/20250530/a1748587121887_1643.jpg","https://xcimg.szwego.com/img/d5e7a5ce/20250530/a1748587121895_5163.jpg","https://xcimg.szwego.com/img/d5e7a5ce/20250530/a1748587121897_1481.jpg","https://xcimg.szwego.com/img/d5e7a5ce/20250530/a1748587121893_6187.jpg","https://xcimg.szwego.com/img/d5e7a5ce/20250530/a1748587121890_8322.jpg","https://xcimg.szwego.com/img/d5e7a5ce/20250530/a1748587122515_6423.jpg","https://xcimg.szwego.com/img/d5e7a5ce/20250530/a1748587122514_0604.jpg","https://xcimg.szwego.com/img/d5e7a5ce/20250530/a1748587122517_6554.jpg"],"created_at":"2026-06-29T10:27:58.642Z"},{"id":"item-bcab45557d9e","sku":"_djwjw1nwFQq-5_dOUw7E2sQzuxMB7YmvaR5W9Fg","name_en":"Burberry Women Bags","name_cn":"挂拍来一组!包虽然不大 但是能装!","specs":{"source":"wsxcme","sourceId":"_djwjw1nwFQq-5_dOUw7E2sQzuxMB7YmvaR5W9Fg","sourceTagId":80411239,"sourceTagName":"巴宝莉/女包","rawTitle":"挂拍来一组!包虽然不大 但是能装!"},"price":null,"currency":"CNY","moq":1,"category":"burberry-women-bags","status":"active","alibaba_url":null,"images":["https://xcimg.szwego.com/img/14bb1ccb/20240814/i1723627567_2378_6.jpg","https://xcimg.szwego.com/img/14bb1ccb/20240814/i1723627567_2502_2.jpg","https://xcimg.szwego.com/img/14bb1ccb/20240814/i1723627567_642_3.jpg","https://xcimg.szwego.com/img/14bb1ccb/20240814/i1723627567_1633_0.jpg","https://xcimg.szwego.com/img/14bb1ccb/20240814/i1723627567_9507_4.jpg","https://xcimg.szwego.com/img/14bb1ccb/20240814/i1723627567_1752_1.jpg","https://xcimg.szwego.com/img/14bb1ccb/20240814/i1723627567_1414_5.jpg","https://xcimg.szwego.com/img/14bb1ccb/20240814/i1723627567_1147_7.jpg"],"created_at":"2025-01-20T12:43:24.112Z"},{"id":"item-b2f1a85236b8","sku":"_dd4d4kh2PR0qGl03YSwIE46ZE3A26wntNxMUnxw","name_en":"Burberry Women Bags","name_cn":"上身图","specs":{"source":"wsxcme","sourceId":"_dd4d4kh2PR0qGl03YSwIE46ZE3A26wntNxMUnxw","sourceTagId":80411239,"sourceTagName":"巴宝莉/女包","rawTitle":"上身图"},"price":null,"currency":"CNY","moq":1,"category":"burberry-women-bags","status":"active","alibaba_url":null,"images":["https://xcimg.szwego.com/img/d5e7a5ce/20250530/a1748583496460_7053.jpg","https://xcimg.szwego.com/img/d5e7a5ce/20250530/a1748583496440_0643.jpg","https://xcimg.szwego.com/img/d5e7a5ce/20250530/a1748583496432_6684.jpg","https://xcimg.szwego.com/img/d5e7a5ce/20250530/a1748583496455_6056.jpg","https://xcimg.szwego.com/img/d5e7a5ce/20250530/a1748583496484_5712.jpg","https://xcimg.szwego.com/img/d5e7a5ce/20250530/a1748583496481_5326.jpg","https://xcimg.szwego.com/img/d5e7a5ce/20250530/a1748583497053_8232.jpg","https://xcimg.szwego.com/img/d5e7a5ce/20250530/a1748583497072_7570.jpg","https://xcimg.szwego.com/img/d5e7a5ce/20250530/a1748583497055_1762.jpg"],"created_at":"2026-06-29T10:27:58.792Z"},{"id":"item-af9a6198346c","sku":"_dMfMfsQJ20dVTUvF8nEJvNsngwSkK5YaONHKaZg","name_en":"Burberry Women Bags","name_cn":"配原装盒","specs":{"source":"wsxcme","sourceId":"_dMfMfsQJ20dVTUvF8nEJvNsngwSkK5YaONHKaZg","sourceTagId":80411239,"sourceTagName":"巴宝莉/女包","rawTitle":"配原装盒"},"price":null,"currency":"CNY","moq":1,"category":"burberry-women-bags","status":"active","alibaba_url":null,"images":["https://xcimg.szwego.com/imgHD/b7f85c57/20260330/cmp_i1774850681435_1008_0_0.jpg","https://xcimg.szwego.com/imgHD/b7f85c57/20260330/cmp_i1774850681444_298_0_1.jpg","https://xcimg.szwego.com/imgHD/b7f85c57/20260330/cmp_i1774850681441_8247_0_2.jpg"],"created_at":"2026-06-29T10:29:02.669Z"},{"id":"item-af891f48344a","sku":"_dvCvCnUUoyUTvKKbNQffqf5YjP_ds6ncnZz9sjA","name_en":"Burberry Women Bags","name_cn":"上身图","specs":{"source":"wsxcme","sourceId":"_dvCvCnUUoyUTvKKbNQffqf5YjP_ds6ncnZz9sjA","sourceTagId":80411239,"sourceTagName":"巴宝莉/女包","rawTitle":"上身图"},"price":null,"currency":"CNY","moq":1,"category":"burberry-women-bags","status":"active","alibaba_url":null,"images":["https://xcimg.szwego.com/img/d5e7a5ce/20251115/a1763194306118_8741.jpg","https://xcimg.szwego.com/img/d5e7a5ce/20251115/a1763194306116_5335.jpg","https://xcimg.szwego.com/img/d5e7a5ce/20251115/a1763194306115_2801.jpg","https://xcimg.szwego.com/img/d5e7a5ce/20251115/a1763194306119_6511.jpg","https://xcimg.szwego.com/img/d5e7a5ce/20251115/a1763194306119_5720.jpg","https://xcimg.szwego.com/img/d5e7a5ce/20251115/a1763194306119_4856.jpg","https://xcimg.szwego.com/img/d5e7a5ce/20251115/a1763194306647_5233.jpg","https://xcimg.szwego.com/img/d5e7a5ce/20251115/a1763194306645_0231.jpg","https://xcimg.szwego.com/img/d5e7a5ce/20251115/a1763194306648_6813.jpg"],"created_at":"2026-06-29T10:29:02.979Z"},{"id":"item-af33a08ec501","sku":"_dI-I-8InTxj0y5vlLftMgrxtIY3V-auK7tyGjAw","name_en":"Burberry Women Bags","name_cn":"上身效果图!","specs":{"source":"wsxcme","sourceId":"_dI-I-8InTxj0y5vlLftMgrxtIY3V-auK7tyGjAw","sourceTagId":80411239,"sourceTagName":"巴宝莉/女包","rawTitle":"上身效果图!"},"price":null,"currency":"CNY","moq":1,"category":"burberry-women-bags","status":"active","alibaba_url":null,"images":["https://xcimg.szwego.com/20220423/i1650694037_8726_0.jpg","https://xcimg.szwego.com/20220423/i1650694037_4478_1.jpg","https://xcimg.szwego.com/20220423/i1650694037_9568_2.jpg"],"created_at":"2026-06-29T10:27:59.222Z"},{"id":"item-aefb75006fa1","sku":"_dlDlDCkup8TK-5FMDJC8R6n0Wwee_-HT-MdWRUw","name_en":"Burberry Women Bags","name_cn":"小号","specs":{"source":"wsxcme","sourceId":"_dlDlDCkup8TK-5FMDJC8R6n0Wwee_-HT-MdWRUw","sourceTagId":80411239,"sourceTagName":"巴宝莉/女包","rawTitle":"小号"},"price":null,"currency":"CNY","moq":1,"category":"burberry-women-bags","status":"active","alibaba_url":null,"images":["https://xcimg.szwego.com/img/d5e7a5ce/20250915/a1757933963243_1200.jpg","https://xcimg.szwego.com/img/d5e7a5ce/20250915/a1757933963245_5163.jpg","https://xcimg.szwego.com/img/d5e7a5ce/20250915/a1757933963246_7824.jpg","https://xcimg.szwego.com/img/d5e7a5ce/20250915/a1757933963249_8185.jpg","https://xcimg.szwego.com/img/d5e7a5ce/20250915/a1757933963251_3707.jpg","https://xcimg.szwego.com/img/d5e7a5ce/20250915/a1757933963248_6580.jpg","https://xcimg.szwego.com/img/d5e7a5ce/20250915/a1757933963800_2280.jpg","https://xcimg.szwego.com/img/d5e7a5ce/20250915/a1757933963801_5073.jpg"],"created_at":"2026-06-29T10:27:58.732Z"},{"id":"item-adb3fc1b9a0b","sku":"_d9f9fLi44OpBm9NmNW2dFYXDWBDsEpPoG8r-TZQ","name_en":"Burberry Women Bags","name_cn":"#效果图","specs":{"source":"wsxcme","sourceId":"_d9f9fLi44OpBm9NmNW2dFYXDWBDsEpPoG8r-TZQ","sourceTagId":80411239,"sourceTagName":"巴宝莉/女包","rawTitle":"#效果图"},"price":null,"currency":"CNY","moq":1,"category":"burberry-women-bags","status":"active","alibaba_url":null,"images":["https://xcimg.szwego.com/20221224/i1671865998_2035_0.jpg","https://xcimg.szwego.com/20221224/i1671865998_5388_1.jpg","https://xcimg.szwego.com/20221224/i1671865998_2421_2.jpg","https://xcimg.szwego.com/20221224/i1671865998_9723_3.jpg","https://xcimg.szwego.com/20221224/i1671865998_3466_4.jpg","https://xcimg.szwego.com/20221224/i1671865998_8713_5.jpg","https://xcimg.szwego.com/20221224/i1671865998_9015_6.jpg","https://xcimg.szwego.com/20221224/i1671865998_9576_7.jpg","https://xcimg.szwego.com/20221224/i1671865998_4391_8.jpg"],"created_at":"2026-06-29T10:29:02.919Z"}],"page":227,"pageSize":24,"total":10075,"totalPages":420}
