{"items":[{"id":"item-4e5b1ee6a587","sku":"_diFiFejPLOvj4kxt2OOxE6QGyVk_hIhUzWs8njw","name_en":"Gucci Women Bags","name_cn":"升级版实拍#       \n\n款号:498156小号\n尺寸:26x18x10cm\n\npadlock小号购物袋 \n小号略显精致、容量非常合理、也是绝对够用的!休闲正式场合上班通勤都可以、同样一点也不重、皮肩带背起来更舒适!精致耐看 低调百搭风","specs":{"source":"wsxcme","sourceId":"_diFiFejPLOvj4kxt2OOxE6QGyVk_hIhUzWs8njw","sourceTagId":47002679,"sourceTagName":"古驰/女包","modelNumber":"498156小号","dimensions":{"lengthCm":26,"heightCm":18,"widthCm":10},"rawTitle":"升级版实拍#       \n\n款号:498156小号\n尺寸:26x18x10cm\n\npadlock小号购物袋 \n小号略显精致、容量非常合理、也是绝对够用的!休闲正式场合上班通勤都可以、同样一点也不重、皮肩带背起来更舒适!精致耐看 低调百搭风"},"price":null,"currency":"CNY","moq":1,"category":"gucci-women-bags","status":"active","alibaba_url":null,"images":["https://xcimg.szwego.com/20210712/i1626094662_8661_0.jpg","https://xcimg.szwego.com/20210712/i1626094662_4885_1.jpg","https://xcimg.szwego.com/20210712/i1626094662_3684_2.jpg","https://xcimg.szwego.com/20210712/i1626094662_8273_3.jpg","https://xcimg.szwego.com/20210712/i1626094662_8520_4.jpg","https://xcimg.szwego.com/20210712/i1626094662_1548_5.jpg","https://xcimg.szwego.com/20210712/i1626094662_834_6.jpg","https://xcimg.szwego.com/20210712/i1626094662_8047_8.jpg","https://xcimg.szwego.com/20210712/i1626094662_3281_7.jpg"],"created_at":"2024-11-26T11:46:47.178Z"},{"id":"item-4dcfd07f5689","sku":"_drkrkdnzasr7IF-30QTWymZ9R2HZgfoUmK3EHqA","name_en":"Gucci Women Bags","name_cn":"782849克色全皮\n明星模特\n上身参考图","specs":{"source":"wsxcme","sourceId":"_drkrkdnzasr7IF-30QTWymZ9R2HZgfoUmK3EHqA","sourceTagId":47002679,"sourceTagName":"古驰/女包","rawTitle":"782849克色全皮\n明星模特\n上身参考图"},"price":null,"currency":"CNY","moq":1,"category":"gucci-women-bags","status":"active","alibaba_url":null,"images":["https://xcimg.szwego.com/img/dace2ca2/20241106/a1730887622466_1436.jpg","https://xcimg.szwego.com/img/dace2ca2/20241106/a1730887622461_8374.jpg","https://xcimg.szwego.com/img/dace2ca2/20241106/a1730887622468_3268.jpg"],"created_at":"2025-03-29T13:24:08.759Z"},{"id":"item-4db01d110806","sku":"_dHDHDVt24KYo3VpuOT92mvzQXvrVgjl1bwxm6cQ","name_en":"Gucci Women Bags","name_cn":"782849安可拉红漆皮\n好不容易酷一次\n天晴啦~\n和 Gucci Ancora 一起迎接美好的春天吧~","specs":{"source":"wsxcme","sourceId":"_dHDHDVt24KYo3VpuOT92mvzQXvrVgjl1bwxm6cQ","sourceTagId":47002679,"sourceTagName":"古驰/女包","rawTitle":"782849安可拉红漆皮\n好不容易酷一次\n天晴啦~\n和 Gucci Ancora 一起迎接美好的春天吧~"},"price":null,"currency":"CNY","moq":1,"category":"gucci-women-bags","status":"active","alibaba_url":null,"images":["https://xcimg.szwego.com/img/dace2ca2/20241106/a1730894222496_4885.jpg","https://xcimg.szwego.com/img/dace2ca2/20241106/a1730894222585_1403.jpg","https://xcimg.szwego.com/img/dace2ca2/20241106/a1730894222500_8721.jpg","https://xcimg.szwego.com/img/dace2ca2/20241106/a1730894222500_1234.jpg"],"created_at":"2025-03-29T13:24:08.763Z"},{"id":"item-4c6b410ee834","sku":"_dklklku9tcGlKlffCDlBUzu9Ehgh2YSIfOGuEcQ","name_en":"Gucci Women Bags","name_cn":"782849橙色漆皮\n明星模特\n上身参考图","specs":{"source":"wsxcme","sourceId":"_dklklku9tcGlKlffCDlBUzu9Ehgh2YSIfOGuEcQ","sourceTagId":47002679,"sourceTagName":"古驰/女包","rawTitle":"782849橙色漆皮\n明星模特\n上身参考图"},"price":null,"currency":"CNY","moq":1,"category":"gucci-women-bags","status":"active","alibaba_url":null,"images":["https://xcimg.szwego.com/img/dace2ca2/20241106/a1730894937283_0131.jpg","https://xcimg.szwego.com/img/dace2ca2/20241106/a1730894937284_5323.jpg","https://xcimg.szwego.com/img/dace2ca2/20241106/a1730894937293_1266.jpg"],"created_at":"2025-03-29T13:24:08.766Z"},{"id":"item-4adeac5289bb","sku":"_dNeNeUqqxqdwf1ajMvmrUjAL4y9EbSWRijSAOmA","name_en":"Gucci Women Bags","name_cn":"实拍#       只做头层皮 真牛皮\n\n款号:308364头层牛皮\n尺寸:21x15x7cm\n\nGG disco soho相机包. 经典永不会过时\n浮雕双G配上皮革流苏.头层牛皮 超级软\n斜挎✅单肩✅手拿✅","specs":{"source":"wsxcme","sourceId":"_dNeNeUqqxqdwf1ajMvmrUjAL4y9EbSWRijSAOmA","sourceTagId":47002679,"sourceTagName":"古驰/女包","modelNumber":"308364头层牛皮","dimensions":{"lengthCm":21,"heightCm":15,"widthCm":7},"rawTitle":"实拍#       只做头层皮 真牛皮\n\n款号:308364头层牛皮\n尺寸:21x15x7cm\n\nGG disco soho相机包. 经典永不会过时\n浮雕双G配上皮革流苏.头层牛皮 超级软\n斜挎✅单肩✅手拿✅"},"price":null,"currency":"CNY","moq":1,"category":"gucci-women-bags","status":"active","alibaba_url":null,"images":["https://xcimg.szwego.com/20221027/i1666863629_9008_0.jpg","https://xcimg.szwego.com/20221027/i1666863629_2750_1.jpg","https://xcimg.szwego.com/20221027/i1666863629_3360_2.jpg","https://xcimg.szwego.com/20221027/i1666863629_6351_3.jpg","https://xcimg.szwego.com/20221027/i1666863629_4947_4.jpg","https://xcimg.szwego.com/20221027/i1666863629_217_5.jpg","https://xcimg.szwego.com/20221027/i1666863629_2774_6.jpg","https://xcimg.szwego.com/20221027/i1666863629_5594_7.jpg","https://xcimg.szwego.com/20221027/i1666863629_5480_8.jpg"],"created_at":"2024-11-26T11:46:47.176Z"},{"id":"item-486157b4bc95","sku":"_dt1t1-cTwrYM68vca3hi-jyetQMHXSVTK01Cctw","name_en":"Gucci Women Bags","name_cn":"⚠️男女通用\n      中性款","specs":{"source":"wsxcme","sourceId":"_dt1t1-cTwrYM68vca3hi-jyetQMHXSVTK01Cctw","sourceTagId":47002679,"sourceTagName":"古驰/女包","rawTitle":"⚠️男女通用\n      中性款"},"price":null,"currency":"CNY","moq":1,"category":"gucci-women-bags","status":"active","alibaba_url":null,"images":["https://xcimg.szwego.com/img/7f9d4644/20260125/i1769322336603_2944_0_0.jpg","https://xcimg.szwego.com/img/7f9d4644/20260125/i1769322336382_7026_0_1.jpg"],"created_at":"2026-05-20T03:19:23.848Z"},{"id":"item-46ea030f1313","sku":"_dYhYh6UmJLF6jIT62_JjbT1p1qkNn8Ld4XVUhIw","name_en":"Gucci Women Bags","name_cn":"更多细节#","specs":{"source":"wsxcme","sourceId":"_dYhYh6UmJLF6jIT62_JjbT1p1qkNn8Ld4XVUhIw","sourceTagId":47002679,"sourceTagName":"古驰/女包","rawTitle":"更多细节#"},"price":null,"currency":"CNY","moq":1,"category":"gucci-women-bags","status":"active","alibaba_url":null,"images":["https://xcimg.szwego.com/img/74d85e06/20241128/i1732809116_7215_5.jpg","https://xcimg.szwego.com/img/74d85e06/20241129/i1732858236_798_2.jpg","https://xcimg.szwego.com/img/74d85e06/20241129/i1732858236_2900_6.jpg","https://xcimg.szwego.com/img/74d85e06/20241129/i1732858236_7422_0.jpg","https://xcimg.szwego.com/img/74d85e06/20241129/i1732858236_769_1.jpg","https://xcimg.szwego.com/img/74d85e06/20241129/i1732858236_2236_3.jpg","https://xcimg.szwego.com/img/74d85e06/20241129/i1732858236_1202_4.jpg","https://xcimg.szwego.com/img/74d85e06/20241129/i1732858236_5144_5.jpg"],"created_at":"2026-05-20T03:19:24.238Z"},{"id":"item-46953361d72f","sku":"_drerehP3lv7oy-RYhF1bVPqAPhyhbnk3oT5Aq2Q","name_en":"Gucci Women Bags","name_cn":"💕小小包身 大大容量。","specs":{"source":"wsxcme","sourceId":"_drerehP3lv7oy-RYhF1bVPqAPhyhbnk3oT5Aq2Q","sourceTagId":47002679,"sourceTagName":"古驰/女包","rawTitle":"💕小小包身 大大容量。"},"price":null,"currency":"CNY","moq":1,"category":"gucci-women-bags","status":"active","alibaba_url":null,"images":["https://xcimg.szwego.com/img/7f9d4644/20260125/i1769322564464_2508_0_0.jpg","https://xcimg.szwego.com/img/7f9d4644/20260125/i1769322564464_2554_0_1.jpg","https://xcimg.szwego.com/img/7f9d4644/20260125/i1769322564464_6867_0_2.jpg","https://xcimg.szwego.com/img/7f9d4644/20260125/i1769322564464_2704_0_3.jpg"],"created_at":"2026-05-20T03:19:23.878Z"},{"id":"item-42ec6cd1becf","sku":"_d_D_DBgy4OQQ1iOI8xszj6fZZlbePulAnnjp8Ow","name_en":"Gucci Women Bags","name_cn":"🔥官网参考\n\n型号:782849  尺寸:27.5x19x4cm","specs":{"source":"wsxcme","sourceId":"_d_D_DBgy4OQQ1iOI8xszj6fZZlbePulAnnjp8Ow","sourceTagId":47002679,"sourceTagName":"古驰/女包","modelNumber":"782849  尺寸:27.5x19x4cm","dimensions":{"lengthCm":27.5,"heightCm":19,"widthCm":4},"rawTitle":"🔥官网参考\n\n型号:782849  尺寸:27.5x19x4cm"},"price":null,"currency":"CNY","moq":1,"category":"gucci-women-bags","status":"active","alibaba_url":null,"images":["https://xcimg.szwego.com/img/dace2ca2/20241106/a1730866990227_8720.jpg","https://xcimg.szwego.com/img/dace2ca2/20241106/a1730866990228_8427.jpg","https://xcimg.szwego.com/img/dace2ca2/20241106/a1730866990227_6554.jpg","https://xcimg.szwego.com/img/dace2ca2/20241106/a1730866990229_4231.jpg","https://xcimg.szwego.com/img/dace2ca2/20241106/a1730866990231_1607.jpg","https://xcimg.szwego.com/img/dace2ca2/20241106/a1730866990230_7344.jpg","https://xcimg.szwego.com/img/dace2ca2/20241106/a1730866991002_3368.jpg","https://xcimg.szwego.com/img/dace2ca2/20241106/a1730866991002_5643.jpg"],"created_at":"2025-03-29T13:24:08.749Z"},{"id":"item-41f0d08eeb5c","sku":"_d_w_wkkJRHwggEZaw3lGbHEQUo3XWRIi46a7S3A","name_en":"Gucci Women Bags","name_cn":"🔥官网参考\n\n型号:782849  尺寸:27.5x19x4cm","specs":{"source":"wsxcme","sourceId":"_d_w_wkkJRHwggEZaw3lGbHEQUo3XWRIi46a7S3A","sourceTagId":47002679,"sourceTagName":"古驰/女包","modelNumber":"782849  尺寸:27.5x19x4cm","dimensions":{"lengthCm":27.5,"heightCm":19,"widthCm":4},"rawTitle":"🔥官网参考\n\n型号:782849  尺寸:27.5x19x4cm"},"price":null,"currency":"CNY","moq":1,"category":"gucci-women-bags","status":"active","alibaba_url":null,"images":["https://xcimg.szwego.com/img/dace2ca2/20241106/a1730901530540_4783.jpg","https://xcimg.szwego.com/img/dace2ca2/20241106/a1730901530529_4105.jpg","https://xcimg.szwego.com/img/dace2ca2/20241106/a1730901530541_4430.jpg","https://xcimg.szwego.com/img/dace2ca2/20241106/a1730901530546_8210.jpg","https://xcimg.szwego.com/img/dace2ca2/20241106/a1730901530548_5745.jpg","https://xcimg.szwego.com/img/dace2ca2/20241106/a1730901530530_5772.jpg","https://xcimg.szwego.com/img/dace2ca2/20241106/a1730901531567_1152.jpg","https://xcimg.szwego.com/img/dace2ca2/20241106/a1730901531568_8443.jpg"],"created_at":"2025-03-29T13:24:08.774Z"},{"id":"item-3bf9354c2b62","sku":"_dhQhQiDKZjOyHE_H91bRnGFuO5yfCSIHb4W9Hiw","name_en":"Gucci Women Bags","name_cn":"【独家背景】实物实拍品质 款号:651055啡棕  🌊🌊尺寸25✖️17.5✖️7","specs":{"source":"wsxcme","sourceId":"_dhQhQiDKZjOyHE_H91bRnGFuO5yfCSIHb4W9Hiw","sourceTagId":47002679,"sourceTagName":"古驰/女包","modelNumber":"651055啡棕  🌊🌊尺寸25✖️17.5✖️7","rawTitle":"【独家背景】实物实拍品质 款号:651055啡棕  🌊🌊尺寸25✖️17.5✖️7"},"price":null,"currency":"CNY","moq":1,"category":"gucci-women-bags","status":"active","alibaba_url":null,"images":["https://xcimg.szwego.com/img/ac9333ee/20251005/i1759643743731_112_0_0.jpg","https://xcimg.szwego.com/img/ac9333ee/20251005/i1759643742885_8926_0_1.jpg","https://xcimg.szwego.com/img/ac9333ee/20251005/i1759643743759_5584_0_2.jpg","https://xcimg.szwego.com/img/ac9333ee/20251005/i1759643743727_1342_0_3.jpg","https://xcimg.szwego.com/img/ac9333ee/20251005/i1759643742850_616_0_4.jpg","https://xcimg.szwego.com/img/ac9333ee/20251005/i1759643742921_531_0_5.jpg","https://xcimg.szwego.com/img/ac9333ee/20251005/i1759643742819_9178_0_6.jpg","https://xcimg.szwego.com/img/ac9333ee/20251005/i1759643742906_873_0_7.jpg","https://xcimg.szwego.com/img/ac9333ee/20251005/i1759643743642_9331_0_8.jpg"],"created_at":"2026-06-29T11:04:23.204Z"},{"id":"item-37b2baab1ea9","sku":"_dd3d3e1tjt0j9wP75ECaWuUQK6KWPtKbMy_TfSQ","name_en":"Gucci Women Bags","name_cn":"。💖《配全套原厂绿盒包装》💖【新款】钩扣开合小号托特包\n这款小号托特包沿用弹簧钩扣开合设计。象牙白色皮革呈献别致的天然粒纹,尽显精致风范。这款手提包搭配可拆卸和可调节肩带,可容纳日常必需品,适配各种场合。\n象牙白色天然粒纹皮革\n浅金色调配件\n皮革衬里\n内部:2个开口口袋\n提手(7厘米高)\n可拆卸可调节肩带(可在50厘米与54厘米之间调节)\n包带长度:112厘米\n钩扣开合\n重量:约0.6千克\n最大可容纳:iPhone Plus、Airpods耳机、钱包和唇膏\n型号:795349。\n尺寸:24(长)x 17.5(宽)x 8.5(厚)\n颜色:象牙白/原厂皮。\n意大利创作","specs":{"source":"wsxcme","sourceId":"_dd3d3e1tjt0j9wP75ECaWuUQK6KWPtKbMy_TfSQ","sourceTagId":47002679,"sourceTagName":"古驰/女包","modelNumber":"795349","rawTitle":"。💖《配全套原厂绿盒包装》💖【新款】钩扣开合小号托特包\n这款小号托特包沿用弹簧钩扣开合设计。象牙白色皮革呈献别致的天然粒纹,尽显精致风范。这款手提包搭配可拆卸和可调节肩带,可容纳日常必需品,适配各种场合。\n象牙白色天然粒纹皮革\n浅金色调配件\n皮革衬里\n内部:2个开口口袋\n提手(7厘米高)\n可拆卸可调节肩带(可在50厘米与54厘米之间调节)\n包带长度:112厘米\n钩扣开合\n重量:约0.6千克\n最大可容纳:iPhone Plus、Airpods耳机、钱包和唇膏\n型号:795349。\n尺寸:24(长)x 17.5(宽)x 8.5(厚)\n颜色:象牙白/原厂皮。\n意大利创作"},"price":null,"currency":"CNY","moq":1,"category":"gucci-women-bags","status":"active","alibaba_url":null,"images":["https://xcimg.szwego.com/img/436fb7be/20241003/i1727930227_6872_0.jpg","https://xcimg.szwego.com/img/436fb7be/20241003/i1727930227_5468_0.jpg","https://xcimg.szwego.com/img/436fb7be/20241003/i1727930227_3347_0.jpg","https://xcimg.szwego.com/img/436fb7be/20241003/i1727930227_879_0.jpg","https://xcimg.szwego.com/img/436fb7be/20241003/i1727930227_7015_0.jpg","https://xcimg.szwego.com/img/436fb7be/20241003/i1727930227_4279_0.jpg","https://xcimg.szwego.com/img/436fb7be/20241003/i1727930227_3903_0.jpg","https://xcimg.szwego.com/img/436fb7be/20241003/i1727930227_8009_0.jpg","https://xcimg.szwego.com/img/436fb7be/20241003/i1727930227_6272_0.jpg"],"created_at":"2024-10-19T03:21:42.617Z"},{"id":"item-374c1398f713","sku":"_dtftfeic2MoxXHunWKuXRRPKAmqabVC_XQRDkdg","name_en":"Gucci Women Bags","name_cn":"型号 781392 大号\n尺寸 34/32/17cm \n\nGucci Ophidia hobo腋下包\n今天的气场是hobo给的!!!\n这个包真的非常融入日常,随性又时髦\n包身容量很大但又轻便小巧能很好的满足日常出门\n而且肩带比一般的腋下包都长一些还可以调节\n一见钟情,时髦使用同时兼顾!","specs":{"source":"wsxcme","sourceId":"_dtftfeic2MoxXHunWKuXRRPKAmqabVC_XQRDkdg","sourceTagId":47002679,"sourceTagName":"古驰/女包","modelNumber":"781392 大号","rawTitle":"型号 781392 大号\n尺寸 34/32/17cm \n\nGucci Ophidia hobo腋下包\n今天的气场是hobo给的!!!\n这个包真的非常融入日常,随性又时髦\n包身容量很大但又轻便小巧能很好的满足日常出门\n而且肩带比一般的腋下包都长一些还可以调节\n一见钟情,时髦使用同时兼顾!"},"price":null,"currency":"CNY","moq":1,"category":"gucci-women-bags","status":"active","alibaba_url":null,"images":["https://xcimg.szwego.com/img/d06f5dea/20240702/i1719894815_6086_8.jpg","https://xcimg.szwego.com/img/d06f5dea/20240702/i1719894815_8960_2.jpg","https://xcimg.szwego.com/img/d06f5dea/20240702/i1719894815_2474_5.jpg","https://xcimg.szwego.com/img/d06f5dea/20240702/i1719894815_8896_0.jpg","https://xcimg.szwego.com/img/d06f5dea/20240702/i1719894815_4008_7.jpg","https://xcimg.szwego.com/img/d06f5dea/20240702/i1719894815_3597_3.jpg","https://xcimg.szwego.com/img/d06f5dea/20240702/i1719894815_2135_4.jpg","https://xcimg.szwego.com/img/d06f5dea/20240702/i1719894815_1785_1.jpg","https://xcimg.szwego.com/img/d06f5dea/20240702/i1719894815_5638_6.jpg"],"created_at":"2026-05-20T03:19:23.328Z"},{"id":"item-36cf5cf6c46c","sku":"_dvbvbTC6jfvmy_OfgzayJQxddkABKWRH5I-xBgQ","name_en":"Gucci Women Bags","name_cn":"实拍#       只做头层皮 真牛皮\n\n款号:308364杏色\n尺寸:21x15x7cm\n\nGG disco soho相机包. 经典永不会过时\n浮雕双G配上皮革流苏.头层牛皮 超级软\n斜挎✅单肩✅手拿✅","specs":{"source":"wsxcme","sourceId":"_dvbvbTC6jfvmy_OfgzayJQxddkABKWRH5I-xBgQ","sourceTagId":47002679,"sourceTagName":"古驰/女包","modelNumber":"308364杏色","dimensions":{"lengthCm":21,"heightCm":15,"widthCm":7},"rawTitle":"实拍#       只做头层皮 真牛皮\n\n款号:308364杏色\n尺寸:21x15x7cm\n\nGG disco soho相机包. 经典永不会过时\n浮雕双G配上皮革流苏.头层牛皮 超级软\n斜挎✅单肩✅手拿✅"},"price":null,"currency":"CNY","moq":1,"category":"gucci-women-bags","status":"active","alibaba_url":null,"images":["https://xcimg.szwego.com/20221027/i1666863777_1639_0.jpg","https://xcimg.szwego.com/20221027/i1666863777_8799_1.jpg","https://xcimg.szwego.com/20221027/i1666863777_6480_2.jpg","https://xcimg.szwego.com/20221027/i1666863777_5202_3.jpg","https://xcimg.szwego.com/20221027/i1666863777_3885_4.jpg","https://xcimg.szwego.com/20221027/i1666863777_5055_5.jpg","https://xcimg.szwego.com/20221027/i1666863777_7227_6.jpg","https://xcimg.szwego.com/20221027/i1666863777_9835_7.jpg","https://xcimg.szwego.com/20221027/i1666863777_5342_8.jpg"],"created_at":"2024-11-26T11:46:47.175Z"},{"id":"item-34d8864c57cf","sku":"_dPpPpxhJA6AhGo1aDcDRoG_tAH6twE912yU3YUA","name_en":"Gucci Women Bags","name_cn":"爆款新月包\n顶级(原厂皮)\n731817尺寸25x 19x 7\n配礼盒","specs":{"source":"wsxcme","sourceId":"_dPpPpxhJA6AhGo1aDcDRoG_tAH6twE912yU3YUA","sourceTagId":47002679,"sourceTagName":"古驰/女包","rawTitle":"爆款新月包\n顶级(原厂皮)\n731817尺寸25x 19x 7\n配礼盒"},"price":null,"currency":"CNY","moq":1,"category":"gucci-women-bags","status":"active","alibaba_url":null,"images":["https://xcimg.szwego.com/20230312/i1678552293_152_0.jpg","https://xcimg.szwego.com/20230312/i1678552293_8067_1.jpg","https://xcimg.szwego.com/20230312/i1678552293_669_2.jpg","https://xcimg.szwego.com/20230312/i1678552293_4467_3.jpg","https://xcimg.szwego.com/20230312/i1678552293_3850_4.jpg","https://xcimg.szwego.com/20230312/i1678552293_6581_5.jpg","https://xcimg.szwego.com/20230312/i1678552293_728_6.jpg","https://xcimg.szwego.com/20230312/i1678552293_289_7.jpg","https://xcimg.szwego.com/20230312/i1678552293_4988_8.jpg"],"created_at":"2024-11-26T11:46:47.126Z"},{"id":"item-31c440f21de2","sku":"_dl7l7HRU5AhB0MXPFL8XYPs5HJGq7RPBLS3h9eQ","name_en":"Gucci Women Bags","name_cn":"🔥爆款回货","specs":{"source":"wsxcme","sourceId":"_dl7l7HRU5AhB0MXPFL8XYPs5HJGq7RPBLS3h9eQ","sourceTagId":47002679,"sourceTagName":"古驰/女包","rawTitle":"🔥爆款回货"},"price":null,"currency":"CNY","moq":1,"category":"gucci-women-bags","status":"active","alibaba_url":null,"images":["https://xcimg.szwego.com/img/7f9d4644/20260125/i1769322365609_4681_0_0.jpg","https://xcimg.szwego.com/img/7f9d4644/20260125/i1769322365609_2952_0_1.jpg","https://xcimg.szwego.com/img/7f9d4644/20260125/i1769322365609_7740_0_2.jpg","https://xcimg.szwego.com/img/7f9d4644/20260125/i1769322365609_4706_0_3.jpg"],"created_at":"2026-05-20T03:19:23.858Z"},{"id":"item-2caef3cb9509","sku":"_duhuhF7sd44j8CHyHsTuOjP5uebPB3aTRfNShxQ","name_en":"Gucci Women Bags","name_cn":"▪️上身效果\n你想的背法,Jackie 1961全面满足","specs":{"source":"wsxcme","sourceId":"_duhuhF7sd44j8CHyHsTuOjP5uebPB3aTRfNShxQ","sourceTagId":47002679,"sourceTagName":"古驰/女包","rawTitle":"▪️上身效果\n你想的背法,Jackie 1961全面满足"},"price":null,"currency":"CNY","moq":1,"category":"gucci-women-bags","status":"active","alibaba_url":null,"images":["https://xcimg.szwego.com/img/7f9d4644/20260202/i1770015640972_974_0_0.jpg","https://xcimg.szwego.com/img/7f9d4644/20260202/i1770015640972_1779_0_1.jpg","https://xcimg.szwego.com/img/7f9d4644/20260202/i1770015641955_194_0_2.jpg","https://xcimg.szwego.com/img/7f9d4644/20260202/i1770015640973_9138_0_3.jpg","https://xcimg.szwego.com/img/7f9d4644/20260202/i1770015640972_1088_0_4.jpg","https://xcimg.szwego.com/img/7f9d4644/20260202/i1770015640973_2303_0_5.jpg"],"created_at":"2026-05-20T03:19:23.538Z"},{"id":"item-2c3dd0fc1a7f","sku":"_dlElEyVhhG3vMdKy6xmaVUVCBYP481btfRI2JVg","name_en":"Gucci Women Bags","name_cn":"782849安可拉红漆皮\n安可拉红 outfit | 今年流行色统治者\n在安可拉红中看到无限可能性","specs":{"source":"wsxcme","sourceId":"_dlElEyVhhG3vMdKy6xmaVUVCBYP481btfRI2JVg","sourceTagId":47002679,"sourceTagName":"古驰/女包","rawTitle":"782849安可拉红漆皮\n安可拉红 outfit | 今年流行色统治者\n在安可拉红中看到无限可能性"},"price":null,"currency":"CNY","moq":1,"category":"gucci-women-bags","status":"active","alibaba_url":null,"images":["https://xcimg.szwego.com/img/dace2ca2/20241106/a1730894120436_3077.jpg","https://xcimg.szwego.com/img/dace2ca2/20241106/a1730894120429_3614.jpg","https://xcimg.szwego.com/img/dace2ca2/20241106/a1730894120429_0537.jpg","https://xcimg.szwego.com/img/dace2ca2/20241106/a1730894120434_2003.jpg","https://xcimg.szwego.com/img/dace2ca2/20241106/a1730894120430_8322.jpg","https://xcimg.szwego.com/img/dace2ca2/20241106/a1730894120438_8041.jpg","https://xcimg.szwego.com/img/dace2ca2/20241106/a1730894121864_4716.jpg","https://xcimg.szwego.com/img/dace2ca2/20241106/a1730894121869_4647.jpg","https://xcimg.szwego.com/img/dace2ca2/20241106/a1730894121876_4312.jpg"],"created_at":"2025-03-29T13:24:08.762Z"},{"id":"item-255c7a4b1d30","sku":"_dvMvME0tjkQyeiMJ0kULr4oHYr0QceAmu-BC5jg","name_en":"Gucci Women Bags","name_cn":"【顶级原单】🔥皮全套包装\n双G代表 长期以来对重塑和重新利用经典廓形作出的不懈努力。同色调双G配件谱写摩登叙事,典藏元素在这款GGMarmont系列V型绗缝皮革腰包上以焕新之姿巧妙呈现。\n材质✨采用专柜质感,天然饱满颗粒进口牛皮,与对版正品打磨垌五金。\n尺寸12x12.5x7cm 型号739599","specs":{"source":"wsxcme","sourceId":"_dvMvME0tjkQyeiMJ0kULr4oHYr0QceAmu-BC5jg","sourceTagId":47002679,"sourceTagName":"古驰/女包","modelNumber":"739599","dimensions":{"lengthCm":12,"heightCm":12.5,"widthCm":7},"rawTitle":"【顶级原单】🔥皮全套包装\n双G代表 长期以来对重塑和重新利用经典廓形作出的不懈努力。同色调双G配件谱写摩登叙事,典藏元素在这款GGMarmont系列V型绗缝皮革腰包上以焕新之姿巧妙呈现。\n材质✨采用专柜质感,天然饱满颗粒进口牛皮,与对版正品打磨垌五金。\n尺寸12x12.5x7cm 型号739599"},"price":null,"currency":"CNY","moq":1,"category":"gucci-women-bags","status":"active","alibaba_url":null,"images":["https://xcimg.szwego.com/20230415/i1681506977_5974_0.jpg","https://xcimg.szwego.com/20230415/i1681506977_8964_1.jpg","https://xcimg.szwego.com/20230415/i1681506977_2845_2.jpg","https://xcimg.szwego.com/20230415/i1681506977_5781_3.jpg","https://xcimg.szwego.com/20230415/i1681506977_6311_8.jpg","https://xcimg.szwego.com/20230415/i1681506977_4305_4.jpg","https://xcimg.szwego.com/20230415/i1681506977_8532_5.jpg","https://xcimg.szwego.com/20230415/i1681506977_2767_6.jpg","https://xcimg.szwego.com/20230415/i1681506977_3501_7.jpg"],"created_at":"2024-10-20T11:19:56.211Z"},{"id":"item-227512d2e6dc","sku":"_dasasctIcCnoB4VwQfgiNPQS3FhmGQaJrtAfdFA","name_en":"Gucci Women Bags","name_cn":"🎬许佳琪演绎 \nGG Marmont新款纯黑色手袋","specs":{"source":"wsxcme","sourceId":"_dasasctIcCnoB4VwQfgiNPQS3FhmGQaJrtAfdFA","sourceTagId":47002679,"sourceTagName":"古驰/女包","rawTitle":"🎬许佳琪演绎 \nGG Marmont新款纯黑色手袋"},"price":null,"currency":"CNY","moq":1,"category":"gucci-women-bags","status":"active","alibaba_url":null,"images":["https://xcimg.szwego.com/20220825/i1661411814_2901_0.jpg","https://xcimg.szwego.com/20220825/i1661411814_3539_1.jpg","https://xcimg.szwego.com/20220825/i1661411814_8713_2.jpg","https://xcimg.szwego.com/20220825/i1661411814_114_3.jpg","https://xcimg.szwego.com/20220825/i1661411814_9121_4.jpg","https://xcimg.szwego.com/20220825/i1661411814_6056_5.jpg"],"created_at":"2026-05-20T03:19:24.278Z"},{"id":"item-21c23c29720a","sku":"_dp2p2xiErpVflQtYOi_w5-xiTLBon3aP6H3T5ww","name_en":"Gucci Women Bags","name_cn":"【原厂皮】大货🔥实拍\n🔥 GG Marmont版方胖子\n型号:739682 尺寸:18-13.5-8cm","specs":{"source":"wsxcme","sourceId":"_dp2p2xiErpVflQtYOi_w5-xiTLBon3aP6H3T5ww","sourceTagId":47002679,"sourceTagName":"古驰/女包","modelNumber":"739682 尺寸:18-13.5-8cm","rawTitle":"【原厂皮】大货🔥实拍\n🔥 GG Marmont版方胖子\n型号:739682 尺寸:18-13.5-8cm"},"price":null,"currency":"CNY","moq":1,"category":"gucci-women-bags","status":"active","alibaba_url":null,"images":["https://xcimg.szwego.com/20230305/i1677961413_8391_0.jpg","https://xcimg.szwego.com/20230305/i1677961413_905_1.jpg","https://xcimg.szwego.com/20230305/i1677961413_1548_2.jpg","https://xcimg.szwego.com/20230305/i1677961413_8807_3.jpg","https://xcimg.szwego.com/20230305/i1677961413_2383_5.jpg","https://xcimg.szwego.com/20230305/i1677961413_3196_6.jpg","https://xcimg.szwego.com/20230305/i1677961454_7451_0.jpg","https://xcimg.szwego.com/20230305/i1677961413_7123_8.jpg","https://xcimg.szwego.com/20230305/i1677961437_9938_0.jpg"],"created_at":"2024-10-20T11:19:56.238Z"},{"id":"item-216f53d9e287","sku":"_dlXlXipU05vci447XS9ogIV6RKXxqQgONVttrzw","name_en":"Gucci Women Bags","name_cn":"原厂皮👜配包装# \n🔥Marmont菱格原厂皮#\n全新Tote购物袋 ,整个包身下血本都用了原厂牛皮❗️袋口处加了锁扣设计更加有安全感,原厂皮质质感好到爆. 立体棱格绣花在灯光下让整个包活跃了起来,上身太好驾驭 不挑身高,也是全球打人必备的百搭单品!\n\n▫️型号681483\n▫️尺寸 26.5*19*11cm","specs":{"source":"wsxcme","sourceId":"_dlXlXipU05vci447XS9ogIV6RKXxqQgONVttrzw","sourceTagId":47002679,"sourceTagName":"古驰/女包","modelNumber":"681483","dimensions":{"lengthCm":26.5,"heightCm":19,"widthCm":11},"rawTitle":"原厂皮👜配包装# \n🔥Marmont菱格原厂皮#\n全新Tote购物袋 ,整个包身下血本都用了原厂牛皮❗️袋口处加了锁扣设计更加有安全感,原厂皮质质感好到爆. 立体棱格绣花在灯光下让整个包活跃了起来,上身太好驾驭 不挑身高,也是全球打人必备的百搭单品!\n\n▫️型号681483\n▫️尺寸 26.5*19*11cm"},"price":null,"currency":"CNY","moq":1,"category":"gucci-women-bags","status":"active","alibaba_url":null,"images":["https://xcimg.szwego.com/20211029/i1635487084_8260_0.jpg","https://xcimg.szwego.com/20211029/i1635487084_4748_1.jpg","https://xcimg.szwego.com/20211029/i1635487084_2468_2.jpg","https://xcimg.szwego.com/20211029/i1635487084_7012_3.jpg","https://xcimg.szwego.com/20211029/i1635487084_8438_4.jpg","https://xcimg.szwego.com/20211029/i1635487084_2586_5.jpg","https://xcimg.szwego.com/20211029/i1635487084_6826_6.jpg","https://xcimg.szwego.com/20211029/i1635487084_4241_7.jpg","https://xcimg.szwego.com/20211029/i1635487084_2652_8.jpg"],"created_at":"2024-10-20T11:19:56.250Z"},{"id":"item-1fc3957aad85","sku":"_dQwQwhUW1mGu24p65SouFzrWa2Hzmgee2ZYKLgg","name_en":"Gucci Women Bags","name_cn":"【独家背景】实物实拍品质 款号:479197啡克 🌊🌊尺寸35✖️23✖️14","specs":{"source":"wsxcme","sourceId":"_dQwQwhUW1mGu24p65SouFzrWa2Hzmgee2ZYKLgg","sourceTagId":47002679,"sourceTagName":"古驰/女包","modelNumber":"479197啡克 🌊🌊尺寸35✖️23✖️14","rawTitle":"【独家背景】实物实拍品质 款号:479197啡克 🌊🌊尺寸35✖️23✖️14"},"price":null,"currency":"CNY","moq":1,"category":"gucci-women-bags","status":"active","alibaba_url":null,"images":["https://xcimg.szwego.com/img/ac9333ee/20250824/i1756017414110_9325_0_0.jpg","https://xcimg.szwego.com/img/ac9333ee/20250824/i1756017408380_1870_0_1.jpg","https://xcimg.szwego.com/img/ac9333ee/20250824/i1756017414107_4683_0_2.jpg","https://xcimg.szwego.com/img/ac9333ee/20250824/i1756017408380_8237_0_3.jpg","https://xcimg.szwego.com/img/ac9333ee/20250824/i1756017408380_5292_0_4.jpg","https://xcimg.szwego.com/img/ac9333ee/20250824/i1756017408379_5495_0_5.jpg","https://xcimg.szwego.com/img/ac9333ee/20250824/i1756017414092_8610_0_6.jpg","https://xcimg.szwego.com/img/ac9333ee/20250824/i1756017414015_989_0_7.jpg","https://xcimg.szwego.com/img/ac9333ee/20250824/i1756017408380_5764_0_8.jpg"],"created_at":"2026-06-29T11:04:23.244Z"},{"id":"item-1fb1e0da445d","sku":"_dx-x-Kyw4X9-ZM8gfm_J6FUdRGI952VGPV4Feew","name_en":"Gucci Women Bags","name_cn":"🔥官网参考\n\n型号:782849  尺寸:27.5x19x4cm","specs":{"source":"wsxcme","sourceId":"_dx-x-Kyw4X9-ZM8gfm_J6FUdRGI952VGPV4Feew","sourceTagId":47002679,"sourceTagName":"古驰/女包","modelNumber":"782849  尺寸:27.5x19x4cm","dimensions":{"lengthCm":27.5,"heightCm":19,"widthCm":4},"rawTitle":"🔥官网参考\n\n型号:782849  尺寸:27.5x19x4cm"},"price":null,"currency":"CNY","moq":1,"category":"gucci-women-bags","status":"active","alibaba_url":null,"images":["https://xcimg.szwego.com/img/dace2ca2/20241106/a1730897205101_1307.jpg","https://xcimg.szwego.com/img/dace2ca2/20241106/a1730897205107_0107.jpg","https://xcimg.szwego.com/img/dace2ca2/20241106/a1730897205106_5244.jpg","https://xcimg.szwego.com/img/dace2ca2/20241106/a1730897205107_8622.jpg","https://xcimg.szwego.com/img/dace2ca2/20241106/a1730897205105_0802.jpg","https://xcimg.szwego.com/img/dace2ca2/20241106/a1730897205100_5522.jpg","https://xcimg.szwego.com/img/dace2ca2/20241106/a1730897207711_4012.jpg","https://xcimg.szwego.com/img/dace2ca2/20241106/a1730897207712_7335.jpg"],"created_at":"2025-03-29T13:24:08.752Z"}],"page":323,"pageSize":24,"total":10075,"totalPages":420}
