{"items":[{"id":"item-87abb6d92c1b","sku":"_dx9x9AsMvclKbq9VpIIpxeYocNojjPoWZuQYTVg","name_en":"Chanel vintage 贝嫂款背包 绝版款","name_cn":"Chanel vintage 贝嫂款背包 绝版款\nChanel jumbo贝嫂背包 背包款的贝嫂包非常特别 加上大双C logo 帅气吸睛 非常有范儿 想撞包都很难 vintage感很重 内置拉链 实用性很强 适合自用兼收藏的一款包 \nAS1102尺寸28*8*20cm","specs":{"source":"wsxcme","sourceId":"_dx9x9AsMvclKbq9VpIIpxeYocNojjPoWZuQYTVg","sourceTagId":47002745,"sourceTagName":"香奈儿/女包","dimensions":{"lengthCm":28,"heightCm":8,"widthCm":20},"rawTitle":"Chanel vintage 贝嫂款背包 绝版款\nChanel jumbo贝嫂背包 背包款的贝嫂包非常特别 加上大双C logo 帅气吸睛 非常有范儿 想撞包都很难 vintage感很重 内置拉链 实用性很强 适合自用兼收藏的一款包 \nAS1102尺寸28*8*20cm"},"price":null,"currency":"CNY","moq":1,"category":"chanel-women-bags","status":"active","alibaba_url":null,"images":["https://xcimg.szwego.com/20230924/i1695547892_9307_0.jpg","https://xcimg.szwego.com/20230924/i1695547892_9155_3.jpg","https://xcimg.szwego.com/20230924/i1695547892_8059_1.jpg","https://xcimg.szwego.com/20230924/i1695547892_6207_2.jpg","https://xcimg.szwego.com/20230924/i1695547892_3200_4.jpg","https://xcimg.szwego.com/20230924/i1695547892_7036_5.jpg","https://xcimg.szwego.com/20230924/i1695547892_7359_6.jpg","https://xcimg.szwego.com/20230924/i1695547892_1865_7.jpg","https://xcimg.szwego.com/20230924/i1695547892_2562_8.jpg"],"created_at":"2024-11-26T11:47:21.511Z"},{"id":"item-67506703c905","sku":"_dhMhMkc93QB1U7KqqYXdf-cq_d_ZnXyl0Bf5bjg","name_en":"CHANEL VINTAGE 涂鸦慵懒大包","name_cn":"CHANEL VINTAGE 涂鸦慵懒大包\n尺寸:42x25cm","specs":{"source":"wsxcme","sourceId":"_dhMhMkc93QB1U7KqqYXdf-cq_d_ZnXyl0Bf5bjg","sourceTagId":47002745,"sourceTagName":"香奈儿/女包","rawTitle":"CHANEL VINTAGE 涂鸦慵懒大包\n尺寸:42x25cm"},"price":null,"currency":"CNY","moq":1,"category":"chanel-women-bags","status":"active","alibaba_url":null,"images":["https://xcimg.szwego.com/img/834e1079/20240630/a1719719664405_0162.jpg","https://xcimg.szwego.com/img/834e1079/20240630/a1719719664406_5378.jpg","https://xcimg.szwego.com/img/834e1079/20240630/a1719719664278_5233.jpg","https://xcimg.szwego.com/img/834e1079/20240630/a1719719664246_5800.jpg","https://xcimg.szwego.com/img/834e1079/20240630/a1719719664214_0628.jpg","https://xcimg.szwego.com/img/834e1079/20240630/a1719719664352_5832.jpg","https://xcimg.szwego.com/img/834e1079/20240630/a1719719665249_6530.jpg","https://xcimg.szwego.com/img/834e1079/20240630/a1719719665285_5238.jpg","https://xcimg.szwego.com/img/834e1079/20240630/a1719719665325_5101.jpg"],"created_at":"2024-09-10T05:52:21.163Z"},{"id":"item-3c2e2115d19c","sku":"_dfpfpXu7AiDx4kbbxHDVuQVceiRaUQ0a9NIbmHA","name_en":"Chanel Vintage 中古 稻草包🍂","name_cn":"Chanel Vintage 中古 稻草包🍂\n尺寸:20*36*9cm    大号       \n香奶奶👵很喜欢稻穗🌾元素 在很多vintage款的首饰💍上总是能见到 在2010年春夏发布会 老佛爷👵在大皇宫中心复制了一个农场👩‍🌾场景 这只草编包🍃就出自此系列 软软糯糯 手感很好 像躺在谷仓🌾堆一般舒适😌只有松弛的海边度假🏖️能与编织款相匹配 早秋的海风🌊惬意又温柔 就和迷人的编织包袋👝一般","specs":{"source":"wsxcme","sourceId":"_dfpfpXu7AiDx4kbbxHDVuQVceiRaUQ0a9NIbmHA","sourceTagId":47002745,"sourceTagName":"香奈儿/女包","dimensions":{"lengthCm":20,"heightCm":36,"widthCm":9},"rawTitle":"Chanel Vintage 中古 稻草包🍂\n尺寸:20*36*9cm    大号       \n香奶奶👵很喜欢稻穗🌾元素 在很多vintage款的首饰💍上总是能见到 在2010年春夏发布会 老佛爷👵在大皇宫中心复制了一个农场👩‍🌾场景 这只草编包🍃就出自此系列 软软糯糯 手感很好 像躺在谷仓🌾堆一般舒适😌只有松弛的海边度假🏖️能与编织款相匹配 早秋的海风🌊惬意又温柔 就和迷人的编织包袋👝一般"},"price":null,"currency":"CNY","moq":1,"category":"chanel-women-bags","status":"active","alibaba_url":null,"images":["https://xcimg.szwego.com/img/8e603200/20241228/i1735359579_5188_1.jpg","https://xcimg.szwego.com/img/8e603200/20241228/i1735359579_8794_4.jpg","https://xcimg.szwego.com/img/8e603200/20241228/i1735359579_7114_2.jpg","https://xcimg.szwego.com/img/8e603200/20241228/i1735359579_7866_0.jpg","https://xcimg.szwego.com/img/8e603200/20241228/i1735359579_2102_5.jpg","https://xcimg.szwego.com/img/8e603200/20241228/i1735359579_9306_7.jpg","https://xcimg.szwego.com/img/8e603200/20241228/i1735359579_9889_3.jpg","https://xcimg.szwego.com/img/8e603200/20241228/i1735359579_3203_8.jpg","https://xcimg.szwego.com/img/8e603200/20241228/i1735359579_4071_6.jpg"],"created_at":"2025-01-21T03:18:13.029Z"},{"id":"item-6ef2ab3d0f38","sku":"_dxdxd8CD_--RPJpkczxZT6nEFjzKhFAW7Ik_K_g","name_en":"CHANEL VINTAGE jennie同款尼龙双肩","name_cn":"CHANEL VINTAGE jennie同款尼龙双肩 \n尺寸:44x35cm","specs":{"source":"wsxcme","sourceId":"_dxdxd8CD_--RPJpkczxZT6nEFjzKhFAW7Ik_K_g","sourceTagId":47002745,"sourceTagName":"香奈儿/女包","rawTitle":"CHANEL VINTAGE jennie同款尼龙双肩 \n尺寸:44x35cm"},"price":null,"currency":"CNY","moq":1,"category":"chanel-women-bags","status":"active","alibaba_url":null,"images":["https://xcimg.szwego.com/img/834e1079/20240513/a1715586522131_4682.jpg","https://xcimg.szwego.com/img/834e1079/20240513/a1715586522072_2285.jpg","https://xcimg.szwego.com/img/834e1079/20240513/a1715586522196_6513.jpg","https://xcimg.szwego.com/img/834e1079/20240513/a1715586522382_5607.jpg","https://xcimg.szwego.com/img/834e1079/20240513/a1715586522410_5372.jpg","https://xcimg.szwego.com/img/834e1079/20240513/a1715586522203_2367.jpg","https://xcimg.szwego.com/img/834e1079/20240513/a1715586523132_2775.jpg","https://xcimg.szwego.com/img/834e1079/20240513/a1715586523131_1556.jpg","https://xcimg.szwego.com/img/834e1079/20240513/a1715586523139_1485.jpg"],"created_at":"2024-09-10T05:52:21.161Z"},{"id":"item-4cdf748bafab","sku":"_dc-c-yMxruPU2Od2cR6OcdELP-KFT1kdp5lnPIQ","name_en":"Chanel vintage sport双肩包 男女同款","name_cn":"Chanel vintage sport双肩包 男女同款\n尺寸:28cm","specs":{"source":"wsxcme","sourceId":"_dc-c-yMxruPU2Od2cR6OcdELP-KFT1kdp5lnPIQ","sourceTagId":47002745,"sourceTagName":"香奈儿/女包","rawTitle":"Chanel vintage sport双肩包 男女同款\n尺寸:28cm"},"price":null,"currency":"CNY","moq":1,"category":"chanel-women-bags","status":"active","alibaba_url":null,"images":["https://xcimg.szwego.com/img/834e1079/20240601/a1717227630226_3048.jpg","https://xcimg.szwego.com/img/834e1079/20240601/a1717227630122_1463.jpg","https://xcimg.szwego.com/img/834e1079/20240601/a1717227631445_2351.jpg","https://xcimg.szwego.com/img/834e1079/20240601/a1717227630170_7431.jpg","https://xcimg.szwego.com/img/834e1079/20240601/a1717227631415_1245.jpg","https://xcimg.szwego.com/img/834e1079/20240601/a1717227630226_6841.jpg","https://xcimg.szwego.com/img/834e1079/20240601/a1717227631267_2324.jpg","https://xcimg.szwego.com/img/834e1079/20240601/a1717227630171_7142.jpg","https://xcimg.szwego.com/img/834e1079/20240601/a1717227631370_8514.jpg"],"created_at":"2024-09-10T05:52:21.165Z"},{"id":"item-be7bac5378b8","sku":"_dq5q5OBjtFRr4R0QJBNBnJr8mM4DAeeD80FTbvg","name_en":"Chanel vintage sport炸药包 男女同款","name_cn":"Chanel vintage sport炸药包 男女同款\n尺寸:37x16x17cm","specs":{"source":"wsxcme","sourceId":"_dq5q5OBjtFRr4R0QJBNBnJr8mM4DAeeD80FTbvg","sourceTagId":47002745,"sourceTagName":"香奈儿/女包","dimensions":{"lengthCm":37,"heightCm":16,"widthCm":17},"rawTitle":"Chanel vintage sport炸药包 男女同款\n尺寸:37x16x17cm"},"price":null,"currency":"CNY","moq":1,"category":"chanel-women-bags","status":"active","alibaba_url":null,"images":["https://xcimg.szwego.com/img/834e1079/20240601/a1717227124546_4305.jpg","https://xcimg.szwego.com/img/834e1079/20240601/a1717227124527_4044.jpg","https://xcimg.szwego.com/img/834e1079/20240601/a1717227124782_4764.jpg","https://xcimg.szwego.com/img/834e1079/20240601/a1717227129567_5248.jpg","https://xcimg.szwego.com/img/834e1079/20240601/a1717227127986_8134.jpg","https://xcimg.szwego.com/img/834e1079/20240601/a1717227128087_5246.jpg","https://xcimg.szwego.com/img/834e1079/20240601/a1717227128039_0634.jpg","https://xcimg.szwego.com/img/834e1079/20240601/a1717227129853_6772.jpg","https://xcimg.szwego.com/img/834e1079/20240601/a1717227127822_5724.jpg"],"created_at":"2024-09-10T05:52:21.164Z"},{"id":"item-ed54c8bcd6c6","sku":"_dsMsM5W-KeCTzFc5JJWNjBAusL0mA1dS27v20rw","name_en":"CHANEL VINTAGE编织亚麻麦穗翻盖包","name_cn":"CHANEL VINTAGE编织亚麻麦穗翻盖包\n尺寸:27cm","specs":{"source":"wsxcme","sourceId":"_dsMsM5W-KeCTzFc5JJWNjBAusL0mA1dS27v20rw","sourceTagId":47002745,"sourceTagName":"香奈儿/女包","rawTitle":"CHANEL VINTAGE编织亚麻麦穗翻盖包\n尺寸:27cm"},"price":null,"currency":"CNY","moq":1,"category":"chanel-women-bags","status":"active","alibaba_url":null,"images":["https://xcimg.szwego.com/img/834e1079/20240601/a1717227743259_1558.jpg","https://xcimg.szwego.com/img/834e1079/20240601/a1717227741208_6770.jpg","https://xcimg.szwego.com/img/834e1079/20240601/a1717227741335_0656.jpg","https://xcimg.szwego.com/img/834e1079/20240601/a1717227743417_2577.jpg","https://xcimg.szwego.com/img/834e1079/20240601/a1717227743288_2428.jpg","https://xcimg.szwego.com/img/834e1079/20240601/a1717227741239_0651.jpg","https://xcimg.szwego.com/img/834e1079/20240601/a1717227741379_1558.jpg","https://xcimg.szwego.com/img/834e1079/20240601/a1717227743338_0564.jpg","https://xcimg.szwego.com/img/834e1079/20240601/a1717227743415_5061.jpg"],"created_at":"2024-09-10T05:52:21.154Z"},{"id":"item-3a6ce1b7de04","sku":"_dsYsYy4f7Dn5uuZzMd1emtAyELJRXoMCFrm61ZQ","name_en":"Chanel VINTAGE流苏包","name_cn":"Chanel VINTAGE流苏包\n尺寸:25cm","specs":{"source":"wsxcme","sourceId":"_dsYsYy4f7Dn5uuZzMd1emtAyELJRXoMCFrm61ZQ","sourceTagId":47002745,"sourceTagName":"香奈儿/女包","rawTitle":"Chanel VINTAGE流苏包\n尺寸:25cm"},"price":null,"currency":"CNY","moq":1,"category":"chanel-women-bags","status":"active","alibaba_url":null,"images":["https://xcimg.szwego.com/img/834e1079/20240601/a1717228103290_3678.jpg","https://xcimg.szwego.com/img/834e1079/20240601/a1717228103243_2858.jpg","https://xcimg.szwego.com/img/834e1079/20240601/a1717228103170_7122.jpg","https://xcimg.szwego.com/img/834e1079/20240601/a1717228103322_6321.jpg","https://xcimg.szwego.com/img/834e1079/20240601/a1717228103340_0351.jpg","https://xcimg.szwego.com/img/834e1079/20240601/a1717228104439_4370.jpg","https://xcimg.szwego.com/img/834e1079/20240601/a1717228104522_4368.jpg","https://xcimg.szwego.com/img/834e1079/20240601/a1717228103235_6600.jpg","https://xcimg.szwego.com/img/834e1079/20240601/a1717228104373_8402.jpg"],"created_at":"2024-09-10T05:52:21.153Z"},{"id":"item-819980d69c67","sku":"_dicicimbsgIVgzn5848iEn-W9MAe13EkC4WpQpg","name_en":"Chanel vintage拼色丹宁徽章cf","name_cn":"Chanel vintage拼色丹宁徽章cf\n尺寸:17cm","specs":{"source":"wsxcme","sourceId":"_dicicimbsgIVgzn5848iEn-W9MAe13EkC4WpQpg","sourceTagId":47002745,"sourceTagName":"香奈儿/女包","rawTitle":"Chanel vintage拼色丹宁徽章cf\n尺寸:17cm"},"price":null,"currency":"CNY","moq":1,"category":"chanel-women-bags","status":"active","alibaba_url":null,"images":["https://xcimg.szwego.com/img/834e1079/20240601/a1717228017750_0584.jpg","https://xcimg.szwego.com/img/834e1079/20240601/a1717228017730_7822.jpg","https://xcimg.szwego.com/img/834e1079/20240601/a1717228017669_2862.jpg","https://xcimg.szwego.com/img/834e1079/20240601/a1717228017702_4342.jpg","https://xcimg.szwego.com/img/834e1079/20240601/a1717228017942_6874.jpg","https://xcimg.szwego.com/img/834e1079/20240601/a1717228017854_3032.jpg","https://xcimg.szwego.com/img/834e1079/20240601/a1717228019166_7250.jpg","https://xcimg.szwego.com/img/834e1079/20240601/a1717228019242_8083.jpg","https://xcimg.szwego.com/img/834e1079/20240601/a1717228019318_0334.jpg"],"created_at":"2024-09-10T05:52:21.157Z"},{"id":"item-537fada2a576","sku":"_dvovonVZxHiBcebD4krLoT4_yMpCKpawSEvF75g","name_en":"Chanel vintage乒乓球腋下包","name_cn":"Chanel vintage乒乓球腋下包\n尺寸:23cm","specs":{"source":"wsxcme","sourceId":"_dvovonVZxHiBcebD4krLoT4_yMpCKpawSEvF75g","sourceTagId":47002745,"sourceTagName":"香奈儿/女包","rawTitle":"Chanel vintage乒乓球腋下包\n尺寸:23cm"},"price":null,"currency":"CNY","moq":1,"category":"chanel-women-bags","status":"active","alibaba_url":null,"images":["https://xcimg.szwego.com/img/834e1079/20240630/a1719719432019_7381.jpg","https://xcimg.szwego.com/img/834e1079/20240630/a1719719431960_3703.jpg","https://xcimg.szwego.com/img/834e1079/20240630/a1719719432009_3683.jpg","https://xcimg.szwego.com/img/834e1079/20240630/a1719719432845_1664.jpg","https://xcimg.szwego.com/img/834e1079/20240630/a1719719432114_3421.jpg","https://xcimg.szwego.com/img/834e1079/20240630/a1719719432020_0770.jpg","https://xcimg.szwego.com/img/834e1079/20240630/a1719719432113_7838.jpg","https://xcimg.szwego.com/img/834e1079/20240630/a1719719432850_6468.jpg","https://xcimg.szwego.com/img/834e1079/20240630/a1719719432841_2543.jpg"],"created_at":"2024-09-10T05:52:21.159Z"},{"id":"item-fb1f9a41c9f3","sku":"_deLeLAvERdv0-GQWR-_fluHgGvAA4-b16peuEbA","name_en":"Chanel Women Bags","name_cn":"灰色","specs":{"source":"wsxcme","sourceId":"_deLeLAvERdv0-GQWR-_fluHgGvAA4-b16peuEbA","sourceTagId":47002745,"sourceTagName":"香奈儿/女包","rawTitle":"灰色"},"price":null,"currency":"CNY","moq":1,"category":"chanel-women-bags","status":"active","alibaba_url":null,"images":["https://xcimg.szwego.com/img/d0c94e6f/20240723/i1721747744_2481_2.jpg","https://xcimg.szwego.com/img/d0c94e6f/20240723/i1721747744_8059_1.jpg","https://xcimg.szwego.com/img/d0c94e6f/20240723/i1721747744_4921_5.jpg","https://xcimg.szwego.com/img/d0c94e6f/20240723/i1721747745_2814_6.jpg","https://xcimg.szwego.com/img/d0c94e6f/20240723/i1721747745_4649_7.jpg","https://xcimg.szwego.com/img/d0c94e6f/20240723/i1721747744_7323_0.jpg","https://xcimg.szwego.com/img/d0c94e6f/20240723/i1721747744_6586_3.jpg","https://xcimg.szwego.com/img/d0c94e6f/20240723/i1721747744_2950_4.jpg"],"created_at":"2024-11-26T11:47:21.471Z"},{"id":"item-f985e4866a5c","sku":"_dafafVU2MUTXZyHJP4omeNK85MHknbUL3-aFapg","name_en":"Chanel Women Bags","name_cn":"原厂皮\n25c牛皮 球纹\n香奈儿 chanel hobo 腋下包 嬉皮腋下包小号\n复古金币纽扣抽绳水桶包+菱格纹+复古黑金\n经典链条设计,高级感十足!日常出行必备,\n外观精美,质感细腻,\n无论休闲装还是正式场合都能轻松驾驭❤️\n编号:AS5293 球纹 红色\n尺寸:30*26*14","specs":{"source":"wsxcme","sourceId":"_dafafVU2MUTXZyHJP4omeNK85MHknbUL3-aFapg","sourceTagId":47002745,"sourceTagName":"香奈儿/女包","rawTitle":"原厂皮\n25c牛皮 球纹\n香奈儿 chanel hobo 腋下包 嬉皮腋下包小号\n复古金币纽扣抽绳水桶包+菱格纹+复古黑金\n经典链条设计,高级感十足!日常出行必备,\n外观精美,质感细腻,\n无论休闲装还是正式场合都能轻松驾驭❤️\n编号:AS5293 球纹 红色\n尺寸:30*26*14"},"price":null,"currency":"CNY","moq":1,"category":"chanel-women-bags","status":"active","alibaba_url":null,"images":["https://xcimg.szwego.com/img/fbe1a617/20250610/i1749567567548_36_0_0.jpg","https://xcimg.szwego.com/img/fbe1a617/20250610/i1749567567548_2981_0_1.jpg","https://xcimg.szwego.com/img/fbe1a617/20250610/i1749567567659_1028_0_2.jpg","https://xcimg.szwego.com/img/fbe1a617/20250610/i1749567567548_5088_0_3.jpg","https://xcimg.szwego.com/img/fbe1a617/20250610/i1749567569614_609_0_4.jpg","https://xcimg.szwego.com/img/fbe1a617/20250610/i1749567567664_645_0_5.jpg","https://xcimg.szwego.com/img/fbe1a617/20250610/i1749567569478_7348_0_6.jpg","https://xcimg.szwego.com/img/fbe1a617/20250610/i1749567569619_5895_0_7.jpg","https://xcimg.szwego.com/img/fbe1a617/20250610/i1749567569535_5976_0_8.jpg"],"created_at":"2025-09-09T05:17:44.453Z"},{"id":"item-f929fd8968a1","sku":"_dcycyvGKWndmJLuGtYKKjPP-QVa3nGXx1qpIpPA","name_en":"Chanel Women Bags","name_cn":"22手袋 小号灰金\n\n 原厂方框一级小牛皮👍皮质细腻有光泽,\n既柔软又耐磨,两者兼具\n简简单单的外观却藏着不少设计师的高级设计,镂空的chanel logo的金币,小小的点缀让整体气质提高了不止一个Level,满满的复古情怀,松松垮垮的慵懒感! 🍃\n\n尺寸:395*37*7cm","specs":{"source":"wsxcme","sourceId":"_dcycyvGKWndmJLuGtYKKjPP-QVa3nGXx1qpIpPA","sourceTagId":47002745,"sourceTagName":"香奈儿/女包","dimensions":{"lengthCm":395,"heightCm":37,"widthCm":7},"rawTitle":"22手袋 小号灰金\n\n 原厂方框一级小牛皮👍皮质细腻有光泽,\n既柔软又耐磨,两者兼具\n简简单单的外观却藏着不少设计师的高级设计,镂空的chanel logo的金币,小小的点缀让整体气质提高了不止一个Level,满满的复古情怀,松松垮垮的慵懒感! 🍃\n\n尺寸:395*37*7cm"},"price":null,"currency":"CNY","moq":1,"category":"chanel-women-bags","status":"active","alibaba_url":null,"images":["https://xcimg.szwego.com/img/e8531d32/20240226/i1708932455_3756_2.jpg","https://xcimg.szwego.com/img/e8531d32/20240226/i1708932455_1213_3.jpg","https://xcimg.szwego.com/img/e8531d32/20240226/i1708932455_792_0.jpg","https://xcimg.szwego.com/img/e8531d32/20240226/i1708932455_6639_1.jpg"],"created_at":"2024-05-01T03:19:54.447Z"},{"id":"item-f873284f35a2","sku":"_ddtdt6BHbqpgRk4z03aujz7N5UhrNtSyMMk1juw","name_en":"Chanel Women Bags","name_cn":"外形美得让人窒息🖤\n轻松装下日常生活所需物品","specs":{"source":"wsxcme","sourceId":"_ddtdt6BHbqpgRk4z03aujz7N5UhrNtSyMMk1juw","sourceTagId":47002745,"sourceTagName":"香奈儿/女包","rawTitle":"外形美得让人窒息🖤\n轻松装下日常生活所需物品"},"price":null,"currency":"CNY","moq":1,"category":"chanel-women-bags","status":"active","alibaba_url":null,"images":["https://xcimg.szwego.com/imgHD/0cf5d261/20250424/cmp_i1745478279220_7582_0_0.jpg","https://xcimg.szwego.com/imgHD/0cf5d261/20250424/cmp_i1745478280378_8730_0_1.jpg","https://xcimg.szwego.com/imgHD/0cf5d261/20250424/cmp_i1745478285427_8965_0_2.jpg","https://xcimg.szwego.com/imgHD/0cf5d261/20250424/cmp_i1745478283025_2872_0_3.jpg","https://xcimg.szwego.com/imgHD/0cf5d261/20250424/cmp_i1745478280315_2143_0_4.jpg","https://xcimg.szwego.com/imgHD/0cf5d261/20250424/cmp_i1745478283277_3602_0_5.jpg","https://xcimg.szwego.com/imgHD/0cf5d261/20250424/cmp_i1745478279925_9291_0_6.jpg","https://xcimg.szwego.com/imgHD/0cf5d261/20250424/cmp_i1745478279929_3350_0_7.jpg","https://xcimg.szwego.com/imgHD/0cf5d261/20250424/cmp_i1745478281945_5258_0_8.jpg"],"created_at":"2025-06-23T05:37:04.348Z"},{"id":"item-f76c889efd35","sku":"_dRSRSAU6uqhBe-j5BROlb4rvtCRj73PnNOPKbpA","name_en":"Chanel Women Bags","name_cn":"上身效果#3260","specs":{"source":"wsxcme","sourceId":"_dRSRSAU6uqhBe-j5BROlb4rvtCRj73PnNOPKbpA","sourceTagId":47002745,"sourceTagName":"香奈儿/女包","rawTitle":"上身效果#3260"},"price":null,"currency":"CNY","moq":1,"category":"chanel-women-bags","status":"active","alibaba_url":null,"images":["https://xcimg.szwego.com/20220327/i1648394751_5803_0.jpg","https://xcimg.szwego.com/20220327/i1648394751_6694_1.jpg","https://xcimg.szwego.com/20220327/i1648394751_3148_2.jpg","https://xcimg.szwego.com/20220327/i1648394751_5319_3.jpg","https://xcimg.szwego.com/20220327/i1648394751_8441_4.jpg","https://xcimg.szwego.com/20220327/i1648394751_2435_5.jpg","https://xcimg.szwego.com/20220327/i1648394751_9977_6.jpg","https://xcimg.szwego.com/20220327/i1648394751_2275_7.jpg","https://xcimg.szwego.com/20220327/i1648394751_9655_8.jpg"],"created_at":"2026-06-29T10:35:33.974Z"},{"id":"item-f66387cd0489","sku":"_dA4A4RcJDUpw1VR4pvD4waSoa3x_7au9CxU2Rzw","name_en":"Chanel Women Bags","name_cn":"白金版▪️正品级 包装如图\nChanel CF 杏色\n全名Classic Fla0 \n尺寸: 15.5*25.5*6.5cm\n皮料:原厂Haas细球鱼子酱\n五金:24K浅金电镀 \n\n经典的CF就是有着让人一见倾心的魅力,走到哪里都是移动的高雅标签,纯白色散发着文雅娴淑的女神范儿,搭配金扣精致奢华,堪称人手一见的奢侈品入门之选哦~","specs":{"source":"wsxcme","sourceId":"_dA4A4RcJDUpw1VR4pvD4waSoa3x_7au9CxU2Rzw","sourceTagId":47002745,"sourceTagName":"香奈儿/女包","dimensions":{"lengthCm":15.5,"heightCm":25.5,"widthCm":6.5},"rawTitle":"白金版▪️正品级 包装如图\nChanel CF 杏色\n全名Classic Fla0 \n尺寸: 15.5*25.5*6.5cm\n皮料:原厂Haas细球鱼子酱\n五金:24K浅金电镀 \n\n经典的CF就是有着让人一见倾心的魅力,走到哪里都是移动的高雅标签,纯白色散发着文雅娴淑的女神范儿,搭配金扣精致奢华,堪称人手一见的奢侈品入门之选哦~"},"price":null,"currency":"CNY","moq":1,"category":"chanel-women-bags","status":"active","alibaba_url":null,"images":["https://xcimg.szwego.com/20230529/i1685338894_5375_0.jpg","https://xcimg.szwego.com/20230529/i1685338894_7013_1.jpg","https://xcimg.szwego.com/20230529/i1685338894_4575_2.jpg","https://xcimg.szwego.com/20230529/i1685338894_3115_3.jpg","https://xcimg.szwego.com/20230529/i1685338894_1673_4.jpg","https://xcimg.szwego.com/20230529/i1685338894_831_5.jpg","https://xcimg.szwego.com/20230529/i1685338894_8853_6.jpg","https://xcimg.szwego.com/20230529/i1685338894_7682_7.jpg","https://xcimg.szwego.com/20230529/i1685338894_5466_8.jpg"],"created_at":"2024-05-01T03:19:54.382Z"},{"id":"item-f39d0766299a","sku":"_dpypy83H9-q3eFpzlHrvmU3jEwMii_P0tKsW62g","name_en":"Chanel Women Bags","name_cn":"原厂皮\n小香进口意大利小羊皮【升級版】\n货号:A\n尺寸:w20×h13×d3.5cm\n颜色:杏色細球紋金色鋼唛","specs":{"source":"wsxcme","sourceId":"_dpypy83H9-q3eFpzlHrvmU3jEwMii_P0tKsW62g","sourceTagId":47002745,"sourceTagName":"香奈儿/女包","modelNumber":"A","rawTitle":"原厂皮\n小香进口意大利小羊皮【升級版】\n货号:A\n尺寸:w20×h13×d3.5cm\n颜色:杏色細球紋金色鋼唛"},"price":null,"currency":"CNY","moq":1,"category":"chanel-women-bags","status":"active","alibaba_url":null,"images":["https://xcimg.szwego.com/img/c4e87dad/20250516/i1747400132564_8755_0_0.jpg","https://xcimg.szwego.com/img/c4e87dad/20250516/i1747400130100_1185_0_1.jpg","https://xcimg.szwego.com/img/c4e87dad/20250516/i1747400130133_2913_0_2.jpg","https://xcimg.szwego.com/img/c4e87dad/20250516/i1747400132545_6107_0_3.jpg","https://xcimg.szwego.com/img/c4e87dad/20250516/i1747400132613_616_0_4.jpg","https://xcimg.szwego.com/img/c4e87dad/20250516/i1747400132597_2018_0_6.jpg","https://xcimg.szwego.com/img/c4e87dad/20250516/i1747400130118_1109_0_7.jpg"],"created_at":"2025-09-09T05:22:54.851Z"},{"id":"item-f33b2f235fb2","sku":"_dizizZseY8cddJxVJqg8HEzRwrT3wHD1X8eJmEA","name_en":"Chanel Women Bags","name_cn":"春夏爱心系列[愉快]\n爱心款真的超级好看,专柜就算是vip也很难买到[流泪]都要溢价大几千!实物真的惊呆了,无论怎么搭配都很时尚,本季最热最火系列,一定要买👜 \n款号AS3191\n尺寸18x16.5x6.5cm\n配包装","specs":{"source":"wsxcme","sourceId":"_dizizZseY8cddJxVJqg8HEzRwrT3wHD1X8eJmEA","sourceTagId":47002745,"sourceTagName":"香奈儿/女包","modelNumber":"AS3191","dimensions":{"lengthCm":18,"heightCm":16.5,"widthCm":6.5},"rawTitle":"春夏爱心系列[愉快]\n爱心款真的超级好看,专柜就算是vip也很难买到[流泪]都要溢价大几千!实物真的惊呆了,无论怎么搭配都很时尚,本季最热最火系列,一定要买👜 \n款号AS3191\n尺寸18x16.5x6.5cm\n配包装"},"price":null,"currency":"CNY","moq":1,"category":"chanel-women-bags","status":"active","alibaba_url":null,"images":["https://xcimg.szwego.com/img/ecb71349/20241215/i1734243785_8339_5.jpg","https://xcimg.szwego.com/img/ecb71349/20241215/i1734243785_7590_2.jpg","https://xcimg.szwego.com/img/ecb71349/20241215/i1734243785_6091_1.jpg","https://xcimg.szwego.com/img/ecb71349/20241215/i1734243785_2811_9.jpg","https://xcimg.szwego.com/img/ecb71349/20241215/i1734243785_5384_3.jpg","https://xcimg.szwego.com/img/ecb71349/20241215/i1734243785_8168_0.jpg","https://xcimg.szwego.com/img/ecb71349/20241215/i1734243785_2361_4.jpg","https://xcimg.szwego.com/img/ecb71349/20241215/i1734243785_210_8.jpg","https://xcimg.szwego.com/img/ecb71349/20241215/i1734243785_3317_6.jpg"],"created_at":"2025-01-20T12:26:10.967Z"},{"id":"item-f1b03750a80e","sku":"_dhbhb0Ml1uAwS5LGTkPoFdifU6OdZ2ouAC11hOg","name_en":"Chanel Women Bags","name_cn":"香奈儿/女包","specs":{"source":"wsxcme","sourceId":"_dhbhb0Ml1uAwS5LGTkPoFdifU6OdZ2ouAC11hOg","sourceTagId":47002745,"sourceTagName":"香奈儿/女包","rawTitle":""},"price":null,"currency":"CNY","moq":1,"category":"chanel-women-bags","status":"active","alibaba_url":null,"images":["https://xcimg.szwego.com/img/d0c94e6f/20250823/i1755959962_1068_0.jpg"],"created_at":"2025-09-19T04:32:40.117Z"},{"id":"item-f16145c013eb","sku":"_dbTbTZSenEquthL--fnLkpOf4aiH8AJ5eoPeHKA","name_en":"Chanel Women Bags","name_cn":"白金版▪️正品级 包装如图\nChane1 25P 全新升级版🍀\n双口袋青蛙🐸复古背包 浅杏 中号\n专柜售价49800rmb购入开发〰️\n\n一向都是重头戏的复古双肩包ꫛꫀꪝ\n23P这款让人翘首以待的荔枝纹小牛~\n颜值担当属于耐看型,复古程度更是一见倾心♥\n双口袋小书包荔枝牛皮 向来都是最受欢迎的材质。\n易打理更耐造,日常通勤收纳轻松装扮✔️\n\n五金:全钢14K淡金扣\n皮料:Haas中球小牛皮\n尺寸:20.5*20*11.5 CM\n3860","specs":{"source":"wsxcme","sourceId":"_dbTbTZSenEquthL--fnLkpOf4aiH8AJ5eoPeHKA","sourceTagId":47002745,"sourceTagName":"香奈儿/女包","dimensions":{"lengthCm":20.5,"heightCm":20,"widthCm":11.5},"rawTitle":"白金版▪️正品级 包装如图\nChane1 25P 全新升级版🍀\n双口袋青蛙🐸复古背包 浅杏 中号\n专柜售价49800rmb购入开发〰️\n\n一向都是重头戏的复古双肩包ꫛꫀꪝ\n23P这款让人翘首以待的荔枝纹小牛~\n颜值担当属于耐看型,复古程度更是一见倾心♥\n双口袋小书包荔枝牛皮 向来都是最受欢迎的材质。\n易打理更耐造,日常通勤收纳轻松装扮✔️\n\n五金:全钢14K淡金扣\n皮料:Haas中球小牛皮\n尺寸:20.5*20*11.5 CM\n3860"},"price":null,"currency":"CNY","moq":1,"category":"chanel-women-bags","status":"active","alibaba_url":null,"images":["https://xcimg.szwego.com/imgHD/9d8f4332/20250425/cmp_i1745566129364_1099_0_0.jpg","https://xcimg.szwego.com/imgHD/9d8f4332/20250425/cmp_i1745566129361_5244_0_1.jpg","https://xcimg.szwego.com/imgHD/9d8f4332/20250425/cmp_i1745566126991_2785_0_2.jpg","https://xcimg.szwego.com/imgHD/9d8f4332/20250425/cmp_i1745566129371_1238_0_3.jpg","https://xcimg.szwego.com/imgHD/9d8f4332/20250425/cmp_i1745566126989_3161_0_4.jpg","https://xcimg.szwego.com/imgHD/9d8f4332/20250425/cmp_i1745566126987_7853_0_5.jpg","https://xcimg.szwego.com/imgHD/9d8f4332/20250425/cmp_i1745566126988_6365_0_6.jpg","https://xcimg.szwego.com/imgHD/9d8f4332/20250425/cmp_i1745566126987_1862_0_7.jpg","https://xcimg.szwego.com/imgHD/9d8f4332/20250425/cmp_i1745566129366_2437_0_8.jpg"],"created_at":"2025-06-16T09:47:58.344Z"},{"id":"item-eb63ed21fb3e","sku":"_dqQqQP6k1Bk_KKezi7mbtW-LGeiUili46ZKRZTw","name_en":"Chanel Women Bags","name_cn":"白金版▪️正品级 包装如图\nChane1 23S春夏系列\n山茶花调节扣 方胖子黑色🖤\n专柜售价39800rmb购入开发〰️\n\n23s山茶花调节扣链条口盖包\n具备cf的元素造型有着性感迷人的气质。\n设计方面更加优雅大方啦❕\n可️腋下、斜挎、单肩一包多用,很受欢迎哦👏🏻\n\n五金:厚镀24k复古金\n皮料:   开料部zp小羊皮\n尺寸:13*18*7 cm","specs":{"source":"wsxcme","sourceId":"_dqQqQP6k1Bk_KKezi7mbtW-LGeiUili46ZKRZTw","sourceTagId":47002745,"sourceTagName":"香奈儿/女包","dimensions":{"lengthCm":13,"heightCm":18,"widthCm":7},"rawTitle":"白金版▪️正品级 包装如图\nChane1 23S春夏系列\n山茶花调节扣 方胖子黑色🖤\n专柜售价39800rmb购入开发〰️\n\n23s山茶花调节扣链条口盖包\n具备cf的元素造型有着性感迷人的气质。\n设计方面更加优雅大方啦❕\n可️腋下、斜挎、单肩一包多用,很受欢迎哦👏🏻\n\n五金:厚镀24k复古金\n皮料:   开料部zp小羊皮\n尺寸:13*18*7 cm"},"price":null,"currency":"CNY","moq":1,"category":"chanel-women-bags","status":"active","alibaba_url":null,"images":["https://xcimg.szwego.com/20230505/i1683264411_1528_0.jpg","https://xcimg.szwego.com/20230505/i1683264411_9269_1.jpg","https://xcimg.szwego.com/20230505/i1683264411_6459_2.jpg","https://xcimg.szwego.com/20230505/i1683264411_5818_3.jpg","https://xcimg.szwego.com/20230505/i1683264411_6599_4.jpg","https://xcimg.szwego.com/20230505/i1683264411_5376_5.jpg","https://xcimg.szwego.com/20230505/i1683264411_6753_6.jpg","https://xcimg.szwego.com/20230505/i1683264411_5720_7.jpg","https://xcimg.szwego.com/20230505/i1683264411_8887_8.jpg"],"created_at":"2024-05-01T03:19:54.378Z"},{"id":"item-eb492d60fd39","sku":"_dxpxpi5a5mVkj-bKBErerSToUrPoGDQt6gqz-RQ","name_en":"Chanel Women Bags","name_cn":"白金版▪️正品级 包装如图\nChanel CF 23P新色 粉色\n全名Classic Fla0 \n尺寸: 15.5*25.5*6.5cm\n皮料:原厂Haas细球鱼子酱\n五金:24K浅金电镀 \n\n经典的CF就是有着让人一见倾心的魅力,走到哪里都是移动的高雅标签,纯白色散发着文雅娴淑的女神范儿,搭配金扣精致奢华,堪称人手一见的奢侈品入门之选哦~","specs":{"source":"wsxcme","sourceId":"_dxpxpi5a5mVkj-bKBErerSToUrPoGDQt6gqz-RQ","sourceTagId":47002745,"sourceTagName":"香奈儿/女包","dimensions":{"lengthCm":15.5,"heightCm":25.5,"widthCm":6.5},"rawTitle":"白金版▪️正品级 包装如图\nChanel CF 23P新色 粉色\n全名Classic Fla0 \n尺寸: 15.5*25.5*6.5cm\n皮料:原厂Haas细球鱼子酱\n五金:24K浅金电镀 \n\n经典的CF就是有着让人一见倾心的魅力,走到哪里都是移动的高雅标签,纯白色散发着文雅娴淑的女神范儿,搭配金扣精致奢华,堪称人手一见的奢侈品入门之选哦~"},"price":null,"currency":"CNY","moq":1,"category":"chanel-women-bags","status":"active","alibaba_url":null,"images":["https://xcimg.szwego.com/20230611/i1686465479_872_0.jpg","https://xcimg.szwego.com/20230611/i1686465479_4636_1.jpg","https://xcimg.szwego.com/20230611/i1686465479_7200_2.jpg","https://xcimg.szwego.com/20230611/i1686465479_655_3.jpg","https://xcimg.szwego.com/20230611/i1686465479_1278_4.jpg","https://xcimg.szwego.com/20230611/i1686465479_8858_5.jpg","https://xcimg.szwego.com/20230611/i1686465479_7262_6.jpg","https://xcimg.szwego.com/20230611/i1686465479_1001_7.jpg","https://xcimg.szwego.com/20230611/i1686465479_3556_8.jpg"],"created_at":"2024-05-01T03:19:54.371Z"},{"id":"item-ea8729f06301","sku":"_dCyCy8iV_SRwAxSyZx9IChqwX89lfDN2y3aU0vg","name_en":"Chanel Women Bags","name_cn":"正品级\n 🇫🇷AS5293CHANEL 25款又一个以年份命名的款, 25c球纹皮嘻哈包 香奈儿hobo 腋下包 嬉皮腋下包小号 复古金币纽扣抽绳水桶包+菱格纹+复古黑金 经典链条设计,高级感十足!日常出行必备,外观精美,质感细腻,无论休闲装还是正式场合都能轻松驾驭 尺寸:30x26x14cm","specs":{"source":"wsxcme","sourceId":"_dCyCy8iV_SRwAxSyZx9IChqwX89lfDN2y3aU0vg","sourceTagId":47002745,"sourceTagName":"香奈儿/女包","dimensions":{"lengthCm":30,"heightCm":26,"widthCm":14},"rawTitle":"正品级\n 🇫🇷AS5293CHANEL 25款又一个以年份命名的款, 25c球纹皮嘻哈包 香奈儿hobo 腋下包 嬉皮腋下包小号 复古金币纽扣抽绳水桶包+菱格纹+复古黑金 经典链条设计,高级感十足!日常出行必备,外观精美,质感细腻,无论休闲装还是正式场合都能轻松驾驭 尺寸:30x26x14cm"},"price":null,"currency":"CNY","moq":1,"category":"chanel-women-bags","status":"active","alibaba_url":null,"images":["https://xcimg.szwego.com/imgHD/b5cc9469/20250402/cmp_a1743591728095_7046.jpg","https://xcimg.szwego.com/imgHD/b5cc9469/20250402/cmp_a1743591728098_1278.jpg","https://xcimg.szwego.com/imgHD/b5cc9469/20250402/cmp_a1743591728107_8162.jpg","https://xcimg.szwego.com/imgHD/b5cc9469/20250402/cmp_a1743591728099_0113.jpg","https://xcimg.szwego.com/imgHD/b5cc9469/20250402/cmp_a1743591728096_7184.jpg","https://xcimg.szwego.com/imgHD/b5cc9469/20250402/cmp_a1743591729461_7483.jpg","https://xcimg.szwego.com/imgHD/b5cc9469/20250402/cmp_a1743591729453_2387.jpg","https://xcimg.szwego.com/imgHD/b5cc9469/20250402/cmp_a1743591729462_0886.jpg","https://xcimg.szwego.com/imgHD/b5cc9469/20250402/cmp_a1743591729461_8404.jpg"],"created_at":"2025-09-09T05:17:44.443Z"},{"id":"item-e9fe60619e5a","sku":"_ddbdbiDirt7P1quM_kIs8bm9I-GnFS__C2_LjTw","name_en":"Chanel Women Bags","name_cn":"升级版带芯片五金~2022新颜色 浅灰\nOhanel 19手袋\n\n作为香奈儿的重要数字,“19”沿用里了品牌经典的命名方式,代表其所诞生的年份是2019,一如香奈儿女士于1955年2月推出的2.55手袋❗️\n\n 口盖包 小号 浅灰 ZP皮 全面出货!!\n\n轻盈绵柔质感羊皮结合大菱格设计元素\n三种背法:斜挎、单肩、手提\n链条拼接:古金、古银、亮银\n小号尺寸:16x26x9cm(图为)","specs":{"source":"wsxcme","sourceId":"_ddbdbiDirt7P1quM_kIs8bm9I-GnFS__C2_LjTw","sourceTagId":47002745,"sourceTagName":"香奈儿/女包","dimensions":{"lengthCm":16,"heightCm":26,"widthCm":9},"rawTitle":"升级版带芯片五金~2022新颜色 浅灰\nOhanel 19手袋\n\n作为香奈儿的重要数字,“19”沿用里了品牌经典的命名方式,代表其所诞生的年份是2019,一如香奈儿女士于1955年2月推出的2.55手袋❗️\n\n 口盖包 小号 浅灰 ZP皮 全面出货!!\n\n轻盈绵柔质感羊皮结合大菱格设计元素\n三种背法:斜挎、单肩、手提\n链条拼接:古金、古银、亮银\n小号尺寸:16x26x9cm(图为)"},"price":null,"currency":"CNY","moq":1,"category":"chanel-women-bags","status":"active","alibaba_url":null,"images":["https://xcimg.szwego.com/20220326/i1648270971_6483_0.jpg","https://xcimg.szwego.com/20220326/i1648270971_5100_1.jpg","https://xcimg.szwego.com/20220326/i1648270971_6636_2.jpg","https://xcimg.szwego.com/20220326/i1648270971_7003_3.jpg","https://xcimg.szwego.com/20220326/i1648270971_5176_4.jpg","https://xcimg.szwego.com/20220326/i1648270971_1283_5.jpg","https://xcimg.szwego.com/20220326/i1648270971_6640_6.jpg","https://xcimg.szwego.com/20220326/i1648270971_8787_7.jpg","https://xcimg.szwego.com/20220326/i1648270971_2651_8.jpg"],"created_at":"2024-05-01T03:19:54.455Z"}],"page":262,"pageSize":24,"total":10075,"totalPages":420}
