{"items":[{"id":"item-6054771fe407","sku":"_dyFyFCQVF7lf_85EFXy6--HuKehfNoqZmYcQyZA","name_en":"Chanel Women Bags","name_cn":"原厂皮\n25c牛皮 球纹\n香奈儿 chanel hobo 腋下包 嬉皮腋下包小号\n复古金币纽扣抽绳水桶包+菱格纹+复古黑金\n经典链条设计,高级感十足!日常出行必备,\n外观精美,质感细腻,\n无论休闲装还是正式场合都能轻松驾驭❤️\n编号:AS5293 球纹 粉色\n尺寸:30*26*14","specs":{"source":"wsxcme","sourceId":"_dyFyFCQVF7lf_85EFXy6--HuKehfNoqZmYcQyZA","sourceTagId":47002745,"sourceTagName":"香奈儿/女包","rawTitle":"原厂皮\n25c牛皮 球纹\n香奈儿 chanel hobo 腋下包 嬉皮腋下包小号\n复古金币纽扣抽绳水桶包+菱格纹+复古黑金\n经典链条设计,高级感十足!日常出行必备,\n外观精美,质感细腻,\n无论休闲装还是正式场合都能轻松驾驭❤️\n编号:AS5293 球纹 粉色\n尺寸:30*26*14"},"price":null,"currency":"CNY","moq":1,"category":"chanel-women-bags","status":"active","alibaba_url":null,"images":["https://xcimg.szwego.com/img/fbe1a617/20250603/i1748960576911_2788_0_0.jpg","https://xcimg.szwego.com/img/fbe1a617/20250603/i1748960576880_593_0_1.jpg","https://xcimg.szwego.com/img/fbe1a617/20250603/i1748960578409_7924_0_2.jpg","https://xcimg.szwego.com/img/fbe1a617/20250603/i1748960578696_4245_0_3.jpg","https://xcimg.szwego.com/img/fbe1a617/20250603/i1748960578941_8931_0_4.jpg","https://xcimg.szwego.com/img/fbe1a617/20250603/i1748960576714_7399_0_5.jpg","https://xcimg.szwego.com/img/fbe1a617/20250603/i1748960576915_627_0_6.jpg","https://xcimg.szwego.com/img/fbe1a617/20250603/i1748960576758_9714_0_7.jpg","https://xcimg.szwego.com/img/fbe1a617/20250603/i1748960578888_9194_0_8.jpg"],"created_at":"2025-09-09T05:17:44.455Z"},{"id":"item-6050880cebc4","sku":"_dDxDxm_t0no3dFaEjJKZyhTAtX1cmxfSpDxVFvQ","name_en":"Chanel Women Bags","name_cn":"白金版▪️正品级 包装如图\nChane1 25B新品现货 双C扣口盖包\n双C调节扣 mini baby蓝\n专柜售价45800rmb购入开发〰️\n\n最新推出#双C链条口盖包mini💙\n具备CF元素造型有着性感迷人的气质\n链条双C调节扣设计很精致很复古~\n绝对是重量级必入收藏款️啦✔️\n\n五金:厚镀24K复古亮金\n皮料:   抛光小羊皮\n尺寸:13*18*7 cm\n5758","specs":{"source":"wsxcme","sourceId":"_dDxDxm_t0no3dFaEjJKZyhTAtX1cmxfSpDxVFvQ","sourceTagId":47002745,"sourceTagName":"香奈儿/女包","dimensions":{"lengthCm":13,"heightCm":18,"widthCm":7},"rawTitle":"白金版▪️正品级 包装如图\nChane1 25B新品现货 双C扣口盖包\n双C调节扣 mini baby蓝\n专柜售价45800rmb购入开发〰️\n\n最新推出#双C链条口盖包mini💙\n具备CF元素造型有着性感迷人的气质\n链条双C调节扣设计很精致很复古~\n绝对是重量级必入收藏款️啦✔️\n\n五金:厚镀24K复古亮金\n皮料:   抛光小羊皮\n尺寸:13*18*7 cm\n5758"},"price":null,"currency":"CNY","moq":1,"category":"chanel-women-bags","status":"active","alibaba_url":null,"images":["https://xcimg.szwego.com/imgHD/9d8f4332/20250824/cmp_i1756016063594_3069_0_0.jpg","https://xcimg.szwego.com/imgHD/9d8f4332/20250824/cmp_i1756016063587_7311_0_1.jpg","https://xcimg.szwego.com/imgHD/9d8f4332/20250824/cmp_i1756016063573_6003_0_2.jpg","https://xcimg.szwego.com/imgHD/9d8f4332/20250824/cmp_i1756016062405_719_0_3.jpg","https://xcimg.szwego.com/imgHD/9d8f4332/20250824/cmp_i1756015969566_4297_0_4.jpg","https://xcimg.szwego.com/imgHD/9d8f4332/20250824/cmp_i1756015969566_235_0_5.jpg","https://xcimg.szwego.com/imgHD/9d8f4332/20250824/cmp_i1756015969566_1028_0_6.jpg","https://xcimg.szwego.com/imgHD/9d8f4332/20250824/cmp_i1756015971199_5166_0_7.jpg","https://xcimg.szwego.com/imgHD/9d8f4332/20250824/cmp_i1756016062403_6440_0_8.jpg"],"created_at":"2025-09-19T04:32:40.073Z"},{"id":"item-5edf461d2b1b","sku":"_df0f0Gbu0O5Gf108SZCcA682rzGenEKD5RzPluA","name_en":"Chanel Women Bags","name_cn":"3980","specs":{"source":"wsxcme","sourceId":"_df0f0Gbu0O5Gf108SZCcA682rzGenEKD5RzPluA","sourceTagId":47002745,"sourceTagName":"香奈儿/女包","rawTitle":"3980"},"price":null,"currency":"CNY","moq":1,"category":"chanel-women-bags","status":"active","alibaba_url":null,"images":["https://xcimg.szwego.com/20230816/i1692173309_9138_0.jpg","https://xcimg.szwego.com/20230816/i1692173309_9798_1.jpg","https://xcimg.szwego.com/20230816/i1692173309_7923_2.jpg","https://xcimg.szwego.com/20230816/i1692173309_6896_3.jpg","https://xcimg.szwego.com/20230816/i1692173309_9076_4.jpg","https://xcimg.szwego.com/20230816/i1692173309_3752_5.jpg","https://xcimg.szwego.com/20230816/i1692173309_9931_6.jpg","https://xcimg.szwego.com/20230816/i1692173309_6170_7.jpg","https://xcimg.szwego.com/20230816/i1692173309_7997_8.jpg"],"created_at":"2026-06-29T10:35:34.064Z"},{"id":"item-5d6eba79f6b1","sku":"_dIDIDXj17Xf7yTtKLtV1dNxqZlDuPY6Fl9SKsMw","name_en":"Chanel Women Bags","name_cn":"22手袋 \n新颜色小号黑金\n\n 原厂方框小牛皮👍皮质细腻有光泽,\n既柔软又耐磨,两者兼具\n简简单单的外观却藏着不少设计师的高级设计,镂空的chanel logo的金币,小小的点缀让整体气质提高了不止一个Level,满满的复古情怀,松松垮垮的慵懒感! 🍃\n\n尺寸:35*37*7cm","specs":{"source":"wsxcme","sourceId":"_dIDIDXj17Xf7yTtKLtV1dNxqZlDuPY6Fl9SKsMw","sourceTagId":47002745,"sourceTagName":"香奈儿/女包","dimensions":{"lengthCm":35,"heightCm":37,"widthCm":7},"rawTitle":"22手袋 \n新颜色小号黑金\n\n 原厂方框小牛皮👍皮质细腻有光泽,\n既柔软又耐磨,两者兼具\n简简单单的外观却藏着不少设计师的高级设计,镂空的chanel logo的金币,小小的点缀让整体气质提高了不止一个Level,满满的复古情怀,松松垮垮的慵懒感! 🍃\n\n尺寸:35*37*7cm"},"price":null,"currency":"CNY","moq":1,"category":"chanel-women-bags","status":"active","alibaba_url":null,"images":["https://xcimg.szwego.com/20230626/i1687788171_4975_0.jpg","https://xcimg.szwego.com/20230626/i1687788171_3160_1.jpg","https://xcimg.szwego.com/20230626/i1687788171_4920_2.jpg","https://xcimg.szwego.com/20230626/i1687788171_3287_3.jpg"],"created_at":"2024-05-01T03:19:54.443Z"},{"id":"item-5d365ac12bbe","sku":"_dkhkhYkh9CqpVgs5YplHryW5o38SZTF9UaAr_5A","name_en":"Chanel Women Bags","name_cn":"芯片▪️白金版 正品级 包装如图\n超级火爆🔥小足球woc\n23C全新现货发售!!️ \n专柜售价24700rmb〰️🧾\n\nwallet on chain \n可调节肩带长度✔️设计感十足\n简直美到爆炸🔜实用与美貌并存〰️\n细腻的小羊皮 爱不释手❥❥\n\n皮料:意大利zp小羊皮\n五金:全钢18k电镀五金\n尺寸:12.3*19.2*3.5cm","specs":{"source":"wsxcme","sourceId":"_dkhkhYkh9CqpVgs5YplHryW5o38SZTF9UaAr_5A","sourceTagId":47002745,"sourceTagName":"香奈儿/女包","dimensions":{"lengthCm":12.3,"heightCm":19.2,"widthCm":3.5},"rawTitle":"芯片▪️白金版 正品级 包装如图\n超级火爆🔥小足球woc\n23C全新现货发售!!️ \n专柜售价24700rmb〰️🧾\n\nwallet on chain \n可调节肩带长度✔️设计感十足\n简直美到爆炸🔜实用与美貌并存〰️\n细腻的小羊皮 爱不释手❥❥\n\n皮料:意大利zp小羊皮\n五金:全钢18k电镀五金\n尺寸:12.3*19.2*3.5cm"},"price":null,"currency":"CNY","moq":1,"category":"chanel-women-bags","status":"active","alibaba_url":null,"images":["https://xcimg.szwego.com/20221225/i1671948133_7528_0.jpg","https://xcimg.szwego.com/20221225/i1671948133_4949_1.jpg","https://xcimg.szwego.com/20221225/i1671948133_8093_2.jpg","https://xcimg.szwego.com/20221225/i1671948133_4830_3.jpg","https://xcimg.szwego.com/20221225/i1671948133_509_4.jpg","https://xcimg.szwego.com/20221225/i1671948133_2879_5.jpg","https://xcimg.szwego.com/20221225/i1671948133_2573_6.jpg","https://xcimg.szwego.com/20221225/i1671948133_274_7.jpg"],"created_at":"2024-05-01T03:19:54.388Z"},{"id":"item-5cd120dd2e5e","sku":"_dfpfpXu7AiDx4kbbwHzRtT1cciBeQQ0a9NIbmHA","name_en":"Chanel Women Bags","name_cn":"🆕22手袋 黑银\n\n 原厂方框一级小牛皮👍皮质细腻有光泽,\n既柔软又耐磨,两者兼具\n简简单单的外观却藏着不少设计师的高级设计,镂空的chane logo的金币,小小的点缀让整体气质提高了不止一个Level,满满的复古情怀,松松垮垮的慵懒感! 🍃\n\n尺寸:39*42*8cm","specs":{"source":"wsxcme","sourceId":"_dfpfpXu7AiDx4kbbwHzRtT1cciBeQQ0a9NIbmHA","sourceTagId":47002745,"sourceTagName":"香奈儿/女包","dimensions":{"lengthCm":39,"heightCm":42,"widthCm":8},"rawTitle":"🆕22手袋 黑银\n\n 原厂方框一级小牛皮👍皮质细腻有光泽,\n既柔软又耐磨,两者兼具\n简简单单的外观却藏着不少设计师的高级设计,镂空的chane logo的金币,小小的点缀让整体气质提高了不止一个Level,满满的复古情怀,松松垮垮的慵懒感! 🍃\n\n尺寸:39*42*8cm"},"price":null,"currency":"CNY","moq":1,"category":"chanel-women-bags","status":"active","alibaba_url":null,"images":["https://xcimg.szwego.com/20230626/i1687787764_972_0.jpg","https://xcimg.szwego.com/20230626/i1687787764_4630_3.jpg","https://xcimg.szwego.com/img/1ea81fa8/20250107/i1736231278284_3155_0_2.jpg","https://xcimg.szwego.com/img/1ea81fa8/20250107/i1736231278396_840_0_3.jpg","https://xcimg.szwego.com/img/1ea81fa8/20250107/i1736231278341_6647_0_4.jpg","https://xcimg.szwego.com/img/1ea81fa8/20250107/i1736231278451_1892_0_5.jpg","https://xcimg.szwego.com/img/1ea81fa8/20250107/i1736231278509_5337_0_6.jpg","https://xcimg.szwego.com/img/1ea81fa8/20250107/i1736231278228_8705_0_7.jpg"],"created_at":"2025-01-20T12:26:10.906Z"},{"id":"item-5b21823c0db5","sku":"_dfVfVuU3wDpD6dMKp1YxPm3HgxJk54iSi-ZOL2Q","name_en":"Chanel Women Bags","name_cn":"白金版▪️正品级 包装如图\nChane1 25P 全新升级版🍀\n双口袋青蛙🐸复古背包 白色 中号\n专柜售价49800rmb购入开发〰️\n\n一向都是重头戏的复古双肩包ꫛꫀꪝ\n23P这款让人翘首以待的荔枝纹小牛~\n颜值担当属于耐看型,复古程度更是一见倾心♥\n双口袋小书包荔枝牛皮 向来都是最受欢迎的材质。\n易打理更耐造,日常通勤收纳轻松装扮✔️\n\n五金:全钢14K淡金扣\n皮料:Haas中球小牛皮\n尺寸:20.5*20*11.5 CM\n3860","specs":{"source":"wsxcme","sourceId":"_dfVfVuU3wDpD6dMKp1YxPm3HgxJk54iSi-ZOL2Q","sourceTagId":47002745,"sourceTagName":"香奈儿/女包","dimensions":{"lengthCm":20.5,"heightCm":20,"widthCm":11.5},"rawTitle":"白金版▪️正品级 包装如图\nChane1 25P 全新升级版🍀\n双口袋青蛙🐸复古背包 白色 中号\n专柜售价49800rmb购入开发〰️\n\n一向都是重头戏的复古双肩包ꫛꫀꪝ\n23P这款让人翘首以待的荔枝纹小牛~\n颜值担当属于耐看型,复古程度更是一见倾心♥\n双口袋小书包荔枝牛皮 向来都是最受欢迎的材质。\n易打理更耐造,日常通勤收纳轻松装扮✔️\n\n五金:全钢14K淡金扣\n皮料:Haas中球小牛皮\n尺寸:20.5*20*11.5 CM\n3860"},"price":null,"currency":"CNY","moq":1,"category":"chanel-women-bags","status":"active","alibaba_url":null,"images":["https://xcimg.szwego.com/imgHD/9d8f4332/20250609/cmp_i1749449698386_7641_0_0.jpg","https://xcimg.szwego.com/imgHD/9d8f4332/20250609/cmp_i1749449697262_6143_0_1.jpg","https://xcimg.szwego.com/imgHD/9d8f4332/20250609/cmp_i1749449697262_6425_0_2.jpg","https://xcimg.szwego.com/imgHD/9d8f4332/20250609/cmp_i1749449698384_1749_0_3.jpg","https://xcimg.szwego.com/imgHD/9d8f4332/20250609/cmp_i1749449698384_4408_0_4.jpg","https://xcimg.szwego.com/imgHD/9d8f4332/20250609/cmp_i1749449698382_8267_0_5.jpg","https://xcimg.szwego.com/imgHD/9d8f4332/20250609/cmp_i1749449697258_8282_0_6.jpg","https://xcimg.szwego.com/imgHD/9d8f4332/20250609/cmp_i1749449697257_2663_0_7.jpg","https://xcimg.szwego.com/imgHD/9d8f4332/20250609/cmp_i1749449697260_7813_0_8.jpg"],"created_at":"2025-06-16T09:47:58.358Z"},{"id":"item-5a7a1191481d","sku":"_dG5G5Ip2yCk-o1B4XBFJ8TXO17czGckEfPHBJtQ","name_en":"Chanel Women Bags","name_cn":"白金版▪️正品级 包装如图\n新品到货🆕Chane1 23K秋冬🖤\nKelly链条手拿包 小号 黑色 \n专柜售价24000rmb购入开发〰️\n\n全网最热🔥23k秋冬kelly手拿包\n叱咤整个秀场,简直美绝了〰️\n简约又复古的小手提很灵魂很舒适。\n又乖又耐看,实在绝对爱不释手❕\n\n五金:厚镀24k复古金\n皮料:Velierq亮面小牛皮\n尺寸: 8.3*12.5*4 cm\n3435","specs":{"source":"wsxcme","sourceId":"_dG5G5Ip2yCk-o1B4XBFJ8TXO17czGckEfPHBJtQ","sourceTagId":47002745,"sourceTagName":"香奈儿/女包","dimensions":{"lengthCm":8.3,"heightCm":12.5,"widthCm":4},"rawTitle":"白金版▪️正品级 包装如图\n新品到货🆕Chane1 23K秋冬🖤\nKelly链条手拿包 小号 黑色 \n专柜售价24000rmb购入开发〰️\n\n全网最热🔥23k秋冬kelly手拿包\n叱咤整个秀场,简直美绝了〰️\n简约又复古的小手提很灵魂很舒适。\n又乖又耐看,实在绝对爱不释手❕\n\n五金:厚镀24k复古金\n皮料:Velierq亮面小牛皮\n尺寸: 8.3*12.5*4 cm\n3435"},"price":null,"currency":"CNY","moq":1,"category":"chanel-women-bags","status":"active","alibaba_url":null,"images":["https://xcimg.szwego.com/20231115/i1700028397_3601_0.jpg","https://xcimg.szwego.com/20231115/i1700028397_8974_1.jpg","https://xcimg.szwego.com/20231115/i1700028397_1358_2.jpg","https://xcimg.szwego.com/20231115/i1700028397_7519_3.jpg","https://xcimg.szwego.com/20231115/i1700028397_2917_4.jpg","https://xcimg.szwego.com/20231115/i1700028397_9073_5.jpg","https://xcimg.szwego.com/20231115/i1700028397_7379_6.jpg","https://xcimg.szwego.com/20231115/i1700028397_5917_7.jpg","https://xcimg.szwego.com/20231115/i1700028397_7076_8.jpg"],"created_at":"2024-05-01T03:19:54.392Z"},{"id":"item-59f1bb965c7c","sku":"_dTITIkv6RIvE1cANbIPw0a8wbD2bPeFgzTF8Kdw","name_en":"Chanel Women Bags","name_cn":"原厂皮\n暴款4号回货!25c牛皮 球纹\n香奈儿 chanel hobo 腋下包 嬉皮腋下包小号\n复古金币纽扣抽绳水桶包+菱格纹+复古黑金\n经典链条设计,高级感十足!日常出行必备,\n外观精美,质感细腻,\n无论休闲装还是正式场合都能轻松驾驭❤️\n编号:AS5293 球纹 黑色\n尺寸:30*26*14","specs":{"source":"wsxcme","sourceId":"_dTITIkv6RIvE1cANbIPw0a8wbD2bPeFgzTF8Kdw","sourceTagId":47002745,"sourceTagName":"香奈儿/女包","rawTitle":"原厂皮\n暴款4号回货!25c牛皮 球纹\n香奈儿 chanel hobo 腋下包 嬉皮腋下包小号\n复古金币纽扣抽绳水桶包+菱格纹+复古黑金\n经典链条设计,高级感十足!日常出行必备,\n外观精美,质感细腻,\n无论休闲装还是正式场合都能轻松驾驭❤️\n编号:AS5293 球纹 黑色\n尺寸:30*26*14"},"price":null,"currency":"CNY","moq":1,"category":"chanel-women-bags","status":"active","alibaba_url":null,"images":["https://xcimg.szwego.com/img/fbe1a617/20250422/i1745329866767_9889_0_0.jpg","https://xcimg.szwego.com/img/fbe1a617/20250422/i1745329866966_9171_0_1.jpg","https://xcimg.szwego.com/img/fbe1a617/20250422/i1745329865007_8580_0_2.jpg","https://xcimg.szwego.com/img/fbe1a617/20250422/i1745329866719_4170_0_3.jpg","https://xcimg.szwego.com/img/fbe1a617/20250422/i1745329865431_4084_0_4.jpg","https://xcimg.szwego.com/img/fbe1a617/20250422/i1745329865432_9909_0_5.jpg","https://xcimg.szwego.com/img/fbe1a617/20250422/i1745329867002_5096_0_6.jpg","https://xcimg.szwego.com/img/fbe1a617/20250422/i1745329865188_3855_0_7.jpg","https://xcimg.szwego.com/img/fbe1a617/20250422/i1745329865364_5712_0_8.jpg"],"created_at":"2025-09-09T05:17:44.457Z"},{"id":"item-593130a4728e","sku":"_dw2w2j1_OoBivWOx-l5fFGb3USpUOyjqArHlBGA","name_en":"Chanel Women Bags","name_cn":"香奈儿/女包","specs":{"source":"wsxcme","sourceId":"_dw2w2j1_OoBivWOx-l5fFGb3USpUOyjqArHlBGA","sourceTagId":47002745,"sourceTagName":"香奈儿/女包","rawTitle":""},"price":null,"currency":"CNY","moq":1,"category":"chanel-women-bags","status":"active","alibaba_url":null,"images":["https://xcimg.szwego.com/img/d0c94e6f/20250902/i1756824035_3263_0.jpg"],"created_at":"2025-09-19T04:25:53.920Z"},{"id":"item-58ce8586c36f","sku":"_ds8s8OIBklYvh4wWoZI8w9qyfwK9vfYDV00aP1g","name_en":"Chanel Women Bags","name_cn":"白金版▪️正品级 包装如图\nChane1 23S春夏系列\n火爆Mini 22Bag♥白金\n独家意大利渠道皮,真品原材料❕\n专柜售价40600rmb(目前市场溢价极高)\n\n这款包还没等上市就已经火爆全网。\n出彩的设计直接封神!\n\n容量很美好,优雅时髦的造型超乎想象🖤\n\n五金:全铜24K复古金\n皮料:开料部zp亮面小牛皮\n尺寸:19*20*6 cm","specs":{"source":"wsxcme","sourceId":"_ds8s8OIBklYvh4wWoZI8w9qyfwK9vfYDV00aP1g","sourceTagId":47002745,"sourceTagName":"香奈儿/女包","dimensions":{"lengthCm":19,"heightCm":20,"widthCm":6},"rawTitle":"白金版▪️正品级 包装如图\nChane1 23S春夏系列\n火爆Mini 22Bag♥白金\n独家意大利渠道皮,真品原材料❕\n专柜售价40600rmb(目前市场溢价极高)\n\n这款包还没等上市就已经火爆全网。\n出彩的设计直接封神!\n\n容量很美好,优雅时髦的造型超乎想象🖤\n\n五金:全铜24K复古金\n皮料:开料部zp亮面小牛皮\n尺寸:19*20*6 cm"},"price":null,"currency":"CNY","moq":1,"category":"chanel-women-bags","status":"active","alibaba_url":null,"images":["https://xcimg.szwego.com/20230407/i1680846236_1475_0.jpg","https://xcimg.szwego.com/20230407/i1680846236_2939_1.jpg","https://xcimg.szwego.com/20230407/i1680846236_545_2.jpg","https://xcimg.szwego.com/20230407/i1680846236_4279_3.jpg","https://xcimg.szwego.com/20230407/i1680846236_1222_4.jpg","https://xcimg.szwego.com/20230407/i1680846236_7932_5.jpg","https://xcimg.szwego.com/20230407/i1680846236_5728_6.jpg","https://xcimg.szwego.com/20230407/i1680846236_9175_7.jpg","https://xcimg.szwego.com/20230407/i1680846236_7924_8.jpg"],"created_at":"2024-05-01T03:19:54.362Z"},{"id":"item-58a25cb380d9","sku":"_ddzdzkR2YTdsgxsly1Av4XK4ycaIoh6XBk4CdMg","name_en":"Chanel Women Bags","name_cn":"白金版▪️正品级 包装如图\n新品到货🆕Chane1 23K秋冬\n19系列腋下包 大号黑色♥\n专柜售价40600rmb购入开发~\n\n23k黑马爆款19hobo腋下包 \n复古小牛皮实物质感很顶配❕\n冬天搭配外套大衣也毫无违和感〰️\n细腻柔软的宽肩带设计很是舒适,\n手拎腋下松弛感拉满ᥫᩣ\n\n五金:厚镀24k复古金\n皮料:褶皱小牛皮\n尺寸:23*13.5* 5 cm","specs":{"source":"wsxcme","sourceId":"_ddzdzkR2YTdsgxsly1Av4XK4ycaIoh6XBk4CdMg","sourceTagId":47002745,"sourceTagName":"香奈儿/女包","dimensions":{"lengthCm":23,"heightCm":13.5,"widthCm":5},"rawTitle":"白金版▪️正品级 包装如图\n新品到货🆕Chane1 23K秋冬\n19系列腋下包 大号黑色♥\n专柜售价40600rmb购入开发~\n\n23k黑马爆款19hobo腋下包 \n复古小牛皮实物质感很顶配❕\n冬天搭配外套大衣也毫无违和感〰️\n细腻柔软的宽肩带设计很是舒适,\n手拎腋下松弛感拉满ᥫᩣ\n\n五金:厚镀24k复古金\n皮料:褶皱小牛皮\n尺寸:23*13.5* 5 cm"},"price":null,"currency":"CNY","moq":1,"category":"chanel-women-bags","status":"active","alibaba_url":null,"images":["https://xcimg.szwego.com/20231129/i1701245691_1827_0.jpg","https://xcimg.szwego.com/20231129/i1701245691_8688_1.jpg","https://xcimg.szwego.com/20231129/i1701245691_6757_2.jpg","https://xcimg.szwego.com/20231129/i1701245691_178_3.jpg","https://xcimg.szwego.com/20231129/i1701245691_8964_4.jpg","https://xcimg.szwego.com/20231129/i1701245691_3018_5.jpg","https://xcimg.szwego.com/20231129/i1701245691_1823_6.jpg","https://xcimg.szwego.com/20231129/i1701245691_2921_7.jpg","https://xcimg.szwego.com/20231129/i1701245691_6059_8.jpg"],"created_at":"2024-05-01T03:19:54.394Z"},{"id":"item-5792a6210220","sku":"_du2u212LNm90bVRZVnT2VONEiKjHdkc2PkI2nCA","name_en":"Chanel Women Bags","name_cn":"原厂皮\n25c牛皮嘻哈包\n香奈儿 chanel hobo 腋下包 嬉皮腋下包小号\n复古金币纽扣抽绳水桶包+菱格纹+复古黑金\n经典链条设计,高级感十足!日常出行必备,外观精美,质感细腻,无论休闲装还是正式场合都能轻松驾驭\n编号:AS5293 蓝色牛仔布\n尺寸:30-26-14\n​","specs":{"source":"wsxcme","sourceId":"_du2u212LNm90bVRZVnT2VONEiKjHdkc2PkI2nCA","sourceTagId":47002745,"sourceTagName":"香奈儿/女包","rawTitle":"原厂皮\n25c牛皮嘻哈包\n香奈儿 chanel hobo 腋下包 嬉皮腋下包小号\n复古金币纽扣抽绳水桶包+菱格纹+复古黑金\n经典链条设计,高级感十足!日常出行必备,外观精美,质感细腻,无论休闲装还是正式场合都能轻松驾驭\n编号:AS5293 蓝色牛仔布\n尺寸:30-26-14\n​"},"price":null,"currency":"CNY","moq":1,"category":"chanel-women-bags","status":"active","alibaba_url":null,"images":["https://xcimg.szwego.com/img/a5af95f4/20250416/i1744791973304_8567_0_0.jpg","https://xcimg.szwego.com/img/a5af95f4/20250416/i1744791964279_7861_0_1.jpg","https://xcimg.szwego.com/img/a5af95f4/20250416/i1744791964321_2565_0_2.jpg","https://xcimg.szwego.com/img/a5af95f4/20250416/i1744791971359_7474_0_3.jpg","https://xcimg.szwego.com/img/a5af95f4/20250416/i1744791964303_2140_0_4.jpg","https://xcimg.szwego.com/img/a5af95f4/20250416/i1744791971395_8136_0_5.jpg","https://xcimg.szwego.com/img/a5af95f4/20250416/i1744791964277_9143_0_6.jpg","https://xcimg.szwego.com/img/a5af95f4/20250416/i1744791973333_9661_0_7.jpg","https://xcimg.szwego.com/img/a5af95f4/20250416/i1744791964140_1339_0_8.jpg"],"created_at":"2025-09-09T05:17:44.462Z"},{"id":"item-5507c8c4860a","sku":"_dx4x4YF6sFAHRmIozDS-RyMlHv3wYd57CLc2l5A","name_en":"Chanel Women Bags","name_cn":"香奈儿/女包","specs":{"source":"wsxcme","sourceId":"_dx4x4YF6sFAHRmIozDS-RyMlHv3wYd57CLc2l5A","sourceTagId":47002745,"sourceTagName":"香奈儿/女包","rawTitle":""},"price":null,"currency":"CNY","moq":1,"category":"chanel-women-bags","status":"active","alibaba_url":null,"images":["https://xcimg.szwego.com/img/d0c94e6f/20250823/i1755962161_4979_0.jpg"],"created_at":"2025-09-19T04:32:40.109Z"},{"id":"item-52313c46ffb2","sku":"_dq4q4jS4X3h-1Y9V8-_GVbUnp-5XSCZXmFQMUdQ","name_en":"Chanel Women Bags","name_cn":"香奈儿/女包","specs":{"source":"wsxcme","sourceId":"_dq4q4jS4X3h-1Y9V8-_GVbUnp-5XSCZXmFQMUdQ","sourceTagId":47002745,"sourceTagName":"香奈儿/女包","rawTitle":""},"price":null,"currency":"CNY","moq":1,"category":"chanel-women-bags","status":"active","alibaba_url":null,"images":["https://xcimg.szwego.com/img/d0c94e6f/20250823/i1755879885_184_0.jpg"],"created_at":"2025-09-19T04:32:40.089Z"},{"id":"item-51dbc94d83d6","sku":"_dnvnvkCKu0fp1Kt4yxZk6ZQU-G9JpkQkomsbhFQ","name_en":"Chanel Women Bags","name_cn":"出货","specs":{"source":"wsxcme","sourceId":"_dnvnvkCKu0fp1Kt4yxZk6ZQU-G9JpkQkomsbhFQ","sourceTagId":47002745,"sourceTagName":"香奈儿/女包","rawTitle":"出货"},"price":null,"currency":"CNY","moq":1,"category":"chanel-women-bags","status":"active","alibaba_url":null,"images":["https://xcimg.szwego.com/img/d0c94e6f/20240707/i1720336455_7826_8.jpg","https://xcimg.szwego.com/img/d0c94e6f/20240707/i1720336454_8883_5.jpg","https://xcimg.szwego.com/img/d0c94e6f/20240707/i1720336454_7525_3.jpg","https://xcimg.szwego.com/img/d0c94e6f/20240707/i1720336454_8535_2.jpg","https://xcimg.szwego.com/img/d0c94e6f/20240707/i1720336454_4612_6.jpg","https://xcimg.szwego.com/img/d0c94e6f/20240707/i1720336454_2871_4.jpg","https://xcimg.szwego.com/img/d0c94e6f/20240707/i1720336454_7772_0.jpg","https://xcimg.szwego.com/img/d0c94e6f/20240707/i1720336454_9093_7.jpg","https://xcimg.szwego.com/img/d0c94e6f/20240707/i1720336454_245_1.jpg"],"created_at":"2024-11-26T11:47:21.476Z"},{"id":"item-4eecd3ed3268","sku":"_dk8k8XZDaYRmtzQkvBMRRHgYYHoooiW7RkpIObQ","name_en":"Chanel Women Bags","name_cn":"白金版▪️正品级 包装如图\nChane1 23c早春系列🌿\n珐琅黑白格球 Mini方胖子黑色 \n\n23c早春足球棋盘方胖子⚽️\n这款mini 真的爱了❕适合运动风格\n可调节珐琅金属球不仅做工一贯精美\n而且赋予了包包很多的背法〰️\n可️斜背 单肩 手拎 腋下包 看起来小,\n容量用起来蛮大的❕\n这季设计理念就是F1胜利的旗帜,\n感觉瞬间比经典款年轻时髦多了。\n黑色很百搭 一年四季可搭配 可盐可甜 谁背谁好看〰️\n\n五金:全钢14k淡金扣/珐琅黑白格\n皮料:独家开料部zp小羊皮\n尺寸: 13*20 *7 cm","specs":{"source":"wsxcme","sourceId":"_dk8k8XZDaYRmtzQkvBMRRHgYYHoooiW7RkpIObQ","sourceTagId":47002745,"sourceTagName":"香奈儿/女包","dimensions":{"lengthCm":13,"heightCm":20,"widthCm":7},"rawTitle":"白金版▪️正品级 包装如图\nChane1 23c早春系列🌿\n珐琅黑白格球 Mini方胖子黑色 \n\n23c早春足球棋盘方胖子⚽️\n这款mini 真的爱了❕适合运动风格\n可调节珐琅金属球不仅做工一贯精美\n而且赋予了包包很多的背法〰️\n可️斜背 单肩 手拎 腋下包 看起来小,\n容量用起来蛮大的❕\n这季设计理念就是F1胜利的旗帜,\n感觉瞬间比经典款年轻时髦多了。\n黑色很百搭 一年四季可搭配 可盐可甜 谁背谁好看〰️\n\n五金:全钢14k淡金扣/珐琅黑白格\n皮料:独家开料部zp小羊皮\n尺寸: 13*20 *7 cm"},"price":null,"currency":"CNY","moq":1,"category":"chanel-women-bags","status":"active","alibaba_url":null,"images":["https://xcimg.szwego.com/20230316/i1678943695_3403_0.jpg","https://xcimg.szwego.com/20230316/i1678943695_9895_1.jpg","https://xcimg.szwego.com/20230316/i1678943695_4427_2.jpg","https://xcimg.szwego.com/20230316/i1678943695_8305_3.jpg","https://xcimg.szwego.com/20230316/i1678943695_9954_4.jpg","https://xcimg.szwego.com/20230316/i1678943695_8567_5.jpg","https://xcimg.szwego.com/20230316/i1678943695_189_6.jpg","https://xcimg.szwego.com/20230316/i1678943695_9920_7.jpg","https://xcimg.szwego.com/20230316/i1678943695_7660_8.jpg"],"created_at":"2024-05-01T03:19:54.357Z"},{"id":"item-4deafeed166a","sku":"_d9-9-9hFjatQ-W0gv_bhzxl7KKh9EG-I0tnjigA","name_en":"Chanel Women Bags","name_cn":"原厂皮\n小香进口意大利小羊皮【升級版】\n货号:A\n尺寸:w20×h13×d3.5cm\n颜色:白色細球紋金色鋼唛","specs":{"source":"wsxcme","sourceId":"_d9-9-9hFjatQ-W0gv_bhzxl7KKh9EG-I0tnjigA","sourceTagId":47002745,"sourceTagName":"香奈儿/女包","modelNumber":"A","rawTitle":"原厂皮\n小香进口意大利小羊皮【升級版】\n货号:A\n尺寸:w20×h13×d3.5cm\n颜色:白色細球紋金色鋼唛"},"price":null,"currency":"CNY","moq":1,"category":"chanel-women-bags","status":"active","alibaba_url":null,"images":["https://xcimg.szwego.com/img/c4e87dad/20250516/i1747399922779_9087_0_2.jpg","https://xcimg.szwego.com/img/c4e87dad/20250516/i1747399919840_4054_0_4.jpg","https://xcimg.szwego.com/img/c4e87dad/20250516/i1747399919854_1695_0_6.jpg","https://xcimg.szwego.com/img/c4e87dad/20250516/i1747399919838_5760_0_7.jpg"],"created_at":"2025-09-09T05:22:54.849Z"},{"id":"item-4d9b1fbf2d3f","sku":"_dL-L-5ZyAUCYao0n3gmQY9GPaue7Wz34Fyp5VEQ","name_en":"Chanel Women Bags","name_cn":"白金版▪️正品级 包装如图\nChane1 23S春夏系列\n山茶花调节扣大号 白色\n\n23s山茶花调节扣链条口盖包\n具备cf的元素造型有着性感迷人的气质。\n设计方面更加优雅大方啦❕\n可️腋下、斜挎、单肩一包多用,很受欢迎哦👏🏻\n\n五金:全铜24K复古金\n皮料:   开料部zp小羊皮\n尺寸:14.5*23.5*7cm","specs":{"source":"wsxcme","sourceId":"_dL-L-5ZyAUCYao0n3gmQY9GPaue7Wz34Fyp5VEQ","sourceTagId":47002745,"sourceTagName":"香奈儿/女包","dimensions":{"lengthCm":14.5,"heightCm":23.5,"widthCm":7},"rawTitle":"白金版▪️正品级 包装如图\nChane1 23S春夏系列\n山茶花调节扣大号 白色\n\n23s山茶花调节扣链条口盖包\n具备cf的元素造型有着性感迷人的气质。\n设计方面更加优雅大方啦❕\n可️腋下、斜挎、单肩一包多用,很受欢迎哦👏🏻\n\n五金:全铜24K复古金\n皮料:   开料部zp小羊皮\n尺寸:14.5*23.5*7cm"},"price":null,"currency":"CNY","moq":1,"category":"chanel-women-bags","status":"active","alibaba_url":null,"images":["https://xcimg.szwego.com/20230611/i1686462916_2521_0.jpg","https://xcimg.szwego.com/20230611/i1686462916_9028_1.jpg","https://xcimg.szwego.com/20230611/i1686462916_2493_2.jpg","https://xcimg.szwego.com/20230611/i1686462916_9415_3.jpg","https://xcimg.szwego.com/20230611/i1686462916_3793_4.jpg","https://xcimg.szwego.com/20230611/i1686462916_6841_5.jpg","https://xcimg.szwego.com/20230611/i1686462916_5395_6.jpg","https://xcimg.szwego.com/20230611/i1686462916_3102_7.jpg","https://xcimg.szwego.com/20230611/i1686462916_626_8.jpg"],"created_at":"2024-05-01T03:19:54.374Z"},{"id":"item-4c478be990ba","sku":"_dvcvc5cJbSHpzOwP6Ad5_15LG1QFrjnuUl606jw","name_en":"Chanel Women Bags","name_cn":"香奈儿/女包","specs":{"source":"wsxcme","sourceId":"_dvcvc5cJbSHpzOwP6Ad5_15LG1QFrjnuUl606jw","sourceTagId":47002745,"sourceTagName":"香奈儿/女包","rawTitle":""},"price":null,"currency":"CNY","moq":1,"category":"chanel-women-bags","status":"active","alibaba_url":null,"images":["https://xcimg.szwego.com/img/d0c94e6f/20250823/i1755959696_4770_0.jpg"],"created_at":"2025-09-19T04:32:40.115Z"},{"id":"item-4bd5f7a35446","sku":"_dbDbDU1hBJ57DqJhBKySDhYC-XxNEgPv4cGsYLg","name_en":"Chanel Women Bags","name_cn":"原厂皮\n即将出货25c牛皮 球纹\n香奈儿 chanel hobo 腋下包 嬉皮腋下包小号\n复古金币纽扣抽绳水桶包+菱格纹+复古黑金\n经典链条设计,高级感十足!日常出行必备,\n外观精美,质感细腻,\n无论休闲装还是正式场合都能轻松驾驭❤️\n编号:AS5293 球纹 白色\n尺寸:30*26*14","specs":{"source":"wsxcme","sourceId":"_dbDbDU1hBJ57DqJhBKySDhYC-XxNEgPv4cGsYLg","sourceTagId":47002745,"sourceTagName":"香奈儿/女包","rawTitle":"原厂皮\n即将出货25c牛皮 球纹\n香奈儿 chanel hobo 腋下包 嬉皮腋下包小号\n复古金币纽扣抽绳水桶包+菱格纹+复古黑金\n经典链条设计,高级感十足!日常出行必备,\n外观精美,质感细腻,\n无论休闲装还是正式场合都能轻松驾驭❤️\n编号:AS5293 球纹 白色\n尺寸:30*26*14"},"price":null,"currency":"CNY","moq":1,"category":"chanel-women-bags","status":"active","alibaba_url":null,"images":["https://xcimg.szwego.com/img/fbe1a617/20250422/i1745329623354_4426_0_0.jpg","https://xcimg.szwego.com/img/fbe1a617/20250422/i1745329623594_56_0_1.jpg","https://xcimg.szwego.com/img/fbe1a617/20250422/i1745329623675_9402_0_2.jpg","https://xcimg.szwego.com/img/fbe1a617/20250422/i1745329623552_4721_0_3.jpg","https://xcimg.szwego.com/img/fbe1a617/20250422/i1745329625302_7920_0_4.jpg","https://xcimg.szwego.com/img/fbe1a617/20250422/i1745329623513_201_0_5.jpg","https://xcimg.szwego.com/img/fbe1a617/20250422/i1745329625151_4743_0_6.jpg","https://xcimg.szwego.com/img/fbe1a617/20250422/i1745329625221_1996_0_7.jpg","https://xcimg.szwego.com/img/fbe1a617/20250422/i1745329625146_8107_0_8.jpg"],"created_at":"2025-09-09T05:17:44.460Z"},{"id":"item-4835746bcb92","sku":"_d-P-P1L2C3lx6jY5skHSSfEwRniEMcHXNPzmRIA","name_en":"Chanel Women Bags","name_cn":"原厂皮\n小香进口意大利小羊皮【升級版】\n货号:A\n尺寸:w20×h13×d3.5cm\n颜色:黑色羊皮銀色鋼唛","specs":{"source":"wsxcme","sourceId":"_d-P-P1L2C3lx6jY5skHSSfEwRniEMcHXNPzmRIA","sourceTagId":47002745,"sourceTagName":"香奈儿/女包","modelNumber":"A","rawTitle":"原厂皮\n小香进口意大利小羊皮【升級版】\n货号:A\n尺寸:w20×h13×d3.5cm\n颜色:黑色羊皮銀色鋼唛"},"price":null,"currency":"CNY","moq":1,"category":"chanel-women-bags","status":"active","alibaba_url":null,"images":["https://xcimg.szwego.com/img/c4e87dad/20250407/i1744014291390_2710_0_3.jpg","https://xcimg.szwego.com/img/c4e87dad/20250407/i1744014293995_3083_0_5.jpg","https://xcimg.szwego.com/img/c4e87dad/20250407/i1744014291379_1696_0_6.jpg","https://xcimg.szwego.com/img/c4e87dad/20250407/i1744014291439_1504_0_7.jpg","https://xcimg.szwego.com/img/c4e87dad/20250407/i1744014291451_4838_0_8.jpg"],"created_at":"2025-09-09T05:22:54.848Z"},{"id":"item-4812725f448b","sku":"_dSCSCkZ1-tPAAfqPokPyrxAicTDlg01Wu1UlN-w","name_en":"Chanel Women Bags","name_cn":"香奈儿/女包","specs":{"source":"wsxcme","sourceId":"_dSCSCkZ1-tPAAfqPokPyrxAicTDlg01Wu1UlN-w","sourceTagId":47002745,"sourceTagName":"香奈儿/女包","rawTitle":""},"price":null,"currency":"CNY","moq":1,"category":"chanel-women-bags","status":"active","alibaba_url":null,"images":["https://xcimg.szwego.com/img/d0c94e6f/20250911/i1757599218_537_0.jpg"],"created_at":"2025-09-19T04:32:40.134Z"},{"id":"item-46b097b5083b","sku":"_dj-j-5YlqHEhkagVTa7d9Eu7yUeNuCbNnNpg95w","name_en":"Chanel Women Bags","name_cn":"白金版▪️正品级 包装如图\nChane1 24C新品 横款22bag 黑金\n专柜售rmb购入开发\n\n今年上新的时髦点ꫛꫀꪝ\n以年份数字为命名❏\n对准它!!Chane1 22手袋〰️\"垃圾袋♥\"\n每个颜色都很爱!\n这草种得有点措不手及🤷‍♂️\n说垃圾袋也好 收纳袋也罢\n反正就是很对味🪄\n图片太多了实在火爆\n娱乐圈明星 超模们同款👀卷起来了!\n越看越上头呀!!\n\n五金:厚镀24k磨砂银\n皮料:亮面小牛皮\n尺寸:45*30*8 cm\n4486","specs":{"source":"wsxcme","sourceId":"_dj-j-5YlqHEhkagVTa7d9Eu7yUeNuCbNnNpg95w","sourceTagId":47002745,"sourceTagName":"香奈儿/女包","dimensions":{"lengthCm":45,"heightCm":30,"widthCm":8},"rawTitle":"白金版▪️正品级 包装如图\nChane1 24C新品 横款22bag 黑金\n专柜售rmb购入开发\n\n今年上新的时髦点ꫛꫀꪝ\n以年份数字为命名❏\n对准它!!Chane1 22手袋〰️\"垃圾袋♥\"\n每个颜色都很爱!\n这草种得有点措不手及🤷‍♂️\n说垃圾袋也好 收纳袋也罢\n反正就是很对味🪄\n图片太多了实在火爆\n娱乐圈明星 超模们同款👀卷起来了!\n越看越上头呀!!\n\n五金:厚镀24k磨砂银\n皮料:亮面小牛皮\n尺寸:45*30*8 cm\n4486"},"price":null,"currency":"CNY","moq":1,"category":"chanel-women-bags","status":"active","alibaba_url":null,"images":["https://xcimg.szwego.com/20231115/i1700028270_4362_0.jpg","https://xcimg.szwego.com/20231115/i1700028270_3537_1.jpg","https://xcimg.szwego.com/20231115/i1700028270_4831_2.jpg","https://xcimg.szwego.com/20231115/i1700028270_7447_3.jpg","https://xcimg.szwego.com/20231115/i1700028270_4625_4.jpg","https://xcimg.szwego.com/20231115/i1700028270_8266_5.jpg","https://xcimg.szwego.com/20231115/i1700028270_3366_6.jpg","https://xcimg.szwego.com/20231115/i1700028270_1698_7.jpg","https://xcimg.szwego.com/20231115/i1700028270_3439_8.jpg"],"created_at":"2024-05-01T03:19:54.390Z"}],"page":268,"pageSize":24,"total":10075,"totalPages":420}
