{"items":[{"id":"item-963c0e712876","sku":"_dwzwzqfyppVcRIg-xcptQPKdhs6rwA1GSFqlrsg","name_en":"Chanel Women Bags","name_cn":"白金版▪️正品级 包装如图\nChane1 23S春夏系列\n火爆珍珠链条Mini 22Bag♥黑色\n独家意大利渠道皮,真品原材料❕\n专柜售价40600rmb(目前市场溢价极高)\n\n今年23s秀场主角珍珠mini22bag黑金,Jennie同款,没有理由不入手!\n珍珠 菱格 黑裂 砂金,这几个元素加在一起,简直太爱了!\n这款包还没等上市就已经火爆全网。\n出彩的设计直接封神!\n\n容量很美好,优雅时髦的造型超乎想象🖤\n\n五金:全铜24K复古金/人造珍珠链\n皮料:开料部zp褶皱亮面小牛皮\n尺寸:19*20*6 cm","specs":{"source":"wsxcme","sourceId":"_dwzwzqfyppVcRIg-xcptQPKdhs6rwA1GSFqlrsg","sourceTagId":47002745,"sourceTagName":"香奈儿/女包","dimensions":{"lengthCm":19,"heightCm":20,"widthCm":6},"rawTitle":"白金版▪️正品级 包装如图\nChane1 23S春夏系列\n火爆珍珠链条Mini 22Bag♥黑色\n独家意大利渠道皮,真品原材料❕\n专柜售价40600rmb(目前市场溢价极高)\n\n今年23s秀场主角珍珠mini22bag黑金,Jennie同款,没有理由不入手!\n珍珠 菱格 黑裂 砂金,这几个元素加在一起,简直太爱了!\n这款包还没等上市就已经火爆全网。\n出彩的设计直接封神!\n\n容量很美好,优雅时髦的造型超乎想象🖤\n\n五金:全铜24K复古金/人造珍珠链\n皮料:开料部zp褶皱亮面小牛皮\n尺寸:19*20*6 cm"},"price":null,"currency":"CNY","moq":1,"category":"chanel-women-bags","status":"active","alibaba_url":null,"images":["https://xcimg.szwego.com/20230407/i1680847036_9102_0.jpg","https://xcimg.szwego.com/20230407/i1680847036_5887_1.jpg","https://xcimg.szwego.com/20230407/i1680847036_4559_2.jpg","https://xcimg.szwego.com/20230407/i1680847036_3880_3.jpg","https://xcimg.szwego.com/20230407/i1680847036_3542_4.jpg","https://xcimg.szwego.com/20230407/i1680847036_5115_5.jpg","https://xcimg.szwego.com/20230407/i1680847036_713_6.jpg","https://xcimg.szwego.com/20230407/i1680847036_4766_7.jpg","https://xcimg.szwego.com/20230407/i1680847061_6353_0.jpg"],"created_at":"2024-05-01T03:19:54.365Z"},{"id":"item-95c9fef078cc","sku":"_dnwnwCV-bGoaJgHmnpgZPethxLbtIXTzA_rEE0w","name_en":"Chanel Women Bags","name_cn":"3260 小号上身图实拍","specs":{"source":"wsxcme","sourceId":"_dnwnwCV-bGoaJgHmnpgZPethxLbtIXTzA_rEE0w","sourceTagId":47002745,"sourceTagName":"香奈儿/女包","rawTitle":"3260 小号上身图实拍"},"price":null,"currency":"CNY","moq":1,"category":"chanel-women-bags","status":"active","alibaba_url":null,"images":["https://xcimg.szwego.com/img/4072b1f8/20240913/i1726183740_6008_3.jpg","https://xcimg.szwego.com/img/4072b1f8/20240913/i1726183739_5441_0.jpg","https://xcimg.szwego.com/img/4072b1f8/20240913/i1726183740_6110_5.jpg","https://xcimg.szwego.com/img/4072b1f8/20240913/i1726183739_9748_1.jpg","https://xcimg.szwego.com/img/4072b1f8/20240913/i1726183739_5184_2.jpg","https://xcimg.szwego.com/img/4072b1f8/20240913/i1726183740_7261_4.jpg"],"created_at":"2024-09-24T07:45:17.266Z"},{"id":"item-936be85f5e87","sku":"_d8i8iO1vvhoxK1SpwLsKrtBvJaHO0KpvslogMOA","name_en":"Chanel Women Bags","name_cn":"。白金版▪️正品级 包装如图\n全新到货!!️Chane1 24S手工坊\n迷你31Bag购物袋 苹果绿\n专柜售价36700rmb购入开发\nChane1“包王”全新设计31Bag迷你Size\n时尚代表作31Bag经典再现了〰️\n满足了时髦精的在所期待啦...\n这季推出新Size设计感更乖巧又迷人💡\n软萌的时髦感一下子就击中了🖤\n\n五金:厚镀14K淡金\n皮料:   原厂Bonaudo亮面小羊皮\n尺寸:22*24.5*5.5 cm","specs":{"source":"wsxcme","sourceId":"_d8i8iO1vvhoxK1SpwLsKrtBvJaHO0KpvslogMOA","sourceTagId":47002745,"sourceTagName":"香奈儿/女包","dimensions":{"lengthCm":22,"heightCm":24.5,"widthCm":5.5},"rawTitle":"。白金版▪️正品级 包装如图\n全新到货!!️Chane1 24S手工坊\n迷你31Bag购物袋 苹果绿\n专柜售价36700rmb购入开发\nChane1“包王”全新设计31Bag迷你Size\n时尚代表作31Bag经典再现了〰️\n满足了时髦精的在所期待啦...\n这季推出新Size设计感更乖巧又迷人💡\n软萌的时髦感一下子就击中了🖤\n\n五金:厚镀14K淡金\n皮料:   原厂Bonaudo亮面小羊皮\n尺寸:22*24.5*5.5 cm"},"price":null,"currency":"CNY","moq":1,"category":"chanel-women-bags","status":"active","alibaba_url":null,"images":["https://xcimg.szwego.com/20240430/i1714462108_6703_0.jpg","https://xcimg.szwego.com/20240430/i1714462108_4999_1.jpg","https://xcimg.szwego.com/20240430/i1714462108_9415_2.jpg","https://xcimg.szwego.com/20240430/i1714462108_4407_3.jpg","https://xcimg.szwego.com/20240430/i1714462108_6921_4.jpg","https://xcimg.szwego.com/20240430/i1714462108_4760_5.jpg","https://xcimg.szwego.com/20240430/i1714462108_4500_6.jpg","https://xcimg.szwego.com/20240430/i1714462108_9587_7.jpg","https://xcimg.szwego.com/20240430/i1714462108_9604_8.jpg"],"created_at":"2024-05-03T07:19:26.872Z"},{"id":"item-8fb211b13cff","sku":"_duquq9eCpT9ILh4EIBjQRyX-xK49PdfUjnlnxzw","name_en":"Chanel Women Bags","name_cn":"原厂皮\n小香进口意大利小羊皮【升級版】\n货号:A\n尺寸:w20×h13×d3.5cm\n颜色:淺藍細球紋金色鋼唛","specs":{"source":"wsxcme","sourceId":"_duquq9eCpT9ILh4EIBjQRyX-xK49PdfUjnlnxzw","sourceTagId":47002745,"sourceTagName":"香奈儿/女包","modelNumber":"A","rawTitle":"原厂皮\n小香进口意大利小羊皮【升級版】\n货号:A\n尺寸:w20×h13×d3.5cm\n颜色:淺藍細球紋金色鋼唛"},"price":null,"currency":"CNY","moq":1,"category":"chanel-women-bags","status":"active","alibaba_url":null,"images":["https://xcimg.szwego.com/img/c4e87dad/20250516/i1747400262123_791_0_0.jpg","https://xcimg.szwego.com/img/c4e87dad/20250516/i1747400264811_362_0_1.jpg","https://xcimg.szwego.com/img/c4e87dad/20250516/i1747400262209_9389_0_2.jpg","https://xcimg.szwego.com/img/c4e87dad/20250516/i1747400262105_655_0_3.jpg","https://xcimg.szwego.com/img/c4e87dad/20250516/i1747400264801_6109_0_4.jpg","https://xcimg.szwego.com/img/c4e87dad/20250516/i1747400262160_6460_0_6.jpg","https://xcimg.szwego.com/img/c4e87dad/20250516/i1747400264821_1912_0_7.jpg"],"created_at":"2025-09-09T05:22:54.852Z"},{"id":"item-8f14c9074910","sku":"_duEuEmJr_-s6V6RfvSLSgp-dkbJsVj6v2RgQ1tw","name_en":"Chanel Women Bags","name_cn":"。白金版▪️正品级 包装如图\n全新到货🆕Chane1 24s春夏\n双珍珠方胖子 淡紫色\n专柜售价47200rmb购入开发\n\n✨24s最闪耀的双珍珠口盖包\n链条两大汤圆是好运的降临呀💕\n滑链伸缩调节适合各种身高更方便了\n日常出街时髦感拉满,好美好气质啊\n\n五金:厚镀24k复古金\n皮料:   开料部真品小羊皮\n里皮:Montebello真品牛皮\n尺寸:11.5*17*5 cm","specs":{"source":"wsxcme","sourceId":"_duEuEmJr_-s6V6RfvSLSgp-dkbJsVj6v2RgQ1tw","sourceTagId":47002745,"sourceTagName":"香奈儿/女包","dimensions":{"lengthCm":11.5,"heightCm":17,"widthCm":5},"rawTitle":"。白金版▪️正品级 包装如图\n全新到货🆕Chane1 24s春夏\n双珍珠方胖子 淡紫色\n专柜售价47200rmb购入开发\n\n✨24s最闪耀的双珍珠口盖包\n链条两大汤圆是好运的降临呀💕\n滑链伸缩调节适合各种身高更方便了\n日常出街时髦感拉满,好美好气质啊\n\n五金:厚镀24k复古金\n皮料:   开料部真品小羊皮\n里皮:Montebello真品牛皮\n尺寸:11.5*17*5 cm"},"price":null,"currency":"CNY","moq":1,"category":"chanel-women-bags","status":"active","alibaba_url":null,"images":["https://xcimg.szwego.com/20240430/i1714461177_7576_0.jpg","https://xcimg.szwego.com/20240430/i1714461177_5043_1.jpg","https://xcimg.szwego.com/20240430/i1714461177_5378_2.jpg","https://xcimg.szwego.com/20240430/i1714461177_674_3.jpg","https://xcimg.szwego.com/20240430/i1714461177_7613_4.jpg","https://xcimg.szwego.com/20240430/i1714461177_6973_5.jpg","https://xcimg.szwego.com/20240430/i1714461177_204_6.jpg","https://xcimg.szwego.com/20240430/i1714461177_5168_7.jpg","https://xcimg.szwego.com/20240430/i1714461177_6818_8.jpg"],"created_at":"2024-05-03T07:19:26.868Z"},{"id":"item-8dc95ceadb95","sku":"_d9V9Vqt_lLtZSRq99HF9y1f8GalYUk177XKG7Iw","name_en":"Chanel Women Bags","name_cn":"白金版▪️正品级 包装如图\nChane1 23P春夏系列🍀\n双口袋复古背包 黑色♥ 小号\n专柜售价40600rmb购入开发〰️\n\n一向都是重头戏的复古双肩包ꫛꫀꪝ\n23P这款让人翘首以待的荔枝纹小牛~\n颜值担当属于耐看型,复古程度更是一见倾心♥\n双口袋小书包荔枝牛皮 向来都是最受欢迎的材质。\n易打理更耐造,日常通勤收纳轻松装扮✔️\n\n五金:全钢14K淡金扣\n皮料:Haas中球小牛皮\n尺寸:17.5*16.5*10 CM","specs":{"source":"wsxcme","sourceId":"_d9V9Vqt_lLtZSRq99HF9y1f8GalYUk177XKG7Iw","sourceTagId":47002745,"sourceTagName":"香奈儿/女包","dimensions":{"lengthCm":17.5,"heightCm":16.5,"widthCm":10},"rawTitle":"白金版▪️正品级 包装如图\nChane1 23P春夏系列🍀\n双口袋复古背包 黑色♥ 小号\n专柜售价40600rmb购入开发〰️\n\n一向都是重头戏的复古双肩包ꫛꫀꪝ\n23P这款让人翘首以待的荔枝纹小牛~\n颜值担当属于耐看型,复古程度更是一见倾心♥\n双口袋小书包荔枝牛皮 向来都是最受欢迎的材质。\n易打理更耐造,日常通勤收纳轻松装扮✔️\n\n五金:全钢14K淡金扣\n皮料:Haas中球小牛皮\n尺寸:17.5*16.5*10 CM"},"price":null,"currency":"CNY","moq":1,"category":"chanel-women-bags","status":"active","alibaba_url":null,"images":["https://xcimg.szwego.com/20230319/i1679202770_4271_0.jpg","https://xcimg.szwego.com/20230319/i1679202770_5223_1.jpg","https://xcimg.szwego.com/20230319/i1679202770_4319_2.jpg","https://xcimg.szwego.com/20230319/i1679202770_4469_3.jpg","https://xcimg.szwego.com/20230319/i1679202770_1981_4.jpg","https://xcimg.szwego.com/20230319/i1679202770_6523_5.jpg","https://xcimg.szwego.com/20230319/i1679202770_834_6.jpg","https://xcimg.szwego.com/20230319/i1679202770_7895_7.jpg","https://xcimg.szwego.com/20230319/i1679202770_8010_8.jpg"],"created_at":"2025-06-16T09:47:58.338Z"},{"id":"item-8d4ce63813b0","sku":"_dHrHrsdX-3Ru1eu0C7HKMzT3YGzUK5-WwZT_hsw","name_en":"Chanel Women Bags","name_cn":"香奈儿/女包","specs":{"source":"wsxcme","sourceId":"_dHrHrsdX-3Ru1eu0C7HKMzT3YGzUK5-WwZT_hsw","sourceTagId":47002745,"sourceTagName":"香奈儿/女包","rawTitle":""},"price":null,"currency":"CNY","moq":1,"category":"chanel-women-bags","status":"active","alibaba_url":null,"images":["https://xcimg.szwego.com/img/fbe1a617/20250515/i1747305106545_458_0_0.jpg"],"created_at":"2026-06-29T10:35:34.094Z"},{"id":"item-8d44f39ceb42","sku":"_doSoSlAobT3t_OYLoaUtwta7CZB9viHWSTiKxjA","name_en":"Chanel Women Bags","name_cn":"白金版▪️正品级 包装如图\n全新发售🆕chanel 25s 全新版本\n天猫精灵 hobo流浪包 小号黑色 \n专柜售rmb购入开发〰️\n\n25s hobo新款流浪包ꫛꫀꪝ\n全新版本,链条可以调节\n油蜡皮的材质、非常可观的容量☑️\n很受大家欢迎〰️\n直接绝美到词穷!\n单凭这个包的颜值,每个颜色都可以随便闭眼入!!\nVintage十足,浓浓的复古风!很对味☑️\n本季大爆款,姐妹们冲就对了!!\n\n五金:全钢24k复古金\n皮料:亮面油蜡小牛皮\n尺寸: 19*17*16 cm\n4323","specs":{"source":"wsxcme","sourceId":"_doSoSlAobT3t_OYLoaUtwta7CZB9viHWSTiKxjA","sourceTagId":47002745,"sourceTagName":"香奈儿/女包","dimensions":{"lengthCm":19,"heightCm":17,"widthCm":16},"rawTitle":"白金版▪️正品级 包装如图\n全新发售🆕chanel 25s 全新版本\n天猫精灵 hobo流浪包 小号黑色 \n专柜售rmb购入开发〰️\n\n25s hobo新款流浪包ꫛꫀꪝ\n全新版本,链条可以调节\n油蜡皮的材质、非常可观的容量☑️\n很受大家欢迎〰️\n直接绝美到词穷!\n单凭这个包的颜值,每个颜色都可以随便闭眼入!!\nVintage十足,浓浓的复古风!很对味☑️\n本季大爆款,姐妹们冲就对了!!\n\n五金:全钢24k复古金\n皮料:亮面油蜡小牛皮\n尺寸: 19*17*16 cm\n4323"},"price":null,"currency":"CNY","moq":1,"category":"chanel-women-bags","status":"active","alibaba_url":null,"images":["https://xcimg.szwego.com/imgHD/9d8f4332/20250609/cmp_i1749448678262_8246_0_0.jpg","https://xcimg.szwego.com/imgHD/9d8f4332/20250609/cmp_i1749448679306_5294_0_1.jpg","https://xcimg.szwego.com/imgHD/9d8f4332/20250609/cmp_i1749448679298_6953_0_2.jpg","https://xcimg.szwego.com/imgHD/9d8f4332/20250609/cmp_i1749448679299_8958_0_3.jpg","https://xcimg.szwego.com/imgHD/9d8f4332/20250609/cmp_i1749448678259_7726_0_4.jpg","https://xcimg.szwego.com/imgHD/9d8f4332/20250609/cmp_i1749448678257_508_0_5.jpg","https://xcimg.szwego.com/imgHD/9d8f4332/20250609/cmp_i1749448678259_490_0_6.jpg","https://xcimg.szwego.com/imgHD/9d8f4332/20250609/cmp_i1749448678257_9482_0_7.jpg","https://xcimg.szwego.com/imgHD/9d8f4332/20250609/cmp_i1749448679303_6536_0_8.jpg"],"created_at":"2025-06-16T09:53:32.245Z"},{"id":"item-8c267c1989f3","sku":"_dzHzHPd1Pp5zMT5ZGz5gTH1KLOYJ4IFSBx_CqXg","name_en":"Chanel Women Bags","name_cn":"白金版▪️正品级 包装如图\n全新发售!!️CF系列\n专柜售价58600mb购入开发➠\n\nClassic Flap Small小号 白色\n每年行情都在涨📈\n专柜可遇不可求 一直很难买到\n羊皮质感柔柔糯糯很nice〰️\n这次到达的都是开料部渠道zp皮\n伙伴们大可️闭眼入啦🪄\n好品质值得珍藏,一包背到老都不过时➿\n\n皮料:独家Gaiera zp小羊皮\n里皮:开料部zp内里羊皮\n辅料:意大利进口海绵、托料\n五金:全钢白叻银扣\n尺寸:14.5*23*6cm","specs":{"source":"wsxcme","sourceId":"_dzHzHPd1Pp5zMT5ZGz5gTH1KLOYJ4IFSBx_CqXg","sourceTagId":47002745,"sourceTagName":"香奈儿/女包","dimensions":{"lengthCm":14.5,"heightCm":23,"widthCm":6},"rawTitle":"白金版▪️正品级 包装如图\n全新发售!!️CF系列\n专柜售价58600mb购入开发➠\n\nClassic Flap Small小号 白色\n每年行情都在涨📈\n专柜可遇不可求 一直很难买到\n羊皮质感柔柔糯糯很nice〰️\n这次到达的都是开料部渠道zp皮\n伙伴们大可️闭眼入啦🪄\n好品质值得珍藏,一包背到老都不过时➿\n\n皮料:独家Gaiera zp小羊皮\n里皮:开料部zp内里羊皮\n辅料:意大利进口海绵、托料\n五金:全钢白叻银扣\n尺寸:14.5*23*6cm"},"price":null,"currency":"CNY","moq":1,"category":"chanel-women-bags","status":"active","alibaba_url":null,"images":["https://xcimg.szwego.com/20230412/i1681276428_7221_0.jpg","https://xcimg.szwego.com/20230412/i1681276428_6119_1.jpg","https://xcimg.szwego.com/20230412/i1681276428_4267_2.jpg","https://xcimg.szwego.com/20230412/i1681276428_3907_3.jpg","https://xcimg.szwego.com/20230412/i1681276428_9571_4.jpg","https://xcimg.szwego.com/20230412/i1681276428_4052_5.jpg","https://xcimg.szwego.com/20230412/i1681276428_7231_6.jpg","https://xcimg.szwego.com/20230412/i1681276428_6294_7.jpg","https://xcimg.szwego.com/20230412/i1681276428_7864_8.jpg"],"created_at":"2024-05-01T03:19:54.370Z"},{"id":"item-896735ebe762","sku":"_dnxnxAUqj6rOLOI57AlVQXdmhxxy34QJEJifMzQ","name_en":"Chanel Women Bags","name_cn":"白金版▪️正品级 包装如图\nChane1 25B新品现货 双C扣口盖包\n双C调节扣 mini 粉色\n专柜售价45800rmb购入开发〰️\n\n最新推出#双C链条口盖包mini💙\n具备CF元素造型有着性感迷人的气质\n链条双C调节扣设计很精致很复古~\n绝对是重量级必入收藏款️啦✔️\n\n五金:厚镀24K复古亮金\n皮料:   抛光小羊皮\n尺寸:13*18*7 cm\n5758","specs":{"source":"wsxcme","sourceId":"_dnxnxAUqj6rOLOI57AlVQXdmhxxy34QJEJifMzQ","sourceTagId":47002745,"sourceTagName":"香奈儿/女包","dimensions":{"lengthCm":13,"heightCm":18,"widthCm":7},"rawTitle":"白金版▪️正品级 包装如图\nChane1 25B新品现货 双C扣口盖包\n双C调节扣 mini 粉色\n专柜售价45800rmb购入开发〰️\n\n最新推出#双C链条口盖包mini💙\n具备CF元素造型有着性感迷人的气质\n链条双C调节扣设计很精致很复古~\n绝对是重量级必入收藏款️啦✔️\n\n五金:厚镀24K复古亮金\n皮料:   抛光小羊皮\n尺寸:13*18*7 cm\n5758"},"price":null,"currency":"CNY","moq":1,"category":"chanel-women-bags","status":"active","alibaba_url":null,"images":["https://xcimg.szwego.com/imgHD/9d8f4332/20250824/cmp_i1756014998404_3420_0_0.jpg","https://xcimg.szwego.com/imgHD/9d8f4332/20250824/cmp_i1756014999664_4145_0_1.jpg","https://xcimg.szwego.com/imgHD/9d8f4332/20250824/cmp_i1756014998402_108_0_2.jpg","https://xcimg.szwego.com/imgHD/9d8f4332/20250824/cmp_i1756014999660_4619_0_3.jpg","https://xcimg.szwego.com/imgHD/9d8f4332/20250824/cmp_i1756014796299_7828_0_4.jpg","https://xcimg.szwego.com/imgHD/9d8f4332/20250824/cmp_i1756014796298_1003_0_5.jpg","https://xcimg.szwego.com/imgHD/9d8f4332/20250824/cmp_i1756014798071_3752_0_6.jpg","https://xcimg.szwego.com/imgHD/9d8f4332/20250824/cmp_i1756014999661_8644_0_7.jpg","https://xcimg.szwego.com/imgHD/9d8f4332/20250824/cmp_i1756014798071_4600_0_8.jpg"],"created_at":"2025-09-19T04:32:40.068Z"},{"id":"item-894b277be188","sku":"_dkOkONCPyfg664raS1U-lG2XVCFF4O4vmqwXG4Q","name_en":"Chanel Women Bags","name_cn":"香奈儿/女包","specs":{"source":"wsxcme","sourceId":"_dkOkONCPyfg664raS1U-lG2XVCFF4O4vmqwXG4Q","sourceTagId":47002745,"sourceTagName":"香奈儿/女包","rawTitle":""},"price":null,"currency":"CNY","moq":1,"category":"chanel-women-bags","status":"active","alibaba_url":null,"images":["https://xcimg.szwego.com/img/d0c94e6f/20250811/i1754844177_6290_0.jpg"],"created_at":"2025-09-19T04:32:40.079Z"},{"id":"item-886c8a4703d7","sku":"_dohohE1IVb9zE6ozzuGgmCxwuRZkQyLQTdF875w","name_en":"Chanel Women Bags","name_cn":"香奈儿/女包","specs":{"source":"wsxcme","sourceId":"_dohohE1IVb9zE6ozzuGgmCxwuRZkQyLQTdF875w","sourceTagId":47002745,"sourceTagName":"香奈儿/女包","rawTitle":""},"price":null,"currency":"CNY","moq":1,"category":"chanel-women-bags","status":"active","alibaba_url":null,"images":["https://xcimg.szwego.com/img/d0c94e6f/20250828/i1756387970_5140_0.jpg"],"created_at":"2025-09-19T04:32:40.122Z"},{"id":"item-865c5054907f","sku":"_djDjDHTknA7rK12lejiq9YaJfPlR980QVytMVIg","name_en":"Chanel Women Bags","name_cn":"全新到货❤️\n23K双C手柄口盖包❤️\n又是一款口盖新品。羊皮质地更显质地\n浅金扣色系列,更加高端大气。❤️\n手柄的双c设计,凸显气质派❤️\n尺寸:12×20×6cm\n款号:6689","specs":{"source":"wsxcme","sourceId":"_djDjDHTknA7rK12lejiq9YaJfPlR980QVytMVIg","sourceTagId":47002745,"sourceTagName":"香奈儿/女包","modelNumber":"6689","dimensions":{"lengthCm":12,"heightCm":20,"widthCm":6},"rawTitle":"全新到货❤️\n23K双C手柄口盖包❤️\n又是一款口盖新品。羊皮质地更显质地\n浅金扣色系列,更加高端大气。❤️\n手柄的双c设计,凸显气质派❤️\n尺寸:12×20×6cm\n款号:6689"},"price":null,"currency":"CNY","moq":1,"category":"chanel-women-bags","status":"active","alibaba_url":null,"images":["https://xcimg.szwego.com/img/c4600ee2/20240405/i1712298282_7542_6.jpg","https://xcimg.szwego.com/img/c4600ee2/20240405/i1712298282_3694_5.jpg","https://xcimg.szwego.com/img/c4600ee2/20240405/i1712298282_863_2.jpg","https://xcimg.szwego.com/img/c4600ee2/20240405/i1712298282_6424_3.jpg","https://xcimg.szwego.com/img/c4600ee2/20240405/i1712298282_4608_8.jpg","https://xcimg.szwego.com/img/c4600ee2/20240405/i1712298282_9681_7.jpg","https://xcimg.szwego.com/img/c4600ee2/20240405/i1712298282_7576_0.jpg","https://xcimg.szwego.com/img/c4600ee2/20240405/i1712298282_9565_4.jpg","https://xcimg.szwego.com/img/c4600ee2/20240405/i1712298282_109_1.jpg"],"created_at":"2024-08-04T12:55:15.627Z"},{"id":"item-857a0fd2e8d2","sku":"_dwFwFk5AsbXKxzNRtS2B1k7_-2DNL06yaNN8o6Q","name_en":"Chanel Women Bags","name_cn":"。白金版▪️正品级 包装如图\n全新到货🆕Chane1 24s春夏\n双珍珠大Mini 淡紫色\n专柜售价50500rmb购入开发\n\n✨24s最闪耀的双珍珠口盖包\n链条两大汤圆是好运的降临呀💕\n滑链伸缩调节适合各种身高更方便了\n日常出街时髦感拉满,好美好气质啊\n\n五金:厚镀24k复古金\n皮料:   开料部真品小羊皮\n里皮:Montebello真品牛皮\n尺寸:13*20.5*6.5 cm","specs":{"source":"wsxcme","sourceId":"_dwFwFk5AsbXKxzNRtS2B1k7_-2DNL06yaNN8o6Q","sourceTagId":47002745,"sourceTagName":"香奈儿/女包","dimensions":{"lengthCm":13,"heightCm":20.5,"widthCm":6.5},"rawTitle":"。白金版▪️正品级 包装如图\n全新到货🆕Chane1 24s春夏\n双珍珠大Mini 淡紫色\n专柜售价50500rmb购入开发\n\n✨24s最闪耀的双珍珠口盖包\n链条两大汤圆是好运的降临呀💕\n滑链伸缩调节适合各种身高更方便了\n日常出街时髦感拉满,好美好气质啊\n\n五金:厚镀24k复古金\n皮料:   开料部真品小羊皮\n里皮:Montebello真品牛皮\n尺寸:13*20.5*6.5 cm"},"price":null,"currency":"CNY","moq":1,"category":"chanel-women-bags","status":"active","alibaba_url":null,"images":["https://xcimg.szwego.com/20240430/i1714461016_3512_0.jpg","https://xcimg.szwego.com/20240430/i1714461016_231_1.jpg","https://xcimg.szwego.com/20240430/i1714461016_6524_2.jpg","https://xcimg.szwego.com/20240430/i1714461016_8211_3.jpg","https://xcimg.szwego.com/20240430/i1714461016_2528_4.jpg","https://xcimg.szwego.com/20240430/i1714461016_8394_5.jpg","https://xcimg.szwego.com/20240430/i1714461016_6737_6.jpg","https://xcimg.szwego.com/20240430/i1714461016_9183_7.jpg","https://xcimg.szwego.com/20240430/i1714461016_2519_8.jpg"],"created_at":"2024-05-03T07:19:26.867Z"},{"id":"item-84e47eaac92e","sku":"_dyLyLLm6dw8D8eb4VeFQbVhr7FA7UymfQ2vmdkw","name_en":"Chanel Women Bags","name_cn":"白金版▪️正品级 包装如图\n全新到货🆕Chane1 25B秋冬\n铆钉邮差双肩包黑色\n专柜售价48500rmb购入开发~\n\n火热上线🔥铆钉双肩包\n当菱格纹的温柔撞上铆钉的硬朗,\n黑金配色里突然有了冲突的美感~\n内饰多隔层设计,卡槽、拉链零钱袋\n暗插袋应有尽有,实用性超标啊🪄\n\n五金:厚镀24k复古亮金\n皮料:Gaiera\"方框标\"小羊皮\n尺寸:18*23*6cm\n5704","specs":{"source":"wsxcme","sourceId":"_dyLyLLm6dw8D8eb4VeFQbVhr7FA7UymfQ2vmdkw","sourceTagId":47002745,"sourceTagName":"香奈儿/女包","dimensions":{"lengthCm":18,"heightCm":23,"widthCm":6},"rawTitle":"白金版▪️正品级 包装如图\n全新到货🆕Chane1 25B秋冬\n铆钉邮差双肩包黑色\n专柜售价48500rmb购入开发~\n\n火热上线🔥铆钉双肩包\n当菱格纹的温柔撞上铆钉的硬朗,\n黑金配色里突然有了冲突的美感~\n内饰多隔层设计,卡槽、拉链零钱袋\n暗插袋应有尽有,实用性超标啊🪄\n\n五金:厚镀24k复古亮金\n皮料:Gaiera\"方框标\"小羊皮\n尺寸:18*23*6cm\n5704"},"price":null,"currency":"CNY","moq":1,"category":"chanel-women-bags","status":"active","alibaba_url":null,"images":["https://xcimg.szwego.com/imgHD/9d8f4332/20250824/cmp_i1756028476290_5616_0_0.jpg","https://xcimg.szwego.com/imgHD/9d8f4332/20250824/cmp_i1756028473703_7328_0_1.jpg","https://xcimg.szwego.com/imgHD/9d8f4332/20250824/cmp_i1756028473703_1279_0_2.jpg","https://xcimg.szwego.com/imgHD/9d8f4332/20250824/cmp_i1756028476289_4100_0_3.jpg","https://xcimg.szwego.com/imgHD/9d8f4332/20250824/cmp_i1756028473703_4823_0_4.jpg","https://xcimg.szwego.com/imgHD/9d8f4332/20250824/cmp_i1756028476284_3319_0_5.jpg","https://xcimg.szwego.com/imgHD/9d8f4332/20250824/cmp_i1756028473703_2225_0_6.jpg","https://xcimg.szwego.com/imgHD/9d8f4332/20250824/cmp_i1756028473703_6988_0_7.jpg","https://xcimg.szwego.com/imgHD/9d8f4332/20250824/cmp_i1756028476288_2159_0_8.jpg"],"created_at":"2025-09-19T04:32:40.074Z"},{"id":"item-84818bad66c6","sku":"_djGjGJz038L7mFZ-b3KKT7nllaPhlv5VNY1fzmA","name_en":"Chanel Women Bags","name_cn":"白金版▪️正品级 包装如图\nChane1 23c早春系列🌿\n珐琅黑白格球 Mini方胖子黑色 \n专柜售rmb 购入开发~\n\n23c早春足球棋盘方胖子⚽️\n这款mini 真的爱了❕适合运动风格\n可调节珐琅金属球不仅做工一贯精美\n而且赋予了包包很多的背法〰️\n可️斜背 单肩 手拎 腋下包 看起来小,\n容量用起来蛮大的❕\n这季设计理念就是F1胜利的旗帜,\n感觉瞬间比经典款年轻时髦多了。\n黑色很百搭 一年四季可搭配 可盐可甜 谁背谁好看〰️\n\n五金:全钢14k淡金扣/珐琅黑白格\n皮料:独家开料部zp小羊皮\n尺寸: 18*13 *7 cm","specs":{"source":"wsxcme","sourceId":"_djGjGJz038L7mFZ-b3KKT7nllaPhlv5VNY1fzmA","sourceTagId":47002745,"sourceTagName":"香奈儿/女包","dimensions":{"lengthCm":18,"heightCm":13,"widthCm":7},"rawTitle":"白金版▪️正品级 包装如图\nChane1 23c早春系列🌿\n珐琅黑白格球 Mini方胖子黑色 \n专柜售rmb 购入开发~\n\n23c早春足球棋盘方胖子⚽️\n这款mini 真的爱了❕适合运动风格\n可调节珐琅金属球不仅做工一贯精美\n而且赋予了包包很多的背法〰️\n可️斜背 单肩 手拎 腋下包 看起来小,\n容量用起来蛮大的❕\n这季设计理念就是F1胜利的旗帜,\n感觉瞬间比经典款年轻时髦多了。\n黑色很百搭 一年四季可搭配 可盐可甜 谁背谁好看〰️\n\n五金:全钢14k淡金扣/珐琅黑白格\n皮料:独家开料部zp小羊皮\n尺寸: 18*13 *7 cm"},"price":null,"currency":"CNY","moq":1,"category":"chanel-women-bags","status":"active","alibaba_url":null,"images":["https://xcimg.szwego.com/20230316/i1678944001_9712_0.jpg","https://xcimg.szwego.com/20230316/i1678944001_8251_1.jpg","https://xcimg.szwego.com/20230316/i1678944001_3758_2.jpg","https://xcimg.szwego.com/20230316/i1678944001_3507_3.jpg","https://xcimg.szwego.com/20230316/i1678944001_7218_4.jpg","https://xcimg.szwego.com/20230316/i1678944001_7840_5.jpg","https://xcimg.szwego.com/20230316/i1678944001_8808_6.jpg","https://xcimg.szwego.com/20230316/i1678944001_2164_7.jpg","https://xcimg.szwego.com/20230316/i1678944001_1832_8.jpg"],"created_at":"2024-05-01T03:19:54.358Z"},{"id":"item-82992ae72574","sku":"_d-O-Ohj0RlBK_otDtNHmWRVwSWwWodJOkcVDKBw","name_en":"Chanel Women Bags","name_cn":"香奈儿/女包","specs":{"source":"wsxcme","sourceId":"_d-O-Ohj0RlBK_otDtNHmWRVwSWwWodJOkcVDKBw","sourceTagId":47002745,"sourceTagName":"香奈儿/女包","rawTitle":""},"price":null,"currency":"CNY","moq":1,"category":"chanel-women-bags","status":"active","alibaba_url":null,"images":["https://xcimg.szwego.com/img/d0c94e6f/20250902/i1756823936_2245_0.jpg"],"created_at":"2025-09-19T04:25:53.916Z"},{"id":"item-820dd4a5a69c","sku":"_d0303JWJmwu64cbPWoBU1qfj2QV84bFvmLHsUdg","name_en":"Chanel Women Bags","name_cn":"白金版▪️正品级 包装如图\nChane1 23S春夏系列\n山茶花调节扣大mini 浅蓝\n专柜售价41300rmb购入开发〰️\n\n23s山茶花调节扣链条口盖包\n具备cf的元素造型有着性感迷人的气质。\n设计方面更加优雅大方啦❕\n可️腋下、斜挎、单肩一包多用,很受欢迎哦👏🏻\n\n五金:全铜24K复古金\n皮料:   开料部zp小羊皮\n尺寸:13*20*7 cm","specs":{"source":"wsxcme","sourceId":"_d0303JWJmwu64cbPWoBU1qfj2QV84bFvmLHsUdg","sourceTagId":47002745,"sourceTagName":"香奈儿/女包","dimensions":{"lengthCm":13,"heightCm":20,"widthCm":7},"rawTitle":"白金版▪️正品级 包装如图\nChane1 23S春夏系列\n山茶花调节扣大mini 浅蓝\n专柜售价41300rmb购入开发〰️\n\n23s山茶花调节扣链条口盖包\n具备cf的元素造型有着性感迷人的气质。\n设计方面更加优雅大方啦❕\n可️腋下、斜挎、单肩一包多用,很受欢迎哦👏🏻\n\n五金:全铜24K复古金\n皮料:   开料部zp小羊皮\n尺寸:13*20*7 cm"},"price":null,"currency":"CNY","moq":1,"category":"chanel-women-bags","status":"active","alibaba_url":null,"images":["https://xcimg.szwego.com/20230529/i1685340551_9267_0.jpg","https://xcimg.szwego.com/20230529/i1685340551_5280_1.jpg","https://xcimg.szwego.com/20230529/i1685340551_3557_2.jpg","https://xcimg.szwego.com/20230529/i1685340551_8154_3.jpg","https://xcimg.szwego.com/20230529/i1685340551_5833_4.jpg","https://xcimg.szwego.com/20230529/i1685340551_5478_5.jpg","https://xcimg.szwego.com/20230529/i1685340551_8906_6.jpg","https://xcimg.szwego.com/20230529/i1685340551_5682_7.jpg","https://xcimg.szwego.com/20230529/i1685340551_7587_8.jpg"],"created_at":"2024-05-01T03:19:54.377Z"},{"id":"item-809b2522871d","sku":"_dp3p3n7HwrKc9q7VD5ZQbdl-Oo_HLxx3dZjED_g","name_en":"Chanel Women Bags","name_cn":"香奈儿/女包","specs":{"source":"wsxcme","sourceId":"_dp3p3n7HwrKc9q7VD5ZQbdl-Oo_HLxx3dZjED_g","sourceTagId":47002745,"sourceTagName":"香奈儿/女包","rawTitle":""},"price":null,"currency":"CNY","moq":1,"category":"chanel-women-bags","status":"active","alibaba_url":null,"images":["https://xcimg.szwego.com/img/d0c94e6f/20250911/i1757599357_9362_0.jpg"],"created_at":"2025-09-19T04:32:40.140Z"},{"id":"item-7f7dda74e69b","sku":"_dq8q8y7weTCjZBk28Plz0o_32bfbBFJ73pOAIOg","name_en":"Chanel Women Bags","name_cn":"白金版▪️正品级 包装如图\n现货发售🌱皮穿链手柄kelly手机包\nChanel 23P|白色♥zp级 中号\n\n这颗绝对是黑马\n第一眼看到就深深爱上💕\n颜值不必说 直接闭眼入不会错\n很好打理 也是百搭型\n实现了单背斜挎腋下背手拎的效果📷\n简直就是福音〰️\n很精致 值得珍藏🔝\n\n五金:全钢18K浅金\n皮料:独家Haas小牛皮\n尺寸:14.5*11.5*5.5 cm","specs":{"source":"wsxcme","sourceId":"_dq8q8y7weTCjZBk28Plz0o_32bfbBFJ73pOAIOg","sourceTagId":47002745,"sourceTagName":"香奈儿/女包","dimensions":{"lengthCm":14.5,"heightCm":11.5,"widthCm":5.5},"rawTitle":"白金版▪️正品级 包装如图\n现货发售🌱皮穿链手柄kelly手机包\nChanel 23P|白色♥zp级 中号\n\n这颗绝对是黑马\n第一眼看到就深深爱上💕\n颜值不必说 直接闭眼入不会错\n很好打理 也是百搭型\n实现了单背斜挎腋下背手拎的效果📷\n简直就是福音〰️\n很精致 值得珍藏🔝\n\n五金:全钢18K浅金\n皮料:独家Haas小牛皮\n尺寸:14.5*11.5*5.5 cm"},"price":null,"currency":"CNY","moq":1,"category":"chanel-women-bags","status":"active","alibaba_url":null,"images":["https://xcimg.szwego.com/20230309/i1678339800_2343_0.jpg","https://xcimg.szwego.com/20230309/i1678339800_2866_1.jpg","https://xcimg.szwego.com/20230309/i1678339800_6621_2.jpg","https://xcimg.szwego.com/20230309/i1678339800_2430_3.jpg","https://xcimg.szwego.com/20230309/i1678339800_3701_4.jpg","https://xcimg.szwego.com/20230309/i1678339800_2637_5.jpg","https://xcimg.szwego.com/20230309/i1678339800_574_6.jpg","https://xcimg.szwego.com/20230309/i1678339800_7653_7.jpg","https://xcimg.szwego.com/20230309/i1678339800_8573_8.jpg"],"created_at":"2024-05-01T03:19:54.356Z"},{"id":"item-7cdf2b71ac94","sku":"_d7_7_1P1iJ5qZZhQL8qw858R-yZXBtPoucb_DoA","name_en":"Chanel Women Bags","name_cn":"香奈儿/女包","specs":{"source":"wsxcme","sourceId":"_d7_7_1P1iJ5qZZhQL8qw858R-yZXBtPoucb_DoA","sourceTagId":47002745,"sourceTagName":"香奈儿/女包","rawTitle":""},"price":null,"currency":"CNY","moq":1,"category":"chanel-women-bags","status":"active","alibaba_url":null,"images":["https://xcimg.szwego.com/img/d0c94e6f/20250811/i1754844037_511_0.jpg"],"created_at":"2025-09-19T04:32:40.077Z"},{"id":"item-7ba0a7b198fa","sku":"_dbhbh0T5xyey39eLcbYkusLJTW074118JH7KNug","name_en":"Chanel Women Bags","name_cn":"香奈儿/女包","specs":{"source":"wsxcme","sourceId":"_dbhbh0T5xyey39eLcbYkusLJTW074118JH7KNug","sourceTagId":47002745,"sourceTagName":"香奈儿/女包","rawTitle":""},"price":null,"currency":"CNY","moq":1,"category":"chanel-women-bags","status":"active","alibaba_url":null,"images":["https://xcimg.szwego.com/img/d0c94e6f/20250823/i1755879341_2128_0.jpg"],"created_at":"2025-09-19T04:32:40.084Z"},{"id":"item-7abacf4db89b","sku":"_dmHmH1Dpw_n8UGBJMC7srao5Lkmtwv2-fY32NdQ","name_en":"Chanel Women Bags","name_cn":"香奈儿/女包","specs":{"source":"wsxcme","sourceId":"_dmHmH1Dpw_n8UGBJMC7srao5Lkmtwv2-fY32NdQ","sourceTagId":47002745,"sourceTagName":"香奈儿/女包","rawTitle":""},"price":null,"currency":"CNY","moq":1,"category":"chanel-women-bags","status":"active","alibaba_url":null,"images":["https://xcimg.szwego.com/img/d0c94e6f/20250823/i1755959657_91_0.jpg"],"created_at":"2025-09-19T04:32:40.113Z"},{"id":"item-796aa7659f4c","sku":"_dbRbR9txCSIvshEig_wuaNXcfCqPeaUt7-7gdkA","name_en":"Chanel Women Bags","name_cn":"原厂皮\n🌟新版本更新⭐️CHANEL 24C双金球盒子\n香奈儿这季新品双金球我真的可\n一眼就爱上了这个包包、经典黑金,两颗金珠,\n链条可调节长短 Sa有货赶紧冲这个包包我更喜欢手拎斜挎和单肩也可容量也可调节 。                                款号:66063  黑色                                           尺寸:17cm                                      \n配包装:","specs":{"source":"wsxcme","sourceId":"_dbRbR9txCSIvshEig_wuaNXcfCqPeaUt7-7gdkA","sourceTagId":47002745,"sourceTagName":"香奈儿/女包","modelNumber":"66063  黑色                                           尺寸:17cm","rawTitle":"原厂皮\n🌟新版本更新⭐️CHANEL 24C双金球盒子\n香奈儿这季新品双金球我真的可\n一眼就爱上了这个包包、经典黑金,两颗金珠,\n链条可调节长短 Sa有货赶紧冲这个包包我更喜欢手拎斜挎和单肩也可容量也可调节 。                                款号:66063  黑色                                           尺寸:17cm                                      \n配包装:"},"price":null,"currency":"CNY","moq":1,"category":"chanel-women-bags","status":"active","alibaba_url":null,"images":["https://xcimg.szwego.com/img/fbe1a617/20250603/i1748961082528_2264_0_0.jpg","https://xcimg.szwego.com/img/fbe1a617/20250603/i1748961080951_9883_0_1.jpg","https://xcimg.szwego.com/img/fbe1a617/20250603/i1748961081011_3667_0_2.jpg","https://xcimg.szwego.com/img/fbe1a617/20250603/i1748961081002_4234_0_3.jpg","https://xcimg.szwego.com/img/fbe1a617/20250603/i1748961082263_2203_0_4.jpg","https://xcimg.szwego.com/img/fbe1a617/20250603/i1748961082494_6564_0_5.jpg","https://xcimg.szwego.com/img/fbe1a617/20250603/i1748961080851_7606_0_6.jpg","https://xcimg.szwego.com/img/fbe1a617/20250603/i1748961080783_8845_0_7.jpg","https://xcimg.szwego.com/img/fbe1a617/20250603/i1748961082406_5101_0_8.jpg"],"created_at":"2025-09-09T05:20:40.195Z"}],"page":266,"pageSize":24,"total":10075,"totalPages":420}
