{"items":[{"id":"item-ba8ee73b6d17","sku":"_daOaOkra4Qh__2Ml7mAzd1Kppm3eed4D1H077Tw","name_en":"M81413 蓝花丝印 本款口袋钱夹以漂白丝巾印花为背景,烘托经典 Monogram 图案。紧凑构型设有卡片夹层和隔层,可在容纳信用卡、现金和纸质单据的同时置于多数口袋。尺寸:8 x 11 x 1 厘米","name_cn":"M81413 蓝花丝印 本款口袋钱夹以漂白丝巾印花为背景,烘托经典 Monogram 图案。紧凑构型设有卡片夹层和隔层,可在容纳信用卡、现金和纸质单据的同时置于多数口袋。尺寸:8 x 11 x 1 厘米","specs":{"source":"wsxcme","sourceId":"_daOaOkra4Qh__2Ml7mAzd1Kppm3eed4D1H077Tw","sourceTagId":47002663,"sourceTagName":"长短款钱包","dimensions":{"lengthCm":8,"heightCm":11,"widthCm":1},"rawTitle":"M81413 蓝花丝印 本款口袋钱夹以漂白丝巾印花为背景,烘托经典 Monogram 图案。紧凑构型设有卡片夹层和隔层,可在容纳信用卡、现金和纸质单据的同时置于多数口袋。尺寸:8 x 11 x 1 厘米"},"price":null,"currency":"CNY","moq":1,"category":"women-wallets","status":"active","alibaba_url":null,"images":["https://xcimg.szwego.com/20220630/i1656602617_1301_0.jpg","https://xcimg.szwego.com/20220630/i1656602617_4403_1.jpg","https://xcimg.szwego.com/20220630/i1656602617_6320_2.jpg","https://xcimg.szwego.com/20220630/i1656602617_9827_3.jpg","https://xcimg.szwego.com/20220630/i1656602617_5394_4.jpg","https://xcimg.szwego.com/20220630/i1656602617_4091_5.jpg","https://xcimg.szwego.com/20220630/i1656602617_6551_6.jpg","https://xcimg.szwego.com/20220630/i1656602617_1239_7.jpg","https://xcimg.szwego.com/20220630/i1656602617_2403_8.jpg"],"created_at":"2024-05-08T09:49:54.852Z"},{"id":"item-05b719bf921d","sku":"_dqMqMJa78YIMypafDcXPTII5eReY1Od8lMm-wCw","name_en":"M81485 Papillon Trunk 手袋的法棍式构型脱胎于路易威登档案,其 S-lock 钩扣和铆钉可在传统硬箱上溯源。Monogram 帆布搭配皮革饰边,圆形拉链零钱包恰似网球形象,点明 LV Match 胶囊系列身份。尺寸:19.0 x 9.0 x 9.0 厘米 (长 x 高 x 宽)","name_cn":"M81485 Papillon Trunk 手袋的法棍式构型脱胎于路易威登档案,其 S-lock 钩扣和铆钉可在传统硬箱上溯源。Monogram 帆布搭配皮革饰边,圆形拉链零钱包恰似网球形象,点明 LV Match 胶囊系列身份。尺寸:19.0 x 9.0 x 9.0 厘米 (长 x 高 x 宽)","specs":{"source":"wsxcme","sourceId":"_dqMqMJa78YIMypafDcXPTII5eReY1Od8lMm-wCw","sourceTagId":47002622,"sourceTagName":"LV/女包","dimensions":{"lengthCm":19,"heightCm":9,"widthCm":9},"rawTitle":"M81485 Papillon Trunk 手袋的法棍式构型脱胎于路易威登档案,其 S-lock 钩扣和铆钉可在传统硬箱上溯源。Monogram 帆布搭配皮革饰边,圆形拉链零钱包恰似网球形象,点明 LV Match 胶囊系列身份。尺寸:19.0 x 9.0 x 9.0 厘米 (长 x 高 x 宽)"},"price":null,"currency":"CNY","moq":1,"category":"lv-women-bags","status":"active","alibaba_url":null,"images":["https://xcimg.szwego.com/20220601/i1654053617_9923_0.jpg","https://xcimg.szwego.com/20220601/i1654053617_8741_1.jpg","https://xcimg.szwego.com/20220601/i1654053617_6032_2.jpg","https://xcimg.szwego.com/20220601/i1654053617_1176_3.jpg","https://xcimg.szwego.com/20220601/i1654053617_4393_4.jpg","https://xcimg.szwego.com/20220601/i1654053617_7559_5.jpg","https://xcimg.szwego.com/20220601/i1654053617_7372_6.jpg","https://xcimg.szwego.com/20220601/i1654053617_7035_7.jpg","https://xcimg.szwego.com/20220601/i1654053617_7437_8.jpg"],"created_at":"2025-01-20T11:33:54.530Z"},{"id":"item-d90b6e83b3dd","sku":"_dw1w1zTaW3gF8_bvOIk2IPMCkYDnJBL08bHX8yQ","name_en":"M81489 Nano Bucket 手袋出自 LV Match 系列,宣告世界著名网球赛事的灵感启发。经典 Monogram 帆布塑造袖珍水桶包,可调节手柄和可拆卸并调节的皮革肩带恰似球场标线,内置链条包可稳妥收纳贵重物品。尺寸:13.0 x 17.0 x 9.0 厘米 (长 x 高 x 宽)","name_cn":"M81489 Nano Bucket 手袋出自 LV Match 系列,宣告世界著名网球赛事的灵感启发。经典 Monogram 帆布塑造袖珍水桶包,可调节手柄和可拆卸并调节的皮革肩带恰似球场标线,内置链条包可稳妥收纳贵重物品。尺寸:13.0 x 17.0 x 9.0 厘米 (长 x 高 x 宽)","specs":{"source":"wsxcme","sourceId":"_dw1w1zTaW3gF8_bvOIk2IPMCkYDnJBL08bHX8yQ","sourceTagId":47002622,"sourceTagName":"LV/女包","dimensions":{"lengthCm":13,"heightCm":17,"widthCm":9},"rawTitle":"M81489 Nano Bucket 手袋出自 LV Match 系列,宣告世界著名网球赛事的灵感启发。经典 Monogram 帆布塑造袖珍水桶包,可调节手柄和可拆卸并调节的皮革肩带恰似球场标线,内置链条包可稳妥收纳贵重物品。尺寸:13.0 x 17.0 x 9.0 厘米 (长 x 高 x 宽)"},"price":null,"currency":"CNY","moq":1,"category":"lv-women-bags","status":"active","alibaba_url":null,"images":["https://xcimg.szwego.com/20220523/i1653291901_3867_0.jpg","https://xcimg.szwego.com/20220523/i1653291901_4406_1.jpg","https://xcimg.szwego.com/20220523/i1653291901_457_2.jpg","https://xcimg.szwego.com/20220523/i1653291901_8979_3.jpg","https://xcimg.szwego.com/20220523/i1653291901_6088_4.jpg","https://xcimg.szwego.com/20220523/i1653291901_1633_5.jpg","https://xcimg.szwego.com/20220523/i1653291901_4723_6.jpg","https://xcimg.szwego.com/20220523/i1653291901_1582_7.jpg","https://xcimg.szwego.com/20220523/i1653291901_877_8.jpg"],"created_at":"2025-01-20T11:34:07.819Z"},{"id":"item-205235e618b7","sku":"_dLBLBh62z45LBmtnIBUqjUwWuEhWQydz7aPvsgQ","name_en":"M81520!黑色!采用头层牛皮制作!女士零钱包卡包 小巧玲珑却极为实用,此款多彩信封式零钱包是现代女性都市生活中的完美伴侣。身材小巧,轻松收入包袋甚至衣袋之中。尺寸:11×8cm。","name_cn":"M81520!黑色!采用头层牛皮制作!女士零钱包卡包 小巧玲珑却极为实用,此款多彩信封式零钱包是现代女性都市生活中的完美伴侣。身材小巧,轻松收入包袋甚至衣袋之中。尺寸:11×8cm。","specs":{"source":"wsxcme","sourceId":"_dLBLBh62z45LBmtnIBUqjUwWuEhWQydz7aPvsgQ","sourceTagId":47002622,"sourceTagName":"LV/女包","rawTitle":"M81520!黑色!采用头层牛皮制作!女士零钱包卡包 小巧玲珑却极为实用,此款多彩信封式零钱包是现代女性都市生活中的完美伴侣。身材小巧,轻松收入包袋甚至衣袋之中。尺寸:11×8cm。"},"price":null,"currency":"CNY","moq":1,"category":"lv-women-bags","status":"active","alibaba_url":null,"images":["https://xcimg.szwego.com/20240427/i1714164103_9446_0.jpg","https://xcimg.szwego.com/20240427/i1714164103_2398_1.jpg","https://xcimg.szwego.com/20240427/i1714164103_2987_2.jpg","https://xcimg.szwego.com/20240427/i1714164103_5222_3.jpg","https://xcimg.szwego.com/20240427/i1714164103_1052_4.jpg","https://xcimg.szwego.com/20240427/i1714164103_6643_5.jpg","https://xcimg.szwego.com/20240427/i1714164103_1641_6.jpg","https://xcimg.szwego.com/20240427/i1714164103_1955_7.jpg","https://xcimg.szwego.com/20240427/i1714164103_7191_8.jpg"],"created_at":"2024-05-01T03:25:57.641Z"},{"id":"item-205235e618b7","sku":"_dLBLBh62z45LBmtnIBUqjUwWuEhWQydz7aPvsgQ","name_en":"M81520!黑色!采用头层牛皮制作!女士零钱包卡包 小巧玲珑却极为实用,此款多彩信封式零钱包是现代女性都市生活中的完美伴侣。身材小巧,轻松收入包袋甚至衣袋之中。尺寸:11×8cm。","name_cn":"M81520!黑色!采用头层牛皮制作!女士零钱包卡包 小巧玲珑却极为实用,此款多彩信封式零钱包是现代女性都市生活中的完美伴侣。身材小巧,轻松收入包袋甚至衣袋之中。尺寸:11×8cm。","specs":{"source":"wsxcme","sourceId":"_dLBLBh62z45LBmtnIBUqjUwWuEhWQydz7aPvsgQ","sourceTagId":47002663,"sourceTagName":"长短款钱包","rawTitle":"M81520!黑色!采用头层牛皮制作!女士零钱包卡包 小巧玲珑却极为实用,此款多彩信封式零钱包是现代女性都市生活中的完美伴侣。身材小巧,轻松收入包袋甚至衣袋之中。尺寸:11×8cm。"},"price":null,"currency":"CNY","moq":1,"category":"women-wallets","status":"active","alibaba_url":null,"images":["https://xcimg.szwego.com/20240427/i1714164103_9446_0.jpg","https://xcimg.szwego.com/20240427/i1714164103_2398_1.jpg","https://xcimg.szwego.com/20240427/i1714164103_2987_2.jpg","https://xcimg.szwego.com/20240427/i1714164103_5222_3.jpg","https://xcimg.szwego.com/20240427/i1714164103_1052_4.jpg","https://xcimg.szwego.com/20240427/i1714164103_6643_5.jpg","https://xcimg.szwego.com/20240427/i1714164103_1641_6.jpg","https://xcimg.szwego.com/20240427/i1714164103_1955_7.jpg","https://xcimg.szwego.com/20240427/i1714164103_7191_8.jpg"],"created_at":"2024-05-01T03:25:57.641Z"},{"id":"item-7b519333f017","sku":"_dtAtAvTj6lzauB-2d3LoaILGhfmSqQJfPeo4TJg","name_en":"M81520!枚红色!采用头层牛皮制作!女士零钱包卡包 小巧玲珑却极为实用,此款多彩信封式零钱包是现代女性都市生活中的完美伴侣。身材小巧,轻松收入包袋甚至衣袋之中。尺寸:11×8cm。","name_cn":"M81520!枚红色!采用头层牛皮制作!女士零钱包卡包 小巧玲珑却极为实用,此款多彩信封式零钱包是现代女性都市生活中的完美伴侣。身材小巧,轻松收入包袋甚至衣袋之中。尺寸:11×8cm。","specs":{"source":"wsxcme","sourceId":"_dtAtAvTj6lzauB-2d3LoaILGhfmSqQJfPeo4TJg","sourceTagId":47002622,"sourceTagName":"LV/女包","rawTitle":"M81520!枚红色!采用头层牛皮制作!女士零钱包卡包 小巧玲珑却极为实用,此款多彩信封式零钱包是现代女性都市生活中的完美伴侣。身材小巧,轻松收入包袋甚至衣袋之中。尺寸:11×8cm。"},"price":null,"currency":"CNY","moq":1,"category":"lv-women-bags","status":"active","alibaba_url":null,"images":["https://xcimg.szwego.com/20240427/i1714164191_5402_0.jpg","https://xcimg.szwego.com/20240427/i1714164191_8219_1.jpg","https://xcimg.szwego.com/20240427/i1714164191_438_2.jpg","https://xcimg.szwego.com/20240427/i1714164191_2649_3.jpg","https://xcimg.szwego.com/20240427/i1714164191_485_4.jpg","https://xcimg.szwego.com/20240427/i1714164191_8893_5.jpg","https://xcimg.szwego.com/20240427/i1714164191_1084_6.jpg","https://xcimg.szwego.com/20240427/i1714164191_7017_7.jpg","https://xcimg.szwego.com/20240427/i1714164191_2376_8.jpg"],"created_at":"2024-05-01T03:25:57.644Z"},{"id":"item-7b519333f017","sku":"_dtAtAvTj6lzauB-2d3LoaILGhfmSqQJfPeo4TJg","name_en":"M81520!枚红色!采用头层牛皮制作!女士零钱包卡包 小巧玲珑却极为实用,此款多彩信封式零钱包是现代女性都市生活中的完美伴侣。身材小巧,轻松收入包袋甚至衣袋之中。尺寸:11×8cm。","name_cn":"M81520!枚红色!采用头层牛皮制作!女士零钱包卡包 小巧玲珑却极为实用,此款多彩信封式零钱包是现代女性都市生活中的完美伴侣。身材小巧,轻松收入包袋甚至衣袋之中。尺寸:11×8cm。","specs":{"source":"wsxcme","sourceId":"_dtAtAvTj6lzauB-2d3LoaILGhfmSqQJfPeo4TJg","sourceTagId":47002663,"sourceTagName":"长短款钱包","rawTitle":"M81520!枚红色!采用头层牛皮制作!女士零钱包卡包 小巧玲珑却极为实用,此款多彩信封式零钱包是现代女性都市生活中的完美伴侣。身材小巧,轻松收入包袋甚至衣袋之中。尺寸:11×8cm。"},"price":null,"currency":"CNY","moq":1,"category":"women-wallets","status":"active","alibaba_url":null,"images":["https://xcimg.szwego.com/20240427/i1714164191_5402_0.jpg","https://xcimg.szwego.com/20240427/i1714164191_8219_1.jpg","https://xcimg.szwego.com/20240427/i1714164191_438_2.jpg","https://xcimg.szwego.com/20240427/i1714164191_2649_3.jpg","https://xcimg.szwego.com/20240427/i1714164191_485_4.jpg","https://xcimg.szwego.com/20240427/i1714164191_8893_5.jpg","https://xcimg.szwego.com/20240427/i1714164191_1084_6.jpg","https://xcimg.szwego.com/20240427/i1714164191_7017_7.jpg","https://xcimg.szwego.com/20240427/i1714164191_2376_8.jpg"],"created_at":"2024-05-01T03:25:57.644Z"},{"id":"item-422a651957d2","sku":"_dJjJjZqQ7eR-9r3YEAt91lLK_Hbr9DK6hS8sGbQ","name_en":"M81520!奶白色!采用头层牛皮制作!女士零钱包卡包 小巧玲珑却极为实用,此款多彩信封式零钱包是现代女性都市生活中的完美伴侣。身材小巧,轻松收入包袋甚至衣袋之中。尺寸:11×8cm。","name_cn":"M81520!奶白色!采用头层牛皮制作!女士零钱包卡包 小巧玲珑却极为实用,此款多彩信封式零钱包是现代女性都市生活中的完美伴侣。身材小巧,轻松收入包袋甚至衣袋之中。尺寸:11×8cm。","specs":{"source":"wsxcme","sourceId":"_dJjJjZqQ7eR-9r3YEAt91lLK_Hbr9DK6hS8sGbQ","sourceTagId":47002622,"sourceTagName":"LV/女包","rawTitle":"M81520!奶白色!采用头层牛皮制作!女士零钱包卡包 小巧玲珑却极为实用,此款多彩信封式零钱包是现代女性都市生活中的完美伴侣。身材小巧,轻松收入包袋甚至衣袋之中。尺寸:11×8cm。"},"price":null,"currency":"CNY","moq":1,"category":"lv-women-bags","status":"active","alibaba_url":null,"images":["https://xcimg.szwego.com/20240427/i1714164161_1985_0.jpg","https://xcimg.szwego.com/20240427/i1714164161_2072_1.jpg","https://xcimg.szwego.com/20240427/i1714164161_3520_2.jpg","https://xcimg.szwego.com/20240427/i1714164161_7607_3.jpg","https://xcimg.szwego.com/20240427/i1714164161_2_4.jpg","https://xcimg.szwego.com/20240427/i1714164161_7146_5.jpg","https://xcimg.szwego.com/20240427/i1714164161_9417_6.jpg","https://xcimg.szwego.com/20240427/i1714164161_5274_7.jpg","https://xcimg.szwego.com/20240427/i1714164161_6881_8.jpg"],"created_at":"2024-05-01T03:25:57.643Z"},{"id":"item-422a651957d2","sku":"_dJjJjZqQ7eR-9r3YEAt91lLK_Hbr9DK6hS8sGbQ","name_en":"M81520!奶白色!采用头层牛皮制作!女士零钱包卡包 小巧玲珑却极为实用,此款多彩信封式零钱包是现代女性都市生活中的完美伴侣。身材小巧,轻松收入包袋甚至衣袋之中。尺寸:11×8cm。","name_cn":"M81520!奶白色!采用头层牛皮制作!女士零钱包卡包 小巧玲珑却极为实用,此款多彩信封式零钱包是现代女性都市生活中的完美伴侣。身材小巧,轻松收入包袋甚至衣袋之中。尺寸:11×8cm。","specs":{"source":"wsxcme","sourceId":"_dJjJjZqQ7eR-9r3YEAt91lLK_Hbr9DK6hS8sGbQ","sourceTagId":47002663,"sourceTagName":"长短款钱包","rawTitle":"M81520!奶白色!采用头层牛皮制作!女士零钱包卡包 小巧玲珑却极为实用,此款多彩信封式零钱包是现代女性都市生活中的完美伴侣。身材小巧,轻松收入包袋甚至衣袋之中。尺寸:11×8cm。"},"price":null,"currency":"CNY","moq":1,"category":"women-wallets","status":"active","alibaba_url":null,"images":["https://xcimg.szwego.com/20240427/i1714164161_1985_0.jpg","https://xcimg.szwego.com/20240427/i1714164161_2072_1.jpg","https://xcimg.szwego.com/20240427/i1714164161_3520_2.jpg","https://xcimg.szwego.com/20240427/i1714164161_7607_3.jpg","https://xcimg.szwego.com/20240427/i1714164161_2_4.jpg","https://xcimg.szwego.com/20240427/i1714164161_7146_5.jpg","https://xcimg.szwego.com/20240427/i1714164161_9417_6.jpg","https://xcimg.szwego.com/20240427/i1714164161_5274_7.jpg","https://xcimg.szwego.com/20240427/i1714164161_6881_8.jpg"],"created_at":"2024-05-01T03:25:57.643Z"},{"id":"item-8458652ec996","sku":"_dlYlY9zkElxjyDF4Np2mYwi_GwzXggfgHAlR41A","name_en":"M81520!柠檬黄色!采用头层牛皮制作!女士零钱包卡包 小巧玲珑却极为实用,此款多彩信封式零钱包是现代女性都市生活中的完美伴侣。身材小巧,轻松收入包袋甚至衣袋之中。尺寸:11×8cm。","name_cn":"M81520!柠檬黄色!采用头层牛皮制作!女士零钱包卡包 小巧玲珑却极为实用,此款多彩信封式零钱包是现代女性都市生活中的完美伴侣。身材小巧,轻松收入包袋甚至衣袋之中。尺寸:11×8cm。","specs":{"source":"wsxcme","sourceId":"_dlYlY9zkElxjyDF4Np2mYwi_GwzXggfgHAlR41A","sourceTagId":47002622,"sourceTagName":"LV/女包","rawTitle":"M81520!柠檬黄色!采用头层牛皮制作!女士零钱包卡包 小巧玲珑却极为实用,此款多彩信封式零钱包是现代女性都市生活中的完美伴侣。身材小巧,轻松收入包袋甚至衣袋之中。尺寸:11×8cm。"},"price":null,"currency":"CNY","moq":1,"category":"lv-women-bags","status":"active","alibaba_url":null,"images":["https://xcimg.szwego.com/20240427/i1714164258_6132_0.jpg","https://xcimg.szwego.com/20240427/i1714164258_804_1.jpg","https://xcimg.szwego.com/20240427/i1714164258_6612_2.jpg","https://xcimg.szwego.com/20240427/i1714164258_6002_3.jpg","https://xcimg.szwego.com/20240427/i1714164258_2870_4.jpg","https://xcimg.szwego.com/20240427/i1714164258_3354_5.jpg","https://xcimg.szwego.com/20240427/i1714164258_6644_6.jpg","https://xcimg.szwego.com/20240427/i1714164258_6271_7.jpg","https://xcimg.szwego.com/20240427/i1714164258_1665_8.jpg"],"created_at":"2024-05-01T03:25:57.646Z"},{"id":"item-8458652ec996","sku":"_dlYlY9zkElxjyDF4Np2mYwi_GwzXggfgHAlR41A","name_en":"M81520!柠檬黄色!采用头层牛皮制作!女士零钱包卡包 小巧玲珑却极为实用,此款多彩信封式零钱包是现代女性都市生活中的完美伴侣。身材小巧,轻松收入包袋甚至衣袋之中。尺寸:11×8cm。","name_cn":"M81520!柠檬黄色!采用头层牛皮制作!女士零钱包卡包 小巧玲珑却极为实用,此款多彩信封式零钱包是现代女性都市生活中的完美伴侣。身材小巧,轻松收入包袋甚至衣袋之中。尺寸:11×8cm。","specs":{"source":"wsxcme","sourceId":"_dlYlY9zkElxjyDF4Np2mYwi_GwzXggfgHAlR41A","sourceTagId":47002663,"sourceTagName":"长短款钱包","rawTitle":"M81520!柠檬黄色!采用头层牛皮制作!女士零钱包卡包 小巧玲珑却极为实用,此款多彩信封式零钱包是现代女性都市生活中的完美伴侣。身材小巧,轻松收入包袋甚至衣袋之中。尺寸:11×8cm。"},"price":null,"currency":"CNY","moq":1,"category":"women-wallets","status":"active","alibaba_url":null,"images":["https://xcimg.szwego.com/20240427/i1714164258_6132_0.jpg","https://xcimg.szwego.com/20240427/i1714164258_804_1.jpg","https://xcimg.szwego.com/20240427/i1714164258_6612_2.jpg","https://xcimg.szwego.com/20240427/i1714164258_6002_3.jpg","https://xcimg.szwego.com/20240427/i1714164258_2870_4.jpg","https://xcimg.szwego.com/20240427/i1714164258_3354_5.jpg","https://xcimg.szwego.com/20240427/i1714164258_6644_6.jpg","https://xcimg.szwego.com/20240427/i1714164258_6271_7.jpg","https://xcimg.szwego.com/20240427/i1714164258_1665_8.jpg"],"created_at":"2024-05-01T03:25:57.646Z"},{"id":"item-907a9a059034","sku":"_dxZxZZZ9Nky7WiF9TbjGDg_uMyl4l9bUVOnC4TA","name_en":"M81520!薰衣草紫!采用头层牛皮制作!女士零钱包卡包 小巧玲珑却极为实用,此款多彩信封式零钱包是现代女性都市生活中的完美伴侣。身材小巧,轻松收入包袋甚至衣袋之中。尺寸:11×8cm。","name_cn":"M81520!薰衣草紫!采用头层牛皮制作!女士零钱包卡包 小巧玲珑却极为实用,此款多彩信封式零钱包是现代女性都市生活中的完美伴侣。身材小巧,轻松收入包袋甚至衣袋之中。尺寸:11×8cm。","specs":{"source":"wsxcme","sourceId":"_dxZxZZZ9Nky7WiF9TbjGDg_uMyl4l9bUVOnC4TA","sourceTagId":47002622,"sourceTagName":"LV/女包","rawTitle":"M81520!薰衣草紫!采用头层牛皮制作!女士零钱包卡包 小巧玲珑却极为实用,此款多彩信封式零钱包是现代女性都市生活中的完美伴侣。身材小巧,轻松收入包袋甚至衣袋之中。尺寸:11×8cm。"},"price":null,"currency":"CNY","moq":1,"category":"lv-women-bags","status":"active","alibaba_url":null,"images":["https://xcimg.szwego.com/20240427/i1714164224_6836_0.jpg","https://xcimg.szwego.com/20240427/i1714164224_6654_1.jpg","https://xcimg.szwego.com/20240427/i1714164224_4613_2.jpg","https://xcimg.szwego.com/20240427/i1714164224_7965_3.jpg","https://xcimg.szwego.com/20240427/i1714164224_7384_4.jpg","https://xcimg.szwego.com/20240427/i1714164224_4033_5.jpg","https://xcimg.szwego.com/20240427/i1714164224_5039_6.jpg","https://xcimg.szwego.com/20240427/i1714164224_2742_7.jpg","https://xcimg.szwego.com/20240427/i1714164224_5739_8.jpg"],"created_at":"2024-05-01T03:25:57.645Z"},{"id":"item-907a9a059034","sku":"_dxZxZZZ9Nky7WiF9TbjGDg_uMyl4l9bUVOnC4TA","name_en":"M81520!薰衣草紫!采用头层牛皮制作!女士零钱包卡包 小巧玲珑却极为实用,此款多彩信封式零钱包是现代女性都市生活中的完美伴侣。身材小巧,轻松收入包袋甚至衣袋之中。尺寸:11×8cm。","name_cn":"M81520!薰衣草紫!采用头层牛皮制作!女士零钱包卡包 小巧玲珑却极为实用,此款多彩信封式零钱包是现代女性都市生活中的完美伴侣。身材小巧,轻松收入包袋甚至衣袋之中。尺寸:11×8cm。","specs":{"source":"wsxcme","sourceId":"_dxZxZZZ9Nky7WiF9TbjGDg_uMyl4l9bUVOnC4TA","sourceTagId":47002663,"sourceTagName":"长短款钱包","rawTitle":"M81520!薰衣草紫!采用头层牛皮制作!女士零钱包卡包 小巧玲珑却极为实用,此款多彩信封式零钱包是现代女性都市生活中的完美伴侣。身材小巧,轻松收入包袋甚至衣袋之中。尺寸:11×8cm。"},"price":null,"currency":"CNY","moq":1,"category":"women-wallets","status":"active","alibaba_url":null,"images":["https://xcimg.szwego.com/20240427/i1714164224_6836_0.jpg","https://xcimg.szwego.com/20240427/i1714164224_6654_1.jpg","https://xcimg.szwego.com/20240427/i1714164224_4613_2.jpg","https://xcimg.szwego.com/20240427/i1714164224_7965_3.jpg","https://xcimg.szwego.com/20240427/i1714164224_7384_4.jpg","https://xcimg.szwego.com/20240427/i1714164224_4033_5.jpg","https://xcimg.szwego.com/20240427/i1714164224_5039_6.jpg","https://xcimg.szwego.com/20240427/i1714164224_2742_7.jpg","https://xcimg.szwego.com/20240427/i1714164224_5739_8.jpg"],"created_at":"2024-05-01T03:25:57.645Z"},{"id":"item-32f0ef190a5a","sku":"_dp4p4tXNo7J3-WsSY8BMUarc1CX3ke_UzK-ie0Q","name_en":"M81520!压花裸粉色!采用头层牛皮制作!女士零钱包卡包 小巧玲珑却极为实用,此款多彩信封式零钱包是现代女性都市生活中的完美伴侣。身材小巧,轻松收入包袋甚至衣袋之中。尺寸:11×8cm。","name_cn":"M81520!压花裸粉色!采用头层牛皮制作!女士零钱包卡包 小巧玲珑却极为实用,此款多彩信封式零钱包是现代女性都市生活中的完美伴侣。身材小巧,轻松收入包袋甚至衣袋之中。尺寸:11×8cm。","specs":{"source":"wsxcme","sourceId":"_dp4p4tXNo7J3-WsSY8BMUarc1CX3ke_UzK-ie0Q","sourceTagId":47002622,"sourceTagName":"LV/女包","rawTitle":"M81520!压花裸粉色!采用头层牛皮制作!女士零钱包卡包 小巧玲珑却极为实用,此款多彩信封式零钱包是现代女性都市生活中的完美伴侣。身材小巧,轻松收入包袋甚至衣袋之中。尺寸:11×8cm。"},"price":null,"currency":"CNY","moq":1,"category":"lv-women-bags","status":"active","alibaba_url":null,"images":["https://xcimg.szwego.com/20240427/i1714164134_8158_0.jpg","https://xcimg.szwego.com/20240427/i1714164134_794_1.jpg","https://xcimg.szwego.com/20240427/i1714164134_5286_2.jpg","https://xcimg.szwego.com/20240427/i1714164134_4783_3.jpg","https://xcimg.szwego.com/20240427/i1714164134_8654_4.jpg","https://xcimg.szwego.com/20240427/i1714164134_5159_5.jpg","https://xcimg.szwego.com/20240427/i1714164134_1806_6.jpg","https://xcimg.szwego.com/20240427/i1714164134_7362_7.jpg","https://xcimg.szwego.com/20240427/i1714164134_812_8.jpg"],"created_at":"2024-05-01T03:25:57.642Z"},{"id":"item-32f0ef190a5a","sku":"_dp4p4tXNo7J3-WsSY8BMUarc1CX3ke_UzK-ie0Q","name_en":"M81520!压花裸粉色!采用头层牛皮制作!女士零钱包卡包 小巧玲珑却极为实用,此款多彩信封式零钱包是现代女性都市生活中的完美伴侣。身材小巧,轻松收入包袋甚至衣袋之中。尺寸:11×8cm。","name_cn":"M81520!压花裸粉色!采用头层牛皮制作!女士零钱包卡包 小巧玲珑却极为实用,此款多彩信封式零钱包是现代女性都市生活中的完美伴侣。身材小巧,轻松收入包袋甚至衣袋之中。尺寸:11×8cm。","specs":{"source":"wsxcme","sourceId":"_dp4p4tXNo7J3-WsSY8BMUarc1CX3ke_UzK-ie0Q","sourceTagId":47002663,"sourceTagName":"长短款钱包","rawTitle":"M81520!压花裸粉色!采用头层牛皮制作!女士零钱包卡包 小巧玲珑却极为实用,此款多彩信封式零钱包是现代女性都市生活中的完美伴侣。身材小巧,轻松收入包袋甚至衣袋之中。尺寸:11×8cm。"},"price":null,"currency":"CNY","moq":1,"category":"women-wallets","status":"active","alibaba_url":null,"images":["https://xcimg.szwego.com/20240427/i1714164134_8158_0.jpg","https://xcimg.szwego.com/20240427/i1714164134_794_1.jpg","https://xcimg.szwego.com/20240427/i1714164134_5286_2.jpg","https://xcimg.szwego.com/20240427/i1714164134_4783_3.jpg","https://xcimg.szwego.com/20240427/i1714164134_8654_4.jpg","https://xcimg.szwego.com/20240427/i1714164134_5159_5.jpg","https://xcimg.szwego.com/20240427/i1714164134_1806_6.jpg","https://xcimg.szwego.com/20240427/i1714164134_7362_7.jpg","https://xcimg.szwego.com/20240427/i1714164134_812_8.jpg"],"created_at":"2024-05-01T03:25:57.642Z"},{"id":"item-52e0ee90d2ee","sku":"_dq5q5OBjtFRr4S0UIBNJgIbgvMYXEeeD80lbauA","name_en":"M81520!樱花粉!采用头层牛皮制作!女士零钱包卡包 小巧玲珑却极为实用,此款多彩信封式零钱包是现代女性都市生活中的完美伴侣。身材小巧,轻松收入包袋甚至衣袋之中。尺寸:11×8cm。","name_cn":"M81520!樱花粉!采用头层牛皮制作!女士零钱包卡包 小巧玲珑却极为实用,此款多彩信封式零钱包是现代女性都市生活中的完美伴侣。身材小巧,轻松收入包袋甚至衣袋之中。尺寸:11×8cm。","specs":{"source":"wsxcme","sourceId":"_dq5q5OBjtFRr4S0UIBNJgIbgvMYXEeeD80lbauA","sourceTagId":47002622,"sourceTagName":"LV/女包","rawTitle":"M81520!樱花粉!采用头层牛皮制作!女士零钱包卡包 小巧玲珑却极为实用,此款多彩信封式零钱包是现代女性都市生活中的完美伴侣。身材小巧,轻松收入包袋甚至衣袋之中。尺寸:11×8cm。"},"price":null,"currency":"CNY","moq":1,"category":"lv-women-bags","status":"active","alibaba_url":null,"images":["https://xcimg.szwego.com/20240427/i1714163861_2063_0.jpg","https://xcimg.szwego.com/20240427/i1714163861_6716_1.jpg","https://xcimg.szwego.com/20240427/i1714163861_618_2.jpg","https://xcimg.szwego.com/20240427/i1714163861_835_3.jpg","https://xcimg.szwego.com/20240427/i1714163861_1759_4.jpg","https://xcimg.szwego.com/20240427/i1714163861_5022_5.jpg","https://xcimg.szwego.com/20240427/i1714163861_6281_6.jpg","https://xcimg.szwego.com/20240427/i1714163861_4886_7.jpg","https://xcimg.szwego.com/20240427/i1714163861_8000_8.jpg"],"created_at":"2024-05-01T03:25:57.637Z"},{"id":"item-52e0ee90d2ee","sku":"_dq5q5OBjtFRr4S0UIBNJgIbgvMYXEeeD80lbauA","name_en":"M81520!樱花粉!采用头层牛皮制作!女士零钱包卡包 小巧玲珑却极为实用,此款多彩信封式零钱包是现代女性都市生活中的完美伴侣。身材小巧,轻松收入包袋甚至衣袋之中。尺寸:11×8cm。","name_cn":"M81520!樱花粉!采用头层牛皮制作!女士零钱包卡包 小巧玲珑却极为实用,此款多彩信封式零钱包是现代女性都市生活中的完美伴侣。身材小巧,轻松收入包袋甚至衣袋之中。尺寸:11×8cm。","specs":{"source":"wsxcme","sourceId":"_dq5q5OBjtFRr4S0UIBNJgIbgvMYXEeeD80lbauA","sourceTagId":47002663,"sourceTagName":"长短款钱包","rawTitle":"M81520!樱花粉!采用头层牛皮制作!女士零钱包卡包 小巧玲珑却极为实用,此款多彩信封式零钱包是现代女性都市生活中的完美伴侣。身材小巧,轻松收入包袋甚至衣袋之中。尺寸:11×8cm。"},"price":null,"currency":"CNY","moq":1,"category":"women-wallets","status":"active","alibaba_url":null,"images":["https://xcimg.szwego.com/20240427/i1714163861_2063_0.jpg","https://xcimg.szwego.com/20240427/i1714163861_6716_1.jpg","https://xcimg.szwego.com/20240427/i1714163861_618_2.jpg","https://xcimg.szwego.com/20240427/i1714163861_835_3.jpg","https://xcimg.szwego.com/20240427/i1714163861_1759_4.jpg","https://xcimg.szwego.com/20240427/i1714163861_5022_5.jpg","https://xcimg.szwego.com/20240427/i1714163861_6281_6.jpg","https://xcimg.szwego.com/20240427/i1714163861_4886_7.jpg","https://xcimg.szwego.com/20240427/i1714163861_8000_8.jpg"],"created_at":"2024-05-01T03:25:57.637Z"},{"id":"item-7a404e6dfc15","sku":"_dkUkUjOZiWU95HeSY-LU3giTQ_zYbHh9gmkQJKg","name_en":"M81520!紫红色!采用头层牛皮制作!女士零钱包卡包 小巧玲珑却极为实用,此款多彩信封式零钱包是现代女性都市生活中的完美伴侣。身材小巧,轻松收入包袋甚至衣袋之中。尺寸:11×8cm。","name_cn":"M81520!紫红色!采用头层牛皮制作!女士零钱包卡包 小巧玲珑却极为实用,此款多彩信封式零钱包是现代女性都市生活中的完美伴侣。身材小巧,轻松收入包袋甚至衣袋之中。尺寸:11×8cm。","specs":{"source":"wsxcme","sourceId":"_dkUkUjOZiWU95HeSY-LU3giTQ_zYbHh9gmkQJKg","sourceTagId":47002622,"sourceTagName":"LV/女包","rawTitle":"M81520!紫红色!采用头层牛皮制作!女士零钱包卡包 小巧玲珑却极为实用,此款多彩信封式零钱包是现代女性都市生活中的完美伴侣。身材小巧,轻松收入包袋甚至衣袋之中。尺寸:11×8cm。"},"price":null,"currency":"CNY","moq":1,"category":"lv-women-bags","status":"active","alibaba_url":null,"images":["https://xcimg.szwego.com/20240427/i1714164332_5225_0.jpg","https://xcimg.szwego.com/20240427/i1714164332_3072_1.jpg","https://xcimg.szwego.com/20240427/i1714164332_8615_2.jpg","https://xcimg.szwego.com/20240427/i1714164332_1837_3.jpg","https://xcimg.szwego.com/20240427/i1714164332_2380_4.jpg","https://xcimg.szwego.com/20240427/i1714164332_2600_5.jpg","https://xcimg.szwego.com/20240427/i1714164332_1373_6.jpg","https://xcimg.szwego.com/20240427/i1714164332_7996_7.jpg","https://xcimg.szwego.com/20240427/i1714164332_5979_8.jpg"],"created_at":"2024-05-01T03:25:57.647Z"},{"id":"item-7a404e6dfc15","sku":"_dkUkUjOZiWU95HeSY-LU3giTQ_zYbHh9gmkQJKg","name_en":"M81520!紫红色!采用头层牛皮制作!女士零钱包卡包 小巧玲珑却极为实用,此款多彩信封式零钱包是现代女性都市生活中的完美伴侣。身材小巧,轻松收入包袋甚至衣袋之中。尺寸:11×8cm。","name_cn":"M81520!紫红色!采用头层牛皮制作!女士零钱包卡包 小巧玲珑却极为实用,此款多彩信封式零钱包是现代女性都市生活中的完美伴侣。身材小巧,轻松收入包袋甚至衣袋之中。尺寸:11×8cm。","specs":{"source":"wsxcme","sourceId":"_dkUkUjOZiWU95HeSY-LU3giTQ_zYbHh9gmkQJKg","sourceTagId":47002663,"sourceTagName":"长短款钱包","rawTitle":"M81520!紫红色!采用头层牛皮制作!女士零钱包卡包 小巧玲珑却极为实用,此款多彩信封式零钱包是现代女性都市生活中的完美伴侣。身材小巧,轻松收入包袋甚至衣袋之中。尺寸:11×8cm。"},"price":null,"currency":"CNY","moq":1,"category":"women-wallets","status":"active","alibaba_url":null,"images":["https://xcimg.szwego.com/20240427/i1714164332_5225_0.jpg","https://xcimg.szwego.com/20240427/i1714164332_3072_1.jpg","https://xcimg.szwego.com/20240427/i1714164332_8615_2.jpg","https://xcimg.szwego.com/20240427/i1714164332_1837_3.jpg","https://xcimg.szwego.com/20240427/i1714164332_2380_4.jpg","https://xcimg.szwego.com/20240427/i1714164332_2600_5.jpg","https://xcimg.szwego.com/20240427/i1714164332_1373_6.jpg","https://xcimg.szwego.com/20240427/i1714164332_7996_7.jpg","https://xcimg.szwego.com/20240427/i1714164332_5979_8.jpg"],"created_at":"2024-05-01T03:25:57.647Z"},{"id":"item-13bfa8e4484b","sku":"_dafafVU2MUTTZxHJO4o2bOq44NnYgbUL3-aFapg","name_en":"M81534 紫色 西装夹钱包系列 新款男士短夹 本款 Multiple 钱夹以 Monogram Macassar 材质再现纤薄设计,在容纳纸币、信用卡、名片、票据等物的同时可收入口袋中,以当代实用主义理念定义携带日常所需之法,亦是馈赠佳礼之选。尺寸:11.5 x 9.0 x 1.5 厘米","name_cn":"M81534 紫色 西装夹钱包系列 新款男士短夹 本款 Multiple 钱夹以 Monogram Macassar 材质再现纤薄设计,在容纳纸币、信用卡、名片、票据等物的同时可收入口袋中,以当代实用主义理念定义携带日常所需之法,亦是馈赠佳礼之选。尺寸:11.5 x 9.0 x 1.5 厘米","specs":{"source":"wsxcme","sourceId":"_dafafVU2MUTTZxHJO4o2bOq44NnYgbUL3-aFapg","sourceTagId":47002663,"sourceTagName":"长短款钱包","dimensions":{"lengthCm":11.5,"heightCm":9,"widthCm":1.5},"rawTitle":"M81534 紫色 西装夹钱包系列 新款男士短夹 本款 Multiple 钱夹以 Monogram Macassar 材质再现纤薄设计,在容纳纸币、信用卡、名片、票据等物的同时可收入口袋中,以当代实用主义理念定义携带日常所需之法,亦是馈赠佳礼之选。尺寸:11.5 x 9.0 x 1.5 厘米"},"price":null,"currency":"CNY","moq":1,"category":"women-wallets","status":"active","alibaba_url":null,"images":["https://xcimg.szwego.com/20220729/i1659026629_6542_0.jpg","https://xcimg.szwego.com/20220729/i1659026629_8050_1.jpg","https://xcimg.szwego.com/20220729/i1659026629_9603_2.jpg","https://xcimg.szwego.com/20220729/i1659026629_5685_3.jpg","https://xcimg.szwego.com/20220729/i1659026629_2549_4.jpg","https://xcimg.szwego.com/20220729/i1659026629_2327_5.jpg","https://xcimg.szwego.com/20220729/i1659026629_2000_6.jpg","https://xcimg.szwego.com/20220729/i1659026629_6141_7.jpg","https://xcimg.szwego.com/20220729/i1659026629_1382_8.jpg"],"created_at":"2024-05-08T09:49:54.854Z"},{"id":"item-a1d2b5e482d5","sku":"_dbFbFWTVMP-sMR9txOvGaDWTPItx2mRvYEGTMwQ","name_en":"M81536 绿色 卡包新款口袋钱夹取材 Monogram Macassar 帆布,以设计师 Virgil Abloh 笔下的标志性色彩点亮牛皮革细节。内里卡片夹层和隔层注入功能性。尺寸:8 x 11 x 1 厘米","name_cn":"M81536 绿色 卡包新款口袋钱夹取材 Monogram Macassar 帆布,以设计师 Virgil Abloh 笔下的标志性色彩点亮牛皮革细节。内里卡片夹层和隔层注入功能性。尺寸:8 x 11 x 1 厘米","specs":{"source":"wsxcme","sourceId":"_dbFbFWTVMP-sMR9txOvGaDWTPItx2mRvYEGTMwQ","sourceTagId":47002663,"sourceTagName":"长短款钱包","dimensions":{"lengthCm":8,"heightCm":11,"widthCm":1},"rawTitle":"M81536 绿色 卡包新款口袋钱夹取材 Monogram Macassar 帆布,以设计师 Virgil Abloh 笔下的标志性色彩点亮牛皮革细节。内里卡片夹层和隔层注入功能性。尺寸:8 x 11 x 1 厘米"},"price":null,"currency":"CNY","moq":1,"category":"women-wallets","status":"active","alibaba_url":null,"images":["https://xcimg.szwego.com/20220729/i1659026974_1755_0.jpg","https://xcimg.szwego.com/20220729/i1659026974_5121_1.jpg","https://xcimg.szwego.com/20220729/i1659026974_6362_2.jpg","https://xcimg.szwego.com/20220729/i1659026974_615_3.jpg","https://xcimg.szwego.com/20220729/i1659026974_4575_4.jpg","https://xcimg.szwego.com/20220729/i1659026974_1104_5.jpg","https://xcimg.szwego.com/20220729/i1659026974_3549_6.jpg","https://xcimg.szwego.com/20220729/i1659026974_7318_7.jpg","https://xcimg.szwego.com/20220729/i1659026974_3267_8.jpg"],"created_at":"2024-05-08T09:49:54.856Z"},{"id":"item-c7271c2f588d","sku":"_dmPmPE9Keidy2G-1nlJ5bM0ro8qArgW0IGWIP_Q","name_en":"M81538 紫色 西装夹拼接头层牛皮,LV以工匠的技艺精湛著称,罕见的设计、特殊皮革将技术创新和经典风格相结合,老花紫皮西装夹,突出世界的存在。钱夹内部设计精巧独特,拥有各种口袋和信用卡槽。尺寸:19×10cm","name_cn":"M81538 紫色 西装夹拼接头层牛皮,LV以工匠的技艺精湛著称,罕见的设计、特殊皮革将技术创新和经典风格相结合,老花紫皮西装夹,突出世界的存在。钱夹内部设计精巧独特,拥有各种口袋和信用卡槽。尺寸:19×10cm","specs":{"source":"wsxcme","sourceId":"_dmPmPE9Keidy2G-1nlJ5bM0ro8qArgW0IGWIP_Q","sourceTagId":47002663,"sourceTagName":"长短款钱包","rawTitle":"M81538 紫色 西装夹拼接头层牛皮,LV以工匠的技艺精湛著称,罕见的设计、特殊皮革将技术创新和经典风格相结合,老花紫皮西装夹,突出世界的存在。钱夹内部设计精巧独特,拥有各种口袋和信用卡槽。尺寸:19×10cm"},"price":null,"currency":"CNY","moq":1,"category":"women-wallets","status":"active","alibaba_url":null,"images":["https://xcimg.szwego.com/20220729/i1659026568_2243_0.jpg","https://xcimg.szwego.com/20220729/i1659026568_2687_1.jpg","https://xcimg.szwego.com/20220729/i1659026568_358_2.jpg","https://xcimg.szwego.com/20220729/i1659026568_3403_3.jpg","https://xcimg.szwego.com/20220729/i1659026568_5068_4.jpg","https://xcimg.szwego.com/20220729/i1659026568_1027_5.jpg","https://xcimg.szwego.com/20220729/i1659026568_18_6.jpg","https://xcimg.szwego.com/20220729/i1659026568_1487_7.jpg","https://xcimg.szwego.com/20220729/i1659026568_4486_8.jpg"],"created_at":"2024-05-08T09:49:54.853Z"},{"id":"item-aa5e71f83dcd","sku":"_djijiRLZoUR9U6F_1o0N4lS1LeTS2wyW8Nd2kBw","name_en":"M81539 绿色 西装夹拼接头层牛皮,LV以工匠的技艺精湛著称,罕见的设计、特殊皮革将技术创新和经典风格相结合,老花紫皮西装夹,突出世界的存在。钱夹内部设计精巧独特,拥有各种口袋和信用卡槽。尺寸:19×10cm","name_cn":"M81539 绿色 西装夹拼接头层牛皮,LV以工匠的技艺精湛著称,罕见的设计、特殊皮革将技术创新和经典风格相结合,老花紫皮西装夹,突出世界的存在。钱夹内部设计精巧独特,拥有各种口袋和信用卡槽。尺寸:19×10cm","specs":{"source":"wsxcme","sourceId":"_djijiRLZoUR9U6F_1o0N4lS1LeTS2wyW8Nd2kBw","sourceTagId":47002663,"sourceTagName":"长短款钱包","rawTitle":"M81539 绿色 西装夹拼接头层牛皮,LV以工匠的技艺精湛著称,罕见的设计、特殊皮革将技术创新和经典风格相结合,老花紫皮西装夹,突出世界的存在。钱夹内部设计精巧独特,拥有各种口袋和信用卡槽。尺寸:19×10cm"},"price":null,"currency":"CNY","moq":1,"category":"women-wallets","status":"active","alibaba_url":null,"images":["https://xcimg.szwego.com/20220729/i1659026889_3650_0.jpg","https://xcimg.szwego.com/20220729/i1659026889_8369_1.jpg","https://xcimg.szwego.com/20220729/i1659026889_1465_2.jpg","https://xcimg.szwego.com/20220729/i1659026889_1610_3.jpg","https://xcimg.szwego.com/20220729/i1659026889_4328_4.jpg","https://xcimg.szwego.com/20220729/i1659026889_5870_5.jpg","https://xcimg.szwego.com/20220729/i1659026889_2197_6.jpg","https://xcimg.szwego.com/20220729/i1659026889_353_7.jpg","https://xcimg.szwego.com/20220729/i1659026889_5350_8.jpg"],"created_at":"2024-05-08T09:49:54.855Z"},{"id":"item-2ba7945e6695","sku":"_dlQlQ-PAAhG4OZMbIYgwnXARzn3javBgc-8PbeA","name_en":"M81561黑","name_cn":"M81561黑\n此次取材粒面 Taurillon 皮革,呈现内外色彩反差。LV 字母滑扣援引 Capucines 手袋的开合设计,精巧构型暗藏充裕空间,设有卡片夹层和可放硬币的拉链风琴隔层。9 x 12 x 1 厘米 \n(长度 x 高 x 宽)","specs":{"source":"wsxcme","sourceId":"_dlQlQ-PAAhG4OZMbIYgwnXARzn3javBgc-8PbeA","sourceTagId":47002663,"sourceTagName":"长短款钱包","rawTitle":"M81561黑\n此次取材粒面 Taurillon 皮革,呈现内外色彩反差。LV 字母滑扣援引 Capucines 手袋的开合设计,精巧构型暗藏充裕空间,设有卡片夹层和可放硬币的拉链风琴隔层。9 x 12 x 1 厘米 \n(长度 x 高 x 宽)"},"price":null,"currency":"CNY","moq":1,"category":"women-wallets","status":"active","alibaba_url":null,"images":["https://xcimg.szwego.com/20230829/i1693282447_7372_0.jpg","https://xcimg.szwego.com/20230829/i1693282447_3851_1.jpg","https://xcimg.szwego.com/20230829/i1693282447_722_2.jpg","https://xcimg.szwego.com/20230829/i1693282447_2119_3.jpg","https://xcimg.szwego.com/20230829/i1693282447_1742_4.jpg","https://xcimg.szwego.com/20230829/i1693282447_4724_5.jpg","https://xcimg.szwego.com/20230829/i1693282447_9484_6.jpg","https://xcimg.szwego.com/20230829/i1693282447_7730_7.jpg","https://xcimg.szwego.com/20230829/i1693282447_9472_8.jpg"],"created_at":"2025-01-20T13:06:05.297Z"}],"page":363,"pageSize":24,"total":10075,"totalPages":420}
