{"items":[{"id":"item-7f5aecfd6055","sku":"_dROROqfDlO_c6XZyQpS3768eKPoPqBvpLpdgdFg","name_en":"Saint Laurent Women Bags","name_cn":"精品专供🔥裸粉/古金\n▪ROSE▪️秋冬新款,韩国明星同款Hobo!!今年火到爆炸的腋下包Y家虽迟但到!!包包身轮廓简洁、立体,看上去硬挺却不会太凌厉。搭配上品牌标志性的插入式包扣,整体给人一种既经典优雅,又很时髦现代的独特气质👍\n型号:713938【原厂皮】\n尺寸:22x22x10cm","specs":{"source":"wsxcme","sourceId":"_dROROqfDlO_c6XZyQpS3768eKPoPqBvpLpdgdFg","sourceTagId":47002761,"sourceTagName":"圣罗兰/女包","modelNumber":"713938【原厂皮】","dimensions":{"lengthCm":22,"heightCm":22,"widthCm":10},"rawTitle":"精品专供🔥裸粉/古金\n▪ROSE▪️秋冬新款,韩国明星同款Hobo!!今年火到爆炸的腋下包Y家虽迟但到!!包包身轮廓简洁、立体,看上去硬挺却不会太凌厉。搭配上品牌标志性的插入式包扣,整体给人一种既经典优雅,又很时髦现代的独特气质👍\n型号:713938【原厂皮】\n尺寸:22x22x10cm"},"price":null,"currency":"CNY","moq":1,"category":"ysl-women-bags","status":"active","alibaba_url":null,"images":["https://xcimg.szwego.com/20230411/i1681142832_2169_0.jpg","https://xcimg.szwego.com/20230411/i1681142832_6169_1.jpg","https://xcimg.szwego.com/20230411/i1681142832_3193_2.jpg","https://xcimg.szwego.com/20230411/i1681142832_5072_3.jpg","https://xcimg.szwego.com/20230411/i1681142832_9094_4.jpg","https://xcimg.szwego.com/20230411/i1681142832_9821_5.jpg","https://xcimg.szwego.com/20230411/i1681142832_7261_6.jpg","https://xcimg.szwego.com/20230411/i1681142832_8687_7.jpg","https://xcimg.szwego.com/20230411/i1681142832_8220_8.jpg"],"created_at":"2024-12-08T05:55:40.680Z"},{"id":"item-7f39f78af49b","sku":"_drprpmE1WrHbYp9eCP2iz88FFFmcSr7BMJOtRDQ","name_en":"Saint Laurent Women Bags","name_cn":"干净利落的线条和硬朗的设计\n非常简约大气!","specs":{"source":"wsxcme","sourceId":"_drprpmE1WrHbYp9eCP2iz88FFFmcSr7BMJOtRDQ","sourceTagId":47002761,"sourceTagName":"圣罗兰/女包","rawTitle":"干净利落的线条和硬朗的设计\n非常简约大气!"},"price":null,"currency":"CNY","moq":1,"category":"ysl-women-bags","status":"active","alibaba_url":null,"images":["https://xcimg.szwego.com/imgHD/f8c0bdc9/20251229/cmp_i1766999770111_5108_0_0.jpg","https://xcimg.szwego.com/imgHD/f8c0bdc9/20251229/cmp_i1766999770126_1734_0_1.jpg","https://xcimg.szwego.com/imgHD/f8c0bdc9/20251229/cmp_i1766999770096_1429_0_2.jpg","https://xcimg.szwego.com/imgHD/f8c0bdc9/20251229/cmp_i1766999770147_8492_0_3.jpg"],"created_at":"2026-06-29T10:54:45.446Z"},{"id":"item-7f36655586d1","sku":"_dl3l3sbJhOgFBENGxwQIC-eCIoAeFbI7cTzYnJw","name_en":"Saint Laurent Women Bags","name_cn":"鳄鱼纹杏色/古金\nSunset 22cm#经典款贵气鳄鱼纹sunset日落包 原厂皮版本!喜欢鳄鱼纹包包的小伙伴不能错过的一款!高品质 正品皮,正品开模五金,追求每一个每一个细节,力求无穷大的接近正品 👍\n尺寸:22x8x16cm\n型号:442906","specs":{"source":"wsxcme","sourceId":"_dl3l3sbJhOgFBENGxwQIC-eCIoAeFbI7cTzYnJw","sourceTagId":47002761,"sourceTagName":"圣罗兰/女包","modelNumber":"442906","dimensions":{"lengthCm":22,"heightCm":8,"widthCm":16},"rawTitle":"鳄鱼纹杏色/古金\nSunset 22cm#经典款贵气鳄鱼纹sunset日落包 原厂皮版本!喜欢鳄鱼纹包包的小伙伴不能错过的一款!高品质 正品皮,正品开模五金,追求每一个每一个细节,力求无穷大的接近正品 👍\n尺寸:22x8x16cm\n型号:442906"},"price":null,"currency":"CNY","moq":1,"category":"ysl-women-bags","status":"active","alibaba_url":null,"images":["https://xcimg.szwego.com/img/7821319d/20240615/i1718383482_5705_2.jpg","https://xcimg.szwego.com/img/7821319d/20240615/i1718383482_5072_6.jpg","https://xcimg.szwego.com/img/7821319d/20240615/i1718383482_7747_1.jpg","https://xcimg.szwego.com/img/7821319d/20240615/i1718383482_3382_4.jpg","https://xcimg.szwego.com/img/7821319d/20240615/i1718383483_2667_7.jpg","https://xcimg.szwego.com/img/7821319d/20240615/i1718383482_2447_5.jpg","https://xcimg.szwego.com/img/7821319d/20240615/i1718383482_479_0.jpg","https://xcimg.szwego.com/img/7821319d/20240615/i1718383482_3861_3.jpg"],"created_at":"2024-08-04T12:57:22.857Z"},{"id":"item-7d371ddbf11b","sku":"_dololnfkhOaDE7EoOr7gIII5boe5DOH3SKp600Q","name_en":"Saint Laurent Women Bags","name_cn":"新款圣罗兰经典邮差包,时尚界的常青树🌟|||🔥圣罗兰的这款经典邮差包,简直是时尚界的扛把子!感觉它能让你一秒变身时尚达人!😍\n1️⃣首先,它的设计真的是太经典了!既有时尚感,又不过时,真的是很难得。👜\n2️⃣材质也非常棒,手感舒适,摸着就很有质感。👝\n3️⃣空间足够大,能装下很多日常必备的小物件,比如手机、钱包、钥匙等等。���leta手机、钱包、钥匙等等。📱🏺\n4️⃣背带长度合适,可以单肩背,也可以斜挎,非常方便。\n5️⃣颜色选择也很多,适合各种风格和场合。我入手的这个星空灰,超级百搭!✨\n🔥总的来说,圣罗兰的这款经典邮差包,真的是一款非常值得入手的时尚单品!不管是搭配衣服还是作为日常背包,都非常合适。👗👚👠。            尺寸25x15x8,      款号80993","specs":{"source":"wsxcme","sourceId":"_dololnfkhOaDE7EoOr7gIII5boe5DOH3SKp600Q","sourceTagId":47002761,"sourceTagName":"圣罗兰/女包","modelNumber":"80993","rawTitle":"新款圣罗兰经典邮差包,时尚界的常青树🌟|||🔥圣罗兰的这款经典邮差包,简直是时尚界的扛把子!感觉它能让你一秒变身时尚达人!😍\n1️⃣首先,它的设计真的是太经典了!既有时尚感,又不过时,真的是很难得。👜\n2️⃣材质也非常棒,手感舒适,摸着就很有质感。👝\n3️⃣空间足够大,能装下很多日常必备的小物件,比如手机、钱包、钥匙等等。���leta手机、钱包、钥匙等等。📱🏺\n4️⃣背带长度合适,可以单肩背,也可以斜挎,非常方便。\n5️⃣颜色选择也很多,适合各种风格和场合。我入手的这个星空灰,超级百搭!✨\n🔥总的来说,圣罗兰的这款经典邮差包,真的是一款非常值得入手的时尚单品!不管是搭配衣服还是作为日常背包,都非常合适。👗👚👠。            尺寸25x15x8,      款号80993"},"price":null,"currency":"CNY","moq":1,"category":"ysl-women-bags","status":"active","alibaba_url":null,"images":["https://xcimg.szwego.com/20230920/i1695190381_2546_0.jpg","https://xcimg.szwego.com/20230920/i1695190381_5454_1.jpg","https://xcimg.szwego.com/20230920/i1695190381_4537_2.jpg","https://xcimg.szwego.com/20230920/i1695190381_5517_3.jpg","https://xcimg.szwego.com/20230920/i1695190381_3481_4.jpg","https://xcimg.szwego.com/20230920/i1695190381_6755_5.jpg","https://xcimg.szwego.com/20230920/i1695190381_3156_6.jpg","https://xcimg.szwego.com/20230920/i1695190381_9513_7.jpg","https://xcimg.szwego.com/20230920/i1695190381_9064_8.jpg"],"created_at":"2025-02-08T12:46:07.459Z"},{"id":"item-7b8e947b22b9","sku":"_dxJxJf1DH123NqWH-7DkyF6PybdhhYQhZYCdkBw","name_en":"Saint Laurent Women Bags","name_cn":"鳄鱼纹黑色/白钢\nSunset 22cm#经典款贵气鳄鱼纹sunset日落包 原厂皮版本!喜欢鳄鱼纹包包的小伙伴不能错过的一款!高品质 正品皮,正品开模五金,追求每一个每一个细节,力求无穷大的接近正品 👍\n尺寸:22x8x16cm\n型号:442906","specs":{"source":"wsxcme","sourceId":"_dxJxJf1DH123NqWH-7DkyF6PybdhhYQhZYCdkBw","sourceTagId":47002761,"sourceTagName":"圣罗兰/女包","modelNumber":"442906","dimensions":{"lengthCm":22,"heightCm":8,"widthCm":16},"rawTitle":"鳄鱼纹黑色/白钢\nSunset 22cm#经典款贵气鳄鱼纹sunset日落包 原厂皮版本!喜欢鳄鱼纹包包的小伙伴不能错过的一款!高品质 正品皮,正品开模五金,追求每一个每一个细节,力求无穷大的接近正品 👍\n尺寸:22x8x16cm\n型号:442906"},"price":null,"currency":"CNY","moq":1,"category":"ysl-women-bags","status":"active","alibaba_url":null,"images":["https://xcimg.szwego.com/img/7821319d/20240615/i1718383527_4065_5.jpg","https://xcimg.szwego.com/img/7821319d/20240615/i1718383526_4571_0.jpg","https://xcimg.szwego.com/img/7821319d/20240615/i1718383527_3477_2.jpg","https://xcimg.szwego.com/img/7821319d/20240615/i1718383527_1311_6.jpg","https://xcimg.szwego.com/img/7821319d/20240615/i1718383527_6407_4.jpg","https://xcimg.szwego.com/img/7821319d/20240615/i1718383527_475_3.jpg","https://xcimg.szwego.com/img/7821319d/20240615/i1718383527_8011_1.jpg","https://xcimg.szwego.com/img/7821319d/20240615/i1718383527_3366_7.jpg"],"created_at":"2024-08-04T12:57:22.858Z"},{"id":"item-7abe90a63e89","sku":"_do-o-NLO1dvq_AUOJtf5AGbA1-_DnfnIfHDnjhA","name_en":"Saint Laurent Women Bags","name_cn":"鳄鱼纹灰色/白钢\nSunset 22cm#经典款贵气鳄鱼纹sunset日落包 原厂皮版本!喜欢鳄鱼纹包包的小伙伴不能错过的一款!高品质 正品皮,正品开模五金,追求每一个每一个细节,力求无穷大的接近正品 👍\n尺寸:22x8x16cm\n型号:442906","specs":{"source":"wsxcme","sourceId":"_do-o-NLO1dvq_AUOJtf5AGbA1-_DnfnIfHDnjhA","sourceTagId":47002761,"sourceTagName":"圣罗兰/女包","modelNumber":"442906","dimensions":{"lengthCm":22,"heightCm":8,"widthCm":16},"rawTitle":"鳄鱼纹灰色/白钢\nSunset 22cm#经典款贵气鳄鱼纹sunset日落包 原厂皮版本!喜欢鳄鱼纹包包的小伙伴不能错过的一款!高品质 正品皮,正品开模五金,追求每一个每一个细节,力求无穷大的接近正品 👍\n尺寸:22x8x16cm\n型号:442906"},"price":null,"currency":"CNY","moq":1,"category":"ysl-women-bags","status":"active","alibaba_url":null,"images":["https://xcimg.szwego.com/img/7821319d/20240615/i1718383339_4293_3.jpg","https://xcimg.szwego.com/img/7821319d/20240615/i1718383339_8260_1.jpg","https://xcimg.szwego.com/img/7821319d/20240615/i1718383339_5380_5.jpg","https://xcimg.szwego.com/img/7821319d/20240615/i1718383339_6314_6.jpg","https://xcimg.szwego.com/img/7821319d/20240615/i1718383339_7757_4.jpg","https://xcimg.szwego.com/img/7821319d/20240615/i1718383339_1738_7.jpg","https://xcimg.szwego.com/img/7821319d/20240615/i1718383339_3056_0.jpg","https://xcimg.szwego.com/img/7821319d/20240615/i1718383339_5615_8.jpg"],"created_at":"2024-08-04T12:57:22.854Z"},{"id":"item-7a7d738b5a67","sku":"_dUqUqRKIe_ZaBGWfSlX4nm1vyPJVBnTBOy6QLuQ","name_en":"Saint Laurent Women Bags","name_cn":"有些包 他天生就是主角\n\n背上身超级时尚!!️可单肩可双肩,真是爱😘了","specs":{"source":"wsxcme","sourceId":"_dUqUqRKIe_ZaBGWfSlX4nm1vyPJVBnTBOy6QLuQ","sourceTagId":47002761,"sourceTagName":"圣罗兰/女包","rawTitle":"有些包 他天生就是主角\n\n背上身超级时尚!!️可单肩可双肩,真是爱😘了"},"price":null,"currency":"CNY","moq":1,"category":"ysl-women-bags","status":"active","alibaba_url":null,"images":["https://xcimg.szwego.com/img/d8a0fc73/20240818/i1723913984_7246_2.jpg","https://xcimg.szwego.com/img/d8a0fc73/20240818/i1723913986_6598_0.jpg","https://xcimg.szwego.com/img/d8a0fc73/20240818/i1723913984_394_6.jpg","https://xcimg.szwego.com/img/d8a0fc73/20240818/i1723913984_9093_0.jpg","https://xcimg.szwego.com/img/d8a0fc73/20240818/i1723913984_4810_1.jpg","https://xcimg.szwego.com/img/d8a0fc73/20240818/i1723913984_4160_3.jpg","https://xcimg.szwego.com/img/d8a0fc73/20240818/i1723913984_2494_5.jpg","https://xcimg.szwego.com/img/d8a0fc73/20240818/i1723913984_7399_4.jpg","https://xcimg.szwego.com/img/d8a0fc73/20240818/i1723913984_4133_8.jpg"],"created_at":"2025-07-20T03:05:44.268Z"},{"id":"item-77ddc28ea029","sku":"_dmLmLufN0aSnnvUxbi3uQvoIQDnSCcYWZVv2RkA","name_en":"Saint Laurent Women Bags","name_cn":"💰\nY家2024春夏最新迷你托特包,这只mini tote来自NEW SHAPE系列!使用的是全新的制作工艺,运用光滑柔软小牛皮,皮料通过高温熨烫,更具光泽丝滑感!扇形的外观、挖孔设计手柄,造型时髦精致!整只包具有两个端口的多功能前卫结构,即可手铃也可斜挎单肩,全方面适配你想要的任何风格!\n型号:791069\n尺寸:29x19.5x10cm","specs":{"source":"wsxcme","sourceId":"_dmLmLufN0aSnnvUxbi3uQvoIQDnSCcYWZVv2RkA","sourceTagId":47002761,"sourceTagName":"圣罗兰/女包","modelNumber":"791069","dimensions":{"lengthCm":29,"heightCm":19.5,"widthCm":10},"rawTitle":"💰\nY家2024春夏最新迷你托特包,这只mini tote来自NEW SHAPE系列!使用的是全新的制作工艺,运用光滑柔软小牛皮,皮料通过高温熨烫,更具光泽丝滑感!扇形的外观、挖孔设计手柄,造型时髦精致!整只包具有两个端口的多功能前卫结构,即可手铃也可斜挎单肩,全方面适配你想要的任何风格!\n型号:791069\n尺寸:29x19.5x10cm"},"price":null,"currency":"CNY","moq":1,"category":"ysl-women-bags","status":"active","alibaba_url":null,"images":["https://xcimg.szwego.com/img/70397b92/20240507/i1715072582_1465_1.jpg","https://xcimg.szwego.com/img/70397b92/20240507/i1715072582_8314_7.jpg","https://xcimg.szwego.com/img/70397b92/20240507/i1715072582_1634_4.jpg","https://xcimg.szwego.com/img/70397b92/20240507/i1715072582_4860_5.jpg","https://xcimg.szwego.com/img/70397b92/20240507/i1715072582_1061_6.jpg","https://xcimg.szwego.com/img/70397b92/20240507/i1715072582_2143_2.jpg","https://xcimg.szwego.com/img/70397b92/20240507/i1715072582_4754_0.jpg","https://xcimg.szwego.com/img/70397b92/20240507/i1715072582_9120_8.jpg","https://xcimg.szwego.com/img/70397b92/20240507/i1715072582_2939_3.jpg"],"created_at":"2025-07-20T03:05:44.204Z"},{"id":"item-759ab6eb34a1","sku":"_dqpqpkJEhM3slgcw39XV5QNuMtosdjsG75EjXMg","name_en":"Saint Laurent Women Bags","name_cn":"官网图","specs":{"source":"wsxcme","sourceId":"_dqpqpkJEhM3slgcw39XV5QNuMtosdjsG75EjXMg","sourceTagId":47002761,"sourceTagName":"圣罗兰/女包","rawTitle":"官网图"},"price":null,"currency":"CNY","moq":1,"category":"ysl-women-bags","status":"active","alibaba_url":null,"images":["https://xcimg.szwego.com/imgHD/f8c0bdc9/20251005/cmp_i1759661375391_5813_0_0.jpg","https://xcimg.szwego.com/imgHD/f8c0bdc9/20251005/cmp_i1759661375856_9771_0_1.jpg","https://xcimg.szwego.com/imgHD/f8c0bdc9/20251005/cmp_i1759661375855_2664_0_2.jpg","https://xcimg.szwego.com/imgHD/f8c0bdc9/20251005/cmp_i1759661375390_9755_0_3.jpg","https://xcimg.szwego.com/imgHD/f8c0bdc9/20251005/cmp_i1759661375389_1609_0_4.jpg","https://xcimg.szwego.com/imgHD/f8c0bdc9/20251005/cmp_i1759661375389_6913_0_5.jpg","https://xcimg.szwego.com/imgHD/f8c0bdc9/20251005/cmp_i1759661375390_2532_0_6.jpg"],"created_at":"2026-05-20T04:01:39.293Z"},{"id":"item-70e78606c217","sku":"_dr3r31-2ezRl3K-WH_bOZe-e_JXpqrayQbI_IHQ","name_en":"Saint Laurent Women Bags","name_cn":"黑色漆皮绣格子·\nCASSANDRE _链条包 超级实用的一款小包,意大利进口原厂光面牛皮,里外全皮。搭配方形格缝精细手工制作,经典金属logo彰显个性,翻盖设计确保使用的安全性。肩带可拆卸,包包内设有十个卡片槽,一个纸币隔层,两个隔层,一个拉链内袋,装进所有!\n型号:743364\n尺寸:23x14x3cm \n肩带长度:47cm","specs":{"source":"wsxcme","sourceId":"_dr3r31-2ezRl3K-WH_bOZe-e_JXpqrayQbI_IHQ","sourceTagId":47002761,"sourceTagName":"圣罗兰/女包","modelNumber":"743364","dimensions":{"lengthCm":23,"heightCm":14,"widthCm":3},"rawTitle":"黑色漆皮绣格子·\nCASSANDRE _链条包 超级实用的一款小包,意大利进口原厂光面牛皮,里外全皮。搭配方形格缝精细手工制作,经典金属logo彰显个性,翻盖设计确保使用的安全性。肩带可拆卸,包包内设有十个卡片槽,一个纸币隔层,两个隔层,一个拉链内袋,装进所有!\n型号:743364\n尺寸:23x14x3cm \n肩带长度:47cm"},"price":null,"currency":"CNY","moq":1,"category":"ysl-women-bags","status":"active","alibaba_url":null,"images":["https://xcimg.szwego.com/imgHD/f8c0bdc9/20251104/cmp_i1762245538088_2679_0_0.jpg","https://xcimg.szwego.com/imgHD/f8c0bdc9/20251104/cmp_i1762245538091_2790_0_1.jpg","https://xcimg.szwego.com/imgHD/f8c0bdc9/20251104/cmp_i1762245538090_4995_0_2.jpg","https://xcimg.szwego.com/imgHD/f8c0bdc9/20251104/cmp_i1762245538132_9857_0_3.jpg","https://xcimg.szwego.com/imgHD/f8c0bdc9/20251104/cmp_i1762245540508_8722_0_4.jpg","https://xcimg.szwego.com/imgHD/f8c0bdc9/20251104/cmp_i1762245539966_9683_0_5.jpg","https://xcimg.szwego.com/imgHD/f8c0bdc9/20251104/cmp_i1762245537419_7144_0_6.jpg","https://xcimg.szwego.com/imgHD/f8c0bdc9/20251104/cmp_i1762245540481_4808_0_7.jpg","https://xcimg.szwego.com/imgHD/f8c0bdc9/20251104/cmp_i1762245540459_1474_0_8.jpg"],"created_at":"2026-06-29T10:48:59.039Z"},{"id":"item-70a6622aa4a2","sku":"_daIaINO2AR3lndgoZBGE43JylweomBW_HepZihg","name_en":"Saint Laurent Women Bags","name_cn":"💰麂皮款·\nJamie 4.3 Large POCHON_福袋水桶包\n意大利进口柔软麂皮配牛皮 抽绳设计让手袋呈现出自然高级的褶皱感 金属链条和包身上的金属logo相得益彰 上身自然有种散发松弛的时髦感 福袋造型更加独特有态度!超大容量 可放下笔记本电脑💻\n型号:809824\n尺寸:27×34×3cm","specs":{"source":"wsxcme","sourceId":"_daIaINO2AR3lndgoZBGE43JylweomBW_HepZihg","sourceTagId":47002761,"sourceTagName":"圣罗兰/女包","modelNumber":"809824","dimensions":{"lengthCm":27,"heightCm":34,"widthCm":3},"rawTitle":"💰麂皮款·\nJamie 4.3 Large POCHON_福袋水桶包\n意大利进口柔软麂皮配牛皮 抽绳设计让手袋呈现出自然高级的褶皱感 金属链条和包身上的金属logo相得益彰 上身自然有种散发松弛的时髦感 福袋造型更加独特有态度!超大容量 可放下笔记本电脑💻\n型号:809824\n尺寸:27×34×3cm"},"price":null,"currency":"CNY","moq":1,"category":"ysl-women-bags","status":"active","alibaba_url":null,"images":["https://xcimg.szwego.com/img/f8c0bdc9/20241212/1733982129_791.jpg","https://xcimg.szwego.com/img/f8c0bdc9/20241212/1733982129_581.jpg","https://xcimg.szwego.com/img/f8c0bdc9/20241212/1733982129_955.jpg","https://xcimg.szwego.com/img/f8c0bdc9/20241212/1733982129_963.jpg","https://xcimg.szwego.com/img/f8c0bdc9/20241212/1733982141_495.jpg","https://xcimg.szwego.com/img/f8c0bdc9/20241212/1733982128_491.jpg","https://xcimg.szwego.com/img/f8c0bdc9/20241212/1733982129_472.jpg","https://xcimg.szwego.com/img/f8c0bdc9/20241212/1733982129_174.jpg","https://xcimg.szwego.com/img/f8c0bdc9/20241212/1733982129_469.jpg"],"created_at":"2025-02-09T12:28:18.866Z"},{"id":"item-6e89bea3b52c","sku":"_dlzlzYxJDlxKgG7fs1R5dBvZ6NHu47V5B6yGWJQ","name_en":"Saint Laurent Women Bags","name_cn":"白色·\nSOLFERINO BOX_19cm\n必火爆款,还没上市就攻陷了整个时尚圈,怀旧左岸,灵感来自巴黎左岸街名Rue De Solferino为名!包包采用原厂细牙签纹Box牛皮,手感及皮面的柔韧度都非常好!内里设计三层风琴隔,可轻松容纳日常所需物品,全新设计的“L”字母上下对半开扣,彻底颠覆你对包扣的认知,不禁让人发出惊叹,原来还能这样开包包,简直不要太有趣了!\n型号:634306\n尺寸:19x13x5cm","specs":{"source":"wsxcme","sourceId":"_dlzlzYxJDlxKgG7fs1R5dBvZ6NHu47V5B6yGWJQ","sourceTagId":47002761,"sourceTagName":"圣罗兰/女包","modelNumber":"634306","dimensions":{"lengthCm":19,"heightCm":13,"widthCm":5},"rawTitle":"白色·\nSOLFERINO BOX_19cm\n必火爆款,还没上市就攻陷了整个时尚圈,怀旧左岸,灵感来自巴黎左岸街名Rue De Solferino为名!包包采用原厂细牙签纹Box牛皮,手感及皮面的柔韧度都非常好!内里设计三层风琴隔,可轻松容纳日常所需物品,全新设计的“L”字母上下对半开扣,彻底颠覆你对包扣的认知,不禁让人发出惊叹,原来还能这样开包包,简直不要太有趣了!\n型号:634306\n尺寸:19x13x5cm"},"price":null,"currency":"CNY","moq":1,"category":"ysl-women-bags","status":"active","alibaba_url":null,"images":["https://xcimg.szwego.com/img/f8c0bdc9/20241025/i1729838116_9282_8.jpg","https://xcimg.szwego.com/img/f8c0bdc9/20241025/i1729838116_2231_7.jpg","https://xcimg.szwego.com/img/f8c0bdc9/20241025/i1729838116_474_3.jpg","https://xcimg.szwego.com/img/f8c0bdc9/20241025/i1729838116_4402_4.jpg","https://xcimg.szwego.com/img/f8c0bdc9/20241025/i1729838116_7772_1.jpg","https://xcimg.szwego.com/img/f8c0bdc9/20241025/i1729838116_1149_2.jpg","https://xcimg.szwego.com/img/f8c0bdc9/20241025/i1729838116_3103_6.jpg","https://xcimg.szwego.com/img/f8c0bdc9/20241025/i1729838116_6275_5.jpg","https://xcimg.szwego.com/img/f8c0bdc9/20241025/i1729838116_3788_0.jpg"],"created_at":"2026-06-29T10:54:44.986Z"},{"id":"item-6d5ee7a791ad","sku":"_dlPlPYCfesBI4Tc5Kz3twIedkN34GPGhDHwuP4g","name_en":"Saint Laurent Women Bags","name_cn":"标志性的风琴褶设计 不仅增加了包包的立体感\n方正的包型搭配精致的牛皮搭扣 时尚又大气","specs":{"source":"wsxcme","sourceId":"_dlPlPYCfesBI4Tc5Kz3twIedkN34GPGhDHwuP4g","sourceTagId":47002761,"sourceTagName":"圣罗兰/女包","rawTitle":"标志性的风琴褶设计 不仅增加了包包的立体感\n方正的包型搭配精致的牛皮搭扣 时尚又大气"},"price":null,"currency":"CNY","moq":1,"category":"ysl-women-bags","status":"active","alibaba_url":null,"images":["https://xcimg.szwego.com/imgHD/f8c0bdc9/20251120/cmp_i1763630165522_7446_0_0.jpg","https://xcimg.szwego.com/imgHD/f8c0bdc9/20251120/cmp_i1763630165518_6512_0_1.jpg","https://xcimg.szwego.com/imgHD/f8c0bdc9/20251120/cmp_i1763630165520_7863_0_2.jpg","https://xcimg.szwego.com/imgHD/f8c0bdc9/20251120/cmp_i1763630165546_534_0_3.jpg"],"created_at":"2026-06-29T10:48:58.659Z"},{"id":"item-6c53a0e2b5ff","sku":"_drQrQC2kFH6SKtfisx65MNWAa7eLydqIOkUzI9A","name_en":"Saint Laurent Women Bags","name_cn":"随拍上身参考_","specs":{"source":"wsxcme","sourceId":"_drQrQC2kFH6SKtfisx65MNWAa7eLydqIOkUzI9A","sourceTagId":47002761,"sourceTagName":"圣罗兰/女包","rawTitle":"随拍上身参考_"},"price":null,"currency":"CNY","moq":1,"category":"ysl-women-bags","status":"active","alibaba_url":null,"images":["https://xcimg.szwego.com/img/f8c0bdc9/20240401/i1711964901_5354_5.jpg","https://xcimg.szwego.com/img/f8c0bdc9/20240401/i1711964901_116_3.jpg","https://xcimg.szwego.com/img/f8c0bdc9/20240401/i1711964901_5767_0.jpg","https://xcimg.szwego.com/img/f8c0bdc9/20240401/i1711964901_8673_4.jpg","https://xcimg.szwego.com/img/f8c0bdc9/20240401/i1711964901_391_1.jpg","https://xcimg.szwego.com/img/f8c0bdc9/20240401/i1711964901_8471_2.jpg"],"created_at":"2026-05-20T04:01:39.133Z"},{"id":"item-6b2dc9347365","sku":"_dououxS5SlTreGSTT0tOZ_VltPvLx0jJigqte4g","name_en":"Saint Laurent Women Bags","name_cn":"浅杏色·\nLE 37水桶包小号_\n超好看水桶包 带手提_全新包型,采用意大利小牛皮,包身轮廓简洁、立体,看上去硬挺又不会太凌厉,底部带有个金属脚钉,搭配经典标志性金属logo的插入式包扣,整体给人一种既经典优雅,又很时髦现代的独特气质!\n尺寸:17×20×13cm\n型号:749036","specs":{"source":"wsxcme","sourceId":"_dououxS5SlTreGSTT0tOZ_VltPvLx0jJigqte4g","sourceTagId":47002761,"sourceTagName":"圣罗兰/女包","modelNumber":"749036","dimensions":{"lengthCm":17,"heightCm":20,"widthCm":13},"rawTitle":"浅杏色·\nLE 37水桶包小号_\n超好看水桶包 带手提_全新包型,采用意大利小牛皮,包身轮廓简洁、立体,看上去硬挺又不会太凌厉,底部带有个金属脚钉,搭配经典标志性金属logo的插入式包扣,整体给人一种既经典优雅,又很时髦现代的独特气质!\n尺寸:17×20×13cm\n型号:749036"},"price":null,"currency":"CNY","moq":1,"category":"ysl-women-bags","status":"active","alibaba_url":null,"images":["https://xcimg.szwego.com/img/f8c0bdc9/20241018/i1729242551_606_2.jpg","https://xcimg.szwego.com/img/f8c0bdc9/20241018/i1729242551_4621_7.jpg","https://xcimg.szwego.com/img/f8c0bdc9/20241018/i1729242551_63_5.jpg","https://xcimg.szwego.com/img/f8c0bdc9/20241018/i1729242551_8586_8.jpg","https://xcimg.szwego.com/img/f8c0bdc9/20241018/i1729242551_9642_4.jpg","https://xcimg.szwego.com/img/f8c0bdc9/20241018/i1729242551_4047_0.jpg","https://xcimg.szwego.com/img/f8c0bdc9/20241018/i1729242551_3404_6.jpg","https://xcimg.szwego.com/img/f8c0bdc9/20241018/i1729242551_2535_1.jpg","https://xcimg.szwego.com/img/f8c0bdc9/20241018/i1729242551_6171_3.jpg"],"created_at":"2026-06-29T10:54:44.756Z"},{"id":"item-6a9ec4b56c85","sku":"_dxYxY0zV47HDnbvrS9BLgWpwjnzB7yEN3zwplEg","name_en":"Saint Laurent Women Bags","name_cn":"黑色羊皮/金\nKATE 99绗缝羊皮手袋,说起起这两年最火的包包,一定有腋下包的名字!一根细肩带背起来。有种漫不经心的法式优雅,让人一看就觉得这个女生好时髦,但又时髦得毫不费力。还有一条长款的皮肩带可变换着背!一包多用法👍\n型号:632014 / 604276 \n尺寸:26x13.5x4.5cm","specs":{"source":"wsxcme","sourceId":"_dxYxY0zV47HDnbvrS9BLgWpwjnzB7yEN3zwplEg","sourceTagId":47002761,"sourceTagName":"圣罗兰/女包","modelNumber":"632014 / 604276","dimensions":{"lengthCm":26,"heightCm":13.5,"widthCm":4.5},"rawTitle":"黑色羊皮/金\nKATE 99绗缝羊皮手袋,说起起这两年最火的包包,一定有腋下包的名字!一根细肩带背起来。有种漫不经心的法式优雅,让人一看就觉得这个女生好时髦,但又时髦得毫不费力。还有一条长款的皮肩带可变换着背!一包多用法👍\n型号:632014 / 604276 \n尺寸:26x13.5x4.5cm"},"price":null,"currency":"CNY","moq":1,"category":"ysl-women-bags","status":"active","alibaba_url":null,"images":["https://xcimg.szwego.com/img/7821319d/20240723/a1721665272394_6554.jpg","https://xcimg.szwego.com/img/7821319d/20240723/a1721665272346_7730.jpg","https://xcimg.szwego.com/img/7821319d/20240723/a1721665272345_8818.jpg","https://xcimg.szwego.com/img/7821319d/20240723/a1721665272287_7004.jpg","https://xcimg.szwego.com/img/7821319d/20240723/a1721665272424_6531.jpg","https://xcimg.szwego.com/img/7821319d/20240723/a1721665272322_2300.jpg","https://xcimg.szwego.com/img/7821319d/20240723/a1721665273703_0410.jpg","https://xcimg.szwego.com/img/7821319d/20240723/a1721665273553_7506.jpg","https://xcimg.szwego.com/img/7821319d/20240723/a1721665273733_1232.jpg"],"created_at":"2024-08-04T12:57:22.845Z"},{"id":"item-692425f9bad5","sku":"_dmNmN26I1JuObC1uAaXiYc35e0d4TgeCIWhaaTA","name_en":"Saint Laurent Women Bags","name_cn":"温柔随性的奶茶色","specs":{"source":"wsxcme","sourceId":"_dmNmN26I1JuObC1uAaXiYc35e0d4TgeCIWhaaTA","sourceTagId":47002761,"sourceTagName":"圣罗兰/女包","rawTitle":"温柔随性的奶茶色"},"price":null,"currency":"CNY","moq":1,"category":"ysl-women-bags","status":"active","alibaba_url":null,"images":["https://xcimg.szwego.com/img/f8c0bdc9/20240904/i1725435124_6044_0.jpg","https://xcimg.szwego.com/img/f8c0bdc9/20240904/i1725435124_8629_3.jpg","https://xcimg.szwego.com/img/f8c0bdc9/20240904/i1725435124_3189_2.jpg","https://xcimg.szwego.com/img/f8c0bdc9/20240904/i1725435124_3150_4.jpg","https://xcimg.szwego.com/img/f8c0bdc9/20240904/i1725435124_4414_1.jpg"],"created_at":"2026-05-20T04:01:39.083Z"},{"id":"item-682c742d4a97","sku":"_dsvsvGvNWUD6xc79GHNtddUrN7rVHVaMWLHxzkA","name_en":"Saint Laurent Women Bags","name_cn":"官网图","specs":{"source":"wsxcme","sourceId":"_dsvsvGvNWUD6xc79GHNtddUrN7rVHVaMWLHxzkA","sourceTagId":47002761,"sourceTagName":"圣罗兰/女包","rawTitle":"官网图"},"price":null,"currency":"CNY","moq":1,"category":"ysl-women-bags","status":"active","alibaba_url":null,"images":["https://xcimg.szwego.com/imgHD/f8c0bdc9/20260420/cmp_i1776674058340_2605_0_0.jpg","https://xcimg.szwego.com/imgHD/f8c0bdc9/20260420/cmp_i1776674058341_8040_0_1.jpg","https://xcimg.szwego.com/imgHD/f8c0bdc9/20260420/cmp_i1776674058338_8697_0_2.jpg","https://xcimg.szwego.com/imgHD/f8c0bdc9/20260420/cmp_i1776674058340_1705_0_3.jpg","https://xcimg.szwego.com/imgHD/f8c0bdc9/20260420/cmp_i1776674058340_1591_0_4.jpg"],"created_at":"2026-06-29T10:48:58.929Z"},{"id":"item-6438fffaf507","sku":"_dxJxJf1DH12zNo2Hz7Dk1FaDxYtthYQhZYCdkBw","name_en":"Saint Laurent Women Bags","name_cn":"白色鱼子酱绣线·\nY家鱼子酱牛皮大号托特包/购物袋\n标志性LOGO化身摩登代码,在经典更迭延续间,续写灵感章节,以醒目刻印包揽多元姿态。超大容量,可以装ipad电脑,春夏出游的旅行袋,可造可凹造型,复古简约的设计,时髦又出片,ins博主推荐热款~真的太香啦!\n款号:668900\n尺寸:33×22×15","specs":{"source":"wsxcme","sourceId":"_dxJxJf1DH12zNo2Hz7Dk1FaDxYtthYQhZYCdkBw","sourceTagId":47002761,"sourceTagName":"圣罗兰/女包","modelNumber":"668900","rawTitle":"白色鱼子酱绣线·\nY家鱼子酱牛皮大号托特包/购物袋\n标志性LOGO化身摩登代码,在经典更迭延续间,续写灵感章节,以醒目刻印包揽多元姿态。超大容量,可以装ipad电脑,春夏出游的旅行袋,可造可凹造型,复古简约的设计,时髦又出片,ins博主推荐热款~真的太香啦!\n款号:668900\n尺寸:33×22×15"},"price":null,"currency":"CNY","moq":1,"category":"ysl-women-bags","status":"active","alibaba_url":null,"images":["https://xcimg.szwego.com/img/f8c0bdc9/20250106/i1736150406743_1856_0_0.jpg","https://xcimg.szwego.com/img/f8c0bdc9/20250106/i1736150406439_622_0_1.jpg","https://xcimg.szwego.com/img/f8c0bdc9/20250106/i1736150406363_2265_0_2.jpg","https://xcimg.szwego.com/img/f8c0bdc9/20250106/i1736150406816_7098_0_3.jpg","https://xcimg.szwego.com/img/f8c0bdc9/20250106/i1736150406901_5352_0_4.jpg","https://xcimg.szwego.com/img/f8c0bdc9/20250106/i1736150406966_341_0_8.jpg","https://xcimg.szwego.com/img/f8c0bdc9/20250106/i1736150406505_467_0_5.jpg","https://xcimg.szwego.com/img/f8c0bdc9/20250106/i1736150406662_1398_0_6.jpg","https://xcimg.szwego.com/img/f8c0bdc9/20250106/i1736150406584_7055_0_7.jpg"],"created_at":"2025-02-09T12:25:11.797Z"},{"id":"item-63ecb434dbce","sku":"_dnXnX6NPzleFidAiuvzAmDerb3fM2J4kn60057A","name_en":"Saint Laurent Women Bags","name_cn":"正品上身效果~~","specs":{"source":"wsxcme","sourceId":"_dnXnX6NPzleFidAiuvzAmDerb3fM2J4kn60057A","sourceTagId":47002761,"sourceTagName":"圣罗兰/女包","rawTitle":"正品上身效果~~"},"price":null,"currency":"CNY","moq":1,"category":"ysl-women-bags","status":"active","alibaba_url":null,"images":["https://xcimg.szwego.com/img/58395cbb/20241026/a1729930233045_0182.jpg","https://xcimg.szwego.com/img/58395cbb/20241026/a1729930233034_4103.jpg","https://xcimg.szwego.com/img/58395cbb/20241026/a1729930233121_6686.jpg","https://xcimg.szwego.com/img/58395cbb/20241026/a1729930233186_5088.jpg","https://xcimg.szwego.com/img/58395cbb/20241026/a1729930243925_6306.jpg"],"created_at":"2025-07-20T03:05:44.257Z"},{"id":"item-6376c2113a74","sku":"_dkYkYdOdsS-E2OqRFfzIvvxmjUUplYWG1_HVDbQ","name_en":"Saint Laurent Women Bags","name_cn":"气质这块已经被轻松拿捏!\n谁背谁精致~","specs":{"source":"wsxcme","sourceId":"_dkYkYdOdsS-E2OqRFfzIvvxmjUUplYWG1_HVDbQ","sourceTagId":47002761,"sourceTagName":"圣罗兰/女包","rawTitle":"气质这块已经被轻松拿捏!\n谁背谁精致~"},"price":null,"currency":"CNY","moq":1,"category":"ysl-women-bags","status":"active","alibaba_url":null,"images":["https://xcimg.szwego.com/img/a2a6846e/20240630/i1719728828_5584_1.jpg","https://xcimg.szwego.com/img/a2a6846e/20240630/i1719728829_638_3.jpg","https://xcimg.szwego.com/img/a2a6846e/20240630/i1719728828_5182_0.jpg","https://xcimg.szwego.com/img/a2a6846e/20240630/i1719728829_6778_2.jpg"],"created_at":"2025-07-20T03:05:44.175Z"},{"id":"item-62e910fb6cef","sku":"_duFuFnMpdx0FMfYFoxETlbFA_FWjvXnrWR_U3OA","name_en":"Saint Laurent Women Bags","name_cn":"羊皮白/金❗️❗️顶级原单、精品专供❗️❗️\n #Loulou puffer#中号29CM🐑绗缝小羊皮包,原厂正品皮制作,手感柔软细腻,犹如怀抱云朵☁️般的感受;经典的Y家logo、链条及扣眼五金均采用巴金哑光银五金,包袋开口处折叠后使用了磁性四合扣封口,密闭性及安全性一流;包内设有一个拉链内袋可放置手机及贵重物品,除此之外无多余内袋设计,使用起来随心所欲!正品皮!正品皮!正品皮!\n尺寸:29x17x11cm  \n型号:577476","specs":{"source":"wsxcme","sourceId":"_duFuFnMpdx0FMfYFoxETlbFA_FWjvXnrWR_U3OA","sourceTagId":47002761,"sourceTagName":"圣罗兰/女包","modelNumber":"577476","dimensions":{"lengthCm":29,"heightCm":17,"widthCm":11},"rawTitle":"羊皮白/金❗️❗️顶级原单、精品专供❗️❗️\n #Loulou puffer#中号29CM🐑绗缝小羊皮包,原厂正品皮制作,手感柔软细腻,犹如怀抱云朵☁️般的感受;经典的Y家logo、链条及扣眼五金均采用巴金哑光银五金,包袋开口处折叠后使用了磁性四合扣封口,密闭性及安全性一流;包内设有一个拉链内袋可放置手机及贵重物品,除此之外无多余内袋设计,使用起来随心所欲!正品皮!正品皮!正品皮!\n尺寸:29x17x11cm  \n型号:577476"},"price":null,"currency":"CNY","moq":1,"category":"ysl-women-bags","status":"active","alibaba_url":null,"images":["https://xcimg.szwego.com/20230329/i1680083223_3416_0.jpg","https://xcimg.szwego.com/20230329/i1680083223_7414_1.jpg","https://xcimg.szwego.com/20230329/i1680083223_3624_2.jpg","https://xcimg.szwego.com/20230329/i1680083223_8671_3.jpg","https://xcimg.szwego.com/20230329/i1680083223_1438_4.jpg","https://xcimg.szwego.com/20230329/i1680083223_4536_5.jpg","https://xcimg.szwego.com/20230329/i1680083223_7439_6.jpg","https://xcimg.szwego.com/20230329/i1680083223_7027_7.jpg","https://xcimg.szwego.com/20230329/i1680083223_2217_8.jpg"],"created_at":"2024-12-08T05:44:18.354Z"},{"id":"item-6240d1f6be79","sku":"_dhGhG7SidNEA-L0vzkRAlibFJtaCYMhrYxUmi-g","name_en":"Saint Laurent Women Bags","name_cn":"黑色搭配银色 更加低调\n极简设计 容量足够大\n公文包 旅行包 购物袋 妈妈包随意切换","specs":{"source":"wsxcme","sourceId":"_dhGhG7SidNEA-L0vzkRAlibFJtaCYMhrYxUmi-g","sourceTagId":47002761,"sourceTagName":"圣罗兰/女包","rawTitle":"黑色搭配银色 更加低调\n极简设计 容量足够大\n公文包 旅行包 购物袋 妈妈包随意切换"},"price":null,"currency":"CNY","moq":1,"category":"ysl-women-bags","status":"active","alibaba_url":null,"images":["https://xcimg.szwego.com/imgHD/f8c0bdc9/20260420/cmp_i1776669351727_8946_0_0.jpg","https://xcimg.szwego.com/imgHD/f8c0bdc9/20260420/cmp_i1776669351984_9242_0_1.jpg","https://xcimg.szwego.com/imgHD/f8c0bdc9/20260420/cmp_i1776669351862_7869_0_2.jpg","https://xcimg.szwego.com/imgHD/f8c0bdc9/20260420/cmp_i1776669351970_9630_0_3.jpg","https://xcimg.szwego.com/imgHD/f8c0bdc9/20260420/cmp_i1776669352014_3583_0_4.jpg"],"created_at":"2026-06-29T10:48:58.919Z"},{"id":"item-61b55a09c1a4","sku":"_dlXlXipU05vcj64zTSNMkL1mVI39mQgONVttrzw","name_en":"Saint Laurent Women Bags","name_cn":"黑牙签纹/银\nSunset 22cm#经典款贵气牙签纹sunset日落包 原厂皮版本!喜欢牙签纹包包的小伙伴不能错过的一款!高品质 正品皮,正品开模五金,追求每一个每一个细节,力求无穷大的接近正品 👍\n尺寸:22x8x16cm\n型号:442906","specs":{"source":"wsxcme","sourceId":"_dlXlXipU05vcj64zTSNMkL1mVI39mQgONVttrzw","sourceTagId":47002761,"sourceTagName":"圣罗兰/女包","modelNumber":"442906","dimensions":{"lengthCm":22,"heightCm":8,"widthCm":16},"rawTitle":"黑牙签纹/银\nSunset 22cm#经典款贵气牙签纹sunset日落包 原厂皮版本!喜欢牙签纹包包的小伙伴不能错过的一款!高品质 正品皮,正品开模五金,追求每一个每一个细节,力求无穷大的接近正品 👍\n尺寸:22x8x16cm\n型号:442906"},"price":null,"currency":"CNY","moq":1,"category":"ysl-women-bags","status":"active","alibaba_url":null,"images":["https://xcimg.szwego.com/img/7821319d/20240615/i1718383145_1999_0.jpg","https://xcimg.szwego.com/img/7821319d/20240615/i1718383145_6556_0.jpg","https://xcimg.szwego.com/img/7821319d/20240615/i1718383145_8784_0.jpg","https://xcimg.szwego.com/img/7821319d/20240615/i1718383145_9042_0.jpg","https://xcimg.szwego.com/img/7821319d/20240615/i1718383145_8196_0.jpg","https://xcimg.szwego.com/img/7821319d/20240615/i1718383145_377_0.jpg","https://xcimg.szwego.com/img/7821319d/20240615/i1718383145_6005_0.jpg","https://xcimg.szwego.com/img/7821319d/20240615/i1718383145_5084_0.jpg","https://xcimg.szwego.com/img/7821319d/20240615/i1718383145_178_0.jpg"],"created_at":"2024-08-04T12:57:22.850Z"}],"page":407,"pageSize":24,"total":10075,"totalPages":420}
