{"items":[{"id":"item-cb6fff5b0552","sku":"_dfyfyu1Puyqt_ljfS55Cn-vd7s6utF61eE_QHaQ","name_en":"Gucci Horsebit 型号:735178 尺寸:24*13*6 1955系列以经典设计为灵感,将六十多年前首次推出的原始细节与现代精神统一起来,突出了马衔扣。作为Gucci遗传密码的一部分,双环和双杆设计已被确立为从马术界借来的品牌符号中最独特的元素之一","name_cn":"Gucci Horsebit 型号:735178 尺寸:24*13*6 1955系列以经典设计为灵感,将六十多年前首次推出的原始细节与现代精神统一起来,突出了马衔扣。作为Gucci遗传密码的一部分,双环和双杆设计已被确立为从马术界借来的品牌符号中最独特的元素之一","specs":{"source":"wsxcme","sourceId":"_dfyfyu1Puyqt_ljfS55Cn-vd7s6utF61eE_QHaQ","sourceTagId":47002679,"sourceTagName":"古驰/女包","modelNumber":"735178 尺寸:24*13*6 1955系列以经典设计为灵感","rawTitle":"Gucci Horsebit 型号:735178 尺寸:24*13*6 1955系列以经典设计为灵感,将六十多年前首次推出的原始细节与现代精神统一起来,突出了马衔扣。作为Gucci遗传密码的一部分,双环和双杆设计已被确立为从马术界借来的品牌符号中最独特的元素之一"},"price":null,"currency":"CNY","moq":1,"category":"gucci-women-bags","status":"active","alibaba_url":null,"images":["https://xcimg.szwego.com/20221229/i1672293028_2674_0.jpg","https://xcimg.szwego.com/20221229/i1672293028_637_1.jpg","https://xcimg.szwego.com/20221229/i1672293028_3912_2.jpg","https://xcimg.szwego.com/20221229/i1672293028_6874_3.jpg","https://xcimg.szwego.com/20221229/i1672293028_7098_4.jpg","https://xcimg.szwego.com/20221229/i1672293028_442_5.jpg","https://xcimg.szwego.com/20221229/i1672293028_2134_6.jpg","https://xcimg.szwego.com/20221229/i1672293028_659_7.jpg","https://xcimg.szwego.com/20221229/i1672293028_7848_8.jpg"],"created_at":"2026-03-18T14:55:27.840Z"},{"id":"item-7028c20eeeb7","sku":"_dauauf08ZCnM9uGpJVVOODdR1fwuZdN_j7pVdjQ","name_en":"Gucci Jackie1961系列","name_cn":"Gucci Jackie1961系列\nJackie链条包\n推出全新长款钱包\n采用精致链带设计可轻松转换为小巧玲珑的迷你手袋,金色调推入式锁扣细节令人\n联想起1961年问世的Jackie手袋\n经典双G字母交织图案帆布突显别致的品牌内涵。\n我可以想到无数种搭配,让你爱上复古风\n型号 652681      \n尺寸 19x10x3.5cm","specs":{"source":"wsxcme","sourceId":"_dauauf08ZCnM9uGpJVVOODdR1fwuZdN_j7pVdjQ","sourceTagId":47002679,"sourceTagName":"古驰/女包","modelNumber":"652681","dimensions":{"lengthCm":19,"heightCm":10,"widthCm":3.5},"rawTitle":"Gucci Jackie1961系列\nJackie链条包\n推出全新长款钱包\n采用精致链带设计可轻松转换为小巧玲珑的迷你手袋,金色调推入式锁扣细节令人\n联想起1961年问世的Jackie手袋\n经典双G字母交织图案帆布突显别致的品牌内涵。\n我可以想到无数种搭配,让你爱上复古风\n型号 652681      \n尺寸 19x10x3.5cm"},"price":null,"currency":"CNY","moq":1,"category":"gucci-women-bags","status":"active","alibaba_url":null,"images":["https://xcimg.szwego.com/20210730/i1627655750_57_0.jpg","https://xcimg.szwego.com/20210730/i1627655750_6821_1.jpg","https://xcimg.szwego.com/20210730/i1627655750_6593_2.jpg","https://xcimg.szwego.com/20210730/i1627655750_206_3.jpg","https://xcimg.szwego.com/20210730/i1627655750_8201_4.jpg","https://xcimg.szwego.com/20210730/i1627655750_3829_5.jpg","https://xcimg.szwego.com/20210730/i1627655750_2647_6.jpg","https://xcimg.szwego.com/20210730/i1627655750_5601_7.jpg","https://xcimg.szwego.com/20210730/i1627655750_3931_8.jpg"],"created_at":"2024-11-26T11:46:47.117Z"},{"id":"item-ff31e24c6753","sku":"_d_4_4PXBc-ZBLrsoBz4TiYtsr2DC_0-5lJiTq-Q","name_en":"Gucci Women Bags","name_cn":"【独家背景】实物实拍🌹🌹原厂品质 款号:857622灰绿压花  🌊🌊尺寸28✖️16✖️7","specs":{"source":"wsxcme","sourceId":"_d_4_4PXBc-ZBLrsoBz4TiYtsr2DC_0-5lJiTq-Q","sourceTagId":47002679,"sourceTagName":"古驰/女包","modelNumber":"857622灰绿压花  🌊🌊尺寸28✖️16✖️7","rawTitle":"【独家背景】实物实拍🌹🌹原厂品质 款号:857622灰绿压花  🌊🌊尺寸28✖️16✖️7"},"price":null,"currency":"CNY","moq":1,"category":"gucci-women-bags","status":"active","alibaba_url":null,"images":["https://xcimg.szwego.com/img/ac9333ee/20260124/i1769254380241_584_0_0.jpg","https://xcimg.szwego.com/img/ac9333ee/20260124/i1769254380283_3745_0_1.jpg","https://xcimg.szwego.com/img/ac9333ee/20260124/i1769254379088_4228_0_2.jpg","https://xcimg.szwego.com/img/ac9333ee/20260124/i1769254379176_4031_0_3.jpg","https://xcimg.szwego.com/img/ac9333ee/20260124/i1769254380205_1285_0_4.jpg","https://xcimg.szwego.com/img/ac9333ee/20260124/i1769254379152_4960_0_5.jpg","https://xcimg.szwego.com/img/ac9333ee/20260124/i1769254379097_5140_0_6.jpg","https://xcimg.szwego.com/img/ac9333ee/20260124/i1769254379138_4933_0_7.jpg","https://xcimg.szwego.com/img/ac9333ee/20260124/i1769254380170_8758_0_8.jpg"],"created_at":"2026-06-29T11:04:23.134Z"},{"id":"item-fd802232d255","sku":"_dgQgQwnbQFYFIUhgVmcWtTzlHVrq-vnWMYAE_2Q","name_en":"Gucci Women Bags","name_cn":"【原厂皮】大货🔥实拍\n🔥 GG Marmont版方胖子\n型号:739682 尺寸:18-13.5-8cm","specs":{"source":"wsxcme","sourceId":"_dgQgQwnbQFYFIUhgVmcWtTzlHVrq-vnWMYAE_2Q","sourceTagId":47002679,"sourceTagName":"古驰/女包","modelNumber":"739682 尺寸:18-13.5-8cm","rawTitle":"【原厂皮】大货🔥实拍\n🔥 GG Marmont版方胖子\n型号:739682 尺寸:18-13.5-8cm"},"price":null,"currency":"CNY","moq":1,"category":"gucci-women-bags","status":"active","alibaba_url":null,"images":["https://xcimg.szwego.com/20230305/i1677961080_8080_0.jpg","https://xcimg.szwego.com/20230305/i1677961080_9780_7.jpg","https://xcimg.szwego.com/20230305/i1677961080_4434_1.jpg","https://xcimg.szwego.com/20230305/i1677961080_8038_8.jpg","https://xcimg.szwego.com/20230305/i1677961080_9657_2.jpg","https://xcimg.szwego.com/20230305/i1677961080_9231_3.jpg","https://xcimg.szwego.com/20230305/i1677961080_1178_5.jpg","https://xcimg.szwego.com/20230305/i1677961080_3530_6.jpg","https://xcimg.szwego.com/20230305/i1677961080_8739_4.jpg"],"created_at":"2024-10-20T11:19:56.237Z"},{"id":"item-f83db1b2819e","sku":"_dAiAibjkx158c_zCVnP75I7M9oKbzw38_re7phQ","name_en":"Gucci Women Bags","name_cn":"# 热 卖 款#\n型号547965    尺寸22*29*15\n  背包始终是不可或缺的一部分,以多种造型呈现,采用高级PVC料制成,织纹皮革滚边。镶嵌的红绿织带细节,书包背面,背带背面为黑色网纱面,以及双G配件的设计,这些经典元素 不管什么时候都能让这个包包冲满活力","specs":{"source":"wsxcme","sourceId":"_dAiAibjkx158c_zCVnP75I7M9oKbzw38_re7phQ","sourceTagId":47002679,"sourceTagName":"古驰/女包","modelNumber":"547965    尺寸22*29*15","rawTitle":"# 热 卖 款#\n型号547965    尺寸22*29*15\n  背包始终是不可或缺的一部分,以多种造型呈现,采用高级PVC料制成,织纹皮革滚边。镶嵌的红绿织带细节,书包背面,背带背面为黑色网纱面,以及双G配件的设计,这些经典元素 不管什么时候都能让这个包包冲满活力"},"price":null,"currency":"CNY","moq":1,"category":"gucci-women-bags","status":"active","alibaba_url":null,"images":["https://xcimg.szwego.com/1550554066_770820272_0","https://xcimg.szwego.com/1550554066_3921935331_1","https://xcimg.szwego.com/1550554066_2984576191_2","https://xcimg.szwego.com/1550554066_1079881481_3","https://xcimg.szwego.com/1550554066_1778207158_4","https://xcimg.szwego.com/1550554066_4015376828_5","https://xcimg.szwego.com/1550554066_3065984651_6","https://xcimg.szwego.com/1550554067_1928141949_7","https://xcimg.szwego.com/1550554067_3596007535_8"],"created_at":"2024-11-26T11:46:47.125Z"},{"id":"item-f73d7b86df8f","sku":"_dcrcrFy4VlDGyXbXDnyk7XwJd66nLaDP80Qb-PA","name_en":"Gucci Women Bags","name_cn":"🔥官网参考\n\n型号:782849  尺寸:27.5x19x4cm","specs":{"source":"wsxcme","sourceId":"_dcrcrFy4VlDGyXbXDnyk7XwJd66nLaDP80Qb-PA","sourceTagId":47002679,"sourceTagName":"古驰/女包","modelNumber":"782849  尺寸:27.5x19x4cm","dimensions":{"lengthCm":27.5,"heightCm":19,"widthCm":4},"rawTitle":"🔥官网参考\n\n型号:782849  尺寸:27.5x19x4cm"},"price":null,"currency":"CNY","moq":1,"category":"gucci-women-bags","status":"active","alibaba_url":null,"images":["https://xcimg.szwego.com/img/dace2ca2/20241106/a1730890203510_8775.jpg","https://xcimg.szwego.com/img/dace2ca2/20241106/a1730890203499_8014.jpg","https://xcimg.szwego.com/img/dace2ca2/20241106/a1730890203507_8377.jpg","https://xcimg.szwego.com/img/dace2ca2/20241106/a1730890203512_0304.jpg","https://xcimg.szwego.com/img/dace2ca2/20241106/a1730890203514_5274.jpg","https://xcimg.szwego.com/img/dace2ca2/20241106/a1730890203506_6822.jpg","https://xcimg.szwego.com/img/dace2ca2/20241106/a1730890204254_4177.jpg","https://xcimg.szwego.com/img/dace2ca2/20241106/a1730890204256_2347.jpg"],"created_at":"2025-03-29T13:24:08.761Z"},{"id":"item-f1f945cb5587","sku":"_dgigiAYuwNeG47r1pIAjZ4lRT0Nt-eQlKmwWhTw","name_en":"Gucci Women Bags","name_cn":"菜篮子来啦“🧺","specs":{"source":"wsxcme","sourceId":"_dgigiAYuwNeG47r1pIAjZ4lRT0Nt-eQlKmwWhTw","sourceTagId":47002679,"sourceTagName":"古驰/女包","rawTitle":"菜篮子来啦“🧺"},"price":null,"currency":"CNY","moq":1,"category":"gucci-women-bags","status":"active","alibaba_url":null,"images":["https://xcimg.szwego.com/img/7f9d4644/20260125/i1769322713977_9615_0_0.jpg","https://xcimg.szwego.com/img/7f9d4644/20260125/i1769322713977_8274_0_1.jpg","https://xcimg.szwego.com/img/7f9d4644/20260125/i1769322713977_2159_0_2.jpg","https://xcimg.szwego.com/img/7f9d4644/20260125/i1769322713977_3971_0_3.jpg"],"created_at":"2026-05-20T03:19:23.888Z"},{"id":"item-f197c1152569","sku":"_dh0h0vVvHwnAtKPptPNjV6Yijz1WbPd2WQVCoiw","name_en":"Gucci Women Bags","name_cn":"782849淡粉色漆皮\nJackie 1961粉色蹲嘟太甜啦\n粉色是路过人间的情人节\n贩卖粉色的温柔,精致简单低调","specs":{"source":"wsxcme","sourceId":"_dh0h0vVvHwnAtKPptPNjV6Yijz1WbPd2WQVCoiw","sourceTagId":47002679,"sourceTagName":"古驰/女包","rawTitle":"782849淡粉色漆皮\nJackie 1961粉色蹲嘟太甜啦\n粉色是路过人间的情人节\n贩卖粉色的温柔,精致简单低调"},"price":null,"currency":"CNY","moq":1,"category":"gucci-women-bags","status":"active","alibaba_url":null,"images":["https://xcimg.szwego.com/img/dace2ca2/20241106/a1730900810975_2642.jpg","https://xcimg.szwego.com/img/dace2ca2/20241106/a1730900810982_1073.jpg","https://xcimg.szwego.com/img/dace2ca2/20241106/a1730900810988_7545.jpg","https://xcimg.szwego.com/img/dace2ca2/20241106/a1730900810992_6611.jpg","https://xcimg.szwego.com/img/dace2ca2/20241106/a1730900810996_4223.jpg","https://xcimg.szwego.com/img/dace2ca2/20241106/a1730900810989_7008.jpg"],"created_at":"2025-03-29T13:24:08.772Z"},{"id":"item-f18e9978ca18","sku":"_dqjqjtSafKwCFlHZB-K0I6OzGhs1VeVicKUZuVQ","name_en":"Gucci Women Bags","name_cn":"782849森林绿色漆皮\nJackie 全新森林绿新款腋下包\n这绝对是我今年心中的包王","specs":{"source":"wsxcme","sourceId":"_dqjqjtSafKwCFlHZB-K0I6OzGhs1VeVicKUZuVQ","sourceTagId":47002679,"sourceTagName":"古驰/女包","rawTitle":"782849森林绿色漆皮\nJackie 全新森林绿新款腋下包\n这绝对是我今年心中的包王"},"price":null,"currency":"CNY","moq":1,"category":"gucci-women-bags","status":"active","alibaba_url":null,"images":["https://xcimg.szwego.com/img/dace2ca2/20250327/a1743084179975_4546.jpg","https://xcimg.szwego.com/img/dace2ca2/20250327/a1743084179974_5516.jpg","https://xcimg.szwego.com/img/dace2ca2/20250327/a1743084179971_5328.jpg","https://xcimg.szwego.com/img/dace2ca2/20250327/a1743084179970_5270.jpg"],"created_at":"2025-03-29T13:24:08.781Z"},{"id":"item-f07dde49cf3c","sku":"_djjjj-w_RZSVnkM6XPzE3U0TciZeBXzq1fMpO4g","name_en":"Gucci Women Bags","name_cn":"【独家背景】实物实拍品质 款号:499623蓝胶 🌊🌊尺寸25✖️13.5✖️7","specs":{"source":"wsxcme","sourceId":"_djjjj-w_RZSVnkM6XPzE3U0TciZeBXzq1fMpO4g","sourceTagId":47002679,"sourceTagName":"古驰/女包","modelNumber":"499623蓝胶 🌊🌊尺寸25✖️13.5✖️7","rawTitle":"【独家背景】实物实拍品质 款号:499623蓝胶 🌊🌊尺寸25✖️13.5✖️7"},"price":null,"currency":"CNY","moq":1,"category":"gucci-women-bags","status":"active","alibaba_url":null,"images":["https://xcimg.szwego.com/img/ac9333ee/20251118/i1763447188391_8606_0_0.jpg","https://xcimg.szwego.com/img/ac9333ee/20251118/i1763447189344_3282_0_1.jpg","https://xcimg.szwego.com/img/ac9333ee/20251118/i1763447189466_3540_0_2.jpg","https://xcimg.szwego.com/img/ac9333ee/20251118/i1763447188368_4754_0_3.jpg","https://xcimg.szwego.com/img/ac9333ee/20251118/i1763447189460_5844_0_4.jpg","https://xcimg.szwego.com/img/ac9333ee/20251118/i1763447188386_2906_0_5.jpg","https://xcimg.szwego.com/img/ac9333ee/20251118/i1763447189412_768_0_6.jpg","https://xcimg.szwego.com/img/ac9333ee/20251118/i1763447189433_8879_0_7.jpg","https://xcimg.szwego.com/img/ac9333ee/20251118/i1763447188381_8494_0_8.jpg","https://xcimg.szwego.com/img/ac9333ee/20251118/i1763447188336_293_0_9.jpg"],"created_at":"2026-06-29T11:04:23.104Z"},{"id":"item-ed41f75ca4cf","sku":"_dxzxz_lGxr5elARjUgbeQJsSfNiFwchlp3kV30A","name_en":"Gucci Women Bags","name_cn":"【独家背景】实物实拍品质 款号:621512啡棕  🌊🌊尺寸27.5✖️21✖️16","specs":{"source":"wsxcme","sourceId":"_dxzxz_lGxr5elARjUgbeQJsSfNiFwchlp3kV30A","sourceTagId":47002679,"sourceTagName":"古驰/女包","modelNumber":"621512啡棕  🌊🌊尺寸27.5✖️21✖️16","rawTitle":"【独家背景】实物实拍品质 款号:621512啡棕  🌊🌊尺寸27.5✖️21✖️16"},"price":null,"currency":"CNY","moq":1,"category":"gucci-women-bags","status":"active","alibaba_url":null,"images":["https://xcimg.szwego.com/img/ac9333ee/20251221/i1766299278777_8974_0_0.jpg","https://xcimg.szwego.com/img/ac9333ee/20251221/i1766299278839_1235_0_1.jpg","https://xcimg.szwego.com/img/ac9333ee/20251221/i1766299278059_9522_0_2.jpg","https://xcimg.szwego.com/img/ac9333ee/20251221/i1766299278091_7432_0_3.jpg","https://xcimg.szwego.com/img/ac9333ee/20251221/i1766299278776_6336_0_4.jpg","https://xcimg.szwego.com/img/ac9333ee/20251221/i1766299278046_4770_0_5.jpg","https://xcimg.szwego.com/img/ac9333ee/20251221/i1766299278011_171_0_6.jpg","https://xcimg.szwego.com/img/ac9333ee/20251221/i1766299278798_5166_0_7.jpg","https://xcimg.szwego.com/img/ac9333ee/20251221/i1766299278776_3466_0_8.jpg","https://xcimg.szwego.com/img/ac9333ee/20251221/i1766299277958_1348_0_9.jpg"],"created_at":"2026-06-29T11:04:23.174Z"},{"id":"item-eb5d892e0a3e","sku":"_di_i_0-nx4epzTtNypmmo-apzmvPhW1MNVZ97wQ","name_en":"Gucci Women Bags","name_cn":"782849粉色漆皮\n明星模特\n上身参考图","specs":{"source":"wsxcme","sourceId":"_di_i_0-nx4epzTtNypmmo-apzmvPhW1MNVZ97wQ","sourceTagId":47002679,"sourceTagName":"古驰/女包","rawTitle":"782849粉色漆皮\n明星模特\n上身参考图"},"price":null,"currency":"CNY","moq":1,"category":"gucci-women-bags","status":"active","alibaba_url":null,"images":["https://xcimg.szwego.com/img/dace2ca2/20241106/a1730899266884_8331.jpg","https://xcimg.szwego.com/img/dace2ca2/20241106/a1730899266888_7860.jpg","https://xcimg.szwego.com/img/dace2ca2/20241106/a1730899266897_8104.jpg"],"created_at":"2025-03-29T13:24:08.769Z"},{"id":"item-eb4bc170570c","sku":"_dn4n4396ZPp7AWhWwBK9XzTlPX8yYv5s7savKrQ","name_en":"Gucci Women Bags","name_cn":"▪️ 上身效果","specs":{"source":"wsxcme","sourceId":"_dn4n4396ZPp7AWhWwBK9XzTlPX8yYv5s7savKrQ","sourceTagId":47002679,"sourceTagName":"古驰/女包","rawTitle":"▪️ 上身效果"},"price":null,"currency":"CNY","moq":1,"category":"gucci-women-bags","status":"active","alibaba_url":null,"images":["https://xcimg.szwego.com/img/7f9d4644/20260130/i1769753959300_5749_0_0.jpg","https://xcimg.szwego.com/img/7f9d4644/20260130/i1769753959300_5183_0_1.jpg","https://xcimg.szwego.com/img/7f9d4644/20260130/i1769753959300_961_0_2.jpg","https://xcimg.szwego.com/img/7f9d4644/20260130/i1769753959300_9417_0_3.jpg"],"created_at":"2026-05-20T03:19:23.648Z"},{"id":"item-eb3b7ca80ce0","sku":"_dRCRCIhGTuYP1X1ASIjsDsccTOQoIiQLhL4figw","name_en":"Gucci Women Bags","name_cn":"782849棕色全皮\n明星模特\n上身参考图","specs":{"source":"wsxcme","sourceId":"_dRCRCIhGTuYP1X1ASIjsDsccTOQoIiQLhL4figw","sourceTagId":47002679,"sourceTagName":"古驰/女包","rawTitle":"782849棕色全皮\n明星模特\n上身参考图"},"price":null,"currency":"CNY","moq":1,"category":"gucci-women-bags","status":"active","alibaba_url":null,"images":["https://xcimg.szwego.com/img/dace2ca2/20241106/a1730889667530_8406.jpg","https://xcimg.szwego.com/img/dace2ca2/20241106/a1730889667581_0540.jpg","https://xcimg.szwego.com/img/dace2ca2/20241106/a1730889667585_6451.jpg"],"created_at":"2025-03-29T13:24:08.756Z"},{"id":"item-e17773890a34","sku":"_dc1c1ELv7BchF2NjRzc0L4tk1MhPbHhYpzfOoVQ","name_en":"Gucci Women Bags","name_cn":"更多细节图","specs":{"source":"wsxcme","sourceId":"_dc1c1ELv7BchF2NjRzc0L4tk1MhPbHhYpzfOoVQ","sourceTagId":47002679,"sourceTagName":"古驰/女包","rawTitle":"更多细节图"},"price":null,"currency":"CNY","moq":1,"category":"gucci-women-bags","status":"active","alibaba_url":null,"images":["https://xcimg.szwego.com/img/7f9d4644/20260130/i1769753745111_7915_0_0.jpg","https://xcimg.szwego.com/img/7f9d4644/20260130/i1769753745448_8259_0_1.jpg","https://xcimg.szwego.com/img/7f9d4644/20260130/i1769753745406_9800_0_2.jpg","https://xcimg.szwego.com/img/7f9d4644/20260130/i1769753745108_9516_0_3.jpg"],"created_at":"2026-05-20T03:19:23.608Z"},{"id":"item-e15c2f0db2c2","sku":"_dphph6d11HdgwSXt8G-PlRmbd4EOaery0Afl0ow","name_en":"Gucci Women Bags","name_cn":"实拍#       只做头层皮 真牛皮\n\n款号:308364深绿\n尺寸:21x15x7cm\n\nGG disco soho相机包. 经典永不会过时\n浮雕双G配上皮革流苏.头层牛皮 超级软\n斜挎✅单肩✅手拿✅","specs":{"source":"wsxcme","sourceId":"_dphph6d11HdgwSXt8G-PlRmbd4EOaery0Afl0ow","sourceTagId":47002679,"sourceTagName":"古驰/女包","modelNumber":"308364深绿","dimensions":{"lengthCm":21,"heightCm":15,"widthCm":7},"rawTitle":"实拍#       只做头层皮 真牛皮\n\n款号:308364深绿\n尺寸:21x15x7cm\n\nGG disco soho相机包. 经典永不会过时\n浮雕双G配上皮革流苏.头层牛皮 超级软\n斜挎✅单肩✅手拿✅"},"price":null,"currency":"CNY","moq":1,"category":"gucci-women-bags","status":"active","alibaba_url":null,"images":["https://xcimg.szwego.com/20221027/i1666863694_8236_0.jpg","https://xcimg.szwego.com/20221027/i1666863694_4664_1.jpg","https://xcimg.szwego.com/20221027/i1666863694_7401_2.jpg","https://xcimg.szwego.com/20221027/i1666863694_1454_3.jpg","https://xcimg.szwego.com/20221027/i1666863694_6849_4.jpg","https://xcimg.szwego.com/20221027/i1666863694_9743_5.jpg","https://xcimg.szwego.com/20221027/i1666863694_9222_6.jpg","https://xcimg.szwego.com/20221027/i1666863694_3655_7.jpg","https://xcimg.szwego.com/20221027/i1666863694_8386_8.jpg"],"created_at":"2024-11-26T11:46:47.171Z"},{"id":"item-e15834243e9f","sku":"_d1T1TbGpQwRIlvywvRRqPZquCqaLw3tf5681MXw","name_en":"Gucci Women Bags","name_cn":"【独家背景】实物实拍🌹🌹原厂品质 款号:855371灰色  🌊🌊尺寸23✖️17✖️9","specs":{"source":"wsxcme","sourceId":"_d1T1TbGpQwRIlvywvRRqPZquCqaLw3tf5681MXw","sourceTagId":47002679,"sourceTagName":"古驰/女包","modelNumber":"855371灰色  🌊🌊尺寸23✖️17✖️9","rawTitle":"【独家背景】实物实拍🌹🌹原厂品质 款号:855371灰色  🌊🌊尺寸23✖️17✖️9"},"price":null,"currency":"CNY","moq":1,"category":"gucci-women-bags","status":"active","alibaba_url":null,"images":["https://xcimg.szwego.com/img/ac9333ee/20260127/i1769491358063_4563_0_0.jpg","https://xcimg.szwego.com/img/ac9333ee/20260127/i1769491359558_2570_0_1.jpg","https://xcimg.szwego.com/img/ac9333ee/20260127/i1769491358074_2457_0_2.jpg","https://xcimg.szwego.com/img/ac9333ee/20260127/i1769491359522_8041_0_3.jpg","https://xcimg.szwego.com/img/ac9333ee/20260127/i1769491358089_6797_0_4.jpg","https://xcimg.szwego.com/img/ac9333ee/20260127/i1769491359424_55_0_5.jpg","https://xcimg.szwego.com/img/ac9333ee/20260127/i1769491358012_482_0_6.jpg","https://xcimg.szwego.com/img/ac9333ee/20260127/i1769491359525_9062_0_7.jpg","https://xcimg.szwego.com/img/ac9333ee/20260127/i1769491359526_7384_0_8.jpg","https://xcimg.szwego.com/img/ac9333ee/20260127/i1769491357965_6040_0_9.jpg"],"created_at":"2026-06-29T11:04:23.124Z"},{"id":"item-de3b86433906","sku":"_dmOmOWFhDBPYrgGfArflPAHNhhRpDQSs-sz1esA","name_en":"Gucci Women Bags","name_cn":"🔥官网参考\n\n型号:782849  尺寸:27.5x19x4cm","specs":{"source":"wsxcme","sourceId":"_dmOmOWFhDBPYrgGfArflPAHNhhRpDQSs-sz1esA","sourceTagId":47002679,"sourceTagName":"古驰/女包","modelNumber":"782849  尺寸:27.5x19x4cm","dimensions":{"lengthCm":27.5,"heightCm":19,"widthCm":4},"rawTitle":"🔥官网参考\n\n型号:782849  尺寸:27.5x19x4cm"},"price":null,"currency":"CNY","moq":1,"category":"gucci-women-bags","status":"active","alibaba_url":null,"images":["https://xcimg.szwego.com/img/dace2ca2/20241106/a1730894895257_0850.jpg","https://xcimg.szwego.com/img/dace2ca2/20241106/a1730894895262_3080.jpg","https://xcimg.szwego.com/img/dace2ca2/20241106/a1730894895261_6750.jpg","https://xcimg.szwego.com/img/dace2ca2/20241106/a1730894895262_8207.jpg","https://xcimg.szwego.com/img/dace2ca2/20241106/a1730894895259_6332.jpg","https://xcimg.szwego.com/img/dace2ca2/20241106/a1730894895260_6080.jpg","https://xcimg.szwego.com/img/dace2ca2/20241106/a1730894896348_8264.jpg","https://xcimg.szwego.com/img/dace2ca2/20241106/a1730894896346_8636.jpg"],"created_at":"2025-03-29T13:24:08.765Z"},{"id":"item-de3a70c9143e","sku":"_dgwgwATsrTK3xDWbIMIb7gwWP4iS2SPjOn4swZA","name_en":"Gucci Women Bags","name_cn":"【独家背景】实物实拍🌹🌹原厂品质 款号:857622棕磨砂  🌊🌊尺寸28✖️16✖️7","specs":{"source":"wsxcme","sourceId":"_dgwgwATsrTK3xDWbIMIb7gwWP4iS2SPjOn4swZA","sourceTagId":47002679,"sourceTagName":"古驰/女包","modelNumber":"857622棕磨砂  🌊🌊尺寸28✖️16✖️7","rawTitle":"【独家背景】实物实拍🌹🌹原厂品质 款号:857622棕磨砂  🌊🌊尺寸28✖️16✖️7"},"price":null,"currency":"CNY","moq":1,"category":"gucci-women-bags","status":"active","alibaba_url":null,"images":["https://xcimg.szwego.com/img/ac9333ee/20260127/i1769491404246_5689_0_0.jpg","https://xcimg.szwego.com/img/ac9333ee/20260127/i1769491404281_3974_0_1.jpg","https://xcimg.szwego.com/img/ac9333ee/20260127/i1769491405101_7819_0_2.jpg","https://xcimg.szwego.com/img/ac9333ee/20260127/i1769491405043_4560_0_3.jpg","https://xcimg.szwego.com/img/ac9333ee/20260127/i1769491404222_4773_0_4.jpg","https://xcimg.szwego.com/img/ac9333ee/20260127/i1769491405059_5333_0_5.jpg","https://xcimg.szwego.com/img/ac9333ee/20260127/i1769491405046_8277_0_6.jpg","https://xcimg.szwego.com/img/ac9333ee/20260127/i1769491404283_951_0_7.jpg","https://xcimg.szwego.com/img/ac9333ee/20260127/i1769491404247_6190_0_8.jpg"],"created_at":"2026-06-29T11:04:23.154Z"},{"id":"item-ddacf957ec65","sku":"_dfGfGd6s1QGhgZwctAg12-E_NzCVzkMlr7-G2UA","name_en":"Gucci Women Bags","name_cn":"🎁专柜品质,顶级货,实物实拍!\n款号734814尺寸:宽26.5X高13X侧宽7,","specs":{"source":"wsxcme","sourceId":"_dfGfGd6s1QGhgZwctAg12-E_NzCVzkMlr7-G2UA","sourceTagId":47002679,"sourceTagName":"古驰/女包","modelNumber":"734814尺寸:宽26.5X高13X侧宽7","rawTitle":"🎁专柜品质,顶级货,实物实拍!\n款号734814尺寸:宽26.5X高13X侧宽7,"},"price":null,"currency":"CNY","moq":1,"category":"gucci-women-bags","status":"active","alibaba_url":null,"images":["https://xcimg.szwego.com/img/89461437/20231019/i1697690102_1494_0.jpg","https://xcimg.szwego.com/img/89461437/20231019/i1697690102_9025_1.jpg","https://xcimg.szwego.com/img/89461437/20231019/i1697690102_751_2.jpg","https://xcimg.szwego.com/img/89461437/20231019/i1697690102_2815_3.jpg","https://xcimg.szwego.com/img/89461437/20231019/i1697690102_1593_4.jpg","https://xcimg.szwego.com/img/89461437/20231019/i1697690102_9938_5.jpg","https://xcimg.szwego.com/img/89461437/20231019/i1697690102_5630_6.jpg"],"created_at":"2024-11-26T11:46:47.129Z"},{"id":"item-daccde6c2a1f","sku":"_dxYxY0zV47HDmZ_jQ9xvhW5omkjN4yEN3zQJkEA","name_en":"Gucci Women Bags","name_cn":"顶级原厂皮\n Horsebit 1955 mini\n699296尺寸:18x12x5cm","specs":{"source":"wsxcme","sourceId":"_dxYxY0zV47HDmZ_jQ9xvhW5omkjN4yEN3zQJkEA","sourceTagId":47002679,"sourceTagName":"古驰/女包","dimensions":{"lengthCm":18,"heightCm":12,"widthCm":5},"rawTitle":"顶级原厂皮\n Horsebit 1955 mini\n699296尺寸:18x12x5cm"},"price":null,"currency":"CNY","moq":1,"category":"gucci-women-bags","status":"active","alibaba_url":null,"images":["https://xcimg.szwego.com/20230207/i1675760002_8915_0.jpg","https://xcimg.szwego.com/20230207/i1675760002_5484_1.jpg","https://xcimg.szwego.com/20230207/i1675760002_6317_2.jpg","https://xcimg.szwego.com/20230207/i1675760002_504_3.jpg","https://xcimg.szwego.com/20230207/i1675760002_56_4.jpg","https://xcimg.szwego.com/20230207/i1675760002_9040_5.jpg","https://xcimg.szwego.com/20230207/i1675760002_2492_6.jpg","https://xcimg.szwego.com/20230207/i1675760002_8234_7.jpg","https://xcimg.szwego.com/20230207/i1675760002_5838_8.jpg"],"created_at":"2024-11-26T11:46:47.127Z"},{"id":"item-dac4a9bb219b","sku":"_dkRkRhcHrpI7jfi_eXRYPIYSXI_hGmaYnqV0t0w","name_en":"Gucci Women Bags","name_cn":"顶级原厂皮\n Horsebit 1955 mini\n699296尺寸:18x12x5cm","specs":{"source":"wsxcme","sourceId":"_dkRkRhcHrpI7jfi_eXRYPIYSXI_hGmaYnqV0t0w","sourceTagId":47002679,"sourceTagName":"古驰/女包","dimensions":{"lengthCm":18,"heightCm":12,"widthCm":5},"rawTitle":"顶级原厂皮\n Horsebit 1955 mini\n699296尺寸:18x12x5cm"},"price":null,"currency":"CNY","moq":1,"category":"gucci-women-bags","status":"active","alibaba_url":null,"images":["https://xcimg.szwego.com/20230207/i1675760017_2587_0.jpg","https://xcimg.szwego.com/20230207/i1675760017_63_1.jpg","https://xcimg.szwego.com/20230207/i1675760017_7946_2.jpg","https://xcimg.szwego.com/20230207/i1675760017_2372_3.jpg","https://xcimg.szwego.com/20230207/i1675760017_1479_4.jpg","https://xcimg.szwego.com/20230207/i1675760017_410_5.jpg","https://xcimg.szwego.com/20230207/i1675760017_1949_6.jpg","https://xcimg.szwego.com/20230207/i1675760017_722_7.jpg","https://xcimg.szwego.com/20230207/i1675760017_6561_8.jpg"],"created_at":"2024-11-26T11:46:47.128Z"},{"id":"item-d43f81c387c8","sku":"_dl3l3sbJhOgBBG9O8wQMF-uKCoAKCbI7cTDQnJQ","name_en":"Gucci Women Bags","name_cn":"782849浅棕色全皮\n明星模特\n上身参考图","specs":{"source":"wsxcme","sourceId":"_dl3l3sbJhOgBBG9O8wQMF-uKCoAKCbI7cTDQnJQ","sourceTagId":47002679,"sourceTagName":"古驰/女包","rawTitle":"782849浅棕色全皮\n明星模特\n上身参考图"},"price":null,"currency":"CNY","moq":1,"category":"gucci-women-bags","status":"active","alibaba_url":null,"images":["https://xcimg.szwego.com/img/dace2ca2/20241106/a1730897243354_2530.jpg","https://xcimg.szwego.com/img/dace2ca2/20241106/a1730897243353_5376.jpg"],"created_at":"2025-03-29T13:24:08.753Z"},{"id":"item-d2950b9c1bef","sku":"_dxBxB_flxYaQs3wZ0eB0JPwbMDavgHmaLUyUOfA","name_en":"Gucci Women Bags","name_cn":"【独家背景】实物实拍品质 款号:834981绿磨砂  🌊🌊尺寸42✖️36✖️2","specs":{"source":"wsxcme","sourceId":"_dxBxB_flxYaQs3wZ0eB0JPwbMDavgHmaLUyUOfA","sourceTagId":47002679,"sourceTagName":"古驰/女包","modelNumber":"834981绿磨砂  🌊🌊尺寸42✖️36✖️2","rawTitle":"【独家背景】实物实拍品质 款号:834981绿磨砂  🌊🌊尺寸42✖️36✖️2"},"price":null,"currency":"CNY","moq":1,"category":"gucci-women-bags","status":"active","alibaba_url":null,"images":["https://xcimg.szwego.com/img/ac9333ee/20260124/i1769254488194_2290_0_0.jpg","https://xcimg.szwego.com/img/ac9333ee/20260124/i1769254487375_4122_0_1.jpg","https://xcimg.szwego.com/img/ac9333ee/20260124/i1769254487305_830_0_2.jpg","https://xcimg.szwego.com/img/ac9333ee/20260124/i1769254487308_6640_0_3.jpg","https://xcimg.szwego.com/img/ac9333ee/20260124/i1769254488224_64_0_4.jpg","https://xcimg.szwego.com/img/ac9333ee/20260124/i1769254487333_1928_0_5.jpg","https://xcimg.szwego.com/img/ac9333ee/20260124/i1769254488194_7800_0_6.jpg","https://xcimg.szwego.com/img/ac9333ee/20260124/i1769254488181_9657_0_7.jpg","https://xcimg.szwego.com/img/ac9333ee/20260124/i1769254487184_2765_0_8.jpg"],"created_at":"2026-06-29T11:04:23.214Z"}],"page":320,"pageSize":24,"total":10075,"totalPages":420}
