{"items":[{"id":"item-de1d29035a6f","sku":"_d-D-DnjEQpdNx-UIegfrJOhief2OiBQ82h3gi8Q","name_en":"Prada Women Bags","name_cn":"配盒⚠️尺寸24.14普拉达腋下包满满的设计感 非常知性优雅超级高级的配色 实物绝对惊艳到你。型号:8812","specs":{"source":"wsxcme","sourceId":"_d-D-DnjEQpdNx-UIegfrJOhief2OiBQ82h3gi8Q","sourceTagId":47002669,"sourceTagName":"普拉达/女包","modelNumber":"8812","rawTitle":"配盒⚠️尺寸24.14普拉达腋下包满满的设计感 非常知性优雅超级高级的配色 实物绝对惊艳到你。型号:8812"},"price":null,"currency":"CNY","moq":1,"category":"prada-women-bags","status":"active","alibaba_url":null,"images":["https://xcimg.szwego.com/20220904/i1662267793_2965_0.jpg","https://xcimg.szwego.com/20220904/i1662267793_3048_1.jpg","https://xcimg.szwego.com/20220904/i1662267793_445_2.jpg","https://xcimg.szwego.com/20220904/i1662267793_5472_3.jpg","https://xcimg.szwego.com/20220904/i1662267793_3312_4.jpg","https://xcimg.szwego.com/20220904/i1662267793_4346_5.jpg","https://xcimg.szwego.com/20220904/i1662267793_2549_6.jpg","https://xcimg.szwego.com/20220904/i1662267793_2063_7.jpg","https://xcimg.szwego.com/20220904/i1662267793_7057_8.jpg"],"created_at":"2025-02-08T12:44:35.394Z"},{"id":"item-dc4228619bd3","sku":"_dcbcbBkDXYD3aBQRYAx87y7ciA-hWQhq7u32-Zg","name_en":"Prada Women Bags","name_cn":"正品级\n【顶级原单】P家🌹🎉新款三合一🎉1B到货啦👏这款迷你信封包配有正面翻盖,标志性的刻字徽标点缀于正面,品牌格调一览无余。 磁扣扣合设计不失经典,织带肩带令其化身为斜挎包或单肩包,配有一个小零钱包,功能多样,又可当手包😘😘软羊革衬里配有带可拆卸镜子的小口袋,设计颇为贴心。简约又时尚,宝宝们赶紧入手吧🎉🎉🎉👏尺寸:长20x高12x底4cm!","specs":{"source":"wsxcme","sourceId":"_dcbcbBkDXYD3aBQRYAx87y7ciA-hWQhq7u32-Zg","sourceTagId":47002669,"sourceTagName":"普拉达/女包","rawTitle":"正品级\n【顶级原单】P家🌹🎉新款三合一🎉1B到货啦👏这款迷你信封包配有正面翻盖,标志性的刻字徽标点缀于正面,品牌格调一览无余。 磁扣扣合设计不失经典,织带肩带令其化身为斜挎包或单肩包,配有一个小零钱包,功能多样,又可当手包😘😘软羊革衬里配有带可拆卸镜子的小口袋,设计颇为贴心。简约又时尚,宝宝们赶紧入手吧🎉🎉🎉👏尺寸:长20x高12x底4cm!"},"price":null,"currency":"CNY","moq":1,"category":"prada-women-bags","status":"active","alibaba_url":null,"images":["https://xcimg.szwego.com/20230916/a1694841089275_4614.jpg","https://xcimg.szwego.com/20230916/a1694841089359_2131.jpg","https://xcimg.szwego.com/20230916/a1694841089459_7280.jpg","https://xcimg.szwego.com/20230916/a1694841089663_2712.jpg","https://xcimg.szwego.com/20230916/a1694841089758_6031.jpg","https://xcimg.szwego.com/20230916/a1694841089931_2132.jpg","https://xcimg.szwego.com/20230916/a1694841090031_7410.jpg","https://xcimg.szwego.com/20230916/a1694841090266_1380.jpg","https://xcimg.szwego.com/20230916/a1694841090538_2547.jpg"],"created_at":"2024-09-12T05:22:07.592Z"},{"id":"item-db65cb6ba111","sku":"_dw-w-pIZ7C-C9DUhFoXOt2ZoUdAe1-IC3uwczNQ","name_en":"Prada Women Bags","name_cn":"上身图","specs":{"source":"wsxcme","sourceId":"_dw-w-pIZ7C-C9DUhFoXOt2ZoUdAe1-IC3uwczNQ","sourceTagId":47002669,"sourceTagName":"普拉达/女包","rawTitle":"上身图"},"price":null,"currency":"CNY","moq":1,"category":"prada-women-bags","status":"active","alibaba_url":null,"images":["https://xcimg.szwego.com/20230821/i1692602865_7348_0.jpg","https://xcimg.szwego.com/20230821/i1692602865_6799_1.jpg","https://xcimg.szwego.com/20230821/i1692602865_2320_2.jpg","https://xcimg.szwego.com/20230821/i1692602865_7104_3.jpg","https://xcimg.szwego.com/20230821/i1692602865_7329_4.jpg","https://xcimg.szwego.com/20230821/i1692602865_7027_5.jpg","https://xcimg.szwego.com/20230821/i1692602865_3571_6.jpg","https://xcimg.szwego.com/20230821/i1692602865_8969_7.jpg","https://xcimg.szwego.com/20230821/i1692602865_108_8.jpg"],"created_at":"2026-06-29T11:07:24.417Z"},{"id":"item-d99895a5cc7b","sku":"_dxxxxbRBTvDy5vmYqPr-Pqr5zBUARa1tsIU-pFg","name_en":"Prada Women Bags","name_cn":"正品级\n【顶级原单】🎉草编三合一🎉1BH204🎉🎉这款纯手工编织三合一设计太棒👏👏一包三用🎉🎉这款复杂工手显得格外大气/时尚,最爱的是肩带还挂着个小挂饰(小包),上身效果非常棒,回头率百分之百😘夏天必备🎉赶紧入手吧🎉🎉尺寸:长23x高16x底7cm","specs":{"source":"wsxcme","sourceId":"_dxxxxbRBTvDy5vmYqPr-Pqr5zBUARa1tsIU-pFg","sourceTagId":47002669,"sourceTagName":"普拉达/女包","rawTitle":"正品级\n【顶级原单】🎉草编三合一🎉1BH204🎉🎉这款纯手工编织三合一设计太棒👏👏一包三用🎉🎉这款复杂工手显得格外大气/时尚,最爱的是肩带还挂着个小挂饰(小包),上身效果非常棒,回头率百分之百😘夏天必备🎉赶紧入手吧🎉🎉尺寸:长23x高16x底7cm"},"price":null,"currency":"CNY","moq":1,"category":"prada-women-bags","status":"active","alibaba_url":null,"images":["https://xcimg.szwego.com/20230510/a1683711986573_4788.jpg","https://xcimg.szwego.com/20230510/a1683711986672_5104.jpg","https://xcimg.szwego.com/20230510/a1683711986767_8587.jpg","https://xcimg.szwego.com/20230510/a1683711986871_2855.jpg","https://xcimg.szwego.com/20230510/a1683711986953_1311.jpg","https://xcimg.szwego.com/20230510/a1683711987011_0804.jpg","https://xcimg.szwego.com/20230510/a1683711987200_3027.jpg","https://xcimg.szwego.com/20230510/a1683711987209_4651.jpg","https://xcimg.szwego.com/20230510/a1683711987316_1871.jpg"],"created_at":"2024-09-12T05:22:07.591Z"},{"id":"item-d258afe9f093","sku":"_dduduB7JIrAmg3am4ckvjieCUktx8eH7oRxHZIw","name_en":"Prada Women Bags","name_cn":"正品级\n🌟Hobo三合一(全皮)\n带可拆卸P家 Re-Edition 2005 Saffiano皮革姓名铭牌,配钥匙扣,可拆卸可调式徽标织物肩带 可拆卸拉链式皮质小袋 可拆卸金属链条肩带 多种背法,顶部拉链拉合 尼龙衬里 涂珐琅三角形金属徽标!\n尺寸:长22X高18X宽6.5CM\n型号:1BH204","specs":{"source":"wsxcme","sourceId":"_dduduB7JIrAmg3am4ckvjieCUktx8eH7oRxHZIw","sourceTagId":47002669,"sourceTagName":"普拉达/女包","modelNumber":"1BH204","dimensions":{"lengthCm":22,"heightCm":18,"widthCm":6.5},"rawTitle":"正品级\n🌟Hobo三合一(全皮)\n带可拆卸P家 Re-Edition 2005 Saffiano皮革姓名铭牌,配钥匙扣,可拆卸可调式徽标织物肩带 可拆卸拉链式皮质小袋 可拆卸金属链条肩带 多种背法,顶部拉链拉合 尼龙衬里 涂珐琅三角形金属徽标!\n尺寸:长22X高18X宽6.5CM\n型号:1BH204"},"price":null,"currency":"CNY","moq":1,"category":"prada-women-bags","status":"active","alibaba_url":null,"images":["https://xcimg.szwego.com/20230403/i1680513085_983_0.jpg","https://xcimg.szwego.com/20230403/i1680513085_7345_1.jpg","https://xcimg.szwego.com/20230403/i1680513085_4445_2.jpg","https://xcimg.szwego.com/20230403/i1680513085_5230_3.jpg","https://xcimg.szwego.com/20230403/i1680513085_8386_4.jpg","https://xcimg.szwego.com/20230403/i1680513085_9565_5.jpg","https://xcimg.szwego.com/20230403/i1680513085_2477_6.jpg","https://xcimg.szwego.com/20230403/i1680513085_8013_7.jpg","https://xcimg.szwego.com/20230403/i1680513085_1985_8.jpg"],"created_at":"2024-09-12T05:21:07.530Z"},{"id":"item-cd724cec681c","sku":"_dcQcQV1hMriT-_eACVwMkP1PBLQuotEs5gFG5pQ","name_en":"Prada Women Bags","name_cn":"原单 原厂定制皮料♥️\nPRAD*a 推出全新 2021春夏系列 Hobo手袋 精选小牛皮打造 杜鹃 文淇 邓恩熙赋予 全新演绎 原版复刻 轻便时尚  潮人必备 普拉达由玛丽奥·普拉达于1913年在意大利 米兰创建。Miuccia Prada的独特天赋在于对新创意的不懈追求,融合了对知识的好奇心和文化兴趣,从而开辟了先驱之路。她不仅能够预测时尚趋势,更能够引领时尚潮流 尺寸:27cm款号123","specs":{"source":"wsxcme","sourceId":"_dcQcQV1hMriT-_eACVwMkP1PBLQuotEs5gFG5pQ","sourceTagId":47002669,"sourceTagName":"普拉达/女包","modelNumber":"123","rawTitle":"原单 原厂定制皮料♥️\nPRAD*a 推出全新 2021春夏系列 Hobo手袋 精选小牛皮打造 杜鹃 文淇 邓恩熙赋予 全新演绎 原版复刻 轻便时尚  潮人必备 普拉达由玛丽奥·普拉达于1913年在意大利 米兰创建。Miuccia Prada的独特天赋在于对新创意的不懈追求,融合了对知识的好奇心和文化兴趣,从而开辟了先驱之路。她不仅能够预测时尚趋势,更能够引领时尚潮流 尺寸:27cm款号123"},"price":null,"currency":"CNY","moq":1,"category":"prada-women-bags","status":"active","alibaba_url":null,"images":["https://xcimg.szwego.com/img/ee653128/20240427/i1714149638_3798_3.jpg","https://xcimg.szwego.com/img/ee653128/20240427/i1714149638_6079_1.jpg","https://xcimg.szwego.com/img/ee653128/20240427/i1714149638_4379_5.jpg","https://xcimg.szwego.com/img/ee653128/20240427/i1714149638_5896_4.jpg","https://xcimg.szwego.com/img/ee653128/20240427/i1714149638_9173_2.jpg","https://xcimg.szwego.com/img/ee653128/20240427/i1714149638_2993_6.jpg","https://xcimg.szwego.com/img/ee653128/20240427/i1714149638_9137_0.jpg","https://xcimg.szwego.com/img/ee653128/20240427/i1714149638_9901_8.jpg","https://xcimg.szwego.com/img/ee653128/20240427/i1714149638_1205_7.jpg"],"created_at":"2025-02-08T12:44:26.513Z"},{"id":"item-c79d9a80b1a7","sku":"_dbHbHTzoOnmipPNKk34mZyNuEr6hyBsLPpObYeQ","name_en":"Prada Women Bags","name_cn":"新款普拉达 2097 热火朝天的火爆 气场王 百搭王 一百万年都不过时   手提,斜挎  一年四季必备驾驭的了任何风格 市场独家工艺研制原版荔枝纹完美 你的衣橱绝对不可以少一个这么强的搭配神器!尺寸:30.22.13","specs":{"source":"wsxcme","sourceId":"_dbHbHTzoOnmipPNKk34mZyNuEr6hyBsLPpObYeQ","sourceTagId":47002669,"sourceTagName":"普拉达/女包","rawTitle":"新款普拉达 2097 热火朝天的火爆 气场王 百搭王 一百万年都不过时   手提,斜挎  一年四季必备驾驭的了任何风格 市场独家工艺研制原版荔枝纹完美 你的衣橱绝对不可以少一个这么强的搭配神器!尺寸:30.22.13"},"price":null,"currency":"CNY","moq":1,"category":"prada-women-bags","status":"active","alibaba_url":null,"images":["https://xcimg.szwego.com/20201121/i1605970910_3054_0.jpg","https://xcimg.szwego.com/20201121/i1605970910_2704_1.jpg","https://xcimg.szwego.com/20201121/i1605970910_3352_2.jpg","https://xcimg.szwego.com/20201121/i1605963281_8271_0.jpg","https://xcimg.szwego.com/20201121/i1605963281_6389_1.jpg","https://xcimg.szwego.com/20201121/i1605963281_7481_2.jpg","https://xcimg.szwego.com/20201121/i1605963281_6652_3.jpg","https://xcimg.szwego.com/20201121/i1605963281_8040_4.jpg","https://xcimg.szwego.com/20201121/i1605963281_2348_5.jpg"],"created_at":"2025-02-08T12:44:26.477Z"},{"id":"item-c73084cd90b4","sku":"_d8w8w_XLeVwms4pyFDznHkiQqqjzFOu9vN367xQ","name_en":"Prada Women Bags","name_cn":"正🌟品🌟图","specs":{"source":"wsxcme","sourceId":"_d8w8w_XLeVwms4pyFDznHkiQqqjzFOu9vN367xQ","sourceTagId":47002669,"sourceTagName":"普拉达/女包","rawTitle":"正🌟品🌟图"},"price":null,"currency":"CNY","moq":1,"category":"prada-women-bags","status":"active","alibaba_url":null,"images":["https://xcimg.szwego.com/20230821/i1692602833_1006_0.jpg","https://xcimg.szwego.com/20230821/i1692602833_8236_1.jpg","https://xcimg.szwego.com/20230821/i1692602833_3470_2.jpg","https://xcimg.szwego.com/20230821/i1692602833_7960_3.jpg"],"created_at":"2026-06-29T11:07:24.407Z"},{"id":"item-b09c18a70464","sku":"_dnynytPl2wZVg-dVhgwWJ0IxY0iOsirqe1nxJBQ","name_en":"Prada Women Bags","name_cn":"迷你号太可爱啦🤗","specs":{"source":"wsxcme","sourceId":"_dnynytPl2wZVg-dVhgwWJ0IxY0iOsirqe1nxJBQ","sourceTagId":47002669,"sourceTagName":"普拉达/女包","rawTitle":"迷你号太可爱啦🤗"},"price":null,"currency":"CNY","moq":1,"category":"prada-women-bags","status":"active","alibaba_url":null,"images":["https://xcimg.szwego.com/img/4ebdbb7c/20250803/i1754229324_2729_5.jpg","https://xcimg.szwego.com/img/4ebdbb7c/20250803/i1754229324_4593_6.jpg","https://xcimg.szwego.com/img/4ebdbb7c/20250803/i1754229323_5261_2.jpg","https://xcimg.szwego.com/img/4ebdbb7c/20250803/i1754229323_5594_0.jpg","https://xcimg.szwego.com/img/4ebdbb7c/20250803/i1754229324_4531_8.jpg","https://xcimg.szwego.com/img/4ebdbb7c/20250803/i1754229323_9114_3.jpg","https://xcimg.szwego.com/img/4ebdbb7c/20250803/i1754229323_7848_1.jpg","https://xcimg.szwego.com/img/4ebdbb7c/20250803/i1754229324_9910_4.jpg","https://xcimg.szwego.com/img/4ebdbb7c/20250803/i1754229324_3936_7.jpg"],"created_at":"2026-06-29T11:07:24.497Z"},{"id":"item-ad9dec16818f","sku":"_djrjrlKaHNdwwf4-MkxBvaOHxF0MoJbSS6Xvo5g","name_en":"Prada Women Bags","name_cn":"新款普拉达 2097 热火朝天的火爆 气场王 百搭王 一百万年都不过时   手提,斜挎  一年四季必备驾驭的了任何风格 市场独家工艺研制原版荔枝纹完美 你的衣橱绝对不可以少一个这么强的搭配神器!尺寸:30.22.13","specs":{"source":"wsxcme","sourceId":"_djrjrlKaHNdwwf4-MkxBvaOHxF0MoJbSS6Xvo5g","sourceTagId":47002669,"sourceTagName":"普拉达/女包","rawTitle":"新款普拉达 2097 热火朝天的火爆 气场王 百搭王 一百万年都不过时   手提,斜挎  一年四季必备驾驭的了任何风格 市场独家工艺研制原版荔枝纹完美 你的衣橱绝对不可以少一个这么强的搭配神器!尺寸:30.22.13"},"price":null,"currency":"CNY","moq":1,"category":"prada-women-bags","status":"active","alibaba_url":null,"images":["https://xcimg.szwego.com/20201121/i1605970960_3002_0.jpg","https://xcimg.szwego.com/20201121/i1605970960_1570_1.jpg","https://xcimg.szwego.com/20201121/i1605970960_396_2.jpg","https://xcimg.szwego.com/20201121/i1605963234_9407_0.jpg","https://xcimg.szwego.com/20201121/i1605963234_3152_1.jpg","https://xcimg.szwego.com/20201121/i1605963234_9741_2.jpg","https://xcimg.szwego.com/20201121/i1605963234_4311_3.jpg","https://xcimg.szwego.com/20201121/i1605963234_45_4.jpg","https://xcimg.szwego.com/20201121/i1605963234_5440_5.jpg"],"created_at":"2025-02-08T12:44:26.476Z"},{"id":"item-a96536faf832","sku":"_dg_g_fVCell6VuIp2eSJo_hXxouwbLpkIW_60ng","name_en":"Prada Women Bags","name_cn":"现货💕","specs":{"source":"wsxcme","sourceId":"_dg_g_fVCell6VuIp2eSJo_hXxouwbLpkIW_60ng","sourceTagId":47002669,"sourceTagName":"普拉达/女包","rawTitle":"现货💕"},"price":null,"currency":"CNY","moq":1,"category":"prada-women-bags","status":"active","alibaba_url":null,"images":["https://xcimg.szwego.com/20230821/i1692602591_9022_0.jpg","https://xcimg.szwego.com/20230821/i1692602591_2268_1.jpg","https://xcimg.szwego.com/20230821/i1692602591_714_2.jpg","https://xcimg.szwego.com/20230821/i1692602591_5311_3.jpg","https://xcimg.szwego.com/20230821/i1692602591_9315_4.jpg"],"created_at":"2026-06-29T11:07:24.367Z"},{"id":"item-a47c9c981810","sku":"_dq2q2_8atstfryBDo8UMEMLG5Kx4PCRZBuH37jA","name_en":"Prada Women Bags","name_cn":"原单 原厂定制皮料♥️\nPRAD*a 推出全新 2021春夏系列 Hobo手袋 精选小牛皮打造 杜鹃 文淇 邓恩熙赋予 全新演绎 原版复刻 轻便时尚  潮人必备 普拉达由玛丽奥·普拉达于1913年在意大利 米兰创建。Miuccia Prada的独特天赋在于对新创意的不懈追求,融合了对知识的好奇心和文化兴趣,从而开辟了先驱之路。她不仅能够预测时尚趋势,更能够引领时尚潮流 尺寸:27cm款号123","specs":{"source":"wsxcme","sourceId":"_dq2q2_8atstfryBDo8UMEMLG5Kx4PCRZBuH37jA","sourceTagId":47002669,"sourceTagName":"普拉达/女包","modelNumber":"123","rawTitle":"原单 原厂定制皮料♥️\nPRAD*a 推出全新 2021春夏系列 Hobo手袋 精选小牛皮打造 杜鹃 文淇 邓恩熙赋予 全新演绎 原版复刻 轻便时尚  潮人必备 普拉达由玛丽奥·普拉达于1913年在意大利 米兰创建。Miuccia Prada的独特天赋在于对新创意的不懈追求,融合了对知识的好奇心和文化兴趣,从而开辟了先驱之路。她不仅能够预测时尚趋势,更能够引领时尚潮流 尺寸:27cm款号123"},"price":null,"currency":"CNY","moq":1,"category":"prada-women-bags","status":"active","alibaba_url":null,"images":["https://xcimg.szwego.com/img/ee653128/20240427/i1714149620_9354_2.jpg","https://xcimg.szwego.com/img/ee653128/20240427/i1714149620_964_4.jpg","https://xcimg.szwego.com/img/ee653128/20240427/i1714149620_8712_7.jpg","https://xcimg.szwego.com/img/ee653128/20240427/i1714149620_8549_5.jpg","https://xcimg.szwego.com/img/ee653128/20240427/i1714149620_9285_8.jpg","https://xcimg.szwego.com/img/ee653128/20240427/i1714149620_1999_0.jpg","https://xcimg.szwego.com/img/ee653128/20240427/i1714149620_497_3.jpg","https://xcimg.szwego.com/img/ee653128/20240427/i1714149620_3499_1.jpg","https://xcimg.szwego.com/img/ee653128/20240427/i1714149620_3865_6.jpg"],"created_at":"2025-02-08T12:44:26.514Z"},{"id":"item-a41e9ceed11f","sku":"_dk6k6nQUnv7FYcO4ogusS0RE2AeLU5Ocjc9N06Q","name_en":"Prada Women Bags","name_cn":"现货💕","specs":{"source":"wsxcme","sourceId":"_dk6k6nQUnv7FYcO4ogusS0RE2AeLU5Ocjc9N06Q","sourceTagId":47002669,"sourceTagName":"普拉达/女包","rawTitle":"现货💕"},"price":null,"currency":"CNY","moq":1,"category":"prada-women-bags","status":"active","alibaba_url":null,"images":["https://xcimg.szwego.com/20230821/i1692602565_5359_0.jpg","https://xcimg.szwego.com/20230821/i1692602565_1198_1.jpg","https://xcimg.szwego.com/20230821/i1692602565_2128_8.jpg","https://xcimg.szwego.com/20230821/i1692602565_7239_2.jpg","https://xcimg.szwego.com/20230821/i1692602565_4618_3.jpg","https://xcimg.szwego.com/20230821/i1692602565_3015_4.jpg","https://xcimg.szwego.com/20230821/i1692602565_8803_5.jpg","https://xcimg.szwego.com/20230821/i1692602565_4962_6.jpg","https://xcimg.szwego.com/20230821/i1692602565_8587_7.jpg"],"created_at":"2026-06-29T11:07:24.357Z"},{"id":"item-a211ac6dddcb","sku":"_dbZbZse2Cniy9MN5MSKBe8yZS8TwCANJAKdgSvw","name_en":"Prada Women Bags","name_cn":"(普拉达)月亮/月牙包 时尚黑马[胜利]小牛皮搭配散字唛金色五金,小鹿纹配时尚鳄鱼🐊纹,更具时尚风,月牙形状自带调扣,整体皮穿链,可盐可甜 展现优雅的同时还有点小复古,两侧卡扣对扣秒变奶呼呼的呼啦圈,解锁一包多用。\n款号:1BH195\n尺寸:24×15×8cm","specs":{"source":"wsxcme","sourceId":"_dbZbZse2Cniy9MN5MSKBe8yZS8TwCANJAKdgSvw","sourceTagId":47002669,"sourceTagName":"普拉达/女包","modelNumber":"1BH195","dimensions":{"lengthCm":24,"heightCm":15,"widthCm":8},"rawTitle":"(普拉达)月亮/月牙包 时尚黑马[胜利]小牛皮搭配散字唛金色五金,小鹿纹配时尚鳄鱼🐊纹,更具时尚风,月牙形状自带调扣,整体皮穿链,可盐可甜 展现优雅的同时还有点小复古,两侧卡扣对扣秒变奶呼呼的呼啦圈,解锁一包多用。\n款号:1BH195\n尺寸:24×15×8cm"},"price":null,"currency":"CNY","moq":1,"category":"prada-women-bags","status":"active","alibaba_url":null,"images":["https://xcimg.szwego.com/20230312/i1678566209_5052_0.jpg","https://xcimg.szwego.com/20230312/i1678566209_3169_1.jpg","https://xcimg.szwego.com/20230312/i1678566209_5227_2.jpg","https://xcimg.szwego.com/20230312/i1678566209_2322_3.jpg","https://xcimg.szwego.com/20230312/i1678566209_1673_4.jpg","https://xcimg.szwego.com/20230312/i1678566209_5278_5.jpg"],"created_at":"2025-02-08T12:44:26.498Z"},{"id":"item-a10042104ed4","sku":"_dxSxS7QVLIwqHTFCB-_UYJOgQuCLDjBzqHKpAww","name_en":"Prada Women Bags","name_cn":"正品级\n🌟小羊皮三合一\n这款三合一加衬单肩包取材软羊革打造,塑就简约廓形,配有可拆卸尼龙长肩带和琏条,最爱的肩带上的小包。手感特别柔软,又实用又休闲!\n尺寸:长22x高18x底6.5cm\n款号:1BH204","specs":{"source":"wsxcme","sourceId":"_dxSxS7QVLIwqHTFCB-_UYJOgQuCLDjBzqHKpAww","sourceTagId":47002669,"sourceTagName":"普拉达/女包","modelNumber":"1BH204","rawTitle":"正品级\n🌟小羊皮三合一\n这款三合一加衬单肩包取材软羊革打造,塑就简约廓形,配有可拆卸尼龙长肩带和琏条,最爱的肩带上的小包。手感特别柔软,又实用又休闲!\n尺寸:长22x高18x底6.5cm\n款号:1BH204"},"price":null,"currency":"CNY","moq":1,"category":"prada-women-bags","status":"active","alibaba_url":null,"images":["https://xcimg.szwego.com/20230409/i1681041514_8833_0.jpg","https://xcimg.szwego.com/20230409/i1681041514_3643_1.jpg","https://xcimg.szwego.com/20230409/i1681041514_9788_2.jpg","https://xcimg.szwego.com/20230409/i1681041514_6038_3.jpg","https://xcimg.szwego.com/20230409/i1681041514_1216_4.jpg","https://xcimg.szwego.com/20230409/i1681041514_7179_5.jpg","https://xcimg.szwego.com/20230409/i1681041514_2128_6.jpg","https://xcimg.szwego.com/20230409/i1681041514_2756_7.jpg","https://xcimg.szwego.com/20230409/i1681041514_8037_8.jpg"],"created_at":"2024-09-12T05:21:07.523Z"},{"id":"item-9ea09e48d771","sku":"_duiuiiQdYWmMXHn3tlczeH_XyGR9c6Xu01z9Jmw","name_en":"Prada Women Bags","name_cn":"高级,精致","specs":{"source":"wsxcme","sourceId":"_duiuiiQdYWmMXHn3tlczeH_XyGR9c6Xu01z9Jmw","sourceTagId":47002669,"sourceTagName":"普拉达/女包","rawTitle":"高级,精致"},"price":null,"currency":"CNY","moq":1,"category":"prada-women-bags","status":"active","alibaba_url":null,"images":["https://xcimg.szwego.com/img/0307d510/20231007/i1696659611_8034_0.jpg","https://xcimg.szwego.com/img/0307d510/20231007/i1696659611_8017_1.jpg","https://xcimg.szwego.com/img/0307d510/20231007/i1696659611_1808_2.jpg","https://xcimg.szwego.com/img/0307d510/20231007/i1696659611_3364_3.jpg","https://xcimg.szwego.com/img/0307d510/20231007/i1696659611_1583_4.jpg","https://xcimg.szwego.com/img/0307d510/20231007/i1696659611_4632_8.jpg","https://xcimg.szwego.com/img/0307d510/20231007/i1696659611_5833_5.jpg","https://xcimg.szwego.com/img/0307d510/20231007/i1696659611_5118_6.jpg","https://xcimg.szwego.com/img/0307d510/20231007/i1696659611_7552_7.jpg"],"created_at":"2026-06-29T11:07:24.327Z"},{"id":"item-94ce5c50b6f9","sku":"_dl-l-cqhJEaXQRAAwoxPQDyCFVr_-sxoX2ha9Qg","name_en":"Prada Women Bags","name_cn":"🌟双提手手袋(大号)\n这款选用再生尼龙打造,融入特有的风格元素,搭配精致的Saffiano皮革细节,彻底颠覆人们对奢侈品传统的认知。在实用的设计点缀和精致的细节之间增添了独特的韵味。 \n尺寸:长35x高21.5x底10cm\n​款号:1BB114","specs":{"source":"wsxcme","sourceId":"_dl-l-cqhJEaXQRAAwoxPQDyCFVr_-sxoX2ha9Qg","sourceTagId":47002669,"sourceTagName":"普拉达/女包","modelNumber":"1BB114","rawTitle":"🌟双提手手袋(大号)\n这款选用再生尼龙打造,融入特有的风格元素,搭配精致的Saffiano皮革细节,彻底颠覆人们对奢侈品传统的认知。在实用的设计点缀和精致的细节之间增添了独特的韵味。 \n尺寸:长35x高21.5x底10cm\n​款号:1BB114"},"price":null,"currency":"CNY","moq":1,"category":"prada-women-bags","status":"active","alibaba_url":null,"images":["https://xcimg.szwego.com/img/2568964b/20240512/i1715510500_1535_2.jpg","https://xcimg.szwego.com/img/2568964b/20240512/i1715510500_277_3.jpg","https://xcimg.szwego.com/img/2568964b/20240512/i1715510500_5985_5.jpg","https://xcimg.szwego.com/img/2568964b/20240512/i1715510500_5044_0.jpg","https://xcimg.szwego.com/img/2568964b/20240512/i1715510500_5025_8.jpg","https://xcimg.szwego.com/img/2568964b/20240512/i1715510500_7378_6.jpg","https://xcimg.szwego.com/img/2568964b/20240512/i1715510500_4602_4.jpg","https://xcimg.szwego.com/img/2568964b/20240512/i1715510500_8675_1.jpg","https://xcimg.szwego.com/img/2568964b/20240512/i1715510500_6597_7.jpg"],"created_at":"2025-03-02T13:36:59.577Z"},{"id":"item-8cba4517ff1c","sku":"_dMdMd1SpV0LUabIbXt6RPCrqDfMs6LdzffIblyQ","name_en":"Prada Women Bags","name_cn":"新款普拉达 2097 热火朝天的火爆 气场王 百搭王 一百万年都不过时   手提,斜挎  一年四季必备驾驭的了任何风格 市场独家工艺研制原版荔枝纹完美 你的衣橱绝对不可以少一个这么强的搭配神器!尺寸:30.22.13","specs":{"source":"wsxcme","sourceId":"_dMdMd1SpV0LUabIbXt6RPCrqDfMs6LdzffIblyQ","sourceTagId":47002669,"sourceTagName":"普拉达/女包","rawTitle":"新款普拉达 2097 热火朝天的火爆 气场王 百搭王 一百万年都不过时   手提,斜挎  一年四季必备驾驭的了任何风格 市场独家工艺研制原版荔枝纹完美 你的衣橱绝对不可以少一个这么强的搭配神器!尺寸:30.22.13"},"price":null,"currency":"CNY","moq":1,"category":"prada-women-bags","status":"active","alibaba_url":null,"images":["https://xcimg.szwego.com/20201121/i1605970929_2595_0.jpg","https://xcimg.szwego.com/20201121/i1605970929_7646_1.jpg","https://xcimg.szwego.com/20201121/i1605970929_4083_2.jpg","https://xcimg.szwego.com/20201121/i1605963268_201_0.jpg","https://xcimg.szwego.com/20201121/i1605963268_8635_1.jpg","https://xcimg.szwego.com/20201121/i1605963268_6011_2.jpg","https://xcimg.szwego.com/20201121/i1605963268_9527_3.jpg","https://xcimg.szwego.com/20201121/i1605963268_9789_4.jpg","https://xcimg.szwego.com/20201121/i1605963268_8398_5.jpg"],"created_at":"2025-02-08T12:44:26.475Z"},{"id":"item-8aa11a20fa85","sku":"_drRrRZQcssTtEzVAzX8V4X3f4ABeBP5xRjUz-Mg","name_en":"Prada Women Bags","name_cn":"新款普拉达 2097《2019爆款》热火朝天的火爆 气场王 百搭王 一百万年都不过时   手提,斜挎  一年四季必备驾驭的了任何风格 市场独家工艺研制原版荔枝纹完美 你的衣橱绝对不可以少一个这么强的搭配神器!尺寸:30.22.13","specs":{"source":"wsxcme","sourceId":"_drRrRZQcssTtEzVAzX8V4X3f4ABeBP5xRjUz-Mg","sourceTagId":47002669,"sourceTagName":"普拉达/女包","rawTitle":"新款普拉达 2097《2019爆款》热火朝天的火爆 气场王 百搭王 一百万年都不过时   手提,斜挎  一年四季必备驾驭的了任何风格 市场独家工艺研制原版荔枝纹完美 你的衣橱绝对不可以少一个这么强的搭配神器!尺寸:30.22.13"},"price":null,"currency":"CNY","moq":1,"category":"prada-women-bags","status":"active","alibaba_url":null,"images":["https://xcimg.szwego.com/1571152716_2205587730_0","https://xcimg.szwego.com/1571152716_1963685628_1","https://xcimg.szwego.com/1571152716_2642017462_2","https://xcimg.szwego.com/1571152717_3079870233_3","https://xcimg.szwego.com/1571152717_1242461888_4","https://xcimg.szwego.com/1571152717_2568235048_5","https://xcimg.szwego.com/1571152717_2863545054_6","https://xcimg.szwego.com/1571152717_3746986978_7"],"created_at":"2025-02-08T12:44:26.508Z"},{"id":"item-85d643b2ce66","sku":"_dtCtCcTFgMsdRqq_PQh8L4M-22xLLZC_ANdSQaQ","name_en":"Prada Women Bags","name_cn":"(普拉达)腋下月亮/月牙包 时尚黑马[胜利]小牛皮搭配散字唛金色五金,小鹿纹配时尚鳄鱼🐊纹,更具时尚风,月牙形状自带调扣,整体皮穿链,可盐可甜 展现优雅的同时还有点小复古,两侧卡扣对扣秒变奶呼呼的呼啦圈,解锁一包多用。\n款号:0188\n尺寸:23×15×8cm","specs":{"source":"wsxcme","sourceId":"_dtCtCcTFgMsdRqq_PQh8L4M-22xLLZC_ANdSQaQ","sourceTagId":47002669,"sourceTagName":"普拉达/女包","modelNumber":"0188","dimensions":{"lengthCm":23,"heightCm":15,"widthCm":8},"rawTitle":"(普拉达)腋下月亮/月牙包 时尚黑马[胜利]小牛皮搭配散字唛金色五金,小鹿纹配时尚鳄鱼🐊纹,更具时尚风,月牙形状自带调扣,整体皮穿链,可盐可甜 展现优雅的同时还有点小复古,两侧卡扣对扣秒变奶呼呼的呼啦圈,解锁一包多用。\n款号:0188\n尺寸:23×15×8cm"},"price":null,"currency":"CNY","moq":1,"category":"prada-women-bags","status":"active","alibaba_url":null,"images":["https://xcimg.szwego.com/20230705/i1688500975_2734_0.jpg","https://xcimg.szwego.com/20230705/i1688500975_5458_1.jpg","https://xcimg.szwego.com/20230705/i1688500975_9001_2.jpg","https://xcimg.szwego.com/20230705/i1688500975_6007_3.jpg","https://xcimg.szwego.com/20230705/i1688500975_8971_4.jpg","https://xcimg.szwego.com/20230705/i1688500975_6787_5.jpg","https://xcimg.szwego.com/20230705/i1688500975_3094_6.jpg","https://xcimg.szwego.com/20230705/i1688500975_7224_7.jpg"],"created_at":"2025-02-08T12:44:26.499Z"},{"id":"item-81578553927a","sku":"_dHKHKW4x8DGte_ltGLw_YeMxiQtRZhkSUfsHh_Q","name_en":"Prada Women Bags","name_cn":"￼ 【油腊皮】\nPRADA  复古新升三合一\n\n再现2005年标志性风格的单肩包。将普拉达的设计代码凝聚成精致通用的轮廓,创造出过去和现在风格的对话。可调节肩带、金属零件、可拆卸钥匙圈,精致简约的皮革单品。珐琅金属的三角形标志散发着标志性魅力的设计。\n复古率性 充满摇滚气息的大胆与前卫 \n1BH209 尺寸/22×18×6","specs":{"source":"wsxcme","sourceId":"_dHKHKW4x8DGte_ltGLw_YeMxiQtRZhkSUfsHh_Q","sourceTagId":47002669,"sourceTagName":"普拉达/女包","rawTitle":"￼ 【油腊皮】\nPRADA  复古新升三合一\n\n再现2005年标志性风格的单肩包。将普拉达的设计代码凝聚成精致通用的轮廓,创造出过去和现在风格的对话。可调节肩带、金属零件、可拆卸钥匙圈,精致简约的皮革单品。珐琅金属的三角形标志散发着标志性魅力的设计。\n复古率性 充满摇滚气息的大胆与前卫 \n1BH209 尺寸/22×18×6"},"price":null,"currency":"CNY","moq":1,"category":"prada-women-bags","status":"active","alibaba_url":null,"images":["https://xcimg.szwego.com/img/c0f37100/20231205/i1701787131_5602_1.jpg","https://xcimg.szwego.com/img/c0f37100/20231205/i1701787131_2811_4.jpg","https://xcimg.szwego.com/img/c0f37100/20231205/i1701787131_3369_8.jpg","https://xcimg.szwego.com/img/c0f37100/20231205/i1701787131_866_6.jpg","https://xcimg.szwego.com/img/c0f37100/20231205/i1701787131_5646_5.jpg","https://xcimg.szwego.com/img/c0f37100/20231205/i1701787131_4501_3.jpg","https://xcimg.szwego.com/img/c0f37100/20231205/i1701787131_7107_7.jpg","https://xcimg.szwego.com/img/c0f37100/20231205/i1701787131_7458_2.jpg","https://xcimg.szwego.com/img/c0f37100/20231205/i1701787131_6398_0.jpg"],"created_at":"2025-02-08T12:44:26.516Z"},{"id":"item-80da77b59d61","sku":"_dmYmYdWdIX8KXdv9Q1iHsZuAlkI7EQDHQYuFKog","name_en":"Prada Women Bags","name_cn":"正品级\n【新版本】🌟Hobo三合一\n酷girl出街的王炸单品,更是解锁多种背法!单肩/斜挎/手拎/腋下/腰包👏🏻随便一刷明星网红博主都能看到的穿搭包,设计简约又百搭,无论什么穿搭都能轻松驾驭它~\n尺寸:22×12×6cm\n款号:1BH204","specs":{"source":"wsxcme","sourceId":"_dmYmYdWdIX8KXdv9Q1iHsZuAlkI7EQDHQYuFKog","sourceTagId":47002669,"sourceTagName":"普拉达/女包","modelNumber":"1BH204","dimensions":{"lengthCm":22,"heightCm":12,"widthCm":6},"rawTitle":"正品级\n【新版本】🌟Hobo三合一\n酷girl出街的王炸单品,更是解锁多种背法!单肩/斜挎/手拎/腋下/腰包👏🏻随便一刷明星网红博主都能看到的穿搭包,设计简约又百搭,无论什么穿搭都能轻松驾驭它~\n尺寸:22×12×6cm\n款号:1BH204"},"price":null,"currency":"CNY","moq":1,"category":"prada-women-bags","status":"active","alibaba_url":null,"images":["https://xcimg.szwego.com/20230808/i1691497855_1507_0.jpg","https://xcimg.szwego.com/20230808/i1691497855_4475_1.jpg","https://xcimg.szwego.com/20230808/i1691497855_6293_2.jpg","https://xcimg.szwego.com/20230808/i1691497855_4952_3.jpg","https://xcimg.szwego.com/20230808/i1691497855_6092_4.jpg","https://xcimg.szwego.com/20230808/i1691497855_215_5.jpg","https://xcimg.szwego.com/20230808/i1691497855_2333_6.jpg","https://xcimg.szwego.com/20230808/i1691497855_1367_7.jpg","https://xcimg.szwego.com/20230808/i1691497855_1915_8.jpg"],"created_at":"2024-09-12T05:21:07.540Z"},{"id":"item-7f8599ae4ac2","sku":"_dwjwjaMB7-gI9HZjj2Sma75YtLdldRCkARA5WuA","name_en":"Prada Women Bags","name_cn":"普拉达/女包","specs":{"source":"wsxcme","sourceId":"_dwjwjaMB7-gI9HZjj2Sma75YtLdldRCkARA5WuA","sourceTagId":47002669,"sourceTagName":"普拉达/女包","rawTitle":""},"price":null,"currency":"CNY","moq":1,"category":"prada-women-bags","status":"active","alibaba_url":null,"images":["https://xcimg.szwego.com/20260322/i1774161565_4473_0.jpg"],"created_at":"2026-06-29T11:07:24.597Z"},{"id":"item-7d85faf78ae1","sku":"_d-m-mwIzp2cnIjEynpi705lfP3Mi2bsUWVQ8Bmw","name_en":"Prada Women Bags","name_cn":"原单 原厂定制皮料♥️\nPRAD*a 推出全新 2021春夏系列 Hobo手袋 精选小牛皮打造 杜鹃 文淇 邓恩熙赋予 全新演绎 原版复刻 轻便时尚  潮人必备 普拉达由玛丽奥·普拉达于1913年在意大利 米兰创建。Miuccia Prada的独特天赋在于对新创意的不懈追求,融合了对知识的好奇心和文化兴趣,从而开辟了先驱之路。她不仅能够预测时尚趋势,更能够引领时尚潮流 尺寸:27cm款号123","specs":{"source":"wsxcme","sourceId":"_d-m-mwIzp2cnIjEynpi705lfP3Mi2bsUWVQ8Bmw","sourceTagId":47002669,"sourceTagName":"普拉达/女包","modelNumber":"123","rawTitle":"原单 原厂定制皮料♥️\nPRAD*a 推出全新 2021春夏系列 Hobo手袋 精选小牛皮打造 杜鹃 文淇 邓恩熙赋予 全新演绎 原版复刻 轻便时尚  潮人必备 普拉达由玛丽奥·普拉达于1913年在意大利 米兰创建。Miuccia Prada的独特天赋在于对新创意的不懈追求,融合了对知识的好奇心和文化兴趣,从而开辟了先驱之路。她不仅能够预测时尚趋势,更能够引领时尚潮流 尺寸:27cm款号123"},"price":null,"currency":"CNY","moq":1,"category":"prada-women-bags","status":"active","alibaba_url":null,"images":["https://xcimg.szwego.com/img/ee653128/20240427/i1714149578_2666_1.jpg","https://xcimg.szwego.com/img/ee653128/20240427/i1714149578_5338_8.jpg","https://xcimg.szwego.com/img/ee653128/20240427/i1714149578_658_6.jpg","https://xcimg.szwego.com/img/ee653128/20240427/i1714149578_4285_0.jpg","https://xcimg.szwego.com/img/ee653128/20240427/i1714149578_3332_5.jpg","https://xcimg.szwego.com/img/ee653128/20240427/i1714149578_9492_2.jpg","https://xcimg.szwego.com/img/ee653128/20240427/i1714149578_5996_4.jpg","https://xcimg.szwego.com/img/ee653128/20240427/i1714149578_3687_3.jpg","https://xcimg.szwego.com/img/ee653128/20240427/i1714149578_9778_7.jpg"],"created_at":"2025-02-08T12:44:26.515Z"}],"page":397,"pageSize":24,"total":10075,"totalPages":420}
