{"items":[{"id":"item-d6d2d12dbcd6","sku":"_djmjmZoziVKta3zAEqY_ps_InWYr-KA677NWKtw","name_en":"先看焦糖色平铺实物图,独家原厂老鼠货,咱们B家渠道放心拿就是,这款设计简直太绝了,采用光滑的小牛皮制作而成,内衬是小羊皮的,正面是品牌经典TB logo,满满的高级感!预测会成为BBR下一个bag🔥","name_cn":"先看焦糖色平铺实物图,独家原厂老鼠货,咱们B家渠道放心拿就是,这款设计简直太绝了,采用光滑的小牛皮制作而成,内衬是小羊皮的,正面是品牌经典TB logo,满满的高级感!预测会成为BBR下一个bag🔥","specs":{"source":"wsxcme","sourceId":"_djmjmZoziVKta3zAEqY_ps_InWYr-KA677NWKtw","sourceTagId":80411239,"sourceTagName":"巴宝莉/女包","rawTitle":"先看焦糖色平铺实物图,独家原厂老鼠货,咱们B家渠道放心拿就是,这款设计简直太绝了,采用光滑的小牛皮制作而成,内衬是小羊皮的,正面是品牌经典TB logo,满满的高级感!预测会成为BBR下一个bag🔥"},"price":null,"currency":"CNY","moq":1,"category":"burberry-women-bags","status":"active","alibaba_url":null,"images":["https://xcimg.szwego.com/20211005/i1633446361_4787_0.jpg","https://xcimg.szwego.com/20211005/i1633446361_4056_1.jpg","https://xcimg.szwego.com/20211005/i1633446361_697_3.jpg","https://xcimg.szwego.com/20211005/i1633446361_7091_4.jpg","https://xcimg.szwego.com/20211005/i1633446361_6063_5.jpg","https://xcimg.szwego.com/20211005/i1633446361_3036_6.jpg","https://xcimg.szwego.com/20211005/i1633446361_6259_7.jpg"],"created_at":"2025-01-20T12:46:12.806Z"},{"id":"item-f2e5b663f4c5","sku":"_duJuJzr9WvMrSATWod4KA89og_nuoxZf6kN0Y2A","name_en":"先看平铺实拍 作为B家的忠实粉丝,这款圆筒包必须入手!黑色菱格羊皮,款式简约大气而且够时髦,喜欢抓紧!","name_cn":"先看平铺实拍 作为B家的忠实粉丝,这款圆筒包必须入手!黑色菱格羊皮,款式简约大气而且够时髦,喜欢抓紧!","specs":{"source":"wsxcme","sourceId":"_duJuJzr9WvMrSATWod4KA89og_nuoxZf6kN0Y2A","sourceTagId":80411239,"sourceTagName":"巴宝莉/女包","rawTitle":"先看平铺实拍 作为B家的忠实粉丝,这款圆筒包必须入手!黑色菱格羊皮,款式简约大气而且够时髦,喜欢抓紧!"},"price":null,"currency":"CNY","moq":1,"category":"burberry-women-bags","status":"active","alibaba_url":null,"images":["https://xcimg.szwego.com/20220103/i1641202610_6267_0.jpg","https://xcimg.szwego.com/20220103/i1641202610_7622_1.jpg","https://xcimg.szwego.com/20220103/i1641202610_2642_2.jpg","https://xcimg.szwego.com/20220103/i1641202610_5108_3.jpg","https://xcimg.szwego.com/20220103/i1641202610_3708_4.jpg","https://xcimg.szwego.com/20220103/i1641202610_6742_5.jpg"],"created_at":"2025-01-20T12:46:12.763Z"},{"id":"item-c7ce62e5eac1","sku":"_dDlDl0imcZk0k7b1-HWiSeCpTMKGUwWSxdhOazQ","name_en":"先看平铺实拍!法棍包有多火全网可以说无人不知吧,各个大牌争相模仿出自己家的法棍风格,像 驴  gg Fd 这几个最为代表 bbr当然也不甘示弱的设计出了自家风格的法棍!","name_cn":"先看平铺实拍!法棍包有多火全网可以说无人不知吧,各个大牌争相模仿出自己家的法棍风格,像 驴  gg Fd 这几个最为代表 bbr当然也不甘示弱的设计出了自家风格的法棍!","specs":{"source":"wsxcme","sourceId":"_dDlDl0imcZk0k7b1-HWiSeCpTMKGUwWSxdhOazQ","sourceTagId":80411239,"sourceTagName":"巴宝莉/女包","rawTitle":"先看平铺实拍!法棍包有多火全网可以说无人不知吧,各个大牌争相模仿出自己家的法棍风格,像 驴  gg Fd 这几个最为代表 bbr当然也不甘示弱的设计出了自家风格的法棍!"},"price":null,"currency":"CNY","moq":1,"category":"burberry-women-bags","status":"active","alibaba_url":null,"images":["https://xcimg.szwego.com/20230410/i1681105668_8501_0.jpg","https://xcimg.szwego.com/20230410/i1681105668_9847_1.jpg","https://xcimg.szwego.com/20230410/i1681105668_8486_2.jpg","https://xcimg.szwego.com/20230410/i1681105668_3610_3.jpg","https://xcimg.szwego.com/20230410/i1681105668_9121_4.jpg","https://xcimg.szwego.com/20230410/i1681105668_9156_5.jpg"],"created_at":"2025-01-20T12:46:12.802Z"},{"id":"item-9a9b7795fa0e","sku":"_dkYkYdOdsS-E2PKRFfDMrvBylXERqYWG1_3dEaw","name_en":"先看平铺细节,官网最新款,独家首发!B家渠道放心拿,推荐人手一只,这种大容量托特很日常很实用,而且羊皮的包身很轻,特别软,好背!!️","name_cn":"先看平铺细节,官网最新款,独家首发!B家渠道放心拿,推荐人手一只,这种大容量托特很日常很实用,而且羊皮的包身很轻,特别软,好背!!️","specs":{"source":"wsxcme","sourceId":"_dkYkYdOdsS-E2PKRFfDMrvBylXERqYWG1_3dEaw","sourceTagId":80411239,"sourceTagName":"巴宝莉/女包","rawTitle":"先看平铺细节,官网最新款,独家首发!B家渠道放心拿,推荐人手一只,这种大容量托特很日常很实用,而且羊皮的包身很轻,特别软,好背!!️"},"price":null,"currency":"CNY","moq":1,"category":"burberry-women-bags","status":"active","alibaba_url":null,"images":["https://xcimg.szwego.com/20211228/i1640682100_2130_0.jpg","https://xcimg.szwego.com/20211228/i1640682100_4857_1.jpg","https://xcimg.szwego.com/20211228/i1640682100_9810_2.jpg","https://xcimg.szwego.com/20211228/i1640682100_6595_3.jpg","https://xcimg.szwego.com/20211228/i1640682100_668_4.jpg","https://xcimg.szwego.com/20211228/i1640682100_4794_5.jpg"],"created_at":"2025-01-20T12:46:12.738Z"},{"id":"item-e2ecd49dfd08","sku":"_d-r-rnh_MTuDnCUAvIq6jw4uGlyXp32XZHoMBFA","name_en":"先看相机包平铺细节,B家经典款式横版相机包,独家操作的工厂最新订单,非常实用的一款,黑色帆布非常耐造耐磨耐脏,平时不喜欢背大包的老铁这款是你的首选","name_cn":"先看相机包平铺细节,B家经典款式横版相机包,独家操作的工厂最新订单,非常实用的一款,黑色帆布非常耐造耐磨耐脏,平时不喜欢背大包的老铁这款是你的首选","specs":{"source":"wsxcme","sourceId":"_d-r-rnh_MTuDnCUAvIq6jw4uGlyXp32XZHoMBFA","sourceTagId":80411239,"sourceTagName":"巴宝莉/女包","rawTitle":"先看相机包平铺细节,B家经典款式横版相机包,独家操作的工厂最新订单,非常实用的一款,黑色帆布非常耐造耐磨耐脏,平时不喜欢背大包的老铁这款是你的首选"},"price":null,"currency":"CNY","moq":1,"category":"burberry-women-bags","status":"active","alibaba_url":null,"images":["https://xcimg.szwego.com/20220725/i1658747449_9779_0.jpg","https://xcimg.szwego.com/20220725/i1658747449_8708_1.jpg","https://xcimg.szwego.com/20220725/i1658747449_7364_2.jpg","https://xcimg.szwego.com/20220725/i1658747449_8383_3.jpg","https://xcimg.szwego.com/20220725/i1658747449_9543_4.jpg","https://xcimg.szwego.com/20220725/i1658747449_1246_5.jpg"],"created_at":"2025-01-20T12:46:12.726Z"},{"id":"item-e785fc056bd4","sku":"_d____kHfGewAm2OlrcmIHsv7byaQUUn7vJvXfoQ","name_en":"现货  经典款 独家zp开发","name_cn":"现货  经典款 独家zp开发\nChane✨新款炫彩粉CF链条翻盖包\n经典款珠光新色\n扭动开合 配以滑动式链条 单肩斜挎随意切换 整个包包看起来十分精致 时尚又百搭 这种粉金粉金的颜色 真的炒鸡抓人眼球🤩少女又贵妇的感觉 搭配浅金五金 女王范十足❤️\n尺寸25.5 15 6cm ,  \n编号A1112  炫彩粉","specs":{"source":"wsxcme","sourceId":"_d____kHfGewAm2OlrcmIHsv7byaQUUn7vJvXfoQ","sourceTagId":47002745,"sourceTagName":"香奈儿/女包","rawTitle":"现货  经典款 独家zp开发\nChane✨新款炫彩粉CF链条翻盖包\n经典款珠光新色\n扭动开合 配以滑动式链条 单肩斜挎随意切换 整个包包看起来十分精致 时尚又百搭 这种粉金粉金的颜色 真的炒鸡抓人眼球🤩少女又贵妇的感觉 搭配浅金五金 女王范十足❤️\n尺寸25.5 15 6cm ,  \n编号A1112  炫彩粉"},"price":null,"currency":"CNY","moq":1,"category":"chanel-women-bags","status":"active","alibaba_url":null,"images":["https://xcimg.szwego.com/img/5ba11c58/20241219/i1734599848_3422_5.jpg","https://xcimg.szwego.com/img/5ba11c58/20241219/i1734599850_6194_0.jpg","https://xcimg.szwego.com/img/5ba11c58/20241219/i1734599848_9389_2.jpg","https://xcimg.szwego.com/img/5ba11c58/20241219/i1734599848_4163_1.jpg","https://xcimg.szwego.com/img/5ba11c58/20241219/i1734599848_5295_0.jpg","https://xcimg.szwego.com/img/5ba11c58/20241219/i1734599850_8157_0.jpg","https://xcimg.szwego.com/img/5ba11c58/20241219/i1734599850_7506_0.jpg","https://xcimg.szwego.com/img/5ba11c58/20241219/i1734599848_8749_7.jpg","https://xcimg.szwego.com/img/5ba11c58/20241219/i1734599850_7054_0.jpg"],"created_at":"2025-02-10T13:58:23.351Z"},{"id":"item-7c6232e1e1ca","sku":"_d8h8h5m75B-0gIILUULKhT-wTQjmzuPP1-CB4YQ","name_en":"现货  经典款 独家zp开发","name_cn":"现货  经典款 独家zp开发\nChane✨新款炫彩紫CF链条翻盖包\n经典款珠光新色\n扭动开合 配以滑动式链条 单肩斜挎随意切换 整个包包看起来十分精致 时尚又百搭 这种粉金粉金的颜色 真的炒鸡抓人眼球🤩少女又贵妇的感觉 搭配浅金五金 女王范十足❤️\n尺寸25.5 15 6cm ,  \n编号A1112  炫彩紫","specs":{"source":"wsxcme","sourceId":"_d8h8h5m75B-0gIILUULKhT-wTQjmzuPP1-CB4YQ","sourceTagId":47002745,"sourceTagName":"香奈儿/女包","rawTitle":"现货  经典款 独家zp开发\nChane✨新款炫彩紫CF链条翻盖包\n经典款珠光新色\n扭动开合 配以滑动式链条 单肩斜挎随意切换 整个包包看起来十分精致 时尚又百搭 这种粉金粉金的颜色 真的炒鸡抓人眼球🤩少女又贵妇的感觉 搭配浅金五金 女王范十足❤️\n尺寸25.5 15 6cm ,  \n编号A1112  炫彩紫"},"price":null,"currency":"CNY","moq":1,"category":"chanel-women-bags","status":"active","alibaba_url":null,"images":["https://xcimg.szwego.com/img/5ba11c58/20241227/i1735232901_919_8.jpg","https://xcimg.szwego.com/img/5ba11c58/20241227/i1735232901_2652_3.jpg","https://xcimg.szwego.com/img/5ba11c58/20241227/i1735232901_7241_1.jpg","https://xcimg.szwego.com/img/5ba11c58/20241227/i1735232901_4880_6.jpg","https://xcimg.szwego.com/img/5ba11c58/20241227/i1735232901_1886_4.jpg","https://xcimg.szwego.com/img/5ba11c58/20241227/i1735232901_4129_0.jpg","https://xcimg.szwego.com/img/5ba11c58/20241227/i1735232901_1977_2.jpg","https://xcimg.szwego.com/img/5ba11c58/20241227/i1735232901_8554_5.jpg","https://xcimg.szwego.com/img/5ba11c58/20241227/i1735232901_8254_7.jpg"],"created_at":"2025-02-10T13:58:23.350Z"},{"id":"item-1e518c391a28","sku":"_d8l8llGuLKQS6ae-lMaq4oODqy2Wm9_DjyWwFDg","name_en":"现货  Chane🎶Vintage双C双肩包 牛皮 球纹","name_cn":"现货  Chane🎶Vintage双C双肩包 牛皮 球纹\n整个包包的亮点在于它的大双C logo 少见 小众而特别 ❤️\n不用担心会撞包 造型简约大气 牛皮荔枝纹非常耐用 \n容量超大 内置小袋很贴心 自重也很nice \n尺寸长31 宽11 高34\nA2213","specs":{"source":"wsxcme","sourceId":"_d8l8llGuLKQS6ae-lMaq4oODqy2Wm9_DjyWwFDg","sourceTagId":47002745,"sourceTagName":"香奈儿/女包","rawTitle":"现货  Chane🎶Vintage双C双肩包 牛皮 球纹\n整个包包的亮点在于它的大双C logo 少见 小众而特别 ❤️\n不用担心会撞包 造型简约大气 牛皮荔枝纹非常耐用 \n容量超大 内置小袋很贴心 自重也很nice \n尺寸长31 宽11 高34\nA2213"},"price":null,"currency":"CNY","moq":1,"category":"chanel-women-bags","status":"active","alibaba_url":null,"images":["https://xcimg.szwego.com/img/a5af95f4/20240917/i1726554134_2606_0.jpg","https://xcimg.szwego.com/img/a5af95f4/20240917/i1726554134_8675_0.jpg","https://xcimg.szwego.com/img/a5af95f4/20240917/i1726554134_9553_0.jpg","https://xcimg.szwego.com/img/a5af95f4/20240917/i1726554134_3091_0.jpg","https://xcimg.szwego.com/img/a5af95f4/20240917/i1726554134_13_0.jpg","https://xcimg.szwego.com/img/a5af95f4/20240917/i1726554134_6156_0.jpg","https://xcimg.szwego.com/img/a5af95f4/20240917/i1726554134_2221_0.jpg","https://xcimg.szwego.com/img/a5af95f4/20240917/i1726554134_3956_0.jpg","https://xcimg.szwego.com/img/a5af95f4/20240917/i1726554134_6506_0.jpg"],"created_at":"2025-06-16T09:47:58.339Z"},{"id":"item-1e518c391a28","sku":"_d8l8llGuLKQS6ae-lMaq4oODqy2Wm9_DjyWwFDg","name_en":"现货  Chane🎶Vintage双C双肩包 牛皮 球纹","name_cn":"现货  Chane🎶Vintage双C双肩包 牛皮 球纹\n整个包包的亮点在于它的大双C logo 少见 小众而特别 ❤️\n不用担心会撞包 造型简约大气 牛皮荔枝纹非常耐用 \n容量超大 内置小袋很贴心 自重也很nice \n尺寸长31 宽11 高34\nA2213","specs":{"source":"wsxcme","sourceId":"_d8l8llGuLKQS6ae-lMaq4oODqy2Wm9_DjyWwFDg","sourceTagId":47002743,"sourceTagName":"女士双肩包","rawTitle":"现货  Chane🎶Vintage双C双肩包 牛皮 球纹\n整个包包的亮点在于它的大双C logo 少见 小众而特别 ❤️\n不用担心会撞包 造型简约大气 牛皮荔枝纹非常耐用 \n容量超大 内置小袋很贴心 自重也很nice \n尺寸长31 宽11 高34\nA2213"},"price":null,"currency":"CNY","moq":1,"category":"women-backpacks","status":"active","alibaba_url":null,"images":["https://xcimg.szwego.com/img/a5af95f4/20240917/i1726554134_2606_0.jpg","https://xcimg.szwego.com/img/a5af95f4/20240917/i1726554134_8675_0.jpg","https://xcimg.szwego.com/img/a5af95f4/20240917/i1726554134_9553_0.jpg","https://xcimg.szwego.com/img/a5af95f4/20240917/i1726554134_3091_0.jpg","https://xcimg.szwego.com/img/a5af95f4/20240917/i1726554134_13_0.jpg","https://xcimg.szwego.com/img/a5af95f4/20240917/i1726554134_6156_0.jpg","https://xcimg.szwego.com/img/a5af95f4/20240917/i1726554134_2221_0.jpg","https://xcimg.szwego.com/img/a5af95f4/20240917/i1726554134_3956_0.jpg","https://xcimg.szwego.com/img/a5af95f4/20240917/i1726554134_6506_0.jpg"],"created_at":"2025-06-16T09:47:58.339Z"},{"id":"item-6655d0790d34","sku":"_dDXDX7lpEUohFSXfXMgL5QVPvGexOxD7hFh_n0Q","name_en":"现货 :Chane✨新款香槟金CF","name_cn":"现货 :Chane✨新款香槟金CF\n金光灿灿 闪闪发光🤩 绝美了!经典款外形➕香槟金色 高级!不同光线照射出不同颜色 每个角度都美爆了 采用了特殊工艺 虽是羊皮 但不用担心会容易刮花 这种皮非常耐造 风格可盐可甜 休闲正装都能驾驭\n尺寸25cm ,\n编号112金色珠光羊皮","specs":{"source":"wsxcme","sourceId":"_dDXDX7lpEUohFSXfXMgL5QVPvGexOxD7hFh_n0Q","sourceTagId":47002745,"sourceTagName":"香奈儿/女包","rawTitle":"现货 :Chane✨新款香槟金CF\n金光灿灿 闪闪发光🤩 绝美了!经典款外形➕香槟金色 高级!不同光线照射出不同颜色 每个角度都美爆了 采用了特殊工艺 虽是羊皮 但不用担心会容易刮花 这种皮非常耐造 风格可盐可甜 休闲正装都能驾驭\n尺寸25cm ,\n编号112金色珠光羊皮"},"price":null,"currency":"CNY","moq":1,"category":"chanel-women-bags","status":"active","alibaba_url":null,"images":["https://xcimg.szwego.com/img/5ba11c58/20241223/i1734948969_9041_0.jpg","https://xcimg.szwego.com/img/5ba11c58/20241223/i1734948967_2573_0.jpg","https://xcimg.szwego.com/img/5ba11c58/20241223/i1734948968_849_4.jpg","https://xcimg.szwego.com/img/5ba11c58/20241223/i1734948967_5395_2.jpg","https://xcimg.szwego.com/img/5ba11c58/20241223/i1734948968_7299_6.jpg","https://xcimg.szwego.com/img/5ba11c58/20241223/i1734948967_3931_1.jpg","https://xcimg.szwego.com/img/5ba11c58/20241223/i1734948968_6841_3.jpg","https://xcimg.szwego.com/img/5ba11c58/20241223/i1734948968_5938_8.jpg","https://xcimg.szwego.com/img/5ba11c58/20241223/i1734948968_9648_5.jpg"],"created_at":"2025-02-10T13:58:23.348Z"},{"id":"item-2e9c1429cc52","sku":"_dkzkznfbTpZf_On7S6E5WQRW4NfLGEv7i8c5Zjg","name_en":"现货 25P mini熊猫🐼配色双肩包","name_cn":"现货 25P mini熊猫🐼配色双肩包\n巴掌大小mini双肩包长在我的审美上了,羊皮的材质,包身是菱格纹设计,前面的一只小口袋,丝毫没有多余的地方,nv不要看似很小,实际上手机,口红,粉饼,纸巾等小物件通通可以放进去,更重要的是它可以多种背法,双肩背,单肩背,斜挎背,手拎等等,完全可以随心而背 size:22*18*10cm99473","specs":{"source":"wsxcme","sourceId":"_dkzkznfbTpZf_On7S6E5WQRW4NfLGEv7i8c5Zjg","sourceTagId":47002745,"sourceTagName":"香奈儿/女包","rawTitle":"现货 25P mini熊猫🐼配色双肩包\n巴掌大小mini双肩包长在我的审美上了,羊皮的材质,包身是菱格纹设计,前面的一只小口袋,丝毫没有多余的地方,nv不要看似很小,实际上手机,口红,粉饼,纸巾等小物件通通可以放进去,更重要的是它可以多种背法,双肩背,单肩背,斜挎背,手拎等等,完全可以随心而背 size:22*18*10cm99473"},"price":null,"currency":"CNY","moq":1,"category":"chanel-women-bags","status":"active","alibaba_url":null,"images":["https://xcimg.szwego.com/img/533a7dc2/20250527/i1748354337001_5674_0_0.jpg","https://xcimg.szwego.com/img/533a7dc2/20250527/i1748354337023_3132_0_1.jpg","https://xcimg.szwego.com/img/533a7dc2/20250527/i1748354336906_3972_0_2.jpg","https://xcimg.szwego.com/img/533a7dc2/20250527/i1748354338754_6267_0_8.jpg","https://xcimg.szwego.com/img/533a7dc2/20250527/i1748354338888_3838_0_3.jpg","https://xcimg.szwego.com/img/533a7dc2/20250527/i1748354338733_5041_0_4.jpg","https://xcimg.szwego.com/img/533a7dc2/20250527/i1748354338802_198_0_5.jpg","https://xcimg.szwego.com/img/533a7dc2/20250527/i1748354375926_8789_0_8.jpg","https://xcimg.szwego.com/img/533a7dc2/20250527/i1748354336930_2639_0_7.jpg"],"created_at":"2025-06-16T09:47:58.351Z"},{"id":"item-2e9c1429cc52","sku":"_dkzkznfbTpZf_On7S6E5WQRW4NfLGEv7i8c5Zjg","name_en":"现货 25P mini熊猫🐼配色双肩包","name_cn":"现货 25P mini熊猫🐼配色双肩包\n巴掌大小mini双肩包长在我的审美上了,羊皮的材质,包身是菱格纹设计,前面的一只小口袋,丝毫没有多余的地方,nv不要看似很小,实际上手机,口红,粉饼,纸巾等小物件通通可以放进去,更重要的是它可以多种背法,双肩背,单肩背,斜挎背,手拎等等,完全可以随心而背 size:22*18*10cm99473","specs":{"source":"wsxcme","sourceId":"_dkzkznfbTpZf_On7S6E5WQRW4NfLGEv7i8c5Zjg","sourceTagId":47002743,"sourceTagName":"女士双肩包","rawTitle":"现货 25P mini熊猫🐼配色双肩包\n巴掌大小mini双肩包长在我的审美上了,羊皮的材质,包身是菱格纹设计,前面的一只小口袋,丝毫没有多余的地方,nv不要看似很小,实际上手机,口红,粉饼,纸巾等小物件通通可以放进去,更重要的是它可以多种背法,双肩背,单肩背,斜挎背,手拎等等,完全可以随心而背 size:22*18*10cm99473"},"price":null,"currency":"CNY","moq":1,"category":"women-backpacks","status":"active","alibaba_url":null,"images":["https://xcimg.szwego.com/img/533a7dc2/20250527/i1748354337001_5674_0_0.jpg","https://xcimg.szwego.com/img/533a7dc2/20250527/i1748354337023_3132_0_1.jpg","https://xcimg.szwego.com/img/533a7dc2/20250527/i1748354336906_3972_0_2.jpg","https://xcimg.szwego.com/img/533a7dc2/20250527/i1748354338754_6267_0_8.jpg","https://xcimg.szwego.com/img/533a7dc2/20250527/i1748354338888_3838_0_3.jpg","https://xcimg.szwego.com/img/533a7dc2/20250527/i1748354338733_5041_0_4.jpg","https://xcimg.szwego.com/img/533a7dc2/20250527/i1748354338802_198_0_5.jpg","https://xcimg.szwego.com/img/533a7dc2/20250527/i1748354375926_8789_0_8.jpg","https://xcimg.szwego.com/img/533a7dc2/20250527/i1748354336930_2639_0_7.jpg"],"created_at":"2025-06-16T09:47:58.351Z"},{"id":"item-c1f1f4acf29d","sku":"_ddKdKWAx07cZkKjCtlb0KnoozbqA0J_7SL3G44A","name_en":"现货 25s 黑金hobo腋下包","name_cn":"现货 25s 黑金hobo腋下包 \n古铜色五金扣高级有味道,可可爱爱的,双链条可以随意调节,链条有个小金币也很可爱!自重很轻便,简直满分💯 看着小实际容量非常能装👍🏻搭配起来很随性 size:25*15*5.5cm99465","specs":{"source":"wsxcme","sourceId":"_ddKdKWAx07cZkKjCtlb0KnoozbqA0J_7SL3G44A","sourceTagId":47002745,"sourceTagName":"香奈儿/女包","rawTitle":"现货 25s 黑金hobo腋下包 \n古铜色五金扣高级有味道,可可爱爱的,双链条可以随意调节,链条有个小金币也很可爱!自重很轻便,简直满分💯 看着小实际容量非常能装👍🏻搭配起来很随性 size:25*15*5.5cm99465"},"price":null,"currency":"CNY","moq":1,"category":"chanel-women-bags","status":"active","alibaba_url":null,"images":["https://xcimg.szwego.com/img/533a7dc2/20250331/i1743410440196_4806_0_0.jpg","https://xcimg.szwego.com/img/533a7dc2/20250331/i1743410440242_6291_0_1.jpg","https://xcimg.szwego.com/img/533a7dc2/20250331/i1743410442705_9443_0_2.jpg","https://xcimg.szwego.com/img/533a7dc2/20250331/i1743410442738_6857_0_3.jpg","https://xcimg.szwego.com/img/533a7dc2/20250331/i1743410440197_6431_0_4.jpg","https://xcimg.szwego.com/img/533a7dc2/20250331/i1743410442776_5295_0_5.jpg","https://xcimg.szwego.com/img/533a7dc2/20250331/i1743410440197_8293_0_6.jpg","https://xcimg.szwego.com/img/533a7dc2/20250331/i1743410442739_7903_0_7.jpg","https://xcimg.szwego.com/img/533a7dc2/20250331/i1743410442693_2935_0_8.jpg"],"created_at":"2025-08-03T05:49:27.889Z"},{"id":"item-61d9dd79128e","sku":"_dlTlTpPvJZZevKcrIcJGq4lrxCp1fSO2c4hyTkA","name_en":"现货 25s 黑金hobo腋下包","name_cn":"现货 25s 黑金hobo腋下包 \n古铜色五金扣高级有味道,可可爱爱的,双链条可以随意调节,链条有个小金币也很可爱!自重很轻便,简直满分💯 看着小实际容量非常能装👍🏻搭配起来很随性 size:25*15*5.5cm99465","specs":{"source":"wsxcme","sourceId":"_dlTlTpPvJZZevKcrIcJGq4lrxCp1fSO2c4hyTkA","sourceTagId":47002745,"sourceTagName":"香奈儿/女包","rawTitle":"现货 25s 黑金hobo腋下包 \n古铜色五金扣高级有味道,可可爱爱的,双链条可以随意调节,链条有个小金币也很可爱!自重很轻便,简直满分💯 看着小实际容量非常能装👍🏻搭配起来很随性 size:25*15*5.5cm99465"},"price":null,"currency":"CNY","moq":1,"category":"chanel-women-bags","status":"active","alibaba_url":null,"images":["https://xcimg.szwego.com/20250327/i1743074687_572_0.jpg","https://xcimg.szwego.com/20250327/i1743074687_5139_1.jpg","https://xcimg.szwego.com/20250327/i1743074687_8830_2.jpg","https://xcimg.szwego.com/20250327/i1743074687_3456_3.jpg"],"created_at":"2026-06-29T10:31:18.219Z"},{"id":"item-0bf941165e15","sku":"_ds_s_LulNj2lbjew2cr43BHY2XbvapeIThiotQA","name_en":"现货 25s 黑金hobo腋下包","name_cn":"现货 25s 黑金hobo腋下包 \n古铜色五金扣高级有味道,可可爱爱的,双链条可以随意调节,链条有个小金币也很可爱!自重很轻便,简直满分💯 看着小实际容量非常能装👍🏻搭配起来很随性 size:25*15*5.5cm99465","specs":{"source":"wsxcme","sourceId":"_ds_s_LulNj2lbjew2cr43BHY2XbvapeIThiotQA","sourceTagId":47002745,"sourceTagName":"香奈儿/女包","rawTitle":"现货 25s 黑金hobo腋下包 \n古铜色五金扣高级有味道,可可爱爱的,双链条可以随意调节,链条有个小金币也很可爱!自重很轻便,简直满分💯 看着小实际容量非常能装👍🏻搭配起来很随性 size:25*15*5.5cm99465"},"price":null,"currency":"CNY","moq":1,"category":"chanel-women-bags","status":"active","alibaba_url":null,"images":["https://xcimg.szwego.com/img/533a7dc2/20250331/i1743410440196_4806_0_0.jpg","https://xcimg.szwego.com/img/533a7dc2/20250331/i1743410440242_6291_0_1.jpg","https://xcimg.szwego.com/img/533a7dc2/20250331/i1743410442705_9443_0_2.jpg","https://xcimg.szwego.com/img/533a7dc2/20250331/i1743410442738_6857_0_3.jpg","https://xcimg.szwego.com/img/533a7dc2/20250331/i1743410440197_6431_0_4.jpg","https://xcimg.szwego.com/img/533a7dc2/20250331/i1743410442776_5295_0_5.jpg","https://xcimg.szwego.com/img/533a7dc2/20250331/i1743410440197_8293_0_6.jpg","https://xcimg.szwego.com/img/533a7dc2/20250331/i1743410442739_7903_0_7.jpg","https://xcimg.szwego.com/img/533a7dc2/20250331/i1743410442693_2935_0_8.jpg"],"created_at":"2026-06-29T10:31:18.189Z"},{"id":"item-78eaa8229c1d","sku":"_dbSbSUOyefIDnTKrhkQ1S4sHBcE2QouxIO-gUrg","name_en":"现货 25s 银hobo腋下包","name_cn":"现货 25s 银hobo腋下包 \n古铜色五金扣高级有味道,可可爱爱的,双链条可以随意调节,链条有个小金币也很可爱!自重很轻便,简直满分💯 看着小实际容量非常能装👍🏻搭配起来很随性 size:25*15*5.5cm99465","specs":{"source":"wsxcme","sourceId":"_dbSbSUOyefIDnTKrhkQ1S4sHBcE2QouxIO-gUrg","sourceTagId":47002745,"sourceTagName":"香奈儿/女包","rawTitle":"现货 25s 银hobo腋下包 \n古铜色五金扣高级有味道,可可爱爱的,双链条可以随意调节,链条有个小金币也很可爱!自重很轻便,简直满分💯 看着小实际容量非常能装👍🏻搭配起来很随性 size:25*15*5.5cm99465"},"price":null,"currency":"CNY","moq":1,"category":"chanel-women-bags","status":"active","alibaba_url":null,"images":["https://xcimg.szwego.com/20250603/i1748945802_9338_0.jpg","https://xcimg.szwego.com/20250603/i1748945802_5390_1.jpg","https://xcimg.szwego.com/20250606/i1749150435_7529_0.jpg","https://xcimg.szwego.com/20250606/i1749150435_9326_1.jpg","https://xcimg.szwego.com/20250606/i1749150435_1542_2.jpg","https://xcimg.szwego.com/20250606/i1749150435_5420_3.jpg"],"created_at":"2025-08-03T05:49:10.834Z"},{"id":"item-2006dd4e6e58","sku":"_dp7p76zsBES78XF4zBx7KSnsECyaNpkC-2VR-iQ","name_en":"现货 25s 银hobo腋下包","name_cn":"现货 25s 银hobo腋下包 \n古铜色五金扣高级有味道,可可爱爱的,双链条可以随意调节,链条有个小金币也很可爱!自重很轻便,简直满分💯 看着小实际容量非常能装👍🏻搭配起来很随性 size:25*15*5.5cm99465","specs":{"source":"wsxcme","sourceId":"_dp7p76zsBES78XF4zBx7KSnsECyaNpkC-2VR-iQ","sourceTagId":47002745,"sourceTagName":"香奈儿/女包","rawTitle":"现货 25s 银hobo腋下包 \n古铜色五金扣高级有味道,可可爱爱的,双链条可以随意调节,链条有个小金币也很可爱!自重很轻便,简直满分💯 看着小实际容量非常能装👍🏻搭配起来很随性 size:25*15*5.5cm99465"},"price":null,"currency":"CNY","moq":1,"category":"chanel-women-bags","status":"active","alibaba_url":null,"images":["https://xcimg.szwego.com/20250606/i1749150481_2853_0.jpg"],"created_at":"2026-06-29T10:31:18.209Z"},{"id":"item-6c92fbecf354","sku":"_d_U_UC-SpLagqwlxmD8DQAwbLbvDqNRaNWr-8ug","name_en":"现货 现货 🆕21早秋手柄链条卡包 经典菱格纹 方正的包型 容量比卡包大点厚点 链条长短不能拆卸 多个皮质手柄手提 做旧沙金五金 复古文艺风A 尺寸:9.5*12.5*3.5cm","name_cn":"现货 现货 🆕21早秋手柄链条卡包 经典菱格纹 方正的包型 容量比卡包大点厚点 链条长短不能拆卸 多个皮质手柄手提 做旧沙金五金 复古文艺风A 尺寸:9.5*12.5*3.5cm","specs":{"source":"wsxcme","sourceId":"_d_U_UC-SpLagqwlxmD8DQAwbLbvDqNRaNWr-8ug","sourceTagId":47002745,"sourceTagName":"香奈儿/女包","dimensions":{"lengthCm":9.5,"heightCm":12.5,"widthCm":3.5},"rawTitle":"现货 现货 🆕21早秋手柄链条卡包 经典菱格纹 方正的包型 容量比卡包大点厚点 链条长短不能拆卸 多个皮质手柄手提 做旧沙金五金 复古文艺风A 尺寸:9.5*12.5*3.5cm"},"price":null,"currency":"CNY","moq":1,"category":"chanel-women-bags","status":"active","alibaba_url":null,"images":["https://xcimg.szwego.com/20210629/a1624941124082_3286.jpg","https://xcimg.szwego.com/20210629/a1624941124388_5526.jpg","https://xcimg.szwego.com/20210629/a1624941124791_2336.jpg","https://xcimg.szwego.com/20210629/a1624941124965_0355.jpg","https://xcimg.szwego.com/20210629/a1624941125234_0461.jpg","https://xcimg.szwego.com/20210629/a1624941125439_4853.jpg"],"created_at":"2024-04-30T07:02:22.674Z"},{"id":"item-71667e930ca4","sku":"_dwvwvh8ErRKTX9T_j7vfX8LC6sigtsDJau6G74Q","name_en":"现货 Chane✔️Vintage中古 黑色 牛皮鱼子酱球纹","name_cn":"现货 Chane✔️Vintage中古 黑色 牛皮鱼子酱球纹\n\nCF香奶奶👵的传家宝来了!最最最经典的vintage cf 黑色羊皮搭配菱格纹➕金色金属 永不过时的classic flap💅浓郁的中古风情~真的太让人心动了可扭动开合 配以滑动式链条 单肩斜挎随意切换 容量大小完美 日常超级百搭!尺寸26cm\n编号:A2220","specs":{"source":"wsxcme","sourceId":"_dwvwvh8ErRKTX9T_j7vfX8LC6sigtsDJau6G74Q","sourceTagId":47002745,"sourceTagName":"香奈儿/女包","rawTitle":"现货 Chane✔️Vintage中古 黑色 牛皮鱼子酱球纹\n\nCF香奶奶👵的传家宝来了!最最最经典的vintage cf 黑色羊皮搭配菱格纹➕金色金属 永不过时的classic flap💅浓郁的中古风情~真的太让人心动了可扭动开合 配以滑动式链条 单肩斜挎随意切换 容量大小完美 日常超级百搭!尺寸26cm\n编号:A2220"},"price":null,"currency":"CNY","moq":1,"category":"chanel-women-bags","status":"active","alibaba_url":null,"images":["https://xcimg.szwego.com/img/a5af95f4/20240921/i1726914642_4379_0.jpg","https://xcimg.szwego.com/img/a5af95f4/20240921/i1726914642_2719_0.jpg","https://xcimg.szwego.com/img/a5af95f4/20240921/i1726914642_9484_0.jpg","https://xcimg.szwego.com/img/a5af95f4/20240921/i1726914644_8115_0.jpg","https://xcimg.szwego.com/img/a5af95f4/20240921/i1726914642_899_0.jpg","https://xcimg.szwego.com/img/a5af95f4/20240921/i1726914643_9871_0.jpg","https://xcimg.szwego.com/img/a5af95f4/20240921/i1726914642_2993_0.jpg","https://xcimg.szwego.com/img/a5af95f4/20240921/i1726914642_8265_0.jpg","https://xcimg.szwego.com/img/a5af95f4/20240921/i1726914642_98_0.jpg"],"created_at":"2024-09-24T07:41:58.339Z"},{"id":"item-90623210f48c","sku":"_dpepe25D9lsq0Vn1IuEvY51nOs7Xo9m0PJ2gY7w","name_en":"现货 Chane✔️Vintage中古 黑色 羊皮","name_cn":"现货 Chane✔️Vintage中古 黑色 羊皮\nCF香奶奶👵的传家宝来了!最最最经典的vintage cf 黑色羊皮搭配菱格纹➕金色金属 永不过时的classic flap💅浓郁的中古风情~真的太让人心动了可扭动开合 配以滑动式链条 单肩斜挎随意切换 容量大小完美 日常超级百搭!尺寸26cm\n编号:A2220","specs":{"source":"wsxcme","sourceId":"_dpepe25D9lsq0Vn1IuEvY51nOs7Xo9m0PJ2gY7w","sourceTagId":47002745,"sourceTagName":"香奈儿/女包","rawTitle":"现货 Chane✔️Vintage中古 黑色 羊皮\nCF香奶奶👵的传家宝来了!最最最经典的vintage cf 黑色羊皮搭配菱格纹➕金色金属 永不过时的classic flap💅浓郁的中古风情~真的太让人心动了可扭动开合 配以滑动式链条 单肩斜挎随意切换 容量大小完美 日常超级百搭!尺寸26cm\n编号:A2220"},"price":null,"currency":"CNY","moq":1,"category":"chanel-women-bags","status":"active","alibaba_url":null,"images":["https://xcimg.szwego.com/img/5ba11c58/20240917/i1726504836_1765_0.jpg","https://xcimg.szwego.com/img/5ba11c58/20240917/i1726504837_8856_6.jpg","https://xcimg.szwego.com/img/5ba11c58/20240917/i1726504837_2729_2.jpg","https://xcimg.szwego.com/img/5ba11c58/20240917/i1726504837_3193_4.jpg","https://xcimg.szwego.com/img/5ba11c58/20240917/i1726504836_1690_1.jpg","https://xcimg.szwego.com/img/5ba11c58/20240917/i1726504837_7433_5.jpg","https://xcimg.szwego.com/img/5ba11c58/20240917/i1726504837_7706_3.jpg","https://xcimg.szwego.com/img/5ba11c58/20240917/i1726504837_4934_7.jpg"],"created_at":"2024-09-24T07:41:58.338Z"},{"id":"item-bbe7caf1ac35","sku":"_dEdEdzJVWUDc-FgD51zleQGqQ9Kt7vsVnZh9d0g","name_en":"现货 Chane✨进口羊皮 全刚五金","name_cn":"现货 Chane✨进口羊皮 全刚五金\n新款:珠光白色 银扣 经典色 羊皮\n扭动开合 配以滑动式链条 单肩斜挎随意切换 整个包包看起来十分精致 时尚又百搭 这种粉金粉金的颜色 真的炒鸡抓人眼球🤩少女又贵妇的感觉 搭配浅金五金 女王范十足💋🌸\n尺寸25.5 15 6cm \n编号:1112","specs":{"source":"wsxcme","sourceId":"_dEdEdzJVWUDc-FgD51zleQGqQ9Kt7vsVnZh9d0g","sourceTagId":47002745,"sourceTagName":"香奈儿/女包","rawTitle":"现货 Chane✨进口羊皮 全刚五金\n新款:珠光白色 银扣 经典色 羊皮\n扭动开合 配以滑动式链条 单肩斜挎随意切换 整个包包看起来十分精致 时尚又百搭 这种粉金粉金的颜色 真的炒鸡抓人眼球🤩少女又贵妇的感觉 搭配浅金五金 女王范十足💋🌸\n尺寸25.5 15 6cm \n编号:1112"},"price":null,"currency":"CNY","moq":1,"category":"chanel-women-bags","status":"active","alibaba_url":null,"images":["https://xcimg.szwego.com/img/5ba11c58/20240929/i1727609503_5603_6.jpg","https://xcimg.szwego.com/img/5ba11c58/20240929/i1727609503_3731_2.jpg","https://xcimg.szwego.com/img/5ba11c58/20240929/i1727609503_1388_1.jpg","https://xcimg.szwego.com/img/5ba11c58/20240929/i1727609503_5475_4.jpg","https://xcimg.szwego.com/img/5ba11c58/20240929/i1727609503_1831_0.jpg","https://xcimg.szwego.com/img/5ba11c58/20240929/i1727609503_1373_7.jpg","https://xcimg.szwego.com/img/5ba11c58/20240929/i1727609503_6921_8.jpg","https://xcimg.szwego.com/img/5ba11c58/20240929/i1727609503_2074_5.jpg","https://xcimg.szwego.com/img/5ba11c58/20240929/i1727609503_142_3.jpg"],"created_at":"2025-02-10T13:58:23.352Z"},{"id":"item-b683272b347c","sku":"_dlYlY9zkElxjzCVwJp2-azyvBzTnkgfgHAlR41A","name_en":"现货 Chane✨进口羊皮 全刚五金","name_cn":"现货 Chane✨进口羊皮 全刚五金\n新款:粉色拼黄色 色彩扣 经典色 羊皮\n扭动开合 配以滑动式链条 单肩斜挎随意切换 整个包包看起来十分精致 时尚又百搭 这种粉金粉金的颜色 真的炒鸡抓人眼球🤩少女又贵妇的感觉 搭配七彩扣 女王范十足💋\n尺寸25.5 15 6cm \n编号:1112","specs":{"source":"wsxcme","sourceId":"_dlYlY9zkElxjzCVwJp2-azyvBzTnkgfgHAlR41A","sourceTagId":47002745,"sourceTagName":"香奈儿/女包","rawTitle":"现货 Chane✨进口羊皮 全刚五金\n新款:粉色拼黄色 色彩扣 经典色 羊皮\n扭动开合 配以滑动式链条 单肩斜挎随意切换 整个包包看起来十分精致 时尚又百搭 这种粉金粉金的颜色 真的炒鸡抓人眼球🤩少女又贵妇的感觉 搭配七彩扣 女王范十足💋\n尺寸25.5 15 6cm \n编号:1112"},"price":null,"currency":"CNY","moq":1,"category":"chanel-women-bags","status":"active","alibaba_url":null,"images":["https://xcimg.szwego.com/img/5ba11c58/20241015/i1728986236_5619_6.jpg","https://xcimg.szwego.com/img/5ba11c58/20241015/i1728986236_3210_5.jpg","https://xcimg.szwego.com/img/5ba11c58/20241015/i1728986236_9203_3.jpg","https://xcimg.szwego.com/img/5ba11c58/20241015/i1728986236_582_0.jpg","https://xcimg.szwego.com/img/5ba11c58/20241015/i1728986236_5201_8.jpg","https://xcimg.szwego.com/img/5ba11c58/20241015/i1728986236_9400_2.jpg","https://xcimg.szwego.com/img/5ba11c58/20241015/i1728986236_9409_4.jpg","https://xcimg.szwego.com/img/5ba11c58/20241015/i1728986236_2049_1.jpg","https://xcimg.szwego.com/img/5ba11c58/20241015/i1728986236_5602_7.jpg"],"created_at":"2024-10-25T09:08:10.609Z"},{"id":"item-9a123b2219ac","sku":"_ddQdQbASAzbleIUALc7mEcmVPY7GOct6RRQk0sg","name_en":"现货 Chane✨进口羊皮 全刚五金","name_cn":"现货 Chane✨进口羊皮 全刚五金\n新款:蓝色拼玫瑰红 色彩扣 经典色 羊皮\n扭动开合 配以滑动式链条 单肩斜挎随意切换 整个包包看起来十分精致 时尚又百搭 这种粉金粉金的颜色 真的炒鸡抓人眼球🤩少女又贵妇的感觉 搭配七彩扣 女王范十足💋\n尺寸25.5 15 6cm \n编号:1112","specs":{"source":"wsxcme","sourceId":"_ddQdQbASAzbleIUALc7mEcmVPY7GOct6RRQk0sg","sourceTagId":47002745,"sourceTagName":"香奈儿/女包","rawTitle":"现货 Chane✨进口羊皮 全刚五金\n新款:蓝色拼玫瑰红 色彩扣 经典色 羊皮\n扭动开合 配以滑动式链条 单肩斜挎随意切换 整个包包看起来十分精致 时尚又百搭 这种粉金粉金的颜色 真的炒鸡抓人眼球🤩少女又贵妇的感觉 搭配七彩扣 女王范十足💋\n尺寸25.5 15 6cm \n编号:1112"},"price":null,"currency":"CNY","moq":1,"category":"chanel-women-bags","status":"active","alibaba_url":null,"images":["https://xcimg.szwego.com/img/5ba11c58/20241015/i1728986223_4109_4.jpg","https://xcimg.szwego.com/img/5ba11c58/20241015/i1728986223_7319_2.jpg","https://xcimg.szwego.com/img/5ba11c58/20241015/i1728986223_6384_1.jpg","https://xcimg.szwego.com/img/5ba11c58/20241015/i1728986225_4523_0.jpg","https://xcimg.szwego.com/img/5ba11c58/20241015/i1728986225_8277_0.jpg","https://xcimg.szwego.com/img/5ba11c58/20241015/i1728986225_7448_0.jpg","https://xcimg.szwego.com/img/5ba11c58/20241015/i1728986223_7289_3.jpg","https://xcimg.szwego.com/img/5ba11c58/20241015/i1728986225_2695_0.jpg","https://xcimg.szwego.com/img/5ba11c58/20241015/i1728986225_7572_0.jpg"],"created_at":"2024-10-25T09:08:10.608Z"},{"id":"item-30eeee491ef3","sku":"_dtZtZHL08db1hBMH3daWiyZ2jzNXB1FtnPacB2Q","name_en":"现货 Chane✨进口羊皮 全刚五金","name_cn":"现货 Chane✨进口羊皮 全刚五金\n新款:绿色拼蓝色  色彩扣 经典色 羊皮\n扭动开合 配以滑动式链条 单肩斜挎随意切换 整个包包看起来十分精致 时尚又百搭 这种粉金粉金的颜色 真的炒鸡抓人眼球🤩少女又贵妇的感觉 搭配七彩扣 女王范十足💋\n尺寸25.5 15 6cm \n编号:1112","specs":{"source":"wsxcme","sourceId":"_dtZtZHL08db1hBMH3daWiyZ2jzNXB1FtnPacB2Q","sourceTagId":47002745,"sourceTagName":"香奈儿/女包","rawTitle":"现货 Chane✨进口羊皮 全刚五金\n新款:绿色拼蓝色  色彩扣 经典色 羊皮\n扭动开合 配以滑动式链条 单肩斜挎随意切换 整个包包看起来十分精致 时尚又百搭 这种粉金粉金的颜色 真的炒鸡抓人眼球🤩少女又贵妇的感觉 搭配七彩扣 女王范十足💋\n尺寸25.5 15 6cm \n编号:1112"},"price":null,"currency":"CNY","moq":1,"category":"chanel-women-bags","status":"active","alibaba_url":null,"images":["https://xcimg.szwego.com/img/5ba11c58/20241015/i1728986209_1135_5.jpg","https://xcimg.szwego.com/img/5ba11c58/20241015/i1728986209_5863_3.jpg","https://xcimg.szwego.com/img/5ba11c58/20241015/i1728986209_7569_4.jpg","https://xcimg.szwego.com/img/5ba11c58/20241015/i1728986209_6670_7.jpg","https://xcimg.szwego.com/img/5ba11c58/20241015/i1728986209_676_6.jpg","https://xcimg.szwego.com/img/5ba11c58/20241015/i1728986209_8580_8.jpg","https://xcimg.szwego.com/img/5ba11c58/20241015/i1728986209_944_1.jpg","https://xcimg.szwego.com/img/5ba11c58/20241015/i1728986209_6001_0.jpg","https://xcimg.szwego.com/img/5ba11c58/20241015/i1728986209_4670_2.jpg"],"created_at":"2024-10-25T09:08:10.610Z"}],"page":184,"pageSize":24,"total":10075,"totalPages":420}
