{"items":[{"id":"item-2bd71aeb21af","sku":"_dvpvpvizoANN9wI0agZsR1ilwZojdtW-AauNJVw","name_en":"Counter quality, original leather, real photos, style number: 446744 Silver, size: 23(W)x 14(H)x 6(Side W), in stock and ready to ship!","name_cn":"Counter quality, original leather, real photos, style number: 446744 Silver, size: 23(W)x 14(H)x 6(Side W), in stock and ready to ship!","specs":{"source":"wsxcme","sourceId":"_dvpvpvizoANN9wI0agZsR1ilwZojdtW-AauNJVw","sourceTagId":47002679,"sourceTagName":"Gucci/women's bag","modelNumber":"446744","rawTitle":"Counter quality, original leather, real photos, style number: 446744 Silver, size: 23(W)x 14(H)x 6(Side W), in stock and ready to ship!"},"price":null,"currency":"CNY","moq":1,"category":"gucci-women-bags","status":"active","alibaba_url":null,"images":["https://xcimg.szwego.com/img/031016d9/20241130/i1732963302_453_4.jpg","https://xcimg.szwego.com/img/031016d9/20241130/i1732963302_3525_7.jpg","https://xcimg.szwego.com/img/031016d9/20241130/i1732963302_6835_1.jpg","https://xcimg.szwego.com/img/031016d9/20241130/i1732963302_6353_0.jpg","https://xcimg.szwego.com/img/031016d9/20241130/i1732963302_771_3.jpg","https://xcimg.szwego.com/img/031016d9/20241130/i1732963302_8696_5.jpg","https://xcimg.szwego.com/img/031016d9/20241130/i1732963302_172_6.jpg","https://xcimg.szwego.com/img/031016d9/20241130/i1732963302_9577_2.jpg","https://xcimg.szwego.com/img/031016d9/20241130/i1732963344_989_0.jpg"],"created_at":"2025-02-08T13:12:52.777Z"},{"id":"item-3ad075c20caa","sku":"_dx-x-Kyw4X9-ZOMoVmPB8EkZZEIB72VGPVYlRdQ","name_en":"Counter quality, top-tier original sample, real photos! Model 838900 Puppy, Dimensions: 10x7cm, 💰","name_cn":"Counter quality, top-tier original sample, real photos! Model 838900 Puppy, Dimensions: 10x7cm, 💰","specs":{"source":"wsxcme","sourceId":"_dx-x-Kyw4X9-ZOMoVmPB8EkZZEIB72VGPVYlRdQ","sourceTagId":47002663,"sourceTagName":"length","modelNumber":"838900","rawTitle":"Counter quality, top-tier original sample, real photos! Model 838900 Puppy, Dimensions: 10x7cm, 💰"},"price":null,"currency":"CNY","moq":1,"category":"women-wallets","status":"active","alibaba_url":null,"images":["https://xcimg.szwego.com/img/102e1c0f/20250612/i1749703702089_8506_0_0.jpg","https://xcimg.szwego.com/img/102e1c0f/20250612/i1749703702084_7782_0_1.jpg","https://xcimg.szwego.com/img/102e1c0f/20250612/i1749703702008_5779_0_2.jpg","https://xcimg.szwego.com/img/102e1c0f/20250612/i1749703702046_7901_0_3.jpg"],"created_at":"2025-08-03T05:43:10.130Z"},{"id":"item-138554cf9572","sku":"_dkFkFBFw2yRnVOXyNRLQlsobtub2rPyYHNSoEpA","name_en":"Counter quality, top-tier original sample, real photos! Model 841360 Coffee Gel/Claret, Dimensions: 11.5x8x3.5cm, 💰","name_cn":"Counter quality, top-tier original sample, real photos! Model 841360 Coffee Gel/Claret, Dimensions: 11.5x8x3.5cm, 💰","specs":{"source":"wsxcme","sourceId":"_dkFkFBFw2yRnVOXyNRLQlsobtub2rPyYHNSoEpA","sourceTagId":47002663,"sourceTagName":"length","modelNumber":"841360 /","rawTitle":"Counter quality, top-tier original sample, real photos! Model 841360 Coffee Gel/Claret, Dimensions: 11.5x8x3.5cm, 💰"},"price":null,"currency":"CNY","moq":1,"category":"women-wallets","status":"active","alibaba_url":null,"images":["https://xcimg.szwego.com/img/102e1c0f/20250605/i1749108191394_757_0_0.jpg","https://xcimg.szwego.com/img/102e1c0f/20250605/i1749108191425_3224_0_1.jpg","https://xcimg.szwego.com/img/102e1c0f/20250605/i1749108191438_7049_0_2.jpg","https://xcimg.szwego.com/img/102e1c0f/20250605/i1749108191433_1795_0_3.jpg"],"created_at":"2025-08-03T05:43:10.129Z"},{"id":"item-b0f276827933","sku":"_dnonouyrnr2AFG884QGtlClA9eAQxDDldljBxkA","name_en":"Counter quality, top-tier replica, real photos! 768248, Coffee Gel/Fluorescent Rose~ Size: 11W x 7H, Shipping out! 💰","name_cn":"Counter quality, top-tier replica, real photos! 768248, Coffee Gel/Fluorescent Rose~ Size: 11W x 7H, Shipping out! 💰","specs":{"source":"wsxcme","sourceId":"_dnonouyrnr2AFG884QGtlClA9eAQxDDldljBxkA","sourceTagId":47002663,"sourceTagName":"length","rawTitle":"Counter quality, top-tier replica, real photos! 768248, Coffee Gel/Fluorescent Rose~ Size: 11W x 7H, Shipping out! 💰"},"price":null,"currency":"CNY","moq":1,"category":"women-wallets","status":"active","alibaba_url":null,"images":["https://xcimg.szwego.com/img/102e1c0f/20250517/i1747466411025_7206_0_0.jpg","https://xcimg.szwego.com/img/102e1c0f/20250517/i1747466411053_87_0_1.jpg","https://xcimg.szwego.com/img/102e1c0f/20250517/i1747466411030_292_0_2.jpg","https://xcimg.szwego.com/img/102e1c0f/20250517/i1747466411034_7526_0_3.jpg"],"created_at":"2025-08-03T05:43:10.104Z"},{"id":"item-3f3e85477f4a","sku":"_da4a4ZwZgNIvQ_Fa5vgy4Upw-zL904nhlsSM7OQ","name_en":"Counter quality, top-tier replica, real photos! Style 835053, Calfskin/Orange G, Size: 10.5W x 7.5H cm, 💰","name_cn":"Counter quality, top-tier replica, real photos! Style 835053, Calfskin/Orange G, Size: 10.5W x 7.5H cm, 💰","specs":{"source":"wsxcme","sourceId":"_da4a4ZwZgNIvQ_Fa5vgy4Upw-zL904nhlsSM7OQ","sourceTagId":47002663,"sourceTagName":"length","modelNumber":"835053 / G","rawTitle":"Counter quality, top-tier replica, real photos! Style 835053, Calfskin/Orange G, Size: 10.5W x 7.5H cm, 💰"},"price":null,"currency":"CNY","moq":1,"category":"women-wallets","status":"active","alibaba_url":null,"images":["https://xcimg.szwego.com/img/102e1c0f/20250602/i1748839812953_7866_0_0.jpg","https://xcimg.szwego.com/img/102e1c0f/20250602/i1748839812950_8303_0_1.jpg","https://xcimg.szwego.com/img/102e1c0f/20250602/i1748839812928_9545_0_2.jpg","https://xcimg.szwego.com/img/102e1c0f/20250602/i1748839812933_1332_0_3.jpg"],"created_at":"2025-08-03T05:43:10.108Z"},{"id":"item-a5400057960c","sku":"_drvrvYf7sehqWtydH9y7b5o_PyZ5w3Dulus6M1Q","name_en":"Counter quality, top-tier replica, real photos! Style 835054, Calfskin/Light Green G, Size: 10W x 19H x 2S","name_cn":"Counter quality, top-tier replica, real photos! Style 835054, Calfskin/Light Green G, Size: 10W x 19H x 2S","specs":{"source":"wsxcme","sourceId":"_drvrvYf7sehqWtydH9y7b5o_PyZ5w3Dulus6M1Q","sourceTagId":47002663,"sourceTagName":"length","modelNumber":"835054 / G","rawTitle":"Counter quality, top-tier replica, real photos! Style 835054, Calfskin/Light Green G, Size: 10W x 19H x 2S"},"price":null,"currency":"CNY","moq":1,"category":"women-wallets","status":"active","alibaba_url":null,"images":["https://xcimg.szwego.com/img/102e1c0f/20250615/i1749974314054_9505_0_0.jpg","https://xcimg.szwego.com/img/102e1c0f/20250615/i1749974313759_7221_0_1.jpg","https://xcimg.szwego.com/img/102e1c0f/20250615/i1749974313978_6836_0_3.jpg","https://xcimg.szwego.com/img/102e1c0f/20250615/i1749974314033_4144_0_2.jpg"],"created_at":"2025-08-03T05:43:10.105Z"},{"id":"item-8927a52f12d0","sku":"_dPjPj1jW0EFbkmkLRWeJ2_UPECcZcZnLoAi8IGg","name_en":"Counter quality, top-tier replica, real photos! Style 835054, Calfskin/Orange G, Size: 10W x 19H x 2S","name_cn":"Counter quality, top-tier replica, real photos! Style 835054, Calfskin/Orange G, Size: 10W x 19H x 2S","specs":{"source":"wsxcme","sourceId":"_dPjPj1jW0EFbkmkLRWeJ2_UPECcZcZnLoAi8IGg","sourceTagId":47002663,"sourceTagName":"length","modelNumber":"835054 / G","rawTitle":"Counter quality, top-tier replica, real photos! Style 835054, Calfskin/Orange G, Size: 10W x 19H x 2S"},"price":null,"currency":"CNY","moq":1,"category":"women-wallets","status":"active","alibaba_url":null,"images":["https://xcimg.szwego.com/img/102e1c0f/20250615/i1749974480377_3812_0_0.jpg","https://xcimg.szwego.com/img/102e1c0f/20250615/i1749974480407_660_0_1.jpg","https://xcimg.szwego.com/img/102e1c0f/20250615/i1749974480234_6979_0_3.jpg","https://xcimg.szwego.com/img/102e1c0f/20250615/i1749974480346_5168_0_2.jpg"],"created_at":"2025-08-03T05:43:10.106Z"},{"id":"item-d2250d3b7c4d","sku":"_daSaSTR6ekmSUynOnj9c1kqWbLNqPd6BhYOmnlQ","name_en":"Counter quality, top-tier replica, real photos! Style 835054, Calfskin/White Steel G, Size: 10W x 19H x 2S","name_cn":"Counter quality, top-tier replica, real photos! Style 835054, Calfskin/White Steel G, Size: 10W x 19H x 2S","specs":{"source":"wsxcme","sourceId":"_daSaSTR6ekmSUynOnj9c1kqWbLNqPd6BhYOmnlQ","sourceTagId":47002663,"sourceTagName":"length","modelNumber":"835054 / G","rawTitle":"Counter quality, top-tier replica, real photos! Style 835054, Calfskin/White Steel G, Size: 10W x 19H x 2S"},"price":null,"currency":"CNY","moq":1,"category":"women-wallets","status":"active","alibaba_url":null,"images":["https://xcimg.szwego.com/img/102e1c0f/20250615/i1749974517636_8044_0_0.jpg","https://xcimg.szwego.com/img/102e1c0f/20250615/i1749974517685_3180_0_1.jpg","https://xcimg.szwego.com/img/102e1c0f/20250615/i1749974517447_9369_0_2.jpg","https://xcimg.szwego.com/img/102e1c0f/20250615/i1749974517689_9743_0_3.jpg"],"created_at":"2025-08-03T05:43:10.107Z"},{"id":"item-787c1b4dea65","sku":"_dlslsL-N_ayTXOPyxMAxebr8Gb5LzFunWnITQIA","name_en":"Counter-verified【Top-tier Original】M81537 Green Suit Wallet Series","name_cn":"Counter-verified【Top-tier Original】M81537 Green Suit Wallet Series\nSuit wallet with cowhide leather trim. LV is renowned for its exquisite craftsmanship, combining rare designs and special leathers with innovative technology and classic styles. The Monogram green leather suit wallet highlights the presence of the Louis Vuitton world. The wallet features a unique interior design with various pockets and credit card slots.\nSize: 19×10 cm","specs":{"source":"wsxcme","sourceId":"_dlslsL-N_ayTXOPyxMAxebr8Gb5LzFunWnITQIA","sourceTagId":47002663,"sourceTagName":"length","rawTitle":"Counter-verified【Top-tier Original】M81537 Green Suit Wallet Series\nSuit wallet with cowhide leather trim. LV is renowned for its exquisite craftsmanship, combining rare designs and special leathers with innovative technology and classic styles. The Monogram green leather suit wallet highlights the presence of the Louis Vuitton world. The wallet features a unique interior design with various pockets and credit card slots.\nSize: 19×10 cm"},"price":null,"currency":"CNY","moq":1,"category":"women-wallets","status":"active","alibaba_url":null,"images":["https://xcimg.szwego.com/20230806/a1691301430709_4748.jpg","https://xcimg.szwego.com/20230806/a1691301430711_0627.jpg","https://xcimg.szwego.com/20230806/a1691301430715_0363.jpg","https://xcimg.szwego.com/20230806/a1691301430718_4233.jpg","https://xcimg.szwego.com/20230806/a1691301430724_7442.jpg","https://xcimg.szwego.com/20230806/a1691301430831_5787.jpg","https://xcimg.szwego.com/20230806/a1691301430835_8825.jpg","https://xcimg.szwego.com/20230806/a1691301430964_4211.jpg"],"created_at":"2024-05-08T09:49:54.871Z"},{"id":"item-f1feb56faf8e","sku":"_dvkvkFhUiPAqFfZUDtp9-P7wjG4y7ICBP3eWX-Q","name_en":"Counter-verified【Top-tier Original】M81538 Purple Suit Wallet Series","name_cn":"Counter-verified【Top-tier Original】M81538 Purple Suit Wallet Series\nSuit wallet with cowhide leather trim. LV is renowned for its exquisite craftsmanship, combining rare designs and special leathers with innovative technology and classic styles. The Monogram purple leather suit wallet highlights the presence of the Louis Vuitton world. The wallet features a unique interior design with various pockets and credit card slots.\nSize: 19×10 cm","specs":{"source":"wsxcme","sourceId":"_dvkvkFhUiPAqFfZUDtp9-P7wjG4y7ICBP3eWX-Q","sourceTagId":47002663,"sourceTagName":"length","rawTitle":"Counter-verified【Top-tier Original】M81538 Purple Suit Wallet Series\nSuit wallet with cowhide leather trim. LV is renowned for its exquisite craftsmanship, combining rare designs and special leathers with innovative technology and classic styles. The Monogram purple leather suit wallet highlights the presence of the Louis Vuitton world. The wallet features a unique interior design with various pockets and credit card slots.\nSize: 19×10 cm"},"price":null,"currency":"CNY","moq":1,"category":"women-wallets","status":"active","alibaba_url":null,"images":["https://xcimg.szwego.com/20230806/a1691301411364_3288.jpg","https://xcimg.szwego.com/20230806/a1691301411366_4733.jpg","https://xcimg.szwego.com/20230806/a1691301411369_1450.jpg","https://xcimg.szwego.com/20230806/a1691301411372_4686.jpg","https://xcimg.szwego.com/20230806/a1691301411375_0338.jpg","https://xcimg.szwego.com/20230806/a1691301411450_4885.jpg","https://xcimg.szwego.com/20230806/a1691301411453_3337.jpg","https://xcimg.szwego.com/20230806/a1691301411622_8131.jpg"],"created_at":"2024-05-08T09:49:54.870Z"},{"id":"item-bde309a3b4bf","sku":"_dhihixWHH-tkohv5YMKyVojOTzpklXyFa5cHv9A","name_en":"Counter-verified【Top-tier Original】M81540 Full Leather Embossed Pocket Wallet Series. This pocket wallet pays tribute to Virgil Abloh's color philosophy. Taurillon leather embossed with the classic Monogram pattern, dyed in vivid bright colors, making it a colorful choice for Monogram lovers. 8 x 11 x 1 cm","name_cn":"Counter-verified【Top-tier Original】M81540 Full Leather Embossed Pocket Wallet Series. This pocket wallet pays tribute to Virgil Abloh's color philosophy. Taurillon leather embossed with the classic Monogram pattern, dyed in vivid bright colors, making it a colorful choice for Monogram lovers. 8 x 11 x 1 cm","specs":{"source":"wsxcme","sourceId":"_dhihixWHH-tkohv5YMKyVojOTzpklXyFa5cHv9A","sourceTagId":47002663,"sourceTagName":"length","rawTitle":"Counter-verified【Top-tier Original】M81540 Full Leather Embossed Pocket Wallet Series. This pocket wallet pays tribute to Virgil Abloh's color philosophy. Taurillon leather embossed with the classic Monogram pattern, dyed in vivid bright colors, making it a colorful choice for Monogram lovers. 8 x 11 x 1 cm"},"price":null,"currency":"CNY","moq":1,"category":"women-wallets","status":"active","alibaba_url":null,"images":["https://xcimg.szwego.com/20230806/a1691301213004_2016.jpg","https://xcimg.szwego.com/20230806/a1691301213006_0663.jpg","https://xcimg.szwego.com/20230806/a1691301213008_7645.jpg","https://xcimg.szwego.com/20230806/a1691301213010_6782.jpg","https://xcimg.szwego.com/20230806/a1691301213013_0110.jpg","https://xcimg.szwego.com/20230806/a1691301213019_1156.jpg"],"created_at":"2024-05-08T09:49:54.868Z"},{"id":"item-df88b1c72df8","sku":"_dcecenYr_yCHSOFB5JtUB5j8FaNN0j3NGiwVQyQ","name_en":"Counterfeit grade","name_cn":"Counterfeit grade\nBVLGARI SERPENTI FOREVER\nModel: 38102 Orange with Burgundy\nSize: 22*13*5.5cm\nBest-selling Serpenti Forever series exquisite crossbody bag, original single quality, imported calfskin, custom original single hardware 🔅 decorated with serpenti enamel light gold-plated snake head buckle, also suitable for evening wear, exquisite like jewelry 💎\"Raincoat, mirror, gift box packaging,","specs":{"source":"wsxcme","sourceId":"_dcecenYr_yCHSOFB5JtUB5j8FaNN0j3NGiwVQyQ","sourceTagId":47002756,"sourceTagName":"/women's bag","modelNumber":"38102","dimensions":{"lengthCm":22,"heightCm":13,"widthCm":5.5},"rawTitle":"Counterfeit grade\nBVLGARI SERPENTI FOREVER\nModel: 38102 Orange with Burgundy\nSize: 22*13*5.5cm\nBest-selling Serpenti Forever series exquisite crossbody bag, original single quality, imported calfskin, custom original single hardware 🔅 decorated with serpenti enamel light gold-plated snake head buckle, also suitable for evening wear, exquisite like jewelry 💎\"Raincoat, mirror, gift box packaging,"},"price":null,"currency":"CNY","moq":1,"category":"bvlgari-women-bags","status":"active","alibaba_url":null,"images":["https://xcimg.szwego.com/20230219/i1676789064_1831_0.jpg","https://xcimg.szwego.com/20230219/i1676789064_3383_1.jpg","https://xcimg.szwego.com/20230219/i1676789064_9541_2.jpg","https://xcimg.szwego.com/20230219/i1676789064_8381_3.jpg","https://xcimg.szwego.com/20230219/i1676789064_1605_4.jpg","https://xcimg.szwego.com/20230219/i1676789064_321_5.jpg","https://xcimg.szwego.com/20230219/i1676789064_5109_6.jpg","https://xcimg.szwego.com/20230219/i1676789064_5741_7.jpg","https://xcimg.szwego.com/20230219/i1676789064_3550_8.jpg"],"created_at":"2024-10-07T10:58:53.563Z"},{"id":"item-400299597010","sku":"_dwmwmSHa3Gs3he-wOxwlVoeM3ODfX1jE64U_WIQ","name_en":"Counterfeit quality, original factory leather, Model: 826761 Brown Apricot Fabric, Dimensions: 21.5W x 14H x 9D cm, In Stock🎉🎉🎉","name_cn":"Counterfeit quality, original factory leather, Model: 826761 Brown Apricot Fabric, Dimensions: 21.5W x 14H x 9D cm, In Stock🎉🎉🎉","specs":{"source":"wsxcme","sourceId":"_dwmwmSHa3Gs3he-wOxwlVoeM3ODfX1jE64U_WIQ","sourceTagId":47002679,"sourceTagName":"Gucci/women's bag","modelNumber":"826761brown","rawTitle":"Counterfeit quality, original factory leather, Model: 826761 Brown Apricot Fabric, Dimensions: 21.5W x 14H x 9D cm, In Stock🎉🎉🎉"},"price":null,"currency":"CNY","moq":1,"category":"gucci-women-bags","status":"active","alibaba_url":null,"images":["https://xcimg.szwego.com/img/89648692/20250420/i1745137468_770_5.jpg","https://xcimg.szwego.com/img/89648692/20250420/i1745137468_4846_7.jpg","https://xcimg.szwego.com/img/89648692/20250420/i1745137468_5345_0.jpg","https://xcimg.szwego.com/img/89648692/20250420/i1745137468_2177_4.jpg","https://xcimg.szwego.com/img/89648692/20250420/i1745137468_7791_3.jpg","https://xcimg.szwego.com/img/89648692/20250420/i1745137468_4973_2.jpg","https://xcimg.szwego.com/img/89648692/20250420/i1745137468_784_1.jpg","https://xcimg.szwego.com/img/89648692/20250420/i1745137482_6136_0.jpg","https://xcimg.szwego.com/img/89648692/20250420/i1745137468_7052_6.jpg"],"created_at":"2026-05-20T03:19:23.908Z"},{"id":"item-eeca5b25c69b","sku":"_dtAtAvTj6lzSuB--c3LoZLLaicmWlQJfPeo4TJg","name_en":"Counterfeit quality, original factory leather, Model: 826761 Brown, Dimensions: 21.5W x 14H x 9D cm, In Stock🎉🎉🎉","name_cn":"Counterfeit quality, original factory leather, Model: 826761 Brown, Dimensions: 21.5W x 14H x 9D cm, In Stock🎉🎉🎉","specs":{"source":"wsxcme","sourceId":"_dtAtAvTj6lzSuB--c3LoZLLaicmWlQJfPeo4TJg","sourceTagId":47002679,"sourceTagName":"Gucci/women's bag","modelNumber":"826761brown","rawTitle":"Counterfeit quality, original factory leather, Model: 826761 Brown, Dimensions: 21.5W x 14H x 9D cm, In Stock🎉🎉🎉"},"price":null,"currency":"CNY","moq":1,"category":"gucci-women-bags","status":"active","alibaba_url":null,"images":["https://xcimg.szwego.com/img/89648692/20250420/i1745137418_9836_2.jpg","https://xcimg.szwego.com/img/89648692/20250420/i1745137418_725_5.jpg","https://xcimg.szwego.com/img/89648692/20250420/i1745137418_4200_4.jpg","https://xcimg.szwego.com/img/89648692/20250420/i1745137418_3260_3.jpg","https://xcimg.szwego.com/img/89648692/20250420/i1745137418_2413_6.jpg","https://xcimg.szwego.com/img/89648692/20250420/i1745137418_5598_0.jpg","https://xcimg.szwego.com/img/89648692/20250420/i1745137418_5559_8.jpg","https://xcimg.szwego.com/img/89648692/20250420/i1745137418_4034_7.jpg","https://xcimg.szwego.com/img/89648692/20250420/i1745137418_3477_1.jpg"],"created_at":"2026-05-20T03:19:23.898Z"},{"id":"item-9eb26e1bc581","sku":"_dnLnLjwrfRqyWYwh7BxMsbI_wGOz_ecq4peUCLg","name_en":"Counterfeit quality, original factory leather, real photos. Model: 443497 Silver. Dimensions: W26xH15xS7. In stock!","name_cn":"Counterfeit quality, original factory leather, real photos. Model: 443497 Silver. Dimensions: W26xH15xS7. In stock!","specs":{"source":"wsxcme","sourceId":"_dnLnLjwrfRqyWYwh7BxMsbI_wGOz_ecq4peUCLg","sourceTagId":47002679,"sourceTagName":"Gucci/women's bag","modelNumber":"443497","rawTitle":"Counterfeit quality, original factory leather, real photos. Model: 443497 Silver. Dimensions: W26xH15xS7. In stock!"},"price":null,"currency":"CNY","moq":1,"category":"gucci-women-bags","status":"active","alibaba_url":null,"images":["https://xcimg.szwego.com/img/031016d9/20241123/i1732364819_303_3.jpg","https://xcimg.szwego.com/img/031016d9/20241123/i1732364828_8666_0.jpg","https://xcimg.szwego.com/img/031016d9/20241123/i1732364819_9190_4.jpg","https://xcimg.szwego.com/img/031016d9/20241123/i1732364819_2811_2.jpg","https://xcimg.szwego.com/img/031016d9/20241123/i1732364819_9509_8.jpg","https://xcimg.szwego.com/img/031016d9/20241123/i1732364819_8751_6.jpg","https://xcimg.szwego.com/img/031016d9/20241123/i1732364819_3142_1.jpg","https://xcimg.szwego.com/img/031016d9/20241123/i1732364819_7898_0.jpg","https://xcimg.szwego.com/img/031016d9/20241123/i1732364828_8760_0.jpg"],"created_at":"2025-02-08T13:12:44.305Z"},{"id":"item-512aa6821baf","sku":"_djgjgENt5c7KLAjr6MFWT-8lqy2B-nb9IDb4rZw","name_en":"Counterfeit quality, original factory leather. Model: 476433 Silver. Dimensions: W16.5xH10.2xD5.1cm. In stock! 💥💥💥","name_cn":"Counterfeit quality, original factory leather. Model: 476433 Silver. Dimensions: W16.5xH10.2xD5.1cm. In stock! 💥💥💥","specs":{"source":"wsxcme","sourceId":"_djgjgENt5c7KLAjr6MFWT-8lqy2B-nb9IDb4rZw","sourceTagId":47002679,"sourceTagName":"Gucci/women's bag","modelNumber":"476433","rawTitle":"Counterfeit quality, original factory leather. Model: 476433 Silver. Dimensions: W16.5xH10.2xD5.1cm. In stock! 💥💥💥"},"price":null,"currency":"CNY","moq":1,"category":"gucci-women-bags","status":"active","alibaba_url":null,"images":["https://xcimg.szwego.com/img/031016d9/20241123/i1732364854_5596_0.jpg","https://xcimg.szwego.com/img/031016d9/20241123/i1732364854_3114_8.jpg","https://xcimg.szwego.com/img/031016d9/20241123/i1732364854_9718_6.jpg","https://xcimg.szwego.com/img/031016d9/20241123/i1732364854_3590_1.jpg","https://xcimg.szwego.com/img/031016d9/20241123/i1732364854_6448_2.jpg","https://xcimg.szwego.com/img/031016d9/20241123/i1732364854_1101_4.jpg","https://xcimg.szwego.com/img/031016d9/20241123/i1732364854_4524_3.jpg","https://xcimg.szwego.com/img/031016d9/20241123/i1732364854_5019_7.jpg","https://xcimg.szwego.com/img/031016d9/20241123/i1732364854_7051_5.jpg"],"created_at":"2025-02-08T13:12:36.312Z"},{"id":"item-0bf94a08dcbd","sku":"_doUoUsyVcDZwjmPhnnD5KzNCxquRhsLnSwHHMHw","name_en":"Counterfeit quality, top-tier replica, real photos! 768243 Coffee/Neon Green, Size: 11x9, Shipped! 💰","name_cn":"Counterfeit quality, top-tier replica, real photos! 768243 Coffee/Neon Green, Size: 11x9, Shipped! 💰","specs":{"source":"wsxcme","sourceId":"_doUoUsyVcDZwjmPhnnD5KzNCxquRhsLnSwHHMHw","sourceTagId":47002663,"sourceTagName":"length","rawTitle":"Counterfeit quality, top-tier replica, real photos! 768243 Coffee/Neon Green, Size: 11x9, Shipped! 💰"},"price":null,"currency":"CNY","moq":1,"category":"women-wallets","status":"active","alibaba_url":null,"images":["https://xcimg.szwego.com/img/102e1c0f/20250517/i1747466181041_2944_0_0.jpg","https://xcimg.szwego.com/img/102e1c0f/20250517/i1747466181074_3374_0_1.jpg","https://xcimg.szwego.com/img/102e1c0f/20250517/i1747466181089_4667_0_2.jpg","https://xcimg.szwego.com/img/102e1c0f/20250517/i1747466181083_9543_0_3.jpg"],"created_at":"2025-08-03T05:43:10.099Z"},{"id":"item-86a4a900942d","sku":"_dgqgqoup0MetnS-IPvwZGPzb7akiqoG0_IYP2Zw","name_en":"Counterfeit quality, top-tier replica, real photos! 768243 Coffee/Neon Orange, Size: 11x9, Shipped! 💰","name_cn":"Counterfeit quality, top-tier replica, real photos! 768243 Coffee/Neon Orange, Size: 11x9, Shipped! 💰","specs":{"source":"wsxcme","sourceId":"_dgqgqoup0MetnS-IPvwZGPzb7akiqoG0_IYP2Zw","sourceTagId":47002663,"sourceTagName":"length","rawTitle":"Counterfeit quality, top-tier replica, real photos! 768243 Coffee/Neon Orange, Size: 11x9, Shipped! 💰"},"price":null,"currency":"CNY","moq":1,"category":"women-wallets","status":"active","alibaba_url":null,"images":["https://xcimg.szwego.com/img/102e1c0f/20250517/i1747466218951_8251_0_0.jpg","https://xcimg.szwego.com/img/102e1c0f/20250517/i1747466218961_8103_0_1.jpg","https://xcimg.szwego.com/img/102e1c0f/20250517/i1747466218882_6720_0_2.jpg","https://xcimg.szwego.com/img/102e1c0f/20250517/i1747466218905_4552_0_3.jpg"],"created_at":"2025-08-03T05:43:10.100Z"},{"id":"item-a7c119a8f90e","sku":"_dvYvYKg9aAyrKxjhSIiQXUC2uCdJ67AuntQ4QfQ","name_en":"Counterfeit quality, top-tier replica, real photos! 768243 Coffee/Neon Rose, Size: 11x9, Shipped! 💰","name_cn":"Counterfeit quality, top-tier replica, real photos! 768243 Coffee/Neon Rose, Size: 11x9, Shipped! 💰","specs":{"source":"wsxcme","sourceId":"_dvYvYKg9aAyrKxjhSIiQXUC2uCdJ67AuntQ4QfQ","sourceTagId":47002663,"sourceTagName":"length","rawTitle":"Counterfeit quality, top-tier replica, real photos! 768243 Coffee/Neon Rose, Size: 11x9, Shipped! 💰"},"price":null,"currency":"CNY","moq":1,"category":"women-wallets","status":"active","alibaba_url":null,"images":["https://xcimg.szwego.com/img/102e1c0f/20250517/i1747466235167_3968_0_0.jpg","https://xcimg.szwego.com/img/102e1c0f/20250517/i1747466235112_2398_0_1.jpg","https://xcimg.szwego.com/img/102e1c0f/20250517/i1747466234851_8189_0_2.jpg","https://xcimg.szwego.com/img/102e1c0f/20250517/i1747466235146_2222_0_3.jpg"],"created_at":"2025-08-03T05:43:10.101Z"},{"id":"item-3835d7e1946b","sku":"_ddtdt6BHbqpgRnY703auky7J9VRnItSyMMk1juw","name_en":"Counterfeit quality, top-tier replica, real photos! 768248 Coffee/Neon Green~Size: 11x7, Shipped! 💰","name_cn":"Counterfeit quality, top-tier replica, real photos! 768248 Coffee/Neon Green~Size: 11x7, Shipped! 💰","specs":{"source":"wsxcme","sourceId":"_ddtdt6BHbqpgRnY703auky7J9VRnItSyMMk1juw","sourceTagId":47002663,"sourceTagName":"length","rawTitle":"Counterfeit quality, top-tier replica, real photos! 768248 Coffee/Neon Green~Size: 11x7, Shipped! 💰"},"price":null,"currency":"CNY","moq":1,"category":"women-wallets","status":"active","alibaba_url":null,"images":["https://xcimg.szwego.com/img/102e1c0f/20250517/i1747466354524_385_0_0.jpg","https://xcimg.szwego.com/img/102e1c0f/20250517/i1747466354530_2107_0_1.jpg","https://xcimg.szwego.com/img/102e1c0f/20250517/i1747466354567_2684_0_2.jpg","https://xcimg.szwego.com/img/102e1c0f/20250517/i1747466354531_8529_0_3.jpg"],"created_at":"2025-08-03T05:43:10.102Z"},{"id":"item-647e45c661a0","sku":"_dCFCFxxh63pZmI3SLOcdBdZFwKHhVmGudSzhkgQ","name_en":"Counterfeit quality, top-tier replica, real photos! 768248 Coffee/Neon Orange~Size: 11x7, Shipped! 💰","name_cn":"Counterfeit quality, top-tier replica, real photos! 768248 Coffee/Neon Orange~Size: 11x7, Shipped! 💰","specs":{"source":"wsxcme","sourceId":"_dCFCFxxh63pZmI3SLOcdBdZFwKHhVmGudSzhkgQ","sourceTagId":47002663,"sourceTagName":"length","rawTitle":"Counterfeit quality, top-tier replica, real photos! 768248 Coffee/Neon Orange~Size: 11x7, Shipped! 💰"},"price":null,"currency":"CNY","moq":1,"category":"women-wallets","status":"active","alibaba_url":null,"images":["https://xcimg.szwego.com/img/102e1c0f/20250517/i1747466398308_2347_0_0.jpg","https://xcimg.szwego.com/img/102e1c0f/20250517/i1747466398301_6523_0_1.jpg","https://xcimg.szwego.com/img/102e1c0f/20250517/i1747466398278_9800_0_2.jpg","https://xcimg.szwego.com/img/102e1c0f/20250517/i1747466398308_1118_0_3.jpg"],"created_at":"2025-08-03T05:43:10.103Z"},{"id":"item-f1994fabd321","sku":"_dp-p-FBbLZq2lxfSVhl7Q47LdsyQUrmmPkZCLug","name_en":"Counterfeit quality, top-tier replica, real photos! 768249 Coffee/Fluorescent Green~Size: 7.5W x 12H, shipping! 💰","name_cn":"Counterfeit quality, top-tier replica, real photos! 768249 Coffee/Fluorescent Green~Size: 7.5W x 12H, shipping! 💰","specs":{"source":"wsxcme","sourceId":"_dp-p-FBbLZq2lxfSVhl7Q47LdsyQUrmmPkZCLug","sourceTagId":47002663,"sourceTagName":"length","rawTitle":"Counterfeit quality, top-tier replica, real photos! 768249 Coffee/Fluorescent Green~Size: 7.5W x 12H, shipping! 💰"},"price":null,"currency":"CNY","moq":1,"category":"women-wallets","status":"active","alibaba_url":null,"images":["https://xcimg.szwego.com/img/102e1c0f/20250517/i1747465881265_1178_0_0.jpg","https://xcimg.szwego.com/img/102e1c0f/20250517/i1747465881284_922_0_1.jpg","https://xcimg.szwego.com/img/102e1c0f/20250517/i1747465881284_6681_0_2.jpg","https://xcimg.szwego.com/img/102e1c0f/20250517/i1747465880993_4419_0_3.jpg"],"created_at":"2025-08-03T05:43:10.096Z"},{"id":"item-b1079e22e5e4","sku":"_deeeexuek2jmEauNwALemrvEpakHVo6wojbqSOw","name_en":"Counterfeit quality, top-tier replica, real photos! 768249 Coffee/Fluorescent Orange~Size: 7.5W x 12H, shipping! 💰","name_cn":"Counterfeit quality, top-tier replica, real photos! 768249 Coffee/Fluorescent Orange~Size: 7.5W x 12H, shipping! 💰","specs":{"source":"wsxcme","sourceId":"_deeeexuek2jmEauNwALemrvEpakHVo6wojbqSOw","sourceTagId":47002663,"sourceTagName":"length","rawTitle":"Counterfeit quality, top-tier replica, real photos! 768249 Coffee/Fluorescent Orange~Size: 7.5W x 12H, shipping! 💰"},"price":null,"currency":"CNY","moq":1,"category":"women-wallets","status":"active","alibaba_url":null,"images":["https://xcimg.szwego.com/img/102e1c0f/20250517/i1747466032633_1083_0_0.jpg","https://xcimg.szwego.com/img/102e1c0f/20250517/i1747466032642_7893_0_1.jpg","https://xcimg.szwego.com/img/102e1c0f/20250517/i1747466032640_3849_0_2.jpg","https://xcimg.szwego.com/img/102e1c0f/20250517/i1747465803251_2158_0_9.jpg"],"created_at":"2025-08-03T05:43:10.097Z"},{"id":"item-89ad31e4a9d7","sku":"_dvEvERokKi4ctpfpvyABUdRHX2ea9quZNCbbKBg","name_en":"Counterfeit quality, top-tier replica, real photos! 768249 Coffee/Fluorescent Rose~Size: 7.5W x 12H, shipping! 💰","name_cn":"Counterfeit quality, top-tier replica, real photos! 768249 Coffee/Fluorescent Rose~Size: 7.5W x 12H, shipping! 💰","specs":{"source":"wsxcme","sourceId":"_dvEvERokKi4ctpfpvyABUdRHX2ea9quZNCbbKBg","sourceTagId":47002663,"sourceTagName":"length","rawTitle":"Counterfeit quality, top-tier replica, real photos! 768249 Coffee/Fluorescent Rose~Size: 7.5W x 12H, shipping! 💰"},"price":null,"currency":"CNY","moq":1,"category":"women-wallets","status":"active","alibaba_url":null,"images":["https://xcimg.szwego.com/img/102e1c0f/20250517/i1747466117614_128_0_0.jpg","https://xcimg.szwego.com/img/102e1c0f/20250517/i1747466117704_4533_0_1.jpg","https://xcimg.szwego.com/img/102e1c0f/20250517/i1747466117664_7527_0_2.jpg","https://xcimg.szwego.com/img/102e1c0f/20250517/i1747466117615_6170_0_3.jpg"],"created_at":"2025-08-03T05:43:10.098Z"}],"page":210,"pageSize":24,"total":9921,"totalPages":414}
