{"items":[{"id":"item-03495a3ea4d3","sku":"_dFqFqiNuZyPKJM_w-tV75ASd5B_FS7m0Co8_e-Q","name_en":"Goyard Women Bags","name_cn":"170周年限定色——奶茶兰\n Goyard poitires||| \n限量发售 可️斜挎哦 自带肩带\nPoitiers 伯爵包二代 增加了一条斜挎的肩带、\n材质:棉麻帆布 涂层& 小牛皮\n尺寸size:24 cm x 1 cm x 21 cm \n🔎020187","specs":{"source":"wsxcme","sourceId":"_dFqFqiNuZyPKJM_w-tV75ASd5B_FS7m0Co8_e-Q","sourceTagId":47003160,"sourceTagName":"戈雅/女包","rawTitle":"170周年限定色——奶茶兰\n Goyard poitires||| \n限量发售 可️斜挎哦 自带肩带\nPoitiers 伯爵包二代 增加了一条斜挎的肩带、\n材质:棉麻帆布 涂层& 小牛皮\n尺寸size:24 cm x 1 cm x 21 cm \n🔎020187"},"price":null,"currency":"CNY","moq":1,"category":"goyard-women-bags","status":"active","alibaba_url":null,"images":["https://xcimg.szwego.com/20230926/i1695714851_3742_0.jpg","https://xcimg.szwego.com/20230926/i1695714851_606_5.jpg","https://xcimg.szwego.com/20230926/i1695714851_4110_6.jpg","https://xcimg.szwego.com/20230926/i1695714851_357_4.jpg","https://xcimg.szwego.com/20230926/i1695714851_8810_7.jpg","https://xcimg.szwego.com/20230926/i1695714851_3188_8.jpg","https://xcimg.szwego.com/20230926/i1695714851_7927_3.jpg","https://xcimg.szwego.com/20230926/i1695714851_4287_2.jpg","https://xcimg.szwego.com/20230926/i1695714851_6907_1.jpg"],"created_at":"2025-09-04T13:01:27.247Z"},{"id":"item-03264d077001","sku":"_d-E-EIivUraTaPkTrOBziNc2bapz4cWIiJD1-yQ","name_en":"Goyard Women Bags","name_cn":"戈雅\ngoyard jet black限定系列 Saint Louis 大号包采用 Goyardine 全新调色太空黑帆布制成,无衬里,柔软而轻盈,可双面使用,正面为 Goyardine 帆布材质,另一面为棉麻针织材质。两个皮革提手从细变粗,支持多种背法。它带有一个可拆卸内袋,挂在包的一个提手上,方便快速取用。\n\n34 cm x 20 cm x 40 cm\n\n🔎020146L-太空黑","specs":{"source":"wsxcme","sourceId":"_d-E-EIivUraTaPkTrOBziNc2bapz4cWIiJD1-yQ","sourceTagId":47003160,"sourceTagName":"戈雅/女包","rawTitle":"戈雅\ngoyard jet black限定系列 Saint Louis 大号包采用 Goyardine 全新调色太空黑帆布制成,无衬里,柔软而轻盈,可双面使用,正面为 Goyardine 帆布材质,另一面为棉麻针织材质。两个皮革提手从细变粗,支持多种背法。它带有一个可拆卸内袋,挂在包的一个提手上,方便快速取用。\n\n34 cm x 20 cm x 40 cm\n\n🔎020146L-太空黑"},"price":null,"currency":"CNY","moq":1,"category":"goyard-women-bags","status":"active","alibaba_url":null,"images":["https://xcimg.szwego.com/img/8eb27a4c/20250305/a1741166013527_1004.jpg","https://xcimg.szwego.com/img/8eb27a4c/20250305/a1741166013503_2201.jpg","https://xcimg.szwego.com/img/8eb27a4c/20250305/a1741166018740_6513.jpg","https://xcimg.szwego.com/img/8eb27a4c/20250305/a1741166013535_0324.jpg","https://xcimg.szwego.com/img/8eb27a4c/20250305/a1741166013522_5102.jpg","https://xcimg.szwego.com/img/8eb27a4c/20250305/a1741166013516_7354.jpg","https://xcimg.szwego.com/img/8eb27a4c/20250305/a1741166018788_6187.jpg","https://xcimg.szwego.com/img/8eb27a4c/20250305/a1741166014815_8557.jpg","https://xcimg.szwego.com/img/8eb27a4c/20250305/a1741166014817_2553.jpg"],"created_at":"2025-03-28T13:52:34.511Z"},{"id":"item-006ba89b79d5","sku":"_djXjXg0wpYhHHhHRPZE3XVbKu-sLoONRMPpE-lA","name_en":"Goyard Women Bags","name_cn":"升级出新🔔配送包饰包夹🎀➕礼品盒🎁➕升级版说明书💌\n❤️Goyard(戈雅)经多次研究与改良,不断提升面料与皮质,全方位独家定制TM️只为不断达到客户的高品质要求🔝🔝\n底布采用与ZP一致的定制高品雨露麻〽️,再涂上光面的树胶醛醣 [机智]颗粒质感与ZP相媲美,达到一种似光又亚的感觉🤟皮质为头层小牛皮👛🤘柔韧不剌手💪🤓对版对称花纹、颜色纯正无色差😘细节看图片[抱拳][抱拳]\n尺寸Size:袋口28cm、底20*高20*底宽10cm\n🔎020660","specs":{"source":"wsxcme","sourceId":"_djXjXg0wpYhHHhHRPZE3XVbKu-sLoONRMPpE-lA","sourceTagId":47003160,"sourceTagName":"戈雅/女包","rawTitle":"升级出新🔔配送包饰包夹🎀➕礼品盒🎁➕升级版说明书💌\n❤️Goyard(戈雅)经多次研究与改良,不断提升面料与皮质,全方位独家定制TM️只为不断达到客户的高品质要求🔝🔝\n底布采用与ZP一致的定制高品雨露麻〽️,再涂上光面的树胶醛醣 [机智]颗粒质感与ZP相媲美,达到一种似光又亚的感觉🤟皮质为头层小牛皮👛🤘柔韧不剌手💪🤓对版对称花纹、颜色纯正无色差😘细节看图片[抱拳][抱拳]\n尺寸Size:袋口28cm、底20*高20*底宽10cm\n🔎020660"},"price":null,"currency":"CNY","moq":1,"category":"goyard-women-bags","status":"active","alibaba_url":null,"images":["https://xcimg.szwego.com/img/b9b112cf/20240824/i1724502786_1186_6.jpg","https://xcimg.szwego.com/img/b9b112cf/20240824/i1724502787_7417_8.jpg","https://xcimg.szwego.com/img/b9b112cf/20240824/i1724502786_7602_2.jpg","https://xcimg.szwego.com/img/b9b112cf/20240824/i1724502786_512_5.jpg","https://xcimg.szwego.com/img/b9b112cf/20240824/i1724502786_8760_4.jpg","https://xcimg.szwego.com/img/b9b112cf/20240824/i1724502786_186_3.jpg","https://xcimg.szwego.com/img/b9b112cf/20240824/i1724502895_5194_0.jpg","https://xcimg.szwego.com/img/b9b112cf/20240824/i1724502896_1967_1.jpg","https://xcimg.szwego.com/img/b9b112cf/20240824/i1724502896_5793_2.jpg"],"created_at":"2025-09-04T13:19:15.951Z"},{"id":"item-881b600b6488","sku":"_d_x_xuKLjr6Wv8y7oOOIOGDtJT_yS0pLK24sF-g","name_en":"Goyard(戈雅)经多次研究与改良,不断提升面料与皮质,全方位独家定制TM️只为不断达到客户的高品质要求🔝🔝","name_cn":"Goyard(戈雅)经多次研究与改良,不断提升面料与皮质,全方位独家定制TM️只为不断达到客户的高品质要求🔝🔝\n底布采用与ZP一致的定制高品雨露麻〽️,再涂上光面的树胶醛醣 [机智]颗粒质感与ZP相媲美,达到一种似光又亚的感觉🤟皮质为【头层南非摔纹皮】👛🤘柔韧不剌手💪改用对版纯钢五金🤓对版对称花纹、颜色纯正无色差😘细节看图片[抱拳][抱拳]\n双面尺寸:袋口28cm、底20*高20*底宽10cm\n🔎020660","specs":{"source":"wsxcme","sourceId":"_d_x_xuKLjr6Wv8y7oOOIOGDtJT_yS0pLK24sF-g","sourceTagId":47003160,"sourceTagName":"戈雅/女包","rawTitle":"Goyard(戈雅)经多次研究与改良,不断提升面料与皮质,全方位独家定制TM️只为不断达到客户的高品质要求🔝🔝\n底布采用与ZP一致的定制高品雨露麻〽️,再涂上光面的树胶醛醣 [机智]颗粒质感与ZP相媲美,达到一种似光又亚的感觉🤟皮质为【头层南非摔纹皮】👛🤘柔韧不剌手💪改用对版纯钢五金🤓对版对称花纹、颜色纯正无色差😘细节看图片[抱拳][抱拳]\n双面尺寸:袋口28cm、底20*高20*底宽10cm\n🔎020660"},"price":null,"currency":"CNY","moq":1,"category":"goyard-women-bags","status":"active","alibaba_url":null,"images":["https://xcimg.szwego.com/20221026/i1666718155_7280_0.jpg","https://xcimg.szwego.com/20221026/i1666718155_6108_1.jpg","https://xcimg.szwego.com/20221026/i1666718155_344_2.jpg","https://xcimg.szwego.com/20221026/i1666718155_3506_3.jpg","https://xcimg.szwego.com/20221026/i1666718155_782_4.jpg","https://xcimg.szwego.com/20221026/i1666718155_6756_5.jpg","https://xcimg.szwego.com/20221026/i1666718155_96_6.jpg","https://xcimg.szwego.com/20221026/i1666718155_4059_7.jpg","https://xcimg.szwego.com/20221026/i1666718155_7572_8.jpg"],"created_at":"2025-09-04T13:19:15.938Z"},{"id":"item-4e619706bbbd","sku":"_dN_N_XfuvR6QOgQwBG483tlEkJj8pwOL97jgdFA","name_en":"Graden party 黑白粗布配黑","name_cn":"Graden party 黑白粗布配黑\n休闲风格系列 也是H家很著名的入门款 设计比较低调 采用tc皮拼帆布材质 性价比很高 容量杠杠滴 size:30cm 36cm","specs":{"source":"wsxcme","sourceId":"_dN_N_XfuvR6QOgQwBG483tlEkJj8pwOL97jgdFA","sourceTagId":76963559,"sourceTagName":"爱马仕/女包","rawTitle":"Graden party 黑白粗布配黑\n休闲风格系列 也是H家很著名的入门款 设计比较低调 采用tc皮拼帆布材质 性价比很高 容量杠杠滴 size:30cm 36cm"},"price":null,"currency":"CNY","moq":1,"category":"hermes-women-bags","status":"active","alibaba_url":null,"images":["https://xcimg.szwego.com/20211115/i1636985635_5108_0.jpg","https://xcimg.szwego.com/20211115/i1636985635_4954_4.jpg","https://xcimg.szwego.com/20211115/i1636985635_5557_1.jpg","https://xcimg.szwego.com/20211115/i1636985635_3916_2.jpg","https://xcimg.szwego.com/20211115/i1636985635_7172_3.jpg","https://xcimg.szwego.com/20211115/i1636985635_5246_5.jpg","https://xcimg.szwego.com/20211115/i1636985635_1620_6.jpg","https://xcimg.szwego.com/20211115/i1636985635_9216_8.jpg","https://xcimg.szwego.com/20211115/i1636985635_3229_7.jpg"],"created_at":"2024-10-22T05:00:12.144Z"},{"id":"item-c0f3d14cf2df","sku":"_dxoxopbhjzB1DzRel0KI9jS_-w2bWNg6gH4BPkg","name_en":"Graden party 休闲风格系列 也是H家很著名的入门款 设计比较低调 采用tc皮拼帆布材质 性价比很高 容量杠杠滴 size:30/36cm","name_cn":"Graden party 休闲风格系列 也是H家很著名的入门款 设计比较低调 采用tc皮拼帆布材质 性价比很高 容量杠杠滴 size:30/36cm","specs":{"source":"wsxcme","sourceId":"_dxoxopbhjzB1DzRel0KI9jS_-w2bWNg6gH4BPkg","sourceTagId":76963559,"sourceTagName":"爱马仕/女包","rawTitle":"Graden party 休闲风格系列 也是H家很著名的入门款 设计比较低调 采用tc皮拼帆布材质 性价比很高 容量杠杠滴 size:30/36cm"},"price":null,"currency":"CNY","moq":1,"category":"hermes-women-bags","status":"active","alibaba_url":null,"images":["https://xcimg.szwego.com/20221119/a1668828873673_6130.jpg","https://xcimg.szwego.com/20221119/a1668828873838_1471.jpg","https://xcimg.szwego.com/20221119/a1668828873952_2446.jpg","https://xcimg.szwego.com/20221119/a1668828874051_4821.jpg","https://xcimg.szwego.com/20221119/a1668828874167_4762.jpg","https://xcimg.szwego.com/20221119/a1668828874316_4602.jpg","https://xcimg.szwego.com/20221119/a1668828874429_8334.jpg"],"created_at":"2024-10-22T05:00:12.140Z"},{"id":"item-7675adf2baa1","sku":"_dhehehwZt9ox5gOyEyfh79Tw2ZwnQiTAPVJ5SBQ","name_en":"Graden party 休闲风格系列 也是H家很著名的入门款 设计比较低调 采用tc皮拼帆布材质 性价比很高 容量杠杠滴 size:30/36cm","name_cn":"Graden party 休闲风格系列 也是H家很著名的入门款 设计比较低调 采用tc皮拼帆布材质 性价比很高 容量杠杠滴 size:30/36cm","specs":{"source":"wsxcme","sourceId":"_dhehehwZt9ox5gOyEyfh79Tw2ZwnQiTAPVJ5SBQ","sourceTagId":76963559,"sourceTagName":"爱马仕/女包","rawTitle":"Graden party 休闲风格系列 也是H家很著名的入门款 设计比较低调 采用tc皮拼帆布材质 性价比很高 容量杠杠滴 size:30/36cm"},"price":null,"currency":"CNY","moq":1,"category":"hermes-women-bags","status":"active","alibaba_url":null,"images":["https://xcimg.szwego.com/20221119/a1668828903139_4478.jpg","https://xcimg.szwego.com/20221119/a1668828903336_6424.jpg","https://xcimg.szwego.com/20221119/a1668828903467_3143.jpg","https://xcimg.szwego.com/20221119/a1668828903550_6822.jpg","https://xcimg.szwego.com/20221119/a1668828903682_3517.jpg","https://xcimg.szwego.com/20221119/a1668828903781_7241.jpg","https://xcimg.szwego.com/20221119/a1668828903929_0726.jpg"],"created_at":"2024-10-22T05:00:12.142Z"},{"id":"item-f8537286151a","sku":"_d8y8y1nigh5yY9He8_JQXzUbacx-pZ9ogjDPzVg","name_en":"Graden party 休闲风格系列 也是H家很著名的入门款 设计比较低调 采用tc皮拼帆布材质 性价比很高 容量杠杠滴 size:30cm","name_cn":"Graden party 休闲风格系列 也是H家很著名的入门款 设计比较低调 采用tc皮拼帆布材质 性价比很高 容量杠杠滴 size:30cm","specs":{"source":"wsxcme","sourceId":"_d8y8y1nigh5yY9He8_JQXzUbacx-pZ9ogjDPzVg","sourceTagId":76963559,"sourceTagName":"爱马仕/女包","rawTitle":"Graden party 休闲风格系列 也是H家很著名的入门款 设计比较低调 采用tc皮拼帆布材质 性价比很高 容量杠杠滴 size:30cm"},"price":null,"currency":"CNY","moq":1,"category":"hermes-women-bags","status":"active","alibaba_url":null,"images":["https://xcimg.szwego.com/20221119/a1668828621471_6078.jpg","https://xcimg.szwego.com/20221119/a1668828621752_1354.jpg","https://xcimg.szwego.com/20221119/a1668828621868_5007.jpg","https://xcimg.szwego.com/20221119/a1668828621982_5728.jpg","https://xcimg.szwego.com/20221119/a1668828622066_7503.jpg","https://xcimg.szwego.com/20221119/a1668828622212_1864.jpg","https://xcimg.szwego.com/20221119/a1668828622297_1735.jpg","https://xcimg.szwego.com/20221119/a1668828622442_1300.jpg","https://xcimg.szwego.com/20221119/a1668828622607_1871.jpg"],"created_at":"2024-10-22T05:00:12.131Z"},{"id":"item-b866211fe376","sku":"_djrjrlKaHNd0xfY2GkBNrbOL1EkwsJbSS6nnh7g","name_en":"Graden party 休闲风格系列 也是H家很著名的入门款 设计比较低调 采用tc皮拼帆布材质 性价比很高 容量杠杠滴 size:30cm","name_cn":"Graden party 休闲风格系列 也是H家很著名的入门款 设计比较低调 采用tc皮拼帆布材质 性价比很高 容量杠杠滴 size:30cm","specs":{"source":"wsxcme","sourceId":"_djrjrlKaHNd0xfY2GkBNrbOL1EkwsJbSS6nnh7g","sourceTagId":76963559,"sourceTagName":"爱马仕/女包","rawTitle":"Graden party 休闲风格系列 也是H家很著名的入门款 设计比较低调 采用tc皮拼帆布材质 性价比很高 容量杠杠滴 size:30cm"},"price":null,"currency":"CNY","moq":1,"category":"hermes-women-bags","status":"active","alibaba_url":null,"images":["https://xcimg.szwego.com/20221003/a1664770596696_0068.jpg","https://xcimg.szwego.com/20221003/a1664770596867_2507.jpg","https://xcimg.szwego.com/20221003/a1664770597019_1211.jpg","https://xcimg.szwego.com/20221003/a1664770597129_2355.jpg","https://xcimg.szwego.com/20221003/a1664770597217_4643.jpg","https://xcimg.szwego.com/20221003/a1664770597313_0035.jpg","https://xcimg.szwego.com/20221003/a1664770597453_6758.jpg","https://xcimg.szwego.com/20221003/a1664770597512_8823.jpg","https://xcimg.szwego.com/20221003/a1664770597629_6710.jpg"],"created_at":"2024-10-22T05:00:12.145Z"},{"id":"item-b69d5365927a","sku":"_dl2l2pt5yVOgZNE9_7xFjbUgX8xFZJTWmvfyy6A","name_en":"Graden party 休闲风格系列 也是H家很著名的入门款 设计比较低调 采用tc皮拼帆布材质 性价比很高 容量杠杠滴 size:30cm","name_cn":"Graden party 休闲风格系列 也是H家很著名的入门款 设计比较低调 采用tc皮拼帆布材质 性价比很高 容量杠杠滴 size:30cm","specs":{"source":"wsxcme","sourceId":"_dl2l2pt5yVOgZNE9_7xFjbUgX8xFZJTWmvfyy6A","sourceTagId":76963559,"sourceTagName":"爱马仕/女包","rawTitle":"Graden party 休闲风格系列 也是H家很著名的入门款 设计比较低调 采用tc皮拼帆布材质 性价比很高 容量杠杠滴 size:30cm"},"price":null,"currency":"CNY","moq":1,"category":"hermes-women-bags","status":"active","alibaba_url":null,"images":["https://xcimg.szwego.com/20221119/a1668829089333_4427.jpg","https://xcimg.szwego.com/20221119/a1668829089530_2530.jpg","https://xcimg.szwego.com/20221119/a1668829089645_4087.jpg","https://xcimg.szwego.com/20221119/a1668829089744_4842.jpg","https://xcimg.szwego.com/20221119/a1668829089876_1021.jpg","https://xcimg.szwego.com/20221119/a1668829089991_8821.jpg","https://xcimg.szwego.com/20221119/a1668829090072_6520.jpg","https://xcimg.szwego.com/20221119/a1668829090123_2431.jpg","https://xcimg.szwego.com/20221119/a1668829090220_4541.jpg"],"created_at":"2024-10-22T05:00:12.143Z"},{"id":"item-a7b17da9a899","sku":"_dkfkfKs5Z4o96iIOV6FXfm8IjY-7U4al0Pdj4MQ","name_en":"Graden party 休闲风格系列 也是H家很著名的入门款 设计比较低调 采用tc皮拼帆布材质 性价比很高 容量杠杠滴 size:30cm","name_cn":"Graden party 休闲风格系列 也是H家很著名的入门款 设计比较低调 采用tc皮拼帆布材质 性价比很高 容量杠杠滴 size:30cm","specs":{"source":"wsxcme","sourceId":"_dkfkfKs5Z4o96iIOV6FXfm8IjY-7U4al0Pdj4MQ","sourceTagId":76963559,"sourceTagName":"爱马仕/女包","rawTitle":"Graden party 休闲风格系列 也是H家很著名的入门款 设计比较低调 采用tc皮拼帆布材质 性价比很高 容量杠杠滴 size:30cm"},"price":null,"currency":"CNY","moq":1,"category":"hermes-women-bags","status":"active","alibaba_url":null,"images":["https://xcimg.szwego.com/20221018/a1666072960145_6160.jpg","https://xcimg.szwego.com/20221018/a1666072960644_4265.jpg","https://xcimg.szwego.com/20221018/a1666072960758_0774.jpg","https://xcimg.szwego.com/20221018/a1666072960888_2588.jpg","https://xcimg.szwego.com/20221018/a1666072960986_0232.jpg","https://xcimg.szwego.com/20221018/a1666072961084_1381.jpg","https://xcimg.szwego.com/20221018/a1666072961216_2762.jpg","https://xcimg.szwego.com/20221018/a1666072961348_0828.jpg","https://xcimg.szwego.com/20221018/a1666072961463_2227.jpg"],"created_at":"2024-10-22T05:00:12.133Z"},{"id":"item-9961c5dba6f2","sku":"_d1y1ywIUFT-LQMQHWHwuDckBqlhnwsFbLlxRi8w","name_en":"Graden party 休闲风格系列 也是H家很著名的入门款 设计比较低调 采用tc皮拼帆布材质 性价比很高 容量杠杠滴 size:30cm","name_cn":"Graden party 休闲风格系列 也是H家很著名的入门款 设计比较低调 采用tc皮拼帆布材质 性价比很高 容量杠杠滴 size:30cm","specs":{"source":"wsxcme","sourceId":"_d1y1ywIUFT-LQMQHWHwuDckBqlhnwsFbLlxRi8w","sourceTagId":76963559,"sourceTagName":"爱马仕/女包","rawTitle":"Graden party 休闲风格系列 也是H家很著名的入门款 设计比较低调 采用tc皮拼帆布材质 性价比很高 容量杠杠滴 size:30cm"},"price":null,"currency":"CNY","moq":1,"category":"hermes-women-bags","status":"active","alibaba_url":null,"images":["https://xcimg.szwego.com/20220930/a1664504993480_6727.jpg","https://xcimg.szwego.com/20220930/a1664504993808_0378.jpg","https://xcimg.szwego.com/20220930/a1664504994066_7183.jpg","https://xcimg.szwego.com/20220930/a1664504994264_3587.jpg","https://xcimg.szwego.com/20220930/a1664504994437_0782.jpg","https://xcimg.szwego.com/20220930/a1664504994784_1751.jpg","https://xcimg.szwego.com/20220930/a1664504994978_5618.jpg","https://xcimg.szwego.com/20220930/a1664504995112_2243.jpg","https://xcimg.szwego.com/20220930/a1664504995243_1513.jpg"],"created_at":"2024-10-22T05:00:12.139Z"},{"id":"item-59806f12452f","sku":"_dhghgf9iatQeyPpRI_0jXKif3lE_9BdWh8pkFCA","name_en":"Graden party 休闲风格系列 也是H家很著名的入门款 设计比较低调 采用tc皮拼帆布材质 性价比很高 容量杠杠滴 size:30cm","name_cn":"Graden party 休闲风格系列 也是H家很著名的入门款 设计比较低调 采用tc皮拼帆布材质 性价比很高 容量杠杠滴 size:30cm","specs":{"source":"wsxcme","sourceId":"_dhghgf9iatQeyPpRI_0jXKif3lE_9BdWh8pkFCA","sourceTagId":76963559,"sourceTagName":"爱马仕/女包","rawTitle":"Graden party 休闲风格系列 也是H家很著名的入门款 设计比较低调 采用tc皮拼帆布材质 性价比很高 容量杠杠滴 size:30cm"},"price":null,"currency":"CNY","moq":1,"category":"hermes-women-bags","status":"active","alibaba_url":null,"images":["https://xcimg.szwego.com/20220930/a1664504098285_0453.jpg","https://xcimg.szwego.com/20220930/a1664504098483_5300.jpg","https://xcimg.szwego.com/20220930/a1664504098704_6020.jpg","https://xcimg.szwego.com/20220930/a1664504098866_3751.jpg","https://xcimg.szwego.com/20220930/a1664504099058_1804.jpg","https://xcimg.szwego.com/20220930/a1664504099180_4467.jpg","https://xcimg.szwego.com/20220930/a1664504099281_3884.jpg","https://xcimg.szwego.com/20220930/a1664504099423_3031.jpg","https://xcimg.szwego.com/20220930/a1664504099538_4124.jpg"],"created_at":"2024-10-22T05:00:12.138Z"},{"id":"item-3c95d2f68480","sku":"_dEmEmZvIzEue-xQSgtljAQ4_y7QEST_B_DqVttg","name_en":"Graden party 休闲风格系列 也是H家很著名的入门款 设计比较低调 采用tc皮拼帆布材质 性价比很高 容量杠杠滴 size:30cm","name_cn":"Graden party 休闲风格系列 也是H家很著名的入门款 设计比较低调 采用tc皮拼帆布材质 性价比很高 容量杠杠滴 size:30cm","specs":{"source":"wsxcme","sourceId":"_dEmEmZvIzEue-xQSgtljAQ4_y7QEST_B_DqVttg","sourceTagId":76963559,"sourceTagName":"爱马仕/女包","rawTitle":"Graden party 休闲风格系列 也是H家很著名的入门款 设计比较低调 采用tc皮拼帆布材质 性价比很高 容量杠杠滴 size:30cm"},"price":null,"currency":"CNY","moq":1,"category":"hermes-women-bags","status":"active","alibaba_url":null,"images":["https://xcimg.szwego.com/20221119/a1668828663895_4776.jpg","https://xcimg.szwego.com/20221119/a1668828664051_2583.jpg","https://xcimg.szwego.com/20221119/a1668828664143_1520.jpg","https://xcimg.szwego.com/20221119/a1668828664241_7023.jpg","https://xcimg.szwego.com/20221119/a1668828664374_2826.jpg","https://xcimg.szwego.com/20221119/a1668828664489_4554.jpg","https://xcimg.szwego.com/20221119/a1668828664612_0710.jpg","https://xcimg.szwego.com/20221119/a1668828664761_5681.jpg","https://xcimg.szwego.com/20221119/a1668828664883_1125.jpg"],"created_at":"2024-10-22T05:00:12.132Z"},{"id":"item-31755ad089fa","sku":"_dv-v-jF6AylDttS6IYCc824ebKvydBCwsTllvVA","name_en":"Graden party 休闲风格系列 也是H家很著名的入门款 设计比较低调 采用tc皮拼帆布材质 性价比很高 容量杠杠滴 size:30cm","name_cn":"Graden party 休闲风格系列 也是H家很著名的入门款 设计比较低调 采用tc皮拼帆布材质 性价比很高 容量杠杠滴 size:30cm","specs":{"source":"wsxcme","sourceId":"_dv-v-jF6AylDttS6IYCc824ebKvydBCwsTllvVA","sourceTagId":76963559,"sourceTagName":"爱马仕/女包","rawTitle":"Graden party 休闲风格系列 也是H家很著名的入门款 设计比较低调 采用tc皮拼帆布材质 性价比很高 容量杠杠滴 size:30cm"},"price":null,"currency":"CNY","moq":1,"category":"hermes-women-bags","status":"active","alibaba_url":null,"images":["https://xcimg.szwego.com/20220930/a1664505191075_7051.jpg","https://xcimg.szwego.com/20220930/a1664505191245_6347.jpg","https://xcimg.szwego.com/20220930/a1664505191393_0021.jpg","https://xcimg.szwego.com/20220930/a1664505191519_2056.jpg","https://xcimg.szwego.com/20220930/a1664505191696_0711.jpg","https://xcimg.szwego.com/20220930/a1664505191837_7260.jpg","https://xcimg.szwego.com/20220930/a1664505192052_7466.jpg","https://xcimg.szwego.com/20220930/a1664505192200_5383.jpg","https://xcimg.szwego.com/20220930/a1664505192300_7076.jpg"],"created_at":"2024-10-22T05:00:12.141Z"},{"id":"item-3153db2a8a3d","sku":"_dt4t4oCC-DBCYzq9MqXaLtNYOSTdYZX2fXPE1IQ","name_en":"Graden party 休闲风格系列 也是H家很著名的入门款 设计比较低调 采用tc皮拼帆布材质 性价比很高 容量杠杠滴 size:30cm","name_cn":"Graden party 休闲风格系列 也是H家很著名的入门款 设计比较低调 采用tc皮拼帆布材质 性价比很高 容量杠杠滴 size:30cm","specs":{"source":"wsxcme","sourceId":"_dt4t4oCC-DBCYzq9MqXaLtNYOSTdYZX2fXPE1IQ","sourceTagId":76963559,"sourceTagName":"爱马仕/女包","rawTitle":"Graden party 休闲风格系列 也是H家很著名的入门款 设计比较低调 采用tc皮拼帆布材质 性价比很高 容量杠杠滴 size:30cm"},"price":null,"currency":"CNY","moq":1,"category":"hermes-women-bags","status":"active","alibaba_url":null,"images":["https://xcimg.szwego.com/20220930/a1664504172353_2746.jpg","https://xcimg.szwego.com/20220930/a1664504172500_8482.jpg","https://xcimg.szwego.com/20220930/a1664504172662_1500.jpg","https://xcimg.szwego.com/20220930/a1664504172802_3411.jpg","https://xcimg.szwego.com/20220930/a1664504172942_3743.jpg","https://xcimg.szwego.com/20220930/a1664504173081_7101.jpg","https://xcimg.szwego.com/20220930/a1664504173175_7812.jpg","https://xcimg.szwego.com/20220930/a1664504173264_4865.jpg","https://xcimg.szwego.com/20220930/a1664504173403_8668.jpg"],"created_at":"2024-10-22T05:00:12.137Z"},{"id":"item-1cc87b9a1346","sku":"_ddjdja4Pk27e-wZ7Kv1cH0WdsUI-JZOGJCNOQ8Q","name_en":"Graden party 休闲风格系列 也是H家很著名的入门款 设计比较低调 采用tc皮拼帆布材质 性价比很高 容量杠杠滴 size:30cm","name_cn":"Graden party 休闲风格系列 也是H家很著名的入门款 设计比较低调 采用tc皮拼帆布材质 性价比很高 容量杠杠滴 size:30cm","specs":{"source":"wsxcme","sourceId":"_ddjdja4Pk27e-wZ7Kv1cH0WdsUI-JZOGJCNOQ8Q","sourceTagId":76963559,"sourceTagName":"爱马仕/女包","rawTitle":"Graden party 休闲风格系列 也是H家很著名的入门款 设计比较低调 采用tc皮拼帆布材质 性价比很高 容量杠杠滴 size:30cm"},"price":null,"currency":"CNY","moq":1,"category":"hermes-women-bags","status":"active","alibaba_url":null,"images":["https://xcimg.szwego.com/20221003/a1664770467970_8222.jpg","https://xcimg.szwego.com/20221003/a1664770468137_4054.jpg","https://xcimg.szwego.com/20221003/a1664770468334_1857.jpg","https://xcimg.szwego.com/20221003/a1664770468447_8512.jpg","https://xcimg.szwego.com/20221003/a1664770468576_4772.jpg","https://xcimg.szwego.com/20221003/a1664770468678_4367.jpg","https://xcimg.szwego.com/20221003/a1664770468819_1421.jpg","https://xcimg.szwego.com/20221003/a1664770468908_8481.jpg","https://xcimg.szwego.com/20221003/a1664770469039_3800.jpg"],"created_at":"2024-10-22T05:00:12.146Z"},{"id":"item-f2b6ce779d93","sku":"_dQcQc8ogPJQ4427O6XI-uFRUMcr3pM7J8AssA6Q","name_en":"Graden party 休闲风格系列 也是H家很著名的入门款 设计比较低调 采用tc皮拼帆布材质 性价比很高 容量杠杠滴 size:30cm 36cm","name_cn":"Graden party 休闲风格系列 也是H家很著名的入门款 设计比较低调 采用tc皮拼帆布材质 性价比很高 容量杠杠滴 size:30cm 36cm","specs":{"source":"wsxcme","sourceId":"_dQcQc8ogPJQ4427O6XI-uFRUMcr3pM7J8AssA6Q","sourceTagId":76963559,"sourceTagName":"爱马仕/女包","rawTitle":"Graden party 休闲风格系列 也是H家很著名的入门款 设计比较低调 采用tc皮拼帆布材质 性价比很高 容量杠杠滴 size:30cm 36cm"},"price":null,"currency":"CNY","moq":1,"category":"hermes-women-bags","status":"active","alibaba_url":null,"images":["https://xcimg.szwego.com/20221018/a1666073094269_6888.jpg","https://xcimg.szwego.com/20221018/a1666073094406_1166.jpg","https://xcimg.szwego.com/20221018/a1666073094493_0872.jpg","https://xcimg.szwego.com/20221018/a1666073094630_5827.jpg","https://xcimg.szwego.com/20221018/a1666073094741_6747.jpg","https://xcimg.szwego.com/20221018/a1666073094855_7347.jpg","https://xcimg.szwego.com/20221018/a1666073094953_0071.jpg","https://xcimg.szwego.com/20221018/a1666073095141_7377.jpg","https://xcimg.szwego.com/20221018/a1666073095253_3813.jpg"],"created_at":"2024-10-22T05:00:12.136Z"},{"id":"item-c6a0ff3bd596","sku":"_dxfxfcmR9k9vMduVLk70rQKNYGcdhaUuVZglXBw","name_en":"Graden party 休闲风格系列 也是H家很著名的入门款 设计比较低调 采用tc皮拼帆布材质 性价比很高 容量杠杠滴 size:30cm 36cm","name_cn":"Graden party 休闲风格系列 也是H家很著名的入门款 设计比较低调 采用tc皮拼帆布材质 性价比很高 容量杠杠滴 size:30cm 36cm","specs":{"source":"wsxcme","sourceId":"_dxfxfcmR9k9vMduVLk70rQKNYGcdhaUuVZglXBw","sourceTagId":76963559,"sourceTagName":"爱马仕/女包","rawTitle":"Graden party 休闲风格系列 也是H家很著名的入门款 设计比较低调 采用tc皮拼帆布材质 性价比很高 容量杠杠滴 size:30cm 36cm"},"price":null,"currency":"CNY","moq":1,"category":"hermes-women-bags","status":"active","alibaba_url":null,"images":["https://xcimg.szwego.com/20221001/a1664625341743_7572.jpg","https://xcimg.szwego.com/20221001/a1664625341914_1554.jpg","https://xcimg.szwego.com/20221001/a1664625342113_7076.jpg","https://xcimg.szwego.com/20221001/a1664625342257_4450.jpg","https://xcimg.szwego.com/20221001/a1664625342355_4504.jpg","https://xcimg.szwego.com/20221001/a1664625342461_5011.jpg","https://xcimg.szwego.com/20221001/a1664625342572_4451.jpg","https://xcimg.szwego.com/20221001/a1664625342680_6276.jpg","https://xcimg.szwego.com/20221001/a1664625342803_6400.jpg"],"created_at":"2024-10-22T05:00:12.135Z"},{"id":"item-b5bc4d8eec8f","sku":"_djJjJhgXLMKUsBn1M2SFhgARufjKOASY5iE-ZNQ","name_en":"Graden party 休闲风格系列 也是H家很著名的入门款 设计比较低调 采用tc皮拼帆布材质 性价比很高 容量杠杠滴 size:30cm 36cm","name_cn":"Graden party 休闲风格系列 也是H家很著名的入门款 设计比较低调 采用tc皮拼帆布材质 性价比很高 容量杠杠滴 size:30cm 36cm","specs":{"source":"wsxcme","sourceId":"_djJjJhgXLMKUsBn1M2SFhgARufjKOASY5iE-ZNQ","sourceTagId":76963559,"sourceTagName":"爱马仕/女包","rawTitle":"Graden party 休闲风格系列 也是H家很著名的入门款 设计比较低调 采用tc皮拼帆布材质 性价比很高 容量杠杠滴 size:30cm 36cm"},"price":null,"currency":"CNY","moq":1,"category":"hermes-women-bags","status":"active","alibaba_url":null,"images":["https://xcimg.szwego.com/20221018/a1666073017099_2120.jpg","https://xcimg.szwego.com/20221018/a1666073017310_4186.jpg","https://xcimg.szwego.com/20221018/a1666073017427_4861.jpg","https://xcimg.szwego.com/20221018/a1666073017526_0434.jpg","https://xcimg.szwego.com/20221018/a1666073017624_6560.jpg","https://xcimg.szwego.com/20221018/a1666073017723_0700.jpg","https://xcimg.szwego.com/20221018/a1666073017821_7455.jpg","https://xcimg.szwego.com/20221018/a1666073017944_0113.jpg","https://xcimg.szwego.com/20221018/a1666073018087_2584.jpg"],"created_at":"2024-10-22T05:00:12.134Z"},{"id":"item-752ad5954d9e","sku":"_dfgfgkq3fctaGGBGPBCE95W6KA5Lbc_TDTr21zw","name_en":"Gucc1 酒神包 Dionysus 网红明星的最爱 美不胜收的Gucc1 酒神包 足以让你大醉一场~型号:400249  尺寸:28*18*9cm🧨","name_cn":"Gucc1 酒神包 Dionysus 网红明星的最爱 美不胜收的Gucc1 酒神包 足以让你大醉一场~型号:400249  尺寸:28*18*9cm🧨","specs":{"source":"wsxcme","sourceId":"_dfgfgkq3fctaGGBGPBCE95W6KA5Lbc_TDTr21zw","sourceTagId":47002679,"sourceTagName":"古驰/女包","modelNumber":"400249  尺寸:28*18*9cm🧨","dimensions":{"lengthCm":28,"heightCm":18,"widthCm":9},"rawTitle":"Gucc1 酒神包 Dionysus 网红明星的最爱 美不胜收的Gucc1 酒神包 足以让你大醉一场~型号:400249  尺寸:28*18*9cm🧨"},"price":null,"currency":"CNY","moq":1,"category":"gucci-women-bags","status":"active","alibaba_url":null,"images":["https://xcimg.szwego.com/img/89648692/20240729/i1722243118_1861_7.jpg","https://xcimg.szwego.com/img/89648692/20240729/i1722243122_2230_0.jpg","https://xcimg.szwego.com/img/89648692/20240729/i1722243118_1351_0.jpg","https://xcimg.szwego.com/img/89648692/20240729/i1722243122_4372_0.jpg","https://xcimg.szwego.com/img/89648692/20240729/i1722243122_9289_0.jpg","https://xcimg.szwego.com/img/89648692/20240729/i1722243122_8861_0.jpg","https://xcimg.szwego.com/img/89648692/20240729/i1722243122_50_0.jpg","https://xcimg.szwego.com/img/89648692/20240729/i1722243122_5471_0.jpg","https://xcimg.szwego.com/img/89648692/20240729/i1722243122_6992_0.jpg"],"created_at":"2024-08-04T13:01:05.846Z"},{"id":"item-ad9f697de7c5","sku":"_d9o9ocelLAOsvivYHdDm7K5DxX8XY0dFfBHJxkg","name_en":"Gucc1 horsebit半圆迷你马鞍包","name_cn":"Gucc1 horsebit半圆迷你马鞍包\n这个小可爱是真的可爱,小小乖巧的一个\n经典的设计加上配色,不管你是潮流的运动女孩👧\n还是睿智的职场精英,又或者是优雅的气质女性\n这款都是你完美生活中的一款适合的穿搭单品\n经典百搭 实用而又不失个性时尚\n1955系列寓意马到成功\n来掌握自己的人生方向吧!\n型号760191;尺寸17/18.5/7.5cm","specs":{"source":"wsxcme","sourceId":"_d9o9ocelLAOsvivYHdDm7K5DxX8XY0dFfBHJxkg","sourceTagId":47002679,"sourceTagName":"古驰/女包","modelNumber":"760191;尺寸17/18.5/7.5cm","rawTitle":"Gucc1 horsebit半圆迷你马鞍包\n这个小可爱是真的可爱,小小乖巧的一个\n经典的设计加上配色,不管你是潮流的运动女孩👧\n还是睿智的职场精英,又或者是优雅的气质女性\n这款都是你完美生活中的一款适合的穿搭单品\n经典百搭 实用而又不失个性时尚\n1955系列寓意马到成功\n来掌握自己的人生方向吧!\n型号760191;尺寸17/18.5/7.5cm"},"price":null,"currency":"CNY","moq":1,"category":"gucci-women-bags","status":"active","alibaba_url":null,"images":["https://xcimg.szwego.com/20230914/i1694621672_8389_0.jpg","https://xcimg.szwego.com/20230914/i1694621672_1421_1.jpg","https://xcimg.szwego.com/20230914/i1694621672_1019_2.jpg","https://xcimg.szwego.com/20230914/i1694621672_6612_3.jpg","https://xcimg.szwego.com/20230914/i1694621672_5419_4.jpg","https://xcimg.szwego.com/20230914/i1694621672_5034_5.jpg","https://xcimg.szwego.com/20230914/i1694621672_825_6.jpg","https://xcimg.szwego.com/20230914/i1694621672_9994_7.jpg","https://xcimg.szwego.com/20230914/i1694621672_8670_8.jpg"],"created_at":"2024-08-04T12:56:12.091Z"},{"id":"item-f4d6ede159cb","sku":"_dkckc09lZFu_qVdHE_KGzH6c7DcONtUgARmDJbA","name_en":"Gucci Dionysus真的超级无敌火!设计经典不过时,容量稳稳妥妥!复古又文艺,怎么看怎么舒服~","name_cn":"Gucci Dionysus真的超级无敌火!设计经典不过时,容量稳稳妥妥!复古又文艺,怎么看怎么舒服~\n\n型号:499623  尺寸:25*14*8cm","specs":{"source":"wsxcme","sourceId":"_dkckc09lZFu_qVdHE_KGzH6c7DcONtUgARmDJbA","sourceTagId":47002679,"sourceTagName":"古驰/女包","modelNumber":"499623  尺寸:25*14*8cm","dimensions":{"lengthCm":25,"heightCm":14,"widthCm":8},"rawTitle":"Gucci Dionysus真的超级无敌火!设计经典不过时,容量稳稳妥妥!复古又文艺,怎么看怎么舒服~\n\n型号:499623  尺寸:25*14*8cm"},"price":null,"currency":"CNY","moq":1,"category":"gucci-women-bags","status":"active","alibaba_url":null,"images":["https://xcimg.szwego.com/20230522/i1684764890_8017_0.jpg","https://xcimg.szwego.com/20230522/i1684764890_8689_1.jpg","https://xcimg.szwego.com/20230522/i1684764890_6742_2.jpg","https://xcimg.szwego.com/20230522/i1684764890_8635_3.jpg","https://xcimg.szwego.com/20230522/i1684764890_4050_4.jpg","https://xcimg.szwego.com/20230522/i1684764890_6861_5.jpg","https://xcimg.szwego.com/20230522/i1684764890_7255_6.jpg","https://xcimg.szwego.com/20230522/i1684764890_797_7.jpg","https://xcimg.szwego.com/20230522/i1684764890_5795_8.jpg"],"created_at":"2024-11-26T11:46:47.214Z"},{"id":"item-90622b126992","sku":"_drMrMOsxrmOch8PN4HGFLxH3LRNjDxYB2LfDnVQ","name_en":"Gucci Horsebit 1955系列 型号:G760191 尺寸:17x 18.5x 7.5","name_cn":"Gucci Horsebit 1955系列 型号:G760191 尺寸:17x 18.5x 7.5\n 在全新系列中以迷你版型呈现,提供更多百搭实用性。这款肩背包以经典GG Supreme帆布匠心打造,翻盖开合和可调节肩带令整个设计更加丰满。\n米色和乌木色GG Supreme帆布\n棕色皮革滚边\n金色调配件\n棉麻混纺衬里\n马衔扣\n两侧饰半马衔扣细节\n可调节皮革肩带(长度可在25厘米与45厘米之间调节)\n重量:约0.65千克","specs":{"source":"wsxcme","sourceId":"_drMrMOsxrmOch8PN4HGFLxH3LRNjDxYB2LfDnVQ","sourceTagId":47002679,"sourceTagName":"古驰/女包","modelNumber":"G760191 尺寸:17x 18.5x 7.5","rawTitle":"Gucci Horsebit 1955系列 型号:G760191 尺寸:17x 18.5x 7.5\n 在全新系列中以迷你版型呈现,提供更多百搭实用性。这款肩背包以经典GG Supreme帆布匠心打造,翻盖开合和可调节肩带令整个设计更加丰满。\n米色和乌木色GG Supreme帆布\n棕色皮革滚边\n金色调配件\n棉麻混纺衬里\n马衔扣\n两侧饰半马衔扣细节\n可调节皮革肩带(长度可在25厘米与45厘米之间调节)\n重量:约0.65千克"},"price":null,"currency":"CNY","moq":1,"category":"gucci-women-bags","status":"active","alibaba_url":null,"images":["https://xcimg.szwego.com/20230910/i1694327360_2021_0.jpg","https://xcimg.szwego.com/20230910/i1694327360_6526_1.jpg","https://xcimg.szwego.com/20230910/i1694327360_4803_2.jpg","https://xcimg.szwego.com/20230910/i1694327360_3165_3.jpg","https://xcimg.szwego.com/20230910/i1694327360_4172_4.jpg","https://xcimg.szwego.com/20230910/i1694327360_6553_5.jpg","https://xcimg.szwego.com/20230910/i1694327360_2084_6.jpg","https://xcimg.szwego.com/20230910/i1694327360_1465_7.jpg","https://xcimg.szwego.com/20230910/i1694327360_4667_8.jpg"],"created_at":"2026-03-18T14:55:41.361Z"}],"page":319,"pageSize":24,"total":10075,"totalPages":420}
