{"items":[{"id":"item-78f64be93177","sku":"_derergPTRqh3Y8tjeSzThn9JF2354rCcIb8DAtw","name_en":"Chanel Women Bags","name_cn":"白金版▪️正品级 包装如图\nChane1 23S春夏系列\n火爆Mini 22Bag♥黑金\n独家意大利渠道皮,真品原材料❕\n专柜售价40600rmb(目前市场溢价极高)\n\n这款包还没等上市就已经火爆全网。\n出彩的设计直接封神!\n\n容量很美好,优雅时髦的造型超乎想象🖤\n\n五金:全铜24K复古金\n皮料:开料部zp亮面小牛皮\n尺寸:19*20*6 cm","specs":{"source":"wsxcme","sourceId":"_derergPTRqh3Y8tjeSzThn9JF2354rCcIb8DAtw","sourceTagId":47002745,"sourceTagName":"香奈儿/女包","dimensions":{"lengthCm":19,"heightCm":20,"widthCm":6},"rawTitle":"白金版▪️正品级 包装如图\nChane1 23S春夏系列\n火爆Mini 22Bag♥黑金\n独家意大利渠道皮,真品原材料❕\n专柜售价40600rmb(目前市场溢价极高)\n\n这款包还没等上市就已经火爆全网。\n出彩的设计直接封神!\n\n容量很美好,优雅时髦的造型超乎想象🖤\n\n五金:全铜24K复古金\n皮料:开料部zp亮面小牛皮\n尺寸:19*20*6 cm"},"price":null,"currency":"CNY","moq":1,"category":"chanel-women-bags","status":"active","alibaba_url":null,"images":["https://xcimg.szwego.com/20230407/i1680846717_7441_0.jpg","https://xcimg.szwego.com/20230407/i1680846717_1894_1.jpg","https://xcimg.szwego.com/20230407/i1680846717_6702_2.jpg","https://xcimg.szwego.com/20230407/i1680846717_7141_3.jpg","https://xcimg.szwego.com/20230407/i1680846717_9650_4.jpg","https://xcimg.szwego.com/20230407/i1680846717_6607_5.jpg","https://xcimg.szwego.com/20230407/i1680846717_7333_6.jpg","https://xcimg.szwego.com/20230407/i1680846717_2344_7.jpg","https://xcimg.szwego.com/20230407/i1680846717_11_8.jpg"],"created_at":"2024-05-01T03:19:54.364Z"},{"id":"item-77f0270c5245","sku":"_deOeOugjrP-2OojVUsdM5_J34wqXeizolwn9B8w","name_en":"Chanel Women Bags","name_cn":"白金版▪️正品级 包装如图\n全新升级版到货!!️\nChanel 19bag  中号\n最新推出19包 黑色\n专柜售价51800rmb购入开发❕\n\n19黑色回归经典杰作🌱\n低调暗带满满的高级复古感\n黑色回归 容量特别美好直击我心♥\n成为当季最经典的潮范儿〰️\n\n三种背法:单肩、斜挎、手提\n链条拼接:砂银、古金、浅金\n中号Size:20*30*10cm","specs":{"source":"wsxcme","sourceId":"_deOeOugjrP-2OojVUsdM5_J34wqXeizolwn9B8w","sourceTagId":47002745,"sourceTagName":"香奈儿/女包","rawTitle":"白金版▪️正品级 包装如图\n全新升级版到货!!️\nChanel 19bag  中号\n最新推出19包 黑色\n专柜售价51800rmb购入开发❕\n\n19黑色回归经典杰作🌱\n低调暗带满满的高级复古感\n黑色回归 容量特别美好直击我心♥\n成为当季最经典的潮范儿〰️\n\n三种背法:单肩、斜挎、手提\n链条拼接:砂银、古金、浅金\n中号Size:20*30*10cm"},"price":null,"currency":"CNY","moq":1,"category":"chanel-women-bags","status":"active","alibaba_url":null,"images":["https://xcimg.szwego.com/20230316/i1678945617_879_0.jpg","https://xcimg.szwego.com/20230316/i1678945617_9280_1.jpg","https://xcimg.szwego.com/20230316/i1678945617_8625_2.jpg","https://xcimg.szwego.com/20230316/i1678945617_4008_3.jpg","https://xcimg.szwego.com/20230316/i1678945617_1087_4.jpg","https://xcimg.szwego.com/20230316/i1678945617_377_5.jpg","https://xcimg.szwego.com/20230316/i1678945617_3418_6.jpg","https://xcimg.szwego.com/20230316/i1678945617_946_7.jpg","https://xcimg.szwego.com/20230316/i1678945617_9297_8.jpg"],"created_at":"2024-05-01T03:19:54.385Z"},{"id":"item-7512d4ca264e","sku":"_dLvLvPaXv4lfpdS9eYM4-EMaHtV0ReifBuj7DEA","name_en":"Chanel Women Bags","name_cn":"香奈儿/女包","specs":{"source":"wsxcme","sourceId":"_dLvLvPaXv4lfpdS9eYM4-EMaHtV0ReifBuj7DEA","sourceTagId":47002745,"sourceTagName":"香奈儿/女包","rawTitle":""},"price":null,"currency":"CNY","moq":1,"category":"chanel-women-bags","status":"active","alibaba_url":null,"images":["https://xcimg.szwego.com/img/d0c94e6f/20250813/i1755087171_9648_0.jpg"],"created_at":"2025-09-19T04:32:40.103Z"},{"id":"item-7393b30e2233","sku":"_du6u6sNjEu2kzZqXK-6A0XnJ_nlYE7dBKUMUyWA","name_en":"Chanel Women Bags","name_cn":"正品级,高版本\n这款微型Toujours竖版手袋是二零二五秋季成衣系列新品,时尚实用。采用杏色牛皮革精心制作,饰以超大藤格纹缉面线,宽敞的内部隔层可收纳各种日常用品。设有纤细皮革系带开合,可安全收纳各种物品,另有浅金色饰面金属CD Lock字母 D旋钮式扣环,可调节两侧,提升格调。顶部皮革手柄搭配可拆卸的皮革肩带,可手提、肩背或斜挎。\n\n型号2834\n尺寸13×15×12cm","specs":{"source":"wsxcme","sourceId":"_du6u6sNjEu2kzZqXK-6A0XnJ_nlYE7dBKUMUyWA","sourceTagId":47002745,"sourceTagName":"香奈儿/女包","modelNumber":"2834","dimensions":{"lengthCm":13,"heightCm":15,"widthCm":12},"rawTitle":"正品级,高版本\n这款微型Toujours竖版手袋是二零二五秋季成衣系列新品,时尚实用。采用杏色牛皮革精心制作,饰以超大藤格纹缉面线,宽敞的内部隔层可收纳各种日常用品。设有纤细皮革系带开合,可安全收纳各种物品,另有浅金色饰面金属CD Lock字母 D旋钮式扣环,可调节两侧,提升格调。顶部皮革手柄搭配可拆卸的皮革肩带,可手提、肩背或斜挎。\n\n型号2834\n尺寸13×15×12cm"},"price":null,"currency":"CNY","moq":1,"category":"chanel-women-bags","status":"active","alibaba_url":null,"images":["https://xcimg.szwego.com/img/ec683d96/20250420/i1745081041_2412_5.jpg","https://xcimg.szwego.com/img/ec683d96/20250420/i1745081040_4229_0.jpg","https://xcimg.szwego.com/img/ec683d96/20250420/i1745081041_3907_4.jpg","https://xcimg.szwego.com/img/ec683d96/20250420/i1745081041_6250_6.jpg","https://xcimg.szwego.com/img/ec683d96/20250420/i1745081041_6081_3.jpg","https://xcimg.szwego.com/img/ec683d96/20250420/i1745081040_4555_1.jpg","https://xcimg.szwego.com/img/ec683d96/20250420/i1745081041_9778_7.jpg","https://xcimg.szwego.com/img/ec683d96/20250420/i1745081041_8321_8.jpg","https://xcimg.szwego.com/img/ec683d96/20250420/i1745081040_2473_2.jpg"],"created_at":"2025-09-09T05:24:53.930Z"},{"id":"item-7258c53cbc42","sku":"_dtmtm_bkA77DqtFKRvFoS7pVY2S9Yz7LRQ6fyqg","name_en":"Chanel Women Bags","name_cn":"春夏爱心系列[愉快]\n爱心款真的超级好看,专柜就算是vip也很难买到[流泪]都要溢价大几千!实物真的惊呆了,无论怎么搭配都很时尚,本季最热最火系列,一定要买👜 \n款号AS3191\n尺寸18x16.5x6.5cm\n配包装","specs":{"source":"wsxcme","sourceId":"_dtmtm_bkA77DqtFKRvFoS7pVY2S9Yz7LRQ6fyqg","sourceTagId":47002745,"sourceTagName":"香奈儿/女包","modelNumber":"AS3191","dimensions":{"lengthCm":18,"heightCm":16.5,"widthCm":6.5},"rawTitle":"春夏爱心系列[愉快]\n爱心款真的超级好看,专柜就算是vip也很难买到[流泪]都要溢价大几千!实物真的惊呆了,无论怎么搭配都很时尚,本季最热最火系列,一定要买👜 \n款号AS3191\n尺寸18x16.5x6.5cm\n配包装"},"price":null,"currency":"CNY","moq":1,"category":"chanel-women-bags","status":"active","alibaba_url":null,"images":["https://xcimg.szwego.com/img/ecb71349/20241215/i1734243820_147_6.jpg","https://xcimg.szwego.com/img/ecb71349/20241215/i1734243820_3399_5.jpg","https://xcimg.szwego.com/img/ecb71349/20241215/i1734243820_2452_4.jpg","https://xcimg.szwego.com/img/ecb71349/20241215/i1734243820_1269_3.jpg","https://xcimg.szwego.com/img/ecb71349/20241215/i1734243820_1412_8.jpg","https://xcimg.szwego.com/img/ecb71349/20241215/i1734243820_1257_0.jpg","https://xcimg.szwego.com/img/ecb71349/20241215/i1734243820_147_1.jpg","https://xcimg.szwego.com/img/ecb71349/20241215/i1734243820_8187_2.jpg","https://xcimg.szwego.com/img/ecb71349/20241215/i1734243820_8279_7.jpg"],"created_at":"2025-01-20T12:26:10.968Z"},{"id":"item-71ed81340f5c","sku":"_dxvxvfdz4XLjbGFh1uFndojrwaJ8kBjBnwKHtcw","name_en":"Chanel Women Bags","name_cn":"香奈儿/女包","specs":{"source":"wsxcme","sourceId":"_dxvxvfdz4XLjbGFh1uFndojrwaJ8kBjBnwKHtcw","sourceTagId":47002745,"sourceTagName":"香奈儿/女包","rawTitle":""},"price":null,"currency":"CNY","moq":1,"category":"chanel-women-bags","status":"active","alibaba_url":null,"images":["https://xcimg.szwego.com/img/fbe1a617/20250515/i1747305116128_5734_0_0.jpg"],"created_at":"2026-06-29T10:35:34.114Z"},{"id":"item-718b780d815c","sku":"_dl8l8kppRhYnh2-hHC1bm7u-Sv5TQGMEXtSobyQ","name_en":"Chanel Women Bags","name_cn":"白金版▪️正品级 包装如图\n新品发售!!️chanel 19bag 系列\n  24C 早春半月腋下包\n最新推出〰️经典19系列\n低调暗带满满的高级复古感\n新款腋下包特别好看直击我心♥\n成为当季最经典的潮范儿〰️\n\n\n链条拼接:砂银、古金、浅金\nSize:23cm\n4638","specs":{"source":"wsxcme","sourceId":"_dl8l8kppRhYnh2-hHC1bm7u-Sv5TQGMEXtSobyQ","sourceTagId":47002745,"sourceTagName":"香奈儿/女包","rawTitle":"白金版▪️正品级 包装如图\n新品发售!!️chanel 19bag 系列\n  24C 早春半月腋下包\n最新推出〰️经典19系列\n低调暗带满满的高级复古感\n新款腋下包特别好看直击我心♥\n成为当季最经典的潮范儿〰️\n\n\n链条拼接:砂银、古金、浅金\nSize:23cm\n4638"},"price":null,"currency":"CNY","moq":1,"category":"chanel-women-bags","status":"active","alibaba_url":null,"images":["https://xcimg.szwego.com/20231115/i1700027674_9464_0.jpg","https://xcimg.szwego.com/20231115/i1700027674_5611_1.jpg","https://xcimg.szwego.com/20231115/i1700027674_6908_2.jpg","https://xcimg.szwego.com/20231115/i1700027674_176_3.jpg","https://xcimg.szwego.com/20231115/i1700027674_4632_4.jpg","https://xcimg.szwego.com/20231115/i1700027674_4114_5.jpg","https://xcimg.szwego.com/20231115/i1700027674_4001_6.jpg","https://xcimg.szwego.com/20231115/i1700027674_8283_7.jpg","https://xcimg.szwego.com/20231115/i1700027674_3613_8.jpg"],"created_at":"2024-05-01T03:19:54.391Z"},{"id":"item-718731aa5220","sku":"_dOhOh7IJB3pSIiRrBP80L92MnQX0iybtN6lYhhA","name_en":"Chanel Women Bags","name_cn":"🆕22手袋 黑配金\n\n 原厂方框一级小牛皮👍皮质细腻有光泽,\n既柔软又耐磨,两者兼具\n简简单单的外观却藏着不少设计师的高级设计,镂空的chanel logo的金币,小小的点缀让整体气质提高了不止一个Level,满满的复古情怀,松松垮垮的慵懒感! 🍃\n\n尺寸:39*42*8cm","specs":{"source":"wsxcme","sourceId":"_dOhOh7IJB3pSIiRrBP80L92MnQX0iybtN6lYhhA","sourceTagId":47002745,"sourceTagName":"香奈儿/女包","dimensions":{"lengthCm":39,"heightCm":42,"widthCm":8},"rawTitle":"🆕22手袋 黑配金\n\n 原厂方框一级小牛皮👍皮质细腻有光泽,\n既柔软又耐磨,两者兼具\n简简单单的外观却藏着不少设计师的高级设计,镂空的chanel logo的金币,小小的点缀让整体气质提高了不止一个Level,满满的复古情怀,松松垮垮的慵懒感! 🍃\n\n尺寸:39*42*8cm"},"price":null,"currency":"CNY","moq":1,"category":"chanel-women-bags","status":"active","alibaba_url":null,"images":["https://xcimg.szwego.com/20230626/i1687788338_9499_0.jpg","https://xcimg.szwego.com/20230626/i1687788338_5609_1.jpg","https://xcimg.szwego.com/20230626/i1687788338_5505_2.jpg","https://xcimg.szwego.com/20230626/i1687788338_7333_3.jpg","https://xcimg.szwego.com/img/1ea81fa8/20250107/i1736231120920_7633_0_4.jpg","https://xcimg.szwego.com/img/1ea81fa8/20250107/i1736231120920_7741_0_5.jpg","https://xcimg.szwego.com/img/1ea81fa8/20250107/i1736231120920_6810_0_6.jpg","https://xcimg.szwego.com/img/1ea81fa8/20250107/i1736231120920_6179_0_7.jpg","https://xcimg.szwego.com/img/1ea81fa8/20250107/i1736231120920_8820_0_8.jpg"],"created_at":"2025-01-20T12:26:10.904Z"},{"id":"item-708060a175c2","sku":"_dr2r2bcSpbj6GL1S8iQLUcAzaf9tfyec7_oQHNg","name_en":"Chanel Women Bags","name_cn":"原厂皮\n🌟新版本更新⭐️CHANEL 24C双金球盒子\n香奈儿这季新品双金球我真的可\n一眼就爱上了这个包包、经典黑金,两颗金珠,\n链条可调节长短 Sa有货赶紧冲这个包包我更喜欢手拎斜挎和单肩也可容量也可调节 。                                款号:66039                                                       尺寸:19cm。","specs":{"source":"wsxcme","sourceId":"_dr2r2bcSpbj6GL1S8iQLUcAzaf9tfyec7_oQHNg","sourceTagId":47002745,"sourceTagName":"香奈儿/女包","modelNumber":"66039                                                       尺寸:19cm","rawTitle":"原厂皮\n🌟新版本更新⭐️CHANEL 24C双金球盒子\n香奈儿这季新品双金球我真的可\n一眼就爱上了这个包包、经典黑金,两颗金珠,\n链条可调节长短 Sa有货赶紧冲这个包包我更喜欢手拎斜挎和单肩也可容量也可调节 。                                款号:66039                                                       尺寸:19cm。"},"price":null,"currency":"CNY","moq":1,"category":"chanel-women-bags","status":"active","alibaba_url":null,"images":["https://xcimg.szwego.com/img/fbe1a617/20250408/i1744126589883_444_0_0.jpg","https://xcimg.szwego.com/img/fbe1a617/20250408/i1744126587226_2890_0_1.jpg","https://xcimg.szwego.com/img/fbe1a617/20250408/i1744126589638_8850_0_2.jpg","https://xcimg.szwego.com/img/fbe1a617/20250408/i1744126589786_1979_0_3.jpg","https://xcimg.szwego.com/img/fbe1a617/20250408/i1744126587459_4539_0_4.jpg","https://xcimg.szwego.com/img/fbe1a617/20250408/i1744126587338_3620_0_5.jpg","https://xcimg.szwego.com/img/fbe1a617/20250408/i1744126587391_590_0_6.jpg","https://xcimg.szwego.com/img/fbe1a617/20250408/i1744126587543_9165_0_7.jpg","https://xcimg.szwego.com/img/fbe1a617/20250408/i1744126589832_3779_0_8.jpg"],"created_at":"2025-09-09T05:20:40.193Z"},{"id":"item-6ef5952484fd","sku":"_dmvmveELrPhgFvtH2ECXmqAMF-Bhy4JFmP34wPA","name_en":"Chanel Women Bags","name_cn":"正品级,高版本\n这款 Dior Toujours 竖版手袋时尚实用,别具一格。采用黑色牛皮革精心制作,饰以超大藤格纹缉面线,宽敞的内部隔层可收纳各种日常用品。设有纤细皮革系带开合,可安全收纳各种物品,另有 CD Lock 字母 D 旋钮式扣环,可调节两侧,提升格调。中号款式,顶部皮革手柄搭配可拆卸的皮革肩带,可手提、肩背或斜挎。\n主体:牛皮革\n里料:牛皮革\n双开合设计:纤细系带和 Christian Dior Paris 系带搭配 CD Lock 扣环\nD.I.O.R. 吊饰\n内部插袋可放置卡片\n顶部皮革手柄\n可拆卸皮革肩带\n尺寸:23 x 24 x 16CM\n型号:M2836","specs":{"source":"wsxcme","sourceId":"_dmvmveELrPhgFvtH2ECXmqAMF-Bhy4JFmP34wPA","sourceTagId":47002745,"sourceTagName":"香奈儿/女包","modelNumber":"M2836","dimensions":{"lengthCm":23,"heightCm":24,"widthCm":16},"rawTitle":"正品级,高版本\n这款 Dior Toujours 竖版手袋时尚实用,别具一格。采用黑色牛皮革精心制作,饰以超大藤格纹缉面线,宽敞的内部隔层可收纳各种日常用品。设有纤细皮革系带开合,可安全收纳各种物品,另有 CD Lock 字母 D 旋钮式扣环,可调节两侧,提升格调。中号款式,顶部皮革手柄搭配可拆卸的皮革肩带,可手提、肩背或斜挎。\n主体:牛皮革\n里料:牛皮革\n双开合设计:纤细系带和 Christian Dior Paris 系带搭配 CD Lock 扣环\nD.I.O.R. 吊饰\n内部插袋可放置卡片\n顶部皮革手柄\n可拆卸皮革肩带\n尺寸:23 x 24 x 16CM\n型号:M2836"},"price":null,"currency":"CNY","moq":1,"category":"chanel-women-bags","status":"active","alibaba_url":null,"images":["https://xcimg.szwego.com/img/ec683d96/20250408/i1744103064_8429_4.jpg","https://xcimg.szwego.com/img/ec683d96/20250408/i1744103064_8117_6.jpg","https://xcimg.szwego.com/img/ec683d96/20250408/i1744103063_4686_0.jpg","https://xcimg.szwego.com/img/ec683d96/20250408/i1744103064_9287_5.jpg","https://xcimg.szwego.com/img/ec683d96/20250408/i1744103064_4415_8.jpg","https://xcimg.szwego.com/img/ec683d96/20250408/i1744103064_3976_2.jpg","https://xcimg.szwego.com/img/ec683d96/20250408/i1744103064_9441_3.jpg","https://xcimg.szwego.com/img/ec683d96/20250408/i1744103064_7168_1.jpg","https://xcimg.szwego.com/img/ec683d96/20250408/i1744103064_1021_7.jpg"],"created_at":"2025-09-09T05:24:53.926Z"},{"id":"item-6e710ceff801","sku":"_d898987fuWTBfuTHpQpIjLhe8y9sCBtjDdrz6tA","name_en":"Chanel Women Bags","name_cn":"。白金版▪️正品级 包装如图\n全新到货!!️Chane1 24S春夏\nNano 31Bag 奶茶杏\n专柜售价26900rmb购入开发〰️\n\nChane1“包王”全新31 Nano Size\n时尚代表作mini 31Bag重卷来袭✨\n满足了时髦精的在所期待〰️\n推出新SizeNano柔软乖巧设计感很迷人💡\n软萌的酷飒风一下子就击中了🖤\n\n五金:厚镀14K淡金\n皮料:   原厂Bonaudo油蜡羊皮\n尺寸:20*17.5*3.5 cm","specs":{"source":"wsxcme","sourceId":"_d898987fuWTBfuTHpQpIjLhe8y9sCBtjDdrz6tA","sourceTagId":47002745,"sourceTagName":"香奈儿/女包","dimensions":{"lengthCm":20,"heightCm":17.5,"widthCm":3.5},"rawTitle":"。白金版▪️正品级 包装如图\n全新到货!!️Chane1 24S春夏\nNano 31Bag 奶茶杏\n专柜售价26900rmb购入开发〰️\n\nChane1“包王”全新31 Nano Size\n时尚代表作mini 31Bag重卷来袭✨\n满足了时髦精的在所期待〰️\n推出新SizeNano柔软乖巧设计感很迷人💡\n软萌的酷飒风一下子就击中了🖤\n\n五金:厚镀14K淡金\n皮料:   原厂Bonaudo油蜡羊皮\n尺寸:20*17.5*3.5 cm"},"price":null,"currency":"CNY","moq":1,"category":"chanel-women-bags","status":"active","alibaba_url":null,"images":["https://xcimg.szwego.com/20240430/i1714462321_1494_0.jpg","https://xcimg.szwego.com/20240430/i1714462321_9031_1.jpg","https://xcimg.szwego.com/20240430/i1714462321_4195_2.jpg","https://xcimg.szwego.com/20240430/i1714462321_6906_3.jpg","https://xcimg.szwego.com/20240430/i1714462321_793_4.jpg","https://xcimg.szwego.com/20240430/i1714462321_4339_5.jpg","https://xcimg.szwego.com/20240430/i1714462321_4190_6.jpg","https://xcimg.szwego.com/20240430/i1714462321_14_7.jpg","https://xcimg.szwego.com/20240430/i1714462321_1753_8.jpg"],"created_at":"2024-05-03T07:19:26.873Z"},{"id":"item-6d5f0d5c49dc","sku":"_du0u0jXwyxfaOOVAKUWKClqLtPmoLlV6RkJ6JcA","name_en":"Chanel Women Bags","name_cn":"白金版▪️正品级 包装如图\n全新发售!!️CF系列\n专柜售价58600mb购入开发➠\n\nClassic Flap Small小号 白色\n每年行情都在涨📈\n专柜可遇不可求 一直很难买到\n羊皮质感柔柔糯糯很nice〰️\n这次到达的都是开料部渠道zp皮\n伙伴们大可️闭眼入啦🪄\n好品质值得珍藏,一包背到老都不过时➿\n\n皮料:独家Gaiera zp小羊皮\n里皮:开料部zp内里羊皮\n辅料:意大利进口海绵、托料\n五金:全钢24K金扣\n尺寸:14.5*23*6cm","specs":{"source":"wsxcme","sourceId":"_du0u0jXwyxfaOOVAKUWKClqLtPmoLlV6RkJ6JcA","sourceTagId":47002745,"sourceTagName":"香奈儿/女包","dimensions":{"lengthCm":14.5,"heightCm":23,"widthCm":6},"rawTitle":"白金版▪️正品级 包装如图\n全新发售!!️CF系列\n专柜售价58600mb购入开发➠\n\nClassic Flap Small小号 白色\n每年行情都在涨📈\n专柜可遇不可求 一直很难买到\n羊皮质感柔柔糯糯很nice〰️\n这次到达的都是开料部渠道zp皮\n伙伴们大可️闭眼入啦🪄\n好品质值得珍藏,一包背到老都不过时➿\n\n皮料:独家Gaiera zp小羊皮\n里皮:开料部zp内里羊皮\n辅料:意大利进口海绵、托料\n五金:全钢24K金扣\n尺寸:14.5*23*6cm"},"price":null,"currency":"CNY","moq":1,"category":"chanel-women-bags","status":"active","alibaba_url":null,"images":["https://xcimg.szwego.com/20230412/i1681276226_7744_0.jpg","https://xcimg.szwego.com/20230412/i1681276226_3087_1.jpg","https://xcimg.szwego.com/20230412/i1681276226_4636_2.jpg","https://xcimg.szwego.com/20230412/i1681276226_2649_3.jpg","https://xcimg.szwego.com/20230412/i1681276226_8465_4.jpg","https://xcimg.szwego.com/20230412/i1681276226_2064_5.jpg","https://xcimg.szwego.com/20230412/i1681276226_2715_6.jpg","https://xcimg.szwego.com/20230412/i1681276226_9050_7.jpg","https://xcimg.szwego.com/20230412/i1681276226_5560_8.jpg"],"created_at":"2024-05-01T03:19:54.369Z"},{"id":"item-6d5c12d1afe2","sku":"_dljljhAiJnDVl4AXj0VF5yX25tqERrlyo9MEW5Q","name_en":"Chanel Women Bags","name_cn":"正品级\n🇫🇷AS5293CHANEL 25款又一个以年份命名的款, 25c球纹皮嘻哈包 香奈儿hobo 腋下包 嬉皮腋下包小号 复古金币纽扣抽绳水桶包+菱格纹+复古黑金 经典链条设计,高级感十足!日常出行必备,外观精美,质感细腻,无论休闲装还是正式场合都能轻松驾驭 尺寸:30x26x14cm","specs":{"source":"wsxcme","sourceId":"_dljljhAiJnDVl4AXj0VF5yX25tqERrlyo9MEW5Q","sourceTagId":47002745,"sourceTagName":"香奈儿/女包","dimensions":{"lengthCm":30,"heightCm":26,"widthCm":14},"rawTitle":"正品级\n🇫🇷AS5293CHANEL 25款又一个以年份命名的款, 25c球纹皮嘻哈包 香奈儿hobo 腋下包 嬉皮腋下包小号 复古金币纽扣抽绳水桶包+菱格纹+复古黑金 经典链条设计,高级感十足!日常出行必备,外观精美,质感细腻,无论休闲装还是正式场合都能轻松驾驭 尺寸:30x26x14cm"},"price":null,"currency":"CNY","moq":1,"category":"chanel-women-bags","status":"active","alibaba_url":null,"images":["https://xcimg.szwego.com/imgHD/b5cc9469/20250402/cmp_a1743591814300_5665.jpg","https://xcimg.szwego.com/imgHD/b5cc9469/20250402/cmp_a1743591814302_6203.jpg","https://xcimg.szwego.com/imgHD/b5cc9469/20250402/cmp_a1743591814299_6705.jpg","https://xcimg.szwego.com/imgHD/b5cc9469/20250402/cmp_a1743591814306_7358.jpg","https://xcimg.szwego.com/imgHD/b5cc9469/20250402/cmp_a1743591814309_2347.jpg","https://xcimg.szwego.com/imgHD/b5cc9469/20250402/cmp_a1743591819389_7552.jpg","https://xcimg.szwego.com/imgHD/b5cc9469/20250402/cmp_a1743591819387_4155.jpg","https://xcimg.szwego.com/imgHD/b5cc9469/20250402/cmp_a1743591819391_7046.jpg","https://xcimg.szwego.com/imgHD/b5cc9469/20250402/cmp_a1743591819392_2805.jpg"],"created_at":"2025-09-09T05:17:44.445Z"},{"id":"item-6be945c97c7f","sku":"_dJLJL78SJYOF4qsAGEHS8fTjQV4ZTawlVTkRiGA","name_en":"Chanel Women Bags","name_cn":"白金版▪️正品级 包装如图\n全新版本🔥金球woc\n再次回归🛫现货发售ꫛꫀꪝ\nwallet on chain黑色\n可调节肩带长度✔️设计感十足\n简直美到爆炸🔜实用与美貌并存〰️\n细腻的zp小羊皮 爱不释手❥❥\n\n皮料:意大利GR小羊皮\n五金:全铜24k厚镀五金\n尺寸:12.3*19.2*3.5cm","specs":{"source":"wsxcme","sourceId":"_dJLJL78SJYOF4qsAGEHS8fTjQV4ZTawlVTkRiGA","sourceTagId":47002745,"sourceTagName":"香奈儿/女包","dimensions":{"lengthCm":12.3,"heightCm":19.2,"widthCm":3.5},"rawTitle":"白金版▪️正品级 包装如图\n全新版本🔥金球woc\n再次回归🛫现货发售ꫛꫀꪝ\nwallet on chain黑色\n可调节肩带长度✔️设计感十足\n简直美到爆炸🔜实用与美貌并存〰️\n细腻的zp小羊皮 爱不释手❥❥\n\n皮料:意大利GR小羊皮\n五金:全铜24k厚镀五金\n尺寸:12.3*19.2*3.5cm"},"price":null,"currency":"CNY","moq":1,"category":"chanel-women-bags","status":"active","alibaba_url":null,"images":["https://xcimg.szwego.com/20230519/i1684474574_8650_0.jpg","https://xcimg.szwego.com/20230519/i1684474574_4102_1.jpg","https://xcimg.szwego.com/20230519/i1684474574_2729_2.jpg","https://xcimg.szwego.com/20230519/i1684474574_7051_3.jpg","https://xcimg.szwego.com/20230519/i1684474574_7569_4.jpg","https://xcimg.szwego.com/20230519/i1684474574_5717_5.jpg","https://xcimg.szwego.com/20230519/i1684474574_7155_6.jpg","https://xcimg.szwego.com/20230519/i1684474574_9425_7.jpg","https://xcimg.szwego.com/20230519/i1684474574_5019_8.jpg"],"created_at":"2024-05-01T03:19:54.383Z"},{"id":"item-6b75ff4a6e6e","sku":"_dqbqb_ca0HZi2WFzKbixpL2DcSJSWc4wLXfSO-w","name_en":"Chanel Women Bags","name_cn":"现货24春夏新款 中号 小号\n牛仔以随性休闲著称,换上银色五金配色,焕然一新,瞬间年轻感爆棚,冲刺着青春与活力的气息,有春夏季节的清爽感...将简约舒适融为一体,为你打包整个春日🍃 尺寸:","specs":{"source":"wsxcme","sourceId":"_dqbqb_ca0HZi2WFzKbixpL2DcSJSWc4wLXfSO-w","sourceTagId":47002745,"sourceTagName":"香奈儿/女包","rawTitle":"现货24春夏新款 中号 小号\n牛仔以随性休闲著称,换上银色五金配色,焕然一新,瞬间年轻感爆棚,冲刺着青春与活力的气息,有春夏季节的清爽感...将简约舒适融为一体,为你打包整个春日🍃 尺寸:"},"price":null,"currency":"CNY","moq":1,"category":"chanel-women-bags","status":"active","alibaba_url":null,"images":["https://xcimg.szwego.com/20240308/i1709881939_4745_0.jpg","https://xcimg.szwego.com/20240308/i1709881939_3150_1.jpg","https://xcimg.szwego.com/20240308/i1709881939_6636_2.jpg","https://xcimg.szwego.com/20240308/i1709881939_9110_3.jpg","https://xcimg.szwego.com/20240308/i1709881939_2696_4.jpg","https://xcimg.szwego.com/20240308/i1709881939_8162_5.jpg","https://xcimg.szwego.com/20240308/i1709881939_3835_6.jpg","https://xcimg.szwego.com/20240308/i1709881939_9118_7.jpg","https://xcimg.szwego.com/20240308/i1709881939_6939_8.jpg"],"created_at":"2024-05-03T07:22:12.496Z"},{"id":"item-6b541953fa07","sku":"_dd0d030L6Jb0xdwUS5y0QUsyE8P1_1GLB5n0UlA","name_en":"Chanel Women Bags","name_cn":"【原厂回货】\nChanel 23P 最美相机包\n全球抢爆相机炸药包\n原厂小牛皮,手感超好\n\n正品 购入\n非常有个性的一款包,斜挎超级帅[色] 整体的包型比老款更精致了,多色扣设计 更加特别高级\n\n型号:AS2923\n尺寸:20.5x14.5x9cm","specs":{"source":"wsxcme","sourceId":"_dd0d030L6Jb0xdwUS5y0QUsyE8P1_1GLB5n0UlA","sourceTagId":47002745,"sourceTagName":"香奈儿/女包","modelNumber":"AS2923","dimensions":{"lengthCm":20.5,"heightCm":14.5,"widthCm":9},"rawTitle":"【原厂回货】\nChanel 23P 最美相机包\n全球抢爆相机炸药包\n原厂小牛皮,手感超好\n\n正品 购入\n非常有个性的一款包,斜挎超级帅[色] 整体的包型比老款更精致了,多色扣设计 更加特别高级\n\n型号:AS2923\n尺寸:20.5x14.5x9cm"},"price":null,"currency":"CNY","moq":1,"category":"chanel-women-bags","status":"active","alibaba_url":null,"images":["https://xcimg.szwego.com/img/b885826e/20241002/i1727854162_5689_7.jpg","https://xcimg.szwego.com/img/b885826e/20241002/i1727854162_7885_5.jpg","https://xcimg.szwego.com/img/b885826e/20241002/i1727854162_2171_6.jpg","https://xcimg.szwego.com/img/b885826e/20241002/i1727854162_9971_1.jpg","https://xcimg.szwego.com/img/b885826e/20241002/i1727854162_3457_0.jpg","https://xcimg.szwego.com/img/b885826e/20241002/i1727854162_2403_3.jpg","https://xcimg.szwego.com/img/b885826e/20241002/i1727854162_9926_2.jpg","https://xcimg.szwego.com/img/b885826e/20241002/i1727854162_8438_4.jpg","https://xcimg.szwego.com/img/b885826e/20241002/i1727854162_3417_8.jpg"],"created_at":"2024-11-26T11:47:21.485Z"},{"id":"item-6a9d3fac0b23","sku":"_dxKxKbFERMOQps1rTzTpc3FtWa6aiKEPS3PSS8w","name_en":"Chanel Women Bags","name_cn":"香奈儿/女包","specs":{"source":"wsxcme","sourceId":"_dxKxKbFERMOQps1rTzTpc3FtWa6aiKEPS3PSS8w","sourceTagId":47002745,"sourceTagName":"香奈儿/女包","rawTitle":""},"price":null,"currency":"CNY","moq":1,"category":"chanel-women-bags","status":"active","alibaba_url":null,"images":["https://xcimg.szwego.com/img/d0c94e6f/20250827/i1756302914_2810_0.jpg"],"created_at":"2025-09-19T04:32:40.082Z"},{"id":"item-684b99158236","sku":"_djIjIeSfrcPqvRDn0EfZE0dxWrcVJx821qMh5qA","name_en":"Chanel Women Bags","name_cn":"白金版▪️正品级 包装如图\nChane1 23S春夏系列\n火爆Mini 22Bag♥黑银\n独家意大利渠道皮,真品原材料❕\n专柜售价40600rmb(目前市场溢价极高)\n\n这款包还没等上市就已经火爆全网。\n出彩的设计直接封神!\n\n容量很美好,优雅时髦的造型超乎想象🖤\n\n五金:全铜24K复古金\n皮料:开料部zp亮面小牛皮\n尺寸:19*20*6 cm","specs":{"source":"wsxcme","sourceId":"_djIjIeSfrcPqvRDn0EfZE0dxWrcVJx821qMh5qA","sourceTagId":47002745,"sourceTagName":"香奈儿/女包","dimensions":{"lengthCm":19,"heightCm":20,"widthCm":6},"rawTitle":"白金版▪️正品级 包装如图\nChane1 23S春夏系列\n火爆Mini 22Bag♥黑银\n独家意大利渠道皮,真品原材料❕\n专柜售价40600rmb(目前市场溢价极高)\n\n这款包还没等上市就已经火爆全网。\n出彩的设计直接封神!\n\n容量很美好,优雅时髦的造型超乎想象🖤\n\n五金:全铜24K复古金\n皮料:开料部zp亮面小牛皮\n尺寸:19*20*6 cm"},"price":null,"currency":"CNY","moq":1,"category":"chanel-women-bags","status":"active","alibaba_url":null,"images":["https://xcimg.szwego.com/20230407/i1680846460_7740_0.jpg","https://xcimg.szwego.com/20230407/i1680846460_8650_1.jpg","https://xcimg.szwego.com/20230407/i1680846460_4571_2.jpg","https://xcimg.szwego.com/20230407/i1680846460_3853_3.jpg","https://xcimg.szwego.com/20230407/i1680846460_9500_4.jpg","https://xcimg.szwego.com/20230407/i1680846460_6324_5.jpg","https://xcimg.szwego.com/20230407/i1680846460_6237_6.jpg","https://xcimg.szwego.com/20230407/i1680846460_7470_7.jpg","https://xcimg.szwego.com/20230407/i1680846460_3244_8.jpg"],"created_at":"2024-05-01T03:19:54.363Z"},{"id":"item-673b5484f6ed","sku":"_dv3v3aDa-OtggtDbZQB7KT41VR_Csz-GO5V-a0w","name_en":"Chanel Women Bags","name_cn":"香奈儿/女包","specs":{"source":"wsxcme","sourceId":"_dv3v3aDa-OtggtDbZQB7KT41VR_Csz-GO5V-a0w","sourceTagId":47002745,"sourceTagName":"香奈儿/女包","rawTitle":""},"price":null,"currency":"CNY","moq":1,"category":"chanel-women-bags","status":"active","alibaba_url":null,"images":["https://xcimg.szwego.com/img/d0c94e6f/20250910/i1757504650_8482_0.jpg"],"created_at":"2025-09-19T04:32:40.129Z"},{"id":"item-66e3bcb06903","sku":"_dYTYTFd1ibHIX1Cs2K-4WQou439ccBUMmsUMCcA","name_en":"Chanel Women Bags","name_cn":"22手袋 粉银\n\n 原厂方框一级小牛皮👍皮质细腻有光泽,\n既柔软又耐磨,两者兼具\n简简单单的外观却藏着不少设计师的高级设计,镂空的chanel logo的金币,小小的点缀让整体气质提高了不止一个Level,满满的复古情怀,松松垮垮的慵懒感! 🍃\n\n尺寸:35*37*7cm","specs":{"source":"wsxcme","sourceId":"_dYTYTFd1ibHIX1Cs2K-4WQou439ccBUMmsUMCcA","sourceTagId":47002745,"sourceTagName":"香奈儿/女包","dimensions":{"lengthCm":35,"heightCm":37,"widthCm":7},"rawTitle":"22手袋 粉银\n\n 原厂方框一级小牛皮👍皮质细腻有光泽,\n既柔软又耐磨,两者兼具\n简简单单的外观却藏着不少设计师的高级设计,镂空的chanel logo的金币,小小的点缀让整体气质提高了不止一个Level,满满的复古情怀,松松垮垮的慵懒感! 🍃\n\n尺寸:35*37*7cm"},"price":null,"currency":"CNY","moq":1,"category":"chanel-women-bags","status":"active","alibaba_url":null,"images":["https://xcimg.szwego.com/img/e8531d32/20240226/i1708932022_7760_0.jpg","https://xcimg.szwego.com/img/e8531d32/20240226/i1708932022_7920_2.jpg","https://xcimg.szwego.com/img/e8531d32/20240226/i1708932022_8962_1.jpg","https://xcimg.szwego.com/img/e8531d32/20240226/i1708932022_7924_3.jpg"],"created_at":"2024-05-01T03:19:54.445Z"},{"id":"item-66b7fc4e5c7e","sku":"_dtitiEx7gokA7rhYMppzVRfm7lZ5hCXJIuBEFgQ","name_en":"Chanel Women Bags","name_cn":"香奈儿/女包","specs":{"source":"wsxcme","sourceId":"_dtitiEx7gokA7rhYMppzVRfm7lZ5hCXJIuBEFgQ","sourceTagId":47002745,"sourceTagName":"香奈儿/女包","rawTitle":""},"price":null,"currency":"CNY","moq":1,"category":"chanel-women-bags","status":"active","alibaba_url":null,"images":["https://xcimg.szwego.com/img/d0c94e6f/20250823/i1755959850_776_0.jpg"],"created_at":"2025-09-19T04:32:40.107Z"},{"id":"item-6518303507d5","sku":"_doBoBBeJhND9JrJl3_pShQbfAdHj8XO0W3X3vpg","name_en":"Chanel Women Bags","name_cn":"正品级,高版本\nDIOR ❤️TOUJOURS手袋〔黑色大号〕\n这款 Dior Toujours 手袋于二零二三春夏系列发布秀精彩亮相,休闲实用的设计别具一格。采用黑色牛皮革精心制作,饰以超大藤格纹缉面线,宽敞的内部隔层搭配小袋,可整齐收纳各种日常用品。设有皮革系带开合,可安全收纳各种物品,另有 CD Lock 字母 D 旋钮式开合,可调节两侧,提升格调。大号款式,皮革手柄带有可调节细节,可手提或肩背。\nCD Lock 和系带开合\nD.I.O.R. 吊饰\n可拆卸内部小袋\n可调节皮革手柄\n内含防尘袋\n\n型号:2823\n尺寸:37 x 20 x 28.5 厘米\n手柄长度:14 - 29 厘米。","specs":{"source":"wsxcme","sourceId":"_doBoBBeJhND9JrJl3_pShQbfAdHj8XO0W3X3vpg","sourceTagId":47002745,"sourceTagName":"香奈儿/女包","modelNumber":"2823","dimensions":{"lengthCm":37,"heightCm":20,"widthCm":28.5},"rawTitle":"正品级,高版本\nDIOR ❤️TOUJOURS手袋〔黑色大号〕\n这款 Dior Toujours 手袋于二零二三春夏系列发布秀精彩亮相,休闲实用的设计别具一格。采用黑色牛皮革精心制作,饰以超大藤格纹缉面线,宽敞的内部隔层搭配小袋,可整齐收纳各种日常用品。设有皮革系带开合,可安全收纳各种物品,另有 CD Lock 字母 D 旋钮式开合,可调节两侧,提升格调。大号款式,皮革手柄带有可调节细节,可手提或肩背。\nCD Lock 和系带开合\nD.I.O.R. 吊饰\n可拆卸内部小袋\n可调节皮革手柄\n内含防尘袋\n\n型号:2823\n尺寸:37 x 20 x 28.5 厘米\n手柄长度:14 - 29 厘米。"},"price":null,"currency":"CNY","moq":1,"category":"chanel-women-bags","status":"active","alibaba_url":null,"images":["https://xcimg.szwego.com/img/ec683d96/20231207/i1701937994_9343_6.jpg","https://xcimg.szwego.com/img/ec683d96/20231207/i1701937994_4391_3.jpg","https://xcimg.szwego.com/img/ec683d96/20231207/i1701937994_6_7.jpg","https://xcimg.szwego.com/img/ec683d96/20231207/i1701937994_7103_8.jpg","https://xcimg.szwego.com/img/ec683d96/20231207/i1701937994_4821_5.jpg","https://xcimg.szwego.com/img/ec683d96/20231207/i1701937994_7823_4.jpg","https://xcimg.szwego.com/img/ec683d96/20231207/i1701937993_9798_0.jpg","https://xcimg.szwego.com/img/ec683d96/20231207/i1701937994_5229_2.jpg","https://xcimg.szwego.com/img/ec683d96/20231207/i1701937993_7683_1.jpg"],"created_at":"2025-09-09T05:24:53.927Z"},{"id":"item-64dc6b20a585","sku":"_dqlqlUtpLETN00PktB-19QaxGmdUg7ceMd0RCGg","name_en":"Chanel Women Bags","name_cn":"白金版▪️正品级 包装如图\nChane1 25B新品现货 双C扣口盖包\n双C调节扣 大mini 黑色\n专柜售价47500rmb购入开发〰️\n\n最新推出#双C链条口盖包大mini💙\n具备CF元素造型有着性感迷人的气质\n链条双C调节扣设计很精致很复古~\n绝对是重量级必入收藏款️啦✔️\n\n五金:厚镀24K复古亮金\n皮料:   抛光小羊皮\n尺寸:13*20*7 cm\n5759","specs":{"source":"wsxcme","sourceId":"_dqlqlUtpLETN00PktB-19QaxGmdUg7ceMd0RCGg","sourceTagId":47002745,"sourceTagName":"香奈儿/女包","dimensions":{"lengthCm":13,"heightCm":20,"widthCm":7},"rawTitle":"白金版▪️正品级 包装如图\nChane1 25B新品现货 双C扣口盖包\n双C调节扣 大mini 黑色\n专柜售价47500rmb购入开发〰️\n\n最新推出#双C链条口盖包大mini💙\n具备CF元素造型有着性感迷人的气质\n链条双C调节扣设计很精致很复古~\n绝对是重量级必入收藏款️啦✔️\n\n五金:厚镀24K复古亮金\n皮料:   抛光小羊皮\n尺寸:13*20*7 cm\n5759"},"price":null,"currency":"CNY","moq":1,"category":"chanel-women-bags","status":"active","alibaba_url":null,"images":["https://xcimg.szwego.com/imgHD/9d8f4332/20250824/cmp_i1756015439869_1993_0_0.jpg","https://xcimg.szwego.com/imgHD/9d8f4332/20250824/cmp_i1756015441871_2448_0_1.jpg","https://xcimg.szwego.com/imgHD/9d8f4332/20250824/cmp_i1756015441876_4086_0_2.jpg","https://xcimg.szwego.com/imgHD/9d8f4332/20250824/cmp_i1756015439866_9079_0_3.jpg","https://xcimg.szwego.com/imgHD/9d8f4332/20250824/cmp_i1756015441873_9407_0_4.jpg","https://xcimg.szwego.com/imgHD/9d8f4332/20250824/cmp_i1756015441876_4115_0_5.jpg","https://xcimg.szwego.com/imgHD/9d8f4332/20250824/cmp_i1756015439862_823_0_6.jpg","https://xcimg.szwego.com/imgHD/9d8f4332/20250824/cmp_i1756015439863_9773_0_7.jpg","https://xcimg.szwego.com/imgHD/9d8f4332/20250824/cmp_i1756015439867_4288_0_8.jpg"],"created_at":"2025-09-19T04:32:40.070Z"},{"id":"item-60a9de8eae52","sku":"_dtptpLefqz_AMREoF3b6O49Ggu4zR7kREFGqsCg","name_en":"Chanel Women Bags","name_cn":"香奈儿/女包","specs":{"source":"wsxcme","sourceId":"_dtptpLefqz_AMREoF3b6O49Ggu4zR7kREFGqsCg","sourceTagId":47002745,"sourceTagName":"香奈儿/女包","rawTitle":""},"price":null,"currency":"CNY","moq":1,"category":"chanel-women-bags","status":"active","alibaba_url":null,"images":["https://xcimg.szwego.com/img/d0c94e6f/20250823/i1755879951_7168_0.jpg"],"created_at":"2025-09-19T04:32:40.091Z"}],"page":267,"pageSize":24,"total":10075,"totalPages":420}
