{"items":[{"id":"item-7214ceadb081","sku":"_dd2d2_D1Akkxtoo-9QmS5f1XVZYo4QhsqhXPNng","name_en":"kelly2424 mini 21cm Evercolor/swift 强烈种草 年轻复古气息,不仅貌美,而且各种背法都可以轻松hold住(手提、单肩、斜挎、双肩),双肩带背法超实用,内容量很足。精致优雅又随性,每一种背法都能呈现出不同的风格。","name_cn":"kelly2424 mini 21cm Evercolor/swift 强烈种草 年轻复古气息,不仅貌美,而且各种背法都可以轻松hold住(手提、单肩、斜挎、双肩),双肩带背法超实用,内容量很足。精致优雅又随性,每一种背法都能呈现出不同的风格。","specs":{"source":"wsxcme","sourceId":"_dd2d2_D1Akkxtoo-9QmS5f1XVZYo4QhsqhXPNng","sourceTagId":76963559,"sourceTagName":"爱马仕/女包","rawTitle":"kelly2424 mini 21cm Evercolor/swift 强烈种草 年轻复古气息,不仅貌美,而且各种背法都可以轻松hold住(手提、单肩、斜挎、双肩),双肩带背法超实用,内容量很足。精致优雅又随性,每一种背法都能呈现出不同的风格。"},"price":null,"currency":"CNY","moq":1,"category":"hermes-women-bags","status":"active","alibaba_url":null,"images":["https://xcimg.szwego.com/20220915/i1663220890_7363_0.jpg","https://xcimg.szwego.com/20220915/i1663220890_9161_1.jpg","https://xcimg.szwego.com/20220915/i1663220890_1834_2.jpg","https://xcimg.szwego.com/20220915/i1663220890_4413_3.jpg","https://xcimg.szwego.com/20220915/i1663220890_2655_4.jpg"],"created_at":"2024-10-22T04:49:50.758Z"},{"id":"item-6e652fa84875","sku":"_dpfpf6S1JICvvPPKp4b_CM1_Nvvmsn4mtLJNn0g","name_en":"kelly2424 mini 21cm Evercolor/swift 强烈种草 年轻复古气息,不仅貌美,而且各种背法都可以轻松hold住(手提、单肩、斜挎、双肩),双肩带背法超实用,内容量很足。精致优雅又随性,每一种背法都能呈现出不同的风格。","name_cn":"kelly2424 mini 21cm Evercolor/swift 强烈种草 年轻复古气息,不仅貌美,而且各种背法都可以轻松hold住(手提、单肩、斜挎、双肩),双肩带背法超实用,内容量很足。精致优雅又随性,每一种背法都能呈现出不同的风格。","specs":{"source":"wsxcme","sourceId":"_dpfpf6S1JICvvPPKp4b_CM1_Nvvmsn4mtLJNn0g","sourceTagId":76963559,"sourceTagName":"爱马仕/女包","rawTitle":"kelly2424 mini 21cm Evercolor/swift 强烈种草 年轻复古气息,不仅貌美,而且各种背法都可以轻松hold住(手提、单肩、斜挎、双肩),双肩带背法超实用,内容量很足。精致优雅又随性,每一种背法都能呈现出不同的风格。"},"price":null,"currency":"CNY","moq":1,"category":"hermes-women-bags","status":"active","alibaba_url":null,"images":["https://xcimg.szwego.com/20220915/i1663223944_6511_0.jpg","https://xcimg.szwego.com/20220915/i1663223944_5476_1.jpg","https://xcimg.szwego.com/20220915/i1663223944_9236_2.jpg","https://xcimg.szwego.com/20220915/i1663223944_966_3.jpg","https://xcimg.szwego.com/20220915/i1663223944_4540_4.jpg"],"created_at":"2024-10-22T04:49:50.764Z"},{"id":"item-60f59946cc52","sku":"_dmvmveELrPhkEt9P9ECTgpQMA-xV44JFmP34wPA","name_en":"kelly2424 mini 21cm Evercolor/swift 强烈种草 年轻复古气息,不仅貌美,而且各种背法都可以轻松hold住(手提、单肩、斜挎、双肩),双肩带背法超实用,内容量很足。精致优雅又随性,每一种背法都能呈现出不同的风格。","name_cn":"kelly2424 mini 21cm Evercolor/swift 强烈种草 年轻复古气息,不仅貌美,而且各种背法都可以轻松hold住(手提、单肩、斜挎、双肩),双肩带背法超实用,内容量很足。精致优雅又随性,每一种背法都能呈现出不同的风格。","specs":{"source":"wsxcme","sourceId":"_dmvmveELrPhkEt9P9ECTgpQMA-xV44JFmP34wPA","sourceTagId":76963559,"sourceTagName":"爱马仕/女包","rawTitle":"kelly2424 mini 21cm Evercolor/swift 强烈种草 年轻复古气息,不仅貌美,而且各种背法都可以轻松hold住(手提、单肩、斜挎、双肩),双肩带背法超实用,内容量很足。精致优雅又随性,每一种背法都能呈现出不同的风格。"},"price":null,"currency":"CNY","moq":1,"category":"hermes-women-bags","status":"active","alibaba_url":null,"images":["https://xcimg.szwego.com/20220915/i1663220480_2183_0.jpg","https://xcimg.szwego.com/20220915/i1663220480_3447_1.jpg","https://xcimg.szwego.com/20220915/i1663220480_9014_2.jpg","https://xcimg.szwego.com/20220915/i1663220480_5377_3.jpg"],"created_at":"2024-10-22T04:49:50.752Z"},{"id":"item-5862f26c0bb4","sku":"_dnwnwCV-bGoaIiXmhpgFPdtx3L7tMXTzA_LcE0Q","name_en":"kelly2424 mini 21cm Evercolor/swift 强烈种草 年轻复古气息,不仅貌美,而且各种背法都可以轻松hold住(手提、单肩、斜挎、双肩),双肩带背法超实用,内容量很足。精致优雅又随性,每一种背法都能呈现出不同的风格。","name_cn":"kelly2424 mini 21cm Evercolor/swift 强烈种草 年轻复古气息,不仅貌美,而且各种背法都可以轻松hold住(手提、单肩、斜挎、双肩),双肩带背法超实用,内容量很足。精致优雅又随性,每一种背法都能呈现出不同的风格。","specs":{"source":"wsxcme","sourceId":"_dnwnwCV-bGoaIiXmhpgFPdtx3L7tMXTzA_LcE0Q","sourceTagId":76963559,"sourceTagName":"爱马仕/女包","rawTitle":"kelly2424 mini 21cm Evercolor/swift 强烈种草 年轻复古气息,不仅貌美,而且各种背法都可以轻松hold住(手提、单肩、斜挎、双肩),双肩带背法超实用,内容量很足。精致优雅又随性,每一种背法都能呈现出不同的风格。"},"price":null,"currency":"CNY","moq":1,"category":"hermes-women-bags","status":"active","alibaba_url":null,"images":["https://xcimg.szwego.com/20220915/i1663220242_7994_0.jpg","https://xcimg.szwego.com/20220915/i1663220242_1648_1.jpg","https://xcimg.szwego.com/20220915/i1663220242_1092_2.jpg","https://xcimg.szwego.com/20220915/i1663220242_375_3.jpg"],"created_at":"2024-10-22T04:49:50.749Z"},{"id":"item-4a439aef8572","sku":"_dYCYCmYHCFT14zIYW6neNcFZq5m_vveCCA5_A6g","name_en":"kelly2424 mini 21cm Evercolor/swift 强烈种草 年轻复古气息,不仅貌美,而且各种背法都可以轻松hold住(手提、单肩、斜挎、双肩),双肩带背法超实用,内容量很足。精致优雅又随性,每一种背法都能呈现出不同的风格。","name_cn":"kelly2424 mini 21cm Evercolor/swift 强烈种草 年轻复古气息,不仅貌美,而且各种背法都可以轻松hold住(手提、单肩、斜挎、双肩),双肩带背法超实用,内容量很足。精致优雅又随性,每一种背法都能呈现出不同的风格。","specs":{"source":"wsxcme","sourceId":"_dYCYCmYHCFT14zIYW6neNcFZq5m_vveCCA5_A6g","sourceTagId":76963559,"sourceTagName":"爱马仕/女包","rawTitle":"kelly2424 mini 21cm Evercolor/swift 强烈种草 年轻复古气息,不仅貌美,而且各种背法都可以轻松hold住(手提、单肩、斜挎、双肩),双肩带背法超实用,内容量很足。精致优雅又随性,每一种背法都能呈现出不同的风格。"},"price":null,"currency":"CNY","moq":1,"category":"hermes-women-bags","status":"active","alibaba_url":null,"images":["https://xcimg.szwego.com/20220915/i1663220724_6155_0.jpg","https://xcimg.szwego.com/20220915/i1663220724_2696_1.jpg","https://xcimg.szwego.com/20220915/i1663220724_7772_2.jpg","https://xcimg.szwego.com/20220915/i1663220724_4164_3.jpg"],"created_at":"2024-10-22T04:49:50.755Z"},{"id":"item-43436fe58d5a","sku":"_dKxKxloc1EuWpT2lKBPkVAfPwB7lZA7bs-8knxA","name_en":"kelly2424 mini 21cm Evercolor/swift 强烈种草 年轻复古气息,不仅貌美,而且各种背法都可以轻松hold住(手提、单肩、斜挎、双肩),双肩带背法超实用,内容量很足。精致优雅又随性,每一种背法都能呈现出不同的风格。","name_cn":"kelly2424 mini 21cm Evercolor/swift 强烈种草 年轻复古气息,不仅貌美,而且各种背法都可以轻松hold住(手提、单肩、斜挎、双肩),双肩带背法超实用,内容量很足。精致优雅又随性,每一种背法都能呈现出不同的风格。","specs":{"source":"wsxcme","sourceId":"_dKxKxloc1EuWpT2lKBPkVAfPwB7lZA7bs-8knxA","sourceTagId":76963559,"sourceTagName":"爱马仕/女包","rawTitle":"kelly2424 mini 21cm Evercolor/swift 强烈种草 年轻复古气息,不仅貌美,而且各种背法都可以轻松hold住(手提、单肩、斜挎、双肩),双肩带背法超实用,内容量很足。精致优雅又随性,每一种背法都能呈现出不同的风格。"},"price":null,"currency":"CNY","moq":1,"category":"hermes-women-bags","status":"active","alibaba_url":null,"images":["https://xcimg.szwego.com/20220915/i1663220358_1184_0.jpg","https://xcimg.szwego.com/20220915/i1663220358_7727_1.jpg","https://xcimg.szwego.com/20220915/i1663220358_3488_2.jpg","https://xcimg.szwego.com/20220915/i1663220358_4256_3.jpg"],"created_at":"2024-10-22T04:49:50.750Z"},{"id":"item-3023d9809f7c","sku":"_dFrFrnjboCU6_ttAu_rkAYC9enHic9dvbiRRa9Q","name_en":"kelly2424 mini 21cm Evercolor/swift 强烈种草 年轻复古气息,不仅貌美,而且各种背法都可以轻松hold住(手提、单肩、斜挎、双肩),双肩带背法超实用,内容量很足。精致优雅又随性,每一种背法都能呈现出不同的风格。","name_cn":"kelly2424 mini 21cm Evercolor/swift 强烈种草 年轻复古气息,不仅貌美,而且各种背法都可以轻松hold住(手提、单肩、斜挎、双肩),双肩带背法超实用,内容量很足。精致优雅又随性,每一种背法都能呈现出不同的风格。","specs":{"source":"wsxcme","sourceId":"_dFrFrnjboCU6_ttAu_rkAYC9enHic9dvbiRRa9Q","sourceTagId":76963559,"sourceTagName":"爱马仕/女包","rawTitle":"kelly2424 mini 21cm Evercolor/swift 强烈种草 年轻复古气息,不仅貌美,而且各种背法都可以轻松hold住(手提、单肩、斜挎、双肩),双肩带背法超实用,内容量很足。精致优雅又随性,每一种背法都能呈现出不同的风格。"},"price":null,"currency":"CNY","moq":1,"category":"hermes-women-bags","status":"active","alibaba_url":null,"images":["https://xcimg.szwego.com/20220915/i1663220785_3448_0.jpg","https://xcimg.szwego.com/20220915/i1663220785_1647_1.jpg","https://xcimg.szwego.com/20220915/i1663220785_7252_2.jpg","https://xcimg.szwego.com/20220915/i1663220785_887_3.jpg"],"created_at":"2024-10-22T04:49:50.756Z"},{"id":"item-1bd5f30ab4e7","sku":"_duDuDhIqpA652L5Ugwr50nRMleF0VQ8xyfmDqJw","name_en":"kelly2424 mini 21cm Evercolor/swift 强烈种草 年轻复古气息,不仅貌美,而且各种背法都可以轻松hold住(手提、单肩、斜挎、双肩),双肩带背法超实用,内容量很足。精致优雅又随性,每一种背法都能呈现出不同的风格。","name_cn":"kelly2424 mini 21cm Evercolor/swift 强烈种草 年轻复古气息,不仅貌美,而且各种背法都可以轻松hold住(手提、单肩、斜挎、双肩),双肩带背法超实用,内容量很足。精致优雅又随性,每一种背法都能呈现出不同的风格。","specs":{"source":"wsxcme","sourceId":"_duDuDhIqpA652L5Ugwr50nRMleF0VQ8xyfmDqJw","sourceTagId":76963559,"sourceTagName":"爱马仕/女包","rawTitle":"kelly2424 mini 21cm Evercolor/swift 强烈种草 年轻复古气息,不仅貌美,而且各种背法都可以轻松hold住(手提、单肩、斜挎、双肩),双肩带背法超实用,内容量很足。精致优雅又随性,每一种背法都能呈现出不同的风格。"},"price":null,"currency":"CNY","moq":1,"category":"hermes-women-bags","status":"active","alibaba_url":null,"images":["https://xcimg.szwego.com/20220915/i1663221169_7303_0.jpg","https://xcimg.szwego.com/20220915/i1663221169_3168_1.jpg","https://xcimg.szwego.com/20220915/i1663221169_7990_2.jpg","https://xcimg.szwego.com/20220915/i1663221169_9539_3.jpg"],"created_at":"2024-10-22T04:49:50.762Z"},{"id":"item-10cbed5e5514","sku":"_dktkt9CVPd34aK6YIX0IeQSZ-1sknRtdD9kmQXg","name_en":"kelly2424 mini 21cm Evercolor/swift 强烈种草 年轻复古气息,不仅貌美,而且各种背法都可以轻松hold住(手提、单肩、斜挎、双肩),双肩带背法超实用,内容量很足。精致优雅又随性,每一种背法都能呈现出不同的风格。","name_cn":"kelly2424 mini 21cm Evercolor/swift 强烈种草 年轻复古气息,不仅貌美,而且各种背法都可以轻松hold住(手提、单肩、斜挎、双肩),双肩带背法超实用,内容量很足。精致优雅又随性,每一种背法都能呈现出不同的风格。","specs":{"source":"wsxcme","sourceId":"_dktkt9CVPd34aK6YIX0IeQSZ-1sknRtdD9kmQXg","sourceTagId":76963559,"sourceTagName":"爱马仕/女包","rawTitle":"kelly2424 mini 21cm Evercolor/swift 强烈种草 年轻复古气息,不仅貌美,而且各种背法都可以轻松hold住(手提、单肩、斜挎、双肩),双肩带背法超实用,内容量很足。精致优雅又随性,每一种背法都能呈现出不同的风格。"},"price":null,"currency":"CNY","moq":1,"category":"hermes-women-bags","status":"active","alibaba_url":null,"images":["https://xcimg.szwego.com/20220915/i1663221261_3229_0.jpg","https://xcimg.szwego.com/20220915/i1663221261_711_1.jpg","https://xcimg.szwego.com/20220915/i1663221261_7090_2.jpg","https://xcimg.szwego.com/20220915/i1663221261_7052_3.jpg","https://xcimg.szwego.com/20220915/i1663221261_5764_4.jpg"],"created_at":"2024-10-22T04:49:50.763Z"},{"id":"item-0c6b17624ca5","sku":"_dD6D68do9HLrumOMo7JB7D71j8fohdbAFWtA34g","name_en":"kelly2424 mini 21cm Evercolor/swift 强烈种草 年轻复古气息,不仅貌美,而且各种背法都可以轻松hold住(手提、单肩、斜挎、双肩),双肩带背法超实用,内容量很足。精致优雅又随性,每一种背法都能呈现出不同的风格。","name_cn":"kelly2424 mini 21cm Evercolor/swift 强烈种草 年轻复古气息,不仅貌美,而且各种背法都可以轻松hold住(手提、单肩、斜挎、双肩),双肩带背法超实用,内容量很足。精致优雅又随性,每一种背法都能呈现出不同的风格。","specs":{"source":"wsxcme","sourceId":"_dD6D68do9HLrumOMo7JB7D71j8fohdbAFWtA34g","sourceTagId":76963559,"sourceTagName":"爱马仕/女包","rawTitle":"kelly2424 mini 21cm Evercolor/swift 强烈种草 年轻复古气息,不仅貌美,而且各种背法都可以轻松hold住(手提、单肩、斜挎、双肩),双肩带背法超实用,内容量很足。精致优雅又随性,每一种背法都能呈现出不同的风格。"},"price":null,"currency":"CNY","moq":1,"category":"hermes-women-bags","status":"active","alibaba_url":null,"images":["https://xcimg.szwego.com/20220915/i1663220839_9410_0.jpg","https://xcimg.szwego.com/20220915/i1663220839_4966_1.jpg","https://xcimg.szwego.com/20220915/i1663220839_9872_2.jpg","https://xcimg.szwego.com/20220915/i1663220839_1398_3.jpg"],"created_at":"2024-10-22T04:49:50.757Z"},{"id":"item-716c12c5fe21","sku":"_dISIS57HJgWpSTc5sgtEf8KN-nResdiyb24g-1A","name_en":"KK19美洲鳄黑金","name_cn":"KK19美洲鳄黑金\n美洲鳄鱼皮康康19cm\n全手缝蜡线 全钢五金  内里绵羊皮","specs":{"source":"wsxcme","sourceId":"_dISIS57HJgWpSTc5sgtEf8KN-nResdiyb24g-1A","sourceTagId":76963559,"sourceTagName":"爱马仕/女包","rawTitle":"KK19美洲鳄黑金\n美洲鳄鱼皮康康19cm\n全手缝蜡线 全钢五金  内里绵羊皮"},"price":null,"currency":"CNY","moq":1,"category":"hermes-women-bags","status":"active","alibaba_url":null,"images":["https://xcimg.szwego.com/img/9ee4266d/20240829/i1724922070_800_4.jpg","https://xcimg.szwego.com/img/9ee4266d/20240829/i1724922070_2204_6.jpg","https://xcimg.szwego.com/img/9ee4266d/20240829/i1724922070_1704_3.jpg","https://xcimg.szwego.com/img/9ee4266d/20240829/i1724922070_4139_1.jpg","https://xcimg.szwego.com/img/9ee4266d/20240829/i1724922070_6933_7.jpg","https://xcimg.szwego.com/img/9ee4266d/20240829/i1724922070_4278_8.jpg","https://xcimg.szwego.com/img/9ee4266d/20240829/i1724922070_5011_5.jpg","https://xcimg.szwego.com/img/9ee4266d/20240829/i1724922069_8155_0.jpg","https://xcimg.szwego.com/img/9ee4266d/20240829/i1724922081_7376_0.jpg"],"created_at":"2024-10-22T04:49:50.819Z"},{"id":"item-b1c2922ab83a","sku":"_diZiZIKBy6MH6U__rk4he8x6ajRhKtpKV0xSwpA","name_en":"KK19美洲鳄黑银","name_cn":"KK19美洲鳄黑银\n美洲鳄鱼皮康康19cm\n全手缝蜡线 全钢五金  内里绵羊皮","specs":{"source":"wsxcme","sourceId":"_diZiZIKBy6MH6U__rk4he8x6ajRhKtpKV0xSwpA","sourceTagId":76963559,"sourceTagName":"爱马仕/女包","rawTitle":"KK19美洲鳄黑银\n美洲鳄鱼皮康康19cm\n全手缝蜡线 全钢五金  内里绵羊皮"},"price":null,"currency":"CNY","moq":1,"category":"hermes-women-bags","status":"active","alibaba_url":null,"images":["https://xcimg.szwego.com/img/9ee4266d/20240829/i1724922023_7327_1.jpg","https://xcimg.szwego.com/img/9ee4266d/20240829/i1724922023_4956_8.jpg","https://xcimg.szwego.com/img/9ee4266d/20240829/i1724922023_9095_4.jpg","https://xcimg.szwego.com/img/9ee4266d/20240829/i1724922023_1448_6.jpg","https://xcimg.szwego.com/img/9ee4266d/20240829/i1724922023_6334_3.jpg","https://xcimg.szwego.com/img/9ee4266d/20240829/i1724922023_8496_0.jpg","https://xcimg.szwego.com/img/9ee4266d/20240829/i1724922023_926_2.jpg","https://xcimg.szwego.com/img/9ee4266d/20240829/i1724922023_7887_5.jpg","https://xcimg.szwego.com/img/9ee4266d/20240829/i1724922023_1733_7.jpg"],"created_at":"2024-10-22T04:49:50.818Z"},{"id":"item-e14d51a9f8bb","sku":"_dChChSVK1TwlZAwOZFKKkeZVgV6YMp5Wreu-MWQ","name_en":"kl25 colormatic","name_cn":"kl25 colormatic\n传统的kl背太多啦❗️需要给穿搭上添点新的花样了🤔️别小看它咯!背面还有一个小侧袋,小包包里有大乾坤☯️,放passport,美容卡,小卡包也是不错的呢😝","specs":{"source":"wsxcme","sourceId":"_dChChSVK1TwlZAwOZFKKkeZVgV6YMp5Wreu-MWQ","sourceTagId":76963559,"sourceTagName":"爱马仕/女包","rawTitle":"kl25 colormatic\n传统的kl背太多啦❗️需要给穿搭上添点新的花样了🤔️别小看它咯!背面还有一个小侧袋,小包包里有大乾坤☯️,放passport,美容卡,小卡包也是不错的呢😝"},"price":null,"currency":"CNY","moq":1,"category":"hermes-women-bags","status":"active","alibaba_url":null,"images":["https://xcimg.szwego.com/20220914/a1663165049465_5730.jpg","https://xcimg.szwego.com/20220914/a1663165049477_0847.jpg","https://xcimg.szwego.com/20220914/a1663165049554_7430.jpg","https://xcimg.szwego.com/20220914/a1663165049598_8678.jpg","https://xcimg.szwego.com/20220914/a1663165049603_2780.jpg","https://xcimg.szwego.com/20220914/a1663165049644_2587.jpg"],"created_at":"2024-10-22T05:00:12.207Z"},{"id":"item-7b278f1901e8","sku":"_dnpnpljaHJpnPI56KFBaLgh3wTRUKqMh_EPHKCA","name_en":"kl25 colormatic","name_cn":"kl25 colormatic\n传统的kl背太多啦❗️需要给穿搭上添点新的花样了🤔️别小看它咯!背面还有一个小侧袋,小包包里有大乾坤☯️,放passport,美容卡,小卡包也是不错的呢😝","specs":{"source":"wsxcme","sourceId":"_dnpnpljaHJpnPI56KFBaLgh3wTRUKqMh_EPHKCA","sourceTagId":76963559,"sourceTagName":"爱马仕/女包","rawTitle":"kl25 colormatic\n传统的kl背太多啦❗️需要给穿搭上添点新的花样了🤔️别小看它咯!背面还有一个小侧袋,小包包里有大乾坤☯️,放passport,美容卡,小卡包也是不错的呢😝"},"price":null,"currency":"CNY","moq":1,"category":"hermes-women-bags","status":"active","alibaba_url":null,"images":["https://xcimg.szwego.com/20220914/a1663164972784_8776.jpg","https://xcimg.szwego.com/20220914/a1663164972796_8515.jpg","https://xcimg.szwego.com/20220914/a1663164972803_6084.jpg","https://xcimg.szwego.com/20220914/a1663164972815_8610.jpg","https://xcimg.szwego.com/20220914/a1663164972869_6712.jpg","https://xcimg.szwego.com/20220914/a1663164972936_0647.jpg"],"created_at":"2024-10-22T05:00:12.206Z"},{"id":"item-3aeefcb9c930","sku":"_dRfRfTA7u1dTOLwWc-FHzTMVc6FrBYdFAzW7C5w","name_en":"kl25 colormatic","name_cn":"kl25 colormatic\n传统的kl背太多啦❗️需要给穿搭上添点新的花样了🤔️别小看它咯!背面还有一个小侧袋,小包包里有大乾坤☯️,放passport,美容卡,小卡包也是不错的呢😝","specs":{"source":"wsxcme","sourceId":"_dRfRfTA7u1dTOLwWc-FHzTMVc6FrBYdFAzW7C5w","sourceTagId":76963559,"sourceTagName":"爱马仕/女包","rawTitle":"kl25 colormatic\n传统的kl背太多啦❗️需要给穿搭上添点新的花样了🤔️别小看它咯!背面还有一个小侧袋,小包包里有大乾坤☯️,放passport,美容卡,小卡包也是不错的呢😝"},"price":null,"currency":"CNY","moq":1,"category":"hermes-women-bags","status":"active","alibaba_url":null,"images":["https://xcimg.szwego.com/20220914/a1663165088842_0031.jpg","https://xcimg.szwego.com/20220914/a1663165088869_5524.jpg","https://xcimg.szwego.com/20220914/a1663165088886_4276.jpg","https://xcimg.szwego.com/20220914/a1663165088894_6212.jpg","https://xcimg.szwego.com/20220914/a1663165088900_6084.jpg","https://xcimg.szwego.com/20220914/a1663165088906_4070.jpg"],"created_at":"2024-10-22T05:00:12.208Z"},{"id":"item-f7af570df2a9","sku":"_dHMHMweOgXJtZ6PVpIlqkGIRQ_dlGdRpmMMBaog","name_en":"KL25 touch","name_cn":"KL25 touch\nhaas原厂epsom拼高光鳄鱼皮\n全手缝蜡线 全钢五金 内里原版山羊皮","specs":{"source":"wsxcme","sourceId":"_dHMHMweOgXJtZ6PVpIlqkGIRQ_dlGdRpmMMBaog","sourceTagId":76963559,"sourceTagName":"爱马仕/女包","rawTitle":"KL25 touch\nhaas原厂epsom拼高光鳄鱼皮\n全手缝蜡线 全钢五金 内里原版山羊皮"},"price":null,"currency":"CNY","moq":1,"category":"hermes-women-bags","status":"active","alibaba_url":null,"images":["https://xcimg.szwego.com/img/9ee4266d/20240808/i1723087531_9522_0.jpg","https://xcimg.szwego.com/img/9ee4266d/20240808/i1723087531_8291_0.jpg","https://xcimg.szwego.com/img/9ee4266d/20240808/i1723087531_8812_0.jpg","https://xcimg.szwego.com/img/9ee4266d/20240808/i1723087531_1455_0.jpg","https://xcimg.szwego.com/img/9ee4266d/20240808/i1723087531_5516_0.jpg","https://xcimg.szwego.com/img/9ee4266d/20240808/i1723087531_8945_0.jpg","https://xcimg.szwego.com/img/9ee4266d/20240808/i1723087531_9310_0.jpg","https://xcimg.szwego.com/img/9ee4266d/20240808/i1723087531_112_0.jpg","https://xcimg.szwego.com/img/9ee4266d/20240808/i1723087531_2455_0.jpg","https://xcimg.szwego.com/img/9ee4266d/20240808/i1723087531_7608_0.jpg","https://xcimg.szwego.com/img/9ee4266d/20240808/i1723087531_5514_0.jpg"],"created_at":"2024-10-22T04:49:50.826Z"},{"id":"item-de7e5a6d069f","sku":"_dbHbHTzoOnmmoPtCu3IuZxdyDq69zBsLPpObYeQ","name_en":"KL25 touch","name_cn":"KL25 touch\nhaas原厂epsom拼高光鳄鱼皮\n全手缝蜡线 全钢五金 内里原版山羊皮","specs":{"source":"wsxcme","sourceId":"_dbHbHTzoOnmmoPtCu3IuZxdyDq69zBsLPpObYeQ","sourceTagId":76963559,"sourceTagName":"爱马仕/女包","rawTitle":"KL25 touch\nhaas原厂epsom拼高光鳄鱼皮\n全手缝蜡线 全钢五金 内里原版山羊皮"},"price":null,"currency":"CNY","moq":1,"category":"hermes-women-bags","status":"active","alibaba_url":null,"images":["https://xcimg.szwego.com/img/9ee4266d/20240808/i1723087232_6272_0.jpg","https://xcimg.szwego.com/img/9ee4266d/20240808/i1723087232_8507_0.jpg","https://xcimg.szwego.com/img/9ee4266d/20240808/i1723087232_361_0.jpg","https://xcimg.szwego.com/img/9ee4266d/20240808/i1723087232_138_0.jpg","https://xcimg.szwego.com/img/9ee4266d/20240808/i1723087232_1657_0.jpg","https://xcimg.szwego.com/img/9ee4266d/20240808/i1723087232_4961_0.jpg","https://xcimg.szwego.com/img/9ee4266d/20240808/i1723087232_5846_0.jpg","https://xcimg.szwego.com/img/9ee4266d/20240808/i1723087232_1355_0.jpg","https://xcimg.szwego.com/img/9ee4266d/20240808/i1723087232_8395_0.jpg","https://xcimg.szwego.com/img/9ee4266d/20240808/i1723087232_7416_0.jpg","https://xcimg.szwego.com/img/9ee4266d/20240808/i1723087232_2431_0.jpg"],"created_at":"2024-10-22T04:49:50.821Z"},{"id":"item-de4bfe5688e1","sku":"_doPoPpR4oXrBTpT-ZgE4sUzRp7ADE2VapLpzBoQ","name_en":"KL25 touch","name_cn":"KL25 touch\nhaas原厂epsom拼高光鳄鱼皮\n全手缝蜡线 全钢五金 内里原版山羊皮","specs":{"source":"wsxcme","sourceId":"_doPoPpR4oXrBTpT-ZgE4sUzRp7ADE2VapLpzBoQ","sourceTagId":76963559,"sourceTagName":"爱马仕/女包","rawTitle":"KL25 touch\nhaas原厂epsom拼高光鳄鱼皮\n全手缝蜡线 全钢五金 内里原版山羊皮"},"price":null,"currency":"CNY","moq":1,"category":"hermes-women-bags","status":"active","alibaba_url":null,"images":["https://xcimg.szwego.com/img/9ee4266d/20240808/i1723087170_8856_8.jpg","https://xcimg.szwego.com/img/9ee4266d/20240808/i1723087170_370_4.jpg","https://xcimg.szwego.com/img/9ee4266d/20240808/i1723087170_5075_3.jpg","https://xcimg.szwego.com/img/9ee4266d/20240808/i1723087170_393_6.jpg","https://xcimg.szwego.com/img/9ee4266d/20240808/i1723087170_6910_1.jpg","https://xcimg.szwego.com/img/9ee4266d/20240808/i1723087170_6629_11.jpg","https://xcimg.szwego.com/img/9ee4266d/20240808/i1723087170_8888_5.jpg","https://xcimg.szwego.com/img/9ee4266d/20240808/i1723087170_9623_10.jpg","https://xcimg.szwego.com/img/9ee4266d/20240808/i1723087170_1256_9.jpg","https://xcimg.szwego.com/img/9ee4266d/20240808/i1723087170_6981_2.jpg","https://xcimg.szwego.com/img/9ee4266d/20240808/i1723087170_7176_0.jpg","https://xcimg.szwego.com/img/9ee4266d/20240808/i1723087170_3546_7.jpg"],"created_at":"2024-10-22T04:49:50.820Z"},{"id":"item-db9136ad5ccf","sku":"_dozozaSIgaT27EvfMEf1qB90DOL92DSnsiysDSQ","name_en":"KL25 touch","name_cn":"KL25 touch\nhaas原厂epsom拼高光鳄鱼皮\n全手缝蜡线 全钢五金 内里原版山羊皮","specs":{"source":"wsxcme","sourceId":"_dozozaSIgaT27EvfMEf1qB90DOL92DSnsiysDSQ","sourceTagId":76963559,"sourceTagName":"爱马仕/女包","rawTitle":"KL25 touch\nhaas原厂epsom拼高光鳄鱼皮\n全手缝蜡线 全钢五金 内里原版山羊皮"},"price":null,"currency":"CNY","moq":1,"category":"hermes-women-bags","status":"active","alibaba_url":null,"images":["https://xcimg.szwego.com/img/9ee4266d/20240808/i1723087286_3373_0.jpg","https://xcimg.szwego.com/img/9ee4266d/20240808/i1723087287_1124_0.jpg","https://xcimg.szwego.com/img/9ee4266d/20240808/i1723087286_9527_0.jpg","https://xcimg.szwego.com/img/9ee4266d/20240808/i1723087286_8615_0.jpg","https://xcimg.szwego.com/img/9ee4266d/20240808/i1723087287_6545_0.jpg","https://xcimg.szwego.com/img/9ee4266d/20240808/i1723087286_9638_0.jpg","https://xcimg.szwego.com/img/9ee4266d/20240808/i1723087286_1553_0.jpg","https://xcimg.szwego.com/img/9ee4266d/20240808/i1723087286_3911_0.jpg","https://xcimg.szwego.com/img/9ee4266d/20240808/i1723087286_1153_0.jpg"],"created_at":"2024-10-22T04:49:50.822Z"},{"id":"item-7f03f3db22f9","sku":"_dNKNKm60Digx_FPVjGVZ0SnWwQViZH3H0pBKrcA","name_en":"KL25 touch","name_cn":"KL25 touch\nhaas原厂epsom拼高光鳄鱼皮\n全手缝蜡线 全钢五金 内里原版山羊皮","specs":{"source":"wsxcme","sourceId":"_dNKNKm60Digx_FPVjGVZ0SnWwQViZH3H0pBKrcA","sourceTagId":76963559,"sourceTagName":"爱马仕/女包","rawTitle":"KL25 touch\nhaas原厂epsom拼高光鳄鱼皮\n全手缝蜡线 全钢五金 内里原版山羊皮"},"price":null,"currency":"CNY","moq":1,"category":"hermes-women-bags","status":"active","alibaba_url":null,"images":["https://xcimg.szwego.com/img/9ee4266d/20240808/i1723087485_1158_0.jpg","https://xcimg.szwego.com/img/9ee4266d/20240808/i1723087485_1591_0.jpg","https://xcimg.szwego.com/img/9ee4266d/20240808/i1723087485_64_0.jpg","https://xcimg.szwego.com/img/9ee4266d/20240808/i1723087484_809_0.jpg","https://xcimg.szwego.com/img/9ee4266d/20240808/i1723087485_590_0.jpg","https://xcimg.szwego.com/img/9ee4266d/20240808/i1723087484_701_0.jpg","https://xcimg.szwego.com/img/9ee4266d/20240808/i1723087484_280_0.jpg","https://xcimg.szwego.com/img/9ee4266d/20240808/i1723087484_1620_0.jpg","https://xcimg.szwego.com/img/9ee4266d/20240808/i1723087485_693_0.jpg","https://xcimg.szwego.com/img/9ee4266d/20240808/i1723087485_8936_0.jpg","https://xcimg.szwego.com/img/9ee4266d/20240808/i1723087485_50_0.jpg"],"created_at":"2024-10-22T04:49:50.825Z"},{"id":"item-66dec0b84ec8","sku":"_dkBkBQp5QPaZcrY6rw1UUPjRIgfePg4GDPyAXvw","name_en":"KL25 touch","name_cn":"KL25 touch\nhaas原厂epsom拼高光鳄鱼皮\n全手缝蜡线 全钢五金 内里原版山羊皮","specs":{"source":"wsxcme","sourceId":"_dkBkBQp5QPaZcrY6rw1UUPjRIgfePg4GDPyAXvw","sourceTagId":76963559,"sourceTagName":"爱马仕/女包","rawTitle":"KL25 touch\nhaas原厂epsom拼高光鳄鱼皮\n全手缝蜡线 全钢五金 内里原版山羊皮"},"price":null,"currency":"CNY","moq":1,"category":"hermes-women-bags","status":"active","alibaba_url":null,"images":["https://xcimg.szwego.com/img/9ee4266d/20240808/i1723087379_7932_0.jpg","https://xcimg.szwego.com/img/9ee4266d/20240808/i1723087379_407_0.jpg","https://xcimg.szwego.com/img/9ee4266d/20240808/i1723087379_435_0.jpg","https://xcimg.szwego.com/img/9ee4266d/20240808/i1723087379_6791_0.jpg","https://xcimg.szwego.com/img/9ee4266d/20240808/i1723087379_8643_0.jpg","https://xcimg.szwego.com/img/9ee4266d/20240808/i1723087379_7764_0.jpg","https://xcimg.szwego.com/img/9ee4266d/20240808/i1723087379_8646_0.jpg","https://xcimg.szwego.com/img/9ee4266d/20240808/i1723087379_149_0.jpg","https://xcimg.szwego.com/img/9ee4266d/20240808/i1723087379_2450_0.jpg"],"created_at":"2024-10-22T04:49:50.823Z"},{"id":"item-33a82ab83647","sku":"_dWaWad-dqi0BDt-FXETAJxcuyvD9EPmO6ZEe-mw","name_en":"KL25 touch","name_cn":"KL25 touch\nhaas原厂epsom拼高光鳄鱼皮\n全手缝蜡线 全钢五金 内里原版山羊皮","specs":{"source":"wsxcme","sourceId":"_dWaWad-dqi0BDt-FXETAJxcuyvD9EPmO6ZEe-mw","sourceTagId":76963559,"sourceTagName":"爱马仕/女包","rawTitle":"KL25 touch\nhaas原厂epsom拼高光鳄鱼皮\n全手缝蜡线 全钢五金 内里原版山羊皮"},"price":null,"currency":"CNY","moq":1,"category":"hermes-women-bags","status":"active","alibaba_url":null,"images":["https://xcimg.szwego.com/img/9ee4266d/20240808/i1723087446_5534_0.jpg","https://xcimg.szwego.com/img/9ee4266d/20240808/i1723087446_5544_0.jpg","https://xcimg.szwego.com/img/9ee4266d/20240808/i1723087446_9283_0.jpg","https://xcimg.szwego.com/img/9ee4266d/20240808/i1723087446_3456_0.jpg","https://xcimg.szwego.com/img/9ee4266d/20240808/i1723087446_2607_0.jpg","https://xcimg.szwego.com/img/9ee4266d/20240808/i1723087446_2153_0.jpg","https://xcimg.szwego.com/img/9ee4266d/20240808/i1723087446_4932_0.jpg","https://xcimg.szwego.com/img/9ee4266d/20240808/i1723087446_5826_0.jpg","https://xcimg.szwego.com/img/9ee4266d/20240808/i1723087446_4104_0.jpg","https://xcimg.szwego.com/img/9ee4266d/20240808/i1723087446_1237_0.jpg"],"created_at":"2024-10-22T04:49:50.824Z"},{"id":"item-7b6b3753ab48","sku":"_dp7p76zsBES38WF06BBTJTXsNByGMpkC-2VR-iQ","name_en":"L⊚℮w℮🌟  小号缎面牛皮革Puzzle 手袋 到货👏","name_cn":"L⊚℮w℮🌟  小号缎面牛皮革Puzzle 手袋 到货👏\nL家🆕推出的首次亮相手提包*长方体形状和精确的切割技术创造了 Puzzle 独特的几何线条*这个小号版本采用缎面牛皮革制成 配有可拆卸Loe*we提花肩带 这款小号Puzzle可以容纳例如一只大号钱包,所有尺寸的手机和太阳镜, 肩背或斜挎*手拿或顶部提手携带*肩带可调节,可拆卸*拉链开合搭配牛皮革拉链头*外部拉链后袋和一个内部插袋 人字纹棉质帆布衬里Anagram 压纹🌟\nsize:24*10.5*16CM\n型号:262304","specs":{"source":"wsxcme","sourceId":"_dp7p76zsBES38WF06BBTJTXsNByGMpkC-2VR-iQ","sourceTagId":47002713,"sourceTagName":"罗意威/女包","modelNumber":"262304","rawTitle":"L⊚℮w℮🌟  小号缎面牛皮革Puzzle 手袋 到货👏\nL家🆕推出的首次亮相手提包*长方体形状和精确的切割技术创造了 Puzzle 独特的几何线条*这个小号版本采用缎面牛皮革制成 配有可拆卸Loe*we提花肩带 这款小号Puzzle可以容纳例如一只大号钱包,所有尺寸的手机和太阳镜, 肩背或斜挎*手拿或顶部提手携带*肩带可调节,可拆卸*拉链开合搭配牛皮革拉链头*外部拉链后袋和一个内部插袋 人字纹棉质帆布衬里Anagram 压纹🌟\nsize:24*10.5*16CM\n型号:262304"},"price":null,"currency":"CNY","moq":1,"category":"loewe-women-bags","status":"active","alibaba_url":null,"images":["https://xcimg.szwego.com/20230814/i1691948677_3346_0.jpg","https://xcimg.szwego.com/20230814/i1691948677_5097_1.jpg","https://xcimg.szwego.com/20230814/i1691948677_5782_2.jpg","https://xcimg.szwego.com/20230814/i1691948677_6229_3.jpg","https://xcimg.szwego.com/20230814/i1691948677_1319_4.jpg","https://xcimg.szwego.com/20230814/i1691948677_6564_5.jpg","https://xcimg.szwego.com/20230814/i1691948677_6214_6.jpg","https://xcimg.szwego.com/20230814/i1691948677_9929_7.jpg","https://xcimg.szwego.com/20230814/i1691948677_6160_8.jpg"],"created_at":"2025-02-10T14:06:11.332Z"},{"id":"item-14ad49d45fca","sku":"_dmSmSAxndrRiMiCF55qDL2HzNcJjj-cENieY2WA","name_en":"L⊚℮w℮🌟  小号缎面牛皮革Puzzle 手袋 到货👏","name_cn":"L⊚℮w℮🌟  小号缎面牛皮革Puzzle 手袋 到货👏\nL家🆕推出的首次亮相手提包*长方体形状和精确的切割技术创造了 Puzzle 独特的几何线条*这个小号版本采用缎面牛皮革制成 配有可拆卸Loe*we提花肩带 这款小号Puzzle可以容纳例如一只大号钱包,所有尺寸的手机和太阳镜, 肩背或斜挎*手拿或顶部提手携带*肩带可调节,可拆卸*拉链开合搭配牛皮革拉链头*外部拉链后袋和一个内部插袋 人字纹棉质帆布衬里Anagram 压纹🌟\nsize:24*10.5*16CM\n型号:262304","specs":{"source":"wsxcme","sourceId":"_dmSmSAxndrRiMiCF55qDL2HzNcJjj-cENieY2WA","sourceTagId":47002713,"sourceTagName":"罗意威/女包","modelNumber":"262304","rawTitle":"L⊚℮w℮🌟  小号缎面牛皮革Puzzle 手袋 到货👏\nL家🆕推出的首次亮相手提包*长方体形状和精确的切割技术创造了 Puzzle 独特的几何线条*这个小号版本采用缎面牛皮革制成 配有可拆卸Loe*we提花肩带 这款小号Puzzle可以容纳例如一只大号钱包,所有尺寸的手机和太阳镜, 肩背或斜挎*手拿或顶部提手携带*肩带可调节,可拆卸*拉链开合搭配牛皮革拉链头*外部拉链后袋和一个内部插袋 人字纹棉质帆布衬里Anagram 压纹🌟\nsize:24*10.5*16CM\n型号:262304"},"price":null,"currency":"CNY","moq":1,"category":"loewe-women-bags","status":"active","alibaba_url":null,"images":["https://xcimg.szwego.com/20230814/i1691949275_5759_0.jpg","https://xcimg.szwego.com/20230814/i1691949275_818_1.jpg","https://xcimg.szwego.com/20230814/i1691949275_5223_2.jpg","https://xcimg.szwego.com/20230814/i1691949275_6804_3.jpg","https://xcimg.szwego.com/20230814/i1691949275_6413_4.jpg","https://xcimg.szwego.com/20230814/i1691949275_3592_5.jpg","https://xcimg.szwego.com/20230814/i1691949275_2793_6.jpg","https://xcimg.szwego.com/20230814/i1691949275_4126_7.jpg","https://xcimg.szwego.com/20230814/i1691949275_5033_8.jpg"],"created_at":"2025-02-10T14:06:11.333Z"}],"page":330,"pageSize":24,"total":10075,"totalPages":420}
