{"items":[{"id":"item-40201d57547a","sku":"_dM1M1ZKEp8p53q7OiSi7qtI2f8b6L2E37Dkx5tw","name_en":"『Celine 赛琳』","name_cn":"『Celine 赛琳』\n\n🇦🇴【海外原单】🛍🎁新款TRIOMPHE 标志印花链条包\n黄褐色\n20500 CNY\n13 X 5 X 2英寸(33 X 13 X 5厘米)\nTRIOMPHE CANVAS标志印花\n羊皮革衬里\n肩背\nTRIOMPHE 金属质感锁扣\n内侧扁平口袋\n翻盖下方设扁平口袋\n链条手挽长12英寸(30厘米)\n编号:197412DQW.04LU","specs":{"source":"wsxcme","sourceId":"_dM1M1ZKEp8p53q7OiSi7qtI2f8b6L2E37Dkx5tw","sourceTagId":47003106,"sourceTagName":"塞琳/女包","rawTitle":"『Celine 赛琳』\n\n🇦🇴【海外原单】🛍🎁新款TRIOMPHE 标志印花链条包\n黄褐色\n20500 CNY\n13 X 5 X 2英寸(33 X 13 X 5厘米)\nTRIOMPHE CANVAS标志印花\n羊皮革衬里\n肩背\nTRIOMPHE 金属质感锁扣\n内侧扁平口袋\n翻盖下方设扁平口袋\n链条手挽长12英寸(30厘米)\n编号:197412DQW.04LU"},"price":null,"currency":"CNY","moq":1,"category":"celine-women-bags","status":"active","alibaba_url":null,"images":["https://xcimg.szwego.com/20220501/i1651385400_2755_0.jpg","https://xcimg.szwego.com/20220501/i1651385400_105_1.jpg","https://xcimg.szwego.com/20220501/i1651385400_9801_2.jpg","https://xcimg.szwego.com/20220501/i1651385400_6198_3.jpg","https://xcimg.szwego.com/20220501/i1651385400_5572_4.jpg","https://xcimg.szwego.com/20220501/i1651385400_8505_5.jpg","https://xcimg.szwego.com/20220501/i1651385400_3817_6.jpg","https://xcimg.szwego.com/20220501/i1651385400_7678_7.jpg","https://xcimg.szwego.com/20220501/i1651385400_9484_8.jpg"],"created_at":"2025-02-08T12:47:23.791Z"},{"id":"item-3f3afdf4f76a","sku":"_dnmnmbBKjGNunp23u-MGUW_WaR-uTDSyeiVUQQA","name_en":"『Celine 赛琳』","name_cn":"『Celine 赛琳』\n\nCe.line 春夏新品Folco白色涂层帆布马鞍包 延续凯旋门 复古斜挎  耐看经典印花一点都不老套。\n尺寸:18x16x10cm\n型号:2179#","specs":{"source":"wsxcme","sourceId":"_dnmnmbBKjGNunp23u-MGUW_WaR-uTDSyeiVUQQA","sourceTagId":47003106,"sourceTagName":"塞琳/女包","modelNumber":"2179#","dimensions":{"lengthCm":18,"heightCm":16,"widthCm":10},"rawTitle":"『Celine 赛琳』\n\nCe.line 春夏新品Folco白色涂层帆布马鞍包 延续凯旋门 复古斜挎  耐看经典印花一点都不老套。\n尺寸:18x16x10cm\n型号:2179#"},"price":null,"currency":"CNY","moq":1,"category":"celine-women-bags","status":"active","alibaba_url":null,"images":["https://xcimg.szwego.com/20220224/i1645679218_7663_0.jpg","https://xcimg.szwego.com/20220224/i1645679218_667_1.jpg","https://xcimg.szwego.com/20220224/i1645679218_6374_2.jpg","https://xcimg.szwego.com/20220224/i1645679218_2908_3.jpg","https://xcimg.szwego.com/20220224/i1645679218_4766_4.jpg","https://xcimg.szwego.com/20220224/i1645679218_103_5.jpg","https://xcimg.szwego.com/20220224/i1645679218_9096_6.jpg","https://xcimg.szwego.com/20220224/i1645679218_5806_7.jpg","https://xcimg.szwego.com/20220224/i1645679218_7219_8.jpg"],"created_at":"2025-02-08T12:47:00.791Z"},{"id":"item-3ee5ae53f9f9","sku":"_djIjIeSfrcPuvQzn9EvdB39lTpcdAx821qMh5qA","name_en":"『Celine 赛琳』","name_cn":"『Celine 赛琳』\n\n经典CABAS TRIOMPHE \n白花MiNi号竖款手袋🛍 65%涂层帆布,\n35%小牛皮,100%棉衬里,内侧插袋,  \n可调节可拆卸皮革肩带,\n尺寸:20cm X 17cm X 6cm   \n型号:2200#","specs":{"source":"wsxcme","sourceId":"_djIjIeSfrcPuvQzn9EvdB39lTpcdAx821qMh5qA","sourceTagId":47003106,"sourceTagName":"塞琳/女包","modelNumber":"2200#","rawTitle":"『Celine 赛琳』\n\n经典CABAS TRIOMPHE \n白花MiNi号竖款手袋🛍 65%涂层帆布,\n35%小牛皮,100%棉衬里,内侧插袋,  \n可调节可拆卸皮革肩带,\n尺寸:20cm X 17cm X 6cm   \n型号:2200#"},"price":null,"currency":"CNY","moq":1,"category":"celine-women-bags","status":"active","alibaba_url":null,"images":["https://xcimg.szwego.com/20220504/i1651635268_3369_0.jpg","https://xcimg.szwego.com/20220504/i1651635268_6483_1.jpg","https://xcimg.szwego.com/20220504/i1651635268_1246_2.jpg","https://xcimg.szwego.com/20220504/i1651635268_8196_3.jpg","https://xcimg.szwego.com/20220504/i1651635268_6642_4.jpg","https://xcimg.szwego.com/20220504/i1651635268_8022_5.jpg","https://xcimg.szwego.com/20220504/i1651635268_7319_6.jpg","https://xcimg.szwego.com/20220504/i1651635268_5400_7.jpg","https://xcimg.szwego.com/20220504/i1651635268_2859_8.jpg"],"created_at":"2025-02-08T12:47:00.793Z"},{"id":"item-3e307d43b70b","sku":"_dAGAGIwJOW2XqVzNtso16RrQAddCmsu4FrtW1EA","name_en":"『Celine 赛琳』","name_cn":"『Celine 赛琳』\n\nbox24cm  墨绿色\n\n经典款一直不过时💥\n头层牛皮配定制五金\n内侧拉链口袋和双层扁平口袋\n非常有质感的一款包🛍\n尺寸:24×18×7cm","specs":{"source":"wsxcme","sourceId":"_dAGAGIwJOW2XqVzNtso16RrQAddCmsu4FrtW1EA","sourceTagId":47003106,"sourceTagName":"塞琳/女包","dimensions":{"lengthCm":24,"heightCm":18,"widthCm":7},"rawTitle":"『Celine 赛琳』\n\nbox24cm  墨绿色\n\n经典款一直不过时💥\n头层牛皮配定制五金\n内侧拉链口袋和双层扁平口袋\n非常有质感的一款包🛍\n尺寸:24×18×7cm"},"price":null,"currency":"CNY","moq":1,"category":"celine-women-bags","status":"active","alibaba_url":null,"images":["https://xcimg.szwego.com/20201130/i1606723371_8406_0.jpg","https://xcimg.szwego.com/20201130/i1606723371_2547_1.jpg","https://xcimg.szwego.com/20201130/i1606723371_8606_2.jpg","https://xcimg.szwego.com/20201130/i1606723371_9984_3.jpg","https://xcimg.szwego.com/20201130/i1606723371_4557_4.jpg","https://xcimg.szwego.com/20201130/i1606723371_8877_5.jpg","https://xcimg.szwego.com/20201130/i1606723371_2480_6.jpg","https://xcimg.szwego.com/20201130/i1606723371_6495_7.jpg","https://xcimg.szwego.com/20201130/i1606723371_5287_8.jpg"],"created_at":"2025-02-08T12:47:15.860Z"},{"id":"item-3d5117d2089e","sku":"_dLGLG4X4h3T-mlGQoJ7huFmD6oxvWejCPqY73ag","name_en":"『Celine 赛琳』","name_cn":"『Celine 赛琳』\n\nCELINE新品🎋 TRIOMPHE凯旋门上线|皮扣链条腋下包,原厂牛皮制作,内侧扁平口袋,超有质感。立体皮扣浮雕凯旋门、链条的质感让整个包感觉更奢侈高调,气质永远在线 不同款式诠释不同风格!时髦精的必备款!!️\n尺寸:20.5 X 10.5 X 4cm \n型号:2210#","specs":{"source":"wsxcme","sourceId":"_dLGLG4X4h3T-mlGQoJ7huFmD6oxvWejCPqY73ag","sourceTagId":47003106,"sourceTagName":"塞琳/女包","modelNumber":"2210#","dimensions":{"lengthCm":20.5,"heightCm":10.5,"widthCm":4},"rawTitle":"『Celine 赛琳』\n\nCELINE新品🎋 TRIOMPHE凯旋门上线|皮扣链条腋下包,原厂牛皮制作,内侧扁平口袋,超有质感。立体皮扣浮雕凯旋门、链条的质感让整个包感觉更奢侈高调,气质永远在线 不同款式诠释不同风格!时髦精的必备款!!️\n尺寸:20.5 X 10.5 X 4cm \n型号:2210#"},"price":null,"currency":"CNY","moq":1,"category":"celine-women-bags","status":"active","alibaba_url":null,"images":["https://xcimg.szwego.com/20220508/i1651944914_7708_0.jpg","https://xcimg.szwego.com/20220508/i1651944914_5772_1.jpg","https://xcimg.szwego.com/20220508/i1651944914_8701_2.jpg","https://xcimg.szwego.com/20220508/i1651944914_9112_3.jpg","https://xcimg.szwego.com/20220508/i1651944914_7742_4.jpg","https://xcimg.szwego.com/20220508/i1651944914_4309_5.jpg","https://xcimg.szwego.com/20220508/i1651944914_1323_6.jpg","https://xcimg.szwego.com/20220508/i1651944914_3016_7.jpg","https://xcimg.szwego.com/20220508/i1651944914_3232_8.jpg"],"created_at":"2025-02-08T12:47:00.871Z"},{"id":"item-3c726f073e1c","sku":"_dDKDKQ-1mjKalyhGip27KLorE_Qjze2jZ5vwrnw","name_en":"『Celine 赛琳』","name_cn":"『Celine 赛琳』\n\nbox18.5cm 黑色\n\n专柜最新尺寸teen💥\n头层牛皮配定制五金\n内里两层\n内侧有扁平口袋✅\n尺寸:18.5×15.5×6cm","specs":{"source":"wsxcme","sourceId":"_dDKDKQ-1mjKalyhGip27KLorE_Qjze2jZ5vwrnw","sourceTagId":47003106,"sourceTagName":"塞琳/女包","dimensions":{"lengthCm":18.5,"heightCm":15.5,"widthCm":6},"rawTitle":"『Celine 赛琳』\n\nbox18.5cm 黑色\n\n专柜最新尺寸teen💥\n头层牛皮配定制五金\n内里两层\n内侧有扁平口袋✅\n尺寸:18.5×15.5×6cm"},"price":null,"currency":"CNY","moq":1,"category":"celine-women-bags","status":"active","alibaba_url":null,"images":["https://xcimg.szwego.com/20201126/i1606378058_6555_0.jpg","https://xcimg.szwego.com/20201126/i1606378058_6585_1.jpg","https://xcimg.szwego.com/20201126/i1606378058_3550_2.jpg","https://xcimg.szwego.com/20201126/i1606378058_8390_3.jpg","https://xcimg.szwego.com/20201126/i1606378058_2251_4.jpg","https://xcimg.szwego.com/20201126/i1606378058_1038_5.jpg","https://xcimg.szwego.com/20201126/i1606378058_9659_6.jpg","https://xcimg.szwego.com/20201126/i1606378058_2679_7.jpg","https://xcimg.szwego.com/20201126/i1606378058_799_8.jpg"],"created_at":"2025-02-08T12:47:00.785Z"},{"id":"item-3ae3b0ed0cd1","sku":"_dnhnh3QulA3uVaHYZoNPd9nFR4NfZk0-ZfBT6Cw","name_en":"『Celine 赛琳』","name_cn":"『Celine 赛琳』\n\nCe.line 春夏新品Folco白色涂层帆布马鞍包 延续凯旋门 复古斜挎  耐看经典印花一点都不老套。\n尺寸:18x16x10cm\n型号:2179#","specs":{"source":"wsxcme","sourceId":"_dnhnh3QulA3uVaHYZoNPd9nFR4NfZk0-ZfBT6Cw","sourceTagId":47003106,"sourceTagName":"塞琳/女包","modelNumber":"2179#","dimensions":{"lengthCm":18,"heightCm":16,"widthCm":10},"rawTitle":"『Celine 赛琳』\n\nCe.line 春夏新品Folco白色涂层帆布马鞍包 延续凯旋门 复古斜挎  耐看经典印花一点都不老套。\n尺寸:18x16x10cm\n型号:2179#"},"price":null,"currency":"CNY","moq":1,"category":"celine-women-bags","status":"active","alibaba_url":null,"images":["https://xcimg.szwego.com/20220224/i1645679218_7663_0.jpg","https://xcimg.szwego.com/20220224/i1645679218_667_1.jpg","https://xcimg.szwego.com/20220224/i1645679218_6374_2.jpg","https://xcimg.szwego.com/20220224/i1645679218_2908_3.jpg","https://xcimg.szwego.com/20220224/i1645679218_4766_4.jpg","https://xcimg.szwego.com/20220224/i1645679218_103_5.jpg","https://xcimg.szwego.com/20220224/i1645679218_9096_6.jpg","https://xcimg.szwego.com/20220224/i1645679218_5806_7.jpg","https://xcimg.szwego.com/20220224/i1645679218_7219_8.jpg"],"created_at":"2025-02-08T12:47:23.796Z"},{"id":"item-3aa3bc1c282c","sku":"_dsvsvGvNWUD2xd71HH9Ndek3A57dDVaMWLnJ8mA","name_en":"『Celine 赛琳』","name_cn":"『Celine 赛琳』\n\nCELI.NE贝壳包 TRIOMPHE帆布相机包  64%涂层帆布,36%小牛皮 可斜挎和肩背 拉链锁闭 可调节皮革肩带长20英寸(50厘米)\n尺寸:20 X 15 X 5cm\n型号:3189#","specs":{"source":"wsxcme","sourceId":"_dsvsvGvNWUD2xd71HH9Ndek3A57dDVaMWLnJ8mA","sourceTagId":47003106,"sourceTagName":"塞琳/女包","modelNumber":"3189#","dimensions":{"lengthCm":20,"heightCm":15,"widthCm":5},"rawTitle":"『Celine 赛琳』\n\nCELI.NE贝壳包 TRIOMPHE帆布相机包  64%涂层帆布,36%小牛皮 可斜挎和肩背 拉链锁闭 可调节皮革肩带长20英寸(50厘米)\n尺寸:20 X 15 X 5cm\n型号:3189#"},"price":null,"currency":"CNY","moq":1,"category":"celine-women-bags","status":"active","alibaba_url":null,"images":["https://xcimg.szwego.com/20220422/i1650601951_1683_0.jpg","https://xcimg.szwego.com/20220422/i1650601951_2083_1.jpg","https://xcimg.szwego.com/20220422/i1650601951_9653_2.jpg","https://xcimg.szwego.com/20220422/i1650601951_7059_3.jpg","https://xcimg.szwego.com/20220422/i1650601951_2523_4.jpg","https://xcimg.szwego.com/20220422/i1650601951_612_5.jpg","https://xcimg.szwego.com/20220422/i1650601951_9806_6.jpg","https://xcimg.szwego.com/20220422/i1650601951_7737_7.jpg","https://xcimg.szwego.com/20220422/i1650601951_984_8.jpg"],"created_at":"2025-02-08T12:47:23.800Z"},{"id":"item-39d8a617b194","sku":"_dtItIJBKqqgMKlshOxeDi_QoCWvGHElIiupO4Cw","name_en":"『Celine 赛琳』","name_cn":"『Celine 赛琳』\n\n22早春新款\n凯旋门老花mini 双肩包\n复古小巧 实用性设计 \n肩带长度可调节 容量满满 \n减龄青春又文气 \n自在的复古少女感\n尺寸:19×22*8cm","specs":{"source":"wsxcme","sourceId":"_dtItIJBKqqgMKlshOxeDi_QoCWvGHElIiupO4Cw","sourceTagId":47003106,"sourceTagName":"塞琳/女包","dimensions":{"lengthCm":19,"heightCm":22,"widthCm":8},"rawTitle":"『Celine 赛琳』\n\n22早春新款\n凯旋门老花mini 双肩包\n复古小巧 实用性设计 \n肩带长度可调节 容量满满 \n减龄青春又文气 \n自在的复古少女感\n尺寸:19×22*8cm"},"price":null,"currency":"CNY","moq":1,"category":"celine-women-bags","status":"active","alibaba_url":null,"images":["https://xcimg.szwego.com/20211202/i1638425290_3274_0.jpg","https://xcimg.szwego.com/20211202/i1638425303_1291_0.jpg","https://xcimg.szwego.com/20211202/i1638425313_9352_0.jpg","https://xcimg.szwego.com/20211202/i1638425118_5984_3.jpg","https://xcimg.szwego.com/20211202/i1638425359_9137_0.jpg","https://xcimg.szwego.com/20211202/i1638425118_5409_6.jpg","https://xcimg.szwego.com/20211202/i1638425325_9279_0.jpg","https://xcimg.szwego.com/20211202/i1638425118_2748_4.jpg","https://xcimg.szwego.com/20211202/i1638425118_5883_5.jpg"],"created_at":"2025-02-08T12:47:15.824Z"},{"id":"item-391ca2a68de2","sku":"_dCWCWBdDShcD5hKkL86F3Wdo0Sfgf_KQrFnZPCg","name_en":"『Celine 赛琳』","name_cn":"『Celine 赛琳』\n\nCELINE新品🎋 TRIOMPHE凯旋门上线|皮扣链条腋下包,原厂牛皮制作,内侧扁平口袋,超有质感。立体皮扣浮雕凯旋门、链条的质感让整个包感觉更奢侈高调,气质永远在线 不同款式诠释不同风格!时髦精的必备款!!️\n尺寸:20.5 X 10.5 X 4cm \n型号:2210#","specs":{"source":"wsxcme","sourceId":"_dCWCWBdDShcD5hKkL86F3Wdo0Sfgf_KQrFnZPCg","sourceTagId":47003106,"sourceTagName":"塞琳/女包","modelNumber":"2210#","dimensions":{"lengthCm":20.5,"heightCm":10.5,"widthCm":4},"rawTitle":"『Celine 赛琳』\n\nCELINE新品🎋 TRIOMPHE凯旋门上线|皮扣链条腋下包,原厂牛皮制作,内侧扁平口袋,超有质感。立体皮扣浮雕凯旋门、链条的质感让整个包感觉更奢侈高调,气质永远在线 不同款式诠释不同风格!时髦精的必备款!!️\n尺寸:20.5 X 10.5 X 4cm \n型号:2210#"},"price":null,"currency":"CNY","moq":1,"category":"celine-women-bags","status":"active","alibaba_url":null,"images":["https://xcimg.szwego.com/20220508/i1651944966_4295_0.jpg","https://xcimg.szwego.com/20220508/i1651944966_8473_1.jpg","https://xcimg.szwego.com/20220508/i1651944966_5883_2.jpg","https://xcimg.szwego.com/20220508/i1651944966_2175_3.jpg","https://xcimg.szwego.com/20220508/i1651944966_7931_4.jpg","https://xcimg.szwego.com/20220508/i1651944966_4170_5.jpg","https://xcimg.szwego.com/20220508/i1651944966_3691_6.jpg","https://xcimg.szwego.com/20220508/i1651944966_3467_7.jpg","https://xcimg.szwego.com/20220508/i1651944966_3935_8.jpg"],"created_at":"2025-02-08T12:47:00.872Z"},{"id":"item-36ecbd054aab","sku":"_d9B9BdZaqBSv9jp2izzJrNivq4YDD-1V7pEktnw","name_en":"『Celine 赛琳』","name_cn":"『Celine 赛琳』\n\nCEL.IN新品|FOLCO TRIOMPHE CANVAS🎒迷你小背包,小小的超可️爱~\nTRIOMPHE CANVAS标志印花\n牛皮革包边,织物面料衬里,可手提,手柄长度 (8 厘米)\n尺寸:17 X 20 X 10cm\n型号:1159#","specs":{"source":"wsxcme","sourceId":"_d9B9BdZaqBSv9jp2izzJrNivq4YDD-1V7pEktnw","sourceTagId":47003106,"sourceTagName":"塞琳/女包","modelNumber":"1159#","dimensions":{"lengthCm":17,"heightCm":20,"widthCm":10},"rawTitle":"『Celine 赛琳』\n\nCEL.IN新品|FOLCO TRIOMPHE CANVAS🎒迷你小背包,小小的超可️爱~\nTRIOMPHE CANVAS标志印花\n牛皮革包边,织物面料衬里,可手提,手柄长度 (8 厘米)\n尺寸:17 X 20 X 10cm\n型号:1159#"},"price":null,"currency":"CNY","moq":1,"category":"celine-women-bags","status":"active","alibaba_url":null,"images":["https://xcimg.szwego.com/20220408/i1649390946_5051_0.jpg","https://xcimg.szwego.com/20220408/i1649390946_319_1.jpg","https://xcimg.szwego.com/20220408/i1649390946_7622_2.jpg","https://xcimg.szwego.com/20220408/i1649390946_6950_3.jpg","https://xcimg.szwego.com/20220408/i1649390946_3354_4.jpg","https://xcimg.szwego.com/20220408/i1649390946_5650_5.jpg","https://xcimg.szwego.com/20220408/i1649390946_2860_6.jpg","https://xcimg.szwego.com/20220408/i1649390946_1656_7.jpg","https://xcimg.szwego.com/20220408/i1649390946_2348_8.jpg"],"created_at":"2025-02-08T12:47:00.848Z"},{"id":"item-36c8ca25e15b","sku":"_d8x8xsArdOm8kJiRvZgro_l7c1gFvR602aJ4THQ","name_en":"『Celine 赛琳』","name_cn":"『Celine 赛琳』\n\n🎀品牌:Celine  10783 链条可拆卸\n🎀颜色:  艳粉\n🎀尺寸:11*10*5\n🎀说明:    Celine凯旋门非常炫美的一个系列,专柜同步,采用头层牛皮,精致时尚!可以单肩背,也可做钱包使用,凹造型必备!","specs":{"source":"wsxcme","sourceId":"_d8x8xsArdOm8kJiRvZgro_l7c1gFvR602aJ4THQ","sourceTagId":47003106,"sourceTagName":"塞琳/女包","rawTitle":"『Celine 赛琳』\n\n🎀品牌:Celine  10783 链条可拆卸\n🎀颜色:  艳粉\n🎀尺寸:11*10*5\n🎀说明:    Celine凯旋门非常炫美的一个系列,专柜同步,采用头层牛皮,精致时尚!可以单肩背,也可做钱包使用,凹造型必备!"},"price":null,"currency":"CNY","moq":1,"category":"celine-women-bags","status":"active","alibaba_url":null,"images":["https://xcimg.szwego.com/20220627/i1656323559_8781_0.jpg","https://xcimg.szwego.com/20220627/i1656323559_963_1.jpg","https://xcimg.szwego.com/20220627/i1656323559_443_2.jpg","https://xcimg.szwego.com/20220627/i1656323559_7943_3.jpg","https://xcimg.szwego.com/20220627/i1656323559_8102_4.jpg","https://xcimg.szwego.com/20220627/i1656323559_9375_5.jpg","https://xcimg.szwego.com/20220627/i1656323559_4870_6.jpg","https://xcimg.szwego.com/20220627/i1656323559_9634_7.jpg","https://xcimg.szwego.com/20220627/i1656323559_247_8.jpg"],"created_at":"2025-02-08T12:47:23.812Z"},{"id":"item-365315735f87","sku":"_dElElEhfsgqwDdtZ4rZjeAB8NpAv0M9FwqOO0HA","name_en":"『Celine 赛琳』","name_cn":"『Celine 赛琳』\n\n新款 圆筒包 出 经典老花印花单肩斜挎包  男女通用哦 老花棕色 肩带可调节长短 尺寸 :23 13cm","specs":{"source":"wsxcme","sourceId":"_dElElEhfsgqwDdtZ4rZjeAB8NpAv0M9FwqOO0HA","sourceTagId":47003106,"sourceTagName":"塞琳/女包","rawTitle":"『Celine 赛琳』\n\n新款 圆筒包 出 经典老花印花单肩斜挎包  男女通用哦 老花棕色 肩带可调节长短 尺寸 :23 13cm"},"price":null,"currency":"CNY","moq":1,"category":"celine-women-bags","status":"active","alibaba_url":null,"images":["https://xcimg.szwego.com/20220706/i1657088357_8475_0.jpg","https://xcimg.szwego.com/20220706/i1657088357_9204_1.jpg","https://xcimg.szwego.com/20220706/i1657088357_608_2.jpg","https://xcimg.szwego.com/20220706/i1657088357_3056_3.jpg","https://xcimg.szwego.com/20220706/i1657088357_3545_5.jpg","https://xcimg.szwego.com/20220706/i1657088357_2011_6.jpg","https://xcimg.szwego.com/20220706/i1657088357_4569_7.jpg","https://xcimg.szwego.com/20220706/i1657088357_9915_8.jpg"],"created_at":"2025-02-08T12:47:00.826Z"},{"id":"item-333eb29d2c84","sku":"_dK1K1PWEy-B8EPS39pT4kx6TIJG5Ojkh5drAonA","name_en":"『Celine 赛琳』","name_cn":"『Celine 赛琳』\n\nbox18.5cm 酒红色\n\n专柜最新尺寸teen💥\n头层牛皮配定制五金\n内里两层\n内侧有扁平口袋✅\n尺寸:18.5×15.5×6cm","specs":{"source":"wsxcme","sourceId":"_dK1K1PWEy-B8EPS39pT4kx6TIJG5Ojkh5drAonA","sourceTagId":47003106,"sourceTagName":"塞琳/女包","dimensions":{"lengthCm":18.5,"heightCm":15.5,"widthCm":6},"rawTitle":"『Celine 赛琳』\n\nbox18.5cm 酒红色\n\n专柜最新尺寸teen💥\n头层牛皮配定制五金\n内里两层\n内侧有扁平口袋✅\n尺寸:18.5×15.5×6cm"},"price":null,"currency":"CNY","moq":1,"category":"celine-women-bags","status":"active","alibaba_url":null,"images":["https://xcimg.szwego.com/20201126/i1606377680_6871_0.jpg","https://xcimg.szwego.com/20201126/i1606377680_3214_1.jpg","https://xcimg.szwego.com/20201126/i1606377680_654_2.jpg","https://xcimg.szwego.com/20201126/i1606377680_6319_3.jpg","https://xcimg.szwego.com/20201126/i1606377680_8384_4.jpg","https://xcimg.szwego.com/20201126/i1606377680_7313_5.jpg","https://xcimg.szwego.com/20201126/i1606377680_1205_6.jpg","https://xcimg.szwego.com/20201126/i1606377680_1421_7.jpg","https://xcimg.szwego.com/20201126/i1606377680_9866_8.jpg"],"created_at":"2025-02-08T12:47:00.787Z"},{"id":"item-2fd75d83224d","sku":"_dpCpC5tZQSOIHDszYi_Ng6CXeq3bAdNWghPcT1Q","name_en":"『Celine 赛琳』","name_cn":"『Celine 赛琳』\n\nCELINE ♥ TRIOMPHE SHOULDER BAG\n感觉这两年Celine是不是打开了任督二脉!出的包是越来越绝了!新款凯旋门腋下包简直惊喜爆棚!确认过眼神是我想要的包!必须要拥有的那种❗️尺寸:20*10*4cm","specs":{"source":"wsxcme","sourceId":"_dpCpC5tZQSOIHDszYi_Ng6CXeq3bAdNWghPcT1Q","sourceTagId":47003106,"sourceTagName":"塞琳/女包","dimensions":{"lengthCm":20,"heightCm":10,"widthCm":4},"rawTitle":"『Celine 赛琳』\n\nCELINE ♥ TRIOMPHE SHOULDER BAG\n感觉这两年Celine是不是打开了任督二脉!出的包是越来越绝了!新款凯旋门腋下包简直惊喜爆棚!确认过眼神是我想要的包!必须要拥有的那种❗️尺寸:20*10*4cm"},"price":null,"currency":"CNY","moq":1,"category":"celine-women-bags","status":"active","alibaba_url":null,"images":["https://xcimg.szwego.com/20220712/i1657590053_5494_0.jpg","https://xcimg.szwego.com/20220712/i1657590053_2709_1.jpg","https://xcimg.szwego.com/20220712/i1657590053_1148_2.jpg","https://xcimg.szwego.com/20220712/i1657590053_3839_3.jpg","https://xcimg.szwego.com/20220712/i1657590053_3754_4.jpg","https://xcimg.szwego.com/20220712/i1657590053_7097_5.jpg","https://xcimg.szwego.com/20220712/i1657590053_6396_6.jpg","https://xcimg.szwego.com/20220712/i1657590053_5913_7.jpg","https://xcimg.szwego.com/20220712/i1657590053_1534_8.jpg"],"created_at":"2025-02-08T12:47:23.816Z"},{"id":"item-2f091494d63a","sku":"_dw-w-pIZ7C-O9CUpEonqp2ZgQdAiz-IC3uQ4wMw","name_en":"『Celine 赛琳』","name_cn":"『Celine 赛琳』\n\n贝壳包 TRIOMPHE帆布相机包  64%涂层帆布,36%小牛皮 可斜挎和肩背 拉链锁闭 可调节皮革肩带长20英寸(50厘米)\n尺寸:20 X 15 X 5cm\n型号:3189#","specs":{"source":"wsxcme","sourceId":"_dw-w-pIZ7C-O9CUpEonqp2ZgQdAiz-IC3uQ4wMw","sourceTagId":47003106,"sourceTagName":"塞琳/女包","modelNumber":"3189#","dimensions":{"lengthCm":20,"heightCm":15,"widthCm":5},"rawTitle":"『Celine 赛琳』\n\n贝壳包 TRIOMPHE帆布相机包  64%涂层帆布,36%小牛皮 可斜挎和肩背 拉链锁闭 可调节皮革肩带长20英寸(50厘米)\n尺寸:20 X 15 X 5cm\n型号:3189#"},"price":null,"currency":"CNY","moq":1,"category":"celine-women-bags","status":"active","alibaba_url":null,"images":["https://xcimg.szwego.com/20220422/i1650601915_3079_0.jpg","https://xcimg.szwego.com/20220422/i1650601915_5892_1.jpg","https://xcimg.szwego.com/20220422/i1650601915_3795_2.jpg","https://xcimg.szwego.com/20220422/i1650601915_2463_3.jpg","https://xcimg.szwego.com/20220422/i1650601915_6503_4.jpg","https://xcimg.szwego.com/20220422/i1650601915_1721_5.jpg","https://xcimg.szwego.com/20220422/i1650601915_9345_6.jpg","https://xcimg.szwego.com/20220422/i1650601915_866_7.jpg","https://xcimg.szwego.com/20220422/i1650601915_1166_8.jpg"],"created_at":"2025-02-08T12:47:00.805Z"},{"id":"item-2ddc6a328005","sku":"_d4949aR6P06xGYsCuOn6ocqNoHRcP5hqRd7z18g","name_en":"『Celine 赛琳』","name_cn":"『Celine 赛琳』\n\n经典CABAS TRIOMPHE \n老花MiNi号竖款手袋🛍 65%涂层帆布,\n35%小牛皮,100%棉衬里,内侧插袋,  \n可调节可拆卸皮革肩带,\n尺寸:20cm X 17cm X 6cm   \n型号:2200#","specs":{"source":"wsxcme","sourceId":"_d4949aR6P06xGYsCuOn6ocqNoHRcP5hqRd7z18g","sourceTagId":47003106,"sourceTagName":"塞琳/女包","modelNumber":"2200#","rawTitle":"『Celine 赛琳』\n\n经典CABAS TRIOMPHE \n老花MiNi号竖款手袋🛍 65%涂层帆布,\n35%小牛皮,100%棉衬里,内侧插袋,  \n可调节可拆卸皮革肩带,\n尺寸:20cm X 17cm X 6cm   \n型号:2200#"},"price":null,"currency":"CNY","moq":1,"category":"celine-women-bags","status":"active","alibaba_url":null,"images":["https://xcimg.szwego.com/20220504/i1651635207_279_0.jpg","https://xcimg.szwego.com/20220504/i1651635207_5171_1.jpg","https://xcimg.szwego.com/20220504/i1651635207_7563_2.jpg","https://xcimg.szwego.com/20220504/i1651635207_720_3.jpg","https://xcimg.szwego.com/20220504/i1651635207_3945_4.jpg","https://xcimg.szwego.com/20220504/i1651635207_1237_5.jpg","https://xcimg.szwego.com/20220504/i1651635207_2822_6.jpg","https://xcimg.szwego.com/20220504/i1651635207_4231_7.jpg","https://xcimg.szwego.com/20220504/i1651635207_6429_8.jpg"],"created_at":"2025-02-08T12:47:00.794Z"},{"id":"item-2dae50a7be49","sku":"_dgRgRJ7xSks7DUFfSmhwrxs6bo_dMI4Ub99So4A","name_en":"『Celine 赛琳』","name_cn":"『Celine 赛琳』\n\n凯旋门腋下包升级•芍药粉\n\n全新升级版复古鎏金,五金更耐用更耐磨\n配TRIOMPHE金属质感锁扣\n复古摩登结合,日常必备穿搭💥\n\n尺寸:20×10×4cm","specs":{"source":"wsxcme","sourceId":"_dgRgRJ7xSks7DUFfSmhwrxs6bo_dMI4Ub99So4A","sourceTagId":47003106,"sourceTagName":"塞琳/女包","dimensions":{"lengthCm":20,"heightCm":10,"widthCm":4},"rawTitle":"『Celine 赛琳』\n\n凯旋门腋下包升级•芍药粉\n\n全新升级版复古鎏金,五金更耐用更耐磨\n配TRIOMPHE金属质感锁扣\n复古摩登结合,日常必备穿搭💥\n\n尺寸:20×10×4cm"},"price":null,"currency":"CNY","moq":1,"category":"celine-women-bags","status":"active","alibaba_url":null,"images":["https://xcimg.szwego.com/20220327/i1648373806_917_0.jpg","https://xcimg.szwego.com/20220327/i1648373806_2948_1.jpg","https://xcimg.szwego.com/20220327/i1648373806_5182_2.jpg","https://xcimg.szwego.com/20220327/i1648373806_3133_3.jpg","https://xcimg.szwego.com/20220327/i1648373806_864_4.jpg","https://xcimg.szwego.com/20220327/i1648373806_6107_5.jpg","https://xcimg.szwego.com/20220327/i1648373806_4313_6.jpg","https://xcimg.szwego.com/20220327/i1648373806_2677_7.jpg","https://xcimg.szwego.com/20220327/i1648373806_3755_8.jpg"],"created_at":"2025-02-08T12:47:15.832Z"},{"id":"item-2d9cc93be49d","sku":"_dwowoB3AfeydzI1Kadx8PwxSQY-cTZW9cJBEKnw","name_en":"『Celine 赛琳』","name_cn":"『Celine 赛琳』\n\nCELINE 2021春夏新品TRIOMPHE凯旋标志平纹小牛皮肩背包,凯旋腋下包,牛皮包边,羊皮衬里,内侧扁平口袋,可调节皮革肩带长20cm\n尺寸:20 X 10 X 4cm","specs":{"source":"wsxcme","sourceId":"_dwowoB3AfeydzI1Kadx8PwxSQY-cTZW9cJBEKnw","sourceTagId":47003106,"sourceTagName":"塞琳/女包","dimensions":{"lengthCm":20,"heightCm":10,"widthCm":4},"rawTitle":"『Celine 赛琳』\n\nCELINE 2021春夏新品TRIOMPHE凯旋标志平纹小牛皮肩背包,凯旋腋下包,牛皮包边,羊皮衬里,内侧扁平口袋,可调节皮革肩带长20cm\n尺寸:20 X 10 X 4cm"},"price":null,"currency":"CNY","moq":1,"category":"celine-women-bags","status":"active","alibaba_url":null,"images":["https://xcimg.szwego.com/20220410/i1649574418_6953_0.jpg","https://xcimg.szwego.com/20220410/i1649574418_3928_1.jpg","https://xcimg.szwego.com/20220410/i1649574418_3689_2.jpg","https://xcimg.szwego.com/20220410/i1649574418_1852_3.jpg","https://xcimg.szwego.com/20220410/i1649574418_3594_4.jpg","https://xcimg.szwego.com/20220410/i1649574418_8379_5.jpg","https://xcimg.szwego.com/20220410/i1649574418_8973_6.jpg","https://xcimg.szwego.com/20220410/i1649574418_2814_7.jpg","https://xcimg.szwego.com/20220410/i1649574418_1970_8.jpg"],"created_at":"2025-02-08T12:47:00.875Z"},{"id":"item-2cfac4c13ab7","sku":"_dk2k2wgfTqdxXTfPHbyUip582prOhl6toGkbTtw","name_en":"『Celine 赛琳』","name_cn":"『Celine 赛琳』\n\nCeline/赛琳22新款圆筒包\n经典老花印花单肩斜挎包\n男女通用哦 尺寸23 13cm \n肩带可调节长短!","specs":{"source":"wsxcme","sourceId":"_dk2k2wgfTqdxXTfPHbyUip582prOhl6toGkbTtw","sourceTagId":47003106,"sourceTagName":"塞琳/女包","rawTitle":"『Celine 赛琳』\n\nCeline/赛琳22新款圆筒包\n经典老花印花单肩斜挎包\n男女通用哦 尺寸23 13cm \n肩带可调节长短!"},"price":null,"currency":"CNY","moq":1,"category":"celine-women-bags","status":"active","alibaba_url":null,"images":["https://xcimg.szwego.com/20220629/i1656457574_1981_8.jpg","https://xcimg.szwego.com/20220629/i1656457574_6739_1.jpg","https://xcimg.szwego.com/20220629/i1656457574_1510_5.jpg","https://xcimg.szwego.com/20220629/i1656457574_1468_7.jpg","https://xcimg.szwego.com/20220629/i1656457574_1021_2.jpg","https://xcimg.szwego.com/20220629/i1656457574_9282_3.jpg","https://xcimg.szwego.com/20220629/i1656457574_7724_4.jpg","https://xcimg.szwego.com/20220629/i1656457574_5612_6.jpg","https://xcimg.szwego.com/20220629/i1656457574_2401_0.jpg"],"created_at":"2025-02-08T12:47:23.825Z"},{"id":"item-2ba0dd49a37a","sku":"_dp_p_ZGJ100HuDTaIgM_K1dglsOlP79Hj4qcLhw","name_en":"『Celine 赛琳』","name_cn":"『Celine 赛琳』\n\n配全套包装CABAS TRIOMPHE🛍提花面料MiNi号竖款手袋\n65%纺织布,35%小牛皮\n100%棉衬里\n内侧插袋\n可调节可拆卸皮革肩带 长20英寸(50厘米)\n尺寸20X 17X 6厘米)\n型号:1230海军褐色","specs":{"source":"wsxcme","sourceId":"_dp_p_ZGJ100HuDTaIgM_K1dglsOlP79Hj4qcLhw","sourceTagId":47003106,"sourceTagName":"塞琳/女包","modelNumber":"1230海军褐色","dimensions":{"lengthCm":20,"heightCm":17,"widthCm":6},"rawTitle":"『Celine 赛琳』\n\n配全套包装CABAS TRIOMPHE🛍提花面料MiNi号竖款手袋\n65%纺织布,35%小牛皮\n100%棉衬里\n内侧插袋\n可调节可拆卸皮革肩带 长20英寸(50厘米)\n尺寸20X 17X 6厘米)\n型号:1230海军褐色"},"price":null,"currency":"CNY","moq":1,"category":"celine-women-bags","status":"active","alibaba_url":null,"images":["https://xcimg.szwego.com/20200805/i1596616769_1450_0.jpg","https://xcimg.szwego.com/20200805/i1596616769_6646_1.jpg","https://xcimg.szwego.com/20200805/i1596616769_1875_2.jpg","https://xcimg.szwego.com/20200805/i1596616769_9742_3.jpg","https://xcimg.szwego.com/20200805/i1596616769_4403_4.jpg","https://xcimg.szwego.com/20200805/i1596616769_2874_5.jpg","https://xcimg.szwego.com/20200805/i1596616769_3186_6.jpg","https://xcimg.szwego.com/20200805/i1596616769_7322_7.jpg","https://xcimg.szwego.com/20200805/i1596616769_3405_8.jpg"],"created_at":"2025-02-08T12:47:00.824Z"},{"id":"item-2a8918947984","sku":"_d8V8VBHza-8u_x5VZxCAkUBZIqr3iSVYmIhSo_w","name_en":"『Celine 赛琳』","name_cn":"『Celine 赛琳』\n\nCelin  CABAS TRIOMPHE刺绣款提花面料MiNi号竖款手袋,65%纺织布,35%小牛皮,100%棉衬里,内侧插袋,可调节可拆卸皮革肩带 长50厘米,\n尺寸17X 21X 4厘米\n型号:3014","specs":{"source":"wsxcme","sourceId":"_d8V8VBHza-8u_x5VZxCAkUBZIqr3iSVYmIhSo_w","sourceTagId":47003106,"sourceTagName":"塞琳/女包","modelNumber":"3014","dimensions":{"lengthCm":17,"heightCm":21,"widthCm":4},"rawTitle":"『Celine 赛琳』\n\nCelin  CABAS TRIOMPHE刺绣款提花面料MiNi号竖款手袋,65%纺织布,35%小牛皮,100%棉衬里,内侧插袋,可调节可拆卸皮革肩带 长50厘米,\n尺寸17X 21X 4厘米\n型号:3014"},"price":null,"currency":"CNY","moq":1,"category":"celine-women-bags","status":"active","alibaba_url":null,"images":["https://xcimg.szwego.com/20210914/i1631586063_2438_0.jpg","https://xcimg.szwego.com/20210914/i1631586063_4413_1.jpg","https://xcimg.szwego.com/20210914/i1631586063_9381_2.jpg","https://xcimg.szwego.com/20210914/i1631586063_5921_3.jpg","https://xcimg.szwego.com/20210914/i1631586063_6013_4.jpg","https://xcimg.szwego.com/20210914/i1631586063_9820_5.jpg","https://xcimg.szwego.com/20210914/i1631586063_4081_6.jpg","https://xcimg.szwego.com/20210914/i1631586063_7514_7.jpg","https://xcimg.szwego.com/20210914/i1631586063_9377_8.jpg"],"created_at":"2025-02-08T12:47:00.836Z"},{"id":"item-2a7136793411","sku":"_dfQfQSt1t6ptEU8aWLq7LicYbfIeOXLyw2BnqyA","name_en":"『Celine 赛琳』","name_cn":"『Celine 赛琳』\n\nCelin* 2022秋季新款凯旋门马鞍包出咯 小牛皮 \n小小的身材大大容量\n搭配经典金色凯金属扣 精致百搭\n不同以往得正方形包型,弧形的下摆增加了一丝柔美的感觉\n尺寸:19*16*8cm","specs":{"source":"wsxcme","sourceId":"_dfQfQSt1t6ptEU8aWLq7LicYbfIeOXLyw2BnqyA","sourceTagId":47003106,"sourceTagName":"塞琳/女包","dimensions":{"lengthCm":19,"heightCm":16,"widthCm":8},"rawTitle":"『Celine 赛琳』\n\nCelin* 2022秋季新款凯旋门马鞍包出咯 小牛皮 \n小小的身材大大容量\n搭配经典金色凯金属扣 精致百搭\n不同以往得正方形包型,弧形的下摆增加了一丝柔美的感觉\n尺寸:19*16*8cm"},"price":null,"currency":"CNY","moq":1,"category":"celine-women-bags","status":"active","alibaba_url":null,"images":["https://xcimg.szwego.com/20220628/i1656400914_8664_0.jpg","https://xcimg.szwego.com/20220628/i1656400914_3128_2.jpg","https://xcimg.szwego.com/20220628/i1656400914_2906_3.jpg","https://xcimg.szwego.com/20220628/i1656400914_4090_4.jpg","https://xcimg.szwego.com/20220628/i1656400914_7288_5.jpg","https://xcimg.szwego.com/20220628/i1656400914_129_6.jpg","https://xcimg.szwego.com/20220628/i1656400914_8334_7.jpg","https://xcimg.szwego.com/20220628/i1656400935_4741_0.jpg","https://xcimg.szwego.com/20220628/i1656400957_7841_0.jpg"],"created_at":"2025-02-08T12:47:23.806Z"},{"id":"item-26af1225aca9","sku":"_d9t9t28GCCEYYUrZz3-bEZAyZMrn7kiOtueNqmA","name_en":"『Celine 赛琳』","name_cn":"『Celine 赛琳』\n\n凯旋门腋下包升级•奶昔白\n\n全新升级版复古鎏金,五金更耐用更耐磨\n配TRIOMPHE金属质感锁扣\n复古摩登结合,日常必备穿搭💥\n\n尺寸:20×10×4cm","specs":{"source":"wsxcme","sourceId":"_d9t9t28GCCEYYUrZz3-bEZAyZMrn7kiOtueNqmA","sourceTagId":47003106,"sourceTagName":"塞琳/女包","dimensions":{"lengthCm":20,"heightCm":10,"widthCm":4},"rawTitle":"『Celine 赛琳』\n\n凯旋门腋下包升级•奶昔白\n\n全新升级版复古鎏金,五金更耐用更耐磨\n配TRIOMPHE金属质感锁扣\n复古摩登结合,日常必备穿搭💥\n\n尺寸:20×10×4cm"},"price":null,"currency":"CNY","moq":1,"category":"celine-women-bags","status":"active","alibaba_url":null,"images":["https://xcimg.szwego.com/20220614/i1655187603_5561_0.jpg","https://xcimg.szwego.com/20220614/i1655187603_3266_1.jpg","https://xcimg.szwego.com/20220614/i1655187603_8067_2.jpg","https://xcimg.szwego.com/20220614/i1655187603_8039_3.jpg","https://xcimg.szwego.com/20220614/i1655187603_5484_4.jpg","https://xcimg.szwego.com/20220614/i1655187603_1955_5.jpg","https://xcimg.szwego.com/20220614/i1655187603_1956_6.jpg","https://xcimg.szwego.com/20220614/i1655187603_1533_7.jpg","https://xcimg.szwego.com/20220614/i1655187603_5714_8.jpg"],"created_at":"2025-02-08T12:47:15.834Z"}],"page":43,"pageSize":24,"total":10075,"totalPages":420}
