{"items":[{"id":"item-6e8aadb36042","sku":"_dpypy83H9-q3eHZ3sHbrkV3zBzceg_P0tKsW62g","name_en":"ꫛꫀꪝ","name_cn":"ꫛꫀꪝ\nA new member of the puzzle pebbled leather family. Ah, the color of spring. Minimalist and atmospheric geometric design, sweet yet salty. Custom pebbled calfskin, comfortable to the touch, instantly elevates your look. 3D bag shape with extraordinary capacity. A popular item you can never have enough of. Size: 24*10*14cm","specs":{"source":"wsxcme","sourceId":"_dpypy83H9-q3eHZ3sHbrkV3zBzceg_P0tKsW62g","sourceTagId":47002713,"sourceTagName":"/women's bag","rawTitle":"ꫛꫀꪝ\nA new member of the puzzle pebbled leather family. Ah, the color of spring. Minimalist and atmospheric geometric design, sweet yet salty. Custom pebbled calfskin, comfortable to the touch, instantly elevates your look. 3D bag shape with extraordinary capacity. A popular item you can never have enough of. Size: 24*10*14cm"},"price":null,"currency":"CNY","moq":1,"category":"loewe-women-bags","status":"active","alibaba_url":null,"images":["https://xcimg.szwego.com/20230404/i1680599154_1295_0.jpg","https://xcimg.szwego.com/20230404/i1680599154_944_1.jpg","https://xcimg.szwego.com/20230404/i1680599154_3020_2.jpg","https://xcimg.szwego.com/20230404/i1680599154_3643_3.jpg","https://xcimg.szwego.com/20230404/i1680599154_8621_4.jpg","https://xcimg.szwego.com/20230404/i1680599154_4770_5.jpg","https://xcimg.szwego.com/20230404/i1680599154_2073_6.jpg","https://xcimg.szwego.com/20230404/i1680599154_9831_7.jpg","https://xcimg.szwego.com/20230404/i1680599154_2329_8.jpg"],"created_at":"2025-02-10T14:06:11.346Z"},{"id":"item-646289c240fa","sku":"_djmjmZoziVKpb3jAAqY_otvIhU4DyKA6779eDtQ","name_en":"ꫛꫀꪝ","name_cn":"ꫛꫀꪝ\nNew puzzle version is here\nFresh mini adjustable shoulder strap, summer limited edition patchwork design\nLooks younger with visual depth\nPuzzle's capacity is always praised\nIt's not an exaggeration to say it holds the whole world, it's super practical! A stylish must-have for summer~\nSize:18*8*12cm","specs":{"source":"wsxcme","sourceId":"_djmjmZoziVKpb3jAAqY_otvIhU4DyKA6779eDtQ","sourceTagId":47002713,"sourceTagName":"/women's bag","rawTitle":"ꫛꫀꪝ\nNew puzzle version is here\nFresh mini adjustable shoulder strap, summer limited edition patchwork design\nLooks younger with visual depth\nPuzzle's capacity is always praised\nIt's not an exaggeration to say it holds the whole world, it's super practical! A stylish must-have for summer~\nSize:18*8*12cm"},"price":null,"currency":"CNY","moq":1,"category":"loewe-women-bags","status":"active","alibaba_url":null,"images":["https://xcimg.szwego.com/20230725/i1690267200_5698_0.jpg","https://xcimg.szwego.com/20230725/i1690267200_3135_1.jpg","https://xcimg.szwego.com/20230725/i1690267200_9057_2.jpg","https://xcimg.szwego.com/20230725/i1690267200_9360_3.jpg","https://xcimg.szwego.com/20230725/i1690267200_5274_4.jpg","https://xcimg.szwego.com/20230725/i1690267200_6962_5.jpg","https://xcimg.szwego.com/20230725/i1690267200_656_6.jpg","https://xcimg.szwego.com/20230725/i1690267200_3120_7.jpg","https://xcimg.szwego.com/20230725/i1690267200_4772_8.jpg"],"created_at":"2024-10-24T12:53:14.230Z"},{"id":"item-630d8a7660b0","sku":"_drrrr8oYGXMqTzObUJVazgF7YeXMq9XLx-WRuTw","name_en":"ꫛꫀꪝ","name_cn":"ꫛꫀꪝ\nBuy puzzle get shoulder strap❓\nThe new version comes with a wide strap √\nBrand new❤️‍🩹Puzzle\nSatin calfskin + Anagram embroidered shoulder strap\nThe texture you can feel the moment you put it on, making you stand out immediately when you carry it. The classic shape paired with a woven jacquard shoulder strap is amazing, just buy it~ size :24X10X14cm.ID01891000 🎁","specs":{"source":"wsxcme","sourceId":"_drrrr8oYGXMqTzObUJVazgF7YeXMq9XLx-WRuTw","sourceTagId":47002713,"sourceTagName":"/women's bag","rawTitle":"ꫛꫀꪝ\nBuy puzzle get shoulder strap❓\nThe new version comes with a wide strap √\nBrand new❤️‍🩹Puzzle\nSatin calfskin + Anagram embroidered shoulder strap\nThe texture you can feel the moment you put it on, making you stand out immediately when you carry it. The classic shape paired with a woven jacquard shoulder strap is amazing, just buy it~ size :24X10X14cm.ID01891000 🎁"},"price":null,"currency":"CNY","moq":1,"category":"loewe-women-bags","status":"active","alibaba_url":null,"images":["https://xcimg.szwego.com/20240703/i1719983480_3223_0.jpg","https://xcimg.szwego.com/20240703/i1719983480_8175_1.jpg","https://xcimg.szwego.com/20240703/i1719983480_4567_2.jpg","https://xcimg.szwego.com/20240703/i1719983480_6525_3.jpg","https://xcimg.szwego.com/20240703/i1719983480_2584_4.jpg","https://xcimg.szwego.com/20240703/i1719983480_7479_5.jpg","https://xcimg.szwego.com/20240703/i1719983480_1616_6.jpg","https://xcimg.szwego.com/20240703/i1719983480_2805_7.jpg","https://xcimg.szwego.com/20240703/i1719983480_4801_8.jpg"],"created_at":"2024-10-24T12:53:14.221Z"},{"id":"item-4b035f23632a","sku":"_dfdfd-6HqCaDYNbdYTCpAYttjVDu-Y1Fa2fZykg","name_en":"ꫛꫀꪝ","name_cn":"ꫛꫀꪝ\nA new member of the puzzle pebbled leather family. Ah, the color of spring. Minimalist and atmospheric geometric design, sweet yet salty. Custom pebbled calfskin, cotton-linen lining. Mini size with a small body but large capacity. 📱📱 Lipsticks and powders fit in with no pressure. Size: 18*11*7.5cm","specs":{"source":"wsxcme","sourceId":"_dfdfd-6HqCaDYNbdYTCpAYttjVDu-Y1Fa2fZykg","sourceTagId":47002713,"sourceTagName":"/women's bag","rawTitle":"ꫛꫀꪝ\nA new member of the puzzle pebbled leather family. Ah, the color of spring. Minimalist and atmospheric geometric design, sweet yet salty. Custom pebbled calfskin, cotton-linen lining. Mini size with a small body but large capacity. 📱📱 Lipsticks and powders fit in with no pressure. Size: 18*11*7.5cm"},"price":null,"currency":"CNY","moq":1,"category":"loewe-women-bags","status":"active","alibaba_url":null,"images":["https://xcimg.szwego.com/20230404/i1680598898_910_0.jpg","https://xcimg.szwego.com/20230404/i1680598898_1372_1.jpg","https://xcimg.szwego.com/20230404/i1680598898_1564_2.jpg","https://xcimg.szwego.com/20230404/i1680598898_5322_4.jpg","https://xcimg.szwego.com/20230404/i1680598898_253_5.jpg","https://xcimg.szwego.com/20230404/i1680598898_6662_6.jpg","https://xcimg.szwego.com/20230404/i1680598898_8013_8.jpg","https://xcimg.szwego.com/20230404/i1680599015_266_0.jpg","https://xcimg.szwego.com/20230404/i1680599015_5598_1.jpg"],"created_at":"2025-02-10T14:06:11.347Z"},{"id":"item-36719c94ffda","sku":"_doDoDBJ-a1OMeGd82Pbz93gcbEAlxId0I7e30Ag","name_en":"ꫛꫀꪝ","name_cn":"ꫛꫀꪝ\npuzzle √ approx. calfskin mini 📱📱 , size:18*11*7.5cm","specs":{"source":"wsxcme","sourceId":"_doDoDBJ-a1OMeGd82Pbz93gcbEAlxId0I7e30Ag","sourceTagId":47002713,"sourceTagName":"/women's bag","rawTitle":"ꫛꫀꪝ\npuzzle √ approx. calfskin mini 📱📱 , size:18*11*7.5cm"},"price":null,"currency":"CNY","moq":1,"category":"loewe-women-bags","status":"active","alibaba_url":null,"images":["https://xcimg.szwego.com/20220315/i1647338857_5105_0.jpg","https://xcimg.szwego.com/20220315/i1647338857_1812_1.jpg","https://xcimg.szwego.com/20220315/i1647338857_1764_2.jpg","https://xcimg.szwego.com/20220315/i1647338857_6928_3.jpg","https://xcimg.szwego.com/20220315/i1647338857_1066_4.jpg","https://xcimg.szwego.com/20220315/i1647338857_6284_5.jpg","https://xcimg.szwego.com/20220315/i1647338857_7682_6.jpg","https://xcimg.szwego.com/20220315/i1647338857_5917_7.jpg","https://xcimg.szwego.com/20220315/i1647338857_3818_8.jpg"],"created_at":"2025-02-10T14:06:11.348Z"},{"id":"item-0c794ddbb52d","sku":"_dihihCc5oyoDuR72zshu_67PIEQGlmbH6JztL2g","name_en":"ꫛꫀꪝ","name_cn":"ꫛꫀꪝ\nNew puzzle version is here\nFresh mini adjustable shoulder strap, summer limited edition patchwork design\nLooks younger with visual depth\nPuzzle's capacity is always praised\nIt's not an exaggeration to say it holds the whole world, it's super practical! A stylish must-have for summer~\nSize:18*8*12cm","specs":{"source":"wsxcme","sourceId":"_dihihCc5oyoDuR72zshu_67PIEQGlmbH6JztL2g","sourceTagId":47002713,"sourceTagName":"/women's bag","rawTitle":"ꫛꫀꪝ\nNew puzzle version is here\nFresh mini adjustable shoulder strap, summer limited edition patchwork design\nLooks younger with visual depth\nPuzzle's capacity is always praised\nIt's not an exaggeration to say it holds the whole world, it's super practical! A stylish must-have for summer~\nSize:18*8*12cm"},"price":null,"currency":"CNY","moq":1,"category":"loewe-women-bags","status":"active","alibaba_url":null,"images":["https://xcimg.szwego.com/20230726/i1690356109_414_0.jpg","https://xcimg.szwego.com/20230726/i1690356109_6518_1.jpg","https://xcimg.szwego.com/20230726/i1690356109_3934_2.jpg","https://xcimg.szwego.com/20230726/i1690356109_3396_3.jpg","https://xcimg.szwego.com/20230726/i1690356109_6942_4.jpg","https://xcimg.szwego.com/20230726/i1690356109_7295_5.jpg","https://xcimg.szwego.com/20230726/i1690356109_5154_6.jpg","https://xcimg.szwego.com/20230726/i1690356109_435_7.jpg","https://xcimg.szwego.com/20230726/i1690356109_1408_8.jpg"],"created_at":"2024-10-24T12:53:14.228Z"},{"id":"item-0b14b75d0ecf","sku":"_doToTJTC0DX_nNkcK_KRL5EQSE-c-_j_56aNhFA","name_en":"ꫛꫀꪝ","name_cn":"ꫛꫀꪝ\nLatest puzzle.fold clutch arrives\nGlossy calfskin wash bag, can be carried by hand or hung on the wrist\nZippered interior pocket, a foldable wash bag\nCapacity meets daily needs, super lightweight, extremely practical\nSize:22.7X12X15.5cm ID0697750 🎁","specs":{"source":"wsxcme","sourceId":"_doToTJTC0DX_nNkcK_KRL5EQSE-c-_j_56aNhFA","sourceTagId":47002713,"sourceTagName":"/women's bag","rawTitle":"ꫛꫀꪝ\nLatest puzzle.fold clutch arrives\nGlossy calfskin wash bag, can be carried by hand or hung on the wrist\nZippered interior pocket, a foldable wash bag\nCapacity meets daily needs, super lightweight, extremely practical\nSize:22.7X12X15.5cm ID0697750 🎁"},"price":null,"currency":"CNY","moq":1,"category":"loewe-women-bags","status":"active","alibaba_url":null,"images":["https://xcimg.szwego.com/20240701/i1719817907_9516_0.jpg","https://xcimg.szwego.com/20240701/i1719817907_5561_1.jpg","https://xcimg.szwego.com/20240701/i1719817907_5691_2.jpg","https://xcimg.szwego.com/20240701/i1719817907_4057_3.jpg","https://xcimg.szwego.com/20240701/i1719817907_2728_4.jpg","https://xcimg.szwego.com/20240701/i1719817907_8749_5.jpg","https://xcimg.szwego.com/20240701/i1719817907_9442_6.jpg","https://xcimg.szwego.com/20240701/i1719817907_4194_7.jpg","https://xcimg.szwego.com/20240701/i1719817907_6763_8.jpg"],"created_at":"2024-10-24T12:53:14.222Z"},{"id":"item-02c80a9577ad","sku":"_dqGqGBh9S9TOOv6K4y8crG20KRJoIbJBu8RRzYg","name_en":"ꫛꫀꪝ","name_cn":"ꫛꫀꪝ\nNew puzzle version is here\nFresh mini adjustable shoulder strap, summer limited edition patchwork design\nLooks younger with visual depth\nPuzzle's capacity is always praised\nIt's not an exaggeration to say it holds the whole world, it's super practical! A stylish must-have for summer~\nSize:18*8*12cm","specs":{"source":"wsxcme","sourceId":"_dqGqGBh9S9TOOv6K4y8crG20KRJoIbJBu8RRzYg","sourceTagId":47002713,"sourceTagName":"/women's bag","rawTitle":"ꫛꫀꪝ\nNew puzzle version is here\nFresh mini adjustable shoulder strap, summer limited edition patchwork design\nLooks younger with visual depth\nPuzzle's capacity is always praised\nIt's not an exaggeration to say it holds the whole world, it's super practical! A stylish must-have for summer~\nSize:18*8*12cm"},"price":null,"currency":"CNY","moq":1,"category":"loewe-women-bags","status":"active","alibaba_url":null,"images":["https://xcimg.szwego.com/20230712/i1689150864_2740_0.jpg","https://xcimg.szwego.com/20230712/i1689150864_6473_1.jpg","https://xcimg.szwego.com/20230712/i1689150864_8863_2.jpg","https://xcimg.szwego.com/20230712/i1689150864_227_3.jpg","https://xcimg.szwego.com/20230712/i1689150864_2752_4.jpg","https://xcimg.szwego.com/20230712/i1689150864_4526_7.jpg","https://xcimg.szwego.com/20230712/i1689150864_4021_5.jpg","https://xcimg.szwego.com/20230712/i1689150864_7451_6.jpg","https://xcimg.szwego.com/20230712/i1689150873_9293_0.jpg"],"created_at":"2024-10-24T12:53:14.231Z"},{"id":"item-e6d713d3a54c","sku":"_dnini5AEOLN34ZCAuUfb-OEGVW_BAIuEdkc_scA","name_en":"ꫛꫀꪝ👄 Latest version puzzle, sand color in stock🎉 Celebrity style. Selected imported embossed cowhide, new version with sand color splicing all over the body. Very light weight, very spacious, practical and versatile. A must-have for travel, super versatile color~ Small Size 24*16*10cm","name_cn":"ꫛꫀꪝ👄 Latest version puzzle, sand color in stock🎉 Celebrity style. Selected imported embossed cowhide, new version with sand color splicing all over the body. Very light weight, very spacious, practical and versatile. A must-have for travel, super versatile color~ Small Size 24*16*10cm","specs":{"source":"wsxcme","sourceId":"_dnini5AEOLN34ZCAuUfb-OEGVW_BAIuEdkc_scA","sourceTagId":47002713,"sourceTagName":"/women's bag","rawTitle":"ꫛꫀꪝ👄 Latest version puzzle, sand color in stock🎉 Celebrity style. Selected imported embossed cowhide, new version with sand color splicing all over the body. Very light weight, very spacious, practical and versatile. A must-have for travel, super versatile color~ Small Size 24*16*10cm"},"price":null,"currency":"CNY","moq":1,"category":"loewe-women-bags","status":"active","alibaba_url":null,"images":["https://xcimg.szwego.com/20211116/i1637048676_5426_0.jpg","https://xcimg.szwego.com/20211116/i1637048676_5141_1.jpg","https://xcimg.szwego.com/20211116/i1637048676_1969_2.jpg","https://xcimg.szwego.com/20211116/i1637048676_4114_3.jpg","https://xcimg.szwego.com/20211116/i1637048676_5843_4.jpg","https://xcimg.szwego.com/20211116/i1637048676_6874_5.jpg","https://xcimg.szwego.com/20211116/i1637048676_1477_6.jpg","https://xcimg.szwego.com/20211116/i1637048676_3635_7.jpg","https://xcimg.szwego.com/20211116/i1637048676_4972_8.jpg"],"created_at":"2024-10-24T12:53:14.227Z"}],"page":414,"pageSize":24,"total":9921,"totalPages":414}
