{"items":[{"id":"item-14d05142cf1e","sku":"_dYqYq_dINudLGKA3EX7LpxxWQz3-yXPAYEQxsiQ","name_en":"✨凯莉二代mini","name_cn":"✨凯莉二代mini \n颜色:奶昔白/金棕\n进口epsom皮、银扣\n机车+半收工手缝蜡线\n尺寸:19cm","specs":{"source":"wsxcme","sourceId":"_dYqYq_dINudLGKA3EX7LpxxWQz3-yXPAYEQxsiQ","sourceTagId":76963559,"sourceTagName":"爱马仕/女包","rawTitle":"✨凯莉二代mini \n颜色:奶昔白/金棕\n进口epsom皮、银扣\n机车+半收工手缝蜡线\n尺寸:19cm"},"price":null,"currency":"CNY","moq":1,"category":"hermes-women-bags","status":"active","alibaba_url":null,"images":["https://xcimg.szwego.com/img/88b306c4/20240903/a1725374567930_5588.jpg","https://xcimg.szwego.com/img/88b306c4/20240903/a1725374567749_2414.jpg","https://xcimg.szwego.com/img/88b306c4/20240903/a1725374568062_0482.jpg","https://xcimg.szwego.com/img/88b306c4/20240903/a1725374567765_7055.jpg","https://xcimg.szwego.com/img/88b306c4/20240903/a1725374567778_3747.jpg","https://xcimg.szwego.com/img/88b306c4/20240903/a1725374567794_8331.jpg","https://xcimg.szwego.com/img/88b306c4/20240903/a1725374569139_1640.jpg","https://xcimg.szwego.com/img/88b306c4/20240903/a1725374569122_4614.jpg","https://xcimg.szwego.com/img/88b306c4/20240903/a1725374569086_7540.jpg"],"created_at":"2024-10-22T05:04:33.203Z"},{"id":"item-1205a91176d9","sku":"_dGWGWC8yfMGZC5hEu7jir0e87QMQEC0dRukCv9Q","name_en":"✨凯莉二代mini","name_cn":"✨凯莉二代mini \n颜色:大象灰/奶昔白\n进口epsom皮、银扣\n机车+半收工手缝蜡线\n尺寸:19cm","specs":{"source":"wsxcme","sourceId":"_dGWGWC8yfMGZC5hEu7jir0e87QMQEC0dRukCv9Q","sourceTagId":76963559,"sourceTagName":"爱马仕/女包","rawTitle":"✨凯莉二代mini \n颜色:大象灰/奶昔白\n进口epsom皮、银扣\n机车+半收工手缝蜡线\n尺寸:19cm"},"price":null,"currency":"CNY","moq":1,"category":"hermes-women-bags","status":"active","alibaba_url":null,"images":["https://xcimg.szwego.com/img/88b306c4/20240904/a1725382092128_1646.jpg","https://xcimg.szwego.com/img/88b306c4/20240904/a1725382092137_8055.jpg","https://xcimg.szwego.com/img/88b306c4/20240904/a1725382092313_1372.jpg","https://xcimg.szwego.com/img/88b306c4/20240904/a1725382092233_0412.jpg","https://xcimg.szwego.com/img/88b306c4/20240904/a1725382092417_1688.jpg","https://xcimg.szwego.com/img/88b306c4/20240904/a1725382092535_0278.jpg","https://xcimg.szwego.com/img/88b306c4/20240904/a1725382093728_3115.jpg","https://xcimg.szwego.com/img/88b306c4/20240904/a1725382093680_1760.jpg"],"created_at":"2024-10-22T05:04:33.170Z"},{"id":"item-1015b2d715e4","sku":"_d51511UiAFk9fOyMftSgBu2SX42-fPEobt5Y0gQ","name_en":"✨凯莉二代mini","name_cn":"✨凯莉二代mini \n颜色:饼干色/奶昔白\n进口epsom皮、金扣\n机车+半收工手缝蜡线\n尺寸:19cm","specs":{"source":"wsxcme","sourceId":"_d51511UiAFk9fOyMftSgBu2SX42-fPEobt5Y0gQ","sourceTagId":76963559,"sourceTagName":"爱马仕/女包","rawTitle":"✨凯莉二代mini \n颜色:饼干色/奶昔白\n进口epsom皮、金扣\n机车+半收工手缝蜡线\n尺寸:19cm"},"price":null,"currency":"CNY","moq":1,"category":"hermes-women-bags","status":"active","alibaba_url":null,"images":["https://xcimg.szwego.com/img/88b306c4/20240903/a1725374312476_1163.jpg","https://xcimg.szwego.com/img/88b306c4/20240903/a1725374312474_5855.jpg","https://xcimg.szwego.com/img/88b306c4/20240903/a1725374312602_1113.jpg","https://xcimg.szwego.com/img/88b306c4/20240903/a1725374312417_7537.jpg","https://xcimg.szwego.com/img/88b306c4/20240903/a1725374312791_0613.jpg","https://xcimg.szwego.com/img/88b306c4/20240903/a1725374312345_0635.jpg","https://xcimg.szwego.com/img/88b306c4/20240903/a1725374313809_6622.jpg","https://xcimg.szwego.com/img/88b306c4/20240903/a1725374313881_2248.jpg","https://xcimg.szwego.com/img/88b306c4/20240903/a1725374313791_7537.jpg"],"created_at":"2024-10-22T05:04:33.202Z"},{"id":"item-0d961aaca505","sku":"_doLoLXwGcPVUoW1tsjNYPammFLSOGAbgayQsNUQ","name_en":"✨凯莉二代mini","name_cn":"✨凯莉二代mini \n颜色:漫画绿/奶灰白\n进口epsom皮、金扣\n机车+半收工手缝蜡线\n尺寸:19cm","specs":{"source":"wsxcme","sourceId":"_doLoLXwGcPVUoW1tsjNYPammFLSOGAbgayQsNUQ","sourceTagId":76963559,"sourceTagName":"爱马仕/女包","rawTitle":"✨凯莉二代mini \n颜色:漫画绿/奶灰白\n进口epsom皮、金扣\n机车+半收工手缝蜡线\n尺寸:19cm"},"price":null,"currency":"CNY","moq":1,"category":"hermes-women-bags","status":"active","alibaba_url":null,"images":["https://xcimg.szwego.com/img/88b306c4/20240903/a1725374979471_3275.jpg","https://xcimg.szwego.com/img/88b306c4/20240903/a1725374979305_2830.jpg","https://xcimg.szwego.com/img/88b306c4/20240903/a1725374979629_1267.jpg","https://xcimg.szwego.com/img/88b306c4/20240903/a1725374979693_6610.jpg","https://xcimg.szwego.com/img/88b306c4/20240903/a1725374979436_7867.jpg","https://xcimg.szwego.com/img/88b306c4/20240903/a1725374979354_3077.jpg","https://xcimg.szwego.com/img/88b306c4/20240903/a1725374980692_0207.jpg","https://xcimg.szwego.com/img/88b306c4/20240903/a1725374980768_7105.jpg","https://xcimg.szwego.com/img/88b306c4/20240903/a1725374980680_7615.jpg"],"created_at":"2024-10-22T05:04:33.205Z"},{"id":"item-0bfe978c0270","sku":"_dwawaIX5MOHz6g-2Xx9NH7XWHcQQ8evqzvKm7MQ","name_en":"✨凯莉二代mini","name_cn":"✨凯莉二代mini \n颜色:饼干色/奶昔白/克\n进口epsom皮、银扣\n机车+半收工手缝蜡线\n尺寸:19cm","specs":{"source":"wsxcme","sourceId":"_dwawaIX5MOHz6g-2Xx9NH7XWHcQQ8evqzvKm7MQ","sourceTagId":76963559,"sourceTagName":"爱马仕/女包","rawTitle":"✨凯莉二代mini \n颜色:饼干色/奶昔白/克\n进口epsom皮、银扣\n机车+半收工手缝蜡线\n尺寸:19cm"},"price":null,"currency":"CNY","moq":1,"category":"hermes-women-bags","status":"active","alibaba_url":null,"images":["https://xcimg.szwego.com/img/88b306c4/20240904/a1725383118748_3071.jpg","https://xcimg.szwego.com/img/88b306c4/20240904/a1725383118253_4103.jpg","https://xcimg.szwego.com/img/88b306c4/20240904/a1725383118309_5272.jpg","https://xcimg.szwego.com/img/88b306c4/20240904/a1725383118261_4202.jpg","https://xcimg.szwego.com/img/88b306c4/20240904/a1725383118569_5044.jpg","https://xcimg.szwego.com/img/88b306c4/20240904/a1725383118705_7137.jpg","https://xcimg.szwego.com/img/88b306c4/20240904/a1725383119949_4026.jpg","https://xcimg.szwego.com/img/88b306c4/20240904/a1725383119878_6700.jpg","https://xcimg.szwego.com/img/88b306c4/20240904/a1725383119792_0516.jpg"],"created_at":"2024-10-22T05:04:33.178Z"},{"id":"item-07eb19b687af","sku":"_dSQSQ91H-pnZE4ithyV-__IylJFkdfdeBy2Rj9w","name_en":"✨凯莉二代mini","name_cn":"✨凯莉二代mini \n颜色:奶昔白/锦葵紫\n进口epsom皮、银扣\n机车+半收工手缝蜡线\n尺寸:19cm","specs":{"source":"wsxcme","sourceId":"_dSQSQ91H-pnZE4ithyV-__IylJFkdfdeBy2Rj9w","sourceTagId":76963559,"sourceTagName":"爱马仕/女包","rawTitle":"✨凯莉二代mini \n颜色:奶昔白/锦葵紫\n进口epsom皮、银扣\n机车+半收工手缝蜡线\n尺寸:19cm"},"price":null,"currency":"CNY","moq":1,"category":"hermes-women-bags","status":"active","alibaba_url":null,"images":["https://xcimg.szwego.com/img/88b306c4/20240903/a1725375327558_7357.jpg","https://xcimg.szwego.com/img/88b306c4/20240903/a1725375327320_0078.jpg","https://xcimg.szwego.com/img/88b306c4/20240903/a1725375327505_2850.jpg","https://xcimg.szwego.com/img/88b306c4/20240903/a1725375327315_4280.jpg","https://xcimg.szwego.com/img/88b306c4/20240903/a1725375327329_6236.jpg","https://xcimg.szwego.com/img/88b306c4/20240903/a1725375327311_2558.jpg","https://xcimg.szwego.com/img/88b306c4/20240903/a1725375328806_2706.jpg","https://xcimg.szwego.com/img/88b306c4/20240903/a1725375328843_1582.jpg","https://xcimg.szwego.com/img/88b306c4/20240903/a1725375328799_8048.jpg"],"created_at":"2024-10-22T05:04:33.207Z"},{"id":"item-07df5b02941c","sku":"_dc9c9rH4tEPaCtBSdpNeMUCCpmaY6HzxszSaWFQ","name_en":"✨凯莉二代mini","name_cn":"✨凯莉二代mini \n颜色:饼干色/奶昔白/克\n进口epsom皮、金扣\n机车+半收工手缝蜡线\n尺寸:19cm","specs":{"source":"wsxcme","sourceId":"_dc9c9rH4tEPaCtBSdpNeMUCCpmaY6HzxszSaWFQ","sourceTagId":76963559,"sourceTagName":"爱马仕/女包","rawTitle":"✨凯莉二代mini \n颜色:饼干色/奶昔白/克\n进口epsom皮、金扣\n机车+半收工手缝蜡线\n尺寸:19cm"},"price":null,"currency":"CNY","moq":1,"category":"hermes-women-bags","status":"active","alibaba_url":null,"images":["https://xcimg.szwego.com/img/88b306c4/20240904/a1725383208604_1263.jpg","https://xcimg.szwego.com/img/88b306c4/20240904/a1725383208495_5172.jpg","https://xcimg.szwego.com/img/88b306c4/20240904/a1725383208871_1434.jpg","https://xcimg.szwego.com/img/88b306c4/20240904/a1725383208493_8208.jpg","https://xcimg.szwego.com/img/88b306c4/20240904/a1725383208595_0406.jpg","https://xcimg.szwego.com/img/88b306c4/20240904/a1725383208840_5340.jpg","https://xcimg.szwego.com/img/88b306c4/20240904/a1725383209928_8227.jpg","https://xcimg.szwego.com/img/88b306c4/20240904/a1725383209787_1685.jpg","https://xcimg.szwego.com/img/88b306c4/20240904/a1725383209826_4543.jpg"],"created_at":"2024-10-22T05:04:33.179Z"},{"id":"item-03148861dd0a","sku":"_ddzdzkR2YTdshw8tx1An5Uag1dacih6XBk4CdMg","name_en":"✨凯莉二代mini","name_cn":"✨凯莉二代mini \n彩色集合图","specs":{"source":"wsxcme","sourceId":"_ddzdzkR2YTdshw8tx1An5Uag1dacih6XBk4CdMg","sourceTagId":76963559,"sourceTagName":"爱马仕/女包","rawTitle":"✨凯莉二代mini \n彩色集合图"},"price":null,"currency":"CNY","moq":1,"category":"hermes-women-bags","status":"active","alibaba_url":null,"images":["https://xcimg.szwego.com/img/88b306c4/20240904/a1725383884854_2616.jpg","https://xcimg.szwego.com/img/88b306c4/20240904/a1725383897297_4374.jpg","https://xcimg.szwego.com/img/88b306c4/20240904/a1725383907134_6157.jpg"],"created_at":"2024-10-22T05:04:33.155Z"},{"id":"item-024be43c3e7d","sku":"_d8G8GKPR4SVDXRLIKw66yZippV8w6zqWygRq8yA","name_en":"✨凯莉二代mini","name_cn":"✨凯莉二代mini \n颜色:饼干色/奶昔白\n进口epsom皮、银扣\n机车+半收工手缝蜡线\n尺寸:19cm","specs":{"source":"wsxcme","sourceId":"_d8G8GKPR4SVDXRLIKw66yZippV8w6zqWygRq8yA","sourceTagId":76963559,"sourceTagName":"爱马仕/女包","rawTitle":"✨凯莉二代mini \n颜色:饼干色/奶昔白\n进口epsom皮、银扣\n机车+半收工手缝蜡线\n尺寸:19cm"},"price":null,"currency":"CNY","moq":1,"category":"hermes-women-bags","status":"active","alibaba_url":null,"images":["https://xcimg.szwego.com/img/88b306c4/20240903/a1725374172094_2156.jpg","https://xcimg.szwego.com/img/88b306c4/20240903/a1725374171774_8835.jpg","https://xcimg.szwego.com/img/88b306c4/20240903/a1725374171994_0875.jpg","https://xcimg.szwego.com/img/88b306c4/20240903/a1725374171877_6318.jpg","https://xcimg.szwego.com/img/88b306c4/20240903/a1725374172143_0322.jpg","https://xcimg.szwego.com/img/88b306c4/20240903/a1725374171902_2072.jpg","https://xcimg.szwego.com/img/88b306c4/20240903/a1725374173364_1003.jpg","https://xcimg.szwego.com/img/88b306c4/20240903/a1725374173365_2156.jpg","https://xcimg.szwego.com/img/88b306c4/20240903/a1725374173270_2111.jpg"],"created_at":"2024-10-22T05:04:33.201Z"},{"id":"item-b11a1722fd42","sku":"_dl1l1OHLXblWg3UqPYbqn8pMnWaVNBmIhWN4MBg","name_en":"✨亮面柔软牛皮革 Bob 折叠托特手袋","name_cn":"✨亮面柔软牛皮革 Bob 折叠托特手袋\n型号:1577 \n尺寸:47.5-39-9.5\nBob 折叠托特手袋是对 Bobby 鞋履系列的多样诠释,采用独特的提手形状镂空设计。模组化设计造就多种携带方式,可作为托特手袋、手拿包或斜挎包使用。此版本采用亮面柔软牛皮革制成。\n可肩背、斜挎或手提\n可拆卸可调节肩带\n拉链开合\n一个外部拉链后袋,一个内部拉链口袋\n织物衬里\nLOEWE 压纹牛皮革贴片\n公分·in\nColour\n黑色\nMetallic colour\n钯金色\nMain material\n亮面柔软牛皮革\nStrap length\n84 - 135 cm\n肩带长度\n35 - 65 cm","specs":{"source":"wsxcme","sourceId":"_dl1l1OHLXblWg3UqPYbqn8pMnWaVNBmIhWN4MBg","sourceTagId":47002713,"sourceTagName":"罗意威/女包","modelNumber":"1577","rawTitle":"✨亮面柔软牛皮革 Bob 折叠托特手袋\n型号:1577 \n尺寸:47.5-39-9.5\nBob 折叠托特手袋是对 Bobby 鞋履系列的多样诠释,采用独特的提手形状镂空设计。模组化设计造就多种携带方式,可作为托特手袋、手拿包或斜挎包使用。此版本采用亮面柔软牛皮革制成。\n可肩背、斜挎或手提\n可拆卸可调节肩带\n拉链开合\n一个外部拉链后袋,一个内部拉链口袋\n织物衬里\nLOEWE 压纹牛皮革贴片\n公分·in\nColour\n黑色\nMetallic colour\n钯金色\nMain material\n亮面柔软牛皮革\nStrap length\n84 - 135 cm\n肩带长度\n35 - 65 cm"},"price":null,"currency":"CNY","moq":1,"category":"loewe-women-bags","status":"active","alibaba_url":null,"images":["https://xcimg.szwego.com/img/7f9d4644/20260329/i1774754194868_1143_0_0.jpg","https://xcimg.szwego.com/img/7f9d4644/20260329/i1774754194741_7518_0_1.jpg","https://xcimg.szwego.com/img/7f9d4644/20260329/i1774754193154_8025_0_2.jpg","https://xcimg.szwego.com/img/7f9d4644/20260329/i1774754193101_4384_0_3.jpg","https://xcimg.szwego.com/img/7f9d4644/20260329/i1774754193138_6693_0_4.jpg","https://xcimg.szwego.com/img/7f9d4644/20260329/i1774754193106_636_0_5.jpg","https://xcimg.szwego.com/img/7f9d4644/20260329/i1774754193138_8856_0_6.jpg","https://xcimg.szwego.com/img/7f9d4644/20260329/i1774754194821_6214_0_7.jpg","https://xcimg.szwego.com/img/7f9d4644/20260329/i1774754194731_6387_0_8.jpg"],"created_at":"2026-05-20T08:54:03.071Z"},{"id":"item-92519a0c29d8","sku":"_dkPkPvjRrd1B3nID6GTukgCTNhZYISEYoPqM5EA","name_en":"✨B0ttega Venet@✨ 葆蝶家 编织钱包 intreccio编织经典 光滑Nappa小羊皮内衬 超多卡位 超满足  size:18*1.5*11cm 86309","name_cn":"✨B0ttega Venet@✨ 葆蝶家 编织钱包 intreccio编织经典 光滑Nappa小羊皮内衬 超多卡位 超满足  size:18*1.5*11cm 86309","specs":{"source":"wsxcme","sourceId":"_dkPkPvjRrd1B3nID6GTukgCTNhZYISEYoPqM5EA","sourceTagId":47002663,"sourceTagName":"长短款钱包","rawTitle":"✨B0ttega Venet@✨ 葆蝶家 编织钱包 intreccio编织经典 光滑Nappa小羊皮内衬 超多卡位 超满足  size:18*1.5*11cm 86309"},"price":null,"currency":"CNY","moq":1,"category":"women-wallets","status":"active","alibaba_url":null,"images":["https://xcimg.szwego.com/20200425/i1587794305_6815_0.jpg","https://xcimg.szwego.com/20200425/i1587794305_346_1.jpg","https://xcimg.szwego.com/20200425/i1587794305_2153_2.jpg","https://xcimg.szwego.com/20200425/i1587794305_7123_3.jpg","https://xcimg.szwego.com/20200425/i1587794305_74_4.jpg","https://xcimg.szwego.com/20200425/i1587794305_1598_5.jpg","https://xcimg.szwego.com/20200425/i1587794305_8487_6.jpg","https://xcimg.szwego.com/20200425/i1587794305_8860_7.jpg","https://xcimg.szwego.com/20200425/i1587794305_2178_8.jpg"],"created_at":"2025-01-21T02:32:17.511Z"},{"id":"item-1361c961e2a0","sku":"_dkRkRhcHrpI7jfy_aXR0PJICSIvZGmaYnqV0t0w","name_en":"✨BK25  Togo皮","name_cn":"✨BK25  Togo皮\nTogo皮铂金25cm\n手缝蜡线 全钢五金 内里山羊皮","specs":{"source":"wsxcme","sourceId":"_dkRkRhcHrpI7jfy_aXR0PJICSIvZGmaYnqV0t0w","sourceTagId":76963559,"sourceTagName":"爱马仕/女包","rawTitle":"✨BK25  Togo皮\nTogo皮铂金25cm\n手缝蜡线 全钢五金 内里山羊皮"},"price":null,"currency":"CNY","moq":1,"category":"hermes-women-bags","status":"active","alibaba_url":null,"images":["https://xcimg.szwego.com/img/9ee4266d/20240528/i1716870627_5748_3.jpg","https://xcimg.szwego.com/img/9ee4266d/20240528/i1716870627_2402_2.jpg","https://xcimg.szwego.com/img/9ee4266d/20240528/i1716866754_9662_5.jpg","https://xcimg.szwego.com/img/9ee4266d/20240528/i1716870793_1044_0.jpg","https://xcimg.szwego.com/img/9ee4266d/20240528/i1716870993_6192_0.jpg","https://xcimg.szwego.com/img/9ee4266d/20240528/i1716870993_1177_1.jpg","https://xcimg.szwego.com/img/9ee4266d/20240528/i1716866754_7025_2.jpg","https://xcimg.szwego.com/img/9ee4266d/20240528/i1716886592_7019_0.jpg","https://xcimg.szwego.com/img/9ee4266d/20240528/i1716866754_9937_3.jpg"],"created_at":"2024-10-22T04:43:02.190Z"},{"id":"item-7910dac2172e","sku":"_dfZfZ7Qq7prhM9J5uurEjILAhoyjz-FjEyhmXwA","name_en":"✨CELINE CABAS TRIOMPHE🛍帆布小号竖款手袋 191542#『棕色』凯旋购物袋 超级适合这个秋冬,新老花跟以前的相比,凯旋门图案更立体,看起来更时髦。经典的棕色 很复古!65%涂层帆布,35%小牛皮100%棉衬里内侧拉链口袋可调节可拆卸皮革肩带!尺寸:28*33*8cm","name_cn":"✨CELINE CABAS TRIOMPHE🛍帆布小号竖款手袋 191542#『棕色』凯旋购物袋 超级适合这个秋冬,新老花跟以前的相比,凯旋门图案更立体,看起来更时髦。经典的棕色 很复古!65%涂层帆布,35%小牛皮100%棉衬里内侧拉链口袋可调节可拆卸皮革肩带!尺寸:28*33*8cm","specs":{"source":"wsxcme","sourceId":"_dfZfZ7Qq7prhM9J5uurEjILAhoyjz-FjEyhmXwA","sourceTagId":47003106,"sourceTagName":"塞琳/女包","dimensions":{"lengthCm":28,"heightCm":33,"widthCm":8},"rawTitle":"✨CELINE CABAS TRIOMPHE🛍帆布小号竖款手袋 191542#『棕色』凯旋购物袋 超级适合这个秋冬,新老花跟以前的相比,凯旋门图案更立体,看起来更时髦。经典的棕色 很复古!65%涂层帆布,35%小牛皮100%棉衬里内侧拉链口袋可调节可拆卸皮革肩带!尺寸:28*33*8cm"},"price":null,"currency":"CNY","moq":1,"category":"celine-women-bags","status":"active","alibaba_url":null,"images":["https://xcimg.szwego.com/20210329/i1616997887_8971_0.jpg","https://xcimg.szwego.com/20210329/i1616997887_9275_1.jpg","https://xcimg.szwego.com/20210329/i1616997887_5514_2.jpg","https://xcimg.szwego.com/20210329/i1616997887_3349_3.jpg","https://xcimg.szwego.com/20210329/i1616997887_906_4.jpg","https://xcimg.szwego.com/20210329/i1616997887_1001_5.jpg","https://xcimg.szwego.com/20210329/i1616997887_8365_6.jpg","https://xcimg.szwego.com/20210329/i1616997887_979_7.jpg","https://xcimg.szwego.com/20210329/i1616997887_8045_8.jpg"],"created_at":"2024-04-30T06:38:14.781Z"},{"id":"item-e53de21693b2","sku":"_dpZpZJEXizDXJTrb-jPm0HlX8mLONaeBTzC6xPQ","name_en":"✨Chanel✨新款出货🔥款号2011,里外采用小羊皮绣菱形格单拉钱包💃黑配白,设有多个插卡位💫手感超棒..💖💖经典永恒,尺寸19.5*10.5.💃","name_cn":"✨Chanel✨新款出货🔥款号2011,里外采用小羊皮绣菱形格单拉钱包💃黑配白,设有多个插卡位💫手感超棒..💖💖经典永恒,尺寸19.5*10.5.💃","specs":{"source":"wsxcme","sourceId":"_dpZpZJEXizDXJTrb-jPm0HlX8mLONaeBTzC6xPQ","sourceTagId":47002663,"sourceTagName":"长短款钱包","modelNumber":"2011","rawTitle":"✨Chanel✨新款出货🔥款号2011,里外采用小羊皮绣菱形格单拉钱包💃黑配白,设有多个插卡位💫手感超棒..💖💖经典永恒,尺寸19.5*10.5.💃"},"price":null,"currency":"CNY","moq":1,"category":"women-wallets","status":"active","alibaba_url":null,"images":["https://xcimg.szwego.com/img/edc8246d/20241004/i1728016508_1990_0.jpg","https://xcimg.szwego.com/img/edc8246d/20241004/i1728016508_6419_4.jpg","https://xcimg.szwego.com/img/edc8246d/20241004/i1728016508_9770_7.jpg","https://xcimg.szwego.com/img/edc8246d/20241004/i1728016508_8767_5.jpg","https://xcimg.szwego.com/img/edc8246d/20241004/i1728016508_5117_2.jpg","https://xcimg.szwego.com/img/edc8246d/20241004/i1728016508_762_3.jpg","https://xcimg.szwego.com/img/edc8246d/20241004/i1728016508_6397_6.jpg","https://xcimg.szwego.com/img/edc8246d/20241004/i1728016508_473_8.jpg","https://xcimg.szwego.com/img/edc8246d/20241004/i1728016508_7403_1.jpg"],"created_at":"2025-01-20T13:02:58.451Z"},{"id":"item-aa6e85fbe58f","sku":"_dkSkSQfx50FKMEwRK7ahUqF8hT8iPjLS0UHGAlQ","name_en":"✨Chanel✨新款出货🔥款号2011,里外采用小羊皮绣菱形格单拉钱包💃黑配黑设有多个插卡位💫手感超棒..💖💖经典永恒,尺寸19.5*10.5.💃","name_cn":"✨Chanel✨新款出货🔥款号2011,里外采用小羊皮绣菱形格单拉钱包💃黑配黑设有多个插卡位💫手感超棒..💖💖经典永恒,尺寸19.5*10.5.💃","specs":{"source":"wsxcme","sourceId":"_dkSkSQfx50FKMEwRK7ahUqF8hT8iPjLS0UHGAlQ","sourceTagId":47002663,"sourceTagName":"长短款钱包","modelNumber":"2011","rawTitle":"✨Chanel✨新款出货🔥款号2011,里外采用小羊皮绣菱形格单拉钱包💃黑配黑设有多个插卡位💫手感超棒..💖💖经典永恒,尺寸19.5*10.5.💃"},"price":null,"currency":"CNY","moq":1,"category":"women-wallets","status":"active","alibaba_url":null,"images":["https://xcimg.szwego.com/img/edc8246d/20241004/i1728017417_2440_4.jpg","https://xcimg.szwego.com/img/edc8246d/20241004/i1728017417_3941_2.jpg","https://xcimg.szwego.com/img/edc8246d/20241004/i1728017417_6329_8.jpg","https://xcimg.szwego.com/img/edc8246d/20241004/i1728017417_2656_6.jpg","https://xcimg.szwego.com/img/edc8246d/20241004/i1728017417_4631_1.jpg","https://xcimg.szwego.com/img/edc8246d/20241004/i1728017417_7327_5.jpg","https://xcimg.szwego.com/img/edc8246d/20241004/i1728017417_2104_0.jpg","https://xcimg.szwego.com/img/edc8246d/20241004/i1728017417_9966_3.jpg","https://xcimg.szwego.com/img/edc8246d/20241004/i1728017417_9788_7.jpg"],"created_at":"2025-01-20T13:02:58.450Z"},{"id":"item-6b3869a6923f","sku":"_dARARtmVgWeu4whQIusHOx2ZJcC6oNjWFQb9dnQ","name_en":"✨Chanel✨新款出货🔥款号2011,里外采用小羊皮绣菱形格单拉钱包💃黑配蛇皮,设有多个插卡位💫手感超棒..💖💖经典永恒,尺寸19.5*10.5.💃","name_cn":"✨Chanel✨新款出货🔥款号2011,里外采用小羊皮绣菱形格单拉钱包💃黑配蛇皮,设有多个插卡位💫手感超棒..💖💖经典永恒,尺寸19.5*10.5.💃","specs":{"source":"wsxcme","sourceId":"_dARARtmVgWeu4whQIusHOx2ZJcC6oNjWFQb9dnQ","sourceTagId":47002663,"sourceTagName":"长短款钱包","modelNumber":"2011","rawTitle":"✨Chanel✨新款出货🔥款号2011,里外采用小羊皮绣菱形格单拉钱包💃黑配蛇皮,设有多个插卡位💫手感超棒..💖💖经典永恒,尺寸19.5*10.5.💃"},"price":null,"currency":"CNY","moq":1,"category":"women-wallets","status":"active","alibaba_url":null,"images":["https://xcimg.szwego.com/img/edc8246d/20241004/i1728017460_5077_4.jpg","https://xcimg.szwego.com/img/edc8246d/20241004/i1728017460_6161_8.jpg","https://xcimg.szwego.com/img/edc8246d/20241004/i1728017460_9762_7.jpg","https://xcimg.szwego.com/img/edc8246d/20241004/i1728017460_1804_2.jpg","https://xcimg.szwego.com/img/edc8246d/20241004/i1728017460_7997_3.jpg","https://xcimg.szwego.com/img/edc8246d/20241004/i1728017460_797_0.jpg","https://xcimg.szwego.com/img/edc8246d/20241004/i1728017460_232_1.jpg","https://xcimg.szwego.com/img/edc8246d/20241004/i1728017460_3049_6.jpg","https://xcimg.szwego.com/img/edc8246d/20241004/i1728017460_1549_5.jpg"],"created_at":"2025-01-20T13:02:58.449Z"},{"id":"item-61d566526797","sku":"_dmbmbfhNuvN8MTSzsjZ63r1gR7DEvFzbwkjtBWA","name_en":"✨Chanel✨新款出货🔥款号2012,里外采用小羊皮绣菱形格单拉钱包💃黑配白设有多个插卡位💫手感超棒..💖💖经典永恒,尺寸19.5*10.5.💃","name_cn":"✨Chanel✨新款出货🔥款号2012,里外采用小羊皮绣菱形格单拉钱包💃黑配白设有多个插卡位💫手感超棒..💖💖经典永恒,尺寸19.5*10.5.💃","specs":{"source":"wsxcme","sourceId":"_dmbmbfhNuvN8MTSzsjZ63r1gR7DEvFzbwkjtBWA","sourceTagId":47002663,"sourceTagName":"长短款钱包","modelNumber":"2012","rawTitle":"✨Chanel✨新款出货🔥款号2012,里外采用小羊皮绣菱形格单拉钱包💃黑配白设有多个插卡位💫手感超棒..💖💖经典永恒,尺寸19.5*10.5.💃"},"price":null,"currency":"CNY","moq":1,"category":"women-wallets","status":"active","alibaba_url":null,"images":["https://xcimg.szwego.com/img/edc8246d/20241004/i1728017628_5133_3.jpg","https://xcimg.szwego.com/img/edc8246d/20241004/i1728017628_5719_6.jpg","https://xcimg.szwego.com/img/edc8246d/20241004/i1728017628_9031_5.jpg","https://xcimg.szwego.com/img/edc8246d/20241004/i1728017628_172_1.jpg","https://xcimg.szwego.com/img/edc8246d/20241004/i1728017628_5845_7.jpg","https://xcimg.szwego.com/img/edc8246d/20241004/i1728017628_7344_2.jpg","https://xcimg.szwego.com/img/edc8246d/20241004/i1728017628_598_4.jpg","https://xcimg.szwego.com/img/edc8246d/20241004/i1728017628_7686_8.jpg","https://xcimg.szwego.com/img/edc8246d/20241004/i1728017628_8898_0.jpg"],"created_at":"2025-01-20T13:02:58.447Z"},{"id":"item-2a45bf875175","sku":"_duRuRkdYgn8bGqlNWI9xWWamVZpNc5sy6SQ9UNA","name_en":"✨Chanel✨新款出货🔥款号2012,里外采用小羊皮绣菱形格单拉钱包💃黑配黑设有多个插卡位💫手感超棒..💖💖经典永恒,尺寸19.5*10.5.💃","name_cn":"✨Chanel✨新款出货🔥款号2012,里外采用小羊皮绣菱形格单拉钱包💃黑配黑设有多个插卡位💫手感超棒..💖💖经典永恒,尺寸19.5*10.5.💃","specs":{"source":"wsxcme","sourceId":"_duRuRkdYgn8bGqlNWI9xWWamVZpNc5sy6SQ9UNA","sourceTagId":47002663,"sourceTagName":"长短款钱包","modelNumber":"2012","rawTitle":"✨Chanel✨新款出货🔥款号2012,里外采用小羊皮绣菱形格单拉钱包💃黑配黑设有多个插卡位💫手感超棒..💖💖经典永恒,尺寸19.5*10.5.💃"},"price":null,"currency":"CNY","moq":1,"category":"women-wallets","status":"active","alibaba_url":null,"images":["https://xcimg.szwego.com/img/edc8246d/20241004/i1728017721_4782_2.jpg","https://xcimg.szwego.com/img/edc8246d/20241004/i1728017721_1598_0.jpg","https://xcimg.szwego.com/img/edc8246d/20241004/i1728017721_6237_3.jpg","https://xcimg.szwego.com/img/edc8246d/20241004/i1728017721_4392_1.jpg","https://xcimg.szwego.com/img/edc8246d/20241004/i1728017721_5474_5.jpg","https://xcimg.szwego.com/img/edc8246d/20241004/i1728017721_9187_4.jpg","https://xcimg.szwego.com/img/edc8246d/20241004/i1728017721_2887_6.jpg","https://xcimg.szwego.com/img/edc8246d/20241004/i1728017721_2915_7.jpg"],"created_at":"2025-01-20T13:02:58.446Z"},{"id":"item-51ad2f497f97","sku":"_dq2q2_8atstfryxLg8UIANra3KRgHCRZBuH37jA","name_en":"✨Chanel✨新款出货🔥款号2012,里外采用小羊皮绣菱形格单拉钱包💃黑配蛇皮,设有多个插卡位💫手感超棒..💖💖经典永恒,尺寸19.5*10.5.💃","name_cn":"✨Chanel✨新款出货🔥款号2012,里外采用小羊皮绣菱形格单拉钱包💃黑配蛇皮,设有多个插卡位💫手感超棒..💖💖经典永恒,尺寸19.5*10.5.💃","specs":{"source":"wsxcme","sourceId":"_dq2q2_8atstfryxLg8UIANra3KRgHCRZBuH37jA","sourceTagId":47002663,"sourceTagName":"长短款钱包","modelNumber":"2012","rawTitle":"✨Chanel✨新款出货🔥款号2012,里外采用小羊皮绣菱形格单拉钱包💃黑配蛇皮,设有多个插卡位💫手感超棒..💖💖经典永恒,尺寸19.5*10.5.💃"},"price":null,"currency":"CNY","moq":1,"category":"women-wallets","status":"active","alibaba_url":null,"images":["https://xcimg.szwego.com/img/edc8246d/20241004/i1728017550_8373_5.jpg","https://xcimg.szwego.com/img/edc8246d/20241004/i1728017550_8373_4.jpg","https://xcimg.szwego.com/img/edc8246d/20241004/i1728017549_4158_0.jpg","https://xcimg.szwego.com/img/edc8246d/20241004/i1728017550_1955_3.jpg","https://xcimg.szwego.com/img/edc8246d/20241004/i1728017550_2513_7.jpg","https://xcimg.szwego.com/img/edc8246d/20241004/i1728017550_972_2.jpg","https://xcimg.szwego.com/img/edc8246d/20241004/i1728017550_4788_8.jpg","https://xcimg.szwego.com/img/edc8246d/20241004/i1728017549_2779_1.jpg","https://xcimg.szwego.com/img/edc8246d/20241004/i1728017550_5211_6.jpg"],"created_at":"2025-01-20T13:02:58.448Z"},{"id":"item-e3ea208efd80","sku":"_djMjMMhtWho6ciW0-eYO-L065NXiTyT9FCDW40A","name_en":"✨Garden 花园包36cm ✨","name_cn":"✨Garden 花园包36cm ✨\n帆布拼togo皮 ZG最新涂鸦 全钢五金 手缝蜡线 \n【现货】","specs":{"source":"wsxcme","sourceId":"_djMjMMhtWho6ciW0-eYO-L065NXiTyT9FCDW40A","sourceTagId":76963559,"sourceTagName":"爱马仕/女包","rawTitle":"✨Garden 花园包36cm ✨\n帆布拼togo皮 ZG最新涂鸦 全钢五金 手缝蜡线 \n【现货】"},"price":null,"currency":"CNY","moq":1,"category":"hermes-women-bags","status":"active","alibaba_url":null,"images":["https://xcimg.szwego.com/20240621/i1718949522_556_0.jpg","https://xcimg.szwego.com/20240621/i1718949522_6223_1.jpg","https://xcimg.szwego.com/20240621/i1718949522_6794_2.jpg","https://xcimg.szwego.com/20240621/i1718949522_9902_3.jpg","https://xcimg.szwego.com/20240621/i1718949522_1866_4.jpg","https://xcimg.szwego.com/20240621/i1718949522_6805_5.jpg","https://xcimg.szwego.com/20240621/i1718949522_5552_6.jpg","https://xcimg.szwego.com/20240621/i1718949522_1348_7.jpg"],"created_at":"2024-10-22T05:04:33.223Z"},{"id":"item-de7aa6d4f224","sku":"_dRjRjn30oTRh7uQqNiJPgmeBGfkK8KyTtMdA-_g","name_en":"✨Garden 花园包36cm ✨","name_cn":"✨Garden 花园包36cm ✨\n帆布拼togo皮 ZG最新涂鸦 全钢五金 手缝蜡线 \n【现货】","specs":{"source":"wsxcme","sourceId":"_dRjRjn30oTRh7uQqNiJPgmeBGfkK8KyTtMdA-_g","sourceTagId":76963559,"sourceTagName":"爱马仕/女包","rawTitle":"✨Garden 花园包36cm ✨\n帆布拼togo皮 ZG最新涂鸦 全钢五金 手缝蜡线 \n【现货】"},"price":null,"currency":"CNY","moq":1,"category":"hermes-women-bags","status":"active","alibaba_url":null,"images":["https://xcimg.szwego.com/20240621/i1718949541_6244_0.jpg","https://xcimg.szwego.com/20240621/i1718949541_8602_1.jpg","https://xcimg.szwego.com/20240621/i1718949541_7156_2.jpg","https://xcimg.szwego.com/20240621/i1718949541_7134_3.jpg","https://xcimg.szwego.com/20240621/i1718949541_592_4.jpg","https://xcimg.szwego.com/20240621/i1718949541_5311_5.jpg","https://xcimg.szwego.com/20240621/i1718949541_4968_6.jpg","https://xcimg.szwego.com/20240621/i1718949541_7557_7.jpg"],"created_at":"2024-10-22T05:04:33.224Z"},{"id":"item-dd1a1ea6ce16","sku":"_dM3M31y3CTB1BVB7Jw59axEiQhXBwzWs2kKW2sw","name_en":"✨Garden 花园包36cm ✨","name_cn":"✨Garden 花园包36cm ✨\n帆布拼togo皮 ZG最新涂鸦 全钢五金 手缝蜡线 \n【现货】","specs":{"source":"wsxcme","sourceId":"_dM3M31y3CTB1BVB7Jw59axEiQhXBwzWs2kKW2sw","sourceTagId":76963559,"sourceTagName":"爱马仕/女包","rawTitle":"✨Garden 花园包36cm ✨\n帆布拼togo皮 ZG最新涂鸦 全钢五金 手缝蜡线 \n【现货】"},"price":null,"currency":"CNY","moq":1,"category":"hermes-women-bags","status":"active","alibaba_url":null,"images":["https://xcimg.szwego.com/20240517/i1715878217_6172_0.jpg","https://xcimg.szwego.com/20240517/i1715878217_5521_1.jpg","https://xcimg.szwego.com/20240517/i1715878217_9632_2.jpg","https://xcimg.szwego.com/20240517/i1715878217_4081_3.jpg","https://xcimg.szwego.com/20240517/i1715878217_9718_4.jpg","https://xcimg.szwego.com/20240517/i1715878217_1366_5.jpg","https://xcimg.szwego.com/20240517/i1715878217_9011_6.jpg","https://xcimg.szwego.com/20240517/i1715878217_6767_7.jpg"],"created_at":"2024-10-22T05:04:33.235Z"},{"id":"item-db2767d45dd9","sku":"_dCgCgRgyKUaoz3fzjxZ4rrdW7GmzgIFl0xcgtSQ","name_en":"✨Garden 花园包36cm ✨","name_cn":"✨Garden 花园包36cm ✨\n帆布拼togo皮 ZG最新涂鸦 全钢五金 手缝蜡线 \n【现货】","specs":{"source":"wsxcme","sourceId":"_dCgCgRgyKUaoz3fzjxZ4rrdW7GmzgIFl0xcgtSQ","sourceTagId":76963559,"sourceTagName":"爱马仕/女包","rawTitle":"✨Garden 花园包36cm ✨\n帆布拼togo皮 ZG最新涂鸦 全钢五金 手缝蜡线 \n【现货】"},"price":null,"currency":"CNY","moq":1,"category":"hermes-women-bags","status":"active","alibaba_url":null,"images":["https://xcimg.szwego.com/20240517/i1715878201_2239_0.jpg","https://xcimg.szwego.com/20240517/i1715878201_9674_1.jpg","https://xcimg.szwego.com/20240517/i1715878201_7858_2.jpg","https://xcimg.szwego.com/20240517/i1715878201_5001_3.jpg","https://xcimg.szwego.com/20240517/i1715878201_1222_4.jpg","https://xcimg.szwego.com/20240517/i1715878201_7823_5.jpg","https://xcimg.szwego.com/20240517/i1715878201_5686_6.jpg"],"created_at":"2024-10-22T05:04:33.234Z"},{"id":"item-be4ce4e6e89c","sku":"_dYsYs3KgcY8Dc0EAgJWHw0TPdntvnlTU72wzRrw","name_en":"✨Garden 花园包36cm ✨","name_cn":"✨Garden 花园包36cm ✨\n帆布拼togo皮 ZG最新涂鸦 全钢五金 手缝蜡线 \n【现货】","specs":{"source":"wsxcme","sourceId":"_dYsYs3KgcY8Dc0EAgJWHw0TPdntvnlTU72wzRrw","sourceTagId":76963559,"sourceTagName":"爱马仕/女包","rawTitle":"✨Garden 花园包36cm ✨\n帆布拼togo皮 ZG最新涂鸦 全钢五金 手缝蜡线 \n【现货】"},"price":null,"currency":"CNY","moq":1,"category":"hermes-women-bags","status":"active","alibaba_url":null,"images":["https://xcimg.szwego.com/20240621/i1718949671_3045_0.jpg","https://xcimg.szwego.com/20240621/i1718949671_2230_1.jpg","https://xcimg.szwego.com/20240621/i1718949671_9025_2.jpg","https://xcimg.szwego.com/20240621/i1718949671_3256_3.jpg","https://xcimg.szwego.com/20240621/i1718949671_4101_4.jpg","https://xcimg.szwego.com/20240621/i1718949671_1947_5.jpg","https://xcimg.szwego.com/20240621/i1718949671_4379_6.jpg","https://xcimg.szwego.com/20240621/i1718949671_183_7.jpg"],"created_at":"2024-10-22T05:04:33.230Z"}],"page":87,"pageSize":24,"total":10075,"totalPages":420}
