{"items":[{"id":"item-bd4fdde742f6","sku":"_dxIxIN2xWFCvSI9SEeTjOJmop86jQHfjtYtzN-A","name_en":"✨Garden 花园包36cm ✨","name_cn":"✨Garden 花园包36cm ✨\n帆布拼togo皮 ZG最新涂鸦 全钢五金 手缝蜡线 \n【现货】","specs":{"source":"wsxcme","sourceId":"_dxIxIN2xWFCvSI9SEeTjOJmop86jQHfjtYtzN-A","sourceTagId":76963559,"sourceTagName":"爱马仕/女包","rawTitle":"✨Garden 花园包36cm ✨\n帆布拼togo皮 ZG最新涂鸦 全钢五金 手缝蜡线 \n【现货】"},"price":null,"currency":"CNY","moq":1,"category":"hermes-women-bags","status":"active","alibaba_url":null,"images":["https://xcimg.szwego.com/20240621/i1718949561_6994_0.jpg","https://xcimg.szwego.com/20240621/i1718949561_7546_1.jpg","https://xcimg.szwego.com/20240621/i1718949561_3275_2.jpg","https://xcimg.szwego.com/20240621/i1718949561_9789_3.jpg","https://xcimg.szwego.com/20240621/i1718949561_8449_4.jpg","https://xcimg.szwego.com/20240621/i1718949561_2096_5.jpg","https://xcimg.szwego.com/20240621/i1718949561_7004_6.jpg","https://xcimg.szwego.com/20240621/i1718949561_6877_7.jpg"],"created_at":"2024-10-22T05:04:33.225Z"},{"id":"item-989032171ede","sku":"_dhFhF-cRYjaW7xGYsV8gn4gatrY6u6wCay0gQCQ","name_en":"✨Garden 花园包36cm ✨","name_cn":"✨Garden 花园包36cm ✨\n帆布拼togo皮 ZG最新涂鸦 全钢五金 手缝蜡线 \n【现货】","specs":{"source":"wsxcme","sourceId":"_dhFhF-cRYjaW7xGYsV8gn4gatrY6u6wCay0gQCQ","sourceTagId":76963559,"sourceTagName":"爱马仕/女包","rawTitle":"✨Garden 花园包36cm ✨\n帆布拼togo皮 ZG最新涂鸦 全钢五金 手缝蜡线 \n【现货】"},"price":null,"currency":"CNY","moq":1,"category":"hermes-women-bags","status":"active","alibaba_url":null,"images":["https://xcimg.szwego.com/20240517/i1715878231_6393_0.jpg","https://xcimg.szwego.com/20240517/i1715878231_1843_1.jpg","https://xcimg.szwego.com/20240517/i1715878231_5956_2.jpg","https://xcimg.szwego.com/20240517/i1715878231_8458_3.jpg","https://xcimg.szwego.com/20240517/i1715878231_8244_4.jpg","https://xcimg.szwego.com/20240517/i1715878231_1000_5.jpg","https://xcimg.szwego.com/20240517/i1715878231_4644_6.jpg","https://xcimg.szwego.com/20240517/i1715878231_2518_7.jpg"],"created_at":"2024-10-22T05:04:33.236Z"},{"id":"item-9447ca54b99b","sku":"_dH-H-ROwrzBXb9IwP6PYLwfHkKIV_sAwT-_e8Hw","name_en":"✨Garden 花园包36cm ✨","name_cn":"✨Garden 花园包36cm ✨\n帆布拼togo皮 ZG最新涂鸦 全钢五金 手缝蜡线 \n【现货】","specs":{"source":"wsxcme","sourceId":"_dH-H-ROwrzBXb9IwP6PYLwfHkKIV_sAwT-_e8Hw","sourceTagId":76963559,"sourceTagName":"爱马仕/女包","rawTitle":"✨Garden 花园包36cm ✨\n帆布拼togo皮 ZG最新涂鸦 全钢五金 手缝蜡线 \n【现货】"},"price":null,"currency":"CNY","moq":1,"category":"hermes-women-bags","status":"active","alibaba_url":null,"images":["https://xcimg.szwego.com/20240517/i1715877823_2842_0.jpg","https://xcimg.szwego.com/20240517/i1715877823_9400_1.jpg","https://xcimg.szwego.com/20240517/i1715877823_9540_2.jpg","https://xcimg.szwego.com/20240517/i1715877823_4186_3.jpg","https://xcimg.szwego.com/20240517/i1715877823_9593_4.jpg","https://xcimg.szwego.com/20240517/i1715877823_1307_5.jpg","https://xcimg.szwego.com/20240517/i1715877823_4619_6.jpg","https://xcimg.szwego.com/20240517/i1715877823_2958_7.jpg"],"created_at":"2024-10-22T05:04:33.231Z"},{"id":"item-8b0c0317d21a","sku":"_dnbnb-k9ronJYr6QximwDNT1eu9CysJw56Fu2FQ","name_en":"✨Garden 花园包36cm ✨","name_cn":"✨Garden 花园包36cm ✨\n帆布拼togo皮 ZG最新涂鸦 全钢五金 手缝蜡线 \n【现货】","specs":{"source":"wsxcme","sourceId":"_dnbnb-k9ronJYr6QximwDNT1eu9CysJw56Fu2FQ","sourceTagId":76963559,"sourceTagName":"爱马仕/女包","rawTitle":"✨Garden 花园包36cm ✨\n帆布拼togo皮 ZG最新涂鸦 全钢五金 手缝蜡线 \n【现货】"},"price":null,"currency":"CNY","moq":1,"category":"hermes-women-bags","status":"active","alibaba_url":null,"images":["https://xcimg.szwego.com/20240517/i1715878165_9138_0.jpg","https://xcimg.szwego.com/20240517/i1715878165_6200_1.jpg","https://xcimg.szwego.com/20240517/i1715878165_576_2.jpg","https://xcimg.szwego.com/20240517/i1715878165_800_3.jpg","https://xcimg.szwego.com/20240517/i1715878165_1421_4.jpg","https://xcimg.szwego.com/20240517/i1715878165_2250_5.jpg","https://xcimg.szwego.com/20240517/i1715878165_4624_6.jpg","https://xcimg.szwego.com/20240517/i1715878165_6088_7.jpg"],"created_at":"2024-10-22T05:04:33.232Z"},{"id":"item-62c199435e67","sku":"_dxyxyDlMcAbKGnbHcbpV49mme1gmx8oOjRkJNZA","name_en":"✨Garden 花园包36cm ✨","name_cn":"✨Garden 花园包36cm ✨\n帆布拼togo皮 ZG最新涂鸦 全钢五金 手缝蜡线 \n【现货】","specs":{"source":"wsxcme","sourceId":"_dxyxyDlMcAbKGnbHcbpV49mme1gmx8oOjRkJNZA","sourceTagId":76963559,"sourceTagName":"爱马仕/女包","rawTitle":"✨Garden 花园包36cm ✨\n帆布拼togo皮 ZG最新涂鸦 全钢五金 手缝蜡线 \n【现货】"},"price":null,"currency":"CNY","moq":1,"category":"hermes-women-bags","status":"active","alibaba_url":null,"images":["https://xcimg.szwego.com/20240621/i1718949652_3799_0.jpg","https://xcimg.szwego.com/20240621/i1718949652_2061_1.jpg","https://xcimg.szwego.com/20240621/i1718949652_3055_2.jpg","https://xcimg.szwego.com/20240621/i1718949652_6683_3.jpg","https://xcimg.szwego.com/20240621/i1718949652_1437_4.jpg","https://xcimg.szwego.com/20240621/i1718949652_4582_5.jpg","https://xcimg.szwego.com/20240621/i1718949652_1265_6.jpg"],"created_at":"2024-10-22T05:04:33.229Z"},{"id":"item-4d56353945f2","sku":"_dv4v4ARJFTr73abnXH38C-ObybY9IyxY-TcHbEQ","name_en":"✨Garden 花园包36cm ✨","name_cn":"✨Garden 花园包36cm ✨\n帆布拼togo皮 ZG最新涂鸦 全钢五金 手缝蜡线 \n【现货】","specs":{"source":"wsxcme","sourceId":"_dv4v4ARJFTr73abnXH38C-ObybY9IyxY-TcHbEQ","sourceTagId":76963559,"sourceTagName":"爱马仕/女包","rawTitle":"✨Garden 花园包36cm ✨\n帆布拼togo皮 ZG最新涂鸦 全钢五金 手缝蜡线 \n【现货】"},"price":null,"currency":"CNY","moq":1,"category":"hermes-women-bags","status":"active","alibaba_url":null,"images":["https://xcimg.szwego.com/20240621/i1718949591_3882_0.jpg","https://xcimg.szwego.com/20240621/i1718949591_607_1.jpg","https://xcimg.szwego.com/20240621/i1718949591_6583_2.jpg","https://xcimg.szwego.com/20240621/i1718949591_7979_3.jpg","https://xcimg.szwego.com/20240621/i1718949591_1441_4.jpg","https://xcimg.szwego.com/20240621/i1718949591_7280_5.jpg","https://xcimg.szwego.com/20240621/i1718949591_4772_6.jpg","https://xcimg.szwego.com/20240621/i1718949591_361_7.jpg"],"created_at":"2024-10-22T05:04:33.227Z"},{"id":"item-482f44acf89e","sku":"_daQaQFVNklNK5rIy3adqMq3a2EQLrCUaqpaFLxA","name_en":"✨Garden 花园包36cm ✨","name_cn":"✨Garden 花园包36cm ✨\n帆布拼togo皮 ZG最新涂鸦 全钢五金 手缝蜡线 \n【现货】","specs":{"source":"wsxcme","sourceId":"_daQaQFVNklNK5rIy3adqMq3a2EQLrCUaqpaFLxA","sourceTagId":76963559,"sourceTagName":"爱马仕/女包","rawTitle":"✨Garden 花园包36cm ✨\n帆布拼togo皮 ZG最新涂鸦 全钢五金 手缝蜡线 \n【现货】"},"price":null,"currency":"CNY","moq":1,"category":"hermes-women-bags","status":"active","alibaba_url":null,"images":["https://xcimg.szwego.com/20240517/i1715878180_9542_0.jpg","https://xcimg.szwego.com/20240517/i1715878180_7675_1.jpg","https://xcimg.szwego.com/20240517/i1715878180_787_2.jpg","https://xcimg.szwego.com/20240517/i1715878180_1795_3.jpg","https://xcimg.szwego.com/20240517/i1715878180_3641_4.jpg","https://xcimg.szwego.com/20240517/i1715878180_4291_5.jpg","https://xcimg.szwego.com/20240517/i1715878180_522_6.jpg","https://xcimg.szwego.com/20240517/i1715878180_9697_7.jpg"],"created_at":"2024-10-22T05:04:33.233Z"},{"id":"item-2a386d5e832b","sku":"_dtOtO9LFw2YV-boWD4zK3CBNEINItdRqOckFMfw","name_en":"✨Garden 花园包36cm ✨","name_cn":"✨Garden 花园包36cm ✨\n帆布拼togo皮 ZG最新涂鸦 全钢五金 手缝蜡线 \n【现货】","specs":{"source":"wsxcme","sourceId":"_dtOtO9LFw2YV-boWD4zK3CBNEINItdRqOckFMfw","sourceTagId":76963559,"sourceTagName":"爱马仕/女包","rawTitle":"✨Garden 花园包36cm ✨\n帆布拼togo皮 ZG最新涂鸦 全钢五金 手缝蜡线 \n【现货】"},"price":null,"currency":"CNY","moq":1,"category":"hermes-women-bags","status":"active","alibaba_url":null,"images":["https://xcimg.szwego.com/20240621/i1718949575_8875_0.jpg","https://xcimg.szwego.com/20240621/i1718949575_5115_1.jpg","https://xcimg.szwego.com/20240621/i1718949575_6928_2.jpg","https://xcimg.szwego.com/20240621/i1718949575_2269_3.jpg","https://xcimg.szwego.com/20240621/i1718949575_2027_4.jpg","https://xcimg.szwego.com/20240621/i1718949575_4423_5.jpg","https://xcimg.szwego.com/20240621/i1718949575_6805_6.jpg","https://xcimg.szwego.com/20240621/i1718949575_3000_7.jpg"],"created_at":"2024-10-22T05:04:33.226Z"},{"id":"item-1ffa6eaced16","sku":"_dNxNxTGQoJZ9rcTCoplDHYIPEhlBqehw8Z1nq1g","name_en":"✨Garden 花园包36cm ✨","name_cn":"✨Garden 花园包36cm ✨\n帆布拼togo皮 ZG最新涂鸦 全钢五金 手缝蜡线 \n【现货】","specs":{"source":"wsxcme","sourceId":"_dNxNxTGQoJZ9rcTCoplDHYIPEhlBqehw8Z1nq1g","sourceTagId":76963559,"sourceTagName":"爱马仕/女包","rawTitle":"✨Garden 花园包36cm ✨\n帆布拼togo皮 ZG最新涂鸦 全钢五金 手缝蜡线 \n【现货】"},"price":null,"currency":"CNY","moq":1,"category":"hermes-women-bags","status":"active","alibaba_url":null,"images":["https://xcimg.szwego.com/20240621/i1718949613_3579_0.jpg","https://xcimg.szwego.com/20240621/i1718949613_4979_1.jpg","https://xcimg.szwego.com/20240621/i1718949613_3470_2.jpg","https://xcimg.szwego.com/20240621/i1718949613_7556_3.jpg","https://xcimg.szwego.com/20240621/i1718949613_8821_4.jpg","https://xcimg.szwego.com/20240621/i1718949613_2842_5.jpg","https://xcimg.szwego.com/20240621/i1718949613_7959_6.jpg","https://xcimg.szwego.com/20240621/i1718949613_5467_7.jpg"],"created_at":"2024-10-22T05:04:33.228Z"},{"id":"item-bec272de464f","sku":"_doKoKhYDf8G1EvV8w5vYuA5Ix--BDcB8v1k2jSw","name_en":"✨Hobo三合一毛毛包","name_cn":"✨Hobo三合一毛毛包\n                集合图💫","specs":{"source":"wsxcme","sourceId":"_doKoKhYDf8G1EvV8w5vYuA5Ix--BDcB8v1k2jSw","sourceTagId":47002669,"sourceTagName":"普拉达/女包","rawTitle":"✨Hobo三合一毛毛包\n                集合图💫"},"price":null,"currency":"CNY","moq":1,"category":"prada-women-bags","status":"active","alibaba_url":null,"images":["https://xcimg.szwego.com/20230105/i1672894585_8035_0.jpg","https://xcimg.szwego.com/20230105/i1672894585_5901_1.jpg","https://xcimg.szwego.com/20230105/i1672894585_7131_2.jpg"],"created_at":"2024-09-12T05:22:07.599Z"},{"id":"item-4d39e443a741","sku":"_dczczUUlw0TvvjxdROPEXZBE5fIH_ZYlR_Qldew","name_en":"✨M13397白彩 翻盖钱包 New LV x TM Portfolio Sarah NM Ms钱包 向Maison的传统行李箱致敬的“LV × TM 钱包・萨拉 NM”。稍微横长的造型上加了牛皮的修剪,前襟的角落部分装饰着金色的螺丝钉。“路易威登×村上隆”系列的重新版才有的俏皮彩虹色表现的字母图案・帆布完成。配有2个大隔间和多个口袋、12个卡槽的内部装修也","name_cn":"✨M13397白彩 翻盖钱包 New LV x TM Portfolio Sarah NM Ms钱包 向Maison的传统行李箱致敬的“LV × TM 钱包・萨拉 NM”。稍微横长的造型上加了牛皮的修剪,前襟的角落部分装饰着金色的螺丝钉。“路易威登×村上隆”系列的重新版才有的俏皮彩虹色表现的字母图案・帆布完成。配有2个大隔间和多个口袋、12个卡槽的内部装修也很有魅力。19 x 10.5 x 2厘米。","specs":{"source":"wsxcme","sourceId":"_dczczUUlw0TvvjxdROPEXZBE5fIH_ZYlR_Qldew","sourceTagId":47002622,"sourceTagName":"LV/女包","rawTitle":"✨M13397白彩 翻盖钱包 New LV x TM Portfolio Sarah NM Ms钱包 向Maison的传统行李箱致敬的“LV × TM 钱包・萨拉 NM”。稍微横长的造型上加了牛皮的修剪,前襟的角落部分装饰着金色的螺丝钉。“路易威登×村上隆”系列的重新版才有的俏皮彩虹色表现的字母图案・帆布完成。配有2个大隔间和多个口袋、12个卡槽的内部装修也很有魅力。19 x 10.5 x 2厘米。"},"price":null,"currency":"CNY","moq":1,"category":"lv-women-bags","status":"active","alibaba_url":null,"images":["https://xcimg.szwego.com/img/e8675cc7/20250224/i1740374251924_6780_0_0.jpg","https://xcimg.szwego.com/img/e8675cc7/20250224/i1740374250323_7526_0_1.jpg","https://xcimg.szwego.com/img/e8675cc7/20250224/i1740374250266_3624_0_2.jpg","https://xcimg.szwego.com/img/e8675cc7/20250224/i1740374250229_8460_0_3.jpg","https://xcimg.szwego.com/img/e8675cc7/20250224/i1740374251914_1365_0_4.jpg","https://xcimg.szwego.com/img/e8675cc7/20250224/i1740374251971_7275_0_5.jpg","https://xcimg.szwego.com/img/e8675cc7/20250224/i1740374250321_4940_0_6.jpg","https://xcimg.szwego.com/img/e8675cc7/20250224/i1740374250277_8009_0_7.jpg","https://xcimg.szwego.com/img/e8675cc7/20250224/i1740374251953_963_0_8.jpg"],"created_at":"2025-02-27T13:44:34.315Z"},{"id":"item-5b0ebd6a8987","sku":"_dsXsXt0LVta6ecGZohCvNfJet8bQrHmWF6rl1Hg","name_en":"✨M14194白彩 迷你法棍包系列 Nano Diane JhLt法棍手袋 M14194  白彩(三彩-村上隆) 双色Monogram Empreinte LT皮革的Nano Diane是标志性Diane包的小型化版本。这件精心制作的作品具有原始设计的所有关键细节,包括圆形翻盖、管道边缘和皮带式磁性闭合。其可拆卸的手柄和可拆卸的可调节肩带提供了不同的携带选择","name_cn":"✨M14194白彩 迷你法棍包系列 Nano Diane JhLt法棍手袋 M14194  白彩(三彩-村上隆) 双色Monogram Empreinte LT皮革的Nano Diane是标志性Diane包的小型化版本。这件精心制作的作品具有原始设计的所有关键细节,包括圆形翻盖、管道边缘和皮带式磁性闭合。其可拆卸的手柄和可拆卸的可调节肩带提供了不同的携带选择。尺寸: 19 x 10.5 x 6厘米","specs":{"source":"wsxcme","sourceId":"_dsXsXt0LVta6ecGZohCvNfJet8bQrHmWF6rl1Hg","sourceTagId":47002622,"sourceTagName":"LV/女包","dimensions":{"lengthCm":19,"heightCm":10.5,"widthCm":6},"rawTitle":"✨M14194白彩 迷你法棍包系列 Nano Diane JhLt法棍手袋 M14194  白彩(三彩-村上隆) 双色Monogram Empreinte LT皮革的Nano Diane是标志性Diane包的小型化版本。这件精心制作的作品具有原始设计的所有关键细节,包括圆形翻盖、管道边缘和皮带式磁性闭合。其可拆卸的手柄和可拆卸的可调节肩带提供了不同的携带选择。尺寸: 19 x 10.5 x 6厘米"},"price":null,"currency":"CNY","moq":1,"category":"lv-women-bags","status":"active","alibaba_url":null,"images":["https://xcimg.szwego.com/img/e8675cc7/20250227/i1740588584745_8019_0_0.jpg","https://xcimg.szwego.com/img/e8675cc7/20250227/i1740588581912_9827_0_1.jpg","https://xcimg.szwego.com/img/e8675cc7/20250227/i1740588584803_2967_0_2.jpg","https://xcimg.szwego.com/img/e8675cc7/20250227/i1740588581911_9603_0_3.jpg","https://xcimg.szwego.com/img/e8675cc7/20250227/i1740588584760_6573_0_5.jpg","https://xcimg.szwego.com/img/e8675cc7/20250227/i1740588584714_6712_0_6.jpg","https://xcimg.szwego.com/img/e8675cc7/20250227/i1740588584776_9900_0_7.jpg","https://xcimg.szwego.com/img/e8675cc7/20250227/i1740588581912_5763_0_8.jpg","https://xcimg.szwego.com/img/e8675cc7/20250227/i1740588581912_7894_0_9.jpg"],"created_at":"2025-02-27T13:40:24.612Z"},{"id":"item-96c92dab8a4a","sku":"_dj0j0fSAMqwMG_2aqSVpgkuHN1Fob7-iyi-qGUw","name_en":"❄️香奈儿绝美款⚜️CHANEL 2023/24新品!AS4416","name_cn":"❄️香奈儿绝美款⚜️CHANEL 2023/24新品!AS4416\n【绝美巴黎女性气质!香奈儿2023/24秋冬系列全黑手袋大放光彩!💓\nHi,亲爱的小伙伴们!今天美洋海购bouluxury和你们一起探索香奈儿的最新秋冬系列啦!这次,香奈儿带来了一系列黑色手袋,焕发出自信和谨慎的气息!快来看看吧!💕size:19X13X7cm","specs":{"source":"wsxcme","sourceId":"_dj0j0fSAMqwMG_2aqSVpgkuHN1Fob7-iyi-qGUw","sourceTagId":47002745,"sourceTagName":"香奈儿/女包","rawTitle":"❄️香奈儿绝美款⚜️CHANEL 2023/24新品!AS4416\n【绝美巴黎女性气质!香奈儿2023/24秋冬系列全黑手袋大放光彩!💓\nHi,亲爱的小伙伴们!今天美洋海购bouluxury和你们一起探索香奈儿的最新秋冬系列啦!这次,香奈儿带来了一系列黑色手袋,焕发出自信和谨慎的气息!快来看看吧!💕size:19X13X7cm"},"price":null,"currency":"CNY","moq":1,"category":"chanel-women-bags","status":"active","alibaba_url":null,"images":["https://xcimg.szwego.com/img/668db203/20231009/i1696788721_2590_0.jpg","https://xcimg.szwego.com/img/668db203/20231009/i1696788721_7495_1.jpg","https://xcimg.szwego.com/img/668db203/20231009/i1696788721_2925_2.jpg","https://xcimg.szwego.com/img/668db203/20231009/i1696788721_1657_3.jpg","https://xcimg.szwego.com/img/668db203/20231009/i1696788721_3405_4.jpg","https://xcimg.szwego.com/img/668db203/20231009/i1696788721_8423_5.jpg","https://xcimg.szwego.com/img/668db203/20231009/i1696788721_2715_6.jpg","https://xcimg.szwego.com/img/668db203/20231009/i1696788721_292_7.jpg","https://xcimg.szwego.com/img/668db203/20231009/i1696788721_3117_8.jpg"],"created_at":"2024-05-03T07:22:12.487Z"},{"id":"item-de35088f457a","sku":"_duLuLB8DkkTxeCsmFpNwXAsSC95FxVTXC8fs1uw","name_en":"❇️🔅Chane1 23K新款|⚛️","name_cn":"❇️🔅Chane1 23K新款|⚛️\n四叶草法郎手柄woc ☑A♏️\n第一眼看到就深深爱上💕\n进口小羊皮 质感柔滑细腻\n首先就是手感舒适 超好☑️\n颜值不必说 直接闭眼入不会错\n很好打理 也是百搭型\n实现了单背斜挎腋下背手拎的效果📷\n简直就是福音〰️\n很精致 值得珍藏🔝\n五金:全铜24k复古金\n尺寸:17cm","specs":{"source":"wsxcme","sourceId":"_duLuLB8DkkTxeCsmFpNwXAsSC95FxVTXC8fs1uw","sourceTagId":47002745,"sourceTagName":"香奈儿/女包","rawTitle":"❇️🔅Chane1 23K新款|⚛️\n四叶草法郎手柄woc ☑A♏️\n第一眼看到就深深爱上💕\n进口小羊皮 质感柔滑细腻\n首先就是手感舒适 超好☑️\n颜值不必说 直接闭眼入不会错\n很好打理 也是百搭型\n实现了单背斜挎腋下背手拎的效果📷\n简直就是福音〰️\n很精致 值得珍藏🔝\n五金:全铜24k复古金\n尺寸:17cm"},"price":null,"currency":"CNY","moq":1,"category":"chanel-women-bags","status":"active","alibaba_url":null,"images":["https://xcimg.szwego.com/img/668db203/20231028/i1698435603_4129_0.jpg","https://xcimg.szwego.com/img/668db203/20231028/i1698435603_4811_1.jpg","https://xcimg.szwego.com/img/668db203/20231028/i1698435603_3361_2.jpg","https://xcimg.szwego.com/img/668db203/20231028/i1698435603_9961_3.jpg","https://xcimg.szwego.com/img/668db203/20231028/i1698435603_9759_4.jpg","https://xcimg.szwego.com/img/668db203/20231028/i1698435603_53_5.jpg","https://xcimg.szwego.com/img/668db203/20231028/i1698435603_4258_6.jpg","https://xcimg.szwego.com/img/668db203/20231028/i1698435603_5466_7.jpg","https://xcimg.szwego.com/img/668db203/20231028/i1698435603_3156_8.jpg"],"created_at":"2024-11-26T11:47:21.507Z"},{"id":"item-6ebcc2fac516","sku":"_dkzkznfbTpZb-PX3S6EBWQRK0M_bJEv7i8sxZjA","name_en":"❇️🔅Chane1 23K新款|⚛️","name_cn":"❇️🔅Chane1 23K新款|⚛️\n四叶草法郎手柄woc ☑A♏️\n第一眼看到就深深爱上💕\n进口小羊皮 质感柔滑细腻\n首先就是手感舒适 超好☑️\n颜值不必说 直接闭眼入不会错\n很好打理 也是百搭型\n实现了单背斜挎腋下背手拎的效果📷\n简直就是福音〰️\n很精致 值得珍藏🔝\n五金:全铜24k复古金\n尺寸:17cm","specs":{"source":"wsxcme","sourceId":"_dkzkznfbTpZb-PX3S6EBWQRK0M_bJEv7i8sxZjA","sourceTagId":47002745,"sourceTagName":"香奈儿/女包","rawTitle":"❇️🔅Chane1 23K新款|⚛️\n四叶草法郎手柄woc ☑A♏️\n第一眼看到就深深爱上💕\n进口小羊皮 质感柔滑细腻\n首先就是手感舒适 超好☑️\n颜值不必说 直接闭眼入不会错\n很好打理 也是百搭型\n实现了单背斜挎腋下背手拎的效果📷\n简直就是福音〰️\n很精致 值得珍藏🔝\n五金:全铜24k复古金\n尺寸:17cm"},"price":null,"currency":"CNY","moq":1,"category":"chanel-women-bags","status":"active","alibaba_url":null,"images":["https://xcimg.szwego.com/img/668db203/20231028/i1698435050_3233_0.jpg","https://xcimg.szwego.com/img/668db203/20231028/i1698435050_7310_1.jpg","https://xcimg.szwego.com/img/668db203/20231028/i1698435050_1453_2.jpg","https://xcimg.szwego.com/img/668db203/20231028/i1698435050_6067_3.jpg","https://xcimg.szwego.com/img/668db203/20231028/i1698435050_2791_4.jpg","https://xcimg.szwego.com/img/668db203/20231028/i1698435050_1440_5.jpg","https://xcimg.szwego.com/img/668db203/20231028/i1698435050_8815_6.jpg","https://xcimg.szwego.com/img/668db203/20231028/i1698435050_7903_7.jpg","https://xcimg.szwego.com/img/668db203/20231028/i1698435050_6404_8.jpg"],"created_at":"2024-11-26T11:47:21.506Z"},{"id":"item-0108ca7ed0e2","sku":"_doyoyfhjxRO7KNLskgtocFQ4Rv6jnyywJ8yMTjA","name_en":"❇️香奈儿2023新款19WOC♏️A","name_cn":"❇️香奈儿2023新款19WOC♏️A\n最美woc没有之一,容量和颜值兼具!可酷可盐可甜\n柔软羊皮搭配经典翻盖和大菱格设计,手感细腻,超级时尚,皮质光泽度满分 ,洋溢着奢华高级的质感\n双Clogo是超精致的 旧五金拼羊皮设计,2023的新款还改良成纽扣logo,更显精致 复古路线和现代元素结合,散发着浓浓的小香气息\n拼接粗粗链条肩带 这种充满视觉冲击力的搭配 将时髦个性的魅力表现的淋漓尽致 尺寸19cm","specs":{"source":"wsxcme","sourceId":"_doyoyfhjxRO7KNLskgtocFQ4Rv6jnyywJ8yMTjA","sourceTagId":47002745,"sourceTagName":"香奈儿/女包","rawTitle":"❇️香奈儿2023新款19WOC♏️A\n最美woc没有之一,容量和颜值兼具!可酷可盐可甜\n柔软羊皮搭配经典翻盖和大菱格设计,手感细腻,超级时尚,皮质光泽度满分 ,洋溢着奢华高级的质感\n双Clogo是超精致的 旧五金拼羊皮设计,2023的新款还改良成纽扣logo,更显精致 复古路线和现代元素结合,散发着浓浓的小香气息\n拼接粗粗链条肩带 这种充满视觉冲击力的搭配 将时髦个性的魅力表现的淋漓尽致 尺寸19cm"},"price":null,"currency":"CNY","moq":1,"category":"chanel-women-bags","status":"active","alibaba_url":null,"images":["https://xcimg.szwego.com/img/668db203/20231008/i1696775547_4871_0.jpg","https://xcimg.szwego.com/img/668db203/20231008/i1696775547_9584_1.jpg","https://xcimg.szwego.com/img/668db203/20231008/i1696775547_9348_2.jpg","https://xcimg.szwego.com/img/668db203/20231008/i1696775547_8935_3.jpg","https://xcimg.szwego.com/img/668db203/20231008/i1696775547_377_4.jpg","https://xcimg.szwego.com/img/668db203/20231008/i1696775547_2821_5.jpg","https://xcimg.szwego.com/img/668db203/20231008/i1696775547_9601_8.jpg","https://xcimg.szwego.com/img/668db203/20231008/i1696775547_3843_6.jpg","https://xcimg.szwego.com/img/668db203/20231008/i1696775547_4784_7.jpg"],"created_at":"2024-05-03T07:22:12.463Z"},{"id":"item-c55f3e4b6e5b","sku":"_dororhzw267MO1z5UDUXMZF_I-61SlYlHA6hV0Q","name_en":"❇️Chane1⚛️23b新款嬉皮hobo AS4347💕小牛皮材质 却蕴含着无穷的精致与奢华~纯黑色包身散发着神秘魅力,独特的腋下包","name_cn":"❇️Chane1⚛️23b新款嬉皮hobo AS4347💕小牛皮材质 却蕴含着无穷的精致与奢华~纯黑色包身散发着神秘魅力,独特的腋下包\n款式展现随性与高级并存\t迷你小口袋点缀包\t\n身,点亮整体 双c扣在黑色背景下熠熠生辉,彰显品质与美感 短肩带的设计更增添了便捷与舒适~随身背着她~你会找到生活的自在与风采,不经意间散发的美,细节之间流露的品味,都是独特的\n你 ❇️尺寸:28×22.5×13","specs":{"source":"wsxcme","sourceId":"_dororhzw267MO1z5UDUXMZF_I-61SlYlHA6hV0Q","sourceTagId":47002745,"sourceTagName":"香奈儿/女包","rawTitle":"❇️Chane1⚛️23b新款嬉皮hobo AS4347💕小牛皮材质 却蕴含着无穷的精致与奢华~纯黑色包身散发着神秘魅力,独特的腋下包\n款式展现随性与高级并存\t迷你小口袋点缀包\t\n身,点亮整体 双c扣在黑色背景下熠熠生辉,彰显品质与美感 短肩带的设计更增添了便捷与舒适~随身背着她~你会找到生活的自在与风采,不经意间散发的美,细节之间流露的品味,都是独特的\n你 ❇️尺寸:28×22.5×13"},"price":null,"currency":"CNY","moq":1,"category":"chanel-women-bags","status":"active","alibaba_url":null,"images":["https://xcimg.szwego.com/20230905/i1693847033_1671_0.jpg","https://xcimg.szwego.com/20230905/i1693847033_2183_1.jpg","https://xcimg.szwego.com/20230905/i1693847033_9984_2.jpg","https://xcimg.szwego.com/20230905/i1693847033_9893_3.jpg","https://xcimg.szwego.com/20230905/i1693847033_5116_4.jpg","https://xcimg.szwego.com/20230905/i1693847033_3665_5.jpg","https://xcimg.szwego.com/20230905/i1693847033_7079_6.jpg","https://xcimg.szwego.com/20230905/i1693847033_6940_7.jpg","https://xcimg.szwego.com/20230905/i1693847033_303_8.jpg"],"created_at":"2024-09-24T07:45:17.250Z"},{"id":"item-767e0c3d69d1","sku":"_dl6l6z12Psl3VODFrql8WTta-pN5BLej9pzJdXg","name_en":"❇️Chane1💕Ap,,2303💞金球化妆小盒子 小型收纳盒  五金 进口羊皮 出街打开能补妆 关上能拗造型 就算放家里也能当个收纳盒 唇膏 BB霜粉底,纸巾、通通可收纳 上身效果超赞,超级百搭 尺寸:17*9.5*8cm","name_cn":"❇️Chane1💕Ap,,2303💞金球化妆小盒子 小型收纳盒  五金 进口羊皮 出街打开能补妆 关上能拗造型 就算放家里也能当个收纳盒 唇膏 BB霜粉底,纸巾、通通可收纳 上身效果超赞,超级百搭 尺寸:17*9.5*8cm","specs":{"source":"wsxcme","sourceId":"_dl6l6z12Psl3VODFrql8WTta-pN5BLej9pzJdXg","sourceTagId":47002745,"sourceTagName":"香奈儿/女包","dimensions":{"lengthCm":17,"heightCm":9.5,"widthCm":8},"rawTitle":"❇️Chane1💕Ap,,2303💞金球化妆小盒子 小型收纳盒  五金 进口羊皮 出街打开能补妆 关上能拗造型 就算放家里也能当个收纳盒 唇膏 BB霜粉底,纸巾、通通可收纳 上身效果超赞,超级百搭 尺寸:17*9.5*8cm"},"price":null,"currency":"CNY","moq":1,"category":"chanel-women-bags","status":"active","alibaba_url":null,"images":["https://xcimg.szwego.com/20230701/i1688144237_2142_0.jpg","https://xcimg.szwego.com/20230701/i1688144237_1383_1.jpg","https://xcimg.szwego.com/20230701/i1688144237_5354_2.jpg","https://xcimg.szwego.com/20230701/i1688144237_1194_3.jpg","https://xcimg.szwego.com/20230701/i1688144237_3021_4.jpg","https://xcimg.szwego.com/20230701/i1688144237_9675_5.jpg","https://xcimg.szwego.com/20230701/i1688144237_9176_6.jpg","https://xcimg.szwego.com/20230701/i1688144237_4001_7.jpg","https://xcimg.szwego.com/20230701/i1688144237_7722_8.jpg"],"created_at":"2026-06-29T10:31:17.779Z"},{"id":"item-1c555ced9203","sku":"_dkqkqhE31Tdr2tJFoHjlKGk6SfQcqoZPD7eFItA","name_en":"❌法国🇫🇷高端定制品 Chane1  Classic Flap Bag  A01113鱼子酱 演绎了Chane1的经典,高雅、简约、精美!专柜同步更新 最新版本 ZP完美版型复刻  Medium Size: 23cm","name_cn":"❌法国🇫🇷高端定制品 Chane1  Classic Flap Bag  A01113鱼子酱 演绎了Chane1的经典,高雅、简约、精美!专柜同步更新 最新版本 ZP完美版型复刻  Medium Size: 23cm","specs":{"source":"wsxcme","sourceId":"_dkqkqhE31Tdr2tJFoHjlKGk6SfQcqoZPD7eFItA","sourceTagId":47002745,"sourceTagName":"香奈儿/女包","rawTitle":"❌法国🇫🇷高端定制品 Chane1  Classic Flap Bag  A01113鱼子酱 演绎了Chane1的经典,高雅、简约、精美!专柜同步更新 最新版本 ZP完美版型复刻  Medium Size: 23cm"},"price":null,"currency":"CNY","moq":1,"category":"chanel-women-bags","status":"active","alibaba_url":null,"images":["https://xcimg.szwego.com/20210827/i1630003847_6872_0.jpg","https://xcimg.szwego.com/20210827/i1630003847_7297_1.jpg","https://xcimg.szwego.com/20210827/i1630003847_9782_2.jpg","https://xcimg.szwego.com/20210827/i1630003847_4452_3.jpg","https://xcimg.szwego.com/20210827/i1630003847_9190_4.jpg","https://xcimg.szwego.com/20210827/i1630003847_7400_5.jpg","https://xcimg.szwego.com/20210827/i1630003847_6396_6.jpg","https://xcimg.szwego.com/20210827/i1630003847_1292_7.jpg","https://xcimg.szwego.com/20210827/i1630003847_1_8.jpg"],"created_at":"2024-09-24T07:45:17.227Z"},{"id":"item-6cd799e1fb5f","sku":"_dbXbXNDMHsOZlpJeT21yb6MQa36atVYgFUB3ZOg","name_en":"❑Nano Speedy Mini #M81085# MB免检版❒","name_cn":"❑Nano Speedy Mini #M81085# MB免检版❒\n❥尺寸:16*10*7.5cm\nSpeedy系列是浓缩经典的精华,\n以Mini精致的小巧造型,搭配可拆卸的肩带设计,\n可️拆卸的肩带,给人不同的演绎风格,\n可盐可甜,比较可爱,比起老款的Nano系列,\n新款的设计更加人性化,可调节肩带设计,\n满足身高的需求,颜值可是百搭款!","specs":{"source":"wsxcme","sourceId":"_dbXbXNDMHsOZlpJeT21yb6MQa36atVYgFUB3ZOg","sourceTagId":47002622,"sourceTagName":"LV/女包","dimensions":{"lengthCm":16,"heightCm":10,"widthCm":7.5},"rawTitle":"❑Nano Speedy Mini #M81085# MB免检版❒\n❥尺寸:16*10*7.5cm\nSpeedy系列是浓缩经典的精华,\n以Mini精致的小巧造型,搭配可拆卸的肩带设计,\n可️拆卸的肩带,给人不同的演绎风格,\n可盐可甜,比较可爱,比起老款的Nano系列,\n新款的设计更加人性化,可调节肩带设计,\n满足身高的需求,颜值可是百搭款!"},"price":null,"currency":"CNY","moq":1,"category":"lv-women-bags","status":"active","alibaba_url":null,"images":["https://xcimg.szwego.com/img/8e289e2b/20231204/i1701620452_2752_2.jpg","https://xcimg.szwego.com/img/8e289e2b/20231204/i1701620452_9206_7.jpg","https://xcimg.szwego.com/img/8e289e2b/20231204/i1701620452_7078_4.jpg","https://xcimg.szwego.com/img/8e289e2b/20231204/i1701620452_8940_1.jpg","https://xcimg.szwego.com/img/8e289e2b/20231204/i1701620452_5509_8.jpg","https://xcimg.szwego.com/img/8e289e2b/20231204/i1701620452_9663_5.jpg","https://xcimg.szwego.com/img/8e289e2b/20231204/i1701620452_182_6.jpg","https://xcimg.szwego.com/img/8e289e2b/20231204/i1701620452_3361_0.jpg","https://xcimg.szwego.com/img/8e289e2b/20231204/i1701620452_4674_3.jpg"],"created_at":"2024-05-01T03:18:16.101Z"},{"id":"item-3fee56e5b7da","sku":"_d5C5C1ADM00w-pBx69s3EmbMwjwY5Xotf0lTMLw","name_en":"❣️  Montaigne Avenue 手袋","name_cn":"❣️  Montaigne Avenue 手袋 \n这款采用典雅的设计,提升此经典系列的格调。采用白色光面牛皮革精心制作,圆角翻盖曲线精致,饰以复古金色饰面金属 CD 扣环,灵感源自 Christian Dior 香水瓶的封口。背面饰以压花   Montaigne 标志,搭配由金色饰面金属和与皮革同色调的珐琅链环交替组成的经典链条。褶层设计,空间宽敞,廓形精致,可手提、肩背或斜挎。\n\n翻盖开合\nCD 扣环\n背面   Montaigne 压花标志\n由金色饰面金属和与皮革同色调的珐琅 CD 链环组成的可调节链条,搭配皮革带\n三隔层\n\n尺寸:22\n型号:9261","specs":{"source":"wsxcme","sourceId":"_d5C5C1ADM00w-pBx69s3EmbMwjwY5Xotf0lTMLw","sourceTagId":47002747,"sourceTagName":"迪奥/女包","modelNumber":"9261","rawTitle":"❣️  Montaigne Avenue 手袋 \n这款采用典雅的设计,提升此经典系列的格调。采用白色光面牛皮革精心制作,圆角翻盖曲线精致,饰以复古金色饰面金属 CD 扣环,灵感源自 Christian Dior 香水瓶的封口。背面饰以压花   Montaigne 标志,搭配由金色饰面金属和与皮革同色调的珐琅链环交替组成的经典链条。褶层设计,空间宽敞,廓形精致,可手提、肩背或斜挎。\n\n翻盖开合\nCD 扣环\n背面   Montaigne 压花标志\n由金色饰面金属和与皮革同色调的珐琅 CD 链环组成的可调节链条,搭配皮革带\n三隔层\n\n尺寸:22\n型号:9261"},"price":null,"currency":"CNY","moq":1,"category":"dior-women-bags","status":"active","alibaba_url":null,"images":["https://xcimg.szwego.com/20230816/i1692181949_2561_0.jpg","https://xcimg.szwego.com/20230816/i1692181949_8955_1.jpg","https://xcimg.szwego.com/20230816/i1692181949_8590_2.jpg","https://xcimg.szwego.com/20230816/i1692181949_2008_3.jpg","https://xcimg.szwego.com/20230816/i1692181949_4960_4.jpg","https://xcimg.szwego.com/20230816/i1692181949_7874_5.jpg","https://xcimg.szwego.com/20230816/i1692181949_1488_6.jpg","https://xcimg.szwego.com/20230816/i1692181949_6941_7.jpg","https://xcimg.szwego.com/20230816/i1692181949_7386_8.jpg"],"created_at":"2024-05-01T03:20:28.410Z"},{"id":"item-6b16d08cae52","sku":"_dfHfHEIMT-Ie3hWrHquBmccmiVxkEtIGzfc1AEA","name_en":"❣️Miss Dior 翻盖手袋/涂鸦款/铆钉款,四个颜色现货出√√√","name_cn":"❣️Miss Dior 翻盖手袋/涂鸦款/铆钉款,四个颜色现货出√√√\n\n\n型号:2610","specs":{"source":"wsxcme","sourceId":"_dfHfHEIMT-Ie3hWrHquBmccmiVxkEtIGzfc1AEA","sourceTagId":47002747,"sourceTagName":"迪奥/女包","modelNumber":"2610","rawTitle":"❣️Miss Dior 翻盖手袋/涂鸦款/铆钉款,四个颜色现货出√√√\n\n\n型号:2610"},"price":null,"currency":"CNY","moq":1,"category":"dior-women-bags","status":"active","alibaba_url":null,"images":["https://xcimg.szwego.com/20240903/i1725344852_1340_0.jpg","https://xcimg.szwego.com/20240903/i1725344852_1895_1.jpg","https://xcimg.szwego.com/20240903/i1725344852_5322_2.jpg","https://xcimg.szwego.com/20240903/i1725344852_8590_3.jpg","https://xcimg.szwego.com/20240903/i1725344852_9790_4.jpg","https://xcimg.szwego.com/20240903/i1725344852_4293_5.jpg","https://xcimg.szwego.com/20240903/i1725344852_2346_6.jpg","https://xcimg.szwego.com/20240903/i1725344852_5304_7.jpg"],"created_at":"2024-11-11T10:26:11.247Z"},{"id":"item-395a3410ebb5","sku":"_d0M0MFxy2zWxnfsth_7x3_XJ66dhsh_7OuT-FmQ","name_en":"❤️ 白彩小号!M13744 化妆包!联名村上隆!POCHETTE COSMETIQUE PM 这款小巧的化妆包以Monogram 帆布制造,可轻易放入手袋内。圆形袋身配平面袋底的设计,方便取放化妆用品。19.0x 12.0x 6.0 cm","name_cn":"❤️ 白彩小号!M13744 化妆包!联名村上隆!POCHETTE COSMETIQUE PM 这款小巧的化妆包以Monogram 帆布制造,可轻易放入手袋内。圆形袋身配平面袋底的设计,方便取放化妆用品。19.0x 12.0x 6.0 cm \n(长x 高x 宽) 。- 涂层帆布面料,配有可水洗织物内衬- 金色金属配件-拉链开合- 内置贴袋- 可水洗织物内衬","specs":{"source":"wsxcme","sourceId":"_d0M0MFxy2zWxnfsth_7x3_XJ66dhsh_7OuT-FmQ","sourceTagId":47002663,"sourceTagName":"长短款钱包","rawTitle":"❤️ 白彩小号!M13744 化妆包!联名村上隆!POCHETTE COSMETIQUE PM 这款小巧的化妆包以Monogram 帆布制造,可轻易放入手袋内。圆形袋身配平面袋底的设计,方便取放化妆用品。19.0x 12.0x 6.0 cm \n(长x 高x 宽) 。- 涂层帆布面料,配有可水洗织物内衬- 金色金属配件-拉链开合- 内置贴袋- 可水洗织物内衬"},"price":null,"currency":"CNY","moq":1,"category":"women-wallets","status":"active","alibaba_url":null,"images":["https://xcimg.szwego.com/img/32a26040/20241216/i1734324708_8244_0.jpg","https://xcimg.szwego.com/img/32a26040/20241216/i1734324709_3294_8.jpg","https://xcimg.szwego.com/img/32a26040/20241216/i1734324709_5352_6.jpg","https://xcimg.szwego.com/img/32a26040/20241216/i1734324708_5054_1.jpg","https://xcimg.szwego.com/img/32a26040/20241216/i1734324708_4435_4.jpg","https://xcimg.szwego.com/img/32a26040/20241216/i1734324709_9262_9.jpg","https://xcimg.szwego.com/img/32a26040/20241216/i1734324709_7133_5.jpg","https://xcimg.szwego.com/img/32a26040/20241216/i1734324709_8174_7.jpg","https://xcimg.szwego.com/img/32a26040/20241216/i1734324708_9529_2.jpg","https://xcimg.szwego.com/img/32a26040/20241216/i1734324708_97_3.jpg"],"created_at":"2025-01-20T12:58:24.664Z"},{"id":"item-174bce49c709","sku":"_diviv6EKqeFLfCD8Hvq7zs44FaoRAf5G5G6ZDNg","name_en":"❤️ 黑彩小号!M13744 化妆包!联名村上隆!POCHETTE COSMETIQUE PM 这款小巧的化妆包以Monogram 帆布制造,可轻易放入手袋内。圆形袋身配平面袋底的设计,方便取放化妆用品。19.0x 12.0x 6.0 cm","name_cn":"❤️ 黑彩小号!M13744 化妆包!联名村上隆!POCHETTE COSMETIQUE PM 这款小巧的化妆包以Monogram 帆布制造,可轻易放入手袋内。圆形袋身配平面袋底的设计,方便取放化妆用品。19.0x 12.0x 6.0 cm \n(长x 高x 宽) 。- 涂层帆布面料,配有可水洗织物内衬- 金色金属配件- 拉链开合- 内置贴袋- 可水洗织物内衬","specs":{"source":"wsxcme","sourceId":"_diviv6EKqeFLfCD8Hvq7zs44FaoRAf5G5G6ZDNg","sourceTagId":47002663,"sourceTagName":"长短款钱包","rawTitle":"❤️ 黑彩小号!M13744 化妆包!联名村上隆!POCHETTE COSMETIQUE PM 这款小巧的化妆包以Monogram 帆布制造,可轻易放入手袋内。圆形袋身配平面袋底的设计,方便取放化妆用品。19.0x 12.0x 6.0 cm \n(长x 高x 宽) 。- 涂层帆布面料,配有可水洗织物内衬- 金色金属配件- 拉链开合- 内置贴袋- 可水洗织物内衬"},"price":null,"currency":"CNY","moq":1,"category":"women-wallets","status":"active","alibaba_url":null,"images":["https://xcimg.szwego.com/img/32a26040/20241216/i1734324555_2459_0.jpg","https://xcimg.szwego.com/img/32a26040/20241216/i1734324555_5383_3.jpg","https://xcimg.szwego.com/img/32a26040/20241216/i1734324555_7774_8.jpg","https://xcimg.szwego.com/img/32a26040/20241216/i1734324556_3944_9.jpg","https://xcimg.szwego.com/img/32a26040/20241216/i1734324555_5729_6.jpg","https://xcimg.szwego.com/img/32a26040/20241216/i1734324555_9139_1.jpg","https://xcimg.szwego.com/img/32a26040/20241216/i1734324555_2300_7.jpg","https://xcimg.szwego.com/img/32a26040/20241216/i1734324555_8365_4.jpg","https://xcimg.szwego.com/img/32a26040/20241216/i1734324555_8704_2.jpg","https://xcimg.szwego.com/img/32a26040/20241216/i1734324555_4992_5.jpg"],"created_at":"2025-01-20T12:58:24.663Z"}],"page":88,"pageSize":24,"total":10075,"totalPages":420}
