{"items":[{"id":"item-155fbf68723d","sku":"_dwlwlTE69qlkENA2gzf6NV06rfla0An2TMlj-AA","name_en":"DOCTOR POUCH手袋 💯全钢五金!!️","name_cn":"DOCTOR POUCH手袋 💯全钢五金!!️\n牛皮革\n牛剖层革衬里\n金色饰面\n手提、肩背\n1个主隔层\n1个内侧扁平口袋\n可拆卸腕带,长度(29厘米)\n尺寸:(35 X 18 X 18厘米)\n编号:L104J3","specs":{"source":"wsxcme","sourceId":"_dwlwlTE69qlkENA2gzf6NV06rfla0An2TMlj-AA","sourceTagId":47003106,"sourceTagName":"塞琳/女包","rawTitle":"DOCTOR POUCH手袋 💯全钢五金!!️\n牛皮革\n牛剖层革衬里\n金色饰面\n手提、肩背\n1个主隔层\n1个内侧扁平口袋\n可拆卸腕带,长度(29厘米)\n尺寸:(35 X 18 X 18厘米)\n编号:L104J3"},"price":null,"currency":"CNY","moq":1,"category":"celine-women-bags","status":"active","alibaba_url":null,"images":["https://xcimg.szwego.com/img/34b30588/20260425/i1777057294377_9145_0_0.jpg","https://xcimg.szwego.com/img/34b30588/20260425/i1777057293376_4754_0_1.jpg","https://xcimg.szwego.com/img/34b30588/20260425/i1777057294362_404_0_2.jpg","https://xcimg.szwego.com/img/34b30588/20260425/i1777057293447_3634_0_3.jpg","https://xcimg.szwego.com/img/34b30588/20260425/i1777057293443_8600_0_4.jpg","https://xcimg.szwego.com/img/34b30588/20260425/i1777057293443_1148_0_5.jpg","https://xcimg.szwego.com/img/34b30588/20260425/i1777057242402_1587_0_8.jpg","https://xcimg.szwego.com/img/34b30588/20260425/i1777057241219_982_0_5.jpg"],"created_at":"2026-05-20T03:16:24.006Z"},{"id":"item-0c9bc310e616","sku":"_dqSqSGRCim7YunHkjWkqJuzn7oSdtjSKkWBXWVQ","name_en":"DOCTOR POUCH手袋 💯全钢五金!!️","name_cn":"DOCTOR POUCH手袋 💯全钢五金!!️\n牛皮革\n牛剖层革衬里\n金色饰面\n手提、肩背\n1个主隔层\n1个内侧扁平口袋\n可拆卸腕带,长度(29厘米)\n尺寸:(35 X 18 X 18厘米)\n编号:L104J3","specs":{"source":"wsxcme","sourceId":"_dqSqSGRCim7YunHkjWkqJuzn7oSdtjSKkWBXWVQ","sourceTagId":47003106,"sourceTagName":"塞琳/女包","rawTitle":"DOCTOR POUCH手袋 💯全钢五金!!️\n牛皮革\n牛剖层革衬里\n金色饰面\n手提、肩背\n1个主隔层\n1个内侧扁平口袋\n可拆卸腕带,长度(29厘米)\n尺寸:(35 X 18 X 18厘米)\n编号:L104J3"},"price":null,"currency":"CNY","moq":1,"category":"celine-women-bags","status":"active","alibaba_url":null,"images":["https://xcimg.szwego.com/img/34b30588/20260425/i1777055583227_1162_0_0.jpg","https://xcimg.szwego.com/img/34b30588/20260425/i1777055521333_6886_0_0.jpg","https://xcimg.szwego.com/img/34b30588/20260425/i1777055519742_3000_0_5.jpg","https://xcimg.szwego.com/img/34b30588/20260425/i1777055584247_9262_0_3.jpg","https://xcimg.szwego.com/img/34b30588/20260425/i1777055583311_3619_0_4.jpg","https://xcimg.szwego.com/img/34b30588/20260425/i1777055583304_8506_0_5.jpg","https://xcimg.szwego.com/img/34b30588/20260425/i1777055584301_625_0_6.jpg"],"created_at":"2026-05-20T03:16:23.976Z"},{"id":"item-0328d7524ec9","sku":"_dWxWxYSqjgwJEXMBSKAN7knZwtN7Glu8JUuLuTg","name_en":"DOCTOR POUCH手袋 💯全钢五金!!️","name_cn":"DOCTOR POUCH手袋 💯全钢五金!!️\n牛皮革\n牛剖层革衬里\n金色饰面\n手提、肩背\n1个主隔层\n1个内侧扁平口袋\n可拆卸腕带,长度(29厘米)\n尺寸:(35 X 18 X 18厘米)\n编号:L104J3","specs":{"source":"wsxcme","sourceId":"_dWxWxYSqjgwJEXMBSKAN7knZwtN7Glu8JUuLuTg","sourceTagId":47003106,"sourceTagName":"塞琳/女包","rawTitle":"DOCTOR POUCH手袋 💯全钢五金!!️\n牛皮革\n牛剖层革衬里\n金色饰面\n手提、肩背\n1个主隔层\n1个内侧扁平口袋\n可拆卸腕带,长度(29厘米)\n尺寸:(35 X 18 X 18厘米)\n编号:L104J3"},"price":null,"currency":"CNY","moq":1,"category":"celine-women-bags","status":"active","alibaba_url":null,"images":["https://xcimg.szwego.com/img/34b30588/20260425/i1777057241252_8413_0_0.jpg","https://xcimg.szwego.com/img/34b30588/20260425/i1777057241238_6558_0_1.jpg","https://xcimg.szwego.com/img/34b30588/20260425/i1777057242409_4842_0_2.jpg","https://xcimg.szwego.com/img/34b30588/20260425/i1777057241076_894_0_3.jpg","https://xcimg.szwego.com/img/34b30588/20260425/i1777057242434_7146_0_4.jpg","https://xcimg.szwego.com/img/34b30588/20260425/i1777057241219_982_0_5.jpg","https://xcimg.szwego.com/img/34b30588/20260425/i1777057241255_6436_0_6.jpg","https://xcimg.szwego.com/img/34b30588/20260425/i1777057242390_466_0_7.jpg","https://xcimg.szwego.com/img/34b30588/20260425/i1777057242402_1587_0_8.jpg"],"created_at":"2026-05-20T03:16:23.996Z"},{"id":"item-c8207eccdd55","sku":"_dirirA7SsDbJrxbVsVyfaP-uowHCxR-14r0f7sA","name_en":"Dream bag","name_cn":"Dream bag \n❷❺🅒🅜\n♥ Bɪʀᴋɪɴ 黑银\n\n相信就算对时尚不感兴趣的人都应该知道Birkin Bag铂金包的大名🥂.\n而在众多奢侈品包包中,出镜最高频率,也最亮眼的就是爱马仕的铂金包〰️\n\n25cm","specs":{"source":"wsxcme","sourceId":"_dirirA7SsDbJrxbVsVyfaP-uowHCxR-14r0f7sA","sourceTagId":76963559,"sourceTagName":"爱马仕/女包","rawTitle":"Dream bag \n❷❺🅒🅜\n♥ Bɪʀᴋɪɴ 黑银\n\n相信就算对时尚不感兴趣的人都应该知道Birkin Bag铂金包的大名🥂.\n而在众多奢侈品包包中,出镜最高频率,也最亮眼的就是爱马仕的铂金包〰️\n\n25cm"},"price":null,"currency":"CNY","moq":1,"category":"hermes-women-bags","status":"active","alibaba_url":null,"images":["https://xcimg.szwego.com/20230212/i1676176128_6350_0.jpg","https://xcimg.szwego.com/20230212/i1676176128_2360_1.jpg","https://xcimg.szwego.com/20230212/i1676176128_7694_2.jpg","https://xcimg.szwego.com/20230212/i1676176128_2484_3.jpg","https://xcimg.szwego.com/20230212/i1676176128_2712_4.jpg","https://xcimg.szwego.com/20230212/i1676176128_3675_5.jpg","https://xcimg.szwego.com/20230212/i1676176128_8330_6.jpg","https://xcimg.szwego.com/20230212/i1676176128_1177_7.jpg","https://xcimg.szwego.com/20230212/i1676176128_34_8.jpg"],"created_at":"2025-01-20T12:29:05.610Z"},{"id":"item-97e7282aa576","sku":"_dpnpn2o4nfN44G70vrtO_nXg86AlBtBIci8oPiQ","name_en":"Dream bag","name_cn":"Dream bag \n♥ Bɪʀᴋɪɴ 大象灰/银\n\n相信就算对时尚不感兴趣的人都应该知道Birkin Bag铂金包的大名🥂.\n而在众多奢侈品包包中,出镜最高频率,也最亮眼的就是爱马仕的铂金包〰️\n25cm","specs":{"source":"wsxcme","sourceId":"_dpnpn2o4nfN44G70vrtO_nXg86AlBtBIci8oPiQ","sourceTagId":76963559,"sourceTagName":"爱马仕/女包","rawTitle":"Dream bag \n♥ Bɪʀᴋɪɴ 大象灰/银\n\n相信就算对时尚不感兴趣的人都应该知道Birkin Bag铂金包的大名🥂.\n而在众多奢侈品包包中,出镜最高频率,也最亮眼的就是爱马仕的铂金包〰️\n25cm"},"price":null,"currency":"CNY","moq":1,"category":"hermes-women-bags","status":"active","alibaba_url":null,"images":["https://xcimg.szwego.com/20210612/i1623485687_9352_0.jpg","https://xcimg.szwego.com/20210612/i1623485687_6450_1.jpg","https://xcimg.szwego.com/20210612/i1623485687_1887_2.jpg","https://xcimg.szwego.com/20210612/i1623485687_9693_3.jpg","https://xcimg.szwego.com/20210612/i1623485687_226_4.jpg","https://xcimg.szwego.com/20210612/i1623485687_703_5.jpg","https://xcimg.szwego.com/20210612/i1623485687_9249_6.jpg","https://xcimg.szwego.com/20210612/i1623485687_7003_7.jpg","https://xcimg.szwego.com/20210612/i1623485687_616_8.jpg"],"created_at":"2025-01-20T12:29:05.609Z"},{"id":"item-cf75ff419790","sku":"_dLbLbdCqrSzJw04W-1HkTui9jolp_V9TMS6SJ1A","name_en":"ELLIPSD 系列 M46196 免检版#","name_cn":"ELLIPSD 系列 M46196 免检版# \n▪  正品实物拍摄展示  ▪","specs":{"source":"wsxcme","sourceId":"_dLbLbdCqrSzJw04W-1HkTui9jolp_V9TMS6SJ1A","sourceTagId":47002622,"sourceTagName":"LV/女包","rawTitle":"ELLIPSD 系列 M46196 免检版# \n▪  正品实物拍摄展示  ▪"},"price":null,"currency":"CNY","moq":1,"category":"lv-women-bags","status":"active","alibaba_url":null,"images":["https://xcimg.szwego.com/20230628/i1687945311_1371_2.jpg","https://xcimg.szwego.com/20230628/i1687945311_6912_3.jpg","https://xcimg.szwego.com/20230628/i1687945311_7158_4.jpg","https://xcimg.szwego.com/20230628/i1687945311_1948_6.jpg","https://xcimg.szwego.com/20230628/i1687945311_915_0.jpg","https://xcimg.szwego.com/20230628/i1687945311_2178_8.jpg","https://xcimg.szwego.com/20230628/i1687945311_4012_7.jpg","https://xcimg.szwego.com/20230628/i1687945311_5545_1.jpg","https://xcimg.szwego.com/20230628/i1687945311_868_5.jpg"],"created_at":"2024-11-11T10:39:49.111Z"},{"id":"item-6116135930ab","sku":"_dususmXlqkEj4YZdvny6bA6J1VB7-aXvf1yRj1A","name_en":"ELLIPSD 系列 M46196 免检版#","name_cn":"ELLIPSD 系列 M46196 免检版# \n▪尺寸: 28*21*8cm▪\nEllpse系列 ,一款具有独特设计元素的“河蚌包”\n采用经典老花搭配独特线条的设计让人眼前一亮,孤口开合,将实用主义进行到底,容量可满足日常出行!一包多用背法,既能手拎/斜挎/单肩!\n越看越爱,日常出行足够吸引眼球,满满的复古风!","specs":{"source":"wsxcme","sourceId":"_dususmXlqkEj4YZdvny6bA6J1VB7-aXvf1yRj1A","sourceTagId":47002622,"sourceTagName":"LV/女包","dimensions":{"lengthCm":28,"heightCm":21,"widthCm":8},"rawTitle":"ELLIPSD 系列 M46196 免检版# \n▪尺寸: 28*21*8cm▪\nEllpse系列 ,一款具有独特设计元素的“河蚌包”\n采用经典老花搭配独特线条的设计让人眼前一亮,孤口开合,将实用主义进行到底,容量可满足日常出行!一包多用背法,既能手拎/斜挎/单肩!\n越看越爱,日常出行足够吸引眼球,满满的复古风!"},"price":null,"currency":"CNY","moq":1,"category":"lv-women-bags","status":"active","alibaba_url":null,"images":["https://xcimg.szwego.com/20230628/i1687944829_8638_4.jpg","https://xcimg.szwego.com/20230628/i1687944829_6906_1.jpg","https://xcimg.szwego.com/20230628/i1687944829_2904_0.jpg","https://xcimg.szwego.com/20230628/i1687944829_6141_2.jpg","https://xcimg.szwego.com/20230628/i1687944829_260_5.jpg","https://xcimg.szwego.com/20230628/i1687944829_5210_7.jpg","https://xcimg.szwego.com/20230628/i1687944829_1389_3.jpg","https://xcimg.szwego.com/20230628/i1687944829_6991_6.jpg","https://xcimg.szwego.com/20230628/i1687944829_491_8.jpg"],"created_at":"2024-11-11T10:39:49.112Z"},{"id":"item-d7e3975c212b","sku":"_dtKtKIz7EGrOYDpB3aYJRdQ_MoXhAgVWKYJVogA","name_en":"Ep对版十字纹现货黑,大象灰,金棕,奶昔白","name_cn":"Ep对版十字纹现货黑,大象灰,金棕,奶昔白\n新款 kelly elan,时尚的轮回,可以当腋下包和手拿包,真的把一代替代了\n简直不要太美\n拼手速啦,今年必种草款,宝子们","specs":{"source":"wsxcme","sourceId":"_dtKtKIz7EGrOYDpB3aYJRdQ_MoXhAgVWKYJVogA","sourceTagId":76963559,"sourceTagName":"爱马仕/女包","rawTitle":"Ep对版十字纹现货黑,大象灰,金棕,奶昔白\n新款 kelly elan,时尚的轮回,可以当腋下包和手拿包,真的把一代替代了\n简直不要太美\n拼手速啦,今年必种草款,宝子们"},"price":null,"currency":"CNY","moq":1,"category":"hermes-women-bags","status":"active","alibaba_url":null,"images":["https://xcimg.szwego.com/20230907/i1694070988_3185_0.jpg","https://xcimg.szwego.com/20230907/i1694070988_6732_1.jpg","https://xcimg.szwego.com/20230907/i1694070988_136_2.jpg","https://xcimg.szwego.com/20230907/i1694070988_6187_3.jpg","https://xcimg.szwego.com/20230907/i1694070988_6597_4.jpg","https://xcimg.szwego.com/20230907/i1694070988_4894_5.jpg","https://xcimg.szwego.com/20230907/i1694070988_6688_6.jpg","https://xcimg.szwego.com/20230907/i1694070988_4311_7.jpg"],"created_at":"2024-10-22T04:49:50.789Z"},{"id":"item-c0b6fe3997b9","sku":"_dCmCmSzbrotsiCDg_oMe_cNpdFNIXLSNJ60chBw","name_en":"Ep对版十字纹现货黑,大象灰,金棕,奶昔白","name_cn":"Ep对版十字纹现货黑,大象灰,金棕,奶昔白\n新款 kelly elan,时尚的轮回,可以当腋下包和手拿包,真的把一代替代了\n简直不要太美\n拼手速啦,今年必种草款,宝子们","specs":{"source":"wsxcme","sourceId":"_dCmCmSzbrotsiCDg_oMe_cNpdFNIXLSNJ60chBw","sourceTagId":76963559,"sourceTagName":"爱马仕/女包","rawTitle":"Ep对版十字纹现货黑,大象灰,金棕,奶昔白\n新款 kelly elan,时尚的轮回,可以当腋下包和手拿包,真的把一代替代了\n简直不要太美\n拼手速啦,今年必种草款,宝子们"},"price":null,"currency":"CNY","moq":1,"category":"hermes-women-bags","status":"active","alibaba_url":null,"images":["https://xcimg.szwego.com/20230907/i1694070960_6656_0.jpg","https://xcimg.szwego.com/20230907/i1694070960_8332_1.jpg","https://xcimg.szwego.com/20230907/i1694070960_9299_2.jpg","https://xcimg.szwego.com/20230907/i1694070960_769_3.jpg","https://xcimg.szwego.com/20230907/i1694070960_9192_4.jpg","https://xcimg.szwego.com/20230907/i1694070960_4774_5.jpg","https://xcimg.szwego.com/20230907/i1694070960_7684_6.jpg"],"created_at":"2024-10-22T04:49:50.788Z"},{"id":"item-9edeb0720312","sku":"_dololnfkhOaHF7kgErLoIL4tdpu9NOH3SKp600Q","name_en":"Ep对版十字纹现货黑,大象灰,金棕,奶昔白","name_cn":"Ep对版十字纹现货黑,大象灰,金棕,奶昔白\n新款 kelly elan,时尚的轮回,可以当腋下包和手拿包,真的把一代替代了\n简直不要太美\n拼手速啦,今年必种草款,宝子们","specs":{"source":"wsxcme","sourceId":"_dololnfkhOaHF7kgErLoIL4tdpu9NOH3SKp600Q","sourceTagId":76963559,"sourceTagName":"爱马仕/女包","rawTitle":"Ep对版十字纹现货黑,大象灰,金棕,奶昔白\n新款 kelly elan,时尚的轮回,可以当腋下包和手拿包,真的把一代替代了\n简直不要太美\n拼手速啦,今年必种草款,宝子们"},"price":null,"currency":"CNY","moq":1,"category":"hermes-women-bags","status":"active","alibaba_url":null,"images":["https://xcimg.szwego.com/20230907/i1694070936_2058_0.jpg","https://xcimg.szwego.com/20230907/i1694070936_6245_1.jpg","https://xcimg.szwego.com/20230907/i1694070936_6981_2.jpg","https://xcimg.szwego.com/20230907/i1694070936_3395_3.jpg","https://xcimg.szwego.com/20230907/i1694070936_7231_4.jpg","https://xcimg.szwego.com/20230907/i1694070936_269_5.jpg","https://xcimg.szwego.com/20230907/i1694070936_1886_6.jpg"],"created_at":"2024-10-22T04:49:50.787Z"},{"id":"item-7c0b10f6e33b","sku":"_ddgdgjoyAOpC-J9Ec-WYImi9nLAB6t1Yyg7RRcA","name_en":"Ep对版十字纹现货黑,大象灰,金棕,奶昔白","name_cn":"Ep对版十字纹现货黑,大象灰,金棕,奶昔白\n新款 kelly elan,时尚的轮回,可以当腋下包和手拿包,真的把一代替代了\n简直不要太美\n拼手速啦,今年必种草款,宝子们","specs":{"source":"wsxcme","sourceId":"_ddgdgjoyAOpC-J9Ec-WYImi9nLAB6t1Yyg7RRcA","sourceTagId":76963559,"sourceTagName":"爱马仕/女包","rawTitle":"Ep对版十字纹现货黑,大象灰,金棕,奶昔白\n新款 kelly elan,时尚的轮回,可以当腋下包和手拿包,真的把一代替代了\n简直不要太美\n拼手速啦,今年必种草款,宝子们"},"price":null,"currency":"CNY","moq":1,"category":"hermes-women-bags","status":"active","alibaba_url":null,"images":["https://xcimg.szwego.com/20230907/i1694070739_199_0.jpg","https://xcimg.szwego.com/20230907/i1694070739_9883_1.jpg","https://xcimg.szwego.com/20230907/i1694070739_2201_2.jpg","https://xcimg.szwego.com/20230907/i1694070739_4656_3.jpg","https://xcimg.szwego.com/20230907/i1694070739_7989_4.jpg","https://xcimg.szwego.com/20230907/i1694070739_7987_5.jpg","https://xcimg.szwego.com/20230907/i1694070739_6041_6.jpg"],"created_at":"2024-10-22T04:49:50.786Z"},{"id":"item-65ef3a6fccd8","sku":"_d4F4FOTLKMbSql_q_5U7_t5yaF5YmrCa6k7OQwg","name_en":"Ep对版十字纹现货黑,大象灰,金棕,奶昔白","name_cn":"Ep对版十字纹现货黑,大象灰,金棕,奶昔白\n新款 kelly elan,时尚的轮回,可以当腋下包和手拿包,真的把一代替代了\n简直不要太美\n拼手速啦,今年必种草款,宝子们","specs":{"source":"wsxcme","sourceId":"_d4F4FOTLKMbSql_q_5U7_t5yaF5YmrCa6k7OQwg","sourceTagId":76963559,"sourceTagName":"爱马仕/女包","rawTitle":"Ep对版十字纹现货黑,大象灰,金棕,奶昔白\n新款 kelly elan,时尚的轮回,可以当腋下包和手拿包,真的把一代替代了\n简直不要太美\n拼手速啦,今年必种草款,宝子们"},"price":null,"currency":"CNY","moq":1,"category":"hermes-women-bags","status":"active","alibaba_url":null,"images":["https://xcimg.szwego.com/20230907/i1694071008_9287_0.jpg","https://xcimg.szwego.com/20230907/i1694071008_3789_1.jpg","https://xcimg.szwego.com/20230907/i1694071008_717_2.jpg","https://xcimg.szwego.com/20230907/i1694071008_5412_3.jpg","https://xcimg.szwego.com/20230907/i1694071008_2156_4.jpg","https://xcimg.szwego.com/20230907/i1694071008_1294_5.jpg","https://xcimg.szwego.com/20230907/i1694071008_4037_6.jpg","https://xcimg.szwego.com/20230907/i1694071008_9411_7.jpg"],"created_at":"2024-10-22T04:49:50.790Z"},{"id":"item-348001c264ea","sku":"_dj9j9OPreaY9BNejaRYmjXBOgLUw1fHU6Iyvnhw","name_en":"Ep对版十字纹现货黑,大象灰,金棕,奶昔白","name_cn":"Ep对版十字纹现货黑,大象灰,金棕,奶昔白\n新款 kelly elan,时尚的轮回,可以当腋下包和手拿包,真的把一代替代了\n简直不要太美\n拼手速啦,今年必种草款,宝子们","specs":{"source":"wsxcme","sourceId":"_dj9j9OPreaY9BNejaRYmjXBOgLUw1fHU6Iyvnhw","sourceTagId":76963559,"sourceTagName":"爱马仕/女包","rawTitle":"Ep对版十字纹现货黑,大象灰,金棕,奶昔白\n新款 kelly elan,时尚的轮回,可以当腋下包和手拿包,真的把一代替代了\n简直不要太美\n拼手速啦,今年必种草款,宝子们"},"price":null,"currency":"CNY","moq":1,"category":"hermes-women-bags","status":"active","alibaba_url":null,"images":["https://xcimg.szwego.com/20230907/i1694070464_4199_0.jpg","https://xcimg.szwego.com/20230907/i1694070464_9456_1.jpg","https://xcimg.szwego.com/20230907/i1694070464_3205_2.jpg","https://xcimg.szwego.com/20230907/i1694070464_6022_3.jpg","https://xcimg.szwego.com/20230907/i1694070464_82_4.jpg","https://xcimg.szwego.com/20230907/i1694070464_4241_5.jpg","https://xcimg.szwego.com/20230907/i1694070464_4292_6.jpg","https://xcimg.szwego.com/20230907/i1694070464_5293_7.jpg"],"created_at":"2024-10-22T04:49:50.784Z"},{"id":"item-01f0e3975f94","sku":"_dEmEmZvIzEue-xQSgtlnESovx7w4XT_B_DqVttg","name_en":"Ep对版十字纹现货黑,大象灰,金棕,奶昔白","name_cn":"Ep对版十字纹现货黑,大象灰,金棕,奶昔白\n新款 kelly elan,时尚的轮回,可以当腋下包和手拿包,真的把一代替代了\n简直不要太美\n拼手速啦,今年必种草款,宝子们","specs":{"source":"wsxcme","sourceId":"_dEmEmZvIzEue-xQSgtlnESovx7w4XT_B_DqVttg","sourceTagId":76963559,"sourceTagName":"爱马仕/女包","rawTitle":"Ep对版十字纹现货黑,大象灰,金棕,奶昔白\n新款 kelly elan,时尚的轮回,可以当腋下包和手拿包,真的把一代替代了\n简直不要太美\n拼手速啦,今年必种草款,宝子们"},"price":null,"currency":"CNY","moq":1,"category":"hermes-women-bags","status":"active","alibaba_url":null,"images":["https://xcimg.szwego.com/20230907/i1694070553_8008_0.jpg","https://xcimg.szwego.com/20230907/i1694070553_9773_1.jpg","https://xcimg.szwego.com/20230907/i1694070553_4130_2.jpg","https://xcimg.szwego.com/20230907/i1694070553_1844_3.jpg","https://xcimg.szwego.com/20230907/i1694070553_7952_4.jpg","https://xcimg.szwego.com/20230907/i1694070553_2577_5.jpg","https://xcimg.szwego.com/20230907/i1694070553_9476_6.jpg","https://xcimg.szwego.com/20230907/i1694070553_8769_7.jpg"],"created_at":"2024-10-22T04:49:50.785Z"},{"id":"item-69b5cafbdb8c","sku":"_dwhwhwmLJ5eJfxIqKVfslKwXa-chBrc3ZVFgsCA","name_en":"EXCURSION 双肩包系列M46932#免检版#","name_cn":"EXCURSION 双肩包系列M46932#免检版#\n❐ 尺寸:21*23*10cm ❐\n这款玲珑且实用的EXCURSION小号背包采用 Monogram 帆布材质,配以皮革饰边,洋溢徒步风度。主隔层采用可调节滑扣开合,正面有两个搭扣口袋。除顶部手柄外,还配有一条链条,可自由切换背携方式","specs":{"source":"wsxcme","sourceId":"_dwhwhwmLJ5eJfxIqKVfslKwXa-chBrc3ZVFgsCA","sourceTagId":47002622,"sourceTagName":"LV/女包","dimensions":{"lengthCm":21,"heightCm":23,"widthCm":10},"rawTitle":"EXCURSION 双肩包系列M46932#免检版#\n❐ 尺寸:21*23*10cm ❐\n这款玲珑且实用的EXCURSION小号背包采用 Monogram 帆布材质,配以皮革饰边,洋溢徒步风度。主隔层采用可调节滑扣开合,正面有两个搭扣口袋。除顶部手柄外,还配有一条链条,可自由切换背携方式"},"price":null,"currency":"CNY","moq":1,"category":"lv-women-bags","status":"active","alibaba_url":null,"images":["https://xcimg.szwego.com/img/8e289e2b/20231231/i1703952221_3700_0.jpg","https://xcimg.szwego.com/img/8e289e2b/20231231/i1703952220_7509_0.jpg","https://xcimg.szwego.com/img/8e289e2b/20231231/i1703952220_9081_0.jpg","https://xcimg.szwego.com/img/8e289e2b/20231231/i1703952220_8460_0.jpg","https://xcimg.szwego.com/img/8e289e2b/20231231/i1703952221_7496_0.jpg","https://xcimg.szwego.com/img/8e289e2b/20231231/i1703952220_658_0.jpg","https://xcimg.szwego.com/img/8e289e2b/20231231/i1703952220_6683_0.jpg","https://xcimg.szwego.com/img/8e289e2b/20231231/i1703952220_4203_0.jpg","https://xcimg.szwego.com/img/8e289e2b/20231231/i1703952220_6737_0.jpg"],"created_at":"2024-05-01T03:18:16.094Z"},{"id":"item-327ea85df54c","sku":"_dp6p6IJofG_JNogJ5NqBS6rOzFTrWMMFSknjDXQ","name_en":"EXCURSION 小号背包#️⃣M46932","name_cn":"EXCURSION 小号背包#️⃣M46932\n专柜正品版渠道货独家全网首发!此款按专柜西班牙定制工艺、动态芯片变码,原厂专款面料、原厂专款浅金电镀全钢五金(色泽与正品一致)\n如需对比正品请按正品西班牙版进行比对!\n我们确保百分百还原正品真实感!独家正品原厂面料、五金、边油、车线+正品工艺、官网最新全套礼盒!\n21 x 23 x 10 厘米\n(长度 x 高 x 宽)\nMonogram 涂层帆布\n牛皮革饰边\n织物内衬\n金属件\n抽绳开合\n主隔层\n后侧内贴袋\n前侧外袋\n链条:可拆卸\n链条半长:21.5 厘米\n手柄:单手柄\n本品产地为西班牙","specs":{"source":"wsxcme","sourceId":"_dp6p6IJofG_JNogJ5NqBS6rOzFTrWMMFSknjDXQ","sourceTagId":47002622,"sourceTagName":"LV/女包","rawTitle":"EXCURSION 小号背包#️⃣M46932\n专柜正品版渠道货独家全网首发!此款按专柜西班牙定制工艺、动态芯片变码,原厂专款面料、原厂专款浅金电镀全钢五金(色泽与正品一致)\n如需对比正品请按正品西班牙版进行比对!\n我们确保百分百还原正品真实感!独家正品原厂面料、五金、边油、车线+正品工艺、官网最新全套礼盒!\n21 x 23 x 10 厘米\n(长度 x 高 x 宽)\nMonogram 涂层帆布\n牛皮革饰边\n织物内衬\n金属件\n抽绳开合\n主隔层\n后侧内贴袋\n前侧外袋\n链条:可拆卸\n链条半长:21.5 厘米\n手柄:单手柄\n本品产地为西班牙"},"price":null,"currency":"CNY","moq":1,"category":"lv-women-bags","status":"active","alibaba_url":null,"images":["https://xcimg.szwego.com/img/0814622f/20240613/i1718278964_5551_0.jpg","https://xcimg.szwego.com/img/0814622f/20240613/i1718278964_8318_2.jpg","https://xcimg.szwego.com/img/0814622f/20240613/i1718278965_8423_7.jpg","https://xcimg.szwego.com/img/0814622f/20240613/i1718278965_5236_8.jpg","https://xcimg.szwego.com/img/0814622f/20240613/i1718278964_9697_1.jpg","https://xcimg.szwego.com/img/0814622f/20240613/i1718278965_7180_4.jpg","https://xcimg.szwego.com/img/0814622f/20240613/i1718278965_2880_6.jpg","https://xcimg.szwego.com/img/0814622f/20240613/i1718278964_6877_3.jpg","https://xcimg.szwego.com/img/0814622f/20240613/i1718278965_8436_5.jpg"],"created_at":"2024-11-11T10:39:49.060Z"},{"id":"item-9609b6c82cf2","sku":"_d9N9N5sZwahXrmUwMNVRSM_0uAfdjl38mTTv-0A","name_en":"F680@新款绒面麂皮(特大号)Soft Lux🎉1BA439🎉🎉到货,这款手提斜挎包采用进口磨砂皮,散发出古典气息,配有一条可拆卸调节的长肩带,方便不同场合搭配,容量空间非常大,巨巨好用👏,绝对是时商达人们的必备款,赶紧把这款复古格调手拎包带回家吧!","name_cn":"F680@新款绒面麂皮(特大号)Soft Lux🎉1BA439🎉🎉到货,这款手提斜挎包采用进口磨砂皮,散发出古典气息,配有一条可拆卸调节的长肩带,方便不同场合搭配,容量空间非常大,巨巨好用👏,绝对是时商达人们的必备款,赶紧把这款复古格调手拎包带回家吧!\n长42×高30×底12cm(此款大,不配包装)","specs":{"source":"wsxcme","sourceId":"_d9N9N5sZwahXrmUwMNVRSM_0uAfdjl38mTTv-0A","sourceTagId":47002669,"sourceTagName":"普拉达/女包","rawTitle":"F680@新款绒面麂皮(特大号)Soft Lux🎉1BA439🎉🎉到货,这款手提斜挎包采用进口磨砂皮,散发出古典气息,配有一条可拆卸调节的长肩带,方便不同场合搭配,容量空间非常大,巨巨好用👏,绝对是时商达人们的必备款,赶紧把这款复古格调手拎包带回家吧!\n长42×高30×底12cm(此款大,不配包装)"},"price":null,"currency":"CNY","moq":1,"category":"prada-women-bags","status":"active","alibaba_url":null,"images":["https://xcimg.szwego.com/img/d707740b/20240926/i1727288310_2419_0.jpg","https://xcimg.szwego.com/img/d707740b/20240926/i1727288310_579_1.jpg","https://xcimg.szwego.com/img/d707740b/20240926/i1727288310_6580_2.jpg","https://xcimg.szwego.com/img/d707740b/20240926/i1727288310_2677_3.jpg","https://xcimg.szwego.com/img/d707740b/20240926/i1727288310_1832_4.jpg","https://xcimg.szwego.com/img/d707740b/20240926/i1727288310_4151_5.jpg","https://xcimg.szwego.com/img/d707740b/20240926/i1727288310_946_6.jpg","https://xcimg.szwego.com/img/d707740b/20240926/i1727288310_3317_7.jpg","https://xcimg.szwego.com/img/d707740b/20240926/i1727288310_5888_8.jpg"],"created_at":"2025-01-20T12:53:04.468Z"},{"id":"item-64388a0dd115","sku":"_dt6t65lurANcTXTEOhruhJ6K5AOo5pgK5Ziy_RA","name_en":"F8BS034 白色皮革迷你手袋,翻盖和按扣开合Pequin布料背籿和平口袋。尺寸21.5CM-13CM-3CM","name_cn":"F8BS034 白色皮革迷你手袋,翻盖和按扣开合Pequin布料背籿和平口袋。尺寸21.5CM-13CM-3CM","specs":{"source":"wsxcme","sourceId":"_dt6t65lurANcTXTEOhruhJ6K5AOo5pgK5Ziy_RA","sourceTagId":47002731,"sourceTagName":"芬迪/女包","rawTitle":"F8BS034 白色皮革迷你手袋,翻盖和按扣开合Pequin布料背籿和平口袋。尺寸21.5CM-13CM-3CM"},"price":null,"currency":"CNY","moq":1,"category":"fendi-women-bags","status":"active","alibaba_url":null,"images":["https://xcimg.szwego.com/20211202/a1638426889334_0122.jpg","https://xcimg.szwego.com/20211202/a1638426889619_3612.jpg","https://xcimg.szwego.com/20211202/a1638426889908_6471.jpg","https://xcimg.szwego.com/20211202/a1638426890180_3884.jpg","https://xcimg.szwego.com/20211202/a1638426890734_2825.jpg","https://xcimg.szwego.com/20211202/a1638426891318_0466.jpg","https://xcimg.szwego.com/20211202/a1638426891835_4502.jpg","https://xcimg.szwego.com/20211202/a1638426892548_3384.jpg","https://xcimg.szwego.com/20211202/a1638426893059_2485.jpg"],"created_at":"2026-06-29T10:22:09.202Z"},{"id":"item-de402a943fa7","sku":"_dr3r31-2ezRl3K-WH_bOfceK_K3ZlrayQbo3JHw","name_en":"F8BS034 红色和杏色皮革迷你手袋,翻盖和按扣开合Pequin布料背籿和平口袋。尺寸21.5CM-13CM-3CM","name_cn":"F8BS034 红色和杏色皮革迷你手袋,翻盖和按扣开合Pequin布料背籿和平口袋。尺寸21.5CM-13CM-3CM","specs":{"source":"wsxcme","sourceId":"_dr3r31-2ezRl3K-WH_bOfceK_K3ZlrayQbo3JHw","sourceTagId":47002731,"sourceTagName":"芬迪/女包","rawTitle":"F8BS034 红色和杏色皮革迷你手袋,翻盖和按扣开合Pequin布料背籿和平口袋。尺寸21.5CM-13CM-3CM"},"price":null,"currency":"CNY","moq":1,"category":"fendi-women-bags","status":"active","alibaba_url":null,"images":["https://xcimg.szwego.com/20211202/a1638427049007_5532.jpg","https://xcimg.szwego.com/20211202/a1638427049296_4060.jpg","https://xcimg.szwego.com/20211202/a1638427049585_5176.jpg","https://xcimg.szwego.com/20211202/a1638427049865_8275.jpg","https://xcimg.szwego.com/20211202/a1638427050277_8832.jpg","https://xcimg.szwego.com/20211202/a1638427050761_2154.jpg","https://xcimg.szwego.com/20211202/a1638427051361_0825.jpg","https://xcimg.szwego.com/20211202/a1638427051968_0113.jpg","https://xcimg.szwego.com/20211202/a1638427052673_2170.jpg"],"created_at":"2026-06-29T10:22:09.192Z"},{"id":"item-df67c0c30301","sku":"_dqRqRdNjD45eWTt9idKZm5USW06RhXbzCXliwPQ","name_en":"F新款绒面麂皮大号Soft Lux🎉1BA433🎉🎉到货,这款手提斜挎包采用进口磨砂皮,散发出古典气息,配有一条可拆卸调节的长肩带,方便不同场合搭配,容量空间非常大,巨巨好用👏,绝对是时商达人们的必备款,赶紧把这款复古格调手拎包带回家吧!","name_cn":"F新款绒面麂皮大号Soft Lux🎉1BA433🎉🎉到货,这款手提斜挎包采用进口磨砂皮,散发出古典气息,配有一条可拆卸调节的长肩带,方便不同场合搭配,容量空间非常大,巨巨好用👏,绝对是时商达人们的必备款,赶紧把这款复古格调手拎包带回家吧!\n长38x高30x底12cm(此款大,不配包装)","specs":{"source":"wsxcme","sourceId":"_dqRqRdNjD45eWTt9idKZm5USW06RhXbzCXliwPQ","sourceTagId":47002669,"sourceTagName":"普拉达/女包","rawTitle":"F新款绒面麂皮大号Soft Lux🎉1BA433🎉🎉到货,这款手提斜挎包采用进口磨砂皮,散发出古典气息,配有一条可拆卸调节的长肩带,方便不同场合搭配,容量空间非常大,巨巨好用👏,绝对是时商达人们的必备款,赶紧把这款复古格调手拎包带回家吧!\n长38x高30x底12cm(此款大,不配包装)"},"price":null,"currency":"CNY","moq":1,"category":"prada-women-bags","status":"active","alibaba_url":null,"images":["https://xcimg.szwego.com/img/d707740b/20240814/i1723571466_1789_0.jpg","https://xcimg.szwego.com/img/d707740b/20240814/i1723571466_2709_1.jpg","https://xcimg.szwego.com/img/d707740b/20240814/i1723571466_8032_2.jpg","https://xcimg.szwego.com/img/d707740b/20240814/i1723571466_5361_3.jpg","https://xcimg.szwego.com/img/d707740b/20240814/i1723571466_95_4.jpg","https://xcimg.szwego.com/img/d707740b/20240814/i1723571466_1215_5.jpg","https://xcimg.szwego.com/img/d707740b/20240814/i1723571466_4285_6.jpg","https://xcimg.szwego.com/img/d707740b/20240814/i1723571466_4614_7.jpg","https://xcimg.szwego.com/img/d707740b/20240814/i1723571466_2182_8.jpg"],"created_at":"2025-01-20T12:53:04.467Z"},{"id":"item-377a1e2867e3","sku":"_delelsTulZEh12zf6tn4wTre6crZLh5zFRMjpWw","name_en":"FEND1最新Peekaboo X-Tote","name_cn":"FEND1最新Peekaboo X-Tote\npeekaboo可谓是FEND1的灵魂之作,暗绿色帆布材质配上标志性转扣,不失大气的造型,可盐可甜,可正式可休闲!8004\n尺寸41x16x30cm","specs":{"source":"wsxcme","sourceId":"_delelsTulZEh12zf6tn4wTre6crZLh5zFRMjpWw","sourceTagId":47002731,"sourceTagName":"芬迪/女包","dimensions":{"lengthCm":41,"heightCm":16,"widthCm":30},"rawTitle":"FEND1最新Peekaboo X-Tote\npeekaboo可谓是FEND1的灵魂之作,暗绿色帆布材质配上标志性转扣,不失大气的造型,可盐可甜,可正式可休闲!8004\n尺寸41x16x30cm"},"price":null,"currency":"CNY","moq":1,"category":"fendi-women-bags","status":"active","alibaba_url":null,"images":["https://xcimg.szwego.com/img/77125233/20240617/i1718589405_7498_0.jpg","https://xcimg.szwego.com/img/77125233/20240617/i1718589405_9885_2.jpg","https://xcimg.szwego.com/img/77125233/20240617/i1718589406_4301_7.jpg","https://xcimg.szwego.com/img/77125233/20240617/i1718589406_4538_8.jpg","https://xcimg.szwego.com/img/77125233/20240617/i1718589406_2968_5.jpg","https://xcimg.szwego.com/img/77125233/20240617/i1718589406_437_6.jpg","https://xcimg.szwego.com/img/77125233/20240617/i1718589405_5102_1.jpg","https://xcimg.szwego.com/img/77125233/20240617/i1718589406_7447_3.jpg","https://xcimg.szwego.com/img/77125233/20240617/i1718589406_377_4.jpg"],"created_at":"2025-02-10T14:02:44.799Z"},{"id":"item-8ba8cec3667b","sku":"_dUoUoMIVNiLXhJjtOeSj6TQWAGdL_Vg_ZPqtqlg","name_en":"FENDI ‣PEEKABOO","name_cn":"FENDI ‣PEEKABOO\n      采用七层油边涂抹工艺配合手工缝制蜡线 皮纹清晰有质感 越用越柔软的t0go 历经岁月之后更有味道。23-12-18\n款号244","specs":{"source":"wsxcme","sourceId":"_dUoUoMIVNiLXhJjtOeSj6TQWAGdL_Vg_ZPqtqlg","sourceTagId":47002731,"sourceTagName":"芬迪/女包","modelNumber":"244","rawTitle":"FENDI ‣PEEKABOO\n      采用七层油边涂抹工艺配合手工缝制蜡线 皮纹清晰有质感 越用越柔软的t0go 历经岁月之后更有味道。23-12-18\n款号244"},"price":null,"currency":"CNY","moq":1,"category":"fendi-women-bags","status":"active","alibaba_url":null,"images":["https://xcimg.szwego.com/20220317/i1647452412_7126_0.jpg","https://xcimg.szwego.com/20220317/i1647452412_1324_1.jpg","https://xcimg.szwego.com/20220317/i1647452412_3457_2.jpg","https://xcimg.szwego.com/20220317/i1647452412_4229_3.jpg","https://xcimg.szwego.com/20220317/i1647452412_6724_4.jpg","https://xcimg.szwego.com/20220317/i1647452412_5385_5.jpg","https://xcimg.szwego.com/20220317/i1647452412_5528_6.jpg","https://xcimg.szwego.com/20220317/i1647452412_8882_7.jpg","https://xcimg.szwego.com/20220317/i1647452412_1275_8.jpg"],"created_at":"2024-11-11T10:33:53.482Z"},{"id":"item-1341f33ced2f","sku":"_dmFmFhuWZy485BnlRM4SKpRiNocGehxriAgsAdg","name_en":"FENDI ‣PEEKABOO","name_cn":"FENDI ‣PEEKABOO\n      采用七层油边涂抹工艺配合手工缝制蜡线 皮纹清晰有质感 越用越柔软的t0go 历经岁月之后更有味道。33.12.26cm\n款号290","specs":{"source":"wsxcme","sourceId":"_dmFmFhuWZy485BnlRM4SKpRiNocGehxriAgsAdg","sourceTagId":47002731,"sourceTagName":"芬迪/女包","modelNumber":"290","rawTitle":"FENDI ‣PEEKABOO\n      采用七层油边涂抹工艺配合手工缝制蜡线 皮纹清晰有质感 越用越柔软的t0go 历经岁月之后更有味道。33.12.26cm\n款号290"},"price":null,"currency":"CNY","moq":1,"category":"fendi-women-bags","status":"active","alibaba_url":null,"images":["https://xcimg.szwego.com/20220317/i1647452573_5147_0.jpg","https://xcimg.szwego.com/20220317/i1647452573_6353_1.jpg","https://xcimg.szwego.com/20220317/i1647452573_866_2.jpg","https://xcimg.szwego.com/20220317/i1647452573_2401_3.jpg","https://xcimg.szwego.com/20220317/i1647452573_6354_4.jpg","https://xcimg.szwego.com/20220317/i1647452573_4028_5.jpg","https://xcimg.szwego.com/20220317/i1647452573_7405_6.jpg","https://xcimg.szwego.com/20220317/i1647452573_7613_7.jpg","https://xcimg.szwego.com/20220317/i1647452573_8408_8.jpg"],"created_at":"2024-11-11T10:33:53.481Z"},{"id":"item-c39ec4c0ca48","sku":"_djMjMMhtWhoydj201eYi8KU2zMXiUyT9FCze73g","name_en":"FENDI 全新Mini ByThe Way迷你包","name_cn":"FENDI 全新Mini ByThe Way迷你包\n包包拥有纯净简约廓形的ByTheWav结合玳瑁手柄等,有个性元素又颇为惹人怜爱的迷你,光滑小牛皮款的颜色呈现经典细腻变化,亦更为俏皮,这款运动型时尚迷你手袋从白天到晚上皆适宜携带,可通过可拆卸迷你背带斜挎,也可直接手拿,包包虽小,但容量极好👻 \n尺寸17x18x8cm067","specs":{"source":"wsxcme","sourceId":"_djMjMMhtWhoydj201eYi8KU2zMXiUyT9FCze73g","sourceTagId":47002731,"sourceTagName":"芬迪/女包","dimensions":{"lengthCm":17,"heightCm":18,"widthCm":8},"rawTitle":"FENDI 全新Mini ByThe Way迷你包\n包包拥有纯净简约廓形的ByTheWav结合玳瑁手柄等,有个性元素又颇为惹人怜爱的迷你,光滑小牛皮款的颜色呈现经典细腻变化,亦更为俏皮,这款运动型时尚迷你手袋从白天到晚上皆适宜携带,可通过可拆卸迷你背带斜挎,也可直接手拿,包包虽小,但容量极好👻 \n尺寸17x18x8cm067"},"price":null,"currency":"CNY","moq":1,"category":"fendi-women-bags","status":"active","alibaba_url":null,"images":["https://xcimg.szwego.com/20220724/i1658660545_1479_0.jpg","https://xcimg.szwego.com/20220724/i1658660545_1512_1.jpg","https://xcimg.szwego.com/20220724/i1658660545_9698_7.jpg","https://xcimg.szwego.com/20220724/i1658660545_5497_8.jpg","https://xcimg.szwego.com/20220724/i1658660545_3081_6.jpg","https://xcimg.szwego.com/20220724/i1658660545_4944_5.jpg","https://xcimg.szwego.com/20220724/i1658660545_7138_4.jpg","https://xcimg.szwego.com/20220724/i1658660545_6945_2.jpg","https://xcimg.szwego.com/20220724/i1658660545_6597_3.jpg"],"created_at":"2026-06-29T10:22:09.212Z"}],"page":306,"pageSize":24,"total":10075,"totalPages":420}
