{"items":[{"id":"item-6826d2d1bc4d","sku":"_dn_n_tuyqu51KkWpfOde3WaFwz1fIoG5JewwzYA","name_en":"🎉新款🎉2VD065单肩包🎉🎉","name_cn":"🎉新款🎉2VD065单肩包🎉🎉\n这款单肩包采用标志性材料Saffiano牛皮,磁扣翻盖设计,背面磁扣口袋,可调节牛皮长肩带设计,呈现出实用而时尚的极简设计。上身效果非常酷😎,又是一款永久不过时爆款🎉🎉帅哥们,赶紧入手吧👏长19x高13x底5cm🎉🎉🎉👏👏👏","specs":{"source":"wsxcme","sourceId":"_dn_n_tuyqu51KkWpfOde3WaFwz1fIoG5JewwzYA","sourceTagId":47002669,"sourceTagName":"普拉达/女包","rawTitle":"🎉新款🎉2VD065单肩包🎉🎉\n这款单肩包采用标志性材料Saffiano牛皮,磁扣翻盖设计,背面磁扣口袋,可调节牛皮长肩带设计,呈现出实用而时尚的极简设计。上身效果非常酷😎,又是一款永久不过时爆款🎉🎉帅哥们,赶紧入手吧👏长19x高13x底5cm🎉🎉🎉👏👏👏"},"price":null,"currency":"CNY","moq":1,"category":"prada-women-bags","status":"active","alibaba_url":null,"images":["https://xcimg.szwego.com/20240313/i1710305326_1442_0.jpg","https://xcimg.szwego.com/20240313/i1710305326_4484_1.jpg","https://xcimg.szwego.com/20240313/i1710305326_9750_2.jpg","https://xcimg.szwego.com/20240313/i1710305326_6267_3.jpg","https://xcimg.szwego.com/20240313/i1710305326_1107_4.jpg","https://xcimg.szwego.com/20240313/i1710305326_6975_5.jpg","https://xcimg.szwego.com/20240313/i1710305326_9353_6.jpg","https://xcimg.szwego.com/20240313/i1710305326_1684_7.jpg","https://xcimg.szwego.com/20240313/i1710305332_4524_0.jpg"],"created_at":"2026-06-29T11:07:24.627Z"},{"id":"item-87362be0dbc2","sku":"_ddbdbiDirt7H1qeE3kIM9YGhJ_WLDS__C2_LjTw","name_en":"🎉新款🎉2VD059🎉🎉","name_cn":"🎉新款🎉2VD059🎉🎉\n这款单肩包选用Saffiano皮革制成。单肩翻盖磁扣设计,可拆卸可调式尼龙肩带,可拆卸Saffiano皮革小袋,简约大气,上身效果非常时尚。又是一款爆款🎉🎉长22x高14.5x底5cm🎉🎉🎉👏👏👏","specs":{"source":"wsxcme","sourceId":"_ddbdbiDirt7H1qeE3kIM9YGhJ_WLDS__C2_LjTw","sourceTagId":47002669,"sourceTagName":"普拉达/女包","rawTitle":"🎉新款🎉2VD059🎉🎉\n这款单肩包选用Saffiano皮革制成。单肩翻盖磁扣设计,可拆卸可调式尼龙肩带,可拆卸Saffiano皮革小袋,简约大气,上身效果非常时尚。又是一款爆款🎉🎉长22x高14.5x底5cm🎉🎉🎉👏👏👏"},"price":null,"currency":"CNY","moq":1,"category":"prada-women-bags","status":"active","alibaba_url":null,"images":["https://xcimg.szwego.com/20230923/i1695452745_6202_0.jpg","https://xcimg.szwego.com/20230923/i1695452745_5005_1.jpg","https://xcimg.szwego.com/20230923/i1695452745_1909_2.jpg","https://xcimg.szwego.com/20230923/i1695452745_1075_3.jpg","https://xcimg.szwego.com/20230923/i1695452745_2465_4.jpg","https://xcimg.szwego.com/20230923/i1695452745_1298_5.jpg","https://xcimg.szwego.com/20230923/i1695452745_3183_7.jpg","https://xcimg.szwego.com/20230923/i1695452745_6793_6.jpg","https://xcimg.szwego.com/20230923/i1695452768_1926_0.jpg"],"created_at":"2026-06-29T11:07:24.617Z"},{"id":"item-8f780a7cba4c","sku":"_dw7w7kYPGcNC9IXwgA9cCvhe9XIOnQ5ODD0iCAg","name_en":"🎉新款🎉2VD059🎉🎉","name_cn":"🎉新款🎉2VD059🎉🎉\n这款单肩包选用Saffiano皮革制成。单肩翻盖磁扣设计,可拆卸可调式尼龙肩带,可拆卸Saffiano皮革小袋,简约大气,上身效果非常时尚。又是一款爆款🎉🎉长22x高14.5x底5cm🎉🎉🎉👏👏👏","specs":{"source":"wsxcme","sourceId":"_dw7w7kYPGcNC9IXwgA9cCvhe9XIOnQ5ODD0iCAg","sourceTagId":47002669,"sourceTagName":"普拉达/女包","rawTitle":"🎉新款🎉2VD059🎉🎉\n这款单肩包选用Saffiano皮革制成。单肩翻盖磁扣设计,可拆卸可调式尼龙肩带,可拆卸Saffiano皮革小袋,简约大气,上身效果非常时尚。又是一款爆款🎉🎉长22x高14.5x底5cm🎉🎉🎉👏👏👏"},"price":null,"currency":"CNY","moq":1,"category":"prada-women-bags","status":"active","alibaba_url":null,"images":["https://xcimg.szwego.com/20230923/i1695452238_9584_0.jpg","https://xcimg.szwego.com/20230923/i1695452238_8687_1.jpg","https://xcimg.szwego.com/20230923/i1695452238_7033_2.jpg","https://xcimg.szwego.com/20230923/i1695452238_8041_3.jpg","https://xcimg.szwego.com/20230923/i1695452238_8869_4.jpg","https://xcimg.szwego.com/20230923/i1695452238_2532_6.jpg","https://xcimg.szwego.com/20230923/i1695452238_5110_7.jpg","https://xcimg.szwego.com/20230923/i1695452238_3332_5.jpg","https://xcimg.szwego.com/20230923/i1695452238_2700_8.jpg"],"created_at":"2026-06-29T11:07:24.607Z"},{"id":"item-7f8599ae4ac2","sku":"_dwjwjaMB7-gI9HZjj2Sma75YtLdldRCkARA5WuA","name_en":"Prada Women Bags","name_cn":"普拉达/女包","specs":{"source":"wsxcme","sourceId":"_dwjwjaMB7-gI9HZjj2Sma75YtLdldRCkARA5WuA","sourceTagId":47002669,"sourceTagName":"普拉达/女包","rawTitle":""},"price":null,"currency":"CNY","moq":1,"category":"prada-women-bags","status":"active","alibaba_url":null,"images":["https://xcimg.szwego.com/20260322/i1774161565_4473_0.jpg"],"created_at":"2026-06-29T11:07:24.597Z"},{"id":"item-69ea0f278ebd","sku":"_dsjsja2NLKiUkmi1rUB1TBI_CgEWz7Uw4IJceCQ","name_en":"🎉新品羊皮🎉1BC264探索包🎉🎉","name_cn":"🎉新品羊皮🎉1BC264探索包🎉🎉\n这款探索包采用进口植柔羊皮,具有柔软的轮廓和多个口袋。轻质实用的Re-Nylon强调了设计的多功能风格,而皮革细节和标志性点缀则反映了P家的手工传统,配有2条可拆卸、可调节的肩带。容量空间大,上身效果非常时尚。又是一款永久不过时爆款。值得拥有!🎉🎉\n长32x高22x底11.5cm🎉🎉🎉","specs":{"source":"wsxcme","sourceId":"_dsjsja2NLKiUkmi1rUB1TBI_CgEWz7Uw4IJceCQ","sourceTagId":47002669,"sourceTagName":"普拉达/女包","rawTitle":"🎉新品羊皮🎉1BC264探索包🎉🎉\n这款探索包采用进口植柔羊皮,具有柔软的轮廓和多个口袋。轻质实用的Re-Nylon强调了设计的多功能风格,而皮革细节和标志性点缀则反映了P家的手工传统,配有2条可拆卸、可调节的肩带。容量空间大,上身效果非常时尚。又是一款永久不过时爆款。值得拥有!🎉🎉\n长32x高22x底11.5cm🎉🎉🎉"},"price":null,"currency":"CNY","moq":1,"category":"prada-women-bags","status":"active","alibaba_url":null,"images":["https://xcimg.szwego.com/20250908/i1757319777_8280_0.jpg","https://xcimg.szwego.com/20250908/i1757319777_2191_1.jpg","https://xcimg.szwego.com/20250908/i1757319777_1411_2.jpg","https://xcimg.szwego.com/20250908/i1757319777_3209_3.jpg","https://xcimg.szwego.com/20250908/i1757319777_3840_4.jpg","https://xcimg.szwego.com/20250908/i1757319777_6353_5.jpg","https://xcimg.szwego.com/20250908/i1757319777_9512_6.jpg","https://xcimg.szwego.com/20250908/i1757319777_7827_7.jpg","https://xcimg.szwego.com/20250908/i1757319777_4415_8.jpg"],"created_at":"2026-06-29T11:07:24.587Z"},{"id":"item-42b137dd8aab","sku":"_dd5d5SNDvViP671oSrel3158XxUeiKGNWVrPXbQ","name_en":"🎉新品羊皮🎉1BC264探索包🎉🎉","name_cn":"🎉新品羊皮🎉1BC264探索包🎉🎉\n这款探索包采用进口植柔羊皮,具有柔软的轮廓和多个口袋。轻质实用的Re-Nylon强调了设计的多功能风格,而皮革细节和标志性点缀则反映了P家的手工传统,配有2条可拆卸、可调节的肩带。容量空间大,上身效果非常时尚。又是一款永久不过时爆款。值得拥有!🎉🎉\n长32x高22x底11.5cm🎉🎉🎉💰💰💰","specs":{"source":"wsxcme","sourceId":"_dd5d5SNDvViP671oSrel3158XxUeiKGNWVrPXbQ","sourceTagId":47002669,"sourceTagName":"普拉达/女包","rawTitle":"🎉新品羊皮🎉1BC264探索包🎉🎉\n这款探索包采用进口植柔羊皮,具有柔软的轮廓和多个口袋。轻质实用的Re-Nylon强调了设计的多功能风格,而皮革细节和标志性点缀则反映了P家的手工传统,配有2条可拆卸、可调节的肩带。容量空间大,上身效果非常时尚。又是一款永久不过时爆款。值得拥有!🎉🎉\n长32x高22x底11.5cm🎉🎉🎉💰💰💰"},"price":null,"currency":"CNY","moq":1,"category":"prada-women-bags","status":"active","alibaba_url":null,"images":["https://xcimg.szwego.com/20250908/i1757318731_6925_0.jpg","https://xcimg.szwego.com/20250908/i1757319090_7217_0.jpg","https://xcimg.szwego.com/20250908/i1757318731_5721_1.jpg","https://xcimg.szwego.com/20250908/i1757318731_1120_2.jpg","https://xcimg.szwego.com/20250908/i1757318731_7662_3.jpg","https://xcimg.szwego.com/20250908/i1757318731_1139_4.jpg","https://xcimg.szwego.com/20250908/i1757318731_3935_5.jpg","https://xcimg.szwego.com/20250908/i1757318731_6280_6.jpg","https://xcimg.szwego.com/20250908/i1757318731_5927_7.jpg"],"created_at":"2026-06-29T11:07:24.577Z"},{"id":"item-078fa245cf74","sku":"_dz0z0ZKiQXgiOH46cMPTWOuAatq7q-4xHJ74Olw","name_en":"🎉新品🎉1BC264探索包🎉🎉","name_cn":"🎉新品🎉1BC264探索包🎉🎉\n这款探索包采用进口尼龙面料和小牛皮,具有柔软的轮廓和多个口袋。轻质实用的Re-Nylon强调了设计的多功能风格,而皮革细节和标志性点缀则反映了P家的手工传统,配有2条可拆卸、可调节的编织标志带肩带。容量空间大,上身效果非常时尚。又是一款永久不过时爆款。值得拥有!🎉🎉\n长32x高22x底11.5cm🎉🎉🎉","specs":{"source":"wsxcme","sourceId":"_dz0z0ZKiQXgiOH46cMPTWOuAatq7q-4xHJ74Olw","sourceTagId":47002669,"sourceTagName":"普拉达/女包","rawTitle":"🎉新品🎉1BC264探索包🎉🎉\n这款探索包采用进口尼龙面料和小牛皮,具有柔软的轮廓和多个口袋。轻质实用的Re-Nylon强调了设计的多功能风格,而皮革细节和标志性点缀则反映了P家的手工传统,配有2条可拆卸、可调节的编织标志带肩带。容量空间大,上身效果非常时尚。又是一款永久不过时爆款。值得拥有!🎉🎉\n长32x高22x底11.5cm🎉🎉🎉"},"price":null,"currency":"CNY","moq":1,"category":"prada-women-bags","status":"active","alibaba_url":null,"images":["https://xcimg.szwego.com/20260310/i1773122453_677_0.jpg","https://xcimg.szwego.com/20260310/i1773122453_1782_1.jpg","https://xcimg.szwego.com/20260310/i1773122453_1155_2.jpg","https://xcimg.szwego.com/20260310/i1773122453_3687_3.jpg","https://xcimg.szwego.com/20260310/i1773122453_670_4.jpg","https://xcimg.szwego.com/20260310/i1773122453_6875_5.jpg","https://xcimg.szwego.com/20260310/i1773122453_4758_6.jpg","https://xcimg.szwego.com/20260310/i1773122453_1624_7.jpg","https://xcimg.szwego.com/20260310/i1773122453_5334_8.jpg"],"created_at":"2026-06-29T11:07:24.567Z"},{"id":"item-6b6309a8fa13","sku":"_dMQMQ2hdUkSvH1em5B2LQxBn6EEeEzOEoBQDS3Q","name_en":"🎉新品🎉1BC264探索包🎉🎉","name_cn":"🎉新品🎉1BC264探索包🎉🎉\n这款探索包采用进口尼龙面料和小牛皮,具有柔软的轮廓和多个口袋。轻质实用的Re-Nylon强调了设计的多功能风格,而皮革细节和标志性点缀则反映了P家的手工传统,配有2条可拆卸、可调节的编织标志带肩带。容量空间大,上身效果非常时尚。又是一款永久不过时爆款。值得拥有!🎉🎉\n长32x高22x底11.5cm🎉🎉🎉","specs":{"source":"wsxcme","sourceId":"_dMQMQ2hdUkSvH1em5B2LQxBn6EEeEzOEoBQDS3Q","sourceTagId":47002669,"sourceTagName":"普拉达/女包","rawTitle":"🎉新品🎉1BC264探索包🎉🎉\n这款探索包采用进口尼龙面料和小牛皮,具有柔软的轮廓和多个口袋。轻质实用的Re-Nylon强调了设计的多功能风格,而皮革细节和标志性点缀则反映了P家的手工传统,配有2条可拆卸、可调节的编织标志带肩带。容量空间大,上身效果非常时尚。又是一款永久不过时爆款。值得拥有!🎉🎉\n长32x高22x底11.5cm🎉🎉🎉"},"price":null,"currency":"CNY","moq":1,"category":"prada-women-bags","status":"active","alibaba_url":null,"images":["https://xcimg.szwego.com/20251206/i1765006284_7434_0.jpg","https://xcimg.szwego.com/20251206/i1765006284_8573_1.jpg","https://xcimg.szwego.com/20251206/i1765006284_8325_2.jpg","https://xcimg.szwego.com/20251206/i1765006284_4629_3.jpg","https://xcimg.szwego.com/20251206/i1765006284_1909_4.jpg","https://xcimg.szwego.com/20251206/i1765006284_2690_5.jpg","https://xcimg.szwego.com/20251206/i1765006284_1195_6.jpg","https://xcimg.szwego.com/20251206/i1765006284_6362_7.jpg","https://xcimg.szwego.com/20251206/i1765006284_6724_8.jpg"],"created_at":"2026-06-29T11:07:24.557Z"},{"id":"item-2e30e7e28c10","sku":"_dBJBJBroorW8n_0v0QUR9ReJTtTtyvXkmH_nV6w","name_en":"🎉新品🎉1BC264探索包🎉🎉","name_cn":"🎉新品🎉1BC264探索包🎉🎉\n这款探索包采用进口尼龙面料和小牛皮,具有柔软的轮廓和多个口袋。轻质实用的Re-Nylon强调了设计的多功能风格,而皮革细节和标志性点缀则反映了P家的手工传统,配有2条可拆卸、可调节的编织标志带肩带。容量空间大,上身效果非常时尚。又是一款永久不过时爆款。值得拥有!🎉🎉\n长32x高22x底11.5cm🎉🎉🎉","specs":{"source":"wsxcme","sourceId":"_dBJBJBroorW8n_0v0QUR9ReJTtTtyvXkmH_nV6w","sourceTagId":47002669,"sourceTagName":"普拉达/女包","rawTitle":"🎉新品🎉1BC264探索包🎉🎉\n这款探索包采用进口尼龙面料和小牛皮,具有柔软的轮廓和多个口袋。轻质实用的Re-Nylon强调了设计的多功能风格,而皮革细节和标志性点缀则反映了P家的手工传统,配有2条可拆卸、可调节的编织标志带肩带。容量空间大,上身效果非常时尚。又是一款永久不过时爆款。值得拥有!🎉🎉\n长32x高22x底11.5cm🎉🎉🎉"},"price":null,"currency":"CNY","moq":1,"category":"prada-women-bags","status":"active","alibaba_url":null,"images":["https://xcimg.szwego.com/20250702/i1751438229_278_0.jpg","https://xcimg.szwego.com/20250702/i1751438229_417_1.jpg","https://xcimg.szwego.com/20250702/i1751438229_2147_2.jpg","https://xcimg.szwego.com/20250702/i1751438229_9223_3.jpg","https://xcimg.szwego.com/20250702/i1751438229_5460_4.jpg","https://xcimg.szwego.com/20250702/i1751438229_4416_5.jpg","https://xcimg.szwego.com/20250702/i1751438229_4642_7.jpg","https://xcimg.szwego.com/20250702/i1751438229_510_6.jpg","https://xcimg.szwego.com/20250702/i1751438229_2517_8.jpg"],"created_at":"2026-06-29T11:07:24.547Z"},{"id":"item-999d60357df1","sku":"_dststEkZiiqp2CRpbjZjwVkHlio-Ag0ZuYz_vfA","name_en":"🎉新品🎉1BC264探索包🎉🎉","name_cn":"🎉新品🎉1BC264探索包🎉🎉\n这款探索包采用进口尼龙面料和小牛皮,具有柔软的轮廓和多个口袋。轻质实用的Re-Nylon强调了设计的多功能风格,而皮革细节和标志性点缀则反映了P家的手工传统,配有2条可拆卸、可调节的编织标志带肩带。容量空间大,上身效果非常时尚。又是一款永久不过时爆款。值得拥有!🎉🎉\n长32x高22x底11.5cm🎉🎉🎉","specs":{"source":"wsxcme","sourceId":"_dststEkZiiqp2CRpbjZjwVkHlio-Ag0ZuYz_vfA","sourceTagId":47002669,"sourceTagName":"普拉达/女包","rawTitle":"🎉新品🎉1BC264探索包🎉🎉\n这款探索包采用进口尼龙面料和小牛皮,具有柔软的轮廓和多个口袋。轻质实用的Re-Nylon强调了设计的多功能风格,而皮革细节和标志性点缀则反映了P家的手工传统,配有2条可拆卸、可调节的编织标志带肩带。容量空间大,上身效果非常时尚。又是一款永久不过时爆款。值得拥有!🎉🎉\n长32x高22x底11.5cm🎉🎉🎉"},"price":null,"currency":"CNY","moq":1,"category":"prada-women-bags","status":"active","alibaba_url":null,"images":["https://xcimg.szwego.com/20250720/i1752995116_4351_0.jpg","https://xcimg.szwego.com/20250720/i1752995116_4474_1.jpg","https://xcimg.szwego.com/20250720/i1752995116_4716_2.jpg","https://xcimg.szwego.com/20250720/i1752995116_4870_3.jpg","https://xcimg.szwego.com/20250720/i1752995116_6775_4.jpg","https://xcimg.szwego.com/20250720/i1752995116_6727_5.jpg","https://xcimg.szwego.com/20250720/i1752995116_3880_6.jpg","https://xcimg.szwego.com/20250720/i1752995116_6969_7.jpg","https://xcimg.szwego.com/20250720/i1752995116_6103_8.jpg"],"created_at":"2026-06-29T11:07:24.537Z"},{"id":"item-ffd8ba30f42d","sku":"_dososLFEXSEvyg02pYYXZaZKGq1moVo67LN0-xg","name_en":"🎉新品麂皮🎉1BC264探索包🎉🎉","name_cn":"🎉新品麂皮🎉1BC264探索包🎉🎉\n这款探索包采用进口麂皮,具有柔软的轮廓和多个口袋。轻质实用的Re-Nylon强调了设计的多功能风格,而皮革细节和标志性点缀则反映了P家的手工传统,配有2条可拆卸、可调节的编织标志带肩带。容量空间大,上身效果非常时尚。又是一款永久不过时爆款。值得拥有!🎉🎉\n长32x高22x底11.5cm🎉🎉","specs":{"source":"wsxcme","sourceId":"_dososLFEXSEvyg02pYYXZaZKGq1moVo67LN0-xg","sourceTagId":47002669,"sourceTagName":"普拉达/女包","rawTitle":"🎉新品麂皮🎉1BC264探索包🎉🎉\n这款探索包采用进口麂皮,具有柔软的轮廓和多个口袋。轻质实用的Re-Nylon强调了设计的多功能风格,而皮革细节和标志性点缀则反映了P家的手工传统,配有2条可拆卸、可调节的编织标志带肩带。容量空间大,上身效果非常时尚。又是一款永久不过时爆款。值得拥有!🎉🎉\n长32x高22x底11.5cm🎉🎉"},"price":null,"currency":"CNY","moq":1,"category":"prada-women-bags","status":"active","alibaba_url":null,"images":["https://xcimg.szwego.com/img/2aeb7024/20250813/i1755062216_8571_4.jpg","https://xcimg.szwego.com/img/2aeb7024/20250813/i1755062216_2203_5.jpg","https://xcimg.szwego.com/img/2aeb7024/20250813/i1755062216_584_2.jpg","https://xcimg.szwego.com/img/2aeb7024/20250813/i1755062216_3186_0.jpg","https://xcimg.szwego.com/img/2aeb7024/20250813/i1755062216_361_3.jpg","https://xcimg.szwego.com/img/2aeb7024/20250813/i1755062216_1723_6.jpg","https://xcimg.szwego.com/img/2aeb7024/20250813/i1755062216_1673_1.jpg","https://xcimg.szwego.com/img/2aeb7024/20250813/i1755062216_7874_8.jpg","https://xcimg.szwego.com/img/2aeb7024/20250813/i1755062216_4924_7.jpg"],"created_at":"2026-06-29T11:07:24.527Z"},{"id":"item-0edb8e3efc65","sku":"_dgVgVBFVw2XQ4Lu8yCL_T4vhtoWoxySdbrAyNJw","name_en":"Prada Women Bags","name_cn":"普拉达/女包","specs":{"source":"wsxcme","sourceId":"_dgVgVBFVw2XQ4Lu8yCL_T4vhtoWoxySdbrAyNJw","sourceTagId":47002669,"sourceTagName":"普拉达/女包","rawTitle":""},"price":null,"currency":"CNY","moq":1,"category":"prada-women-bags","status":"active","alibaba_url":null,"images":["https://xcimg.szwego.com/img/2aeb7024/20250730/i1753852675_6885_0.jpg"],"created_at":"2026-06-29T11:07:24.517Z"},{"id":"item-55be8cd7b50f","sku":"_d-a-amnHZv108u2c8jYahuWAZMnzhJZnZ3DHk2Q","name_en":"🎉新品麂皮🎉1BC264探索包🎉🎉","name_cn":"🎉新品麂皮🎉1BC264探索包🎉🎉\n这款探索包采用进口麂皮,具有柔软的轮廓和多个口袋。轻质实用的Re-Nylon强调了设计的多功能风格,而皮革细节和标志性点缀则反映了P家的手工传统,配有2条可拆卸、可调节的编织标志带肩带。容量空间大,上身效果非常时尚。又是一款永久不过时爆款。值得拥有!🎉🎉\n长32x高22x底11.5cm🎉🎉🎉","specs":{"source":"wsxcme","sourceId":"_d-a-amnHZv108u2c8jYahuWAZMnzhJZnZ3DHk2Q","sourceTagId":47002669,"sourceTagName":"普拉达/女包","rawTitle":"🎉新品麂皮🎉1BC264探索包🎉🎉\n这款探索包采用进口麂皮,具有柔软的轮廓和多个口袋。轻质实用的Re-Nylon强调了设计的多功能风格,而皮革细节和标志性点缀则反映了P家的手工传统,配有2条可拆卸、可调节的编织标志带肩带。容量空间大,上身效果非常时尚。又是一款永久不过时爆款。值得拥有!🎉🎉\n长32x高22x底11.5cm🎉🎉🎉"},"price":null,"currency":"CNY","moq":1,"category":"prada-women-bags","status":"active","alibaba_url":null,"images":["https://xcimg.szwego.com/img/2aeb7024/20250730/i1753852644_1045_5.jpg","https://xcimg.szwego.com/img/2aeb7024/20250730/i1753852644_9225_1.jpg","https://xcimg.szwego.com/img/2aeb7024/20250730/i1753852644_6752_2.jpg","https://xcimg.szwego.com/img/2aeb7024/20250730/i1753852644_912_3.jpg","https://xcimg.szwego.com/img/2aeb7024/20250730/i1753852644_7256_0.jpg","https://xcimg.szwego.com/img/2aeb7024/20250730/i1753852644_7459_4.jpg","https://xcimg.szwego.com/img/2aeb7024/20250730/i1753852645_9688_7.jpg","https://xcimg.szwego.com/img/2aeb7024/20250730/i1753852644_6807_6.jpg","https://xcimg.szwego.com/img/2aeb7024/20250730/i1753852645_9016_8.jpg"],"created_at":"2026-06-29T11:07:24.507Z"},{"id":"item-b09c18a70464","sku":"_dnynytPl2wZVg-dVhgwWJ0IxY0iOsirqe1nxJBQ","name_en":"Prada Women Bags","name_cn":"迷你号太可爱啦🤗","specs":{"source":"wsxcme","sourceId":"_dnynytPl2wZVg-dVhgwWJ0IxY0iOsirqe1nxJBQ","sourceTagId":47002669,"sourceTagName":"普拉达/女包","rawTitle":"迷你号太可爱啦🤗"},"price":null,"currency":"CNY","moq":1,"category":"prada-women-bags","status":"active","alibaba_url":null,"images":["https://xcimg.szwego.com/img/4ebdbb7c/20250803/i1754229324_2729_5.jpg","https://xcimg.szwego.com/img/4ebdbb7c/20250803/i1754229324_4593_6.jpg","https://xcimg.szwego.com/img/4ebdbb7c/20250803/i1754229323_5261_2.jpg","https://xcimg.szwego.com/img/4ebdbb7c/20250803/i1754229323_5594_0.jpg","https://xcimg.szwego.com/img/4ebdbb7c/20250803/i1754229324_4531_8.jpg","https://xcimg.szwego.com/img/4ebdbb7c/20250803/i1754229323_9114_3.jpg","https://xcimg.szwego.com/img/4ebdbb7c/20250803/i1754229323_7848_1.jpg","https://xcimg.szwego.com/img/4ebdbb7c/20250803/i1754229324_9910_4.jpg","https://xcimg.szwego.com/img/4ebdbb7c/20250803/i1754229324_3936_7.jpg"],"created_at":"2026-06-29T11:07:24.497Z"},{"id":"item-ed3ff1f5ff5a","sku":"_ddEdEUL5vnM7J_-34bNmG4xftKsqTaBpiC_sdiQ","name_en":"【顶级原单】🎉LusSolf油腊皮🎉1BA486迷你号🎉🎉这款迷你手提斜挎包采用进口油腊皮,油亮的色泽散发出古典气息,配有一条可拆卸调节的长肩带,斜挎,手提,肩带,满足所有背法👏👏容量空间非常大,巨巨好用👏,绝对是时商达人们的必备款,小小尺寸,真的太太可爱了😘😘赶紧把这款复古格调手拎包带回家吧!尺寸:长23.5高12x底9cm","name_cn":"【顶级原单】🎉LusSolf油腊皮🎉1BA486迷你号🎉🎉这款迷你手提斜挎包采用进口油腊皮,油亮的色泽散发出古典气息,配有一条可拆卸调节的长肩带,斜挎,手提,肩带,满足所有背法👏👏容量空间非常大,巨巨好用👏,绝对是时商达人们的必备款,小小尺寸,真的太太可爱了😘😘赶紧把这款复古格调手拎包带回家吧!尺寸:长23.5高12x底9cm","specs":{"source":"wsxcme","sourceId":"_ddEdEUL5vnM7J_-34bNmG4xftKsqTaBpiC_sdiQ","sourceTagId":47002669,"sourceTagName":"普拉达/女包","rawTitle":"【顶级原单】🎉LusSolf油腊皮🎉1BA486迷你号🎉🎉这款迷你手提斜挎包采用进口油腊皮,油亮的色泽散发出古典气息,配有一条可拆卸调节的长肩带,斜挎,手提,肩带,满足所有背法👏👏容量空间非常大,巨巨好用👏,绝对是时商达人们的必备款,小小尺寸,真的太太可爱了😘😘赶紧把这款复古格调手拎包带回家吧!尺寸:长23.5高12x底9cm"},"price":null,"currency":"CNY","moq":1,"category":"prada-women-bags","status":"active","alibaba_url":null,"images":["https://xcimg.szwego.com/img/4ebdbb7c/20250822/i1755875556_2578_2.jpg","https://xcimg.szwego.com/img/4ebdbb7c/20250822/i1755875556_5593_8.jpg","https://xcimg.szwego.com/img/4ebdbb7c/20250822/i1755875556_493_7.jpg","https://xcimg.szwego.com/img/4ebdbb7c/20250822/i1755875556_9467_6.jpg","https://xcimg.szwego.com/img/4ebdbb7c/20250822/i1755875556_3674_1.jpg","https://xcimg.szwego.com/img/4ebdbb7c/20250822/i1755875556_5119_5.jpg","https://xcimg.szwego.com/img/4ebdbb7c/20250822/i1755875556_5271_3.jpg","https://xcimg.szwego.com/img/4ebdbb7c/20250822/i1755875556_5178_0.jpg","https://xcimg.szwego.com/img/4ebdbb7c/20250822/i1755875556_6990_4.jpg"],"created_at":"2026-06-29T11:07:24.487Z"},{"id":"item-5a2c05ee6af4","sku":"_dpYpYB12l5IzjZCMGY8B9jUcaGDGQv3fPJGstQg","name_en":"【顶级原单】🎉LusSolf油腊皮🎉1BA486迷你号🎉🎉这款迷你手提斜挎包采用进口油腊皮,油亮的色泽散发出古典气息,配有一条可拆卸调节的长肩带,斜挎,手提,肩带,满足所有背法👏👏容量空间非常大,巨巨好用👏,绝对是时商达人们的必备款,小小尺寸,真的太太可爱了😘😘赶紧把这款复古格调手拎包带回家吧!尺寸:长23.5高12x底9cm","name_cn":"【顶级原单】🎉LusSolf油腊皮🎉1BA486迷你号🎉🎉这款迷你手提斜挎包采用进口油腊皮,油亮的色泽散发出古典气息,配有一条可拆卸调节的长肩带,斜挎,手提,肩带,满足所有背法👏👏容量空间非常大,巨巨好用👏,绝对是时商达人们的必备款,小小尺寸,真的太太可爱了😘😘赶紧把这款复古格调手拎包带回家吧!尺寸:长23.5高12x底9cm","specs":{"source":"wsxcme","sourceId":"_dpYpYB12l5IzjZCMGY8B9jUcaGDGQv3fPJGstQg","sourceTagId":47002669,"sourceTagName":"普拉达/女包","rawTitle":"【顶级原单】🎉LusSolf油腊皮🎉1BA486迷你号🎉🎉这款迷你手提斜挎包采用进口油腊皮,油亮的色泽散发出古典气息,配有一条可拆卸调节的长肩带,斜挎,手提,肩带,满足所有背法👏👏容量空间非常大,巨巨好用👏,绝对是时商达人们的必备款,小小尺寸,真的太太可爱了😘😘赶紧把这款复古格调手拎包带回家吧!尺寸:长23.5高12x底9cm"},"price":null,"currency":"CNY","moq":1,"category":"prada-women-bags","status":"active","alibaba_url":null,"images":["https://xcimg.szwego.com/img/4ebdbb7c/20250803/i1754228624_325_5.jpg","https://xcimg.szwego.com/img/4ebdbb7c/20250803/i1754228624_6425_1.jpg","https://xcimg.szwego.com/img/4ebdbb7c/20250803/i1754228624_7315_4.jpg","https://xcimg.szwego.com/img/4ebdbb7c/20250803/i1754228624_8024_7.jpg","https://xcimg.szwego.com/img/4ebdbb7c/20250803/i1754228624_3073_2.jpg","https://xcimg.szwego.com/img/4ebdbb7c/20250803/i1754228624_1929_3.jpg","https://xcimg.szwego.com/img/4ebdbb7c/20250803/i1754228624_5479_6.jpg","https://xcimg.szwego.com/img/4ebdbb7c/20250803/i1754228624_6465_8.jpg","https://xcimg.szwego.com/img/4ebdbb7c/20250803/i1754228624_4509_0.jpg"],"created_at":"2026-06-29T11:07:24.477Z"},{"id":"item-f8d62bd79438","sku":"_dpPpPjDFIOaaDqUM--R6RTBSNW-FN0S4qqiJ_vw","name_en":"【顶级原单】🎉LusSolf油腊皮🎉1BA486迷你号🎉🎉这款迷你手提斜挎包采用进口油腊皮,油亮的色泽散发出古典气息,配有一条可拆卸调节的长肩带,斜挎,手提,肩带,满足所有背法👏👏容量空间非常大,巨巨好用👏,绝对是时商达人们的必备款,小小尺寸,真的太太可爱了😘😘赶紧把这款复古格调手拎包带回家吧!尺寸:长23.5高12x底9cm","name_cn":"【顶级原单】🎉LusSolf油腊皮🎉1BA486迷你号🎉🎉这款迷你手提斜挎包采用进口油腊皮,油亮的色泽散发出古典气息,配有一条可拆卸调节的长肩带,斜挎,手提,肩带,满足所有背法👏👏容量空间非常大,巨巨好用👏,绝对是时商达人们的必备款,小小尺寸,真的太太可爱了😘😘赶紧把这款复古格调手拎包带回家吧!尺寸:长23.5高12x底9cm","specs":{"source":"wsxcme","sourceId":"_dpPpPjDFIOaaDqUM--R6RTBSNW-FN0S4qqiJ_vw","sourceTagId":47002669,"sourceTagName":"普拉达/女包","rawTitle":"【顶级原单】🎉LusSolf油腊皮🎉1BA486迷你号🎉🎉这款迷你手提斜挎包采用进口油腊皮,油亮的色泽散发出古典气息,配有一条可拆卸调节的长肩带,斜挎,手提,肩带,满足所有背法👏👏容量空间非常大,巨巨好用👏,绝对是时商达人们的必备款,小小尺寸,真的太太可爱了😘😘赶紧把这款复古格调手拎包带回家吧!尺寸:长23.5高12x底9cm"},"price":null,"currency":"CNY","moq":1,"category":"prada-women-bags","status":"active","alibaba_url":null,"images":["https://xcimg.szwego.com/img/4ebdbb7c/20250803/i1754228523_8551_0.jpg","https://xcimg.szwego.com/img/4ebdbb7c/20250803/i1754228523_3290_0.jpg","https://xcimg.szwego.com/img/4ebdbb7c/20250803/i1754228523_5892_0.jpg","https://xcimg.szwego.com/img/4ebdbb7c/20250803/i1754228523_8699_0.jpg","https://xcimg.szwego.com/img/4ebdbb7c/20250803/i1754228523_5464_0.jpg","https://xcimg.szwego.com/img/4ebdbb7c/20250803/i1754228523_7272_0.jpg","https://xcimg.szwego.com/img/4ebdbb7c/20250803/i1754228523_8039_0.jpg","https://xcimg.szwego.com/img/4ebdbb7c/20250803/i1754228522_844_0.jpg","https://xcimg.szwego.com/img/4ebdbb7c/20250803/i1754228523_7623_0.jpg"],"created_at":"2026-06-29T11:07:24.467Z"},{"id":"item-c146841ebca8","sku":"_d2I2IfaMhMuUHMaWTst9rcl9jeX0aIMl-SoJObg","name_en":"【顶级原单】🎉LusSolf油腊皮🎉1BA486迷你号🎉🎉这款迷你手提斜挎包采用进口油腊皮,油亮的色泽散发出古典气息,配有一条可拆卸调节的长肩带,斜挎,手提,肩带,满足所有背法👏👏容量空间非常大,巨巨好用👏,绝对是时商达人们的必备款,小小尺寸,真的太太可爱了😘😘赶紧把这款复古格调手拎包带回家吧!尺寸:长23.5高12x底9cm","name_cn":"【顶级原单】🎉LusSolf油腊皮🎉1BA486迷你号🎉🎉这款迷你手提斜挎包采用进口油腊皮,油亮的色泽散发出古典气息,配有一条可拆卸调节的长肩带,斜挎,手提,肩带,满足所有背法👏👏容量空间非常大,巨巨好用👏,绝对是时商达人们的必备款,小小尺寸,真的太太可爱了😘😘赶紧把这款复古格调手拎包带回家吧!尺寸:长23.5高12x底9cm","specs":{"source":"wsxcme","sourceId":"_d2I2IfaMhMuUHMaWTst9rcl9jeX0aIMl-SoJObg","sourceTagId":47002669,"sourceTagName":"普拉达/女包","rawTitle":"【顶级原单】🎉LusSolf油腊皮🎉1BA486迷你号🎉🎉这款迷你手提斜挎包采用进口油腊皮,油亮的色泽散发出古典气息,配有一条可拆卸调节的长肩带,斜挎,手提,肩带,满足所有背法👏👏容量空间非常大,巨巨好用👏,绝对是时商达人们的必备款,小小尺寸,真的太太可爱了😘😘赶紧把这款复古格调手拎包带回家吧!尺寸:长23.5高12x底9cm"},"price":null,"currency":"CNY","moq":1,"category":"prada-women-bags","status":"active","alibaba_url":null,"images":["https://xcimg.szwego.com/img/4ebdbb7c/20250803/i1754228476_4613_7.jpg","https://xcimg.szwego.com/img/4ebdbb7c/20250803/i1754228476_1738_0.jpg","https://xcimg.szwego.com/img/4ebdbb7c/20250803/i1754228476_5798_1.jpg","https://xcimg.szwego.com/img/4ebdbb7c/20250803/i1754228476_6741_6.jpg","https://xcimg.szwego.com/img/4ebdbb7c/20250803/i1754228476_3063_5.jpg","https://xcimg.szwego.com/img/4ebdbb7c/20250803/i1754228476_9384_4.jpg","https://xcimg.szwego.com/img/4ebdbb7c/20250803/i1754228476_47_3.jpg","https://xcimg.szwego.com/img/4ebdbb7c/20250803/i1754228476_2574_8.jpg","https://xcimg.szwego.com/img/4ebdbb7c/20250803/i1754228476_857_2.jpg"],"created_at":"2026-06-29T11:07:24.457Z"},{"id":"item-1a92bba0fe27","sku":"_dMVMVk_t5s7J36-imQeRWr6vRG5pL-5XdL3aiBA","name_en":"【顶级原单】🎉LusSolf油腊皮🎉1BA486迷你号🎉🎉这款迷你手提斜挎包采用进口油腊皮,油亮的色泽散发出古典气息,配有一条可拆卸调节的长肩带,斜挎,手提,肩带,满足所有背法👏👏容量空间非常大,巨巨好用👏,绝对是时商达人们的必备款,小小尺寸,真的太太可爱了😘😘赶紧把这款复古格调手拎包带回家吧!尺寸:长23.5高12x底9cm","name_cn":"【顶级原单】🎉LusSolf油腊皮🎉1BA486迷你号🎉🎉这款迷你手提斜挎包采用进口油腊皮,油亮的色泽散发出古典气息,配有一条可拆卸调节的长肩带,斜挎,手提,肩带,满足所有背法👏👏容量空间非常大,巨巨好用👏,绝对是时商达人们的必备款,小小尺寸,真的太太可爱了😘😘赶紧把这款复古格调手拎包带回家吧!尺寸:长23.5高12x底9cm","specs":{"source":"wsxcme","sourceId":"_dMVMVk_t5s7J36-imQeRWr6vRG5pL-5XdL3aiBA","sourceTagId":47002669,"sourceTagName":"普拉达/女包","rawTitle":"【顶级原单】🎉LusSolf油腊皮🎉1BA486迷你号🎉🎉这款迷你手提斜挎包采用进口油腊皮,油亮的色泽散发出古典气息,配有一条可拆卸调节的长肩带,斜挎,手提,肩带,满足所有背法👏👏容量空间非常大,巨巨好用👏,绝对是时商达人们的必备款,小小尺寸,真的太太可爱了😘😘赶紧把这款复古格调手拎包带回家吧!尺寸:长23.5高12x底9cm"},"price":null,"currency":"CNY","moq":1,"category":"prada-women-bags","status":"active","alibaba_url":null,"images":["https://xcimg.szwego.com/img/4ebdbb7c/20250803/i1754228423_584_0.jpg","https://xcimg.szwego.com/img/4ebdbb7c/20250803/i1754228423_7815_0.jpg","https://xcimg.szwego.com/img/4ebdbb7c/20250803/i1754228423_3241_0.jpg","https://xcimg.szwego.com/img/4ebdbb7c/20250803/i1754228423_1159_0.jpg","https://xcimg.szwego.com/img/4ebdbb7c/20250803/i1754228423_231_0.jpg","https://xcimg.szwego.com/img/4ebdbb7c/20250803/i1754228423_5487_0.jpg","https://xcimg.szwego.com/img/4ebdbb7c/20250803/i1754228423_7698_0.jpg","https://xcimg.szwego.com/img/4ebdbb7c/20250803/i1754228423_9955_0.jpg","https://xcimg.szwego.com/img/4ebdbb7c/20250803/i1754228423_5321_0.jpg"],"created_at":"2026-06-29T11:07:24.447Z"},{"id":"item-788607c5a4f8","sku":"_dMnMnlhnFh761gWHbZlg_6vSRCc2AlxveM3im1Q","name_en":"【顶级原单】🎉LusSolf油腊皮🎉1BA486迷你号🎉🎉这款迷你手提斜挎包采用进口油腊皮,油亮的色泽散发出古典气息,配有一条可拆卸调节的长肩带,斜挎,手提,肩带,满足所有背法👏👏容量空间非常大,巨巨好用👏,绝对是时商达人们的必备款,小小尺寸,真的太太可爱了😘😘赶紧把这款复古格调手拎包带回家吧!尺寸:长23.5高12x底9cm","name_cn":"【顶级原单】🎉LusSolf油腊皮🎉1BA486迷你号🎉🎉这款迷你手提斜挎包采用进口油腊皮,油亮的色泽散发出古典气息,配有一条可拆卸调节的长肩带,斜挎,手提,肩带,满足所有背法👏👏容量空间非常大,巨巨好用👏,绝对是时商达人们的必备款,小小尺寸,真的太太可爱了😘😘赶紧把这款复古格调手拎包带回家吧!尺寸:长23.5高12x底9cm","specs":{"source":"wsxcme","sourceId":"_dMnMnlhnFh761gWHbZlg_6vSRCc2AlxveM3im1Q","sourceTagId":47002669,"sourceTagName":"普拉达/女包","rawTitle":"【顶级原单】🎉LusSolf油腊皮🎉1BA486迷你号🎉🎉这款迷你手提斜挎包采用进口油腊皮,油亮的色泽散发出古典气息,配有一条可拆卸调节的长肩带,斜挎,手提,肩带,满足所有背法👏👏容量空间非常大,巨巨好用👏,绝对是时商达人们的必备款,小小尺寸,真的太太可爱了😘😘赶紧把这款复古格调手拎包带回家吧!尺寸:长23.5高12x底9cm"},"price":null,"currency":"CNY","moq":1,"category":"prada-women-bags","status":"active","alibaba_url":null,"images":["https://xcimg.szwego.com/img/4ebdbb7c/20250803/i1754228337_2697_0.jpg","https://xcimg.szwego.com/img/4ebdbb7c/20250803/i1754228337_8009_0.jpg","https://xcimg.szwego.com/img/4ebdbb7c/20250803/i1754228339_8762_0.jpg","https://xcimg.szwego.com/img/4ebdbb7c/20250803/i1754228339_767_0.jpg","https://xcimg.szwego.com/img/4ebdbb7c/20250803/i1754228337_5183_0.jpg","https://xcimg.szwego.com/img/4ebdbb7c/20250803/i1754228337_8756_0.jpg","https://xcimg.szwego.com/img/4ebdbb7c/20250803/i1754228337_5218_0.jpg","https://xcimg.szwego.com/img/4ebdbb7c/20250803/i1754228337_4332_0.jpg","https://xcimg.szwego.com/img/4ebdbb7c/20250803/i1754228337_3022_0.jpg"],"created_at":"2026-06-29T11:07:24.437Z"},{"id":"item-afbd81ffd667","sku":"_ddIdInGRJN8PSh-ny3t2gfLseWlvlY_GwqWj8GA","name_en":"【顶级原单】🎉LusSolf油腊皮🎉1BA486迷你号🎉🎉这款迷你手提斜挎包采用进口油腊皮,油亮的色泽散发出古典气息,配有一条可拆卸调节的长肩带,斜挎,手提,肩带,满足所有背法👏👏容量空间非常大,巨巨好用👏,绝对是时商达人们的必备款,小小尺寸,真的太太可爱了😘😘赶紧把这款复古格调手拎包带回家吧!尺寸:长23.5高12x底9cm","name_cn":"【顶级原单】🎉LusSolf油腊皮🎉1BA486迷你号🎉🎉这款迷你手提斜挎包采用进口油腊皮,油亮的色泽散发出古典气息,配有一条可拆卸调节的长肩带,斜挎,手提,肩带,满足所有背法👏👏容量空间非常大,巨巨好用👏,绝对是时商达人们的必备款,小小尺寸,真的太太可爱了😘😘赶紧把这款复古格调手拎包带回家吧!尺寸:长23.5高12x底9cm","specs":{"source":"wsxcme","sourceId":"_ddIdInGRJN8PSh-ny3t2gfLseWlvlY_GwqWj8GA","sourceTagId":47002669,"sourceTagName":"普拉达/女包","rawTitle":"【顶级原单】🎉LusSolf油腊皮🎉1BA486迷你号🎉🎉这款迷你手提斜挎包采用进口油腊皮,油亮的色泽散发出古典气息,配有一条可拆卸调节的长肩带,斜挎,手提,肩带,满足所有背法👏👏容量空间非常大,巨巨好用👏,绝对是时商达人们的必备款,小小尺寸,真的太太可爱了😘😘赶紧把这款复古格调手拎包带回家吧!尺寸:长23.5高12x底9cm"},"price":null,"currency":"CNY","moq":1,"category":"prada-women-bags","status":"active","alibaba_url":null,"images":["https://xcimg.szwego.com/img/4ebdbb7c/20250803/i1754228046_6621_0.jpg","https://xcimg.szwego.com/img/4ebdbb7c/20250803/i1754228046_3203_2.jpg","https://xcimg.szwego.com/img/4ebdbb7c/20250803/i1754228046_964_4.jpg","https://xcimg.szwego.com/img/4ebdbb7c/20250803/i1754228046_1783_3.jpg","https://xcimg.szwego.com/img/4ebdbb7c/20250803/i1754228046_1139_6.jpg","https://xcimg.szwego.com/img/4ebdbb7c/20250803/i1754228046_7080_7.jpg","https://xcimg.szwego.com/img/4ebdbb7c/20250803/i1754228046_1077_8.jpg","https://xcimg.szwego.com/img/4ebdbb7c/20250803/i1754228046_6664_1.jpg","https://xcimg.szwego.com/img/4ebdbb7c/20250803/i1754228046_4666_5.jpg"],"created_at":"2026-06-29T11:07:24.427Z"},{"id":"item-db65cb6ba111","sku":"_dw-w-pIZ7C-C9DUhFoXOt2ZoUdAe1-IC3uwczNQ","name_en":"Prada Women Bags","name_cn":"上身图","specs":{"source":"wsxcme","sourceId":"_dw-w-pIZ7C-C9DUhFoXOt2ZoUdAe1-IC3uwczNQ","sourceTagId":47002669,"sourceTagName":"普拉达/女包","rawTitle":"上身图"},"price":null,"currency":"CNY","moq":1,"category":"prada-women-bags","status":"active","alibaba_url":null,"images":["https://xcimg.szwego.com/20230821/i1692602865_7348_0.jpg","https://xcimg.szwego.com/20230821/i1692602865_6799_1.jpg","https://xcimg.szwego.com/20230821/i1692602865_2320_2.jpg","https://xcimg.szwego.com/20230821/i1692602865_7104_3.jpg","https://xcimg.szwego.com/20230821/i1692602865_7329_4.jpg","https://xcimg.szwego.com/20230821/i1692602865_7027_5.jpg","https://xcimg.szwego.com/20230821/i1692602865_3571_6.jpg","https://xcimg.szwego.com/20230821/i1692602865_8969_7.jpg","https://xcimg.szwego.com/20230821/i1692602865_108_8.jpg"],"created_at":"2026-06-29T11:07:24.417Z"},{"id":"item-c73084cd90b4","sku":"_d8w8w_XLeVwms4pyFDznHkiQqqjzFOu9vN367xQ","name_en":"Prada Women Bags","name_cn":"正🌟品🌟图","specs":{"source":"wsxcme","sourceId":"_d8w8w_XLeVwms4pyFDznHkiQqqjzFOu9vN367xQ","sourceTagId":47002669,"sourceTagName":"普拉达/女包","rawTitle":"正🌟品🌟图"},"price":null,"currency":"CNY","moq":1,"category":"prada-women-bags","status":"active","alibaba_url":null,"images":["https://xcimg.szwego.com/20230821/i1692602833_1006_0.jpg","https://xcimg.szwego.com/20230821/i1692602833_8236_1.jpg","https://xcimg.szwego.com/20230821/i1692602833_3470_2.jpg","https://xcimg.szwego.com/20230821/i1692602833_7960_3.jpg"],"created_at":"2026-06-29T11:07:24.407Z"},{"id":"item-5234c490a31b","sku":"_deBeBcXAZEi06MtnTC2HnZTPRuhtwN_xeffeMDA","name_en":"🎉新款腋下包🎉1BD345🎉🎉","name_cn":"🎉新款腋下包🎉1BD345🎉🎉\n流畅的弧线设计为这款单肩包赋予精致而现代的魅力。风格百搭,配有2条长短肩带/又可调节,适合用作手提包或单肩包/斜跨。现代感十足的亮面皮革锦上添花。呈现翻盖廓形,融合精致感与功能性。又是一款永久不过时爆款,宝宝们。赶紧入手吧🎉🎉\n长24x高11x底4cm🎁","specs":{"source":"wsxcme","sourceId":"_deBeBcXAZEi06MtnTC2HnZTPRuhtwN_xeffeMDA","sourceTagId":47002669,"sourceTagName":"普拉达/女包","rawTitle":"🎉新款腋下包🎉1BD345🎉🎉\n流畅的弧线设计为这款单肩包赋予精致而现代的魅力。风格百搭,配有2条长短肩带/又可调节,适合用作手提包或单肩包/斜跨。现代感十足的亮面皮革锦上添花。呈现翻盖廓形,融合精致感与功能性。又是一款永久不过时爆款,宝宝们。赶紧入手吧🎉🎉\n长24x高11x底4cm🎁"},"price":null,"currency":"CNY","moq":1,"category":"prada-women-bags","status":"active","alibaba_url":null,"images":["https://xcimg.szwego.com/img/0307d510/20231007/i1696660314_2625_0.jpg","https://xcimg.szwego.com/img/0307d510/20231007/i1696660314_6645_1.jpg","https://xcimg.szwego.com/img/0307d510/20231007/i1696660314_3372_2.jpg","https://xcimg.szwego.com/img/0307d510/20231007/i1696660314_4150_3.jpg","https://xcimg.szwego.com/img/0307d510/20231007/i1696660314_9274_4.jpg","https://xcimg.szwego.com/img/0307d510/20231007/i1696660314_7871_8.jpg","https://xcimg.szwego.com/img/0307d510/20231007/i1696660314_1669_5.jpg","https://xcimg.szwego.com/img/0307d510/20231007/i1696660314_8419_6.jpg","https://xcimg.szwego.com/img/0307d510/20231007/i1696660314_4730_7.jpg"],"created_at":"2026-06-29T11:07:24.397Z"}],"page":2,"pageSize":24,"total":383,"totalPages":16}
