{"items":[{"id":"item-708f639faef1","sku":"_dwLwLYyWpY2OqsdTIzg3DtjyCbusE-pzVMtEmqQ","name_en":"🔥四季常青+专柜高品质🔥五色火爆上市🎉   普拉达/PRADA双拉链单肩斜挎包💪配置双肩带,2020四季新款时尚女性单肩包 ,条纹肩带原版真皮手袋,双拉隔层[玫瑰]时尚+实用[强]Model:《2100》Size:25/15/5cm","name_cn":"🔥四季常青+专柜高品质🔥五色火爆上市🎉   普拉达/PRADA双拉链单肩斜挎包💪配置双肩带,2020四季新款时尚女性单肩包 ,条纹肩带原版真皮手袋,双拉隔层[玫瑰]时尚+实用[强]Model:《2100》Size:25/15/5cm","specs":{"source":"wsxcme","sourceId":"_dwLwLYyWpY2OqsdTIzg3DtjyCbusE-pzVMtEmqQ","sourceTagId":47002669,"sourceTagName":"普拉达/女包","rawTitle":"🔥四季常青+专柜高品质🔥五色火爆上市🎉   普拉达/PRADA双拉链单肩斜挎包💪配置双肩带,2020四季新款时尚女性单肩包 ,条纹肩带原版真皮手袋,双拉隔层[玫瑰]时尚+实用[强]Model:《2100》Size:25/15/5cm"},"price":null,"currency":"CNY","moq":1,"category":"prada-women-bags","status":"active","alibaba_url":null,"images":["https://xcimg.szwego.com/20200515/i1589551294_9056_0.jpg","https://xcimg.szwego.com/20200515/i1589551294_7204_2.jpg","https://xcimg.szwego.com/20200515/i1589551294_6160_3.jpg","https://xcimg.szwego.com/20200515/i1589551310_9532_0.jpg","https://xcimg.szwego.com/20200515/i1589551315_6498_0.jpg"],"created_at":"2025-02-08T12:44:26.510Z"},{"id":"item-13e02c187b88","sku":"_deDeDJSPIUYpJMTRHVu1qiV_NV20mitV4mq2NNA","name_en":"Prada Women Bags","name_cn":"新款普拉达 2097《2019爆款》热火朝天的火爆 气场王 百搭王 一百万年都不过时   手提,斜挎  一年四季必备驾驭的了任何风格 市场独家工艺研制原版荔枝纹完美 你的衣橱绝对不可以少一个这么强的搭配神器!尺寸:30.22.13","specs":{"source":"wsxcme","sourceId":"_deDeDJSPIUYpJMTRHVu1qiV_NV20mitV4mq2NNA","sourceTagId":47002669,"sourceTagName":"普拉达/女包","rawTitle":"新款普拉达 2097《2019爆款》热火朝天的火爆 气场王 百搭王 一百万年都不过时   手提,斜挎  一年四季必备驾驭的了任何风格 市场独家工艺研制原版荔枝纹完美 你的衣橱绝对不可以少一个这么强的搭配神器!尺寸:30.22.13"},"price":null,"currency":"CNY","moq":1,"category":"prada-women-bags","status":"active","alibaba_url":null,"images":["https://xcimg.szwego.com/1571152702_747409415_0","https://xcimg.szwego.com/1571152702_3977758694_1","https://xcimg.szwego.com/1571152702_3504891070_2","https://xcimg.szwego.com/1571152702_3057117319_3","https://xcimg.szwego.com/1571152702_2867472808_4","https://xcimg.szwego.com/1571152702_2274990323_5","https://xcimg.szwego.com/1571152702_3827604441_6","https://xcimg.szwego.com/1571152702_3650511154_7"],"created_at":"2025-02-08T12:44:26.509Z"},{"id":"item-8aa11a20fa85","sku":"_drRrRZQcssTtEzVAzX8V4X3f4ABeBP5xRjUz-Mg","name_en":"Prada Women Bags","name_cn":"新款普拉达 2097《2019爆款》热火朝天的火爆 气场王 百搭王 一百万年都不过时   手提,斜挎  一年四季必备驾驭的了任何风格 市场独家工艺研制原版荔枝纹完美 你的衣橱绝对不可以少一个这么强的搭配神器!尺寸:30.22.13","specs":{"source":"wsxcme","sourceId":"_drRrRZQcssTtEzVAzX8V4X3f4ABeBP5xRjUz-Mg","sourceTagId":47002669,"sourceTagName":"普拉达/女包","rawTitle":"新款普拉达 2097《2019爆款》热火朝天的火爆 气场王 百搭王 一百万年都不过时   手提,斜挎  一年四季必备驾驭的了任何风格 市场独家工艺研制原版荔枝纹完美 你的衣橱绝对不可以少一个这么强的搭配神器!尺寸:30.22.13"},"price":null,"currency":"CNY","moq":1,"category":"prada-women-bags","status":"active","alibaba_url":null,"images":["https://xcimg.szwego.com/1571152716_2205587730_0","https://xcimg.szwego.com/1571152716_1963685628_1","https://xcimg.szwego.com/1571152716_2642017462_2","https://xcimg.szwego.com/1571152717_3079870233_3","https://xcimg.szwego.com/1571152717_1242461888_4","https://xcimg.szwego.com/1571152717_2568235048_5","https://xcimg.szwego.com/1571152717_2863545054_6","https://xcimg.szwego.com/1571152717_3746986978_7"],"created_at":"2025-02-08T12:44:26.508Z"},{"id":"item-3ece58054057","sku":"_dulul2zogVPuPeGFFDtIwmjYn91ev76dMG3mMiw","name_en":"Prada Women Bags","name_cn":"新款普拉达 2097《2019爆款》热火朝天的火爆 气场王 百搭王 一百万年都不过时   手提,斜挎  一年四季必备驾驭的了任何风格 市场独家工艺研制原版荔枝纹完美 你的衣橱绝对不可以少一个这么强的搭配神器!尺寸:30.22.13","specs":{"source":"wsxcme","sourceId":"_dulul2zogVPuPeGFFDtIwmjYn91ev76dMG3mMiw","sourceTagId":47002669,"sourceTagName":"普拉达/女包","rawTitle":"新款普拉达 2097《2019爆款》热火朝天的火爆 气场王 百搭王 一百万年都不过时   手提,斜挎  一年四季必备驾驭的了任何风格 市场独家工艺研制原版荔枝纹完美 你的衣橱绝对不可以少一个这么强的搭配神器!尺寸:30.22.13"},"price":null,"currency":"CNY","moq":1,"category":"prada-women-bags","status":"active","alibaba_url":null,"images":["https://xcimg.szwego.com/1571152732_525524479_0","https://xcimg.szwego.com/1571152733_1482071093_1","https://xcimg.szwego.com/1571152733_1071819641_2","https://xcimg.szwego.com/1571152733_3268998610_3","https://xcimg.szwego.com/1571152733_3463152903_4","https://xcimg.szwego.com/1571152733_3941632241_5","https://xcimg.szwego.com/1571152733_1854785642_6","https://xcimg.szwego.com/1571152733_2099798260_7","https://xcimg.szwego.com/1571152733_881813623_8"],"created_at":"2025-02-08T12:44:26.507Z"},{"id":"item-757b677d0684","sku":"_dcscsaPM6p2-hrddlDSOTN-StUbkpTjBfT-p2bw","name_en":"Prada Women Bags","name_cn":"新款普拉达 2097《2019爆款》热火朝天的火爆 气场王 百搭王 一百万年都不过时   手提,斜挎  一年四季必备驾驭的了任何风格 市场独家工艺研制原版荔枝纹完美 你的衣橱绝对不可以少一个这么强的搭配神器!尺寸:30.22.13","specs":{"source":"wsxcme","sourceId":"_dcscsaPM6p2-hrddlDSOTN-StUbkpTjBfT-p2bw","sourceTagId":47002669,"sourceTagName":"普拉达/女包","rawTitle":"新款普拉达 2097《2019爆款》热火朝天的火爆 气场王 百搭王 一百万年都不过时   手提,斜挎  一年四季必备驾驭的了任何风格 市场独家工艺研制原版荔枝纹完美 你的衣橱绝对不可以少一个这么强的搭配神器!尺寸:30.22.13"},"price":null,"currency":"CNY","moq":1,"category":"prada-women-bags","status":"active","alibaba_url":null,"images":["https://xcimg.szwego.com/1571152746_1509164279_0","https://xcimg.szwego.com/1571152746_4167199651_1","https://xcimg.szwego.com/1571152746_3407427804_2","https://xcimg.szwego.com/1571152746_105284459_3","https://xcimg.szwego.com/1571152746_1536333014_4","https://xcimg.szwego.com/1571152746_1292598027_5","https://xcimg.szwego.com/1571152746_285896379_6","https://xcimg.szwego.com/1571152746_125006222_7","https://xcimg.szwego.com/1571152746_1939643404_8"],"created_at":"2025-02-08T12:44:26.506Z"},{"id":"item-05b7272fbeaf","sku":"_d-e-elc_lZzpkmvOedqIU_NC8sdw08td4tz7z6A","name_en":"新品☀官网劲爆新款🔥 👉火遍全球 2020开年新款普拉达《PRADA》 💗  款号:66153 尺寸:30*24*14  专柜裁剪手法,采用进口小牛皮🐮搭配亮光鳄鱼纹,质感柔软 包型时尚大方[Rose]玩转时尚潮流前线[Beer]原版专柜五金[Heart]手感柔软舒适,完美细节,超大容量,内置中隔,配有官网小挂坠🥰,防尘袋,官网卡片,证书一一俱全,","name_cn":"新品☀官网劲爆新款🔥 👉火遍全球 2020开年新款普拉达《PRADA》 💗  款号:66153 尺寸:30*24*14  专柜裁剪手法,采用进口小牛皮🐮搭配亮光鳄鱼纹,质感柔软 包型时尚大方[Rose]玩转时尚潮流前线[Beer]原版专柜五金[Heart]手感柔软舒适,完美细节,超大容量,内置中隔,配有官网小挂坠🥰,防尘袋,官网卡片,证书一一俱全,坚持高品质","specs":{"source":"wsxcme","sourceId":"_d-e-elc_lZzpkmvOedqIU_NC8sdw08td4tz7z6A","sourceTagId":47002669,"sourceTagName":"普拉达/女包","modelNumber":"66153 尺寸:30*24*14  专柜裁剪手法","rawTitle":"新品☀官网劲爆新款🔥 👉火遍全球 2020开年新款普拉达《PRADA》 💗  款号:66153 尺寸:30*24*14  专柜裁剪手法,采用进口小牛皮🐮搭配亮光鳄鱼纹,质感柔软 包型时尚大方[Rose]玩转时尚潮流前线[Beer]原版专柜五金[Heart]手感柔软舒适,完美细节,超大容量,内置中隔,配有官网小挂坠🥰,防尘袋,官网卡片,证书一一俱全,坚持高品质"},"price":null,"currency":"CNY","moq":1,"category":"prada-women-bags","status":"active","alibaba_url":null,"images":["https://xcimg.szwego.com/20200417/i1587131660_9238_0.jpg","https://xcimg.szwego.com/20200417/i1587131660_9344_1.jpg","https://xcimg.szwego.com/20200417/i1587131660_7731_2.jpg","https://xcimg.szwego.com/20200417/i1587131660_8898_3.jpg","https://xcimg.szwego.com/20200417/i1587131660_2767_4.jpg"],"created_at":"2025-02-08T12:44:26.505Z"},{"id":"item-c812d051c781","sku":"_dyayaoGsDYwtlR3VHRAYcQCPKqKkc06zI_W9tQw","name_en":"普拉达《PRADA》2023  独家醉心款[玫瑰]新款上市💪普拉达最畅销简约款式,采用原版细荔纹小牛皮🐮 原版浅金,包型圆润,手感细腻,使其更具高雅气质[太阳]顶级手工🎉完美构造🎉主推爆款🙏","name_cn":"普拉达《PRADA》2023  独家醉心款[玫瑰]新款上市💪普拉达最畅销简约款式,采用原版细荔纹小牛皮🐮 原版浅金,包型圆润,手感细腻,使其更具高雅气质[太阳]顶级手工🎉完美构造🎉主推爆款🙏\n款号:55150\n尺寸:30*20*14cm","specs":{"source":"wsxcme","sourceId":"_dyayaoGsDYwtlR3VHRAYcQCPKqKkc06zI_W9tQw","sourceTagId":47002669,"sourceTagName":"普拉达/女包","modelNumber":"55150","dimensions":{"lengthCm":30,"heightCm":20,"widthCm":14},"rawTitle":"普拉达《PRADA》2023  独家醉心款[玫瑰]新款上市💪普拉达最畅销简约款式,采用原版细荔纹小牛皮🐮 原版浅金,包型圆润,手感细腻,使其更具高雅气质[太阳]顶级手工🎉完美构造🎉主推爆款🙏\n款号:55150\n尺寸:30*20*14cm"},"price":null,"currency":"CNY","moq":1,"category":"prada-women-bags","status":"active","alibaba_url":null,"images":["https://xcimg.szwego.com/20230529/i1685335091_7203_6.jpg","https://xcimg.szwego.com/20230529/i1685335091_7187_1.jpg","https://xcimg.szwego.com/20230529/i1685335091_6085_2.jpg","https://xcimg.szwego.com/20230529/i1685335091_7644_3.jpg","https://xcimg.szwego.com/20230529/i1685335091_1213_4.jpg","https://xcimg.szwego.com/20230529/i1685335091_1702_5.jpg","https://xcimg.szwego.com/20230529/i1685335091_1751_0.jpg"],"created_at":"2025-02-08T12:44:26.504Z"},{"id":"item-46461969cf2b","sku":"_dWzWzIHpi6vEj4XfyGLDpuUOAclvchPKE5DWIog","name_en":"新款P家5003# 手掌纹搭配鳄鱼纹","name_cn":"新款P家5003# 手掌纹搭配鳄鱼纹\n🎉火爆登场,采用官方对版五金👉\n原版牛皮✨普拉达专用里布,\n尺寸25-19-13cm \n手提包配长肩带,好货不多说,尽在图片细节中","specs":{"source":"wsxcme","sourceId":"_dWzWzIHpi6vEj4XfyGLDpuUOAclvchPKE5DWIog","sourceTagId":47002669,"sourceTagName":"普拉达/女包","rawTitle":"新款P家5003# 手掌纹搭配鳄鱼纹\n🎉火爆登场,采用官方对版五金👉\n原版牛皮✨普拉达专用里布,\n尺寸25-19-13cm \n手提包配长肩带,好货不多说,尽在图片细节中"},"price":null,"currency":"CNY","moq":1,"category":"prada-women-bags","status":"active","alibaba_url":null,"images":["https://xcimg.szwego.com/20210910/i1631206065_5906_0.jpg","https://xcimg.szwego.com/20210910/i1631206065_6831_1.jpg","https://xcimg.szwego.com/20210910/i1631206065_5835_2.jpg","https://xcimg.szwego.com/20210910/i1631206065_1338_3.jpg","https://xcimg.szwego.com/20210910/i1631206065_3399_4.jpg","https://xcimg.szwego.com/20210910/i1631206065_1041_5.jpg","https://xcimg.szwego.com/20210910/i1631206065_3619_6.jpg","https://xcimg.szwego.com/20210910/i1631206065_4327_7.jpg","https://xcimg.szwego.com/20210910/i1631206065_1872_8.jpg"],"created_at":"2025-02-08T12:44:26.503Z"},{"id":"item-fa7697a11a55","sku":"_drcrcCn_CtOvTQjyRphwqqkzwxXryWdUwxRQyMQ","name_en":"新款P家5003# 手掌纹搭配鳄鱼纹","name_cn":"新款P家5003# 手掌纹搭配鳄鱼纹\n🎉火爆登场,采用官方对版五金👉\n原版牛皮✨普拉达专用里布,\n尺寸25-19-13cm \n手提包配长肩带,好货不多说,尽在图片细节中","specs":{"source":"wsxcme","sourceId":"_drcrcCn_CtOvTQjyRphwqqkzwxXryWdUwxRQyMQ","sourceTagId":47002669,"sourceTagName":"普拉达/女包","rawTitle":"新款P家5003# 手掌纹搭配鳄鱼纹\n🎉火爆登场,采用官方对版五金👉\n原版牛皮✨普拉达专用里布,\n尺寸25-19-13cm \n手提包配长肩带,好货不多说,尽在图片细节中"},"price":null,"currency":"CNY","moq":1,"category":"prada-women-bags","status":"active","alibaba_url":null,"images":["https://xcimg.szwego.com/20210910/i1631206037_9252_0.jpg","https://xcimg.szwego.com/20210910/i1631206037_7832_1.jpg","https://xcimg.szwego.com/20210910/i1631206037_817_2.jpg","https://xcimg.szwego.com/20210910/i1631206037_575_3.jpg","https://xcimg.szwego.com/20210910/i1631206037_1486_4.jpg","https://xcimg.szwego.com/20210910/i1631206037_6984_5.jpg","https://xcimg.szwego.com/20210910/i1631206037_3310_6.jpg","https://xcimg.szwego.com/20210910/i1631206037_1392_7.jpg","https://xcimg.szwego.com/20210910/i1631206037_5600_8.jpg"],"created_at":"2025-02-08T12:44:26.502Z"},{"id":"item-c5f3934c7b25","sku":"_dqKqK0mHjqSwFmfLBr2trnbD5UufMGj38ZZJv4A","name_en":"新品✨小可爱枕头包👉头层牛皮压漆💗普拉达《PRADA》  采用进口牛皮🐂制做,原版定制五金🔱,手感非常舒适,此款保留经典普拉达散字唛五金🎀","name_cn":"新品✨小可爱枕头包👉头层牛皮压漆💗普拉达《PRADA》  采用进口牛皮🐂制做,原版定制五金🔱,手感非常舒适,此款保留经典普拉达散字唛五金🎀\n款号:55138\n尺寸:长18.5-高15-宽10cm","specs":{"source":"wsxcme","sourceId":"_dqKqK0mHjqSwFmfLBr2trnbD5UufMGj38ZZJv4A","sourceTagId":47002669,"sourceTagName":"普拉达/女包","modelNumber":"55138","rawTitle":"新品✨小可爱枕头包👉头层牛皮压漆💗普拉达《PRADA》  采用进口牛皮🐂制做,原版定制五金🔱,手感非常舒适,此款保留经典普拉达散字唛五金🎀\n款号:55138\n尺寸:长18.5-高15-宽10cm"},"price":null,"currency":"CNY","moq":1,"category":"prada-women-bags","status":"active","alibaba_url":null,"images":["https://xcimg.szwego.com/20230401/i1680341213_3607_3.jpg","https://xcimg.szwego.com/20230401/i1680341213_3363_0.jpg","https://xcimg.szwego.com/20230401/i1680341213_6988_1.jpg","https://xcimg.szwego.com/20230401/i1680341213_2421_2.jpg","https://xcimg.szwego.com/20230401/i1680341213_9322_4.jpg","https://xcimg.szwego.com/20230401/i1680341213_93_5.jpg","https://xcimg.szwego.com/20230401/i1680341243_2687_0.jpg"],"created_at":"2025-02-08T12:44:26.501Z"},{"id":"item-79ef98aa8929","sku":"_dufuf1nRgdtedhtH75mHBHFN52Br0CB0QG8lcmw","name_en":"新款✨Prada/普拉达盖头包💓款号:2125","name_cn":"新款✨Prada/普拉达盖头包💓款号:2125\n#,原版手掌纹牛皮.🔱顺滑油边,精致做工,拼色是整包的亮点,厚实柔软的皮质[玫瑰]绝对的爆款,质量看得见 [玫瑰]配长肩带!非常实用  ☑️上身更是美丽  尺寸26-20-11cm,时尚简约大💋","specs":{"source":"wsxcme","sourceId":"_dufuf1nRgdtedhtH75mHBHFN52Br0CB0QG8lcmw","sourceTagId":47002669,"sourceTagName":"普拉达/女包","modelNumber":"2125","rawTitle":"新款✨Prada/普拉达盖头包💓款号:2125\n#,原版手掌纹牛皮.🔱顺滑油边,精致做工,拼色是整包的亮点,厚实柔软的皮质[玫瑰]绝对的爆款,质量看得见 [玫瑰]配长肩带!非常实用  ☑️上身更是美丽  尺寸26-20-11cm,时尚简约大💋"},"price":null,"currency":"CNY","moq":1,"category":"prada-women-bags","status":"active","alibaba_url":null,"images":["https://xcimg.szwego.com/20211210/i1639073313_4958_0.jpg","https://xcimg.szwego.com/20211210/i1639073313_7972_1.jpg","https://xcimg.szwego.com/20211210/i1639073313_9950_2.jpg","https://xcimg.szwego.com/20211210/i1639073313_2257_3.jpg","https://xcimg.szwego.com/20211210/i1639073313_4912_4.jpg","https://xcimg.szwego.com/20211210/i1639073313_5904_5.jpg","https://xcimg.szwego.com/20211210/i1639073313_8487_6.jpg"],"created_at":"2025-02-08T12:44:26.500Z"},{"id":"item-85d643b2ce66","sku":"_dtCtCcTFgMsdRqq_PQh8L4M-22xLLZC_ANdSQaQ","name_en":"Prada Women Bags","name_cn":"(普拉达)腋下月亮/月牙包 时尚黑马[胜利]小牛皮搭配散字唛金色五金,小鹿纹配时尚鳄鱼🐊纹,更具时尚风,月牙形状自带调扣,整体皮穿链,可盐可甜 展现优雅的同时还有点小复古,两侧卡扣对扣秒变奶呼呼的呼啦圈,解锁一包多用。\n款号:0188\n尺寸:23×15×8cm","specs":{"source":"wsxcme","sourceId":"_dtCtCcTFgMsdRqq_PQh8L4M-22xLLZC_ANdSQaQ","sourceTagId":47002669,"sourceTagName":"普拉达/女包","modelNumber":"0188","dimensions":{"lengthCm":23,"heightCm":15,"widthCm":8},"rawTitle":"(普拉达)腋下月亮/月牙包 时尚黑马[胜利]小牛皮搭配散字唛金色五金,小鹿纹配时尚鳄鱼🐊纹,更具时尚风,月牙形状自带调扣,整体皮穿链,可盐可甜 展现优雅的同时还有点小复古,两侧卡扣对扣秒变奶呼呼的呼啦圈,解锁一包多用。\n款号:0188\n尺寸:23×15×8cm"},"price":null,"currency":"CNY","moq":1,"category":"prada-women-bags","status":"active","alibaba_url":null,"images":["https://xcimg.szwego.com/20230705/i1688500975_2734_0.jpg","https://xcimg.szwego.com/20230705/i1688500975_5458_1.jpg","https://xcimg.szwego.com/20230705/i1688500975_9001_2.jpg","https://xcimg.szwego.com/20230705/i1688500975_6007_3.jpg","https://xcimg.szwego.com/20230705/i1688500975_8971_4.jpg","https://xcimg.szwego.com/20230705/i1688500975_6787_5.jpg","https://xcimg.szwego.com/20230705/i1688500975_3094_6.jpg","https://xcimg.szwego.com/20230705/i1688500975_7224_7.jpg"],"created_at":"2025-02-08T12:44:26.499Z"},{"id":"item-a211ac6dddcb","sku":"_dbZbZse2Cniy9MN5MSKBe8yZS8TwCANJAKdgSvw","name_en":"Prada Women Bags","name_cn":"(普拉达)月亮/月牙包 时尚黑马[胜利]小牛皮搭配散字唛金色五金,小鹿纹配时尚鳄鱼🐊纹,更具时尚风,月牙形状自带调扣,整体皮穿链,可盐可甜 展现优雅的同时还有点小复古,两侧卡扣对扣秒变奶呼呼的呼啦圈,解锁一包多用。\n款号:1BH195\n尺寸:24×15×8cm","specs":{"source":"wsxcme","sourceId":"_dbZbZse2Cniy9MN5MSKBe8yZS8TwCANJAKdgSvw","sourceTagId":47002669,"sourceTagName":"普拉达/女包","modelNumber":"1BH195","dimensions":{"lengthCm":24,"heightCm":15,"widthCm":8},"rawTitle":"(普拉达)月亮/月牙包 时尚黑马[胜利]小牛皮搭配散字唛金色五金,小鹿纹配时尚鳄鱼🐊纹,更具时尚风,月牙形状自带调扣,整体皮穿链,可盐可甜 展现优雅的同时还有点小复古,两侧卡扣对扣秒变奶呼呼的呼啦圈,解锁一包多用。\n款号:1BH195\n尺寸:24×15×8cm"},"price":null,"currency":"CNY","moq":1,"category":"prada-women-bags","status":"active","alibaba_url":null,"images":["https://xcimg.szwego.com/20230312/i1678566209_5052_0.jpg","https://xcimg.szwego.com/20230312/i1678566209_3169_1.jpg","https://xcimg.szwego.com/20230312/i1678566209_5227_2.jpg","https://xcimg.szwego.com/20230312/i1678566209_2322_3.jpg","https://xcimg.szwego.com/20230312/i1678566209_1673_4.jpg","https://xcimg.szwego.com/20230312/i1678566209_5278_5.jpg"],"created_at":"2025-02-08T12:44:26.498Z"},{"id":"item-c6a16a0be8fa","sku":"_d2Y2YR1usTkiwPif_x061I9iyl2DHYPlNFyCbAg","name_en":"普拉达prada👏最新春夏走秀款杀手包。进口牛皮配上高端24k金五金😍金黄金黄靓爆眼 看细节 看五金 😱😱😱2274长33cm高24cm宽12cm,整个市场最物超所值的一个经典款女包,选择我不会错","name_cn":"普拉达prada👏最新春夏走秀款杀手包。进口牛皮配上高端24k金五金😍金黄金黄靓爆眼 看细节 看五金 😱😱😱2274长33cm高24cm宽12cm,整个市场最物超所值的一个经典款女包,选择我不会错","specs":{"source":"wsxcme","sourceId":"_d2Y2YR1usTkiwPif_x061I9iyl2DHYPlNFyCbAg","sourceTagId":47002669,"sourceTagName":"普拉达/女包","rawTitle":"普拉达prada👏最新春夏走秀款杀手包。进口牛皮配上高端24k金五金😍金黄金黄靓爆眼 看细节 看五金 😱😱😱2274长33cm高24cm宽12cm,整个市场最物超所值的一个经典款女包,选择我不会错"},"price":null,"currency":"CNY","moq":1,"category":"prada-women-bags","status":"active","alibaba_url":null,"images":["https://xcimg.szwego.com/20211206/i1638803693_3386_0.jpg","https://xcimg.szwego.com/20211206/i1638803693_8993_1.jpg","https://xcimg.szwego.com/20211206/i1638803693_4119_2.jpg","https://xcimg.szwego.com/20211206/i1638803693_642_3.jpg","https://xcimg.szwego.com/20211206/i1638803693_8212_4.jpg","https://xcimg.szwego.com/20211206/i1638803693_9593_5.jpg","https://xcimg.szwego.com/20211206/i1638803693_178_6.jpg","https://xcimg.szwego.com/20211206/i1638803693_4545_7.jpg","https://xcimg.szwego.com/20211206/i1638803693_9135_8.jpg"],"created_at":"2025-02-08T12:44:26.497Z"},{"id":"item-ad50595c7ab6","sku":"_djvjvmfxLhbaofscTENI3H8PZPmXy8I2f4SVxZQ","name_en":"普拉达prada👏最新春夏走秀款杀手包。进口牛皮配上高端24k金五金😍金黄金黄靓爆眼 看细节 看五金 😱😱😱2274长33cm高24cm宽12cm,整个市场最物超所值的一个经典款女包,选择我不会错","name_cn":"普拉达prada👏最新春夏走秀款杀手包。进口牛皮配上高端24k金五金😍金黄金黄靓爆眼 看细节 看五金 😱😱😱2274长33cm高24cm宽12cm,整个市场最物超所值的一个经典款女包,选择我不会错","specs":{"source":"wsxcme","sourceId":"_djvjvmfxLhbaofscTENI3H8PZPmXy8I2f4SVxZQ","sourceTagId":47002669,"sourceTagName":"普拉达/女包","rawTitle":"普拉达prada👏最新春夏走秀款杀手包。进口牛皮配上高端24k金五金😍金黄金黄靓爆眼 看细节 看五金 😱😱😱2274长33cm高24cm宽12cm,整个市场最物超所值的一个经典款女包,选择我不会错"},"price":null,"currency":"CNY","moq":1,"category":"prada-women-bags","status":"active","alibaba_url":null,"images":["https://xcimg.szwego.com/20200502/i1588351399_8915_0.jpg","https://xcimg.szwego.com/20200502/i1588351399_3947_1.jpg","https://xcimg.szwego.com/20200502/i1588351399_9349_2.jpg","https://xcimg.szwego.com/20200502/i1588351399_8300_3.jpg","https://xcimg.szwego.com/20200502/i1588351399_3549_4.jpg","https://xcimg.szwego.com/20200502/i1588351399_3976_5.jpg","https://xcimg.szwego.com/20200502/i1588351399_3737_6.jpg","https://xcimg.szwego.com/20200502/i1588351399_6858_7.jpg"],"created_at":"2025-02-08T12:44:26.496Z"},{"id":"item-c5796af6bd60","sku":"_dj8j8r5D0wjtYcm1_Uw4J6_Uj2TC7XdGHMpy9Rw","name_en":"最新爆款普拉达中古包,时尚达人必备,最喜欢背的Prada包,真的是,可盐可甜的那种,上百搭和容量ok,所以使用频率最高,对比起来,这只容量更大一些,但会更女性化百搭款KK370尺寸","name_cn":"最新爆款普拉达中古包,时尚达人必备,最喜欢背的Prada包,真的是,可盐可甜的那种,上百搭和容量ok,所以使用频率最高,对比起来,这只容量更大一些,但会更女性化百搭款KK370尺寸","specs":{"source":"wsxcme","sourceId":"_dj8j8r5D0wjtYcm1_Uw4J6_Uj2TC7XdGHMpy9Rw","sourceTagId":47002669,"sourceTagName":"普拉达/女包","rawTitle":"最新爆款普拉达中古包,时尚达人必备,最喜欢背的Prada包,真的是,可盐可甜的那种,上百搭和容量ok,所以使用频率最高,对比起来,这只容量更大一些,但会更女性化百搭款KK370尺寸"},"price":null,"currency":"CNY","moq":1,"category":"prada-women-bags","status":"active","alibaba_url":null,"images":["https://xcimg.szwego.com/20230305/i1678010591_7310_0.jpg","https://xcimg.szwego.com/20230305/i1678010591_978_1.jpg","https://xcimg.szwego.com/20230305/i1678010591_6159_2.jpg","https://xcimg.szwego.com/20230305/i1678010591_3396_3.jpg","https://xcimg.szwego.com/20230305/i1678010591_9785_4.jpg","https://xcimg.szwego.com/20230305/i1678010591_4795_5.jpg","https://xcimg.szwego.com/20230305/i1678010591_4197_6.jpg","https://xcimg.szwego.com/20230305/i1678010591_1510_7.jpg","https://xcimg.szwego.com/20230305/i1678010591_6591_8.jpg"],"created_at":"2025-02-08T12:44:26.495Z"},{"id":"item-18a63d1a83b5","sku":"_dX7X7JQVnPfyxCcpLZsYDSXZud2MYFSFldiwzLA","name_en":"新款🔥 官网劲爆新款🔥  火遍全球 2020开年新款普拉达《PRADA》   款号:66152 尺寸:30*22*14  专柜裁剪手法,采用进口小牛皮🐮搭配亮光鳄鱼纹,质感柔软 包型时尚大方[玫瑰]玩转时尚潮流前线[啤酒]原版专柜五金[爱心]手感柔软舒适,完美细节,超大容量,内置中隔,配有官网小挂坠,防尘袋,官网卡片,证书一一俱全,坚持高品质","name_cn":"新款🔥 官网劲爆新款🔥  火遍全球 2020开年新款普拉达《PRADA》   款号:66152 尺寸:30*22*14  专柜裁剪手法,采用进口小牛皮🐮搭配亮光鳄鱼纹,质感柔软 包型时尚大方[玫瑰]玩转时尚潮流前线[啤酒]原版专柜五金[爱心]手感柔软舒适,完美细节,超大容量,内置中隔,配有官网小挂坠,防尘袋,官网卡片,证书一一俱全,坚持高品质","specs":{"source":"wsxcme","sourceId":"_dX7X7JQVnPfyxCcpLZsYDSXZud2MYFSFldiwzLA","sourceTagId":47002669,"sourceTagName":"普拉达/女包","modelNumber":"66152 尺寸:30*22*14  专柜裁剪手法","rawTitle":"新款🔥 官网劲爆新款🔥  火遍全球 2020开年新款普拉达《PRADA》   款号:66152 尺寸:30*22*14  专柜裁剪手法,采用进口小牛皮🐮搭配亮光鳄鱼纹,质感柔软 包型时尚大方[玫瑰]玩转时尚潮流前线[啤酒]原版专柜五金[爱心]手感柔软舒适,完美细节,超大容量,内置中隔,配有官网小挂坠,防尘袋,官网卡片,证书一一俱全,坚持高品质"},"price":null,"currency":"CNY","moq":1,"category":"prada-women-bags","status":"active","alibaba_url":null,"images":["https://xcimg.szwego.com/20210327/i1616859502_9649_0.jpg","https://xcimg.szwego.com/20210327/i1616859502_7184_1.jpg","https://xcimg.szwego.com/20210327/i1616859502_6545_2.jpg","https://xcimg.szwego.com/20210327/i1616859502_7174_3.jpg","https://xcimg.szwego.com/20210327/i1616859502_7365_4.jpg","https://xcimg.szwego.com/20210327/i1616859502_2603_5.jpg","https://xcimg.szwego.com/20210327/i1616859502_4139_6.jpg","https://xcimg.szwego.com/20210327/i1616859502_298_7.jpg"],"created_at":"2025-02-08T12:44:26.494Z"},{"id":"item-7fb07b4a3a63","sku":"_dcRcRGlj8sEZmsTfFWbt_TGUs81vgWB1PQOxKtw","name_en":"新款🔥 官网劲爆新款🔥  火遍全球 2020开年新款普拉达《PRADA》   款号:66152 尺寸:30*22*14  专柜裁剪手法,采用进口小牛皮🐮搭配亮光鳄鱼纹,质感柔软 包型时尚大方[玫瑰]玩转时尚潮流前线[啤酒]原版专柜五金[爱心]手感柔软舒适,完美细节,超大容量,内置中隔,配有官网小挂坠,防尘袋,官网卡片,证书一一俱全,坚持高品质","name_cn":"新款🔥 官网劲爆新款🔥  火遍全球 2020开年新款普拉达《PRADA》   款号:66152 尺寸:30*22*14  专柜裁剪手法,采用进口小牛皮🐮搭配亮光鳄鱼纹,质感柔软 包型时尚大方[玫瑰]玩转时尚潮流前线[啤酒]原版专柜五金[爱心]手感柔软舒适,完美细节,超大容量,内置中隔,配有官网小挂坠,防尘袋,官网卡片,证书一一俱全,坚持高品质","specs":{"source":"wsxcme","sourceId":"_dcRcRGlj8sEZmsTfFWbt_TGUs81vgWB1PQOxKtw","sourceTagId":47002669,"sourceTagName":"普拉达/女包","modelNumber":"66152 尺寸:30*22*14  专柜裁剪手法","rawTitle":"新款🔥 官网劲爆新款🔥  火遍全球 2020开年新款普拉达《PRADA》   款号:66152 尺寸:30*22*14  专柜裁剪手法,采用进口小牛皮🐮搭配亮光鳄鱼纹,质感柔软 包型时尚大方[玫瑰]玩转时尚潮流前线[啤酒]原版专柜五金[爱心]手感柔软舒适,完美细节,超大容量,内置中隔,配有官网小挂坠,防尘袋,官网卡片,证书一一俱全,坚持高品质"},"price":null,"currency":"CNY","moq":1,"category":"prada-women-bags","status":"active","alibaba_url":null,"images":["https://xcimg.szwego.com/20210327/i1616859545_3249_0.jpg","https://xcimg.szwego.com/20210327/i1616859545_8505_1.jpg","https://xcimg.szwego.com/20210327/i1616859545_3861_2.jpg","https://xcimg.szwego.com/20210327/i1616859545_2632_3.jpg","https://xcimg.szwego.com/20210327/i1616859545_3163_4.jpg","https://xcimg.szwego.com/20210327/i1616859545_7089_5.jpg","https://xcimg.szwego.com/20210327/i1616859545_1635_6.jpg","https://xcimg.szwego.com/20210327/i1616859545_5599_7.jpg"],"created_at":"2025-02-08T12:44:26.493Z"},{"id":"item-bd534edba30b","sku":"_dkfkfKs5Z4o57ioGf61bbn8EnZ-zR4al0Ptr4Mw","name_en":"新款🔥 官网劲爆新款🔥  火遍全球 2020开年新款普拉达《PRADA》   款号:66152 尺寸:30*22*14  专柜裁剪手法,采用进口小牛皮🐮搭配亮光鳄鱼纹,质感柔软 包型时尚大方[玫瑰]玩转时尚潮流前线[啤酒]原版专柜五金[爱心]手感柔软舒适,完美细节,超大容量,内置中隔,配有官网小挂坠,防尘袋,官网卡片,证书一一俱全,坚持高品质","name_cn":"新款🔥 官网劲爆新款🔥  火遍全球 2020开年新款普拉达《PRADA》   款号:66152 尺寸:30*22*14  专柜裁剪手法,采用进口小牛皮🐮搭配亮光鳄鱼纹,质感柔软 包型时尚大方[玫瑰]玩转时尚潮流前线[啤酒]原版专柜五金[爱心]手感柔软舒适,完美细节,超大容量,内置中隔,配有官网小挂坠,防尘袋,官网卡片,证书一一俱全,坚持高品质","specs":{"source":"wsxcme","sourceId":"_dkfkfKs5Z4o57ioGf61bbn8EnZ-zR4al0Ptr4Mw","sourceTagId":47002669,"sourceTagName":"普拉达/女包","modelNumber":"66152 尺寸:30*22*14  专柜裁剪手法","rawTitle":"新款🔥 官网劲爆新款🔥  火遍全球 2020开年新款普拉达《PRADA》   款号:66152 尺寸:30*22*14  专柜裁剪手法,采用进口小牛皮🐮搭配亮光鳄鱼纹,质感柔软 包型时尚大方[玫瑰]玩转时尚潮流前线[啤酒]原版专柜五金[爱心]手感柔软舒适,完美细节,超大容量,内置中隔,配有官网小挂坠,防尘袋,官网卡片,证书一一俱全,坚持高品质"},"price":null,"currency":"CNY","moq":1,"category":"prada-women-bags","status":"active","alibaba_url":null,"images":["https://xcimg.szwego.com/20210327/i1616859515_540_0.jpg","https://xcimg.szwego.com/20210327/i1616859515_1743_1.jpg","https://xcimg.szwego.com/20210327/i1616859515_5382_2.jpg","https://xcimg.szwego.com/20210327/i1616859515_8234_3.jpg","https://xcimg.szwego.com/20210327/i1616859515_7793_4.jpg","https://xcimg.szwego.com/20210327/i1616859515_6986_5.jpg","https://xcimg.szwego.com/20210327/i1616859515_462_6.jpg","https://xcimg.szwego.com/20210327/i1616859515_4546_7.jpg"],"created_at":"2025-02-08T12:44:26.492Z"},{"id":"item-0123dd02f292","sku":"_dsdsdRQOUjeF2TSt3A2a7lFqDl6vZLNYL_DxJig","name_en":"新款🔥 官网劲爆新款🔥  火遍全球 2020开年新款普拉达《PRADA》   款号:66152 尺寸:30*22*14  专柜裁剪手法,采用进口小牛皮🐮搭配亮光鳄鱼纹,质感柔软 包型时尚大方[玫瑰]玩转时尚潮流前线[啤酒]原版专柜五金[爱心]手感柔软舒适,完美细节,超大容量,内置中隔,配有官网小挂坠,防尘袋,官网卡片,证书一一俱全,坚持高品质","name_cn":"新款🔥 官网劲爆新款🔥  火遍全球 2020开年新款普拉达《PRADA》   款号:66152 尺寸:30*22*14  专柜裁剪手法,采用进口小牛皮🐮搭配亮光鳄鱼纹,质感柔软 包型时尚大方[玫瑰]玩转时尚潮流前线[啤酒]原版专柜五金[爱心]手感柔软舒适,完美细节,超大容量,内置中隔,配有官网小挂坠,防尘袋,官网卡片,证书一一俱全,坚持高品质","specs":{"source":"wsxcme","sourceId":"_dsdsdRQOUjeF2TSt3A2a7lFqDl6vZLNYL_DxJig","sourceTagId":47002669,"sourceTagName":"普拉达/女包","modelNumber":"66152 尺寸:30*22*14  专柜裁剪手法","rawTitle":"新款🔥 官网劲爆新款🔥  火遍全球 2020开年新款普拉达《PRADA》   款号:66152 尺寸:30*22*14  专柜裁剪手法,采用进口小牛皮🐮搭配亮光鳄鱼纹,质感柔软 包型时尚大方[玫瑰]玩转时尚潮流前线[啤酒]原版专柜五金[爱心]手感柔软舒适,完美细节,超大容量,内置中隔,配有官网小挂坠,防尘袋,官网卡片,证书一一俱全,坚持高品质"},"price":null,"currency":"CNY","moq":1,"category":"prada-women-bags","status":"active","alibaba_url":null,"images":["https://xcimg.szwego.com/20210327/i1616859587_392_0.jpg","https://xcimg.szwego.com/20210327/i1616859587_3810_1.jpg","https://xcimg.szwego.com/20210327/i1616859587_5646_2.jpg","https://xcimg.szwego.com/20210327/i1616859587_1998_3.jpg","https://xcimg.szwego.com/20210327/i1616859587_6381_4.jpg","https://xcimg.szwego.com/20210327/i1616859587_3078_5.jpg","https://xcimg.szwego.com/20210327/i1616859587_3657_6.jpg","https://xcimg.szwego.com/20210327/i1616859587_3961_7.jpg"],"created_at":"2025-02-08T12:44:26.491Z"},{"id":"item-9c835f91f67c","sku":"_djCjCC6WiZU_HmB-69HEWc9dSy0_gnRZfN9ojog","name_en":"新款🔥 官网劲爆新款🔥  火遍全球 2020开年新款普拉达《PRADA》   款号:66152 尺寸:30*22*14  专柜裁剪手法,采用进口小牛皮🐮搭配亮光鳄鱼纹,质感柔软 包型时尚大方[玫瑰]玩转时尚潮流前线[啤酒]原版专柜五金[爱心]手感柔软舒适,完美细节,超大容量,内置中隔,配有官网小挂坠,防尘袋,官网卡片,证书一一俱全,坚持高品质","name_cn":"新款🔥 官网劲爆新款🔥  火遍全球 2020开年新款普拉达《PRADA》   款号:66152 尺寸:30*22*14  专柜裁剪手法,采用进口小牛皮🐮搭配亮光鳄鱼纹,质感柔软 包型时尚大方[玫瑰]玩转时尚潮流前线[啤酒]原版专柜五金[爱心]手感柔软舒适,完美细节,超大容量,内置中隔,配有官网小挂坠,防尘袋,官网卡片,证书一一俱全,坚持高品质","specs":{"source":"wsxcme","sourceId":"_djCjCC6WiZU_HmB-69HEWc9dSy0_gnRZfN9ojog","sourceTagId":47002669,"sourceTagName":"普拉达/女包","modelNumber":"66152 尺寸:30*22*14  专柜裁剪手法","rawTitle":"新款🔥 官网劲爆新款🔥  火遍全球 2020开年新款普拉达《PRADA》   款号:66152 尺寸:30*22*14  专柜裁剪手法,采用进口小牛皮🐮搭配亮光鳄鱼纹,质感柔软 包型时尚大方[玫瑰]玩转时尚潮流前线[啤酒]原版专柜五金[爱心]手感柔软舒适,完美细节,超大容量,内置中隔,配有官网小挂坠,防尘袋,官网卡片,证书一一俱全,坚持高品质"},"price":null,"currency":"CNY","moq":1,"category":"prada-women-bags","status":"active","alibaba_url":null,"images":["https://xcimg.szwego.com/20210327/i1616859529_3648_0.jpg","https://xcimg.szwego.com/20210327/i1616859529_8606_1.jpg","https://xcimg.szwego.com/20210327/i1616859529_8947_2.jpg","https://xcimg.szwego.com/20210327/i1616859529_3347_3.jpg","https://xcimg.szwego.com/20210327/i1616859529_8181_4.jpg","https://xcimg.szwego.com/20210327/i1616859529_8801_5.jpg","https://xcimg.szwego.com/20210327/i1616859529_9911_6.jpg","https://xcimg.szwego.com/20210327/i1616859529_6918_7.jpg"],"created_at":"2025-02-08T12:44:26.490Z"},{"id":"item-3bac93f57885","sku":"_diXiX_YiM30hvUTiAh6Ivc1FhEae5yG9O2Mcl9g","name_en":"新款🔥 官网劲爆新款🔥  火遍全球 2020开年新款普拉达《PRADA》   款号:66152 尺寸:30*22*14  专柜裁剪手法,采用进口小牛皮🐮搭配亮光鳄鱼纹,质感柔软 包型时尚大方[玫瑰]玩转时尚潮流前线[啤酒]原版专柜五金[爱心]手感柔软舒适,完美细节,超大容量,内置中隔,配有官网小挂坠,防尘袋,官网卡片,证书一一俱全,坚持高品质","name_cn":"新款🔥 官网劲爆新款🔥  火遍全球 2020开年新款普拉达《PRADA》   款号:66152 尺寸:30*22*14  专柜裁剪手法,采用进口小牛皮🐮搭配亮光鳄鱼纹,质感柔软 包型时尚大方[玫瑰]玩转时尚潮流前线[啤酒]原版专柜五金[爱心]手感柔软舒适,完美细节,超大容量,内置中隔,配有官网小挂坠,防尘袋,官网卡片,证书一一俱全,坚持高品质","specs":{"source":"wsxcme","sourceId":"_diXiX_YiM30hvUTiAh6Ivc1FhEae5yG9O2Mcl9g","sourceTagId":47002669,"sourceTagName":"普拉达/女包","modelNumber":"66152 尺寸:30*22*14  专柜裁剪手法","rawTitle":"新款🔥 官网劲爆新款🔥  火遍全球 2020开年新款普拉达《PRADA》   款号:66152 尺寸:30*22*14  专柜裁剪手法,采用进口小牛皮🐮搭配亮光鳄鱼纹,质感柔软 包型时尚大方[玫瑰]玩转时尚潮流前线[啤酒]原版专柜五金[爱心]手感柔软舒适,完美细节,超大容量,内置中隔,配有官网小挂坠,防尘袋,官网卡片,证书一一俱全,坚持高品质"},"price":null,"currency":"CNY","moq":1,"category":"prada-women-bags","status":"active","alibaba_url":null,"images":["https://xcimg.szwego.com/20210327/i1616859559_7443_0.jpg","https://xcimg.szwego.com/20210327/i1616859559_5577_1.jpg","https://xcimg.szwego.com/20210327/i1616859559_2772_2.jpg","https://xcimg.szwego.com/20210327/i1616859559_9979_3.jpg","https://xcimg.szwego.com/20210327/i1616859559_5777_4.jpg","https://xcimg.szwego.com/20210327/i1616859559_3402_5.jpg","https://xcimg.szwego.com/20210327/i1616859559_9908_6.jpg","https://xcimg.szwego.com/20210327/i1616859559_3340_7.jpg"],"created_at":"2025-02-08T12:44:26.489Z"},{"id":"item-e5331052ae6b","sku":"_dn7n7m3gaeYhtNSCPjAKa2eeyrvTSeYLWcGfpdg","name_en":"新款🔥 官网劲爆新款🔥  火遍全球 2020开年新款普拉达《PRADA》   款号:66152 尺寸:30*22*14  专柜裁剪手法,采用进口小牛皮🐮搭配亮光鳄鱼纹,质感柔软 包型时尚大方[玫瑰]玩转时尚潮流前线[啤酒]原版专柜五金[爱心]手感柔软舒适,完美细节,超大容量,内置中隔,配有官网小挂坠,防尘袋,官网卡片,证书一一俱全,坚持高品质","name_cn":"新款🔥 官网劲爆新款🔥  火遍全球 2020开年新款普拉达《PRADA》   款号:66152 尺寸:30*22*14  专柜裁剪手法,采用进口小牛皮🐮搭配亮光鳄鱼纹,质感柔软 包型时尚大方[玫瑰]玩转时尚潮流前线[啤酒]原版专柜五金[爱心]手感柔软舒适,完美细节,超大容量,内置中隔,配有官网小挂坠,防尘袋,官网卡片,证书一一俱全,坚持高品质","specs":{"source":"wsxcme","sourceId":"_dn7n7m3gaeYhtNSCPjAKa2eeyrvTSeYLWcGfpdg","sourceTagId":47002669,"sourceTagName":"普拉达/女包","modelNumber":"66152 尺寸:30*22*14  专柜裁剪手法","rawTitle":"新款🔥 官网劲爆新款🔥  火遍全球 2020开年新款普拉达《PRADA》   款号:66152 尺寸:30*22*14  专柜裁剪手法,采用进口小牛皮🐮搭配亮光鳄鱼纹,质感柔软 包型时尚大方[玫瑰]玩转时尚潮流前线[啤酒]原版专柜五金[爱心]手感柔软舒适,完美细节,超大容量,内置中隔,配有官网小挂坠,防尘袋,官网卡片,证书一一俱全,坚持高品质"},"price":null,"currency":"CNY","moq":1,"category":"prada-women-bags","status":"active","alibaba_url":null,"images":["https://xcimg.szwego.com/20210327/i1616859574_6225_0.jpg","https://xcimg.szwego.com/20210327/i1616859574_4843_1.jpg","https://xcimg.szwego.com/20210327/i1616859574_24_2.jpg","https://xcimg.szwego.com/20210327/i1616859574_323_3.jpg","https://xcimg.szwego.com/20210327/i1616859574_4310_4.jpg","https://xcimg.szwego.com/20210327/i1616859574_7967_5.jpg","https://xcimg.szwego.com/20210327/i1616859574_4815_6.jpg","https://xcimg.szwego.com/20210327/i1616859574_2672_7.jpg"],"created_at":"2025-02-08T12:44:26.488Z"},{"id":"item-7d90517b5e8a","sku":"_dupup8aS86SofwWwIsa3xc1kXadLPrCEhAl3BZQ","name_en":"新款🔥 官网劲爆新款🔥  火遍全球 2020开年新款普拉达《PRADA》   款号:66152 尺寸:30*22*14  专柜裁剪手法,采用进口小牛皮🐮搭配亮光鳄鱼纹,质感柔软 包型时尚大方[玫瑰]玩转时尚潮流前线[啤酒]原版专柜五金[爱心]手感柔软舒适,完美细节,超大容量,内置中隔,配有官网小挂坠,防尘袋,官网卡片,证书一一俱全,坚持高品质","name_cn":"新款🔥 官网劲爆新款🔥  火遍全球 2020开年新款普拉达《PRADA》   款号:66152 尺寸:30*22*14  专柜裁剪手法,采用进口小牛皮🐮搭配亮光鳄鱼纹,质感柔软 包型时尚大方[玫瑰]玩转时尚潮流前线[啤酒]原版专柜五金[爱心]手感柔软舒适,完美细节,超大容量,内置中隔,配有官网小挂坠,防尘袋,官网卡片,证书一一俱全,坚持高品质","specs":{"source":"wsxcme","sourceId":"_dupup8aS86SofwWwIsa3xc1kXadLPrCEhAl3BZQ","sourceTagId":47002669,"sourceTagName":"普拉达/女包","modelNumber":"66152 尺寸:30*22*14  专柜裁剪手法","rawTitle":"新款🔥 官网劲爆新款🔥  火遍全球 2020开年新款普拉达《PRADA》   款号:66152 尺寸:30*22*14  专柜裁剪手法,采用进口小牛皮🐮搭配亮光鳄鱼纹,质感柔软 包型时尚大方[玫瑰]玩转时尚潮流前线[啤酒]原版专柜五金[爱心]手感柔软舒适,完美细节,超大容量,内置中隔,配有官网小挂坠,防尘袋,官网卡片,证书一一俱全,坚持高品质"},"price":null,"currency":"CNY","moq":1,"category":"prada-women-bags","status":"active","alibaba_url":null,"images":["https://xcimg.szwego.com/20210327/i1616859488_3888_0.jpg","https://xcimg.szwego.com/20210327/i1616859488_3517_1.jpg","https://xcimg.szwego.com/20210327/i1616859488_4429_2.jpg","https://xcimg.szwego.com/20210327/i1616859488_592_3.jpg","https://xcimg.szwego.com/20210327/i1616859488_1342_4.jpg","https://xcimg.szwego.com/20210327/i1616859488_496_5.jpg","https://xcimg.szwego.com/20210327/i1616859488_5379_6.jpg","https://xcimg.szwego.com/20210327/i1616859488_634_7.jpg"],"created_at":"2025-02-08T12:44:26.487Z"}],"page":9,"pageSize":24,"total":383,"totalPages":16}
