{"items":[{"id":"item-ad5a39ad3345","sku":"_dkZkZ-_HrT8gnNi8XFQohesMLk8McLmJgwfupwQ","name_en":"這款Zippy Vertical直式拉鏈錢包以Monogram塗層帆布及牛皮製成,綴以彩色的半抽象人臉圖案。錢包設有牛皮襯裡,並採用銀色的全拉鏈設計。此格外實用的錢包擁有12個名片夾層和多個隔層,包括一個可放零錢的拉鏈口袋。","name_cn":"這款Zippy Vertical直式拉鏈錢包以Monogram塗層帆布及牛皮製成,綴以彩色的半抽象人臉圖案。錢包設有牛皮襯裡,並採用銀色的全拉鏈設計。此格外實用的錢包擁有12個名片夾層和多個隔層,包括一個可放零錢的拉鏈口袋。\n长夹 M82590,尺寸:*10*20*2cm\n短夹 M82573,尺寸:11.5*9*1.5cm\n卡包 M82575,尺寸:7.5*1161*1cm","specs":{"source":"wsxcme","sourceId":"_dkZkZ-_HrT8gnNi8XFQohesMLk8McLmJgwfupwQ","sourceTagId":47002663,"sourceTagName":"长短款钱包","dimensions":{"lengthCm":11.5,"heightCm":9,"widthCm":1.5},"rawTitle":"這款Zippy Vertical直式拉鏈錢包以Monogram塗層帆布及牛皮製成,綴以彩色的半抽象人臉圖案。錢包設有牛皮襯裡,並採用銀色的全拉鏈設計。此格外實用的錢包擁有12個名片夾層和多個隔層,包括一個可放零錢的拉鏈口袋。\n长夹 M82590,尺寸:*10*20*2cm\n短夹 M82573,尺寸:11.5*9*1.5cm\n卡包 M82575,尺寸:7.5*1161*1cm"},"price":null,"currency":"CNY","moq":1,"category":"women-wallets","status":"active","alibaba_url":null,"images":["https://xcimg.szwego.com/20230902/i1693652315_8992_0.jpg","https://xcimg.szwego.com/20230902/i1693652315_5582_1.jpg","https://xcimg.szwego.com/20230902/i1693652315_5143_2.jpg","https://xcimg.szwego.com/20230902/i1693652315_3844_3.jpg","https://xcimg.szwego.com/20230902/i1693652315_284_4.jpg","https://xcimg.szwego.com/20230902/i1693652315_318_5.jpg","https://xcimg.szwego.com/20230902/i1693652315_628_6.jpg"],"created_at":"2025-01-20T13:06:05.258Z"},{"id":"item-62f21479c044","sku":"_dJeJeHXx5rktiL27Lvb2G2LfQ1WuXKQ0VTsEFNA","name_en":"這款Zippy Vertical直式拉鏈錢包以Monogram塗層帆布及牛皮製成,綴以彩色的半抽象人臉圖案。錢包設有牛皮襯裡,並採用銀色的全拉鏈設計。此格外實用的錢包擁有12個名片夾層和多個隔層,包括一個可放零錢的拉鏈口袋。","name_cn":"這款Zippy Vertical直式拉鏈錢包以Monogram塗層帆布及牛皮製成,綴以彩色的半抽象人臉圖案。錢包設有牛皮襯裡,並採用銀色的全拉鏈設計。此格外實用的錢包擁有12個名片夾層和多個隔層,包括一個可放零錢的拉鏈口袋。\n长夹 M82590,尺寸:*10*20*2cm\n短夹 M82573,尺寸:11.5*9*1.5cm\n卡包 M82575,尺寸:7.5*1161*1cm","specs":{"source":"wsxcme","sourceId":"_dJeJeHXx5rktiL27Lvb2G2LfQ1WuXKQ0VTsEFNA","sourceTagId":47002663,"sourceTagName":"长短款钱包","dimensions":{"lengthCm":11.5,"heightCm":9,"widthCm":1.5},"rawTitle":"這款Zippy Vertical直式拉鏈錢包以Monogram塗層帆布及牛皮製成,綴以彩色的半抽象人臉圖案。錢包設有牛皮襯裡,並採用銀色的全拉鏈設計。此格外實用的錢包擁有12個名片夾層和多個隔層,包括一個可放零錢的拉鏈口袋。\n长夹 M82590,尺寸:*10*20*2cm\n短夹 M82573,尺寸:11.5*9*1.5cm\n卡包 M82575,尺寸:7.5*1161*1cm"},"price":null,"currency":"CNY","moq":1,"category":"women-wallets","status":"active","alibaba_url":null,"images":["https://xcimg.szwego.com/20230902/i1693652361_5708_0.jpg","https://xcimg.szwego.com/20230902/i1693652361_4971_1.jpg","https://xcimg.szwego.com/20230902/i1693652361_7871_2.jpg","https://xcimg.szwego.com/20230902/i1693652361_907_3.jpg","https://xcimg.szwego.com/20230902/i1693652361_6119_4.jpg","https://xcimg.szwego.com/20230902/i1693652361_3400_5.jpg","https://xcimg.szwego.com/20230902/i1693652361_1983_6.jpg","https://xcimg.szwego.com/20230902/i1693652361_6601_7.jpg"],"created_at":"2025-01-20T13:06:05.259Z"},{"id":"item-86a4a900942d","sku":"_dgqgqoup0MetnS-IPvwZGPzb7akiqoG0_IYP2Zw","name_en":"专柜品质,顶级原单货,实物实拍!768243啡胶/荧光橙,尺寸:宽11x高9,出货啦!💰","name_cn":"专柜品质,顶级原单货,实物实拍!768243啡胶/荧光橙,尺寸:宽11x高9,出货啦!💰","specs":{"source":"wsxcme","sourceId":"_dgqgqoup0MetnS-IPvwZGPzb7akiqoG0_IYP2Zw","sourceTagId":47002663,"sourceTagName":"长短款钱包","rawTitle":"专柜品质,顶级原单货,实物实拍!768243啡胶/荧光橙,尺寸:宽11x高9,出货啦!💰"},"price":null,"currency":"CNY","moq":1,"category":"women-wallets","status":"active","alibaba_url":null,"images":["https://xcimg.szwego.com/img/102e1c0f/20250517/i1747466218951_8251_0_0.jpg","https://xcimg.szwego.com/img/102e1c0f/20250517/i1747466218961_8103_0_1.jpg","https://xcimg.szwego.com/img/102e1c0f/20250517/i1747466218882_6720_0_2.jpg","https://xcimg.szwego.com/img/102e1c0f/20250517/i1747466218905_4552_0_3.jpg"],"created_at":"2025-08-03T05:43:10.100Z"},{"id":"item-0bf94a08dcbd","sku":"_doUoUsyVcDZwjmPhnnD5KzNCxquRhsLnSwHHMHw","name_en":"专柜品质,顶级原单货,实物实拍!768243啡胶/荧光绿,尺寸:宽11x高9,出货啦!💰","name_cn":"专柜品质,顶级原单货,实物实拍!768243啡胶/荧光绿,尺寸:宽11x高9,出货啦!💰","specs":{"source":"wsxcme","sourceId":"_doUoUsyVcDZwjmPhnnD5KzNCxquRhsLnSwHHMHw","sourceTagId":47002663,"sourceTagName":"长短款钱包","rawTitle":"专柜品质,顶级原单货,实物实拍!768243啡胶/荧光绿,尺寸:宽11x高9,出货啦!💰"},"price":null,"currency":"CNY","moq":1,"category":"women-wallets","status":"active","alibaba_url":null,"images":["https://xcimg.szwego.com/img/102e1c0f/20250517/i1747466181041_2944_0_0.jpg","https://xcimg.szwego.com/img/102e1c0f/20250517/i1747466181074_3374_0_1.jpg","https://xcimg.szwego.com/img/102e1c0f/20250517/i1747466181089_4667_0_2.jpg","https://xcimg.szwego.com/img/102e1c0f/20250517/i1747466181083_9543_0_3.jpg"],"created_at":"2025-08-03T05:43:10.099Z"},{"id":"item-a7c119a8f90e","sku":"_dvYvYKg9aAyrKxjhSIiQXUC2uCdJ67AuntQ4QfQ","name_en":"专柜品质,顶级原单货,实物实拍!768243啡胶/荧光玫,尺寸:宽11x高9,出货啦!💰","name_cn":"专柜品质,顶级原单货,实物实拍!768243啡胶/荧光玫,尺寸:宽11x高9,出货啦!💰","specs":{"source":"wsxcme","sourceId":"_dvYvYKg9aAyrKxjhSIiQXUC2uCdJ67AuntQ4QfQ","sourceTagId":47002663,"sourceTagName":"长短款钱包","rawTitle":"专柜品质,顶级原单货,实物实拍!768243啡胶/荧光玫,尺寸:宽11x高9,出货啦!💰"},"price":null,"currency":"CNY","moq":1,"category":"women-wallets","status":"active","alibaba_url":null,"images":["https://xcimg.szwego.com/img/102e1c0f/20250517/i1747466235167_3968_0_0.jpg","https://xcimg.szwego.com/img/102e1c0f/20250517/i1747466235112_2398_0_1.jpg","https://xcimg.szwego.com/img/102e1c0f/20250517/i1747466234851_8189_0_2.jpg","https://xcimg.szwego.com/img/102e1c0f/20250517/i1747466235146_2222_0_3.jpg"],"created_at":"2025-08-03T05:43:10.101Z"},{"id":"item-647e45c661a0","sku":"_dCFCFxxh63pZmI3SLOcdBdZFwKHhVmGudSzhkgQ","name_en":"专柜品质,顶级原单货,实物实拍!768248啡胶/荧光橙~尺寸:宽11x高7,出货啦!💰","name_cn":"专柜品质,顶级原单货,实物实拍!768248啡胶/荧光橙~尺寸:宽11x高7,出货啦!💰","specs":{"source":"wsxcme","sourceId":"_dCFCFxxh63pZmI3SLOcdBdZFwKHhVmGudSzhkgQ","sourceTagId":47002663,"sourceTagName":"长短款钱包","rawTitle":"专柜品质,顶级原单货,实物实拍!768248啡胶/荧光橙~尺寸:宽11x高7,出货啦!💰"},"price":null,"currency":"CNY","moq":1,"category":"women-wallets","status":"active","alibaba_url":null,"images":["https://xcimg.szwego.com/img/102e1c0f/20250517/i1747466398308_2347_0_0.jpg","https://xcimg.szwego.com/img/102e1c0f/20250517/i1747466398301_6523_0_1.jpg","https://xcimg.szwego.com/img/102e1c0f/20250517/i1747466398278_9800_0_2.jpg","https://xcimg.szwego.com/img/102e1c0f/20250517/i1747466398308_1118_0_3.jpg"],"created_at":"2025-08-03T05:43:10.103Z"},{"id":"item-3835d7e1946b","sku":"_ddtdt6BHbqpgRnY703auky7J9VRnItSyMMk1juw","name_en":"专柜品质,顶级原单货,实物实拍!768248啡胶/荧光绿~尺寸:宽11x高7,出货啦!💰","name_cn":"专柜品质,顶级原单货,实物实拍!768248啡胶/荧光绿~尺寸:宽11x高7,出货啦!💰","specs":{"source":"wsxcme","sourceId":"_ddtdt6BHbqpgRnY703auky7J9VRnItSyMMk1juw","sourceTagId":47002663,"sourceTagName":"长短款钱包","rawTitle":"专柜品质,顶级原单货,实物实拍!768248啡胶/荧光绿~尺寸:宽11x高7,出货啦!💰"},"price":null,"currency":"CNY","moq":1,"category":"women-wallets","status":"active","alibaba_url":null,"images":["https://xcimg.szwego.com/img/102e1c0f/20250517/i1747466354524_385_0_0.jpg","https://xcimg.szwego.com/img/102e1c0f/20250517/i1747466354530_2107_0_1.jpg","https://xcimg.szwego.com/img/102e1c0f/20250517/i1747466354567_2684_0_2.jpg","https://xcimg.szwego.com/img/102e1c0f/20250517/i1747466354531_8529_0_3.jpg"],"created_at":"2025-08-03T05:43:10.102Z"},{"id":"item-b0f276827933","sku":"_dnonouyrnr2AFG884QGtlClA9eAQxDDldljBxkA","name_en":"专柜品质,顶级原单货,实物实拍!768248啡胶/荧光玫~尺寸:宽11x高7,出货啦!💰","name_cn":"专柜品质,顶级原单货,实物实拍!768248啡胶/荧光玫~尺寸:宽11x高7,出货啦!💰","specs":{"source":"wsxcme","sourceId":"_dnonouyrnr2AFG884QGtlClA9eAQxDDldljBxkA","sourceTagId":47002663,"sourceTagName":"长短款钱包","rawTitle":"专柜品质,顶级原单货,实物实拍!768248啡胶/荧光玫~尺寸:宽11x高7,出货啦!💰"},"price":null,"currency":"CNY","moq":1,"category":"women-wallets","status":"active","alibaba_url":null,"images":["https://xcimg.szwego.com/img/102e1c0f/20250517/i1747466411025_7206_0_0.jpg","https://xcimg.szwego.com/img/102e1c0f/20250517/i1747466411053_87_0_1.jpg","https://xcimg.szwego.com/img/102e1c0f/20250517/i1747466411030_292_0_2.jpg","https://xcimg.szwego.com/img/102e1c0f/20250517/i1747466411034_7526_0_3.jpg"],"created_at":"2025-08-03T05:43:10.104Z"},{"id":"item-b1079e22e5e4","sku":"_deeeexuek2jmEauNwALemrvEpakHVo6wojbqSOw","name_en":"专柜品质,顶级原单货,实物实拍!768249啡胶/荧光橙~尺寸:宽7.5x高12,出货啦!💰","name_cn":"专柜品质,顶级原单货,实物实拍!768249啡胶/荧光橙~尺寸:宽7.5x高12,出货啦!💰","specs":{"source":"wsxcme","sourceId":"_deeeexuek2jmEauNwALemrvEpakHVo6wojbqSOw","sourceTagId":47002663,"sourceTagName":"长短款钱包","rawTitle":"专柜品质,顶级原单货,实物实拍!768249啡胶/荧光橙~尺寸:宽7.5x高12,出货啦!💰"},"price":null,"currency":"CNY","moq":1,"category":"women-wallets","status":"active","alibaba_url":null,"images":["https://xcimg.szwego.com/img/102e1c0f/20250517/i1747466032633_1083_0_0.jpg","https://xcimg.szwego.com/img/102e1c0f/20250517/i1747466032642_7893_0_1.jpg","https://xcimg.szwego.com/img/102e1c0f/20250517/i1747466032640_3849_0_2.jpg","https://xcimg.szwego.com/img/102e1c0f/20250517/i1747465803251_2158_0_9.jpg"],"created_at":"2025-08-03T05:43:10.097Z"},{"id":"item-f1994fabd321","sku":"_dp-p-FBbLZq2lxfSVhl7Q47LdsyQUrmmPkZCLug","name_en":"专柜品质,顶级原单货,实物实拍!768249啡胶/荧光绿~尺寸:宽7.5x高12,出货啦!💰","name_cn":"专柜品质,顶级原单货,实物实拍!768249啡胶/荧光绿~尺寸:宽7.5x高12,出货啦!💰","specs":{"source":"wsxcme","sourceId":"_dp-p-FBbLZq2lxfSVhl7Q47LdsyQUrmmPkZCLug","sourceTagId":47002663,"sourceTagName":"长短款钱包","rawTitle":"专柜品质,顶级原单货,实物实拍!768249啡胶/荧光绿~尺寸:宽7.5x高12,出货啦!💰"},"price":null,"currency":"CNY","moq":1,"category":"women-wallets","status":"active","alibaba_url":null,"images":["https://xcimg.szwego.com/img/102e1c0f/20250517/i1747465881265_1178_0_0.jpg","https://xcimg.szwego.com/img/102e1c0f/20250517/i1747465881284_922_0_1.jpg","https://xcimg.szwego.com/img/102e1c0f/20250517/i1747465881284_6681_0_2.jpg","https://xcimg.szwego.com/img/102e1c0f/20250517/i1747465880993_4419_0_3.jpg"],"created_at":"2025-08-03T05:43:10.096Z"},{"id":"item-89ad31e4a9d7","sku":"_dvEvERokKi4ctpfpvyABUdRHX2ea9quZNCbbKBg","name_en":"专柜品质,顶级原单货,实物实拍!768249啡胶/荧光玫~尺寸:宽7.5x高12,出货啦!💰","name_cn":"专柜品质,顶级原单货,实物实拍!768249啡胶/荧光玫~尺寸:宽7.5x高12,出货啦!💰","specs":{"source":"wsxcme","sourceId":"_dvEvERokKi4ctpfpvyABUdRHX2ea9quZNCbbKBg","sourceTagId":47002663,"sourceTagName":"长短款钱包","rawTitle":"专柜品质,顶级原单货,实物实拍!768249啡胶/荧光玫~尺寸:宽7.5x高12,出货啦!💰"},"price":null,"currency":"CNY","moq":1,"category":"women-wallets","status":"active","alibaba_url":null,"images":["https://xcimg.szwego.com/img/102e1c0f/20250517/i1747466117614_128_0_0.jpg","https://xcimg.szwego.com/img/102e1c0f/20250517/i1747466117704_4533_0_1.jpg","https://xcimg.szwego.com/img/102e1c0f/20250517/i1747466117664_7527_0_2.jpg","https://xcimg.szwego.com/img/102e1c0f/20250517/i1747466117615_6170_0_3.jpg"],"created_at":"2025-08-03T05:43:10.098Z"},{"id":"item-d8c5b586e255","sku":"_dzCzC0fBk078LnPxNxGv4ReIR976UNyQUk_6Dvw","name_en":"专柜品质,顶级原单货,实物实拍!835120克荔纹,尺寸:宽19x高10.4x侧宽2.5,💰","name_cn":"专柜品质,顶级原单货,实物实拍!835120克荔纹,尺寸:宽19x高10.4x侧宽2.5,💰","specs":{"source":"wsxcme","sourceId":"_dzCzC0fBk078LnPxNxGv4ReIR976UNyQUk_6Dvw","sourceTagId":47002663,"sourceTagName":"长短款钱包","rawTitle":"专柜品质,顶级原单货,实物实拍!835120克荔纹,尺寸:宽19x高10.4x侧宽2.5,💰"},"price":null,"currency":"CNY","moq":1,"category":"women-wallets","status":"active","alibaba_url":null,"images":["https://xcimg.szwego.com/img/102e1c0f/20250612/i1749703550950_789_0_0.jpg","https://xcimg.szwego.com/img/102e1c0f/20250612/i1749703550965_7282_0_1.jpg","https://xcimg.szwego.com/img/102e1c0f/20250612/i1749703550892_8747_0_2.jpg","https://xcimg.szwego.com/img/102e1c0f/20250612/i1749703550958_2148_0_3.jpg"],"created_at":"2025-08-03T05:43:10.121Z"},{"id":"item-b6859867ca38","sku":"_ddHdHJ9lsWnpBDna8dHQcMBclyx55j6y3Jint7Q","name_en":"专柜品质,顶级原单货,实物实拍!835120绿荔纹,尺寸:宽19x高10.4x侧宽2.5,💰","name_cn":"专柜品质,顶级原单货,实物实拍!835120绿荔纹,尺寸:宽19x高10.4x侧宽2.5,💰","specs":{"source":"wsxcme","sourceId":"_ddHdHJ9lsWnpBDna8dHQcMBclyx55j6y3Jint7Q","sourceTagId":47002663,"sourceTagName":"长短款钱包","rawTitle":"专柜品质,顶级原单货,实物实拍!835120绿荔纹,尺寸:宽19x高10.4x侧宽2.5,💰"},"price":null,"currency":"CNY","moq":1,"category":"women-wallets","status":"active","alibaba_url":null,"images":["https://xcimg.szwego.com/img/102e1c0f/20250612/i1749703417806_457_0_0.jpg","https://xcimg.szwego.com/img/102e1c0f/20250612/i1749703417785_707_0_1.jpg","https://xcimg.szwego.com/img/102e1c0f/20250612/i1749703417675_9949_0_2.jpg","https://xcimg.szwego.com/img/102e1c0f/20250612/i1749703417777_1428_0_3.jpg"],"created_at":"2025-08-03T05:43:10.120Z"},{"id":"item-6fc97c6ffe8b","sku":"_do_o_r3esZ0hG8vOKc_6fsvvn0hsHQ1_bw0ebqw","name_en":"专柜品质,顶级原单货,实物实拍!款号456116克荔/酒红,尺寸:宽19x高10x侧宽3.5cm。💰","name_cn":"专柜品质,顶级原单货,实物实拍!款号456116克荔/酒红,尺寸:宽19x高10x侧宽3.5cm。💰","specs":{"source":"wsxcme","sourceId":"_do_o_r3esZ0hG8vOKc_6fsvvn0hsHQ1_bw0ebqw","sourceTagId":47002663,"sourceTagName":"长短款钱包","modelNumber":"456116克荔/酒红","rawTitle":"专柜品质,顶级原单货,实物实拍!款号456116克荔/酒红,尺寸:宽19x高10x侧宽3.5cm。💰"},"price":null,"currency":"CNY","moq":1,"category":"women-wallets","status":"active","alibaba_url":null,"images":["https://xcimg.szwego.com/img/102e1c0f/20250730/i1753860624937_8539_0_0.jpg","https://xcimg.szwego.com/img/102e1c0f/20250730/i1753860625019_2101_0_1.jpg","https://xcimg.szwego.com/img/102e1c0f/20250730/i1753860624980_4144_0_2.jpg","https://xcimg.szwego.com/img/102e1c0f/20250730/i1753860624898_2553_0_3.jpg"],"created_at":"2025-08-03T05:43:10.127Z"},{"id":"item-1b3cdc89bf44","sku":"_dj1j1h9Ls7Ko74OIlwT5N2ZgsQVngyV_Za9YliQ","name_en":"专柜品质,顶级原单货,实物实拍!款号456116浅蓝/酒红,尺寸:宽19x高10x侧宽3.5cm。💰","name_cn":"专柜品质,顶级原单货,实物实拍!款号456116浅蓝/酒红,尺寸:宽19x高10x侧宽3.5cm。💰","specs":{"source":"wsxcme","sourceId":"_dj1j1h9Ls7Ko74OIlwT5N2ZgsQVngyV_Za9YliQ","sourceTagId":47002663,"sourceTagName":"长短款钱包","modelNumber":"456116浅蓝/酒红","rawTitle":"专柜品质,顶级原单货,实物实拍!款号456116浅蓝/酒红,尺寸:宽19x高10x侧宽3.5cm。💰"},"price":null,"currency":"CNY","moq":1,"category":"women-wallets","status":"active","alibaba_url":null,"images":["https://xcimg.szwego.com/img/102e1c0f/20250605/i1749107206650_704_0_0.jpg","https://xcimg.szwego.com/img/102e1c0f/20250605/i1749107206622_154_0_1.jpg","https://xcimg.szwego.com/img/102e1c0f/20250605/i1749107206646_400_0_2.jpg","https://xcimg.szwego.com/img/102e1c0f/20250605/i1749107206569_5279_0_3.jpg"],"created_at":"2025-08-03T05:43:10.126Z"},{"id":"item-ce8336e236e2","sku":"_dpXpXyYx1hV7ReKoIXaZZG3nK7Csx9-FFB_4F_Q","name_en":"专柜品质,顶级原单货,实物实拍!款号790063浅蓝/酒红,尺寸:宽11.5X高8X侧宽3.5cm,💰","name_cn":"专柜品质,顶级原单货,实物实拍!款号790063浅蓝/酒红,尺寸:宽11.5X高8X侧宽3.5cm,💰","specs":{"source":"wsxcme","sourceId":"_dpXpXyYx1hV7ReKoIXaZZG3nK7Csx9-FFB_4F_Q","sourceTagId":47002663,"sourceTagName":"长短款钱包","modelNumber":"790063浅蓝/酒红","rawTitle":"专柜品质,顶级原单货,实物实拍!款号790063浅蓝/酒红,尺寸:宽11.5X高8X侧宽3.5cm,💰"},"price":null,"currency":"CNY","moq":1,"category":"women-wallets","status":"active","alibaba_url":null,"images":["https://xcimg.szwego.com/img/102e1c0f/20250605/i1749108349837_2330_0_0.jpg","https://xcimg.szwego.com/img/102e1c0f/20250605/i1749108349849_6542_0_1.jpg","https://xcimg.szwego.com/img/102e1c0f/20250605/i1749108349856_2752_0_3.jpg","https://xcimg.szwego.com/img/102e1c0f/20250605/i1749108349878_9774_0_2.jpg"],"created_at":"2025-08-03T05:43:10.128Z"},{"id":"item-b0126e42918a","sku":"_ddfdfZqCKBRSZIkgR8noI9j-3Av4AFWtVrcQKDg","name_en":"专柜品质,顶级原单货,实物实拍!款号835047克皮/白钢G,尺寸:宽11X高9,","name_cn":"专柜品质,顶级原单货,实物实拍!款号835047克皮/白钢G,尺寸:宽11X高9,","specs":{"source":"wsxcme","sourceId":"_ddfdfZqCKBRSZIkgR8noI9j-3Av4AFWtVrcQKDg","sourceTagId":47002663,"sourceTagName":"长短款钱包","modelNumber":"835047克皮/白钢G","rawTitle":"专柜品质,顶级原单货,实物实拍!款号835047克皮/白钢G,尺寸:宽11X高9,"},"price":null,"currency":"CNY","moq":1,"category":"women-wallets","status":"active","alibaba_url":null,"images":["https://xcimg.szwego.com/img/102e1c0f/20250527/i1748331009144_3474_0_0.jpg","https://xcimg.szwego.com/img/102e1c0f/20250527/i1748331009164_4268_0_1.jpg","https://xcimg.szwego.com/img/102e1c0f/20250527/i1748331009100_0_0_2.jpg","https://xcimg.szwego.com/img/102e1c0f/20250527/i1748331009170_8297_0_3.jpg"],"created_at":"2025-08-03T05:43:10.116Z"},{"id":"item-c8d50539cfc3","sku":"_d8C8CAkQoz6uKaSjXXdstBTU4vF8Tsw9CWDzHqw","name_en":"专柜品质,顶级原单货,实物实拍!款号835047克皮/橙G,尺寸:宽11X高9,","name_cn":"专柜品质,顶级原单货,实物实拍!款号835047克皮/橙G,尺寸:宽11X高9,","specs":{"source":"wsxcme","sourceId":"_d8C8CAkQoz6uKaSjXXdstBTU4vF8Tsw9CWDzHqw","sourceTagId":47002663,"sourceTagName":"长短款钱包","modelNumber":"835047克皮/橙G","rawTitle":"专柜品质,顶级原单货,实物实拍!款号835047克皮/橙G,尺寸:宽11X高9,"},"price":null,"currency":"CNY","moq":1,"category":"women-wallets","status":"active","alibaba_url":null,"images":["https://xcimg.szwego.com/img/102e1c0f/20250527/i1748331053174_458_0_0.jpg","https://xcimg.szwego.com/img/102e1c0f/20250527/i1748331053184_2415_0_1.jpg","https://xcimg.szwego.com/img/102e1c0f/20250527/i1748331053156_4681_0_2.jpg","https://xcimg.szwego.com/img/102e1c0f/20250527/i1748331053212_3323_0_3.jpg"],"created_at":"2025-08-03T05:43:10.114Z"},{"id":"item-80501c65ef30","sku":"_dvDvDXlAApZdoDZf19pvm2QessBej8P9Zz3JqPA","name_en":"专柜品质,顶级原单货,实物实拍!款号835047克皮/浅绿G,尺寸:宽11X高9,","name_cn":"专柜品质,顶级原单货,实物实拍!款号835047克皮/浅绿G,尺寸:宽11X高9,","specs":{"source":"wsxcme","sourceId":"_dvDvDXlAApZdoDZf19pvm2QessBej8P9Zz3JqPA","sourceTagId":47002663,"sourceTagName":"长短款钱包","modelNumber":"835047克皮/浅绿G","rawTitle":"专柜品质,顶级原单货,实物实拍!款号835047克皮/浅绿G,尺寸:宽11X高9,"},"price":null,"currency":"CNY","moq":1,"category":"women-wallets","status":"active","alibaba_url":null,"images":["https://xcimg.szwego.com/img/102e1c0f/20250527/i1748331037056_3766_0_0.jpg","https://xcimg.szwego.com/img/102e1c0f/20250527/i1748331037042_3195_0_1.jpg","https://xcimg.szwego.com/img/102e1c0f/20250527/i1748331037084_4481_0_2.jpg","https://xcimg.szwego.com/img/102e1c0f/20250527/i1748331037052_5463_0_3.jpg"],"created_at":"2025-08-03T05:43:10.115Z"},{"id":"item-de3a0f3d787f","sku":"_dueueVtlpNjjuKHTwhRtghhyis26fGSlmiCnREg","name_en":"专柜品质,顶级原单货,实物实拍!款号835048克皮/白钢G,尺寸:宽11X高9,","name_cn":"专柜品质,顶级原单货,实物实拍!款号835048克皮/白钢G,尺寸:宽11X高9,","specs":{"source":"wsxcme","sourceId":"_dueueVtlpNjjuKHTwhRtghhyis26fGSlmiCnREg","sourceTagId":47002663,"sourceTagName":"长短款钱包","modelNumber":"835048克皮/白钢G","rawTitle":"专柜品质,顶级原单货,实物实拍!款号835048克皮/白钢G,尺寸:宽11X高9,"},"price":null,"currency":"CNY","moq":1,"category":"women-wallets","status":"active","alibaba_url":null,"images":["https://xcimg.szwego.com/img/102e1c0f/20250527/i1748330875351_1591_0_0.jpg","https://xcimg.szwego.com/img/102e1c0f/20250527/i1748330875356_7702_0_1.jpg","https://xcimg.szwego.com/img/102e1c0f/20250527/i1748330875345_1280_0_2.jpg","https://xcimg.szwego.com/img/102e1c0f/20250527/i1748330875347_41_0_3.jpg"],"created_at":"2025-08-03T05:43:10.113Z"},{"id":"item-64348545a7e1","sku":"_dububhRpfzygVD4m5poXAAxEbjQTsJea_EDomcQ","name_en":"专柜品质,顶级原单货,实物实拍!款号835048克皮/橙G,尺寸:宽11X高9,","name_cn":"专柜品质,顶级原单货,实物实拍!款号835048克皮/橙G,尺寸:宽11X高9,","specs":{"source":"wsxcme","sourceId":"_dububhRpfzygVD4m5poXAAxEbjQTsJea_EDomcQ","sourceTagId":47002663,"sourceTagName":"长短款钱包","modelNumber":"835048克皮/橙G","rawTitle":"专柜品质,顶级原单货,实物实拍!款号835048克皮/橙G,尺寸:宽11X高9,"},"price":null,"currency":"CNY","moq":1,"category":"women-wallets","status":"active","alibaba_url":null,"images":["https://xcimg.szwego.com/img/102e1c0f/20250527/i1748330976061_9305_0_0.jpg","https://xcimg.szwego.com/img/102e1c0f/20250527/i1748330976040_5770_0_1.jpg","https://xcimg.szwego.com/img/102e1c0f/20250527/i1748330976028_9073_0_2.jpg","https://xcimg.szwego.com/img/102e1c0f/20250527/i1748330976034_6135_0_3.jpg"],"created_at":"2025-08-03T05:43:10.111Z"},{"id":"item-41160200bad8","sku":"_dktkt9CVPd38bI6QJX0MeSyJ_1sQsRtdD80qRWg","name_en":"专柜品质,顶级原单货,实物实拍!款号835048克皮/浅绿G,尺寸:宽11X高9,","name_cn":"专柜品质,顶级原单货,实物实拍!款号835048克皮/浅绿G,尺寸:宽11X高9,","specs":{"source":"wsxcme","sourceId":"_dktkt9CVPd38bI6QJX0MeSyJ_1sQsRtdD80qRWg","sourceTagId":47002663,"sourceTagName":"长短款钱包","modelNumber":"835048克皮/浅绿G","rawTitle":"专柜品质,顶级原单货,实物实拍!款号835048克皮/浅绿G,尺寸:宽11X高9,"},"price":null,"currency":"CNY","moq":1,"category":"women-wallets","status":"active","alibaba_url":null,"images":["https://xcimg.szwego.com/img/102e1c0f/20250527/i1748330938462_2270_0_0.jpg","https://xcimg.szwego.com/img/102e1c0f/20250527/i1748330938490_6614_0_1.jpg","https://xcimg.szwego.com/img/102e1c0f/20250527/i1748330938504_712_0_2.jpg","https://xcimg.szwego.com/img/102e1c0f/20250527/i1748330938468_5295_0_3.jpg"],"created_at":"2025-08-03T05:43:10.112Z"},{"id":"item-d217f68611bf","sku":"_dvVvVdhl7IYHEcooymJZMa1nUIu248UMKkaRB2w","name_en":"专柜品质,顶级原单货,实物实拍!款号835049克皮/白钢G,尺寸:宽11X高7cm,💰","name_cn":"专柜品质,顶级原单货,实物实拍!款号835049克皮/白钢G,尺寸:宽11X高7cm,💰","specs":{"source":"wsxcme","sourceId":"_dvVvVdhl7IYHEcooymJZMa1nUIu248UMKkaRB2w","sourceTagId":47002663,"sourceTagName":"长短款钱包","modelNumber":"835049克皮/白钢G","rawTitle":"专柜品质,顶级原单货,实物实拍!款号835049克皮/白钢G,尺寸:宽11X高7cm,💰"},"price":null,"currency":"CNY","moq":1,"category":"women-wallets","status":"active","alibaba_url":null,"images":["https://xcimg.szwego.com/img/102e1c0f/20250602/i1748840025210_9961_0_0.jpg","https://xcimg.szwego.com/img/102e1c0f/20250602/i1748840025252_220_0_1.jpg","https://xcimg.szwego.com/img/102e1c0f/20250602/i1748840025227_2198_0_2.jpg","https://xcimg.szwego.com/img/102e1c0f/20250602/i1748840025266_5513_0_3.jpg"],"created_at":"2025-08-03T05:43:10.119Z"},{"id":"item-14230736c9dc","sku":"_d_R_RLoF1z6R0jtyijquHcaOBUh9ohxuuuRK18Q","name_en":"专柜品质,顶级原单货,实物实拍!款号835049克皮/橙G,尺寸:宽11X高7cm,💰","name_cn":"专柜品质,顶级原单货,实物实拍!款号835049克皮/橙G,尺寸:宽11X高7cm,💰","specs":{"source":"wsxcme","sourceId":"_d_R_RLoF1z6R0jtyijquHcaOBUh9ohxuuuRK18Q","sourceTagId":47002663,"sourceTagName":"长短款钱包","modelNumber":"835049克皮/橙G","rawTitle":"专柜品质,顶级原单货,实物实拍!款号835049克皮/橙G,尺寸:宽11X高7cm,💰"},"price":null,"currency":"CNY","moq":1,"category":"women-wallets","status":"active","alibaba_url":null,"images":["https://xcimg.szwego.com/img/102e1c0f/20250602/i1748839971551_6346_0_0.jpg","https://xcimg.szwego.com/img/102e1c0f/20250602/i1748839971575_4039_0_1.jpg","https://xcimg.szwego.com/img/102e1c0f/20250602/i1748839971542_8593_0_2.jpg","https://xcimg.szwego.com/img/102e1c0f/20250602/i1748839971554_6275_0_3.jpg"],"created_at":"2025-08-03T05:43:10.117Z"}],"page":19,"pageSize":24,"total":830,"totalPages":35}
