{"items":[{"id":"item-bc87f49079ff","sku":"_dcIcI7CogcOByFHORYhBOyHWSsB7FvAWntak-zg","name_en":"升级版2025 Loewe罗意威新款卡片包","name_cn":"升级版2025 Loewe罗意威新款卡片包\n信用卡 小零钱 水波纹牛皮\n相比老款精致啦不止一点点呀~~配盒、防尘袋! 情人节选这种小配饰也不错 ~~\n款号:L1149\n尺寸:10*7.5cm","specs":{"source":"wsxcme","sourceId":"_dcIcI7CogcOByFHORYhBOyHWSsB7FvAWntak-zg","sourceTagId":47002663,"sourceTagName":"长短款钱包","modelNumber":"L1149","rawTitle":"升级版2025 Loewe罗意威新款卡片包\n信用卡 小零钱 水波纹牛皮\n相比老款精致啦不止一点点呀~~配盒、防尘袋! 情人节选这种小配饰也不错 ~~\n款号:L1149\n尺寸:10*7.5cm"},"price":null,"currency":"CNY","moq":1,"category":"women-wallets","status":"active","alibaba_url":null,"images":["https://xcimg.szwego.com/imgHD/80e46a01/20260102/cmp_i1767355054486_8433_0_0.jpg","https://xcimg.szwego.com/imgHD/80e46a01/20260102/cmp_i1767355053477_7652_0_1.jpg","https://xcimg.szwego.com/imgHD/80e46a01/20260102/cmp_i1767355053492_9267_0_2.jpg","https://xcimg.szwego.com/imgHD/80e46a01/20260102/cmp_i1767355053482_3553_0_3.jpg","https://xcimg.szwego.com/imgHD/80e46a01/20260102/cmp_i1767355053432_3246_0_4.jpg","https://xcimg.szwego.com/imgHD/80e46a01/20260102/cmp_i1767355053473_2259_0_5.jpg"],"created_at":"2026-05-20T08:55:15.974Z"},{"id":"item-a24f791dc0e3","sku":"_dehehe9r7QiXhzE8BLiUyizTKQcTFGUkPrgAeXg","name_en":"升级版2025 Loewe罗意威新款卡片包","name_cn":"升级版2025 Loewe罗意威新款卡片包\n信用卡 小零钱 荔枝纹牛皮\n相比老款精致啦不止一点点呀~~配盒、防尘袋! 情人节选这种小配饰也不错 ~~\n款号:L1150\n尺寸:10*7.5cm","specs":{"source":"wsxcme","sourceId":"_dehehe9r7QiXhzE8BLiUyizTKQcTFGUkPrgAeXg","sourceTagId":47002663,"sourceTagName":"长短款钱包","modelNumber":"L1150","rawTitle":"升级版2025 Loewe罗意威新款卡片包\n信用卡 小零钱 荔枝纹牛皮\n相比老款精致啦不止一点点呀~~配盒、防尘袋! 情人节选这种小配饰也不错 ~~\n款号:L1150\n尺寸:10*7.5cm"},"price":null,"currency":"CNY","moq":1,"category":"women-wallets","status":"active","alibaba_url":null,"images":["https://xcimg.szwego.com/imgHD/80e46a01/20260102/cmp_i1767354492661_8596_0_0.jpg","https://xcimg.szwego.com/imgHD/80e46a01/20260102/cmp_i1767354492669_9368_0_1.jpg","https://xcimg.szwego.com/imgHD/80e46a01/20260102/cmp_i1767354492688_6810_0_2.jpg","https://xcimg.szwego.com/imgHD/80e46a01/20260102/cmp_i1767354492616_6329_0_3.jpg","https://xcimg.szwego.com/imgHD/80e46a01/20260102/cmp_i1767354492605_7667_0_4.jpg","https://xcimg.szwego.com/imgHD/80e46a01/20260102/cmp_i1767354493653_3990_0_5.jpg"],"created_at":"2026-05-20T08:55:16.064Z"},{"id":"item-81dc6a189917","sku":"_di7i7CzGd3-1w_w34B81HsmkGypydVEgvjV7GTg","name_en":"升级版2025 Loewe罗意威新款卡片包","name_cn":"升级版2025 Loewe罗意威新款卡片包\n信用卡 小零钱 荔枝纹牛皮\n相比老款精致啦不止一点点呀~~配盒、防尘袋! 情人节选这种小配饰也不错 ~~\n款号:L1150\n尺寸:10*7.5cm","specs":{"source":"wsxcme","sourceId":"_di7i7CzGd3-1w_w34B81HsmkGypydVEgvjV7GTg","sourceTagId":47002663,"sourceTagName":"长短款钱包","modelNumber":"L1150","rawTitle":"升级版2025 Loewe罗意威新款卡片包\n信用卡 小零钱 荔枝纹牛皮\n相比老款精致啦不止一点点呀~~配盒、防尘袋! 情人节选这种小配饰也不错 ~~\n款号:L1150\n尺寸:10*7.5cm"},"price":null,"currency":"CNY","moq":1,"category":"women-wallets","status":"active","alibaba_url":null,"images":["https://xcimg.szwego.com/imgHD/80e46a01/20260102/cmp_i1767354570493_7393_0_0.jpg","https://xcimg.szwego.com/imgHD/80e46a01/20260102/cmp_i1767354570505_8236_0_1.jpg","https://xcimg.szwego.com/imgHD/80e46a01/20260102/cmp_i1767354570526_7492_0_2.jpg","https://xcimg.szwego.com/imgHD/80e46a01/20260102/cmp_i1767354570456_2643_0_3.jpg","https://xcimg.szwego.com/imgHD/80e46a01/20260102/cmp_i1767354571498_5184_0_4.jpg","https://xcimg.szwego.com/imgHD/80e46a01/20260102/cmp_i1767354570491_9271_0_5.jpg"],"created_at":"2026-05-20T08:55:16.044Z"},{"id":"item-5dc6dd140526","sku":"_d_r_rmZODapHE_lkPsWuVqshCmnETvFWflQ-sYA","name_en":"升级版2025 Loewe罗意威新款卡片包","name_cn":"升级版2025 Loewe罗意威新款卡片包\n信用卡 小零钱 水波纹牛皮\n相比老款精致啦不止一点点呀~~配盒、防尘袋! 情人节选这种小配饰也不错 ~~\n款号:L1149\n尺寸:10*7.5cm","specs":{"source":"wsxcme","sourceId":"_d_r_rmZODapHE_lkPsWuVqshCmnETvFWflQ-sYA","sourceTagId":47002663,"sourceTagName":"长短款钱包","modelNumber":"L1149","rawTitle":"升级版2025 Loewe罗意威新款卡片包\n信用卡 小零钱 水波纹牛皮\n相比老款精致啦不止一点点呀~~配盒、防尘袋! 情人节选这种小配饰也不错 ~~\n款号:L1149\n尺寸:10*7.5cm"},"price":null,"currency":"CNY","moq":1,"category":"women-wallets","status":"active","alibaba_url":null,"images":["https://xcimg.szwego.com/imgHD/80e46a01/20260102/cmp_i1767354943725_8601_0_0.jpg","https://xcimg.szwego.com/imgHD/80e46a01/20260102/cmp_i1767354944716_7111_0_1.jpg","https://xcimg.szwego.com/imgHD/80e46a01/20260102/cmp_i1767354943727_5524_0_2.jpg","https://xcimg.szwego.com/imgHD/80e46a01/20260102/cmp_i1767354943704_6929_0_3.jpg","https://xcimg.szwego.com/imgHD/80e46a01/20260102/cmp_i1767354943692_5501_0_4.jpg","https://xcimg.szwego.com/imgHD/80e46a01/20260102/cmp_i1767354943725_7416_0_5.jpg"],"created_at":"2026-05-20T08:55:16.014Z"},{"id":"item-455afd200db6","sku":"_dj3j3RGcc52pA_WYNZyoGehqGj3fKwiHiqLsYFA","name_en":"升级版2025 Loewe罗意威新款卡片包","name_cn":"升级版2025 Loewe罗意威新款卡片包\n信用卡 小零钱 荔枝纹牛皮\n相比老款精致啦不止一点点呀~~配盒、防尘袋! 情人节选这种小配饰也不错 ~~\n款号:L1150\n尺寸:10*7.5cm","specs":{"source":"wsxcme","sourceId":"_dj3j3RGcc52pA_WYNZyoGehqGj3fKwiHiqLsYFA","sourceTagId":47002663,"sourceTagName":"长短款钱包","modelNumber":"L1150","rawTitle":"升级版2025 Loewe罗意威新款卡片包\n信用卡 小零钱 荔枝纹牛皮\n相比老款精致啦不止一点点呀~~配盒、防尘袋! 情人节选这种小配饰也不错 ~~\n款号:L1150\n尺寸:10*7.5cm"},"price":null,"currency":"CNY","moq":1,"category":"women-wallets","status":"active","alibaba_url":null,"images":["https://xcimg.szwego.com/imgHD/80e46a01/20260102/cmp_i1767354553533_2559_0_0.jpg","https://xcimg.szwego.com/imgHD/80e46a01/20260102/cmp_i1767354552912_635_0_1.jpg","https://xcimg.szwego.com/imgHD/80e46a01/20260102/cmp_i1767354552881_6288_0_2.jpg","https://xcimg.szwego.com/imgHD/80e46a01/20260102/cmp_i1767354552849_1745_0_3.jpg","https://xcimg.szwego.com/imgHD/80e46a01/20260102/cmp_i1767354552891_1354_0_4.jpg","https://xcimg.szwego.com/imgHD/80e46a01/20260102/cmp_i1767354552904_9601_0_5.jpg"],"created_at":"2026-05-20T08:55:16.054Z"},{"id":"item-3eace09ab9e8","sku":"_duxuxVFT_43yoNcwcwUs8uDiPc5CIYGY4YKNGwA","name_en":"升级版2025 Loewe罗意威新款卡片包","name_cn":"升级版2025 Loewe罗意威新款卡片包\n信用卡 小零钱 荔枝纹牛皮\n相比老款精致啦不止一点点呀~~配盒、防尘袋! 情人节选这种小配饰也不错 ~~\n款号:L1150\n尺寸:10*7.5cm","specs":{"source":"wsxcme","sourceId":"_duxuxVFT_43yoNcwcwUs8uDiPc5CIYGY4YKNGwA","sourceTagId":47002663,"sourceTagName":"长短款钱包","modelNumber":"L1150","rawTitle":"升级版2025 Loewe罗意威新款卡片包\n信用卡 小零钱 荔枝纹牛皮\n相比老款精致啦不止一点点呀~~配盒、防尘袋! 情人节选这种小配饰也不错 ~~\n款号:L1150\n尺寸:10*7.5cm"},"price":null,"currency":"CNY","moq":1,"category":"women-wallets","status":"active","alibaba_url":null,"images":["https://xcimg.szwego.com/imgHD/80e46a01/20260102/cmp_i1767354542413_3374_0_0.jpg","https://xcimg.szwego.com/imgHD/80e46a01/20260102/cmp_i1767354542389_8867_0_1.jpg","https://xcimg.szwego.com/imgHD/80e46a01/20260102/cmp_i1767354542355_3456_0_2.jpg","https://xcimg.szwego.com/imgHD/80e46a01/20260102/cmp_i1767354542297_5378_0_3.jpg","https://xcimg.szwego.com/imgHD/80e46a01/20260102/cmp_i1767354542343_1254_0_4.jpg","https://xcimg.szwego.com/imgHD/80e46a01/20260102/cmp_i1767354543345_7304_0_5.jpg"],"created_at":"2026-05-20T08:55:16.034Z"},{"id":"item-2ba49ffafe38","sku":"_dA6A6Uo-Q70hSe3sX0SWHSLkjdvWlRXUxOu8Nqw","name_en":"升级版2025 Loewe罗意威新款卡片包","name_cn":"升级版2025 Loewe罗意威新款卡片包\n信用卡 小零钱 水波纹牛皮\n相比老款精致啦不止一点点呀~~配盒、防尘袋! 情人节选这种小配饰也不错 ~~\n款号:L1149\n尺寸:10*7.5cm","specs":{"source":"wsxcme","sourceId":"_dA6A6Uo-Q70hSe3sX0SWHSLkjdvWlRXUxOu8Nqw","sourceTagId":47002663,"sourceTagName":"长短款钱包","modelNumber":"L1149","rawTitle":"升级版2025 Loewe罗意威新款卡片包\n信用卡 小零钱 水波纹牛皮\n相比老款精致啦不止一点点呀~~配盒、防尘袋! 情人节选这种小配饰也不错 ~~\n款号:L1149\n尺寸:10*7.5cm"},"price":null,"currency":"CNY","moq":1,"category":"women-wallets","status":"active","alibaba_url":null,"images":["https://xcimg.szwego.com/imgHD/80e46a01/20260102/cmp_i1767354999890_5806_0_0.jpg","https://xcimg.szwego.com/imgHD/80e46a01/20260102/cmp_i1767354999813_6597_0_1.jpg","https://xcimg.szwego.com/imgHD/80e46a01/20260102/cmp_i1767354999875_404_0_2.jpg","https://xcimg.szwego.com/imgHD/80e46a01/20260102/cmp_i1767354999891_6978_0_3.jpg","https://xcimg.szwego.com/imgHD/80e46a01/20260102/cmp_i1767355000420_1003_0_4.jpg","https://xcimg.szwego.com/imgHD/80e46a01/20260102/cmp_i1767354999880_2698_0_5.jpg"],"created_at":"2026-05-20T08:55:15.984Z"},{"id":"item-894683bf03ae","sku":"_dyNyNxFj9z9Ey0CiToeT-nBPI4P9tuQHJZekpkQ","name_en":"升级版LOEWE","name_cn":"升级版LOEWE \n小号 七字拉链 小零钱包 \n牛皮 制作拼色设计\n颜色如图 \n尺寸:12.5*7.5*1.5cm\n做工精致,  媲美!多功能小卡包,超级实用\n款号:L1144","specs":{"source":"wsxcme","sourceId":"_dyNyNxFj9z9Ey0CiToeT-nBPI4P9tuQHJZekpkQ","sourceTagId":47002663,"sourceTagName":"长短款钱包","modelNumber":"L1144","dimensions":{"lengthCm":12.5,"heightCm":7.5,"widthCm":1.5},"rawTitle":"升级版LOEWE \n小号 七字拉链 小零钱包 \n牛皮 制作拼色设计\n颜色如图 \n尺寸:12.5*7.5*1.5cm\n做工精致,  媲美!多功能小卡包,超级实用\n款号:L1144"},"price":null,"currency":"CNY","moq":1,"category":"women-wallets","status":"active","alibaba_url":null,"images":["https://xcimg.szwego.com/imgHD/80e46a01/20260107/cmp_i1767749655915_5199_0_6.jpg","https://xcimg.szwego.com/imgHD/80e46a01/20260107/cmp_i1767764171754_3030_0_1.jpg","https://xcimg.szwego.com/imgHD/80e46a01/20260107/cmp_i1767749558156_1929_0_2.jpg","https://xcimg.szwego.com/imgHD/80e46a01/20260107/cmp_i1767749558188_4471_0_3.jpg","https://xcimg.szwego.com/imgHD/80e46a01/20260107/cmp_i1767749558204_9480_0_4.jpg","https://xcimg.szwego.com/imgHD/80e46a01/20260107/cmp_i1767749558230_7043_0_5.jpg"],"created_at":"2026-05-20T08:55:15.604Z"},{"id":"item-7212e80e5dc1","sku":"_dwWwWrKFzqMrRDtDY7Vc-dm2mPxVlHgL_gUqWDA","name_en":"升级版LOEWE","name_cn":"升级版LOEWE \n小号 七字拉链 小零钱包 \n牛皮 制作 压logo\n颜色如图 \n尺寸:12.5*7.5*1.5cm\n做工精致,  媲美!多功能小卡包,超级实用\n款号:L1148","specs":{"source":"wsxcme","sourceId":"_dwWwWrKFzqMrRDtDY7Vc-dm2mPxVlHgL_gUqWDA","sourceTagId":47002663,"sourceTagName":"长短款钱包","modelNumber":"L1148","dimensions":{"lengthCm":12.5,"heightCm":7.5,"widthCm":1.5},"rawTitle":"升级版LOEWE \n小号 七字拉链 小零钱包 \n牛皮 制作 压logo\n颜色如图 \n尺寸:12.5*7.5*1.5cm\n做工精致,  媲美!多功能小卡包,超级实用\n款号:L1148"},"price":null,"currency":"CNY","moq":1,"category":"women-wallets","status":"active","alibaba_url":null,"images":["https://xcimg.szwego.com/imgHD/80e46a01/20260106/cmp_i1767699624000_587_0_0.jpg","https://xcimg.szwego.com/imgHD/80e46a01/20260106/cmp_i1767699623035_5195_0_1.jpg","https://xcimg.szwego.com/imgHD/80e46a01/20260106/cmp_i1767699623002_3335_0_2.jpg","https://xcimg.szwego.com/imgHD/80e46a01/20260106/cmp_i1767699622960_1795_0_3.jpg","https://xcimg.szwego.com/imgHD/80e46a01/20260106/cmp_i1767699622963_8552_0_4.jpg","https://xcimg.szwego.com/imgHD/80e46a01/20260106/cmp_i1767699622999_3059_0_5.jpg"],"created_at":"2026-05-20T08:55:15.764Z"},{"id":"item-5541480e0d06","sku":"_dlUlUialJMgA8LGOYSxwq7Wxt54ISlKbB5EEXRA","name_en":"升级版LOEWE","name_cn":"升级版LOEWE \n小号 七字拉链 小零钱包 \n牛皮 制作 压logo\n颜色如图 \n尺寸:12.5*7.5*1.5cm\n做工精致,  媲美!多功能小卡包,超级实用\n款号:L1148","specs":{"source":"wsxcme","sourceId":"_dlUlUialJMgA8LGOYSxwq7Wxt54ISlKbB5EEXRA","sourceTagId":47002663,"sourceTagName":"长短款钱包","modelNumber":"L1148","dimensions":{"lengthCm":12.5,"heightCm":7.5,"widthCm":1.5},"rawTitle":"升级版LOEWE \n小号 七字拉链 小零钱包 \n牛皮 制作 压logo\n颜色如图 \n尺寸:12.5*7.5*1.5cm\n做工精致,  媲美!多功能小卡包,超级实用\n款号:L1148"},"price":null,"currency":"CNY","moq":1,"category":"women-wallets","status":"active","alibaba_url":null,"images":["https://xcimg.szwego.com/imgHD/80e46a01/20260106/cmp_i1767699667717_6036_0_0.jpg","https://xcimg.szwego.com/imgHD/80e46a01/20260106/cmp_i1767699666752_9341_0_1.jpg","https://xcimg.szwego.com/imgHD/80e46a01/20260106/cmp_i1767699666694_8021_0_2.jpg","https://xcimg.szwego.com/imgHD/80e46a01/20260106/cmp_i1767699666668_4246_0_3.jpg","https://xcimg.szwego.com/imgHD/80e46a01/20260106/cmp_i1767699666717_8191_0_4.jpg","https://xcimg.szwego.com/imgHD/80e46a01/20260106/cmp_i1767699666710_9910_0_5.jpg"],"created_at":"2026-05-20T08:55:15.754Z"},{"id":"item-2cf0f5e317ca","sku":"_dkIkISe3y8qaDHj4YHn-IhcqBGVInhrTi9LEDgg","name_en":"升级版LOEWE","name_cn":"升级版LOEWE \n小号 七字拉链 小零钱包 \n牛皮 制作 压logo\n颜色如图 \n尺寸:12.5*7.5*1.5cm\n做工精致,  媲美!多功能小卡包,超级实用\n款号:L1148","specs":{"source":"wsxcme","sourceId":"_dkIkISe3y8qaDHj4YHn-IhcqBGVInhrTi9LEDgg","sourceTagId":47002663,"sourceTagName":"长短款钱包","modelNumber":"L1148","dimensions":{"lengthCm":12.5,"heightCm":7.5,"widthCm":1.5},"rawTitle":"升级版LOEWE \n小号 七字拉链 小零钱包 \n牛皮 制作 压logo\n颜色如图 \n尺寸:12.5*7.5*1.5cm\n做工精致,  媲美!多功能小卡包,超级实用\n款号:L1148"},"price":null,"currency":"CNY","moq":1,"category":"women-wallets","status":"active","alibaba_url":null,"images":["https://xcimg.szwego.com/imgHD/80e46a01/20260106/cmp_i1767699702241_4000_0_0.jpg","https://xcimg.szwego.com/imgHD/80e46a01/20260106/cmp_i1767699702275_4541_0_1.jpg","https://xcimg.szwego.com/imgHD/80e46a01/20260106/cmp_i1767699702248_8676_0_2.jpg","https://xcimg.szwego.com/imgHD/80e46a01/20260106/cmp_i1767699702248_7841_0_3.jpg","https://xcimg.szwego.com/imgHD/80e46a01/20260106/cmp_i1767699702259_4313_0_4.jpg","https://xcimg.szwego.com/imgHD/80e46a01/20260106/cmp_i1767699702863_1933_0_5.jpg"],"created_at":"2026-05-20T08:55:15.734Z"},{"id":"item-2483fe7a9cad","sku":"_dqgqgrCit9A53K09kt76Ry7azziIh5wRp_L7V8w","name_en":"升级版LOEWE","name_cn":"升级版LOEWE \n小号 七字拉链 小零钱包 \n牛皮 制作 压logo\n颜色如图 \n尺寸:12.5*7.5*1.5cm\n做工精致,  媲美!多功能小卡包,超级实用\n款号:L1148","specs":{"source":"wsxcme","sourceId":"_dqgqgrCit9A53K09kt76Ry7azziIh5wRp_L7V8w","sourceTagId":47002663,"sourceTagName":"长短款钱包","modelNumber":"L1148","dimensions":{"lengthCm":12.5,"heightCm":7.5,"widthCm":1.5},"rawTitle":"升级版LOEWE \n小号 七字拉链 小零钱包 \n牛皮 制作 压logo\n颜色如图 \n尺寸:12.5*7.5*1.5cm\n做工精致,  媲美!多功能小卡包,超级实用\n款号:L1148"},"price":null,"currency":"CNY","moq":1,"category":"women-wallets","status":"active","alibaba_url":null,"images":["https://xcimg.szwego.com/imgHD/80e46a01/20260106/cmp_i1767699683162_7361_0_0.jpg","https://xcimg.szwego.com/imgHD/80e46a01/20260106/cmp_i1767699683158_3703_0_1.jpg","https://xcimg.szwego.com/imgHD/80e46a01/20260106/cmp_i1767699683180_9480_0_2.jpg","https://xcimg.szwego.com/imgHD/80e46a01/20260106/cmp_i1767699683130_8730_0_3.jpg","https://xcimg.szwego.com/imgHD/80e46a01/20260106/cmp_i1767699683839_9191_0_4.jpg","https://xcimg.szwego.com/imgHD/80e46a01/20260106/cmp_i1767699683195_8151_0_5.jpg"],"created_at":"2026-05-20T08:55:15.744Z"},{"id":"item-201cd3ae72d3","sku":"_dpcpcggDzVVGFiGV7et85aj_ue76KkTaZXxgN2Q","name_en":"升级版LOEWE","name_cn":"升级版LOEWE \n小号 七字拉链 小零钱包 \n牛皮 制作拼色设计\n颜色如图 \n尺寸:12.5*7.5*1.5cm\n做工精致,  媲美!多功能小卡包,超级实用\n款号:L1144","specs":{"source":"wsxcme","sourceId":"_dpcpcggDzVVGFiGV7et85aj_ue76KkTaZXxgN2Q","sourceTagId":47002663,"sourceTagName":"长短款钱包","modelNumber":"L1144","dimensions":{"lengthCm":12.5,"heightCm":7.5,"widthCm":1.5},"rawTitle":"升级版LOEWE \n小号 七字拉链 小零钱包 \n牛皮 制作拼色设计\n颜色如图 \n尺寸:12.5*7.5*1.5cm\n做工精致,  媲美!多功能小卡包,超级实用\n款号:L1144"},"price":null,"currency":"CNY","moq":1,"category":"women-wallets","status":"active","alibaba_url":null,"images":["https://xcimg.szwego.com/imgHD/80e46a01/20260107/cmp_i1767764169391_2482_0_0.jpg","https://xcimg.szwego.com/imgHD/80e46a01/20260107/cmp_i1767749574681_4990_0_1.jpg","https://xcimg.szwego.com/imgHD/80e46a01/20260107/cmp_i1767749574683_397_0_2.jpg","https://xcimg.szwego.com/imgHD/80e46a01/20260107/cmp_i1767749574698_2557_0_3.jpg","https://xcimg.szwego.com/imgHD/80e46a01/20260107/cmp_i1767749574659_5703_0_4.jpg","https://xcimg.szwego.com/imgHD/80e46a01/20260107/cmp_i1767749574667_9080_0_5.jpg"],"created_at":"2026-05-20T08:55:15.614Z"},{"id":"item-dd6cf16f1a68","sku":"_dqjqjtSafKwGFknRA-6sO5enKhslReVicK0RpXQ","name_en":"实物拍摄M30995短夹","name_cn":"实物拍摄M30995短夹\nMULTIPLE 钱夹\n本款 Multiple 钱夹解读 Taïgarama 系列的摩登生活理念,以 Taïga 皮革和 Monogram Eclipse 帆布的融合呈现紧凑设计,可轻松置于多数口袋中,内设钞票隔层和卡位\n11.5 x 9.0 x 1.5 cm","specs":{"source":"wsxcme","sourceId":"_dqjqjtSafKwGFknRA-6sO5enKhslReVicK0RpXQ","sourceTagId":47002663,"sourceTagName":"长短款钱包","rawTitle":"实物拍摄M30995短夹\nMULTIPLE 钱夹\n本款 Multiple 钱夹解读 Taïgarama 系列的摩登生活理念,以 Taïga 皮革和 Monogram Eclipse 帆布的融合呈现紧凑设计,可轻松置于多数口袋中,内设钞票隔层和卡位\n11.5 x 9.0 x 1.5 cm"},"price":null,"currency":"CNY","moq":1,"category":"women-wallets","status":"active","alibaba_url":null,"images":["https://xcimg.szwego.com/img/9363eb03/20240318/i1710740380_8384_2.jpg","https://xcimg.szwego.com/img/9363eb03/20240318/i1710740380_308_0.jpg","https://xcimg.szwego.com/img/9363eb03/20240318/i1710740380_662_3.jpg","https://xcimg.szwego.com/img/9363eb03/20240318/i1710740380_666_5.jpg","https://xcimg.szwego.com/img/9363eb03/20240318/i1710740380_6204_1.jpg","https://xcimg.szwego.com/img/9363eb03/20240318/i1710740380_9964_6.jpg","https://xcimg.szwego.com/img/9363eb03/20240318/i1710740380_8321_4.jpg","https://xcimg.szwego.com/img/9363eb03/20240318/i1710740380_9171_7.jpg","https://xcimg.szwego.com/img/9363eb03/20240318/i1710740380_7128_8.jpg"],"created_at":"2024-05-08T09:49:54.887Z"},{"id":"item-43c6377d37c9","sku":"_d8383x-Rdz2rLA4HeuWl2tGdPqkkLtQJZHbebqw","name_en":"实物拍摄Taïgarama 系列 Zippy Vertical 钱夹","name_cn":"实物拍摄Taïgarama 系列 Zippy Vertical 钱夹\nM30944单拉\n拼接 Taïga 皮革与 Monogram Eclipse 帆布,搭配环绕式拉链结构,稳妥保护井然有序的内部空间,设有钞票风琴隔层、拉链零钱袋和卡位。","specs":{"source":"wsxcme","sourceId":"_d8383x-Rdz2rLA4HeuWl2tGdPqkkLtQJZHbebqw","sourceTagId":47002663,"sourceTagName":"长短款钱包","rawTitle":"实物拍摄Taïgarama 系列 Zippy Vertical 钱夹\nM30944单拉\n拼接 Taïga 皮革与 Monogram Eclipse 帆布,搭配环绕式拉链结构,稳妥保护井然有序的内部空间,设有钞票风琴隔层、拉链零钱袋和卡位。"},"price":null,"currency":"CNY","moq":1,"category":"women-wallets","status":"active","alibaba_url":null,"images":["https://xcimg.szwego.com/img/9363eb03/20240318/i1710740740_1358_5.jpg","https://xcimg.szwego.com/img/9363eb03/20240318/i1710740740_1404_4.jpg","https://xcimg.szwego.com/img/9363eb03/20240318/i1710740740_6598_7.jpg","https://xcimg.szwego.com/img/9363eb03/20240318/i1710740740_5729_3.jpg","https://xcimg.szwego.com/img/9363eb03/20240318/i1710740740_6241_1.jpg","https://xcimg.szwego.com/img/9363eb03/20240318/i1710740740_9653_0.jpg","https://xcimg.szwego.com/img/9363eb03/20240318/i1710740740_7648_6.jpg","https://xcimg.szwego.com/img/9363eb03/20240318/i1710740740_963_2.jpg","https://xcimg.szwego.com/img/9363eb03/20240318/i1710740740_4876_8.jpg"],"created_at":"2024-05-08T09:49:54.889Z"},{"id":"item-dda61a791e34","sku":"_dyGyGJjis9Ouqoj4tw6WEmHf96naVCUTweITUNQ","name_en":"双折钱夹,装饰Burberry格纹,内衬为光滑小牛皮材质。8个卡位","name_cn":"双折钱夹,装饰Burberry格纹,内衬为光滑小牛皮材质。8个卡位\n纸币隔层含隔挡,适用于全球币种2个插袋\n手绘涂漆边缘\n正面饰有 Burberry 立体字母徽标8个卡位\n纸币隔层含隔挡,适用于全球币种2个插袋\n手绘涂漆边缘商品 80702731","specs":{"source":"wsxcme","sourceId":"_dyGyGJjis9Ouqoj4tw6WEmHf96naVCUTweITUNQ","sourceTagId":47002663,"sourceTagName":"长短款钱包","rawTitle":"双折钱夹,装饰Burberry格纹,内衬为光滑小牛皮材质。8个卡位\n纸币隔层含隔挡,适用于全球币种2个插袋\n手绘涂漆边缘\n正面饰有 Burberry 立体字母徽标8个卡位\n纸币隔层含隔挡,适用于全球币种2个插袋\n手绘涂漆边缘商品 80702731"},"price":null,"currency":"CNY","moq":1,"category":"women-wallets","status":"active","alibaba_url":null,"images":["https://xcimg.szwego.com/img/74ed5653/20240426/a1714142856114_3272.jpg","https://xcimg.szwego.com/img/74ed5653/20240426/a1714142856237_7385.jpg","https://xcimg.szwego.com/img/74ed5653/20240426/a1714142856264_6802.jpg","https://xcimg.szwego.com/img/74ed5653/20240426/a1714142856286_3036.jpg","https://xcimg.szwego.com/img/74ed5653/20240426/a1714142856352_4426.jpg","https://xcimg.szwego.com/img/74ed5653/20240426/a1714142856612_3254.jpg","https://xcimg.szwego.com/img/74ed5653/20240426/a1714142859645_0886.jpg","https://xcimg.szwego.com/img/74ed5653/20240426/a1714142859667_5660.jpg","https://xcimg.szwego.com/img/74ed5653/20240426/a1714142859510_1704.jpg"],"created_at":"2025-01-20T13:06:05.262Z"},{"id":"item-f70fa40fed6f","sku":"_dxWxW2eBBM0KhVeSnoAx_D2Ftgo6rCO3HEULXtA","name_en":"新版本口袋小钱包💗pocket wallet💗专柜新款小钱夹🔥型号:5MV204🆕🆕💃💃里外都是进口顶级羊皮🐮👋内压198A💞百元钞银行卡硬币零钱通通可以收入其中💅💅尺寸:11.5 X8 cm,配原版包装","name_cn":"新版本口袋小钱包💗pocket wallet💗专柜新款小钱夹🔥型号:5MV204🆕🆕💃💃里外都是进口顶级羊皮🐮👋内压198A💞百元钞银行卡硬币零钱通通可以收入其中💅💅尺寸:11.5 X8 cm,配原版包装","specs":{"source":"wsxcme","sourceId":"_dxWxW2eBBM0KhVeSnoAx_D2Ftgo6rCO3HEULXtA","sourceTagId":47002663,"sourceTagName":"长短款钱包","modelNumber":"5MV204🆕🆕💃💃里外都是进口顶级羊皮🐮👋内压198A💞百元钞银行卡硬币零钱通通可以收入其中💅💅尺寸:11.5 X8 cm","rawTitle":"新版本口袋小钱包💗pocket wallet💗专柜新款小钱夹🔥型号:5MV204🆕🆕💃💃里外都是进口顶级羊皮🐮👋内压198A💞百元钞银行卡硬币零钱通通可以收入其中💅💅尺寸:11.5 X8 cm,配原版包装"},"price":null,"currency":"CNY","moq":1,"category":"women-wallets","status":"active","alibaba_url":null,"images":["https://xcimg.szwego.com/20240923/i1727055774_1504_0.jpg","https://xcimg.szwego.com/20240923/i1727055774_1049_1.jpg","https://xcimg.szwego.com/20240923/i1727055774_1001_2.jpg","https://xcimg.szwego.com/20240923/i1727055774_1041_3.jpg","https://xcimg.szwego.com/20240923/i1727055789_9011_0.jpg","https://xcimg.szwego.com/20240923/i1727055774_3148_5.jpg","https://xcimg.szwego.com/20240923/i1727055774_2261_6.jpg","https://xcimg.szwego.com/20240923/i1727055774_7107_7.jpg","https://xcimg.szwego.com/20240923/i1727055774_7612_8.jpg"],"created_at":"2025-01-20T12:58:24.671Z"},{"id":"item-b13061dd4fd5","sku":"_dcjcjaSODN2dafv4G0K7ASijeZfazBsY0R7QN-g","name_en":"新版本口袋小钱包💗pocket wallet💗专柜新款小钱夹🔥型号:5MV204🆕🆕💃💃里外都是进口顶级羊皮🐮👋内压198A💞百元钞银行卡硬币零钱通通可以收入其中💅💅尺寸:11.5 X8 cm,配原版包装","name_cn":"新版本口袋小钱包💗pocket wallet💗专柜新款小钱夹🔥型号:5MV204🆕🆕💃💃里外都是进口顶级羊皮🐮👋内压198A💞百元钞银行卡硬币零钱通通可以收入其中💅💅尺寸:11.5 X8 cm,配原版包装","specs":{"source":"wsxcme","sourceId":"_dcjcjaSODN2dafv4G0K7ASijeZfazBsY0R7QN-g","sourceTagId":47002663,"sourceTagName":"长短款钱包","modelNumber":"5MV204🆕🆕💃💃里外都是进口顶级羊皮🐮👋内压198A💞百元钞银行卡硬币零钱通通可以收入其中💅💅尺寸:11.5 X8 cm","rawTitle":"新版本口袋小钱包💗pocket wallet💗专柜新款小钱夹🔥型号:5MV204🆕🆕💃💃里外都是进口顶级羊皮🐮👋内压198A💞百元钞银行卡硬币零钱通通可以收入其中💅💅尺寸:11.5 X8 cm,配原版包装"},"price":null,"currency":"CNY","moq":1,"category":"women-wallets","status":"active","alibaba_url":null,"images":["https://xcimg.szwego.com/20240923/i1727055638_9885_0.jpg","https://xcimg.szwego.com/20240923/i1727055638_6599_1.jpg","https://xcimg.szwego.com/20240923/i1727055638_5178_2.jpg","https://xcimg.szwego.com/20240923/i1727055638_3693_3.jpg","https://xcimg.szwego.com/20240923/i1727055638_7343_4.jpg","https://xcimg.szwego.com/20240923/i1727055638_1245_5.jpg","https://xcimg.szwego.com/20240923/i1727055638_191_6.jpg","https://xcimg.szwego.com/20240923/i1727055638_584_7.jpg","https://xcimg.szwego.com/20240923/i1727055638_1965_8.jpg"],"created_at":"2025-01-20T12:58:24.672Z"},{"id":"item-680c51f1a74b","sku":"_dNqNq-58Ww-rsrT_G-dfNFoFeC5ETtPYlwvrVuA","name_en":"新版本口袋小钱包💗pocket wallet💗专柜新款小钱夹🔥型号:5MV204🆕🆕💃💃里外都是进口顶级羊皮🐮👋内压198A💞百元钞银行卡硬币零钱通通可以收入其中💅💅尺寸:11.5 X8 cm,配原版包装","name_cn":"新版本口袋小钱包💗pocket wallet💗专柜新款小钱夹🔥型号:5MV204🆕🆕💃💃里外都是进口顶级羊皮🐮👋内压198A💞百元钞银行卡硬币零钱通通可以收入其中💅💅尺寸:11.5 X8 cm,配原版包装","specs":{"source":"wsxcme","sourceId":"_dNqNq-58Ww-rsrT_G-dfNFoFeC5ETtPYlwvrVuA","sourceTagId":47002663,"sourceTagName":"长短款钱包","modelNumber":"5MV204🆕🆕💃💃里外都是进口顶级羊皮🐮👋内压198A💞百元钞银行卡硬币零钱通通可以收入其中💅💅尺寸:11.5 X8 cm","rawTitle":"新版本口袋小钱包💗pocket wallet💗专柜新款小钱夹🔥型号:5MV204🆕🆕💃💃里外都是进口顶级羊皮🐮👋内压198A💞百元钞银行卡硬币零钱通通可以收入其中💅💅尺寸:11.5 X8 cm,配原版包装"},"price":null,"currency":"CNY","moq":1,"category":"women-wallets","status":"active","alibaba_url":null,"images":["https://xcimg.szwego.com/20230517/i1684257145_7291_0.jpg","https://xcimg.szwego.com/20230517/i1684257145_8889_1.jpg","https://xcimg.szwego.com/20230517/i1684257145_7613_2.jpg","https://xcimg.szwego.com/20230517/i1684257145_7594_3.jpg","https://xcimg.szwego.com/20230517/i1684257145_1227_4.jpg","https://xcimg.szwego.com/20230517/i1684257145_5825_5.jpg","https://xcimg.szwego.com/20230517/i1684257145_6320_6.jpg","https://xcimg.szwego.com/20230517/i1684257145_8742_7.jpg","https://xcimg.szwego.com/20230517/i1684257145_6215_8.jpg"],"created_at":"2025-01-20T12:58:24.670Z"},{"id":"item-3d073d446339","sku":"_doAoAhxYMVb31_SNEOFvNE7ZlZBp58-XR3eACjA","name_en":"原单新品上市!最新品!款号:M62288,","name_cn":"原单新品上市!最新品!款号:M62288,\n这款Monogram Marco钱夹设计有一个按扣袋,可收纳零钱,另有3个信用卡槽和一个长型纸钞隔层。尺寸10.5x10.5,包装:配包装盒,","specs":{"source":"wsxcme","sourceId":"_doAoAhxYMVb31_SNEOFvNE7ZlZBp58-XR3eACjA","sourceTagId":47002663,"sourceTagName":"长短款钱包","modelNumber":"M62288","rawTitle":"原单新品上市!最新品!款号:M62288,\n这款Monogram Marco钱夹设计有一个按扣袋,可收纳零钱,另有3个信用卡槽和一个长型纸钞隔层。尺寸10.5x10.5,包装:配包装盒,"},"price":null,"currency":"CNY","moq":1,"category":"women-wallets","status":"active","alibaba_url":null,"images":["https://xcimg.szwego.com/20230803/a1691045061477_5513.jpg","https://xcimg.szwego.com/20230803/a1691045061478_0205.jpg","https://xcimg.szwego.com/20230803/a1691045061480_8606.jpg","https://xcimg.szwego.com/20230803/a1691045061482_8661.jpg","https://xcimg.szwego.com/20230803/a1691045061485_3832.jpg","https://xcimg.szwego.com/20230803/a1691045061488_0856.jpg","https://xcimg.szwego.com/20230803/a1691045061493_6016.jpg","https://xcimg.szwego.com/20230803/a1691045061495_2777.jpg","https://xcimg.szwego.com/20230803/a1691045061498_8673.jpg"],"created_at":"2024-05-08T09:49:54.866Z"},{"id":"item-49fbac509808","sku":"_d9090veBAyet7zP7pvqi9NSyIFlACqbsYP5WSNQ","name_en":"原单AMERIGO 钱夹","name_cn":"原单AMERIGO 钱夹 \nM60053 \n此款Amerigo钱夹将不朽的经典风格与极其实用的功能设计集于一体。设计简洁而又不失便捷,同时依旧小巧玲珑,可轻松收入牛仔裤后兜中。","specs":{"source":"wsxcme","sourceId":"_d9090veBAyet7zP7pvqi9NSyIFlACqbsYP5WSNQ","sourceTagId":47002663,"sourceTagName":"长短款钱包","rawTitle":"原单AMERIGO 钱夹 \nM60053 \n此款Amerigo钱夹将不朽的经典风格与极其实用的功能设计集于一体。设计简洁而又不失便捷,同时依旧小巧玲珑,可轻松收入牛仔裤后兜中。"},"price":null,"currency":"CNY","moq":1,"category":"women-wallets","status":"active","alibaba_url":null,"images":["https://xcimg.szwego.com/img/9363eb03/20231219/i1702957909_3213_3.jpg","https://xcimg.szwego.com/img/9363eb03/20231219/i1702957909_4296_5.jpg","https://xcimg.szwego.com/img/9363eb03/20231219/i1702957909_1764_0.jpg","https://xcimg.szwego.com/img/9363eb03/20231219/i1702957909_1706_2.jpg","https://xcimg.szwego.com/img/9363eb03/20231219/i1702957909_1052_7.jpg","https://xcimg.szwego.com/img/9363eb03/20231219/i1702957909_951_1.jpg","https://xcimg.szwego.com/img/9363eb03/20231219/i1702957909_5324_8.jpg","https://xcimg.szwego.com/img/9363eb03/20231219/i1702957909_2459_6.jpg","https://xcimg.szwego.com/img/9363eb03/20231219/i1702957909_1467_4.jpg"],"created_at":"2024-05-08T09:49:54.877Z"},{"id":"item-ccf683ea45d9","sku":"_dtgtg8nyyK2JiwS_3eSecWBmetfJ1GDKad2fndA","name_en":"原单BRAZZA 钱夹","name_cn":"原单BRAZZA 钱夹\nM66540 爱心黄花\n这款用Monogram帆布制作的Brazza钱包散发着势不可挡的阳刚之气。空间充足,功能齐全,可轻易地收纳入外套口袋。可以装零钱、信用卡和纸币。","specs":{"source":"wsxcme","sourceId":"_dtgtg8nyyK2JiwS_3eSecWBmetfJ1GDKad2fndA","sourceTagId":47002663,"sourceTagName":"长短款钱包","rawTitle":"原单BRAZZA 钱夹\nM66540 爱心黄花\n这款用Monogram帆布制作的Brazza钱包散发着势不可挡的阳刚之气。空间充足,功能齐全,可轻易地收纳入外套口袋。可以装零钱、信用卡和纸币。"},"price":null,"currency":"CNY","moq":1,"category":"women-wallets","status":"active","alibaba_url":null,"images":["https://xcimg.szwego.com/20211115/i1636953948_9482_0.jpg","https://xcimg.szwego.com/20211115/i1636953948_8296_1.jpg","https://xcimg.szwego.com/20211115/i1636953948_1292_2.jpg","https://xcimg.szwego.com/20211115/i1636953948_8625_3.jpg","https://xcimg.szwego.com/20211115/i1636953948_4120_4.jpg","https://xcimg.szwego.com/20211115/i1636953948_978_5.jpg","https://xcimg.szwego.com/20211115/i1636953948_7184_6.jpg","https://xcimg.szwego.com/20211115/i1636953948_5875_7.jpg","https://xcimg.szwego.com/20211115/i1636953948_7180_8.jpg"],"created_at":"2024-05-08T09:49:54.841Z"},{"id":"item-240ae906324b","sku":"_dm9m9vYyFzC3_3qbWiNLaUiWk_JT_J4iiH59yZw","name_en":"原单BRAZZA 钱夹","name_cn":"原单BRAZZA 钱夹\nM66540 十字纹拼\n这款用Monogram帆布制作的Brazza钱包散发着势不可挡的阳刚之气。空间充足,功能齐全,可轻易地收纳入外套口袋。可以装零钱、信用卡和纸币。","specs":{"source":"wsxcme","sourceId":"_dm9m9vYyFzC3_3qbWiNLaUiWk_JT_J4iiH59yZw","sourceTagId":47002663,"sourceTagName":"长短款钱包","rawTitle":"原单BRAZZA 钱夹\nM66540 十字纹拼\n这款用Monogram帆布制作的Brazza钱包散发着势不可挡的阳刚之气。空间充足,功能齐全,可轻易地收纳入外套口袋。可以装零钱、信用卡和纸币。"},"price":null,"currency":"CNY","moq":1,"category":"women-wallets","status":"active","alibaba_url":null,"images":["https://xcimg.szwego.com/20201116/i1605500754_4520_0.jpg","https://xcimg.szwego.com/20201116/i1605500754_6398_1.jpg","https://xcimg.szwego.com/20201116/i1605500754_4009_2.jpg","https://xcimg.szwego.com/20201116/i1605500754_8110_3.jpg","https://xcimg.szwego.com/20201116/i1605500754_7765_4.jpg","https://xcimg.szwego.com/20201116/i1605500754_7344_5.jpg","https://xcimg.szwego.com/20201116/i1605500754_6023_6.jpg","https://xcimg.szwego.com/20201116/i1605500754_5869_7.jpg","https://xcimg.szwego.com/20201116/i1605500754_9944_8.jpg"],"created_at":"2024-05-08T09:49:54.840Z"},{"id":"item-b01ba7739da6","sku":"_dx6x68bFA00ehDmqaYi7UrBhAqVeOoSP58ZvEhA","name_en":"這款Zippy Vertical直式拉鏈錢包以Monogram塗層帆布及牛皮製成,綴以彩色的半抽象人臉圖案。錢包設有牛皮襯裡,並採用銀色的全拉鏈設計。此格外實用的錢包擁有12個名片夾層和多個隔層,包括一個可放零錢的拉鏈口袋。","name_cn":"這款Zippy Vertical直式拉鏈錢包以Monogram塗層帆布及牛皮製成,綴以彩色的半抽象人臉圖案。錢包設有牛皮襯裡,並採用銀色的全拉鏈設計。此格外實用的錢包擁有12個名片夾層和多個隔層,包括一個可放零錢的拉鏈口袋。\n长夹 M82590,尺寸:*10*20*2cm\n短夹 M82573,尺寸:11.5*9*1.5cm\n卡包 M82575,尺寸:7.5*1161*1cm","specs":{"source":"wsxcme","sourceId":"_dx6x68bFA00ehDmqaYi7UrBhAqVeOoSP58ZvEhA","sourceTagId":47002663,"sourceTagName":"长短款钱包","dimensions":{"lengthCm":11.5,"heightCm":9,"widthCm":1.5},"rawTitle":"這款Zippy Vertical直式拉鏈錢包以Monogram塗層帆布及牛皮製成,綴以彩色的半抽象人臉圖案。錢包設有牛皮襯裡,並採用銀色的全拉鏈設計。此格外實用的錢包擁有12個名片夾層和多個隔層,包括一個可放零錢的拉鏈口袋。\n长夹 M82590,尺寸:*10*20*2cm\n短夹 M82573,尺寸:11.5*9*1.5cm\n卡包 M82575,尺寸:7.5*1161*1cm"},"price":null,"currency":"CNY","moq":1,"category":"women-wallets","status":"active","alibaba_url":null,"images":["https://xcimg.szwego.com/20230902/i1693652283_6911_0.jpg","https://xcimg.szwego.com/20230902/i1693652283_2509_1.jpg","https://xcimg.szwego.com/20230902/i1693652283_5873_2.jpg","https://xcimg.szwego.com/20230902/i1693652283_4325_3.jpg","https://xcimg.szwego.com/20230902/i1693652283_512_4.jpg","https://xcimg.szwego.com/20230902/i1693652283_7874_5.jpg","https://xcimg.szwego.com/20230902/i1693652283_6224_6.jpg","https://xcimg.szwego.com/20230902/i1693652283_6451_7.jpg","https://xcimg.szwego.com/20230902/i1693652283_4287_8.jpg"],"created_at":"2025-01-20T13:06:05.257Z"}],"page":18,"pageSize":24,"total":830,"totalPages":35}
