{"items":[{"id":"item-233ac7f8a499","sku":"_duzuzkT_5jb89advOOtARavsAnBmq4v-mzONyiA","name_en":"Women Wallets","name_cn":"正品级\n 【顶级原单】14796蓝钱夹👏👏经过压花加工的单体影子皮革上带有皮革内衬的紧凑型钱包“Organizer de Poche”。镶嵌的单体图案给人以精致的印象,柔软的皮革让您在口袋里也能舒适地携带。尺寸:7.5 x 11.1 x 1厘米,🎁","specs":{"source":"wsxcme","sourceId":"_duzuzkT_5jb89advOOtARavsAnBmq4v-mzONyiA","sourceTagId":47002663,"sourceTagName":"长短款钱包","dimensions":{"lengthCm":7.5,"heightCm":11.1,"widthCm":1},"rawTitle":"正品级\n 【顶级原单】14796蓝钱夹👏👏经过压花加工的单体影子皮革上带有皮革内衬的紧凑型钱包“Organizer de Poche”。镶嵌的单体图案给人以精致的印象,柔软的皮革让您在口袋里也能舒适地携带。尺寸:7.5 x 11.1 x 1厘米,🎁"},"price":null,"currency":"CNY","moq":1,"category":"women-wallets","status":"active","alibaba_url":null,"images":["https://xcimg.szwego.com/img/89eaffab/20250720/i1752993849854_3925_0_1.jpg","https://xcimg.szwego.com/img/89eaffab/20250720/i1752993849833_795_0_2.jpg","https://xcimg.szwego.com/img/89eaffab/20250720/i1752993849875_6243_0_3.jpg","https://xcimg.szwego.com/img/89eaffab/20250720/i1752993849742_2411_0_5.jpg","https://xcimg.szwego.com/img/89eaffab/20250720/i1752993849787_4991_0_6.jpg","https://xcimg.szwego.com/img/89eaffab/20250720/i1752993850769_6199_0_7.jpg"],"created_at":"2025-07-31T08:03:40.847Z"},{"id":"item-2223308bfe89","sku":"_dZxZxzsQ1XRn1TZZX86JD2I6eXUKj_Cc9BbivlQ","name_en":"Women Wallets","name_cn":"💰市场最高版本(原单品质)正品打版\n\n【保证进口头层牛皮,拒绝二层皮,拒绝超纤皮】\n\n马鞍长款拉链式钱包\n黑色细工镶嵌粒面牛皮革搭配米色和黑色 Oblique 印花面料\n编号: 2ADBC315YKS_H05E\n这款马鞍长款拉链式钱包低调而不失优雅气质。采用黑色细工镶嵌粒面牛皮革搭配米色和黑色 Oblique 印花面料精心制作,重新诠释经典的马鞍造型,正面展示 Dior 标志提升格调。中间的拉链隔层可放置硬币,双层现金隔层和 12 个卡槽提供充足的收纳空间。优雅宽敞,是日常的理想良伴。\n主体:棉,牛皮革,科技面料\n里料:牛皮革,科技面料\n内部拉链隔层\n12 个卡槽\n双层现金隔层\n正面饰以金属覆层铜合金 Dior 标志\n内部饰有 Dior 压花标志\n内含防尘袋\n尺寸:19.8 x 11 厘米(长 x 高)\n可收纳银行卡","specs":{"source":"wsxcme","sourceId":"_dZxZxzsQ1XRn1TZZX86JD2I6eXUKj_Cc9BbivlQ","sourceTagId":47002663,"sourceTagName":"长短款钱包","rawTitle":"💰市场最高版本(原单品质)正品打版\n\n【保证进口头层牛皮,拒绝二层皮,拒绝超纤皮】\n\n马鞍长款拉链式钱包\n黑色细工镶嵌粒面牛皮革搭配米色和黑色 Oblique 印花面料\n编号: 2ADBC315YKS_H05E\n这款马鞍长款拉链式钱包低调而不失优雅气质。采用黑色细工镶嵌粒面牛皮革搭配米色和黑色 Oblique 印花面料精心制作,重新诠释经典的马鞍造型,正面展示 Dior 标志提升格调。中间的拉链隔层可放置硬币,双层现金隔层和 12 个卡槽提供充足的收纳空间。优雅宽敞,是日常的理想良伴。\n主体:棉,牛皮革,科技面料\n里料:牛皮革,科技面料\n内部拉链隔层\n12 个卡槽\n双层现金隔层\n正面饰以金属覆层铜合金 Dior 标志\n内部饰有 Dior 压花标志\n内含防尘袋\n尺寸:19.8 x 11 厘米(长 x 高)\n可收纳银行卡"},"price":null,"currency":"CNY","moq":1,"category":"women-wallets","status":"active","alibaba_url":null,"images":["https://xcimg.szwego.com/img/4090ad17/20250730/i1753812809_5417_0.jpg","https://xcimg.szwego.com/img/4090ad17/20250730/i1753812809_8584_1.jpg","https://xcimg.szwego.com/img/4090ad17/20250730/i1753812809_1482_2.jpg","https://xcimg.szwego.com/img/4090ad17/20250730/i1753812809_681_3.jpg","https://xcimg.szwego.com/img/4090ad17/20250730/i1753812809_4600_4.jpg","https://xcimg.szwego.com/img/4090ad17/20250730/i1753812809_4256_5.jpg","https://xcimg.szwego.com/img/4090ad17/20250730/i1753812809_6301_6.jpg","https://xcimg.szwego.com/img/4090ad17/20250730/i1753812809_4752_7.jpg","https://xcimg.szwego.com/img/4090ad17/20250730/i1753812809_4076_8.jpg"],"created_at":"2025-08-03T06:15:47.435Z"},{"id":"item-17e66106d1d3","sku":"_d9E9EL4iajIzOSBu12cjVI8vQHM7RPbQ5upJsRQ","name_en":"Women Wallets","name_cn":"升级版 罗意威 短款三折款小钱包\n清晰可见大logo \n带拉链的硬币隔层\n牛皮 平纹\n尺寸:9*12*3cm\n款号:L1133","specs":{"source":"wsxcme","sourceId":"_d9E9EL4iajIzOSBu12cjVI8vQHM7RPbQ5upJsRQ","sourceTagId":47002663,"sourceTagName":"长短款钱包","modelNumber":"L1133","dimensions":{"lengthCm":9,"heightCm":12,"widthCm":3},"rawTitle":"升级版 罗意威 短款三折款小钱包\n清晰可见大logo \n带拉链的硬币隔层\n牛皮 平纹\n尺寸:9*12*3cm\n款号:L1133"},"price":null,"currency":"CNY","moq":1,"category":"women-wallets","status":"active","alibaba_url":null,"images":["https://xcimg.szwego.com/imgHD/80e46a01/20251228/cmp_i1766897141243_783_0_0.jpg","https://xcimg.szwego.com/imgHD/80e46a01/20251228/cmp_i1766897275144_2182_0_1.jpg","https://xcimg.szwego.com/imgHD/80e46a01/20251228/cmp_i1766897130106_6593_0_2.jpg","https://xcimg.szwego.com/imgHD/80e46a01/20251228/cmp_i1766897201847_1344_0_3.jpg","https://xcimg.szwego.com/imgHD/80e46a01/20251228/cmp_i1766897198532_4877_0_4.jpg","https://xcimg.szwego.com/imgHD/80e46a01/20251228/cmp_i1766897195411_9609_0_5.jpg","https://xcimg.szwego.com/imgHD/80e46a01/20251228/cmp_i1766897275147_3950_0_6.jpg","https://xcimg.szwego.com/imgHD/80e46a01/20251228/cmp_i1766897144808_2429_0_7.jpg","https://xcimg.szwego.com/imgHD/80e46a01/20251228/cmp_i1766897240806_2293_0_8.jpg","https://xcimg.szwego.com/imgHD/80e46a01/20251228/cmp_i1766897240781_9972_0_9.jpg","https://xcimg.szwego.com/imgHD/80e46a01/20251228/cmp_i1766897240759_7829_0_10.jpg","https://xcimg.szwego.com/imgHD/80e46a01/20251228/cmp_i1766897240808_1797_0_11.jpg"],"created_at":"2026-05-20T08:55:16.164Z"},{"id":"item-13a57b901ceb","sku":"_dxNxNbfQ1gDfEc70PzmA8MacIAa5zsXgig066Jw","name_en":"Women Wallets","name_cn":"升级版 罗意威 短款对折款小钱包\n牛皮制作,拼色设计\n六个卡位\n一个大口袋\n带拉链的硬币隔层\n尺寸:9*12*3cm\n款号:L1143","specs":{"source":"wsxcme","sourceId":"_dxNxNbfQ1gDfEc70PzmA8MacIAa5zsXgig066Jw","sourceTagId":47002663,"sourceTagName":"长短款钱包","modelNumber":"L1143","dimensions":{"lengthCm":9,"heightCm":12,"widthCm":3},"rawTitle":"升级版 罗意威 短款对折款小钱包\n牛皮制作,拼色设计\n六个卡位\n一个大口袋\n带拉链的硬币隔层\n尺寸:9*12*3cm\n款号:L1143"},"price":null,"currency":"CNY","moq":1,"category":"women-wallets","status":"active","alibaba_url":null,"images":["https://xcimg.szwego.com/imgHD/80e46a01/20260106/cmp_i1767700711110_1925_0_0.jpg","https://xcimg.szwego.com/imgHD/80e46a01/20260106/cmp_i1767700723423_4326_0_1.jpg","https://xcimg.szwego.com/imgHD/80e46a01/20260106/cmp_i1767700721681_2007_0_2.jpg","https://xcimg.szwego.com/imgHD/80e46a01/20260106/cmp_i1767700719820_5832_0_3.jpg","https://xcimg.szwego.com/imgHD/80e46a01/20260106/cmp_i1767700723987_9171_0_4.jpg","https://xcimg.szwego.com/imgHD/80e46a01/20260106/cmp_i1767700716149_9782_0_5.jpg","https://xcimg.szwego.com/imgHD/80e46a01/20260106/cmp_i1767700715035_9896_0_6.jpg","https://xcimg.szwego.com/imgHD/80e46a01/20260106/cmp_i1767700723997_6902_0_7.jpg","https://xcimg.szwego.com/imgHD/80e46a01/20260106/cmp_i1767700712613_6332_0_8.jpg"],"created_at":"2026-05-20T08:55:15.644Z"},{"id":"item-1144a4e8dc54","sku":"_dqRqRdNjD45SWSt9id6Bm40WU16NnXbzCXFqxNQ","name_en":"Women Wallets","name_cn":"升级版 罗意威 对折长款钱包\n清晰可见大logo ,内里两个隔层\n带拉链的硬币隔层\n牛皮 平纹\n尺寸:19*10cm\n款号:L1134","specs":{"source":"wsxcme","sourceId":"_dqRqRdNjD45SWSt9id6Bm40WU16NnXbzCXFqxNQ","sourceTagId":47002663,"sourceTagName":"长短款钱包","modelNumber":"L1134","rawTitle":"升级版 罗意威 对折长款钱包\n清晰可见大logo ,内里两个隔层\n带拉链的硬币隔层\n牛皮 平纹\n尺寸:19*10cm\n款号:L1134"},"price":null,"currency":"CNY","moq":1,"category":"women-wallets","status":"active","alibaba_url":null,"images":["https://xcimg.szwego.com/imgHD/80e46a01/20251228/cmp_i1766897349610_5391_0_0.jpg","https://xcimg.szwego.com/imgHD/80e46a01/20251228/cmp_i1766897355617_5784_0_1.jpg","https://xcimg.szwego.com/imgHD/80e46a01/20251228/cmp_i1766897349606_6038_0_2.jpg","https://xcimg.szwego.com/imgHD/80e46a01/20251228/cmp_i1766897345087_7652_0_3.jpg","https://xcimg.szwego.com/imgHD/80e46a01/20251228/cmp_i1766897355621_2056_0_4.jpg","https://xcimg.szwego.com/imgHD/80e46a01/20251228/cmp_i1766897347999_5558_0_5.jpg","https://xcimg.szwego.com/imgHD/80e46a01/20251228/cmp_i1766897355632_8472_0_6.jpg","https://xcimg.szwego.com/imgHD/80e46a01/20251228/cmp_i1766897349605_5643_0_7.jpg","https://xcimg.szwego.com/imgHD/80e46a01/20251228/cmp_i1766897349612_6325_0_8.jpg"],"created_at":"2026-05-20T08:55:16.144Z"},{"id":"item-104f0441fd8f","sku":"_djtjtb2xE2mmbSdQ1MXgbY46DrWMIVQBhxwfe1A","name_en":"Women Wallets","name_cn":"原厂皮\n【特级纯钢五金原厂皮】TRIOMPHE亮泽皮皮革短款钱包/2024小赛\n4个卡糟\n2个贴袋\n1个现金隔层\n1个可拆卸拉链卡包,配按扣\n编号:10l653DS3.04LU652\n653浅蓝全皮\n尺寸:w9.5×h7.5×3cm","specs":{"source":"wsxcme","sourceId":"_djtjtb2xE2mmbSdQ1MXgbY46DrWMIVQBhxwfe1A","sourceTagId":47002663,"sourceTagName":"长短款钱包","rawTitle":"原厂皮\n【特级纯钢五金原厂皮】TRIOMPHE亮泽皮皮革短款钱包/2024小赛\n4个卡糟\n2个贴袋\n1个现金隔层\n1个可拆卸拉链卡包,配按扣\n编号:10l653DS3.04LU652\n653浅蓝全皮\n尺寸:w9.5×h7.5×3cm"},"price":null,"currency":"CNY","moq":1,"category":"women-wallets","status":"active","alibaba_url":null,"images":["https://xcimg.szwego.com/img/c4e87dad/20240418/i1713435281_7595_4.jpg","https://xcimg.szwego.com/img/c4e87dad/20240418/i1713435281_1112_3.jpg","https://xcimg.szwego.com/img/c4e87dad/20240418/i1713435280_4334_2.jpg","https://xcimg.szwego.com/img/c4e87dad/20240418/i1713435281_1326_7.jpg","https://xcimg.szwego.com/img/c4e87dad/20240418/i1713435280_1554_0.jpg","https://xcimg.szwego.com/img/c4e87dad/20240418/i1713435281_818_5.jpg","https://xcimg.szwego.com/img/c4e87dad/20240418/i1713435281_9949_6.jpg","https://xcimg.szwego.com/img/c4e87dad/20240418/i1713435281_5032_8.jpg","https://xcimg.szwego.com/img/c4e87dad/20240418/i1713435280_9245_1.jpg"],"created_at":"2024-10-17T06:39:47.591Z"},{"id":"item-09a26c6ab2d6","sku":"_dycyclhfY3KNVqIocb4uXKZZmD5xWysLL3lvUcw","name_en":"Women Wallets","name_cn":"升级版 罗意威 短款对折款小钱包\n荔枝纹牛皮制作\n对比色钱包采用搭扣和按扣固定。\n六个卡位\n两个小口袋和一个大口袋\n带拉链的硬币隔层\n牛皮革衬里\nAnagram 压纹\n尺寸:9*12*3cm\n款号:L1125","specs":{"source":"wsxcme","sourceId":"_dycyclhfY3KNVqIocb4uXKZZmD5xWysLL3lvUcw","sourceTagId":47002663,"sourceTagName":"长短款钱包","modelNumber":"L1125","dimensions":{"lengthCm":9,"heightCm":12,"widthCm":3},"rawTitle":"升级版 罗意威 短款对折款小钱包\n荔枝纹牛皮制作\n对比色钱包采用搭扣和按扣固定。\n六个卡位\n两个小口袋和一个大口袋\n带拉链的硬币隔层\n牛皮革衬里\nAnagram 压纹\n尺寸:9*12*3cm\n款号:L1125"},"price":null,"currency":"CNY","moq":1,"category":"women-wallets","status":"active","alibaba_url":null,"images":["https://xcimg.szwego.com/imgHD/80e46a01/20260106/cmp_i1767700071074_5236_0_0.jpg","https://xcimg.szwego.com/imgHD/80e46a01/20260106/cmp_i1767700069356_7154_0_1.jpg","https://xcimg.szwego.com/imgHD/80e46a01/20260106/cmp_i1767700071026_1551_0_2.jpg","https://xcimg.szwego.com/imgHD/80e46a01/20260106/cmp_i1767700071010_8527_0_3.jpg","https://xcimg.szwego.com/imgHD/80e46a01/20260106/cmp_i1767700069346_7996_0_4.jpg","https://xcimg.szwego.com/imgHD/80e46a01/20260106/cmp_i1767700069393_5999_0_5.jpg","https://xcimg.szwego.com/imgHD/80e46a01/20260106/cmp_i1767700069427_4125_0_6.jpg","https://xcimg.szwego.com/imgHD/80e46a01/20260106/cmp_i1767700072277_7736_0_7.jpg","https://xcimg.szwego.com/imgHD/80e46a01/20260106/cmp_i1767700070467_924_0_8.jpg"],"created_at":"2026-05-20T08:55:15.694Z"},{"id":"item-073c135c3949","sku":"_dz2z263KKP18pAubbwyX3RxwyFM9p8CU6TV3dKQ","name_en":"Women Wallets","name_cn":"【特级五金原厂皮】黑色進口牛皮卡包\n\n-按扣開合\n-金屬字母徽標\n-2個卡位\n-帶襯裡\n尺寸:w8.5×h10.2×2cm\n編號:5M104","specs":{"source":"wsxcme","sourceId":"_dz2z263KKP18pAubbwyX3RxwyFM9p8CU6TV3dKQ","sourceTagId":47002663,"sourceTagName":"长短款钱包","rawTitle":"【特级五金原厂皮】黑色進口牛皮卡包\n\n-按扣開合\n-金屬字母徽標\n-2個卡位\n-帶襯裡\n尺寸:w8.5×h10.2×2cm\n編號:5M104"},"price":null,"currency":"CNY","moq":1,"category":"women-wallets","status":"active","alibaba_url":null,"images":["https://xcimg.szwego.com/img/c4e87dad/20241228/i1735367567301_5806_0_0.jpg","https://xcimg.szwego.com/img/c4e87dad/20241228/i1735367566970_8330_0_1.jpg","https://xcimg.szwego.com/img/c4e87dad/20241228/i1735367566754_6235_0_2.jpg","https://xcimg.szwego.com/img/c4e87dad/20241228/i1735367567100_3215_0_3.jpg","https://xcimg.szwego.com/img/c4e87dad/20241228/i1735367567036_1512_0_4.jpg","https://xcimg.szwego.com/img/c4e87dad/20241228/i1735367567233_4362_0_5.jpg","https://xcimg.szwego.com/img/c4e87dad/20241228/i1735367566827_3083_0_6.jpg","https://xcimg.szwego.com/img/c4e87dad/20241228/i1735367566899_4905_0_7.jpg","https://xcimg.szwego.com/img/c4e87dad/20241228/i1735367567172_6833_0_8.jpg"],"created_at":"2025-01-20T12:58:24.689Z"},{"id":"item-067e8fc71219","sku":"_dm9m9vYyFzC__3qTeiNPbXiGn_5b5J4iiH59yZw","name_en":"Women Wallets","name_cn":"升级版 罗意威 短款对折款小钱包\n牛皮制作,拼色设计\n六个卡位\n一个大口袋\n带拉链的硬币隔层\n尺寸:9*12*3cm\n款号:L1143","specs":{"source":"wsxcme","sourceId":"_dm9m9vYyFzC__3qTeiNPbXiGn_5b5J4iiH59yZw","sourceTagId":47002663,"sourceTagName":"长短款钱包","modelNumber":"L1143","dimensions":{"lengthCm":9,"heightCm":12,"widthCm":3},"rawTitle":"升级版 罗意威 短款对折款小钱包\n牛皮制作,拼色设计\n六个卡位\n一个大口袋\n带拉链的硬币隔层\n尺寸:9*12*3cm\n款号:L1143"},"price":null,"currency":"CNY","moq":1,"category":"women-wallets","status":"active","alibaba_url":null,"images":["https://xcimg.szwego.com/imgHD/80e46a01/20260106/cmp_i1767700732978_8427_0_0.jpg","https://xcimg.szwego.com/imgHD/80e46a01/20260106/cmp_i1767700734656_7284_0_1.jpg","https://xcimg.szwego.com/imgHD/80e46a01/20260106/cmp_i1767700733026_4162_0_2.jpg","https://xcimg.szwego.com/imgHD/80e46a01/20260106/cmp_i1767700733014_4000_0_3.jpg","https://xcimg.szwego.com/imgHD/80e46a01/20260106/cmp_i1767700729211_6071_0_4.jpg","https://xcimg.szwego.com/imgHD/80e46a01/20260106/cmp_i1767700729248_399_0_5.jpg","https://xcimg.szwego.com/imgHD/80e46a01/20260106/cmp_i1767700729221_8673_0_6.jpg","https://xcimg.szwego.com/imgHD/80e46a01/20260106/cmp_i1767700729196_9355_0_7.jpg","https://xcimg.szwego.com/imgHD/80e46a01/20260106/cmp_i1767700732984_345_0_8.jpg"],"created_at":"2026-05-20T08:55:15.634Z"},{"id":"item-025972112f02","sku":"_dfvfv4aSwV0FIm6zo9pUr4RuIX9mZkxtVQRa-Nw","name_en":"Women Wallets","name_cn":"官网同款💵💵💵","specs":{"source":"wsxcme","sourceId":"_dfvfv4aSwV0FIm6zo9pUr4RuIX9mZkxtVQRa-Nw","sourceTagId":47002663,"sourceTagName":"长短款钱包","rawTitle":"官网同款💵💵💵"},"price":null,"currency":"CNY","moq":1,"category":"women-wallets","status":"active","alibaba_url":null,"images":["https://xcimg.szwego.com/img/4090ad17/20250730/i1753812045_1909_0.jpg","https://xcimg.szwego.com/img/4090ad17/20250730/i1753812045_284_1.jpg","https://xcimg.szwego.com/img/4090ad17/20250730/i1753812045_7437_2.jpg","https://xcimg.szwego.com/img/4090ad17/20250730/i1753812045_2724_3.jpg","https://xcimg.szwego.com/img/4090ad17/20250730/i1753812045_2735_4.jpg","https://xcimg.szwego.com/img/4090ad17/20250730/i1753812045_3746_5.jpg","https://xcimg.szwego.com/img/4090ad17/20250730/i1753812045_5273_6.jpg","https://xcimg.szwego.com/img/4090ad17/20250730/i1753812045_743_7.jpg","https://xcimg.szwego.com/img/4090ad17/20250730/i1753812045_3286_8.jpg"],"created_at":"2025-08-03T06:15:56.467Z"},{"id":"item-00e7efd11256","sku":"_dt3t3W2tm-ISs4QehrkvrhZQT_SokxC24VUOgYg","name_en":"Women Wallets","name_cn":"原厂皮\n【特级纯钢五金原厂皮】  TRIOMPHE亮泽牛皮革钱包/2024小赛\n12个卡糟\n1个拉链零钱口袋\n1个扁平口袋\n2个角撑隔层\n编号:10E313DPV.38NO 312\n313黑色全皮\n尺寸:w19×10×3cm","specs":{"source":"wsxcme","sourceId":"_dt3t3W2tm-ISs4QehrkvrhZQT_SokxC24VUOgYg","sourceTagId":47002663,"sourceTagName":"长短款钱包","rawTitle":"原厂皮\n【特级纯钢五金原厂皮】  TRIOMPHE亮泽牛皮革钱包/2024小赛\n12个卡糟\n1个拉链零钱口袋\n1个扁平口袋\n2个角撑隔层\n编号:10E313DPV.38NO 312\n313黑色全皮\n尺寸:w19×10×3cm"},"price":null,"currency":"CNY","moq":1,"category":"women-wallets","status":"active","alibaba_url":null,"images":["https://xcimg.szwego.com/img/c4e87dad/20240418/i1713429917_3867_6.jpg","https://xcimg.szwego.com/img/c4e87dad/20240418/i1713429917_694_4.jpg","https://xcimg.szwego.com/img/c4e87dad/20240418/i1713429917_4024_8.jpg","https://xcimg.szwego.com/img/c4e87dad/20240418/i1713429917_2773_0.jpg","https://xcimg.szwego.com/img/c4e87dad/20240418/i1713429917_8405_1.jpg","https://xcimg.szwego.com/img/c4e87dad/20240418/i1713429917_6648_5.jpg","https://xcimg.szwego.com/img/c4e87dad/20240418/i1713429917_8326_7.jpg","https://xcimg.szwego.com/img/c4e87dad/20240418/i1713429917_6976_2.jpg","https://xcimg.szwego.com/img/c4e87dad/20240418/i1713429930_3824_0.jpg"],"created_at":"2024-10-17T06:39:47.582Z"},{"id":"item-ebc79eefff38","sku":"_d8T8TVhnY4vzQliTvdLzap7xW9mJBD00A-fx1vQ","name_en":"ysl-517045 组合图 十二个颜色","name_cn":"ysl-517045 组合图 十二个颜色","specs":{"source":"wsxcme","sourceId":"_d8T8TVhnY4vzQliTvdLzap7xW9mJBD00A-fx1vQ","sourceTagId":47002663,"sourceTagName":"长短款钱包","rawTitle":"ysl-517045 组合图 十二个颜色"},"price":null,"currency":"CNY","moq":1,"category":"women-wallets","status":"active","alibaba_url":null,"images":["https://xcimg.szwego.com/img/80e46a01/20241124/i1732445249_767_0.jpg"],"created_at":"2025-06-23T05:39:49.848Z"},{"id":"item-eb4198a05163","sku":"_dAVAVafWAKWLtUoDI2crGJMQT5PAebJfBijhcMw","name_en":"YSL拉链钱包 12个卡位,1个拉链袋,2个钞票隔层,2个票据隔层","name_cn":"YSL拉链钱包 12个卡位,1个拉链袋,2个钞票隔层,2个票据隔层\n不得不说ysl的钱夹真的是好好用,经典的鱼子酱纹牛皮搭配大五金logo,简洁又凸显品牌风格设计,不管过了多少年都是拿得出手的,手机也可以放,耐磨耐用,不需要打理\n型号:358094 \n尺寸:19*10cm","specs":{"source":"wsxcme","sourceId":"_dAVAVafWAKWLtUoDI2crGJMQT5PAebJfBijhcMw","sourceTagId":47002663,"sourceTagName":"长短款钱包","modelNumber":"358094","rawTitle":"YSL拉链钱包 12个卡位,1个拉链袋,2个钞票隔层,2个票据隔层\n不得不说ysl的钱夹真的是好好用,经典的鱼子酱纹牛皮搭配大五金logo,简洁又凸显品牌风格设计,不管过了多少年都是拿得出手的,手机也可以放,耐磨耐用,不需要打理\n型号:358094 \n尺寸:19*10cm"},"price":null,"currency":"CNY","moq":1,"category":"women-wallets","status":"active","alibaba_url":null,"images":["https://xcimg.szwego.com/img/80e46a01/20241127/i1732706774_599_3.jpg","https://xcimg.szwego.com/img/80e46a01/20241127/i1732706774_8032_0.jpg","https://xcimg.szwego.com/img/80e46a01/20241127/i1732706775_6516_6.jpg","https://xcimg.szwego.com/img/80e46a01/20241127/i1732706774_7857_2.jpg","https://xcimg.szwego.com/img/80e46a01/20241127/i1732706774_1377_4.jpg","https://xcimg.szwego.com/img/80e46a01/20241127/i1732706775_220_5.jpg","https://xcimg.szwego.com/img/80e46a01/20241127/i1732706774_368_1.jpg","https://xcimg.szwego.com/img/80e46a01/20241127/i1732706775_5686_7.jpg","https://xcimg.szwego.com/img/80e46a01/20241127/i1732706775_8278_8.jpg"],"created_at":"2025-06-23T05:40:18.011Z"},{"id":"item-70afed5cfe71","sku":"_dagagCn44HncbN_no48frNtz8l_XU6aGdrhDH7w","name_en":"YSL鱼子酱卡包现货来约,原版在香港3100入手, 超实用的一款,麻雀虽小,但特能装,百元大钞可以,零钱硬币也可以可放拉链袋内!最贴心之处是设有可露脸的证件卡槽,[奸笑]!总之就是人手必入超级实用 牛皮➕羊皮 全套专柜包装","name_cn":"YSL鱼子酱卡包现货来约,原版在香港3100入手, 超实用的一款,麻雀虽小,但特能装,百元大钞可以,零钱硬币也可以可放拉链袋内!最贴心之处是设有可露脸的证件卡槽,[奸笑]!总之就是人手必入超级实用 牛皮➕羊皮 全套专柜包装\n型号:517045 \n尺寸:13*9*1.5cm","specs":{"source":"wsxcme","sourceId":"_dagagCn44HncbN_no48frNtz8l_XU6aGdrhDH7w","sourceTagId":47002663,"sourceTagName":"长短款钱包","modelNumber":"517045","dimensions":{"lengthCm":13,"heightCm":9,"widthCm":1.5},"rawTitle":"YSL鱼子酱卡包现货来约,原版在香港3100入手, 超实用的一款,麻雀虽小,但特能装,百元大钞可以,零钱硬币也可以可放拉链袋内!最贴心之处是设有可露脸的证件卡槽,[奸笑]!总之就是人手必入超级实用 牛皮➕羊皮 全套专柜包装\n型号:517045 \n尺寸:13*9*1.5cm"},"price":null,"currency":"CNY","moq":1,"category":"women-wallets","status":"active","alibaba_url":null,"images":["https://xcimg.szwego.com/img/80e46a01/20241124/i1732444837_2218_7.jpg","https://xcimg.szwego.com/img/80e46a01/20241124/i1732444837_2628_0.jpg","https://xcimg.szwego.com/img/80e46a01/20241124/i1732444837_6_6.jpg","https://xcimg.szwego.com/img/80e46a01/20241124/i1732444837_8120_4.jpg","https://xcimg.szwego.com/img/80e46a01/20241124/i1732444837_1469_2.jpg","https://xcimg.szwego.com/img/80e46a01/20241124/i1732444837_7141_8.jpg","https://xcimg.szwego.com/img/80e46a01/20241124/i1732444837_6091_3.jpg","https://xcimg.szwego.com/img/80e46a01/20241124/i1732444837_6140_5.jpg","https://xcimg.szwego.com/img/80e46a01/20241124/i1732444837_867_1.jpg"],"created_at":"2025-06-23T05:40:00.855Z"}],"page":35,"pageSize":24,"total":830,"totalPages":35}
