{"items":[{"id":"item-2db951e4c531","sku":"_dlXlXipU05vci4o3WS9siKF-SI3lsQgONVdlizQ","name_en":"5BB168石楠木,少量现货","name_cn":"5BB168石楠木,少量现货","specs":{"source":"wsxcme","sourceId":"_dlXlXipU05vci4o3WS9siKF-SI3lsQgONVdlizQ","sourceTagId":68075769,"sourceTagName":"Miu Miu /女包","rawTitle":"5BB168石楠木,少量现货"},"price":null,"currency":"CNY","moq":1,"category":"miu-miu-women-bags","status":"active","alibaba_url":null,"images":["https://xcimg.szwego.com/20240826/i1724665012_470_5.jpg","https://xcimg.szwego.com/20240826/i1724665012_7206_4.jpg","https://xcimg.szwego.com/20240826/i1724665012_5899_0.jpg","https://xcimg.szwego.com/20240826/i1724665012_7640_1.jpg","https://xcimg.szwego.com/20240826/i1724665012_2003_2.jpg","https://xcimg.szwego.com/20240826/i1724665012_6557_3.jpg","https://xcimg.szwego.com/20240826/i1724665012_6719_6.jpg","https://xcimg.szwego.com/20240826/i1724665039_222_0.jpg","https://xcimg.szwego.com/20240826/i1724665071_7556_0.jpg"],"created_at":"2024-11-11T10:30:45.885Z"},{"id":"item-960b31c9ec6e","sku":"_dkdkdPlx_rmB--MbZ7IU5QVztx30ADKv3IZ14XQ","name_en":"Miu Miu Women Bags","name_cn":"正品级\n5BB168,Miu家新品爆款保龄球包,釆用顶级复古植柔羊皮,复古磨砂感做旧金属配件,这款Aventure Nappa 皮革手提包灵感源自 Miu家典藏单品,其结构经过调整,变得更加轻便,焕发全新个性,打造具有隽永魅力的经典包款,多元素的设计赋予这款手提包独特美感和经典气息,可拆卸可调节皮革肩带,帆布内里配拉链口袋和贴袋,尺寸:33X17 X 11cm","specs":{"source":"wsxcme","sourceId":"_dkdkdPlx_rmB--MbZ7IU5QVztx30ADKv3IZ14XQ","sourceTagId":68075769,"sourceTagName":"Miu Miu /女包","dimensions":{"lengthCm":33,"heightCm":17,"widthCm":11},"rawTitle":"正品级\n5BB168,Miu家新品爆款保龄球包,釆用顶级复古植柔羊皮,复古磨砂感做旧金属配件,这款Aventure Nappa 皮革手提包灵感源自 Miu家典藏单品,其结构经过调整,变得更加轻便,焕发全新个性,打造具有隽永魅力的经典包款,多元素的设计赋予这款手提包独特美感和经典气息,可拆卸可调节皮革肩带,帆布内里配拉链口袋和贴袋,尺寸:33X17 X 11cm"},"price":null,"currency":"CNY","moq":1,"category":"miu-miu-women-bags","status":"active","alibaba_url":null,"images":["https://xcimg.szwego.com/20240831/i1725078250_8868_0.jpg","https://xcimg.szwego.com/20240831/i1725078250_708_1.jpg","https://xcimg.szwego.com/20240831/i1725078250_8362_2.jpg","https://xcimg.szwego.com/20240831/i1725078250_101_3.jpg","https://xcimg.szwego.com/20240831/i1725078250_5135_4.jpg","https://xcimg.szwego.com/20240831/i1725078259_4886_0.jpg","https://xcimg.szwego.com/20240831/i1725078250_5560_6.jpg","https://xcimg.szwego.com/20240831/i1725078250_2160_7.jpg","https://xcimg.szwego.com/20240831/i1725078250_681_8.jpg"],"created_at":"2024-11-11T10:30:45.884Z"},{"id":"item-518b28a51a32","sku":"_dl9l9YsEumK2b56ZDLV8-nBXuj5Uj7uixmShlwQ","name_en":"5BA287","name_cn":"5BA287","specs":{"source":"wsxcme","sourceId":"_dl9l9YsEumK2b56ZDLV8-nBXuj5Uj7uixmShlwQ","sourceTagId":68075769,"sourceTagName":"Miu Miu /女包","rawTitle":"5BA287"},"price":null,"currency":"CNY","moq":1,"category":"miu-miu-women-bags","status":"active","alibaba_url":null,"images":["https://xcimg.szwego.com/20240831/i1725047446_6664_0.jpg","https://xcimg.szwego.com/20240831/i1725047620_3711_0.jpg","https://xcimg.szwego.com/20240831/i1725047620_2057_1.jpg","https://xcimg.szwego.com/20240831/i1725047446_8854_2.jpg","https://xcimg.szwego.com/20240831/i1725047446_8344_1.jpg","https://xcimg.szwego.com/20240831/i1725047620_3712_4.jpg","https://xcimg.szwego.com/20240831/i1725047620_8706_2.jpg","https://xcimg.szwego.com/20240831/i1725047620_876_3.jpg"],"created_at":"2024-11-11T10:30:45.883Z"},{"id":"item-472ba39d9b8a","sku":"_dbcbcO9eYMurqmqY7MJa9y2mie03-zVJpf4z-Ug","name_en":"5BA287正品开发","name_cn":"5BA287正品开发","specs":{"source":"wsxcme","sourceId":"_dbcbcO9eYMurqmqY7MJa9y2mie03-zVJpf4z-Ug","sourceTagId":68075769,"sourceTagName":"Miu Miu /女包","rawTitle":"5BA287正品开发"},"price":null,"currency":"CNY","moq":1,"category":"miu-miu-women-bags","status":"active","alibaba_url":null,"images":["https://xcimg.szwego.com/20240831/i1725047506_7021_0.jpg","https://xcimg.szwego.com/20240831/i1725047506_1480_5.jpg","https://xcimg.szwego.com/20240831/i1725047506_6319_6.jpg","https://xcimg.szwego.com/20240831/i1725047506_6450_1.jpg","https://xcimg.szwego.com/20240831/i1725047506_7323_2.jpg","https://xcimg.szwego.com/20240831/i1725047506_104_3.jpg","https://xcimg.szwego.com/20240831/i1725047506_2558_4.jpg"],"created_at":"2024-11-11T10:30:45.882Z"},{"id":"item-c11789efc98e","sku":"_dgmgmmYNHzPwxSr5MkRA76gxn8yrxTOKJeOyBMg","name_en":"Miu Miu Women Bags","name_cn":"正品级\n5BA278, Miu夏日田园度假风,新款编织镂空菜篮子,特别的藤编弧型设计使得包型非常新颖别致又立体有型,正面手工缝制皮革logo标识,双皮革手提肩带,内配帆布拉链小包,搭配可调节皮革长肩带,外出野餐,田园度假,海边游玩都是绝佳选择,尺寸:20X 15X 7.5cm","specs":{"source":"wsxcme","sourceId":"_dgmgmmYNHzPwxSr5MkRA76gxn8yrxTOKJeOyBMg","sourceTagId":68075769,"sourceTagName":"Miu Miu /女包","dimensions":{"lengthCm":20,"heightCm":15,"widthCm":7.5},"rawTitle":"正品级\n5BA278, Miu夏日田园度假风,新款编织镂空菜篮子,特别的藤编弧型设计使得包型非常新颖别致又立体有型,正面手工缝制皮革logo标识,双皮革手提肩带,内配帆布拉链小包,搭配可调节皮革长肩带,外出野餐,田园度假,海边游玩都是绝佳选择,尺寸:20X 15X 7.5cm"},"price":null,"currency":"CNY","moq":1,"category":"miu-miu-women-bags","status":"active","alibaba_url":null,"images":["https://xcimg.szwego.com/20240831/i1725047091_3363_0.jpg","https://xcimg.szwego.com/20240831/i1725047091_4919_1.jpg","https://xcimg.szwego.com/20240831/i1725047278_6914_0.jpg","https://xcimg.szwego.com/20240831/i1725047091_2754_3.jpg","https://xcimg.szwego.com/20240831/i1725047091_4148_4.jpg","https://xcimg.szwego.com/20240831/i1725047091_2011_8.jpg","https://xcimg.szwego.com/20240831/i1725047091_7072_5.jpg","https://xcimg.szwego.com/20240831/i1725047091_5984_6.jpg","https://xcimg.szwego.com/20240831/i1725047091_309_7.jpg"],"created_at":"2024-11-11T10:30:45.881Z"},{"id":"item-da9c9036356b","sku":"_dntnt9-cZZOdBv6Atk8cB_HOtR6k1SX4PT8EDfQ","name_en":"Miu Miu Women Bags","name_cn":"正品级\n新版本:5BB142,M家新款保龄球包包,官网主推,今年绝对爆🔥款式,顶级进口小羊皮,Miu家独具风格Matelasse图案,包身精致立体有型,正面刻字徽标与皮革颜色相呼应,可拆卸可调节皮革长肩带,棉质缎面衬里,配拉链式口袋,众多明星网红同款,尺寸22X10.5X7.5Cm,配原版包装","specs":{"source":"wsxcme","sourceId":"_dntnt9-cZZOdBv6Atk8cB_HOtR6k1SX4PT8EDfQ","sourceTagId":68075769,"sourceTagName":"Miu Miu /女包","dimensions":{"lengthCm":22,"heightCm":10.5,"widthCm":7.5},"rawTitle":"正品级\n新版本:5BB142,M家新款保龄球包包,官网主推,今年绝对爆🔥款式,顶级进口小羊皮,Miu家独具风格Matelasse图案,包身精致立体有型,正面刻字徽标与皮革颜色相呼应,可拆卸可调节皮革长肩带,棉质缎面衬里,配拉链式口袋,众多明星网红同款,尺寸22X10.5X7.5Cm,配原版包装"},"price":null,"currency":"CNY","moq":1,"category":"miu-miu-women-bags","status":"active","alibaba_url":null,"images":["https://xcimg.szwego.com/20240811/i1723353290_4894_0.jpg","https://xcimg.szwego.com/20240811/i1723353290_6295_1.jpg","https://xcimg.szwego.com/20240811/i1723353290_4890_2.jpg","https://xcimg.szwego.com/20240811/i1723353290_7338_3.jpg","https://xcimg.szwego.com/20240811/i1723353290_8032_4.jpg","https://xcimg.szwego.com/20240811/i1723353290_6580_5.jpg","https://xcimg.szwego.com/20240811/i1723353290_4810_6.jpg","https://xcimg.szwego.com/20240811/i1723353290_333_7.jpg","https://xcimg.szwego.com/20240811/i1723353290_3097_8.jpg"],"created_at":"2024-11-11T10:30:45.880Z"},{"id":"item-2af49b67a986","sku":"_d6a6agboyDOOpadgoqzBmQtSnxVhn1J1-ckMg7w","name_en":"5BB142新版本","name_cn":"5BB142新版本","specs":{"source":"wsxcme","sourceId":"_d6a6agboyDOOpadgoqzBmQtSnxVhn1J1-ckMg7w","sourceTagId":68075769,"sourceTagName":"Miu Miu /女包","rawTitle":"5BB142新版本"},"price":null,"currency":"CNY","moq":1,"category":"miu-miu-women-bags","status":"active","alibaba_url":null,"images":["https://xcimg.szwego.com/20240725/i1721897472_858_0.jpg","https://xcimg.szwego.com/20240725/i1721897472_6329_1.jpg","https://xcimg.szwego.com/20240725/i1721897472_2849_2.jpg","https://xcimg.szwego.com/20240725/i1721897472_1482_3.jpg"],"created_at":"2024-11-11T10:30:45.879Z"},{"id":"item-d27a4af04841","sku":"_dmmmmYqIJYs2VC6dl8Q4WpFSJRcDdTdtlnQamXg","name_en":"5BB142","name_cn":"5BB142","specs":{"source":"wsxcme","sourceId":"_dmmmmYqIJYs2VC6dl8Q4WpFSJRcDdTdtlnQamXg","sourceTagId":68075769,"sourceTagName":"Miu Miu /女包","rawTitle":"5BB142"},"price":null,"currency":"CNY","moq":1,"category":"miu-miu-women-bags","status":"active","alibaba_url":null,"images":["https://xcimg.szwego.com/20230616/i1686851850_9908_0.jpg","https://xcimg.szwego.com/20230616/i1686851850_9147_1.jpg","https://xcimg.szwego.com/20230616/i1686851850_2357_2.jpg","https://xcimg.szwego.com/20230616/i1686851850_9822_3.jpg","https://xcimg.szwego.com/20230616/i1686851850_4023_4.jpg","https://xcimg.szwego.com/20230616/i1686851850_9909_5.jpg","https://xcimg.szwego.com/20230616/i1686851850_6201_6.jpg"],"created_at":"2024-11-11T10:30:45.878Z"},{"id":"item-4c0dd9dd0734","sku":"_d-8-8QPeWoaDTqYLq1L0Cu1b5HomsbCDavEsfmQ","name_en":"Miu Miu Women Bags","name_cn":"正品级\n5BB142,M家新款保龄球包包,官网主推,今年绝对爆🔥款式,顶级进口小羊皮,Miu家独具风格Matelasse图案,包身精致立体有型,正面刻字徽标与皮革颜色相呼应,可拆卸可调节皮革长肩带,棉质缎面衬里,配拉链式口袋,众多明星网红同款,尺寸22X10.5X7.5Cm,配原版包装","specs":{"source":"wsxcme","sourceId":"_d-8-8QPeWoaDTqYLq1L0Cu1b5HomsbCDavEsfmQ","sourceTagId":68075769,"sourceTagName":"Miu Miu /女包","dimensions":{"lengthCm":22,"heightCm":10.5,"widthCm":7.5},"rawTitle":"正品级\n5BB142,M家新款保龄球包包,官网主推,今年绝对爆🔥款式,顶级进口小羊皮,Miu家独具风格Matelasse图案,包身精致立体有型,正面刻字徽标与皮革颜色相呼应,可拆卸可调节皮革长肩带,棉质缎面衬里,配拉链式口袋,众多明星网红同款,尺寸22X10.5X7.5Cm,配原版包装"},"price":null,"currency":"CNY","moq":1,"category":"miu-miu-women-bags","status":"active","alibaba_url":null,"images":["https://xcimg.szwego.com/20230615/i1686764059_3528_0.jpg","https://xcimg.szwego.com/20230615/i1686764059_7012_1.jpg","https://xcimg.szwego.com/20230615/i1686764059_8936_2.jpg","https://xcimg.szwego.com/20230615/i1686764059_6039_3.jpg","https://xcimg.szwego.com/20230615/i1686764059_4979_4.jpg","https://xcimg.szwego.com/20230615/i1686764059_280_5.jpg","https://xcimg.szwego.com/20230615/i1686764059_31_6.jpg","https://xcimg.szwego.com/20230615/i1686764059_476_7.jpg","https://xcimg.szwego.com/20230615/i1686764059_530_8.jpg"],"created_at":"2024-11-11T10:30:45.877Z"},{"id":"item-33bf0a71ed35","sku":"_dvSvSXdYtHCfPBrWHAuaNA2arzgRSo4QJebKVjg","name_en":"5BB142奶茶粉杏","name_cn":"5BB142奶茶粉杏","specs":{"source":"wsxcme","sourceId":"_dvSvSXdYtHCfPBrWHAuaNA2arzgRSo4QJebKVjg","sourceTagId":68075769,"sourceTagName":"Miu Miu /女包","rawTitle":"5BB142奶茶粉杏"},"price":null,"currency":"CNY","moq":1,"category":"miu-miu-women-bags","status":"active","alibaba_url":null,"images":["https://xcimg.szwego.com/20240825/i1724524209_4205_0.jpg","https://xcimg.szwego.com/20240825/i1724574194_45_0.jpg","https://xcimg.szwego.com/20240825/i1724574194_4654_1.jpg","https://xcimg.szwego.com/20240825/i1724574194_6353_2.jpg","https://xcimg.szwego.com/20240825/i1724524209_4842_1.jpg","https://xcimg.szwego.com/20240825/i1724524209_395_2.jpg","https://xcimg.szwego.com/20240825/i1724524209_8499_3.jpg","https://xcimg.szwego.com/20240825/i1724574194_6310_3.jpg"],"created_at":"2024-11-11T10:30:45.876Z"},{"id":"item-38e694637bf8","sku":"_d33339UU6t5ek-bkDpS2ALhXU3Iuv7KpFb35Ycg","name_en":"5BB142楠木色","name_cn":"5BB142楠木色","specs":{"source":"wsxcme","sourceId":"_d33339UU6t5ek-bkDpS2ALhXU3Iuv7KpFb35Ycg","sourceTagId":68075769,"sourceTagName":"Miu Miu /女包","rawTitle":"5BB142楠木色"},"price":null,"currency":"CNY","moq":1,"category":"miu-miu-women-bags","status":"active","alibaba_url":null,"images":["https://xcimg.szwego.com/20240824/i1724487036_7649_0.jpg","https://xcimg.szwego.com/20240824/i1724487036_2690_1.jpg","https://xcimg.szwego.com/20240824/i1724487036_6884_2.jpg","https://xcimg.szwego.com/20240824/i1724487036_1911_3.jpg","https://xcimg.szwego.com/20240824/i1724487036_2954_4.jpg","https://xcimg.szwego.com/20240824/i1724487036_157_5.jpg","https://xcimg.szwego.com/20240824/i1724487036_4523_6.jpg"],"created_at":"2024-11-11T10:30:45.875Z"},{"id":"item-7f0879fa5dfc","sku":"_d2X2XibtyvpfrrR_KOC5SZZ8T0mPWK4SdH3DlOA","name_en":"Miu Miu Women Bags","name_cn":"正品级\n新版本:5BB142,Miu家新款保龄球包包,官网主推,今年绝对爆🔥款式,顶级进口小牛皮,Miu家独具风格Matelasse图案,包身精致立体有型,正面刻字徽标与皮革颜色相呼应,可拆卸可调节皮革长肩带,棉质缎面衬里,配拉链式口袋,众多明星网红同款,尺寸22X10.5X7.5Cm,配原版包装","specs":{"source":"wsxcme","sourceId":"_d2X2XibtyvpfrrR_KOC5SZZ8T0mPWK4SdH3DlOA","sourceTagId":68075769,"sourceTagName":"Miu Miu /女包","dimensions":{"lengthCm":22,"heightCm":10.5,"widthCm":7.5},"rawTitle":"正品级\n新版本:5BB142,Miu家新款保龄球包包,官网主推,今年绝对爆🔥款式,顶级进口小牛皮,Miu家独具风格Matelasse图案,包身精致立体有型,正面刻字徽标与皮革颜色相呼应,可拆卸可调节皮革长肩带,棉质缎面衬里,配拉链式口袋,众多明星网红同款,尺寸22X10.5X7.5Cm,配原版包装"},"price":null,"currency":"CNY","moq":1,"category":"miu-miu-women-bags","status":"active","alibaba_url":null,"images":["https://xcimg.szwego.com/20240829/i1724921806_5672_0.jpg","https://xcimg.szwego.com/20240829/i1724921806_8601_1.jpg","https://xcimg.szwego.com/20240829/i1724921806_2188_2.jpg","https://xcimg.szwego.com/20240829/i1724921806_7144_3.jpg","https://xcimg.szwego.com/20240829/i1724921806_5128_4.jpg","https://xcimg.szwego.com/20240829/i1724921806_1016_5.jpg","https://xcimg.szwego.com/20240829/i1724921806_9395_6.jpg","https://xcimg.szwego.com/20240829/i1724921806_3132_7.jpg","https://xcimg.szwego.com/20240829/i1724921806_7656_8.jpg"],"created_at":"2024-11-11T10:30:45.874Z"},{"id":"item-b9e10a48df21","sku":"_dNvNv866ytUySVGEHlbIxt6zU5FhCkUpQPsJkuw","name_en":"5BB142新版本焦糖色","name_cn":"5BB142新版本焦糖色","specs":{"source":"wsxcme","sourceId":"_dNvNv866ytUySVGEHlbIxt6zU5FhCkUpQPsJkuw","sourceTagId":68075769,"sourceTagName":"Miu Miu /女包","rawTitle":"5BB142新版本焦糖色"},"price":null,"currency":"CNY","moq":1,"category":"miu-miu-women-bags","status":"active","alibaba_url":null,"images":["https://xcimg.szwego.com/20240824/i1724491352_9232_0.jpg","https://xcimg.szwego.com/20240824/i1724491352_4117_1.jpg","https://xcimg.szwego.com/20240824/i1724491352_2844_2.jpg","https://xcimg.szwego.com/20240824/i1724491352_8470_3.jpg","https://xcimg.szwego.com/20240824/i1724491352_5288_4.jpg","https://xcimg.szwego.com/20240824/i1724491352_7585_5.jpg","https://xcimg.szwego.com/20240824/i1724491352_8628_6.jpg","https://xcimg.szwego.com/20240824/i1724491352_3370_7.jpg","https://xcimg.szwego.com/20240824/i1724491750_4141_0.jpg"],"created_at":"2024-11-11T10:30:45.873Z"},{"id":"item-7bf751451dc7","sku":"_dkAkAV2s0yhht8d0dD421RJwI1cmVrDlv2tnbrw","name_en":"5BB142新版本干邑色","name_cn":"5BB142新版本干邑色","specs":{"source":"wsxcme","sourceId":"_dkAkAV2s0yhht8d0dD421RJwI1cmVrDlv2tnbrw","sourceTagId":68075769,"sourceTagName":"Miu Miu /女包","rawTitle":"5BB142新版本干邑色"},"price":null,"currency":"CNY","moq":1,"category":"miu-miu-women-bags","status":"active","alibaba_url":null,"images":["https://xcimg.szwego.com/20240824/i1724491671_3099_0.jpg","https://xcimg.szwego.com/20240824/i1724491671_9138_1.jpg","https://xcimg.szwego.com/20240824/i1724491671_5260_2.jpg","https://xcimg.szwego.com/20240824/i1724491671_2330_3.jpg","https://xcimg.szwego.com/20240824/i1724491671_6153_4.jpg","https://xcimg.szwego.com/20240824/i1724491671_3629_5.jpg","https://xcimg.szwego.com/20240824/i1724491671_2053_6.jpg"],"created_at":"2024-11-11T10:30:45.872Z"},{"id":"item-50dc91b88b01","sku":"_dSxSx7_IMLrCGyOzqudhd-OOLWXXOpVbAD2TQOA","name_en":"Miu Miu Women Bags","name_cn":"正品级\n新版本干邑色:5BB142,Miu家新款保龄球包包,官网主推,今年绝对爆🔥款式,顶级进口小牛皮,Miu家独具风格Matelasse图案,包身精致立体有型,正面刻字徽标与皮革颜色相呼应,可拆卸可调节皮革长肩带,棉质缎面衬里,配拉链式口袋,众多明星网红同款,尺寸22X10.5X7.5Cm,配原版包装","specs":{"source":"wsxcme","sourceId":"_dSxSx7_IMLrCGyOzqudhd-OOLWXXOpVbAD2TQOA","sourceTagId":68075769,"sourceTagName":"Miu Miu /女包","dimensions":{"lengthCm":22,"heightCm":10.5,"widthCm":7.5},"rawTitle":"正品级\n新版本干邑色:5BB142,Miu家新款保龄球包包,官网主推,今年绝对爆🔥款式,顶级进口小牛皮,Miu家独具风格Matelasse图案,包身精致立体有型,正面刻字徽标与皮革颜色相呼应,可拆卸可调节皮革长肩带,棉质缎面衬里,配拉链式口袋,众多明星网红同款,尺寸22X10.5X7.5Cm,配原版包装"},"price":null,"currency":"CNY","moq":1,"category":"miu-miu-women-bags","status":"active","alibaba_url":null,"images":["https://xcimg.szwego.com/20240826/i1724639414_3258_0.jpg","https://xcimg.szwego.com/20240826/i1724639414_6260_1.jpg","https://xcimg.szwego.com/20240826/i1724639414_1447_2.jpg","https://xcimg.szwego.com/20240826/i1724639449_5189_0.jpg","https://xcimg.szwego.com/20240826/i1724639414_8552_3.jpg","https://xcimg.szwego.com/20240826/i1724639414_6899_4.jpg","https://xcimg.szwego.com/20240826/i1724639414_4732_5.jpg","https://xcimg.szwego.com/20240826/i1724639414_4124_6.jpg","https://xcimg.szwego.com/20240826/i1724639414_8923_7.jpg"],"created_at":"2024-11-11T10:30:45.871Z"},{"id":"item-63d4a0180075","sku":"_df4f4u8SWSzDGqITZRMRd-fSNs9FD9GHAzvQvqQ","name_en":"5BB142巧克力色","name_cn":"5BB142巧克力色","specs":{"source":"wsxcme","sourceId":"_df4f4u8SWSzDGqITZRMRd-fSNs9FD9GHAzvQvqQ","sourceTagId":68075769,"sourceTagName":"Miu Miu /女包","rawTitle":"5BB142巧克力色"},"price":null,"currency":"CNY","moq":1,"category":"miu-miu-women-bags","status":"active","alibaba_url":null,"images":["https://xcimg.szwego.com/20240802/i1722537866_4031_0.jpg","https://xcimg.szwego.com/20240802/i1722537866_5052_1.jpg","https://xcimg.szwego.com/20240802/i1722537866_8039_2.jpg","https://xcimg.szwego.com/20240802/i1722537866_7232_3.jpg"],"created_at":"2024-11-11T10:30:45.870Z"},{"id":"item-597ecc54b9da","sku":"_dkbkb6bVdx_RGoKjLSVZIdRMm5T6Hx6-GhLOjfw","name_en":"Miu Miu Women Bags","name_cn":"正品级\n5BB142,Miu家新款保龄球包包,官网主推,今年绝对爆🔥款式,顶级进口小牛皮,Miu家独具风格Matelasse图案,包身精致立体有型,正面刻字徽标与皮革颜色相呼应,可拆卸可调节皮革长肩带,棉质缎面衬里,配拉链式口袋,众多明星网红同款,尺寸22X10.5X7.5Cm,配原版包装","specs":{"source":"wsxcme","sourceId":"_dkbkb6bVdx_RGoKjLSVZIdRMm5T6Hx6-GhLOjfw","sourceTagId":68075769,"sourceTagName":"Miu Miu /女包","dimensions":{"lengthCm":22,"heightCm":10.5,"widthCm":7.5},"rawTitle":"正品级\n5BB142,Miu家新款保龄球包包,官网主推,今年绝对爆🔥款式,顶级进口小牛皮,Miu家独具风格Matelasse图案,包身精致立体有型,正面刻字徽标与皮革颜色相呼应,可拆卸可调节皮革长肩带,棉质缎面衬里,配拉链式口袋,众多明星网红同款,尺寸22X10.5X7.5Cm,配原版包装"},"price":null,"currency":"CNY","moq":1,"category":"miu-miu-women-bags","status":"active","alibaba_url":null,"images":["https://xcimg.szwego.com/20231118/i1700292069_2404_0.jpg","https://xcimg.szwego.com/20231118/i1700292069_1202_1.jpg","https://xcimg.szwego.com/20231118/i1700292069_1757_2.jpg","https://xcimg.szwego.com/20231118/i1700292099_3589_0.jpg","https://xcimg.szwego.com/20231118/i1700292069_9065_4.jpg","https://xcimg.szwego.com/20231118/i1700292069_710_5.jpg","https://xcimg.szwego.com/20231118/i1700292069_3492_6.jpg","https://xcimg.szwego.com/20231118/i1700292069_2485_7.jpg","https://xcimg.szwego.com/20231118/i1700292069_6881_8.jpg"],"created_at":"2024-11-11T10:30:45.869Z"},{"id":"item-537896aa42fd","sku":"_dNZNZpWBazUy2JURkMxqVeU0dQdHTr7TKc7AIHQ","name_en":"5BB142,5BB148大小对比","name_cn":"5BB142,5BB148大小对比","specs":{"source":"wsxcme","sourceId":"_dNZNZpWBazUy2JURkMxqVeU0dQdHTr7TKc7AIHQ","sourceTagId":68075769,"sourceTagName":"Miu Miu /女包","rawTitle":"5BB142,5BB148大小对比"},"price":null,"currency":"CNY","moq":1,"category":"miu-miu-women-bags","status":"active","alibaba_url":null,"images":["https://xcimg.szwego.com/20230412/i1681235356_3728_0.jpg","https://xcimg.szwego.com/20230412/i1681235356_8330_1.jpg","https://xcimg.szwego.com/20230412/i1681235356_2853_2.jpg","https://xcimg.szwego.com/20230412/i1681235356_6437_3.jpg","https://xcimg.szwego.com/20230412/i1681235356_2003_4.jpg","https://xcimg.szwego.com/20230412/i1681235356_207_5.jpg","https://xcimg.szwego.com/20230412/i1681235356_8830_6.jpg","https://xcimg.szwego.com/20230412/i1681235356_6139_7.jpg","https://xcimg.szwego.com/20230412/i1681235427_3792_0.jpg"],"created_at":"2024-11-11T10:30:45.868Z"},{"id":"item-f47a009c6404","sku":"_dmtmtCVsFcazpIvNY8wZpETG8RP4_8erCmfgYvg","name_en":"5BB142,Miu家新款保龄球包包,官网主推,今年绝对爆🔥款式,顶级进口小牛皮,Miu家独具风格Matelasse图案,包身精致立体有型,正面刻字徽标与皮革颜色相呼应,可拆卸可调节皮革长肩带,棉质缎面衬里,配拉链式口袋,众多明星网红同款,尺寸22X10.5X7.5Cm,配原版包装","name_cn":"5BB142,Miu家新款保龄球包包,官网主推,今年绝对爆🔥款式,顶级进口小牛皮,Miu家独具风格Matelasse图案,包身精致立体有型,正面刻字徽标与皮革颜色相呼应,可拆卸可调节皮革长肩带,棉质缎面衬里,配拉链式口袋,众多明星网红同款,尺寸22X10.5X7.5Cm,配原版包装","specs":{"source":"wsxcme","sourceId":"_dmtmtCVsFcazpIvNY8wZpETG8RP4_8erCmfgYvg","sourceTagId":68075769,"sourceTagName":"Miu Miu /女包","dimensions":{"lengthCm":22,"heightCm":10.5,"widthCm":7.5},"rawTitle":"5BB142,Miu家新款保龄球包包,官网主推,今年绝对爆🔥款式,顶级进口小牛皮,Miu家独具风格Matelasse图案,包身精致立体有型,正面刻字徽标与皮革颜色相呼应,可拆卸可调节皮革长肩带,棉质缎面衬里,配拉链式口袋,众多明星网红同款,尺寸22X10.5X7.5Cm,配原版包装"},"price":null,"currency":"CNY","moq":1,"category":"miu-miu-women-bags","status":"active","alibaba_url":null,"images":["https://xcimg.szwego.com/20230412/i1681234739_9316_0.jpg","https://xcimg.szwego.com/20230412/i1681234739_5804_1.jpg","https://xcimg.szwego.com/20230412/i1681234739_8525_2.jpg","https://xcimg.szwego.com/20230412/i1681234739_233_3.jpg"],"created_at":"2024-11-11T10:30:45.867Z"},{"id":"item-fbcd3ea9b0ec","sku":"_dvwvwh9E2VJQ3t75F6OEQYwPpGp2Dh-umdDYr6Q","name_en":"Miu Miu Women Bags","name_cn":"正品级\n5BB142,Miu家新款保龄球包包,官网主推,今年绝对爆🔥款式,顶级进口小羊皮,Miu家独具风格Matelasse图案,包身精致立体有型,正面刻字徽标与皮革颜色相呼应,可拆卸可调节皮革长肩带,棉质缎面衬里,配拉链式口袋,众多明星网红同款,尺寸22X10.5X7.5Cm,配原版包装","specs":{"source":"wsxcme","sourceId":"_dvwvwh9E2VJQ3t75F6OEQYwPpGp2Dh-umdDYr6Q","sourceTagId":68075769,"sourceTagName":"Miu Miu /女包","dimensions":{"lengthCm":22,"heightCm":10.5,"widthCm":7.5},"rawTitle":"正品级\n5BB142,Miu家新款保龄球包包,官网主推,今年绝对爆🔥款式,顶级进口小羊皮,Miu家独具风格Matelasse图案,包身精致立体有型,正面刻字徽标与皮革颜色相呼应,可拆卸可调节皮革长肩带,棉质缎面衬里,配拉链式口袋,众多明星网红同款,尺寸22X10.5X7.5Cm,配原版包装"},"price":null,"currency":"CNY","moq":1,"category":"miu-miu-women-bags","status":"active","alibaba_url":null,"images":["https://xcimg.szwego.com/20231222/i1703231920_3709_0.jpg","https://xcimg.szwego.com/20231222/i1703231920_3694_1.jpg","https://xcimg.szwego.com/20231222/i1703231920_6033_2.jpg","https://xcimg.szwego.com/20231222/i1703231920_673_3.jpg","https://xcimg.szwego.com/20231222/i1703231920_1263_4.jpg","https://xcimg.szwego.com/20231222/i1703231920_5321_5.jpg","https://xcimg.szwego.com/20231222/i1703231920_5760_6.jpg","https://xcimg.szwego.com/20231222/i1703231920_3223_7.jpg","https://xcimg.szwego.com/20231222/i1703231920_8017_8.jpg"],"created_at":"2024-11-11T10:30:45.866Z"},{"id":"item-5cb60a87a1dc","sku":"_du8u84ob1TzA0WeGJkJO6O4TfDPZCYCf5hlIF_Q","name_en":"Miu Miu Women Bags","name_cn":"正品级\n5BB142,Miu家新款保龄球包包,官网主推,今年绝对爆🔥款式,顶级进口小牛皮,Miu家独具风格Matelasse图案,包身精致立体有型,正面刻字徽标与皮革颜色相呼应,可拆卸可调节皮革长肩带,棉质缎面衬里,配拉链式口袋,众多明星网红同款,尺寸22X10.5X7.5Cm,配原版包装,720","specs":{"source":"wsxcme","sourceId":"_du8u84ob1TzA0WeGJkJO6O4TfDPZCYCf5hlIF_Q","sourceTagId":68075769,"sourceTagName":"Miu Miu /女包","dimensions":{"lengthCm":22,"heightCm":10.5,"widthCm":7.5},"rawTitle":"正品级\n5BB142,Miu家新款保龄球包包,官网主推,今年绝对爆🔥款式,顶级进口小牛皮,Miu家独具风格Matelasse图案,包身精致立体有型,正面刻字徽标与皮革颜色相呼应,可拆卸可调节皮革长肩带,棉质缎面衬里,配拉链式口袋,众多明星网红同款,尺寸22X10.5X7.5Cm,配原版包装,720"},"price":null,"currency":"CNY","moq":1,"category":"miu-miu-women-bags","status":"active","alibaba_url":null,"images":["https://xcimg.szwego.com/20230908/i1694139535_4792_0.jpg","https://xcimg.szwego.com/20230908/i1694139535_7199_1.jpg","https://xcimg.szwego.com/20230908/i1694139535_6952_2.jpg","https://xcimg.szwego.com/20230908/i1694139535_560_3.jpg","https://xcimg.szwego.com/20230908/i1694139535_7768_4.jpg","https://xcimg.szwego.com/20230908/i1694139535_3297_5.jpg","https://xcimg.szwego.com/20230908/i1694139535_5780_6.jpg","https://xcimg.szwego.com/20230908/i1694139535_7550_7.jpg","https://xcimg.szwego.com/20230908/i1694139535_5750_8.jpg"],"created_at":"2024-11-11T10:30:45.865Z"},{"id":"item-5446e72c623c","sku":"_dJkJk-aw2RsG7oVfrvrbRsPiETI3vIWUG8Cri1Q","name_en":"Miu Miu Women Bags","name_cn":"正品级\n5BB142,Miu家新款保龄球包包,官网主推,今年绝对爆🔥款式,顶级进口小牛皮,Miu家独具风格Matelasse图案,包身精致立体有型,正面刻字徽标与皮革颜色相呼应,可拆卸可调节皮革长肩带,棉质缎面衬里,配拉链式口袋,众多明星网红同款,尺寸22X10.5X7.5Cm,配原版包装,","specs":{"source":"wsxcme","sourceId":"_dJkJk-aw2RsG7oVfrvrbRsPiETI3vIWUG8Cri1Q","sourceTagId":68075769,"sourceTagName":"Miu Miu /女包","dimensions":{"lengthCm":22,"heightCm":10.5,"widthCm":7.5},"rawTitle":"正品级\n5BB142,Miu家新款保龄球包包,官网主推,今年绝对爆🔥款式,顶级进口小牛皮,Miu家独具风格Matelasse图案,包身精致立体有型,正面刻字徽标与皮革颜色相呼应,可拆卸可调节皮革长肩带,棉质缎面衬里,配拉链式口袋,众多明星网红同款,尺寸22X10.5X7.5Cm,配原版包装,"},"price":null,"currency":"CNY","moq":1,"category":"miu-miu-women-bags","status":"active","alibaba_url":null,"images":["https://xcimg.szwego.com/20240127/i1706337325_4356_0.jpg","https://xcimg.szwego.com/20240127/i1706337325_1530_1.jpg","https://xcimg.szwego.com/20240127/i1706337325_8387_2.jpg","https://xcimg.szwego.com/20240127/i1706337325_9655_3.jpg","https://xcimg.szwego.com/20240127/i1706337325_7840_4.jpg","https://xcimg.szwego.com/20240127/i1706337325_5609_5.jpg","https://xcimg.szwego.com/20240127/i1706337325_8463_6.jpg","https://xcimg.szwego.com/20240127/i1706337325_2437_7.jpg","https://xcimg.szwego.com/20240127/i1706337325_6302_8.jpg"],"created_at":"2024-11-11T10:30:45.864Z"},{"id":"item-d25100774ed3","sku":"_drMrMOsxrmOUg8vNxH2tNwX3MRtzFxYB2L_LmXQ","name_en":"5BB142,保龄球新色到货","name_cn":"5BB142,保龄球新色到货","specs":{"source":"wsxcme","sourceId":"_drMrMOsxrmOUg8vNxH2tNwX3MRtzFxYB2L_LmXQ","sourceTagId":68075769,"sourceTagName":"Miu Miu /女包","rawTitle":"5BB142,保龄球新色到货"},"price":null,"currency":"CNY","moq":1,"category":"miu-miu-women-bags","status":"active","alibaba_url":null,"images":["https://xcimg.szwego.com/20231105/i1699162487_3527_6.jpg","https://xcimg.szwego.com/20231105/i1699162487_7391_7.jpg","https://xcimg.szwego.com/20231105/i1699162487_5016_0.jpg","https://xcimg.szwego.com/20231105/i1699162487_459_1.jpg","https://xcimg.szwego.com/20231105/i1699162487_5367_2.jpg","https://xcimg.szwego.com/20231105/i1699162487_3695_3.jpg","https://xcimg.szwego.com/20231105/i1699162487_7750_4.jpg","https://xcimg.szwego.com/20231105/i1699162487_3418_5.jpg"],"created_at":"2024-11-11T10:30:45.863Z"},{"id":"item-fe378e06e6d5","sku":"_dnfnfoSoGISK9WbXLnm2HNXOAJnVAIush6HPIww","name_en":"5B","name_cn":"5B","specs":{"source":"wsxcme","sourceId":"_dnfnfoSoGISK9WbXLnm2HNXOAJnVAIush6HPIww","sourceTagId":68075769,"sourceTagName":"Miu Miu /女包","rawTitle":"5B"},"price":null,"currency":"CNY","moq":1,"category":"miu-miu-women-bags","status":"active","alibaba_url":null,"images":["https://xcimg.szwego.com/20240905/i1725523469_5147_0.jpg","https://xcimg.szwego.com/20240905/i1725523469_359_1.jpg","https://xcimg.szwego.com/20240905/i1725523469_6636_2.jpg","https://xcimg.szwego.com/20240905/i1725523469_6411_3.jpg"],"created_at":"2024-11-11T10:30:45.862Z"}],"page":14,"pageSize":24,"total":430,"totalPages":18}
