{"items":[{"id":"item-646776e4aaaf","sku":"_dxIxIN2xWFCvSIteHeTPNIm0s8aPTHfjsYdbM8g","name_en":"Miu Miu Women Bags","name_cn":"正品级\n5B,Miu家新款迷你保龄球包,这款Arcadie皮革迷你手袋传递出将对当前现实的反思转化独特版型的时尚理念,轻软包设计让手袋看起来更为饱满,尽显大都会风格,同色调的字母徽标,赋予这款手提包独特美感和经典气息,可拆卸可调节皮革肩带,棉缎衬里配卡槽,尺寸:19X10X5cm","specs":{"source":"wsxcme","sourceId":"_dxIxIN2xWFCvSIteHeTPNIm0s8aPTHfjsYdbM8g","sourceTagId":68075769,"sourceTagName":"Miu Miu /女包","dimensions":{"lengthCm":19,"heightCm":10,"widthCm":5},"rawTitle":"正品级\n5B,Miu家新款迷你保龄球包,这款Arcadie皮革迷你手袋传递出将对当前现实的反思转化独特版型的时尚理念,轻软包设计让手袋看起来更为饱满,尽显大都会风格,同色调的字母徽标,赋予这款手提包独特美感和经典气息,可拆卸可调节皮革肩带,棉缎衬里配卡槽,尺寸:19X10X5cm"},"price":null,"currency":"CNY","moq":1,"category":"miu-miu-women-bags","status":"active","alibaba_url":null,"images":["https://xcimg.szwego.com/20240905/i1725522542_6868_0.jpg","https://xcimg.szwego.com/20240905/i1725522542_5244_1.jpg","https://xcimg.szwego.com/20240905/i1725522542_2212_2.jpg","https://xcimg.szwego.com/20240905/i1725522542_1940_3.jpg","https://xcimg.szwego.com/20240905/i1725522542_9390_4.jpg","https://xcimg.szwego.com/20240905/i1725522542_9047_5.jpg","https://xcimg.szwego.com/20240905/i1725522542_2337_6.jpg","https://xcimg.szwego.com/20240905/i1725522542_234_7.jpg"],"created_at":"2024-11-11T10:30:45.861Z"},{"id":"item-1b1b1af73ad7","sku":"_dA9A9QL5fp0RaXJk8HdAzWIsxrbkuqI0kAIFl-g","name_en":"5BB168棕色","name_cn":"5BB168棕色","specs":{"source":"wsxcme","sourceId":"_dA9A9QL5fp0RaXJk8HdAzWIsxrbkuqI0kAIFl-g","sourceTagId":68075769,"sourceTagName":"Miu Miu /女包","rawTitle":"5BB168棕色"},"price":null,"currency":"CNY","moq":1,"category":"miu-miu-women-bags","status":"active","alibaba_url":null,"images":["https://xcimg.szwego.com/20240826/i1724666058_7797_1.jpg","https://xcimg.szwego.com/20240826/i1724666058_489_0.jpg","https://xcimg.szwego.com/20240826/i1724666058_8315_2.jpg","https://xcimg.szwego.com/20240826/i1724666058_5384_3.jpg","https://xcimg.szwego.com/20240826/i1724666058_6128_4.jpg"],"created_at":"2024-11-11T10:30:45.860Z"},{"id":"item-383e1bb76a6d","sku":"_dHhHh_unnDMVJQX5zd7wUnl6HaLLpxTuFtu2miw","name_en":"5BB168黑","name_cn":"5BB168黑","specs":{"source":"wsxcme","sourceId":"_dHhHh_unnDMVJQX5zd7wUnl6HaLLpxTuFtu2miw","sourceTagId":68075769,"sourceTagName":"Miu Miu /女包","rawTitle":"5BB168黑"},"price":null,"currency":"CNY","moq":1,"category":"miu-miu-women-bags","status":"active","alibaba_url":null,"images":["https://xcimg.szwego.com/20240826/i1724665150_9633_0.jpg","https://xcimg.szwego.com/20240826/i1724665150_7950_1.jpg","https://xcimg.szwego.com/20240826/i1724665150_8421_2.jpg","https://xcimg.szwego.com/20240826/i1724665150_8507_3.jpg","https://xcimg.szwego.com/20240826/i1724665150_3487_4.jpg","https://xcimg.szwego.com/20240826/i1724665150_9116_5.jpg","https://xcimg.szwego.com/20240826/i1724665150_6268_6.jpg","https://xcimg.szwego.com/20240826/i1724665150_7399_7.jpg","https://xcimg.szwego.com/20240826/i1724665150_8918_8.jpg"],"created_at":"2024-11-11T10:30:45.859Z"},{"id":"item-ba66562fe1c6","sku":"_dILILi5S0poDFY_XFvg-iHYDDBffM5l2nFtJCPA","name_en":"5BA289新品贝壳包","name_cn":"5BA289新品贝壳包","specs":{"source":"wsxcme","sourceId":"_dILILi5S0poDFY_XFvg-iHYDDBffM5l2nFtJCPA","sourceTagId":68075769,"sourceTagName":"Miu Miu /女包","rawTitle":"5BA289新品贝壳包"},"price":null,"currency":"CNY","moq":1,"category":"miu-miu-women-bags","status":"active","alibaba_url":null,"images":["https://xcimg.szwego.com/20240507/i1715020485_7331_0.jpg","https://xcimg.szwego.com/20240507/i1715020485_8102_1.jpg","https://xcimg.szwego.com/20240507/i1715020485_5215_2.jpg","https://xcimg.szwego.com/20240507/i1715020485_786_3.jpg","https://xcimg.szwego.com/20240507/i1715020485_9506_4.jpg","https://xcimg.szwego.com/20240507/i1715020485_1323_5.jpg","https://xcimg.szwego.com/20240507/i1715020485_3036_6.jpg"],"created_at":"2024-11-11T10:30:45.858Z"},{"id":"item-5a639712c516","sku":"_dpSpSysnYcf36p4ATBCVqVdqb1NVmHRIsjHby2w","name_en":"Miu Miu Women Bags","name_cn":"正品级\n5BA289新品贝壳包,简便设计延续Miu慵懒美式老钱的风格,采用顶级进口小牛皮,质感高级柔软,两边弧度设计更具造型感,拉链拉开秒变大托特,长手柄设计实用性更强,可腋下可手提,造型简约潇洒随意,容量超大,上班通勤,逛街出游都是绝佳的选择,内里全新麻布里,配拉链式口袋,尺寸:38 X 27 X 16 cm","specs":{"source":"wsxcme","sourceId":"_dpSpSysnYcf36p4ATBCVqVdqb1NVmHRIsjHby2w","sourceTagId":68075769,"sourceTagName":"Miu Miu /女包","dimensions":{"lengthCm":38,"heightCm":27,"widthCm":16},"rawTitle":"正品级\n5BA289新品贝壳包,简便设计延续Miu慵懒美式老钱的风格,采用顶级进口小牛皮,质感高级柔软,两边弧度设计更具造型感,拉链拉开秒变大托特,长手柄设计实用性更强,可腋下可手提,造型简约潇洒随意,容量超大,上班通勤,逛街出游都是绝佳的选择,内里全新麻布里,配拉链式口袋,尺寸:38 X 27 X 16 cm"},"price":null,"currency":"CNY","moq":1,"category":"miu-miu-women-bags","status":"active","alibaba_url":null,"images":["https://xcimg.szwego.com/20240507/i1715068903_4548_0.jpg","https://xcimg.szwego.com/20240507/i1715068903_3974_1.jpg","https://xcimg.szwego.com/20240507/i1715068903_9026_2.jpg","https://xcimg.szwego.com/20240507/i1715068903_4157_3.jpg","https://xcimg.szwego.com/20240507/i1715068903_8509_4.jpg","https://xcimg.szwego.com/20240507/i1715068903_2396_5.jpg","https://xcimg.szwego.com/20240507/i1715068903_2267_6.jpg","https://xcimg.szwego.com/20240507/i1715068903_7738_7.jpg","https://xcimg.szwego.com/20240507/i1715068903_9792_8.jpg"],"created_at":"2024-11-11T10:30:45.857Z"},{"id":"item-b7cf62a8d27e","sku":"_dAGAGIwJOW2TrVDJksYV9QbEDfNegsu4EpNSyFA","name_en":"5BA290新品贝壳包","name_cn":"5BA290新品贝壳包","specs":{"source":"wsxcme","sourceId":"_dAGAGIwJOW2TrVDJksYV9QbEDfNegsu4EpNSyFA","sourceTagId":68075769,"sourceTagName":"Miu Miu /女包","rawTitle":"5BA290新品贝壳包"},"price":null,"currency":"CNY","moq":1,"category":"miu-miu-women-bags","status":"active","alibaba_url":null,"images":["https://xcimg.szwego.com/20240507/i1715020875_519_0.jpg","https://xcimg.szwego.com/20240507/i1715020875_8490_1.jpg","https://xcimg.szwego.com/20240507/i1715020875_3099_4.jpg","https://xcimg.szwego.com/20240507/i1715020875_4214_2.jpg","https://xcimg.szwego.com/20240507/i1715020875_1256_3.jpg"],"created_at":"2024-11-11T10:30:45.856Z"},{"id":"item-53591d5f328c","sku":"_dfHfHEIMT-Ie3hWrHquBnd8ylVBkEtIGzfc1AEA","name_en":"Miu Miu Women Bags","name_cn":"正品级\n5BA290新品贝壳包,简便设计延续Miu慵懒美式老钱的风格,采用顶级进口小牛皮,质感高级柔软,两边弧度设计更具造型感,拉链拉开秒变大托特,长手柄设计实用性更强,可腋下可手提,造型简约潇洒随意,容量超大,上班通勤,逛街出游都是绝佳的选择,内里全新麻布里,配拉链式口袋,尺寸:33 X 21 X 13cm,配原版包装","specs":{"source":"wsxcme","sourceId":"_dfHfHEIMT-Ie3hWrHquBnd8ylVBkEtIGzfc1AEA","sourceTagId":68075769,"sourceTagName":"Miu Miu /女包","dimensions":{"lengthCm":33,"heightCm":21,"widthCm":13},"rawTitle":"正品级\n5BA290新品贝壳包,简便设计延续Miu慵懒美式老钱的风格,采用顶级进口小牛皮,质感高级柔软,两边弧度设计更具造型感,拉链拉开秒变大托特,长手柄设计实用性更强,可腋下可手提,造型简约潇洒随意,容量超大,上班通勤,逛街出游都是绝佳的选择,内里全新麻布里,配拉链式口袋,尺寸:33 X 21 X 13cm,配原版包装"},"price":null,"currency":"CNY","moq":1,"category":"miu-miu-women-bags","status":"active","alibaba_url":null,"images":["https://xcimg.szwego.com/20240507/i1715069200_7551_1.jpg","https://xcimg.szwego.com/20240507/i1715069200_4266_0.jpg","https://xcimg.szwego.com/20240507/i1715069200_976_2.jpg","https://xcimg.szwego.com/20240507/i1715069200_5671_3.jpg","https://xcimg.szwego.com/20240507/i1715069200_7133_4.jpg","https://xcimg.szwego.com/20240507/i1715069200_3934_5.jpg","https://xcimg.szwego.com/20240507/i1715069200_6154_6.jpg","https://xcimg.szwego.com/20240507/i1715069200_9320_7.jpg","https://xcimg.szwego.com/20240507/i1715069200_7023_8.jpg"],"created_at":"2024-11-11T10:30:45.855Z"},{"id":"item-1332a5b454a0","sku":"_dlele2vXlRE8BnZnyW0oKfI-tyX1O975-s8n5Iw","name_en":"5BG287","name_cn":"5BG287","specs":{"source":"wsxcme","sourceId":"_dlele2vXlRE8BnZnyW0oKfI-tyX1O975-s8n5Iw","sourceTagId":68075769,"sourceTagName":"Miu Miu /女包","rawTitle":"5BG287"},"price":null,"currency":"CNY","moq":1,"category":"miu-miu-women-bags","status":"active","alibaba_url":null,"images":["https://xcimg.szwego.com/20240606/i1717615281_7079_1.jpg","https://xcimg.szwego.com/20240606/i1717615281_555_0.jpg","https://xcimg.szwego.com/20240606/i1717615281_7859_6.jpg","https://xcimg.szwego.com/20240606/i1717615281_9842_2.jpg","https://xcimg.szwego.com/20240606/i1717615281_1393_3.jpg","https://xcimg.szwego.com/20240606/i1717615281_5174_4.jpg","https://xcimg.szwego.com/20240606/i1717615281_6296_5.jpg"],"created_at":"2024-11-11T10:30:45.854Z"},{"id":"item-7c6a54451ad4","sku":"_d1i1iHszWoHGfYfL46HL7xb0Io8HN3Ju_7JSXrg","name_en":"Miu Miu Women Bags","name_cn":"正品级\n5BG287,Miu新品流苏腋下包,采用顶级进口羊皮,皮质柔软高级,包口采用褶皱内扣设计,两侧流苏开合包口,结构经过调整,变得更加轻便,焕发全新个性,正面全属徽标增添标志性元素,复古金色五金配件,缎面衬里,内配拉链口袋,长手腕适合用作手提或腋下肩背,复古风高级洒脱,尺寸:35X18X9CM,配原版包装","specs":{"source":"wsxcme","sourceId":"_d1i1iHszWoHGfYfL46HL7xb0Io8HN3Ju_7JSXrg","sourceTagId":68075769,"sourceTagName":"Miu Miu /女包","dimensions":{"lengthCm":35,"heightCm":18,"widthCm":9},"rawTitle":"正品级\n5BG287,Miu新品流苏腋下包,采用顶级进口羊皮,皮质柔软高级,包口采用褶皱内扣设计,两侧流苏开合包口,结构经过调整,变得更加轻便,焕发全新个性,正面全属徽标增添标志性元素,复古金色五金配件,缎面衬里,内配拉链口袋,长手腕适合用作手提或腋下肩背,复古风高级洒脱,尺寸:35X18X9CM,配原版包装"},"price":null,"currency":"CNY","moq":1,"category":"miu-miu-women-bags","status":"active","alibaba_url":null,"images":["https://xcimg.szwego.com/20240607/i1717701686_3175_0.jpg","https://xcimg.szwego.com/20240607/i1717701686_9737_1.jpg","https://xcimg.szwego.com/20240607/i1717701686_8408_2.jpg","https://xcimg.szwego.com/20240607/i1717701686_2586_3.jpg","https://xcimg.szwego.com/20240607/i1717701686_6170_4.jpg","https://xcimg.szwego.com/20240607/i1717701686_7338_5.jpg","https://xcimg.szwego.com/20240607/i1717701686_8426_6.jpg","https://xcimg.szwego.com/20240607/i1717701686_3648_7.jpg","https://xcimg.szwego.com/20240607/i1717701686_4616_8.jpg"],"created_at":"2024-11-11T10:30:45.853Z"},{"id":"item-022a1d28c190","sku":"_dIuIuLEvWexJSVEMq4qtR1FQCO7owPdgWRuQDSA","name_en":"5BC151","name_cn":"5BC151","specs":{"source":"wsxcme","sourceId":"_dIuIuLEvWexJSVEMq4qtR1FQCO7owPdgWRuQDSA","sourceTagId":68075769,"sourceTagName":"Miu Miu /女包","rawTitle":"5BC151"},"price":null,"currency":"CNY","moq":1,"category":"miu-miu-women-bags","status":"active","alibaba_url":null,"images":["https://xcimg.szwego.com/20240606/i1717615342_6971_0.jpg","https://xcimg.szwego.com/20240606/i1717615342_9140_1.jpg","https://xcimg.szwego.com/20240606/i1717615342_4952_2.jpg","https://xcimg.szwego.com/20240606/i1717615342_7407_3.jpg","https://xcimg.szwego.com/20240606/i1717615342_9986_4.jpg"],"created_at":"2024-11-11T10:30:45.852Z"},{"id":"item-5d8de83140c0","sku":"_dwZwZ5ln0lFNSQn79UfbnVstXE9r9pBMwZGDtuQ","name_en":"Miu Miu Women Bags","name_cn":"正品级\n5BC151,Miu家新品hobo包包,采用顶级进口小牛皮,时尚蜻蜓线条设计,包身精致立体有型,大尺寸上身效果更加休闲随性洒脱,风格百变,适配度很高,日常出行怎么搭都好看,正面标志性金属logo标,暖心设计可调节皮革肩带,帆布衬里,尺寸27X20X8Cm,配原版包装,","specs":{"source":"wsxcme","sourceId":"_dwZwZ5ln0lFNSQn79UfbnVstXE9r9pBMwZGDtuQ","sourceTagId":68075769,"sourceTagName":"Miu Miu /女包","dimensions":{"lengthCm":27,"heightCm":20,"widthCm":8},"rawTitle":"正品级\n5BC151,Miu家新品hobo包包,采用顶级进口小牛皮,时尚蜻蜓线条设计,包身精致立体有型,大尺寸上身效果更加休闲随性洒脱,风格百变,适配度很高,日常出行怎么搭都好看,正面标志性金属logo标,暖心设计可调节皮革肩带,帆布衬里,尺寸27X20X8Cm,配原版包装,"},"price":null,"currency":"CNY","moq":1,"category":"miu-miu-women-bags","status":"active","alibaba_url":null,"images":["https://xcimg.szwego.com/20240607/i1717700990_2604_0.jpg","https://xcimg.szwego.com/20240607/i1717700990_8526_1.jpg","https://xcimg.szwego.com/20240607/i1717700990_2084_2.jpg","https://xcimg.szwego.com/20240607/i1717700990_9205_3.jpg","https://xcimg.szwego.com/20240607/i1717700990_8490_4.jpg","https://xcimg.szwego.com/20240607/i1717700990_9215_5.jpg","https://xcimg.szwego.com/20240607/i1717700990_7052_6.jpg","https://xcimg.szwego.com/20240607/i1717700990_1451_7.jpg","https://xcimg.szwego.com/20240607/i1717700990_7886_8.jpg"],"created_at":"2024-11-11T10:30:45.851Z"},{"id":"item-cf9412c88922","sku":"_dWMWMnsl73XUknhzEhVbbyKGyf1eejvKfK0mIDg","name_en":"5NF460迷你小桶包","name_cn":"5NF460迷你小桶包","specs":{"source":"wsxcme","sourceId":"_dWMWMnsl73XUknhzEhVbbyKGyf1eejvKfK0mIDg","sourceTagId":68075769,"sourceTagName":"Miu Miu /女包","rawTitle":"5NF460迷你小桶包"},"price":null,"currency":"CNY","moq":1,"category":"miu-miu-women-bags","status":"active","alibaba_url":null,"images":["https://xcimg.szwego.com/20240331/i1711872747_9728_0.jpg","https://xcimg.szwego.com/20240331/i1711823674_5716_0.jpg","https://xcimg.szwego.com/20240331/i1711823674_4340_1.jpg","https://xcimg.szwego.com/20240331/i1711823674_1771_2.jpg","https://xcimg.szwego.com/20240331/i1711823674_4401_3.jpg","https://xcimg.szwego.com/20240331/i1711823674_9849_4.jpg","https://xcimg.szwego.com/20240331/i1711823674_6016_5.jpg","https://xcimg.szwego.com/20240331/i1711823674_460_7.jpg","https://xcimg.szwego.com/20240331/i1711823674_355_8.jpg"],"created_at":"2024-11-11T10:30:45.850Z"},{"id":"item-fe37e7d65672","sku":"_dveveEK8ImtA33oizy-WbNTnzhZ3w7D-0nzkUSQ","name_en":"5NF460","name_cn":"5NF460","specs":{"source":"wsxcme","sourceId":"_dveveEK8ImtA33oizy-WbNTnzhZ3w7D-0nzkUSQ","sourceTagId":68075769,"sourceTagName":"Miu Miu /女包","rawTitle":"5NF460"},"price":null,"currency":"CNY","moq":1,"category":"miu-miu-women-bags","status":"active","alibaba_url":null,"images":["https://xcimg.szwego.com/20240401/i1711936322_5322_0.jpg"],"created_at":"2024-11-11T10:30:45.849Z"},{"id":"item-af2f4d2544c0","sku":"_dImIm-nQcCgp597U7z78QQuPu2DtnpS381X_VEg","name_en":"Miu Miu Women Bags","name_cn":"正品级\n5NF460,新品迷你水桶包,采用顶级进口小羊皮,皮质超级柔软,性价比超高,能驾驭各种风格,非常俏皮可爱,可以单肩,斜挎,手提,双肩,造型多变,包包虽小却非常能装,尺寸:17X14X6CM,配原版包装","specs":{"source":"wsxcme","sourceId":"_dImIm-nQcCgp597U7z78QQuPu2DtnpS381X_VEg","sourceTagId":68075769,"sourceTagName":"Miu Miu /女包","dimensions":{"lengthCm":17,"heightCm":14,"widthCm":6},"rawTitle":"正品级\n5NF460,新品迷你水桶包,采用顶级进口小羊皮,皮质超级柔软,性价比超高,能驾驭各种风格,非常俏皮可爱,可以单肩,斜挎,手提,双肩,造型多变,包包虽小却非常能装,尺寸:17X14X6CM,配原版包装"},"price":null,"currency":"CNY","moq":1,"category":"miu-miu-women-bags","status":"active","alibaba_url":null,"images":["https://xcimg.szwego.com/20240401/i1711936287_9180_0.jpg","https://xcimg.szwego.com/20240401/i1711936287_235_1.jpg","https://xcimg.szwego.com/20240401/i1711936287_6184_2.jpg","https://xcimg.szwego.com/20240401/i1711936287_9585_3.jpg","https://xcimg.szwego.com/20240401/i1711936287_4235_4.jpg","https://xcimg.szwego.com/20240401/i1711936287_9422_7.jpg","https://xcimg.szwego.com/20240401/i1711936287_1441_8.jpg","https://xcimg.szwego.com/20240429/i1714329431_1086_0.jpg","https://xcimg.szwego.com/20240429/i1714329431_8871_1.jpg"],"created_at":"2024-11-11T10:30:45.848Z"},{"id":"item-aae11411469b","sku":"_dizizZseY8cZcJxZIqQcGFTF0pzH1HD1X8uBnFg","name_en":"5BG276复古擦色皮","name_cn":"5BG276复古擦色皮","specs":{"source":"wsxcme","sourceId":"_dizizZseY8cZcJxZIqQcGFTF0pzH1HD1X8uBnFg","sourceTagId":68075769,"sourceTagName":"Miu Miu /女包","rawTitle":"5BG276复古擦色皮"},"price":null,"currency":"CNY","moq":1,"category":"miu-miu-women-bags","status":"active","alibaba_url":null,"images":["https://xcimg.szwego.com/20240317/i1710612170_1103_2.jpg","https://xcimg.szwego.com/20240317/i1710612170_1666_1.jpg","https://xcimg.szwego.com/20240317/i1710612170_3881_3.jpg","https://xcimg.szwego.com/20240317/i1710612170_9098_0.jpg","https://xcimg.szwego.com/20240317/i1710612170_7411_4.jpg","https://xcimg.szwego.com/20240317/i1710612170_4711_5.jpg","https://xcimg.szwego.com/20240317/i1710612170_7845_8.jpg","https://xcimg.szwego.com/20240317/i1710612170_2481_6.jpg","https://xcimg.szwego.com/20240317/i1710612170_8347_7.jpg"],"created_at":"2024-11-11T10:30:45.847Z"},{"id":"item-c6f3aba3ead1","sku":"_d2h2hBxtV_sSjJOCUiFS3ck1EpnuMAe_YPd4VYQ","name_en":"Miu Miu Women Bags","name_cn":"正品级\n5BG276,Miu家新款伊势丹限定托特包,官网主推,今年绝对爆🔥款式,顶级进口复古擦色小羊皮,皮面细腻光滑柔软,复古做旧设计,更显高端大气,上乘的皮革质感高级,包身软而不塌,大尺寸设计,气质随性慵懒,容量超大,日常出街背它回头率百分百,手工缝制皮面Logo标志,内里全新麻布里,配两个拉链式口袋,尺寸38X 38 X18Cm,配原版包装","specs":{"source":"wsxcme","sourceId":"_d2h2hBxtV_sSjJOCUiFS3ck1EpnuMAe_YPd4VYQ","sourceTagId":68075769,"sourceTagName":"Miu Miu /女包","dimensions":{"lengthCm":38,"heightCm":38,"widthCm":18},"rawTitle":"正品级\n5BG276,Miu家新款伊势丹限定托特包,官网主推,今年绝对爆🔥款式,顶级进口复古擦色小羊皮,皮面细腻光滑柔软,复古做旧设计,更显高端大气,上乘的皮革质感高级,包身软而不塌,大尺寸设计,气质随性慵懒,容量超大,日常出街背它回头率百分百,手工缝制皮面Logo标志,内里全新麻布里,配两个拉链式口袋,尺寸38X 38 X18Cm,配原版包装"},"price":null,"currency":"CNY","moq":1,"category":"miu-miu-women-bags","status":"active","alibaba_url":null,"images":["https://xcimg.szwego.com/20240317/i1710648378_7602_0.jpg","https://xcimg.szwego.com/20240317/i1710648378_759_1.jpg","https://xcimg.szwego.com/20240317/i1710648378_9689_2.jpg","https://xcimg.szwego.com/20240317/i1710648378_6124_3.jpg","https://xcimg.szwego.com/20240317/i1710648378_5016_4.jpg","https://xcimg.szwego.com/20240317/i1710648378_3486_5.jpg","https://xcimg.szwego.com/20240317/i1710648378_8672_6.jpg","https://xcimg.szwego.com/20240317/i1710648378_4250_7.jpg","https://xcimg.szwego.com/20240317/i1710648378_9209_8.jpg"],"created_at":"2024-11-11T10:30:45.846Z"},{"id":"item-ce8b1b3a2b2f","sku":"_dzEzEsGXhhpfn7eAvrecEHf7BvxafZkeDxzRuuA","name_en":"5BG276,Miu家新款伊势丹限定托特包,官网主推,今年绝对爆🔥款式,顶级进口小牛皮,皮面细腻光滑柔软,上乘的皮革质感高级,包身软而不塌,大尺寸设计,气质随性慵懒,容量超大,日常出街背它回头率百分百,手工缝制皮面Logo标志,内里全新麻布里,配两个拉链式口袋,尺寸38X 38 X18Cm,配原版包装","name_cn":"5BG276,Miu家新款伊势丹限定托特包,官网主推,今年绝对爆🔥款式,顶级进口小牛皮,皮面细腻光滑柔软,上乘的皮革质感高级,包身软而不塌,大尺寸设计,气质随性慵懒,容量超大,日常出街背它回头率百分百,手工缝制皮面Logo标志,内里全新麻布里,配两个拉链式口袋,尺寸38X 38 X18Cm,配原版包装","specs":{"source":"wsxcme","sourceId":"_dzEzEsGXhhpfn7eAvrecEHf7BvxafZkeDxzRuuA","sourceTagId":68075769,"sourceTagName":"Miu Miu /女包","dimensions":{"lengthCm":38,"heightCm":38,"widthCm":18},"rawTitle":"5BG276,Miu家新款伊势丹限定托特包,官网主推,今年绝对爆🔥款式,顶级进口小牛皮,皮面细腻光滑柔软,上乘的皮革质感高级,包身软而不塌,大尺寸设计,气质随性慵懒,容量超大,日常出街背它回头率百分百,手工缝制皮面Logo标志,内里全新麻布里,配两个拉链式口袋,尺寸38X 38 X18Cm,配原版包装"},"price":null,"currency":"CNY","moq":1,"category":"miu-miu-women-bags","status":"active","alibaba_url":null,"images":["https://xcimg.szwego.com/20231111/i1699639314_2487_0.jpg","https://xcimg.szwego.com/20231111/i1699639314_8937_1.jpg","https://xcimg.szwego.com/20231111/i1699639314_6036_2.jpg","https://xcimg.szwego.com/20231111/i1699639314_5964_3.jpg","https://xcimg.szwego.com/20231111/i1699639314_9609_4.jpg","https://xcimg.szwego.com/20231111/i1699639314_9280_5.jpg","https://xcimg.szwego.com/20231111/i1699639314_4729_6.jpg","https://xcimg.szwego.com/20231111/i1699639314_2211_7.jpg","https://xcimg.szwego.com/20231111/i1699639314_2460_8.jpg"],"created_at":"2024-11-11T10:30:45.845Z"},{"id":"item-f5e2c071c19b","sku":"_dhEhEZ17VoQ-t1KCddBdO5d4aeo3FIzUiMdomTA","name_en":"Miu Miu Women Bags","name_cn":"正品级\n5BG276,Miu家新款伊势丹限定托特包,官网主推,今年绝对爆🔥款式,顶级进口小牛皮,皮面细腻光滑柔软,上乘的皮革质感高级,包身软而不塌,大尺寸设计,气质随性慵懒,容量超大,日常出街背它回头率百分百,手工缝制皮面Logo标志,内里全新麻布里,配两个拉链式口袋,尺寸38X 38 X18Cm,配原版包装","specs":{"source":"wsxcme","sourceId":"_dhEhEZ17VoQ-t1KCddBdO5d4aeo3FIzUiMdomTA","sourceTagId":68075769,"sourceTagName":"Miu Miu /女包","dimensions":{"lengthCm":38,"heightCm":38,"widthCm":18},"rawTitle":"正品级\n5BG276,Miu家新款伊势丹限定托特包,官网主推,今年绝对爆🔥款式,顶级进口小牛皮,皮面细腻光滑柔软,上乘的皮革质感高级,包身软而不塌,大尺寸设计,气质随性慵懒,容量超大,日常出街背它回头率百分百,手工缝制皮面Logo标志,内里全新麻布里,配两个拉链式口袋,尺寸38X 38 X18Cm,配原版包装"},"price":null,"currency":"CNY","moq":1,"category":"miu-miu-women-bags","status":"active","alibaba_url":null,"images":["https://xcimg.szwego.com/20231112/i1699775009_9553_0.jpg","https://xcimg.szwego.com/20231112/i1699775009_932_1.jpg","https://xcimg.szwego.com/20231112/i1699775009_4103_2.jpg","https://xcimg.szwego.com/20231112/i1699775009_6035_3.jpg","https://xcimg.szwego.com/20231112/i1699775009_6158_4.jpg","https://xcimg.szwego.com/20231112/i1699775009_4948_5.jpg","https://xcimg.szwego.com/20231112/i1699775009_8332_8.jpg","https://xcimg.szwego.com/20231128/i1701107879_9732_0.jpg","https://xcimg.szwego.com/20231128/i1701107858_4249_1.jpg"],"created_at":"2024-11-11T10:30:45.844Z"},{"id":"item-abd6dfc347e8","sku":"_drnrn_mivBVMkpSkHSCt9qUxoNcwI0r_yB-Xmfg","name_en":"5BG276","name_cn":"5BG276","specs":{"source":"wsxcme","sourceId":"_drnrn_mivBVMkpSkHSCt9qUxoNcwI0r_yB-Xmfg","sourceTagId":68075769,"sourceTagName":"Miu Miu /女包","rawTitle":"5BG276"},"price":null,"currency":"CNY","moq":1,"category":"miu-miu-women-bags","status":"active","alibaba_url":null,"images":["https://xcimg.szwego.com/20240105/i1704391076_213_0.jpg","https://xcimg.szwego.com/20240105/i1704391076_9998_1.jpg","https://xcimg.szwego.com/20240105/i1704391076_5833_2.jpg","https://xcimg.szwego.com/20240105/i1704391076_7124_3.jpg","https://xcimg.szwego.com/20240105/i1704391076_9927_4.jpg"],"created_at":"2024-11-11T10:30:45.843Z"},{"id":"item-8eb4b8621600","sku":"_dZgZgERy7DLrVdDFpdVDbzes5yJfVeUh_Qmhw3Q","name_en":"5BG276灯芯绒","name_cn":"5BG276灯芯绒","specs":{"source":"wsxcme","sourceId":"_dZgZgERy7DLrVdDFpdVDbzes5yJfVeUh_Qmhw3Q","sourceTagId":68075769,"sourceTagName":"Miu Miu /女包","rawTitle":"5BG276灯芯绒"},"price":null,"currency":"CNY","moq":1,"category":"miu-miu-women-bags","status":"active","alibaba_url":null,"images":["https://xcimg.szwego.com/20231130/i1701283325_6608_0.jpg","https://xcimg.szwego.com/20231130/i1701283325_3088_1.jpg","https://xcimg.szwego.com/20231130/i1701283325_2968_2.jpg","https://xcimg.szwego.com/20231130/i1701283325_3756_3.jpg","https://xcimg.szwego.com/20231130/i1701283325_4058_4.jpg","https://xcimg.szwego.com/20231130/i1701283325_4818_5.jpg","https://xcimg.szwego.com/20231130/i1701283325_4964_6.jpg","https://xcimg.szwego.com/20231130/i1701283325_1172_7.jpg","https://xcimg.szwego.com/20231130/i1701283325_6099_8.jpg"],"created_at":"2024-11-11T10:30:45.842Z"},{"id":"item-7ca1e20f3d73","sku":"_dMKMKTiIz7Agm_a49lpFh9O2w66NItb9g0-4elA","name_en":"Miu Miu Women Bags","name_cn":"正品级\n5BG276,Miu家新款伊势丹限定托特包,今年绝对爆🔥款式,全新限定版灯芯绒面料,搭配上乘的皮革质感高级,包身软而不塌,大尺寸设计,气质更显随性慵懒,容量超大,日常出街背它回头率百分百,手工缝制皮面Logo标志,内里全新麻布里,配两个拉链式口袋,尺寸38X 38 X18Cm,配原版包装","specs":{"source":"wsxcme","sourceId":"_dMKMKTiIz7Agm_a49lpFh9O2w66NItb9g0-4elA","sourceTagId":68075769,"sourceTagName":"Miu Miu /女包","dimensions":{"lengthCm":38,"heightCm":38,"widthCm":18},"rawTitle":"正品级\n5BG276,Miu家新款伊势丹限定托特包,今年绝对爆🔥款式,全新限定版灯芯绒面料,搭配上乘的皮革质感高级,包身软而不塌,大尺寸设计,气质更显随性慵懒,容量超大,日常出街背它回头率百分百,手工缝制皮面Logo标志,内里全新麻布里,配两个拉链式口袋,尺寸38X 38 X18Cm,配原版包装"},"price":null,"currency":"CNY","moq":1,"category":"miu-miu-women-bags","status":"active","alibaba_url":null,"images":["https://xcimg.szwego.com/20231201/i1701396529_5850_0.jpg","https://xcimg.szwego.com/20231201/i1701396529_6380_1.jpg","https://xcimg.szwego.com/20231201/i1701396529_1674_2.jpg","https://xcimg.szwego.com/20231201/i1701396529_9850_3.jpg","https://xcimg.szwego.com/20231201/i1701396529_775_4.jpg","https://xcimg.szwego.com/20231201/i1701396529_3586_5.jpg","https://xcimg.szwego.com/20231201/i1701396529_3930_6.jpg","https://xcimg.szwego.com/20231201/i1701396529_5767_7.jpg","https://xcimg.szwego.com/20231201/i1701396529_6004_8.jpg"],"created_at":"2024-11-11T10:30:45.841Z"},{"id":"item-853bb9b7be9a","sku":"_dvRvRUnOJyn3FygKuh1GtFtbQranx77vgaftX7w","name_en":"5BG288,Miu家新款伊势丹限定托特包,官网主推,今年绝对爆🔥款式,顶级进口小牛皮,皮面细腻光滑柔软,上乘的皮革质感高级,包身软而不塌,小尺寸设计更加精致,气质随性慵懒,日常出街背它回头率百分百,手工缝制皮面Logo标志,内里全新麻布里,配两个拉链式口袋,可调节皮革长肩带,尺寸22X 14X11Cm,配原版包装","name_cn":"5BG288,Miu家新款伊势丹限定托特包,官网主推,今年绝对爆🔥款式,顶级进口小牛皮,皮面细腻光滑柔软,上乘的皮革质感高级,包身软而不塌,小尺寸设计更加精致,气质随性慵懒,日常出街背它回头率百分百,手工缝制皮面Logo标志,内里全新麻布里,配两个拉链式口袋,可调节皮革长肩带,尺寸22X 14X11Cm,配原版包装","specs":{"source":"wsxcme","sourceId":"_dvRvRUnOJyn3FygKuh1GtFtbQranx77vgaftX7w","sourceTagId":68075769,"sourceTagName":"Miu Miu /女包","dimensions":{"lengthCm":22,"heightCm":14,"widthCm":11},"rawTitle":"5BG288,Miu家新款伊势丹限定托特包,官网主推,今年绝对爆🔥款式,顶级进口小牛皮,皮面细腻光滑柔软,上乘的皮革质感高级,包身软而不塌,小尺寸设计更加精致,气质随性慵懒,日常出街背它回头率百分百,手工缝制皮面Logo标志,内里全新麻布里,配两个拉链式口袋,可调节皮革长肩带,尺寸22X 14X11Cm,配原版包装"},"price":null,"currency":"CNY","moq":1,"category":"miu-miu-women-bags","status":"active","alibaba_url":null,"images":["https://xcimg.szwego.com/20231123/i1700677990_7226_0.jpg","https://xcimg.szwego.com/20231123/i1700677990_3773_1.jpg","https://xcimg.szwego.com/20231123/i1700677990_9297_2.jpg"],"created_at":"2024-11-11T10:30:45.840Z"},{"id":"item-3f6272c7ecc6","sku":"_dQkQk3si7crIv-mmKsrxij20QSX6ukNuhTtgD5A","name_en":"Miu Miu Women Bags","name_cn":"正品级\n5BG288,Miu家新款伊势丹限定托特包,官网主推,今年绝对爆🔥款式,顶级进口小牛皮,皮面细腻光滑柔软,上乘的皮革质感高级,包身软而不塌,小尺寸设计更加精致,气质随性慵懒,日常出街背它回头率百分百,手工缝制皮面Logo标志,内里全新麻布里,配两个拉链式口袋,可调节皮革长肩带,尺寸22X 14X11Cm,配原版包装","specs":{"source":"wsxcme","sourceId":"_dQkQk3si7crIv-mmKsrxij20QSX6ukNuhTtgD5A","sourceTagId":68075769,"sourceTagName":"Miu Miu /女包","dimensions":{"lengthCm":22,"heightCm":14,"widthCm":11},"rawTitle":"正品级\n5BG288,Miu家新款伊势丹限定托特包,官网主推,今年绝对爆🔥款式,顶级进口小牛皮,皮面细腻光滑柔软,上乘的皮革质感高级,包身软而不塌,小尺寸设计更加精致,气质随性慵懒,日常出街背它回头率百分百,手工缝制皮面Logo标志,内里全新麻布里,配两个拉链式口袋,可调节皮革长肩带,尺寸22X 14X11Cm,配原版包装"},"price":null,"currency":"CNY","moq":1,"category":"miu-miu-women-bags","status":"active","alibaba_url":null,"images":["https://xcimg.szwego.com/20231123/i1700721515_4111_0.jpg","https://xcimg.szwego.com/20231123/i1700721515_1540_1.jpg","https://xcimg.szwego.com/20231123/i1700721515_1768_2.jpg","https://xcimg.szwego.com/20231123/i1700721515_6820_3.jpg","https://xcimg.szwego.com/20231123/i1700721515_9074_4.jpg","https://xcimg.szwego.com/20231123/i1700721515_5868_5.jpg","https://xcimg.szwego.com/20231123/i1700721515_3751_6.jpg","https://xcimg.szwego.com/20231123/i1700721515_4202_7.jpg","https://xcimg.szwego.com/20231123/i1700721515_9062_8.jpg"],"created_at":"2024-11-11T10:30:45.839Z"},{"id":"item-762fb4183d8c","sku":"_dOIOI8ocqxzvnuFVRGQNWJMxlB-8XldDA5DJnLg","name_en":"5BE089","name_cn":"5BE089","specs":{"source":"wsxcme","sourceId":"_dOIOI8ocqxzvnuFVRGQNWJMxlB-8XldDA5DJnLg","sourceTagId":68075769,"sourceTagName":"Miu Miu /女包","rawTitle":"5BE089"},"price":null,"currency":"CNY","moq":1,"category":"miu-miu-women-bags","status":"active","alibaba_url":null,"images":["https://xcimg.szwego.com/20240514/i1715627968_3573_0.jpg","https://xcimg.szwego.com/20240514/i1715627968_6159_1.jpg","https://xcimg.szwego.com/20240514/i1715627968_7773_2.jpg","https://xcimg.szwego.com/20240514/i1715627968_9702_3.jpg","https://xcimg.szwego.com/20240514/i1715627968_7543_4.jpg","https://xcimg.szwego.com/20240514/i1715627968_1817_5.jpg","https://xcimg.szwego.com/20240514/i1715627968_8084_6.jpg"],"created_at":"2024-11-11T10:30:45.838Z"}],"page":15,"pageSize":24,"total":430,"totalPages":18}
