{"items":[{"id":"item-ef2199a4229a","sku":"_dNoNo2jo0t8ttfuUc-UkU_AWaRM0ANfBqV8wfug","name_en":"Miu Miu Women Bags","name_cn":"正品级\n5BE089,Miu家新款水桶包,延续上一季的慵懒和性感热潮,又一火爆🔥款式,搭配顶级进口小牛皮,皮面细腻光滑柔软,上乘的皮革质感高级,包体休闲轻盈,包身软而有型,肩带可调节设计,更加精致实用,好气质随性慵懒,日常出街背它回头率百分百,手工缝制皮面Logo标志,内里全新麻布里,尺寸23X 29X17Cm,配原版包装","specs":{"source":"wsxcme","sourceId":"_dNoNo2jo0t8ttfuUc-UkU_AWaRM0ANfBqV8wfug","sourceTagId":68075769,"sourceTagName":"Miu Miu /女包","dimensions":{"lengthCm":23,"heightCm":29,"widthCm":17},"rawTitle":"正品级\n5BE089,Miu家新款水桶包,延续上一季的慵懒和性感热潮,又一火爆🔥款式,搭配顶级进口小牛皮,皮面细腻光滑柔软,上乘的皮革质感高级,包体休闲轻盈,包身软而有型,肩带可调节设计,更加精致实用,好气质随性慵懒,日常出街背它回头率百分百,手工缝制皮面Logo标志,内里全新麻布里,尺寸23X 29X17Cm,配原版包装"},"price":null,"currency":"CNY","moq":1,"category":"miu-miu-women-bags","status":"active","alibaba_url":null,"images":["https://xcimg.szwego.com/20240515/i1715738649_3062_0.jpg","https://xcimg.szwego.com/20240515/i1715738649_4630_1.jpg","https://xcimg.szwego.com/20240515/i1715738649_4858_2.jpg","https://xcimg.szwego.com/20240515/i1715738649_9601_3.jpg","https://xcimg.szwego.com/20240515/i1715738649_9637_4.jpg","https://xcimg.szwego.com/20240515/i1715738649_2566_5.jpg","https://xcimg.szwego.com/20240515/i1715738649_6887_6.jpg","https://xcimg.szwego.com/20240515/i1715738649_4632_7.jpg","https://xcimg.szwego.com/20240515/i1715738649_8157_8.jpg"],"created_at":"2024-11-11T10:30:45.837Z"},{"id":"item-cebaebf52965","sku":"_dwDwDQIpdBqENvBMYqL36NNAEm5roT9EGFeWFJg","name_en":"5BE090","name_cn":"5BE090","specs":{"source":"wsxcme","sourceId":"_dwDwDQIpdBqENvBMYqL36NNAEm5roT9EGFeWFJg","sourceTagId":68075769,"sourceTagName":"Miu Miu /女包","rawTitle":"5BE090"},"price":null,"currency":"CNY","moq":1,"category":"miu-miu-women-bags","status":"active","alibaba_url":null,"images":["https://xcimg.szwego.com/20240514/i1715627301_309_0.jpg","https://xcimg.szwego.com/20240514/i1715627301_4045_1.jpg","https://xcimg.szwego.com/20240514/i1715627301_7141_2.jpg","https://xcimg.szwego.com/20240514/i1715627301_1394_3.jpg","https://xcimg.szwego.com/20240514/i1715627301_458_4.jpg","https://xcimg.szwego.com/20240514/i1715627301_6153_5.jpg","https://xcimg.szwego.com/20240514/i1715627301_8807_6.jpg","https://xcimg.szwego.com/20240514/i1715627301_5221_7.jpg","https://xcimg.szwego.com/20240514/i1715627301_4422_8.jpg"],"created_at":"2024-11-11T10:30:45.836Z"},{"id":"item-14ba6b3ce41f","sku":"_dSzSzPKxUMHI0_yegf77NJ-eQqWtgpB6EQ2dgqQ","name_en":"5BE090,Miu家新款水桶包","name_cn":"5BE090,Miu家新款水桶包","specs":{"source":"wsxcme","sourceId":"_dSzSzPKxUMHI0_yegf77NJ-eQqWtgpB6EQ2dgqQ","sourceTagId":68075769,"sourceTagName":"Miu Miu /女包","rawTitle":"5BE090,Miu家新款水桶包"},"price":null,"currency":"CNY","moq":1,"category":"miu-miu-women-bags","status":"active","alibaba_url":null,"images":["https://xcimg.szwego.com/20240516/i1715822829_2776_0.jpg","https://xcimg.szwego.com/20240516/i1715822829_7196_1.jpg","https://xcimg.szwego.com/20240516/i1715822829_4456_2.jpg","https://xcimg.szwego.com/20240516/i1715822829_4712_3.jpg","https://xcimg.szwego.com/20240516/i1715822829_1330_4.jpg"],"created_at":"2024-11-11T10:30:45.835Z"},{"id":"item-cd0a35bcf9a9","sku":"_d5-5-PpyeQhrhCz0V40E1ynA3LSZn45AlckPCqA","name_en":"Miu Miu Women Bags","name_cn":"正品级\n5BE090,Miu家新款水桶包,延续上一季的慵懒和性感热潮,又一火爆🔥款式,顶级进口小牛皮,皮面细腻光滑柔软,上乘的皮革质感高级,包体休闲轻盈,包身软而有型,肩带可调节设计,更加精致实用,好气质随性慵懒,日常出街背它回头率百分百,手工缝制皮面Logo标志,内里全新麻布里,尺寸16X 22.5X14Cm,配原版包装","specs":{"source":"wsxcme","sourceId":"_d5-5-PpyeQhrhCz0V40E1ynA3LSZn45AlckPCqA","sourceTagId":68075769,"sourceTagName":"Miu Miu /女包","dimensions":{"lengthCm":16,"heightCm":22.5,"widthCm":14},"rawTitle":"正品级\n5BE090,Miu家新款水桶包,延续上一季的慵懒和性感热潮,又一火爆🔥款式,顶级进口小牛皮,皮面细腻光滑柔软,上乘的皮革质感高级,包体休闲轻盈,包身软而有型,肩带可调节设计,更加精致实用,好气质随性慵懒,日常出街背它回头率百分百,手工缝制皮面Logo标志,内里全新麻布里,尺寸16X 22.5X14Cm,配原版包装"},"price":null,"currency":"CNY","moq":1,"category":"miu-miu-women-bags","status":"active","alibaba_url":null,"images":["https://xcimg.szwego.com/20240516/i1715822699_7825_0.jpg","https://xcimg.szwego.com/20240516/i1715822699_7140_1.jpg","https://xcimg.szwego.com/20240516/i1715822699_3957_2.jpg","https://xcimg.szwego.com/20240516/i1715822699_5542_3.jpg","https://xcimg.szwego.com/20240516/i1715822699_7524_4.jpg","https://xcimg.szwego.com/20240516/i1715822699_9463_6.jpg","https://xcimg.szwego.com/20240516/i1715822699_988_5.jpg","https://xcimg.szwego.com/20240516/i1715822699_7365_7.jpg","https://xcimg.szwego.com/20240516/i1715822699_4284_8.jpg"],"created_at":"2024-11-11T10:30:45.834Z"},{"id":"item-7b8d5dcae9f6","sku":"_dsFsFF_opCPE5_kuqTMR5nkQdjsWfFnnV1RzGqQ","name_en":"Miu Miu Women Bags","name_cn":"正品级\n5BH211最新版本:新一季Miu Miu标志性Matelasse绣花小羊皮材质,Miu家独有设计,华美肩带彰显别具一格的特色,包身设计流露出精致优雅的格调 正面饰有金属刻字徽标 拉链拉合 缎面和软羊革口袋 高 16.5cm 长 21cm 宽 5.5 cm,(配原版包装)","specs":{"source":"wsxcme","sourceId":"_dsFsFF_opCPE5_kuqTMR5nkQdjsWfFnnV1RzGqQ","sourceTagId":68075769,"sourceTagName":"Miu Miu /女包","rawTitle":"正品级\n5BH211最新版本:新一季Miu Miu标志性Matelasse绣花小羊皮材质,Miu家独有设计,华美肩带彰显别具一格的特色,包身设计流露出精致优雅的格调 正面饰有金属刻字徽标 拉链拉合 缎面和软羊革口袋 高 16.5cm 长 21cm 宽 5.5 cm,(配原版包装)"},"price":null,"currency":"CNY","moq":1,"category":"miu-miu-women-bags","status":"active","alibaba_url":null,"images":["https://xcimg.szwego.com/20230524/i1684861479_8874_0.jpg","https://xcimg.szwego.com/20230524/i1684861479_4636_1.jpg","https://xcimg.szwego.com/20230524/i1684861479_7560_2.jpg","https://xcimg.szwego.com/20230524/i1684861479_4493_3.jpg","https://xcimg.szwego.com/20230524/i1684861479_3194_4.jpg","https://xcimg.szwego.com/20230524/i1684861479_5371_5.jpg","https://xcimg.szwego.com/20230524/i1684861479_199_6.jpg","https://xcimg.szwego.com/20230524/i1684861479_6874_7.jpg","https://xcimg.szwego.com/20230524/i1684861479_3170_8.jpg"],"created_at":"2024-11-11T10:30:45.833Z"},{"id":"item-ea93e4f490eb","sku":"_dUoUoMIVNiLXhJjtOeSj6TgSFH9L5Vg_ZMqprkg","name_en":"5 B H211","name_cn":"5 B H211","specs":{"source":"wsxcme","sourceId":"_dUoUoMIVNiLXhJjtOeSj6TgSFH9L5Vg_ZMqprkg","sourceTagId":68075769,"sourceTagName":"Miu Miu /女包","rawTitle":"5 B H211"},"price":null,"currency":"CNY","moq":1,"category":"miu-miu-women-bags","status":"active","alibaba_url":null,"images":["https://xcimg.szwego.com/20230530/i1685431264_5845_0.jpg","https://xcimg.szwego.com/20230530/i1685431264_2250_1.jpg","https://xcimg.szwego.com/20230530/i1685431264_1776_2.jpg","https://xcimg.szwego.com/20230530/i1685431264_9247_3.jpg","https://xcimg.szwego.com/20230530/i1685431264_963_4.jpg"],"created_at":"2024-11-11T10:30:45.832Z"},{"id":"item-85252244728e","sku":"_dlvlvMsF1_Z8ty3dhdt_HBz_fKw5_ik1sVYTmdw","name_en":"5BH211新品","name_cn":"5BH211新品","specs":{"source":"wsxcme","sourceId":"_dlvlvMsF1_Z8ty3dhdt_HBz_fKw5_ik1sVYTmdw","sourceTagId":68075769,"sourceTagName":"Miu Miu /女包","rawTitle":"5BH211新品"},"price":null,"currency":"CNY","moq":1,"category":"miu-miu-women-bags","status":"active","alibaba_url":null,"images":["https://xcimg.szwego.com/20210810/i1628528299_1857_0.jpg","https://xcimg.szwego.com/20210810/i1628528299_5672_1.jpg","https://xcimg.szwego.com/20210810/i1628528299_5084_2.jpg","https://xcimg.szwego.com/20210810/i1628528299_2962_3.jpg","https://xcimg.szwego.com/20210810/i1628528299_5076_4.jpg","https://xcimg.szwego.com/20210810/i1628528299_9505_5.jpg","https://xcimg.szwego.com/20210810/i1628528299_810_6.jpg","https://xcimg.szwego.com/20210810/i1628528299_6014_7.jpg","https://xcimg.szwego.com/20210810/i1628528299_4756_8.jpg"],"created_at":"2024-11-11T10:30:45.831Z"},{"id":"item-20b5ce9cc3fe","sku":"_dfDfDIVfIdsMe_eSk24ZMp89a79_3YHiWAkJMnA","name_en":"Miu Miu Women Bags","name_cn":"正品级\n5BH211:新一季Miu Miu配饰系列手袋,标志性Matelasse绣花小羊皮材质,Miu家独有设计,仿珍珠装饰的华美肩带彰显别具一格的特色,包身设计流露出精致优雅的格调\n正面饰有金属刻字徽标\n拉链拉合\n缎面和软羊革口袋\n高 16.5cm\n长 21cm\n宽 5.5 cm,(配原版包装)","specs":{"source":"wsxcme","sourceId":"_dfDfDIVfIdsMe_eSk24ZMp89a79_3YHiWAkJMnA","sourceTagId":68075769,"sourceTagName":"Miu Miu /女包","rawTitle":"正品级\n5BH211:新一季Miu Miu配饰系列手袋,标志性Matelasse绣花小羊皮材质,Miu家独有设计,仿珍珠装饰的华美肩带彰显别具一格的特色,包身设计流露出精致优雅的格调\n正面饰有金属刻字徽标\n拉链拉合\n缎面和软羊革口袋\n高 16.5cm\n长 21cm\n宽 5.5 cm,(配原版包装)"},"price":null,"currency":"CNY","moq":1,"category":"miu-miu-women-bags","status":"active","alibaba_url":null,"images":["https://xcimg.szwego.com/20210812/a1628697742594_6001.jpg","https://xcimg.szwego.com/20210812/a1628697742696_7703.jpg","https://xcimg.szwego.com/20210812/a1628697742782_3581.jpg","https://xcimg.szwego.com/20210812/a1628697742873_7470.jpg","https://xcimg.szwego.com/20210812/a1628697742954_7880.jpg","https://xcimg.szwego.com/20210812/a1628697743019_2038.jpg","https://xcimg.szwego.com/20210812/a1628697743096_7004.jpg","https://xcimg.szwego.com/20210812/a1628697743215_6023.jpg","https://xcimg.szwego.com/20210812/a1628697743342_8412.jpg"],"created_at":"2024-11-11T10:30:45.830Z"},{"id":"item-9ec70d2300d4","sku":"_dDkDkSAXhlIxFXX_OQJmfICqgWDJAXLSCW6L2IA","name_en":"新品出货,5BH211,全新水晶链版本","name_cn":"新品出货,5BH211,全新水晶链版本","specs":{"source":"wsxcme","sourceId":"_dDkDkSAXhlIxFXX_OQJmfICqgWDJAXLSCW6L2IA","sourceTagId":68075769,"sourceTagName":"Miu Miu /女包","rawTitle":"新品出货,5BH211,全新水晶链版本"},"price":null,"currency":"CNY","moq":1,"category":"miu-miu-women-bags","status":"active","alibaba_url":null,"images":["https://xcimg.szwego.com/20220719/a1658162383216_4233.jpg","https://xcimg.szwego.com/20220719/a1658162383218_6212.jpg","https://xcimg.szwego.com/20220719/a1658162383219_6075.jpg","https://xcimg.szwego.com/20220719/a1658162383222_1335.jpg","https://xcimg.szwego.com/20220719/a1658162383224_1031.jpg","https://xcimg.szwego.com/20220719/a1658162383225_6334.jpg","https://xcimg.szwego.com/20220719/a1658162383226_4454.jpg","https://xcimg.szwego.com/20220719/a1658162383227_0717.jpg","https://xcimg.szwego.com/20220719/a1658162383228_0110.jpg"],"created_at":"2024-11-11T10:30:45.829Z"},{"id":"item-9baed4044d23","sku":"_deMeMY1cRZdbJng_KZMs5H35cIji72zOo8manCw","name_en":"Miu Miu Women Bags","name_cn":"正品级\n5BH211新版本:新一季Miu Miu水晶链版配饰系列手袋,标志性Matelasse绣花小羊皮材质,Miu家独有设计,仿水晶装饰的华美肩带彰显别具一格的特色,包身设计流露出精致优雅的格调 正面饰有金属刻字徽标 拉链拉合 缎面和软羊革口袋 高 16.5cm 长 21cm 宽 5.5 cm,(配原版包装)","specs":{"source":"wsxcme","sourceId":"_deMeMY1cRZdbJng_KZMs5H35cIji72zOo8manCw","sourceTagId":68075769,"sourceTagName":"Miu Miu /女包","rawTitle":"正品级\n5BH211新版本:新一季Miu Miu水晶链版配饰系列手袋,标志性Matelasse绣花小羊皮材质,Miu家独有设计,仿水晶装饰的华美肩带彰显别具一格的特色,包身设计流露出精致优雅的格调 正面饰有金属刻字徽标 拉链拉合 缎面和软羊革口袋 高 16.5cm 长 21cm 宽 5.5 cm,(配原版包装)"},"price":null,"currency":"CNY","moq":1,"category":"miu-miu-women-bags","status":"active","alibaba_url":null,"images":["https://xcimg.szwego.com/20220721/a1658334627961_2025.jpg","https://xcimg.szwego.com/20220721/a1658334628044_0355.jpg","https://xcimg.szwego.com/20220721/a1658334628148_6356.jpg","https://xcimg.szwego.com/20220721/a1658334628240_5648.jpg","https://xcimg.szwego.com/20220721/a1658334628329_3716.jpg","https://xcimg.szwego.com/20220721/a1658334628403_2387.jpg","https://xcimg.szwego.com/20220721/a1658334628480_6743.jpg","https://xcimg.szwego.com/20220721/a1658334628554_2171.jpg","https://xcimg.szwego.com/20220721/a1658334628637_2601.jpg"],"created_at":"2024-11-11T10:30:45.828Z"},{"id":"item-de595f89ae4a","sku":"_ddvdvZVOKc9TQyrnA2hdgajvbw1qPJtwTJbYrMg","name_en":"Miu Miu Women Bags","name_cn":"正品级\n5BC125:MiuMiu新品MiuWander羊羔毛手袋,软糯糯泰迪熊毛绒绒简直不要太可爱,秋冬必备单品,复古磨砂五金,利用圆孤的曲线,保留了应有的俏皮感,包型整体硬挺有型,充满个性,可甜可盐,容量可光,尺寸:23X13X7,配原版包装","specs":{"source":"wsxcme","sourceId":"_ddvdvZVOKc9TQyrnA2hdgajvbw1qPJtwTJbYrMg","sourceTagId":68075769,"sourceTagName":"Miu Miu /女包","rawTitle":"正品级\n5BC125:MiuMiu新品MiuWander羊羔毛手袋,软糯糯泰迪熊毛绒绒简直不要太可爱,秋冬必备单品,复古磨砂五金,利用圆孤的曲线,保留了应有的俏皮感,包型整体硬挺有型,充满个性,可甜可盐,容量可光,尺寸:23X13X7,配原版包装"},"price":null,"currency":"CNY","moq":1,"category":"miu-miu-women-bags","status":"active","alibaba_url":null,"images":["https://xcimg.szwego.com/20231214/i1702548436_5522_0.jpg","https://xcimg.szwego.com/20231214/i1702548436_90_1.jpg","https://xcimg.szwego.com/20231214/i1702548436_9424_2.jpg","https://xcimg.szwego.com/20231214/i1702548436_2360_3.jpg","https://xcimg.szwego.com/20231214/i1702548436_446_4.jpg","https://xcimg.szwego.com/20231214/i1702548436_3154_5.jpg","https://xcimg.szwego.com/20231214/i1702548436_7058_6.jpg","https://xcimg.szwego.com/20231214/i1702548473_1486_0.jpg","https://xcimg.szwego.com/20231214/i1702548491_6923_0.jpg"],"created_at":"2024-11-11T10:30:45.827Z"},{"id":"item-f598f618e0e1","sku":"_dt5t5Y7K6pHvqqsgNHCEIAtUSKEEpmvsMiaENfg","name_en":"5BG288","name_cn":"5BG288","specs":{"source":"wsxcme","sourceId":"_dt5t5Y7K6pHvqqsgNHCEIAtUSKEEpmvsMiaENfg","sourceTagId":68075769,"sourceTagName":"Miu Miu /女包","rawTitle":"5BG288"},"price":null,"currency":"CNY","moq":1,"category":"miu-miu-women-bags","status":"active","alibaba_url":null,"images":["https://xcimg.szwego.com/20231130/i1701284507_1975_0.jpg","https://xcimg.szwego.com/20231130/i1701284507_4394_1.jpg","https://xcimg.szwego.com/20231130/i1701284507_4948_2.jpg","https://xcimg.szwego.com/20231130/i1701333971_4072_0.jpg","https://xcimg.szwego.com/20231130/i1701333971_6095_1.jpg"],"created_at":"2024-11-11T10:30:45.826Z"},{"id":"item-95899d81a4ea","sku":"_dIEIEUWh6ddMILI7nlbZdiYR1OOR4DODz5R8u0g","name_en":"Miu Miu Women Bags","name_cn":"正品级\n5BG288,Miu家新款伊势丹限定托特包,今年绝对爆🔥款式,全新限定版灯芯绒面料,搭配上乘的皮革质感高级,包身软而不塌,小尺寸设计更加精致,气质随性慵懒,日常出街背它回头率百分百,手工缝制皮面Logo标志,内里全新麻布里,配两个拉链式口袋,可调节皮革长肩带,尺寸22X 14X11Cm,配原版包装","specs":{"source":"wsxcme","sourceId":"_dIEIEUWh6ddMILI7nlbZdiYR1OOR4DODz5R8u0g","sourceTagId":68075769,"sourceTagName":"Miu Miu /女包","dimensions":{"lengthCm":22,"heightCm":14,"widthCm":11},"rawTitle":"正品级\n5BG288,Miu家新款伊势丹限定托特包,今年绝对爆🔥款式,全新限定版灯芯绒面料,搭配上乘的皮革质感高级,包身软而不塌,小尺寸设计更加精致,气质随性慵懒,日常出街背它回头率百分百,手工缝制皮面Logo标志,内里全新麻布里,配两个拉链式口袋,可调节皮革长肩带,尺寸22X 14X11Cm,配原版包装"},"price":null,"currency":"CNY","moq":1,"category":"miu-miu-women-bags","status":"active","alibaba_url":null,"images":["https://xcimg.szwego.com/20231201/i1701396727_3682_0.jpg","https://xcimg.szwego.com/20231201/i1701396727_7402_1.jpg","https://xcimg.szwego.com/20231201/i1701396727_9464_2.jpg","https://xcimg.szwego.com/20231201/i1701396727_2302_3.jpg","https://xcimg.szwego.com/20231201/i1701396727_3935_4.jpg","https://xcimg.szwego.com/20231201/i1701396727_9894_5.jpg","https://xcimg.szwego.com/20231201/i1701396727_9053_6.jpg","https://xcimg.szwego.com/20231201/i1701396727_412_7.jpg","https://xcimg.szwego.com/20231201/i1701396727_9986_8.jpg"],"created_at":"2024-11-11T10:30:45.825Z"},{"id":"item-e8f1a8f0a024","sku":"_dJdJd63UBhBwUtfTxzJAwdGTQYCFPnsesBYsumA","name_en":"5B,Miu家新款迷你保龄球包,这款Arcadie皮革迷你手袋传递出将对当前现实的反思转化独特版型的时尚理念,轻软包设计让手袋看起来更为饱满,尽显大都会风格,同色调的字母徽标,赋予这款手提包独特美感和经典气息,可拆卸可调节皮革肩带,棉缎衬里配卡槽,尺寸:19X10X5cm","name_cn":"5B,Miu家新款迷你保龄球包,这款Arcadie皮革迷你手袋传递出将对当前现实的反思转化独特版型的时尚理念,轻软包设计让手袋看起来更为饱满,尽显大都会风格,同色调的字母徽标,赋予这款手提包独特美感和经典气息,可拆卸可调节皮革肩带,棉缎衬里配卡槽,尺寸:19X10X5cm","specs":{"source":"wsxcme","sourceId":"_dJdJd63UBhBwUtfTxzJAwdGTQYCFPnsesBYsumA","sourceTagId":68075769,"sourceTagName":"Miu Miu /女包","dimensions":{"lengthCm":19,"heightCm":10,"widthCm":5},"rawTitle":"5B,Miu家新款迷你保龄球包,这款Arcadie皮革迷你手袋传递出将对当前现实的反思转化独特版型的时尚理念,轻软包设计让手袋看起来更为饱满,尽显大都会风格,同色调的字母徽标,赋予这款手提包独特美感和经典气息,可拆卸可调节皮革肩带,棉缎衬里配卡槽,尺寸:19X10X5cm"},"price":null,"currency":"CNY","moq":1,"category":"miu-miu-women-bags","status":"active","alibaba_url":null,"images":["https://xcimg.szwego.com/20240911/i1726017741_7345_0.jpg","https://xcimg.szwego.com/20240911/i1726017741_8601_1.jpg","https://xcimg.szwego.com/20240911/i1726017741_4788_2.jpg","https://xcimg.szwego.com/20240911/i1726017741_8729_3.jpg","https://xcimg.szwego.com/20240911/i1726017741_1307_4.jpg","https://xcimg.szwego.com/20240911/i1726017741_9965_5.jpg","https://xcimg.szwego.com/20240911/i1726017741_9062_6.jpg","https://xcimg.szwego.com/20240911/i1726017741_8960_7.jpg","https://xcimg.szwego.com/20240911/i1726017741_2267_8.jpg"],"created_at":"2024-11-11T10:30:45.824Z"},{"id":"item-3980631c06c1","sku":"_dhChCcbZHFHToXiYFuWyiVdVAv3IBzsYFvaBA-Q","name_en":"5BB142,Miu家新款保龄球包包,火爆这个秋冬的麂绒皮元素,顶级头层麂绒小牛皮,包身精致立体有型,正面刻字徽标与皮革颜色相呼应,可拆卸可调节皮革长肩带,全新帆布衬里,配拉链式口袋,众多明星网红同款,尺寸22X10.5X7.5Cm,配原版包装","name_cn":"5BB142,Miu家新款保龄球包包,火爆这个秋冬的麂绒皮元素,顶级头层麂绒小牛皮,包身精致立体有型,正面刻字徽标与皮革颜色相呼应,可拆卸可调节皮革长肩带,全新帆布衬里,配拉链式口袋,众多明星网红同款,尺寸22X10.5X7.5Cm,配原版包装","specs":{"source":"wsxcme","sourceId":"_dhChCcbZHFHToXiYFuWyiVdVAv3IBzsYFvaBA-Q","sourceTagId":68075769,"sourceTagName":"Miu Miu /女包","dimensions":{"lengthCm":22,"heightCm":10.5,"widthCm":7.5},"rawTitle":"5BB142,Miu家新款保龄球包包,火爆这个秋冬的麂绒皮元素,顶级头层麂绒小牛皮,包身精致立体有型,正面刻字徽标与皮革颜色相呼应,可拆卸可调节皮革长肩带,全新帆布衬里,配拉链式口袋,众多明星网红同款,尺寸22X10.5X7.5Cm,配原版包装"},"price":null,"currency":"CNY","moq":1,"category":"miu-miu-women-bags","status":"active","alibaba_url":null,"images":["https://xcimg.szwego.com/20240814/i1723606283_4731_0.jpg","https://xcimg.szwego.com/20240814/i1723606283_3557_1.jpg","https://xcimg.szwego.com/20240814/i1723606283_822_2.jpg","https://xcimg.szwego.com/20240814/i1723606283_1517_3.jpg","https://xcimg.szwego.com/20240814/i1723606283_2352_4.jpg","https://xcimg.szwego.com/20240814/i1723606283_4812_5.jpg","https://xcimg.szwego.com/20240814/i1723606283_2766_6.jpg","https://xcimg.szwego.com/20240814/i1723606283_5583_7.jpg","https://xcimg.szwego.com/20240814/i1723606330_5671_0.jpg"],"created_at":"2024-11-11T10:30:45.823Z"},{"id":"item-b274c8d5e596","sku":"_d9f9fLi44OpJn89qFW2dEaHTQDDEIpPoG9riTaQ","name_en":"5BB148","name_cn":"5BB148","specs":{"source":"wsxcme","sourceId":"_d9f9fLi44OpJn89qFW2dEaHTQDDEIpPoG9riTaQ","sourceTagId":68075769,"sourceTagName":"Miu Miu /女包","rawTitle":"5BB148"},"price":null,"currency":"CNY","moq":1,"category":"miu-miu-women-bags","status":"active","alibaba_url":null,"images":["https://xcimg.szwego.com/20240814/i1723618149_4679_0.jpg","https://xcimg.szwego.com/20240814/i1723618205_7242_0.jpg","https://xcimg.szwego.com/20240814/i1723618205_4808_1.jpg","https://xcimg.szwego.com/20240814/i1723618205_5469_2.jpg"],"created_at":"2024-11-11T10:30:45.822Z"},{"id":"item-244219d0935f","sku":"_dwEwEFzh91fGN1ovVMRqpNdBsQnWTcURiayYYGA","name_en":"5BB148,Miu家新款保龄球包包,火爆这个秋冬的麂绒元素,顶级头层麂绒小牛皮,包身精致立体有型,正面刻字徽标与皮革颜色相呼应,可拆卸可调节皮革长肩带,全新帆布衬里,配拉链式口袋,众多明星网红同款,尺寸27X12X9Cm,配原版包装","name_cn":"5BB148,Miu家新款保龄球包包,火爆这个秋冬的麂绒元素,顶级头层麂绒小牛皮,包身精致立体有型,正面刻字徽标与皮革颜色相呼应,可拆卸可调节皮革长肩带,全新帆布衬里,配拉链式口袋,众多明星网红同款,尺寸27X12X9Cm,配原版包装","specs":{"source":"wsxcme","sourceId":"_dwEwEFzh91fGN1ovVMRqpNdBsQnWTcURiayYYGA","sourceTagId":68075769,"sourceTagName":"Miu Miu /女包","dimensions":{"lengthCm":27,"heightCm":12,"widthCm":9},"rawTitle":"5BB148,Miu家新款保龄球包包,火爆这个秋冬的麂绒元素,顶级头层麂绒小牛皮,包身精致立体有型,正面刻字徽标与皮革颜色相呼应,可拆卸可调节皮革长肩带,全新帆布衬里,配拉链式口袋,众多明星网红同款,尺寸27X12X9Cm,配原版包装"},"price":null,"currency":"CNY","moq":1,"category":"miu-miu-women-bags","status":"active","alibaba_url":null,"images":["https://xcimg.szwego.com/20240814/i1723606561_5665_0.jpg","https://xcimg.szwego.com/20240814/i1723606561_2736_1.jpg","https://xcimg.szwego.com/20240814/i1723606561_3862_2.jpg","https://xcimg.szwego.com/20240814/i1723606561_5970_3.jpg","https://xcimg.szwego.com/20240814/i1723606561_3046_4.jpg","https://xcimg.szwego.com/20240814/i1723606561_7513_5.jpg","https://xcimg.szwego.com/20240814/i1723606561_6191_6.jpg","https://xcimg.szwego.com/20240814/i1723606561_3792_7.jpg","https://xcimg.szwego.com/20240814/i1723606561_3319_8.jpg"],"created_at":"2024-11-11T10:30:45.821Z"},{"id":"item-43c1427c2278","sku":"_dlclcrDi6ZL3hoVozXMLh_nASB_N0A_tBtbcg7g","name_en":"5BC125楠木色","name_cn":"5BC125楠木色","specs":{"source":"wsxcme","sourceId":"_dlclcrDi6ZL3hoVozXMLh_nASB_N0A_tBtbcg7g","sourceTagId":68075769,"sourceTagName":"Miu Miu /女包","rawTitle":"5BC125楠木色"},"price":null,"currency":"CNY","moq":1,"category":"miu-miu-women-bags","status":"active","alibaba_url":null,"images":["https://xcimg.szwego.com/20240824/i1724487132_1201_3.jpg","https://xcimg.szwego.com/20240824/i1724487132_7977_0.jpg","https://xcimg.szwego.com/20240824/i1724487132_7731_1.jpg","https://xcimg.szwego.com/20240824/i1724487132_7865_2.jpg"],"created_at":"2024-11-11T10:30:45.820Z"},{"id":"item-31b52e358162","sku":"_dldldgbylPIF1mLGJ7jCZ71OKSfzHjhXFkZ3RVA","name_en":"Miu Miu Women Bags","name_cn":"正品级\n5BC125:MiuMiu新品MiuWander手袋,采用进口小羊皮经典品牌标志性Matelasse纹理绣花,复古磨砂五金,利用圆孤的曲线,保留了应有的俏皮感,包型整体硬挺有型,充满个性,可甜可盐,容量可光,各大时尚搏主几乎人手一个,颜色多多,黑,奶白,孔雀蓝,日光黄,樱花粉,大红等,尺寸:23X13X7,配原版包装","specs":{"source":"wsxcme","sourceId":"_dldldgbylPIF1mLGJ7jCZ71OKSfzHjhXFkZ3RVA","sourceTagId":68075769,"sourceTagName":"Miu Miu /女包","rawTitle":"正品级\n5BC125:MiuMiu新品MiuWander手袋,采用进口小羊皮经典品牌标志性Matelasse纹理绣花,复古磨砂五金,利用圆孤的曲线,保留了应有的俏皮感,包型整体硬挺有型,充满个性,可甜可盐,容量可光,各大时尚搏主几乎人手一个,颜色多多,黑,奶白,孔雀蓝,日光黄,樱花粉,大红等,尺寸:23X13X7,配原版包装"},"price":null,"currency":"CNY","moq":1,"category":"miu-miu-women-bags","status":"active","alibaba_url":null,"images":["https://xcimg.szwego.com/20240826/i1724662316_1242_0.jpg","https://xcimg.szwego.com/20240826/i1724662316_9977_1.jpg","https://xcimg.szwego.com/20240826/i1724662316_7212_2.jpg","https://xcimg.szwego.com/20240826/i1724662316_5887_3.jpg","https://xcimg.szwego.com/20240826/i1724662316_6138_4.jpg","https://xcimg.szwego.com/20240826/i1724662316_5854_5.jpg","https://xcimg.szwego.com/20240826/i1724662316_123_6.jpg","https://xcimg.szwego.com/20240826/i1724662316_5932_7.jpg","https://xcimg.szwego.com/20240826/i1724662316_7434_8.jpg"],"created_at":"2024-11-11T10:30:45.819Z"},{"id":"item-4109eb6fb8b3","sku":"_dbHbHTzoOnmmoP9Ot3IGezN2Eqa1yBsLPoOXYdQ","name_en":"5DN006","name_cn":"5DN006","specs":{"source":"wsxcme","sourceId":"_dbHbHTzoOnmmoP9Ot3IGezN2Eqa1yBsLPoOXYdQ","sourceTagId":68075769,"sourceTagName":"Miu Miu /女包","rawTitle":"5DN006"},"price":null,"currency":"CNY","moq":1,"category":"miu-miu-women-bags","status":"active","alibaba_url":null,"images":["https://xcimg.szwego.com/20240529/i1716970192_4674_0.jpg","https://xcimg.szwego.com/20240529/i1716970192_6218_1.jpg","https://xcimg.szwego.com/20240529/i1716970192_9600_2.jpg","https://xcimg.szwego.com/20240529/i1716970192_2838_3.jpg"],"created_at":"2024-11-11T10:30:45.818Z"},{"id":"item-110409dda71a","sku":"_dwKwKZqH2UxabSW5G6E8fJMlHK5FaJT4Mqzz74Q","name_en":"🍒M家🍒 5BMIU MI 新品链条包,顶级进口小羊皮,品牌经典标志性Matelasse纹理绣花,新设计可拆卸金属链条长肩带,翻盖吸扣开合,内里一个卡位隔层,绵缎衬里,可手拿可斜挎,尺寸18 X9.5 X 4 cm,配原版包装.","name_cn":"🍒M家🍒 5BMIU MI 新品链条包,顶级进口小羊皮,品牌经典标志性Matelasse纹理绣花,新设计可拆卸金属链条长肩带,翻盖吸扣开合,内里一个卡位隔层,绵缎衬里,可手拿可斜挎,尺寸18 X9.5 X 4 cm,配原版包装.","specs":{"source":"wsxcme","sourceId":"_dwKwKZqH2UxabSW5G6E8fJMlHK5FaJT4Mqzz74Q","sourceTagId":68075769,"sourceTagName":"Miu Miu /女包","dimensions":{"lengthCm":18,"heightCm":9.5,"widthCm":4},"rawTitle":"🍒M家🍒 5BMIU MI 新品链条包,顶级进口小羊皮,品牌经典标志性Matelasse纹理绣花,新设计可拆卸金属链条长肩带,翻盖吸扣开合,内里一个卡位隔层,绵缎衬里,可手拿可斜挎,尺寸18 X9.5 X 4 cm,配原版包装."},"price":null,"currency":"CNY","moq":1,"category":"miu-miu-women-bags","status":"active","alibaba_url":null,"images":["https://xcimg.szwego.com/img/205b0922/20240711/i1720633024_217_6.jpg","https://xcimg.szwego.com/img/205b0922/20240711/i1720633024_1161_4.jpg","https://xcimg.szwego.com/img/205b0922/20240711/i1720633024_9462_0.jpg","https://xcimg.szwego.com/img/205b0922/20240711/i1720633024_5627_7.jpg","https://xcimg.szwego.com/img/205b0922/20240711/i1720633024_1718_8.jpg","https://xcimg.szwego.com/img/205b0922/20240711/i1720633024_8533_2.jpg","https://xcimg.szwego.com/img/205b0922/20240711/i1720633024_8362_5.jpg","https://xcimg.szwego.com/img/205b0922/20240711/i1720633024_2038_3.jpg","https://xcimg.szwego.com/img/205b0922/20240711/i1720633024_2364_1.jpg"],"created_at":"2024-10-25T09:07:29.763Z"},{"id":"item-f02265c00d16","sku":"_dc6c6TgCdYGhM3dblsl6lAIo4m4VKaHtGfbwopw","name_en":"🍒M家🍒 5BMIU MI 新品链条包,顶级进口小羊皮,品牌经典标志性Matelasse纹理绣花,新设计可拆卸金属链条长肩带,翻盖吸扣开合,内里一个卡位隔层,绵缎衬里,可手拿可斜挎,尺寸18 X9.5 X 4 cm,配原版包装.","name_cn":"🍒M家🍒 5BMIU MI 新品链条包,顶级进口小羊皮,品牌经典标志性Matelasse纹理绣花,新设计可拆卸金属链条长肩带,翻盖吸扣开合,内里一个卡位隔层,绵缎衬里,可手拿可斜挎,尺寸18 X9.5 X 4 cm,配原版包装.","specs":{"source":"wsxcme","sourceId":"_dc6c6TgCdYGhM3dblsl6lAIo4m4VKaHtGfbwopw","sourceTagId":68075769,"sourceTagName":"Miu Miu /女包","dimensions":{"lengthCm":18,"heightCm":9.5,"widthCm":4},"rawTitle":"🍒M家🍒 5BMIU MI 新品链条包,顶级进口小羊皮,品牌经典标志性Matelasse纹理绣花,新设计可拆卸金属链条长肩带,翻盖吸扣开合,内里一个卡位隔层,绵缎衬里,可手拿可斜挎,尺寸18 X9.5 X 4 cm,配原版包装."},"price":null,"currency":"CNY","moq":1,"category":"miu-miu-women-bags","status":"active","alibaba_url":null,"images":["https://xcimg.szwego.com/img/205b0922/20240711/i1720632978_3819_0.jpg","https://xcimg.szwego.com/img/205b0922/20240711/i1720632978_4721_4.jpg","https://xcimg.szwego.com/img/205b0922/20240711/i1720632978_3826_7.jpg","https://xcimg.szwego.com/img/205b0922/20240711/i1720632978_7948_2.jpg","https://xcimg.szwego.com/img/205b0922/20240711/i1720632978_9024_8.jpg","https://xcimg.szwego.com/img/205b0922/20240711/i1720632978_6038_6.jpg","https://xcimg.szwego.com/img/205b0922/20240711/i1720632978_3533_5.jpg","https://xcimg.szwego.com/img/205b0922/20240711/i1720632978_7326_1.jpg","https://xcimg.szwego.com/img/205b0922/20240711/i1720632978_6307_3.jpg"],"created_at":"2024-10-25T09:07:29.762Z"},{"id":"item-6a4b2f4d3857","sku":"_drqrqniGu8_c5iuKNFEHKhthYV6lIqYKSzeCj-A","name_en":"🍒M家🍒 5BMIU MI 新品链条包,顶级进口小羊皮,品牌经典标志性Matelasse纹理绣花,新设计可拆卸金属链条长肩带,翻盖吸扣开合,内里一个卡位隔层,绵缎衬里,可手拿可斜挎,尺寸18 X9.5 X 4 cm,配原版包装.","name_cn":"🍒M家🍒 5BMIU MI 新品链条包,顶级进口小羊皮,品牌经典标志性Matelasse纹理绣花,新设计可拆卸金属链条长肩带,翻盖吸扣开合,内里一个卡位隔层,绵缎衬里,可手拿可斜挎,尺寸18 X9.5 X 4 cm,配原版包装.","specs":{"source":"wsxcme","sourceId":"_drqrqniGu8_c5iuKNFEHKhthYV6lIqYKSzeCj-A","sourceTagId":68075769,"sourceTagName":"Miu Miu /女包","dimensions":{"lengthCm":18,"heightCm":9.5,"widthCm":4},"rawTitle":"🍒M家🍒 5BMIU MI 新品链条包,顶级进口小羊皮,品牌经典标志性Matelasse纹理绣花,新设计可拆卸金属链条长肩带,翻盖吸扣开合,内里一个卡位隔层,绵缎衬里,可手拿可斜挎,尺寸18 X9.5 X 4 cm,配原版包装."},"price":null,"currency":"CNY","moq":1,"category":"miu-miu-women-bags","status":"active","alibaba_url":null,"images":["https://xcimg.szwego.com/img/205b0922/20240711/i1720632907_663_3.jpg","https://xcimg.szwego.com/img/205b0922/20240711/i1720632907_1219_5.jpg","https://xcimg.szwego.com/img/205b0922/20240711/i1720632907_2176_2.jpg","https://xcimg.szwego.com/img/205b0922/20240711/i1720632907_5803_1.jpg","https://xcimg.szwego.com/img/205b0922/20240711/i1720632907_9102_7.jpg","https://xcimg.szwego.com/img/205b0922/20240711/i1720632907_160_6.jpg","https://xcimg.szwego.com/img/205b0922/20240711/i1720632907_9220_4.jpg","https://xcimg.szwego.com/img/205b0922/20240711/i1720632907_7666_8.jpg","https://xcimg.szwego.com/img/205b0922/20240711/i1720632907_9999_0.jpg"],"created_at":"2024-10-25T09:07:29.761Z"},{"id":"item-0aee3999ad61","sku":"_dgjgjMebQpaO6NP10qw5NOrsiP9JIAXnWjUhfPA","name_en":"🍒M家🍒 5BMiu家新款迷你保龄球包,这款Arcadie皮革迷你手袋传递出将对当前现实的反思转化独特版型的时尚理念,轻软包设计让手袋看起来更为饱满,尽显大都会风格,同色调的字母徽标,赋予这款手提包独特美感和经典气息,可拆卸可调节皮革肩带,棉缎衬里配卡槽,尺寸:19X10X5cm 1000009","name_cn":"🍒M家🍒 5BMiu家新款迷你保龄球包,这款Arcadie皮革迷你手袋传递出将对当前现实的反思转化独特版型的时尚理念,轻软包设计让手袋看起来更为饱满,尽显大都会风格,同色调的字母徽标,赋予这款手提包独特美感和经典气息,可拆卸可调节皮革肩带,棉缎衬里配卡槽,尺寸:19X10X5cm 1000009","specs":{"source":"wsxcme","sourceId":"_dgjgjMebQpaO6NP10qw5NOrsiP9JIAXnWjUhfPA","sourceTagId":68075769,"sourceTagName":"Miu Miu /女包","dimensions":{"lengthCm":19,"heightCm":10,"widthCm":5},"rawTitle":"🍒M家🍒 5BMiu家新款迷你保龄球包,这款Arcadie皮革迷你手袋传递出将对当前现实的反思转化独特版型的时尚理念,轻软包设计让手袋看起来更为饱满,尽显大都会风格,同色调的字母徽标,赋予这款手提包独特美感和经典气息,可拆卸可调节皮革肩带,棉缎衬里配卡槽,尺寸:19X10X5cm 1000009"},"price":null,"currency":"CNY","moq":1,"category":"miu-miu-women-bags","status":"active","alibaba_url":null,"images":["https://xcimg.szwego.com/img/205b0922/20241015/i1728975567_8213_3.jpg","https://xcimg.szwego.com/img/205b0922/20241015/i1728975567_4053_7.jpg","https://xcimg.szwego.com/img/205b0922/20241015/i1728975567_4013_6.jpg","https://xcimg.szwego.com/img/205b0922/20241015/i1728975567_6663_2.jpg","https://xcimg.szwego.com/img/205b0922/20241015/i1728975566_4616_0.jpg","https://xcimg.szwego.com/img/205b0922/20241015/i1728975566_6131_1.jpg","https://xcimg.szwego.com/img/205b0922/20241015/i1728976011_652_0.jpg","https://xcimg.szwego.com/img/205b0922/20241015/i1728975567_6986_5.jpg","https://xcimg.szwego.com/img/205b0922/20241015/i1728975567_9579_4.jpg"],"created_at":"2024-10-25T09:07:29.760Z"}],"page":16,"pageSize":24,"total":430,"totalPages":18}
