{"items":[{"id":"item-249dea989e94","sku":"_drKrKyGM-lCQCb0TegNcFe67rrY6y5XzEc9sqUw","name_en":"🆕 【 M83476黑压花 】這款Noa小型錢包以的經典Monogram 压纹製作,採用小巧的正方形設計,並設有別具特色的L型拉鏈為,而內層更設有彩色皮革襯裡。錢包設有六個名片夾層,以及寬敞的摺疊口袋。11 x 8.5 x 1.5 厘米 (長度 x 高度 x 闊度) C","name_cn":"🆕 【 M83476黑压花 】這款Noa小型錢包以的經典Monogram 压纹製作,採用小巧的正方形設計,並設有別具特色的L型拉鏈為,而內層更設有彩色皮革襯裡。錢包設有六個名片夾層,以及寬敞的摺疊口袋。11 x 8.5 x 1.5 厘米 (長度 x 高度 x 闊度) C","specs":{"source":"wsxcme","sourceId":"_drKrKyGM-lCQCb0TegNcFe67rrY6y5XzEc9sqUw","sourceTagId":47002663,"sourceTagName":"长短款钱包","rawTitle":"🆕 【 M83476黑压花 】這款Noa小型錢包以的經典Monogram 压纹製作,採用小巧的正方形設計,並設有別具特色的L型拉鏈為,而內層更設有彩色皮革襯裡。錢包設有六個名片夾層,以及寬敞的摺疊口袋。11 x 8.5 x 1.5 厘米 (長度 x 高度 x 闊度) C"},"price":null,"currency":"CNY","moq":1,"category":"women-wallets","status":"active","alibaba_url":null,"images":["https://xcimg.szwego.com/img/42f08f7f/20241002/i1727846875_3711_3.jpg","https://xcimg.szwego.com/img/42f08f7f/20241002/i1727846875_8278_6.jpg","https://xcimg.szwego.com/img/42f08f7f/20241002/i1727846875_8220_4.jpg","https://xcimg.szwego.com/img/42f08f7f/20241002/i1727846874_7976_2.jpg","https://xcimg.szwego.com/img/42f08f7f/20241002/i1727846875_5572_5.jpg","https://xcimg.szwego.com/img/42f08f7f/20241002/i1727846874_7209_0.jpg","https://xcimg.szwego.com/img/42f08f7f/20241002/i1727846874_2169_1.jpg"],"created_at":"2025-01-20T13:02:58.458Z"},{"id":"item-f96a89994fe6","sku":"_dr1r1RZXcU9Fwi8IvAqsIBohWMRN7tdx9vAf3iQ","name_en":"🆕 【 M83476粉 】這款Noa小型錢包以路口的經典Monogram帆布製作,採用小巧的正方形設計,並設有別具特色的L型拉鏈為,而內層更設有彩色皮革襯裡。錢包設有六個名片夾層,以及寬敞的摺疊口袋。11 x 8.5 x 1.5 厘米 (長度 x 高度 x 闊度) C","name_cn":"🆕 【 M83476粉 】這款Noa小型錢包以路口的經典Monogram帆布製作,採用小巧的正方形設計,並設有別具特色的L型拉鏈為,而內層更設有彩色皮革襯裡。錢包設有六個名片夾層,以及寬敞的摺疊口袋。11 x 8.5 x 1.5 厘米 (長度 x 高度 x 闊度) C","specs":{"source":"wsxcme","sourceId":"_dr1r1RZXcU9Fwi8IvAqsIBohWMRN7tdx9vAf3iQ","sourceTagId":47002663,"sourceTagName":"长短款钱包","rawTitle":"🆕 【 M83476粉 】這款Noa小型錢包以路口的經典Monogram帆布製作,採用小巧的正方形設計,並設有別具特色的L型拉鏈為,而內層更設有彩色皮革襯裡。錢包設有六個名片夾層,以及寬敞的摺疊口袋。11 x 8.5 x 1.5 厘米 (長度 x 高度 x 闊度) C"},"price":null,"currency":"CNY","moq":1,"category":"women-wallets","status":"active","alibaba_url":null,"images":["https://xcimg.szwego.com/img/42f08f7f/20241002/i1727846823_7812_2.jpg","https://xcimg.szwego.com/img/42f08f7f/20241002/i1727846823_4119_5.jpg","https://xcimg.szwego.com/img/42f08f7f/20241002/i1727846823_6696_6.jpg","https://xcimg.szwego.com/img/42f08f7f/20241002/i1727846823_4850_3.jpg","https://xcimg.szwego.com/img/42f08f7f/20241002/i1727846823_7315_4.jpg","https://xcimg.szwego.com/img/42f08f7f/20241002/i1727846822_9001_0.jpg","https://xcimg.szwego.com/img/42f08f7f/20241002/i1727846822_2150_1.jpg"],"created_at":"2025-01-20T13:02:58.457Z"},{"id":"item-95a3a2248645","sku":"_duRuRkdYgn8bGqlNWI9xWWamVZpZa5sy6SwFVNg","name_en":"🆕 【 M83476棕 】這款Noa小型錢包以路易威登的經典Monogram帆布製作,採用小巧的正方形設計,並設有別具特色的L型拉鏈為,而內層更設有彩色皮革襯裡。錢包設有六個名片夾層,以及寬敞的摺疊口袋。11 x 8.5 x 1.5 厘米 (長度 x 高度 x 闊度) C","name_cn":"🆕 【 M83476棕 】這款Noa小型錢包以路易威登的經典Monogram帆布製作,採用小巧的正方形設計,並設有別具特色的L型拉鏈為,而內層更設有彩色皮革襯裡。錢包設有六個名片夾層,以及寬敞的摺疊口袋。11 x 8.5 x 1.5 厘米 (長度 x 高度 x 闊度) C","specs":{"source":"wsxcme","sourceId":"_duRuRkdYgn8bGqlNWI9xWWamVZpZa5sy6SwFVNg","sourceTagId":47002663,"sourceTagName":"长短款钱包","rawTitle":"🆕 【 M83476棕 】這款Noa小型錢包以路易威登的經典Monogram帆布製作,採用小巧的正方形設計,並設有別具特色的L型拉鏈為,而內層更設有彩色皮革襯裡。錢包設有六個名片夾層,以及寬敞的摺疊口袋。11 x 8.5 x 1.5 厘米 (長度 x 高度 x 闊度) C"},"price":null,"currency":"CNY","moq":1,"category":"women-wallets","status":"active","alibaba_url":null,"images":["https://xcimg.szwego.com/img/42f08f7f/20241002/i1727846775_4333_2.jpg","https://xcimg.szwego.com/img/42f08f7f/20241002/i1727846775_5815_3.jpg","https://xcimg.szwego.com/img/42f08f7f/20241002/i1727846775_4248_1.jpg","https://xcimg.szwego.com/img/42f08f7f/20241002/i1727846776_8030_6.jpg","https://xcimg.szwego.com/img/42f08f7f/20241002/i1727846775_8344_0.jpg","https://xcimg.szwego.com/img/42f08f7f/20241002/i1727846776_3857_5.jpg","https://xcimg.szwego.com/img/42f08f7f/20241002/i1727846775_431_4.jpg"],"created_at":"2025-01-20T13:02:58.456Z"},{"id":"item-7b21bf3e41a3","sku":"_dririeTAxbH5O7siwY7NMFccMGDyRsRvVePisqw","name_en":"🆕 【 M83664黄 】這款Noa小型錢包以的經典Monogram帆布製作,採用小巧的正方形設計,並設有別具特色的L型拉鏈為,而內層更設有彩色皮革襯裡。錢包設有六個名片夾層,以及寬敞的摺疊口袋。11 x 8.5 x 1.5 厘米 (長度 x 高度 x 闊度) C","name_cn":"🆕 【 M83664黄 】這款Noa小型錢包以的經典Monogram帆布製作,採用小巧的正方形設計,並設有別具特色的L型拉鏈為,而內層更設有彩色皮革襯裡。錢包設有六個名片夾層,以及寬敞的摺疊口袋。11 x 8.5 x 1.5 厘米 (長度 x 高度 x 闊度) C","specs":{"source":"wsxcme","sourceId":"_dririeTAxbH5O7siwY7NMFccMGDyRsRvVePisqw","sourceTagId":47002663,"sourceTagName":"长短款钱包","rawTitle":"🆕 【 M83664黄 】這款Noa小型錢包以的經典Monogram帆布製作,採用小巧的正方形設計,並設有別具特色的L型拉鏈為,而內層更設有彩色皮革襯裡。錢包設有六個名片夾層,以及寬敞的摺疊口袋。11 x 8.5 x 1.5 厘米 (長度 x 高度 x 闊度) C"},"price":null,"currency":"CNY","moq":1,"category":"women-wallets","status":"active","alibaba_url":null,"images":["https://xcimg.szwego.com/img/42f08f7f/20241002/i1727846730_1189_2.jpg","https://xcimg.szwego.com/img/42f08f7f/20241002/i1727846730_6813_1.jpg","https://xcimg.szwego.com/img/42f08f7f/20241002/i1727846731_3396_3.jpg","https://xcimg.szwego.com/img/42f08f7f/20241002/i1727846731_5035_4.jpg","https://xcimg.szwego.com/img/42f08f7f/20241002/i1727846730_1835_0.jpg","https://xcimg.szwego.com/img/42f08f7f/20241002/i1727846731_1802_5.jpg","https://xcimg.szwego.com/img/42f08f7f/20241002/i1727846731_8543_6.jpg"],"created_at":"2025-01-20T13:02:58.455Z"},{"id":"item-a4bbafdd9657","sku":"_djWjWf9E5n6Oj44hXN3w29HZYvdIGycareUkShg","name_en":"🆕 【 M83676紫红 】這款Noa小型錢包以路易威登的經典Monogram帆布製作,採用小巧的正方形設計,並設有別具特色的L型拉鏈為,而內層更設有彩色皮革襯裡。錢包設有六個名片夾層,以及寬敞的摺疊口袋。11 x 8.5 x 1.5 厘米 (長度 x 高度 x 闊度) C","name_cn":"🆕 【 M83676紫红 】這款Noa小型錢包以路易威登的經典Monogram帆布製作,採用小巧的正方形設計,並設有別具特色的L型拉鏈為,而內層更設有彩色皮革襯裡。錢包設有六個名片夾層,以及寬敞的摺疊口袋。11 x 8.5 x 1.5 厘米 (長度 x 高度 x 闊度) C","specs":{"source":"wsxcme","sourceId":"_djWjWf9E5n6Oj44hXN3w29HZYvdIGycareUkShg","sourceTagId":47002663,"sourceTagName":"长短款钱包","rawTitle":"🆕 【 M83676紫红 】這款Noa小型錢包以路易威登的經典Monogram帆布製作,採用小巧的正方形設計,並設有別具特色的L型拉鏈為,而內層更設有彩色皮革襯裡。錢包設有六個名片夾層,以及寬敞的摺疊口袋。11 x 8.5 x 1.5 厘米 (長度 x 高度 x 闊度) C"},"price":null,"currency":"CNY","moq":1,"category":"women-wallets","status":"active","alibaba_url":null,"images":["https://xcimg.szwego.com/img/42f08f7f/20241002/i1727846601_9473_6.jpg","https://xcimg.szwego.com/img/42f08f7f/20241002/i1727846601_6882_5.jpg","https://xcimg.szwego.com/img/42f08f7f/20241002/i1727846601_4508_0.jpg","https://xcimg.szwego.com/img/42f08f7f/20241002/i1727846601_6734_1.jpg","https://xcimg.szwego.com/img/42f08f7f/20241002/i1727846601_8250_3.jpg","https://xcimg.szwego.com/img/42f08f7f/20241002/i1727846601_1121_2.jpg","https://xcimg.szwego.com/img/42f08f7f/20241002/i1727846601_1282_4.jpg"],"created_at":"2025-01-20T13:02:58.454Z"},{"id":"item-8dd1e4e46471","sku":"_dajaj4Sbtcb_viHMyh1_84N6S5glv-r5FuuhN2w","name_en":"🎀品牌:Celine  A16","name_cn":"🎀品牌:Celine  A16\n🎀颜色:黑色 棕色\n🎀尺寸: 10.5*9*1\n🎀说明:  Celine  专柜同步,TRIOMPHE CUIR紧凑型拉链钱夹 光滑小牛皮小牛皮衬里拉链封口六个信用卡槽两个现金隔层。","specs":{"source":"wsxcme","sourceId":"_dajaj4Sbtcb_viHMyh1_84N6S5glv-r5FuuhN2w","sourceTagId":47002663,"sourceTagName":"长短款钱包","rawTitle":"🎀品牌:Celine  A16\n🎀颜色:黑色 棕色\n🎀尺寸: 10.5*9*1\n🎀说明:  Celine  专柜同步,TRIOMPHE CUIR紧凑型拉链钱夹 光滑小牛皮小牛皮衬里拉链封口六个信用卡槽两个现金隔层。"},"price":null,"currency":"CNY","moq":1,"category":"women-wallets","status":"active","alibaba_url":null,"images":["https://xcimg.szwego.com/img/fb1c42df/20240105/i1704427478_1186_1.jpg","https://xcimg.szwego.com/img/fb1c42df/20240105/i1704427478_8900_5.jpg","https://xcimg.szwego.com/img/fb1c42df/20240105/i1704427478_6454_7.jpg","https://xcimg.szwego.com/img/fb1c42df/20240105/i1704427478_4775_4.jpg","https://xcimg.szwego.com/img/fb1c42df/20240105/i1704427478_8172_0.jpg","https://xcimg.szwego.com/img/fb1c42df/20240105/i1704427478_9826_3.jpg","https://xcimg.szwego.com/img/fb1c42df/20240105/i1704427478_3934_8.jpg","https://xcimg.szwego.com/img/fb1c42df/20240105/i1704427478_9126_2.jpg","https://xcimg.szwego.com/img/fb1c42df/20240105/i1704427478_6587_6.jpg"],"created_at":"2025-01-20T13:02:58.453Z"},{"id":"item-6561d865daf8","sku":"_d8G8GKPR4SVHWRbIIwKyyYCxiUcc7zqWygRq8yA","name_en":"🎀品牌:Celine  A16","name_cn":"🎀品牌:Celine  A16\n🎀颜色:黑色 棕色\n🎀尺寸: 10.5*9*1\n🎀说明:  Celine  专柜同步,TRIOMPHE CUIR紧凑型拉链钱夹 光滑小牛皮小牛皮衬里拉链封口六个信用卡槽两个现金隔层。","specs":{"source":"wsxcme","sourceId":"_d8G8GKPR4SVHWRbIIwKyyYCxiUcc7zqWygRq8yA","sourceTagId":47002663,"sourceTagName":"长短款钱包","rawTitle":"🎀品牌:Celine  A16\n🎀颜色:黑色 棕色\n🎀尺寸: 10.5*9*1\n🎀说明:  Celine  专柜同步,TRIOMPHE CUIR紧凑型拉链钱夹 光滑小牛皮小牛皮衬里拉链封口六个信用卡槽两个现金隔层。"},"price":null,"currency":"CNY","moq":1,"category":"women-wallets","status":"active","alibaba_url":null,"images":["https://xcimg.szwego.com/img/fb1c42df/20240105/i1704427497_9519_3.jpg","https://xcimg.szwego.com/img/fb1c42df/20240105/i1704427497_2213_5.jpg","https://xcimg.szwego.com/img/fb1c42df/20240105/i1704427497_792_4.jpg","https://xcimg.szwego.com/img/fb1c42df/20240105/i1704427497_4651_8.jpg","https://xcimg.szwego.com/img/fb1c42df/20240105/i1704427497_5143_6.jpg","https://xcimg.szwego.com/img/fb1c42df/20240105/i1704427497_7481_0.jpg","https://xcimg.szwego.com/img/fb1c42df/20240105/i1704427497_1554_2.jpg","https://xcimg.szwego.com/img/fb1c42df/20240105/i1704427497_6774_7.jpg","https://xcimg.szwego.com/img/fb1c42df/20240105/i1704427497_474_1.jpg"],"created_at":"2025-01-20T13:02:58.452Z"},{"id":"item-e53de21693b2","sku":"_dpZpZJEXizDXJTrb-jPm0HlX8mLONaeBTzC6xPQ","name_en":"✨Chanel✨新款出货🔥款号2011,里外采用小羊皮绣菱形格单拉钱包💃黑配白,设有多个插卡位💫手感超棒..💖💖经典永恒,尺寸19.5*10.5.💃","name_cn":"✨Chanel✨新款出货🔥款号2011,里外采用小羊皮绣菱形格单拉钱包💃黑配白,设有多个插卡位💫手感超棒..💖💖经典永恒,尺寸19.5*10.5.💃","specs":{"source":"wsxcme","sourceId":"_dpZpZJEXizDXJTrb-jPm0HlX8mLONaeBTzC6xPQ","sourceTagId":47002663,"sourceTagName":"长短款钱包","modelNumber":"2011","rawTitle":"✨Chanel✨新款出货🔥款号2011,里外采用小羊皮绣菱形格单拉钱包💃黑配白,设有多个插卡位💫手感超棒..💖💖经典永恒,尺寸19.5*10.5.💃"},"price":null,"currency":"CNY","moq":1,"category":"women-wallets","status":"active","alibaba_url":null,"images":["https://xcimg.szwego.com/img/edc8246d/20241004/i1728016508_1990_0.jpg","https://xcimg.szwego.com/img/edc8246d/20241004/i1728016508_6419_4.jpg","https://xcimg.szwego.com/img/edc8246d/20241004/i1728016508_9770_7.jpg","https://xcimg.szwego.com/img/edc8246d/20241004/i1728016508_8767_5.jpg","https://xcimg.szwego.com/img/edc8246d/20241004/i1728016508_5117_2.jpg","https://xcimg.szwego.com/img/edc8246d/20241004/i1728016508_762_3.jpg","https://xcimg.szwego.com/img/edc8246d/20241004/i1728016508_6397_6.jpg","https://xcimg.szwego.com/img/edc8246d/20241004/i1728016508_473_8.jpg","https://xcimg.szwego.com/img/edc8246d/20241004/i1728016508_7403_1.jpg"],"created_at":"2025-01-20T13:02:58.451Z"},{"id":"item-aa6e85fbe58f","sku":"_dkSkSQfx50FKMEwRK7ahUqF8hT8iPjLS0UHGAlQ","name_en":"✨Chanel✨新款出货🔥款号2011,里外采用小羊皮绣菱形格单拉钱包💃黑配黑设有多个插卡位💫手感超棒..💖💖经典永恒,尺寸19.5*10.5.💃","name_cn":"✨Chanel✨新款出货🔥款号2011,里外采用小羊皮绣菱形格单拉钱包💃黑配黑设有多个插卡位💫手感超棒..💖💖经典永恒,尺寸19.5*10.5.💃","specs":{"source":"wsxcme","sourceId":"_dkSkSQfx50FKMEwRK7ahUqF8hT8iPjLS0UHGAlQ","sourceTagId":47002663,"sourceTagName":"长短款钱包","modelNumber":"2011","rawTitle":"✨Chanel✨新款出货🔥款号2011,里外采用小羊皮绣菱形格单拉钱包💃黑配黑设有多个插卡位💫手感超棒..💖💖经典永恒,尺寸19.5*10.5.💃"},"price":null,"currency":"CNY","moq":1,"category":"women-wallets","status":"active","alibaba_url":null,"images":["https://xcimg.szwego.com/img/edc8246d/20241004/i1728017417_2440_4.jpg","https://xcimg.szwego.com/img/edc8246d/20241004/i1728017417_3941_2.jpg","https://xcimg.szwego.com/img/edc8246d/20241004/i1728017417_6329_8.jpg","https://xcimg.szwego.com/img/edc8246d/20241004/i1728017417_2656_6.jpg","https://xcimg.szwego.com/img/edc8246d/20241004/i1728017417_4631_1.jpg","https://xcimg.szwego.com/img/edc8246d/20241004/i1728017417_7327_5.jpg","https://xcimg.szwego.com/img/edc8246d/20241004/i1728017417_2104_0.jpg","https://xcimg.szwego.com/img/edc8246d/20241004/i1728017417_9966_3.jpg","https://xcimg.szwego.com/img/edc8246d/20241004/i1728017417_9788_7.jpg"],"created_at":"2025-01-20T13:02:58.450Z"},{"id":"item-6b3869a6923f","sku":"_dARARtmVgWeu4whQIusHOx2ZJcC6oNjWFQb9dnQ","name_en":"✨Chanel✨新款出货🔥款号2011,里外采用小羊皮绣菱形格单拉钱包💃黑配蛇皮,设有多个插卡位💫手感超棒..💖💖经典永恒,尺寸19.5*10.5.💃","name_cn":"✨Chanel✨新款出货🔥款号2011,里外采用小羊皮绣菱形格单拉钱包💃黑配蛇皮,设有多个插卡位💫手感超棒..💖💖经典永恒,尺寸19.5*10.5.💃","specs":{"source":"wsxcme","sourceId":"_dARARtmVgWeu4whQIusHOx2ZJcC6oNjWFQb9dnQ","sourceTagId":47002663,"sourceTagName":"长短款钱包","modelNumber":"2011","rawTitle":"✨Chanel✨新款出货🔥款号2011,里外采用小羊皮绣菱形格单拉钱包💃黑配蛇皮,设有多个插卡位💫手感超棒..💖💖经典永恒,尺寸19.5*10.5.💃"},"price":null,"currency":"CNY","moq":1,"category":"women-wallets","status":"active","alibaba_url":null,"images":["https://xcimg.szwego.com/img/edc8246d/20241004/i1728017460_5077_4.jpg","https://xcimg.szwego.com/img/edc8246d/20241004/i1728017460_6161_8.jpg","https://xcimg.szwego.com/img/edc8246d/20241004/i1728017460_9762_7.jpg","https://xcimg.szwego.com/img/edc8246d/20241004/i1728017460_1804_2.jpg","https://xcimg.szwego.com/img/edc8246d/20241004/i1728017460_7997_3.jpg","https://xcimg.szwego.com/img/edc8246d/20241004/i1728017460_797_0.jpg","https://xcimg.szwego.com/img/edc8246d/20241004/i1728017460_232_1.jpg","https://xcimg.szwego.com/img/edc8246d/20241004/i1728017460_3049_6.jpg","https://xcimg.szwego.com/img/edc8246d/20241004/i1728017460_1549_5.jpg"],"created_at":"2025-01-20T13:02:58.449Z"},{"id":"item-51ad2f497f97","sku":"_dq2q2_8atstfryxLg8UIANra3KRgHCRZBuH37jA","name_en":"✨Chanel✨新款出货🔥款号2012,里外采用小羊皮绣菱形格单拉钱包💃黑配蛇皮,设有多个插卡位💫手感超棒..💖💖经典永恒,尺寸19.5*10.5.💃","name_cn":"✨Chanel✨新款出货🔥款号2012,里外采用小羊皮绣菱形格单拉钱包💃黑配蛇皮,设有多个插卡位💫手感超棒..💖💖经典永恒,尺寸19.5*10.5.💃","specs":{"source":"wsxcme","sourceId":"_dq2q2_8atstfryxLg8UIANra3KRgHCRZBuH37jA","sourceTagId":47002663,"sourceTagName":"长短款钱包","modelNumber":"2012","rawTitle":"✨Chanel✨新款出货🔥款号2012,里外采用小羊皮绣菱形格单拉钱包💃黑配蛇皮,设有多个插卡位💫手感超棒..💖💖经典永恒,尺寸19.5*10.5.💃"},"price":null,"currency":"CNY","moq":1,"category":"women-wallets","status":"active","alibaba_url":null,"images":["https://xcimg.szwego.com/img/edc8246d/20241004/i1728017550_8373_5.jpg","https://xcimg.szwego.com/img/edc8246d/20241004/i1728017550_8373_4.jpg","https://xcimg.szwego.com/img/edc8246d/20241004/i1728017549_4158_0.jpg","https://xcimg.szwego.com/img/edc8246d/20241004/i1728017550_1955_3.jpg","https://xcimg.szwego.com/img/edc8246d/20241004/i1728017550_2513_7.jpg","https://xcimg.szwego.com/img/edc8246d/20241004/i1728017550_972_2.jpg","https://xcimg.szwego.com/img/edc8246d/20241004/i1728017550_4788_8.jpg","https://xcimg.szwego.com/img/edc8246d/20241004/i1728017549_2779_1.jpg","https://xcimg.szwego.com/img/edc8246d/20241004/i1728017550_5211_6.jpg"],"created_at":"2025-01-20T13:02:58.448Z"},{"id":"item-61d566526797","sku":"_dmbmbfhNuvN8MTSzsjZ63r1gR7DEvFzbwkjtBWA","name_en":"✨Chanel✨新款出货🔥款号2012,里外采用小羊皮绣菱形格单拉钱包💃黑配白设有多个插卡位💫手感超棒..💖💖经典永恒,尺寸19.5*10.5.💃","name_cn":"✨Chanel✨新款出货🔥款号2012,里外采用小羊皮绣菱形格单拉钱包💃黑配白设有多个插卡位💫手感超棒..💖💖经典永恒,尺寸19.5*10.5.💃","specs":{"source":"wsxcme","sourceId":"_dmbmbfhNuvN8MTSzsjZ63r1gR7DEvFzbwkjtBWA","sourceTagId":47002663,"sourceTagName":"长短款钱包","modelNumber":"2012","rawTitle":"✨Chanel✨新款出货🔥款号2012,里外采用小羊皮绣菱形格单拉钱包💃黑配白设有多个插卡位💫手感超棒..💖💖经典永恒,尺寸19.5*10.5.💃"},"price":null,"currency":"CNY","moq":1,"category":"women-wallets","status":"active","alibaba_url":null,"images":["https://xcimg.szwego.com/img/edc8246d/20241004/i1728017628_5133_3.jpg","https://xcimg.szwego.com/img/edc8246d/20241004/i1728017628_5719_6.jpg","https://xcimg.szwego.com/img/edc8246d/20241004/i1728017628_9031_5.jpg","https://xcimg.szwego.com/img/edc8246d/20241004/i1728017628_172_1.jpg","https://xcimg.szwego.com/img/edc8246d/20241004/i1728017628_5845_7.jpg","https://xcimg.szwego.com/img/edc8246d/20241004/i1728017628_7344_2.jpg","https://xcimg.szwego.com/img/edc8246d/20241004/i1728017628_598_4.jpg","https://xcimg.szwego.com/img/edc8246d/20241004/i1728017628_7686_8.jpg","https://xcimg.szwego.com/img/edc8246d/20241004/i1728017628_8898_0.jpg"],"created_at":"2025-01-20T13:02:58.447Z"},{"id":"item-2a45bf875175","sku":"_duRuRkdYgn8bGqlNWI9xWWamVZpNc5sy6SQ9UNA","name_en":"✨Chanel✨新款出货🔥款号2012,里外采用小羊皮绣菱形格单拉钱包💃黑配黑设有多个插卡位💫手感超棒..💖💖经典永恒,尺寸19.5*10.5.💃","name_cn":"✨Chanel✨新款出货🔥款号2012,里外采用小羊皮绣菱形格单拉钱包💃黑配黑设有多个插卡位💫手感超棒..💖💖经典永恒,尺寸19.5*10.5.💃","specs":{"source":"wsxcme","sourceId":"_duRuRkdYgn8bGqlNWI9xWWamVZpNc5sy6SQ9UNA","sourceTagId":47002663,"sourceTagName":"长短款钱包","modelNumber":"2012","rawTitle":"✨Chanel✨新款出货🔥款号2012,里外采用小羊皮绣菱形格单拉钱包💃黑配黑设有多个插卡位💫手感超棒..💖💖经典永恒,尺寸19.5*10.5.💃"},"price":null,"currency":"CNY","moq":1,"category":"women-wallets","status":"active","alibaba_url":null,"images":["https://xcimg.szwego.com/img/edc8246d/20241004/i1728017721_4782_2.jpg","https://xcimg.szwego.com/img/edc8246d/20241004/i1728017721_1598_0.jpg","https://xcimg.szwego.com/img/edc8246d/20241004/i1728017721_6237_3.jpg","https://xcimg.szwego.com/img/edc8246d/20241004/i1728017721_4392_1.jpg","https://xcimg.szwego.com/img/edc8246d/20241004/i1728017721_5474_5.jpg","https://xcimg.szwego.com/img/edc8246d/20241004/i1728017721_9187_4.jpg","https://xcimg.szwego.com/img/edc8246d/20241004/i1728017721_2887_6.jpg","https://xcimg.szwego.com/img/edc8246d/20241004/i1728017721_2915_7.jpg"],"created_at":"2025-01-20T13:02:58.446Z"},{"id":"item-3278852dfbce","sku":"_dwuwuc0Fhjv2Cdl_6z8PjVilurHVaysmvNe_cPQ","name_en":"❤️B家London 格纹拉链钱包➰ 装饰标志性格纹设计【👉烟熏格子搭配进口粒面小牛皮,正面怖有 B立体字母徽栐 尺寸19cm*10cm *2.5cm","name_cn":"❤️B家London 格纹拉链钱包➰ 装饰标志性格纹设计【👉烟熏格子搭配进口粒面小牛皮,正面怖有 B立体字母徽栐 尺寸19cm*10cm *2.5cm","specs":{"source":"wsxcme","sourceId":"_dwuwuc0Fhjv2Cdl_6z8PjVilurHVaysmvNe_cPQ","sourceTagId":47002663,"sourceTagName":"长短款钱包","rawTitle":"❤️B家London 格纹拉链钱包➰ 装饰标志性格纹设计【👉烟熏格子搭配进口粒面小牛皮,正面怖有 B立体字母徽栐 尺寸19cm*10cm *2.5cm"},"price":null,"currency":"CNY","moq":1,"category":"women-wallets","status":"active","alibaba_url":null,"images":["https://xcimg.szwego.com/20230809/i1691569204_8253_0.jpg","https://xcimg.szwego.com/20230809/i1691569204_4386_1.jpg","https://xcimg.szwego.com/20230809/i1691569204_5292_2.jpg","https://xcimg.szwego.com/20230809/i1691569204_3008_3.jpg","https://xcimg.szwego.com/20230809/i1691569204_2668_4.jpg","https://xcimg.szwego.com/20230809/i1691569204_6110_5.jpg","https://xcimg.szwego.com/20230809/i1691569204_8161_6.jpg","https://xcimg.szwego.com/20230809/i1691569204_7450_7.jpg","https://xcimg.szwego.com/20230809/i1691569204_3520_8.jpg"],"created_at":"2025-01-20T13:02:58.445Z"},{"id":"item-51ea82917b2c","sku":"_dvzvzhBQp0JeXRgyoDOPulnKMCfGk341jAaRFCQ","name_en":"❤️B家London 格纹短夹钱包➰ 装饰标志性格纹设计🎉👉烟熏格子搭配进口粒面小牛皮,正面怖有 B立体字母徽栐 ,尺寸11cm*10cm","name_cn":"❤️B家London 格纹短夹钱包➰ 装饰标志性格纹设计🎉👉烟熏格子搭配进口粒面小牛皮,正面怖有 B立体字母徽栐 ,尺寸11cm*10cm","specs":{"source":"wsxcme","sourceId":"_dvzvzhBQp0JeXRgyoDOPulnKMCfGk341jAaRFCQ","sourceTagId":47002663,"sourceTagName":"长短款钱包","rawTitle":"❤️B家London 格纹短夹钱包➰ 装饰标志性格纹设计🎉👉烟熏格子搭配进口粒面小牛皮,正面怖有 B立体字母徽栐 ,尺寸11cm*10cm"},"price":null,"currency":"CNY","moq":1,"category":"women-wallets","status":"active","alibaba_url":null,"images":["https://xcimg.szwego.com/20230716/i1689479590_5202_0.jpg","https://xcimg.szwego.com/20230716/i1689479590_1669_1.jpg","https://xcimg.szwego.com/20230716/i1689479590_8581_7.jpg","https://xcimg.szwego.com/20230716/i1689479590_1812_2.jpg","https://xcimg.szwego.com/20230716/i1689479590_3962_3.jpg","https://xcimg.szwego.com/20230716/i1689479590_3607_4.jpg","https://xcimg.szwego.com/20230716/i1689479590_1412_5.jpg","https://xcimg.szwego.com/20230716/i1689479590_3712_6.jpg","https://xcimg.szwego.com/20230716/i1689479590_702_8.jpg"],"created_at":"2025-01-20T13:02:58.444Z"},{"id":"item-41be620b36dd","sku":"_d0g0gO4uON-nnr8M6EemRsXHRQEsu2lKybi2VTA","name_en":"❤️B家London 格纹短夹钱包➰ 装饰标志性格纹设计🎉👉烟熏格子搭配进口粒面小牛皮,正面怖有 B立体字母徽栐 ,尺寸11cm*10cm","name_cn":"❤️B家London 格纹短夹钱包➰ 装饰标志性格纹设计🎉👉烟熏格子搭配进口粒面小牛皮,正面怖有 B立体字母徽栐 ,尺寸11cm*10cm","specs":{"source":"wsxcme","sourceId":"_d0g0gO4uON-nnr8M6EemRsXHRQEsu2lKybi2VTA","sourceTagId":47002663,"sourceTagName":"长短款钱包","rawTitle":"❤️B家London 格纹短夹钱包➰ 装饰标志性格纹设计🎉👉烟熏格子搭配进口粒面小牛皮,正面怖有 B立体字母徽栐 ,尺寸11cm*10cm"},"price":null,"currency":"CNY","moq":1,"category":"women-wallets","status":"active","alibaba_url":null,"images":["https://xcimg.szwego.com/20230603/i1685774689_8045_0.jpg","https://xcimg.szwego.com/20230603/i1685774689_2099_1.jpg","https://xcimg.szwego.com/20230603/i1685774689_3425_2.jpg","https://xcimg.szwego.com/20230603/i1685774689_5184_3.jpg","https://xcimg.szwego.com/20230603/i1685774689_1061_4.jpg","https://xcimg.szwego.com/20230603/i1685774689_4529_5.jpg","https://xcimg.szwego.com/20230603/i1685774689_6086_6.jpg","https://xcimg.szwego.com/20230603/i1685774689_6095_7.jpg","https://xcimg.szwego.com/20230603/i1685774689_4244_8.jpg"],"created_at":"2025-01-20T13:02:58.443Z"},{"id":"item-3e64d93beb03","sku":"_dGkGkyAHFKSvq6IkfnzqqEGD9ppOucQe8uVuZ_Q","name_en":"❤️B家House格纹拼皮革长款钱包采用进口手掌纹牛皮,内格细腻[玫瑰]柔软的进口小牛皮,尺寸19x10cm3cm","name_cn":"❤️B家House格纹拼皮革长款钱包采用进口手掌纹牛皮,内格细腻[玫瑰]柔软的进口小牛皮,尺寸19x10cm3cm","specs":{"source":"wsxcme","sourceId":"_dGkGkyAHFKSvq6IkfnzqqEGD9ppOucQe8uVuZ_Q","sourceTagId":47002663,"sourceTagName":"长短款钱包","rawTitle":"❤️B家House格纹拼皮革长款钱包采用进口手掌纹牛皮,内格细腻[玫瑰]柔软的进口小牛皮,尺寸19x10cm3cm"},"price":null,"currency":"CNY","moq":1,"category":"women-wallets","status":"active","alibaba_url":null,"images":["https://xcimg.szwego.com/20220509/i1652071412_717_0.jpg","https://xcimg.szwego.com/20220509/i1652071412_5231_1.jpg","https://xcimg.szwego.com/20220509/i1652071412_9228_2.jpg","https://xcimg.szwego.com/20220509/i1652071412_8598_3.jpg","https://xcimg.szwego.com/20220509/i1652071412_4032_4.jpg","https://xcimg.szwego.com/20220509/i1652071412_8480_5.jpg","https://xcimg.szwego.com/20220509/i1652071412_5196_6.jpg","https://xcimg.szwego.com/20220509/i1652071412_6441_7.jpg","https://xcimg.szwego.com/20220509/i1652071412_9255_8.jpg"],"created_at":"2025-01-20T13:02:58.442Z"},{"id":"item-75eed2c8945f","sku":"_dugugq1YlZ24vClCzfqNS-b8I-Akntr5fWvwgIw","name_en":"❤️B家House格纹拼皮革长款钱包采用进口手掌纹牛皮,内格细腻[玫瑰]柔软的进口小牛皮,尺寸19x10cm3cm","name_cn":"❤️B家House格纹拼皮革长款钱包采用进口手掌纹牛皮,内格细腻[玫瑰]柔软的进口小牛皮,尺寸19x10cm3cm","specs":{"source":"wsxcme","sourceId":"_dugugq1YlZ24vClCzfqNS-b8I-Akntr5fWvwgIw","sourceTagId":47002663,"sourceTagName":"长短款钱包","rawTitle":"❤️B家House格纹拼皮革长款钱包采用进口手掌纹牛皮,内格细腻[玫瑰]柔软的进口小牛皮,尺寸19x10cm3cm"},"price":null,"currency":"CNY","moq":1,"category":"women-wallets","status":"active","alibaba_url":null,"images":["https://xcimg.szwego.com/20220509/i1652071523_5517_0.jpg","https://xcimg.szwego.com/20220509/i1652071523_7672_1.jpg","https://xcimg.szwego.com/20220509/i1652071523_7942_2.jpg","https://xcimg.szwego.com/20220509/i1652071523_1329_3.jpg","https://xcimg.szwego.com/20220509/i1652071523_8931_4.jpg","https://xcimg.szwego.com/20220509/i1652071523_750_5.jpg","https://xcimg.szwego.com/20220509/i1652071523_2442_6.jpg","https://xcimg.szwego.com/20220509/i1652071523_8682_7.jpg","https://xcimg.szwego.com/20220509/i1652071523_8696_8.jpg"],"created_at":"2025-01-20T13:02:58.441Z"},{"id":"item-5a090711eb0e","sku":"_doLoLXwGcPVQpWltuj9QPbG-OKSqCAbgayw0CUw","name_en":"❤️B家House格纹拼皮革长款钱包采用进口手掌纹牛皮,内格细腻[玫瑰]柔软的进口小牛皮,尺寸19x10cm3cm","name_cn":"❤️B家House格纹拼皮革长款钱包采用进口手掌纹牛皮,内格细腻[玫瑰]柔软的进口小牛皮,尺寸19x10cm3cm","specs":{"source":"wsxcme","sourceId":"_doLoLXwGcPVQpWltuj9QPbG-OKSqCAbgayw0CUw","sourceTagId":47002663,"sourceTagName":"长短款钱包","rawTitle":"❤️B家House格纹拼皮革长款钱包采用进口手掌纹牛皮,内格细腻[玫瑰]柔软的进口小牛皮,尺寸19x10cm3cm"},"price":null,"currency":"CNY","moq":1,"category":"women-wallets","status":"active","alibaba_url":null,"images":["https://xcimg.szwego.com/20220509/i1652071743_6470_0.jpg","https://xcimg.szwego.com/20220509/i1652071743_8603_1.jpg","https://xcimg.szwego.com/20220509/i1652071743_6500_2.jpg","https://xcimg.szwego.com/20220509/i1652071743_1546_3.jpg","https://xcimg.szwego.com/20220509/i1652071743_4446_4.jpg","https://xcimg.szwego.com/20220509/i1652071743_989_5.jpg","https://xcimg.szwego.com/20220509/i1652071743_6604_6.jpg","https://xcimg.szwego.com/20220509/i1652071743_3016_7.jpg","https://xcimg.szwego.com/20220509/i1652071743_4860_8.jpg"],"created_at":"2025-01-20T13:02:58.440Z"},{"id":"item-44a4868346e3","sku":"_djojo0Eb6ctNXxDyEEYJf-MsAx1qlwv9M6UTrlQ","name_en":"❤️B家纯原进口粒面小牛皮压花男士钱包 尺寸19cm*10cm*2.5cm","name_cn":"❤️B家纯原进口粒面小牛皮压花男士钱包 尺寸19cm*10cm*2.5cm","specs":{"source":"wsxcme","sourceId":"_djojo0Eb6ctNXxDyEEYJf-MsAx1qlwv9M6UTrlQ","sourceTagId":47002663,"sourceTagName":"长短款钱包","rawTitle":"❤️B家纯原进口粒面小牛皮压花男士钱包 尺寸19cm*10cm*2.5cm"},"price":null,"currency":"CNY","moq":1,"category":"women-wallets","status":"active","alibaba_url":null,"images":["https://xcimg.szwego.com/20211026/i1635218780_6007_0.jpg","https://xcimg.szwego.com/20211026/i1635218780_7496_1.jpg","https://xcimg.szwego.com/20211026/i1635218780_2872_2.jpg","https://xcimg.szwego.com/20211026/i1635218780_6460_3.jpg","https://xcimg.szwego.com/20211026/i1635218780_9740_4.jpg","https://xcimg.szwego.com/20211026/i1635218780_737_5.jpg","https://xcimg.szwego.com/20211026/i1635218780_363_6.jpg","https://xcimg.szwego.com/20211026/i1635218780_9720_7.jpg","https://xcimg.szwego.com/20211026/i1635218780_8751_8.jpg"],"created_at":"2025-01-20T13:02:58.439Z"},{"id":"item-d9136815d54e","sku":"_dmTmT6jyyxMSIO5z4kQEPC2h63nmtAqDXLr7rdw","name_en":"🆕 M60067 渲染花!变码芯片、ZIPPY 拉链零钱包 都市人提供了最理想的选择。传统硬箱的色彩灵感,为标志性 Monogram 涂层帆布渲染优雅法式色调,搭配光滑牛皮革饰边、包身精巧紧凑,可以用来装零钱、信用卡和折叠起来的纸币。即使身上的口袋小,也可轻松地将它放入。11*8*2c","name_cn":"🆕 M60067 渲染花!变码芯片、ZIPPY 拉链零钱包 都市人提供了最理想的选择。传统硬箱的色彩灵感,为标志性 Monogram 涂层帆布渲染优雅法式色调,搭配光滑牛皮革饰边、包身精巧紧凑,可以用来装零钱、信用卡和折叠起来的纸币。即使身上的口袋小,也可轻松地将它放入。11*8*2c","specs":{"source":"wsxcme","sourceId":"_dmTmT6jyyxMSIO5z4kQEPC2h63nmtAqDXLr7rdw","sourceTagId":47002663,"sourceTagName":"长短款钱包","rawTitle":"🆕 M60067 渲染花!变码芯片、ZIPPY 拉链零钱包 都市人提供了最理想的选择。传统硬箱的色彩灵感,为标志性 Monogram 涂层帆布渲染优雅法式色调,搭配光滑牛皮革饰边、包身精巧紧凑,可以用来装零钱、信用卡和折叠起来的纸币。即使身上的口袋小,也可轻松地将它放入。11*8*2c"},"price":null,"currency":"CNY","moq":1,"category":"women-wallets","status":"active","alibaba_url":null,"images":["https://xcimg.szwego.com/img/2cec6969/20240822/i1724269952_6849_6.jpg","https://xcimg.szwego.com/img/2cec6969/20240822/i1724269952_4127_0.jpg","https://xcimg.szwego.com/img/2cec6969/20240822/i1724269952_5034_7.jpg","https://xcimg.szwego.com/img/2cec6969/20240822/i1724269952_8909_3.jpg","https://xcimg.szwego.com/img/2cec6969/20240822/i1724269952_3939_2.jpg","https://xcimg.szwego.com/img/2cec6969/20240822/i1724269952_1867_8.jpg","https://xcimg.szwego.com/img/2cec6969/20240822/i1724269952_4916_1.jpg","https://xcimg.szwego.com/img/2cec6969/20240822/i1724269952_8939_4.jpg","https://xcimg.szwego.com/img/2cec6969/20240822/i1724269952_3257_5.jpg"],"created_at":"2025-01-20T13:02:58.438Z"},{"id":"item-22202674c6e2","sku":"_d_E_EsTCkQolE92LmVUShKZjXMKUYeByU392Fnw","name_en":"🆕 M41939 渲染花!变码芯片、小巧玲珑却极为实用!传统硬箱的色彩灵感,为标志性 Monogram 涂层帆布渲染优雅法式色调,搭配光滑牛皮革饰边此款多彩信封式零钱包是现代女性都市生活中的完美伴侣。身材小巧,轻松收入包袋甚至衣袋之中。尺寸:11X8cm","name_cn":"🆕 M41939 渲染花!变码芯片、小巧玲珑却极为实用!传统硬箱的色彩灵感,为标志性 Monogram 涂层帆布渲染优雅法式色调,搭配光滑牛皮革饰边此款多彩信封式零钱包是现代女性都市生活中的完美伴侣。身材小巧,轻松收入包袋甚至衣袋之中。尺寸:11X8cm","specs":{"source":"wsxcme","sourceId":"_d_E_EsTCkQolE92LmVUShKZjXMKUYeByU392Fnw","sourceTagId":47002663,"sourceTagName":"长短款钱包","rawTitle":"🆕 M41939 渲染花!变码芯片、小巧玲珑却极为实用!传统硬箱的色彩灵感,为标志性 Monogram 涂层帆布渲染优雅法式色调,搭配光滑牛皮革饰边此款多彩信封式零钱包是现代女性都市生活中的完美伴侣。身材小巧,轻松收入包袋甚至衣袋之中。尺寸:11X8cm"},"price":null,"currency":"CNY","moq":1,"category":"women-wallets","status":"active","alibaba_url":null,"images":["https://xcimg.szwego.com/img/2cec6969/20240822/i1724269701_7575_8.jpg","https://xcimg.szwego.com/img/2cec6969/20240822/i1724269700_2011_0.jpg","https://xcimg.szwego.com/img/2cec6969/20240822/i1724269701_5274_9.jpg","https://xcimg.szwego.com/img/2cec6969/20240822/i1724269701_9226_7.jpg","https://xcimg.szwego.com/img/2cec6969/20240822/i1724269701_8244_3.jpg","https://xcimg.szwego.com/img/2cec6969/20240822/i1724269701_2110_1.jpg","https://xcimg.szwego.com/img/2cec6969/20240822/i1724269701_2033_2.jpg","https://xcimg.szwego.com/img/2cec6969/20240822/i1724269701_2907_4.jpg","https://xcimg.szwego.com/img/2cec6969/20240822/i1724269701_3767_5.jpg","https://xcimg.szwego.com/img/2cec6969/20240822/i1724269701_429_6.jpg"],"created_at":"2025-01-20T13:02:58.437Z"},{"id":"item-6b273564e257","sku":"_d-N-N-CLHhqec50DRJpmISI2_LbxREiGJizV6zg","name_en":"🆕芯片版M60143奶白 选用奢华的Mahina皮革打造,这款Iris钱包是精致迷人的配饰,极柔软的小牛皮加入打孔通花Monogram图案,配置低调的按扣开合 尺寸宽12×19×2","name_cn":"🆕芯片版M60143奶白 选用奢华的Mahina皮革打造,这款Iris钱包是精致迷人的配饰,极柔软的小牛皮加入打孔通花Monogram图案,配置低调的按扣开合 尺寸宽12×19×2","specs":{"source":"wsxcme","sourceId":"_d-N-N-CLHhqec50DRJpmISI2_LbxREiGJizV6zg","sourceTagId":47002663,"sourceTagName":"长短款钱包","rawTitle":"🆕芯片版M60143奶白 选用奢华的Mahina皮革打造,这款Iris钱包是精致迷人的配饰,极柔软的小牛皮加入打孔通花Monogram图案,配置低调的按扣开合 尺寸宽12×19×2"},"price":null,"currency":"CNY","moq":1,"category":"women-wallets","status":"active","alibaba_url":null,"images":["https://xcimg.szwego.com/20240606/i1717680322_2019_0.jpg","https://xcimg.szwego.com/20240606/i1717680322_8380_1.jpg","https://xcimg.szwego.com/20240606/i1717680322_9762_2.jpg","https://xcimg.szwego.com/20240606/i1717680322_5472_3.jpg","https://xcimg.szwego.com/20240606/i1717680322_2190_4.jpg","https://xcimg.szwego.com/20240606/i1717680322_4376_5.jpg","https://xcimg.szwego.com/20240606/i1717680322_5931_6.jpg","https://xcimg.szwego.com/20240606/i1717680322_2529_7.jpg","https://xcimg.szwego.com/20240606/i1717680322_1663_8.jpg"],"created_at":"2025-01-20T13:02:58.436Z"},{"id":"item-c41e697e3e95","sku":"_dFgFgxdSeERXGFghGnytKa-3A4s-FpNzQrUxktg","name_en":"🆕 芯片版M60143粉色 选用奢华的Mahina皮革打造,这款Iris钱包是精致迷人的配饰,极柔软的小牛皮加入打孔通花Monogram图案,配置低调的按扣开合 尺寸宽12×19×2","name_cn":"🆕 芯片版M60143粉色 选用奢华的Mahina皮革打造,这款Iris钱包是精致迷人的配饰,极柔软的小牛皮加入打孔通花Monogram图案,配置低调的按扣开合 尺寸宽12×19×2","specs":{"source":"wsxcme","sourceId":"_dFgFgxdSeERXGFghGnytKa-3A4s-FpNzQrUxktg","sourceTagId":47002663,"sourceTagName":"长短款钱包","rawTitle":"🆕 芯片版M60143粉色 选用奢华的Mahina皮革打造,这款Iris钱包是精致迷人的配饰,极柔软的小牛皮加入打孔通花Monogram图案,配置低调的按扣开合 尺寸宽12×19×2"},"price":null,"currency":"CNY","moq":1,"category":"women-wallets","status":"active","alibaba_url":null,"images":["https://xcimg.szwego.com/20240606/i1717680239_284_0.jpg","https://xcimg.szwego.com/20240606/i1717680239_8112_1.jpg","https://xcimg.szwego.com/20240606/i1717680239_6096_2.jpg","https://xcimg.szwego.com/20240606/i1717680239_849_3.jpg","https://xcimg.szwego.com/20240606/i1717680239_273_4.jpg","https://xcimg.szwego.com/20240606/i1717680239_1898_5.jpg","https://xcimg.szwego.com/20240606/i1717680239_7086_6.jpg","https://xcimg.szwego.com/20240606/i1717680239_1730_7.jpg"],"created_at":"2025-01-20T13:02:58.435Z"}],"page":21,"pageSize":24,"total":830,"totalPages":35}
