{"items":[{"id":"item-e292a421717f","sku":"_d0q0qH_t6NmXcPIKCTqm5KP7wob01PGjfTHByBw","name_en":"。💖《配全套原厂绿盒包装》💖Gucci Luce系列迷你拉链钱包。Gucci Luce系列包袋散发着浓郁的俏皮感和趣味感,“Luce”在意大利语中意为“光明”。Original GG帆布为这款小巧玲珑的迷你拉链钱包注入设计精髓。棕色皮革滚边和浅金色调配件与米色和棕色图案交相辉映。米色和乌木色经典GG帆布,棕色皮革滚边,浅金色调金属配件,云纹织物衬里,Gu","name_cn":"。💖《配全套原厂绿盒包装》💖Gucci Luce系列迷你拉链钱包。Gucci Luce系列包袋散发着浓郁的俏皮感和趣味感,“Luce”在意大利语中意为“光明”。Original GG帆布为这款小巧玲珑的迷你拉链钱包注入设计精髓。棕色皮革滚边和浅金色调配件与米色和棕色图案交相辉映。米色和乌木色经典GG帆布,棕色皮革滚边,浅金色调金属配件,云纹织物衬里,Gucci徽章拉链头,内部:四个卡片隔层,拉链门襟,重量:约0.1千克。\n型号:790037。\n尺寸:11.5(宽)x 9(高)x 2厘米(深)\n颜色:棕色/帆布。","specs":{"source":"wsxcme","sourceId":"_d0q0qH_t6NmXcPIKCTqm5KP7wob01PGjfTHByBw","sourceTagId":47002663,"sourceTagName":"长短款钱包","modelNumber":"790037","rawTitle":"。💖《配全套原厂绿盒包装》💖Gucci Luce系列迷你拉链钱包。Gucci Luce系列包袋散发着浓郁的俏皮感和趣味感,“Luce”在意大利语中意为“光明”。Original GG帆布为这款小巧玲珑的迷你拉链钱包注入设计精髓。棕色皮革滚边和浅金色调配件与米色和棕色图案交相辉映。米色和乌木色经典GG帆布,棕色皮革滚边,浅金色调金属配件,云纹织物衬里,Gucci徽章拉链头,内部:四个卡片隔层,拉链门襟,重量:约0.1千克。\n型号:790037。\n尺寸:11.5(宽)x 9(高)x 2厘米(深)\n颜色:棕色/帆布。"},"price":null,"currency":"CNY","moq":1,"category":"women-wallets","status":"active","alibaba_url":null,"images":["https://xcimg.szwego.com/20240429/i1714374067_5754_0.jpg","https://xcimg.szwego.com/20240429/i1714374067_6362_1.jpg","https://xcimg.szwego.com/20240429/i1714374067_5908_2.jpg","https://xcimg.szwego.com/20240429/i1714374067_948_3.jpg","https://xcimg.szwego.com/20240429/i1714374067_1788_4.jpg","https://xcimg.szwego.com/20240429/i1714374067_7459_5.jpg","https://xcimg.szwego.com/20240429/i1714374067_2863_6.jpg","https://xcimg.szwego.com/20240429/i1714374067_9330_7.jpg","https://xcimg.szwego.com/20240429/i1714374067_5265_8.jpg"],"created_at":"2024-05-01T03:25:13.358Z"},{"id":"item-ceee0a7831b5","sku":"_d8181ZmDrIVOQXEYg1F34AkadVigFSz1RPF_HrQ","name_en":"。💖《配全套原厂绿盒包装》💖Gucci Luce系列迷你拉链钱包。Gucci Luce系列包袋散发着浓郁的俏皮感和趣味感,“Luce”在意大利语中意为“光明”。Original GG帆布为这款小巧玲珑的迷你拉链钱包注入设计精髓。蓝色皮革滚边和浅金色调配件与米色和蓝色图案交相辉映。米色和乌木色经典GG帆布,蓝色皮革滚边,浅金色调金属配件,云纹织物衬里,Gu","name_cn":"。💖《配全套原厂绿盒包装》💖Gucci Luce系列迷你拉链钱包。Gucci Luce系列包袋散发着浓郁的俏皮感和趣味感,“Luce”在意大利语中意为“光明”。Original GG帆布为这款小巧玲珑的迷你拉链钱包注入设计精髓。蓝色皮革滚边和浅金色调配件与米色和蓝色图案交相辉映。米色和乌木色经典GG帆布,蓝色皮革滚边,浅金色调金属配件,云纹织物衬里,Gucci徽章拉链头,内部:四个卡片隔层,拉链门襟,重量:约0.1千克。\n型号:790037。\n尺寸:11.5(宽)x 9(高)x 2厘米(深)\n颜色:蓝色/帆布。","specs":{"source":"wsxcme","sourceId":"_d8181ZmDrIVOQXEYg1F34AkadVigFSz1RPF_HrQ","sourceTagId":47002663,"sourceTagName":"长短款钱包","modelNumber":"790037","rawTitle":"。💖《配全套原厂绿盒包装》💖Gucci Luce系列迷你拉链钱包。Gucci Luce系列包袋散发着浓郁的俏皮感和趣味感,“Luce”在意大利语中意为“光明”。Original GG帆布为这款小巧玲珑的迷你拉链钱包注入设计精髓。蓝色皮革滚边和浅金色调配件与米色和蓝色图案交相辉映。米色和乌木色经典GG帆布,蓝色皮革滚边,浅金色调金属配件,云纹织物衬里,Gucci徽章拉链头,内部:四个卡片隔层,拉链门襟,重量:约0.1千克。\n型号:790037。\n尺寸:11.5(宽)x 9(高)x 2厘米(深)\n颜色:蓝色/帆布。"},"price":null,"currency":"CNY","moq":1,"category":"women-wallets","status":"active","alibaba_url":null,"images":["https://xcimg.szwego.com/20240429/i1714373965_817_0.jpg","https://xcimg.szwego.com/20240429/i1714373965_1530_1.jpg","https://xcimg.szwego.com/20240429/i1714373965_8044_2.jpg","https://xcimg.szwego.com/20240429/i1714373965_9812_3.jpg","https://xcimg.szwego.com/20240429/i1714373965_3420_4.jpg","https://xcimg.szwego.com/20240429/i1714373965_6871_5.jpg","https://xcimg.szwego.com/20240429/i1714373965_5035_6.jpg","https://xcimg.szwego.com/20240429/i1714373965_9163_7.jpg","https://xcimg.szwego.com/20240429/i1714373965_9250_8.jpg"],"created_at":"2024-05-01T03:25:13.357Z"},{"id":"item-4665476ccaae","sku":"_dEKEKNVnu6Oi-4VXQa-31STMx4yk4M3yh0VHQHw","name_en":"。💖《配全套原厂绿盒包装》💖Gucci Luce系列卡包。Gucci Luce系列包袋散发着浓郁的俏皮感和趣味感,“Luce”在意大利语中意为“光明”。Original GG帆布为这款流线型卡包注入设计精髓。棕色皮革滚边和浅金色调配件与米色和棕色图案交相辉映。米色和蓝色经典GG帆布,棕色皮革,浅金色调金属配件,云纹织物衬里,Gucci徽章拉链头,外部:3","name_cn":"。💖《配全套原厂绿盒包装》💖Gucci Luce系列卡包。Gucci Luce系列包袋散发着浓郁的俏皮感和趣味感,“Luce”在意大利语中意为“光明”。Original GG帆布为这款流线型卡包注入设计精髓。棕色皮革滚边和浅金色调配件与米色和棕色图案交相辉映。米色和蓝色经典GG帆布,棕色皮革,浅金色调金属配件,云纹织物衬里,Gucci徽章拉链头,外部:3个卡片隔层,拉链门襟。\n型号:790033。\n尺寸:11.5(宽)x 7.5(高)x 1.5cm(深)\n颜色:棕色/帆布。\n重量:约0.05千克","specs":{"source":"wsxcme","sourceId":"_dEKEKNVnu6Oi-4VXQa-31STMx4yk4M3yh0VHQHw","sourceTagId":47002663,"sourceTagName":"长短款钱包","modelNumber":"790033","rawTitle":"。💖《配全套原厂绿盒包装》💖Gucci Luce系列卡包。Gucci Luce系列包袋散发着浓郁的俏皮感和趣味感,“Luce”在意大利语中意为“光明”。Original GG帆布为这款流线型卡包注入设计精髓。棕色皮革滚边和浅金色调配件与米色和棕色图案交相辉映。米色和蓝色经典GG帆布,棕色皮革,浅金色调金属配件,云纹织物衬里,Gucci徽章拉链头,外部:3个卡片隔层,拉链门襟。\n型号:790033。\n尺寸:11.5(宽)x 7.5(高)x 1.5cm(深)\n颜色:棕色/帆布。\n重量:约0.05千克"},"price":null,"currency":"CNY","moq":1,"category":"women-wallets","status":"active","alibaba_url":null,"images":["https://xcimg.szwego.com/20240429/i1714373731_7085_0.jpg","https://xcimg.szwego.com/20240429/i1714373731_959_1.jpg","https://xcimg.szwego.com/20240429/i1714373731_4915_2.jpg","https://xcimg.szwego.com/20240429/i1714373731_7812_3.jpg","https://xcimg.szwego.com/20240429/i1714373731_4293_4.jpg","https://xcimg.szwego.com/20240429/i1714373731_9334_5.jpg","https://xcimg.szwego.com/20240429/i1714373731_3730_6.jpg","https://xcimg.szwego.com/20240429/i1714373731_2145_7.jpg","https://xcimg.szwego.com/20240429/i1714373731_5873_8.jpg"],"created_at":"2024-05-01T03:25:13.356Z"},{"id":"item-c254ab25b773","sku":"_dJOJOCOxOybf8oaluDc0nqZ6HPKeYSs1bkz8eVA","name_en":"。💖《配全套原厂绿盒包装》💖Gucci Luce系列卡包。Gucci Luce系列包袋散发着浓郁的俏皮感和趣味感,“Luce”在意大利语中意为“光明”。Original GG帆布为这款流线型卡包注入设计精髓。蓝色皮革滚边和浅金色调配件与米色和蓝色图案交相辉映。米色和蓝色经典GG帆布,蓝色皮革,浅金色调金属配件,云纹织物衬里,Gucci徽章拉链头,外部:3","name_cn":"。💖《配全套原厂绿盒包装》💖Gucci Luce系列卡包。Gucci Luce系列包袋散发着浓郁的俏皮感和趣味感,“Luce”在意大利语中意为“光明”。Original GG帆布为这款流线型卡包注入设计精髓。蓝色皮革滚边和浅金色调配件与米色和蓝色图案交相辉映。米色和蓝色经典GG帆布,蓝色皮革,浅金色调金属配件,云纹织物衬里,Gucci徽章拉链头,外部:3个卡片隔层,拉链门襟。\n型号:790033。\n尺寸:11.5(宽)x 7.5(高)x 1.5cm(深)\n颜色:蓝色/帆布。\n重量:约0.05千克","specs":{"source":"wsxcme","sourceId":"_dJOJOCOxOybf8oaluDc0nqZ6HPKeYSs1bkz8eVA","sourceTagId":47002663,"sourceTagName":"长短款钱包","modelNumber":"790033","rawTitle":"。💖《配全套原厂绿盒包装》💖Gucci Luce系列卡包。Gucci Luce系列包袋散发着浓郁的俏皮感和趣味感,“Luce”在意大利语中意为“光明”。Original GG帆布为这款流线型卡包注入设计精髓。蓝色皮革滚边和浅金色调配件与米色和蓝色图案交相辉映。米色和蓝色经典GG帆布,蓝色皮革,浅金色调金属配件,云纹织物衬里,Gucci徽章拉链头,外部:3个卡片隔层,拉链门襟。\n型号:790033。\n尺寸:11.5(宽)x 7.5(高)x 1.5cm(深)\n颜色:蓝色/帆布。\n重量:约0.05千克"},"price":null,"currency":"CNY","moq":1,"category":"women-wallets","status":"active","alibaba_url":null,"images":["https://xcimg.szwego.com/20240429/i1714373644_5405_0.jpg","https://xcimg.szwego.com/20240429/i1714373644_1741_1.jpg","https://xcimg.szwego.com/20240429/i1714373644_2216_2.jpg","https://xcimg.szwego.com/20240429/i1714373644_8980_3.jpg","https://xcimg.szwego.com/20240429/i1714373644_900_4.jpg","https://xcimg.szwego.com/20240429/i1714373644_3445_5.jpg","https://xcimg.szwego.com/20240429/i1714373644_7968_6.jpg","https://xcimg.szwego.com/20240429/i1714373644_4562_7.jpg","https://xcimg.szwego.com/20240429/i1714373644_5667_8.jpg"],"created_at":"2024-05-01T03:25:13.355Z"},{"id":"item-9d638e0d63c3","sku":"_d8Z8ZmMBW1lCP1dSqhRneKPAquYIR0HcAgIXXPA","name_en":"。💖《配全套原厂绿盒包装》💖饰GG细节拉链钱包。Gucci小件皮革配饰突破设计界限,不断以个性方式焕新演绎经典单品。这款男士钱包将经典GG Supreme帆布与黑色GG配件匠心糅合,成就现代时尚的精美配饰。黑色皮革滚边,云纹织物衬里GG细节,内部:12个卡片隔层,3个钞票隔层。","name_cn":"。💖《配全套原厂绿盒包装》💖饰GG细节拉链钱包。Gucci小件皮革配饰突破设计界限,不断以个性方式焕新演绎经典单品。这款男士钱包将经典GG Supreme帆布与黑色GG配件匠心糅合,成就现代时尚的精美配饰。黑色皮革滚边,云纹织物衬里GG细节,内部:12个卡片隔层,3个钞票隔层。\n型号:308004。\n尺寸:19.5(宽)x 10(高)x2.5cm(厚)\n颜色:黑色/全皮。\n意大利创作","specs":{"source":"wsxcme","sourceId":"_d8Z8ZmMBW1lCP1dSqhRneKPAquYIR0HcAgIXXPA","sourceTagId":47002663,"sourceTagName":"长短款钱包","modelNumber":"308004","rawTitle":"。💖《配全套原厂绿盒包装》💖饰GG细节拉链钱包。Gucci小件皮革配饰突破设计界限,不断以个性方式焕新演绎经典单品。这款男士钱包将经典GG Supreme帆布与黑色GG配件匠心糅合,成就现代时尚的精美配饰。黑色皮革滚边,云纹织物衬里GG细节,内部:12个卡片隔层,3个钞票隔层。\n型号:308004。\n尺寸:19.5(宽)x 10(高)x2.5cm(厚)\n颜色:黑色/全皮。\n意大利创作"},"price":null,"currency":"CNY","moq":1,"category":"women-wallets","status":"active","alibaba_url":null,"images":["https://xcimg.szwego.com/20240429/i1714373179_8168_0.jpg","https://xcimg.szwego.com/20240429/i1714373179_716_1.jpg","https://xcimg.szwego.com/20240429/i1714373179_4637_2.jpg","https://xcimg.szwego.com/20240429/i1714373179_5453_3.jpg","https://xcimg.szwego.com/20240429/i1714373179_9645_4.jpg","https://xcimg.szwego.com/20240429/i1714373179_2604_5.jpg","https://xcimg.szwego.com/20240429/i1714373179_3359_6.jpg","https://xcimg.szwego.com/20240429/i1714373179_3782_7.jpg","https://xcimg.szwego.com/20240429/i1714373179_5779_8.jpg"],"created_at":"2024-05-01T03:25:13.354Z"},{"id":"item-5bf0192225eb","sku":"_dc0c0BwpnA1gzxwlxloVNy4EZ-Mvi5EjOk1qz6Q","name_en":"。💖《配全套原厂绿盒包装》💖饰GG细节拉链钱包。Gucci小件皮革配饰突破设计界限,不断以个性方式焕新演绎经典单品。这款男士钱包将经典GG Supreme帆布与红色GG配件匠心糅合,成就现代时尚的精美配饰。红色皮革滚边,云纹织物衬里GG细节,内部:12个卡片隔层,3个钞票隔层。","name_cn":"。💖《配全套原厂绿盒包装》💖饰GG细节拉链钱包。Gucci小件皮革配饰突破设计界限,不断以个性方式焕新演绎经典单品。这款男士钱包将经典GG Supreme帆布与红色GG配件匠心糅合,成就现代时尚的精美配饰。红色皮革滚边,云纹织物衬里GG细节,内部:12个卡片隔层,3个钞票隔层。\n型号:308004。\n尺寸:19.5(宽)x 10(高)x2.5cm(厚)\n颜色:红色/全皮。\n意大利创作","specs":{"source":"wsxcme","sourceId":"_dc0c0BwpnA1gzxwlxloVNy4EZ-Mvi5EjOk1qz6Q","sourceTagId":47002663,"sourceTagName":"长短款钱包","modelNumber":"308004","rawTitle":"。💖《配全套原厂绿盒包装》💖饰GG细节拉链钱包。Gucci小件皮革配饰突破设计界限,不断以个性方式焕新演绎经典单品。这款男士钱包将经典GG Supreme帆布与红色GG配件匠心糅合,成就现代时尚的精美配饰。红色皮革滚边,云纹织物衬里GG细节,内部:12个卡片隔层,3个钞票隔层。\n型号:308004。\n尺寸:19.5(宽)x 10(高)x2.5cm(厚)\n颜色:红色/全皮。\n意大利创作"},"price":null,"currency":"CNY","moq":1,"category":"women-wallets","status":"active","alibaba_url":null,"images":["https://xcimg.szwego.com/20240429/i1714373137_7906_0.jpg","https://xcimg.szwego.com/20240429/i1714373137_2644_1.jpg","https://xcimg.szwego.com/20240429/i1714373137_9220_2.jpg","https://xcimg.szwego.com/20240429/i1714373137_1597_3.jpg","https://xcimg.szwego.com/20240429/i1714373137_9781_4.jpg","https://xcimg.szwego.com/20240429/i1714373137_8537_5.jpg","https://xcimg.szwego.com/20240429/i1714373137_649_6.jpg","https://xcimg.szwego.com/20240429/i1714373137_9517_7.jpg","https://xcimg.szwego.com/20240429/i1714373137_6813_8.jpg"],"created_at":"2024-05-01T03:25:13.353Z"},{"id":"item-13160942b409","sku":"_diIiIrZV3L8iCRlZvxTcD-dKi_1kE09QynDUWKg","name_en":"。💖《配全套原厂绿盒包装》💖饰GG细节拉链钱包。Gucci小件皮革配饰突破设计界限,不断以个性方式焕新演绎经典单品。这款男士钱包将经典GG Supreme帆布与黑色GG配件匠心糅合,成就现代时尚的精美配饰。黑色皮革滚边,云纹织物衬里GG细节,内部:12个卡片隔层,3个钞票隔层。","name_cn":"。💖《配全套原厂绿盒包装》💖饰GG细节拉链钱包。Gucci小件皮革配饰突破设计界限,不断以个性方式焕新演绎经典单品。这款男士钱包将经典GG Supreme帆布与黑色GG配件匠心糅合,成就现代时尚的精美配饰。黑色皮革滚边,云纹织物衬里GG细节,内部:12个卡片隔层,3个钞票隔层。\n型号:307987。\n尺寸:19(宽)x 10(高)x2.5cm(厚)\n颜色:黑色/压花G原厂皮。\n意大利创作","specs":{"source":"wsxcme","sourceId":"_diIiIrZV3L8iCRlZvxTcD-dKi_1kE09QynDUWKg","sourceTagId":47002663,"sourceTagName":"长短款钱包","modelNumber":"307987","rawTitle":"。💖《配全套原厂绿盒包装》💖饰GG细节拉链钱包。Gucci小件皮革配饰突破设计界限,不断以个性方式焕新演绎经典单品。这款男士钱包将经典GG Supreme帆布与黑色GG配件匠心糅合,成就现代时尚的精美配饰。黑色皮革滚边,云纹织物衬里GG细节,内部:12个卡片隔层,3个钞票隔层。\n型号:307987。\n尺寸:19(宽)x 10(高)x2.5cm(厚)\n颜色:黑色/压花G原厂皮。\n意大利创作"},"price":null,"currency":"CNY","moq":1,"category":"women-wallets","status":"active","alibaba_url":null,"images":["https://xcimg.szwego.com/20240428/i1714235355_7543_0.jpg","https://xcimg.szwego.com/20240428/i1714235355_1458_1.jpg","https://xcimg.szwego.com/20240428/i1714235355_321_2.jpg","https://xcimg.szwego.com/20240428/i1714235355_21_3.jpg","https://xcimg.szwego.com/20240428/i1714235355_2059_4.jpg","https://xcimg.szwego.com/20240428/i1714235355_632_5.jpg","https://xcimg.szwego.com/20240428/i1714235355_3393_6.jpg","https://xcimg.szwego.com/20240428/i1714235355_1561_7.jpg","https://xcimg.szwego.com/20240428/i1714235355_1267_8.jpg"],"created_at":"2024-05-01T03:25:13.352Z"},{"id":"item-c540f10daec0","sku":"_djjjj-w_RZSdnk8yfPzk1UkfchJWIXzq1f8hO4A","name_en":"。💖《配全套原厂绿盒包装》💖饰GG细节拉链钱包。Gucci小件皮革配饰突破设计界限,不断以个性方式焕新演绎经典单品。这款男士钱包将经典GG Supreme帆布与黑色GG配件匠心糅合,成就现代时尚的精美配饰。黑色皮革滚边,云纹织物衬里GG细节,内部:12个卡片隔层,3个钞票隔层。","name_cn":"。💖《配全套原厂绿盒包装》💖饰GG细节拉链钱包。Gucci小件皮革配饰突破设计界限,不断以个性方式焕新演绎经典单品。这款男士钱包将经典GG Supreme帆布与黑色GG配件匠心糅合,成就现代时尚的精美配饰。黑色皮革滚边,云纹织物衬里GG细节,内部:12个卡片隔层,3个钞票隔层。\n型号:408831。\n尺寸:19(宽)x 10(高)x2.5cm(厚)\n颜色:黑色/压花G原厂皮。\n意大利创作","specs":{"source":"wsxcme","sourceId":"_djjjj-w_RZSdnk8yfPzk1UkfchJWIXzq1f8hO4A","sourceTagId":47002663,"sourceTagName":"长短款钱包","modelNumber":"408831","rawTitle":"。💖《配全套原厂绿盒包装》💖饰GG细节拉链钱包。Gucci小件皮革配饰突破设计界限,不断以个性方式焕新演绎经典单品。这款男士钱包将经典GG Supreme帆布与黑色GG配件匠心糅合,成就现代时尚的精美配饰。黑色皮革滚边,云纹织物衬里GG细节,内部:12个卡片隔层,3个钞票隔层。\n型号:408831。\n尺寸:19(宽)x 10(高)x2.5cm(厚)\n颜色:黑色/压花G原厂皮。\n意大利创作"},"price":null,"currency":"CNY","moq":1,"category":"women-wallets","status":"active","alibaba_url":null,"images":["https://xcimg.szwego.com/20240428/i1714235321_2090_0.jpg","https://xcimg.szwego.com/20240428/i1714235321_607_1.jpg","https://xcimg.szwego.com/20240428/i1714235321_2932_2.jpg","https://xcimg.szwego.com/20240428/i1714235321_1641_3.jpg","https://xcimg.szwego.com/20240428/i1714235321_7856_4.jpg","https://xcimg.szwego.com/20240428/i1714235321_6546_5.jpg","https://xcimg.szwego.com/20240428/i1714235321_110_6.jpg","https://xcimg.szwego.com/20240428/i1714235321_9071_7.jpg","https://xcimg.szwego.com/20240428/i1714235321_1600_8.jpg"],"created_at":"2024-05-01T03:25:13.351Z"},{"id":"item-cd27776c6a3e","sku":"_dw1w1zTaW3gB8-bnPIkWJPcGgYjjNBL08bHX8yQ","name_en":"。💖《配全套原厂绿盒包装》💖饰GG细节拉链钱包。Gucci小件皮革配饰突破设计界限,不断以个性方式焕新演绎经典单品。这款男士钱包将经典GG Supreme帆布与黑色GG配件匠心糅合,成就现代时尚的精美配饰。黑色皮革滚边,云纹织物衬里GG细节,内部:12个卡片隔层,3个钞票隔层。","name_cn":"。💖《配全套原厂绿盒包装》💖饰GG细节拉链钱包。Gucci小件皮革配饰突破设计界限,不断以个性方式焕新演绎经典单品。这款男士钱包将经典GG Supreme帆布与黑色GG配件匠心糅合,成就现代时尚的精美配饰。黑色皮革滚边,云纹织物衬里GG细节,内部:12个卡片隔层,3个钞票隔层。\n型号:473928。\n尺寸:19(宽)x 10(高)x2.5cm(厚)\n颜色:黑色/压花G原厂皮。\n意大利创作","specs":{"source":"wsxcme","sourceId":"_dw1w1zTaW3gB8-bnPIkWJPcGgYjjNBL08bHX8yQ","sourceTagId":47002663,"sourceTagName":"长短款钱包","modelNumber":"473928","rawTitle":"。💖《配全套原厂绿盒包装》💖饰GG细节拉链钱包。Gucci小件皮革配饰突破设计界限,不断以个性方式焕新演绎经典单品。这款男士钱包将经典GG Supreme帆布与黑色GG配件匠心糅合,成就现代时尚的精美配饰。黑色皮革滚边,云纹织物衬里GG细节,内部:12个卡片隔层,3个钞票隔层。\n型号:473928。\n尺寸:19(宽)x 10(高)x2.5cm(厚)\n颜色:黑色/压花G原厂皮。\n意大利创作"},"price":null,"currency":"CNY","moq":1,"category":"women-wallets","status":"active","alibaba_url":null,"images":["https://xcimg.szwego.com/20240428/i1714235275_732_0.jpg","https://xcimg.szwego.com/20240428/i1714235275_4740_1.jpg","https://xcimg.szwego.com/20240428/i1714235275_6905_2.jpg","https://xcimg.szwego.com/20240428/i1714235275_7721_3.jpg","https://xcimg.szwego.com/20240428/i1714235275_9011_4.jpg","https://xcimg.szwego.com/20240428/i1714235275_8082_5.jpg","https://xcimg.szwego.com/20240428/i1714235275_6403_6.jpg","https://xcimg.szwego.com/20240428/i1714235275_5566_7.jpg","https://xcimg.szwego.com/20240428/i1714235275_4262_8.jpg"],"created_at":"2024-05-01T03:25:13.350Z"},{"id":"item-f55baf6630e8","sku":"_dyMyMKykzn97Nsj3JwhbNrcQpcViv3PcLMqr5OQ","name_en":"。💖《配全套原厂绿盒包装》💖饰GG细节拉链钱包。Gucci小件皮革配饰突破设计界限,不断以个性方式焕新演绎经典单品。这款男士钱包将经典GG Supreme帆布与黑色GG配件匠心糅合,成就现代时尚的精美配饰。黑色皮革滚边,云纹织物衬里GG细节,内部:12个卡片隔层,3个钞票隔层。","name_cn":"。💖《配全套原厂绿盒包装》💖饰GG细节拉链钱包。Gucci小件皮革配饰突破设计界限,不断以个性方式焕新演绎经典单品。这款男士钱包将经典GG Supreme帆布与黑色GG配件匠心糅合,成就现代时尚的精美配饰。黑色皮革滚边,云纹织物衬里GG细节,内部:12个卡片隔层,3个钞票隔层。\n型号:291105。\n尺寸:19(宽)x 10(高)x2.5cm(厚)\n颜色:黑色/压花G原厂皮。\n意大利创作","specs":{"source":"wsxcme","sourceId":"_dyMyMKykzn97Nsj3JwhbNrcQpcViv3PcLMqr5OQ","sourceTagId":47002663,"sourceTagName":"长短款钱包","modelNumber":"291105","rawTitle":"。💖《配全套原厂绿盒包装》💖饰GG细节拉链钱包。Gucci小件皮革配饰突破设计界限,不断以个性方式焕新演绎经典单品。这款男士钱包将经典GG Supreme帆布与黑色GG配件匠心糅合,成就现代时尚的精美配饰。黑色皮革滚边,云纹织物衬里GG细节,内部:12个卡片隔层,3个钞票隔层。\n型号:291105。\n尺寸:19(宽)x 10(高)x2.5cm(厚)\n颜色:黑色/压花G原厂皮。\n意大利创作"},"price":null,"currency":"CNY","moq":1,"category":"women-wallets","status":"active","alibaba_url":null,"images":["https://xcimg.szwego.com/20240428/i1714235076_5436_0.jpg","https://xcimg.szwego.com/20240428/i1714235076_7992_1.jpg","https://xcimg.szwego.com/20240428/i1714235076_5736_2.jpg","https://xcimg.szwego.com/20240428/i1714235076_1685_3.jpg","https://xcimg.szwego.com/20240428/i1714235076_6303_4.jpg","https://xcimg.szwego.com/20240428/i1714235076_934_5.jpg","https://xcimg.szwego.com/20240428/i1714235076_9683_6.jpg","https://xcimg.szwego.com/20240428/i1714235076_456_7.jpg","https://xcimg.szwego.com/20240428/i1714235222_2145_0.jpg"],"created_at":"2024-05-01T03:25:13.349Z"},{"id":"item-bee790e05257","sku":"_dkaka6Py_EV4Ky_lxidE_j_6T28S3W_crULP_Aw","name_en":"。💖《配全套原厂绿盒包装》💖饰GG细节钱包。Gucci小件皮革配饰突破设计界限,不断以个性方式焕新演绎经典单品。这款男士钱包将经典GG Supreme帆布与黑色GG配件匠心糅合,成就现代时尚的精美配饰。黑色皮革滚边,云纹织物衬里GG细节,内部:8个卡片隔层,1个钞票隔层。","name_cn":"。💖《配全套原厂绿盒包装》💖饰GG细节钱包。Gucci小件皮革配饰突破设计界限,不断以个性方式焕新演绎经典单品。这款男士钱包将经典GG Supreme帆布与黑色GG配件匠心糅合,成就现代时尚的精美配饰。黑色皮革滚边,云纹织物衬里GG细节,内部:8个卡片隔层,1个钞票隔层。\n型号:365466。\n闭合时尺寸:11(宽)x 9cm(高)\n打开时尺寸:21(宽)x 9cm(高)\n颜色:黑色/压花G原厂皮。\n意大利创作\n重量:约0.045千克","specs":{"source":"wsxcme","sourceId":"_dkaka6Py_EV4Ky_lxidE_j_6T28S3W_crULP_Aw","sourceTagId":47002663,"sourceTagName":"长短款钱包","modelNumber":"365466","rawTitle":"。💖《配全套原厂绿盒包装》💖饰GG细节钱包。Gucci小件皮革配饰突破设计界限,不断以个性方式焕新演绎经典单品。这款男士钱包将经典GG Supreme帆布与黑色GG配件匠心糅合,成就现代时尚的精美配饰。黑色皮革滚边,云纹织物衬里GG细节,内部:8个卡片隔层,1个钞票隔层。\n型号:365466。\n闭合时尺寸:11(宽)x 9cm(高)\n打开时尺寸:21(宽)x 9cm(高)\n颜色:黑色/压花G原厂皮。\n意大利创作\n重量:约0.045千克"},"price":null,"currency":"CNY","moq":1,"category":"women-wallets","status":"active","alibaba_url":null,"images":["https://xcimg.szwego.com/20240428/i1714234646_6486_0.jpg","https://xcimg.szwego.com/20240428/i1714234646_881_1.jpg","https://xcimg.szwego.com/20240428/i1714234646_1685_2.jpg","https://xcimg.szwego.com/20240428/i1714234646_5128_3.jpg","https://xcimg.szwego.com/20240428/i1714234646_2610_4.jpg","https://xcimg.szwego.com/20240428/i1714234646_4318_5.jpg","https://xcimg.szwego.com/20240428/i1714234646_9089_6.jpg","https://xcimg.szwego.com/20240428/i1714234646_2167_7.jpg","https://xcimg.szwego.com/20240428/i1714234646_6997_8.jpg"],"created_at":"2024-05-01T03:25:13.348Z"},{"id":"item-6e0798ad1600","sku":"_dDhDhJES5Lws8Pg8mEdWjWu3ocwGHB9urUYrnZQ","name_en":"。💖《配全套原厂绿盒包装》💖饰GG细节钱包。Gucci小件皮革配饰突破设计界限,不断以个性方式焕新演绎经典单品。这款男士钱包将经典GG Supreme帆布与黑色GG配件匠心糅合,成就现代时尚的精美配饰。黑色皮革滚边,云纹织物衬里GG细节,内部:8个卡片隔层,1个钞票隔层。","name_cn":"。💖《配全套原厂绿盒包装》💖饰GG细节钱包。Gucci小件皮革配饰突破设计界限,不断以个性方式焕新演绎经典单品。这款男士钱包将经典GG Supreme帆布与黑色GG配件匠心糅合,成就现代时尚的精美配饰。黑色皮革滚边,云纹织物衬里GG细节,内部:8个卡片隔层,1个钞票隔层。\n型号:408827。\n闭合时尺寸:11(宽)x 9cm(高)\n打开时尺寸:21(宽)x 9cm(高)\n颜色:黑色/压花G原厂皮。\n意大利创作\n重量:约0.045千克","specs":{"source":"wsxcme","sourceId":"_dDhDhJES5Lws8Pg8mEdWjWu3ocwGHB9urUYrnZQ","sourceTagId":47002663,"sourceTagName":"长短款钱包","modelNumber":"408827","rawTitle":"。💖《配全套原厂绿盒包装》💖饰GG细节钱包。Gucci小件皮革配饰突破设计界限,不断以个性方式焕新演绎经典单品。这款男士钱包将经典GG Supreme帆布与黑色GG配件匠心糅合,成就现代时尚的精美配饰。黑色皮革滚边,云纹织物衬里GG细节,内部:8个卡片隔层,1个钞票隔层。\n型号:408827。\n闭合时尺寸:11(宽)x 9cm(高)\n打开时尺寸:21(宽)x 9cm(高)\n颜色:黑色/压花G原厂皮。\n意大利创作\n重量:约0.045千克"},"price":null,"currency":"CNY","moq":1,"category":"women-wallets","status":"active","alibaba_url":null,"images":["https://xcimg.szwego.com/20240428/i1714234540_3036_0.jpg","https://xcimg.szwego.com/20240428/i1714234540_2226_1.jpg","https://xcimg.szwego.com/20240428/i1714234540_882_2.jpg","https://xcimg.szwego.com/20240428/i1714234540_947_3.jpg","https://xcimg.szwego.com/20240428/i1714234540_9141_4.jpg","https://xcimg.szwego.com/20240428/i1714234540_5562_5.jpg","https://xcimg.szwego.com/20240428/i1714234540_4477_6.jpg","https://xcimg.szwego.com/20240428/i1714234540_3293_7.jpg","https://xcimg.szwego.com/20240428/i1714234540_7611_8.jpg"],"created_at":"2024-05-01T03:25:13.347Z"},{"id":"item-a82f9dfd11d0","sku":"_diuiuQSPNsyFwlcun6p45AlpFXni_IxqbhC31Jw","name_en":"。💖《配全套原厂绿盒包装》💖饰GG细节钱包。Gucci小件皮革配饰突破设计界限,不断以个性方式焕新演绎经典单品。这款男士钱包将经典GG Supreme帆布与黑色GG配件匠心糅合,成就现代时尚的精美配饰。黑色皮革滚边,云纹织物衬里GG细节,内部:8个卡片隔层,1个钞票隔层。","name_cn":"。💖《配全套原厂绿盒包装》💖饰GG细节钱包。Gucci小件皮革配饰突破设计界限,不断以个性方式焕新演绎经典单品。这款男士钱包将经典GG Supreme帆布与黑色GG配件匠心糅合,成就现代时尚的精美配饰。黑色皮革滚边,云纹织物衬里GG细节,内部:8个卡片隔层,1个钞票隔层。\n型号:473916。\n闭合时尺寸:11(宽)x 9cm(高)\n打开时尺寸:21(宽)x 9cm(高)\n颜色:黑色/压花G原厂皮。\n意大利创作\n重量:约0.045千克","specs":{"source":"wsxcme","sourceId":"_diuiuQSPNsyFwlcun6p45AlpFXni_IxqbhC31Jw","sourceTagId":47002663,"sourceTagName":"长短款钱包","modelNumber":"473916","rawTitle":"。💖《配全套原厂绿盒包装》💖饰GG细节钱包。Gucci小件皮革配饰突破设计界限,不断以个性方式焕新演绎经典单品。这款男士钱包将经典GG Supreme帆布与黑色GG配件匠心糅合,成就现代时尚的精美配饰。黑色皮革滚边,云纹织物衬里GG细节,内部:8个卡片隔层,1个钞票隔层。\n型号:473916。\n闭合时尺寸:11(宽)x 9cm(高)\n打开时尺寸:21(宽)x 9cm(高)\n颜色:黑色/压花G原厂皮。\n意大利创作\n重量:约0.045千克"},"price":null,"currency":"CNY","moq":1,"category":"women-wallets","status":"active","alibaba_url":null,"images":["https://xcimg.szwego.com/20240428/i1714234507_2986_0.jpg","https://xcimg.szwego.com/20240428/i1714234507_3863_1.jpg","https://xcimg.szwego.com/20240428/i1714234507_5544_2.jpg","https://xcimg.szwego.com/20240428/i1714234507_2143_3.jpg","https://xcimg.szwego.com/20240428/i1714234507_1300_4.jpg","https://xcimg.szwego.com/20240428/i1714234507_4116_5.jpg","https://xcimg.szwego.com/20240428/i1714234507_9358_6.jpg","https://xcimg.szwego.com/20240428/i1714234507_9492_7.jpg","https://xcimg.szwego.com/20240428/i1714234507_7672_8.jpg"],"created_at":"2024-05-01T03:25:13.346Z"},{"id":"item-e56fdc1a8d58","sku":"_dx4x4YF6sFADRlIs7DSyQz8xEuHwfd57CLc2l5A","name_en":"。💖《配全套原厂绿盒包装》💖饰GG细节钱包。Gucci小件皮革配饰突破设计界限,不断以个性方式焕新演绎经典单品。这款男士钱包将经典GG Supreme帆布与黑色GG配件匠心糅合,成就现代时尚的精美配饰。黑色皮革滚边,云纹织物衬里GG细节,内部:6个卡片隔层,2个钞票隔层。","name_cn":"。💖《配全套原厂绿盒包装》💖饰GG细节钱包。Gucci小件皮革配饰突破设计界限,不断以个性方式焕新演绎经典单品。这款男士钱包将经典GG Supreme帆布与黑色GG配件匠心糅合,成就现代时尚的精美配饰。黑色皮革滚边,云纹织物衬里GG细节,内部:6个卡片隔层,2个钞票隔层。\n型号:138042。\n闭合时尺寸:11(宽)x 9cm(高)\n打开时尺寸:21(宽)x 9cm(高)\n颜色:黑色/压花G原厂皮。\n意大利创作\n重量:约0.045千克","specs":{"source":"wsxcme","sourceId":"_dx4x4YF6sFADRlIs7DSyQz8xEuHwfd57CLc2l5A","sourceTagId":47002663,"sourceTagName":"长短款钱包","modelNumber":"138042","rawTitle":"。💖《配全套原厂绿盒包装》💖饰GG细节钱包。Gucci小件皮革配饰突破设计界限,不断以个性方式焕新演绎经典单品。这款男士钱包将经典GG Supreme帆布与黑色GG配件匠心糅合,成就现代时尚的精美配饰。黑色皮革滚边,云纹织物衬里GG细节,内部:6个卡片隔层,2个钞票隔层。\n型号:138042。\n闭合时尺寸:11(宽)x 9cm(高)\n打开时尺寸:21(宽)x 9cm(高)\n颜色:黑色/压花G原厂皮。\n意大利创作\n重量:约0.045千克"},"price":null,"currency":"CNY","moq":1,"category":"women-wallets","status":"active","alibaba_url":null,"images":["https://xcimg.szwego.com/20240428/i1714234360_902_0.jpg","https://xcimg.szwego.com/20240428/i1714234360_8120_1.jpg","https://xcimg.szwego.com/20240428/i1714234360_3303_2.jpg","https://xcimg.szwego.com/20240428/i1714234360_647_3.jpg","https://xcimg.szwego.com/20240428/i1714234360_3851_4.jpg","https://xcimg.szwego.com/20240428/i1714234360_1282_5.jpg","https://xcimg.szwego.com/20240428/i1714234360_2644_6.jpg","https://xcimg.szwego.com/20240428/i1714234360_7038_7.jpg","https://xcimg.szwego.com/20240428/i1714234360_6693_8.jpg"],"created_at":"2024-05-01T03:25:13.345Z"}],"page":35,"pageSize":24,"total":830,"totalPages":35}
