{"items":[{"id":"item-138554cf9572","sku":"_dkFkFBFw2yRnVOXyNRLQlsobtub2rPyYHNSoEpA","name_en":"Counter quality, top-tier original sample, real photos! Model 841360 Coffee Gel/Claret, Dimensions: 11.5x8x3.5cm, 💰","name_cn":"Counter quality, top-tier original sample, real photos! Model 841360 Coffee Gel/Claret, Dimensions: 11.5x8x3.5cm, 💰","specs":{"source":"wsxcme","sourceId":"_dkFkFBFw2yRnVOXyNRLQlsobtub2rPyYHNSoEpA","sourceTagId":47002663,"sourceTagName":"length","modelNumber":"841360 /","rawTitle":"Counter quality, top-tier original sample, real photos! Model 841360 Coffee Gel/Claret, Dimensions: 11.5x8x3.5cm, 💰"},"price":null,"currency":"CNY","moq":1,"category":"women-wallets","status":"active","alibaba_url":null,"images":["https://xcimg.szwego.com/img/102e1c0f/20250605/i1749108191394_757_0_0.jpg","https://xcimg.szwego.com/img/102e1c0f/20250605/i1749108191425_3224_0_1.jpg","https://xcimg.szwego.com/img/102e1c0f/20250605/i1749108191438_7049_0_2.jpg","https://xcimg.szwego.com/img/102e1c0f/20250605/i1749108191433_1795_0_3.jpg"],"created_at":"2025-08-03T05:43:10.129Z"},{"id":"item-ce8336e236e2","sku":"_dpXpXyYx1hV7ReKoIXaZZG3nK7Csx9-FFB_4F_Q","name_en":"Counterfeit quality, top-tier replica, real photos! Model 790063 Light Blue/Wine Red, Dimensions: 11.5W x 8H x 3.5S cm, 💰","name_cn":"Counterfeit quality, top-tier replica, real photos! Model 790063 Light Blue/Wine Red, Dimensions: 11.5W x 8H x 3.5S cm, 💰","specs":{"source":"wsxcme","sourceId":"_dpXpXyYx1hV7ReKoIXaZZG3nK7Csx9-FFB_4F_Q","sourceTagId":47002663,"sourceTagName":"length","modelNumber":"790063 /","rawTitle":"Counterfeit quality, top-tier replica, real photos! Model 790063 Light Blue/Wine Red, Dimensions: 11.5W x 8H x 3.5S cm, 💰"},"price":null,"currency":"CNY","moq":1,"category":"women-wallets","status":"active","alibaba_url":null,"images":["https://xcimg.szwego.com/img/102e1c0f/20250605/i1749108349837_2330_0_0.jpg","https://xcimg.szwego.com/img/102e1c0f/20250605/i1749108349849_6542_0_1.jpg","https://xcimg.szwego.com/img/102e1c0f/20250605/i1749108349856_2752_0_3.jpg","https://xcimg.szwego.com/img/102e1c0f/20250605/i1749108349878_9774_0_2.jpg"],"created_at":"2025-08-03T05:43:10.128Z"},{"id":"item-6fc97c6ffe8b","sku":"_do_o_r3esZ0hG8vOKc_6fsvvn0hsHQ1_bw0ebqw","name_en":"Counterfeit quality, top-tier replica, real photos! Model 456116 Grey Grape/Wine Red, Dimensions: 19W x 10H x 3.5S cm. 💰","name_cn":"Counterfeit quality, top-tier replica, real photos! Model 456116 Grey Grape/Wine Red, Dimensions: 19W x 10H x 3.5S cm. 💰","specs":{"source":"wsxcme","sourceId":"_do_o_r3esZ0hG8vOKc_6fsvvn0hsHQ1_bw0ebqw","sourceTagId":47002663,"sourceTagName":"length","modelNumber":"456116 /","rawTitle":"Counterfeit quality, top-tier replica, real photos! Model 456116 Grey Grape/Wine Red, Dimensions: 19W x 10H x 3.5S cm. 💰"},"price":null,"currency":"CNY","moq":1,"category":"women-wallets","status":"active","alibaba_url":null,"images":["https://xcimg.szwego.com/img/102e1c0f/20250730/i1753860624937_8539_0_0.jpg","https://xcimg.szwego.com/img/102e1c0f/20250730/i1753860625019_2101_0_1.jpg","https://xcimg.szwego.com/img/102e1c0f/20250730/i1753860624980_4144_0_2.jpg","https://xcimg.szwego.com/img/102e1c0f/20250730/i1753860624898_2553_0_3.jpg"],"created_at":"2025-08-03T05:43:10.127Z"},{"id":"item-1b3cdc89bf44","sku":"_dj1j1h9Ls7Ko74OIlwT5N2ZgsQVngyV_Za9YliQ","name_en":"Counterfeit quality, top-tier replica, real photos! Model 456116 Light Blue/Wine Red, Dimensions: 19W x 10H x 3.5S cm. 💰","name_cn":"Counterfeit quality, top-tier replica, real photos! Model 456116 Light Blue/Wine Red, Dimensions: 19W x 10H x 3.5S cm. 💰","specs":{"source":"wsxcme","sourceId":"_dj1j1h9Ls7Ko74OIlwT5N2ZgsQVngyV_Za9YliQ","sourceTagId":47002663,"sourceTagName":"length","modelNumber":"456116 /","rawTitle":"Counterfeit quality, top-tier replica, real photos! Model 456116 Light Blue/Wine Red, Dimensions: 19W x 10H x 3.5S cm. 💰"},"price":null,"currency":"CNY","moq":1,"category":"women-wallets","status":"active","alibaba_url":null,"images":["https://xcimg.szwego.com/img/102e1c0f/20250605/i1749107206650_704_0_0.jpg","https://xcimg.szwego.com/img/102e1c0f/20250605/i1749107206622_154_0_1.jpg","https://xcimg.szwego.com/img/102e1c0f/20250605/i1749107206646_400_0_2.jpg","https://xcimg.szwego.com/img/102e1c0f/20250605/i1749107206569_5279_0_3.jpg"],"created_at":"2025-08-03T05:43:10.126Z"},{"id":"item-da362fd78853","sku":"_d-K-KTSCYFHPZHQJXPQc6uuGsPVfBNeQgbjqzBQ","name_en":"Counterfeit quality, top-tier replica, real photos! Model 835098 Grey Grape Pattern, Dimensions: 11W x 9H cm, 💰","name_cn":"Counterfeit quality, top-tier replica, real photos! Model 835098 Grey Grape Pattern, Dimensions: 11W x 9H cm, 💰","specs":{"source":"wsxcme","sourceId":"_d-K-KTSCYFHPZHQJXPQc6uuGsPVfBNeQgbjqzBQ","sourceTagId":47002663,"sourceTagName":"length","modelNumber":"835098","rawTitle":"Counterfeit quality, top-tier replica, real photos! Model 835098 Grey Grape Pattern, Dimensions: 11W x 9H cm, 💰"},"price":null,"currency":"CNY","moq":1,"category":"women-wallets","status":"active","alibaba_url":null,"images":["https://xcimg.szwego.com/img/102e1c0f/20250602/i1748840125315_795_0_0.jpg","https://xcimg.szwego.com/img/102e1c0f/20250602/i1748840125262_3159_0_1.jpg","https://xcimg.szwego.com/img/102e1c0f/20250602/i1748840125312_9389_0_2.jpg","https://xcimg.szwego.com/img/102e1c0f/20250602/i1748840125330_52_0_3.jpg"],"created_at":"2025-08-03T05:43:10.125Z"},{"id":"item-d13b8b01ac4e","sku":"_dpRpRtXUapq3zlWG60z-lzB2nYv4pzo44l3Mydw","name_en":"Counterfeit quality, top-tier replica, real photos! Model 835098 Green Grape Pattern, Dimensions: 11W x 9H cm, 💰","name_cn":"Counterfeit quality, top-tier replica, real photos! Model 835098 Green Grape Pattern, Dimensions: 11W x 9H cm, 💰","specs":{"source":"wsxcme","sourceId":"_dpRpRtXUapq3zlWG60z-lzB2nYv4pzo44l3Mydw","sourceTagId":47002663,"sourceTagName":"length","modelNumber":"835098","rawTitle":"Counterfeit quality, top-tier replica, real photos! Model 835098 Green Grape Pattern, Dimensions: 11W x 9H cm, 💰"},"price":null,"currency":"CNY","moq":1,"category":"women-wallets","status":"active","alibaba_url":null,"images":["https://xcimg.szwego.com/img/102e1c0f/20250605/i1749107798992_1884_0_0.jpg","https://xcimg.szwego.com/img/102e1c0f/20250605/i1749107798616_3780_0_1.jpg","https://xcimg.szwego.com/img/102e1c0f/20250605/i1749107798965_6957_0_3.jpg","https://xcimg.szwego.com/img/102e1c0f/20250605/i1749107798996_5615_0_2.jpg"],"created_at":"2025-08-03T05:43:10.124Z"},{"id":"item-faf0fefd1b45","sku":"_djnjnXn-ARB7g1WCepMBFFh9iiLp4kcwvswRBzw","name_en":"Counterfeit quality, top-tier replica, real photos! Model 835076, Cognac embossed leather, Size: 8W x 11H cm, 💰","name_cn":"Counterfeit quality, top-tier replica, real photos! Model 835076, Cognac embossed leather, Size: 8W x 11H cm, 💰","specs":{"source":"wsxcme","sourceId":"_djnjnXn-ARB7g1WCepMBFFh9iiLp4kcwvswRBzw","sourceTagId":47002663,"sourceTagName":"length","modelNumber":"835076","rawTitle":"Counterfeit quality, top-tier replica, real photos! Model 835076, Cognac embossed leather, Size: 8W x 11H cm, 💰"},"price":null,"currency":"CNY","moq":1,"category":"women-wallets","status":"active","alibaba_url":null,"images":["https://xcimg.szwego.com/img/102e1c0f/20250622/i1750581610752_7289_0_0.jpg","https://xcimg.szwego.com/img/102e1c0f/20250622/i1750581610748_3462_0_1.jpg","https://xcimg.szwego.com/img/102e1c0f/20250622/i1750581610751_5991_0_2.jpg","https://xcimg.szwego.com/img/102e1c0f/20250622/i1750581610704_2193_0_3.jpg"],"created_at":"2025-08-03T05:43:10.123Z"},{"id":"item-ffd241c838e3","sku":"_dp_p_ZGJ100HuBzaDg8zK0dkks-JC79Hj4qcLhw","name_en":"Counterfeit quality, top-tier replica, real photos! Model 835076, Green embossed leather, Size: 8W x 11H cm, 💰","name_cn":"Counterfeit quality, top-tier replica, real photos! Model 835076, Green embossed leather, Size: 8W x 11H cm, 💰","specs":{"source":"wsxcme","sourceId":"_dp_p_ZGJ100HuBzaDg8zK0dkks-JC79Hj4qcLhw","sourceTagId":47002663,"sourceTagName":"length","modelNumber":"835076","rawTitle":"Counterfeit quality, top-tier replica, real photos! Model 835076, Green embossed leather, Size: 8W x 11H cm, 💰"},"price":null,"currency":"CNY","moq":1,"category":"women-wallets","status":"active","alibaba_url":null,"images":["https://xcimg.szwego.com/img/102e1c0f/20250622/i1750581494410_6370_0_1.jpg","https://xcimg.szwego.com/img/102e1c0f/20250622/i1750581494445_9307_0_2.jpg","https://xcimg.szwego.com/img/102e1c0f/20250622/i1750581494451_1407_0_0.jpg","https://xcimg.szwego.com/img/102e1c0f/20250622/i1750581494418_1311_0_3.jpg"],"created_at":"2025-08-03T05:43:10.122Z"},{"id":"item-d8c5b586e255","sku":"_dzCzC0fBk078LnPxNxGv4ReIR976UNyQUk_6Dvw","name_en":"Counterfeit quality, top-tier replica, real photos! 835120, Cognac embossed leather, Size: 19W x 10.4H x 2.5S, 💰","name_cn":"Counterfeit quality, top-tier replica, real photos! 835120, Cognac embossed leather, Size: 19W x 10.4H x 2.5S, 💰","specs":{"source":"wsxcme","sourceId":"_dzCzC0fBk078LnPxNxGv4ReIR976UNyQUk_6Dvw","sourceTagId":47002663,"sourceTagName":"length","rawTitle":"Counterfeit quality, top-tier replica, real photos! 835120, Cognac embossed leather, Size: 19W x 10.4H x 2.5S, 💰"},"price":null,"currency":"CNY","moq":1,"category":"women-wallets","status":"active","alibaba_url":null,"images":["https://xcimg.szwego.com/img/102e1c0f/20250612/i1749703550950_789_0_0.jpg","https://xcimg.szwego.com/img/102e1c0f/20250612/i1749703550965_7282_0_1.jpg","https://xcimg.szwego.com/img/102e1c0f/20250612/i1749703550892_8747_0_2.jpg","https://xcimg.szwego.com/img/102e1c0f/20250612/i1749703550958_2148_0_3.jpg"],"created_at":"2025-08-03T05:43:10.121Z"},{"id":"item-b6859867ca38","sku":"_ddHdHJ9lsWnpBDna8dHQcMBclyx55j6y3Jint7Q","name_en":"Counterfeit quality, top-tier replica, real photos! 835120, Green embossed leather, Size: 19W x 10.4H x 2.5S, 💰","name_cn":"Counterfeit quality, top-tier replica, real photos! 835120, Green embossed leather, Size: 19W x 10.4H x 2.5S, 💰","specs":{"source":"wsxcme","sourceId":"_ddHdHJ9lsWnpBDna8dHQcMBclyx55j6y3Jint7Q","sourceTagId":47002663,"sourceTagName":"length","rawTitle":"Counterfeit quality, top-tier replica, real photos! 835120, Green embossed leather, Size: 19W x 10.4H x 2.5S, 💰"},"price":null,"currency":"CNY","moq":1,"category":"women-wallets","status":"active","alibaba_url":null,"images":["https://xcimg.szwego.com/img/102e1c0f/20250612/i1749703417806_457_0_0.jpg","https://xcimg.szwego.com/img/102e1c0f/20250612/i1749703417785_707_0_1.jpg","https://xcimg.szwego.com/img/102e1c0f/20250612/i1749703417675_9949_0_2.jpg","https://xcimg.szwego.com/img/102e1c0f/20250612/i1749703417777_1428_0_3.jpg"],"created_at":"2025-08-03T05:43:10.120Z"},{"id":"item-d217f68611bf","sku":"_dvVvVdhl7IYHEcooymJZMa1nUIu248UMKkaRB2w","name_en":"Counterfeit quality, top-tier replica, real photos! Model 835049, Cognac leather/White steel G, Size: 11W x 7H cm, 💰","name_cn":"Counterfeit quality, top-tier replica, real photos! Model 835049, Cognac leather/White steel G, Size: 11W x 7H cm, 💰","specs":{"source":"wsxcme","sourceId":"_dvVvVdhl7IYHEcooymJZMa1nUIu248UMKkaRB2w","sourceTagId":47002663,"sourceTagName":"length","modelNumber":"835049 / G","rawTitle":"Counterfeit quality, top-tier replica, real photos! Model 835049, Cognac leather/White steel G, Size: 11W x 7H cm, 💰"},"price":null,"currency":"CNY","moq":1,"category":"women-wallets","status":"active","alibaba_url":null,"images":["https://xcimg.szwego.com/img/102e1c0f/20250602/i1748840025210_9961_0_0.jpg","https://xcimg.szwego.com/img/102e1c0f/20250602/i1748840025252_220_0_1.jpg","https://xcimg.szwego.com/img/102e1c0f/20250602/i1748840025227_2198_0_2.jpg","https://xcimg.szwego.com/img/102e1c0f/20250602/i1748840025266_5513_0_3.jpg"],"created_at":"2025-08-03T05:43:10.119Z"},{"id":"item-b79e8d8c04cf","sku":"_d_T_TKYEOrXSwfZ7dGN8AFRdaiAv5ndPXcNNWGw","name_en":"Counterfeit quality, top-tier replica, real photos! Style 835049, Calfskin/Light Green G, Size: 11W x 7H cm, 💰","name_cn":"Counterfeit quality, top-tier replica, real photos! Style 835049, Calfskin/Light Green G, Size: 11W x 7H cm, 💰","specs":{"source":"wsxcme","sourceId":"_d_T_TKYEOrXSwfZ7dGN8AFRdaiAv5ndPXcNNWGw","sourceTagId":47002663,"sourceTagName":"length","modelNumber":"835049 / G","rawTitle":"Counterfeit quality, top-tier replica, real photos! Style 835049, Calfskin/Light Green G, Size: 11W x 7H cm, 💰"},"price":null,"currency":"CNY","moq":1,"category":"women-wallets","status":"active","alibaba_url":null,"images":["https://xcimg.szwego.com/img/102e1c0f/20250602/i1748840006141_4645_0_0.jpg","https://xcimg.szwego.com/img/102e1c0f/20250602/i1748840006187_7985_0_1.jpg","https://xcimg.szwego.com/img/102e1c0f/20250602/i1748840006168_4668_0_2.jpg","https://xcimg.szwego.com/img/102e1c0f/20250602/i1748840006113_1979_0_3.jpg"],"created_at":"2025-08-03T05:43:10.118Z"},{"id":"item-14230736c9dc","sku":"_d_R_RLoF1z6R0jtyijquHcaOBUh9ohxuuuRK18Q","name_en":"Counterfeit quality, top-tier replica, real photos! Style 835049, Calfskin/Orange G, Size: 11W x 7H cm, 💰","name_cn":"Counterfeit quality, top-tier replica, real photos! Style 835049, Calfskin/Orange G, Size: 11W x 7H cm, 💰","specs":{"source":"wsxcme","sourceId":"_d_R_RLoF1z6R0jtyijquHcaOBUh9ohxuuuRK18Q","sourceTagId":47002663,"sourceTagName":"length","modelNumber":"835049 / G","rawTitle":"Counterfeit quality, top-tier replica, real photos! Style 835049, Calfskin/Orange G, Size: 11W x 7H cm, 💰"},"price":null,"currency":"CNY","moq":1,"category":"women-wallets","status":"active","alibaba_url":null,"images":["https://xcimg.szwego.com/img/102e1c0f/20250602/i1748839971551_6346_0_0.jpg","https://xcimg.szwego.com/img/102e1c0f/20250602/i1748839971575_4039_0_1.jpg","https://xcimg.szwego.com/img/102e1c0f/20250602/i1748839971542_8593_0_2.jpg","https://xcimg.szwego.com/img/102e1c0f/20250602/i1748839971554_6275_0_3.jpg"],"created_at":"2025-08-03T05:43:10.117Z"},{"id":"item-b0126e42918a","sku":"_ddfdfZqCKBRSZIkgR8noI9j-3Av4AFWtVrcQKDg","name_en":"Counterfeit quality, top-tier replica, real photos! Style 835047, Calfskin/White Steel G, Size: 11W x 9H,","name_cn":"Counterfeit quality, top-tier replica, real photos! Style 835047, Calfskin/White Steel G, Size: 11W x 9H,","specs":{"source":"wsxcme","sourceId":"_ddfdfZqCKBRSZIkgR8noI9j-3Av4AFWtVrcQKDg","sourceTagId":47002663,"sourceTagName":"length","modelNumber":"835047 / G","rawTitle":"Counterfeit quality, top-tier replica, real photos! Style 835047, Calfskin/White Steel G, Size: 11W x 9H,"},"price":null,"currency":"CNY","moq":1,"category":"women-wallets","status":"active","alibaba_url":null,"images":["https://xcimg.szwego.com/img/102e1c0f/20250527/i1748331009144_3474_0_0.jpg","https://xcimg.szwego.com/img/102e1c0f/20250527/i1748331009164_4268_0_1.jpg","https://xcimg.szwego.com/img/102e1c0f/20250527/i1748331009100_0_0_2.jpg","https://xcimg.szwego.com/img/102e1c0f/20250527/i1748331009170_8297_0_3.jpg"],"created_at":"2025-08-03T05:43:10.116Z"},{"id":"item-80501c65ef30","sku":"_dvDvDXlAApZdoDZf19pvm2QessBej8P9Zz3JqPA","name_en":"Counterfeit quality, top-tier replica, real photos! Style 835047, Calfskin/Light Green G, Size: 11W x 9H,","name_cn":"Counterfeit quality, top-tier replica, real photos! Style 835047, Calfskin/Light Green G, Size: 11W x 9H,","specs":{"source":"wsxcme","sourceId":"_dvDvDXlAApZdoDZf19pvm2QessBej8P9Zz3JqPA","sourceTagId":47002663,"sourceTagName":"length","modelNumber":"835047 / G","rawTitle":"Counterfeit quality, top-tier replica, real photos! Style 835047, Calfskin/Light Green G, Size: 11W x 9H,"},"price":null,"currency":"CNY","moq":1,"category":"women-wallets","status":"active","alibaba_url":null,"images":["https://xcimg.szwego.com/img/102e1c0f/20250527/i1748331037056_3766_0_0.jpg","https://xcimg.szwego.com/img/102e1c0f/20250527/i1748331037042_3195_0_1.jpg","https://xcimg.szwego.com/img/102e1c0f/20250527/i1748331037084_4481_0_2.jpg","https://xcimg.szwego.com/img/102e1c0f/20250527/i1748331037052_5463_0_3.jpg"],"created_at":"2025-08-03T05:43:10.115Z"},{"id":"item-c8d50539cfc3","sku":"_d8C8CAkQoz6uKaSjXXdstBTU4vF8Tsw9CWDzHqw","name_en":"Counterfeit quality, top-tier replica, real photos! Style 835047, Calfskin/Orange G, Size: 11W x 9H,","name_cn":"Counterfeit quality, top-tier replica, real photos! Style 835047, Calfskin/Orange G, Size: 11W x 9H,","specs":{"source":"wsxcme","sourceId":"_d8C8CAkQoz6uKaSjXXdstBTU4vF8Tsw9CWDzHqw","sourceTagId":47002663,"sourceTagName":"length","modelNumber":"835047 / G","rawTitle":"Counterfeit quality, top-tier replica, real photos! Style 835047, Calfskin/Orange G, Size: 11W x 9H,"},"price":null,"currency":"CNY","moq":1,"category":"women-wallets","status":"active","alibaba_url":null,"images":["https://xcimg.szwego.com/img/102e1c0f/20250527/i1748331053174_458_0_0.jpg","https://xcimg.szwego.com/img/102e1c0f/20250527/i1748331053184_2415_0_1.jpg","https://xcimg.szwego.com/img/102e1c0f/20250527/i1748331053156_4681_0_2.jpg","https://xcimg.szwego.com/img/102e1c0f/20250527/i1748331053212_3323_0_3.jpg"],"created_at":"2025-08-03T05:43:10.114Z"},{"id":"item-de3a0f3d787f","sku":"_dueueVtlpNjjuKHTwhRtghhyis26fGSlmiCnREg","name_en":"Counterfeit quality, top-tier replica, real photos! Model 835048, Crocodile leather/White Gold G, Size: 11W x 9H,","name_cn":"Counterfeit quality, top-tier replica, real photos! Model 835048, Crocodile leather/White Gold G, Size: 11W x 9H,","specs":{"source":"wsxcme","sourceId":"_dueueVtlpNjjuKHTwhRtghhyis26fGSlmiCnREg","sourceTagId":47002663,"sourceTagName":"length","modelNumber":"835048 / G","rawTitle":"Counterfeit quality, top-tier replica, real photos! Model 835048, Crocodile leather/White Gold G, Size: 11W x 9H,"},"price":null,"currency":"CNY","moq":1,"category":"women-wallets","status":"active","alibaba_url":null,"images":["https://xcimg.szwego.com/img/102e1c0f/20250527/i1748330875351_1591_0_0.jpg","https://xcimg.szwego.com/img/102e1c0f/20250527/i1748330875356_7702_0_1.jpg","https://xcimg.szwego.com/img/102e1c0f/20250527/i1748330875345_1280_0_2.jpg","https://xcimg.szwego.com/img/102e1c0f/20250527/i1748330875347_41_0_3.jpg"],"created_at":"2025-08-03T05:43:10.113Z"},{"id":"item-41160200bad8","sku":"_dktkt9CVPd38bI6QJX0MeSyJ_1sQsRtdD80qRWg","name_en":"Counterfeit quality, top-tier replica, real photos! Model 835048, Crocodile leather/Light Green G, Size: 11W x 9H,","name_cn":"Counterfeit quality, top-tier replica, real photos! Model 835048, Crocodile leather/Light Green G, Size: 11W x 9H,","specs":{"source":"wsxcme","sourceId":"_dktkt9CVPd38bI6QJX0MeSyJ_1sQsRtdD80qRWg","sourceTagId":47002663,"sourceTagName":"length","modelNumber":"835048 / G","rawTitle":"Counterfeit quality, top-tier replica, real photos! Model 835048, Crocodile leather/Light Green G, Size: 11W x 9H,"},"price":null,"currency":"CNY","moq":1,"category":"women-wallets","status":"active","alibaba_url":null,"images":["https://xcimg.szwego.com/img/102e1c0f/20250527/i1748330938462_2270_0_0.jpg","https://xcimg.szwego.com/img/102e1c0f/20250527/i1748330938490_6614_0_1.jpg","https://xcimg.szwego.com/img/102e1c0f/20250527/i1748330938504_712_0_2.jpg","https://xcimg.szwego.com/img/102e1c0f/20250527/i1748330938468_5295_0_3.jpg"],"created_at":"2025-08-03T05:43:10.112Z"},{"id":"item-64348545a7e1","sku":"_dububhRpfzygVD4m5poXAAxEbjQTsJea_EDomcQ","name_en":"Counterfeit quality, top-tier replica, real photos! Model 835048, Crocodile leather/Orange G, Size: 11W x 9H,","name_cn":"Counterfeit quality, top-tier replica, real photos! Model 835048, Crocodile leather/Orange G, Size: 11W x 9H,","specs":{"source":"wsxcme","sourceId":"_dububhRpfzygVD4m5poXAAxEbjQTsJea_EDomcQ","sourceTagId":47002663,"sourceTagName":"length","modelNumber":"835048 / G","rawTitle":"Counterfeit quality, top-tier replica, real photos! Model 835048, Crocodile leather/Orange G, Size: 11W x 9H,"},"price":null,"currency":"CNY","moq":1,"category":"women-wallets","status":"active","alibaba_url":null,"images":["https://xcimg.szwego.com/img/102e1c0f/20250527/i1748330976061_9305_0_0.jpg","https://xcimg.szwego.com/img/102e1c0f/20250527/i1748330976040_5770_0_1.jpg","https://xcimg.szwego.com/img/102e1c0f/20250527/i1748330976028_9073_0_2.jpg","https://xcimg.szwego.com/img/102e1c0f/20250527/i1748330976034_6135_0_3.jpg"],"created_at":"2025-08-03T05:43:10.111Z"},{"id":"item-82dd26bb13eb","sku":"_dnUnUpADmGCGDOMpmi9ISeDtVYn_CP-sUvfbFHQ","name_en":"Counterfeit quality, top-tier replica, real photos! Model 835053, Crocodile leather/White Gold G, Size: 10.5W x 7.5H cm, 💰","name_cn":"Counterfeit quality, top-tier replica, real photos! Model 835053, Crocodile leather/White Gold G, Size: 10.5W x 7.5H cm, 💰","specs":{"source":"wsxcme","sourceId":"_dnUnUpADmGCGDOMpmi9ISeDtVYn_CP-sUvfbFHQ","sourceTagId":47002663,"sourceTagName":"length","modelNumber":"835053 / G","rawTitle":"Counterfeit quality, top-tier replica, real photos! Model 835053, Crocodile leather/White Gold G, Size: 10.5W x 7.5H cm, 💰"},"price":null,"currency":"CNY","moq":1,"category":"women-wallets","status":"active","alibaba_url":null,"images":["https://xcimg.szwego.com/img/102e1c0f/20250602/i1748839930971_9072_0_0.jpg","https://xcimg.szwego.com/img/102e1c0f/20250602/i1748839930980_7721_0_1.jpg","https://xcimg.szwego.com/img/102e1c0f/20250602/i1748839930971_6658_0_2.jpg","https://xcimg.szwego.com/img/102e1c0f/20250602/i1748839930965_7287_0_3.jpg"],"created_at":"2025-08-03T05:43:10.110Z"},{"id":"item-a130f71369fd","sku":"_dtvtvnB4qtR_EpbiI59Pp99zrCXwyZShjVpUHPg","name_en":"Counterfeit quality, top-tier replica, real photos! Model 835053, Crocodile leather/Light Green G, Size: 10.5W x 7.5H cm, 💰","name_cn":"Counterfeit quality, top-tier replica, real photos! Model 835053, Crocodile leather/Light Green G, Size: 10.5W x 7.5H cm, 💰","specs":{"source":"wsxcme","sourceId":"_dtvtvnB4qtR_EpbiI59Pp99zrCXwyZShjVpUHPg","sourceTagId":47002663,"sourceTagName":"length","modelNumber":"835053 / G","rawTitle":"Counterfeit quality, top-tier replica, real photos! Model 835053, Crocodile leather/Light Green G, Size: 10.5W x 7.5H cm, 💰"},"price":null,"currency":"CNY","moq":1,"category":"women-wallets","status":"active","alibaba_url":null,"images":["https://xcimg.szwego.com/img/102e1c0f/20250602/i1748839908220_5465_0_0.jpg","https://xcimg.szwego.com/img/102e1c0f/20250602/i1748839908198_7622_0_1.jpg","https://xcimg.szwego.com/img/102e1c0f/20250602/i1748839908214_651_0_2.jpg","https://xcimg.szwego.com/img/102e1c0f/20250602/i1748839907910_7609_0_3.jpg"],"created_at":"2025-08-03T05:43:10.109Z"},{"id":"item-3f3e85477f4a","sku":"_da4a4ZwZgNIvQ_Fa5vgy4Upw-zL904nhlsSM7OQ","name_en":"Counter quality, top-tier replica, real photos! Style 835053, Calfskin/Orange G, Size: 10.5W x 7.5H cm, 💰","name_cn":"Counter quality, top-tier replica, real photos! Style 835053, Calfskin/Orange G, Size: 10.5W x 7.5H cm, 💰","specs":{"source":"wsxcme","sourceId":"_da4a4ZwZgNIvQ_Fa5vgy4Upw-zL904nhlsSM7OQ","sourceTagId":47002663,"sourceTagName":"length","modelNumber":"835053 / G","rawTitle":"Counter quality, top-tier replica, real photos! Style 835053, Calfskin/Orange G, Size: 10.5W x 7.5H cm, 💰"},"price":null,"currency":"CNY","moq":1,"category":"women-wallets","status":"active","alibaba_url":null,"images":["https://xcimg.szwego.com/img/102e1c0f/20250602/i1748839812953_7866_0_0.jpg","https://xcimg.szwego.com/img/102e1c0f/20250602/i1748839812950_8303_0_1.jpg","https://xcimg.szwego.com/img/102e1c0f/20250602/i1748839812928_9545_0_2.jpg","https://xcimg.szwego.com/img/102e1c0f/20250602/i1748839812933_1332_0_3.jpg"],"created_at":"2025-08-03T05:43:10.108Z"},{"id":"item-d2250d3b7c4d","sku":"_daSaSTR6ekmSUynOnj9c1kqWbLNqPd6BhYOmnlQ","name_en":"Counter quality, top-tier replica, real photos! Style 835054, Calfskin/White Steel G, Size: 10W x 19H x 2S","name_cn":"Counter quality, top-tier replica, real photos! Style 835054, Calfskin/White Steel G, Size: 10W x 19H x 2S","specs":{"source":"wsxcme","sourceId":"_daSaSTR6ekmSUynOnj9c1kqWbLNqPd6BhYOmnlQ","sourceTagId":47002663,"sourceTagName":"length","modelNumber":"835054 / G","rawTitle":"Counter quality, top-tier replica, real photos! Style 835054, Calfskin/White Steel G, Size: 10W x 19H x 2S"},"price":null,"currency":"CNY","moq":1,"category":"women-wallets","status":"active","alibaba_url":null,"images":["https://xcimg.szwego.com/img/102e1c0f/20250615/i1749974517636_8044_0_0.jpg","https://xcimg.szwego.com/img/102e1c0f/20250615/i1749974517685_3180_0_1.jpg","https://xcimg.szwego.com/img/102e1c0f/20250615/i1749974517447_9369_0_2.jpg","https://xcimg.szwego.com/img/102e1c0f/20250615/i1749974517689_9743_0_3.jpg"],"created_at":"2025-08-03T05:43:10.107Z"},{"id":"item-8927a52f12d0","sku":"_dPjPj1jW0EFbkmkLRWeJ2_UPECcZcZnLoAi8IGg","name_en":"Counter quality, top-tier replica, real photos! Style 835054, Calfskin/Orange G, Size: 10W x 19H x 2S","name_cn":"Counter quality, top-tier replica, real photos! Style 835054, Calfskin/Orange G, Size: 10W x 19H x 2S","specs":{"source":"wsxcme","sourceId":"_dPjPj1jW0EFbkmkLRWeJ2_UPECcZcZnLoAi8IGg","sourceTagId":47002663,"sourceTagName":"length","modelNumber":"835054 / G","rawTitle":"Counter quality, top-tier replica, real photos! Style 835054, Calfskin/Orange G, Size: 10W x 19H x 2S"},"price":null,"currency":"CNY","moq":1,"category":"women-wallets","status":"active","alibaba_url":null,"images":["https://xcimg.szwego.com/img/102e1c0f/20250615/i1749974480377_3812_0_0.jpg","https://xcimg.szwego.com/img/102e1c0f/20250615/i1749974480407_660_0_1.jpg","https://xcimg.szwego.com/img/102e1c0f/20250615/i1749974480234_6979_0_3.jpg","https://xcimg.szwego.com/img/102e1c0f/20250615/i1749974480346_5168_0_2.jpg"],"created_at":"2025-08-03T05:43:10.106Z"}],"page":6,"pageSize":24,"total":751,"totalPages":32}
