{"items":[{"id":"item-691d92b4cf19","sku":"_dtOtO9LFw2Yd_aIWI4zi1DhBPItIudRqOcE9Fdw","name_en":"MCM Liz Visetos","name_cn":"MCM Liz Visetos\n小号双面购物袋子母包👜\n\n独家®️经典干邑色\n这是一款二合一的标志性单品。小巧的Liz包袋采用双面Cubic棉质帆布设计,展现了品牌的多维特性。购物袋内部则隐藏着一只可拆卸的拉链手拿包,可作为经典的肩背包单独使用。\n\n尺寸:29*14*25cm\n提手:垂长24cm\n特点:双面可用/大小双包\n颜色:干邑色/棕色🏾","specs":{"source":"wsxcme","sourceId":"_dtOtO9LFw2Yd_aIWI4zi1DhBPItIudRqOcE9Fdw","sourceTagId":77388356,"sourceTagName":"MCM、寇驰/女包","dimensions":{"lengthCm":29,"heightCm":14,"widthCm":25},"rawTitle":"MCM Liz Visetos\n小号双面购物袋子母包👜\n\n独家®️经典干邑色\n这是一款二合一的标志性单品。小巧的Liz包袋采用双面Cubic棉质帆布设计,展现了品牌的多维特性。购物袋内部则隐藏着一只可拆卸的拉链手拿包,可作为经典的肩背包单独使用。\n\n尺寸:29*14*25cm\n提手:垂长24cm\n特点:双面可用/大小双包\n颜色:干邑色/棕色🏾"},"price":null,"currency":"CNY","moq":1,"category":"mcm-coach-women-bags","status":"active","alibaba_url":null,"images":["https://xcimg.szwego.com/img/22f63296/20231105/i1699120335_5850_0.jpg","https://xcimg.szwego.com/img/22f63296/20231105/i1699120335_7640_1.jpg","https://xcimg.szwego.com/img/22f63296/20231105/i1699120335_412_2.jpg","https://xcimg.szwego.com/img/22f63296/20231105/i1699120335_1962_3.jpg","https://xcimg.szwego.com/img/22f63296/20231105/i1699120335_3587_4.jpg","https://xcimg.szwego.com/img/22f63296/20231105/i1699120335_4892_5.jpg","https://xcimg.szwego.com/img/22f63296/20231105/i1699120335_3383_6.jpg","https://xcimg.szwego.com/img/22f63296/20231105/i1699120335_3065_7.jpg","https://xcimg.szwego.com/img/22f63296/20231105/i1699120335_1935_8.jpg"],"created_at":"2026-06-29T11:22:07.981Z"},{"id":"item-4af428d2ea28","sku":"_dA_A_tpi5Yfjd_RdHWJXr-gS08w2fZwIbBx1SDw","name_en":"MCM Liz Visetos","name_cn":"MCM Liz Visetos\n米色小号#双面购物袋子母包👜\n\n·Cp独家®️经典升级米白\n这款小号购物袋采用经典Visetos制成,延续了Liz包袋在日常生活中散发出的传统优雅气质。包袋的另一面则由Cubic经典印花制成,为其增添了另一层面的设计深度。轻巧的外型可通过侧面的皮革抽绳进行调整,以适应现代生活中的动态变化。可拆卸拉链手拿包在短途旅行及夜间外出时可兼作经典肩背包使用,成为这款包袋设计中的点睛之笔。\n\n尺寸:29*14*25cm\n提手:垂长24cm\n特点:双面可用/大小双包\n颜色:米色/Beige🖱️","specs":{"source":"wsxcme","sourceId":"_dA_A_tpi5Yfjd_RdHWJXr-gS08w2fZwIbBx1SDw","sourceTagId":77388356,"sourceTagName":"MCM、寇驰/女包","dimensions":{"lengthCm":29,"heightCm":14,"widthCm":25},"rawTitle":"MCM Liz Visetos\n米色小号#双面购物袋子母包👜\n\n·Cp独家®️经典升级米白\n这款小号购物袋采用经典Visetos制成,延续了Liz包袋在日常生活中散发出的传统优雅气质。包袋的另一面则由Cubic经典印花制成,为其增添了另一层面的设计深度。轻巧的外型可通过侧面的皮革抽绳进行调整,以适应现代生活中的动态变化。可拆卸拉链手拿包在短途旅行及夜间外出时可兼作经典肩背包使用,成为这款包袋设计中的点睛之笔。\n\n尺寸:29*14*25cm\n提手:垂长24cm\n特点:双面可用/大小双包\n颜色:米色/Beige🖱️"},"price":null,"currency":"CNY","moq":1,"category":"mcm-coach-women-bags","status":"active","alibaba_url":null,"images":["https://xcimg.szwego.com/20241206/i1733471606_4468_0.jpg","https://xcimg.szwego.com/20241206/i1733471606_4063_8.jpg","https://xcimg.szwego.com/20241206/i1733471606_7347_1.jpg","https://xcimg.szwego.com/20241206/i1733471606_3019_3.jpg","https://xcimg.szwego.com/20241206/i1733471606_3463_4.jpg","https://xcimg.szwego.com/20241206/i1733471606_1927_6.jpg","https://xcimg.szwego.com/20241206/i1733471606_5843_5.jpg","https://xcimg.szwego.com/20241206/i1733471606_761_7.jpg","https://xcimg.szwego.com/20241206/i1733471606_9436_2.jpg"],"created_at":"2026-06-29T11:22:07.941Z"},{"id":"item-3b7b3c3262c8","sku":"_dmVmVUoGtbBSGh-fBUSRQn63LrGtNUrDNqtyP_g","name_en":"MCM Liz Visetos","name_cn":"MCM Liz Visetos\n迷你#双面购物袋托特包👜\n💰\n\n·Cp独家®️经典干邑色\n经典的MCM极简主义通过现代简约风的设计呈现出来。这款迷你购物袋采用缩小版的标志性Liz购物袋款式设计,同时保留了广受喜爱的功能性。随附的独立手拿包及双面棉质帆布面料的使用,使这款小巧的随身包袋更具魅力。\n\n型号:MWPDSLRO1CO001\n尺寸:28*11.5*20cm\n提手:垂长18cm\n特点:双面可用/大小双包\n颜色:干邑色/棕色🏾","specs":{"source":"wsxcme","sourceId":"_dmVmVUoGtbBSGh-fBUSRQn63LrGtNUrDNqtyP_g","sourceTagId":77388356,"sourceTagName":"MCM、寇驰/女包","modelNumber":"MWPDSLRO1CO001","dimensions":{"lengthCm":28,"heightCm":11.5,"widthCm":20},"rawTitle":"MCM Liz Visetos\n迷你#双面购物袋托特包👜\n💰\n\n·Cp独家®️经典干邑色\n经典的MCM极简主义通过现代简约风的设计呈现出来。这款迷你购物袋采用缩小版的标志性Liz购物袋款式设计,同时保留了广受喜爱的功能性。随附的独立手拿包及双面棉质帆布面料的使用,使这款小巧的随身包袋更具魅力。\n\n型号:MWPDSLRO1CO001\n尺寸:28*11.5*20cm\n提手:垂长18cm\n特点:双面可用/大小双包\n颜色:干邑色/棕色🏾"},"price":null,"currency":"CNY","moq":1,"category":"mcm-coach-women-bags","status":"active","alibaba_url":null,"images":["https://xcimg.szwego.com/img/22f63296/20240128/i1706411127_306_0.jpg","https://xcimg.szwego.com/img/22f63296/20240128/i1706411127_2019_1.jpg","https://xcimg.szwego.com/img/22f63296/20240128/i1706411127_1808_2.jpg","https://xcimg.szwego.com/img/22f63296/20240128/i1706411127_4133_3.jpg","https://xcimg.szwego.com/img/22f63296/20240128/i1706411127_5914_4.jpg","https://xcimg.szwego.com/img/22f63296/20240128/i1706411127_2827_5.jpg","https://xcimg.szwego.com/img/22f63296/20240128/i1706411127_4361_6.jpg","https://xcimg.szwego.com/img/22f63296/20240128/i1706411127_6336_7.jpg","https://xcimg.szwego.com/img/22f63296/20240128/i1706411127_2456_8.jpg"],"created_at":"2026-06-29T11:22:07.761Z"},{"id":"item-7ca1c0567fad","sku":"_dmCmCl3fGYFsxC9LMpuT57RX71987lJ2etDqRQA","name_en":"MCM Liz Visetos🆕新款","name_cn":"MCM Liz Visetos🆕新款\n中号#米白色双面购物袋\n·Cp独家®️米白色\n这款中号Liz购物袋将两个经典外型合二为一,是一款标志性的日常包袋。包袋采用米白色Visetos及Nappa皮革制成,双面棉质帆布的表面上印有迷人的Cubic经典花纹。随附的可拆卸拉链手拿包则使其拥有了更强的实用功能,在短途旅行中可作为独立的钱包使用。\n\n尺寸:36*17*28cm\n提手:垂长24cm\n特点:双面可用/大小双包\n颜色:米白色/Beige▫️","specs":{"source":"wsxcme","sourceId":"_dmCmCl3fGYFsxC9LMpuT57RX71987lJ2etDqRQA","sourceTagId":77388356,"sourceTagName":"MCM、寇驰/女包","dimensions":{"lengthCm":36,"heightCm":17,"widthCm":28},"rawTitle":"MCM Liz Visetos🆕新款\n中号#米白色双面购物袋\n·Cp独家®️米白色\n这款中号Liz购物袋将两个经典外型合二为一,是一款标志性的日常包袋。包袋采用米白色Visetos及Nappa皮革制成,双面棉质帆布的表面上印有迷人的Cubic经典花纹。随附的可拆卸拉链手拿包则使其拥有了更强的实用功能,在短途旅行中可作为独立的钱包使用。\n\n尺寸:36*17*28cm\n提手:垂长24cm\n特点:双面可用/大小双包\n颜色:米白色/Beige▫️"},"price":null,"currency":"CNY","moq":1,"category":"mcm-coach-women-bags","status":"active","alibaba_url":null,"images":["https://xcimg.szwego.com/img/22f63296/20240201/i1706777495_5872_0.jpg","https://xcimg.szwego.com/img/22f63296/20240201/i1706777495_8852_1.jpg","https://xcimg.szwego.com/img/22f63296/20240201/i1706777495_3340_2.jpg","https://xcimg.szwego.com/img/22f63296/20240201/i1706777495_1627_3.jpg","https://xcimg.szwego.com/img/22f63296/20240201/i1706777495_1180_4.jpg","https://xcimg.szwego.com/img/22f63296/20240201/i1706777495_1176_5.jpg","https://xcimg.szwego.com/img/22f63296/20240201/i1706777495_4897_6.jpg","https://xcimg.szwego.com/img/22f63296/20240201/i1706777495_5696_7.jpg","https://xcimg.szwego.com/img/22f63296/20240201/i1706777495_6903_8.jpg"],"created_at":"2026-06-29T11:22:07.931Z"},{"id":"item-31a1b71e3e64","sku":"_dunungGS5CsSW1yHJ4xlrGvYmgf7qGYYTNOmfng","name_en":"MCM Liz Visetos🆕新配色","name_cn":"MCM Liz Visetos🆕新配色\n中号#粉色双面购物袋\n\n·Cp独家®️Soft Pink粉色\n作为一款广为人知的国际化随身包袋,这款标志性Liz购物袋采用柔和的粉色调设计,气质宁静而精致。配套的经典花纹手拿包则使其拥有了更强大的多功能性。\n\n尺寸:36*17*28cm\n提手:垂长24cm\n特点:双面可用/大小双包\n颜色:粉色/Soft Pink▫️","specs":{"source":"wsxcme","sourceId":"_dunungGS5CsSW1yHJ4xlrGvYmgf7qGYYTNOmfng","sourceTagId":77388356,"sourceTagName":"MCM、寇驰/女包","dimensions":{"lengthCm":36,"heightCm":17,"widthCm":28},"rawTitle":"MCM Liz Visetos🆕新配色\n中号#粉色双面购物袋\n\n·Cp独家®️Soft Pink粉色\n作为一款广为人知的国际化随身包袋,这款标志性Liz购物袋采用柔和的粉色调设计,气质宁静而精致。配套的经典花纹手拿包则使其拥有了更强大的多功能性。\n\n尺寸:36*17*28cm\n提手:垂长24cm\n特点:双面可用/大小双包\n颜色:粉色/Soft Pink▫️"},"price":null,"currency":"CNY","moq":1,"category":"mcm-coach-women-bags","status":"active","alibaba_url":null,"images":["https://xcimg.szwego.com/20241201/i1733051673_6430_0.jpg","https://xcimg.szwego.com/20241201/i1733051673_9642_1.jpg","https://xcimg.szwego.com/20241201/i1733051673_1168_2.jpg","https://xcimg.szwego.com/20241201/i1733051673_8415_3.jpg","https://xcimg.szwego.com/20241201/i1733051673_684_4.jpg","https://xcimg.szwego.com/20241201/i1733051673_6872_5.jpg","https://xcimg.szwego.com/20241201/i1733051673_5576_6.jpg","https://xcimg.szwego.com/20241201/i1733051673_695_7.jpg","https://xcimg.szwego.com/20241201/i1733051673_1023_8.jpg"],"created_at":"2026-06-29T11:22:07.921Z"},{"id":"item-b9531ebf301c","sku":"_dBuBup81dOKJy79MqymSHdZuI2580mJDJVMRQNA","name_en":"MCM Stark Visetos","name_cn":"MCM Stark Visetos\n经典铆钉双肩包\ndp独家®️经典干邑色\n本季的小号Stark双肩背包是MCM经典款的重新演绎 单品采用我们标志性的Visetos涂层帆布制成 采用奢华的人造皮革衬里 结构化设计拥有宽敞的内部空间和金字塔形铆钉饰边 为您的造型增添前卫风格。\n\n型号:MMK6SVE37CO001\n尺寸:33*13*26cm\n颜色:干邑色/棕色","specs":{"source":"wsxcme","sourceId":"_dBuBup81dOKJy79MqymSHdZuI2580mJDJVMRQNA","sourceTagId":77388356,"sourceTagName":"MCM、寇驰/女包","modelNumber":"MMK6SVE37CO001","dimensions":{"lengthCm":33,"heightCm":13,"widthCm":26},"rawTitle":"MCM Stark Visetos\n经典铆钉双肩包\ndp独家®️经典干邑色\n本季的小号Stark双肩背包是MCM经典款的重新演绎 单品采用我们标志性的Visetos涂层帆布制成 采用奢华的人造皮革衬里 结构化设计拥有宽敞的内部空间和金字塔形铆钉饰边 为您的造型增添前卫风格。\n\n型号:MMK6SVE37CO001\n尺寸:33*13*26cm\n颜色:干邑色/棕色"},"price":null,"currency":"CNY","moq":1,"category":"mcm-coach-women-bags","status":"active","alibaba_url":null,"images":["https://xcimg.szwego.com/20230911/i1694433678_676_0.jpg","https://xcimg.szwego.com/20230911/i1694433678_80_1.jpg","https://xcimg.szwego.com/20230911/i1694433678_1010_2.jpg","https://xcimg.szwego.com/20230911/i1694433678_706_3.jpg","https://xcimg.szwego.com/20230911/i1694433678_4246_4.jpg","https://xcimg.szwego.com/20230911/i1694433678_2609_5.jpg","https://xcimg.szwego.com/20230911/i1694433678_7820_6.jpg","https://xcimg.szwego.com/20230911/i1694433678_9773_7.jpg","https://xcimg.szwego.com/20230911/i1694433678_5125_8.jpg"],"created_at":"2024-10-28T06:11:08.398Z"},{"id":"item-b8a9a289c838","sku":"_d8L8LMS0EVV1kqqslyOHIT4BG7ctMRtBE9hwV-w","name_en":"MCM Stark Visetos","name_cn":"MCM Stark Visetos\n大号铆钉双肩包\n\ndp独家®️经典干邑色\n官方称为中号# 本季的Stark双肩背包是MCM经典款的重新演绎 单品采用我们标志性的Visetos涂层帆布制成 采用奢华的人造皮革衬里 结构化设计拥有宽敞的内部空间和金字塔形铆钉饰边 为您的造型增添前卫风格。\n\n型号:MMK6SVE38CO001\n尺寸:42.5*16*33.5cm\n颜色:干邑色/棕色","specs":{"source":"wsxcme","sourceId":"_d8L8LMS0EVV1kqqslyOHIT4BG7ctMRtBE9hwV-w","sourceTagId":77388356,"sourceTagName":"MCM、寇驰/女包","modelNumber":"MMK6SVE38CO001","dimensions":{"lengthCm":42.5,"heightCm":16,"widthCm":33.5},"rawTitle":"MCM Stark Visetos\n大号铆钉双肩包\n\ndp独家®️经典干邑色\n官方称为中号# 本季的Stark双肩背包是MCM经典款的重新演绎 单品采用我们标志性的Visetos涂层帆布制成 采用奢华的人造皮革衬里 结构化设计拥有宽敞的内部空间和金字塔形铆钉饰边 为您的造型增添前卫风格。\n\n型号:MMK6SVE38CO001\n尺寸:42.5*16*33.5cm\n颜色:干邑色/棕色"},"price":null,"currency":"CNY","moq":1,"category":"mcm-coach-women-bags","status":"active","alibaba_url":null,"images":["https://xcimg.szwego.com/20230910/i1694346301_3710_0.jpg","https://xcimg.szwego.com/20230910/i1694346301_8227_1.jpg","https://xcimg.szwego.com/20230910/i1694346301_2315_2.jpg","https://xcimg.szwego.com/20230910/i1694346301_2117_3.jpg","https://xcimg.szwego.com/20230910/i1694346301_5389_4.jpg","https://xcimg.szwego.com/20230910/i1694346301_360_5.jpg","https://xcimg.szwego.com/20230910/i1694346301_2403_6.jpg","https://xcimg.szwego.com/20230910/i1694346301_8693_7.jpg","https://xcimg.szwego.com/20230910/i1694346301_7495_8.jpg"],"created_at":"2024-10-28T06:11:08.399Z"},{"id":"item-93b86a94a17b","sku":"_dK6K69OC-FXtIJcn5oUhphJln_JgOm8xDrjmjHg","name_en":"MCM Stark Visetos","name_cn":"MCM Stark Visetos\nBebe Boo铆钉双肩包\n\ndp独家®️经典干邑色\n官方称为X mini号# 这款MCM经典款的缩小版本 我们采用了标志性的Visetos涂层帆布 配以奢华的人造皮衬里和铆钉饰边。单品适合各种搭配 创新设计可以利用肩带秒变斜挎包、双肩包、单肩包、腰包和手提包。用这款特迷你Stark双肩背包秀出新风格\n\n型号:MMK6SVE92CO001\n尺寸:21*10*17.5cm\n颜色:干邑色/棕色","specs":{"source":"wsxcme","sourceId":"_dK6K69OC-FXtIJcn5oUhphJln_JgOm8xDrjmjHg","sourceTagId":77388356,"sourceTagName":"MCM、寇驰/女包","modelNumber":"MMK6SVE92CO001","dimensions":{"lengthCm":21,"heightCm":10,"widthCm":17.5},"rawTitle":"MCM Stark Visetos\nBebe Boo铆钉双肩包\n\ndp独家®️经典干邑色\n官方称为X mini号# 这款MCM经典款的缩小版本 我们采用了标志性的Visetos涂层帆布 配以奢华的人造皮衬里和铆钉饰边。单品适合各种搭配 创新设计可以利用肩带秒变斜挎包、双肩包、单肩包、腰包和手提包。用这款特迷你Stark双肩背包秀出新风格\n\n型号:MMK6SVE92CO001\n尺寸:21*10*17.5cm\n颜色:干邑色/棕色"},"price":null,"currency":"CNY","moq":1,"category":"mcm-coach-women-bags","status":"active","alibaba_url":null,"images":["https://xcimg.szwego.com/20230913/i1694544317_9377_0.jpg","https://xcimg.szwego.com/20230913/i1694544317_4819_1.jpg","https://xcimg.szwego.com/20230913/i1694544317_5525_2.jpg","https://xcimg.szwego.com/20230913/i1694544317_7512_3.jpg","https://xcimg.szwego.com/20230913/i1694544317_1488_4.jpg","https://xcimg.szwego.com/20230913/i1694544317_9724_5.jpg","https://xcimg.szwego.com/20230913/i1694544317_1593_6.jpg","https://xcimg.szwego.com/20230913/i1694544317_8273_7.jpg","https://xcimg.szwego.com/20230913/i1694544317_7207_8.jpg"],"created_at":"2024-10-28T06:11:08.397Z"},{"id":"item-1e4d8208979f","sku":"_dogogLCY39oXULzT1FZRmGxkODxwIypR1lP1bDQ","name_en":"MCM Stark Visetos","name_cn":"MCM Stark Visetos\n迷你号铆钉双肩包\ndp独家®️经典干邑色\n官方称为mini号# 这款经典的Stark双肩背包采用Visetos经典花纹及Nappa皮革制成,是日用奢侈品领域的先锋之作。多切面的铆钉勾勒出包袋两侧的轮廓,体现了MCM独有的叛逆先锋精神。包袋设计有外侧口袋、正面拉链口袋及可用于存放平板电脑和小型电子产品的内部隔层,展现出与现代外观相得益彰的现代功能。\n\n型号:MMK6SVE37CO001\n尺寸:26*10.5*21.5cm\n颜色:干邑色/棕色","specs":{"source":"wsxcme","sourceId":"_dogogLCY39oXULzT1FZRmGxkODxwIypR1lP1bDQ","sourceTagId":77388356,"sourceTagName":"MCM、寇驰/女包","modelNumber":"MMK6SVE37CO001","dimensions":{"lengthCm":26,"heightCm":10.5,"widthCm":21.5},"rawTitle":"MCM Stark Visetos\n迷你号铆钉双肩包\ndp独家®️经典干邑色\n官方称为mini号# 这款经典的Stark双肩背包采用Visetos经典花纹及Nappa皮革制成,是日用奢侈品领域的先锋之作。多切面的铆钉勾勒出包袋两侧的轮廓,体现了MCM独有的叛逆先锋精神。包袋设计有外侧口袋、正面拉链口袋及可用于存放平板电脑和小型电子产品的内部隔层,展现出与现代外观相得益彰的现代功能。\n\n型号:MMK6SVE37CO001\n尺寸:26*10.5*21.5cm\n颜色:干邑色/棕色"},"price":null,"currency":"CNY","moq":1,"category":"mcm-coach-women-bags","status":"active","alibaba_url":null,"images":["https://xcimg.szwego.com/20230911/i1694435450_7724_0.jpg","https://xcimg.szwego.com/20230911/i1694435450_4479_1.jpg","https://xcimg.szwego.com/20230911/i1694435450_6240_2.jpg","https://xcimg.szwego.com/20230911/i1694435450_5368_3.jpg","https://xcimg.szwego.com/20230911/i1694435450_2659_4.jpg","https://xcimg.szwego.com/20230911/i1694435450_7389_5.jpg","https://xcimg.szwego.com/20230911/i1694435450_3745_6.jpg","https://xcimg.szwego.com/20230911/i1694435450_8459_7.jpg","https://xcimg.szwego.com/20230911/i1694435450_9783_8.jpg"],"created_at":"2024-10-28T06:11:08.396Z"},{"id":"item-17c3f2bd39bb","sku":"_dmRmRm_R7y3P5EjcjOfeYPzh-X-S-SoSU2KZYNg","name_en":"MCM Stark Visetos","name_cn":"MCM Stark Visetos\n小中号铆钉双肩背包\n全新升级版本\n独家®️干邑色老花满印\n标志性的 Visetos涂层 # 男女同款包 # 背包里的天花板。这款双肩背包结构规整,并饰以豪华的Nappa皮革饰边,其内部空间充裕,金字塔形的铆钉侧边使其前卫感十足。\n\n型号:MMK6SVE37CO001\n尺寸:38*13*30cm\n肩带:71-87cm可调节\n拉链:双向全闭合拉链\n颜色:干邑色/棕色🏾","specs":{"source":"wsxcme","sourceId":"_dmRmRm_R7y3P5EjcjOfeYPzh-X-S-SoSU2KZYNg","sourceTagId":77388356,"sourceTagName":"MCM、寇驰/女包","modelNumber":"MMK6SVE37CO001","dimensions":{"lengthCm":38,"heightCm":13,"widthCm":30},"rawTitle":"MCM Stark Visetos\n小中号铆钉双肩背包\n全新升级版本\n独家®️干邑色老花满印\n标志性的 Visetos涂层 # 男女同款包 # 背包里的天花板。这款双肩背包结构规整,并饰以豪华的Nappa皮革饰边,其内部空间充裕,金字塔形的铆钉侧边使其前卫感十足。\n\n型号:MMK6SVE37CO001\n尺寸:38*13*30cm\n肩带:71-87cm可调节\n拉链:双向全闭合拉链\n颜色:干邑色/棕色🏾"},"price":null,"currency":"CNY","moq":1,"category":"mcm-coach-women-bags","status":"active","alibaba_url":null,"images":["https://xcimg.szwego.com/img/22f63296/20231207/i1701937923_2260_0.jpg","https://xcimg.szwego.com/img/22f63296/20231207/i1701937923_9468_1.jpg","https://xcimg.szwego.com/img/22f63296/20231207/i1701937923_5650_2.jpg","https://xcimg.szwego.com/img/22f63296/20231207/i1701937923_2985_3.jpg","https://xcimg.szwego.com/img/22f63296/20231207/i1701937923_1042_4.jpg","https://xcimg.szwego.com/img/22f63296/20231207/i1701937923_6452_5.jpg","https://xcimg.szwego.com/img/22f63296/20231207/i1701937923_6724_6.jpg","https://xcimg.szwego.com/img/22f63296/20231207/i1701937923_7098_7.jpg","https://xcimg.szwego.com/img/22f63296/20231207/i1701937923_8330_8.jpg"],"created_at":"2024-10-28T06:11:08.406Z"},{"id":"item-b9980d956824","sku":"_ddpdpgWKpygM9-gxxCKFY15Xf856HV-FrK7W_Yg","name_en":"mcm stark系列侧钉双肩包, 迷你号,采用我们标志性的 visetos涂层帆布制成,配以奢华的人造皮革衬里和铆钉饰边。顶部皮革提手可调节肩带前拉链口袋,人造革衬里。尺寸:27-20-8,款号:65004","name_cn":"mcm stark系列侧钉双肩包, 迷你号,采用我们标志性的 visetos涂层帆布制成,配以奢华的人造皮革衬里和铆钉饰边。顶部皮革提手可调节肩带前拉链口袋,人造革衬里。尺寸:27-20-8,款号:65004","specs":{"source":"wsxcme","sourceId":"_ddpdpgWKpygM9-gxxCKFY15Xf856HV-FrK7W_Yg","sourceTagId":77388356,"sourceTagName":"MCM、寇驰/女包","modelNumber":"65004","rawTitle":"mcm stark系列侧钉双肩包, 迷你号,采用我们标志性的 visetos涂层帆布制成,配以奢华的人造皮革衬里和铆钉饰边。顶部皮革提手可调节肩带前拉链口袋,人造革衬里。尺寸:27-20-8,款号:65004"},"price":null,"currency":"CNY","moq":1,"category":"mcm-coach-women-bags","status":"active","alibaba_url":null,"images":["https://xcimg.szwego.com/20240413/a1713015946610_3804.jpg","https://xcimg.szwego.com/20240413/a1713015946742_8016.jpg","https://xcimg.szwego.com/20240413/a1713015946910_7346.jpg","https://xcimg.szwego.com/20240413/a1713015947045_7827.jpg","https://xcimg.szwego.com/20240413/a1713015947190_7202.jpg","https://xcimg.szwego.com/20240413/a1713015947340_2835.jpg","https://xcimg.szwego.com/20240413/a1713015947467_6345.jpg","https://xcimg.szwego.com/20240413/a1713015947625_3613.jpg"],"created_at":"2024-10-28T06:11:08.404Z"},{"id":"item-058b59157b93","sku":"_dnCnCm8OQ0AwVkidBJ352w1YuFnJYKXLlglXe6A","name_en":"mcm stark系列侧钉双肩包, 迷你号,采用我们标志性的 visetos涂层帆布制成,配以奢华的人造皮革衬里和铆钉饰边。顶部皮革提手可调节肩带前拉链口袋,人造革衬里。尺寸:27-20-8,款号:65004","name_cn":"mcm stark系列侧钉双肩包, 迷你号,采用我们标志性的 visetos涂层帆布制成,配以奢华的人造皮革衬里和铆钉饰边。顶部皮革提手可调节肩带前拉链口袋,人造革衬里。尺寸:27-20-8,款号:65004","specs":{"source":"wsxcme","sourceId":"_dnCnCm8OQ0AwVkidBJ352w1YuFnJYKXLlglXe6A","sourceTagId":77388356,"sourceTagName":"MCM、寇驰/女包","modelNumber":"65004","rawTitle":"mcm stark系列侧钉双肩包, 迷你号,采用我们标志性的 visetos涂层帆布制成,配以奢华的人造皮革衬里和铆钉饰边。顶部皮革提手可调节肩带前拉链口袋,人造革衬里。尺寸:27-20-8,款号:65004"},"price":null,"currency":"CNY","moq":1,"category":"mcm-coach-women-bags","status":"active","alibaba_url":null,"images":["https://xcimg.szwego.com/20240413/a1713015946610_3804.jpg","https://xcimg.szwego.com/20240413/a1713015946742_8016.jpg","https://xcimg.szwego.com/20240413/a1713015946910_7346.jpg","https://xcimg.szwego.com/20240413/a1713015947045_7827.jpg","https://xcimg.szwego.com/20240413/a1713015947190_7202.jpg","https://xcimg.szwego.com/20240413/a1713015947340_2835.jpg","https://xcimg.szwego.com/20240413/a1713015947467_6345.jpg","https://xcimg.szwego.com/20240413/a1713015947625_3613.jpg"],"created_at":"2024-10-28T06:11:08.400Z"},{"id":"item-98d902e5002e","sku":"_drfrf7z31X4Hx3Nkyj1vgCQr7NlO2HTvW7yw9bA","name_en":"MCM新款Soft Berlin Visetos斜挎包,秉承着兼顾精致感与便携性的理念,这款Soft Berlin斜挎包经过精心打造,对经典旅行箱进行了缩小版的演绎。包袋上的Nappa皮革细节及勾勒出经典Visetos包身轮廓的边缘涂漆包角凸显出品牌的工匠工艺。双向拉链闭合确保了豪华织物衬里内部小型日用必需品的安全。您可以通过柔软的皮革提手将这款精致的包袋提","name_cn":"MCM新款Soft Berlin Visetos斜挎包,秉承着兼顾精致感与便携性的理念,这款Soft Berlin斜挎包经过精心打造,对经典旅行箱进行了缩小版的演绎。包袋上的Nappa皮革细节及勾勒出经典Visetos包身轮廓的边缘涂漆包角凸显出品牌的工匠工艺。双向拉链闭合确保了豪华织物衬里内部小型日用必需品的安全。您可以通过柔软的皮革提手将这款精致的包袋提在手上,亦可搭配皮革斜挎肩带实现免提功能。尺寸:14-21-8,款号:65014","specs":{"source":"wsxcme","sourceId":"_drfrf7z31X4Hx3Nkyj1vgCQr7NlO2HTvW7yw9bA","sourceTagId":77388356,"sourceTagName":"MCM、寇驰/女包","modelNumber":"65014","rawTitle":"MCM新款Soft Berlin Visetos斜挎包,秉承着兼顾精致感与便携性的理念,这款Soft Berlin斜挎包经过精心打造,对经典旅行箱进行了缩小版的演绎。包袋上的Nappa皮革细节及勾勒出经典Visetos包身轮廓的边缘涂漆包角凸显出品牌的工匠工艺。双向拉链闭合确保了豪华织物衬里内部小型日用必需品的安全。您可以通过柔软的皮革提手将这款精致的包袋提在手上,亦可搭配皮革斜挎肩带实现免提功能。尺寸:14-21-8,款号:65014"},"price":null,"currency":"CNY","moq":1,"category":"mcm-coach-women-bags","status":"active","alibaba_url":null,"images":["https://xcimg.szwego.com/img/6580d384/20240615/i1718443824_1275_3.jpg","https://xcimg.szwego.com/img/6580d384/20240615/i1718443824_7389_0.jpg","https://xcimg.szwego.com/img/6580d384/20240615/i1718443824_7890_2.jpg","https://xcimg.szwego.com/img/6580d384/20240615/i1718443824_1769_5.jpg","https://xcimg.szwego.com/img/6580d384/20240615/i1718443824_5882_7.jpg","https://xcimg.szwego.com/img/6580d384/20240615/i1718443824_6120_6.jpg","https://xcimg.szwego.com/img/6580d384/20240615/i1718443824_1840_1.jpg","https://xcimg.szwego.com/img/6580d384/20240615/i1718443824_2005_4.jpg","https://xcimg.szwego.com/20210504/i1620108641_9664_6.jpg"],"created_at":"2025-02-09T11:28:13.076Z"},{"id":"item-8f0239273435","sku":"_dg9g9Ep80JsTMCu8CTzw-RvvsvFiqvIBU0WCesw","name_en":"MCM新款Soft Berlin Visetos斜挎包,秉承着兼顾精致感与便携性的理念,这款Soft Berlin斜挎包经过精心打造,对经典旅行箱进行了缩小版的演绎。包袋上的Nappa皮革细节及勾勒出经典Visetos包身轮廓的边缘涂漆包角凸显出品牌的工匠工艺。双向拉链闭合确保了豪华织物衬里内部小型日用必需品的安全。您可以通过柔软的皮革提手将这款精致的包袋提","name_cn":"MCM新款Soft Berlin Visetos斜挎包,秉承着兼顾精致感与便携性的理念,这款Soft Berlin斜挎包经过精心打造,对经典旅行箱进行了缩小版的演绎。包袋上的Nappa皮革细节及勾勒出经典Visetos包身轮廓的边缘涂漆包角凸显出品牌的工匠工艺。双向拉链闭合确保了豪华织物衬里内部小型日用必需品的安全。您可以通过柔软的皮革提手将这款精致的包袋提在手上,亦可搭配皮革斜挎肩带实现免提功能。尺寸:14-21-8,款号:65014","specs":{"source":"wsxcme","sourceId":"_dg9g9Ep80JsTMCu8CTzw-RvvsvFiqvIBU0WCesw","sourceTagId":77388356,"sourceTagName":"MCM、寇驰/女包","modelNumber":"65014","rawTitle":"MCM新款Soft Berlin Visetos斜挎包,秉承着兼顾精致感与便携性的理念,这款Soft Berlin斜挎包经过精心打造,对经典旅行箱进行了缩小版的演绎。包袋上的Nappa皮革细节及勾勒出经典Visetos包身轮廓的边缘涂漆包角凸显出品牌的工匠工艺。双向拉链闭合确保了豪华织物衬里内部小型日用必需品的安全。您可以通过柔软的皮革提手将这款精致的包袋提在手上,亦可搭配皮革斜挎肩带实现免提功能。尺寸:14-21-8,款号:65014"},"price":null,"currency":"CNY","moq":1,"category":"mcm-coach-women-bags","status":"active","alibaba_url":null,"images":["https://xcimg.szwego.com/img/6580d384/20240615/i1718443883_8924_2.jpg","https://xcimg.szwego.com/img/6580d384/20240615/i1718443883_7859_3.jpg","https://xcimg.szwego.com/img/6580d384/20240615/i1718443883_1478_6.jpg","https://xcimg.szwego.com/img/6580d384/20240615/i1718443883_3143_0.jpg","https://xcimg.szwego.com/img/6580d384/20240615/i1718443883_3694_4.jpg","https://xcimg.szwego.com/img/6580d384/20240615/i1718443883_3570_1.jpg","https://xcimg.szwego.com/img/6580d384/20240615/i1718443883_3249_7.jpg","https://xcimg.szwego.com/img/6580d384/20240615/i1718443883_4730_5.jpg","https://xcimg.szwego.com/20210504/i1620108709_7310_6.jpg"],"created_at":"2025-02-09T11:28:05.297Z"}],"page":11,"pageSize":24,"total":254,"totalPages":11}
