{"items":[{"id":"item-b68e3bb1318e","sku":"_duCuCMVXzCGy70DCv6TVIsVw2KfzI-UqOdnhkMQ","name_en":"coach蔻驰代工厂 渠道货正品打版开发CU077双肩背包~六色现货~~","name_cn":"coach蔻驰代工厂 渠道货正品打版开发CU077双肩背包~六色现货~~","specs":{"source":"wsxcme","sourceId":"_duCuCMVXzCGy70DCv6TVIsVw2KfzI-UqOdnhkMQ","sourceTagId":77388356,"sourceTagName":"MCM、寇驰/女包","rawTitle":"coach蔻驰代工厂 渠道货正品打版开发CU077双肩背包~六色现货~~"},"price":null,"currency":"CNY","moq":1,"category":"mcm-coach-women-bags","status":"active","alibaba_url":null,"images":["https://xcimg.szwego.com/img/592f5ade/20240709/a1720476221076_6320.jpg","https://xcimg.szwego.com/img/592f5ade/20240709/a1720476221362_5634.jpg","https://xcimg.szwego.com/img/592f5ade/20240709/a1720476221198_4471.jpg","https://xcimg.szwego.com/img/592f5ade/20240709/a1720476221170_4715.jpg","https://xcimg.szwego.com/img/592f5ade/20240709/a1720476221258_1273.jpg","https://xcimg.szwego.com/img/592f5ade/20240709/a1720476221287_0732.jpg","https://xcimg.szwego.com/img/592f5ade/20240709/a1720476222390_4038.jpg","https://xcimg.szwego.com/img/592f5ade/20240709/a1720476222494_5453.jpg"],"created_at":"2024-12-02T06:17:13.225Z"},{"id":"item-de9cdf37e778","sku":"_deCeC4hYdd6SKmuTavIpkxfZHP2o6r-WjucHiGw","name_en":"Coach蔻驰代工厂 渠道货 lCT800新款Coach蔻驰新款City Bucket水桶包手提斜挎包 ,尺寸:28*22*10","name_cn":"Coach蔻驰代工厂 渠道货 lCT800新款Coach蔻驰新款City Bucket水桶包手提斜挎包 ,尺寸:28*22*10","specs":{"source":"wsxcme","sourceId":"_deCeC4hYdd6SKmuTavIpkxfZHP2o6r-WjucHiGw","sourceTagId":77388356,"sourceTagName":"MCM、寇驰/女包","rawTitle":"Coach蔻驰代工厂 渠道货 lCT800新款Coach蔻驰新款City Bucket水桶包手提斜挎包 ,尺寸:28*22*10"},"price":null,"currency":"CNY","moq":1,"category":"mcm-coach-women-bags","status":"active","alibaba_url":null,"images":["https://xcimg.szwego.com/20240629/i1719627206_1108_0.jpg","https://xcimg.szwego.com/20240629/i1719627206_1619_1.jpg","https://xcimg.szwego.com/20240629/i1719627206_9396_2.jpg","https://xcimg.szwego.com/20240629/i1719627206_4261_3.jpg","https://xcimg.szwego.com/20240629/i1719627206_6253_4.jpg","https://xcimg.szwego.com/20240629/i1719627206_6992_5.jpg","https://xcimg.szwego.com/20240629/i1719627206_3528_6.jpg","https://xcimg.szwego.com/20240629/i1719627206_6031_7.jpg","https://xcimg.szwego.com/20240629/i1719627206_4240_8.jpg"],"created_at":"2024-12-02T06:17:13.224Z"},{"id":"item-d46120af510f","sku":"_dfofo6zE4ucR8MAPJ-vF2YLbOkb8dBhUSmS_8ZA","name_en":"Coach蔻驰代工厂 渠道货 CT800新款Coach蔻驰新款City Bucket水桶包手提斜挎包 ,尺寸:28*22*10","name_cn":"Coach蔻驰代工厂 渠道货 CT800新款Coach蔻驰新款City Bucket水桶包手提斜挎包 ,尺寸:28*22*10","specs":{"source":"wsxcme","sourceId":"_dfofo6zE4ucR8MAPJ-vF2YLbOkb8dBhUSmS_8ZA","sourceTagId":77388356,"sourceTagName":"MCM、寇驰/女包","rawTitle":"Coach蔻驰代工厂 渠道货 CT800新款Coach蔻驰新款City Bucket水桶包手提斜挎包 ,尺寸:28*22*10"},"price":null,"currency":"CNY","moq":1,"category":"mcm-coach-women-bags","status":"active","alibaba_url":null,"images":["https://xcimg.szwego.com/20240629/i1719627140_1111_0.jpg","https://xcimg.szwego.com/20240629/i1719627140_6874_1.jpg","https://xcimg.szwego.com/20240629/i1719627140_9340_2.jpg","https://xcimg.szwego.com/20240629/i1719627140_4829_3.jpg","https://xcimg.szwego.com/20240629/i1719627140_8953_4.jpg","https://xcimg.szwego.com/20240629/i1719627140_2184_5.jpg","https://xcimg.szwego.com/20240629/i1719627140_4600_6.jpg","https://xcimg.szwego.com/20240629/i1719627140_7210_7.jpg","https://xcimg.szwego.com/20240629/i1719627140_7485_8.jpg"],"created_at":"2024-12-02T06:17:13.223Z"},{"id":"item-70b104ad02a3","sku":"_dcycyvGKWndmIKeGuYKejMvuXUKnvGXx1qpIpPA","name_en":"Coach蔻驰代工厂 渠道货 CT800新款Coach蔻驰新款City Bucket水桶包手提斜挎包 ,尺寸:28*22*10","name_cn":"Coach蔻驰代工厂 渠道货 CT800新款Coach蔻驰新款City Bucket水桶包手提斜挎包 ,尺寸:28*22*10","specs":{"source":"wsxcme","sourceId":"_dcycyvGKWndmIKeGuYKejMvuXUKnvGXx1qpIpPA","sourceTagId":77388356,"sourceTagName":"MCM、寇驰/女包","rawTitle":"Coach蔻驰代工厂 渠道货 CT800新款Coach蔻驰新款City Bucket水桶包手提斜挎包 ,尺寸:28*22*10"},"price":null,"currency":"CNY","moq":1,"category":"mcm-coach-women-bags","status":"active","alibaba_url":null,"images":["https://xcimg.szwego.com/20240629/i1719627076_3078_0.jpg","https://xcimg.szwego.com/20240629/i1719627076_512_1.jpg","https://xcimg.szwego.com/20240629/i1719627076_5759_2.jpg","https://xcimg.szwego.com/20240629/i1719627076_3359_3.jpg","https://xcimg.szwego.com/20240629/i1719627076_2625_4.jpg","https://xcimg.szwego.com/20240629/i1719627076_4867_5.jpg","https://xcimg.szwego.com/20240629/i1719627076_8083_6.jpg","https://xcimg.szwego.com/20240629/i1719627076_932_7.jpg","https://xcimg.szwego.com/20240629/i1719627076_6150_8.jpg"],"created_at":"2024-12-02T06:17:13.222Z"},{"id":"item-49d8c9e85abe","sku":"_daoaoqD0kfLlduPKunmJ1A4nP-fU9sJbY96j5Ng","name_en":"Coach蔻驰代工厂 渠道货 CT801新款Coach蔻驰新款City Bucket水桶包手提斜挎包 ,尺寸:28*22*10","name_cn":"Coach蔻驰代工厂 渠道货 CT801新款Coach蔻驰新款City Bucket水桶包手提斜挎包 ,尺寸:28*22*10","specs":{"source":"wsxcme","sourceId":"_daoaoqD0kfLlduPKunmJ1A4nP-fU9sJbY96j5Ng","sourceTagId":77388356,"sourceTagName":"MCM、寇驰/女包","rawTitle":"Coach蔻驰代工厂 渠道货 CT801新款Coach蔻驰新款City Bucket水桶包手提斜挎包 ,尺寸:28*22*10"},"price":null,"currency":"CNY","moq":1,"category":"mcm-coach-women-bags","status":"active","alibaba_url":null,"images":["https://xcimg.szwego.com/20240629/i1719627024_7510_0.jpg","https://xcimg.szwego.com/20240629/i1719627024_5605_1.jpg","https://xcimg.szwego.com/20240629/i1719627024_7948_2.jpg","https://xcimg.szwego.com/20240629/i1719627024_3439_3.jpg","https://xcimg.szwego.com/20240629/i1719627024_8326_4.jpg","https://xcimg.szwego.com/20240629/i1719627024_2416_5.jpg","https://xcimg.szwego.com/20240629/i1719627024_1846_6.jpg","https://xcimg.szwego.com/20240629/i1719627024_3840_7.jpg","https://xcimg.szwego.com/20240629/i1719627024_4858_8.jpg"],"created_at":"2024-12-02T06:17:13.221Z"},{"id":"item-c1a16a7c2c2d","sku":"_drCrCBxaW5WAL8R-NowlL_1gA_zDHk0m23kIvPA","name_en":"Coach蔻驰代工厂 渠道货新款Coach蔻驰新款City Bucket水桶包手提斜挎包 ,尺寸:28*22*10","name_cn":"Coach蔻驰代工厂 渠道货新款Coach蔻驰新款City Bucket水桶包手提斜挎包 ,尺寸:28*22*10","specs":{"source":"wsxcme","sourceId":"_drCrCBxaW5WAL8R-NowlL_1gA_zDHk0m23kIvPA","sourceTagId":77388356,"sourceTagName":"MCM、寇驰/女包","rawTitle":"Coach蔻驰代工厂 渠道货新款Coach蔻驰新款City Bucket水桶包手提斜挎包 ,尺寸:28*22*10"},"price":null,"currency":"CNY","moq":1,"category":"mcm-coach-women-bags","status":"active","alibaba_url":null,"images":["https://xcimg.szwego.com/20240629/i1719626875_2400_0.jpg","https://xcimg.szwego.com/20240629/i1719626875_4335_1.jpg","https://xcimg.szwego.com/20240629/i1719626875_8653_2.jpg","https://xcimg.szwego.com/20240629/i1719626875_5024_3.jpg","https://xcimg.szwego.com/20240629/i1719626875_8168_4.jpg","https://xcimg.szwego.com/20240629/i1719626875_6353_5.jpg","https://xcimg.szwego.com/20240629/i1719626875_5281_6.jpg","https://xcimg.szwego.com/20240629/i1719626875_6968_7.jpg","https://xcimg.szwego.com/20240629/i1719626875_7390_8.jpg"],"created_at":"2024-12-02T06:17:13.220Z"},{"id":"item-1ba6bbd79726","sku":"_dqcqc9k-NORMj6I_OgrNNmU4zmhWajC3YAjWIoQ","name_en":"Coach蔻驰代工厂 渠道货新款Coach蔻驰新款City Bucket水桶包手提斜挎包 ,尺寸:28*22*10","name_cn":"Coach蔻驰代工厂 渠道货新款Coach蔻驰新款City Bucket水桶包手提斜挎包 ,尺寸:28*22*10","specs":{"source":"wsxcme","sourceId":"_dqcqc9k-NORMj6I_OgrNNmU4zmhWajC3YAjWIoQ","sourceTagId":77388356,"sourceTagName":"MCM、寇驰/女包","rawTitle":"Coach蔻驰代工厂 渠道货新款Coach蔻驰新款City Bucket水桶包手提斜挎包 ,尺寸:28*22*10"},"price":null,"currency":"CNY","moq":1,"category":"mcm-coach-women-bags","status":"active","alibaba_url":null,"images":["https://xcimg.szwego.com/20240629/i1719626875_2400_0.jpg","https://xcimg.szwego.com/20240629/i1719626875_4335_1.jpg","https://xcimg.szwego.com/20240629/i1719626875_8653_2.jpg","https://xcimg.szwego.com/20240629/i1719626875_5024_3.jpg","https://xcimg.szwego.com/20240629/i1719626875_8168_4.jpg","https://xcimg.szwego.com/20240629/i1719626875_6353_5.jpg","https://xcimg.szwego.com/20240629/i1719626875_5281_6.jpg","https://xcimg.szwego.com/20240629/i1719626875_6968_7.jpg","https://xcimg.szwego.com/20240629/i1719626875_7390_8.jpg"],"created_at":"2024-12-02T06:17:13.219Z"},{"id":"item-1d2b116142da","sku":"_dlBlBeVPBXVEFFh-6zEDEaD42DpceZzVg2UaEuA","name_en":"Coach蔻驰代工厂 渠道货新款Coach蔻驰新款City Bucket水桶包手提斜挎包 ,尺寸:28*22*10","name_cn":"Coach蔻驰代工厂 渠道货新款Coach蔻驰新款City Bucket水桶包手提斜挎包 ,尺寸:28*22*10","specs":{"source":"wsxcme","sourceId":"_dlBlBeVPBXVEFFh-6zEDEaD42DpceZzVg2UaEuA","sourceTagId":77388356,"sourceTagName":"MCM、寇驰/女包","rawTitle":"Coach蔻驰代工厂 渠道货新款Coach蔻驰新款City Bucket水桶包手提斜挎包 ,尺寸:28*22*10"},"price":null,"currency":"CNY","moq":1,"category":"mcm-coach-women-bags","status":"active","alibaba_url":null,"images":["https://xcimg.szwego.com/20240629/i1719627024_7510_0.jpg","https://xcimg.szwego.com/20240629/i1719627024_5605_1.jpg","https://xcimg.szwego.com/20240629/i1719627024_7948_2.jpg","https://xcimg.szwego.com/20240629/i1719627024_3439_3.jpg","https://xcimg.szwego.com/20240629/i1719627024_8326_4.jpg","https://xcimg.szwego.com/20240629/i1719627024_2416_5.jpg","https://xcimg.szwego.com/20240629/i1719627024_1846_6.jpg","https://xcimg.szwego.com/20240629/i1719627024_3840_7.jpg","https://xcimg.szwego.com/20240629/i1719627024_4858_8.jpg"],"created_at":"2024-12-02T06:17:13.218Z"},{"id":"item-419a1e1f0dd8","sku":"_dbqbqrhVF9LJcWZpqClOlSTUCbRO1Sl5_692DEg","name_en":"Coach蔻驰代工厂 渠道货新款Coach蔻驰新款City Bucket水桶包手提斜挎包 ,尺寸:28*22*10","name_cn":"Coach蔻驰代工厂 渠道货新款Coach蔻驰新款City Bucket水桶包手提斜挎包 ,尺寸:28*22*10","specs":{"source":"wsxcme","sourceId":"_dbqbqrhVF9LJcWZpqClOlSTUCbRO1Sl5_692DEg","sourceTagId":77388356,"sourceTagName":"MCM、寇驰/女包","rawTitle":"Coach蔻驰代工厂 渠道货新款Coach蔻驰新款City Bucket水桶包手提斜挎包 ,尺寸:28*22*10"},"price":null,"currency":"CNY","moq":1,"category":"mcm-coach-women-bags","status":"active","alibaba_url":null,"images":["https://xcimg.szwego.com/20240629/i1719627076_3078_0.jpg","https://xcimg.szwego.com/20240629/i1719627076_512_1.jpg","https://xcimg.szwego.com/20240629/i1719627076_5759_2.jpg","https://xcimg.szwego.com/20240629/i1719627076_3359_3.jpg","https://xcimg.szwego.com/20240629/i1719627076_2625_4.jpg","https://xcimg.szwego.com/20240629/i1719627076_4867_5.jpg","https://xcimg.szwego.com/20240629/i1719627076_8083_6.jpg","https://xcimg.szwego.com/20240629/i1719627076_932_7.jpg","https://xcimg.szwego.com/20240629/i1719627076_6150_8.jpg"],"created_at":"2024-12-02T06:17:13.217Z"},{"id":"item-24005c6fdf21","sku":"_dv9v9g1tnPTr19y9KUvmr3tsjSXWYTSXZBc-CmA","name_en":"Coach蔻驰代工厂 渠道货新款Coach蔻驰新款City Bucket水桶包手提斜挎包 ,尺寸:28*22*10","name_cn":"Coach蔻驰代工厂 渠道货新款Coach蔻驰新款City Bucket水桶包手提斜挎包 ,尺寸:28*22*10","specs":{"source":"wsxcme","sourceId":"_dv9v9g1tnPTr19y9KUvmr3tsjSXWYTSXZBc-CmA","sourceTagId":77388356,"sourceTagName":"MCM、寇驰/女包","rawTitle":"Coach蔻驰代工厂 渠道货新款Coach蔻驰新款City Bucket水桶包手提斜挎包 ,尺寸:28*22*10"},"price":null,"currency":"CNY","moq":1,"category":"mcm-coach-women-bags","status":"active","alibaba_url":null,"images":["https://xcimg.szwego.com/20240629/i1719627206_1108_0.jpg","https://xcimg.szwego.com/20240629/i1719627206_1619_1.jpg","https://xcimg.szwego.com/20240629/i1719627206_9396_2.jpg","https://xcimg.szwego.com/20240629/i1719627206_4261_3.jpg","https://xcimg.szwego.com/20240629/i1719627206_6253_4.jpg","https://xcimg.szwego.com/20240629/i1719627206_6992_5.jpg","https://xcimg.szwego.com/20240629/i1719627206_3528_6.jpg","https://xcimg.szwego.com/20240629/i1719627206_6031_7.jpg","https://xcimg.szwego.com/20240629/i1719627206_4240_8.jpg"],"created_at":"2024-12-02T06:17:13.216Z"},{"id":"item-e717bf01b34f","sku":"_duTuTdvC93-PMtNcdjv44-FAXcabJSW2eMI57zw","name_en":"Coach蔻驰代工厂 渠道货新款Coach蔻驰新款City Bucket水桶包手提斜挎包 ,尺寸:28*22*10","name_cn":"Coach蔻驰代工厂 渠道货新款Coach蔻驰新款City Bucket水桶包手提斜挎包 ,尺寸:28*22*10","specs":{"source":"wsxcme","sourceId":"_duTuTdvC93-PMtNcdjv44-FAXcabJSW2eMI57zw","sourceTagId":77388356,"sourceTagName":"MCM、寇驰/女包","rawTitle":"Coach蔻驰代工厂 渠道货新款Coach蔻驰新款City Bucket水桶包手提斜挎包 ,尺寸:28*22*10"},"price":null,"currency":"CNY","moq":1,"category":"mcm-coach-women-bags","status":"active","alibaba_url":null,"images":["https://xcimg.szwego.com/20240629/i1719627140_1111_0.jpg","https://xcimg.szwego.com/20240629/i1719627140_6874_1.jpg","https://xcimg.szwego.com/20240629/i1719627140_9340_2.jpg","https://xcimg.szwego.com/20240629/i1719627140_4829_3.jpg","https://xcimg.szwego.com/20240629/i1719627140_8953_4.jpg","https://xcimg.szwego.com/20240629/i1719627140_2184_5.jpg","https://xcimg.szwego.com/20240629/i1719627140_4600_6.jpg","https://xcimg.szwego.com/20240629/i1719627140_7210_7.jpg","https://xcimg.szwego.com/20240629/i1719627140_7485_8.jpg"],"created_at":"2024-12-02T06:17:13.215Z"},{"id":"item-ebf2930bd0c6","sku":"_de1e1HPYTiDbomeyuzGkEs-obOU1TkliFMbp5mQ","name_en":"Coach蔻驰代工厂 渠道货6月新品CT830 温柔清新田园风格的小花款 Coach 蔻驰6月才过去几天,又上新了!心中的清新的田园小花风格一下就有谱了~春夏穿搭加上印花图案,立体感十足! 尺寸24.5。","name_cn":"Coach蔻驰代工厂 渠道货6月新品CT830 温柔清新田园风格的小花款 Coach 蔻驰6月才过去几天,又上新了!心中的清新的田园小花风格一下就有谱了~春夏穿搭加上印花图案,立体感十足! 尺寸24.5。","specs":{"source":"wsxcme","sourceId":"_de1e1HPYTiDbomeyuzGkEs-obOU1TkliFMbp5mQ","sourceTagId":77388356,"sourceTagName":"MCM、寇驰/女包","rawTitle":"Coach蔻驰代工厂 渠道货6月新品CT830 温柔清新田园风格的小花款 Coach 蔻驰6月才过去几天,又上新了!心中的清新的田园小花风格一下就有谱了~春夏穿搭加上印花图案,立体感十足! 尺寸24.5。"},"price":null,"currency":"CNY","moq":1,"category":"mcm-coach-women-bags","status":"active","alibaba_url":null,"images":["https://xcimg.szwego.com/img/7350b429/20240709/i1720482844_5656_0.jpg","https://xcimg.szwego.com/img/7350b429/20240709/i1720482844_2918_0.jpg","https://xcimg.szwego.com/img/7350b429/20240709/i1720482844_8251_0.jpg","https://xcimg.szwego.com/img/7350b429/20240709/i1720482844_6381_0.jpg","https://xcimg.szwego.com/img/7350b429/20240709/i1720482842_3914_3.jpg","https://xcimg.szwego.com/img/7350b429/20240709/i1720482844_5264_0.jpg","https://xcimg.szwego.com/img/7350b429/20240709/i1720482844_4290_0.jpg","https://xcimg.szwego.com/img/7350b429/20240709/i1720482844_5477_0.jpg","https://xcimg.szwego.com/img/7350b429/20240709/i1720482842_6078_4.jpg"],"created_at":"2024-12-02T06:17:13.214Z"},{"id":"item-8005aef76050","sku":"_dAEAEcygIYjJI0dG1eU7MyhoOfzf5ljCw5gcyyw","name_en":"coach蔻驰代工厂 新款茶花马鞍腋下包CU032白 CU536 EMMY 23  两色现货出 尺寸:22.5x13x5cm","name_cn":"coach蔻驰代工厂 新款茶花马鞍腋下包CU032白 CU536 EMMY 23  两色现货出 尺寸:22.5x13x5cm","specs":{"source":"wsxcme","sourceId":"_dAEAEcygIYjJI0dG1eU7MyhoOfzf5ljCw5gcyyw","sourceTagId":77388356,"sourceTagName":"MCM、寇驰/女包","dimensions":{"lengthCm":22.5,"heightCm":13,"widthCm":5},"rawTitle":"coach蔻驰代工厂 新款茶花马鞍腋下包CU032白 CU536 EMMY 23  两色现货出 尺寸:22.5x13x5cm"},"price":null,"currency":"CNY","moq":1,"category":"mcm-coach-women-bags","status":"active","alibaba_url":null,"images":["https://xcimg.szwego.com/img/acc04b4f/20240519/i1716084770_8924_0.jpg","https://xcimg.szwego.com/img/acc04b4f/20240519/i1716084766_3679_5.jpg","https://xcimg.szwego.com/img/acc04b4f/20240519/i1716084770_1619_0.jpg","https://xcimg.szwego.com/img/acc04b4f/20240519/i1716084770_9901_0.jpg","https://xcimg.szwego.com/img/acc04b4f/20240519/i1716084770_8970_0.jpg","https://xcimg.szwego.com/img/acc04b4f/20240519/i1716084766_7650_0.jpg","https://xcimg.szwego.com/img/acc04b4f/20240519/i1716084770_2825_0.jpg","https://xcimg.szwego.com/img/acc04b4f/20240519/i1716084766_4209_4.jpg","https://xcimg.szwego.com/img/acc04b4f/20240519/i1716084770_6088_0.jpg"],"created_at":"2024-12-02T06:17:13.213Z"},{"id":"item-4ebbee5d6104","sku":"_d_5_5R1-1_p4A-0V8ChPeo9ddulCPRFQzePn9qg","name_en":"coach蔻驰代工厂 新款茶花马鞍腋下包CU032白 CU536 EMMY 23  两色现货出 尺寸:22.5x13x5cm","name_cn":"coach蔻驰代工厂 新款茶花马鞍腋下包CU032白 CU536 EMMY 23  两色现货出 尺寸:22.5x13x5cm","specs":{"source":"wsxcme","sourceId":"_d_5_5R1-1_p4A-0V8ChPeo9ddulCPRFQzePn9qg","sourceTagId":77388356,"sourceTagName":"MCM、寇驰/女包","dimensions":{"lengthCm":22.5,"heightCm":13,"widthCm":5},"rawTitle":"coach蔻驰代工厂 新款茶花马鞍腋下包CU032白 CU536 EMMY 23  两色现货出 尺寸:22.5x13x5cm"},"price":null,"currency":"CNY","moq":1,"category":"mcm-coach-women-bags","status":"active","alibaba_url":null,"images":["https://xcimg.szwego.com/img/acc04b4f/20240519/i1716084751_4049_0.jpg","https://xcimg.szwego.com/img/acc04b4f/20240519/i1716084751_9835_0.jpg","https://xcimg.szwego.com/img/acc04b4f/20240519/i1716084751_2047_0.jpg","https://xcimg.szwego.com/img/acc04b4f/20240519/i1716084747_9442_7.jpg","https://xcimg.szwego.com/img/acc04b4f/20240519/i1716084747_176_5.jpg","https://xcimg.szwego.com/img/acc04b4f/20240519/i1716084750_3670_0.jpg","https://xcimg.szwego.com/img/acc04b4f/20240519/i1716084751_2647_0.jpg","https://xcimg.szwego.com/img/acc04b4f/20240519/i1716084751_5606_0.jpg","https://xcimg.szwego.com/img/acc04b4f/20240519/i1716084751_9128_0.jpg"],"created_at":"2024-12-02T06:17:13.212Z"},{"id":"item-703958b34148","sku":"_d8H8H7c_8Us3AZ6DSOkPawpAEVrx32aoFqn5b5Q","name_en":"coach蔻驰代工厂 Coach 6月新款Andrea 真的不能错过呀 CT757 Andrea系列,颜值也太高了吧!简约时尚,百搭又实用!无论是自用还是送人都超有面子! 尺寸21/11/7","name_cn":"coach蔻驰代工厂 Coach 6月新款Andrea 真的不能错过呀 CT757 Andrea系列,颜值也太高了吧!简约时尚,百搭又实用!无论是自用还是送人都超有面子! 尺寸21/11/7","specs":{"source":"wsxcme","sourceId":"_d8H8H7c_8Us3AZ6DSOkPawpAEVrx32aoFqn5b5Q","sourceTagId":77388356,"sourceTagName":"MCM、寇驰/女包","rawTitle":"coach蔻驰代工厂 Coach 6月新款Andrea 真的不能错过呀 CT757 Andrea系列,颜值也太高了吧!简约时尚,百搭又实用!无论是自用还是送人都超有面子! 尺寸21/11/7"},"price":null,"currency":"CNY","moq":1,"category":"mcm-coach-women-bags","status":"active","alibaba_url":null,"images":["https://xcimg.szwego.com/img/acc04b4f/20240621/i1718940934_7214_7.jpg","https://xcimg.szwego.com/img/acc04b4f/20240621/i1718940937_9234_0.jpg","https://xcimg.szwego.com/img/acc04b4f/20240621/i1718940934_8891_1.jpg","https://xcimg.szwego.com/img/acc04b4f/20240621/i1718940937_6698_0.jpg","https://xcimg.szwego.com/img/acc04b4f/20240621/i1718940934_6363_3.jpg","https://xcimg.szwego.com/img/acc04b4f/20240621/i1718940937_6675_0.jpg","https://xcimg.szwego.com/img/acc04b4f/20240621/i1718940937_1445_0.jpg","https://xcimg.szwego.com/img/acc04b4f/20240621/i1718940934_2882_6.jpg","https://xcimg.szwego.com/img/acc04b4f/20240621/i1718940937_2742_0.jpg"],"created_at":"2024-12-02T06:17:13.211Z"},{"id":"item-f46387f1b1f9","sku":"_dSySycKub7bqUjCsmdBgIbd12JQDkHH67BpKQnw","name_en":"coach蔻驰代工厂 Coach 6月新款Andrea 真的不能错过呀 CT757 Andrea系列,颜值也太高了吧!简约时尚,百搭又实用!无论是自用还是送人都超有面子! 尺寸21/11/7","name_cn":"coach蔻驰代工厂 Coach 6月新款Andrea 真的不能错过呀 CT757 Andrea系列,颜值也太高了吧!简约时尚,百搭又实用!无论是自用还是送人都超有面子! 尺寸21/11/7","specs":{"source":"wsxcme","sourceId":"_dSySycKub7bqUjCsmdBgIbd12JQDkHH67BpKQnw","sourceTagId":77388356,"sourceTagName":"MCM、寇驰/女包","rawTitle":"coach蔻驰代工厂 Coach 6月新款Andrea 真的不能错过呀 CT757 Andrea系列,颜值也太高了吧!简约时尚,百搭又实用!无论是自用还是送人都超有面子! 尺寸21/11/7"},"price":null,"currency":"CNY","moq":1,"category":"mcm-coach-women-bags","status":"active","alibaba_url":null,"images":["https://xcimg.szwego.com/img/acc04b4f/20240621/i1718940921_9323_0.jpg","https://xcimg.szwego.com/img/acc04b4f/20240621/i1718940921_6924_0.jpg","https://xcimg.szwego.com/img/acc04b4f/20240621/i1718940921_5604_0.jpg","https://xcimg.szwego.com/img/acc04b4f/20240621/i1718940921_7617_0.jpg","https://xcimg.szwego.com/img/acc04b4f/20240621/i1718940921_9559_0.jpg","https://xcimg.szwego.com/img/acc04b4f/20240621/i1718940921_8876_0.jpg","https://xcimg.szwego.com/img/acc04b4f/20240621/i1718940921_8003_0.jpg","https://xcimg.szwego.com/img/acc04b4f/20240621/i1718940921_9246_0.jpg","https://xcimg.szwego.com/img/acc04b4f/20240621/i1718940921_320_0.jpg"],"created_at":"2024-12-02T06:17:13.210Z"},{"id":"item-257f064c33c3","sku":"_dhJhJ7Q0PTsUL1olT3qLV9KlroLRcmjwUIQg2Tw","name_en":"coach蔻驰代工厂 Coach 6月新款Andrea 真的不能错过呀 CT757 Andrea系列,颜值也太高了吧!简约时尚,百搭又实用!无论是自用还是送人都超有面子! 尺寸21/11/7","name_cn":"coach蔻驰代工厂 Coach 6月新款Andrea 真的不能错过呀 CT757 Andrea系列,颜值也太高了吧!简约时尚,百搭又实用!无论是自用还是送人都超有面子! 尺寸21/11/7","specs":{"source":"wsxcme","sourceId":"_dhJhJ7Q0PTsUL1olT3qLV9KlroLRcmjwUIQg2Tw","sourceTagId":77388356,"sourceTagName":"MCM、寇驰/女包","rawTitle":"coach蔻驰代工厂 Coach 6月新款Andrea 真的不能错过呀 CT757 Andrea系列,颜值也太高了吧!简约时尚,百搭又实用!无论是自用还是送人都超有面子! 尺寸21/11/7"},"price":null,"currency":"CNY","moq":1,"category":"mcm-coach-women-bags","status":"active","alibaba_url":null,"images":["https://xcimg.szwego.com/img/acc04b4f/20240621/i1718940953_3987_0.jpg","https://xcimg.szwego.com/img/acc04b4f/20240621/i1718940954_580_0.jpg","https://xcimg.szwego.com/img/acc04b4f/20240621/i1718940950_6991_2.jpg","https://xcimg.szwego.com/img/acc04b4f/20240621/i1718940953_8636_0.jpg","https://xcimg.szwego.com/img/acc04b4f/20240621/i1718940953_6868_0.jpg","https://xcimg.szwego.com/img/acc04b4f/20240621/i1718940953_1110_0.jpg","https://xcimg.szwego.com/img/acc04b4f/20240621/i1718940950_4822_1.jpg","https://xcimg.szwego.com/img/acc04b4f/20240621/i1718940954_9750_0.jpg","https://xcimg.szwego.com/img/acc04b4f/20240621/i1718940953_3735_0.jpg"],"created_at":"2024-12-02T06:17:13.209Z"},{"id":"item-485df44cc31e","sku":"_d9s9sxtI9pjFJwLzz-SNLDNhfLpD3V7Thg1A2oA","name_en":"coach蔻驰代工厂 Coach 6月新款Andrea 马车相机包 CT778 真的不能错过呀 颜值也太高了吧!简约时尚,百搭又实用! 无论是自用还是送人都超有面子! 尺寸19/11/5","name_cn":"coach蔻驰代工厂 Coach 6月新款Andrea 马车相机包 CT778 真的不能错过呀 颜值也太高了吧!简约时尚,百搭又实用! 无论是自用还是送人都超有面子! 尺寸19/11/5","specs":{"source":"wsxcme","sourceId":"_d9s9sxtI9pjFJwLzz-SNLDNhfLpD3V7Thg1A2oA","sourceTagId":77388356,"sourceTagName":"MCM、寇驰/女包","rawTitle":"coach蔻驰代工厂 Coach 6月新款Andrea 马车相机包 CT778 真的不能错过呀 颜值也太高了吧!简约时尚,百搭又实用! 无论是自用还是送人都超有面子! 尺寸19/11/5"},"price":null,"currency":"CNY","moq":1,"category":"mcm-coach-women-bags","status":"active","alibaba_url":null,"images":["https://xcimg.szwego.com/20240616/i1718516961_7782_0.jpg","https://xcimg.szwego.com/20240616/i1718516961_7386_1.jpg","https://xcimg.szwego.com/20240616/i1718516961_5015_2.jpg","https://xcimg.szwego.com/20240616/i1718516961_9841_3.jpg","https://xcimg.szwego.com/20240616/i1718516961_9350_4.jpg","https://xcimg.szwego.com/20240616/i1718516961_9150_5.jpg","https://xcimg.szwego.com/20240616/i1718516961_8392_6.jpg","https://xcimg.szwego.com/20240616/i1718516961_6974_7.jpg","https://xcimg.szwego.com/20240616/i1718516961_7540_8.jpg"],"created_at":"2024-12-02T06:17:13.208Z"},{"id":"item-1ebe06828481","sku":"_dl6l6z12Psl_UPDNgqlMUSNa1qd5FLej9pzJdXg","name_en":"coach蔻驰代工厂 Coach 6月新款Andrea 马车相机包 CT778 真的不能错过呀 颜值也太高了吧!简约时尚,百搭又实用! 无论是自用还是送人都超有面子! 尺寸19/11/5","name_cn":"coach蔻驰代工厂 Coach 6月新款Andrea 马车相机包 CT778 真的不能错过呀 颜值也太高了吧!简约时尚,百搭又实用! 无论是自用还是送人都超有面子! 尺寸19/11/5","specs":{"source":"wsxcme","sourceId":"_dl6l6z12Psl_UPDNgqlMUSNa1qd5FLej9pzJdXg","sourceTagId":77388356,"sourceTagName":"MCM、寇驰/女包","rawTitle":"coach蔻驰代工厂 Coach 6月新款Andrea 马车相机包 CT778 真的不能错过呀 颜值也太高了吧!简约时尚,百搭又实用! 无论是自用还是送人都超有面子! 尺寸19/11/5"},"price":null,"currency":"CNY","moq":1,"category":"mcm-coach-women-bags","status":"active","alibaba_url":null,"images":["https://xcimg.szwego.com/20240616/i1718516941_2139_0.jpg","https://xcimg.szwego.com/20240616/i1718516941_8336_1.jpg","https://xcimg.szwego.com/20240616/i1718516941_4210_2.jpg","https://xcimg.szwego.com/20240616/i1718516941_3280_3.jpg","https://xcimg.szwego.com/20240616/i1718516941_3779_4.jpg","https://xcimg.szwego.com/20240616/i1718516941_5881_5.jpg","https://xcimg.szwego.com/20240616/i1718516941_2240_6.jpg","https://xcimg.szwego.com/20240616/i1718516941_1200_7.jpg","https://xcimg.szwego.com/20240616/i1718516941_880_8.jpg"],"created_at":"2024-12-02T06:17:13.207Z"},{"id":"item-e2766e1a3dcf","sku":"_dtRtRzlufMRfXZ0r9fXmKnsBlN4Y6j3MzE155tQ","name_en":"coach蔻驰代工厂 Coach 6月新款Andrea 马车相机包 CT778 真的不能错过呀 颜值也太高了吧!简约时尚,百搭又实用! 无论是自用还是送人都超有面子! 尺寸19/11/5","name_cn":"coach蔻驰代工厂 Coach 6月新款Andrea 马车相机包 CT778 真的不能错过呀 颜值也太高了吧!简约时尚,百搭又实用! 无论是自用还是送人都超有面子! 尺寸19/11/5","specs":{"source":"wsxcme","sourceId":"_dtRtRzlufMRfXZ0r9fXmKnsBlN4Y6j3MzE155tQ","sourceTagId":77388356,"sourceTagName":"MCM、寇驰/女包","rawTitle":"coach蔻驰代工厂 Coach 6月新款Andrea 马车相机包 CT778 真的不能错过呀 颜值也太高了吧!简约时尚,百搭又实用! 无论是自用还是送人都超有面子! 尺寸19/11/5"},"price":null,"currency":"CNY","moq":1,"category":"mcm-coach-women-bags","status":"active","alibaba_url":null,"images":["https://xcimg.szwego.com/20240616/i1718516847_9623_0.jpg","https://xcimg.szwego.com/20240616/i1718516847_7662_1.jpg","https://xcimg.szwego.com/20240616/i1718516847_2870_2.jpg","https://xcimg.szwego.com/20240616/i1718516847_1389_3.jpg","https://xcimg.szwego.com/20240616/i1718516847_9257_4.jpg","https://xcimg.szwego.com/20240616/i1718516847_6476_5.jpg","https://xcimg.szwego.com/20240616/i1718516847_1685_6.jpg","https://xcimg.szwego.com/20240616/i1718516847_963_7.jpg","https://xcimg.szwego.com/20240616/i1718516847_645_8.jpg"],"created_at":"2024-12-02T06:17:13.206Z"},{"id":"item-a1223a7693bb","sku":"_dn3n31tRHv8TRdMaGgrPcwJ4jXwS8KIvJzzsQlw","name_en":"coach蔻驰代工厂 Coach 6月新款Andrea 马车相机包 CT778 真的不能错过呀 颜值也太高了吧!简约时尚,百搭又实用! 无论是自用还是送人都超有面子! 尺寸19/11/5","name_cn":"coach蔻驰代工厂 Coach 6月新款Andrea 马车相机包 CT778 真的不能错过呀 颜值也太高了吧!简约时尚,百搭又实用! 无论是自用还是送人都超有面子! 尺寸19/11/5","specs":{"source":"wsxcme","sourceId":"_dn3n31tRHv8TRdMaGgrPcwJ4jXwS8KIvJzzsQlw","sourceTagId":77388356,"sourceTagName":"MCM、寇驰/女包","rawTitle":"coach蔻驰代工厂 Coach 6月新款Andrea 马车相机包 CT778 真的不能错过呀 颜值也太高了吧!简约时尚,百搭又实用! 无论是自用还是送人都超有面子! 尺寸19/11/5"},"price":null,"currency":"CNY","moq":1,"category":"mcm-coach-women-bags","status":"active","alibaba_url":null,"images":["https://xcimg.szwego.com/20240616/i1718516709_1572_0.jpg","https://xcimg.szwego.com/20240616/i1718516709_204_1.jpg","https://xcimg.szwego.com/20240616/i1718516709_9949_2.jpg","https://xcimg.szwego.com/20240616/i1718516709_6475_3.jpg","https://xcimg.szwego.com/20240616/i1718516709_9619_4.jpg","https://xcimg.szwego.com/20240616/i1718516709_746_5.jpg","https://xcimg.szwego.com/20240616/i1718516709_2738_6.jpg","https://xcimg.szwego.com/20240616/i1718516709_386_7.jpg","https://xcimg.szwego.com/20240616/i1718516709_2819_8.jpg"],"created_at":"2024-12-02T06:17:13.205Z"},{"id":"item-65f3388ef188","sku":"_d0b0b6DDpxCn1Cstg6QK7EqDx4Y5QzzUGqDT68w","name_en":"COACH蔻驰代工厂 渠道货5月新款Coach蔻驰 草编材质迷你托特hannA水桶Teri腋下斜挎包,尺寸:23*20.5*10.5","name_cn":"COACH蔻驰代工厂 渠道货5月新款Coach蔻驰 草编材质迷你托特hannA水桶Teri腋下斜挎包,尺寸:23*20.5*10.5","specs":{"source":"wsxcme","sourceId":"_d0b0b6DDpxCn1Cstg6QK7EqDx4Y5QzzUGqDT68w","sourceTagId":77388356,"sourceTagName":"MCM、寇驰/女包","rawTitle":"COACH蔻驰代工厂 渠道货5月新款Coach蔻驰 草编材质迷你托特hannA水桶Teri腋下斜挎包,尺寸:23*20.5*10.5"},"price":null,"currency":"CNY","moq":1,"category":"mcm-coach-women-bags","status":"active","alibaba_url":null,"images":["https://xcimg.szwego.com/20240629/i1719628041_7153_0.jpg","https://xcimg.szwego.com/20240629/i1719628041_7361_1.jpg","https://xcimg.szwego.com/20240629/i1719628041_837_2.jpg","https://xcimg.szwego.com/20240629/i1719628041_3971_3.jpg","https://xcimg.szwego.com/20240629/i1719628041_495_4.jpg","https://xcimg.szwego.com/20240629/i1719628041_467_5.jpg","https://xcimg.szwego.com/20240629/i1719628041_1476_6.jpg","https://xcimg.szwego.com/20240629/i1719628041_9172_7.jpg","https://xcimg.szwego.com/20240629/i1719628041_8450_8.jpg"],"created_at":"2024-12-02T06:17:13.204Z"},{"id":"item-9d35530bcd56","sku":"_dpgpgtgtZUaj2bWulUXZmQ5TrURyY_7jTWXZ5nQ","name_en":"Coach dempsey 30托特","name_cn":"Coach dempsey 30托特\n秋冬更适合大一点点的托特,30尺寸刚刚好。可以放下平板,适合通勤。\n经典的格纹和温柔的米色就很搭🤔️","specs":{"source":"wsxcme","sourceId":"_dpgpgtgtZUaj2bWulUXZmQ5TrURyY_7jTWXZ5nQ","sourceTagId":77388356,"sourceTagName":"MCM、寇驰/女包","rawTitle":"Coach dempsey 30托特\n秋冬更适合大一点点的托特,30尺寸刚刚好。可以放下平板,适合通勤。\n经典的格纹和温柔的米色就很搭🤔️"},"price":null,"currency":"CNY","moq":1,"category":"mcm-coach-women-bags","status":"active","alibaba_url":null,"images":["https://xcimg.szwego.com/img/aa892012/20231013/i1697176706_832_0.jpg","https://xcimg.szwego.com/img/aa892012/20231013/i1697176706_1809_1.jpg","https://xcimg.szwego.com/img/aa892012/20231013/i1697176706_2819_2.jpg","https://xcimg.szwego.com/img/aa892012/20231013/i1697176706_661_3.jpg","https://xcimg.szwego.com/img/aa892012/20231013/i1697176706_6287_4.jpg","https://xcimg.szwego.com/img/aa892012/20231013/i1697176706_2256_5.jpg","https://xcimg.szwego.com/img/aa892012/20231013/i1697176706_4307_6.jpg"],"created_at":"2024-12-02T06:17:13.203Z"},{"id":"item-d1b0a7e72fba","sku":"_db4b4IsscYb0mNwCQ641sSxOnhwTP-YbazKlELg","name_en":"COACH Dempsey Tote 30圣诞红色❤️","name_cn":"COACH Dempsey Tote 30圣诞红色❤️\n绯红色皮革和织布提花的碰撞~更显热烈和真挚\n可单肩可斜挎可手提👋\n如果信仰有颜色~ 那一定是中国红🇨🇳","specs":{"source":"wsxcme","sourceId":"_db4b4IsscYb0mNwCQ641sSxOnhwTP-YbazKlELg","sourceTagId":77388356,"sourceTagName":"MCM、寇驰/女包","rawTitle":"COACH Dempsey Tote 30圣诞红色❤️\n绯红色皮革和织布提花的碰撞~更显热烈和真挚\n可单肩可斜挎可手提👋\n如果信仰有颜色~ 那一定是中国红🇨🇳"},"price":null,"currency":"CNY","moq":1,"category":"mcm-coach-women-bags","status":"active","alibaba_url":null,"images":["https://xcimg.szwego.com/img/aa892012/20231013/i1697176375_9680_0.jpg","https://xcimg.szwego.com/img/aa892012/20231013/i1697176375_4391_1.jpg","https://xcimg.szwego.com/img/aa892012/20231013/i1697176375_8354_2.jpg","https://xcimg.szwego.com/img/aa892012/20231013/i1697176375_9765_3.jpg","https://xcimg.szwego.com/img/aa892012/20231013/i1697176375_9121_4.jpg","https://xcimg.szwego.com/img/aa892012/20231013/i1697176375_5160_5.jpg","https://xcimg.szwego.com/img/aa892012/20231013/i1697176375_7865_6.jpg","https://xcimg.szwego.com/img/aa892012/20231013/i1697176375_8280_7.jpg","https://xcimg.szwego.com/img/aa892012/20231013/i1697176375_2360_8.jpg"],"created_at":"2024-12-02T06:17:13.202Z"}],"page":5,"pageSize":24,"total":254,"totalPages":11}
