{"items":[{"id":"item-c61ed11f0cbf","sku":"_djSjSQa3iC6p6CbRrxuCoRQoRGMcJcDSMj4z4Yg","name_en":"款号: CH537 Coach HANNA 系列 满满的高级感和匠心工艺细节! 特别是侧边油边的抓褶设计,让版型温柔又立体! 容量就不用多说了,延续传统水桶包的大容量功能性,双可拆卸肩带,实用又百搭  整款包牛皮材质,气质感满满 磁扣开合,便捷又安全 特别适合气质高雅的小姐姐们","name_cn":"款号: CH537 Coach HANNA 系列 满满的高级感和匠心工艺细节! 特别是侧边油边的抓褶设计,让版型温柔又立体! 容量就不用多说了,延续传统水桶包的大容量功能性,双可拆卸肩带,实用又百搭  整款包牛皮材质,气质感满满 磁扣开合,便捷又安全 特别适合气质高雅的小姐姐们 \n尺寸:23.5*22*11","specs":{"source":"wsxcme","sourceId":"_djSjSQa3iC6p6CbRrxuCoRQoRGMcJcDSMj4z4Yg","sourceTagId":77388356,"sourceTagName":"MCM、寇驰/女包","modelNumber":"CH537 Coach HANNA 系列 满满的高级感和匠心工艺细节! 特别是侧边油边的抓褶设计","rawTitle":"款号: CH537 Coach HANNA 系列 满满的高级感和匠心工艺细节! 特别是侧边油边的抓褶设计,让版型温柔又立体! 容量就不用多说了,延续传统水桶包的大容量功能性,双可拆卸肩带,实用又百搭  整款包牛皮材质,气质感满满 磁扣开合,便捷又安全 特别适合气质高雅的小姐姐们 \n尺寸:23.5*22*11"},"price":null,"currency":"CNY","moq":1,"category":"mcm-coach-women-bags","status":"active","alibaba_url":null,"images":["https://xcimg.szwego.com/20230503/i1683051039_2283_0.jpg","https://xcimg.szwego.com/20230503/i1683051039_5826_1.jpg","https://xcimg.szwego.com/20230503/i1683051039_3264_2.jpg","https://xcimg.szwego.com/20230503/i1683051039_8109_3.jpg","https://xcimg.szwego.com/20230503/i1683051039_7975_4.jpg","https://xcimg.szwego.com/20230503/i1683051039_2250_5.jpg","https://xcimg.szwego.com/20230503/i1683051039_4703_6.jpg","https://xcimg.szwego.com/20230503/i1683051039_8943_7.jpg"],"created_at":"2024-12-02T06:17:13.201Z"},{"id":"item-b5bdec8fc4cc","sku":"_doEoERWTUFzZXpL1judQKFK-UVgQ0QGSa3BRCQg","name_en":"款号: CH194  Coach HANNA 系列 满满的高级感和匠心工艺细节! 特别是侧边油边的抓褶设计,让版型温柔又立体! 容量就不用多说了,延续传统水桶包的大容量功能性,双可拆卸肩带,实用又百搭  整款包牛皮材质,气质感满满 磁扣开合,便捷又安全 特别适合气质高雅的小姐姐们","name_cn":"款号: CH194  Coach HANNA 系列 满满的高级感和匠心工艺细节! 特别是侧边油边的抓褶设计,让版型温柔又立体! 容量就不用多说了,延续传统水桶包的大容量功能性,双可拆卸肩带,实用又百搭  整款包牛皮材质,气质感满满 磁扣开合,便捷又安全 特别适合气质高雅的小姐姐们 \n尺寸:23.5*22*11","specs":{"source":"wsxcme","sourceId":"_doEoERWTUFzZXpL1judQKFK-UVgQ0QGSa3BRCQg","sourceTagId":77388356,"sourceTagName":"MCM、寇驰/女包","modelNumber":"CH194  Coach HANNA 系列 满满的高级感和匠心工艺细节! 特别是侧边油边的抓褶设计","rawTitle":"款号: CH194  Coach HANNA 系列 满满的高级感和匠心工艺细节! 特别是侧边油边的抓褶设计,让版型温柔又立体! 容量就不用多说了,延续传统水桶包的大容量功能性,双可拆卸肩带,实用又百搭  整款包牛皮材质,气质感满满 磁扣开合,便捷又安全 特别适合气质高雅的小姐姐们 \n尺寸:23.5*22*11"},"price":null,"currency":"CNY","moq":1,"category":"mcm-coach-women-bags","status":"active","alibaba_url":null,"images":["https://xcimg.szwego.com/20230503/i1683051407_5217_0.jpg","https://xcimg.szwego.com/20230503/i1683051407_6224_1.jpg","https://xcimg.szwego.com/20230503/i1683051407_4071_2.jpg","https://xcimg.szwego.com/20230503/i1683051407_7504_3.jpg","https://xcimg.szwego.com/20230503/i1683051407_5551_4.jpg","https://xcimg.szwego.com/20230503/i1683051407_5155_5.jpg"],"created_at":"2024-12-02T06:17:13.200Z"},{"id":"item-c8dfe68647d3","sku":"_dkXkXGwxddCktE1mhHMl_GwtpZlPvvREMIVQX0A","name_en":"款号: CH191 Coach HANNA 系列 满满的高级感和匠心工艺细节! 特别是侧边油边的抓褶设计,让版型温柔又立体! 容量就不用多说了,延续传统水桶包的大容量功能性,双可拆卸肩带,实用又百搭  整款包老花PVC材质,气质感满满 磁扣开合,便捷又安全 特别适合气质高雅的小姐姐们","name_cn":"款号: CH191 Coach HANNA 系列 满满的高级感和匠心工艺细节! 特别是侧边油边的抓褶设计,让版型温柔又立体! 容量就不用多说了,延续传统水桶包的大容量功能性,双可拆卸肩带,实用又百搭  整款包老花PVC材质,气质感满满 磁扣开合,便捷又安全 特别适合气质高雅的小姐姐们 \n尺寸:23.5*22*11","specs":{"source":"wsxcme","sourceId":"_dkXkXGwxddCktE1mhHMl_GwtpZlPvvREMIVQX0A","sourceTagId":77388356,"sourceTagName":"MCM、寇驰/女包","modelNumber":"CH191 Coach HANNA 系列 满满的高级感和匠心工艺细节! 特别是侧边油边的抓褶设计","rawTitle":"款号: CH191 Coach HANNA 系列 满满的高级感和匠心工艺细节! 特别是侧边油边的抓褶设计,让版型温柔又立体! 容量就不用多说了,延续传统水桶包的大容量功能性,双可拆卸肩带,实用又百搭  整款包老花PVC材质,气质感满满 磁扣开合,便捷又安全 特别适合气质高雅的小姐姐们 \n尺寸:23.5*22*11"},"price":null,"currency":"CNY","moq":1,"category":"mcm-coach-women-bags","status":"active","alibaba_url":null,"images":["https://xcimg.szwego.com/20230503/i1683051518_3094_0.jpg","https://xcimg.szwego.com/20230503/i1683051518_116_1.jpg","https://xcimg.szwego.com/20230503/i1683051518_5883_2.jpg","https://xcimg.szwego.com/20230503/i1683051518_5794_3.jpg","https://xcimg.szwego.com/20230503/i1683051518_349_4.jpg","https://xcimg.szwego.com/20230503/i1683051518_8172_5.jpg","https://xcimg.szwego.com/20230503/i1683051518_7785_6.jpg","https://xcimg.szwego.com/20230503/i1683051518_8731_7.jpg"],"created_at":"2024-12-02T06:17:13.199Z"},{"id":"item-342f9c2c33a4","sku":"_dpOpOiLvHDSLo5KZ7GQa-YjB4FMGcm0EAxetdgQ","name_en":"款号:CE331  Coach 法棍包 STUDIO BAGUETTE 底部20尺寸,恰到好处的迷人长度,高度也刚刚好放进去手机 口红,钥匙 等小小必备品  同时配有2条可拆肩带,腋下肩带和休闲轻松斜挎肩带  经典的款式,简约的版型  纯色就是基础色 百搭任何色系衣服 万能百搭款","name_cn":"款号:CE331  Coach 法棍包 STUDIO BAGUETTE 底部20尺寸,恰到好处的迷人长度,高度也刚刚好放进去手机 口红,钥匙 等小小必备品  同时配有2条可拆肩带,腋下肩带和休闲轻松斜挎肩带  经典的款式,简约的版型  纯色就是基础色 百搭任何色系衣服 万能百搭款 \n尺寸:20*10*7","specs":{"source":"wsxcme","sourceId":"_dpOpOiLvHDSLo5KZ7GQa-YjB4FMGcm0EAxetdgQ","sourceTagId":77388356,"sourceTagName":"MCM、寇驰/女包","modelNumber":"CE331  Coach 法棍包 STUDIO BAGUETTE 底部20尺寸","rawTitle":"款号:CE331  Coach 法棍包 STUDIO BAGUETTE 底部20尺寸,恰到好处的迷人长度,高度也刚刚好放进去手机 口红,钥匙 等小小必备品  同时配有2条可拆肩带,腋下肩带和休闲轻松斜挎肩带  经典的款式,简约的版型  纯色就是基础色 百搭任何色系衣服 万能百搭款 \n尺寸:20*10*7"},"price":null,"currency":"CNY","moq":1,"category":"mcm-coach-women-bags","status":"active","alibaba_url":null,"images":["https://xcimg.szwego.com/20221212/i1670804299_5972_0.jpg","https://xcimg.szwego.com/20221212/i1670804299_8173_1.jpg","https://xcimg.szwego.com/20221212/i1670804299_2837_2.jpg","https://xcimg.szwego.com/20221212/i1670804299_7718_3.jpg","https://xcimg.szwego.com/20221212/i1670804299_7304_4.jpg","https://xcimg.szwego.com/20221212/i1670804299_2859_5.jpg","https://xcimg.szwego.com/20221212/i1670804299_2795_6.jpg","https://xcimg.szwego.com/20221212/i1670804299_1378_7.jpg","https://xcimg.szwego.com/20221212/i1670804299_2022_8.jpg"],"created_at":"2024-12-02T06:17:13.198Z"},{"id":"item-2947057106b9","sku":"_djfjfqhMwdRK8Zj5hL_gp9h7UpzYLDXeCQyNxAg","name_en":"款号:CE331  Coach 法棍包 STUDIO BAGUETTE 底部20尺寸,恰到好处的迷人长度,高度也刚刚好放进去手机 口红,钥匙 等小小必备品  同时配有2条可拆肩带,腋下肩带和休闲轻松斜挎肩带  经典的款式,简约的版型  纯色就是基础色 百搭任何色系衣服 万能百搭款","name_cn":"款号:CE331  Coach 法棍包 STUDIO BAGUETTE 底部20尺寸,恰到好处的迷人长度,高度也刚刚好放进去手机 口红,钥匙 等小小必备品  同时配有2条可拆肩带,腋下肩带和休闲轻松斜挎肩带  经典的款式,简约的版型  纯色就是基础色 百搭任何色系衣服 万能百搭款 \n尺寸:20*10*7","specs":{"source":"wsxcme","sourceId":"_djfjfqhMwdRK8Zj5hL_gp9h7UpzYLDXeCQyNxAg","sourceTagId":77388356,"sourceTagName":"MCM、寇驰/女包","modelNumber":"CE331  Coach 法棍包 STUDIO BAGUETTE 底部20尺寸","rawTitle":"款号:CE331  Coach 法棍包 STUDIO BAGUETTE 底部20尺寸,恰到好处的迷人长度,高度也刚刚好放进去手机 口红,钥匙 等小小必备品  同时配有2条可拆肩带,腋下肩带和休闲轻松斜挎肩带  经典的款式,简约的版型  纯色就是基础色 百搭任何色系衣服 万能百搭款 \n尺寸:20*10*7"},"price":null,"currency":"CNY","moq":1,"category":"mcm-coach-women-bags","status":"active","alibaba_url":null,"images":["https://xcimg.szwego.com/20221219/i1671436024_6365_0.jpg","https://xcimg.szwego.com/20221219/i1671436024_5649_1.jpg","https://xcimg.szwego.com/20221219/i1671436024_993_2.jpg","https://xcimg.szwego.com/20221219/i1671436024_7513_3.jpg","https://xcimg.szwego.com/20221219/i1671436024_4135_4.jpg","https://xcimg.szwego.com/20221219/i1671436024_725_5.jpg","https://xcimg.szwego.com/20221219/i1671436024_3802_6.jpg","https://xcimg.szwego.com/20221219/i1671436024_5838_7.jpg","https://xcimg.szwego.com/20221219/i1671436024_4994_8.jpg"],"created_at":"2024-12-02T06:17:13.197Z"},{"id":"item-98959a8d1aab","sku":"_dowowgj92HAXUlbHpItb6_x6GB87s-DGSvb7XeQ","name_en":"款号:CE331  Coach 法棍包 STUDIO BAGUETTE 底部20尺寸,恰到好处的迷人长度,高度也刚刚好放进去手机 口红,钥匙 等小小必备品  同时配有2条可拆肩带,腋下肩带和休闲轻松斜挎肩带  经典的款式,简约的版型  纯色就是基础色 百搭任何色系衣服 万能百搭款","name_cn":"款号:CE331  Coach 法棍包 STUDIO BAGUETTE 底部20尺寸,恰到好处的迷人长度,高度也刚刚好放进去手机 口红,钥匙 等小小必备品  同时配有2条可拆肩带,腋下肩带和休闲轻松斜挎肩带  经典的款式,简约的版型  纯色就是基础色 百搭任何色系衣服 万能百搭款 \n尺寸:20*10*7","specs":{"source":"wsxcme","sourceId":"_dowowgj92HAXUlbHpItb6_x6GB87s-DGSvb7XeQ","sourceTagId":77388356,"sourceTagName":"MCM、寇驰/女包","modelNumber":"CE331  Coach 法棍包 STUDIO BAGUETTE 底部20尺寸","rawTitle":"款号:CE331  Coach 法棍包 STUDIO BAGUETTE 底部20尺寸,恰到好处的迷人长度,高度也刚刚好放进去手机 口红,钥匙 等小小必备品  同时配有2条可拆肩带,腋下肩带和休闲轻松斜挎肩带  经典的款式,简约的版型  纯色就是基础色 百搭任何色系衣服 万能百搭款 \n尺寸:20*10*7"},"price":null,"currency":"CNY","moq":1,"category":"mcm-coach-women-bags","status":"active","alibaba_url":null,"images":["https://xcimg.szwego.com/20221219/i1671436068_7291_0.jpg","https://xcimg.szwego.com/20221219/i1671436068_6885_1.jpg","https://xcimg.szwego.com/20221219/i1671436068_799_2.jpg","https://xcimg.szwego.com/20221219/i1671436068_8152_3.jpg","https://xcimg.szwego.com/20221219/i1671436068_9654_4.jpg","https://xcimg.szwego.com/20221219/i1671436068_2069_5.jpg","https://xcimg.szwego.com/20221219/i1671436068_7402_6.jpg","https://xcimg.szwego.com/20221219/i1671436068_4636_7.jpg","https://xcimg.szwego.com/20221219/i1671436068_1542_8.jpg"],"created_at":"2024-12-02T06:17:13.196Z"},{"id":"item-47fc90150bab","sku":"_dbFbFWTVMP-sNQNt7OvKfA2DJJth5mRvYEGTMwQ","name_en":"【coach顶级】CH139 Teri腋下包香布雷系列,二条肩带,奢华细腻的面料搭配时尚雅致的Teri腋下包,更加活力和年轻自信~百搭休闲不过时,可腋下可以斜挎,非常实用,尺寸24*15*8","name_cn":"【coach顶级】CH139 Teri腋下包香布雷系列,二条肩带,奢华细腻的面料搭配时尚雅致的Teri腋下包,更加活力和年轻自信~百搭休闲不过时,可腋下可以斜挎,非常实用,尺寸24*15*8","specs":{"source":"wsxcme","sourceId":"_dbFbFWTVMP-sNQNt7OvKfA2DJJth5mRvYEGTMwQ","sourceTagId":77388356,"sourceTagName":"MCM、寇驰/女包","rawTitle":"【coach顶级】CH139 Teri腋下包香布雷系列,二条肩带,奢华细腻的面料搭配时尚雅致的Teri腋下包,更加活力和年轻自信~百搭休闲不过时,可腋下可以斜挎,非常实用,尺寸24*15*8"},"price":null,"currency":"CNY","moq":1,"category":"mcm-coach-women-bags","status":"active","alibaba_url":null,"images":["https://xcimg.szwego.com/20230429/i1682740343_842_0.jpg","https://xcimg.szwego.com/20230429/i1682740343_1883_1.jpg","https://xcimg.szwego.com/20230429/i1682740343_441_2.jpg","https://xcimg.szwego.com/20230429/i1682740343_8054_3.jpg","https://xcimg.szwego.com/20230429/i1682740343_1951_4.jpg","https://xcimg.szwego.com/20230429/i1682740343_4485_5.jpg","https://xcimg.szwego.com/20230429/i1682740343_4753_6.jpg","https://xcimg.szwego.com/20230429/i1682740343_9258_7.jpg","https://xcimg.szwego.com/20230429/i1682740343_2617_8.jpg"],"created_at":"2024-12-02T06:17:13.195Z"},{"id":"item-19d388c7648a","sku":"_dAsAsGrNMmTPYn1PgUUSZYoinkXSqejPRGnMfUQ","name_en":"【Coach纯原顶级】CC323 二色纯原高品质,Teri系列Pvc配皮,二条肩带,手感舒适的鹅卵石材质,头层牛皮,拉链弧度上身非常好看,月牙包型,妥妥的大号麻将包,区别市场品质,尺寸:24*15*7.5cm","name_cn":"【Coach纯原顶级】CC323 二色纯原高品质,Teri系列Pvc配皮,二条肩带,手感舒适的鹅卵石材质,头层牛皮,拉链弧度上身非常好看,月牙包型,妥妥的大号麻将包,区别市场品质,尺寸:24*15*7.5cm","specs":{"source":"wsxcme","sourceId":"_dAsAsGrNMmTPYn1PgUUSZYoinkXSqejPRGnMfUQ","sourceTagId":77388356,"sourceTagName":"MCM、寇驰/女包","dimensions":{"lengthCm":24,"heightCm":15,"widthCm":7.5},"rawTitle":"【Coach纯原顶级】CC323 二色纯原高品质,Teri系列Pvc配皮,二条肩带,手感舒适的鹅卵石材质,头层牛皮,拉链弧度上身非常好看,月牙包型,妥妥的大号麻将包,区别市场品质,尺寸:24*15*7.5cm"},"price":null,"currency":"CNY","moq":1,"category":"mcm-coach-women-bags","status":"active","alibaba_url":null,"images":["https://xcimg.szwego.com/20230322/i1679454597_658_0.jpg","https://xcimg.szwego.com/20230322/i1679454597_7669_1.jpg","https://xcimg.szwego.com/20230322/i1679454597_7335_2.jpg","https://xcimg.szwego.com/20230322/i1679454597_9655_3.jpg","https://xcimg.szwego.com/20230322/i1679454597_2757_4.jpg","https://xcimg.szwego.com/20230322/i1679454597_6378_5.jpg","https://xcimg.szwego.com/20230322/i1679454597_6887_6.jpg","https://xcimg.szwego.com/20230322/i1679454597_4014_7.jpg","https://xcimg.szwego.com/20230322/i1679454597_9827_8.jpg"],"created_at":"2024-12-02T06:17:13.194Z"},{"id":"item-30603f20116e","sku":"_d9n9nUOCA5_Fg38-a_ne53VldI4dN4Xc1c1kUmA","name_en":"【Coach纯原顶级】CC323 二色纯原高品质,Teri系列Pvc配皮,二条肩带,手感舒适的鹅卵石材质,头层牛皮,拉链弧度上身非常好看,月牙包型,妥妥的大号麻将包,区别市场品质,尺寸:24*15*7.5cm","name_cn":"【Coach纯原顶级】CC323 二色纯原高品质,Teri系列Pvc配皮,二条肩带,手感舒适的鹅卵石材质,头层牛皮,拉链弧度上身非常好看,月牙包型,妥妥的大号麻将包,区别市场品质,尺寸:24*15*7.5cm","specs":{"source":"wsxcme","sourceId":"_d9n9nUOCA5_Fg38-a_ne53VldI4dN4Xc1c1kUmA","sourceTagId":77388356,"sourceTagName":"MCM、寇驰/女包","dimensions":{"lengthCm":24,"heightCm":15,"widthCm":7.5},"rawTitle":"【Coach纯原顶级】CC323 二色纯原高品质,Teri系列Pvc配皮,二条肩带,手感舒适的鹅卵石材质,头层牛皮,拉链弧度上身非常好看,月牙包型,妥妥的大号麻将包,区别市场品质,尺寸:24*15*7.5cm"},"price":null,"currency":"CNY","moq":1,"category":"mcm-coach-women-bags","status":"active","alibaba_url":null,"images":["https://xcimg.szwego.com/20230322/i1679453722_7855_0.jpg","https://xcimg.szwego.com/20230322/i1679453722_4468_1.jpg","https://xcimg.szwego.com/20230322/i1679453722_3060_2.jpg","https://xcimg.szwego.com/20230322/i1679453722_2232_3.jpg","https://xcimg.szwego.com/20230322/i1679453722_7329_4.jpg","https://xcimg.szwego.com/20230322/i1679453722_5428_5.jpg","https://xcimg.szwego.com/20230322/i1679453722_5291_6.jpg","https://xcimg.szwego.com/20230322/i1679453722_2905_7.jpg","https://xcimg.szwego.com/20230322/i1679453722_7445_8.jpg"],"created_at":"2024-12-02T06:17:13.193Z"},{"id":"item-3ffe017aa58a","sku":"_dKEKEaY4hC0sEL7OVL2DV8oAPOVIJn6Kh9K0VCg","name_en":"款号:C9158  coach经典标志提花织物League 信使包 超大容量的内存,卡扣开合 多功能收纳小口袋,外置还有一个隐藏口袋 肩带可调节 妥妥的运动休闲风的不二之选","name_cn":"款号:C9158  coach经典标志提花织物League 信使包 超大容量的内存,卡扣开合 多功能收纳小口袋,外置还有一个隐藏口袋 肩带可调节 妥妥的运动休闲风的不二之选 \n尺寸:29*19*8","specs":{"source":"wsxcme","sourceId":"_dKEKEaY4hC0sEL7OVL2DV8oAPOVIJn6Kh9K0VCg","sourceTagId":77388356,"sourceTagName":"MCM、寇驰/女包","modelNumber":"C9158  coach经典标志提花织物League 信使包 超大容量的内存","rawTitle":"款号:C9158  coach经典标志提花织物League 信使包 超大容量的内存,卡扣开合 多功能收纳小口袋,外置还有一个隐藏口袋 肩带可调节 妥妥的运动休闲风的不二之选 \n尺寸:29*19*8"},"price":null,"currency":"CNY","moq":1,"category":"mcm-coach-women-bags","status":"active","alibaba_url":null,"images":["https://xcimg.szwego.com/20230516/i1684221774_190_0.jpg","https://xcimg.szwego.com/20230516/i1684221774_4720_1.jpg","https://xcimg.szwego.com/20230516/i1684221774_5673_2.jpg","https://xcimg.szwego.com/20230516/i1684221774_51_3.jpg","https://xcimg.szwego.com/20230516/i1684221774_53_4.jpg","https://xcimg.szwego.com/20230516/i1684221774_4839_5.jpg","https://xcimg.szwego.com/20230516/i1684221774_4059_6.jpg","https://xcimg.szwego.com/20230516/i1684221774_7458_7.jpg","https://xcimg.szwego.com/20230516/i1684221774_2650_8.jpg"],"created_at":"2024-12-02T06:17:13.192Z"},{"id":"item-a219221f2741","sku":"_dluluoUmdi7gn0xGiTmdXM-wEIfxHGpOfUnJhTg","name_en":"款号: CH189 Coach HANNA 系列 CARRYALL 超大空间容量 可️手提你可️肩背 像一个大菜篮包型 整款包帆布材质,耐脏耐磨,气质感满满 磁扣开合,便捷又安全 特别适合气质高雅的小姐姐们","name_cn":"款号: CH189 Coach HANNA 系列 CARRYALL 超大空间容量 可️手提你可️肩背 像一个大菜篮包型 整款包帆布材质,耐脏耐磨,气质感满满 磁扣开合,便捷又安全 特别适合气质高雅的小姐姐们 \n尺寸: 30cm(长)x22.5cm(高)x14cm(宽)","specs":{"source":"wsxcme","sourceId":"_dluluoUmdi7gn0xGiTmdXM-wEIfxHGpOfUnJhTg","sourceTagId":77388356,"sourceTagName":"MCM、寇驰/女包","modelNumber":"CH189 Coach HANNA 系列 CARRYALL 超大空间容量 可️手提你可️肩背 像一个大菜篮包型 整款包帆布材质","rawTitle":"款号: CH189 Coach HANNA 系列 CARRYALL 超大空间容量 可️手提你可️肩背 像一个大菜篮包型 整款包帆布材质,耐脏耐磨,气质感满满 磁扣开合,便捷又安全 特别适合气质高雅的小姐姐们 \n尺寸: 30cm(长)x22.5cm(高)x14cm(宽)"},"price":null,"currency":"CNY","moq":1,"category":"mcm-coach-women-bags","status":"active","alibaba_url":null,"images":["https://xcimg.szwego.com/20230506/i1683355071_140_5.jpg","https://xcimg.szwego.com/20230506/i1683355071_6388_0.jpg","https://xcimg.szwego.com/20230506/i1683355071_9771_1.jpg","https://xcimg.szwego.com/20230506/i1683355071_8779_2.jpg","https://xcimg.szwego.com/20230506/i1683355071_5657_3.jpg","https://xcimg.szwego.com/20230506/i1683355071_300_4.jpg","https://xcimg.szwego.com/20230506/i1683355071_1000_6.jpg","https://xcimg.szwego.com/20230506/i1683355071_6466_7.jpg","https://xcimg.szwego.com/20230506/i1683355071_2826_8.jpg"],"created_at":"2024-12-02T06:17:13.191Z"},{"id":"item-bd42fcee6f3d","sku":"_deHeH2u_drc5fsCRHTgdCBhNuDy7j3Uqi2BqcPA","name_en":"款号: CH190 Coach HANNA 系列 满满的高级感和匠心工艺细节! 特别是侧边油边的抓褶设计,让版型温柔又立体! 容量就不用多说了,延续传统水桶包的大容量功能性,双可拆卸肩带,实用又百搭  整款包 帆布材质,气质感满满 磁扣开合,便捷又安全 特别适合气质高雅的小姐姐们","name_cn":"款号: CH190 Coach HANNA 系列 满满的高级感和匠心工艺细节! 特别是侧边油边的抓褶设计,让版型温柔又立体! 容量就不用多说了,延续传统水桶包的大容量功能性,双可拆卸肩带,实用又百搭  整款包 帆布材质,气质感满满 磁扣开合,便捷又安全 特别适合气质高雅的小姐姐们 \n尺寸:23.5*22*11","specs":{"source":"wsxcme","sourceId":"_deHeH2u_drc5fsCRHTgdCBhNuDy7j3Uqi2BqcPA","sourceTagId":77388356,"sourceTagName":"MCM、寇驰/女包","modelNumber":"CH190 Coach HANNA 系列 满满的高级感和匠心工艺细节! 特别是侧边油边的抓褶设计","rawTitle":"款号: CH190 Coach HANNA 系列 满满的高级感和匠心工艺细节! 特别是侧边油边的抓褶设计,让版型温柔又立体! 容量就不用多说了,延续传统水桶包的大容量功能性,双可拆卸肩带,实用又百搭  整款包 帆布材质,气质感满满 磁扣开合,便捷又安全 特别适合气质高雅的小姐姐们 \n尺寸:23.5*22*11"},"price":null,"currency":"CNY","moq":1,"category":"mcm-coach-women-bags","status":"active","alibaba_url":null,"images":["https://xcimg.szwego.com/20230506/i1683354886_8134_0.jpg","https://xcimg.szwego.com/20230506/i1683354886_7982_8.jpg","https://xcimg.szwego.com/20230506/i1683354886_3718_1.jpg","https://xcimg.szwego.com/20230506/i1683354886_8394_2.jpg","https://xcimg.szwego.com/20230506/i1683354886_9658_3.jpg","https://xcimg.szwego.com/20230506/i1683354886_3704_4.jpg","https://xcimg.szwego.com/20230506/i1683354886_7523_5.jpg","https://xcimg.szwego.com/20230506/i1683354886_3891_6.jpg","https://xcimg.szwego.com/20230506/i1683354886_8639_7.jpg"],"created_at":"2024-12-02T06:17:13.190Z"},{"id":"item-07113a94c77c","sku":"_d_k_krJYlD1ZMuDEnxa4xBFqdIno6yuSNUJXJhw","name_en":"款号: CJ853 Coach Field Tote 22  包身采用提花织布和皮质的拼接 超美配色 简约又不失高级感 方方正正 乖乖巧巧的样子 手拎 肩背 斜挎 百搭又实用 超美的迷你托特 超火爆来袭 ~小个子美眉们的最爱~","name_cn":"款号: CJ853 Coach Field Tote 22  包身采用提花织布和皮质的拼接 超美配色 简约又不失高级感 方方正正 乖乖巧巧的样子 手拎 肩背 斜挎 百搭又实用 超美的迷你托特 超火爆来袭 ~小个子美眉们的最爱~\n\n  尺寸:22*21*12 cm","specs":{"source":"wsxcme","sourceId":"_d_k_krJYlD1ZMuDEnxa4xBFqdIno6yuSNUJXJhw","sourceTagId":77388356,"sourceTagName":"MCM、寇驰/女包","modelNumber":"CJ853 Coach Field Tote 22  包身采用提花织布和皮质的拼接 超美配色 简约又不失高级感 方方正正 乖乖巧巧的样子 手拎 肩背 斜挎 百搭又实用 超美的迷你托特 超火爆来袭 ~小个子美眉们的最爱~","dimensions":{"lengthCm":22,"heightCm":21,"widthCm":12},"rawTitle":"款号: CJ853 Coach Field Tote 22  包身采用提花织布和皮质的拼接 超美配色 简约又不失高级感 方方正正 乖乖巧巧的样子 手拎 肩背 斜挎 百搭又实用 超美的迷你托特 超火爆来袭 ~小个子美眉们的最爱~\n\n  尺寸:22*21*12 cm"},"price":null,"currency":"CNY","moq":1,"category":"mcm-coach-women-bags","status":"active","alibaba_url":null,"images":["https://xcimg.szwego.com/20230601/i1685590089_2514_0.jpg","https://xcimg.szwego.com/20230601/i1685590089_2295_1.jpg","https://xcimg.szwego.com/20230601/i1685590089_8162_2.jpg","https://xcimg.szwego.com/20230601/i1685590089_9770_3.jpg","https://xcimg.szwego.com/20230601/i1685590089_3956_4.jpg","https://xcimg.szwego.com/20230601/i1685590089_2387_5.jpg","https://xcimg.szwego.com/20230601/i1685590089_4517_6.jpg","https://xcimg.szwego.com/20230601/i1685590089_4356_7.jpg","https://xcimg.szwego.com/20230601/i1685590089_628_8.jpg"],"created_at":"2024-12-02T06:17:13.189Z"},{"id":"item-05d3d6eb23cb","sku":"_dOdOdtkS6eOt_wD6e6cr9i1T0Ga-EOJBMBOtfkQ","name_en":"COACH/蔻驰新款彩虹🌈条纹印花TOTE托特包经典大标志单肩斜跨包 CJ576,尺寸:20*18*10","name_cn":"COACH/蔻驰新款彩虹🌈条纹印花TOTE托特包经典大标志单肩斜跨包 CJ576,尺寸:20*18*10","specs":{"source":"wsxcme","sourceId":"_dOdOdtkS6eOt_wD6e6cr9i1T0Ga-EOJBMBOtfkQ","sourceTagId":77388356,"sourceTagName":"MCM、寇驰/女包","rawTitle":"COACH/蔻驰新款彩虹🌈条纹印花TOTE托特包经典大标志单肩斜跨包 CJ576,尺寸:20*18*10"},"price":null,"currency":"CNY","moq":1,"category":"mcm-coach-women-bags","status":"active","alibaba_url":null,"images":["https://xcimg.szwego.com/20230602/i1685674432_9488_0.jpg","https://xcimg.szwego.com/20230602/i1685674432_3863_1.jpg","https://xcimg.szwego.com/20230602/i1685674432_3275_2.jpg","https://xcimg.szwego.com/20230602/i1685674432_7717_3.jpg","https://xcimg.szwego.com/20230602/i1685674432_3547_4.jpg","https://xcimg.szwego.com/20230602/i1685674432_1349_5.jpg","https://xcimg.szwego.com/20230602/i1685674432_3326_6.jpg","https://xcimg.szwego.com/20230602/i1685674432_1403_7.jpg","https://xcimg.szwego.com/20230602/i1685674432_7069_8.jpg"],"created_at":"2024-12-02T06:17:13.188Z"},{"id":"item-d6cd866931cb","sku":"_ddidizmjUTlDip0sJuqKAuaJQcpKqs6Fz-_Jw1w","name_en":",款号CJ646","name_cn":",款号CJ646  \nCOACH/蔻驰 新款女士Dempsey花纹手提单肩斜挎托特包,尺寸:22*21*12","specs":{"source":"wsxcme","sourceId":"_ddidizmjUTlDip0sJuqKAuaJQcpKqs6Fz-_Jw1w","sourceTagId":77388356,"sourceTagName":"MCM、寇驰/女包","modelNumber":"CJ646","rawTitle":",款号CJ646  \nCOACH/蔻驰 新款女士Dempsey花纹手提单肩斜挎托特包,尺寸:22*21*12"},"price":null,"currency":"CNY","moq":1,"category":"mcm-coach-women-bags","status":"active","alibaba_url":null,"images":["https://xcimg.szwego.com/20230602/i1685676610_271_0.jpg","https://xcimg.szwego.com/20230602/i1685676610_6978_1.jpg","https://xcimg.szwego.com/20230602/i1685676610_3074_2.jpg","https://xcimg.szwego.com/20230602/i1685676610_7931_3.jpg","https://xcimg.szwego.com/20230602/i1685676610_6292_4.jpg","https://xcimg.szwego.com/20230602/i1685676610_2758_5.jpg","https://xcimg.szwego.com/20230602/i1685676610_7869_6.jpg","https://xcimg.szwego.com/20230602/i1685676610_5916_7.jpg","https://xcimg.szwego.com/20230602/i1685676610_3877_8.jpg"],"created_at":"2024-12-02T06:17:13.187Z"},{"id":"item-8f7b94f14afe","sku":"_ds9s9O0Padrmag8N7Lgx6cE_kmm4YlC2M5i93jA","name_en":"新款CJ573。COACH/蔻驰Dempsey托特包爱心印花大容量单肩斜挎包,尺寸:29*22*13","name_cn":"新款CJ573。COACH/蔻驰Dempsey托特包爱心印花大容量单肩斜挎包,尺寸:29*22*13","specs":{"source":"wsxcme","sourceId":"_ds9s9O0Padrmag8N7Lgx6cE_kmm4YlC2M5i93jA","sourceTagId":77388356,"sourceTagName":"MCM、寇驰/女包","rawTitle":"新款CJ573。COACH/蔻驰Dempsey托特包爱心印花大容量单肩斜挎包,尺寸:29*22*13"},"price":null,"currency":"CNY","moq":1,"category":"mcm-coach-women-bags","status":"active","alibaba_url":null,"images":["https://xcimg.szwego.com/20230602/i1685677034_7079_0.jpg","https://xcimg.szwego.com/20230602/i1685677034_5094_1.jpg","https://xcimg.szwego.com/20230602/i1685677034_5956_2.jpg","https://xcimg.szwego.com/20230602/i1685677034_7862_3.jpg","https://xcimg.szwego.com/20230602/i1685677034_4760_4.jpg","https://xcimg.szwego.com/20230602/i1685677034_1490_5.jpg","https://xcimg.szwego.com/20230602/i1685677034_7255_6.jpg","https://xcimg.szwego.com/20230602/i1685677034_4549_7.jpg","https://xcimg.szwego.com/20230602/i1685677034_2653_8.jpg"],"created_at":"2024-12-02T06:17:13.186Z"},{"id":"item-da05b32c13da","sku":"_d1515TzQCRbx1gDqk1eTdQQqj0N9Z-b9OtU6Hog","name_en":"COACH/蔻驰迷你CALLY","name_cn":"COACH/蔻驰迷你CALLY\n\n来新色啦子简约美型,气场强到炸裂0@\n\n来吧,和闺蜜一人一只去炸街去吧\n\n17*16*8,小身材,大容量,有颜有实力,怎样搭都美 质,A ! @Coach 蔻驰@","specs":{"source":"wsxcme","sourceId":"_d1515TzQCRbx1gDqk1eTdQQqj0N9Z-b9OtU6Hog","sourceTagId":77388356,"sourceTagName":"MCM、寇驰/女包","rawTitle":"COACH/蔻驰迷你CALLY\n\n来新色啦子简约美型,气场强到炸裂0@\n\n来吧,和闺蜜一人一只去炸街去吧\n\n17*16*8,小身材,大容量,有颜有实力,怎样搭都美 质,A ! @Coach 蔻驰@"},"price":null,"currency":"CNY","moq":1,"category":"mcm-coach-women-bags","status":"active","alibaba_url":null,"images":["https://xcimg.szwego.com/20230522/i1684762317_9964_0.jpg","https://xcimg.szwego.com/20230522/i1684762317_8893_1.jpg","https://xcimg.szwego.com/20230522/i1684762317_1365_2.jpg","https://xcimg.szwego.com/20230522/i1684762317_2854_3.jpg","https://xcimg.szwego.com/20230522/i1684762317_7360_4.jpg","https://xcimg.szwego.com/20230522/i1684762317_6208_5.jpg","https://xcimg.szwego.com/20230522/i1684762317_3479_6.jpg","https://xcimg.szwego.com/20230522/i1684762317_9356_7.jpg","https://xcimg.szwego.com/20230522/i1684762317_9899_8.jpg"],"created_at":"2024-12-02T06:17:13.185Z"},{"id":"item-f243a13b7cfa","sku":"_dirirA7SsDbNqxrduVCPZMequy3S7R-14rEX8sg","name_en":"Coach四月新品CR653 Softtabby油蜡皮真的提升质感的好手~黑色All black真的太酷辣 尺寸26/16","name_cn":"Coach四月新品CR653 Softtabby油蜡皮真的提升质感的好手~黑色All black真的太酷辣 尺寸26/16","specs":{"source":"wsxcme","sourceId":"_dirirA7SsDbNqxrduVCPZMequy3S7R-14rEX8sg","sourceTagId":77388356,"sourceTagName":"MCM、寇驰/女包","rawTitle":"Coach四月新品CR653 Softtabby油蜡皮真的提升质感的好手~黑色All black真的太酷辣 尺寸26/16"},"price":null,"currency":"CNY","moq":1,"category":"mcm-coach-women-bags","status":"active","alibaba_url":null,"images":["https://xcimg.szwego.com/img/7350b429/20240416/i1713234626_2008_0.jpg","https://xcimg.szwego.com/img/7350b429/20240416/i1713234626_2825_0.jpg","https://xcimg.szwego.com/img/7350b429/20240416/i1713234627_8767_0.jpg","https://xcimg.szwego.com/img/7350b429/20240416/i1713234627_9287_0.jpg","https://xcimg.szwego.com/img/7350b429/20240416/i1713234627_7181_0.jpg","https://xcimg.szwego.com/img/7350b429/20240416/i1713234626_8211_0.jpg","https://xcimg.szwego.com/img/7350b429/20240416/i1713234627_5077_0.jpg","https://xcimg.szwego.com/img/7350b429/20240416/i1713234627_1776_0.jpg","https://xcimg.szwego.com/img/7350b429/20240416/i1713234627_3169_0.jpg"],"created_at":"2024-12-02T06:17:13.184Z"},{"id":"item-5f227a53a3b3","sku":"_doIoIBMO7PYCX-CmJJG4nLDMpr_vzEhCqtTLsiw","name_en":"Coach四月新品CR653 Softtabby油蜡皮真的提升质感的好手~黑色All black真的太酷辣 尺寸26/16","name_cn":"Coach四月新品CR653 Softtabby油蜡皮真的提升质感的好手~黑色All black真的太酷辣 尺寸26/16","specs":{"source":"wsxcme","sourceId":"_doIoIBMO7PYCX-CmJJG4nLDMpr_vzEhCqtTLsiw","sourceTagId":77388356,"sourceTagName":"MCM、寇驰/女包","rawTitle":"Coach四月新品CR653 Softtabby油蜡皮真的提升质感的好手~黑色All black真的太酷辣 尺寸26/16"},"price":null,"currency":"CNY","moq":1,"category":"mcm-coach-women-bags","status":"active","alibaba_url":null,"images":["https://xcimg.szwego.com/img/7350b429/20240416/i1713234590_766_0.jpg","https://xcimg.szwego.com/img/7350b429/20240416/i1713234590_1367_0.jpg","https://xcimg.szwego.com/img/7350b429/20240416/i1713234590_1895_0.jpg","https://xcimg.szwego.com/img/7350b429/20240416/i1713234590_8019_0.jpg","https://xcimg.szwego.com/img/7350b429/20240416/i1713234590_5694_0.jpg","https://xcimg.szwego.com/img/7350b429/20240416/i1713234590_5566_0.jpg","https://xcimg.szwego.com/img/7350b429/20240416/i1713234590_6414_0.jpg","https://xcimg.szwego.com/img/7350b429/20240416/i1713234590_4955_0.jpg","https://xcimg.szwego.com/img/7350b429/20240416/i1713234590_2357_0.jpg"],"created_at":"2024-12-02T06:17:13.183Z"},{"id":"item-6b6b62a24bd6","sku":"_dsTsTyQbWFu9g79F0xHjj--WAZd3QzT1DzIWbmg","name_en":"Coach四月新品CR653 Softtabby油蜡皮真的提升质感的好手~黑色All black真的太酷辣 尺寸26/16。21882166218","name_cn":"Coach四月新品CR653 Softtabby油蜡皮真的提升质感的好手~黑色All black真的太酷辣 尺寸26/16。21882166218","specs":{"source":"wsxcme","sourceId":"_dsTsTyQbWFu9g79F0xHjj--WAZd3QzT1DzIWbmg","sourceTagId":77388356,"sourceTagName":"MCM、寇驰/女包","rawTitle":"Coach四月新品CR653 Softtabby油蜡皮真的提升质感的好手~黑色All black真的太酷辣 尺寸26/16。21882166218"},"price":null,"currency":"CNY","moq":1,"category":"mcm-coach-women-bags","status":"active","alibaba_url":null,"images":["https://xcimg.szwego.com/img/7350b429/20240416/i1713234569_2668_6.jpg","https://xcimg.szwego.com/img/7350b429/20240416/i1713234569_7254_3.jpg","https://xcimg.szwego.com/img/7350b429/20240416/i1713234569_8320_7.jpg","https://xcimg.szwego.com/img/7350b429/20240416/i1713234569_8860_4.jpg","https://xcimg.szwego.com/img/7350b429/20240416/i1713234569_3990_1.jpg","https://xcimg.szwego.com/img/7350b429/20240416/i1713234569_4595_0.jpg","https://xcimg.szwego.com/img/7350b429/20240416/i1713234569_3504_2.jpg","https://xcimg.szwego.com/img/7350b429/20240416/i1713234569_8054_5.jpg","https://xcimg.szwego.com/img/7350b429/20240416/i1713234569_779_8.jpg"],"created_at":"2024-12-02T06:17:13.182Z"},{"id":"item-a8ef2c823923","sku":"_dwgwgQIA-jNCxPMaHSgsNPmFk6QUntc6CGrQALQ","name_en":"MCM and Coach Women Bags","name_cn":"蔻驰双肩包真的太好看啦!!\n轻巧百搭超级绝!\n配上香布蕾配蓝色超级清新👏🏻","specs":{"source":"wsxcme","sourceId":"_dwgwgQIA-jNCxPMaHSgsNPmFk6QUntc6CGrQALQ","sourceTagId":77388356,"sourceTagName":"MCM、寇驰/女包","rawTitle":"蔻驰双肩包真的太好看啦!!\n轻巧百搭超级绝!\n配上香布蕾配蓝色超级清新👏🏻"},"price":null,"currency":"CNY","moq":1,"category":"mcm-coach-women-bags","status":"active","alibaba_url":null,"images":["https://xcimg.szwego.com/img/aa892012/20240818/i1723972671_3066_3.jpg","https://xcimg.szwego.com/img/aa892012/20240818/i1723972671_1249_1.jpg","https://xcimg.szwego.com/img/aa892012/20240818/i1723972671_6121_2.jpg","https://xcimg.szwego.com/img/aa892012/20240818/i1723972671_4964_0.jpg"],"created_at":"2024-12-02T06:17:13.181Z"},{"id":"item-d0340405e76f","sku":"_djQjQyiXIXSFu8OtV7F5YH1HKMQHN7vztJN533A","name_en":"MCM and Coach Women Bags","name_cn":"发货实拍,蔻驰双肩包","specs":{"source":"wsxcme","sourceId":"_djQjQyiXIXSFu8OtV7F5YH1HKMQHN7vztJN533A","sourceTagId":77388356,"sourceTagName":"MCM、寇驰/女包","rawTitle":"发货实拍,蔻驰双肩包"},"price":null,"currency":"CNY","moq":1,"category":"mcm-coach-women-bags","status":"active","alibaba_url":null,"images":["https://xcimg.szwego.com/20240123/i1705975739_9598_0.jpg","https://xcimg.szwego.com/20240123/i1705975739_710_1.jpg","https://xcimg.szwego.com/20240123/i1705975739_4771_2.jpg","https://xcimg.szwego.com/20240123/i1705975739_235_3.jpg","https://xcimg.szwego.com/20240123/i1705975739_4017_4.jpg","https://xcimg.szwego.com/20240123/i1705975739_1030_5.jpg","https://xcimg.szwego.com/20240123/i1705975739_6035_6.jpg"],"created_at":"2024-12-02T06:17:13.180Z"},{"id":"item-53113cbffef1","sku":"_dLaLa9kpkLK5eTUBfdjMcQAzvQIfBaOJthIeA_Q","name_en":"MCM and Coach Women Bags","name_cn":"发货实拍,蔻驰化妆包✈️","specs":{"source":"wsxcme","sourceId":"_dLaLa9kpkLK5eTUBfdjMcQAzvQIfBaOJthIeA_Q","sourceTagId":77388356,"sourceTagName":"MCM、寇驰/女包","rawTitle":"发货实拍,蔻驰化妆包✈️"},"price":null,"currency":"CNY","moq":1,"category":"mcm-coach-women-bags","status":"active","alibaba_url":null,"images":["https://xcimg.szwego.com/20240103/i1704296677_2250_0.jpg","https://xcimg.szwego.com/20240103/i1704296677_792_1.jpg","https://xcimg.szwego.com/20240103/i1704296677_9309_2.jpg","https://xcimg.szwego.com/20240103/i1704296677_6906_3.jpg","https://xcimg.szwego.com/20240103/i1704296677_8212_4.jpg","https://xcimg.szwego.com/20240103/i1704296677_5572_5.jpg","https://xcimg.szwego.com/20240103/i1704296677_8435_6.jpg","https://xcimg.szwego.com/20240103/i1704296677_5274_7.jpg"],"created_at":"2024-12-02T06:17:13.179Z"},{"id":"item-91598339b7d0","sku":"_dkKkKfs-tmA4NxPHC20s0XbrUrqYNQhwiJHhYCw","name_en":"MCM and Coach Women Bags","name_cn":"发货实拍,蔻驰化妆包✈️","specs":{"source":"wsxcme","sourceId":"_dkKkKfs-tmA4NxPHC20s0XbrUrqYNQhwiJHhYCw","sourceTagId":77388356,"sourceTagName":"MCM、寇驰/女包","rawTitle":"发货实拍,蔻驰化妆包✈️"},"price":null,"currency":"CNY","moq":1,"category":"mcm-coach-women-bags","status":"active","alibaba_url":null,"images":["https://xcimg.szwego.com/20240103/i1704296677_2250_0.jpg","https://xcimg.szwego.com/20240103/i1704296677_792_1.jpg","https://xcimg.szwego.com/20240103/i1704296677_9309_2.jpg","https://xcimg.szwego.com/20240103/i1704296677_6906_3.jpg","https://xcimg.szwego.com/20240103/i1704296677_8212_4.jpg","https://xcimg.szwego.com/20240103/i1704296677_5572_5.jpg","https://xcimg.szwego.com/20240103/i1704296677_8435_6.jpg","https://xcimg.szwego.com/20240103/i1704296677_5274_7.jpg"],"created_at":"2024-12-02T06:17:13.178Z"}],"page":6,"pageSize":24,"total":254,"totalPages":11}
