{"items":[{"id":"item-662bc71e5656","sku":"_dkckc09lZFu3rUtHL_KC0HKA4CcONtUgARmDJbA","name_en":"25c牛皮 球纹","name_cn":"25c牛皮 球纹\n香奈儿 chanel hobo 腋下包 嬉皮腋下包小号\n复古金币纽扣抽绳水桶包+菱格纹+复古黑金\n经典链条设计,高级感十足!日常出行必备,\n外观精美,质感细腻,\n无论休闲装还是正式场合都能轻松驾驭❤️\n编号:AS5293 球纹 淡黄色\n尺寸:30*26*14\n7385096","specs":{"source":"wsxcme","sourceId":"_dkckc09lZFu3rUtHL_KC0HKA4CcONtUgARmDJbA","sourceTagId":47002745,"sourceTagName":"香奈儿/女包","rawTitle":"25c牛皮 球纹\n香奈儿 chanel hobo 腋下包 嬉皮腋下包小号\n复古金币纽扣抽绳水桶包+菱格纹+复古黑金\n经典链条设计,高级感十足!日常出行必备,\n外观精美,质感细腻,\n无论休闲装还是正式场合都能轻松驾驭❤️\n编号:AS5293 球纹 淡黄色\n尺寸:30*26*14\n7385096"},"price":null,"currency":"CNY","moq":1,"category":"chanel-women-bags","status":"active","alibaba_url":null,"images":["https://xcimg.szwego.com/img/fbe1a617/20250519/i1747642850799_7150_0_0.jpg","https://xcimg.szwego.com/img/fbe1a617/20250519/i1747642848890_4337_0_1.jpg","https://xcimg.szwego.com/img/fbe1a617/20250519/i1747642850837_8841_0_2.jpg","https://xcimg.szwego.com/img/fbe1a617/20250519/i1747642848814_1934_0_3.jpg","https://xcimg.szwego.com/img/fbe1a617/20250519/i1747642850808_5188_0_4.jpg","https://xcimg.szwego.com/img/fbe1a617/20250519/i1747642850853_4070_0_5.jpg","https://xcimg.szwego.com/img/fbe1a617/20250519/i1747642848631_2247_0_6.jpg","https://xcimg.szwego.com/img/fbe1a617/20250519/i1747642848980_2027_0_7.jpg","https://xcimg.szwego.com/img/fbe1a617/20250519/i1747642848839_8402_0_8.jpg"],"created_at":"2026-06-29T10:35:34.234Z"},{"id":"item-bdd1d7bd10e4","sku":"_dEgEgLLLTH_bI4uaaR6_21mEPGmba05HZc2mo5g","name_en":"Chanel Women Bags","name_cn":"5293","specs":{"source":"wsxcme","sourceId":"_dEgEgLLLTH_bI4uaaR6_21mEPGmba05HZc2mo5g","sourceTagId":47002745,"sourceTagName":"香奈儿/女包","rawTitle":"5293"},"price":null,"currency":"CNY","moq":1,"category":"chanel-women-bags","status":"active","alibaba_url":null,"images":["https://xcimg.szwego.com/img/fbe1a617/20250322/i1742658753965_5168_0_0.jpg","https://xcimg.szwego.com/img/fbe1a617/20250322/i1742658753964_3230_0_1.jpg","https://xcimg.szwego.com/img/fbe1a617/20250322/i1742658753965_1296_0_2.jpg"],"created_at":"2026-06-29T10:35:34.224Z"},{"id":"item-45d4c21c18dd","sku":"_dtitiEx7gokM7oRUMppbVQv6_lJRnCXJIuh8Fgw","name_en":"25c牛皮 球纹","name_cn":"25c牛皮 球纹\n香奈儿 chanel hobo 腋下包 嬉皮腋下包小号\n复古金币纽扣抽绳水桶包+菱格纹+复古黑金\n经典链条设计,高级感十足!日常出行必备,\n外观精美,质感细腻,\n无论休闲装还是正式场合都能轻松驾驭❤️\n编号:AS5293 球纹 粉色\n尺寸:30*26*14\n7385096","specs":{"source":"wsxcme","sourceId":"_dtitiEx7gokM7oRUMppbVQv6_lJRnCXJIuh8Fgw","sourceTagId":47002745,"sourceTagName":"香奈儿/女包","rawTitle":"25c牛皮 球纹\n香奈儿 chanel hobo 腋下包 嬉皮腋下包小号\n复古金币纽扣抽绳水桶包+菱格纹+复古黑金\n经典链条设计,高级感十足!日常出行必备,\n外观精美,质感细腻,\n无论休闲装还是正式场合都能轻松驾驭❤️\n编号:AS5293 球纹 粉色\n尺寸:30*26*14\n7385096"},"price":null,"currency":"CNY","moq":1,"category":"chanel-women-bags","status":"active","alibaba_url":null,"images":["https://xcimg.szwego.com/img/fbe1a617/20250603/i1748960576911_2788_0_0.jpg","https://xcimg.szwego.com/img/fbe1a617/20250603/i1748960576880_593_0_1.jpg","https://xcimg.szwego.com/img/fbe1a617/20250603/i1748960578409_7924_0_2.jpg","https://xcimg.szwego.com/img/fbe1a617/20250603/i1748960578696_4245_0_3.jpg","https://xcimg.szwego.com/img/fbe1a617/20250603/i1748960578941_8931_0_4.jpg","https://xcimg.szwego.com/img/fbe1a617/20250603/i1748960576714_7399_0_5.jpg","https://xcimg.szwego.com/img/fbe1a617/20250603/i1748960576915_627_0_6.jpg","https://xcimg.szwego.com/img/fbe1a617/20250603/i1748960576758_9714_0_7.jpg","https://xcimg.szwego.com/img/fbe1a617/20250603/i1748960578888_9194_0_8.jpg"],"created_at":"2026-06-29T10:35:34.214Z"},{"id":"item-3df3f0c43116","sku":"_dqQqQP6k1Bk3KKu7q7m_vV-TGeSMqli46ZqZYRw","name_en":"25c牛皮 球纹","name_cn":"25c牛皮 球纹\n香奈儿 chanel hobo 腋下包 嬉皮腋下包小号\n复古金币纽扣抽绳水桶包+菱格纹+复古黑金\n经典链条设计,高级感十足!日常出行必备,\n外观精美,质感细腻,\n无论休闲装还是正式场合都能轻松驾驭❤️\n编号:AS5293 球纹 浅杏\n尺寸:30*26*14\n7385096","specs":{"source":"wsxcme","sourceId":"_dqQqQP6k1Bk3KKu7q7m_vV-TGeSMqli46ZqZYRw","sourceTagId":47002745,"sourceTagName":"香奈儿/女包","rawTitle":"25c牛皮 球纹\n香奈儿 chanel hobo 腋下包 嬉皮腋下包小号\n复古金币纽扣抽绳水桶包+菱格纹+复古黑金\n经典链条设计,高级感十足!日常出行必备,\n外观精美,质感细腻,\n无论休闲装还是正式场合都能轻松驾驭❤️\n编号:AS5293 球纹 浅杏\n尺寸:30*26*14\n7385096"},"price":null,"currency":"CNY","moq":1,"category":"chanel-women-bags","status":"active","alibaba_url":null,"images":["https://xcimg.szwego.com/img/e714fc80/20260401/i1775045741276_6585_0_0.jpg","https://xcimg.szwego.com/img/e714fc80/20260401/i1775045741229_3558_0_1.jpg","https://xcimg.szwego.com/img/e714fc80/20260401/i1775045739114_983_0_2.jpg","https://xcimg.szwego.com/img/e714fc80/20260401/i1775045741370_1620_0_3.jpg","https://xcimg.szwego.com/img/e714fc80/20260401/i1775045739140_7129_0_4.jpg","https://xcimg.szwego.com/img/e714fc80/20260401/i1775045739173_7155_0_5.jpg","https://xcimg.szwego.com/img/e714fc80/20260401/i1775045739309_934_0_6.jpg","https://xcimg.szwego.com/img/e714fc80/20260401/i1775045741376_4702_0_7.jpg","https://xcimg.szwego.com/img/e714fc80/20260401/i1775045739231_3562_0_8.jpg"],"created_at":"2026-06-29T10:35:34.204Z"},{"id":"item-1c8dbd089672","sku":"_d3r3ruKug_cj2a5qnfDR711-Nl-npPLmf43qGlg","name_en":"Chanel Women Bags","name_cn":"上身效果#3980","specs":{"source":"wsxcme","sourceId":"_d3r3ruKug_cj2a5qnfDR711-Nl-npPLmf43qGlg","sourceTagId":47002745,"sourceTagName":"香奈儿/女包","rawTitle":"上身效果#3980"},"price":null,"currency":"CNY","moq":1,"category":"chanel-women-bags","status":"active","alibaba_url":null,"images":["https://xcimg.szwego.com/20230409/i1680990889_6545_0.jpg","https://xcimg.szwego.com/20230409/i1680990889_6793_1.jpg","https://xcimg.szwego.com/20230409/i1680990889_7192_2.jpg","https://xcimg.szwego.com/20230409/i1680990889_3791_3.jpg","https://xcimg.szwego.com/20230409/i1680990889_976_4.jpg","https://xcimg.szwego.com/20230409/i1680990889_9358_5.jpg","https://xcimg.szwego.com/20230409/i1680990889_6621_6.jpg","https://xcimg.szwego.com/20230409/i1680990889_7468_7.jpg","https://xcimg.szwego.com/20230409/i1680990889_8971_8.jpg"],"created_at":"2026-06-29T10:35:34.194Z"},{"id":"item-a4c1bd640042","sku":"_dxRxRT3cHEdFk9yvB2rpaztTE1ZDXkYewh3WH5g","name_en":"全新升级版🆕Chane1迷你22Bag","name_cn":"全新升级版🆕Chane1迷你22Bag\nAntiba zp皮Mini 22白色 银扣\n秀场主角Chane1 22miniBag\n造型感极强,设计风拉满~\n小巧Size却能轻易叱咤秀场\n\n五金:全刚五金复古银扣\n皮料:原厂小牛皮\n尺寸:19*20*6 cm\n编号:3980  白色 \n9362075","specs":{"source":"wsxcme","sourceId":"_dxRxRT3cHEdFk9yvB2rpaztTE1ZDXkYewh3WH5g","sourceTagId":47002745,"sourceTagName":"香奈儿/女包","dimensions":{"lengthCm":19,"heightCm":20,"widthCm":6},"rawTitle":"全新升级版🆕Chane1迷你22Bag\nAntiba zp皮Mini 22白色 银扣\n秀场主角Chane1 22miniBag\n造型感极强,设计风拉满~\n小巧Size却能轻易叱咤秀场\n\n五金:全刚五金复古银扣\n皮料:原厂小牛皮\n尺寸:19*20*6 cm\n编号:3980  白色 \n9362075"},"price":null,"currency":"CNY","moq":1,"category":"chanel-women-bags","status":"active","alibaba_url":null,"images":["https://xcimg.szwego.com/img/fbe1a617/20250803/i1754207075362_6970_0_0.jpg","https://xcimg.szwego.com/img/fbe1a617/20250803/i1754207075437_1347_0_1.jpg","https://xcimg.szwego.com/img/fbe1a617/20250803/i1754207077143_1284_0_2.jpg","https://xcimg.szwego.com/img/fbe1a617/20250803/i1754207075324_1693_0_3.jpg","https://xcimg.szwego.com/img/fbe1a617/20250803/i1754207077363_7892_0_4.jpg","https://xcimg.szwego.com/img/fbe1a617/20250803/i1754207075324_273_0_5.jpg","https://xcimg.szwego.com/img/fbe1a617/20250803/i1754207077340_6765_0_6.jpg","https://xcimg.szwego.com/img/fbe1a617/20250803/i1754207077048_8997_0_7.jpg","https://xcimg.szwego.com/img/fbe1a617/20250803/i1754207075324_1868_0_8.jpg"],"created_at":"2026-06-29T10:35:34.184Z"},{"id":"item-f4af5866df4a","sku":"_dsBsBCCYEM4bzpCKTDNht6vb4wyo7QAFAbSGrcA","name_en":"全新升级版🆕Chane1迷你22Bag","name_cn":"全新升级版🆕Chane1迷你22Bag\nAntiba zp皮Mini 22白色 金扣\n秀场主角Chane1 22miniBag\n造型感极强,设计风拉满~\n小巧Size却能轻易叱咤秀场\n\n五金:全刚五金 复古金扣\n皮料:原厂皮小牛\n尺寸:19*20*6 cm\n编号:3980  白色\n9362075","specs":{"source":"wsxcme","sourceId":"_dsBsBCCYEM4bzpCKTDNht6vb4wyo7QAFAbSGrcA","sourceTagId":47002745,"sourceTagName":"香奈儿/女包","dimensions":{"lengthCm":19,"heightCm":20,"widthCm":6},"rawTitle":"全新升级版🆕Chane1迷你22Bag\nAntiba zp皮Mini 22白色 金扣\n秀场主角Chane1 22miniBag\n造型感极强,设计风拉满~\n小巧Size却能轻易叱咤秀场\n\n五金:全刚五金 复古金扣\n皮料:原厂皮小牛\n尺寸:19*20*6 cm\n编号:3980  白色\n9362075"},"price":null,"currency":"CNY","moq":1,"category":"chanel-women-bags","status":"active","alibaba_url":null,"images":["https://xcimg.szwego.com/img/fbe1a617/20250803/i1754207127622_576_0_0.jpg","https://xcimg.szwego.com/img/fbe1a617/20250803/i1754207129293_403_0_1.jpg","https://xcimg.szwego.com/img/fbe1a617/20250803/i1754207129238_230_0_2.jpg","https://xcimg.szwego.com/img/fbe1a617/20250803/i1754207127613_7931_0_3.jpg","https://xcimg.szwego.com/img/fbe1a617/20250803/i1754207129351_6533_0_4.jpg","https://xcimg.szwego.com/img/fbe1a617/20250803/i1754207127730_4145_0_5.jpg","https://xcimg.szwego.com/img/fbe1a617/20250803/i1754207127707_4796_0_6.jpg","https://xcimg.szwego.com/img/fbe1a617/20250803/i1754207127553_6554_0_7.jpg","https://xcimg.szwego.com/img/fbe1a617/20250803/i1754207129122_9637_0_8.jpg"],"created_at":"2026-06-29T10:35:34.174Z"},{"id":"item-aac7c258f7e6","sku":"_dbQbQ4gKdUGv9X3M2WuQWTwNJZJkkuq9gqnBGTg","name_en":"Chanel Women Bags","name_cn":"上身效果#3260、3261","specs":{"source":"wsxcme","sourceId":"_dbQbQ4gKdUGv9X3M2WuQWTwNJZJkkuq9gqnBGTg","sourceTagId":47002745,"sourceTagName":"香奈儿/女包","rawTitle":"上身效果#3260、3261"},"price":null,"currency":"CNY","moq":1,"category":"chanel-women-bags","status":"active","alibaba_url":null,"images":["https://xcimg.szwego.com/img/2a2a0253/20231028/i1698427181_1330_0.jpg","https://xcimg.szwego.com/img/2a2a0253/20231028/i1698427181_324_1.jpg","https://xcimg.szwego.com/img/2a2a0253/20231028/i1698427181_960_2.jpg","https://xcimg.szwego.com/img/2a2a0253/20231028/i1698427181_5619_3.jpg","https://xcimg.szwego.com/img/2a2a0253/20231028/i1698427181_1504_4.jpg","https://xcimg.szwego.com/img/2a2a0253/20231028/i1698427181_247_5.jpg","https://xcimg.szwego.com/img/2a2a0253/20231028/i1698427181_7197_6.jpg","https://xcimg.szwego.com/img/2a2a0253/20231028/i1698427181_6737_7.jpg","https://xcimg.szwego.com/img/2a2a0253/20231028/i1698427181_6085_8.jpg"],"created_at":"2026-06-29T10:35:34.164Z"},{"id":"item-5b40eb92ed59","sku":"_dYNYNTb-oolDduwRnqj0Hsbn1bI3pvHVaa3ebCg","name_en":"Chane1全新22包火爆来袭!!️","name_cn":"Chane1全新22包火爆来袭!!️\n原皮22白银 小号:3260\n✨热点上新Chane1 22Bag\n说它\"垃圾袋\"也好,购物袋也罢\n反正就是很对味🍃\n以年份数字为命名的都要对准它!!\n绝对是经典中的天花板✔️\n这颜值太能打了,能装又好看。\n随性软塌塌的质感、背起来自成风格。\n\n五金:厚镀复古银扣\n皮料:原厂小牛皮\n尺寸:35*37*8cm  \n9788025","specs":{"source":"wsxcme","sourceId":"_dYNYNTb-oolDduwRnqj0Hsbn1bI3pvHVaa3ebCg","sourceTagId":47002745,"sourceTagName":"香奈儿/女包","dimensions":{"lengthCm":35,"heightCm":37,"widthCm":8},"rawTitle":"Chane1全新22包火爆来袭!!️\n原皮22白银 小号:3260\n✨热点上新Chane1 22Bag\n说它\"垃圾袋\"也好,购物袋也罢\n反正就是很对味🍃\n以年份数字为命名的都要对准它!!\n绝对是经典中的天花板✔️\n这颜值太能打了,能装又好看。\n随性软塌塌的质感、背起来自成风格。\n\n五金:厚镀复古银扣\n皮料:原厂小牛皮\n尺寸:35*37*8cm  \n9788025"},"price":null,"currency":"CNY","moq":1,"category":"chanel-women-bags","status":"active","alibaba_url":null,"images":["https://xcimg.szwego.com/img/fbe1a617/20250515/i1747304664203_3354_0_0.jpg","https://xcimg.szwego.com/img/fbe1a617/20250515/i1747304662183_4844_0_1.jpg","https://xcimg.szwego.com/img/fbe1a617/20250515/i1747304664182_2839_0_2.jpg","https://xcimg.szwego.com/img/fbe1a617/20250515/i1747304662183_4183_0_3.jpg","https://xcimg.szwego.com/img/fbe1a617/20250515/i1747304662183_5773_0_4.jpg","https://xcimg.szwego.com/img/fbe1a617/20250515/i1747304662231_4336_0_5.jpg","https://xcimg.szwego.com/img/fbe1a617/20250515/i1747304664120_641_0_6.jpg","https://xcimg.szwego.com/img/fbe1a617/20250515/i1747304664182_3629_0_7.jpg","https://xcimg.szwego.com/img/fbe1a617/20250515/i1747304662183_4649_0_8.jpg"],"created_at":"2026-06-29T10:35:34.154Z"},{"id":"item-2ba1e46d4e69","sku":"_dv9v9g1tnPTj08y1BUvWp3NkkT3WcTSXZB8eDlg","name_en":"Chane1全新22包火爆来袭!!️","name_cn":"Chane1全新22包火爆来袭!!️\n原皮22白银 中号:3261\n✨热点上新Chane1 22Bag\n说它\"垃圾袋\"也好,购物袋也罢\n反正就是很对味🍃\n以年份数字为命名的都要对准它!!\n绝对是经典中的天花板✔️\n这颜值太能打了,能装又好看。\n随性软塌塌的质感、背起来自成风格。\n\n五金:厚镀复古银扣\n皮料:原厂小牛皮\n尺寸:39*42*8 cm  \n1093087","specs":{"source":"wsxcme","sourceId":"_dv9v9g1tnPTj08y1BUvWp3NkkT3WcTSXZB8eDlg","sourceTagId":47002745,"sourceTagName":"香奈儿/女包","dimensions":{"lengthCm":39,"heightCm":42,"widthCm":8},"rawTitle":"Chane1全新22包火爆来袭!!️\n原皮22白银 中号:3261\n✨热点上新Chane1 22Bag\n说它\"垃圾袋\"也好,购物袋也罢\n反正就是很对味🍃\n以年份数字为命名的都要对准它!!\n绝对是经典中的天花板✔️\n这颜值太能打了,能装又好看。\n随性软塌塌的质感、背起来自成风格。\n\n五金:厚镀复古银扣\n皮料:原厂小牛皮\n尺寸:39*42*8 cm  \n1093087"},"price":null,"currency":"CNY","moq":1,"category":"chanel-women-bags","status":"active","alibaba_url":null,"images":["https://xcimg.szwego.com/img/fbe1a617/20250515/i1747304688312_6917_0_0.jpg","https://xcimg.szwego.com/img/fbe1a617/20250515/i1747304688412_9169_0_1.jpg","https://xcimg.szwego.com/img/fbe1a617/20250515/i1747304688227_9667_0_2.jpg","https://xcimg.szwego.com/img/fbe1a617/20250515/i1747304689867_3248_0_3.jpg","https://xcimg.szwego.com/img/fbe1a617/20250515/i1747304689444_2070_0_4.jpg","https://xcimg.szwego.com/img/fbe1a617/20250515/i1747304689912_6591_0_5.jpg","https://xcimg.szwego.com/img/fbe1a617/20250515/i1747304688090_6764_0_6.jpg","https://xcimg.szwego.com/img/fbe1a617/20250515/i1747304689795_1450_0_7.jpg","https://xcimg.szwego.com/img/fbe1a617/20250515/i1747304688516_9225_0_8.jpg"],"created_at":"2026-06-29T10:35:34.144Z"},{"id":"item-3c98ad05069e","sku":"_dx2x2XK0Fsf_TMQf2ShwvKHLjceaCHRWRbguw4Q","name_en":"Chanel Women Bags","name_cn":"上身效果#3260、3261","specs":{"source":"wsxcme","sourceId":"_dx2x2XK0Fsf_TMQf2ShwvKHLjceaCHRWRbguw4Q","sourceTagId":47002745,"sourceTagName":"香奈儿/女包","rawTitle":"上身效果#3260、3261"},"price":null,"currency":"CNY","moq":1,"category":"chanel-women-bags","status":"active","alibaba_url":null,"images":["https://xcimg.szwego.com/20230226/i1677418221_2550_0.jpg","https://xcimg.szwego.com/20230226/i1677418221_23_1.jpg","https://xcimg.szwego.com/20230226/i1677418221_4216_2.jpg","https://xcimg.szwego.com/20230226/i1677418221_2654_3.jpg","https://xcimg.szwego.com/20230226/i1677418221_335_4.jpg","https://xcimg.szwego.com/20230226/i1677418221_2558_5.jpg","https://xcimg.szwego.com/20230226/i1677418221_4684_6.jpg","https://xcimg.szwego.com/20230226/i1677418221_2017_7.jpg","https://xcimg.szwego.com/20230226/i1677418221_4437_8.jpg"],"created_at":"2026-06-29T10:35:34.134Z"},{"id":"item-e79c352a30bc","sku":"_dbqbqrhVF9LBdXZhhCl-nSzcFaBSxSl5_692DEg","name_en":"Chane1全新22包火爆来袭!!️","name_cn":"Chane1全新22包火爆来袭!!️\n原皮22白金 小号:3260\n✨热点上新Chane1 22Bag\n说它\"垃圾袋\"也好,购物袋也罢\n反正就是很对味🍃\n以年份数字为命名的都要对准它!!\n绝对是经典中的天花板✔️\n这颜值太能打了,能装又好看。\n随性软塌塌的质感、背起来自成风格。\n\n五金:厚镀复古金扣\n皮料:原厂小牛皮\n尺寸:35*37*8cm  \n9788025","specs":{"source":"wsxcme","sourceId":"_dbqbqrhVF9LBdXZhhCl-nSzcFaBSxSl5_692DEg","sourceTagId":47002745,"sourceTagName":"香奈儿/女包","dimensions":{"lengthCm":35,"heightCm":37,"widthCm":8},"rawTitle":"Chane1全新22包火爆来袭!!️\n原皮22白金 小号:3260\n✨热点上新Chane1 22Bag\n说它\"垃圾袋\"也好,购物袋也罢\n反正就是很对味🍃\n以年份数字为命名的都要对准它!!\n绝对是经典中的天花板✔️\n这颜值太能打了,能装又好看。\n随性软塌塌的质感、背起来自成风格。\n\n五金:厚镀复古金扣\n皮料:原厂小牛皮\n尺寸:35*37*8cm  \n9788025"},"price":null,"currency":"CNY","moq":1,"category":"chanel-women-bags","status":"active","alibaba_url":null,"images":["https://xcimg.szwego.com/img/fbe1a617/20250515/i1747305192383_2618_0_0.jpg","https://xcimg.szwego.com/img/fbe1a617/20250515/i1747305190948_3461_0_1.jpg","https://xcimg.szwego.com/img/fbe1a617/20250515/i1747305192517_3709_0_2.jpg","https://xcimg.szwego.com/img/fbe1a617/20250515/i1747305191082_9458_0_3.jpg","https://xcimg.szwego.com/img/fbe1a617/20250515/i1747305190879_4214_0_4.jpg","https://xcimg.szwego.com/img/fbe1a617/20250515/i1747305190673_6555_0_5.jpg","https://xcimg.szwego.com/img/fbe1a617/20250515/i1747305192505_2691_0_6.jpg","https://xcimg.szwego.com/img/fbe1a617/20250515/i1747305192440_4345_0_7.jpg","https://xcimg.szwego.com/img/fbe1a617/20250515/i1747305190955_8436_0_8.jpg"],"created_at":"2026-06-29T10:35:34.124Z"},{"id":"item-71ed81340f5c","sku":"_dxvxvfdz4XLjbGFh1uFndojrwaJ8kBjBnwKHtcw","name_en":"Chanel Women Bags","name_cn":"香奈儿/女包","specs":{"source":"wsxcme","sourceId":"_dxvxvfdz4XLjbGFh1uFndojrwaJ8kBjBnwKHtcw","sourceTagId":47002745,"sourceTagName":"香奈儿/女包","rawTitle":""},"price":null,"currency":"CNY","moq":1,"category":"chanel-women-bags","status":"active","alibaba_url":null,"images":["https://xcimg.szwego.com/img/fbe1a617/20250515/i1747305116128_5734_0_0.jpg"],"created_at":"2026-06-29T10:35:34.114Z"},{"id":"item-0172a3fc961a","sku":"_dakakpbfRlgd-bfEIbuJOoBkW7R6yKrrLEoLeeQ","name_en":"Chanel Women Bags","name_cn":"香奈儿/女包","specs":{"source":"wsxcme","sourceId":"_dakakpbfRlgd-bfEIbuJOoBkW7R6yKrrLEoLeeQ","sourceTagId":47002745,"sourceTagName":"香奈儿/女包","rawTitle":""},"price":null,"currency":"CNY","moq":1,"category":"chanel-women-bags","status":"active","alibaba_url":null,"images":["https://xcimg.szwego.com/img/fbe1a617/20250515/i1747305111199_2437_0_0.jpg"],"created_at":"2026-06-29T10:35:34.104Z"},{"id":"item-8d4ce63813b0","sku":"_dHrHrsdX-3Ru1eu0C7HKMzT3YGzUK5-WwZT_hsw","name_en":"Chanel Women Bags","name_cn":"香奈儿/女包","specs":{"source":"wsxcme","sourceId":"_dHrHrsdX-3Ru1eu0C7HKMzT3YGzUK5-WwZT_hsw","sourceTagId":47002745,"sourceTagName":"香奈儿/女包","rawTitle":""},"price":null,"currency":"CNY","moq":1,"category":"chanel-women-bags","status":"active","alibaba_url":null,"images":["https://xcimg.szwego.com/img/fbe1a617/20250515/i1747305106545_458_0_0.jpg"],"created_at":"2026-06-29T10:35:34.094Z"},{"id":"item-1509b7fc294e","sku":"_dhyhyCb6PFzR5qo_1XqU-AGMd0SrUr2MMgUxFvw","name_en":"Chane1全新22包火爆来袭!!️","name_cn":"Chane1全新22包火爆来袭!!️\n原皮22白金 中号 3261\n✨热点上新Chane1 22Bag\n说它\"垃圾袋\"也好,购物袋也罢\n反正就是很对味🍃\n以年份数字为命名的都要对准它!!\n绝对是经典中的天花板✔️\n这颜值太能打了,能装又好看。\n随性软塌塌的质感、背起来自成风格。\n五金:厚镀全刚24K复古金扣\n皮料:原厂小牛皮\n尺寸:39*42*8 cm。\n1093087","specs":{"source":"wsxcme","sourceId":"_dhyhyCb6PFzR5qo_1XqU-AGMd0SrUr2MMgUxFvw","sourceTagId":47002745,"sourceTagName":"香奈儿/女包","dimensions":{"lengthCm":39,"heightCm":42,"widthCm":8},"rawTitle":"Chane1全新22包火爆来袭!!️\n原皮22白金 中号 3261\n✨热点上新Chane1 22Bag\n说它\"垃圾袋\"也好,购物袋也罢\n反正就是很对味🍃\n以年份数字为命名的都要对准它!!\n绝对是经典中的天花板✔️\n这颜值太能打了,能装又好看。\n随性软塌塌的质感、背起来自成风格。\n五金:厚镀全刚24K复古金扣\n皮料:原厂小牛皮\n尺寸:39*42*8 cm。\n1093087"},"price":null,"currency":"CNY","moq":1,"category":"chanel-women-bags","status":"active","alibaba_url":null,"images":["https://xcimg.szwego.com/img/fbe1a617/20250515/i1747305010922_8270_0_0.jpg","https://xcimg.szwego.com/img/fbe1a617/20250515/i1747305009436_5833_0_1.jpg","https://xcimg.szwego.com/img/fbe1a617/20250515/i1747305010779_3905_0_2.jpg","https://xcimg.szwego.com/img/fbe1a617/20250515/i1747305009491_1477_0_3.jpg","https://xcimg.szwego.com/img/fbe1a617/20250515/i1747305009182_3363_0_4.jpg","https://xcimg.szwego.com/img/fbe1a617/20250515/i1747305011007_2218_0_5.jpg","https://xcimg.szwego.com/img/fbe1a617/20250515/i1747305009465_477_0_6.jpg","https://xcimg.szwego.com/img/fbe1a617/20250515/i1747305010995_2048_0_7.jpg","https://xcimg.szwego.com/img/fbe1a617/20250515/i1747305009341_300_0_8.jpg"],"created_at":"2026-06-29T10:35:34.084Z"},{"id":"item-b579c8a85a47","sku":"_dpwpwkOGojckcAx6S9GUoPXwe5Q_BE4zMOLVKGw","name_en":"Chanel Women Bags","name_cn":"上身图3980","specs":{"source":"wsxcme","sourceId":"_dpwpwkOGojckcAx6S9GUoPXwe5Q_BE4zMOLVKGw","sourceTagId":47002745,"sourceTagName":"香奈儿/女包","rawTitle":"上身图3980"},"price":null,"currency":"CNY","moq":1,"category":"chanel-women-bags","status":"active","alibaba_url":null,"images":["https://xcimg.szwego.com/20230816/i1692173374_4943_1.jpg","https://xcimg.szwego.com/20230816/i1692173374_7972_2.jpg","https://xcimg.szwego.com/20230816/i1692173374_7915_3.jpg","https://xcimg.szwego.com/20230816/i1692173374_1717_4.jpg","https://xcimg.szwego.com/20230816/i1692173374_1150_5.jpg","https://xcimg.szwego.com/20230816/i1692173374_598_6.jpg","https://xcimg.szwego.com/20230816/i1692173374_9834_7.jpg","https://xcimg.szwego.com/20230816/i1692173374_91_8.jpg"],"created_at":"2026-06-29T10:35:34.074Z"},{"id":"item-5edf461d2b1b","sku":"_df0f0Gbu0O5Gf108SZCcA682rzGenEKD5RzPluA","name_en":"Chanel Women Bags","name_cn":"3980","specs":{"source":"wsxcme","sourceId":"_df0f0Gbu0O5Gf108SZCcA682rzGenEKD5RzPluA","sourceTagId":47002745,"sourceTagName":"香奈儿/女包","rawTitle":"3980"},"price":null,"currency":"CNY","moq":1,"category":"chanel-women-bags","status":"active","alibaba_url":null,"images":["https://xcimg.szwego.com/20230816/i1692173309_9138_0.jpg","https://xcimg.szwego.com/20230816/i1692173309_9798_1.jpg","https://xcimg.szwego.com/20230816/i1692173309_7923_2.jpg","https://xcimg.szwego.com/20230816/i1692173309_6896_3.jpg","https://xcimg.szwego.com/20230816/i1692173309_9076_4.jpg","https://xcimg.szwego.com/20230816/i1692173309_3752_5.jpg","https://xcimg.szwego.com/20230816/i1692173309_9931_6.jpg","https://xcimg.szwego.com/20230816/i1692173309_6170_7.jpg","https://xcimg.szwego.com/20230816/i1692173309_7997_8.jpg"],"created_at":"2026-06-29T10:35:34.064Z"},{"id":"item-0a855947a172","sku":"_dtutumqGMvtcTmb8uUHOgIi9otCNOMHYfoGhnzg","name_en":"全新升级版 现货🆕Chanel珍珠链mini22Bag火爆珍珠链条Mini 22Bag","name_cn":"全新升级版 现货🆕Chanel珍珠链mini22Bag火爆珍珠链条Mini 22Bag\n♥黑色C-081、独家意大利渠道皮\n今年23s秀场主角珍珠mini22bag黑金,Jennie同款,没有理由不入手!\n珍珠 菱格 黑裂 砂金,\n这几个元素加在一起,简直太爱了!\n这款包还没等上市就已经火爆全网。\n出彩的设计直接封神!容量很美好,\n优雅时髦的造型超乎想象🖤\n五金:全刚五金复古金扣/人造珍珠链\n皮料:褶皱亮面小牛皮\n尺寸:19*20*6 cm\nA3980 珍珠款\n8365092","specs":{"source":"wsxcme","sourceId":"_dtutumqGMvtcTmb8uUHOgIi9otCNOMHYfoGhnzg","sourceTagId":47002745,"sourceTagName":"香奈儿/女包","dimensions":{"lengthCm":19,"heightCm":20,"widthCm":6},"rawTitle":"全新升级版 现货🆕Chanel珍珠链mini22Bag火爆珍珠链条Mini 22Bag\n♥黑色C-081、独家意大利渠道皮\n今年23s秀场主角珍珠mini22bag黑金,Jennie同款,没有理由不入手!\n珍珠 菱格 黑裂 砂金,\n这几个元素加在一起,简直太爱了!\n这款包还没等上市就已经火爆全网。\n出彩的设计直接封神!容量很美好,\n优雅时髦的造型超乎想象🖤\n五金:全刚五金复古金扣/人造珍珠链\n皮料:褶皱亮面小牛皮\n尺寸:19*20*6 cm\nA3980 珍珠款\n8365092"},"price":null,"currency":"CNY","moq":1,"category":"chanel-women-bags","status":"active","alibaba_url":null,"images":["https://xcimg.szwego.com/img/fbe1a617/20250108/a1736353383874_4102.jpg","https://xcimg.szwego.com/img/fbe1a617/20250108/a1736353383856_6756.jpg","https://xcimg.szwego.com/img/fbe1a617/20250108/a1736353384062_6657.jpg","https://xcimg.szwego.com/img/fbe1a617/20250108/a1736353384049_7578.jpg","https://xcimg.szwego.com/img/fbe1a617/20250108/a1736353385463_8670.jpg","https://xcimg.szwego.com/img/fbe1a617/20250108/a1736353383889_2233.jpg","https://xcimg.szwego.com/img/fbe1a617/20250108/a1736353383827_7355.jpg","https://xcimg.szwego.com/img/fbe1a617/20250108/a1736353385466_4778.jpg","https://xcimg.szwego.com/img/fbe1a617/20250108/a1736353385461_5041.jpg"],"created_at":"2026-06-29T10:35:34.054Z"},{"id":"item-a33aa09685c2","sku":"_delelsTulZEt13zTztXQzSbC6fbZOh5zFRMjpWw","name_en":"Chanel Women Bags","name_cn":"上身图3980","specs":{"source":"wsxcme","sourceId":"_delelsTulZEt13zTztXQzSbC6fbZOh5zFRMjpWw","sourceTagId":47002745,"sourceTagName":"香奈儿/女包","rawTitle":"上身图3980"},"price":null,"currency":"CNY","moq":1,"category":"chanel-women-bags","status":"active","alibaba_url":null,"images":["https://xcimg.szwego.com/20230816/i1692173019_2435_0.jpg","https://xcimg.szwego.com/20230816/i1692173019_7097_1.jpg","https://xcimg.szwego.com/20230816/i1692173019_6487_2.jpg","https://xcimg.szwego.com/20230816/i1692173019_1119_3.jpg","https://xcimg.szwego.com/20230816/i1692173019_1955_4.jpg","https://xcimg.szwego.com/20230816/i1692173019_3698_5.jpg","https://xcimg.szwego.com/20230816/i1692173019_7893_6.jpg","https://xcimg.szwego.com/20230816/i1692173019_2089_7.jpg"],"created_at":"2026-06-29T10:35:34.044Z"},{"id":"item-092f9c725527","sku":"_d0A0AXqro5gNPlu-dGlOw_knjuwHctTvzokfy2g","name_en":"Chanel Women Bags","name_cn":"上身图3980","specs":{"source":"wsxcme","sourceId":"_d0A0AXqro5gNPlu-dGlOw_knjuwHctTvzokfy2g","sourceTagId":47002745,"sourceTagName":"香奈儿/女包","rawTitle":"上身图3980"},"price":null,"currency":"CNY","moq":1,"category":"chanel-women-bags","status":"active","alibaba_url":null,"images":["https://xcimg.szwego.com/20230816/i1692173094_8385_0.jpg","https://xcimg.szwego.com/20230816/i1692173094_9245_1.jpg","https://xcimg.szwego.com/20230816/i1692173094_9353_2.jpg","https://xcimg.szwego.com/20230816/i1692173094_7142_3.jpg","https://xcimg.szwego.com/20230816/i1692173094_7041_4.jpg","https://xcimg.szwego.com/20230816/i1692173094_2886_5.jpg","https://xcimg.szwego.com/20230816/i1692173094_2018_6.jpg","https://xcimg.szwego.com/20230816/i1692173094_95_7.jpg","https://xcimg.szwego.com/20230816/i1692173094_1781_8.jpg"],"created_at":"2026-06-29T10:35:34.034Z"},{"id":"item-78dac2804c38","sku":"_dededHT-TRwjTk5dQJbBt6HsycpyrKdPeAJSysA","name_en":"全新升级版🆕Chane1迷你22Bag","name_cn":"全新升级版🆕Chane1迷你22Bag\nAntiba zp皮Mini 22黑色 银扣\n秀场主角Chane1 22miniBag\n造型感极强,设计风拉满~\n小巧Size却能轻易叱咤秀场\n\n五金:全刚五金复古银扣\n皮料:原厂小牛皮\n尺寸:19*20*6 cm\n编号:3980  黑色 \n9362075","specs":{"source":"wsxcme","sourceId":"_dededHT-TRwjTk5dQJbBt6HsycpyrKdPeAJSysA","sourceTagId":47002745,"sourceTagName":"香奈儿/女包","dimensions":{"lengthCm":19,"heightCm":20,"widthCm":6},"rawTitle":"全新升级版🆕Chane1迷你22Bag\nAntiba zp皮Mini 22黑色 银扣\n秀场主角Chane1 22miniBag\n造型感极强,设计风拉满~\n小巧Size却能轻易叱咤秀场\n\n五金:全刚五金复古银扣\n皮料:原厂小牛皮\n尺寸:19*20*6 cm\n编号:3980  黑色 \n9362075"},"price":null,"currency":"CNY","moq":1,"category":"chanel-women-bags","status":"active","alibaba_url":null,"images":["https://xcimg.szwego.com/img/fbe1a617/20250108/a1736353273934_5610.jpg","https://xcimg.szwego.com/img/fbe1a617/20250108/a1736353273933_3731.jpg","https://xcimg.szwego.com/img/fbe1a617/20250108/a1736353274066_2055.jpg","https://xcimg.szwego.com/img/fbe1a617/20250108/a1736353274005_3700.jpg","https://xcimg.szwego.com/img/fbe1a617/20250108/a1736353273908_7228.jpg","https://xcimg.szwego.com/img/fbe1a617/20250108/a1736353274133_8832.jpg","https://xcimg.szwego.com/img/fbe1a617/20250108/a1736353275705_8501.jpg","https://xcimg.szwego.com/img/fbe1a617/20250108/a1736353275682_5041.jpg","https://xcimg.szwego.com/img/fbe1a617/20250108/a1736353275696_5611.jpg"],"created_at":"2026-06-29T10:35:34.024Z"},{"id":"item-20560cbd0e5c","sku":"_dkmkmPAxS6JcybiS0cIDORiQ3gEzlMvJeKVW3Xg","name_en":"Chane1全新22包火爆来袭!!️","name_cn":"Chane1全新22包火爆来袭!!️\n原皮22黑银 中号:3260\n✨热点上新Chane1 22Bag\n说它\"垃圾袋\"也好,购物袋也罢\n反正就是很对味🍃\n以年份数字为命名的都要对准它!!\n绝对是经典中的天花板✔️\n这颜值太能打了,能装又好看。\n随性软塌塌的质感、背起来自成风格。\n\n五金:厚镀复古银扣\n皮料:原厂小牛皮\n尺寸:35*37*8cm  \n9788025","specs":{"source":"wsxcme","sourceId":"_dkmkmPAxS6JcybiS0cIDORiQ3gEzlMvJeKVW3Xg","sourceTagId":47002745,"sourceTagName":"香奈儿/女包","dimensions":{"lengthCm":35,"heightCm":37,"widthCm":8},"rawTitle":"Chane1全新22包火爆来袭!!️\n原皮22黑银 中号:3260\n✨热点上新Chane1 22Bag\n说它\"垃圾袋\"也好,购物袋也罢\n反正就是很对味🍃\n以年份数字为命名的都要对准它!!\n绝对是经典中的天花板✔️\n这颜值太能打了,能装又好看。\n随性软塌塌的质感、背起来自成风格。\n\n五金:厚镀复古银扣\n皮料:原厂小牛皮\n尺寸:35*37*8cm  \n9788025"},"price":null,"currency":"CNY","moq":1,"category":"chanel-women-bags","status":"active","alibaba_url":null,"images":["https://xcimg.szwego.com/img/fbe1a617/20250108/a1736353129787_4431.jpg","https://xcimg.szwego.com/img/fbe1a617/20250108/a1736353130018_1800.jpg","https://xcimg.szwego.com/img/fbe1a617/20250108/a1736353129866_5461.jpg","https://xcimg.szwego.com/img/fbe1a617/20250108/a1736353129834_1123.jpg","https://xcimg.szwego.com/img/fbe1a617/20250108/a1736353129926_3174.jpg","https://xcimg.szwego.com/img/fbe1a617/20250108/a1736353129813_8267.jpg","https://xcimg.szwego.com/img/fbe1a617/20250108/a1736353131705_8512.jpg","https://xcimg.szwego.com/img/fbe1a617/20250108/a1736353131694_6515.jpg","https://xcimg.szwego.com/img/fbe1a617/20250108/a1736352874434_5807.jpg"],"created_at":"2026-06-29T10:35:34.014Z"},{"id":"item-cc30f255c988","sku":"_dqwqwtcafm11D2Ff7aAO9VIrkFYzLbHB6Pkk1XQ","name_en":"Chane1全新22包火爆来袭!!️","name_cn":"Chane1全新22包火爆来袭!!️\n原皮22黑银 中号:3261\n✨热点上新Chane1 22Bag\n说它\"垃圾袋\"也好,购物袋也罢\n反正就是很对味🍃\n以年份数字为命名的都要对准它!!\n绝对是经典中的天花板✔️\n这颜值太能打了,能装又好看。\n随性软塌塌的质感、背起来自成风格。\n\n五金:厚镀复古银扣\n皮料:原厂小牛皮\n尺寸:39*42*8 cm  \n1093087","specs":{"source":"wsxcme","sourceId":"_dqwqwtcafm11D2Ff7aAO9VIrkFYzLbHB6Pkk1XQ","sourceTagId":47002745,"sourceTagName":"香奈儿/女包","dimensions":{"lengthCm":39,"heightCm":42,"widthCm":8},"rawTitle":"Chane1全新22包火爆来袭!!️\n原皮22黑银 中号:3261\n✨热点上新Chane1 22Bag\n说它\"垃圾袋\"也好,购物袋也罢\n反正就是很对味🍃\n以年份数字为命名的都要对准它!!\n绝对是经典中的天花板✔️\n这颜值太能打了,能装又好看。\n随性软塌塌的质感、背起来自成风格。\n\n五金:厚镀复古银扣\n皮料:原厂小牛皮\n尺寸:39*42*8 cm  \n1093087"},"price":null,"currency":"CNY","moq":1,"category":"chanel-women-bags","status":"active","alibaba_url":null,"images":["https://xcimg.szwego.com/img/fbe1a617/20250108/a1736352874587_7827.jpg","https://xcimg.szwego.com/img/fbe1a617/20250108/a1736352874515_4663.jpg","https://xcimg.szwego.com/img/fbe1a617/20250108/a1736352874610_3841.jpg","https://xcimg.szwego.com/img/fbe1a617/20250108/a1736352874393_5774.jpg","https://xcimg.szwego.com/img/fbe1a617/20250108/a1736352875983_7106.jpg","https://xcimg.szwego.com/img/fbe1a617/20250108/a1736352874516_1731.jpg","https://xcimg.szwego.com/img/fbe1a617/20250108/a1736352875950_2257.jpg","https://xcimg.szwego.com/img/fbe1a617/20250108/a1736352876039_3616.jpg","https://xcimg.szwego.com/img/fbe1a617/20250108/a1736352936347_0178.jpg"],"created_at":"2026-06-29T10:35:34.004Z"}],"page":2,"pageSize":24,"total":1102,"totalPages":46}
