{"items":[{"id":"item-2770700d6151","sku":"_df_f_wbuMEqOuQ2nTyS3rpnbNnyesZZd9U1IO1w","name_en":"《浅杏色》🔮🔮🔮🚩🚩🚩胎牛皮OHANEL 26C👅👅👅香奈儿Hobo Bag,随性姿态书写优雅新义!胎🐮皮柔软皮料与金属链条的完美交融,诠释毫不费力的高级感在时尚法则中,“流浪”一词从未如此优雅。Hobo Bag以其独特的慵懒轮廓和精致工艺,重新定义了随性与奢华的完美平衡。设计亮点:不拘一格的优雅、采用优质柔软皮革打造,呈现出慵懒而不失结","name_cn":"《浅杏色》🔮🔮🔮🚩🚩🚩胎牛皮OHANEL 26C👅👅👅香奈儿Hobo Bag,随性姿态书写优雅新义!胎🐮皮柔软皮料与金属链条的完美交融,诠释毫不费力的高级感在时尚法则中,“流浪”一词从未如此优雅。Hobo Bag以其独特的慵懒轮廓和精致工艺,重新定义了随性与奢华的完美平衡。设计亮点:不拘一格的优雅、采用优质柔软皮革打造,呈现出慵懒而不失结构的轮廓。双链条⛓️缩口设计是这款包袋的标志性元素,金属与皮革交织的肩带不仅美观,也提供舒适的佩戴体验。宽敞的内部空间打破了小众包不实用的刻板印象。无论是日常 essentials 还是随身小物,都能轻松收纳。风格搭配:从休闲到正式的完美伴侣👨‍❤️‍💋‍👨的整体造型加分。搭配连衣裙或小黑裙时,能为整体造型增添一丝优雅与精致感。征服时尚界的单品这款包袋已经成为众多明星和时尚偶像的首选。从周迅、刘雯到陈伟霆,无论是男性还是女性,都能背出属于自己的风格,证明了这款设计超越了性别的界限。尺寸:长35CM,宽14CM,高45cm","specs":{"source":"wsxcme","sourceId":"_df_f_wbuMEqOuQ2nTyS3rpnbNnyesZZd9U1IO1w","sourceTagId":47002745,"sourceTagName":"香奈儿/女包","rawTitle":"《浅杏色》🔮🔮🔮🚩🚩🚩胎牛皮OHANEL 26C👅👅👅香奈儿Hobo Bag,随性姿态书写优雅新义!胎🐮皮柔软皮料与金属链条的完美交融,诠释毫不费力的高级感在时尚法则中,“流浪”一词从未如此优雅。Hobo Bag以其独特的慵懒轮廓和精致工艺,重新定义了随性与奢华的完美平衡。设计亮点:不拘一格的优雅、采用优质柔软皮革打造,呈现出慵懒而不失结构的轮廓。双链条⛓️缩口设计是这款包袋的标志性元素,金属与皮革交织的肩带不仅美观,也提供舒适的佩戴体验。宽敞的内部空间打破了小众包不实用的刻板印象。无论是日常 essentials 还是随身小物,都能轻松收纳。风格搭配:从休闲到正式的完美伴侣👨‍❤️‍💋‍👨的整体造型加分。搭配连衣裙或小黑裙时,能为整体造型增添一丝优雅与精致感。征服时尚界的单品这款包袋已经成为众多明星和时尚偶像的首选。从周迅、刘雯到陈伟霆,无论是男性还是女性,都能背出属于自己的风格,证明了这款设计超越了性别的界限。尺寸:长35CM,宽14CM,高45cm"},"price":null,"currency":"CNY","moq":1,"category":"chanel-women-bags","status":"active","alibaba_url":null,"images":["https://xcimg.szwego.com/img/d0c94e6f/20250911/i1757599104_9704_0.jpg","https://xcimg.szwego.com/img/d0c94e6f/20250911/i1757599105_7964_0.jpg","https://xcimg.szwego.com/img/d0c94e6f/20250911/i1757599105_1053_0.jpg","https://xcimg.szwego.com/img/d0c94e6f/20250911/i1757599105_725_0.jpg","https://xcimg.szwego.com/img/d0c94e6f/20250911/i1757599105_6107_0.jpg","https://xcimg.szwego.com/img/d0c94e6f/20250911/i1757599105_7333_0.jpg","https://xcimg.szwego.com/img/d0c94e6f/20250911/i1757599105_6754_0.jpg","https://xcimg.szwego.com/img/d0c94e6f/20250911/i1757599105_2431_0.jpg","https://xcimg.szwego.com/img/d0c94e6f/20250911/i1757599105_2147_0.jpg"],"created_at":"2025-09-19T04:32:40.137Z"},{"id":"item-9e07ba77291d","sku":"_d-E-EIivUraTaNEfqOx_kNcqfZpD_cWIiJD1-yQ","name_en":"Chanel Women Bags","name_cn":"香奈儿/女包","specs":{"source":"wsxcme","sourceId":"_d-E-EIivUraTaNEfqOx_kNcqfZpD_cWIiJD1-yQ","sourceTagId":47002745,"sourceTagName":"香奈儿/女包","rawTitle":""},"price":null,"currency":"CNY","moq":1,"category":"chanel-women-bags","status":"active","alibaba_url":null,"images":["https://xcimg.szwego.com/img/d0c94e6f/20250911/i1757599167_6795_0.jpg"],"created_at":"2025-09-19T04:32:40.136Z"},{"id":"item-da4b42f6ad6e","sku":"_dfhfh5epSLdKVmhHBSBuou-mVgWpQfTXAVpkXwA","name_en":"《奶昔白色》🔮🔮🔮🚩🚩🚩胎牛皮OHANEL 26C👅👅👅香奈儿Hobo Bag,随性姿态书写优雅新义!胎🐮皮柔软皮料与金属链条的完美交融,诠释毫不费力的高级感在时尚法则中,“流浪”一词从未如此优雅。Hobo Bag以其独特的慵懒轮廓和精致工艺,重新定义了随性与奢华的完美平衡。设计亮点:不拘一格的优雅、采用优质柔软皮革打造,呈现出慵懒而不失","name_cn":"《奶昔白色》🔮🔮🔮🚩🚩🚩胎牛皮OHANEL 26C👅👅👅香奈儿Hobo Bag,随性姿态书写优雅新义!胎🐮皮柔软皮料与金属链条的完美交融,诠释毫不费力的高级感在时尚法则中,“流浪”一词从未如此优雅。Hobo Bag以其独特的慵懒轮廓和精致工艺,重新定义了随性与奢华的完美平衡。设计亮点:不拘一格的优雅、采用优质柔软皮革打造,呈现出慵懒而不失结构的轮廓。双链条⛓️缩口设计是这款包袋的标志性元素,金属与皮革交织的肩带不仅美观,也提供舒适的佩戴体验。宽敞的内部空间打破了小众包不实用的刻板印象。无论是日常 essentials 还是随身小物,都能轻松收纳。风格搭配:从休闲到正式的完美伴侣👨‍❤️‍💋‍👨的整体造型加分。搭配连衣裙或小黑裙时,能为整体造型增添一丝优雅与精致感。征服时尚界的单品这款包袋已经成为众多明星和时尚偶像的首选。从周迅、刘雯到陈伟霆,无论是男性还是女性,都能背出属于自己的风格,证明了这款设计超越了性别的魅力!尺寸:长35CM,宽14CM,高45cm","specs":{"source":"wsxcme","sourceId":"_dfhfh5epSLdKVmhHBSBuou-mVgWpQfTXAVpkXwA","sourceTagId":47002745,"sourceTagName":"香奈儿/女包","rawTitle":"《奶昔白色》🔮🔮🔮🚩🚩🚩胎牛皮OHANEL 26C👅👅👅香奈儿Hobo Bag,随性姿态书写优雅新义!胎🐮皮柔软皮料与金属链条的完美交融,诠释毫不费力的高级感在时尚法则中,“流浪”一词从未如此优雅。Hobo Bag以其独特的慵懒轮廓和精致工艺,重新定义了随性与奢华的完美平衡。设计亮点:不拘一格的优雅、采用优质柔软皮革打造,呈现出慵懒而不失结构的轮廓。双链条⛓️缩口设计是这款包袋的标志性元素,金属与皮革交织的肩带不仅美观,也提供舒适的佩戴体验。宽敞的内部空间打破了小众包不实用的刻板印象。无论是日常 essentials 还是随身小物,都能轻松收纳。风格搭配:从休闲到正式的完美伴侣👨‍❤️‍💋‍👨的整体造型加分。搭配连衣裙或小黑裙时,能为整体造型增添一丝优雅与精致感。征服时尚界的单品这款包袋已经成为众多明星和时尚偶像的首选。从周迅、刘雯到陈伟霆,无论是男性还是女性,都能背出属于自己的风格,证明了这款设计超越了性别的魅力!尺寸:长35CM,宽14CM,高45cm"},"price":null,"currency":"CNY","moq":1,"category":"chanel-women-bags","status":"active","alibaba_url":null,"images":["https://xcimg.szwego.com/img/d0c94e6f/20250911/i1757599152_9258_2.jpg","https://xcimg.szwego.com/img/d0c94e6f/20250911/i1757599152_5842_5.jpg","https://xcimg.szwego.com/img/d0c94e6f/20250911/i1757599152_5517_1.jpg","https://xcimg.szwego.com/img/d0c94e6f/20250911/i1757599152_9061_8.jpg","https://xcimg.szwego.com/img/d0c94e6f/20250911/i1757599152_3056_3.jpg","https://xcimg.szwego.com/img/d0c94e6f/20250911/i1757599152_429_4.jpg","https://xcimg.szwego.com/img/d0c94e6f/20250911/i1757599152_7918_0.jpg","https://xcimg.szwego.com/img/d0c94e6f/20250911/i1757599152_2505_6.jpg","https://xcimg.szwego.com/img/d0c94e6f/20250911/i1757599152_4765_7.jpg"],"created_at":"2025-09-19T04:32:40.135Z"},{"id":"item-4812725f448b","sku":"_dSCSCkZ1-tPAAfqPokPyrxAicTDlg01Wu1UlN-w","name_en":"Chanel Women Bags","name_cn":"香奈儿/女包","specs":{"source":"wsxcme","sourceId":"_dSCSCkZ1-tPAAfqPokPyrxAicTDlg01Wu1UlN-w","sourceTagId":47002745,"sourceTagName":"香奈儿/女包","rawTitle":""},"price":null,"currency":"CNY","moq":1,"category":"chanel-women-bags","status":"active","alibaba_url":null,"images":["https://xcimg.szwego.com/img/d0c94e6f/20250911/i1757599218_537_0.jpg"],"created_at":"2025-09-19T04:32:40.134Z"},{"id":"item-58b4771b2ce1","sku":"_d_v_v5Xw4daOAvEeTVqMe3z6txEJXIp2w1VwXfw","name_en":"《酒红色》🔮🔮🔮🚩🚩🚩胎牛皮OHANEL 26C👅👅👅香奈儿Hobo Bag,随性姿态书写优雅新义!胎🐮皮柔软皮料与金属链条的完美交融,诠释毫不费力的高级感在时尚法则中,“流浪”一词从未如此优雅。Hobo Bag以其独特的慵懒轮廓和精致工艺,重新定义了随性与奢华的完美平衡。设计亮点:不拘一格的优雅、采用优质柔软皮革打造,呈现出慵懒而不失结","name_cn":"《酒红色》🔮🔮🔮🚩🚩🚩胎牛皮OHANEL 26C👅👅👅香奈儿Hobo Bag,随性姿态书写优雅新义!胎🐮皮柔软皮料与金属链条的完美交融,诠释毫不费力的高级感在时尚法则中,“流浪”一词从未如此优雅。Hobo Bag以其独特的慵懒轮廓和精致工艺,重新定义了随性与奢华的完美平衡。设计亮点:不拘一格的优雅、采用优质柔软皮革打造,呈现出慵懒而不失结构的轮廓。双链条⛓️缩口设计是这款包袋的标志性元素,金属与皮革交织的肩带不仅美观,也提供舒适的佩戴体验。宽敞的内部空间打破了小众包不实用的刻板印象。无论是日常 essentials 还是随身小物,都能轻松收纳。风格搭配:从休闲到正式的完美伴侣👨‍❤️‍💋‍👨的整体造型加分。搭配连衣裙或小黑裙时,能为整体造型增添一丝优雅与精致感。征服时尚界的单品这款包袋已经成为众多明星和时尚偶像的首选。从周迅、刘雯到陈伟霆,无论是男性还是女性,都能背出属于自己的风格,证明了这款设计超越了性别的界限。尺寸:长35CM,宽14CM,高45cm","specs":{"source":"wsxcme","sourceId":"_d_v_v5Xw4daOAvEeTVqMe3z6txEJXIp2w1VwXfw","sourceTagId":47002745,"sourceTagName":"香奈儿/女包","rawTitle":"《酒红色》🔮🔮🔮🚩🚩🚩胎牛皮OHANEL 26C👅👅👅香奈儿Hobo Bag,随性姿态书写优雅新义!胎🐮皮柔软皮料与金属链条的完美交融,诠释毫不费力的高级感在时尚法则中,“流浪”一词从未如此优雅。Hobo Bag以其独特的慵懒轮廓和精致工艺,重新定义了随性与奢华的完美平衡。设计亮点:不拘一格的优雅、采用优质柔软皮革打造,呈现出慵懒而不失结构的轮廓。双链条⛓️缩口设计是这款包袋的标志性元素,金属与皮革交织的肩带不仅美观,也提供舒适的佩戴体验。宽敞的内部空间打破了小众包不实用的刻板印象。无论是日常 essentials 还是随身小物,都能轻松收纳。风格搭配:从休闲到正式的完美伴侣👨‍❤️‍💋‍👨的整体造型加分。搭配连衣裙或小黑裙时,能为整体造型增添一丝优雅与精致感。征服时尚界的单品这款包袋已经成为众多明星和时尚偶像的首选。从周迅、刘雯到陈伟霆,无论是男性还是女性,都能背出属于自己的风格,证明了这款设计超越了性别的界限。尺寸:长35CM,宽14CM,高45cm"},"price":null,"currency":"CNY","moq":1,"category":"chanel-women-bags","status":"active","alibaba_url":null,"images":["https://xcimg.szwego.com/img/d0c94e6f/20250911/i1757599197_8689_0.jpg","https://xcimg.szwego.com/img/d0c94e6f/20250911/i1757599197_9330_1.jpg","https://xcimg.szwego.com/img/d0c94e6f/20250911/i1757599197_8003_4.jpg","https://xcimg.szwego.com/img/d0c94e6f/20250911/i1757599197_7482_3.jpg","https://xcimg.szwego.com/img/d0c94e6f/20250911/i1757599197_9521_6.jpg","https://xcimg.szwego.com/img/d0c94e6f/20250911/i1757599197_7920_5.jpg","https://xcimg.szwego.com/img/d0c94e6f/20250911/i1757599197_1577_8.jpg","https://xcimg.szwego.com/img/d0c94e6f/20250911/i1757599197_6554_7.jpg","https://xcimg.szwego.com/img/d0c94e6f/20250911/i1757599197_1235_2.jpg"],"created_at":"2025-09-19T04:32:40.133Z"},{"id":"item-d1e38c415981","sku":"_dnmnmbBKjGNunrGzv-8OTXvGbReucDSyeiVUQQA","name_en":"三色可选🔮🔮🔮大H实拍图片🍠🍠🍠25B最新🆕风琴包🚩🚩🚩爆闪钻🎖️🎖️🎖️mimi风琴包OHANEL 水钻手柄风琴包🎹双色水晶手柄真的绝绝绝美!复古华丽,精致的像艺术品一样双层的风琴包型,容量也很大可以放下2部📱,很实用的一款😄双C扣的设计也很特别,有种blingbling的感觉,好精致好米呀~糕🐑皮很独特!感觉很耐用哦!搭","name_cn":"三色可选🔮🔮🔮大H实拍图片🍠🍠🍠25B最新🆕风琴包🚩🚩🚩爆闪钻🎖️🎖️🎖️mimi风琴包OHANEL 水钻手柄风琴包🎹双色水晶手柄真的绝绝绝美!复古华丽,精致的像艺术品一样双层的风琴包型,容量也很大可以放下2部📱,很实用的一款😄双C扣的设计也很特别,有种blingbling的感觉,好精致好米呀~糕🐑皮很独特!感觉很耐用哦!搭配任何衣服都能让你精致度.4831尺寸:11*18.5*6cm/","specs":{"source":"wsxcme","sourceId":"_dnmnmbBKjGNunrGzv-8OTXvGbReucDSyeiVUQQA","sourceTagId":47002745,"sourceTagName":"香奈儿/女包","dimensions":{"lengthCm":11,"heightCm":18.5,"widthCm":6},"rawTitle":"三色可选🔮🔮🔮大H实拍图片🍠🍠🍠25B最新🆕风琴包🚩🚩🚩爆闪钻🎖️🎖️🎖️mimi风琴包OHANEL 水钻手柄风琴包🎹双色水晶手柄真的绝绝绝美!复古华丽,精致的像艺术品一样双层的风琴包型,容量也很大可以放下2部📱,很实用的一款😄双C扣的设计也很特别,有种blingbling的感觉,好精致好米呀~糕🐑皮很独特!感觉很耐用哦!搭配任何衣服都能让你精致度.4831尺寸:11*18.5*6cm/"},"price":null,"currency":"CNY","moq":1,"category":"chanel-women-bags","status":"active","alibaba_url":null,"images":["https://xcimg.szwego.com/img/d0c94e6f/20250911/i1757599018_8522_0.jpg"],"created_at":"2025-09-19T04:32:40.132Z"},{"id":"item-108e2de339b5","sku":"_dxPxPOIKveejJSfaH_mrCxikc9fbOjBch9rb6tQ","name_en":"Chanel Women Bags","name_cn":"香奈儿/女包","specs":{"source":"wsxcme","sourceId":"_dxPxPOIKveejJSfaH_mrCxikc9fbOjBch9rb6tQ","sourceTagId":47002745,"sourceTagName":"香奈儿/女包","rawTitle":""},"price":null,"currency":"CNY","moq":1,"category":"chanel-women-bags","status":"active","alibaba_url":null,"images":["https://xcimg.szwego.com/img/d0c94e6f/20250910/i1757504720_6075_0.jpg"],"created_at":"2025-09-19T04:32:40.131Z"},{"id":"item-aaf070ac2aaf","sku":"_dMQMQ2hdUkSjH2uq5B2nTwR_-GkeOzOEoCQnS2Q","name_en":"《奶昔白》25B最新🆕风琴包🚩🚩🚩爆闪钻🎖️🎖️🎖️mimi风琴包OHANEL 水钻手柄风琴包🎹双色水晶手柄真的绝绝绝美!复古华丽,精致的像艺术品一样双层的风琴包型,容量也很大可以放下2部📱,很实用的一款😄双C扣的设计也很特别,有种blingbling的感觉,好精致好米呀~糕🐑皮很独特!感觉很耐用哦!搭配任何衣服都能让你精致度.4831","name_cn":"《奶昔白》25B最新🆕风琴包🚩🚩🚩爆闪钻🎖️🎖️🎖️mimi风琴包OHANEL 水钻手柄风琴包🎹双色水晶手柄真的绝绝绝美!复古华丽,精致的像艺术品一样双层的风琴包型,容量也很大可以放下2部📱,很实用的一款😄双C扣的设计也很特别,有种blingbling的感觉,好精致好米呀~糕🐑皮很独特!感觉很耐用哦!搭配任何衣服都能让你精致度.4831尺寸:11*18.5*6cm/","specs":{"source":"wsxcme","sourceId":"_dMQMQ2hdUkSjH2uq5B2nTwR_-GkeOzOEoCQnS2Q","sourceTagId":47002745,"sourceTagName":"香奈儿/女包","dimensions":{"lengthCm":11,"heightCm":18.5,"widthCm":6},"rawTitle":"《奶昔白》25B最新🆕风琴包🚩🚩🚩爆闪钻🎖️🎖️🎖️mimi风琴包OHANEL 水钻手柄风琴包🎹双色水晶手柄真的绝绝绝美!复古华丽,精致的像艺术品一样双层的风琴包型,容量也很大可以放下2部📱,很实用的一款😄双C扣的设计也很特别,有种blingbling的感觉,好精致好米呀~糕🐑皮很独特!感觉很耐用哦!搭配任何衣服都能让你精致度.4831尺寸:11*18.5*6cm/"},"price":null,"currency":"CNY","moq":1,"category":"chanel-women-bags","status":"active","alibaba_url":null,"images":["https://xcimg.szwego.com/img/d0c94e6f/20250910/i1757504659_3126_5.jpg","https://xcimg.szwego.com/img/d0c94e6f/20250910/i1757504659_9137_3.jpg","https://xcimg.szwego.com/img/d0c94e6f/20250910/i1757504659_4698_0.jpg","https://xcimg.szwego.com/img/d0c94e6f/20250910/i1757504659_7538_8.jpg","https://xcimg.szwego.com/img/d0c94e6f/20250910/i1757504659_4468_2.jpg","https://xcimg.szwego.com/img/d0c94e6f/20250910/i1757504659_9339_7.jpg","https://xcimg.szwego.com/img/d0c94e6f/20250910/i1757504659_7994_1.jpg","https://xcimg.szwego.com/img/d0c94e6f/20250910/i1757504659_5276_4.jpg","https://xcimg.szwego.com/img/d0c94e6f/20250910/i1757504659_2412_6.jpg"],"created_at":"2025-09-19T04:32:40.130Z"},{"id":"item-673b5484f6ed","sku":"_dv3v3aDa-OtggtDbZQB7KT41VR_Csz-GO5V-a0w","name_en":"Chanel Women Bags","name_cn":"香奈儿/女包","specs":{"source":"wsxcme","sourceId":"_dv3v3aDa-OtggtDbZQB7KT41VR_Csz-GO5V-a0w","sourceTagId":47002745,"sourceTagName":"香奈儿/女包","rawTitle":""},"price":null,"currency":"CNY","moq":1,"category":"chanel-women-bags","status":"active","alibaba_url":null,"images":["https://xcimg.szwego.com/img/d0c94e6f/20250910/i1757504650_8482_0.jpg"],"created_at":"2025-09-19T04:32:40.129Z"},{"id":"item-63802857b11c","sku":"_dvcvc5cJbSHpzOwP6Ad5_15LG0AptjnuUlaU5iQ","name_en":"《酒红色》25B最新🆕风琴包🚩🚩🚩爆闪钻🎖️🎖️🎖️mimi风琴包OHANEL 水钻手柄风琴包🎹双色水晶手柄真的绝绝绝美!复古华丽,精致的像艺术品一样双层的风琴包型,容量也很大可以放下2部📱,很实用的一款😄双C扣的设计也很特别,有种blingbling的感觉,好精致好米呀~糕🐑皮很独特!感觉很耐用哦!搭配任何衣服都能让你精致度.4831","name_cn":"《酒红色》25B最新🆕风琴包🚩🚩🚩爆闪钻🎖️🎖️🎖️mimi风琴包OHANEL 水钻手柄风琴包🎹双色水晶手柄真的绝绝绝美!复古华丽,精致的像艺术品一样双层的风琴包型,容量也很大可以放下2部📱,很实用的一款😄双C扣的设计也很特别,有种blingbling的感觉,好精致好米呀~糕🐑皮很独特!感觉很耐用哦!搭配任何衣服都能让你精致度.4831尺寸11*18.5*6cm/","specs":{"source":"wsxcme","sourceId":"_dvcvc5cJbSHpzOwP6Ad5_15LG0AptjnuUlaU5iQ","sourceTagId":47002745,"sourceTagName":"香奈儿/女包","dimensions":{"lengthCm":11,"heightCm":18.5,"widthCm":6},"rawTitle":"《酒红色》25B最新🆕风琴包🚩🚩🚩爆闪钻🎖️🎖️🎖️mimi风琴包OHANEL 水钻手柄风琴包🎹双色水晶手柄真的绝绝绝美!复古华丽,精致的像艺术品一样双层的风琴包型,容量也很大可以放下2部📱,很实用的一款😄双C扣的设计也很特别,有种blingbling的感觉,好精致好米呀~糕🐑皮很独特!感觉很耐用哦!搭配任何衣服都能让你精致度.4831尺寸11*18.5*6cm/"},"price":null,"currency":"CNY","moq":1,"category":"chanel-women-bags","status":"active","alibaba_url":null,"images":["https://xcimg.szwego.com/img/d0c94e6f/20250910/i1757504632_8876_6.jpg","https://xcimg.szwego.com/img/d0c94e6f/20250910/i1757504631_7705_2.jpg","https://xcimg.szwego.com/img/d0c94e6f/20250910/i1757504631_7072_4.jpg","https://xcimg.szwego.com/img/d0c94e6f/20250910/i1757504632_4004_7.jpg","https://xcimg.szwego.com/img/d0c94e6f/20250910/i1757504632_782_8.jpg","https://xcimg.szwego.com/img/d0c94e6f/20250910/i1757504631_4839_5.jpg","https://xcimg.szwego.com/img/d0c94e6f/20250910/i1757504631_7624_3.jpg","https://xcimg.szwego.com/img/d0c94e6f/20250910/i1757504643_1684_0.jpg","https://xcimg.szwego.com/img/d0c94e6f/20250910/i1757504631_9643_1.jpg"],"created_at":"2025-09-19T04:32:40.128Z"},{"id":"item-bf8e62b242ea","sku":"_dlQlQ-PAAhG4ObMXBYQ8kWAB2nnzdvBgc-8PbeA","name_en":"Chanel Women Bags","name_cn":"香奈儿/女包","specs":{"source":"wsxcme","sourceId":"_dlQlQ-PAAhG4ObMXBYQ8kWAB2nnzdvBgc-8PbeA","sourceTagId":47002745,"sourceTagName":"香奈儿/女包","rawTitle":""},"price":null,"currency":"CNY","moq":1,"category":"chanel-women-bags","status":"active","alibaba_url":null,"images":["https://xcimg.szwego.com/img/d0c94e6f/20250910/i1757504621_2109_0.jpg"],"created_at":"2025-09-19T04:32:40.127Z"},{"id":"item-1e60d0d209e1","sku":"_ds0s0ZORom7vtq6QITgdiDjk3C-vdIGHLYoMn4g","name_en":"《黑色》25B最新🆕风琴包🚩🚩🚩爆闪钻🎖️🎖️🎖️mimi风琴包OHANEL 水钻手柄风琴包🎹双色水晶手柄真的绝绝绝美!复古华丽,精致的像艺术品一样双层的风琴包型,容量也很大可以放下2部📱,很实用的一款😄双C扣的设计也很特别,有种blingbling的感觉,好精致好米呀~糕🐑皮很独特!感觉很耐用哦!搭配任何衣服都能让你精致度.4831尺","name_cn":"《黑色》25B最新🆕风琴包🚩🚩🚩爆闪钻🎖️🎖️🎖️mimi风琴包OHANEL 水钻手柄风琴包🎹双色水晶手柄真的绝绝绝美!复古华丽,精致的像艺术品一样双层的风琴包型,容量也很大可以放下2部📱,很实用的一款😄双C扣的设计也很特别,有种blingbling的感觉,好精致好米呀~糕🐑皮很独特!感觉很耐用哦!搭配任何衣服都能让你精致度.4831尺寸:11*18.5*6cm/","specs":{"source":"wsxcme","sourceId":"_ds0s0ZORom7vtq6QITgdiDjk3C-vdIGHLYoMn4g","sourceTagId":47002745,"sourceTagName":"香奈儿/女包","dimensions":{"lengthCm":11,"heightCm":18.5,"widthCm":6},"rawTitle":"《黑色》25B最新🆕风琴包🚩🚩🚩爆闪钻🎖️🎖️🎖️mimi风琴包OHANEL 水钻手柄风琴包🎹双色水晶手柄真的绝绝绝美!复古华丽,精致的像艺术品一样双层的风琴包型,容量也很大可以放下2部📱,很实用的一款😄双C扣的设计也很特别,有种blingbling的感觉,好精致好米呀~糕🐑皮很独特!感觉很耐用哦!搭配任何衣服都能让你精致度.4831尺寸:11*18.5*6cm/"},"price":null,"currency":"CNY","moq":1,"category":"chanel-women-bags","status":"active","alibaba_url":null,"images":["https://xcimg.szwego.com/img/d0c94e6f/20250910/i1757504599_6838_2.jpg","https://xcimg.szwego.com/img/d0c94e6f/20250910/i1757504599_3004_8.jpg","https://xcimg.szwego.com/img/d0c94e6f/20250910/i1757504599_3587_1.jpg","https://xcimg.szwego.com/img/d0c94e6f/20250910/i1757504599_6771_5.jpg","https://xcimg.szwego.com/img/d0c94e6f/20250910/i1757504599_1010_7.jpg","https://xcimg.szwego.com/img/d0c94e6f/20250910/i1757504599_9180_6.jpg","https://xcimg.szwego.com/img/d0c94e6f/20250910/i1757504599_4257_0.jpg","https://xcimg.szwego.com/img/d0c94e6f/20250910/i1757504599_4254_3.jpg","https://xcimg.szwego.com/img/d0c94e6f/20250910/i1757504599_8120_4.jpg"],"created_at":"2025-09-19T04:32:40.126Z"},{"id":"item-175649434414","sku":"_d2n2n69JvQcxI-wKhx-V3i9bdxJ9GscF6GsojnA","name_en":"Chanel Women Bags","name_cn":"白金版▪️正品级 包装如图\nChane1  25B 双C扣长盒子 亮银色\n专柜售价28900rmb购入开发〰️\n\n又一个爆品🪄\n整个包已经换了新元素\n包底下新增一个大Logo\n链条锁定🔒可以调节\n肩带长短 腋下斜单肩都可️\n盒子包已经是女生们爱不释手出街必备\n新款内是金色全皮➕小镜子🪞\n可以随时保持妆容\n美美哒💕\n\n面料:原厂小球纹牛皮\n五金:全钢复古亮银扣\n尺寸:9.5*17*8 cm\n3940","specs":{"source":"wsxcme","sourceId":"_d2n2n69JvQcxI-wKhx-V3i9bdxJ9GscF6GsojnA","sourceTagId":47002745,"sourceTagName":"香奈儿/女包","dimensions":{"lengthCm":9.5,"heightCm":17,"widthCm":8},"rawTitle":"白金版▪️正品级 包装如图\nChane1  25B 双C扣长盒子 亮银色\n专柜售价28900rmb购入开发〰️\n\n又一个爆品🪄\n整个包已经换了新元素\n包底下新增一个大Logo\n链条锁定🔒可以调节\n肩带长短 腋下斜单肩都可️\n盒子包已经是女生们爱不释手出街必备\n新款内是金色全皮➕小镜子🪞\n可以随时保持妆容\n美美哒💕\n\n面料:原厂小球纹牛皮\n五金:全钢复古亮银扣\n尺寸:9.5*17*8 cm\n3940"},"price":null,"currency":"CNY","moq":1,"category":"chanel-women-bags","status":"active","alibaba_url":null,"images":["https://xcimg.szwego.com/imgHD/9d8f4332/20250909/cmp_i1757402486813_2978_0_0.jpg","https://xcimg.szwego.com/imgHD/9d8f4332/20250909/cmp_i1757402488410_996_0_1.jpg","https://xcimg.szwego.com/imgHD/9d8f4332/20250909/cmp_i1757402488413_2045_0_2.jpg","https://xcimg.szwego.com/imgHD/9d8f4332/20250909/cmp_i1757402488402_6024_0_3.jpg","https://xcimg.szwego.com/imgHD/9d8f4332/20250909/cmp_i1757402486814_3016_0_4.jpg","https://xcimg.szwego.com/imgHD/9d8f4332/20250909/cmp_i1757402486808_976_0_5.jpg","https://xcimg.szwego.com/imgHD/9d8f4332/20250909/cmp_i1757402486808_2575_0_6.jpg","https://xcimg.szwego.com/imgHD/9d8f4332/20250909/cmp_i1757402488396_7238_0_7.jpg","https://xcimg.szwego.com/imgHD/9d8f4332/20250909/cmp_i1757402486808_9554_0_8.jpg"],"created_at":"2025-09-19T04:32:40.125Z"},{"id":"item-9e14419faf16","sku":"_daGaGRt2_2CYa6idGDDqcjpDsGGAs9sgxdnUAww","name_en":"Chanel Women Bags","name_cn":"白金版▪️正品级 包装如图\n全新发售🆕Chane1 25B新品\n双C链条调节扣woc亮银色🖤\n专柜售�00rmb购入开发~\n\n每一季度都有惊喜的ꫛꫀꪝ\n被这个小心机链条美到了✨\n优雅高级符合气质穿搭很绝配❕\n后知后觉更是让人心动不已啦💕\n\n五金:   全钢复古亮银\n皮料:原厂小球纹牛皮\n尺寸:11.5*19*4cm\n3938","specs":{"source":"wsxcme","sourceId":"_daGaGRt2_2CYa6idGDDqcjpDsGGAs9sgxdnUAww","sourceTagId":47002745,"sourceTagName":"香奈儿/女包","dimensions":{"lengthCm":11.5,"heightCm":19,"widthCm":4},"rawTitle":"白金版▪️正品级 包装如图\n全新发售🆕Chane1 25B新品\n双C链条调节扣woc亮银色🖤\n专柜售�00rmb购入开发~\n\n每一季度都有惊喜的ꫛꫀꪝ\n被这个小心机链条美到了✨\n优雅高级符合气质穿搭很绝配❕\n后知后觉更是让人心动不已啦💕\n\n五金:   全钢复古亮银\n皮料:原厂小球纹牛皮\n尺寸:11.5*19*4cm\n3938"},"price":null,"currency":"CNY","moq":1,"category":"chanel-women-bags","status":"active","alibaba_url":null,"images":["https://xcimg.szwego.com/imgHD/9d8f4332/20250909/cmp_i1757402225593_6618_0_0.jpg","https://xcimg.szwego.com/imgHD/9d8f4332/20250909/cmp_i1757402225593_5298_0_1.jpg","https://xcimg.szwego.com/imgHD/9d8f4332/20250909/cmp_i1757402227650_6196_0_2.jpg","https://xcimg.szwego.com/imgHD/9d8f4332/20250909/cmp_i1757402225588_4222_0_3.jpg","https://xcimg.szwego.com/imgHD/9d8f4332/20250909/cmp_i1757402225587_1997_0_4.jpg","https://xcimg.szwego.com/imgHD/9d8f4332/20250909/cmp_i1757402227650_9199_0_5.jpg","https://xcimg.szwego.com/imgHD/9d8f4332/20250909/cmp_i1757402227642_8063_0_6.jpg","https://xcimg.szwego.com/imgHD/9d8f4332/20250909/cmp_i1757402225587_4793_0_7.jpg","https://xcimg.szwego.com/imgHD/9d8f4332/20250909/cmp_i1757402227652_6062_0_8.jpg"],"created_at":"2025-09-19T04:32:40.124Z"},{"id":"item-d9747b5f80c0","sku":"_dxaxah5K5b8JKeTIUM2PCVxRtzrvVoQit0BqjKw","name_en":"大H实拍图片🔮🔮大小號🍠🍠🍠高身背包!《奶昔白色》《出口产品》OHANEL🚩🚩🚩25B四叶草系列双肩包🎒喜欢双肩包真的别错过这款🌟方方正正的包型; HAAs荔枝牛皮与砂金质感十足√四叶草勋章配饰吊坠做旧感很强!整体风格很“学院风”❤️❤️浓浓的vintage中古感甜酷又复古!不管是手拎或肩背都是凹造型神器!3653/5715,尺寸:22x","name_cn":"大H实拍图片🔮🔮大小號🍠🍠🍠高身背包!《奶昔白色》《出口产品》OHANEL🚩🚩🚩25B四叶草系列双肩包🎒喜欢双肩包真的别错过这款🌟方方正正的包型; HAAs荔枝牛皮与砂金质感十足√四叶草勋章配饰吊坠做旧感很强!整体风格很“学院风”❤️❤️浓浓的vintage中古感甜酷又复古!不管是手拎或肩背都是凹造型神器!3653/5715,尺寸:22x19.5x7cm","specs":{"source":"wsxcme","sourceId":"_dxaxah5K5b8JKeTIUM2PCVxRtzrvVoQit0BqjKw","sourceTagId":47002745,"sourceTagName":"香奈儿/女包","dimensions":{"lengthCm":22,"heightCm":19.5,"widthCm":7},"rawTitle":"大H实拍图片🔮🔮大小號🍠🍠🍠高身背包!《奶昔白色》《出口产品》OHANEL🚩🚩🚩25B四叶草系列双肩包🎒喜欢双肩包真的别错过这款🌟方方正正的包型; HAAs荔枝牛皮与砂金质感十足√四叶草勋章配饰吊坠做旧感很强!整体风格很“学院风”❤️❤️浓浓的vintage中古感甜酷又复古!不管是手拎或肩背都是凹造型神器!3653/5715,尺寸:22x19.5x7cm"},"price":null,"currency":"CNY","moq":1,"category":"chanel-women-bags","status":"active","alibaba_url":null,"images":["https://xcimg.szwego.com/img/d0c94e6f/20250831/i1756650324_4622_0.jpg"],"created_at":"2025-09-19T04:32:40.123Z"},{"id":"item-886c8a4703d7","sku":"_dohohE1IVb9zE6ozzuGgmCxwuRZkQyLQTdF875w","name_en":"Chanel Women Bags","name_cn":"香奈儿/女包","specs":{"source":"wsxcme","sourceId":"_dohohE1IVb9zE6ozzuGgmCxwuRZkQyLQTdF875w","sourceTagId":47002745,"sourceTagName":"香奈儿/女包","rawTitle":""},"price":null,"currency":"CNY","moq":1,"category":"chanel-women-bags","status":"active","alibaba_url":null,"images":["https://xcimg.szwego.com/img/d0c94e6f/20250828/i1756387970_5140_0.jpg"],"created_at":"2025-09-19T04:32:40.122Z"},{"id":"item-1d2fce2811a9","sku":"_dcxcxdf8wTr-5grsFQqR4quFTgiGafrswxzYltA","name_en":"《奶昔白》出口产品!🚩🚩🚩Chanel 25B 四叶草系列喜欢💕邮差包!真的别错过这款✨ 方方正正的包型;HAAs荔枝牛皮🐂与砂金质感十足✔️ 四叶草勋章🏅配饰吊坠做旧感很强!整体风格很“学院风” 🤩 浓浓的 vintage 中古感👜 甜酷又复古 !不管是手拎或肩背都是凹造型神器!3653尺寸:16.5×25× 8.5cm","name_cn":"《奶昔白》出口产品!🚩🚩🚩Chanel 25B 四叶草系列喜欢💕邮差包!真的别错过这款✨ 方方正正的包型;HAAs荔枝牛皮🐂与砂金质感十足✔️ 四叶草勋章🏅配饰吊坠做旧感很强!整体风格很“学院风” 🤩 浓浓的 vintage 中古感👜 甜酷又复古 !不管是手拎或肩背都是凹造型神器!3653尺寸:16.5×25× 8.5cm","specs":{"source":"wsxcme","sourceId":"_dcxcxdf8wTr-5grsFQqR4quFTgiGafrswxzYltA","sourceTagId":47002745,"sourceTagName":"香奈儿/女包","dimensions":{"lengthCm":16.5,"heightCm":25,"widthCm":8.5},"rawTitle":"《奶昔白》出口产品!🚩🚩🚩Chanel 25B 四叶草系列喜欢💕邮差包!真的别错过这款✨ 方方正正的包型;HAAs荔枝牛皮🐂与砂金质感十足✔️ 四叶草勋章🏅配饰吊坠做旧感很强!整体风格很“学院风” 🤩 浓浓的 vintage 中古感👜 甜酷又复古 !不管是手拎或肩背都是凹造型神器!3653尺寸:16.5×25× 8.5cm"},"price":null,"currency":"CNY","moq":1,"category":"chanel-women-bags","status":"active","alibaba_url":null,"images":["https://xcimg.szwego.com/img/d0c94e6f/20250828/i1756387945_4671_3.jpg","https://xcimg.szwego.com/img/d0c94e6f/20250828/i1756387945_5204_0.jpg","https://xcimg.szwego.com/img/d0c94e6f/20250828/i1756387945_9100_4.jpg","https://xcimg.szwego.com/img/d0c94e6f/20250828/i1756387945_8492_6.jpg","https://xcimg.szwego.com/img/d0c94e6f/20250828/i1756387945_6420_8.jpg","https://xcimg.szwego.com/img/d0c94e6f/20250828/i1756387945_8237_7.jpg","https://xcimg.szwego.com/img/d0c94e6f/20250828/i1756387945_8260_5.jpg","https://xcimg.szwego.com/img/d0c94e6f/20250828/i1756387945_1129_2.jpg","https://xcimg.szwego.com/img/d0c94e6f/20250828/i1756387945_135_1.jpg"],"created_at":"2025-09-19T04:32:40.121Z"},{"id":"item-3801e8e978c7","sku":"_dwfwflVfgaUj7Ghlujv-u3U0r5iTR1fnHDYw8rA","name_en":"Chanel Women Bags","name_cn":"香奈儿/女包","specs":{"source":"wsxcme","sourceId":"_dwfwflVfgaUj7Ghlujv-u3U0r5iTR1fnHDYw8rA","sourceTagId":47002745,"sourceTagName":"香奈儿/女包","rawTitle":""},"price":null,"currency":"CNY","moq":1,"category":"chanel-women-bags","status":"active","alibaba_url":null,"images":["https://xcimg.szwego.com/img/d0c94e6f/20250828/i1756387922_2481_0.jpg"],"created_at":"2025-09-19T04:32:40.120Z"},{"id":"item-2c5d49d296c0","sku":"_dtCtCcTFgMsdRoa7OQR0M5smw3xnIZC_ANdSQaQ","name_en":"小號🍠🍠🍠高身背包!《奶昔白色》《出口产品》OHANEL🚩🚩🚩25B四叶草系列双肩包🎒喜欢双肩包真的别错过这款🌟方方正正的包型; HAAs荔枝牛皮与砂金质感十足√四叶草勋章配饰吊坠做旧感很强!整体风格很“学院风”❤️❤️浓浓的vintage中古感甜酷又复古!不管是手拎或肩背都是凹造型神器!5715尺寸:22x19.5x7cm","name_cn":"小號🍠🍠🍠高身背包!《奶昔白色》《出口产品》OHANEL🚩🚩🚩25B四叶草系列双肩包🎒喜欢双肩包真的别错过这款🌟方方正正的包型; HAAs荔枝牛皮与砂金质感十足√四叶草勋章配饰吊坠做旧感很强!整体风格很“学院风”❤️❤️浓浓的vintage中古感甜酷又复古!不管是手拎或肩背都是凹造型神器!5715尺寸:22x19.5x7cm","specs":{"source":"wsxcme","sourceId":"_dtCtCcTFgMsdRoa7OQR0M5smw3xnIZC_ANdSQaQ","sourceTagId":47002745,"sourceTagName":"香奈儿/女包","dimensions":{"lengthCm":22,"heightCm":19.5,"widthCm":7},"rawTitle":"小號🍠🍠🍠高身背包!《奶昔白色》《出口产品》OHANEL🚩🚩🚩25B四叶草系列双肩包🎒喜欢双肩包真的别错过这款🌟方方正正的包型; HAAs荔枝牛皮与砂金质感十足√四叶草勋章配饰吊坠做旧感很强!整体风格很“学院风”❤️❤️浓浓的vintage中古感甜酷又复古!不管是手拎或肩背都是凹造型神器!5715尺寸:22x19.5x7cm"},"price":null,"currency":"CNY","moq":1,"category":"chanel-women-bags","status":"active","alibaba_url":null,"images":["https://xcimg.szwego.com/img/d0c94e6f/20250828/i1756387899_1061_3.jpg","https://xcimg.szwego.com/img/d0c94e6f/20250828/i1756387899_5733_4.jpg","https://xcimg.szwego.com/img/d0c94e6f/20250828/i1756387899_1762_2.jpg","https://xcimg.szwego.com/img/d0c94e6f/20250828/i1756387899_6662_7.jpg","https://xcimg.szwego.com/img/d0c94e6f/20250828/i1756387899_6886_8.jpg","https://xcimg.szwego.com/img/d0c94e6f/20250828/i1756387899_8460_6.jpg","https://xcimg.szwego.com/img/d0c94e6f/20250828/i1756387899_9377_0.jpg","https://xcimg.szwego.com/img/d0c94e6f/20250828/i1756387899_926_5.jpg","https://xcimg.szwego.com/img/d0c94e6f/20250828/i1756387899_1760_1.jpg"],"created_at":"2025-09-19T04:32:40.119Z"},{"id":"item-b3178d958a4c","sku":"_dveveEK8ImtE21oi7y--bNzn1gZ727D-0nTEXSw","name_en":"大H实拍图片🍠🍠🍠《铁灰色、咖啡色、樱花🌸粉、奶昔白、焦糖色》6⃣️色大H实拍图片🍠🍠🍠独家出货啦《出口产品》OHANEL🚩🚩🚩25k 大菱格牛皮LP盒子👅👅包黑金!玩转lp盒子包新款大菱格🌟🌟版本非常经典大气正面双C醒目又精致牛皮材质使用起来完全不娇气!!手提有质感,链条背又多了份随性优雅.轻松的适配不同风格,可️装得下日常出门","name_cn":"大H实拍图片🍠🍠🍠《铁灰色、咖啡色、樱花🌸粉、奶昔白、焦糖色》6⃣️色大H实拍图片🍠🍠🍠独家出货啦《出口产品》OHANEL🚩🚩🚩25k 大菱格牛皮LP盒子👅👅包黑金!玩转lp盒子包新款大菱格🌟🌟版本非常经典大气正面双C醒目又精致牛皮材质使用起来完全不娇气!!手提有质感,链条背又多了份随性优雅.轻松的适配不同风格,可️装得下日常出门的小物件背在身上回头率拉满~妥妥的时尚单品✓尺寸:17x19.5x5cm","specs":{"source":"wsxcme","sourceId":"_dveveEK8ImtE21oi7y--bNzn1gZ727D-0nTEXSw","sourceTagId":47002745,"sourceTagName":"香奈儿/女包","dimensions":{"lengthCm":17,"heightCm":19.5,"widthCm":5},"rawTitle":"大H实拍图片🍠🍠🍠《铁灰色、咖啡色、樱花🌸粉、奶昔白、焦糖色》6⃣️色大H实拍图片🍠🍠🍠独家出货啦《出口产品》OHANEL🚩🚩🚩25k 大菱格牛皮LP盒子👅👅包黑金!玩转lp盒子包新款大菱格🌟🌟版本非常经典大气正面双C醒目又精致牛皮材质使用起来完全不娇气!!手提有质感,链条背又多了份随性优雅.轻松的适配不同风格,可️装得下日常出门的小物件背在身上回头率拉满~妥妥的时尚单品✓尺寸:17x19.5x5cm"},"price":null,"currency":"CNY","moq":1,"category":"chanel-women-bags","status":"active","alibaba_url":null,"images":["https://xcimg.szwego.com/img/d0c94e6f/20250823/i1755935365_9122_0.jpg"],"created_at":"2025-09-19T04:32:40.118Z"},{"id":"item-f1b03750a80e","sku":"_dhbhb0Ml1uAwS5LGTkPoFdifU6OdZ2ouAC11hOg","name_en":"Chanel Women Bags","name_cn":"香奈儿/女包","specs":{"source":"wsxcme","sourceId":"_dhbhb0Ml1uAwS5LGTkPoFdifU6OdZ2ouAC11hOg","sourceTagId":47002745,"sourceTagName":"香奈儿/女包","rawTitle":""},"price":null,"currency":"CNY","moq":1,"category":"chanel-women-bags","status":"active","alibaba_url":null,"images":["https://xcimg.szwego.com/img/d0c94e6f/20250823/i1755959962_1068_0.jpg"],"created_at":"2025-09-19T04:32:40.117Z"},{"id":"item-9ec515a3bbfb","sku":"_dwswsn3V4mHZ1A6ggXRvfSkwR8mUQSXMiCc-CsQ","name_en":"暗黑色《出口产品》OHANEL🚩🚩🚩25k 大菱格牛皮LP盒子👅👅包黑金!玩转lp盒子包新款大菱格🌟🌟版本非常经典大气正面双C醒目又精致牛皮材质使用起来完全不娇气!!手提有质感,链条背又多了份随性优雅.轻松的适配不同风格,可️装得下日常出门的小物件背在身上回头率拉满~妥妥的时尚单品✓尺寸:17x19.5x5cm","name_cn":"暗黑色《出口产品》OHANEL🚩🚩🚩25k 大菱格牛皮LP盒子👅👅包黑金!玩转lp盒子包新款大菱格🌟🌟版本非常经典大气正面双C醒目又精致牛皮材质使用起来完全不娇气!!手提有质感,链条背又多了份随性优雅.轻松的适配不同风格,可️装得下日常出门的小物件背在身上回头率拉满~妥妥的时尚单品✓尺寸:17x19.5x5cm","specs":{"source":"wsxcme","sourceId":"_dwswsn3V4mHZ1A6ggXRvfSkwR8mUQSXMiCc-CsQ","sourceTagId":47002745,"sourceTagName":"香奈儿/女包","dimensions":{"lengthCm":17,"heightCm":19.5,"widthCm":5},"rawTitle":"暗黑色《出口产品》OHANEL🚩🚩🚩25k 大菱格牛皮LP盒子👅👅包黑金!玩转lp盒子包新款大菱格🌟🌟版本非常经典大气正面双C醒目又精致牛皮材质使用起来完全不娇气!!手提有质感,链条背又多了份随性优雅.轻松的适配不同风格,可️装得下日常出门的小物件背在身上回头率拉满~妥妥的时尚单品✓尺寸:17x19.5x5cm"},"price":null,"currency":"CNY","moq":1,"category":"chanel-women-bags","status":"active","alibaba_url":null,"images":["https://xcimg.szwego.com/img/d0c94e6f/20250823/i1755959874_1537_6.jpg","https://xcimg.szwego.com/img/d0c94e6f/20250823/i1755959874_7518_3.jpg","https://xcimg.szwego.com/img/d0c94e6f/20250823/i1755959896_4857_0.jpg","https://xcimg.szwego.com/img/d0c94e6f/20250823/i1755959874_4049_1.jpg","https://xcimg.szwego.com/img/d0c94e6f/20250823/i1755959874_5991_0.jpg","https://xcimg.szwego.com/img/d0c94e6f/20250823/i1755959874_8742_4.jpg","https://xcimg.szwego.com/img/d0c94e6f/20250823/i1755959896_527_0.jpg","https://xcimg.szwego.com/img/d0c94e6f/20250823/i1755959874_9354_7.jpg","https://xcimg.szwego.com/img/d0c94e6f/20250823/i1755959874_4923_8.jpg"],"created_at":"2025-09-19T04:32:40.116Z"},{"id":"item-4c478be990ba","sku":"_dvcvc5cJbSHpzOwP6Ad5_15LG1QFrjnuUl606jw","name_en":"Chanel Women Bags","name_cn":"香奈儿/女包","specs":{"source":"wsxcme","sourceId":"_dvcvc5cJbSHpzOwP6Ad5_15LG1QFrjnuUl606jw","sourceTagId":47002745,"sourceTagName":"香奈儿/女包","rawTitle":""},"price":null,"currency":"CNY","moq":1,"category":"chanel-women-bags","status":"active","alibaba_url":null,"images":["https://xcimg.szwego.com/img/d0c94e6f/20250823/i1755959696_4770_0.jpg"],"created_at":"2025-09-19T04:32:40.115Z"},{"id":"item-3bdaf5857dc6","sku":"_d0R0RtGr6trdkKcHqwChtrv0iLHqbDHvpLba1Uw","name_en":"焦糖色《出口产品》OHANEL🚩🚩🚩25k 大菱格牛皮LP盒子👅👅包黑金!玩转lp盒子包新款大菱格🌟🌟版本非常经典大气正面双C醒目又精致牛皮材质使用起来完全不娇气!!手提有质感,链条背又多了份随性优雅.轻松的适配不同风格,可️装得下日常出门的小物件背在身上回头率拉满~妥妥的时尚单品✓尺寸:17x19.5x5cm","name_cn":"焦糖色《出口产品》OHANEL🚩🚩🚩25k 大菱格牛皮LP盒子👅👅包黑金!玩转lp盒子包新款大菱格🌟🌟版本非常经典大气正面双C醒目又精致牛皮材质使用起来完全不娇气!!手提有质感,链条背又多了份随性优雅.轻松的适配不同风格,可️装得下日常出门的小物件背在身上回头率拉满~妥妥的时尚单品✓尺寸:17x19.5x5cm","specs":{"source":"wsxcme","sourceId":"_d0R0RtGr6trdkKcHqwChtrv0iLHqbDHvpLba1Uw","sourceTagId":47002745,"sourceTagName":"香奈儿/女包","dimensions":{"lengthCm":17,"heightCm":19.5,"widthCm":5},"rawTitle":"焦糖色《出口产品》OHANEL🚩🚩🚩25k 大菱格牛皮LP盒子👅👅包黑金!玩转lp盒子包新款大菱格🌟🌟版本非常经典大气正面双C醒目又精致牛皮材质使用起来完全不娇气!!手提有质感,链条背又多了份随性优雅.轻松的适配不同风格,可️装得下日常出门的小物件背在身上回头率拉满~妥妥的时尚单品✓尺寸:17x19.5x5cm"},"price":null,"currency":"CNY","moq":1,"category":"chanel-women-bags","status":"active","alibaba_url":null,"images":["https://xcimg.szwego.com/img/d0c94e6f/20250823/i1755959676_50_5.jpg","https://xcimg.szwego.com/img/d0c94e6f/20250823/i1755959676_7472_4.jpg","https://xcimg.szwego.com/img/d0c94e6f/20250823/i1755959676_787_1.jpg","https://xcimg.szwego.com/img/d0c94e6f/20250823/i1755959676_803_2.jpg","https://xcimg.szwego.com/img/d0c94e6f/20250823/i1755959676_1638_3.jpg","https://xcimg.szwego.com/img/d0c94e6f/20250823/i1755959676_749_8.jpg","https://xcimg.szwego.com/img/d0c94e6f/20250823/i1755959676_8009_6.jpg","https://xcimg.szwego.com/img/d0c94e6f/20250823/i1755959676_8392_7.jpg","https://xcimg.szwego.com/img/d0c94e6f/20250823/i1755959675_2875_0.jpg"],"created_at":"2025-09-19T04:32:40.114Z"}],"page":10,"pageSize":24,"total":1102,"totalPages":46}
