{"items":[{"id":"item-7abacf4db89b","sku":"_dmHmH1Dpw_n8UGBJMC7srao5Lkmtwv2-fY32NdQ","name_en":"Chanel Women Bags","name_cn":"香奈儿/女包","specs":{"source":"wsxcme","sourceId":"_dmHmH1Dpw_n8UGBJMC7srao5Lkmtwv2-fY32NdQ","sourceTagId":47002745,"sourceTagName":"香奈儿/女包","rawTitle":""},"price":null,"currency":"CNY","moq":1,"category":"chanel-women-bags","status":"active","alibaba_url":null,"images":["https://xcimg.szwego.com/img/d0c94e6f/20250823/i1755959657_91_0.jpg"],"created_at":"2025-09-19T04:32:40.113Z"},{"id":"item-49502b75fe4e","sku":"_dNyNy4C3P5wZQbRLSmmpRAm-VMf6OsaA8f6pigQ","name_en":"深🍷酒红色《出口产品》OHANEL🚩🚩🚩25k 大菱格牛皮LP盒子👅👅包黑金!玩转lp盒子包新款大菱格🌟🌟版本非常经典大气正面双C醒目又精致牛皮材质使用起来完全不娇气!!手提有质感,链条背又多了份随性优雅.轻松的适配不同风格,可️装得下日常出门的小物件背在身上回头率拉满~妥妥的时尚单品✓尺寸:17x19.5x5cm","name_cn":"深🍷酒红色《出口产品》OHANEL🚩🚩🚩25k 大菱格牛皮LP盒子👅👅包黑金!玩转lp盒子包新款大菱格🌟🌟版本非常经典大气正面双C醒目又精致牛皮材质使用起来完全不娇气!!手提有质感,链条背又多了份随性优雅.轻松的适配不同风格,可️装得下日常出门的小物件背在身上回头率拉满~妥妥的时尚单品✓尺寸:17x19.5x5cm","specs":{"source":"wsxcme","sourceId":"_dNyNy4C3P5wZQbRLSmmpRAm-VMf6OsaA8f6pigQ","sourceTagId":47002745,"sourceTagName":"香奈儿/女包","dimensions":{"lengthCm":17,"heightCm":19.5,"widthCm":5},"rawTitle":"深🍷酒红色《出口产品》OHANEL🚩🚩🚩25k 大菱格牛皮LP盒子👅👅包黑金!玩转lp盒子包新款大菱格🌟🌟版本非常经典大气正面双C醒目又精致牛皮材质使用起来完全不娇气!!手提有质感,链条背又多了份随性优雅.轻松的适配不同风格,可️装得下日常出门的小物件背在身上回头率拉满~妥妥的时尚单品✓尺寸:17x19.5x5cm"},"price":null,"currency":"CNY","moq":1,"category":"chanel-women-bags","status":"active","alibaba_url":null,"images":["https://xcimg.szwego.com/img/d0c94e6f/20250823/i1755959609_878_7.jpg","https://xcimg.szwego.com/img/d0c94e6f/20250823/i1755959608_7455_4.jpg","https://xcimg.szwego.com/img/d0c94e6f/20250823/i1755959608_327_0.jpg","https://xcimg.szwego.com/img/d0c94e6f/20250823/i1755959609_6660_6.jpg","https://xcimg.szwego.com/img/d0c94e6f/20250823/i1755959608_7119_1.jpg","https://xcimg.szwego.com/img/d0c94e6f/20250823/i1755959608_7321_3.jpg","https://xcimg.szwego.com/img/d0c94e6f/20250823/i1755959609_4867_8.jpg","https://xcimg.szwego.com/img/d0c94e6f/20250823/i1755959608_6668_2.jpg","https://xcimg.szwego.com/img/d0c94e6f/20250823/i1755959609_5466_5.jpg"],"created_at":"2025-09-19T04:32:40.112Z"},{"id":"item-00d456704bba","sku":"_daxaxE0r4M_wPtmKXWaiWfIbbSg_P633qJ2sblw","name_en":"Chanel Women Bags","name_cn":"香奈儿/女包","specs":{"source":"wsxcme","sourceId":"_daxaxE0r4M_wPtmKXWaiWfIbbSg_P633qJ2sblw","sourceTagId":47002745,"sourceTagName":"香奈儿/女包","rawTitle":""},"price":null,"currency":"CNY","moq":1,"category":"chanel-women-bags","status":"active","alibaba_url":null,"images":["https://xcimg.szwego.com/img/d0c94e6f/20250823/i1755959593_3634_0.jpg"],"created_at":"2025-09-19T04:32:40.111Z"},{"id":"item-be09cc736c34","sku":"_dOOOOonA-0B8VUbLwZe9ka1FLgFqbR_Kuzid2Hw","name_en":"奶昔白《出口产品》OHANEL🚩🚩🚩25k 大菱格牛皮LP盒子👅👅包黑金!玩转lp盒子包新款大菱格🌟🌟版本非常经典大气正面双C醒目又精致牛皮材质使用起来完全不娇气!!手提有质感,链条背又多了份随性优雅.轻松的适配不同风格,可️装得下日常出门的小物件背在身上回头率拉满~妥妥的时尚单品✓尺寸:17x19.5x5cm","name_cn":"奶昔白《出口产品》OHANEL🚩🚩🚩25k 大菱格牛皮LP盒子👅👅包黑金!玩转lp盒子包新款大菱格🌟🌟版本非常经典大气正面双C醒目又精致牛皮材质使用起来完全不娇气!!手提有质感,链条背又多了份随性优雅.轻松的适配不同风格,可️装得下日常出门的小物件背在身上回头率拉满~妥妥的时尚单品✓尺寸:17x19.5x5cm","specs":{"source":"wsxcme","sourceId":"_dOOOOonA-0B8VUbLwZe9ka1FLgFqbR_Kuzid2Hw","sourceTagId":47002745,"sourceTagName":"香奈儿/女包","dimensions":{"lengthCm":17,"heightCm":19.5,"widthCm":5},"rawTitle":"奶昔白《出口产品》OHANEL🚩🚩🚩25k 大菱格牛皮LP盒子👅👅包黑金!玩转lp盒子包新款大菱格🌟🌟版本非常经典大气正面双C醒目又精致牛皮材质使用起来完全不娇气!!手提有质感,链条背又多了份随性优雅.轻松的适配不同风格,可️装得下日常出门的小物件背在身上回头率拉满~妥妥的时尚单品✓尺寸:17x19.5x5cm"},"price":null,"currency":"CNY","moq":1,"category":"chanel-women-bags","status":"active","alibaba_url":null,"images":["https://xcimg.szwego.com/img/d0c94e6f/20250823/i1755959568_5973_5.jpg","https://xcimg.szwego.com/img/d0c94e6f/20250823/i1755959568_4565_0.jpg","https://xcimg.szwego.com/img/d0c94e6f/20250823/i1755959568_9703_8.jpg","https://xcimg.szwego.com/img/d0c94e6f/20250823/i1755959568_912_3.jpg","https://xcimg.szwego.com/img/d0c94e6f/20250823/i1755959568_3179_6.jpg","https://xcimg.szwego.com/img/d0c94e6f/20250823/i1755959568_6287_2.jpg","https://xcimg.szwego.com/img/d0c94e6f/20250823/i1755959568_581_4.jpg","https://xcimg.szwego.com/img/d0c94e6f/20250823/i1755959568_3003_7.jpg","https://xcimg.szwego.com/img/d0c94e6f/20250823/i1755959568_9346_1.jpg"],"created_at":"2025-09-19T04:32:40.110Z"},{"id":"item-5507c8c4860a","sku":"_dx4x4YF6sFAHRmIozDS-RyMlHv3wYd57CLc2l5A","name_en":"Chanel Women Bags","name_cn":"香奈儿/女包","specs":{"source":"wsxcme","sourceId":"_dx4x4YF6sFAHRmIozDS-RyMlHv3wYd57CLc2l5A","sourceTagId":47002745,"sourceTagName":"香奈儿/女包","rawTitle":""},"price":null,"currency":"CNY","moq":1,"category":"chanel-women-bags","status":"active","alibaba_url":null,"images":["https://xcimg.szwego.com/img/d0c94e6f/20250823/i1755962161_4979_0.jpg"],"created_at":"2025-09-19T04:32:40.109Z"},{"id":"item-aa7a6f01dc8f","sku":"_dovovSDfCxz77CcK_zndvHbyjBIrt5yfGEpVEOg","name_en":"樱花🌸粉色《出口产品》OHANEL🚩🚩🚩25k 大菱格牛皮LP盒子👅👅包黑金!玩转lp盒子包新款大菱格🌟🌟版本非常经典大气正面双C醒目又精致牛皮材质使用起来完全不娇气!!手提有质感,链条背又多了份随性优雅.轻松的适配不同风格,可️装得下日常出门的小物件背在身上回头率拉满~妥妥的时尚单品✓尺寸:17x19.5x5cm","name_cn":"樱花🌸粉色《出口产品》OHANEL🚩🚩🚩25k 大菱格牛皮LP盒子👅👅包黑金!玩转lp盒子包新款大菱格🌟🌟版本非常经典大气正面双C醒目又精致牛皮材质使用起来完全不娇气!!手提有质感,链条背又多了份随性优雅.轻松的适配不同风格,可️装得下日常出门的小物件背在身上回头率拉满~妥妥的时尚单品✓尺寸:17x19.5x5cm","specs":{"source":"wsxcme","sourceId":"_dovovSDfCxz77CcK_zndvHbyjBIrt5yfGEpVEOg","sourceTagId":47002745,"sourceTagName":"香奈儿/女包","dimensions":{"lengthCm":17,"heightCm":19.5,"widthCm":5},"rawTitle":"樱花🌸粉色《出口产品》OHANEL🚩🚩🚩25k 大菱格牛皮LP盒子👅👅包黑金!玩转lp盒子包新款大菱格🌟🌟版本非常经典大气正面双C醒目又精致牛皮材质使用起来完全不娇气!!手提有质感,链条背又多了份随性优雅.轻松的适配不同风格,可️装得下日常出门的小物件背在身上回头率拉满~妥妥的时尚单品✓尺寸:17x19.5x5cm"},"price":null,"currency":"CNY","moq":1,"category":"chanel-women-bags","status":"active","alibaba_url":null,"images":["https://xcimg.szwego.com/img/d0c94e6f/20250823/i1755962110_7728_7.jpg","https://xcimg.szwego.com/img/d0c94e6f/20250823/i1755962109_4852_1.jpg","https://xcimg.szwego.com/img/d0c94e6f/20250823/i1755962109_7003_0.jpg","https://xcimg.szwego.com/img/d0c94e6f/20250823/i1755962110_1115_6.jpg","https://xcimg.szwego.com/img/d0c94e6f/20250823/i1755962109_4161_3.jpg","https://xcimg.szwego.com/img/d0c94e6f/20250823/i1755962110_9327_5.jpg","https://xcimg.szwego.com/img/d0c94e6f/20250823/i1755962110_2227_4.jpg","https://xcimg.szwego.com/img/d0c94e6f/20250823/i1755962110_456_8.jpg","https://xcimg.szwego.com/img/d0c94e6f/20250823/i1755962109_3387_2.jpg"],"created_at":"2025-09-19T04:32:40.108Z"},{"id":"item-66b7fc4e5c7e","sku":"_dtitiEx7gokA7rhYMppzVRfm7lZ5hCXJIuBEFgQ","name_en":"Chanel Women Bags","name_cn":"香奈儿/女包","specs":{"source":"wsxcme","sourceId":"_dtitiEx7gokA7rhYMppzVRfm7lZ5hCXJIuBEFgQ","sourceTagId":47002745,"sourceTagName":"香奈儿/女包","rawTitle":""},"price":null,"currency":"CNY","moq":1,"category":"chanel-women-bags","status":"active","alibaba_url":null,"images":["https://xcimg.szwego.com/img/d0c94e6f/20250823/i1755959850_776_0.jpg"],"created_at":"2025-09-19T04:32:40.107Z"},{"id":"item-f578e0fd4891","sku":"_dsjsja2NLKiYklS5rUBZQAYnHhUW47Uw4IJceCQ","name_en":"铁灰色《出口产品》OHANEL🚩🚩🚩25k 大菱格牛皮LP盒子👅👅包黑金!玩转lp盒子包新款大菱格🌟🌟版本非常经典大气正面双C醒目又精致牛皮材质使用起来完全不娇气!!手提有质感,链条背又多了份随性优雅.轻松的适配不同风格,可️装得下日常出门的小物件背在身上回头率拉满~妥妥的时尚单品✓尺寸:17x19.5x5cm","name_cn":"铁灰色《出口产品》OHANEL🚩🚩🚩25k 大菱格牛皮LP盒子👅👅包黑金!玩转lp盒子包新款大菱格🌟🌟版本非常经典大气正面双C醒目又精致牛皮材质使用起来完全不娇气!!手提有质感,链条背又多了份随性优雅.轻松的适配不同风格,可️装得下日常出门的小物件背在身上回头率拉满~妥妥的时尚单品✓尺寸:17x19.5x5cm","specs":{"source":"wsxcme","sourceId":"_dsjsja2NLKiYklS5rUBZQAYnHhUW47Uw4IJceCQ","sourceTagId":47002745,"sourceTagName":"香奈儿/女包","dimensions":{"lengthCm":17,"heightCm":19.5,"widthCm":5},"rawTitle":"铁灰色《出口产品》OHANEL🚩🚩🚩25k 大菱格牛皮LP盒子👅👅包黑金!玩转lp盒子包新款大菱格🌟🌟版本非常经典大气正面双C醒目又精致牛皮材质使用起来完全不娇气!!手提有质感,链条背又多了份随性优雅.轻松的适配不同风格,可️装得下日常出门的小物件背在身上回头率拉满~妥妥的时尚单品✓尺寸:17x19.5x5cm"},"price":null,"currency":"CNY","moq":1,"category":"chanel-women-bags","status":"active","alibaba_url":null,"images":["https://xcimg.szwego.com/img/d0c94e6f/20250823/i1755959829_1124_1.jpg","https://xcimg.szwego.com/img/d0c94e6f/20250823/i1755959843_3636_0.jpg","https://xcimg.szwego.com/img/d0c94e6f/20250823/i1755959829_2556_2.jpg","https://xcimg.szwego.com/img/d0c94e6f/20250823/i1755959828_3894_0.jpg","https://xcimg.szwego.com/img/d0c94e6f/20250823/i1755959829_6708_6.jpg","https://xcimg.szwego.com/img/d0c94e6f/20250823/i1755959829_8658_4.jpg","https://xcimg.szwego.com/img/d0c94e6f/20250823/i1755962088_3790_2.jpg","https://xcimg.szwego.com/img/d0c94e6f/20250823/i1755962088_1305_1.jpg","https://xcimg.szwego.com/img/d0c94e6f/20250823/i1755962088_2053_0.jpg"],"created_at":"2025-09-19T04:32:40.106Z"},{"id":"item-4141f64f0acc","sku":"_dj3j3RGcc52lA8WUEZy4AfR-AjXvLwiHirLoXHg","name_en":"Chanel Women Bags","name_cn":"香奈儿/女包","specs":{"source":"wsxcme","sourceId":"_dj3j3RGcc52lA8WUEZy4AfR-AjXvLwiHirLoXHg","sourceTagId":47002745,"sourceTagName":"香奈儿/女包","rawTitle":""},"price":null,"currency":"CNY","moq":1,"category":"chanel-women-bags","status":"active","alibaba_url":null,"images":["https://xcimg.szwego.com/img/d0c94e6f/20250813/i1755087200_9195_0.jpg"],"created_at":"2025-09-19T04:32:40.105Z"},{"id":"item-71fac84e1da4","sku":"_drxrxRg8CHmKIB8aoLSOBSK6Vt6JgWFoZhcGIqA","name_en":"《土黄焦糖色》🔮🔮🔮OHANEL🚩🚩🚩25B重量级选手、别眨眼😉,小水桶包,一秒沦陷的仙气奶油白·经典菱格走线+mini双C logo,低调又贵气。·抽绳一拉秒变“🤩🤩小福袋”,防盗技能点满。·链条⛓️长度可️单肩/可️斜挎/可️流浪背法随意切换,小个子友好。直接出片南法度假感!这只已列入“传家宝”名单,蹲25B的姐妹冲!菱格纹的优雅,金色","name_cn":"《土黄焦糖色》🔮🔮🔮OHANEL🚩🚩🚩25B重量级选手、别眨眼😉,小水桶包,一秒沦陷的仙气奶油白·经典菱格走线+mini双C logo,低调又贵气。·抽绳一拉秒变“🤩🤩小福袋”,防盗技能点满。·链条⛓️长度可️单肩/可️斜挎/可️流浪背法随意切换,小个子友好。直接出片南法度假感!这只已列入“传家宝”名单,蹲25B的姐妹冲!菱格纹的优雅,金色链条的点缀,这款黑色手提包简直太高级了计大口袋小口袋设计,实用又时髦,搭配金色金属环细节,质感拉满~轻奢风!4775尺寸:12.5×10×7cm","specs":{"source":"wsxcme","sourceId":"_drxrxRg8CHmKIB8aoLSOBSK6Vt6JgWFoZhcGIqA","sourceTagId":47002745,"sourceTagName":"香奈儿/女包","dimensions":{"lengthCm":12.5,"heightCm":10,"widthCm":7},"rawTitle":"《土黄焦糖色》🔮🔮🔮OHANEL🚩🚩🚩25B重量级选手、别眨眼😉,小水桶包,一秒沦陷的仙气奶油白·经典菱格走线+mini双C logo,低调又贵气。·抽绳一拉秒变“🤩🤩小福袋”,防盗技能点满。·链条⛓️长度可️单肩/可️斜挎/可️流浪背法随意切换,小个子友好。直接出片南法度假感!这只已列入“传家宝”名单,蹲25B的姐妹冲!菱格纹的优雅,金色链条的点缀,这款黑色手提包简直太高级了计大口袋小口袋设计,实用又时髦,搭配金色金属环细节,质感拉满~轻奢风!4775尺寸:12.5×10×7cm"},"price":null,"currency":"CNY","moq":1,"category":"chanel-women-bags","status":"active","alibaba_url":null,"images":["https://xcimg.szwego.com/img/d0c94e6f/20250813/i1755087180_9270_1.jpg","https://xcimg.szwego.com/img/d0c94e6f/20250813/i1755087180_9527_2.jpg","https://xcimg.szwego.com/img/d0c94e6f/20250813/i1755087180_8825_5.jpg","https://xcimg.szwego.com/img/d0c94e6f/20250813/i1755087180_6796_3.jpg","https://xcimg.szwego.com/img/d0c94e6f/20250813/i1755087180_3832_0.jpg","https://xcimg.szwego.com/img/d0c94e6f/20250813/i1755087180_756_7.jpg","https://xcimg.szwego.com/img/d0c94e6f/20250813/i1755087180_2186_8.jpg","https://xcimg.szwego.com/img/d0c94e6f/20250813/i1755087180_223_4.jpg","https://xcimg.szwego.com/img/d0c94e6f/20250813/i1755087180_4323_6.jpg"],"created_at":"2025-09-19T04:32:40.104Z"},{"id":"item-7512d4ca264e","sku":"_dLvLvPaXv4lfpdS9eYM4-EMaHtV0ReifBuj7DEA","name_en":"Chanel Women Bags","name_cn":"香奈儿/女包","specs":{"source":"wsxcme","sourceId":"_dLvLvPaXv4lfpdS9eYM4-EMaHtV0ReifBuj7DEA","sourceTagId":47002745,"sourceTagName":"香奈儿/女包","rawTitle":""},"price":null,"currency":"CNY","moq":1,"category":"chanel-women-bags","status":"active","alibaba_url":null,"images":["https://xcimg.szwego.com/img/d0c94e6f/20250813/i1755087171_9648_0.jpg"],"created_at":"2025-09-19T04:32:40.103Z"},{"id":"item-97c5886a376b","sku":"_ddZdZ6VLKvZ6Yp1IEAYfugTQlArULIiaWrvHs_A","name_en":"《樱花🌸粉》🔮🔮🔮OHANEL🚩🚩🚩25B重量级选手、别眨眼😉,小水桶包,一秒沦陷的仙气奶油白·经典菱格走线+mini双C logo,低调又贵气。·抽绳一拉秒变“🤩🤩小福袋”,防盗技能点满。·链条⛓️长度可️单肩/可️斜挎/可️流浪背法随意切换,小个子友好。直接出片南法度假感!这只已列入“传家宝”名单,蹲25B的姐妹冲!菱格纹的优雅,金色","name_cn":"《樱花🌸粉》🔮🔮🔮OHANEL🚩🚩🚩25B重量级选手、别眨眼😉,小水桶包,一秒沦陷的仙气奶油白·经典菱格走线+mini双C logo,低调又贵气。·抽绳一拉秒变“🤩🤩小福袋”,防盗技能点满。·链条⛓️长度可️单肩/可️斜挎/可️流浪背法随意切换,小个子友好。直接出片南法度假感!这只已列入“传家宝”名单,蹲25B的姐妹冲!菱格纹的优雅,金色链条的点缀,这款黑色手提包简直太高级了计大口袋小口袋设计,实用又时髦,搭配金色金属环细节,质感拉满~轻奢风!4775尺寸:12.5×10×7cm","specs":{"source":"wsxcme","sourceId":"_ddZdZ6VLKvZ6Yp1IEAYfugTQlArULIiaWrvHs_A","sourceTagId":47002745,"sourceTagName":"香奈儿/女包","dimensions":{"lengthCm":12.5,"heightCm":10,"widthCm":7},"rawTitle":"《樱花🌸粉》🔮🔮🔮OHANEL🚩🚩🚩25B重量级选手、别眨眼😉,小水桶包,一秒沦陷的仙气奶油白·经典菱格走线+mini双C logo,低调又贵气。·抽绳一拉秒变“🤩🤩小福袋”,防盗技能点满。·链条⛓️长度可️单肩/可️斜挎/可️流浪背法随意切换,小个子友好。直接出片南法度假感!这只已列入“传家宝”名单,蹲25B的姐妹冲!菱格纹的优雅,金色链条的点缀,这款黑色手提包简直太高级了计大口袋小口袋设计,实用又时髦,搭配金色金属环细节,质感拉满~轻奢风!4775尺寸:12.5×10×7cm"},"price":null,"currency":"CNY","moq":1,"category":"chanel-women-bags","status":"active","alibaba_url":null,"images":["https://xcimg.szwego.com/img/d0c94e6f/20250813/i1755087156_3002_7.jpg","https://xcimg.szwego.com/img/d0c94e6f/20250813/i1755087155_4757_0.jpg","https://xcimg.szwego.com/img/d0c94e6f/20250813/i1755087155_1987_6.jpg","https://xcimg.szwego.com/img/d0c94e6f/20250813/i1755087155_3468_4.jpg","https://xcimg.szwego.com/img/d0c94e6f/20250813/i1755087155_5874_2.jpg","https://xcimg.szwego.com/img/d0c94e6f/20250813/i1755087156_2643_8.jpg","https://xcimg.szwego.com/img/d0c94e6f/20250813/i1755087155_4078_5.jpg","https://xcimg.szwego.com/img/d0c94e6f/20250813/i1755087155_7391_1.jpg","https://xcimg.szwego.com/img/d0c94e6f/20250813/i1755087155_4672_3.jpg"],"created_at":"2025-09-19T04:32:40.102Z"},{"id":"item-ae9d587e32a3","sku":"_duUuU7rOmPs7vwO05e2Gm80f7Kj4eLhXOFRp47Q","name_en":"多色可选🌟🌟🌟大H实拍图片🔮🔮🔮OHANEL🚩🚩🚩25B重量级选手、别眨眼😉,小水桶包,一秒沦陷的仙气奶油白·经典菱格走线+mini双C logo,低调又贵气。·抽绳一拉秒变“🤩🤩小福袋”,防盗技能点满。·链条⛓️长度可️单肩/可️斜挎/可️流浪背法随意切换,小个子友好。直接出片南法度假感!这只已列入“传家宝”名单,蹲25B的姐妹冲!","name_cn":"多色可选🌟🌟🌟大H实拍图片🔮🔮🔮OHANEL🚩🚩🚩25B重量级选手、别眨眼😉,小水桶包,一秒沦陷的仙气奶油白·经典菱格走线+mini双C logo,低调又贵气。·抽绳一拉秒变“🤩🤩小福袋”,防盗技能点满。·链条⛓️长度可️单肩/可️斜挎/可️流浪背法随意切换,小个子友好。直接出片南法度假感!这只已列入“传家宝”名单,蹲25B的姐妹冲!菱格纹的优雅,金色链条的点缀,这款黑色手提包简直太高级了计大口袋小口袋设计,实用又时髦,搭配金色金属环细节,质感拉满~轻奢风!4775尺寸:12.5×10×7cm","specs":{"source":"wsxcme","sourceId":"_duUuU7rOmPs7vwO05e2Gm80f7Kj4eLhXOFRp47Q","sourceTagId":47002745,"sourceTagName":"香奈儿/女包","dimensions":{"lengthCm":12.5,"heightCm":10,"widthCm":7},"rawTitle":"多色可选🌟🌟🌟大H实拍图片🔮🔮🔮OHANEL🚩🚩🚩25B重量级选手、别眨眼😉,小水桶包,一秒沦陷的仙气奶油白·经典菱格走线+mini双C logo,低调又贵气。·抽绳一拉秒变“🤩🤩小福袋”,防盗技能点满。·链条⛓️长度可️单肩/可️斜挎/可️流浪背法随意切换,小个子友好。直接出片南法度假感!这只已列入“传家宝”名单,蹲25B的姐妹冲!菱格纹的优雅,金色链条的点缀,这款黑色手提包简直太高级了计大口袋小口袋设计,实用又时髦,搭配金色金属环细节,质感拉满~轻奢风!4775尺寸:12.5×10×7cm"},"price":null,"currency":"CNY","moq":1,"category":"chanel-women-bags","status":"active","alibaba_url":null,"images":["https://xcimg.szwego.com/img/d0c94e6f/20250807/i1754540177_7390_0.jpg"],"created_at":"2025-09-19T04:32:40.101Z"},{"id":"item-e7f698b4463a","sku":"_dZ8Z8y2YekAwNKggoR_YYVTxsbKCzK5-bZFGCrg","name_en":"Chanel Women Bags","name_cn":"香奈儿/女包","specs":{"source":"wsxcme","sourceId":"_dZ8Z8y2YekAwNKggoR_YYVTxsbKCzK5-bZFGCrg","sourceTagId":47002745,"sourceTagName":"香奈儿/女包","rawTitle":""},"price":null,"currency":"CNY","moq":1,"category":"chanel-women-bags","status":"active","alibaba_url":null,"images":["https://xcimg.szwego.com/img/d0c94e6f/20250806/i1754492952_3206_0.jpg"],"created_at":"2025-09-19T04:32:40.100Z"},{"id":"item-a5d0af635aa4","sku":"_dunungGS5CseW2CLJ4xJqGvIugP_lGYYTNOmfng","name_en":"《酒红🍷色》🔮🔮🔮OHANEL🚩🚩🚩25B重量级选手、别眨眼😉,小水桶包,一秒沦陷的仙气奶油白·经典菱格走线+mini双C logo,低调又贵气。·抽绳一拉秒变“🤩🤩小福袋”,防盗技能点满。·链条⛓️长度可️单肩/可️斜挎/可️流浪背法随意切换,小个子友好。直接出片南法度假感!这只已列入“传家宝”名单,蹲25B的姐妹冲!菱格纹的优雅,金色","name_cn":"《酒红🍷色》🔮🔮🔮OHANEL🚩🚩🚩25B重量级选手、别眨眼😉,小水桶包,一秒沦陷的仙气奶油白·经典菱格走线+mini双C logo,低调又贵气。·抽绳一拉秒变“🤩🤩小福袋”,防盗技能点满。·链条⛓️长度可️单肩/可️斜挎/可️流浪背法随意切换,小个子友好。直接出片南法度假感!这只已列入“传家宝”名单,蹲25B的姐妹冲!菱格纹的优雅,金色链条的点缀,这款黑色手提包简直太高级了计大口袋小口袋设计,实用又时髦,搭配金色金属环细节,质感拉满~轻奢风!4775尺寸:12.5×10×7cm","specs":{"source":"wsxcme","sourceId":"_dunungGS5CseW2CLJ4xJqGvIugP_lGYYTNOmfng","sourceTagId":47002745,"sourceTagName":"香奈儿/女包","dimensions":{"lengthCm":12.5,"heightCm":10,"widthCm":7},"rawTitle":"《酒红🍷色》🔮🔮🔮OHANEL🚩🚩🚩25B重量级选手、别眨眼😉,小水桶包,一秒沦陷的仙气奶油白·经典菱格走线+mini双C logo,低调又贵气。·抽绳一拉秒变“🤩🤩小福袋”,防盗技能点满。·链条⛓️长度可️单肩/可️斜挎/可️流浪背法随意切换,小个子友好。直接出片南法度假感!这只已列入“传家宝”名单,蹲25B的姐妹冲!菱格纹的优雅,金色链条的点缀,这款黑色手提包简直太高级了计大口袋小口袋设计,实用又时髦,搭配金色金属环细节,质感拉满~轻奢风!4775尺寸:12.5×10×7cm"},"price":null,"currency":"CNY","moq":1,"category":"chanel-women-bags","status":"active","alibaba_url":null,"images":["https://xcimg.szwego.com/img/d0c94e6f/20250806/i1754492938_4794_6.jpg","https://xcimg.szwego.com/img/d0c94e6f/20250806/i1754492938_1092_0.jpg","https://xcimg.szwego.com/img/d0c94e6f/20250806/i1754492938_1747_2.jpg","https://xcimg.szwego.com/img/d0c94e6f/20250806/i1754492938_8762_7.jpg","https://xcimg.szwego.com/img/d0c94e6f/20250806/i1754492938_1415_4.jpg","https://xcimg.szwego.com/img/d0c94e6f/20250806/i1754492938_4435_5.jpg","https://xcimg.szwego.com/img/d0c94e6f/20250806/i1754492938_5612_8.jpg","https://xcimg.szwego.com/img/d0c94e6f/20250806/i1754492938_6541_1.jpg","https://xcimg.szwego.com/img/d0c94e6f/20250806/i1754492938_7841_3.jpg"],"created_at":"2025-09-19T04:32:40.099Z"},{"id":"item-3ba836e5c466","sku":"_d4k4kL2yuiYKly5k1LkX0tuw4kLMLpKOF66GadQ","name_en":"Chanel Women Bags","name_cn":"香奈儿/女包","specs":{"source":"wsxcme","sourceId":"_d4k4kL2yuiYKly5k1LkX0tuw4kLMLpKOF66GadQ","sourceTagId":47002745,"sourceTagName":"香奈儿/女包","rawTitle":""},"price":null,"currency":"CNY","moq":1,"category":"chanel-women-bags","status":"active","alibaba_url":null,"images":["https://xcimg.szwego.com/img/d0c94e6f/20250806/i1754492920_5568_0.jpg"],"created_at":"2025-09-19T04:32:40.098Z"},{"id":"item-e62674d2c08f","sku":"_dPBPB313E89-ee2CbLVLBYbFhH8jLi7JbyTM-GQ","name_en":"《黑色》🔮🔮🔮OHANEL🚩🚩🚩25B重量级选手、别眨眼😉,小水桶包,一秒沦陷的仙气奶油白·经典菱格走线+mini双C logo,低调又贵气。·抽绳一拉秒变“🤩🤩小福袋”,防盗技能点满。·链条⛓️长度可️单肩/可️斜挎/可️流浪背法随意切换,小个子友好。直接出片南法度假感!这只已列入“传家宝”名单,蹲25B的姐妹冲!菱格纹的优雅,金色链条的","name_cn":"《黑色》🔮🔮🔮OHANEL🚩🚩🚩25B重量级选手、别眨眼😉,小水桶包,一秒沦陷的仙气奶油白·经典菱格走线+mini双C logo,低调又贵气。·抽绳一拉秒变“🤩🤩小福袋”,防盗技能点满。·链条⛓️长度可️单肩/可️斜挎/可️流浪背法随意切换,小个子友好。直接出片南法度假感!这只已列入“传家宝”名单,蹲25B的姐妹冲!菱格纹的优雅,金色链条的点缀,这款黑色手提包简直太高级了计大口袋小口袋设计,实用又时髦,搭配金色金属环细节,质感拉满~轻奢风!4775尺寸:12.5×10×7cm","specs":{"source":"wsxcme","sourceId":"_dPBPB313E89-ee2CbLVLBYbFhH8jLi7JbyTM-GQ","sourceTagId":47002745,"sourceTagName":"香奈儿/女包","dimensions":{"lengthCm":12.5,"heightCm":10,"widthCm":7},"rawTitle":"《黑色》🔮🔮🔮OHANEL🚩🚩🚩25B重量级选手、别眨眼😉,小水桶包,一秒沦陷的仙气奶油白·经典菱格走线+mini双C logo,低调又贵气。·抽绳一拉秒变“🤩🤩小福袋”,防盗技能点满。·链条⛓️长度可️单肩/可️斜挎/可️流浪背法随意切换,小个子友好。直接出片南法度假感!这只已列入“传家宝”名单,蹲25B的姐妹冲!菱格纹的优雅,金色链条的点缀,这款黑色手提包简直太高级了计大口袋小口袋设计,实用又时髦,搭配金色金属环细节,质感拉满~轻奢风!4775尺寸:12.5×10×7cm"},"price":null,"currency":"CNY","moq":1,"category":"chanel-women-bags","status":"active","alibaba_url":null,"images":["https://xcimg.szwego.com/img/d0c94e6f/20250806/i1754492901_8253_1.jpg","https://xcimg.szwego.com/img/d0c94e6f/20250806/i1754492902_8306_6.jpg","https://xcimg.szwego.com/img/d0c94e6f/20250806/i1754492902_6148_2.jpg","https://xcimg.szwego.com/img/d0c94e6f/20250806/i1754492902_7959_3.jpg","https://xcimg.szwego.com/img/d0c94e6f/20250806/i1754492902_8593_8.jpg","https://xcimg.szwego.com/img/d0c94e6f/20250806/i1754492902_4333_5.jpg","https://xcimg.szwego.com/img/d0c94e6f/20250806/i1754492901_4035_0.jpg","https://xcimg.szwego.com/img/d0c94e6f/20250806/i1754492902_4271_4.jpg","https://xcimg.szwego.com/img/d0c94e6f/20250806/i1754492902_1946_7.jpg"],"created_at":"2025-09-19T04:32:40.097Z"},{"id":"item-3acb68c60a6e","sku":"_dvfvfQIDk2fPIQTywHD_c0DOyWYiRbqyO4Y2Ymw","name_en":"Chanel Women Bags","name_cn":"香奈儿/女包","specs":{"source":"wsxcme","sourceId":"_dvfvfQIDk2fPIQTywHD_c0DOyWYiRbqyO4Y2Ymw","sourceTagId":47002745,"sourceTagName":"香奈儿/女包","rawTitle":""},"price":null,"currency":"CNY","moq":1,"category":"chanel-women-bags","status":"active","alibaba_url":null,"images":["https://xcimg.szwego.com/img/d0c94e6f/20250806/i1754492879_7552_0.jpg"],"created_at":"2025-09-19T04:32:40.096Z"},{"id":"item-ef0b7b15a2da","sku":"_dmJmJGsu5ADvWgp6CxvA2CGalIrFL38FCOnX2yA","name_en":"《奶白色》🔮🔮🔮OHANEL🚩🚩🚩25B重量级选手、别眨眼😉,小水桶包,一秒沦陷的仙气奶油白·经典菱格走线+mini双C logo,低调又贵气。·抽绳一拉秒变“🤩🤩小福袋”,防盗技能点满。·链条⛓️长度可️单肩/可️斜挎/可️流浪背法随意切换,小个子友好。直接出片南法度假感!这只已列入“传家宝”名单,蹲25B的姐妹冲!菱格纹的优雅,金色链条","name_cn":"《奶白色》🔮🔮🔮OHANEL🚩🚩🚩25B重量级选手、别眨眼😉,小水桶包,一秒沦陷的仙气奶油白·经典菱格走线+mini双C logo,低调又贵气。·抽绳一拉秒变“🤩🤩小福袋”,防盗技能点满。·链条⛓️长度可️单肩/可️斜挎/可️流浪背法随意切换,小个子友好。直接出片南法度假感!这只已列入“传家宝”名单,蹲25B的姐妹冲!菱格纹的优雅,金色链条的点缀,这款黑色手提包简直太高级了计大口袋小口袋设计,实用又时髦,搭配金色金属环细节,质感拉满~轻奢风!4775尺寸:12.5×10×7cm","specs":{"source":"wsxcme","sourceId":"_dmJmJGsu5ADvWgp6CxvA2CGalIrFL38FCOnX2yA","sourceTagId":47002745,"sourceTagName":"香奈儿/女包","dimensions":{"lengthCm":12.5,"heightCm":10,"widthCm":7},"rawTitle":"《奶白色》🔮🔮🔮OHANEL🚩🚩🚩25B重量级选手、别眨眼😉,小水桶包,一秒沦陷的仙气奶油白·经典菱格走线+mini双C logo,低调又贵气。·抽绳一拉秒变“🤩🤩小福袋”,防盗技能点满。·链条⛓️长度可️单肩/可️斜挎/可️流浪背法随意切换,小个子友好。直接出片南法度假感!这只已列入“传家宝”名单,蹲25B的姐妹冲!菱格纹的优雅,金色链条的点缀,这款黑色手提包简直太高级了计大口袋小口袋设计,实用又时髦,搭配金色金属环细节,质感拉满~轻奢风!4775尺寸:12.5×10×7cm"},"price":null,"currency":"CNY","moq":1,"category":"chanel-women-bags","status":"active","alibaba_url":null,"images":["https://xcimg.szwego.com/img/d0c94e6f/20250806/i1754492863_7360_1.jpg","https://xcimg.szwego.com/img/d0c94e6f/20250806/i1754492863_6873_3.jpg","https://xcimg.szwego.com/img/d0c94e6f/20250806/i1754492863_5455_0.jpg","https://xcimg.szwego.com/img/d0c94e6f/20250806/i1754492863_4331_4.jpg","https://xcimg.szwego.com/img/d0c94e6f/20250806/i1754492863_9637_2.jpg","https://xcimg.szwego.com/img/d0c94e6f/20250806/i1754492863_9163_8.jpg","https://xcimg.szwego.com/img/d0c94e6f/20250806/i1754492863_455_5.jpg","https://xcimg.szwego.com/img/d0c94e6f/20250806/i1754492863_5778_6.jpg","https://xcimg.szwego.com/img/d0c94e6f/20250806/i1754492863_9166_7.jpg"],"created_at":"2025-09-19T04:32:40.095Z"},{"id":"item-0ec472ae9f46","sku":"_diKiKkIYkY97KldMzLX24kl4TF96jRYQRVui4Dg","name_en":"三个颜色两个尺寸可️选🌟🌟🌟🌟大H实拍图片🔮🔮🔮OHANEL🚩🚩🚩 26C最新编织口盖包,手工编织包手工编织包购物袋 🥂度假氛围里绕不开的拉菲草以及藤条编织元素,采用进口天然麦秆草,只是没想到在夏日风情的度假系列里居然出现了这么多色彩明媚的麂皮材质手袋...搭配美妙夏夜的晚餐或派对,手袋上少不了珠宝的点缀,最爱的当然是那只收藏家系列的雪","name_cn":"三个颜色两个尺寸可️选🌟🌟🌟🌟大H实拍图片🔮🔮🔮OHANEL🚩🚩🚩 26C最新编织口盖包,手工编织包手工编织包购物袋 🥂度假氛围里绕不开的拉菲草以及藤条编织元素,采用进口天然麦秆草,只是没想到在夏日风情的度假系列里居然出现了这么多色彩明媚的麂皮材质手袋...搭配美妙夏夜的晚餐或派对,手袋上少不了珠宝的点缀,最爱的当然是那只收藏家系列的雪糕杯咯~尺寸:26cm、 23cm","specs":{"source":"wsxcme","sourceId":"_diKiKkIYkY97KldMzLX24kl4TF96jRYQRVui4Dg","sourceTagId":47002745,"sourceTagName":"香奈儿/女包","rawTitle":"三个颜色两个尺寸可️选🌟🌟🌟🌟大H实拍图片🔮🔮🔮OHANEL🚩🚩🚩 26C最新编织口盖包,手工编织包手工编织包购物袋 🥂度假氛围里绕不开的拉菲草以及藤条编织元素,采用进口天然麦秆草,只是没想到在夏日风情的度假系列里居然出现了这么多色彩明媚的麂皮材质手袋...搭配美妙夏夜的晚餐或派对,手袋上少不了珠宝的点缀,最爱的当然是那只收藏家系列的雪糕杯咯~尺寸:26cm、 23cm"},"price":null,"currency":"CNY","moq":1,"category":"chanel-women-bags","status":"active","alibaba_url":null,"images":["https://xcimg.szwego.com/img/d0c94e6f/20250823/i1755880068_1884_0.jpg"],"created_at":"2025-09-19T04:32:40.094Z"},{"id":"item-2e60e04c4830","sku":"_diAiAZ9zPbkBtXFSIAQyzgtx6kFUHdUJzgSdn3A","name_en":"Chanel Women Bags","name_cn":"香奈儿/女包","specs":{"source":"wsxcme","sourceId":"_diAiAZ9zPbkBtXFSIAQyzgtx6kFUHdUJzgSdn3A","sourceTagId":47002745,"sourceTagName":"香奈儿/女包","rawTitle":""},"price":null,"currency":"CNY","moq":1,"category":"chanel-women-bags","status":"active","alibaba_url":null,"images":["https://xcimg.szwego.com/img/d0c94e6f/20250823/i1755879996_8080_0.jpg"],"created_at":"2025-09-19T04:32:40.093Z"},{"id":"item-e5d71032372c","sku":"_dtDtDn_6Cw9DmDxThJxLP2NlfL0RBWYgUgPI8qw","name_en":"大號尺寸《卡其色🍠》OHANEL🚩🚩🚩 26C最新编织口盖包,手工编织包手工编织包购物袋 🥂度假氛围里绕不开的拉菲草以及藤条编织元素,采用进口天然麦秆草,只是没想到在夏日风情的度假系列里居然出现了这么多色彩明媚的麂皮材质手袋...搭配美妙夏夜的晚餐或派对,手袋上少不了珠宝的点缀,最爱的当然是那只收藏家系列的雪糕杯咯~尺寸:26cm","name_cn":"大號尺寸《卡其色🍠》OHANEL🚩🚩🚩 26C最新编织口盖包,手工编织包手工编织包购物袋 🥂度假氛围里绕不开的拉菲草以及藤条编织元素,采用进口天然麦秆草,只是没想到在夏日风情的度假系列里居然出现了这么多色彩明媚的麂皮材质手袋...搭配美妙夏夜的晚餐或派对,手袋上少不了珠宝的点缀,最爱的当然是那只收藏家系列的雪糕杯咯~尺寸:26cm","specs":{"source":"wsxcme","sourceId":"_dtDtDn_6Cw9DmDxThJxLP2NlfL0RBWYgUgPI8qw","sourceTagId":47002745,"sourceTagName":"香奈儿/女包","rawTitle":"大號尺寸《卡其色🍠》OHANEL🚩🚩🚩 26C最新编织口盖包,手工编织包手工编织包购物袋 🥂度假氛围里绕不开的拉菲草以及藤条编织元素,采用进口天然麦秆草,只是没想到在夏日风情的度假系列里居然出现了这么多色彩明媚的麂皮材质手袋...搭配美妙夏夜的晚餐或派对,手袋上少不了珠宝的点缀,最爱的当然是那只收藏家系列的雪糕杯咯~尺寸:26cm"},"price":null,"currency":"CNY","moq":1,"category":"chanel-women-bags","status":"active","alibaba_url":null,"images":["https://xcimg.szwego.com/img/d0c94e6f/20250823/i1755879975_9242_4.jpg","https://xcimg.szwego.com/img/d0c94e6f/20250823/i1755879975_1609_7.jpg","https://xcimg.szwego.com/img/d0c94e6f/20250823/i1755879975_8197_1.jpg","https://xcimg.szwego.com/img/d0c94e6f/20250823/i1755879975_4365_8.jpg","https://xcimg.szwego.com/img/d0c94e6f/20250823/i1755879975_5878_0.jpg","https://xcimg.szwego.com/img/d0c94e6f/20250823/i1755879975_9035_3.jpg","https://xcimg.szwego.com/img/d0c94e6f/20250823/i1755879975_136_6.jpg","https://xcimg.szwego.com/img/d0c94e6f/20250823/i1755879975_7797_2.jpg","https://xcimg.szwego.com/img/d0c94e6f/20250823/i1755879975_8389_5.jpg"],"created_at":"2025-09-19T04:32:40.092Z"},{"id":"item-60a9de8eae52","sku":"_dtptpLefqz_AMREoF3b6O49Ggu4zR7kREFGqsCg","name_en":"Chanel Women Bags","name_cn":"香奈儿/女包","specs":{"source":"wsxcme","sourceId":"_dtptpLefqz_AMREoF3b6O49Ggu4zR7kREFGqsCg","sourceTagId":47002745,"sourceTagName":"香奈儿/女包","rawTitle":""},"price":null,"currency":"CNY","moq":1,"category":"chanel-women-bags","status":"active","alibaba_url":null,"images":["https://xcimg.szwego.com/img/d0c94e6f/20250823/i1755879951_7168_0.jpg"],"created_at":"2025-09-19T04:32:40.091Z"},{"id":"item-63851e212107","sku":"_dnsnsbrrH67x2jF-JYLTMkvd9lRE_hVT3RQJb-Q","name_en":"小號尺寸《卡其色🍠》OHANEL🚩🚩🚩 26C最新编织口盖包,手工编织包手工编织包购物袋 🥂度假氛围里绕不开的拉菲草以及藤条编织元素,采用进口天然麦秆草,只是没想到在夏日风情的度假系列里居然出现了这么多色彩明媚的麂皮材质手袋...搭配美妙夏夜的晚餐或派对,手袋上少不了珠宝的点缀,最爱的当然是那只收藏家系列的雪糕杯咯~尺寸:23cm","name_cn":"小號尺寸《卡其色🍠》OHANEL🚩🚩🚩 26C最新编织口盖包,手工编织包手工编织包购物袋 🥂度假氛围里绕不开的拉菲草以及藤条编织元素,采用进口天然麦秆草,只是没想到在夏日风情的度假系列里居然出现了这么多色彩明媚的麂皮材质手袋...搭配美妙夏夜的晚餐或派对,手袋上少不了珠宝的点缀,最爱的当然是那只收藏家系列的雪糕杯咯~尺寸:23cm","specs":{"source":"wsxcme","sourceId":"_dnsnsbrrH67x2jF-JYLTMkvd9lRE_hVT3RQJb-Q","sourceTagId":47002745,"sourceTagName":"香奈儿/女包","rawTitle":"小號尺寸《卡其色🍠》OHANEL🚩🚩🚩 26C最新编织口盖包,手工编织包手工编织包购物袋 🥂度假氛围里绕不开的拉菲草以及藤条编织元素,采用进口天然麦秆草,只是没想到在夏日风情的度假系列里居然出现了这么多色彩明媚的麂皮材质手袋...搭配美妙夏夜的晚餐或派对,手袋上少不了珠宝的点缀,最爱的当然是那只收藏家系列的雪糕杯咯~尺寸:23cm"},"price":null,"currency":"CNY","moq":1,"category":"chanel-women-bags","status":"active","alibaba_url":null,"images":["https://xcimg.szwego.com/img/d0c94e6f/20250823/i1755879906_2112_4.jpg","https://xcimg.szwego.com/img/d0c94e6f/20250823/i1755879906_8942_5.jpg","https://xcimg.szwego.com/img/d0c94e6f/20250823/i1755879906_731_2.jpg","https://xcimg.szwego.com/img/d0c94e6f/20250823/i1755879906_5877_3.jpg","https://xcimg.szwego.com/img/d0c94e6f/20250823/i1755879905_3371_1.jpg","https://xcimg.szwego.com/img/d0c94e6f/20250823/i1755879905_9061_0.jpg","https://xcimg.szwego.com/img/d0c94e6f/20250823/i1755879906_2875_8.jpg","https://xcimg.szwego.com/img/d0c94e6f/20250823/i1755879906_3237_6.jpg","https://xcimg.szwego.com/img/d0c94e6f/20250823/i1755879906_3811_7.jpg"],"created_at":"2025-09-19T04:32:40.090Z"}],"page":11,"pageSize":24,"total":1102,"totalPages":46}
