{"items":[{"id":"item-ecf643bda054","sku":"_dv4v4ARJFTr_2aLnVHHwG-uTzZ4ZHyxY-T8naFw","name_en":"Burberry Women Bags","name_cn":"来看实拍细节!\n新一季的这款桦木棕色水桶包,采用更容易打理的经典pvc材质🌟轻型耐用,容量又大,自带肩带可拆卸  开口是抽绳设计 方便收纳 高度推荐色","specs":{"source":"wsxcme","sourceId":"_dv4v4ARJFTr_2aLnVHHwG-uTzZ4ZHyxY-T8naFw","sourceTagId":80411239,"sourceTagName":"巴宝莉/女包","rawTitle":"来看实拍细节!\n新一季的这款桦木棕色水桶包,采用更容易打理的经典pvc材质🌟轻型耐用,容量又大,自带肩带可拆卸  开口是抽绳设计 方便收纳 高度推荐色"},"price":null,"currency":"CNY","moq":1,"category":"burberry-women-bags","status":"active","alibaba_url":null,"images":["https://xcimg.szwego.com/20230316/i1678938087_2297_0.jpg","https://xcimg.szwego.com/20230316/i1678938087_7976_1.jpg","https://xcimg.szwego.com/20230316/i1678938087_4455_2.jpg","https://xcimg.szwego.com/20230316/i1678938087_8304_3.jpg","https://xcimg.szwego.com/20230316/i1678938087_7720_4.jpg","https://xcimg.szwego.com/20230316/i1678938087_3852_5.jpg","https://xcimg.szwego.com/20230316/i1678938087_2495_6.jpg","https://xcimg.szwego.com/20230316/i1678938087_7886_7.jpg","https://xcimg.szwego.com/20230316/i1678938087_5604_8.jpg"],"created_at":"2025-01-20T12:46:12.755Z"},{"id":"item-e9b373ef16d4","sku":"_dyPyPjBGW7lft8WdB2A7L9m_BEd0TCkIdmV4lcA","name_en":"Burberry Women Bags","name_cn":"格纹经久不衰,低调经典时尚,这款钱包绝对是存放现金、卡片、票券与单据的首选!包包采用两折式的设计,可轻易地收纳入外套口袋!超多卡槽,还有拉链隔层,满足日常收纳所需!","specs":{"source":"wsxcme","sourceId":"_dyPyPjBGW7lft8WdB2A7L9m_BEd0TCkIdmV4lcA","sourceTagId":80411239,"sourceTagName":"巴宝莉/女包","rawTitle":"格纹经久不衰,低调经典时尚,这款钱包绝对是存放现金、卡片、票券与单据的首选!包包采用两折式的设计,可轻易地收纳入外套口袋!超多卡槽,还有拉链隔层,满足日常收纳所需!"},"price":null,"currency":"CNY","moq":1,"category":"burberry-women-bags","status":"active","alibaba_url":null,"images":["https://xcimg.szwego.com/20210903/i1630658338_9166_0.jpg","https://xcimg.szwego.com/20210903/i1630658338_9750_1.jpg","https://xcimg.szwego.com/20210903/i1630658338_3037_2.jpg","https://xcimg.szwego.com/20210903/i1630658338_2546_3.jpg","https://xcimg.szwego.com/20210903/i1630658338_2225_5.jpg","https://xcimg.szwego.com/20210903/i1630658338_8140_8.jpg","https://xcimg.szwego.com/20210903/i1630658338_6207_6.jpg","https://xcimg.szwego.com/20210903/i1630658338_9827_7.jpg","https://xcimg.szwego.com/20210903/i1630658338_5072_4.jpg"],"created_at":"2025-01-20T12:43:24.113Z"},{"id":"item-e7ced4f1c580","sku":"_dm4m4hLbhXTiLd1l0tcmyNNqR5ypIRu3XbMUXhQ","name_en":"Burberry Women Bags","name_cn":"上身图","specs":{"source":"wsxcme","sourceId":"_dm4m4hLbhXTiLd1l0tcmyNNqR5ypIRu3XbMUXhQ","sourceTagId":80411239,"sourceTagName":"巴宝莉/女包","rawTitle":"上身图"},"price":null,"currency":"CNY","moq":1,"category":"burberry-women-bags","status":"active","alibaba_url":null,"images":["https://xcimg.szwego.com/img/d5e7a5ce/20251114/a1763099287789_1400.jpg","https://xcimg.szwego.com/img/d5e7a5ce/20251114/a1763099287788_5121.jpg","https://xcimg.szwego.com/img/d5e7a5ce/20251114/a1763099287806_5487.jpg","https://xcimg.szwego.com/img/d5e7a5ce/20251114/a1763099287808_7835.jpg","https://xcimg.szwego.com/img/d5e7a5ce/20251114/a1763099287808_3748.jpg","https://xcimg.szwego.com/img/d5e7a5ce/20251114/a1763099287790_2260.jpg","https://xcimg.szwego.com/img/d5e7a5ce/20251114/a1763099288388_6354.jpg","https://xcimg.szwego.com/img/d5e7a5ce/20251114/a1763099288390_6871.jpg","https://xcimg.szwego.com/img/d5e7a5ce/20251114/a1763099288456_0225.jpg"],"created_at":"2026-06-29T10:29:03.019Z"},{"id":"item-e1dfc0239d64","sku":"_dt8t8wrk_R9Ll0g-8PhMaKha0PTEfjTQfFi3-CA","name_en":"Burberry Women Bags","name_cn":"上身参考 鳄鱼纹的皮面自带高级感!而且大小刚好 配有长肩带实用 多种用法!","specs":{"source":"wsxcme","sourceId":"_dt8t8wrk_R9Ll0g-8PhMaKha0PTEfjTQfFi3-CA","sourceTagId":80411239,"sourceTagName":"巴宝莉/女包","rawTitle":"上身参考 鳄鱼纹的皮面自带高级感!而且大小刚好 配有长肩带实用 多种用法!"},"price":null,"currency":"CNY","moq":1,"category":"burberry-women-bags","status":"active","alibaba_url":null,"images":["https://xcimg.szwego.com/img/044b8f29/20241220/i1734681801_1605_8.jpg","https://xcimg.szwego.com/img/044b8f29/20241220/i1734681801_6001_4.jpg","https://xcimg.szwego.com/img/044b8f29/20241220/i1734681801_806_1.jpg","https://xcimg.szwego.com/img/044b8f29/20241220/i1734681801_6437_2.jpg","https://xcimg.szwego.com/img/044b8f29/20241220/i1734681801_920_7.jpg","https://xcimg.szwego.com/img/044b8f29/20241220/i1734681801_8155_3.jpg","https://xcimg.szwego.com/img/044b8f29/20241220/i1734681801_1213_5.jpg","https://xcimg.szwego.com/img/044b8f29/20241220/i1734681801_2927_6.jpg","https://xcimg.szwego.com/img/044b8f29/20241220/i1734681801_3349_0.jpg"],"created_at":"2026-06-29T10:27:58.872Z"},{"id":"item-e169a1c14e52","sku":"_doNoNz9bSZ7m-A5bd3CeXSncPB0IyeF7hjzDVUQ","name_en":"Burberry Women Bags","name_cn":"新品\n【配盒】巴宝莉TB bag,TB专属标识锁扣设计包包,没有过于繁复的设计,简单又经典,恰到好处的容纳度,诠释摩登与传统的优雅交融,契合日常生活中各式各样的穿搭,收获了大批明星时尚icon的喜爱!!\n尺寸21-7-14CM","specs":{"source":"wsxcme","sourceId":"_doNoNz9bSZ7m-A5bd3CeXSncPB0IyeF7hjzDVUQ","sourceTagId":80411239,"sourceTagName":"巴宝莉/女包","rawTitle":"新品\n【配盒】巴宝莉TB bag,TB专属标识锁扣设计包包,没有过于繁复的设计,简单又经典,恰到好处的容纳度,诠释摩登与传统的优雅交融,契合日常生活中各式各样的穿搭,收获了大批明星时尚icon的喜爱!!\n尺寸21-7-14CM"},"price":null,"currency":"CNY","moq":1,"category":"burberry-women-bags","status":"active","alibaba_url":null,"images":["https://xcimg.szwego.com/20230320/i1679252474_5121_0.jpg","https://xcimg.szwego.com/20230320/i1679252474_2007_1.jpg","https://xcimg.szwego.com/20230320/i1679252474_9542_2.jpg","https://xcimg.szwego.com/20230320/i1679252474_5919_3.jpg","https://xcimg.szwego.com/20230320/i1679252474_3759_4.jpg","https://xcimg.szwego.com/20230320/i1679252474_8049_5.jpg","https://xcimg.szwego.com/20230320/i1679252474_4400_6.jpg","https://xcimg.szwego.com/20230320/i1679252474_3827_7.jpg","https://xcimg.szwego.com/20230320/i1679252474_587_8.jpg"],"created_at":"2025-02-08T12:43:27.842Z"},{"id":"item-e052d8ecc4ff","sku":"_dEyEy2yancC2xOdXjEmwxG3PULG1S5uRN8u2pJA","name_en":"Burberry Women Bags","name_cn":"老花格纹 配原厂防尘袋!","specs":{"source":"wsxcme","sourceId":"_dEyEy2yancC2xOdXjEmwxG3PULG1S5uRN8u2pJA","sourceTagId":80411239,"sourceTagName":"巴宝莉/女包","rawTitle":"老花格纹 配原厂防尘袋!"},"price":null,"currency":"CNY","moq":1,"category":"burberry-women-bags","status":"active","alibaba_url":null,"images":["https://xcimg.szwego.com/20220423/i1650693905_9838_0.jpg"],"created_at":"2026-06-29T10:27:59.202Z"},{"id":"item-db1a943729bb","sku":"_daEaEle6r-lrfUbrfgrMuuS8VxUFjcrgT74VMYg","name_en":"Burberry Women Bags","name_cn":"官网图","specs":{"source":"wsxcme","sourceId":"_daEaEle6r-lrfUbrfgrMuuS8VxUFjcrgT74VMYg","sourceTagId":80411239,"sourceTagName":"巴宝莉/女包","rawTitle":"官网图"},"price":null,"currency":"CNY","moq":1,"category":"burberry-women-bags","status":"active","alibaba_url":null,"images":["https://xcimg.szwego.com/img/d5e7a5ce/20250908/a1757318223494_3806.jpg","https://xcimg.szwego.com/img/d5e7a5ce/20250908/a1757318223492_3068.jpg","https://xcimg.szwego.com/img/d5e7a5ce/20250908/a1757318223489_2822.jpg"],"created_at":"2026-06-29T10:27:58.412Z"},{"id":"item-dab83e2113a1","sku":"_dcTcTLCYkYXuFBaLPBUXF-Eu0qUAuwAvD6fenPQ","name_en":"Burberry Women Bags","name_cn":"上身图","specs":{"source":"wsxcme","sourceId":"_dcTcTLCYkYXuFBaLPBUXF-Eu0qUAuwAvD6fenPQ","sourceTagId":80411239,"sourceTagName":"巴宝莉/女包","rawTitle":"上身图"},"price":null,"currency":"CNY","moq":1,"category":"burberry-women-bags","status":"active","alibaba_url":null,"images":["https://xcimg.szwego.com/img/d5e7a5ce/20231002/a1696228276502_3268.jpg","https://xcimg.szwego.com/img/d5e7a5ce/20231002/a1696228276502_4662.jpg","https://xcimg.szwego.com/img/d5e7a5ce/20231002/a1696228276544_6237.jpg","https://xcimg.szwego.com/img/d5e7a5ce/20231002/a1696228276588_2434.jpg","https://xcimg.szwego.com/img/d5e7a5ce/20231002/a1696228276631_4658.jpg","https://xcimg.szwego.com/img/d5e7a5ce/20231002/a1696228276696_0216.jpg"],"created_at":"2025-01-20T12:46:12.783Z"},{"id":"item-d8c80626216d","sku":"_duNuNAfvcsR8zVf7gCHKtkU6pDM1m70YlGNRANQ","name_en":"Burberry Women Bags","name_cn":"小号黑色上身效果参考","specs":{"source":"wsxcme","sourceId":"_duNuNAfvcsR8zVf7gCHKtkU6pDM1m70YlGNRANQ","sourceTagId":80411239,"sourceTagName":"巴宝莉/女包","rawTitle":"小号黑色上身效果参考"},"price":null,"currency":"CNY","moq":1,"category":"burberry-women-bags","status":"active","alibaba_url":null,"images":["https://xcimg.szwego.com/img/d5e7a5ce/20250403/a1743667631907_0215.jpg","https://xcimg.szwego.com/img/d5e7a5ce/20250403/a1743667631905_6386.jpg","https://xcimg.szwego.com/img/d5e7a5ce/20250403/a1743667631902_8213.jpg","https://xcimg.szwego.com/img/d5e7a5ce/20250403/a1743667631886_7882.jpg","https://xcimg.szwego.com/img/d5e7a5ce/20250403/a1743667631892_4057.jpg","https://xcimg.szwego.com/img/d5e7a5ce/20250403/a1743667631897_3183.jpg","https://xcimg.szwego.com/img/d5e7a5ce/20250403/a1743667632637_5046.jpg","https://xcimg.szwego.com/img/d5e7a5ce/20250403/a1743667632640_4154.jpg","https://xcimg.szwego.com/img/d5e7a5ce/20250403/a1743667632644_4567.jpg"],"created_at":"2026-06-29T10:27:59.272Z"},{"id":"item-d8aa2490284c","sku":"_db7b7wpnCsxSVjNrbu4tn5nv7j7T_yjl-gmstnw","name_en":"Burberry Women Bags","name_cn":"小熊🐻书包🎒发货实拍","specs":{"source":"wsxcme","sourceId":"_db7b7wpnCsxSVjNrbu4tn5nv7j7T_yjl-gmstnw","sourceTagId":80411239,"sourceTagName":"巴宝莉/女包","rawTitle":"小熊🐻书包🎒发货实拍"},"price":null,"currency":"CNY","moq":1,"category":"burberry-women-bags","status":"active","alibaba_url":null,"images":["https://xcimg.szwego.com/img/d5e7a5ce/20240930/a1727677410845_6740.jpg","https://xcimg.szwego.com/img/d5e7a5ce/20240930/a1727677410844_3268.jpg","https://xcimg.szwego.com/img/d5e7a5ce/20240930/a1727677413756_0253.jpg","https://xcimg.szwego.com/img/d5e7a5ce/20240930/a1727677410840_5424.jpg","https://xcimg.szwego.com/img/d5e7a5ce/20240930/a1727677410834_7703.jpg","https://xcimg.szwego.com/img/d5e7a5ce/20240930/a1727677410843_2302.jpg","https://xcimg.szwego.com/img/d5e7a5ce/20240930/a1727677410837_3652.jpg","https://xcimg.szwego.com/img/d5e7a5ce/20240930/a1727677411692_7120.jpg","https://xcimg.szwego.com/img/d5e7a5ce/20240930/a1727677411705_0642.jpg"],"created_at":"2025-01-20T12:43:24.102Z"},{"id":"item-d671adeaab86","sku":"_dqfqfuRVZVTPvA5R7_XMzO9eACAdI2kPwxUCbog","name_en":"Burberry Women Bags","name_cn":"上身图","specs":{"source":"wsxcme","sourceId":"_dqfqfuRVZVTPvA5R7_XMzO9eACAdI2kPwxUCbog","sourceTagId":80411239,"sourceTagName":"巴宝莉/女包","rawTitle":"上身图"},"price":null,"currency":"CNY","moq":1,"category":"burberry-women-bags","status":"active","alibaba_url":null,"images":["https://xcimg.szwego.com/img/d5e7a5ce/20250908/a1757317926186_2363.jpg","https://xcimg.szwego.com/img/d5e7a5ce/20250908/a1757317926188_5574.jpg","https://xcimg.szwego.com/img/d5e7a5ce/20250908/a1757317926191_2547.jpg","https://xcimg.szwego.com/img/d5e7a5ce/20250908/a1757317926189_6086.jpg","https://xcimg.szwego.com/img/d5e7a5ce/20250908/a1757317926190_3102.jpg","https://xcimg.szwego.com/img/d5e7a5ce/20250908/a1757317926192_1628.jpg","https://xcimg.szwego.com/img/d5e7a5ce/20250908/a1757317926702_1471.jpg","https://xcimg.szwego.com/img/d5e7a5ce/20250908/a1757317926703_0070.jpg","https://xcimg.szwego.com/img/d5e7a5ce/20250908/a1757317926704_5260.jpg"],"created_at":"2026-06-29T10:27:58.392Z"},{"id":"item-d5f92452f66a","sku":"_deVeV1xJTDs7aZw8bWfmKp8OlORW0ey2GlVXDtA","name_en":"Burberry Women Bags","name_cn":"新品\n【配盒】巴宝莉TB bag,TB专属标识锁扣设计包包,没有过于繁复的设计,简单又经典,恰到好处的容纳度,诠释摩登与传统的优雅交融,契合日常生活中各式各样的穿搭,收获了大批明星时尚icon的喜爱!!\n尺寸21-7-14CM","specs":{"source":"wsxcme","sourceId":"_deVeV1xJTDs7aZw8bWfmKp8OlORW0ey2GlVXDtA","sourceTagId":80411239,"sourceTagName":"巴宝莉/女包","rawTitle":"新品\n【配盒】巴宝莉TB bag,TB专属标识锁扣设计包包,没有过于繁复的设计,简单又经典,恰到好处的容纳度,诠释摩登与传统的优雅交融,契合日常生活中各式各样的穿搭,收获了大批明星时尚icon的喜爱!!\n尺寸21-7-14CM"},"price":null,"currency":"CNY","moq":1,"category":"burberry-women-bags","status":"active","alibaba_url":null,"images":["https://xcimg.szwego.com/20230320/i1679251539_4927_0.jpg","https://xcimg.szwego.com/20230320/i1679251539_2015_1.jpg","https://xcimg.szwego.com/20230320/i1679251539_6120_2.jpg","https://xcimg.szwego.com/20230320/i1679251539_9671_3.jpg","https://xcimg.szwego.com/20230320/i1679251539_7049_4.jpg","https://xcimg.szwego.com/20230320/i1679251539_6755_5.jpg","https://xcimg.szwego.com/20230320/i1679251539_5382_6.jpg","https://xcimg.szwego.com/20230320/i1679251539_4007_7.jpg","https://xcimg.szwego.com/20230320/i1679251539_999_8.jpg"],"created_at":"2025-02-08T12:43:27.844Z"},{"id":"item-d4e115c311ff","sku":"_detetdhm41lGwMGouQu3P-VdQgWy9kuLuEuvitg","name_en":"Burberry Women Bags","name_cn":"❤【鸵鸟纹奶茶色】\nLoro Piana Extra pocket L19系列 断货王\n\n不被定义的生活才最自在,就像loro piana的材质设计,不需要繁复设计的款式,简洁柔和的轮廓优雅耐看,像一只精美的化妆箱,完美兼顾了颜值和功能性。皮质细腻,手感像黄油一般柔软,小小包身大容量,不光是手提配细肩带还可以斜挎哦,对极简风情有独钟得姐妹可以入手啦,简约百搭,越简单越不同,明星ins网红都在种草,配上稀有的皮料很难不爱。\n\n尺寸:小号:长19×宽7×高12cm","specs":{"source":"wsxcme","sourceId":"_detetdhm41lGwMGouQu3P-VdQgWy9kuLuEuvitg","sourceTagId":80411239,"sourceTagName":"巴宝莉/女包","rawTitle":"❤【鸵鸟纹奶茶色】\nLoro Piana Extra pocket L19系列 断货王\n\n不被定义的生活才最自在,就像loro piana的材质设计,不需要繁复设计的款式,简洁柔和的轮廓优雅耐看,像一只精美的化妆箱,完美兼顾了颜值和功能性。皮质细腻,手感像黄油一般柔软,小小包身大容量,不光是手提配细肩带还可以斜挎哦,对极简风情有独钟得姐妹可以入手啦,简约百搭,越简单越不同,明星ins网红都在种草,配上稀有的皮料很难不爱。\n\n尺寸:小号:长19×宽7×高12cm"},"price":null,"currency":"CNY","moq":1,"category":"burberry-women-bags","status":"active","alibaba_url":null,"images":["https://xcimg.szwego.com/20230816/i1692176452_162_0.jpg","https://xcimg.szwego.com/20230816/i1692176452_9288_1.jpg","https://xcimg.szwego.com/20230816/i1692176452_5926_2.jpg","https://xcimg.szwego.com/20230816/i1692176452_7106_3.jpg","https://xcimg.szwego.com/20230816/i1692176452_7656_4.jpg","https://xcimg.szwego.com/20230816/i1692176452_4872_5.jpg","https://xcimg.szwego.com/20230816/i1692176452_9580_6.jpg","https://xcimg.szwego.com/20230816/i1692176452_6136_7.jpg","https://xcimg.szwego.com/20230816/i1692176452_9325_8.jpg"],"created_at":"2025-01-20T12:43:24.094Z"},{"id":"item-d3e1c26c0a7a","sku":"_djnjnXn-ARB3g22KUpMtDEhtrjrp-kcwvsAZIzQ","name_en":"Burberry Women Bags","name_cn":"❤️大号!黑色条纹 大号背的是酷😎是高级 是独特 也不用挑身高 有一米六左右来驾驭也是超级无敌好看的,背上气质就出来了!专柜新面料(纯棉的)搭配原厂牛皮,肩背带的边边包的都是原厂牛皮✔️,咱家拒绝超纤哈❌支持对比!!\n尺寸长36 x 宽18.5 x 高(袋身高)33cm.","specs":{"source":"wsxcme","sourceId":"_djnjnXn-ARB3g22KUpMtDEhtrjrp-kcwvsAZIzQ","sourceTagId":80411239,"sourceTagName":"巴宝莉/女包","rawTitle":"❤️大号!黑色条纹 大号背的是酷😎是高级 是独特 也不用挑身高 有一米六左右来驾驭也是超级无敌好看的,背上气质就出来了!专柜新面料(纯棉的)搭配原厂牛皮,肩背带的边边包的都是原厂牛皮✔️,咱家拒绝超纤哈❌支持对比!!\n尺寸长36 x 宽18.5 x 高(袋身高)33cm."},"price":null,"currency":"CNY","moq":1,"category":"burberry-women-bags","status":"active","alibaba_url":null,"images":["https://xcimg.szwego.com/img/d5e7a5ce/20250304/a1741079184206_4682.jpg","https://xcimg.szwego.com/img/d5e7a5ce/20250304/a1741079184203_6447.jpg","https://xcimg.szwego.com/img/d5e7a5ce/20250304/a1741079184205_7203.jpg","https://xcimg.szwego.com/img/d5e7a5ce/20250304/a1741079184209_6123.jpg","https://xcimg.szwego.com/img/d5e7a5ce/20250304/a1741079184201_6504.jpg","https://xcimg.szwego.com/img/d5e7a5ce/20250304/a1741079184210_1774.jpg","https://xcimg.szwego.com/img/d5e7a5ce/20250304/a1741079185106_6232.jpg","https://xcimg.szwego.com/img/d5e7a5ce/20250304/a1741079185100_5877.jpg","https://xcimg.szwego.com/img/d5e7a5ce/20250304/a1741079185104_6547.jpg"],"created_at":"2026-06-29T10:27:59.322Z"},{"id":"item-d3903e4f0d56","sku":"_dU_U_iFpiWEwuv5sg3EiQHKkkIAy3m_Y0ZQzvbQ","name_en":"Burberry Women Bags","name_cn":"现货","specs":{"source":"wsxcme","sourceId":"_dU_U_iFpiWEwuv5sg3EiQHKkkIAy3m_Y0ZQzvbQ","sourceTagId":80411239,"sourceTagName":"巴宝莉/女包","rawTitle":"现货"},"price":null,"currency":"CNY","moq":1,"category":"burberry-women-bags","status":"active","alibaba_url":null,"images":["https://xcimg.szwego.com/img/d5e7a5ce/20251105/a1762313700380_5413.jpg","https://xcimg.szwego.com/img/d5e7a5ce/20251105/a1762313700381_5553.jpg","https://xcimg.szwego.com/img/d5e7a5ce/20251105/a1762313700383_0416.jpg","https://xcimg.szwego.com/img/d5e7a5ce/20251105/a1762313700382_5222.jpg","https://xcimg.szwego.com/img/d5e7a5ce/20251105/a1762313700382_5630.jpg","https://xcimg.szwego.com/img/d5e7a5ce/20251105/a1762313700384_0562.jpg","https://xcimg.szwego.com/img/d5e7a5ce/20251105/a1762313701022_1140.jpg","https://xcimg.szwego.com/img/d5e7a5ce/20251105/a1762313701019_4651.jpg","https://xcimg.szwego.com/img/d5e7a5ce/20251105/a1762313701022_8775.jpg"],"created_at":"2026-06-29T10:27:58.912Z"},{"id":"item-d34c5f414005","sku":"_ddEdEUL5vnM7J_-34bNiE4xDhLsqcaBpiC_sdiQ","name_en":"Burberry Women Bags","name_cn":"官网图","specs":{"source":"wsxcme","sourceId":"_ddEdEUL5vnM7J_-34bNiE4xDhLsqcaBpiC_sdiQ","sourceTagId":80411239,"sourceTagName":"巴宝莉/女包","rawTitle":"官网图"},"price":null,"currency":"CNY","moq":1,"category":"burberry-women-bags","status":"active","alibaba_url":null,"images":["https://xcimg.szwego.com/img/d5e7a5ce/20250908/a1757318458167_7015.jpg","https://xcimg.szwego.com/img/d5e7a5ce/20250908/a1757318458165_4787.jpg","https://xcimg.szwego.com/img/d5e7a5ce/20250908/a1757318458170_0355.jpg","https://xcimg.szwego.com/img/d5e7a5ce/20250908/a1757318458169_2516.jpg","https://xcimg.szwego.com/img/d5e7a5ce/20250908/a1757318458170_7716.jpg"],"created_at":"2026-06-29T10:27:58.442Z"},{"id":"item-d278419ccd90","sku":"_du3u3cNyp76fxD5DtdzzrsP1QRnPpLs131iO1nQ","name_en":"Burberry Women Bags","name_cn":"上身图","specs":{"source":"wsxcme","sourceId":"_du3u3cNyp76fxD5DtdzzrsP1QRnPpLs131iO1nQ","sourceTagId":80411239,"sourceTagName":"巴宝莉/女包","rawTitle":"上身图"},"price":null,"currency":"CNY","moq":1,"category":"burberry-women-bags","status":"active","alibaba_url":null,"images":["https://xcimg.szwego.com/img/d5e7a5ce/20250404/a1743750422820_1860.jpg","https://xcimg.szwego.com/img/d5e7a5ce/20250404/a1743750422745_0204.jpg","https://xcimg.szwego.com/img/d5e7a5ce/20250404/a1743750422728_8385.jpg","https://xcimg.szwego.com/img/d5e7a5ce/20250404/a1743750422731_4471.jpg","https://xcimg.szwego.com/img/d5e7a5ce/20250404/a1743750422737_7224.jpg","https://xcimg.szwego.com/img/d5e7a5ce/20250404/a1743750422760_8136.jpg","https://xcimg.szwego.com/img/d5e7a5ce/20250404/a1743750423608_5678.jpg","https://xcimg.szwego.com/img/d5e7a5ce/20250404/a1743750423607_0005.jpg","https://xcimg.szwego.com/img/d5e7a5ce/20250404/a1743750423605_6335.jpg"],"created_at":"2026-06-29T10:27:58.692Z"},{"id":"item-d259c9afcc3c","sku":"_dOWOWE6vNFcJa8-1jrIWQeKfIlwRVyLU2HtOWiw","name_en":"Burberry Women Bags","name_cn":"大号沙色上身效果参考","specs":{"source":"wsxcme","sourceId":"_dOWOWE6vNFcJa8-1jrIWQeKfIlwRVyLU2HtOWiw","sourceTagId":80411239,"sourceTagName":"巴宝莉/女包","rawTitle":"大号沙色上身效果参考"},"price":null,"currency":"CNY","moq":1,"category":"burberry-women-bags","status":"active","alibaba_url":null,"images":["https://xcimg.szwego.com/img/d5e7a5ce/20250403/a1743668435402_8462.jpg","https://xcimg.szwego.com/img/d5e7a5ce/20250403/a1743668435406_4536.jpg","https://xcimg.szwego.com/img/d5e7a5ce/20250403/a1743668435409_5573.jpg","https://xcimg.szwego.com/img/d5e7a5ce/20250403/a1743668435412_6222.jpg","https://xcimg.szwego.com/img/d5e7a5ce/20250403/a1743668435415_7025.jpg","https://xcimg.szwego.com/img/d5e7a5ce/20250403/a1743668435414_7038.jpg","https://xcimg.szwego.com/img/d5e7a5ce/20250403/a1743668436222_4447.jpg"],"created_at":"2026-06-29T10:27:59.312Z"},{"id":"item-d1d932f3c5fa","sku":"_d9X9XbcO5z5XlqvnEt65V_c-mqNUCDr78P9C_fA","name_en":"Burberry Women Bags","name_cn":"上身图","specs":{"source":"wsxcme","sourceId":"_d9X9XbcO5z5XlqvnEt65V_c-mqNUCDr78P9C_fA","sourceTagId":80411239,"sourceTagName":"巴宝莉/女包","rawTitle":"上身图"},"price":null,"currency":"CNY","moq":1,"category":"burberry-women-bags","status":"active","alibaba_url":null,"images":["https://xcimg.szwego.com/img/d5e7a5ce/20251114/a1763101832719_0270.jpg","https://xcimg.szwego.com/img/d5e7a5ce/20251114/a1763101832719_1835.jpg","https://xcimg.szwego.com/img/d5e7a5ce/20251114/a1763101832721_1036.jpg","https://xcimg.szwego.com/img/d5e7a5ce/20251114/a1763101832723_1658.jpg","https://xcimg.szwego.com/img/d5e7a5ce/20251114/a1763101832722_0437.jpg","https://xcimg.szwego.com/img/d5e7a5ce/20251114/a1763101832722_0670.jpg","https://xcimg.szwego.com/img/d5e7a5ce/20251114/a1763101833287_6201.jpg","https://xcimg.szwego.com/img/d5e7a5ce/20251114/a1763101833288_1754.jpg"],"created_at":"2026-06-29T10:27:58.372Z"},{"id":"item-d07a9464f584","sku":"_djQjQyiXIXSBv8Otf71pdG1LBNQbM7vztJ9x33g","name_en":"Burberry Women Bags","name_cn":"巴宝莉【型号0621】顶级原单典藏灵感的托特包,精选帆布拼缉明线皮革制成,正面口袋装饰品牌徽标图案。可使用加固式皮革提柄手拎,或使用可拆式肩背带携带。\n尺寸:23 x 6 x 26.5cm\n内衬:92%棉,8%聚氨酯","specs":{"source":"wsxcme","sourceId":"_djQjQyiXIXSBv8Otf71pdG1LBNQbM7vztJ9x33g","sourceTagId":80411239,"sourceTagName":"巴宝莉/女包","modelNumber":"0621】顶级原单典藏灵感的托特包","dimensions":{"lengthCm":23,"heightCm":6,"widthCm":26.5},"rawTitle":"巴宝莉【型号0621】顶级原单典藏灵感的托特包,精选帆布拼缉明线皮革制成,正面口袋装饰品牌徽标图案。可使用加固式皮革提柄手拎,或使用可拆式肩背带携带。\n尺寸:23 x 6 x 26.5cm\n内衬:92%棉,8%聚氨酯"},"price":null,"currency":"CNY","moq":1,"category":"burberry-women-bags","status":"active","alibaba_url":null,"images":["https://xcimg.szwego.com/20210928/a1632839067266_6250.jpg","https://xcimg.szwego.com/20210928/a1632839067361_0861.jpg","https://xcimg.szwego.com/20210928/a1632839067456_3434.jpg","https://xcimg.szwego.com/20210928/a1632839067622_6137.jpg","https://xcimg.szwego.com/20210928/a1632839067775_6806.jpg","https://xcimg.szwego.com/20210928/a1632839067843_4277.jpg","https://xcimg.szwego.com/20210928/a1632839067928_0151.jpg","https://xcimg.szwego.com/20210928/a1632839068005_4701.jpg","https://xcimg.szwego.com/20210928/a1632839068072_8172.jpg"],"created_at":"2025-02-08T12:43:27.831Z"},{"id":"item-cbf1bb208ba7","sku":"_d0J0JF3HY7D5--xKkeI3WHy_cb6vs7gMo7fzg1Q","name_en":"Burberry Women Bags","name_cn":"来看一下 原厂防水复古格纹环保帆布+光滑的意大利鞣制皮革打造,亮眼装饰格纹印花和对比缉明线,材质硬挺有型,上身超级吸睛亮眼。","specs":{"source":"wsxcme","sourceId":"_d0J0JF3HY7D5--xKkeI3WHy_cb6vs7gMo7fzg1Q","sourceTagId":80411239,"sourceTagName":"巴宝莉/女包","rawTitle":"来看一下 原厂防水复古格纹环保帆布+光滑的意大利鞣制皮革打造,亮眼装饰格纹印花和对比缉明线,材质硬挺有型,上身超级吸睛亮眼。"},"price":null,"currency":"CNY","moq":1,"category":"burberry-women-bags","status":"active","alibaba_url":null,"images":["https://xcimg.szwego.com/20220423/i1650693835_4293_0.jpg","https://xcimg.szwego.com/20220423/i1650693835_6859_1.jpg","https://xcimg.szwego.com/20220423/i1650693835_2768_2.jpg","https://xcimg.szwego.com/20220423/i1650693835_1602_3.jpg","https://xcimg.szwego.com/20220423/i1650693835_2753_4.jpg","https://xcimg.szwego.com/20220423/i1650693835_2146_5.jpg","https://xcimg.szwego.com/20220423/i1650693835_4562_6.jpg"],"created_at":"2026-06-29T10:27:59.182Z"},{"id":"item-caf118ca83bc","sku":"_dkKkKfs-tmAwMwPPJ20c3Xb7eqKILQhwiJ3tbAw","name_en":"Burberry Women Bags","name_cn":"上身图","specs":{"source":"wsxcme","sourceId":"_dkKkKfs-tmAwMwPPJ20c3Xb7eqKILQhwiJ3tbAw","sourceTagId":80411239,"sourceTagName":"巴宝莉/女包","rawTitle":"上身图"},"price":null,"currency":"CNY","moq":1,"category":"burberry-women-bags","status":"active","alibaba_url":null,"images":["https://xcimg.szwego.com/img/d5e7a5ce/20250908/a1757318472392_0167.jpg","https://xcimg.szwego.com/img/d5e7a5ce/20250908/a1757318472396_0506.jpg","https://xcimg.szwego.com/img/d5e7a5ce/20250908/a1757318472393_2017.jpg","https://xcimg.szwego.com/img/d5e7a5ce/20250908/a1757318472394_1162.jpg","https://xcimg.szwego.com/img/d5e7a5ce/20250908/a1757318472400_2276.jpg","https://xcimg.szwego.com/img/d5e7a5ce/20250908/a1757318472410_8722.jpg","https://xcimg.szwego.com/img/d5e7a5ce/20250908/a1757318473006_7123.jpg","https://xcimg.szwego.com/img/d5e7a5ce/20250908/a1757318473008_6468.jpg","https://xcimg.szwego.com/img/d5e7a5ce/20250908/a1757318473009_4087.jpg"],"created_at":"2026-06-29T10:27:58.452Z"},{"id":"item-c82be74a94c1","sku":"_d8k8k2gFaRPFTW4RulO6Wagm_nrT3saaC-fbs1g","name_en":"Burberry Women Bags","name_cn":"芭宝莉 尺寸28 15\n巴宝莉 Burberry中古腋下包,斜挎包 !也太百搭了吧! !不论休闲西装小裙纸都能搭配质量超级好很有质感摸起来也是软软的爱了爱了,没有年龄限制的一款腋下包!7003","specs":{"source":"wsxcme","sourceId":"_d8k8k2gFaRPFTW4RulO6Wagm_nrT3saaC-fbs1g","sourceTagId":80411239,"sourceTagName":"巴宝莉/女包","rawTitle":"芭宝莉 尺寸28 15\n巴宝莉 Burberry中古腋下包,斜挎包 !也太百搭了吧! !不论休闲西装小裙纸都能搭配质量超级好很有质感摸起来也是软软的爱了爱了,没有年龄限制的一款腋下包!7003"},"price":null,"currency":"CNY","moq":1,"category":"burberry-women-bags","status":"active","alibaba_url":null,"images":["https://xcimg.szwego.com/20211117/i1637080965_244_3.jpg","https://xcimg.szwego.com/20211117/i1637080965_503_0.jpg","https://xcimg.szwego.com/20211117/i1637080965_3430_8.jpg","https://xcimg.szwego.com/20211117/i1637080965_9913_7.jpg","https://xcimg.szwego.com/20211117/i1637080965_6029_2.jpg","https://xcimg.szwego.com/20211117/i1637080965_9870_5.jpg","https://xcimg.szwego.com/20211117/i1637080965_7068_1.jpg","https://xcimg.szwego.com/20211117/i1637080965_5745_4.jpg","https://xcimg.szwego.com/20211117/i1637080965_6616_6.jpg"],"created_at":"2025-02-08T12:43:27.819Z"},{"id":"item-c790e7d22b8e","sku":"_d9-9-9hFjatQ-UEgu_rt1x1nHKhpIG-I0tnjigA","name_en":"Burberry Women Bags","name_cn":"芭宝莉 尺寸28 15\n巴宝莉 Burberry中古腋下包,斜挎包 !也太百搭了吧! !不论休闲西装小裙纸都能搭配质量超级好很有质感摸起来也是软软的爱了爱了,没有年龄限制的一款腋下包!7003","specs":{"source":"wsxcme","sourceId":"_d9-9-9hFjatQ-UEgu_rt1x1nHKhpIG-I0tnjigA","sourceTagId":80411239,"sourceTagName":"巴宝莉/女包","rawTitle":"芭宝莉 尺寸28 15\n巴宝莉 Burberry中古腋下包,斜挎包 !也太百搭了吧! !不论休闲西装小裙纸都能搭配质量超级好很有质感摸起来也是软软的爱了爱了,没有年龄限制的一款腋下包!7003"},"price":null,"currency":"CNY","moq":1,"category":"burberry-women-bags","status":"active","alibaba_url":null,"images":["https://xcimg.szwego.com/20211107/i1636265661_5114_0.jpg","https://xcimg.szwego.com/20211107/i1636265661_9873_1.jpg","https://xcimg.szwego.com/20211107/i1636265661_590_2.jpg","https://xcimg.szwego.com/20211107/i1636265661_7362_3.jpg","https://xcimg.szwego.com/20211107/i1636265661_2745_4.jpg","https://xcimg.szwego.com/20211107/i1636265661_8182_5.jpg","https://xcimg.szwego.com/20211107/i1636265661_3613_6.jpg","https://xcimg.szwego.com/20211107/i1636265661_1513_7.jpg","https://xcimg.szwego.com/20211107/i1636265661_667_8.jpg"],"created_at":"2025-02-08T12:43:27.820Z"}],"page":17,"pageSize":24,"total":493,"totalPages":21}
