{"items":[{"id":"item-ce91ce4a8f2c","sku":"_dBRBRsy6-XFoG-eaTO3wJU9l5k6dODQz2PVU5JQ","name_en":"Mini Peg Chain Bag - New Mini","name_cn":"Mini Peg Chain Bag - New Mini\nNew detachable metal chain for enhanced practicality\nDimensions: 16×10×26cm.","specs":{"source":"wsxcme","sourceId":"_dBRBRsy6-XFoG-eaTO3wJU9l5k6dODQz2PVU5JQ","sourceTagId":80411239,"sourceTagName":"Burberry/women's bag","dimensions":{"lengthCm":16,"heightCm":10,"widthCm":26},"rawTitle":"Mini Peg Chain Bag - New Mini\nNew detachable metal chain for enhanced practicality\nDimensions: 16×10×26cm."},"price":null,"currency":"CNY","moq":1,"category":"burberry-women-bags","status":"active","alibaba_url":null,"images":["https://xcimg.szwego.com/img/d5e7a5ce/20241113/a1731483736457_3117.jpg","https://xcimg.szwego.com/img/d5e7a5ce/20241113/a1731483736453_7831.jpg","https://xcimg.szwego.com/img/d5e7a5ce/20241113/a1731483736455_5004.jpg","https://xcimg.szwego.com/img/d5e7a5ce/20241113/a1731483736455_3806.jpg","https://xcimg.szwego.com/img/d5e7a5ce/20241113/a1731483736458_6137.jpg","https://xcimg.szwego.com/img/d5e7a5ce/20241113/a1731483736454_3204.jpg","https://xcimg.szwego.com/img/d5e7a5ce/20241113/a1731483737735_0338.jpg","https://xcimg.szwego.com/img/d5e7a5ce/20241113/a1731483737733_0577.jpg"],"created_at":"2025-01-20T12:43:24.146Z"},{"id":"item-af27f67b5a40","sku":"_dnTnTj4XxuMWxP73g74_NxqZBqPmniOXRaeYulg","name_en":"Mini Peg Chain Bag - New Mini","name_cn":"Mini Peg Chain Bag - New Mini\nNew detachable metal chain for enhanced practicality\nDimensions: 16×10×26cm.","specs":{"source":"wsxcme","sourceId":"_dnTnTj4XxuMWxP73g74_NxqZBqPmniOXRaeYulg","sourceTagId":80411239,"sourceTagName":"Burberry/women's bag","dimensions":{"lengthCm":16,"heightCm":10,"widthCm":26},"rawTitle":"Mini Peg Chain Bag - New Mini\nNew detachable metal chain for enhanced practicality\nDimensions: 16×10×26cm."},"price":null,"currency":"CNY","moq":1,"category":"burberry-women-bags","status":"active","alibaba_url":null,"images":["https://xcimg.szwego.com/img/d5e7a5ce/20241113/a1731483806971_7580.jpg","https://xcimg.szwego.com/img/d5e7a5ce/20241113/a1731483806974_8558.jpg","https://xcimg.szwego.com/img/d5e7a5ce/20241113/a1731483806973_7183.jpg","https://xcimg.szwego.com/img/d5e7a5ce/20241113/a1731483806978_1481.jpg","https://xcimg.szwego.com/img/d5e7a5ce/20241113/a1731483806975_4740.jpg","https://xcimg.szwego.com/img/d5e7a5ce/20241113/a1731483806976_0702.jpg","https://xcimg.szwego.com/img/d5e7a5ce/20241113/a1731483810602_4328.jpg","https://xcimg.szwego.com/img/d5e7a5ce/20241113/a1731483810605_6663.jpg","https://xcimg.szwego.com/img/d5e7a5ce/20241113/a1731483810589_3778.jpg"],"created_at":"2025-01-20T12:43:24.148Z"},{"id":"item-aa44840b0c73","sku":"_dd5d5SNDvViD66FobruBz058Wx0imKGNWVrPXbQ","name_en":"Mini Peg Chain Bag - New Mini","name_cn":"Mini Peg Chain Bag - New Mini\nNew detachable metal chain for enhanced practicality\nDimensions: 16×10×26cm.","specs":{"source":"wsxcme","sourceId":"_dd5d5SNDvViD66FobruBz058Wx0imKGNWVrPXbQ","sourceTagId":80411239,"sourceTagName":"Burberry/women's bag","dimensions":{"lengthCm":16,"heightCm":10,"widthCm":26},"rawTitle":"Mini Peg Chain Bag - New Mini\nNew detachable metal chain for enhanced practicality\nDimensions: 16×10×26cm."},"price":null,"currency":"CNY","moq":1,"category":"burberry-women-bags","status":"active","alibaba_url":null,"images":["https://xcimg.szwego.com/img/d5e7a5ce/20241113/a1731483784202_8685.jpg","https://xcimg.szwego.com/img/d5e7a5ce/20241113/a1731483784198_8748.jpg","https://xcimg.szwego.com/img/d5e7a5ce/20241113/a1731483784206_7124.jpg","https://xcimg.szwego.com/img/d5e7a5ce/20241113/a1731483784210_8635.jpg","https://xcimg.szwego.com/img/d5e7a5ce/20241113/a1731483784205_0850.jpg","https://xcimg.szwego.com/img/d5e7a5ce/20241113/a1731483784207_8687.jpg","https://xcimg.szwego.com/img/d5e7a5ce/20241113/a1731483787726_8157.jpg","https://xcimg.szwego.com/img/d5e7a5ce/20241113/a1731483787728_5136.jpg","https://xcimg.szwego.com/img/d5e7a5ce/20241113/a1731483787727_6251.jpg"],"created_at":"2025-01-20T12:43:24.147Z"},{"id":"item-e052d8ecc4ff","sku":"_dEyEy2yancC2xOdXjEmwxG3PULG1S5uRN8u2pJA","name_en":"Monogram pattern with original dust bag!","name_cn":"Monogram pattern with original dust bag!","specs":{"source":"wsxcme","sourceId":"_dEyEy2yancC2xOdXjEmwxG3PULG1S5uRN8u2pJA","sourceTagId":80411239,"sourceTagName":"Burberry/women's bag","rawTitle":"Monogram pattern with original dust bag!"},"price":null,"currency":"CNY","moq":1,"category":"burberry-women-bags","status":"active","alibaba_url":null,"images":["https://xcimg.szwego.com/20220423/i1650693905_9838_0.jpg"],"created_at":"2026-06-29T10:27:59.202Z"},{"id":"item-e169a1c14e52","sku":"_doNoNz9bSZ7m-A5bd3CeXSncPB0IyeF7hjzDVUQ","name_en":"New","name_cn":"New\n【With Box】Burberry TB bag, featuring a TB monogram lock design. The design is not overly complex, simple yet classic, with just the right capacity, interpreting the blend of modernity and traditional elegance. It fits various daily outfits and has won the love of many celebrity fashion icons!!\nSize 21-7-14CM","specs":{"source":"wsxcme","sourceId":"_doNoNz9bSZ7m-A5bd3CeXSncPB0IyeF7hjzDVUQ","sourceTagId":80411239,"sourceTagName":"Burberry/women's bag","rawTitle":"New\n【With Box】Burberry TB bag, featuring a TB monogram lock design. The design is not overly complex, simple yet classic, with just the right capacity, interpreting the blend of modernity and traditional elegance. It fits various daily outfits and has won the love of many celebrity fashion icons!!\nSize 21-7-14CM"},"price":null,"currency":"CNY","moq":1,"category":"burberry-women-bags","status":"active","alibaba_url":null,"images":["https://xcimg.szwego.com/20230320/i1679252474_5121_0.jpg","https://xcimg.szwego.com/20230320/i1679252474_2007_1.jpg","https://xcimg.szwego.com/20230320/i1679252474_9542_2.jpg","https://xcimg.szwego.com/20230320/i1679252474_5919_3.jpg","https://xcimg.szwego.com/20230320/i1679252474_3759_4.jpg","https://xcimg.szwego.com/20230320/i1679252474_8049_5.jpg","https://xcimg.szwego.com/20230320/i1679252474_4400_6.jpg","https://xcimg.szwego.com/20230320/i1679252474_3827_7.jpg","https://xcimg.szwego.com/20230320/i1679252474_587_8.jpg"],"created_at":"2025-02-08T12:43:27.842Z"},{"id":"item-d5f92452f66a","sku":"_deVeV1xJTDs7aZw8bWfmKp8OlORW0ey2GlVXDtA","name_en":"New","name_cn":"New\n【With Box】Burberry TB bag, featuring a TB monogram lock design. The design is not overly complex, simple yet classic, with just the right capacity, interpreting the blend of modernity and traditional elegance. It fits various daily outfits and has won the love of many celebrity fashion icons!!\nSize 21-7-14CM","specs":{"source":"wsxcme","sourceId":"_deVeV1xJTDs7aZw8bWfmKp8OlORW0ey2GlVXDtA","sourceTagId":80411239,"sourceTagName":"Burberry/women's bag","rawTitle":"New\n【With Box】Burberry TB bag, featuring a TB monogram lock design. The design is not overly complex, simple yet classic, with just the right capacity, interpreting the blend of modernity and traditional elegance. It fits various daily outfits and has won the love of many celebrity fashion icons!!\nSize 21-7-14CM"},"price":null,"currency":"CNY","moq":1,"category":"burberry-women-bags","status":"active","alibaba_url":null,"images":["https://xcimg.szwego.com/20230320/i1679251539_4927_0.jpg","https://xcimg.szwego.com/20230320/i1679251539_2015_1.jpg","https://xcimg.szwego.com/20230320/i1679251539_6120_2.jpg","https://xcimg.szwego.com/20230320/i1679251539_9671_3.jpg","https://xcimg.szwego.com/20230320/i1679251539_7049_4.jpg","https://xcimg.szwego.com/20230320/i1679251539_6755_5.jpg","https://xcimg.szwego.com/20230320/i1679251539_5382_6.jpg","https://xcimg.szwego.com/20230320/i1679251539_4007_7.jpg","https://xcimg.szwego.com/20230320/i1679251539_999_8.jpg"],"created_at":"2025-02-08T12:43:27.844Z"},{"id":"item-ac7985c7c3d0","sku":"_d8t8t3KqT1BF0-StdDOF3jvEWaENJZdtU7Af6wg","name_en":"New","name_cn":"New\n【With Box】Burberry TB bag, featuring a TB monogram lock design. The design is not overly complex, simple yet classic, with just the right capacity, interpreting the blend of modernity and traditional elegance. It fits various daily outfits and has won the love of many celebrity fashion icons!!\nSize 21-7-14CM","specs":{"source":"wsxcme","sourceId":"_d8t8t3KqT1BF0-StdDOF3jvEWaENJZdtU7Af6wg","sourceTagId":80411239,"sourceTagName":"Burberry/women's bag","rawTitle":"New\n【With Box】Burberry TB bag, featuring a TB monogram lock design. The design is not overly complex, simple yet classic, with just the right capacity, interpreting the blend of modernity and traditional elegance. It fits various daily outfits and has won the love of many celebrity fashion icons!!\nSize 21-7-14CM"},"price":null,"currency":"CNY","moq":1,"category":"burberry-women-bags","status":"active","alibaba_url":null,"images":["https://xcimg.szwego.com/20230320/i1679252489_600_0.jpg","https://xcimg.szwego.com/20230320/i1679252489_3691_1.jpg","https://xcimg.szwego.com/20230320/i1679252489_975_2.jpg","https://xcimg.szwego.com/20230320/i1679252489_4956_3.jpg","https://xcimg.szwego.com/20230320/i1679252489_5771_4.jpg","https://xcimg.szwego.com/20230320/i1679252489_7833_5.jpg","https://xcimg.szwego.com/20230320/i1679252489_6485_6.jpg","https://xcimg.szwego.com/20230320/i1679252489_2045_7.jpg","https://xcimg.szwego.com/20230320/i1679252489_8468_8.jpg"],"created_at":"2025-02-08T12:43:27.841Z"},{"id":"item-a62df8c2777c","sku":"_d_1_1neB5DEfeli19YTc918HKe46bwGJDuvA8nQ","name_en":"New","name_cn":"New\n【With Box】Burberry TB bag, featuring a TB monogram lock design. The design is not overly complex, simple yet classic, with just the right capacity, interpreting the blend of modernity and traditional elegance. It fits various daily outfits and has won the love of many celebrity fashion icons!!\nSize 21-7-14CM","specs":{"source":"wsxcme","sourceId":"_d_1_1neB5DEfeli19YTc918HKe46bwGJDuvA8nQ","sourceTagId":80411239,"sourceTagName":"Burberry/women's bag","rawTitle":"New\n【With Box】Burberry TB bag, featuring a TB monogram lock design. The design is not overly complex, simple yet classic, with just the right capacity, interpreting the blend of modernity and traditional elegance. It fits various daily outfits and has won the love of many celebrity fashion icons!!\nSize 21-7-14CM"},"price":null,"currency":"CNY","moq":1,"category":"burberry-women-bags","status":"active","alibaba_url":null,"images":["https://xcimg.szwego.com/20230320/i1679251593_3886_0.jpg","https://xcimg.szwego.com/20230320/i1679251593_823_1.jpg","https://xcimg.szwego.com/20230320/i1679251593_2327_2.jpg","https://xcimg.szwego.com/20230320/i1679251593_8732_3.jpg","https://xcimg.szwego.com/20230320/i1679251593_2907_4.jpg","https://xcimg.szwego.com/20230320/i1679251593_4603_5.jpg","https://xcimg.szwego.com/20230320/i1679251593_2134_6.jpg","https://xcimg.szwego.com/20230320/i1679251593_6609_7.jpg","https://xcimg.szwego.com/20230320/i1679251593_2167_8.jpg"],"created_at":"2025-02-08T12:43:27.843Z"},{"id":"item-84b59eba5523","sku":"_dtUtUj03SsSUTNONZUASaU3grb7ZhLqKrcGfaLg","name_en":"new style calfskin , 。 Burberry , 。 Bloomsbury series, , 1980 。 top handle, shoulder carry 。 (EKD) Size22× 10x20cm.","name_cn":"new style calfskin , 。 Burberry , 。 Bloomsbury series, , 1980 。 top handle, shoulder carry 。 (EKD) Size22× 10x20cm.","specs":{"source":"wsxcme","sourceId":"_dtUtUj03SsSUTNONZUASaU3grb7ZhLqKrcGfaLg","sourceTagId":80411239,"sourceTagName":"Burberry/women's bag","dimensions":{"lengthCm":22,"heightCm":10,"widthCm":20},"rawTitle":"new style calfskin , 。 Burberry , 。 Bloomsbury series, , 1980 。 top handle, shoulder carry 。 (EKD) Size22× 10x20cm."},"price":null,"currency":"CNY","moq":1,"category":"burberry-women-bags","status":"active","alibaba_url":null,"images":["https://xcimg.szwego.com/img/d5e7a5ce/20251115/a1763194353692_8711.jpg","https://xcimg.szwego.com/img/d5e7a5ce/20251115/a1763194353704_0856.jpg","https://xcimg.szwego.com/img/d5e7a5ce/20251115/a1763194353704_7423.jpg","https://xcimg.szwego.com/img/d5e7a5ce/20251115/a1763194353706_1678.jpg","https://xcimg.szwego.com/img/d5e7a5ce/20251115/a1763194353706_7727.jpg","https://xcimg.szwego.com/img/d5e7a5ce/20251115/a1763194353705_5542.jpg","https://xcimg.szwego.com/img/d5e7a5ce/20251115/a1763194354361_7522.jpg","https://xcimg.szwego.com/img/d5e7a5ce/20251115/a1763194354364_3158.jpg","https://xcimg.szwego.com/img/d5e7a5ce/20251115/a1763194354363_3725.jpg"],"created_at":"2026-06-29T10:29:02.989Z"},{"id":"item-72d75a6f27d7","sku":"_dh9h9PHOR_1TnACSYS1azZJ_U5DljIxVsm-aDXw","name_en":"new style woc.calfskin canvas","name_cn":"new style woc.calfskin canvas\nSize19","specs":{"source":"wsxcme","sourceId":"_dh9h9PHOR_1TnACSYS1azZJ_U5DljIxVsm-aDXw","sourceTagId":80411239,"sourceTagName":"Burberry/women's bag","rawTitle":"new style woc.calfskin canvas\nSize19"},"price":null,"currency":"CNY","moq":1,"category":"burberry-women-bags","status":"active","alibaba_url":null,"images":["https://xcimg.szwego.com/img/d5e7a5ce/20251105/a1762314338107_2012.jpg","https://xcimg.szwego.com/img/d5e7a5ce/20251105/a1762314338109_6472.jpg","https://xcimg.szwego.com/img/d5e7a5ce/20251105/a1762314338112_0332.jpg","https://xcimg.szwego.com/img/d5e7a5ce/20251105/a1762314338112_6587.jpg","https://xcimg.szwego.com/img/d5e7a5ce/20251105/a1762314338110_6672.jpg","https://xcimg.szwego.com/img/d5e7a5ce/20251105/a1762314338111_1606.jpg","https://xcimg.szwego.com/img/d5e7a5ce/20251105/a1762314338651_7647.jpg","https://xcimg.szwego.com/img/d5e7a5ce/20251105/a1762314338656_3513.jpg","https://xcimg.szwego.com/img/d5e7a5ce/20251105/a1762314338657_7638.jpg"],"created_at":"2026-06-29T10:27:58.982Z"},{"id":"item-01fee6d43ddd","sku":"_dtxtxo-jGkwhPhAZPPJE3RrOK1HwI7yzLVBfEgQ","name_en":"new style woc.calfskin canvas","name_cn":"new style woc.calfskin canvas\nSize19","specs":{"source":"wsxcme","sourceId":"_dtxtxo-jGkwhPhAZPPJE3RrOK1HwI7yzLVBfEgQ","sourceTagId":80411239,"sourceTagName":"Burberry/women's bag","rawTitle":"new style woc.calfskin canvas\nSize19"},"price":null,"currency":"CNY","moq":1,"category":"burberry-women-bags","status":"active","alibaba_url":null,"images":["https://xcimg.szwego.com/img/d5e7a5ce/20251105/a1762314314217_1058.jpg","https://xcimg.szwego.com/img/d5e7a5ce/20251105/a1762314314218_3382.jpg","https://xcimg.szwego.com/img/d5e7a5ce/20251105/a1762314314221_7256.jpg","https://xcimg.szwego.com/img/d5e7a5ce/20251105/a1762314314246_3271.jpg","https://xcimg.szwego.com/img/d5e7a5ce/20251105/a1762314314220_3534.jpg","https://xcimg.szwego.com/img/d5e7a5ce/20251105/a1762314314219_6070.jpg","https://xcimg.szwego.com/img/d5e7a5ce/20251105/a1762314314777_6235.jpg","https://xcimg.szwego.com/img/d5e7a5ce/20251105/a1762314314776_4383.jpg","https://xcimg.szwego.com/img/d5e7a5ce/20251105/a1762314314779_3201.jpg"],"created_at":"2026-06-29T10:27:58.972Z"},{"id":"item-3e1c08b3a658","sku":"_dpfpf6S1JICnuOvKi4bXEPV_FuvWon4mtKpBn1g","name_en":"Official Price!","name_cn":"Official Price!","specs":{"source":"wsxcme","sourceId":"_dpfpf6S1JICnuOvKi4bXEPV_FuvWon4mtKpBn1g","sourceTagId":80411239,"sourceTagName":"Burberry/women's bag","rawTitle":"Official Price!"},"price":null,"currency":"CNY","moq":1,"category":"burberry-women-bags","status":"active","alibaba_url":null,"images":["https://xcimg.szwego.com/20220323/i1648017775_9626_0.jpg"],"created_at":"2026-06-29T10:27:59.142Z"},{"id":"item-fb0ff6088739","sku":"_dVuVujPu70FvKo2PDTPmsD7dhjTBrgwP2IERiaw","name_en":"Official website image","name_cn":"Official website image","specs":{"source":"wsxcme","sourceId":"_dVuVujPu70FvKo2PDTPmsD7dhjTBrgwP2IERiaw","sourceTagId":80411239,"sourceTagName":"Burberry/women's bag","rawTitle":"Official website image"},"price":null,"currency":"CNY","moq":1,"category":"burberry-women-bags","status":"active","alibaba_url":null,"images":["https://xcimg.szwego.com/20220423/i1650694026_6053_0.jpg","https://xcimg.szwego.com/20220423/i1650694026_2209_1.jpg","https://xcimg.szwego.com/20220423/i1650694026_8934_2.jpg","https://xcimg.szwego.com/20220423/i1650694026_9637_3.jpg","https://xcimg.szwego.com/20220423/i1650694026_6474_4.jpg"],"created_at":"2026-06-29T10:27:59.212Z"},{"id":"item-db1a943729bb","sku":"_daEaEle6r-lrfUbrfgrMuuS8VxUFjcrgT74VMYg","name_en":"Official website image","name_cn":"Official website image","specs":{"source":"wsxcme","sourceId":"_daEaEle6r-lrfUbrfgrMuuS8VxUFjcrgT74VMYg","sourceTagId":80411239,"sourceTagName":"Burberry/women's bag","rawTitle":"Official website image"},"price":null,"currency":"CNY","moq":1,"category":"burberry-women-bags","status":"active","alibaba_url":null,"images":["https://xcimg.szwego.com/img/d5e7a5ce/20250908/a1757318223494_3806.jpg","https://xcimg.szwego.com/img/d5e7a5ce/20250908/a1757318223492_3068.jpg","https://xcimg.szwego.com/img/d5e7a5ce/20250908/a1757318223489_2822.jpg"],"created_at":"2026-06-29T10:27:58.412Z"},{"id":"item-d34c5f414005","sku":"_ddEdEUL5vnM7J_-34bNiE4xDhLsqcaBpiC_sdiQ","name_en":"Official website image","name_cn":"Official website image","specs":{"source":"wsxcme","sourceId":"_ddEdEUL5vnM7J_-34bNiE4xDhLsqcaBpiC_sdiQ","sourceTagId":80411239,"sourceTagName":"Burberry/women's bag","rawTitle":"Official website image"},"price":null,"currency":"CNY","moq":1,"category":"burberry-women-bags","status":"active","alibaba_url":null,"images":["https://xcimg.szwego.com/img/d5e7a5ce/20250908/a1757318458167_7015.jpg","https://xcimg.szwego.com/img/d5e7a5ce/20250908/a1757318458165_4787.jpg","https://xcimg.szwego.com/img/d5e7a5ce/20250908/a1757318458170_0355.jpg","https://xcimg.szwego.com/img/d5e7a5ce/20250908/a1757318458169_2516.jpg","https://xcimg.szwego.com/img/d5e7a5ce/20250908/a1757318458170_7716.jpg"],"created_at":"2026-06-29T10:27:58.442Z"},{"id":"item-c6ea019ee865","sku":"_dq1q12tbf_5dxo7d6vOB66sMq5w6yPDLHQsWXkg","name_en":"Official website image","name_cn":"Official website image","specs":{"source":"wsxcme","sourceId":"_dq1q12tbf_5dxo7d6vOB66sMq5w6yPDLHQsWXkg","sourceTagId":80411239,"sourceTagName":"Burberry/women's bag","rawTitle":"Official website image"},"price":null,"currency":"CNY","moq":1,"category":"burberry-women-bags","status":"active","alibaba_url":null,"images":["https://xcimg.szwego.com/img/d5e7a5ce/20250915/a1757934068152_4025.jpg","https://xcimg.szwego.com/img/d5e7a5ce/20250915/a1757934068156_4026.jpg","https://xcimg.szwego.com/img/d5e7a5ce/20250915/a1757934068157_5720.jpg","https://xcimg.szwego.com/img/d5e7a5ce/20250915/a1757934068161_4431.jpg","https://xcimg.szwego.com/img/d5e7a5ce/20250915/a1757934068160_4014.jpg"],"created_at":"2026-06-29T10:27:58.742Z"},{"id":"item-a8d466b467f2","sku":"_dmTmT6jyyxMeIPJzxkggNDmh73XqvAqDXLr7rdw","name_en":"Official website image","name_cn":"Official website image","specs":{"source":"wsxcme","sourceId":"_dmTmT6jyyxMeIPJzxkggNDmh73XqvAqDXLr7rdw","sourceTagId":80411239,"sourceTagName":"Burberry/women's bag","rawTitle":"Official website image"},"price":null,"currency":"CNY","moq":1,"category":"burberry-women-bags","status":"active","alibaba_url":null,"images":["https://xcimg.szwego.com/20220323/i1648017754_2217_0.jpg","https://xcimg.szwego.com/20220323/i1648017754_5936_1.jpg","https://xcimg.szwego.com/20220323/i1648017754_5210_2.jpg","https://xcimg.szwego.com/20220323/i1648017754_4327_3.jpg","https://xcimg.szwego.com/20220323/i1648017764_3641_0.jpg"],"created_at":"2026-06-29T10:27:59.132Z"},{"id":"item-a1ec0f8976f0","sku":"_dukukw-k4E3UV0j8acOLz7LOMOM6Ix3OVZSrjtQ","name_en":"Official website image","name_cn":"Official website image","specs":{"source":"wsxcme","sourceId":"_dukukw-k4E3UV0j8acOLz7LOMOM6Ix3OVZSrjtQ","sourceTagId":80411239,"sourceTagName":"Burberry/women's bag","rawTitle":"Official website image"},"price":null,"currency":"CNY","moq":1,"category":"burberry-women-bags","status":"active","alibaba_url":null,"images":["https://xcimg.szwego.com/img/d5e7a5ce/20250530/a1748585166067_0102.jpg","https://xcimg.szwego.com/img/d5e7a5ce/20250530/a1748585166070_6177.jpg","https://xcimg.szwego.com/img/d5e7a5ce/20250530/a1748585166072_5214.jpg","https://xcimg.szwego.com/img/d5e7a5ce/20250530/a1748585166073_1156.jpg","https://xcimg.szwego.com/img/d5e7a5ce/20250530/a1748585166073_6400.jpg"],"created_at":"2026-06-29T10:27:58.632Z"},{"id":"item-7201f5aa68c9","sku":"_dBWBW2E1WfR3R21yqvvB8dsGyDCi3OURQTplZ2A","name_en":"Official website image","name_cn":"Official website image","specs":{"source":"wsxcme","sourceId":"_dBWBW2E1WfR3R21yqvvB8dsGyDCi3OURQTplZ2A","sourceTagId":80411239,"sourceTagName":"Burberry/women's bag","rawTitle":"Official website image"},"price":null,"currency":"CNY","moq":1,"category":"burberry-women-bags","status":"active","alibaba_url":null,"images":["https://xcimg.szwego.com/img/d5e7a5ce/20241022/a1729580004113_8815.jpg","https://xcimg.szwego.com/img/d5e7a5ce/20241022/a1729580004115_2741.jpg","https://xcimg.szwego.com/img/d5e7a5ce/20241022/a1729580004117_2633.jpg","https://xcimg.szwego.com/img/d5e7a5ce/20241022/a1729580004118_2846.jpg"],"created_at":"2026-06-29T10:27:58.662Z"},{"id":"item-5eccf031218f","sku":"_dwQwQmDrCSCSRMT2YuEV4VSQROJbv9b4DpveSRg","name_en":"Official website image","name_cn":"Official website image","specs":{"source":"wsxcme","sourceId":"_dwQwQmDrCSCSRMT2YuEV4VSQROJbv9b4DpveSRg","sourceTagId":80411239,"sourceTagName":"Burberry/women's bag","rawTitle":"Official website image"},"price":null,"currency":"CNY","moq":1,"category":"burberry-women-bags","status":"active","alibaba_url":null,"images":["https://xcimg.szwego.com/img/d5e7a5ce/20250530/a1748583578278_2063.jpg","https://xcimg.szwego.com/img/d5e7a5ce/20250530/a1748583578239_2228.jpg","https://xcimg.szwego.com/img/d5e7a5ce/20250530/a1748583578259_8068.jpg","https://xcimg.szwego.com/img/d5e7a5ce/20250530/a1748583578260_6255.jpg","https://xcimg.szwego.com/img/d5e7a5ce/20250530/a1748583578279_8526.jpg","https://xcimg.szwego.com/img/d5e7a5ce/20250530/a1748583578274_0764.jpg"],"created_at":"2026-06-29T10:27:58.812Z"},{"id":"item-420b583a9170","sku":"_dYWYW1rYeHm217RaARU18xUq_13snhqThnSLv0g","name_en":"Official website image","name_cn":"Official website image","specs":{"source":"wsxcme","sourceId":"_dYWYW1rYeHm217RaARU18xUq_13snhqThnSLv0g","sourceTagId":80411239,"sourceTagName":"Burberry/women's bag","rawTitle":"Official website image"},"price":null,"currency":"CNY","moq":1,"category":"burberry-women-bags","status":"active","alibaba_url":null,"images":["https://xcimg.szwego.com/20220323/i1648017340_3435_0.jpg","https://xcimg.szwego.com/20220323/i1648017340_4763_1.jpg","https://xcimg.szwego.com/20220323/i1648017340_6094_2.jpg","https://xcimg.szwego.com/20220323/i1648017340_1335_3.jpg","https://xcimg.szwego.com/20220323/i1648017340_3847_4.jpg"],"created_at":"2026-06-29T10:27:59.052Z"},{"id":"item-368f4e307ccb","sku":"_d1I1Imqar9qjUTk9ZAiDhkShkQGvWiW22y1djGg","name_en":"Official website image","name_cn":"Official website image","specs":{"source":"wsxcme","sourceId":"_d1I1Imqar9qjUTk9ZAiDhkShkQGvWiW22y1djGg","sourceTagId":80411239,"sourceTagName":"Burberry/women's bag","rawTitle":"Official website image"},"price":null,"currency":"CNY","moq":1,"category":"burberry-women-bags","status":"active","alibaba_url":null,"images":["https://xcimg.szwego.com/img/d5e7a5ce/20250908/a1757318538306_6710.jpg","https://xcimg.szwego.com/img/d5e7a5ce/20250908/a1757318538311_4565.jpg","https://xcimg.szwego.com/img/d5e7a5ce/20250908/a1757318538305_8811.jpg","https://xcimg.szwego.com/img/d5e7a5ce/20250908/a1757318538310_5557.jpg","https://xcimg.szwego.com/img/d5e7a5ce/20250908/a1757318538307_6857.jpg","https://xcimg.szwego.com/img/d5e7a5ce/20250908/a1757318538308_6014.jpg","https://xcimg.szwego.com/img/d5e7a5ce/20250908/a1757318538807_1860.jpg","https://xcimg.szwego.com/img/d5e7a5ce/20250908/a1757318538806_7423.jpg","https://xcimg.szwego.com/img/d5e7a5ce/20250908/a1757318538808_5411.jpg"],"created_at":"2026-06-29T10:27:58.472Z"},{"id":"item-2b362022996a","sku":"_dneneO5S8GAHzuPuG8zKkS2YtTZA3Xy-roClBrA","name_en":"Official website image","name_cn":"Official website image","specs":{"source":"wsxcme","sourceId":"_dneneO5S8GAHzuPuG8zKkS2YtTZA3Xy-roClBrA","sourceTagId":80411239,"sourceTagName":"Burberry/women's bag","rawTitle":"Official website image"},"price":null,"currency":"CNY","moq":1,"category":"burberry-women-bags","status":"active","alibaba_url":null,"images":["https://xcimg.szwego.com/20220114/i1642101028_356_0.jpg","https://xcimg.szwego.com/20220114/i1642101028_3127_1.jpg","https://xcimg.szwego.com/20220114/i1642101028_1322_2.jpg","https://xcimg.szwego.com/20220114/i1642101028_2986_3.jpg","https://xcimg.szwego.com/20220114/i1642101028_6156_4.jpg"],"created_at":"2025-01-20T12:46:12.732Z"},{"id":"item-0cb3f512e84c","sku":"_dtqtqy7Z-0vWSXDRO2ntk8oLeDRzQXfF8jufXrg","name_en":"Official website image","name_cn":"Official website image","specs":{"source":"wsxcme","sourceId":"_dtqtqy7Z-0vWSXDRO2ntk8oLeDRzQXfF8jufXrg","sourceTagId":80411239,"sourceTagName":"Burberry/women's bag","rawTitle":"Official website image"},"price":null,"currency":"CNY","moq":1,"category":"burberry-women-bags","status":"active","alibaba_url":null,"images":["https://xcimg.szwego.com/img/d5e7a5ce/20250403/a1743667614633_0418.jpg","https://xcimg.szwego.com/img/d5e7a5ce/20250403/a1743667614605_0180.jpg","https://xcimg.szwego.com/img/d5e7a5ce/20250403/a1743667614612_8112.jpg","https://xcimg.szwego.com/img/d5e7a5ce/20250403/a1743667614619_2322.jpg","https://xcimg.szwego.com/img/d5e7a5ce/20250403/a1743667614622_6385.jpg","https://xcimg.szwego.com/img/d5e7a5ce/20250403/a1743667614627_2153.jpg","https://xcimg.szwego.com/img/d5e7a5ce/20250403/a1743667615501_8022.jpg","https://xcimg.szwego.com/img/d5e7a5ce/20250403/a1743667615497_2721.jpg","https://xcimg.szwego.com/img/d5e7a5ce/20250403/a1743667615502_4061.jpg"],"created_at":"2026-06-29T10:27:59.262Z"}],"page":18,"pageSize":24,"total":493,"totalPages":21}
