{"items":[{"id":"item-d6d2d12dbcd6","sku":"_djmjmZoziVKta3zAEqY_ps_InWYr-KA677NWKtw","name_en":"先看焦糖色平铺实物图,独家原厂老鼠货,咱们B家渠道放心拿就是,这款设计简直太绝了,采用光滑的小牛皮制作而成,内衬是小羊皮的,正面是品牌经典TB logo,满满的高级感!预测会成为BBR下一个bag🔥","name_cn":"先看焦糖色平铺实物图,独家原厂老鼠货,咱们B家渠道放心拿就是,这款设计简直太绝了,采用光滑的小牛皮制作而成,内衬是小羊皮的,正面是品牌经典TB logo,满满的高级感!预测会成为BBR下一个bag🔥","specs":{"source":"wsxcme","sourceId":"_djmjmZoziVKta3zAEqY_ps_InWYr-KA677NWKtw","sourceTagId":80411239,"sourceTagName":"巴宝莉/女包","rawTitle":"先看焦糖色平铺实物图,独家原厂老鼠货,咱们B家渠道放心拿就是,这款设计简直太绝了,采用光滑的小牛皮制作而成,内衬是小羊皮的,正面是品牌经典TB logo,满满的高级感!预测会成为BBR下一个bag🔥"},"price":null,"currency":"CNY","moq":1,"category":"burberry-women-bags","status":"active","alibaba_url":null,"images":["https://xcimg.szwego.com/20211005/i1633446361_4787_0.jpg","https://xcimg.szwego.com/20211005/i1633446361_4056_1.jpg","https://xcimg.szwego.com/20211005/i1633446361_697_3.jpg","https://xcimg.szwego.com/20211005/i1633446361_7091_4.jpg","https://xcimg.szwego.com/20211005/i1633446361_6063_5.jpg","https://xcimg.szwego.com/20211005/i1633446361_3036_6.jpg","https://xcimg.szwego.com/20211005/i1633446361_6259_7.jpg"],"created_at":"2025-01-20T12:46:12.806Z"},{"id":"item-f2e5b663f4c5","sku":"_duJuJzr9WvMrSATWod4KA89og_nuoxZf6kN0Y2A","name_en":"先看平铺实拍 作为B家的忠实粉丝,这款圆筒包必须入手!黑色菱格羊皮,款式简约大气而且够时髦,喜欢抓紧!","name_cn":"先看平铺实拍 作为B家的忠实粉丝,这款圆筒包必须入手!黑色菱格羊皮,款式简约大气而且够时髦,喜欢抓紧!","specs":{"source":"wsxcme","sourceId":"_duJuJzr9WvMrSATWod4KA89og_nuoxZf6kN0Y2A","sourceTagId":80411239,"sourceTagName":"巴宝莉/女包","rawTitle":"先看平铺实拍 作为B家的忠实粉丝,这款圆筒包必须入手!黑色菱格羊皮,款式简约大气而且够时髦,喜欢抓紧!"},"price":null,"currency":"CNY","moq":1,"category":"burberry-women-bags","status":"active","alibaba_url":null,"images":["https://xcimg.szwego.com/20220103/i1641202610_6267_0.jpg","https://xcimg.szwego.com/20220103/i1641202610_7622_1.jpg","https://xcimg.szwego.com/20220103/i1641202610_2642_2.jpg","https://xcimg.szwego.com/20220103/i1641202610_5108_3.jpg","https://xcimg.szwego.com/20220103/i1641202610_3708_4.jpg","https://xcimg.szwego.com/20220103/i1641202610_6742_5.jpg"],"created_at":"2025-01-20T12:46:12.763Z"},{"id":"item-c7ce62e5eac1","sku":"_dDlDl0imcZk0k7b1-HWiSeCpTMKGUwWSxdhOazQ","name_en":"先看平铺实拍!法棍包有多火全网可以说无人不知吧,各个大牌争相模仿出自己家的法棍风格,像 驴  gg Fd 这几个最为代表 bbr当然也不甘示弱的设计出了自家风格的法棍!","name_cn":"先看平铺实拍!法棍包有多火全网可以说无人不知吧,各个大牌争相模仿出自己家的法棍风格,像 驴  gg Fd 这几个最为代表 bbr当然也不甘示弱的设计出了自家风格的法棍!","specs":{"source":"wsxcme","sourceId":"_dDlDl0imcZk0k7b1-HWiSeCpTMKGUwWSxdhOazQ","sourceTagId":80411239,"sourceTagName":"巴宝莉/女包","rawTitle":"先看平铺实拍!法棍包有多火全网可以说无人不知吧,各个大牌争相模仿出自己家的法棍风格,像 驴  gg Fd 这几个最为代表 bbr当然也不甘示弱的设计出了自家风格的法棍!"},"price":null,"currency":"CNY","moq":1,"category":"burberry-women-bags","status":"active","alibaba_url":null,"images":["https://xcimg.szwego.com/20230410/i1681105668_8501_0.jpg","https://xcimg.szwego.com/20230410/i1681105668_9847_1.jpg","https://xcimg.szwego.com/20230410/i1681105668_8486_2.jpg","https://xcimg.szwego.com/20230410/i1681105668_3610_3.jpg","https://xcimg.szwego.com/20230410/i1681105668_9121_4.jpg","https://xcimg.szwego.com/20230410/i1681105668_9156_5.jpg"],"created_at":"2025-01-20T12:46:12.802Z"},{"id":"item-9a9b7795fa0e","sku":"_dkYkYdOdsS-E2PKRFfDMrvBylXERqYWG1_3dEaw","name_en":"先看平铺细节,官网最新款,独家首发!B家渠道放心拿,推荐人手一只,这种大容量托特很日常很实用,而且羊皮的包身很轻,特别软,好背!!️","name_cn":"先看平铺细节,官网最新款,独家首发!B家渠道放心拿,推荐人手一只,这种大容量托特很日常很实用,而且羊皮的包身很轻,特别软,好背!!️","specs":{"source":"wsxcme","sourceId":"_dkYkYdOdsS-E2PKRFfDMrvBylXERqYWG1_3dEaw","sourceTagId":80411239,"sourceTagName":"巴宝莉/女包","rawTitle":"先看平铺细节,官网最新款,独家首发!B家渠道放心拿,推荐人手一只,这种大容量托特很日常很实用,而且羊皮的包身很轻,特别软,好背!!️"},"price":null,"currency":"CNY","moq":1,"category":"burberry-women-bags","status":"active","alibaba_url":null,"images":["https://xcimg.szwego.com/20211228/i1640682100_2130_0.jpg","https://xcimg.szwego.com/20211228/i1640682100_4857_1.jpg","https://xcimg.szwego.com/20211228/i1640682100_9810_2.jpg","https://xcimg.szwego.com/20211228/i1640682100_6595_3.jpg","https://xcimg.szwego.com/20211228/i1640682100_668_4.jpg","https://xcimg.szwego.com/20211228/i1640682100_4794_5.jpg"],"created_at":"2025-01-20T12:46:12.738Z"},{"id":"item-e2ecd49dfd08","sku":"_d-r-rnh_MTuDnCUAvIq6jw4uGlyXp32XZHoMBFA","name_en":"先看相机包平铺细节,B家经典款式横版相机包,独家操作的工厂最新订单,非常实用的一款,黑色帆布非常耐造耐磨耐脏,平时不喜欢背大包的老铁这款是你的首选","name_cn":"先看相机包平铺细节,B家经典款式横版相机包,独家操作的工厂最新订单,非常实用的一款,黑色帆布非常耐造耐磨耐脏,平时不喜欢背大包的老铁这款是你的首选","specs":{"source":"wsxcme","sourceId":"_d-r-rnh_MTuDnCUAvIq6jw4uGlyXp32XZHoMBFA","sourceTagId":80411239,"sourceTagName":"巴宝莉/女包","rawTitle":"先看相机包平铺细节,B家经典款式横版相机包,独家操作的工厂最新订单,非常实用的一款,黑色帆布非常耐造耐磨耐脏,平时不喜欢背大包的老铁这款是你的首选"},"price":null,"currency":"CNY","moq":1,"category":"burberry-women-bags","status":"active","alibaba_url":null,"images":["https://xcimg.szwego.com/20220725/i1658747449_9779_0.jpg","https://xcimg.szwego.com/20220725/i1658747449_8708_1.jpg","https://xcimg.szwego.com/20220725/i1658747449_7364_2.jpg","https://xcimg.szwego.com/20220725/i1658747449_8383_3.jpg","https://xcimg.szwego.com/20220725/i1658747449_9543_4.jpg","https://xcimg.szwego.com/20220725/i1658747449_1246_5.jpg"],"created_at":"2025-01-20T12:46:12.726Z"},{"id":"item-bca761c49b63","sku":"_dwEwEFzh91fOM0YjdMRqoMtFgTnmRcURibycYHg","name_en":"小号尺寸30x 13x 24cm.","name_cn":"小号尺寸30x 13x 24cm.","specs":{"source":"wsxcme","sourceId":"_dwEwEFzh91fOM0YjdMRqoMtFgTnmRcURibycYHg","sourceTagId":80411239,"sourceTagName":"巴宝莉/女包","dimensions":{"lengthCm":30,"heightCm":13,"widthCm":24},"rawTitle":"小号尺寸30x 13x 24cm."},"price":null,"currency":"CNY","moq":1,"category":"burberry-women-bags","status":"active","alibaba_url":null,"images":["https://xcimg.szwego.com/img/d5e7a5ce/20250530/a1748583618417_0181.jpg","https://xcimg.szwego.com/img/d5e7a5ce/20250530/a1748583618419_5130.jpg","https://xcimg.szwego.com/img/d5e7a5ce/20250530/a1748583618346_6355.jpg","https://xcimg.szwego.com/img/d5e7a5ce/20250530/a1748583618351_3286.jpg"],"created_at":"2026-06-29T10:27:58.882Z"},{"id":"item-72d75a6f27d7","sku":"_dh9h9PHOR_1TnACSYS1azZJ_U5DljIxVsm-aDXw","name_en":"新款 woc.牛皮拼帆布格纹","name_cn":"新款 woc.牛皮拼帆布格纹\n尺寸19","specs":{"source":"wsxcme","sourceId":"_dh9h9PHOR_1TnACSYS1azZJ_U5DljIxVsm-aDXw","sourceTagId":80411239,"sourceTagName":"巴宝莉/女包","rawTitle":"新款 woc.牛皮拼帆布格纹\n尺寸19"},"price":null,"currency":"CNY","moq":1,"category":"burberry-women-bags","status":"active","alibaba_url":null,"images":["https://xcimg.szwego.com/img/d5e7a5ce/20251105/a1762314338107_2012.jpg","https://xcimg.szwego.com/img/d5e7a5ce/20251105/a1762314338109_6472.jpg","https://xcimg.szwego.com/img/d5e7a5ce/20251105/a1762314338112_0332.jpg","https://xcimg.szwego.com/img/d5e7a5ce/20251105/a1762314338112_6587.jpg","https://xcimg.szwego.com/img/d5e7a5ce/20251105/a1762314338110_6672.jpg","https://xcimg.szwego.com/img/d5e7a5ce/20251105/a1762314338111_1606.jpg","https://xcimg.szwego.com/img/d5e7a5ce/20251105/a1762314338651_7647.jpg","https://xcimg.szwego.com/img/d5e7a5ce/20251105/a1762314338656_3513.jpg","https://xcimg.szwego.com/img/d5e7a5ce/20251105/a1762314338657_7638.jpg"],"created_at":"2026-06-29T10:27:58.982Z"},{"id":"item-01fee6d43ddd","sku":"_dtxtxo-jGkwhPhAZPPJE3RrOK1HwI7yzLVBfEgQ","name_en":"新款 woc.牛皮拼帆布格纹","name_cn":"新款 woc.牛皮拼帆布格纹\n尺寸19","specs":{"source":"wsxcme","sourceId":"_dtxtxo-jGkwhPhAZPPJE3RrOK1HwI7yzLVBfEgQ","sourceTagId":80411239,"sourceTagName":"巴宝莉/女包","rawTitle":"新款 woc.牛皮拼帆布格纹\n尺寸19"},"price":null,"currency":"CNY","moq":1,"category":"burberry-women-bags","status":"active","alibaba_url":null,"images":["https://xcimg.szwego.com/img/d5e7a5ce/20251105/a1762314314217_1058.jpg","https://xcimg.szwego.com/img/d5e7a5ce/20251105/a1762314314218_3382.jpg","https://xcimg.szwego.com/img/d5e7a5ce/20251105/a1762314314221_7256.jpg","https://xcimg.szwego.com/img/d5e7a5ce/20251105/a1762314314246_3271.jpg","https://xcimg.szwego.com/img/d5e7a5ce/20251105/a1762314314220_3534.jpg","https://xcimg.szwego.com/img/d5e7a5ce/20251105/a1762314314219_6070.jpg","https://xcimg.szwego.com/img/d5e7a5ce/20251105/a1762314314777_6235.jpg","https://xcimg.szwego.com/img/d5e7a5ce/20251105/a1762314314776_4383.jpg","https://xcimg.szwego.com/img/d5e7a5ce/20251105/a1762314314779_3201.jpg"],"created_at":"2026-06-29T10:27:58.972Z"},{"id":"item-84b59eba5523","sku":"_dtUtUj03SsSUTNONZUASaU3grb7ZhLqKrcGfaLg","name_en":"新款双面迷你托特包 选用粒纹小牛皮材质打造,于意大利工坊精制而成。反面为 Burberry 格纹棉质亚麻混纺面料,以标志性沙米色演绎。出自品牌Bloomsbury 系列,点缀皮革拼金属骑士印章,源自 1980 年代品牌包款的典藏图案。可使用顶部提柄手提,或以可拆式肩背带缔造斜背造型。正面饰有马术骑士徽标 (EKD) 皮革饰牌尺寸22× 10x20cm.","name_cn":"新款双面迷你托特包 选用粒纹小牛皮材质打造,于意大利工坊精制而成。反面为 Burberry 格纹棉质亚麻混纺面料,以标志性沙米色演绎。出自品牌Bloomsbury 系列,点缀皮革拼金属骑士印章,源自 1980 年代品牌包款的典藏图案。可使用顶部提柄手提,或以可拆式肩背带缔造斜背造型。正面饰有马术骑士徽标 (EKD) 皮革饰牌尺寸22× 10x20cm.","specs":{"source":"wsxcme","sourceId":"_dtUtUj03SsSUTNONZUASaU3grb7ZhLqKrcGfaLg","sourceTagId":80411239,"sourceTagName":"巴宝莉/女包","dimensions":{"lengthCm":22,"heightCm":10,"widthCm":20},"rawTitle":"新款双面迷你托特包 选用粒纹小牛皮材质打造,于意大利工坊精制而成。反面为 Burberry 格纹棉质亚麻混纺面料,以标志性沙米色演绎。出自品牌Bloomsbury 系列,点缀皮革拼金属骑士印章,源自 1980 年代品牌包款的典藏图案。可使用顶部提柄手提,或以可拆式肩背带缔造斜背造型。正面饰有马术骑士徽标 (EKD) 皮革饰牌尺寸22× 10x20cm."},"price":null,"currency":"CNY","moq":1,"category":"burberry-women-bags","status":"active","alibaba_url":null,"images":["https://xcimg.szwego.com/img/d5e7a5ce/20251115/a1763194353692_8711.jpg","https://xcimg.szwego.com/img/d5e7a5ce/20251115/a1763194353704_0856.jpg","https://xcimg.szwego.com/img/d5e7a5ce/20251115/a1763194353704_7423.jpg","https://xcimg.szwego.com/img/d5e7a5ce/20251115/a1763194353706_1678.jpg","https://xcimg.szwego.com/img/d5e7a5ce/20251115/a1763194353706_7727.jpg","https://xcimg.szwego.com/img/d5e7a5ce/20251115/a1763194353705_5542.jpg","https://xcimg.szwego.com/img/d5e7a5ce/20251115/a1763194354361_7522.jpg","https://xcimg.szwego.com/img/d5e7a5ce/20251115/a1763194354364_3158.jpg","https://xcimg.szwego.com/img/d5e7a5ce/20251115/a1763194354363_3725.jpg"],"created_at":"2026-06-29T10:29:02.989Z"},{"id":"item-f05acad0c521","sku":"_dkikizJ2dRtZP3dj0QAwq6VbJ4YPT4lTMnkvc9g","name_en":"原单 【型号:6151】❤️风格柔美的托特包臻选柔软耐用的全粒纹皮革制作 搭配英国精纺 House 格纹裁片,由意大利工坊精制打造。利落精巧的尺寸设计,搭配多个插袋与拉链口袋。金色金属底座提供防护效果。本款配有可调式提柄或可拆式窄版背带,手拎或斜背皆相宜。26 x 12 x 21cm","name_cn":"原单 【型号:6151】❤️风格柔美的托特包臻选柔软耐用的全粒纹皮革制作 搭配英国精纺 House 格纹裁片,由意大利工坊精制打造。利落精巧的尺寸设计,搭配多个插袋与拉链口袋。金色金属底座提供防护效果。本款配有可调式提柄或可拆式窄版背带,手拎或斜背皆相宜。26 x 12 x 21cm","specs":{"source":"wsxcme","sourceId":"_dkikizJ2dRtZP3dj0QAwq6VbJ4YPT4lTMnkvc9g","sourceTagId":80411239,"sourceTagName":"巴宝莉/女包","modelNumber":"6151】❤️风格柔美的托特包臻选柔软耐用的全粒纹皮革制作 搭配英国精纺 House 格纹裁片","rawTitle":"原单 【型号:6151】❤️风格柔美的托特包臻选柔软耐用的全粒纹皮革制作 搭配英国精纺 House 格纹裁片,由意大利工坊精制打造。利落精巧的尺寸设计,搭配多个插袋与拉链口袋。金色金属底座提供防护效果。本款配有可调式提柄或可拆式窄版背带,手拎或斜背皆相宜。26 x 12 x 21cm"},"price":null,"currency":"CNY","moq":1,"category":"burberry-women-bags","status":"active","alibaba_url":null,"images":["https://xcimg.szwego.com/20210822/a1629640776470_7723.jpg","https://xcimg.szwego.com/20210822/a1629640776605_5730.jpg","https://xcimg.szwego.com/20210822/a1629640776680_7554.jpg","https://xcimg.szwego.com/20210822/a1629640776749_4187.jpg","https://xcimg.szwego.com/20210822/a1629640776898_1847.jpg","https://xcimg.szwego.com/20210822/a1629640776964_2328.jpg","https://xcimg.szwego.com/20210822/a1629640777081_4315.jpg","https://xcimg.szwego.com/20210822/a1629640777197_5471.jpg","https://xcimg.szwego.com/20210822/a1629640777319_1216.jpg"],"created_at":"2025-01-20T12:43:24.136Z"},{"id":"item-28d55b20ef59","sku":"_duJuJzr9WvMrSATWod4KA9tkm9XSjxZf6lNIY3A","name_en":"原单 【型号:8791】原单休闲双肩手提包💥专柜爆款 进口牛皮搭配帆布⭐️包身柔软可折叠  原单内里专柜洗水标 巴宝莉专注简约风格✨尺寸31x14x38","name_cn":"原单 【型号:8791】原单休闲双肩手提包💥专柜爆款 进口牛皮搭配帆布⭐️包身柔软可折叠  原单内里专柜洗水标 巴宝莉专注简约风格✨尺寸31x14x38","specs":{"source":"wsxcme","sourceId":"_duJuJzr9WvMrSATWod4KA9tkm9XSjxZf6lNIY3A","sourceTagId":80411239,"sourceTagName":"巴宝莉/女包","modelNumber":"8791】原单休闲双肩手提包💥专柜爆款 进口牛皮搭配帆布⭐️包身柔软可折叠  原单内里专柜洗水标 巴宝莉专注简约风格✨尺寸31x14x38","rawTitle":"原单 【型号:8791】原单休闲双肩手提包💥专柜爆款 进口牛皮搭配帆布⭐️包身柔软可折叠  原单内里专柜洗水标 巴宝莉专注简约风格✨尺寸31x14x38"},"price":null,"currency":"CNY","moq":1,"category":"burberry-women-bags","status":"active","alibaba_url":null,"images":["https://xcimg.szwego.com/20210118/a1610982958681_7623.jpg","https://xcimg.szwego.com/20210118/a1610982959240_3016.jpg","https://xcimg.szwego.com/20210118/a1610982959633_4223.jpg","https://xcimg.szwego.com/20210118/a1610982960117_8328.jpg","https://xcimg.szwego.com/20210118/a1610982960633_4042.jpg","https://xcimg.szwego.com/20210118/a1610982961000_2334.jpg","https://xcimg.szwego.com/20210118/a1610982961685_5768.jpg","https://xcimg.szwego.com/20210118/a1610982962296_6365.jpg","https://xcimg.szwego.com/20210118/a1610982963003_2248.jpg"],"created_at":"2025-01-20T12:43:24.135Z"},{"id":"item-1d0ccb938003","sku":"_dTxTx0r5OCICuC1cQJ9UwC11UjcU_R5dmL9smOQ","name_en":"原单 【型号:8791】原单休闲双肩手提包💥专柜爆款 进口牛皮搭配帆布⭐️包身柔软可折叠  原单内里专柜洗水标 巴宝莉专注简约风格✨尺寸31x14x38","name_cn":"原单 【型号:8791】原单休闲双肩手提包💥专柜爆款 进口牛皮搭配帆布⭐️包身柔软可折叠  原单内里专柜洗水标 巴宝莉专注简约风格✨尺寸31x14x38","specs":{"source":"wsxcme","sourceId":"_dTxTx0r5OCICuC1cQJ9UwC11UjcU_R5dmL9smOQ","sourceTagId":80411239,"sourceTagName":"巴宝莉/女包","modelNumber":"8791】原单休闲双肩手提包💥专柜爆款 进口牛皮搭配帆布⭐️包身柔软可折叠  原单内里专柜洗水标 巴宝莉专注简约风格✨尺寸31x14x38","rawTitle":"原单 【型号:8791】原单休闲双肩手提包💥专柜爆款 进口牛皮搭配帆布⭐️包身柔软可折叠  原单内里专柜洗水标 巴宝莉专注简约风格✨尺寸31x14x38"},"price":null,"currency":"CNY","moq":1,"category":"burberry-women-bags","status":"active","alibaba_url":null,"images":["https://xcimg.szwego.com/20210118/a1610982916593_4783.jpg","https://xcimg.szwego.com/20210118/a1610982917700_3522.jpg","https://xcimg.szwego.com/20210118/a1610982918568_8561.jpg","https://xcimg.szwego.com/20210118/a1610982919406_2437.jpg","https://xcimg.szwego.com/20210118/a1610982920260_8647.jpg","https://xcimg.szwego.com/20210118/a1610982921034_7872.jpg","https://xcimg.szwego.com/20210118/a1610982922144_8051.jpg","https://xcimg.szwego.com/20210118/a1610982923018_8261.jpg","https://xcimg.szwego.com/20210118/a1610982924708_6457.jpg"],"created_at":"2025-01-20T12:43:24.134Z"},{"id":"item-ccb0dfb8648c","sku":"_dg8g8vjX9yjWd1yYDAoD5PI8tjG-W2CaYI4x6lw","name_en":"原单 🇬🇧巴宝莉最经典的子母包购物袋回货咯!🎁内配可拆式小卡包!性价比超高!跑量款 经典永不落伍的时尚 B家控必不可少的一款 🌝超级百搭 容量大💃款号:8883 尺寸:26*27*15cm","name_cn":"原单 🇬🇧巴宝莉最经典的子母包购物袋回货咯!🎁内配可拆式小卡包!性价比超高!跑量款 经典永不落伍的时尚 B家控必不可少的一款 🌝超级百搭 容量大💃款号:8883 尺寸:26*27*15cm","specs":{"source":"wsxcme","sourceId":"_dg8g8vjX9yjWd1yYDAoD5PI8tjG-W2CaYI4x6lw","sourceTagId":80411239,"sourceTagName":"巴宝莉/女包","modelNumber":"8883 尺寸:26*27*15cm","dimensions":{"lengthCm":26,"heightCm":27,"widthCm":15},"rawTitle":"原单 🇬🇧巴宝莉最经典的子母包购物袋回货咯!🎁内配可拆式小卡包!性价比超高!跑量款 经典永不落伍的时尚 B家控必不可少的一款 🌝超级百搭 容量大💃款号:8883 尺寸:26*27*15cm"},"price":null,"currency":"CNY","moq":1,"category":"burberry-women-bags","status":"active","alibaba_url":null,"images":["https://xcimg.szwego.com/img/74ed5653/20240504/a1714831951234_3742.jpg","https://xcimg.szwego.com/img/74ed5653/20240504/a1714831951349_0868.jpg","https://xcimg.szwego.com/img/74ed5653/20240504/a1714831951125_0667.jpg","https://xcimg.szwego.com/img/74ed5653/20240504/a1714831951562_0062.jpg","https://xcimg.szwego.com/img/74ed5653/20240504/a1714831951560_7138.jpg","https://xcimg.szwego.com/img/74ed5653/20240504/a1714831951326_5515.jpg","https://xcimg.szwego.com/img/74ed5653/20240504/a1714831952809_6262.jpg","https://xcimg.szwego.com/img/74ed5653/20240504/a1714831952858_5173.jpg","https://xcimg.szwego.com/img/74ed5653/20240504/a1714831952847_0506.jpg"],"created_at":"2025-01-20T12:43:24.144Z"},{"id":"item-736864b11637","sku":"_dpPpPjDFIOaWDrkM3-heVSBSMWuBP0S4qqCB-uQ","name_en":"原单 🇬🇧巴宝莉最经典的子母包购物袋回货咯!🎁内配可拆式小卡包!性价比超高!跑量款 经典永不落伍的时尚 B家控必不可少的一款 🌝超级百搭 容量大💃款号:8883 尺寸:26*27*15cm","name_cn":"原单 🇬🇧巴宝莉最经典的子母包购物袋回货咯!🎁内配可拆式小卡包!性价比超高!跑量款 经典永不落伍的时尚 B家控必不可少的一款 🌝超级百搭 容量大💃款号:8883 尺寸:26*27*15cm","specs":{"source":"wsxcme","sourceId":"_dpPpPjDFIOaWDrkM3-heVSBSMWuBP0S4qqCB-uQ","sourceTagId":80411239,"sourceTagName":"巴宝莉/女包","modelNumber":"8883 尺寸:26*27*15cm","dimensions":{"lengthCm":26,"heightCm":27,"widthCm":15},"rawTitle":"原单 🇬🇧巴宝莉最经典的子母包购物袋回货咯!🎁内配可拆式小卡包!性价比超高!跑量款 经典永不落伍的时尚 B家控必不可少的一款 🌝超级百搭 容量大💃款号:8883 尺寸:26*27*15cm"},"price":null,"currency":"CNY","moq":1,"category":"burberry-women-bags","status":"active","alibaba_url":null,"images":["https://xcimg.szwego.com/img/74ed5653/20240504/a1714832218539_7623.jpg","https://xcimg.szwego.com/img/74ed5653/20240504/a1714832218319_5768.jpg","https://xcimg.szwego.com/img/74ed5653/20240504/a1714832218244_2540.jpg","https://xcimg.szwego.com/img/74ed5653/20240504/a1714832218443_2835.jpg","https://xcimg.szwego.com/img/74ed5653/20240504/a1714832218468_7430.jpg","https://xcimg.szwego.com/img/74ed5653/20240504/a1714832218257_0262.jpg","https://xcimg.szwego.com/img/74ed5653/20240504/a1714832219737_6550.jpg","https://xcimg.szwego.com/img/74ed5653/20240504/a1714832219703_4706.jpg","https://xcimg.szwego.com/img/74ed5653/20240504/a1714832219833_2764.jpg"],"created_at":"2025-01-20T12:43:24.143Z"},{"id":"item-2a2f8638ab0c","sku":"_dbTbTZSenEqutg7y4fXXkoOD0bC78AJ5eoPeHKA","name_en":"原单 🇬🇧巴宝莉最经典的子母包购物袋回货咯!🎁内配可拆式小卡包!性价比超高!跑量款 经典永不落伍的时尚 B家控必不可少的一款 🌝超级百搭 容量大💃款号:8883 尺寸:26*27*15cm","name_cn":"原单 🇬🇧巴宝莉最经典的子母包购物袋回货咯!🎁内配可拆式小卡包!性价比超高!跑量款 经典永不落伍的时尚 B家控必不可少的一款 🌝超级百搭 容量大💃款号:8883 尺寸:26*27*15cm","specs":{"source":"wsxcme","sourceId":"_dbTbTZSenEqutg7y4fXXkoOD0bC78AJ5eoPeHKA","sourceTagId":80411239,"sourceTagName":"巴宝莉/女包","modelNumber":"8883 尺寸:26*27*15cm","dimensions":{"lengthCm":26,"heightCm":27,"widthCm":15},"rawTitle":"原单 🇬🇧巴宝莉最经典的子母包购物袋回货咯!🎁内配可拆式小卡包!性价比超高!跑量款 经典永不落伍的时尚 B家控必不可少的一款 🌝超级百搭 容量大💃款号:8883 尺寸:26*27*15cm"},"price":null,"currency":"CNY","moq":1,"category":"burberry-women-bags","status":"active","alibaba_url":null,"images":["https://xcimg.szwego.com/img/74ed5653/20240504/a1714831907285_7111.jpg","https://xcimg.szwego.com/img/74ed5653/20240504/a1714831907203_5358.jpg","https://xcimg.szwego.com/img/74ed5653/20240504/a1714831907258_1506.jpg","https://xcimg.szwego.com/img/74ed5653/20240504/a1714831907437_0884.jpg","https://xcimg.szwego.com/img/74ed5653/20240504/a1714831907475_0281.jpg","https://xcimg.szwego.com/img/74ed5653/20240504/a1714831907251_5081.jpg","https://xcimg.szwego.com/img/74ed5653/20240504/a1714831908454_0507.jpg","https://xcimg.szwego.com/img/74ed5653/20240504/a1714831908569_1663.jpg","https://xcimg.szwego.com/img/74ed5653/20240504/a1714831908547_6581.jpg"],"created_at":"2025-01-20T12:43:24.145Z"},{"id":"item-d2e169d119a3","sku":"_dk1k1SMWsA3ITs7FQU5gjjErlTkrHxMezOBc4gw","name_en":"原单 巴宝莉【型号:6151】❤️风格柔美的托特包臻选柔软耐用的全粒纹皮革制作 搭配英国精纺 House 格纹裁片,由意大利工坊精制打造。利落精巧的尺寸设计,搭配多个插袋与拉链口袋。金色金属底座提供防护效果。本款配有可调式提柄或可拆式窄版背带,手拎或斜背皆相宜。26 x 12 x 21cm","name_cn":"原单 巴宝莉【型号:6151】❤️风格柔美的托特包臻选柔软耐用的全粒纹皮革制作 搭配英国精纺 House 格纹裁片,由意大利工坊精制打造。利落精巧的尺寸设计,搭配多个插袋与拉链口袋。金色金属底座提供防护效果。本款配有可调式提柄或可拆式窄版背带,手拎或斜背皆相宜。26 x 12 x 21cm","specs":{"source":"wsxcme","sourceId":"_dk1k1SMWsA3ITs7FQU5gjjErlTkrHxMezOBc4gw","sourceTagId":80411239,"sourceTagName":"巴宝莉/女包","modelNumber":"6151】❤️风格柔美的托特包臻选柔软耐用的全粒纹皮革制作 搭配英国精纺 House 格纹裁片","rawTitle":"原单 巴宝莉【型号:6151】❤️风格柔美的托特包臻选柔软耐用的全粒纹皮革制作 搭配英国精纺 House 格纹裁片,由意大利工坊精制打造。利落精巧的尺寸设计,搭配多个插袋与拉链口袋。金色金属底座提供防护效果。本款配有可调式提柄或可拆式窄版背带,手拎或斜背皆相宜。26 x 12 x 21cm"},"price":null,"currency":"CNY","moq":1,"category":"burberry-women-bags","status":"active","alibaba_url":null,"images":["https://xcimg.szwego.com/20210822/a1629640739112_0414.jpg","https://xcimg.szwego.com/20210822/a1629640739327_3186.jpg","https://xcimg.szwego.com/20210822/a1629640739508_2860.jpg","https://xcimg.szwego.com/20210822/a1629640739766_0281.jpg","https://xcimg.szwego.com/20210822/a1629640740105_4751.jpg","https://xcimg.szwego.com/20210822/a1629640740299_0553.jpg","https://xcimg.szwego.com/20210822/a1629640740510_6358.jpg","https://xcimg.szwego.com/20210822/a1629640740705_0413.jpg","https://xcimg.szwego.com/20210822/a1629640740925_7485.jpg"],"created_at":"2025-01-20T12:43:24.137Z"},{"id":"item-da06239110f0","sku":"_dEhEh2YX-LOtH8JLrAWQh2a0L1wobY0oc4rRPVw","name_en":"原单 巴宝莉经典爆款托特包小号,无需介绍,众所周知,B家首选,不分年龄都可驾驭!上身效果超赞!采用进口粒面小牛皮,搭配防水格纹棉质裁片!独家工厂控货,无论细节还是版形,都无可挑剔。","name_cn":"原单 巴宝莉经典爆款托特包小号,无需介绍,众所周知,B家首选,不分年龄都可驾驭!上身效果超赞!采用进口粒面小牛皮,搭配防水格纹棉质裁片!独家工厂控货,无论细节还是版形,都无可挑剔。\n尺寸:26x12x19cm","specs":{"source":"wsxcme","sourceId":"_dEhEh2YX-LOtH8JLrAWQh2a0L1wobY0oc4rRPVw","sourceTagId":80411239,"sourceTagName":"巴宝莉/女包","dimensions":{"lengthCm":26,"heightCm":12,"widthCm":19},"rawTitle":"原单 巴宝莉经典爆款托特包小号,无需介绍,众所周知,B家首选,不分年龄都可驾驭!上身效果超赞!采用进口粒面小牛皮,搭配防水格纹棉质裁片!独家工厂控货,无论细节还是版形,都无可挑剔。\n尺寸:26x12x19cm"},"price":null,"currency":"CNY","moq":1,"category":"burberry-women-bags","status":"active","alibaba_url":null,"images":["https://xcimg.szwego.com/20210822/a1629641547434_1818.jpg","https://xcimg.szwego.com/20210822/a1629641547543_6086.jpg","https://xcimg.szwego.com/20210822/a1629641547641_2222.jpg","https://xcimg.szwego.com/20210822/a1629641547709_5428.jpg","https://xcimg.szwego.com/20210822/a1629641547809_3350.jpg","https://xcimg.szwego.com/20210822/a1629641547875_7008.jpg","https://xcimg.szwego.com/20210822/a1629641547950_3072.jpg","https://xcimg.szwego.com/20210822/a1629641547999_3238.jpg","https://xcimg.szwego.com/20210822/a1629641548064_7512.jpg"],"created_at":"2025-01-20T12:43:24.128Z"},{"id":"item-d7fcb29341df","sku":"_dtVtVYBPiSU79Q2dI7z4Jjq_-Y_JcmcflIxKhZQ","name_en":"原单 巴宝莉经典爆款托特包小号,无需介绍,众所周知,B家首选,不分年龄都可驾驭!上身效果超赞!采用进口粒面小牛皮,搭配防水格纹棉质裁片!独家工厂控货,无论细节还是版形,都无可挑剔。","name_cn":"原单 巴宝莉经典爆款托特包小号,无需介绍,众所周知,B家首选,不分年龄都可驾驭!上身效果超赞!采用进口粒面小牛皮,搭配防水格纹棉质裁片!独家工厂控货,无论细节还是版形,都无可挑剔。\n尺寸:26x12x19cm","specs":{"source":"wsxcme","sourceId":"_dtVtVYBPiSU79Q2dI7z4Jjq_-Y_JcmcflIxKhZQ","sourceTagId":80411239,"sourceTagName":"巴宝莉/女包","dimensions":{"lengthCm":26,"heightCm":12,"widthCm":19},"rawTitle":"原单 巴宝莉经典爆款托特包小号,无需介绍,众所周知,B家首选,不分年龄都可驾驭!上身效果超赞!采用进口粒面小牛皮,搭配防水格纹棉质裁片!独家工厂控货,无论细节还是版形,都无可挑剔。\n尺寸:26x12x19cm"},"price":null,"currency":"CNY","moq":1,"category":"burberry-women-bags","status":"active","alibaba_url":null,"images":["https://xcimg.szwego.com/20210822/a1629641582456_1020.jpg","https://xcimg.szwego.com/20210822/a1629641582549_6277.jpg","https://xcimg.szwego.com/20210822/a1629641582634_2204.jpg","https://xcimg.szwego.com/20210822/a1629641582766_2336.jpg","https://xcimg.szwego.com/20210822/a1629641582832_8304.jpg","https://xcimg.szwego.com/20210822/a1629641582950_1265.jpg","https://xcimg.szwego.com/20210822/a1629641583063_3408.jpg","https://xcimg.szwego.com/20210822/a1629641583145_1022.jpg","https://xcimg.szwego.com/20210822/a1629641583208_0647.jpg"],"created_at":"2025-01-20T12:43:24.126Z"},{"id":"item-cc34616a91a3","sku":"_dztztb-9ACtWLO28keoAAFYx-i_2M1UmfFR0eAg","name_en":"原单 巴宝莉经典爆款托特包小号,无需介绍,众所周知,B家首选,不分年龄都可驾驭!上身效果超赞!采用进口粒面小牛皮,搭配防水格纹棉质裁片!独家工厂控货,无论细节还是版形,都无可挑剔。","name_cn":"原单 巴宝莉经典爆款托特包小号,无需介绍,众所周知,B家首选,不分年龄都可驾驭!上身效果超赞!采用进口粒面小牛皮,搭配防水格纹棉质裁片!独家工厂控货,无论细节还是版形,都无可挑剔。\n尺寸:26x12x19cm","specs":{"source":"wsxcme","sourceId":"_dztztb-9ACtWLO28keoAAFYx-i_2M1UmfFR0eAg","sourceTagId":80411239,"sourceTagName":"巴宝莉/女包","dimensions":{"lengthCm":26,"heightCm":12,"widthCm":19},"rawTitle":"原单 巴宝莉经典爆款托特包小号,无需介绍,众所周知,B家首选,不分年龄都可驾驭!上身效果超赞!采用进口粒面小牛皮,搭配防水格纹棉质裁片!独家工厂控货,无论细节还是版形,都无可挑剔。\n尺寸:26x12x19cm"},"price":null,"currency":"CNY","moq":1,"category":"burberry-women-bags","status":"active","alibaba_url":null,"images":["https://xcimg.szwego.com/20210822/a1629641565937_3046.jpg","https://xcimg.szwego.com/20210822/a1629641566032_1353.jpg","https://xcimg.szwego.com/20210822/a1629641566114_0143.jpg","https://xcimg.szwego.com/20210822/a1629641566206_5635.jpg","https://xcimg.szwego.com/20210822/a1629641566335_5862.jpg","https://xcimg.szwego.com/20210822/a1629641566418_1221.jpg","https://xcimg.szwego.com/20210822/a1629641566468_1485.jpg","https://xcimg.szwego.com/20210822/a1629641566576_2736.jpg","https://xcimg.szwego.com/20210822/a1629641566656_5528.jpg"],"created_at":"2025-01-20T12:43:24.127Z"},{"id":"item-8c7cdc4cf7e4","sku":"_dtStSIRUJQHOf4I-VUepY5bC0Eh3yWJw-lXUkoA","name_en":"原单 巴宝莉经典爆款托特包小号,无需介绍,众所周知,B家首选,不分年龄都可驾驭!上身效果超赞!采用进口粒面小牛皮,搭配防水格纹棉质裁片!独家工厂控货,无论细节还是版形,都无可挑剔。 尺寸:26x12x19cm","name_cn":"原单 巴宝莉经典爆款托特包小号,无需介绍,众所周知,B家首选,不分年龄都可驾驭!上身效果超赞!采用进口粒面小牛皮,搭配防水格纹棉质裁片!独家工厂控货,无论细节还是版形,都无可挑剔。 尺寸:26x12x19cm","specs":{"source":"wsxcme","sourceId":"_dtStSIRUJQHOf4I-VUepY5bC0Eh3yWJw-lXUkoA","sourceTagId":80411239,"sourceTagName":"巴宝莉/女包","dimensions":{"lengthCm":26,"heightCm":12,"widthCm":19},"rawTitle":"原单 巴宝莉经典爆款托特包小号,无需介绍,众所周知,B家首选,不分年龄都可驾驭!上身效果超赞!采用进口粒面小牛皮,搭配防水格纹棉质裁片!独家工厂控货,无论细节还是版形,都无可挑剔。 尺寸:26x12x19cm"},"price":null,"currency":"CNY","moq":1,"category":"burberry-women-bags","status":"active","alibaba_url":null,"images":["https://xcimg.szwego.com/20220331/a1648738464611_8514.jpg","https://xcimg.szwego.com/20220331/a1648738464701_3633.jpg","https://xcimg.szwego.com/20220331/a1648738464816_8488.jpg","https://xcimg.szwego.com/20220331/a1648738464961_2085.jpg","https://xcimg.szwego.com/20220331/a1648738465068_3360.jpg","https://xcimg.szwego.com/20220331/a1648738465139_1330.jpg","https://xcimg.szwego.com/20220331/a1648738465257_0242.jpg","https://xcimg.szwego.com/20220331/a1648738465402_8386.jpg","https://xcimg.szwego.com/20220331/a1648738465510_4862.jpg"],"created_at":"2025-01-20T12:43:24.129Z"},{"id":"item-a644e5fcae00","sku":"_dpFpFaiQuvMC8vDfsDf1ys0emm9rZJ-KmSCCj4w","name_en":"原单 巴宝莉经典爆款托特包中号,无需介绍,众所周知,B家首选,不分年龄都可驾驭!上身效果超赞!采用进口粒面小牛皮,搭配防水格纹棉质裁片!独家工厂控货,无论细节还是版形,都无可挑剔。","name_cn":"原单 巴宝莉经典爆款托特包中号,无需介绍,众所周知,B家首选,不分年龄都可驾驭!上身效果超赞!采用进口粒面小牛皮,搭配防水格纹棉质裁片!独家工厂控货,无论细节还是版形,都无可挑剔。\n尺寸:34x16x25cm","specs":{"source":"wsxcme","sourceId":"_dpFpFaiQuvMC8vDfsDf1ys0emm9rZJ-KmSCCj4w","sourceTagId":80411239,"sourceTagName":"巴宝莉/女包","dimensions":{"lengthCm":34,"heightCm":16,"widthCm":25},"rawTitle":"原单 巴宝莉经典爆款托特包中号,无需介绍,众所周知,B家首选,不分年龄都可驾驭!上身效果超赞!采用进口粒面小牛皮,搭配防水格纹棉质裁片!独家工厂控货,无论细节还是版形,都无可挑剔。\n尺寸:34x16x25cm"},"price":null,"currency":"CNY","moq":1,"category":"burberry-women-bags","status":"active","alibaba_url":null,"images":["https://xcimg.szwego.com/20210822/a1629641238556_7600.jpg","https://xcimg.szwego.com/20210822/a1629641238630_7436.jpg","https://xcimg.szwego.com/20210822/a1629641238715_4726.jpg","https://xcimg.szwego.com/20210822/a1629641238797_4753.jpg","https://xcimg.szwego.com/20210822/a1629641238947_0562.jpg","https://xcimg.szwego.com/20210822/a1629641239080_5343.jpg","https://xcimg.szwego.com/20210822/a1629641239147_5558.jpg","https://xcimg.szwego.com/20210822/a1629641239263_5702.jpg","https://xcimg.szwego.com/20210822/a1629641239340_6188.jpg"],"created_at":"2025-01-20T12:43:24.133Z"},{"id":"item-65c05e72d316","sku":"_dezezqdUNaeDNTIi9UYSICtwUdV4zVlBm8ZqNUg","name_en":"原单 巴宝莉经典爆款托特包中号,无需介绍,众所周知,B家首选,不分年龄都可驾驭!上身效果超赞!采用进口粒面小牛皮,搭配防水格纹棉质裁片!独家工厂控货,无论细节还是版形,都无可挑剔。","name_cn":"原单 巴宝莉经典爆款托特包中号,无需介绍,众所周知,B家首选,不分年龄都可驾驭!上身效果超赞!采用进口粒面小牛皮,搭配防水格纹棉质裁片!独家工厂控货,无论细节还是版形,都无可挑剔。\n尺寸:34x16x25cm","specs":{"source":"wsxcme","sourceId":"_dezezqdUNaeDNTIi9UYSICtwUdV4zVlBm8ZqNUg","sourceTagId":80411239,"sourceTagName":"巴宝莉/女包","dimensions":{"lengthCm":34,"heightCm":16,"widthCm":25},"rawTitle":"原单 巴宝莉经典爆款托特包中号,无需介绍,众所周知,B家首选,不分年龄都可驾驭!上身效果超赞!采用进口粒面小牛皮,搭配防水格纹棉质裁片!独家工厂控货,无论细节还是版形,都无可挑剔。\n尺寸:34x16x25cm"},"price":null,"currency":"CNY","moq":1,"category":"burberry-women-bags","status":"active","alibaba_url":null,"images":["https://xcimg.szwego.com/20210822/a1629641207551_3125.jpg","https://xcimg.szwego.com/20210822/a1629641207621_7724.jpg","https://xcimg.szwego.com/20210822/a1629641207708_3544.jpg","https://xcimg.szwego.com/20210822/a1629641207801_5884.jpg","https://xcimg.szwego.com/20210822/a1629641207977_1258.jpg","https://xcimg.szwego.com/20210822/a1629641208078_8453.jpg","https://xcimg.szwego.com/20210822/a1629641208192_0308.jpg","https://xcimg.szwego.com/20210822/a1629641208385_8706.jpg","https://xcimg.szwego.com/20210822/a1629641208514_7886.jpg"],"created_at":"2025-01-20T12:43:24.132Z"},{"id":"item-c0ba1ccc6173","sku":"_d-h-hIwAP09wpQbZ1XkQAw3eLxoHO7MqOEeorew","name_en":"原单 巴宝莉经典爆款托特包中号,无需介绍,众所周知,B家首选,不分年龄都可驾驭!上身效果超赞!采用进口粒面小牛皮,搭配防水格纹棉质裁片!独家工厂控货,无论细节还是版形,都无可挑剔。 尺寸:34x16x25cm","name_cn":"原单 巴宝莉经典爆款托特包中号,无需介绍,众所周知,B家首选,不分年龄都可驾驭!上身效果超赞!采用进口粒面小牛皮,搭配防水格纹棉质裁片!独家工厂控货,无论细节还是版形,都无可挑剔。 尺寸:34x16x25cm","specs":{"source":"wsxcme","sourceId":"_d-h-hIwAP09wpQbZ1XkQAw3eLxoHO7MqOEeorew","sourceTagId":80411239,"sourceTagName":"巴宝莉/女包","dimensions":{"lengthCm":34,"heightCm":16,"widthCm":25},"rawTitle":"原单 巴宝莉经典爆款托特包中号,无需介绍,众所周知,B家首选,不分年龄都可驾驭!上身效果超赞!采用进口粒面小牛皮,搭配防水格纹棉质裁片!独家工厂控货,无论细节还是版形,都无可挑剔。 尺寸:34x16x25cm"},"price":null,"currency":"CNY","moq":1,"category":"burberry-women-bags","status":"active","alibaba_url":null,"images":["https://xcimg.szwego.com/20220331/a1648738580789_0610.jpg","https://xcimg.szwego.com/20220331/a1648738580889_6406.jpg","https://xcimg.szwego.com/20220331/a1648738580980_0835.jpg","https://xcimg.szwego.com/20220331/a1648738581155_8020.jpg","https://xcimg.szwego.com/20220331/a1648738581273_2173.jpg","https://xcimg.szwego.com/20220331/a1648738581372_0200.jpg","https://xcimg.szwego.com/20220331/a1648738581439_4610.jpg","https://xcimg.szwego.com/20220331/a1648738581523_4817.jpg","https://xcimg.szwego.com/20220331/a1648738581590_3625.jpg"],"created_at":"2025-01-20T12:43:24.130Z"},{"id":"item-1bda66714f3a","sku":"_dblblrXqsBKAbx9fartd7M3NHhTO1iJKcAfx3NA","name_en":"原单 巴宝莉经典爆款托特包中号,无需介绍,众所周知,B家首选,不分年龄都可驾驭!上身效果超赞!采用进口粒面小牛皮,搭配防水格纹棉质裁片!独家工厂控货,无论细节还是版形,都无可挑剔。 尺寸:34x16x25cm","name_cn":"原单 巴宝莉经典爆款托特包中号,无需介绍,众所周知,B家首选,不分年龄都可驾驭!上身效果超赞!采用进口粒面小牛皮,搭配防水格纹棉质裁片!独家工厂控货,无论细节还是版形,都无可挑剔。 尺寸:34x16x25cm","specs":{"source":"wsxcme","sourceId":"_dblblrXqsBKAbx9fartd7M3NHhTO1iJKcAfx3NA","sourceTagId":80411239,"sourceTagName":"巴宝莉/女包","dimensions":{"lengthCm":34,"heightCm":16,"widthCm":25},"rawTitle":"原单 巴宝莉经典爆款托特包中号,无需介绍,众所周知,B家首选,不分年龄都可驾驭!上身效果超赞!采用进口粒面小牛皮,搭配防水格纹棉质裁片!独家工厂控货,无论细节还是版形,都无可挑剔。 尺寸:34x16x25cm"},"price":null,"currency":"CNY","moq":1,"category":"burberry-women-bags","status":"active","alibaba_url":null,"images":["https://xcimg.szwego.com/20220911/a1662909021487_6355.jpg","https://xcimg.szwego.com/20220911/a1662909021587_5330.jpg","https://xcimg.szwego.com/20220911/a1662909021671_7460.jpg","https://xcimg.szwego.com/20220911/a1662909021807_7783.jpg","https://xcimg.szwego.com/20220911/a1662909021908_2563.jpg","https://xcimg.szwego.com/20220911/a1662909021975_3077.jpg","https://xcimg.szwego.com/20220911/a1662909022061_8403.jpg","https://xcimg.szwego.com/20220911/a1662909022127_5571.jpg","https://xcimg.szwego.com/20220911/a1662909022194_6554.jpg"],"created_at":"2025-01-20T12:43:24.131Z"}],"page":14,"pageSize":24,"total":493,"totalPages":21}
