{"items":[{"id":"item-63c57ff5d056","sku":"_doVoVDNEB71n9w7gohBVOiKN1UgZ1BI6X1cIwEw","name_en":"『Burberry 巴宝莉』","name_cn":"『Burberry 巴宝莉』\n\nB家最新款收纳袋,精选 Vintage 复古格纹棉质拼皮革材料,弧形曲线的设计灵感源自品牌时装秀场馆伦敦奥林匹亚展览中心。可肩背,或卸下背带随心缔造手拿包造型。款号8354\n21 x 4 x 12.2 cm。","specs":{"source":"wsxcme","sourceId":"_doVoVDNEB71n9w7gohBVOiKN1UgZ1BI6X1cIwEw","sourceTagId":80411239,"sourceTagName":"巴宝莉/女包","modelNumber":"8354","rawTitle":"『Burberry 巴宝莉』\n\nB家最新款收纳袋,精选 Vintage 复古格纹棉质拼皮革材料,弧形曲线的设计灵感源自品牌时装秀场馆伦敦奥林匹亚展览中心。可肩背,或卸下背带随心缔造手拿包造型。款号8354\n21 x 4 x 12.2 cm。"},"price":null,"currency":"CNY","moq":1,"category":"burberry-women-bags","status":"active","alibaba_url":null,"images":["https://xcimg.szwego.com/20210607/i1622995988_4925_0.jpg","https://xcimg.szwego.com/20210607/i1622995988_3154_1.jpg","https://xcimg.szwego.com/20210607/i1622995988_4294_2.jpg","https://xcimg.szwego.com/20210607/i1622995988_7889_3.jpg","https://xcimg.szwego.com/20210607/i1622995988_3399_4.jpg","https://xcimg.szwego.com/20210607/i1622995988_632_5.jpg","https://xcimg.szwego.com/20210607/i1622995988_8784_6.jpg","https://xcimg.szwego.com/20210607/i1622995988_537_7.jpg","https://xcimg.szwego.com/20210607/i1622995988_6941_8.jpg"],"created_at":"2025-02-08T12:43:38.692Z"},{"id":"item-60bc8b867eb3","sku":"_dmBmBDDWeZtCDan43Stwudg5AqRLrHx6H3D_iGA","name_en":"『Burberry 巴宝莉』","name_cn":"『Burberry 巴宝莉』\n\n🔥🔥 B家时装秀款肩背包,搭配镀金配件,🤩🤩设有外插袋和拉链口袋方便拿取物品。,尺寸:26 x 5.5 x 15cm、6602","specs":{"source":"wsxcme","sourceId":"_dmBmBDDWeZtCDan43Stwudg5AqRLrHx6H3D_iGA","sourceTagId":80411239,"sourceTagName":"巴宝莉/女包","dimensions":{"lengthCm":26,"heightCm":5.5,"widthCm":15},"rawTitle":"『Burberry 巴宝莉』\n\n🔥🔥 B家时装秀款肩背包,搭配镀金配件,🤩🤩设有外插袋和拉链口袋方便拿取物品。,尺寸:26 x 5.5 x 15cm、6602"},"price":null,"currency":"CNY","moq":1,"category":"burberry-women-bags","status":"active","alibaba_url":null,"images":["https://xcimg.szwego.com/o_1f2g7ontk114p70u11jhtq513r912.jpg","https://xcimg.szwego.com/o_1f2g7ontk1rpp8en1mj81cl0coh13.jpg","https://xcimg.szwego.com/o_1f2g7ontk1fqqsnhhcr86t6214.jpg","https://xcimg.szwego.com/o_1f2g7ontk1m1dfg39sodmt167515.jpg","https://xcimg.szwego.com/o_1f2g7ontk1o3i3bdood1da8rak16.jpg","https://xcimg.szwego.com/o_1f2g7ontl1n8he3migu1sda1n9m17.jpg","https://xcimg.szwego.com/o_1f2g7ontlbs9tqj1udbl4n4ch18.jpg","https://xcimg.szwego.com/o_1f2g7ontm1vp116lh78ll69019.jpg","https://xcimg.szwego.com/o_1f2g7ontm95tp7b1nl31qot1bmp1a.jpg"],"created_at":"2025-02-08T12:43:27.872Z"},{"id":"item-5dddef5d5cc1","sku":"_dp4p4tXNo7Jz-XcSR8xISbLA1CH3ge_UzK-ie0Q","name_en":"『Burberry 巴宝莉』","name_cn":"『Burberry 巴宝莉』\n\n🔥🔥B家时装秀款肩背包,采用纤巧立挺的版型设计,弧形曲线的设计🤩🤩搭配镀金配件,设有外插袋和拉链口袋方便拿取物品。型号:6602-1、尺寸:26 x 5.5 x 15cm","specs":{"source":"wsxcme","sourceId":"_dp4p4tXNo7Jz-XcSR8xISbLA1CH3ge_UzK-ie0Q","sourceTagId":80411239,"sourceTagName":"巴宝莉/女包","modelNumber":"6602-1、尺寸:26 x 5.5 x 15cm","dimensions":{"lengthCm":26,"heightCm":5.5,"widthCm":15},"rawTitle":"『Burberry 巴宝莉』\n\n🔥🔥B家时装秀款肩背包,采用纤巧立挺的版型设计,弧形曲线的设计🤩🤩搭配镀金配件,设有外插袋和拉链口袋方便拿取物品。型号:6602-1、尺寸:26 x 5.5 x 15cm"},"price":null,"currency":"CNY","moq":1,"category":"burberry-women-bags","status":"active","alibaba_url":null,"images":["https://xcimg.szwego.com/o_1f5aike17sk81aq1lj016lh80046.jpg","https://xcimg.szwego.com/o_1f5aike176mn2a2aj5mkm1bvj47.jpg","https://xcimg.szwego.com/o_1f5aike171pv6jr91h7p10sqkm948.jpg","https://xcimg.szwego.com/o_1f5aike171g79j0a1lpesk1l0649.jpg","https://xcimg.szwego.com/o_1f5aike1717ce1b051qq31pa5kel4a.jpg","https://xcimg.szwego.com/o_1f5aike177vp1sjrg0sacaopo4b.jpg","https://xcimg.szwego.com/o_1f5aike17s4c1dcihulnfl1doe4c.jpg","https://xcimg.szwego.com/o_1f5aike17i1idj87kq13jf16ve4d.jpg","https://xcimg.szwego.com/o_1f5aike171cb71n571dms1kkr14mg4e.jpg"],"created_at":"2025-02-08T12:43:27.871Z"},{"id":"item-5cbb00891d5b","sku":"_dI8I8khuAO7MG32e9tAnmPYZpA1H2WmwGTKsDLA","name_en":"『Burberry 巴宝莉』","name_cn":"『Burberry 巴宝莉』\n\nB家中古vintage系列新款小号邮差包!进口复古棕厚度1.4厚牛皮,进口利蒙塔中古系列新款! 头层牛皮 搭配经典格纹 复古的棕色增加了文艺范! 格纹环保干净好打理,包包容量大小合适,可单肩可斜挎!满足日常所需!好物必收!\n尺寸:21/8.5/18cm!\n6880","specs":{"source":"wsxcme","sourceId":"_dI8I8khuAO7MG32e9tAnmPYZpA1H2WmwGTKsDLA","sourceTagId":80411239,"sourceTagName":"巴宝莉/女包","rawTitle":"『Burberry 巴宝莉』\n\nB家中古vintage系列新款小号邮差包!进口复古棕厚度1.4厚牛皮,进口利蒙塔中古系列新款! 头层牛皮 搭配经典格纹 复古的棕色增加了文艺范! 格纹环保干净好打理,包包容量大小合适,可单肩可斜挎!满足日常所需!好物必收!\n尺寸:21/8.5/18cm!\n6880"},"price":null,"currency":"CNY","moq":1,"category":"burberry-women-bags","status":"active","alibaba_url":null,"images":["https://xcimg.szwego.com/20210902/i1630565560_2001_0.jpg","https://xcimg.szwego.com/20210902/i1630565560_6639_1.jpg","https://xcimg.szwego.com/20210902/i1630565560_1267_2.jpg","https://xcimg.szwego.com/20210902/i1630565560_4703_3.jpg","https://xcimg.szwego.com/20210902/i1630565560_1145_4.jpg","https://xcimg.szwego.com/20210902/i1630565560_507_5.jpg","https://xcimg.szwego.com/20210902/i1630565560_2498_6.jpg","https://xcimg.szwego.com/20210902/i1630565560_8677_7.jpg"],"created_at":"2025-02-08T12:43:27.890Z"},{"id":"item-5be026e0313e","sku":"_dfTfT4ONUeIY41oA5Y8xowvHEC_oNbhA6XU3VJg","name_en":"『Burberry 巴宝莉』","name_cn":"『Burberry 巴宝莉』\n\n🔥🔥B家最新款典藏灵感的托特包,精选双色帆布拼缉明线细节的皮革制成,[玫瑰]顶部提柄携带,或使用可拆式肩背带。1个外侧翻盖口袋采用磁扣开合;1个内侧拉链口袋 尺寸:23 x 6 x 26.5c、2735","specs":{"source":"wsxcme","sourceId":"_dfTfT4ONUeIY41oA5Y8xowvHEC_oNbhA6XU3VJg","sourceTagId":80411239,"sourceTagName":"巴宝莉/女包","rawTitle":"『Burberry 巴宝莉』\n\n🔥🔥B家最新款典藏灵感的托特包,精选双色帆布拼缉明线细节的皮革制成,[玫瑰]顶部提柄携带,或使用可拆式肩背带。1个外侧翻盖口袋采用磁扣开合;1个内侧拉链口袋 尺寸:23 x 6 x 26.5c、2735"},"price":null,"currency":"CNY","moq":1,"category":"burberry-women-bags","status":"active","alibaba_url":null,"images":["https://xcimg.szwego.com/20200610/a1591768376837_3175.jpg","https://xcimg.szwego.com/20200610/a1591768377577_7204.jpg","https://xcimg.szwego.com/20200610/a1591768378264_7220.jpg","https://xcimg.szwego.com/20200610/a1591768378891_0726.jpg","https://xcimg.szwego.com/20200610/a1591768379532_2547.jpg","https://xcimg.szwego.com/20200610/a1591768380015_6671.jpg","https://xcimg.szwego.com/20200610/a1591768380464_2308.jpg","https://xcimg.szwego.com/20200610/a1591768381050_1818.jpg","https://xcimg.szwego.com/20200610/a1591768381627_4661.jpg"],"created_at":"2025-02-08T12:43:38.733Z"},{"id":"item-597fce1103fc","sku":"_dXWXW3yoKHSShlbtM5oofWYc_JvKnKT9OpqNPAg","name_en":"『Burberry 巴宝莉』","name_cn":"『Burberry 巴宝莉』\n\n小号斜背包款「Title-泰尔特手袋」,精选li缉明线装饰的皮革与帆布打造,装饰时装秀款Horseferry印花,采用精致顶部金属杆设计,以及三粒铆钉开合\n尺寸:W19×H15×D5cm\n款号:2731、小号\n肩背带最短垂直佩戴长度:47cm\n肩背带最长垂直佩戴长度:53cm\n可调式斜背带\n2个内侧隔层\n顶部翻盖采用磁扣开合\n手绘涂漆边缘\n亮泽金属配件\n意大利制","specs":{"source":"wsxcme","sourceId":"_dXWXW3yoKHSShlbtM5oofWYc_JvKnKT9OpqNPAg","sourceTagId":80411239,"sourceTagName":"巴宝莉/女包","modelNumber":"2731、小号","rawTitle":"『Burberry 巴宝莉』\n\n小号斜背包款「Title-泰尔特手袋」,精选li缉明线装饰的皮革与帆布打造,装饰时装秀款Horseferry印花,采用精致顶部金属杆设计,以及三粒铆钉开合\n尺寸:W19×H15×D5cm\n款号:2731、小号\n肩背带最短垂直佩戴长度:47cm\n肩背带最长垂直佩戴长度:53cm\n可调式斜背带\n2个内侧隔层\n顶部翻盖采用磁扣开合\n手绘涂漆边缘\n亮泽金属配件\n意大利制"},"price":null,"currency":"CNY","moq":1,"category":"burberry-women-bags","status":"active","alibaba_url":null,"images":["https://xcimg.szwego.com/20210926/i1632637719_7858_0.jpg","https://xcimg.szwego.com/20210926/i1632637719_7181_1.jpg","https://xcimg.szwego.com/20210926/i1632637719_8217_2.jpg","https://xcimg.szwego.com/20210926/i1632637719_2717_3.jpg","https://xcimg.szwego.com/20210926/i1632637719_6602_4.jpg","https://xcimg.szwego.com/20210926/i1632637719_8290_5.jpg","https://xcimg.szwego.com/20210926/i1632637719_1653_6.jpg","https://xcimg.szwego.com/20210926/i1632637719_1000_7.jpg","https://xcimg.szwego.com/20210926/i1632637719_1318_8.jpg"],"created_at":"2025-02-08T12:43:27.896Z"},{"id":"item-53a5425024f5","sku":"_dqtqtgF-c8QXIl49Xryb_HMu0qksldHyfHEZCOQ","name_en":"『Burberry 巴宝莉』","name_cn":"『Burberry 巴宝莉』\n\n小号斜背包款「Title-泰尔特手袋」,精选li缉明线装饰的皮革与帆布打造,装饰时装秀款Horseferry印花,采用精致顶部金属杆设计,以及三粒铆钉开合\n尺寸:W19×H15×D5cm\n款号:2731、小号\n肩背带最短垂直佩戴长度:47cm\n肩背带最长垂直佩戴长度:53cm\n可调式斜背带\n2个内侧隔层\n顶部翻盖采用磁扣开合\n手绘涂漆边缘\n亮泽金属配件\n意大利制","specs":{"source":"wsxcme","sourceId":"_dqtqtgF-c8QXIl49Xryb_HMu0qksldHyfHEZCOQ","sourceTagId":80411239,"sourceTagName":"巴宝莉/女包","modelNumber":"2731、小号","rawTitle":"『Burberry 巴宝莉』\n\n小号斜背包款「Title-泰尔特手袋」,精选li缉明线装饰的皮革与帆布打造,装饰时装秀款Horseferry印花,采用精致顶部金属杆设计,以及三粒铆钉开合\n尺寸:W19×H15×D5cm\n款号:2731、小号\n肩背带最短垂直佩戴长度:47cm\n肩背带最长垂直佩戴长度:53cm\n可调式斜背带\n2个内侧隔层\n顶部翻盖采用磁扣开合\n手绘涂漆边缘\n亮泽金属配件\n意大利制"},"price":null,"currency":"CNY","moq":1,"category":"burberry-women-bags","status":"active","alibaba_url":null,"images":["https://xcimg.szwego.com/20210926/i1632637719_7858_0.jpg","https://xcimg.szwego.com/20210926/i1632637719_7181_1.jpg","https://xcimg.szwego.com/20210926/i1632637719_8217_2.jpg","https://xcimg.szwego.com/20210926/i1632637719_2717_3.jpg","https://xcimg.szwego.com/20210926/i1632637719_6602_4.jpg","https://xcimg.szwego.com/20210926/i1632637719_8290_5.jpg","https://xcimg.szwego.com/20210926/i1632637719_1653_6.jpg","https://xcimg.szwego.com/20210926/i1632637719_1000_7.jpg","https://xcimg.szwego.com/20210926/i1632637719_1318_8.jpg"],"created_at":"2025-02-08T12:43:27.891Z"},{"id":"item-532074797596","sku":"_dwgwgQIA-jNGwPMaNSQ8IOmNv5Qcktc6CGLwALw","name_en":"『Burberry 巴宝莉』","name_cn":"『Burberry 巴宝莉』\n\nB家精巧的斜背包,选用意大利鞣制纹皮革与典藏 Vintage 复古格纹裁片打造。可单肩背、斜背,或缔造手拿包造型。21 x 4.5 x 12.5cm 型号:905268。","specs":{"source":"wsxcme","sourceId":"_dwgwgQIA-jNGwPMaNSQ8IOmNv5Qcktc6CGLwALw","sourceTagId":80411239,"sourceTagName":"巴宝莉/女包","modelNumber":"905268","rawTitle":"『Burberry 巴宝莉』\n\nB家精巧的斜背包,选用意大利鞣制纹皮革与典藏 Vintage 复古格纹裁片打造。可单肩背、斜背,或缔造手拿包造型。21 x 4.5 x 12.5cm 型号:905268。"},"price":null,"currency":"CNY","moq":1,"category":"burberry-women-bags","status":"active","alibaba_url":null,"images":["https://xcimg.szwego.com/20220418/i1650259960_1581_0.jpg","https://xcimg.szwego.com/20220418/i1650259960_1200_3.jpg","https://xcimg.szwego.com/20220418/i1650259960_8010_2.jpg","https://xcimg.szwego.com/20220418/i1650259960_6661_4.jpg","https://xcimg.szwego.com/20220418/i1650259960_9503_1.jpg","https://xcimg.szwego.com/20220418/i1650259960_9762_5.jpg","https://xcimg.szwego.com/20220418/i1650259960_9702_6.jpg","https://xcimg.szwego.com/20220418/i1650259960_3247_7.jpg","https://xcimg.szwego.com/20220418/i1650259960_7158_8.jpg"],"created_at":"2025-02-08T12:43:38.702Z"},{"id":"item-5279ba1a3623","sku":"_dc7c711C95b78JURQNIFEluNIBgMseSCdLXqE8Q","name_en":"『Burberry 巴宝莉』","name_cn":"『Burberry 巴宝莉』\n\n🔥🔥B家格子料皮革钱夹,随附链饰皮革肩背带。本品可作为小型手袋单独使用,或作为钱夹收置于日常手袋内。专柜品质、做工精细实物拍摄,黑色格子尺寸21cm*12cm*3cm、8687","specs":{"source":"wsxcme","sourceId":"_dc7c711C95b78JURQNIFEluNIBgMseSCdLXqE8Q","sourceTagId":80411239,"sourceTagName":"巴宝莉/女包","rawTitle":"『Burberry 巴宝莉』\n\n🔥🔥B家格子料皮革钱夹,随附链饰皮革肩背带。本品可作为小型手袋单独使用,或作为钱夹收置于日常手袋内。专柜品质、做工精细实物拍摄,黑色格子尺寸21cm*12cm*3cm、8687"},"price":null,"currency":"CNY","moq":1,"category":"burberry-women-bags","status":"active","alibaba_url":null,"images":["https://xcimg.szwego.com/o_1fu903m2i2ji1mr1hcntu7f4773.jpg","https://xcimg.szwego.com/o_1fu903m2iek29tl131h1m7bsfa74.jpg","https://xcimg.szwego.com/o_1fu903m2i1fci18abls1vh61shv75.jpg","https://xcimg.szwego.com/o_1fu903m2i1d2uikh193h1umv1j2476.jpg","https://xcimg.szwego.com/o_1fu903m2i16t510qnnc71djjcqr77.jpg","https://xcimg.szwego.com/o_1fu903m2i13l71jkc3ma1oau1une78.jpg","https://xcimg.szwego.com/o_1fu903m2i1tgia7aij12nqa1079.jpg","https://xcimg.szwego.com/o_1fu903m2i1g18tk213ug1cr515jv7a.jpg"],"created_at":"2025-02-08T12:43:38.719Z"},{"id":"item-50bc4cc8ebf6","sku":"_duCuCMVXzCG260DCl6jFNtV8yJPbM-UqOcHlkNQ","name_en":"『Burberry 巴宝莉』","name_cn":"『Burberry 巴宝莉』\n\n🔥🔥B家精巧的斜背包,选用意大利鞣制粒纹皮革与典藏 Vintage 复古格纹裁片打造。😁😁可单肩背、斜背,或缔造手拿包造型。21 x 4.5 x 12.5cm、6601","specs":{"source":"wsxcme","sourceId":"_duCuCMVXzCG260DCl6jFNtV8yJPbM-UqOcHlkNQ","sourceTagId":80411239,"sourceTagName":"巴宝莉/女包","rawTitle":"『Burberry 巴宝莉』\n\n🔥🔥B家精巧的斜背包,选用意大利鞣制粒纹皮革与典藏 Vintage 复古格纹裁片打造。😁😁可单肩背、斜背,或缔造手拿包造型。21 x 4.5 x 12.5cm、6601"},"price":null,"currency":"CNY","moq":1,"category":"burberry-women-bags","status":"active","alibaba_url":null,"images":["https://xcimg.szwego.com/o_1f2dtmr2c1uar5075jdqfi1t1g3r.jpg","https://xcimg.szwego.com/o_1f2dtmr2c8uc1mgtleh15jl1eja3s.jpg","https://xcimg.szwego.com/o_1f2dtmr2ccmh1g8616lf2injh13t.jpg","https://xcimg.szwego.com/o_1f2dtmr2cplq158gkmu1j4gvj53u.jpg","https://xcimg.szwego.com/o_1f2dtmr2c1vod6kb18ji13pb1lff3v.jpg","https://xcimg.szwego.com/o_1f2dtmr2cl871nfajg5a211am740.jpg","https://xcimg.szwego.com/o_1f2dtmr2c1abs15dn2fq48ncj541.jpg","https://xcimg.szwego.com/o_1f2dtmr2cjtc1risicp1tlm1h4t42.jpg","https://xcimg.szwego.com/o_1f2dtmr2cjgeqbu4ti8g4196n43.jpg"],"created_at":"2025-02-08T12:43:27.878Z"},{"id":"item-4c86ceb4cb18","sku":"_dh4h4Az4BhakyUCjZyrwslQVQ_Xvn2C4ZJfUoXg","name_en":"『Burberry 巴宝莉』","name_cn":"『Burberry 巴宝莉』\n\nB家中古vintage系列新款小号邮差包!进口复古棕厚度1.4厚牛皮,进口利蒙塔中古系列新款! 头层牛皮 搭配经典格纹 复古的棕色增加了文艺范! 格纹环保干净好打理,包包容量大小合适,可单肩可斜挎!满足日常所需!好物必收!\n尺寸:21/8.5/18cm!\n6880","specs":{"source":"wsxcme","sourceId":"_dh4h4Az4BhakyUCjZyrwslQVQ_Xvn2C4ZJfUoXg","sourceTagId":80411239,"sourceTagName":"巴宝莉/女包","rawTitle":"『Burberry 巴宝莉』\n\nB家中古vintage系列新款小号邮差包!进口复古棕厚度1.4厚牛皮,进口利蒙塔中古系列新款! 头层牛皮 搭配经典格纹 复古的棕色增加了文艺范! 格纹环保干净好打理,包包容量大小合适,可单肩可斜挎!满足日常所需!好物必收!\n尺寸:21/8.5/18cm!\n6880"},"price":null,"currency":"CNY","moq":1,"category":"burberry-women-bags","status":"active","alibaba_url":null,"images":["https://xcimg.szwego.com/20210902/i1630565517_8029_0.jpg","https://xcimg.szwego.com/20210902/i1630565517_9875_1.jpg","https://xcimg.szwego.com/20210902/i1630565517_7802_2.jpg","https://xcimg.szwego.com/20210902/i1630565517_3608_3.jpg","https://xcimg.szwego.com/20210902/i1630565517_6571_4.jpg","https://xcimg.szwego.com/20210902/i1630565517_1931_5.jpg","https://xcimg.szwego.com/20210902/i1630565517_6264_6.jpg","https://xcimg.szwego.com/20210902/i1630565517_2255_7.jpg","https://xcimg.szwego.com/20210902/i1630565517_5594_8.jpg"],"created_at":"2025-02-08T12:43:27.889Z"},{"id":"item-47aec8c2a30a","sku":"_dl-l-cqhJEaXQRQA6oxLXCiaEWrn8sxoX2RS8Sg","name_en":"『Burberry 巴宝莉』","name_cn":"『Burberry 巴宝莉』\n\n时装秀款保龄球包,焕新打造为精巧的斜背包,外层:100%棉\n装饰:100%小牛皮 内层:100%小牛皮 可拆式斜背带\n1个外插袋;1个内插袋 拉链开合 手绘涂漆边缘亮泽金属装饰包身装饰品牌 Horseferry 印花,同时搭配皮革裹覆的挂锁与钥匙。\n尺寸:18 x 8 x 11cm\n背带垂直佩戴长度:52cm\n型号:6888#","specs":{"source":"wsxcme","sourceId":"_dl-l-cqhJEaXQRQA6oxLXCiaEWrn8sxoX2RS8Sg","sourceTagId":80411239,"sourceTagName":"巴宝莉/女包","modelNumber":"6888#","dimensions":{"lengthCm":18,"heightCm":8,"widthCm":11},"rawTitle":"『Burberry 巴宝莉』\n\n时装秀款保龄球包,焕新打造为精巧的斜背包,外层:100%棉\n装饰:100%小牛皮 内层:100%小牛皮 可拆式斜背带\n1个外插袋;1个内插袋 拉链开合 手绘涂漆边缘亮泽金属装饰包身装饰品牌 Horseferry 印花,同时搭配皮革裹覆的挂锁与钥匙。\n尺寸:18 x 8 x 11cm\n背带垂直佩戴长度:52cm\n型号:6888#"},"price":null,"currency":"CNY","moq":1,"category":"burberry-women-bags","status":"active","alibaba_url":null,"images":["https://xcimg.szwego.com/20210515/i1621058087_9616_0.jpg","https://xcimg.szwego.com/20210515/i1621058087_2992_1.jpg","https://xcimg.szwego.com/20210515/i1621058087_4559_2.jpg","https://xcimg.szwego.com/20210515/i1621058087_69_3.jpg","https://xcimg.szwego.com/20210515/i1621058087_9615_4.jpg","https://xcimg.szwego.com/20210515/i1621058087_3629_5.jpg","https://xcimg.szwego.com/20210515/i1621058087_9327_6.jpg","https://xcimg.szwego.com/20210515/i1621058087_2124_7.jpg","https://xcimg.szwego.com/20210515/i1621058087_7788_8.jpg"],"created_at":"2025-02-08T12:43:38.705Z"},{"id":"item-45fcf307133e","sku":"_dxExE30EgXbrRsegRMMTqcQmo-ogBr5rKMDiasQ","name_en":"『Burberry 巴宝莉』","name_cn":"『Burberry 巴宝莉』\n\n🔥🔥B家格子料皮革钱夹,随附链饰皮革肩背带。本品可作为小型手袋单独使用,或作为钱夹收置于日常手袋内。👍专柜品质、做工精细💋实物拍摄📷,🆔🆔40609791黑色!尺寸21cm*12cm*3cm","specs":{"source":"wsxcme","sourceId":"_dxExE30EgXbrRsegRMMTqcQmo-ogBr5rKMDiasQ","sourceTagId":80411239,"sourceTagName":"巴宝莉/女包","rawTitle":"『Burberry 巴宝莉』\n\n🔥🔥B家格子料皮革钱夹,随附链饰皮革肩背带。本品可作为小型手袋单独使用,或作为钱夹收置于日常手袋内。👍专柜品质、做工精细💋实物拍摄📷,🆔🆔40609791黑色!尺寸21cm*12cm*3cm"},"price":null,"currency":"CNY","moq":1,"category":"burberry-women-bags","status":"active","alibaba_url":null,"images":["https://xcimg.szwego.com/1568531209_2919131754_0","https://xcimg.szwego.com/1568531209_3547894853_1","https://xcimg.szwego.com/1568531209_2462711139_2","https://xcimg.szwego.com/1568531209_33927642_3","https://xcimg.szwego.com/1568531209_1840288946_4","https://xcimg.szwego.com/1568531209_3026296213_5","https://xcimg.szwego.com/1568531209_3452791127_6","https://xcimg.szwego.com/1568531209_864003675_7"],"created_at":"2025-02-08T12:43:27.864Z"},{"id":"item-431466762aa0","sku":"_dk3k3ZBu4OKLQ7AxYvYJHLpAHd1Aj8HVrMtBAgA","name_en":"『Burberry 巴宝莉』","name_cn":"『Burberry 巴宝莉』\n\n【B家顶级原单】精巧的肩背包,选用光泽皮革材质匠心打造,装饰 Thomas Bur专属标识,搭配可拆式肩背带设计,缔造实用风格。\n尺寸:28 x 5 x 14 cm\n肩背带最短垂直佩戴长度:19.5cm\n肩背带最长垂直佩戴长度:35.5cm\n外层:100%小牛皮\n装饰:100%小牛皮\n内衬:100%羔羊皮\n可调式肩背带\n4个内侧卡位\n1个内插袋\n拉链开合\n手绘涂漆边缘\n光泽金属配件\n意大利制","specs":{"source":"wsxcme","sourceId":"_dk3k3ZBu4OKLQ7AxYvYJHLpAHd1Aj8HVrMtBAgA","sourceTagId":80411239,"sourceTagName":"巴宝莉/女包","dimensions":{"lengthCm":28,"heightCm":5,"widthCm":14},"rawTitle":"『Burberry 巴宝莉』\n\n【B家顶级原单】精巧的肩背包,选用光泽皮革材质匠心打造,装饰 Thomas Bur专属标识,搭配可拆式肩背带设计,缔造实用风格。\n尺寸:28 x 5 x 14 cm\n肩背带最短垂直佩戴长度:19.5cm\n肩背带最长垂直佩戴长度:35.5cm\n外层:100%小牛皮\n装饰:100%小牛皮\n内衬:100%羔羊皮\n可调式肩背带\n4个内侧卡位\n1个内插袋\n拉链开合\n手绘涂漆边缘\n光泽金属配件\n意大利制"},"price":null,"currency":"CNY","moq":1,"category":"burberry-women-bags","status":"active","alibaba_url":null,"images":["https://xcimg.szwego.com/20211022/i1634896677_435_0.jpg","https://xcimg.szwego.com/20211022/i1634896677_7365_1.jpg","https://xcimg.szwego.com/20211022/i1634896677_667_2.jpg","https://xcimg.szwego.com/20211022/i1634896677_9890_3.jpg","https://xcimg.szwego.com/20211022/i1634896677_7420_4.jpg","https://xcimg.szwego.com/20211022/i1634896677_8771_5.jpg","https://xcimg.szwego.com/20211022/i1634896677_5372_6.jpg","https://xcimg.szwego.com/20211022/i1634896677_862_7.jpg","https://xcimg.szwego.com/20211022/i1634896677_2913_8.jpg"],"created_at":"2025-02-08T12:43:38.694Z"},{"id":"item-3e2cc13ef1e8","sku":"_d9x9x2oNrnP7w6TWRIUu2oAfLRvWQLbNm4h02wA","name_en":"『Burberry 巴宝莉』","name_cn":"『Burberry 巴宝莉』\n\n🔥🔥B家新款大号双色帆布拼皮托特包,选用缉明线皮革及棉质帆布制成,可使用顶部提柄手拎,或使用可调式肩背带携带。\n尺寸:33x12.5x26cm、2422","specs":{"source":"wsxcme","sourceId":"_d9x9x2oNrnP7w6TWRIUu2oAfLRvWQLbNm4h02wA","sourceTagId":80411239,"sourceTagName":"巴宝莉/女包","dimensions":{"lengthCm":33,"heightCm":12.5,"widthCm":26},"rawTitle":"『Burberry 巴宝莉』\n\n🔥🔥B家新款大号双色帆布拼皮托特包,选用缉明线皮革及棉质帆布制成,可使用顶部提柄手拎,或使用可调式肩背带携带。\n尺寸:33x12.5x26cm、2422"},"price":null,"currency":"CNY","moq":1,"category":"burberry-women-bags","status":"active","alibaba_url":null,"images":["https://xcimg.szwego.com/20211013/a1634102880524_2561.jpg","https://xcimg.szwego.com/20211013/a1634102880633_2686.jpg","https://xcimg.szwego.com/20211013/a1634102880759_7200.jpg","https://xcimg.szwego.com/20211013/a1634102880859_3513.jpg","https://xcimg.szwego.com/20211013/a1634102880977_5451.jpg","https://xcimg.szwego.com/20211013/a1634102881101_2288.jpg","https://xcimg.szwego.com/20211013/a1634102881233_6241.jpg","https://xcimg.szwego.com/20211013/a1634102881383_4220.jpg","https://xcimg.szwego.com/20211013/a1634102881568_5187.jpg"],"created_at":"2025-02-08T12:43:27.885Z"},{"id":"item-3e18d67f8638","sku":"_doaoaqqzN1mqDPVdq9Ad2SoAA-YlrOmHKmPoYeg","name_en":"『Burberry 巴宝莉』","name_cn":"『Burberry 巴宝莉』\n\n官网‮步同‬来袭!可拆可调‮皮试‬革斜背带、l个‮插外‬袋、l个拉链内袋、2个‮侧内‬隔层、顶部翻盖‮配搭‬锁扣设计风格、手绘涂漆边缘!亮泽金‮配属‬件!尺寸:21*6*16、1781","specs":{"source":"wsxcme","sourceId":"_doaoaqqzN1mqDPVdq9Ad2SoAA-YlrOmHKmPoYeg","sourceTagId":80411239,"sourceTagName":"巴宝莉/女包","rawTitle":"『Burberry 巴宝莉』\n\n官网‮步同‬来袭!可拆可调‮皮试‬革斜背带、l个‮插外‬袋、l个拉链内袋、2个‮侧内‬隔层、顶部翻盖‮配搭‬锁扣设计风格、手绘涂漆边缘!亮泽金‮配属‬件!尺寸:21*6*16、1781"},"price":null,"currency":"CNY","moq":1,"category":"burberry-women-bags","status":"active","alibaba_url":null,"images":["https://xcimg.szwego.com/20201213/a1607868764849_7472.jpg","https://xcimg.szwego.com/20201213/a1607868765392_1486.jpg","https://xcimg.szwego.com/20201213/a1607868765702_3010.jpg","https://xcimg.szwego.com/20201213/a1607868765977_8656.jpg","https://xcimg.szwego.com/20201213/a1607868766264_8013.jpg","https://xcimg.szwego.com/20201213/a1607868766623_3308.jpg","https://xcimg.szwego.com/20201213/a1607868767080_2250.jpg","https://xcimg.szwego.com/20201213/a1607868767520_8773.jpg","https://xcimg.szwego.com/20201213/a1607868767890_4514.jpg"],"created_at":"2025-02-08T12:43:27.895Z"},{"id":"item-37916835be23","sku":"_dx6x68bFA00ehDWiSYi_QqRtNpVCDoSP58ZvEhA","name_en":"『Burberry 巴宝莉』","name_cn":"『Burberry 巴宝莉』\n\n【Burberry•柏宝利】原单出品🇮🇹~~小肩包手包两用🎉👉细腻[玫瑰]柔软的进口小牛皮搭配格子面料,金色五金配件,👍专柜品质、做工精细💋实物拍摄📷,🆔🆔18696尺寸19cm*13.5cm*5cm","specs":{"source":"wsxcme","sourceId":"_dx6x68bFA00ehDWiSYi_QqRtNpVCDoSP58ZvEhA","sourceTagId":80411239,"sourceTagName":"巴宝莉/女包","rawTitle":"『Burberry 巴宝莉』\n\n【Burberry•柏宝利】原单出品🇮🇹~~小肩包手包两用🎉👉细腻[玫瑰]柔软的进口小牛皮搭配格子面料,金色五金配件,👍专柜品质、做工精细💋实物拍摄📷,🆔🆔18696尺寸19cm*13.5cm*5cm"},"price":null,"currency":"CNY","moq":1,"category":"burberry-women-bags","status":"active","alibaba_url":null,"images":["https://xcimg.szwego.com/1541568927_1786582698_0","https://xcimg.szwego.com/1541568927_2923195328_1","https://xcimg.szwego.com/1541568927_3935868295_2","https://xcimg.szwego.com/1541568927_4068554341_3","https://xcimg.szwego.com/1541568927_1656561145_4","https://xcimg.szwego.com/1541568927_2733929829_5","https://xcimg.szwego.com/1541568927_2526842509_6","https://xcimg.szwego.com/1541568928_4134825654_7","https://xcimg.szwego.com/1541568928_541245235_8"],"created_at":"2025-02-08T12:43:38.714Z"},{"id":"item-332fbe6e30fe","sku":"_dtotoxNYSmgjvl52Wi54giQq3JFCJWncdL80Fjw","name_en":"『Burberry 巴宝莉』","name_cn":"『Burberry 巴宝莉』\n\n🔥🔥经典的腋下麻将包,😀现在是火爆的中古店最受欢迎的款式,众多博主,达人都在找寻它的踪迹,不惜买个做旧的几千块钱拿回去,也觉得超值,肩带可以调节,手拿,腋下包两用,再灵活点的姑娘,加一根链条就是斜挎包可谓无所不能的一款经典了!尺寸:21/5/14cm、1816","specs":{"source":"wsxcme","sourceId":"_dtotoxNYSmgjvl52Wi54giQq3JFCJWncdL80Fjw","sourceTagId":80411239,"sourceTagName":"巴宝莉/女包","rawTitle":"『Burberry 巴宝莉』\n\n🔥🔥经典的腋下麻将包,😀现在是火爆的中古店最受欢迎的款式,众多博主,达人都在找寻它的踪迹,不惜买个做旧的几千块钱拿回去,也觉得超值,肩带可以调节,手拿,腋下包两用,再灵活点的姑娘,加一根链条就是斜挎包可谓无所不能的一款经典了!尺寸:21/5/14cm、1816"},"price":null,"currency":"CNY","moq":1,"category":"burberry-women-bags","status":"active","alibaba_url":null,"images":["https://xcimg.szwego.com/20201013/i1602569464_4316_0.jpg","https://xcimg.szwego.com/20201013/i1602569464_3400_1.jpg","https://xcimg.szwego.com/20201013/i1602569464_9868_2.jpg","https://xcimg.szwego.com/20201013/i1602569464_1296_3.jpg","https://xcimg.szwego.com/20201013/i1602569464_2284_4.jpg","https://xcimg.szwego.com/20201013/i1602569464_500_5.jpg","https://xcimg.szwego.com/20201013/i1602569464_4104_6.jpg","https://xcimg.szwego.com/20201013/i1602569464_7448_7.jpg","https://xcimg.szwego.com/20201013/i1602569464_7074_8.jpg"],"created_at":"2025-02-08T12:43:38.727Z"},{"id":"item-3018bed668c2","sku":"_diNiNC_Vo5nWAcmM-RymgZiqc4gc_A9RrVU8cDg","name_en":"『Burberry 巴宝莉』","name_cn":"『Burberry 巴宝莉』\n\n🔥🔥B家新款迷你双色帆布拼皮托特包,选用缉明线皮革及棉质帆布制成,可使用顶部提柄手拎,或使用可调式肩背带携带。\n尺寸:23 x 8 x19cm、2412","specs":{"source":"wsxcme","sourceId":"_diNiNC_Vo5nWAcmM-RymgZiqc4gc_A9RrVU8cDg","sourceTagId":80411239,"sourceTagName":"巴宝莉/女包","dimensions":{"lengthCm":23,"heightCm":8,"widthCm":19},"rawTitle":"『Burberry 巴宝莉』\n\n🔥🔥B家新款迷你双色帆布拼皮托特包,选用缉明线皮革及棉质帆布制成,可使用顶部提柄手拎,或使用可调式肩背带携带。\n尺寸:23 x 8 x19cm、2412"},"price":null,"currency":"CNY","moq":1,"category":"burberry-women-bags","status":"active","alibaba_url":null,"images":["https://xcimg.szwego.com/20211013/a1634102597594_2608.jpg","https://xcimg.szwego.com/20211013/a1634102597686_8400.jpg","https://xcimg.szwego.com/20211013/a1634102597822_6254.jpg","https://xcimg.szwego.com/20211013/a1634102597913_3710.jpg","https://xcimg.szwego.com/20211013/a1634102598044_0064.jpg","https://xcimg.szwego.com/20211013/a1634102598177_1740.jpg","https://xcimg.szwego.com/20211013/a1634102598302_8313.jpg","https://xcimg.szwego.com/20211013/a1634102598461_1512.jpg","https://xcimg.szwego.com/20211013/a1634102598619_4406.jpg"],"created_at":"2025-02-08T12:43:27.884Z"},{"id":"item-3013a7a0c0f4","sku":"_du6u6sNjEu2kzbaXL-KMyWXVzn1UG7dBKUMUyWA","name_en":"『Burberry 巴宝莉』","name_cn":"『Burberry 巴宝莉』\n\n【B家顶级原单】迷你双色帆布拼皮皮革Freya意大利精制托特包,选用缉明线皮革及棉质帆布制成,装饰品牌 Horseferry 印花。可使用顶部提柄手拎,或使用可调式肩背带携带。\n尺寸:23 x 8 x19cm、2412","specs":{"source":"wsxcme","sourceId":"_du6u6sNjEu2kzbaXL-KMyWXVzn1UG7dBKUMUyWA","sourceTagId":80411239,"sourceTagName":"巴宝莉/女包","dimensions":{"lengthCm":23,"heightCm":8,"widthCm":19},"rawTitle":"『Burberry 巴宝莉』\n\n【B家顶级原单】迷你双色帆布拼皮皮革Freya意大利精制托特包,选用缉明线皮革及棉质帆布制成,装饰品牌 Horseferry 印花。可使用顶部提柄手拎,或使用可调式肩背带携带。\n尺寸:23 x 8 x19cm、2412"},"price":null,"currency":"CNY","moq":1,"category":"burberry-women-bags","status":"active","alibaba_url":null,"images":["https://xcimg.szwego.com/20211010/i1633835917_6702_0.jpg","https://xcimg.szwego.com/20211010/i1633835917_6642_1.jpg","https://xcimg.szwego.com/20211010/i1633835917_9942_2.jpg","https://xcimg.szwego.com/20211010/i1633835917_9090_3.jpg","https://xcimg.szwego.com/20211010/i1633835917_9935_4.jpg","https://xcimg.szwego.com/20211010/i1633835917_3920_5.jpg","https://xcimg.szwego.com/20211010/i1633835917_8098_6.jpg","https://xcimg.szwego.com/20211010/i1633835917_8282_7.jpg","https://xcimg.szwego.com/20211010/i1633835917_5936_8.jpg"],"created_at":"2025-02-08T12:43:27.882Z"},{"id":"item-3010cbbd36d4","sku":"_dririeTAxbH5O7cq4Y7JIFMEMFT2XsRvVevqtrQ","name_en":"『Burberry 巴宝莉』","name_cn":"『Burberry 巴宝莉』\n\n🔥🔥B家新款小号羊皮精巧别致的绗缝学院风萝纳包🤪🤪装饰 Thomas Burberry 专属标识,搭配亮泽的链条背带。可肩背,或使用顶部提柄缔造手拿包造型。19x5.5x11cm、8391","specs":{"source":"wsxcme","sourceId":"_dririeTAxbH5O7cq4Y7JIFMEMFT2XsRvVevqtrQ","sourceTagId":80411239,"sourceTagName":"巴宝莉/女包","rawTitle":"『Burberry 巴宝莉』\n\n🔥🔥B家新款小号羊皮精巧别致的绗缝学院风萝纳包🤪🤪装饰 Thomas Burberry 专属标识,搭配亮泽的链条背带。可肩背,或使用顶部提柄缔造手拿包造型。19x5.5x11cm、8391"},"price":null,"currency":"CNY","moq":1,"category":"burberry-women-bags","status":"active","alibaba_url":null,"images":["https://xcimg.szwego.com/20220425/a1650881067499_5316.jpg","https://xcimg.szwego.com/20220425/a1650881067610_2374.jpg","https://xcimg.szwego.com/20220425/a1650881067743_7042.jpg","https://xcimg.szwego.com/20220425/a1650881067872_7355.jpg","https://xcimg.szwego.com/20220425/a1650881068023_1027.jpg","https://xcimg.szwego.com/20220425/a1650881068164_0428.jpg","https://xcimg.szwego.com/20220425/a1650881068303_5162.jpg","https://xcimg.szwego.com/20220425/a1650881068465_5002.jpg","https://xcimg.szwego.com/20220425/a1650881068579_2137.jpg"],"created_at":"2025-02-08T12:43:38.712Z"},{"id":"item-2e9d8280ed1f","sku":"_d5o5oDTVdY-weWl9YvjWaHugLoPd7bMqb6QLYkQ","name_en":"『Burberry 巴宝莉』","name_cn":"『Burberry 巴宝莉』\n\n🔥🔥B家 Haymarket Check格纹巴宝莉枕头包 小牛皮😄 顶级抛光五金  超百搭 超能装 尺寸:20cm14cm11cm、1218","specs":{"source":"wsxcme","sourceId":"_d5o5oDTVdY-weWl9YvjWaHugLoPd7bMqb6QLYkQ","sourceTagId":80411239,"sourceTagName":"巴宝莉/女包","rawTitle":"『Burberry 巴宝莉』\n\n🔥🔥B家 Haymarket Check格纹巴宝莉枕头包 小牛皮😄 顶级抛光五金  超百搭 超能装 尺寸:20cm14cm11cm、1218"},"price":null,"currency":"CNY","moq":1,"category":"burberry-women-bags","status":"active","alibaba_url":null,"images":["https://xcimg.szwego.com/20201227/a1609075825422_3817.jpg","https://xcimg.szwego.com/20201227/a1609075825535_2135.jpg","https://xcimg.szwego.com/20201227/a1609075825651_5578.jpg","https://xcimg.szwego.com/20201227/a1609075825776_6131.jpg","https://xcimg.szwego.com/20201227/a1609075825892_2600.jpg","https://xcimg.szwego.com/20201227/a1609075826024_6253.jpg","https://xcimg.szwego.com/20201227/a1609075826155_2682.jpg","https://xcimg.szwego.com/20201227/a1609075826300_6004.jpg","https://xcimg.szwego.com/20201227/a1609075826402_4248.jpg"],"created_at":"2025-02-08T12:43:38.701Z"},{"id":"item-2be0fa59dda0","sku":"_d-F-Fa8kuGi8Cz-MSNcpw-jyv-vXhp51OZinXgQ","name_en":"『Burberry 巴宝莉』","name_cn":"『Burberry 巴宝莉』\n\n🔥🔥B家新款小号羊皮精巧别致的绗缝学院风萝纳包🤪🤪装饰 Thomas Burberry 专属标识,搭配亮泽的链条背带。可肩背,或使用顶部提柄缔造手拿包造型。19x5.5x11cm、8391","specs":{"source":"wsxcme","sourceId":"_d-F-Fa8kuGi8Cz-MSNcpw-jyv-vXhp51OZinXgQ","sourceTagId":80411239,"sourceTagName":"巴宝莉/女包","rawTitle":"『Burberry 巴宝莉』\n\n🔥🔥B家新款小号羊皮精巧别致的绗缝学院风萝纳包🤪🤪装饰 Thomas Burberry 专属标识,搭配亮泽的链条背带。可肩背,或使用顶部提柄缔造手拿包造型。19x5.5x11cm、8391"},"price":null,"currency":"CNY","moq":1,"category":"burberry-women-bags","status":"active","alibaba_url":null,"images":["https://xcimg.szwego.com/20220425/a1650881078944_8431.jpg","https://xcimg.szwego.com/20220425/a1650881079075_3660.jpg","https://xcimg.szwego.com/20220425/a1650881079177_6254.jpg","https://xcimg.szwego.com/20220425/a1650881079302_3883.jpg","https://xcimg.szwego.com/20220425/a1650881079421_8557.jpg","https://xcimg.szwego.com/20220425/a1650881079557_4573.jpg","https://xcimg.szwego.com/20220425/a1650881079686_3052.jpg","https://xcimg.szwego.com/20220425/a1650881079811_6623.jpg","https://xcimg.szwego.com/20220425/a1650881079942_3517.jpg"],"created_at":"2025-02-08T12:43:38.711Z"},{"id":"item-2bbb3d86cd52","sku":"_dpKpKVCUcv-U5tCRwBb8tAp1w0P2OKw69bJ1b1Q","name_en":"『Burberry 巴宝莉』","name_cn":"『Burberry 巴宝莉』\n\nB家经典中古腋下包,漆皮牛皮调节肩带,肩带可通过搭扣固定在手袋上,可调节肩带可方便腋下or手提,高端定制实物超级精致,手感柔软舒适很有质感,包边白用进口漆皮,营造出很强的层次感却又十分协调不显突兀。自重轻盈,小巧却方便通勤,容量Ok。\n尺寸:24×13×8cm","specs":{"source":"wsxcme","sourceId":"_dpKpKVCUcv-U5tCRwBb8tAp1w0P2OKw69bJ1b1Q","sourceTagId":80411239,"sourceTagName":"巴宝莉/女包","dimensions":{"lengthCm":24,"heightCm":13,"widthCm":8},"rawTitle":"『Burberry 巴宝莉』\n\nB家经典中古腋下包,漆皮牛皮调节肩带,肩带可通过搭扣固定在手袋上,可调节肩带可方便腋下or手提,高端定制实物超级精致,手感柔软舒适很有质感,包边白用进口漆皮,营造出很强的层次感却又十分协调不显突兀。自重轻盈,小巧却方便通勤,容量Ok。\n尺寸:24×13×8cm"},"price":null,"currency":"CNY","moq":1,"category":"burberry-women-bags","status":"active","alibaba_url":null,"images":["https://xcimg.szwego.com/20210530/a1622384849796_4167.jpg","https://xcimg.szwego.com/20210530/a1622384849927_0640.jpg","https://xcimg.szwego.com/20210530/a1622384850047_8331.jpg","https://xcimg.szwego.com/20210530/a1622384850127_2474.jpg","https://xcimg.szwego.com/20210530/a1622384850212_8767.jpg","https://xcimg.szwego.com/20210530/a1622384850296_2181.jpg","https://xcimg.szwego.com/20210530/a1622384850369_6643.jpg","https://xcimg.szwego.com/20210530/a1622384850451_6801.jpg","https://xcimg.szwego.com/20210530/a1622384850542_0648.jpg"],"created_at":"2025-02-08T12:43:38.736Z"}],"page":4,"pageSize":24,"total":493,"totalPages":21}
