{"items":[{"id":"item-4a0372d1cbee","sku":"_drFrFjnManIRjOJK85ubUNUnhMadWC3XsFbCdBQ","name_en":"Burberry Women Bags","name_cn":"上身图","specs":{"source":"wsxcme","sourceId":"_drFrFjnManIRjOJK85ubUNUnhMadWC3XsFbCdBQ","sourceTagId":80411239,"sourceTagName":"巴宝莉/女包","rawTitle":"上身图"},"price":null,"currency":"CNY","moq":1,"category":"burberry-women-bags","status":"active","alibaba_url":null,"images":["https://xcimg.szwego.com/img/d5e7a5ce/20251114/a1763099018772_0064.jpg","https://xcimg.szwego.com/img/d5e7a5ce/20251114/a1763099018771_7510.jpg","https://xcimg.szwego.com/img/d5e7a5ce/20251114/a1763099018772_6320.jpg","https://xcimg.szwego.com/img/d5e7a5ce/20251114/a1763099018776_3764.jpg","https://xcimg.szwego.com/img/d5e7a5ce/20251114/a1763099018773_2663.jpg","https://xcimg.szwego.com/img/d5e7a5ce/20251114/a1763099018775_6765.jpg","https://xcimg.szwego.com/img/d5e7a5ce/20251114/a1763099019284_6465.jpg","https://xcimg.szwego.com/img/d5e7a5ce/20251114/a1763099019286_3068.jpg","https://xcimg.szwego.com/img/d5e7a5ce/20251114/a1763099019287_0530.jpg"],"created_at":"2026-06-29T10:27:58.542Z"},{"id":"item-426c30a3ba18","sku":"_dAXAXMrooXadNzbwUoHgpLL8NdfsjkouQeVcFZQ","name_en":"Burberry Women Bags","name_cn":"巴宝莉/女包","specs":{"source":"wsxcme","sourceId":"_dAXAXMrooXadNzbwUoHgpLL8NdfsjkouQeVcFZQ","sourceTagId":80411239,"sourceTagName":"巴宝莉/女包","rawTitle":""},"price":null,"currency":"CNY","moq":1,"category":"burberry-women-bags","status":"active","alibaba_url":null,"images":["https://xcimg.szwego.com/img/d5e7a5ce/20250908/a1757318551311_4741.jpg","https://xcimg.szwego.com/img/d5e7a5ce/20250908/a1757318551312_5285.jpg","https://xcimg.szwego.com/img/d5e7a5ce/20250908/a1757318551315_4540.jpg","https://xcimg.szwego.com/img/d5e7a5ce/20250908/a1757318551313_0164.jpg","https://xcimg.szwego.com/img/d5e7a5ce/20250908/a1757318551315_0654.jpg","https://xcimg.szwego.com/img/d5e7a5ce/20250908/a1757318551318_3521.jpg","https://xcimg.szwego.com/img/d5e7a5ce/20250908/a1757318551985_4253.jpg","https://xcimg.szwego.com/img/d5e7a5ce/20250908/a1757318551982_6203.jpg","https://xcimg.szwego.com/img/d5e7a5ce/20250908/a1757318551984_6052.jpg"],"created_at":"2026-06-29T10:27:58.482Z"},{"id":"item-420b583a9170","sku":"_dYWYW1rYeHm217RaARU18xUq_13snhqThnSLv0g","name_en":"Burberry Women Bags","name_cn":"官网图","specs":{"source":"wsxcme","sourceId":"_dYWYW1rYeHm217RaARU18xUq_13snhqThnSLv0g","sourceTagId":80411239,"sourceTagName":"巴宝莉/女包","rawTitle":"官网图"},"price":null,"currency":"CNY","moq":1,"category":"burberry-women-bags","status":"active","alibaba_url":null,"images":["https://xcimg.szwego.com/20220323/i1648017340_3435_0.jpg","https://xcimg.szwego.com/20220323/i1648017340_4763_1.jpg","https://xcimg.szwego.com/20220323/i1648017340_6094_2.jpg","https://xcimg.szwego.com/20220323/i1648017340_1335_3.jpg","https://xcimg.szwego.com/20220323/i1648017340_3847_4.jpg"],"created_at":"2026-06-29T10:27:59.052Z"},{"id":"item-3e1c08b3a658","sku":"_dpfpf6S1JICnuOvKi4bXEPV_FuvWon4mtKpBn1g","name_en":"Burberry Women Bags","name_cn":"官网售价!","specs":{"source":"wsxcme","sourceId":"_dpfpf6S1JICnuOvKi4bXEPV_FuvWon4mtKpBn1g","sourceTagId":80411239,"sourceTagName":"巴宝莉/女包","rawTitle":"官网售价!"},"price":null,"currency":"CNY","moq":1,"category":"burberry-women-bags","status":"active","alibaba_url":null,"images":["https://xcimg.szwego.com/20220323/i1648017775_9626_0.jpg"],"created_at":"2026-06-29T10:27:59.142Z"},{"id":"item-3cf103941cd6","sku":"_dbkbkLR1DxgxeFJt7G0Lr_xRLx9DdU9snQiJjxw","name_en":"Burberry Women Bags","name_cn":"上身图","specs":{"source":"wsxcme","sourceId":"_dbkbkLR1DxgxeFJt7G0Lr_xRLx9DdU9snQiJjxw","sourceTagId":80411239,"sourceTagName":"巴宝莉/女包","rawTitle":"上身图"},"price":null,"currency":"CNY","moq":1,"category":"burberry-women-bags","status":"active","alibaba_url":null,"images":["https://xcimg.szwego.com/img/d5e7a5ce/20251115/a1763194294097_5771.jpg","https://xcimg.szwego.com/img/d5e7a5ce/20251115/a1763194294095_0384.jpg","https://xcimg.szwego.com/img/d5e7a5ce/20251115/a1763194294095_8631.jpg","https://xcimg.szwego.com/img/d5e7a5ce/20251115/a1763194294098_0116.jpg","https://xcimg.szwego.com/img/d5e7a5ce/20251115/a1763194294106_1781.jpg","https://xcimg.szwego.com/img/d5e7a5ce/20251115/a1763194294103_4835.jpg","https://xcimg.szwego.com/img/d5e7a5ce/20251115/a1763194294669_7807.jpg","https://xcimg.szwego.com/img/d5e7a5ce/20251115/a1763194294670_3304.jpg","https://xcimg.szwego.com/img/d5e7a5ce/20251115/a1763194294671_4165.jpg"],"created_at":"2026-06-29T10:29:02.969Z"},{"id":"item-3ce7bf2b51d1","sku":"_d8C8CAkQoz6iKZyrdXdArATExuVgWsw9CWDzHqw","name_en":"Burberry Women Bags","name_cn":"在看一下五金 特供原厂五金,真金厚电镀工艺,五金字体清晰度非常精美,更多细节补充!","specs":{"source":"wsxcme","sourceId":"_d8C8CAkQoz6iKZyrdXdArATExuVgWsw9CWDzHqw","sourceTagId":80411239,"sourceTagName":"巴宝莉/女包","rawTitle":"在看一下五金 特供原厂五金,真金厚电镀工艺,五金字体清晰度非常精美,更多细节补充!"},"price":null,"currency":"CNY","moq":1,"category":"burberry-women-bags","status":"active","alibaba_url":null,"images":["https://xcimg.szwego.com/20220423/i1650693809_3025_0.jpg","https://xcimg.szwego.com/20220423/i1650693809_5855_1.jpg","https://xcimg.szwego.com/20220423/i1650693809_2171_2.jpg","https://xcimg.szwego.com/20220423/i1650693809_2738_3.jpg","https://xcimg.szwego.com/20220423/i1650693809_5747_4.jpg","https://xcimg.szwego.com/20220423/i1650693809_8250_5.jpg","https://xcimg.szwego.com/20220423/i1650693809_8781_6.jpg"],"created_at":"2026-06-29T10:27:59.172Z"},{"id":"item-3b13d47ddbed","sku":"_dbybyBRcPOSl07D2ijvl6XeHbQRDszGi3Slcqtg","name_en":"Burberry Women Bags","name_cn":"#上身效果图","specs":{"source":"wsxcme","sourceId":"_dbybyBRcPOSl07D2ijvl6XeHbQRDszGi3Slcqtg","sourceTagId":80411239,"sourceTagName":"巴宝莉/女包","rawTitle":"#上身效果图"},"price":null,"currency":"CNY","moq":1,"category":"burberry-women-bags","status":"active","alibaba_url":null,"images":["https://xcimg.szwego.com/img/a78c42d4/20250409/i1744182049250_5031_0_0.jpg","https://xcimg.szwego.com/img/a78c42d4/20250409/i1744182049250_8128_0_1.jpg","https://xcimg.szwego.com/img/a78c42d4/20250409/i1744182049250_8434_0_2.jpg"],"created_at":"2026-06-29T10:29:02.879Z"},{"id":"item-3ac87f7f66cb","sku":"_dpXpXyYx1hV7RcagLXqVZHnnI5yg99-FFB_4F_Q","name_en":"Burberry Women Bags","name_cn":"挂拍实拍,经典搭扣设计腋下包  这种原单战马料子一直有库存 代工厂渠道来的正品 质感非常棒。","specs":{"source":"wsxcme","sourceId":"_dpXpXyYx1hV7RcagLXqVZHnnI5yg99-FFB_4F_Q","sourceTagId":80411239,"sourceTagName":"巴宝莉/女包","rawTitle":"挂拍实拍,经典搭扣设计腋下包  这种原单战马料子一直有库存 代工厂渠道来的正品 质感非常棒。"},"price":null,"currency":"CNY","moq":1,"category":"burberry-women-bags","status":"active","alibaba_url":null,"images":["https://xcimg.szwego.com/20230629/i1688019818_6406_0.jpg","https://xcimg.szwego.com/20230629/i1688019818_5510_1.jpg","https://xcimg.szwego.com/20230629/i1688019818_520_2.jpg","https://xcimg.szwego.com/20230629/i1688019818_6471_3.jpg","https://xcimg.szwego.com/20230629/i1688019818_2358_4.jpg","https://xcimg.szwego.com/20230629/i1688019818_9308_5.jpg","https://xcimg.szwego.com/20230629/i1688019818_9634_6.jpg","https://xcimg.szwego.com/20230629/i1688019818_1141_7.jpg","https://xcimg.szwego.com/20230629/i1688019818_8266_8.jpg"],"created_at":"2025-01-20T12:46:12.813Z"},{"id":"item-3a8b308791b1","sku":"_dJwJwskEp4qPh5HDqu_246xmlyAKT5zh5KPrOeQ","name_en":"Burberry Women Bags","name_cn":"现货","specs":{"source":"wsxcme","sourceId":"_dJwJwskEp4qPh5HDqu_246xmlyAKT5zh5KPrOeQ","sourceTagId":80411239,"sourceTagName":"巴宝莉/女包","rawTitle":"现货"},"price":null,"currency":"CNY","moq":1,"category":"burberry-women-bags","status":"active","alibaba_url":null,"images":["https://xcimg.szwego.com/img/d5e7a5ce/20251105/a1762314496226_1165.jpg","https://xcimg.szwego.com/img/d5e7a5ce/20251105/a1762314496225_4605.jpg","https://xcimg.szwego.com/img/d5e7a5ce/20251105/a1762314496227_1438.jpg","https://xcimg.szwego.com/img/d5e7a5ce/20251105/a1762314496229_1843.jpg","https://xcimg.szwego.com/img/d5e7a5ce/20251105/a1762314496228_2381.jpg","https://xcimg.szwego.com/img/d5e7a5ce/20251105/a1762314496228_4156.jpg","https://xcimg.szwego.com/img/d5e7a5ce/20251105/a1762314496789_0424.jpg","https://xcimg.szwego.com/img/d5e7a5ce/20251105/a1762314496785_4853.jpg"],"created_at":"2026-06-29T10:27:59.022Z"},{"id":"item-368f4e307ccb","sku":"_d1I1Imqar9qjUTk9ZAiDhkShkQGvWiW22y1djGg","name_en":"Burberry Women Bags","name_cn":"官网图","specs":{"source":"wsxcme","sourceId":"_d1I1Imqar9qjUTk9ZAiDhkShkQGvWiW22y1djGg","sourceTagId":80411239,"sourceTagName":"巴宝莉/女包","rawTitle":"官网图"},"price":null,"currency":"CNY","moq":1,"category":"burberry-women-bags","status":"active","alibaba_url":null,"images":["https://xcimg.szwego.com/img/d5e7a5ce/20250908/a1757318538306_6710.jpg","https://xcimg.szwego.com/img/d5e7a5ce/20250908/a1757318538311_4565.jpg","https://xcimg.szwego.com/img/d5e7a5ce/20250908/a1757318538305_8811.jpg","https://xcimg.szwego.com/img/d5e7a5ce/20250908/a1757318538310_5557.jpg","https://xcimg.szwego.com/img/d5e7a5ce/20250908/a1757318538307_6857.jpg","https://xcimg.szwego.com/img/d5e7a5ce/20250908/a1757318538308_6014.jpg","https://xcimg.szwego.com/img/d5e7a5ce/20250908/a1757318538807_1860.jpg","https://xcimg.szwego.com/img/d5e7a5ce/20250908/a1757318538806_7423.jpg","https://xcimg.szwego.com/img/d5e7a5ce/20250908/a1757318538808_5411.jpg"],"created_at":"2026-06-29T10:27:58.472Z"},{"id":"item-33abb3bde08c","sku":"_dlzlzYxJDlxKgG7fs1R5aBfd2Nni_7V5B6SeRJw","name_en":"Burberry Women Bags","name_cn":"大号 上身效果无敌酷😎","specs":{"source":"wsxcme","sourceId":"_dlzlzYxJDlxKgG7fs1R5aBfd2Nni_7V5B6SeRJw","sourceTagId":80411239,"sourceTagName":"巴宝莉/女包","rawTitle":"大号 上身效果无敌酷😎"},"price":null,"currency":"CNY","moq":1,"category":"burberry-women-bags","status":"active","alibaba_url":null,"images":["https://xcimg.szwego.com/img/d5e7a5ce/20250304/a1741079631711_4780.jpg","https://xcimg.szwego.com/img/d5e7a5ce/20250304/a1741079631712_6421.jpg","https://xcimg.szwego.com/img/d5e7a5ce/20250304/a1741079631713_5444.jpg","https://xcimg.szwego.com/img/d5e7a5ce/20250304/a1741079631715_2088.jpg","https://xcimg.szwego.com/img/d5e7a5ce/20250304/a1741079631718_7378.jpg","https://xcimg.szwego.com/img/d5e7a5ce/20250304/a1741079631717_7122.jpg","https://xcimg.szwego.com/img/d5e7a5ce/20250304/a1741079632517_1781.jpg","https://xcimg.szwego.com/img/d5e7a5ce/20250304/a1741079632507_7547.jpg","https://xcimg.szwego.com/img/d5e7a5ce/20250304/a1741079632512_1774.jpg"],"created_at":"2026-06-29T10:27:59.342Z"},{"id":"item-2cf48b700249","sku":"_dLoLoaA1XaHmeTkz8Vv1l9cWnK31VFlDyot7e3Q","name_en":"Burberry Women Bags","name_cn":"上身效果图!","specs":{"source":"wsxcme","sourceId":"_dLoLoaA1XaHmeTkz8Vv1l9cWnK31VFlDyot7e3Q","sourceTagId":80411239,"sourceTagName":"巴宝莉/女包","rawTitle":"上身效果图!"},"price":null,"currency":"CNY","moq":1,"category":"burberry-women-bags","status":"active","alibaba_url":null,"images":["https://xcimg.szwego.com/img/f3ff0ddb/20231026/i1698303665_5794_0.jpg","https://xcimg.szwego.com/img/f3ff0ddb/20231026/i1698303665_9287_2.jpg","https://xcimg.szwego.com/img/f3ff0ddb/20231026/i1698303665_3611_3.jpg","https://xcimg.szwego.com/img/f3ff0ddb/20231026/i1698303665_8078_4.jpg","https://xcimg.szwego.com/img/f3ff0ddb/20231026/i1698303665_7509_5.jpg","https://xcimg.szwego.com/img/f3ff0ddb/20231026/i1698303665_48_1.jpg"],"created_at":"2025-01-20T12:46:12.778Z"},{"id":"item-2b362022996a","sku":"_dneneO5S8GAHzuPuG8zKkS2YtTZA3Xy-roClBrA","name_en":"Burberry Women Bags","name_cn":"官网图","specs":{"source":"wsxcme","sourceId":"_dneneO5S8GAHzuPuG8zKkS2YtTZA3Xy-roClBrA","sourceTagId":80411239,"sourceTagName":"巴宝莉/女包","rawTitle":"官网图"},"price":null,"currency":"CNY","moq":1,"category":"burberry-women-bags","status":"active","alibaba_url":null,"images":["https://xcimg.szwego.com/20220114/i1642101028_356_0.jpg","https://xcimg.szwego.com/20220114/i1642101028_3127_1.jpg","https://xcimg.szwego.com/20220114/i1642101028_1322_2.jpg","https://xcimg.szwego.com/20220114/i1642101028_2986_3.jpg","https://xcimg.szwego.com/20220114/i1642101028_6156_4.jpg"],"created_at":"2025-01-20T12:46:12.732Z"},{"id":"item-2aef599761bf","sku":"_dpHpHh9fNxDVk5vDCVZUMrewZEJFpiyM_x4u4cg","name_en":"Burberry Women Bags","name_cn":"黑色平铺细节,小小一只非常轻便好背,出游通勤实用又百搭的托特包,这款热度只升不降,长肩带可拆卸的,上身立体抢眼,闭眼入","specs":{"source":"wsxcme","sourceId":"_dpHpHh9fNxDVk5vDCVZUMrewZEJFpiyM_x4u4cg","sourceTagId":80411239,"sourceTagName":"巴宝莉/女包","rawTitle":"黑色平铺细节,小小一只非常轻便好背,出游通勤实用又百搭的托特包,这款热度只升不降,长肩带可拆卸的,上身立体抢眼,闭眼入"},"price":null,"currency":"CNY","moq":1,"category":"burberry-women-bags","status":"active","alibaba_url":null,"images":["https://xcimg.szwego.com/20220808/i1659956440_4723_0.jpg","https://xcimg.szwego.com/20220808/i1659956440_7431_1.jpg","https://xcimg.szwego.com/20220808/i1659956440_6962_2.jpg","https://xcimg.szwego.com/20220808/i1659956440_3278_3.jpg","https://xcimg.szwego.com/20220808/i1659956440_5847_4.jpg"],"created_at":"2025-01-20T12:43:24.109Z"},{"id":"item-2a7b8260c2a3","sku":"_dd2d2_D1Akk5spI-2Qm6_f1DXZYQ9QhsqhXPNng","name_en":"Burberry Women Bags","name_cn":"大号 酷感十足","specs":{"source":"wsxcme","sourceId":"_dd2d2_D1Akk5spI-2Qm6_f1DXZYQ9QhsqhXPNng","sourceTagId":80411239,"sourceTagName":"巴宝莉/女包","rawTitle":"大号 酷感十足"},"price":null,"currency":"CNY","moq":1,"category":"burberry-women-bags","status":"active","alibaba_url":null,"images":["https://xcimg.szwego.com/img/d5e7a5ce/20250304/a1741079654337_8115.jpg","https://xcimg.szwego.com/img/d5e7a5ce/20250304/a1741079654331_0635.jpg","https://xcimg.szwego.com/img/d5e7a5ce/20250304/a1741079654333_8717.jpg","https://xcimg.szwego.com/img/d5e7a5ce/20250304/a1741079654334_3515.jpg","https://xcimg.szwego.com/img/d5e7a5ce/20250304/a1741079654335_7675.jpg","https://xcimg.szwego.com/img/d5e7a5ce/20250304/a1741079654336_0424.jpg","https://xcimg.szwego.com/img/d5e7a5ce/20250304/a1741079656503_1377.jpg","https://xcimg.szwego.com/img/d5e7a5ce/20250304/a1741079656499_2820.jpg"],"created_at":"2026-06-29T10:29:02.779Z"},{"id":"item-2959294f40d9","sku":"_d8383x-Rdz2vLB4PWum52vmBPoEkItQJZGbabrQ","name_en":"Burberry Women Bags","name_cn":"❤【鸵鸟纹蔷薇粉色】\nLoro Piana Extra pocket L19系列 断货王\n\n不被定义的生活才最自在,就像loro piana的材质设计,不需要繁复设计的款式,简洁柔和的轮廓优雅耐看,像一只精美的化妆箱,完美兼顾了颜值和功能性。皮质细腻,手感像黄油一般柔软,小小包身大容量,不光是手提配细肩带还可以斜挎哦,对极简风情有独钟得姐妹可以入手啦,简约百搭,越简单越不同,明星ins网红都在种草,配上稀有的皮料很难不爱。\n\n尺寸:小号:长19×宽7×高12cm","specs":{"source":"wsxcme","sourceId":"_d8383x-Rdz2vLB4PWum52vmBPoEkItQJZGbabrQ","sourceTagId":80411239,"sourceTagName":"巴宝莉/女包","rawTitle":"❤【鸵鸟纹蔷薇粉色】\nLoro Piana Extra pocket L19系列 断货王\n\n不被定义的生活才最自在,就像loro piana的材质设计,不需要繁复设计的款式,简洁柔和的轮廓优雅耐看,像一只精美的化妆箱,完美兼顾了颜值和功能性。皮质细腻,手感像黄油一般柔软,小小包身大容量,不光是手提配细肩带还可以斜挎哦,对极简风情有独钟得姐妹可以入手啦,简约百搭,越简单越不同,明星ins网红都在种草,配上稀有的皮料很难不爱。\n\n尺寸:小号:长19×宽7×高12cm"},"price":null,"currency":"CNY","moq":1,"category":"burberry-women-bags","status":"active","alibaba_url":null,"images":["https://xcimg.szwego.com/20230816/i1692176390_8236_0.jpg","https://xcimg.szwego.com/20230816/i1692176390_3892_1.jpg","https://xcimg.szwego.com/20230816/i1692176390_822_2.jpg","https://xcimg.szwego.com/20230816/i1692176390_4843_3.jpg","https://xcimg.szwego.com/20230816/i1692176390_6462_4.jpg","https://xcimg.szwego.com/20230816/i1692176390_9186_5.jpg","https://xcimg.szwego.com/20230816/i1692176390_3667_6.jpg"],"created_at":"2025-01-20T12:43:24.093Z"},{"id":"item-24e6c4e4e0d0","sku":"_dBCBCq7PAH9U-6FKzDp8PJZvGaaQDjYuktdSqlQ","name_en":"Burberry Women Bags","name_cn":"上身图","specs":{"source":"wsxcme","sourceId":"_dBCBCq7PAH9U-6FKzDp8PJZvGaaQDjYuktdSqlQ","sourceTagId":80411239,"sourceTagName":"巴宝莉/女包","rawTitle":"上身图"},"price":null,"currency":"CNY","moq":1,"category":"burberry-women-bags","status":"active","alibaba_url":null,"images":["https://xcimg.szwego.com/img/d5e7a5ce/20250404/a1743750549097_3431.jpg","https://xcimg.szwego.com/img/d5e7a5ce/20250404/a1743750549131_6164.jpg","https://xcimg.szwego.com/img/d5e7a5ce/20250404/a1743750549129_6701.jpg","https://xcimg.szwego.com/img/d5e7a5ce/20250404/a1743750549103_7802.jpg","https://xcimg.szwego.com/img/d5e7a5ce/20250404/a1743750549108_1535.jpg","https://xcimg.szwego.com/img/d5e7a5ce/20250404/a1743750549112_2288.jpg","https://xcimg.szwego.com/img/d5e7a5ce/20250404/a1743750549970_5085.jpg","https://xcimg.szwego.com/img/d5e7a5ce/20250404/a1743750549969_8375.jpg","https://xcimg.szwego.com/img/d5e7a5ce/20250404/a1743750549967_0256.jpg"],"created_at":"2026-06-29T10:27:58.712Z"},{"id":"item-2328b956e218","sku":"_dxSxS7QVLIwiHQ1OK-_4YIu0euyDBjBzqHqJDyw","name_en":"Burberry Women Bags","name_cn":"上身图","specs":{"source":"wsxcme","sourceId":"_dxSxS7QVLIwiHQ1OK-_4YIu0euyDBjBzqHqJDyw","sourceTagId":80411239,"sourceTagName":"巴宝莉/女包","rawTitle":"上身图"},"price":null,"currency":"CNY","moq":1,"category":"burberry-women-bags","status":"active","alibaba_url":null,"images":["https://xcimg.szwego.com/img/d5e7a5ce/20250915/a1757934133263_5885.jpg","https://xcimg.szwego.com/img/d5e7a5ce/20250915/a1757934133265_5425.jpg","https://xcimg.szwego.com/img/d5e7a5ce/20250915/a1757934133261_6076.jpg","https://xcimg.szwego.com/img/d5e7a5ce/20250915/a1757934133268_0773.jpg","https://xcimg.szwego.com/img/d5e7a5ce/20250915/a1757934133267_0067.jpg","https://xcimg.szwego.com/img/d5e7a5ce/20250915/a1757934133266_6264.jpg","https://xcimg.szwego.com/img/d5e7a5ce/20250915/a1757934137112_4644.jpg","https://xcimg.szwego.com/img/d5e7a5ce/20250915/a1757934137121_8426.jpg","https://xcimg.szwego.com/img/d5e7a5ce/20250915/a1757934137119_3731.jpg"],"created_at":"2026-06-29T10:27:58.762Z"},{"id":"item-22311e5b7a40","sku":"_dsWsWLvtssKyPkdqjX3zWPrjdkbhKAhKoqxFWhQ","name_en":"Burberry Women Bags","name_cn":"❤【鸵鸟纹棕色】\nLoro Piana Extra pocket L19系列 断货王\n\n不被定义的生活才最自在,就像loro piana的材质设计,不需要繁复设计的款式,简洁柔和的轮廓优雅耐看,像一只精美的化妆箱,完美兼顾了颜值和功能性。皮质细腻,手感像黄油一般柔软,小小包身大容量,不光是手提配细肩带还可以斜挎哦,对极简风情有独钟得姐妹可以入手啦,简约百搭,越简单越不同,明星ins网红都在种草,配上稀有的皮料很难不爱。\n\n尺寸:小号:长19×宽7×高12cm","specs":{"source":"wsxcme","sourceId":"_dsWsWLvtssKyPkdqjX3zWPrjdkbhKAhKoqxFWhQ","sourceTagId":80411239,"sourceTagName":"巴宝莉/女包","rawTitle":"❤【鸵鸟纹棕色】\nLoro Piana Extra pocket L19系列 断货王\n\n不被定义的生活才最自在,就像loro piana的材质设计,不需要繁复设计的款式,简洁柔和的轮廓优雅耐看,像一只精美的化妆箱,完美兼顾了颜值和功能性。皮质细腻,手感像黄油一般柔软,小小包身大容量,不光是手提配细肩带还可以斜挎哦,对极简风情有独钟得姐妹可以入手啦,简约百搭,越简单越不同,明星ins网红都在种草,配上稀有的皮料很难不爱。\n\n尺寸:小号:长19×宽7×高12cm"},"price":null,"currency":"CNY","moq":1,"category":"burberry-women-bags","status":"active","alibaba_url":null,"images":["https://xcimg.szwego.com/20230816/i1692176553_9452_0.jpg","https://xcimg.szwego.com/20230816/i1692176553_8725_1.jpg","https://xcimg.szwego.com/20230816/i1692176553_8150_2.jpg","https://xcimg.szwego.com/20230816/i1692176553_8348_3.jpg","https://xcimg.szwego.com/20230816/i1692176553_9247_4.jpg","https://xcimg.szwego.com/20230816/i1692176553_4382_5.jpg","https://xcimg.szwego.com/20230816/i1692176553_2003_6.jpg","https://xcimg.szwego.com/20230816/i1692176553_3356_7.jpg","https://xcimg.szwego.com/20230816/i1692176553_9120_8.jpg"],"created_at":"2025-01-20T12:43:24.096Z"},{"id":"item-212f4d837788","sku":"_dV1V1jNPwui0pEmDeCvQdIkCwjHHrkMiHfisNYg","name_en":"Burberry Women Bags","name_cn":"小号沙色上身效果","specs":{"source":"wsxcme","sourceId":"_dV1V1jNPwui0pEmDeCvQdIkCwjHHrkMiHfisNYg","sourceTagId":80411239,"sourceTagName":"巴宝莉/女包","rawTitle":"小号沙色上身效果"},"price":null,"currency":"CNY","moq":1,"category":"burberry-women-bags","status":"active","alibaba_url":null,"images":["https://xcimg.szwego.com/img/d5e7a5ce/20250304/a1741080062220_1228.jpg","https://xcimg.szwego.com/img/d5e7a5ce/20250304/a1741080062222_1345.jpg","https://xcimg.szwego.com/img/d5e7a5ce/20250304/a1741080062223_7622.jpg","https://xcimg.szwego.com/img/d5e7a5ce/20250304/a1741080062316_7787.jpg","https://xcimg.szwego.com/img/d5e7a5ce/20250304/a1741080062224_0858.jpg","https://xcimg.szwego.com/img/d5e7a5ce/20250304/a1741080062228_8035.jpg","https://xcimg.szwego.com/img/d5e7a5ce/20250304/a1741080063205_0470.jpg","https://xcimg.szwego.com/img/d5e7a5ce/20250304/a1741080063212_3502.jpg","https://xcimg.szwego.com/img/d5e7a5ce/20250304/a1741080063206_7317.jpg"],"created_at":"2026-06-29T10:29:02.799Z"},{"id":"item-1bfe02ee5782","sku":"_d-G-GCs_ACrEdsR76Sbd4Rouqlt5JROSawLsFAQ","name_en":"Burberry Women Bags","name_cn":"橘色平铺细节,这个色搭白裙子或者黑色衣服都很合适,不一样的感觉","specs":{"source":"wsxcme","sourceId":"_d-G-GCs_ACrEdsR76Sbd4Rouqlt5JROSawLsFAQ","sourceTagId":80411239,"sourceTagName":"巴宝莉/女包","rawTitle":"橘色平铺细节,这个色搭白裙子或者黑色衣服都很合适,不一样的感觉"},"price":null,"currency":"CNY","moq":1,"category":"burberry-women-bags","status":"active","alibaba_url":null,"images":["https://xcimg.szwego.com/20220808/i1659956674_1405_0.jpg","https://xcimg.szwego.com/20220808/i1659956674_9071_1.jpg","https://xcimg.szwego.com/20220808/i1659956674_6533_2.jpg","https://xcimg.szwego.com/20220808/i1659956674_4180_3.jpg","https://xcimg.szwego.com/20220808/i1659956674_621_4.jpg"],"created_at":"2025-01-20T12:43:24.110Z"},{"id":"item-1ad6746aa08a","sku":"_deCeC4hYdd6aLnubRvIZny_dHOW4zr-WjucHiGw","name_en":"Burberry Women Bags","name_cn":"配原装盒","specs":{"source":"wsxcme","sourceId":"_deCeC4hYdd6aLnubRvIZny_dHOW4zr-WjucHiGw","sourceTagId":80411239,"sourceTagName":"巴宝莉/女包","rawTitle":"配原装盒"},"price":null,"currency":"CNY","moq":1,"category":"burberry-women-bags","status":"active","alibaba_url":null,"images":["https://xcimg.szwego.com/imgHD/b7f85c57/20260330/cmp_i1774850359575_9994_0_0.jpg","https://xcimg.szwego.com/imgHD/b7f85c57/20260330/cmp_i1774850359876_234_0_1.jpg","https://xcimg.szwego.com/imgHD/b7f85c57/20260330/cmp_i1774850359863_6331_0_2.jpg"],"created_at":"2026-06-29T10:29:02.649Z"},{"id":"item-18a6049f90ce","sku":"_dAiAibjkx154d_zCTn_f5I7Y5o6P-w38_re7phQ","name_en":"Burberry Women Bags","name_cn":"来看实拍细节 质感看得见 整体效果 即可商务又可休闲  但是更偏向于上班一族  配可拆卸肩带 肩背手提 两用","specs":{"source":"wsxcme","sourceId":"_dAiAibjkx154d_zCTn_f5I7Y5o6P-w38_re7phQ","sourceTagId":80411239,"sourceTagName":"巴宝莉/女包","rawTitle":"来看实拍细节 质感看得见 整体效果 即可商务又可休闲  但是更偏向于上班一族  配可拆卸肩带 肩背手提 两用"},"price":null,"currency":"CNY","moq":1,"category":"burberry-women-bags","status":"active","alibaba_url":null,"images":["https://xcimg.szwego.com/20230222/i1677035254_8743_0.jpg","https://xcimg.szwego.com/20230222/i1677035254_8540_1.jpg","https://xcimg.szwego.com/20230222/i1677035254_1425_2.jpg","https://xcimg.szwego.com/20230222/i1677035254_7670_3.jpg","https://xcimg.szwego.com/20230222/i1677035254_7966_4.jpg","https://xcimg.szwego.com/20230222/i1677035254_2807_5.jpg","https://xcimg.szwego.com/20230222/i1677035254_3980_6.jpg","https://xcimg.szwego.com/20230222/i1677035254_2981_7.jpg","https://xcimg.szwego.com/20230222/i1677035254_7981_8.jpg"],"created_at":"2025-01-20T12:46:12.753Z"},{"id":"item-0f32f708379c","sku":"_ds2s2ozVKtLRhuz0fLZ3wk2S5rFcJdR-TKIz88A","name_en":"Burberry Women Bags","name_cn":"上身图","specs":{"source":"wsxcme","sourceId":"_ds2s2ozVKtLRhuz0fLZ3wk2S5rFcJdR-TKIz88A","sourceTagId":80411239,"sourceTagName":"巴宝莉/女包","rawTitle":"上身图"},"price":null,"currency":"CNY","moq":1,"category":"burberry-women-bags","status":"active","alibaba_url":null,"images":["https://xcimg.szwego.com/img/d5e7a5ce/20251114/a1763099309940_2671.jpg","https://xcimg.szwego.com/img/d5e7a5ce/20251114/a1763099309946_1645.jpg","https://xcimg.szwego.com/img/d5e7a5ce/20251114/a1763099309942_7685.jpg","https://xcimg.szwego.com/img/d5e7a5ce/20251114/a1763099309945_8188.jpg","https://xcimg.szwego.com/img/d5e7a5ce/20251114/a1763099309943_2830.jpg","https://xcimg.szwego.com/img/d5e7a5ce/20251114/a1763099309944_5087.jpg","https://xcimg.szwego.com/img/d5e7a5ce/20251114/a1763099310475_2120.jpg","https://xcimg.szwego.com/img/d5e7a5ce/20251114/a1763099310475_2447.jpg","https://xcimg.szwego.com/img/d5e7a5ce/20251114/a1763099310474_5853.jpg"],"created_at":"2026-06-29T10:29:03.029Z"}],"page":20,"pageSize":24,"total":493,"totalPages":21}
