{"items":[{"id":"item-6a659860c2b5","sku":"_daUaUwlJlzwGyjj62Rs1GZpa8m2ey40wVdMs_ng","name_en":"Lady 横版戴妃牛仔布","name_cn":"Lady 横版戴妃牛仔布","specs":{"source":"wsxcme","sourceId":"_daUaUwlJlzwGyjj62Rs1GZpa8m2ey40wVdMs_ng","sourceTagId":47002747,"sourceTagName":"迪奥/女包","rawTitle":"Lady 横版戴妃牛仔布"},"price":null,"currency":"CNY","moq":1,"category":"dior-women-bags","status":"active","alibaba_url":null,"images":["https://xcimg.szwego.com/20220813/i1660372094_3462_0.jpg"],"created_at":"2024-11-11T09:13:16.997Z"},{"id":"item-2b052d7d0717","sku":"_dQ3Q38IB3YVepyIG9NvdxOYJDNa3Zxa86UaPq8Q","name_en":"Lady 横版戴妃牛仔布小号","name_cn":"Lady 横版戴妃牛仔布小号\n22厘米","specs":{"source":"wsxcme","sourceId":"_dQ3Q38IB3YVepyIG9NvdxOYJDNa3Zxa86UaPq8Q","sourceTagId":47002747,"sourceTagName":"迪奥/女包","rawTitle":"Lady 横版戴妃牛仔布小号\n22厘米"},"price":null,"currency":"CNY","moq":1,"category":"dior-women-bags","status":"active","alibaba_url":null,"images":["https://xcimg.szwego.com/20230511/i1683786111_8911_0.jpg"],"created_at":"2024-11-11T09:13:16.995Z"},{"id":"item-d4ff34741d79","sku":"_drbrbREESI6s0rr94R3oeJzwNNdz6JjCBlme5Tg","name_en":"Lady 横版戴妃牛仔小号","name_cn":"Lady 横版戴妃牛仔小号\n22厘米","specs":{"source":"wsxcme","sourceId":"_drbrbREESI6s0rr94R3oeJzwNNdz6JjCBlme5Tg","sourceTagId":47002747,"sourceTagName":"迪奥/女包","rawTitle":"Lady 横版戴妃牛仔小号\n22厘米"},"price":null,"currency":"CNY","moq":1,"category":"dior-women-bags","status":"active","alibaba_url":null,"images":["https://xcimg.szwego.com/20230511/i1683785992_7949_0.jpg"],"created_at":"2024-11-11T09:13:16.996Z"},{"id":"item-9deac7712c46","sku":"_dGXGXfLjpdSGKcrkzo4ExszoE9JJqBtlMCZvCYg","name_en":"Lady 横版戴妃羊皮复古粉","name_cn":"Lady 横版戴妃羊皮复古粉","specs":{"source":"wsxcme","sourceId":"_dGXGXfLjpdSGKcrkzo4ExszoE9JJqBtlMCZvCYg","sourceTagId":47002747,"sourceTagName":"迪奥/女包","rawTitle":"Lady 横版戴妃羊皮复古粉"},"price":null,"currency":"CNY","moq":1,"category":"dior-women-bags","status":"active","alibaba_url":null,"images":["https://xcimg.szwego.com/20220818/i1660799968_1699_0.jpg"],"created_at":"2024-11-11T09:13:16.931Z"},{"id":"item-74b9f694fab4","sku":"_dMAMAt9KuHy5_xq_lS62Pv9dKlBAQgm2XYzdqeg","name_en":"Lady 横版戴妃羊皮奶茶色","name_cn":"Lady 横版戴妃羊皮奶茶色","specs":{"source":"wsxcme","sourceId":"_dMAMAt9KuHy5_xq_lS62Pv9dKlBAQgm2XYzdqeg","sourceTagId":47002747,"sourceTagName":"迪奥/女包","rawTitle":"Lady 横版戴妃羊皮奶茶色"},"price":null,"currency":"CNY","moq":1,"category":"dior-women-bags","status":"active","alibaba_url":null,"images":["https://xcimg.szwego.com/20220616/i1655343309_9875_0.jpg"],"created_at":"2024-11-11T09:13:16.932Z"},{"id":"item-94766ecabe56","sku":"_dwqwqZkwasg0dIsfjlObkMKfT9sc2g7laB7avqQ","name_en":"Lady 最新戴妃三格琳琅扣","name_cn":"Lady 最新戴妃三格琳琅扣","specs":{"source":"wsxcme","sourceId":"_dwqwqZkwasg0dIsfjlObkMKfT9sc2g7laB7avqQ","sourceTagId":47002747,"sourceTagName":"迪奥/女包","rawTitle":"Lady 最新戴妃三格琳琅扣"},"price":null,"currency":"CNY","moq":1,"category":"dior-women-bags","status":"active","alibaba_url":null,"images":["https://xcimg.szwego.com/img/2b46f204/20240525/i1716625866_1408_0.jpg"],"created_at":"2024-11-11T09:13:17.008Z"},{"id":"item-699fc1ac0445","sku":"_d9h9hvb3ITQHJy3yhlhoVEMBAgioPEXII5NN9tA","name_en":"Lady 最新戴妃四格琳琅扣","name_cn":"Lady 最新戴妃四格琳琅扣","specs":{"source":"wsxcme","sourceId":"_d9h9hvb3ITQHJy3yhlhoVEMBAgioPEXII5NN9tA","sourceTagId":47002747,"sourceTagName":"迪奥/女包","rawTitle":"Lady 最新戴妃四格琳琅扣"},"price":null,"currency":"CNY","moq":1,"category":"dior-women-bags","status":"active","alibaba_url":null,"images":["https://xcimg.szwego.com/img/2b46f204/20240525/i1716625814_4202_0.jpg"],"created_at":"2024-11-11T09:13:17.006Z"},{"id":"item-c0b4ff264a6e","sku":"_dUxUx55LAITre83fAIX3wKs2T7jQNjVXAPZ3tLA","name_en":"lady Dior 迷你戴妃包 酒红🍒金扣非常百搭,出席晚宴会让你大放光彩🌈一款值得入手的三格戴妃包!!️","name_cn":"lady Dior 迷你戴妃包 酒红🍒金扣非常百搭,出席晚宴会让你大放光彩🌈一款值得入手的三格戴妃包!!️","specs":{"source":"wsxcme","sourceId":"_dUxUx55LAITre83fAIX3wKs2T7jQNjVXAPZ3tLA","sourceTagId":47002747,"sourceTagName":"迪奥/女包","rawTitle":"lady Dior 迷你戴妃包 酒红🍒金扣非常百搭,出席晚宴会让你大放光彩🌈一款值得入手的三格戴妃包!!️"},"price":null,"currency":"CNY","moq":1,"category":"dior-women-bags","status":"active","alibaba_url":null,"images":["https://xcimg.szwego.com/20201116/i1605467416_1316_0","https://xcimg.szwego.com/20201116/i1605467416_6558_1","https://xcimg.szwego.com/20201116/i1605467416_5852_2","https://xcimg.szwego.com/20201116/i1605467416_6447_3","https://xcimg.szwego.com/20201116/i1605467416_8898_4","https://xcimg.szwego.com/20201116/i1605467417_3918_5","https://xcimg.szwego.com/20201116/i1605467417_3581_6","https://xcimg.szwego.com/20201116/i1605467417_2318_7","https://xcimg.szwego.com/20201116/i1605467417_5616_8"],"created_at":"2024-11-11T09:13:16.955Z"},{"id":"item-c8930057708d","sku":"_dfNfNsD7WSRZ7ihJapT9giDUq6JrZ25NhE0DWeA","name_en":"Lady dior四格羊皮戴妃包","name_cn":"Lady dior四格羊皮戴妃包\n💕牡丹粉最新配色\n💕好浪漫的颜色\n💕真的很治愈","specs":{"source":"wsxcme","sourceId":"_dfNfNsD7WSRZ7ihJapT9giDUq6JrZ25NhE0DWeA","sourceTagId":47002747,"sourceTagName":"迪奥/女包","rawTitle":"Lady dior四格羊皮戴妃包\n💕牡丹粉最新配色\n💕好浪漫的颜色\n💕真的很治愈"},"price":null,"currency":"CNY","moq":1,"category":"dior-women-bags","status":"active","alibaba_url":null,"images":["https://xcimg.szwego.com/20221130/i1669778013_5671_0.jpg","https://xcimg.szwego.com/20221130/i1669778013_685_1.jpg","https://xcimg.szwego.com/20221130/i1669778013_8965_2.jpg","https://xcimg.szwego.com/20221130/i1669778013_9443_3.jpg","https://xcimg.szwego.com/20221130/i1669778013_5560_4.jpg","https://xcimg.szwego.com/20221130/i1669778013_6478_5.jpg"],"created_at":"2024-11-11T09:13:16.951Z"},{"id":"item-eb111fb8f20d","sku":"_dOLOLpcMgIwlMM_IGmU_isaPFjTKd3FetTBUlFg","name_en":"Lady Dior藤格纹哑光小牛皮翻盖式手提包,连同五金链条手提全部是有质感的磨砂配色百搭又大气,Ultra mat饰面金属配饰。 可手提亦可肩背或斜挎","name_cn":"Lady Dior藤格纹哑光小牛皮翻盖式手提包,连同五金链条手提全部是有质感的磨砂配色百搭又大气,Ultra mat饰面金属配饰。 可手提亦可肩背或斜挎  \n尺寸:17cm\n款号:6603","specs":{"source":"wsxcme","sourceId":"_dOLOLpcMgIwlMM_IGmU_isaPFjTKd3FetTBUlFg","sourceTagId":47002747,"sourceTagName":"迪奥/女包","modelNumber":"6603","rawTitle":"Lady Dior藤格纹哑光小牛皮翻盖式手提包,连同五金链条手提全部是有质感的磨砂配色百搭又大气,Ultra mat饰面金属配饰。 可手提亦可肩背或斜挎  \n尺寸:17cm\n款号:6603"},"price":null,"currency":"CNY","moq":1,"category":"dior-women-bags","status":"active","alibaba_url":null,"images":["https://xcimg.szwego.com/20200611/i1591847077_6264_0.jpg","https://xcimg.szwego.com/20200611/i1591847077_7774_1.jpg","https://xcimg.szwego.com/20200611/i1591847077_4957_2.jpg","https://xcimg.szwego.com/20200611/i1591847077_6093_3.jpg","https://xcimg.szwego.com/20200611/i1591847077_4250_4.jpg","https://xcimg.szwego.com/20200611/i1591847077_7155_5.jpg","https://xcimg.szwego.com/20200611/i1591847077_1223_6.jpg","https://xcimg.szwego.com/20200611/i1591847077_4734_7.jpg","https://xcimg.szwego.com/20200611/i1591847077_6586_8.jpg"],"created_at":"2024-05-14T15:59:39.391Z"},{"id":"item-0a5e8a451bc9","sku":"_dfGfGd6s1QGhhYwQvAQd390jDyyp9kMlr7-G2UA","name_en":"Lady Dior藤格纹哑光小牛皮翻盖式手提包,连同五金链条手提全部是有质感的磨砂配色百搭又大气,Ultra mat饰面金属配饰。 可手提亦可肩背或斜挎","name_cn":"Lady Dior藤格纹哑光小牛皮翻盖式手提包,连同五金链条手提全部是有质感的磨砂配色百搭又大气,Ultra mat饰面金属配饰。 可手提亦可肩背或斜挎  \n尺寸:17cm。\n款号:6603","specs":{"source":"wsxcme","sourceId":"_dfGfGd6s1QGhhYwQvAQd390jDyyp9kMlr7-G2UA","sourceTagId":47002747,"sourceTagName":"迪奥/女包","modelNumber":"6603","rawTitle":"Lady Dior藤格纹哑光小牛皮翻盖式手提包,连同五金链条手提全部是有质感的磨砂配色百搭又大气,Ultra mat饰面金属配饰。 可手提亦可肩背或斜挎  \n尺寸:17cm。\n款号:6603"},"price":null,"currency":"CNY","moq":1,"category":"dior-women-bags","status":"active","alibaba_url":null,"images":["https://xcimg.szwego.com/20210110/i1610251326_1314_0.jpg","https://xcimg.szwego.com/20210110/i1610251326_5538_1.jpg","https://xcimg.szwego.com/20210110/i1610251326_1937_2.jpg","https://xcimg.szwego.com/20210110/i1610251326_7916_3.jpg","https://xcimg.szwego.com/20210110/i1610251326_7130_4.jpg","https://xcimg.szwego.com/20210110/i1610251326_976_5.jpg","https://xcimg.szwego.com/20210110/i1610251326_3864_6.jpg","https://xcimg.szwego.com/20210110/i1610251326_2184_7.jpg","https://xcimg.szwego.com/20210110/i1610251326_6166_8.jpg"],"created_at":"2024-05-14T15:59:39.394Z"},{"id":"item-f2f4f85281b4","sku":"_dBZBZjtQjtC4QcxAWom37xjW4WNN_bw23I4WBcQ","name_en":"Lady最新款五格蝴蝶结🎀戴妃包,采用小羊皮精心制作、人手一个必备的戴妃包😍。迷人优雅又气场十足💃🏻,斜挎手拎也是女人味十足,经典时尚风格。ins和众多时尚icon都人手一个的美包,别错过哦❤️","name_cn":"Lady最新款五格蝴蝶结🎀戴妃包,采用小羊皮精心制作、人手一个必备的戴妃包😍。迷人优雅又气场十足💃🏻,斜挎手拎也是女人味十足,经典时尚风格。ins和众多时尚icon都人手一个的美包,别错过哦❤️\nsize:24cm","specs":{"source":"wsxcme","sourceId":"_dBZBZjtQjtC4QcxAWom37xjW4WNN_bw23I4WBcQ","sourceTagId":47002747,"sourceTagName":"迪奥/女包","rawTitle":"Lady最新款五格蝴蝶结🎀戴妃包,采用小羊皮精心制作、人手一个必备的戴妃包😍。迷人优雅又气场十足💃🏻,斜挎手拎也是女人味十足,经典时尚风格。ins和众多时尚icon都人手一个的美包,别错过哦❤️\nsize:24cm"},"price":null,"currency":"CNY","moq":1,"category":"dior-women-bags","status":"active","alibaba_url":null,"images":["https://xcimg.szwego.com/img/78f636d9/20260622/i1782110333140_7712_0_0.jpg","https://xcimg.szwego.com/img/78f636d9/20260622/i1782110332286_2686_0_1.jpg","https://xcimg.szwego.com/img/78f636d9/20260622/i1782110333177_2755_0_2.jpg","https://xcimg.szwego.com/img/78f636d9/20260622/i1782110332340_125_0_3.jpg","https://xcimg.szwego.com/img/78f636d9/20260622/i1782110332275_1471_0_4.jpg","https://xcimg.szwego.com/img/78f636d9/20260622/i1782110332269_8599_0_5.jpg","https://xcimg.szwego.com/img/78f636d9/20260622/i1782110332971_2856_0_6.jpg","https://xcimg.szwego.com/img/78f636d9/20260622/i1782110332050_7391_0_7.jpg"],"created_at":"2026-06-29T10:40:47.643Z"},{"id":"item-d2f2fbaba6b1","sku":"_diYiYtgzFAqNvJaC2N_W9NEfwdWY8KzQ_c0n-tw","name_en":"Lady最新款五格蝴蝶结🎀戴妃包,采用小羊皮精心制作、人手一个必备的戴妃包😍。迷人优雅又气场十足💃🏻,斜挎手拎也是女人味十足,经典时尚风格。ins和众多时尚icon都人手一个的美包,别错过哦❤️","name_cn":"Lady最新款五格蝴蝶结🎀戴妃包,采用小羊皮精心制作、人手一个必备的戴妃包😍。迷人优雅又气场十足💃🏻,斜挎手拎也是女人味十足,经典时尚风格。ins和众多时尚icon都人手一个的美包,别错过哦❤️\nsize:24cm","specs":{"source":"wsxcme","sourceId":"_diYiYtgzFAqNvJaC2N_W9NEfwdWY8KzQ_c0n-tw","sourceTagId":47002747,"sourceTagName":"迪奥/女包","rawTitle":"Lady最新款五格蝴蝶结🎀戴妃包,采用小羊皮精心制作、人手一个必备的戴妃包😍。迷人优雅又气场十足💃🏻,斜挎手拎也是女人味十足,经典时尚风格。ins和众多时尚icon都人手一个的美包,别错过哦❤️\nsize:24cm"},"price":null,"currency":"CNY","moq":1,"category":"dior-women-bags","status":"active","alibaba_url":null,"images":["https://xcimg.szwego.com/img/78f636d9/20260622/i1782110454569_8096_0_0.jpg","https://xcimg.szwego.com/img/78f636d9/20260622/i1782110454577_4611_0_1.jpg","https://xcimg.szwego.com/img/78f636d9/20260622/i1782110454589_853_0_2.jpg","https://xcimg.szwego.com/img/78f636d9/20260622/i1782110453719_6936_0_3.jpg","https://xcimg.szwego.com/img/78f636d9/20260622/i1782110453680_3562_0_4.jpg","https://xcimg.szwego.com/img/78f636d9/20260622/i1782110453612_9869_0_5.jpg","https://xcimg.szwego.com/img/78f636d9/20260622/i1782110454407_2830_0_6.jpg","https://xcimg.szwego.com/img/78f636d9/20260622/i1782110453612_7772_0_7.jpg","https://xcimg.szwego.com/img/78f636d9/20260622/i1782110453656_8412_0_8.jpg"],"created_at":"2026-06-29T10:40:47.663Z"},{"id":"item-cc84f7dceae2","sku":"_d1r1rBDrBC9YcbOzN0c-Mj6XpHsWQg6lzR46rNw","name_en":"Lady最新款五格蝴蝶结🎀戴妃包,采用小羊皮精心制作、人手一个必备的戴妃包😍。迷人优雅又气场十足💃🏻,斜挎手拎也是女人味十足,经典时尚风格。ins和众多时尚icon都人手一个的美包,别错过哦❤️","name_cn":"Lady最新款五格蝴蝶结🎀戴妃包,采用小羊皮精心制作、人手一个必备的戴妃包😍。迷人优雅又气场十足💃🏻,斜挎手拎也是女人味十足,经典时尚风格。ins和众多时尚icon都人手一个的美包,别错过哦❤️\nsize:24cm","specs":{"source":"wsxcme","sourceId":"_d1r1rBDrBC9YcbOzN0c-Mj6XpHsWQg6lzR46rNw","sourceTagId":47002747,"sourceTagName":"迪奥/女包","rawTitle":"Lady最新款五格蝴蝶结🎀戴妃包,采用小羊皮精心制作、人手一个必备的戴妃包😍。迷人优雅又气场十足💃🏻,斜挎手拎也是女人味十足,经典时尚风格。ins和众多时尚icon都人手一个的美包,别错过哦❤️\nsize:24cm"},"price":null,"currency":"CNY","moq":1,"category":"dior-women-bags","status":"active","alibaba_url":null,"images":["https://xcimg.szwego.com/img/78f636d9/20260622/i1782110535291_7549_0_0.jpg","https://xcimg.szwego.com/img/78f636d9/20260622/i1782110536378_6630_0_1.jpg","https://xcimg.szwego.com/img/78f636d9/20260622/i1782110536342_4577_0_2.jpg","https://xcimg.szwego.com/img/78f636d9/20260622/i1782110535287_2511_0_3.jpg","https://xcimg.szwego.com/img/78f636d9/20260622/i1782110535286_1100_0_4.jpg","https://xcimg.szwego.com/img/78f636d9/20260622/i1782110536379_5312_0_5.jpg","https://xcimg.szwego.com/img/78f636d9/20260622/i1782110535245_8492_0_6.jpg","https://xcimg.szwego.com/img/78f636d9/20260622/i1782110536163_5851_0_7.jpg","https://xcimg.szwego.com/img/78f636d9/20260622/i1782110535249_484_0_8.jpg"],"created_at":"2026-06-29T10:40:47.683Z"},{"id":"item-a0b97fe60f17","sku":"_dl7l7HRU5AhB0MnPML8zdNM9BJGy-RPBLSHp8ew","name_en":"Lady最新款五格蝴蝶结🎀戴妃包,采用小羊皮精心制作、人手一个必备的戴妃包😍。迷人优雅又气场十足💃🏻,斜挎手拎也是女人味十足,经典时尚风格。ins和众多时尚icon都人手一个的美包,别错过哦❤️","name_cn":"Lady最新款五格蝴蝶结🎀戴妃包,采用小羊皮精心制作、人手一个必备的戴妃包😍。迷人优雅又气场十足💃🏻,斜挎手拎也是女人味十足,经典时尚风格。ins和众多时尚icon都人手一个的美包,别错过哦❤️\nsize:24cm","specs":{"source":"wsxcme","sourceId":"_dl7l7HRU5AhB0MnPML8zdNM9BJGy-RPBLSHp8ew","sourceTagId":47002747,"sourceTagName":"迪奥/女包","rawTitle":"Lady最新款五格蝴蝶结🎀戴妃包,采用小羊皮精心制作、人手一个必备的戴妃包😍。迷人优雅又气场十足💃🏻,斜挎手拎也是女人味十足,经典时尚风格。ins和众多时尚icon都人手一个的美包,别错过哦❤️\nsize:24cm"},"price":null,"currency":"CNY","moq":1,"category":"dior-women-bags","status":"active","alibaba_url":null,"images":["https://xcimg.szwego.com/img/2b46f204/20260406/i1775464878_4093_8.jpg","https://xcimg.szwego.com/img/2b46f204/20260406/i1775464878_2339_0.jpg","https://xcimg.szwego.com/img/2b46f204/20260406/i1775464878_7364_6.jpg","https://xcimg.szwego.com/img/2b46f204/20260406/i1775464878_5086_1.jpg","https://xcimg.szwego.com/img/2b46f204/20260406/i1775464878_8057_2.jpg","https://xcimg.szwego.com/img/2b46f204/20260406/i1775464878_3631_7.jpg","https://xcimg.szwego.com/img/2b46f204/20260406/i1775464878_3930_4.jpg","https://xcimg.szwego.com/img/2b46f204/20260406/i1775464878_5737_3.jpg","https://xcimg.szwego.com/img/2b46f204/20260406/i1775464878_3689_5.jpg"],"created_at":"2026-06-29T10:43:31.850Z"},{"id":"item-626e77382a88","sku":"_dvOvON3wn15BE2jGZRjIQhXkC0wP0fQffyb_juw","name_en":"Lady最新款五格蝴蝶结🎀戴妃包,采用小羊皮精心制作、人手一个必备的戴妃包😍。迷人优雅又气场十足💃🏻,斜挎手拎也是女人味十足,经典时尚风格。ins和众多时尚icon都人手一个的美包,别错过哦❤️","name_cn":"Lady最新款五格蝴蝶结🎀戴妃包,采用小羊皮精心制作、人手一个必备的戴妃包😍。迷人优雅又气场十足💃🏻,斜挎手拎也是女人味十足,经典时尚风格。ins和众多时尚icon都人手一个的美包,别错过哦❤️\nsize:24cm","specs":{"source":"wsxcme","sourceId":"_dvOvON3wn15BE2jGZRjIQhXkC0wP0fQffyb_juw","sourceTagId":47002747,"sourceTagName":"迪奥/女包","rawTitle":"Lady最新款五格蝴蝶结🎀戴妃包,采用小羊皮精心制作、人手一个必备的戴妃包😍。迷人优雅又气场十足💃🏻,斜挎手拎也是女人味十足,经典时尚风格。ins和众多时尚icon都人手一个的美包,别错过哦❤️\nsize:24cm"},"price":null,"currency":"CNY","moq":1,"category":"dior-women-bags","status":"active","alibaba_url":null,"images":["https://xcimg.szwego.com/img/78f636d9/20260622/i1782110433535_8193_0_0.jpg","https://xcimg.szwego.com/img/78f636d9/20260622/i1782110432456_9556_0_1.jpg","https://xcimg.szwego.com/img/78f636d9/20260622/i1782110432457_4833_0_2.jpg","https://xcimg.szwego.com/img/78f636d9/20260622/i1782110432459_4386_0_3.jpg","https://xcimg.szwego.com/img/78f636d9/20260622/i1782110433500_9036_0_4.jpg","https://xcimg.szwego.com/img/78f636d9/20260622/i1782110433521_3581_0_5.jpg","https://xcimg.szwego.com/img/78f636d9/20260622/i1782110432211_181_0_6.jpg","https://xcimg.szwego.com/img/78f636d9/20260622/i1782110433341_9092_0_7.jpg","https://xcimg.szwego.com/img/78f636d9/20260622/i1782110432392_2967_0_8.jpg"],"created_at":"2026-06-29T10:40:47.653Z"},{"id":"item-2e7ec3c6ed2b","sku":"_df3f32Io1mc5zRLIDuhwXFfu-fdlGeD2lKYj4lA","name_en":"Lady最新款五格蝴蝶结🎀戴妃包,采用小羊皮精心制作、人手一个必备的戴妃包😍。迷人优雅又气场十足💃🏻,斜挎手拎也是女人味十足,经典时尚风格。ins和众多时尚icon都人手一个的美包,别错过哦❤️","name_cn":"Lady最新款五格蝴蝶结🎀戴妃包,采用小羊皮精心制作、人手一个必备的戴妃包😍。迷人优雅又气场十足💃🏻,斜挎手拎也是女人味十足,经典时尚风格。ins和众多时尚icon都人手一个的美包,别错过哦❤️\nsize:24cm","specs":{"source":"wsxcme","sourceId":"_df3f32Io1mc5zRLIDuhwXFfu-fdlGeD2lKYj4lA","sourceTagId":47002747,"sourceTagName":"迪奥/女包","rawTitle":"Lady最新款五格蝴蝶结🎀戴妃包,采用小羊皮精心制作、人手一个必备的戴妃包😍。迷人优雅又气场十足💃🏻,斜挎手拎也是女人味十足,经典时尚风格。ins和众多时尚icon都人手一个的美包,别错过哦❤️\nsize:24cm"},"price":null,"currency":"CNY","moq":1,"category":"dior-women-bags","status":"active","alibaba_url":null,"images":["https://xcimg.szwego.com/img/78f636d9/20260622/i1782110477687_3900_0_0.jpg","https://xcimg.szwego.com/img/78f636d9/20260622/i1782110477285_42_0_1.jpg","https://xcimg.szwego.com/img/78f636d9/20260622/i1782110477277_5713_0_2.jpg","https://xcimg.szwego.com/img/78f636d9/20260622/i1782110477506_9973_0_3.jpg","https://xcimg.szwego.com/img/78f636d9/20260622/i1782110477269_498_0_4.jpg","https://xcimg.szwego.com/img/78f636d9/20260622/i1782110477737_8975_0_5.jpg","https://xcimg.szwego.com/img/78f636d9/20260622/i1782110477096_3392_0_6.jpg","https://xcimg.szwego.com/img/78f636d9/20260622/i1782110477096_6776_0_7.jpg","https://xcimg.szwego.com/img/78f636d9/20260622/i1782110477699_363_0_8.jpg"],"created_at":"2026-06-29T10:40:47.673Z"},{"id":"item-27764838b7c4","sku":"_d8J8JZidm3GF5wViRTYzHOlpvOaP5d_-WJd0zKg","name_en":"Lady最新款五格蝴蝶结🎀戴妃包,采用小羊皮精心制作、人手一个必备的戴妃包😍。迷人优雅又气场十足💃🏻,斜挎手拎也是女人味十足,经典时尚风格。ins和众多时尚icon都人手一个的美包,别错过哦❤️","name_cn":"Lady最新款五格蝴蝶结🎀戴妃包,采用小羊皮精心制作、人手一个必备的戴妃包😍。迷人优雅又气场十足💃🏻,斜挎手拎也是女人味十足,经典时尚风格。ins和众多时尚icon都人手一个的美包,别错过哦❤️\nsize:24cm","specs":{"source":"wsxcme","sourceId":"_d8J8JZidm3GF5wViRTYzHOlpvOaP5d_-WJd0zKg","sourceTagId":47002747,"sourceTagName":"迪奥/女包","rawTitle":"Lady最新款五格蝴蝶结🎀戴妃包,采用小羊皮精心制作、人手一个必备的戴妃包😍。迷人优雅又气场十足💃🏻,斜挎手拎也是女人味十足,经典时尚风格。ins和众多时尚icon都人手一个的美包,别错过哦❤️\nsize:24cm"},"price":null,"currency":"CNY","moq":1,"category":"dior-women-bags","status":"active","alibaba_url":null,"images":["https://xcimg.szwego.com/img/78f636d9/20260622/i1782110309883_1265_0_0.jpg","https://xcimg.szwego.com/img/78f636d9/20260622/i1782110309906_3040_0_1.jpg","https://xcimg.szwego.com/img/78f636d9/20260622/i1782110311190_8072_0_2.jpg","https://xcimg.szwego.com/img/78f636d9/20260622/i1782110309840_4891_0_3.jpg","https://xcimg.szwego.com/img/78f636d9/20260622/i1782110311169_4649_0_4.jpg","https://xcimg.szwego.com/img/78f636d9/20260622/i1782110309876_921_0_5.jpg","https://xcimg.szwego.com/img/78f636d9/20260622/i1782110311124_8905_0_6.jpg","https://xcimg.szwego.com/img/78f636d9/20260622/i1782110309870_5983_0_7.jpg","https://xcimg.szwego.com/img/78f636d9/20260622/i1782110311161_391_0_8.jpg"],"created_at":"2026-06-29T10:40:47.633Z"},{"id":"item-2242352a3328","sku":"_dgAgA2-FA1XYcKc1PrZge8OzSc3S9xwGUhHHKGQ","name_en":"Lady最新款五格蝴蝶结🎀戴妃包,采用小羊皮精心制作、人手一个必备的戴妃包😍。迷人优雅又气场十足💃🏻,斜挎手拎也是女人味十足,经典时尚风格。ins和众多时尚icon都人手一个的美包,别错过哦❤️","name_cn":"Lady最新款五格蝴蝶结🎀戴妃包,采用小羊皮精心制作、人手一个必备的戴妃包😍。迷人优雅又气场十足💃🏻,斜挎手拎也是女人味十足,经典时尚风格。ins和众多时尚icon都人手一个的美包,别错过哦❤️\nsize:24cm","specs":{"source":"wsxcme","sourceId":"_dgAgA2-FA1XYcKc1PrZge8OzSc3S9xwGUhHHKGQ","sourceTagId":47002747,"sourceTagName":"迪奥/女包","rawTitle":"Lady最新款五格蝴蝶结🎀戴妃包,采用小羊皮精心制作、人手一个必备的戴妃包😍。迷人优雅又气场十足💃🏻,斜挎手拎也是女人味十足,经典时尚风格。ins和众多时尚icon都人手一个的美包,别错过哦❤️\nsize:24cm"},"price":null,"currency":"CNY","moq":1,"category":"dior-women-bags","status":"active","alibaba_url":null,"images":["https://xcimg.szwego.com/img/78f636d9/20260622/i1782110218786_7956_0_0.jpg","https://xcimg.szwego.com/img/78f636d9/20260622/i1782110218764_8582_0_1.jpg","https://xcimg.szwego.com/img/78f636d9/20260622/i1782110220334_7243_0_2.jpg","https://xcimg.szwego.com/img/78f636d9/20260622/i1782110218798_6740_0_3.jpg","https://xcimg.szwego.com/img/78f636d9/20260622/i1782110218779_1056_0_4.jpg","https://xcimg.szwego.com/img/78f636d9/20260622/i1782110220288_5674_0_5.jpg","https://xcimg.szwego.com/img/78f636d9/20260622/i1782110218700_6242_0_6.jpg","https://xcimg.szwego.com/img/78f636d9/20260622/i1782110220157_8737_0_7.jpg","https://xcimg.szwego.com/img/78f636d9/20260622/i1782110220348_9348_0_8.jpg"],"created_at":"2026-06-29T10:40:47.623Z"},{"id":"item-c2530d109a90","sku":"_dq9q9cQl43Ca1CZptLX9667LP9wfuak6Mto3j3w","name_en":"MONTAIGNE 链条包","name_cn":"MONTAIGNE 链条包\nM9208\n\nM 30 Montaigne 产品系列灵感源自蒙田大道三十号,彰显经典标识。这款手袋采用提花面料 Oblique 印花精心装饰,打造优雅经典的造型。翻盖饰以复古金色饰面金属 CD 扣环,灵感源自 Christian Dior 香水瓶的封口。背面 30 Montaigne 压花标志等高雅的细节,突显时尚的设计。搭配可调节的皮革肩带,可手提、肩背或斜挎。\n\n尺寸:25 x 16.5 x 8 厘米","specs":{"source":"wsxcme","sourceId":"_dq9q9cQl43Ca1CZptLX9667LP9wfuak6Mto3j3w","sourceTagId":47002747,"sourceTagName":"迪奥/女包","dimensions":{"lengthCm":25,"heightCm":16.5,"widthCm":8},"rawTitle":"MONTAIGNE 链条包\nM9208\n\nM 30 Montaigne 产品系列灵感源自蒙田大道三十号,彰显经典标识。这款手袋采用提花面料 Oblique 印花精心装饰,打造优雅经典的造型。翻盖饰以复古金色饰面金属 CD 扣环,灵感源自 Christian Dior 香水瓶的封口。背面 30 Montaigne 压花标志等高雅的细节,突显时尚的设计。搭配可调节的皮革肩带,可手提、肩背或斜挎。\n\n尺寸:25 x 16.5 x 8 厘米"},"price":null,"currency":"CNY","moq":1,"category":"dior-women-bags","status":"active","alibaba_url":null,"images":["https://xcimg.szwego.com/img/09e84e8a/20240322/a1711038356058_2821.jpg","https://xcimg.szwego.com/img/09e84e8a/20240322/a1711038356045_7015.jpg","https://xcimg.szwego.com/img/09e84e8a/20240322/a1711038356259_5245.jpg","https://xcimg.szwego.com/img/09e84e8a/20240322/a1711038356111_5236.jpg","https://xcimg.szwego.com/img/09e84e8a/20240322/a1711038356079_5835.jpg","https://xcimg.szwego.com/img/09e84e8a/20240322/a1711038356110_0186.jpg","https://xcimg.szwego.com/img/09e84e8a/20240322/a1711038358147_2328.jpg","https://xcimg.szwego.com/img/09e84e8a/20240322/a1711038358080_2218.jpg","https://xcimg.szwego.com/img/09e84e8a/20240322/a1711038358079_3681.jpg"],"created_at":"2025-02-08T13:30:59.060Z"},{"id":"item-29b4ab7d1775","sku":"_d8_8_f4s2mLkzHKm7XerfjEFTBRQEVLSEzgwmLQ","name_en":"MONTAIGNE 皮肩带 M9203","name_cn":"MONTAIGNE 皮肩带 M9203\n\nM 30 Montaigne 产品系列灵感源自蒙田大道三十号,彰显经典标识。这款手袋采用提花面料 Oblique 印花精心装饰,打造优雅经典的造型。翻盖饰以复古金色饰面金属 CD 扣环,灵感源自 Christian Dior 香水瓶的封口。背面 30 Montaigne 压花标志等高雅的细节,突显时尚的设计。搭配可调节的皮革肩带,可手提、肩背或斜挎。\n\n尺寸:24 x 17 x 8 厘米","specs":{"source":"wsxcme","sourceId":"_d8_8_f4s2mLkzHKm7XerfjEFTBRQEVLSEzgwmLQ","sourceTagId":47002747,"sourceTagName":"迪奥/女包","dimensions":{"lengthCm":24,"heightCm":17,"widthCm":8},"rawTitle":"MONTAIGNE 皮肩带 M9203\n\nM 30 Montaigne 产品系列灵感源自蒙田大道三十号,彰显经典标识。这款手袋采用提花面料 Oblique 印花精心装饰,打造优雅经典的造型。翻盖饰以复古金色饰面金属 CD 扣环,灵感源自 Christian Dior 香水瓶的封口。背面 30 Montaigne 压花标志等高雅的细节,突显时尚的设计。搭配可调节的皮革肩带,可手提、肩背或斜挎。\n\n尺寸:24 x 17 x 8 厘米"},"price":null,"currency":"CNY","moq":1,"category":"dior-women-bags","status":"active","alibaba_url":null,"images":["https://xcimg.szwego.com/img/09e84e8a/20240322/a1711038469482_8087.jpg","https://xcimg.szwego.com/img/09e84e8a/20240322/a1711038469450_5840.jpg","https://xcimg.szwego.com/img/09e84e8a/20240322/a1711038469456_2518.jpg","https://xcimg.szwego.com/img/09e84e8a/20240322/a1711038469478_2265.jpg","https://xcimg.szwego.com/img/09e84e8a/20240322/a1711038469604_7068.jpg","https://xcimg.szwego.com/img/09e84e8a/20240322/a1711038469531_5435.jpg","https://xcimg.szwego.com/img/09e84e8a/20240322/a1711038470674_0700.jpg","https://xcimg.szwego.com/img/09e84e8a/20240322/a1711038470693_1147.jpg","https://xcimg.szwego.com/img/09e84e8a/20240322/a1711038470683_5328.jpg"],"created_at":"2025-02-08T13:31:18.778Z"},{"id":"item-5a1f5ef9e14a","sku":"_desesHQzTW_9zUTSlK2E8nVzZJb9vAeCQ_UvEnw","name_en":"Tote最新秋冬系列,被种草了这个包,可以背的托特来了,既保留了包型的简洁,又兼具了大包的大容量,既可手拎又可斜跨,完全满足日常出行需求,经典的老花刺绣,标志性的字母,时尚百搭又满满的复古气息","name_cn":"Tote最新秋冬系列,被种草了这个包,可以背的托特来了,既保留了包型的简洁,又兼具了大包的大容量,既可手拎又可斜跨,完全满足日常出行需求,经典的老花刺绣,标志性的字母,时尚百搭又满满的复古气息\nsize:27*11*14cm\n7002","specs":{"source":"wsxcme","sourceId":"_desesHQzTW_9zUTSlK2E8nVzZJb9vAeCQ_UvEnw","sourceTagId":47002747,"sourceTagName":"迪奥/女包","rawTitle":"Tote最新秋冬系列,被种草了这个包,可以背的托特来了,既保留了包型的简洁,又兼具了大包的大容量,既可手拎又可斜跨,完全满足日常出行需求,经典的老花刺绣,标志性的字母,时尚百搭又满满的复古气息\nsize:27*11*14cm\n7002"},"price":null,"currency":"CNY","moq":1,"category":"dior-women-bags","status":"active","alibaba_url":null,"images":["https://xcimg.szwego.com/img/2b46f204/20240614/i1718354317_8942_8.jpg","https://xcimg.szwego.com/img/2b46f204/20240614/i1718354317_4466_4.jpg","https://xcimg.szwego.com/img/2b46f204/20240614/i1718354317_6187_2.jpg","https://xcimg.szwego.com/img/2b46f204/20240614/i1718354317_9526_3.jpg","https://xcimg.szwego.com/img/2b46f204/20240614/i1718354317_2190_0.jpg","https://xcimg.szwego.com/img/2b46f204/20240614/i1718354317_8692_1.jpg","https://xcimg.szwego.com/img/2b46f204/20240614/i1718354317_2853_6.jpg","https://xcimg.szwego.com/img/2b46f204/20240614/i1718354317_5084_5.jpg","https://xcimg.szwego.com/img/2b46f204/20240614/i1718354317_756_7.jpg"],"created_at":"2024-11-26T11:47:46.753Z"},{"id":"item-c2290c9384ec","sku":"_dwNwN4YoxgaQuTYMGO79FD9R1t9V1synoHpu4Yg","name_en":"Toujours竖版系列小号,专属菜篮子,有点太美了,高颜值包包,轻松拿捏高级感,超大菱格的设计,搭配经典的字母配饰,摩登时尚感十足,包身结构十分柔软,小牛皮材质高级感满满,别具一格的扣饰扣合时侧面可折叠,自带长肩带,实用度满分,容量也非常nice,日常出行物品统统放得下","name_cn":"Toujours竖版系列小号,专属菜篮子,有点太美了,高颜值包包,轻松拿捏高级感,超大菱格的设计,搭配经典的字母配饰,摩登时尚感十足,包身结构十分柔软,小牛皮材质高级感满满,别具一格的扣饰扣合时侧面可折叠,自带长肩带,实用度满分,容量也非常nice,日常出行物品统统放得下\nsize:16*12*18cm\n型号:2835","specs":{"source":"wsxcme","sourceId":"_dwNwN4YoxgaQuTYMGO79FD9R1t9V1synoHpu4Yg","sourceTagId":47002747,"sourceTagName":"迪奥/女包","modelNumber":"2835","rawTitle":"Toujours竖版系列小号,专属菜篮子,有点太美了,高颜值包包,轻松拿捏高级感,超大菱格的设计,搭配经典的字母配饰,摩登时尚感十足,包身结构十分柔软,小牛皮材质高级感满满,别具一格的扣饰扣合时侧面可折叠,自带长肩带,实用度满分,容量也非常nice,日常出行物品统统放得下\nsize:16*12*18cm\n型号:2835"},"price":null,"currency":"CNY","moq":1,"category":"dior-women-bags","status":"active","alibaba_url":null,"images":["https://xcimg.szwego.com/img/66f5b26e/20250107/a1736226987234_5435.jpg","https://xcimg.szwego.com/img/66f5b26e/20250107/a1736226987278_1780.jpg","https://xcimg.szwego.com/img/66f5b26e/20250107/a1736226987219_0666.jpg","https://xcimg.szwego.com/img/66f5b26e/20250107/a1736226987288_0501.jpg","https://xcimg.szwego.com/img/66f5b26e/20250107/a1736226987099_6363.jpg","https://xcimg.szwego.com/img/66f5b26e/20250107/a1736226987578_0305.jpg","https://xcimg.szwego.com/img/66f5b26e/20250107/a1736226989919_4146.jpg","https://xcimg.szwego.com/img/66f5b26e/20250107/a1736226990103_8383.jpg","https://xcimg.szwego.com/img/66f5b26e/20250107/a1736226989639_2116.jpg"],"created_at":"2025-03-08T13:30:15.503Z"},{"id":"item-06242aa62d08","sku":"_djkjkdmKKsZjrIe6Ud6kKZ2DF1Wr8AxUkHtvs0g","name_en":"Toujours竖版系列小号,专属菜篮子,有点太美了,高颜值包包,轻松拿捏高级感,超大菱格的设计,搭配经典的字母配饰,摩登时尚感十足,包身结构十分柔软,小牛皮材质高级感满满,别具一格的扣饰扣合时侧面可折叠,自带长肩带,实用度满分,容量也非常nice,日常出行物品统统放得下","name_cn":"Toujours竖版系列小号,专属菜篮子,有点太美了,高颜值包包,轻松拿捏高级感,超大菱格的设计,搭配经典的字母配饰,摩登时尚感十足,包身结构十分柔软,小牛皮材质高级感满满,别具一格的扣饰扣合时侧面可折叠,自带长肩带,实用度满分,容量也非常nice,日常出行物品统统放得下\nsize:16*12*18cm","specs":{"source":"wsxcme","sourceId":"_djkjkdmKKsZjrIe6Ud6kKZ2DF1Wr8AxUkHtvs0g","sourceTagId":47002747,"sourceTagName":"迪奥/女包","rawTitle":"Toujours竖版系列小号,专属菜篮子,有点太美了,高颜值包包,轻松拿捏高级感,超大菱格的设计,搭配经典的字母配饰,摩登时尚感十足,包身结构十分柔软,小牛皮材质高级感满满,别具一格的扣饰扣合时侧面可折叠,自带长肩带,实用度满分,容量也非常nice,日常出行物品统统放得下\nsize:16*12*18cm"},"price":null,"currency":"CNY","moq":1,"category":"dior-women-bags","status":"active","alibaba_url":null,"images":["https://xcimg.szwego.com/img/66f5b26e/20250110/a1736493935142_3224.jpg","https://xcimg.szwego.com/img/66f5b26e/20250110/a1736493935243_3406.jpg","https://xcimg.szwego.com/img/66f5b26e/20250110/a1736493935271_8121.jpg","https://xcimg.szwego.com/img/66f5b26e/20250110/a1736493935263_8041.jpg","https://xcimg.szwego.com/img/66f5b26e/20250110/a1736493935397_4511.jpg","https://xcimg.szwego.com/img/66f5b26e/20250110/a1736493935447_4734.jpg","https://xcimg.szwego.com/img/66f5b26e/20250110/a1736493936672_1372.jpg","https://xcimg.szwego.com/img/66f5b26e/20250110/a1736493937075_8642.jpg","https://xcimg.szwego.com/img/66f5b26e/20250110/a1736493937660_2314.jpg"],"created_at":"2025-03-08T13:30:32.882Z"}],"page":40,"pageSize":24,"total":961,"totalPages":41}
