{"items":[{"id":"item-21ddd0e57f0d","sku":"_dododAJVm7c-2QOHdA4CwKwzxpJ0SmGoGQJkdxg","name_en":"『Celine 赛琳』","name_cn":"『Celine 赛琳』\n\nbox24cm  焦糖色\n\n经典款一直不过时💥\n头层牛皮配定制五金\n内侧拉链口袋和双层扁平口袋\n非常有质感的一款包🛍\n尺寸:24×18×7cm","specs":{"source":"wsxcme","sourceId":"_dododAJVm7c-2QOHdA4CwKwzxpJ0SmGoGQJkdxg","sourceTagId":47003106,"sourceTagName":"塞琳/女包","dimensions":{"lengthCm":24,"heightCm":18,"widthCm":7},"rawTitle":"『Celine 赛琳』\n\nbox24cm  焦糖色\n\n经典款一直不过时💥\n头层牛皮配定制五金\n内侧拉链口袋和双层扁平口袋\n非常有质感的一款包🛍\n尺寸:24×18×7cm"},"price":null,"currency":"CNY","moq":1,"category":"celine-women-bags","status":"active","alibaba_url":null,"images":["https://xcimg.szwego.com/20201130/i1606724499_2757_0.jpg","https://xcimg.szwego.com/20201130/i1606724499_5284_1.jpg","https://xcimg.szwego.com/20201130/i1606724499_8084_2.jpg","https://xcimg.szwego.com/20201130/i1606724499_3887_3.jpg","https://xcimg.szwego.com/20201130/i1606724499_252_4.jpg","https://xcimg.szwego.com/20201130/i1606724499_1850_5.jpg","https://xcimg.szwego.com/20201130/i1606724499_4857_6.jpg","https://xcimg.szwego.com/20201130/i1606724499_9138_7.jpg","https://xcimg.szwego.com/20201130/i1606724499_8440_8.jpg"],"created_at":"2025-02-08T12:47:15.863Z"},{"id":"item-1a3f07cdcda6","sku":"_dtGtGkjz2GDSG75DFi2rbW-0uCT_D9WcAncMqbA","name_en":"『Celine 赛琳』","name_cn":"『Celine 赛琳』\n\nbox24cm  黑色\n\n经典款一直不过时💥\n头层牛皮配定制五金\n内侧拉链口袋和双层扁平口袋\n非常有质感的一款包🛍\n尺寸:24×18×7cm","specs":{"source":"wsxcme","sourceId":"_dtGtGkjz2GDSG75DFi2rbW-0uCT_D9WcAncMqbA","sourceTagId":47003106,"sourceTagName":"塞琳/女包","dimensions":{"lengthCm":24,"heightCm":18,"widthCm":7},"rawTitle":"『Celine 赛琳』\n\nbox24cm  黑色\n\n经典款一直不过时💥\n头层牛皮配定制五金\n内侧拉链口袋和双层扁平口袋\n非常有质感的一款包🛍\n尺寸:24×18×7cm"},"price":null,"currency":"CNY","moq":1,"category":"celine-women-bags","status":"active","alibaba_url":null,"images":["https://xcimg.szwego.com/20201130/i1606724626_6632_0.jpg","https://xcimg.szwego.com/20201130/i1606724626_1722_1.jpg","https://xcimg.szwego.com/20201130/i1606724626_1603_2.jpg","https://xcimg.szwego.com/20201130/i1606724626_4309_3.jpg","https://xcimg.szwego.com/20201130/i1606724626_2507_4.jpg","https://xcimg.szwego.com/20201130/i1606724626_703_5.jpg","https://xcimg.szwego.com/20201130/i1606724626_3168_6.jpg","https://xcimg.szwego.com/20201130/i1606724626_3846_7.jpg","https://xcimg.szwego.com/20201130/i1606724626_6691_8.jpg"],"created_at":"2025-02-08T12:47:15.862Z"},{"id":"item-f4308e347dce","sku":"_d9h9hvb3ITQDIyH2olR0QFMBBgScEEXII5NN9tA","name_en":"『Celine 赛琳』","name_cn":"『Celine 赛琳』\n\nbox24cm  奶昔白银扣\n\n经典款一直不过时💥\n头层牛皮配定制五金\n内侧拉链口袋和双层扁平口袋\n非常有质感的一款包🛍\n尺寸:24×18×7cm","specs":{"source":"wsxcme","sourceId":"_d9h9hvb3ITQDIyH2olR0QFMBBgScEEXII5NN9tA","sourceTagId":47003106,"sourceTagName":"塞琳/女包","dimensions":{"lengthCm":24,"heightCm":18,"widthCm":7},"rawTitle":"『Celine 赛琳』\n\nbox24cm  奶昔白银扣\n\n经典款一直不过时💥\n头层牛皮配定制五金\n内侧拉链口袋和双层扁平口袋\n非常有质感的一款包🛍\n尺寸:24×18×7cm"},"price":null,"currency":"CNY","moq":1,"category":"celine-women-bags","status":"active","alibaba_url":null,"images":["https://xcimg.szwego.com/20201130/i1606723636_2070_0.jpg","https://xcimg.szwego.com/20201130/i1606723636_9306_1.jpg","https://xcimg.szwego.com/20201130/i1606723636_8188_2.jpg","https://xcimg.szwego.com/20201130/i1606723636_540_3.jpg","https://xcimg.szwego.com/20201130/i1606723645_7268_0.jpg","https://xcimg.szwego.com/20201130/i1606723636_5425_4.jpg","https://xcimg.szwego.com/20201130/i1606723636_1490_5.jpg","https://xcimg.szwego.com/20201130/i1606723636_8893_6.jpg","https://xcimg.szwego.com/20201130/i1606723636_4558_7.jpg"],"created_at":"2025-02-08T12:47:15.861Z"},{"id":"item-3e307d43b70b","sku":"_dAGAGIwJOW2XqVzNtso16RrQAddCmsu4FrtW1EA","name_en":"『Celine 赛琳』","name_cn":"『Celine 赛琳』\n\nbox24cm  墨绿色\n\n经典款一直不过时💥\n头层牛皮配定制五金\n内侧拉链口袋和双层扁平口袋\n非常有质感的一款包🛍\n尺寸:24×18×7cm","specs":{"source":"wsxcme","sourceId":"_dAGAGIwJOW2XqVzNtso16RrQAddCmsu4FrtW1EA","sourceTagId":47003106,"sourceTagName":"塞琳/女包","dimensions":{"lengthCm":24,"heightCm":18,"widthCm":7},"rawTitle":"『Celine 赛琳』\n\nbox24cm  墨绿色\n\n经典款一直不过时💥\n头层牛皮配定制五金\n内侧拉链口袋和双层扁平口袋\n非常有质感的一款包🛍\n尺寸:24×18×7cm"},"price":null,"currency":"CNY","moq":1,"category":"celine-women-bags","status":"active","alibaba_url":null,"images":["https://xcimg.szwego.com/20201130/i1606723371_8406_0.jpg","https://xcimg.szwego.com/20201130/i1606723371_2547_1.jpg","https://xcimg.szwego.com/20201130/i1606723371_8606_2.jpg","https://xcimg.szwego.com/20201130/i1606723371_9984_3.jpg","https://xcimg.szwego.com/20201130/i1606723371_4557_4.jpg","https://xcimg.szwego.com/20201130/i1606723371_8877_5.jpg","https://xcimg.szwego.com/20201130/i1606723371_2480_6.jpg","https://xcimg.szwego.com/20201130/i1606723371_6495_7.jpg","https://xcimg.szwego.com/20201130/i1606723371_5287_8.jpg"],"created_at":"2025-02-08T12:47:15.860Z"},{"id":"item-b78f61642acc","sku":"_dlLlL5rcDWiMhs0tMFWWIKeIDyosKxVFU-EO7tA","name_en":"『Celine 赛琳』","name_cn":"『Celine 赛琳』\n\nbox24cm  抹茶绿\n\n经典款一直不过时💥\n头层牛皮配定制五金\n内侧拉链口袋和双层扁平口袋\n非常有质感的一款包🛍\n尺寸:24×18×7cm","specs":{"source":"wsxcme","sourceId":"_dlLlL5rcDWiMhs0tMFWWIKeIDyosKxVFU-EO7tA","sourceTagId":47003106,"sourceTagName":"塞琳/女包","dimensions":{"lengthCm":24,"heightCm":18,"widthCm":7},"rawTitle":"『Celine 赛琳』\n\nbox24cm  抹茶绿\n\n经典款一直不过时💥\n头层牛皮配定制五金\n内侧拉链口袋和双层扁平口袋\n非常有质感的一款包🛍\n尺寸:24×18×7cm"},"price":null,"currency":"CNY","moq":1,"category":"celine-women-bags","status":"active","alibaba_url":null,"images":["https://xcimg.szwego.com/20201130/i1606723309_9756_0.jpg","https://xcimg.szwego.com/20201130/i1606723309_7602_1.jpg","https://xcimg.szwego.com/20201130/i1606723309_7391_2.jpg","https://xcimg.szwego.com/20201130/i1606723309_2146_3.jpg","https://xcimg.szwego.com/20201130/i1606723309_1705_4.jpg","https://xcimg.szwego.com/20201130/i1606723309_5158_5.jpg","https://xcimg.szwego.com/20201130/i1606723309_3086_6.jpg","https://xcimg.szwego.com/20201130/i1606723309_4102_7.jpg","https://xcimg.szwego.com/20201130/i1606723309_885_8.jpg"],"created_at":"2025-02-08T12:47:15.859Z"},{"id":"item-18f0e02b97c8","sku":"_dipipTHI8c8YTlhbhbYMDLajaeyQ5NH5WUpE6Qw","name_en":"『Celine 赛琳』","name_cn":"『Celine 赛琳』\n\nbox24cm  雾霾蓝\n\n经典款一直不过时💥\n头层牛皮配定制五金\n内侧拉链口袋和双层扁平口袋\n非常有质感的一款包🛍\n尺寸:24×18×7cm","specs":{"source":"wsxcme","sourceId":"_dipipTHI8c8YTlhbhbYMDLajaeyQ5NH5WUpE6Qw","sourceTagId":47003106,"sourceTagName":"塞琳/女包","dimensions":{"lengthCm":24,"heightCm":18,"widthCm":7},"rawTitle":"『Celine 赛琳』\n\nbox24cm  雾霾蓝\n\n经典款一直不过时💥\n头层牛皮配定制五金\n内侧拉链口袋和双层扁平口袋\n非常有质感的一款包🛍\n尺寸:24×18×7cm"},"price":null,"currency":"CNY","moq":1,"category":"celine-women-bags","status":"active","alibaba_url":null,"images":["https://xcimg.szwego.com/20201130/i1606723492_9873_0.jpg","https://xcimg.szwego.com/20201130/i1606723492_1616_1.jpg","https://xcimg.szwego.com/20201130/i1606723492_3934_2.jpg","https://xcimg.szwego.com/20201130/i1606723492_3457_3.jpg","https://xcimg.szwego.com/20201130/i1606723492_728_4.jpg","https://xcimg.szwego.com/20201130/i1606723492_8598_5.jpg","https://xcimg.szwego.com/20201130/i1606723492_2234_6.jpg","https://xcimg.szwego.com/20201130/i1606723492_3157_7.jpg","https://xcimg.szwego.com/20201130/i1606723492_8050_8.jpg"],"created_at":"2025-02-08T12:47:15.858Z"},{"id":"item-1f14ab802534","sku":"_dk3k3ZBu4OKLQ7AxYvYJHKpIJf1Aq8HVrMtBAgA","name_en":"『Celine 赛琳』","name_cn":"『Celine 赛琳』\n\nbox24cm  酒红色\n\n经典款一直不过时💥\n头层牛皮配定制五金\n内侧拉链口袋和双层扁平口袋\n非常有质感的一款包🛍\n尺寸:24×18×7cm","specs":{"source":"wsxcme","sourceId":"_dk3k3ZBu4OKLQ7AxYvYJHKpIJf1Aq8HVrMtBAgA","sourceTagId":47003106,"sourceTagName":"塞琳/女包","dimensions":{"lengthCm":24,"heightCm":18,"widthCm":7},"rawTitle":"『Celine 赛琳』\n\nbox24cm  酒红色\n\n经典款一直不过时💥\n头层牛皮配定制五金\n内侧拉链口袋和双层扁平口袋\n非常有质感的一款包🛍\n尺寸:24×18×7cm"},"price":null,"currency":"CNY","moq":1,"category":"celine-women-bags","status":"active","alibaba_url":null,"images":["https://xcimg.szwego.com/20201130/i1606724045_2350_7.jpg","https://xcimg.szwego.com/20201130/i1606724045_4922_5.jpg","https://xcimg.szwego.com/20201130/i1606724045_2073_6.jpg","https://xcimg.szwego.com/20201130/i1606724045_2645_0.jpg","https://xcimg.szwego.com/20201130/i1606724045_5036_1.jpg","https://xcimg.szwego.com/20201130/i1606724045_4316_2.jpg","https://xcimg.szwego.com/20201130/i1606724045_5072_3.jpg","https://xcimg.szwego.com/20201130/i1606724045_9157_4.jpg","https://xcimg.szwego.com/20201130/i1606724045_937_8.jpg"],"created_at":"2025-02-08T12:47:15.857Z"},{"id":"item-9e29fea6b35f","sku":"_dv7v7h645n9FtedgFUcgXsaofqW5HkJdy14mCSA","name_en":"『Celine 赛琳』","name_cn":"『Celine 赛琳』\n\nbox24cm  灰色银扣\n\n经典款一直不过时💥\n头层牛皮配定制五金\n内侧拉链口袋和双层扁平口袋\n非常有质感的一款包🛍\n尺寸:24×18×7cm","specs":{"source":"wsxcme","sourceId":"_dv7v7h645n9FtedgFUcgXsaofqW5HkJdy14mCSA","sourceTagId":47003106,"sourceTagName":"塞琳/女包","dimensions":{"lengthCm":24,"heightCm":18,"widthCm":7},"rawTitle":"『Celine 赛琳』\n\nbox24cm  灰色银扣\n\n经典款一直不过时💥\n头层牛皮配定制五金\n内侧拉链口袋和双层扁平口袋\n非常有质感的一款包🛍\n尺寸:24×18×7cm"},"price":null,"currency":"CNY","moq":1,"category":"celine-women-bags","status":"active","alibaba_url":null,"images":["https://xcimg.szwego.com/20201130/i1606723456_8412_0.jpg","https://xcimg.szwego.com/20201130/i1606723456_7675_1.jpg","https://xcimg.szwego.com/20201130/i1606723456_2130_2.jpg","https://xcimg.szwego.com/20201130/i1606723456_4994_3.jpg","https://xcimg.szwego.com/20201130/i1606723456_54_4.jpg","https://xcimg.szwego.com/20201130/i1606723456_7571_5.jpg","https://xcimg.szwego.com/20201130/i1606723456_2841_6.jpg","https://xcimg.szwego.com/20201130/i1606723456_4691_7.jpg","https://xcimg.szwego.com/20201130/i1606723456_9551_8.jpg"],"created_at":"2025-02-08T12:47:15.856Z"},{"id":"item-c5b70f078013","sku":"_d4j4j56vl2dPufGbONuUJkIiBNmSVqCfX3Lce-g","name_en":"『Celine 赛琳』","name_cn":"『Celine 赛琳』\n\nbox24cm 大红色\n\n经典款一直不过时💥\n头层牛皮配定制五金\n内侧拉链口袋和双层扁平口袋\n非常有质感的一款包🛍\n尺寸:24×18×7cm","specs":{"source":"wsxcme","sourceId":"_d4j4j56vl2dPufGbONuUJkIiBNmSVqCfX3Lce-g","sourceTagId":47003106,"sourceTagName":"塞琳/女包","dimensions":{"lengthCm":24,"heightCm":18,"widthCm":7},"rawTitle":"『Celine 赛琳』\n\nbox24cm 大红色\n\n经典款一直不过时💥\n头层牛皮配定制五金\n内侧拉链口袋和双层扁平口袋\n非常有质感的一款包🛍\n尺寸:24×18×7cm"},"price":null,"currency":"CNY","moq":1,"category":"celine-women-bags","status":"active","alibaba_url":null,"images":["https://xcimg.szwego.com/20201130/i1606724089_6019_0.jpg","https://xcimg.szwego.com/20201130/i1606724089_327_1.jpg","https://xcimg.szwego.com/20201130/i1606724089_823_2.jpg","https://xcimg.szwego.com/20201130/i1606724089_4405_3.jpg","https://xcimg.szwego.com/20201130/i1606724089_2703_4.jpg","https://xcimg.szwego.com/20201130/i1606724089_8942_5.jpg","https://xcimg.szwego.com/20201130/i1606724089_3811_6.jpg","https://xcimg.szwego.com/20201130/i1606724089_3901_7.jpg","https://xcimg.szwego.com/20201130/i1606724089_2586_8.jpg"],"created_at":"2025-02-08T12:47:15.855Z"},{"id":"item-5529f5bc5a02","sku":"_deSeSLaTJwQp82xSxFv_yMno1JP-vdkFbAhuRjQ","name_en":"『Celine 赛琳』","name_cn":"『Celine 赛琳』\n\nCELI_NE 2022春夏季横款CABAS 托特手袋百搭托特 新出尺寸小号|经典凯旋老花系列 手提不挑人 博主明星极荐 小牛皮➕pvc 中性的包包的战斗机、耐刮、轻便、容量大、时髦精必备单品!小个子也不用担心压身高啦、轻轻松松出街!\n尺寸: 34×12.5×23","specs":{"source":"wsxcme","sourceId":"_deSeSLaTJwQp82xSxFv_yMno1JP-vdkFbAhuRjQ","sourceTagId":47003106,"sourceTagName":"塞琳/女包","rawTitle":"『Celine 赛琳』\n\nCELI_NE 2022春夏季横款CABAS 托特手袋百搭托特 新出尺寸小号|经典凯旋老花系列 手提不挑人 博主明星极荐 小牛皮➕pvc 中性的包包的战斗机、耐刮、轻便、容量大、时髦精必备单品!小个子也不用担心压身高啦、轻轻松松出街!\n尺寸: 34×12.5×23"},"price":null,"currency":"CNY","moq":1,"category":"celine-women-bags","status":"active","alibaba_url":null,"images":["https://xcimg.szwego.com/20220628/i1656400749_805_0.jpg","https://xcimg.szwego.com/20220628/i1656400749_4039_1.jpg","https://xcimg.szwego.com/20220628/i1656400749_6920_2.jpg","https://xcimg.szwego.com/20220628/i1656400749_5683_3.jpg","https://xcimg.szwego.com/20220628/i1656400749_6926_4.jpg","https://xcimg.szwego.com/20220628/i1656400749_2047_5.jpg","https://xcimg.szwego.com/20220628/i1656400749_8290_6.jpg","https://xcimg.szwego.com/20220628/i1656400749_335_7.jpg","https://xcimg.szwego.com/20220628/i1656400749_3666_8.jpg"],"created_at":"2025-02-08T12:47:15.854Z"},{"id":"item-a3512ecdcd3f","sku":"_ds7s7ReaND5g2h8H4pzq3GoKggLFVuwL9OM11GA","name_en":"『Celine 赛琳』","name_cn":"『Celine 赛琳』\n\n【黑色】\n\nCelin* BESACE  凯旋门肩背包▪️\n小巧精致的设计,方正复古的造型,优雅中带点随性,浪漫又带点慵懒气质  经典复古全皮设计一如既往百搭,双C锁扣triomphe让Celine⃝的狂热粉疯狂打Call !简洁利落的包身线条,真的超奶思 气场全开 简直不要太吸精!肩背包纖薄而圓潤,採用柔滑小牛皮打造,日常休逛街或通勤都非常適合\n尺寸: 宽18cmx高16cmx底部6cm","specs":{"source":"wsxcme","sourceId":"_ds7s7ReaND5g2h8H4pzq3GoKggLFVuwL9OM11GA","sourceTagId":47003106,"sourceTagName":"塞琳/女包","rawTitle":"『Celine 赛琳』\n\n【黑色】\n\nCelin* BESACE  凯旋门肩背包▪️\n小巧精致的设计,方正复古的造型,优雅中带点随性,浪漫又带点慵懒气质  经典复古全皮设计一如既往百搭,双C锁扣triomphe让Celine⃝的狂热粉疯狂打Call !简洁利落的包身线条,真的超奶思 气场全开 简直不要太吸精!肩背包纖薄而圓潤,採用柔滑小牛皮打造,日常休逛街或通勤都非常適合\n尺寸: 宽18cmx高16cmx底部6cm"},"price":null,"currency":"CNY","moq":1,"category":"celine-women-bags","status":"active","alibaba_url":null,"images":["https://xcimg.szwego.com/20220628/i1656402885_6874_0.jpg","https://xcimg.szwego.com/20220628/i1656402885_6576_1.jpg","https://xcimg.szwego.com/20220628/i1656402885_7342_2.jpg","https://xcimg.szwego.com/20220628/i1656402885_9301_3.jpg","https://xcimg.szwego.com/20220628/i1656402885_1955_4.jpg","https://xcimg.szwego.com/20220628/i1656402885_4682_5.jpg"],"created_at":"2025-02-08T12:47:15.853Z"},{"id":"item-e182eaeca5fe","sku":"_dlxlxDFvFOInRjI3-WqMZ5qLogc78Rg8U0GhybA","name_en":"『Celine 赛琳』","name_cn":"『Celine 赛琳』\n\n【咖啡色】\n\nCelin* BESACE  凯旋门肩背包▪️\n小巧精致的设计,方正复古的造型,优雅中带点随性,浪漫又带点慵懒气质  经典复古全皮设计一如既往百搭,双C锁扣triomphe让Celine⃝的狂热粉疯狂打Call !简洁利落的包身线条,真的超奶思 气场全开 简直不要太吸精!肩背包纖薄而圓潤,採用柔滑小牛皮打造,日常休逛街或通勤都非常適合\n尺寸: 宽18cmx高16cmx底部6cm","specs":{"source":"wsxcme","sourceId":"_dlxlxDFvFOInRjI3-WqMZ5qLogc78Rg8U0GhybA","sourceTagId":47003106,"sourceTagName":"塞琳/女包","rawTitle":"『Celine 赛琳』\n\n【咖啡色】\n\nCelin* BESACE  凯旋门肩背包▪️\n小巧精致的设计,方正复古的造型,优雅中带点随性,浪漫又带点慵懒气质  经典复古全皮设计一如既往百搭,双C锁扣triomphe让Celine⃝的狂热粉疯狂打Call !简洁利落的包身线条,真的超奶思 气场全开 简直不要太吸精!肩背包纖薄而圓潤,採用柔滑小牛皮打造,日常休逛街或通勤都非常適合\n尺寸: 宽18cmx高16cmx底部6cm"},"price":null,"currency":"CNY","moq":1,"category":"celine-women-bags","status":"active","alibaba_url":null,"images":["https://xcimg.szwego.com/20220628/i1656402731_2393_0.jpg","https://xcimg.szwego.com/20220628/i1656402731_2941_1.jpg","https://xcimg.szwego.com/20220628/i1656402731_4032_2.jpg","https://xcimg.szwego.com/20220628/i1656402731_5720_3.jpg","https://xcimg.szwego.com/20220628/i1656402731_7175_4.jpg","https://xcimg.szwego.com/20220628/i1656402731_6166_5.jpg"],"created_at":"2025-02-08T12:47:15.852Z"},{"id":"item-523746844401","sku":"_dk3k3ZBu4OKLQ7AxYvYJHKpIJf1Mq8HVrMdJHjg","name_en":"『Celine 赛琳』","name_cn":"『Celine 赛琳』\n\n【酒红色】\n\nCelin* BESACE  凯旋门肩背包▪️\n小巧精致的设计,方正复古的造型,优雅中带点随性,浪漫又带点慵懒气质  经典复古全皮设计一如既往百搭,双C锁扣triomphe让Celine⃝的狂热粉疯狂打Call !简洁利落的包身线条,真的超奶思 气场全开 简直不要太吸精!肩背包纖薄而圓潤,採用柔滑小牛皮打造,日常休逛街或通勤都非常適合\n尺寸: 宽18cmx高16cmx底部6cm","specs":{"source":"wsxcme","sourceId":"_dk3k3ZBu4OKLQ7AxYvYJHKpIJf1Mq8HVrMdJHjg","sourceTagId":47003106,"sourceTagName":"塞琳/女包","rawTitle":"『Celine 赛琳』\n\n【酒红色】\n\nCelin* BESACE  凯旋门肩背包▪️\n小巧精致的设计,方正复古的造型,优雅中带点随性,浪漫又带点慵懒气质  经典复古全皮设计一如既往百搭,双C锁扣triomphe让Celine⃝的狂热粉疯狂打Call !简洁利落的包身线条,真的超奶思 气场全开 简直不要太吸精!肩背包纖薄而圓潤,採用柔滑小牛皮打造,日常休逛街或通勤都非常適合\n尺寸: 宽18cmx高16cmx底部6cm"},"price":null,"currency":"CNY","moq":1,"category":"celine-women-bags","status":"active","alibaba_url":null,"images":["https://xcimg.szwego.com/20220628/i1656402628_313_0.jpg","https://xcimg.szwego.com/20220628/i1656402628_9847_1.jpg","https://xcimg.szwego.com/20220628/i1656402628_9225_2.jpg","https://xcimg.szwego.com/20220628/i1656402628_260_3.jpg","https://xcimg.szwego.com/20220628/i1656402628_3206_4.jpg","https://xcimg.szwego.com/20220628/i1656402628_4727_5.jpg"],"created_at":"2025-02-08T12:47:15.851Z"},{"id":"item-4582df5f04e7","sku":"_df_f_wbuMEqOuSGjSyi_so3PLmyGvZZd9U1IO1w","name_en":"『Celine 赛琳』","name_cn":"『Celine 赛琳』\n\n【杏色】\n\nCelin* BESACE  凯旋门肩背包▪️\n小巧精致的设计,方正复古的造型,优雅中带点随性,浪漫又带点慵懒气质  经典复古全皮设计一如既往百搭,双C锁扣triomphe让Celine⃝的狂热粉疯狂打Call !简洁利落的包身线条,真的超奶思 气场全开 简直不要太吸精!肩背包纖薄而圓潤,採用柔滑小牛皮打造,日常休逛街或通勤都非常適合\n尺寸: 宽18cmx高16cmx底部6cm","specs":{"source":"wsxcme","sourceId":"_df_f_wbuMEqOuSGjSyi_so3PLmyGvZZd9U1IO1w","sourceTagId":47003106,"sourceTagName":"塞琳/女包","rawTitle":"『Celine 赛琳』\n\n【杏色】\n\nCelin* BESACE  凯旋门肩背包▪️\n小巧精致的设计,方正复古的造型,优雅中带点随性,浪漫又带点慵懒气质  经典复古全皮设计一如既往百搭,双C锁扣triomphe让Celine⃝的狂热粉疯狂打Call !简洁利落的包身线条,真的超奶思 气场全开 简直不要太吸精!肩背包纖薄而圓潤,採用柔滑小牛皮打造,日常休逛街或通勤都非常適合\n尺寸: 宽18cmx高16cmx底部6cm"},"price":null,"currency":"CNY","moq":1,"category":"celine-women-bags","status":"active","alibaba_url":null,"images":["https://xcimg.szwego.com/20220628/i1656402268_1824_0.jpg","https://xcimg.szwego.com/20220628/i1656402268_5053_1.jpg","https://xcimg.szwego.com/20220628/i1656402268_233_2.jpg","https://xcimg.szwego.com/20220628/i1656402268_9815_3.jpg","https://xcimg.szwego.com/20220628/i1656402268_3775_4.jpg","https://xcimg.szwego.com/20220628/i1656402268_977_5.jpg"],"created_at":"2025-02-08T12:47:15.850Z"},{"id":"item-8fe22f6a50fa","sku":"_di5i5jwM99wsLfOIsh9UCrg62cBDSlvUwT_-ajw","name_en":"『Celine 赛琳』","name_cn":"『Celine 赛琳』\n\nC家最新布配皮🐤 笑脸包 原版牛皮 经典之作!号称最能展现职业女性的特质,以精致和时尚闻名,独特的笑脸包身设计,不仅体现小女人的俏皮,又能够体现知性女人的优雅,更显女生魅力,不同色系的Celine囧脸包凸显不一样的特点,时尚潮流的尖端!尺寸小号20*20*8cm!款号3308 [嘴唇][嘴唇][勾引][勾引]","specs":{"source":"wsxcme","sourceId":"_di5i5jwM99wsLfOIsh9UCrg62cBDSlvUwT_-ajw","sourceTagId":47003106,"sourceTagName":"塞琳/女包","modelNumber":"3308 [嘴唇][嘴唇][勾引][勾引]","rawTitle":"『Celine 赛琳』\n\nC家最新布配皮🐤 笑脸包 原版牛皮 经典之作!号称最能展现职业女性的特质,以精致和时尚闻名,独特的笑脸包身设计,不仅体现小女人的俏皮,又能够体现知性女人的优雅,更显女生魅力,不同色系的Celine囧脸包凸显不一样的特点,时尚潮流的尖端!尺寸小号20*20*8cm!款号3308 [嘴唇][嘴唇][勾引][勾引]"},"price":null,"currency":"CNY","moq":1,"category":"celine-women-bags","status":"active","alibaba_url":null,"images":["https://xcimg.szwego.com/20200519/a1589865635620_0825.jpg","https://xcimg.szwego.com/20200519/a1589865651923_3445.jpg","https://xcimg.szwego.com/20200519/a1589865652344_0121.jpg","https://xcimg.szwego.com/20200519/a1589865652753_3232.jpg","https://xcimg.szwego.com/20200519/a1589865653152_0160.jpg","https://xcimg.szwego.com/20200519/a1589865653605_5217.jpg","https://xcimg.szwego.com/20200519/a1589865654080_3872.jpg","https://xcimg.szwego.com/20200519/a1589865654581_5040.jpg","https://xcimg.szwego.com/20200519/a1589865655008_6380.jpg"],"created_at":"2025-02-08T12:47:15.849Z"},{"id":"item-49b6da1cf26f","sku":"_dhshstXq0hJwf61nN_ZiLL4udyR26PV04FfF8mQ","name_en":"『Celine 赛琳』","name_cn":"『Celine 赛琳』\n\nC家最新布配皮🐤 笑脸包 原版牛皮 经典之作!号称最能展现职业女性的特质,以精致和时尚闻名,独特的笑脸包身设计,不仅体现小女人的俏皮,又能够体现知性女人的优雅,更显女生魅力,不同色系的Celine囧脸包凸显不一样的特点,时尚潮流的尖端!尺寸26*26*13cm!款号3308 [嘴唇][嘴唇][勾引][勾引]","specs":{"source":"wsxcme","sourceId":"_dhshstXq0hJwf61nN_ZiLL4udyR26PV04FfF8mQ","sourceTagId":47003106,"sourceTagName":"塞琳/女包","modelNumber":"3308 [嘴唇][嘴唇][勾引][勾引]","dimensions":{"lengthCm":26,"heightCm":26,"widthCm":13},"rawTitle":"『Celine 赛琳』\n\nC家最新布配皮🐤 笑脸包 原版牛皮 经典之作!号称最能展现职业女性的特质,以精致和时尚闻名,独特的笑脸包身设计,不仅体现小女人的俏皮,又能够体现知性女人的优雅,更显女生魅力,不同色系的Celine囧脸包凸显不一样的特点,时尚潮流的尖端!尺寸26*26*13cm!款号3308 [嘴唇][嘴唇][勾引][勾引]"},"price":null,"currency":"CNY","moq":1,"category":"celine-women-bags","status":"active","alibaba_url":null,"images":["https://xcimg.szwego.com/20200711/a1594410638653_3572.jpg","https://xcimg.szwego.com/20200711/a1594410638756_8221.jpg","https://xcimg.szwego.com/20200711/a1594410638881_6705.jpg","https://xcimg.szwego.com/20200711/a1594410638964_8016.jpg","https://xcimg.szwego.com/20200711/a1594410639113_8350.jpg","https://xcimg.szwego.com/20200711/a1594410639317_2817.jpg","https://xcimg.szwego.com/20200711/a1594410639513_6588.jpg","https://xcimg.szwego.com/20200711/a1594410639580_1364.jpg","https://xcimg.szwego.com/20200711/a1594410639662_8401.jpg"],"created_at":"2025-02-08T12:47:15.848Z"},{"id":"item-7cf41b4451e2","sku":"_dMYMYJI3Kw9SJjXNMd5HoQgvSQNAS4Bkmb6zF0Q","name_en":"『Celine 赛琳』","name_cn":"『Celine 赛琳』\n\n最新布配皮 匠心工艺 新颜色 全新升级版↖️花蝴蝶🧡年度最佳 、外 拼麻布  现代化简约及复古元素结合、   💃🏻💃🏻💃🏻逆袭经典box包   新设计凯门回旋扣、再次重塑经典👍 型号:187368  尺寸22*16*6","specs":{"source":"wsxcme","sourceId":"_dMYMYJI3Kw9SJjXNMd5HoQgvSQNAS4Bkmb6zF0Q","sourceTagId":47003106,"sourceTagName":"塞琳/女包","modelNumber":"187368  尺寸22*16*6","rawTitle":"『Celine 赛琳』\n\n最新布配皮 匠心工艺 新颜色 全新升级版↖️花蝴蝶🧡年度最佳 、外 拼麻布  现代化简约及复古元素结合、   💃🏻💃🏻💃🏻逆袭经典box包   新设计凯门回旋扣、再次重塑经典👍 型号:187368  尺寸22*16*6"},"price":null,"currency":"CNY","moq":1,"category":"celine-women-bags","status":"active","alibaba_url":null,"images":["https://xcimg.szwego.com/20200810/a1597035320618_1612.jpg","https://xcimg.szwego.com/20200810/a1597035320766_7258.jpg","https://xcimg.szwego.com/20200810/a1597035320848_4787.jpg","https://xcimg.szwego.com/20200810/a1597035320934_6032.jpg","https://xcimg.szwego.com/20200810/a1597035321092_1681.jpg","https://xcimg.szwego.com/20200810/a1597035321184_1576.jpg","https://xcimg.szwego.com/20200810/a1597035321308_5152.jpg","https://xcimg.szwego.com/20200810/a1597035321383_4645.jpg","https://xcimg.szwego.com/20200810/a1597035321475_1018.jpg"],"created_at":"2025-02-08T12:47:15.847Z"},{"id":"item-9c73475f772e","sku":"_dwNwN4YoxgaQuTIMGO75CCNR2tNFysynoHJO5ag","name_en":"『Celine 赛琳』","name_cn":"『Celine 赛琳』\n\n🏠推出最新帆布经典设计风格展现了复古、简洁及自信。时尚的尖端,毫无时代的隔阂~鲜明个性为日常衣柜带来多重魅力🥳  小号尺寸:18.5-14-6  小号款号186423","specs":{"source":"wsxcme","sourceId":"_dwNwN4YoxgaQuTIMGO75CCNR2tNFysynoHJO5ag","sourceTagId":47003106,"sourceTagName":"塞琳/女包","modelNumber":"186423","rawTitle":"『Celine 赛琳』\n\n🏠推出最新帆布经典设计风格展现了复古、简洁及自信。时尚的尖端,毫无时代的隔阂~鲜明个性为日常衣柜带来多重魅力🥳  小号尺寸:18.5-14-6  小号款号186423"},"price":null,"currency":"CNY","moq":1,"category":"celine-women-bags","status":"active","alibaba_url":null,"images":["https://xcimg.szwego.com/20200810/a1597035379757_1634.jpg","https://xcimg.szwego.com/20200810/a1597035379854_6680.jpg","https://xcimg.szwego.com/20200810/a1597035379955_0857.jpg","https://xcimg.szwego.com/20200810/a1597035380021_3083.jpg","https://xcimg.szwego.com/20200810/a1597035380155_6378.jpg","https://xcimg.szwego.com/20200810/a1597035380225_8071.jpg","https://xcimg.szwego.com/20200810/a1597035380312_5054.jpg","https://xcimg.szwego.com/20200810/a1597035380402_3850.jpg","https://xcimg.szwego.com/20200810/a1597035380470_7085.jpg"],"created_at":"2025-02-08T12:47:15.846Z"},{"id":"item-56f11f429265","sku":"_dmEmEPi0owW4onFEdsV-OICNjQCB2-VCBUWmnHw","name_en":"『Celine 赛琳』","name_cn":"『Celine 赛琳』\n\nTriomphe_新经典®️凯旋门新理念的定义 添加巴黎的元素 复古风调 高贵的气质 被时尚领域再度认知 超多明星的热爱款 经典再创新 再次重塑经典包扣精致设计 很符合时尚前沿✔️\n尺寸:22-16-6\n款号:187368 格纹","specs":{"source":"wsxcme","sourceId":"_dmEmEPi0owW4onFEdsV-OICNjQCB2-VCBUWmnHw","sourceTagId":47003106,"sourceTagName":"塞琳/女包","modelNumber":"187368 格纹","rawTitle":"『Celine 赛琳』\n\nTriomphe_新经典®️凯旋门新理念的定义 添加巴黎的元素 复古风调 高贵的气质 被时尚领域再度认知 超多明星的热爱款 经典再创新 再次重塑经典包扣精致设计 很符合时尚前沿✔️\n尺寸:22-16-6\n款号:187368 格纹"},"price":null,"currency":"CNY","moq":1,"category":"celine-women-bags","status":"active","alibaba_url":null,"images":["https://xcimg.szwego.com/20201212/a1607741972459_8431.jpg","https://xcimg.szwego.com/20201212/a1607741972639_7428.jpg","https://xcimg.szwego.com/20201212/a1607741972807_8362.jpg","https://xcimg.szwego.com/20201212/a1607741972938_5455.jpg","https://xcimg.szwego.com/20201212/a1607741973103_1764.jpg","https://xcimg.szwego.com/20201212/a1607741973333_8818.jpg","https://xcimg.szwego.com/20201212/a1607741973701_4722.jpg","https://xcimg.szwego.com/20201212/a1607741974358_8418.jpg","https://xcimg.szwego.com/20201212/a1607741974364_4845.jpg"],"created_at":"2025-02-08T12:47:15.845Z"},{"id":"item-4175143e0a74","sku":"_daSaSTR6ekmSUwHOsjNQ1lqWdL92Ld6BhYOmnlQ","name_en":"『Celine 赛琳』","name_cn":"『Celine 赛琳』\n\nTriomphe_新经典®️凯旋门新理念的定义 添加巴黎的元素 复古风调 高贵的气质 被时尚领域再度认知 超多明星的热爱款 经典再创新 再次重塑经典包扣精致设计 很符合时尚前沿✔️\n尺寸:18-14-6\n款号:186423 格纹","specs":{"source":"wsxcme","sourceId":"_daSaSTR6ekmSUwHOsjNQ1lqWdL92Ld6BhYOmnlQ","sourceTagId":47003106,"sourceTagName":"塞琳/女包","modelNumber":"186423 格纹","rawTitle":"『Celine 赛琳』\n\nTriomphe_新经典®️凯旋门新理念的定义 添加巴黎的元素 复古风调 高贵的气质 被时尚领域再度认知 超多明星的热爱款 经典再创新 再次重塑经典包扣精致设计 很符合时尚前沿✔️\n尺寸:18-14-6\n款号:186423 格纹"},"price":null,"currency":"CNY","moq":1,"category":"celine-women-bags","status":"active","alibaba_url":null,"images":["https://xcimg.szwego.com/20201212/a1607742405945_2074.jpg","https://xcimg.szwego.com/20201212/a1607742406135_2558.jpg","https://xcimg.szwego.com/20201212/a1607742406334_3540.jpg","https://xcimg.szwego.com/20201212/a1607742406599_2485.jpg","https://xcimg.szwego.com/20201212/a1607742406785_0761.jpg","https://xcimg.szwego.com/20201212/a1607742407191_7160.jpg","https://xcimg.szwego.com/20201212/a1607742407631_5144.jpg","https://xcimg.szwego.com/20201212/a1607742407633_6118.jpg","https://xcimg.szwego.com/20201212/a1607742407836_6215.jpg"],"created_at":"2025-02-08T12:47:15.844Z"},{"id":"item-fe1891a781a2","sku":"_doNoNz9bSZ7m-A5bd3CeXTnQBB0M8eF7hjzDVUQ","name_en":"『Celine 赛琳』","name_cn":"『Celine 赛琳』\n\n🏠推出最新帆布经典设计风格展现了复古、简洁及自信。时尚的尖端,毫无时代的隔阂~鲜明个性为日常衣柜带来多重魅力🥳  小号尺寸:18.5-14-6 小号款号188423","specs":{"source":"wsxcme","sourceId":"_doNoNz9bSZ7m-A5bd3CeXTnQBB0M8eF7hjzDVUQ","sourceTagId":47003106,"sourceTagName":"塞琳/女包","modelNumber":"188423","rawTitle":"『Celine 赛琳』\n\n🏠推出最新帆布经典设计风格展现了复古、简洁及自信。时尚的尖端,毫无时代的隔阂~鲜明个性为日常衣柜带来多重魅力🥳  小号尺寸:18.5-14-6 小号款号188423"},"price":null,"currency":"CNY","moq":1,"category":"celine-women-bags","status":"active","alibaba_url":null,"images":["https://xcimg.szwego.com/20200512/a1589267061433_1675.jpg","https://xcimg.szwego.com/20200512/a1589267062060_5303.jpg","https://xcimg.szwego.com/20200512/a1589267062498_7468.jpg","https://xcimg.szwego.com/20200512/a1589267063185_1371.jpg","https://xcimg.szwego.com/20200512/a1589267063651_1235.jpg","https://xcimg.szwego.com/20200512/a1589267064577_1664.jpg","https://xcimg.szwego.com/20200512/a1589267065417_6625.jpg","https://xcimg.szwego.com/20200512/a1589267065873_1507.jpg","https://xcimg.szwego.com/20200512/a1589267066118_4464.jpg"],"created_at":"2025-02-08T12:47:15.843Z"},{"id":"item-006858879cf7","sku":"_dZZZZaIbfrGLbBHswC0RJU8igN_fvsTzDAW4Q7w","name_en":"『Celine 赛琳』","name_cn":"『Celine 赛琳』\n\n🔗🔗19年🆕LOGO  匠心工艺 早春新颜色 全新升级版↖️花蝴蝶🧡年度最佳 、外 拼牛仔布  现代化简约及复古元素结合、   💃🏻💃🏻💃🏻逆袭经典box包   新设计凯门回旋扣、再次重塑经典👍 型号:187368 尺寸22*16*6","specs":{"source":"wsxcme","sourceId":"_dZZZZaIbfrGLbBHswC0RJU8igN_fvsTzDAW4Q7w","sourceTagId":47003106,"sourceTagName":"塞琳/女包","modelNumber":"187368 尺寸22*16*6","rawTitle":"『Celine 赛琳』\n\n🔗🔗19年🆕LOGO  匠心工艺 早春新颜色 全新升级版↖️花蝴蝶🧡年度最佳 、外 拼牛仔布  现代化简约及复古元素结合、   💃🏻💃🏻💃🏻逆袭经典box包   新设计凯门回旋扣、再次重塑经典👍 型号:187368 尺寸22*16*6"},"price":null,"currency":"CNY","moq":1,"category":"celine-women-bags","status":"active","alibaba_url":null,"images":["https://xcimg.szwego.com/20200512/a1589266747811_0617.jpg","https://xcimg.szwego.com/20200512/a1589266808423_4318.jpg","https://xcimg.szwego.com/20200512/a1589266808689_5665.jpg","https://xcimg.szwego.com/20200512/a1589266808970_0246.jpg","https://xcimg.szwego.com/20200512/a1589266809235_0218.jpg","https://xcimg.szwego.com/20200512/a1589266809609_6781.jpg","https://xcimg.szwego.com/20200512/a1589266809931_7248.jpg","https://xcimg.szwego.com/20200512/a1589266810206_7884.jpg","https://xcimg.szwego.com/20200512/a1589266810608_3671.jpg"],"created_at":"2025-02-08T12:47:15.842Z"},{"id":"item-4f3298cb6532","sku":"_dcOcO9wLpGHcL-scDQA-c8_Bw3Eizvp0r2EtJZg","name_en":"『Celine 赛琳』","name_cn":"『Celine 赛琳』\n\nFOLCO TRIOMPHE帆布中号手袋7 X 7 X 3英寸(18 X 17 X 6.5厘米)59%涂层帆布,41%小牛皮肩背斜挎和肩背搭扣内侧扁平口袋外侧口袋可调节皮革肩带长20英寸(50厘米)编号:191502BZJ.04LU","specs":{"source":"wsxcme","sourceId":"_dcOcO9wLpGHcL-scDQA-c8_Bw3Eizvp0r2EtJZg","sourceTagId":47003106,"sourceTagName":"塞琳/女包","rawTitle":"『Celine 赛琳』\n\nFOLCO TRIOMPHE帆布中号手袋7 X 7 X 3英寸(18 X 17 X 6.5厘米)59%涂层帆布,41%小牛皮肩背斜挎和肩背搭扣内侧扁平口袋外侧口袋可调节皮革肩带长20英寸(50厘米)编号:191502BZJ.04LU"},"price":null,"currency":"CNY","moq":1,"category":"celine-women-bags","status":"active","alibaba_url":null,"images":["https://xcimg.szwego.com/20200422/a1587492172565_6336.jpg","https://xcimg.szwego.com/20200422/a1587492173185_1862.jpg","https://xcimg.szwego.com/20200422/a1587492173744_3351.jpg","https://xcimg.szwego.com/20200422/a1587492174183_4072.jpg","https://xcimg.szwego.com/20200422/a1587492174588_6466.jpg","https://xcimg.szwego.com/20200422/a1587492175025_3450.jpg","https://xcimg.szwego.com/20200422/a1587492176451_4480.jpg","https://xcimg.szwego.com/20200422/a1587492177115_4883.jpg","https://xcimg.szwego.com/20200422/a1587492177604_8365.jpg"],"created_at":"2025-02-08T12:47:15.841Z"},{"id":"item-9e5d0c014ced","sku":"_dhIhIOJq9C2lnTOMX8GgD86UFPDi7ITtRGK-73g","name_en":"『Celine 赛琳』","name_cn":"『Celine 赛琳』\n\nFOLCO TRIOMPHE帆布中号手袋7 X 7 X 3英寸(18 X 17 X 6.5厘米)59%涂层帆布,41%小牛皮肩背斜挎和肩背搭扣内侧扁平口袋外侧口袋可调节皮革肩带长20英寸(50厘米)编号:191502BZJ.04LU","specs":{"source":"wsxcme","sourceId":"_dhIhIOJq9C2lnTOMX8GgD86UFPDi7ITtRGK-73g","sourceTagId":47003106,"sourceTagName":"塞琳/女包","rawTitle":"『Celine 赛琳』\n\nFOLCO TRIOMPHE帆布中号手袋7 X 7 X 3英寸(18 X 17 X 6.5厘米)59%涂层帆布,41%小牛皮肩背斜挎和肩背搭扣内侧扁平口袋外侧口袋可调节皮革肩带长20英寸(50厘米)编号:191502BZJ.04LU"},"price":null,"currency":"CNY","moq":1,"category":"celine-women-bags","status":"active","alibaba_url":null,"images":["https://xcimg.szwego.com/20210403/a1617394841106_0381.jpg","https://xcimg.szwego.com/20210403/a1617394841348_0202.jpg","https://xcimg.szwego.com/20210403/a1617394841527_8608.jpg","https://xcimg.szwego.com/20210403/a1617394841645_6621.jpg","https://xcimg.szwego.com/20210403/a1617394841792_1867.jpg","https://xcimg.szwego.com/20210403/a1617394841958_5475.jpg","https://xcimg.szwego.com/20210403/a1617394842113_3874.jpg","https://xcimg.szwego.com/20210403/a1617394842260_4671.jpg","https://xcimg.szwego.com/20210403/a1617394842475_1775.jpg"],"created_at":"2025-02-08T12:47:15.840Z"}],"page":11,"pageSize":24,"total":582,"totalPages":25}
