{"items":[{"id":"item-11e47d502b27","sku":"_dmPmPE9Keid22HO1nl5lbPU_s8q8ugW0IGWIP_Q","name_en":"『Celine 赛琳』","name_cn":"『Celine 赛琳』\n\n🔅CEL.INE 新品Tnne Soft 16 牛皮革手袋®️内里磨砂皮/可斜挎和肩背,旋转锁扣开合\n2个内侧隔层 内侧拉链口袋 一条可拆卸织物肩带长52厘米) 去除手腕后增添年轻与时尚感、很有Hedi叛逆街头风。\n尺寸:23 X 15 X 9cm\n款号:1158#","specs":{"source":"wsxcme","sourceId":"_dmPmPE9Keid22HO1nl5lbPU_s8q8ugW0IGWIP_Q","sourceTagId":47003106,"sourceTagName":"塞琳/女包","modelNumber":"1158#","dimensions":{"lengthCm":23,"heightCm":15,"widthCm":9},"rawTitle":"『Celine 赛琳』\n\n🔅CEL.INE 新品Tnne Soft 16 牛皮革手袋®️内里磨砂皮/可斜挎和肩背,旋转锁扣开合\n2个内侧隔层 内侧拉链口袋 一条可拆卸织物肩带长52厘米) 去除手腕后增添年轻与时尚感、很有Hedi叛逆街头风。\n尺寸:23 X 15 X 9cm\n款号:1158#"},"price":null,"currency":"CNY","moq":1,"category":"celine-women-bags","status":"active","alibaba_url":null,"images":["https://xcimg.szwego.com/20220412/i1649737441_5157_0.jpg","https://xcimg.szwego.com/20220412/i1649737441_284_1.jpg","https://xcimg.szwego.com/20220412/i1649737441_7422_2.jpg","https://xcimg.szwego.com/20220412/i1649737441_6425_3.jpg","https://xcimg.szwego.com/20220412/i1649737441_969_4.jpg","https://xcimg.szwego.com/20220412/i1649737441_9500_5.jpg","https://xcimg.szwego.com/20220412/i1649737441_6453_6.jpg","https://xcimg.szwego.com/20220412/i1649737441_105_7.jpg","https://xcimg.szwego.com/20220412/i1649737441_6093_8.jpg"],"created_at":"2025-02-08T12:47:00.810Z"},{"id":"item-ae43b9e0b279","sku":"_dOVOVzyVSmVd3pjUEohUO4LjZ982DwkP3g46rAg","name_en":"『Celine 赛琳』","name_cn":"『Celine 赛琳』\n\n新款 赛琳老花系列 Celin.e TRIOMPHE帆布中号购物袋,65%涂层帆布和35%小牛皮,100%棉衬里,按扣开合,内侧扁平口袋,容量超大 既好看 又能装#购物逛街必带包# 超满足# \n尺寸30 X 37 X 22cm\n型号:4111#","specs":{"source":"wsxcme","sourceId":"_dOVOVzyVSmVd3pjUEohUO4LjZ982DwkP3g46rAg","sourceTagId":47003106,"sourceTagName":"塞琳/女包","modelNumber":"4111#","dimensions":{"lengthCm":30,"heightCm":37,"widthCm":22},"rawTitle":"『Celine 赛琳』\n\n新款 赛琳老花系列 Celin.e TRIOMPHE帆布中号购物袋,65%涂层帆布和35%小牛皮,100%棉衬里,按扣开合,内侧扁平口袋,容量超大 既好看 又能装#购物逛街必带包# 超满足# \n尺寸30 X 37 X 22cm\n型号:4111#"},"price":null,"currency":"CNY","moq":1,"category":"celine-women-bags","status":"active","alibaba_url":null,"images":["https://xcimg.szwego.com/20220702/i1656743349_8609_0.jpg","https://xcimg.szwego.com/20220702/i1656743349_193_1.jpg","https://xcimg.szwego.com/20220702/i1656743349_2288_2.jpg","https://xcimg.szwego.com/20220702/i1656743349_5364_3.jpg","https://xcimg.szwego.com/20220702/i1656743349_2156_4.jpg","https://xcimg.szwego.com/20220702/i1656743349_5037_5.jpg","https://xcimg.szwego.com/20220702/i1656743349_3377_6.jpg","https://xcimg.szwego.com/20220702/i1656743349_1739_7.jpg","https://xcimg.szwego.com/20220702/i1656743349_955_8.jpg"],"created_at":"2025-02-08T12:47:00.809Z"},{"id":"item-080c72dbd033","sku":"_dfsfs7WV45ftZxu1tMYLhtBxieRFZ7AbwCluELg","name_en":"『Celine 赛琳』","name_cn":"『Celine 赛琳』\n\nCe.line 春夏新品Folco白色涂层帆布马鞍包 延续凯旋门 复古斜挎  耐看经典印花一点都不老套。\n尺寸:18x16x10cm\n型号:2179#","specs":{"source":"wsxcme","sourceId":"_dfsfs7WV45ftZxu1tMYLhtBxieRFZ7AbwCluELg","sourceTagId":47003106,"sourceTagName":"塞琳/女包","modelNumber":"2179#","dimensions":{"lengthCm":18,"heightCm":16,"widthCm":10},"rawTitle":"『Celine 赛琳』\n\nCe.line 春夏新品Folco白色涂层帆布马鞍包 延续凯旋门 复古斜挎  耐看经典印花一点都不老套。\n尺寸:18x16x10cm\n型号:2179#"},"price":null,"currency":"CNY","moq":1,"category":"celine-women-bags","status":"active","alibaba_url":null,"images":["https://xcimg.szwego.com/20220224/i1645679218_7663_0.jpg","https://xcimg.szwego.com/20220224/i1645679218_667_1.jpg","https://xcimg.szwego.com/20220224/i1645679218_6374_2.jpg","https://xcimg.szwego.com/20220224/i1645679218_2908_3.jpg","https://xcimg.szwego.com/20220224/i1645679218_4766_4.jpg","https://xcimg.szwego.com/20220224/i1645679218_103_5.jpg","https://xcimg.szwego.com/20220224/i1645679218_9096_6.jpg","https://xcimg.szwego.com/20220224/i1645679218_5806_7.jpg","https://xcimg.szwego.com/20220224/i1645679218_7219_8.jpg"],"created_at":"2025-02-08T12:47:00.808Z"},{"id":"item-92ced37dcf6b","sku":"_dPUPUlmuPPmE9teNhv2NedYlhPvLtTCVM1WFc9w","name_en":"『Celine 赛琳』","name_cn":"『Celine 赛琳』\n\nCEL.INE TRIOMPHC FOLCO 高品质马鞍包  延续凯旋门  棕色包边部分采用头层牛皮制作 复古斜挎  耐看经典印花一点都不老套  还带着轻巧小俏皮  耐装耐磨 象征性的 结构简约 肩带长度可调节 \n款号:2179#\n尺寸:18.16.10cm","specs":{"source":"wsxcme","sourceId":"_dPUPUlmuPPmE9teNhv2NedYlhPvLtTCVM1WFc9w","sourceTagId":47003106,"sourceTagName":"塞琳/女包","modelNumber":"2179#","rawTitle":"『Celine 赛琳』\n\nCEL.INE TRIOMPHC FOLCO 高品质马鞍包  延续凯旋门  棕色包边部分采用头层牛皮制作 复古斜挎  耐看经典印花一点都不老套  还带着轻巧小俏皮  耐装耐磨 象征性的 结构简约 肩带长度可调节 \n款号:2179#\n尺寸:18.16.10cm"},"price":null,"currency":"CNY","moq":1,"category":"celine-women-bags","status":"active","alibaba_url":null,"images":["https://xcimg.szwego.com/20220224/i1645679174_7105_0.jpg","https://xcimg.szwego.com/20220224/i1645679174_9932_1.jpg","https://xcimg.szwego.com/20220224/i1645679174_784_2.jpg","https://xcimg.szwego.com/20220224/i1645679174_2283_3.jpg","https://xcimg.szwego.com/20220224/i1645679174_2261_4.jpg","https://xcimg.szwego.com/20220224/i1645679174_838_5.jpg","https://xcimg.szwego.com/20220224/i1645679174_2680_6.jpg","https://xcimg.szwego.com/20220224/i1645679174_2396_7.jpg","https://xcimg.szwego.com/20220224/i1645679174_4438_8.jpg"],"created_at":"2025-02-08T12:47:00.807Z"},{"id":"item-89781cae5960","sku":"_dmOmOWFhDBPYrgWXBrfhJA3NojRhEQSs-sz1esA","name_en":"『Celine 赛琳』","name_cn":"『Celine 赛琳』\n\n贝壳包 TRIOMPHE帆布相机包  64%涂层帆布,36%小牛皮 可斜挎和肩背 拉链锁闭 可调节皮革肩带长20英寸(50厘米)\n尺寸:20 X 15 X 5cm\n型号:3189#","specs":{"source":"wsxcme","sourceId":"_dmOmOWFhDBPYrgWXBrfhJA3NojRhEQSs-sz1esA","sourceTagId":47003106,"sourceTagName":"塞琳/女包","modelNumber":"3189#","dimensions":{"lengthCm":20,"heightCm":15,"widthCm":5},"rawTitle":"『Celine 赛琳』\n\n贝壳包 TRIOMPHE帆布相机包  64%涂层帆布,36%小牛皮 可斜挎和肩背 拉链锁闭 可调节皮革肩带长20英寸(50厘米)\n尺寸:20 X 15 X 5cm\n型号:3189#"},"price":null,"currency":"CNY","moq":1,"category":"celine-women-bags","status":"active","alibaba_url":null,"images":["https://xcimg.szwego.com/20220422/i1650601951_1683_0.jpg","https://xcimg.szwego.com/20220422/i1650601951_2083_1.jpg","https://xcimg.szwego.com/20220422/i1650601951_9653_2.jpg","https://xcimg.szwego.com/20220422/i1650601951_7059_3.jpg","https://xcimg.szwego.com/20220422/i1650601951_2523_4.jpg","https://xcimg.szwego.com/20220422/i1650601951_612_5.jpg","https://xcimg.szwego.com/20220422/i1650601951_9806_6.jpg","https://xcimg.szwego.com/20220422/i1650601951_7737_7.jpg","https://xcimg.szwego.com/20220422/i1650601951_984_8.jpg"],"created_at":"2025-02-08T12:47:00.806Z"},{"id":"item-2f091494d63a","sku":"_dw-w-pIZ7C-O9CUpEonqp2ZgQdAiz-IC3uQ4wMw","name_en":"『Celine 赛琳』","name_cn":"『Celine 赛琳』\n\n贝壳包 TRIOMPHE帆布相机包  64%涂层帆布,36%小牛皮 可斜挎和肩背 拉链锁闭 可调节皮革肩带长20英寸(50厘米)\n尺寸:20 X 15 X 5cm\n型号:3189#","specs":{"source":"wsxcme","sourceId":"_dw-w-pIZ7C-O9CUpEonqp2ZgQdAiz-IC3uQ4wMw","sourceTagId":47003106,"sourceTagName":"塞琳/女包","modelNumber":"3189#","dimensions":{"lengthCm":20,"heightCm":15,"widthCm":5},"rawTitle":"『Celine 赛琳』\n\n贝壳包 TRIOMPHE帆布相机包  64%涂层帆布,36%小牛皮 可斜挎和肩背 拉链锁闭 可调节皮革肩带长20英寸(50厘米)\n尺寸:20 X 15 X 5cm\n型号:3189#"},"price":null,"currency":"CNY","moq":1,"category":"celine-women-bags","status":"active","alibaba_url":null,"images":["https://xcimg.szwego.com/20220422/i1650601915_3079_0.jpg","https://xcimg.szwego.com/20220422/i1650601915_5892_1.jpg","https://xcimg.szwego.com/20220422/i1650601915_3795_2.jpg","https://xcimg.szwego.com/20220422/i1650601915_2463_3.jpg","https://xcimg.szwego.com/20220422/i1650601915_6503_4.jpg","https://xcimg.szwego.com/20220422/i1650601915_1721_5.jpg","https://xcimg.szwego.com/20220422/i1650601915_9345_6.jpg","https://xcimg.szwego.com/20220422/i1650601915_866_7.jpg","https://xcimg.szwego.com/20220422/i1650601915_1166_8.jpg"],"created_at":"2025-02-08T12:47:00.805Z"},{"id":"item-4b6845b8359f","sku":"_dvPvPNpV3Mgl_2aHk4tdNI7PCkBsybRbijUQeHA","name_en":"『Celine 赛琳』","name_cn":"『Celine 赛琳』\n\n胶囊系列上线❤️ \nCELINE2022 AVA腋下包新色、从去年开始一直火到现在的C家腋下包,又出新色啦😍😍这个新色,是在老花的基础下加上金丝刺绣的凯旋门logo ,整个包身都是满满的logo ,logo 代入感极强!\n全钢五金→精美大货细节、堪称完美 这款腋下包颜值真的无死角!\n尺寸:24.5-18-7.5 料金丝\n款号:3112","specs":{"source":"wsxcme","sourceId":"_dvPvPNpV3Mgl_2aHk4tdNI7PCkBsybRbijUQeHA","sourceTagId":47003106,"sourceTagName":"塞琳/女包","modelNumber":"3112","rawTitle":"『Celine 赛琳』\n\n胶囊系列上线❤️ \nCELINE2022 AVA腋下包新色、从去年开始一直火到现在的C家腋下包,又出新色啦😍😍这个新色,是在老花的基础下加上金丝刺绣的凯旋门logo ,整个包身都是满满的logo ,logo 代入感极强!\n全钢五金→精美大货细节、堪称完美 这款腋下包颜值真的无死角!\n尺寸:24.5-18-7.5 料金丝\n款号:3112"},"price":null,"currency":"CNY","moq":1,"category":"celine-women-bags","status":"active","alibaba_url":null,"images":["https://xcimg.szwego.com/20220322/i1647944332_1669_0.jpg","https://xcimg.szwego.com/20220322/i1647944332_1261_1.jpg","https://xcimg.szwego.com/20220322/i1647944332_2095_2.jpg","https://xcimg.szwego.com/20220322/i1647944332_9471_3.jpg","https://xcimg.szwego.com/20220322/i1647944332_1501_4.jpg","https://xcimg.szwego.com/20220322/i1647944332_7370_5.jpg","https://xcimg.szwego.com/20220322/i1647944332_3518_6.jpg","https://xcimg.szwego.com/20220322/i1647944332_2628_7.jpg","https://xcimg.szwego.com/20220322/i1647944332_5943_8.jpg"],"created_at":"2025-02-08T12:47:00.804Z"},{"id":"item-fb1d53955e7a","sku":"_dq4q4jS4X3h-1aNR9-POSaE3o-ZjaCZXmFQMUdQ","name_en":"『Celine 赛琳』","name_cn":"『Celine 赛琳』\n\n胶囊系列上线❤️ 2022 春夏新色上线~\nTriomphe Mini Tote  包身在老花原有基础上加上金丝凯旋门logo ,logo 带入感十足,低调奢华!堪称搭配小精灵 ,百搭款,小小一只不要太可爱啦啦 涉猎广众集美们 停止不了的魅力\n款号:193302 料金丝\n尺寸:17-20-6","specs":{"source":"wsxcme","sourceId":"_dq4q4jS4X3h-1aNR9-POSaE3o-ZjaCZXmFQMUdQ","sourceTagId":47003106,"sourceTagName":"塞琳/女包","modelNumber":"193302 料金丝","rawTitle":"『Celine 赛琳』\n\n胶囊系列上线❤️ 2022 春夏新色上线~\nTriomphe Mini Tote  包身在老花原有基础上加上金丝凯旋门logo ,logo 带入感十足,低调奢华!堪称搭配小精灵 ,百搭款,小小一只不要太可爱啦啦 涉猎广众集美们 停止不了的魅力\n款号:193302 料金丝\n尺寸:17-20-6"},"price":null,"currency":"CNY","moq":1,"category":"celine-women-bags","status":"active","alibaba_url":null,"images":["https://xcimg.szwego.com/20220404/i1649063989_8449_0.jpg","https://xcimg.szwego.com/20220404/i1649063989_1265_1.jpg","https://xcimg.szwego.com/20220404/i1649063989_9132_2.jpg","https://xcimg.szwego.com/20220404/i1649063989_9927_3.jpg","https://xcimg.szwego.com/20220404/i1649063989_407_4.jpg","https://xcimg.szwego.com/20220404/i1649063989_4672_5.jpg","https://xcimg.szwego.com/20220404/i1649063989_3316_8.jpg","https://xcimg.szwego.com/20220404/i1649063989_7516_6.jpg","https://xcimg.szwego.com/20220404/i1649063989_5865_7.jpg"],"created_at":"2025-02-08T12:47:00.803Z"},{"id":"item-56bacb7ae084","sku":"_d6W6WIW3WKXd7EdCqL1rZgxEjPJjQG8uaGjDEaw","name_en":"『Celine 赛琳』","name_cn":"『Celine 赛琳』\n\n凯旋门腋下全皮法棍包出 牛皮 粉紫色 甜美可爱 尺寸:20cm 款号:3018  象牙白","specs":{"source":"wsxcme","sourceId":"_d6W6WIW3WKXd7EdCqL1rZgxEjPJjQG8uaGjDEaw","sourceTagId":47003106,"sourceTagName":"塞琳/女包","modelNumber":"3018  象牙白","rawTitle":"『Celine 赛琳』\n\n凯旋门腋下全皮法棍包出 牛皮 粉紫色 甜美可爱 尺寸:20cm 款号:3018  象牙白"},"price":null,"currency":"CNY","moq":1,"category":"celine-women-bags","status":"active","alibaba_url":null,"images":["https://xcimg.szwego.com/20220324/i1648109435_2767_0.jpg","https://xcimg.szwego.com/20220324/i1648109435_2886_1.jpg","https://xcimg.szwego.com/20220324/i1648109435_4339_2.jpg","https://xcimg.szwego.com/20220324/i1648109435_8038_3.jpg","https://xcimg.szwego.com/20220324/i1648109435_6067_4.jpg","https://xcimg.szwego.com/20220324/i1648109435_7418_5.jpg","https://xcimg.szwego.com/20220324/i1648109435_2405_6.jpg","https://xcimg.szwego.com/20220324/i1648109435_7083_7.jpg","https://xcimg.szwego.com/20220324/i1648109438_5767_0.jpg"],"created_at":"2025-02-08T12:47:00.802Z"},{"id":"item-9940b1d98c8b","sku":"_dmKmKUwm-jxD-DdQqFycmmcHqTkz2E0ns-uyrGw","name_en":"『Celine 赛琳』","name_cn":"『Celine 赛琳』\n\n凯旋门腋下全皮法棍包出 牛皮 粉紫色 甜美可爱 尺寸:20cm 款号:3018 玫粉色","specs":{"source":"wsxcme","sourceId":"_dmKmKUwm-jxD-DdQqFycmmcHqTkz2E0ns-uyrGw","sourceTagId":47003106,"sourceTagName":"塞琳/女包","modelNumber":"3018 玫粉色","rawTitle":"『Celine 赛琳』\n\n凯旋门腋下全皮法棍包出 牛皮 粉紫色 甜美可爱 尺寸:20cm 款号:3018 玫粉色"},"price":null,"currency":"CNY","moq":1,"category":"celine-women-bags","status":"active","alibaba_url":null,"images":["https://xcimg.szwego.com/20220324/i1648109229_5513_0.jpg","https://xcimg.szwego.com/20220324/i1648109229_2807_1.jpg","https://xcimg.szwego.com/20220324/i1648109229_9951_2.jpg","https://xcimg.szwego.com/20220324/i1648109229_355_3.jpg","https://xcimg.szwego.com/20220324/i1648109229_397_4.jpg","https://xcimg.szwego.com/20220324/i1648109229_1111_8.jpg","https://xcimg.szwego.com/20220324/i1648109229_9736_5.jpg","https://xcimg.szwego.com/20220324/i1648109229_144_6.jpg","https://xcimg.szwego.com/20220324/i1648109229_2955_7.jpg"],"created_at":"2025-02-08T12:47:00.801Z"},{"id":"item-1af65713de48","sku":"_dA0A05HSf5b14lknKxXZInfgXMbHBER7Ob0t5UA","name_en":"『Celine 赛琳』","name_cn":"『Celine 赛琳』\n\n新款Box 新款(凯旋门)老花信封包。大家都知道C家换了设计师 ,这次新款和旧款的最大不同之处在于钮扣,20s早春走秀款 将复古元素与一向拿手的利落线条完美结合 焕发出全新的动人魅力 尺寸 20-11.5-6cm","specs":{"source":"wsxcme","sourceId":"_dA0A05HSf5b14lknKxXZInfgXMbHBER7Ob0t5UA","sourceTagId":47003106,"sourceTagName":"塞琳/女包","rawTitle":"『Celine 赛琳』\n\n新款Box 新款(凯旋门)老花信封包。大家都知道C家换了设计师 ,这次新款和旧款的最大不同之处在于钮扣,20s早春走秀款 将复古元素与一向拿手的利落线条完美结合 焕发出全新的动人魅力 尺寸 20-11.5-6cm"},"price":null,"currency":"CNY","moq":1,"category":"celine-women-bags","status":"active","alibaba_url":null,"images":["https://xcimg.szwego.com/20210708/i1625675152_9331_0.jpg","https://xcimg.szwego.com/20210708/i1625675152_5562_1.jpg","https://xcimg.szwego.com/20210708/i1625675152_9473_2.jpg","https://xcimg.szwego.com/20210708/i1625675152_2204_3.jpg","https://xcimg.szwego.com/20210708/i1625675152_1783_4.jpg","https://xcimg.szwego.com/20210708/i1625675152_3035_5.jpg","https://xcimg.szwego.com/20210708/i1625675152_2620_6.jpg","https://xcimg.szwego.com/20210708/i1625675152_2043_7.jpg","https://xcimg.szwego.com/20210708/i1625675152_3470_8.jpg"],"created_at":"2025-02-08T12:47:00.800Z"},{"id":"item-8be21f8bb7ba","sku":"_dAnAn3IGxilPJfseceyYLoDJ5vAgquhmXm92v0Q","name_en":"『Celine 赛琳』","name_cn":"『Celine 赛琳』\n\nTRIOMPHE标志印花牛皮革肩背包8 X 4 X 2英寸(20 X 10 X 4厘米)TRIOMPHE CANVAS标志印花,牛皮革包边羊皮革衬里肩背TRIOMPHE 金属质感锁扣内侧扁平口袋可调节皮革肩带长8英寸(20厘米)","specs":{"source":"wsxcme","sourceId":"_dAnAn3IGxilPJfseceyYLoDJ5vAgquhmXm92v0Q","sourceTagId":47003106,"sourceTagName":"塞琳/女包","rawTitle":"『Celine 赛琳』\n\nTRIOMPHE标志印花牛皮革肩背包8 X 4 X 2英寸(20 X 10 X 4厘米)TRIOMPHE CANVAS标志印花,牛皮革包边羊皮革衬里肩背TRIOMPHE 金属质感锁扣内侧扁平口袋可调节皮革肩带长8英寸(20厘米)"},"price":null,"currency":"CNY","moq":1,"category":"celine-women-bags","status":"active","alibaba_url":null,"images":["https://xcimg.szwego.com/20210408/i1617827421_724_0.jpg","https://xcimg.szwego.com/20210408/i1617827421_1902_1.jpg","https://xcimg.szwego.com/20210408/i1617827421_1330_2.jpg","https://xcimg.szwego.com/20210408/i1617827421_4797_3.jpg","https://xcimg.szwego.com/20210408/i1617827421_9558_4.jpg","https://xcimg.szwego.com/20210408/i1617827421_3182_5.jpg","https://xcimg.szwego.com/20210408/i1617827421_9934_6.jpg","https://xcimg.szwego.com/20210408/i1617827421_3132_7.jpg"],"created_at":"2025-02-08T12:47:00.799Z"},{"id":"item-86d14a1d60d2","sku":"_dnini5AEOLNz5ZiIiUfb_PECQWPNOIuEdkc_scA","name_en":"『Celine 赛琳』","name_cn":"『Celine 赛琳』\n\nTRIOMPHE标志印花牛皮革肩背包8 X 4 X 2英寸(20 X 10 X 4厘米)TRIOMPHE CANVAS标志印花,牛皮革包边羊皮革衬里肩背TRIOMPHE 金属质感锁扣内侧扁平口袋可调节皮革肩带长8英寸(20厘米)","specs":{"source":"wsxcme","sourceId":"_dnini5AEOLNz5ZiIiUfb_PECQWPNOIuEdkc_scA","sourceTagId":47003106,"sourceTagName":"塞琳/女包","rawTitle":"『Celine 赛琳』\n\nTRIOMPHE标志印花牛皮革肩背包8 X 4 X 2英寸(20 X 10 X 4厘米)TRIOMPHE CANVAS标志印花,牛皮革包边羊皮革衬里肩背TRIOMPHE 金属质感锁扣内侧扁平口袋可调节皮革肩带长8英寸(20厘米)"},"price":null,"currency":"CNY","moq":1,"category":"celine-women-bags","status":"active","alibaba_url":null,"images":["https://xcimg.szwego.com/20210731/i1627739324_7606_0.jpg","https://xcimg.szwego.com/20210731/i1627739324_6761_1.jpg","https://xcimg.szwego.com/20210731/i1627739324_551_2.jpg","https://xcimg.szwego.com/20210731/i1627739324_5414_3.jpg","https://xcimg.szwego.com/20210731/i1627739324_7610_4.jpg","https://xcimg.szwego.com/20210731/i1627739324_2214_5.jpg","https://xcimg.szwego.com/20210731/i1627739324_9060_6.jpg","https://xcimg.szwego.com/20210731/i1627739324_4688_7.jpg"],"created_at":"2025-02-08T12:47:00.798Z"},{"id":"item-5af1cf909de5","sku":"_dflflfvaTj2AmRwgo2JnlStGIH6j6yAz1i_-zrA","name_en":"『Celine 赛琳』","name_cn":"『Celine 赛琳』\n\nCABAS TRIOMPHE🛍老花MiNi号竖款手袋65%纺织布,35%小牛皮100%棉衬里内侧插袋可调节可拆卸皮革肩带 长20英寸(50厘米)尺寸20X 17X 6厘米)","specs":{"source":"wsxcme","sourceId":"_dflflfvaTj2AmRwgo2JnlStGIH6j6yAz1i_-zrA","sourceTagId":47003106,"sourceTagName":"塞琳/女包","dimensions":{"lengthCm":20,"heightCm":17,"widthCm":6},"rawTitle":"『Celine 赛琳』\n\nCABAS TRIOMPHE🛍老花MiNi号竖款手袋65%纺织布,35%小牛皮100%棉衬里内侧插袋可调节可拆卸皮革肩带 长20英寸(50厘米)尺寸20X 17X 6厘米)"},"price":null,"currency":"CNY","moq":1,"category":"celine-women-bags","status":"active","alibaba_url":null,"images":["https://xcimg.szwego.com/20210408/i1617827623_1843_0.jpg","https://xcimg.szwego.com/20210408/i1617827623_7202_1.jpg","https://xcimg.szwego.com/20210408/i1617827623_3330_2.jpg","https://xcimg.szwego.com/20210408/i1617827623_1301_3.jpg","https://xcimg.szwego.com/20210408/i1617827623_7079_4.jpg","https://xcimg.szwego.com/20210408/i1617827623_9626_5.jpg","https://xcimg.szwego.com/20210408/i1617827623_3157_6.jpg","https://xcimg.szwego.com/20210408/i1617827623_6371_7.jpg"],"created_at":"2025-02-08T12:47:00.797Z"},{"id":"item-9a5cb29b1d13","sku":"_deaea18eUfG1QP_8DzixSPRbkFVvjLQFGQP1uYw","name_en":"『Celine 赛琳』","name_cn":"『Celine 赛琳』\n\nCABAS TRIOMPHE🛍老花MiNi号竖款手袋65%纺织布,35%小牛皮100%棉衬里内侧插袋可调节可拆卸皮革肩带 长20英寸(50厘米)尺寸20X 17X 6厘米)","specs":{"source":"wsxcme","sourceId":"_deaea18eUfG1QP_8DzixSPRbkFVvjLQFGQP1uYw","sourceTagId":47003106,"sourceTagName":"塞琳/女包","dimensions":{"lengthCm":20,"heightCm":17,"widthCm":6},"rawTitle":"『Celine 赛琳』\n\nCABAS TRIOMPHE🛍老花MiNi号竖款手袋65%纺织布,35%小牛皮100%棉衬里内侧插袋可调节可拆卸皮革肩带 长20英寸(50厘米)尺寸20X 17X 6厘米)"},"price":null,"currency":"CNY","moq":1,"category":"celine-women-bags","status":"active","alibaba_url":null,"images":["https://xcimg.szwego.com/20210408/i1617827648_7948_0.jpg","https://xcimg.szwego.com/20210408/i1617827648_130_1.jpg","https://xcimg.szwego.com/20210408/i1617827648_2559_2.jpg","https://xcimg.szwego.com/20210408/i1617827648_1166_3.jpg","https://xcimg.szwego.com/20210408/i1617827648_3018_4.jpg","https://xcimg.szwego.com/20210408/i1617827648_986_5.jpg","https://xcimg.szwego.com/20210408/i1617827648_7123_6.jpg","https://xcimg.szwego.com/20210408/i1617827648_5800_7.jpg"],"created_at":"2025-02-08T12:47:00.796Z"},{"id":"item-0ce2e91da4ab","sku":"_dLPLPB4uT2dKhJy47Cv9LbX0WntD_RpegNxJG8w","name_en":"『Celine 赛琳』","name_cn":"『Celine 赛琳』\n\nCABAS TRIOMPHE🛍老花MiNi号竖款手袋65%纺织布,35%小牛皮100%棉衬里内侧插袋可调节可拆卸皮革肩带 长20英寸(50厘米)尺寸20X 17X 6厘米)","specs":{"source":"wsxcme","sourceId":"_dLPLPB4uT2dKhJy47Cv9LbX0WntD_RpegNxJG8w","sourceTagId":47003106,"sourceTagName":"塞琳/女包","dimensions":{"lengthCm":20,"heightCm":17,"widthCm":6},"rawTitle":"『Celine 赛琳』\n\nCABAS TRIOMPHE🛍老花MiNi号竖款手袋65%纺织布,35%小牛皮100%棉衬里内侧插袋可调节可拆卸皮革肩带 长20英寸(50厘米)尺寸20X 17X 6厘米)"},"price":null,"currency":"CNY","moq":1,"category":"celine-women-bags","status":"active","alibaba_url":null,"images":["https://xcimg.szwego.com/20210731/i1627739442_1106_0.jpg","https://xcimg.szwego.com/20210731/i1627739442_6748_1.jpg","https://xcimg.szwego.com/20210731/i1627739442_58_2.jpg","https://xcimg.szwego.com/20210731/i1627739442_1753_3.jpg","https://xcimg.szwego.com/20210731/i1627739442_1896_4.jpg","https://xcimg.szwego.com/20210731/i1627739442_2550_5.jpg","https://xcimg.szwego.com/20210731/i1627739442_3957_6.jpg","https://xcimg.szwego.com/20210731/i1627739442_1404_7.jpg"],"created_at":"2025-02-08T12:47:00.795Z"},{"id":"item-2ddc6a328005","sku":"_d4949aR6P06xGYsCuOn6ocqNoHRcP5hqRd7z18g","name_en":"『Celine 赛琳』","name_cn":"『Celine 赛琳』\n\n经典CABAS TRIOMPHE \n老花MiNi号竖款手袋🛍 65%涂层帆布,\n35%小牛皮,100%棉衬里,内侧插袋,  \n可调节可拆卸皮革肩带,\n尺寸:20cm X 17cm X 6cm   \n型号:2200#","specs":{"source":"wsxcme","sourceId":"_d4949aR6P06xGYsCuOn6ocqNoHRcP5hqRd7z18g","sourceTagId":47003106,"sourceTagName":"塞琳/女包","modelNumber":"2200#","rawTitle":"『Celine 赛琳』\n\n经典CABAS TRIOMPHE \n老花MiNi号竖款手袋🛍 65%涂层帆布,\n35%小牛皮,100%棉衬里,内侧插袋,  \n可调节可拆卸皮革肩带,\n尺寸:20cm X 17cm X 6cm   \n型号:2200#"},"price":null,"currency":"CNY","moq":1,"category":"celine-women-bags","status":"active","alibaba_url":null,"images":["https://xcimg.szwego.com/20220504/i1651635207_279_0.jpg","https://xcimg.szwego.com/20220504/i1651635207_5171_1.jpg","https://xcimg.szwego.com/20220504/i1651635207_7563_2.jpg","https://xcimg.szwego.com/20220504/i1651635207_720_3.jpg","https://xcimg.szwego.com/20220504/i1651635207_3945_4.jpg","https://xcimg.szwego.com/20220504/i1651635207_1237_5.jpg","https://xcimg.szwego.com/20220504/i1651635207_2822_6.jpg","https://xcimg.szwego.com/20220504/i1651635207_4231_7.jpg","https://xcimg.szwego.com/20220504/i1651635207_6429_8.jpg"],"created_at":"2025-02-08T12:47:00.794Z"},{"id":"item-3ee5ae53f9f9","sku":"_djIjIeSfrcPuvQzn9EvdB39lTpcdAx821qMh5qA","name_en":"『Celine 赛琳』","name_cn":"『Celine 赛琳』\n\n经典CABAS TRIOMPHE \n白花MiNi号竖款手袋🛍 65%涂层帆布,\n35%小牛皮,100%棉衬里,内侧插袋,  \n可调节可拆卸皮革肩带,\n尺寸:20cm X 17cm X 6cm   \n型号:2200#","specs":{"source":"wsxcme","sourceId":"_djIjIeSfrcPuvQzn9EvdB39lTpcdAx821qMh5qA","sourceTagId":47003106,"sourceTagName":"塞琳/女包","modelNumber":"2200#","rawTitle":"『Celine 赛琳』\n\n经典CABAS TRIOMPHE \n白花MiNi号竖款手袋🛍 65%涂层帆布,\n35%小牛皮,100%棉衬里,内侧插袋,  \n可调节可拆卸皮革肩带,\n尺寸:20cm X 17cm X 6cm   \n型号:2200#"},"price":null,"currency":"CNY","moq":1,"category":"celine-women-bags","status":"active","alibaba_url":null,"images":["https://xcimg.szwego.com/20220504/i1651635268_3369_0.jpg","https://xcimg.szwego.com/20220504/i1651635268_6483_1.jpg","https://xcimg.szwego.com/20220504/i1651635268_1246_2.jpg","https://xcimg.szwego.com/20220504/i1651635268_8196_3.jpg","https://xcimg.szwego.com/20220504/i1651635268_6642_4.jpg","https://xcimg.szwego.com/20220504/i1651635268_8022_5.jpg","https://xcimg.szwego.com/20220504/i1651635268_7319_6.jpg","https://xcimg.szwego.com/20220504/i1651635268_5400_7.jpg","https://xcimg.szwego.com/20220504/i1651635268_2859_8.jpg"],"created_at":"2025-02-08T12:47:00.793Z"},{"id":"item-a3d9d5d967cc","sku":"_dvgvgFpJyR52GKBRvKfpt1K3Dakvbbekbn1xlTA","name_en":"『Celine 赛琳』","name_cn":"『Celine 赛琳』\n\n新款FOLCO TRIOMPHE邮差包PVC/牛皮 衬里 : 织物 斜挎和肩背 带扣和磁扣 内侧扁平口袋  翻盖下设扁平口袋,背面扁平口袋 可调节肩带 长(53厘米)\n尺寸:31 X 24 X 9cm\n款号:3350#","specs":{"source":"wsxcme","sourceId":"_dvgvgFpJyR52GKBRvKfpt1K3Dakvbbekbn1xlTA","sourceTagId":47003106,"sourceTagName":"塞琳/女包","modelNumber":"3350#","dimensions":{"lengthCm":31,"heightCm":24,"widthCm":9},"rawTitle":"『Celine 赛琳』\n\n新款FOLCO TRIOMPHE邮差包PVC/牛皮 衬里 : 织物 斜挎和肩背 带扣和磁扣 内侧扁平口袋  翻盖下设扁平口袋,背面扁平口袋 可调节肩带 长(53厘米)\n尺寸:31 X 24 X 9cm\n款号:3350#"},"price":null,"currency":"CNY","moq":1,"category":"celine-women-bags","status":"active","alibaba_url":null,"images":["https://xcimg.szwego.com/20211113/i1636775013_9030_0.jpg","https://xcimg.szwego.com/20211113/i1636775013_7617_1.jpg","https://xcimg.szwego.com/20211113/i1636775013_9621_2.jpg","https://xcimg.szwego.com/20211113/i1636775013_2748_3.jpg","https://xcimg.szwego.com/20211113/i1636775013_1212_4.jpg","https://xcimg.szwego.com/20211113/i1636775013_6545_5.jpg","https://xcimg.szwego.com/20211113/i1636775013_6656_6.jpg","https://xcimg.szwego.com/20211113/i1636775013_7710_7.jpg","https://xcimg.szwego.com/20211113/i1636775013_611_8.jpg"],"created_at":"2025-02-08T12:47:00.792Z"},{"id":"item-3f3afdf4f76a","sku":"_dnmnmbBKjGNunp23u-MGUW_WaR-uTDSyeiVUQQA","name_en":"『Celine 赛琳』","name_cn":"『Celine 赛琳』\n\nCe.line 春夏新品Folco白色涂层帆布马鞍包 延续凯旋门 复古斜挎  耐看经典印花一点都不老套。\n尺寸:18x16x10cm\n型号:2179#","specs":{"source":"wsxcme","sourceId":"_dnmnmbBKjGNunp23u-MGUW_WaR-uTDSyeiVUQQA","sourceTagId":47003106,"sourceTagName":"塞琳/女包","modelNumber":"2179#","dimensions":{"lengthCm":18,"heightCm":16,"widthCm":10},"rawTitle":"『Celine 赛琳』\n\nCe.line 春夏新品Folco白色涂层帆布马鞍包 延续凯旋门 复古斜挎  耐看经典印花一点都不老套。\n尺寸:18x16x10cm\n型号:2179#"},"price":null,"currency":"CNY","moq":1,"category":"celine-women-bags","status":"active","alibaba_url":null,"images":["https://xcimg.szwego.com/20220224/i1645679218_7663_0.jpg","https://xcimg.szwego.com/20220224/i1645679218_667_1.jpg","https://xcimg.szwego.com/20220224/i1645679218_6374_2.jpg","https://xcimg.szwego.com/20220224/i1645679218_2908_3.jpg","https://xcimg.szwego.com/20220224/i1645679218_4766_4.jpg","https://xcimg.szwego.com/20220224/i1645679218_103_5.jpg","https://xcimg.szwego.com/20220224/i1645679218_9096_6.jpg","https://xcimg.szwego.com/20220224/i1645679218_5806_7.jpg","https://xcimg.szwego.com/20220224/i1645679218_7219_8.jpg"],"created_at":"2025-02-08T12:47:00.791Z"},{"id":"item-d5bf02260aa8","sku":"_dGaGaUOEYd2pd6A8WwATpHSnO5TwTKXlS3EvL2Q","name_en":"『Celine 赛琳』","name_cn":"『Celine 赛琳』\n\n老花水桶包 大号\n\n定制品质✅\n层牛皮配pvc花料\n按扣开合💕容量非常OK\n自重轻耐磨 防水 不易刮花\n\n尺寸:33×27×17cm","specs":{"source":"wsxcme","sourceId":"_dGaGaUOEYd2pd6A8WwATpHSnO5TwTKXlS3EvL2Q","sourceTagId":47003106,"sourceTagName":"塞琳/女包","dimensions":{"lengthCm":33,"heightCm":27,"widthCm":17},"rawTitle":"『Celine 赛琳』\n\n老花水桶包 大号\n\n定制品质✅\n层牛皮配pvc花料\n按扣开合💕容量非常OK\n自重轻耐磨 防水 不易刮花\n\n尺寸:33×27×17cm"},"price":null,"currency":"CNY","moq":1,"category":"celine-women-bags","status":"active","alibaba_url":null,"images":["https://xcimg.szwego.com/20210421/i1618979997_7429_3.jpg","https://xcimg.szwego.com/20210421/i1618979997_7827_1.jpg","https://xcimg.szwego.com/20210421/i1618979997_6024_2.jpg","https://xcimg.szwego.com/20210421/i1618979997_732_4.jpg","https://xcimg.szwego.com/20210421/i1618979997_2976_0.jpg","https://xcimg.szwego.com/20210421/i1618979997_910_5.jpg","https://xcimg.szwego.com/20210421/i1618979997_1280_6.jpg","https://xcimg.szwego.com/20210421/i1618979997_275_7.jpg","https://xcimg.szwego.com/20210421/i1618979997_351_8.jpg"],"created_at":"2025-02-08T12:47:00.790Z"},{"id":"item-ab42ee9e07a0","sku":"_dVAVA8YpPcsmS-rHKmImp-5wj8BKVMXOVf2Xpsw","name_en":"『Celine 赛琳』","name_cn":"『Celine 赛琳』\n\n老花水桶包•小号\n\n心心念念尺寸终于出货✅\n实用性超强\n小个子非常友好\n经典款老花超百搭❤\n尺寸:30×22×13cm","specs":{"source":"wsxcme","sourceId":"_dVAVA8YpPcsmS-rHKmImp-5wj8BKVMXOVf2Xpsw","sourceTagId":47003106,"sourceTagName":"塞琳/女包","dimensions":{"lengthCm":30,"heightCm":22,"widthCm":13},"rawTitle":"『Celine 赛琳』\n\n老花水桶包•小号\n\n心心念念尺寸终于出货✅\n实用性超强\n小个子非常友好\n经典款老花超百搭❤\n尺寸:30×22×13cm"},"price":null,"currency":"CNY","moq":1,"category":"celine-women-bags","status":"active","alibaba_url":null,"images":["https://xcimg.szwego.com/20211003/i1633247019_1289_0.jpg","https://xcimg.szwego.com/20211003/i1633247019_5880_2.jpg","https://xcimg.szwego.com/20211003/i1633247019_8411_1.jpg","https://xcimg.szwego.com/20211003/i1633247019_3773_3.jpg","https://xcimg.szwego.com/20211003/i1633247019_6467_4.jpg","https://xcimg.szwego.com/20211003/i1633247019_2781_5.jpg","https://xcimg.szwego.com/20211003/i1633247019_5994_6.jpg","https://xcimg.szwego.com/20211003/i1633247019_6225_7.jpg","https://xcimg.szwego.com/20211003/i1633247019_9774_8.jpg"],"created_at":"2025-02-08T12:47:00.789Z"},{"id":"item-5e33992db8be","sku":"_dFHFHSTLYT0_JwaOmUydxKGGCG_xyszsls0LGCA","name_en":"『Celine 赛琳』","name_cn":"『Celine 赛琳』\n\nbox18.5cm 焦糖色\n\n专柜最新尺寸teen💥\n头层牛皮配定制五金\n内里两层\n内侧有扁平口袋✅\n尺寸:18.5×15.5×6cm","specs":{"source":"wsxcme","sourceId":"_dFHFHSTLYT0_JwaOmUydxKGGCG_xyszsls0LGCA","sourceTagId":47003106,"sourceTagName":"塞琳/女包","dimensions":{"lengthCm":18.5,"heightCm":15.5,"widthCm":6},"rawTitle":"『Celine 赛琳』\n\nbox18.5cm 焦糖色\n\n专柜最新尺寸teen💥\n头层牛皮配定制五金\n内里两层\n内侧有扁平口袋✅\n尺寸:18.5×15.5×6cm"},"price":null,"currency":"CNY","moq":1,"category":"celine-women-bags","status":"active","alibaba_url":null,"images":["https://xcimg.szwego.com/20201126/i1606375939_3029_0.jpg","https://xcimg.szwego.com/20201126/i1606375939_9379_1.jpg","https://xcimg.szwego.com/20201126/i1606375939_5272_2.jpg","https://xcimg.szwego.com/20201126/i1606375939_2760_3.jpg","https://xcimg.szwego.com/20201126/i1606375939_7227_4.jpg","https://xcimg.szwego.com/20201126/i1606375939_1490_5.jpg","https://xcimg.szwego.com/20201126/i1606375939_7553_6.jpg","https://xcimg.szwego.com/20201126/i1606375939_7532_7.jpg","https://xcimg.szwego.com/20201126/i1606375939_412_8.jpg"],"created_at":"2025-02-08T12:47:00.788Z"},{"id":"item-333eb29d2c84","sku":"_dK1K1PWEy-B8EPS39pT4kx6TIJG5Ojkh5drAonA","name_en":"『Celine 赛琳』","name_cn":"『Celine 赛琳』\n\nbox18.5cm 酒红色\n\n专柜最新尺寸teen💥\n头层牛皮配定制五金\n内里两层\n内侧有扁平口袋✅\n尺寸:18.5×15.5×6cm","specs":{"source":"wsxcme","sourceId":"_dK1K1PWEy-B8EPS39pT4kx6TIJG5Ojkh5drAonA","sourceTagId":47003106,"sourceTagName":"塞琳/女包","dimensions":{"lengthCm":18.5,"heightCm":15.5,"widthCm":6},"rawTitle":"『Celine 赛琳』\n\nbox18.5cm 酒红色\n\n专柜最新尺寸teen💥\n头层牛皮配定制五金\n内里两层\n内侧有扁平口袋✅\n尺寸:18.5×15.5×6cm"},"price":null,"currency":"CNY","moq":1,"category":"celine-women-bags","status":"active","alibaba_url":null,"images":["https://xcimg.szwego.com/20201126/i1606377680_6871_0.jpg","https://xcimg.szwego.com/20201126/i1606377680_3214_1.jpg","https://xcimg.szwego.com/20201126/i1606377680_654_2.jpg","https://xcimg.szwego.com/20201126/i1606377680_6319_3.jpg","https://xcimg.szwego.com/20201126/i1606377680_8384_4.jpg","https://xcimg.szwego.com/20201126/i1606377680_7313_5.jpg","https://xcimg.szwego.com/20201126/i1606377680_1205_6.jpg","https://xcimg.szwego.com/20201126/i1606377680_1421_7.jpg","https://xcimg.szwego.com/20201126/i1606377680_9866_8.jpg"],"created_at":"2025-02-08T12:47:00.787Z"}],"page":18,"pageSize":24,"total":582,"totalPages":25}
