{"items":[{"id":"item-f6ab810d3675","sku":"_dJSJSM7cNXCdJwNJ6JJ4KGaj9bsIbh2q00g6-7w","name_en":"CELINE最新秀款盒子包~","name_cn":"CELINE最新秀款盒子包~\n实物图美美的\n26春夏订货会预定款","specs":{"source":"wsxcme","sourceId":"_dJSJSM7cNXCdJwNJ6JJ4KGaj9bsIbh2q00g6-7w","sourceTagId":47003106,"sourceTagName":"塞琳/女包","rawTitle":"CELINE最新秀款盒子包~\n实物图美美的\n26春夏订货会预定款"},"price":null,"currency":"CNY","moq":1,"category":"celine-women-bags","status":"active","alibaba_url":null,"images":["https://xcimg.szwego.com/img/1a8dcad8/20260117/i1768652600192_8498_0_0.jpg","https://xcimg.szwego.com/img/1a8dcad8/20260117/i1768652600193_7038_0_1.jpg","https://xcimg.szwego.com/img/1a8dcad8/20260117/i1768652600192_1484_0_2.jpg","https://xcimg.szwego.com/img/1a8dcad8/20260117/i1768652600192_5317_0_3.jpg","https://xcimg.szwego.com/img/1a8dcad8/20260117/i1768652600194_9997_0_4.jpg","https://xcimg.szwego.com/img/1a8dcad8/20260117/i1768652600778_857_0_5.jpg"],"created_at":"2026-05-20T03:16:24.546Z"},{"id":"item-5ec70ea3cecc","sku":"_dN1N18G9iFjJYdYfnalkQA98ZrRn5S9DapCNnWg","name_en":"TRIOMPHE FRAME小号标志印花手袋4.9 X 4.9 X 4.9英寸(12.5 X 12.5 X 12.5厘米)","name_cn":"TRIOMPHE FRAME小号标志印花手袋4.9 X 4.9 X 4.9英寸(12.5 X 12.5 X 12.5厘米)\n标志印花,天然牛皮革包边\n羊皮革衬里\n金色饰面\n手提、手挽、肩背\nTRIOMPHE金属质感锁扣\n1个主隔层\n1个内侧梳妆镜\n可调节肩带,最小长度6.69英寸(17厘米),最大长度12.2英寸(31厘米)\n编号:124232 (配原版包装)","specs":{"source":"wsxcme","sourceId":"_dN1N18G9iFjJYdYfnalkQA98ZrRn5S9DapCNnWg","sourceTagId":47003106,"sourceTagName":"塞琳/女包","rawTitle":"TRIOMPHE FRAME小号标志印花手袋4.9 X 4.9 X 4.9英寸(12.5 X 12.5 X 12.5厘米)\n标志印花,天然牛皮革包边\n羊皮革衬里\n金色饰面\n手提、手挽、肩背\nTRIOMPHE金属质感锁扣\n1个主隔层\n1个内侧梳妆镜\n可调节肩带,最小长度6.69英寸(17厘米),最大长度12.2英寸(31厘米)\n编号:124232 (配原版包装)"},"price":null,"currency":"CNY","moq":1,"category":"celine-women-bags","status":"active","alibaba_url":null,"images":["https://xcimg.szwego.com/img/1a8dcad8/20260117/i1768652317784_3043_0_0.jpg","https://xcimg.szwego.com/img/1a8dcad8/20260117/i1768652317682_6277_0_1.jpg","https://xcimg.szwego.com/img/1a8dcad8/20260117/i1768652318801_6933_0_2.jpg","https://xcimg.szwego.com/img/1a8dcad8/20260117/i1768652317787_2533_0_3.jpg","https://xcimg.szwego.com/img/1a8dcad8/20260117/i1768652318736_5885_0_4.jpg","https://xcimg.szwego.com/img/1a8dcad8/20260117/i1768652317773_7605_0_5.jpg","https://xcimg.szwego.com/img/1a8dcad8/20260117/i1768652317834_6914_0_6.jpg","https://xcimg.szwego.com/img/1a8dcad8/20260117/i1768652318774_6822_0_7.jpg","https://xcimg.szwego.com/img/1a8dcad8/20260117/i1768652318830_5002_0_8.jpg"],"created_at":"2026-05-20T03:16:24.536Z"},{"id":"item-2f58d04f0914","sku":"_ddmdm_LkZMhjbX3HER3Y8B_Lk4BBGL51i1aV5Sg","name_en":"TRIOMPHE FRAME小号标志印花手袋4.9 X 4.9 X 4.9英寸(12.5 X 12.5 X 12.5厘米)","name_cn":"TRIOMPHE FRAME小号标志印花手袋4.9 X 4.9 X 4.9英寸(12.5 X 12.5 X 12.5厘米)\n标志印花,天然牛皮革包边\n羊皮革衬里\n金色饰面\n手提、手挽、肩背\nTRIOMPHE金属质感锁扣\n1个主隔层\n1个内侧梳妆镜\n可调节肩带,最小长度6.69英寸(17厘米),最大长度12.2英寸(31厘米)\n编号:124232 (配原版包装)","specs":{"source":"wsxcme","sourceId":"_ddmdm_LkZMhjbX3HER3Y8B_Lk4BBGL51i1aV5Sg","sourceTagId":47003106,"sourceTagName":"塞琳/女包","rawTitle":"TRIOMPHE FRAME小号标志印花手袋4.9 X 4.9 X 4.9英寸(12.5 X 12.5 X 12.5厘米)\n标志印花,天然牛皮革包边\n羊皮革衬里\n金色饰面\n手提、手挽、肩背\nTRIOMPHE金属质感锁扣\n1个主隔层\n1个内侧梳妆镜\n可调节肩带,最小长度6.69英寸(17厘米),最大长度12.2英寸(31厘米)\n编号:124232 (配原版包装)"},"price":null,"currency":"CNY","moq":1,"category":"celine-women-bags","status":"active","alibaba_url":null,"images":["https://xcimg.szwego.com/img/1a8dcad8/20260117/i1768652156887_7602_0_0.jpg","https://xcimg.szwego.com/img/1a8dcad8/20260117/i1768652155648_8955_0_1.jpg","https://xcimg.szwego.com/img/1a8dcad8/20260117/i1768652155648_5166_0_2.jpg","https://xcimg.szwego.com/img/1a8dcad8/20260117/i1768652155648_7889_0_3.jpg","https://xcimg.szwego.com/img/1a8dcad8/20260117/i1768652155648_543_0_4.jpg","https://xcimg.szwego.com/img/1a8dcad8/20260117/i1768652156870_3855_0_5.jpg","https://xcimg.szwego.com/img/1a8dcad8/20260117/i1768652155675_1569_0_6.jpg","https://xcimg.szwego.com/img/1a8dcad8/20260117/i1768652156956_1758_0_7.jpg"],"created_at":"2026-05-20T03:16:24.526Z"},{"id":"item-634a10076b3e","sku":"_d9090veBAyel7zPzhvq64OiuJH18FqbsYP5WSNQ","name_en":"TRIOMPHE FRAME小号标志印花手袋4.9 X 4.9 X 4.9英寸(12.5 X 12.5 X 12.5厘米)","name_cn":"TRIOMPHE FRAME小号标志印花手袋4.9 X 4.9 X 4.9英寸(12.5 X 12.5 X 12.5厘米)\n标志印花,天然牛皮革包边\n羊皮革衬里\n金色饰面\n手提、手挽、肩背\nTRIOMPHE金属质感锁扣\n1个主隔层\n1个内侧梳妆镜\n可调节肩带,最小长度6.69英寸(17厘米),最大长度12.2英寸(31厘米)\n编号:124232 (配原版包装)","specs":{"source":"wsxcme","sourceId":"_d9090veBAyel7zPzhvq64OiuJH18FqbsYP5WSNQ","sourceTagId":47003106,"sourceTagName":"塞琳/女包","rawTitle":"TRIOMPHE FRAME小号标志印花手袋4.9 X 4.9 X 4.9英寸(12.5 X 12.5 X 12.5厘米)\n标志印花,天然牛皮革包边\n羊皮革衬里\n金色饰面\n手提、手挽、肩背\nTRIOMPHE金属质感锁扣\n1个主隔层\n1个内侧梳妆镜\n可调节肩带,最小长度6.69英寸(17厘米),最大长度12.2英寸(31厘米)\n编号:124232 (配原版包装)"},"price":null,"currency":"CNY","moq":1,"category":"celine-women-bags","status":"active","alibaba_url":null,"images":["https://xcimg.szwego.com/img/77bdff09/20260430/i1777515172063_7785_0_0.jpg","https://xcimg.szwego.com/img/77bdff09/20260430/i1777515172083_34_0_1.jpg","https://xcimg.szwego.com/img/77bdff09/20260430/i1777515170726_1754_0_2.jpg","https://xcimg.szwego.com/img/77bdff09/20260430/i1777515170726_1547_0_3.jpg","https://xcimg.szwego.com/img/77bdff09/20260430/i1777515170726_2439_0_4.jpg","https://xcimg.szwego.com/img/77bdff09/20260430/i1777515170726_7907_0_5.jpg","https://xcimg.szwego.com/img/77bdff09/20260430/i1777515170726_4869_0_6.jpg"],"created_at":"2026-05-20T03:16:24.516Z"},{"id":"item-22e321089b7c","sku":"_d8787O8f_LNCoLetusKYQotP9dzCi-z_RqnHLFg","name_en":"CELIN新款黑金凯旋门FOLCO手提单肩皆可","name_cn":"CELIN新款黑金凯旋门FOLCO手提单肩皆可\n尺寸25.5*14**7.5cm算是大容量选手风琴褶结构利落挺拮简约又高级","specs":{"source":"wsxcme","sourceId":"_d8787O8f_LNCoLetusKYQotP9dzCi-z_RqnHLFg","sourceTagId":47003106,"sourceTagName":"塞琳/女包","rawTitle":"CELIN新款黑金凯旋门FOLCO手提单肩皆可\n尺寸25.5*14**7.5cm算是大容量选手风琴褶结构利落挺拮简约又高级"},"price":null,"currency":"CNY","moq":1,"category":"celine-women-bags","status":"active","alibaba_url":null,"images":["https://xcimg.szwego.com/img/1a8dcad8/20260416/a1776314315737_2201.jpg","https://xcimg.szwego.com/img/1a8dcad8/20260416/a1776314315772_8306.jpg","https://xcimg.szwego.com/img/1a8dcad8/20260416/a1776314315683_3322.jpg","https://xcimg.szwego.com/img/1a8dcad8/20260416/a1776314315782_7131.jpg","https://xcimg.szwego.com/img/1a8dcad8/20260416/a1776314315793_6040.jpg"],"created_at":"2026-05-20T03:16:24.506Z"},{"id":"item-c18ac1c8bc1a","sku":"_dcjcjaSODN2Raev4G06_ERCjfbPC8BsY0R7QN-g","name_en":"CELINE| FOLIO新款包包天然小牛皮”","name_cn":"CELINE| FOLIO新款包包天然小牛皮”\n带手柄的“凯旋门”Triomphe来了","specs":{"source":"wsxcme","sourceId":"_dcjcjaSODN2Raev4G06_ERCjfbPC8BsY0R7QN-g","sourceTagId":47003106,"sourceTagName":"塞琳/女包","rawTitle":"CELINE| FOLIO新款包包天然小牛皮”\n带手柄的“凯旋门”Triomphe来了"},"price":null,"currency":"CNY","moq":1,"category":"celine-women-bags","status":"active","alibaba_url":null,"images":["https://xcimg.szwego.com/img/1a8dcad8/20260416/a1776314130754_0843.jpg","https://xcimg.szwego.com/img/1a8dcad8/20260416/a1776314130725_8835.jpg","https://xcimg.szwego.com/img/1a8dcad8/20260416/a1776314130607_1382.jpg","https://xcimg.szwego.com/img/1a8dcad8/20260416/a1776314130599_8688.jpg","https://xcimg.szwego.com/img/1a8dcad8/20260416/a1776314130652_7368.jpg"],"created_at":"2026-05-20T03:16:24.496Z"},{"id":"item-19b344463176","sku":"_dmPmPE9Keid62G-9vlJhePE3o8qwtgW0IGWIP_Q","name_en":"CELINE26夏新款TRIOMPHE FOLIO手袋这只新款手袋牛皮款的就已经很美了","name_cn":"CELINE26夏新款TRIOMPHE FOLIO手袋这只新款手袋牛皮款的就已经很美了\n定制鳄鱼皮款更是变得更加精致高级\n可斜挎可腋下可手拎\n是鳄鱼皮手袋中无可挑剔的一款","specs":{"source":"wsxcme","sourceId":"_dmPmPE9Keid62G-9vlJhePE3o8qwtgW0IGWIP_Q","sourceTagId":47003106,"sourceTagName":"塞琳/女包","rawTitle":"CELINE26夏新款TRIOMPHE FOLIO手袋这只新款手袋牛皮款的就已经很美了\n定制鳄鱼皮款更是变得更加精致高级\n可斜挎可腋下可手拎\n是鳄鱼皮手袋中无可挑剔的一款"},"price":null,"currency":"CNY","moq":1,"category":"celine-women-bags","status":"active","alibaba_url":null,"images":["https://xcimg.szwego.com/img/1a8dcad8/20260416/a1776313994465_1183.jpg","https://xcimg.szwego.com/img/1a8dcad8/20260416/a1776313994465_0757.jpg","https://xcimg.szwego.com/img/1a8dcad8/20260416/a1776313994500_8221.jpg","https://xcimg.szwego.com/img/1a8dcad8/20260416/a1776313994465_2443.jpg","https://xcimg.szwego.com/img/1a8dcad8/20260416/a1776313994508_6441.jpg","https://xcimg.szwego.com/img/1a8dcad8/20260416/a1776313995435_0884.jpg"],"created_at":"2026-05-20T03:16:24.486Z"},{"id":"item-581f046cd67b","sku":"_d7v7vj3iI0vK48D-T82O3LVJyXXmPzbWDg2auUg","name_en":"新品上线🅰️🅰️ 新品升级版凯旋门TRIOME FOLIO","name_cn":"新品上线🅰️🅰️ 新品升级版凯旋门TRIOME FOLIO\nSummer26凯旋门家族最新包型👜\nTRIOME FOLIO中号手袋来啦打\n利落长形包身 浮雕凯旋门金扣 简约大气\n新增了手柄 短提手拎着是精致大小姐🤳\n加根肩带斜挎又变松弛通勤款\n装得下卡包+手机+补妆品\n自重轻到背一天都不累👍🏻\n款号:123203\n颜色:克色\n尺寸:25.5x14x7.5cm\n(配原版包装)","specs":{"source":"wsxcme","sourceId":"_d7v7vj3iI0vK48D-T82O3LVJyXXmPzbWDg2auUg","sourceTagId":47003106,"sourceTagName":"塞琳/女包","modelNumber":"123203","dimensions":{"lengthCm":25.5,"heightCm":14,"widthCm":7.5},"rawTitle":"新品上线🅰️🅰️ 新品升级版凯旋门TRIOME FOLIO\nSummer26凯旋门家族最新包型👜\nTRIOME FOLIO中号手袋来啦打\n利落长形包身 浮雕凯旋门金扣 简约大气\n新增了手柄 短提手拎着是精致大小姐🤳\n加根肩带斜挎又变松弛通勤款\n装得下卡包+手机+补妆品\n自重轻到背一天都不累👍🏻\n款号:123203\n颜色:克色\n尺寸:25.5x14x7.5cm\n(配原版包装)"},"price":null,"currency":"CNY","moq":1,"category":"celine-women-bags","status":"active","alibaba_url":null,"images":["https://xcimg.szwego.com/img/1a8dcad8/20260416/a1776313898131_2340.jpg","https://xcimg.szwego.com/img/1a8dcad8/20260416/a1776313897924_6028.jpg","https://xcimg.szwego.com/img/1a8dcad8/20260416/a1776313898013_5822.jpg","https://xcimg.szwego.com/img/1a8dcad8/20260416/a1776313897875_1460.jpg","https://xcimg.szwego.com/img/1a8dcad8/20260416/a1776313898050_2785.jpg","https://xcimg.szwego.com/img/1a8dcad8/20260416/a1776313899380_1342.jpg","https://xcimg.szwego.com/img/1a8dcad8/20260416/a1776313899851_6751.jpg","https://xcimg.szwego.com/img/1a8dcad8/20260416/a1776313899746_1047.jpg"],"created_at":"2026-05-20T03:16:24.476Z"},{"id":"item-e0485d6bd07f","sku":"_dvSvSXdYtHCXOAraGAu-PBWCpxwFao4QJebKVjg","name_en":"新品上线🅰️🅰️ 新品升级版凯旋门TRIOME FOLIO","name_cn":"新品上线🅰️🅰️ 新品升级版凯旋门TRIOME FOLIO\nSummer26凯旋门家族最新包型👜\nTRIOME FOLIO中号手袋来啦打\n利落长形包身 浮雕凯旋门金扣 简约大气\n新增了手柄 短提手拎着是精致大小姐🤳\n加根肩带斜挎又变松弛通勤款\n装得下卡包+手机+补妆品\n自重轻到背一天都不累👍🏻\n款号:123203\n颜色:棕色\n尺寸:25.5x14x7.5cm\n(配原版包装)","specs":{"source":"wsxcme","sourceId":"_dvSvSXdYtHCXOAraGAu-PBWCpxwFao4QJebKVjg","sourceTagId":47003106,"sourceTagName":"塞琳/女包","modelNumber":"123203","dimensions":{"lengthCm":25.5,"heightCm":14,"widthCm":7.5},"rawTitle":"新品上线🅰️🅰️ 新品升级版凯旋门TRIOME FOLIO\nSummer26凯旋门家族最新包型👜\nTRIOME FOLIO中号手袋来啦打\n利落长形包身 浮雕凯旋门金扣 简约大气\n新增了手柄 短提手拎着是精致大小姐🤳\n加根肩带斜挎又变松弛通勤款\n装得下卡包+手机+补妆品\n自重轻到背一天都不累👍🏻\n款号:123203\n颜色:棕色\n尺寸:25.5x14x7.5cm\n(配原版包装)"},"price":null,"currency":"CNY","moq":1,"category":"celine-women-bags","status":"active","alibaba_url":null,"images":["https://xcimg.szwego.com/img/1a8dcad8/20260416/a1776313867343_8547.jpg","https://xcimg.szwego.com/img/1a8dcad8/20260416/a1776313867615_6357.jpg","https://xcimg.szwego.com/img/1a8dcad8/20260416/a1776313867513_0024.jpg","https://xcimg.szwego.com/img/1a8dcad8/20260416/a1776313867479_3732.jpg","https://xcimg.szwego.com/img/1a8dcad8/20260416/a1776313867592_2767.jpg","https://xcimg.szwego.com/img/1a8dcad8/20260416/a1776313869558_2487.jpg","https://xcimg.szwego.com/img/1a8dcad8/20260416/a1776313869591_3356.jpg","https://xcimg.szwego.com/img/1a8dcad8/20260416/a1776313869546_3138.jpg"],"created_at":"2026-05-20T03:16:24.466Z"},{"id":"item-f5c1a7ec8a3c","sku":"_dwxwxA9qg_lztvm4GaEXCTrRylYMSLlGpWphAEA","name_en":"新品上线🅰️🅰️ 新品升级版凯旋门TRIOME FOLIO","name_cn":"新品上线🅰️🅰️ 新品升级版凯旋门TRIOME FOLIO\nSummer26凯旋门家族最新包型👜\nTRIOME FOLIO中号手袋来啦打\n利落长形包身 浮雕凯旋门金扣 简约大气\n新增了手柄 短提手拎着是精致大小姐🤳\n加根肩带斜挎又变松弛通勤款\n装得下卡包+手机+补妆品\n自重轻到背一天都不累👍🏻\n款号:123203\n颜色:克色鳄鱼纹银扣\n尺寸:25.5x14x7.5cm\n(配原版包装)","specs":{"source":"wsxcme","sourceId":"_dwxwxA9qg_lztvm4GaEXCTrRylYMSLlGpWphAEA","sourceTagId":47003106,"sourceTagName":"塞琳/女包","modelNumber":"123203","dimensions":{"lengthCm":25.5,"heightCm":14,"widthCm":7.5},"rawTitle":"新品上线🅰️🅰️ 新品升级版凯旋门TRIOME FOLIO\nSummer26凯旋门家族最新包型👜\nTRIOME FOLIO中号手袋来啦打\n利落长形包身 浮雕凯旋门金扣 简约大气\n新增了手柄 短提手拎着是精致大小姐🤳\n加根肩带斜挎又变松弛通勤款\n装得下卡包+手机+补妆品\n自重轻到背一天都不累👍🏻\n款号:123203\n颜色:克色鳄鱼纹银扣\n尺寸:25.5x14x7.5cm\n(配原版包装)"},"price":null,"currency":"CNY","moq":1,"category":"celine-women-bags","status":"active","alibaba_url":null,"images":["https://xcimg.szwego.com/img/1a8dcad8/20260416/a1776313813596_2522.jpg","https://xcimg.szwego.com/img/1a8dcad8/20260416/a1776313813781_7038.jpg","https://xcimg.szwego.com/img/1a8dcad8/20260416/a1776313814786_3463.jpg","https://xcimg.szwego.com/img/1a8dcad8/20260416/a1776313813505_6215.jpg","https://xcimg.szwego.com/img/1a8dcad8/20260416/a1776313813798_4842.jpg","https://xcimg.szwego.com/img/1a8dcad8/20260416/a1776313815287_3768.jpg","https://xcimg.szwego.com/img/1a8dcad8/20260416/a1776313815638_8347.jpg","https://xcimg.szwego.com/img/1a8dcad8/20260416/a1776313815728_2104.jpg"],"created_at":"2026-05-20T03:16:24.456Z"},{"id":"item-0cae39781e62","sku":"_dlBlBeVPBXVMEER24zEXEaT0wCpUaZzVg2kSLvg","name_en":"CELINE NEW BAG「包好看的!","name_cn":"CELINE NEW BAG「包好看的!\n有特别的\n有季节性的\n有经典百搭的\n有稀有独特的\n有你喜欢的","specs":{"source":"wsxcme","sourceId":"_dlBlBeVPBXVMEER24zEXEaT0wCpUaZzVg2kSLvg","sourceTagId":47003106,"sourceTagName":"塞琳/女包","rawTitle":"CELINE NEW BAG「包好看的!\n有特别的\n有季节性的\n有经典百搭的\n有稀有独特的\n有你喜欢的"},"price":null,"currency":"CNY","moq":1,"category":"celine-women-bags","status":"active","alibaba_url":null,"images":["https://xcimg.szwego.com/img/1a8dcad8/20250829/a1756406211472_8115.jpg","https://xcimg.szwego.com/img/1a8dcad8/20250829/a1756406211569_1047.jpg","https://xcimg.szwego.com/img/1a8dcad8/20250829/a1756406211539_0433.jpg","https://xcimg.szwego.com/img/1a8dcad8/20250829/a1756406211540_4724.jpg"],"created_at":"2026-05-20T03:16:24.446Z"},{"id":"item-5ea9f11bb0aa","sku":"_dj1j1h9Ls7Kk77eAmwTxI3JspQ1LnyV_ZaNQliw","name_en":"Celine Women Bags","name_cn":"刘诗诗高端时尚与街头风相结合的穿搭","specs":{"source":"wsxcme","sourceId":"_dj1j1h9Ls7Kk77eAmwTxI3JspQ1LnyV_ZaNQliw","sourceTagId":47003106,"sourceTagName":"塞琳/女包","rawTitle":"刘诗诗高端时尚与街头风相结合的穿搭"},"price":null,"currency":"CNY","moq":1,"category":"celine-women-bags","status":"active","alibaba_url":null,"images":["https://xcimg.szwego.com/img/1a8dcad8/20250829/a1756406000663_3472.jpg","https://xcimg.szwego.com/img/1a8dcad8/20250829/a1756406000658_2867.jpg","https://xcimg.szwego.com/img/1a8dcad8/20250829/a1756406000664_2463.jpg","https://xcimg.szwego.com/img/1a8dcad8/20250829/a1756406097818_1715.jpg","https://xcimg.szwego.com/img/1a8dcad8/20250829/a1756406097823_1220.jpg","https://xcimg.szwego.com/img/1a8dcad8/20250829/a1756406120226_1555.jpg"],"created_at":"2026-05-20T03:16:24.436Z"},{"id":"item-cb255992d997","sku":"_d_k_krJYlD1RNvzMlxasxBVmbJn44yuSNUJXJhw","name_en":"CELINE25|TEEN GARANCE编织藤编手袋-","name_cn":"CELINE25|TEEN GARANCE编织藤编手袋-\n🆕🆕🆕\n极致丝滑✨新品GARANCE\nCELINE的黄金60年代,一定要拥有的漆皮手袋🎩\n-恰到好处的精致感,纯粹又优雅\n-精致黑金~神秘又迷人,搭配秋冬色系高级感爆棚💯\n-全新设计手挽肩带~相较传统腋下包更舒适、更加挺括有型🆙\n看过秀的姐妹~应该都会被迷倒吧🤩\n藤编,羊皮革衬里,肩背和手提,TRIOMPHE金属锁扣,3个内侧隔层,1个内侧拉链口袋,1个内侧扁平口袋,皮革提手长24cm\n尺寸:18.5x13x6cm\n编号:118053","specs":{"source":"wsxcme","sourceId":"_d_k_krJYlD1RNvzMlxasxBVmbJn44yuSNUJXJhw","sourceTagId":47003106,"sourceTagName":"塞琳/女包","dimensions":{"lengthCm":18.5,"heightCm":13,"widthCm":6},"rawTitle":"CELINE25|TEEN GARANCE编织藤编手袋-\n🆕🆕🆕\n极致丝滑✨新品GARANCE\nCELINE的黄金60年代,一定要拥有的漆皮手袋🎩\n-恰到好处的精致感,纯粹又优雅\n-精致黑金~神秘又迷人,搭配秋冬色系高级感爆棚💯\n-全新设计手挽肩带~相较传统腋下包更舒适、更加挺括有型🆙\n看过秀的姐妹~应该都会被迷倒吧🤩\n藤编,羊皮革衬里,肩背和手提,TRIOMPHE金属锁扣,3个内侧隔层,1个内侧拉链口袋,1个内侧扁平口袋,皮革提手长24cm\n尺寸:18.5x13x6cm\n编号:118053"},"price":null,"currency":"CNY","moq":1,"category":"celine-women-bags","status":"active","alibaba_url":null,"images":["https://xcimg.szwego.com/img/1a8dcad8/20250829/a1756405911165_7584.jpg","https://xcimg.szwego.com/img/1a8dcad8/20250829/a1756405910892_7147.jpg","https://xcimg.szwego.com/img/1a8dcad8/20250829/a1756405911117_1373.jpg","https://xcimg.szwego.com/img/1a8dcad8/20250829/a1756405910888_5728.jpg","https://xcimg.szwego.com/img/1a8dcad8/20250829/a1756405911277_5645.jpg","https://xcimg.szwego.com/img/1a8dcad8/20250829/a1756405912942_5061.jpg","https://xcimg.szwego.com/img/1a8dcad8/20250829/a1756405913054_4605.jpg","https://xcimg.szwego.com/img/1a8dcad8/20250829/a1756405913083_2558.jpg"],"created_at":"2026-05-20T03:16:24.426Z"},{"id":"item-ee6ad44aa458","sku":"_dgEgESqnbrF3t-zcqmIOGvkPk_TcCCbA8ziX0zQ","name_en":"CELINE | 度假风草编包","name_cn":"CELINE | 度假风草编包\n草编tilly超级可爱呀\n小长假一起去夏日海滩吧","specs":{"source":"wsxcme","sourceId":"_dgEgESqnbrF3t-zcqmIOGvkPk_TcCCbA8ziX0zQ","sourceTagId":47003106,"sourceTagName":"塞琳/女包","rawTitle":"CELINE | 度假风草编包\n草编tilly超级可爱呀\n小长假一起去夏日海滩吧"},"price":null,"currency":"CNY","moq":1,"category":"celine-women-bags","status":"active","alibaba_url":null,"images":["https://xcimg.szwego.com/img/1a8dcad8/20250829/a1756406803635_0311.jpg","https://xcimg.szwego.com/img/1a8dcad8/20250829/a1756406803646_0240.jpg","https://xcimg.szwego.com/img/1a8dcad8/20250829/a1756406803565_5418.jpg","https://xcimg.szwego.com/img/1a8dcad8/20250829/a1756406803637_0003.jpg","https://xcimg.szwego.com/img/1a8dcad8/20250829/a1756406803578_8875.jpg","https://xcimg.szwego.com/img/1a8dcad8/20250829/a1756406804789_0024.jpg","https://xcimg.szwego.com/img/1a8dcad8/20250829/a1756406804789_1052.jpg"],"created_at":"2026-05-20T03:16:24.416Z"},{"id":"item-5c3848c929ea","sku":"_dyZyZ3Vt5Dikbw-5lzxvJ_5SzcGqOcA-mu7tUyg","name_en":"CELINE草编腋下来咯!","name_cn":"CELINE草编腋下来咯!\n材质:拉菲草\n在马达加斯加手工编织而成,自重超级轻,有经典的TRIOMPHE标识","specs":{"source":"wsxcme","sourceId":"_dyZyZ3Vt5Dikbw-5lzxvJ_5SzcGqOcA-mu7tUyg","sourceTagId":47003106,"sourceTagName":"塞琳/女包","rawTitle":"CELINE草编腋下来咯!\n材质:拉菲草\n在马达加斯加手工编织而成,自重超级轻,有经典的TRIOMPHE标识"},"price":null,"currency":"CNY","moq":1,"category":"celine-women-bags","status":"active","alibaba_url":null,"images":["https://xcimg.szwego.com/img/1a8dcad8/20250829/a1756406684033_0567.jpg","https://xcimg.szwego.com/img/1a8dcad8/20250829/a1756406684078_6813.jpg","https://xcimg.szwego.com/img/1a8dcad8/20250829/a1756406684080_2068.jpg"],"created_at":"2026-05-20T03:16:24.406Z"},{"id":"item-ef410d4b8bef","sku":"_drGrGlAaz0m31zd6rJFPLLqT3u0yyRwkEbuyhPw","name_en":"新品上线🅰️🅰️ CE TILLY 腋下包","name_cn":"新品上线🅰️🅰️ CE TILLY 腋下包\nCE 爆款腋下包 手工编织而成的包身,每一处纹理都带着自然的温度,凑近细闻,还有淡淡的草木清香,仿佛把整个夏日的清新都收纳其中\n🪧手柄部分搭配柔软牛皮革,不仅增添了耐用性,也巧妙平衡了草编的质朴与皮革的高级,简约又精致,和整体风格相得益彰。\n💼别看它外形小巧,实则很能装!内部空间规整,日常出门的手机、钱包、防晒、口红等小物件都能轻松容纳,自带的小内袋还可以放些重要的卡片、钥匙,拿取很方便\n🌟并且它简直是搭配界的“万能选手” 穿上白色连衣裙,配上它去海边度假,瞬间营造出慵懒的法式度假风,拍起照来氛围感拉满\n日常穿简约的T恤牛仔裤,它又能成为点睛之笔,为休闲装扮增添一份精致与随性 ,不管是度假、野餐还是逛街,它都能完美适配✅\n款号:115703\n颜色:拉菲草/棕\n尺寸:22x13.5x4cm(配原版包装)","specs":{"source":"wsxcme","sourceId":"_drGrGlAaz0m31zd6rJFPLLqT3u0yyRwkEbuyhPw","sourceTagId":47003106,"sourceTagName":"塞琳/女包","modelNumber":"115703","dimensions":{"lengthCm":22,"heightCm":13.5,"widthCm":4},"rawTitle":"新品上线🅰️🅰️ CE TILLY 腋下包\nCE 爆款腋下包 手工编织而成的包身,每一处纹理都带着自然的温度,凑近细闻,还有淡淡的草木清香,仿佛把整个夏日的清新都收纳其中\n🪧手柄部分搭配柔软牛皮革,不仅增添了耐用性,也巧妙平衡了草编的质朴与皮革的高级,简约又精致,和整体风格相得益彰。\n💼别看它外形小巧,实则很能装!内部空间规整,日常出门的手机、钱包、防晒、口红等小物件都能轻松容纳,自带的小内袋还可以放些重要的卡片、钥匙,拿取很方便\n🌟并且它简直是搭配界的“万能选手” 穿上白色连衣裙,配上它去海边度假,瞬间营造出慵懒的法式度假风,拍起照来氛围感拉满\n日常穿简约的T恤牛仔裤,它又能成为点睛之笔,为休闲装扮增添一份精致与随性 ,不管是度假、野餐还是逛街,它都能完美适配✅\n款号:115703\n颜色:拉菲草/棕\n尺寸:22x13.5x4cm(配原版包装)"},"price":null,"currency":"CNY","moq":1,"category":"celine-women-bags","status":"active","alibaba_url":null,"images":["https://xcimg.szwego.com/img/1a8dcad8/20250829/a1756406476944_6116.jpg","https://xcimg.szwego.com/img/1a8dcad8/20250829/a1756406476477_6836.jpg","https://xcimg.szwego.com/img/1a8dcad8/20250829/a1756406476725_1582.jpg","https://xcimg.szwego.com/img/1a8dcad8/20250829/a1756406476189_8325.jpg","https://xcimg.szwego.com/img/1a8dcad8/20250829/a1756406476425_7403.jpg","https://xcimg.szwego.com/img/1a8dcad8/20250829/a1756406478197_8281.jpg","https://xcimg.szwego.com/img/1a8dcad8/20250829/a1756406478213_7472.jpg","https://xcimg.szwego.com/img/1a8dcad8/20250829/a1756406478213_0653.jpg"],"created_at":"2026-05-20T03:16:24.396Z"},{"id":"item-016f23514731","sku":"_dmVmVUoGtbBSGhOfIUSxTm6_Hp2hLUrDNqtyP_g","name_en":"CELINE | 25ss新款","name_cn":"CELINE | 25ss新款\n搭配拉菲草nino\n度假风满满","specs":{"source":"wsxcme","sourceId":"_dmVmVUoGtbBSGhOfIUSxTm6_Hp2hLUrDNqtyP_g","sourceTagId":47003106,"sourceTagName":"塞琳/女包","rawTitle":"CELINE | 25ss新款\n搭配拉菲草nino\n度假风满满"},"price":null,"currency":"CNY","moq":1,"category":"celine-women-bags","status":"active","alibaba_url":null,"images":["https://xcimg.szwego.com/img/1a8dcad8/20250820/a1755621571784_0545.jpg","https://xcimg.szwego.com/img/1a8dcad8/20250820/a1755621571770_0128.jpg","https://xcimg.szwego.com/img/1a8dcad8/20250820/a1755621571771_8822.jpg","https://xcimg.szwego.com/img/1a8dcad8/20250820/a1755621571769_8475.jpg"],"created_at":"2026-05-20T03:16:24.386Z"},{"id":"item-670afb40e43d","sku":"_dcjcjaSODN2Raev4G06_ERCjfbPO2BsY0R7QN-g","name_en":"Celine Women Bags","name_cn":"新品上线🅰️\nCELINE 🆕 TEEN NINO编织手袋\n新款凯旋门收袋 满满高级感!\n简约精致的轮廓  等等...都散发着无与伦比的高级感❤️ kelly经典造型的线条简洁大方 无需多余的装饰  都即显审美魅力🫶🏻\n款号:🔎118113\n尺寸:20.5x13x8","specs":{"source":"wsxcme","sourceId":"_dcjcjaSODN2Raev4G06_ERCjfbPO2BsY0R7QN-g","sourceTagId":47003106,"sourceTagName":"塞琳/女包","modelNumber":"🔎118113","rawTitle":"新品上线🅰️\nCELINE 🆕 TEEN NINO编织手袋\n新款凯旋门收袋 满满高级感!\n简约精致的轮廓  等等...都散发着无与伦比的高级感❤️ kelly经典造型的线条简洁大方 无需多余的装饰  都即显审美魅力🫶🏻\n款号:🔎118113\n尺寸:20.5x13x8"},"price":null,"currency":"CNY","moq":1,"category":"celine-women-bags","status":"active","alibaba_url":null,"images":["https://xcimg.szwego.com/img/1a8dcad8/20250820/a1755621543070_3280.jpg","https://xcimg.szwego.com/img/1a8dcad8/20250820/a1755621543072_0682.jpg","https://xcimg.szwego.com/img/1a8dcad8/20250820/a1755621543066_8235.jpg","https://xcimg.szwego.com/img/1a8dcad8/20250820/a1755621543083_5672.jpg","https://xcimg.szwego.com/img/1a8dcad8/20250820/a1755621543075_0453.jpg","https://xcimg.szwego.com/img/1a8dcad8/20250820/a1755621543082_1710.jpg","https://xcimg.szwego.com/img/1a8dcad8/20250820/a1755621543719_5764.jpg","https://xcimg.szwego.com/img/1a8dcad8/20250820/a1755621543718_6430.jpg"],"created_at":"2026-05-20T03:16:24.376Z"},{"id":"item-102331db5eae","sku":"_djijiRLZoUR1U6F39o0V9mipLeTO2wyW8Nd2kBw","name_en":"CELIN25新款包包来啦★春夏简直是主场","name_cn":"CELIN25新款包包来啦★春夏简直是主场","specs":{"source":"wsxcme","sourceId":"_djijiRLZoUR1U6F39o0V9mipLeTO2wyW8Nd2kBw","sourceTagId":47003106,"sourceTagName":"塞琳/女包","rawTitle":"CELIN25新款包包来啦★春夏简直是主场"},"price":null,"currency":"CNY","moq":1,"category":"celine-women-bags","status":"active","alibaba_url":null,"images":["https://xcimg.szwego.com/img/1a8dcad8/20250804/a1754240463657_2422.jpg","https://xcimg.szwego.com/img/1a8dcad8/20250804/a1754240463863_5872.jpg","https://xcimg.szwego.com/img/1a8dcad8/20250804/a1754240463736_6613.jpg","https://xcimg.szwego.com/img/1a8dcad8/20250804/a1754240463741_5140.jpg"],"created_at":"2026-05-20T03:16:24.366Z"},{"id":"item-51e28fbc1486","sku":"_d-F-Fa8kuGiwCyOEaNst1_z2i8vTjp51OZinXgQ","name_en":"CELINE草编VICTIORE中号","name_cn":"CELINE草编VICTIORE中号\n夏天怎么可以少的了草编包呢","specs":{"source":"wsxcme","sourceId":"_d-F-Fa8kuGiwCyOEaNst1_z2i8vTjp51OZinXgQ","sourceTagId":47003106,"sourceTagName":"塞琳/女包","rawTitle":"CELINE草编VICTIORE中号\n夏天怎么可以少的了草编包呢"},"price":null,"currency":"CNY","moq":1,"category":"celine-women-bags","status":"active","alibaba_url":null,"images":["https://xcimg.szwego.com/img/1a8dcad8/20250804/a1754240328569_2668.jpg","https://xcimg.szwego.com/img/1a8dcad8/20250804/a1754240328573_8276.jpg","https://xcimg.szwego.com/img/1a8dcad8/20250804/a1754240328567_1822.jpg","https://xcimg.szwego.com/img/1a8dcad8/20250804/a1754240328417_0433.jpg","https://xcimg.szwego.com/img/1a8dcad8/20250804/a1754240328505_0326.jpg","https://xcimg.szwego.com/img/1a8dcad8/20250804/a1754240328566_7578.jpg","https://xcimg.szwego.com/img/1a8dcad8/20250804/a1754240329164_6411.jpg"],"created_at":"2026-05-20T03:16:24.356Z"},{"id":"item-a1dd38bb5679","sku":"_dykykt8Tgt_LpusL6jFgf837fzUvKHbYVT4knWg","name_en":"CELIN_E 2026🆕|VICTOIRE中号柔软编织凯旋门手袋","name_cn":"CELIN_E 2026🆕|VICTOIRE中号柔软编织凯旋门手袋\nCELINE终于出了一款可单肩可斜挎的包包👏\nCeline SU24最新款式-Victoire\nVictorie有胜利的意思 亦有凯旋的含意✌\n久违的链条凯旋门包包 众多明星同款~\n采用了高级天然拉菲草\n高级感的粒面和柔软的手感\n链条一如以往采用了三角形切割舒适感100分 也是珠宝工艺的超级闪亮✨\n天然拉菲草,羊皮革衬里,金色饰面,可斜挎和肩背,全钢TRIOMPHE按扣开合,2个主隔层,1个内侧扁平口袋,1个内侧中央拉链口袋,全钢金属滑链,最小长度25厘米和最大长度47厘米\n尺寸:25 X 15 X 8厘米\n编号:115853","specs":{"source":"wsxcme","sourceId":"_dykykt8Tgt_LpusL6jFgf837fzUvKHbYVT4knWg","sourceTagId":47003106,"sourceTagName":"塞琳/女包","dimensions":{"lengthCm":25,"heightCm":15,"widthCm":8},"rawTitle":"CELIN_E 2026🆕|VICTOIRE中号柔软编织凯旋门手袋\nCELINE终于出了一款可单肩可斜挎的包包👏\nCeline SU24最新款式-Victoire\nVictorie有胜利的意思 亦有凯旋的含意✌\n久违的链条凯旋门包包 众多明星同款~\n采用了高级天然拉菲草\n高级感的粒面和柔软的手感\n链条一如以往采用了三角形切割舒适感100分 也是珠宝工艺的超级闪亮✨\n天然拉菲草,羊皮革衬里,金色饰面,可斜挎和肩背,全钢TRIOMPHE按扣开合,2个主隔层,1个内侧扁平口袋,1个内侧中央拉链口袋,全钢金属滑链,最小长度25厘米和最大长度47厘米\n尺寸:25 X 15 X 8厘米\n编号:115853"},"price":null,"currency":"CNY","moq":1,"category":"celine-women-bags","status":"active","alibaba_url":null,"images":["https://xcimg.szwego.com/img/1a8dcad8/20250804/a1754240218512_2550.jpg","https://xcimg.szwego.com/img/1a8dcad8/20250804/a1754240218770_6351.jpg","https://xcimg.szwego.com/img/1a8dcad8/20250804/a1754240218488_6130.jpg","https://xcimg.szwego.com/img/1a8dcad8/20250804/a1754240218497_2653.jpg","https://xcimg.szwego.com/img/1a8dcad8/20250804/a1754240218804_8861.jpg","https://xcimg.szwego.com/img/1a8dcad8/20250804/a1754240218662_2162.jpg","https://xcimg.szwego.com/img/1a8dcad8/20250804/a1754240219520_8763.jpg","https://xcimg.szwego.com/img/1a8dcad8/20250804/a1754240219384_1644.jpg"],"created_at":"2026-05-20T03:16:24.346Z"},{"id":"item-fe41c650c146","sku":"_dtitiEx7gokM7ohUFpp_XQf-_mJphCXJIuBEFgQ","name_en":"Celine Women Bags","name_cn":"小小的包大大的精致🥰","specs":{"source":"wsxcme","sourceId":"_dtitiEx7gokM7ohUFpp_XQf-_mJphCXJIuBEFgQ","sourceTagId":47003106,"sourceTagName":"塞琳/女包","rawTitle":"小小的包大大的精致🥰"},"price":null,"currency":"CNY","moq":1,"category":"celine-women-bags","status":"active","alibaba_url":null,"images":["https://xcimg.szwego.com/img/1a8dcad8/20250713/a1752339496094_0172.jpg","https://xcimg.szwego.com/img/1a8dcad8/20250713/a1752339496237_3625.jpg","https://xcimg.szwego.com/img/1a8dcad8/20250713/a1752339496232_0268.jpg","https://xcimg.szwego.com/img/1a8dcad8/20250713/a1752339496215_2403.jpg","https://xcimg.szwego.com/img/1a8dcad8/20250713/a1752339496216_0521.jpg","https://xcimg.szwego.com/img/1a8dcad8/20250713/a1752339496213_2227.jpg"],"created_at":"2026-05-20T03:16:24.336Z"},{"id":"item-399da4b09206","sku":"_dwmwmSHa3Gs3he-wOxwlVruM3NTzV1jE64U_WIQ","name_en":"CELIN_E 2026🆕|TEEN VICTOIRE小号编织手袋","name_cn":"CELIN_E 2026🆕|TEEN VICTOIRE小号编织手袋\nCELINE终于出了一款可单肩可斜挎的包包👏\nCeline SU25最新款式-Victoire\nVictorie有胜利的意思 亦有凯旋的含意✌\n久违的链条凯旋门包包 众多明星同款~\n采用了高级天然粒纹小牛皮\n小号更加俏皮可爱\n高级感的粒面和柔软的手感\n全钢链条一如以往采用了三角形切割舒适感100分 也是珠宝工艺的超级闪亮✨\n\n羊皮革衬里,金色饰面,可斜挎和肩背,全钢TRIOMPHE按扣开合,2个主隔层,1个内侧扁平口袋,1个内侧中央拉链口袋,全钢金属滑链,最小长度26厘米和最大长度47厘米\n尺寸:23.5 X 14 X 8厘米\n编号:116593","specs":{"source":"wsxcme","sourceId":"_dwmwmSHa3Gs3he-wOxwlVruM3NTzV1jE64U_WIQ","sourceTagId":47003106,"sourceTagName":"塞琳/女包","dimensions":{"lengthCm":23.5,"heightCm":14,"widthCm":8},"rawTitle":"CELIN_E 2026🆕|TEEN VICTOIRE小号编织手袋\nCELINE终于出了一款可单肩可斜挎的包包👏\nCeline SU25最新款式-Victoire\nVictorie有胜利的意思 亦有凯旋的含意✌\n久违的链条凯旋门包包 众多明星同款~\n采用了高级天然粒纹小牛皮\n小号更加俏皮可爱\n高级感的粒面和柔软的手感\n全钢链条一如以往采用了三角形切割舒适感100分 也是珠宝工艺的超级闪亮✨\n\n羊皮革衬里,金色饰面,可斜挎和肩背,全钢TRIOMPHE按扣开合,2个主隔层,1个内侧扁平口袋,1个内侧中央拉链口袋,全钢金属滑链,最小长度26厘米和最大长度47厘米\n尺寸:23.5 X 14 X 8厘米\n编号:116593"},"price":null,"currency":"CNY","moq":1,"category":"celine-women-bags","status":"active","alibaba_url":null,"images":["https://xcimg.szwego.com/img/1a8dcad8/20250713/a1752339381649_4363.jpg","https://xcimg.szwego.com/img/1a8dcad8/20250713/a1752339381790_8326.jpg","https://xcimg.szwego.com/img/1a8dcad8/20250713/a1752339382016_6086.jpg","https://xcimg.szwego.com/img/1a8dcad8/20250713/a1752339381738_3785.jpg","https://xcimg.szwego.com/img/1a8dcad8/20250713/a1752339381731_4176.jpg","https://xcimg.szwego.com/img/1a8dcad8/20250713/a1752339381395_2717.jpg","https://xcimg.szwego.com/img/1a8dcad8/20250713/a1752339383136_3475.jpg","https://xcimg.szwego.com/img/1a8dcad8/20250713/a1752339383101_2021.jpg"],"created_at":"2026-05-20T03:16:24.326Z"},{"id":"item-70353035ffd6","sku":"_dqdqdFg8h7C4jD5-bJSxrk5Wgp1LJStsFkjGuPQ","name_en":"CELIN_E 2026🆕|TEEN VICTOIRE小号编织手袋","name_cn":"CELIN_E 2026🆕|TEEN VICTOIRE小号编织手袋\nCELINE终于出了一款可单肩可斜挎的包包👏\nCeline SU25最新款式-Victoire\nVictorie有胜利的意思 亦有凯旋的含意✌\n久违的链条凯旋门包包 众多明星同款~\n采用了高级天然粒纹小牛皮\n小号更加俏皮可爱\n高级感的粒面和柔软的手感\n全钢链条一如以往采用了三角形切割舒适感100分 也是珠宝工艺的超级闪亮✨\n\n羊皮革衬里,金色饰面,可斜挎和肩背,全钢TRIOMPHE按扣开合,2个主隔层,1个内侧扁平口袋,1个内侧中央拉链口袋,全钢金属滑链,最小长度26厘米和最大长度47厘米\n尺寸:23.5 X 14 X 8厘米\n编号:116593","specs":{"source":"wsxcme","sourceId":"_dqdqdFg8h7C4jD5-bJSxrk5Wgp1LJStsFkjGuPQ","sourceTagId":47003106,"sourceTagName":"塞琳/女包","dimensions":{"lengthCm":23.5,"heightCm":14,"widthCm":8},"rawTitle":"CELIN_E 2026🆕|TEEN VICTOIRE小号编织手袋\nCELINE终于出了一款可单肩可斜挎的包包👏\nCeline SU25最新款式-Victoire\nVictorie有胜利的意思 亦有凯旋的含意✌\n久违的链条凯旋门包包 众多明星同款~\n采用了高级天然粒纹小牛皮\n小号更加俏皮可爱\n高级感的粒面和柔软的手感\n全钢链条一如以往采用了三角形切割舒适感100分 也是珠宝工艺的超级闪亮✨\n\n羊皮革衬里,金色饰面,可斜挎和肩背,全钢TRIOMPHE按扣开合,2个主隔层,1个内侧扁平口袋,1个内侧中央拉链口袋,全钢金属滑链,最小长度26厘米和最大长度47厘米\n尺寸:23.5 X 14 X 8厘米\n编号:116593"},"price":null,"currency":"CNY","moq":1,"category":"celine-women-bags","status":"active","alibaba_url":null,"images":["https://xcimg.szwego.com/img/1a8dcad8/20250713/a1752339311575_5853.jpg","https://xcimg.szwego.com/img/1a8dcad8/20250713/a1752339311325_4312.jpg","https://xcimg.szwego.com/img/1a8dcad8/20250713/a1752339311464_2178.jpg","https://xcimg.szwego.com/img/1a8dcad8/20250713/a1752339311520_4625.jpg","https://xcimg.szwego.com/img/1a8dcad8/20250713/a1752339311295_2251.jpg","https://xcimg.szwego.com/img/1a8dcad8/20250713/a1752339311240_6047.jpg","https://xcimg.szwego.com/img/1a8dcad8/20250713/a1752339312887_6277.jpg","https://xcimg.szwego.com/img/1a8dcad8/20250713/a1752339312841_4886.jpg"],"created_at":"2026-05-20T03:16:24.316Z"}],"page":4,"pageSize":24,"total":582,"totalPages":25}
