{"items":[{"id":"item-8402a0b9ab85","sku":"_duMuMHB9LlR80_pqc5PhM3tBjB5pTiVGQ9Mq18Q","name_en":"『Celine 赛琳』","name_cn":"『Celine 赛琳』\n\n新品🔛小号标志印花牛皮革波士顿包TRIOMPHE CANVAS标志印花,牛皮革包边,织物面料衬里,拉链锁闭,1个主隔层,内侧拉链口袋。皮革手挽长8cm\n尺寸:20 X 14 X 7cm\n型号:4450#","specs":{"source":"wsxcme","sourceId":"_duMuMHB9LlR80_pqc5PhM3tBjB5pTiVGQ9Mq18Q","sourceTagId":47003106,"sourceTagName":"塞琳/女包","modelNumber":"4450#","dimensions":{"lengthCm":20,"heightCm":14,"widthCm":7},"rawTitle":"『Celine 赛琳』\n\n新品🔛小号标志印花牛皮革波士顿包TRIOMPHE CANVAS标志印花,牛皮革包边,织物面料衬里,拉链锁闭,1个主隔层,内侧拉链口袋。皮革手挽长8cm\n尺寸:20 X 14 X 7cm\n型号:4450#"},"price":null,"currency":"CNY","moq":1,"category":"celine-women-bags","status":"active","alibaba_url":null,"images":["https://xcimg.szwego.com/20220418/i1650257828_6308_0.jpg","https://xcimg.szwego.com/20220418/i1650257828_1144_1.jpg","https://xcimg.szwego.com/20220418/i1650257828_423_2.jpg","https://xcimg.szwego.com/20220418/i1650257828_8144_3.jpg","https://xcimg.szwego.com/20220418/i1650257828_6905_4.jpg","https://xcimg.szwego.com/20220418/i1650257828_7222_5.jpg","https://xcimg.szwego.com/20220418/i1650257828_8544_6.jpg","https://xcimg.szwego.com/20220418/i1650257828_191_7.jpg","https://xcimg.szwego.com/20220418/i1650257828_7043_8.jpg"],"created_at":"2025-02-08T12:47:15.815Z"},{"id":"item-e1ab9d81ef91","sku":"_dvPvPNpV3Mgl_2aHk4tdNI7LFkRg6bRbij0wfEg","name_en":"『Celine 赛琳』","name_cn":"『Celine 赛琳』\n\n新款TRIOMPHE 2022春季横款CABAS 托特手袋百搭托特  经典凯旋老花系列 手提不挑人 博主明星极荐 小牛皮pvc 大包中的战斗机、耐刮、轻便、容量大、时髦精必备单品!\n尺寸: 40×14.5×30\n款号: 1189#","specs":{"source":"wsxcme","sourceId":"_dvPvPNpV3Mgl_2aHk4tdNI7LFkRg6bRbij0wfEg","sourceTagId":47003106,"sourceTagName":"塞琳/女包","modelNumber":"1189#","rawTitle":"『Celine 赛琳』\n\n新款TRIOMPHE 2022春季横款CABAS 托特手袋百搭托特  经典凯旋老花系列 手提不挑人 博主明星极荐 小牛皮pvc 大包中的战斗机、耐刮、轻便、容量大、时髦精必备单品!\n尺寸: 40×14.5×30\n款号: 1189#"},"price":null,"currency":"CNY","moq":1,"category":"celine-women-bags","status":"active","alibaba_url":null,"images":["https://xcimg.szwego.com/20220421/i1650515290_2071_0.jpg","https://xcimg.szwego.com/20220421/i1650515290_1555_1.jpg","https://xcimg.szwego.com/20220421/i1650515290_228_2.jpg","https://xcimg.szwego.com/20220421/i1650515290_4723_3.jpg","https://xcimg.szwego.com/20220421/i1650515290_1140_4.jpg","https://xcimg.szwego.com/20220421/i1650515290_2822_5.jpg","https://xcimg.szwego.com/20220421/i1650515290_4612_6.jpg","https://xcimg.szwego.com/20220421/i1650515290_7782_7.jpg","https://xcimg.szwego.com/20220421/i1650515290_4268_8.jpg"],"created_at":"2025-02-08T12:47:15.814Z"},{"id":"item-1b3510886b61","sku":"_d-q-q7kkLE7HlOstt4_Z17UvBLIxA-FFD2mFYOQ","name_en":"『Celine 赛琳』","name_cn":"『Celine 赛琳』\n\n贝壳包 TRIOMPHE帆布相机包  64%涂层帆布,36%小牛皮 可斜挎和肩背 拉链锁闭 可调节皮革肩带长20英寸(50厘米)\n尺寸:20 X 15 X 5cm\n型号:3189#","specs":{"source":"wsxcme","sourceId":"_d-q-q7kkLE7HlOstt4_Z17UvBLIxA-FFD2mFYOQ","sourceTagId":47003106,"sourceTagName":"塞琳/女包","modelNumber":"3189#","dimensions":{"lengthCm":20,"heightCm":15,"widthCm":5},"rawTitle":"『Celine 赛琳』\n\n贝壳包 TRIOMPHE帆布相机包  64%涂层帆布,36%小牛皮 可斜挎和肩背 拉链锁闭 可调节皮革肩带长20英寸(50厘米)\n尺寸:20 X 15 X 5cm\n型号:3189#"},"price":null,"currency":"CNY","moq":1,"category":"celine-women-bags","status":"active","alibaba_url":null,"images":["https://xcimg.szwego.com/20220422/i1650601951_1683_0.jpg","https://xcimg.szwego.com/20220422/i1650601951_2083_1.jpg","https://xcimg.szwego.com/20220422/i1650601951_9653_2.jpg","https://xcimg.szwego.com/20220422/i1650601951_7059_3.jpg","https://xcimg.szwego.com/20220422/i1650601951_2523_4.jpg","https://xcimg.szwego.com/20220422/i1650601951_612_5.jpg","https://xcimg.szwego.com/20220422/i1650601951_9806_6.jpg","https://xcimg.szwego.com/20220422/i1650601951_7737_7.jpg","https://xcimg.szwego.com/20220422/i1650601951_984_8.jpg"],"created_at":"2025-02-08T12:47:15.813Z"},{"id":"item-971467d0ed9c","sku":"_deYeYw4Vxb2mUzrjSyL-7NpTu8HjrzIUp9Ahnrg","name_en":"『Celine 赛琳』","name_cn":"『Celine 赛琳』\n\nCELINE 2021春夏新品TRIOMPHE凯旋标志平纹小牛皮肩背包,凯旋腋下包,牛皮包边,羊皮衬里,内侧扁平口袋,可调节皮革肩带长20cm\n尺寸:20 X 10 X 4cm","specs":{"source":"wsxcme","sourceId":"_deYeYw4Vxb2mUzrjSyL-7NpTu8HjrzIUp9Ahnrg","sourceTagId":47003106,"sourceTagName":"塞琳/女包","dimensions":{"lengthCm":20,"heightCm":10,"widthCm":4},"rawTitle":"『Celine 赛琳』\n\nCELINE 2021春夏新品TRIOMPHE凯旋标志平纹小牛皮肩背包,凯旋腋下包,牛皮包边,羊皮衬里,内侧扁平口袋,可调节皮革肩带长20cm\n尺寸:20 X 10 X 4cm"},"price":null,"currency":"CNY","moq":1,"category":"celine-women-bags","status":"active","alibaba_url":null,"images":["https://xcimg.szwego.com/20220410/i1649574384_9495_0.jpg","https://xcimg.szwego.com/20220410/i1649574384_3486_1.jpg","https://xcimg.szwego.com/20220410/i1649574384_6520_2.jpg","https://xcimg.szwego.com/20220410/i1649574384_25_3.jpg","https://xcimg.szwego.com/20220410/i1649574384_942_4.jpg","https://xcimg.szwego.com/20220410/i1649574384_2951_5.jpg","https://xcimg.szwego.com/20220410/i1649574384_3105_6.jpg","https://xcimg.szwego.com/20220410/i1649574384_6943_7.jpg","https://xcimg.szwego.com/20220410/i1649574384_6086_8.jpg"],"created_at":"2025-02-08T12:47:15.812Z"},{"id":"item-86af55715c72","sku":"_drLrLbYqha4dq7r1kwyV8no8eGddjqpwDENo7xg","name_en":"赛琳CELINE 凯旋门帆布 帆布配棕色牛皮 尺寸大号 22*16*6cm 小号 18-14-6cm","name_cn":"赛琳CELINE 凯旋门帆布 帆布配棕色牛皮 尺寸大号 22*16*6cm 小号 18-14-6cm","specs":{"source":"wsxcme","sourceId":"_drLrLbYqha4dq7r1kwyV8no8eGddjqpwDENo7xg","sourceTagId":47003106,"sourceTagName":"塞琳/女包","rawTitle":"赛琳CELINE 凯旋门帆布 帆布配棕色牛皮 尺寸大号 22*16*6cm 小号 18-14-6cm"},"price":null,"currency":"CNY","moq":1,"category":"celine-women-bags","status":"active","alibaba_url":null,"images":["https://xcimg.szwego.com/20200702/i1593621579_12_0.jpg","https://xcimg.szwego.com/20200702/i1593621579_2492_1.jpg","https://xcimg.szwego.com/20200702/i1593621579_1713_2.jpg","https://xcimg.szwego.com/20200702/i1593621579_6998_3.jpg","https://xcimg.szwego.com/20200702/i1593621579_2102_4.jpg","https://xcimg.szwego.com/20200702/i1593621579_4336_5.jpg","https://xcimg.szwego.com/20200702/i1593621579_2237_6.jpg","https://xcimg.szwego.com/20200702/i1593621579_4590_7.jpg","https://xcimg.szwego.com/20200702/i1593621579_4574_8.jpg"],"created_at":"2025-02-08T12:47:15.811Z"},{"id":"item-38427696dc3b","sku":"_d3z3zgb3LnxpHc5OxzfnwDEwWrcDcA8Eyndm2jA","name_en":"Celine Women Bags","name_cn":"赛琳小腋下包·粉色\nTilly腋下包\n圆润造型单肩包👛\n延续经典手袋的调性\n容量可以包型硬挺可调节肩带\n\n尺寸:22×13.5×4cm","specs":{"source":"wsxcme","sourceId":"_d3z3zgb3LnxpHc5OxzfnwDEwWrcDcA8Eyndm2jA","sourceTagId":47003106,"sourceTagName":"塞琳/女包","dimensions":{"lengthCm":22,"heightCm":13.5,"widthCm":4},"rawTitle":"赛琳小腋下包·粉色\nTilly腋下包\n圆润造型单肩包👛\n延续经典手袋的调性\n容量可以包型硬挺可调节肩带\n\n尺寸:22×13.5×4cm"},"price":null,"currency":"CNY","moq":1,"category":"celine-women-bags","status":"active","alibaba_url":null,"images":["https://xcimg.szwego.com/img/a0ceb150/20240304/i1709541507_5862_0.jpg","https://xcimg.szwego.com/img/a0ceb150/20240304/i1709541506_6008_0.jpg","https://xcimg.szwego.com/img/a0ceb150/20240304/i1709541506_559_0.jpg","https://xcimg.szwego.com/img/a0ceb150/20240304/i1709541507_5411_0.jpg","https://xcimg.szwego.com/img/a0ceb150/20240304/i1709541506_2409_0.jpg","https://xcimg.szwego.com/img/a0ceb150/20240304/i1709541506_9660_0.jpg","https://xcimg.szwego.com/img/a0ceb150/20240304/i1709541506_4234_0.jpg","https://xcimg.szwego.com/img/a0ceb150/20240304/i1709541506_2432_0.jpg","https://xcimg.szwego.com/img/a0ceb150/20240304/i1709541507_4013_0.jpg"],"created_at":"2025-02-08T12:47:15.810Z"},{"id":"item-a89165116b6f","sku":"_dbmbmc7Sxa-NeprTITIgENE-85P8xsNEvyG9NXA","name_en":"Celine Women Bags","name_cn":"赛琳小腋下包·黑色\nTilly腋下包\n圆润造型单肩包👛\n延续经典手袋的调性\n容量可以包型硬挺可调节肩带\n\n尺寸:22×13.5×4cm","specs":{"source":"wsxcme","sourceId":"_dbmbmc7Sxa-NeprTITIgENE-85P8xsNEvyG9NXA","sourceTagId":47003106,"sourceTagName":"塞琳/女包","dimensions":{"lengthCm":22,"heightCm":13.5,"widthCm":4},"rawTitle":"赛琳小腋下包·黑色\nTilly腋下包\n圆润造型单肩包👛\n延续经典手袋的调性\n容量可以包型硬挺可调节肩带\n\n尺寸:22×13.5×4cm"},"price":null,"currency":"CNY","moq":1,"category":"celine-women-bags","status":"active","alibaba_url":null,"images":["https://xcimg.szwego.com/img/a0ceb150/20240304/i1709541587_9114_0.jpg","https://xcimg.szwego.com/img/a0ceb150/20240304/i1709541587_8935_0.jpg","https://xcimg.szwego.com/img/a0ceb150/20240304/i1709541588_6950_0.jpg","https://xcimg.szwego.com/img/a0ceb150/20240304/i1709541587_3620_0.jpg","https://xcimg.szwego.com/img/a0ceb150/20240304/i1709541587_9513_0.jpg","https://xcimg.szwego.com/img/a0ceb150/20240304/i1709541587_2599_0.jpg","https://xcimg.szwego.com/img/a0ceb150/20240304/i1709541587_672_0.jpg","https://xcimg.szwego.com/img/a0ceb150/20240304/i1709541588_5374_0.jpg","https://xcimg.szwego.com/img/a0ceb150/20240304/i1709541588_4800_0.jpg"],"created_at":"2025-02-08T12:47:15.809Z"},{"id":"item-5398e9dcfd6f","sku":"_drBrB-n4J86gB-t_iEd5gFNqRcIHr2wZk75zxwQ","name_en":"Celine Women Bags","name_cn":"赛琳小腋下包·老花\nTilly腋下包\n圆润造型单肩包👛\n延续经典手袋的调性\n容量可以包型硬挺可调节肩带\n\n尺寸:22×13.5×4cm","specs":{"source":"wsxcme","sourceId":"_drBrB-n4J86gB-t_iEd5gFNqRcIHr2wZk75zxwQ","sourceTagId":47003106,"sourceTagName":"塞琳/女包","dimensions":{"lengthCm":22,"heightCm":13.5,"widthCm":4},"rawTitle":"赛琳小腋下包·老花\nTilly腋下包\n圆润造型单肩包👛\n延续经典手袋的调性\n容量可以包型硬挺可调节肩带\n\n尺寸:22×13.5×4cm"},"price":null,"currency":"CNY","moq":1,"category":"celine-women-bags","status":"active","alibaba_url":null,"images":["https://xcimg.szwego.com/img/a0ceb150/20240304/i1709541643_3814_0.jpg","https://xcimg.szwego.com/img/a0ceb150/20240304/i1709541642_5135_0.jpg","https://xcimg.szwego.com/img/a0ceb150/20240304/i1709541643_1925_0.jpg","https://xcimg.szwego.com/img/a0ceb150/20240304/i1709541643_7924_0.jpg","https://xcimg.szwego.com/img/a0ceb150/20240304/i1709541643_3181_0.jpg","https://xcimg.szwego.com/img/a0ceb150/20240304/i1709541643_7690_0.jpg","https://xcimg.szwego.com/img/a0ceb150/20240304/i1709541643_2840_0.jpg","https://xcimg.szwego.com/img/a0ceb150/20240304/i1709541642_5892_0.jpg","https://xcimg.szwego.com/img/a0ceb150/20240304/i1709541642_6901_0.jpg"],"created_at":"2025-02-08T12:47:15.808Z"},{"id":"item-9c1e292419dc","sku":"_daUaUwlJlzwCzjT-_RcpDYpa9mGe640wVdMs_ng","name_en":"Celine Women Bags","name_cn":"赛琳老花手提袋大号•头层\n全新带手柄水桶包💢\n打破常规设计 更适合通勤使用\n配防尘袋和说明书\n\n尺寸31.5×31.5×16cm","specs":{"source":"wsxcme","sourceId":"_daUaUwlJlzwCzjT-_RcpDYpa9mGe640wVdMs_ng","sourceTagId":47003106,"sourceTagName":"塞琳/女包","dimensions":{"lengthCm":31.5,"heightCm":31.5,"widthCm":16},"rawTitle":"赛琳老花手提袋大号•头层\n全新带手柄水桶包💢\n打破常规设计 更适合通勤使用\n配防尘袋和说明书\n\n尺寸31.5×31.5×16cm"},"price":null,"currency":"CNY","moq":1,"category":"celine-women-bags","status":"active","alibaba_url":null,"images":["https://xcimg.szwego.com/20231227/i1703663234_7748_0.jpg","https://xcimg.szwego.com/20231227/i1703663234_2300_1.jpg","https://xcimg.szwego.com/20231227/i1703663234_8536_2.jpg","https://xcimg.szwego.com/20231227/i1703663234_1429_3.jpg","https://xcimg.szwego.com/20231227/i1703663234_472_7.jpg","https://xcimg.szwego.com/20231227/i1703663234_5246_8.jpg","https://xcimg.szwego.com/20231227/i1703663234_6755_4.jpg","https://xcimg.szwego.com/20231227/i1703663234_4478_5.jpg","https://xcimg.szwego.com/20231227/i1703663234_9222_6.jpg"],"created_at":"2025-02-08T12:47:15.807Z"},{"id":"item-2f544bfd495d","sku":"_duCuCMVXzCG260DCl6jFNsVwzLfvP-UqOdHZkMw","name_en":"Celine Women Bags","name_cn":"赛琳老花手提袋小号•头层\n采用头层牛皮配pvc花料\n全新带手柄水桶包💢\n打破常规设计 更适合通勤使用\n配防尘袋和说明书\n\n尺寸26.5×23×12cm","specs":{"source":"wsxcme","sourceId":"_duCuCMVXzCG260DCl6jFNsVwzLfvP-UqOdHZkMw","sourceTagId":47003106,"sourceTagName":"塞琳/女包","dimensions":{"lengthCm":26.5,"heightCm":23,"widthCm":12},"rawTitle":"赛琳老花手提袋小号•头层\n采用头层牛皮配pvc花料\n全新带手柄水桶包💢\n打破常规设计 更适合通勤使用\n配防尘袋和说明书\n\n尺寸26.5×23×12cm"},"price":null,"currency":"CNY","moq":1,"category":"celine-women-bags","status":"active","alibaba_url":null,"images":["https://xcimg.szwego.com/20231227/i1703662678_4665_0.jpg","https://xcimg.szwego.com/20231227/i1703662678_4823_1.jpg","https://xcimg.szwego.com/20231227/i1703662678_7967_2.jpg","https://xcimg.szwego.com/20231227/i1703662678_7334_3.jpg","https://xcimg.szwego.com/20231227/i1703662678_13_4.jpg","https://xcimg.szwego.com/20231227/i1703662678_8911_5.jpg","https://xcimg.szwego.com/20231227/i1703662678_6829_6.jpg","https://xcimg.szwego.com/20231227/i1703662678_5878_7.jpg","https://xcimg.szwego.com/20231227/i1703662678_5785_8.jpg"],"created_at":"2025-02-08T12:47:15.806Z"},{"id":"item-65510aea35b6","sku":"_dwnwngmu--4kWV2lTL1yZOiajUvmPHgArXu9jqg","name_en":"Celine Women Bags","name_cn":"赛琳新款月亮包•黑色\n\n采用头层牛皮 内里反磨砂牛皮\n质量抗磨抗造 柔软不失包型👜\n经典包型搭配凯旋门大金扣点缀\n气质气场一下子upupup\n尺寸:22×7.5×17cm","specs":{"source":"wsxcme","sourceId":"_dwnwngmu--4kWV2lTL1yZOiajUvmPHgArXu9jqg","sourceTagId":47003106,"sourceTagName":"塞琳/女包","dimensions":{"lengthCm":22,"heightCm":7.5,"widthCm":17},"rawTitle":"赛琳新款月亮包•黑色\n\n采用头层牛皮 内里反磨砂牛皮\n质量抗磨抗造 柔软不失包型👜\n经典包型搭配凯旋门大金扣点缀\n气质气场一下子upupup\n尺寸:22×7.5×17cm"},"price":null,"currency":"CNY","moq":1,"category":"celine-women-bags","status":"active","alibaba_url":null,"images":["https://xcimg.szwego.com/20231021/i1697875185_6595_0.jpg","https://xcimg.szwego.com/20231021/i1697875185_3065_1.jpg","https://xcimg.szwego.com/20231021/i1697875185_7816_2.jpg","https://xcimg.szwego.com/20231021/i1697875185_2752_3.jpg","https://xcimg.szwego.com/20231021/i1697875185_5581_4.jpg","https://xcimg.szwego.com/20231021/i1697875185_4953_5.jpg","https://xcimg.szwego.com/20231021/i1697875185_1899_6.jpg","https://xcimg.szwego.com/20231021/i1697875185_3418_7.jpg","https://xcimg.szwego.com/20231021/i1697875185_2423_8.jpg"],"created_at":"2025-02-08T12:47:15.805Z"},{"id":"item-c466f69693a5","sku":"_dyQyQnszkYahIT3mt2RCtMd9n-Mt_ewGu3peGkA","name_en":"Celine Women Bags","name_cn":"赛琳小腋下包·老花\nTilly腋下包\n圆润造型单肩包👛\n延续经典手袋的调性\n容量可以包型硬挺可调节肩带\n\n尺寸:22×13.5×4cm","specs":{"source":"wsxcme","sourceId":"_dyQyQnszkYahIT3mt2RCtMd9n-Mt_ewGu3peGkA","sourceTagId":47003106,"sourceTagName":"塞琳/女包","dimensions":{"lengthCm":22,"heightCm":13.5,"widthCm":4},"rawTitle":"赛琳小腋下包·老花\nTilly腋下包\n圆润造型单肩包👛\n延续经典手袋的调性\n容量可以包型硬挺可调节肩带\n\n尺寸:22×13.5×4cm"},"price":null,"currency":"CNY","moq":1,"category":"celine-women-bags","status":"active","alibaba_url":null,"images":["https://xcimg.szwego.com/img/a0ceb150/20240304/i1709541643_3814_0.jpg","https://xcimg.szwego.com/img/a0ceb150/20240304/i1709541642_5135_0.jpg","https://xcimg.szwego.com/img/a0ceb150/20240304/i1709541643_1925_0.jpg","https://xcimg.szwego.com/img/a0ceb150/20240304/i1709541643_7924_0.jpg","https://xcimg.szwego.com/img/a0ceb150/20240304/i1709541643_3181_0.jpg","https://xcimg.szwego.com/img/a0ceb150/20240304/i1709541643_7690_0.jpg","https://xcimg.szwego.com/img/a0ceb150/20240304/i1709541643_2840_0.jpg","https://xcimg.szwego.com/img/a0ceb150/20240304/i1709541642_5892_0.jpg","https://xcimg.szwego.com/img/a0ceb150/20240304/i1709541642_6901_0.jpg"],"created_at":"2025-02-08T12:47:15.804Z"},{"id":"item-ae79a6af04b2","sku":"_di0i0A2YRUwjLAgzyhWsMwzzI5TaQ6khJps1zUQ","name_en":"Celine Women Bags","name_cn":"赛琳小腋下包·黑色\nTilly腋下包\n圆润造型单肩包👛\n延续经典手袋的调性\n容量可以包型硬挺可调节肩带\n\n尺寸:22×13.5×4cm","specs":{"source":"wsxcme","sourceId":"_di0i0A2YRUwjLAgzyhWsMwzzI5TaQ6khJps1zUQ","sourceTagId":47003106,"sourceTagName":"塞琳/女包","dimensions":{"lengthCm":22,"heightCm":13.5,"widthCm":4},"rawTitle":"赛琳小腋下包·黑色\nTilly腋下包\n圆润造型单肩包👛\n延续经典手袋的调性\n容量可以包型硬挺可调节肩带\n\n尺寸:22×13.5×4cm"},"price":null,"currency":"CNY","moq":1,"category":"celine-women-bags","status":"active","alibaba_url":null,"images":["https://xcimg.szwego.com/img/a0ceb150/20240304/i1709541587_9114_0.jpg","https://xcimg.szwego.com/img/a0ceb150/20240304/i1709541587_8935_0.jpg","https://xcimg.szwego.com/img/a0ceb150/20240304/i1709541588_6950_0.jpg","https://xcimg.szwego.com/img/a0ceb150/20240304/i1709541587_3620_0.jpg","https://xcimg.szwego.com/img/a0ceb150/20240304/i1709541587_9513_0.jpg","https://xcimg.szwego.com/img/a0ceb150/20240304/i1709541587_2599_0.jpg","https://xcimg.szwego.com/img/a0ceb150/20240304/i1709541587_672_0.jpg","https://xcimg.szwego.com/img/a0ceb150/20240304/i1709541588_5374_0.jpg","https://xcimg.szwego.com/img/a0ceb150/20240304/i1709541588_4800_0.jpg"],"created_at":"2025-02-08T12:47:15.803Z"},{"id":"item-49b7734dbab4","sku":"_dNuNux34IVlBHsc3ENMbcVZ9pDylitPXnKpMb7w","name_en":"Celine Women Bags","name_cn":"赛琳小腋下包·粉色\nTilly腋下包\n圆润造型单肩包👛\n延续经典手袋的调性\n容量可以包型硬挺可调节肩带\n\n尺寸:22×13.5×4cm","specs":{"source":"wsxcme","sourceId":"_dNuNux34IVlBHsc3ENMbcVZ9pDylitPXnKpMb7w","sourceTagId":47003106,"sourceTagName":"塞琳/女包","dimensions":{"lengthCm":22,"heightCm":13.5,"widthCm":4},"rawTitle":"赛琳小腋下包·粉色\nTilly腋下包\n圆润造型单肩包👛\n延续经典手袋的调性\n容量可以包型硬挺可调节肩带\n\n尺寸:22×13.5×4cm"},"price":null,"currency":"CNY","moq":1,"category":"celine-women-bags","status":"active","alibaba_url":null,"images":["https://xcimg.szwego.com/img/a0ceb150/20240304/i1709541507_5862_0.jpg","https://xcimg.szwego.com/img/a0ceb150/20240304/i1709541506_6008_0.jpg","https://xcimg.szwego.com/img/a0ceb150/20240304/i1709541506_559_0.jpg","https://xcimg.szwego.com/img/a0ceb150/20240304/i1709541507_5411_0.jpg","https://xcimg.szwego.com/img/a0ceb150/20240304/i1709541506_2409_0.jpg","https://xcimg.szwego.com/img/a0ceb150/20240304/i1709541506_9660_0.jpg","https://xcimg.szwego.com/img/a0ceb150/20240304/i1709541506_4234_0.jpg","https://xcimg.szwego.com/img/a0ceb150/20240304/i1709541506_2432_0.jpg","https://xcimg.szwego.com/img/a0ceb150/20240304/i1709541507_4013_0.jpg"],"created_at":"2025-02-08T12:47:15.802Z"},{"id":"item-7e62a6e369fe","sku":"_d-f-fkH8rt2WZzYoRzAWkCSGVccr-xd6m3SIedQ","name_en":"Celine Women Bags","name_cn":"赛琳小饺子包·黑色\nromy迷你尺寸\n可腋下和手拎容量感人❤️\n精致小巧一整个可爱住了\n\n尺寸:19×14×5cm","specs":{"source":"wsxcme","sourceId":"_d-f-fkH8rt2WZzYoRzAWkCSGVccr-xd6m3SIedQ","sourceTagId":47003106,"sourceTagName":"塞琳/女包","dimensions":{"lengthCm":19,"heightCm":14,"widthCm":5},"rawTitle":"赛琳小饺子包·黑色\nromy迷你尺寸\n可腋下和手拎容量感人❤️\n精致小巧一整个可爱住了\n\n尺寸:19×14×5cm"},"price":null,"currency":"CNY","moq":1,"category":"celine-women-bags","status":"active","alibaba_url":null,"images":["https://xcimg.szwego.com/img/a0ceb150/20240304/i1709541132_270_0.jpg","https://xcimg.szwego.com/img/a0ceb150/20240304/i1709541132_5129_0.jpg","https://xcimg.szwego.com/img/a0ceb150/20240304/i1709541132_52_0.jpg","https://xcimg.szwego.com/img/a0ceb150/20240304/i1709541132_4427_0.jpg","https://xcimg.szwego.com/img/a0ceb150/20240304/i1709541132_2874_0.jpg","https://xcimg.szwego.com/img/a0ceb150/20240304/i1709541132_4459_0.jpg","https://xcimg.szwego.com/img/a0ceb150/20240304/i1709541132_1650_0.jpg","https://xcimg.szwego.com/img/a0ceb150/20240304/i1709541132_5739_0.jpg","https://xcimg.szwego.com/img/a0ceb150/20240304/i1709541132_7123_0.jpg"],"created_at":"2025-02-08T12:47:15.801Z"},{"id":"item-996cbbfef585","sku":"_dvVvVdhl7IYHEeIo5m5VMb1nSIOi58UMKk6xG3Q","name_en":"Celine Women Bags","name_cn":"赛琳小饺子包·棕色\nromy迷你尺寸\n可腋下和手拎容量感人❤️\n精致小巧一整个可爱住了\n\n尺寸:19×14×5cm","specs":{"source":"wsxcme","sourceId":"_dvVvVdhl7IYHEeIo5m5VMb1nSIOi58UMKk6xG3Q","sourceTagId":47003106,"sourceTagName":"塞琳/女包","dimensions":{"lengthCm":19,"heightCm":14,"widthCm":5},"rawTitle":"赛琳小饺子包·棕色\nromy迷你尺寸\n可腋下和手拎容量感人❤️\n精致小巧一整个可爱住了\n\n尺寸:19×14×5cm"},"price":null,"currency":"CNY","moq":1,"category":"celine-women-bags","status":"active","alibaba_url":null,"images":["https://xcimg.szwego.com/img/a0ceb150/20240304/i1709541045_1012_0.jpg","https://xcimg.szwego.com/img/a0ceb150/20240304/i1709541045_5644_0.jpg","https://xcimg.szwego.com/img/a0ceb150/20240304/i1709541045_6756_0.jpg","https://xcimg.szwego.com/img/a0ceb150/20240304/i1709541045_3354_0.jpg","https://xcimg.szwego.com/img/a0ceb150/20240304/i1709541044_4254_0.jpg","https://xcimg.szwego.com/img/a0ceb150/20240304/i1709541044_4164_0.jpg","https://xcimg.szwego.com/img/a0ceb150/20240304/i1709541044_8725_0.jpg","https://xcimg.szwego.com/img/a0ceb150/20240304/i1709541045_3611_0.jpg","https://xcimg.szwego.com/img/a0ceb150/20240304/i1709541044_9358_0.jpg"],"created_at":"2025-02-08T12:47:15.800Z"},{"id":"item-d50db3ce5a3f","sku":"_dCsCsLk8VgYrgyMnj0SUFQY_UWmcQBaKK4qlIzQ","name_en":"Celine Women Bags","name_cn":"赛琳新款月亮包•老花\n采用头层牛皮配经典pvc\n完美结合复古和当下潮流\n展现品牌经典元素\n凯旋门大金扣点缀💎\n实用又不失风度\n尺寸:22×7.5×17cm","specs":{"source":"wsxcme","sourceId":"_dCsCsLk8VgYrgyMnj0SUFQY_UWmcQBaKK4qlIzQ","sourceTagId":47003106,"sourceTagName":"塞琳/女包","dimensions":{"lengthCm":22,"heightCm":7.5,"widthCm":17},"rawTitle":"赛琳新款月亮包•老花\n采用头层牛皮配经典pvc\n完美结合复古和当下潮流\n展现品牌经典元素\n凯旋门大金扣点缀💎\n实用又不失风度\n尺寸:22×7.5×17cm"},"price":null,"currency":"CNY","moq":1,"category":"celine-women-bags","status":"active","alibaba_url":null,"images":["https://xcimg.szwego.com/20231021/i1697876504_9649_0.jpg","https://xcimg.szwego.com/20231021/i1697876504_3318_1.jpg","https://xcimg.szwego.com/20231021/i1697876504_8258_2.jpg","https://xcimg.szwego.com/20231021/i1697876504_8894_3.jpg","https://xcimg.szwego.com/20231021/i1697876504_1768_4.jpg","https://xcimg.szwego.com/20231021/i1697876504_5551_5.jpg","https://xcimg.szwego.com/20231021/i1697876504_9128_6.jpg","https://xcimg.szwego.com/20231021/i1697876504_1878_7.jpg","https://xcimg.szwego.com/20231021/i1697876504_1241_8.jpg"],"created_at":"2025-02-08T12:47:15.799Z"},{"id":"item-9026bdf9c5a5","sku":"_dt_t_OBc8BoPJ3mCV_R421Zbc_1DKoJRvM028vQ","name_en":"Celine Women Bags","name_cn":"赛琳新款月亮包•棕色\n\n采用二层牛皮 内里反磨砂牛皮\n质量抗磨抗造 柔软不失包型👜\n经典包型搭配凯旋门大金扣点缀\n气质气场一下子upupup\n尺寸:22×7.5×17cm","specs":{"source":"wsxcme","sourceId":"_dt_t_OBc8BoPJ3mCV_R421Zbc_1DKoJRvM028vQ","sourceTagId":47003106,"sourceTagName":"塞琳/女包","dimensions":{"lengthCm":22,"heightCm":7.5,"widthCm":17},"rawTitle":"赛琳新款月亮包•棕色\n\n采用二层牛皮 内里反磨砂牛皮\n质量抗磨抗造 柔软不失包型👜\n经典包型搭配凯旋门大金扣点缀\n气质气场一下子upupup\n尺寸:22×7.5×17cm"},"price":null,"currency":"CNY","moq":1,"category":"celine-women-bags","status":"active","alibaba_url":null,"images":["https://xcimg.szwego.com/20231021/i1697874622_93_6.jpg","https://xcimg.szwego.com/20231021/i1697874622_8494_0.jpg","https://xcimg.szwego.com/20231021/i1697874622_852_1.jpg","https://xcimg.szwego.com/20231021/i1697874622_4861_2.jpg","https://xcimg.szwego.com/20231021/i1697874622_968_3.jpg","https://xcimg.szwego.com/20231021/i1697874622_9713_7.jpg","https://xcimg.szwego.com/20231021/i1697874622_7100_4.jpg","https://xcimg.szwego.com/20231021/i1697874622_211_5.jpg","https://xcimg.szwego.com/20231021/i1697874622_8415_8.jpg"],"created_at":"2025-02-08T12:47:15.798Z"},{"id":"item-4d9e8bfed755","sku":"_dkGkGTBreU3WX_k8TdRzDGYuIvOjivsu48xLcwg","name_en":"Celine Women Bags","name_cn":"赛琳新款月亮包•黑色\n\n采用二层牛皮 内里反磨砂牛皮\n质量抗磨抗造 柔软不失包型👜\n经典包型搭配凯旋门大金扣点缀\n气质气场一下子upupup\n尺寸:22×7.5×17cm","specs":{"source":"wsxcme","sourceId":"_dkGkGTBreU3WX_k8TdRzDGYuIvOjivsu48xLcwg","sourceTagId":47003106,"sourceTagName":"塞琳/女包","dimensions":{"lengthCm":22,"heightCm":7.5,"widthCm":17},"rawTitle":"赛琳新款月亮包•黑色\n\n采用二层牛皮 内里反磨砂牛皮\n质量抗磨抗造 柔软不失包型👜\n经典包型搭配凯旋门大金扣点缀\n气质气场一下子upupup\n尺寸:22×7.5×17cm"},"price":null,"currency":"CNY","moq":1,"category":"celine-women-bags","status":"active","alibaba_url":null,"images":["https://xcimg.szwego.com/20231021/i1697875185_6595_0.jpg","https://xcimg.szwego.com/20231021/i1697875185_3065_1.jpg","https://xcimg.szwego.com/20231021/i1697875185_7816_2.jpg","https://xcimg.szwego.com/20231021/i1697875185_2752_3.jpg","https://xcimg.szwego.com/20231021/i1697875185_5581_4.jpg","https://xcimg.szwego.com/20231021/i1697875185_4953_5.jpg","https://xcimg.szwego.com/20231021/i1697875185_1899_6.jpg","https://xcimg.szwego.com/20231021/i1697875185_3418_7.jpg","https://xcimg.szwego.com/20231021/i1697875185_2423_8.jpg"],"created_at":"2025-02-08T12:47:15.797Z"},{"id":"item-bd0f0c9f622b","sku":"_dLFLFeTrxVxfntHk83fK5KkVGn1e7lJVlJnHLJw","name_en":"Celine Women Bags","name_cn":"赛琳水桶老花大号•头层\n采用头层牛皮\n大号慵懒感十足\n酷酷的中号太飒啦\n尺寸:33×27×17cm","specs":{"source":"wsxcme","sourceId":"_dLFLFeTrxVxfntHk83fK5KkVGn1e7lJVlJnHLJw","sourceTagId":47003106,"sourceTagName":"塞琳/女包","dimensions":{"lengthCm":33,"heightCm":27,"widthCm":17},"rawTitle":"赛琳水桶老花大号•头层\n采用头层牛皮\n大号慵懒感十足\n酷酷的中号太飒啦\n尺寸:33×27×17cm"},"price":null,"currency":"CNY","moq":1,"category":"celine-women-bags","status":"active","alibaba_url":null,"images":["https://xcimg.szwego.com/20231012/i1697100668_8940_0.jpg","https://xcimg.szwego.com/20231012/i1697100668_1885_1.jpg","https://xcimg.szwego.com/20231012/i1697100668_6422_2.jpg","https://xcimg.szwego.com/20231012/i1697100668_6296_3.jpg","https://xcimg.szwego.com/20231012/i1697100668_2518_5.jpg","https://xcimg.szwego.com/20231012/i1697100668_9596_6.jpg","https://xcimg.szwego.com/20231012/i1697100668_3980_4.jpg","https://xcimg.szwego.com/20231012/i1697100668_1994_7.jpg","https://xcimg.szwego.com/20231012/i1697100668_2612_8.jpg"],"created_at":"2025-02-08T12:47:15.796Z"},{"id":"item-15b16a71a450","sku":"_d-H-HbRqf7XcvbXnZGy6-GoezaStbgS_qRGvBcg","name_en":"Celine Women Bags","name_cn":"赛琳水桶老花小号•头层\n采用头层牛皮\n小号尺寸不挑身高\n高颜值百搭复古风格\n单肩斜挎风格百搭多变\n尺寸:22×26×13cm","specs":{"source":"wsxcme","sourceId":"_d-H-HbRqf7XcvbXnZGy6-GoezaStbgS_qRGvBcg","sourceTagId":47003106,"sourceTagName":"塞琳/女包","dimensions":{"lengthCm":22,"heightCm":26,"widthCm":13},"rawTitle":"赛琳水桶老花小号•头层\n采用头层牛皮\n小号尺寸不挑身高\n高颜值百搭复古风格\n单肩斜挎风格百搭多变\n尺寸:22×26×13cm"},"price":null,"currency":"CNY","moq":1,"category":"celine-women-bags","status":"active","alibaba_url":null,"images":["https://xcimg.szwego.com/20231012/i1697099042_671_7.jpg","https://xcimg.szwego.com/20231012/i1697099042_416_8.jpg","https://xcimg.szwego.com/20231012/i1697099042_2120_2.jpg","https://xcimg.szwego.com/20231012/i1697099042_2053_0.jpg","https://xcimg.szwego.com/20231012/i1697099042_2672_6.jpg","https://xcimg.szwego.com/20231012/i1697099042_4300_1.jpg","https://xcimg.szwego.com/20231012/i1697099042_6376_3.jpg","https://xcimg.szwego.com/20231012/i1697099042_3775_4.jpg","https://xcimg.szwego.com/20231012/i1697099042_8462_5.jpg"],"created_at":"2025-02-08T12:47:15.795Z"},{"id":"item-9a60c2917897","sku":"_dfjfjU-VjEKgaxzhdsZvrGBFjurUIlwYzPsYDcA","name_en":"Celine Women Bags","name_cn":"赛琳马鞍包老花•头层\nlisa最爱马鞍包\n穿搭王者款❤️\n采用头层牛皮\n更新官网新版本💥\n尺寸:18.5×17×8cm","specs":{"source":"wsxcme","sourceId":"_dfjfjU-VjEKgaxzhdsZvrGBFjurUIlwYzPsYDcA","sourceTagId":47003106,"sourceTagName":"塞琳/女包","dimensions":{"lengthCm":18.5,"heightCm":17,"widthCm":8},"rawTitle":"赛琳马鞍包老花•头层\nlisa最爱马鞍包\n穿搭王者款❤️\n采用头层牛皮\n更新官网新版本💥\n尺寸:18.5×17×8cm"},"price":null,"currency":"CNY","moq":1,"category":"celine-women-bags","status":"active","alibaba_url":null,"images":["https://xcimg.szwego.com/20231012/i1697097524_8736_0.jpg","https://xcimg.szwego.com/20231012/i1697097524_6529_5.jpg","https://xcimg.szwego.com/20231012/i1697097524_2780_8.jpg","https://xcimg.szwego.com/20231012/i1697097524_5135_2.jpg","https://xcimg.szwego.com/20231012/i1697097524_1314_6.jpg","https://xcimg.szwego.com/20231012/i1697097524_8554_4.jpg","https://xcimg.szwego.com/20231012/i1697097524_3933_1.jpg","https://xcimg.szwego.com/20231012/i1697097524_788_3.jpg","https://xcimg.szwego.com/20231012/i1697097524_6387_7.jpg"],"created_at":"2025-02-08T12:47:15.794Z"},{"id":"item-4dd0206ab46b","sku":"_ddJdJJj-RVl_UwKtG-bBWdbUeiO1B-IOeoH578Q","name_en":"Celine Women Bags","name_cn":"赛琳腋下包白花•头层\n采用头层牛皮\n经典包型白色也很耐看\n奶乎乎的气质\n春夏小清新超搭🎏\n尺寸:23×19×7cm","specs":{"source":"wsxcme","sourceId":"_ddJdJJj-RVl_UwKtG-bBWdbUeiO1B-IOeoH578Q","sourceTagId":47003106,"sourceTagName":"塞琳/女包","dimensions":{"lengthCm":23,"heightCm":19,"widthCm":7},"rawTitle":"赛琳腋下包白花•头层\n采用头层牛皮\n经典包型白色也很耐看\n奶乎乎的气质\n春夏小清新超搭🎏\n尺寸:23×19×7cm"},"price":null,"currency":"CNY","moq":1,"category":"celine-women-bags","status":"active","alibaba_url":null,"images":["https://xcimg.szwego.com/20231012/i1697101756_4801_0.jpg","https://xcimg.szwego.com/20231012/i1697101756_259_1.jpg","https://xcimg.szwego.com/20231012/i1697101756_4752_2.jpg","https://xcimg.szwego.com/20231012/i1697101756_6493_3.jpg","https://xcimg.szwego.com/20231012/i1697101756_6781_4.jpg","https://xcimg.szwego.com/20231012/i1697101756_2093_5.jpg","https://xcimg.szwego.com/20231012/i1697101756_9830_6.jpg","https://xcimg.szwego.com/20231012/i1697101756_3895_7.jpg","https://xcimg.szwego.com/20231012/i1697101756_8190_8.jpg"],"created_at":"2025-02-08T12:47:15.793Z"},{"id":"item-d5ea0cb4cd16","sku":"_dSDSDmzEpnlKkQpm1fy4WwOmmk9HLExEx128W6g","name_en":"Celine Women Bags","name_cn":"赛琳腋下包老花•头层\n采用头层牛皮\n月牙形状透出俏皮感\n又甜又辣的风格🎀\n手拎腋下背都可\n尺寸:23×19×7cm","specs":{"source":"wsxcme","sourceId":"_dSDSDmzEpnlKkQpm1fy4WwOmmk9HLExEx128W6g","sourceTagId":47003106,"sourceTagName":"塞琳/女包","dimensions":{"lengthCm":23,"heightCm":19,"widthCm":7},"rawTitle":"赛琳腋下包老花•头层\n采用头层牛皮\n月牙形状透出俏皮感\n又甜又辣的风格🎀\n手拎腋下背都可\n尺寸:23×19×7cm"},"price":null,"currency":"CNY","moq":1,"category":"celine-women-bags","status":"active","alibaba_url":null,"images":["https://xcimg.szwego.com/20231012/i1697101423_5700_0.jpg","https://xcimg.szwego.com/20231012/i1697101423_4200_1.jpg","https://xcimg.szwego.com/20231012/i1697101423_6423_2.jpg","https://xcimg.szwego.com/20231012/i1697101423_2896_3.jpg","https://xcimg.szwego.com/20231012/i1697101423_8423_4.jpg","https://xcimg.szwego.com/20231012/i1697101423_7336_5.jpg","https://xcimg.szwego.com/20231012/i1697101423_9574_7.jpg","https://xcimg.szwego.com/20231012/i1697101423_5037_6.jpg","https://xcimg.szwego.com/20231012/i1697101423_6855_8.jpg"],"created_at":"2025-02-08T12:47:15.792Z"}],"page":13,"pageSize":24,"total":582,"totalPages":25}
