{"items":[{"id":"item-f6120df9b8b2","sku":"_dtVtVYBPiSU39RGdB7DYPhK35Y_9ZmcflIxKhZQ","name_en":"顶级质量,BUR主推桦木棕格纹托特包,装饰标志性格纹图案,搭配缉明线皮革边饰与皮革包覆的镜子吊饰 材是环保的防水防污帆布 上身轻便 容量大 超百搭 网红主推款 今年必入款 🌟","name_cn":"顶级质量,BUR主推桦木棕格纹托特包,装饰标志性格纹图案,搭配缉明线皮革边饰与皮革包覆的镜子吊饰 材是环保的防水防污帆布 上身轻便 容量大 超百搭 网红主推款 今年必入款 🌟\n尺寸:34 x 14 x 28cm🌟","specs":{"source":"wsxcme","sourceId":"_dtVtVYBPiSU39RGdB7DYPhK35Y_9ZmcflIxKhZQ","sourceTagId":80411239,"sourceTagName":"巴宝莉/女包","dimensions":{"lengthCm":34,"heightCm":14,"widthCm":28},"rawTitle":"顶级质量,BUR主推桦木棕格纹托特包,装饰标志性格纹图案,搭配缉明线皮革边饰与皮革包覆的镜子吊饰 材是环保的防水防污帆布 上身轻便 容量大 超百搭 网红主推款 今年必入款 🌟\n尺寸:34 x 14 x 28cm🌟"},"price":null,"currency":"CNY","moq":1,"category":"burberry-women-bags","status":"active","alibaba_url":null,"images":["https://xcimg.szwego.com/imgHD/b7f85c57/20260505/cmp_i1777958409342_4305_0_0.jpg","https://xcimg.szwego.com/imgHD/b7f85c57/20251128/cmp_i1764305116530_1756_0_3.jpg","https://xcimg.szwego.com/imgHD/b7f85c57/20260505/cmp_i1777958417605_565_0_2.jpg","https://xcimg.szwego.com/imgHD/b7f85c57/20260505/cmp_i1777958409341_263_0_3.jpg","https://xcimg.szwego.com/imgHD/b7f85c57/20260505/cmp_i1777958409323_9242_0_4.jpg","https://xcimg.szwego.com/imgHD/b7f85c57/20260505/cmp_i1777958419279_7419_0_5.jpg","https://xcimg.szwego.com/imgHD/b7f85c57/20260505/cmp_i1777958416790_6423_0_6.jpg","https://xcimg.szwego.com/imgHD/b7f85c57/20260505/cmp_i1777958409333_2304_0_7.jpg","https://xcimg.szwego.com/imgHD/b7f85c57/20260505/cmp_i1777958409343_5656_0_8.jpg"],"created_at":"2026-06-29T10:29:02.749Z"},{"id":"item-4e247c60d451","sku":"_dnHnH-2iF5lVjoKGylWuD16IIwUNkPGxw6vOD-g","name_en":"顶级质量,Cotswolds 格纹托特包","name_cn":"顶级质量,Cotswolds 格纹托特包 \n选用粒纹小牛皮材质打造,设有 Burberry 格纹侧边裁片,搭配同设计标志性沙米色内衬。精巧款式,内部空问充裕。融入格纹镌纹开合与D型环配件,灵感源自品牌标志性 Trench 风衣腰带。可手拿携带,或使用肩背带缔造肩背造型。尺寸30.5 × 13 × 22.5cm","specs":{"source":"wsxcme","sourceId":"_dnHnH-2iF5lVjoKGylWuD16IIwUNkPGxw6vOD-g","sourceTagId":80411239,"sourceTagName":"巴宝莉/女包","dimensions":{"lengthCm":30.5,"heightCm":13,"widthCm":22.5},"rawTitle":"顶级质量,Cotswolds 格纹托特包 \n选用粒纹小牛皮材质打造,设有 Burberry 格纹侧边裁片,搭配同设计标志性沙米色内衬。精巧款式,内部空问充裕。融入格纹镌纹开合与D型环配件,灵感源自品牌标志性 Trench 风衣腰带。可手拿携带,或使用肩背带缔造肩背造型。尺寸30.5 × 13 × 22.5cm"},"price":null,"currency":"CNY","moq":1,"category":"burberry-women-bags","status":"active","alibaba_url":null,"images":["https://xcimg.szwego.com/imgHD/b7f85c57/20260531/cmp_i1780201027922_5310_0_0.jpg","https://xcimg.szwego.com/imgHD/b7f85c57/20260531/cmp_i1780201027955_4056_0_1.jpg","https://xcimg.szwego.com/imgHD/b7f85c57/20260531/cmp_i1780201026374_6584_0_2.jpg","https://xcimg.szwego.com/imgHD/b7f85c57/20260531/cmp_i1780201027937_3801_0_3.jpg","https://xcimg.szwego.com/imgHD/b7f85c57/20260531/cmp_i1780201025960_7353_0_4.jpg","https://xcimg.szwego.com/imgHD/b7f85c57/20260531/cmp_i1780201026882_7880_0_5.jpg","https://xcimg.szwego.com/imgHD/b7f85c57/20260531/cmp_i1780201025896_8870_0_6.jpg","https://xcimg.szwego.com/imgHD/b7f85c57/20260531/cmp_i1780201025025_7792_0_7.jpg","https://xcimg.szwego.com/imgHD/b7f85c57/20260531/cmp_i1780201026243_3599_0_8.jpg"],"created_at":"2026-06-29T10:29:02.629Z"},{"id":"item-b0685fbadfd7","sku":"_duHuHxrY6saDCl0rqiDsm650p9BU41oZtbaStrA","name_en":"独家款,B家再一次回到经典的格纹设计,半月包+腋下包的 Vintage复古潮流,","name_cn":"独家款,B家再一次回到经典的格纹设计,半月包+腋下包的 Vintage复古潮流,","specs":{"source":"wsxcme","sourceId":"_duHuHxrY6saDCl0rqiDsm650p9BU41oZtbaStrA","sourceTagId":80411239,"sourceTagName":"巴宝莉/女包","rawTitle":"独家款,B家再一次回到经典的格纹设计,半月包+腋下包的 Vintage复古潮流,"},"price":null,"currency":"CNY","moq":1,"category":"burberry-women-bags","status":"active","alibaba_url":null,"images":["https://xcimg.szwego.com/20211005/i1633416918_7568_0.jpg","https://xcimg.szwego.com/20211005/i1633416918_5790_1.jpg","https://xcimg.szwego.com/20211005/i1633416918_5739_2.jpg","https://xcimg.szwego.com/20211005/i1633416918_9442_3.jpg","https://xcimg.szwego.com/20211005/i1633416918_9164_4.jpg","https://xcimg.szwego.com/20211005/i1633416918_6945_5.jpg"],"created_at":"2025-01-20T12:46:12.808Z"},{"id":"item-44982477aa09","sku":"_dr9r9gRH-emXdiV1OynaqAR7h21Rnvu-ymZ5I-w","name_en":"更这个 莞产的bbr鳄鱼纹ROCKING HORSE TOTE 手袋 小号","name_cn":"更这个 莞产的bbr鳄鱼纹ROCKING HORSE TOTE 手袋 小号","specs":{"source":"wsxcme","sourceId":"_dr9r9gRH-emXdiV1OynaqAR7h21Rnvu-ymZ5I-w","sourceTagId":80411239,"sourceTagName":"巴宝莉/女包","rawTitle":"更这个 莞产的bbr鳄鱼纹ROCKING HORSE TOTE 手袋 小号"},"price":null,"currency":"CNY","moq":1,"category":"burberry-women-bags","status":"active","alibaba_url":null,"images":["https://xcimg.szwego.com/img/044b8f29/20241220/i1734681247_1897_0.jpg"],"created_at":"2026-06-29T10:27:58.842Z"},{"id":"item-50b6e2c10dc4","sku":"_d0l0lh8o1-xY56o9_EO5pcQr6jGNeJUTiwcvcgw","name_en":"经典托特包型,皮革拼帆布,经典大logo,充满着文艺气息,这种款很适合通勤,一年四季都适合,立体的包型,容量大,可以装很多杂七杂八的东西,结实又耐用,手拎还是肩背都很OK,宽肩带,时尚又不累肩~","name_cn":"经典托特包型,皮革拼帆布,经典大logo,充满着文艺气息,这种款很适合通勤,一年四季都适合,立体的包型,容量大,可以装很多杂七杂八的东西,结实又耐用,手拎还是肩背都很OK,宽肩带,时尚又不累肩~","specs":{"source":"wsxcme","sourceId":"_d0l0lh8o1-xY56o9_EO5pcQr6jGNeJUTiwcvcgw","sourceTagId":80411239,"sourceTagName":"巴宝莉/女包","rawTitle":"经典托特包型,皮革拼帆布,经典大logo,充满着文艺气息,这种款很适合通勤,一年四季都适合,立体的包型,容量大,可以装很多杂七杂八的东西,结实又耐用,手拎还是肩背都很OK,宽肩带,时尚又不累肩~"},"price":null,"currency":"CNY","moq":1,"category":"burberry-women-bags","status":"active","alibaba_url":null,"images":["https://xcimg.szwego.com/20211011/i1633942937_1187_0.jpg","https://xcimg.szwego.com/20211011/i1633942937_5380_1.jpg","https://xcimg.szwego.com/20211011/i1633942937_2738_2.jpg","https://xcimg.szwego.com/20211011/i1633942937_8651_3.jpg","https://xcimg.szwego.com/20211011/i1633942937_5974_4.jpg","https://xcimg.szwego.com/20211011/i1633942937_2658_5.jpg","https://xcimg.szwego.com/20211011/i1633942937_6715_6.jpg","https://xcimg.szwego.com/20211011/i1633942937_1403_7.jpg","https://xcimg.szwego.com/20211011/i1633942937_4850_8.jpg"],"created_at":"2025-01-20T12:46:12.739Z"},{"id":"item-ac271369e136","sku":"_dwfwflVfgaUv7FRpujvWv1kko5CTS1fnHDYw8rA","name_en":"空间充裕的 Catherine 包,精选品牌大号格纹拼光滑意大利鞣制皮革打造。几何裁片抢眼搭配品牌徽标,设计灵感来自经典 Trench 风衣的衣领形状。本单品首次亮相于 Burberry   秋冬女装秀,其命名源于创始人 Thomas Burberry 的妻子(6 位子女的母亲)的名字 Catherine。可使用加固式皮革提柄手拎,或使用可拆式肩背带携带。此","name_cn":"空间充裕的 Catherine 包,精选品牌大号格纹拼光滑意大利鞣制皮革打造。几何裁片抢眼搭配品牌徽标,设计灵感来自经典 Trench 风衣的衣领形状。本单品首次亮相于 Burberry   秋冬女装秀,其命名源于创始人 Thomas Burberry 的妻子(6 位子女的母亲)的名字 Catherine。可使用加固式皮革提柄手拎,或使用可拆式肩背带携带。此件精品的主要材料中至少 30% 来自生物基材料。生物基材料主要来源于植物和蓖麻油等可再生自然资源。28 x 13 x 23cm.顶部皮革提柄.可拆可调式肩背带.拉链开合,侧边按扣.2个外部翻盖口袋,2个内插袋.手绘涂漆边缘.光泽金属配件.正面饰有 Burberry 字母压花徽标","specs":{"source":"wsxcme","sourceId":"_dwfwflVfgaUv7FRpujvWv1kko5CTS1fnHDYw8rA","sourceTagId":80411239,"sourceTagName":"巴宝莉/女包","rawTitle":"空间充裕的 Catherine 包,精选品牌大号格纹拼光滑意大利鞣制皮革打造。几何裁片抢眼搭配品牌徽标,设计灵感来自经典 Trench 风衣的衣领形状。本单品首次亮相于 Burberry   秋冬女装秀,其命名源于创始人 Thomas Burberry 的妻子(6 位子女的母亲)的名字 Catherine。可使用加固式皮革提柄手拎,或使用可拆式肩背带携带。此件精品的主要材料中至少 30% 来自生物基材料。生物基材料主要来源于植物和蓖麻油等可再生自然资源。28 x 13 x 23cm.顶部皮革提柄.可拆可调式肩背带.拉链开合,侧边按扣.2个外部翻盖口袋,2个内插袋.手绘涂漆边缘.光泽金属配件.正面饰有 Burberry 字母压花徽标"},"price":null,"currency":"CNY","moq":1,"category":"burberry-women-bags","status":"active","alibaba_url":null,"images":["https://xcimg.szwego.com/20221224/i1671865872_3361_0.jpg","https://xcimg.szwego.com/20221224/i1671865872_7949_1.jpg","https://xcimg.szwego.com/20221224/i1671865872_1980_2.jpg","https://xcimg.szwego.com/20221224/i1671865872_5542_3.jpg","https://xcimg.szwego.com/20221224/i1671865872_356_4.jpg","https://xcimg.szwego.com/20221224/i1671865872_633_5.jpg","https://xcimg.szwego.com/20221224/i1671865872_1849_6.jpg","https://xcimg.szwego.com/20221224/i1671865872_5395_7.jpg","https://xcimg.szwego.com/20221224/i1671865872_7324_8.jpg"],"created_at":"2026-06-29T10:29:02.909Z"},{"id":"item-ce91ce4a8f2c","sku":"_dBRBRsy6-XFoG-eaTO3wJU9l5k6dODQz2PVU5JQ","name_en":"迷你链条版Peg手拿包全新mini","name_cn":"迷你链条版Peg手拿包全新mini\n新增可拆卸金属链条 实用性更强\n尺寸16×10× 26cm.","specs":{"source":"wsxcme","sourceId":"_dBRBRsy6-XFoG-eaTO3wJU9l5k6dODQz2PVU5JQ","sourceTagId":80411239,"sourceTagName":"巴宝莉/女包","dimensions":{"lengthCm":16,"heightCm":10,"widthCm":26},"rawTitle":"迷你链条版Peg手拿包全新mini\n新增可拆卸金属链条 实用性更强\n尺寸16×10× 26cm."},"price":null,"currency":"CNY","moq":1,"category":"burberry-women-bags","status":"active","alibaba_url":null,"images":["https://xcimg.szwego.com/img/d5e7a5ce/20241113/a1731483736457_3117.jpg","https://xcimg.szwego.com/img/d5e7a5ce/20241113/a1731483736453_7831.jpg","https://xcimg.szwego.com/img/d5e7a5ce/20241113/a1731483736455_5004.jpg","https://xcimg.szwego.com/img/d5e7a5ce/20241113/a1731483736455_3806.jpg","https://xcimg.szwego.com/img/d5e7a5ce/20241113/a1731483736458_6137.jpg","https://xcimg.szwego.com/img/d5e7a5ce/20241113/a1731483736454_3204.jpg","https://xcimg.szwego.com/img/d5e7a5ce/20241113/a1731483737735_0338.jpg","https://xcimg.szwego.com/img/d5e7a5ce/20241113/a1731483737733_0577.jpg"],"created_at":"2025-01-20T12:43:24.146Z"},{"id":"item-af27f67b5a40","sku":"_dnTnTj4XxuMWxP73g74_NxqZBqPmniOXRaeYulg","name_en":"迷你链条版Peg手拿包全新mini","name_cn":"迷你链条版Peg手拿包全新mini\n新增可拆卸金属链条 实用性更强\n尺寸16×10× 26cm.","specs":{"source":"wsxcme","sourceId":"_dnTnTj4XxuMWxP73g74_NxqZBqPmniOXRaeYulg","sourceTagId":80411239,"sourceTagName":"巴宝莉/女包","dimensions":{"lengthCm":16,"heightCm":10,"widthCm":26},"rawTitle":"迷你链条版Peg手拿包全新mini\n新增可拆卸金属链条 实用性更强\n尺寸16×10× 26cm."},"price":null,"currency":"CNY","moq":1,"category":"burberry-women-bags","status":"active","alibaba_url":null,"images":["https://xcimg.szwego.com/img/d5e7a5ce/20241113/a1731483806971_7580.jpg","https://xcimg.szwego.com/img/d5e7a5ce/20241113/a1731483806974_8558.jpg","https://xcimg.szwego.com/img/d5e7a5ce/20241113/a1731483806973_7183.jpg","https://xcimg.szwego.com/img/d5e7a5ce/20241113/a1731483806978_1481.jpg","https://xcimg.szwego.com/img/d5e7a5ce/20241113/a1731483806975_4740.jpg","https://xcimg.szwego.com/img/d5e7a5ce/20241113/a1731483806976_0702.jpg","https://xcimg.szwego.com/img/d5e7a5ce/20241113/a1731483810602_4328.jpg","https://xcimg.szwego.com/img/d5e7a5ce/20241113/a1731483810605_6663.jpg","https://xcimg.szwego.com/img/d5e7a5ce/20241113/a1731483810589_3778.jpg"],"created_at":"2025-01-20T12:43:24.148Z"},{"id":"item-aa44840b0c73","sku":"_dd5d5SNDvViD66FobruBz058Wx0imKGNWVrPXbQ","name_en":"迷你链条版Peg手拿包全新mini","name_cn":"迷你链条版Peg手拿包全新mini\n新增可拆卸金属链条 实用性更强\n尺寸16×10× 26cm.","specs":{"source":"wsxcme","sourceId":"_dd5d5SNDvViD66FobruBz058Wx0imKGNWVrPXbQ","sourceTagId":80411239,"sourceTagName":"巴宝莉/女包","dimensions":{"lengthCm":16,"heightCm":10,"widthCm":26},"rawTitle":"迷你链条版Peg手拿包全新mini\n新增可拆卸金属链条 实用性更强\n尺寸16×10× 26cm."},"price":null,"currency":"CNY","moq":1,"category":"burberry-women-bags","status":"active","alibaba_url":null,"images":["https://xcimg.szwego.com/img/d5e7a5ce/20241113/a1731483784202_8685.jpg","https://xcimg.szwego.com/img/d5e7a5ce/20241113/a1731483784198_8748.jpg","https://xcimg.szwego.com/img/d5e7a5ce/20241113/a1731483784206_7124.jpg","https://xcimg.szwego.com/img/d5e7a5ce/20241113/a1731483784210_8635.jpg","https://xcimg.szwego.com/img/d5e7a5ce/20241113/a1731483784205_0850.jpg","https://xcimg.szwego.com/img/d5e7a5ce/20241113/a1731483784207_8687.jpg","https://xcimg.szwego.com/img/d5e7a5ce/20241113/a1731483787726_8157.jpg","https://xcimg.szwego.com/img/d5e7a5ce/20241113/a1731483787728_5136.jpg","https://xcimg.szwego.com/img/d5e7a5ce/20241113/a1731483787727_6251.jpg"],"created_at":"2025-01-20T12:43:24.147Z"},{"id":"item-1fdaba703874","sku":"_dsnsnVtZ34N50ojpfcOs2dvheUUtcL1P5YwfUCg","name_en":"平铺实拍,独家操作的款,包身采用战马格子材料,属于pvc的一种,非常耐磨耐造还防水,加上小牛皮的包边,配色非常经典,简约低调又高级,这款几乎市面上你找不到,中古店也是一包难求!","name_cn":"平铺实拍,独家操作的款,包身采用战马格子材料,属于pvc的一种,非常耐磨耐造还防水,加上小牛皮的包边,配色非常经典,简约低调又高级,这款几乎市面上你找不到,中古店也是一包难求!","specs":{"source":"wsxcme","sourceId":"_dsnsnVtZ34N50ojpfcOs2dvheUUtcL1P5YwfUCg","sourceTagId":80411239,"sourceTagName":"巴宝莉/女包","rawTitle":"平铺实拍,独家操作的款,包身采用战马格子材料,属于pvc的一种,非常耐磨耐造还防水,加上小牛皮的包边,配色非常经典,简约低调又高级,这款几乎市面上你找不到,中古店也是一包难求!"},"price":null,"currency":"CNY","moq":1,"category":"burberry-women-bags","status":"active","alibaba_url":null,"images":["https://xcimg.szwego.com/20211202/i1638455887_9835_6.jpg","https://xcimg.szwego.com/20211202/i1638455887_4606_0.jpg","https://xcimg.szwego.com/20211202/i1638455887_5358_1.jpg","https://xcimg.szwego.com/20211202/i1638455887_4880_3.jpg","https://xcimg.szwego.com/20211202/i1638455887_667_4.jpg","https://xcimg.szwego.com/20211202/i1638455887_8326_5.jpg","https://xcimg.szwego.com/20211202/i1638455887_4827_7.jpg"],"created_at":"2025-01-20T12:46:12.731Z"},{"id":"item-44813cc7526e","sku":"_dfGfGd6s1QGlhZwcrAQR2-ErJzyNwkMlr7-G2UA","name_en":"平铺实拍,独家首发,莞产代工厂渠道,新款把之前的大logo改成了小logo,越发低调了,可手提可肩背带,太喜欢这个公文袋造型了,配色是b家最经典的焦糖色皮革拼白色帆布,学院风又有复古风,","name_cn":"平铺实拍,独家首发,莞产代工厂渠道,新款把之前的大logo改成了小logo,越发低调了,可手提可肩背带,太喜欢这个公文袋造型了,配色是b家最经典的焦糖色皮革拼白色帆布,学院风又有复古风,","specs":{"source":"wsxcme","sourceId":"_dfGfGd6s1QGlhZwcrAQR2-ErJzyNwkMlr7-G2UA","sourceTagId":80411239,"sourceTagName":"巴宝莉/女包","rawTitle":"平铺实拍,独家首发,莞产代工厂渠道,新款把之前的大logo改成了小logo,越发低调了,可手提可肩背带,太喜欢这个公文袋造型了,配色是b家最经典的焦糖色皮革拼白色帆布,学院风又有复古风,"},"price":null,"currency":"CNY","moq":1,"category":"burberry-women-bags","status":"active","alibaba_url":null,"images":["https://xcimg.szwego.com/20220616/i1655370356_7916_0.jpg","https://xcimg.szwego.com/20220616/i1655370356_5162_1.jpg","https://xcimg.szwego.com/20220616/i1655370356_4393_2.jpg","https://xcimg.szwego.com/20220616/i1655370356_3868_3.jpg","https://xcimg.szwego.com/20220616/i1655370356_1765_4.jpg","https://xcimg.szwego.com/20220616/i1655370356_5456_5.jpg"],"created_at":"2025-01-20T12:46:12.737Z"},{"id":"item-447cda918071","sku":"_dOuOuqhnudUayBY8nJHaFiv3_i9N7zHNQ2_e7ow","name_en":"平铺实拍细节, 独家操作的款,这款包的设计灵感来自Trench风衣的衣领形状,是秀款来的,格纹拼皮质感满满,日常或者通勤都能背,感觉特别适合职场白领,很有想法和气场,肩带可调节的","name_cn":"平铺实拍细节, 独家操作的款,这款包的设计灵感来自Trench风衣的衣领形状,是秀款来的,格纹拼皮质感满满,日常或者通勤都能背,感觉特别适合职场白领,很有想法和气场,肩带可调节的","specs":{"source":"wsxcme","sourceId":"_dOuOuqhnudUayBY8nJHaFiv3_i9N7zHNQ2_e7ow","sourceTagId":80411239,"sourceTagName":"巴宝莉/女包","rawTitle":"平铺实拍细节, 独家操作的款,这款包的设计灵感来自Trench风衣的衣领形状,是秀款来的,格纹拼皮质感满满,日常或者通勤都能背,感觉特别适合职场白领,很有想法和气场,肩带可调节的"},"price":null,"currency":"CNY","moq":1,"category":"burberry-women-bags","status":"active","alibaba_url":null,"images":["https://xcimg.szwego.com/20221206/i1670326894_6468_0.jpg","https://xcimg.szwego.com/20221206/i1670327185_9370_0.jpg","https://xcimg.szwego.com/20221206/i1670326894_5013_3.jpg","https://xcimg.szwego.com/20221206/i1670326894_7890_4.jpg","https://xcimg.szwego.com/20221206/i1670326894_6069_2.jpg","https://xcimg.szwego.com/20221206/i1670326894_5508_5.jpg"],"created_at":"2025-01-20T12:46:12.754Z"},{"id":"item-63d684879bd7","sku":"_dxcxc8L5sOmOSA6mXuvjYhu6hBO_0jo2zYVCyYQ","name_en":"平铺实拍细节,独家操作的款,纯原的,整体pvc材质,牛皮包边,比帆布款更加有高级感,看着就很高级 经典格纹百看不腻的,迷你款非常轻便真的很实用,","name_cn":"平铺实拍细节,独家操作的款,纯原的,整体pvc材质,牛皮包边,比帆布款更加有高级感,看着就很高级 经典格纹百看不腻的,迷你款非常轻便真的很实用,","specs":{"source":"wsxcme","sourceId":"_dxcxc8L5sOmOSA6mXuvjYhu6hBO_0jo2zYVCyYQ","sourceTagId":80411239,"sourceTagName":"巴宝莉/女包","rawTitle":"平铺实拍细节,独家操作的款,纯原的,整体pvc材质,牛皮包边,比帆布款更加有高级感,看着就很高级 经典格纹百看不腻的,迷你款非常轻便真的很实用,"},"price":null,"currency":"CNY","moq":1,"category":"burberry-women-bags","status":"active","alibaba_url":null,"images":["https://xcimg.szwego.com/20221011/i1665479380_9794_0.jpg","https://xcimg.szwego.com/20221011/i1665479380_4185_1.jpg","https://xcimg.szwego.com/20221011/i1665479380_1887_2.jpg","https://xcimg.szwego.com/20221011/i1665479380_8741_3.jpg","https://xcimg.szwego.com/20221011/i1665479380_4313_4.jpg","https://xcimg.szwego.com/20221011/i1665479380_7261_5.jpg"],"created_at":"2025-01-20T12:46:12.725Z"},{"id":"item-944a9d215211","sku":"_du_u_nwwSWsAt5vj_Ybmg7AcWlUdDkFRr8QR_8w","name_en":"平铺实拍细节,独家款桦木棕格纹波士顿,配有长肩带单肩斜挎手拎手提都可以,pvc材质手感超级好,包身轻便,实物更有质感很高级,跟mini一个渠道的,百分百纯原!","name_cn":"平铺实拍细节,独家款桦木棕格纹波士顿,配有长肩带单肩斜挎手拎手提都可以,pvc材质手感超级好,包身轻便,实物更有质感很高级,跟mini一个渠道的,百分百纯原!","specs":{"source":"wsxcme","sourceId":"_du_u_nwwSWsAt5vj_Ybmg7AcWlUdDkFRr8QR_8w","sourceTagId":80411239,"sourceTagName":"巴宝莉/女包","rawTitle":"平铺实拍细节,独家款桦木棕格纹波士顿,配有长肩带单肩斜挎手拎手提都可以,pvc材质手感超级好,包身轻便,实物更有质感很高级,跟mini一个渠道的,百分百纯原!"},"price":null,"currency":"CNY","moq":1,"category":"burberry-women-bags","status":"active","alibaba_url":null,"images":["https://xcimg.szwego.com/20221201/i1669893529_3312_0.jpg","https://xcimg.szwego.com/20221201/i1669893529_898_1.jpg","https://xcimg.szwego.com/20221201/i1669893529_488_2.jpg","https://xcimg.szwego.com/20221201/i1669893529_4319_3.jpg","https://xcimg.szwego.com/20221201/i1669893529_3710_4.jpg"],"created_at":"2025-01-20T12:43:24.101Z"},{"id":"item-3f135cd4a0b6","sku":"_diBiB4QY4UgSugmgAhswzurE-vBjl8m-9xS-KRA","name_en":"平铺实拍细节,小牛皮材质的包包质感很强,包身挺括有型不软不皱,精细的重工明线设计,TB的Logo真心好看,简洁大方又有辨识度","name_cn":"平铺实拍细节,小牛皮材质的包包质感很强,包身挺括有型不软不皱,精细的重工明线设计,TB的Logo真心好看,简洁大方又有辨识度","specs":{"source":"wsxcme","sourceId":"_diBiB4QY4UgSugmgAhswzurE-vBjl8m-9xS-KRA","sourceTagId":80411239,"sourceTagName":"巴宝莉/女包","rawTitle":"平铺实拍细节,小牛皮材质的包包质感很强,包身挺括有型不软不皱,精细的重工明线设计,TB的Logo真心好看,简洁大方又有辨识度"},"price":null,"currency":"CNY","moq":1,"category":"burberry-women-bags","status":"active","alibaba_url":null,"images":["https://xcimg.szwego.com/20220517/i1652775990_3617_0.jpg","https://xcimg.szwego.com/20220517/i1652775990_4604_1.jpg","https://xcimg.szwego.com/20220517/i1652775990_3670_2.jpg","https://xcimg.szwego.com/20220517/i1652775990_2393_3.jpg","https://xcimg.szwego.com/20220517/i1652775990_9820_4.jpg","https://xcimg.szwego.com/20220517/i1652775990_5223_5.jpg"],"created_at":"2025-01-20T12:43:24.106Z"},{"id":"item-929ec20ff525","sku":"_dfYfYn92WcgFI4hWvRJ9uw2VBPjrDCQeYBLXutA","name_en":"平铺细节简单看一下, 小牛皮材质的包包质感很强,包身挺括有型不软不皱,精细的重工明线设计,TB的Logo真心好看,简洁大方又有辨识度,","name_cn":"平铺细节简单看一下, 小牛皮材质的包包质感很强,包身挺括有型不软不皱,精细的重工明线设计,TB的Logo真心好看,简洁大方又有辨识度,","specs":{"source":"wsxcme","sourceId":"_dfYfYn92WcgFI4hWvRJ9uw2VBPjrDCQeYBLXutA","sourceTagId":80411239,"sourceTagName":"巴宝莉/女包","rawTitle":"平铺细节简单看一下, 小牛皮材质的包包质感很强,包身挺括有型不软不皱,精细的重工明线设计,TB的Logo真心好看,简洁大方又有辨识度,"},"price":null,"currency":"CNY","moq":1,"category":"burberry-women-bags","status":"active","alibaba_url":null,"images":["https://xcimg.szwego.com/20220530/i1653910031_7412_2.jpg","https://xcimg.szwego.com/20220530/i1653910031_5480_1.jpg","https://xcimg.szwego.com/20220530/i1653910031_1904_3.jpg","https://xcimg.szwego.com/20220530/i1653910031_80_4.jpg","https://xcimg.szwego.com/20220530/i1653910031_6759_5.jpg","https://xcimg.szwego.com/20220530/i1653910031_4981_6.jpg","https://xcimg.szwego.com/20220530/i1653910031_8169_7.jpg"],"created_at":"2025-01-20T12:43:24.105Z"},{"id":"item-d563c4e73978","sku":"_djejetR6Xcv8v85Fn9BDWklvKMC1r41el9pEbaQ","name_en":"升级版B家顶级新款收纳小水桶搭配格纹元素 更加经典休闲亮点是非常轻!空间大容易收纳 ,配有手提皮带,还有肩背皮带。","name_cn":"升级版B家顶级新款收纳小水桶搭配格纹元素 更加经典休闲亮点是非常轻!空间大容易收纳 ,配有手提皮带,还有肩背皮带。\n尺寸:21.14.24  、2232","specs":{"source":"wsxcme","sourceId":"_djejetR6Xcv8v85Fn9BDWklvKMC1r41el9pEbaQ","sourceTagId":80411239,"sourceTagName":"巴宝莉/女包","rawTitle":"升级版B家顶级新款收纳小水桶搭配格纹元素 更加经典休闲亮点是非常轻!空间大容易收纳 ,配有手提皮带,还有肩背皮带。\n尺寸:21.14.24  、2232"},"price":null,"currency":"CNY","moq":1,"category":"burberry-women-bags","status":"active","alibaba_url":null,"images":["https://xcimg.szwego.com/20220810/a1660108435561_6873.jpg","https://xcimg.szwego.com/20220810/a1660108435642_1107.jpg","https://xcimg.szwego.com/20220810/a1660108435722_6251.jpg","https://xcimg.szwego.com/20220810/a1660108435822_2886.jpg","https://xcimg.szwego.com/20220810/a1660108435939_1247.jpg","https://xcimg.szwego.com/20220810/a1660108436064_2360.jpg","https://xcimg.szwego.com/20220810/a1660108436173_2531.jpg","https://xcimg.szwego.com/20220810/a1660108436312_4388.jpg","https://xcimg.szwego.com/20220810/a1660108436413_0367.jpg"],"created_at":"2025-01-20T12:43:24.123Z"},{"id":"item-126ca83e376d","sku":"_dm4m4hLbhXTuLcFl9tsG0PtiW5StGRu3XbMUXhQ","name_en":"升级版B家顶级新款收纳小水桶搭配格纹元素 更加经典休闲亮点是非常轻!空间大容易收纳 ,配有手提皮带,还有肩背皮带。","name_cn":"升级版B家顶级新款收纳小水桶搭配格纹元素 更加经典休闲亮点是非常轻!空间大容易收纳 ,配有手提皮带,还有肩背皮带。\n尺寸:21.14.24  、2232","specs":{"source":"wsxcme","sourceId":"_dm4m4hLbhXTuLcFl9tsG0PtiW5StGRu3XbMUXhQ","sourceTagId":80411239,"sourceTagName":"巴宝莉/女包","rawTitle":"升级版B家顶级新款收纳小水桶搭配格纹元素 更加经典休闲亮点是非常轻!空间大容易收纳 ,配有手提皮带,还有肩背皮带。\n尺寸:21.14.24  、2232"},"price":null,"currency":"CNY","moq":1,"category":"burberry-women-bags","status":"active","alibaba_url":null,"images":["https://xcimg.szwego.com/20220810/a1660108446913_3775.jpg","https://xcimg.szwego.com/20220810/a1660108446990_7008.jpg","https://xcimg.szwego.com/20220810/a1660108447070_5032.jpg","https://xcimg.szwego.com/20220810/a1660108447158_3587.jpg","https://xcimg.szwego.com/20220810/a1660108447284_5406.jpg","https://xcimg.szwego.com/20220810/a1660108447347_3832.jpg","https://xcimg.szwego.com/20220810/a1660108447447_3023.jpg","https://xcimg.szwego.com/20220810/a1660108447553_7067.jpg","https://xcimg.szwego.com/20220810/a1660108447654_5466.jpg"],"created_at":"2025-01-20T12:43:24.122Z"},{"id":"item-f027df0e8944","sku":"_dHMHMweOgXJpY6fVrIVikEoNV_99JdRpmMMBaog","name_en":"升级版B家格子料皮革钱夹,随附链饰皮革肩背带。本品可作为小型手袋单独使用,或作为钱夹收置于日常手袋内。专柜品质、做工精细实物拍摄,黑色格子尺寸21cm*12cm*3cm、8687","name_cn":"升级版B家格子料皮革钱夹,随附链饰皮革肩背带。本品可作为小型手袋单独使用,或作为钱夹收置于日常手袋内。专柜品质、做工精细实物拍摄,黑色格子尺寸21cm*12cm*3cm、8687","specs":{"source":"wsxcme","sourceId":"_dHMHMweOgXJpY6fVrIVikEoNV_99JdRpmMMBaog","sourceTagId":80411239,"sourceTagName":"巴宝莉/女包","rawTitle":"升级版B家格子料皮革钱夹,随附链饰皮革肩背带。本品可作为小型手袋单独使用,或作为钱夹收置于日常手袋内。专柜品质、做工精细实物拍摄,黑色格子尺寸21cm*12cm*3cm、8687"},"price":null,"currency":"CNY","moq":1,"category":"burberry-women-bags","status":"active","alibaba_url":null,"images":["https://xcimg.szwego.com/o_1fu901hb98i3m9n1pa5frv1ld517.jpg","https://xcimg.szwego.com/o_1fu901hb9i9uigf10mujum34418.jpg","https://xcimg.szwego.com/o_1fu901hb91k3upuk10nb16t51gre19.jpg","https://xcimg.szwego.com/o_1fu901hb918gobci135a1pmg107k1a.jpg","https://xcimg.szwego.com/o_1fu901hb91alatjpj0k17ke1hk31b.jpg","https://xcimg.szwego.com/o_1fu901hb917m75251djh1t2o1hj81c.jpg","https://xcimg.szwego.com/o_1fu901hb9tcn1icehfupuiqmb1d.jpg","https://xcimg.szwego.com/o_1fu901hb9pkgvmn11lned1hgn1e.jpg"],"created_at":"2025-01-20T12:43:24.124Z"},{"id":"item-61648ab40a2f","sku":"_dpkpksFdh7JnwG9EoDSQ-q7L3Ng72xpgGVymeQg","name_en":"升级版B家格子料皮革钱夹,随附链饰皮革肩背带。本品可作为小型手袋单独使用,或作为钱夹收置于日常手袋内。专柜品质、做工精细实物拍摄,黑色格子尺寸21cm*12cm*3cm、8687","name_cn":"升级版B家格子料皮革钱夹,随附链饰皮革肩背带。本品可作为小型手袋单独使用,或作为钱夹收置于日常手袋内。专柜品质、做工精细实物拍摄,黑色格子尺寸21cm*12cm*3cm、8687","specs":{"source":"wsxcme","sourceId":"_dpkpksFdh7JnwG9EoDSQ-q7L3Ng72xpgGVymeQg","sourceTagId":80411239,"sourceTagName":"巴宝莉/女包","rawTitle":"升级版B家格子料皮革钱夹,随附链饰皮革肩背带。本品可作为小型手袋单独使用,或作为钱夹收置于日常手袋内。专柜品质、做工精细实物拍摄,黑色格子尺寸21cm*12cm*3cm、8687"},"price":null,"currency":"CNY","moq":1,"category":"burberry-women-bags","status":"active","alibaba_url":null,"images":["https://xcimg.szwego.com/o_1fu902olvip51uh91jrkscbi2945.jpg","https://xcimg.szwego.com/o_1fu902olvplt1rbh7cjse4s46.jpg","https://xcimg.szwego.com/o_1fu902olvs751prtb0t92lor47.jpg","https://xcimg.szwego.com/o_1fu902olv8e2tgv1fal1k5714qg48.jpg","https://xcimg.szwego.com/o_1fu902olvdul16cc5lc1pie12f449.jpg","https://xcimg.szwego.com/o_1fu902olvq4j47q1kvs1p481f1s4a.jpg","https://xcimg.szwego.com/o_1fu902olv1l1d3ej121s1umpcvg4b.jpg","https://xcimg.szwego.com/o_1fu902olv1ggd1so699dk10fnv4c.jpg"],"created_at":"2025-01-20T12:43:24.125Z"},{"id":"item-54c553ecd6c7","sku":"_dqwqwtcafm15D31fyawu6V4jiG4bIbHB6PEs2Ww","name_en":"实拍图 代工厂订单来的 B家最新意大利制包款,装饰 Burberry 格纹。亮眼融入扣环束带设计,灵感源自品牌标志性 Trench 风衣","name_cn":"实拍图 代工厂订单来的 B家最新意大利制包款,装饰 Burberry 格纹。亮眼融入扣环束带设计,灵感源自品牌标志性 Trench 风衣","specs":{"source":"wsxcme","sourceId":"_dqwqwtcafm15D31fyawu6V4jiG4bIbHB6PEs2Ww","sourceTagId":80411239,"sourceTagName":"巴宝莉/女包","rawTitle":"实拍图 代工厂订单来的 B家最新意大利制包款,装饰 Burberry 格纹。亮眼融入扣环束带设计,灵感源自品牌标志性 Trench 风衣"},"price":null,"currency":"CNY","moq":1,"category":"burberry-women-bags","status":"active","alibaba_url":null,"images":["https://xcimg.szwego.com/20230629/i1688019724_8535_0.jpg","https://xcimg.szwego.com/20230629/i1688019724_1331_1.jpg","https://xcimg.szwego.com/20230629/i1688019724_4630_2.jpg","https://xcimg.szwego.com/20230629/i1688019724_3329_3.jpg","https://xcimg.szwego.com/20230629/i1688019724_6325_4.jpg","https://xcimg.szwego.com/20230629/i1688019724_540_5.jpg","https://xcimg.szwego.com/20230629/i1688019724_7015_6.jpg","https://xcimg.szwego.com/20230629/i1688019724_6664_7.jpg","https://xcimg.szwego.com/20230629/i1688019724_9681_8.jpg"],"created_at":"2025-01-20T12:46:12.815Z"},{"id":"item-616c1fcb44d2","sku":"_duSuSImMMqTI_0nZUs0s8qoguaHV6CAOZrI5PzA","name_en":"哇哇哇哇哇👍超多隔层 新款格纹军旅背包来咯✌🏻 搭配B字型拉链头 侧边各有一个收紧口袋 方便放水瓶✔️包身设有4个外口袋😘 内有两个隔层❤哇... 容纳着莘莘学子们知识的课本,最主要是能归类分开装👍方便👍文件或笔记本电脑,统统给容纳上👍提手也设计的特别好 拎多重都不勒手 手柄垫有舒适的高雅胶棉","name_cn":"哇哇哇哇哇👍超多隔层 新款格纹军旅背包来咯✌🏻 搭配B字型拉链头 侧边各有一个收紧口袋 方便放水瓶✔️包身设有4个外口袋😘 内有两个隔层❤哇... 容纳着莘莘学子们知识的课本,最主要是能归类分开装👍方便👍文件或笔记本电脑,统统给容纳上👍提手也设计的特别好 拎多重都不勒手 手柄垫有舒适的高雅胶棉\n材料:%意大利进口纯棉/进口小牛皮!\n学子们必备款👍出差旅游必备款👍日常工作必备款👍尺寸31✕16✕46cm","specs":{"source":"wsxcme","sourceId":"_duSuSImMMqTI_0nZUs0s8qoguaHV6CAOZrI5PzA","sourceTagId":80411239,"sourceTagName":"巴宝莉/女包","rawTitle":"哇哇哇哇哇👍超多隔层 新款格纹军旅背包来咯✌🏻 搭配B字型拉链头 侧边各有一个收紧口袋 方便放水瓶✔️包身设有4个外口袋😘 内有两个隔层❤哇... 容纳着莘莘学子们知识的课本,最主要是能归类分开装👍方便👍文件或笔记本电脑,统统给容纳上👍提手也设计的特别好 拎多重都不勒手 手柄垫有舒适的高雅胶棉\n材料:%意大利进口纯棉/进口小牛皮!\n学子们必备款👍出差旅游必备款👍日常工作必备款👍尺寸31✕16✕46cm"},"price":null,"currency":"CNY","moq":1,"category":"burberry-women-bags","status":"active","alibaba_url":null,"images":["https://xcimg.szwego.com/img/d5e7a5ce/20241001/a1727763269138_0254.jpg","https://xcimg.szwego.com/img/d5e7a5ce/20241001/a1727763269137_6808.jpg","https://xcimg.szwego.com/img/d5e7a5ce/20241001/a1727763269118_5162.jpg","https://xcimg.szwego.com/img/d5e7a5ce/20241001/a1727763269138_5555.jpg","https://xcimg.szwego.com/img/d5e7a5ce/20241001/a1727763269139_6870.jpg","https://xcimg.szwego.com/img/d5e7a5ce/20241001/a1727763269141_7443.jpg","https://xcimg.szwego.com/img/d5e7a5ce/20241001/a1727763270046_8005.jpg","https://xcimg.szwego.com/img/d5e7a5ce/20241001/a1727763270038_8412.jpg","https://xcimg.szwego.com/img/d5e7a5ce/20241001/a1727763270042_4710.jpg"],"created_at":"2025-01-20T12:43:24.104Z"},{"id":"item-41d5f26c341d","sku":"_ddbdbiDirt7L1ruE-k4o5ZGhI_2_GS__D3f3qQQ","name_en":"哇哇哇哇哇👍超多隔层 新款格纹军旅背包来咯✌🏻 搭配B字型拉链头 侧边各有一个收紧口袋 方便放水瓶✔️包身设有4个外口袋😘 内有两个隔层❤哇... 容纳着莘莘学子们知识的课本,最主要是能归类分开装👍方便👍文件或笔记本电脑,统统给容纳上👍提手也设计的特别好 拎多重都不勒手 手柄垫有舒适的高雅胶棉","name_cn":"哇哇哇哇哇👍超多隔层 新款格纹军旅背包来咯✌🏻 搭配B字型拉链头 侧边各有一个收紧口袋 方便放水瓶✔️包身设有4个外口袋😘 内有两个隔层❤哇... 容纳着莘莘学子们知识的课本,最主要是能归类分开装👍方便👍文件或笔记本电脑,统统给容纳上👍提手也设计的特别好 拎多重都不勒手 手柄垫有舒适的高雅胶棉\n材料:%意大利进口纯棉/进口小牛皮!\n学子们必备款👍出差旅游必备款👍日常工作必备款👍尺寸31✕16✕46cm","specs":{"source":"wsxcme","sourceId":"_ddbdbiDirt7L1ruE-k4o5ZGhI_2_GS__D3f3qQQ","sourceTagId":80411239,"sourceTagName":"巴宝莉/女包","rawTitle":"哇哇哇哇哇👍超多隔层 新款格纹军旅背包来咯✌🏻 搭配B字型拉链头 侧边各有一个收紧口袋 方便放水瓶✔️包身设有4个外口袋😘 内有两个隔层❤哇... 容纳着莘莘学子们知识的课本,最主要是能归类分开装👍方便👍文件或笔记本电脑,统统给容纳上👍提手也设计的特别好 拎多重都不勒手 手柄垫有舒适的高雅胶棉\n材料:%意大利进口纯棉/进口小牛皮!\n学子们必备款👍出差旅游必备款👍日常工作必备款👍尺寸31✕16✕46cm"},"price":null,"currency":"CNY","moq":1,"category":"burberry-women-bags","status":"active","alibaba_url":null,"images":["https://xcimg.szwego.com/img/d5e7a5ce/20241001/a1727763207712_2125.jpg","https://xcimg.szwego.com/img/d5e7a5ce/20241001/a1727763207697_7806.jpg","https://xcimg.szwego.com/img/d5e7a5ce/20241001/a1727763207714_0201.jpg","https://xcimg.szwego.com/img/d5e7a5ce/20241001/a1727763207710_2350.jpg","https://xcimg.szwego.com/img/d5e7a5ce/20241001/a1727763207704_3065.jpg","https://xcimg.szwego.com/img/d5e7a5ce/20241001/a1727763207714_3172.jpg","https://xcimg.szwego.com/img/d5e7a5ce/20241001/a1727763208859_8224.jpg","https://xcimg.szwego.com/img/d5e7a5ce/20241001/a1727763208860_0051.jpg","https://xcimg.szwego.com/img/d5e7a5ce/20241001/a1727763208862_4052.jpg"],"created_at":"2025-01-20T12:43:24.103Z"},{"id":"item-a024337b294d","sku":"_du1u1YT_seWK1jj9_URoREQDOhrP4gxDBWaSN-A","name_en":"先看黑色平铺细节,依然是独家操作的款,B家渠道放心入,可以随意进出专柜的,材质手感柔软舒适,自重很轻,肩带可调节,B家专属的衔缝格纹,#smhaaaa","name_cn":"先看黑色平铺细节,依然是独家操作的款,B家渠道放心入,可以随意进出专柜的,材质手感柔软舒适,自重很轻,肩带可调节,B家专属的衔缝格纹,#smhaaaa","specs":{"source":"wsxcme","sourceId":"_du1u1YT_seWK1jj9_URoREQDOhrP4gxDBWaSN-A","sourceTagId":80411239,"sourceTagName":"巴宝莉/女包","rawTitle":"先看黑色平铺细节,依然是独家操作的款,B家渠道放心入,可以随意进出专柜的,材质手感柔软舒适,自重很轻,肩带可调节,B家专属的衔缝格纹,#smhaaaa"},"price":null,"currency":"CNY","moq":1,"category":"burberry-women-bags","status":"active","alibaba_url":null,"images":["https://xcimg.szwego.com/20220802/i1659433751_1512_0.jpg","https://xcimg.szwego.com/20220802/i1659433751_1135_1.jpg","https://xcimg.szwego.com/20220802/i1659433751_1064_2.jpg","https://xcimg.szwego.com/20220802/i1659433751_3134_3.jpg","https://xcimg.szwego.com/20220802/i1659433751_103_4.jpg"],"created_at":"2025-01-20T12:46:12.742Z"}],"page":13,"pageSize":24,"total":493,"totalPages":21}
