{"items":[{"id":"item-ce9efdc48e55","sku":"_doeoeGA6s1ZCs_QE1c_CAgD3GMEPTatxmCG_I1w","name_en":"B家格纹挎包配上宽肩带","name_cn":"B家格纹挎包配上宽肩带 \n实用性超绝,日常通勤、逛街出行,所需物品都能轻松装下","specs":{"source":"wsxcme","sourceId":"_doeoeGA6s1ZCs_QE1c_CAgD3GMEPTatxmCG_I1w","sourceTagId":80411239,"sourceTagName":"巴宝莉/女包","rawTitle":"B家格纹挎包配上宽肩带 \n实用性超绝,日常通勤、逛街出行,所需物品都能轻松装下"},"price":null,"currency":"CNY","moq":1,"category":"burberry-women-bags","status":"active","alibaba_url":null,"images":["https://xcimg.szwego.com/img/d5e7a5ce/20251105/a1762314091676_5503.jpg","https://xcimg.szwego.com/img/d5e7a5ce/20251105/a1762314091674_4177.jpg","https://xcimg.szwego.com/img/d5e7a5ce/20251105/a1762314091676_0061.jpg","https://xcimg.szwego.com/img/d5e7a5ce/20251105/a1762314091678_1384.jpg","https://xcimg.szwego.com/img/d5e7a5ce/20251105/a1762314091678_0110.jpg","https://xcimg.szwego.com/img/d5e7a5ce/20251105/a1762314091679_7145.jpg","https://xcimg.szwego.com/img/d5e7a5ce/20251105/a1762314092311_7814.jpg"],"created_at":"2026-06-29T10:27:58.952Z"},{"id":"item-00c75145b90d","sku":"_dvivigGIhuZE7nhxr6zGXWlhbChwnfoDzcpqPGQ","name_en":"B家格纹挎包配上宽肩带","name_cn":"B家格纹挎包配上宽肩带 \n实用性超绝,日常通勤、逛街出行,所需物品都能轻松装下","specs":{"source":"wsxcme","sourceId":"_dvivigGIhuZE7nhxr6zGXWlhbChwnfoDzcpqPGQ","sourceTagId":80411239,"sourceTagName":"巴宝莉/女包","rawTitle":"B家格纹挎包配上宽肩带 \n实用性超绝,日常通勤、逛街出行,所需物品都能轻松装下"},"price":null,"currency":"CNY","moq":1,"category":"burberry-women-bags","status":"active","alibaba_url":null,"images":["https://xcimg.szwego.com/img/d5e7a5ce/20251105/a1762313811909_8134.jpg","https://xcimg.szwego.com/img/d5e7a5ce/20251105/a1762313811945_8210.jpg","https://xcimg.szwego.com/img/d5e7a5ce/20251105/a1762313811913_4830.jpg","https://xcimg.szwego.com/img/d5e7a5ce/20251105/a1762313811912_0751.jpg","https://xcimg.szwego.com/img/d5e7a5ce/20251105/a1762313811915_5178.jpg","https://xcimg.szwego.com/img/d5e7a5ce/20251105/a1762313811915_8200.jpg","https://xcimg.szwego.com/img/d5e7a5ce/20251105/a1762313812566_3163.jpg","https://xcimg.szwego.com/img/d5e7a5ce/20251105/a1762313812605_8005.jpg","https://xcimg.szwego.com/img/d5e7a5ce/20251105/a1762313812566_1630.jpg"],"created_at":"2026-06-29T10:27:58.932Z"},{"id":"item-423d10435c1b","sku":"_daNaN6Pc3qh38mJssxo7ZEIapZJlfzVktkA_dwQ","name_en":"B家格子迷你棕色水桶包上新","name_cn":"B家格子迷你棕色水桶包上新\n新一季的这款格子棕色水桶包,采用环保更容易打理的材质🌟轻型耐用,容量又大,自带肩带,高度推荐色!","specs":{"source":"wsxcme","sourceId":"_daNaN6Pc3qh38mJssxo7ZEIapZJlfzVktkA_dwQ","sourceTagId":80411239,"sourceTagName":"巴宝莉/女包","rawTitle":"B家格子迷你棕色水桶包上新\n新一季的这款格子棕色水桶包,采用环保更容易打理的材质🌟轻型耐用,容量又大,自带肩带,高度推荐色!"},"price":null,"currency":"CNY","moq":1,"category":"burberry-women-bags","status":"active","alibaba_url":null,"images":["https://xcimg.szwego.com/img/14bb1ccb/20231120/i1700462671_4669_8.jpg","https://xcimg.szwego.com/img/14bb1ccb/20231120/i1700462671_9203_0.jpg","https://xcimg.szwego.com/img/14bb1ccb/20231120/i1700462671_8979_7.jpg","https://xcimg.szwego.com/img/14bb1ccb/20231120/i1700462671_2046_6.jpg","https://xcimg.szwego.com/img/14bb1ccb/20231120/i1700462671_8840_1.jpg","https://xcimg.szwego.com/img/14bb1ccb/20231120/i1700462671_6325_4.jpg","https://xcimg.szwego.com/img/14bb1ccb/20231120/i1700462671_5122_5.jpg","https://xcimg.szwego.com/img/14bb1ccb/20231120/i1700462671_8812_2.jpg","https://xcimg.szwego.com/img/14bb1ccb/20231120/i1700462671_1964_3.jpg"],"created_at":"2025-01-20T12:46:12.776Z"},{"id":"item-3461f0f9780a","sku":"_dFxFx70etLtWJBsK_L_gCu8IzevnNdzy-w9tUrg","name_en":"B家精巧的斜背包,选用粒纹皮革与 Vintage 复古格纹打造,设有徽标镌刻按扣。搭配可拆式背带,点缀提花精纺的品牌徽标。随心变换为肩背包或手拿包造型。尺寸:W25 x H18 x D8.5cm","name_cn":"B家精巧的斜背包,选用粒纹皮革与 Vintage 复古格纹打造,设有徽标镌刻按扣。搭配可拆式背带,点缀提花精纺的品牌徽标。随心变换为肩背包或手拿包造型。尺寸:W25 x H18 x D8.5cm","specs":{"source":"wsxcme","sourceId":"_dFxFx70etLtWJBsK_L_gCu8IzevnNdzy-w9tUrg","sourceTagId":80411239,"sourceTagName":"巴宝莉/女包","rawTitle":"B家精巧的斜背包,选用粒纹皮革与 Vintage 复古格纹打造,设有徽标镌刻按扣。搭配可拆式背带,点缀提花精纺的品牌徽标。随心变换为肩背包或手拿包造型。尺寸:W25 x H18 x D8.5cm"},"price":null,"currency":"CNY","moq":1,"category":"burberry-women-bags","status":"active","alibaba_url":null,"images":["https://xcimg.szwego.com/img/f65960ba/20240831/a1725075538836_1275.jpg","https://xcimg.szwego.com/img/f65960ba/20240831/a1725075538984_8253.jpg","https://xcimg.szwego.com/img/f65960ba/20240831/a1725075538879_0368.jpg","https://xcimg.szwego.com/img/f65960ba/20240831/a1725075538988_8437.jpg","https://xcimg.szwego.com/img/f65960ba/20240831/a1725075539081_6120.jpg","https://xcimg.szwego.com/img/f65960ba/20240831/a1725075538951_3084.jpg","https://xcimg.szwego.com/img/f65960ba/20240831/a1725075539748_2717.jpg","https://xcimg.szwego.com/img/f65960ba/20240831/a1725075539832_6865.jpg","https://xcimg.szwego.com/img/f65960ba/20240831/a1725075539749_3350.jpg"],"created_at":"2025-01-20T12:43:24.107Z"},{"id":"item-a75195d95197","sku":"_dqeqeJ1d6CC5L_rJ6ydqkZwtRFbx4eBArmTS1qA","name_en":"B家精制托特包,版型精巧,选用格纹及缉明线皮革材质打造。可使用顶部提柄手拎,或使用可调式斜背带携带。此件精品的主要材料中至少 30% 来自生物基材料。生物基材料主要来源于植物和蓖麻油等可再生自然资源。23 x 8 x 19cm顶部皮革提柄.可调式斜背带.1个磁扣开合翻盖外袋;1个内侧插袋.按扣开合.手绘涂漆边缘.光泽金属配件.行李吊牌","name_cn":"B家精制托特包,版型精巧,选用格纹及缉明线皮革材质打造。可使用顶部提柄手拎,或使用可调式斜背带携带。此件精品的主要材料中至少 30% 来自生物基材料。生物基材料主要来源于植物和蓖麻油等可再生自然资源。23 x 8 x 19cm顶部皮革提柄.可调式斜背带.1个磁扣开合翻盖外袋;1个内侧插袋.按扣开合.手绘涂漆边缘.光泽金属配件.行李吊牌","specs":{"source":"wsxcme","sourceId":"_dqeqeJ1d6CC5L_rJ6ydqkZwtRFbx4eBArmTS1qA","sourceTagId":80411239,"sourceTagName":"巴宝莉/女包","rawTitle":"B家精制托特包,版型精巧,选用格纹及缉明线皮革材质打造。可使用顶部提柄手拎,或使用可调式斜背带携带。此件精品的主要材料中至少 30% 来自生物基材料。生物基材料主要来源于植物和蓖麻油等可再生自然资源。23 x 8 x 19cm顶部皮革提柄.可调式斜背带.1个磁扣开合翻盖外袋;1个内侧插袋.按扣开合.手绘涂漆边缘.光泽金属配件.行李吊牌"},"price":null,"currency":"CNY","moq":1,"category":"burberry-women-bags","status":"active","alibaba_url":null,"images":["https://xcimg.szwego.com/20220428/i1651128723_7145_0.jpg","https://xcimg.szwego.com/20220428/i1651128723_7467_1.jpg","https://xcimg.szwego.com/20220428/i1651128723_6503_2.jpg","https://xcimg.szwego.com/20220428/i1651128723_9906_3.jpg","https://xcimg.szwego.com/20220428/i1651128723_2858_4.jpg","https://xcimg.szwego.com/20220428/i1651128723_4789_5.jpg","https://xcimg.szwego.com/20220428/i1651128723_4005_6.jpg","https://xcimg.szwego.com/20220428/i1651128723_3716_7.jpg","https://xcimg.szwego.com/20220428/i1651128723_1123_8.jpg"],"created_at":"2026-06-29T10:27:59.042Z"},{"id":"item-e81b168a0a8a","sku":"_dgSgSxq1KciALVMJeoMsLwbQ9u4YE8H3fVGngJA","name_en":"B家迷你格纹水桶包,选用涂层棉质混纺面料打造。于意利工坊精制而成,装饰 Bur 格纹印花。包型柔软立挺,内衬为棉质面料。搭配抽绳开合,融入皮革盾牌栓扣设计。可使用顶部提柄手拎,或以可拆式肩背带缔造斜背造型。顶部皮革提柄.可拆可调式皮革斜背带.抽绳开合.手绘涂漆边缘. 光泽金属配件.棉质内衬.尺寸16.5 x 11 x 18.5cm","name_cn":"B家迷你格纹水桶包,选用涂层棉质混纺面料打造。于意利工坊精制而成,装饰 Bur 格纹印花。包型柔软立挺,内衬为棉质面料。搭配抽绳开合,融入皮革盾牌栓扣设计。可使用顶部提柄手拎,或以可拆式肩背带缔造斜背造型。顶部皮革提柄.可拆可调式皮革斜背带.抽绳开合.手绘涂漆边缘. 光泽金属配件.棉质内衬.尺寸16.5 x 11 x 18.5cm","specs":{"source":"wsxcme","sourceId":"_dgSgSxq1KciALVMJeoMsLwbQ9u4YE8H3fVGngJA","sourceTagId":80411239,"sourceTagName":"巴宝莉/女包","dimensions":{"lengthCm":16.5,"heightCm":11,"widthCm":18.5},"rawTitle":"B家迷你格纹水桶包,选用涂层棉质混纺面料打造。于意利工坊精制而成,装饰 Bur 格纹印花。包型柔软立挺,内衬为棉质面料。搭配抽绳开合,融入皮革盾牌栓扣设计。可使用顶部提柄手拎,或以可拆式肩背带缔造斜背造型。顶部皮革提柄.可拆可调式皮革斜背带.抽绳开合.手绘涂漆边缘. 光泽金属配件.棉质内衬.尺寸16.5 x 11 x 18.5cm"},"price":null,"currency":"CNY","moq":1,"category":"burberry-women-bags","status":"active","alibaba_url":null,"images":["https://xcimg.szwego.com/img/f65960ba/20240830/a1725010167053_1353.jpg","https://xcimg.szwego.com/img/f65960ba/20240830/a1725010166915_6538.jpg","https://xcimg.szwego.com/img/f65960ba/20240830/a1725010166867_0501.jpg","https://xcimg.szwego.com/img/f65960ba/20240830/a1725010167029_1343.jpg","https://xcimg.szwego.com/img/f65960ba/20240830/a1725010167102_8675.jpg","https://xcimg.szwego.com/img/f65960ba/20240830/a1725010167056_8764.jpg","https://xcimg.szwego.com/img/f65960ba/20240830/a1725010167839_1346.jpg","https://xcimg.szwego.com/img/f65960ba/20240830/a1725010167807_6632.jpg","https://xcimg.szwego.com/img/f65960ba/20240830/a1725010167819_4241.jpg"],"created_at":"2025-01-20T12:43:24.108Z"},{"id":"item-3960e4b56fba","sku":"_dGiGiMEZTavrkfKGQlqncR1sOC8tXUNN81EFkoA","name_en":"B家手提包斜挎包,经典棉质格纹帆布拼牛皮,袋口拉链设计,两侧可收拢展开,多种背法,上身效果超赞,尺寸:21/20/13,","name_cn":"B家手提包斜挎包,经典棉质格纹帆布拼牛皮,袋口拉链设计,两侧可收拢展开,多种背法,上身效果超赞,尺寸:21/20/13,","specs":{"source":"wsxcme","sourceId":"_dGiGiMEZTavrkfKGQlqncR1sOC8tXUNN81EFkoA","sourceTagId":80411239,"sourceTagName":"巴宝莉/女包","rawTitle":"B家手提包斜挎包,经典棉质格纹帆布拼牛皮,袋口拉链设计,两侧可收拢展开,多种背法,上身效果超赞,尺寸:21/20/13,"},"price":null,"currency":"CNY","moq":1,"category":"burberry-women-bags","status":"active","alibaba_url":null,"images":["https://xcimg.szwego.com/img/d5e7a5ce/20251114/a1763099088168_8887.jpg","https://xcimg.szwego.com/img/d5e7a5ce/20251114/a1763099088191_4861.jpg","https://xcimg.szwego.com/img/d5e7a5ce/20251114/a1763099088192_7328.jpg","https://xcimg.szwego.com/img/d5e7a5ce/20251114/a1763099088194_0475.jpg","https://xcimg.szwego.com/img/d5e7a5ce/20251114/a1763099088194_6140.jpg","https://xcimg.szwego.com/img/d5e7a5ce/20251114/a1763099088195_6185.jpg","https://xcimg.szwego.com/img/d5e7a5ce/20251114/a1763099088691_8676.jpg","https://xcimg.szwego.com/img/d5e7a5ce/20251114/a1763099088689_7754.jpg","https://xcimg.szwego.com/img/d5e7a5ce/20251114/a1763099088690_5828.jpg"],"created_at":"2026-06-29T10:27:58.562Z"},{"id":"item-980e37eb2f33","sku":"_dvmvmwkErRMI7uqB6RttG9GdMWqXlLAtYiR9cjg","name_en":"B家手提包斜挎包,经典棉质格纹帆布拼牛皮,袋口拉链设计,两侧可收拢展开,多种背法,棕色 黑色 杏色","name_cn":"B家手提包斜挎包,经典棉质格纹帆布拼牛皮,袋口拉链设计,两侧可收拢展开,多种背法,棕色 黑色 杏色","specs":{"source":"wsxcme","sourceId":"_dvmvmwkErRMI7uqB6RttG9GdMWqXlLAtYiR9cjg","sourceTagId":80411239,"sourceTagName":"巴宝莉/女包","rawTitle":"B家手提包斜挎包,经典棉质格纹帆布拼牛皮,袋口拉链设计,两侧可收拢展开,多种背法,棕色 黑色 杏色"},"price":null,"currency":"CNY","moq":1,"category":"burberry-women-bags","status":"active","alibaba_url":null,"images":["https://xcimg.szwego.com/img/d5e7a5ce/20251114/a1763099099407_1805.jpg","https://xcimg.szwego.com/img/d5e7a5ce/20251114/a1763099099418_1034.jpg","https://xcimg.szwego.com/img/d5e7a5ce/20251114/a1763099099418_7316.jpg","https://xcimg.szwego.com/img/d5e7a5ce/20251114/a1763099099419_5574.jpg","https://xcimg.szwego.com/img/d5e7a5ce/20251114/a1763099099419_0807.jpg","https://xcimg.szwego.com/img/d5e7a5ce/20251114/a1763099099420_4422.jpg","https://xcimg.szwego.com/img/d5e7a5ce/20251114/a1763099099932_0667.jpg","https://xcimg.szwego.com/img/d5e7a5ce/20251114/a1763099099928_2206.jpg","https://xcimg.szwego.com/img/d5e7a5ce/20251114/a1763099099931_3164.jpg"],"created_at":"2026-06-29T10:27:58.572Z"},{"id":"item-ce89da89e44a","sku":"_djqjq8zHICyQJHATEElO7F1JpLkW_sul0XINLIw","name_en":"B家最新抽绳水桶包🍀选用棉质斜纹面料打造 采用无内衬设计 质地轻盈 融入光滑小牛皮饰边 搭配可调式皮革肩背带,随心切换肩背包和斜背包造型。来自burberry 经典之作系列,以鲜明品牌风格诠释衣橱必备 尺寸27.5x 16x 29cm","name_cn":"B家最新抽绳水桶包🍀选用棉质斜纹面料打造 采用无内衬设计 质地轻盈 融入光滑小牛皮饰边 搭配可调式皮革肩背带,随心切换肩背包和斜背包造型。来自burberry 经典之作系列,以鲜明品牌风格诠释衣橱必备 尺寸27.5x 16x 29cm","specs":{"source":"wsxcme","sourceId":"_djqjq8zHICyQJHATEElO7F1JpLkW_sul0XINLIw","sourceTagId":80411239,"sourceTagName":"巴宝莉/女包","dimensions":{"lengthCm":27.5,"heightCm":16,"widthCm":29},"rawTitle":"B家最新抽绳水桶包🍀选用棉质斜纹面料打造 采用无内衬设计 质地轻盈 融入光滑小牛皮饰边 搭配可调式皮革肩背带,随心切换肩背包和斜背包造型。来自burberry 经典之作系列,以鲜明品牌风格诠释衣橱必备 尺寸27.5x 16x 29cm"},"price":null,"currency":"CNY","moq":1,"category":"burberry-women-bags","status":"active","alibaba_url":null,"images":["https://xcimg.szwego.com/img/bb2ba1a9/20240927/i1727381481_1320_1.jpg","https://xcimg.szwego.com/img/bb2ba1a9/20240927/i1727381481_3634_5.jpg","https://xcimg.szwego.com/img/bb2ba1a9/20240927/i1727381481_5036_7.jpg","https://xcimg.szwego.com/img/bb2ba1a9/20240927/i1727381481_9726_4.jpg","https://xcimg.szwego.com/img/bb2ba1a9/20240927/i1727381481_2098_2.jpg","https://xcimg.szwego.com/img/bb2ba1a9/20240927/i1727381481_5597_6.jpg","https://xcimg.szwego.com/img/bb2ba1a9/20240927/i1727381481_9652_0.jpg","https://xcimg.szwego.com/img/bb2ba1a9/20240927/i1727381481_1255_3.jpg","https://xcimg.szwego.com/img/bb2ba1a9/20240927/i1727381481_8622_8.jpg"],"created_at":"2025-01-20T12:43:24.117Z"},{"id":"item-b8877e3a4321","sku":"_dwFwFk5AsbXOxyNZuSGVwmb_80jVG06yaNtco6w","name_en":"B家最新抽绳水桶包🍀选用棉质斜纹面料打造 采用无内衬设计 质地轻盈 融入光滑小牛皮饰边 搭配可调式皮革肩背带,随心切换肩背包和斜背包造型。来自burberry 经典之作系列,以鲜明品牌风格诠释衣橱必备 尺寸27.5x 16x 29cm","name_cn":"B家最新抽绳水桶包🍀选用棉质斜纹面料打造 采用无内衬设计 质地轻盈 融入光滑小牛皮饰边 搭配可调式皮革肩背带,随心切换肩背包和斜背包造型。来自burberry 经典之作系列,以鲜明品牌风格诠释衣橱必备 尺寸27.5x 16x 29cm","specs":{"source":"wsxcme","sourceId":"_dwFwFk5AsbXOxyNZuSGVwmb_80jVG06yaNtco6w","sourceTagId":80411239,"sourceTagName":"巴宝莉/女包","dimensions":{"lengthCm":27.5,"heightCm":16,"widthCm":29},"rawTitle":"B家最新抽绳水桶包🍀选用棉质斜纹面料打造 采用无内衬设计 质地轻盈 融入光滑小牛皮饰边 搭配可调式皮革肩背带,随心切换肩背包和斜背包造型。来自burberry 经典之作系列,以鲜明品牌风格诠释衣橱必备 尺寸27.5x 16x 29cm"},"price":null,"currency":"CNY","moq":1,"category":"burberry-women-bags","status":"active","alibaba_url":null,"images":["https://xcimg.szwego.com/img/bb2ba1a9/20240927/i1727381427_9910_8.jpg","https://xcimg.szwego.com/img/bb2ba1a9/20240927/i1727381427_4197_2.jpg","https://xcimg.szwego.com/img/bb2ba1a9/20240927/i1727381427_9741_1.jpg","https://xcimg.szwego.com/img/bb2ba1a9/20240927/i1727381427_4713_5.jpg","https://xcimg.szwego.com/img/bb2ba1a9/20240927/i1727381427_6884_3.jpg","https://xcimg.szwego.com/img/bb2ba1a9/20240927/i1727381427_2743_6.jpg","https://xcimg.szwego.com/img/bb2ba1a9/20240927/i1727381427_1418_0.jpg","https://xcimg.szwego.com/img/bb2ba1a9/20240927/i1727381427_2559_7.jpg","https://xcimg.szwego.com/img/bb2ba1a9/20240927/i1727381427_1247_4.jpg"],"created_at":"2025-01-20T12:43:24.118Z"},{"id":"item-e2c775c8b250","sku":"_dG7G7amhKlcyX2oCahnYXeUvp_sHZiv_Cv6m84A","name_en":"B家最新抽绳水桶包🍀选用棉质斜纹面料打造 采用无内衬设计 质地轻盈 融入光滑小牛皮饰边 搭配可调式皮革肩背带,随心切换肩背包和斜背包造型。来自Burberry 经典之作系列,以鲜明品牌风格诠释衣橱必备 尺寸27.5x 16x 29cm","name_cn":"B家最新抽绳水桶包🍀选用棉质斜纹面料打造 采用无内衬设计 质地轻盈 融入光滑小牛皮饰边 搭配可调式皮革肩背带,随心切换肩背包和斜背包造型。来自Burberry 经典之作系列,以鲜明品牌风格诠释衣橱必备 尺寸27.5x 16x 29cm\n1682、","specs":{"source":"wsxcme","sourceId":"_dG7G7amhKlcyX2oCahnYXeUvp_sHZiv_Cv6m84A","sourceTagId":80411239,"sourceTagName":"巴宝莉/女包","dimensions":{"lengthCm":27.5,"heightCm":16,"widthCm":29},"rawTitle":"B家最新抽绳水桶包🍀选用棉质斜纹面料打造 采用无内衬设计 质地轻盈 融入光滑小牛皮饰边 搭配可调式皮革肩背带,随心切换肩背包和斜背包造型。来自Burberry 经典之作系列,以鲜明品牌风格诠释衣橱必备 尺寸27.5x 16x 29cm\n1682、"},"price":null,"currency":"CNY","moq":1,"category":"burberry-women-bags","status":"active","alibaba_url":null,"images":["https://xcimg.szwego.com/img/f65960ba/20240910/a1725936549934_1148.jpg","https://xcimg.szwego.com/img/f65960ba/20240910/a1725936549857_7522.jpg","https://xcimg.szwego.com/img/f65960ba/20240910/a1725936549855_7867.jpg","https://xcimg.szwego.com/img/f65960ba/20240910/a1725936549856_3613.jpg","https://xcimg.szwego.com/img/f65960ba/20240910/a1725936550218_1135.jpg","https://xcimg.szwego.com/img/f65960ba/20240910/a1725936550057_7507.jpg","https://xcimg.szwego.com/img/f65960ba/20240910/a1725936551007_5177.jpg","https://xcimg.szwego.com/img/f65960ba/20240910/a1725936551052_5627.jpg","https://xcimg.szwego.com/img/f65960ba/20240910/a1725936550983_8810.jpg"],"created_at":"2025-01-20T12:43:24.121Z"},{"id":"item-36e50e5a4db6","sku":"_doZoZtKzJkSAD7vmJcc4sME-aHKynd6byuPJlpQ","name_en":"B家最新小桶包,选用棉质斜纹面料打造。于意大利工坊","name_cn":"B家最新小桶包,选用棉质斜纹面料打造。于意大利工坊\n匠制而成,装饰精纺 B家专用格纹。采用无内衬设计,质地轻盈。融入光滑小牛皮饰边,搭配可调式肩背帯,随心切換肩背包和斜背包造型。必备款式。尺寸17.5 x 10.5 x 20cm.","specs":{"source":"wsxcme","sourceId":"_doZoZtKzJkSAD7vmJcc4sME-aHKynd6byuPJlpQ","sourceTagId":80411239,"sourceTagName":"巴宝莉/女包","dimensions":{"lengthCm":17.5,"heightCm":10.5,"widthCm":20},"rawTitle":"B家最新小桶包,选用棉质斜纹面料打造。于意大利工坊\n匠制而成,装饰精纺 B家专用格纹。采用无内衬设计,质地轻盈。融入光滑小牛皮饰边,搭配可调式肩背帯,随心切換肩背包和斜背包造型。必备款式。尺寸17.5 x 10.5 x 20cm."},"price":null,"currency":"CNY","moq":1,"category":"burberry-women-bags","status":"active","alibaba_url":null,"images":["https://xcimg.szwego.com/img/b7f85c57/20240819/i1724046204_3965_8.jpg","https://xcimg.szwego.com/img/b7f85c57/20240819/i1724046204_4507_6.jpg","https://xcimg.szwego.com/img/b7f85c57/20240819/i1724046204_1250_0.jpg","https://xcimg.szwego.com/img/b7f85c57/20240819/i1724046204_981_2.jpg","https://xcimg.szwego.com/img/b7f85c57/20240819/i1724046204_1183_3.jpg","https://xcimg.szwego.com/img/b7f85c57/20240819/i1724046204_6787_5.jpg","https://xcimg.szwego.com/img/b7f85c57/20240819/i1724046204_9256_4.jpg","https://xcimg.szwego.com/img/b7f85c57/20240819/i1724046204_4047_7.jpg","https://xcimg.szwego.com/img/b7f85c57/20240819/i1724046204_2353_1.jpg"],"created_at":"2025-01-20T12:43:24.120Z"},{"id":"item-ab3948f87414","sku":"_d-g-g9ZXH4xN6S8SWSMstMvrzqrLwgxflU43jVw","name_en":"B家最新小桶包,选用棉质斜纹面料打造。于意大利工坊匠制而成,装饰精纺 b家专用格纹。采用无内衬设计,质地轻盈。融入光滑小牛皮饰边,搭配可调式肩背帯,随心切換肩背包和斜背包造型。必备款式。尺寸17.5 x 10.5 x 20cm","name_cn":"B家最新小桶包,选用棉质斜纹面料打造。于意大利工坊匠制而成,装饰精纺 b家专用格纹。采用无内衬设计,质地轻盈。融入光滑小牛皮饰边,搭配可调式肩背帯,随心切換肩背包和斜背包造型。必备款式。尺寸17.5 x 10.5 x 20cm","specs":{"source":"wsxcme","sourceId":"_d-g-g9ZXH4xN6S8SWSMstMvrzqrLwgxflU43jVw","sourceTagId":80411239,"sourceTagName":"巴宝莉/女包","dimensions":{"lengthCm":17.5,"heightCm":10.5,"widthCm":20},"rawTitle":"B家最新小桶包,选用棉质斜纹面料打造。于意大利工坊匠制而成,装饰精纺 b家专用格纹。采用无内衬设计,质地轻盈。融入光滑小牛皮饰边,搭配可调式肩背帯,随心切換肩背包和斜背包造型。必备款式。尺寸17.5 x 10.5 x 20cm"},"price":null,"currency":"CNY","moq":1,"category":"burberry-women-bags","status":"active","alibaba_url":null,"images":["https://xcimg.szwego.com/img/bb2ba1a9/20240927/i1727381640_5398_0.jpg","https://xcimg.szwego.com/img/bb2ba1a9/20240927/i1727381640_368_2.jpg","https://xcimg.szwego.com/img/bb2ba1a9/20240927/i1727381641_3502_10.jpg","https://xcimg.szwego.com/img/bb2ba1a9/20240927/i1727381640_121_3.jpg","https://xcimg.szwego.com/img/bb2ba1a9/20240927/i1727381640_7257_7.jpg","https://xcimg.szwego.com/img/bb2ba1a9/20240927/i1727381641_9153_8.jpg","https://xcimg.szwego.com/img/bb2ba1a9/20240927/i1727381640_8245_6.jpg","https://xcimg.szwego.com/img/bb2ba1a9/20240927/i1727381641_223_9.jpg","https://xcimg.szwego.com/img/bb2ba1a9/20240927/i1727381640_3570_4.jpg","https://xcimg.szwego.com/img/bb2ba1a9/20240927/i1727381640_6750_5.jpg","https://xcimg.szwego.com/img/bb2ba1a9/20240927/i1727381640_3216_1.jpg"],"created_at":"2025-01-20T12:43:24.116Z"},{"id":"item-057981a1f691","sku":"_di2i2KYjSOOp6W40woihwZX6EjH8RRzEJQPh_UA","name_en":"B家最新小桶包,选用棉质斜纹面料打造。于意大利工坊匠制而成,装饰精纺 b家专用格纹。采用无内衬设计,质地轻盈。融入光滑小牛皮饰边,搭配可调式肩背帯,随心切換肩背包和斜背包造型。必备款式。尺寸17.5 x 10.5 x 20cm","name_cn":"B家最新小桶包,选用棉质斜纹面料打造。于意大利工坊匠制而成,装饰精纺 b家专用格纹。采用无内衬设计,质地轻盈。融入光滑小牛皮饰边,搭配可调式肩背帯,随心切換肩背包和斜背包造型。必备款式。尺寸17.5 x 10.5 x 20cm","specs":{"source":"wsxcme","sourceId":"_di2i2KYjSOOp6W40woihwZX6EjH8RRzEJQPh_UA","sourceTagId":80411239,"sourceTagName":"巴宝莉/女包","dimensions":{"lengthCm":17.5,"heightCm":10.5,"widthCm":20},"rawTitle":"B家最新小桶包,选用棉质斜纹面料打造。于意大利工坊匠制而成,装饰精纺 b家专用格纹。采用无内衬设计,质地轻盈。融入光滑小牛皮饰边,搭配可调式肩背帯,随心切換肩背包和斜背包造型。必备款式。尺寸17.5 x 10.5 x 20cm"},"price":null,"currency":"CNY","moq":1,"category":"burberry-women-bags","status":"active","alibaba_url":null,"images":["https://xcimg.szwego.com/img/bb2ba1a9/20240927/i1727381706_5842_2.jpg","https://xcimg.szwego.com/img/bb2ba1a9/20240927/i1727381706_571_8.jpg","https://xcimg.szwego.com/img/bb2ba1a9/20240927/i1727381706_1310_4.jpg","https://xcimg.szwego.com/img/bb2ba1a9/20240927/i1727381706_7065_7.jpg","https://xcimg.szwego.com/img/bb2ba1a9/20240927/i1727381706_7866_5.jpg","https://xcimg.szwego.com/img/bb2ba1a9/20240927/i1727381706_4334_1.jpg","https://xcimg.szwego.com/img/bb2ba1a9/20240927/i1727381706_2852_9.jpg","https://xcimg.szwego.com/img/bb2ba1a9/20240927/i1727381706_2251_6.jpg","https://xcimg.szwego.com/img/bb2ba1a9/20240927/i1727381706_139_0.jpg"],"created_at":"2025-01-20T12:43:24.115Z"},{"id":"item-72ccf393a066","sku":"_dososLFEXSEjyhE2gYozdaJGBolqtVo67LN0-xg","name_en":"B家The Banner托特 House 格纹拼牛皮班纳手袋 柔和的结构感托特包甄选粒面皮革和House Check格纹棉质面料精心制作而成 可拆式皮质肩背带,尺寸26x12x19","name_cn":"B家The Banner托特 House 格纹拼牛皮班纳手袋 柔和的结构感托特包甄选粒面皮革和House Check格纹棉质面料精心制作而成 可拆式皮质肩背带,尺寸26x12x19","specs":{"source":"wsxcme","sourceId":"_dososLFEXSEjyhE2gYozdaJGBolqtVo67LN0-xg","sourceTagId":80411239,"sourceTagName":"巴宝莉/女包","rawTitle":"B家The Banner托特 House 格纹拼牛皮班纳手袋 柔和的结构感托特包甄选粒面皮革和House Check格纹棉质面料精心制作而成 可拆式皮质肩背带,尺寸26x12x19"},"price":null,"currency":"CNY","moq":1,"category":"burberry-women-bags","status":"active","alibaba_url":null,"images":["https://xcimg.szwego.com/20220114/i1642131007_8259_0.jpg","https://xcimg.szwego.com/20220114/i1642131007_3472_1.jpg","https://xcimg.szwego.com/20220114/i1642131007_2965_2.jpg","https://xcimg.szwego.com/20220114/i1642131007_1974_3.jpg","https://xcimg.szwego.com/20220114/i1642131007_3973_4.jpg","https://xcimg.szwego.com/20220114/i1642131007_1397_5.jpg","https://xcimg.szwego.com/20220114/i1642131007_4488_6.jpg","https://xcimg.szwego.com/20220114/i1642131007_7684_7.jpg","https://xcimg.szwego.com/20220114/i1642131007_3035_8.jpg"],"created_at":"2025-01-20T12:46:12.791Z"},{"id":"item-59e123564557","sku":"_dn6n6TAicFDZJrYxqWLabOESD_zuhUUdW7vuJiQ","name_en":"B家The Banner托特 House 格纹拼牛皮班纳手袋 柔和的结构感托特包甄选粒面皮革和House Check格纹棉质面料精心制作而成 可拆式皮质肩背带,尺寸26x12x19","name_cn":"B家The Banner托特 House 格纹拼牛皮班纳手袋 柔和的结构感托特包甄选粒面皮革和House Check格纹棉质面料精心制作而成 可拆式皮质肩背带,尺寸26x12x19","specs":{"source":"wsxcme","sourceId":"_dn6n6TAicFDZJrYxqWLabOESD_zuhUUdW7vuJiQ","sourceTagId":80411239,"sourceTagName":"巴宝莉/女包","rawTitle":"B家The Banner托特 House 格纹拼牛皮班纳手袋 柔和的结构感托特包甄选粒面皮革和House Check格纹棉质面料精心制作而成 可拆式皮质肩背带,尺寸26x12x19"},"price":null,"currency":"CNY","moq":1,"category":"burberry-women-bags","status":"active","alibaba_url":null,"images":["https://xcimg.szwego.com/20220114/i1642131112_9144_0.jpg","https://xcimg.szwego.com/20220114/i1642131112_7945_1.jpg","https://xcimg.szwego.com/20220114/i1642131112_1740_2.jpg","https://xcimg.szwego.com/20220114/i1642131112_4366_3.jpg","https://xcimg.szwego.com/20220114/i1642131112_1763_4.jpg","https://xcimg.szwego.com/20220114/i1642131112_4395_5.jpg","https://xcimg.szwego.com/20220114/i1642131112_7875_6.jpg","https://xcimg.szwego.com/20220114/i1642131112_1207_7.jpg","https://xcimg.szwego.com/20220114/i1642131112_1380_8.jpg"],"created_at":"2025-01-20T12:46:12.798Z"},{"id":"item-5396754b5064","sku":"_ds8s8OIBklYrh5wepZ441-aiYyKphfYDV00aP1g","name_en":"B家The Banner托特 House 格纹拼牛皮班纳手袋 柔和的结构感托特包甄选粒面皮革和House Check格纹棉质面料精心制作而成 可拆式皮质肩背带,尺寸26x12x19","name_cn":"B家The Banner托特 House 格纹拼牛皮班纳手袋 柔和的结构感托特包甄选粒面皮革和House Check格纹棉质面料精心制作而成 可拆式皮质肩背带,尺寸26x12x19","specs":{"source":"wsxcme","sourceId":"_ds8s8OIBklYrh5wepZ441-aiYyKphfYDV00aP1g","sourceTagId":80411239,"sourceTagName":"巴宝莉/女包","rawTitle":"B家The Banner托特 House 格纹拼牛皮班纳手袋 柔和的结构感托特包甄选粒面皮革和House Check格纹棉质面料精心制作而成 可拆式皮质肩背带,尺寸26x12x19"},"price":null,"currency":"CNY","moq":1,"category":"burberry-women-bags","status":"active","alibaba_url":null,"images":["https://xcimg.szwego.com/20220817/i1660708603_1938_0.jpg","https://xcimg.szwego.com/20220817/i1660708603_9725_1.jpg","https://xcimg.szwego.com/20220817/i1660708603_5388_2.jpg","https://xcimg.szwego.com/20220817/i1660708603_9742_3.jpg","https://xcimg.szwego.com/20220817/i1660708603_2761_4.jpg","https://xcimg.szwego.com/20220817/i1660708603_1319_5.jpg","https://xcimg.szwego.com/20220817/i1660708603_5832_6.jpg","https://xcimg.szwego.com/20220817/i1660708603_9423_7.jpg","https://xcimg.szwego.com/20220817/i1660708603_3418_8.jpg"],"created_at":"2025-01-20T12:46:12.789Z"},{"id":"item-14833c8d39ef","sku":"_d8k8k2gFaRPFTWIZmlO6Wbwq1l7j8saaC-fbs1g","name_en":"B家The Banner托特 House 格纹拼牛皮班纳手袋 柔和的结构感托特包甄选粒面皮革和House Check格纹棉质面料精心制作而成 可拆式皮质肩背带,尺寸26x12x19","name_cn":"B家The Banner托特 House 格纹拼牛皮班纳手袋 柔和的结构感托特包甄选粒面皮革和House Check格纹棉质面料精心制作而成 可拆式皮质肩背带,尺寸26x12x19","specs":{"source":"wsxcme","sourceId":"_d8k8k2gFaRPFTWIZmlO6Wbwq1l7j8saaC-fbs1g","sourceTagId":80411239,"sourceTagName":"巴宝莉/女包","rawTitle":"B家The Banner托特 House 格纹拼牛皮班纳手袋 柔和的结构感托特包甄选粒面皮革和House Check格纹棉质面料精心制作而成 可拆式皮质肩背带,尺寸26x12x19"},"price":null,"currency":"CNY","moq":1,"category":"burberry-women-bags","status":"active","alibaba_url":null,"images":["https://xcimg.szwego.com/20220114/i1642131476_1091_0.jpg","https://xcimg.szwego.com/20220114/i1642131476_7954_1.jpg","https://xcimg.szwego.com/20220114/i1642131476_1393_2.jpg","https://xcimg.szwego.com/20220114/i1642131476_8847_3.jpg","https://xcimg.szwego.com/20220114/i1642131476_3840_4.jpg","https://xcimg.szwego.com/20220114/i1642131476_1210_5.jpg","https://xcimg.szwego.com/20220114/i1642131476_1641_6.jpg","https://xcimg.szwego.com/20220114/i1642131476_2819_7.jpg","https://xcimg.szwego.com/20220114/i1642131476_9742_8.jpg"],"created_at":"2025-01-20T12:46:12.790Z"},{"id":"item-10d656264eea","sku":"_dujujJ8c6jX9e-C2htgbrNB5amyG0pnH7up0r9Q","name_en":"BBR女士格纹水桶包单肩包,平纹软牛皮格子帆布,自重超轻,非常实用,细节完美精致。尺寸:25*19*13 cm","name_cn":"BBR女士格纹水桶包单肩包,平纹软牛皮格子帆布,自重超轻,非常实用,细节完美精致。尺寸:25*19*13 cm","specs":{"source":"wsxcme","sourceId":"_dujujJ8c6jX9e-C2htgbrNB5amyG0pnH7up0r9Q","sourceTagId":80411239,"sourceTagName":"巴宝莉/女包","dimensions":{"lengthCm":25,"heightCm":19,"widthCm":13},"rawTitle":"BBR女士格纹水桶包单肩包,平纹软牛皮格子帆布,自重超轻,非常实用,细节完美精致。尺寸:25*19*13 cm"},"price":null,"currency":"CNY","moq":1,"category":"burberry-women-bags","status":"active","alibaba_url":null,"images":["https://xcimg.szwego.com/img/bb2ba1a9/20240927/i1727380914_8176_7.jpg","https://xcimg.szwego.com/img/bb2ba1a9/20240927/i1727380914_1509_0.jpg","https://xcimg.szwego.com/img/bb2ba1a9/20240927/i1727380914_6259_5.jpg","https://xcimg.szwego.com/img/bb2ba1a9/20240927/i1727380914_2601_6.jpg","https://xcimg.szwego.com/img/bb2ba1a9/20240927/i1727380914_383_1.jpg","https://xcimg.szwego.com/img/bb2ba1a9/20240927/i1727380914_3428_8.jpg","https://xcimg.szwego.com/img/bb2ba1a9/20240927/i1727380914_9159_2.jpg","https://xcimg.szwego.com/img/bb2ba1a9/20240927/i1727380914_6082_3.jpg","https://xcimg.szwego.com/img/bb2ba1a9/20240927/i1727380914_7151_4.jpg"],"created_at":"2025-01-20T12:43:24.119Z"},{"id":"item-7f3ce2abb5fa","sku":"_dylylb1iSu3aCVi-mKlU-CGr2w6XJviZ2YOVVZA","name_en":"Bur迷你水桶包,软质真皮,格纹宽肩带手提斜挎两用,复古百搭,轻奢耐看。","name_cn":"Bur迷你水桶包,软质真皮,格纹宽肩带手提斜挎两用,复古百搭,轻奢耐看。","specs":{"source":"wsxcme","sourceId":"_dylylb1iSu3aCVi-mKlU-CGr2w6XJviZ2YOVVZA","sourceTagId":80411239,"sourceTagName":"巴宝莉/女包","rawTitle":"Bur迷你水桶包,软质真皮,格纹宽肩带手提斜挎两用,复古百搭,轻奢耐看。"},"price":null,"currency":"CNY","moq":1,"category":"burberry-women-bags","status":"active","alibaba_url":null,"images":["https://xcimg.szwego.com/imgHD/b7f85c57/20260521/cmp_i1779335279643_4905_0_0.jpg","https://xcimg.szwego.com/imgHD/b7f85c57/20260521/cmp_i1779335279969_5462_0_1.jpg","https://xcimg.szwego.com/imgHD/b7f85c57/20260521/cmp_i1779335279649_8066_0_2.jpg","https://xcimg.szwego.com/imgHD/b7f85c57/20260521/cmp_i1779335279608_7659_0_3.jpg","https://xcimg.szwego.com/imgHD/b7f85c57/20260521/cmp_i1779335279615_3971_0_4.jpg"],"created_at":"2026-06-29T10:29:02.719Z"},{"id":"item-fdd6fa13bd63","sku":"_dyNyNxFj9z9Ey0yiaoer5nhfH5vlsuQHJZekpkQ","name_en":"Burberry Women Bags","name_cn":"在看一下五金 特供原厂五金,真金厚电镀工艺,五金字体清晰度非常精美,更多细节补充!","specs":{"source":"wsxcme","sourceId":"_dyNyNxFj9z9Ey0yiaoer5nhfH5vlsuQHJZekpkQ","sourceTagId":80411239,"sourceTagName":"巴宝莉/女包","rawTitle":"在看一下五金 特供原厂五金,真金厚电镀工艺,五金字体清晰度非常精美,更多细节补充!"},"price":null,"currency":"CNY","moq":1,"category":"burberry-women-bags","status":"active","alibaba_url":null,"images":["https://xcimg.szwego.com/20220323/i1648016790_3537_0.jpg","https://xcimg.szwego.com/20220323/i1648016790_1842_1.jpg","https://xcimg.szwego.com/20220323/i1648016790_6826_2.jpg","https://xcimg.szwego.com/20220323/i1648016790_6237_3.jpg","https://xcimg.szwego.com/20220323/i1648016790_7281_4.jpg","https://xcimg.szwego.com/20220323/i1648016790_4357_5.jpg","https://xcimg.szwego.com/20220323/i1648016790_5099_6.jpg"],"created_at":"2026-06-29T10:27:59.092Z"},{"id":"item-fb0ff6088739","sku":"_dVuVujPu70FvKo2PDTPmsD7dhjTBrgwP2IERiaw","name_en":"Burberry Women Bags","name_cn":"官网图","specs":{"source":"wsxcme","sourceId":"_dVuVujPu70FvKo2PDTPmsD7dhjTBrgwP2IERiaw","sourceTagId":80411239,"sourceTagName":"巴宝莉/女包","rawTitle":"官网图"},"price":null,"currency":"CNY","moq":1,"category":"burberry-women-bags","status":"active","alibaba_url":null,"images":["https://xcimg.szwego.com/20220423/i1650694026_6053_0.jpg","https://xcimg.szwego.com/20220423/i1650694026_2209_1.jpg","https://xcimg.szwego.com/20220423/i1650694026_8934_2.jpg","https://xcimg.szwego.com/20220423/i1650694026_9637_3.jpg","https://xcimg.szwego.com/20220423/i1650694026_6474_4.jpg"],"created_at":"2026-06-29T10:27:59.212Z"},{"id":"item-f801df50b4be","sku":"_dcZcZ40Dq9nT7x7OiojOq-G9g-X4My83D2Hjo8A","name_en":"Burberry Women Bags","name_cn":"巴宝莉【型号0621】顶级原单典藏灵感的托特包,精选帆布拼缉明线皮革制成,正面口袋装饰品牌徽标图案。可使用加固式皮革提柄手拎,或使用可拆式肩背带携带。\n尺寸:23 x 6 x 26.5cm\n内衬:92%棉,8%聚氨酯","specs":{"source":"wsxcme","sourceId":"_dcZcZ40Dq9nT7x7OiojOq-G9g-X4My83D2Hjo8A","sourceTagId":80411239,"sourceTagName":"巴宝莉/女包","modelNumber":"0621】顶级原单典藏灵感的托特包","dimensions":{"lengthCm":23,"heightCm":6,"widthCm":26.5},"rawTitle":"巴宝莉【型号0621】顶级原单典藏灵感的托特包,精选帆布拼缉明线皮革制成,正面口袋装饰品牌徽标图案。可使用加固式皮革提柄手拎,或使用可拆式肩背带携带。\n尺寸:23 x 6 x 26.5cm\n内衬:92%棉,8%聚氨酯"},"price":null,"currency":"CNY","moq":1,"category":"burberry-women-bags","status":"active","alibaba_url":null,"images":["https://xcimg.szwego.com/20210928/a1632839084982_3343.jpg","https://xcimg.szwego.com/20210928/a1632839085092_0503.jpg","https://xcimg.szwego.com/20210928/a1632839085229_0863.jpg","https://xcimg.szwego.com/20210928/a1632839085272_8853.jpg","https://xcimg.szwego.com/20210928/a1632839085372_5470.jpg","https://xcimg.szwego.com/20210928/a1632839085469_3867.jpg","https://xcimg.szwego.com/20210928/a1632839085550_0061.jpg","https://xcimg.szwego.com/20210928/a1632839085607_6084.jpg","https://xcimg.szwego.com/20210928/a1632839085672_6083.jpg"],"created_at":"2025-02-08T12:43:27.832Z"},{"id":"item-f6c5eb92d02c","sku":"_dgbgbvXCaitI88WaddfbDn-UMZT3tmjORlmP8pw","name_en":"Burberry Women Bags","name_cn":"棕色 配原厂防尘袋!","specs":{"source":"wsxcme","sourceId":"_dgbgbvXCaitI88WaddfbDn-UMZT3tmjORlmP8pw","sourceTagId":80411239,"sourceTagName":"巴宝莉/女包","rawTitle":"棕色 配原厂防尘袋!"},"price":null,"currency":"CNY","moq":1,"category":"burberry-women-bags","status":"active","alibaba_url":null,"images":["https://xcimg.szwego.com/20220323/i1648016846_4068_0.jpg"],"created_at":"2026-06-29T10:27:59.122Z"}],"page":16,"pageSize":24,"total":493,"totalPages":21}
