{"items":[{"id":"item-88fb1f68866b","sku":"_dkOkONCPyfg666rWb1k2iH2DWDFB7O4vmqwXG4Q","name_en":"Burberry Women Bags","name_cn":"黑色平铺细节,秋冬系列线条简洁挺阔,造型复古又时尚,原汁原味的东西,品相完美","specs":{"source":"wsxcme","sourceId":"_dkOkONCPyfg666rWb1k2iH2DWDFB7O4vmqwXG4Q","sourceTagId":80411239,"sourceTagName":"巴宝莉/女包","rawTitle":"黑色平铺细节,秋冬系列线条简洁挺阔,造型复古又时尚,原汁原味的东西,品相完美"},"price":null,"currency":"CNY","moq":1,"category":"burberry-women-bags","status":"active","alibaba_url":null,"images":["https://xcimg.szwego.com/20211006/i1633503538_5350_1.jpg","https://xcimg.szwego.com/20211006/i1633503538_3745_2.jpg","https://xcimg.szwego.com/20211006/i1633503538_6838_3.jpg","https://xcimg.szwego.com/20211006/i1633503538_491_4.jpg","https://xcimg.szwego.com/20211006/i1633503538_2871_5.jpg","https://xcimg.szwego.com/20211006/i1633503538_4185_6.jpg"],"created_at":"2025-01-20T12:46:12.805Z"},{"id":"item-8791cba43b5b","sku":"_d4242Ij-4pEmSlBNlvF_UQEPVIHhA8tSq6oZczQ","name_en":"Burberry Women Bags","name_cn":"上身图","specs":{"source":"wsxcme","sourceId":"_d4242Ij-4pEmSlBNlvF_UQEPVIHhA8tSq6oZczQ","sourceTagId":80411239,"sourceTagName":"巴宝莉/女包","rawTitle":"上身图"},"price":null,"currency":"CNY","moq":1,"category":"burberry-women-bags","status":"active","alibaba_url":null,"images":["https://xcimg.szwego.com/img/d5e7a5ce/20250530/a1748583586617_8251.jpg","https://xcimg.szwego.com/img/d5e7a5ce/20250530/a1748583586696_7846.jpg","https://xcimg.szwego.com/img/d5e7a5ce/20250530/a1748583586624_6307.jpg","https://xcimg.szwego.com/img/d5e7a5ce/20250530/a1748583586665_6244.jpg","https://xcimg.szwego.com/img/d5e7a5ce/20250530/a1748583586631_7317.jpg","https://xcimg.szwego.com/img/d5e7a5ce/20250530/a1748583586659_7323.jpg","https://xcimg.szwego.com/img/d5e7a5ce/20250530/a1748583587461_4443.jpg","https://xcimg.szwego.com/img/d5e7a5ce/20250530/a1748583587495_8686.jpg","https://xcimg.szwego.com/img/d5e7a5ce/20250530/a1748583587451_3730.jpg"],"created_at":"2026-06-29T10:27:58.822Z"},{"id":"item-7f7867d9884c","sku":"_dA0A05HSf5b54kkvLxn5Onf0ePLHDER7Oa0x5Vg","name_en":"Burberry Women Bags","name_cn":"上身图","specs":{"source":"wsxcme","sourceId":"_dA0A05HSf5b54kkvLxn5Onf0ePLHDER7Oa0x5Vg","sourceTagId":80411239,"sourceTagName":"巴宝莉/女包","rawTitle":"上身图"},"price":null,"currency":"CNY","moq":1,"category":"burberry-women-bags","status":"active","alibaba_url":null,"images":["https://xcimg.szwego.com/img/d5e7a5ce/20251114/a1763099007902_6582.jpg","https://xcimg.szwego.com/img/d5e7a5ce/20251114/a1763099007900_5034.jpg","https://xcimg.szwego.com/img/d5e7a5ce/20251114/a1763099007899_6852.jpg","https://xcimg.szwego.com/img/d5e7a5ce/20251114/a1763099007901_4381.jpg","https://xcimg.szwego.com/img/d5e7a5ce/20251114/a1763099007902_7243.jpg","https://xcimg.szwego.com/img/d5e7a5ce/20251114/a1763099007903_2178.jpg","https://xcimg.szwego.com/img/d5e7a5ce/20251114/a1763099008440_0467.jpg","https://xcimg.szwego.com/img/d5e7a5ce/20251114/a1763099008442_7003.jpg","https://xcimg.szwego.com/img/d5e7a5ce/20251114/a1763099008443_8656.jpg"],"created_at":"2026-06-29T10:27:58.532Z"},{"id":"item-7f2ed43d045c","sku":"_dMnMnlhnFh761gWHbZlk95PaXC82BlxvfNXCm1w","name_en":"Burberry Women Bags","name_cn":"配原装盒","specs":{"source":"wsxcme","sourceId":"_dMnMnlhnFh761gWHbZlk95PaXC82BlxvfNXCm1w","sourceTagId":80411239,"sourceTagName":"巴宝莉/女包","rawTitle":"配原装盒"},"price":null,"currency":"CNY","moq":1,"category":"burberry-women-bags","status":"active","alibaba_url":null,"images":["https://xcimg.szwego.com/imgHD/b7f85c57/20260403/cmp_i1775187829866_9698_0_0.jpg","https://xcimg.szwego.com/imgHD/b7f85c57/20260403/cmp_i1775187829850_156_0_1.jpg","https://xcimg.szwego.com/imgHD/b7f85c57/20260403/cmp_i1775187829816_8841_0_2.jpg","https://xcimg.szwego.com/imgHD/b7f85c57/20260403/cmp_i1775187829860_3542_0_3.jpg"],"created_at":"2026-06-29T10:29:02.759Z"},{"id":"item-76d198074483","sku":"_dnnnnEv5s7bpAjHD_s0rbM6QdOngPU35P1jzSPw","name_en":"Burberry Women Bags","name_cn":"巴宝莉/女包","specs":{"source":"wsxcme","sourceId":"_dnnnnEv5s7bpAjHD_s0rbM6QdOngPU35P1jzSPw","sourceTagId":80411239,"sourceTagName":"巴宝莉/女包","rawTitle":""},"price":null,"currency":"CNY","moq":1,"category":"burberry-women-bags","status":"active","alibaba_url":null,"images":["https://xcimg.szwego.com/img/d5e7a5ce/20251114/a1763099264748_4128.jpg","https://xcimg.szwego.com/img/d5e7a5ce/20251114/a1763099264749_1121.jpg","https://xcimg.szwego.com/img/d5e7a5ce/20251114/a1763099264726_4153.jpg"],"created_at":"2026-06-29T10:29:03.009Z"},{"id":"item-75c637481d08","sku":"_duGuG9-QKyQj0NCTCl9Mp4h5zZnq2L4BIFzk0WA","name_en":"Burberry Women Bags","name_cn":"❤️大号!沙色条纹 大号背的是酷😎是高级 是独特 也不用挑身高 有一米六左右来驾驭也是超级无敌好看的,背上气质就出来了!专柜新面料(纯棉的)搭配原厂牛皮,肩背带的边边包的都是原厂牛皮✔️,咱家拒绝超纤哈❌支持对比!!\n尺寸长36 x 宽18.5 x 高(袋身高)33cm.","specs":{"source":"wsxcme","sourceId":"_duGuG9-QKyQj0NCTCl9Mp4h5zZnq2L4BIFzk0WA","sourceTagId":80411239,"sourceTagName":"巴宝莉/女包","rawTitle":"❤️大号!沙色条纹 大号背的是酷😎是高级 是独特 也不用挑身高 有一米六左右来驾驭也是超级无敌好看的,背上气质就出来了!专柜新面料(纯棉的)搭配原厂牛皮,肩背带的边边包的都是原厂牛皮✔️,咱家拒绝超纤哈❌支持对比!!\n尺寸长36 x 宽18.5 x 高(袋身高)33cm."},"price":null,"currency":"CNY","moq":1,"category":"burberry-women-bags","status":"active","alibaba_url":null,"images":["https://xcimg.szwego.com/img/d5e7a5ce/20250304/a1741079314828_1448.jpg","https://xcimg.szwego.com/img/d5e7a5ce/20250304/a1741079314831_1577.jpg","https://xcimg.szwego.com/img/d5e7a5ce/20250304/a1741079314832_8341.jpg","https://xcimg.szwego.com/img/d5e7a5ce/20250304/a1741079314833_7640.jpg","https://xcimg.szwego.com/img/d5e7a5ce/20250304/a1741079314836_4167.jpg","https://xcimg.szwego.com/img/d5e7a5ce/20250304/a1741079314839_2323.jpg","https://xcimg.szwego.com/img/d5e7a5ce/20250304/a1741079315687_0678.jpg","https://xcimg.szwego.com/img/d5e7a5ce/20250304/a1741079315663_8118.jpg","https://xcimg.szwego.com/img/d5e7a5ce/20250304/a1741079315665_4340.jpg"],"created_at":"2026-06-29T10:27:59.332Z"},{"id":"item-7201f5aa68c9","sku":"_dBWBW2E1WfR3R21yqvvB8dsGyDCi3OURQTplZ2A","name_en":"Burberry Women Bags","name_cn":"官网图","specs":{"source":"wsxcme","sourceId":"_dBWBW2E1WfR3R21yqvvB8dsGyDCi3OURQTplZ2A","sourceTagId":80411239,"sourceTagName":"巴宝莉/女包","rawTitle":"官网图"},"price":null,"currency":"CNY","moq":1,"category":"burberry-women-bags","status":"active","alibaba_url":null,"images":["https://xcimg.szwego.com/img/d5e7a5ce/20241022/a1729580004113_8815.jpg","https://xcimg.szwego.com/img/d5e7a5ce/20241022/a1729580004115_2741.jpg","https://xcimg.szwego.com/img/d5e7a5ce/20241022/a1729580004117_2633.jpg","https://xcimg.szwego.com/img/d5e7a5ce/20241022/a1729580004118_2846.jpg"],"created_at":"2026-06-29T10:27:58.662Z"},{"id":"item-6e708ce6338a","sku":"_diSiS-xHX3dQ7wVJCV1GMcTl7xYNgU3oJp4xgqQ","name_en":"Burberry Women Bags","name_cn":"官网 售价!","specs":{"source":"wsxcme","sourceId":"_diSiS-xHX3dQ7wVJCV1GMcTl7xYNgU3oJp4xgqQ","sourceTagId":80411239,"sourceTagName":"巴宝莉/女包","rawTitle":"官网 售价!"},"price":null,"currency":"CNY","moq":1,"category":"burberry-women-bags","status":"active","alibaba_url":null,"images":["https://xcimg.szwego.com/20220323/i1648017355_9999_0.jpg"],"created_at":"2026-06-29T10:27:59.062Z"},{"id":"item-6d37596ef27a","sku":"_dwMwMm8vQeau3s9bSyrWqy4LVfJbZcFZLOfvs5g","name_en":"Burberry Women Bags","name_cn":"巴宝莉/女包","specs":{"source":"wsxcme","sourceId":"_dwMwMm8vQeau3s9bSyrWqy4LVfJbZcFZLOfvs5g","sourceTagId":80411239,"sourceTagName":"巴宝莉/女包","rawTitle":""},"price":null,"currency":"CNY","moq":1,"category":"burberry-women-bags","status":"active","alibaba_url":null,"images":["https://xcimg.szwego.com/img/d5e7a5ce/20251114/a1763099152408_6183.jpg"],"created_at":"2026-06-29T10:27:58.592Z"},{"id":"item-6c651953758d","sku":"_dS5S5_BN3XMzEGKaJDGhwmCj5mg4-sQiPe-1YDg","name_en":"Burberry Women Bags","name_cn":"现货","specs":{"source":"wsxcme","sourceId":"_dS5S5_BN3XMzEGKaJDGhwmCj5mg4-sQiPe-1YDg","sourceTagId":80411239,"sourceTagName":"巴宝莉/女包","rawTitle":"现货"},"price":null,"currency":"CNY","moq":1,"category":"burberry-women-bags","status":"active","alibaba_url":null,"images":["https://xcimg.szwego.com/img/d5e7a5ce/20251105/a1762314519120_5185.jpg","https://xcimg.szwego.com/img/d5e7a5ce/20251105/a1762314519125_1221.jpg","https://xcimg.szwego.com/img/d5e7a5ce/20251105/a1762314519122_8785.jpg","https://xcimg.szwego.com/img/d5e7a5ce/20251105/a1762314519118_1760.jpg","https://xcimg.szwego.com/img/d5e7a5ce/20251105/a1762314519119_6406.jpg","https://xcimg.szwego.com/img/d5e7a5ce/20251105/a1762314519124_1514.jpg","https://xcimg.szwego.com/img/d5e7a5ce/20251105/a1762314519568_1364.jpg","https://xcimg.szwego.com/img/d5e7a5ce/20251105/a1762314519569_3447.jpg","https://xcimg.szwego.com/img/d5e7a5ce/20251105/a1762314519570_4052.jpg"],"created_at":"2026-06-29T10:27:59.032Z"},{"id":"item-6bd4c41b1005","sku":"_dPFPFYWdR_OxnOAVoakXadM7I7DLU84uo0wKDcw","name_en":"Burberry Women Bags","name_cn":"在看一下进口烫金➕独有防伪编码 水洗麦!","specs":{"source":"wsxcme","sourceId":"_dPFPFYWdR_OxnOAVoakXadM7I7DLU84uo0wKDcw","sourceTagId":80411239,"sourceTagName":"巴宝莉/女包","rawTitle":"在看一下进口烫金➕独有防伪编码 水洗麦!"},"price":null,"currency":"CNY","moq":1,"category":"burberry-women-bags","status":"active","alibaba_url":null,"images":["https://xcimg.szwego.com/20220423/i1650693893_7128_0.jpg","https://xcimg.szwego.com/20220423/i1650693893_5943_1.jpg","https://xcimg.szwego.com/20220423/i1650693893_3952_2.jpg","https://xcimg.szwego.com/20220423/i1650693893_678_3.jpg","https://xcimg.szwego.com/20220423/i1650693893_2041_4.jpg"],"created_at":"2026-06-29T10:27:59.192Z"},{"id":"item-6899284c6dd5","sku":"_dMPMPrmnC9jYo1RD4i_jfBPHKBtNRYgZ1gLwoZA","name_en":"Burberry Women Bags","name_cn":"在看一下进口烫金➕独有防伪编码 水洗麦!","specs":{"source":"wsxcme","sourceId":"_dMPMPrmnC9jYo1RD4i_jfBPHKBtNRYgZ1gLwoZA","sourceTagId":80411239,"sourceTagName":"巴宝莉/女包","rawTitle":"在看一下进口烫金➕独有防伪编码 水洗麦!"},"price":null,"currency":"CNY","moq":1,"category":"burberry-women-bags","status":"active","alibaba_url":null,"images":["https://xcimg.szwego.com/20220323/i1648016837_9606_0.jpg","https://xcimg.szwego.com/20220323/i1648016837_589_1.jpg","https://xcimg.szwego.com/20220323/i1648016837_8565_2.jpg","https://xcimg.szwego.com/20220323/i1648016837_4376_3.jpg","https://xcimg.szwego.com/20220323/i1648016837_4975_4.jpg"],"created_at":"2026-06-29T10:27:59.112Z"},{"id":"item-64087fa39db3","sku":"_d3737pb-BMkpaCsg_wJ1xFr4YE9vw8-Nb9rM5SA","name_en":"Burberry Women Bags","name_cn":"实拍,\n24款 Rocking Horse手袋\n一款结构柔软的手提袋,\n鳄鱼皮压纹牛皮,内衬是柔软麂皮,\n打造出奢华又内敛的质感。\n特点是”b”字母的closure, \n以及背后EKD的压纹印花 这款包包实用性强,可以当作tote bag, \n同时有可拆卸可调节长度的肩带来当作crossbody.\n日常通勤 见客户或者出席活动都可以用到的一只包!","specs":{"source":"wsxcme","sourceId":"_d3737pb-BMkpaCsg_wJ1xFr4YE9vw8-Nb9rM5SA","sourceTagId":80411239,"sourceTagName":"巴宝莉/女包","rawTitle":"实拍,\n24款 Rocking Horse手袋\n一款结构柔软的手提袋,\n鳄鱼皮压纹牛皮,内衬是柔软麂皮,\n打造出奢华又内敛的质感。\n特点是”b”字母的closure, \n以及背后EKD的压纹印花 这款包包实用性强,可以当作tote bag, \n同时有可拆卸可调节长度的肩带来当作crossbody.\n日常通勤 见客户或者出席活动都可以用到的一只包!"},"price":null,"currency":"CNY","moq":1,"category":"burberry-women-bags","status":"active","alibaba_url":null,"images":["https://xcimg.szwego.com/img/044b8f29/20241220/i1734681342_4709_3.jpg","https://xcimg.szwego.com/img/044b8f29/20241220/i1734681342_9276_1.jpg","https://xcimg.szwego.com/img/044b8f29/20241220/i1734681342_8716_2.jpg","https://xcimg.szwego.com/img/044b8f29/20241220/i1734681342_8094_4.jpg","https://xcimg.szwego.com/img/044b8f29/20241220/i1734681342_107_5.jpg","https://xcimg.szwego.com/img/044b8f29/20241220/i1734681342_2855_0.jpg","https://xcimg.szwego.com/img/044b8f29/20241220/i1734681342_1718_6.jpg","https://xcimg.szwego.com/img/044b8f29/20241220/i1734681342_856_8.jpg","https://xcimg.szwego.com/img/044b8f29/20241220/i1734681342_5503_7.jpg"],"created_at":"2026-06-29T10:27:58.852Z"},{"id":"item-61cd14ecb03d","sku":"_dbvbv9FQxd3JJK3R3Zh7EluZhHAMaaS-2CrrI2g","name_en":"Burberry Women Bags","name_cn":"上身图","specs":{"source":"wsxcme","sourceId":"_dbvbv9FQxd3JJK3R3Zh7EluZhHAMaaS-2CrrI2g","sourceTagId":80411239,"sourceTagName":"巴宝莉/女包","rawTitle":"上身图"},"price":null,"currency":"CNY","moq":1,"category":"burberry-women-bags","status":"active","alibaba_url":null,"images":["https://xcimg.szwego.com/img/d5e7a5ce/20250403/a1743668332066_0700.jpg","https://xcimg.szwego.com/img/d5e7a5ce/20250403/a1743668332071_0064.jpg","https://xcimg.szwego.com/img/d5e7a5ce/20250403/a1743668332074_1513.jpg","https://xcimg.szwego.com/img/d5e7a5ce/20250403/a1743668332069_2800.jpg","https://xcimg.szwego.com/img/d5e7a5ce/20250403/a1743668332074_6050.jpg","https://xcimg.szwego.com/img/d5e7a5ce/20250403/a1743668332072_0704.jpg","https://xcimg.szwego.com/img/d5e7a5ce/20250403/a1743668332863_2256.jpg","https://xcimg.szwego.com/img/d5e7a5ce/20250403/a1743668332865_5853.jpg","https://xcimg.szwego.com/img/d5e7a5ce/20250403/a1743668332867_4408.jpg","https://xcimg.szwego.com/img/d5e7a5ce/20250403/a1743668332869_6061.jpg"],"created_at":"2026-06-29T10:27:59.292Z"},{"id":"item-611bc68b5c96","sku":"_d8080YsnhsubRbCfb11p_LjxU8HKuazhOSS0RTQ","name_en":"Burberry Women Bags","name_cn":"上身图","specs":{"source":"wsxcme","sourceId":"_d8080YsnhsubRbCfb11p_LjxU8HKuazhOSS0RTQ","sourceTagId":80411239,"sourceTagName":"巴宝莉/女包","rawTitle":"上身图"},"price":null,"currency":"CNY","moq":1,"category":"burberry-women-bags","status":"active","alibaba_url":null,"images":["https://xcimg.szwego.com/img/d5e7a5ce/20250908/a1757318559689_1248.jpg","https://xcimg.szwego.com/img/d5e7a5ce/20250908/a1757318559690_1750.jpg","https://xcimg.szwego.com/img/d5e7a5ce/20250908/a1757318559691_3631.jpg","https://xcimg.szwego.com/img/d5e7a5ce/20250908/a1757318559692_0633.jpg","https://xcimg.szwego.com/img/d5e7a5ce/20250908/a1757318559693_2313.jpg","https://xcimg.szwego.com/img/d5e7a5ce/20250908/a1757318559694_0252.jpg","https://xcimg.szwego.com/img/d5e7a5ce/20250908/a1757318560442_5314.jpg","https://xcimg.szwego.com/img/d5e7a5ce/20250908/a1757318560437_5886.jpg","https://xcimg.szwego.com/img/d5e7a5ce/20250908/a1757318560440_7300.jpg"],"created_at":"2026-06-29T10:27:58.492Z"},{"id":"item-60f33f8c8ab1","sku":"_dZAZAOaeQk-OhDB9GIW2VNZ4xPpJaSSVZBMgvdA","name_en":"Burberry Women Bags","name_cn":"芭宝莉 尺寸28 15\n巴宝莉 Burberry中古腋下包,斜挎包 !也太百搭了吧! !不论休闲西装小裙纸都能搭配质量超级好很有质感摸起来也是软软的爱了爱了,没有年龄限制的一款腋下包!7003","specs":{"source":"wsxcme","sourceId":"_dZAZAOaeQk-OhDB9GIW2VNZ4xPpJaSSVZBMgvdA","sourceTagId":80411239,"sourceTagName":"巴宝莉/女包","rawTitle":"芭宝莉 尺寸28 15\n巴宝莉 Burberry中古腋下包,斜挎包 !也太百搭了吧! !不论休闲西装小裙纸都能搭配质量超级好很有质感摸起来也是软软的爱了爱了,没有年龄限制的一款腋下包!7003"},"price":null,"currency":"CNY","moq":1,"category":"burberry-women-bags","status":"active","alibaba_url":null,"images":["https://xcimg.szwego.com/20211112/i1636691141_2452_0.jpg","https://xcimg.szwego.com/20211112/i1636691141_2563_1.jpg","https://xcimg.szwego.com/20211112/i1636691141_1550_2.jpg","https://xcimg.szwego.com/20211112/i1636691141_6854_3.jpg","https://xcimg.szwego.com/20211112/i1636691141_4819_4.jpg","https://xcimg.szwego.com/20211112/i1636691141_4217_5.jpg","https://xcimg.szwego.com/20211112/i1636691141_6558_6.jpg","https://xcimg.szwego.com/20211112/i1636691141_7582_7.jpg","https://xcimg.szwego.com/20211112/i1636691141_6654_8.jpg"],"created_at":"2025-02-08T12:43:27.818Z"},{"id":"item-5eccf031218f","sku":"_dwQwQmDrCSCSRMT2YuEV4VSQROJbv9b4DpveSRg","name_en":"Burberry Women Bags","name_cn":"官网图","specs":{"source":"wsxcme","sourceId":"_dwQwQmDrCSCSRMT2YuEV4VSQROJbv9b4DpveSRg","sourceTagId":80411239,"sourceTagName":"巴宝莉/女包","rawTitle":"官网图"},"price":null,"currency":"CNY","moq":1,"category":"burberry-women-bags","status":"active","alibaba_url":null,"images":["https://xcimg.szwego.com/img/d5e7a5ce/20250530/a1748583578278_2063.jpg","https://xcimg.szwego.com/img/d5e7a5ce/20250530/a1748583578239_2228.jpg","https://xcimg.szwego.com/img/d5e7a5ce/20250530/a1748583578259_8068.jpg","https://xcimg.szwego.com/img/d5e7a5ce/20250530/a1748583578260_6255.jpg","https://xcimg.szwego.com/img/d5e7a5ce/20250530/a1748583578279_8526.jpg","https://xcimg.szwego.com/img/d5e7a5ce/20250530/a1748583578274_0764.jpg"],"created_at":"2026-06-29T10:27:58.812Z"},{"id":"item-5d158130fe4c","sku":"_dHrHrsdX-3Ru1eu0C7HKNzzvVGjkK5-WwYzbguQ","name_en":"Burberry Women Bags","name_cn":"现货","specs":{"source":"wsxcme","sourceId":"_dHrHrsdX-3Ru1eu0C7HKNzzvVGjkK5-WwYzbguQ","sourceTagId":80411239,"sourceTagName":"巴宝莉/女包","rawTitle":"现货"},"price":null,"currency":"CNY","moq":1,"category":"burberry-women-bags","status":"active","alibaba_url":null,"images":["https://xcimg.szwego.com/img/d5e7a5ce/20251114/a1763099167415_2576.jpg","https://xcimg.szwego.com/img/d5e7a5ce/20251114/a1763099167417_5148.jpg","https://xcimg.szwego.com/img/d5e7a5ce/20251114/a1763099167417_4832.jpg"],"created_at":"2026-06-29T10:27:58.602Z"},{"id":"item-5ba0b1aef2a1","sku":"_dYNYNTb-oolDduwRnqj0Gs7_4bYHpvHVaa3ebCg","name_en":"Burberry Women Bags","name_cn":"在看一下原厂光面小牛皮,上手触摸平滑舒适,光泽度质感非常棒,用料很厚实,走线做工精致 !","specs":{"source":"wsxcme","sourceId":"_dYNYNTb-oolDduwRnqj0Gs7_4bYHpvHVaa3ebCg","sourceTagId":80411239,"sourceTagName":"巴宝莉/女包","rawTitle":"在看一下原厂光面小牛皮,上手触摸平滑舒适,光泽度质感非常棒,用料很厚实,走线做工精致 !"},"price":null,"currency":"CNY","moq":1,"category":"burberry-women-bags","status":"active","alibaba_url":null,"images":["https://xcimg.szwego.com/20220323/i1648016809_1579_0.jpg","https://xcimg.szwego.com/20220323/i1648016809_4151_1.jpg","https://xcimg.szwego.com/20220323/i1648016809_9915_2.jpg","https://xcimg.szwego.com/20220323/i1648016809_3688_3.jpg","https://xcimg.szwego.com/20220323/i1648016809_9172_4.jpg","https://xcimg.szwego.com/20220323/i1648016809_139_5.jpg"],"created_at":"2026-06-29T10:27:59.102Z"},{"id":"item-58e350867cdf","sku":"_dIUIUOdoRDxsdrOt9z8ECpcXcJM3tKer3mckazA","name_en":"Burberry Women Bags","name_cn":"现货","specs":{"source":"wsxcme","sourceId":"_dIUIUOdoRDxsdrOt9z8ECpcXcJM3tKer3mckazA","sourceTagId":80411239,"sourceTagName":"巴宝莉/女包","rawTitle":"现货"},"price":null,"currency":"CNY","moq":1,"category":"burberry-women-bags","status":"active","alibaba_url":null,"images":["https://xcimg.szwego.com/img/d5e7a5ce/20250908/a1757318236921_4133.jpg","https://xcimg.szwego.com/img/d5e7a5ce/20250908/a1757318236872_5017.jpg","https://xcimg.szwego.com/img/d5e7a5ce/20250908/a1757318236863_0528.jpg","https://xcimg.szwego.com/img/d5e7a5ce/20250908/a1757318236867_7155.jpg","https://xcimg.szwego.com/img/d5e7a5ce/20250908/a1757318236858_6072.jpg","https://xcimg.szwego.com/img/d5e7a5ce/20250908/a1757318236924_0814.jpg","https://xcimg.szwego.com/img/d5e7a5ce/20250908/a1757318237618_7744.jpg","https://xcimg.szwego.com/img/d5e7a5ce/20250908/a1757318237616_2271.jpg","https://xcimg.szwego.com/img/d5e7a5ce/20250908/a1757318237619_4313.jpg"],"created_at":"2026-06-29T10:27:58.422Z"},{"id":"item-550fcfafc63f","sku":"_dwLwLYyWpY2CqtdbJzQXFtTuNbOYG-pzVNtAmrQ","name_en":"Burberry Women Bags","name_cn":"大号沙色 上身效果无敌酷😎","specs":{"source":"wsxcme","sourceId":"_dwLwLYyWpY2CqtdbJzQXFtTuNbOYG-pzVNtAmrQ","sourceTagId":80411239,"sourceTagName":"巴宝莉/女包","rawTitle":"大号沙色 上身效果无敌酷😎"},"price":null,"currency":"CNY","moq":1,"category":"burberry-women-bags","status":"active","alibaba_url":null,"images":["https://xcimg.szwego.com/img/d5e7a5ce/20250304/a1741079645159_6105.jpg","https://xcimg.szwego.com/img/d5e7a5ce/20250304/a1741079645165_1860.jpg","https://xcimg.szwego.com/img/d5e7a5ce/20250304/a1741079645164_5121.jpg","https://xcimg.szwego.com/img/d5e7a5ce/20250304/a1741079645163_8741.jpg","https://xcimg.szwego.com/img/d5e7a5ce/20250304/a1741079645161_8561.jpg","https://xcimg.szwego.com/img/d5e7a5ce/20250304/a1741079645167_1423.jpg","https://xcimg.szwego.com/img/d5e7a5ce/20250304/a1741079645908_1181.jpg","https://xcimg.szwego.com/img/d5e7a5ce/20250304/a1741079645912_6256.jpg","https://xcimg.szwego.com/img/d5e7a5ce/20250304/a1741079645916_0320.jpg"],"created_at":"2026-06-29T10:27:59.352Z"},{"id":"item-5427ef773e5f","sku":"_diCiCWrby57VBS90IRkG0CMPc8rJKeFaWhLSEaw","name_en":"Burberry Women Bags","name_cn":"水桶包型作为众多时尚博主的标志性包袋,通勤或休闲皆可,帆布材质更硬挺,耐磨耐造,背上身造型更加立体,容量可观,肩带可调节!而且包身自重非常轻!作为这个系列的新成员,怕是又有不少包控要沦陷咯!","specs":{"source":"wsxcme","sourceId":"_diCiCWrby57VBS90IRkG0CMPc8rJKeFaWhLSEaw","sourceTagId":80411239,"sourceTagName":"巴宝莉/女包","rawTitle":"水桶包型作为众多时尚博主的标志性包袋,通勤或休闲皆可,帆布材质更硬挺,耐磨耐造,背上身造型更加立体,容量可观,肩带可调节!而且包身自重非常轻!作为这个系列的新成员,怕是又有不少包控要沦陷咯!"},"price":null,"currency":"CNY","moq":1,"category":"burberry-women-bags","status":"active","alibaba_url":null,"images":["https://xcimg.szwego.com/20210910/i1631273588_3204_0.jpg","https://xcimg.szwego.com/20210910/i1631273588_3276_1.jpg","https://xcimg.szwego.com/20210910/i1631273588_3061_2.jpg","https://xcimg.szwego.com/20210910/i1631273588_3415_3.jpg","https://xcimg.szwego.com/20210910/i1631273588_6169_4.jpg","https://xcimg.szwego.com/20210910/i1631273588_2013_5.jpg","https://xcimg.szwego.com/20210910/i1631273588_9392_6.jpg","https://xcimg.szwego.com/20210910/i1631273588_1539_7.jpg","https://xcimg.szwego.com/20210910/i1631273588_4535_8.jpg"],"created_at":"2025-01-20T12:43:24.111Z"},{"id":"item-4f91e7ce0aee","sku":"_d_s_s01_byBCgmzHH99eOCX_V1-dbOX5xcQ9yig","name_en":"Burberry Women Bags","name_cn":"上身图","specs":{"source":"wsxcme","sourceId":"_d_s_s01_byBCgmzHH99eOCX_V1-dbOX5xcQ9yig","sourceTagId":80411239,"sourceTagName":"巴宝莉/女包","rawTitle":"上身图"},"price":null,"currency":"CNY","moq":1,"category":"burberry-women-bags","status":"active","alibaba_url":null,"images":["https://xcimg.szwego.com/img/d5e7a5ce/20241022/a1729580581475_0275.jpg","https://xcimg.szwego.com/img/d5e7a5ce/20241022/a1729580581464_8542.jpg","https://xcimg.szwego.com/img/d5e7a5ce/20241022/a1729580581468_4763.jpg","https://xcimg.szwego.com/img/d5e7a5ce/20241022/a1729580581467_2750.jpg","https://xcimg.szwego.com/img/d5e7a5ce/20241022/a1729580581490_4650.jpg","https://xcimg.szwego.com/img/d5e7a5ce/20241022/a1729580581485_8125.jpg","https://xcimg.szwego.com/img/d5e7a5ce/20241022/a1729580583018_8864.jpg","https://xcimg.szwego.com/img/d5e7a5ce/20241022/a1729580583015_3531.jpg","https://xcimg.szwego.com/img/d5e7a5ce/20241022/a1729580583023_8875.jpg"],"created_at":"2026-06-29T10:27:58.672Z"},{"id":"item-4b29f05abe88","sku":"_d-I-IgmhIIKlaS_9FtNqqVlsFyIRVJMmB9BNc4g","name_en":"Burberry Women Bags","name_cn":"小号足够日常携带随身物品~~","specs":{"source":"wsxcme","sourceId":"_d-I-IgmhIIKlaS_9FtNqqVlsFyIRVJMmB9BNc4g","sourceTagId":80411239,"sourceTagName":"巴宝莉/女包","rawTitle":"小号足够日常携带随身物品~~"},"price":null,"currency":"CNY","moq":1,"category":"burberry-women-bags","status":"active","alibaba_url":null,"images":["https://xcimg.szwego.com/img/d5e7a5ce/20251105/a1762314395307_5136.jpg","https://xcimg.szwego.com/img/d5e7a5ce/20251105/a1762314395307_4006.jpg","https://xcimg.szwego.com/img/d5e7a5ce/20251105/a1762314395309_5308.jpg","https://xcimg.szwego.com/img/d5e7a5ce/20251105/a1762314395309_4258.jpg","https://xcimg.szwego.com/img/d5e7a5ce/20251105/a1762314395310_2250.jpg","https://xcimg.szwego.com/img/d5e7a5ce/20251105/a1762314395309_7111.jpg","https://xcimg.szwego.com/img/d5e7a5ce/20251105/a1762314395862_4446.jpg","https://xcimg.szwego.com/img/d5e7a5ce/20251105/a1762314395861_0334.jpg","https://xcimg.szwego.com/img/d5e7a5ce/20251105/a1762314395864_8108.jpg"],"created_at":"2026-06-29T10:27:59.002Z"}],"page":19,"pageSize":24,"total":493,"totalPages":21}
