{"items":[{"id":"item-c75558a54601","sku":"_dbGbGPspfSMDAc7whlSLIyMNgsVfgiUxEUukHQw","name_en":"Burberry Women Bags","name_cn":"巴宝莉【型号0621】顶级原单典藏灵感的托特包,精选帆布拼缉明线皮革制成,正面口袋装饰品牌徽标图案。可使用加固式皮革提柄手拎,或使用可拆式肩背带携带。\n尺寸:23 x 6 x 26.5cm\n内衬:92%棉,8%聚氨酯","specs":{"source":"wsxcme","sourceId":"_dbGbGPspfSMDAc7whlSLIyMNgsVfgiUxEUukHQw","sourceTagId":80411239,"sourceTagName":"巴宝莉/女包","modelNumber":"0621】顶级原单典藏灵感的托特包","dimensions":{"lengthCm":23,"heightCm":6,"widthCm":26.5},"rawTitle":"巴宝莉【型号0621】顶级原单典藏灵感的托特包,精选帆布拼缉明线皮革制成,正面口袋装饰品牌徽标图案。可使用加固式皮革提柄手拎,或使用可拆式肩背带携带。\n尺寸:23 x 6 x 26.5cm\n内衬:92%棉,8%聚氨酯"},"price":null,"currency":"CNY","moq":1,"category":"burberry-women-bags","status":"active","alibaba_url":null,"images":["https://xcimg.szwego.com/20210928/a1632839022277_0322.jpg","https://xcimg.szwego.com/20210928/a1632839022397_6202.jpg","https://xcimg.szwego.com/20210928/a1632839022480_8763.jpg","https://xcimg.szwego.com/20210928/a1632839022575_7386.jpg","https://xcimg.szwego.com/20210928/a1632839022697_7176.jpg","https://xcimg.szwego.com/20210928/a1632839022788_5030.jpg","https://xcimg.szwego.com/20210928/a1632839022892_4373.jpg","https://xcimg.szwego.com/20210928/a1632839022964_8318.jpg","https://xcimg.szwego.com/20210928/a1632839023033_0602.jpg"],"created_at":"2025-02-08T12:43:27.833Z"},{"id":"item-c6ea019ee865","sku":"_dq1q12tbf_5dxo7d6vOB66sMq5w6yPDLHQsWXkg","name_en":"Burberry Women Bags","name_cn":"官网图","specs":{"source":"wsxcme","sourceId":"_dq1q12tbf_5dxo7d6vOB66sMq5w6yPDLHQsWXkg","sourceTagId":80411239,"sourceTagName":"巴宝莉/女包","rawTitle":"官网图"},"price":null,"currency":"CNY","moq":1,"category":"burberry-women-bags","status":"active","alibaba_url":null,"images":["https://xcimg.szwego.com/img/d5e7a5ce/20250915/a1757934068152_4025.jpg","https://xcimg.szwego.com/img/d5e7a5ce/20250915/a1757934068156_4026.jpg","https://xcimg.szwego.com/img/d5e7a5ce/20250915/a1757934068157_5720.jpg","https://xcimg.szwego.com/img/d5e7a5ce/20250915/a1757934068161_4431.jpg","https://xcimg.szwego.com/img/d5e7a5ce/20250915/a1757934068160_4014.jpg"],"created_at":"2026-06-29T10:27:58.742Z"},{"id":"item-c58efff3befd","sku":"_dmXmX8oK9PjjY8aVusi6mz1ZQUuyCG62rhw5Vgw","name_en":"Burberry Women Bags","name_cn":"小号沙色上身效果参考","specs":{"source":"wsxcme","sourceId":"_dmXmX8oK9PjjY8aVusi6mz1ZQUuyCG62rhw5Vgw","sourceTagId":80411239,"sourceTagName":"巴宝莉/女包","rawTitle":"小号沙色上身效果参考"},"price":null,"currency":"CNY","moq":1,"category":"burberry-women-bags","status":"active","alibaba_url":null,"images":["https://xcimg.szwego.com/img/d5e7a5ce/20250403/a1743667469868_2711.jpg","https://xcimg.szwego.com/img/d5e7a5ce/20250403/a1743667469873_6778.jpg","https://xcimg.szwego.com/img/d5e7a5ce/20250403/a1743667469871_0276.jpg","https://xcimg.szwego.com/img/d5e7a5ce/20250403/a1743667469884_8133.jpg","https://xcimg.szwego.com/img/d5e7a5ce/20250403/a1743667469877_7762.jpg","https://xcimg.szwego.com/img/d5e7a5ce/20250403/a1743667469886_1201.jpg","https://xcimg.szwego.com/img/d5e7a5ce/20250403/a1743667471029_3822.jpg","https://xcimg.szwego.com/img/d5e7a5ce/20250403/a1743667471033_3383.jpg","https://xcimg.szwego.com/img/d5e7a5ce/20250403/a1743667471031_3442.jpg"],"created_at":"2026-06-29T10:27:59.242Z"},{"id":"item-bf5a7a428c86","sku":"_d9090veBAyel7z_zovqe7OyyEE1sCqbsYP5WSNQ","name_en":"Burberry Women Bags","name_cn":"上身图","specs":{"source":"wsxcme","sourceId":"_d9090veBAyel7z_zovqe7OyyEE1sCqbsYP5WSNQ","sourceTagId":80411239,"sourceTagName":"巴宝莉/女包","rawTitle":"上身图"},"price":null,"currency":"CNY","moq":1,"category":"burberry-women-bags","status":"active","alibaba_url":null,"images":["https://xcimg.szwego.com/img/d5e7a5ce/20250530/a1748583607234_5748.jpg","https://xcimg.szwego.com/img/d5e7a5ce/20250530/a1748583607385_7272.jpg","https://xcimg.szwego.com/img/d5e7a5ce/20250530/a1748583607311_6842.jpg","https://xcimg.szwego.com/img/d5e7a5ce/20250530/a1748583607237_2575.jpg","https://xcimg.szwego.com/img/d5e7a5ce/20250530/a1748583607240_8643.jpg","https://xcimg.szwego.com/img/d5e7a5ce/20250530/a1748583607243_8621.jpg","https://xcimg.szwego.com/img/d5e7a5ce/20250530/a1748583607982_4528.jpg","https://xcimg.szwego.com/img/d5e7a5ce/20250530/a1748583607981_1724.jpg","https://xcimg.szwego.com/img/d5e7a5ce/20250530/a1748583607983_0406.jpg"],"created_at":"2026-06-29T10:27:58.832Z"},{"id":"item-bd3b8d76dd1c","sku":"_dzEzEsGXhhpXm6uMnrecFGv_OuhWfZkeDxzRuuA","name_en":"Burberry Women Bags","name_cn":"对比","specs":{"source":"wsxcme","sourceId":"_dzEzEsGXhhpXm6uMnrecFGv_OuhWfZkeDxzRuuA","sourceTagId":80411239,"sourceTagName":"巴宝莉/女包","rawTitle":"对比"},"price":null,"currency":"CNY","moq":1,"category":"burberry-women-bags","status":"active","alibaba_url":null,"images":["https://xcimg.szwego.com/img/d5e7a5ce/20250530/a1748587121884_1824.jpg","https://xcimg.szwego.com/img/d5e7a5ce/20250530/a1748587121887_1643.jpg","https://xcimg.szwego.com/img/d5e7a5ce/20250530/a1748587121895_5163.jpg","https://xcimg.szwego.com/img/d5e7a5ce/20250530/a1748587121897_1481.jpg","https://xcimg.szwego.com/img/d5e7a5ce/20250530/a1748587121893_6187.jpg","https://xcimg.szwego.com/img/d5e7a5ce/20250530/a1748587121890_8322.jpg","https://xcimg.szwego.com/img/d5e7a5ce/20250530/a1748587122515_6423.jpg","https://xcimg.szwego.com/img/d5e7a5ce/20250530/a1748587122514_0604.jpg","https://xcimg.szwego.com/img/d5e7a5ce/20250530/a1748587122517_6554.jpg"],"created_at":"2026-06-29T10:27:58.642Z"},{"id":"item-bcab45557d9e","sku":"_djwjw1nwFQq-5_dOUw7E2sQzuxMB7YmvaR5W9Fg","name_en":"Burberry Women Bags","name_cn":"挂拍来一组!包虽然不大 但是能装!","specs":{"source":"wsxcme","sourceId":"_djwjw1nwFQq-5_dOUw7E2sQzuxMB7YmvaR5W9Fg","sourceTagId":80411239,"sourceTagName":"巴宝莉/女包","rawTitle":"挂拍来一组!包虽然不大 但是能装!"},"price":null,"currency":"CNY","moq":1,"category":"burberry-women-bags","status":"active","alibaba_url":null,"images":["https://xcimg.szwego.com/img/14bb1ccb/20240814/i1723627567_2378_6.jpg","https://xcimg.szwego.com/img/14bb1ccb/20240814/i1723627567_2502_2.jpg","https://xcimg.szwego.com/img/14bb1ccb/20240814/i1723627567_642_3.jpg","https://xcimg.szwego.com/img/14bb1ccb/20240814/i1723627567_1633_0.jpg","https://xcimg.szwego.com/img/14bb1ccb/20240814/i1723627567_9507_4.jpg","https://xcimg.szwego.com/img/14bb1ccb/20240814/i1723627567_1752_1.jpg","https://xcimg.szwego.com/img/14bb1ccb/20240814/i1723627567_1414_5.jpg","https://xcimg.szwego.com/img/14bb1ccb/20240814/i1723627567_1147_7.jpg"],"created_at":"2025-01-20T12:43:24.112Z"},{"id":"item-b2f1a85236b8","sku":"_dd4d4kh2PR0qGl03YSwIE46ZE3A26wntNxMUnxw","name_en":"Burberry Women Bags","name_cn":"上身图","specs":{"source":"wsxcme","sourceId":"_dd4d4kh2PR0qGl03YSwIE46ZE3A26wntNxMUnxw","sourceTagId":80411239,"sourceTagName":"巴宝莉/女包","rawTitle":"上身图"},"price":null,"currency":"CNY","moq":1,"category":"burberry-women-bags","status":"active","alibaba_url":null,"images":["https://xcimg.szwego.com/img/d5e7a5ce/20250530/a1748583496460_7053.jpg","https://xcimg.szwego.com/img/d5e7a5ce/20250530/a1748583496440_0643.jpg","https://xcimg.szwego.com/img/d5e7a5ce/20250530/a1748583496432_6684.jpg","https://xcimg.szwego.com/img/d5e7a5ce/20250530/a1748583496455_6056.jpg","https://xcimg.szwego.com/img/d5e7a5ce/20250530/a1748583496484_5712.jpg","https://xcimg.szwego.com/img/d5e7a5ce/20250530/a1748583496481_5326.jpg","https://xcimg.szwego.com/img/d5e7a5ce/20250530/a1748583497053_8232.jpg","https://xcimg.szwego.com/img/d5e7a5ce/20250530/a1748583497072_7570.jpg","https://xcimg.szwego.com/img/d5e7a5ce/20250530/a1748583497055_1762.jpg"],"created_at":"2026-06-29T10:27:58.792Z"},{"id":"item-af9a6198346c","sku":"_dMfMfsQJ20dVTUvF8nEJvNsngwSkK5YaONHKaZg","name_en":"Burberry Women Bags","name_cn":"配原装盒","specs":{"source":"wsxcme","sourceId":"_dMfMfsQJ20dVTUvF8nEJvNsngwSkK5YaONHKaZg","sourceTagId":80411239,"sourceTagName":"巴宝莉/女包","rawTitle":"配原装盒"},"price":null,"currency":"CNY","moq":1,"category":"burberry-women-bags","status":"active","alibaba_url":null,"images":["https://xcimg.szwego.com/imgHD/b7f85c57/20260330/cmp_i1774850681435_1008_0_0.jpg","https://xcimg.szwego.com/imgHD/b7f85c57/20260330/cmp_i1774850681444_298_0_1.jpg","https://xcimg.szwego.com/imgHD/b7f85c57/20260330/cmp_i1774850681441_8247_0_2.jpg"],"created_at":"2026-06-29T10:29:02.669Z"},{"id":"item-af891f48344a","sku":"_dvCvCnUUoyUTvKKbNQffqf5YjP_ds6ncnZz9sjA","name_en":"Burberry Women Bags","name_cn":"上身图","specs":{"source":"wsxcme","sourceId":"_dvCvCnUUoyUTvKKbNQffqf5YjP_ds6ncnZz9sjA","sourceTagId":80411239,"sourceTagName":"巴宝莉/女包","rawTitle":"上身图"},"price":null,"currency":"CNY","moq":1,"category":"burberry-women-bags","status":"active","alibaba_url":null,"images":["https://xcimg.szwego.com/img/d5e7a5ce/20251115/a1763194306118_8741.jpg","https://xcimg.szwego.com/img/d5e7a5ce/20251115/a1763194306116_5335.jpg","https://xcimg.szwego.com/img/d5e7a5ce/20251115/a1763194306115_2801.jpg","https://xcimg.szwego.com/img/d5e7a5ce/20251115/a1763194306119_6511.jpg","https://xcimg.szwego.com/img/d5e7a5ce/20251115/a1763194306119_5720.jpg","https://xcimg.szwego.com/img/d5e7a5ce/20251115/a1763194306119_4856.jpg","https://xcimg.szwego.com/img/d5e7a5ce/20251115/a1763194306647_5233.jpg","https://xcimg.szwego.com/img/d5e7a5ce/20251115/a1763194306645_0231.jpg","https://xcimg.szwego.com/img/d5e7a5ce/20251115/a1763194306648_6813.jpg"],"created_at":"2026-06-29T10:29:02.979Z"},{"id":"item-af33a08ec501","sku":"_dI-I-8InTxj0y5vlLftMgrxtIY3V-auK7tyGjAw","name_en":"Burberry Women Bags","name_cn":"上身效果图!","specs":{"source":"wsxcme","sourceId":"_dI-I-8InTxj0y5vlLftMgrxtIY3V-auK7tyGjAw","sourceTagId":80411239,"sourceTagName":"巴宝莉/女包","rawTitle":"上身效果图!"},"price":null,"currency":"CNY","moq":1,"category":"burberry-women-bags","status":"active","alibaba_url":null,"images":["https://xcimg.szwego.com/20220423/i1650694037_8726_0.jpg","https://xcimg.szwego.com/20220423/i1650694037_4478_1.jpg","https://xcimg.szwego.com/20220423/i1650694037_9568_2.jpg"],"created_at":"2026-06-29T10:27:59.222Z"},{"id":"item-aefb75006fa1","sku":"_dlDlDCkup8TK-5FMDJC8R6n0Wwee_-HT-MdWRUw","name_en":"Burberry Women Bags","name_cn":"小号","specs":{"source":"wsxcme","sourceId":"_dlDlDCkup8TK-5FMDJC8R6n0Wwee_-HT-MdWRUw","sourceTagId":80411239,"sourceTagName":"巴宝莉/女包","rawTitle":"小号"},"price":null,"currency":"CNY","moq":1,"category":"burberry-women-bags","status":"active","alibaba_url":null,"images":["https://xcimg.szwego.com/img/d5e7a5ce/20250915/a1757933963243_1200.jpg","https://xcimg.szwego.com/img/d5e7a5ce/20250915/a1757933963245_5163.jpg","https://xcimg.szwego.com/img/d5e7a5ce/20250915/a1757933963246_7824.jpg","https://xcimg.szwego.com/img/d5e7a5ce/20250915/a1757933963249_8185.jpg","https://xcimg.szwego.com/img/d5e7a5ce/20250915/a1757933963251_3707.jpg","https://xcimg.szwego.com/img/d5e7a5ce/20250915/a1757933963248_6580.jpg","https://xcimg.szwego.com/img/d5e7a5ce/20250915/a1757933963800_2280.jpg","https://xcimg.szwego.com/img/d5e7a5ce/20250915/a1757933963801_5073.jpg"],"created_at":"2026-06-29T10:27:58.732Z"},{"id":"item-adb3fc1b9a0b","sku":"_d9f9fLi44OpBm9NmNW2dFYXDWBDsEpPoG8r-TZQ","name_en":"Burberry Women Bags","name_cn":"#效果图","specs":{"source":"wsxcme","sourceId":"_d9f9fLi44OpBm9NmNW2dFYXDWBDsEpPoG8r-TZQ","sourceTagId":80411239,"sourceTagName":"巴宝莉/女包","rawTitle":"#效果图"},"price":null,"currency":"CNY","moq":1,"category":"burberry-women-bags","status":"active","alibaba_url":null,"images":["https://xcimg.szwego.com/20221224/i1671865998_2035_0.jpg","https://xcimg.szwego.com/20221224/i1671865998_5388_1.jpg","https://xcimg.szwego.com/20221224/i1671865998_2421_2.jpg","https://xcimg.szwego.com/20221224/i1671865998_9723_3.jpg","https://xcimg.szwego.com/20221224/i1671865998_3466_4.jpg","https://xcimg.szwego.com/20221224/i1671865998_8713_5.jpg","https://xcimg.szwego.com/20221224/i1671865998_9015_6.jpg","https://xcimg.szwego.com/20221224/i1671865998_9576_7.jpg","https://xcimg.szwego.com/20221224/i1671865998_4391_8.jpg"],"created_at":"2026-06-29T10:29:02.919Z"},{"id":"item-ad8c8e7377a6","sku":"_dDyDy0fLzd9B0ADn3pxvkMXLvV0Vfh0VV_yAvHQ","name_en":"Burberry Women Bags","name_cn":"立体实拍,原厂渠道独家品质经典的小枕头款型 款绝对是能一直背很久不过时的款,做工品质柜台啥样咱们啥样,尺寸很实用,官方一直是断货状态,想省钱又对品质有要求的千万别错过。","specs":{"source":"wsxcme","sourceId":"_dDyDy0fLzd9B0ADn3pxvkMXLvV0Vfh0VV_yAvHQ","sourceTagId":80411239,"sourceTagName":"巴宝莉/女包","rawTitle":"立体实拍,原厂渠道独家品质经典的小枕头款型 款绝对是能一直背很久不过时的款,做工品质柜台啥样咱们啥样,尺寸很实用,官方一直是断货状态,想省钱又对品质有要求的千万别错过。"},"price":null,"currency":"CNY","moq":1,"category":"burberry-women-bags","status":"active","alibaba_url":null,"images":["https://xcimg.szwego.com/20230308/i1678251085_998_0.jpg","https://xcimg.szwego.com/20230308/i1678251085_2871_1.jpg","https://xcimg.szwego.com/20230308/i1678251085_6314_2.jpg","https://xcimg.szwego.com/20230308/i1678251085_9997_3.jpg","https://xcimg.szwego.com/20230308/i1678251085_9663_4.jpg","https://xcimg.szwego.com/20230308/i1678251085_884_5.jpg"],"created_at":"2025-01-20T12:46:12.749Z"},{"id":"item-ac7985c7c3d0","sku":"_d8t8t3KqT1BF0-StdDOF3jvEWaENJZdtU7Af6wg","name_en":"Burberry Women Bags","name_cn":"新品\n【配盒】巴宝莉TB bag,TB专属标识锁扣设计包包,没有过于繁复的设计,简单又经典,恰到好处的容纳度,诠释摩登与传统的优雅交融,契合日常生活中各式各样的穿搭,收获了大批明星时尚icon的喜爱!!\n尺寸21-7-14CM","specs":{"source":"wsxcme","sourceId":"_d8t8t3KqT1BF0-StdDOF3jvEWaENJZdtU7Af6wg","sourceTagId":80411239,"sourceTagName":"巴宝莉/女包","rawTitle":"新品\n【配盒】巴宝莉TB bag,TB专属标识锁扣设计包包,没有过于繁复的设计,简单又经典,恰到好处的容纳度,诠释摩登与传统的优雅交融,契合日常生活中各式各样的穿搭,收获了大批明星时尚icon的喜爱!!\n尺寸21-7-14CM"},"price":null,"currency":"CNY","moq":1,"category":"burberry-women-bags","status":"active","alibaba_url":null,"images":["https://xcimg.szwego.com/20230320/i1679252489_600_0.jpg","https://xcimg.szwego.com/20230320/i1679252489_3691_1.jpg","https://xcimg.szwego.com/20230320/i1679252489_975_2.jpg","https://xcimg.szwego.com/20230320/i1679252489_4956_3.jpg","https://xcimg.szwego.com/20230320/i1679252489_5771_4.jpg","https://xcimg.szwego.com/20230320/i1679252489_7833_5.jpg","https://xcimg.szwego.com/20230320/i1679252489_6485_6.jpg","https://xcimg.szwego.com/20230320/i1679252489_2045_7.jpg","https://xcimg.szwego.com/20230320/i1679252489_8468_8.jpg"],"created_at":"2025-02-08T12:43:27.841Z"},{"id":"item-ac424d8f1cf9","sku":"_dQhQhxwRv8oNvHpNsXzTOpGEL-nXo1tePrBVjiQ","name_en":"Burberry Women Bags","name_cn":"现货","specs":{"source":"wsxcme","sourceId":"_dQhQhxwRv8oNvHpNsXzTOpGEL-nXo1tePrBVjiQ","sourceTagId":80411239,"sourceTagName":"巴宝莉/女包","rawTitle":"现货"},"price":null,"currency":"CNY","moq":1,"category":"burberry-women-bags","status":"active","alibaba_url":null,"images":["https://xcimg.szwego.com/img/d5e7a5ce/20250908/a1757318573223_8232.jpg","https://xcimg.szwego.com/img/d5e7a5ce/20250908/a1757318573186_3154.jpg","https://xcimg.szwego.com/img/d5e7a5ce/20250908/a1757318573177_4755.jpg","https://xcimg.szwego.com/img/d5e7a5ce/20250908/a1757318573169_0725.jpg","https://xcimg.szwego.com/img/d5e7a5ce/20250908/a1757318573173_6730.jpg","https://xcimg.szwego.com/img/d5e7a5ce/20250908/a1757318573174_0328.jpg","https://xcimg.szwego.com/img/d5e7a5ce/20250908/a1757318573671_4436.jpg","https://xcimg.szwego.com/img/d5e7a5ce/20250908/a1757318573667_5188.jpg","https://xcimg.szwego.com/img/d5e7a5ce/20250908/a1757318573668_8618.jpg"],"created_at":"2026-06-29T10:27:58.502Z"},{"id":"item-ac0a8915855d","sku":"_daUaUwlJlzwOziT2-RsJFYpKynWe740wVdMs_ng","name_en":"Burberry Women Bags","name_cn":"上身效果图!","specs":{"source":"wsxcme","sourceId":"_daUaUwlJlzwOziT2-RsJFYpKynWe740wVdMs_ng","sourceTagId":80411239,"sourceTagName":"巴宝莉/女包","rawTitle":"上身效果图!"},"price":null,"currency":"CNY","moq":1,"category":"burberry-women-bags","status":"active","alibaba_url":null,"images":["https://xcimg.szwego.com/20220323/i1648017832_6133_0.jpg","https://xcimg.szwego.com/20220323/i1648017832_7917_1.jpg","https://xcimg.szwego.com/20220323/i1648017832_3977_2.jpg","https://xcimg.szwego.com/20220323/i1648017832_4128_3.jpg","https://xcimg.szwego.com/20220323/i1648017832_9230_4.jpg"],"created_at":"2026-06-29T10:27:59.152Z"},{"id":"item-aa21d7df55e1","sku":"_dhHhH2wcmj1SADIG4kAkRd63Fv68lC3Kdf00UyQ","name_en":"Burberry Women Bags","name_cn":"❤️小号!黑色条纹!柔软立挺的肩背包,(专柜这样形容)咱家也是一致的 既柔软又立挺👍🌹\n可不像别家硬邦邦的🤭\n选用棉质斜纹面料打造。于意大利工坊匠制而成,装饰精纺 Bur 格纹。采用无内衬设计,质地轻盈。融入光滑小牛皮饰边,搭配可拆式拉链收纳袋。来自 Bur经典之作系列,以鲜明品牌风格诠释衣橱必备款式。人见人爱👍😘\n 长26.5 x 宽13.5 x 高(袋身高)23cm.","specs":{"source":"wsxcme","sourceId":"_dhHhH2wcmj1SADIG4kAkRd63Fv68lC3Kdf00UyQ","sourceTagId":80411239,"sourceTagName":"巴宝莉/女包","rawTitle":"❤️小号!黑色条纹!柔软立挺的肩背包,(专柜这样形容)咱家也是一致的 既柔软又立挺👍🌹\n可不像别家硬邦邦的🤭\n选用棉质斜纹面料打造。于意大利工坊匠制而成,装饰精纺 Bur 格纹。采用无内衬设计,质地轻盈。融入光滑小牛皮饰边,搭配可拆式拉链收纳袋。来自 Bur经典之作系列,以鲜明品牌风格诠释衣橱必备款式。人见人爱👍😘\n 长26.5 x 宽13.5 x 高(袋身高)23cm."},"price":null,"currency":"CNY","moq":1,"category":"burberry-women-bags","status":"active","alibaba_url":null,"images":["https://xcimg.szwego.com/img/d5e7a5ce/20250304/a1741079842816_3771.jpg","https://xcimg.szwego.com/img/d5e7a5ce/20250304/a1741079842822_0446.jpg","https://xcimg.szwego.com/img/d5e7a5ce/20250304/a1741079842819_1431.jpg","https://xcimg.szwego.com/img/d5e7a5ce/20250304/a1741079842817_4833.jpg","https://xcimg.szwego.com/img/d5e7a5ce/20250304/a1741079842820_2176.jpg","https://xcimg.szwego.com/img/d5e7a5ce/20250304/a1741079842819_4280.jpg","https://xcimg.szwego.com/img/d5e7a5ce/20250304/a1741079843745_5432.jpg","https://xcimg.szwego.com/img/d5e7a5ce/20250304/a1741079843747_0332.jpg","https://xcimg.szwego.com/img/d5e7a5ce/20250304/a1741079843748_7516.jpg"],"created_at":"2026-06-29T10:29:02.789Z"},{"id":"item-a8d466b467f2","sku":"_dmTmT6jyyxMeIPJzxkggNDmh73XqvAqDXLr7rdw","name_en":"Burberry Women Bags","name_cn":"官网图","specs":{"source":"wsxcme","sourceId":"_dmTmT6jyyxMeIPJzxkggNDmh73XqvAqDXLr7rdw","sourceTagId":80411239,"sourceTagName":"巴宝莉/女包","rawTitle":"官网图"},"price":null,"currency":"CNY","moq":1,"category":"burberry-women-bags","status":"active","alibaba_url":null,"images":["https://xcimg.szwego.com/20220323/i1648017754_2217_0.jpg","https://xcimg.szwego.com/20220323/i1648017754_5936_1.jpg","https://xcimg.szwego.com/20220323/i1648017754_5210_2.jpg","https://xcimg.szwego.com/20220323/i1648017754_4327_3.jpg","https://xcimg.szwego.com/20220323/i1648017764_3641_0.jpg"],"created_at":"2026-06-29T10:27:59.132Z"},{"id":"item-a67634d7397d","sku":"_d1a1a1_WwOhN1eaV5tSFZvhPTbyZDvigwwnIQaw","name_en":"Burberry Women Bags","name_cn":"#上身效果图","specs":{"source":"wsxcme","sourceId":"_d1a1a1_WwOhN1eaV5tSFZvhPTbyZDvigwwnIQaw","sourceTagId":80411239,"sourceTagName":"巴宝莉/女包","rawTitle":"#上身效果图"},"price":null,"currency":"CNY","moq":1,"category":"burberry-women-bags","status":"active","alibaba_url":null,"images":["https://xcimg.szwego.com/img/a78c42d4/20231023/i1698043406_6603_0.jpg","https://xcimg.szwego.com/img/a78c42d4/20231023/i1698043406_5420_1.jpg"],"created_at":"2026-06-29T10:29:02.939Z"},{"id":"item-a62df8c2777c","sku":"_d_1_1neB5DEfeli19YTc918HKe46bwGJDuvA8nQ","name_en":"Burberry Women Bags","name_cn":"新品\n【配盒】巴宝莉TB bag,TB专属标识锁扣设计包包,没有过于繁复的设计,简单又经典,恰到好处的容纳度,诠释摩登与传统的优雅交融,契合日常生活中各式各样的穿搭,收获了大批明星时尚icon的喜爱!!\n尺寸21-7-14CM","specs":{"source":"wsxcme","sourceId":"_d_1_1neB5DEfeli19YTc918HKe46bwGJDuvA8nQ","sourceTagId":80411239,"sourceTagName":"巴宝莉/女包","rawTitle":"新品\n【配盒】巴宝莉TB bag,TB专属标识锁扣设计包包,没有过于繁复的设计,简单又经典,恰到好处的容纳度,诠释摩登与传统的优雅交融,契合日常生活中各式各样的穿搭,收获了大批明星时尚icon的喜爱!!\n尺寸21-7-14CM"},"price":null,"currency":"CNY","moq":1,"category":"burberry-women-bags","status":"active","alibaba_url":null,"images":["https://xcimg.szwego.com/20230320/i1679251593_3886_0.jpg","https://xcimg.szwego.com/20230320/i1679251593_823_1.jpg","https://xcimg.szwego.com/20230320/i1679251593_2327_2.jpg","https://xcimg.szwego.com/20230320/i1679251593_8732_3.jpg","https://xcimg.szwego.com/20230320/i1679251593_2907_4.jpg","https://xcimg.szwego.com/20230320/i1679251593_4603_5.jpg","https://xcimg.szwego.com/20230320/i1679251593_2134_6.jpg","https://xcimg.szwego.com/20230320/i1679251593_6609_7.jpg","https://xcimg.szwego.com/20230320/i1679251593_2167_8.jpg"],"created_at":"2025-02-08T12:43:27.843Z"},{"id":"item-a55a3c09c0eb","sku":"_do4o4xvAslA5HC4FAHM7f3B74p3zT7yBjfGnW_Q","name_en":"Burberry Women Bags","name_cn":"巴宝莉【8871】大号\n精巧的「Title - 泰尔勒手袋」,精选典藏 Vintage 复古格纹裁片打造,装饰光滑皮革边饰与三粒铆钉。可用顶部提柄手拎,或以可拆式背带缔造肩背造型。32 x 15 x 25cm","specs":{"source":"wsxcme","sourceId":"_do4o4xvAslA5HC4FAHM7f3B74p3zT7yBjfGnW_Q","sourceTagId":80411239,"sourceTagName":"巴宝莉/女包","rawTitle":"巴宝莉【8871】大号\n精巧的「Title - 泰尔勒手袋」,精选典藏 Vintage 复古格纹裁片打造,装饰光滑皮革边饰与三粒铆钉。可用顶部提柄手拎,或以可拆式背带缔造肩背造型。32 x 15 x 25cm"},"price":null,"currency":"CNY","moq":1,"category":"burberry-women-bags","status":"active","alibaba_url":null,"images":["https://xcimg.szwego.com/20200723/a1595519862894_5120.jpg","https://xcimg.szwego.com/20200723/a1595519863338_2846.jpg","https://xcimg.szwego.com/20200723/a1595519863814_5131.jpg","https://xcimg.szwego.com/20200723/a1595519864199_2770.jpg","https://xcimg.szwego.com/20200723/a1595519864822_5170.jpg","https://xcimg.szwego.com/20200723/a1595519865186_7064.jpg","https://xcimg.szwego.com/20200723/a1595519865573_5648.jpg","https://xcimg.szwego.com/20200723/a1595519866002_7124.jpg","https://xcimg.szwego.com/20200723/a1595519866401_3815.jpg"],"created_at":"2025-02-08T12:43:27.837Z"},{"id":"item-a1ec0f8976f0","sku":"_dukukw-k4E3UV0j8acOLz7LOMOM6Ix3OVZSrjtQ","name_en":"Burberry Women Bags","name_cn":"官网图","specs":{"source":"wsxcme","sourceId":"_dukukw-k4E3UV0j8acOLz7LOMOM6Ix3OVZSrjtQ","sourceTagId":80411239,"sourceTagName":"巴宝莉/女包","rawTitle":"官网图"},"price":null,"currency":"CNY","moq":1,"category":"burberry-women-bags","status":"active","alibaba_url":null,"images":["https://xcimg.szwego.com/img/d5e7a5ce/20250530/a1748585166067_0102.jpg","https://xcimg.szwego.com/img/d5e7a5ce/20250530/a1748585166070_6177.jpg","https://xcimg.szwego.com/img/d5e7a5ce/20250530/a1748585166072_5214.jpg","https://xcimg.szwego.com/img/d5e7a5ce/20250530/a1748585166073_1156.jpg","https://xcimg.szwego.com/img/d5e7a5ce/20250530/a1748585166073_6400.jpg"],"created_at":"2026-06-29T10:27:58.632Z"},{"id":"item-a1183b5527c8","sku":"_dKdKdLhnRd36q36YChkxZysAcg68Nzq8qSiDjCw","name_en":"Burberry Women Bags","name_cn":"巴宝莉/女包","specs":{"source":"wsxcme","sourceId":"_dKdKdLhnRd36q36YChkxZysAcg68Nzq8qSiDjCw","sourceTagId":80411239,"sourceTagName":"巴宝莉/女包","rawTitle":""},"price":null,"currency":"CNY","moq":1,"category":"burberry-women-bags","status":"active","alibaba_url":null,"images":["https://xcimg.szwego.com/img/d5e7a5ce/20250530/a1748583482251_6675.jpg"],"created_at":"2026-06-29T10:27:58.782Z"},{"id":"item-902eea35215a","sku":"_dhwhwozm4ZaZJJqtRqYswzmzPwmzNpnJzgWfu7g","name_en":"Burberry Women Bags","name_cn":"挂拍细节,很有腔调的一款包,秋冬季大衣风衣的绝配,牛皮搭配战马面料,超有复古感,细节做的非常牛掰,两侧的铆钉设计也是绝了,非常独特的氛围!","specs":{"source":"wsxcme","sourceId":"_dhwhwozm4ZaZJJqtRqYswzmzPwmzNpnJzgWfu7g","sourceTagId":80411239,"sourceTagName":"巴宝莉/女包","rawTitle":"挂拍细节,很有腔调的一款包,秋冬季大衣风衣的绝配,牛皮搭配战马面料,超有复古感,细节做的非常牛掰,两侧的铆钉设计也是绝了,非常独特的氛围!"},"price":null,"currency":"CNY","moq":1,"category":"burberry-women-bags","status":"active","alibaba_url":null,"images":["https://xcimg.szwego.com/20211202/i1638456169_2311_0.jpg","https://xcimg.szwego.com/20211202/i1638456169_2824_1.jpg","https://xcimg.szwego.com/20211202/i1638456169_9942_2.jpg","https://xcimg.szwego.com/20211202/i1638456169_5581_3.jpg","https://xcimg.szwego.com/20211202/i1638456169_2073_4.jpg","https://xcimg.szwego.com/20211202/i1638456169_4281_5.jpg","https://xcimg.szwego.com/20211202/i1638456169_6541_6.jpg","https://xcimg.szwego.com/20211202/i1638456169_7445_7.jpg","https://xcimg.szwego.com/20211202/i1638456169_1802_8.jpg"],"created_at":"2025-01-20T12:46:12.724Z"}],"page":18,"pageSize":24,"total":493,"totalPages":21}
