{"items":[{"id":"item-4a0372d1cbee","sku":"_drFrFjnManIRjOJK85ubUNUnhMadWC3XsFbCdBQ","name_en":"Front view","name_cn":"Front view","specs":{"source":"wsxcme","sourceId":"_drFrFjnManIRjOJK85ubUNUnhMadWC3XsFbCdBQ","sourceTagId":80411239,"sourceTagName":"Burberry/women's bag","rawTitle":"Front view"},"price":null,"currency":"CNY","moq":1,"category":"burberry-women-bags","status":"active","alibaba_url":null,"images":["https://xcimg.szwego.com/img/d5e7a5ce/20251114/a1763099018772_0064.jpg","https://xcimg.szwego.com/img/d5e7a5ce/20251114/a1763099018771_7510.jpg","https://xcimg.szwego.com/img/d5e7a5ce/20251114/a1763099018772_6320.jpg","https://xcimg.szwego.com/img/d5e7a5ce/20251114/a1763099018776_3764.jpg","https://xcimg.szwego.com/img/d5e7a5ce/20251114/a1763099018773_2663.jpg","https://xcimg.szwego.com/img/d5e7a5ce/20251114/a1763099018775_6765.jpg","https://xcimg.szwego.com/img/d5e7a5ce/20251114/a1763099019284_6465.jpg","https://xcimg.szwego.com/img/d5e7a5ce/20251114/a1763099019286_3068.jpg","https://xcimg.szwego.com/img/d5e7a5ce/20251114/a1763099019287_0530.jpg"],"created_at":"2026-06-29T10:27:58.542Z"},{"id":"item-3cf103941cd6","sku":"_dbkbkLR1DxgxeFJt7G0Lr_xRLx9DdU9snQiJjxw","name_en":"Front view","name_cn":"Front view","specs":{"source":"wsxcme","sourceId":"_dbkbkLR1DxgxeFJt7G0Lr_xRLx9DdU9snQiJjxw","sourceTagId":80411239,"sourceTagName":"Burberry/women's bag","rawTitle":"Front view"},"price":null,"currency":"CNY","moq":1,"category":"burberry-women-bags","status":"active","alibaba_url":null,"images":["https://xcimg.szwego.com/img/d5e7a5ce/20251115/a1763194294097_5771.jpg","https://xcimg.szwego.com/img/d5e7a5ce/20251115/a1763194294095_0384.jpg","https://xcimg.szwego.com/img/d5e7a5ce/20251115/a1763194294095_8631.jpg","https://xcimg.szwego.com/img/d5e7a5ce/20251115/a1763194294098_0116.jpg","https://xcimg.szwego.com/img/d5e7a5ce/20251115/a1763194294106_1781.jpg","https://xcimg.szwego.com/img/d5e7a5ce/20251115/a1763194294103_4835.jpg","https://xcimg.szwego.com/img/d5e7a5ce/20251115/a1763194294669_7807.jpg","https://xcimg.szwego.com/img/d5e7a5ce/20251115/a1763194294670_3304.jpg","https://xcimg.szwego.com/img/d5e7a5ce/20251115/a1763194294671_4165.jpg"],"created_at":"2026-06-29T10:29:02.969Z"},{"id":"item-24e6c4e4e0d0","sku":"_dBCBCq7PAH9U-6FKzDp8PJZvGaaQDjYuktdSqlQ","name_en":"Front view","name_cn":"Front view","specs":{"source":"wsxcme","sourceId":"_dBCBCq7PAH9U-6FKzDp8PJZvGaaQDjYuktdSqlQ","sourceTagId":80411239,"sourceTagName":"Burberry/women's bag","rawTitle":"Front view"},"price":null,"currency":"CNY","moq":1,"category":"burberry-women-bags","status":"active","alibaba_url":null,"images":["https://xcimg.szwego.com/img/d5e7a5ce/20250404/a1743750549097_3431.jpg","https://xcimg.szwego.com/img/d5e7a5ce/20250404/a1743750549131_6164.jpg","https://xcimg.szwego.com/img/d5e7a5ce/20250404/a1743750549129_6701.jpg","https://xcimg.szwego.com/img/d5e7a5ce/20250404/a1743750549103_7802.jpg","https://xcimg.szwego.com/img/d5e7a5ce/20250404/a1743750549108_1535.jpg","https://xcimg.szwego.com/img/d5e7a5ce/20250404/a1743750549112_2288.jpg","https://xcimg.szwego.com/img/d5e7a5ce/20250404/a1743750549970_5085.jpg","https://xcimg.szwego.com/img/d5e7a5ce/20250404/a1743750549969_8375.jpg","https://xcimg.szwego.com/img/d5e7a5ce/20250404/a1743750549967_0256.jpg"],"created_at":"2026-06-29T10:27:58.712Z"},{"id":"item-2328b956e218","sku":"_dxSxS7QVLIwiHQ1OK-_4YIu0euyDBjBzqHqJDyw","name_en":"Front view","name_cn":"Front view","specs":{"source":"wsxcme","sourceId":"_dxSxS7QVLIwiHQ1OK-_4YIu0euyDBjBzqHqJDyw","sourceTagId":80411239,"sourceTagName":"Burberry/women's bag","rawTitle":"Front view"},"price":null,"currency":"CNY","moq":1,"category":"burberry-women-bags","status":"active","alibaba_url":null,"images":["https://xcimg.szwego.com/img/d5e7a5ce/20250915/a1757934133263_5885.jpg","https://xcimg.szwego.com/img/d5e7a5ce/20250915/a1757934133265_5425.jpg","https://xcimg.szwego.com/img/d5e7a5ce/20250915/a1757934133261_6076.jpg","https://xcimg.szwego.com/img/d5e7a5ce/20250915/a1757934133268_0773.jpg","https://xcimg.szwego.com/img/d5e7a5ce/20250915/a1757934133267_0067.jpg","https://xcimg.szwego.com/img/d5e7a5ce/20250915/a1757934133266_6264.jpg","https://xcimg.szwego.com/img/d5e7a5ce/20250915/a1757934137112_4644.jpg","https://xcimg.szwego.com/img/d5e7a5ce/20250915/a1757934137121_8426.jpg","https://xcimg.szwego.com/img/d5e7a5ce/20250915/a1757934137119_3731.jpg"],"created_at":"2026-06-29T10:27:58.762Z"},{"id":"item-0f32f708379c","sku":"_ds2s2ozVKtLRhuz0fLZ3wk2S5rFcJdR-TKIz88A","name_en":"Front view","name_cn":"Front view","specs":{"source":"wsxcme","sourceId":"_ds2s2ozVKtLRhuz0fLZ3wk2S5rFcJdR-TKIz88A","sourceTagId":80411239,"sourceTagName":"Burberry/women's bag","rawTitle":"Front view"},"price":null,"currency":"CNY","moq":1,"category":"burberry-women-bags","status":"active","alibaba_url":null,"images":["https://xcimg.szwego.com/img/d5e7a5ce/20251114/a1763099309940_2671.jpg","https://xcimg.szwego.com/img/d5e7a5ce/20251114/a1763099309946_1645.jpg","https://xcimg.szwego.com/img/d5e7a5ce/20251114/a1763099309942_7685.jpg","https://xcimg.szwego.com/img/d5e7a5ce/20251114/a1763099309945_8188.jpg","https://xcimg.szwego.com/img/d5e7a5ce/20251114/a1763099309943_2830.jpg","https://xcimg.szwego.com/img/d5e7a5ce/20251114/a1763099309944_5087.jpg","https://xcimg.szwego.com/img/d5e7a5ce/20251114/a1763099310475_2120.jpg","https://xcimg.szwego.com/img/d5e7a5ce/20251114/a1763099310475_2447.jpg","https://xcimg.szwego.com/img/d5e7a5ce/20251114/a1763099310474_5853.jpg"],"created_at":"2026-06-29T10:29:03.029Z"},{"id":"item-09791cf52dad","sku":"_dv3v3aDa-OtggvDXQQxzNS4hXSvaoz-GO51ea0Q","name_en":"Front view","name_cn":"Front view","specs":{"source":"wsxcme","sourceId":"_dv3v3aDa-OtggvDXQQxzNS4hXSvaoz-GO51ea0Q","sourceTagId":80411239,"sourceTagName":"Burberry/women's bag","rawTitle":"Front view"},"price":null,"currency":"CNY","moq":1,"category":"burberry-women-bags","status":"active","alibaba_url":null,"images":["https://xcimg.szwego.com/img/d5e7a5ce/20231002/a1696228500460_6556.jpg","https://xcimg.szwego.com/img/d5e7a5ce/20231002/a1696228500461_5754.jpg","https://xcimg.szwego.com/img/d5e7a5ce/20231002/a1696228500462_2865.jpg","https://xcimg.szwego.com/img/d5e7a5ce/20231002/a1696228500463_7535.jpg","https://xcimg.szwego.com/img/d5e7a5ce/20231002/a1696228500464_1603.jpg","https://xcimg.szwego.com/img/d5e7a5ce/20231002/a1696228500537_6162.jpg","https://xcimg.szwego.com/img/d5e7a5ce/20231002/a1696228500583_2450.jpg","https://xcimg.szwego.com/img/d5e7a5ce/20231002/a1696228500628_6437.jpg"],"created_at":"2025-01-20T12:46:12.785Z"},{"id":"item-56fe8614adcf","sku":"_dixix2fsAsMUjBUfLN7khjlhyV182cuOnwX2cMQ","name_en":"Gotswolds Check Tote","name_cn":"Gotswolds Check Tote\n24.5 x 13 x 19.5cm\n30.5 × 13 × 22.5cm","specs":{"source":"wsxcme","sourceId":"_dixix2fsAsMUjBUfLN7khjlhyV182cuOnwX2cMQ","sourceTagId":80411239,"sourceTagName":"Burberry/women's bag","dimensions":{"lengthCm":26.5,"heightCm":13.5,"widthCm":46.5},"rawTitle":"Gotswolds Check Tote\n24.5 x 13 x 19.5cm\n30.5 × 13 × 22.5cm"},"price":null,"currency":"CNY","moq":1,"category":"burberry-women-bags","status":"active","alibaba_url":null,"images":["https://xcimg.szwego.com/imgHD/b7f85c57/20260330/cmp_i1774850622064_3054_0_0.jpg","https://xcimg.szwego.com/imgHD/b7f85c57/20260330/cmp_i1774850622059_8958_0_1.jpg","https://xcimg.szwego.com/imgHD/b7f85c57/20260330/cmp_i1774850687810_1317_0_2.jpg","https://xcimg.szwego.com/imgHD/b7f85c57/20260330/cmp_i1774850622412_6626_0_3.jpg","https://xcimg.szwego.com/imgHD/b7f85c57/20260330/cmp_i1774850621929_6677_0_4.jpg","https://xcimg.szwego.com/imgHD/b7f85c57/20260330/cmp_i1774850621515_8718_0_5.jpg","https://xcimg.szwego.com/imgHD/b7f85c57/20260330/cmp_i1774850687857_803_0_6.jpg","https://xcimg.szwego.com/imgHD/b7f85c57/20260330/cmp_i1774850687437_2774_0_7.jpg","https://xcimg.szwego.com/imgHD/b7f85c57/20260330/cmp_i1774850590917_1656_0_8.jpg"],"created_at":"2026-06-29T10:29:02.659Z"},{"id":"item-318c5e528529","sku":"_d_U_UC-SpLaoqwF1vD83SCATKa_LrNRaNWr-8ug","name_en":"Gotswolds Plaid Tote","name_cn":"Gotswolds Plaid Tote\n24.5 x 13 x 19.5cm\n30.5 × 13 × 22.5cm","specs":{"source":"wsxcme","sourceId":"_d_U_UC-SpLaoqwF1vD83SCATKa_LrNRaNWr-8ug","sourceTagId":80411239,"sourceTagName":"Burberry/women's bag","rawTitle":"Gotswolds Plaid Tote\n24.5 x 13 x 19.5cm\n30.5 × 13 × 22.5cm"},"price":null,"currency":"CNY","moq":1,"category":"burberry-women-bags","status":"active","alibaba_url":null,"images":["https://xcimg.szwego.com/imgHD/b7f85c57/20260531/cmp_i1780201145675_7165_0_0.jpg","https://xcimg.szwego.com/imgHD/b7f85c57/20260531/cmp_i1780201143354_788_0_1.jpg","https://xcimg.szwego.com/imgHD/b7f85c57/20260531/cmp_i1780201143329_614_0_2.jpg","https://xcimg.szwego.com/imgHD/b7f85c57/20260531/cmp_i1780201143366_8586_0_3.jpg","https://xcimg.szwego.com/imgHD/b7f85c57/20260531/cmp_i1780201143322_859_0_4.jpg","https://xcimg.szwego.com/imgHD/b7f85c57/20260531/cmp_i1780201143290_846_0_5.jpg"],"created_at":"2026-06-29T10:29:02.639Z"},{"id":"item-e1dfc0239d64","sku":"_dt8t8wrk_R9Ll0g-8PhMaKha0PTEfjTQfFi3-CA","name_en":"height ! length !","name_cn":"height ! length !","specs":{"source":"wsxcme","sourceId":"_dt8t8wrk_R9Ll0g-8PhMaKha0PTEfjTQfFi3-CA","sourceTagId":80411239,"sourceTagName":"Burberry/women's bag","rawTitle":"height ! length !"},"price":null,"currency":"CNY","moq":1,"category":"burberry-women-bags","status":"active","alibaba_url":null,"images":["https://xcimg.szwego.com/img/044b8f29/20241220/i1734681801_1605_8.jpg","https://xcimg.szwego.com/img/044b8f29/20241220/i1734681801_6001_4.jpg","https://xcimg.szwego.com/img/044b8f29/20241220/i1734681801_806_1.jpg","https://xcimg.szwego.com/img/044b8f29/20241220/i1734681801_6437_2.jpg","https://xcimg.szwego.com/img/044b8f29/20241220/i1734681801_920_7.jpg","https://xcimg.szwego.com/img/044b8f29/20241220/i1734681801_8155_3.jpg","https://xcimg.szwego.com/img/044b8f29/20241220/i1734681801_1213_5.jpg","https://xcimg.szwego.com/img/044b8f29/20241220/i1734681801_2927_6.jpg","https://xcimg.szwego.com/img/044b8f29/20241220/i1734681801_3349_0.jpg"],"created_at":"2026-06-29T10:27:58.872Z"},{"id":"item-d3903e4f0d56","sku":"_dU_U_iFpiWEwuv5sg3EiQHKkkIAy3m_Y0ZQzvbQ","name_en":"In stock","name_cn":"In stock","specs":{"source":"wsxcme","sourceId":"_dU_U_iFpiWEwuv5sg3EiQHKkkIAy3m_Y0ZQzvbQ","sourceTagId":80411239,"sourceTagName":"Burberry/women's bag","rawTitle":"In stock"},"price":null,"currency":"CNY","moq":1,"category":"burberry-women-bags","status":"active","alibaba_url":null,"images":["https://xcimg.szwego.com/img/d5e7a5ce/20251105/a1762313700380_5413.jpg","https://xcimg.szwego.com/img/d5e7a5ce/20251105/a1762313700381_5553.jpg","https://xcimg.szwego.com/img/d5e7a5ce/20251105/a1762313700383_0416.jpg","https://xcimg.szwego.com/img/d5e7a5ce/20251105/a1762313700382_5222.jpg","https://xcimg.szwego.com/img/d5e7a5ce/20251105/a1762313700382_5630.jpg","https://xcimg.szwego.com/img/d5e7a5ce/20251105/a1762313700384_0562.jpg","https://xcimg.szwego.com/img/d5e7a5ce/20251105/a1762313701022_1140.jpg","https://xcimg.szwego.com/img/d5e7a5ce/20251105/a1762313701019_4651.jpg","https://xcimg.szwego.com/img/d5e7a5ce/20251105/a1762313701022_8775.jpg"],"created_at":"2026-06-29T10:27:58.912Z"},{"id":"item-ac424d8f1cf9","sku":"_dQhQhxwRv8oNvHpNsXzTOpGEL-nXo1tePrBVjiQ","name_en":"In stock","name_cn":"In stock","specs":{"source":"wsxcme","sourceId":"_dQhQhxwRv8oNvHpNsXzTOpGEL-nXo1tePrBVjiQ","sourceTagId":80411239,"sourceTagName":"Burberry/women's bag","rawTitle":"In stock"},"price":null,"currency":"CNY","moq":1,"category":"burberry-women-bags","status":"active","alibaba_url":null,"images":["https://xcimg.szwego.com/img/d5e7a5ce/20250908/a1757318573223_8232.jpg","https://xcimg.szwego.com/img/d5e7a5ce/20250908/a1757318573186_3154.jpg","https://xcimg.szwego.com/img/d5e7a5ce/20250908/a1757318573177_4755.jpg","https://xcimg.szwego.com/img/d5e7a5ce/20250908/a1757318573169_0725.jpg","https://xcimg.szwego.com/img/d5e7a5ce/20250908/a1757318573173_6730.jpg","https://xcimg.szwego.com/img/d5e7a5ce/20250908/a1757318573174_0328.jpg","https://xcimg.szwego.com/img/d5e7a5ce/20250908/a1757318573671_4436.jpg","https://xcimg.szwego.com/img/d5e7a5ce/20250908/a1757318573667_5188.jpg","https://xcimg.szwego.com/img/d5e7a5ce/20250908/a1757318573668_8618.jpg"],"created_at":"2026-06-29T10:27:58.502Z"},{"id":"item-6c651953758d","sku":"_dS5S5_BN3XMzEGKaJDGhwmCj5mg4-sQiPe-1YDg","name_en":"In stock","name_cn":"In stock","specs":{"source":"wsxcme","sourceId":"_dS5S5_BN3XMzEGKaJDGhwmCj5mg4-sQiPe-1YDg","sourceTagId":80411239,"sourceTagName":"Burberry/women's bag","rawTitle":"In stock"},"price":null,"currency":"CNY","moq":1,"category":"burberry-women-bags","status":"active","alibaba_url":null,"images":["https://xcimg.szwego.com/img/d5e7a5ce/20251105/a1762314519120_5185.jpg","https://xcimg.szwego.com/img/d5e7a5ce/20251105/a1762314519125_1221.jpg","https://xcimg.szwego.com/img/d5e7a5ce/20251105/a1762314519122_8785.jpg","https://xcimg.szwego.com/img/d5e7a5ce/20251105/a1762314519118_1760.jpg","https://xcimg.szwego.com/img/d5e7a5ce/20251105/a1762314519119_6406.jpg","https://xcimg.szwego.com/img/d5e7a5ce/20251105/a1762314519124_1514.jpg","https://xcimg.szwego.com/img/d5e7a5ce/20251105/a1762314519568_1364.jpg","https://xcimg.szwego.com/img/d5e7a5ce/20251105/a1762314519569_3447.jpg","https://xcimg.szwego.com/img/d5e7a5ce/20251105/a1762314519570_4052.jpg"],"created_at":"2026-06-29T10:27:59.032Z"},{"id":"item-5d158130fe4c","sku":"_dHrHrsdX-3Ru1eu0C7HKNzzvVGjkK5-WwYzbguQ","name_en":"In stock","name_cn":"In stock","specs":{"source":"wsxcme","sourceId":"_dHrHrsdX-3Ru1eu0C7HKNzzvVGjkK5-WwYzbguQ","sourceTagId":80411239,"sourceTagName":"Burberry/women's bag","rawTitle":"In stock"},"price":null,"currency":"CNY","moq":1,"category":"burberry-women-bags","status":"active","alibaba_url":null,"images":["https://xcimg.szwego.com/img/d5e7a5ce/20251114/a1763099167415_2576.jpg","https://xcimg.szwego.com/img/d5e7a5ce/20251114/a1763099167417_5148.jpg","https://xcimg.szwego.com/img/d5e7a5ce/20251114/a1763099167417_4832.jpg"],"created_at":"2026-06-29T10:27:58.602Z"},{"id":"item-58e350867cdf","sku":"_dIUIUOdoRDxsdrOt9z8ECpcXcJM3tKer3mckazA","name_en":"In stock","name_cn":"In stock","specs":{"source":"wsxcme","sourceId":"_dIUIUOdoRDxsdrOt9z8ECpcXcJM3tKer3mckazA","sourceTagId":80411239,"sourceTagName":"Burberry/women's bag","rawTitle":"In stock"},"price":null,"currency":"CNY","moq":1,"category":"burberry-women-bags","status":"active","alibaba_url":null,"images":["https://xcimg.szwego.com/img/d5e7a5ce/20250908/a1757318236921_4133.jpg","https://xcimg.szwego.com/img/d5e7a5ce/20250908/a1757318236872_5017.jpg","https://xcimg.szwego.com/img/d5e7a5ce/20250908/a1757318236863_0528.jpg","https://xcimg.szwego.com/img/d5e7a5ce/20250908/a1757318236867_7155.jpg","https://xcimg.szwego.com/img/d5e7a5ce/20250908/a1757318236858_6072.jpg","https://xcimg.szwego.com/img/d5e7a5ce/20250908/a1757318236924_0814.jpg","https://xcimg.szwego.com/img/d5e7a5ce/20250908/a1757318237618_7744.jpg","https://xcimg.szwego.com/img/d5e7a5ce/20250908/a1757318237616_2271.jpg","https://xcimg.szwego.com/img/d5e7a5ce/20250908/a1757318237619_4313.jpg"],"created_at":"2026-06-29T10:27:58.422Z"},{"id":"item-3a8b308791b1","sku":"_dJwJwskEp4qPh5HDqu_246xmlyAKT5zh5KPrOeQ","name_en":"In stock","name_cn":"In stock","specs":{"source":"wsxcme","sourceId":"_dJwJwskEp4qPh5HDqu_246xmlyAKT5zh5KPrOeQ","sourceTagId":80411239,"sourceTagName":"Burberry/women's bag","rawTitle":"In stock"},"price":null,"currency":"CNY","moq":1,"category":"burberry-women-bags","status":"active","alibaba_url":null,"images":["https://xcimg.szwego.com/img/d5e7a5ce/20251105/a1762314496226_1165.jpg","https://xcimg.szwego.com/img/d5e7a5ce/20251105/a1762314496225_4605.jpg","https://xcimg.szwego.com/img/d5e7a5ce/20251105/a1762314496227_1438.jpg","https://xcimg.szwego.com/img/d5e7a5ce/20251105/a1762314496229_1843.jpg","https://xcimg.szwego.com/img/d5e7a5ce/20251105/a1762314496228_2381.jpg","https://xcimg.szwego.com/img/d5e7a5ce/20251105/a1762314496228_4156.jpg","https://xcimg.szwego.com/img/d5e7a5ce/20251105/a1762314496789_0424.jpg","https://xcimg.szwego.com/img/d5e7a5ce/20251105/a1762314496785_4853.jpg"],"created_at":"2026-06-29T10:27:59.022Z"},{"id":"item-0b5e58d76825","sku":"_dohohE1IVb9_E5Y_zuGInDh0nQpoXyLQTdlk67w","name_en":"In stock","name_cn":"In stock","specs":{"source":"wsxcme","sourceId":"_dohohE1IVb9_E5Y_zuGInDh0nQpoXyLQTdlk67w","sourceTagId":80411239,"sourceTagName":"Burberry/women's bag","rawTitle":"In stock"},"price":null,"currency":"CNY","moq":1,"category":"burberry-women-bags","status":"active","alibaba_url":null,"images":["https://xcimg.szwego.com/img/d5e7a5ce/20250908/a1757318590969_7665.jpg","https://xcimg.szwego.com/img/d5e7a5ce/20250908/a1757318590971_4807.jpg","https://xcimg.szwego.com/img/d5e7a5ce/20250908/a1757318590972_7751.jpg"],"created_at":"2026-06-29T10:27:58.512Z"},{"id":"item-af9a6198346c","sku":"_dMfMfsQJ20dVTUvF8nEJvNsngwSkK5YaONHKaZg","name_en":"Includes original box","name_cn":"Includes original box","specs":{"source":"wsxcme","sourceId":"_dMfMfsQJ20dVTUvF8nEJvNsngwSkK5YaONHKaZg","sourceTagId":80411239,"sourceTagName":"Burberry/women's bag","rawTitle":"Includes original box"},"price":null,"currency":"CNY","moq":1,"category":"burberry-women-bags","status":"active","alibaba_url":null,"images":["https://xcimg.szwego.com/imgHD/b7f85c57/20260330/cmp_i1774850681435_1008_0_0.jpg","https://xcimg.szwego.com/imgHD/b7f85c57/20260330/cmp_i1774850681444_298_0_1.jpg","https://xcimg.szwego.com/imgHD/b7f85c57/20260330/cmp_i1774850681441_8247_0_2.jpg"],"created_at":"2026-06-29T10:29:02.669Z"},{"id":"item-7f2ed43d045c","sku":"_dMnMnlhnFh761gWHbZlk95PaXC82BlxvfNXCm1w","name_en":"Includes original box","name_cn":"Includes original box","specs":{"source":"wsxcme","sourceId":"_dMnMnlhnFh761gWHbZlk95PaXC82BlxvfNXCm1w","sourceTagId":80411239,"sourceTagName":"Burberry/women's bag","rawTitle":"Includes original box"},"price":null,"currency":"CNY","moq":1,"category":"burberry-women-bags","status":"active","alibaba_url":null,"images":["https://xcimg.szwego.com/imgHD/b7f85c57/20260403/cmp_i1775187829866_9698_0_0.jpg","https://xcimg.szwego.com/imgHD/b7f85c57/20260403/cmp_i1775187829850_156_0_1.jpg","https://xcimg.szwego.com/imgHD/b7f85c57/20260403/cmp_i1775187829816_8841_0_2.jpg","https://xcimg.szwego.com/imgHD/b7f85c57/20260403/cmp_i1775187829860_3542_0_3.jpg"],"created_at":"2026-06-29T10:29:02.759Z"},{"id":"item-1ad6746aa08a","sku":"_deCeC4hYdd6aLnubRvIZny_dHOW4zr-WjucHiGw","name_en":"Includes original box","name_cn":"Includes original box","specs":{"source":"wsxcme","sourceId":"_deCeC4hYdd6aLnubRvIZny_dHOW4zr-WjucHiGw","sourceTagId":80411239,"sourceTagName":"Burberry/women's bag","rawTitle":"Includes original box"},"price":null,"currency":"CNY","moq":1,"category":"burberry-women-bags","status":"active","alibaba_url":null,"images":["https://xcimg.szwego.com/imgHD/b7f85c57/20260330/cmp_i1774850359575_9994_0_0.jpg","https://xcimg.szwego.com/imgHD/b7f85c57/20260330/cmp_i1774850359876_234_0_1.jpg","https://xcimg.szwego.com/imgHD/b7f85c57/20260330/cmp_i1774850359863_6331_0_2.jpg"],"created_at":"2026-06-29T10:29:02.649Z"},{"id":"item-2a7b8260c2a3","sku":"_dd2d2_D1Akk5spI-2Qm6_f1DXZYQ9QhsqhXPNng","name_en":"large","name_cn":"large","specs":{"source":"wsxcme","sourceId":"_dd2d2_D1Akk5spI-2Qm6_f1DXZYQ9QhsqhXPNng","sourceTagId":80411239,"sourceTagName":"Burberry/women's bag","rawTitle":"large"},"price":null,"currency":"CNY","moq":1,"category":"burberry-women-bags","status":"active","alibaba_url":null,"images":["https://xcimg.szwego.com/img/d5e7a5ce/20250304/a1741079654337_8115.jpg","https://xcimg.szwego.com/img/d5e7a5ce/20250304/a1741079654331_0635.jpg","https://xcimg.szwego.com/img/d5e7a5ce/20250304/a1741079654333_8717.jpg","https://xcimg.szwego.com/img/d5e7a5ce/20250304/a1741079654334_3515.jpg","https://xcimg.szwego.com/img/d5e7a5ce/20250304/a1741079654335_7675.jpg","https://xcimg.szwego.com/img/d5e7a5ce/20250304/a1741079654336_0424.jpg","https://xcimg.szwego.com/img/d5e7a5ce/20250304/a1741079656503_1377.jpg","https://xcimg.szwego.com/img/d5e7a5ce/20250304/a1741079656499_2820.jpg"],"created_at":"2026-06-29T10:29:02.779Z"},{"id":"item-d259c9afcc3c","sku":"_dOWOWE6vNFcJa8-1jrIWQeKfIlwRVyLU2HtOWiw","name_en":"Large Sand: Look reference","name_cn":"Large Sand: Look reference","specs":{"source":"wsxcme","sourceId":"_dOWOWE6vNFcJa8-1jrIWQeKfIlwRVyLU2HtOWiw","sourceTagId":80411239,"sourceTagName":"Burberry/women's bag","rawTitle":"Large Sand: Look reference"},"price":null,"currency":"CNY","moq":1,"category":"burberry-women-bags","status":"active","alibaba_url":null,"images":["https://xcimg.szwego.com/img/d5e7a5ce/20250403/a1743668435402_8462.jpg","https://xcimg.szwego.com/img/d5e7a5ce/20250403/a1743668435406_4536.jpg","https://xcimg.szwego.com/img/d5e7a5ce/20250403/a1743668435409_5573.jpg","https://xcimg.szwego.com/img/d5e7a5ce/20250403/a1743668435412_6222.jpg","https://xcimg.szwego.com/img/d5e7a5ce/20250403/a1743668435415_7025.jpg","https://xcimg.szwego.com/img/d5e7a5ce/20250403/a1743668435414_7038.jpg","https://xcimg.szwego.com/img/d5e7a5ce/20250403/a1743668436222_4447.jpg"],"created_at":"2026-06-29T10:27:59.312Z"},{"id":"item-550fcfafc63f","sku":"_dwLwLYyWpY2CqtdbJzQXFtTuNbOYG-pzVNtAmrQ","name_en":"Large Sand: The look is incredibly cool😎","name_cn":"Large Sand: The look is incredibly cool😎","specs":{"source":"wsxcme","sourceId":"_dwLwLYyWpY2CqtdbJzQXFtTuNbOYG-pzVNtAmrQ","sourceTagId":80411239,"sourceTagName":"Burberry/women's bag","rawTitle":"Large Sand: The look is incredibly cool😎"},"price":null,"currency":"CNY","moq":1,"category":"burberry-women-bags","status":"active","alibaba_url":null,"images":["https://xcimg.szwego.com/img/d5e7a5ce/20250304/a1741079645159_6105.jpg","https://xcimg.szwego.com/img/d5e7a5ce/20250304/a1741079645165_1860.jpg","https://xcimg.szwego.com/img/d5e7a5ce/20250304/a1741079645164_5121.jpg","https://xcimg.szwego.com/img/d5e7a5ce/20250304/a1741079645163_8741.jpg","https://xcimg.szwego.com/img/d5e7a5ce/20250304/a1741079645161_8561.jpg","https://xcimg.szwego.com/img/d5e7a5ce/20250304/a1741079645167_1423.jpg","https://xcimg.szwego.com/img/d5e7a5ce/20250304/a1741079645908_1181.jpg","https://xcimg.szwego.com/img/d5e7a5ce/20250304/a1741079645912_6256.jpg","https://xcimg.szwego.com/img/d5e7a5ce/20250304/a1741079645916_0320.jpg"],"created_at":"2026-06-29T10:27:59.352Z"},{"id":"item-8c12b8ee52d5","sku":"_denenNAgbvR0g33BgergXTN-CjiAJ5aFyje0Tww","name_en":"large Size35.5 x 18 x 28cm","name_cn":"large Size35.5 x 18 x 28cm\nsmallSize30x 13× 24cm.","specs":{"source":"wsxcme","sourceId":"_denenNAgbvR0g33BgergXTN-CjiAJ5aFyje0Tww","sourceTagId":80411239,"sourceTagName":"Burberry/women's bag","dimensions":{"lengthCm":35.5,"heightCm":18,"widthCm":28},"rawTitle":"large Size35.5 x 18 x 28cm\nsmallSize30x 13× 24cm."},"price":null,"currency":"CNY","moq":1,"category":"burberry-women-bags","status":"active","alibaba_url":null,"images":["https://xcimg.szwego.com/img/d5e7a5ce/20250820/a1755668983031_7170.jpg","https://xcimg.szwego.com/img/d5e7a5ce/20250820/a1755668983035_6872.jpg","https://xcimg.szwego.com/img/d5e7a5ce/20250820/a1755668983036_0810.jpg","https://xcimg.szwego.com/img/d5e7a5ce/20250820/a1755668983040_0441.jpg","https://xcimg.szwego.com/img/d5e7a5ce/20250820/a1755668983039_6258.jpg","https://xcimg.szwego.com/img/d5e7a5ce/20250820/a1755668983034_7821.jpg","https://xcimg.szwego.com/img/d5e7a5ce/20250820/a1755668983706_6338.jpg"],"created_at":"2026-06-29T10:27:58.892Z"},{"id":"item-33abb3bde08c","sku":"_dlzlzYxJDlxKgG7fs1R5aBfd2Nni_7V5B6SeRJw","name_en":"Large: The look is incredibly cool😎","name_cn":"Large: The look is incredibly cool😎","specs":{"source":"wsxcme","sourceId":"_dlzlzYxJDlxKgG7fs1R5aBfd2Nni_7V5B6SeRJw","sourceTagId":80411239,"sourceTagName":"Burberry/women's bag","rawTitle":"Large: The look is incredibly cool😎"},"price":null,"currency":"CNY","moq":1,"category":"burberry-women-bags","status":"active","alibaba_url":null,"images":["https://xcimg.szwego.com/img/d5e7a5ce/20250304/a1741079631711_4780.jpg","https://xcimg.szwego.com/img/d5e7a5ce/20250304/a1741079631712_6421.jpg","https://xcimg.szwego.com/img/d5e7a5ce/20250304/a1741079631713_5444.jpg","https://xcimg.szwego.com/img/d5e7a5ce/20250304/a1741079631715_2088.jpg","https://xcimg.szwego.com/img/d5e7a5ce/20250304/a1741079631718_7378.jpg","https://xcimg.szwego.com/img/d5e7a5ce/20250304/a1741079631717_7122.jpg","https://xcimg.szwego.com/img/d5e7a5ce/20250304/a1741079632517_1781.jpg","https://xcimg.szwego.com/img/d5e7a5ce/20250304/a1741079632507_7547.jpg","https://xcimg.szwego.com/img/d5e7a5ce/20250304/a1741079632512_1774.jpg"],"created_at":"2026-06-29T10:27:59.342Z"}],"page":17,"pageSize":24,"total":493,"totalPages":21}
