{"items":[{"id":"item-4b29f05abe88","sku":"_d-I-IgmhIIKlaS_9FtNqqVlsFyIRVJMmB9BNc4g","name_en":"Small size is sufficient for daily carry.","name_cn":"Small size is sufficient for daily carry.","specs":{"source":"wsxcme","sourceId":"_d-I-IgmhIIKlaS_9FtNqqVlsFyIRVJMmB9BNc4g","sourceTagId":80411239,"sourceTagName":"Burberry/women's bag","rawTitle":"Small size is sufficient for daily carry."},"price":null,"currency":"CNY","moq":1,"category":"burberry-women-bags","status":"active","alibaba_url":null,"images":["https://xcimg.szwego.com/img/d5e7a5ce/20251105/a1762314395307_5136.jpg","https://xcimg.szwego.com/img/d5e7a5ce/20251105/a1762314395307_4006.jpg","https://xcimg.szwego.com/img/d5e7a5ce/20251105/a1762314395309_5308.jpg","https://xcimg.szwego.com/img/d5e7a5ce/20251105/a1762314395309_4258.jpg","https://xcimg.szwego.com/img/d5e7a5ce/20251105/a1762314395310_2250.jpg","https://xcimg.szwego.com/img/d5e7a5ce/20251105/a1762314395309_7111.jpg","https://xcimg.szwego.com/img/d5e7a5ce/20251105/a1762314395862_4446.jpg","https://xcimg.szwego.com/img/d5e7a5ce/20251105/a1762314395861_0334.jpg","https://xcimg.szwego.com/img/d5e7a5ce/20251105/a1762314395864_8108.jpg"],"created_at":"2026-06-29T10:27:59.002Z"},{"id":"item-d8c80626216d","sku":"_duNuNAfvcsR8zVf7gCHKtkU6pDM1m70YlGNRANQ","name_en":"smallblack","name_cn":"smallblack","specs":{"source":"wsxcme","sourceId":"_duNuNAfvcsR8zVf7gCHKtkU6pDM1m70YlGNRANQ","sourceTagId":80411239,"sourceTagName":"Burberry/women's bag","rawTitle":"smallblack"},"price":null,"currency":"CNY","moq":1,"category":"burberry-women-bags","status":"active","alibaba_url":null,"images":["https://xcimg.szwego.com/img/d5e7a5ce/20250403/a1743667631907_0215.jpg","https://xcimg.szwego.com/img/d5e7a5ce/20250403/a1743667631905_6386.jpg","https://xcimg.szwego.com/img/d5e7a5ce/20250403/a1743667631902_8213.jpg","https://xcimg.szwego.com/img/d5e7a5ce/20250403/a1743667631886_7882.jpg","https://xcimg.szwego.com/img/d5e7a5ce/20250403/a1743667631892_4057.jpg","https://xcimg.szwego.com/img/d5e7a5ce/20250403/a1743667631897_3183.jpg","https://xcimg.szwego.com/img/d5e7a5ce/20250403/a1743667632637_5046.jpg","https://xcimg.szwego.com/img/d5e7a5ce/20250403/a1743667632640_4154.jpg","https://xcimg.szwego.com/img/d5e7a5ce/20250403/a1743667632644_4567.jpg"],"created_at":"2026-06-29T10:27:59.272Z"},{"id":"item-bca761c49b63","sku":"_dwEwEFzh91fOM0YjdMRqoMtFgTnmRcURibycYHg","name_en":"smallSize30x 13x 24cm.","name_cn":"smallSize30x 13x 24cm.","specs":{"source":"wsxcme","sourceId":"_dwEwEFzh91fOM0YjdMRqoMtFgTnmRcURibycYHg","sourceTagId":80411239,"sourceTagName":"Burberry/women's bag","dimensions":{"lengthCm":30,"heightCm":13,"widthCm":24},"rawTitle":"smallSize30x 13x 24cm."},"price":null,"currency":"CNY","moq":1,"category":"burberry-women-bags","status":"active","alibaba_url":null,"images":["https://xcimg.szwego.com/img/d5e7a5ce/20250530/a1748583618417_0181.jpg","https://xcimg.szwego.com/img/d5e7a5ce/20250530/a1748583618419_5130.jpg","https://xcimg.szwego.com/img/d5e7a5ce/20250530/a1748583618346_6355.jpg","https://xcimg.szwego.com/img/d5e7a5ce/20250530/a1748583618351_3286.jpg"],"created_at":"2026-06-29T10:27:58.882Z"},{"id":"item-5427ef773e5f","sku":"_diCiCWrby57VBS90IRkG0CMPc8rJKeFaWhLSEaw","name_en":"The bucket bag is a signature style for many fashion bloggers, suitable for both commuting and casual wear. Canvas material is structured and durable, creating a more three-dimensional silhouette when worn. It offers ample capacity and an adjustable shoulder strap! Plus, it's very lightweight. As a new member of this series, it's bound to captivate many bag lovers!","name_cn":"The bucket bag is a signature style for many fashion bloggers, suitable for both commuting and casual wear. Canvas material is structured and durable, creating a more three-dimensional silhouette when worn. It offers ample capacity and an adjustable shoulder strap! Plus, it's very lightweight. As a new member of this series, it's bound to captivate many bag lovers!","specs":{"source":"wsxcme","sourceId":"_diCiCWrby57VBS90IRkG0CMPc8rJKeFaWhLSEaw","sourceTagId":80411239,"sourceTagName":"Burberry/women's bag","rawTitle":"The bucket bag is a signature style for many fashion bloggers, suitable for both commuting and casual wear. Canvas material is structured and durable, creating a more three-dimensional silhouette when worn. It offers ample capacity and an adjustable shoulder strap! Plus, it's very lightweight. As a new member of this series, it's bound to captivate many bag lovers!"},"price":null,"currency":"CNY","moq":1,"category":"burberry-women-bags","status":"active","alibaba_url":null,"images":["https://xcimg.szwego.com/20210910/i1631273588_3204_0.jpg","https://xcimg.szwego.com/20210910/i1631273588_3276_1.jpg","https://xcimg.szwego.com/20210910/i1631273588_3061_2.jpg","https://xcimg.szwego.com/20210910/i1631273588_3415_3.jpg","https://xcimg.szwego.com/20210910/i1631273588_6169_4.jpg","https://xcimg.szwego.com/20210910/i1631273588_2013_5.jpg","https://xcimg.szwego.com/20210910/i1631273588_9392_6.jpg","https://xcimg.szwego.com/20210910/i1631273588_1539_7.jpg","https://xcimg.szwego.com/20210910/i1631273588_4535_8.jpg"],"created_at":"2025-01-20T12:43:24.111Z"},{"id":"item-44982477aa09","sku":"_dr9r9gRH-emXdiV1OynaqAR7h21Rnvu-ymZ5I-w","name_en":"This BBR crocodile Rocking Horse Tote bag from Dongguan, small size","name_cn":"This BBR crocodile Rocking Horse Tote bag from Dongguan, small size","specs":{"source":"wsxcme","sourceId":"_dr9r9gRH-emXdiV1OynaqAR7h21Rnvu-ymZ5I-w","sourceTagId":80411239,"sourceTagName":"Burberry/women's bag","rawTitle":"This BBR crocodile Rocking Horse Tote bag from Dongguan, small size"},"price":null,"currency":"CNY","moq":1,"category":"burberry-women-bags","status":"active","alibaba_url":null,"images":["https://xcimg.szwego.com/img/044b8f29/20241220/i1734681247_1897_0.jpg"],"created_at":"2026-06-29T10:27:58.842Z"},{"id":"item-07a8a7ec8b35","sku":"_dj6j6aNR3vt6F5G-hdQ1LhxwzgwaqEm8wEPsJlw","name_en":"This tote is super versatile. Friendly tip: Totes can basically replace all other bags!","name_cn":"This tote is super versatile. Friendly tip: Totes can basically replace all other bags!","specs":{"source":"wsxcme","sourceId":"_dj6j6aNR3vt6F5G-hdQ1LhxwzgwaqEm8wEPsJlw","sourceTagId":80411239,"sourceTagName":"Burberry/women's bag","rawTitle":"This tote is super versatile. Friendly tip: Totes can basically replace all other bags!"},"price":null,"currency":"CNY","moq":1,"category":"burberry-women-bags","status":"active","alibaba_url":null,"images":["https://xcimg.szwego.com/20220328/i1648444670_4594_0.jpg","https://xcimg.szwego.com/20220326/i1648306669_4774_2.jpg","https://xcimg.szwego.com/20220328/i1648444703_776_0.jpg","https://xcimg.szwego.com/20220328/i1648444670_7998_1.jpg","https://xcimg.szwego.com/20220326/i1648306669_4874_4.jpg","https://xcimg.szwego.com/20220326/i1648306669_699_5.jpg","https://xcimg.szwego.com/20220326/i1648306669_5272_6.jpg","https://xcimg.szwego.com/20220326/i1648306669_1157_7.jpg","https://xcimg.szwego.com/20220326/i1648306669_3226_8.jpg"],"created_at":"2025-01-20T12:46:12.759Z"},{"id":"item-4e247c60d451","sku":"_dnHnH-2iF5lVjoKGylWuD16IIwUNkPGxw6vOD-g","name_en":"Top quality, Cotswolds Check Tote","name_cn":"Top quality, Cotswolds Check Tote\nCrafted from grained calfskin leather, featuring Burberry check side panels and matching signature sand-colored lining. Exquisitely designed with ample interior space. Features check embossed closure and D-ring hardware inspired by the brand's iconic Trench coat belt. Can be carried by hand or worn over the shoulder using the detachable shoulder strap. Dimensions 30.5 × 13 × 22.5cm","specs":{"source":"wsxcme","sourceId":"_dnHnH-2iF5lVjoKGylWuD16IIwUNkPGxw6vOD-g","sourceTagId":80411239,"sourceTagName":"Burberry/women's bag","dimensions":{"lengthCm":30.5,"heightCm":13,"widthCm":22.5},"rawTitle":"Top quality, Cotswolds Check Tote\nCrafted from grained calfskin leather, featuring Burberry check side panels and matching signature sand-colored lining. Exquisitely designed with ample interior space. Features check embossed closure and D-ring hardware inspired by the brand's iconic Trench coat belt. Can be carried by hand or worn over the shoulder using the detachable shoulder strap. Dimensions 30.5 × 13 × 22.5cm"},"price":null,"currency":"CNY","moq":1,"category":"burberry-women-bags","status":"active","alibaba_url":null,"images":["https://xcimg.szwego.com/imgHD/b7f85c57/20260531/cmp_i1780201027922_5310_0_0.jpg","https://xcimg.szwego.com/imgHD/b7f85c57/20260531/cmp_i1780201027955_4056_0_1.jpg","https://xcimg.szwego.com/imgHD/b7f85c57/20260531/cmp_i1780201026374_6584_0_2.jpg","https://xcimg.szwego.com/imgHD/b7f85c57/20260531/cmp_i1780201027937_3801_0_3.jpg","https://xcimg.szwego.com/imgHD/b7f85c57/20260531/cmp_i1780201025960_7353_0_4.jpg","https://xcimg.szwego.com/imgHD/b7f85c57/20260531/cmp_i1780201026882_7880_0_5.jpg","https://xcimg.szwego.com/imgHD/b7f85c57/20260531/cmp_i1780201025896_8870_0_6.jpg","https://xcimg.szwego.com/imgHD/b7f85c57/20260531/cmp_i1780201025025_7792_0_7.jpg","https://xcimg.szwego.com/imgHD/b7f85c57/20260531/cmp_i1780201026243_3599_0_8.jpg"],"created_at":"2026-06-29T10:29:02.629Z"},{"id":"item-f027df0e8944","sku":"_dHMHMweOgXJpY6fVrIVikEoNV_99JdRpmMMBaog","name_en":"Upgraded B brand plaid leather wallet, includes chain-embellished leather shoulder strap. Can be used as a small bag on its own or as a wallet inside a daily tote. Counter quality, fine craftsmanship, real-life photos. Black plaid, 21cm*12cm*3cm, 8687","name_cn":"Upgraded B brand plaid leather wallet, includes chain-embellished leather shoulder strap. Can be used as a small bag on its own or as a wallet inside a daily tote. Counter quality, fine craftsmanship, real-life photos. Black plaid, 21cm*12cm*3cm, 8687","specs":{"source":"wsxcme","sourceId":"_dHMHMweOgXJpY6fVrIVikEoNV_99JdRpmMMBaog","sourceTagId":80411239,"sourceTagName":"Burberry/women's bag","rawTitle":"Upgraded B brand plaid leather wallet, includes chain-embellished leather shoulder strap. Can be used as a small bag on its own or as a wallet inside a daily tote. Counter quality, fine craftsmanship, real-life photos. Black plaid, 21cm*12cm*3cm, 8687"},"price":null,"currency":"CNY","moq":1,"category":"burberry-women-bags","status":"active","alibaba_url":null,"images":["https://xcimg.szwego.com/o_1fu901hb98i3m9n1pa5frv1ld517.jpg","https://xcimg.szwego.com/o_1fu901hb9i9uigf10mujum34418.jpg","https://xcimg.szwego.com/o_1fu901hb91k3upuk10nb16t51gre19.jpg","https://xcimg.szwego.com/o_1fu901hb918gobci135a1pmg107k1a.jpg","https://xcimg.szwego.com/o_1fu901hb91alatjpj0k17ke1hk31b.jpg","https://xcimg.szwego.com/o_1fu901hb917m75251djh1t2o1hj81c.jpg","https://xcimg.szwego.com/o_1fu901hb9tcn1icehfupuiqmb1d.jpg","https://xcimg.szwego.com/o_1fu901hb9pkgvmn11lned1hgn1e.jpg"],"created_at":"2025-01-20T12:43:24.124Z"},{"id":"item-61648ab40a2f","sku":"_dpkpksFdh7JnwG9EoDSQ-q7L3Ng72xpgGVymeQg","name_en":"Upgraded B brand plaid leather wallet, includes chain-embellished leather shoulder strap. Can be used as a small bag on its own or as a wallet inside a daily tote. Counter quality, fine craftsmanship, real-life photos. Black plaid, 21cm*12cm*3cm, 8687","name_cn":"Upgraded B brand plaid leather wallet, includes chain-embellished leather shoulder strap. Can be used as a small bag on its own or as a wallet inside a daily tote. Counter quality, fine craftsmanship, real-life photos. Black plaid, 21cm*12cm*3cm, 8687","specs":{"source":"wsxcme","sourceId":"_dpkpksFdh7JnwG9EoDSQ-q7L3Ng72xpgGVymeQg","sourceTagId":80411239,"sourceTagName":"Burberry/women's bag","rawTitle":"Upgraded B brand plaid leather wallet, includes chain-embellished leather shoulder strap. Can be used as a small bag on its own or as a wallet inside a daily tote. Counter quality, fine craftsmanship, real-life photos. Black plaid, 21cm*12cm*3cm, 8687"},"price":null,"currency":"CNY","moq":1,"category":"burberry-women-bags","status":"active","alibaba_url":null,"images":["https://xcimg.szwego.com/o_1fu902olvip51uh91jrkscbi2945.jpg","https://xcimg.szwego.com/o_1fu902olvplt1rbh7cjse4s46.jpg","https://xcimg.szwego.com/o_1fu902olvs751prtb0t92lor47.jpg","https://xcimg.szwego.com/o_1fu902olv8e2tgv1fal1k5714qg48.jpg","https://xcimg.szwego.com/o_1fu902olvdul16cc5lc1pie12f449.jpg","https://xcimg.szwego.com/o_1fu902olvq4j47q1kvs1p481f1s4a.jpg","https://xcimg.szwego.com/o_1fu902olv1l1d3ej121s1umpcvg4b.jpg","https://xcimg.szwego.com/o_1fu902olv1ggd1so699dk10fnv4c.jpg"],"created_at":"2025-01-20T12:43:24.125Z"},{"id":"item-d563c4e73978","sku":"_djejetR6Xcv8v85Fn9BDWklvKMC1r41el9pEbaQ","name_en":"Upgraded B brand top-tier new storage bucket bag with plaid elements. More classic and casual, the highlight is that it is very light! Large space, easy to store. Comes with a handle strap and a shoulder strap.","name_cn":"Upgraded B brand top-tier new storage bucket bag with plaid elements. More classic and casual, the highlight is that it is very light! Large space, easy to store. Comes with a handle strap and a shoulder strap.\nSize: 21x14x24, 22x32","specs":{"source":"wsxcme","sourceId":"_djejetR6Xcv8v85Fn9BDWklvKMC1r41el9pEbaQ","sourceTagId":80411239,"sourceTagName":"Burberry/women's bag","rawTitle":"Upgraded B brand top-tier new storage bucket bag with plaid elements. More classic and casual, the highlight is that it is very light! Large space, easy to store. Comes with a handle strap and a shoulder strap.\nSize: 21x14x24, 22x32"},"price":null,"currency":"CNY","moq":1,"category":"burberry-women-bags","status":"active","alibaba_url":null,"images":["https://xcimg.szwego.com/20220810/a1660108435561_6873.jpg","https://xcimg.szwego.com/20220810/a1660108435642_1107.jpg","https://xcimg.szwego.com/20220810/a1660108435722_6251.jpg","https://xcimg.szwego.com/20220810/a1660108435822_2886.jpg","https://xcimg.szwego.com/20220810/a1660108435939_1247.jpg","https://xcimg.szwego.com/20220810/a1660108436064_2360.jpg","https://xcimg.szwego.com/20220810/a1660108436173_2531.jpg","https://xcimg.szwego.com/20220810/a1660108436312_4388.jpg","https://xcimg.szwego.com/20220810/a1660108436413_0367.jpg"],"created_at":"2025-01-20T12:43:24.123Z"},{"id":"item-126ca83e376d","sku":"_dm4m4hLbhXTuLcFl9tsG0PtiW5StGRu3XbMUXhQ","name_en":"Upgraded B brand top-tier new storage bucket bag with plaid elements. More classic and casual, the highlight is that it is very light! Large space, easy to store. Comes with a handle strap and a shoulder strap.","name_cn":"Upgraded B brand top-tier new storage bucket bag with plaid elements. More classic and casual, the highlight is that it is very light! Large space, easy to store. Comes with a handle strap and a shoulder strap.\nSize: 21x14x24, 22x32","specs":{"source":"wsxcme","sourceId":"_dm4m4hLbhXTuLcFl9tsG0PtiW5StGRu3XbMUXhQ","sourceTagId":80411239,"sourceTagName":"Burberry/women's bag","rawTitle":"Upgraded B brand top-tier new storage bucket bag with plaid elements. More classic and casual, the highlight is that it is very light! Large space, easy to store. Comes with a handle strap and a shoulder strap.\nSize: 21x14x24, 22x32"},"price":null,"currency":"CNY","moq":1,"category":"burberry-women-bags","status":"active","alibaba_url":null,"images":["https://xcimg.szwego.com/20220810/a1660108446913_3775.jpg","https://xcimg.szwego.com/20220810/a1660108446990_7008.jpg","https://xcimg.szwego.com/20220810/a1660108447070_5032.jpg","https://xcimg.szwego.com/20220810/a1660108447158_3587.jpg","https://xcimg.szwego.com/20220810/a1660108447284_5406.jpg","https://xcimg.szwego.com/20220810/a1660108447347_3832.jpg","https://xcimg.szwego.com/20220810/a1660108447447_3023.jpg","https://xcimg.szwego.com/20220810/a1660108447553_7067.jpg","https://xcimg.szwego.com/20220810/a1660108447654_5466.jpg"],"created_at":"2025-01-20T12:43:24.122Z"},{"id":"item-616c1fcb44d2","sku":"_duSuSImMMqTI_0nZUs0s8qoguaHV6CAOZrI5PzA","name_en":"Wow wow wow wow wow 👍 Super many compartments, new plaid military backpack is here ✌🏻 With B-shaped zipper pullers, two tightening pockets on the sides for water bottles ✔️ The bag has 4 external pockets 😘 and 2 internal compartments ❤ Wow... holding the textbooks of students, mainly can be sorted and stored separately 👍 convenient 👍 files or laptops, all accommodated 👍 The handle is also designed very well, it doesn't hurt the hand no matter how heavy it is, the handle is padded with comfortable, elegant foam","name_cn":"Wow wow wow wow wow 👍 Super many compartments, new plaid military backpack is here ✌🏻 With B-shaped zipper pullers, two tightening pockets on the sides for water bottles ✔️ The bag has 4 external pockets 😘 and 2 internal compartments ❤ Wow... holding the textbooks of students, mainly can be sorted and stored separately 👍 convenient 👍 files or laptops, all accommodated 👍 The handle is also designed very well, it doesn't hurt the hand no matter how heavy it is, the handle is padded with comfortable, elegant foam\nMaterial: % Imported pure cotton / Imported calfskin!\nMust-have for students 👍 Must-have for business trips and travel 👍 Must-have for daily work 👍 Size 31✕16✕46cm","specs":{"source":"wsxcme","sourceId":"_duSuSImMMqTI_0nZUs0s8qoguaHV6CAOZrI5PzA","sourceTagId":80411239,"sourceTagName":"Burberry/women's bag","rawTitle":"Wow wow wow wow wow 👍 Super many compartments, new plaid military backpack is here ✌🏻 With B-shaped zipper pullers, two tightening pockets on the sides for water bottles ✔️ The bag has 4 external pockets 😘 and 2 internal compartments ❤ Wow... holding the textbooks of students, mainly can be sorted and stored separately 👍 convenient 👍 files or laptops, all accommodated 👍 The handle is also designed very well, it doesn't hurt the hand no matter how heavy it is, the handle is padded with comfortable, elegant foam\nMaterial: % Imported pure cotton / Imported calfskin!\nMust-have for students 👍 Must-have for business trips and travel 👍 Must-have for daily work 👍 Size 31✕16✕46cm"},"price":null,"currency":"CNY","moq":1,"category":"burberry-women-bags","status":"active","alibaba_url":null,"images":["https://xcimg.szwego.com/img/d5e7a5ce/20241001/a1727763269138_0254.jpg","https://xcimg.szwego.com/img/d5e7a5ce/20241001/a1727763269137_6808.jpg","https://xcimg.szwego.com/img/d5e7a5ce/20241001/a1727763269118_5162.jpg","https://xcimg.szwego.com/img/d5e7a5ce/20241001/a1727763269138_5555.jpg","https://xcimg.szwego.com/img/d5e7a5ce/20241001/a1727763269139_6870.jpg","https://xcimg.szwego.com/img/d5e7a5ce/20241001/a1727763269141_7443.jpg","https://xcimg.szwego.com/img/d5e7a5ce/20241001/a1727763270046_8005.jpg","https://xcimg.szwego.com/img/d5e7a5ce/20241001/a1727763270038_8412.jpg","https://xcimg.szwego.com/img/d5e7a5ce/20241001/a1727763270042_4710.jpg"],"created_at":"2025-01-20T12:43:24.104Z"},{"id":"item-41d5f26c341d","sku":"_ddbdbiDirt7L1ruE-k4o5ZGhI_2_GS__D3f3qQQ","name_en":"Wow wow wow wow wow 👍 Super many compartments, new plaid military backpack is here ✌🏻 With B-shaped zipper pullers, two tightening pockets on the sides for water bottles ✔️ The bag has 4 external pockets 😘 and 2 internal compartments ❤ Wow... holding the textbooks of students, mainly can be sorted and stored separately 👍 convenient 👍 files or laptops, all accommodated 👍 The handle is also designed very well, it doesn't hurt the hand no matter how heavy it is, the handle is padded with comfortable, elegant foam","name_cn":"Wow wow wow wow wow 👍 Super many compartments, new plaid military backpack is here ✌🏻 With B-shaped zipper pullers, two tightening pockets on the sides for water bottles ✔️ The bag has 4 external pockets 😘 and 2 internal compartments ❤ Wow... holding the textbooks of students, mainly can be sorted and stored separately 👍 convenient 👍 files or laptops, all accommodated 👍 The handle is also designed very well, it doesn't hurt the hand no matter how heavy it is, the handle is padded with comfortable, elegant foam\nMaterial: % Imported pure cotton / Imported calfskin!\nMust-have for students 👍 Must-have for business trips and travel 👍 Must-have for daily work 👍 Size 31✕16✕46cm","specs":{"source":"wsxcme","sourceId":"_ddbdbiDirt7L1ruE-k4o5ZGhI_2_GS__D3f3qQQ","sourceTagId":80411239,"sourceTagName":"Burberry/women's bag","rawTitle":"Wow wow wow wow wow 👍 Super many compartments, new plaid military backpack is here ✌🏻 With B-shaped zipper pullers, two tightening pockets on the sides for water bottles ✔️ The bag has 4 external pockets 😘 and 2 internal compartments ❤ Wow... holding the textbooks of students, mainly can be sorted and stored separately 👍 convenient 👍 files or laptops, all accommodated 👍 The handle is also designed very well, it doesn't hurt the hand no matter how heavy it is, the handle is padded with comfortable, elegant foam\nMaterial: % Imported pure cotton / Imported calfskin!\nMust-have for students 👍 Must-have for business trips and travel 👍 Must-have for daily work 👍 Size 31✕16✕46cm"},"price":null,"currency":"CNY","moq":1,"category":"burberry-women-bags","status":"active","alibaba_url":null,"images":["https://xcimg.szwego.com/img/d5e7a5ce/20241001/a1727763207712_2125.jpg","https://xcimg.szwego.com/img/d5e7a5ce/20241001/a1727763207697_7806.jpg","https://xcimg.szwego.com/img/d5e7a5ce/20241001/a1727763207714_0201.jpg","https://xcimg.szwego.com/img/d5e7a5ce/20241001/a1727763207710_2350.jpg","https://xcimg.szwego.com/img/d5e7a5ce/20241001/a1727763207704_3065.jpg","https://xcimg.szwego.com/img/d5e7a5ce/20241001/a1727763207714_3172.jpg","https://xcimg.szwego.com/img/d5e7a5ce/20241001/a1727763208859_8224.jpg","https://xcimg.szwego.com/img/d5e7a5ce/20241001/a1727763208860_0051.jpg","https://xcimg.szwego.com/img/d5e7a5ce/20241001/a1727763208862_4052.jpg"],"created_at":"2025-01-20T12:43:24.103Z"}],"page":21,"pageSize":24,"total":493,"totalPages":21}
