{"items":[{"id":"item-afdc56a77b5b","sku":"_dSBSB5BiDVYYPvi1iT_NsZ7o27WyXBFCz9t9ZoA","name_en":"Fendi Women Bags","name_cn":"正品级 复刻版芬迪\n💗标志性迷你By The Way Boston手袋,原色编织拉菲草材质。搭配棕色皮革细节和同色系皮革管状手柄。拉链开合。内部配有内衬、口袋和金色饰面金属件。此手袋配有提手和可调节、可拆卸肩带,可手提、肩背或斜挎。\n尺寸18.12.9cm\n款号067","specs":{"source":"wsxcme","sourceId":"_dSBSB5BiDVYYPvi1iT_NsZ7o27WyXBFCz9t9ZoA","sourceTagId":47002731,"sourceTagName":"芬迪/女包","modelNumber":"067","rawTitle":"正品级 复刻版芬迪\n💗标志性迷你By The Way Boston手袋,原色编织拉菲草材质。搭配棕色皮革细节和同色系皮革管状手柄。拉链开合。内部配有内衬、口袋和金色饰面金属件。此手袋配有提手和可调节、可拆卸肩带,可手提、肩背或斜挎。\n尺寸18.12.9cm\n款号067"},"price":null,"currency":"CNY","moq":1,"category":"fendi-women-bags","status":"active","alibaba_url":null,"images":["https://xcimg.szwego.com/20240702/i1719916188_1064_0.jpg","https://xcimg.szwego.com/20240702/i1719916188_3695_1.jpg","https://xcimg.szwego.com/20240702/i1719916188_6969_2.jpg","https://xcimg.szwego.com/20240702/i1719916188_4760_3.jpg","https://xcimg.szwego.com/20240702/i1719916188_4772_4.jpg","https://xcimg.szwego.com/20240702/i1719916188_673_5.jpg","https://xcimg.szwego.com/20240702/i1719916188_690_6.jpg","https://xcimg.szwego.com/20240702/i1719916188_8940_7.jpg","https://xcimg.szwego.com/20240702/i1719916188_6726_8.jpg"],"created_at":"2024-11-11T10:33:53.452Z"},{"id":"item-d0ecfe0d6808","sku":"_dGwGw_h7yZDXPeyxRqjATzdAF2OZdwGgL4wiyMw","name_en":"Fendi Women Bags","name_cn":"正品级 复刻版芬迪\n💗小号Sunshine手袋,其流线设计和精致细节令这款大容量百搭都市手提袋脱颖而出。采用原色拉菲草材质,饰有棕色皮革FENDI Roma字样和棕色皮革管型手柄。设有充裕的带衬里内部隔层、磁扣、内袋和金色饰面金属件。此手袋配有双提手和可调节、可拆卸肩带,可手提、肩背或斜挎\n8394\n尺寸25cm","specs":{"source":"wsxcme","sourceId":"_dGwGw_h7yZDXPeyxRqjATzdAF2OZdwGgL4wiyMw","sourceTagId":47002731,"sourceTagName":"芬迪/女包","rawTitle":"正品级 复刻版芬迪\n💗小号Sunshine手袋,其流线设计和精致细节令这款大容量百搭都市手提袋脱颖而出。采用原色拉菲草材质,饰有棕色皮革FENDI Roma字样和棕色皮革管型手柄。设有充裕的带衬里内部隔层、磁扣、内袋和金色饰面金属件。此手袋配有双提手和可调节、可拆卸肩带,可手提、肩背或斜挎\n8394\n尺寸25cm"},"price":null,"currency":"CNY","moq":1,"category":"fendi-women-bags","status":"active","alibaba_url":null,"images":["https://xcimg.szwego.com/20240706/i1720273992_302_0.jpg","https://xcimg.szwego.com/20240706/i1720273992_6055_1.jpg","https://xcimg.szwego.com/20240706/i1720273992_6887_2.jpg","https://xcimg.szwego.com/20240706/i1720273992_0_3.jpg","https://xcimg.szwego.com/20240706/i1720273992_527_4.jpg","https://xcimg.szwego.com/20240706/i1720273992_2644_5.jpg","https://xcimg.szwego.com/20240706/i1720273992_8987_6.jpg","https://xcimg.szwego.com/20240706/i1720273992_606_7.jpg","https://xcimg.szwego.com/20240706/i1720273992_8752_8.jpg"],"created_at":"2024-11-11T10:33:53.451Z"},{"id":"item-20f7aeeb5544","sku":"_dZrZrvWFMhHfiDElyHME0TzS1eMlzGnzlQvv4DA","name_en":"Fendi Women Bags","name_cn":"正品级 复刻版芬迪\n💗小号老花\n全新FEND1 First来了!!\n设计师Kim Jones主导下,设计的第一款Fend1,颠覆了以往的包型,金属包边大Logo锁扣加上包身设计把建筑艺术的解构与时装相结合,优雅中带着酷飒,一秒吸睛!手拿出席晚宴气场十足,斜挎也有种高级街头chic感!\n小号尺寸26x9.5x18cm","specs":{"source":"wsxcme","sourceId":"_dZrZrvWFMhHfiDElyHME0TzS1eMlzGnzlQvv4DA","sourceTagId":47002731,"sourceTagName":"芬迪/女包","dimensions":{"lengthCm":26,"heightCm":9.5,"widthCm":18},"rawTitle":"正品级 复刻版芬迪\n💗小号老花\n全新FEND1 First来了!!\n设计师Kim Jones主导下,设计的第一款Fend1,颠覆了以往的包型,金属包边大Logo锁扣加上包身设计把建筑艺术的解构与时装相结合,优雅中带着酷飒,一秒吸睛!手拿出席晚宴气场十足,斜挎也有种高级街头chic感!\n小号尺寸26x9.5x18cm"},"price":null,"currency":"CNY","moq":1,"category":"fendi-women-bags","status":"active","alibaba_url":null,"images":["https://xcimg.szwego.com/20220311/i1646982413_5761_0.jpg","https://xcimg.szwego.com/20220311/i1646982413_319_1.jpg","https://xcimg.szwego.com/20220311/i1646982413_5216_2.jpg","https://xcimg.szwego.com/20220311/i1646982413_7569_3.jpg","https://xcimg.szwego.com/20220311/i1646982413_3359_4.jpg","https://xcimg.szwego.com/20220311/i1646982413_2142_5.jpg","https://xcimg.szwego.com/20220311/i1646982413_3697_6.jpg","https://xcimg.szwego.com/20220311/i1646982413_6193_7.jpg","https://xcimg.szwego.com/20220311/i1646982413_7242_8.jpg"],"created_at":"2024-11-11T10:33:53.450Z"},{"id":"item-91cbc907fa35","sku":"_di9i9NrRipx7oyA9amgDbC7sVDTlk5MSFqSQusA","name_en":"Fendi Women Bags","name_cn":"正品级 复刻版芬迪\n💗大号老花\n全新FEND1 First来了!!\n设计师Kim Jones主导下,设计的第一款Fend1,颠覆了以往的包型,金属包边大Logo锁扣加上包身设计把建筑艺术的解构与时装相结合,优雅中带着酷飒,一秒吸睛!手拿出席晚宴气场十足,斜挎也有种高级街头chic感!\n大号尺寸32.5x15x23.5cm","specs":{"source":"wsxcme","sourceId":"_di9i9NrRipx7oyA9amgDbC7sVDTlk5MSFqSQusA","sourceTagId":47002731,"sourceTagName":"芬迪/女包","dimensions":{"lengthCm":32.5,"heightCm":15,"widthCm":23.5},"rawTitle":"正品级 复刻版芬迪\n💗大号老花\n全新FEND1 First来了!!\n设计师Kim Jones主导下,设计的第一款Fend1,颠覆了以往的包型,金属包边大Logo锁扣加上包身设计把建筑艺术的解构与时装相结合,优雅中带着酷飒,一秒吸睛!手拿出席晚宴气场十足,斜挎也有种高级街头chic感!\n大号尺寸32.5x15x23.5cm"},"price":null,"currency":"CNY","moq":1,"category":"fendi-women-bags","status":"active","alibaba_url":null,"images":["https://xcimg.szwego.com/20220311/i1646982629_8862_0.jpg","https://xcimg.szwego.com/20220311/i1646982629_1992_1.jpg","https://xcimg.szwego.com/20220311/i1646982629_1120_2.jpg","https://xcimg.szwego.com/20220311/i1646982629_6737_3.jpg","https://xcimg.szwego.com/20220311/i1646982629_1888_4.jpg","https://xcimg.szwego.com/20220311/i1646982629_4246_5.jpg","https://xcimg.szwego.com/20220311/i1646982629_7545_6.jpg","https://xcimg.szwego.com/20220311/i1646982629_7596_7.jpg"],"created_at":"2024-11-11T10:33:53.449Z"},{"id":"item-dc803ef89ea2","sku":"_d1b1baKEiC4ZyEe1aVsNSb066PtgqPLncTAwH5g","name_en":"Fendi Women Bags","name_cn":"正品级 复刻版芬迪\n💗Fendi First限定款▪️将品牌字母很艺术的融入了包中,轻柔羊毛唤醒冬日温暖,肩背斜挎手拿可极具品质感以及实用性。\n小号尺寸25*9*18\n款号129","specs":{"source":"wsxcme","sourceId":"_d1b1baKEiC4ZyEe1aVsNSb066PtgqPLncTAwH5g","sourceTagId":47002731,"sourceTagName":"芬迪/女包","modelNumber":"129","rawTitle":"正品级 复刻版芬迪\n💗Fendi First限定款▪️将品牌字母很艺术的融入了包中,轻柔羊毛唤醒冬日温暖,肩背斜挎手拿可极具品质感以及实用性。\n小号尺寸25*9*18\n款号129"},"price":null,"currency":"CNY","moq":1,"category":"fendi-women-bags","status":"active","alibaba_url":null,"images":["https://xcimg.szwego.com/20220311/i1646981271_1049_0.jpg","https://xcimg.szwego.com/20220311/i1646981271_2162_1.jpg","https://xcimg.szwego.com/20220311/i1646981271_4969_2.jpg","https://xcimg.szwego.com/20220311/i1646981271_8673_3.jpg","https://xcimg.szwego.com/20220311/i1646981271_4968_4.jpg","https://xcimg.szwego.com/20220311/i1646981271_5909_5.jpg","https://xcimg.szwego.com/20220311/i1646981271_8225_6.jpg","https://xcimg.szwego.com/20220311/i1646981271_6006_7.jpg","https://xcimg.szwego.com/20220311/i1646981271_568_8.jpg"],"created_at":"2024-11-11T10:33:53.448Z"},{"id":"item-7765b701d293","sku":"_doYoYXZnBCsmx-z44IYinMPE2Bzdi6w4u5NNEnQ","name_en":"Fendi Women Bags","name_cn":"正品级 复刻版芬迪\n💗Fendi First限定款▪️将品牌字母很艺术的融入了包中,轻柔羊毛唤醒冬日温暖,肩背斜挎手拿可极具品质感以及实用性。\n大号尺寸32.5*23.5*15cm\n款号127","specs":{"source":"wsxcme","sourceId":"_doYoYXZnBCsmx-z44IYinMPE2Bzdi6w4u5NNEnQ","sourceTagId":47002731,"sourceTagName":"芬迪/女包","modelNumber":"127","dimensions":{"lengthCm":32.5,"heightCm":23.5,"widthCm":15},"rawTitle":"正品级 复刻版芬迪\n💗Fendi First限定款▪️将品牌字母很艺术的融入了包中,轻柔羊毛唤醒冬日温暖,肩背斜挎手拿可极具品质感以及实用性。\n大号尺寸32.5*23.5*15cm\n款号127"},"price":null,"currency":"CNY","moq":1,"category":"fendi-women-bags","status":"active","alibaba_url":null,"images":["https://xcimg.szwego.com/20220311/i1646982080_9875_0.jpg","https://xcimg.szwego.com/20220311/i1646982080_3408_1.jpg","https://xcimg.szwego.com/20220311/i1646982080_3307_2.jpg","https://xcimg.szwego.com/20220311/i1646982080_3824_3.jpg","https://xcimg.szwego.com/20220311/i1646982080_1687_4.jpg","https://xcimg.szwego.com/20220311/i1646982080_708_5.jpg","https://xcimg.szwego.com/20220311/i1646982080_8120_6.jpg","https://xcimg.szwego.com/20220311/i1646982080_4990_7.jpg"],"created_at":"2024-11-11T10:33:53.447Z"},{"id":"item-4d33fdd72c4e","sku":"_dFBFBu9Uv5WDTJO1t0JI7Fmrh_r4YUGyp3AUYWw","name_en":"Fendi Women Bags","name_cn":"正品级 复刻版芬迪\n💗小号#皱褶银色.\nFEND1 First来了!\n设计师Kim Jones主导下,设计的第一款Fend1,颠覆了以往的包型,金属包边大Logo锁扣加上包身设计把建筑艺术的解构与时装相结合,优雅中带着酷飒,一秒吸睛!手拿出席晚宴气场十足,斜挎也有种高级街头chic感!\n尺寸26cm\n款号129","specs":{"source":"wsxcme","sourceId":"_dFBFBu9Uv5WDTJO1t0JI7Fmrh_r4YUGyp3AUYWw","sourceTagId":47002731,"sourceTagName":"芬迪/女包","modelNumber":"129","rawTitle":"正品级 复刻版芬迪\n💗小号#皱褶银色.\nFEND1 First来了!\n设计师Kim Jones主导下,设计的第一款Fend1,颠覆了以往的包型,金属包边大Logo锁扣加上包身设计把建筑艺术的解构与时装相结合,优雅中带着酷飒,一秒吸睛!手拿出席晚宴气场十足,斜挎也有种高级街头chic感!\n尺寸26cm\n款号129"},"price":null,"currency":"CNY","moq":1,"category":"fendi-women-bags","status":"active","alibaba_url":null,"images":["https://xcimg.szwego.com/20220501/i1651387963_5912_0.jpg","https://xcimg.szwego.com/20220501/i1651387963_8592_1.jpg","https://xcimg.szwego.com/20220501/i1651387963_4429_2.jpg","https://xcimg.szwego.com/20220501/i1651387963_1907_3.jpg","https://xcimg.szwego.com/20220501/i1651387963_1973_4.jpg","https://xcimg.szwego.com/20220501/i1651387963_3157_5.jpg","https://xcimg.szwego.com/20220501/i1651387963_7548_6.jpg","https://xcimg.szwego.com/20220501/i1651387963_6060_7.jpg","https://xcimg.szwego.com/20220501/i1651387963_4509_8.jpg"],"created_at":"2024-11-11T10:33:53.446Z"},{"id":"item-1bfd8e131f13","sku":"_dk2k2wgfTqd1WTvLObC0lo5g2qbajl6toGUTUuQ","name_en":"Fendi Women Bags","name_cn":"正品级 复刻版芬迪\n💗大号#皱褶银色.\nFEND1 First来了!\n设计师Kim Jones主导下,设计的第一款Fend1,颠覆了以往的包型,金属包边大Logo锁扣加上包身设计把建筑艺术的解构与时装相结合,优雅中带着酷飒,一秒吸睛!手拿出席晚宴气场十足,斜挎也有种高级街头chic感!\n尺寸32cm\n款号127","specs":{"source":"wsxcme","sourceId":"_dk2k2wgfTqd1WTvLObC0lo5g2qbajl6toGUTUuQ","sourceTagId":47002731,"sourceTagName":"芬迪/女包","modelNumber":"127","rawTitle":"正品级 复刻版芬迪\n💗大号#皱褶银色.\nFEND1 First来了!\n设计师Kim Jones主导下,设计的第一款Fend1,颠覆了以往的包型,金属包边大Logo锁扣加上包身设计把建筑艺术的解构与时装相结合,优雅中带着酷飒,一秒吸睛!手拿出席晚宴气场十足,斜挎也有种高级街头chic感!\n尺寸32cm\n款号127"},"price":null,"currency":"CNY","moq":1,"category":"fendi-women-bags","status":"active","alibaba_url":null,"images":["https://xcimg.szwego.com/20220429/i1651213527_8675_0.jpg","https://xcimg.szwego.com/20220429/i1651213527_4407_1.jpg","https://xcimg.szwego.com/20220429/i1651213527_4472_2.jpg","https://xcimg.szwego.com/20220429/i1651213527_4696_3.jpg","https://xcimg.szwego.com/20220429/i1651213527_1367_4.jpg","https://xcimg.szwego.com/20220429/i1651213527_1721_5.jpg","https://xcimg.szwego.com/20220429/i1651213527_5649_6.jpg","https://xcimg.szwego.com/20220429/i1651213527_380_7.jpg","https://xcimg.szwego.com/20220429/i1651213527_306_8.jpg"],"created_at":"2024-11-11T10:33:53.445Z"},{"id":"item-f18b1e0ddff9","sku":"_dZfZf9tPsja-atLPpcrlV4IuoL-8ZprPcSujazw","name_en":"Fendi Women Bags","name_cn":"正品级 复刻版芬迪\n大号#皱褶金色.\n🆕FEND1 First来了!\n设计师Kim Jones主导下,设计的第一款Fend1,颠覆了以往的包型,金属包边大Logo锁扣加上包身设计把建筑艺术的解构与时装相结合,优雅中带着酷飒,一秒吸睛!手拿出席晚宴气场十足,斜挎也有种高级街头chic感!\n尺寸32cm\n款号127","specs":{"source":"wsxcme","sourceId":"_dZfZf9tPsja-atLPpcrlV4IuoL-8ZprPcSujazw","sourceTagId":47002731,"sourceTagName":"芬迪/女包","modelNumber":"127","rawTitle":"正品级 复刻版芬迪\n大号#皱褶金色.\n🆕FEND1 First来了!\n设计师Kim Jones主导下,设计的第一款Fend1,颠覆了以往的包型,金属包边大Logo锁扣加上包身设计把建筑艺术的解构与时装相结合,优雅中带着酷飒,一秒吸睛!手拿出席晚宴气场十足,斜挎也有种高级街头chic感!\n尺寸32cm\n款号127"},"price":null,"currency":"CNY","moq":1,"category":"fendi-women-bags","status":"active","alibaba_url":null,"images":["https://xcimg.szwego.com/20220807/i1659848875_7106_0.jpg","https://xcimg.szwego.com/20220807/i1659848875_4127_1.jpg","https://xcimg.szwego.com/20220807/i1659848875_2984_2.jpg","https://xcimg.szwego.com/20220807/i1659848875_1049_3.jpg","https://xcimg.szwego.com/20220807/i1659848875_4804_4.jpg","https://xcimg.szwego.com/20220807/i1659848875_3107_5.jpg","https://xcimg.szwego.com/20220807/i1659848875_599_6.jpg","https://xcimg.szwego.com/20220807/i1659848875_9340_7.jpg","https://xcimg.szwego.com/20220807/i1659848875_8422_8.jpg"],"created_at":"2024-11-11T10:33:53.444Z"},{"id":"item-9f10586d3097","sku":"_djmjmZoziVKpb3zMFqofutvYmVoL3KA677NWKtw","name_en":"Fendi Women Bags","name_cn":"正品级 复刻版芬迪\n💗Fendi First新款首发 别致倾斜F标识简而有型,轻柔色系小羊皮唤醒意式优雅,肩背斜挎手拿可百变百搭。\n小号尺寸25*9*18\n款号129","specs":{"source":"wsxcme","sourceId":"_djmjmZoziVKpb3zMFqofutvYmVoL3KA677NWKtw","sourceTagId":47002731,"sourceTagName":"芬迪/女包","modelNumber":"129","rawTitle":"正品级 复刻版芬迪\n💗Fendi First新款首发 别致倾斜F标识简而有型,轻柔色系小羊皮唤醒意式优雅,肩背斜挎手拿可百变百搭。\n小号尺寸25*9*18\n款号129"},"price":null,"currency":"CNY","moq":1,"category":"fendi-women-bags","status":"active","alibaba_url":null,"images":["https://xcimg.szwego.com/20220807/i1659847887_4175_0.jpg","https://xcimg.szwego.com/20220807/i1659847887_7073_1.jpg","https://xcimg.szwego.com/20220807/i1659847887_9545_2.jpg","https://xcimg.szwego.com/20220807/i1659847887_4975_3.jpg","https://xcimg.szwego.com/20220807/i1659847887_7069_4.jpg","https://xcimg.szwego.com/20220807/i1659847887_2122_5.jpg","https://xcimg.szwego.com/20220807/i1659847887_3102_6.jpg","https://xcimg.szwego.com/20220807/i1659847887_4024_7.jpg","https://xcimg.szwego.com/20220807/i1659847887_4665_8.jpg"],"created_at":"2024-11-11T10:33:53.443Z"},{"id":"item-d1a81a2a7723","sku":"_dZCZCHyBhENEejpd8nD2QsMPW0I__RDk4xWZUSQ","name_en":"Fendi Women Bags","name_cn":"正品级 复刻版芬迪\n💗Fendi First新款首发 别致倾斜F标识简而有型,轻柔色系小羊皮唤醒意式优雅,肩背斜挎手拿可百变百搭。\n大号尺寸32.5*15*23.5\n款号127","specs":{"source":"wsxcme","sourceId":"_dZCZCHyBhENEejpd8nD2QsMPW0I__RDk4xWZUSQ","sourceTagId":47002731,"sourceTagName":"芬迪/女包","modelNumber":"127","rawTitle":"正品级 复刻版芬迪\n💗Fendi First新款首发 别致倾斜F标识简而有型,轻柔色系小羊皮唤醒意式优雅,肩背斜挎手拿可百变百搭。\n大号尺寸32.5*15*23.5\n款号127"},"price":null,"currency":"CNY","moq":1,"category":"fendi-women-bags","status":"active","alibaba_url":null,"images":["https://xcimg.szwego.com/20220427/i1651072590_4801_0.jpg","https://xcimg.szwego.com/20220427/i1651072590_7960_1.jpg","https://xcimg.szwego.com/20220427/i1651072590_4556_2.jpg","https://xcimg.szwego.com/20220427/i1651072590_8942_3.jpg","https://xcimg.szwego.com/20220427/i1651072590_9936_4.jpg","https://xcimg.szwego.com/20220427/i1651072590_1835_5.jpg","https://xcimg.szwego.com/20220427/i1651072590_1067_6.jpg","https://xcimg.szwego.com/20220427/i1651072590_1437_7.jpg","https://xcimg.szwego.com/20220427/i1651072590_4406_8.jpg"],"created_at":"2024-11-11T10:33:53.442Z"},{"id":"item-6d6bd7396286","sku":"_dASASY0EqFy_GHBENnWrMqiNystvz7Y1u1c2-Ow","name_en":"Fendi Women Bags","name_cn":"正品级 复刻版芬迪\n💗FEND1  剪羊毛法棍包🥖\n从中古帆布到现在的新品剪羊毛,一个好看的包型,虽然不是新样貌,但真的是百看不厌,流淌着经典的血液,重新面世的法棍,还是一如既往的好评,非常苏胡的羊毛像棉花一样柔软,这样的法棍怎能不入手!\n中号26x13x6cm\n款号8600","specs":{"source":"wsxcme","sourceId":"_dASASY0EqFy_GHBENnWrMqiNystvz7Y1u1c2-Ow","sourceTagId":47002731,"sourceTagName":"芬迪/女包","modelNumber":"8600","rawTitle":"正品级 复刻版芬迪\n💗FEND1  剪羊毛法棍包🥖\n从中古帆布到现在的新品剪羊毛,一个好看的包型,虽然不是新样貌,但真的是百看不厌,流淌着经典的血液,重新面世的法棍,还是一如既往的好评,非常苏胡的羊毛像棉花一样柔软,这样的法棍怎能不入手!\n中号26x13x6cm\n款号8600"},"price":null,"currency":"CNY","moq":1,"category":"fendi-women-bags","status":"active","alibaba_url":null,"images":["https://xcimg.szwego.com/20220807/i1659838491_2767_0.jpg","https://xcimg.szwego.com/20220807/i1659838491_7666_1.jpg","https://xcimg.szwego.com/20220807/i1659838491_3693_2.jpg","https://xcimg.szwego.com/20220807/i1659838491_7935_3.jpg","https://xcimg.szwego.com/20220807/i1659838491_5604_4.jpg","https://xcimg.szwego.com/20220807/i1659838491_1975_5.jpg","https://xcimg.szwego.com/20220807/i1659838491_3397_6.jpg","https://xcimg.szwego.com/20220807/i1659838491_3606_7.jpg","https://xcimg.szwego.com/20220807/i1659838491_4029_8.jpg"],"created_at":"2024-11-11T10:33:53.441Z"},{"id":"item-f258cba25785","sku":"_dqKqK0mHjqS0EmvPIrGNsmrf8U-XPGj38Z5Bu5g","name_en":"Fendi Women Bags","name_cn":"正品级 复刻版芬迪\n💗FEND1 秋冬新款剪羊毛小水桶\n#MonTrésor#小水桶手袋,玲珑水桶造型碰撞由剪羊毛挂毯工艺新意演绎的FF LOGO,潮酷魅力中更添一分精致韵味\n包容你的所有个性,也守护你的少女心思,满身潮酷FF LOGO组合小巧水桶包型,简约有型亦轻快灵动🐱\n尺寸18x12cm\n款号277","specs":{"source":"wsxcme","sourceId":"_dqKqK0mHjqS0EmvPIrGNsmrf8U-XPGj38Z5Bu5g","sourceTagId":47002731,"sourceTagName":"芬迪/女包","modelNumber":"277","rawTitle":"正品级 复刻版芬迪\n💗FEND1 秋冬新款剪羊毛小水桶\n#MonTrésor#小水桶手袋,玲珑水桶造型碰撞由剪羊毛挂毯工艺新意演绎的FF LOGO,潮酷魅力中更添一分精致韵味\n包容你的所有个性,也守护你的少女心思,满身潮酷FF LOGO组合小巧水桶包型,简约有型亦轻快灵动🐱\n尺寸18x12cm\n款号277"},"price":null,"currency":"CNY","moq":1,"category":"fendi-women-bags","status":"active","alibaba_url":null,"images":["https://xcimg.szwego.com/20220807/i1659838789_380_0.jpg","https://xcimg.szwego.com/20220807/i1659838789_6214_1.jpg","https://xcimg.szwego.com/20220807/i1659838789_2447_2.jpg","https://xcimg.szwego.com/20220807/i1659838789_8010_3.jpg","https://xcimg.szwego.com/20220807/i1659838789_3286_4.jpg","https://xcimg.szwego.com/20220807/i1659838789_3127_5.jpg","https://xcimg.szwego.com/20220807/i1659838789_8731_6.jpg","https://xcimg.szwego.com/20220807/i1659838789_7618_7.jpg","https://xcimg.szwego.com/20220807/i1659838789_2725_8.jpg"],"created_at":"2024-11-11T10:33:53.440Z"},{"id":"item-d0ece0ff90d8","sku":"_dm7m709i_eWqt76Z38DpJyhhlg_jqzU5viHl1vg","name_en":"Fendi Women Bags","name_cn":"正品级 复刻版芬迪\n💗FENDI羊羔毛系列\n精选毛绒 有着自然柔滑的触感 这个秋冬~从指尖暖到心头 时尚 F logo带来奢华的视觉享受 23cm\n款号244","specs":{"source":"wsxcme","sourceId":"_dm7m709i_eWqt76Z38DpJyhhlg_jqzU5viHl1vg","sourceTagId":47002731,"sourceTagName":"芬迪/女包","modelNumber":"244","rawTitle":"正品级 复刻版芬迪\n💗FENDI羊羔毛系列\n精选毛绒 有着自然柔滑的触感 这个秋冬~从指尖暖到心头 时尚 F logo带来奢华的视觉享受 23cm\n款号244"},"price":null,"currency":"CNY","moq":1,"category":"fendi-women-bags","status":"active","alibaba_url":null,"images":["https://xcimg.szwego.com/20231008/i1696737111_6461_0.jpg","https://xcimg.szwego.com/20231008/i1696737111_1794_1.jpg","https://xcimg.szwego.com/20231008/i1696737111_7358_2.jpg","https://xcimg.szwego.com/20231008/i1696737111_4289_3.jpg","https://xcimg.szwego.com/20231008/i1696737111_6071_4.jpg","https://xcimg.szwego.com/20231008/i1696737111_9990_5.jpg","https://xcimg.szwego.com/20231008/i1696737111_8135_6.jpg","https://xcimg.szwego.com/20231008/i1696737111_4329_7.jpg","https://xcimg.szwego.com/20231008/i1696737111_7616_8.jpg"],"created_at":"2024-11-11T10:33:53.439Z"},{"id":"item-cf0bc697e5d3","sku":"_d6r6rRcdt11uYSB5m3sQMlnsNUmZ5MFObxVrdlg","name_en":"Fendi Women Bags","name_cn":"正品级 复刻版芬迪\n💗Fendi最新的小号Simply秀款,自带一种高级的松弛感,柔软的小牛皮材质手感超细腻,拉链式设计给你属于自己的私密小空间,可调节长短的肩带不要太香,可单肩或手拎,一款能随心应变的包包,太酷啦!\n349\n尺寸22x4.5x13cm","specs":{"source":"wsxcme","sourceId":"_d6r6rRcdt11uYSB5m3sQMlnsNUmZ5MFObxVrdlg","sourceTagId":47002731,"sourceTagName":"芬迪/女包","dimensions":{"lengthCm":22,"heightCm":4.5,"widthCm":13},"rawTitle":"正品级 复刻版芬迪\n💗Fendi最新的小号Simply秀款,自带一种高级的松弛感,柔软的小牛皮材质手感超细腻,拉链式设计给你属于自己的私密小空间,可调节长短的肩带不要太香,可单肩或手拎,一款能随心应变的包包,太酷啦!\n349\n尺寸22x4.5x13cm"},"price":null,"currency":"CNY","moq":1,"category":"fendi-women-bags","status":"active","alibaba_url":null,"images":["https://xcimg.szwego.com/20240805/i1722838109_7622_0.jpg","https://xcimg.szwego.com/20240805/i1722838109_2543_1.jpg","https://xcimg.szwego.com/20240805/i1722838109_571_2.jpg","https://xcimg.szwego.com/20240805/i1722838109_2050_3.jpg","https://xcimg.szwego.com/20240805/i1722838109_994_4.jpg","https://xcimg.szwego.com/20240805/i1722838109_4051_5.jpg","https://xcimg.szwego.com/20240805/i1722838109_6130_6.jpg","https://xcimg.szwego.com/20240805/i1722838109_491_7.jpg","https://xcimg.szwego.com/20240805/i1722838109_4143_8.jpg"],"created_at":"2024-11-11T10:33:53.438Z"},{"id":"item-64b70a27b46e","sku":"_dEpEpCY1dU9u6lMAoB0Mml7CTjzRB2AXC2q8RMw","name_en":"Fendi Women Bags","name_cn":"正品级 复刻版芬迪\n💗Fendi最新的中号Simply秀款,自带一种高级的松弛感,柔软的小牛皮材质手感超细腻,拉链式设计给你属于自己的私密小空间,可调节长短的肩带不要太香,可单肩,斜挎或手拎,一款能随心应变的包包,太酷啦!\n348\n尺寸34.5x4.5x20cm","specs":{"source":"wsxcme","sourceId":"_dEpEpCY1dU9u6lMAoB0Mml7CTjzRB2AXC2q8RMw","sourceTagId":47002731,"sourceTagName":"芬迪/女包","dimensions":{"lengthCm":34.5,"heightCm":4.5,"widthCm":20},"rawTitle":"正品级 复刻版芬迪\n💗Fendi最新的中号Simply秀款,自带一种高级的松弛感,柔软的小牛皮材质手感超细腻,拉链式设计给你属于自己的私密小空间,可调节长短的肩带不要太香,可单肩,斜挎或手拎,一款能随心应变的包包,太酷啦!\n348\n尺寸34.5x4.5x20cm"},"price":null,"currency":"CNY","moq":1,"category":"fendi-women-bags","status":"active","alibaba_url":null,"images":["https://xcimg.szwego.com/20240824/i1724479102_1398_0.jpg","https://xcimg.szwego.com/20240824/i1724479102_8124_1.jpg","https://xcimg.szwego.com/20240824/i1724479102_4382_2.jpg","https://xcimg.szwego.com/20240824/i1724479102_552_3.jpg","https://xcimg.szwego.com/20240824/i1724479102_7463_4.jpg","https://xcimg.szwego.com/20240824/i1724479102_3204_5.jpg","https://xcimg.szwego.com/20240824/i1724479102_8493_6.jpg","https://xcimg.szwego.com/20240824/i1724479102_2907_7.jpg","https://xcimg.szwego.com/20240824/i1724479102_5604_8.jpg"],"created_at":"2024-11-11T10:33:53.437Z"},{"id":"item-8aaf6addf061","sku":"_dvCvCnUUoyUbuL6XFQffrdZMjOPRk6ncnZz9sjA","name_en":"Fendi Women Bags","name_cn":"正品级 复刻版芬迪\n💗Fendi最新的大号Simply秀款,自带一种高级的松弛感,柔软的小牛皮材质手感超细腻,拉链式设计给你属于自己的私密小空间,可调节长短的肩带不要太香,可单肩,斜挎或手拎,一款能随心应变的包包,太酷啦!\n352\n尺寸39.5x5.5x28cm","specs":{"source":"wsxcme","sourceId":"_dvCvCnUUoyUbuL6XFQffrdZMjOPRk6ncnZz9sjA","sourceTagId":47002731,"sourceTagName":"芬迪/女包","dimensions":{"lengthCm":39.5,"heightCm":5.5,"widthCm":28},"rawTitle":"正品级 复刻版芬迪\n💗Fendi最新的大号Simply秀款,自带一种高级的松弛感,柔软的小牛皮材质手感超细腻,拉链式设计给你属于自己的私密小空间,可调节长短的肩带不要太香,可单肩,斜挎或手拎,一款能随心应变的包包,太酷啦!\n352\n尺寸39.5x5.5x28cm"},"price":null,"currency":"CNY","moq":1,"category":"fendi-women-bags","status":"active","alibaba_url":null,"images":["https://xcimg.szwego.com/20240824/i1724479653_6172_0.jpg","https://xcimg.szwego.com/20240824/i1724479653_6969_1.jpg","https://xcimg.szwego.com/20240824/i1724479653_19_2.jpg","https://xcimg.szwego.com/20240824/i1724479653_1500_3.jpg","https://xcimg.szwego.com/20240824/i1724479653_3798_4.jpg","https://xcimg.szwego.com/20240824/i1724479653_1738_5.jpg","https://xcimg.szwego.com/20240824/i1724479653_5548_6.jpg","https://xcimg.szwego.com/20240824/i1724479653_3594_7.jpg","https://xcimg.szwego.com/20240824/i1724479653_9737_8.jpg"],"created_at":"2024-11-11T10:33:53.436Z"},{"id":"item-8ae73020b8a1","sku":"_d8585iGLZ16hHhmvUWm6hnz4i7uXXUZzPlEMFyw","name_en":"Fendi Women Bags","name_cn":"正品级 复刻版芬迪\n💗Fendi 春夏新款帆布购物袋 ~~ 米色的帆布自重轻赋予这款包独有的魅力,经典刺绣大LOGO配上树脂双手柄材质也是一大亮点之一,肩背手提不在话下,容量也是超超超级大~~size 36×13×32cm \n款号 372s杏色","specs":{"source":"wsxcme","sourceId":"_d8585iGLZ16hHhmvUWm6hnz4i7uXXUZzPlEMFyw","sourceTagId":47002731,"sourceTagName":"芬迪/女包","modelNumber":"372s杏色","rawTitle":"正品级 复刻版芬迪\n💗Fendi 春夏新款帆布购物袋 ~~ 米色的帆布自重轻赋予这款包独有的魅力,经典刺绣大LOGO配上树脂双手柄材质也是一大亮点之一,肩背手提不在话下,容量也是超超超级大~~size 36×13×32cm \n款号 372s杏色"},"price":null,"currency":"CNY","moq":1,"category":"fendi-women-bags","status":"active","alibaba_url":null,"images":["https://xcimg.szwego.com/20221102/i1667360897_1766_0.jpg","https://xcimg.szwego.com/20221102/i1667360897_7158_1.jpg","https://xcimg.szwego.com/20221102/i1667360897_8959_2.jpg","https://xcimg.szwego.com/20221102/i1667360897_9243_3.jpg","https://xcimg.szwego.com/20221102/i1667360897_5727_4.jpg","https://xcimg.szwego.com/20221102/i1667360897_9544_5.jpg","https://xcimg.szwego.com/20221102/i1667360897_4152_6.jpg","https://xcimg.szwego.com/20221102/i1667360897_8030_7.jpg","https://xcimg.szwego.com/20221102/i1667360897_600_8.jpg"],"created_at":"2024-11-11T10:33:53.435Z"},{"id":"item-760a6e8e9b47","sku":"_dbLbLnGAHfH79QjKzG1H1TRP8ATC2HFza80lCoQ","name_en":"Fendi Women Bags","name_cn":"正品级 复刻版芬迪\n💗Fendi sunshine shopper 镂空手提包👜\n⚠️ 中号有配肩带\nSize: 35-17-31cm  \n372","specs":{"source":"wsxcme","sourceId":"_dbLbLnGAHfH79QjKzG1H1TRP8ATC2HFza80lCoQ","sourceTagId":47002731,"sourceTagName":"芬迪/女包","rawTitle":"正品级 复刻版芬迪\n💗Fendi sunshine shopper 镂空手提包👜\n⚠️ 中号有配肩带\nSize: 35-17-31cm  \n372"},"price":null,"currency":"CNY","moq":1,"category":"fendi-women-bags","status":"active","alibaba_url":null,"images":["https://xcimg.szwego.com/20220717/i1658043259_4633_1.jpg","https://xcimg.szwego.com/20220717/i1658043259_6135_2.jpg","https://xcimg.szwego.com/20220717/i1658043259_5133_3.jpg","https://xcimg.szwego.com/20220717/i1658043259_6637_4.jpg","https://xcimg.szwego.com/20220717/i1658043259_8069_5.jpg","https://xcimg.szwego.com/20220717/i1658043259_7337_6.jpg","https://xcimg.szwego.com/20220717/i1658043259_4279_7.jpg","https://xcimg.szwego.com/20220717/i1658043259_4516_8.jpg","https://xcimg.szwego.com/20220717/i1658043259_5357_0.jpg"],"created_at":"2024-11-11T10:33:53.434Z"},{"id":"item-626bec4f99b0","sku":"_dwxwxA9qg_l7sum0HaEzAS7N1mokQLlGpWJBHHg","name_en":"Fendi Women Bags","name_cn":"正品级 复刻版芬迪\n💗🎶Fend•🥖baguette经典中号款式 FF刺绣构成的彩色系浮雕图案  Size:19/4/11.5cm\n8017","specs":{"source":"wsxcme","sourceId":"_dwxwxA9qg_l7sum0HaEzAS7N1mokQLlGpWJBHHg","sourceTagId":47002731,"sourceTagName":"芬迪/女包","rawTitle":"正品级 复刻版芬迪\n💗🎶Fend•🥖baguette经典中号款式 FF刺绣构成的彩色系浮雕图案  Size:19/4/11.5cm\n8017"},"price":null,"currency":"CNY","moq":1,"category":"fendi-women-bags","status":"active","alibaba_url":null,"images":["https://xcimg.szwego.com/20240428/i1714297340_7503_0.jpg","https://xcimg.szwego.com/20240428/i1714297340_598_1.jpg","https://xcimg.szwego.com/20240428/i1714297340_9411_2.jpg","https://xcimg.szwego.com/20240428/i1714297340_612_3.jpg","https://xcimg.szwego.com/20240428/i1714297340_6898_4.jpg","https://xcimg.szwego.com/20240428/i1714297340_3987_5.jpg","https://xcimg.szwego.com/20240428/i1714297340_822_6.jpg","https://xcimg.szwego.com/20240428/i1714297340_6876_7.jpg","https://xcimg.szwego.com/20240428/i1714297340_7479_8.jpg"],"created_at":"2024-11-11T10:33:53.433Z"},{"id":"item-85e6db602f5d","sku":"_dKhKhTUbOtfcdyYQ1y3EWf9vKUwIyNVMSmbY7Rg","name_en":"Fendi Women Bags","name_cn":"正品级 复刻版芬迪\n💗🎶Fend•🥖baguette经典中号款式 FF刺绣构成的彩色系浮雕图案  Size:27-6-15 \n8600","specs":{"source":"wsxcme","sourceId":"_dKhKhTUbOtfcdyYQ1y3EWf9vKUwIyNVMSmbY7Rg","sourceTagId":47002731,"sourceTagName":"芬迪/女包","rawTitle":"正品级 复刻版芬迪\n💗🎶Fend•🥖baguette经典中号款式 FF刺绣构成的彩色系浮雕图案  Size:27-6-15 \n8600"},"price":null,"currency":"CNY","moq":1,"category":"fendi-women-bags","status":"active","alibaba_url":null,"images":["https://xcimg.szwego.com/20240427/i1714206995_8302_0.jpg","https://xcimg.szwego.com/20240427/i1714206995_2413_1.jpg","https://xcimg.szwego.com/20240427/i1714206995_8687_2.jpg","https://xcimg.szwego.com/20240427/i1714206995_1383_3.jpg","https://xcimg.szwego.com/20240427/i1714206995_8303_4.jpg","https://xcimg.szwego.com/20240427/i1714206995_5906_5.jpg","https://xcimg.szwego.com/20240427/i1714206995_7333_6.jpg","https://xcimg.szwego.com/20240427/i1714206995_2244_7.jpg","https://xcimg.szwego.com/20240427/i1714206995_3355_8.jpg"],"created_at":"2024-11-11T10:33:53.432Z"},{"id":"item-899fe718370e","sku":"_dwTwToh62blDsQdz4YkljitGA41qLMxt4dfNsGA","name_en":"Fendi Women Bags","name_cn":"正品级 复刻版芬迪\n💗🎶Fend•🥖baguette 彩色刺绣 超A怎么凹都可以 \nSize:27-6-15 \n8600","specs":{"source":"wsxcme","sourceId":"_dwTwToh62blDsQdz4YkljitGA41qLMxt4dfNsGA","sourceTagId":47002731,"sourceTagName":"芬迪/女包","rawTitle":"正品级 复刻版芬迪\n💗🎶Fend•🥖baguette 彩色刺绣 超A怎么凹都可以 \nSize:27-6-15 \n8600"},"price":null,"currency":"CNY","moq":1,"category":"fendi-women-bags","status":"active","alibaba_url":null,"images":["https://xcimg.szwego.com/20230925/i1695621906_6813_0.jpg","https://xcimg.szwego.com/20230925/i1695621906_3775_1.jpg","https://xcimg.szwego.com/20230925/i1695621906_980_2.jpg","https://xcimg.szwego.com/20230925/i1695621906_2924_3.jpg","https://xcimg.szwego.com/20230925/i1695621906_9401_4.jpg","https://xcimg.szwego.com/20230925/i1695621906_7887_5.jpg","https://xcimg.szwego.com/20230925/i1695621906_9158_8.jpg","https://xcimg.szwego.com/20230925/i1695621906_9781_6.jpg","https://xcimg.szwego.com/20230925/i1695621906_2351_7.jpg"],"created_at":"2024-11-11T10:33:53.431Z"},{"id":"item-c02a21260441","sku":"_dOlOl2NxKCQj16tU5ZLQc-et25C-JMzvKbXV9VQ","name_en":"Fendi Women Bags","name_cn":"正品级 复刻版芬迪\n💗FD🥖baguette 让人驻足的心动色调 \n彩线缝制工艺 太治愈了 随时准备拎包出门🚪🔜26cm\n款号8600","specs":{"source":"wsxcme","sourceId":"_dOlOl2NxKCQj16tU5ZLQc-et25C-JMzvKbXV9VQ","sourceTagId":47002731,"sourceTagName":"芬迪/女包","modelNumber":"8600","rawTitle":"正品级 复刻版芬迪\n💗FD🥖baguette 让人驻足的心动色调 \n彩线缝制工艺 太治愈了 随时准备拎包出门🚪🔜26cm\n款号8600"},"price":null,"currency":"CNY","moq":1,"category":"fendi-women-bags","status":"active","alibaba_url":null,"images":["https://xcimg.szwego.com/20220418/i1650268722_4387_0.jpg","https://xcimg.szwego.com/20220418/i1650268722_7040_1.jpg","https://xcimg.szwego.com/20220418/i1650268722_841_2.jpg","https://xcimg.szwego.com/20220418/i1650268722_1564_3.jpg","https://xcimg.szwego.com/20220418/i1650268722_8072_4.jpg","https://xcimg.szwego.com/20220418/i1650268722_8819_5.jpg","https://xcimg.szwego.com/20220418/i1650268722_5831_6.jpg","https://xcimg.szwego.com/20220418/i1650268722_6821_7.jpg","https://xcimg.szwego.com/20220418/i1650268722_3908_8.jpg"],"created_at":"2024-11-11T10:33:53.430Z"},{"id":"item-69edcaba64cb","sku":"_drGrGlAaz0m_0yd2qJFrJK6PwtEizRwkEbuyhPw","name_en":"Fendi Women Bags","name_cn":"正品级 复刻版芬迪\n💗F̶e̶n̶d̶i̶  ̶ Baguette 法棍, 春夏最新爆款 米色亚麻布材质,拼色刺绣缝线色彩🍭,采用翻盖设计,内衬配有拉链袋,手柄带可拆卸可手拎,🌈把夏天的颜色都揉入包里,时尚博主实名推荐,必入款 🧡 Size :26cm.\n款号8600","specs":{"source":"wsxcme","sourceId":"_drGrGlAaz0m_0yd2qJFrJK6PwtEizRwkEbuyhPw","sourceTagId":47002731,"sourceTagName":"芬迪/女包","modelNumber":"8600","rawTitle":"正品级 复刻版芬迪\n💗F̶e̶n̶d̶i̶  ̶ Baguette 法棍, 春夏最新爆款 米色亚麻布材质,拼色刺绣缝线色彩🍭,采用翻盖设计,内衬配有拉链袋,手柄带可拆卸可手拎,🌈把夏天的颜色都揉入包里,时尚博主实名推荐,必入款 🧡 Size :26cm.\n款号8600"},"price":null,"currency":"CNY","moq":1,"category":"fendi-women-bags","status":"active","alibaba_url":null,"images":["https://xcimg.szwego.com/20220418/i1650268264_8685_0.jpg","https://xcimg.szwego.com/20220418/i1650268264_6323_1.jpg","https://xcimg.szwego.com/20220418/i1650268264_9786_2.jpg","https://xcimg.szwego.com/20220418/i1650268264_4247_3.jpg","https://xcimg.szwego.com/20220418/i1650268264_5410_4.jpg","https://xcimg.szwego.com/20220418/i1650268264_8495_5.jpg","https://xcimg.szwego.com/20220418/i1650268264_4432_6.jpg","https://xcimg.szwego.com/20220418/i1650268264_3946_7.jpg","https://xcimg.szwego.com/20220418/i1650268264_892_8.jpg"],"created_at":"2024-11-11T10:33:53.429Z"}],"page":13,"pageSize":24,"total":348,"totalPages":15}
