{"items":[{"id":"item-9a79ce94259d","sku":"_d_V_Vpoa4XrSDzef5lS8_2zX2gGCINvW9BFARuQ","name_en":"Camel","name_cn":"Camel\nMon Tresor\nLight Blue Leather Mini Bag More Details\nMon Tresor Small Bucket Bag, featuring drawstring and Fendi metal logo. Includes one long and one short detachable shoulder strap, for hand, shoulder, or crossbody wear. Light blue calfskin material. Black hand-painted embossed FF logo pattern. Gold hardware. Made in Italy\nMaterial:\nExterior: Calfskin Lining: Fabric\nDepth:\n10\nLength:\n12\nHeight:\n18\nStyle: 226","specs":{"source":"wsxcme","sourceId":"_d_V_Vpoa4XrSDzef5lS8_2zX2gGCINvW9BFARuQ","sourceTagId":47002731,"sourceTagName":"/women's bag","modelNumber":"226","rawTitle":"Camel\nMon Tresor\nLight Blue Leather Mini Bag More Details\nMon Tresor Small Bucket Bag, featuring drawstring and Fendi metal logo. Includes one long and one short detachable shoulder strap, for hand, shoulder, or crossbody wear. Light blue calfskin material. Black hand-painted embossed FF logo pattern. Gold hardware. Made in Italy\nMaterial:\nExterior: Calfskin Lining: Fabric\nDepth:\n10\nLength:\n12\nHeight:\n18\nStyle: 226"},"price":null,"currency":"CNY","moq":1,"category":"fendi-women-bags","status":"active","alibaba_url":null,"images":["https://xcimg.szwego.com/20240420/i1713586377_1029_0.jpg","https://xcimg.szwego.com/20240420/i1713586377_5882_1.jpg","https://xcimg.szwego.com/20240420/i1713586377_5765_2.jpg","https://xcimg.szwego.com/20240420/i1713586377_2566_3.jpg","https://xcimg.szwego.com/20240420/i1713586377_8796_4.jpg","https://xcimg.szwego.com/20240420/i1713586377_2615_5.jpg","https://xcimg.szwego.com/20240420/i1713586377_8867_6.jpg","https://xcimg.szwego.com/20240420/i1713586377_9769_7.jpg","https://xcimg.szwego.com/20240420/i1713586377_4933_8.jpg"],"created_at":"2024-04-30T07:04:54.296Z"},{"id":"item-e4fa0bdb65db","sku":"_denenNAgbvR8g3XFperUVT9-PiCcN5aFyje0Tww","name_en":"Blue Fabric","name_cn":"Blue Fabric\nMon Tresor\nLight Blue Leather Mini Bag More Details\nMon Tresor Small Bucket Bag, featuring drawstring and Fendi metal logo. Includes one long and one short detachable shoulder strap, for hand, shoulder, or crossbody wear. Light blue calfskin material. Black hand-painted embossed FF logo pattern. Gold hardware. Made in Italy\nMaterial:\nExterior: Calfskin Lining: Fabric\nDepth:\n10\nLength:\n12\nHeight:\n18\nStyle: 226","specs":{"source":"wsxcme","sourceId":"_denenNAgbvR8g3XFperUVT9-PiCcN5aFyje0Tww","sourceTagId":47002731,"sourceTagName":"/women's bag","modelNumber":"226","rawTitle":"Blue Fabric\nMon Tresor\nLight Blue Leather Mini Bag More Details\nMon Tresor Small Bucket Bag, featuring drawstring and Fendi metal logo. Includes one long and one short detachable shoulder strap, for hand, shoulder, or crossbody wear. Light blue calfskin material. Black hand-painted embossed FF logo pattern. Gold hardware. Made in Italy\nMaterial:\nExterior: Calfskin Lining: Fabric\nDepth:\n10\nLength:\n12\nHeight:\n18\nStyle: 226"},"price":null,"currency":"CNY","moq":1,"category":"fendi-women-bags","status":"active","alibaba_url":null,"images":["https://xcimg.szwego.com/20240420/i1713586345_7772_0.jpg","https://xcimg.szwego.com/20240420/i1713586345_2584_1.jpg","https://xcimg.szwego.com/20240420/i1713586345_4477_2.jpg","https://xcimg.szwego.com/20240420/i1713586345_2123_3.jpg","https://xcimg.szwego.com/20240420/i1713586345_5262_4.jpg","https://xcimg.szwego.com/20240420/i1713586345_9954_5.jpg","https://xcimg.szwego.com/20240420/i1713586345_4435_6.jpg","https://xcimg.szwego.com/20240420/i1713586345_9701_7.jpg","https://xcimg.szwego.com/20240420/i1713586345_7672_8.jpg"],"created_at":"2024-04-30T07:04:54.295Z"},{"id":"item-a491e1b9ba90","sku":"_dsvsvGvNWUDyxcb5PHNZZeUrA5LFGVaMWLnJ8mA","name_en":"Dove Grey Fabric","name_cn":"Dove Grey Fabric\nMon Tresor\nLight Blue Leather Mini Bag More Details\nMon Tresor Small Bucket Bag, featuring drawstring and Fendi metal logo. Includes one long and one short detachable shoulder strap, for hand, shoulder, or crossbody wear. Light blue calfskin material. Black hand-painted embossed FF logo pattern. Gold hardware. Made in Italy\nMaterial:\nExterior: Calfskin Lining: Fabric\nDepth:\n10\nLength:\n12\nHeight:\n18\nStyle: 226","specs":{"source":"wsxcme","sourceId":"_dsvsvGvNWUDyxcb5PHNZZeUrA5LFGVaMWLnJ8mA","sourceTagId":47002731,"sourceTagName":"/women's bag","modelNumber":"226","rawTitle":"Dove Grey Fabric\nMon Tresor\nLight Blue Leather Mini Bag More Details\nMon Tresor Small Bucket Bag, featuring drawstring and Fendi metal logo. Includes one long and one short detachable shoulder strap, for hand, shoulder, or crossbody wear. Light blue calfskin material. Black hand-painted embossed FF logo pattern. Gold hardware. Made in Italy\nMaterial:\nExterior: Calfskin Lining: Fabric\nDepth:\n10\nLength:\n12\nHeight:\n18\nStyle: 226"},"price":null,"currency":"CNY","moq":1,"category":"fendi-women-bags","status":"active","alibaba_url":null,"images":["https://xcimg.szwego.com/20230517/i1684300347_2525_0.jpg","https://xcimg.szwego.com/20230517/i1684300347_4183_1.jpg","https://xcimg.szwego.com/20230517/i1684300347_546_2.jpg","https://xcimg.szwego.com/20230517/i1684300347_5271_3.jpg","https://xcimg.szwego.com/20230517/i1684300347_3991_4.jpg","https://xcimg.szwego.com/20230517/i1684300347_9060_5.jpg","https://xcimg.szwego.com/20230517/i1684300347_929_6.jpg","https://xcimg.szwego.com/20230517/i1684300347_2033_7.jpg","https://xcimg.szwego.com/20230517/i1684300347_9549_8.jpg"],"created_at":"2024-04-30T07:04:54.294Z"},{"id":"item-b8d6587bcb50","sku":"_dogogLCY39oXVKzX9FZVnHhwCCBIKypR1lP1bDQ","name_en":"White Embossed","name_cn":"White Embossed\nMon Tresor\nLight Blue Leather Mini Bag More Details\nMon Tresor Small Bucket Bag, featuring drawstring and Fendi metal logo. Includes one long and one short detachable shoulder strap, for hand, shoulder, or crossbody wear. Light blue calfskin material. Black hand-painted embossed FF logo pattern. Gold hardware. Made in Italy\nMaterial:\nExterior: Calfskin Lining: Fabric\nDepth:\n10\nLength:\n12\nHeight:\n18\nStyle: 226","specs":{"source":"wsxcme","sourceId":"_dogogLCY39oXVKzX9FZVnHhwCCBIKypR1lP1bDQ","sourceTagId":47002731,"sourceTagName":"/women's bag","modelNumber":"226","rawTitle":"White Embossed\nMon Tresor\nLight Blue Leather Mini Bag More Details\nMon Tresor Small Bucket Bag, featuring drawstring and Fendi metal logo. Includes one long and one short detachable shoulder strap, for hand, shoulder, or crossbody wear. Light blue calfskin material. Black hand-painted embossed FF logo pattern. Gold hardware. Made in Italy\nMaterial:\nExterior: Calfskin Lining: Fabric\nDepth:\n10\nLength:\n12\nHeight:\n18\nStyle: 226"},"price":null,"currency":"CNY","moq":1,"category":"fendi-women-bags","status":"active","alibaba_url":null,"images":["https://xcimg.szwego.com/20230517/i1684300227_8680_0.jpg","https://xcimg.szwego.com/20230517/i1684300227_1873_1.jpg","https://xcimg.szwego.com/20230517/i1684300227_350_2.jpg","https://xcimg.szwego.com/20230517/i1684300227_2031_3.jpg","https://xcimg.szwego.com/20230517/i1684300227_4111_4.jpg","https://xcimg.szwego.com/20230517/i1684300227_5238_5.jpg","https://xcimg.szwego.com/20230517/i1684300227_6103_6.jpg","https://xcimg.szwego.com/20230517/i1684300227_3152_7.jpg","https://xcimg.szwego.com/20230517/i1684300227_3642_8.jpg"],"created_at":"2024-04-30T07:04:54.292Z"},{"id":"item-0218da838bf0","sku":"_dlOlOQCpZN7aZbkDJpcYbB7cnZqXurUWRFewCvA","name_en":"Brown Embossed","name_cn":"Brown Embossed\nMon Tresor\nLight Blue Leather Mini Bag More Details\nMon Tresor Small Bucket Bag, featuring drawstring and Fendi metal logo. Includes one long and one short detachable shoulder strap, for hand, shoulder, or crossbody wear. Light blue calfskin material. Black hand-painted embossed FF logo pattern. Gold hardware. Made in Italy\nMaterial:\nExterior: Calfskin Lining: Fabric\nDepth:\n10\nLength:\n12\nHeight:\n18\nStyle: 226","specs":{"source":"wsxcme","sourceId":"_dlOlOQCpZN7aZbkDJpcYbB7cnZqXurUWRFewCvA","sourceTagId":47002731,"sourceTagName":"/women's bag","modelNumber":"226","rawTitle":"Brown Embossed\nMon Tresor\nLight Blue Leather Mini Bag More Details\nMon Tresor Small Bucket Bag, featuring drawstring and Fendi metal logo. Includes one long and one short detachable shoulder strap, for hand, shoulder, or crossbody wear. Light blue calfskin material. Black hand-painted embossed FF logo pattern. Gold hardware. Made in Italy\nMaterial:\nExterior: Calfskin Lining: Fabric\nDepth:\n10\nLength:\n12\nHeight:\n18\nStyle: 226"},"price":null,"currency":"CNY","moq":1,"category":"fendi-women-bags","status":"active","alibaba_url":null,"images":["https://xcimg.szwego.com/20230517/i1684300207_3186_0.jpg","https://xcimg.szwego.com/20230517/i1684300207_9288_1.jpg","https://xcimg.szwego.com/20230517/i1684300207_7210_2.jpg","https://xcimg.szwego.com/20230517/i1684300207_5741_3.jpg","https://xcimg.szwego.com/20230517/i1684300207_5678_4.jpg","https://xcimg.szwego.com/20230517/i1684300207_8706_5.jpg","https://xcimg.szwego.com/20230517/i1684300207_4050_6.jpg","https://xcimg.szwego.com/20230517/i1684300207_2411_7.jpg","https://xcimg.szwego.com/20230517/i1684300207_749_8.jpg"],"created_at":"2024-04-30T07:04:54.291Z"},{"id":"item-aa0615e942f5","sku":"_dgLgLzsszb0NIdfkxcqCHcLmq_fRDVWw8_1GhYQ","name_en":"Black embossed","name_cn":"Black embossed\nMon Tresor\nLight blue leather mini bag more details\nMon Tresor small bucket bag, featuring drawstring and Fendi metal logo decoration. Equipped with one long and one short detachable shoulder strap, can be carried by hand, over the shoulder, or crossbody. Light blue calfskin material. Black hand-painted embossed FF iconic print pattern. Gold metal hardware. Made in Italy\nMaterial:\nExterior: Calfskin Lining: Fabric\nDepth:\n10\nLength:\n12\nHeight:\n18\nStyle No.: 226","specs":{"source":"wsxcme","sourceId":"_dgLgLzsszb0NIdfkxcqCHcLmq_fRDVWw8_1GhYQ","sourceTagId":47002731,"sourceTagName":"/women's bag","modelNumber":"226","rawTitle":"Black embossed\nMon Tresor\nLight blue leather mini bag more details\nMon Tresor small bucket bag, featuring drawstring and Fendi metal logo decoration. Equipped with one long and one short detachable shoulder strap, can be carried by hand, over the shoulder, or crossbody. Light blue calfskin material. Black hand-painted embossed FF iconic print pattern. Gold metal hardware. Made in Italy\nMaterial:\nExterior: Calfskin Lining: Fabric\nDepth:\n10\nLength:\n12\nHeight:\n18\nStyle No.: 226"},"price":null,"currency":"CNY","moq":1,"category":"fendi-women-bags","status":"active","alibaba_url":null,"images":["https://xcimg.szwego.com/20230517/i1684300161_6746_0.jpg","https://xcimg.szwego.com/20230517/i1684300161_4393_1.jpg","https://xcimg.szwego.com/20230517/i1684300161_54_2.jpg","https://xcimg.szwego.com/20230517/i1684300161_7142_3.jpg","https://xcimg.szwego.com/20230517/i1684300161_2615_4.jpg","https://xcimg.szwego.com/20230517/i1684300161_2146_5.jpg","https://xcimg.szwego.com/20230517/i1684300161_2658_6.jpg","https://xcimg.szwego.com/20230517/i1684300161_8406_7.jpg","https://xcimg.szwego.com/20230517/i1684300161_7712_8.jpg"],"created_at":"2024-04-30T07:04:54.290Z"},{"id":"item-709bba77c4ed","sku":"_dwUwUmc8ZM7JcPnyL29F54OKRse6gnfGgOwMe3Q","name_en":"Khaki","name_cn":"Khaki\nMon Tresor\nLight blue leather mini bag more details\nMon Tresor small bucket bag, featuring drawstring and Fendi metal logo decoration. Equipped with one long and one short detachable shoulder strap, can be carried by hand, over the shoulder, or crossbody. Light blue calfskin material. Black hand-painted embossed FF iconic print pattern. Gold metal hardware. Made in Italy\nMaterial:\nExterior: Calfskin Lining: Fabric\nDepth:\n10\nLength:\n12\nHeight:\n18\nStyle No.: 226","specs":{"source":"wsxcme","sourceId":"_dwUwUmc8ZM7JcPnyL29F54OKRse6gnfGgOwMe3Q","sourceTagId":47002731,"sourceTagName":"/women's bag","modelNumber":"226","rawTitle":"Khaki\nMon Tresor\nLight blue leather mini bag more details\nMon Tresor small bucket bag, featuring drawstring and Fendi metal logo decoration. Equipped with one long and one short detachable shoulder strap, can be carried by hand, over the shoulder, or crossbody. Light blue calfskin material. Black hand-painted embossed FF iconic print pattern. Gold metal hardware. Made in Italy\nMaterial:\nExterior: Calfskin Lining: Fabric\nDepth:\n10\nLength:\n12\nHeight:\n18\nStyle No.: 226"},"price":null,"currency":"CNY","moq":1,"category":"fendi-women-bags","status":"active","alibaba_url":null,"images":["https://xcimg.szwego.com/20230517/i1684300119_3397_0.jpg","https://xcimg.szwego.com/20230517/i1684300119_5374_1.jpg","https://xcimg.szwego.com/20230517/i1684300119_807_2.jpg","https://xcimg.szwego.com/20230517/i1684300119_7669_3.jpg","https://xcimg.szwego.com/20230517/i1684300119_2560_4.jpg","https://xcimg.szwego.com/20230517/i1684300119_6676_5.jpg","https://xcimg.szwego.com/20230517/i1684300119_5906_6.jpg","https://xcimg.szwego.com/20230517/i1684300119_3044_7.jpg","https://xcimg.szwego.com/20230517/i1684300119_4030_8.jpg"],"created_at":"2024-04-30T07:04:54.289Z"},{"id":"item-f967b14306c5","sku":"_dyhyho9llFD0UT19yGdBsrXxzt5FD7evlMuOvQg","name_en":"White","name_cn":"White\nMon Tresor\nLight blue leather mini bag more details\nMon Tresor small bucket bag, featuring drawstring and Fendi metal logo decoration. Equipped with one long and one short detachable shoulder strap, can be carried by hand, over the shoulder, or crossbody. Light blue calfskin material. Black hand-painted embossed FF iconic print pattern. Gold metal hardware. Made in Italy\nMaterial:\nExterior: Calfskin Lining: Fabric\nDepth:\n10\nLength:\n12\nHeight:\n18\nStyle No.: 226","specs":{"source":"wsxcme","sourceId":"_dyhyho9llFD0UT19yGdBsrXxzt5FD7evlMuOvQg","sourceTagId":47002731,"sourceTagName":"/women's bag","modelNumber":"226","rawTitle":"White\nMon Tresor\nLight blue leather mini bag more details\nMon Tresor small bucket bag, featuring drawstring and Fendi metal logo decoration. Equipped with one long and one short detachable shoulder strap, can be carried by hand, over the shoulder, or crossbody. Light blue calfskin material. Black hand-painted embossed FF iconic print pattern. Gold metal hardware. Made in Italy\nMaterial:\nExterior: Calfskin Lining: Fabric\nDepth:\n10\nLength:\n12\nHeight:\n18\nStyle No.: 226"},"price":null,"currency":"CNY","moq":1,"category":"fendi-women-bags","status":"active","alibaba_url":null,"images":["https://xcimg.szwego.com/20230517/i1684300088_2119_0.jpg","https://xcimg.szwego.com/20230517/i1684300088_5727_1.jpg","https://xcimg.szwego.com/20230517/i1684300088_2442_2.jpg","https://xcimg.szwego.com/20230517/i1684300088_7865_3.jpg","https://xcimg.szwego.com/20230517/i1684300088_5154_4.jpg","https://xcimg.szwego.com/20230517/i1684300088_125_5.jpg","https://xcimg.szwego.com/20230517/i1684300088_9814_6.jpg","https://xcimg.szwego.com/20230517/i1684300088_7012_7.jpg","https://xcimg.szwego.com/20230517/i1684300088_2168_8.jpg"],"created_at":"2024-04-30T07:04:54.288Z"},{"id":"item-2696a84569f3","sku":"_dewewPIRlBC5XEhYInHfHmxP544zu1FYSsmPQdQ","name_en":"Black","name_cn":"Black\nMon Tresor\nLight blue leather mini bag more details\nMon Tresor small bucket bag, featuring drawstring and Fendi metal logo decoration. Equipped with one long and one short detachable shoulder strap, can be carried by hand, over the shoulder, or crossbody. Light blue calfskin material. Black hand-painted embossed FF iconic print pattern. Gold metal hardware. Made in Italy\nMaterial:\nExterior: Calfskin Lining: Fabric\nDepth:\n10\nLength:\n12\nHeight:\n18\nStyle No.: 226","specs":{"source":"wsxcme","sourceId":"_dewewPIRlBC5XEhYInHfHmxP544zu1FYSsmPQdQ","sourceTagId":47002731,"sourceTagName":"/women's bag","modelNumber":"226","rawTitle":"Black\nMon Tresor\nLight blue leather mini bag more details\nMon Tresor small bucket bag, featuring drawstring and Fendi metal logo decoration. Equipped with one long and one short detachable shoulder strap, can be carried by hand, over the shoulder, or crossbody. Light blue calfskin material. Black hand-painted embossed FF iconic print pattern. Gold metal hardware. Made in Italy\nMaterial:\nExterior: Calfskin Lining: Fabric\nDepth:\n10\nLength:\n12\nHeight:\n18\nStyle No.: 226"},"price":null,"currency":"CNY","moq":1,"category":"fendi-women-bags","status":"active","alibaba_url":null,"images":["https://xcimg.szwego.com/20230517/i1684300056_7999_0.jpg","https://xcimg.szwego.com/20230517/i1684300056_6590_1.jpg","https://xcimg.szwego.com/20230517/i1684300056_7290_2.jpg","https://xcimg.szwego.com/20230517/i1684300056_6322_3.jpg","https://xcimg.szwego.com/20230517/i1684300056_8836_4.jpg","https://xcimg.szwego.com/20230517/i1684300056_3931_5.jpg","https://xcimg.szwego.com/20230517/i1684300056_4477_6.jpg","https://xcimg.szwego.com/20230517/i1684300056_1753_7.jpg","https://xcimg.szwego.com/20230517/i1684300056_6616_8.jpg"],"created_at":"2024-04-30T07:04:54.287Z"},{"id":"item-94818855b4b5","sku":"_dGMGM2U0Q-wZU4_6dAJBPtu9eekh4LW8k5TQTvw","name_en":"Pink","name_cn":"Pink\nMon Tresor\nLight blue leather mini bag more details\nMon Tresor small bucket bag, featuring drawstring and Fendi metal logo decoration. Equipped with one long and one short detachable shoulder strap, can be carried by hand, over the shoulder, or crossbody. Light blue calfskin material. Black hand-painted embossed FF iconic print pattern. Gold metal hardware. Made in Italy\nMaterial:\nExterior: Calfskin Lining: Fabric\nDepth:\n10\nLength:\n12\nHeight:\n18\nStyle No.: 226","specs":{"source":"wsxcme","sourceId":"_dGMGM2U0Q-wZU4_6dAJBPtu9eekh4LW8k5TQTvw","sourceTagId":47002731,"sourceTagName":"/women's bag","modelNumber":"226","rawTitle":"Pink\nMon Tresor\nLight blue leather mini bag more details\nMon Tresor small bucket bag, featuring drawstring and Fendi metal logo decoration. Equipped with one long and one short detachable shoulder strap, can be carried by hand, over the shoulder, or crossbody. Light blue calfskin material. Black hand-painted embossed FF iconic print pattern. Gold metal hardware. Made in Italy\nMaterial:\nExterior: Calfskin Lining: Fabric\nDepth:\n10\nLength:\n12\nHeight:\n18\nStyle No.: 226"},"price":null,"currency":"CNY","moq":1,"category":"fendi-women-bags","status":"active","alibaba_url":null,"images":["https://xcimg.szwego.com/20230517/i1684300028_7379_0.jpg","https://xcimg.szwego.com/20230517/i1684300028_3779_1.jpg","https://xcimg.szwego.com/20230517/i1684300028_3810_2.jpg","https://xcimg.szwego.com/20230517/i1684300028_8401_3.jpg","https://xcimg.szwego.com/20230517/i1684300028_7584_4.jpg","https://xcimg.szwego.com/20230517/i1684300028_5371_5.jpg","https://xcimg.szwego.com/20230517/i1684300028_4327_6.jpg","https://xcimg.szwego.com/20230517/i1684300028_25_7.jpg","https://xcimg.szwego.com/20230517/i1684300028_8233_8.jpg"],"created_at":"2024-04-30T07:04:54.286Z"},{"id":"item-e19fee8c8069","sku":"_djJjJhgXLMKUtAnxO2SdhhABofjCIASY5i02aMw","name_en":"Brown","name_cn":"Brown\nMon Tresor\nLight Blue Leather Mini Bag More Details\nMon Tresor small bucket bag, featuring a drawstring and Fendi metal logo decoration. Equipped with one long and one short detachable shoulder strap, it can be carried by hand, over the shoulder, or crossbody. Made of light blue calfskin. Black hand-painted embossed FF logo pattern. Gold hardware. Made in Italy\nMaterial:\nExterior: Calfskin Lining: Fabric\nDepth:\n10\nLength:\n12\nHeight:\n18\nStyle No.: 226","specs":{"source":"wsxcme","sourceId":"_djJjJhgXLMKUtAnxO2SdhhABofjCIASY5i02aMw","sourceTagId":47002731,"sourceTagName":"/women's bag","modelNumber":"226","rawTitle":"Brown\nMon Tresor\nLight Blue Leather Mini Bag More Details\nMon Tresor small bucket bag, featuring a drawstring and Fendi metal logo decoration. Equipped with one long and one short detachable shoulder strap, it can be carried by hand, over the shoulder, or crossbody. Made of light blue calfskin. Black hand-painted embossed FF logo pattern. Gold hardware. Made in Italy\nMaterial:\nExterior: Calfskin Lining: Fabric\nDepth:\n10\nLength:\n12\nHeight:\n18\nStyle No.: 226"},"price":null,"currency":"CNY","moq":1,"category":"fendi-women-bags","status":"active","alibaba_url":null,"images":["https://xcimg.szwego.com/20230517/i1684299995_8764_0.jpg","https://xcimg.szwego.com/20230517/i1684299995_7203_1.jpg","https://xcimg.szwego.com/20230517/i1684299995_7240_2.jpg","https://xcimg.szwego.com/20230517/i1684299995_5638_3.jpg","https://xcimg.szwego.com/20230517/i1684299995_506_4.jpg","https://xcimg.szwego.com/20230517/i1684299995_9355_5.jpg","https://xcimg.szwego.com/20230517/i1684299995_3244_6.jpg","https://xcimg.szwego.com/20230517/i1684299995_4049_7.jpg","https://xcimg.szwego.com/20230517/i1684299995_5486_8.jpg"],"created_at":"2024-04-30T07:04:54.285Z"},{"id":"item-2e1aa3cbc026","sku":"_dr4r4mKuPQosi7lt4oa7cuSQTXw0vA7AGDDyq4A","name_en":"Light Blue","name_cn":"Light Blue\nMon Tresor\nLight Blue Leather Mini Bag More Details\nMon Tresor small bucket bag, featuring a drawstring and Fendi metal logo decoration. Equipped with one long and one short detachable shoulder strap, it can be carried by hand, over the shoulder, or crossbody. Made of light blue calfskin. Black hand-painted embossed FF logo pattern. Gold hardware. Made in Italy\nMaterial:\nExterior: Calfskin Lining: Fabric\nDepth:\n10\nLength:\n12\nHeight:\n18\nStyle No.: 226","specs":{"source":"wsxcme","sourceId":"_dr4r4mKuPQosi7lt4oa7cuSQTXw0vA7AGDDyq4A","sourceTagId":47002731,"sourceTagName":"/women's bag","modelNumber":"226","rawTitle":"Light Blue\nMon Tresor\nLight Blue Leather Mini Bag More Details\nMon Tresor small bucket bag, featuring a drawstring and Fendi metal logo decoration. Equipped with one long and one short detachable shoulder strap, it can be carried by hand, over the shoulder, or crossbody. Made of light blue calfskin. Black hand-painted embossed FF logo pattern. Gold hardware. Made in Italy\nMaterial:\nExterior: Calfskin Lining: Fabric\nDepth:\n10\nLength:\n12\nHeight:\n18\nStyle No.: 226"},"price":null,"currency":"CNY","moq":1,"category":"fendi-women-bags","status":"active","alibaba_url":null,"images":["https://xcimg.szwego.com/20230517/i1684299937_2969_0.jpg","https://xcimg.szwego.com/20230517/i1684299937_8849_1.jpg","https://xcimg.szwego.com/20230517/i1684299937_3701_2.jpg","https://xcimg.szwego.com/20230517/i1684299937_1179_3.jpg","https://xcimg.szwego.com/20230517/i1684299937_8276_4.jpg","https://xcimg.szwego.com/20230517/i1684299937_3268_5.jpg","https://xcimg.szwego.com/20230517/i1684299937_8722_6.jpg","https://xcimg.szwego.com/20230517/i1684299937_1459_7.jpg","https://xcimg.szwego.com/20230517/i1684299937_1228_8.jpg"],"created_at":"2024-04-30T07:04:54.284Z"}],"page":15,"pageSize":24,"total":348,"totalPages":15}
