{"items":[{"id":"item-6d36e2014472","sku":"_dvHvHShSisRf-IjRIde1zFbg9pbC-P4j5-57LGA","name_en":"Fendi Women Bags","name_cn":"特级\n 🔥🔥🔥\n小号蓝色牛仔老花praphy腋下包,以月牙造型为特色,把经典金属大LogoFEND1]装饰在包包底部, 包包的轮廓很贴切身体的线条,背在腋下的时候时尚感满满,简直就是行走的种草机! \n小号尺寸20×7.5×13cm","specs":{"source":"wsxcme","sourceId":"_dvHvHShSisRf-IjRIde1zFbg9pbC-P4j5-57LGA","sourceTagId":47002731,"sourceTagName":"芬迪/女包","dimensions":{"lengthCm":20,"heightCm":7.5,"widthCm":13},"rawTitle":"特级\n 🔥🔥🔥\n小号蓝色牛仔老花praphy腋下包,以月牙造型为特色,把经典金属大LogoFEND1]装饰在包包底部, 包包的轮廓很贴切身体的线条,背在腋下的时候时尚感满满,简直就是行走的种草机! \n小号尺寸20×7.5×13cm"},"price":null,"currency":"CNY","moq":1,"category":"fendi-women-bags","status":"active","alibaba_url":null,"images":["https://xcimg.szwego.com/img/cccb0351/20260510/i1778390348112_4840_0_0.jpg","https://xcimg.szwego.com/img/cccb0351/20260510/i1778390348120_3172_0_1.jpg","https://xcimg.szwego.com/img/cccb0351/20260510/i1778390348868_7073_0_2.jpg","https://xcimg.szwego.com/img/cccb0351/20260510/i1778390348122_2298_0_3.jpg","https://xcimg.szwego.com/img/cccb0351/20260510/i1778390349546_1695_0_4.jpg","https://xcimg.szwego.com/img/cccb0351/20260510/i1778390349509_5399_0_5.jpg","https://xcimg.szwego.com/img/cccb0351/20260510/i1778390349470_7021_0_6.jpg","https://xcimg.szwego.com/img/cccb0351/20260510/i1778390348924_4285_0_7.jpg","https://xcimg.szwego.com/img/cccb0351/20260510/i1778390348919_9228_0_8.jpg"],"created_at":"2026-06-29T10:22:08.792Z"},{"id":"item-3a45ef82c58d","sku":"_dCjCjz3EHQ5gOh9ABxbh1-WvqitUEL8D7Zfk2XQ","name_en":"Peekaboo 白色","name_cn":"Peekaboo 白色\n\n\n80011","specs":{"source":"wsxcme","sourceId":"_dCjCjz3EHQ5gOh9ABxbh1-WvqitUEL8D7Zfk2XQ","sourceTagId":47002731,"sourceTagName":"芬迪/女包","rawTitle":"Peekaboo 白色\n\n\n80011"},"price":null,"currency":"CNY","moq":1,"category":"fendi-women-bags","status":"active","alibaba_url":null,"images":["https://xcimg.szwego.com/20250426/i1745640481_778_0.jpg","https://xcimg.szwego.com/20250426/i1745640481_3168_1.jpg","https://xcimg.szwego.com/20250426/i1745640481_2406_2.jpg","https://xcimg.szwego.com/20250426/i1745640481_2144_3.jpg","https://xcimg.szwego.com/20250426/i1745640481_5768_4.jpg"],"created_at":"2026-06-29T10:22:08.782Z"},{"id":"item-eb2c9c29f691","sku":"_dbNbNtVxgUq-UvEsQXoS29hM_iwdL4OS7vAyhpw","name_en":"Fendi Women Bags","name_cn":"特级\n〰️PEEKABOO  I SEE U 小号手袋,最新风琴褶造型,全皮手感细腻硬挺,细节精致到位,两侧隔层都可以打开,容量十足也很有型,高颜值与实用性完全兼顾的同时让整个包Look看起来更有质感!!size27×11×20cm \n全套包装 宽肩带小包另配 \n款号80011A白","specs":{"source":"wsxcme","sourceId":"_dbNbNtVxgUq-UvEsQXoS29hM_iwdL4OS7vAyhpw","sourceTagId":47002731,"sourceTagName":"芬迪/女包","modelNumber":"80011A白","rawTitle":"特级\n〰️PEEKABOO  I SEE U 小号手袋,最新风琴褶造型,全皮手感细腻硬挺,细节精致到位,两侧隔层都可以打开,容量十足也很有型,高颜值与实用性完全兼顾的同时让整个包Look看起来更有质感!!size27×11×20cm \n全套包装 宽肩带小包另配 \n款号80011A白"},"price":null,"currency":"CNY","moq":1,"category":"fendi-women-bags","status":"active","alibaba_url":null,"images":["https://xcimg.szwego.com/20250427/i1745740791_9042_0.jpg","https://xcimg.szwego.com/20250426/i1745640382_5684_1.jpg","https://xcimg.szwego.com/20250426/i1745640382_8218_2.jpg","https://xcimg.szwego.com/20250426/i1745640382_4453_3.jpg","https://xcimg.szwego.com/20250426/i1745640382_3552_4.jpg","https://xcimg.szwego.com/20250426/i1745640382_4192_5.jpg","https://xcimg.szwego.com/20250426/i1745640382_3661_7.jpg","https://xcimg.szwego.com/20250426/i1745640382_4999_6.jpg","https://xcimg.szwego.com/20250426/i1745640382_393_8.jpg"],"created_at":"2026-06-29T10:22:08.772Z"},{"id":"item-9e0da349e3d4","sku":"_dkSkSQfx50FGMFARD7qFWqFogTs6CjLS0U3OBmw","name_en":"Fendi Women Bags","name_cn":"灰色\n\n\n80011","specs":{"source":"wsxcme","sourceId":"_dkSkSQfx50FGMFARD7qFWqFogTs6CjLS0U3OBmw","sourceTagId":47002731,"sourceTagName":"芬迪/女包","rawTitle":"灰色\n\n\n80011"},"price":null,"currency":"CNY","moq":1,"category":"fendi-women-bags","status":"active","alibaba_url":null,"images":["https://xcimg.szwego.com/20240930/i1727680451_7469_0.jpg","https://xcimg.szwego.com/20220918/i1663471156_2651_0.jpg","https://xcimg.szwego.com/20220918/i1663471156_8882_1.jpg","https://xcimg.szwego.com/20220918/i1663471156_612_2.jpg","https://xcimg.szwego.com/20220918/i1663471156_1303_3.jpg","https://xcimg.szwego.com/20220918/i1663471156_899_4.jpg"],"created_at":"2026-06-29T10:22:08.762Z"},{"id":"item-f0dd671a36d1","sku":"_dlJlJiOjTCz5wrS6MeTZ5knz_l9e7Qef_2Rfpsg","name_en":"Fendi Women Bags","name_cn":"特级\n〰️PEEKABOO  I SEE U 小号手袋,最新风琴褶造型,全皮手感细腻硬挺,细节精致到位,两侧隔层都可以打开,容量十足也很有型,高颜值与实用性完全兼顾的同时让整个包Look看起来更有质感!!size27×11×20cm  全套包装\n款号80011A灰","specs":{"source":"wsxcme","sourceId":"_dlJlJiOjTCz5wrS6MeTZ5knz_l9e7Qef_2Rfpsg","sourceTagId":47002731,"sourceTagName":"芬迪/女包","modelNumber":"80011A灰","rawTitle":"特级\n〰️PEEKABOO  I SEE U 小号手袋,最新风琴褶造型,全皮手感细腻硬挺,细节精致到位,两侧隔层都可以打开,容量十足也很有型,高颜值与实用性完全兼顾的同时让整个包Look看起来更有质感!!size27×11×20cm  全套包装\n款号80011A灰"},"price":null,"currency":"CNY","moq":1,"category":"fendi-women-bags","status":"active","alibaba_url":null,"images":["https://xcimg.szwego.com/20240930/i1727680329_1138_0.jpg","https://xcimg.szwego.com/20240930/i1727680329_2693_1.jpg","https://xcimg.szwego.com/20240930/i1727680329_9482_2.jpg","https://xcimg.szwego.com/20240930/i1727680329_8559_3.jpg","https://xcimg.szwego.com/20240930/i1727680329_7773_4.jpg","https://xcimg.szwego.com/20240930/i1727680329_3585_5.jpg","https://xcimg.szwego.com/20240930/i1727680329_1706_6.jpg","https://xcimg.szwego.com/20240930/i1727680329_7794_7.jpg","https://xcimg.szwego.com/20240930/i1727680329_3549_8.jpg"],"created_at":"2026-06-29T10:22:08.752Z"},{"id":"item-05d4914be3ec","sku":"_dvCvCnUUoyUTvKKbNQffqdJYpNvVt6ncnZT5vjg","name_en":"Fendi Women Bags","name_cn":"克色 \n\n\n80011","specs":{"source":"wsxcme","sourceId":"_dvCvCnUUoyUTvKKbNQffqdJYpNvVt6ncnZT5vjg","sourceTagId":47002731,"sourceTagName":"芬迪/女包","rawTitle":"克色 \n\n\n80011"},"price":null,"currency":"CNY","moq":1,"category":"fendi-women-bags","status":"active","alibaba_url":null,"images":["https://xcimg.szwego.com/20221101/i1667282399_8590_0.jpg","https://xcimg.szwego.com/20221101/i1667282399_9590_1.jpg","https://xcimg.szwego.com/20221101/i1667282399_9811_2.jpg","https://xcimg.szwego.com/20221101/i1667282399_5131_3.jpg","https://xcimg.szwego.com/20221101/i1667282399_1348_4.jpg"],"created_at":"2026-06-29T10:22:08.742Z"},{"id":"item-5cbcfbca48f8","sku":"_dpWpWbzzIbU9NvLCASdvZL_Jx2sPw_Yfk3rk3XQ","name_en":"Fendi Women Bags","name_cn":"特级\n〰️PEEKABOO  I SEE U 小号手袋,最新风琴褶造型,全皮手感细腻硬挺,细节精致到位,两侧隔层都可以打开,容量十足也很有型,高颜值与实用性完全兼顾的同时让整个包Look看起来更有质感!!size27×11×20cm \n 全套包装 宽肩带小包另配 \n款号80011A克","specs":{"source":"wsxcme","sourceId":"_dpWpWbzzIbU9NvLCASdvZL_Jx2sPw_Yfk3rk3XQ","sourceTagId":47002731,"sourceTagName":"芬迪/女包","modelNumber":"80011A克","rawTitle":"特级\n〰️PEEKABOO  I SEE U 小号手袋,最新风琴褶造型,全皮手感细腻硬挺,细节精致到位,两侧隔层都可以打开,容量十足也很有型,高颜值与实用性完全兼顾的同时让整个包Look看起来更有质感!!size27×11×20cm \n 全套包装 宽肩带小包另配 \n款号80011A克"},"price":null,"currency":"CNY","moq":1,"category":"fendi-women-bags","status":"active","alibaba_url":null,"images":["https://xcimg.szwego.com/20221101/i1667282314_187_0.jpg","https://xcimg.szwego.com/20221101/i1667282314_1066_1.jpg","https://xcimg.szwego.com/20221101/i1667282314_1914_2.jpg","https://xcimg.szwego.com/20221101/i1667282314_8843_3.jpg","https://xcimg.szwego.com/20221101/i1667282314_7569_4.jpg","https://xcimg.szwego.com/20221101/i1667282314_8185_5.jpg","https://xcimg.szwego.com/20221101/i1667282314_6869_6.jpg","https://xcimg.szwego.com/20221101/i1667282314_7199_7.jpg","https://xcimg.szwego.com/20221101/i1667282314_6644_8.jpg"],"created_at":"2026-06-29T10:22:08.732Z"},{"id":"item-5e2438663a49","sku":"_dBBBBAgCFG9dMwbsyw3IXfRb6aPBwbqX0r3HvPA","name_en":"Fendi Women Bags","name_cn":"杏色\n\n80011","specs":{"source":"wsxcme","sourceId":"_dBBBBAgCFG9dMwbsyw3IXfRb6aPBwbqX0r3HvPA","sourceTagId":47002731,"sourceTagName":"芬迪/女包","rawTitle":"杏色\n\n80011"},"price":null,"currency":"CNY","moq":1,"category":"fendi-women-bags","status":"active","alibaba_url":null,"images":["https://xcimg.szwego.com/20230103/i1672738525_2423_0.jpg","https://xcimg.szwego.com/20230103/i1672738525_376_1.jpg","https://xcimg.szwego.com/20230103/i1672738525_9464_2.jpg"],"created_at":"2026-06-29T10:22:08.722Z"},{"id":"item-3a82f8b7afd1","sku":"_dhvhvGR3WfqBU3AcrMHZYbyG4wjPfo0WT_TcMiw","name_en":"Fendi Women Bags","name_cn":"特级\n〰️PEEKABOO  I SEE U 小号手袋,最新风琴褶造型,全皮手感细腻硬挺,细节精致到位,两侧隔层都可以打开,容量十足也很有型,高颜值与实用性完全兼顾的同时让整个包Look看起来更有质感!!size27×11×20cm \n全套包装 宽肩带小包另配 \n款号80011A杏色","specs":{"source":"wsxcme","sourceId":"_dhvhvGR3WfqBU3AcrMHZYbyG4wjPfo0WT_TcMiw","sourceTagId":47002731,"sourceTagName":"芬迪/女包","modelNumber":"80011A杏色","rawTitle":"特级\n〰️PEEKABOO  I SEE U 小号手袋,最新风琴褶造型,全皮手感细腻硬挺,细节精致到位,两侧隔层都可以打开,容量十足也很有型,高颜值与实用性完全兼顾的同时让整个包Look看起来更有质感!!size27×11×20cm \n全套包装 宽肩带小包另配 \n款号80011A杏色"},"price":null,"currency":"CNY","moq":1,"category":"fendi-women-bags","status":"active","alibaba_url":null,"images":["https://xcimg.szwego.com/20230103/i1672738451_2000_0.jpg","https://xcimg.szwego.com/20230103/i1672738451_7336_1.jpg","https://xcimg.szwego.com/20230103/i1672738451_2038_2.jpg","https://xcimg.szwego.com/20230103/i1672738451_7620_3.jpg","https://xcimg.szwego.com/20230103/i1672738451_4809_4.jpg","https://xcimg.szwego.com/20230103/i1672738451_5789_5.jpg","https://xcimg.szwego.com/20230103/i1672738451_9012_6.jpg","https://xcimg.szwego.com/20230103/i1672738451_1321_7.jpg","https://xcimg.szwego.com/20230103/i1672738451_8545_8.jpg"],"created_at":"2026-06-29T10:22:08.712Z"},{"id":"item-3c767b34266b","sku":"_dththig5bITnXGZy4oXlPpRLEPvdr-nzeSKnw8g","name_en":"Fendi Women Bags","name_cn":"经典配色~\n80011","specs":{"source":"wsxcme","sourceId":"_dththig5bITnXGZy4oXlPpRLEPvdr-nzeSKnw8g","sourceTagId":47002731,"sourceTagName":"芬迪/女包","rawTitle":"经典配色~\n80011"},"price":null,"currency":"CNY","moq":1,"category":"fendi-women-bags","status":"active","alibaba_url":null,"images":["https://xcimg.szwego.com/20221019/i1666165721_872_0.jpg","https://xcimg.szwego.com/20221019/i1666165721_6298_1.jpg","https://xcimg.szwego.com/20221019/i1666165721_6459_2.jpg","https://xcimg.szwego.com/20221019/i1666165721_9245_3.jpg","https://xcimg.szwego.com/20221019/i1666165721_5395_4.jpg"],"created_at":"2026-06-29T10:22:08.702Z"},{"id":"item-40702878d3c5","sku":"_dtotoxNYSmgvvk5-XiJYmiAm2K1SOWncdL80Fjw","name_en":"Fendi Women Bags","name_cn":"特级\n〰️PEEKABOO  I SEE U 小号手袋,最新风琴褶造型,全皮手感细腻硬挺,细节精致到位,两侧隔层都可以打开,容量十足也很有型,高颜值与实用性完全兼顾的同时让整个包Look看起来更有质感!!size27×11×20cm  全套包装\n款号80011","specs":{"source":"wsxcme","sourceId":"_dtotoxNYSmgvvk5-XiJYmiAm2K1SOWncdL80Fjw","sourceTagId":47002731,"sourceTagName":"芬迪/女包","modelNumber":"80011","rawTitle":"特级\n〰️PEEKABOO  I SEE U 小号手袋,最新风琴褶造型,全皮手感细腻硬挺,细节精致到位,两侧隔层都可以打开,容量十足也很有型,高颜值与实用性完全兼顾的同时让整个包Look看起来更有质感!!size27×11×20cm  全套包装\n款号80011"},"price":null,"currency":"CNY","moq":1,"category":"fendi-women-bags","status":"active","alibaba_url":null,"images":["https://xcimg.szwego.com/20221019/i1666165682_8205_0.jpg","https://xcimg.szwego.com/20221019/i1666165682_7886_1.jpg","https://xcimg.szwego.com/20221019/i1666165682_308_2.jpg","https://xcimg.szwego.com/20221019/i1666165682_110_3.jpg","https://xcimg.szwego.com/20221019/i1666165682_9539_4.jpg","https://xcimg.szwego.com/20221019/i1666165682_5879_5.jpg","https://xcimg.szwego.com/20221019/i1666165682_1386_6.jpg","https://xcimg.szwego.com/20221019/i1666165682_9079_7.jpg"],"created_at":"2026-06-29T10:22:08.692Z"},{"id":"item-37f90f855bc1","sku":"_dalaljE4Nxz8HKUsJAzrn4qfZ_U_vwHpvKUSR-w","name_en":"Fendi Women Bags","name_cn":"🔔简单就是另一种标新立异\n\n70193白色","specs":{"source":"wsxcme","sourceId":"_dalaljE4Nxz8HKUsJAzrn4qfZ_U_vwHpvKUSR-w","sourceTagId":47002731,"sourceTagName":"芬迪/女包","rawTitle":"🔔简单就是另一种标新立异\n\n70193白色"},"price":null,"currency":"CNY","moq":1,"category":"fendi-women-bags","status":"active","alibaba_url":null,"images":["https://xcimg.szwego.com/20250426/i1745640828_7926_5.jpg","https://xcimg.szwego.com/20250426/i1745640828_7181_0.jpg","https://xcimg.szwego.com/20250426/i1745640828_1951_3.jpg","https://xcimg.szwego.com/20250426/i1745640828_5084_2.jpg","https://xcimg.szwego.com/20250426/i1745640828_6916_1.jpg","https://xcimg.szwego.com/20250426/i1745640828_2503_4.jpg"],"created_at":"2026-06-29T10:22:08.682Z"},{"id":"item-794d30daaf2f","sku":"_d5252ddXuHlbRAVgMPF38xRQxGSZuV2M478lpdA","name_en":"Fendi Women Bags","name_cn":"特级\nPEEKABOO I See U\n🔔 你有一条新消息提醒请查收!!️ 新颖风琴轮廓造型,“笑容”般开口弧度及拼色牛皮内袋,种种细节诠释着\"FENDI\"的态度,探索女性魅力的新奥妙。\nsize 33×12×25 \n全套包装发票 肩带挂饰另付款\n款号70193白色","specs":{"source":"wsxcme","sourceId":"_d5252ddXuHlbRAVgMPF38xRQxGSZuV2M478lpdA","sourceTagId":47002731,"sourceTagName":"芬迪/女包","modelNumber":"70193白色","rawTitle":"特级\nPEEKABOO I See U\n🔔 你有一条新消息提醒请查收!!️ 新颖风琴轮廓造型,“笑容”般开口弧度及拼色牛皮内袋,种种细节诠释着\"FENDI\"的态度,探索女性魅力的新奥妙。\nsize 33×12×25 \n全套包装发票 肩带挂饰另付款\n款号70193白色"},"price":null,"currency":"CNY","moq":1,"category":"fendi-women-bags","status":"active","alibaba_url":null,"images":["https://xcimg.szwego.com/20250427/i1745741764_2899_0.jpg","https://xcimg.szwego.com/20250427/i1745739759_812_0.jpg","https://xcimg.szwego.com/20250426/i1745640594_5325_2.jpg","https://xcimg.szwego.com/20250426/i1745640594_564_3.jpg","https://xcimg.szwego.com/20250426/i1745640594_2464_4.jpg","https://xcimg.szwego.com/20250426/i1745640594_5461_5.jpg","https://xcimg.szwego.com/20250426/i1745640594_7294_6.jpg","https://xcimg.szwego.com/20250426/i1745640594_8187_7.jpg"],"created_at":"2026-06-29T10:22:08.672Z"},{"id":"item-3264b67882b1","sku":"_dvXvXDGU2Qp_4QI8HpcX65SVMX4LljJFYnXCg1A","name_en":"Fendi Women Bags","name_cn":"实拍图,鸽子灰70193","specs":{"source":"wsxcme","sourceId":"_dvXvXDGU2Qp_4QI8HpcX65SVMX4LljJFYnXCg1A","sourceTagId":47002731,"sourceTagName":"芬迪/女包","rawTitle":"实拍图,鸽子灰70193"},"price":null,"currency":"CNY","moq":1,"category":"fendi-women-bags","status":"active","alibaba_url":null,"images":["https://xcimg.szwego.com/20220918/i1663471340_4634_0.jpg","https://xcimg.szwego.com/20220918/i1663471340_609_1.jpg","https://xcimg.szwego.com/20220918/i1663471340_6305_2.jpg","https://xcimg.szwego.com/20220918/i1663471340_9165_3.jpg"],"created_at":"2026-06-29T10:22:08.662Z"},{"id":"item-30b1f7f747f9","sku":"_dl5l5kMhIDNsvOLDkKdhgGVFEVZhqB0db349N0A","name_en":"Fendi Women Bags","name_cn":"特级\n新款 FENDI Peekaboo鸽子灰  \n风琴全皮简约型设计 内里五金采用玳瑁配色给包包增添几分气场,细节处理都很到位不可错失的一款美包 ~\nsize :33×12×25cm\n全套包装 宽肩带挂饰另付款 \n款号70193L-A","specs":{"source":"wsxcme","sourceId":"_dl5l5kMhIDNsvOLDkKdhgGVFEVZhqB0db349N0A","sourceTagId":47002731,"sourceTagName":"芬迪/女包","modelNumber":"70193L-A","rawTitle":"特级\n新款 FENDI Peekaboo鸽子灰  \n风琴全皮简约型设计 内里五金采用玳瑁配色给包包增添几分气场,细节处理都很到位不可错失的一款美包 ~\nsize :33×12×25cm\n全套包装 宽肩带挂饰另付款 \n款号70193L-A"},"price":null,"currency":"CNY","moq":1,"category":"fendi-women-bags","status":"active","alibaba_url":null,"images":["https://xcimg.szwego.com/20220918/i1663471249_8166_0.jpg","https://xcimg.szwego.com/20220918/i1663471249_2768_1.jpg","https://xcimg.szwego.com/20220918/i1663471249_3680_2.jpg","https://xcimg.szwego.com/20220918/i1663471249_3102_3.jpg","https://xcimg.szwego.com/20220918/i1663471249_501_4.jpg","https://xcimg.szwego.com/20220918/i1663471249_7305_5.jpg","https://xcimg.szwego.com/20220918/i1663471249_7491_6.jpg","https://xcimg.szwego.com/20220918/i1663471249_561_7.jpg","https://xcimg.szwego.com/20220918/i1663471249_2988_8.jpg"],"created_at":"2026-06-29T10:22:08.652Z"},{"id":"item-46290b296784","sku":"_dbEbEYQ5cAIeAfrWIRBmkm4AswC9DM4ETCMVMNQ","name_en":"Fendi Women Bags","name_cn":"经典永恒 低调奢华与现代女性气质相融合✔️\n\n70193黑色","specs":{"source":"wsxcme","sourceId":"_dbEbEYQ5cAIeAfrWIRBmkm4AswC9DM4ETCMVMNQ","sourceTagId":47002731,"sourceTagName":"芬迪/女包","rawTitle":"经典永恒 低调奢华与现代女性气质相融合✔️\n\n70193黑色"},"price":null,"currency":"CNY","moq":1,"category":"fendi-women-bags","status":"active","alibaba_url":null,"images":["https://xcimg.szwego.com/20221101/i1667282230_8887_0.jpg","https://xcimg.szwego.com/20221101/i1667282230_4021_1.jpg","https://xcimg.szwego.com/20221101/i1667282230_778_2.jpg","https://xcimg.szwego.com/20221101/i1667282230_2071_3.jpg","https://xcimg.szwego.com/20221101/i1667282230_6628_4.jpg"],"created_at":"2026-06-29T10:22:08.642Z"},{"id":"item-8a14ad51c01c","sku":"_dkOkONCPyfg267bWS1UWkG2HcC1l0O4vmqAfH5w","name_en":"Fendi Women Bags","name_cn":"特级\nPEEKABOO I See U\n🔔 你有一条新消息提醒请查收!!️ 新颖风琴轮廓造型,“笑容”般开口弧度及拼色牛皮内袋,种种细节诠释着\"FENDI\"的态度,探索女性魅力的新奥妙。\nsize 33×12×25 \n全套包装发票 肩带挂饰另付款\n款号70193焦糖","specs":{"source":"wsxcme","sourceId":"_dkOkONCPyfg267bWS1UWkG2HcC1l0O4vmqAfH5w","sourceTagId":47002731,"sourceTagName":"芬迪/女包","modelNumber":"70193焦糖","rawTitle":"特级\nPEEKABOO I See U\n🔔 你有一条新消息提醒请查收!!️ 新颖风琴轮廓造型,“笑容”般开口弧度及拼色牛皮内袋,种种细节诠释着\"FENDI\"的态度,探索女性魅力的新奥妙。\nsize 33×12×25 \n全套包装发票 肩带挂饰另付款\n款号70193焦糖"},"price":null,"currency":"CNY","moq":1,"category":"fendi-women-bags","status":"active","alibaba_url":null,"images":["https://xcimg.szwego.com/20221101/i1667282497_1842_0.jpg","https://xcimg.szwego.com/20221101/i1667282497_6968_1.jpg","https://xcimg.szwego.com/20221101/i1667282497_6469_2.jpg","https://xcimg.szwego.com/20221101/i1667282497_3327_3.jpg","https://xcimg.szwego.com/20221101/i1667282497_1581_4.jpg","https://xcimg.szwego.com/20221101/i1667282497_9634_5.jpg","https://xcimg.szwego.com/20221101/i1667282497_8371_6.jpg","https://xcimg.szwego.com/20221101/i1667282497_5556_7.jpg","https://xcimg.szwego.com/20221101/i1667282497_5347_8.jpg"],"created_at":"2026-06-29T10:22:08.632Z"},{"id":"item-95bf961e861a","sku":"_dfIfI8X1SdVusmuPMQ2SStxg5ngtXV2vtZnEzOg","name_en":"Fendi Women Bags","name_cn":"特级\nPEEKABOO I See U\n🔔 你有一条新消息提醒请查收!!️ 新颖风琴轮廓造型,“笑容”般开口弧度及拼色牛皮内袋,种种细节诠释着\"FENDI\"的态度,探索女性魅力的新奥妙。\nsize 33×12×25 1\n全套包装发票 \n款号70193杏色","specs":{"source":"wsxcme","sourceId":"_dfIfI8X1SdVusmuPMQ2SStxg5ngtXV2vtZnEzOg","sourceTagId":47002731,"sourceTagName":"芬迪/女包","modelNumber":"70193杏色","rawTitle":"特级\nPEEKABOO I See U\n🔔 你有一条新消息提醒请查收!!️ 新颖风琴轮廓造型,“笑容”般开口弧度及拼色牛皮内袋,种种细节诠释着\"FENDI\"的态度,探索女性魅力的新奥妙。\nsize 33×12×25 1\n全套包装发票 \n款号70193杏色"},"price":null,"currency":"CNY","moq":1,"category":"fendi-women-bags","status":"active","alibaba_url":null,"images":["https://xcimg.szwego.com/20221202/i1669976621_8823_0.jpg","https://xcimg.szwego.com/20221202/i1669976621_6407_1.jpg","https://xcimg.szwego.com/20221202/i1669976621_3385_2.jpg","https://xcimg.szwego.com/20221202/i1669976621_458_3.jpg","https://xcimg.szwego.com/20221202/i1669976621_7976_4.jpg","https://xcimg.szwego.com/20221202/i1669976621_4040_5.jpg","https://xcimg.szwego.com/20221202/i1669976621_8439_6.jpg","https://xcimg.szwego.com/20221202/i1669976621_6254_7.jpg","https://xcimg.szwego.com/20221202/i1669976621_114_8.jpg"],"created_at":"2026-06-29T10:22:08.622Z"},{"id":"item-32b10b7b0283","sku":"_dgKgKeN6OzBrRCvxwe-TSGQjEUECuToyd6b2aSw","name_en":"Fendi Women Bags","name_cn":"正品级\nMon Tresor\n浅兰皮革迷你手袋更多细节\nMon Tresor小号水桶手袋,配有抽绳和Fendi金属标志装饰。配一长一短两条可拆卸肩带,可手提、单肩背或斜挎。浅兰小牛皮材质。黑色手绘凸纹FF标志性印花图案。金色金属件。意大利制造\n材质:\n面料:牛皮革 里料:织物\n深度:\n10\n长度:\n12\n高度:\n18\n款号:010","specs":{"source":"wsxcme","sourceId":"_dgKgKeN6OzBrRCvxwe-TSGQjEUECuToyd6b2aSw","sourceTagId":47002731,"sourceTagName":"芬迪/女包","modelNumber":"010","rawTitle":"正品级\nMon Tresor\n浅兰皮革迷你手袋更多细节\nMon Tresor小号水桶手袋,配有抽绳和Fendi金属标志装饰。配一长一短两条可拆卸肩带,可手提、单肩背或斜挎。浅兰小牛皮材质。黑色手绘凸纹FF标志性印花图案。金色金属件。意大利制造\n材质:\n面料:牛皮革 里料:织物\n深度:\n10\n长度:\n12\n高度:\n18\n款号:010"},"price":null,"currency":"CNY","moq":1,"category":"fendi-women-bags","status":"active","alibaba_url":null,"images":["https://xcimg.szwego.com/img/8655f6f1/20250227/i1740635777212_3683_0_0.jpg","https://xcimg.szwego.com/img/8655f6f1/20250227/i1740635777261_4547_0_1.jpg","https://xcimg.szwego.com/img/8655f6f1/20250227/i1740635778736_3032_0_2.jpg","https://xcimg.szwego.com/img/8655f6f1/20250227/i1740635777292_5986_0_3.jpg","https://xcimg.szwego.com/img/8655f6f1/20250227/i1740635777234_9317_0_4.jpg","https://xcimg.szwego.com/img/8655f6f1/20250227/i1740635777236_4343_0_5.jpg","https://xcimg.szwego.com/img/8655f6f1/20250227/i1740635778753_1391_0_6.jpg","https://xcimg.szwego.com/img/8655f6f1/20250227/i1740635778739_2332_0_7.jpg","https://xcimg.szwego.com/img/8655f6f1/20250227/i1740635778836_275_0_8.jpg"],"created_at":"2025-03-28T13:36:08.838Z"},{"id":"item-30d5ec6bcae4","sku":"_dododAJVm7c-2QePdA4G3Kg3_rZoYmGoGQJkdxg","name_en":"Fendi Women Bags","name_cn":"正品级\nMon Tresor\n浅兰皮革迷你手袋更多细节\nMon Tresor小号水桶手袋,配有抽绳和Fendi金属标志装饰。配一长一短两条可拆卸肩带,可手提、单肩背或斜挎。浅兰小牛皮材质。黑色手绘凸纹FF标志性印花图案。金色金属件。意大利制造\n材质:\n面料:牛皮革 里料:织物\n深度:\n10\n长度:\n12\n高度:\n18\n款号:010","specs":{"source":"wsxcme","sourceId":"_dododAJVm7c-2QePdA4G3Kg3_rZoYmGoGQJkdxg","sourceTagId":47002731,"sourceTagName":"芬迪/女包","modelNumber":"010","rawTitle":"正品级\nMon Tresor\n浅兰皮革迷你手袋更多细节\nMon Tresor小号水桶手袋,配有抽绳和Fendi金属标志装饰。配一长一短两条可拆卸肩带,可手提、单肩背或斜挎。浅兰小牛皮材质。黑色手绘凸纹FF标志性印花图案。金色金属件。意大利制造\n材质:\n面料:牛皮革 里料:织物\n深度:\n10\n长度:\n12\n高度:\n18\n款号:010"},"price":null,"currency":"CNY","moq":1,"category":"fendi-women-bags","status":"active","alibaba_url":null,"images":["https://xcimg.szwego.com/img/8655f6f1/20250227/i1740635741332_3020_0_0.jpg","https://xcimg.szwego.com/img/8655f6f1/20250227/i1740635739508_6157_0_1.jpg","https://xcimg.szwego.com/img/8655f6f1/20250227/i1740635739466_739_0_2.jpg","https://xcimg.szwego.com/img/8655f6f1/20250227/i1740635739463_7939_0_3.jpg","https://xcimg.szwego.com/img/8655f6f1/20250227/i1740635741393_3827_0_4.jpg","https://xcimg.szwego.com/img/8655f6f1/20250227/i1740635739541_2311_0_5.jpg","https://xcimg.szwego.com/img/8655f6f1/20250227/i1740635741371_3907_0_6.jpg","https://xcimg.szwego.com/img/8655f6f1/20250227/i1740635739559_2666_0_7.jpg","https://xcimg.szwego.com/img/8655f6f1/20250227/i1740635741371_2721_0_8.jpg"],"created_at":"2025-03-28T13:36:08.837Z"},{"id":"item-7b9878afcf35","sku":"_duwuwxL3O40PXBWcQYA_diqcRyuGP7DTWu-OYQg","name_en":"Fendi Women Bags","name_cn":"正品级\nMon Tresor\n浅兰皮革迷你手袋更多细节\nMon Tresor小号水桶手袋,配有抽绳和Fendi金属标志装饰。配一长一短两条可拆卸肩带,可手提、单肩背或斜挎。浅兰小牛皮材质。黑色手绘凸纹FF标志性印花图案。金色金属件。意大利制造\n材质:\n面料:牛皮革 里料:织物\n深度:\n10\n长度:\n12\n高度:\n18\n款号:010","specs":{"source":"wsxcme","sourceId":"_duwuwxL3O40PXBWcQYA_diqcRyuGP7DTWu-OYQg","sourceTagId":47002731,"sourceTagName":"芬迪/女包","modelNumber":"010","rawTitle":"正品级\nMon Tresor\n浅兰皮革迷你手袋更多细节\nMon Tresor小号水桶手袋,配有抽绳和Fendi金属标志装饰。配一长一短两条可拆卸肩带,可手提、单肩背或斜挎。浅兰小牛皮材质。黑色手绘凸纹FF标志性印花图案。金色金属件。意大利制造\n材质:\n面料:牛皮革 里料:织物\n深度:\n10\n长度:\n12\n高度:\n18\n款号:010"},"price":null,"currency":"CNY","moq":1,"category":"fendi-women-bags","status":"active","alibaba_url":null,"images":["https://xcimg.szwego.com/img/8655f6f1/20250227/i1740635550888_8205_0_0.jpg","https://xcimg.szwego.com/img/8655f6f1/20250227/i1740635553014_4442_0_1.jpg","https://xcimg.szwego.com/img/8655f6f1/20250227/i1740635550888_9584_0_2.jpg","https://xcimg.szwego.com/img/8655f6f1/20250227/i1740635550888_5986_0_3.jpg","https://xcimg.szwego.com/img/8655f6f1/20250227/i1740635550888_1697_0_4.jpg","https://xcimg.szwego.com/img/8655f6f1/20250227/i1740635550888_8367_0_5.jpg","https://xcimg.szwego.com/img/8655f6f1/20250227/i1740635552982_2166_0_6.jpg","https://xcimg.szwego.com/img/8655f6f1/20250227/i1740635552839_6559_0_7.jpg","https://xcimg.szwego.com/img/8655f6f1/20250227/i1740635552948_4316_0_8.jpg"],"created_at":"2025-03-28T13:36:08.836Z"},{"id":"item-c197ce233554","sku":"_do_o_r3esZ0hG-fGBcPyYt_ru0B8KQ1_bw0ebqw","name_en":"Fendi Women Bags","name_cn":"正品级\n小猫包官网最新FENDl纯手工缝制Togo皮小猫包全新peekaboo 小猫包只为看见你不同的一面,新造型延续经典peekaboo的梯形轮廓和方形扭锁设计,侧边加入风琴式设计,满满的高级感!一针一线都极其讲究技巧!原版定制!\n尺寸27x21x9.5cm。款号302","specs":{"source":"wsxcme","sourceId":"_do_o_r3esZ0hG-fGBcPyYt_ru0B8KQ1_bw0ebqw","sourceTagId":47002731,"sourceTagName":"芬迪/女包","modelNumber":"302","dimensions":{"lengthCm":27,"heightCm":21,"widthCm":9.5},"rawTitle":"正品级\n小猫包官网最新FENDl纯手工缝制Togo皮小猫包全新peekaboo 小猫包只为看见你不同的一面,新造型延续经典peekaboo的梯形轮廓和方形扭锁设计,侧边加入风琴式设计,满满的高级感!一针一线都极其讲究技巧!原版定制!\n尺寸27x21x9.5cm。款号302"},"price":null,"currency":"CNY","moq":1,"category":"fendi-women-bags","status":"active","alibaba_url":null,"images":["https://xcimg.szwego.com/img/8655f6f1/20250225/i1740465493454_8887_0_0.jpg","https://xcimg.szwego.com/img/8655f6f1/20250225/i1740465493454_3528_0_1.jpg","https://xcimg.szwego.com/img/8655f6f1/20250225/i1740465495418_3850_0_2.jpg","https://xcimg.szwego.com/img/8655f6f1/20250225/i1740465495418_3966_0_3.jpg","https://xcimg.szwego.com/img/8655f6f1/20250225/i1740465493454_3739_0_4.jpg","https://xcimg.szwego.com/img/8655f6f1/20250225/i1740465493450_8794_0_5.jpg","https://xcimg.szwego.com/img/8655f6f1/20250225/i1740465495515_2594_0_6.jpg","https://xcimg.szwego.com/img/8655f6f1/20250225/i1740465495449_1874_0_7.jpg","https://xcimg.szwego.com/img/8655f6f1/20250225/i1740465493454_5404_0_8.jpg"],"created_at":"2025-03-28T13:36:08.835Z"},{"id":"item-446cbfd418ed","sku":"_dfhfh5epSLdKVkBLASxiov-2cgGZWfTXAVpkXwA","name_en":"Fendi Women Bags","name_cn":"正品级\nFF兰布\nPeekaboo X-Tote手袋刺绣托特!有内部口袋和标志性扭锁。带有两个可手持的短手柄,和两个可肩背的长手柄。千鸟格帆布材质。同色系压花刺绣FF装饰图案。头层牛皮饰边。金色金属件。尺寸40*12*29cm 款号:购物包FF蓝布","specs":{"source":"wsxcme","sourceId":"_dfhfh5epSLdKVkBLASxiov-2cgGZWfTXAVpkXwA","sourceTagId":47002731,"sourceTagName":"芬迪/女包","modelNumber":"购物包FF蓝布","dimensions":{"lengthCm":40,"heightCm":12,"widthCm":29},"rawTitle":"正品级\nFF兰布\nPeekaboo X-Tote手袋刺绣托特!有内部口袋和标志性扭锁。带有两个可手持的短手柄,和两个可肩背的长手柄。千鸟格帆布材质。同色系压花刺绣FF装饰图案。头层牛皮饰边。金色金属件。尺寸40*12*29cm 款号:购物包FF蓝布"},"price":null,"currency":"CNY","moq":1,"category":"fendi-women-bags","status":"active","alibaba_url":null,"images":["https://xcimg.szwego.com/img/8655f6f1/20250217/i1739804496434_7799_0_0.jpg","https://xcimg.szwego.com/img/8655f6f1/20250217/i1739804498371_4889_0_1.jpg","https://xcimg.szwego.com/img/8655f6f1/20250217/i1739804496424_6188_0_2.jpg","https://xcimg.szwego.com/img/8655f6f1/20250217/i1739804496541_1833_0_3.jpg","https://xcimg.szwego.com/img/8655f6f1/20250217/i1739804498310_99_0_4.jpg","https://xcimg.szwego.com/img/8655f6f1/20250217/i1739804496533_797_0_5.jpg","https://xcimg.szwego.com/img/8655f6f1/20250217/i1739804498442_5386_0_6.jpg","https://xcimg.szwego.com/img/8655f6f1/20250217/i1739804498416_4990_0_7.jpg","https://xcimg.szwego.com/img/8655f6f1/20250217/i1739804496390_7831_0_8.jpg"],"created_at":"2025-03-28T13:36:08.834Z"},{"id":"item-8f73fc7618e5","sku":"_dmmmmYqIJYsyUCaRs8gcWolCFTMDZTdtlnwCnUA","name_en":"Fendi Women Bags","name_cn":"正品级\nFF老花\nPeekaboo X-Tote手袋刺绣托特!有内部口袋和标志性扭锁。带有两个可手持的短手柄,和两个可肩背的长手柄。千鸟格帆布材质。同色系压花刺绣FF装饰图案。头层牛皮饰边。金色金属件。尺寸40*12*29cm 款号:购物包老花","specs":{"source":"wsxcme","sourceId":"_dmmmmYqIJYsyUCaRs8gcWolCFTMDZTdtlnwCnUA","sourceTagId":47002731,"sourceTagName":"芬迪/女包","modelNumber":"购物包老花","dimensions":{"lengthCm":40,"heightCm":12,"widthCm":29},"rawTitle":"正品级\nFF老花\nPeekaboo X-Tote手袋刺绣托特!有内部口袋和标志性扭锁。带有两个可手持的短手柄,和两个可肩背的长手柄。千鸟格帆布材质。同色系压花刺绣FF装饰图案。头层牛皮饰边。金色金属件。尺寸40*12*29cm 款号:购物包老花"},"price":null,"currency":"CNY","moq":1,"category":"fendi-women-bags","status":"active","alibaba_url":null,"images":["https://xcimg.szwego.com/img/8655f6f1/20250217/i1739804385932_6189_0_0.jpg","https://xcimg.szwego.com/img/8655f6f1/20250217/i1739804385993_5124_0_1.jpg","https://xcimg.szwego.com/img/8655f6f1/20250217/i1739804382912_9709_0_2.jpg","https://xcimg.szwego.com/img/8655f6f1/20250217/i1739804382911_6040_0_3.jpg","https://xcimg.szwego.com/img/8655f6f1/20250217/i1739804385893_8354_0_4.jpg","https://xcimg.szwego.com/img/8655f6f1/20250217/i1739804382949_8068_0_5.jpg","https://xcimg.szwego.com/img/8655f6f1/20250217/i1739804382912_5685_0_6.jpg","https://xcimg.szwego.com/img/8655f6f1/20250217/i1739804385993_7511_0_7.jpg","https://xcimg.szwego.com/img/8655f6f1/20250217/i1739804382912_191_0_8.jpg"],"created_at":"2025-03-28T13:36:08.833Z"}],"page":5,"pageSize":24,"total":348,"totalPages":15}
