{"items":[{"id":"item-c714a9f09ae6","sku":"_dMDMDeq3YfCDGND2luIkIe3zaKxEUHwlXG4yGOQ","name_en":"Little White Snake","name_cn":"Little White Snake","specs":{"source":"wsxcme","sourceId":"_dMDMDeq3YfCDGND2luIkIe3zaKxEUHwlXG4yGOQ","sourceTagId":47002756,"sourceTagName":"/women's bag","rawTitle":"Little White Snake"},"price":null,"currency":"CNY","moq":1,"category":"bvlgari-women-bags","status":"active","alibaba_url":null,"images":["https://xcimg.szwego.com/20240809/i1723191949_9233_0.jpg"],"created_at":"2024-09-27T06:51:04.161Z"},{"id":"item-1ae506712554","sku":"_d6Z6ZoUJkHwCTxhARg8e4kpTvgNUnhu2nkROtCw","name_en":"Look on body + Capacity","name_cn":"Look on body + Capacity","specs":{"source":"wsxcme","sourceId":"_d6Z6ZoUJkHwCTxhARg8e4kpTvgNUnhu2nkROtCw","sourceTagId":47002756,"sourceTagName":"/women's bag","rawTitle":"Look on body + Capacity"},"price":null,"currency":"CNY","moq":1,"category":"bvlgari-women-bags","status":"active","alibaba_url":null,"images":["https://xcimg.szwego.com/20230329/i1680069864_3966_0.jpg","https://xcimg.szwego.com/20230329/i1680069864_9890_1.jpg","https://xcimg.szwego.com/20230329/i1680069864_2913_2.jpg"],"created_at":"2024-09-27T06:51:04.150Z"},{"id":"item-9db3827ee15b","sku":"_djxjxlYqqGaAU-I0zsicj3CBBrYSBtobPrifNRw","name_en":"More details","name_cn":"More details","specs":{"source":"wsxcme","sourceId":"_djxjxlYqqGaAU-I0zsicj3CBBrYSBtobPrifNRw","sourceTagId":47002756,"sourceTagName":"/women's bag","rawTitle":"More details"},"price":null,"currency":"CNY","moq":1,"category":"bvlgari-women-bags","status":"active","alibaba_url":null,"images":["https://xcimg.szwego.com/20230219/i1676789115_9618_0.jpg","https://xcimg.szwego.com/20230219/i1676789115_3456_1.jpg","https://xcimg.szwego.com/20230219/i1676789115_925_2.jpg","https://xcimg.szwego.com/20230219/i1676789115_7293_3.jpg","https://xcimg.szwego.com/20230219/i1676789115_6032_4.jpg","https://xcimg.szwego.com/20230219/i1676789115_4202_5.jpg"],"created_at":"2024-10-07T10:58:53.564Z"},{"id":"item-5a01fb8ee0e4","sku":"_dMmMmCArKhVhJkYW4Aj7ByqOE7-fa61k2qiQaeA","name_en":"More details","name_cn":"More details","specs":{"source":"wsxcme","sourceId":"_dMmMmCArKhVhJkYW4Aj7ByqOE7-fa61k2qiQaeA","sourceTagId":47002756,"sourceTagName":"/women's bag","rawTitle":"More details"},"price":null,"currency":"CNY","moq":1,"category":"bvlgari-women-bags","status":"active","alibaba_url":null,"images":["https://xcimg.szwego.com/20230219/i1676791792_8643_0.jpg","https://xcimg.szwego.com/20230219/i1676791792_9800_1.jpg","https://xcimg.szwego.com/20230219/i1676791792_8971_2.jpg","https://xcimg.szwego.com/20230219/i1676791792_9074_3.jpg","https://xcimg.szwego.com/20230219/i1676791792_4129_4.jpg"],"created_at":"2024-10-07T10:58:53.585Z"},{"id":"item-aba8a54840e9","sku":"_dsisidC26fNpikDANhoBtxrIRDG73tRcYZ9UUqw","name_en":"More details~","name_cn":"More details~","specs":{"source":"wsxcme","sourceId":"_dsisidC26fNpikDANhoBtxrIRDG73tRcYZ9UUqw","sourceTagId":47002756,"sourceTagName":"/women's bag","rawTitle":"More details~"},"price":null,"currency":"CNY","moq":1,"category":"bvlgari-women-bags","status":"active","alibaba_url":null,"images":["https://xcimg.szwego.com/20230803/i1691051238_8371_0.jpg","https://xcimg.szwego.com/20230803/i1691051238_128_1.jpg","https://xcimg.szwego.com/20230803/i1691051238_2939_2.jpg","https://xcimg.szwego.com/20230803/i1691051238_7296_3.jpg","https://xcimg.szwego.com/20230803/i1691051238_95_4.jpg","https://xcimg.szwego.com/20230803/i1691051238_5921_5.jpg"],"created_at":"2024-09-27T06:51:04.106Z"},{"id":"item-d1f14267a8ed","sku":"_dnAnAmwo0TIr4CvdbGT95pu19ORGw5DYgz6NwZg","name_en":"New SERPENTI ELLIPSE Large Crossbody Bag","name_cn":"New SERPENTI ELLIPSE Large Crossbody Bag\nAdd a touch of fashion to the SERPENTI FOREVER world with its unique shape, iconic details, and versatile charm.\nCrafted from pink calfskin, this daily bag features urban grained calfskin in the center and smooth calfskin on the sides, accented with gold-plated brass fittings. The charming classic snake head is centered with black scales and red enamel eyes, with a magnetic snap concealed on the front.\nFeatures a single compartment, adjustable chain and leather shoulder strap, and a detachable leather handle, allowing it to be worn crossbody or as a classic shoulder bag. Practical top zipper with an internal pocket, an external pocket on the back, and a BVLGARI metal logo.\nModel: 291636\nDimensions: 25.5×25×5.5 cm","specs":{"source":"wsxcme","sourceId":"_dnAnAmwo0TIr4CvdbGT95pu19ORGw5DYgz6NwZg","sourceTagId":47002756,"sourceTagName":"/women's bag","modelNumber":"291636","dimensions":{"lengthCm":25.5,"heightCm":25,"widthCm":5.5},"rawTitle":"New SERPENTI ELLIPSE Large Crossbody Bag\nAdd a touch of fashion to the SERPENTI FOREVER world with its unique shape, iconic details, and versatile charm.\nCrafted from pink calfskin, this daily bag features urban grained calfskin in the center and smooth calfskin on the sides, accented with gold-plated brass fittings. The charming classic snake head is centered with black scales and red enamel eyes, with a magnetic snap concealed on the front.\nFeatures a single compartment, adjustable chain and leather shoulder strap, and a detachable leather handle, allowing it to be worn crossbody or as a classic shoulder bag. Practical top zipper with an internal pocket, an external pocket on the back, and a BVLGARI metal logo.\nModel: 291636\nDimensions: 25.5×25×5.5 cm"},"price":null,"currency":"CNY","moq":1,"category":"bvlgari-women-bags","status":"active","alibaba_url":null,"images":["https://xcimg.szwego.com/20220602/i1654148896_7398_0.jpg","https://xcimg.szwego.com/20220602/i1654148896_6815_1.jpg","https://xcimg.szwego.com/20220602/i1654148896_1364_2.jpg","https://xcimg.szwego.com/20220602/i1654148896_8232_3.jpg","https://xcimg.szwego.com/20220602/i1654148896_8568_4.jpg","https://xcimg.szwego.com/20220602/i1654148896_8391_5.jpg","https://xcimg.szwego.com/20220602/i1654148896_3421_6.jpg","https://xcimg.szwego.com/20220602/i1654148896_8381_7.jpg","https://xcimg.szwego.com/20220602/i1654148896_7746_8.jpg"],"created_at":"2024-08-15T07:44:50.167Z"},{"id":"item-34d56c00a261","sku":"_db_b_6SbuwpOlxiTV1w9d7zKFlgfxQ3KJtKJtxw","name_en":"New SERPENTI ELLIPSE series large shoulder bag","name_cn":"New SERPENTI ELLIPSE series large shoulder bag\nAdding a touch of fashion to the SERPENTI FOREVER world with its unique shape, iconic details, and versatile charm.\nThis everyday bag is crafted from red calfskin, featuring city-grain calfskin in the center and smooth calfskin on the sides, accented with gold-plated brass. The enchanting classic snake head is centered with black scales and red enamel eyes, with the front magnetic closure hidden underneath.\nIt features a single compartment, an adjustable chain and leather shoulder strap, and a detachable leather handle, allowing it to be worn crossbody or as a classic shoulder bag. A practical top zipper with an internal pocket, and a back external pocket with a BVLGARI metal logo.\nModel: 291636\nDimensions: 25.5×25×5.5 cm","specs":{"source":"wsxcme","sourceId":"_db_b_6SbuwpOlxiTV1w9d7zKFlgfxQ3KJtKJtxw","sourceTagId":47002756,"sourceTagName":"/women's bag","modelNumber":"291636","dimensions":{"lengthCm":25.5,"heightCm":25,"widthCm":5.5},"rawTitle":"New SERPENTI ELLIPSE series large shoulder bag\nAdding a touch of fashion to the SERPENTI FOREVER world with its unique shape, iconic details, and versatile charm.\nThis everyday bag is crafted from red calfskin, featuring city-grain calfskin in the center and smooth calfskin on the sides, accented with gold-plated brass. The enchanting classic snake head is centered with black scales and red enamel eyes, with the front magnetic closure hidden underneath.\nIt features a single compartment, an adjustable chain and leather shoulder strap, and a detachable leather handle, allowing it to be worn crossbody or as a classic shoulder bag. A practical top zipper with an internal pocket, and a back external pocket with a BVLGARI metal logo.\nModel: 291636\nDimensions: 25.5×25×5.5 cm"},"price":null,"currency":"CNY","moq":1,"category":"bvlgari-women-bags","status":"active","alibaba_url":null,"images":["https://xcimg.szwego.com/20220119/i1642575195_7370_0.jpg","https://xcimg.szwego.com/20220119/i1642575195_8989_1.jpg","https://xcimg.szwego.com/20220119/i1642575195_520_2.jpg","https://xcimg.szwego.com/20220119/i1642575195_8890_3.jpg","https://xcimg.szwego.com/20220119/i1642575195_3606_4.jpg","https://xcimg.szwego.com/20220119/i1642575195_1762_5.jpg","https://xcimg.szwego.com/20220119/i1642575195_1924_6.jpg","https://xcimg.szwego.com/20220119/i1642575195_7716_7.jpg","https://xcimg.szwego.com/20220119/i1642575195_9034_8.jpg"],"created_at":"2024-08-15T07:44:50.171Z"},{"id":"item-d558f747ac9e","sku":"_d8787O8f_LNKoIOhrsKIVoNT4dTWn-z_RqnHLFg","name_en":"newSERPENTI ELLIPSEserieslargecrossbody","name_cn":"newSERPENTI ELLIPSEserieslargecrossbody\n 、 , SERPENTI FOREVER 。\n calfskin , calfskin , , , , 。\n , , crossbody, 。 zipper, , BVLGARI 。\nModel:291636\nSize:25.5×25×5.5cm","specs":{"source":"wsxcme","sourceId":"_d8787O8f_LNKoIOhrsKIVoNT4dTWn-z_RqnHLFg","sourceTagId":47002756,"sourceTagName":"/women's bag","modelNumber":"291636","dimensions":{"lengthCm":25.5,"heightCm":25,"widthCm":5.5},"rawTitle":"newSERPENTI ELLIPSEserieslargecrossbody\n 、 , SERPENTI FOREVER 。\n calfskin , calfskin , , , , 。\n , , crossbody, 。 zipper, , BVLGARI 。\nModel:291636\nSize:25.5×25×5.5cm"},"price":null,"currency":"CNY","moq":1,"category":"bvlgari-women-bags","status":"active","alibaba_url":null,"images":["https://xcimg.szwego.com/20220321/i1647843529_2569_0.jpg","https://xcimg.szwego.com/20220321/i1647843529_1696_1.jpg","https://xcimg.szwego.com/20220321/i1647843529_970_2.jpg","https://xcimg.szwego.com/20220321/i1647843529_7892_3.jpg","https://xcimg.szwego.com/20220321/i1647843529_1490_4.jpg","https://xcimg.szwego.com/20220321/i1647843529_1037_5.jpg","https://xcimg.szwego.com/20220321/i1647843529_9487_6.jpg","https://xcimg.szwego.com/20220321/i1647843529_6830_7.jpg","https://xcimg.szwego.com/20220321/i1647843529_7623_8.jpg"],"created_at":"2024-08-15T07:44:50.168Z"},{"id":"item-6c9bfb1704fd","sku":"_dtQtQONfC430vaCN1C1Pvz3MlBuFyMzKhsreVTw","name_en":"newSERPENTI ELLIPSEserieslargecrossbody","name_cn":"newSERPENTI ELLIPSEserieslargecrossbody\n 、 , SERPENTI FOREVER 。\n calfskin , calfskin , calfskin, , black , 。\n , , crossbody, 。 zipper, , BVLGARI 。\nModel:291636\nSize:25.5×25×5.5cm","specs":{"source":"wsxcme","sourceId":"_dtQtQONfC430vaCN1C1Pvz3MlBuFyMzKhsreVTw","sourceTagId":47002756,"sourceTagName":"/women's bag","modelNumber":"291636","dimensions":{"lengthCm":25.5,"heightCm":25,"widthCm":5.5},"rawTitle":"newSERPENTI ELLIPSEserieslargecrossbody\n 、 , SERPENTI FOREVER 。\n calfskin , calfskin , calfskin, , black , 。\n , , crossbody, 。 zipper, , BVLGARI 。\nModel:291636\nSize:25.5×25×5.5cm"},"price":null,"currency":"CNY","moq":1,"category":"bvlgari-women-bags","status":"active","alibaba_url":null,"images":["https://xcimg.szwego.com/20220122/i1642832598_1465_0.jpg","https://xcimg.szwego.com/20220122/i1642832598_4301_1.jpg","https://xcimg.szwego.com/20220122/i1642832598_5781_2.jpg","https://xcimg.szwego.com/20220122/i1642832598_8885_3.jpg","https://xcimg.szwego.com/20220122/i1642832598_8973_4.jpg","https://xcimg.szwego.com/20220122/i1642832598_9345_5.jpg","https://xcimg.szwego.com/20220122/i1642832598_7481_6.jpg","https://xcimg.szwego.com/20220122/i1642832598_7210_7.jpg","https://xcimg.szwego.com/20220122/i1642832598_7359_8.jpg"],"created_at":"2024-08-15T07:44:50.170Z"},{"id":"item-0ad740339646","sku":"_dulul2zogVPqPcmBIDdcwmjEh812u76dMG3mMiw","name_en":"newSERPENTI ELLIPSEserieslargecrossbody","name_cn":"newSERPENTI ELLIPSEserieslargecrossbody\n 、 , SERPENTI FOREVER 。\n black calfskin , calfskin , , , black , 。\n , , crossbody, 。 zipper, , BVLGARI 。\nModel:291636\nSize:25.5×25×5.5cm","specs":{"source":"wsxcme","sourceId":"_dulul2zogVPqPcmBIDdcwmjEh812u76dMG3mMiw","sourceTagId":47002756,"sourceTagName":"/women's bag","modelNumber":"291636","dimensions":{"lengthCm":25.5,"heightCm":25,"widthCm":5.5},"rawTitle":"newSERPENTI ELLIPSEserieslargecrossbody\n 、 , SERPENTI FOREVER 。\n black calfskin , calfskin , , , black , 。\n , , crossbody, 。 zipper, , BVLGARI 。\nModel:291636\nSize:25.5×25×5.5cm"},"price":null,"currency":"CNY","moq":1,"category":"bvlgari-women-bags","status":"active","alibaba_url":null,"images":["https://xcimg.szwego.com/20220122/i1642832912_7233_0.jpg","https://xcimg.szwego.com/20220122/i1642832912_2722_1.jpg","https://xcimg.szwego.com/20220122/i1642832912_7319_2.jpg","https://xcimg.szwego.com/20220122/i1642832912_9722_3.jpg","https://xcimg.szwego.com/20220122/i1642832912_7137_4.jpg","https://xcimg.szwego.com/20220122/i1642832912_3234_5.jpg","https://xcimg.szwego.com/20220122/i1642832912_607_6.jpg","https://xcimg.szwego.com/20220122/i1642832912_2571_7.jpg","https://xcimg.szwego.com/20220122/i1642832912_4764_8.jpg"],"created_at":"2024-08-15T07:44:50.169Z"},{"id":"item-98642138c82d","sku":"_dASASY0EqFy_HFBILnWbKqCZ1tt_-7Y1u1c2-Ow","name_en":"Pink#Lifestyle Image","name_cn":"Pink#Lifestyle Image\nModel: 292104","specs":{"source":"wsxcme","sourceId":"_dASASY0EqFy_HFBILnWbKqCZ1tt_-7Y1u1c2-Ow","sourceTagId":47002756,"sourceTagName":"/women's bag","modelNumber":"292104","rawTitle":"Pink#Lifestyle Image\nModel: 292104"},"price":null,"currency":"CNY","moq":1,"category":"bvlgari-women-bags","status":"active","alibaba_url":null,"images":["https://xcimg.szwego.com/20220602/i1654155240_9557_0.jpg","https://xcimg.szwego.com/20220602/i1654155240_5487_1.jpg","https://xcimg.szwego.com/20220602/i1654155240_4108_2.jpg","https://xcimg.szwego.com/20220602/i1654155240_3345_3.jpg","https://xcimg.szwego.com/20220602/i1654155240_9171_4.jpg","https://xcimg.szwego.com/20220602/i1654155240_8123_5.jpg"],"created_at":"2024-09-27T06:51:04.113Z"},{"id":"item-b7c3b913e986","sku":"_dk3k3ZBu4OKPQ5w5XvoZGLJMLfVsi8HVrMdJHjg","name_en":"Random photos of the bag on body~","name_cn":"Random photos of the bag on body~","specs":{"source":"wsxcme","sourceId":"_dk3k3ZBu4OKPQ5w5XvoZGLJMLfVsi8HVrMdJHjg","sourceTagId":47002756,"sourceTagName":"/women's bag","rawTitle":"Random photos of the bag on body~"},"price":null,"currency":"CNY","moq":1,"category":"bvlgari-women-bags","status":"active","alibaba_url":null,"images":["https://xcimg.szwego.com/20230329/i1680068700_2603_0.jpg","https://xcimg.szwego.com/20230329/i1680068700_8185_1.jpg","https://xcimg.szwego.com/20230329/i1680068700_8172_2.jpg","https://xcimg.szwego.com/20230329/i1680068700_3729_3.jpg"],"created_at":"2024-09-27T06:51:04.147Z"},{"id":"item-6f4b151d5e40","sku":"_dJJJJWUiy0MVE_eeIIAp2-x00FBXi7xMI_fJ1EA","name_en":"Same style as Wang Ou~","name_cn":"Same style as Wang Ou~","specs":{"source":"wsxcme","sourceId":"_dJJJJWUiy0MVE_eeIIAp2-x00FBXi7xMI_fJ1EA","sourceTagId":47002756,"sourceTagName":"/women's bag","rawTitle":"Same style as Wang Ou~"},"price":null,"currency":"CNY","moq":1,"category":"bvlgari-women-bags","status":"active","alibaba_url":null,"images":["https://xcimg.szwego.com/20230418/i1681812547_6608_0.jpg","https://xcimg.szwego.com/20230418/i1681812547_4039_1.jpg","https://xcimg.szwego.com/20230418/i1681812547_2922_2.jpg","https://xcimg.szwego.com/20230418/i1681812547_9345_3.jpg"],"created_at":"2024-09-27T06:51:04.104Z"},{"id":"item-d0d998467c40","sku":"_dj6j6aNR3vt-F7G-mdglKgB00gQKpEm8wEPsJlw","name_en":"SERPENTI FOREVER Medium Tote, made of calf leather with sheepskin lining. It skillfully blends classic design with modern style, fully showcasing the endless charm of the collection. This easy-to-wear bag incorporates new details into iconic elements, featuring a leather shoulder strap and a signature snake-head magnetic clasp. Its enchanting scales and design draw inspiration from the 1960s SERPENTI jewelry collection. It features a compartment, a front pocket, an external back zip pocket, an internal open pocket, and a mirror pouch with a customizable mirror. The back is adorned with a BVLGARI metal logo.","name_cn":"SERPENTI FOREVER Medium Tote, made of calf leather with sheepskin lining. It skillfully blends classic design with modern style, fully showcasing the endless charm of the collection. This easy-to-wear bag incorporates new details into iconic elements, featuring a leather shoulder strap and a signature snake-head magnetic clasp. Its enchanting scales and design draw inspiration from the 1960s SERPENTI jewelry collection. It features a compartment, a front pocket, an external back zip pocket, an internal open pocket, and a mirror pouch with a customizable mirror. The back is adorned with a BVLGARI metal logo.\nStyle: 293665\nSize: 20.5 X 15 X 9","specs":{"source":"wsxcme","sourceId":"_dj6j6aNR3vt-F7G-mdglKgB00gQKpEm8wEPsJlw","sourceTagId":47002756,"sourceTagName":"/women's bag","modelNumber":"293665","rawTitle":"SERPENTI FOREVER Medium Tote, made of calf leather with sheepskin lining. It skillfully blends classic design with modern style, fully showcasing the endless charm of the collection. This easy-to-wear bag incorporates new details into iconic elements, featuring a leather shoulder strap and a signature snake-head magnetic clasp. Its enchanting scales and design draw inspiration from the 1960s SERPENTI jewelry collection. It features a compartment, a front pocket, an external back zip pocket, an internal open pocket, and a mirror pouch with a customizable mirror. The back is adorned with a BVLGARI metal logo.\nStyle: 293665\nSize: 20.5 X 15 X 9"},"price":null,"currency":"CNY","moq":1,"category":"bvlgari-women-bags","status":"active","alibaba_url":null,"images":["https://xcimg.szwego.com/20240817/i1723878680_2163_0.jpg","https://xcimg.szwego.com/20240817/i1723878680_3501_1.jpg","https://xcimg.szwego.com/20240817/i1723878680_4053_2.jpg","https://xcimg.szwego.com/20240817/i1723878680_7606_3.jpg"],"created_at":"2024-09-27T06:51:04.180Z"},{"id":"item-a3ec72b5b734","sku":"_dkTkTILue5r4s7QDLclD-wiJUhm-R2bTVtjEN6A","name_en":"Store photo","name_cn":"Store photo","specs":{"source":"wsxcme","sourceId":"_dkTkTILue5r4s7QDLclD-wiJUhm-R2bTVtjEN6A","sourceTagId":47002756,"sourceTagName":"/women's bag","rawTitle":"Store photo"},"price":null,"currency":"CNY","moq":1,"category":"bvlgari-women-bags","status":"active","alibaba_url":null,"images":["https://xcimg.szwego.com/20230329/i1680022318_761_0.jpg","https://xcimg.szwego.com/20230329/i1680022318_8968_1.jpg"],"created_at":"2024-09-27T06:51:04.142Z"},{"id":"item-27981a1443b0","sku":"_dAUAUqXTSkN7Lx0IzVGMv_HMRjm9RgQInLvAydA","name_en":"Three-color collection~","name_cn":"Three-color collection~","specs":{"source":"wsxcme","sourceId":"_dAUAUqXTSkN7Lx0IzVGMv_HMRjm9RgQInLvAydA","sourceTagId":47002756,"sourceTagName":"/women's bag","rawTitle":"Three-color collection~"},"price":null,"currency":"CNY","moq":1,"category":"bvlgari-women-bags","status":"active","alibaba_url":null,"images":["https://xcimg.szwego.com/20240817/i1723878915_4364_0.jpg"],"created_at":"2024-09-27T06:51:04.183Z"},{"id":"item-4a162d0a729e","sku":"_dmTmT6jyyxMWIM5z_kgQKCG1223yvAqDXLLjodQ","name_en":"Wang Wen~","name_cn":"Wang Wen~","specs":{"source":"wsxcme","sourceId":"_dmTmT6jyyxMWIM5z_kgQKCG1223yvAqDXLLjodQ","sourceTagId":47002756,"sourceTagName":"/women's bag","rawTitle":"Wang Wen~"},"price":null,"currency":"CNY","moq":1,"category":"bvlgari-women-bags","status":"active","alibaba_url":null,"images":["https://xcimg.szwego.com/20230329/i1680070106_8705_0.jpg"],"created_at":"2024-09-27T06:51:04.152Z"},{"id":"item-f7af7ea18273","sku":"_dF3F3IQhtrU2J5wO-iTrI_5noLFOT82MfKZt-NQ","name_en":"Wearing photos","name_cn":"Wearing photos","specs":{"source":"wsxcme","sourceId":"_dF3F3IQhtrU2J5wO-iTrI_5noLFOT82MfKZt-NQ","sourceTagId":47002756,"sourceTagName":"/women's bag","rawTitle":"Wearing photos"},"price":null,"currency":"CNY","moq":1,"category":"bvlgari-women-bags","status":"active","alibaba_url":null,"images":["https://xcimg.szwego.com/20230219/i1676790715_6215_0.jpg","https://xcimg.szwego.com/20230219/i1676790715_727_1.jpg","https://xcimg.szwego.com/20230219/i1676790715_403_2.jpg","https://xcimg.szwego.com/20230219/i1676790715_8902_3.jpg"],"created_at":"2024-10-07T10:58:53.578Z"},{"id":"item-6fbe4ddd1ebe","sku":"_dfpfpXu7AiD15kLT3HDxqQVMejReSQ0a9MIfmGg","name_en":"Wearing photos","name_cn":"Wearing photos","specs":{"source":"wsxcme","sourceId":"_dfpfpXu7AiD15kLT3HDxqQVMejReSQ0a9MIfmGg","sourceTagId":47002756,"sourceTagName":"/women's bag","rawTitle":"Wearing photos"},"price":null,"currency":"CNY","moq":1,"category":"bvlgari-women-bags","status":"active","alibaba_url":null,"images":["https://xcimg.szwego.com/20230219/i1676789548_7865_0.jpg","https://xcimg.szwego.com/20230219/i1676789548_3612_1.jpg","https://xcimg.szwego.com/20230219/i1676789548_1162_2.jpg","https://xcimg.szwego.com/20230219/i1676789548_3431_3.jpg"],"created_at":"2024-10-07T10:58:53.573Z"},{"id":"item-5bc721f1ace9","sku":"_dr8r8TF1-dWpNDaNuMY-7U9fMPkA1Qdm2VCPlWA","name_en":"Wearing photos","name_cn":"Wearing photos","specs":{"source":"wsxcme","sourceId":"_dr8r8TF1-dWpNDaNuMY-7U9fMPkA1Qdm2VCPlWA","sourceTagId":47002756,"sourceTagName":"/women's bag","rawTitle":"Wearing photos"},"price":null,"currency":"CNY","moq":1,"category":"bvlgari-women-bags","status":"active","alibaba_url":null,"images":["https://xcimg.szwego.com/20230219/i1676789144_4297_0.jpg","https://xcimg.szwego.com/20230219/i1676789144_882_1.jpg","https://xcimg.szwego.com/20230219/i1676789144_8191_2.jpg","https://xcimg.szwego.com/20230219/i1676789144_6966_3.jpg"],"created_at":"2024-10-07T10:58:53.565Z"},{"id":"item-3b712ae9fed9","sku":"_d0W0WQvUw1ue9TEHxuSTVHFhYKVJ450F294LCXQ","name_en":"Wearing photos","name_cn":"Wearing photos","specs":{"source":"wsxcme","sourceId":"_d0W0WQvUw1ue9TEHxuSTVHFhYKVJ450F294LCXQ","sourceTagId":47002756,"sourceTagName":"/women's bag","rawTitle":"Wearing photos"},"price":null,"currency":"CNY","moq":1,"category":"bvlgari-women-bags","status":"active","alibaba_url":null,"images":["https://xcimg.szwego.com/20230219/i1676791023_603_0.jpg","https://xcimg.szwego.com/20230219/i1676791023_9174_1.jpg","https://xcimg.szwego.com/20230219/i1676791023_953_2.jpg","https://xcimg.szwego.com/20230219/i1676791023_1589_3.jpg","https://xcimg.szwego.com/20230219/i1676791023_4233_4.jpg"],"created_at":"2024-10-07T10:58:53.582Z"},{"id":"item-385f09eb1fda","sku":"_dD5D5JXZbqM6u7b_lfbQ7HYqcLsncN6hxY9-vhA","name_en":"Wearing photos","name_cn":"Wearing photos","specs":{"source":"wsxcme","sourceId":"_dD5D5JXZbqM6u7b_lfbQ7HYqcLsncN6hxY9-vhA","sourceTagId":47002756,"sourceTagName":"/women's bag","rawTitle":"Wearing photos"},"price":null,"currency":"CNY","moq":1,"category":"bvlgari-women-bags","status":"active","alibaba_url":null,"images":["https://xcimg.szwego.com/20230219/i1676791845_296_0.jpg","https://xcimg.szwego.com/20230219/i1676791845_2461_1.jpg","https://xcimg.szwego.com/20230219/i1676791845_9099_2.jpg","https://xcimg.szwego.com/20230219/i1676791845_4755_3.jpg"],"created_at":"2024-10-07T10:58:53.586Z"},{"id":"item-1b42ef09ebb9","sku":"_dmVmVUoGtbBaHgeXPUSVXlajAqWxOUrDNqtyP_g","name_en":"Wearing photos","name_cn":"Wearing photos","specs":{"source":"wsxcme","sourceId":"_dmVmVUoGtbBaHgeXPUSVXlajAqWxOUrDNqtyP_g","sourceTagId":47002756,"sourceTagName":"/women's bag","rawTitle":"Wearing photos"},"price":null,"currency":"CNY","moq":1,"category":"bvlgari-women-bags","status":"active","alibaba_url":null,"images":["https://xcimg.szwego.com/20230219/i1676789320_1674_0.jpg","https://xcimg.szwego.com/20230219/i1676789320_380_1.jpg","https://xcimg.szwego.com/20230219/i1676789320_4963_2.jpg","https://xcimg.szwego.com/20230219/i1676789320_4446_3.jpg"],"created_at":"2024-10-07T10:58:53.569Z"},{"id":"item-444c3803ed2f","sku":"_d_L_L2tOwcIH0bC6cFRCtt02Gf0uD4EYIierCmw","name_en":"What is the Happy Planet~~ Only the white Bvlgari Chi Chi.","name_cn":"What is the Happy Planet~~ Only the white Bvlgari Chi Chi.\n25cm double-layer in stock","specs":{"source":"wsxcme","sourceId":"_d_L_L2tOwcIH0bC6cFRCtt02Gf0uD4EYIierCmw","sourceTagId":47002756,"sourceTagName":"/women's bag","rawTitle":"What is the Happy Planet~~ Only the white Bvlgari Chi Chi.\n25cm double-layer in stock"},"price":null,"currency":"CNY","moq":1,"category":"bvlgari-women-bags","status":"active","alibaba_url":null,"images":["https://xcimg.szwego.com/20230418/i1681811483_6652_0.jpg","https://xcimg.szwego.com/20230418/i1681811483_7428_1.jpg","https://xcimg.szwego.com/20230418/i1681811483_7348_2.jpg"],"created_at":"2024-09-27T06:51:04.127Z"}],"page":4,"pageSize":24,"total":97,"totalPages":5}
