{"items":[{"id":"item-debe623c2075","sku":"_dxSxS7QVLIwqHTVCG-_MeIe0XvSPCjBzqHqJDyw","name_en":"【Bvlgari】宝格丽专柜全新“Serpenti Diamond Blast链条包,率先上市啦💗💗采用粉红色小牛皮制成,搭配三链装饰。浅金镀金黄铜经典蛇首搭扣,饰以闪亮粉红色珐琅,搭配心形装饰和黑色缟玛瑙双眼。别具匠心的“Serpenti in Love”","name_cn":"【Bvlgari】宝格丽专柜全新“Serpenti Diamond Blast链条包,率先上市啦💗💗采用粉红色小牛皮制成,搭配三链装饰。浅金镀金黄铜经典蛇首搭扣,饰以闪亮粉红色珐琅,搭配心形装饰和黑色缟玛瑙双眼。别具匠心的“Serpenti in Love”\n尺寸:24*16*6.5cm\n型号:288656","specs":{"source":"wsxcme","sourceId":"_dxSxS7QVLIwqHTVCG-_MeIe0XvSPCjBzqHqJDyw","sourceTagId":47002756,"sourceTagName":"宝格丽/女包","modelNumber":"288656","dimensions":{"lengthCm":24,"heightCm":16,"widthCm":6.5},"rawTitle":"【Bvlgari】宝格丽专柜全新“Serpenti Diamond Blast链条包,率先上市啦💗💗采用粉红色小牛皮制成,搭配三链装饰。浅金镀金黄铜经典蛇首搭扣,饰以闪亮粉红色珐琅,搭配心形装饰和黑色缟玛瑙双眼。别具匠心的“Serpenti in Love”\n尺寸:24*16*6.5cm\n型号:288656"},"price":null,"currency":"CNY","moq":1,"category":"bvlgari-women-bags","status":"active","alibaba_url":null,"images":["https://xcimg.szwego.com/20230603/i1685780711_8313_0.jpg","https://xcimg.szwego.com/20230603/i1685780711_291_1.jpg","https://xcimg.szwego.com/20230603/i1685780711_1742_2.jpg","https://xcimg.szwego.com/20230603/i1685780711_2130_3.jpg","https://xcimg.szwego.com/20230603/i1685780711_6795_4.jpg","https://xcimg.szwego.com/20230603/i1685780711_9379_5.jpg","https://xcimg.szwego.com/20230603/i1685780711_8226_6.jpg","https://xcimg.szwego.com/20230603/i1685780711_5529_7.jpg","https://xcimg.szwego.com/20230603/i1685780711_7443_8.jpg"],"created_at":"2024-08-15T07:44:50.164Z"},{"id":"item-84fe6ddd8e60","sku":"_ds1s1s9lrhOSelc0JYip0MfHUqknWyTf0mh4ZoQ","name_en":"【Bvlgari】链条包mini来袭🥰宝格丽专柜全新“Serpenti Diamond Blast链条包,率先上市啦💗💗采用粉红色小牛皮制成,搭配三链装饰。浅金镀金黄铜经典蛇首搭扣,饰以闪亮粉红色珐琅,搭配心形装饰和黑色缟玛瑙双眼。别具匠心的“Serpenti in Love”","name_cn":"【Bvlgari】链条包mini来袭🥰宝格丽专柜全新“Serpenti Diamond Blast链条包,率先上市啦💗💗采用粉红色小牛皮制成,搭配三链装饰。浅金镀金黄铜经典蛇首搭扣,饰以闪亮粉红色珐琅,搭配心形装饰和黑色缟玛瑙双眼。别具匠心的“Serpenti in Love” \n尺寸:17cm\n型号:288104","specs":{"source":"wsxcme","sourceId":"_ds1s1s9lrhOSelc0JYip0MfHUqknWyTf0mh4ZoQ","sourceTagId":47002756,"sourceTagName":"宝格丽/女包","modelNumber":"288104","rawTitle":"【Bvlgari】链条包mini来袭🥰宝格丽专柜全新“Serpenti Diamond Blast链条包,率先上市啦💗💗采用粉红色小牛皮制成,搭配三链装饰。浅金镀金黄铜经典蛇首搭扣,饰以闪亮粉红色珐琅,搭配心形装饰和黑色缟玛瑙双眼。别具匠心的“Serpenti in Love” \n尺寸:17cm\n型号:288104"},"price":null,"currency":"CNY","moq":1,"category":"bvlgari-women-bags","status":"active","alibaba_url":null,"images":["https://xcimg.szwego.com/20230603/i1685781301_8724_0.jpg","https://xcimg.szwego.com/20230603/i1685781301_7430_1.jpg","https://xcimg.szwego.com/20230603/i1685781301_4466_2.jpg","https://xcimg.szwego.com/20230603/i1685781301_864_3.jpg","https://xcimg.szwego.com/20230603/i1685781301_9326_4.jpg","https://xcimg.szwego.com/20230603/i1685781301_4308_5.jpg","https://xcimg.szwego.com/20230603/i1685781301_3180_6.jpg","https://xcimg.szwego.com/20230603/i1685781301_2416_7.jpg","https://xcimg.szwego.com/20230603/i1685781301_6163_8.jpg"],"created_at":"2024-08-15T07:44:50.166Z"},{"id":"item-8ffd434e60ea","sku":"_dyXyXOOSkiJjLIC3OV0bGIJkpOOGjEtFzZRb2iw","name_en":"25cm  VS   19cm","name_cn":"25cm  VS   19cm","specs":{"source":"wsxcme","sourceId":"_dyXyXOOSkiJjLIC3OV0bGIJkpOOGjEtFzZRb2iw","sourceTagId":47002756,"sourceTagName":"宝格丽/女包","rawTitle":"25cm  VS   19cm"},"price":null,"currency":"CNY","moq":1,"category":"bvlgari-women-bags","status":"active","alibaba_url":null,"images":["https://xcimg.szwego.com/20230418/i1681812757_2309_0.jpg"],"created_at":"2024-09-27T06:51:04.136Z"},{"id":"item-d558f747ac9e","sku":"_d8787O8f_LNKoIOhrsKIVoNT4dTWn-z_RqnHLFg","name_en":"全新SERPENTI ELLIPSE系列大号斜挎包","name_cn":"全新SERPENTI ELLIPSE系列大号斜挎包\n\n以独特的造型、标志性细节及多变魅力,为SERPENTI FOREVER世界增添时尚气息。\n这款日常包款采用银粉小牛皮精制而成,中央为牛皮材质,两侧为蛇纹蓝鳞片,搭配镀金黄铜配饰,迷人的经典蛇首中央点缀银色鳞片和粉色珐琅双眼,正面磁扣隐藏其下。\n设有单个隔层,可调节链条和皮革肩带及可拆卸皮革手柄,既可斜挎,亦可作为经典单肩包佩戴。实用的顶部拉链,设有一个内部口袋,背面设一个外置口袋和BVLGARI宝格丽金属标识。\n\n型号:291636\n尺寸:25.5×25×5.5厘米","specs":{"source":"wsxcme","sourceId":"_d8787O8f_LNKoIOhrsKIVoNT4dTWn-z_RqnHLFg","sourceTagId":47002756,"sourceTagName":"宝格丽/女包","modelNumber":"291636","dimensions":{"lengthCm":25.5,"heightCm":25,"widthCm":5.5},"rawTitle":"全新SERPENTI ELLIPSE系列大号斜挎包\n\n以独特的造型、标志性细节及多变魅力,为SERPENTI FOREVER世界增添时尚气息。\n这款日常包款采用银粉小牛皮精制而成,中央为牛皮材质,两侧为蛇纹蓝鳞片,搭配镀金黄铜配饰,迷人的经典蛇首中央点缀银色鳞片和粉色珐琅双眼,正面磁扣隐藏其下。\n设有单个隔层,可调节链条和皮革肩带及可拆卸皮革手柄,既可斜挎,亦可作为经典单肩包佩戴。实用的顶部拉链,设有一个内部口袋,背面设一个外置口袋和BVLGARI宝格丽金属标识。\n\n型号:291636\n尺寸:25.5×25×5.5厘米"},"price":null,"currency":"CNY","moq":1,"category":"bvlgari-women-bags","status":"active","alibaba_url":null,"images":["https://xcimg.szwego.com/20220321/i1647843529_2569_0.jpg","https://xcimg.szwego.com/20220321/i1647843529_1696_1.jpg","https://xcimg.szwego.com/20220321/i1647843529_970_2.jpg","https://xcimg.szwego.com/20220321/i1647843529_7892_3.jpg","https://xcimg.szwego.com/20220321/i1647843529_1490_4.jpg","https://xcimg.szwego.com/20220321/i1647843529_1037_5.jpg","https://xcimg.szwego.com/20220321/i1647843529_9487_6.jpg","https://xcimg.szwego.com/20220321/i1647843529_6830_7.jpg","https://xcimg.szwego.com/20220321/i1647843529_7623_8.jpg"],"created_at":"2024-08-15T07:44:50.168Z"},{"id":"item-d1f14267a8ed","sku":"_dnAnAmwo0TIr4CvdbGT95pu19ORGw5DYgz6NwZg","name_en":"全新SERPENTI ELLIPSE系列大号斜挎包","name_cn":"全新SERPENTI ELLIPSE系列大号斜挎包\n\n以独特的造型、标志性细节及多变魅力,为SERPENTI FOREVER世界增添时尚气息。\n这款日常包款采用粉色小牛皮精制而成,中央为都市粒纹小牛皮材质,两侧为光滑质感小牛皮,搭配镀金黄铜配饰,迷人的经典蛇首中央点缀黑色鳞片和红色珐琅双眼,正面磁扣隐藏其下。\n设有单个隔层,可调节链条和皮革肩带及可拆卸皮革手柄,既可斜挎,亦可作为经典单肩包佩戴。实用的顶部拉链,设有一个内部口袋,背面设一个外置口袋和BVLGARI宝格丽金属标识。\n\n型号:291636\n尺寸:25.5×25×5.5厘米","specs":{"source":"wsxcme","sourceId":"_dnAnAmwo0TIr4CvdbGT95pu19ORGw5DYgz6NwZg","sourceTagId":47002756,"sourceTagName":"宝格丽/女包","modelNumber":"291636","dimensions":{"lengthCm":25.5,"heightCm":25,"widthCm":5.5},"rawTitle":"全新SERPENTI ELLIPSE系列大号斜挎包\n\n以独特的造型、标志性细节及多变魅力,为SERPENTI FOREVER世界增添时尚气息。\n这款日常包款采用粉色小牛皮精制而成,中央为都市粒纹小牛皮材质,两侧为光滑质感小牛皮,搭配镀金黄铜配饰,迷人的经典蛇首中央点缀黑色鳞片和红色珐琅双眼,正面磁扣隐藏其下。\n设有单个隔层,可调节链条和皮革肩带及可拆卸皮革手柄,既可斜挎,亦可作为经典单肩包佩戴。实用的顶部拉链,设有一个内部口袋,背面设一个外置口袋和BVLGARI宝格丽金属标识。\n\n型号:291636\n尺寸:25.5×25×5.5厘米"},"price":null,"currency":"CNY","moq":1,"category":"bvlgari-women-bags","status":"active","alibaba_url":null,"images":["https://xcimg.szwego.com/20220602/i1654148896_7398_0.jpg","https://xcimg.szwego.com/20220602/i1654148896_6815_1.jpg","https://xcimg.szwego.com/20220602/i1654148896_1364_2.jpg","https://xcimg.szwego.com/20220602/i1654148896_8232_3.jpg","https://xcimg.szwego.com/20220602/i1654148896_8568_4.jpg","https://xcimg.szwego.com/20220602/i1654148896_8391_5.jpg","https://xcimg.szwego.com/20220602/i1654148896_3421_6.jpg","https://xcimg.szwego.com/20220602/i1654148896_8381_7.jpg","https://xcimg.szwego.com/20220602/i1654148896_7746_8.jpg"],"created_at":"2024-08-15T07:44:50.167Z"},{"id":"item-6c9bfb1704fd","sku":"_dtQtQONfC430vaCN1C1Pvz3MlBuFyMzKhsreVTw","name_en":"全新SERPENTI ELLIPSE系列大号斜挎包","name_cn":"全新SERPENTI ELLIPSE系列大号斜挎包\n\n以独特的造型、标志性细节及多变魅力,为SERPENTI FOREVER世界增添时尚气息。\n这款日常包款采用浅蓝色小牛皮精制而成,中央为都市粒纹小牛皮材质,两侧为光滑质感小牛皮,搭配镀金黄铜配饰,迷人的经典蛇首中央点缀黑色鳞片和红色珐琅双眼,正面磁扣隐藏其下。\n设有单个隔层,可调节链条和皮革肩带及可拆卸皮革手柄,既可斜挎,亦可作为经典单肩包佩戴。实用的顶部拉链,设有一个内部口袋,背面设一个外置口袋和BVLGARI宝格丽金属标识。\n\n型号:291636\n尺寸:25.5×25×5.5厘米","specs":{"source":"wsxcme","sourceId":"_dtQtQONfC430vaCN1C1Pvz3MlBuFyMzKhsreVTw","sourceTagId":47002756,"sourceTagName":"宝格丽/女包","modelNumber":"291636","dimensions":{"lengthCm":25.5,"heightCm":25,"widthCm":5.5},"rawTitle":"全新SERPENTI ELLIPSE系列大号斜挎包\n\n以独特的造型、标志性细节及多变魅力,为SERPENTI FOREVER世界增添时尚气息。\n这款日常包款采用浅蓝色小牛皮精制而成,中央为都市粒纹小牛皮材质,两侧为光滑质感小牛皮,搭配镀金黄铜配饰,迷人的经典蛇首中央点缀黑色鳞片和红色珐琅双眼,正面磁扣隐藏其下。\n设有单个隔层,可调节链条和皮革肩带及可拆卸皮革手柄,既可斜挎,亦可作为经典单肩包佩戴。实用的顶部拉链,设有一个内部口袋,背面设一个外置口袋和BVLGARI宝格丽金属标识。\n\n型号:291636\n尺寸:25.5×25×5.5厘米"},"price":null,"currency":"CNY","moq":1,"category":"bvlgari-women-bags","status":"active","alibaba_url":null,"images":["https://xcimg.szwego.com/20220122/i1642832598_1465_0.jpg","https://xcimg.szwego.com/20220122/i1642832598_4301_1.jpg","https://xcimg.szwego.com/20220122/i1642832598_5781_2.jpg","https://xcimg.szwego.com/20220122/i1642832598_8885_3.jpg","https://xcimg.szwego.com/20220122/i1642832598_8973_4.jpg","https://xcimg.szwego.com/20220122/i1642832598_9345_5.jpg","https://xcimg.szwego.com/20220122/i1642832598_7481_6.jpg","https://xcimg.szwego.com/20220122/i1642832598_7210_7.jpg","https://xcimg.szwego.com/20220122/i1642832598_7359_8.jpg"],"created_at":"2024-08-15T07:44:50.170Z"},{"id":"item-34d56c00a261","sku":"_db_b_6SbuwpOlxiTV1w9d7zKFlgfxQ3KJtKJtxw","name_en":"全新SERPENTI ELLIPSE系列大号斜挎包","name_cn":"全新SERPENTI ELLIPSE系列大号斜挎包\n\n以独特的造型、标志性细节及多变魅力,为SERPENTI FOREVER世界增添时尚气息。\n这款日常包款采用红色小牛皮精制而成,中央为都市粒纹小牛皮材质,两侧为光滑质感小牛皮,搭配镀金黄铜配饰,迷人的经典蛇首中央点缀黑色鳞片和红色珐琅双眼,正面磁扣隐藏其下。\n设有单个隔层,可调节链条和皮革肩带及可拆卸皮革手柄,既可斜挎,亦可作为经典单肩包佩戴。实用的顶部拉链,设有一个内部口袋,背面设一个外置口袋和BVLGARI宝格丽金属标识。\n\n型号:291636\n尺寸:25.5×25×5.5厘米","specs":{"source":"wsxcme","sourceId":"_db_b_6SbuwpOlxiTV1w9d7zKFlgfxQ3KJtKJtxw","sourceTagId":47002756,"sourceTagName":"宝格丽/女包","modelNumber":"291636","dimensions":{"lengthCm":25.5,"heightCm":25,"widthCm":5.5},"rawTitle":"全新SERPENTI ELLIPSE系列大号斜挎包\n\n以独特的造型、标志性细节及多变魅力,为SERPENTI FOREVER世界增添时尚气息。\n这款日常包款采用红色小牛皮精制而成,中央为都市粒纹小牛皮材质,两侧为光滑质感小牛皮,搭配镀金黄铜配饰,迷人的经典蛇首中央点缀黑色鳞片和红色珐琅双眼,正面磁扣隐藏其下。\n设有单个隔层,可调节链条和皮革肩带及可拆卸皮革手柄,既可斜挎,亦可作为经典单肩包佩戴。实用的顶部拉链,设有一个内部口袋,背面设一个外置口袋和BVLGARI宝格丽金属标识。\n\n型号:291636\n尺寸:25.5×25×5.5厘米"},"price":null,"currency":"CNY","moq":1,"category":"bvlgari-women-bags","status":"active","alibaba_url":null,"images":["https://xcimg.szwego.com/20220119/i1642575195_7370_0.jpg","https://xcimg.szwego.com/20220119/i1642575195_8989_1.jpg","https://xcimg.szwego.com/20220119/i1642575195_520_2.jpg","https://xcimg.szwego.com/20220119/i1642575195_8890_3.jpg","https://xcimg.szwego.com/20220119/i1642575195_3606_4.jpg","https://xcimg.szwego.com/20220119/i1642575195_1762_5.jpg","https://xcimg.szwego.com/20220119/i1642575195_1924_6.jpg","https://xcimg.szwego.com/20220119/i1642575195_7716_7.jpg","https://xcimg.szwego.com/20220119/i1642575195_9034_8.jpg"],"created_at":"2024-08-15T07:44:50.171Z"},{"id":"item-0ad740339646","sku":"_dulul2zogVPqPcmBIDdcwmjEh812u76dMG3mMiw","name_en":"全新SERPENTI ELLIPSE系列大号斜挎包","name_cn":"全新SERPENTI ELLIPSE系列大号斜挎包\n\n以独特的造型、标志性细节及多变魅力,为SERPENTI FOREVER世界增添时尚气息。\n这款日常包款采用黑色小牛皮精制而成,中央为牛皮材质,两侧为蛇纹蓝鳞片,搭配镀金黄铜配饰,迷人的经典蛇首中央点缀黑色鳞片和红色珐琅双眼,正面磁扣隐藏其下。\n设有单个隔层,可调节链条和皮革肩带及可拆卸皮革手柄,既可斜挎,亦可作为经典单肩包佩戴。实用的顶部拉链,设有一个内部口袋,背面设一个外置口袋和BVLGARI宝格丽金属标识。\n\n型号:291636\n尺寸:25.5×25×5.5厘米","specs":{"source":"wsxcme","sourceId":"_dulul2zogVPqPcmBIDdcwmjEh812u76dMG3mMiw","sourceTagId":47002756,"sourceTagName":"宝格丽/女包","modelNumber":"291636","dimensions":{"lengthCm":25.5,"heightCm":25,"widthCm":5.5},"rawTitle":"全新SERPENTI ELLIPSE系列大号斜挎包\n\n以独特的造型、标志性细节及多变魅力,为SERPENTI FOREVER世界增添时尚气息。\n这款日常包款采用黑色小牛皮精制而成,中央为牛皮材质,两侧为蛇纹蓝鳞片,搭配镀金黄铜配饰,迷人的经典蛇首中央点缀黑色鳞片和红色珐琅双眼,正面磁扣隐藏其下。\n设有单个隔层,可调节链条和皮革肩带及可拆卸皮革手柄,既可斜挎,亦可作为经典单肩包佩戴。实用的顶部拉链,设有一个内部口袋,背面设一个外置口袋和BVLGARI宝格丽金属标识。\n\n型号:291636\n尺寸:25.5×25×5.5厘米"},"price":null,"currency":"CNY","moq":1,"category":"bvlgari-women-bags","status":"active","alibaba_url":null,"images":["https://xcimg.szwego.com/20220122/i1642832912_7233_0.jpg","https://xcimg.szwego.com/20220122/i1642832912_2722_1.jpg","https://xcimg.szwego.com/20220122/i1642832912_7319_2.jpg","https://xcimg.szwego.com/20220122/i1642832912_9722_3.jpg","https://xcimg.szwego.com/20220122/i1642832912_7137_4.jpg","https://xcimg.szwego.com/20220122/i1642832912_3234_5.jpg","https://xcimg.szwego.com/20220122/i1642832912_607_6.jpg","https://xcimg.szwego.com/20220122/i1642832912_2571_7.jpg","https://xcimg.szwego.com/20220122/i1642832912_4764_8.jpg"],"created_at":"2024-08-15T07:44:50.169Z"},{"id":"item-444c3803ed2f","sku":"_d_L_L2tOwcIH0bC6cFRCtt02Gf0uD4EYIierCmw","name_en":"什么是快乐星球~~唯有白色宝格丽chi chi.","name_cn":"什么是快乐星球~~唯有白色宝格丽chi chi.      \n\n25cm双层现货","specs":{"source":"wsxcme","sourceId":"_d_L_L2tOwcIH0bC6cFRCtt02Gf0uD4EYIierCmw","sourceTagId":47002756,"sourceTagName":"宝格丽/女包","rawTitle":"什么是快乐星球~~唯有白色宝格丽chi chi.      \n\n25cm双层现货"},"price":null,"currency":"CNY","moq":1,"category":"bvlgari-women-bags","status":"active","alibaba_url":null,"images":["https://xcimg.szwego.com/20230418/i1681811483_6652_0.jpg","https://xcimg.szwego.com/20230418/i1681811483_7428_1.jpg","https://xcimg.szwego.com/20230418/i1681811483_7348_2.jpg"],"created_at":"2024-09-27T06:51:04.127Z"},{"id":"item-fbe650e00e6a","sku":"_d8k8k2gFaRPBSWYRhl-aXYQ60mLb1saaC_ffs0A","name_en":"细节po","name_cn":"细节po","specs":{"source":"wsxcme","sourceId":"_d8k8k2gFaRPBSWYRhl-aXYQ60mLb1saaC_ffs0A","sourceTagId":47002756,"sourceTagName":"宝格丽/女包","rawTitle":"细节po"},"price":null,"currency":"CNY","moq":1,"category":"bvlgari-women-bags","status":"active","alibaba_url":null,"images":["https://xcimg.szwego.com/20230219/i1676790487_5821_0.jpg","https://xcimg.szwego.com/20230219/i1676790487_3638_1.jpg","https://xcimg.szwego.com/20230219/i1676790487_4986_2.jpg","https://xcimg.szwego.com/20230219/i1676790487_1774_3.jpg","https://xcimg.szwego.com/20230219/i1676790487_2676_4.jpg","https://xcimg.szwego.com/20230219/i1676790487_2604_5.jpg"],"created_at":"2024-10-07T10:58:53.577Z"},{"id":"item-831763344b81","sku":"_dDMDMYFUOkWg0UNH8BnUVm_haNmLuOhnS95cJZg","name_en":"细节po","name_cn":"细节po","specs":{"source":"wsxcme","sourceId":"_dDMDMYFUOkWg0UNH8BnUVm_haNmLuOhnS95cJZg","sourceTagId":47002756,"sourceTagName":"宝格丽/女包","rawTitle":"细节po"},"price":null,"currency":"CNY","moq":1,"category":"bvlgari-women-bags","status":"active","alibaba_url":null,"images":["https://xcimg.szwego.com/20230219/i1676789509_7262_0.jpg","https://xcimg.szwego.com/20230219/i1676789509_6640_1.jpg","https://xcimg.szwego.com/20230219/i1676789509_370_2.jpg","https://xcimg.szwego.com/20230219/i1676789509_4201_3.jpg","https://xcimg.szwego.com/20230219/i1676789509_9460_4.jpg"],"created_at":"2024-10-07T10:58:53.572Z"},{"id":"item-62ded42bb503","sku":"_dhThTWvWbF_aGB-gySxoiAgA3eZsvhRNlVmaqVA","name_en":"细节po","name_cn":"细节po","specs":{"source":"wsxcme","sourceId":"_dhThTWvWbF_aGB-gySxoiAgA3eZsvhRNlVmaqVA","sourceTagId":47002756,"sourceTagName":"宝格丽/女包","rawTitle":"细节po"},"price":null,"currency":"CNY","moq":1,"category":"bvlgari-women-bags","status":"active","alibaba_url":null,"images":["https://xcimg.szwego.com/20230219/i1676789274_6332_0.jpg","https://xcimg.szwego.com/20230219/i1676789274_4185_1.jpg","https://xcimg.szwego.com/20230219/i1676789274_7979_2.jpg","https://xcimg.szwego.com/20230219/i1676789274_8748_3.jpg","https://xcimg.szwego.com/20230219/i1676789274_4996_4.jpg","https://xcimg.szwego.com/20230219/i1676789274_2818_5.jpg"],"created_at":"2024-10-07T10:58:53.568Z"},{"id":"item-57d26ae67749","sku":"_dUXUXJqNendsJ3SHWEOd4NkUt6ryXxgzjfAil5w","name_en":"细节po","name_cn":"细节po","specs":{"source":"wsxcme","sourceId":"_dUXUXJqNendsJ3SHWEOd4NkUt6ryXxgzjfAil5w","sourceTagId":47002756,"sourceTagName":"宝格丽/女包","rawTitle":"细节po"},"price":null,"currency":"CNY","moq":1,"category":"bvlgari-women-bags","status":"active","alibaba_url":null,"images":["https://xcimg.szwego.com/20230219/i1676790980_3385_0.jpg","https://xcimg.szwego.com/20230219/i1676790980_7728_1.jpg","https://xcimg.szwego.com/20230219/i1676790980_4302_2.jpg","https://xcimg.szwego.com/20230219/i1676790980_9415_3.jpg","https://xcimg.szwego.com/20230219/i1676790980_236_4.jpg","https://xcimg.szwego.com/20230219/i1676790980_5613_5.jpg"],"created_at":"2024-10-07T10:58:53.581Z"},{"id":"item-fa1689996f81","sku":"_dxAxAH1ZditQLnr_KqxcuU0kwokxXTyttQWTowg","name_en":"Bvlgari Women Bags","name_cn":"上身图","specs":{"source":"wsxcme","sourceId":"_dxAxAH1ZditQLnr_KqxcuU0kwokxXTyttQWTowg","sourceTagId":47002756,"sourceTagName":"宝格丽/女包","rawTitle":"上身图"},"price":null,"currency":"CNY","moq":1,"category":"bvlgari-women-bags","status":"active","alibaba_url":null,"images":["https://xcimg.szwego.com/20240809/i1723192004_255_0.jpg","https://xcimg.szwego.com/20240809/i1723192004_3107_1.jpg","https://xcimg.szwego.com/20240809/i1723192004_382_2.jpg"],"created_at":"2024-09-27T06:51:04.163Z"},{"id":"item-f7af7ea18273","sku":"_dF3F3IQhtrU2J5wO-iTrI_5noLFOT82MfKZt-NQ","name_en":"Bvlgari Women Bags","name_cn":"随拍上身图","specs":{"source":"wsxcme","sourceId":"_dF3F3IQhtrU2J5wO-iTrI_5noLFOT82MfKZt-NQ","sourceTagId":47002756,"sourceTagName":"宝格丽/女包","rawTitle":"随拍上身图"},"price":null,"currency":"CNY","moq":1,"category":"bvlgari-women-bags","status":"active","alibaba_url":null,"images":["https://xcimg.szwego.com/20230219/i1676790715_6215_0.jpg","https://xcimg.szwego.com/20230219/i1676790715_727_1.jpg","https://xcimg.szwego.com/20230219/i1676790715_403_2.jpg","https://xcimg.szwego.com/20230219/i1676790715_8902_3.jpg"],"created_at":"2024-10-07T10:58:53.578Z"},{"id":"item-f6a2ba9b0ffb","sku":"_d_R_RLoF1z6V0j96mjqyGc6KFUxdqhxuuuRK18Q","name_en":"Bvlgari Women Bags","name_cn":"正品级\nBVLGARISERPENTIFOREVER斜挎包\n型号:289676\n尺寸:19-13-7cm\n全新“Serpenti Forever”系列斜挎包彰显都市风格,时尚多变,为Serpenti世界增添别具一格的潮流时尚感。这款包袋采用蜜桃色小牛皮材质,搭配浅金镀金黄铜配饰。黑色和白玛瑙色珐琅和绿色孔雀石感性双眼,将经典蛇首搭扣点缀得魅惑迷人。可调节的蛇形链条和皮革肩带,轻松配搭时尚日装。小号,两个隔层,一面可个性化定制的精巧化妆镜。一个不可拆卸的信用卡夹,一个敞口口袋,一个拉链口袋和两个外部口袋。","specs":{"source":"wsxcme","sourceId":"_d_R_RLoF1z6V0j96mjqyGc6KFUxdqhxuuuRK18Q","sourceTagId":47002756,"sourceTagName":"宝格丽/女包","modelNumber":"289676","rawTitle":"正品级\nBVLGARISERPENTIFOREVER斜挎包\n型号:289676\n尺寸:19-13-7cm\n全新“Serpenti Forever”系列斜挎包彰显都市风格,时尚多变,为Serpenti世界增添别具一格的潮流时尚感。这款包袋采用蜜桃色小牛皮材质,搭配浅金镀金黄铜配饰。黑色和白玛瑙色珐琅和绿色孔雀石感性双眼,将经典蛇首搭扣点缀得魅惑迷人。可调节的蛇形链条和皮革肩带,轻松配搭时尚日装。小号,两个隔层,一面可个性化定制的精巧化妆镜。一个不可拆卸的信用卡夹,一个敞口口袋,一个拉链口袋和两个外部口袋。"},"price":null,"currency":"CNY","moq":1,"category":"bvlgari-women-bags","status":"active","alibaba_url":null,"images":["https://xcimg.szwego.com/20230418/i1681812529_5369_0.jpg","https://xcimg.szwego.com/20230418/i1681812529_6333_1.jpg","https://xcimg.szwego.com/20230418/i1681812529_6632_2.jpg","https://xcimg.szwego.com/20230418/i1681812529_6432_3.jpg","https://xcimg.szwego.com/20230418/i1681812529_6985_4.jpg","https://xcimg.szwego.com/20230418/i1681812529_8620_5.jpg","https://xcimg.szwego.com/20230418/i1681812529_6754_6.jpg","https://xcimg.szwego.com/20230418/i1681812529_3660_7.jpg","https://xcimg.szwego.com/20230418/i1681812529_3230_8.jpg"],"created_at":"2024-09-27T06:51:04.135Z"},{"id":"item-f5dd303bf8e5","sku":"_dyhyho9llFD0UQl51GdFpqHlztp1N7evlMuOvQg","name_en":"Bvlgari Women Bags","name_cn":"黑色#上身图\n\n\n\n\n\n\n\n型号:292104","specs":{"source":"wsxcme","sourceId":"_dyhyho9llFD0UQl51GdFpqHlztp1N7evlMuOvQg","sourceTagId":47002756,"sourceTagName":"宝格丽/女包","modelNumber":"292104","rawTitle":"黑色#上身图\n\n\n\n\n\n\n\n型号:292104"},"price":null,"currency":"CNY","moq":1,"category":"bvlgari-women-bags","status":"active","alibaba_url":null,"images":["https://xcimg.szwego.com/20220602/i1654155756_3939_0.jpg","https://xcimg.szwego.com/20220602/i1654155756_9539_1.jpg","https://xcimg.szwego.com/20220602/i1654155756_770_2.jpg","https://xcimg.szwego.com/20220602/i1654155756_904_3.jpg","https://xcimg.szwego.com/20220602/i1654155756_1131_4.jpg","https://xcimg.szwego.com/20220602/i1654155756_521_5.jpg"],"created_at":"2024-09-27T06:51:04.116Z"},{"id":"item-f42c1f46dd59","sku":"_dgSgSxq1KciEKVcBZo8MKyrM6voIH8H3fUGjgIg","name_en":"Bvlgari Women Bags","name_cn":"正品级\nBVLGARISERPENTIFOREVER\n型号:38102 大红\n尺寸:22*13*5.5cm\n专柜热卖系列 Serpenti Forever 精致斜挎包 原单品质 进口胎牛皮 定制原单五金🔅点缀serpenti珐琅浅金镀金蛇首形搭扣  也可以当晚宴包用 精致如珠宝💎\"雨衣、镜子、礼盒包装","specs":{"source":"wsxcme","sourceId":"_dgSgSxq1KciEKVcBZo8MKyrM6voIH8H3fUGjgIg","sourceTagId":47002756,"sourceTagName":"宝格丽/女包","modelNumber":"38102 大红","dimensions":{"lengthCm":22,"heightCm":13,"widthCm":5.5},"rawTitle":"正品级\nBVLGARISERPENTIFOREVER\n型号:38102 大红\n尺寸:22*13*5.5cm\n专柜热卖系列 Serpenti Forever 精致斜挎包 原单品质 进口胎牛皮 定制原单五金🔅点缀serpenti珐琅浅金镀金蛇首形搭扣  也可以当晚宴包用 精致如珠宝💎\"雨衣、镜子、礼盒包装"},"price":null,"currency":"CNY","moq":1,"category":"bvlgari-women-bags","status":"active","alibaba_url":null,"images":["https://xcimg.szwego.com/20230219/i1676789749_6647_0.jpg","https://xcimg.szwego.com/20230219/i1676789749_1663_1.jpg","https://xcimg.szwego.com/20230219/i1676789749_7539_2.jpg","https://xcimg.szwego.com/20230219/i1676789749_4264_3.jpg","https://xcimg.szwego.com/20230219/i1676789749_7202_4.jpg","https://xcimg.szwego.com/20230219/i1676789749_459_5.jpg","https://xcimg.szwego.com/20230219/i1676789749_8870_6.jpg","https://xcimg.szwego.com/20230219/i1676789749_4243_7.jpg","https://xcimg.szwego.com/20230219/i1676789749_8353_8.jpg"],"created_at":"2024-10-07T10:58:53.575Z"},{"id":"item-edc4bfc2d9bd","sku":"_dNDNDkRPoe33_wymHa60gkTDDBeiU8XSvwWHQsg","name_en":"Bvlgari Women Bags","name_cn":"正品级\nBVLGARISERPENTIFOREVER\n型号:38102 黑色\n尺寸:22*13*5.5cm\n专柜热卖系列 Serpenti Forever 精致斜挎包 原单品质 进口胎牛皮 定制原单五金🔅点缀serpenti珐琅浅金镀金蛇首形搭扣  也可以当晚宴包用 精致如珠宝💎\"雨衣、镜子、礼盒包装","specs":{"source":"wsxcme","sourceId":"_dNDNDkRPoe33_wymHa60gkTDDBeiU8XSvwWHQsg","sourceTagId":47002756,"sourceTagName":"宝格丽/女包","modelNumber":"38102 黑色","dimensions":{"lengthCm":22,"heightCm":13,"widthCm":5.5},"rawTitle":"正品级\nBVLGARISERPENTIFOREVER\n型号:38102 黑色\n尺寸:22*13*5.5cm\n专柜热卖系列 Serpenti Forever 精致斜挎包 原单品质 进口胎牛皮 定制原单五金🔅点缀serpenti珐琅浅金镀金蛇首形搭扣  也可以当晚宴包用 精致如珠宝💎\"雨衣、镜子、礼盒包装"},"price":null,"currency":"CNY","moq":1,"category":"bvlgari-women-bags","status":"active","alibaba_url":null,"images":["https://xcimg.szwego.com/20230219/i1676792352_815_0.jpg","https://xcimg.szwego.com/20230219/i1676792352_4150_1.jpg","https://xcimg.szwego.com/20230219/i1676792352_6747_2.jpg","https://xcimg.szwego.com/20230219/i1676792352_4252_3.jpg","https://xcimg.szwego.com/20230219/i1676792352_7332_4.jpg","https://xcimg.szwego.com/20230219/i1676792352_8716_5.jpg","https://xcimg.szwego.com/20230219/i1676792352_7623_6.jpg","https://xcimg.szwego.com/20230219/i1676792352_9121_7.jpg","https://xcimg.szwego.com/20230219/i1676792352_4021_8.jpg"],"created_at":"2024-10-07T10:58:53.588Z"},{"id":"item-e63ce0353630","sku":"_dufuf1nRgdtadjdP05WXAGVF73R71CB0QG8lcmw","name_en":"Bvlgari Women Bags","name_cn":"正品级\nSERPENTI CABOCHON”系列迷你斜挎包采用别具魅力的大号图形图案和大胆的金属质感细节,以精致实用的独特设计和现代风格绽放SERPENTI世界璀璨光芒。\n此款手袋配备可调节和可拆卸的皮革肩带,可用作手提包或手拿包,实现多变百搭功能,日夜皆宜。\n小号,设一个收纳层,一个内部拉链口袋和一个内部敞口口袋。镌刻BVLGARI宝格丽品牌标识的内侧金属铭牌。\n型号:291088\n尺寸:22.5×15×10厘米","specs":{"source":"wsxcme","sourceId":"_dufuf1nRgdtadjdP05WXAGVF73R71CB0QG8lcmw","sourceTagId":47002756,"sourceTagName":"宝格丽/女包","modelNumber":"291088","dimensions":{"lengthCm":22.5,"heightCm":15,"widthCm":10},"rawTitle":"正品级\nSERPENTI CABOCHON”系列迷你斜挎包采用别具魅力的大号图形图案和大胆的金属质感细节,以精致实用的独特设计和现代风格绽放SERPENTI世界璀璨光芒。\n此款手袋配备可调节和可拆卸的皮革肩带,可用作手提包或手拿包,实现多变百搭功能,日夜皆宜。\n小号,设一个收纳层,一个内部拉链口袋和一个内部敞口口袋。镌刻BVLGARI宝格丽品牌标识的内侧金属铭牌。\n型号:291088\n尺寸:22.5×15×10厘米"},"price":null,"currency":"CNY","moq":1,"category":"bvlgari-women-bags","status":"active","alibaba_url":null,"images":["https://xcimg.szwego.com/20230329/i1680068539_3775_0.jpg","https://xcimg.szwego.com/20230329/i1680068539_4128_1.jpg","https://xcimg.szwego.com/20230329/i1680068539_7515_2.jpg","https://xcimg.szwego.com/20230329/i1680068539_5768_3.jpg","https://xcimg.szwego.com/20230329/i1680068539_7917_4.jpg","https://xcimg.szwego.com/20230329/i1680068539_1209_5.jpg","https://xcimg.szwego.com/20230329/i1680068539_9495_6.jpg","https://xcimg.szwego.com/20230329/i1680068539_1500_7.jpg","https://xcimg.szwego.com/20230329/i1680068539_4310_8.jpg"],"created_at":"2024-09-27T06:51:04.094Z"},{"id":"item-df88b1c72df8","sku":"_dcecenYr_yCHSOFB5JtUB5j8FaNN0j3NGiwVQyQ","name_en":"Bvlgari Women Bags","name_cn":"正品级\nBVLGARISERPENTIFOREVER\n型号:38102 橙配酒红\n尺寸:22*13*5.5cm\n专柜热卖系列 Serpenti Forever 精致斜挎包 原单品质 进口胎牛皮 定制原单五金🔅点缀serpenti珐琅浅金镀金蛇首形搭扣  也可以当晚宴包用 精致如珠宝💎\"雨衣、镜子、礼盒包装、","specs":{"source":"wsxcme","sourceId":"_dcecenYr_yCHSOFB5JtUB5j8FaNN0j3NGiwVQyQ","sourceTagId":47002756,"sourceTagName":"宝格丽/女包","modelNumber":"38102 橙配酒红","dimensions":{"lengthCm":22,"heightCm":13,"widthCm":5.5},"rawTitle":"正品级\nBVLGARISERPENTIFOREVER\n型号:38102 橙配酒红\n尺寸:22*13*5.5cm\n专柜热卖系列 Serpenti Forever 精致斜挎包 原单品质 进口胎牛皮 定制原单五金🔅点缀serpenti珐琅浅金镀金蛇首形搭扣  也可以当晚宴包用 精致如珠宝💎\"雨衣、镜子、礼盒包装、"},"price":null,"currency":"CNY","moq":1,"category":"bvlgari-women-bags","status":"active","alibaba_url":null,"images":["https://xcimg.szwego.com/20230219/i1676789064_1831_0.jpg","https://xcimg.szwego.com/20230219/i1676789064_3383_1.jpg","https://xcimg.szwego.com/20230219/i1676789064_9541_2.jpg","https://xcimg.szwego.com/20230219/i1676789064_8381_3.jpg","https://xcimg.szwego.com/20230219/i1676789064_1605_4.jpg","https://xcimg.szwego.com/20230219/i1676789064_321_5.jpg","https://xcimg.szwego.com/20230219/i1676789064_5109_6.jpg","https://xcimg.szwego.com/20230219/i1676789064_5741_7.jpg","https://xcimg.szwego.com/20230219/i1676789064_3550_8.jpg"],"created_at":"2024-10-07T10:58:53.563Z"},{"id":"item-dddfdd2febeb","sku":"_deFeFwf_NaQ3w--vZxDNsPNG-OrBUd6Zf9LHMew","name_en":"Bvlgari Women Bags","name_cn":"正品级\nSERPENTI FOREVER系列中号手提包,采用祖小牛皮材质,搭配羊皮内里。巧妙融合经典设计与现代风格,淋漓尽致地展现了系列作品的无尽魅力。此款易于佩戴的手袋于标志性元素之中融入崭新细节,搭配皮革肩带,饰以标志性蛇首磁扣,其魅惑迷人的鳞片与设计从1960年代的SERPENTI系列珠宝中汲取灵感。设有一个隔层,一个正面口袋,一个背面外置拼接口袋,一个内部敞口口袋,一个配可个性化定制化妆镜的镜袋,背面饰BVLGARI宝格丽金属标识。\n款号:293665\n尺寸:20.5 X 15 X 9","specs":{"source":"wsxcme","sourceId":"_deFeFwf_NaQ3w--vZxDNsPNG-OrBUd6Zf9LHMew","sourceTagId":47002756,"sourceTagName":"宝格丽/女包","modelNumber":"293665","rawTitle":"正品级\nSERPENTI FOREVER系列中号手提包,采用祖小牛皮材质,搭配羊皮内里。巧妙融合经典设计与现代风格,淋漓尽致地展现了系列作品的无尽魅力。此款易于佩戴的手袋于标志性元素之中融入崭新细节,搭配皮革肩带,饰以标志性蛇首磁扣,其魅惑迷人的鳞片与设计从1960年代的SERPENTI系列珠宝中汲取灵感。设有一个隔层,一个正面口袋,一个背面外置拼接口袋,一个内部敞口口袋,一个配可个性化定制化妆镜的镜袋,背面饰BVLGARI宝格丽金属标识。\n款号:293665\n尺寸:20.5 X 15 X 9"},"price":null,"currency":"CNY","moq":1,"category":"bvlgari-women-bags","status":"active","alibaba_url":null,"images":["https://xcimg.szwego.com/20240817/i1723878766_2654_0.jpg","https://xcimg.szwego.com/20240817/i1723878766_2575_1.jpg","https://xcimg.szwego.com/20240817/i1723878766_6575_2.jpg","https://xcimg.szwego.com/20240817/i1723878766_9158_3.jpg","https://xcimg.szwego.com/20240817/i1723878766_6176_4.jpg","https://xcimg.szwego.com/20240817/i1723878766_31_5.jpg","https://xcimg.szwego.com/20240817/i1723878766_3538_6.jpg","https://xcimg.szwego.com/20240817/i1723878766_2455_7.jpg","https://xcimg.szwego.com/20240817/i1723878766_6862_8.jpg"],"created_at":"2024-09-27T06:51:04.181Z"},{"id":"item-dd7255db2539","sku":"_dDjDjRqnvo_F81tyQFnnDP3YanIn3yEcRIXrYaQ","name_en":"Bvlgari Women Bags","name_cn":"现货随拍上身图~","specs":{"source":"wsxcme","sourceId":"_dDjDjRqnvo_F81tyQFnnDP3YanIn3yEcRIXrYaQ","sourceTagId":47002756,"sourceTagName":"宝格丽/女包","rawTitle":"现货随拍上身图~"},"price":null,"currency":"CNY","moq":1,"category":"bvlgari-women-bags","status":"active","alibaba_url":null,"images":["https://xcimg.szwego.com/20230329/i1680069417_549_0.jpg","https://xcimg.szwego.com/20230329/i1680069417_7001_1.jpg","https://xcimg.szwego.com/20230329/i1680069417_1210_2.jpg","https://xcimg.szwego.com/20230329/i1680069417_4227_3.jpg"],"created_at":"2024-09-27T06:51:04.151Z"},{"id":"item-d7fdcb5cdeca","sku":"_dkukuqYx19iVFV3wuOG1XkXDF0JV-QZVDWmskaQ","name_en":"Bvlgari Women Bags","name_cn":"既优雅又随性,美丽又洒脱,完美结合","specs":{"source":"wsxcme","sourceId":"_dkukuqYx19iVFV3wuOG1XkXDF0JV-QZVDWmskaQ","sourceTagId":47002756,"sourceTagName":"宝格丽/女包","rawTitle":"既优雅又随性,美丽又洒脱,完美结合"},"price":null,"currency":"CNY","moq":1,"category":"bvlgari-women-bags","status":"active","alibaba_url":null,"images":["https://xcimg.szwego.com/20221220/i1671550118_1365_0.jpg","https://xcimg.szwego.com/20221220/i1671550118_7283_1.jpg","https://xcimg.szwego.com/20221220/i1671550118_4008_2.jpg","https://xcimg.szwego.com/20221220/i1671550118_9724_3.jpg"],"created_at":"2024-10-07T10:58:53.559Z"}],"page":1,"pageSize":24,"total":97,"totalPages":5}
