{"items":[{"id":"item-9a07ced20614","sku":"_duGuG9-QKyQr1MibMl9Mu7R55ZH2zL4BIFzk0WA","name_en":"Bvlgari Women Bags","name_cn":"/women's bag","specs":{"source":"wsxcme","sourceId":"_duGuG9-QKyQr1MibMl9Mu7R55ZH2zL4BIFzk0WA","sourceTagId":47002756,"sourceTagName":"/women's bag","rawTitle":""},"price":null,"currency":"CNY","moq":1,"category":"bvlgari-women-bags","status":"active","alibaba_url":null,"images":["https://xcimg.szwego.com/20230219/i1676789598_3042_0.jpg"],"created_at":"2024-10-07T10:58:53.574Z"},{"id":"item-63abf9056043","sku":"_dEzEzeVQZOTjBxad3jLOwKZTdw3Gs8HkgBUOdag","name_en":"Bvlgari Women Bags","name_cn":"/women's bag","specs":{"source":"wsxcme","sourceId":"_dEzEzeVQZOTjBxad3jLOwKZTdw3Gs8HkgBUOdag","sourceTagId":47002756,"sourceTagName":"/women's bag","rawTitle":""},"price":null,"currency":"CNY","moq":1,"category":"bvlgari-women-bags","status":"active","alibaba_url":null,"images":["https://xcimg.szwego.com/20230219/i1676790869_7375_0.jpg"],"created_at":"2024-10-07T10:58:53.579Z"},{"id":"item-4743e4aa7848","sku":"_dkQkQ5tqxb3zaJSLO13Yl6hCilT8ClsYxvJXxJg","name_en":"Bvlgari Women Bags","name_cn":"/women's bag","specs":{"source":"wsxcme","sourceId":"_dkQkQ5tqxb3zaJSLO13Yl6hCilT8ClsYxvJXxJg","sourceTagId":47002756,"sourceTagName":"/women's bag","rawTitle":""},"price":null,"currency":"CNY","moq":1,"category":"bvlgari-women-bags","status":"active","alibaba_url":null,"images":["https://xcimg.szwego.com/20230219/i1676789178_4414_0.jpg"],"created_at":"2024-10-07T10:58:53.566Z"},{"id":"item-429fb2d203f0","sku":"_dKcKck2psVCDGiD7YwWAiAU5ThOzGG9yMJVmLBw","name_en":"Bvlgari Women Bags","name_cn":"/women's bag","specs":{"source":"wsxcme","sourceId":"_dKcKck2psVCDGiD7YwWAiAU5ThOzGG9yMJVmLBw","sourceTagId":47002756,"sourceTagName":"/women's bag","rawTitle":""},"price":null,"currency":"CNY","moq":1,"category":"bvlgari-women-bags","status":"active","alibaba_url":null,"images":["https://xcimg.szwego.com/20230219/i1676789361_3768_0.jpg"],"created_at":"2024-10-07T10:58:53.570Z"},{"id":"item-1b79cee857c2","sku":"_dxkxkb3TMmT5PTuHxQLDf09tPdx0EzvZHfZt4-w","name_en":"Bvlgari Women Bags","name_cn":"/women's bag","specs":{"source":"wsxcme","sourceId":"_dxkxkb3TMmT5PTuHxQLDf09tPdx0EzvZHfZt4-w","sourceTagId":47002756,"sourceTagName":"/women's bag","rawTitle":""},"price":null,"currency":"CNY","moq":1,"category":"bvlgari-women-bags","status":"active","alibaba_url":null,"images":["https://xcimg.szwego.com/20220614/i1655186362_8065_0.jpg"],"created_at":"2024-09-27T06:51:04.121Z"},{"id":"item-0aa7e8043a71","sku":"_dvdvdcaX_iZnc9lQOJqA2X4qgRKRW6ex_Gbwp7Q","name_en":"Bvlgari Women Bags","name_cn":"/women's bag","specs":{"source":"wsxcme","sourceId":"_dvdvdcaX_iZnc9lQOJqA2X4qgRKRW6ex_Gbwp7Q","sourceTagId":47002756,"sourceTagName":"/women's bag","rawTitle":""},"price":null,"currency":"CNY","moq":1,"category":"bvlgari-women-bags","status":"active","alibaba_url":null,"images":["https://xcimg.szwego.com/20220602/i1654155701_3369_0.jpg"],"created_at":"2024-09-27T06:51:04.117Z"},{"id":"item-0006bb901807","sku":"_di0i0A2YRUwnLCQ79hm8NxT3J7jmW6khJps1zUQ","name_en":"Bvlgari Women Bags","name_cn":"/women's bag","specs":{"source":"wsxcme","sourceId":"_di0i0A2YRUwnLCQ79hm8NxT3J7jmW6khJps1zUQ","sourceTagId":47002756,"sourceTagName":"/women's bag","rawTitle":""},"price":null,"currency":"CNY","moq":1,"category":"bvlgari-women-bags","status":"active","alibaba_url":null,"images":["https://xcimg.szwego.com/20220602/i1654154605_9573_0.jpg"],"created_at":"2024-09-27T06:51:04.111Z"},{"id":"item-c39621d6fb2f","sku":"_dtBtB3ugQ-jOUoHCTjU5s0UAnX7cLHQDYeZ8jgg","name_en":"Bvlgari❤ New Handbag Shoulder Bag, 5 colors in stock~","name_cn":"Bvlgari❤ New Handbag Shoulder Bag, 5 colors in stock~","specs":{"source":"wsxcme","sourceId":"_dtBtB3ugQ-jOUoHCTjU5s0UAnX7cLHQDYeZ8jgg","sourceTagId":47002756,"sourceTagName":"/women's bag","rawTitle":"Bvlgari❤ New Handbag Shoulder Bag, 5 colors in stock~"},"price":null,"currency":"CNY","moq":1,"category":"bvlgari-women-bags","status":"active","alibaba_url":null,"images":["https://xcimg.szwego.com/20220602/i1654155853_9034_0.jpg","https://xcimg.szwego.com/20220614/i1655186704_6477_0.jpg","https://xcimg.szwego.com/20220602/i1654155853_4539_1.jpg","https://xcimg.szwego.com/20220602/i1654155853_9177_2.jpg","https://xcimg.szwego.com/20230807/i1691392697_8171_0.jpg"],"created_at":"2024-09-27T06:51:04.125Z"},{"id":"item-68145b026071","sku":"_dsRsR7IrSp6EqbyJmuRnuxMGIG-FdIKLRYXXidg","name_en":"Cecilia Cheung's new summer style~","name_cn":"Cecilia Cheung's new summer style~","specs":{"source":"wsxcme","sourceId":"_dsRsR7IrSp6EqbyJmuRnuxMGIG-FdIKLRYXXidg","sourceTagId":47002756,"sourceTagName":"/women's bag","rawTitle":"Cecilia Cheung's new summer style~"},"price":null,"currency":"CNY","moq":1,"category":"bvlgari-women-bags","status":"active","alibaba_url":null,"images":["https://xcimg.szwego.com/20230329/i1680069450_9618_0.jpg","https://xcimg.szwego.com/20230329/i1680069450_3396_1.jpg","https://xcimg.szwego.com/20230329/i1680069450_7268_2.jpg"],"created_at":"2024-10-07T10:58:53.562Z"},{"id":"item-c93f60bd564b","sku":"_dvkvkFhUiPAqFcZcMtpx_N7kiGY61ICBP3-2X-w","name_en":"Collection ❤️","name_cn":"Collection ❤️","specs":{"source":"wsxcme","sourceId":"_dvkvkFhUiPAqFcZcMtpx_N7kiGY61ICBP3-2X-w","sourceTagId":47002756,"sourceTagName":"/women's bag","rawTitle":"Collection ❤️"},"price":null,"currency":"CNY","moq":1,"category":"bvlgari-women-bags","status":"active","alibaba_url":null,"images":["https://xcimg.szwego.com/20230418/i1681812978_7263_0.jpg","https://xcimg.szwego.com/20230418/i1681812978_835_1.jpg","https://xcimg.szwego.com/20230803/i1691051548_9162_0.jpg","https://xcimg.szwego.com/20230803/i1691051562_3934_0.jpg"],"created_at":"2024-09-27T06:51:04.137Z"},{"id":"item-df88b1c72df8","sku":"_dcecenYr_yCHSOFB5JtUB5j8FaNN0j3NGiwVQyQ","name_en":"Counterfeit grade","name_cn":"Counterfeit grade\nBVLGARI SERPENTI FOREVER\nModel: 38102 Orange with Burgundy\nSize: 22*13*5.5cm\nBest-selling Serpenti Forever series exquisite crossbody bag, original single quality, imported calfskin, custom original single hardware 🔅 decorated with serpenti enamel light gold-plated snake head buckle, also suitable for evening wear, exquisite like jewelry 💎\"Raincoat, mirror, gift box packaging,","specs":{"source":"wsxcme","sourceId":"_dcecenYr_yCHSOFB5JtUB5j8FaNN0j3NGiwVQyQ","sourceTagId":47002756,"sourceTagName":"/women's bag","modelNumber":"38102","dimensions":{"lengthCm":22,"heightCm":13,"widthCm":5.5},"rawTitle":"Counterfeit grade\nBVLGARI SERPENTI FOREVER\nModel: 38102 Orange with Burgundy\nSize: 22*13*5.5cm\nBest-selling Serpenti Forever series exquisite crossbody bag, original single quality, imported calfskin, custom original single hardware 🔅 decorated with serpenti enamel light gold-plated snake head buckle, also suitable for evening wear, exquisite like jewelry 💎\"Raincoat, mirror, gift box packaging,"},"price":null,"currency":"CNY","moq":1,"category":"bvlgari-women-bags","status":"active","alibaba_url":null,"images":["https://xcimg.szwego.com/20230219/i1676789064_1831_0.jpg","https://xcimg.szwego.com/20230219/i1676789064_3383_1.jpg","https://xcimg.szwego.com/20230219/i1676789064_9541_2.jpg","https://xcimg.szwego.com/20230219/i1676789064_8381_3.jpg","https://xcimg.szwego.com/20230219/i1676789064_1605_4.jpg","https://xcimg.szwego.com/20230219/i1676789064_321_5.jpg","https://xcimg.szwego.com/20230219/i1676789064_5109_6.jpg","https://xcimg.szwego.com/20230219/i1676789064_5741_7.jpg","https://xcimg.szwego.com/20230219/i1676789064_3550_8.jpg"],"created_at":"2024-10-07T10:58:53.563Z"},{"id":"item-fbe650e00e6a","sku":"_d8k8k2gFaRPBSWYRhl-aXYQ60mLb1saaC_ffs0A","name_en":"Detail photo","name_cn":"Detail photo","specs":{"source":"wsxcme","sourceId":"_d8k8k2gFaRPBSWYRhl-aXYQ60mLb1saaC_ffs0A","sourceTagId":47002756,"sourceTagName":"/women's bag","rawTitle":"Detail photo"},"price":null,"currency":"CNY","moq":1,"category":"bvlgari-women-bags","status":"active","alibaba_url":null,"images":["https://xcimg.szwego.com/20230219/i1676790487_5821_0.jpg","https://xcimg.szwego.com/20230219/i1676790487_3638_1.jpg","https://xcimg.szwego.com/20230219/i1676790487_4986_2.jpg","https://xcimg.szwego.com/20230219/i1676790487_1774_3.jpg","https://xcimg.szwego.com/20230219/i1676790487_2676_4.jpg","https://xcimg.szwego.com/20230219/i1676790487_2604_5.jpg"],"created_at":"2024-10-07T10:58:53.577Z"},{"id":"item-831763344b81","sku":"_dDMDMYFUOkWg0UNH8BnUVm_haNmLuOhnS95cJZg","name_en":"Detail photo","name_cn":"Detail photo","specs":{"source":"wsxcme","sourceId":"_dDMDMYFUOkWg0UNH8BnUVm_haNmLuOhnS95cJZg","sourceTagId":47002756,"sourceTagName":"/women's bag","rawTitle":"Detail photo"},"price":null,"currency":"CNY","moq":1,"category":"bvlgari-women-bags","status":"active","alibaba_url":null,"images":["https://xcimg.szwego.com/20230219/i1676789509_7262_0.jpg","https://xcimg.szwego.com/20230219/i1676789509_6640_1.jpg","https://xcimg.szwego.com/20230219/i1676789509_370_2.jpg","https://xcimg.szwego.com/20230219/i1676789509_4201_3.jpg","https://xcimg.szwego.com/20230219/i1676789509_9460_4.jpg"],"created_at":"2024-10-07T10:58:53.572Z"},{"id":"item-62ded42bb503","sku":"_dhThTWvWbF_aGB-gySxoiAgA3eZsvhRNlVmaqVA","name_en":"Detail photo","name_cn":"Detail photo","specs":{"source":"wsxcme","sourceId":"_dhThTWvWbF_aGB-gySxoiAgA3eZsvhRNlVmaqVA","sourceTagId":47002756,"sourceTagName":"/women's bag","rawTitle":"Detail photo"},"price":null,"currency":"CNY","moq":1,"category":"bvlgari-women-bags","status":"active","alibaba_url":null,"images":["https://xcimg.szwego.com/20230219/i1676789274_6332_0.jpg","https://xcimg.szwego.com/20230219/i1676789274_4185_1.jpg","https://xcimg.szwego.com/20230219/i1676789274_7979_2.jpg","https://xcimg.szwego.com/20230219/i1676789274_8748_3.jpg","https://xcimg.szwego.com/20230219/i1676789274_4996_4.jpg","https://xcimg.szwego.com/20230219/i1676789274_2818_5.jpg"],"created_at":"2024-10-07T10:58:53.568Z"},{"id":"item-57d26ae67749","sku":"_dUXUXJqNendsJ3SHWEOd4NkUt6ryXxgzjfAil5w","name_en":"Detail photo","name_cn":"Detail photo","specs":{"source":"wsxcme","sourceId":"_dUXUXJqNendsJ3SHWEOd4NkUt6ryXxgzjfAil5w","sourceTagId":47002756,"sourceTagName":"/women's bag","rawTitle":"Detail photo"},"price":null,"currency":"CNY","moq":1,"category":"bvlgari-women-bags","status":"active","alibaba_url":null,"images":["https://xcimg.szwego.com/20230219/i1676790980_3385_0.jpg","https://xcimg.szwego.com/20230219/i1676790980_7728_1.jpg","https://xcimg.szwego.com/20230219/i1676790980_4302_2.jpg","https://xcimg.szwego.com/20230219/i1676790980_9415_3.jpg","https://xcimg.szwego.com/20230219/i1676790980_236_4.jpg","https://xcimg.szwego.com/20230219/i1676790980_5613_5.jpg"],"created_at":"2024-10-07T10:58:53.581Z"},{"id":"item-a1bb05ee160c","sku":"_dd9d9P9aS1Sp94Dt0kf-b78dm_lJ1tZpDjULvIQ","name_en":"Details","name_cn":"Details","specs":{"source":"wsxcme","sourceId":"_dd9d9P9aS1Sp94Dt0kf-b78dm_lJ1tZpDjULvIQ","sourceTagId":47002756,"sourceTagName":"/women's bag","rawTitle":"Details"},"price":null,"currency":"CNY","moq":1,"category":"bvlgari-women-bags","status":"active","alibaba_url":null,"images":["https://xcimg.szwego.com/20240809/i1723192990_5043_0.jpg","https://xcimg.szwego.com/20240809/i1723192990_336_1.jpg","https://xcimg.szwego.com/20240809/i1723192990_7154_2.jpg","https://xcimg.szwego.com/20240809/i1723192990_4435_3.jpg"],"created_at":"2024-09-27T06:51:04.174Z"},{"id":"item-8d7e52e402d6","sku":"_d8e8e_r4q0CeSsqCvbzhECaxUpEZ08Cpa_Bb0uw","name_en":"Details~","name_cn":"Details~","specs":{"source":"wsxcme","sourceId":"_d8e8e_r4q0CeSsqCvbzhECaxUpEZ08Cpa_Bb0uw","sourceTagId":47002756,"sourceTagName":"/women's bag","rawTitle":"Details~"},"price":null,"currency":"CNY","moq":1,"category":"bvlgari-women-bags","status":"active","alibaba_url":null,"images":["https://xcimg.szwego.com/20240809/i1723191500_4631_0.jpg","https://xcimg.szwego.com/20240809/i1723191500_765_1.jpg","https://xcimg.szwego.com/20240809/i1723191500_2817_2.jpg","https://xcimg.szwego.com/20240809/i1723191500_5574_3.jpg","https://xcimg.szwego.com/20240809/i1723191500_2934_4.jpg"],"created_at":"2024-09-27T06:51:04.156Z"},{"id":"item-d050c5e3a706","sku":"_duuuuQpj38L6z9v4rsRl2xs9DhWfXoh_igG1Mbw","name_en":"Effortlessly versatile for various styles","name_cn":"Effortlessly versatile for various styles","specs":{"source":"wsxcme","sourceId":"_duuuuQpj38L6z9v4rsRl2xs9DhWfXoh_igG1Mbw","sourceTagId":47002756,"sourceTagName":"/women's bag","rawTitle":"Effortlessly versatile for various styles"},"price":null,"currency":"CNY","moq":1,"category":"bvlgari-women-bags","status":"active","alibaba_url":null,"images":["https://xcimg.szwego.com/20221220/i1671550783_6493_0.jpg"],"created_at":"2024-09-27T06:51:04.120Z"},{"id":"item-72460bc34fa2","sku":"_dlxlxDFvFOIjRh4_xWacY4KPqg8r7Rg8U1Gl1Zg","name_en":"Eight colors in stock","name_cn":"Eight colors in stock","specs":{"source":"wsxcme","sourceId":"_dlxlxDFvFOIjRh4_xWacY4KPqg8r7Rg8U1Gl1Zg","sourceTagId":47002756,"sourceTagName":"/women's bag","rawTitle":"Eight colors in stock"},"price":null,"currency":"CNY","moq":1,"category":"bvlgari-women-bags","status":"active","alibaba_url":null,"images":["https://xcimg.szwego.com/20240809/i1723193139_9863_0.jpg","https://xcimg.szwego.com/20240809/i1723193139_2983_1.jpg","https://xcimg.szwego.com/20240809/i1723193139_3628_2.jpg"],"created_at":"2024-09-27T06:51:04.176Z"},{"id":"item-b1f24f5ebcf7","sku":"_dsvsvGvNWUDyxfL9IHNdcfE_A5bNAVaMWLnJ8mA","name_en":"Elegant and lively, showcasing the dazzling charm of exquisite beauty","name_cn":"Elegant and lively, showcasing the dazzling charm of exquisite beauty","specs":{"source":"wsxcme","sourceId":"_dsvsvGvNWUDyxfL9IHNdcfE_A5bNAVaMWLnJ8mA","sourceTagId":47002756,"sourceTagName":"/women's bag","rawTitle":"Elegant and lively, showcasing the dazzling charm of exquisite beauty"},"price":null,"currency":"CNY","moq":1,"category":"bvlgari-women-bags","status":"active","alibaba_url":null,"images":["https://xcimg.szwego.com/20230329/i1680069525_9481_0.jpg","https://xcimg.szwego.com/20230329/i1680069525_7031_1.jpg","https://xcimg.szwego.com/20230329/i1680069525_3652_2.jpg"],"created_at":"2024-09-27T06:51:04.149Z"},{"id":"item-cafb6ed03dcc","sku":"_ddjdja4Pk27e-wZzPv1wC2WNtVIiAZOGJCNOQ8Q","name_en":"Elegant color scheme, mysterious snake head 🐍","name_cn":"Elegant color scheme, mysterious snake head 🐍\nVery chic and feminine 👧🏻","specs":{"source":"wsxcme","sourceId":"_ddjdja4Pk27e-wZzPv1wC2WNtVIiAZOGJCNOQ8Q","sourceTagId":47002756,"sourceTagName":"/women's bag","rawTitle":"Elegant color scheme, mysterious snake head 🐍\nVery chic and feminine 👧🏻"},"price":null,"currency":"CNY","moq":1,"category":"bvlgari-women-bags","status":"active","alibaba_url":null,"images":["https://xcimg.szwego.com/20230219/i1676792190_5183_0.jpg","https://xcimg.szwego.com/20230219/i1676792190_1620_1.jpg","https://xcimg.szwego.com/20230219/i1676792190_8281_2.jpg","https://xcimg.szwego.com/20230219/i1676792190_3210_3.jpg"],"created_at":"2024-10-07T10:58:53.587Z"},{"id":"item-d7fdcb5cdeca","sku":"_dkukuqYx19iVFV3wuOG1XkXDF0JV-QZVDWmskaQ","name_en":"Elegant yet casual, beautiful and free-spirited, perfectly combined","name_cn":"Elegant yet casual, beautiful and free-spirited, perfectly combined","specs":{"source":"wsxcme","sourceId":"_dkukuqYx19iVFV3wuOG1XkXDF0JV-QZVDWmskaQ","sourceTagId":47002756,"sourceTagName":"/women's bag","rawTitle":"Elegant yet casual, beautiful and free-spirited, perfectly combined"},"price":null,"currency":"CNY","moq":1,"category":"bvlgari-women-bags","status":"active","alibaba_url":null,"images":["https://xcimg.szwego.com/20221220/i1671550118_1365_0.jpg","https://xcimg.szwego.com/20221220/i1671550118_7283_1.jpg","https://xcimg.szwego.com/20221220/i1671550118_4008_2.jpg","https://xcimg.szwego.com/20221220/i1671550118_9724_3.jpg"],"created_at":"2024-10-07T10:58:53.559Z"},{"id":"item-356781d10994","sku":"_drIrIf-tqTpBvAgiPxwkgM3y0s0W9LXUW0wzBdw","name_en":"Emerald#Lifestyle Image","name_cn":"Emerald#Lifestyle Image\nModel: 292104","specs":{"source":"wsxcme","sourceId":"_drIrIf-tqTpBvAgiPxwkgM3y0s0W9LXUW0wzBdw","sourceTagId":47002756,"sourceTagName":"/women's bag","modelNumber":"292104","rawTitle":"Emerald#Lifestyle Image\nModel: 292104"},"price":null,"currency":"CNY","moq":1,"category":"bvlgari-women-bags","status":"active","alibaba_url":null,"images":["https://xcimg.szwego.com/20220602/i1654154838_3173_0.jpg","https://xcimg.szwego.com/20220602/i1654154838_4860_1.jpg","https://xcimg.szwego.com/20220602/i1654154838_7088_2.jpg","https://xcimg.szwego.com/20220602/i1654154838_6631_3.jpg","https://xcimg.szwego.com/20220602/i1654154838_6338_4.jpg","https://xcimg.szwego.com/20220602/i1654154838_8152_5.jpg"],"created_at":"2024-09-27T06:51:04.110Z"},{"id":"item-c9fabb296575","sku":"_drTrTSrB3WIraCmd_FSWy3YHC6R05FCFlct_QFA","name_en":"Every enchanting beauty cannot resist this style.","name_cn":"Every enchanting beauty cannot resist this style.\n25cm double-layer, in stock, ships immediately","specs":{"source":"wsxcme","sourceId":"_drTrTSrB3WIraCmd_FSWy3YHC6R05FCFlct_QFA","sourceTagId":47002756,"sourceTagName":"/women's bag","rawTitle":"Every enchanting beauty cannot resist this style.\n25cm double-layer, in stock, ships immediately"},"price":null,"currency":"CNY","moq":1,"category":"bvlgari-women-bags","status":"active","alibaba_url":null,"images":["https://xcimg.szwego.com/20230418/i1681812381_8552_0.jpg","https://xcimg.szwego.com/20230418/i1681812381_3867_1.jpg","https://xcimg.szwego.com/20230418/i1681812381_6422_2.jpg"],"created_at":"2024-09-27T06:51:04.103Z"}],"page":2,"pageSize":24,"total":97,"totalPages":5}
