{"items":[{"id":"item-4962338d10a5","sku":"_dauauf08ZCnM9uWpOVV6OCdJ0egySdN_j7pVdjQ","name_en":"Genuine factory-made, ZP-grade, authentic quality. We ensure all materials, hardware, stitching, and edges use 100% authentic raw materials.","name_cn":"Genuine factory-made, ZP-grade, authentic quality. We ensure all materials, hardware, stitching, and edges use 100% authentic raw materials.\nHermes Birkin 30cm Milky White Gold Hardware\nExclusive Birkin channel goods, exclusive European factory leather and hardware assembled ZP surplus stock\nSize: 22 X 30 X 16CM\nWe use imported factory Togo genuine leather. What is Togo leather?\nTogo leather: The most classic Birkin leather. The surface has an even grain, similar to grainy leather, with a luster. The leather is relatively stiff, easy to maintain the bag's shape, relatively light, feels soft to the touch, and is wear-resistant and durable;\nWe use pure original, factory leather that is the same as the authentic counter version!","specs":{"source":"wsxcme","sourceId":"_dauauf08ZCnM9uWpOVV6OCdJ0egySdN_j7pVdjQ","sourceTagId":76963559,"sourceTagName":"Hermes/women's bag","dimensions":{"lengthCm":22,"heightCm":30,"widthCm":16},"rawTitle":"Genuine factory-made, ZP-grade, authentic quality. We ensure all materials, hardware, stitching, and edges use 100% authentic raw materials.\nHermes Birkin 30cm Milky White Gold Hardware\nExclusive Birkin channel goods, exclusive European factory leather and hardware assembled ZP surplus stock\nSize: 22 X 30 X 16CM\nWe use imported factory Togo genuine leather. What is Togo leather?\nTogo leather: The most classic Birkin leather. The surface has an even grain, similar to grainy leather, with a luster. The leather is relatively stiff, easy to maintain the bag's shape, relatively light, feels soft to the touch, and is wear-resistant and durable;\nWe use pure original, factory leather that is the same as the authentic counter version!"},"price":null,"currency":"CNY","moq":1,"category":"hermes-women-bags","status":"active","alibaba_url":null,"images":["https://xcimg.szwego.com/20230622/i1687375470_9960_0.jpg","https://xcimg.szwego.com/20230622/i1687375470_1715_1.jpg","https://xcimg.szwego.com/20230622/i1687375470_6458_2.jpg","https://xcimg.szwego.com/20230622/i1687375470_2255_3.jpg","https://xcimg.szwego.com/20230622/i1687375470_225_4.jpg","https://xcimg.szwego.com/20230622/i1687375470_1556_5.jpg","https://xcimg.szwego.com/20230622/i1687375470_281_6.jpg","https://xcimg.szwego.com/20230622/i1687375470_9194_7.jpg","https://xcimg.szwego.com/20230622/i1687375470_6742_8.jpg"],"created_at":"2024-10-21T06:42:26.546Z"},{"id":"item-f41dcedfb38b","sku":"_dwcwcUGvhnphd4nZElpg10G-aLWM3S86oxWKLug","name_en":"Genuine factory-made, authentic quality. We ensure all materials, hardware, stitching, and edges use 100% authentic raw materials.","name_cn":"Genuine factory-made, authentic quality. We ensure all materials, hardware, stitching, and edges use 100% authentic raw materials.\nHermes Birkin 25cm Black Gold Hardware\nExclusive Birkin channel goods, exclusive European factory leather and hardware assembled ZP surplus stock\nSize: 20 X 25 X 13CM\nWe use imported factory Togo genuine leather. What is Togo leather?\nTogo leather: The most classic Birkin leather. The surface has an even grain, similar to grainy leather, with a luster. The leather is relatively stiff, easy to maintain the bag's shape, relatively light, feels soft to the touch, and is wear-resistant and durable;\nWe use pure original, factory leather that is the same as the authentic counter version!","specs":{"source":"wsxcme","sourceId":"_dwcwcUGvhnphd4nZElpg10G-aLWM3S86oxWKLug","sourceTagId":76963559,"sourceTagName":"Hermes/women's bag","dimensions":{"lengthCm":20,"heightCm":25,"widthCm":13},"rawTitle":"Genuine factory-made, authentic quality. We ensure all materials, hardware, stitching, and edges use 100% authentic raw materials.\nHermes Birkin 25cm Black Gold Hardware\nExclusive Birkin channel goods, exclusive European factory leather and hardware assembled ZP surplus stock\nSize: 20 X 25 X 13CM\nWe use imported factory Togo genuine leather. What is Togo leather?\nTogo leather: The most classic Birkin leather. The surface has an even grain, similar to grainy leather, with a luster. The leather is relatively stiff, easy to maintain the bag's shape, relatively light, feels soft to the touch, and is wear-resistant and durable;\nWe use pure original, factory leather that is the same as the authentic counter version!"},"price":null,"currency":"CNY","moq":1,"category":"hermes-women-bags","status":"active","alibaba_url":null,"images":["https://xcimg.szwego.com/20230515/i1684134859_8700_0.jpg","https://xcimg.szwego.com/20230515/i1684134859_5412_1.jpg","https://xcimg.szwego.com/20230515/i1684134859_7887_2.jpg","https://xcimg.szwego.com/20230515/i1684134859_3202_3.jpg","https://xcimg.szwego.com/20230515/i1684134859_106_4.jpg","https://xcimg.szwego.com/20230515/i1684134859_5022_5.jpg","https://xcimg.szwego.com/20230515/i1684134859_451_6.jpg","https://xcimg.szwego.com/20230515/i1684134859_6247_7.jpg","https://xcimg.szwego.com/20230515/i1684134859_3356_8.jpg"],"created_at":"2024-10-21T06:42:26.545Z"},{"id":"item-d2b12d3502ff","sku":"_dr4r4mKuPQosj6lp5oa_YvyMRWgYuA7AGDDyq4A","name_en":"Genuine factory-made, ZP-grade, authentic quality. We ensure all materials, hardware, stitching, and edges use 100% authentic raw materials.","name_cn":"Genuine factory-made, ZP-grade, authentic quality. We ensure all materials, hardware, stitching, and edges use 100% authentic raw materials.\nHermes Birkin 25cm Gold Brown Gold Hardware\nExclusive Birkin channel goods, exclusive European factory leather and hardware assembled ZP surplus stock\nSize: 20 X 25 X 13CM\nWe use imported factory Togo genuine leather. What is Togo leather?\nTogo leather: The most classic Birkin leather. The surface has an even grain, similar to grainy leather, with a luster. The leather is relatively stiff, easy to maintain the bag's shape, relatively light, feels soft to the touch, and is wear-resistant and durable;\nWe use pure original, factory leather that is the same as the authentic counter version!","specs":{"source":"wsxcme","sourceId":"_dr4r4mKuPQosj6lp5oa_YvyMRWgYuA7AGDDyq4A","sourceTagId":76963559,"sourceTagName":"Hermes/women's bag","dimensions":{"lengthCm":20,"heightCm":25,"widthCm":13},"rawTitle":"Genuine factory-made, ZP-grade, authentic quality. We ensure all materials, hardware, stitching, and edges use 100% authentic raw materials.\nHermes Birkin 25cm Gold Brown Gold Hardware\nExclusive Birkin channel goods, exclusive European factory leather and hardware assembled ZP surplus stock\nSize: 20 X 25 X 13CM\nWe use imported factory Togo genuine leather. What is Togo leather?\nTogo leather: The most classic Birkin leather. The surface has an even grain, similar to grainy leather, with a luster. The leather is relatively stiff, easy to maintain the bag's shape, relatively light, feels soft to the touch, and is wear-resistant and durable;\nWe use pure original, factory leather that is the same as the authentic counter version!"},"price":null,"currency":"CNY","moq":1,"category":"hermes-women-bags","status":"active","alibaba_url":null,"images":["https://xcimg.szwego.com/20230517/i1684257638_539_0.jpg","https://xcimg.szwego.com/20230517/i1684257638_6481_1.jpg","https://xcimg.szwego.com/20230517/i1684257638_5582_2.jpg","https://xcimg.szwego.com/20230517/i1684257638_8420_3.jpg","https://xcimg.szwego.com/20230517/i1684257638_7251_4.jpg","https://xcimg.szwego.com/20230517/i1684257638_9890_5.jpg","https://xcimg.szwego.com/20230517/i1684257638_182_6.jpg","https://xcimg.szwego.com/20230517/i1684257638_82_7.jpg","https://xcimg.szwego.com/20230517/i1684257638_4500_8.jpg"],"created_at":"2024-10-21T06:42:26.544Z"},{"id":"item-1262e524c1ca","sku":"_dj0j0fSAMqwMH-mSoSVtmkuLJ1F4V7-iyi-qGUw","name_en":"Genuine factory-made, authentic quality. We ensure all materials, hardware, stitching, and edges use 100% authentic raw materials.","name_cn":"Genuine factory-made, authentic quality. We ensure all materials, hardware, stitching, and edges use 100% authentic raw materials.\nHermes Birkin 25cm Black Silver Hardware\nExclusive Birkin channel goods, exclusive European factory leather and hardware assembled ZP surplus stock\nSize: 20 X 25 X 13CM\nWe use imported factory Togo genuine leather. What is Togo leather?\nTogo leather: The most classic Birkin leather. The surface has an even grain, similar to grainy leather, with a luster. The leather is relatively stiff, easy to maintain the bag's shape, relatively light, feels soft to the touch, and is wear-resistant and durable;\nWe use pure original, factory leather that is the same as the authentic counter version!","specs":{"source":"wsxcme","sourceId":"_dj0j0fSAMqwMH-mSoSVtmkuLJ1F4V7-iyi-qGUw","sourceTagId":76963559,"sourceTagName":"Hermes/women's bag","dimensions":{"lengthCm":20,"heightCm":25,"widthCm":13},"rawTitle":"Genuine factory-made, authentic quality. We ensure all materials, hardware, stitching, and edges use 100% authentic raw materials.\nHermes Birkin 25cm Black Silver Hardware\nExclusive Birkin channel goods, exclusive European factory leather and hardware assembled ZP surplus stock\nSize: 20 X 25 X 13CM\nWe use imported factory Togo genuine leather. What is Togo leather?\nTogo leather: The most classic Birkin leather. The surface has an even grain, similar to grainy leather, with a luster. The leather is relatively stiff, easy to maintain the bag's shape, relatively light, feels soft to the touch, and is wear-resistant and durable;\nWe use pure original, factory leather that is the same as the authentic counter version!"},"price":null,"currency":"CNY","moq":1,"category":"hermes-women-bags","status":"active","alibaba_url":null,"images":["https://xcimg.szwego.com/20230515/i1684133308_9696_0.jpg","https://xcimg.szwego.com/20230515/i1684133308_9624_1.jpg","https://xcimg.szwego.com/20230515/i1684133308_4448_2.jpg","https://xcimg.szwego.com/20230515/i1684133308_8087_3.jpg","https://xcimg.szwego.com/20230515/i1684133308_178_4.jpg","https://xcimg.szwego.com/20230515/i1684133308_2857_5.jpg","https://xcimg.szwego.com/20230515/i1684133308_2702_6.jpg","https://xcimg.szwego.com/20230515/i1684133308_4301_7.jpg","https://xcimg.szwego.com/20230515/i1684133308_2715_8.jpg"],"created_at":"2024-10-21T06:42:26.543Z"},{"id":"item-ab574f58981a","sku":"_dcJcJ06Sz9e5TRhCQz_sdPG8kL7QmExQdels_fQ","name_en":"Genuine factory-made, ZP-grade authentic quality. We ensure all materials, hardware, stitching, and edges use 100% authentic raw materials.","name_cn":"Genuine factory-made, ZP-grade authentic quality. We ensure all materials, hardware, stitching, and edges use 100% authentic raw materials.\nHERMES Evelyne 16 Grey Silver Clasp\nTaurillon Maurice Calfskin Shoulder Crossbody Mini Unisex Couple Style\nExclusive channel goods, exclusive ZP factory material assembled goods, the ceiling of H.\nSize: 16*18*5cm\nHermès Evelyne\nThe design inspiration for the Evelyne bag comes from a type of saddlebag called a 'saddle bag,' which is commonly used by riders and coachmen to store and transport harnesses and other necessities.\nHermès combines the classic elements of this saddlebag with the brand's craftsmanship tradition to create a bag that is both stylish and functional.\nTherefore, the Evelyne bag is not only a practical handbag but also represents the brand's deep history and cultural traditions.\nIt conveys Hermès' love and respect for equestrian sports, as well as its pursuit of high quality, refinement, and elegance.","specs":{"source":"wsxcme","sourceId":"_dcJcJ06Sz9e5TRhCQz_sdPG8kL7QmExQdels_fQ","sourceTagId":76963559,"sourceTagName":"Hermes/women's bag","dimensions":{"lengthCm":16,"heightCm":18,"widthCm":5},"rawTitle":"Genuine factory-made, ZP-grade authentic quality. We ensure all materials, hardware, stitching, and edges use 100% authentic raw materials.\nHERMES Evelyne 16 Grey Silver Clasp\nTaurillon Maurice Calfskin Shoulder Crossbody Mini Unisex Couple Style\nExclusive channel goods, exclusive ZP factory material assembled goods, the ceiling of H.\nSize: 16*18*5cm\nHermès Evelyne\nThe design inspiration for the Evelyne bag comes from a type of saddlebag called a 'saddle bag,' which is commonly used by riders and coachmen to store and transport harnesses and other necessities.\nHermès combines the classic elements of this saddlebag with the brand's craftsmanship tradition to create a bag that is both stylish and functional.\nTherefore, the Evelyne bag is not only a practical handbag but also represents the brand's deep history and cultural traditions.\nIt conveys Hermès' love and respect for equestrian sports, as well as its pursuit of high quality, refinement, and elegance."},"price":null,"currency":"CNY","moq":1,"category":"hermes-women-bags","status":"active","alibaba_url":null,"images":["https://xcimg.szwego.com/img/61d37ee3/20231129/i1701189864_9983_5.jpg","https://xcimg.szwego.com/img/61d37ee3/20231129/i1701189864_724_0.jpg","https://xcimg.szwego.com/img/61d37ee3/20231129/i1701189864_5888_1.jpg","https://xcimg.szwego.com/img/61d37ee3/20231129/i1701189864_247_2.jpg","https://xcimg.szwego.com/img/61d37ee3/20231129/i1701189864_4753_6.jpg","https://xcimg.szwego.com/img/61d37ee3/20231129/i1701189864_9585_3.jpg","https://xcimg.szwego.com/img/61d37ee3/20231129/i1701189864_789_7.jpg","https://xcimg.szwego.com/img/61d37ee3/20231129/i1701189864_5182_8.jpg","https://xcimg.szwego.com/img/61d37ee3/20231129/i1701189864_3201_4.jpg"],"created_at":"2024-10-21T06:42:26.542Z"},{"id":"item-2ad89be8f6c6","sku":"_dn9n9_X3jKnsnVXkiUL2_14JNd6pc848dvME4Xg","name_en":"Genuine factory-made, ZP-grade authentic quality. We ensure all materials, hardware, stitching, and edges use 100% authentic raw materials.","name_cn":"Genuine factory-made, ZP-grade authentic quality. We ensure all materials, hardware, stitching, and edges use 100% authentic raw materials.\nHERMES Evelyne 16 Black Silver Clasp\nTaurillon Maurice Calfskin Shoulder Crossbody Mini Unisex Couple Style\nExclusive channel goods, exclusive ZP factory material assembled goods, the ceiling of H.\nSize: 16*18*5cm\nHermès Evelyne\nThe design inspiration for the Evelyne bag comes from a type of saddlebag called a 'saddle bag,' which is commonly used by riders and coachmen to store and transport harnesses and other necessities.\nHermès combines the classic elements of this saddlebag with the brand's craftsmanship tradition to create a bag that is both stylish and functional.\nTherefore, the Evelyne bag is not only a practical handbag but also represents the brand's deep history and cultural traditions.\nIt conveys Hermès' love and respect for equestrian sports, as well as its pursuit of high quality, refinement, and elegance.","specs":{"source":"wsxcme","sourceId":"_dn9n9_X3jKnsnVXkiUL2_14JNd6pc848dvME4Xg","sourceTagId":76963559,"sourceTagName":"Hermes/women's bag","dimensions":{"lengthCm":16,"heightCm":18,"widthCm":5},"rawTitle":"Genuine factory-made, ZP-grade authentic quality. We ensure all materials, hardware, stitching, and edges use 100% authentic raw materials.\nHERMES Evelyne 16 Black Silver Clasp\nTaurillon Maurice Calfskin Shoulder Crossbody Mini Unisex Couple Style\nExclusive channel goods, exclusive ZP factory material assembled goods, the ceiling of H.\nSize: 16*18*5cm\nHermès Evelyne\nThe design inspiration for the Evelyne bag comes from a type of saddlebag called a 'saddle bag,' which is commonly used by riders and coachmen to store and transport harnesses and other necessities.\nHermès combines the classic elements of this saddlebag with the brand's craftsmanship tradition to create a bag that is both stylish and functional.\nTherefore, the Evelyne bag is not only a practical handbag but also represents the brand's deep history and cultural traditions.\nIt conveys Hermès' love and respect for equestrian sports, as well as its pursuit of high quality, refinement, and elegance."},"price":null,"currency":"CNY","moq":1,"category":"hermes-women-bags","status":"active","alibaba_url":null,"images":["https://xcimg.szwego.com/img/61d37ee3/20231129/i1701189478_6409_6.jpg","https://xcimg.szwego.com/img/61d37ee3/20231129/i1701189478_5103_0.jpg","https://xcimg.szwego.com/img/61d37ee3/20231129/i1701189478_3225_3.jpg","https://xcimg.szwego.com/img/61d37ee3/20231129/i1701189478_8651_1.jpg","https://xcimg.szwego.com/img/61d37ee3/20231129/i1701189478_6792_2.jpg","https://xcimg.szwego.com/img/61d37ee3/20231129/i1701189478_928_4.jpg","https://xcimg.szwego.com/img/61d37ee3/20231129/i1701189478_9390_8.jpg","https://xcimg.szwego.com/img/61d37ee3/20231129/i1701189478_6378_5.jpg","https://xcimg.szwego.com/img/61d37ee3/20231129/i1701189478_8246_7.jpg"],"created_at":"2024-10-21T06:42:26.541Z"},{"id":"item-b4a7ec85ef95","sku":"_dNiNitokCTEhvRzd4xGmn_pz4v8aDIXEvQoX9UQ","name_en":"Genuine factory-made, ZP-grade authentic quality. We ensure all materials, hardware, stitching, and edges use 100% authentic raw materials.","name_cn":"Genuine factory-made, ZP-grade authentic quality. We ensure all materials, hardware, stitching, and edges use 100% authentic raw materials.\nHERMES Evelyne 16 MIlk Silver Clasp\nTaurillon Maurice Calfskin Shoulder Crossbody Mini Unisex Couple Style\nExclusive channel goods, exclusive ZP factory material assembled goods, the ceiling of H.\nSize: 16*18*5cm\nHermès Evelyne\nThe design inspiration for the Evelyne bag comes from a type of saddlebag called a 'saddle bag,' which is commonly used by riders and coachmen to store and transport harnesses and other necessities.\nHermès combines the classic elements of this saddlebag with the brand's craftsmanship tradition to create a bag that is both stylish and functional.\nTherefore, the Evelyne bag is not only a practical handbag but also represents the brand's deep history and cultural traditions.\nIt conveys Hermès' love and respect for equestrian sports, as well as its pursuit of high quality, refinement, and elegance.","specs":{"source":"wsxcme","sourceId":"_dNiNitokCTEhvRzd4xGmn_pz4v8aDIXEvQoX9UQ","sourceTagId":76963559,"sourceTagName":"Hermes/women's bag","dimensions":{"lengthCm":16,"heightCm":18,"widthCm":5},"rawTitle":"Genuine factory-made, ZP-grade authentic quality. We ensure all materials, hardware, stitching, and edges use 100% authentic raw materials.\nHERMES Evelyne 16 MIlk Silver Clasp\nTaurillon Maurice Calfskin Shoulder Crossbody Mini Unisex Couple Style\nExclusive channel goods, exclusive ZP factory material assembled goods, the ceiling of H.\nSize: 16*18*5cm\nHermès Evelyne\nThe design inspiration for the Evelyne bag comes from a type of saddlebag called a 'saddle bag,' which is commonly used by riders and coachmen to store and transport harnesses and other necessities.\nHermès combines the classic elements of this saddlebag with the brand's craftsmanship tradition to create a bag that is both stylish and functional.\nTherefore, the Evelyne bag is not only a practical handbag but also represents the brand's deep history and cultural traditions.\nIt conveys Hermès' love and respect for equestrian sports, as well as its pursuit of high quality, refinement, and elegance."},"price":null,"currency":"CNY","moq":1,"category":"hermes-women-bags","status":"active","alibaba_url":null,"images":["https://xcimg.szwego.com/img/61d37ee3/20231129/i1701188977_871_3.jpg","https://xcimg.szwego.com/img/61d37ee3/20231129/i1701188977_4286_5.jpg","https://xcimg.szwego.com/img/61d37ee3/20231129/i1701188977_8804_1.jpg","https://xcimg.szwego.com/img/61d37ee3/20231129/i1701188977_1167_4.jpg","https://xcimg.szwego.com/img/61d37ee3/20231129/i1701188977_3205_8.jpg","https://xcimg.szwego.com/img/61d37ee3/20231129/i1701188977_9690_0.jpg","https://xcimg.szwego.com/img/61d37ee3/20231129/i1701188977_7612_2.jpg","https://xcimg.szwego.com/img/61d37ee3/20231129/i1701188977_155_6.jpg","https://xcimg.szwego.com/img/61d37ee3/20231129/i1701188977_6016_7.jpg"],"created_at":"2024-10-21T06:42:26.540Z"}],"page":19,"pageSize":24,"total":439,"totalPages":19}
