{"items":[{"id":"item-2d0ec25e6b1a","sku":"_d-y-yjjaPS5zCMNFDqiqQlI44gSk33PalqPc15Q","name_en":"自己工厂顶级手工原班人马,蜡线半手工菜篮子,进口2.5厚度togo皮,法国蜡线,杜克普机车,半手工缝制,底部凸出做法,整个包压防伪线,","name_cn":"自己工厂顶级手工原班人马,蜡线半手工菜篮子,进口2.5厚度togo皮,法国蜡线,杜克普机车,半手工缝制,底部凸出做法,整个包压防伪线,","specs":{"source":"wsxcme","sourceId":"_d-y-yjjaPS5zCMNFDqiqQlI44gSk33PalqPc15Q","sourceTagId":76963559,"sourceTagName":"爱马仕/女包","rawTitle":"自己工厂顶级手工原班人马,蜡线半手工菜篮子,进口2.5厚度togo皮,法国蜡线,杜克普机车,半手工缝制,底部凸出做法,整个包压防伪线,"},"price":null,"currency":"CNY","moq":1,"category":"hermes-women-bags","status":"active","alibaba_url":null,"images":["https://xcimg.szwego.com/20230322/i1679458928_502_2.jpg","https://xcimg.szwego.com/20230322/i1679458928_8751_1.jpg","https://xcimg.szwego.com/20230322/i1679458928_4930_0.jpg","https://xcimg.szwego.com/20230322/i1679458928_2294_8.jpg","https://xcimg.szwego.com/20230322/i1679458928_7969_4.jpg","https://xcimg.szwego.com/20230322/i1679458928_56_5.jpg","https://xcimg.szwego.com/20230322/i1679458928_3368_3.jpg","https://xcimg.szwego.com/20230322/i1679458928_1597_6.jpg","https://xcimg.szwego.com/20230322/i1679458928_4244_7.jpg"],"created_at":"2025-11-29T13:10:08.298Z"},{"id":"item-bd3ece0267b3","sku":"_dFgFgxdSeERXGFghGnypIYOjN4cGEpNzQrUxktg","name_en":"自己工厂顶级手工原班人马,蜡线半手工菜篮子,进口2.5厚度togo皮,法国蜡线,杜克普机车,半手工缝制,底部凸出做法,整个包压防伪线,","name_cn":"自己工厂顶级手工原班人马,蜡线半手工菜篮子,进口2.5厚度togo皮,法国蜡线,杜克普机车,半手工缝制,底部凸出做法,整个包压防伪线,","specs":{"source":"wsxcme","sourceId":"_dFgFgxdSeERXGFghGnypIYOjN4cGEpNzQrUxktg","sourceTagId":76963559,"sourceTagName":"爱马仕/女包","rawTitle":"自己工厂顶级手工原班人马,蜡线半手工菜篮子,进口2.5厚度togo皮,法国蜡线,杜克普机车,半手工缝制,底部凸出做法,整个包压防伪线,"},"price":null,"currency":"CNY","moq":1,"category":"hermes-women-bags","status":"active","alibaba_url":null,"images":["https://xcimg.szwego.com/20230322/i1679464753_4167_1.jpg","https://xcimg.szwego.com/20230322/i1679464753_4338_0.jpg","https://xcimg.szwego.com/20230322/i1679464753_7901_2.jpg","https://xcimg.szwego.com/20230322/i1679464753_1170_8.jpg","https://xcimg.szwego.com/20230322/i1679464753_3456_7.jpg","https://xcimg.szwego.com/20230322/i1679464753_8930_4.jpg","https://xcimg.szwego.com/20230322/i1679464753_1736_3.jpg","https://xcimg.szwego.com/20230322/i1679464753_449_5.jpg","https://xcimg.szwego.com/20230322/i1679464753_5899_6.jpg"],"created_at":"2025-11-29T13:09:45.339Z"},{"id":"item-8b745e70a6d4","sku":"_dkDkDG4XMm8KL51RNUiZ27n7kZW8Ux7wy8cvLOg","name_en":"自己工厂顶级手工原班人马,蜡线半手工菜篮子,进口2.5厚度togo皮,法国蜡线,杜克普机车,半手工缝制,底部凸出做法,整个包压防伪线,","name_cn":"自己工厂顶级手工原班人马,蜡线半手工菜篮子,进口2.5厚度togo皮,法国蜡线,杜克普机车,半手工缝制,底部凸出做法,整个包压防伪线,","specs":{"source":"wsxcme","sourceId":"_dkDkDG4XMm8KL51RNUiZ27n7kZW8Ux7wy8cvLOg","sourceTagId":76963559,"sourceTagName":"爱马仕/女包","rawTitle":"自己工厂顶级手工原班人马,蜡线半手工菜篮子,进口2.5厚度togo皮,法国蜡线,杜克普机车,半手工缝制,底部凸出做法,整个包压防伪线,"},"price":null,"currency":"CNY","moq":1,"category":"hermes-women-bags","status":"active","alibaba_url":null,"images":["https://xcimg.szwego.com/20230322/i1679465451_685_1.jpg","https://xcimg.szwego.com/20230322/i1679465451_5536_0.jpg","https://xcimg.szwego.com/20230322/i1679465451_5826_2.jpg","https://xcimg.szwego.com/20230322/i1679465451_2268_8.jpg","https://xcimg.szwego.com/20230322/i1679465451_2989_3.jpg","https://xcimg.szwego.com/20230322/i1679465451_9451_4.jpg","https://xcimg.szwego.com/20230322/i1679465451_3725_5.jpg","https://xcimg.szwego.com/20230322/i1679465451_7670_7.jpg","https://xcimg.szwego.com/20230322/i1679465473_458_0.jpg"],"created_at":"2025-11-29T13:09:32.585Z"},{"id":"item-3da4d405bff9","sku":"_d8R8RAxWOS5okLbLqXoLrtvBakoU1Byh5WFeKvQ","name_en":"自己工厂顶级手工原班人马,蜡线半手工菜篮子,进口2.5厚度togo皮,法国蜡线,杜克普机车,半手工缝制,底部凸出做法,整个包压防伪线,","name_cn":"自己工厂顶级手工原班人马,蜡线半手工菜篮子,进口2.5厚度togo皮,法国蜡线,杜克普机车,半手工缝制,底部凸出做法,整个包压防伪线,","specs":{"source":"wsxcme","sourceId":"_d8R8RAxWOS5okLbLqXoLrtvBakoU1Byh5WFeKvQ","sourceTagId":76963559,"sourceTagName":"爱马仕/女包","rawTitle":"自己工厂顶级手工原班人马,蜡线半手工菜篮子,进口2.5厚度togo皮,法国蜡线,杜克普机车,半手工缝制,底部凸出做法,整个包压防伪线,"},"price":null,"currency":"CNY","moq":1,"category":"hermes-women-bags","status":"active","alibaba_url":null,"images":["https://xcimg.szwego.com/20230322/i1679469927_1173_0.jpg","https://xcimg.szwego.com/20230322/i1679469927_7936_1.jpg","https://xcimg.szwego.com/20230322/i1679469927_9708_2.jpg","https://xcimg.szwego.com/20230322/i1679469927_1041_8.jpg","https://xcimg.szwego.com/20230322/i1679469927_1362_6.jpg","https://xcimg.szwego.com/20230322/i1679469927_2471_7.jpg","https://xcimg.szwego.com/20230322/i1679469927_9911_3.jpg","https://xcimg.szwego.com/20230322/i1679469927_2733_4.jpg","https://xcimg.szwego.com/20230322/i1679469927_4920_5.jpg"],"created_at":"2025-11-29T13:09:08.568Z"},{"id":"item-1923b8940d4b","sku":"_dpnpn2o4nfN44G70vrtO_nXg86QtItBIci8oPiQ","name_en":"自己工厂顶级手工原班人马,蜡线半手工菜篮子,进口2.5厚度togo皮,法国蜡线,杜克普机车,半手工缝制,底部凸出做法,整个包压防伪线,","name_cn":"自己工厂顶级手工原班人马,蜡线半手工菜篮子,进口2.5厚度togo皮,法国蜡线,杜克普机车,半手工缝制,底部凸出做法,整个包压防伪线,","specs":{"source":"wsxcme","sourceId":"_dpnpn2o4nfN44G70vrtO_nXg86QtItBIci8oPiQ","sourceTagId":76963559,"sourceTagName":"爱马仕/女包","rawTitle":"自己工厂顶级手工原班人马,蜡线半手工菜篮子,进口2.5厚度togo皮,法国蜡线,杜克普机车,半手工缝制,底部凸出做法,整个包压防伪线,"},"price":null,"currency":"CNY","moq":1,"category":"hermes-women-bags","status":"active","alibaba_url":null,"images":["https://xcimg.szwego.com/20230322/i1679470466_4633_0.jpg","https://xcimg.szwego.com/20230322/i1679470466_3630_1.jpg","https://xcimg.szwego.com/20230322/i1679470466_3969_2.jpg","https://xcimg.szwego.com/20230322/i1679477746_8738_0.jpg","https://xcimg.szwego.com/20230322/i1679470466_2063_5.jpg","https://xcimg.szwego.com/20230322/i1679470466_9347_3.jpg","https://xcimg.szwego.com/20230322/i1679470466_657_4.jpg","https://xcimg.szwego.com/20230322/i1679470466_4183_7.jpg","https://xcimg.szwego.com/20230322/i1679470466_543_6.jpg"],"created_at":"2025-11-29T13:08:52.294Z"},{"id":"item-5b5c8e26d862","sku":"_dwVwVbGtanVtOe_QW6jcrec240sdrqO_hkPsX0w","name_en":"自己工厂顶级手工原班人马,蜡线半手工菜篮子,进口2.5厚度togo皮,法国蜡线,杜克普机车,半手工缝制,底部凸出做法,整个包压防伪线,","name_cn":"自己工厂顶级手工原班人马,蜡线半手工菜篮子,进口2.5厚度togo皮,法国蜡线,杜克普机车,半手工缝制,底部凸出做法,整个包压防伪线,","specs":{"source":"wsxcme","sourceId":"_dwVwVbGtanVtOe_QW6jcrec240sdrqO_hkPsX0w","sourceTagId":76963559,"sourceTagName":"爱马仕/女包","rawTitle":"自己工厂顶级手工原班人马,蜡线半手工菜篮子,进口2.5厚度togo皮,法国蜡线,杜克普机车,半手工缝制,底部凸出做法,整个包压防伪线,"},"price":null,"currency":"CNY","moq":1,"category":"hermes-women-bags","status":"active","alibaba_url":null,"images":["https://xcimg.szwego.com/20230322/i1679479408_6368_1.jpg","https://xcimg.szwego.com/20230322/i1679479408_6253_0.jpg","https://xcimg.szwego.com/20230322/i1679479408_1490_2.jpg","https://xcimg.szwego.com/20230322/i1679479408_786_8.jpg","https://xcimg.szwego.com/20230322/i1679479408_3282_6.jpg","https://xcimg.szwego.com/20230322/i1679479408_8082_3.jpg","https://xcimg.szwego.com/20230322/i1679479408_3188_4.jpg","https://xcimg.szwego.com/20230322/i1679479537_2700_0.jpg","https://xcimg.szwego.com/20230322/i1679479537_4413_1.jpg"],"created_at":"2025-11-29T13:08:37.929Z"},{"id":"item-295a734f5107","sku":"_dNGNGaOJzoGY7iEOqbpL_wHS05yMw8DXvFtwsSA","name_en":"◎浅灰•银|Picotin Lock","name_cn":"◎浅灰•银|Picotin Lock \n一个爱马仕中的独特存在.\n\n▏轻便、耐磨又防水,贴近生活的设计  ▏\n自从2002年上市,这只被戏称为“菜篮子”的包包风靡至今✔️没有一个入门级Picotin 真的说不过去🤩\n\n-- 机车现货 原版牛皮.\n实拍22Cm  \n现货18cm","specs":{"source":"wsxcme","sourceId":"_dNGNGaOJzoGY7iEOqbpL_wHS05yMw8DXvFtwsSA","sourceTagId":76963559,"sourceTagName":"爱马仕/女包","rawTitle":"◎浅灰•银|Picotin Lock \n一个爱马仕中的独特存在.\n\n▏轻便、耐磨又防水,贴近生活的设计  ▏\n自从2002年上市,这只被戏称为“菜篮子”的包包风靡至今✔️没有一个入门级Picotin 真的说不过去🤩\n\n-- 机车现货 原版牛皮.\n实拍22Cm  \n现货18cm"},"price":null,"currency":"CNY","moq":1,"category":"hermes-women-bags","status":"active","alibaba_url":null,"images":["https://xcimg.szwego.com/20210403/i1617447730_2021_0.jpg","https://xcimg.szwego.com/20210403/i1617447730_6236_1.jpg","https://xcimg.szwego.com/20210403/i1617447730_8653_2.jpg","https://xcimg.szwego.com/20210403/i1617447730_7361_3.jpg","https://xcimg.szwego.com/20210403/i1617447730_910_4.jpg","https://xcimg.szwego.com/20210403/i1617447730_591_5.jpg","https://xcimg.szwego.com/20210403/i1617447730_2059_6.jpg","https://xcimg.szwego.com/20210403/i1617447730_1149_7.jpg","https://xcimg.szwego.com/20210403/i1617447730_8955_8.jpg"],"created_at":"2025-03-07T08:56:21.456Z"},{"id":"item-a2de72a8f271","sku":"_duSuSImMMqTI_0HRTsE07oI4jbn92CAOZroBOwg","name_en":"Picotin ❶❽金棕色","name_cn":"Picotin ❶❽金棕色\n\n简约也更贴近生活的菜篮子🧺\n某个不经意间就能惊艳你所在的那些时光!她就是Hermes Picotin Lock。\n\n-- 机车现货 原版牛皮.\n实拍18cm","specs":{"source":"wsxcme","sourceId":"_duSuSImMMqTI_0HRTsE07oI4jbn92CAOZroBOwg","sourceTagId":76963559,"sourceTagName":"爱马仕/女包","rawTitle":"Picotin ❶❽金棕色\n\n简约也更贴近生活的菜篮子🧺\n某个不经意间就能惊艳你所在的那些时光!她就是Hermes Picotin Lock。\n\n-- 机车现货 原版牛皮.\n实拍18cm"},"price":null,"currency":"CNY","moq":1,"category":"hermes-women-bags","status":"active","alibaba_url":null,"images":["https://xcimg.szwego.com/20220613/i1655091320_304_0.jpg","https://xcimg.szwego.com/20220613/i1655091320_1315_1.jpg","https://xcimg.szwego.com/20220613/i1655091320_7169_3.jpg","https://xcimg.szwego.com/20220613/i1655091320_5633_4.jpg","https://xcimg.szwego.com/20220613/i1655091320_8868_7.jpg","https://xcimg.szwego.com/20220613/i1655091320_5714_2.jpg","https://xcimg.szwego.com/20220613/i1655091320_7566_8.jpg","https://xcimg.szwego.com/20220613/i1655091320_9694_5.jpg","https://xcimg.szwego.com/20220613/i1655091320_456_6.jpg"],"created_at":"2025-03-07T08:39:49.699Z"},{"id":"item-35aa30503fd8","sku":"_drjrjlUn127k27MhpfuMsn6HMVvW6D78d1IOx5A","name_en":"Hermès(爱马仕) Constance","name_cn":"Hermès(爱马仕) Constance\n属于H家入手较困难也是最难买到的包袋 \n实拍19CM 金扣 丝绒绿 Epsom\n现货 19Cm \n现货 23Cm","specs":{"source":"wsxcme","sourceId":"_drjrjlUn127k27MhpfuMsn6HMVvW6D78d1IOx5A","sourceTagId":76963559,"sourceTagName":"爱马仕/女包","rawTitle":"Hermès(爱马仕) Constance\n属于H家入手较困难也是最难买到的包袋 \n实拍19CM 金扣 丝绒绿 Epsom\n现货 19Cm \n现货 23Cm"},"price":null,"currency":"CNY","moq":1,"category":"hermes-women-bags","status":"active","alibaba_url":null,"images":["https://xcimg.szwego.com/20200419/i1587277261_5664_0.jpg","https://xcimg.szwego.com/20200419/i1587277261_7897_1.jpg","https://xcimg.szwego.com/20200419/i1587277261_8484_2.jpg","https://xcimg.szwego.com/20200419/i1587277261_2437_3.jpg","https://xcimg.szwego.com/20200419/i1587277261_7665_4.jpg","https://xcimg.szwego.com/20200419/i1587277261_8153_7.jpg","https://xcimg.szwego.com/20200419/i1587277261_4084_5.jpg","https://xcimg.szwego.com/20200419/i1587277261_6218_8.jpg"],"created_at":"2025-01-20T12:29:05.618Z"},{"id":"item-032aad32d76b","sku":"_dnInIFwtEzJKvWxoqcIHBELvupRh7J00aquO1iw","name_en":"▪️Constance","name_cn":"▪️Constance \n▫️空姐/康康包\n\n- 属于H家入手较困难也是最难买到的包袋.\n\nConstance又叫空姐包或者小方包,给人的第一眼就像是个青春洋溢的小女孩,鲜明的颜色充满活力,简约而精致的风格🌈\n风衣灰\n现货 19Cm \n现货 23Cm","specs":{"source":"wsxcme","sourceId":"_dnInIFwtEzJKvWxoqcIHBELvupRh7J00aquO1iw","sourceTagId":76963559,"sourceTagName":"爱马仕/女包","rawTitle":"▪️Constance \n▫️空姐/康康包\n\n- 属于H家入手较困难也是最难买到的包袋.\n\nConstance又叫空姐包或者小方包,给人的第一眼就像是个青春洋溢的小女孩,鲜明的颜色充满活力,简约而精致的风格🌈\n风衣灰\n现货 19Cm \n现货 23Cm"},"price":null,"currency":"CNY","moq":1,"category":"hermes-women-bags","status":"active","alibaba_url":null,"images":["https://xcimg.szwego.com/20210512/i1620806330_6880_0.jpg","https://xcimg.szwego.com/20210512/i1620806330_1124_1.jpg","https://xcimg.szwego.com/20210512/i1620806330_9526_2.jpg","https://xcimg.szwego.com/20210512/i1620806330_4477_3.jpg","https://xcimg.szwego.com/20210512/i1620806330_1313_4.jpg","https://xcimg.szwego.com/20210512/i1620806330_4965_5.jpg","https://xcimg.szwego.com/20210512/i1620806330_5007_7.jpg","https://xcimg.szwego.com/20210512/i1620806330_6510_8.jpg"],"created_at":"2025-01-20T12:29:05.617Z"},{"id":"item-7a46feee33b7","sku":"_dmXmX8oK9PjvY9qVnsSamwVNcUOSDG62rhQhWiw","name_en":"Constance ❷❸","name_cn":"Constance ❷❸\n ⸝⸝⸝奶昔白\n\n ʚ又叫空姐包 康康或者小方包.\n极简主义设计_百搭时尚单品~ \n吸睛而不张扬 选择的人自然多!\n实拍 金扣 \n18cm23cm","specs":{"source":"wsxcme","sourceId":"_dmXmX8oK9PjvY9qVnsSamwVNcUOSDG62rhQhWiw","sourceTagId":76963559,"sourceTagName":"爱马仕/女包","rawTitle":"Constance ❷❸\n ⸝⸝⸝奶昔白\n\n ʚ又叫空姐包 康康或者小方包.\n极简主义设计_百搭时尚单品~ \n吸睛而不张扬 选择的人自然多!\n实拍 金扣 \n18cm23cm"},"price":null,"currency":"CNY","moq":1,"category":"hermes-women-bags","status":"active","alibaba_url":null,"images":["https://xcimg.szwego.com/20221105/i1667623963_7678_0.jpg","https://xcimg.szwego.com/20221105/i1667623963_6891_1.jpg","https://xcimg.szwego.com/20221105/i1667623963_223_2.jpg","https://xcimg.szwego.com/20221105/i1667623963_8019_3.jpg","https://xcimg.szwego.com/20221105/i1667623963_3545_4.jpg","https://xcimg.szwego.com/20221105/i1667623963_689_5.jpg","https://xcimg.szwego.com/20221105/i1667623963_2007_6.jpg","https://xcimg.szwego.com/20221105/i1667623963_3962_8.jpg"],"created_at":"2025-01-20T12:29:05.616Z"},{"id":"item-1954082399eb","sku":"_d-a-amnHZv148vGc1jo-jt2IZNH7hJZnZ3DHk2Q","name_en":"▪️Constance ❶❽","name_cn":"▪️Constance ❶❽\n▫️空姐/康康包\n\n- 属于H家入手较困难也是最难买到的包袋.\n\nConstance又叫空姐包或者小方包,给人的第一眼就像是个青春洋溢的小女孩,鲜明的颜色充满活力,简约而精致的风格🌈\n黑色\n现货 19Cm \n现货 23Cm","specs":{"source":"wsxcme","sourceId":"_d-a-amnHZv148vGc1jo-jt2IZNH7hJZnZ3DHk2Q","sourceTagId":76963559,"sourceTagName":"爱马仕/女包","rawTitle":"▪️Constance ❶❽\n▫️空姐/康康包\n\n- 属于H家入手较困难也是最难买到的包袋.\n\nConstance又叫空姐包或者小方包,给人的第一眼就像是个青春洋溢的小女孩,鲜明的颜色充满活力,简约而精致的风格🌈\n黑色\n现货 19Cm \n现货 23Cm"},"price":null,"currency":"CNY","moq":1,"category":"hermes-women-bags","status":"active","alibaba_url":null,"images":["https://xcimg.szwego.com/20220521/i1653127402_8984_0.jpg","https://xcimg.szwego.com/20220521/i1653127402_9719_1.jpg","https://xcimg.szwego.com/20220521/i1653127402_3748_2.jpg","https://xcimg.szwego.com/20220521/i1653127402_2988_3.jpg","https://xcimg.szwego.com/20220521/i1653127402_6226_4.jpg","https://xcimg.szwego.com/20220521/i1653127402_6315_5.jpg","https://xcimg.szwego.com/20220521/i1653127402_7374_7.jpg","https://xcimg.szwego.com/20220521/i1653127402_4089_8.jpg"],"created_at":"2025-01-20T12:29:05.615Z"},{"id":"item-08a9fe34e8ec","sku":"_djUjUH-TvdEGBtPPJo353vkEkyDZ2hkTKNQHWlw","name_en":"超级推荐B 饼干色🍪","name_cn":"超级推荐B 饼干色🍪\n🔥 Picotin 18cm 超级百搭的菜蓝子,入门且实用,越看越喜欢的一款~\n非常随意感的优雅~\n入门级爱马仕必备单品~\n低调有质感随意搭配 休闲 职场装也是yyds👍","specs":{"source":"wsxcme","sourceId":"_djUjUH-TvdEGBtPPJo353vkEkyDZ2hkTKNQHWlw","sourceTagId":76963559,"sourceTagName":"爱马仕/女包","rawTitle":"超级推荐B 饼干色🍪\n🔥 Picotin 18cm 超级百搭的菜蓝子,入门且实用,越看越喜欢的一款~\n非常随意感的优雅~\n入门级爱马仕必备单品~\n低调有质感随意搭配 休闲 职场装也是yyds👍"},"price":null,"currency":"CNY","moq":1,"category":"hermes-women-bags","status":"active","alibaba_url":null,"images":["https://xcimg.szwego.com/20230805/i1691210203_3240_0.jpg","https://xcimg.szwego.com/20230805/i1691210203_8162_1.jpg","https://xcimg.szwego.com/20230805/i1691210203_6857_2.jpg","https://xcimg.szwego.com/20230805/i1691210203_7071_3.jpg","https://xcimg.szwego.com/20230805/i1691210203_9195_4.jpg","https://xcimg.szwego.com/20230805/i1691210203_5428_5.jpg","https://xcimg.szwego.com/20230805/i1691210203_5987_6.jpg","https://xcimg.szwego.com/20230805/i1691210203_6279_8.jpg"],"created_at":"2025-01-20T12:29:05.614Z"},{"id":"item-6abd26ff911e","sku":"_dnnnnEv5s7blAi3D2sELbM6QbP38LU35P1jzSPw","name_en":"真正的原厂货,zp级 正品级品质,我们确保所有材料,五金,车线,油边都达到正品百分百的原材料","name_cn":"真正的原厂货,zp级 正品级品质,我们确保所有材料,五金,车线,油边都达到正品百分百的原材料\n\nHermes 爱马仕 Birkin25cm 金棕金扣\nBirkin 独家渠道货 独家欧洲原厂皮原厂五金组装的ZP尾单货\n尺寸:20 X 25 X 13CM\n\nBirkin我们采用的是进口原厂Togo真皮,什么是Togo皮呢?\n\nTogo皮:最经典的Birkin用皮。表面是均匀的颗粒状,类似荔枝纹,有光泽。皮质较硬,容易保持包包的形状,相对较轻,触感比较柔软,耐磨耐用;\n\n我们用的是纯原、原厂皮就是和原版专柜一样的皮!","specs":{"source":"wsxcme","sourceId":"_dnnnnEv5s7blAi3D2sELbM6QbP38LU35P1jzSPw","sourceTagId":76963559,"sourceTagName":"爱马仕/女包","dimensions":{"lengthCm":20,"heightCm":25,"widthCm":13},"rawTitle":"真正的原厂货,zp级 正品级品质,我们确保所有材料,五金,车线,油边都达到正品百分百的原材料\n\nHermes 爱马仕 Birkin25cm 金棕金扣\nBirkin 独家渠道货 独家欧洲原厂皮原厂五金组装的ZP尾单货\n尺寸:20 X 25 X 13CM\n\nBirkin我们采用的是进口原厂Togo真皮,什么是Togo皮呢?\n\nTogo皮:最经典的Birkin用皮。表面是均匀的颗粒状,类似荔枝纹,有光泽。皮质较硬,容易保持包包的形状,相对较轻,触感比较柔软,耐磨耐用;\n\n我们用的是纯原、原厂皮就是和原版专柜一样的皮!"},"price":null,"currency":"CNY","moq":1,"category":"hermes-women-bags","status":"active","alibaba_url":null,"images":["https://xcimg.szwego.com/20230517/i1684257638_539_0.jpg","https://xcimg.szwego.com/20230517/i1684257638_6481_1.jpg","https://xcimg.szwego.com/20230517/i1684257638_5582_2.jpg","https://xcimg.szwego.com/20230517/i1684257638_8420_3.jpg","https://xcimg.szwego.com/20230517/i1684257638_7251_4.jpg","https://xcimg.szwego.com/20230517/i1684257638_9890_5.jpg","https://xcimg.szwego.com/20230517/i1684257638_182_6.jpg","https://xcimg.szwego.com/20230517/i1684257638_82_7.jpg","https://xcimg.szwego.com/20230517/i1684257638_4500_8.jpg"],"created_at":"2025-01-20T12:29:05.613Z"},{"id":"item-527170864e1e","sku":"_dkIkISe3y8qWDGj4YHXmPicuCHF4rhrTi97IAjA","name_en":"Hermes Women Bags","name_cn":"真正的原厂货,正品级品质,我们确保所有材料,五金,车线,油边都达到正品百分百的原材料\n\nHermes 爱马仕 Birkin25cm 黑色银扣\nBirkin 独家渠道货 独家欧洲原厂皮原厂五金组装的ZP尾单货\n尺寸:20 X 25 X 13CM\n\nBirkin我们采用的是进口原厂Togo真皮,什么是Togo皮呢?\n\nTogo皮:最经典的Birkin用皮。表面是均匀的颗粒状,类似荔枝纹,有光泽。皮质较硬,容易保持包包的形状,相对较轻,触感比较柔软,耐磨耐用;\n\n我们用的是纯原、原厂皮就是和原版专柜一样的皮!","specs":{"source":"wsxcme","sourceId":"_dkIkISe3y8qWDGj4YHXmPicuCHF4rhrTi97IAjA","sourceTagId":76963559,"sourceTagName":"爱马仕/女包","dimensions":{"lengthCm":20,"heightCm":25,"widthCm":13},"rawTitle":"真正的原厂货,正品级品质,我们确保所有材料,五金,车线,油边都达到正品百分百的原材料\n\nHermes 爱马仕 Birkin25cm 黑色银扣\nBirkin 独家渠道货 独家欧洲原厂皮原厂五金组装的ZP尾单货\n尺寸:20 X 25 X 13CM\n\nBirkin我们采用的是进口原厂Togo真皮,什么是Togo皮呢?\n\nTogo皮:最经典的Birkin用皮。表面是均匀的颗粒状,类似荔枝纹,有光泽。皮质较硬,容易保持包包的形状,相对较轻,触感比较柔软,耐磨耐用;\n\n我们用的是纯原、原厂皮就是和原版专柜一样的皮!"},"price":null,"currency":"CNY","moq":1,"category":"hermes-women-bags","status":"active","alibaba_url":null,"images":["https://xcimg.szwego.com/20230515/i1684133308_9696_0.jpg","https://xcimg.szwego.com/20230515/i1684133308_9624_1.jpg","https://xcimg.szwego.com/20230515/i1684133308_4448_2.jpg","https://xcimg.szwego.com/20230515/i1684133308_8087_3.jpg","https://xcimg.szwego.com/20230515/i1684133308_178_4.jpg","https://xcimg.szwego.com/20230515/i1684133308_2857_5.jpg","https://xcimg.szwego.com/20230515/i1684133308_2702_6.jpg","https://xcimg.szwego.com/20230515/i1684133308_4301_7.jpg","https://xcimg.szwego.com/20230515/i1684133308_2715_8.jpg"],"created_at":"2025-01-20T12:29:05.612Z"},{"id":"item-a572b0cfacb1","sku":"_djmjmZoziVKta3zAEqY_vvPMgWIL_KA6779eDtQ","name_en":"真正的原厂货,ZP级 正品级品质,我们确保所有材料,五金,车线,油边都达到正品百分百的原材料","name_cn":"真正的原厂货,ZP级 正品级品质,我们确保所有材料,五金,车线,油边都达到正品百分百的原材料\nHERMES爱马仕Evelyne 16伊芙琳黑色银扣\nTaurillonMaurice 小公牛皮 单肩斜挎包 迷你男女同款情侣款 \n独家渠道货 独家ZP原厂材料组装货 H中的天花板没有之一\n尺寸:16*18*5cm\n\n爱马仕Evelyne伊芙琳\nEvelyne包的设计灵感来自于一种名为“马鞍袋”的马具袋,这是一种常用于骑手和马车夫的袋子,用于储存和运输马具和其他必需品。\n爱马仕将这种马具袋的经典元素与品牌的手工艺传统相结合,打造出了具有时尚感和功能性的包包。\n因此,伊芙琳包不仅是一款实用的手提包,同时也代表着品牌深厚的历史和文化传统。\n它传达了爱马仕对马术运动的热爱和敬意,以及对高品质、精致和优雅的追求。","specs":{"source":"wsxcme","sourceId":"_djmjmZoziVKta3zAEqY_vvPMgWIL_KA6779eDtQ","sourceTagId":76963559,"sourceTagName":"爱马仕/女包","dimensions":{"lengthCm":16,"heightCm":18,"widthCm":5},"rawTitle":"真正的原厂货,ZP级 正品级品质,我们确保所有材料,五金,车线,油边都达到正品百分百的原材料\nHERMES爱马仕Evelyne 16伊芙琳黑色银扣\nTaurillonMaurice 小公牛皮 单肩斜挎包 迷你男女同款情侣款 \n独家渠道货 独家ZP原厂材料组装货 H中的天花板没有之一\n尺寸:16*18*5cm\n\n爱马仕Evelyne伊芙琳\nEvelyne包的设计灵感来自于一种名为“马鞍袋”的马具袋,这是一种常用于骑手和马车夫的袋子,用于储存和运输马具和其他必需品。\n爱马仕将这种马具袋的经典元素与品牌的手工艺传统相结合,打造出了具有时尚感和功能性的包包。\n因此,伊芙琳包不仅是一款实用的手提包,同时也代表着品牌深厚的历史和文化传统。\n它传达了爱马仕对马术运动的热爱和敬意,以及对高品质、精致和优雅的追求。"},"price":null,"currency":"CNY","moq":1,"category":"hermes-women-bags","status":"active","alibaba_url":null,"images":["https://xcimg.szwego.com/img/61d37ee3/20231129/i1701189478_6409_6.jpg","https://xcimg.szwego.com/img/61d37ee3/20231129/i1701189478_5103_0.jpg","https://xcimg.szwego.com/img/61d37ee3/20231129/i1701189478_3225_3.jpg","https://xcimg.szwego.com/img/61d37ee3/20231129/i1701189478_8651_1.jpg","https://xcimg.szwego.com/img/61d37ee3/20231129/i1701189478_6792_2.jpg","https://xcimg.szwego.com/img/61d37ee3/20231129/i1701189478_928_4.jpg","https://xcimg.szwego.com/img/61d37ee3/20231129/i1701189478_9390_8.jpg","https://xcimg.szwego.com/img/61d37ee3/20231129/i1701189478_6378_5.jpg","https://xcimg.szwego.com/img/61d37ee3/20231129/i1701189478_8246_7.jpg"],"created_at":"2025-01-20T12:29:05.611Z"},{"id":"item-c8207eccdd55","sku":"_dirirA7SsDbJrxbVsVyfaP-uowHCxR-14r0f7sA","name_en":"Dream bag","name_cn":"Dream bag \n❷❺🅒🅜\n♥ Bɪʀᴋɪɴ 黑银\n\n相信就算对时尚不感兴趣的人都应该知道Birkin Bag铂金包的大名🥂.\n而在众多奢侈品包包中,出镜最高频率,也最亮眼的就是爱马仕的铂金包〰️\n\n25cm","specs":{"source":"wsxcme","sourceId":"_dirirA7SsDbJrxbVsVyfaP-uowHCxR-14r0f7sA","sourceTagId":76963559,"sourceTagName":"爱马仕/女包","rawTitle":"Dream bag \n❷❺🅒🅜\n♥ Bɪʀᴋɪɴ 黑银\n\n相信就算对时尚不感兴趣的人都应该知道Birkin Bag铂金包的大名🥂.\n而在众多奢侈品包包中,出镜最高频率,也最亮眼的就是爱马仕的铂金包〰️\n\n25cm"},"price":null,"currency":"CNY","moq":1,"category":"hermes-women-bags","status":"active","alibaba_url":null,"images":["https://xcimg.szwego.com/20230212/i1676176128_6350_0.jpg","https://xcimg.szwego.com/20230212/i1676176128_2360_1.jpg","https://xcimg.szwego.com/20230212/i1676176128_7694_2.jpg","https://xcimg.szwego.com/20230212/i1676176128_2484_3.jpg","https://xcimg.szwego.com/20230212/i1676176128_2712_4.jpg","https://xcimg.szwego.com/20230212/i1676176128_3675_5.jpg","https://xcimg.szwego.com/20230212/i1676176128_8330_6.jpg","https://xcimg.szwego.com/20230212/i1676176128_1177_7.jpg","https://xcimg.szwego.com/20230212/i1676176128_34_8.jpg"],"created_at":"2025-01-20T12:29:05.610Z"},{"id":"item-97e7282aa576","sku":"_dpnpn2o4nfN44G70vrtO_nXg86AlBtBIci8oPiQ","name_en":"Dream bag","name_cn":"Dream bag \n♥ Bɪʀᴋɪɴ 大象灰/银\n\n相信就算对时尚不感兴趣的人都应该知道Birkin Bag铂金包的大名🥂.\n而在众多奢侈品包包中,出镜最高频率,也最亮眼的就是爱马仕的铂金包〰️\n25cm","specs":{"source":"wsxcme","sourceId":"_dpnpn2o4nfN44G70vrtO_nXg86AlBtBIci8oPiQ","sourceTagId":76963559,"sourceTagName":"爱马仕/女包","rawTitle":"Dream bag \n♥ Bɪʀᴋɪɴ 大象灰/银\n\n相信就算对时尚不感兴趣的人都应该知道Birkin Bag铂金包的大名🥂.\n而在众多奢侈品包包中,出镜最高频率,也最亮眼的就是爱马仕的铂金包〰️\n25cm"},"price":null,"currency":"CNY","moq":1,"category":"hermes-women-bags","status":"active","alibaba_url":null,"images":["https://xcimg.szwego.com/20210612/i1623485687_9352_0.jpg","https://xcimg.szwego.com/20210612/i1623485687_6450_1.jpg","https://xcimg.szwego.com/20210612/i1623485687_1887_2.jpg","https://xcimg.szwego.com/20210612/i1623485687_9693_3.jpg","https://xcimg.szwego.com/20210612/i1623485687_226_4.jpg","https://xcimg.szwego.com/20210612/i1623485687_703_5.jpg","https://xcimg.szwego.com/20210612/i1623485687_9249_6.jpg","https://xcimg.szwego.com/20210612/i1623485687_7003_7.jpg","https://xcimg.szwego.com/20210612/i1623485687_616_8.jpg"],"created_at":"2025-01-20T12:29:05.609Z"},{"id":"item-587f762ad54e","sku":"_d_X_XWxQ3kpBeXNYOIunfv7GOXJzbTiCZEnuaFQ","name_en":"黑色(金扣)现货:Kelly 内缝 25cm 头层Togo 牛皮,真金电镀五金,配窄宽两根肩带,整个包包和肩带全部都是头层Togo 牛皮","name_cn":"黑色(金扣)现货:Kelly 内缝 25cm 头层Togo 牛皮,真金电镀五金,配窄宽两根肩带,整个包包和肩带全部都是头层Togo 牛皮","specs":{"source":"wsxcme","sourceId":"_d_X_XWxQ3kpBeXNYOIunfv7GOXJzbTiCZEnuaFQ","sourceTagId":76963559,"sourceTagName":"爱马仕/女包","rawTitle":"黑色(金扣)现货:Kelly 内缝 25cm 头层Togo 牛皮,真金电镀五金,配窄宽两根肩带,整个包包和肩带全部都是头层Togo 牛皮"},"price":null,"currency":"CNY","moq":1,"category":"hermes-women-bags","status":"active","alibaba_url":null,"images":["https://xcimg.szwego.com/img/a0e08728/20240331/i1711870220_6608_8.jpg","https://xcimg.szwego.com/img/a0e08728/20240331/i1711870220_6297_0.jpg","https://xcimg.szwego.com/img/a0e08728/20240331/i1711870220_7874_6.jpg","https://xcimg.szwego.com/img/a0e08728/20240331/i1711870220_9254_3.jpg","https://xcimg.szwego.com/img/a0e08728/20240331/i1711870220_4404_7.jpg","https://xcimg.szwego.com/img/a0e08728/20240331/i1711870220_803_5.jpg","https://xcimg.szwego.com/img/a0e08728/20240331/i1711870220_6131_2.jpg","https://xcimg.szwego.com/img/a0e08728/20240331/i1711870220_6554_4.jpg","https://xcimg.szwego.com/img/a0e08728/20240331/i1711870220_1636_1.jpg"],"created_at":"2025-01-20T12:29:05.608Z"},{"id":"item-aedb51734849","sku":"_dededHT-TRwvTlJdZJrhs5HgzcJqrKdPeAJSysA","name_en":"黑色(银扣)bitkin 25,头层togo原厂皮,进口莎菲线,机车王杜克普45度斜针缝制,进口芬尼斯边油手工拉丝工艺,尺寸25*20*,13","name_cn":"黑色(银扣)bitkin 25,头层togo原厂皮,进口莎菲线,机车王杜克普45度斜针缝制,进口芬尼斯边油手工拉丝工艺,尺寸25*20*,13","specs":{"source":"wsxcme","sourceId":"_dededHT-TRwvTlJdZJrhs5HgzcJqrKdPeAJSysA","sourceTagId":76963559,"sourceTagName":"爱马仕/女包","rawTitle":"黑色(银扣)bitkin 25,头层togo原厂皮,进口莎菲线,机车王杜克普45度斜针缝制,进口芬尼斯边油手工拉丝工艺,尺寸25*20*,13"},"price":null,"currency":"CNY","moq":1,"category":"hermes-women-bags","status":"active","alibaba_url":null,"images":["https://xcimg.szwego.com/img/a0e08728/20240827/i1724754569_9047_7.jpg","https://xcimg.szwego.com/img/a0e08728/20240827/i1724754569_5376_1.jpg","https://xcimg.szwego.com/img/a0e08728/20240827/i1724754569_3454_6.jpg","https://xcimg.szwego.com/img/a0e08728/20240827/i1724754569_7332_4.jpg","https://xcimg.szwego.com/img/a0e08728/20240827/i1724754569_7199_0.jpg","https://xcimg.szwego.com/img/a0e08728/20240827/i1724754569_3038_8.jpg","https://xcimg.szwego.com/img/a0e08728/20240827/i1724754569_3759_2.jpg","https://xcimg.szwego.com/img/a0e08728/20240827/i1724754569_822_3.jpg","https://xcimg.szwego.com/img/a0e08728/20240827/i1724754569_5824_5.jpg"],"created_at":"2025-01-20T12:29:05.607Z"},{"id":"item-d7ceb787e28f","sku":"_doooogWZqnkAi56W7GyFIt7e6iVYjRjieGRoTGQ","name_en":"黑色(金扣)bitkin 25,头层togo原厂皮,进口莎菲线,机车王杜克普45度斜针缝制,进口芬尼斯边油手工拉丝工艺,尺寸25*20*,13","name_cn":"黑色(金扣)bitkin 25,头层togo原厂皮,进口莎菲线,机车王杜克普45度斜针缝制,进口芬尼斯边油手工拉丝工艺,尺寸25*20*,13","specs":{"source":"wsxcme","sourceId":"_doooogWZqnkAi56W7GyFIt7e6iVYjRjieGRoTGQ","sourceTagId":76963559,"sourceTagName":"爱马仕/女包","rawTitle":"黑色(金扣)bitkin 25,头层togo原厂皮,进口莎菲线,机车王杜克普45度斜针缝制,进口芬尼斯边油手工拉丝工艺,尺寸25*20*,13"},"price":null,"currency":"CNY","moq":1,"category":"hermes-women-bags","status":"active","alibaba_url":null,"images":["https://xcimg.szwego.com/img/a0e08728/20240827/i1724751413_5804_5.jpg","https://xcimg.szwego.com/img/a0e08728/20240827/i1724751413_8095_2.jpg","https://xcimg.szwego.com/img/a0e08728/20240827/i1724751413_3400_1.jpg","https://xcimg.szwego.com/img/a0e08728/20240827/i1724751413_3721_3.jpg","https://xcimg.szwego.com/img/a0e08728/20240827/i1724751413_4012_0.jpg","https://xcimg.szwego.com/img/a0e08728/20240827/i1724751413_4250_4.jpg","https://xcimg.szwego.com/img/a0e08728/20240827/i1724751413_5803_7.jpg","https://xcimg.szwego.com/img/a0e08728/20240827/i1724751413_5903_6.jpg","https://xcimg.szwego.com/img/a0e08728/20240827/i1724751413_6760_8.jpg"],"created_at":"2025-01-20T12:29:05.606Z"},{"id":"item-9cf5cb58fe41","sku":"_dj2j2_ZsYs8Rgnp4YdElskdtuC4iaP0T89AjbLg","name_en":"°尺寸Birkin 经典之作#除了材质、做工、颜值,更重要的是经过近40年的沉淀,Birkin包已经拥有了自带光环的辨识度,象征着高净值人群的品位、身份与地位。","name_cn":"°尺寸Birkin 经典之作#除了材质、做工、颜值,更重要的是经过近40年的沉淀,Birkin包已经拥有了自带光环的辨识度,象征着高净值人群的品位、身份与地位。\n\n 现货25/30Cm","specs":{"source":"wsxcme","sourceId":"_dj2j2_ZsYs8Rgnp4YdElskdtuC4iaP0T89AjbLg","sourceTagId":76963559,"sourceTagName":"爱马仕/女包","rawTitle":"°尺寸Birkin 经典之作#除了材质、做工、颜值,更重要的是经过近40年的沉淀,Birkin包已经拥有了自带光环的辨识度,象征着高净值人群的品位、身份与地位。\n\n 现货25/30Cm"},"price":null,"currency":"CNY","moq":1,"category":"hermes-women-bags","status":"active","alibaba_url":null,"images":["https://xcimg.szwego.com/20211115/i1636958673_7455_0.jpg","https://xcimg.szwego.com/20211115/i1636958673_1878_1.jpg","https://xcimg.szwego.com/20211115/i1636958673_4886_2.jpg","https://xcimg.szwego.com/20211115/i1636958673_1112_3.jpg","https://xcimg.szwego.com/20211115/i1636958673_8432_4.jpg","https://xcimg.szwego.com/20211115/i1636958673_4769_5.jpg","https://xcimg.szwego.com/20211115/i1636958673_9680_6.jpg","https://xcimg.szwego.com/20211115/i1636958673_4521_7.jpg","https://xcimg.szwego.com/20211115/i1636958673_9611_8.jpg"],"created_at":"2025-01-20T12:29:05.605Z"},{"id":"item-64fc8333b450","sku":"_dt0t0pHZe259jo1ZXop_W2S_p7KKNtmxw3wwOKg","name_en":"H-Hᴇʀᴍᴇs sᴛᴇᴇᴘʟᴇ 🌈","name_cn":"H-Hᴇʀᴍᴇs sᴛᴇᴇᴘʟᴇ 🌈\n\nStyle :『托特购物袋』\n工匠之手赋予的灵魂造型 只一眼就能让你记住的标志性风格❤️‍🔥\n以人为本的价值观 致力于环境资源的保护 选用天然进口帆布材质 好看好用~一定要入坑~各式各样的图案设计!\n放心真的不会看花眼 款款精品 个个独特~\n\nSize 尺寸:28 28.5 17cm","specs":{"source":"wsxcme","sourceId":"_dt0t0pHZe259jo1ZXop_W2S_p7KKNtmxw3wwOKg","sourceTagId":76963559,"sourceTagName":"爱马仕/女包","rawTitle":"H-Hᴇʀᴍᴇs sᴛᴇᴇᴘʟᴇ 🌈\n\nStyle :『托特购物袋』\n工匠之手赋予的灵魂造型 只一眼就能让你记住的标志性风格❤️‍🔥\n以人为本的价值观 致力于环境资源的保护 选用天然进口帆布材质 好看好用~一定要入坑~各式各样的图案设计!\n放心真的不会看花眼 款款精品 个个独特~\n\nSize 尺寸:28 28.5 17cm"},"price":null,"currency":"CNY","moq":1,"category":"hermes-women-bags","status":"active","alibaba_url":null,"images":["https://xcimg.szwego.com/img/b17e98d7/20240914/i1726316230_999_5.jpg","https://xcimg.szwego.com/img/b17e98d7/20240914/i1726316230_9485_4.jpg","https://xcimg.szwego.com/img/b17e98d7/20240914/i1726316231_8651_8.jpg","https://xcimg.szwego.com/img/b17e98d7/20240914/i1726316230_7523_3.jpg","https://xcimg.szwego.com/img/b17e98d7/20240914/i1726316230_8308_6.jpg","https://xcimg.szwego.com/img/b17e98d7/20240914/i1726316230_1385_0.jpg","https://xcimg.szwego.com/img/b17e98d7/20240914/i1726316230_2221_2.jpg","https://xcimg.szwego.com/img/b17e98d7/20240914/i1726316230_1780_1.jpg","https://xcimg.szwego.com/img/b17e98d7/20240914/i1726316231_4574_7.jpg"],"created_at":"2025-01-20T12:29:05.604Z"},{"id":"item-36407f085179","sku":"_dhihixWHH-tgogvxQM6uTojaTxp4gXyFa5cHv9A","name_en":"H-Hᴇʀᴍᴇs sᴛᴇᴇᴘʟᴇ 🌈","name_cn":"H-Hᴇʀᴍᴇs sᴛᴇᴇᴘʟᴇ 🌈\n\nStyle :『托特购物袋』\n工匠之手赋予的灵魂造型 只一眼就能让你记住的标志性风格❤️‍🔥\n以人为本的价值观 致力于环境资源的保护 选用天然进口帆布材质 好看好用~一定要入坑~各式各样的图案设计!\n放心真的不会看花眼 款款精品 个个独特~\n\nSize 尺寸:28 28.5 17cm","specs":{"source":"wsxcme","sourceId":"_dhihixWHH-tgogvxQM6uTojaTxp4gXyFa5cHv9A","sourceTagId":76963559,"sourceTagName":"爱马仕/女包","rawTitle":"H-Hᴇʀᴍᴇs sᴛᴇᴇᴘʟᴇ 🌈\n\nStyle :『托特购物袋』\n工匠之手赋予的灵魂造型 只一眼就能让你记住的标志性风格❤️‍🔥\n以人为本的价值观 致力于环境资源的保护 选用天然进口帆布材质 好看好用~一定要入坑~各式各样的图案设计!\n放心真的不会看花眼 款款精品 个个独特~\n\nSize 尺寸:28 28.5 17cm"},"price":null,"currency":"CNY","moq":1,"category":"hermes-women-bags","status":"active","alibaba_url":null,"images":["https://xcimg.szwego.com/img/b17e98d7/20240914/i1726316331_1628_0.jpg","https://xcimg.szwego.com/img/b17e98d7/20240914/i1726316331_109_8.jpg","https://xcimg.szwego.com/img/b17e98d7/20240914/i1726316331_7982_1.jpg","https://xcimg.szwego.com/img/b17e98d7/20240914/i1726316331_6744_5.jpg","https://xcimg.szwego.com/img/b17e98d7/20240914/i1726316331_8763_7.jpg","https://xcimg.szwego.com/img/b17e98d7/20240914/i1726316331_2374_4.jpg","https://xcimg.szwego.com/img/b17e98d7/20240914/i1726316331_9466_2.jpg","https://xcimg.szwego.com/img/b17e98d7/20240914/i1726316331_5993_6.jpg","https://xcimg.szwego.com/img/b17e98d7/20240914/i1726316331_9856_3.jpg"],"created_at":"2025-01-20T12:29:05.603Z"}],"page":4,"pageSize":24,"total":439,"totalPages":19}
