{"items":[{"id":"item-359c6b24b30c","sku":"_dfafa8Dw1NF1Vl0yu2OuQx2AM_3vDWPePxPaYaQ","name_en":"Hermes Women Bags","name_cn":"😘\n新款 kelly elan,时尚的轮回,可以当腋下包和手拿包,真的把一代替代了\n简直不要太美\n拼手速啦,宝宝们","specs":{"source":"wsxcme","sourceId":"_dfafa8Dw1NF1Vl0yu2OuQx2AM_3vDWPePxPaYaQ","sourceTagId":76963559,"sourceTagName":"爱马仕/女包","rawTitle":"😘\n新款 kelly elan,时尚的轮回,可以当腋下包和手拿包,真的把一代替代了\n简直不要太美\n拼手速啦,宝宝们"},"price":null,"currency":"CNY","moq":1,"category":"hermes-women-bags","status":"active","alibaba_url":null,"images":["https://xcimg.szwego.com/20230804/i1691139065_7763_0.jpg","https://xcimg.szwego.com/20230804/i1691139065_9643_1.jpg","https://xcimg.szwego.com/20230804/i1691139065_2078_2.jpg","https://xcimg.szwego.com/20230804/i1691139065_2742_3.jpg","https://xcimg.szwego.com/20230804/i1691139065_8198_4.jpg","https://xcimg.szwego.com/20230804/i1691139065_8347_5.jpg"],"created_at":"2024-10-22T04:49:50.796Z"},{"id":"item-7752163a60c9","sku":"_d9V9Vqt_lLtdTQKx5HFpy2_8Pb1Ydk177XKG7Iw","name_en":"Hermes Women Bags","name_cn":"😘\n新款 kelly elan,时尚的轮回,可以当腋下包和手拿包,真的把一代替代了\n简直不要太美\n拼手速啦,宝宝们","specs":{"source":"wsxcme","sourceId":"_d9V9Vqt_lLtdTQKx5HFpy2_8Pb1Ydk177XKG7Iw","sourceTagId":76963559,"sourceTagName":"爱马仕/女包","rawTitle":"😘\n新款 kelly elan,时尚的轮回,可以当腋下包和手拿包,真的把一代替代了\n简直不要太美\n拼手速啦,宝宝们"},"price":null,"currency":"CNY","moq":1,"category":"hermes-women-bags","status":"active","alibaba_url":null,"images":["https://xcimg.szwego.com/20230804/i1691138707_9912_0.jpg","https://xcimg.szwego.com/20230804/i1691138707_5902_1.jpg","https://xcimg.szwego.com/20230804/i1691138707_3545_2.jpg","https://xcimg.szwego.com/20230804/i1691138707_8532_3.jpg","https://xcimg.szwego.com/20230804/i1691138707_3819_4.jpg","https://xcimg.szwego.com/20230804/i1691138707_6760_5.jpg","https://xcimg.szwego.com/20230804/i1691138707_1838_6.jpg","https://xcimg.szwego.com/20230804/i1691138707_2721_7.jpg","https://xcimg.szwego.com/20230804/i1691138707_5934_8.jpg"],"created_at":"2024-10-22T04:49:50.795Z"},{"id":"item-302e6ac988a2","sku":"_dm7m709i_eWqt7qV08DBOwBhnhP7lzU5viHl1vg","name_en":"Hermes Women Bags","name_cn":"😘\n新款 kelly elan,时尚的轮回,可以当腋下包和手拿包,真的把一代替代了\n简直不要太美\n拼手速啦,宝宝们","specs":{"source":"wsxcme","sourceId":"_dm7m709i_eWqt7qV08DBOwBhnhP7lzU5viHl1vg","sourceTagId":76963559,"sourceTagName":"爱马仕/女包","rawTitle":"😘\n新款 kelly elan,时尚的轮回,可以当腋下包和手拿包,真的把一代替代了\n简直不要太美\n拼手速啦,宝宝们"},"price":null,"currency":"CNY","moq":1,"category":"hermes-women-bags","status":"active","alibaba_url":null,"images":["https://xcimg.szwego.com/20230804/i1691138587_6721_0.jpg","https://xcimg.szwego.com/20230804/i1691138587_6937_1.jpg","https://xcimg.szwego.com/20230804/i1691138587_6090_2.jpg","https://xcimg.szwego.com/20230804/i1691138587_6486_3.jpg","https://xcimg.szwego.com/20230804/i1691138587_8423_4.jpg","https://xcimg.szwego.com/20230804/i1691138587_1036_5.jpg","https://xcimg.szwego.com/20230804/i1691138587_3013_6.jpg","https://xcimg.szwego.com/20230804/i1691138587_2920_7.jpg","https://xcimg.szwego.com/20230804/i1691138587_1119_8.jpg"],"created_at":"2024-10-22T04:49:50.794Z"},{"id":"item-a1477db7c9b2","sku":"_dlIlIqIo_A1leQHJAiZY1lr2eCWOIdXcPh7RHsg","name_en":"Hermes Women Bags","name_cn":"😘\n新款 kelly elan,时尚的轮回,可以当腋下包和手拿包,真的把一代替代了\n简直不要太美\n拼手速啦,宝宝们","specs":{"source":"wsxcme","sourceId":"_dlIlIqIo_A1leQHJAiZY1lr2eCWOIdXcPh7RHsg","sourceTagId":76963559,"sourceTagName":"爱马仕/女包","rawTitle":"😘\n新款 kelly elan,时尚的轮回,可以当腋下包和手拿包,真的把一代替代了\n简直不要太美\n拼手速啦,宝宝们"},"price":null,"currency":"CNY","moq":1,"category":"hermes-women-bags","status":"active","alibaba_url":null,"images":["https://xcimg.szwego.com/20230804/i1691138473_6412_0.jpg","https://xcimg.szwego.com/20230804/i1691138473_2859_1.jpg","https://xcimg.szwego.com/20230804/i1691138473_2970_2.jpg","https://xcimg.szwego.com/20230804/i1691138473_1218_3.jpg","https://xcimg.szwego.com/20230804/i1691138473_8469_4.jpg","https://xcimg.szwego.com/20230804/i1691138473_2004_5.jpg","https://xcimg.szwego.com/20230804/i1691138473_5849_6.jpg","https://xcimg.szwego.com/20230804/i1691138473_9136_7.jpg","https://xcimg.szwego.com/20230804/i1691138473_1356_8.jpg"],"created_at":"2024-10-22T04:49:50.793Z"},{"id":"item-269b7c24a9a0","sku":"_doToTJTC0DX_nNkcM_6ZK7kAXEeY-_j_566VgEg","name_en":"Hermes Women Bags","name_cn":"😘\n新款 kelly elan,时尚的轮回,可以当腋下包和手拿包,真的把一代替代了\n简直不要太美\n拼手速啦,宝宝们","specs":{"source":"wsxcme","sourceId":"_doToTJTC0DX_nNkcM_6ZK7kAXEeY-_j_566VgEg","sourceTagId":76963559,"sourceTagName":"爱马仕/女包","rawTitle":"😘\n新款 kelly elan,时尚的轮回,可以当腋下包和手拿包,真的把一代替代了\n简直不要太美\n拼手速啦,宝宝们"},"price":null,"currency":"CNY","moq":1,"category":"hermes-women-bags","status":"active","alibaba_url":null,"images":["https://xcimg.szwego.com/20230804/i1691138356_5071_0.jpg","https://xcimg.szwego.com/20230804/i1691138356_9505_1.jpg","https://xcimg.szwego.com/20230804/i1691138356_8079_2.jpg","https://xcimg.szwego.com/20230804/i1691138356_8326_3.jpg","https://xcimg.szwego.com/20230804/i1691138356_7584_4.jpg","https://xcimg.szwego.com/20230804/i1691138356_267_5.jpg","https://xcimg.szwego.com/20230804/i1691138356_1211_6.jpg","https://xcimg.szwego.com/20230804/i1691138356_2759_7.jpg","https://xcimg.szwego.com/20230804/i1691138356_9729_8.jpg"],"created_at":"2024-10-22T04:49:50.792Z"},{"id":"item-5d29b7e1fd5b","sku":"_dqEqEft88OFzyjd0cwgYfVqW6UJvPG2AxUXl12Q","name_en":"Hermes Women Bags","name_cn":"全网唯一😘\n新款 kelly elan,时尚的轮回,可以当腋下包和手拿包,真的把一代替代了\n简直不要太美\n拼手速啦,宝宝们","specs":{"source":"wsxcme","sourceId":"_dqEqEft88OFzyjd0cwgYfVqW6UJvPG2AxUXl12Q","sourceTagId":76963559,"sourceTagName":"爱马仕/女包","rawTitle":"全网唯一😘\n新款 kelly elan,时尚的轮回,可以当腋下包和手拿包,真的把一代替代了\n简直不要太美\n拼手速啦,宝宝们"},"price":null,"currency":"CNY","moq":1,"category":"hermes-women-bags","status":"active","alibaba_url":null,"images":["https://xcimg.szwego.com/20230711/a1689051952166_0243.jpg","https://xcimg.szwego.com/20230711/a1689051952168_8832.jpg","https://xcimg.szwego.com/20230711/a1689051952170_0560.jpg","https://xcimg.szwego.com/20230711/a1689051952173_0835.jpg","https://xcimg.szwego.com/20230711/a1689051952174_5628.jpg","https://xcimg.szwego.com/20230711/a1689051952175_0552.jpg"],"created_at":"2024-10-22T04:49:50.791Z"},{"id":"item-65ef3a6fccd8","sku":"_d4F4FOTLKMbSql_q_5U7_t5yaF5YmrCa6k7OQwg","name_en":"Ep对版十字纹现货黑,大象灰,金棕,奶昔白","name_cn":"Ep对版十字纹现货黑,大象灰,金棕,奶昔白\n新款 kelly elan,时尚的轮回,可以当腋下包和手拿包,真的把一代替代了\n简直不要太美\n拼手速啦,今年必种草款,宝子们","specs":{"source":"wsxcme","sourceId":"_d4F4FOTLKMbSql_q_5U7_t5yaF5YmrCa6k7OQwg","sourceTagId":76963559,"sourceTagName":"爱马仕/女包","rawTitle":"Ep对版十字纹现货黑,大象灰,金棕,奶昔白\n新款 kelly elan,时尚的轮回,可以当腋下包和手拿包,真的把一代替代了\n简直不要太美\n拼手速啦,今年必种草款,宝子们"},"price":null,"currency":"CNY","moq":1,"category":"hermes-women-bags","status":"active","alibaba_url":null,"images":["https://xcimg.szwego.com/20230907/i1694071008_9287_0.jpg","https://xcimg.szwego.com/20230907/i1694071008_3789_1.jpg","https://xcimg.szwego.com/20230907/i1694071008_717_2.jpg","https://xcimg.szwego.com/20230907/i1694071008_5412_3.jpg","https://xcimg.szwego.com/20230907/i1694071008_2156_4.jpg","https://xcimg.szwego.com/20230907/i1694071008_1294_5.jpg","https://xcimg.szwego.com/20230907/i1694071008_4037_6.jpg","https://xcimg.szwego.com/20230907/i1694071008_9411_7.jpg"],"created_at":"2024-10-22T04:49:50.790Z"},{"id":"item-d7e3975c212b","sku":"_dtKtKIz7EGrOYDpB3aYJRdQ_MoXhAgVWKYJVogA","name_en":"Ep对版十字纹现货黑,大象灰,金棕,奶昔白","name_cn":"Ep对版十字纹现货黑,大象灰,金棕,奶昔白\n新款 kelly elan,时尚的轮回,可以当腋下包和手拿包,真的把一代替代了\n简直不要太美\n拼手速啦,今年必种草款,宝子们","specs":{"source":"wsxcme","sourceId":"_dtKtKIz7EGrOYDpB3aYJRdQ_MoXhAgVWKYJVogA","sourceTagId":76963559,"sourceTagName":"爱马仕/女包","rawTitle":"Ep对版十字纹现货黑,大象灰,金棕,奶昔白\n新款 kelly elan,时尚的轮回,可以当腋下包和手拿包,真的把一代替代了\n简直不要太美\n拼手速啦,今年必种草款,宝子们"},"price":null,"currency":"CNY","moq":1,"category":"hermes-women-bags","status":"active","alibaba_url":null,"images":["https://xcimg.szwego.com/20230907/i1694070988_3185_0.jpg","https://xcimg.szwego.com/20230907/i1694070988_6732_1.jpg","https://xcimg.szwego.com/20230907/i1694070988_136_2.jpg","https://xcimg.szwego.com/20230907/i1694070988_6187_3.jpg","https://xcimg.szwego.com/20230907/i1694070988_6597_4.jpg","https://xcimg.szwego.com/20230907/i1694070988_4894_5.jpg","https://xcimg.szwego.com/20230907/i1694070988_6688_6.jpg","https://xcimg.szwego.com/20230907/i1694070988_4311_7.jpg"],"created_at":"2024-10-22T04:49:50.789Z"},{"id":"item-c0b6fe3997b9","sku":"_dCmCmSzbrotsiCDg_oMe_cNpdFNIXLSNJ60chBw","name_en":"Ep对版十字纹现货黑,大象灰,金棕,奶昔白","name_cn":"Ep对版十字纹现货黑,大象灰,金棕,奶昔白\n新款 kelly elan,时尚的轮回,可以当腋下包和手拿包,真的把一代替代了\n简直不要太美\n拼手速啦,今年必种草款,宝子们","specs":{"source":"wsxcme","sourceId":"_dCmCmSzbrotsiCDg_oMe_cNpdFNIXLSNJ60chBw","sourceTagId":76963559,"sourceTagName":"爱马仕/女包","rawTitle":"Ep对版十字纹现货黑,大象灰,金棕,奶昔白\n新款 kelly elan,时尚的轮回,可以当腋下包和手拿包,真的把一代替代了\n简直不要太美\n拼手速啦,今年必种草款,宝子们"},"price":null,"currency":"CNY","moq":1,"category":"hermes-women-bags","status":"active","alibaba_url":null,"images":["https://xcimg.szwego.com/20230907/i1694070960_6656_0.jpg","https://xcimg.szwego.com/20230907/i1694070960_8332_1.jpg","https://xcimg.szwego.com/20230907/i1694070960_9299_2.jpg","https://xcimg.szwego.com/20230907/i1694070960_769_3.jpg","https://xcimg.szwego.com/20230907/i1694070960_9192_4.jpg","https://xcimg.szwego.com/20230907/i1694070960_4774_5.jpg","https://xcimg.szwego.com/20230907/i1694070960_7684_6.jpg"],"created_at":"2024-10-22T04:49:50.788Z"},{"id":"item-9edeb0720312","sku":"_dololnfkhOaHF7kgErLoIL4tdpu9NOH3SKp600Q","name_en":"Ep对版十字纹现货黑,大象灰,金棕,奶昔白","name_cn":"Ep对版十字纹现货黑,大象灰,金棕,奶昔白\n新款 kelly elan,时尚的轮回,可以当腋下包和手拿包,真的把一代替代了\n简直不要太美\n拼手速啦,今年必种草款,宝子们","specs":{"source":"wsxcme","sourceId":"_dololnfkhOaHF7kgErLoIL4tdpu9NOH3SKp600Q","sourceTagId":76963559,"sourceTagName":"爱马仕/女包","rawTitle":"Ep对版十字纹现货黑,大象灰,金棕,奶昔白\n新款 kelly elan,时尚的轮回,可以当腋下包和手拿包,真的把一代替代了\n简直不要太美\n拼手速啦,今年必种草款,宝子们"},"price":null,"currency":"CNY","moq":1,"category":"hermes-women-bags","status":"active","alibaba_url":null,"images":["https://xcimg.szwego.com/20230907/i1694070936_2058_0.jpg","https://xcimg.szwego.com/20230907/i1694070936_6245_1.jpg","https://xcimg.szwego.com/20230907/i1694070936_6981_2.jpg","https://xcimg.szwego.com/20230907/i1694070936_3395_3.jpg","https://xcimg.szwego.com/20230907/i1694070936_7231_4.jpg","https://xcimg.szwego.com/20230907/i1694070936_269_5.jpg","https://xcimg.szwego.com/20230907/i1694070936_1886_6.jpg"],"created_at":"2024-10-22T04:49:50.787Z"},{"id":"item-7c0b10f6e33b","sku":"_ddgdgjoyAOpC-J9Ec-WYImi9nLAB6t1Yyg7RRcA","name_en":"Ep对版十字纹现货黑,大象灰,金棕,奶昔白","name_cn":"Ep对版十字纹现货黑,大象灰,金棕,奶昔白\n新款 kelly elan,时尚的轮回,可以当腋下包和手拿包,真的把一代替代了\n简直不要太美\n拼手速啦,今年必种草款,宝子们","specs":{"source":"wsxcme","sourceId":"_ddgdgjoyAOpC-J9Ec-WYImi9nLAB6t1Yyg7RRcA","sourceTagId":76963559,"sourceTagName":"爱马仕/女包","rawTitle":"Ep对版十字纹现货黑,大象灰,金棕,奶昔白\n新款 kelly elan,时尚的轮回,可以当腋下包和手拿包,真的把一代替代了\n简直不要太美\n拼手速啦,今年必种草款,宝子们"},"price":null,"currency":"CNY","moq":1,"category":"hermes-women-bags","status":"active","alibaba_url":null,"images":["https://xcimg.szwego.com/20230907/i1694070739_199_0.jpg","https://xcimg.szwego.com/20230907/i1694070739_9883_1.jpg","https://xcimg.szwego.com/20230907/i1694070739_2201_2.jpg","https://xcimg.szwego.com/20230907/i1694070739_4656_3.jpg","https://xcimg.szwego.com/20230907/i1694070739_7989_4.jpg","https://xcimg.szwego.com/20230907/i1694070739_7987_5.jpg","https://xcimg.szwego.com/20230907/i1694070739_6041_6.jpg"],"created_at":"2024-10-22T04:49:50.786Z"},{"id":"item-01f0e3975f94","sku":"_dEmEmZvIzEue-xQSgtlnESovx7w4XT_B_DqVttg","name_en":"Ep对版十字纹现货黑,大象灰,金棕,奶昔白","name_cn":"Ep对版十字纹现货黑,大象灰,金棕,奶昔白\n新款 kelly elan,时尚的轮回,可以当腋下包和手拿包,真的把一代替代了\n简直不要太美\n拼手速啦,今年必种草款,宝子们","specs":{"source":"wsxcme","sourceId":"_dEmEmZvIzEue-xQSgtlnESovx7w4XT_B_DqVttg","sourceTagId":76963559,"sourceTagName":"爱马仕/女包","rawTitle":"Ep对版十字纹现货黑,大象灰,金棕,奶昔白\n新款 kelly elan,时尚的轮回,可以当腋下包和手拿包,真的把一代替代了\n简直不要太美\n拼手速啦,今年必种草款,宝子们"},"price":null,"currency":"CNY","moq":1,"category":"hermes-women-bags","status":"active","alibaba_url":null,"images":["https://xcimg.szwego.com/20230907/i1694070553_8008_0.jpg","https://xcimg.szwego.com/20230907/i1694070553_9773_1.jpg","https://xcimg.szwego.com/20230907/i1694070553_4130_2.jpg","https://xcimg.szwego.com/20230907/i1694070553_1844_3.jpg","https://xcimg.szwego.com/20230907/i1694070553_7952_4.jpg","https://xcimg.szwego.com/20230907/i1694070553_2577_5.jpg","https://xcimg.szwego.com/20230907/i1694070553_9476_6.jpg","https://xcimg.szwego.com/20230907/i1694070553_8769_7.jpg"],"created_at":"2024-10-22T04:49:50.785Z"},{"id":"item-348001c264ea","sku":"_dj9j9OPreaY9BNejaRYmjXBOgLUw1fHU6Iyvnhw","name_en":"Ep对版十字纹现货黑,大象灰,金棕,奶昔白","name_cn":"Ep对版十字纹现货黑,大象灰,金棕,奶昔白\n新款 kelly elan,时尚的轮回,可以当腋下包和手拿包,真的把一代替代了\n简直不要太美\n拼手速啦,今年必种草款,宝子们","specs":{"source":"wsxcme","sourceId":"_dj9j9OPreaY9BNejaRYmjXBOgLUw1fHU6Iyvnhw","sourceTagId":76963559,"sourceTagName":"爱马仕/女包","rawTitle":"Ep对版十字纹现货黑,大象灰,金棕,奶昔白\n新款 kelly elan,时尚的轮回,可以当腋下包和手拿包,真的把一代替代了\n简直不要太美\n拼手速啦,今年必种草款,宝子们"},"price":null,"currency":"CNY","moq":1,"category":"hermes-women-bags","status":"active","alibaba_url":null,"images":["https://xcimg.szwego.com/20230907/i1694070464_4199_0.jpg","https://xcimg.szwego.com/20230907/i1694070464_9456_1.jpg","https://xcimg.szwego.com/20230907/i1694070464_3205_2.jpg","https://xcimg.szwego.com/20230907/i1694070464_6022_3.jpg","https://xcimg.szwego.com/20230907/i1694070464_82_4.jpg","https://xcimg.szwego.com/20230907/i1694070464_4241_5.jpg","https://xcimg.szwego.com/20230907/i1694070464_4292_6.jpg","https://xcimg.szwego.com/20230907/i1694070464_5293_7.jpg"],"created_at":"2024-10-22T04:49:50.784Z"},{"id":"item-500ad93ccd10","sku":"_ds5s5eQzv8UVG5voHRTQHFaZNmKGuhyaLV7oNKw","name_en":"kelly Elan 山羊皮 27cm 18大象灰 金扣","name_cn":"kelly Elan 山羊皮 27cm 18大象灰 金扣 \nkelly 家族真正意义上的第一只腋下包,容量,厚度肩带长度 都挑不出任何毛病 日常使用率会很高的一只~ \n曼妙优雅的细长轮廓,小山羊皮搭配满满的复古腔调,收纳满分。肩带长度腋下背法非常nice!","specs":{"source":"wsxcme","sourceId":"_ds5s5eQzv8UVG5voHRTQHFaZNmKGuhyaLV7oNKw","sourceTagId":76963559,"sourceTagName":"爱马仕/女包","rawTitle":"kelly Elan 山羊皮 27cm 18大象灰 金扣 \nkelly 家族真正意义上的第一只腋下包,容量,厚度肩带长度 都挑不出任何毛病 日常使用率会很高的一只~ \n曼妙优雅的细长轮廓,小山羊皮搭配满满的复古腔调,收纳满分。肩带长度腋下背法非常nice!"},"price":null,"currency":"CNY","moq":1,"category":"hermes-women-bags","status":"active","alibaba_url":null,"images":["https://xcimg.szwego.com/20230802/i1690972149_7572_0.jpg","https://xcimg.szwego.com/20230802/i1690972149_4080_1.jpg","https://xcimg.szwego.com/20230802/i1690972149_215_2.jpg","https://xcimg.szwego.com/20230802/i1690972149_3414_3.jpg","https://xcimg.szwego.com/20230802/i1690972149_8565_6.jpg","https://xcimg.szwego.com/20230802/i1690972149_9028_4.jpg","https://xcimg.szwego.com/20230802/i1690972149_9257_5.jpg","https://xcimg.szwego.com/20230802/i1690972149_545_8.jpg","https://xcimg.szwego.com/20230802/i1690972149_2312_7.jpg"],"created_at":"2024-10-22T04:49:50.783Z"},{"id":"item-e73373ebb439","sku":"_d0v0vwOavX24MsGa9Se-Yo2nYs2GtmcBDAK8vCA","name_en":"kelly Elan 山羊皮 27cm 18大象灰 银扣","name_cn":"kelly Elan 山羊皮 27cm 18大象灰 银扣 \nkelly 家族真正意义上的第一只腋下包,容量,厚度肩带长度 都挑不出任何毛病 日常使用率会很高的一只~ \n曼妙优雅的细长轮廓,小山羊皮搭配满满的复古腔调,收纳满分。肩带长度腋下背法非常nice!","specs":{"source":"wsxcme","sourceId":"_d0v0vwOavX24MsGa9Se-Yo2nYs2GtmcBDAK8vCA","sourceTagId":76963559,"sourceTagName":"爱马仕/女包","rawTitle":"kelly Elan 山羊皮 27cm 18大象灰 银扣 \nkelly 家族真正意义上的第一只腋下包,容量,厚度肩带长度 都挑不出任何毛病 日常使用率会很高的一只~ \n曼妙优雅的细长轮廓,小山羊皮搭配满满的复古腔调,收纳满分。肩带长度腋下背法非常nice!"},"price":null,"currency":"CNY","moq":1,"category":"hermes-women-bags","status":"active","alibaba_url":null,"images":["https://xcimg.szwego.com/20230802/i1690970847_568_0.jpg","https://xcimg.szwego.com/20230802/i1690970847_4487_1.jpg","https://xcimg.szwego.com/20230802/i1690970847_7780_2.jpg","https://xcimg.szwego.com/20230802/i1690970847_7420_3.jpg","https://xcimg.szwego.com/20230802/i1690970847_7338_4.jpg","https://xcimg.szwego.com/20230802/i1690970847_58_5.jpg","https://xcimg.szwego.com/20230802/i1690970847_7663_7.jpg","https://xcimg.szwego.com/20230802/i1690970847_5306_6.jpg","https://xcimg.szwego.com/20230802/i1690970847_1017_8.jpg"],"created_at":"2024-10-22T04:49:50.782Z"},{"id":"item-1f2c24daf520","sku":"_dbQbQ4gKdUGn8WXM9Wu4RQwVMYp4tuq9grnNGQg","name_en":"kelly Elan 山羊皮 27cm 37金棕 金扣","name_cn":"kelly Elan 山羊皮 27cm 37金棕 金扣\nkelly 家族真正意义上的第一只腋下包,容量,厚度肩带长度 都挑不出任何毛病 日常使用率会很高的一只~ \n曼妙优雅的细长轮廓,小山羊皮搭配满满的复古腔调,收纳满分。肩带长度腋下背法非常nice!","specs":{"source":"wsxcme","sourceId":"_dbQbQ4gKdUGn8WXM9Wu4RQwVMYp4tuq9grnNGQg","sourceTagId":76963559,"sourceTagName":"爱马仕/女包","rawTitle":"kelly Elan 山羊皮 27cm 37金棕 金扣\nkelly 家族真正意义上的第一只腋下包,容量,厚度肩带长度 都挑不出任何毛病 日常使用率会很高的一只~ \n曼妙优雅的细长轮廓,小山羊皮搭配满满的复古腔调,收纳满分。肩带长度腋下背法非常nice!"},"price":null,"currency":"CNY","moq":1,"category":"hermes-women-bags","status":"active","alibaba_url":null,"images":["https://xcimg.szwego.com/20230716/i1689501669_976_0.jpg","https://xcimg.szwego.com/20230716/i1689501669_6940_1.jpg","https://xcimg.szwego.com/20230716/i1689501669_2328_2.jpg","https://xcimg.szwego.com/20230716/i1689501669_1805_3.jpg","https://xcimg.szwego.com/20230716/i1689501669_1544_5.jpg","https://xcimg.szwego.com/20230716/i1689501669_6122_6.jpg","https://xcimg.szwego.com/20230716/i1689501669_189_7.jpg","https://xcimg.szwego.com/20230716/i1689501669_2392_4.jpg","https://xcimg.szwego.com/20230716/i1689501669_8196_8.jpg"],"created_at":"2024-10-22T04:49:50.781Z"},{"id":"item-83e3205ecc13","sku":"_dL2L2bBvCaMx99WvhtfVJPpWWs-1E9aWQ0nZDgw","name_en":"kelly Elan 山羊皮 27cm 37金棕 银扣","name_cn":"kelly Elan 山羊皮 27cm 37金棕 银扣\nkelly 家族真正意义上的第一只腋下包,容量,厚度肩带长度 都挑不出任何毛病 日常使用率会很高的一只~ \n曼妙优雅的细长轮廓,小山羊皮搭配满满的复古腔调,收纳满分。肩带长度腋下背法非常nice!","specs":{"source":"wsxcme","sourceId":"_dL2L2bBvCaMx99WvhtfVJPpWWs-1E9aWQ0nZDgw","sourceTagId":76963559,"sourceTagName":"爱马仕/女包","rawTitle":"kelly Elan 山羊皮 27cm 37金棕 银扣\nkelly 家族真正意义上的第一只腋下包,容量,厚度肩带长度 都挑不出任何毛病 日常使用率会很高的一只~ \n曼妙优雅的细长轮廓,小山羊皮搭配满满的复古腔调,收纳满分。肩带长度腋下背法非常nice!"},"price":null,"currency":"CNY","moq":1,"category":"hermes-women-bags","status":"active","alibaba_url":null,"images":["https://xcimg.szwego.com/20230716/i1689500776_3703_0.jpg","https://xcimg.szwego.com/20230716/i1689500776_6272_1.jpg","https://xcimg.szwego.com/20230716/i1689500776_4833_2.jpg","https://xcimg.szwego.com/20230716/i1689500776_4877_3.jpg","https://xcimg.szwego.com/20230716/i1689500776_9077_5.jpg","https://xcimg.szwego.com/20230716/i1689500776_9015_4.jpg","https://xcimg.szwego.com/20230716/i1689500776_907_8.jpg","https://xcimg.szwego.com/20230716/i1689500776_5638_7.jpg","https://xcimg.szwego.com/20230716/i1689500776_7418_6.jpg"],"created_at":"2024-10-22T04:49:50.780Z"},{"id":"item-d7916a75d8f1","sku":"_da8a8zMCJ1Qss3ZL_fsQ-dqNRR2hjohNxDlntgg","name_en":"kelly Elan 山羊皮 27cm OG马鞍红 银扣","name_cn":"kelly Elan 山羊皮 27cm OG马鞍红 银扣\nkelly 家族真正意义上的第一只腋下包,容量,厚度肩带长度 都挑不出任何毛病 日常使用率会很高的一只~ \n曼妙优雅的细长轮廓,小山羊皮搭配满满的复古腔调,收纳满分。肩带长度腋下背法非常nice!","specs":{"source":"wsxcme","sourceId":"_da8a8zMCJ1Qss3ZL_fsQ-dqNRR2hjohNxDlntgg","sourceTagId":76963559,"sourceTagName":"爱马仕/女包","rawTitle":"kelly Elan 山羊皮 27cm OG马鞍红 银扣\nkelly 家族真正意义上的第一只腋下包,容量,厚度肩带长度 都挑不出任何毛病 日常使用率会很高的一只~ \n曼妙优雅的细长轮廓,小山羊皮搭配满满的复古腔调,收纳满分。肩带长度腋下背法非常nice!"},"price":null,"currency":"CNY","moq":1,"category":"hermes-women-bags","status":"active","alibaba_url":null,"images":["https://xcimg.szwego.com/20230802/i1690967418_9226_0.jpg","https://xcimg.szwego.com/20230802/i1690967418_5528_1.jpg","https://xcimg.szwego.com/20230802/i1690967418_3518_2.jpg","https://xcimg.szwego.com/20230802/i1690967418_2450_3.jpg","https://xcimg.szwego.com/20230802/i1690967418_2023_4.jpg","https://xcimg.szwego.com/20230802/i1690967418_5272_6.jpg","https://xcimg.szwego.com/20230802/i1690967418_2695_7.jpg","https://xcimg.szwego.com/20230802/i1690967418_5640_8.jpg","https://xcimg.szwego.com/20230802/i1690967418_7316_5.jpg"],"created_at":"2024-10-22T04:49:50.779Z"},{"id":"item-cfe0aaa2b8b3","sku":"_dZnZnl5m_wNxIPOVdBQ0QM3fZuQzxHBnPSm_PnA","name_en":"kelly Elan 山羊皮 27cm 7K宝石蓝 银扣","name_cn":"kelly Elan 山羊皮 27cm 7K宝石蓝 银扣\nkelly 家族真正意义上的第一只腋下包,容量,厚度肩带长度 都挑不出任何毛病 日常使用率会很高的一只~ \n曼妙优雅的细长轮廓,小山羊皮搭配满满的复古腔调,收纳满分。肩带长度腋下背法非常nice!","specs":{"source":"wsxcme","sourceId":"_dZnZnl5m_wNxIPOVdBQ0QM3fZuQzxHBnPSm_PnA","sourceTagId":76963559,"sourceTagName":"爱马仕/女包","rawTitle":"kelly Elan 山羊皮 27cm 7K宝石蓝 银扣\nkelly 家族真正意义上的第一只腋下包,容量,厚度肩带长度 都挑不出任何毛病 日常使用率会很高的一只~ \n曼妙优雅的细长轮廓,小山羊皮搭配满满的复古腔调,收纳满分。肩带长度腋下背法非常nice!"},"price":null,"currency":"CNY","moq":1,"category":"hermes-women-bags","status":"active","alibaba_url":null,"images":["https://xcimg.szwego.com/20230710/i1688983798_6900_0.jpg","https://xcimg.szwego.com/20230710/i1688983798_2207_1.jpg","https://xcimg.szwego.com/20230710/i1688983798_4436_2.jpg","https://xcimg.szwego.com/20230710/i1688983798_1197_3.jpg","https://xcimg.szwego.com/20230710/i1688983798_4007_6.jpg","https://xcimg.szwego.com/20230710/i1688983798_9199_7.jpg","https://xcimg.szwego.com/20230710/i1688983798_59_8.jpg","https://xcimg.szwego.com/20230710/i1688983838_7447_0.jpg","https://xcimg.szwego.com/20230710/i1688983798_7259_5.jpg"],"created_at":"2024-10-22T04:49:50.778Z"},{"id":"item-e9c915835c7e","sku":"_di5i5jwM99woKfuAmhNcCoAqxcR_dlvUwT_-ajw","name_en":"kelly Elan 山羊皮 27cm 89黑色 银扣","name_cn":"kelly Elan 山羊皮 27cm 89黑色 银扣 \nkelly 家族真正意义上的第一只腋下包,容量,厚度肩带长度 都挑不出任何毛病 日常使用率会很高的一只~ \n曼妙优雅的细长轮廓,小山羊皮搭配黑银满满的复古腔调,收纳满分。肩带长度腋下背法非常nice!","specs":{"source":"wsxcme","sourceId":"_di5i5jwM99woKfuAmhNcCoAqxcR_dlvUwT_-ajw","sourceTagId":76963559,"sourceTagName":"爱马仕/女包","rawTitle":"kelly Elan 山羊皮 27cm 89黑色 银扣 \nkelly 家族真正意义上的第一只腋下包,容量,厚度肩带长度 都挑不出任何毛病 日常使用率会很高的一只~ \n曼妙优雅的细长轮廓,小山羊皮搭配黑银满满的复古腔调,收纳满分。肩带长度腋下背法非常nice!"},"price":null,"currency":"CNY","moq":1,"category":"hermes-women-bags","status":"active","alibaba_url":null,"images":["https://xcimg.szwego.com/20230709/i1688895995_3219_0.jpg","https://xcimg.szwego.com/20230709/i1688895995_2275_1.jpg","https://xcimg.szwego.com/20230709/i1688895995_9253_2.jpg","https://xcimg.szwego.com/20230709/i1688895995_8452_3.jpg","https://xcimg.szwego.com/20230709/i1688895995_6882_8.jpg","https://xcimg.szwego.com/20230709/i1688895995_7763_7.jpg","https://xcimg.szwego.com/20230709/i1688895995_1440_6.jpg","https://xcimg.szwego.com/20230709/i1688895995_3497_5.jpg","https://xcimg.szwego.com/20230709/i1688895995_6381_4.jpg"],"created_at":"2024-10-22T04:49:50.777Z"},{"id":"item-1e2d7bca12da","sku":"_d-T-TaFo6-HowL2cN5WXGiVpKRuasL5tFK4t9xw","name_en":"Kelly elan枣红·金","name_cn":"Kelly elan枣红·金\n进口牛皮 十字纹 手工蜡线 全钢五金\n肩带可拆卸,手提和腋下包2种背法 容量好背 无敌好背!!\n尺寸:27x15x5","specs":{"source":"wsxcme","sourceId":"_d-T-TaFo6-HowL2cN5WXGiVpKRuasL5tFK4t9xw","sourceTagId":76963559,"sourceTagName":"爱马仕/女包","rawTitle":"Kelly elan枣红·金\n进口牛皮 十字纹 手工蜡线 全钢五金\n肩带可拆卸,手提和腋下包2种背法 容量好背 无敌好背!!\n尺寸:27x15x5"},"price":null,"currency":"CNY","moq":1,"category":"hermes-women-bags","status":"active","alibaba_url":null,"images":["https://xcimg.szwego.com/img/43e90bff/20240221/i1708503634_9612_0.jpg","https://xcimg.szwego.com/img/43e90bff/20240221/i1708503634_9909_7.jpg","https://xcimg.szwego.com/img/43e90bff/20240221/i1708503634_2503_8.jpg","https://xcimg.szwego.com/img/43e90bff/20240221/i1708503634_2230_6.jpg","https://xcimg.szwego.com/img/43e90bff/20240221/i1708503634_1267_2.jpg","https://xcimg.szwego.com/img/43e90bff/20240221/i1708503634_6962_1.jpg","https://xcimg.szwego.com/img/43e90bff/20240221/i1708503634_8851_3.jpg","https://xcimg.szwego.com/img/43e90bff/20240221/i1708503634_3696_4.jpg","https://xcimg.szwego.com/img/43e90bff/20240221/i1708503634_428_5.jpg"],"created_at":"2024-10-22T04:49:50.776Z"},{"id":"item-5142e99dffc0","sku":"_d-_-_7tZJIG1EFnHHHS2c23PhE50pozSrsIFqmg","name_en":"Kelly elan枣红·银","name_cn":"Kelly elan枣红·银\n进口牛皮 十字纹 手工蜡线 全钢五金\n肩带可拆卸,手提和腋下包2种背法 容量好背 无敌好背!!\n尺寸:27x15x5","specs":{"source":"wsxcme","sourceId":"_d-_-_7tZJIG1EFnHHHS2c23PhE50pozSrsIFqmg","sourceTagId":76963559,"sourceTagName":"爱马仕/女包","rawTitle":"Kelly elan枣红·银\n进口牛皮 十字纹 手工蜡线 全钢五金\n肩带可拆卸,手提和腋下包2种背法 容量好背 无敌好背!!\n尺寸:27x15x5"},"price":null,"currency":"CNY","moq":1,"category":"hermes-women-bags","status":"active","alibaba_url":null,"images":["https://xcimg.szwego.com/img/43e90bff/20240221/i1708503304_5244_6.jpg","https://xcimg.szwego.com/img/43e90bff/20240221/i1708503304_739_7.jpg","https://xcimg.szwego.com/img/43e90bff/20240221/i1708503304_8095_4.jpg","https://xcimg.szwego.com/img/43e90bff/20240221/i1708503304_5220_1.jpg","https://xcimg.szwego.com/img/43e90bff/20240221/i1708503304_4159_2.jpg","https://xcimg.szwego.com/img/43e90bff/20240221/i1708503304_3582_5.jpg","https://xcimg.szwego.com/img/43e90bff/20240221/i1708503304_105_8.jpg","https://xcimg.szwego.com/img/43e90bff/20240221/i1708503304_1402_0.jpg","https://xcimg.szwego.com/img/43e90bff/20240221/i1708503304_3509_3.jpg"],"created_at":"2024-10-22T04:49:50.775Z"},{"id":"item-94c19c0d9cfe","sku":"_dhJhJ7Q0PTsUL1ItT3qTQ-q1ppbNfmjwUJQE3Sw","name_en":"Kelly elan金棕色·金","name_cn":"Kelly elan金棕色·金\n进口牛皮 十字纹 手工蜡线 全钢五金\n肩带可拆卸,手提和腋下包2种背法 容量好背 无敌好背!!\n尺寸:27x15x5","specs":{"source":"wsxcme","sourceId":"_dhJhJ7Q0PTsUL1ItT3qTQ-q1ppbNfmjwUJQE3Sw","sourceTagId":76963559,"sourceTagName":"爱马仕/女包","rawTitle":"Kelly elan金棕色·金\n进口牛皮 十字纹 手工蜡线 全钢五金\n肩带可拆卸,手提和腋下包2种背法 容量好背 无敌好背!!\n尺寸:27x15x5"},"price":null,"currency":"CNY","moq":1,"category":"hermes-women-bags","status":"active","alibaba_url":null,"images":["https://xcimg.szwego.com/img/43e90bff/20240221/i1708503179_1021_4.jpg","https://xcimg.szwego.com/img/43e90bff/20240221/i1708503179_1583_2.jpg","https://xcimg.szwego.com/img/43e90bff/20240221/i1708503179_1631_3.jpg","https://xcimg.szwego.com/img/43e90bff/20240221/i1708503179_4279_6.jpg","https://xcimg.szwego.com/img/43e90bff/20240221/i1708503178_6180_0.jpg","https://xcimg.szwego.com/img/43e90bff/20240221/i1708503179_9290_7.jpg","https://xcimg.szwego.com/img/43e90bff/20240221/i1708503179_8260_5.jpg","https://xcimg.szwego.com/img/43e90bff/20240221/i1708503179_7764_8.jpg","https://xcimg.szwego.com/img/43e90bff/20240221/i1708503179_3281_1.jpg"],"created_at":"2024-10-22T04:49:50.774Z"},{"id":"item-2e7dc1d46fdc","sku":"_dPBPB313E896fcmOQLVLGarBgGsrEi7JbyTM-GQ","name_en":"Kelly elan金棕色·银","name_cn":"Kelly elan金棕色·银\n进口牛皮 十字纹 手工蜡线 全钢五金\n肩带可拆卸,手提和腋下包2种背法 容量好背 无敌好背!!\n尺寸:27x15x5","specs":{"source":"wsxcme","sourceId":"_dPBPB313E896fcmOQLVLGarBgGsrEi7JbyTM-GQ","sourceTagId":76963559,"sourceTagName":"爱马仕/女包","rawTitle":"Kelly elan金棕色·银\n进口牛皮 十字纹 手工蜡线 全钢五金\n肩带可拆卸,手提和腋下包2种背法 容量好背 无敌好背!!\n尺寸:27x15x5"},"price":null,"currency":"CNY","moq":1,"category":"hermes-women-bags","status":"active","alibaba_url":null,"images":["https://xcimg.szwego.com/img/43e90bff/20240221/i1708503044_4083_0.jpg","https://xcimg.szwego.com/img/43e90bff/20240221/i1708503044_2285_6.jpg","https://xcimg.szwego.com/img/43e90bff/20240221/i1708503044_1855_2.jpg","https://xcimg.szwego.com/img/43e90bff/20240221/i1708503044_276_7.jpg","https://xcimg.szwego.com/img/43e90bff/20240221/i1708503044_2919_5.jpg","https://xcimg.szwego.com/img/43e90bff/20240221/i1708503044_5855_3.jpg","https://xcimg.szwego.com/img/43e90bff/20240221/i1708503044_3786_8.jpg","https://xcimg.szwego.com/img/43e90bff/20240221/i1708503044_4019_1.jpg","https://xcimg.szwego.com/img/43e90bff/20240221/i1708503044_9507_4.jpg"],"created_at":"2024-10-22T04:49:50.773Z"}],"page":14,"pageSize":24,"total":439,"totalPages":19}
