{"items":[{"id":"item-614a9488a2fa","sku":"_dVOVOCB6FWxB2ruzBZEkUeTpBgaXftbk4HnzufQ","name_en":"现货:Garden part(花园包)30cm 进口TC皮拼密织布 杏色拼黑色 银扣蜡线","name_cn":"现货:Garden part(花园包)30cm 进口TC皮拼密织布 杏色拼黑色 银扣蜡线","specs":{"source":"wsxcme","sourceId":"_dVOVOCB6FWxB2ruzBZEkUeTpBgaXftbk4HnzufQ","sourceTagId":76963559,"sourceTagName":"爱马仕/女包","rawTitle":"现货:Garden part(花园包)30cm 进口TC皮拼密织布 杏色拼黑色 银扣蜡线"},"price":null,"currency":"CNY","moq":1,"category":"hermes-women-bags","status":"active","alibaba_url":null,"images":["https://xcimg.szwego.com/20230720/i1689846376_3309_0.jpg","https://xcimg.szwego.com/20230720/i1689846376_1340_1.jpg","https://xcimg.szwego.com/20230720/i1689846376_982_2.jpg","https://xcimg.szwego.com/20230720/i1689846376_1515_3.jpg","https://xcimg.szwego.com/20230720/i1689846376_398_4.jpg","https://xcimg.szwego.com/20230720/i1689846376_5069_5.jpg","https://xcimg.szwego.com/20230720/i1689846376_2275_6.jpg","https://xcimg.szwego.com/20230720/i1689846376_192_7.jpg","https://xcimg.szwego.com/20230720/i1689846376_2735_8.jpg"],"created_at":"2024-10-22T05:00:12.148Z"},{"id":"item-ee8e11aa51dd","sku":"_dA6A6Uo-Q70pTfnsV0SCCTbkndvOgRXUxOu8Nqw","name_en":"现货:Garden part(花园包)30cm 进口TC皮拼密织布 杏色拼3Q粉 银扣蜡线","name_cn":"现货:Garden part(花园包)30cm 进口TC皮拼密织布 杏色拼3Q粉 银扣蜡线","specs":{"source":"wsxcme","sourceId":"_dA6A6Uo-Q70pTfnsV0SCCTbkndvOgRXUxOu8Nqw","sourceTagId":76963559,"sourceTagName":"爱马仕/女包","rawTitle":"现货:Garden part(花园包)30cm 进口TC皮拼密织布 杏色拼3Q粉 银扣蜡线"},"price":null,"currency":"CNY","moq":1,"category":"hermes-women-bags","status":"active","alibaba_url":null,"images":["https://xcimg.szwego.com/20230720/i1689846355_7335_0.jpg","https://xcimg.szwego.com/20230720/i1689846355_6607_1.jpg","https://xcimg.szwego.com/20230720/i1689846355_5010_2.jpg","https://xcimg.szwego.com/20230720/i1689846355_158_3.jpg","https://xcimg.szwego.com/20230720/i1689846355_8205_4.jpg","https://xcimg.szwego.com/20230720/i1689846355_3421_5.jpg","https://xcimg.szwego.com/20230720/i1689846355_2180_6.jpg","https://xcimg.szwego.com/20230720/i1689846355_7182_7.jpg","https://xcimg.szwego.com/20230720/i1689846355_7903_8.jpg"],"created_at":"2024-10-22T05:00:12.147Z"},{"id":"item-1cc87b9a1346","sku":"_ddjdja4Pk27e-wZ7Kv1cH0WdsUI-JZOGJCNOQ8Q","name_en":"Graden party 休闲风格系列 也是H家很著名的入门款 设计比较低调 采用tc皮拼帆布材质 性价比很高 容量杠杠滴 size:30cm","name_cn":"Graden party 休闲风格系列 也是H家很著名的入门款 设计比较低调 采用tc皮拼帆布材质 性价比很高 容量杠杠滴 size:30cm","specs":{"source":"wsxcme","sourceId":"_ddjdja4Pk27e-wZ7Kv1cH0WdsUI-JZOGJCNOQ8Q","sourceTagId":76963559,"sourceTagName":"爱马仕/女包","rawTitle":"Graden party 休闲风格系列 也是H家很著名的入门款 设计比较低调 采用tc皮拼帆布材质 性价比很高 容量杠杠滴 size:30cm"},"price":null,"currency":"CNY","moq":1,"category":"hermes-women-bags","status":"active","alibaba_url":null,"images":["https://xcimg.szwego.com/20221003/a1664770467970_8222.jpg","https://xcimg.szwego.com/20221003/a1664770468137_4054.jpg","https://xcimg.szwego.com/20221003/a1664770468334_1857.jpg","https://xcimg.szwego.com/20221003/a1664770468447_8512.jpg","https://xcimg.szwego.com/20221003/a1664770468576_4772.jpg","https://xcimg.szwego.com/20221003/a1664770468678_4367.jpg","https://xcimg.szwego.com/20221003/a1664770468819_1421.jpg","https://xcimg.szwego.com/20221003/a1664770468908_8481.jpg","https://xcimg.szwego.com/20221003/a1664770469039_3800.jpg"],"created_at":"2024-10-22T05:00:12.146Z"},{"id":"item-b866211fe376","sku":"_djrjrlKaHNd0xfY2GkBNrbOL1EkwsJbSS6nnh7g","name_en":"Graden party 休闲风格系列 也是H家很著名的入门款 设计比较低调 采用tc皮拼帆布材质 性价比很高 容量杠杠滴 size:30cm","name_cn":"Graden party 休闲风格系列 也是H家很著名的入门款 设计比较低调 采用tc皮拼帆布材质 性价比很高 容量杠杠滴 size:30cm","specs":{"source":"wsxcme","sourceId":"_djrjrlKaHNd0xfY2GkBNrbOL1EkwsJbSS6nnh7g","sourceTagId":76963559,"sourceTagName":"爱马仕/女包","rawTitle":"Graden party 休闲风格系列 也是H家很著名的入门款 设计比较低调 采用tc皮拼帆布材质 性价比很高 容量杠杠滴 size:30cm"},"price":null,"currency":"CNY","moq":1,"category":"hermes-women-bags","status":"active","alibaba_url":null,"images":["https://xcimg.szwego.com/20221003/a1664770596696_0068.jpg","https://xcimg.szwego.com/20221003/a1664770596867_2507.jpg","https://xcimg.szwego.com/20221003/a1664770597019_1211.jpg","https://xcimg.szwego.com/20221003/a1664770597129_2355.jpg","https://xcimg.szwego.com/20221003/a1664770597217_4643.jpg","https://xcimg.szwego.com/20221003/a1664770597313_0035.jpg","https://xcimg.szwego.com/20221003/a1664770597453_6758.jpg","https://xcimg.szwego.com/20221003/a1664770597512_8823.jpg","https://xcimg.szwego.com/20221003/a1664770597629_6710.jpg"],"created_at":"2024-10-22T05:00:12.145Z"},{"id":"item-4e619706bbbd","sku":"_dN_N_XfuvR6QOgQwBG483tlEkJj8pwOL97jgdFA","name_en":"Graden party 黑白粗布配黑","name_cn":"Graden party 黑白粗布配黑\n休闲风格系列 也是H家很著名的入门款 设计比较低调 采用tc皮拼帆布材质 性价比很高 容量杠杠滴 size:30cm 36cm","specs":{"source":"wsxcme","sourceId":"_dN_N_XfuvR6QOgQwBG483tlEkJj8pwOL97jgdFA","sourceTagId":76963559,"sourceTagName":"爱马仕/女包","rawTitle":"Graden party 黑白粗布配黑\n休闲风格系列 也是H家很著名的入门款 设计比较低调 采用tc皮拼帆布材质 性价比很高 容量杠杠滴 size:30cm 36cm"},"price":null,"currency":"CNY","moq":1,"category":"hermes-women-bags","status":"active","alibaba_url":null,"images":["https://xcimg.szwego.com/20211115/i1636985635_5108_0.jpg","https://xcimg.szwego.com/20211115/i1636985635_4954_4.jpg","https://xcimg.szwego.com/20211115/i1636985635_5557_1.jpg","https://xcimg.szwego.com/20211115/i1636985635_3916_2.jpg","https://xcimg.szwego.com/20211115/i1636985635_7172_3.jpg","https://xcimg.szwego.com/20211115/i1636985635_5246_5.jpg","https://xcimg.szwego.com/20211115/i1636985635_1620_6.jpg","https://xcimg.szwego.com/20211115/i1636985635_9216_8.jpg","https://xcimg.szwego.com/20211115/i1636985635_3229_7.jpg"],"created_at":"2024-10-22T05:00:12.144Z"},{"id":"item-b69d5365927a","sku":"_dl2l2pt5yVOgZNE9_7xFjbUgX8xFZJTWmvfyy6A","name_en":"Graden party 休闲风格系列 也是H家很著名的入门款 设计比较低调 采用tc皮拼帆布材质 性价比很高 容量杠杠滴 size:30cm","name_cn":"Graden party 休闲风格系列 也是H家很著名的入门款 设计比较低调 采用tc皮拼帆布材质 性价比很高 容量杠杠滴 size:30cm","specs":{"source":"wsxcme","sourceId":"_dl2l2pt5yVOgZNE9_7xFjbUgX8xFZJTWmvfyy6A","sourceTagId":76963559,"sourceTagName":"爱马仕/女包","rawTitle":"Graden party 休闲风格系列 也是H家很著名的入门款 设计比较低调 采用tc皮拼帆布材质 性价比很高 容量杠杠滴 size:30cm"},"price":null,"currency":"CNY","moq":1,"category":"hermes-women-bags","status":"active","alibaba_url":null,"images":["https://xcimg.szwego.com/20221119/a1668829089333_4427.jpg","https://xcimg.szwego.com/20221119/a1668829089530_2530.jpg","https://xcimg.szwego.com/20221119/a1668829089645_4087.jpg","https://xcimg.szwego.com/20221119/a1668829089744_4842.jpg","https://xcimg.szwego.com/20221119/a1668829089876_1021.jpg","https://xcimg.szwego.com/20221119/a1668829089991_8821.jpg","https://xcimg.szwego.com/20221119/a1668829090072_6520.jpg","https://xcimg.szwego.com/20221119/a1668829090123_2431.jpg","https://xcimg.szwego.com/20221119/a1668829090220_4541.jpg"],"created_at":"2024-10-22T05:00:12.143Z"},{"id":"item-7675adf2baa1","sku":"_dhehehwZt9ox5gOyEyfh79Tw2ZwnQiTAPVJ5SBQ","name_en":"Graden party 休闲风格系列 也是H家很著名的入门款 设计比较低调 采用tc皮拼帆布材质 性价比很高 容量杠杠滴 size:30/36cm","name_cn":"Graden party 休闲风格系列 也是H家很著名的入门款 设计比较低调 采用tc皮拼帆布材质 性价比很高 容量杠杠滴 size:30/36cm","specs":{"source":"wsxcme","sourceId":"_dhehehwZt9ox5gOyEyfh79Tw2ZwnQiTAPVJ5SBQ","sourceTagId":76963559,"sourceTagName":"爱马仕/女包","rawTitle":"Graden party 休闲风格系列 也是H家很著名的入门款 设计比较低调 采用tc皮拼帆布材质 性价比很高 容量杠杠滴 size:30/36cm"},"price":null,"currency":"CNY","moq":1,"category":"hermes-women-bags","status":"active","alibaba_url":null,"images":["https://xcimg.szwego.com/20221119/a1668828903139_4478.jpg","https://xcimg.szwego.com/20221119/a1668828903336_6424.jpg","https://xcimg.szwego.com/20221119/a1668828903467_3143.jpg","https://xcimg.szwego.com/20221119/a1668828903550_6822.jpg","https://xcimg.szwego.com/20221119/a1668828903682_3517.jpg","https://xcimg.szwego.com/20221119/a1668828903781_7241.jpg","https://xcimg.szwego.com/20221119/a1668828903929_0726.jpg"],"created_at":"2024-10-22T05:00:12.142Z"},{"id":"item-31755ad089fa","sku":"_dv-v-jF6AylDttS6IYCc824ebKvydBCwsTllvVA","name_en":"Graden party 休闲风格系列 也是H家很著名的入门款 设计比较低调 采用tc皮拼帆布材质 性价比很高 容量杠杠滴 size:30cm","name_cn":"Graden party 休闲风格系列 也是H家很著名的入门款 设计比较低调 采用tc皮拼帆布材质 性价比很高 容量杠杠滴 size:30cm","specs":{"source":"wsxcme","sourceId":"_dv-v-jF6AylDttS6IYCc824ebKvydBCwsTllvVA","sourceTagId":76963559,"sourceTagName":"爱马仕/女包","rawTitle":"Graden party 休闲风格系列 也是H家很著名的入门款 设计比较低调 采用tc皮拼帆布材质 性价比很高 容量杠杠滴 size:30cm"},"price":null,"currency":"CNY","moq":1,"category":"hermes-women-bags","status":"active","alibaba_url":null,"images":["https://xcimg.szwego.com/20220930/a1664505191075_7051.jpg","https://xcimg.szwego.com/20220930/a1664505191245_6347.jpg","https://xcimg.szwego.com/20220930/a1664505191393_0021.jpg","https://xcimg.szwego.com/20220930/a1664505191519_2056.jpg","https://xcimg.szwego.com/20220930/a1664505191696_0711.jpg","https://xcimg.szwego.com/20220930/a1664505191837_7260.jpg","https://xcimg.szwego.com/20220930/a1664505192052_7466.jpg","https://xcimg.szwego.com/20220930/a1664505192200_5383.jpg","https://xcimg.szwego.com/20220930/a1664505192300_7076.jpg"],"created_at":"2024-10-22T05:00:12.141Z"},{"id":"item-c0f3d14cf2df","sku":"_dxoxopbhjzB1DzRel0KI9jS_-w2bWNg6gH4BPkg","name_en":"Graden party 休闲风格系列 也是H家很著名的入门款 设计比较低调 采用tc皮拼帆布材质 性价比很高 容量杠杠滴 size:30/36cm","name_cn":"Graden party 休闲风格系列 也是H家很著名的入门款 设计比较低调 采用tc皮拼帆布材质 性价比很高 容量杠杠滴 size:30/36cm","specs":{"source":"wsxcme","sourceId":"_dxoxopbhjzB1DzRel0KI9jS_-w2bWNg6gH4BPkg","sourceTagId":76963559,"sourceTagName":"爱马仕/女包","rawTitle":"Graden party 休闲风格系列 也是H家很著名的入门款 设计比较低调 采用tc皮拼帆布材质 性价比很高 容量杠杠滴 size:30/36cm"},"price":null,"currency":"CNY","moq":1,"category":"hermes-women-bags","status":"active","alibaba_url":null,"images":["https://xcimg.szwego.com/20221119/a1668828873673_6130.jpg","https://xcimg.szwego.com/20221119/a1668828873838_1471.jpg","https://xcimg.szwego.com/20221119/a1668828873952_2446.jpg","https://xcimg.szwego.com/20221119/a1668828874051_4821.jpg","https://xcimg.szwego.com/20221119/a1668828874167_4762.jpg","https://xcimg.szwego.com/20221119/a1668828874316_4602.jpg","https://xcimg.szwego.com/20221119/a1668828874429_8334.jpg"],"created_at":"2024-10-22T05:00:12.140Z"},{"id":"item-9961c5dba6f2","sku":"_d1y1ywIUFT-LQMQHWHwuDckBqlhnwsFbLlxRi8w","name_en":"Graden party 休闲风格系列 也是H家很著名的入门款 设计比较低调 采用tc皮拼帆布材质 性价比很高 容量杠杠滴 size:30cm","name_cn":"Graden party 休闲风格系列 也是H家很著名的入门款 设计比较低调 采用tc皮拼帆布材质 性价比很高 容量杠杠滴 size:30cm","specs":{"source":"wsxcme","sourceId":"_d1y1ywIUFT-LQMQHWHwuDckBqlhnwsFbLlxRi8w","sourceTagId":76963559,"sourceTagName":"爱马仕/女包","rawTitle":"Graden party 休闲风格系列 也是H家很著名的入门款 设计比较低调 采用tc皮拼帆布材质 性价比很高 容量杠杠滴 size:30cm"},"price":null,"currency":"CNY","moq":1,"category":"hermes-women-bags","status":"active","alibaba_url":null,"images":["https://xcimg.szwego.com/20220930/a1664504993480_6727.jpg","https://xcimg.szwego.com/20220930/a1664504993808_0378.jpg","https://xcimg.szwego.com/20220930/a1664504994066_7183.jpg","https://xcimg.szwego.com/20220930/a1664504994264_3587.jpg","https://xcimg.szwego.com/20220930/a1664504994437_0782.jpg","https://xcimg.szwego.com/20220930/a1664504994784_1751.jpg","https://xcimg.szwego.com/20220930/a1664504994978_5618.jpg","https://xcimg.szwego.com/20220930/a1664504995112_2243.jpg","https://xcimg.szwego.com/20220930/a1664504995243_1513.jpg"],"created_at":"2024-10-22T05:00:12.139Z"},{"id":"item-59806f12452f","sku":"_dhghgf9iatQeyPpRI_0jXKif3lE_9BdWh8pkFCA","name_en":"Graden party 休闲风格系列 也是H家很著名的入门款 设计比较低调 采用tc皮拼帆布材质 性价比很高 容量杠杠滴 size:30cm","name_cn":"Graden party 休闲风格系列 也是H家很著名的入门款 设计比较低调 采用tc皮拼帆布材质 性价比很高 容量杠杠滴 size:30cm","specs":{"source":"wsxcme","sourceId":"_dhghgf9iatQeyPpRI_0jXKif3lE_9BdWh8pkFCA","sourceTagId":76963559,"sourceTagName":"爱马仕/女包","rawTitle":"Graden party 休闲风格系列 也是H家很著名的入门款 设计比较低调 采用tc皮拼帆布材质 性价比很高 容量杠杠滴 size:30cm"},"price":null,"currency":"CNY","moq":1,"category":"hermes-women-bags","status":"active","alibaba_url":null,"images":["https://xcimg.szwego.com/20220930/a1664504098285_0453.jpg","https://xcimg.szwego.com/20220930/a1664504098483_5300.jpg","https://xcimg.szwego.com/20220930/a1664504098704_6020.jpg","https://xcimg.szwego.com/20220930/a1664504098866_3751.jpg","https://xcimg.szwego.com/20220930/a1664504099058_1804.jpg","https://xcimg.szwego.com/20220930/a1664504099180_4467.jpg","https://xcimg.szwego.com/20220930/a1664504099281_3884.jpg","https://xcimg.szwego.com/20220930/a1664504099423_3031.jpg","https://xcimg.szwego.com/20220930/a1664504099538_4124.jpg"],"created_at":"2024-10-22T05:00:12.138Z"},{"id":"item-3153db2a8a3d","sku":"_dt4t4oCC-DBCYzq9MqXaLtNYOSTdYZX2fXPE1IQ","name_en":"Graden party 休闲风格系列 也是H家很著名的入门款 设计比较低调 采用tc皮拼帆布材质 性价比很高 容量杠杠滴 size:30cm","name_cn":"Graden party 休闲风格系列 也是H家很著名的入门款 设计比较低调 采用tc皮拼帆布材质 性价比很高 容量杠杠滴 size:30cm","specs":{"source":"wsxcme","sourceId":"_dt4t4oCC-DBCYzq9MqXaLtNYOSTdYZX2fXPE1IQ","sourceTagId":76963559,"sourceTagName":"爱马仕/女包","rawTitle":"Graden party 休闲风格系列 也是H家很著名的入门款 设计比较低调 采用tc皮拼帆布材质 性价比很高 容量杠杠滴 size:30cm"},"price":null,"currency":"CNY","moq":1,"category":"hermes-women-bags","status":"active","alibaba_url":null,"images":["https://xcimg.szwego.com/20220930/a1664504172353_2746.jpg","https://xcimg.szwego.com/20220930/a1664504172500_8482.jpg","https://xcimg.szwego.com/20220930/a1664504172662_1500.jpg","https://xcimg.szwego.com/20220930/a1664504172802_3411.jpg","https://xcimg.szwego.com/20220930/a1664504172942_3743.jpg","https://xcimg.szwego.com/20220930/a1664504173081_7101.jpg","https://xcimg.szwego.com/20220930/a1664504173175_7812.jpg","https://xcimg.szwego.com/20220930/a1664504173264_4865.jpg","https://xcimg.szwego.com/20220930/a1664504173403_8668.jpg"],"created_at":"2024-10-22T05:00:12.137Z"},{"id":"item-f2b6ce779d93","sku":"_dQcQc8ogPJQ4427O6XI-uFRUMcr3pM7J8AssA6Q","name_en":"Graden party 休闲风格系列 也是H家很著名的入门款 设计比较低调 采用tc皮拼帆布材质 性价比很高 容量杠杠滴 size:30cm 36cm","name_cn":"Graden party 休闲风格系列 也是H家很著名的入门款 设计比较低调 采用tc皮拼帆布材质 性价比很高 容量杠杠滴 size:30cm 36cm","specs":{"source":"wsxcme","sourceId":"_dQcQc8ogPJQ4427O6XI-uFRUMcr3pM7J8AssA6Q","sourceTagId":76963559,"sourceTagName":"爱马仕/女包","rawTitle":"Graden party 休闲风格系列 也是H家很著名的入门款 设计比较低调 采用tc皮拼帆布材质 性价比很高 容量杠杠滴 size:30cm 36cm"},"price":null,"currency":"CNY","moq":1,"category":"hermes-women-bags","status":"active","alibaba_url":null,"images":["https://xcimg.szwego.com/20221018/a1666073094269_6888.jpg","https://xcimg.szwego.com/20221018/a1666073094406_1166.jpg","https://xcimg.szwego.com/20221018/a1666073094493_0872.jpg","https://xcimg.szwego.com/20221018/a1666073094630_5827.jpg","https://xcimg.szwego.com/20221018/a1666073094741_6747.jpg","https://xcimg.szwego.com/20221018/a1666073094855_7347.jpg","https://xcimg.szwego.com/20221018/a1666073094953_0071.jpg","https://xcimg.szwego.com/20221018/a1666073095141_7377.jpg","https://xcimg.szwego.com/20221018/a1666073095253_3813.jpg"],"created_at":"2024-10-22T05:00:12.136Z"},{"id":"item-c6a0ff3bd596","sku":"_dxfxfcmR9k9vMduVLk70rQKNYGcdhaUuVZglXBw","name_en":"Graden party 休闲风格系列 也是H家很著名的入门款 设计比较低调 采用tc皮拼帆布材质 性价比很高 容量杠杠滴 size:30cm 36cm","name_cn":"Graden party 休闲风格系列 也是H家很著名的入门款 设计比较低调 采用tc皮拼帆布材质 性价比很高 容量杠杠滴 size:30cm 36cm","specs":{"source":"wsxcme","sourceId":"_dxfxfcmR9k9vMduVLk70rQKNYGcdhaUuVZglXBw","sourceTagId":76963559,"sourceTagName":"爱马仕/女包","rawTitle":"Graden party 休闲风格系列 也是H家很著名的入门款 设计比较低调 采用tc皮拼帆布材质 性价比很高 容量杠杠滴 size:30cm 36cm"},"price":null,"currency":"CNY","moq":1,"category":"hermes-women-bags","status":"active","alibaba_url":null,"images":["https://xcimg.szwego.com/20221001/a1664625341743_7572.jpg","https://xcimg.szwego.com/20221001/a1664625341914_1554.jpg","https://xcimg.szwego.com/20221001/a1664625342113_7076.jpg","https://xcimg.szwego.com/20221001/a1664625342257_4450.jpg","https://xcimg.szwego.com/20221001/a1664625342355_4504.jpg","https://xcimg.szwego.com/20221001/a1664625342461_5011.jpg","https://xcimg.szwego.com/20221001/a1664625342572_4451.jpg","https://xcimg.szwego.com/20221001/a1664625342680_6276.jpg","https://xcimg.szwego.com/20221001/a1664625342803_6400.jpg"],"created_at":"2024-10-22T05:00:12.135Z"},{"id":"item-b5bc4d8eec8f","sku":"_djJjJhgXLMKUsBn1M2SFhgARufjKOASY5iE-ZNQ","name_en":"Graden party 休闲风格系列 也是H家很著名的入门款 设计比较低调 采用tc皮拼帆布材质 性价比很高 容量杠杠滴 size:30cm 36cm","name_cn":"Graden party 休闲风格系列 也是H家很著名的入门款 设计比较低调 采用tc皮拼帆布材质 性价比很高 容量杠杠滴 size:30cm 36cm","specs":{"source":"wsxcme","sourceId":"_djJjJhgXLMKUsBn1M2SFhgARufjKOASY5iE-ZNQ","sourceTagId":76963559,"sourceTagName":"爱马仕/女包","rawTitle":"Graden party 休闲风格系列 也是H家很著名的入门款 设计比较低调 采用tc皮拼帆布材质 性价比很高 容量杠杠滴 size:30cm 36cm"},"price":null,"currency":"CNY","moq":1,"category":"hermes-women-bags","status":"active","alibaba_url":null,"images":["https://xcimg.szwego.com/20221018/a1666073017099_2120.jpg","https://xcimg.szwego.com/20221018/a1666073017310_4186.jpg","https://xcimg.szwego.com/20221018/a1666073017427_4861.jpg","https://xcimg.szwego.com/20221018/a1666073017526_0434.jpg","https://xcimg.szwego.com/20221018/a1666073017624_6560.jpg","https://xcimg.szwego.com/20221018/a1666073017723_0700.jpg","https://xcimg.szwego.com/20221018/a1666073017821_7455.jpg","https://xcimg.szwego.com/20221018/a1666073017944_0113.jpg","https://xcimg.szwego.com/20221018/a1666073018087_2584.jpg"],"created_at":"2024-10-22T05:00:12.134Z"},{"id":"item-a7b17da9a899","sku":"_dkfkfKs5Z4o96iIOV6FXfm8IjY-7U4al0Pdj4MQ","name_en":"Graden party 休闲风格系列 也是H家很著名的入门款 设计比较低调 采用tc皮拼帆布材质 性价比很高 容量杠杠滴 size:30cm","name_cn":"Graden party 休闲风格系列 也是H家很著名的入门款 设计比较低调 采用tc皮拼帆布材质 性价比很高 容量杠杠滴 size:30cm","specs":{"source":"wsxcme","sourceId":"_dkfkfKs5Z4o96iIOV6FXfm8IjY-7U4al0Pdj4MQ","sourceTagId":76963559,"sourceTagName":"爱马仕/女包","rawTitle":"Graden party 休闲风格系列 也是H家很著名的入门款 设计比较低调 采用tc皮拼帆布材质 性价比很高 容量杠杠滴 size:30cm"},"price":null,"currency":"CNY","moq":1,"category":"hermes-women-bags","status":"active","alibaba_url":null,"images":["https://xcimg.szwego.com/20221018/a1666072960145_6160.jpg","https://xcimg.szwego.com/20221018/a1666072960644_4265.jpg","https://xcimg.szwego.com/20221018/a1666072960758_0774.jpg","https://xcimg.szwego.com/20221018/a1666072960888_2588.jpg","https://xcimg.szwego.com/20221018/a1666072960986_0232.jpg","https://xcimg.szwego.com/20221018/a1666072961084_1381.jpg","https://xcimg.szwego.com/20221018/a1666072961216_2762.jpg","https://xcimg.szwego.com/20221018/a1666072961348_0828.jpg","https://xcimg.szwego.com/20221018/a1666072961463_2227.jpg"],"created_at":"2024-10-22T05:00:12.133Z"},{"id":"item-3c95d2f68480","sku":"_dEmEmZvIzEue-xQSgtljAQ4_y7QEST_B_DqVttg","name_en":"Graden party 休闲风格系列 也是H家很著名的入门款 设计比较低调 采用tc皮拼帆布材质 性价比很高 容量杠杠滴 size:30cm","name_cn":"Graden party 休闲风格系列 也是H家很著名的入门款 设计比较低调 采用tc皮拼帆布材质 性价比很高 容量杠杠滴 size:30cm","specs":{"source":"wsxcme","sourceId":"_dEmEmZvIzEue-xQSgtljAQ4_y7QEST_B_DqVttg","sourceTagId":76963559,"sourceTagName":"爱马仕/女包","rawTitle":"Graden party 休闲风格系列 也是H家很著名的入门款 设计比较低调 采用tc皮拼帆布材质 性价比很高 容量杠杠滴 size:30cm"},"price":null,"currency":"CNY","moq":1,"category":"hermes-women-bags","status":"active","alibaba_url":null,"images":["https://xcimg.szwego.com/20221119/a1668828663895_4776.jpg","https://xcimg.szwego.com/20221119/a1668828664051_2583.jpg","https://xcimg.szwego.com/20221119/a1668828664143_1520.jpg","https://xcimg.szwego.com/20221119/a1668828664241_7023.jpg","https://xcimg.szwego.com/20221119/a1668828664374_2826.jpg","https://xcimg.szwego.com/20221119/a1668828664489_4554.jpg","https://xcimg.szwego.com/20221119/a1668828664612_0710.jpg","https://xcimg.szwego.com/20221119/a1668828664761_5681.jpg","https://xcimg.szwego.com/20221119/a1668828664883_1125.jpg"],"created_at":"2024-10-22T05:00:12.132Z"},{"id":"item-f8537286151a","sku":"_d8y8y1nigh5yY9He8_JQXzUbacx-pZ9ogjDPzVg","name_en":"Graden party 休闲风格系列 也是H家很著名的入门款 设计比较低调 采用tc皮拼帆布材质 性价比很高 容量杠杠滴 size:30cm","name_cn":"Graden party 休闲风格系列 也是H家很著名的入门款 设计比较低调 采用tc皮拼帆布材质 性价比很高 容量杠杠滴 size:30cm","specs":{"source":"wsxcme","sourceId":"_d8y8y1nigh5yY9He8_JQXzUbacx-pZ9ogjDPzVg","sourceTagId":76963559,"sourceTagName":"爱马仕/女包","rawTitle":"Graden party 休闲风格系列 也是H家很著名的入门款 设计比较低调 采用tc皮拼帆布材质 性价比很高 容量杠杠滴 size:30cm"},"price":null,"currency":"CNY","moq":1,"category":"hermes-women-bags","status":"active","alibaba_url":null,"images":["https://xcimg.szwego.com/20221119/a1668828621471_6078.jpg","https://xcimg.szwego.com/20221119/a1668828621752_1354.jpg","https://xcimg.szwego.com/20221119/a1668828621868_5007.jpg","https://xcimg.szwego.com/20221119/a1668828621982_5728.jpg","https://xcimg.szwego.com/20221119/a1668828622066_7503.jpg","https://xcimg.szwego.com/20221119/a1668828622212_1864.jpg","https://xcimg.szwego.com/20221119/a1668828622297_1735.jpg","https://xcimg.szwego.com/20221119/a1668828622442_1300.jpg","https://xcimg.szwego.com/20221119/a1668828622607_1871.jpg"],"created_at":"2024-10-22T05:00:12.131Z"},{"id":"item-f7af570df2a9","sku":"_dHMHMweOgXJtZ6PVpIlqkGIRQ_dlGdRpmMMBaog","name_en":"KL25 touch","name_cn":"KL25 touch\nhaas原厂epsom拼高光鳄鱼皮\n全手缝蜡线 全钢五金 内里原版山羊皮","specs":{"source":"wsxcme","sourceId":"_dHMHMweOgXJtZ6PVpIlqkGIRQ_dlGdRpmMMBaog","sourceTagId":76963559,"sourceTagName":"爱马仕/女包","rawTitle":"KL25 touch\nhaas原厂epsom拼高光鳄鱼皮\n全手缝蜡线 全钢五金 内里原版山羊皮"},"price":null,"currency":"CNY","moq":1,"category":"hermes-women-bags","status":"active","alibaba_url":null,"images":["https://xcimg.szwego.com/img/9ee4266d/20240808/i1723087531_9522_0.jpg","https://xcimg.szwego.com/img/9ee4266d/20240808/i1723087531_8291_0.jpg","https://xcimg.szwego.com/img/9ee4266d/20240808/i1723087531_8812_0.jpg","https://xcimg.szwego.com/img/9ee4266d/20240808/i1723087531_1455_0.jpg","https://xcimg.szwego.com/img/9ee4266d/20240808/i1723087531_5516_0.jpg","https://xcimg.szwego.com/img/9ee4266d/20240808/i1723087531_8945_0.jpg","https://xcimg.szwego.com/img/9ee4266d/20240808/i1723087531_9310_0.jpg","https://xcimg.szwego.com/img/9ee4266d/20240808/i1723087531_112_0.jpg","https://xcimg.szwego.com/img/9ee4266d/20240808/i1723087531_2455_0.jpg","https://xcimg.szwego.com/img/9ee4266d/20240808/i1723087531_7608_0.jpg","https://xcimg.szwego.com/img/9ee4266d/20240808/i1723087531_5514_0.jpg"],"created_at":"2024-10-22T04:49:50.826Z"},{"id":"item-7f03f3db22f9","sku":"_dNKNKm60Digx_FPVjGVZ0SnWwQViZH3H0pBKrcA","name_en":"KL25 touch","name_cn":"KL25 touch\nhaas原厂epsom拼高光鳄鱼皮\n全手缝蜡线 全钢五金 内里原版山羊皮","specs":{"source":"wsxcme","sourceId":"_dNKNKm60Digx_FPVjGVZ0SnWwQViZH3H0pBKrcA","sourceTagId":76963559,"sourceTagName":"爱马仕/女包","rawTitle":"KL25 touch\nhaas原厂epsom拼高光鳄鱼皮\n全手缝蜡线 全钢五金 内里原版山羊皮"},"price":null,"currency":"CNY","moq":1,"category":"hermes-women-bags","status":"active","alibaba_url":null,"images":["https://xcimg.szwego.com/img/9ee4266d/20240808/i1723087485_1158_0.jpg","https://xcimg.szwego.com/img/9ee4266d/20240808/i1723087485_1591_0.jpg","https://xcimg.szwego.com/img/9ee4266d/20240808/i1723087485_64_0.jpg","https://xcimg.szwego.com/img/9ee4266d/20240808/i1723087484_809_0.jpg","https://xcimg.szwego.com/img/9ee4266d/20240808/i1723087485_590_0.jpg","https://xcimg.szwego.com/img/9ee4266d/20240808/i1723087484_701_0.jpg","https://xcimg.szwego.com/img/9ee4266d/20240808/i1723087484_280_0.jpg","https://xcimg.szwego.com/img/9ee4266d/20240808/i1723087484_1620_0.jpg","https://xcimg.szwego.com/img/9ee4266d/20240808/i1723087485_693_0.jpg","https://xcimg.szwego.com/img/9ee4266d/20240808/i1723087485_8936_0.jpg","https://xcimg.szwego.com/img/9ee4266d/20240808/i1723087485_50_0.jpg"],"created_at":"2024-10-22T04:49:50.825Z"},{"id":"item-33a82ab83647","sku":"_dWaWad-dqi0BDt-FXETAJxcuyvD9EPmO6ZEe-mw","name_en":"KL25 touch","name_cn":"KL25 touch\nhaas原厂epsom拼高光鳄鱼皮\n全手缝蜡线 全钢五金 内里原版山羊皮","specs":{"source":"wsxcme","sourceId":"_dWaWad-dqi0BDt-FXETAJxcuyvD9EPmO6ZEe-mw","sourceTagId":76963559,"sourceTagName":"爱马仕/女包","rawTitle":"KL25 touch\nhaas原厂epsom拼高光鳄鱼皮\n全手缝蜡线 全钢五金 内里原版山羊皮"},"price":null,"currency":"CNY","moq":1,"category":"hermes-women-bags","status":"active","alibaba_url":null,"images":["https://xcimg.szwego.com/img/9ee4266d/20240808/i1723087446_5534_0.jpg","https://xcimg.szwego.com/img/9ee4266d/20240808/i1723087446_5544_0.jpg","https://xcimg.szwego.com/img/9ee4266d/20240808/i1723087446_9283_0.jpg","https://xcimg.szwego.com/img/9ee4266d/20240808/i1723087446_3456_0.jpg","https://xcimg.szwego.com/img/9ee4266d/20240808/i1723087446_2607_0.jpg","https://xcimg.szwego.com/img/9ee4266d/20240808/i1723087446_2153_0.jpg","https://xcimg.szwego.com/img/9ee4266d/20240808/i1723087446_4932_0.jpg","https://xcimg.szwego.com/img/9ee4266d/20240808/i1723087446_5826_0.jpg","https://xcimg.szwego.com/img/9ee4266d/20240808/i1723087446_4104_0.jpg","https://xcimg.szwego.com/img/9ee4266d/20240808/i1723087446_1237_0.jpg"],"created_at":"2024-10-22T04:49:50.824Z"},{"id":"item-66dec0b84ec8","sku":"_dkBkBQp5QPaZcrY6rw1UUPjRIgfePg4GDPyAXvw","name_en":"KL25 touch","name_cn":"KL25 touch\nhaas原厂epsom拼高光鳄鱼皮\n全手缝蜡线 全钢五金 内里原版山羊皮","specs":{"source":"wsxcme","sourceId":"_dkBkBQp5QPaZcrY6rw1UUPjRIgfePg4GDPyAXvw","sourceTagId":76963559,"sourceTagName":"爱马仕/女包","rawTitle":"KL25 touch\nhaas原厂epsom拼高光鳄鱼皮\n全手缝蜡线 全钢五金 内里原版山羊皮"},"price":null,"currency":"CNY","moq":1,"category":"hermes-women-bags","status":"active","alibaba_url":null,"images":["https://xcimg.szwego.com/img/9ee4266d/20240808/i1723087379_7932_0.jpg","https://xcimg.szwego.com/img/9ee4266d/20240808/i1723087379_407_0.jpg","https://xcimg.szwego.com/img/9ee4266d/20240808/i1723087379_435_0.jpg","https://xcimg.szwego.com/img/9ee4266d/20240808/i1723087379_6791_0.jpg","https://xcimg.szwego.com/img/9ee4266d/20240808/i1723087379_8643_0.jpg","https://xcimg.szwego.com/img/9ee4266d/20240808/i1723087379_7764_0.jpg","https://xcimg.szwego.com/img/9ee4266d/20240808/i1723087379_8646_0.jpg","https://xcimg.szwego.com/img/9ee4266d/20240808/i1723087379_149_0.jpg","https://xcimg.szwego.com/img/9ee4266d/20240808/i1723087379_2450_0.jpg"],"created_at":"2024-10-22T04:49:50.823Z"},{"id":"item-db9136ad5ccf","sku":"_dozozaSIgaT27EvfMEf1qB90DOL92DSnsiysDSQ","name_en":"KL25 touch","name_cn":"KL25 touch\nhaas原厂epsom拼高光鳄鱼皮\n全手缝蜡线 全钢五金 内里原版山羊皮","specs":{"source":"wsxcme","sourceId":"_dozozaSIgaT27EvfMEf1qB90DOL92DSnsiysDSQ","sourceTagId":76963559,"sourceTagName":"爱马仕/女包","rawTitle":"KL25 touch\nhaas原厂epsom拼高光鳄鱼皮\n全手缝蜡线 全钢五金 内里原版山羊皮"},"price":null,"currency":"CNY","moq":1,"category":"hermes-women-bags","status":"active","alibaba_url":null,"images":["https://xcimg.szwego.com/img/9ee4266d/20240808/i1723087286_3373_0.jpg","https://xcimg.szwego.com/img/9ee4266d/20240808/i1723087287_1124_0.jpg","https://xcimg.szwego.com/img/9ee4266d/20240808/i1723087286_9527_0.jpg","https://xcimg.szwego.com/img/9ee4266d/20240808/i1723087286_8615_0.jpg","https://xcimg.szwego.com/img/9ee4266d/20240808/i1723087287_6545_0.jpg","https://xcimg.szwego.com/img/9ee4266d/20240808/i1723087286_9638_0.jpg","https://xcimg.szwego.com/img/9ee4266d/20240808/i1723087286_1553_0.jpg","https://xcimg.szwego.com/img/9ee4266d/20240808/i1723087286_3911_0.jpg","https://xcimg.szwego.com/img/9ee4266d/20240808/i1723087286_1153_0.jpg"],"created_at":"2024-10-22T04:49:50.822Z"},{"id":"item-de7e5a6d069f","sku":"_dbHbHTzoOnmmoPtCu3IuZxdyDq69zBsLPpObYeQ","name_en":"KL25 touch","name_cn":"KL25 touch\nhaas原厂epsom拼高光鳄鱼皮\n全手缝蜡线 全钢五金 内里原版山羊皮","specs":{"source":"wsxcme","sourceId":"_dbHbHTzoOnmmoPtCu3IuZxdyDq69zBsLPpObYeQ","sourceTagId":76963559,"sourceTagName":"爱马仕/女包","rawTitle":"KL25 touch\nhaas原厂epsom拼高光鳄鱼皮\n全手缝蜡线 全钢五金 内里原版山羊皮"},"price":null,"currency":"CNY","moq":1,"category":"hermes-women-bags","status":"active","alibaba_url":null,"images":["https://xcimg.szwego.com/img/9ee4266d/20240808/i1723087232_6272_0.jpg","https://xcimg.szwego.com/img/9ee4266d/20240808/i1723087232_8507_0.jpg","https://xcimg.szwego.com/img/9ee4266d/20240808/i1723087232_361_0.jpg","https://xcimg.szwego.com/img/9ee4266d/20240808/i1723087232_138_0.jpg","https://xcimg.szwego.com/img/9ee4266d/20240808/i1723087232_1657_0.jpg","https://xcimg.szwego.com/img/9ee4266d/20240808/i1723087232_4961_0.jpg","https://xcimg.szwego.com/img/9ee4266d/20240808/i1723087232_5846_0.jpg","https://xcimg.szwego.com/img/9ee4266d/20240808/i1723087232_1355_0.jpg","https://xcimg.szwego.com/img/9ee4266d/20240808/i1723087232_8395_0.jpg","https://xcimg.szwego.com/img/9ee4266d/20240808/i1723087232_7416_0.jpg","https://xcimg.szwego.com/img/9ee4266d/20240808/i1723087232_2431_0.jpg"],"created_at":"2024-10-22T04:49:50.821Z"}],"page":12,"pageSize":24,"total":439,"totalPages":19}
