{"items":[{"id":"item-3bf9354c2b62","sku":"_dhQhQiDKZjOyHE_H91bRnGFuO5yfCSIHb4W9Hiw","name_en":"Gucci Women Bags","name_cn":"【独家背景】实物实拍品质 款号:651055啡棕  🌊🌊尺寸25✖️17.5✖️7","specs":{"source":"wsxcme","sourceId":"_dhQhQiDKZjOyHE_H91bRnGFuO5yfCSIHb4W9Hiw","sourceTagId":47002679,"sourceTagName":"古驰/女包","modelNumber":"651055啡棕  🌊🌊尺寸25✖️17.5✖️7","rawTitle":"【独家背景】实物实拍品质 款号:651055啡棕  🌊🌊尺寸25✖️17.5✖️7"},"price":null,"currency":"CNY","moq":1,"category":"gucci-women-bags","status":"active","alibaba_url":null,"images":["https://xcimg.szwego.com/img/ac9333ee/20251005/i1759643743731_112_0_0.jpg","https://xcimg.szwego.com/img/ac9333ee/20251005/i1759643742885_8926_0_1.jpg","https://xcimg.szwego.com/img/ac9333ee/20251005/i1759643743759_5584_0_2.jpg","https://xcimg.szwego.com/img/ac9333ee/20251005/i1759643743727_1342_0_3.jpg","https://xcimg.szwego.com/img/ac9333ee/20251005/i1759643742850_616_0_4.jpg","https://xcimg.szwego.com/img/ac9333ee/20251005/i1759643742921_531_0_5.jpg","https://xcimg.szwego.com/img/ac9333ee/20251005/i1759643742819_9178_0_6.jpg","https://xcimg.szwego.com/img/ac9333ee/20251005/i1759643742906_873_0_7.jpg","https://xcimg.szwego.com/img/ac9333ee/20251005/i1759643743642_9331_0_8.jpg"],"created_at":"2026-06-29T11:04:23.204Z"},{"id":"item-37b2baab1ea9","sku":"_dd3d3e1tjt0j9wP75ECaWuUQK6KWPtKbMy_TfSQ","name_en":"Gucci Women Bags","name_cn":"。💖《配全套原厂绿盒包装》💖【新款】钩扣开合小号托特包\n这款小号托特包沿用弹簧钩扣开合设计。象牙白色皮革呈献别致的天然粒纹,尽显精致风范。这款手提包搭配可拆卸和可调节肩带,可容纳日常必需品,适配各种场合。\n象牙白色天然粒纹皮革\n浅金色调配件\n皮革衬里\n内部:2个开口口袋\n提手(7厘米高)\n可拆卸可调节肩带(可在50厘米与54厘米之间调节)\n包带长度:112厘米\n钩扣开合\n重量:约0.6千克\n最大可容纳:iPhone Plus、Airpods耳机、钱包和唇膏\n型号:795349。\n尺寸:24(长)x 17.5(宽)x 8.5(厚)\n颜色:象牙白/原厂皮。\n意大利创作","specs":{"source":"wsxcme","sourceId":"_dd3d3e1tjt0j9wP75ECaWuUQK6KWPtKbMy_TfSQ","sourceTagId":47002679,"sourceTagName":"古驰/女包","modelNumber":"795349","rawTitle":"。💖《配全套原厂绿盒包装》💖【新款】钩扣开合小号托特包\n这款小号托特包沿用弹簧钩扣开合设计。象牙白色皮革呈献别致的天然粒纹,尽显精致风范。这款手提包搭配可拆卸和可调节肩带,可容纳日常必需品,适配各种场合。\n象牙白色天然粒纹皮革\n浅金色调配件\n皮革衬里\n内部:2个开口口袋\n提手(7厘米高)\n可拆卸可调节肩带(可在50厘米与54厘米之间调节)\n包带长度:112厘米\n钩扣开合\n重量:约0.6千克\n最大可容纳:iPhone Plus、Airpods耳机、钱包和唇膏\n型号:795349。\n尺寸:24(长)x 17.5(宽)x 8.5(厚)\n颜色:象牙白/原厂皮。\n意大利创作"},"price":null,"currency":"CNY","moq":1,"category":"gucci-women-bags","status":"active","alibaba_url":null,"images":["https://xcimg.szwego.com/img/436fb7be/20241003/i1727930227_6872_0.jpg","https://xcimg.szwego.com/img/436fb7be/20241003/i1727930227_5468_0.jpg","https://xcimg.szwego.com/img/436fb7be/20241003/i1727930227_3347_0.jpg","https://xcimg.szwego.com/img/436fb7be/20241003/i1727930227_879_0.jpg","https://xcimg.szwego.com/img/436fb7be/20241003/i1727930227_7015_0.jpg","https://xcimg.szwego.com/img/436fb7be/20241003/i1727930227_4279_0.jpg","https://xcimg.szwego.com/img/436fb7be/20241003/i1727930227_3903_0.jpg","https://xcimg.szwego.com/img/436fb7be/20241003/i1727930227_8009_0.jpg","https://xcimg.szwego.com/img/436fb7be/20241003/i1727930227_6272_0.jpg"],"created_at":"2024-10-19T03:21:42.617Z"},{"id":"item-374c1398f713","sku":"_dtftfeic2MoxXHunWKuXRRPKAmqabVC_XQRDkdg","name_en":"Gucci Women Bags","name_cn":"型号 781392 大号\n尺寸 34/32/17cm \n\nGucci Ophidia hobo腋下包\n今天的气场是hobo给的!!!\n这个包真的非常融入日常,随性又时髦\n包身容量很大但又轻便小巧能很好的满足日常出门\n而且肩带比一般的腋下包都长一些还可以调节\n一见钟情,时髦使用同时兼顾!","specs":{"source":"wsxcme","sourceId":"_dtftfeic2MoxXHunWKuXRRPKAmqabVC_XQRDkdg","sourceTagId":47002679,"sourceTagName":"古驰/女包","modelNumber":"781392 大号","rawTitle":"型号 781392 大号\n尺寸 34/32/17cm \n\nGucci Ophidia hobo腋下包\n今天的气场是hobo给的!!!\n这个包真的非常融入日常,随性又时髦\n包身容量很大但又轻便小巧能很好的满足日常出门\n而且肩带比一般的腋下包都长一些还可以调节\n一见钟情,时髦使用同时兼顾!"},"price":null,"currency":"CNY","moq":1,"category":"gucci-women-bags","status":"active","alibaba_url":null,"images":["https://xcimg.szwego.com/img/d06f5dea/20240702/i1719894815_6086_8.jpg","https://xcimg.szwego.com/img/d06f5dea/20240702/i1719894815_8960_2.jpg","https://xcimg.szwego.com/img/d06f5dea/20240702/i1719894815_2474_5.jpg","https://xcimg.szwego.com/img/d06f5dea/20240702/i1719894815_8896_0.jpg","https://xcimg.szwego.com/img/d06f5dea/20240702/i1719894815_4008_7.jpg","https://xcimg.szwego.com/img/d06f5dea/20240702/i1719894815_3597_3.jpg","https://xcimg.szwego.com/img/d06f5dea/20240702/i1719894815_2135_4.jpg","https://xcimg.szwego.com/img/d06f5dea/20240702/i1719894815_1785_1.jpg","https://xcimg.szwego.com/img/d06f5dea/20240702/i1719894815_5638_6.jpg"],"created_at":"2026-05-20T03:19:23.328Z"},{"id":"item-36cf5cf6c46c","sku":"_dvbvbTC6jfvmy_OfgzayJQxddkABKWRH5I-xBgQ","name_en":"Gucci Women Bags","name_cn":"实拍#       只做头层皮 真牛皮\n\n款号:308364杏色\n尺寸:21x15x7cm\n\nGG disco soho相机包. 经典永不会过时\n浮雕双G配上皮革流苏.头层牛皮 超级软\n斜挎✅单肩✅手拿✅","specs":{"source":"wsxcme","sourceId":"_dvbvbTC6jfvmy_OfgzayJQxddkABKWRH5I-xBgQ","sourceTagId":47002679,"sourceTagName":"古驰/女包","modelNumber":"308364杏色","dimensions":{"lengthCm":21,"heightCm":15,"widthCm":7},"rawTitle":"实拍#       只做头层皮 真牛皮\n\n款号:308364杏色\n尺寸:21x15x7cm\n\nGG disco soho相机包. 经典永不会过时\n浮雕双G配上皮革流苏.头层牛皮 超级软\n斜挎✅单肩✅手拿✅"},"price":null,"currency":"CNY","moq":1,"category":"gucci-women-bags","status":"active","alibaba_url":null,"images":["https://xcimg.szwego.com/20221027/i1666863777_1639_0.jpg","https://xcimg.szwego.com/20221027/i1666863777_8799_1.jpg","https://xcimg.szwego.com/20221027/i1666863777_6480_2.jpg","https://xcimg.szwego.com/20221027/i1666863777_5202_3.jpg","https://xcimg.szwego.com/20221027/i1666863777_3885_4.jpg","https://xcimg.szwego.com/20221027/i1666863777_5055_5.jpg","https://xcimg.szwego.com/20221027/i1666863777_7227_6.jpg","https://xcimg.szwego.com/20221027/i1666863777_9835_7.jpg","https://xcimg.szwego.com/20221027/i1666863777_5342_8.jpg"],"created_at":"2024-11-26T11:46:47.175Z"},{"id":"item-34d8864c57cf","sku":"_dPpPpxhJA6AhGo1aDcDRoG_tAH6twE912yU3YUA","name_en":"Gucci Women Bags","name_cn":"爆款新月包\n顶级(原厂皮)\n731817尺寸25x 19x 7\n配礼盒","specs":{"source":"wsxcme","sourceId":"_dPpPpxhJA6AhGo1aDcDRoG_tAH6twE912yU3YUA","sourceTagId":47002679,"sourceTagName":"古驰/女包","rawTitle":"爆款新月包\n顶级(原厂皮)\n731817尺寸25x 19x 7\n配礼盒"},"price":null,"currency":"CNY","moq":1,"category":"gucci-women-bags","status":"active","alibaba_url":null,"images":["https://xcimg.szwego.com/20230312/i1678552293_152_0.jpg","https://xcimg.szwego.com/20230312/i1678552293_8067_1.jpg","https://xcimg.szwego.com/20230312/i1678552293_669_2.jpg","https://xcimg.szwego.com/20230312/i1678552293_4467_3.jpg","https://xcimg.szwego.com/20230312/i1678552293_3850_4.jpg","https://xcimg.szwego.com/20230312/i1678552293_6581_5.jpg","https://xcimg.szwego.com/20230312/i1678552293_728_6.jpg","https://xcimg.szwego.com/20230312/i1678552293_289_7.jpg","https://xcimg.szwego.com/20230312/i1678552293_4988_8.jpg"],"created_at":"2024-11-26T11:46:47.126Z"},{"id":"item-31c440f21de2","sku":"_dl7l7HRU5AhB0MXPFL8XYPs5HJGq7RPBLS3h9eQ","name_en":"Gucci Women Bags","name_cn":"🔥爆款回货","specs":{"source":"wsxcme","sourceId":"_dl7l7HRU5AhB0MXPFL8XYPs5HJGq7RPBLS3h9eQ","sourceTagId":47002679,"sourceTagName":"古驰/女包","rawTitle":"🔥爆款回货"},"price":null,"currency":"CNY","moq":1,"category":"gucci-women-bags","status":"active","alibaba_url":null,"images":["https://xcimg.szwego.com/img/7f9d4644/20260125/i1769322365609_4681_0_0.jpg","https://xcimg.szwego.com/img/7f9d4644/20260125/i1769322365609_2952_0_1.jpg","https://xcimg.szwego.com/img/7f9d4644/20260125/i1769322365609_7740_0_2.jpg","https://xcimg.szwego.com/img/7f9d4644/20260125/i1769322365609_4706_0_3.jpg"],"created_at":"2026-05-20T03:19:23.858Z"},{"id":"item-2caef3cb9509","sku":"_duhuhF7sd44j8CHyHsTuOjP5uebPB3aTRfNShxQ","name_en":"Gucci Women Bags","name_cn":"▪️上身效果\n你想的背法,Jackie 1961全面满足","specs":{"source":"wsxcme","sourceId":"_duhuhF7sd44j8CHyHsTuOjP5uebPB3aTRfNShxQ","sourceTagId":47002679,"sourceTagName":"古驰/女包","rawTitle":"▪️上身效果\n你想的背法,Jackie 1961全面满足"},"price":null,"currency":"CNY","moq":1,"category":"gucci-women-bags","status":"active","alibaba_url":null,"images":["https://xcimg.szwego.com/img/7f9d4644/20260202/i1770015640972_974_0_0.jpg","https://xcimg.szwego.com/img/7f9d4644/20260202/i1770015640972_1779_0_1.jpg","https://xcimg.szwego.com/img/7f9d4644/20260202/i1770015641955_194_0_2.jpg","https://xcimg.szwego.com/img/7f9d4644/20260202/i1770015640973_9138_0_3.jpg","https://xcimg.szwego.com/img/7f9d4644/20260202/i1770015640972_1088_0_4.jpg","https://xcimg.szwego.com/img/7f9d4644/20260202/i1770015640973_2303_0_5.jpg"],"created_at":"2026-05-20T03:19:23.538Z"},{"id":"item-2c3dd0fc1a7f","sku":"_dlElEyVhhG3vMdKy6xmaVUVCBYP481btfRI2JVg","name_en":"Gucci Women Bags","name_cn":"782849安可拉红漆皮\n安可拉红 outfit | 今年流行色统治者\n在安可拉红中看到无限可能性","specs":{"source":"wsxcme","sourceId":"_dlElEyVhhG3vMdKy6xmaVUVCBYP481btfRI2JVg","sourceTagId":47002679,"sourceTagName":"古驰/女包","rawTitle":"782849安可拉红漆皮\n安可拉红 outfit | 今年流行色统治者\n在安可拉红中看到无限可能性"},"price":null,"currency":"CNY","moq":1,"category":"gucci-women-bags","status":"active","alibaba_url":null,"images":["https://xcimg.szwego.com/img/dace2ca2/20241106/a1730894120436_3077.jpg","https://xcimg.szwego.com/img/dace2ca2/20241106/a1730894120429_3614.jpg","https://xcimg.szwego.com/img/dace2ca2/20241106/a1730894120429_0537.jpg","https://xcimg.szwego.com/img/dace2ca2/20241106/a1730894120434_2003.jpg","https://xcimg.szwego.com/img/dace2ca2/20241106/a1730894120430_8322.jpg","https://xcimg.szwego.com/img/dace2ca2/20241106/a1730894120438_8041.jpg","https://xcimg.szwego.com/img/dace2ca2/20241106/a1730894121864_4716.jpg","https://xcimg.szwego.com/img/dace2ca2/20241106/a1730894121869_4647.jpg","https://xcimg.szwego.com/img/dace2ca2/20241106/a1730894121876_4312.jpg"],"created_at":"2025-03-29T13:24:08.762Z"},{"id":"item-255c7a4b1d30","sku":"_dvMvME0tjkQyeiMJ0kULr4oHYr0QceAmu-BC5jg","name_en":"Gucci Women Bags","name_cn":"【顶级原单】🔥皮全套包装\n双G代表 长期以来对重塑和重新利用经典廓形作出的不懈努力。同色调双G配件谱写摩登叙事,典藏元素在这款GGMarmont系列V型绗缝皮革腰包上以焕新之姿巧妙呈现。\n材质✨采用专柜质感,天然饱满颗粒进口牛皮,与对版正品打磨垌五金。\n尺寸12x12.5x7cm 型号739599","specs":{"source":"wsxcme","sourceId":"_dvMvME0tjkQyeiMJ0kULr4oHYr0QceAmu-BC5jg","sourceTagId":47002679,"sourceTagName":"古驰/女包","modelNumber":"739599","dimensions":{"lengthCm":12,"heightCm":12.5,"widthCm":7},"rawTitle":"【顶级原单】🔥皮全套包装\n双G代表 长期以来对重塑和重新利用经典廓形作出的不懈努力。同色调双G配件谱写摩登叙事,典藏元素在这款GGMarmont系列V型绗缝皮革腰包上以焕新之姿巧妙呈现。\n材质✨采用专柜质感,天然饱满颗粒进口牛皮,与对版正品打磨垌五金。\n尺寸12x12.5x7cm 型号739599"},"price":null,"currency":"CNY","moq":1,"category":"gucci-women-bags","status":"active","alibaba_url":null,"images":["https://xcimg.szwego.com/20230415/i1681506977_5974_0.jpg","https://xcimg.szwego.com/20230415/i1681506977_8964_1.jpg","https://xcimg.szwego.com/20230415/i1681506977_2845_2.jpg","https://xcimg.szwego.com/20230415/i1681506977_5781_3.jpg","https://xcimg.szwego.com/20230415/i1681506977_6311_8.jpg","https://xcimg.szwego.com/20230415/i1681506977_4305_4.jpg","https://xcimg.szwego.com/20230415/i1681506977_8532_5.jpg","https://xcimg.szwego.com/20230415/i1681506977_2767_6.jpg","https://xcimg.szwego.com/20230415/i1681506977_3501_7.jpg"],"created_at":"2024-10-20T11:19:56.211Z"},{"id":"item-227512d2e6dc","sku":"_dasasctIcCnoB4VwQfgiNPQS3FhmGQaJrtAfdFA","name_en":"Gucci Women Bags","name_cn":"🎬许佳琪演绎 \nGG Marmont新款纯黑色手袋","specs":{"source":"wsxcme","sourceId":"_dasasctIcCnoB4VwQfgiNPQS3FhmGQaJrtAfdFA","sourceTagId":47002679,"sourceTagName":"古驰/女包","rawTitle":"🎬许佳琪演绎 \nGG Marmont新款纯黑色手袋"},"price":null,"currency":"CNY","moq":1,"category":"gucci-women-bags","status":"active","alibaba_url":null,"images":["https://xcimg.szwego.com/20220825/i1661411814_2901_0.jpg","https://xcimg.szwego.com/20220825/i1661411814_3539_1.jpg","https://xcimg.szwego.com/20220825/i1661411814_8713_2.jpg","https://xcimg.szwego.com/20220825/i1661411814_114_3.jpg","https://xcimg.szwego.com/20220825/i1661411814_9121_4.jpg","https://xcimg.szwego.com/20220825/i1661411814_6056_5.jpg"],"created_at":"2026-05-20T03:19:24.278Z"},{"id":"item-21c23c29720a","sku":"_dp2p2xiErpVflQtYOi_w5-xiTLBon3aP6H3T5ww","name_en":"Gucci Women Bags","name_cn":"【原厂皮】大货🔥实拍\n🔥 GG Marmont版方胖子\n型号:739682 尺寸:18-13.5-8cm","specs":{"source":"wsxcme","sourceId":"_dp2p2xiErpVflQtYOi_w5-xiTLBon3aP6H3T5ww","sourceTagId":47002679,"sourceTagName":"古驰/女包","modelNumber":"739682 尺寸:18-13.5-8cm","rawTitle":"【原厂皮】大货🔥实拍\n🔥 GG Marmont版方胖子\n型号:739682 尺寸:18-13.5-8cm"},"price":null,"currency":"CNY","moq":1,"category":"gucci-women-bags","status":"active","alibaba_url":null,"images":["https://xcimg.szwego.com/20230305/i1677961413_8391_0.jpg","https://xcimg.szwego.com/20230305/i1677961413_905_1.jpg","https://xcimg.szwego.com/20230305/i1677961413_1548_2.jpg","https://xcimg.szwego.com/20230305/i1677961413_8807_3.jpg","https://xcimg.szwego.com/20230305/i1677961413_2383_5.jpg","https://xcimg.szwego.com/20230305/i1677961413_3196_6.jpg","https://xcimg.szwego.com/20230305/i1677961454_7451_0.jpg","https://xcimg.szwego.com/20230305/i1677961413_7123_8.jpg","https://xcimg.szwego.com/20230305/i1677961437_9938_0.jpg"],"created_at":"2024-10-20T11:19:56.238Z"},{"id":"item-216f53d9e287","sku":"_dlXlXipU05vci447XS9ogIV6RKXxqQgONVttrzw","name_en":"Gucci Women Bags","name_cn":"原厂皮👜配包装# \n🔥Marmont菱格原厂皮#\n全新Tote购物袋 ,整个包身下血本都用了原厂牛皮❗️袋口处加了锁扣设计更加有安全感,原厂皮质质感好到爆. 立体棱格绣花在灯光下让整个包活跃了起来,上身太好驾驭 不挑身高,也是全球打人必备的百搭单品!\n\n▫️型号681483\n▫️尺寸 26.5*19*11cm","specs":{"source":"wsxcme","sourceId":"_dlXlXipU05vci447XS9ogIV6RKXxqQgONVttrzw","sourceTagId":47002679,"sourceTagName":"古驰/女包","modelNumber":"681483","dimensions":{"lengthCm":26.5,"heightCm":19,"widthCm":11},"rawTitle":"原厂皮👜配包装# \n🔥Marmont菱格原厂皮#\n全新Tote购物袋 ,整个包身下血本都用了原厂牛皮❗️袋口处加了锁扣设计更加有安全感,原厂皮质质感好到爆. 立体棱格绣花在灯光下让整个包活跃了起来,上身太好驾驭 不挑身高,也是全球打人必备的百搭单品!\n\n▫️型号681483\n▫️尺寸 26.5*19*11cm"},"price":null,"currency":"CNY","moq":1,"category":"gucci-women-bags","status":"active","alibaba_url":null,"images":["https://xcimg.szwego.com/20211029/i1635487084_8260_0.jpg","https://xcimg.szwego.com/20211029/i1635487084_4748_1.jpg","https://xcimg.szwego.com/20211029/i1635487084_2468_2.jpg","https://xcimg.szwego.com/20211029/i1635487084_7012_3.jpg","https://xcimg.szwego.com/20211029/i1635487084_8438_4.jpg","https://xcimg.szwego.com/20211029/i1635487084_2586_5.jpg","https://xcimg.szwego.com/20211029/i1635487084_6826_6.jpg","https://xcimg.szwego.com/20211029/i1635487084_4241_7.jpg","https://xcimg.szwego.com/20211029/i1635487084_2652_8.jpg"],"created_at":"2024-10-20T11:19:56.250Z"},{"id":"item-1fc3957aad85","sku":"_dQwQwhUW1mGu24p65SouFzrWa2Hzmgee2ZYKLgg","name_en":"Gucci Women Bags","name_cn":"【独家背景】实物实拍品质 款号:479197啡克 🌊🌊尺寸35✖️23✖️14","specs":{"source":"wsxcme","sourceId":"_dQwQwhUW1mGu24p65SouFzrWa2Hzmgee2ZYKLgg","sourceTagId":47002679,"sourceTagName":"古驰/女包","modelNumber":"479197啡克 🌊🌊尺寸35✖️23✖️14","rawTitle":"【独家背景】实物实拍品质 款号:479197啡克 🌊🌊尺寸35✖️23✖️14"},"price":null,"currency":"CNY","moq":1,"category":"gucci-women-bags","status":"active","alibaba_url":null,"images":["https://xcimg.szwego.com/img/ac9333ee/20250824/i1756017414110_9325_0_0.jpg","https://xcimg.szwego.com/img/ac9333ee/20250824/i1756017408380_1870_0_1.jpg","https://xcimg.szwego.com/img/ac9333ee/20250824/i1756017414107_4683_0_2.jpg","https://xcimg.szwego.com/img/ac9333ee/20250824/i1756017408380_8237_0_3.jpg","https://xcimg.szwego.com/img/ac9333ee/20250824/i1756017408380_5292_0_4.jpg","https://xcimg.szwego.com/img/ac9333ee/20250824/i1756017408379_5495_0_5.jpg","https://xcimg.szwego.com/img/ac9333ee/20250824/i1756017414092_8610_0_6.jpg","https://xcimg.szwego.com/img/ac9333ee/20250824/i1756017414015_989_0_7.jpg","https://xcimg.szwego.com/img/ac9333ee/20250824/i1756017408380_5764_0_8.jpg"],"created_at":"2026-06-29T11:04:23.244Z"},{"id":"item-1fb1e0da445d","sku":"_dx-x-Kyw4X9-ZM8gfm_J6FUdRGI952VGPV4Feew","name_en":"Gucci Women Bags","name_cn":"🔥官网参考\n\n型号:782849  尺寸:27.5x19x4cm","specs":{"source":"wsxcme","sourceId":"_dx-x-Kyw4X9-ZM8gfm_J6FUdRGI952VGPV4Feew","sourceTagId":47002679,"sourceTagName":"古驰/女包","modelNumber":"782849  尺寸:27.5x19x4cm","dimensions":{"lengthCm":27.5,"heightCm":19,"widthCm":4},"rawTitle":"🔥官网参考\n\n型号:782849  尺寸:27.5x19x4cm"},"price":null,"currency":"CNY","moq":1,"category":"gucci-women-bags","status":"active","alibaba_url":null,"images":["https://xcimg.szwego.com/img/dace2ca2/20241106/a1730897205101_1307.jpg","https://xcimg.szwego.com/img/dace2ca2/20241106/a1730897205107_0107.jpg","https://xcimg.szwego.com/img/dace2ca2/20241106/a1730897205106_5244.jpg","https://xcimg.szwego.com/img/dace2ca2/20241106/a1730897205107_8622.jpg","https://xcimg.szwego.com/img/dace2ca2/20241106/a1730897205105_0802.jpg","https://xcimg.szwego.com/img/dace2ca2/20241106/a1730897205100_5522.jpg","https://xcimg.szwego.com/img/dace2ca2/20241106/a1730897207711_4012.jpg","https://xcimg.szwego.com/img/dace2ca2/20241106/a1730897207712_7335.jpg"],"created_at":"2025-03-29T13:24:08.752Z"},{"id":"item-1bd9209bb110","sku":"_dlPlPYCfesBE4Q8xAz3BxK-JuO3YAPGhDHAmO7A","name_en":"Gucci Women Bags","name_cn":"】\nGG Emblem系列小号肩背包\n2025秋冬系列, 全新GG Emblem系列焕新诠释品牌的隽永优雅风范和精湛工艺。设计精心搭配链式肩带,并随附可调节皮革肩带。\n型号:847448\n颜色:棕色压印全皮\n尺寸:20.5x13x7cm","specs":{"source":"wsxcme","sourceId":"_dlPlPYCfesBE4Q8xAz3BxK-JuO3YAPGhDHAmO7A","sourceTagId":47002679,"sourceTagName":"古驰/女包","modelNumber":"847448","dimensions":{"lengthCm":20.5,"heightCm":13,"widthCm":7},"rawTitle":"】\nGG Emblem系列小号肩背包\n2025秋冬系列, 全新GG Emblem系列焕新诠释品牌的隽永优雅风范和精湛工艺。设计精心搭配链式肩带,并随附可调节皮革肩带。\n型号:847448\n颜色:棕色压印全皮\n尺寸:20.5x13x7cm"},"price":null,"currency":"CNY","moq":1,"category":"gucci-women-bags","status":"active","alibaba_url":null,"images":["https://xcimg.szwego.com/img/dace2ca2/20250801/a1754019537583_3560.jpg","https://xcimg.szwego.com/img/dace2ca2/20250801/a1754019537611_7205.jpg","https://xcimg.szwego.com/img/dace2ca2/20250801/a1754019537606_6455.jpg","https://xcimg.szwego.com/img/dace2ca2/20250801/a1754019537600_6433.jpg","https://xcimg.szwego.com/img/dace2ca2/20250801/a1754019537610_1487.jpg","https://xcimg.szwego.com/img/dace2ca2/20250801/a1754019544928_7807.jpg","https://xcimg.szwego.com/img/dace2ca2/20250801/a1754019544930_3703.jpg","https://xcimg.szwego.com/img/dace2ca2/20250801/a1754019544930_3846.jpg","https://xcimg.szwego.com/img/dace2ca2/20250801/a1754019544929_6574.jpg"],"created_at":"2025-08-03T05:52:03.704Z"},{"id":"item-19ce6f817393","sku":"_di9i9NrRipxzpzAxbmgnZAbwSDjto5MSFqSQusA","name_en":"Gucci Women Bags","name_cn":"型号 781402\n尺寸 23/21/12cm \n\nGucci Ophidia hobo腋下包\n今天的气场是hobo给的!!!\n这个包真的非常融入日常,随性又时髦\n包身容量很大但又轻便小巧能很好的满足日常出门\n而且肩带比一般的腋下包都长一些还可以调节\n一见钟情,时髦使用同时兼顾!","specs":{"source":"wsxcme","sourceId":"_di9i9NrRipxzpzAxbmgnZAbwSDjto5MSFqSQusA","sourceTagId":47002679,"sourceTagName":"古驰/女包","modelNumber":"781402","rawTitle":"型号 781402\n尺寸 23/21/12cm \n\nGucci Ophidia hobo腋下包\n今天的气场是hobo给的!!!\n这个包真的非常融入日常,随性又时髦\n包身容量很大但又轻便小巧能很好的满足日常出门\n而且肩带比一般的腋下包都长一些还可以调节\n一见钟情,时髦使用同时兼顾!"},"price":null,"currency":"CNY","moq":1,"category":"gucci-women-bags","status":"active","alibaba_url":null,"images":["https://xcimg.szwego.com/img/d06f5dea/20240702/i1719894894_4520_5.jpg","https://xcimg.szwego.com/img/d06f5dea/20240702/i1719894894_1597_3.jpg","https://xcimg.szwego.com/img/d06f5dea/20240702/i1719894903_8860_0.jpg","https://xcimg.szwego.com/img/d06f5dea/20240702/i1719894894_9862_0.jpg","https://xcimg.szwego.com/img/d06f5dea/20240702/i1719894894_2296_1.jpg","https://xcimg.szwego.com/img/d06f5dea/20240702/i1719894894_8645_6.jpg","https://xcimg.szwego.com/img/d06f5dea/20240702/i1719894894_3775_7.jpg","https://xcimg.szwego.com/img/d06f5dea/20240702/i1719894894_9819_8.jpg","https://xcimg.szwego.com/img/d06f5dea/20240702/i1719894894_7144_2.jpg"],"created_at":"2026-05-20T03:19:23.318Z"},{"id":"item-1921ccb3ba13","sku":"_dgKgKeN6OzBrRCvxxe-TTGwjFWUGvToyd6b2aSw","name_en":"Gucci Women Bags","name_cn":"🔥官网参考\n\n型号:782849  尺寸:27.5x19x4cm","specs":{"source":"wsxcme","sourceId":"_dgKgKeN6OzBrRCvxxe-TTGwjFWUGvToyd6b2aSw","sourceTagId":47002679,"sourceTagName":"古驰/女包","modelNumber":"782849  尺寸:27.5x19x4cm","dimensions":{"lengthCm":27.5,"heightCm":19,"widthCm":4},"rawTitle":"🔥官网参考\n\n型号:782849  尺寸:27.5x19x4cm"},"price":null,"currency":"CNY","moq":1,"category":"gucci-women-bags","status":"active","alibaba_url":null,"images":["https://xcimg.szwego.com/img/dace2ca2/20241106/a1730899224036_4618.jpg","https://xcimg.szwego.com/img/dace2ca2/20241106/a1730899224023_7174.jpg","https://xcimg.szwego.com/img/dace2ca2/20241106/a1730899224035_7855.jpg","https://xcimg.szwego.com/img/dace2ca2/20241106/a1730899224033_3018.jpg","https://xcimg.szwego.com/img/dace2ca2/20241106/a1730899224024_8123.jpg","https://xcimg.szwego.com/img/dace2ca2/20241106/a1730899224026_2258.jpg","https://xcimg.szwego.com/img/dace2ca2/20241106/a1730899225063_2112.jpg","https://xcimg.szwego.com/img/dace2ca2/20241106/a1730899225062_6436.jpg"],"created_at":"2025-03-29T13:24:08.768Z"},{"id":"item-191fed1ca6da","sku":"_dQuQurxFQ0pwhxkEaBaymQFSnKEtH5eRR8wk8Mw","name_en":"Gucci Women Bags","name_cn":"【独家背景】实物实拍品质 款号:479197啡克 🌊🌊尺寸35✖️23✖️14","specs":{"source":"wsxcme","sourceId":"_dQuQurxFQ0pwhxkEaBaymQFSnKEtH5eRR8wk8Mw","sourceTagId":47002679,"sourceTagName":"古驰/女包","modelNumber":"479197啡克 🌊🌊尺寸35✖️23✖️14","rawTitle":"【独家背景】实物实拍品质 款号:479197啡克 🌊🌊尺寸35✖️23✖️14"},"price":null,"currency":"CNY","moq":1,"category":"gucci-women-bags","status":"active","alibaba_url":null,"images":["https://xcimg.szwego.com/img/ac9333ee/20250824/i1756018546526_6952_0_0.jpg","https://xcimg.szwego.com/img/ac9333ee/20250824/i1756018546676_3807_0_1.jpg","https://xcimg.szwego.com/img/ac9333ee/20250824/i1756018545155_2917_0_2.jpg","https://xcimg.szwego.com/img/ac9333ee/20250824/i1756018545395_336_0_3.jpg","https://xcimg.szwego.com/img/ac9333ee/20250824/i1756018545360_1356_0_4.jpg","https://xcimg.szwego.com/img/ac9333ee/20250824/i1756018545192_6985_0_5.jpg","https://xcimg.szwego.com/img/ac9333ee/20250824/i1756018545370_9556_0_6.jpg","https://xcimg.szwego.com/img/ac9333ee/20250824/i1756018546639_5186_0_7.jpg","https://xcimg.szwego.com/img/ac9333ee/20250824/i1756018546672_5678_0_8.jpg"],"created_at":"2026-06-29T11:04:23.234Z"},{"id":"item-12f113b558ee","sku":"_dJxJxZxPDPwIPq282sn6s4cTXj5asI9Ma8Td7RQ","name_en":"Gucci Women Bags","name_cn":"✅ 时尚百搭利器~ \n🖤黑色","specs":{"source":"wsxcme","sourceId":"_dJxJxZxPDPwIPq282sn6s4cTXj5asI9Ma8Td7RQ","sourceTagId":47002679,"sourceTagName":"古驰/女包","rawTitle":"✅ 时尚百搭利器~ \n🖤黑色"},"price":null,"currency":"CNY","moq":1,"category":"gucci-women-bags","status":"active","alibaba_url":null,"images":["https://xcimg.szwego.com/img/7f9d4644/20260130/i1769753630090_3607_0_0.jpg","https://xcimg.szwego.com/img/7f9d4644/20260130/i1769753630548_3215_0_1.jpg","https://xcimg.szwego.com/img/7f9d4644/20260130/i1769753630089_6522_0_2.jpg","https://xcimg.szwego.com/img/7f9d4644/20260130/i1769753630546_5780_0_3.jpg","https://xcimg.szwego.com/img/7f9d4644/20260130/i1769753630545_8920_0_4.jpg","https://xcimg.szwego.com/img/7f9d4644/20260130/i1769753630090_9876_0_5.jpg","https://xcimg.szwego.com/img/7f9d4644/20260130/i1769753630089_5217_0_6.jpg","https://xcimg.szwego.com/img/7f9d4644/20260130/i1769753630547_1542_0_7.jpg","https://xcimg.szwego.com/img/7f9d4644/20260130/i1769753630090_1435_0_8.jpg"],"created_at":"2026-05-20T03:19:23.568Z"},{"id":"item-1185856d18c5","sku":"_doKoKhYDf8G1FtFwy5vwtCJcw_uxCcB8v1EusSQ","name_en":"Gucci Women Bags","name_cn":"【顶级原单】🔥皮全套包装\n双G代表 长期以来对重塑和重新利用经典廓形作出的不懈努力。同色调双G配件谱写摩登叙事,典藏元素在这款GGMarmont系列V型绗缝皮革腰包上以焕新之姿巧妙呈现。\n材质✨采用专柜质感,天然饱满颗粒进口牛皮,与对版正品打磨垌五金。\n尺寸12x12.5x7cm 型号739599","specs":{"source":"wsxcme","sourceId":"_doKoKhYDf8G1FtFwy5vwtCJcw_uxCcB8v1EusSQ","sourceTagId":47002679,"sourceTagName":"古驰/女包","modelNumber":"739599","dimensions":{"lengthCm":12,"heightCm":12.5,"widthCm":7},"rawTitle":"【顶级原单】🔥皮全套包装\n双G代表 长期以来对重塑和重新利用经典廓形作出的不懈努力。同色调双G配件谱写摩登叙事,典藏元素在这款GGMarmont系列V型绗缝皮革腰包上以焕新之姿巧妙呈现。\n材质✨采用专柜质感,天然饱满颗粒进口牛皮,与对版正品打磨垌五金。\n尺寸12x12.5x7cm 型号739599"},"price":null,"currency":"CNY","moq":1,"category":"gucci-women-bags","status":"active","alibaba_url":null,"images":["https://xcimg.szwego.com/20230415/i1681507157_3260_0.jpg","https://xcimg.szwego.com/20230415/i1681507157_7060_1.jpg","https://xcimg.szwego.com/20230415/i1681507157_3540_2.jpg","https://xcimg.szwego.com/20230415/i1681507157_6919_3.jpg","https://xcimg.szwego.com/20230415/i1681507157_8041_4.jpg","https://xcimg.szwego.com/20230415/i1681507157_3448_5.jpg","https://xcimg.szwego.com/20230415/i1681507157_5751_6.jpg","https://xcimg.szwego.com/20230415/i1681507157_7084_7.jpg","https://xcimg.szwego.com/20230415/i1681507157_2756_8.jpg"],"created_at":"2024-10-20T11:19:56.212Z"},{"id":"item-1021aa0ba211","sku":"_dHQHQud_pQOtrb1n-FLVK7tkPqo17MVhDmCUA3A","name_en":"Gucci Women Bags","name_cn":"实拍#       只做头层皮 真牛皮\n\n款号:308364深棕\n尺寸:21x15x7cm\n\nGG disco soho相机包. 经典永不会过时\n浮雕双G配上皮革流苏.头层牛皮 超级软\n斜挎✅单肩✅手拿✅","specs":{"source":"wsxcme","sourceId":"_dHQHQud_pQOtrb1n-FLVK7tkPqo17MVhDmCUA3A","sourceTagId":47002679,"sourceTagName":"古驰/女包","modelNumber":"308364深棕","dimensions":{"lengthCm":21,"heightCm":15,"widthCm":7},"rawTitle":"实拍#       只做头层皮 真牛皮\n\n款号:308364深棕\n尺寸:21x15x7cm\n\nGG disco soho相机包. 经典永不会过时\n浮雕双G配上皮革流苏.头层牛皮 超级软\n斜挎✅单肩✅手拿✅"},"price":null,"currency":"CNY","moq":1,"category":"gucci-women-bags","status":"active","alibaba_url":null,"images":["https://xcimg.szwego.com/20221027/i1666863808_4752_0.jpg","https://xcimg.szwego.com/20221027/i1666863808_7693_1.jpg","https://xcimg.szwego.com/20221027/i1666863808_8476_2.jpg","https://xcimg.szwego.com/20221027/i1666863808_1142_3.jpg","https://xcimg.szwego.com/20221027/i1666863808_5266_4.jpg","https://xcimg.szwego.com/20221027/i1666863808_5892_5.jpg","https://xcimg.szwego.com/20221027/i1666863808_586_6.jpg","https://xcimg.szwego.com/20221027/i1666863808_8701_7.jpg"],"created_at":"2024-11-26T11:46:47.167Z"},{"id":"item-0c9286099c86","sku":"_dv-v-jF6AylDttS6KYC090oOfKvqXBCwsTFFuXA","name_en":"Gucci Women Bags","name_cn":"【原厂皮 】 自带高级感 \n 上一季就火遍时尚圈的GG Marmont 今年风头依然不减 新出的Mini系列\n将复古与华丽演绎的淋漓尽致 可爱爆棚😱型号:547260  尺寸:21*15*8cm","specs":{"source":"wsxcme","sourceId":"_dv-v-jF6AylDttS6KYC090oOfKvqXBCwsTFFuXA","sourceTagId":47002679,"sourceTagName":"古驰/女包","modelNumber":"547260  尺寸:21*15*8cm","dimensions":{"lengthCm":21,"heightCm":15,"widthCm":8},"rawTitle":"【原厂皮 】 自带高级感 \n 上一季就火遍时尚圈的GG Marmont 今年风头依然不减 新出的Mini系列\n将复古与华丽演绎的淋漓尽致 可爱爆棚😱型号:547260  尺寸:21*15*8cm"},"price":null,"currency":"CNY","moq":1,"category":"gucci-women-bags","status":"active","alibaba_url":null,"images":["https://xcimg.szwego.com/20220508/i1651943707_6227_0.jpg","https://xcimg.szwego.com/20220508/i1651943707_7543_1.jpg","https://xcimg.szwego.com/20220508/i1651943707_2784_2.jpg","https://xcimg.szwego.com/20220508/i1651943707_6490_3.jpg","https://xcimg.szwego.com/20220508/i1651943707_5853_4.jpg","https://xcimg.szwego.com/20220508/i1651943707_1080_7.jpg","https://xcimg.szwego.com/20220508/i1651943707_9210_5.jpg","https://xcimg.szwego.com/20220508/i1651943707_5943_6.jpg","https://xcimg.szwego.com/20220508/i1651943792_9623_0.jpg"],"created_at":"2024-10-20T11:19:56.244Z"},{"id":"item-0b9f009a57fb","sku":"_dbsbsbT36mJnUhywuJ3p5VJqCefe7l1DXfaUE0w","name_en":"Gucci Women Bags","name_cn":"【原厂皮 】 大货🔥 自带高级感 \n 🔥配包装上一季就火遍时尚圈的GG Marmont 今年风头依然不减 新出的Mini系列\n将复古与华丽演绎的淋漓尽致 可爱爆棚😱型号:547260  尺寸:21*15*8cm","specs":{"source":"wsxcme","sourceId":"_dbsbsbT36mJnUhywuJ3p5VJqCefe7l1DXfaUE0w","sourceTagId":47002679,"sourceTagName":"古驰/女包","modelNumber":"547260  尺寸:21*15*8cm","dimensions":{"lengthCm":21,"heightCm":15,"widthCm":8},"rawTitle":"【原厂皮 】 大货🔥 自带高级感 \n 🔥配包装上一季就火遍时尚圈的GG Marmont 今年风头依然不减 新出的Mini系列\n将复古与华丽演绎的淋漓尽致 可爱爆棚😱型号:547260  尺寸:21*15*8cm"},"price":null,"currency":"CNY","moq":1,"category":"gucci-women-bags","status":"active","alibaba_url":null,"images":["https://xcimg.szwego.com/20230507/i1683399450_9589_7.jpg","https://xcimg.szwego.com/20230507/i1683399450_4476_0.jpg","https://xcimg.szwego.com/20230507/i1683399450_1081_3.jpg","https://xcimg.szwego.com/20230507/i1683399450_3768_4.jpg","https://xcimg.szwego.com/20230507/i1683399450_87_1.jpg","https://xcimg.szwego.com/20230507/i1683399450_6988_2.jpg","https://xcimg.szwego.com/20230507/i1683399450_8855_5.jpg","https://xcimg.szwego.com/20230507/i1683399450_9876_8.jpg","https://xcimg.szwego.com/20230507/i1683399450_3420_6.jpg"],"created_at":"2024-10-20T11:19:56.247Z"},{"id":"item-094fad289fe5","sku":"_dzuzuY4sofvFAfyEcftFmNaniMCoTXnSiyqoGrA","name_en":"Gucci Women Bags","name_cn":"原厂皮👜配包装# \n🔥Marmont菱格原厂皮#\n全新Tote购物袋 ,整个包身下血本都用了原厂牛皮❗️袋口处加了锁扣设计更加有安全感,原厂皮质质感好到爆. 立体棱格绣花在灯光下让整个包活跃了起来,上身太好驾驭 不挑身高,也是全球打人必备的百搭单品!\n\n▫️型号681483\n▫️尺寸 26.5*19*11cm","specs":{"source":"wsxcme","sourceId":"_dzuzuY4sofvFAfyEcftFmNaniMCoTXnSiyqoGrA","sourceTagId":47002679,"sourceTagName":"古驰/女包","modelNumber":"681483","dimensions":{"lengthCm":26.5,"heightCm":19,"widthCm":11},"rawTitle":"原厂皮👜配包装# \n🔥Marmont菱格原厂皮#\n全新Tote购物袋 ,整个包身下血本都用了原厂牛皮❗️袋口处加了锁扣设计更加有安全感,原厂皮质质感好到爆. 立体棱格绣花在灯光下让整个包活跃了起来,上身太好驾驭 不挑身高,也是全球打人必备的百搭单品!\n\n▫️型号681483\n▫️尺寸 26.5*19*11cm"},"price":null,"currency":"CNY","moq":1,"category":"gucci-women-bags","status":"active","alibaba_url":null,"images":["https://xcimg.szwego.com/20211013/i1634105304_1453_0.jpg","https://xcimg.szwego.com/20211013/i1634105304_4140_1.jpg","https://xcimg.szwego.com/20211013/i1634105304_5031_2.jpg","https://xcimg.szwego.com/20211013/i1634105304_4482_3.jpg","https://xcimg.szwego.com/20211013/i1634105304_2163_4.jpg","https://xcimg.szwego.com/20211013/i1634105304_1069_5.jpg","https://xcimg.szwego.com/20211013/i1634105304_2950_6.jpg","https://xcimg.szwego.com/20211013/i1634105304_5609_7.jpg","https://xcimg.szwego.com/20211013/i1634105304_2973_8.jpg"],"created_at":"2024-10-20T11:19:56.248Z"}],"page":30,"pageSize":24,"total":758,"totalPages":32}
