{"items":[{"id":"item-f2a6ce2aa8c3","sku":"_dh2h2ixbwOUXGJVfZSQ5nFazJUNxwIPZHYs_2bQ","name_en":"Jackie 肩背包","name_cn":"Jackie 肩背包 \n▫️型号820415\n▫️尺寸 27.5*19*4\nGucci 新款Jackie 1961系列以标志性推入式锁扣和经典廓形讲述跨越时代的品牌故事 这款手袋甄选精致皮革打造 以现代型格诠释隽永优雅风范。","specs":{"source":"wsxcme","sourceId":"_dh2h2ixbwOUXGJVfZSQ5nFazJUNxwIPZHYs_2bQ","sourceTagId":47002679,"sourceTagName":"古驰/女包","modelNumber":"820415","rawTitle":"Jackie 肩背包 \n▫️型号820415\n▫️尺寸 27.5*19*4\nGucci 新款Jackie 1961系列以标志性推入式锁扣和经典廓形讲述跨越时代的品牌故事 这款手袋甄选精致皮革打造 以现代型格诠释隽永优雅风范。"},"price":null,"currency":"CNY","moq":1,"category":"gucci-women-bags","status":"active","alibaba_url":null,"images":["https://xcimg.szwego.com/img/7f9d4644/20260202/i1770015584307_5052_0_0.jpg","https://xcimg.szwego.com/img/7f9d4644/20260202/i1770015584377_5150_0_1.jpg","https://xcimg.szwego.com/img/7f9d4644/20260202/i1770015583058_4142_0_2.jpg","https://xcimg.szwego.com/img/7f9d4644/20260202/i1770015583058_3983_0_3.jpg","https://xcimg.szwego.com/img/7f9d4644/20260202/i1770015583279_8335_0_4.jpg","https://xcimg.szwego.com/img/7f9d4644/20260202/i1770015583296_6254_0_5.jpg","https://xcimg.szwego.com/img/7f9d4644/20260202/i1770015583058_4682_0_6.jpg","https://xcimg.szwego.com/img/7f9d4644/20260202/i1770015584279_9775_0_7.jpg","https://xcimg.szwego.com/img/7f9d4644/20260202/i1770015584001_9501_0_8.jpg"],"created_at":"2026-05-20T03:19:23.528Z"},{"id":"item-91ca8bc3f20e","sku":"_dF7F7RZwin7JNE_Ul6_mpX0qrw1CQgRYz2Ravag","name_en":"Marmont原厂皮","name_cn":"Marmont原厂皮\n▫️型号856368 迷你\n▫️尺寸 20*12*6.5\nGucci新款 秋冬系列  品牌标志性GG Marmont系列匠心融蕴经典双G元素和切面链式包带 缔就柔软不失挺括的廓形设计 这款单品采用柔软轻质绗缝V型牛皮革匠造而成。","specs":{"source":"wsxcme","sourceId":"_dF7F7RZwin7JNE_Ul6_mpX0qrw1CQgRYz2Ravag","sourceTagId":47002679,"sourceTagName":"古驰/女包","modelNumber":"856368 迷你","rawTitle":"Marmont原厂皮\n▫️型号856368 迷你\n▫️尺寸 20*12*6.5\nGucci新款 秋冬系列  品牌标志性GG Marmont系列匠心融蕴经典双G元素和切面链式包带 缔就柔软不失挺括的廓形设计 这款单品采用柔软轻质绗缝V型牛皮革匠造而成。"},"price":null,"currency":"CNY","moq":1,"category":"gucci-women-bags","status":"active","alibaba_url":null,"images":["https://xcimg.szwego.com/img/7f9d4644/20260202/i1770014546973_8490_0_0.jpg","https://xcimg.szwego.com/img/7f9d4644/20260202/i1770014545351_8918_0_1.jpg","https://xcimg.szwego.com/img/7f9d4644/20260202/i1770014545381_517_0_2.jpg","https://xcimg.szwego.com/img/7f9d4644/20260202/i1770014545347_6170_0_3.jpg","https://xcimg.szwego.com/img/7f9d4644/20260202/i1770014546947_3228_0_4.jpg","https://xcimg.szwego.com/img/7f9d4644/20260202/i1770014545123_5236_0_5.jpg","https://xcimg.szwego.com/img/7f9d4644/20260202/i1770014546950_1351_0_6.jpg","https://xcimg.szwego.com/img/7f9d4644/20260202/i1770014546546_2594_0_7.jpg","https://xcimg.szwego.com/img/7f9d4644/20260202/i1770014546973_7518_0_8.jpg","https://xcimg.szwego.com/img/7f9d4644/20260202/i1770014545123_7546_0_9.jpg"],"created_at":"2026-05-20T03:19:23.488Z"},{"id":"item-8724c974b3e7","sku":"_daXaXxcVzbyM8CT17cExIeOXcYdlEt3sAKzCZZQ","name_en":"Marmont原厂皮","name_cn":"Marmont原厂皮\n▫️型号856368 迷你\n▫️尺寸 20*12*6.5\nGucci新款 秋冬系列  品牌标志性GG Marmont系列匠心融蕴经典双G元素和切面链式包带 缔就柔软不失挺括的廓形设计 这款单品采用柔软轻质绗缝V型牛皮革匠造而成。","specs":{"source":"wsxcme","sourceId":"_daXaXxcVzbyM8CT17cExIeOXcYdlEt3sAKzCZZQ","sourceTagId":47002679,"sourceTagName":"古驰/女包","modelNumber":"856368 迷你","rawTitle":"Marmont原厂皮\n▫️型号856368 迷你\n▫️尺寸 20*12*6.5\nGucci新款 秋冬系列  品牌标志性GG Marmont系列匠心融蕴经典双G元素和切面链式包带 缔就柔软不失挺括的廓形设计 这款单品采用柔软轻质绗缝V型牛皮革匠造而成。"},"price":null,"currency":"CNY","moq":1,"category":"gucci-women-bags","status":"active","alibaba_url":null,"images":["https://xcimg.szwego.com/img/7f9d4644/20260202/i1770014589234_957_0_0.jpg","https://xcimg.szwego.com/img/7f9d4644/20260202/i1770014589232_8978_0_1.jpg","https://xcimg.szwego.com/img/7f9d4644/20260202/i1770014589228_1229_0_2.jpg","https://xcimg.szwego.com/img/7f9d4644/20260202/i1770014590552_7258_0_3.jpg","https://xcimg.szwego.com/img/7f9d4644/20260202/i1770014589232_3625_0_4.jpg","https://xcimg.szwego.com/img/7f9d4644/20260202/i1770014590547_906_0_5.jpg","https://xcimg.szwego.com/img/7f9d4644/20260202/i1770014589435_1467_0_6.jpg","https://xcimg.szwego.com/img/7f9d4644/20260202/i1770014590549_470_0_7.jpg","https://xcimg.szwego.com/img/7f9d4644/20260202/i1770014590817_9099_0_8.jpg","https://xcimg.szwego.com/img/7f9d4644/20260202/i1770014590549_2989_0_9.jpg"],"created_at":"2026-05-20T03:19:23.498Z"},{"id":"item-3ca880edf0eb","sku":"_dq6q6mdACQD6IL-ep9WlDpCcXrzpAPTwQ_ToYHg","name_en":"Marmont原厂皮","name_cn":"Marmont原厂皮\n▫️型号855371 小号\n▫️尺寸 23*17*9\nGucci新款 秋冬系列  品牌标志性GG Marmont系列匠心融蕴经典双G元素和切面链式包带 缔就柔软不失挺括的廓形设计 这款单品采用柔软轻质绗缝V型牛皮革匠造而成。","specs":{"source":"wsxcme","sourceId":"_dq6q6mdACQD6IL-ep9WlDpCcXrzpAPTwQ_ToYHg","sourceTagId":47002679,"sourceTagName":"古驰/女包","modelNumber":"855371 小号","rawTitle":"Marmont原厂皮\n▫️型号855371 小号\n▫️尺寸 23*17*9\nGucci新款 秋冬系列  品牌标志性GG Marmont系列匠心融蕴经典双G元素和切面链式包带 缔就柔软不失挺括的廓形设计 这款单品采用柔软轻质绗缝V型牛皮革匠造而成。"},"price":null,"currency":"CNY","moq":1,"category":"gucci-women-bags","status":"active","alibaba_url":null,"images":["https://xcimg.szwego.com/img/7f9d4644/20260202/i1770014786033_7896_0_0.jpg","https://xcimg.szwego.com/img/7f9d4644/20260202/i1770014787466_9114_0_1.jpg","https://xcimg.szwego.com/img/7f9d4644/20260202/i1770014787115_4524_0_2.jpg","https://xcimg.szwego.com/img/7f9d4644/20260202/i1770014787387_7171_0_3.jpg","https://xcimg.szwego.com/img/7f9d4644/20260202/i1770014787424_5868_0_4.jpg","https://xcimg.szwego.com/img/7f9d4644/20260202/i1770014788225_8872_0_5.jpg","https://xcimg.szwego.com/img/7f9d4644/20260202/i1770014786140_8142_0_6.jpg","https://xcimg.szwego.com/img/7f9d4644/20260202/i1770014786041_3620_0_7.jpg","https://xcimg.szwego.com/img/7f9d4644/20260202/i1770014786155_7147_0_8.jpg","https://xcimg.szwego.com/img/7f9d4644/20260202/i1770014787111_5719_0_9.jpg","https://xcimg.szwego.com/img/7f9d4644/20260202/i1770014786182_9563_0_10.jpg"],"created_at":"2026-05-20T03:19:23.508Z"},{"id":"item-3b7a38c8f335","sku":"_dohohE1IVb9_E5o_6uGskABoqQ5kSyLQTdF875w","name_en":"Marmont原厂皮","name_cn":"Marmont原厂皮\n▫️型号855371 小号\n▫️尺寸 23*17*9\nGucci新款 秋冬系列  品牌标志性GG Marmont系列匠心融蕴经典双G元素和切面链式包带 缔就柔软不失挺括的廓形设计 这款单品采用柔软轻质绗缝V型牛皮革匠造而成。","specs":{"source":"wsxcme","sourceId":"_dohohE1IVb9_E5o_6uGskABoqQ5kSyLQTdF875w","sourceTagId":47002679,"sourceTagName":"古驰/女包","modelNumber":"855371 小号","rawTitle":"Marmont原厂皮\n▫️型号855371 小号\n▫️尺寸 23*17*9\nGucci新款 秋冬系列  品牌标志性GG Marmont系列匠心融蕴经典双G元素和切面链式包带 缔就柔软不失挺括的廓形设计 这款单品采用柔软轻质绗缝V型牛皮革匠造而成。"},"price":null,"currency":"CNY","moq":1,"category":"gucci-women-bags","status":"active","alibaba_url":null,"images":["https://xcimg.szwego.com/img/7f9d4644/20260202/i1770014827845_8966_0_0.jpg","https://xcimg.szwego.com/img/7f9d4644/20260202/i1770014826170_9577_0_1.jpg","https://xcimg.szwego.com/img/7f9d4644/20260202/i1770014827441_6866_0_2.jpg","https://xcimg.szwego.com/img/7f9d4644/20260202/i1770014827437_3579_0_3.jpg","https://xcimg.szwego.com/img/7f9d4644/20260202/i1770014826297_4080_0_4.jpg","https://xcimg.szwego.com/img/7f9d4644/20260202/i1770014826284_5313_0_5.jpg","https://xcimg.szwego.com/img/7f9d4644/20260202/i1770014827954_9863_0_6.jpg","https://xcimg.szwego.com/img/7f9d4644/20260202/i1770014826224_7439_0_7.jpg","https://xcimg.szwego.com/img/7f9d4644/20260202/i1770014826298_5653_0_8.jpg","https://xcimg.szwego.com/img/7f9d4644/20260202/i1770014827928_4593_0_9.jpg"],"created_at":"2026-05-20T03:19:23.518Z"},{"id":"item-e48c0d7fe2c6","sku":"_d-l-lVGBW3wwPwikEqQiTJmlCv36y8eqYb1b3JQ","name_en":"Ophidia 双肩包","name_cn":"Ophidia 双肩包\n▫️型号836855 中号\n▫️尺寸 28*30*18\nGucci新款Ophidia系列亮眼呈献新颖廓形与功能,以标志性米色和棕色配色匠心演绎,缔就质地柔软的创新包袋单品。","specs":{"source":"wsxcme","sourceId":"_d-l-lVGBW3wwPwikEqQiTJmlCv36y8eqYb1b3JQ","sourceTagId":47002679,"sourceTagName":"古驰/女包","modelNumber":"836855 中号","rawTitle":"Ophidia 双肩包\n▫️型号836855 中号\n▫️尺寸 28*30*18\nGucci新款Ophidia系列亮眼呈献新颖廓形与功能,以标志性米色和棕色配色匠心演绎,缔就质地柔软的创新包袋单品。"},"price":null,"currency":"CNY","moq":1,"category":"gucci-women-bags","status":"active","alibaba_url":null,"images":["https://xcimg.szwego.com/img/7f9d4644/20260125/i1769322058904_8027_0_0.jpg","https://xcimg.szwego.com/img/7f9d4644/20260125/i1769322060547_824_0_1.jpg","https://xcimg.szwego.com/img/7f9d4644/20260125/i1769322059087_6753_0_2.jpg","https://xcimg.szwego.com/img/7f9d4644/20260125/i1769322059107_9085_0_3.jpg","https://xcimg.szwego.com/img/7f9d4644/20260125/i1769322060536_7307_0_4.jpg","https://xcimg.szwego.com/img/7f9d4644/20260125/i1769322059078_7610_0_5.jpg","https://xcimg.szwego.com/img/7f9d4644/20260125/i1769322059072_7095_0_6.jpg","https://xcimg.szwego.com/img/7f9d4644/20260125/i1769322060542_2680_0_7.jpg","https://xcimg.szwego.com/img/7f9d4644/20260125/i1769322060431_5963_0_8.jpg"],"created_at":"2026-05-20T03:19:23.798Z"},{"id":"item-babc0c1f681f","sku":"_d0c0cQqH4KzEvu-2__UTOEsqfcQc2rUQqcPBXog","name_en":"Ophidia 托特包","name_cn":"Ophidia 托特包\n▫️型号836848\n▫️尺寸 22.5*17*11\n  Gucci新款Ophidia系列亮眼呈献新颖廓形与功能 以标志性米色和棕色配色匠心演绎 打造质地柔软的焕新包袋单品。","specs":{"source":"wsxcme","sourceId":"_d0c0cQqH4KzEvu-2__UTOEsqfcQc2rUQqcPBXog","sourceTagId":47002679,"sourceTagName":"古驰/女包","modelNumber":"836848","rawTitle":"Ophidia 托特包\n▫️型号836848\n▫️尺寸 22.5*17*11\n  Gucci新款Ophidia系列亮眼呈献新颖廓形与功能 以标志性米色和棕色配色匠心演绎 打造质地柔软的焕新包袋单品。"},"price":null,"currency":"CNY","moq":1,"category":"gucci-women-bags","status":"active","alibaba_url":null,"images":["https://xcimg.szwego.com/img/7f9d4644/20260125/i1769322437601_7086_0_0.jpg","https://xcimg.szwego.com/img/7f9d4644/20260125/i1769322437601_3672_0_1.jpg","https://xcimg.szwego.com/img/7f9d4644/20260125/i1769322438750_9260_0_2.jpg","https://xcimg.szwego.com/img/7f9d4644/20260125/i1769322437613_1182_0_3.jpg","https://xcimg.szwego.com/img/7f9d4644/20260125/i1769322438763_6414_0_4.jpg","https://xcimg.szwego.com/img/7f9d4644/20260125/i1769322437447_309_0_5.jpg","https://xcimg.szwego.com/img/7f9d4644/20260125/i1769322437582_3057_0_6.jpg","https://xcimg.szwego.com/img/7f9d4644/20260125/i1769322438660_1103_0_7.jpg","https://xcimg.szwego.com/img/7f9d4644/20260125/i1769322438597_783_0_8.jpg"],"created_at":"2026-05-20T03:19:23.868Z"},{"id":"item-e5d5e9ec40f5","sku":"_d_u_uo2le-Wz8lr8QRseRxKo8U0pvnqGsWT6_uA","name_en":"Ophidia邮差包","name_cn":"Ophidia邮差包\n▫️型号836843\n▫️尺寸 20*16*5\nGucci 新款Ophidia系列亮眼呈献新颖廓形与功能 以标志性米色和棕色配色匠心演绎 打造质地柔软的焕新包袋单品。","specs":{"source":"wsxcme","sourceId":"_d_u_uo2le-Wz8lr8QRseRxKo8U0pvnqGsWT6_uA","sourceTagId":47002679,"sourceTagName":"古驰/女包","modelNumber":"836843","rawTitle":"Ophidia邮差包\n▫️型号836843\n▫️尺寸 20*16*5\nGucci 新款Ophidia系列亮眼呈献新颖廓形与功能 以标志性米色和棕色配色匠心演绎 打造质地柔软的焕新包袋单品。"},"price":null,"currency":"CNY","moq":1,"category":"gucci-women-bags","status":"active","alibaba_url":null,"images":["https://xcimg.szwego.com/img/7f9d4644/20260125/i1769322245114_3068_0_0.jpg","https://xcimg.szwego.com/img/7f9d4644/20260125/i1769322245205_3689_0_1.jpg","https://xcimg.szwego.com/img/7f9d4644/20260125/i1769322246610_6328_0_2.jpg","https://xcimg.szwego.com/img/7f9d4644/20260125/i1769322246612_8323_0_3.jpg","https://xcimg.szwego.com/img/7f9d4644/20260125/i1769322246639_6104_0_4.jpg","https://xcimg.szwego.com/img/7f9d4644/20260125/i1769322246561_6046_0_5.jpg","https://xcimg.szwego.com/img/7f9d4644/20260125/i1769322245156_3460_0_6.jpg","https://xcimg.szwego.com/img/7f9d4644/20260125/i1769322245171_4144_0_7.jpg","https://xcimg.szwego.com/img/7f9d4644/20260125/i1769322245229_5595_0_8.jpg"],"created_at":"2026-05-20T03:19:23.828Z"},{"id":"item-d7173428adfc","sku":"_dozozaSIgaTq6FvbOEP5uBt0HPbNyDSnsiSkCRw","name_en":"p 。💓【进口原厂皮配全套包装】!!GUCCI GGMarmont—正品原厂皮💕GG Marmont Mini#476433 尺寸:16.5*10*5cm","name_cn":"p 。💓【进口原厂皮配全套包装】!!GUCCI GGMarmont—正品原厂皮💕GG Marmont Mini#476433 尺寸:16.5*10*5cm\n成熟的原厂皮技术加上定制版五金,无可挑剔的细节打造,还原度100%,品质我给满分,超可爱的Mini包,背面的爱心让人少女心爆棚!!别看它小,其实出门使用率非常高,日常使用容满分!!","specs":{"source":"wsxcme","sourceId":"_dozozaSIgaTq6FvbOEP5uBt0HPbNyDSnsiSkCRw","sourceTagId":47002679,"sourceTagName":"古驰/女包","dimensions":{"lengthCm":16.5,"heightCm":10,"widthCm":5},"rawTitle":"p 。💓【进口原厂皮配全套包装】!!GUCCI GGMarmont—正品原厂皮💕GG Marmont Mini#476433 尺寸:16.5*10*5cm\n成熟的原厂皮技术加上定制版五金,无可挑剔的细节打造,还原度100%,品质我给满分,超可爱的Mini包,背面的爱心让人少女心爆棚!!别看它小,其实出门使用率非常高,日常使用容满分!!"},"price":null,"currency":"CNY","moq":1,"category":"gucci-women-bags","status":"active","alibaba_url":null,"images":["https://xcimg.szwego.com/20210707/i1625589689_1934_6.jpg","https://xcimg.szwego.com/20210707/i1625589689_2209_0.jpg","https://xcimg.szwego.com/20210707/i1625589689_7080_1.jpg","https://xcimg.szwego.com/20210707/i1625589689_3017_2.jpg","https://xcimg.szwego.com/20210707/i1625589689_7642_3.jpg","https://xcimg.szwego.com/20210707/i1625589689_1014_4.jpg","https://xcimg.szwego.com/20210707/i1625589689_8196_5.jpg","https://xcimg.szwego.com/20210707/i1625589689_4745_7.jpg","https://xcimg.szwego.com/20210707/i1625589689_9438_8.jpg"],"created_at":"2024-05-03T05:14:45.531Z"},{"id":"item-5ec242796151","sku":"_dlGlGhYYj-CoN_ykW1ySjBFvIVvwq7YpswhKY3g","name_en":"p 。📣📣📣【原厂皮配🌈(Cdfmall三亚免税店手提袋】🔥🔥GG Marmont Mini 采用原装进口意大利原厂皮,顶级对版五金,柔软的皮质更凸显质感,背出街必定是个瞩目的亮点!斜挎,单肩,手包,腰包多种背法,大小size刚刚合身,手机,口红,钥匙包、纸巾妥妥都装得下。一年四季不可缺,颜色:玫瑰米,款号:476433,尺寸:16.5cmx9.","name_cn":"p 。📣📣📣【原厂皮配🌈(Cdfmall三亚免税店手提袋】🔥🔥GG Marmont Mini 采用原装进口意大利原厂皮,顶级对版五金,柔软的皮质更凸显质感,背出街必定是个瞩目的亮点!斜挎,单肩,手包,腰包多种背法,大小size刚刚合身,手机,口红,钥匙包、纸巾妥妥都装得下。一年四季不可缺,颜色:玫瑰米,款号:476433,尺寸:16.5cmx9.5cmx4.5cm。","specs":{"source":"wsxcme","sourceId":"_dlGlGhYYj-CoN_ykW1ySjBFvIVvwq7YpswhKY3g","sourceTagId":47002679,"sourceTagName":"古驰/女包","modelNumber":"476433","rawTitle":"p 。📣📣📣【原厂皮配🌈(Cdfmall三亚免税店手提袋】🔥🔥GG Marmont Mini 采用原装进口意大利原厂皮,顶级对版五金,柔软的皮质更凸显质感,背出街必定是个瞩目的亮点!斜挎,单肩,手包,腰包多种背法,大小size刚刚合身,手机,口红,钥匙包、纸巾妥妥都装得下。一年四季不可缺,颜色:玫瑰米,款号:476433,尺寸:16.5cmx9.5cmx4.5cm。"},"price":null,"currency":"CNY","moq":1,"category":"gucci-women-bags","status":"active","alibaba_url":null,"images":["https://xcimg.szwego.com/20211010/i1633849506_5215_0.jpg","https://xcimg.szwego.com/20211010/i1633849506_4036_1.jpg","https://xcimg.szwego.com/20211010/i1633849506_2802_2.jpg","https://xcimg.szwego.com/20211010/i1633849506_2594_3.jpg","https://xcimg.szwego.com/20211010/i1633849506_1290_4.jpg","https://xcimg.szwego.com/20211010/i1633849506_4834_5.jpg","https://xcimg.szwego.com/20211010/i1633849506_6995_6.jpg","https://xcimg.szwego.com/20211010/i1633849506_7122_7.jpg","https://xcimg.szwego.com/20211010/i1633849506_863_8.jpg"],"created_at":"2024-05-03T05:14:45.532Z"},{"id":"item-c8e43c5ca569","sku":"_dmDmDfrMExt1FrdGI4bwbINYAwRWgx8BeQHyBeg","name_en":"Siena 肩背包","name_cn":"Siena 肩背包\n▫️型号846705 \n▫️尺寸 22.5*14*8\n Gucci Siena系列小号肩背包延续了Gucci经典马衔扣这一标志性元素的演变 这款肩背包选用精细光面皮革匠心打造 挺括造型融蕴源自20世纪70年代的半马衔扣搭扣设计细节 搭配金色调配件 内部衬里设有三层接档与一个拉链口袋。","specs":{"source":"wsxcme","sourceId":"_dmDmDfrMExt1FrdGI4bwbINYAwRWgx8BeQHyBeg","sourceTagId":47002679,"sourceTagName":"古驰/女包","modelNumber":"846705","rawTitle":"Siena 肩背包\n▫️型号846705 \n▫️尺寸 22.5*14*8\n Gucci Siena系列小号肩背包延续了Gucci经典马衔扣这一标志性元素的演变 这款肩背包选用精细光面皮革匠心打造 挺括造型融蕴源自20世纪70年代的半马衔扣搭扣设计细节 搭配金色调配件 内部衬里设有三层接档与一个拉链口袋。"},"price":null,"currency":"CNY","moq":1,"category":"gucci-women-bags","status":"active","alibaba_url":null,"images":["https://xcimg.szwego.com/img/7f9d4644/20260130/i1769754024923_8551_0_0.jpg","https://xcimg.szwego.com/img/7f9d4644/20260130/i1769754023936_9738_0_1.jpg","https://xcimg.szwego.com/img/7f9d4644/20260130/i1769754024896_903_0_2.jpg","https://xcimg.szwego.com/img/7f9d4644/20260130/i1769754024980_5132_0_3.jpg","https://xcimg.szwego.com/img/7f9d4644/20260130/i1769754023597_3789_0_4.jpg","https://xcimg.szwego.com/img/7f9d4644/20260130/i1769754023597_8962_0_5.jpg","https://xcimg.szwego.com/img/7f9d4644/20260130/i1769754023976_9445_0_6.jpg","https://xcimg.szwego.com/img/7f9d4644/20260130/i1769754023597_5371_0_7.jpg","https://xcimg.szwego.com/img/7f9d4644/20260130/i1769754024900_3309_0_8.jpg"],"created_at":"2026-05-20T03:19:23.668Z"},{"id":"item-a333622f361c","sku":"_dxKxKbFERMOcpv1nazTle111SaqejKEPS3PSS8w","name_en":"Siena 肩背包","name_cn":"Siena 肩背包\n▫️型号846705 黑色\n▫️尺寸 22.5*14*8\n Gucci Siena系列小号肩背包延续了Gucci经典马衔扣这一标志性元素的演变 这款肩背包选用精细光面皮革匠心打造 挺括造型融蕴源自20世纪70年代的半马衔扣搭扣设计细节 搭配金色调配件 内部衬里设有三层接档与一个拉链口袋。","specs":{"source":"wsxcme","sourceId":"_dxKxKbFERMOcpv1nazTle111SaqejKEPS3PSS8w","sourceTagId":47002679,"sourceTagName":"古驰/女包","modelNumber":"846705 黑色","rawTitle":"Siena 肩背包\n▫️型号846705 黑色\n▫️尺寸 22.5*14*8\n Gucci Siena系列小号肩背包延续了Gucci经典马衔扣这一标志性元素的演变 这款肩背包选用精细光面皮革匠心打造 挺括造型融蕴源自20世纪70年代的半马衔扣搭扣设计细节 搭配金色调配件 内部衬里设有三层接档与一个拉链口袋。"},"price":null,"currency":"CNY","moq":1,"category":"gucci-women-bags","status":"active","alibaba_url":null,"images":["https://xcimg.szwego.com/img/7f9d4644/20260130/i1769753548524_9286_0_0.jpg","https://xcimg.szwego.com/img/7f9d4644/20260130/i1769753547333_4988_0_1.jpg","https://xcimg.szwego.com/img/7f9d4644/20260130/i1769753548849_4999_0_2.jpg","https://xcimg.szwego.com/img/7f9d4644/20260130/i1769753547530_2808_0_3.jpg","https://xcimg.szwego.com/img/7f9d4644/20260130/i1769753547332_2705_0_4.jpg","https://xcimg.szwego.com/img/7f9d4644/20260130/i1769753548521_3376_0_5.jpg","https://xcimg.szwego.com/img/7f9d4644/20260130/i1769753547548_1278_0_6.jpg","https://xcimg.szwego.com/img/7f9d4644/20260130/i1769753548829_839_0_7.jpg","https://xcimg.szwego.com/img/7f9d4644/20260130/i1769753547332_8627_0_8.jpg"],"created_at":"2026-05-20T03:19:23.548Z"},{"id":"item-32d87588f624","sku":"_dBKBKAk4K4ZOvsb40HUigupH_Lu1_wdUq-sRuPw","name_en":"Siena 肩背包","name_cn":"Siena 肩背包\n▫️型号846705\n▫️尺寸 22.5*14*8\n Gucci Siena系列小号肩背包延续了Gucci经典马衔扣这一标志性元素的演变 这款肩背包选用精细光面皮革匠心打造 挺括造型融蕴源自20世纪70年代的半马衔扣搭扣设计细节 搭配金色调配件 内部衬里设有三层接档与一个拉链口袋。","specs":{"source":"wsxcme","sourceId":"_dBKBKAk4K4ZOvsb40HUigupH_Lu1_wdUq-sRuPw","sourceTagId":47002679,"sourceTagName":"古驰/女包","modelNumber":"846705","rawTitle":"Siena 肩背包\n▫️型号846705\n▫️尺寸 22.5*14*8\n Gucci Siena系列小号肩背包延续了Gucci经典马衔扣这一标志性元素的演变 这款肩背包选用精细光面皮革匠心打造 挺括造型融蕴源自20世纪70年代的半马衔扣搭扣设计细节 搭配金色调配件 内部衬里设有三层接档与一个拉链口袋。"},"price":null,"currency":"CNY","moq":1,"category":"gucci-women-bags","status":"active","alibaba_url":null,"images":["https://xcimg.szwego.com/img/7f9d4644/20260130/i1769753729099_7522_0_0.jpg","https://xcimg.szwego.com/img/7f9d4644/20260130/i1769753730124_9924_0_1.jpg","https://xcimg.szwego.com/img/7f9d4644/20260130/i1769753728901_3434_0_2.jpg","https://xcimg.szwego.com/img/7f9d4644/20260130/i1769753728902_5684_0_3.jpg","https://xcimg.szwego.com/img/7f9d4644/20260130/i1769753728903_9459_0_4.jpg","https://xcimg.szwego.com/img/7f9d4644/20260130/i1769753730128_5103_0_5.jpg","https://xcimg.szwego.com/img/7f9d4644/20260130/i1769753728899_1857_0_6.jpg","https://xcimg.szwego.com/img/7f9d4644/20260130/i1769753730070_8995_0_7.jpg","https://xcimg.szwego.com/img/7f9d4644/20260130/i1769753730130_2605_0_8.jpg"],"created_at":"2026-05-20T03:19:23.598Z"},{"id":"item-1b6d7df783be","sku":"_de7e79kVu1ZtTwX7nEGSNIrjiELu0BojhG9ZVLg","name_en":"Siena 肩背包","name_cn":"Siena 肩背包\n▫️型号846705 酒红色\n▫️尺寸 22.5*14*8\n Gucci Siena系列小号肩背包延续了Gucci经典马衔扣这一标志性元素的演变 这款肩背包选用精细光面皮革匠心打造 挺括造型融蕴源自20世纪70年代的半马衔扣搭扣设计细节 搭配金色调配件 内部衬里设有三层接档与一个拉链口袋。","specs":{"source":"wsxcme","sourceId":"_de7e79kVu1ZtTwX7nEGSNIrjiELu0BojhG9ZVLg","sourceTagId":47002679,"sourceTagName":"古驰/女包","modelNumber":"846705 酒红色","rawTitle":"Siena 肩背包\n▫️型号846705 酒红色\n▫️尺寸 22.5*14*8\n Gucci Siena系列小号肩背包延续了Gucci经典马衔扣这一标志性元素的演变 这款肩背包选用精细光面皮革匠心打造 挺括造型融蕴源自20世纪70年代的半马衔扣搭扣设计细节 搭配金色调配件 内部衬里设有三层接档与一个拉链口袋。"},"price":null,"currency":"CNY","moq":1,"category":"gucci-women-bags","status":"active","alibaba_url":null,"images":["https://xcimg.szwego.com/img/7f9d4644/20260130/i1769753898306_6850_0_0.jpg","https://xcimg.szwego.com/img/7f9d4644/20260130/i1769753897085_9510_0_1.jpg","https://xcimg.szwego.com/img/7f9d4644/20260130/i1769753897592_3060_0_2.jpg","https://xcimg.szwego.com/img/7f9d4644/20260130/i1769753898010_9366_0_3.jpg","https://xcimg.szwego.com/img/7f9d4644/20260130/i1769753898013_6461_0_4.jpg","https://xcimg.szwego.com/img/7f9d4644/20260130/i1769753898302_7682_0_5.jpg","https://xcimg.szwego.com/img/7f9d4644/20260130/i1769753897463_2740_0_6.jpg","https://xcimg.szwego.com/img/7f9d4644/20260130/i1769753897554_7656_0_7.jpg","https://xcimg.szwego.com/img/7f9d4644/20260130/i1769753897699_9746_0_8.jpg"],"created_at":"2026-05-20T03:19:23.638Z"}],"page":32,"pageSize":24,"total":758,"totalPages":32}
