{"items":[{"id":"item-b60872723e03","sku":"_dqZqZZptmlE6JZ6KjKrIOng8hgP4RFS9D3cQ80g","name_en":"Gucci Women Bags","name_cn":"🌟元素真的很吃香\n    好看的东西总是不断被挖掘","specs":{"source":"wsxcme","sourceId":"_dqZqZZptmlE6JZ6KjKrIOng8hgP4RFS9D3cQ80g","sourceTagId":47002679,"sourceTagName":"古驰/女包","rawTitle":"🌟元素真的很吃香\n    好看的东西总是不断被挖掘"},"price":null,"currency":"CNY","moq":1,"category":"gucci-women-bags","status":"active","alibaba_url":null,"images":["https://xcimg.szwego.com/img/7f9d4644/20260130/i1769753841145_5476_0_0.jpg","https://xcimg.szwego.com/img/7f9d4644/20260130/i1769753841475_7850_0_1.jpg","https://xcimg.szwego.com/img/7f9d4644/20260130/i1769753841145_8665_0_2.jpg","https://xcimg.szwego.com/img/7f9d4644/20260130/i1769753841394_169_0_3.jpg","https://xcimg.szwego.com/img/7f9d4644/20260130/i1769753841145_1125_0_4.jpg","https://xcimg.szwego.com/img/7f9d4644/20260130/i1769753841989_7586_0_5.jpg","https://xcimg.szwego.com/img/7f9d4644/20260130/i1769753794571_7072_0_6.jpg","https://xcimg.szwego.com/img/7f9d4644/20260130/i1769753841989_8534_0_7.jpg","https://xcimg.szwego.com/img/7f9d4644/20260130/i1769753841989_9393_0_8.jpg"],"created_at":"2026-05-20T03:19:23.628Z"},{"id":"item-b1583b9d5725","sku":"_dmCmCl3fGYFsxCNLFpuz65hf31t02lJ2esj2WRA","name_en":"Gucci Women Bags","name_cn":"🤍最受欢迎白色","specs":{"source":"wsxcme","sourceId":"_dmCmCl3fGYFsxCNLFpuz65hf31t02lJ2esj2WRA","sourceTagId":47002679,"sourceTagName":"古驰/女包","rawTitle":"🤍最受欢迎白色"},"price":null,"currency":"CNY","moq":1,"category":"gucci-women-bags","status":"active","alibaba_url":null,"images":["https://xcimg.szwego.com/img/7f9d4644/20260130/i1769753794572_6833_0_0.jpg","https://xcimg.szwego.com/img/7f9d4644/20260130/i1769753795276_7741_0_1.jpg","https://xcimg.szwego.com/img/7f9d4644/20260130/i1769753794571_2912_0_2.jpg","https://xcimg.szwego.com/img/7f9d4644/20260130/i1769753794569_795_0_3.jpg","https://xcimg.szwego.com/img/7f9d4644/20260130/i1769753795279_6426_0_4.jpg","https://xcimg.szwego.com/img/7f9d4644/20260130/i1769753794569_2069_0_5.jpg"],"created_at":"2026-05-20T03:19:23.618Z"},{"id":"item-aee25ae79935","sku":"_dqUqUukdNTgwiG2AY_mNY7VJe5eA6caPitLoicg","name_en":"Gucci Women Bags","name_cn":"🔥官网参考\n\n型号:782849  尺寸:27.5x19x4cm","specs":{"source":"wsxcme","sourceId":"_dqUqUukdNTgwiG2AY_mNY7VJe5eA6caPitLoicg","sourceTagId":47002679,"sourceTagName":"古驰/女包","modelNumber":"782849  尺寸:27.5x19x4cm","dimensions":{"lengthCm":27.5,"heightCm":19,"widthCm":4},"rawTitle":"🔥官网参考\n\n型号:782849  尺寸:27.5x19x4cm"},"price":null,"currency":"CNY","moq":1,"category":"gucci-women-bags","status":"active","alibaba_url":null,"images":["https://xcimg.szwego.com/img/dace2ca2/20241106/a1730899983470_4667.jpg","https://xcimg.szwego.com/img/dace2ca2/20241106/a1730899983471_6572.jpg","https://xcimg.szwego.com/img/dace2ca2/20241106/a1730899983466_8424.jpg","https://xcimg.szwego.com/img/dace2ca2/20241106/a1730899983470_2476.jpg","https://xcimg.szwego.com/img/dace2ca2/20241106/a1730899983465_0785.jpg","https://xcimg.szwego.com/img/dace2ca2/20241106/a1730899983470_5230.jpg","https://xcimg.szwego.com/img/dace2ca2/20241106/a1730899984542_2183.jpg","https://xcimg.szwego.com/img/dace2ca2/20241106/a1730899984541_6724.jpg"],"created_at":"2025-03-29T13:24:08.770Z"},{"id":"item-a934d0d1775d","sku":"_dsnsnVtZ34N91ojpZc-I2dv1aUk9XL1P5YwfUCg","name_en":"Gucci Women Bags","name_cn":"实拍#       只做头层皮 真牛皮\n\n款号:308364大象灰\n尺寸:21x15x7cm\n\nGG disco soho相机包. 经典永不会过时\n浮雕双G配上皮革流苏.头层牛皮 超级软\n斜挎✅单肩✅手拿✅","specs":{"source":"wsxcme","sourceId":"_dsnsnVtZ34N91ojpZc-I2dv1aUk9XL1P5YwfUCg","sourceTagId":47002679,"sourceTagName":"古驰/女包","modelNumber":"308364大象灰","dimensions":{"lengthCm":21,"heightCm":15,"widthCm":7},"rawTitle":"实拍#       只做头层皮 真牛皮\n\n款号:308364大象灰\n尺寸:21x15x7cm\n\nGG disco soho相机包. 经典永不会过时\n浮雕双G配上皮革流苏.头层牛皮 超级软\n斜挎✅单肩✅手拿✅"},"price":null,"currency":"CNY","moq":1,"category":"gucci-women-bags","status":"active","alibaba_url":null,"images":["https://xcimg.szwego.com/20221027/i1666863738_8355_0.jpg","https://xcimg.szwego.com/20221027/i1666863738_173_1.jpg","https://xcimg.szwego.com/20221027/i1666863738_3297_2.jpg","https://xcimg.szwego.com/20221027/i1666863738_4716_3.jpg","https://xcimg.szwego.com/20221027/i1666863760_621_0.jpg","https://xcimg.szwego.com/20221027/i1666863738_6445_4.jpg","https://xcimg.szwego.com/20221027/i1666863738_7124_5.jpg","https://xcimg.szwego.com/20221027/i1666863738_8981_6.jpg","https://xcimg.szwego.com/20221027/i1666863738_4721_7.jpg"],"created_at":"2024-11-26T11:46:47.174Z"},{"id":"item-a919d1c173cb","sku":"_d8I8I200AjUO1ASCFOlEZ4EclaT-T78oVlcIL3g","name_en":"Gucci Women Bags","name_cn":"🔥官网参考\n\n型号:782849  尺寸:27.5x19x4cm","specs":{"source":"wsxcme","sourceId":"_d8I8I200AjUO1ASCFOlEZ4EclaT-T78oVlcIL3g","sourceTagId":47002679,"sourceTagName":"古驰/女包","modelNumber":"782849  尺寸:27.5x19x4cm","dimensions":{"lengthCm":27.5,"heightCm":19,"widthCm":4},"rawTitle":"🔥官网参考\n\n型号:782849  尺寸:27.5x19x4cm"},"price":null,"currency":"CNY","moq":1,"category":"gucci-women-bags","status":"active","alibaba_url":null,"images":["https://xcimg.szwego.com/img/dace2ca2/20250327/a1743082486980_3385.jpg","https://xcimg.szwego.com/img/dace2ca2/20250327/a1743082486972_7240.jpg","https://xcimg.szwego.com/img/dace2ca2/20250327/a1743082486978_8128.jpg","https://xcimg.szwego.com/img/dace2ca2/20250327/a1743082486979_3142.jpg","https://xcimg.szwego.com/img/dace2ca2/20250327/a1743082486977_5563.jpg","https://xcimg.szwego.com/img/dace2ca2/20250327/a1743082488450_2347.jpg","https://xcimg.szwego.com/img/dace2ca2/20250327/a1743082488458_8081.jpg","https://xcimg.szwego.com/img/dace2ca2/20250327/a1743082488461_8222.jpg"],"created_at":"2025-03-29T13:24:08.780Z"},{"id":"item-a54c30d80420","sku":"_dbfbfWNwSJu_APXaPMDIzJjJlj7Ft5br-dV5Eew","name_en":"Gucci Women Bags","name_cn":"782849白色帆布棕皮\n明星模特\n上身参考图","specs":{"source":"wsxcme","sourceId":"_dbfbfWNwSJu_APXaPMDIzJjJlj7Ft5br-dV5Eew","sourceTagId":47002679,"sourceTagName":"古驰/女包","rawTitle":"782849白色帆布棕皮\n明星模特\n上身参考图"},"price":null,"currency":"CNY","moq":1,"category":"gucci-women-bags","status":"active","alibaba_url":null,"images":["https://xcimg.szwego.com/img/dace2ca2/20241106/a1730867843922_0103.jpg","https://xcimg.szwego.com/img/dace2ca2/20241106/a1730867843924_0610.jpg"],"created_at":"2025-03-29T13:24:08.750Z"},{"id":"item-a541a4e1575b","sku":"_dololnfkhOaDE7UgPr7kOIo5Ur-xIOH3SKp600Q","name_en":"Gucci Women Bags","name_cn":"🔥官网参考\n\n型号:782849  尺寸:27.5x19x4cm","specs":{"source":"wsxcme","sourceId":"_dololnfkhOaDE7UgPr7kOIo5Ur-xIOH3SKp600Q","sourceTagId":47002679,"sourceTagName":"古驰/女包","modelNumber":"782849  尺寸:27.5x19x4cm","dimensions":{"lengthCm":27.5,"heightCm":19,"widthCm":4},"rawTitle":"🔥官网参考\n\n型号:782849  尺寸:27.5x19x4cm"},"price":null,"currency":"CNY","moq":1,"category":"gucci-women-bags","status":"active","alibaba_url":null,"images":["https://xcimg.szwego.com/img/dace2ca2/20241106/a1730903527457_2537.jpg","https://xcimg.szwego.com/img/dace2ca2/20241106/a1730903527438_7020.jpg","https://xcimg.szwego.com/img/dace2ca2/20241106/a1730903527458_7175.jpg","https://xcimg.szwego.com/img/dace2ca2/20241106/a1730903527406_8678.jpg","https://xcimg.szwego.com/img/dace2ca2/20241106/a1730903527455_6703.jpg","https://xcimg.szwego.com/img/dace2ca2/20241106/a1730903527418_0544.jpg","https://xcimg.szwego.com/img/dace2ca2/20241106/a1730903529134_1662.jpg","https://xcimg.szwego.com/img/dace2ca2/20241106/a1730903529119_4027.jpg"],"created_at":"2025-03-29T13:24:08.783Z"},{"id":"item-a30d954693a4","sku":"_dwVwVbGtanVtOefQf6jYrdM213cJkqO_hkPsX0w","name_en":"Gucci Women Bags","name_cn":"🔥官网参考\n\n型号:782849  尺寸:27.5x19x4cm","specs":{"source":"wsxcme","sourceId":"_dwVwVbGtanVtOefQf6jYrdM213cJkqO_hkPsX0w","sourceTagId":47002679,"sourceTagName":"古驰/女包","modelNumber":"782849  尺寸:27.5x19x4cm","dimensions":{"lengthCm":27.5,"heightCm":19,"widthCm":4},"rawTitle":"🔥官网参考\n\n型号:782849  尺寸:27.5x19x4cm"},"price":null,"currency":"CNY","moq":1,"category":"gucci-women-bags","status":"active","alibaba_url":null,"images":["https://xcimg.szwego.com/img/dace2ca2/20241106/a1730889640909_6541.jpg","https://xcimg.szwego.com/img/dace2ca2/20241106/a1730889640908_6653.jpg","https://xcimg.szwego.com/img/dace2ca2/20241106/a1730889640912_0034.jpg","https://xcimg.szwego.com/img/dace2ca2/20241106/a1730889640920_7314.jpg","https://xcimg.szwego.com/img/dace2ca2/20241106/a1730889640947_2755.jpg","https://xcimg.szwego.com/img/dace2ca2/20241106/a1730889640946_5001.jpg","https://xcimg.szwego.com/img/dace2ca2/20241106/a1730889641678_3837.jpg","https://xcimg.szwego.com/img/dace2ca2/20241106/a1730889641682_2766.jpg"],"created_at":"2025-03-29T13:24:08.755Z"},{"id":"item-a3051f3068e4","sku":"_dtmtm_bkA77HrtFKXv1MU7pBe2Clcz7LQRaD1rA","name_en":"Gucci Women Bags","name_cn":"实拍#       只做头层皮 真牛皮\n\n款号:308364宝蓝\n尺寸:21x15x7cm\n\nGG disco soho相机包. 经典永不会过时\n浮雕双G配上皮革流苏.头层牛皮 超级软\n斜挎✅单肩✅手拿✅","specs":{"source":"wsxcme","sourceId":"_dtmtm_bkA77HrtFKXv1MU7pBe2Clcz7LQRaD1rA","sourceTagId":47002679,"sourceTagName":"古驰/女包","modelNumber":"308364宝蓝","dimensions":{"lengthCm":21,"heightCm":15,"widthCm":7},"rawTitle":"实拍#       只做头层皮 真牛皮\n\n款号:308364宝蓝\n尺寸:21x15x7cm\n\nGG disco soho相机包. 经典永不会过时\n浮雕双G配上皮革流苏.头层牛皮 超级软\n斜挎✅单肩✅手拿✅"},"price":null,"currency":"CNY","moq":1,"category":"gucci-women-bags","status":"active","alibaba_url":null,"images":["https://xcimg.szwego.com/20221027/i1666863792_7690_0.jpg","https://xcimg.szwego.com/20221027/i1666863792_1975_1.jpg","https://xcimg.szwego.com/20221027/i1666863792_6409_2.jpg","https://xcimg.szwego.com/20221027/i1666863792_6705_3.jpg","https://xcimg.szwego.com/20221027/i1666863792_9141_4.jpg","https://xcimg.szwego.com/20221027/i1666863792_6301_5.jpg","https://xcimg.szwego.com/20221027/i1666863792_7962_6.jpg","https://xcimg.szwego.com/20221027/i1666863792_215_7.jpg","https://xcimg.szwego.com/20221027/i1666863792_3924_8.jpg"],"created_at":"2024-11-26T11:46:47.170Z"},{"id":"item-a1ba534012a2","sku":"_d_a_ai_zD4hww-pR6wWDxUCdOQEjmORVz6u1IlQ","name_en":"Gucci Women Bags","name_cn":"✌️容量完全可️满足","specs":{"source":"wsxcme","sourceId":"_d_a_ai_zD4hww-pR6wWDxUCdOQEjmORVz6u1IlQ","sourceTagId":47002679,"sourceTagName":"古驰/女包","rawTitle":"✌️容量完全可️满足"},"price":null,"currency":"CNY","moq":1,"category":"gucci-women-bags","status":"active","alibaba_url":null,"images":["https://xcimg.szwego.com/img/7f9d4644/20260125/i1769322140258_4684_0_0.jpg","https://xcimg.szwego.com/img/7f9d4644/20260125/i1769322140258_5008_0_1.jpg","https://xcimg.szwego.com/img/7f9d4644/20260125/i1769322140259_1001_0_2.jpg","https://xcimg.szwego.com/img/7f9d4644/20260125/i1769322140258_4091_0_3.jpg"],"created_at":"2026-05-20T03:19:23.818Z"},{"id":"item-9c25f27c4352","sku":"_dKZKZS-9I43Vzfce_FVVrTTti7rlKD_UtpM1Kpg","name_en":"Gucci Women Bags","name_cn":"✌️容量完全可️满足","specs":{"source":"wsxcme","sourceId":"_dKZKZS-9I43Vzfce_FVVrTTti7rlKD_UtpM1Kpg","sourceTagId":47002679,"sourceTagName":"古驰/女包","rawTitle":"✌️容量完全可️满足"},"price":null,"currency":"CNY","moq":1,"category":"gucci-women-bags","status":"active","alibaba_url":null,"images":["https://xcimg.szwego.com/img/7f9d4644/20260125/i1769322118975_4435_0_0.jpg","https://xcimg.szwego.com/img/7f9d4644/20260125/i1769322118975_4880_0_1.jpg","https://xcimg.szwego.com/img/7f9d4644/20260125/i1769322118975_7712_0_2.jpg","https://xcimg.szwego.com/img/7f9d4644/20260125/i1769322118975_3088_0_3.jpg","https://xcimg.szwego.com/img/7f9d4644/20260125/i1769322119684_221_0_4.jpg","https://xcimg.szwego.com/img/7f9d4644/20260125/i1769322118975_493_0_5.jpg"],"created_at":"2026-05-20T03:19:23.808Z"},{"id":"item-9b629d1a18c9","sku":"_dqwqwtcafm19C31f0aAK6V43nF4_MbHB6PEs2Ww","name_en":"Gucci Women Bags","name_cn":"实拍#       只做头层皮 真牛皮\n\n款号:308364卡其\n尺寸:21x15x7cm\n\nGG disco soho相机包. 经典永不会过时\n浮雕双G配上皮革流苏.头层牛皮 超级软\n斜挎✅单肩✅手拿✅","specs":{"source":"wsxcme","sourceId":"_dqwqwtcafm19C31f0aAK6V43nF4_MbHB6PEs2Ww","sourceTagId":47002679,"sourceTagName":"古驰/女包","modelNumber":"308364卡其","dimensions":{"lengthCm":21,"heightCm":15,"widthCm":7},"rawTitle":"实拍#       只做头层皮 真牛皮\n\n款号:308364卡其\n尺寸:21x15x7cm\n\nGG disco soho相机包. 经典永不会过时\n浮雕双G配上皮革流苏.头层牛皮 超级软\n斜挎✅单肩✅手拿✅"},"price":null,"currency":"CNY","moq":1,"category":"gucci-women-bags","status":"active","alibaba_url":null,"images":["https://xcimg.szwego.com/img/d06f5dea/20240701/i1719822025_9844_0.jpg","https://xcimg.szwego.com/img/d06f5dea/20240701/i1719822025_1355_6.jpg","https://xcimg.szwego.com/img/d06f5dea/20240701/i1719822025_6364_8.jpg","https://xcimg.szwego.com/img/d06f5dea/20240701/i1719822025_3252_5.jpg","https://xcimg.szwego.com/img/d06f5dea/20240701/i1719822025_3076_1.jpg","https://xcimg.szwego.com/img/d06f5dea/20240701/i1719822025_8881_4.jpg","https://xcimg.szwego.com/img/d06f5dea/20240701/i1719822025_9438_2.jpg","https://xcimg.szwego.com/img/d06f5dea/20240701/i1719822025_5031_3.jpg","https://xcimg.szwego.com/img/d06f5dea/20240701/i1719822025_246_7.jpg"],"created_at":"2024-11-26T11:46:47.166Z"},{"id":"item-9b0035851dd0","sku":"_dsCsCE867lcgXFRMnCCnUpuaCYJojgHBn6DfN4A","name_en":"Gucci Women Bags","name_cn":"正品级\nGUCC 1955 horsebit bag 复古马街扣手袋,谷驰复古回潮,设计师和时尚精们合力展现了G家的正确打开方式,经典的马街扣+monogram+棕色勾边设计,满满的复古调调,复古棕超级耐看,喜欢复古搭的小仙女必须入🤘  \n款号:602204,尺寸:25.5x18x6cm","specs":{"source":"wsxcme","sourceId":"_dsCsCE867lcgXFRMnCCnUpuaCYJojgHBn6DfN4A","sourceTagId":47002679,"sourceTagName":"古驰/女包","modelNumber":"602204","dimensions":{"lengthCm":25.5,"heightCm":18,"widthCm":6},"rawTitle":"正品级\nGUCC 1955 horsebit bag 复古马街扣手袋,谷驰复古回潮,设计师和时尚精们合力展现了G家的正确打开方式,经典的马街扣+monogram+棕色勾边设计,满满的复古调调,复古棕超级耐看,喜欢复古搭的小仙女必须入🤘  \n款号:602204,尺寸:25.5x18x6cm"},"price":null,"currency":"CNY","moq":1,"category":"gucci-women-bags","status":"active","alibaba_url":null,"images":["https://xcimg.szwego.com/20191105/i1572942236_7460_0.jpg","https://xcimg.szwego.com/20191105/i1572942236_9273_1.jpg","https://xcimg.szwego.com/20191105/i1572942236_7165_2.jpg","https://xcimg.szwego.com/20191105/i1572942236_7603_3.jpg","https://xcimg.szwego.com/20191105/i1572942236_8251_4.jpg","https://xcimg.szwego.com/20191105/i1572942236_2718_5.jpg","https://xcimg.szwego.com/20191105/i1572942236_2963_6.jpg","https://xcimg.szwego.com/20191105/i1572942236_6511_7.jpg","https://xcimg.szwego.com/20191105/i1572942236_451_8.jpg"],"created_at":"2024-09-20T05:28:32.907Z"},{"id":"item-9837166b0271","sku":"_dqGqGBh9S9TKPvKK1y8YsHGwHRp8IbJBu8RRzYg","name_en":"Gucci Women Bags","name_cn":"🔥官网参考\n\n型号:782849  尺寸:27.5x19x4cm","specs":{"source":"wsxcme","sourceId":"_dqGqGBh9S9TKPvKK1y8YsHGwHRp8IbJBu8RRzYg","sourceTagId":47002679,"sourceTagName":"古驰/女包","modelNumber":"782849  尺寸:27.5x19x4cm","dimensions":{"lengthCm":27.5,"heightCm":19,"widthCm":4},"rawTitle":"🔥官网参考\n\n型号:782849  尺寸:27.5x19x4cm"},"price":null,"currency":"CNY","moq":1,"category":"gucci-women-bags","status":"active","alibaba_url":null,"images":["https://xcimg.szwego.com/img/dace2ca2/20241106/a1730902305767_5876.jpg","https://xcimg.szwego.com/img/dace2ca2/20241106/a1730902305769_4111.jpg","https://xcimg.szwego.com/img/dace2ca2/20241106/a1730902305770_1125.jpg","https://xcimg.szwego.com/img/dace2ca2/20241106/a1730902305772_4258.jpg","https://xcimg.szwego.com/img/dace2ca2/20241106/a1730902305777_4715.jpg","https://xcimg.szwego.com/img/dace2ca2/20241106/a1730902305773_3855.jpg","https://xcimg.szwego.com/img/dace2ca2/20241106/a1730902306840_0825.jpg","https://xcimg.szwego.com/img/dace2ca2/20241106/a1730902306840_1642.jpg"],"created_at":"2025-03-29T13:24:08.777Z"},{"id":"item-94d400b828c5","sku":"_dvsvsG-vKABUZTiI0jrfpvw_ncdNuR_hQj88C1g","name_en":"Gucci Women Bags","name_cn":"细链条自重很轻!日常容量也是妥妥得️,能装的包包更加分","specs":{"source":"wsxcme","sourceId":"_dvsvsG-vKABUZTiI0jrfpvw_ncdNuR_hQj88C1g","sourceTagId":47002679,"sourceTagName":"古驰/女包","rawTitle":"细链条自重很轻!日常容量也是妥妥得️,能装的包包更加分"},"price":null,"currency":"CNY","moq":1,"category":"gucci-women-bags","status":"active","alibaba_url":null,"images":["https://xcimg.szwego.com/20230524/i1684919618_2806_0.jpg","https://xcimg.szwego.com/20230524/i1684919618_3683_1.jpg"],"created_at":"2026-05-20T03:19:24.198Z"},{"id":"item-9403efc5b870","sku":"_dHwHwk1DcohvZ0ArJY3Oqi8mMhV21IV9xkr_kiA","name_en":"Gucci Women Bags","name_cn":"782849克色漆皮\n明星模特\n上身参考图","specs":{"source":"wsxcme","sourceId":"_dHwHwk1DcohvZ0ArJY3Oqi8mMhV21IV9xkr_kiA","sourceTagId":47002679,"sourceTagName":"古驰/女包","rawTitle":"782849克色漆皮\n明星模特\n上身参考图"},"price":null,"currency":"CNY","moq":1,"category":"gucci-women-bags","status":"active","alibaba_url":null,"images":["https://xcimg.szwego.com/img/dace2ca2/20241106/a1730903553973_0048.jpg","https://xcimg.szwego.com/img/dace2ca2/20241106/a1730903553970_1176.jpg","https://xcimg.szwego.com/img/dace2ca2/20241106/a1730903553974_1536.jpg"],"created_at":"2025-03-29T13:24:08.784Z"},{"id":"item-937cf1b057ae","sku":"_d-Q-QAyKl0dLwL8l7bxq_i90EfJh1DLwwKPxeYg","name_en":"Gucci Women Bags","name_cn":"🎁专柜品质,顶级货,实物实拍!\n款号734814尺寸:宽26.5X高13X侧宽7,","specs":{"source":"wsxcme","sourceId":"_d-Q-QAyKl0dLwL8l7bxq_i90EfJh1DLwwKPxeYg","sourceTagId":47002679,"sourceTagName":"古驰/女包","modelNumber":"734814尺寸:宽26.5X高13X侧宽7","rawTitle":"🎁专柜品质,顶级货,实物实拍!\n款号734814尺寸:宽26.5X高13X侧宽7,"},"price":null,"currency":"CNY","moq":1,"category":"gucci-women-bags","status":"active","alibaba_url":null,"images":["https://xcimg.szwego.com/img/89461437/20231019/i1697690180_320_0.jpg","https://xcimg.szwego.com/img/89461437/20231019/i1697690180_9_1.jpg","https://xcimg.szwego.com/img/89461437/20231019/i1697690180_966_2.jpg","https://xcimg.szwego.com/img/89461437/20231019/i1697690180_7226_3.jpg","https://xcimg.szwego.com/img/89461437/20231019/i1697690180_3232_4.jpg","https://xcimg.szwego.com/img/89461437/20231019/i1697690180_4156_5.jpg","https://xcimg.szwego.com/img/89461437/20231019/i1697690180_7321_6.jpg"],"created_at":"2024-11-26T11:46:47.130Z"},{"id":"item-8f9c03926447","sku":"_dvDvDXlAApZdoBpX_9Zng3gakuhul8P9Zz3JqPA","name_en":"Gucci Women Bags","name_cn":"782849淡绿色漆皮\n有一种美叫 Jackie \nGucci 经典款 Jackie 包包\n日常穿搭出游都是很好的选择","specs":{"source":"wsxcme","sourceId":"_dvDvDXlAApZdoBpX_9Zng3gakuhul8P9Zz3JqPA","sourceTagId":47002679,"sourceTagName":"古驰/女包","rawTitle":"782849淡绿色漆皮\n有一种美叫 Jackie \nGucci 经典款 Jackie 包包\n日常穿搭出游都是很好的选择"},"price":null,"currency":"CNY","moq":1,"category":"gucci-women-bags","status":"active","alibaba_url":null,"images":["https://xcimg.szwego.com/img/dace2ca2/20241106/a1730903230458_8718.jpg","https://xcimg.szwego.com/img/dace2ca2/20241106/a1730903274832_8278.jpg","https://xcimg.szwego.com/img/dace2ca2/20241106/a1730903274873_8314.jpg","https://xcimg.szwego.com/img/dace2ca2/20241106/a1730903274874_3653.jpg"],"created_at":"2025-03-29T13:24:08.778Z"},{"id":"item-8f0eeed8e52f","sku":"_dlMlM9WwoMqMR2IW0MuJpd1QU_VZl1dLzWn7-fg","name_en":"Gucci Women Bags","name_cn":"▪️ 上身效果","specs":{"source":"wsxcme","sourceId":"_dlMlM9WwoMqMR2IW0MuJpd1QU_VZl1dLzWn7-fg","sourceTagId":47002679,"sourceTagName":"古驰/女包","rawTitle":"▪️ 上身效果"},"price":null,"currency":"CNY","moq":1,"category":"gucci-women-bags","status":"active","alibaba_url":null,"images":["https://xcimg.szwego.com/img/7f9d4644/20260125/i1769322309317_3328_0_0.jpg","https://xcimg.szwego.com/img/7f9d4644/20260125/i1769322309317_1128_0_1.jpg","https://xcimg.szwego.com/img/7f9d4644/20260125/i1769322309317_7550_0_2.jpg","https://xcimg.szwego.com/img/7f9d4644/20260125/i1769322309317_9815_0_3.jpg","https://xcimg.szwego.com/img/7f9d4644/20260125/i1769322310091_9098_0_4.jpg","https://xcimg.szwego.com/img/7f9d4644/20260125/i1769322309317_530_0_5.jpg"],"created_at":"2026-05-20T03:19:23.838Z"},{"id":"item-8cb1b6e7b7bc","sku":"_dw7w7kYPGcNC9IXwgA9cCvRe8XYqtQ5ODD0iCAg","name_en":"Gucci Women Bags","name_cn":"【独家背景】实物实拍🌹🌹原厂品质 款号:857622克压花  🌊🌊尺寸28✖️16✖️7","specs":{"source":"wsxcme","sourceId":"_dw7w7kYPGcNC9IXwgA9cCvRe8XYqtQ5ODD0iCAg","sourceTagId":47002679,"sourceTagName":"古驰/女包","modelNumber":"857622克压花  🌊🌊尺寸28✖️16✖️7","rawTitle":"【独家背景】实物实拍🌹🌹原厂品质 款号:857622克压花  🌊🌊尺寸28✖️16✖️7"},"price":null,"currency":"CNY","moq":1,"category":"gucci-women-bags","status":"active","alibaba_url":null,"images":["https://xcimg.szwego.com/img/ac9333ee/20260127/i1769491389701_5835_0_0.jpg","https://xcimg.szwego.com/img/ac9333ee/20260127/i1769491389882_7602_0_1.jpg","https://xcimg.szwego.com/img/ac9333ee/20260127/i1769491389910_5888_0_2.jpg","https://xcimg.szwego.com/img/ac9333ee/20260127/i1769491389855_5019_0_3.jpg","https://xcimg.szwego.com/img/ac9333ee/20260127/i1769491391586_9247_0_4.jpg","https://xcimg.szwego.com/img/ac9333ee/20260127/i1769491391550_49_0_5.jpg","https://xcimg.szwego.com/img/ac9333ee/20260127/i1769491391609_9815_0_6.jpg","https://xcimg.szwego.com/img/ac9333ee/20260127/i1769491391625_8064_0_7.jpg","https://xcimg.szwego.com/img/ac9333ee/20260127/i1769491389744_1222_0_8.jpg"],"created_at":"2026-06-29T11:04:23.144Z"},{"id":"item-8c3a3dc0ecb1","sku":"_dkmkmPAxS6JcybiS0cIHNRyUwj03mMvJeKVW3Xg","name_en":"Gucci Women Bags","name_cn":"【独家背景】实物实拍🌹🌹原厂品质 款号:855371米白  🌊🌊尺寸23✖️17✖️9","specs":{"source":"wsxcme","sourceId":"_dkmkmPAxS6JcybiS0cIHNRyUwj03mMvJeKVW3Xg","sourceTagId":47002679,"sourceTagName":"古驰/女包","modelNumber":"855371米白  🌊🌊尺寸23✖️17✖️9","rawTitle":"【独家背景】实物实拍🌹🌹原厂品质 款号:855371米白  🌊🌊尺寸23✖️17✖️9"},"price":null,"currency":"CNY","moq":1,"category":"gucci-women-bags","status":"active","alibaba_url":null,"images":["https://xcimg.szwego.com/img/ac9333ee/20260127/i1769491320455_9193_0_0.jpg","https://xcimg.szwego.com/img/ac9333ee/20260127/i1769491318961_33_0_1.jpg","https://xcimg.szwego.com/img/ac9333ee/20260127/i1769491320477_8519_0_2.jpg","https://xcimg.szwego.com/img/ac9333ee/20260127/i1769491318900_413_0_3.jpg","https://xcimg.szwego.com/img/ac9333ee/20260127/i1769491320557_4357_0_4.jpg","https://xcimg.szwego.com/img/ac9333ee/20260127/i1769491318900_5455_0_5.jpg","https://xcimg.szwego.com/img/ac9333ee/20260127/i1769491318912_1440_0_6.jpg","https://xcimg.szwego.com/img/ac9333ee/20260127/i1769491320501_4629_0_7.jpg","https://xcimg.szwego.com/img/ac9333ee/20260127/i1769491318952_409_0_8.jpg","https://xcimg.szwego.com/img/ac9333ee/20260127/i1769491320424_4843_0_9.jpg"],"created_at":"2026-06-29T11:04:23.114Z"},{"id":"item-860cf8d28df9","sku":"_dhfhfgji5qHjXKuqE0SvBJVwR44Nduz2LUFDqpg","name_en":"Gucci Women Bags","name_cn":"【独家背景】实物实拍品质 款号:651055蓝胶  🌊🌊尺寸25✖️17.5✖️7","specs":{"source":"wsxcme","sourceId":"_dhfhfgji5qHjXKuqE0SvBJVwR44Nduz2LUFDqpg","sourceTagId":47002679,"sourceTagName":"古驰/女包","modelNumber":"651055蓝胶  🌊🌊尺寸25✖️17.5✖️7","rawTitle":"【独家背景】实物实拍品质 款号:651055蓝胶  🌊🌊尺寸25✖️17.5✖️7"},"price":null,"currency":"CNY","moq":1,"category":"gucci-women-bags","status":"active","alibaba_url":null,"images":["https://xcimg.szwego.com/img/ac9333ee/20251221/i1766299079984_9241_0_0.jpg","https://xcimg.szwego.com/img/ac9333ee/20251221/i1766299080034_2414_0_1.jpg","https://xcimg.szwego.com/img/ac9333ee/20251221/i1766299080032_2047_0_2.jpg","https://xcimg.szwego.com/img/ac9333ee/20251221/i1766299080027_8133_0_3.jpg","https://xcimg.szwego.com/img/ac9333ee/20251221/i1766299077631_637_0_5.jpg","https://xcimg.szwego.com/img/ac9333ee/20251221/i1766299077631_6047_0_6.jpg","https://xcimg.szwego.com/img/ac9333ee/20251221/i1766299077631_4735_0_7.jpg","https://xcimg.szwego.com/img/ac9333ee/20251221/i1766299077631_9498_0_8.jpg","https://xcimg.szwego.com/img/ac9333ee/20251221/i1766299077631_3679_0_9.jpg"],"created_at":"2026-06-29T11:04:23.194Z"},{"id":"item-817500e7720e","sku":"_dvFvFKd5TrEzYY12he8XvsCbHXUSpkEUmHDrFLA","name_en":"Gucci Women Bags","name_cn":"782849淡粉色漆皮\n永远为夏天心动\n樱花粉的包包\n永远为之着迷,心动","specs":{"source":"wsxcme","sourceId":"_dvFvFKd5TrEzYY12he8XvsCbHXUSpkEUmHDrFLA","sourceTagId":47002679,"sourceTagName":"古驰/女包","rawTitle":"782849淡粉色漆皮\n永远为夏天心动\n樱花粉的包包\n永远为之着迷,心动"},"price":null,"currency":"CNY","moq":1,"category":"gucci-women-bags","status":"active","alibaba_url":null,"images":["https://xcimg.szwego.com/img/dace2ca2/20241106/a1730900486927_2223.jpg","https://xcimg.szwego.com/img/dace2ca2/20241106/a1730900486924_7128.jpg","https://xcimg.szwego.com/img/dace2ca2/20241106/a1730900486925_7620.jpg","https://xcimg.szwego.com/img/dace2ca2/20241106/a1730900486922_7265.jpg","https://xcimg.szwego.com/img/dace2ca2/20241106/a1730900486932_0865.jpg","https://xcimg.szwego.com/img/dace2ca2/20241106/a1730900486929_5026.jpg"],"created_at":"2025-03-29T13:24:08.771Z"},{"id":"item-7ed5d6b1dc8d","sku":"_d-c-cOp2mJNXQ0-yBgV4IF4FlsgNLZa6CDv7GYA","name_en":"Gucci Women Bags","name_cn":"升级版实拍#       \n\n款号:498156小号\n尺寸:26x18x10cm\n\npadlock小号购物袋 \n小号略显精致、容量非常合理、也是绝对够用的!休闲正式场合上班通勤都可以、同样一点也不重、皮肩带背起来更舒适!精致耐看 低调百搭风","specs":{"source":"wsxcme","sourceId":"_d-c-cOp2mJNXQ0-yBgV4IF4FlsgNLZa6CDv7GYA","sourceTagId":47002679,"sourceTagName":"古驰/女包","modelNumber":"498156小号","dimensions":{"lengthCm":26,"heightCm":18,"widthCm":10},"rawTitle":"升级版实拍#       \n\n款号:498156小号\n尺寸:26x18x10cm\n\npadlock小号购物袋 \n小号略显精致、容量非常合理、也是绝对够用的!休闲正式场合上班通勤都可以、同样一点也不重、皮肩带背起来更舒适!精致耐看 低调百搭风"},"price":null,"currency":"CNY","moq":1,"category":"gucci-women-bags","status":"active","alibaba_url":null,"images":["https://xcimg.szwego.com/20210712/i1626094629_4317_1.jpg","https://xcimg.szwego.com/20210712/i1626094629_6552_2.jpg","https://xcimg.szwego.com/20210712/i1626094629_4447_3.jpg","https://xcimg.szwego.com/20210712/i1626094629_1092_4.jpg","https://xcimg.szwego.com/20210712/i1626094629_9903_5.jpg","https://xcimg.szwego.com/20210712/i1626094629_8521_7.jpg","https://xcimg.szwego.com/20210712/i1626094629_950_6.jpg","https://xcimg.szwego.com/20210712/i1626094629_6876_0.jpg","https://xcimg.szwego.com/20210712/i1626094629_4360_8.jpg"],"created_at":"2024-11-26T11:46:47.177Z"}],"page":28,"pageSize":24,"total":758,"totalPages":32}
