{"items":[{"id":"item-0ba41bae71c8","sku":"_dcRcRGlj8sEdmujXKWr9-TWQq_FDqWB1PQOxKtw","name_en":"Genuine Leather","name_cn":"Genuine Leather\nCrinkled Nappa Leather Bracelet Bag\n9751\nColor: Deep Olive\nThis versatile tubular bag is crafted from crinkled Nappa lambskin and can be worn as a bracelet. Both ends are adorned with embossed lambskin panels.\nDetachable and adjustable strap, snap closure\nZipper closure, matching pull tab\nUnlined\nAnagram embossed 25-10-10","specs":{"source":"wsxcme","sourceId":"_dcRcRGlj8sEdmujXKWr9-TWQq_FDqWB1PQOxKtw","sourceTagId":47002713,"sourceTagName":"/women's bag","rawTitle":"Genuine Leather\nCrinkled Nappa Leather Bracelet Bag\n9751\nColor: Deep Olive\nThis versatile tubular bag is crafted from crinkled Nappa lambskin and can be worn as a bracelet. Both ends are adorned with embossed lambskin panels.\nDetachable and adjustable strap, snap closure\nZipper closure, matching pull tab\nUnlined\nAnagram embossed 25-10-10"},"price":null,"currency":"CNY","moq":1,"category":"loewe-women-bags","status":"active","alibaba_url":null,"images":["https://xcimg.szwego.com/img/8ad247dd/20240914/i1726291867_2195_7.jpg","https://xcimg.szwego.com/img/8ad247dd/20240914/i1726291867_9230_1.jpg","https://xcimg.szwego.com/img/8ad247dd/20240914/i1726291867_5912_6.jpg","https://xcimg.szwego.com/img/8ad247dd/20240914/i1726291867_3367_2.jpg","https://xcimg.szwego.com/img/8ad247dd/20240914/i1726291867_7071_3.jpg","https://xcimg.szwego.com/img/8ad247dd/20240914/i1726291867_152_0.jpg","https://xcimg.szwego.com/img/8ad247dd/20240914/i1726291867_8242_5.jpg","https://xcimg.szwego.com/img/8ad247dd/20240914/i1726291879_1240_0.jpg","https://xcimg.szwego.com/img/8ad247dd/20240914/i1726291917_7759_0.jpg"],"created_at":"2024-09-27T06:55:30.698Z"},{"id":"item-20dbdae31751","sku":"_dfrfrcDqU30NHWEK018D2kMgZk07L5v5Dr21Zng","name_en":"Genuine Leather","name_cn":"Genuine Leather\nNew Celebrity Style Model 332\nMedium Soft Calfskin Pebble Bucket Bag\nPebble perfectly blends pure minimalist lines with eye-catching design, creating a unique and innovative bag design. The iconic Anagram engraved hardware serves both decoration and practicality, features an adjustable shoulder strap length and suits multiple carrying ways, and the unique twisted structure complements subtle details. This medium size version is made of soft calfskin.\nShoulder or crossbody carry\nAdjustable shoulder strap\nMagnetic snap closure\nInterior pocket\nSynthetic leather lining\nAnagram engraved pebble\nSize: 24.5*23.5*28cm","specs":{"source":"wsxcme","sourceId":"_dfrfrcDqU30NHWEK018D2kMgZk07L5v5Dr21Zng","sourceTagId":47002713,"sourceTagName":"/women's bag","modelNumber":"332","dimensions":{"lengthCm":24.5,"heightCm":23.5,"widthCm":28},"rawTitle":"Genuine Leather\nNew Celebrity Style Model 332\nMedium Soft Calfskin Pebble Bucket Bag\nPebble perfectly blends pure minimalist lines with eye-catching design, creating a unique and innovative bag design. The iconic Anagram engraved hardware serves both decoration and practicality, features an adjustable shoulder strap length and suits multiple carrying ways, and the unique twisted structure complements subtle details. This medium size version is made of soft calfskin.\nShoulder or crossbody carry\nAdjustable shoulder strap\nMagnetic snap closure\nInterior pocket\nSynthetic leather lining\nAnagram engraved pebble\nSize: 24.5*23.5*28cm"},"price":null,"currency":"CNY","moq":1,"category":"loewe-women-bags","status":"active","alibaba_url":null,"images":["https://xcimg.szwego.com/img/8ad247dd/20240827/i1724744178_6142_0.jpg","https://xcimg.szwego.com/img/8ad247dd/20240827/i1724744207_7132_0.jpg","https://xcimg.szwego.com/img/8ad247dd/20240827/i1724744234_448_0.jpg","https://xcimg.szwego.com/img/8ad247dd/20240827/i1724744222_2574_1.jpg","https://xcimg.szwego.com/img/8ad247dd/20240827/i1724744163_4877_1.jpg","https://xcimg.szwego.com/img/8ad247dd/20240827/i1724744142_217_0.jpg","https://xcimg.szwego.com/img/8ad247dd/20240827/i1724744196_8284_0.jpg","https://xcimg.szwego.com/img/8ad247dd/20240827/i1724744222_1310_0.jpg","https://xcimg.szwego.com/img/8ad247dd/20240827/i1724744267_2605_0.jpg"],"created_at":"2024-09-27T06:55:30.697Z"}],"page":25,"pageSize":24,"total":578,"totalPages":25}
