{"items":[{"id":"item-a2152e49a1f4","sku":"_dw3w3dkJpkK2-y4jpbOpNJyYl5Q9zmbz375t0Og","name_en":"puzzle新成员✌️","name_cn":"puzzle新成员✌️\n新出的长手柄~内附有长肩带 可以切换不同的背法~\n除了腋下包包\n还有一根长肩带\n随意切换","specs":{"source":"wsxcme","sourceId":"_dw3w3dkJpkK2-y4jpbOpNJyYl5Q9zmbz375t0Og","sourceTagId":47002713,"sourceTagName":"罗意威/女包","rawTitle":"puzzle新成员✌️\n新出的长手柄~内附有长肩带 可以切换不同的背法~\n除了腋下包包\n还有一根长肩带\n随意切换"},"price":null,"currency":"CNY","moq":1,"category":"loewe-women-bags","status":"active","alibaba_url":null,"images":["https://xcimg.szwego.com/imgHD/6bf20321/20260508/cmp_i1778221338582_6018_0_0.jpg","https://xcimg.szwego.com/imgHD/6bf20321/20260508/cmp_i1778221338582_3044_0_1.jpg","https://xcimg.szwego.com/imgHD/6bf20321/20260508/cmp_i1778221413198_1505_0_3.jpg","https://xcimg.szwego.com/imgHD/6bf20321/20260508/cmp_i1778221413198_2209_0_4.jpg","https://xcimg.szwego.com/imgHD/6bf20321/20260508/cmp_i1778221413198_4450_0_5.jpg","https://xcimg.szwego.com/imgHD/6bf20321/20260508/cmp_i1778221413198_4100_0_6.jpg"],"created_at":"2026-05-20T08:54:03.701Z"},{"id":"item-e6d713d3a54c","sku":"_dnini5AEOLN34ZCAuUfb-OEGVW_BAIuEdkc_scA","name_en":"ꫛꫀꪝ👄 最🆕版本puzzle 沙色出货🎉明星同款 选用进口荔面牛皮 ,全新版本整个包身都是沙色拼接 包包自重很轻 容量非常可观 实用百搭又方便 出行,超级百搭色是必入款~小号Size24*16*10cm","name_cn":"ꫛꫀꪝ👄 最🆕版本puzzle 沙色出货🎉明星同款 选用进口荔面牛皮 ,全新版本整个包身都是沙色拼接 包包自重很轻 容量非常可观 实用百搭又方便 出行,超级百搭色是必入款~小号Size24*16*10cm","specs":{"source":"wsxcme","sourceId":"_dnini5AEOLN34ZCAuUfb-OEGVW_BAIuEdkc_scA","sourceTagId":47002713,"sourceTagName":"罗意威/女包","rawTitle":"ꫛꫀꪝ👄 最🆕版本puzzle 沙色出货🎉明星同款 选用进口荔面牛皮 ,全新版本整个包身都是沙色拼接 包包自重很轻 容量非常可观 实用百搭又方便 出行,超级百搭色是必入款~小号Size24*16*10cm"},"price":null,"currency":"CNY","moq":1,"category":"loewe-women-bags","status":"active","alibaba_url":null,"images":["https://xcimg.szwego.com/20211116/i1637048676_5426_0.jpg","https://xcimg.szwego.com/20211116/i1637048676_5141_1.jpg","https://xcimg.szwego.com/20211116/i1637048676_1969_2.jpg","https://xcimg.szwego.com/20211116/i1637048676_4114_3.jpg","https://xcimg.szwego.com/20211116/i1637048676_5843_4.jpg","https://xcimg.szwego.com/20211116/i1637048676_6874_5.jpg","https://xcimg.szwego.com/20211116/i1637048676_1477_6.jpg","https://xcimg.szwego.com/20211116/i1637048676_3635_7.jpg","https://xcimg.szwego.com/20211116/i1637048676_4972_8.jpg"],"created_at":"2024-10-24T12:53:14.227Z"}],"page":25,"pageSize":24,"total":578,"totalPages":25}
