{"items":[{"id":"item-d5b1b5e1539d","sku":"_dspspOkDOHzFLdojGYWf0hYSDPsWqKIcpsDbOzw","name_en":"Loewe Women Bags","name_cn":"上身效果图","specs":{"source":"wsxcme","sourceId":"_dspspOkDOHzFLdojGYWf0hYSDPsWqKIcpsDbOzw","sourceTagId":47002713,"sourceTagName":"罗意威/女包","rawTitle":"上身效果图"},"price":null,"currency":"CNY","moq":1,"category":"loewe-women-bags","status":"active","alibaba_url":null,"images":["https://xcimg.szwego.com/20220218/i1645166335_6371_0.jpg","https://xcimg.szwego.com/20220218/i1645166335_1134_1.jpg"],"created_at":"2024-09-27T06:55:30.731Z"},{"id":"item-d580ca91512f","sku":"_dkhkhYkh9CqhVgsxZplbvxGtv38KYTF9UaAr_5A","name_en":"Loewe Women Bags","name_cn":"#官网图#","specs":{"source":"wsxcme","sourceId":"_dkhkhYkh9CqhVgsxZplbvxGtv38KYTF9UaAr_5A","sourceTagId":47002713,"sourceTagName":"罗意威/女包","rawTitle":"#官网图#"},"price":null,"currency":"CNY","moq":1,"category":"loewe-women-bags","status":"active","alibaba_url":null,"images":["https://xcimg.szwego.com/imgHD/6bf20321/20260507/cmp_i1778090312698_7822_0_0.jpg","https://xcimg.szwego.com/imgHD/6bf20321/20260507/cmp_i1778090311493_9256_0_2.jpg","https://xcimg.szwego.com/imgHD/6bf20321/20260507/cmp_i1778090312726_1885_0_3.jpg","https://xcimg.szwego.com/imgHD/6bf20321/20260507/cmp_i1778090359755_6422_0_3.jpg","https://xcimg.szwego.com/imgHD/6bf20321/20260507/cmp_i1778090311493_8366_0_4.jpg","https://xcimg.szwego.com/imgHD/6bf20321/20260507/cmp_i1778090312724_6179_0_5.jpg","https://xcimg.szwego.com/imgHD/6bf20321/20260507/cmp_i1778090311493_3972_0_6.jpg","https://xcimg.szwego.com/imgHD/6bf20321/20260507/cmp_i1778090312724_1298_0_7.jpg","https://xcimg.szwego.com/imgHD/6bf20321/20260507/cmp_i1778090311493_3950_0_8.jpg"],"created_at":"2026-05-20T08:54:03.691Z"},{"id":"item-d4a23c91790f","sku":"_d9z9zEJ-zRO9gAzaViFnRfPCs5x6Mk165zV7sHw","name_en":"Loewe Women Bags","name_cn":"原厂皮\nL❤ewe Hammock新尺寸「白荔拼」\nHammock 是一款带有柔软侧面包身的多功能手袋,可释放侧面来改变形状。 环状带子可以使手袋有多种佩戴方式。 这个全新的紧凑版本采用柔软粒面牛皮革制成。\n斜挎,肩背或通过顶部提手携带\n可拆卸,可调节肩带\n内部钩扣封口\n两个内部插袋,一个外部拉链口袋\n可以使用肩带和个性化挂饰进行定制\n人字纹棉帆布衬里\nAnagram 压纹\n\n型号:3813\n尺寸:19.5×14.5×20cm","specs":{"source":"wsxcme","sourceId":"_d9z9zEJ-zRO9gAzaViFnRfPCs5x6Mk165zV7sHw","sourceTagId":47002713,"sourceTagName":"罗意威/女包","modelNumber":"3813","dimensions":{"lengthCm":19.5,"heightCm":14.5,"widthCm":20},"rawTitle":"原厂皮\nL❤ewe Hammock新尺寸「白荔拼」\nHammock 是一款带有柔软侧面包身的多功能手袋,可释放侧面来改变形状。 环状带子可以使手袋有多种佩戴方式。 这个全新的紧凑版本采用柔软粒面牛皮革制成。\n斜挎,肩背或通过顶部提手携带\n可拆卸,可调节肩带\n内部钩扣封口\n两个内部插袋,一个外部拉链口袋\n可以使用肩带和个性化挂饰进行定制\n人字纹棉帆布衬里\nAnagram 压纹\n\n型号:3813\n尺寸:19.5×14.5×20cm"},"price":null,"currency":"CNY","moq":1,"category":"loewe-women-bags","status":"active","alibaba_url":null,"images":["https://xcimg.szwego.com/20250310/i1741594122_2625_0.jpg","https://xcimg.szwego.com/20250310/i1741594122_643_1.jpg","https://xcimg.szwego.com/20250310/i1741594122_1450_2.jpg","https://xcimg.szwego.com/20250310/i1741594122_3783_3.jpg","https://xcimg.szwego.com/20250310/i1741594122_6492_4.jpg","https://xcimg.szwego.com/20250310/i1741594122_7688_5.jpg","https://xcimg.szwego.com/20250310/i1741594122_5077_6.jpg","https://xcimg.szwego.com/20250310/i1741594122_6957_7.jpg","https://xcimg.szwego.com/20250310/i1741594122_7520_8.jpg"],"created_at":"2025-08-03T04:49:31.460Z"},{"id":"item-cb0ec62e180c","sku":"_dpIpI45vGJW7aS781pxCFgqEQcQEtQ9TImE6G5w","name_en":"Loewe Women Bags","name_cn":"原厂皮\n11050A \n纳帕牛皮革 Flamenco 手拿包\n十九世纪七十年代发布的 Flamenco 手拿包,采用拉绳收紧,并打上标志性的盘绕结。此版本采用纳帕牛皮革制成。\nFlamenco 可容纳例如一只大号钱包、所有尺寸的手机或一本 A5 笔记本,0.5 升容量的瓶子和太阳镜盒\n可肩背、斜背或手拿\n可拆卸可调节肩带\n低调的磁扣开合\n金色绒面革衬里\nLoewe 烫金或烫银 30-19-24","specs":{"source":"wsxcme","sourceId":"_dpIpI45vGJW7aS781pxCFgqEQcQEtQ9TImE6G5w","sourceTagId":47002713,"sourceTagName":"罗意威/女包","rawTitle":"原厂皮\n11050A \n纳帕牛皮革 Flamenco 手拿包\n十九世纪七十年代发布的 Flamenco 手拿包,采用拉绳收紧,并打上标志性的盘绕结。此版本采用纳帕牛皮革制成。\nFlamenco 可容纳例如一只大号钱包、所有尺寸的手机或一本 A5 笔记本,0.5 升容量的瓶子和太阳镜盒\n可肩背、斜背或手拿\n可拆卸可调节肩带\n低调的磁扣开合\n金色绒面革衬里\nLoewe 烫金或烫银 30-19-24"},"price":null,"currency":"CNY","moq":1,"category":"loewe-women-bags","status":"active","alibaba_url":null,"images":["https://xcimg.szwego.com/20231210/i1702180109_4190_0.jpg","https://xcimg.szwego.com/20231210/i1702180109_4100_2.jpg","https://xcimg.szwego.com/20231210/i1702180109_9966_3.jpg","https://xcimg.szwego.com/20231210/i1702180109_5716_4.jpg","https://xcimg.szwego.com/20231210/i1702180109_6316_5.jpg","https://xcimg.szwego.com/20231210/i1702180109_914_6.jpg","https://xcimg.szwego.com/20231210/i1702180109_3912_1.jpg","https://xcimg.szwego.com/20231210/i1702180109_4552_7.jpg","https://xcimg.szwego.com/20231210/i1702180109_9355_8.jpg"],"created_at":"2025-01-20T11:52:30.402Z"},{"id":"item-ca2f4a97f6d4","sku":"_dseseyuRpnSspK7ZxjK30RSZe0AGrArCo-JVhHQ","name_en":"Loewe Women Bags","name_cn":"罗意威/女包","specs":{"source":"wsxcme","sourceId":"_dseseyuRpnSspK7ZxjK30RSZe0AGrArCo-JVhHQ","sourceTagId":47002713,"sourceTagName":"罗意威/女包","rawTitle":""},"price":null,"currency":"CNY","moq":1,"category":"loewe-women-bags","status":"active","alibaba_url":null,"images":["https://xcimg.szwego.com/img/6bf20321/20240101/i1704048005_7965_0.jpg","https://xcimg.szwego.com/img/6bf20321/20240101/i1704048005_2415_0.jpg","https://xcimg.szwego.com/img/6bf20321/20240101/i1704048005_7519_0.jpg","https://xcimg.szwego.com/img/6bf20321/20240101/i1704048005_2558_0.jpg","https://xcimg.szwego.com/img/6bf20321/20240101/i1704048005_1943_0.jpg","https://xcimg.szwego.com/img/6bf20321/20240101/i1704048005_2355_0.jpg","https://xcimg.szwego.com/img/6bf20321/20240101/i1704048005_8568_0.jpg","https://xcimg.szwego.com/img/6bf20321/20240101/i1704048005_8597_0.jpg"],"created_at":"2025-02-10T14:04:39.750Z"},{"id":"item-c8518639ff38","sku":"_dqlqlUtpLETJ00PojB-t7RqtGktco7ceMdUZCGA","name_en":"Loewe Women Bags","name_cn":"原厂皮\n腋下包 枣红\nLoє❤️wє 新作,腋下包的天花板!\n时髦精出门扮酷的利器~\n火一万年的Puzzle衍生款puzzle hobo!\n一出现惹得不少包控种草\npuzzle hobo沿袭了几何包的经典造型\n整体更灵巧、苗条\n宽肩带看上去也更高级、有腔调\n手拎和肩背都很有型!\n别看Ta身材不大\n纳帕小牛皮的柔软\n让整个包轻便且巨能装\n日常背超实用,太优秀了!\nsize:29*12*10cm","specs":{"source":"wsxcme","sourceId":"_dqlqlUtpLETJ00PojB-t7RqtGktco7ceMdUZCGA","sourceTagId":47002713,"sourceTagName":"罗意威/女包","rawTitle":"原厂皮\n腋下包 枣红\nLoє❤️wє 新作,腋下包的天花板!\n时髦精出门扮酷的利器~\n火一万年的Puzzle衍生款puzzle hobo!\n一出现惹得不少包控种草\npuzzle hobo沿袭了几何包的经典造型\n整体更灵巧、苗条\n宽肩带看上去也更高级、有腔调\n手拎和肩背都很有型!\n别看Ta身材不大\n纳帕小牛皮的柔软\n让整个包轻便且巨能装\n日常背超实用,太优秀了!\nsize:29*12*10cm"},"price":null,"currency":"CNY","moq":1,"category":"loewe-women-bags","status":"active","alibaba_url":null,"images":["https://xcimg.szwego.com/20231028/i1698475808_9909_0.jpg","https://xcimg.szwego.com/20231028/i1698475808_7503_1.jpg","https://xcimg.szwego.com/20231028/i1698475808_2437_2.jpg","https://xcimg.szwego.com/20231028/i1698475808_5063_3.jpg","https://xcimg.szwego.com/20231028/i1698475808_2592_4.jpg","https://xcimg.szwego.com/20231028/i1698475808_6410_5.jpg","https://xcimg.szwego.com/20231028/i1698475813_9232_0.jpg","https://xcimg.szwego.com/20231028/i1698475808_3735_6.jpg","https://xcimg.szwego.com/20231028/i1698475808_2371_7.jpg"],"created_at":"2024-09-27T06:55:30.730Z"},{"id":"item-c844d6f1ce38","sku":"_dlAlAceIZxNxgs2_mhhAH33oRlJxkK8tuj-nJHA","name_en":"Loewe Women Bags","name_cn":"原厂皮\n腋下包 岩石灰\nLoє❤️wє 新作,腋下包的天花板!\n时髦精出门扮酷的利器~\n火一万年的Puzzle衍生款puzzle hobo!\n一出现惹得不少包控种草\npuzzle hobo沿袭了几何包的经典造型\n整体更灵巧、苗条\n宽肩带看上去也更高级、有腔调\n手拎和肩背都很有型!\n别看Ta身材不大\n纳帕小牛皮的柔软\n让整个包轻便且巨能装\n日常背超实用,太优秀了!\nsize:29*12*10cm","specs":{"source":"wsxcme","sourceId":"_dlAlAceIZxNxgs2_mhhAH33oRlJxkK8tuj-nJHA","sourceTagId":47002713,"sourceTagName":"罗意威/女包","rawTitle":"原厂皮\n腋下包 岩石灰\nLoє❤️wє 新作,腋下包的天花板!\n时髦精出门扮酷的利器~\n火一万年的Puzzle衍生款puzzle hobo!\n一出现惹得不少包控种草\npuzzle hobo沿袭了几何包的经典造型\n整体更灵巧、苗条\n宽肩带看上去也更高级、有腔调\n手拎和肩背都很有型!\n别看Ta身材不大\n纳帕小牛皮的柔软\n让整个包轻便且巨能装\n日常背超实用,太优秀了!\nsize:29*12*10cm"},"price":null,"currency":"CNY","moq":1,"category":"loewe-women-bags","status":"active","alibaba_url":null,"images":["https://xcimg.szwego.com/20220323/i1648016600_9539_0.jpg","https://xcimg.szwego.com/20220323/i1648016600_4596_1.jpg","https://xcimg.szwego.com/20220323/i1648016600_9_2.jpg","https://xcimg.szwego.com/20220323/i1648016600_75_3.jpg","https://xcimg.szwego.com/20220323/i1648016600_4948_4.jpg","https://xcimg.szwego.com/20220323/i1648016600_6593_5.jpg","https://xcimg.szwego.com/20220323/i1648016600_5437_6.jpg","https://xcimg.szwego.com/20220323/i1648016600_4455_7.jpg","https://xcimg.szwego.com/20220323/i1648016600_740_8.jpg"],"created_at":"2024-09-27T06:55:30.736Z"},{"id":"item-c84131339d59","sku":"_dN_N_XfuvR6YPhwwKG4U2t1QmJD4qwOL86zIUEA","name_en":"Loewe Women Bags","name_cn":"高级且时尚","specs":{"source":"wsxcme","sourceId":"_dN_N_XfuvR6YPhwwKG4U2t1QmJD4qwOL86zIUEA","sourceTagId":47002713,"sourceTagName":"罗意威/女包","rawTitle":"高级且时尚"},"price":null,"currency":"CNY","moq":1,"category":"loewe-women-bags","status":"active","alibaba_url":null,"images":["https://xcimg.szwego.com/img/7f9d4644/20250721/i1753077412996_3287_0_4.jpg","https://xcimg.szwego.com/img/7f9d4644/20250721/i1753077407041_7945_0_3.jpg","https://xcimg.szwego.com/img/7f9d4644/20250721/i1753077407041_8245_0_0.jpg","https://xcimg.szwego.com/img/7f9d4644/20250721/i1753077407041_3287_0_1.jpg","https://xcimg.szwego.com/img/7f9d4644/20250721/i1753077407041_6470_0_2.jpg"],"created_at":"2026-06-29T11:11:39.256Z"},{"id":"item-c2e853209997","sku":"_dfwfw8r395dXY3_rA6v307mksA0BiRTyzz_duEg","name_en":"Loewe Women Bags","name_cn":"原厂皮\nLoewe大耳朵羊皮兔子\n现货供应 型号1008自配套同色系宽织带\n🤩🤩可爱暴击,兔年限量款嫦娥兔子包皮质,手感特别舒适,容量也不用多说,日常用品都可,精致又减龄太治愈了。尺寸18.5-19-9cm","specs":{"source":"wsxcme","sourceId":"_dfwfw8r395dXY3_rA6v307mksA0BiRTyzz_duEg","sourceTagId":47002713,"sourceTagName":"罗意威/女包","modelNumber":"1008自配套同色系宽织带","rawTitle":"原厂皮\nLoewe大耳朵羊皮兔子\n现货供应 型号1008自配套同色系宽织带\n🤩🤩可爱暴击,兔年限量款嫦娥兔子包皮质,手感特别舒适,容量也不用多说,日常用品都可,精致又减龄太治愈了。尺寸18.5-19-9cm"},"price":null,"currency":"CNY","moq":1,"category":"loewe-women-bags","status":"active","alibaba_url":null,"images":["https://xcimg.szwego.com/img/8ad247dd/20240924/i1727166034_3707_0.jpg","https://xcimg.szwego.com/img/8ad247dd/20240924/i1727166035_9563_2.jpg","https://xcimg.szwego.com/img/8ad247dd/20240924/i1727166035_6992_3.jpg","https://xcimg.szwego.com/img/8ad247dd/20240924/i1727166035_8167_4.jpg","https://xcimg.szwego.com/img/8ad247dd/20240924/i1727166035_2190_6.jpg","https://xcimg.szwego.com/img/8ad247dd/20240924/i1727166034_9407_1.jpg","https://xcimg.szwego.com/img/8ad247dd/20240924/i1727166035_8311_5.jpg","https://xcimg.szwego.com/img/8ad247dd/20240924/i1727166035_8076_8.jpg","https://xcimg.szwego.com/img/8ad247dd/20240924/i1727166035_6869_7.jpg"],"created_at":"2024-09-27T06:55:30.752Z"},{"id":"item-bde3870d1a6f","sku":"_dwmwmSHa3Gs7hfO8OxApUrOUzPDbX1jE64U_WIQ","name_en":"Loewe Women Bags","name_cn":"#官网图#","specs":{"source":"wsxcme","sourceId":"_dwmwmSHa3Gs7hfO8OxApUrOUzPDbX1jE64U_WIQ","sourceTagId":47002713,"sourceTagName":"罗意威/女包","rawTitle":"#官网图#"},"price":null,"currency":"CNY","moq":1,"category":"loewe-women-bags","status":"active","alibaba_url":null,"images":["https://xcimg.szwego.com/20230912/i1694453887_171_0.jpg","https://xcimg.szwego.com/20230912/i1694453887_6030_1.jpg","https://xcimg.szwego.com/20230912/i1694453887_9144_2.jpg","https://xcimg.szwego.com/20230912/i1694453887_4920_3.jpg","https://xcimg.szwego.com/20230912/i1694453887_6294_4.jpg","https://xcimg.szwego.com/20230912/i1694453887_9265_5.jpg","https://xcimg.szwego.com/20230912/i1694453887_1963_6.jpg","https://xcimg.szwego.com/20230912/i1694453887_2623_7.jpg","https://xcimg.szwego.com/20230912/i1694453887_7334_8.jpg"],"created_at":"2025-02-10T14:04:39.767Z"},{"id":"item-ba29c8429689","sku":"_dlblbmbvtyZzaEFxcFBhS4egJ0mf_XLIMviXITA","name_en":"Loewe Women Bags","name_cn":"#官网图#","specs":{"source":"wsxcme","sourceId":"_dlblbmbvtyZzaEFxcFBhS4egJ0mf_XLIMviXITA","sourceTagId":47002713,"sourceTagName":"罗意威/女包","rawTitle":"#官网图#"},"price":null,"currency":"CNY","moq":1,"category":"loewe-women-bags","status":"active","alibaba_url":null,"images":["https://xcimg.szwego.com/img/6bf20321/20240803/i1722620754_5844_2.jpg","https://xcimg.szwego.com/img/6bf20321/20240803/i1722620754_1983_1.jpg","https://xcimg.szwego.com/img/6bf20321/20240803/i1722620754_1202_0.jpg"],"created_at":"2025-02-10T14:04:39.743Z"},{"id":"item-b72c2ff22f0c","sku":"_dIqIqL9jqAhSF6Egb2O1mjQY7Ua7juucO9PWQkw","name_en":"Loewe Women Bags","name_cn":"原厂皮\nL❤ewe迷你经典牛皮革 Hammock Hobo 手袋「板栗」\nHammock Hobo 手袋将经典手袋能轻松改变形状的设计进行解构,保留颇具代表性的吊床造型,打造出一款时尚百搭且符合人体工学的 Hobo 手袋。此迷你版本采用经典牛皮革制成,打结牛皮革带子可进行个性化设计。\n可肩背、斜背或手提\n拉链开合\n牛皮革拉链头\n人字纹棉质帆布衬里\nAnagram 骰子\n\n型号:1301\n尺寸:28×17×9.5cm","specs":{"source":"wsxcme","sourceId":"_dIqIqL9jqAhSF6Egb2O1mjQY7Ua7juucO9PWQkw","sourceTagId":47002713,"sourceTagName":"罗意威/女包","modelNumber":"1301","dimensions":{"lengthCm":28,"heightCm":17,"widthCm":9.5},"rawTitle":"原厂皮\nL❤ewe迷你经典牛皮革 Hammock Hobo 手袋「板栗」\nHammock Hobo 手袋将经典手袋能轻松改变形状的设计进行解构,保留颇具代表性的吊床造型,打造出一款时尚百搭且符合人体工学的 Hobo 手袋。此迷你版本采用经典牛皮革制成,打结牛皮革带子可进行个性化设计。\n可肩背、斜背或手提\n拉链开合\n牛皮革拉链头\n人字纹棉质帆布衬里\nAnagram 骰子\n\n型号:1301\n尺寸:28×17×9.5cm"},"price":null,"currency":"CNY","moq":1,"category":"loewe-women-bags","status":"active","alibaba_url":null,"images":["https://xcimg.szwego.com/20240112/i1705054333_1318_0.jpg","https://xcimg.szwego.com/20240112/i1705054333_747_1.jpg","https://xcimg.szwego.com/20240112/i1705054333_785_2.jpg","https://xcimg.szwego.com/20240112/i1705054333_9985_3.jpg","https://xcimg.szwego.com/20240112/i1705054333_5713_4.jpg","https://xcimg.szwego.com/20240112/i1705054333_4294_5.jpg","https://xcimg.szwego.com/20240112/i1705054333_8492_6.jpg","https://xcimg.szwego.com/20240112/i1705054333_2758_7.jpg","https://xcimg.szwego.com/20240112/i1705054333_4001_8.jpg"],"created_at":"2024-09-27T06:55:30.743Z"},{"id":"item-b6dc1544bb8c","sku":"_ds9s9O0PadrubhMF5Lg5-c07jnmoTlC2M5CF0jg","name_en":"Loewe Women Bags","name_cn":"新款吊床包依旧松弛👑","specs":{"source":"wsxcme","sourceId":"_ds9s9O0PadrubhMF5Lg5-c07jnmoTlC2M5CF0jg","sourceTagId":47002713,"sourceTagName":"罗意威/女包","rawTitle":"新款吊床包依旧松弛👑"},"price":null,"currency":"CNY","moq":1,"category":"loewe-women-bags","status":"active","alibaba_url":null,"images":["https://xcimg.szwego.com/img/7f9d4644/20251229/i1766976758531_1641_0_0.jpg","https://xcimg.szwego.com/img/7f9d4644/20251229/i1766976758002_9848_0_1.jpg","https://xcimg.szwego.com/img/7f9d4644/20251229/i1766976758002_9918_0_2.jpg","https://xcimg.szwego.com/img/7f9d4644/20251229/i1766976758005_8270_0_3.jpg","https://xcimg.szwego.com/img/7f9d4644/20251229/i1766976758003_7578_0_4.jpg","https://xcimg.szwego.com/img/7f9d4644/20251229/i1766976758004_423_0_5.jpg"],"created_at":"2026-05-20T08:54:03.171Z"},{"id":"item-b6439ed47bc8","sku":"_dj0j0fSAMqwIG-WWoSVtjkeTJ0V4e7-iyi-qGUw","name_en":"Loewe Women Bags","name_cn":"原厂皮\n🔥新款Puzzle Hobo 是一款柔软且精致的短款纳帕🐂牛皮革单肩包👜灵感来自 Puzzle 包的长方体形状和独特的几何线条始于颜值🤩忠于皮质,特别是 puzzle hobo的皮质软乎到一整个惊艳住了🎀罗家hobo 颜色超级nice,时尚百搭,又酷又甜,真的太绝了,一整个爱了😻经典纳帕牛皮,手感手软细腻~几何设计真的很耐看可以背超级久的一款包❤️短肩带肩背,一个外部拉链袋和一个内袋✨牛皮革拉链头,可以连接个性化挂饰的 D 形环🔗人字纹棉质帆布Anagram 压纹🛍️\n尺寸:28CM~10CM~5.5CM\n款号:8018\n颜色:酒红色","specs":{"source":"wsxcme","sourceId":"_dj0j0fSAMqwIG-WWoSVtjkeTJ0V4e7-iyi-qGUw","sourceTagId":47002713,"sourceTagName":"罗意威/女包","modelNumber":"8018","rawTitle":"原厂皮\n🔥新款Puzzle Hobo 是一款柔软且精致的短款纳帕🐂牛皮革单肩包👜灵感来自 Puzzle 包的长方体形状和独特的几何线条始于颜值🤩忠于皮质,特别是 puzzle hobo的皮质软乎到一整个惊艳住了🎀罗家hobo 颜色超级nice,时尚百搭,又酷又甜,真的太绝了,一整个爱了😻经典纳帕牛皮,手感手软细腻~几何设计真的很耐看可以背超级久的一款包❤️短肩带肩背,一个外部拉链袋和一个内袋✨牛皮革拉链头,可以连接个性化挂饰的 D 形环🔗人字纹棉质帆布Anagram 压纹🛍️\n尺寸:28CM~10CM~5.5CM\n款号:8018\n颜色:酒红色"},"price":null,"currency":"CNY","moq":1,"category":"loewe-women-bags","status":"active","alibaba_url":null,"images":["https://xcimg.szwego.com/img/53c7e919/20250329/i1743197207050_3151_0_0.jpg","https://xcimg.szwego.com/img/53c7e919/20250329/i1743197200178_2914_0_1.jpg","https://xcimg.szwego.com/img/53c7e919/20250329/i1743197207050_9428_0_2.jpg","https://xcimg.szwego.com/img/53c7e919/20250329/i1743197200177_4268_0_3.jpg","https://xcimg.szwego.com/img/53c7e919/20250329/i1743197207274_1485_0_4.jpg","https://xcimg.szwego.com/img/53c7e919/20250329/i1743197200600_468_0_5.jpg","https://xcimg.szwego.com/img/53c7e919/20250329/i1743197207291_3306_0_6.jpg","https://xcimg.szwego.com/img/53c7e919/20250329/i1743197200570_9540_0_7.jpg","https://xcimg.szwego.com/img/53c7e919/20250329/i1743197200630_636_0_8.jpg"],"created_at":"2025-03-31T06:11:46.141Z"},{"id":"item-b5fd2ea4238c","sku":"_dmgmgjBsHciWXTk8MqKCZ3wAthKWxiaNTT1JlDQ","name_en":"Loewe Women Bags","name_cn":"原厂皮\n新品 1774  (配套金屬鏈條+1條長肩帶)\n柔软纳帕羊皮革 Flamenco Purse 手拿包\n大號30-10.5-20\nFlamenco Purse 手袋采用褶皱设计,侧面搭配标志性绳结等关键细节。款式时尚百搭,可作为手拿包携带,亦可搭配甜甜圈链条肩背,或搭配皮革肩带斜挎。此版本采用柔软纳帕羊皮革制成。\n可肩背、斜挎或手提\n可拆卸可调节皮革肩带\n可拆卸甜甜圈链条饰有Anagram 镌刻卵石纹\n低调的磁扣开合\n绒面革衬里\nLOEWE烫金或烫银","specs":{"source":"wsxcme","sourceId":"_dmgmgjBsHciWXTk8MqKCZ3wAthKWxiaNTT1JlDQ","sourceTagId":47002713,"sourceTagName":"罗意威/女包","rawTitle":"原厂皮\n新品 1774  (配套金屬鏈條+1條長肩帶)\n柔软纳帕羊皮革 Flamenco Purse 手拿包\n大號30-10.5-20\nFlamenco Purse 手袋采用褶皱设计,侧面搭配标志性绳结等关键细节。款式时尚百搭,可作为手拿包携带,亦可搭配甜甜圈链条肩背,或搭配皮革肩带斜挎。此版本采用柔软纳帕羊皮革制成。\n可肩背、斜挎或手提\n可拆卸可调节皮革肩带\n可拆卸甜甜圈链条饰有Anagram 镌刻卵石纹\n低调的磁扣开合\n绒面革衬里\nLOEWE烫金或烫银"},"price":null,"currency":"CNY","moq":1,"category":"loewe-women-bags","status":"active","alibaba_url":null,"images":["https://xcimg.szwego.com/20240407/i1712426481_1442_0.jpg","https://xcimg.szwego.com/20240407/i1712426680_2902_0.jpg","https://xcimg.szwego.com/20240407/i1712426481_9135_4.jpg","https://xcimg.szwego.com/20240407/i1712426481_3966_3.jpg","https://xcimg.szwego.com/20240407/i1712426481_1475_8.jpg","https://xcimg.szwego.com/20240407/i1712426481_769_1.jpg","https://xcimg.szwego.com/20240407/i1712426481_6347_2.jpg","https://xcimg.szwego.com/20240407/i1712426481_9791_5.jpg","https://xcimg.szwego.com/20240407/i1712426481_8408_7.jpg"],"created_at":"2024-09-27T06:58:14.025Z"},{"id":"item-b5e2e34bc382","sku":"_do2o2XrMhqK9P06me3JVIwWlQoj3h7RiD8u8r6g","name_en":"Loewe Women Bags","name_cn":"#官网图#","specs":{"source":"wsxcme","sourceId":"_do2o2XrMhqK9P06me3JVIwWlQoj3h7RiD8u8r6g","sourceTagId":47002713,"sourceTagName":"罗意威/女包","rawTitle":"#官网图#"},"price":null,"currency":"CNY","moq":1,"category":"loewe-women-bags","status":"active","alibaba_url":null,"images":["https://xcimg.szwego.com/img/6bf20321/20240807/i1722966568_9248_5.jpg","https://xcimg.szwego.com/img/6bf20321/20240807/i1722966568_5368_2.jpg","https://xcimg.szwego.com/img/6bf20321/20240807/i1722966568_6312_4.jpg","https://xcimg.szwego.com/img/6bf20321/20240807/i1722966568_5199_7.jpg","https://xcimg.szwego.com/img/6bf20321/20240807/i1722966568_7386_8.jpg","https://xcimg.szwego.com/img/6bf20321/20240807/i1722966568_2177_6.jpg","https://xcimg.szwego.com/img/6bf20321/20240807/i1722966568_9253_1.jpg","https://xcimg.szwego.com/img/6bf20321/20240807/i1722966568_8123_0.jpg","https://xcimg.szwego.com/img/6bf20321/20240807/i1722966568_8488_3.jpg"],"created_at":"2025-02-10T14:04:39.753Z"},{"id":"item-b3bf13735e9d","sku":"_doIoIBMO7PYGW-SqKJG4nKjYsrvvyEhCqtTLsiw","name_en":"Loewe Women Bags","name_cn":"原厂皮\n🔥新款Puzzle Hobo 是一款柔软且精致的短款纳帕🐂牛皮革单肩包👜灵感来自 Puzzle 包的长方体形状和独特的几何线条始于颜值🤩忠于皮质,特别是 puzzle hobo的皮质软乎到一整个惊艳住了🎀罗家hobo 颜色超级nice,时尚百搭,又酷又甜,真的太绝了,一整个爱了😻经典纳帕牛皮,手感手软细腻~几何设计真的很耐看可以背超级久的一款包💚短肩带肩背,一个外部拉链袋和一个内袋✨牛皮革拉链头,可以连接个性化挂饰的 D 形环🔗人字纹棉质帆布Anagram 压纹🛍️\n尺寸:28CM~10CM~5.5CM\n款号:8018\n颜色:绿色","specs":{"source":"wsxcme","sourceId":"_doIoIBMO7PYGW-SqKJG4nKjYsrvvyEhCqtTLsiw","sourceTagId":47002713,"sourceTagName":"罗意威/女包","modelNumber":"8018","rawTitle":"原厂皮\n🔥新款Puzzle Hobo 是一款柔软且精致的短款纳帕🐂牛皮革单肩包👜灵感来自 Puzzle 包的长方体形状和独特的几何线条始于颜值🤩忠于皮质,特别是 puzzle hobo的皮质软乎到一整个惊艳住了🎀罗家hobo 颜色超级nice,时尚百搭,又酷又甜,真的太绝了,一整个爱了😻经典纳帕牛皮,手感手软细腻~几何设计真的很耐看可以背超级久的一款包💚短肩带肩背,一个外部拉链袋和一个内袋✨牛皮革拉链头,可以连接个性化挂饰的 D 形环🔗人字纹棉质帆布Anagram 压纹🛍️\n尺寸:28CM~10CM~5.5CM\n款号:8018\n颜色:绿色"},"price":null,"currency":"CNY","moq":1,"category":"loewe-women-bags","status":"active","alibaba_url":null,"images":["https://xcimg.szwego.com/img/53c7e919/20250329/i1743197282995_785_0_0.jpg","https://xcimg.szwego.com/img/53c7e919/20250329/i1743197282996_4780_0_1.jpg","https://xcimg.szwego.com/img/53c7e919/20250329/i1743197266536_7572_0_2.jpg","https://xcimg.szwego.com/img/53c7e919/20250329/i1743197266536_5926_0_3.jpg","https://xcimg.szwego.com/img/53c7e919/20250329/i1743197272040_9446_0_4.jpg","https://xcimg.szwego.com/img/53c7e919/20250329/i1743197271961_1869_0_5.jpg","https://xcimg.szwego.com/img/53c7e919/20250329/i1743197271940_4138_0_6.jpg","https://xcimg.szwego.com/img/53c7e919/20250329/i1743197266881_1129_0_7.jpg","https://xcimg.szwego.com/img/53c7e919/20250329/i1743197272009_6576_0_8.jpg"],"created_at":"2025-03-31T06:11:46.143Z"},{"id":"item-b370ea214da7","sku":"_dCRCRqk1o_uatB89o_kq4RBLE_DNcahY8Wvq29A","name_en":"Loewe Women Bags","name_cn":"原厂皮\n新品 \n型號1773 23-17-5.5(配套金屬鏈條加长皮肩帶)\n迷你纳帕羊皮革 Flamenco 手拿包 \n十九世纪七十年代发布的 Flamenco 手拿包,采用拉绳收紧,并打上标志性的盘绕结。Flamenco Purse 经过巧妙的重新设计,以纤巧的绳结和褶皱顶部打造柔软感性的垂坠设计。此版本采用柔软纳帕羊皮革制成。\n可斜挎或肩背\n可拆卸可调节肩带\n低调的磁扣开合\n绒面革衬里\nLOEWE 烫金\n):金色\n材质:羊皮革\n重量:0.2 kg","specs":{"source":"wsxcme","sourceId":"_dCRCRqk1o_uatB89o_kq4RBLE_DNcahY8Wvq29A","sourceTagId":47002713,"sourceTagName":"罗意威/女包","rawTitle":"原厂皮\n新品 \n型號1773 23-17-5.5(配套金屬鏈條加长皮肩帶)\n迷你纳帕羊皮革 Flamenco 手拿包 \n十九世纪七十年代发布的 Flamenco 手拿包,采用拉绳收紧,并打上标志性的盘绕结。Flamenco Purse 经过巧妙的重新设计,以纤巧的绳结和褶皱顶部打造柔软感性的垂坠设计。此版本采用柔软纳帕羊皮革制成。\n可斜挎或肩背\n可拆卸可调节肩带\n低调的磁扣开合\n绒面革衬里\nLOEWE 烫金\n):金色\n材质:羊皮革\n重量:0.2 kg"},"price":null,"currency":"CNY","moq":1,"category":"loewe-women-bags","status":"active","alibaba_url":null,"images":["https://xcimg.szwego.com/20240407/i1712424970_8791_0.jpg","https://xcimg.szwego.com/20240407/i1712424970_2895_1.jpg","https://xcimg.szwego.com/20240407/i1712424970_4698_2.jpg","https://xcimg.szwego.com/20240407/i1712424970_8896_3.jpg","https://xcimg.szwego.com/20240407/i1712424970_600_5.jpg","https://xcimg.szwego.com/20240407/i1712424970_5362_8.jpg","https://xcimg.szwego.com/20240407/i1712424970_4240_6.jpg","https://xcimg.szwego.com/20240407/i1712424970_3540_4.jpg","https://xcimg.szwego.com/20240407/i1712424970_5599_7.jpg"],"created_at":"2024-09-27T06:55:30.721Z"},{"id":"item-b29fb265ba3a","sku":"_dOHOHNbuyv4zVur_w2gDu6rlBZQ_vig_c8X0akA","name_en":"Loewe Women Bags","name_cn":"原厂皮\n2023新款来了。paseo 系列,俗称饺子包\n型號1668A\n\n35-21-11","specs":{"source":"wsxcme","sourceId":"_dOHOHNbuyv4zVur_w2gDu6rlBZQ_vig_c8X0akA","sourceTagId":47002713,"sourceTagName":"罗意威/女包","rawTitle":"原厂皮\n2023新款来了。paseo 系列,俗称饺子包\n型號1668A\n\n35-21-11"},"price":null,"currency":"CNY","moq":1,"category":"loewe-women-bags","status":"active","alibaba_url":null,"images":["https://xcimg.szwego.com/20230420/i1681989149_9402_0.jpg","https://xcimg.szwego.com/20230420/i1681989149_8693_1.jpg","https://xcimg.szwego.com/20230420/i1681989149_2788_2.jpg","https://xcimg.szwego.com/20230420/i1681989149_5991_3.jpg","https://xcimg.szwego.com/20230420/i1681989149_5074_4.jpg","https://xcimg.szwego.com/20230420/i1681989149_4117_5.jpg","https://xcimg.szwego.com/20230420/i1681989149_3892_6.jpg","https://xcimg.szwego.com/20230420/i1681989149_9644_7.jpg","https://xcimg.szwego.com/20230420/i1681989149_2086_8.jpg"],"created_at":"2024-09-27T06:55:30.757Z"},{"id":"item-b288ab5297ae","sku":"_dcmcmx-kWfSQ3K21c7Z_wnTg4aooePHCh3oFDDw","name_en":"Loewe Women Bags","name_cn":"原厂皮\nL❤ewe迷你经典牛皮革 Hammock Hobo 手袋「白色」\nHammock Hobo 手袋将经典手袋能轻松改变形状的设计进行解构,保留颇具代表性的吊床造型,打造出一款时尚百搭且符合人体工学的 Hobo 手袋。此迷你版本采用经典牛皮革制成,打结牛皮革带子可进行个性化设计。\n可肩背、斜背或手提\n拉链开合\n牛皮革拉链头\n人字纹棉质帆布衬里\nAnagram 骰子\n\n型号:1301\n尺寸:28×17×9.5cm","specs":{"source":"wsxcme","sourceId":"_dcmcmx-kWfSQ3K21c7Z_wnTg4aooePHCh3oFDDw","sourceTagId":47002713,"sourceTagName":"罗意威/女包","modelNumber":"1301","dimensions":{"lengthCm":28,"heightCm":17,"widthCm":9.5},"rawTitle":"原厂皮\nL❤ewe迷你经典牛皮革 Hammock Hobo 手袋「白色」\nHammock Hobo 手袋将经典手袋能轻松改变形状的设计进行解构,保留颇具代表性的吊床造型,打造出一款时尚百搭且符合人体工学的 Hobo 手袋。此迷你版本采用经典牛皮革制成,打结牛皮革带子可进行个性化设计。\n可肩背、斜背或手提\n拉链开合\n牛皮革拉链头\n人字纹棉质帆布衬里\nAnagram 骰子\n\n型号:1301\n尺寸:28×17×9.5cm"},"price":null,"currency":"CNY","moq":1,"category":"loewe-women-bags","status":"active","alibaba_url":null,"images":["https://xcimg.szwego.com/20240112/i1705054086_7150_0.jpg","https://xcimg.szwego.com/20240112/i1705054086_9180_1.jpg","https://xcimg.szwego.com/20240112/i1705054086_4726_2.jpg","https://xcimg.szwego.com/20240112/i1705054086_6034_3.jpg","https://xcimg.szwego.com/20240112/i1705054086_525_4.jpg","https://xcimg.szwego.com/20240112/i1705054086_2531_5.jpg","https://xcimg.szwego.com/20240112/i1705054086_6246_6.jpg","https://xcimg.szwego.com/20240112/i1705054086_5483_7.jpg","https://xcimg.szwego.com/20240112/i1705054086_7510_8.jpg"],"created_at":"2024-09-27T06:55:30.747Z"},{"id":"item-b22deaba84a5","sku":"_dDSDSfRdfiGpZvF-plgUnpalel1pdS0jeA617SA","name_en":"Loewe Women Bags","name_cn":"ꫛꫀꪝ \npuzzle新版来咯\n全新做法mini肩带可调节 夏季限定拼接做法 \n更显年轻和视觉层次感 现货秒发√\nPuzzle的容量一直是让人夸累了\n说Ta装得了整个世界真的不夸张,实用性是超强!搭配起来不只是时髦利器~夏季选Ta准没错!size:18*8*12cm","specs":{"source":"wsxcme","sourceId":"_dDSDSfRdfiGpZvF-plgUnpalel1pdS0jeA617SA","sourceTagId":47002713,"sourceTagName":"罗意威/女包","rawTitle":"ꫛꫀꪝ \npuzzle新版来咯\n全新做法mini肩带可调节 夏季限定拼接做法 \n更显年轻和视觉层次感 现货秒发√\nPuzzle的容量一直是让人夸累了\n说Ta装得了整个世界真的不夸张,实用性是超强!搭配起来不只是时髦利器~夏季选Ta准没错!size:18*8*12cm"},"price":null,"currency":"CNY","moq":1,"category":"loewe-women-bags","status":"active","alibaba_url":null,"images":["https://xcimg.szwego.com/20230723/i1690094228_3357_0.jpg","https://xcimg.szwego.com/20230723/i1690094228_7616_1.jpg","https://xcimg.szwego.com/20230723/i1690094228_7974_2.jpg","https://xcimg.szwego.com/20230723/i1690094228_6177_3.jpg","https://xcimg.szwego.com/20230723/i1690094228_849_4.jpg","https://xcimg.szwego.com/20230723/i1690094228_534_5.jpg","https://xcimg.szwego.com/20230723/i1690094228_7916_6.jpg","https://xcimg.szwego.com/20230723/i1690094228_2139_7.jpg","https://xcimg.szwego.com/20230723/i1690094228_7474_8.jpg"],"created_at":"2024-10-24T12:53:14.229Z"},{"id":"item-b1d859c9621c","sku":"_djFjFU5AW74bwvunoz2ddKroGVys8hoA26OoYyQ","name_en":"Loewe Women Bags","name_cn":"原厂皮\nAnagram 🌟提花双面刺绣肩带 No.1667 \n现货👈🏻 焦糖棕色/银\n肩带长度:1050-40mm(可调节长度)","specs":{"source":"wsxcme","sourceId":"_djFjFU5AW74bwvunoz2ddKroGVys8hoA26OoYyQ","sourceTagId":47002713,"sourceTagName":"罗意威/女包","rawTitle":"原厂皮\nAnagram 🌟提花双面刺绣肩带 No.1667 \n现货👈🏻 焦糖棕色/银\n肩带长度:1050-40mm(可调节长度)"},"price":null,"currency":"CNY","moq":1,"category":"loewe-women-bags","status":"active","alibaba_url":null,"images":["https://xcimg.szwego.com/img/8ad247dd/20240925/i1727256442_9387_3.jpg","https://xcimg.szwego.com/img/8ad247dd/20240925/i1727256442_686_5.jpg","https://xcimg.szwego.com/img/8ad247dd/20240925/i1727256442_1996_6.jpg","https://xcimg.szwego.com/img/8ad247dd/20240925/i1727256442_8359_0.jpg","https://xcimg.szwego.com/img/8ad247dd/20240925/i1727256442_9128_4.jpg","https://xcimg.szwego.com/img/8ad247dd/20240925/i1727256442_5313_1.jpg","https://xcimg.szwego.com/img/8ad247dd/20240925/i1727256442_8501_2.jpg","https://xcimg.szwego.com/img/8ad247dd/20240925/i1727256442_4226_7.jpg"],"created_at":"2024-09-27T06:55:30.755Z"},{"id":"item-b03f6d98e276","sku":"_dH6H6n-ydHARfhI35Od9t9c_Obku-5ZMcccdcFQ","name_en":"Loewe Women Bags","name_cn":"原厂皮\nL❤ewe Hammock新尺寸「珍珠灰荔拼」\nHammock 是一款带有柔软侧面包身的多功能手袋,可释放侧面来改变形状。 环状带子可以使手袋有多种佩戴方式。 这个全新的紧凑版本采用柔软粒面牛皮革制成。\n斜挎,肩背或通过顶部提手携带\n可拆卸,可调节肩带\n内部钩扣封口\n两个内部插袋,一个外部拉链口袋\n可以使用肩带和个性化挂饰进行定制\n人字纹棉帆布衬里\nAnagram 压纹\n\n型号:3813\n尺寸:19.5×14.5×20cm","specs":{"source":"wsxcme","sourceId":"_dH6H6n-ydHARfhI35Od9t9c_Obku-5ZMcccdcFQ","sourceTagId":47002713,"sourceTagName":"罗意威/女包","modelNumber":"3813","dimensions":{"lengthCm":19.5,"heightCm":14.5,"widthCm":20},"rawTitle":"原厂皮\nL❤ewe Hammock新尺寸「珍珠灰荔拼」\nHammock 是一款带有柔软侧面包身的多功能手袋,可释放侧面来改变形状。 环状带子可以使手袋有多种佩戴方式。 这个全新的紧凑版本采用柔软粒面牛皮革制成。\n斜挎,肩背或通过顶部提手携带\n可拆卸,可调节肩带\n内部钩扣封口\n两个内部插袋,一个外部拉链口袋\n可以使用肩带和个性化挂饰进行定制\n人字纹棉帆布衬里\nAnagram 压纹\n\n型号:3813\n尺寸:19.5×14.5×20cm"},"price":null,"currency":"CNY","moq":1,"category":"loewe-women-bags","status":"active","alibaba_url":null,"images":["https://xcimg.szwego.com/20250310/i1741594796_5549_0.jpg","https://xcimg.szwego.com/20250310/i1741594796_8921_1.jpg","https://xcimg.szwego.com/20250310/i1741594796_9622_2.jpg","https://xcimg.szwego.com/20250310/i1741594796_238_3.jpg","https://xcimg.szwego.com/20250310/i1741594796_458_4.jpg","https://xcimg.szwego.com/20250310/i1741594796_2228_5.jpg","https://xcimg.szwego.com/20250310/i1741594796_2630_6.jpg","https://xcimg.szwego.com/20250310/i1741594796_4286_7.jpg","https://xcimg.szwego.com/20250310/i1741594796_7344_8.jpg"],"created_at":"2025-08-03T04:49:31.463Z"},{"id":"item-af0dcd6a966f","sku":"_dqeqeJ1d6CCxL8bJ0ydajZQ1YG7FweBArmTS1qA","name_en":"Loewe Women Bags","name_cn":"原厂皮\n1774  (配套金屬鏈條+1條長肩帶)桉树绿\n柔软纳帕羊皮革 Flamenco Purse 手拿包\n大號30-10.5-20\nFlamenco Purse 手袋采用褶皱设计,侧面搭配标志性绳结等关键细节。款式时尚百搭,可作为手拿包携带,亦可搭配甜甜圈链条肩背,或搭配皮革肩带斜挎。此版本采用柔软纳帕羊皮革制成。\n可肩背、斜挎或手提\n可拆卸可调节皮革肩带\n可拆卸甜甜圈链条饰有Anagram 镌刻卵石纹\n低调的磁扣开合\n绒面革衬里\nLOEWE烫金或烫银","specs":{"source":"wsxcme","sourceId":"_dqeqeJ1d6CCxL8bJ0ydajZQ1YG7FweBArmTS1qA","sourceTagId":47002713,"sourceTagName":"罗意威/女包","rawTitle":"原厂皮\n1774  (配套金屬鏈條+1條長肩帶)桉树绿\n柔软纳帕羊皮革 Flamenco Purse 手拿包\n大號30-10.5-20\nFlamenco Purse 手袋采用褶皱设计,侧面搭配标志性绳结等关键细节。款式时尚百搭,可作为手拿包携带,亦可搭配甜甜圈链条肩背,或搭配皮革肩带斜挎。此版本采用柔软纳帕羊皮革制成。\n可肩背、斜挎或手提\n可拆卸可调节皮革肩带\n可拆卸甜甜圈链条饰有Anagram 镌刻卵石纹\n低调的磁扣开合\n绒面革衬里\nLOEWE烫金或烫银"},"price":null,"currency":"CNY","moq":1,"category":"loewe-women-bags","status":"active","alibaba_url":null,"images":["https://xcimg.szwego.com/img/8ad247dd/20240923/i1727075407_7436_2.jpg","https://xcimg.szwego.com/img/8ad247dd/20240923/i1727075435_8225_0.jpg","https://xcimg.szwego.com/img/8ad247dd/20240923/i1727075408_8152_5.jpg","https://xcimg.szwego.com/img/8ad247dd/20240923/i1727075408_5738_6.jpg","https://xcimg.szwego.com/img/8ad247dd/20240923/i1727075407_2936_4.jpg","https://xcimg.szwego.com/img/8ad247dd/20240923/i1727075407_2879_0.jpg","https://xcimg.szwego.com/img/8ad247dd/20240923/i1727075408_9409_7.jpg","https://xcimg.szwego.com/img/8ad247dd/20240923/i1727075408_180_8.jpg","https://xcimg.szwego.com/img/8ad247dd/20240923/i1727075451_2881_0.jpg"],"created_at":"2024-09-27T06:55:30.726Z"}],"page":18,"pageSize":24,"total":578,"totalPages":25}
