{"items":[{"id":"item-4aa0fd4455f6","sku":"_dl_l_uM72JqpartGtij8WnOlXWhOEJ73ynpEIjA","name_en":"【M47106】Backup 奶油白双肩包","name_cn":"【M47106】Backup 奶油白双肩包\n顶级\n本款 Backup Ys双肩包取材Monogram Empreinte牛皮革,低调铺陈 Monogram 压纹。可拆卸并调节的肩带实现单肩和双肩背携,顶部手柄和编织链条提供手提或斜挎选择。\n尺寸:20 x22x14厘米(长度x高x宽)","specs":{"source":"wsxcme","sourceId":"_dl_l_uM72JqpartGtij8WnOlXWhOEJ73ynpEIjA","sourceTagId":47002743,"sourceTagName":"女士双肩包","dimensions":{"lengthCm":20,"heightCm":22,"widthCm":14},"rawTitle":"【M47106】Backup 奶油白双肩包\n顶级\n本款 Backup Ys双肩包取材Monogram Empreinte牛皮革,低调铺陈 Monogram 压纹。可拆卸并调节的肩带实现单肩和双肩背携,顶部手柄和编织链条提供手提或斜挎选择。\n尺寸:20 x22x14厘米(长度x高x宽)"},"price":null,"currency":"CNY","moq":1,"category":"women-backpacks","status":"active","alibaba_url":null,"images":["https://xcimg.szwego.com/img/e8675cc7/20240510/i1715276957_4399_2.jpg","https://xcimg.szwego.com/img/e8675cc7/20240510/i1715276957_9325_8.jpg","https://xcimg.szwego.com/img/e8675cc7/20240510/i1715276957_4149_6.jpg","https://xcimg.szwego.com/img/e8675cc7/20240510/i1715276957_1617_10.jpg","https://xcimg.szwego.com/img/e8675cc7/20240510/i1715276957_3653_5.jpg","https://xcimg.szwego.com/img/e8675cc7/20240510/i1715276957_7351_3.jpg","https://xcimg.szwego.com/img/e8675cc7/20240510/i1715276957_6320_14.jpg","https://xcimg.szwego.com/img/e8675cc7/20240510/i1715276957_9851_7.jpg","https://xcimg.szwego.com/img/e8675cc7/20240510/i1715276957_9591_4.jpg"],"created_at":"2024-10-19T03:00:54.596Z"},{"id":"item-f08e73161159","sku":"_dqeqeJ1d6CCxK-LF6ydOmYAtcFbB6eBArmzayqg","name_en":"【M47074】Backup 樱花粉双肩包","name_cn":"【M47074】Backup 樱花粉双肩包\n顶级\n本款 Backup Ys双肩包取材Monogram Empreinte牛皮革,低调铺陈 Monogram 压纹。可拆卸并调节的肩带实现单肩和双肩背携,顶部手柄和编织链条提供手提或斜挎选择。\n尺寸:20 x22x14厘米(长度x高x宽)","specs":{"source":"wsxcme","sourceId":"_dqeqeJ1d6CCxK-LF6ydOmYAtcFbB6eBArmzayqg","sourceTagId":47002743,"sourceTagName":"女士双肩包","dimensions":{"lengthCm":20,"heightCm":22,"widthCm":14},"rawTitle":"【M47074】Backup 樱花粉双肩包\n顶级\n本款 Backup Ys双肩包取材Monogram Empreinte牛皮革,低调铺陈 Monogram 压纹。可拆卸并调节的肩带实现单肩和双肩背携,顶部手柄和编织链条提供手提或斜挎选择。\n尺寸:20 x22x14厘米(长度x高x宽)"},"price":null,"currency":"CNY","moq":1,"category":"women-backpacks","status":"active","alibaba_url":null,"images":["https://xcimg.szwego.com/img/9d1a7c2a/20240516/a1715849496672_2644.jpg","https://xcimg.szwego.com/img/9d1a7c2a/20240516/a1715849496681_4288.jpg","https://xcimg.szwego.com/img/9d1a7c2a/20240516/a1715849496693_4142.jpg","https://xcimg.szwego.com/img/9d1a7c2a/20240516/a1715849496690_6307.jpg","https://xcimg.szwego.com/img/9d1a7c2a/20240516/a1715849496697_6468.jpg","https://xcimg.szwego.com/img/9d1a7c2a/20240516/a1715849496655_6671.jpg","https://xcimg.szwego.com/img/9d1a7c2a/20240516/a1715849497868_4100.jpg","https://xcimg.szwego.com/img/9d1a7c2a/20240516/a1715849497868_0538.jpg","https://xcimg.szwego.com/img/9d1a7c2a/20240516/a1715849497872_4657.jpg"],"created_at":"2024-10-19T03:00:54.595Z"},{"id":"item-204306cf1798","sku":"_dbZbZse2Cni28Mt9NS6Fa9yFQ8DACANJAKdgSvw","name_en":"【M47072】Backup 黑色双肩包","name_cn":"【M47072】Backup 黑色双肩包\n顶级\n本款 Backup Ys双肩包取材Monogram Empreinte牛皮革,低调铺陈 Monogram 压纹。可拆卸并调节的肩带实现单肩和双肩背携,顶部手柄和编织链条提供手提或斜挎选择。\n尺寸:20 x22x14厘米(长度x高x宽)","specs":{"source":"wsxcme","sourceId":"_dbZbZse2Cni28Mt9NS6Fa9yFQ8DACANJAKdgSvw","sourceTagId":47002743,"sourceTagName":"女士双肩包","dimensions":{"lengthCm":20,"heightCm":22,"widthCm":14},"rawTitle":"【M47072】Backup 黑色双肩包\n顶级\n本款 Backup Ys双肩包取材Monogram Empreinte牛皮革,低调铺陈 Monogram 压纹。可拆卸并调节的肩带实现单肩和双肩背携,顶部手柄和编织链条提供手提或斜挎选择。\n尺寸:20 x22x14厘米(长度x高x宽)"},"price":null,"currency":"CNY","moq":1,"category":"women-backpacks","status":"active","alibaba_url":null,"images":["https://xcimg.szwego.com/img/9d1a7c2a/20240516/a1715849616694_5377.jpg","https://xcimg.szwego.com/img/9d1a7c2a/20240516/a1715849616703_5210.jpg","https://xcimg.szwego.com/img/9d1a7c2a/20240516/a1715849616671_2083.jpg","https://xcimg.szwego.com/img/9d1a7c2a/20240516/a1715849616688_1482.jpg","https://xcimg.szwego.com/img/9d1a7c2a/20240516/a1715849616715_1726.jpg","https://xcimg.szwego.com/img/9d1a7c2a/20240516/a1715849616726_7320.jpg","https://xcimg.szwego.com/img/9d1a7c2a/20240516/a1715849619163_0634.jpg","https://xcimg.szwego.com/img/9d1a7c2a/20240516/a1715849619160_6118.jpg","https://xcimg.szwego.com/img/9d1a7c2a/20240516/a1715849619165_1353.jpg"],"created_at":"2024-10-19T03:00:54.594Z"},{"id":"item-bb478a12c3f6","sku":"_dn1n1-wuvcZ8PuvJQgqXYebJT4rSlkJ2vXL6skQ","name_en":"【特级MB芯片版原厂皮】","name_cn":"【特级MB芯片版原厂皮】\nPALM SPRINGS 中号双肩包\n型号:M44874\n材料:A级全钢五金,进口原厂面料\n包装:全套原厂免税MB包装\n尺寸:30x33x16cm","specs":{"source":"wsxcme","sourceId":"_dn1n1-wuvcZ8PuvJQgqXYebJT4rSlkJ2vXL6skQ","sourceTagId":47002743,"sourceTagName":"女士双肩包","modelNumber":"M44874","dimensions":{"lengthCm":30,"heightCm":33,"widthCm":16},"rawTitle":"【特级MB芯片版原厂皮】\nPALM SPRINGS 中号双肩包\n型号:M44874\n材料:A级全钢五金,进口原厂面料\n包装:全套原厂免税MB包装\n尺寸:30x33x16cm"},"price":null,"currency":"CNY","moq":1,"category":"women-backpacks","status":"active","alibaba_url":null,"images":["https://xcimg.szwego.com/img/4456457e/20240316/i1710600718_5384_1.jpg","https://xcimg.szwego.com/img/4456457e/20240316/i1710600719_1426_5.jpg","https://xcimg.szwego.com/img/4456457e/20240316/i1710600719_1149_6.jpg","https://xcimg.szwego.com/img/4456457e/20240316/i1710600718_5331_0.jpg","https://xcimg.szwego.com/img/4456457e/20240316/i1710600719_8071_7.jpg","https://xcimg.szwego.com/img/4456457e/20240316/i1710600718_1694_4.jpg","https://xcimg.szwego.com/img/4456457e/20240316/i1710600718_1040_2.jpg","https://xcimg.szwego.com/img/4456457e/20240316/i1710600718_2230_3.jpg","https://xcimg.szwego.com/img/4456457e/20240316/i1710600719_9591_8.jpg"],"created_at":"2024-10-19T02:54:07.232Z"},{"id":"item-754f357cf04c","sku":"_dfLfLjveb8u-5gTA2Q1x9AMQBvNn8MZnkmcVISQ","name_en":"【特级MB芯片版原厂皮】","name_cn":"【特级MB芯片版原厂皮】\nPALM SPRINGS 小号双肩包\n型号:M44871\n材料:A级全钢五金,进口原厂面料\n包装:全套原厂免税MB包装\n尺寸:20x31x10cm","specs":{"source":"wsxcme","sourceId":"_dfLfLjveb8u-5gTA2Q1x9AMQBvNn8MZnkmcVISQ","sourceTagId":47002743,"sourceTagName":"女士双肩包","modelNumber":"M44871","dimensions":{"lengthCm":20,"heightCm":31,"widthCm":10},"rawTitle":"【特级MB芯片版原厂皮】\nPALM SPRINGS 小号双肩包\n型号:M44871\n材料:A级全钢五金,进口原厂面料\n包装:全套原厂免税MB包装\n尺寸:20x31x10cm"},"price":null,"currency":"CNY","moq":1,"category":"women-backpacks","status":"active","alibaba_url":null,"images":["https://xcimg.szwego.com/img/4456457e/20240523/i1716402983_1820_7.jpg","https://xcimg.szwego.com/img/4456457e/20240523/i1716402983_8112_5.jpg","https://xcimg.szwego.com/img/4456457e/20240523/i1716402982_6383_2.jpg","https://xcimg.szwego.com/img/4456457e/20240523/i1716402983_2816_6.jpg","https://xcimg.szwego.com/img/4456457e/20240523/i1716403014_854_0.jpg","https://xcimg.szwego.com/img/4456457e/20240523/i1716402982_5155_1.jpg","https://xcimg.szwego.com/img/4456457e/20240523/i1716402982_9723_4.jpg","https://xcimg.szwego.com/img/4456457e/20240523/i1716402983_5239_8.jpg","https://xcimg.szwego.com/img/4456457e/20240523/i1716402982_8322_0.jpg"],"created_at":"2024-10-19T02:54:07.231Z"},{"id":"item-1ebda236b77f","sku":"_deUeUk5iq_KcAeqVhts3a6JSFaCscxjwtzRWHEg","name_en":"【特级MB芯片版原厂皮】","name_cn":"【特级MB芯片版原厂皮】\nPALM SPRINGS 迷你双肩包\n型号:M44873\n材料:A级全钢五金,进口原厂面料\n包装:全套原厂免税MB包装\n尺寸:17x22x10cm","specs":{"source":"wsxcme","sourceId":"_deUeUk5iq_KcAeqVhts3a6JSFaCscxjwtzRWHEg","sourceTagId":47002743,"sourceTagName":"女士双肩包","modelNumber":"M44873","dimensions":{"lengthCm":17,"heightCm":22,"widthCm":10},"rawTitle":"【特级MB芯片版原厂皮】\nPALM SPRINGS 迷你双肩包\n型号:M44873\n材料:A级全钢五金,进口原厂面料\n包装:全套原厂免税MB包装\n尺寸:17x22x10cm"},"price":null,"currency":"CNY","moq":1,"category":"women-backpacks","status":"active","alibaba_url":null,"images":["https://xcimg.szwego.com/img/4456457e/20240307/i1709748242_7368_0.jpg","https://xcimg.szwego.com/img/4456457e/20240307/i1709748242_550_5.jpg","https://xcimg.szwego.com/img/4456457e/20240307/i1709748242_4392_6.jpg","https://xcimg.szwego.com/img/4456457e/20240307/i1709748242_6634_1.jpg","https://xcimg.szwego.com/img/4456457e/20240307/i1709748242_8708_7.jpg","https://xcimg.szwego.com/img/4456457e/20240307/i1709748242_5381_4.jpg","https://xcimg.szwego.com/img/4456457e/20240307/i1709748242_7444_2.jpg","https://xcimg.szwego.com/img/4456457e/20240307/i1709748242_4106_3.jpg","https://xcimg.szwego.com/img/4456457e/20240307/i1709748242_1000_8.jpg"],"created_at":"2024-10-19T02:54:07.230Z"},{"id":"item-f3dbf8ccdf64","sku":"_dororhzw267MP3j1ZDUDNZV7I_K5TlYlHAalW2Q","name_en":"【特级MB芯片版原厂皮】","name_cn":"【特级MB芯片版原厂皮】\nmontsouris 双肩包\n型号:M11198\n材料:A级全钢五金,进口原厂面料\n包装:全套原厂免税MB包装\n尺寸:28x30x18cm","specs":{"source":"wsxcme","sourceId":"_dororhzw267MP3j1ZDUDNZV7I_K5TlYlHAalW2Q","sourceTagId":47002743,"sourceTagName":"女士双肩包","modelNumber":"M11198","dimensions":{"lengthCm":28,"heightCm":30,"widthCm":18},"rawTitle":"【特级MB芯片版原厂皮】\nmontsouris 双肩包\n型号:M11198\n材料:A级全钢五金,进口原厂面料\n包装:全套原厂免税MB包装\n尺寸:28x30x18cm"},"price":null,"currency":"CNY","moq":1,"category":"women-backpacks","status":"active","alibaba_url":null,"images":["https://xcimg.szwego.com/img/4456457e/20240713/i1720812449_2392_3.jpg","https://xcimg.szwego.com/img/4456457e/20240713/i1720812450_266_7.jpg","https://xcimg.szwego.com/img/4456457e/20240713/i1720812450_5037_5.jpg","https://xcimg.szwego.com/img/4456457e/20240713/i1720812450_8986_4.jpg","https://xcimg.szwego.com/img/4456457e/20240713/i1720812449_3245_1.jpg","https://xcimg.szwego.com/img/4456457e/20240713/i1720812450_9710_6.jpg","https://xcimg.szwego.com/img/4456457e/20240713/i1720812449_163_2.jpg","https://xcimg.szwego.com/img/4456457e/20240713/i1720812450_9179_8.jpg","https://xcimg.szwego.com/img/4456457e/20240713/i1720812449_5510_0.jpg"],"created_at":"2024-10-19T02:54:07.229Z"},{"id":"item-cfc0411b6449","sku":"_djwjw1nwFQq64_NCdwLE3tg7txMB3YmvaR5W9Fg","name_en":"【特级MB芯片版原厂皮】","name_cn":"【特级MB芯片版原厂皮】\nmontsouris 双肩包\n型号:M11199\n材料:A级全钢五金,进口原厂面料\n包装:全套原厂免税MB包装\n尺寸:24x25x12cm","specs":{"source":"wsxcme","sourceId":"_djwjw1nwFQq64_NCdwLE3tg7txMB3YmvaR5W9Fg","sourceTagId":47002743,"sourceTagName":"女士双肩包","modelNumber":"M11199","dimensions":{"lengthCm":24,"heightCm":25,"widthCm":12},"rawTitle":"【特级MB芯片版原厂皮】\nmontsouris 双肩包\n型号:M11199\n材料:A级全钢五金,进口原厂面料\n包装:全套原厂免税MB包装\n尺寸:24x25x12cm"},"price":null,"currency":"CNY","moq":1,"category":"women-backpacks","status":"active","alibaba_url":null,"images":["https://xcimg.szwego.com/img/4456457e/20240711/i1720665596_9958_3.jpg","https://xcimg.szwego.com/img/4456457e/20240711/i1720665596_4668_7.jpg","https://xcimg.szwego.com/img/4456457e/20240711/i1720665596_248_5.jpg","https://xcimg.szwego.com/img/4456457e/20240711/i1720665596_5525_2.jpg","https://xcimg.szwego.com/img/4456457e/20240711/i1720665596_7855_0.jpg","https://xcimg.szwego.com/img/4456457e/20240711/i1720665596_8938_1.jpg","https://xcimg.szwego.com/img/4456457e/20240711/i1720665596_7114_4.jpg","https://xcimg.szwego.com/img/4456457e/20240711/i1720665597_9366_8.jpg","https://xcimg.szwego.com/img/4456457e/20240711/i1720665596_4490_6.jpg"],"created_at":"2024-10-19T02:54:07.228Z"},{"id":"item-7736c783142e","sku":"_d_l_le4E1U-lb-Zix-NEzb8BZq2fZ0q_pZMjqcA","name_en":"【特级MB芯片版原厂皮】","name_cn":"【特级MB芯片版原厂皮】\nMONTSOURIS 小号双肩包\n型号:M45501\n材料:A级全钢五金,进口原厂面料\n包装:全套原厂免税MB包装\n尺寸:27.5x33x14cm","specs":{"source":"wsxcme","sourceId":"_d_l_le4E1U-lb-Zix-NEzb8BZq2fZ0q_pZMjqcA","sourceTagId":47002743,"sourceTagName":"女士双肩包","modelNumber":"M45501","dimensions":{"lengthCm":27.5,"heightCm":33,"widthCm":14},"rawTitle":"【特级MB芯片版原厂皮】\nMONTSOURIS 小号双肩包\n型号:M45501\n材料:A级全钢五金,进口原厂面料\n包装:全套原厂免税MB包装\n尺寸:27.5x33x14cm"},"price":null,"currency":"CNY","moq":1,"category":"women-backpacks","status":"active","alibaba_url":null,"images":["https://xcimg.szwego.com/20231208/i1702010165_5786_0.jpg","https://xcimg.szwego.com/20231208/i1702010165_477_1.jpg","https://xcimg.szwego.com/20231208/i1702010165_1004_2.jpg","https://xcimg.szwego.com/20231208/i1702010165_8954_5.jpg","https://xcimg.szwego.com/20231208/i1702010165_7157_8.jpg","https://xcimg.szwego.com/20231208/i1702010165_3056_6.jpg","https://xcimg.szwego.com/20231208/i1702010165_3809_7.jpg","https://xcimg.szwego.com/20231208/i1702010165_2251_3.jpg","https://xcimg.szwego.com/20231208/i1702010165_7073_4.jpg"],"created_at":"2024-10-19T02:54:07.227Z"},{"id":"item-94887a68c743","sku":"_dp3p3n7HwrKY8orVD5ZYdcFuJo_PFxx3dZDMA8A","name_en":"🇹️VIP特级手工品","name_cn":"🇹️VIP特级手工品\n✔️ EXCURSION小号背包/双肩包\n型号:M46932\n❥品质提升,专柜同步电子芯片内码\n❥保护纸,礼品袋,铜版电子标签🏷合格证\n❥皮料是意大利进口皮料\n❥zp同厂全钢五金(品质,五金、面料、手工、油边)\n———相似度是100%———\n          21x23x10cm","specs":{"source":"wsxcme","sourceId":"_dp3p3n7HwrKY8orVD5ZYdcFuJo_PFxx3dZDMA8A","sourceTagId":47002743,"sourceTagName":"女士双肩包","modelNumber":"M46932","rawTitle":"🇹️VIP特级手工品\n✔️ EXCURSION小号背包/双肩包\n型号:M46932\n❥品质提升,专柜同步电子芯片内码\n❥保护纸,礼品袋,铜版电子标签🏷合格证\n❥皮料是意大利进口皮料\n❥zp同厂全钢五金(品质,五金、面料、手工、油边)\n———相似度是100%———\n          21x23x10cm"},"price":null,"currency":"CNY","moq":1,"category":"women-backpacks","status":"active","alibaba_url":null,"images":["https://xcimg.szwego.com/img/702c104a/20231120/i1700475113_4167_4.jpg","https://xcimg.szwego.com/img/702c104a/20231120/i1700475113_362_7.jpg","https://xcimg.szwego.com/img/702c104a/20231120/i1700475113_5746_2.jpg","https://xcimg.szwego.com/img/702c104a/20231120/i1700475113_9672_1.jpg","https://xcimg.szwego.com/img/702c104a/20231120/i1700475113_5307_3.jpg","https://xcimg.szwego.com/img/702c104a/20231120/i1700475113_4838_8.jpg","https://xcimg.szwego.com/img/702c104a/20231120/i1700476037_7430_0.jpg","https://xcimg.szwego.com/img/702c104a/20231120/i1700475113_3894_6.jpg","https://xcimg.szwego.com/img/702c104a/20231120/i1700475113_2174_5.jpg"],"created_at":"2024-10-19T02:54:07.226Z"},{"id":"item-2b7db0c99301","sku":"_dvLvLnctYu3LmmwY-1ajoCnVtx2J21tSN9haSKQ","name_en":"🇹️VIP特级手工品","name_cn":"🇹️VIP特级手工品\n✔️Palm Springs 迷你双肩包\n型号:M44873\n❥品质提升,专柜同步电子芯片内码\n❥保护纸,礼品袋,铜版电子标签🏷合格证\n❥皮料是意大利进口皮料\n❥zp同厂全钢五金(品质,五金、面料、手工、油边)\n———相似度是100%———\n          17x22x10cm","specs":{"source":"wsxcme","sourceId":"_dvLvLnctYu3LmmwY-1ajoCnVtx2J21tSN9haSKQ","sourceTagId":47002743,"sourceTagName":"女士双肩包","modelNumber":"M44873","rawTitle":"🇹️VIP特级手工品\n✔️Palm Springs 迷你双肩包\n型号:M44873\n❥品质提升,专柜同步电子芯片内码\n❥保护纸,礼品袋,铜版电子标签🏷合格证\n❥皮料是意大利进口皮料\n❥zp同厂全钢五金(品质,五金、面料、手工、油边)\n———相似度是100%———\n          17x22x10cm"},"price":null,"currency":"CNY","moq":1,"category":"women-backpacks","status":"active","alibaba_url":null,"images":["https://xcimg.szwego.com/20230421/i1682052118_1102_0.jpg","https://xcimg.szwego.com/20230421/i1682052118_3027_1.jpg","https://xcimg.szwego.com/20230421/i1682052118_944_2.jpg","https://xcimg.szwego.com/20230421/i1682052118_7183_3.jpg","https://xcimg.szwego.com/20230421/i1682052118_205_4.jpg","https://xcimg.szwego.com/20230421/i1682052118_6583_5.jpg","https://xcimg.szwego.com/20230421/i1682052118_8962_6.jpg","https://xcimg.szwego.com/20230421/i1682052118_6820_7.jpg","https://xcimg.szwego.com/20230421/i1682052118_3337_8.jpg"],"created_at":"2024-10-19T02:54:07.225Z"}],"page":7,"pageSize":24,"total":155,"totalPages":7}
