{"items":[{"id":"item-f5e2c071c19b","sku":"_dhEhEZ17VoQ-t1KCddBdO5d4aeo3FIzUiMdomTA","name_en":"Miu Miu Women Bags","name_cn":"正品级\n5BG276,Miu家新款伊势丹限定托特包,官网主推,今年绝对爆🔥款式,顶级进口小牛皮,皮面细腻光滑柔软,上乘的皮革质感高级,包身软而不塌,大尺寸设计,气质随性慵懒,容量超大,日常出街背它回头率百分百,手工缝制皮面Logo标志,内里全新麻布里,配两个拉链式口袋,尺寸38X 38 X18Cm,配原版包装","specs":{"source":"wsxcme","sourceId":"_dhEhEZ17VoQ-t1KCddBdO5d4aeo3FIzUiMdomTA","sourceTagId":68075769,"sourceTagName":"Miu Miu /女包","dimensions":{"lengthCm":38,"heightCm":38,"widthCm":18},"rawTitle":"正品级\n5BG276,Miu家新款伊势丹限定托特包,官网主推,今年绝对爆🔥款式,顶级进口小牛皮,皮面细腻光滑柔软,上乘的皮革质感高级,包身软而不塌,大尺寸设计,气质随性慵懒,容量超大,日常出街背它回头率百分百,手工缝制皮面Logo标志,内里全新麻布里,配两个拉链式口袋,尺寸38X 38 X18Cm,配原版包装"},"price":null,"currency":"CNY","moq":1,"category":"miu-miu-women-bags","status":"active","alibaba_url":null,"images":["https://xcimg.szwego.com/20231112/i1699775009_9553_0.jpg","https://xcimg.szwego.com/20231112/i1699775009_932_1.jpg","https://xcimg.szwego.com/20231112/i1699775009_4103_2.jpg","https://xcimg.szwego.com/20231112/i1699775009_6035_3.jpg","https://xcimg.szwego.com/20231112/i1699775009_6158_4.jpg","https://xcimg.szwego.com/20231112/i1699775009_4948_5.jpg","https://xcimg.szwego.com/20231112/i1699775009_8332_8.jpg","https://xcimg.szwego.com/20231128/i1701107879_9732_0.jpg","https://xcimg.szwego.com/20231128/i1701107858_4249_1.jpg"],"created_at":"2024-11-11T10:30:45.844Z"},{"id":"item-ef2199a4229a","sku":"_dNoNo2jo0t8ttfuUc-UkU_AWaRM0ANfBqV8wfug","name_en":"Miu Miu Women Bags","name_cn":"正品级\n5BE089,Miu家新款水桶包,延续上一季的慵懒和性感热潮,又一火爆🔥款式,搭配顶级进口小牛皮,皮面细腻光滑柔软,上乘的皮革质感高级,包体休闲轻盈,包身软而有型,肩带可调节设计,更加精致实用,好气质随性慵懒,日常出街背它回头率百分百,手工缝制皮面Logo标志,内里全新麻布里,尺寸23X 29X17Cm,配原版包装","specs":{"source":"wsxcme","sourceId":"_dNoNo2jo0t8ttfuUc-UkU_AWaRM0ANfBqV8wfug","sourceTagId":68075769,"sourceTagName":"Miu Miu /女包","dimensions":{"lengthCm":23,"heightCm":29,"widthCm":17},"rawTitle":"正品级\n5BE089,Miu家新款水桶包,延续上一季的慵懒和性感热潮,又一火爆🔥款式,搭配顶级进口小牛皮,皮面细腻光滑柔软,上乘的皮革质感高级,包体休闲轻盈,包身软而有型,肩带可调节设计,更加精致实用,好气质随性慵懒,日常出街背它回头率百分百,手工缝制皮面Logo标志,内里全新麻布里,尺寸23X 29X17Cm,配原版包装"},"price":null,"currency":"CNY","moq":1,"category":"miu-miu-women-bags","status":"active","alibaba_url":null,"images":["https://xcimg.szwego.com/20240515/i1715738649_3062_0.jpg","https://xcimg.szwego.com/20240515/i1715738649_4630_1.jpg","https://xcimg.szwego.com/20240515/i1715738649_4858_2.jpg","https://xcimg.szwego.com/20240515/i1715738649_9601_3.jpg","https://xcimg.szwego.com/20240515/i1715738649_9637_4.jpg","https://xcimg.szwego.com/20240515/i1715738649_2566_5.jpg","https://xcimg.szwego.com/20240515/i1715738649_6887_6.jpg","https://xcimg.szwego.com/20240515/i1715738649_4632_7.jpg","https://xcimg.szwego.com/20240515/i1715738649_8157_8.jpg"],"created_at":"2024-11-11T10:30:45.837Z"},{"id":"item-ee1b26382e6b","sku":"_dl0l0l8HNWrvmxcY_f7nncsWiGNGgmsSi04fNEg","name_en":"Miu Miu Women Bags","name_cn":"【特级五金原厂皮】秋冬新款法棍链条包包~亚麻灰\n\n这款采用柔软光滑牛皮革,镀金色五金配件等精致细节格外出众,五金字母徽标彰显经典格调。\n尺寸:W24×H14×D7.5cm\n編號:5BB266","specs":{"source":"wsxcme","sourceId":"_dl0l0l8HNWrvmxcY_f7nncsWiGNGgmsSi04fNEg","sourceTagId":68075769,"sourceTagName":"Miu Miu /女包","rawTitle":"【特级五金原厂皮】秋冬新款法棍链条包包~亚麻灰\n\n这款采用柔软光滑牛皮革,镀金色五金配件等精致细节格外出众,五金字母徽标彰显经典格调。\n尺寸:W24×H14×D7.5cm\n編號:5BB266"},"price":null,"currency":"CNY","moq":1,"category":"miu-miu-women-bags","status":"active","alibaba_url":null,"images":["https://xcimg.szwego.com/img/d07880e3/20241105/i1730781433_2677_0.jpg","https://xcimg.szwego.com/img/d07880e3/20241105/i1730781434_2815_2.jpg","https://xcimg.szwego.com/img/d07880e3/20241105/i1730781434_7735_6.jpg","https://xcimg.szwego.com/img/d07880e3/20241105/i1730781434_9896_7.jpg","https://xcimg.szwego.com/img/d07880e3/20241105/i1730781434_4977_8.jpg","https://xcimg.szwego.com/img/d07880e3/20241105/i1730781434_6547_3.jpg","https://xcimg.szwego.com/img/d07880e3/20241105/i1730781433_2578_1.jpg","https://xcimg.szwego.com/img/d07880e3/20241105/i1730781434_7540_5.jpg","https://xcimg.szwego.com/img/d07880e3/20241105/i1730783268_6638_0.jpg"],"created_at":"2025-01-20T13:11:33.081Z"},{"id":"item-e823905b26e4","sku":"_d8e8e_r4q0CaSsqKsbDxDCK5Sokdx8Cpa_Bb0uw","name_en":"Miu Miu Women Bags","name_cn":"💖《配全套原厂专柜包装》💖【新品】这款羊皮手提包的灵感源自品牌典藏单品,其结构经过调整,变得更加轻便,焕发全新个性,打造具有隽永魅力的经典包款。饰以压花字母徽标,增添品牌辨识度。\n型号:5BG310\n尺寸:W44×H22.5×D14.5cm\n颜色:棕色/原厂皮。\n意大利创作","specs":{"source":"wsxcme","sourceId":"_d8e8e_r4q0CaSsqKsbDxDCK5Sokdx8Cpa_Bb0uw","sourceTagId":68075769,"sourceTagName":"Miu Miu /女包","modelNumber":"5BG310","rawTitle":"💖《配全套原厂专柜包装》💖【新品】这款羊皮手提包的灵感源自品牌典藏单品,其结构经过调整,变得更加轻便,焕发全新个性,打造具有隽永魅力的经典包款。饰以压花字母徽标,增添品牌辨识度。\n型号:5BG310\n尺寸:W44×H22.5×D14.5cm\n颜色:棕色/原厂皮。\n意大利创作"},"price":null,"currency":"CNY","moq":1,"category":"miu-miu-women-bags","status":"active","alibaba_url":null,"images":["https://xcimg.szwego.com/img/d30b558b/20250311/i1741707753_4374_2.jpg","https://xcimg.szwego.com/img/d30b558b/20250311/i1741707754_2000_8.jpg","https://xcimg.szwego.com/img/d30b558b/20250311/i1741707753_6625_3.jpg","https://xcimg.szwego.com/img/d30b558b/20250311/i1741707753_9673_1.jpg","https://xcimg.szwego.com/img/d30b558b/20250311/i1741707754_1224_7.jpg","https://xcimg.szwego.com/img/d30b558b/20250311/i1741707754_7909_6.jpg","https://xcimg.szwego.com/img/d30b558b/20250311/i1741707753_4909_4.jpg","https://xcimg.szwego.com/img/d30b558b/20250311/i1741707753_8835_0.jpg","https://xcimg.szwego.com/img/d30b558b/20250311/i1741707753_1784_5.jpg"],"created_at":"2025-09-04T12:20:22.637Z"},{"id":"item-e5039f989330","sku":"_d_r_rmZODapHE_VkGsWSTq8pFm3ESvFWflQ-sYA","name_en":"Miu Miu Women Bags","name_cn":"#全套独家包装ྀི","specs":{"source":"wsxcme","sourceId":"_d_r_rmZODapHE_VkGsWSTq8pFm3ESvFWflQ-sYA","sourceTagId":68075769,"sourceTagName":"Miu Miu /女包","rawTitle":"#全套独家包装ྀི"},"price":null,"currency":"CNY","moq":1,"category":"miu-miu-women-bags","status":"active","alibaba_url":null,"images":["https://xcimg.szwego.com/img/8a425f4e/20260605/a1780649887218_1328.jpg","https://xcimg.szwego.com/img/8a425f4e/20260605/a1780649886893_5225.jpg","https://xcimg.szwego.com/img/8a425f4e/20260605/a1780649886786_8783.jpg","https://xcimg.szwego.com/img/8a425f4e/20260605/a1780649887188_7713.jpg"],"created_at":"2026-06-29T11:34:30.802Z"},{"id":"item-e312f33c3583","sku":"_d9M9M24sXwf12uI6XDF-yfArWUsyZbmPX2avY7Q","name_en":"Miu Miu Women Bags","name_cn":"##全套独家包装ྀི","specs":{"source":"wsxcme","sourceId":"_d9M9M24sXwf12uI6XDF-yfArWUsyZbmPX2avY7Q","sourceTagId":68075769,"sourceTagName":"Miu Miu /女包","rawTitle":"##全套独家包装ྀི"},"price":null,"currency":"CNY","moq":1,"category":"miu-miu-women-bags","status":"active","alibaba_url":null,"images":["https://xcimg.szwego.com/img/8a425f4e/20260529/a1780031593283_3770.jpg","https://xcimg.szwego.com/img/8a425f4e/20260529/a1780031593032_7208.jpg","https://xcimg.szwego.com/img/8a425f4e/20260529/a1780031593297_7125.jpg","https://xcimg.szwego.com/img/8a425f4e/20260529/a1780031593259_3508.jpg"],"created_at":"2026-06-29T11:34:30.952Z"},{"id":"item-de595f89ae4a","sku":"_ddvdvZVOKc9TQyrnA2hdgajvbw1qPJtwTJbYrMg","name_en":"Miu Miu Women Bags","name_cn":"正品级\n5BC125:MiuMiu新品MiuWander羊羔毛手袋,软糯糯泰迪熊毛绒绒简直不要太可爱,秋冬必备单品,复古磨砂五金,利用圆孤的曲线,保留了应有的俏皮感,包型整体硬挺有型,充满个性,可甜可盐,容量可光,尺寸:23X13X7,配原版包装","specs":{"source":"wsxcme","sourceId":"_ddvdvZVOKc9TQyrnA2hdgajvbw1qPJtwTJbYrMg","sourceTagId":68075769,"sourceTagName":"Miu Miu /女包","rawTitle":"正品级\n5BC125:MiuMiu新品MiuWander羊羔毛手袋,软糯糯泰迪熊毛绒绒简直不要太可爱,秋冬必备单品,复古磨砂五金,利用圆孤的曲线,保留了应有的俏皮感,包型整体硬挺有型,充满个性,可甜可盐,容量可光,尺寸:23X13X7,配原版包装"},"price":null,"currency":"CNY","moq":1,"category":"miu-miu-women-bags","status":"active","alibaba_url":null,"images":["https://xcimg.szwego.com/20231214/i1702548436_5522_0.jpg","https://xcimg.szwego.com/20231214/i1702548436_90_1.jpg","https://xcimg.szwego.com/20231214/i1702548436_9424_2.jpg","https://xcimg.szwego.com/20231214/i1702548436_2360_3.jpg","https://xcimg.szwego.com/20231214/i1702548436_446_4.jpg","https://xcimg.szwego.com/20231214/i1702548436_3154_5.jpg","https://xcimg.szwego.com/20231214/i1702548436_7058_6.jpg","https://xcimg.szwego.com/20231214/i1702548473_1486_0.jpg","https://xcimg.szwego.com/20231214/i1702548491_6923_0.jpg"],"created_at":"2024-11-11T10:30:45.827Z"},{"id":"item-da9c9036356b","sku":"_dntnt9-cZZOdBv6Atk8cB_HOtR6k1SX4PT8EDfQ","name_en":"Miu Miu Women Bags","name_cn":"正品级\n新版本:5BB142,M家新款保龄球包包,官网主推,今年绝对爆🔥款式,顶级进口小羊皮,Miu家独具风格Matelasse图案,包身精致立体有型,正面刻字徽标与皮革颜色相呼应,可拆卸可调节皮革长肩带,棉质缎面衬里,配拉链式口袋,众多明星网红同款,尺寸22X10.5X7.5Cm,配原版包装","specs":{"source":"wsxcme","sourceId":"_dntnt9-cZZOdBv6Atk8cB_HOtR6k1SX4PT8EDfQ","sourceTagId":68075769,"sourceTagName":"Miu Miu /女包","dimensions":{"lengthCm":22,"heightCm":10.5,"widthCm":7.5},"rawTitle":"正品级\n新版本:5BB142,M家新款保龄球包包,官网主推,今年绝对爆🔥款式,顶级进口小羊皮,Miu家独具风格Matelasse图案,包身精致立体有型,正面刻字徽标与皮革颜色相呼应,可拆卸可调节皮革长肩带,棉质缎面衬里,配拉链式口袋,众多明星网红同款,尺寸22X10.5X7.5Cm,配原版包装"},"price":null,"currency":"CNY","moq":1,"category":"miu-miu-women-bags","status":"active","alibaba_url":null,"images":["https://xcimg.szwego.com/20240811/i1723353290_4894_0.jpg","https://xcimg.szwego.com/20240811/i1723353290_6295_1.jpg","https://xcimg.szwego.com/20240811/i1723353290_4890_2.jpg","https://xcimg.szwego.com/20240811/i1723353290_7338_3.jpg","https://xcimg.szwego.com/20240811/i1723353290_8032_4.jpg","https://xcimg.szwego.com/20240811/i1723353290_6580_5.jpg","https://xcimg.szwego.com/20240811/i1723353290_4810_6.jpg","https://xcimg.szwego.com/20240811/i1723353290_333_7.jpg","https://xcimg.szwego.com/20240811/i1723353290_3097_8.jpg"],"created_at":"2024-11-11T10:30:45.880Z"},{"id":"item-d9c06f62bd7d","sku":"_dopopEZO-5k4DxIY27O4pNESKYRm7A9Bw8jUp-w","name_en":"Miu Miu Women Bags","name_cn":"正品级\n5BG231,Miu家新款夏日网织沙滩托特包,外层流畅草编钩织,内层帆布衬里,搭配可拆卸帆布小包,可做独立小腋下包或手包使用,多种背法,适合各种搭配,大胆创新的设计完美诠释了 Miu不拘一格,潇洒随性,今年超爆🔥款式,包身非常轻巧,气质随性慵懒,容量超大,日常出街背它回头率百分百,尺寸35 X 40Cm,配原版包","specs":{"source":"wsxcme","sourceId":"_dopopEZO-5k4DxIY27O4pNESKYRm7A9Bw8jUp-w","sourceTagId":68075769,"sourceTagName":"Miu Miu /女包","rawTitle":"正品级\n5BG231,Miu家新款夏日网织沙滩托特包,外层流畅草编钩织,内层帆布衬里,搭配可拆卸帆布小包,可做独立小腋下包或手包使用,多种背法,适合各种搭配,大胆创新的设计完美诠释了 Miu不拘一格,潇洒随性,今年超爆🔥款式,包身非常轻巧,气质随性慵懒,容量超大,日常出街背它回头率百分百,尺寸35 X 40Cm,配原版包"},"price":null,"currency":"CNY","moq":1,"category":"miu-miu-women-bags","status":"active","alibaba_url":null,"images":["https://xcimg.szwego.com/20240626/i1719364595_5252_0.jpg","https://xcimg.szwego.com/20240626/i1719364595_3678_1.jpg","https://xcimg.szwego.com/20240626/i1719364595_3212_2.jpg","https://xcimg.szwego.com/20240626/i1719364595_7509_3.jpg","https://xcimg.szwego.com/20240626/i1719364595_1144_5.jpg","https://xcimg.szwego.com/20240626/i1719364595_5969_6.jpg","https://xcimg.szwego.com/20240626/i1719364595_5271_7.jpg","https://xcimg.szwego.com/20240626/i1719364609_915_0.jpg","https://xcimg.szwego.com/20240626/i1719364595_2591_8.jpg"],"created_at":"2024-11-11T10:31:19.657Z"},{"id":"item-d54ab867d990","sku":"_dwQwQmDrCSCaRPj2WuEh6VSMcPp_o9b4DpveSRg","name_en":"Miu Miu Women Bags","name_cn":"正品级\n💋5BC158#🆕🆕🆕Miu家新品,顶级进口小牛皮,包型精致的立体效果,高级纹理质感重新诠释了这款皮革手袋的柔美魅力,制作工艺与外观设计融合了众多MlUMlU最为独特的标志性元素,搭配可调节的皮革肩带,背法多样,进一步增添时尚魅力与摩登风范,内配棉质缎面衬里,尺寸:长24CM,高11.5CM,宽7CM💕(配原版包装)","specs":{"source":"wsxcme","sourceId":"_dwQwQmDrCSCaRPj2WuEh6VSMcPp_o9b4DpveSRg","sourceTagId":68075769,"sourceTagName":"Miu Miu /女包","rawTitle":"正品级\n💋5BC158#🆕🆕🆕Miu家新品,顶级进口小牛皮,包型精致的立体效果,高级纹理质感重新诠释了这款皮革手袋的柔美魅力,制作工艺与外观设计融合了众多MlUMlU最为独特的标志性元素,搭配可调节的皮革肩带,背法多样,进一步增添时尚魅力与摩登风范,内配棉质缎面衬里,尺寸:长24CM,高11.5CM,宽7CM💕(配原版包装)"},"price":null,"currency":"CNY","moq":1,"category":"miu-miu-women-bags","status":"active","alibaba_url":null,"images":["https://xcimg.szwego.com/20240118/i1705543637_3172_0.jpg","https://xcimg.szwego.com/20240118/i1705543637_6300_1.jpg","https://xcimg.szwego.com/20240118/i1705543637_8753_2.jpg","https://xcimg.szwego.com/20240118/i1705543637_264_3.jpg","https://xcimg.szwego.com/20240118/i1705543637_8262_4.jpg","https://xcimg.szwego.com/20240118/i1705543637_5297_5.jpg","https://xcimg.szwego.com/20240118/i1705543637_5571_6.jpg","https://xcimg.szwego.com/20240118/i1705543637_8045_7.jpg","https://xcimg.szwego.com/20240118/i1705543637_8209_8.jpg"],"created_at":"2024-09-27T07:07:24.224Z"},{"id":"item-d139da14a479","sku":"_dkBkBQp5QPaRdqI6pw1AQMDBLg_aKg4GDPCIWtw","name_en":"Miu Miu Women Bags","name_cn":"现货✔️{灰拼白}\n\nMIUMIU 新款 Gymnasium 系列手袋\n新款 wander 新月包简直是色彩碰撞艺术品,亮眼吸睛,运动休闲又不失格调,完美融入运动与时尚,简直是高阶时髦炸街神器,搭配的长肩带可以斜挎更加俏皮可爱🫶\n\n款号:5BC125/5746\n尺寸:底长22x高23x宽7cm","specs":{"source":"wsxcme","sourceId":"_dkBkBQp5QPaRdqI6pw1AQMDBLg_aKg4GDPCIWtw","sourceTagId":68075769,"sourceTagName":"Miu Miu /女包","modelNumber":"5BC125/5746","dimensions":{"lengthCm":22,"heightCm":23,"widthCm":7},"rawTitle":"现货✔️{灰拼白}\n\nMIUMIU 新款 Gymnasium 系列手袋\n新款 wander 新月包简直是色彩碰撞艺术品,亮眼吸睛,运动休闲又不失格调,完美融入运动与时尚,简直是高阶时髦炸街神器,搭配的长肩带可以斜挎更加俏皮可爱🫶\n\n款号:5BC125/5746\n尺寸:底长22x高23x宽7cm"},"price":null,"currency":"CNY","moq":1,"category":"miu-miu-women-bags","status":"active","alibaba_url":null,"images":["https://xcimg.szwego.com/img/481f26ee/20250520/i1747715711_2932_0.jpg","https://xcimg.szwego.com/img/481f26ee/20250520/i1747715711_6119_1.jpg","https://xcimg.szwego.com/img/481f26ee/20250520/i1747715711_7598_2.jpg","https://xcimg.szwego.com/img/481f26ee/20250520/i1747715711_8876_3.jpg","https://xcimg.szwego.com/img/481f26ee/20250520/i1747715711_2762_4.jpg","https://xcimg.szwego.com/img/481f26ee/20250520/i1747715711_779_5.jpg","https://xcimg.szwego.com/img/481f26ee/20250520/i1747715711_135_6.jpg","https://xcimg.szwego.com/img/481f26ee/20250520/i1747715711_3779_7.jpg","https://xcimg.szwego.com/img/481f26ee/20250520/i1747715711_2829_8.jpg"],"created_at":"2026-05-20T09:07:12.230Z"},{"id":"item-d092d4128bac","sku":"_dn1n1-wuvcZ8Os_FegqDderBQ4rqhkJ2vXL6skQ","name_en":"Miu Miu Women Bags","name_cn":"原厂皮\n【特级五金原厂皮】 ~南瓜色進口牛皮革掛飾\n\n這款掛飾可裝點其他配件,格調獨特。飾以壓花徽標,增添標志性元素。\n-係帶開合\n-拉鏈開合\n-壓花字母徽標\n-帶襯裡\n尺寸:w11×h7×d4cm(石榴橙)\n編號:5NR036 _ 020 _ MM030","specs":{"source":"wsxcme","sourceId":"_dn1n1-wuvcZ8Os_FegqDderBQ4rqhkJ2vXL6skQ","sourceTagId":68075769,"sourceTagName":"Miu Miu /女包","rawTitle":"原厂皮\n【特级五金原厂皮】 ~南瓜色進口牛皮革掛飾\n\n這款掛飾可裝點其他配件,格調獨特。飾以壓花徽標,增添標志性元素。\n-係帶開合\n-拉鏈開合\n-壓花字母徽標\n-帶襯裡\n尺寸:w11×h7×d4cm(石榴橙)\n編號:5NR036 _ 020 _ MM030"},"price":null,"currency":"CNY","moq":1,"category":"miu-miu-women-bags","status":"active","alibaba_url":null,"images":["https://xcimg.szwego.com/img/c4e87dad/20240922/i1726976383_9457_6.jpg","https://xcimg.szwego.com/img/c4e87dad/20240922/i1726976383_5936_7.jpg","https://xcimg.szwego.com/img/c4e87dad/20240922/i1726976383_7355_5.jpg","https://xcimg.szwego.com/img/c4e87dad/20240922/i1726976383_1429_3.jpg","https://xcimg.szwego.com/img/c4e87dad/20240922/i1726976383_4760_4.jpg","https://xcimg.szwego.com/img/c4e87dad/20240922/i1726976383_8966_8.jpg","https://xcimg.szwego.com/img/c4e87dad/20240922/i1726976383_9737_2.jpg","https://xcimg.szwego.com/img/c4e87dad/20240922/i1726976383_9253_1.jpg","https://xcimg.szwego.com/img/c4e87dad/20240922/i1726976383_8785_0.jpg"],"created_at":"2024-09-27T07:07:24.233Z"},{"id":"item-d0475696f24a","sku":"_d8585iGLZ16lGhWrSWmCnmTgp7eLWUZzPlEMFyw","name_en":"Miu Miu Women Bags","name_cn":"原厂皮,配图片包装\n【特级五金原厂皮】Wander Matelasse羊皮革Hobo手提包/斜挎包~20cm灰蓝色羊皮\n\nWander手提包已成经典配饰之。这款迷你手袋选用Matalasse羊皮革打造,运用精湛工艺打造三维立体效果,尽显精致优雅。呈现Hobo包版型,融合复古风情与现代优雅,成为现代女性气质的新代名词。\n~金色配件\n~拉链开合\n~正面金属刻字徽标\n~棉质缎面衬里\n尺寸:W20×H17×D6cm\n編號:_5BC125","specs":{"source":"wsxcme","sourceId":"_d8585iGLZ16lGhWrSWmCnmTgp7eLWUZzPlEMFyw","sourceTagId":68075769,"sourceTagName":"Miu Miu /女包","rawTitle":"原厂皮,配图片包装\n【特级五金原厂皮】Wander Matelasse羊皮革Hobo手提包/斜挎包~20cm灰蓝色羊皮\n\nWander手提包已成经典配饰之。这款迷你手袋选用Matalasse羊皮革打造,运用精湛工艺打造三维立体效果,尽显精致优雅。呈现Hobo包版型,融合复古风情与现代优雅,成为现代女性气质的新代名词。\n~金色配件\n~拉链开合\n~正面金属刻字徽标\n~棉质缎面衬里\n尺寸:W20×H17×D6cm\n編號:_5BC125"},"price":null,"currency":"CNY","moq":1,"category":"miu-miu-women-bags","status":"active","alibaba_url":null,"images":["https://xcimg.szwego.com/img/d07880e3/20241024/i1729764134_7880_0.jpg","https://xcimg.szwego.com/img/d07880e3/20241024/i1729764134_6954_3.jpg","https://xcimg.szwego.com/img/d07880e3/20241024/i1729764134_891_5.jpg","https://xcimg.szwego.com/img/d07880e3/20241024/i1729764134_5874_1.jpg","https://xcimg.szwego.com/img/d07880e3/20241024/i1729764134_9845_4.jpg","https://xcimg.szwego.com/img/d07880e3/20241024/i1729764134_8322_6.jpg","https://xcimg.szwego.com/img/d07880e3/20241024/i1729764134_4140_7.jpg","https://xcimg.szwego.com/img/d07880e3/20241024/i1729764134_9466_8.jpg","https://xcimg.szwego.com/img/d07880e3/20241024/i1729764134_3581_2.jpg"],"created_at":"2025-02-07T08:55:38.015Z"},{"id":"item-cd2eb93e02e3","sku":"_dBfBf4EH9VncgEN78uxVzXqMk1qCchuZUjlIJwg","name_en":"Miu Miu Women Bags","name_cn":"##全套独家包装ྀི","specs":{"source":"wsxcme","sourceId":"_dBfBf4EH9VncgEN78uxVzXqMk1qCchuZUjlIJwg","sourceTagId":68075769,"sourceTagName":"Miu Miu /女包","rawTitle":"##全套独家包装ྀི"},"price":null,"currency":"CNY","moq":1,"category":"miu-miu-women-bags","status":"active","alibaba_url":null,"images":["https://xcimg.szwego.com/img/8a425f4e/20260622/a1782114568078_4000.jpg","https://xcimg.szwego.com/img/8a425f4e/20260622/a1782114567966_1864.jpg","https://xcimg.szwego.com/img/8a425f4e/20260622/a1782114567874_6650.jpg","https://xcimg.szwego.com/img/8a425f4e/20260622/a1782114568100_8818.jpg"],"created_at":"2026-06-29T11:34:31.132Z"},{"id":"item-cd0a35bcf9a9","sku":"_d5-5-PpyeQhrhCz0V40E1ynA3LSZn45AlckPCqA","name_en":"Miu Miu Women Bags","name_cn":"正品级\n5BE090,Miu家新款水桶包,延续上一季的慵懒和性感热潮,又一火爆🔥款式,顶级进口小牛皮,皮面细腻光滑柔软,上乘的皮革质感高级,包体休闲轻盈,包身软而有型,肩带可调节设计,更加精致实用,好气质随性慵懒,日常出街背它回头率百分百,手工缝制皮面Logo标志,内里全新麻布里,尺寸16X 22.5X14Cm,配原版包装","specs":{"source":"wsxcme","sourceId":"_d5-5-PpyeQhrhCz0V40E1ynA3LSZn45AlckPCqA","sourceTagId":68075769,"sourceTagName":"Miu Miu /女包","dimensions":{"lengthCm":16,"heightCm":22.5,"widthCm":14},"rawTitle":"正品级\n5BE090,Miu家新款水桶包,延续上一季的慵懒和性感热潮,又一火爆🔥款式,顶级进口小牛皮,皮面细腻光滑柔软,上乘的皮革质感高级,包体休闲轻盈,包身软而有型,肩带可调节设计,更加精致实用,好气质随性慵懒,日常出街背它回头率百分百,手工缝制皮面Logo标志,内里全新麻布里,尺寸16X 22.5X14Cm,配原版包装"},"price":null,"currency":"CNY","moq":1,"category":"miu-miu-women-bags","status":"active","alibaba_url":null,"images":["https://xcimg.szwego.com/20240516/i1715822699_7825_0.jpg","https://xcimg.szwego.com/20240516/i1715822699_7140_1.jpg","https://xcimg.szwego.com/20240516/i1715822699_3957_2.jpg","https://xcimg.szwego.com/20240516/i1715822699_5542_3.jpg","https://xcimg.szwego.com/20240516/i1715822699_7524_4.jpg","https://xcimg.szwego.com/20240516/i1715822699_9463_6.jpg","https://xcimg.szwego.com/20240516/i1715822699_988_5.jpg","https://xcimg.szwego.com/20240516/i1715822699_7365_7.jpg","https://xcimg.szwego.com/20240516/i1715822699_4284_8.jpg"],"created_at":"2024-11-11T10:30:45.834Z"},{"id":"item-c89265acfa7a","sku":"_dA0A05HSf5bx4nUvFxnNMnfoTOrDNER7Pbkl6WA","name_en":"Miu Miu Women Bags","name_cn":"正品级\n💋5BC157#🆕🆕🆕MiuMiu新品hobo腋下包,顶级牛皮山羊纹皮纹,全新重工五金打造,五金材质和正品同样材质,制作工艺与外观设计融合了众多MlUMlU最为独特的标志性元素,棉质缎面衬里,两个内衬口袋,上身效果超赞的,百搭时尚🌹尺寸:长29CM,高15CM,宽4CM💕(配原版包装)","specs":{"source":"wsxcme","sourceId":"_dA0A05HSf5bx4nUvFxnNMnfoTOrDNER7Pbkl6WA","sourceTagId":68075769,"sourceTagName":"Miu Miu /女包","rawTitle":"正品级\n💋5BC157#🆕🆕🆕MiuMiu新品hobo腋下包,顶级牛皮山羊纹皮纹,全新重工五金打造,五金材质和正品同样材质,制作工艺与外观设计融合了众多MlUMlU最为独特的标志性元素,棉质缎面衬里,两个内衬口袋,上身效果超赞的,百搭时尚🌹尺寸:长29CM,高15CM,宽4CM💕(配原版包装)"},"price":null,"currency":"CNY","moq":1,"category":"miu-miu-women-bags","status":"active","alibaba_url":null,"images":["https://xcimg.szwego.com/20240102/i1704126789_3270_0.jpg","https://xcimg.szwego.com/20240102/i1704126789_9829_1.jpg","https://xcimg.szwego.com/20240102/i1704126789_8696_2.jpg","https://xcimg.szwego.com/20240102/i1704126789_3064_3.jpg","https://xcimg.szwego.com/20240102/i1704126789_1977_4.jpg","https://xcimg.szwego.com/20240102/i1704126789_4687_5.jpg","https://xcimg.szwego.com/20240102/i1704126789_288_6.jpg","https://xcimg.szwego.com/20240102/i1704126789_8370_7.jpg","https://xcimg.szwego.com/20240102/i1704126789_6554_8.jpg"],"created_at":"2024-09-27T07:07:24.214Z"},{"id":"item-c6f3aba3ead1","sku":"_d2h2hBxtV_sSjJOCUiFS3ck1EpnuMAe_YPd4VYQ","name_en":"Miu Miu Women Bags","name_cn":"正品级\n5BG276,Miu家新款伊势丹限定托特包,官网主推,今年绝对爆🔥款式,顶级进口复古擦色小羊皮,皮面细腻光滑柔软,复古做旧设计,更显高端大气,上乘的皮革质感高级,包身软而不塌,大尺寸设计,气质随性慵懒,容量超大,日常出街背它回头率百分百,手工缝制皮面Logo标志,内里全新麻布里,配两个拉链式口袋,尺寸38X 38 X18Cm,配原版包装","specs":{"source":"wsxcme","sourceId":"_d2h2hBxtV_sSjJOCUiFS3ck1EpnuMAe_YPd4VYQ","sourceTagId":68075769,"sourceTagName":"Miu Miu /女包","dimensions":{"lengthCm":38,"heightCm":38,"widthCm":18},"rawTitle":"正品级\n5BG276,Miu家新款伊势丹限定托特包,官网主推,今年绝对爆🔥款式,顶级进口复古擦色小羊皮,皮面细腻光滑柔软,复古做旧设计,更显高端大气,上乘的皮革质感高级,包身软而不塌,大尺寸设计,气质随性慵懒,容量超大,日常出街背它回头率百分百,手工缝制皮面Logo标志,内里全新麻布里,配两个拉链式口袋,尺寸38X 38 X18Cm,配原版包装"},"price":null,"currency":"CNY","moq":1,"category":"miu-miu-women-bags","status":"active","alibaba_url":null,"images":["https://xcimg.szwego.com/20240317/i1710648378_7602_0.jpg","https://xcimg.szwego.com/20240317/i1710648378_759_1.jpg","https://xcimg.szwego.com/20240317/i1710648378_9689_2.jpg","https://xcimg.szwego.com/20240317/i1710648378_6124_3.jpg","https://xcimg.szwego.com/20240317/i1710648378_5016_4.jpg","https://xcimg.szwego.com/20240317/i1710648378_3486_5.jpg","https://xcimg.szwego.com/20240317/i1710648378_8672_6.jpg","https://xcimg.szwego.com/20240317/i1710648378_4250_7.jpg","https://xcimg.szwego.com/20240317/i1710648378_9209_8.jpg"],"created_at":"2024-11-11T10:30:45.846Z"},{"id":"item-c6b2843019b5","sku":"_dpypy83H9-q3eHZzrHr7hVH7Iz8ii_P0tKMe62A","name_en":"Miu Miu Women Bags","name_cn":"原厂皮,配图片包装\n【特级五金原厂皮】Wander Matelasse羊皮革Hobo手提包/斜挎包~20cm浅粉色羊皮\n\nWander手提包已成经典配饰之。这款迷你手袋选用Matalasse羊皮革打造,运用精湛工艺打造三维立体效果,尽显精致优雅。呈现Hobo包版型,融合复古风情与现代优雅,成为现代女性气质的新代名词。\n~金色配件\n~拉链开合\n~正面金属刻字徽标\n~棉质缎面衬里\n尺寸:W20×H17×D6cm\n編號:_5BC125","specs":{"source":"wsxcme","sourceId":"_dpypy83H9-q3eHZzrHr7hVH7Iz8ii_P0tKMe62A","sourceTagId":68075769,"sourceTagName":"Miu Miu /女包","rawTitle":"原厂皮,配图片包装\n【特级五金原厂皮】Wander Matelasse羊皮革Hobo手提包/斜挎包~20cm浅粉色羊皮\n\nWander手提包已成经典配饰之。这款迷你手袋选用Matalasse羊皮革打造,运用精湛工艺打造三维立体效果,尽显精致优雅。呈现Hobo包版型,融合复古风情与现代优雅,成为现代女性气质的新代名词。\n~金色配件\n~拉链开合\n~正面金属刻字徽标\n~棉质缎面衬里\n尺寸:W20×H17×D6cm\n編號:_5BC125"},"price":null,"currency":"CNY","moq":1,"category":"miu-miu-women-bags","status":"active","alibaba_url":null,"images":["https://xcimg.szwego.com/img/d07880e3/20241024/i1729764771_2034_8.jpg","https://xcimg.szwego.com/img/d07880e3/20241024/i1729764771_5835_4.jpg","https://xcimg.szwego.com/img/d07880e3/20241024/i1729764771_4070_5.jpg","https://xcimg.szwego.com/img/d07880e3/20241024/i1729764771_1933_0.jpg","https://xcimg.szwego.com/img/d07880e3/20241024/i1729764771_5040_2.jpg","https://xcimg.szwego.com/img/d07880e3/20241024/i1729764771_6414_7.jpg","https://xcimg.szwego.com/img/d07880e3/20241024/i1729764771_8075_1.jpg","https://xcimg.szwego.com/img/d07880e3/20241024/i1729764771_9497_3.jpg","https://xcimg.szwego.com/img/d07880e3/20241024/i1729764771_6756_6.jpg"],"created_at":"2025-02-07T08:55:38.010Z"},{"id":"item-c11789efc98e","sku":"_dgmgmmYNHzPwxSr5MkRA76gxn8yrxTOKJeOyBMg","name_en":"Miu Miu Women Bags","name_cn":"正品级\n5BA278, Miu夏日田园度假风,新款编织镂空菜篮子,特别的藤编弧型设计使得包型非常新颖别致又立体有型,正面手工缝制皮革logo标识,双皮革手提肩带,内配帆布拉链小包,搭配可调节皮革长肩带,外出野餐,田园度假,海边游玩都是绝佳选择,尺寸:20X 15X 7.5cm","specs":{"source":"wsxcme","sourceId":"_dgmgmmYNHzPwxSr5MkRA76gxn8yrxTOKJeOyBMg","sourceTagId":68075769,"sourceTagName":"Miu Miu /女包","dimensions":{"lengthCm":20,"heightCm":15,"widthCm":7.5},"rawTitle":"正品级\n5BA278, Miu夏日田园度假风,新款编织镂空菜篮子,特别的藤编弧型设计使得包型非常新颖别致又立体有型,正面手工缝制皮革logo标识,双皮革手提肩带,内配帆布拉链小包,搭配可调节皮革长肩带,外出野餐,田园度假,海边游玩都是绝佳选择,尺寸:20X 15X 7.5cm"},"price":null,"currency":"CNY","moq":1,"category":"miu-miu-women-bags","status":"active","alibaba_url":null,"images":["https://xcimg.szwego.com/20240831/i1725047091_3363_0.jpg","https://xcimg.szwego.com/20240831/i1725047091_4919_1.jpg","https://xcimg.szwego.com/20240831/i1725047278_6914_0.jpg","https://xcimg.szwego.com/20240831/i1725047091_2754_3.jpg","https://xcimg.szwego.com/20240831/i1725047091_4148_4.jpg","https://xcimg.szwego.com/20240831/i1725047091_2011_8.jpg","https://xcimg.szwego.com/20240831/i1725047091_7072_5.jpg","https://xcimg.szwego.com/20240831/i1725047091_5984_6.jpg","https://xcimg.szwego.com/20240831/i1725047091_309_7.jpg"],"created_at":"2024-11-11T10:30:45.881Z"},{"id":"item-b92781b2cb84","sku":"_deeeexuek2jiFY-JyALyhrPEgbkHdo6wojbqSOw","name_en":"Miu Miu Women Bags","name_cn":"正品级\n💋5BC157#🆕🆕🆕MiuMiu新品hobo腋下包,经典Matelasse小羊皮,提花皱褶凸纹压花图案,全新重工五金打造,五金材质和正品同样材质,制作工艺与外观设计融合了众多MlUMlU最为独特的标志性元素,棉质缎面衬里,两个内衬口袋,上身效果超赞的,百搭时尚🌹尺寸:长29CM,高15CM,宽4CM💕(配原版包装)","specs":{"source":"wsxcme","sourceId":"_deeeexuek2jiFY-JyALyhrPEgbkHdo6wojbqSOw","sourceTagId":68075769,"sourceTagName":"Miu Miu /女包","rawTitle":"正品级\n💋5BC157#🆕🆕🆕MiuMiu新品hobo腋下包,经典Matelasse小羊皮,提花皱褶凸纹压花图案,全新重工五金打造,五金材质和正品同样材质,制作工艺与外观设计融合了众多MlUMlU最为独特的标志性元素,棉质缎面衬里,两个内衬口袋,上身效果超赞的,百搭时尚🌹尺寸:长29CM,高15CM,宽4CM💕(配原版包装)"},"price":null,"currency":"CNY","moq":1,"category":"miu-miu-women-bags","status":"active","alibaba_url":null,"images":["https://xcimg.szwego.com/20231021/i1697878100_8533_0.jpg","https://xcimg.szwego.com/20231021/i1697878100_4156_1.jpg","https://xcimg.szwego.com/20231021/i1697878100_4635_2.jpg","https://xcimg.szwego.com/20231021/i1697878100_9043_3.jpg","https://xcimg.szwego.com/20231021/i1697878100_7574_4.jpg","https://xcimg.szwego.com/20231021/i1697878100_2180_5.jpg","https://xcimg.szwego.com/20231021/i1697878100_1544_6.jpg","https://xcimg.szwego.com/20231021/i1697878100_928_7.jpg","https://xcimg.szwego.com/20231021/i1697878100_2157_8.jpg"],"created_at":"2024-11-11T10:31:19.662Z"},{"id":"item-afff5131822c","sku":"_dmTmT6jyyxMWIM5z_kgUPDm922nSvAqDXKLnrcQ","name_en":"Miu Miu Women Bags","name_cn":"正品级\n5B:MiuMiu新品迷你MiuWander羊羔毛手袋,软糯糯泰迪熊毛绒绒简直不要太可爱,秋冬必备单品,复古磨砂五金,利用圆孤的曲线,保留了应有的俏皮感,包型整体硬挺有型,充满个性,可甜可盐,容量可光,尺寸:18X10X6,配原版包装","specs":{"source":"wsxcme","sourceId":"_dmTmT6jyyxMWIM5z_kgUPDm922nSvAqDXKLnrcQ","sourceTagId":68075769,"sourceTagName":"Miu Miu /女包","rawTitle":"正品级\n5B:MiuMiu新品迷你MiuWander羊羔毛手袋,软糯糯泰迪熊毛绒绒简直不要太可爱,秋冬必备单品,复古磨砂五金,利用圆孤的曲线,保留了应有的俏皮感,包型整体硬挺有型,充满个性,可甜可盐,容量可光,尺寸:18X10X6,配原版包装"},"price":null,"currency":"CNY","moq":1,"category":"miu-miu-women-bags","status":"active","alibaba_url":null,"images":["https://xcimg.szwego.com/20231214/i1702549311_9897_0.jpg","https://xcimg.szwego.com/20231214/i1702549311_5338_1.jpg","https://xcimg.szwego.com/20231214/i1702549311_3877_2.jpg","https://xcimg.szwego.com/20231214/i1702549311_5886_3.jpg","https://xcimg.szwego.com/20231214/i1702549311_4587_4.jpg","https://xcimg.szwego.com/20231214/i1702549311_3346_5.jpg","https://xcimg.szwego.com/20231214/i1702549311_9052_6.jpg","https://xcimg.szwego.com/20231214/i1702549311_2680_7.jpg","https://xcimg.szwego.com/20231214/i1702549311_1045_8.jpg"],"created_at":"2024-09-27T07:07:24.203Z"},{"id":"item-af83ed50b3a6","sku":"_dSxSx7_IMLrCGyOzqudhd-OOLWXvJpVbAD2TQOA","name_en":"Miu Miu Women Bags","name_cn":"正品级  原厂皮版本 小号\n(缪缪)💕新品保龄球包包👉5BB142,火爆这个秋冬的麂绒皮元素,顶级头层麂绒小牛皮,包身精致立体有型,正面刻字徽标与皮革颜色相呼应,可拆卸可调节皮革长肩带,全新帆布衬里,配拉链式口袋,众多明星网红同款,尺寸:22X10.5X7.5cm65050","specs":{"source":"wsxcme","sourceId":"_dSxSx7_IMLrCGyOzqudhd-OOLWXvJpVbAD2TQOA","sourceTagId":68075769,"sourceTagName":"Miu Miu /女包","dimensions":{"lengthCm":22,"heightCm":10.5,"widthCm":7.5},"rawTitle":"正品级  原厂皮版本 小号\n(缪缪)💕新品保龄球包包👉5BB142,火爆这个秋冬的麂绒皮元素,顶级头层麂绒小牛皮,包身精致立体有型,正面刻字徽标与皮革颜色相呼应,可拆卸可调节皮革长肩带,全新帆布衬里,配拉链式口袋,众多明星网红同款,尺寸:22X10.5X7.5cm65050"},"price":null,"currency":"CNY","moq":1,"category":"miu-miu-women-bags","status":"active","alibaba_url":null,"images":["https://xcimg.szwego.com/img/8655f6f1/20240909/i1725857629_1056_8.jpg","https://xcimg.szwego.com/img/8655f6f1/20240909/i1725857629_4994_2.jpg","https://xcimg.szwego.com/img/8655f6f1/20240909/i1725857629_2368_4.jpg","https://xcimg.szwego.com/img/8655f6f1/20240909/i1725857629_7413_0.jpg","https://xcimg.szwego.com/img/8655f6f1/20240909/i1725857629_7711_5.jpg","https://xcimg.szwego.com/img/8655f6f1/20240909/i1725857629_8039_6.jpg","https://xcimg.szwego.com/img/8655f6f1/20240909/i1725857629_4845_1.jpg","https://xcimg.szwego.com/img/8655f6f1/20240909/i1725857629_6242_7.jpg","https://xcimg.szwego.com/img/8655f6f1/20240909/i1725857629_6089_3.jpg"],"created_at":"2024-11-11T10:30:45.910Z"},{"id":"item-af3007b410fb","sku":"_ds4s4_orxv0Gw50efua_ZPl1WozCaZnQfPr_HkA","name_en":"Miu Miu Women Bags","name_cn":"##全套独家包装ྀི","specs":{"source":"wsxcme","sourceId":"_ds4s4_orxv0Gw50efua_ZPl1WozCaZnQfPr_HkA","sourceTagId":68075769,"sourceTagName":"Miu Miu /女包","rawTitle":"##全套独家包装ྀི"},"price":null,"currency":"CNY","moq":1,"category":"miu-miu-women-bags","status":"active","alibaba_url":null,"images":["https://xcimg.szwego.com/img/8a425f4e/20260515/a1778837955046_4826.jpg","https://xcimg.szwego.com/img/8a425f4e/20260515/a1778837954930_7727.jpg","https://xcimg.szwego.com/img/8a425f4e/20260515/a1778837954936_6463.jpg","https://xcimg.szwego.com/img/8a425f4e/20260515/a1778837954955_0761.jpg"],"created_at":"2026-06-29T11:34:31.002Z"},{"id":"item-af2f4d2544c0","sku":"_dImIm-nQcCgp597U7z78QQuPu2DtnpS381X_VEg","name_en":"Miu Miu Women Bags","name_cn":"正品级\n5NF460,新品迷你水桶包,采用顶级进口小羊皮,皮质超级柔软,性价比超高,能驾驭各种风格,非常俏皮可爱,可以单肩,斜挎,手提,双肩,造型多变,包包虽小却非常能装,尺寸:17X14X6CM,配原版包装","specs":{"source":"wsxcme","sourceId":"_dImIm-nQcCgp597U7z78QQuPu2DtnpS381X_VEg","sourceTagId":68075769,"sourceTagName":"Miu Miu /女包","dimensions":{"lengthCm":17,"heightCm":14,"widthCm":6},"rawTitle":"正品级\n5NF460,新品迷你水桶包,采用顶级进口小羊皮,皮质超级柔软,性价比超高,能驾驭各种风格,非常俏皮可爱,可以单肩,斜挎,手提,双肩,造型多变,包包虽小却非常能装,尺寸:17X14X6CM,配原版包装"},"price":null,"currency":"CNY","moq":1,"category":"miu-miu-women-bags","status":"active","alibaba_url":null,"images":["https://xcimg.szwego.com/20240401/i1711936287_9180_0.jpg","https://xcimg.szwego.com/20240401/i1711936287_235_1.jpg","https://xcimg.szwego.com/20240401/i1711936287_6184_2.jpg","https://xcimg.szwego.com/20240401/i1711936287_9585_3.jpg","https://xcimg.szwego.com/20240401/i1711936287_4235_4.jpg","https://xcimg.szwego.com/20240401/i1711936287_9422_7.jpg","https://xcimg.szwego.com/20240401/i1711936287_1441_8.jpg","https://xcimg.szwego.com/20240429/i1714329431_1086_0.jpg","https://xcimg.szwego.com/20240429/i1714329431_8871_1.jpg"],"created_at":"2024-11-11T10:30:45.848Z"}],"page":13,"pageSize":24,"total":430,"totalPages":18}
