{"items":[{"id":"item-19a60acc70b3","sku":"_dPNPN43pRidz3447bweZkvUIXN30KFZiByXH1MA","name_en":"5BB169,Miu家新品爆款保龄球包,釆用顶级复古植柔羊皮,复古磨砂感做旧金属配件,这款Aventure Nappa 皮革手提包灵感源自 Miu家典藏单品,其结构经过调整,变得更加轻便,焕发全新个性,打造具有隽永魅力的经典包款,多元素的设计赋予这款手提包独特美感和经典气息,可拆卸可调节皮革肩带,帆布内里配拉链口袋和贴袋,尺寸:28 X16.5 X 10 c","name_cn":"5BB169,Miu家新品爆款保龄球包,釆用顶级复古植柔羊皮,复古磨砂感做旧金属配件,这款Aventure Nappa 皮革手提包灵感源自 Miu家典藏单品,其结构经过调整,变得更加轻便,焕发全新个性,打造具有隽永魅力的经典包款,多元素的设计赋予这款手提包独特美感和经典气息,可拆卸可调节皮革肩带,帆布内里配拉链口袋和贴袋,尺寸:28 X16.5 X 10 cm","specs":{"source":"wsxcme","sourceId":"_dPNPN43pRidz3447bweZkvUIXN30KFZiByXH1MA","sourceTagId":68075769,"sourceTagName":"Miu Miu /女包","dimensions":{"lengthCm":28,"heightCm":16.5,"widthCm":10},"rawTitle":"5BB169,Miu家新品爆款保龄球包,釆用顶级复古植柔羊皮,复古磨砂感做旧金属配件,这款Aventure Nappa 皮革手提包灵感源自 Miu家典藏单品,其结构经过调整,变得更加轻便,焕发全新个性,打造具有隽永魅力的经典包款,多元素的设计赋予这款手提包独特美感和经典气息,可拆卸可调节皮革肩带,帆布内里配拉链口袋和贴袋,尺寸:28 X16.5 X 10 cm"},"price":null,"currency":"CNY","moq":1,"category":"miu-miu-women-bags","status":"active","alibaba_url":null,"images":["https://xcimg.szwego.com/img/9401619d/20240914/i1726309525_1250_1.jpg","https://xcimg.szwego.com/img/9401619d/20240914/i1726309525_9839_8.jpg","https://xcimg.szwego.com/img/9401619d/20240914/i1726309525_7136_2.jpg","https://xcimg.szwego.com/img/9401619d/20240914/i1726309525_6669_4.jpg","https://xcimg.szwego.com/img/9401619d/20240914/i1726309525_9263_7.jpg","https://xcimg.szwego.com/img/9401619d/20240914/i1726309525_6870_3.jpg","https://xcimg.szwego.com/img/9401619d/20240914/i1726309525_8368_0.jpg","https://xcimg.szwego.com/img/9401619d/20240914/i1726309525_8728_5.jpg","https://xcimg.szwego.com/img/9401619d/20240914/i1726309525_4176_6.jpg"],"created_at":"2025-02-10T13:51:58.460Z"},{"id":"item-132aa2f9fbe0","sku":"_dl0l0l8HNWrvmxcY_f7nncsWiGdSjmsSi04fNEg","name_en":"5BB169,Miu家新品爆款保龄球包,釆用顶级复古植柔羊皮,复古磨砂感做旧金属配件,这款Aventure Nappa 皮革手提包灵感源自 Miu家典藏单品,其结构经过调整,变得更加轻便,焕发全新个性,打造具有隽永魅力的经典包款,多元素的设计赋予这款手提包独特美感和经典气息,可拆卸可调节皮革肩带,帆布内里配拉链口袋和贴袋,尺寸:28 X16.5 X 10 c","name_cn":"5BB169,Miu家新品爆款保龄球包,釆用顶级复古植柔羊皮,复古磨砂感做旧金属配件,这款Aventure Nappa 皮革手提包灵感源自 Miu家典藏单品,其结构经过调整,变得更加轻便,焕发全新个性,打造具有隽永魅力的经典包款,多元素的设计赋予这款手提包独特美感和经典气息,可拆卸可调节皮革肩带,帆布内里配拉链口袋和贴袋,尺寸:28 X16.5 X 10 cm","specs":{"source":"wsxcme","sourceId":"_dl0l0l8HNWrvmxcY_f7nncsWiGdSjmsSi04fNEg","sourceTagId":68075769,"sourceTagName":"Miu Miu /女包","dimensions":{"lengthCm":28,"heightCm":16.5,"widthCm":10},"rawTitle":"5BB169,Miu家新品爆款保龄球包,釆用顶级复古植柔羊皮,复古磨砂感做旧金属配件,这款Aventure Nappa 皮革手提包灵感源自 Miu家典藏单品,其结构经过调整,变得更加轻便,焕发全新个性,打造具有隽永魅力的经典包款,多元素的设计赋予这款手提包独特美感和经典气息,可拆卸可调节皮革肩带,帆布内里配拉链口袋和贴袋,尺寸:28 X16.5 X 10 cm"},"price":null,"currency":"CNY","moq":1,"category":"miu-miu-women-bags","status":"active","alibaba_url":null,"images":["https://xcimg.szwego.com/20240823/i1724384299_5309_0.jpg","https://xcimg.szwego.com/20240823/i1724384299_8817_1.jpg","https://xcimg.szwego.com/20240823/i1724384299_6468_2.jpg","https://xcimg.szwego.com/20240823/i1724384299_2483_3.jpg","https://xcimg.szwego.com/20240823/i1724384299_7951_4.jpg","https://xcimg.szwego.com/20240823/i1724384299_6367_5.jpg","https://xcimg.szwego.com/20240823/i1724384299_4013_6.jpg","https://xcimg.szwego.com/20240823/i1724384299_9064_7.jpg","https://xcimg.szwego.com/20240823/i1724384299_2154_8.jpg"],"created_at":"2025-01-20T13:11:33.101Z"},{"id":"item-1043030a0317","sku":"_d_M_MyA5y77r1ilcRG3gF1RIVYRD5Bjz8dpWBsA","name_en":"5BB169,Miu家新品爆款保龄球包,釆用顶级复古植柔羊皮,复古磨砂感做旧金属配件,这款Aventure Nappa 皮革手提包灵感源自 Miu家典藏单品,其结构经过调整,变得更加轻便,焕发全新个性,打造具有隽永魅力的经典包款,多元素的设计赋予这款手提包独特美感和经典气息,可拆卸可调节皮革肩带,帆布内里配拉链口袋和贴袋,尺寸:28 X16.5 X 10 c","name_cn":"5BB169,Miu家新品爆款保龄球包,釆用顶级复古植柔羊皮,复古磨砂感做旧金属配件,这款Aventure Nappa 皮革手提包灵感源自 Miu家典藏单品,其结构经过调整,变得更加轻便,焕发全新个性,打造具有隽永魅力的经典包款,多元素的设计赋予这款手提包独特美感和经典气息,可拆卸可调节皮革肩带,帆布内里配拉链口袋和贴袋,尺寸:28 X16.5 X 10 cm","specs":{"source":"wsxcme","sourceId":"_d_M_MyA5y77r1ilcRG3gF1RIVYRD5Bjz8dpWBsA","sourceTagId":68075769,"sourceTagName":"Miu Miu /女包","dimensions":{"lengthCm":28,"heightCm":16.5,"widthCm":10},"rawTitle":"5BB169,Miu家新品爆款保龄球包,釆用顶级复古植柔羊皮,复古磨砂感做旧金属配件,这款Aventure Nappa 皮革手提包灵感源自 Miu家典藏单品,其结构经过调整,变得更加轻便,焕发全新个性,打造具有隽永魅力的经典包款,多元素的设计赋予这款手提包独特美感和经典气息,可拆卸可调节皮革肩带,帆布内里配拉链口袋和贴袋,尺寸:28 X16.5 X 10 cm"},"price":null,"currency":"CNY","moq":1,"category":"miu-miu-women-bags","status":"active","alibaba_url":null,"images":["https://xcimg.szwego.com/img/9401619d/20240912/i1726117845_117_7.jpg","https://xcimg.szwego.com/img/9401619d/20240912/i1726117845_9344_0.jpg","https://xcimg.szwego.com/img/9401619d/20240912/i1726117845_344_8.jpg","https://xcimg.szwego.com/img/9401619d/20240912/i1726117845_3075_3.jpg","https://xcimg.szwego.com/img/9401619d/20240912/i1726117845_7761_2.jpg","https://xcimg.szwego.com/img/9401619d/20240912/i1726117845_1292_5.jpg","https://xcimg.szwego.com/img/9401619d/20240912/i1726117845_8525_6.jpg","https://xcimg.szwego.com/img/9401619d/20240912/i1726117845_6295_1.jpg","https://xcimg.szwego.com/img/9401619d/20240912/i1726117845_8948_4.jpg"],"created_at":"2025-02-10T13:52:06.083Z"},{"id":"item-83be9a5e8471","sku":"_drnrn_mivBVEloioPSCp9rUtvN8YJ0r_yBefncA","name_en":"5BB173:Miu新品保龄球,最新双色搭配设计,采用超柔软小牛皮材质,大胆创新的设计完美诠释了Miu不拘一格,潇洒随意包容的人生态度,这款包包很酷,定格精致的多功能设计,融合男装和女装元素,随性慵懒,自然洒脱,充满个性,全新的帆布衬里,火遍全网不是没道理的,各大时尚搏主明星都爱背它,尺寸:28X12X9cm","name_cn":"5BB173:Miu新品保龄球,最新双色搭配设计,采用超柔软小牛皮材质,大胆创新的设计完美诠释了Miu不拘一格,潇洒随意包容的人生态度,这款包包很酷,定格精致的多功能设计,融合男装和女装元素,随性慵懒,自然洒脱,充满个性,全新的帆布衬里,火遍全网不是没道理的,各大时尚搏主明星都爱背它,尺寸:28X12X9cm","specs":{"source":"wsxcme","sourceId":"_drnrn_mivBVEloioPSCp9rUtvN8YJ0r_yBefncA","sourceTagId":68075769,"sourceTagName":"Miu Miu /女包","dimensions":{"lengthCm":28,"heightCm":12,"widthCm":9},"rawTitle":"5BB173:Miu新品保龄球,最新双色搭配设计,采用超柔软小牛皮材质,大胆创新的设计完美诠释了Miu不拘一格,潇洒随意包容的人生态度,这款包包很酷,定格精致的多功能设计,融合男装和女装元素,随性慵懒,自然洒脱,充满个性,全新的帆布衬里,火遍全网不是没道理的,各大时尚搏主明星都爱背它,尺寸:28X12X9cm"},"price":null,"currency":"CNY","moq":1,"category":"miu-miu-women-bags","status":"active","alibaba_url":null,"images":["https://xcimg.szwego.com/imgHD/facca766/20250425/cmp_a1745559957429_8287.jpg","https://xcimg.szwego.com/imgHD/facca766/20250425/cmp_a1745559957786_4007.jpg","https://xcimg.szwego.com/imgHD/facca766/20250425/cmp_a1745559957812_3730.jpg","https://xcimg.szwego.com/imgHD/facca766/20250425/cmp_a1745559957442_4843.jpg","https://xcimg.szwego.com/imgHD/facca766/20250425/cmp_a1745559957440_6667.jpg","https://xcimg.szwego.com/imgHD/facca766/20250425/cmp_a1745559962630_8613.jpg","https://xcimg.szwego.com/imgHD/facca766/20250425/cmp_a1745559962639_5230.jpg","https://xcimg.szwego.com/imgHD/facca766/20250425/cmp_a1745559962641_5435.jpg","https://xcimg.szwego.com/imgHD/facca766/20250425/cmp_a1745559962905_8102.jpg"],"created_at":"2026-06-29T11:34:30.482Z"},{"id":"item-f7076070557e","sku":"_dgdgdsUmai_ZepkDkYqFcSRTAtgBZ2tf-lGZaeA","name_en":"5BC125:MiuMi新品MiuWander手袋,全新大胆配色设计,采用顶级进口小牛皮,复古磨砂五金,利用圆孤的曲线,保留了应有的俏皮感,表达运动优雅型格与当代百变气质,包型整体硬挺有型,充满个性,可甜可盐,容量可光,尺寸:20X13X7 cm","name_cn":"5BC125:MiuMi新品MiuWander手袋,全新大胆配色设计,采用顶级进口小牛皮,复古磨砂五金,利用圆孤的曲线,保留了应有的俏皮感,表达运动优雅型格与当代百变气质,包型整体硬挺有型,充满个性,可甜可盐,容量可光,尺寸:20X13X7 cm","specs":{"source":"wsxcme","sourceId":"_dgdgdsUmai_ZepkDkYqFcSRTAtgBZ2tf-lGZaeA","sourceTagId":68075769,"sourceTagName":"Miu Miu /女包","dimensions":{"lengthCm":20,"heightCm":13,"widthCm":7},"rawTitle":"5BC125:MiuMi新品MiuWander手袋,全新大胆配色设计,采用顶级进口小牛皮,复古磨砂五金,利用圆孤的曲线,保留了应有的俏皮感,表达运动优雅型格与当代百变气质,包型整体硬挺有型,充满个性,可甜可盐,容量可光,尺寸:20X13X7 cm"},"price":null,"currency":"CNY","moq":1,"category":"miu-miu-women-bags","status":"active","alibaba_url":null,"images":["https://xcimg.szwego.com/imgHD/facca766/20250516/cmp_a1747373320556_5318.jpg","https://xcimg.szwego.com/imgHD/facca766/20250516/cmp_a1747373320657_4037.jpg","https://xcimg.szwego.com/imgHD/facca766/20250516/cmp_a1747373320559_4135.jpg","https://xcimg.szwego.com/imgHD/facca766/20250516/cmp_a1747373320637_0111.jpg","https://xcimg.szwego.com/imgHD/facca766/20250516/cmp_a1747373320138_1132.jpg","https://xcimg.szwego.com/imgHD/facca766/20250516/cmp_a1747373324554_6238.jpg","https://xcimg.szwego.com/imgHD/facca766/20250516/cmp_a1747373324275_1738.jpg","https://xcimg.szwego.com/imgHD/facca766/20250516/cmp_a1747373324579_3485.jpg","https://xcimg.szwego.com/imgHD/facca766/20250516/cmp_a1747373324277_4372.jpg"],"created_at":"2026-06-29T11:34:30.412Z"},{"id":"item-c1352c98f321","sku":"_dIMIM6QD1_LTIlAYz3DBClK7RJ0BIZFXvpzHc8A","name_en":"5BC125:MiuMi新品MiuWander手袋,全新大胆配色设计,采用顶级进口小牛皮,复古磨砂五金,利用圆孤的曲线,保留了应有的俏皮感,表达运动优雅型格与当代百变气质,包型整体硬挺有型,充满个性,可甜可盐,容量可光,尺寸:20X13X7 cm","name_cn":"5BC125:MiuMi新品MiuWander手袋,全新大胆配色设计,采用顶级进口小牛皮,复古磨砂五金,利用圆孤的曲线,保留了应有的俏皮感,表达运动优雅型格与当代百变气质,包型整体硬挺有型,充满个性,可甜可盐,容量可光,尺寸:20X13X7 cm","specs":{"source":"wsxcme","sourceId":"_dIMIM6QD1_LTIlAYz3DBClK7RJ0BIZFXvpzHc8A","sourceTagId":68075769,"sourceTagName":"Miu Miu /女包","dimensions":{"lengthCm":20,"heightCm":13,"widthCm":7},"rawTitle":"5BC125:MiuMi新品MiuWander手袋,全新大胆配色设计,采用顶级进口小牛皮,复古磨砂五金,利用圆孤的曲线,保留了应有的俏皮感,表达运动优雅型格与当代百变气质,包型整体硬挺有型,充满个性,可甜可盐,容量可光,尺寸:20X13X7 cm"},"price":null,"currency":"CNY","moq":1,"category":"miu-miu-women-bags","status":"active","alibaba_url":null,"images":["https://xcimg.szwego.com/imgHD/facca766/20250516/cmp_a1747373465321_4613.jpg","https://xcimg.szwego.com/imgHD/facca766/20250516/cmp_a1747373465405_1273.jpg","https://xcimg.szwego.com/imgHD/facca766/20250516/cmp_a1747373464936_4467.jpg","https://xcimg.szwego.com/imgHD/facca766/20250516/cmp_a1747373464934_0111.jpg","https://xcimg.szwego.com/imgHD/facca766/20250516/cmp_a1747373465356_1771.jpg","https://xcimg.szwego.com/imgHD/facca766/20250516/cmp_a1747373469535_7367.jpg","https://xcimg.szwego.com/imgHD/facca766/20250516/cmp_a1747373469322_8030.jpg","https://xcimg.szwego.com/imgHD/facca766/20250516/cmp_a1747373469326_1268.jpg","https://xcimg.szwego.com/imgHD/facca766/20250516/cmp_a1747373469533_4073.jpg"],"created_at":"2026-06-29T11:34:30.402Z"},{"id":"item-ad70c4e92580","sku":"_d8O8OTY7HNPjQzE_1mNuAPK4fjlSrtDz3Lqyzmw","name_en":"5BC125:MiuMiu新品MiuWander手袋,采用进口小羊皮经典品牌标志性Matelasse纹理绣花,复古磨砂五金,利用圆孤的曲线,保留了应有的俏皮感,包型整体硬挺有型,充满个性,可甜可盐,容量可光,各大时尚搏主几乎人手一个,颜色多多,尺寸:20 X 17 X 6配原版包装","name_cn":"5BC125:MiuMiu新品MiuWander手袋,采用进口小羊皮经典品牌标志性Matelasse纹理绣花,复古磨砂五金,利用圆孤的曲线,保留了应有的俏皮感,包型整体硬挺有型,充满个性,可甜可盐,容量可光,各大时尚搏主几乎人手一个,颜色多多,尺寸:20 X 17 X 6配原版包装","specs":{"source":"wsxcme","sourceId":"_d8O8OTY7HNPjQzE_1mNuAPK4fjlSrtDz3Lqyzmw","sourceTagId":68075769,"sourceTagName":"Miu Miu /女包","rawTitle":"5BC125:MiuMiu新品MiuWander手袋,采用进口小羊皮经典品牌标志性Matelasse纹理绣花,复古磨砂五金,利用圆孤的曲线,保留了应有的俏皮感,包型整体硬挺有型,充满个性,可甜可盐,容量可光,各大时尚搏主几乎人手一个,颜色多多,尺寸:20 X 17 X 6配原版包装"},"price":null,"currency":"CNY","moq":1,"category":"miu-miu-women-bags","status":"active","alibaba_url":null,"images":["https://xcimg.szwego.com/20240502/i1714637171_994_0.jpg","https://xcimg.szwego.com/20240502/i1714637171_3138_1.jpg","https://xcimg.szwego.com/20240502/i1714637171_167_2.jpg","https://xcimg.szwego.com/20240502/i1714637171_3338_3.jpg","https://xcimg.szwego.com/20240502/i1714637171_1061_4.jpg","https://xcimg.szwego.com/20240502/i1714637171_7979_5.jpg","https://xcimg.szwego.com/20240502/i1714637171_9131_6.jpg","https://xcimg.szwego.com/20240502/i1714637171_129_7.jpg","https://xcimg.szwego.com/20240502/i1714637171_971_8.jpg"],"created_at":"2025-01-20T13:11:33.116Z"},{"id":"item-8d4b1109e288","sku":"_drXrXeLAP_LjgZ8nU4CV0bhXC2AHmIhIS-Fbw4w","name_en":"5BC125楠木色","name_cn":"5BC125楠木色","specs":{"source":"wsxcme","sourceId":"_drXrXeLAP_LjgZ8nU4CV0bhXC2AHmIhIS-Fbw4w","sourceTagId":68075769,"sourceTagName":"Miu Miu /女包","rawTitle":"5BC125楠木色"},"price":null,"currency":"CNY","moq":1,"category":"miu-miu-women-bags","status":"active","alibaba_url":null,"images":["https://xcimg.szwego.com/20240824/i1724487132_1201_3.jpg","https://xcimg.szwego.com/20240824/i1724487132_7977_0.jpg","https://xcimg.szwego.com/20240824/i1724487132_7731_1.jpg","https://xcimg.szwego.com/20240824/i1724487132_7865_2.jpg"],"created_at":"2024-09-27T07:07:24.227Z"},{"id":"item-43c1427c2278","sku":"_dlclcrDi6ZL3hoVozXMLh_nASB_N0A_tBtbcg7g","name_en":"5BC125楠木色","name_cn":"5BC125楠木色","specs":{"source":"wsxcme","sourceId":"_dlclcrDi6ZL3hoVozXMLh_nASB_N0A_tBtbcg7g","sourceTagId":68075769,"sourceTagName":"Miu Miu /女包","rawTitle":"5BC125楠木色"},"price":null,"currency":"CNY","moq":1,"category":"miu-miu-women-bags","status":"active","alibaba_url":null,"images":["https://xcimg.szwego.com/20240824/i1724487132_1201_3.jpg","https://xcimg.szwego.com/20240824/i1724487132_7977_0.jpg","https://xcimg.szwego.com/20240824/i1724487132_7731_1.jpg","https://xcimg.szwego.com/20240824/i1724487132_7865_2.jpg"],"created_at":"2024-11-11T10:30:45.820Z"},{"id":"item-8f57295567cb","sku":"_dk4k4r2UFZFeXkR8eZ8t8qPnD5RJenXUOpOsNVg","name_en":"5BC125泰迪熊羊羔毛系列","name_cn":"5BC125泰迪熊羊羔毛系列","specs":{"source":"wsxcme","sourceId":"_dk4k4r2UFZFeXkR8eZ8t8qPnD5RJenXUOpOsNVg","sourceTagId":68075769,"sourceTagName":"Miu Miu /女包","rawTitle":"5BC125泰迪熊羊羔毛系列"},"price":null,"currency":"CNY","moq":1,"category":"miu-miu-women-bags","status":"active","alibaba_url":null,"images":["https://xcimg.szwego.com/20231213/i1702407566_4823_0.jpg","https://xcimg.szwego.com/20231213/i1702407566_598_1.jpg","https://xcimg.szwego.com/20231213/i1702407566_7659_2.jpg","https://xcimg.szwego.com/20231213/i1702407566_2989_3.jpg","https://xcimg.szwego.com/20231213/i1702407566_824_4.jpg","https://xcimg.szwego.com/20231213/i1702407566_664_5.jpg","https://xcimg.szwego.com/20231213/i1702407566_2008_6.jpg","https://xcimg.szwego.com/20231213/i1702407566_6915_7.jpg","https://xcimg.szwego.com/20231213/i1702407566_2318_8.jpg"],"created_at":"2024-09-27T07:07:24.201Z"},{"id":"item-1b88e321d310","sku":"_duZuZGjREwig4we_Tz8EP2cnA5QzgtO0Itkivlw","name_en":"5BC125泰迪熊羊羔毛系列","name_cn":"5BC125泰迪熊羊羔毛系列","specs":{"source":"wsxcme","sourceId":"_duZuZGjREwig4we_Tz8EP2cnA5QzgtO0Itkivlw","sourceTagId":68075769,"sourceTagName":"Miu Miu /女包","rawTitle":"5BC125泰迪熊羊羔毛系列"},"price":null,"currency":"CNY","moq":1,"category":"miu-miu-women-bags","status":"active","alibaba_url":null,"images":["https://xcimg.szwego.com/20231213/i1702407566_4823_0.jpg","https://xcimg.szwego.com/20231213/i1702407566_598_1.jpg","https://xcimg.szwego.com/20231213/i1702407566_7659_2.jpg","https://xcimg.szwego.com/20231213/i1702407566_2989_3.jpg","https://xcimg.szwego.com/20231213/i1702407566_824_4.jpg","https://xcimg.szwego.com/20231213/i1702407566_664_5.jpg","https://xcimg.szwego.com/20231213/i1702407566_2008_6.jpg","https://xcimg.szwego.com/20231213/i1702407566_6915_7.jpg","https://xcimg.szwego.com/20231213/i1702407566_2318_8.jpg"],"created_at":"2024-11-11T10:31:19.655Z"},{"id":"item-416443b40fe1","sku":"_deBeBcXAZEi87NdrbC2DkYzDdvBp7N_xeefiNCA","name_en":"5BC125新色裸杏,焦糖棕","name_cn":"5BC125新色裸杏,焦糖棕","specs":{"source":"wsxcme","sourceId":"_deBeBcXAZEi87NdrbC2DkYzDdvBp7N_xeefiNCA","sourceTagId":68075769,"sourceTagName":"Miu Miu /女包","rawTitle":"5BC125新色裸杏,焦糖棕"},"price":null,"currency":"CNY","moq":1,"category":"miu-miu-women-bags","status":"active","alibaba_url":null,"images":["https://xcimg.szwego.com/20230613/i1686588461_9533_0.jpg","https://xcimg.szwego.com/20230613/i1686588461_8774_1.jpg","https://xcimg.szwego.com/20230613/i1686588461_5775_2.jpg","https://xcimg.szwego.com/20230613/i1686588461_3184_3.jpg","https://xcimg.szwego.com/20230613/i1686588461_5191_4.jpg"],"created_at":"2024-11-11T10:31:19.653Z"},{"id":"item-022a1d28c190","sku":"_dIuIuLEvWexJSVEMq4qtR1FQCO7owPdgWRuQDSA","name_en":"5BC151","name_cn":"5BC151","specs":{"source":"wsxcme","sourceId":"_dIuIuLEvWexJSVEMq4qtR1FQCO7owPdgWRuQDSA","sourceTagId":68075769,"sourceTagName":"Miu Miu /女包","rawTitle":"5BC151"},"price":null,"currency":"CNY","moq":1,"category":"miu-miu-women-bags","status":"active","alibaba_url":null,"images":["https://xcimg.szwego.com/20240606/i1717615342_6971_0.jpg","https://xcimg.szwego.com/20240606/i1717615342_9140_1.jpg","https://xcimg.szwego.com/20240606/i1717615342_4952_2.jpg","https://xcimg.szwego.com/20240606/i1717615342_7407_3.jpg","https://xcimg.szwego.com/20240606/i1717615342_9986_4.jpg"],"created_at":"2024-11-11T10:30:45.852Z"},{"id":"item-20fb6d26775c","sku":"_dpmpmuteX7uX_gK1Ec9DpkIeFGIXq90q4J3h-Ig","name_en":"5BC157 hobo 腋下包","name_cn":"5BC157 hobo 腋下包","specs":{"source":"wsxcme","sourceId":"_dpmpmuteX7uX_gK1Ec9DpkIeFGIXq90q4J3h-Ig","sourceTagId":68075769,"sourceTagName":"Miu Miu /女包","rawTitle":"5BC157 hobo 腋下包"},"price":null,"currency":"CNY","moq":1,"category":"miu-miu-women-bags","status":"active","alibaba_url":null,"images":["https://xcimg.szwego.com/20231021/i1697882184_4876_0.jpg","https://xcimg.szwego.com/20231021/i1697882184_3750_1.jpg","https://xcimg.szwego.com/20231021/i1697882184_1796_2.jpg","https://xcimg.szwego.com/20231021/i1697882184_7270_3.jpg","https://xcimg.szwego.com/20231021/i1697882184_7787_4.jpg","https://xcimg.szwego.com/20231021/i1697882184_1686_5.jpg","https://xcimg.szwego.com/20231021/i1697882184_3464_6.jpg","https://xcimg.szwego.com/20231021/i1697882184_4075_7.jpg"],"created_at":"2024-09-27T07:07:24.218Z"},{"id":"item-86f04bcbb9d2","sku":"_dxvxvfdz4XLvbHFt8u1DarjvzbZ4pBjBnwKHtcw","name_en":"5BC158:Miu家新品,经典Matelasse工艺,顶级进口小羊皮,包型精致的立体效果,高级纹理质感重新诠释了这款软羊革手袋的柔美魅力,制作工艺与外观设计融合了众多MlUMlU最为独特的标志性元素,搭配可调节的皮革肩带,背法多样,进一步增添时尚魅力与摩登风范,内配棉质缎面衬里,尺寸:长24CM,高11.5CM,宽7CM💕(配原版包装)","name_cn":"5BC158:Miu家新品,经典Matelasse工艺,顶级进口小羊皮,包型精致的立体效果,高级纹理质感重新诠释了这款软羊革手袋的柔美魅力,制作工艺与外观设计融合了众多MlUMlU最为独特的标志性元素,搭配可调节的皮革肩带,背法多样,进一步增添时尚魅力与摩登风范,内配棉质缎面衬里,尺寸:长24CM,高11.5CM,宽7CM💕(配原版包装)","specs":{"source":"wsxcme","sourceId":"_dxvxvfdz4XLvbHFt8u1DarjvzbZ4pBjBnwKHtcw","sourceTagId":68075769,"sourceTagName":"Miu Miu /女包","rawTitle":"5BC158:Miu家新品,经典Matelasse工艺,顶级进口小羊皮,包型精致的立体效果,高级纹理质感重新诠释了这款软羊革手袋的柔美魅力,制作工艺与外观设计融合了众多MlUMlU最为独特的标志性元素,搭配可调节的皮革肩带,背法多样,进一步增添时尚魅力与摩登风范,内配棉质缎面衬里,尺寸:长24CM,高11.5CM,宽7CM💕(配原版包装)"},"price":null,"currency":"CNY","moq":1,"category":"miu-miu-women-bags","status":"active","alibaba_url":null,"images":["https://xcimg.szwego.com/img/1b3490b8/20241015/i1728967160_3175_1.jpg","https://xcimg.szwego.com/img/1b3490b8/20241015/i1728967160_4547_3.jpg","https://xcimg.szwego.com/img/1b3490b8/20241015/i1728967160_5773_0.jpg","https://xcimg.szwego.com/img/1b3490b8/20241015/i1728967160_6129_4.jpg","https://xcimg.szwego.com/img/1b3490b8/20241015/i1728967160_1358_6.jpg","https://xcimg.szwego.com/img/1b3490b8/20241015/i1728967160_2151_2.jpg","https://xcimg.szwego.com/img/1b3490b8/20241015/i1728967160_3347_7.jpg","https://xcimg.szwego.com/img/1b3490b8/20241015/i1728967160_517_5.jpg","https://xcimg.szwego.com/img/1b3490b8/20241015/i1728967160_7570_8.jpg"],"created_at":"2025-02-10T13:49:27.520Z"},{"id":"item-762fb4183d8c","sku":"_dOIOI8ocqxzvnuFVRGQNWJMxlB-8XldDA5DJnLg","name_en":"5BE089","name_cn":"5BE089","specs":{"source":"wsxcme","sourceId":"_dOIOI8ocqxzvnuFVRGQNWJMxlB-8XldDA5DJnLg","sourceTagId":68075769,"sourceTagName":"Miu Miu /女包","rawTitle":"5BE089"},"price":null,"currency":"CNY","moq":1,"category":"miu-miu-women-bags","status":"active","alibaba_url":null,"images":["https://xcimg.szwego.com/20240514/i1715627968_3573_0.jpg","https://xcimg.szwego.com/20240514/i1715627968_6159_1.jpg","https://xcimg.szwego.com/20240514/i1715627968_7773_2.jpg","https://xcimg.szwego.com/20240514/i1715627968_9702_3.jpg","https://xcimg.szwego.com/20240514/i1715627968_7543_4.jpg","https://xcimg.szwego.com/20240514/i1715627968_1817_5.jpg","https://xcimg.szwego.com/20240514/i1715627968_8084_6.jpg"],"created_at":"2024-11-11T10:30:45.838Z"},{"id":"item-cebaebf52965","sku":"_dwDwDQIpdBqENvBMYqL36NNAEm5roT9EGFeWFJg","name_en":"5BE090","name_cn":"5BE090","specs":{"source":"wsxcme","sourceId":"_dwDwDQIpdBqENvBMYqL36NNAEm5roT9EGFeWFJg","sourceTagId":68075769,"sourceTagName":"Miu Miu /女包","rawTitle":"5BE090"},"price":null,"currency":"CNY","moq":1,"category":"miu-miu-women-bags","status":"active","alibaba_url":null,"images":["https://xcimg.szwego.com/20240514/i1715627301_309_0.jpg","https://xcimg.szwego.com/20240514/i1715627301_4045_1.jpg","https://xcimg.szwego.com/20240514/i1715627301_7141_2.jpg","https://xcimg.szwego.com/20240514/i1715627301_1394_3.jpg","https://xcimg.szwego.com/20240514/i1715627301_458_4.jpg","https://xcimg.szwego.com/20240514/i1715627301_6153_5.jpg","https://xcimg.szwego.com/20240514/i1715627301_8807_6.jpg","https://xcimg.szwego.com/20240514/i1715627301_5221_7.jpg","https://xcimg.szwego.com/20240514/i1715627301_4422_8.jpg"],"created_at":"2024-11-11T10:30:45.836Z"},{"id":"item-14ba6b3ce41f","sku":"_dSzSzPKxUMHI0_yegf77NJ-eQqWtgpB6EQ2dgqQ","name_en":"5BE090,Miu家新款水桶包","name_cn":"5BE090,Miu家新款水桶包","specs":{"source":"wsxcme","sourceId":"_dSzSzPKxUMHI0_yegf77NJ-eQqWtgpB6EQ2dgqQ","sourceTagId":68075769,"sourceTagName":"Miu Miu /女包","rawTitle":"5BE090,Miu家新款水桶包"},"price":null,"currency":"CNY","moq":1,"category":"miu-miu-women-bags","status":"active","alibaba_url":null,"images":["https://xcimg.szwego.com/20240516/i1715822829_2776_0.jpg","https://xcimg.szwego.com/20240516/i1715822829_7196_1.jpg","https://xcimg.szwego.com/20240516/i1715822829_4456_2.jpg","https://xcimg.szwego.com/20240516/i1715822829_4712_3.jpg","https://xcimg.szwego.com/20240516/i1715822829_1330_4.jpg"],"created_at":"2024-11-11T10:30:45.835Z"},{"id":"item-a7c7bef8d34a","sku":"_dbEbEYQ5cAIeAfrWIRBilnYMkxCpDM4EQCMhJNw","name_en":"5BF131,Miu新品特色款式贝壳双肩包,精致细腻光泽小牛皮,简约线条结合时装秀的灵感和现代女性气质,在风格实验和精致多样性之间取得了平衡,手袋有多种佩戴方式:单肩,手拿,斜挎,双肩,呈现百搭复古风格,延续 miu不拘一格,大胆创新,慵懒不鞍却又自然洒脱的风格,个性鲜明,能驾驭各种风格,上班通勤外出逛街都是绝佳选择","name_cn":"5BF131,Miu新品特色款式贝壳双肩包,精致细腻光泽小牛皮,简约线条结合时装秀的灵感和现代女性气质,在风格实验和精致多样性之间取得了平衡,手袋有多种佩戴方式:单肩,手拿,斜挎,双肩,呈现百搭复古风格,延续 miu不拘一格,大胆创新,慵懒不鞍却又自然洒脱的风格,个性鲜明,能驾驭各种风格,上班通勤外出逛街都是绝佳选择\n尺寸:24 X 14 X8.5 cm","specs":{"source":"wsxcme","sourceId":"_dbEbEYQ5cAIeAfrWIRBilnYMkxCpDM4EQCMhJNw","sourceTagId":68075769,"sourceTagName":"Miu Miu /女包","dimensions":{"lengthCm":24,"heightCm":14,"widthCm":8.5},"rawTitle":"5BF131,Miu新品特色款式贝壳双肩包,精致细腻光泽小牛皮,简约线条结合时装秀的灵感和现代女性气质,在风格实验和精致多样性之间取得了平衡,手袋有多种佩戴方式:单肩,手拿,斜挎,双肩,呈现百搭复古风格,延续 miu不拘一格,大胆创新,慵懒不鞍却又自然洒脱的风格,个性鲜明,能驾驭各种风格,上班通勤外出逛街都是绝佳选择\n尺寸:24 X 14 X8.5 cm"},"price":null,"currency":"CNY","moq":1,"category":"miu-miu-women-bags","status":"active","alibaba_url":null,"images":["https://xcimg.szwego.com/imgHD/1698de7a/20260120/cmp_i1768909932873_5556_0_0.jpg","https://xcimg.szwego.com/imgHD/1698de7a/20260120/cmp_i1768909932891_5642_0_2.jpg","https://xcimg.szwego.com/imgHD/1698de7a/20260120/cmp_i1768909932885_7880_0_1.jpg","https://xcimg.szwego.com/imgHD/1698de7a/20260120/cmp_i1768909935241_8028_0_3.jpg","https://xcimg.szwego.com/imgHD/1698de7a/20260120/cmp_i1768909935043_2931_0_4.jpg","https://xcimg.szwego.com/imgHD/1698de7a/20260120/cmp_i1768909932812_9090_0_6.jpg","https://xcimg.szwego.com/imgHD/1698de7a/20260120/cmp_i1768909932812_7046_0_5.jpg","https://xcimg.szwego.com/imgHD/1698de7a/20260120/cmp_i1768909935043_7978_0_7.jpg","https://xcimg.szwego.com/imgHD/1698de7a/20260120/cmp_i1768909935254_3117_0_8.jpg"],"created_at":"2026-06-29T11:34:31.082Z"},{"id":"item-634bd3c63cef","sku":"_dbNbNtVxgUq-UvEsQXoW38BA3iAVJ4OS7vAyhpw","name_en":"5BF131,Miu新品特色款式贝壳双肩包,精致细腻光泽小牛皮,简约线条结合时装秀的灵感和现代女性气质,在风格实验和精致多样性之间取得了平衡,手袋有多种佩戴方式:单肩,手拿,斜挎,双肩,呈现百搭复古风格,延续 miu不拘一格,大胆创新,慵懒不鞍却又自然洒脱的风格,个性鲜明,能驾驭各种风格,上班通勤外出逛街都是绝佳选择","name_cn":"5BF131,Miu新品特色款式贝壳双肩包,精致细腻光泽小牛皮,简约线条结合时装秀的灵感和现代女性气质,在风格实验和精致多样性之间取得了平衡,手袋有多种佩戴方式:单肩,手拿,斜挎,双肩,呈现百搭复古风格,延续 miu不拘一格,大胆创新,慵懒不鞍却又自然洒脱的风格,个性鲜明,能驾驭各种风格,上班通勤外出逛街都是绝佳选择\n尺寸:24 X 14 X8.5 cm\n\n5BF131,Miu新品特色款式贝壳双肩包,精致细腻光泽小牛皮,简约线条结合时装秀的灵感和现代女性气质,在风格实验和精致多样性之间取得了平衡,手袋有多种佩戴方式:单肩,手拿,斜挎,双肩,呈现百搭复古风格,延续 miu不拘一格,大胆创新,慵懒不鞍却又自然洒脱的风格,个性鲜明,能驾驭各种风格,上班通勤外出逛街都是绝佳选择\n尺寸:24 X 14 X8.5 cm","specs":{"source":"wsxcme","sourceId":"_dbNbNtVxgUq-UvEsQXoW38BA3iAVJ4OS7vAyhpw","sourceTagId":68075769,"sourceTagName":"Miu Miu /女包","dimensions":{"lengthCm":24,"heightCm":14,"widthCm":8.5},"rawTitle":"5BF131,Miu新品特色款式贝壳双肩包,精致细腻光泽小牛皮,简约线条结合时装秀的灵感和现代女性气质,在风格实验和精致多样性之间取得了平衡,手袋有多种佩戴方式:单肩,手拿,斜挎,双肩,呈现百搭复古风格,延续 miu不拘一格,大胆创新,慵懒不鞍却又自然洒脱的风格,个性鲜明,能驾驭各种风格,上班通勤外出逛街都是绝佳选择\n尺寸:24 X 14 X8.5 cm\n\n5BF131,Miu新品特色款式贝壳双肩包,精致细腻光泽小牛皮,简约线条结合时装秀的灵感和现代女性气质,在风格实验和精致多样性之间取得了平衡,手袋有多种佩戴方式:单肩,手拿,斜挎,双肩,呈现百搭复古风格,延续 miu不拘一格,大胆创新,慵懒不鞍却又自然洒脱的风格,个性鲜明,能驾驭各种风格,上班通勤外出逛街都是绝佳选择\n尺寸:24 X 14 X8.5 cm"},"price":null,"currency":"CNY","moq":1,"category":"miu-miu-women-bags","status":"active","alibaba_url":null,"images":["https://xcimg.szwego.com/imgHD/1698de7a/20260120/cmp_i1768910182092_4987_0_0.jpg","https://xcimg.szwego.com/imgHD/1698de7a/20260120/cmp_i1768910183892_5518_0_1.jpg","https://xcimg.szwego.com/imgHD/1698de7a/20260120/cmp_i1768910182065_6826_0_2.jpg","https://xcimg.szwego.com/imgHD/1698de7a/20260120/cmp_i1768910183876_8263_0_3.jpg","https://xcimg.szwego.com/imgHD/1698de7a/20260120/cmp_i1768910181816_891_0_6.jpg","https://xcimg.szwego.com/imgHD/1698de7a/20260120/cmp_i1768910182075_2720_0_4.jpg","https://xcimg.szwego.com/imgHD/1698de7a/20260120/cmp_i1768910183729_7097_0_5.jpg","https://xcimg.szwego.com/imgHD/1698de7a/20260120/cmp_i1768910182065_5368_0_7.jpg","https://xcimg.szwego.com/imgHD/1698de7a/20260120/cmp_i1768910183886_8604_0_8.jpg"],"created_at":"2026-06-29T11:34:31.112Z"},{"id":"item-58b6c1b6dcc7","sku":"_da9a9ljb6FCtE2XMWZBwUQBH-ZHzGb1w92P6PcQ","name_en":"5BF131,Miu新品特色款式贝壳双肩包,精致细腻光泽小牛皮,简约线条结合时装秀的灵感和现代女性气质,在风格实验和精致多样性之间取得了平衡,手袋有多种佩戴方式:单肩,手拿,斜挎,双肩,呈现百搭复古风格,延续 miu不拘一格,大胆创新,慵懒不鞍却又自然洒脱的风格,个性鲜明,能驾驭各种风格,上班通勤外出逛街都是绝佳选择","name_cn":"5BF131,Miu新品特色款式贝壳双肩包,精致细腻光泽小牛皮,简约线条结合时装秀的灵感和现代女性气质,在风格实验和精致多样性之间取得了平衡,手袋有多种佩戴方式:单肩,手拿,斜挎,双肩,呈现百搭复古风格,延续 miu不拘一格,大胆创新,慵懒不鞍却又自然洒脱的风格,个性鲜明,能驾驭各种风格,上班通勤外出逛街都是绝佳选择\n尺寸:24 X 14 X8.5 cm","specs":{"source":"wsxcme","sourceId":"_da9a9ljb6FCtE2XMWZBwUQBH-ZHzGb1w92P6PcQ","sourceTagId":68075769,"sourceTagName":"Miu Miu /女包","dimensions":{"lengthCm":24,"heightCm":14,"widthCm":8.5},"rawTitle":"5BF131,Miu新品特色款式贝壳双肩包,精致细腻光泽小牛皮,简约线条结合时装秀的灵感和现代女性气质,在风格实验和精致多样性之间取得了平衡,手袋有多种佩戴方式:单肩,手拿,斜挎,双肩,呈现百搭复古风格,延续 miu不拘一格,大胆创新,慵懒不鞍却又自然洒脱的风格,个性鲜明,能驾驭各种风格,上班通勤外出逛街都是绝佳选择\n尺寸:24 X 14 X8.5 cm"},"price":null,"currency":"CNY","moq":1,"category":"miu-miu-women-bags","status":"active","alibaba_url":null,"images":["https://xcimg.szwego.com/imgHD/1698de7a/20260120/cmp_i1768910023922_1467_0_0.jpg","https://xcimg.szwego.com/imgHD/1698de7a/20260120/cmp_i1768910022661_481_0_2.jpg","https://xcimg.szwego.com/imgHD/1698de7a/20260120/cmp_i1768910023903_396_0_1.jpg","https://xcimg.szwego.com/imgHD/1698de7a/20260120/cmp_i1768910022676_534_0_3.jpg","https://xcimg.szwego.com/imgHD/1698de7a/20260120/cmp_i1768910023702_1536_0_4.jpg","https://xcimg.szwego.com/imgHD/1698de7a/20260120/cmp_i1768910022477_9011_0_5.jpg","https://xcimg.szwego.com/imgHD/1698de7a/20260120/cmp_i1768910022476_1440_0_6.jpg","https://xcimg.szwego.com/imgHD/1698de7a/20260120/cmp_i1768910023904_6121_0_7.jpg","https://xcimg.szwego.com/imgHD/1698de7a/20260120/cmp_i1768910022663_869_0_8.jpg"],"created_at":"2026-06-29T11:34:31.092Z"},{"id":"item-37b29353eea7","sku":"_dbwbwme8lavHhO-4cm4HXZ0sKEyUstrJEFkiZGQ","name_en":"5BF131,Miu新品特色款式贝壳双肩包,精致细腻光泽小牛皮,简约线条结合时装秀的灵感和现代女性气质,在风格实验和精致多样性之间取得了平衡,手袋有多种佩戴方式:单肩,手拿,斜挎,双肩,呈现百搭复古风格,延续 miu不拘一格,大胆创新,慵懒不鞍却又自然洒脱的风格,个性鲜明,能驾驭各种风格,上班通勤外出逛街都是绝佳选择","name_cn":"5BF131,Miu新品特色款式贝壳双肩包,精致细腻光泽小牛皮,简约线条结合时装秀的灵感和现代女性气质,在风格实验和精致多样性之间取得了平衡,手袋有多种佩戴方式:单肩,手拿,斜挎,双肩,呈现百搭复古风格,延续 miu不拘一格,大胆创新,慵懒不鞍却又自然洒脱的风格,个性鲜明,能驾驭各种风格,上班通勤外出逛街都是绝佳选择\n尺寸:24 X 14 X8.5 cm","specs":{"source":"wsxcme","sourceId":"_dbwbwme8lavHhO-4cm4HXZ0sKEyUstrJEFkiZGQ","sourceTagId":68075769,"sourceTagName":"Miu Miu /女包","dimensions":{"lengthCm":24,"heightCm":14,"widthCm":8.5},"rawTitle":"5BF131,Miu新品特色款式贝壳双肩包,精致细腻光泽小牛皮,简约线条结合时装秀的灵感和现代女性气质,在风格实验和精致多样性之间取得了平衡,手袋有多种佩戴方式:单肩,手拿,斜挎,双肩,呈现百搭复古风格,延续 miu不拘一格,大胆创新,慵懒不鞍却又自然洒脱的风格,个性鲜明,能驾驭各种风格,上班通勤外出逛街都是绝佳选择\n尺寸:24 X 14 X8.5 cm"},"price":null,"currency":"CNY","moq":1,"category":"miu-miu-women-bags","status":"active","alibaba_url":null,"images":["https://xcimg.szwego.com/imgHD/1698de7a/20260120/cmp_i1768910093291_5601_0_1.jpg","https://xcimg.szwego.com/imgHD/1698de7a/20260120/cmp_i1768910093280_4524_0_2.jpg","https://xcimg.szwego.com/imgHD/1698de7a/20260120/cmp_i1768910093300_1004_0_0.jpg","https://xcimg.szwego.com/imgHD/1698de7a/20260120/cmp_i1768910094608_2296_0_3.jpg","https://xcimg.szwego.com/imgHD/1698de7a/20260120/cmp_i1768910094589_5922_0_6.jpg","https://xcimg.szwego.com/imgHD/1698de7a/20260120/cmp_i1768910093104_1170_0_4.jpg","https://xcimg.szwego.com/imgHD/1698de7a/20260120/cmp_i1768910093103_6070_0_5.jpg","https://xcimg.szwego.com/imgHD/1698de7a/20260120/cmp_i1768910094443_2253_0_7.jpg","https://xcimg.szwego.com/imgHD/1698de7a/20260120/cmp_i1768910094587_3536_0_8.jpg"],"created_at":"2026-06-29T11:34:31.102Z"},{"id":"item-6b9bb4c56a27","sku":"_daDaDVk8lYlUDxVmHNgLRZ7TzFKGGX8GKHKFKLw","name_en":"5BG231","name_cn":"5BG231","specs":{"source":"wsxcme","sourceId":"_daDaDVk8lYlUDxVmHNgLRZ7TzFKGGX8GKHKFKLw","sourceTagId":68075769,"sourceTagName":"Miu Miu /女包","rawTitle":"5BG231"},"price":null,"currency":"CNY","moq":1,"category":"miu-miu-women-bags","status":"active","alibaba_url":null,"images":["https://xcimg.szwego.com/20240624/i1719171257_1373_0.jpg","https://xcimg.szwego.com/20240624/i1719171257_540_1.jpg","https://xcimg.szwego.com/20240624/i1719171257_5719_2.jpg","https://xcimg.szwego.com/20240624/i1719171257_3929_3.jpg","https://xcimg.szwego.com/20240624/i1719171542_4491_0.jpg"],"created_at":"2024-09-27T07:07:24.208Z"},{"id":"item-abd6dfc347e8","sku":"_drnrn_mivBVMkpSkHSCt9qUxoNcwI0r_yB-Xmfg","name_en":"5BG276","name_cn":"5BG276","specs":{"source":"wsxcme","sourceId":"_drnrn_mivBVMkpSkHSCt9qUxoNcwI0r_yB-Xmfg","sourceTagId":68075769,"sourceTagName":"Miu Miu /女包","rawTitle":"5BG276"},"price":null,"currency":"CNY","moq":1,"category":"miu-miu-women-bags","status":"active","alibaba_url":null,"images":["https://xcimg.szwego.com/20240105/i1704391076_213_0.jpg","https://xcimg.szwego.com/20240105/i1704391076_9998_1.jpg","https://xcimg.szwego.com/20240105/i1704391076_5833_2.jpg","https://xcimg.szwego.com/20240105/i1704391076_7124_3.jpg","https://xcimg.szwego.com/20240105/i1704391076_9927_4.jpg"],"created_at":"2024-11-11T10:30:45.843Z"}],"page":8,"pageSize":24,"total":430,"totalPages":18}
