{"items":[{"id":"item-3443a2caa47f","sku":"_dcecenYr_yCDTOVJ-JdwF7zkFbNZyj3NGjwRQxQ","name_en":"5BB142,Miu家新款保龄球包包,官网主推,今年绝对爆🔥款式,顶级进口小牛皮,Miu家独具风格Matelasse图案,包身精致立体有型,正面刻字徽标与皮革颜色相呼应,可拆卸可调节皮革长肩带,棉质缎面衬里,配拉链式口袋,众多明星网红同款,尺寸22X10.5X7.5Cm,配原版包装","name_cn":"5BB142,Miu家新款保龄球包包,官网主推,今年绝对爆🔥款式,顶级进口小牛皮,Miu家独具风格Matelasse图案,包身精致立体有型,正面刻字徽标与皮革颜色相呼应,可拆卸可调节皮革长肩带,棉质缎面衬里,配拉链式口袋,众多明星网红同款,尺寸22X10.5X7.5Cm,配原版包装","specs":{"source":"wsxcme","sourceId":"_dcecenYr_yCDTOVJ-JdwF7zkFbNZyj3NGjwRQxQ","sourceTagId":68075769,"sourceTagName":"Miu Miu /女包","dimensions":{"lengthCm":22,"heightCm":10.5,"widthCm":7.5},"rawTitle":"5BB142,Miu家新款保龄球包包,官网主推,今年绝对爆🔥款式,顶级进口小牛皮,Miu家独具风格Matelasse图案,包身精致立体有型,正面刻字徽标与皮革颜色相呼应,可拆卸可调节皮革长肩带,棉质缎面衬里,配拉链式口袋,众多明星网红同款,尺寸22X10.5X7.5Cm,配原版包装"},"price":null,"currency":"CNY","moq":1,"category":"miu-miu-women-bags","status":"active","alibaba_url":null,"images":["https://xcimg.szwego.com/20230414/i1681407440_3149_0.jpg","https://xcimg.szwego.com/20230414/i1681407440_6605_1.jpg","https://xcimg.szwego.com/20230414/i1681407440_821_2.jpg","https://xcimg.szwego.com/20230414/i1681407440_1712_3.jpg","https://xcimg.szwego.com/20230414/i1681407440_5912_4.jpg","https://xcimg.szwego.com/20230414/i1681407440_7696_5.jpg","https://xcimg.szwego.com/20230414/i1681407440_2807_6.jpg","https://xcimg.szwego.com/20230414/i1681407440_8217_7.jpg"],"created_at":"2025-01-20T13:11:33.118Z"},{"id":"item-2ce5aa492032","sku":"_dL_L_n6HbTYcIwtQTutC8fDdkHND0__O4mNJw_Q","name_en":"5BB142,Miu家新款保龄球包包,官网主推,今年绝对爆🔥款式,顶级进口小牛皮,Miu家独具风格Matelasse图案,包身精致立体有型,正面刻字徽标与皮革颜色相呼应,可拆卸可调节皮革长肩带,棉质缎面衬里,配拉链式口袋,众多明星网红同款,尺寸22X10.5X7.5Cm,配原版包装","name_cn":"5BB142,Miu家新款保龄球包包,官网主推,今年绝对爆🔥款式,顶级进口小牛皮,Miu家独具风格Matelasse图案,包身精致立体有型,正面刻字徽标与皮革颜色相呼应,可拆卸可调节皮革长肩带,棉质缎面衬里,配拉链式口袋,众多明星网红同款,尺寸22X10.5X7.5Cm,配原版包装","specs":{"source":"wsxcme","sourceId":"_dL_L_n6HbTYcIwtQTutC8fDdkHND0__O4mNJw_Q","sourceTagId":68075769,"sourceTagName":"Miu Miu /女包","dimensions":{"lengthCm":22,"heightCm":10.5,"widthCm":7.5},"rawTitle":"5BB142,Miu家新款保龄球包包,官网主推,今年绝对爆🔥款式,顶级进口小牛皮,Miu家独具风格Matelasse图案,包身精致立体有型,正面刻字徽标与皮革颜色相呼应,可拆卸可调节皮革长肩带,棉质缎面衬里,配拉链式口袋,众多明星网红同款,尺寸22X10.5X7.5Cm,配原版包装"},"price":null,"currency":"CNY","moq":1,"category":"miu-miu-women-bags","status":"active","alibaba_url":null,"images":["https://xcimg.szwego.com/20230429/i1682752172_9236_0.jpg","https://xcimg.szwego.com/20230429/i1682752172_1537_1.jpg","https://xcimg.szwego.com/20230429/i1682752172_3596_2.jpg","https://xcimg.szwego.com/20230429/i1682752172_8927_3.jpg","https://xcimg.szwego.com/20230429/i1682752172_3542_4.jpg","https://xcimg.szwego.com/20230429/i1682752172_795_5.jpg","https://xcimg.szwego.com/20230429/i1682752172_6732_6.jpg","https://xcimg.szwego.com/20230429/i1682752172_8288_7.jpg","https://xcimg.szwego.com/20230429/i1682752172_9387_8.jpg"],"created_at":"2025-01-20T13:11:33.121Z"},{"id":"item-21ed12919be1","sku":"_dnBnBi6Tlrz5WtuMQS6QIc2a7mNzdnzqX4eqNoQ","name_en":"5BB142,Miu家新款保龄球包包,官网主推,今年绝对爆🔥款式,顶级进口小牛皮,Miu家独具风格Matelasse图案,包身精致立体有型,正面刻字徽标与皮革颜色相呼应,可拆卸可调节皮革长肩带,棉质缎面衬里,配拉链式口袋,众多明星网红同款,尺寸22X10.5X7.5Cm,配原版包装","name_cn":"5BB142,Miu家新款保龄球包包,官网主推,今年绝对爆🔥款式,顶级进口小牛皮,Miu家独具风格Matelasse图案,包身精致立体有型,正面刻字徽标与皮革颜色相呼应,可拆卸可调节皮革长肩带,棉质缎面衬里,配拉链式口袋,众多明星网红同款,尺寸22X10.5X7.5Cm,配原版包装","specs":{"source":"wsxcme","sourceId":"_dnBnBi6Tlrz5WtuMQS6QIc2a7mNzdnzqX4eqNoQ","sourceTagId":68075769,"sourceTagName":"Miu Miu /女包","dimensions":{"lengthCm":22,"heightCm":10.5,"widthCm":7.5},"rawTitle":"5BB142,Miu家新款保龄球包包,官网主推,今年绝对爆🔥款式,顶级进口小牛皮,Miu家独具风格Matelasse图案,包身精致立体有型,正面刻字徽标与皮革颜色相呼应,可拆卸可调节皮革长肩带,棉质缎面衬里,配拉链式口袋,众多明星网红同款,尺寸22X10.5X7.5Cm,配原版包装"},"price":null,"currency":"CNY","moq":1,"category":"miu-miu-women-bags","status":"active","alibaba_url":null,"images":["https://xcimg.szwego.com/20231106/i1699234486_9592_0.jpg","https://xcimg.szwego.com/20231106/i1699234486_7155_1.jpg","https://xcimg.szwego.com/20231106/i1699234486_3179_2.jpg","https://xcimg.szwego.com/20231106/i1699234486_2341_3.jpg","https://xcimg.szwego.com/20231106/i1699234486_7919_4.jpg","https://xcimg.szwego.com/20231106/i1699234486_8805_5.jpg","https://xcimg.szwego.com/20231106/i1699234486_3288_6.jpg","https://xcimg.szwego.com/20231106/i1699234486_6117_7.jpg","https://xcimg.szwego.com/20231106/i1699234508_881_0.jpg"],"created_at":"2025-01-20T13:11:33.120Z"},{"id":"item-18a1059c9a82","sku":"_dsFsFF_opCPA4_kirT817n0MbhMqSFnnV1xLHqw","name_en":"5BB142,Miu家新款保龄球包包,官网主推,今年绝对爆🔥款式,顶级进口小牛皮,Miu家独具风格Matelasse图案,包身精致立体有型,正面刻字徽标与皮革颜色相呼应,可拆卸可调节皮革长肩带,棉质缎面衬里,配拉链式口袋,众多明星网红同款,尺寸22X10.5X7.5Cm,配原版包装","name_cn":"5BB142,Miu家新款保龄球包包,官网主推,今年绝对爆🔥款式,顶级进口小牛皮,Miu家独具风格Matelasse图案,包身精致立体有型,正面刻字徽标与皮革颜色相呼应,可拆卸可调节皮革长肩带,棉质缎面衬里,配拉链式口袋,众多明星网红同款,尺寸22X10.5X7.5Cm,配原版包装","specs":{"source":"wsxcme","sourceId":"_dsFsFF_opCPA4_kirT817n0MbhMqSFnnV1xLHqw","sourceTagId":68075769,"sourceTagName":"Miu Miu /女包","dimensions":{"lengthCm":22,"heightCm":10.5,"widthCm":7.5},"rawTitle":"5BB142,Miu家新款保龄球包包,官网主推,今年绝对爆🔥款式,顶级进口小牛皮,Miu家独具风格Matelasse图案,包身精致立体有型,正面刻字徽标与皮革颜色相呼应,可拆卸可调节皮革长肩带,棉质缎面衬里,配拉链式口袋,众多明星网红同款,尺寸22X10.5X7.5Cm,配原版包装"},"price":null,"currency":"CNY","moq":1,"category":"miu-miu-women-bags","status":"active","alibaba_url":null,"images":["https://xcimg.szwego.com/20231104/i1699037089_1337_0.jpg","https://xcimg.szwego.com/20231104/i1699037089_3430_1.jpg","https://xcimg.szwego.com/20231104/i1699037089_5006_2.jpg","https://xcimg.szwego.com/20231104/i1699037089_9355_3.jpg","https://xcimg.szwego.com/20231104/i1699037089_2323_4.jpg","https://xcimg.szwego.com/20231104/i1699037089_332_5.jpg","https://xcimg.szwego.com/20231104/i1699037089_8961_6.jpg","https://xcimg.szwego.com/20231104/i1699037089_750_7.jpg"],"created_at":"2025-01-20T13:11:33.128Z"},{"id":"item-aeb3af368aaf","sku":"_dnunui5mxsXQOaiHt4XyvjZmDa9Hi8zc4cG7VjA","name_en":"5BB142,Miu家新款保龄球包包,火爆这个秋冬的麂绒皮元素,顶级头层麂绒小牛皮,包身精致立体有型,正面刻字徽标与皮革颜色相呼应,可拆卸可调节皮革长肩带,全新帆布衬里,配拉链式口袋,众多明星网红同款,尺寸22X10.5X7.5Cm,配原版包装","name_cn":"5BB142,Miu家新款保龄球包包,火爆这个秋冬的麂绒皮元素,顶级头层麂绒小牛皮,包身精致立体有型,正面刻字徽标与皮革颜色相呼应,可拆卸可调节皮革长肩带,全新帆布衬里,配拉链式口袋,众多明星网红同款,尺寸22X10.5X7.5Cm,配原版包装","specs":{"source":"wsxcme","sourceId":"_dnunui5mxsXQOaiHt4XyvjZmDa9Hi8zc4cG7VjA","sourceTagId":68075769,"sourceTagName":"Miu Miu /女包","dimensions":{"lengthCm":22,"heightCm":10.5,"widthCm":7.5},"rawTitle":"5BB142,Miu家新款保龄球包包,火爆这个秋冬的麂绒皮元素,顶级头层麂绒小牛皮,包身精致立体有型,正面刻字徽标与皮革颜色相呼应,可拆卸可调节皮革长肩带,全新帆布衬里,配拉链式口袋,众多明星网红同款,尺寸22X10.5X7.5Cm,配原版包装"},"price":null,"currency":"CNY","moq":1,"category":"miu-miu-women-bags","status":"active","alibaba_url":null,"images":["https://xcimg.szwego.com/20240814/i1723606283_4731_0.jpg","https://xcimg.szwego.com/20240814/i1723606283_3557_1.jpg","https://xcimg.szwego.com/20240814/i1723606283_822_2.jpg","https://xcimg.szwego.com/20240814/i1723606283_1517_3.jpg","https://xcimg.szwego.com/20240814/i1723606283_2352_4.jpg","https://xcimg.szwego.com/20240814/i1723606283_4812_5.jpg","https://xcimg.szwego.com/20240814/i1723606283_2766_6.jpg","https://xcimg.szwego.com/20240814/i1723606283_5583_7.jpg"],"created_at":"2025-02-10T13:51:02.346Z"},{"id":"item-3980631c06c1","sku":"_dhChCcbZHFHToXiYFuWyiVdVAv3IBzsYFvaBA-Q","name_en":"5BB142,Miu家新款保龄球包包,火爆这个秋冬的麂绒皮元素,顶级头层麂绒小牛皮,包身精致立体有型,正面刻字徽标与皮革颜色相呼应,可拆卸可调节皮革长肩带,全新帆布衬里,配拉链式口袋,众多明星网红同款,尺寸22X10.5X7.5Cm,配原版包装","name_cn":"5BB142,Miu家新款保龄球包包,火爆这个秋冬的麂绒皮元素,顶级头层麂绒小牛皮,包身精致立体有型,正面刻字徽标与皮革颜色相呼应,可拆卸可调节皮革长肩带,全新帆布衬里,配拉链式口袋,众多明星网红同款,尺寸22X10.5X7.5Cm,配原版包装","specs":{"source":"wsxcme","sourceId":"_dhChCcbZHFHToXiYFuWyiVdVAv3IBzsYFvaBA-Q","sourceTagId":68075769,"sourceTagName":"Miu Miu /女包","dimensions":{"lengthCm":22,"heightCm":10.5,"widthCm":7.5},"rawTitle":"5BB142,Miu家新款保龄球包包,火爆这个秋冬的麂绒皮元素,顶级头层麂绒小牛皮,包身精致立体有型,正面刻字徽标与皮革颜色相呼应,可拆卸可调节皮革长肩带,全新帆布衬里,配拉链式口袋,众多明星网红同款,尺寸22X10.5X7.5Cm,配原版包装"},"price":null,"currency":"CNY","moq":1,"category":"miu-miu-women-bags","status":"active","alibaba_url":null,"images":["https://xcimg.szwego.com/20240814/i1723606283_4731_0.jpg","https://xcimg.szwego.com/20240814/i1723606283_3557_1.jpg","https://xcimg.szwego.com/20240814/i1723606283_822_2.jpg","https://xcimg.szwego.com/20240814/i1723606283_1517_3.jpg","https://xcimg.szwego.com/20240814/i1723606283_2352_4.jpg","https://xcimg.szwego.com/20240814/i1723606283_4812_5.jpg","https://xcimg.szwego.com/20240814/i1723606283_2766_6.jpg","https://xcimg.szwego.com/20240814/i1723606283_5583_7.jpg","https://xcimg.szwego.com/20240814/i1723606330_5671_0.jpg"],"created_at":"2024-11-11T10:30:45.823Z"},{"id":"item-06d9f60b728e","sku":"_dmsmszX0BQdEtk-DTguva17Q7i4BsffctwhAJrA","name_en":"5BB142,Miu家新款保龄球包包,火爆这个秋冬的麂绒皮元素,顶级头层麂绒小牛皮,包身精致立体有型,正面刻字徽标与皮革颜色相呼应,可拆卸可调节皮革长肩带,全新帆布衬里,配拉链式口袋,众多明星网红同款,尺寸22X10.5X7.5Cm,配原版包装","name_cn":"5BB142,Miu家新款保龄球包包,火爆这个秋冬的麂绒皮元素,顶级头层麂绒小牛皮,包身精致立体有型,正面刻字徽标与皮革颜色相呼应,可拆卸可调节皮革长肩带,全新帆布衬里,配拉链式口袋,众多明星网红同款,尺寸22X10.5X7.5Cm,配原版包装","specs":{"source":"wsxcme","sourceId":"_dmsmszX0BQdEtk-DTguva17Q7i4BsffctwhAJrA","sourceTagId":68075769,"sourceTagName":"Miu Miu /女包","dimensions":{"lengthCm":22,"heightCm":10.5,"widthCm":7.5},"rawTitle":"5BB142,Miu家新款保龄球包包,火爆这个秋冬的麂绒皮元素,顶级头层麂绒小牛皮,包身精致立体有型,正面刻字徽标与皮革颜色相呼应,可拆卸可调节皮革长肩带,全新帆布衬里,配拉链式口袋,众多明星网红同款,尺寸22X10.5X7.5Cm,配原版包装"},"price":null,"currency":"CNY","moq":1,"category":"miu-miu-women-bags","status":"active","alibaba_url":null,"images":["https://xcimg.szwego.com/20240812/i1723437071_8937_0.jpg","https://xcimg.szwego.com/20240812/i1723437025_8549_1.jpg","https://xcimg.szwego.com/20240812/i1723437025_2646_2.jpg","https://xcimg.szwego.com/20240812/i1723437025_8038_3.jpg","https://xcimg.szwego.com/20240812/i1723437025_5104_4.jpg","https://xcimg.szwego.com/20240812/i1723437025_5774_5.jpg","https://xcimg.szwego.com/20240812/i1723437025_8387_6.jpg","https://xcimg.szwego.com/20240812/i1723437025_3287_7.jpg"],"created_at":"2025-02-10T13:50:54.340Z"},{"id":"item-fc09fc3e95bb","sku":"_dDgDgATSSpQmbn91aU14F27HOM0rjc1GHO2PO7g","name_en":"5BB142灰色","name_cn":"5BB142灰色","specs":{"source":"wsxcme","sourceId":"_dDgDgATSSpQmbn91aU14F27HOM0rjc1GHO2PO7g","sourceTagId":68075769,"sourceTagName":"Miu Miu /女包","rawTitle":"5BB142灰色"},"price":null,"currency":"CNY","moq":1,"category":"miu-miu-women-bags","status":"active","alibaba_url":null,"images":["https://xcimg.szwego.com/20241113/i1731440206_8206_0.jpg","https://xcimg.szwego.com/20241113/i1731440206_191_1.jpg","https://xcimg.szwego.com/20241113/i1731440206_3445_2.jpg","https://xcimg.szwego.com/20241113/i1731440206_3403_3.jpg","https://xcimg.szwego.com/20241113/i1731440206_1073_4.jpg","https://xcimg.szwego.com/20241113/i1731440206_3755_5.jpg","https://xcimg.szwego.com/20241113/i1731440206_3039_6.jpg","https://xcimg.szwego.com/20241113/i1731440206_1729_7.jpg","https://xcimg.szwego.com/20241113/i1731440206_9327_8.jpg"],"created_at":"2025-01-20T13:11:33.103Z"},{"id":"item-33bf0a71ed35","sku":"_dvSvSXdYtHCfPBrWHAuaNA2arzgRSo4QJebKVjg","name_en":"5BB142奶茶粉杏","name_cn":"5BB142奶茶粉杏","specs":{"source":"wsxcme","sourceId":"_dvSvSXdYtHCfPBrWHAuaNA2arzgRSo4QJebKVjg","sourceTagId":68075769,"sourceTagName":"Miu Miu /女包","rawTitle":"5BB142奶茶粉杏"},"price":null,"currency":"CNY","moq":1,"category":"miu-miu-women-bags","status":"active","alibaba_url":null,"images":["https://xcimg.szwego.com/20240825/i1724524209_4205_0.jpg","https://xcimg.szwego.com/20240825/i1724574194_45_0.jpg","https://xcimg.szwego.com/20240825/i1724574194_4654_1.jpg","https://xcimg.szwego.com/20240825/i1724574194_6353_2.jpg","https://xcimg.szwego.com/20240825/i1724524209_4842_1.jpg","https://xcimg.szwego.com/20240825/i1724524209_395_2.jpg","https://xcimg.szwego.com/20240825/i1724524209_8499_3.jpg","https://xcimg.szwego.com/20240825/i1724574194_6310_3.jpg"],"created_at":"2024-11-11T10:30:45.876Z"},{"id":"item-38e694637bf8","sku":"_d33339UU6t5ek-bkDpS2ALhXU3Iuv7KpFb35Ycg","name_en":"5BB142楠木色","name_cn":"5BB142楠木色","specs":{"source":"wsxcme","sourceId":"_d33339UU6t5ek-bkDpS2ALhXU3Iuv7KpFb35Ycg","sourceTagId":68075769,"sourceTagName":"Miu Miu /女包","rawTitle":"5BB142楠木色"},"price":null,"currency":"CNY","moq":1,"category":"miu-miu-women-bags","status":"active","alibaba_url":null,"images":["https://xcimg.szwego.com/20240824/i1724487036_7649_0.jpg","https://xcimg.szwego.com/20240824/i1724487036_2690_1.jpg","https://xcimg.szwego.com/20240824/i1724487036_6884_2.jpg","https://xcimg.szwego.com/20240824/i1724487036_1911_3.jpg","https://xcimg.szwego.com/20240824/i1724487036_2954_4.jpg","https://xcimg.szwego.com/20240824/i1724487036_157_5.jpg","https://xcimg.szwego.com/20240824/i1724487036_4523_6.jpg"],"created_at":"2024-11-11T10:30:45.875Z"},{"id":"item-63d4a0180075","sku":"_df4f4u8SWSzDGqITZRMRd-fSNs9FD9GHAzvQvqQ","name_en":"5BB142巧克力色","name_cn":"5BB142巧克力色","specs":{"source":"wsxcme","sourceId":"_df4f4u8SWSzDGqITZRMRd-fSNs9FD9GHAzvQvqQ","sourceTagId":68075769,"sourceTagName":"Miu Miu /女包","rawTitle":"5BB142巧克力色"},"price":null,"currency":"CNY","moq":1,"category":"miu-miu-women-bags","status":"active","alibaba_url":null,"images":["https://xcimg.szwego.com/20240802/i1722537866_4031_0.jpg","https://xcimg.szwego.com/20240802/i1722537866_5052_1.jpg","https://xcimg.szwego.com/20240802/i1722537866_8039_2.jpg","https://xcimg.szwego.com/20240802/i1722537866_7232_3.jpg"],"created_at":"2024-11-11T10:30:45.870Z"},{"id":"item-2af49b67a986","sku":"_d6a6agboyDOOpadgoqzBmQtSnxVhn1J1-ckMg7w","name_en":"5BB142新版本","name_cn":"5BB142新版本","specs":{"source":"wsxcme","sourceId":"_d6a6agboyDOOpadgoqzBmQtSnxVhn1J1-ckMg7w","sourceTagId":68075769,"sourceTagName":"Miu Miu /女包","rawTitle":"5BB142新版本"},"price":null,"currency":"CNY","moq":1,"category":"miu-miu-women-bags","status":"active","alibaba_url":null,"images":["https://xcimg.szwego.com/20240725/i1721897472_858_0.jpg","https://xcimg.szwego.com/20240725/i1721897472_6329_1.jpg","https://xcimg.szwego.com/20240725/i1721897472_2849_2.jpg","https://xcimg.szwego.com/20240725/i1721897472_1482_3.jpg"],"created_at":"2024-11-11T10:30:45.879Z"},{"id":"item-7bf751451dc7","sku":"_dkAkAV2s0yhht8d0dD421RJwI1cmVrDlv2tnbrw","name_en":"5BB142新版本干邑色","name_cn":"5BB142新版本干邑色","specs":{"source":"wsxcme","sourceId":"_dkAkAV2s0yhht8d0dD421RJwI1cmVrDlv2tnbrw","sourceTagId":68075769,"sourceTagName":"Miu Miu /女包","rawTitle":"5BB142新版本干邑色"},"price":null,"currency":"CNY","moq":1,"category":"miu-miu-women-bags","status":"active","alibaba_url":null,"images":["https://xcimg.szwego.com/20240824/i1724491671_3099_0.jpg","https://xcimg.szwego.com/20240824/i1724491671_9138_1.jpg","https://xcimg.szwego.com/20240824/i1724491671_5260_2.jpg","https://xcimg.szwego.com/20240824/i1724491671_2330_3.jpg","https://xcimg.szwego.com/20240824/i1724491671_6153_4.jpg","https://xcimg.szwego.com/20240824/i1724491671_3629_5.jpg","https://xcimg.szwego.com/20240824/i1724491671_2053_6.jpg"],"created_at":"2024-11-11T10:30:45.872Z"},{"id":"item-b9e10a48df21","sku":"_dNvNv866ytUySVGEHlbIxt6zU5FhCkUpQPsJkuw","name_en":"5BB142新版本焦糖色","name_cn":"5BB142新版本焦糖色","specs":{"source":"wsxcme","sourceId":"_dNvNv866ytUySVGEHlbIxt6zU5FhCkUpQPsJkuw","sourceTagId":68075769,"sourceTagName":"Miu Miu /女包","rawTitle":"5BB142新版本焦糖色"},"price":null,"currency":"CNY","moq":1,"category":"miu-miu-women-bags","status":"active","alibaba_url":null,"images":["https://xcimg.szwego.com/20240824/i1724491352_9232_0.jpg","https://xcimg.szwego.com/20240824/i1724491352_4117_1.jpg","https://xcimg.szwego.com/20240824/i1724491352_2844_2.jpg","https://xcimg.szwego.com/20240824/i1724491352_8470_3.jpg","https://xcimg.szwego.com/20240824/i1724491352_5288_4.jpg","https://xcimg.szwego.com/20240824/i1724491352_7585_5.jpg","https://xcimg.szwego.com/20240824/i1724491352_8628_6.jpg","https://xcimg.szwego.com/20240824/i1724491352_3370_7.jpg","https://xcimg.szwego.com/20240824/i1724491750_4141_0.jpg"],"created_at":"2024-11-11T10:30:45.873Z"},{"id":"item-b274c8d5e596","sku":"_d9f9fLi44OpJn89qFW2dEaHTQDDEIpPoG9riTaQ","name_en":"5BB148","name_cn":"5BB148","specs":{"source":"wsxcme","sourceId":"_d9f9fLi44OpJn89qFW2dEaHTQDDEIpPoG9riTaQ","sourceTagId":68075769,"sourceTagName":"Miu Miu /女包","rawTitle":"5BB148"},"price":null,"currency":"CNY","moq":1,"category":"miu-miu-women-bags","status":"active","alibaba_url":null,"images":["https://xcimg.szwego.com/20240814/i1723618149_4679_0.jpg","https://xcimg.szwego.com/20240814/i1723618205_7242_0.jpg","https://xcimg.szwego.com/20240814/i1723618205_4808_1.jpg","https://xcimg.szwego.com/20240814/i1723618205_5469_2.jpg"],"created_at":"2024-11-11T10:30:45.822Z"},{"id":"item-244219d0935f","sku":"_dwEwEFzh91fGN1ovVMRqpNdBsQnWTcURiayYYGA","name_en":"5BB148,Miu家新款保龄球包包,火爆这个秋冬的麂绒元素,顶级头层麂绒小牛皮,包身精致立体有型,正面刻字徽标与皮革颜色相呼应,可拆卸可调节皮革长肩带,全新帆布衬里,配拉链式口袋,众多明星网红同款,尺寸27X12X9Cm,配原版包装","name_cn":"5BB148,Miu家新款保龄球包包,火爆这个秋冬的麂绒元素,顶级头层麂绒小牛皮,包身精致立体有型,正面刻字徽标与皮革颜色相呼应,可拆卸可调节皮革长肩带,全新帆布衬里,配拉链式口袋,众多明星网红同款,尺寸27X12X9Cm,配原版包装","specs":{"source":"wsxcme","sourceId":"_dwEwEFzh91fGN1ovVMRqpNdBsQnWTcURiayYYGA","sourceTagId":68075769,"sourceTagName":"Miu Miu /女包","dimensions":{"lengthCm":27,"heightCm":12,"widthCm":9},"rawTitle":"5BB148,Miu家新款保龄球包包,火爆这个秋冬的麂绒元素,顶级头层麂绒小牛皮,包身精致立体有型,正面刻字徽标与皮革颜色相呼应,可拆卸可调节皮革长肩带,全新帆布衬里,配拉链式口袋,众多明星网红同款,尺寸27X12X9Cm,配原版包装"},"price":null,"currency":"CNY","moq":1,"category":"miu-miu-women-bags","status":"active","alibaba_url":null,"images":["https://xcimg.szwego.com/20240814/i1723606561_5665_0.jpg","https://xcimg.szwego.com/20240814/i1723606561_2736_1.jpg","https://xcimg.szwego.com/20240814/i1723606561_3862_2.jpg","https://xcimg.szwego.com/20240814/i1723606561_5970_3.jpg","https://xcimg.szwego.com/20240814/i1723606561_3046_4.jpg","https://xcimg.szwego.com/20240814/i1723606561_7513_5.jpg","https://xcimg.szwego.com/20240814/i1723606561_6191_6.jpg","https://xcimg.szwego.com/20240814/i1723606561_3792_7.jpg","https://xcimg.szwego.com/20240814/i1723606561_3319_8.jpg"],"created_at":"2024-11-11T10:30:45.821Z"},{"id":"item-383e1bb76a6d","sku":"_dHhHh_unnDMVJQX5zd7wUnl6HaLLpxTuFtu2miw","name_en":"5BB168黑","name_cn":"5BB168黑","specs":{"source":"wsxcme","sourceId":"_dHhHh_unnDMVJQX5zd7wUnl6HaLLpxTuFtu2miw","sourceTagId":68075769,"sourceTagName":"Miu Miu /女包","rawTitle":"5BB168黑"},"price":null,"currency":"CNY","moq":1,"category":"miu-miu-women-bags","status":"active","alibaba_url":null,"images":["https://xcimg.szwego.com/20240826/i1724665150_9633_0.jpg","https://xcimg.szwego.com/20240826/i1724665150_7950_1.jpg","https://xcimg.szwego.com/20240826/i1724665150_8421_2.jpg","https://xcimg.szwego.com/20240826/i1724665150_8507_3.jpg","https://xcimg.szwego.com/20240826/i1724665150_3487_4.jpg","https://xcimg.szwego.com/20240826/i1724665150_9116_5.jpg","https://xcimg.szwego.com/20240826/i1724665150_6268_6.jpg","https://xcimg.szwego.com/20240826/i1724665150_7399_7.jpg","https://xcimg.szwego.com/20240826/i1724665150_8918_8.jpg"],"created_at":"2024-11-11T10:30:45.859Z"},{"id":"item-2db951e4c531","sku":"_dlXlXipU05vci4o3WS9siKF-SI3lsQgONVdlizQ","name_en":"5BB168石楠木,少量现货","name_cn":"5BB168石楠木,少量现货","specs":{"source":"wsxcme","sourceId":"_dlXlXipU05vci4o3WS9siKF-SI3lsQgONVdlizQ","sourceTagId":68075769,"sourceTagName":"Miu Miu /女包","rawTitle":"5BB168石楠木,少量现货"},"price":null,"currency":"CNY","moq":1,"category":"miu-miu-women-bags","status":"active","alibaba_url":null,"images":["https://xcimg.szwego.com/20240826/i1724665012_470_5.jpg","https://xcimg.szwego.com/20240826/i1724665012_7206_4.jpg","https://xcimg.szwego.com/20240826/i1724665012_5899_0.jpg","https://xcimg.szwego.com/20240826/i1724665012_7640_1.jpg","https://xcimg.szwego.com/20240826/i1724665012_2003_2.jpg","https://xcimg.szwego.com/20240826/i1724665012_6557_3.jpg","https://xcimg.szwego.com/20240826/i1724665012_6719_6.jpg","https://xcimg.szwego.com/20240826/i1724665039_222_0.jpg","https://xcimg.szwego.com/20240826/i1724665071_7556_0.jpg"],"created_at":"2024-11-11T10:30:45.885Z"},{"id":"item-1b1b1af73ad7","sku":"_dA9A9QL5fp0RaXJk8HdAzWIsxrbkuqI0kAIFl-g","name_en":"5BB168棕色","name_cn":"5BB168棕色","specs":{"source":"wsxcme","sourceId":"_dA9A9QL5fp0RaXJk8HdAzWIsxrbkuqI0kAIFl-g","sourceTagId":68075769,"sourceTagName":"Miu Miu /女包","rawTitle":"5BB168棕色"},"price":null,"currency":"CNY","moq":1,"category":"miu-miu-women-bags","status":"active","alibaba_url":null,"images":["https://xcimg.szwego.com/20240826/i1724666058_7797_1.jpg","https://xcimg.szwego.com/20240826/i1724666058_489_0.jpg","https://xcimg.szwego.com/20240826/i1724666058_8315_2.jpg","https://xcimg.szwego.com/20240826/i1724666058_5384_3.jpg","https://xcimg.szwego.com/20240826/i1724666058_6128_4.jpg"],"created_at":"2024-11-11T10:30:45.860Z"},{"id":"item-eef4b7dc1da8","sku":"_dXVXV8RqP2Fje6eBoSxH3xkxRdE31ygRx2FBOrg","name_en":"5BB169,Miu家新品爆款保龄球包,釆用顶级复古植柔羊皮,复古磨砂感做旧金属配件,这款Aventure Nappa 皮革手提包灵感源自 Miu家典藏单品,其结构经过调整,变得更加轻便,焕发全新个性,打造具有隽永魅力的经典包款,多元素的设计赋予这款手提包独特美感和经典气息,可拆卸可调节皮革肩带,帆布内里配拉链口袋和贴袋,尺寸:28 X16.5 X 10 c","name_cn":"5BB169,Miu家新品爆款保龄球包,釆用顶级复古植柔羊皮,复古磨砂感做旧金属配件,这款Aventure Nappa 皮革手提包灵感源自 Miu家典藏单品,其结构经过调整,变得更加轻便,焕发全新个性,打造具有隽永魅力的经典包款,多元素的设计赋予这款手提包独特美感和经典气息,可拆卸可调节皮革肩带,帆布内里配拉链口袋和贴袋,尺寸:28 X16.5 X 10 cm","specs":{"source":"wsxcme","sourceId":"_dXVXV8RqP2Fje6eBoSxH3xkxRdE31ygRx2FBOrg","sourceTagId":68075769,"sourceTagName":"Miu Miu /女包","dimensions":{"lengthCm":28,"heightCm":16.5,"widthCm":10},"rawTitle":"5BB169,Miu家新品爆款保龄球包,釆用顶级复古植柔羊皮,复古磨砂感做旧金属配件,这款Aventure Nappa 皮革手提包灵感源自 Miu家典藏单品,其结构经过调整,变得更加轻便,焕发全新个性,打造具有隽永魅力的经典包款,多元素的设计赋予这款手提包独特美感和经典气息,可拆卸可调节皮革肩带,帆布内里配拉链口袋和贴袋,尺寸:28 X16.5 X 10 cm"},"price":null,"currency":"CNY","moq":1,"category":"miu-miu-women-bags","status":"active","alibaba_url":null,"images":["https://xcimg.szwego.com/img/205b0922/20240819/i1724059518_3345_6.jpg","https://xcimg.szwego.com/img/205b0922/20240819/i1724059518_1425_2.jpg","https://xcimg.szwego.com/img/205b0922/20240819/i1724059518_4116_8.jpg","https://xcimg.szwego.com/img/205b0922/20240819/i1724059518_6057_0.jpg","https://xcimg.szwego.com/img/205b0922/20240819/i1724059518_4196_3.jpg","https://xcimg.szwego.com/img/205b0922/20240819/i1724059518_7507_5.jpg","https://xcimg.szwego.com/img/205b0922/20240819/i1724059518_8692_9.jpg","https://xcimg.szwego.com/img/205b0922/20240819/i1724059518_3551_7.jpg","https://xcimg.szwego.com/img/205b0922/20240819/i1724059518_4732_4.jpg"],"created_at":"2025-01-20T13:11:33.096Z"},{"id":"item-7b2247bd82d0","sku":"_dpIpI45vGJW7aS781pBiBgaETdwIuQ9TImE6G5w","name_en":"5BB169,Miu家新品爆款保龄球包,釆用顶级复古植柔羊皮,复古磨砂感做旧金属配件,这款Aventure Nappa 皮革手提包灵感源自 Miu家典藏单品,其结构经过调整,变得更加轻便,焕发全新个性,打造具有隽永魅力的经典包款,多元素的设计赋予这款手提包独特美感和经典气息,可拆卸可调节皮革肩带,帆布内里配拉链口袋和贴袋,尺寸:28 X16.5 X 10 c","name_cn":"5BB169,Miu家新品爆款保龄球包,釆用顶级复古植柔羊皮,复古磨砂感做旧金属配件,这款Aventure Nappa 皮革手提包灵感源自 Miu家典藏单品,其结构经过调整,变得更加轻便,焕发全新个性,打造具有隽永魅力的经典包款,多元素的设计赋予这款手提包独特美感和经典气息,可拆卸可调节皮革肩带,帆布内里配拉链口袋和贴袋,尺寸:28 X16.5 X 10 cm","specs":{"source":"wsxcme","sourceId":"_dpIpI45vGJW7aS781pBiBgaETdwIuQ9TImE6G5w","sourceTagId":68075769,"sourceTagName":"Miu Miu /女包","dimensions":{"lengthCm":28,"heightCm":16.5,"widthCm":10},"rawTitle":"5BB169,Miu家新品爆款保龄球包,釆用顶级复古植柔羊皮,复古磨砂感做旧金属配件,这款Aventure Nappa 皮革手提包灵感源自 Miu家典藏单品,其结构经过调整,变得更加轻便,焕发全新个性,打造具有隽永魅力的经典包款,多元素的设计赋予这款手提包独特美感和经典气息,可拆卸可调节皮革肩带,帆布内里配拉链口袋和贴袋,尺寸:28 X16.5 X 10 cm"},"price":null,"currency":"CNY","moq":1,"category":"miu-miu-women-bags","status":"active","alibaba_url":null,"images":["https://xcimg.szwego.com/20240827/i1724728665_228_0.jpg","https://xcimg.szwego.com/20240827/i1724728665_9578_1.jpg","https://xcimg.szwego.com/20240827/i1724728665_7348_2.jpg","https://xcimg.szwego.com/20240827/i1724728665_1296_3.jpg","https://xcimg.szwego.com/20240827/i1724728665_7495_4.jpg","https://xcimg.szwego.com/20240827/i1724728665_3085_5.jpg","https://xcimg.szwego.com/20240827/i1724728665_2364_6.jpg","https://xcimg.szwego.com/20240827/i1724728665_9565_7.jpg","https://xcimg.szwego.com/20240827/i1724728665_1068_8.jpg"],"created_at":"2025-01-20T13:11:33.100Z"},{"id":"item-3606fdab087a","sku":"_d_6_63J3eC2o8pjqK3zio4EvyYNXljbwpY8ChuQ","name_en":"5BB169,Miu家新品爆款保龄球包,釆用顶级复古植柔羊皮,复古磨砂感做旧金属配件,这款Aventure Nappa 皮革手提包灵感源自 Miu家典藏单品,其结构经过调整,变得更加轻便,焕发全新个性,打造具有隽永魅力的经典包款,多元素的设计赋予这款手提包独特美感和经典气息,可拆卸可调节皮革肩带,帆布内里配拉链口袋和贴袋,尺寸:28 X16.5 X 10 c","name_cn":"5BB169,Miu家新品爆款保龄球包,釆用顶级复古植柔羊皮,复古磨砂感做旧金属配件,这款Aventure Nappa 皮革手提包灵感源自 Miu家典藏单品,其结构经过调整,变得更加轻便,焕发全新个性,打造具有隽永魅力的经典包款,多元素的设计赋予这款手提包独特美感和经典气息,可拆卸可调节皮革肩带,帆布内里配拉链口袋和贴袋,尺寸:28 X16.5 X 10 cm","specs":{"source":"wsxcme","sourceId":"_d_6_63J3eC2o8pjqK3zio4EvyYNXljbwpY8ChuQ","sourceTagId":68075769,"sourceTagName":"Miu Miu /女包","dimensions":{"lengthCm":28,"heightCm":16.5,"widthCm":10},"rawTitle":"5BB169,Miu家新品爆款保龄球包,釆用顶级复古植柔羊皮,复古磨砂感做旧金属配件,这款Aventure Nappa 皮革手提包灵感源自 Miu家典藏单品,其结构经过调整,变得更加轻便,焕发全新个性,打造具有隽永魅力的经典包款,多元素的设计赋予这款手提包独特美感和经典气息,可拆卸可调节皮革肩带,帆布内里配拉链口袋和贴袋,尺寸:28 X16.5 X 10 cm"},"price":null,"currency":"CNY","moq":1,"category":"miu-miu-women-bags","status":"active","alibaba_url":null,"images":["https://xcimg.szwego.com/img/9401619d/20240912/i1726117816_7311_2.jpg","https://xcimg.szwego.com/img/9401619d/20240912/i1726117816_4001_1.jpg","https://xcimg.szwego.com/img/9401619d/20240912/i1726117816_835_3.jpg","https://xcimg.szwego.com/img/9401619d/20240912/i1726117816_2712_7.jpg","https://xcimg.szwego.com/img/9401619d/20240912/i1726117816_6622_5.jpg","https://xcimg.szwego.com/img/9401619d/20240912/i1726117816_9284_6.jpg","https://xcimg.szwego.com/img/9401619d/20240912/i1726117816_3395_8.jpg","https://xcimg.szwego.com/img/9401619d/20240912/i1726117816_4861_0.jpg","https://xcimg.szwego.com/img/9401619d/20240912/i1726117816_1038_4.jpg"],"created_at":"2025-02-10T13:52:13.569Z"},{"id":"item-2a3ddcbbf038","sku":"_dnFnF6OpQ_U6zB7hopDgKm_grJQvyjkz2xxTesQ","name_en":"5BB169,Miu家新品爆款保龄球包,釆用顶级复古植柔羊皮,复古磨砂感做旧金属配件,这款Aventure Nappa 皮革手提包灵感源自 Miu家典藏单品,其结构经过调整,变得更加轻便,焕发全新个性,打造具有隽永魅力的经典包款,多元素的设计赋予这款手提包独特美感和经典气息,可拆卸可调节皮革肩带,帆布内里配拉链口袋和贴袋,尺寸:28 X16.5 X 10 c","name_cn":"5BB169,Miu家新品爆款保龄球包,釆用顶级复古植柔羊皮,复古磨砂感做旧金属配件,这款Aventure Nappa 皮革手提包灵感源自 Miu家典藏单品,其结构经过调整,变得更加轻便,焕发全新个性,打造具有隽永魅力的经典包款,多元素的设计赋予这款手提包独特美感和经典气息,可拆卸可调节皮革肩带,帆布内里配拉链口袋和贴袋,尺寸:28 X16.5 X 10 cm","specs":{"source":"wsxcme","sourceId":"_dnFnF6OpQ_U6zB7hopDgKm_grJQvyjkz2xxTesQ","sourceTagId":68075769,"sourceTagName":"Miu Miu /女包","dimensions":{"lengthCm":28,"heightCm":16.5,"widthCm":10},"rawTitle":"5BB169,Miu家新品爆款保龄球包,釆用顶级复古植柔羊皮,复古磨砂感做旧金属配件,这款Aventure Nappa 皮革手提包灵感源自 Miu家典藏单品,其结构经过调整,变得更加轻便,焕发全新个性,打造具有隽永魅力的经典包款,多元素的设计赋予这款手提包独特美感和经典气息,可拆卸可调节皮革肩带,帆布内里配拉链口袋和贴袋,尺寸:28 X16.5 X 10 cm"},"price":null,"currency":"CNY","moq":1,"category":"miu-miu-women-bags","status":"active","alibaba_url":null,"images":["https://xcimg.szwego.com/img/205b0922/20240818/i1723964589_9837_0.jpg","https://xcimg.szwego.com/img/205b0922/20240818/i1723964589_6148_8.jpg","https://xcimg.szwego.com/img/205b0922/20240818/i1723964589_1340_4.jpg","https://xcimg.szwego.com/img/205b0922/20240818/i1723964589_6897_9.jpg","https://xcimg.szwego.com/img/205b0922/20240818/i1723964589_985_6.jpg","https://xcimg.szwego.com/img/205b0922/20240818/i1723964589_7274_2.jpg","https://xcimg.szwego.com/img/205b0922/20240818/i1723964589_4481_5.jpg","https://xcimg.szwego.com/img/205b0922/20240818/i1723964589_3984_7.jpg","https://xcimg.szwego.com/img/205b0922/20240818/i1723964589_3769_1.jpg"],"created_at":"2025-01-20T13:11:33.095Z"},{"id":"item-214b8599def5","sku":"_ddhdhtm2cL3Holps9mdwHyoKrgIYsSWGugD8Fbg","name_en":"5BB169,Miu家新品爆款保龄球包,釆用顶级复古植柔羊皮,复古磨砂感做旧金属配件,这款Aventure Nappa 皮革手提包灵感源自 Miu家典藏单品,其结构经过调整,变得更加轻便,焕发全新个性,打造具有隽永魅力的经典包款,多元素的设计赋予这款手提包独特美感和经典气息,可拆卸可调节皮革肩带,帆布内里配拉链口袋和贴袋,尺寸:28 X16.5 X 10 c","name_cn":"5BB169,Miu家新品爆款保龄球包,釆用顶级复古植柔羊皮,复古磨砂感做旧金属配件,这款Aventure Nappa 皮革手提包灵感源自 Miu家典藏单品,其结构经过调整,变得更加轻便,焕发全新个性,打造具有隽永魅力的经典包款,多元素的设计赋予这款手提包独特美感和经典气息,可拆卸可调节皮革肩带,帆布内里配拉链口袋和贴袋,尺寸:28 X16.5 X 10 cm","specs":{"source":"wsxcme","sourceId":"_ddhdhtm2cL3Holps9mdwHyoKrgIYsSWGugD8Fbg","sourceTagId":68075769,"sourceTagName":"Miu Miu /女包","dimensions":{"lengthCm":28,"heightCm":16.5,"widthCm":10},"rawTitle":"5BB169,Miu家新品爆款保龄球包,釆用顶级复古植柔羊皮,复古磨砂感做旧金属配件,这款Aventure Nappa 皮革手提包灵感源自 Miu家典藏单品,其结构经过调整,变得更加轻便,焕发全新个性,打造具有隽永魅力的经典包款,多元素的设计赋予这款手提包独特美感和经典气息,可拆卸可调节皮革肩带,帆布内里配拉链口袋和贴袋,尺寸:28 X16.5 X 10 cm"},"price":null,"currency":"CNY","moq":1,"category":"miu-miu-women-bags","status":"active","alibaba_url":null,"images":["https://xcimg.szwego.com/img/205b0922/20240818/i1723915280_9832_1.jpg","https://xcimg.szwego.com/img/205b0922/20240818/i1723915280_2990_4.jpg","https://xcimg.szwego.com/img/205b0922/20240818/i1723915280_9729_6.jpg","https://xcimg.szwego.com/img/205b0922/20240818/i1723915280_4676_0.jpg","https://xcimg.szwego.com/img/205b0922/20240818/i1723915280_9640_2.jpg","https://xcimg.szwego.com/img/205b0922/20240818/i1723915280_1203_3.jpg","https://xcimg.szwego.com/img/205b0922/20240818/i1723915280_3272_8.jpg","https://xcimg.szwego.com/img/205b0922/20240818/i1723915280_6759_5.jpg","https://xcimg.szwego.com/img/205b0922/20240818/i1723915280_8912_7.jpg"],"created_at":"2025-01-20T13:11:33.094Z"}],"page":7,"pageSize":24,"total":430,"totalPages":18}
