{"items":[{"id":"item-b239e44bee2f","sku":"_druruhD6D1ze1CXhTy6QLjosYIAAZIn8uyuSsOA","name_en":"麦绿手搓纹·风琴包26cm","name_cn":"麦绿手搓纹·风琴包26cm\n最优雅的风琴包系列sac de jour,永远的经典不过时,精湛的手搓纹牛皮,纹路清晰而且光泽度十足,十分贵气!26cm内配有中隔,可取出做手包,肩带可以调节,长短自己选择!logo非常小,完美地诠释了低调奢华的格调~\n型号:421863/477477\n尺寸:26x20.5x12.5cm\n(26cm内配有中隔)","specs":{"source":"wsxcme","sourceId":"_druruhD6D1ze1CXhTy6QLjosYIAAZIn8uyuSsOA","sourceTagId":47002761,"sourceTagName":"圣罗兰/女包","modelNumber":"421863/477477","dimensions":{"lengthCm":26,"heightCm":20.5,"widthCm":12.5},"rawTitle":"麦绿手搓纹·风琴包26cm\n最优雅的风琴包系列sac de jour,永远的经典不过时,精湛的手搓纹牛皮,纹路清晰而且光泽度十足,十分贵气!26cm内配有中隔,可取出做手包,肩带可以调节,长短自己选择!logo非常小,完美地诠释了低调奢华的格调~\n型号:421863/477477\n尺寸:26x20.5x12.5cm\n(26cm内配有中隔)"},"price":null,"currency":"CNY","moq":1,"category":"ysl-women-bags","status":"active","alibaba_url":null,"images":["https://xcimg.szwego.com/imgHD/f8c0bdc9/20260129/cmp_i1769673572689_8294_0_0.jpg","https://xcimg.szwego.com/imgHD/f8c0bdc9/20260129/cmp_i1769673572782_5697_0_1.jpg","https://xcimg.szwego.com/imgHD/f8c0bdc9/20260129/cmp_i1769673536129_6919_0_2.jpg","https://xcimg.szwego.com/imgHD/f8c0bdc9/20260129/cmp_i1769673536172_7424_0_3.jpg","https://xcimg.szwego.com/imgHD/f8c0bdc9/20260129/cmp_i1769673536040_1213_0_4.jpg","https://xcimg.szwego.com/imgHD/f8c0bdc9/20260129/cmp_i1769673536045_5435_0_5.jpg","https://xcimg.szwego.com/imgHD/f8c0bdc9/20260129/cmp_i1769673573170_1913_0_6.jpg","https://xcimg.szwego.com/imgHD/f8c0bdc9/20260129/cmp_i1769673570693_7106_0_7.jpg","https://xcimg.szwego.com/imgHD/f8c0bdc9/20260129/cmp_i1769673536102_3920_0_8.jpg"],"created_at":"2026-06-29T10:48:58.729Z"},{"id":"item-bf63cf96efae","sku":"_dejejvRYbMSc5l6HMsEQglX6uUb3h3S81cW1fMw","name_en":"Saint Laurent Women Bags","name_cn":"折叠风琴包型立体有型\n可调节肩带 单肩法式慵懒感立刻有!","specs":{"source":"wsxcme","sourceId":"_dejejvRYbMSc5l6HMsEQglX6uUb3h3S81cW1fMw","sourceTagId":47002761,"sourceTagName":"圣罗兰/女包","rawTitle":"折叠风琴包型立体有型\n可调节肩带 单肩法式慵懒感立刻有!"},"price":null,"currency":"CNY","moq":1,"category":"ysl-women-bags","status":"active","alibaba_url":null,"images":["https://xcimg.szwego.com/imgHD/f8c0bdc9/20260129/cmp_i1769673371319_9526_0_0.jpg","https://xcimg.szwego.com/imgHD/f8c0bdc9/20260129/cmp_i1769673371370_1031_0_1.jpg","https://xcimg.szwego.com/imgHD/f8c0bdc9/20260129/cmp_i1769673371404_2792_0_2.jpg","https://xcimg.szwego.com/imgHD/f8c0bdc9/20260129/cmp_i1769673371336_200_0_3.jpg"],"created_at":"2026-06-29T10:48:58.719Z"},{"id":"item-9c276c2e94fc","sku":"_dfTfT4ONUeIU40oI4YMRoyffFCv0NbhA6XU3VJg","name_en":"细节po","name_cn":"细节po","specs":{"source":"wsxcme","sourceId":"_dfTfT4ONUeIU40oI4YMRoyffFCv0NbhA6XU3VJg","sourceTagId":47002761,"sourceTagName":"圣罗兰/女包","rawTitle":"细节po"},"price":null,"currency":"CNY","moq":1,"category":"ysl-women-bags","status":"active","alibaba_url":null,"images":["https://xcimg.szwego.com/imgHD/f8c0bdc9/20260129/cmp_i1769673351925_259_0_0.jpg","https://xcimg.szwego.com/imgHD/f8c0bdc9/20260129/cmp_i1769673362059_578_0_1.jpg","https://xcimg.szwego.com/imgHD/f8c0bdc9/20260129/cmp_i1769673362309_3183_0_2.jpg","https://xcimg.szwego.com/imgHD/f8c0bdc9/20260129/cmp_i1769673362111_8870_0_3.jpg","https://xcimg.szwego.com/imgHD/f8c0bdc9/20260129/cmp_i1769673362191_6853_0_4.jpg","https://xcimg.szwego.com/imgHD/f8c0bdc9/20260129/cmp_i1769673353941_1883_0_5.jpg","https://xcimg.szwego.com/imgHD/f8c0bdc9/20260129/cmp_i1769673354123_447_0_6.jpg","https://xcimg.szwego.com/imgHD/f8c0bdc9/20260129/cmp_i1769673354073_2998_0_7.jpg","https://xcimg.szwego.com/imgHD/f8c0bdc9/20260129/cmp_i1769673351966_2336_0_8.jpg"],"created_at":"2026-06-29T10:48:58.709Z"},{"id":"item-aac1f558bb73","sku":"_duGuG9-QKyQj0NCTCl9Mv7R5zan63L4BIFTc3Wg","name_en":"Saint Laurent Women Bags","name_cn":"麦绿手搓纹·\n风琴包32cm\n最优雅的风琴包系列sac de jour,永远的经典不过时,精湛的手搓纹牛皮,纹路清晰而且光泽度十足,十分贵气!32cm内配有中隔,可取出做手包,肩带可以调节,长短自己选择!logo非常小,完美地诠释了低调奢华的格调~\n型号:378299\n尺寸:32×25.5×15.5cm\n(32cm内配有中隔)","specs":{"source":"wsxcme","sourceId":"_duGuG9-QKyQj0NCTCl9Mv7R5zan63L4BIFTc3Wg","sourceTagId":47002761,"sourceTagName":"圣罗兰/女包","modelNumber":"378299","dimensions":{"lengthCm":32,"heightCm":25.5,"widthCm":15.5},"rawTitle":"麦绿手搓纹·\n风琴包32cm\n最优雅的风琴包系列sac de jour,永远的经典不过时,精湛的手搓纹牛皮,纹路清晰而且光泽度十足,十分贵气!32cm内配有中隔,可取出做手包,肩带可以调节,长短自己选择!logo非常小,完美地诠释了低调奢华的格调~\n型号:378299\n尺寸:32×25.5×15.5cm\n(32cm内配有中隔)"},"price":null,"currency":"CNY","moq":1,"category":"ysl-women-bags","status":"active","alibaba_url":null,"images":["https://xcimg.szwego.com/imgHD/f8c0bdc9/20260129/cmp_i1769673299197_2018_0_0.jpg","https://xcimg.szwego.com/imgHD/f8c0bdc9/20260129/cmp_i1769673310942_2645_0_1.jpg","https://xcimg.szwego.com/imgHD/f8c0bdc9/20260129/cmp_i1769673310998_8145_0_2.jpg","https://xcimg.szwego.com/imgHD/f8c0bdc9/20260129/cmp_i1769673297489_9255_0_3.jpg","https://xcimg.szwego.com/imgHD/f8c0bdc9/20260129/cmp_i1769673299266_8949_0_4.jpg","https://xcimg.szwego.com/imgHD/f8c0bdc9/20260129/cmp_i1769673299133_3913_0_5.jpg","https://xcimg.szwego.com/imgHD/f8c0bdc9/20260129/cmp_i1769673311070_9453_0_6.jpg","https://xcimg.szwego.com/imgHD/f8c0bdc9/20260129/cmp_i1769673297463_7573_0_7.jpg","https://xcimg.szwego.com/imgHD/f8c0bdc9/20260129/cmp_i1769673311053_891_0_8.jpg"],"created_at":"2026-06-29T10:48:58.699Z"},{"id":"item-3e3a4f52e25b","sku":"_d9L9LroMiPEWilTl-xi07QrOVJMIGzje4K7LamA","name_en":"Sac de jour·","name_cn":"Sac de jour·\n灰色手搓纹金扣\n22/26/32cm","specs":{"source":"wsxcme","sourceId":"_d9L9LroMiPEWilTl-xi07QrOVJMIGzje4K7LamA","sourceTagId":47002761,"sourceTagName":"圣罗兰/女包","rawTitle":"Sac de jour·\n灰色手搓纹金扣\n22/26/32cm"},"price":null,"currency":"CNY","moq":1,"category":"ysl-women-bags","status":"active","alibaba_url":null,"images":["https://xcimg.szwego.com/imgHD/f8c0bdc9/20251120/cmp_i1763630323662_3405_0_0.jpg","https://xcimg.szwego.com/imgHD/f8c0bdc9/20251120/cmp_i1763629512884_9007_0_2.jpg","https://xcimg.szwego.com/imgHD/f8c0bdc9/20251120/cmp_i1763629871891_5588_0_2.jpg","https://xcimg.szwego.com/imgHD/f8c0bdc9/20251120/cmp_i1763630165520_7863_0_2.jpg"],"created_at":"2026-06-29T10:48:58.689Z"},{"id":"item-a4056fee8a44","sku":"_drmrm6Mm8x0OGztokG_Fe74tPUvHEe5bNLp3-Aw","name_en":"Saint Laurent Women Bags","name_cn":"官网图","specs":{"source":"wsxcme","sourceId":"_drmrm6Mm8x0OGztokG_Fe74tPUvHEe5bNLp3-Aw","sourceTagId":47002761,"sourceTagName":"圣罗兰/女包","rawTitle":"官网图"},"price":null,"currency":"CNY","moq":1,"category":"ysl-women-bags","status":"active","alibaba_url":null,"images":["https://xcimg.szwego.com/imgHD/f8c0bdc9/20251120/cmp_i1763631322339_7228_0_0.jpg","https://xcimg.szwego.com/imgHD/f8c0bdc9/20251120/cmp_i1763631322340_3947_0_1.jpg","https://xcimg.szwego.com/imgHD/f8c0bdc9/20251120/cmp_i1763631322340_9890_0_2.jpg","https://xcimg.szwego.com/imgHD/f8c0bdc9/20251120/cmp_i1763631322339_9564_0_3.jpg","https://xcimg.szwego.com/imgHD/f8c0bdc9/20251120/cmp_i1763631322339_1431_0_4.jpg","https://xcimg.szwego.com/imgHD/f8c0bdc9/20251120/cmp_i1763631322912_1935_0_5.jpg","https://xcimg.szwego.com/imgHD/f8c0bdc9/20251120/cmp_i1763631325579_5795_0_6.jpg"],"created_at":"2026-06-29T10:48:58.679Z"},{"id":"item-dcc6a3556b60","sku":"_d9l9lgPhnhqvxpKAytwdIDFugAZqk0Zz6z4wXPQ","name_en":"Saint Laurent Women Bags","name_cn":"官网图","specs":{"source":"wsxcme","sourceId":"_d9l9lgPhnhqvxpKAytwdIDFugAZqk0Zz6z4wXPQ","sourceTagId":47002761,"sourceTagName":"圣罗兰/女包","rawTitle":"官网图"},"price":null,"currency":"CNY","moq":1,"category":"ysl-women-bags","status":"active","alibaba_url":null,"images":["https://xcimg.szwego.com/imgHD/f8c0bdc9/20251120/cmp_i1763631310287_6747_0_0.jpg","https://xcimg.szwego.com/imgHD/f8c0bdc9/20251120/cmp_i1763631310287_1184_0_1.jpg","https://xcimg.szwego.com/imgHD/f8c0bdc9/20251120/cmp_i1763631310287_6337_0_2.jpg"],"created_at":"2026-06-29T10:48:58.669Z"},{"id":"item-6d5ee7a791ad","sku":"_dlPlPYCfesBI4Tc5Kz3twIedkN34GPGhDHwuP4g","name_en":"Saint Laurent Women Bags","name_cn":"标志性的风琴褶设计 不仅增加了包包的立体感\n方正的包型搭配精致的牛皮搭扣 时尚又大气","specs":{"source":"wsxcme","sourceId":"_dlPlPYCfesBI4Tc5Kz3twIedkN34GPGhDHwuP4g","sourceTagId":47002761,"sourceTagName":"圣罗兰/女包","rawTitle":"标志性的风琴褶设计 不仅增加了包包的立体感\n方正的包型搭配精致的牛皮搭扣 时尚又大气"},"price":null,"currency":"CNY","moq":1,"category":"ysl-women-bags","status":"active","alibaba_url":null,"images":["https://xcimg.szwego.com/imgHD/f8c0bdc9/20251120/cmp_i1763630165522_7446_0_0.jpg","https://xcimg.szwego.com/imgHD/f8c0bdc9/20251120/cmp_i1763630165518_6512_0_1.jpg","https://xcimg.szwego.com/imgHD/f8c0bdc9/20251120/cmp_i1763630165520_7863_0_2.jpg","https://xcimg.szwego.com/imgHD/f8c0bdc9/20251120/cmp_i1763630165546_534_0_3.jpg"],"created_at":"2026-06-29T10:48:58.659Z"},{"id":"item-450441a78a2f","sku":"_dxYxY0zV47HLnYPjf9xrhVZsonzV5yEN3zwplEg","name_en":"细节po","name_cn":"细节po","specs":{"source":"wsxcme","sourceId":"_dxYxY0zV47HLnYPjf9xrhVZsonzV5yEN3zwplEg","sourceTagId":47002761,"sourceTagName":"圣罗兰/女包","rawTitle":"细节po"},"price":null,"currency":"CNY","moq":1,"category":"ysl-women-bags","status":"active","alibaba_url":null,"images":["https://xcimg.szwego.com/imgHD/f8c0bdc9/20251120/cmp_i1763630156462_6995_0_0.jpg","https://xcimg.szwego.com/imgHD/f8c0bdc9/20251120/cmp_i1763630152592_5801_0_1.jpg","https://xcimg.szwego.com/imgHD/f8c0bdc9/20251120/cmp_i1763630153417_121_0_2.jpg","https://xcimg.szwego.com/imgHD/f8c0bdc9/20251120/cmp_i1763630153312_8074_0_3.jpg","https://xcimg.szwego.com/imgHD/f8c0bdc9/20251120/cmp_i1763630153382_7561_0_4.jpg","https://xcimg.szwego.com/imgHD/f8c0bdc9/20251120/cmp_i1763630155431_2331_0_5.jpg","https://xcimg.szwego.com/imgHD/f8c0bdc9/20251120/cmp_i1763630154266_3691_0_6.jpg","https://xcimg.szwego.com/imgHD/f8c0bdc9/20251120/cmp_i1763630155541_5610_0_7.jpg"],"created_at":"2026-06-29T10:48:58.649Z"},{"id":"item-7e2b1a3bece9","sku":"_dLULU__bTE4QkMcCTkjCjpWU4tdPSQf7RFWCCxA","name_en":"720 灰色手搓纹金扣·风琴包22cm","name_cn":"720 灰色手搓纹金扣·风琴包22cm\n最优雅的风琴包系列sac de jour,永远的经典不过时,精湛的牙签纹牛皮,纹路清晰而且光泽度十足,十分贵气!肩带可以调节,长短自己选择!logo非常小,完美地诠释了低调奢华的格调~\n型号:717440\n尺寸:22x18x10.5cm","specs":{"source":"wsxcme","sourceId":"_dLULU__bTE4QkMcCTkjCjpWU4tdPSQf7RFWCCxA","sourceTagId":47002761,"sourceTagName":"圣罗兰/女包","modelNumber":"717440","dimensions":{"lengthCm":22,"heightCm":18,"widthCm":10.5},"rawTitle":"720 灰色手搓纹金扣·风琴包22cm\n最优雅的风琴包系列sac de jour,永远的经典不过时,精湛的牙签纹牛皮,纹路清晰而且光泽度十足,十分贵气!肩带可以调节,长短自己选择!logo非常小,完美地诠释了低调奢华的格调~\n型号:717440\n尺寸:22x18x10.5cm"},"price":null,"currency":"CNY","moq":1,"category":"ysl-women-bags","status":"active","alibaba_url":null,"images":["https://xcimg.szwego.com/imgHD/f8c0bdc9/20251120/cmp_i1763630100600_2329_0_0.jpg","https://xcimg.szwego.com/imgHD/f8c0bdc9/20251120/cmp_i1763630097899_7278_0_1.jpg","https://xcimg.szwego.com/imgHD/f8c0bdc9/20251120/cmp_i1763630102146_5950_0_2.jpg","https://xcimg.szwego.com/imgHD/f8c0bdc9/20251120/cmp_i1763630098016_580_0_3.jpg","https://xcimg.szwego.com/imgHD/f8c0bdc9/20251120/cmp_i1763630098490_8828_0_8.jpg","https://xcimg.szwego.com/imgHD/f8c0bdc9/20251120/cmp_i1763630102146_2355_0_4.jpg","https://xcimg.szwego.com/imgHD/f8c0bdc9/20251120/cmp_i1763630097950_6989_0_5.jpg","https://xcimg.szwego.com/imgHD/f8c0bdc9/20251120/cmp_i1763630102326_6396_0_6.jpg","https://xcimg.szwego.com/imgHD/f8c0bdc9/20251120/cmp_i1763630099612_9179_0_7.jpg"],"created_at":"2026-06-29T10:48:58.639Z"},{"id":"item-051a4c8f23c7","sku":"_dlflfVzZ5ZmfWPAC9EKTJX87KI4EiSgKlVgr4SA","name_en":"Sac de jour 一经推出便迅速成为时尚界的焦点","name_cn":"Sac de jour 一经推出便迅速成为时尚界的焦点\n它的设计灵感融合了经典与现代元素 简约而不失大气","specs":{"source":"wsxcme","sourceId":"_dlflfVzZ5ZmfWPAC9EKTJX87KI4EiSgKlVgr4SA","sourceTagId":47002761,"sourceTagName":"圣罗兰/女包","rawTitle":"Sac de jour 一经推出便迅速成为时尚界的焦点\n它的设计灵感融合了经典与现代元素 简约而不失大气"},"price":null,"currency":"CNY","moq":1,"category":"ysl-women-bags","status":"active","alibaba_url":null,"images":["https://xcimg.szwego.com/imgHD/f8c0bdc9/20251120/cmp_i1763629871941_4844_0_0.jpg","https://xcimg.szwego.com/imgHD/f8c0bdc9/20251120/cmp_i1763629871931_5844_0_1.jpg","https://xcimg.szwego.com/imgHD/f8c0bdc9/20251120/cmp_i1763629871891_5588_0_2.jpg","https://xcimg.szwego.com/imgHD/f8c0bdc9/20251120/cmp_i1763629871932_3483_0_3.jpg"],"created_at":"2026-06-29T10:48:58.629Z"},{"id":"item-3eb041bdbf94","sku":"_dp2p2xiErpVXkRNYHi_08-hicJxsi3aP6H3T5ww","name_en":"细节po","name_cn":"细节po","specs":{"source":"wsxcme","sourceId":"_dp2p2xiErpVXkRNYHi_08-hicJxsi3aP6H3T5ww","sourceTagId":47002761,"sourceTagName":"圣罗兰/女包","rawTitle":"细节po"},"price":null,"currency":"CNY","moq":1,"category":"ysl-women-bags","status":"active","alibaba_url":null,"images":["https://xcimg.szwego.com/imgHD/f8c0bdc9/20251120/cmp_i1763629850901_477_0_0.jpg","https://xcimg.szwego.com/imgHD/f8c0bdc9/20251120/cmp_i1763629853959_556_0_1.jpg","https://xcimg.szwego.com/imgHD/f8c0bdc9/20251120/cmp_i1763629853926_5758_0_2.jpg","https://xcimg.szwego.com/imgHD/f8c0bdc9/20251120/cmp_i1763629852341_518_0_3.jpg","https://xcimg.szwego.com/imgHD/f8c0bdc9/20251120/cmp_i1763629852189_509_0_4.jpg","https://xcimg.szwego.com/imgHD/f8c0bdc9/20251120/cmp_i1763629853942_9030_0_5.jpg","https://xcimg.szwego.com/imgHD/f8c0bdc9/20251120/cmp_i1763629852316_7067_0_6.jpg","https://xcimg.szwego.com/imgHD/f8c0bdc9/20251120/cmp_i1763629852349_1595_0_7.jpg"],"created_at":"2026-06-29T10:48:58.619Z"},{"id":"item-00005cb2cf1c","sku":"_dh7h7YDoKRN3QfJfFDmVArOCwHexXTrl90abp7A","name_en":"灰色手搓纹·风琴包26cm","name_cn":"灰色手搓纹·风琴包26cm\n最优雅的风琴包系列sac de jour,永远的经典不过时,精湛的手搓纹牛皮,纹路清晰而且光泽度十足,十分贵气!26cm内配有中隔,可取出做手包,肩带可以调节,长短自己选择!logo非常小,完美地诠释了低调奢华的格调~\n型号:421863/477477\n尺寸:26x20.5x12.5cm\n(26cm内配有中隔)","specs":{"source":"wsxcme","sourceId":"_dh7h7YDoKRN3QfJfFDmVArOCwHexXTrl90abp7A","sourceTagId":47002761,"sourceTagName":"圣罗兰/女包","modelNumber":"421863/477477","dimensions":{"lengthCm":26,"heightCm":20.5,"widthCm":12.5},"rawTitle":"灰色手搓纹·风琴包26cm\n最优雅的风琴包系列sac de jour,永远的经典不过时,精湛的手搓纹牛皮,纹路清晰而且光泽度十足,十分贵气!26cm内配有中隔,可取出做手包,肩带可以调节,长短自己选择!logo非常小,完美地诠释了低调奢华的格调~\n型号:421863/477477\n尺寸:26x20.5x12.5cm\n(26cm内配有中隔)"},"price":null,"currency":"CNY","moq":1,"category":"ysl-women-bags","status":"active","alibaba_url":null,"images":["https://xcimg.szwego.com/imgHD/f8c0bdc9/20251120/cmp_i1763629810581_8601_0_0.jpg","https://xcimg.szwego.com/imgHD/f8c0bdc9/20251120/cmp_i1763629810533_2344_0_1.jpg","https://xcimg.szwego.com/imgHD/f8c0bdc9/20251120/cmp_i1763629813047_8484_0_2.jpg","https://xcimg.szwego.com/imgHD/f8c0bdc9/20251120/cmp_i1763629812234_453_0_3.jpg","https://xcimg.szwego.com/imgHD/f8c0bdc9/20251120/cmp_i1763629808985_1564_0_4.jpg","https://xcimg.szwego.com/imgHD/f8c0bdc9/20251120/cmp_i1763629808952_3540_0_5.jpg","https://xcimg.szwego.com/imgHD/f8c0bdc9/20251120/cmp_i1763629810729_9122_0_6.jpg","https://xcimg.szwego.com/imgHD/f8c0bdc9/20251120/cmp_i1763629813245_9843_0_8.jpg","https://xcimg.szwego.com/imgHD/f8c0bdc9/20251120/cmp_i1763629811836_7248_0_7.jpg"],"created_at":"2026-06-29T10:48:58.609Z"},{"id":"item-2da1da35757b","sku":"_dofofJZ1ZDYjePEqKjC02d2eQvRinqiVLqP8RiQ","name_en":"Saint Laurent Women Bags","name_cn":"折叠风琴包型立体有型\n配有黄铜挂锁 简约大方","specs":{"source":"wsxcme","sourceId":"_dofofJZ1ZDYjePEqKjC02d2eQvRinqiVLqP8RiQ","sourceTagId":47002761,"sourceTagName":"圣罗兰/女包","rawTitle":"折叠风琴包型立体有型\n配有黄铜挂锁 简约大方"},"price":null,"currency":"CNY","moq":1,"category":"ysl-women-bags","status":"active","alibaba_url":null,"images":["https://xcimg.szwego.com/imgHD/f8c0bdc9/20251120/cmp_i1763629512892_7923_0_0.jpg","https://xcimg.szwego.com/imgHD/f8c0bdc9/20251120/cmp_i1763629512874_310_0_1.jpg","https://xcimg.szwego.com/imgHD/f8c0bdc9/20251120/cmp_i1763629512884_9007_0_2.jpg","https://xcimg.szwego.com/imgHD/f8c0bdc9/20251120/cmp_i1763629512877_2752_0_3.jpg"],"created_at":"2026-06-29T10:48:58.599Z"},{"id":"item-6a3bf9d9fe33","sku":"_duIuIuZfx0KzRqf7SOZC3HSHBWQgwZmylBUZ2gg","name_en":"细节po","name_cn":"细节po","specs":{"source":"wsxcme","sourceId":"_duIuIuZfx0KzRqf7SOZC3HSHBWQgwZmylBUZ2gg","sourceTagId":47002761,"sourceTagName":"圣罗兰/女包","rawTitle":"细节po"},"price":null,"currency":"CNY","moq":1,"category":"ysl-women-bags","status":"active","alibaba_url":null,"images":["https://xcimg.szwego.com/imgHD/f8c0bdc9/20251120/cmp_i1763629496604_2759_0_0.jpg","https://xcimg.szwego.com/imgHD/f8c0bdc9/20251120/cmp_i1763629499054_4616_0_1.jpg","https://xcimg.szwego.com/imgHD/f8c0bdc9/20251120/cmp_i1763629495646_1564_0_2.jpg","https://xcimg.szwego.com/imgHD/f8c0bdc9/20251120/cmp_i1763629495537_7929_0_3.jpg","https://xcimg.szwego.com/imgHD/f8c0bdc9/20251120/cmp_i1763629495415_6929_0_4.jpg","https://xcimg.szwego.com/imgHD/f8c0bdc9/20251120/cmp_i1763629498856_7209_0_5.jpg","https://xcimg.szwego.com/imgHD/f8c0bdc9/20251120/cmp_i1763629498894_362_0_6.jpg","https://xcimg.szwego.com/imgHD/f8c0bdc9/20251120/cmp_i1763629499176_1826_0_7.jpg","https://xcimg.szwego.com/imgHD/f8c0bdc9/20251120/cmp_i1763629495523_5317_0_8.jpg"],"created_at":"2026-06-29T10:48:58.589Z"},{"id":"item-39c2b5960085","sku":"_d9j9jvYnijXJ1jQE9q6YzpAP13WODAqovJ4swAQ","name_en":"Saint Laurent Women Bags","name_cn":"灰色手搓纹·\n风琴包32cm\n最优雅的风琴包系列sac de jour,永远的经典不过时,精湛的手搓纹牛皮,纹路清晰而且光泽度十足,十分贵气!32cm内配有中隔,可取出做手包,肩带可以调节,长短自己选择!logo非常小,完美地诠释了低调奢华的格调~\n型号:378299\n尺寸:32×25.5×15.5cm\n(32cm内配有中隔)","specs":{"source":"wsxcme","sourceId":"_d9j9jvYnijXJ1jQE9q6YzpAP13WODAqovJ4swAQ","sourceTagId":47002761,"sourceTagName":"圣罗兰/女包","modelNumber":"378299","dimensions":{"lengthCm":32,"heightCm":25.5,"widthCm":15.5},"rawTitle":"灰色手搓纹·\n风琴包32cm\n最优雅的风琴包系列sac de jour,永远的经典不过时,精湛的手搓纹牛皮,纹路清晰而且光泽度十足,十分贵气!32cm内配有中隔,可取出做手包,肩带可以调节,长短自己选择!logo非常小,完美地诠释了低调奢华的格调~\n型号:378299\n尺寸:32×25.5×15.5cm\n(32cm内配有中隔)"},"price":null,"currency":"CNY","moq":1,"category":"ysl-women-bags","status":"active","alibaba_url":null,"images":["https://xcimg.szwego.com/imgHD/f8c0bdc9/20251120/cmp_i1763629444680_4434_0_0.jpg","https://xcimg.szwego.com/imgHD/f8c0bdc9/20251120/cmp_i1763629444525_2582_0_1.jpg","https://xcimg.szwego.com/imgHD/f8c0bdc9/20251120/cmp_i1763629447387_2540_0_2.jpg","https://xcimg.szwego.com/imgHD/f8c0bdc9/20251120/cmp_i1763629446243_3343_0_3.jpg","https://xcimg.szwego.com/imgHD/f8c0bdc9/20251120/cmp_i1763629443503_316_0_4.jpg","https://xcimg.szwego.com/imgHD/f8c0bdc9/20251120/cmp_i1763629444610_2055_0_5.jpg","https://xcimg.szwego.com/imgHD/f8c0bdc9/20251120/cmp_i1763629447608_9248_0_6.jpg","https://xcimg.szwego.com/imgHD/f8c0bdc9/20251120/cmp_i1763629446220_6879_0_7.jpg","https://xcimg.szwego.com/imgHD/f8c0bdc9/20251120/cmp_i1763629444572_5940_0_8.jpg"],"created_at":"2026-06-29T10:48:58.579Z"},{"id":"item-f258ab141ac2","sku":"_dqdqdFg8h7C4jDJ-SJSVunZKsr1bLStsFkjGuPQ","name_en":"Sac de jour·","name_cn":"Sac de jour·\n咖啡荔枝纹金扣\n22/26/32cm","specs":{"source":"wsxcme","sourceId":"_dqdqdFg8h7C4jDJ-SJSVunZKsr1bLStsFkjGuPQ","sourceTagId":47002761,"sourceTagName":"圣罗兰/女包","rawTitle":"Sac de jour·\n咖啡荔枝纹金扣\n22/26/32cm"},"price":null,"currency":"CNY","moq":1,"category":"ysl-women-bags","status":"active","alibaba_url":null,"images":["https://xcimg.szwego.com/imgHD/f8c0bdc9/20251209/cmp_i1765275291797_9704_0_0.jpg","https://xcimg.szwego.com/imgHD/f8c0bdc9/20251209/cmp_i1765275291091_3937_0_1.jpg","https://xcimg.szwego.com/imgHD/f8c0bdc9/20251209/cmp_i1765274701788_688_0_0.jpg","https://xcimg.szwego.com/imgHD/f8c0bdc9/20251209/cmp_i1765274896024_8328_0_0.jpg","https://xcimg.szwego.com/imgHD/f8c0bdc9/20251209/cmp_i1765275088635_6689_0_0.jpg"],"created_at":"2026-06-29T10:48:58.569Z"},{"id":"item-c77a55d24734","sku":"_dkZkZ-_HrT8snMS8eFgMldMYHn8gaLmJgwfupwQ","name_en":"Saint Laurent Women Bags","name_cn":"官网图","specs":{"source":"wsxcme","sourceId":"_dkZkZ-_HrT8snMS8eFgMldMYHn8gaLmJgwfupwQ","sourceTagId":47002761,"sourceTagName":"圣罗兰/女包","rawTitle":"官网图"},"price":null,"currency":"CNY","moq":1,"category":"ysl-women-bags","status":"active","alibaba_url":null,"images":["https://xcimg.szwego.com/imgHD/f8c0bdc9/20251209/cmp_i1765277116360_3464_0_0.jpg","https://xcimg.szwego.com/imgHD/f8c0bdc9/20251209/cmp_i1765277116577_6147_0_1.jpg","https://xcimg.szwego.com/imgHD/f8c0bdc9/20251209/cmp_i1765277116577_4637_0_2.jpg","https://xcimg.szwego.com/imgHD/f8c0bdc9/20251209/cmp_i1765277116360_8231_0_3.jpg","https://xcimg.szwego.com/imgHD/f8c0bdc9/20251209/cmp_i1765277116360_46_0_4.jpg","https://xcimg.szwego.com/imgHD/f8c0bdc9/20251209/cmp_i1765277116361_3841_0_5.jpg","https://xcimg.szwego.com/imgHD/f8c0bdc9/20251209/cmp_i1765277116361_325_0_6.jpg"],"created_at":"2026-06-29T10:48:58.559Z"},{"id":"item-d461fddefee0","sku":"_dwcwcUGvhnppc5HZMlpQ12miVImA3S86oxWKLug","name_en":"Saint Laurent Women Bags","name_cn":"风琴包的造型简约而富有线条感","specs":{"source":"wsxcme","sourceId":"_dwcwcUGvhnppc5HZMlpQ12miVImA3S86oxWKLug","sourceTagId":47002761,"sourceTagName":"圣罗兰/女包","rawTitle":"风琴包的造型简约而富有线条感"},"price":null,"currency":"CNY","moq":1,"category":"ysl-women-bags","status":"active","alibaba_url":null,"images":["https://xcimg.szwego.com/imgHD/f8c0bdc9/20251209/cmp_i1765275088635_6689_0_0.jpg","https://xcimg.szwego.com/imgHD/f8c0bdc9/20251209/cmp_i1765275088628_7997_0_1.jpg","https://xcimg.szwego.com/imgHD/f8c0bdc9/20251209/cmp_i1765275088594_9318_0_2.jpg","https://xcimg.szwego.com/imgHD/f8c0bdc9/20251209/cmp_i1765275088655_2017_0_3.jpg"],"created_at":"2026-06-29T10:48:58.549Z"},{"id":"item-427e65cc0d89","sku":"_dM_M_nNF2GzTJlKqS-W0iyCxXKLQ0GiOTsvXWFA","name_en":"细节po","name_cn":"细节po","specs":{"source":"wsxcme","sourceId":"_dM_M_nNF2GzTJlKqS-W0iyCxXKLQ0GiOTsvXWFA","sourceTagId":47002761,"sourceTagName":"圣罗兰/女包","rawTitle":"细节po"},"price":null,"currency":"CNY","moq":1,"category":"ysl-women-bags","status":"active","alibaba_url":null,"images":["https://xcimg.szwego.com/imgHD/f8c0bdc9/20251209/cmp_i1765275079397_3655_0_0.jpg","https://xcimg.szwego.com/imgHD/f8c0bdc9/20251209/cmp_i1765275079400_9489_0_1.jpg","https://xcimg.szwego.com/imgHD/f8c0bdc9/20251209/cmp_i1765275078081_9358_0_2.jpg","https://xcimg.szwego.com/imgHD/f8c0bdc9/20251209/cmp_i1765275077989_2548_0_3.jpg","https://xcimg.szwego.com/imgHD/f8c0bdc9/20251209/cmp_i1765275079380_29_0_4.jpg","https://xcimg.szwego.com/imgHD/f8c0bdc9/20251209/cmp_i1765275079741_3686_0_5.jpg","https://xcimg.szwego.com/imgHD/f8c0bdc9/20251209/cmp_i1765275077402_759_0_6.jpg","https://xcimg.szwego.com/imgHD/f8c0bdc9/20251209/cmp_i1765275078073_7353_0_7.jpg","https://xcimg.szwego.com/imgHD/f8c0bdc9/20251209/cmp_i1765275077115_313_0_8.jpg"],"created_at":"2026-06-29T10:48:58.539Z"},{"id":"item-f8661fa4db98","sku":"_doOoOKQZ3X8CdTomhUENBXKzSz2c1KRDlI18dlA","name_en":"咖啡金扣·22cm","name_cn":"咖啡金扣·22cm\n最优雅的风琴包系列sac de jour,永远的经典不过时,精湛的荔枝纹压花,纹路清晰而且光泽度十足,十分贵气!肩带可以调节,长短自己选择!logo非常小,完美地诠释了低调奢华的格调~\n型号:392035/717440\n尺寸:22x18x10.5cm","specs":{"source":"wsxcme","sourceId":"_doOoOKQZ3X8CdTomhUENBXKzSz2c1KRDlI18dlA","sourceTagId":47002761,"sourceTagName":"圣罗兰/女包","modelNumber":"392035/717440","dimensions":{"lengthCm":22,"heightCm":18,"widthCm":10.5},"rawTitle":"咖啡金扣·22cm\n最优雅的风琴包系列sac de jour,永远的经典不过时,精湛的荔枝纹压花,纹路清晰而且光泽度十足,十分贵气!肩带可以调节,长短自己选择!logo非常小,完美地诠释了低调奢华的格调~\n型号:392035/717440\n尺寸:22x18x10.5cm"},"price":null,"currency":"CNY","moq":1,"category":"ysl-women-bags","status":"active","alibaba_url":null,"images":["https://xcimg.szwego.com/imgHD/f8c0bdc9/20251209/cmp_i1765275035903_5605_0_0.jpg","https://xcimg.szwego.com/imgHD/f8c0bdc9/20251209/cmp_i1765275032256_7959_0_8.jpg","https://xcimg.szwego.com/imgHD/f8c0bdc9/20251209/cmp_i1765275033003_3704_0_1.jpg","https://xcimg.szwego.com/imgHD/f8c0bdc9/20251209/cmp_i1765275035499_6652_0_3.jpg","https://xcimg.szwego.com/imgHD/f8c0bdc9/20251209/cmp_i1765275032277_7327_0_2.jpg","https://xcimg.szwego.com/imgHD/f8c0bdc9/20251209/cmp_i1765275035912_2751_0_4.jpg","https://xcimg.szwego.com/imgHD/f8c0bdc9/20251209/cmp_i1765275035230_8087_0_5.jpg","https://xcimg.szwego.com/imgHD/f8c0bdc9/20251209/cmp_i1765275032289_5457_0_6.jpg","https://xcimg.szwego.com/imgHD/f8c0bdc9/20251209/cmp_i1765275032294_9831_0_7.jpg"],"created_at":"2026-06-29T10:48:58.529Z"},{"id":"item-1dd37f3ce594","sku":"_db7b7wpnCsxeVi9rSuINn7Hn_jb_4yjl-gmstnw","name_en":"Saint Laurent Women Bags","name_cn":"配备了手提跟斜挎肩带 方便携带\n简洁大方 满足不同场合的需求","specs":{"source":"wsxcme","sourceId":"_db7b7wpnCsxeVi9rSuINn7Hn_jb_4yjl-gmstnw","sourceTagId":47002761,"sourceTagName":"圣罗兰/女包","rawTitle":"配备了手提跟斜挎肩带 方便携带\n简洁大方 满足不同场合的需求"},"price":null,"currency":"CNY","moq":1,"category":"ysl-women-bags","status":"active","alibaba_url":null,"images":["https://xcimg.szwego.com/imgHD/f8c0bdc9/20251209/cmp_i1765274896024_8328_0_0.jpg","https://xcimg.szwego.com/imgHD/f8c0bdc9/20251209/cmp_i1765274896001_8649_0_1.jpg","https://xcimg.szwego.com/imgHD/f8c0bdc9/20251209/cmp_i1765274896018_9931_0_2.jpg","https://xcimg.szwego.com/imgHD/f8c0bdc9/20251209/cmp_i1765274895968_68_0_3.jpg"],"created_at":"2026-06-29T10:48:58.519Z"},{"id":"item-0c07b07de496","sku":"_dspspOkDOHzNLeYjIYWv1g4SBNcqnKIcpsDbOzw","name_en":"Dior Women Bags","name_cn":"【配全套包装】\n油蜡皮现货!!️\nToujours竖版系列小号,专属菜篮子,有点太美了,高颜值包包,轻松拿捏高级感,超大菱格的设计,搭配经典的字母配饰,摩登时尚感十足,包身结构十分柔软,小牛皮材质高级感满满,别具一格的扣饰扣合时侧面可折叠,自带长肩带,实用度满分,容量也非常nice,日常出行物品统统放得下\nsize:16*12*18cm","specs":{"source":"wsxcme","sourceId":"_dspspOkDOHzNLeYjIYWv1g4SBNcqnKIcpsDbOzw","sourceTagId":47002747,"sourceTagName":"迪奥/女包","rawTitle":"【配全套包装】\n油蜡皮现货!!️\nToujours竖版系列小号,专属菜篮子,有点太美了,高颜值包包,轻松拿捏高级感,超大菱格的设计,搭配经典的字母配饰,摩登时尚感十足,包身结构十分柔软,小牛皮材质高级感满满,别具一格的扣饰扣合时侧面可折叠,自带长肩带,实用度满分,容量也非常nice,日常出行物品统统放得下\nsize:16*12*18cm"},"price":null,"currency":"CNY","moq":1,"category":"dior-women-bags","status":"active","alibaba_url":null,"images":["https://xcimg.szwego.com/img/2b46f204/20250120/i1737338347_9500_5.jpg","https://xcimg.szwego.com/img/2b46f204/20250120/i1737338347_3646_0.jpg","https://xcimg.szwego.com/img/2b46f204/20250120/i1737338347_5365_3.jpg","https://xcimg.szwego.com/img/2b46f204/20250120/i1737338348_1388_6.jpg","https://xcimg.szwego.com/img/2b46f204/20250120/i1737338347_7963_2.jpg","https://xcimg.szwego.com/img/2b46f204/20250120/i1737338347_1096_1.jpg","https://xcimg.szwego.com/img/2b46f204/20250120/i1737338347_5440_4.jpg","https://xcimg.szwego.com/img/2b46f204/20250120/i1737338348_2951_7.jpg","https://xcimg.szwego.com/img/2b46f204/20250120/i1737338348_2235_8.jpg"],"created_at":"2026-06-29T10:43:32.190Z"},{"id":"item-92db28dd523f","sku":"_dn9n9_X3jKnkmU3kqULG_1oNJda5c848dvME4Xg","name_en":"Dior Women Bags","name_cn":"【配全套包装】\n小号黑色现货!!️\nToujours竖版系列小号,专属菜篮子,有点太美了,高颜值包包,轻松拿捏高级感,超大菱格的设计,搭配经典的字母配饰,摩登时尚感十足,包身结构十分柔软,小牛皮材质高级感满满,别具一格的扣饰扣合时侧面可折叠,自带长肩带,实用度满分,容量也非常nice,日常出行物品统统放得下\nsize:16*12*18cm","specs":{"source":"wsxcme","sourceId":"_dn9n9_X3jKnkmU3kqULG_1oNJda5c848dvME4Xg","sourceTagId":47002747,"sourceTagName":"迪奥/女包","rawTitle":"【配全套包装】\n小号黑色现货!!️\nToujours竖版系列小号,专属菜篮子,有点太美了,高颜值包包,轻松拿捏高级感,超大菱格的设计,搭配经典的字母配饰,摩登时尚感十足,包身结构十分柔软,小牛皮材质高级感满满,别具一格的扣饰扣合时侧面可折叠,自带长肩带,实用度满分,容量也非常nice,日常出行物品统统放得下\nsize:16*12*18cm"},"price":null,"currency":"CNY","moq":1,"category":"dior-women-bags","status":"active","alibaba_url":null,"images":["https://xcimg.szwego.com/img/2b46f204/20250114/i1736792806_1777_7.jpg","https://xcimg.szwego.com/img/2b46f204/20250114/i1736792805_7091_0.jpg","https://xcimg.szwego.com/img/2b46f204/20250114/i1736792806_7916_6.jpg","https://xcimg.szwego.com/img/2b46f204/20250114/i1736792806_3482_8.jpg","https://xcimg.szwego.com/img/2b46f204/20250114/i1736792805_8740_2.jpg","https://xcimg.szwego.com/img/2b46f204/20250114/i1736792806_859_3.jpg","https://xcimg.szwego.com/img/2b46f204/20250114/i1736792806_1563_4.jpg","https://xcimg.szwego.com/img/2b46f204/20250114/i1736792805_700_1.jpg","https://xcimg.szwego.com/img/2b46f204/20250114/i1736792806_45_5.jpg"],"created_at":"2026-06-29T10:43:32.180Z"}],"page":30,"pageSize":24,"total":10075,"totalPages":420}
