{"items":[{"id":"item-b292cf8befe9","sku":"_dIjIjf4Fq7qw5QbU2kMFqquJjkCllBqdLEaKDYw","name_en":"细节po","name_cn":"细节po","specs":{"source":"wsxcme","sourceId":"_dIjIjf4Fq7qw5QbU2kMFqquJjkCllBqdLEaKDYw","sourceTagId":47002761,"sourceTagName":"圣罗兰/女包","rawTitle":"细节po"},"price":null,"currency":"CNY","moq":1,"category":"ysl-women-bags","status":"active","alibaba_url":null,"images":["https://xcimg.szwego.com/img/f8c0bdc9/20240811/i1723372955_6153_0.jpg","https://xcimg.szwego.com/img/f8c0bdc9/20240811/i1723372955_3662_3.jpg","https://xcimg.szwego.com/img/f8c0bdc9/20240811/i1723372955_8380_2.jpg","https://xcimg.szwego.com/img/f8c0bdc9/20240811/i1723372955_537_4.jpg","https://xcimg.szwego.com/img/f8c0bdc9/20240811/i1723372955_6342_5.jpg","https://xcimg.szwego.com/img/f8c0bdc9/20240811/i1723372955_310_1.jpg"],"created_at":"2026-05-20T04:01:39.233Z"},{"id":"item-2617f65c11cb","sku":"_dVJVJxAdxByVz1K2IrErQ2T4lp9TzFXAPBOJV_g","name_en":"CALYPSO_土黄磨砂金扣","name_cn":"CALYPSO_土黄磨砂金扣\n进口意大利麂皮制作,手感柔软细腻,经典的Y家logo、链条及扣眼五金均采用巴金哑光五金,包袋开口处折叠后使用了磁性四合扣封口,密闭性及安全性一流;包内设有一个拉链内袋可放置手机及贵重物品,除此之外无多余内袋设计,使用起来随心所欲!\n尺寸:26×14×7cm\n型号:734153","specs":{"source":"wsxcme","sourceId":"_dVJVJxAdxByVz1K2IrErQ2T4lp9TzFXAPBOJV_g","sourceTagId":47002761,"sourceTagName":"圣罗兰/女包","modelNumber":"734153","dimensions":{"lengthCm":26,"heightCm":14,"widthCm":7},"rawTitle":"CALYPSO_土黄磨砂金扣\n进口意大利麂皮制作,手感柔软细腻,经典的Y家logo、链条及扣眼五金均采用巴金哑光五金,包袋开口处折叠后使用了磁性四合扣封口,密闭性及安全性一流;包内设有一个拉链内袋可放置手机及贵重物品,除此之外无多余内袋设计,使用起来随心所欲!\n尺寸:26×14×7cm\n型号:734153"},"price":null,"currency":"CNY","moq":1,"category":"ysl-women-bags","status":"active","alibaba_url":null,"images":["https://xcimg.szwego.com/img/f8c0bdc9/20240811/i1723372923_2619_5.jpg","https://xcimg.szwego.com/img/f8c0bdc9/20240811/i1723372923_5711_4.jpg","https://xcimg.szwego.com/img/f8c0bdc9/20240811/i1723372923_9897_1.jpg","https://xcimg.szwego.com/img/f8c0bdc9/20240811/i1723372923_408_0.jpg","https://xcimg.szwego.com/img/f8c0bdc9/20240811/i1723372923_5760_2.jpg","https://xcimg.szwego.com/img/f8c0bdc9/20240811/i1723372923_9077_8.jpg","https://xcimg.szwego.com/img/f8c0bdc9/20240811/i1723372923_1693_7.jpg","https://xcimg.szwego.com/img/f8c0bdc9/20240811/i1723372923_7310_6.jpg","https://xcimg.szwego.com/img/f8c0bdc9/20240811/i1723372923_865_3.jpg"],"created_at":"2026-05-20T04:01:39.223Z"},{"id":"item-cc232090949c","sku":"_d9l9lgPhnhqvxp6A7tw1MBV2gDZ6t0Zz6y4sWOQ","name_en":"Saint Laurent Women Bags","name_cn":"时尚感十足!","specs":{"source":"wsxcme","sourceId":"_d9l9lgPhnhqvxp6A7tw1MBV2gDZ6t0Zz6y4sWOQ","sourceTagId":47002761,"sourceTagName":"圣罗兰/女包","rawTitle":"时尚感十足!"},"price":null,"currency":"CNY","moq":1,"category":"ysl-women-bags","status":"active","alibaba_url":null,"images":["https://xcimg.szwego.com/img/f8c0bdc9/20240104/i1704356866_3013_0.jpg","https://xcimg.szwego.com/img/f8c0bdc9/20240104/i1704356866_3572_1.jpg","https://xcimg.szwego.com/img/f8c0bdc9/20240104/i1704356866_7252_2.jpg","https://xcimg.szwego.com/img/f8c0bdc9/20240104/i1704356866_1871_3.jpg"],"created_at":"2026-05-20T04:01:39.213Z"},{"id":"item-0042791cd1d5","sku":"_dCKCKZm-IzPvpZCHK1uOWDPv473jeOZ-AInhSYQ","name_en":"Saint Laurent Women Bags","name_cn":"官网图_","specs":{"source":"wsxcme","sourceId":"_dCKCKZm-IzPvpZCHK1uOWDPv473jeOZ-AInhSYQ","sourceTagId":47002761,"sourceTagName":"圣罗兰/女包","rawTitle":"官网图_"},"price":null,"currency":"CNY","moq":1,"category":"ysl-women-bags","status":"active","alibaba_url":null,"images":["https://xcimg.szwego.com/img/f8c0bdc9/20240104/i1704356834_9944_0.jpg","https://xcimg.szwego.com/img/f8c0bdc9/20240104/i1704356834_1151_1.jpg","https://xcimg.szwego.com/img/f8c0bdc9/20240104/i1704356834_1289_2.jpg","https://xcimg.szwego.com/img/f8c0bdc9/20240104/i1704356834_3628_3.jpg","https://xcimg.szwego.com/img/f8c0bdc9/20240104/i1704356834_9863_4.jpg"],"created_at":"2026-05-20T04:01:39.203Z"},{"id":"item-dece554aea12","sku":"_dwzwzqfyppVURIg2wcphRNKFssKv6A1GSFqlrsg","name_en":"Saint Laurent Women Bags","name_cn":"随拍上身参考_","specs":{"source":"wsxcme","sourceId":"_dwzwzqfyppVURIg2wcphRNKFssKv6A1GSFqlrsg","sourceTagId":47002761,"sourceTagName":"圣罗兰/女包","rawTitle":"随拍上身参考_"},"price":null,"currency":"CNY","moq":1,"category":"ysl-women-bags","status":"active","alibaba_url":null,"images":["https://xcimg.szwego.com/img/f8c0bdc9/20240104/i1704353518_5779_0.jpg","https://xcimg.szwego.com/img/f8c0bdc9/20240104/i1704353518_485_1.jpg","https://xcimg.szwego.com/img/f8c0bdc9/20240104/i1704353518_9699_2.jpg","https://xcimg.szwego.com/img/f8c0bdc9/20240104/i1704353518_5821_3.jpg","https://xcimg.szwego.com/img/f8c0bdc9/20240104/i1704353518_4862_4.jpg","https://xcimg.szwego.com/img/f8c0bdc9/20240104/i1704353518_5243_5.jpg"],"created_at":"2026-05-20T04:01:39.193Z"},{"id":"item-1b6f5e7a32ff","sku":"_dIgIg5dfc8KPR5Q2kGlS29K1NlptFTUq02rGI1g","name_en":"细节po","name_cn":"细节po","specs":{"source":"wsxcme","sourceId":"_dIgIg5dfc8KPR5Q2kGlS29K1NlptFTUq02rGI1g","sourceTagId":47002761,"sourceTagName":"圣罗兰/女包","rawTitle":"细节po"},"price":null,"currency":"CNY","moq":1,"category":"ysl-women-bags","status":"active","alibaba_url":null,"images":["https://xcimg.szwego.com/img/f8c0bdc9/20240104/i1704353493_7814_0.jpg","https://xcimg.szwego.com/img/f8c0bdc9/20240104/i1704353493_8813_1.jpg","https://xcimg.szwego.com/img/f8c0bdc9/20240104/i1704353493_9180_2.jpg","https://xcimg.szwego.com/img/f8c0bdc9/20240104/i1704353493_6206_3.jpg","https://xcimg.szwego.com/img/f8c0bdc9/20240104/i1704353493_8383_4.jpg"],"created_at":"2026-05-20T04:01:39.183Z"},{"id":"item-93483343af70","sku":"_dwdwdD6T6rVbij0WPX64YXVgYJxpU0PrxfnfUYQ","name_en":"CALYPSO_漆皮链条包","name_cn":"CALYPSO_漆皮链条包\n进口意大利漆牛皮制作,经典的Y家logo、链条及扣眼五金均采用巴金哑光五金,包袋开口处折叠后使用了磁性四合扣封口,密闭性及安全性一流;包内设有一个拉链内袋可放置手机及贵重物品,除此之外无多余内袋设计,使用起来随心所欲!\n尺寸:26×14×7cm\n型号:734153","specs":{"source":"wsxcme","sourceId":"_dwdwdD6T6rVbij0WPX64YXVgYJxpU0PrxfnfUYQ","sourceTagId":47002761,"sourceTagName":"圣罗兰/女包","modelNumber":"734153","dimensions":{"lengthCm":26,"heightCm":14,"widthCm":7},"rawTitle":"CALYPSO_漆皮链条包\n进口意大利漆牛皮制作,经典的Y家logo、链条及扣眼五金均采用巴金哑光五金,包袋开口处折叠后使用了磁性四合扣封口,密闭性及安全性一流;包内设有一个拉链内袋可放置手机及贵重物品,除此之外无多余内袋设计,使用起来随心所欲!\n尺寸:26×14×7cm\n型号:734153"},"price":null,"currency":"CNY","moq":1,"category":"ysl-women-bags","status":"active","alibaba_url":null,"images":["https://xcimg.szwego.com/img/f8c0bdc9/20240104/i1704353414_7307_0.jpg","https://xcimg.szwego.com/img/f8c0bdc9/20240104/i1704353414_3920_1.jpg","https://xcimg.szwego.com/img/f8c0bdc9/20240104/i1704353414_3532_2.jpg","https://xcimg.szwego.com/img/f8c0bdc9/20240104/i1704353414_2618_3.jpg","https://xcimg.szwego.com/img/f8c0bdc9/20240104/i1704353414_2634_4.jpg","https://xcimg.szwego.com/img/f8c0bdc9/20240104/i1704353414_2776_5.jpg","https://xcimg.szwego.com/img/f8c0bdc9/20240104/i1704353414_5002_6.jpg","https://xcimg.szwego.com/img/f8c0bdc9/20240104/i1704353414_5549_7.jpg","https://xcimg.szwego.com/img/f8c0bdc9/20240104/i1704353414_4133_8.jpg"],"created_at":"2026-05-20T04:01:39.173Z"},{"id":"item-43d1050978a4","sku":"_droroqf_A_BdxKu7BhBj-onJ7oswgd38qb0Jtkw","name_en":"Saint Laurent Women Bags","name_cn":"随拍上身图_","specs":{"source":"wsxcme","sourceId":"_droroqf_A_BdxKu7BhBj-onJ7oswgd38qb0Jtkw","sourceTagId":47002761,"sourceTagName":"圣罗兰/女包","rawTitle":"随拍上身图_"},"price":null,"currency":"CNY","moq":1,"category":"ysl-women-bags","status":"active","alibaba_url":null,"images":["https://xcimg.szwego.com/img/f8c0bdc9/20240811/i1723372860_3867_0.jpg","https://xcimg.szwego.com/img/f8c0bdc9/20240811/i1723372860_6687_1.jpg","https://xcimg.szwego.com/img/f8c0bdc9/20240811/i1723372860_3673_4.jpg","https://xcimg.szwego.com/img/f8c0bdc9/20240811/i1723372860_3922_2.jpg","https://xcimg.szwego.com/img/f8c0bdc9/20240811/i1723372860_7934_3.jpg"],"created_at":"2026-05-20T04:01:39.163Z"},{"id":"item-df0f62d29516","sku":"_dAEAEcygIYjBJ1tO3eUjNzBgEfzX9ljCw5gcyyw","name_en":"细节po","name_cn":"细节po","specs":{"source":"wsxcme","sourceId":"_dAEAEcygIYjBJ1tO3eUjNzBgEfzX9ljCw5gcyyw","sourceTagId":47002761,"sourceTagName":"圣罗兰/女包","rawTitle":"细节po"},"price":null,"currency":"CNY","moq":1,"category":"ysl-women-bags","status":"active","alibaba_url":null,"images":["https://xcimg.szwego.com/img/f8c0bdc9/20240811/i1723372828_3951_0.jpg","https://xcimg.szwego.com/img/f8c0bdc9/20240811/i1723372828_7056_0.jpg","https://xcimg.szwego.com/img/f8c0bdc9/20240811/i1723372828_3172_0.jpg","https://xcimg.szwego.com/img/f8c0bdc9/20240811/i1723372828_5720_0.jpg","https://xcimg.szwego.com/img/f8c0bdc9/20240811/i1723372828_880_0.jpg","https://xcimg.szwego.com/img/f8c0bdc9/20240811/i1723372828_1035_0.jpg"],"created_at":"2026-05-20T04:01:39.153Z"},{"id":"item-b3e9172cc3d1","sku":"_d6F6FpC_tb9rB-CElXo8L6P8YyTPv2pwrmUzBrQ","name_en":"CALYPSO_白色大象纹羊皮","name_cn":"CALYPSO_白色大象纹羊皮\n进口意大利羊皮制作,手感柔软细腻,经典的Y家logo、链条及扣眼五金均采用巴金哑光五金,包袋开口处折叠后使用了磁性四合扣封口,密闭性及安全性一流;包内设有一个拉链内袋可放置手机及贵重物品,除此之外无多余内袋设计,使用起来随心所欲!\n尺寸:26×14×7cm\n型号:734153","specs":{"source":"wsxcme","sourceId":"_d6F6FpC_tb9rB-CElXo8L6P8YyTPv2pwrmUzBrQ","sourceTagId":47002761,"sourceTagName":"圣罗兰/女包","modelNumber":"734153","dimensions":{"lengthCm":26,"heightCm":14,"widthCm":7},"rawTitle":"CALYPSO_白色大象纹羊皮\n进口意大利羊皮制作,手感柔软细腻,经典的Y家logo、链条及扣眼五金均采用巴金哑光五金,包袋开口处折叠后使用了磁性四合扣封口,密闭性及安全性一流;包内设有一个拉链内袋可放置手机及贵重物品,除此之外无多余内袋设计,使用起来随心所欲!\n尺寸:26×14×7cm\n型号:734153"},"price":null,"currency":"CNY","moq":1,"category":"ysl-women-bags","status":"active","alibaba_url":null,"images":["https://xcimg.szwego.com/img/f8c0bdc9/20240811/i1723372748_7279_0.jpg","https://xcimg.szwego.com/img/f8c0bdc9/20240811/i1723372748_5081_5.jpg","https://xcimg.szwego.com/img/f8c0bdc9/20240811/i1723372748_8149_7.jpg","https://xcimg.szwego.com/img/f8c0bdc9/20240811/i1723372748_9430_4.jpg","https://xcimg.szwego.com/img/f8c0bdc9/20240811/i1723372748_576_3.jpg","https://xcimg.szwego.com/img/f8c0bdc9/20240811/i1723372748_8190_8.jpg","https://xcimg.szwego.com/img/f8c0bdc9/20240811/i1723372748_4553_2.jpg","https://xcimg.szwego.com/img/f8c0bdc9/20240811/i1723372748_3459_1.jpg","https://xcimg.szwego.com/img/f8c0bdc9/20240811/i1723372748_7966_6.jpg"],"created_at":"2026-05-20T04:01:39.143Z"},{"id":"item-6c53a0e2b5ff","sku":"_drQrQC2kFH6SKtfisx65MNWAa7eLydqIOkUzI9A","name_en":"Saint Laurent Women Bags","name_cn":"随拍上身参考_","specs":{"source":"wsxcme","sourceId":"_drQrQC2kFH6SKtfisx65MNWAa7eLydqIOkUzI9A","sourceTagId":47002761,"sourceTagName":"圣罗兰/女包","rawTitle":"随拍上身参考_"},"price":null,"currency":"CNY","moq":1,"category":"ysl-women-bags","status":"active","alibaba_url":null,"images":["https://xcimg.szwego.com/img/f8c0bdc9/20240401/i1711964901_5354_5.jpg","https://xcimg.szwego.com/img/f8c0bdc9/20240401/i1711964901_116_3.jpg","https://xcimg.szwego.com/img/f8c0bdc9/20240401/i1711964901_5767_0.jpg","https://xcimg.szwego.com/img/f8c0bdc9/20240401/i1711964901_8673_4.jpg","https://xcimg.szwego.com/img/f8c0bdc9/20240401/i1711964901_391_1.jpg","https://xcimg.szwego.com/img/f8c0bdc9/20240401/i1711964901_8471_2.jpg"],"created_at":"2026-05-20T04:01:39.133Z"},{"id":"item-90ca91096193","sku":"_dHVHVAVMn1pNW0qwF-S9xwQnlwC3EwPc96HE4dA","name_en":"细节po","name_cn":"细节po","specs":{"source":"wsxcme","sourceId":"_dHVHVAVMn1pNW0qwF-S9xwQnlwC3EwPc96HE4dA","sourceTagId":47002761,"sourceTagName":"圣罗兰/女包","rawTitle":"细节po"},"price":null,"currency":"CNY","moq":1,"category":"ysl-women-bags","status":"active","alibaba_url":null,"images":["https://xcimg.szwego.com/img/f8c0bdc9/20240401/i1711964890_6001_4.jpg","https://xcimg.szwego.com/img/f8c0bdc9/20240401/i1711964890_5483_3.jpg","https://xcimg.szwego.com/img/f8c0bdc9/20240401/i1711964890_8159_2.jpg","https://xcimg.szwego.com/img/f8c0bdc9/20240401/i1711964889_6310_0.jpg","https://xcimg.szwego.com/img/f8c0bdc9/20240401/i1711964890_2643_1.jpg"],"created_at":"2026-05-20T04:01:39.123Z"},{"id":"item-3d662160813d","sku":"_dzRzRcdqBJTb4B82k3MuBRSisiEERcC6PuNhdGQ","name_en":"CALYPSO_大象纹羊皮链条包","name_cn":"CALYPSO_大象纹羊皮链条包\n进口意大利羊皮制作,手感柔软细腻,经典的Y家logo、链条及扣眼五金均采用巴金哑光五金,包袋开口处折叠后使用了磁性四合扣封口,密闭性及安全性一流;包内设有一个拉链内袋可放置手机及贵重物品,除此之外无多余内袋设计,使用起来随心所欲!\n尺寸:26×14×7cm\n型号:734153","specs":{"source":"wsxcme","sourceId":"_dzRzRcdqBJTb4B82k3MuBRSisiEERcC6PuNhdGQ","sourceTagId":47002761,"sourceTagName":"圣罗兰/女包","modelNumber":"734153","dimensions":{"lengthCm":26,"heightCm":14,"widthCm":7},"rawTitle":"CALYPSO_大象纹羊皮链条包\n进口意大利羊皮制作,手感柔软细腻,经典的Y家logo、链条及扣眼五金均采用巴金哑光五金,包袋开口处折叠后使用了磁性四合扣封口,密闭性及安全性一流;包内设有一个拉链内袋可放置手机及贵重物品,除此之外无多余内袋设计,使用起来随心所欲!\n尺寸:26×14×7cm\n型号:734153"},"price":null,"currency":"CNY","moq":1,"category":"ysl-women-bags","status":"active","alibaba_url":null,"images":["https://xcimg.szwego.com/img/f8c0bdc9/20240401/i1711964864_8826_4.jpg","https://xcimg.szwego.com/img/f8c0bdc9/20240401/i1711964864_7204_5.jpg","https://xcimg.szwego.com/img/f8c0bdc9/20240401/i1711964864_5408_7.jpg","https://xcimg.szwego.com/img/f8c0bdc9/20240401/i1711964864_2549_3.jpg","https://xcimg.szwego.com/img/f8c0bdc9/20240401/i1711964864_1577_6.jpg","https://xcimg.szwego.com/img/f8c0bdc9/20240401/i1711964864_3088_2.jpg","https://xcimg.szwego.com/img/f8c0bdc9/20240401/i1711964864_8257_8.jpg","https://xcimg.szwego.com/img/f8c0bdc9/20240401/i1711964864_9257_0.jpg","https://xcimg.szwego.com/img/f8c0bdc9/20240401/i1711964864_4291_1.jpg"],"created_at":"2026-05-20T04:01:39.113Z"},{"id":"item-e384b96ed904","sku":"_dgcgcyoVkc2qNawwyxQy-6r5jFchYiR3yLesaBQ","name_en":"Saint Laurent Women Bags","name_cn":"官网图_","specs":{"source":"wsxcme","sourceId":"_dgcgcyoVkc2qNawwyxQy-6r5jFchYiR3yLesaBQ","sourceTagId":47002761,"sourceTagName":"圣罗兰/女包","rawTitle":"官网图_"},"price":null,"currency":"CNY","moq":1,"category":"ysl-women-bags","status":"active","alibaba_url":null,"images":["https://xcimg.szwego.com/img/f8c0bdc9/20240904/i1725443934_5915_1.jpg","https://xcimg.szwego.com/img/f8c0bdc9/20240904/i1725443934_54_5.jpg","https://xcimg.szwego.com/img/f8c0bdc9/20240904/i1725443934_9603_0.jpg","https://xcimg.szwego.com/img/f8c0bdc9/20240904/i1725443934_9111_3.jpg","https://xcimg.szwego.com/img/f8c0bdc9/20240904/i1725443934_5476_2.jpg","https://xcimg.szwego.com/img/f8c0bdc9/20240904/i1725443934_152_4.jpg"],"created_at":"2026-05-20T04:01:39.103Z"},{"id":"item-609e324a240d","sku":"_druruhD6D1ze1Cnhay64Ph40YLAQZIn8uyuSsOA","name_en":"Saint Laurent Women Bags","name_cn":"大表姐同款#","specs":{"source":"wsxcme","sourceId":"_druruhD6D1ze1Cnhay64Ph40YLAQZIn8uyuSsOA","sourceTagId":47002761,"sourceTagName":"圣罗兰/女包","rawTitle":"大表姐同款#"},"price":null,"currency":"CNY","moq":1,"category":"ysl-women-bags","status":"active","alibaba_url":null,"images":["https://xcimg.szwego.com/img/f8c0bdc9/20240904/i1725443914_9777_0.jpg"],"created_at":"2026-05-20T04:01:39.093Z"},{"id":"item-692425f9bad5","sku":"_dmNmN26I1JuObC1uAaXiYc35e0d4TgeCIWhaaTA","name_en":"Saint Laurent Women Bags","name_cn":"温柔随性的奶茶色","specs":{"source":"wsxcme","sourceId":"_dmNmN26I1JuObC1uAaXiYc35e0d4TgeCIWhaaTA","sourceTagId":47002761,"sourceTagName":"圣罗兰/女包","rawTitle":"温柔随性的奶茶色"},"price":null,"currency":"CNY","moq":1,"category":"ysl-women-bags","status":"active","alibaba_url":null,"images":["https://xcimg.szwego.com/img/f8c0bdc9/20240904/i1725435124_6044_0.jpg","https://xcimg.szwego.com/img/f8c0bdc9/20240904/i1725435124_8629_3.jpg","https://xcimg.szwego.com/img/f8c0bdc9/20240904/i1725435124_3189_2.jpg","https://xcimg.szwego.com/img/f8c0bdc9/20240904/i1725435124_3150_4.jpg","https://xcimg.szwego.com/img/f8c0bdc9/20240904/i1725435124_4414_1.jpg"],"created_at":"2026-05-20T04:01:39.083Z"},{"id":"item-129b17d960a4","sku":"_dC-C-mWuRvjOU1_jE5ZnlB41ph8X9xAQwbc06qg","name_en":"细节po","name_cn":"细节po","specs":{"source":"wsxcme","sourceId":"_dC-C-mWuRvjOU1_jE5ZnlB41ph8X9xAQwbc06qg","sourceTagId":47002761,"sourceTagName":"圣罗兰/女包","rawTitle":"细节po"},"price":null,"currency":"CNY","moq":1,"category":"ysl-women-bags","status":"active","alibaba_url":null,"images":["https://xcimg.szwego.com/img/f8c0bdc9/20240904/i1725435108_7634_1.jpg","https://xcimg.szwego.com/img/f8c0bdc9/20240904/i1725435108_9879_3.jpg","https://xcimg.szwego.com/img/f8c0bdc9/20240904/i1725435108_7251_4.jpg","https://xcimg.szwego.com/img/f8c0bdc9/20240904/i1725435108_1318_5.jpg","https://xcimg.szwego.com/img/f8c0bdc9/20240904/i1725435108_3506_2.jpg","https://xcimg.szwego.com/img/f8c0bdc9/20240904/i1725435108_9027_0.jpg"],"created_at":"2026-05-20T04:01:39.073Z"},{"id":"item-3f82528d5935","sku":"_dD2D2Cdcf34Pq24YESfcgoDqYFaax4VoS6SuL9w","name_en":"Saint Laurent Women Bags","name_cn":"浅土黄·\nCALYPSO_小羊皮链条包\n进口意大利小羊皮制作,手感柔软细腻,经典的Y家logo、链条及扣眼五金均采用巴金哑光五金,包袋开口处折叠后使用了磁性四合扣封口,密闭性及安全性一流;包内设有一个拉链内袋可放置手机及贵重物品,除此之外无多余内袋设计,使用起来随心所欲!\n尺寸:26×14×7cm\n型号:734153","specs":{"source":"wsxcme","sourceId":"_dD2D2Cdcf34Pq24YESfcgoDqYFaax4VoS6SuL9w","sourceTagId":47002761,"sourceTagName":"圣罗兰/女包","modelNumber":"734153","dimensions":{"lengthCm":26,"heightCm":14,"widthCm":7},"rawTitle":"浅土黄·\nCALYPSO_小羊皮链条包\n进口意大利小羊皮制作,手感柔软细腻,经典的Y家logo、链条及扣眼五金均采用巴金哑光五金,包袋开口处折叠后使用了磁性四合扣封口,密闭性及安全性一流;包内设有一个拉链内袋可放置手机及贵重物品,除此之外无多余内袋设计,使用起来随心所欲!\n尺寸:26×14×7cm\n型号:734153"},"price":null,"currency":"CNY","moq":1,"category":"ysl-women-bags","status":"active","alibaba_url":null,"images":["https://xcimg.szwego.com/img/f8c0bdc9/20240904/i1725434971_4469_0.jpg","https://xcimg.szwego.com/img/f8c0bdc9/20240904/i1725434971_5556_1.jpg","https://xcimg.szwego.com/img/f8c0bdc9/20240904/i1725434971_3569_7.jpg","https://xcimg.szwego.com/img/f8c0bdc9/20240904/i1725434971_863_5.jpg","https://xcimg.szwego.com/img/f8c0bdc9/20240904/i1725434971_5820_4.jpg","https://xcimg.szwego.com/img/f8c0bdc9/20240904/i1725434971_5705_2.jpg","https://xcimg.szwego.com/img/f8c0bdc9/20240904/i1725434971_53_6.jpg","https://xcimg.szwego.com/img/f8c0bdc9/20240904/i1725434971_603_3.jpg","https://xcimg.szwego.com/img/f8c0bdc9/20240904/i1725434971_5661_8.jpg"],"created_at":"2026-05-20T04:01:39.063Z"},{"id":"item-3a82dfb84f28","sku":"_doqoqSSr52_bqjKcsyv-UE5s8lQ0SyYRjTUrzgA","name_en":"Saint Laurent Women Bags","name_cn":"金色链条拼皮肩带\n可以单肩or腋下背 很随性优雅","specs":{"source":"wsxcme","sourceId":"_doqoqSSr52_bqjKcsyv-UE5s8lQ0SyYRjTUrzgA","sourceTagId":47002761,"sourceTagName":"圣罗兰/女包","rawTitle":"金色链条拼皮肩带\n可以单肩or腋下背 很随性优雅"},"price":null,"currency":"CNY","moq":1,"category":"ysl-women-bags","status":"active","alibaba_url":null,"images":["https://xcimg.szwego.com/imgHD/f8c0bdc9/20250328/cmp_i1743147960804_6810_0_0.jpg","https://xcimg.szwego.com/imgHD/f8c0bdc9/20250328/cmp_i1743147960828_8346_0_1.jpg","https://xcimg.szwego.com/imgHD/f8c0bdc9/20250328/cmp_i1743147960785_1265_0_2.jpg","https://xcimg.szwego.com/imgHD/f8c0bdc9/20250328/cmp_i1743147960839_9597_0_3.jpg"],"created_at":"2026-05-20T04:01:39.053Z"},{"id":"item-30c703f27517","sku":"_dOoOo4bkk8Mw18Lmf7cA0d0YxIozofROmC0UUCA","name_en":"细节po","name_cn":"细节po","specs":{"source":"wsxcme","sourceId":"_dOoOo4bkk8Mw18Lmf7cA0d0YxIozofROmC0UUCA","sourceTagId":47002761,"sourceTagName":"圣罗兰/女包","rawTitle":"细节po"},"price":null,"currency":"CNY","moq":1,"category":"ysl-women-bags","status":"active","alibaba_url":null,"images":["https://xcimg.szwego.com/imgHD/f8c0bdc9/20250328/cmp_i1743147943911_6120_0_0.jpg","https://xcimg.szwego.com/imgHD/f8c0bdc9/20250328/cmp_i1743147943879_5782_0_1.jpg","https://xcimg.szwego.com/imgHD/f8c0bdc9/20250328/cmp_i1743147945542_249_0_2.jpg","https://xcimg.szwego.com/imgHD/f8c0bdc9/20250328/cmp_i1743147943940_5705_0_3.jpg","https://xcimg.szwego.com/imgHD/f8c0bdc9/20250328/cmp_i1743147943263_6312_0_4.jpg","https://xcimg.szwego.com/imgHD/f8c0bdc9/20250328/cmp_i1743147945063_7858_0_5.jpg","https://xcimg.szwego.com/imgHD/f8c0bdc9/20250328/cmp_i1743147942758_8229_0_6.jpg"],"created_at":"2026-05-20T04:01:39.043Z"},{"id":"item-8a90110aa2f9","sku":"_dIiIivW0-8BKmdcqvTjLdq5DYE46rpeIz78i_vw","name_en":"Saint Laurent Women Bags","name_cn":"官网图_","specs":{"source":"wsxcme","sourceId":"_dIiIivW0-8BKmdcqvTjLdq5DYE46rpeIz78i_vw","sourceTagId":47002761,"sourceTagName":"圣罗兰/女包","rawTitle":"官网图_"},"price":null,"currency":"CNY","moq":1,"category":"ysl-women-bags","status":"active","alibaba_url":null,"images":["https://xcimg.szwego.com/img/c8ebba50/20240326/i1711450813_2243_2.jpg","https://xcimg.szwego.com/img/c8ebba50/20240326/i1711450813_686_5.jpg","https://xcimg.szwego.com/img/c8ebba50/20240326/i1711450813_3142_1.jpg","https://xcimg.szwego.com/img/c8ebba50/20240326/i1711450813_5969_4.jpg","https://xcimg.szwego.com/img/c8ebba50/20240326/i1711450813_6258_0.jpg","https://xcimg.szwego.com/img/c8ebba50/20240326/i1711450813_8747_3.jpg"],"created_at":"2026-05-20T04:01:39.033Z"},{"id":"item-b7c3c86ddc55","sku":"_d8n8npKsh46cc6Nn2l1ML5LaKgViPs7mjvuJGXA","name_en":"Saint Laurent Women Bags","name_cn":"随拍上身参考_","specs":{"source":"wsxcme","sourceId":"_d8n8npKsh46cc6Nn2l1ML5LaKgViPs7mjvuJGXA","sourceTagId":47002761,"sourceTagName":"圣罗兰/女包","rawTitle":"随拍上身参考_"},"price":null,"currency":"CNY","moq":1,"category":"ysl-women-bags","status":"active","alibaba_url":null,"images":["https://xcimg.szwego.com/img/c8ebba50/20240326/i1711443539_4321_3.jpg","https://xcimg.szwego.com/img/c8ebba50/20240326/i1711443539_7290_2.jpg","https://xcimg.szwego.com/img/c8ebba50/20240326/i1711443539_5637_4.jpg","https://xcimg.szwego.com/img/c8ebba50/20240326/i1711443539_9236_0.jpg","https://xcimg.szwego.com/img/c8ebba50/20240326/i1711443539_399_1.jpg"],"created_at":"2026-05-20T04:01:39.023Z"},{"id":"item-1af792ad050b","sku":"_dnbnb-k9ronBZqqQzim0DMD1UvNe4sJw56Fu2FQ","name_en":"细节po","name_cn":"细节po","specs":{"source":"wsxcme","sourceId":"_dnbnb-k9ronBZqqQzim0DMD1UvNe4sJw56Fu2FQ","sourceTagId":47002761,"sourceTagName":"圣罗兰/女包","rawTitle":"细节po"},"price":null,"currency":"CNY","moq":1,"category":"ysl-women-bags","status":"active","alibaba_url":null,"images":["https://xcimg.szwego.com/img/c8ebba50/20240326/i1711443528_7473_0.jpg","https://xcimg.szwego.com/img/c8ebba50/20240326/i1711443529_7918_3.jpg","https://xcimg.szwego.com/img/c8ebba50/20240326/i1711443529_5739_2.jpg","https://xcimg.szwego.com/img/c8ebba50/20240326/i1711443529_7997_1.jpg"],"created_at":"2026-05-20T04:01:39.013Z"},{"id":"item-01c1ead46ff4","sku":"_djojo0Eb6ctBXwDyEEoFf-80BxV-hwv9M6kbimw","name_en":"CALYPSO_小羊皮链条包","name_cn":"CALYPSO_小羊皮链条包\n进口意大利小羊皮制作,手感柔软细腻,经典的Y家logo、链条及扣眼五金均采用巴金哑光五金,包袋开口处折叠后使用了磁性四合扣封口,密闭性及安全性一流;包内设有一个拉链内袋可放置手机及贵重物品,除此之外无多余内袋设计,使用起来随心所欲!\n尺寸:26×14×7cm\n型号:734153","specs":{"source":"wsxcme","sourceId":"_djojo0Eb6ctBXwDyEEoFf-80BxV-hwv9M6kbimw","sourceTagId":47002761,"sourceTagName":"圣罗兰/女包","modelNumber":"734153","dimensions":{"lengthCm":26,"heightCm":14,"widthCm":7},"rawTitle":"CALYPSO_小羊皮链条包\n进口意大利小羊皮制作,手感柔软细腻,经典的Y家logo、链条及扣眼五金均采用巴金哑光五金,包袋开口处折叠后使用了磁性四合扣封口,密闭性及安全性一流;包内设有一个拉链内袋可放置手机及贵重物品,除此之外无多余内袋设计,使用起来随心所欲!\n尺寸:26×14×7cm\n型号:734153"},"price":null,"currency":"CNY","moq":1,"category":"ysl-women-bags","status":"active","alibaba_url":null,"images":["https://xcimg.szwego.com/img/c8ebba50/20240326/i1711443501_4480_3.jpg","https://xcimg.szwego.com/img/c8ebba50/20240326/i1711443501_8998_1.jpg","https://xcimg.szwego.com/img/c8ebba50/20240326/i1711443501_5334_5.jpg","https://xcimg.szwego.com/img/c8ebba50/20240326/i1711443501_6172_4.jpg","https://xcimg.szwego.com/img/c8ebba50/20240326/i1711443501_907_8.jpg","https://xcimg.szwego.com/img/c8ebba50/20240326/i1711443501_9872_6.jpg","https://xcimg.szwego.com/img/c8ebba50/20240326/i1711443501_5965_2.jpg","https://xcimg.szwego.com/img/c8ebba50/20240326/i1711443501_14_7.jpg","https://xcimg.szwego.com/img/c8ebba50/20240326/i1711443501_4811_0.jpg"],"created_at":"2026-05-20T04:01:39.003Z"}],"page":69,"pageSize":24,"total":10075,"totalPages":420}
