{"items":[{"id":"item-e317c91a3158","sku":"_doPoPpR4oXrJSoz-SgEQsUjRh5wPG2VapLJrOqQ","name_en":"Detail photo","name_cn":"Detail photo","specs":{"source":"wsxcme","sourceId":"_doPoPpR4oXrJSoz-SgEQsUjRh5wPG2VapLJrOqQ","sourceTagId":47002761,"sourceTagName":"Saint Laurent/women's bag","rawTitle":"Detail photo"},"price":null,"currency":"CNY","moq":1,"category":"ysl-women-bags","status":"active","alibaba_url":null,"images":["https://xcimg.szwego.com/imgHD/f8c0bdc9/20260622/cmp_i1782121272490_5540_0_0.jpg","https://xcimg.szwego.com/imgHD/f8c0bdc9/20260622/cmp_i1782121275090_7325_0_1.jpg","https://xcimg.szwego.com/imgHD/f8c0bdc9/20260622/cmp_i1782121272059_6438_0_2.jpg","https://xcimg.szwego.com/imgHD/f8c0bdc9/20260622/cmp_i1782121273741_6097_0_3.jpg","https://xcimg.szwego.com/imgHD/f8c0bdc9/20260622/cmp_i1782121279267_469_0_4.jpg","https://xcimg.szwego.com/imgHD/f8c0bdc9/20260622/cmp_i1782121273612_6744_0_5.jpg","https://xcimg.szwego.com/imgHD/f8c0bdc9/20260622/cmp_i1782121272473_9590_0_6.jpg","https://xcimg.szwego.com/imgHD/f8c0bdc9/20260622/cmp_i1782121279410_8277_0_7.jpg","https://xcimg.szwego.com/imgHD/f8c0bdc9/20260622/cmp_i1782121279089_9414_0_8.jpg"],"created_at":"2026-06-29T10:48:59.449Z"},{"id":"item-e9142b41023d","sku":"_dbQbQ4gKdUGv9X3M2WuQRQgVEZZgtuq9gqnBGTg","name_en":"Coffee crocodile pattern with gold buckle","name_cn":"Coffee crocodile pattern with gold buckle\nsunset 22cm_\nAn incredibly classic model! Its enduring popularity proves its timeless appeal. High-quality Italian imported cowhide, ZP-molded hardware, and meticulous attention to every detail. We strive for the highest quality at an affordable price. Don't just dream about it—act now!\nDimensions: 22x8x16\nModel: 422906","specs":{"source":"wsxcme","sourceId":"_dbQbQ4gKdUGv9X3M2WuQRQgVEZZgtuq9gqnBGTg","sourceTagId":47002761,"sourceTagName":"Saint Laurent/women's bag","modelNumber":"422906","rawTitle":"Coffee crocodile pattern with gold buckle\nsunset 22cm_\nAn incredibly classic model! Its enduring popularity proves its timeless appeal. High-quality Italian imported cowhide, ZP-molded hardware, and meticulous attention to every detail. We strive for the highest quality at an affordable price. Don't just dream about it—act now!\nDimensions: 22x8x16\nModel: 422906"},"price":null,"currency":"CNY","moq":1,"category":"ysl-women-bags","status":"active","alibaba_url":null,"images":["https://xcimg.szwego.com/imgHD/f8c0bdc9/20260622/cmp_i1782121182138_7413_0_0.jpg","https://xcimg.szwego.com/imgHD/f8c0bdc9/20260622/cmp_i1782121185182_9160_0_1.jpg","https://xcimg.szwego.com/imgHD/f8c0bdc9/20260622/cmp_i1782121180012_6533_0_2.jpg","https://xcimg.szwego.com/imgHD/f8c0bdc9/20260622/cmp_i1782121184969_545_0_3.jpg","https://xcimg.szwego.com/imgHD/f8c0bdc9/20260622/cmp_i1782121185137_4918_0_4.jpg","https://xcimg.szwego.com/imgHD/f8c0bdc9/20260622/cmp_i1782121183397_3232_0_5.jpg","https://xcimg.szwego.com/imgHD/f8c0bdc9/20260622/cmp_i1782121180108_2879_0_6.jpg","https://xcimg.szwego.com/imgHD/f8c0bdc9/20260622/cmp_i1782121182231_3936_0_7.jpg","https://xcimg.szwego.com/imgHD/f8c0bdc9/20260622/cmp_i1782121182248_7861_0_8.jpg"],"created_at":"2026-06-29T10:48:59.439Z"},{"id":"item-dc757675984e","sku":"_dxJxJf1DH12_Np2Pz7zEzGKT5Y95hYQhZYi9lDw","name_en":"Official website image","name_cn":"Official website image","specs":{"source":"wsxcme","sourceId":"_dxJxJf1DH12_Np2Pz7zEzGKT5Y95hYQhZYi9lDw","sourceTagId":47002761,"sourceTagName":"Saint Laurent/women's bag","rawTitle":"Official website image"},"price":null,"currency":"CNY","moq":1,"category":"ysl-women-bags","status":"active","alibaba_url":null,"images":["https://xcimg.szwego.com/imgHD/f8c0bdc9/20260622/cmp_i1782124271505_1367_0_0.jpg","https://xcimg.szwego.com/imgHD/f8c0bdc9/20260622/cmp_i1782124271218_5712_0_1.jpg","https://xcimg.szwego.com/imgHD/f8c0bdc9/20260622/cmp_i1782124271218_5287_0_2.jpg","https://xcimg.szwego.com/imgHD/f8c0bdc9/20260622/cmp_i1782124271220_535_0_3.jpg","https://xcimg.szwego.com/imgHD/f8c0bdc9/20260622/cmp_i1782124271504_8487_0_4.jpg","https://xcimg.szwego.com/imgHD/f8c0bdc9/20260622/cmp_i1782124271218_1902_0_5.jpg","https://xcimg.szwego.com/imgHD/f8c0bdc9/20260622/cmp_i1782124271219_3117_0_6.jpg"],"created_at":"2026-06-29T10:48:59.429Z"},{"id":"item-d8f00570dc64","sku":"_dsvsvGvNWUD6xc79GHNtddUrN77RIVaMWLnJ8mA","name_en":"Orange outfit🍊","name_cn":"Orange outfit🍊\nWarm and energetic\nBright for spring/summer, cozy for autumn/winter; suitable for all seasons","specs":{"source":"wsxcme","sourceId":"_dsvsvGvNWUD6xc79GHNtddUrN77RIVaMWLnJ8mA","sourceTagId":47002761,"sourceTagName":"Saint Laurent/women's bag","rawTitle":"Orange outfit🍊\nWarm and energetic\nBright for spring/summer, cozy for autumn/winter; suitable for all seasons"},"price":null,"currency":"CNY","moq":1,"category":"ysl-women-bags","status":"active","alibaba_url":null,"images":["https://xcimg.szwego.com/imgHD/f8c0bdc9/20260622/cmp_i1782119496320_7226_0_0.jpg","https://xcimg.szwego.com/imgHD/f8c0bdc9/20260622/cmp_i1782119492513_9012_0_1.jpg","https://xcimg.szwego.com/imgHD/f8c0bdc9/20260622/cmp_i1782119490879_9570_0_2.jpg","https://xcimg.szwego.com/imgHD/f8c0bdc9/20260622/cmp_i1782119490781_1236_0_3.jpg","https://xcimg.szwego.com/imgHD/f8c0bdc9/20260622/cmp_i1782119490882_1113_0_4.jpg","https://xcimg.szwego.com/imgHD/f8c0bdc9/20260622/cmp_i1782119491505_4857_0_5.jpg"],"created_at":"2026-06-29T10:48:59.419Z"},{"id":"item-998d2a50738f","sku":"_dMEMEGeln1N3ueoAdk5--M_xfeo350aIxBwdnnw","name_en":"Detail photo","name_cn":"Detail photo","specs":{"source":"wsxcme","sourceId":"_dMEMEGeln1N3ueoAdk5--M_xfeo350aIxBwdnnw","sourceTagId":47002761,"sourceTagName":"Saint Laurent/women's bag","rawTitle":"Detail photo"},"price":null,"currency":"CNY","moq":1,"category":"ysl-women-bags","status":"active","alibaba_url":null,"images":["https://xcimg.szwego.com/imgHD/f8c0bdc9/20260622/cmp_i1782119392389_3872_0_0.jpg","https://xcimg.szwego.com/imgHD/f8c0bdc9/20260622/cmp_i1782119395073_7185_0_1.jpg","https://xcimg.szwego.com/imgHD/f8c0bdc9/20260622/cmp_i1782119393629_2705_0_8.jpg","https://xcimg.szwego.com/imgHD/f8c0bdc9/20260622/cmp_i1782119396215_184_0_2.jpg","https://xcimg.szwego.com/imgHD/f8c0bdc9/20260622/cmp_i1782119392428_3455_0_3.jpg","https://xcimg.szwego.com/imgHD/f8c0bdc9/20260622/cmp_i1782119395000_1198_0_4.jpg","https://xcimg.szwego.com/imgHD/f8c0bdc9/20260622/cmp_i1782119391771_5905_0_5.jpg","https://xcimg.szwego.com/imgHD/f8c0bdc9/20260622/cmp_i1782119391745_2935_0_6.jpg","https://xcimg.szwego.com/imgHD/f8c0bdc9/20260622/cmp_i1782119396032_243_0_7.jpg"],"created_at":"2026-06-29T10:48:59.409Z"},{"id":"item-a423847323ea","sku":"_dqHqHLE_1t1Lu7Y3Vpw_wgIHJ-061x_pbHrI_Sg","name_en":"Orange gold buckle·24cm","name_cn":"Orange gold buckle·24cm\nSOLFERINO BOX·Shoulder bag\nThis shoulder bag is lightweight and exquisite. Italian imported box calf leather, LE CASSANDRE lock hardware, sheepskin lining, adjustable shoulder strap for easy shoulder carrying! A versatile bag with a vintage new style, elegant and sophisticated!","specs":{"source":"wsxcme","sourceId":"_dqHqHLE_1t1Lu7Y3Vpw_wgIHJ-061x_pbHrI_Sg","sourceTagId":47002761,"sourceTagName":"Saint Laurent/women's bag","modelNumber":"832330","dimensions":{"lengthCm":24.5,"heightCm":15,"widthCm":8.5},"rawTitle":"Orange gold buckle·24cm\nSOLFERINO BOX·Shoulder bag\nThis shoulder bag is lightweight and exquisite. Italian imported box calf leather, LE CASSANDRE lock hardware, sheepskin lining, adjustable shoulder strap for easy shoulder carrying! A versatile bag with a vintage new style, elegant and sophisticated!"},"price":null,"currency":"CNY","moq":1,"category":"ysl-women-bags","status":"active","alibaba_url":null,"images":["https://xcimg.szwego.com/imgHD/f8c0bdc9/20260622/cmp_i1782119350801_5214_0_0.jpg","https://xcimg.szwego.com/imgHD/f8c0bdc9/20260622/cmp_i1782119350910_3031_0_1.jpg","https://xcimg.szwego.com/imgHD/f8c0bdc9/20260622/cmp_i1782119350851_8800_0_2.jpg","https://xcimg.szwego.com/imgHD/f8c0bdc9/20260622/cmp_i1782119354100_8254_0_3.jpg","https://xcimg.szwego.com/imgHD/f8c0bdc9/20260622/cmp_i1782119354074_3860_0_4.jpg","https://xcimg.szwego.com/imgHD/f8c0bdc9/20260622/cmp_i1782119350867_3822_0_5.jpg","https://xcimg.szwego.com/imgHD/f8c0bdc9/20260622/cmp_i1782119349405_9881_0_6.jpg","https://xcimg.szwego.com/imgHD/f8c0bdc9/20260622/cmp_i1782119353183_2637_0_7.jpg","https://xcimg.szwego.com/imgHD/f8c0bdc9/20260622/cmp_i1782119354263_2656_0_8.jpg"],"created_at":"2026-06-29T10:48:59.399Z"},{"id":"item-ec4b191fe514","sku":"_dr3r31-2ezRl3K-WH_bOZe-e_JXFhrayQbo3JHw","name_en":"SOLFERINO BOX·Shoulder bag","name_cn":"SOLFERINO BOX·Shoulder bag\nGreen\n19/24.5cm\nCollection","specs":{"source":"wsxcme","sourceId":"_dr3r31-2ezRl3K-WH_bOZe-e_JXFhrayQbo3JHw","sourceTagId":47002761,"sourceTagName":"Saint Laurent/women's bag","rawTitle":"SOLFERINO BOX·Shoulder bag\nGreen\n19/24.5cm\nCollection"},"price":null,"currency":"CNY","moq":1,"category":"ysl-women-bags","status":"active","alibaba_url":null,"images":["https://xcimg.szwego.com/imgHD/f8c0bdc9/20260622/cmp_i1782118616961_5884_0_0.jpg","https://xcimg.szwego.com/imgHD/f8c0bdc9/20260622/cmp_i1782118614762_7772_0_1.jpg","https://xcimg.szwego.com/imgHD/f8c0bdc9/20260622/cmp_i1782118614625_4251_0_2.jpg","https://xcimg.szwego.com/imgHD/f8c0bdc9/20260622/cmp_i1782118614799_512_0_3.jpg","https://xcimg.szwego.com/imgHD/f8c0bdc9/20260622/cmp_i1782118161315_1768_0_3.jpg","https://xcimg.szwego.com/imgHD/f8c0bdc9/20260622/cmp_i1782118437228_6278_0_4.jpg"],"created_at":"2026-06-29T10:48:59.389Z"},{"id":"item-bc1d0565a3ca","sku":"_dxaxah5K5b8FKdjEUM2nFXRVkyr3SoQit0BqjKw","name_en":"Official website image","name_cn":"Official website image","specs":{"source":"wsxcme","sourceId":"_dxaxah5K5b8FKdjEUM2nFXRVkyr3SoQit0BqjKw","sourceTagId":47002761,"sourceTagName":"Saint Laurent/women's bag","rawTitle":"Official website image"},"price":null,"currency":"CNY","moq":1,"category":"ysl-women-bags","status":"active","alibaba_url":null,"images":["https://xcimg.szwego.com/imgHD/f8c0bdc9/20260622/cmp_i1782124240579_9654_0_0.jpg","https://xcimg.szwego.com/imgHD/f8c0bdc9/20260622/cmp_i1782124240579_6214_0_1.jpg","https://xcimg.szwego.com/imgHD/f8c0bdc9/20260622/cmp_i1782124240578_8160_0_2.jpg","https://xcimg.szwego.com/imgHD/f8c0bdc9/20260622/cmp_i1782124240580_6792_0_3.jpg","https://xcimg.szwego.com/imgHD/f8c0bdc9/20260622/cmp_i1782124240577_4828_0_4.jpg"],"created_at":"2026-06-29T10:48:59.379Z"},{"id":"item-a2e56f5cb916","sku":"_dncncY7xAh2q0MecrTIL7wNQohqg0_-s6SUbtyQ","name_en":"Solferino Box Shoulder bag","name_cn":"Solferino Box Shoulder bag\nLightweight, exquisite, and stylish. Carry it to instantly boost your aura","specs":{"source":"wsxcme","sourceId":"_dncncY7xAh2q0MecrTIL7wNQohqg0_-s6SUbtyQ","sourceTagId":47002761,"sourceTagName":"Saint Laurent/women's bag","rawTitle":"Solferino Box Shoulder bag\nLightweight, exquisite, and stylish. Carry it to instantly boost your aura"},"price":null,"currency":"CNY","moq":1,"category":"ysl-women-bags","status":"active","alibaba_url":null,"images":["https://xcimg.szwego.com/imgHD/f8c0bdc9/20260622/cmp_i1782118434076_1861_0_0.jpg","https://xcimg.szwego.com/imgHD/f8c0bdc9/20260622/cmp_i1782118433940_5835_0_1.jpg","https://xcimg.szwego.com/imgHD/f8c0bdc9/20260622/cmp_i1782118434064_6907_0_2.jpg","https://xcimg.szwego.com/imgHD/f8c0bdc9/20260622/cmp_i1782118431895_8329_0_3.jpg","https://xcimg.szwego.com/imgHD/f8c0bdc9/20260622/cmp_i1782118437228_6278_0_4.jpg","https://xcimg.szwego.com/imgHD/f8c0bdc9/20260622/cmp_i1782118432796_4140_0_5.jpg"],"created_at":"2026-06-29T10:48:59.369Z"},{"id":"item-b3725660ea16","sku":"_dwFwFk5AsbXCxz9ZnS21wkrjx1j9G06yaNN8o6Q","name_en":"Detail photo","name_cn":"Detail photo","specs":{"source":"wsxcme","sourceId":"_dwFwFk5AsbXCxz9ZnS21wkrjx1j9G06yaNN8o6Q","sourceTagId":47002761,"sourceTagName":"Saint Laurent/women's bag","rawTitle":"Detail photo"},"price":null,"currency":"CNY","moq":1,"category":"ysl-women-bags","status":"active","alibaba_url":null,"images":["https://xcimg.szwego.com/imgHD/f8c0bdc9/20260622/cmp_i1782118406970_3461_0_0.jpg","https://xcimg.szwego.com/imgHD/f8c0bdc9/20260622/cmp_i1782118408236_4308_0_1.jpg","https://xcimg.szwego.com/imgHD/f8c0bdc9/20260622/cmp_i1782118408207_7238_0_2.jpg","https://xcimg.szwego.com/imgHD/f8c0bdc9/20260622/cmp_i1782118404497_528_0_8.jpg","https://xcimg.szwego.com/imgHD/f8c0bdc9/20260622/cmp_i1782118408303_5761_0_3.jpg","https://xcimg.szwego.com/imgHD/f8c0bdc9/20260622/cmp_i1782118402778_2425_0_4.jpg","https://xcimg.szwego.com/imgHD/f8c0bdc9/20260622/cmp_i1782118404312_7892_0_5.jpg","https://xcimg.szwego.com/imgHD/f8c0bdc9/20260622/cmp_i1782118404436_7797_0_6.jpg","https://xcimg.szwego.com/imgHD/f8c0bdc9/20260622/cmp_i1782118404292_6189_0_7.jpg"],"created_at":"2026-06-29T10:48:59.359Z"},{"id":"item-a471ac9796f2","sku":"_da4a4ZwZgNIjQ8lSzvge4WZg3x7xx4nhlsSM7OQ","name_en":"Vintage hardware craftsmanship","name_cn":"Vintage hardware craftsmanship\nThe Solferino bag clasp design is very ingenious","specs":{"source":"wsxcme","sourceId":"_da4a4ZwZgNIjQ8lSzvge4WZg3x7xx4nhlsSM7OQ","sourceTagId":47002761,"sourceTagName":"Saint Laurent/women's bag","modelNumber":"843524","dimensions":{"lengthCm":19,"heightCm":12,"widthCm":7.5},"rawTitle":"Vintage hardware craftsmanship\nThe Solferino bag clasp design is very ingenious"},"price":null,"currency":"CNY","moq":1,"category":"ysl-women-bags","status":"active","alibaba_url":null,"images":["https://xcimg.szwego.com/imgHD/f8c0bdc9/20260622/cmp_i1782118363571_4762_0_0.jpg","https://xcimg.szwego.com/imgHD/f8c0bdc9/20260622/cmp_i1782118359768_8254_0_1.jpg","https://xcimg.szwego.com/imgHD/f8c0bdc9/20260622/cmp_i1782118359799_90_0_2.jpg","https://xcimg.szwego.com/imgHD/f8c0bdc9/20260622/cmp_i1782118363538_8295_0_3.jpg","https://xcimg.szwego.com/imgHD/f8c0bdc9/20260622/cmp_i1782118363560_3184_0_4.jpg","https://xcimg.szwego.com/imgHD/f8c0bdc9/20260622/cmp_i1782118362144_1773_0_5.jpg","https://xcimg.szwego.com/imgHD/f8c0bdc9/20260622/cmp_i1782118359986_2566_0_6.jpg","https://xcimg.szwego.com/imgHD/f8c0bdc9/20260622/cmp_i1782118360037_4419_0_7.jpg","https://xcimg.szwego.com/imgHD/f8c0bdc9/20260622/cmp_i1782118359948_5694_0_8.jpg"],"created_at":"2026-06-29T10:48:59.349Z"},{"id":"item-09549424e5fa","sku":"_dmRmRm_R7y3H4FDciOfudNj1_UuK9SoSU2KZYNg","name_en":"Vintage antique hardware","name_cn":"Vintage antique hardware\nThe Solferino bag clasp design is very ingenious","specs":{"source":"wsxcme","sourceId":"_dmRmRm_R7y3H4FDciOfudNj1_UuK9SoSU2KZYNg","sourceTagId":47002761,"sourceTagName":"Saint Laurent/women's bag","rawTitle":"Vintage antique hardware\nThe Solferino bag clasp design is very ingenious"},"price":null,"currency":"CNY","moq":1,"category":"ysl-women-bags","status":"active","alibaba_url":null,"images":["https://xcimg.szwego.com/imgHD/f8c0bdc9/20260622/cmp_i1782118163100_1269_0_0.jpg","https://xcimg.szwego.com/imgHD/f8c0bdc9/20260622/cmp_i1782118162918_1130_0_1.jpg","https://xcimg.szwego.com/imgHD/f8c0bdc9/20260622/cmp_i1782118164995_4909_0_5.jpg","https://xcimg.szwego.com/imgHD/f8c0bdc9/20260622/cmp_i1782118161197_4275_0_2.jpg","https://xcimg.szwego.com/imgHD/f8c0bdc9/20260622/cmp_i1782118161315_1768_0_3.jpg","https://xcimg.szwego.com/imgHD/f8c0bdc9/20260622/cmp_i1782118161783_7307_0_4.jpg"],"created_at":"2026-06-29T10:48:59.339Z"},{"id":"item-088b38312a27","sku":"_djUjUH-TvdEKBs_PAoHZxv0QoxjB-hkTKNgPXlQ","name_en":"Detail photo","name_cn":"Detail photo","specs":{"source":"wsxcme","sourceId":"_djUjUH-TvdEKBs_PAoHZxv0QoxjB-hkTKNgPXlQ","sourceTagId":47002761,"sourceTagName":"Saint Laurent/women's bag","rawTitle":"Detail photo"},"price":null,"currency":"CNY","moq":1,"category":"ysl-women-bags","status":"active","alibaba_url":null,"images":["https://xcimg.szwego.com/imgHD/f8c0bdc9/20260622/cmp_i1782118132193_449_0_0.jpg","https://xcimg.szwego.com/imgHD/f8c0bdc9/20260622/cmp_i1782118132421_4100_0_1.jpg","https://xcimg.szwego.com/imgHD/f8c0bdc9/20260622/cmp_i1782118133802_3195_0_2.jpg","https://xcimg.szwego.com/imgHD/f8c0bdc9/20260622/cmp_i1782118136567_3702_0_3.jpg","https://xcimg.szwego.com/imgHD/f8c0bdc9/20260622/cmp_i1782118133830_9280_0_4.jpg","https://xcimg.szwego.com/imgHD/f8c0bdc9/20260622/cmp_i1782118136344_5156_0_5.jpg","https://xcimg.szwego.com/imgHD/f8c0bdc9/20260622/cmp_i1782118136472_7160_0_6.jpg","https://xcimg.szwego.com/imgHD/f8c0bdc9/20260622/cmp_i1782118133603_3911_0_7.jpg"],"created_at":"2026-06-29T10:48:59.329Z"},{"id":"item-39e76df80172","sku":"_dkfkfKs5Z4o17joOe6F7bk8YoZ-DR4al0Ptr4Mw","name_en":"Gold buckle·24cm","name_cn":"Gold buckle·24cm\nSOLFERINO BOX·Shoulder bag\nThis shoulder bag is lightweight and exquisite. Italian imported box calf leather, LE CASSANDRE hardware clasp, sheepskin lining, adjustable shoulder strap for easy shoulder carrying! A versatile bag in a vintage new style, elegant and sophisticated!\nStyle No.:832330\nDimensions:24.5×15×8.5cm","specs":{"source":"wsxcme","sourceId":"_dkfkfKs5Z4o17joOe6F7bk8YoZ-DR4al0Ptr4Mw","sourceTagId":47002761,"sourceTagName":"Saint Laurent/women's bag","modelNumber":"832330","dimensions":{"lengthCm":24.5,"heightCm":15,"widthCm":8.5},"rawTitle":"Gold buckle·24cm\nSOLFERINO BOX·Shoulder bag\nThis shoulder bag is lightweight and exquisite. Italian imported box calf leather, LE CASSANDRE hardware clasp, sheepskin lining, adjustable shoulder strap for easy shoulder carrying! A versatile bag in a vintage new style, elegant and sophisticated!\nStyle No.:832330\nDimensions:24.5×15×8.5cm"},"price":null,"currency":"CNY","moq":1,"category":"ysl-women-bags","status":"active","alibaba_url":null,"images":["https://xcimg.szwego.com/imgHD/f8c0bdc9/20260622/cmp_i1782118085603_9977_0_0.jpg","https://xcimg.szwego.com/imgHD/f8c0bdc9/20260622/cmp_i1782118085578_6031_0_1.jpg","https://xcimg.szwego.com/imgHD/f8c0bdc9/20260622/cmp_i1782118083039_1414_0_2.jpg","https://xcimg.szwego.com/imgHD/f8c0bdc9/20260622/cmp_i1782118082756_7119_0_3.jpg","https://xcimg.szwego.com/imgHD/f8c0bdc9/20260622/cmp_i1782118080757_8243_0_4.jpg","https://xcimg.szwego.com/imgHD/f8c0bdc9/20260622/cmp_i1782118082889_5576_0_8.jpg","https://xcimg.szwego.com/imgHD/f8c0bdc9/20260622/cmp_i1782118084732_4617_0_5.jpg","https://xcimg.szwego.com/imgHD/f8c0bdc9/20260622/cmp_i1782118085788_5077_0_6.jpg","https://xcimg.szwego.com/imgHD/f8c0bdc9/20260622/cmp_i1782118082824_8473_0_7.jpg"],"created_at":"2026-06-29T10:48:59.319Z"},{"id":"item-13fd7ea44cfd","sku":"_dpIpI45vGJW3aTL88pxGEiKcZfQcrQ9TImE6G5w","name_en":"The crocodile envelope bag is truly beautiful!","name_cn":"The crocodile envelope bag is truly beautiful!","specs":{"source":"wsxcme","sourceId":"_dpIpI45vGJW3aTL88pxGEiKcZfQcrQ9TImE6G5w","sourceTagId":47002761,"sourceTagName":"Saint Laurent/women's bag","rawTitle":"The crocodile envelope bag is truly beautiful!"},"price":null,"currency":"CNY","moq":1,"category":"ysl-women-bags","status":"active","alibaba_url":null,"images":["https://xcimg.szwego.com/20230720/i1689849515_245_0.jpg","https://xcimg.szwego.com/20230720/i1689849515_906_1.jpg","https://xcimg.szwego.com/20230720/i1689849515_4027_2.jpg","https://xcimg.szwego.com/20230720/i1689849515_8299_3.jpg","https://xcimg.szwego.com/20230720/i1689849515_9621_4.jpg","https://xcimg.szwego.com/20230720/i1689849515_8679_5.jpg"],"created_at":"2026-06-29T10:48:59.309Z"},{"id":"item-260d9ce088eb","sku":"_dQOQOeAYyYsVeJAdurlWyKqlLn0brqVEgcuVDcQ","name_en":"Vintage, stylish, and exquisite","name_cn":"Vintage, stylish, and exquisite","specs":{"source":"wsxcme","sourceId":"_dQOQOeAYyYsVeJAdurlWyKqlLn0brqVEgcuVDcQ","sourceTagId":47002761,"sourceTagName":"Saint Laurent/women's bag","rawTitle":"Vintage, stylish, and exquisite"},"price":null,"currency":"CNY","moq":1,"category":"ysl-women-bags","status":"active","alibaba_url":null,"images":["https://xcimg.szwego.com/20230720/i1689849444_1977_0.jpg","https://xcimg.szwego.com/20230720/i1689849444_8627_1.jpg","https://xcimg.szwego.com/20230720/i1689849444_8285_2.jpg","https://xcimg.szwego.com/20230720/i1689849444_285_3.jpg","https://xcimg.szwego.com/20230720/i1689849444_3515_4.jpg","https://xcimg.szwego.com/20230720/i1689849444_6641_5.jpg","https://xcimg.szwego.com/20230720/i1689849444_6413_6.jpg","https://xcimg.szwego.com/20230720/i1689849444_7431_7.jpg"],"created_at":"2026-06-29T10:48:59.299Z"},{"id":"item-b64a2b52fdf0","sku":"_do_o_r3esZ0tG_PGAc_Wfuf_u2R0CQ1_bw0ebqw","name_en":"Zp _","name_cn":"Zp _","specs":{"source":"wsxcme","sourceId":"_do_o_r3esZ0tG_PGAc_Wfuf_u2R0CQ1_bw0ebqw","sourceTagId":47002761,"sourceTagName":"Saint Laurent/women's bag","rawTitle":"Zp _"},"price":null,"currency":"CNY","moq":1,"category":"ysl-women-bags","status":"active","alibaba_url":null,"images":["https://xcimg.szwego.com/20230720/i1689849328_4856_0.jpg","https://xcimg.szwego.com/20230720/i1689849328_2306_1.jpg","https://xcimg.szwego.com/20230720/i1689849328_260_2.jpg","https://xcimg.szwego.com/20230720/i1689849328_2728_3.jpg","https://xcimg.szwego.com/20230720/i1689849328_7167_4.jpg","https://xcimg.szwego.com/20230720/i1689849328_1717_5.jpg","https://xcimg.szwego.com/20230720/i1689849328_5551_6.jpg"],"created_at":"2026-06-29T10:48:59.289Z"},{"id":"item-c99a2ed121b7","sku":"_dk7k7RH9HRPOgDLSwHmnEtnxrTYnBonQ9VNDQPA","name_en":"Official website image_","name_cn":"Official website image_","specs":{"source":"wsxcme","sourceId":"_dk7k7RH9HRPOgDLSwHmnEtnxrTYnBonQ9VNDQPA","sourceTagId":47002761,"sourceTagName":"Saint Laurent/women's bag","rawTitle":"Official website image_"},"price":null,"currency":"CNY","moq":1,"category":"ysl-women-bags","status":"active","alibaba_url":null,"images":["https://xcimg.szwego.com/20230720/i1689849279_8170_0.jpg","https://xcimg.szwego.com/20230720/i1689849279_1231_1.jpg","https://xcimg.szwego.com/20230720/i1689849279_2949_2.jpg","https://xcimg.szwego.com/20230720/i1689849279_1994_3.jpg","https://xcimg.szwego.com/20230720/i1689849279_3707_4.jpg"],"created_at":"2026-06-29T10:48:59.279Z"},{"id":"item-3d8c77fc8e46","sku":"_drvrvYf7sehmWuSVN9yXb7YvGw5Fy3Dulus6M1Q","name_en":"Official website image_","name_cn":"Official website image_","specs":{"source":"wsxcme","sourceId":"_drvrvYf7sehmWuSVN9yXb7YvGw5Fy3Dulus6M1Q","sourceTagId":47002761,"sourceTagName":"Saint Laurent/women's bag","rawTitle":"Official website image_"},"price":null,"currency":"CNY","moq":1,"category":"ysl-women-bags","status":"active","alibaba_url":null,"images":["https://xcimg.szwego.com/20230720/i1689849264_5135_0.jpg","https://xcimg.szwego.com/20230720/i1689849264_2417_1.jpg","https://xcimg.szwego.com/20230720/i1689849264_4706_2.jpg","https://xcimg.szwego.com/20230720/i1689849264_8335_3.jpg","https://xcimg.szwego.com/20230720/i1689849264_5378_4.jpg","https://xcimg.szwego.com/20230720/i1689849264_7728_5.jpg"],"created_at":"2026-06-29T10:48:59.269Z"},{"id":"item-9488a4aa455b","sku":"_dkFkFBFw2yRrVN36HRL8luYLkvbyrPyYHNSoEpA","name_en":"Concise lines outline the bag's silhouette, exuding an elegant yet stylish temperament","name_cn":"Concise lines outline the bag's silhouette, exuding an elegant yet stylish temperament","specs":{"source":"wsxcme","sourceId":"_dkFkFBFw2yRrVN36HRL8luYLkvbyrPyYHNSoEpA","sourceTagId":47002761,"sourceTagName":"Saint Laurent/women's bag","rawTitle":"Concise lines outline the bag's silhouette, exuding an elegant yet stylish temperament"},"price":null,"currency":"CNY","moq":1,"category":"ysl-women-bags","status":"active","alibaba_url":null,"images":["https://xcimg.szwego.com/imgHD/f8c0bdc9/20250328/cmp_i1743146685200_6178_0_0.jpg","https://xcimg.szwego.com/imgHD/f8c0bdc9/20250328/cmp_i1743146685249_9308_0_1.jpg","https://xcimg.szwego.com/imgHD/f8c0bdc9/20250328/cmp_i1743146685255_3382_0_2.jpg"],"created_at":"2026-06-29T10:48:59.259Z"},{"id":"item-bb66478f5141","sku":"_d2S2SVcKfnmX5kKsnHw40XQTg_pcXBnd83k6rgA","name_en":"Detail photo","name_cn":"Detail photo","specs":{"source":"wsxcme","sourceId":"_d2S2SVcKfnmX5kKsnHw40XQTg_pcXBnd83k6rgA","sourceTagId":47002761,"sourceTagName":"Saint Laurent/women's bag","rawTitle":"Detail photo"},"price":null,"currency":"CNY","moq":1,"category":"ysl-women-bags","status":"active","alibaba_url":null,"images":["https://xcimg.szwego.com/imgHD/f8c0bdc9/20250328/cmp_i1743146672079_1391_0_0.jpg","https://xcimg.szwego.com/imgHD/f8c0bdc9/20250328/cmp_i1743146672020_7549_0_1.jpg","https://xcimg.szwego.com/imgHD/f8c0bdc9/20250328/cmp_i1743146675666_6512_0_2.jpg","https://xcimg.szwego.com/imgHD/f8c0bdc9/20250328/cmp_i1743146672848_6631_0_3.jpg","https://xcimg.szwego.com/imgHD/f8c0bdc9/20250328/cmp_i1743146675589_3018_0_4.jpg","https://xcimg.szwego.com/imgHD/f8c0bdc9/20250328/cmp_i1743146672342_2763_0_5.jpg","https://xcimg.szwego.com/imgHD/f8c0bdc9/20250328/cmp_i1743146672056_9269_0_6.jpg","https://xcimg.szwego.com/imgHD/f8c0bdc9/20250328/cmp_i1743146675720_6493_0_7.jpg"],"created_at":"2026-06-29T10:48:59.249Z"},{"id":"item-54b35526dde8","sku":"_d9k9kRgpOEZ_V6ZtXb5TVFszmfL4gwNs8Vmpsnw","name_en":"Black crocodile gold buckle·","name_cn":"Black crocodile gold buckle·\nCASSANDRE _Chain Bag A super practical small bag, Italian imported original crocodile cowhide, full leather inside and out. Classic metal logo highlights personality, flip-top design ensures security. Removable shoulder strap, bag features ten card slots, one bill compartment, two compartments, one zippered interior pocket, fits everything!\nModel: 743364\nSize: 23x14x3cm\nShoulder strap length: 47cm","specs":{"source":"wsxcme","sourceId":"_d9k9kRgpOEZ_V6ZtXb5TVFszmfL4gwNs8Vmpsnw","sourceTagId":47002761,"sourceTagName":"Saint Laurent/women's bag","modelNumber":"743364","dimensions":{"lengthCm":23,"heightCm":14,"widthCm":3},"rawTitle":"Black crocodile gold buckle·\nCASSANDRE _Chain Bag A super practical small bag, Italian imported original crocodile cowhide, full leather inside and out. Classic metal logo highlights personality, flip-top design ensures security. Removable shoulder strap, bag features ten card slots, one bill compartment, two compartments, one zippered interior pocket, fits everything!\nModel: 743364\nSize: 23x14x3cm\nShoulder strap length: 47cm"},"price":null,"currency":"CNY","moq":1,"category":"ysl-women-bags","status":"active","alibaba_url":null,"images":["https://xcimg.szwego.com/imgHD/f8c0bdc9/20250328/cmp_i1743146638962_3282_0_0.jpg","https://xcimg.szwego.com/imgHD/f8c0bdc9/20250328/cmp_i1743146636669_1236_0_1.jpg","https://xcimg.szwego.com/imgHD/f8c0bdc9/20250328/cmp_i1743146638459_2139_0_2.jpg","https://xcimg.szwego.com/imgHD/f8c0bdc9/20250328/cmp_i1743146636015_510_0_3.jpg","https://xcimg.szwego.com/imgHD/f8c0bdc9/20250328/cmp_i1743146638890_592_0_4.jpg","https://xcimg.szwego.com/imgHD/f8c0bdc9/20250328/cmp_i1743146636652_9258_0_5.jpg","https://xcimg.szwego.com/imgHD/f8c0bdc9/20250328/cmp_i1743146636066_7484_0_6.jpg","https://xcimg.szwego.com/imgHD/f8c0bdc9/20250328/cmp_i1743146638466_3698_0_7.jpg","https://xcimg.szwego.com/imgHD/f8c0bdc9/20250328/cmp_i1743146636711_9377_0_8.jpg"],"created_at":"2026-06-29T10:48:59.239Z"},{"id":"item-dc8f5ba5c427","sku":"_d_7_79Iw3AK7He5n230HgttqlWGc1v6OsqwEiNw","name_en":"Styling reference","name_cn":"Styling reference","specs":{"source":"wsxcme","sourceId":"_d_7_79Iw3AK7He5n230HgttqlWGc1v6OsqwEiNw","sourceTagId":47002761,"sourceTagName":"Saint Laurent/women's bag","rawTitle":"Styling reference"},"price":null,"currency":"CNY","moq":1,"category":"ysl-women-bags","status":"active","alibaba_url":null,"images":["https://xcimg.szwego.com/img/f8c0bdc9/20250107/i1736242432947_6078_0_0.jpg","https://xcimg.szwego.com/img/f8c0bdc9/20250107/i1736242432693_5028_0_1.jpg","https://xcimg.szwego.com/img/f8c0bdc9/20250107/i1736242432816_6032_0_2.jpg"],"created_at":"2026-06-29T10:48:59.229Z"},{"id":"item-73fad88a00bb","sku":"_d4k4kL2yuiYGlxJo1Lk_zvO0xnLcApKOF56Cacw","name_en":"Detail photo","name_cn":"Detail photo","specs":{"source":"wsxcme","sourceId":"_d4k4kL2yuiYGlxJo1Lk_zvO0xnLcApKOF56Cacw","sourceTagId":47002761,"sourceTagName":"Saint Laurent/women's bag","rawTitle":"Detail photo"},"price":null,"currency":"CNY","moq":1,"category":"ysl-women-bags","status":"active","alibaba_url":null,"images":["https://xcimg.szwego.com/img/f8c0bdc9/20250107/i1736242421256_8814_0_0.jpg","https://xcimg.szwego.com/img/f8c0bdc9/20250107/i1736242421323_213_0_1.jpg","https://xcimg.szwego.com/img/f8c0bdc9/20250107/i1736242421190_6473_0_2.jpg","https://xcimg.szwego.com/img/f8c0bdc9/20250107/i1736242421123_7535_0_3.jpg","https://xcimg.szwego.com/img/f8c0bdc9/20250107/i1736242421060_1049_0_4.jpg","https://xcimg.szwego.com/img/f8c0bdc9/20250107/i1736242420994_9910_0_5.jpg","https://xcimg.szwego.com/img/f8c0bdc9/20250107/i1736242421460_6326_0_6.jpg","https://xcimg.szwego.com/img/f8c0bdc9/20250107/i1736242421388_14_0_7.jpg"],"created_at":"2026-06-29T10:48:59.219Z"}],"page":27,"pageSize":24,"total":9921,"totalPages":414}
