{"items":[{"id":"item-3ff26f4ca6d4","sku":"_dAqAqMWAfJRy_56vUCuScf5v66ffgU5DcIIrKIw","name_en":"品牌:Chanel型号:Ap,,4933简介:顶级质量,经典之作,华丽与气质的前沿,是你意想不到的尊贵。皮种:顶级进口球纹皮,里配 布。五金: 五金配制尺寸:17cmX9.5cmX8cm","name_cn":"品牌:Chanel型号:Ap,,4933简介:顶级质量,经典之作,华丽与气质的前沿,是你意想不到的尊贵。皮种:顶级进口球纹皮,里配 布。五金: 五金配制尺寸:17cmX9.5cmX8cm","specs":{"source":"wsxcme","sourceId":"_dAqAqMWAfJRy_56vUCuScf5v66ffgU5DcIIrKIw","sourceTagId":47002745,"sourceTagName":"香奈儿/女包","modelNumber":"Ap","rawTitle":"品牌:Chanel型号:Ap,,4933简介:顶级质量,经典之作,华丽与气质的前沿,是你意想不到的尊贵。皮种:顶级进口球纹皮,里配 布。五金: 五金配制尺寸:17cmX9.5cmX8cm"},"price":null,"currency":"CNY","moq":1,"category":"chanel-women-bags","status":"active","alibaba_url":null,"images":["https://xcimg.szwego.com/img/0b9f920c/20251004/i1759548648_3325_8.jpg","https://xcimg.szwego.com/img/0b9f920c/20251004/i1759548647_7115_1.jpg","https://xcimg.szwego.com/img/0b9f920c/20251004/i1759548648_9181_7.jpg","https://xcimg.szwego.com/img/0b9f920c/20251004/i1759548648_4122_2.jpg","https://xcimg.szwego.com/img/0b9f920c/20251004/i1759548648_8309_4.jpg","https://xcimg.szwego.com/img/0b9f920c/20251004/i1759548648_8940_3.jpg","https://xcimg.szwego.com/img/0b9f920c/20251004/i1759548648_8629_6.jpg","https://xcimg.szwego.com/img/0b9f920c/20251004/i1759548648_4184_5.jpg","https://xcimg.szwego.com/img/0b9f920c/20251004/i1759548647_7632_0.jpg"],"created_at":"2026-06-29T10:31:17.759Z"},{"id":"item-905cb6991e1d","sku":"_dGQGQfChnjCYlXVxLmw2TMMydIngscB_OnF1Cew","name_en":"❤️经典深桦木棕  双肩包,复古又俏皮,很招人喜欢💞用个10年它还是领先潮流 复古又经典,充满了专Bur的那份英伦风💖于意大利工坊精制而成。融入 Bur 格纹,搭配缉明线皮革饰边,内衬为棉质混纺面料。呈现抽绳包口设计,设有皮革顶部提柄和正面拉链口袋。搭配进口牛胎皮💖","name_cn":"❤️经典深桦木棕  双肩包,复古又俏皮,很招人喜欢💞用个10年它还是领先潮流 复古又经典,充满了专Bur的那份英伦风💖于意大利工坊精制而成。融入 Bur 格纹,搭配缉明线皮革饰边,内衬为棉质混纺面料。呈现抽绳包口设计,设有皮革顶部提柄和正面拉链口袋。搭配进口牛胎皮💖\n尺寸24✕13✕37cm","specs":{"source":"wsxcme","sourceId":"_dGQGQfChnjCYlXVxLmw2TMMydIngscB_OnF1Cew","sourceTagId":80411239,"sourceTagName":"巴宝莉/女包","rawTitle":"❤️经典深桦木棕  双肩包,复古又俏皮,很招人喜欢💞用个10年它还是领先潮流 复古又经典,充满了专Bur的那份英伦风💖于意大利工坊精制而成。融入 Bur 格纹,搭配缉明线皮革饰边,内衬为棉质混纺面料。呈现抽绳包口设计,设有皮革顶部提柄和正面拉链口袋。搭配进口牛胎皮💖\n尺寸24✕13✕37cm"},"price":null,"currency":"CNY","moq":1,"category":"burberry-women-bags","status":"active","alibaba_url":null,"images":["https://xcimg.szwego.com/img/d5e7a5ce/20251114/a1763099408730_3151.jpg","https://xcimg.szwego.com/img/d5e7a5ce/20251114/a1763099408729_3638.jpg","https://xcimg.szwego.com/img/d5e7a5ce/20251114/a1763099408732_7185.jpg","https://xcimg.szwego.com/img/d5e7a5ce/20251114/a1763099408732_7743.jpg","https://xcimg.szwego.com/img/d5e7a5ce/20251114/a1763099408732_2383.jpg","https://xcimg.szwego.com/img/d5e7a5ce/20251114/a1763099408733_7056.jpg","https://xcimg.szwego.com/img/d5e7a5ce/20251114/a1763099409370_2880.jpg","https://xcimg.szwego.com/img/d5e7a5ce/20251114/a1763099409371_1841.jpg","https://xcimg.szwego.com/img/d5e7a5ce/20251114/a1763099409372_6612.jpg"],"created_at":"2026-06-29T10:29:03.039Z"},{"id":"item-0f32f708379c","sku":"_ds2s2ozVKtLRhuz0fLZ3wk2S5rFcJdR-TKIz88A","name_en":"Burberry Women Bags","name_cn":"上身图","specs":{"source":"wsxcme","sourceId":"_ds2s2ozVKtLRhuz0fLZ3wk2S5rFcJdR-TKIz88A","sourceTagId":80411239,"sourceTagName":"巴宝莉/女包","rawTitle":"上身图"},"price":null,"currency":"CNY","moq":1,"category":"burberry-women-bags","status":"active","alibaba_url":null,"images":["https://xcimg.szwego.com/img/d5e7a5ce/20251114/a1763099309940_2671.jpg","https://xcimg.szwego.com/img/d5e7a5ce/20251114/a1763099309946_1645.jpg","https://xcimg.szwego.com/img/d5e7a5ce/20251114/a1763099309942_7685.jpg","https://xcimg.szwego.com/img/d5e7a5ce/20251114/a1763099309945_8188.jpg","https://xcimg.szwego.com/img/d5e7a5ce/20251114/a1763099309943_2830.jpg","https://xcimg.szwego.com/img/d5e7a5ce/20251114/a1763099309944_5087.jpg","https://xcimg.szwego.com/img/d5e7a5ce/20251114/a1763099310475_2120.jpg","https://xcimg.szwego.com/img/d5e7a5ce/20251114/a1763099310475_2447.jpg","https://xcimg.szwego.com/img/d5e7a5ce/20251114/a1763099310474_5853.jpg"],"created_at":"2026-06-29T10:29:03.029Z"},{"id":"item-e7ced4f1c580","sku":"_dm4m4hLbhXTiLd1l0tcmyNNqR5ypIRu3XbMUXhQ","name_en":"Burberry Women Bags","name_cn":"上身图","specs":{"source":"wsxcme","sourceId":"_dm4m4hLbhXTiLd1l0tcmyNNqR5ypIRu3XbMUXhQ","sourceTagId":80411239,"sourceTagName":"巴宝莉/女包","rawTitle":"上身图"},"price":null,"currency":"CNY","moq":1,"category":"burberry-women-bags","status":"active","alibaba_url":null,"images":["https://xcimg.szwego.com/img/d5e7a5ce/20251114/a1763099287789_1400.jpg","https://xcimg.szwego.com/img/d5e7a5ce/20251114/a1763099287788_5121.jpg","https://xcimg.szwego.com/img/d5e7a5ce/20251114/a1763099287806_5487.jpg","https://xcimg.szwego.com/img/d5e7a5ce/20251114/a1763099287808_7835.jpg","https://xcimg.szwego.com/img/d5e7a5ce/20251114/a1763099287808_3748.jpg","https://xcimg.szwego.com/img/d5e7a5ce/20251114/a1763099287790_2260.jpg","https://xcimg.szwego.com/img/d5e7a5ce/20251114/a1763099288388_6354.jpg","https://xcimg.szwego.com/img/d5e7a5ce/20251114/a1763099288390_6871.jpg","https://xcimg.szwego.com/img/d5e7a5ce/20251114/a1763099288456_0225.jpg"],"created_at":"2026-06-29T10:29:03.019Z"},{"id":"item-76d198074483","sku":"_dnnnnEv5s7bpAjHD_s0rbM6QdOngPU35P1jzSPw","name_en":"Burberry Women Bags","name_cn":"巴宝莉/女包","specs":{"source":"wsxcme","sourceId":"_dnnnnEv5s7bpAjHD_s0rbM6QdOngPU35P1jzSPw","sourceTagId":80411239,"sourceTagName":"巴宝莉/女包","rawTitle":""},"price":null,"currency":"CNY","moq":1,"category":"burberry-women-bags","status":"active","alibaba_url":null,"images":["https://xcimg.szwego.com/img/d5e7a5ce/20251114/a1763099264748_4128.jpg","https://xcimg.szwego.com/img/d5e7a5ce/20251114/a1763099264749_1121.jpg","https://xcimg.szwego.com/img/d5e7a5ce/20251114/a1763099264726_4153.jpg"],"created_at":"2026-06-29T10:29:03.009Z"},{"id":"item-599bb300be06","sku":"_dN4N4rYZoyEAWo3TxhEq8zEh-e0PFcnH3QPa9FQ","name_en":"❤️B家桦木棕格迷你双肩包🎒装饰品牌大号格纹,搭配缉明线皮革边饰及品牌徽标镌刻按扣。此件精品的主要材料中至少 30% 来自生物基材料。生物基材料主要来源于植物和蓖麻油等可再生自然资源。尺寸16x8x18.5","name_cn":"❤️B家桦木棕格迷你双肩包🎒装饰品牌大号格纹,搭配缉明线皮革边饰及品牌徽标镌刻按扣。此件精品的主要材料中至少 30% 来自生物基材料。生物基材料主要来源于植物和蓖麻油等可再生自然资源。尺寸16x8x18.5","specs":{"source":"wsxcme","sourceId":"_dN4N4rYZoyEAWo3TxhEq8zEh-e0PFcnH3QPa9FQ","sourceTagId":80411239,"sourceTagName":"巴宝莉/女包","rawTitle":"❤️B家桦木棕格迷你双肩包🎒装饰品牌大号格纹,搭配缉明线皮革边饰及品牌徽标镌刻按扣。此件精品的主要材料中至少 30% 来自生物基材料。生物基材料主要来源于植物和蓖麻油等可再生自然资源。尺寸16x8x18.5"},"price":null,"currency":"CNY","moq":1,"category":"burberry-women-bags","status":"active","alibaba_url":null,"images":["https://xcimg.szwego.com/img/d5e7a5ce/20251114/a1763099224782_0883.jpg","https://xcimg.szwego.com/img/d5e7a5ce/20251114/a1763099224786_7110.jpg","https://xcimg.szwego.com/img/d5e7a5ce/20251114/a1763099224752_7685.jpg","https://xcimg.szwego.com/img/d5e7a5ce/20251114/a1763099224790_6205.jpg","https://xcimg.szwego.com/img/d5e7a5ce/20251114/a1763099224752_6784.jpg","https://xcimg.szwego.com/img/d5e7a5ce/20251114/a1763099224752_1611.jpg","https://xcimg.szwego.com/img/d5e7a5ce/20251114/a1763099225447_5081.jpg","https://xcimg.szwego.com/img/d5e7a5ce/20251114/a1763099225450_5447.jpg","https://xcimg.szwego.com/img/d5e7a5ce/20251114/a1763099225449_3640.jpg"],"created_at":"2026-06-29T10:29:02.999Z"},{"id":"item-84b59eba5523","sku":"_dtUtUj03SsSUTNONZUASaU3grb7ZhLqKrcGfaLg","name_en":"新款双面迷你托特包 选用粒纹小牛皮材质打造,于意大利工坊精制而成。反面为 Burberry 格纹棉质亚麻混纺面料,以标志性沙米色演绎。出自品牌Bloomsbury 系列,点缀皮革拼金属骑士印章,源自 1980 年代品牌包款的典藏图案。可使用顶部提柄手提,或以可拆式肩背带缔造斜背造型。正面饰有马术骑士徽标 (EKD) 皮革饰牌尺寸22× 10x20cm.","name_cn":"新款双面迷你托特包 选用粒纹小牛皮材质打造,于意大利工坊精制而成。反面为 Burberry 格纹棉质亚麻混纺面料,以标志性沙米色演绎。出自品牌Bloomsbury 系列,点缀皮革拼金属骑士印章,源自 1980 年代品牌包款的典藏图案。可使用顶部提柄手提,或以可拆式肩背带缔造斜背造型。正面饰有马术骑士徽标 (EKD) 皮革饰牌尺寸22× 10x20cm.","specs":{"source":"wsxcme","sourceId":"_dtUtUj03SsSUTNONZUASaU3grb7ZhLqKrcGfaLg","sourceTagId":80411239,"sourceTagName":"巴宝莉/女包","dimensions":{"lengthCm":22,"heightCm":10,"widthCm":20},"rawTitle":"新款双面迷你托特包 选用粒纹小牛皮材质打造,于意大利工坊精制而成。反面为 Burberry 格纹棉质亚麻混纺面料,以标志性沙米色演绎。出自品牌Bloomsbury 系列,点缀皮革拼金属骑士印章,源自 1980 年代品牌包款的典藏图案。可使用顶部提柄手提,或以可拆式肩背带缔造斜背造型。正面饰有马术骑士徽标 (EKD) 皮革饰牌尺寸22× 10x20cm."},"price":null,"currency":"CNY","moq":1,"category":"burberry-women-bags","status":"active","alibaba_url":null,"images":["https://xcimg.szwego.com/img/d5e7a5ce/20251115/a1763194353692_8711.jpg","https://xcimg.szwego.com/img/d5e7a5ce/20251115/a1763194353704_0856.jpg","https://xcimg.szwego.com/img/d5e7a5ce/20251115/a1763194353704_7423.jpg","https://xcimg.szwego.com/img/d5e7a5ce/20251115/a1763194353706_1678.jpg","https://xcimg.szwego.com/img/d5e7a5ce/20251115/a1763194353706_7727.jpg","https://xcimg.szwego.com/img/d5e7a5ce/20251115/a1763194353705_5542.jpg","https://xcimg.szwego.com/img/d5e7a5ce/20251115/a1763194354361_7522.jpg","https://xcimg.szwego.com/img/d5e7a5ce/20251115/a1763194354364_3158.jpg","https://xcimg.szwego.com/img/d5e7a5ce/20251115/a1763194354363_3725.jpg"],"created_at":"2026-06-29T10:29:02.989Z"},{"id":"item-af891f48344a","sku":"_dvCvCnUUoyUTvKKbNQffqf5YjP_ds6ncnZz9sjA","name_en":"Burberry Women Bags","name_cn":"上身图","specs":{"source":"wsxcme","sourceId":"_dvCvCnUUoyUTvKKbNQffqf5YjP_ds6ncnZz9sjA","sourceTagId":80411239,"sourceTagName":"巴宝莉/女包","rawTitle":"上身图"},"price":null,"currency":"CNY","moq":1,"category":"burberry-women-bags","status":"active","alibaba_url":null,"images":["https://xcimg.szwego.com/img/d5e7a5ce/20251115/a1763194306118_8741.jpg","https://xcimg.szwego.com/img/d5e7a5ce/20251115/a1763194306116_5335.jpg","https://xcimg.szwego.com/img/d5e7a5ce/20251115/a1763194306115_2801.jpg","https://xcimg.szwego.com/img/d5e7a5ce/20251115/a1763194306119_6511.jpg","https://xcimg.szwego.com/img/d5e7a5ce/20251115/a1763194306119_5720.jpg","https://xcimg.szwego.com/img/d5e7a5ce/20251115/a1763194306119_4856.jpg","https://xcimg.szwego.com/img/d5e7a5ce/20251115/a1763194306647_5233.jpg","https://xcimg.szwego.com/img/d5e7a5ce/20251115/a1763194306645_0231.jpg","https://xcimg.szwego.com/img/d5e7a5ce/20251115/a1763194306648_6813.jpg"],"created_at":"2026-06-29T10:29:02.979Z"},{"id":"item-3cf103941cd6","sku":"_dbkbkLR1DxgxeFJt7G0Lr_xRLx9DdU9snQiJjxw","name_en":"Burberry Women Bags","name_cn":"上身图","specs":{"source":"wsxcme","sourceId":"_dbkbkLR1DxgxeFJt7G0Lr_xRLx9DdU9snQiJjxw","sourceTagId":80411239,"sourceTagName":"巴宝莉/女包","rawTitle":"上身图"},"price":null,"currency":"CNY","moq":1,"category":"burberry-women-bags","status":"active","alibaba_url":null,"images":["https://xcimg.szwego.com/img/d5e7a5ce/20251115/a1763194294097_5771.jpg","https://xcimg.szwego.com/img/d5e7a5ce/20251115/a1763194294095_0384.jpg","https://xcimg.szwego.com/img/d5e7a5ce/20251115/a1763194294095_8631.jpg","https://xcimg.szwego.com/img/d5e7a5ce/20251115/a1763194294098_0116.jpg","https://xcimg.szwego.com/img/d5e7a5ce/20251115/a1763194294106_1781.jpg","https://xcimg.szwego.com/img/d5e7a5ce/20251115/a1763194294103_4835.jpg","https://xcimg.szwego.com/img/d5e7a5ce/20251115/a1763194294669_7807.jpg","https://xcimg.szwego.com/img/d5e7a5ce/20251115/a1763194294670_3304.jpg","https://xcimg.szwego.com/img/d5e7a5ce/20251115/a1763194294671_4165.jpg"],"created_at":"2026-06-29T10:29:02.969Z"},{"id":"item-5fc32da12432","sku":"_dg3g3AEs0dvJ2SL2lM898mW1xxdNxBinLgEOsnQ","name_en":"❤️B家最新托特包,选用棉质帆布面料打造,装饰精纺B家格子面料 搭配光滑皮革顶部提柄,设有可调式斜背带。","name_cn":"❤️B家最新托特包,选用棉质帆布面料打造,装饰精纺B家格子面料 搭配光滑皮革顶部提柄,设有可调式斜背带。\n顶部皮革提柄\n可调式网纹肩背带\n开放式包口设计,搭配磁扣开合\n内侧口袋采用磁扣开合\n尺寸27 × 9.5 × 16.5cm","specs":{"source":"wsxcme","sourceId":"_dg3g3AEs0dvJ2SL2lM898mW1xxdNxBinLgEOsnQ","sourceTagId":80411239,"sourceTagName":"巴宝莉/女包","dimensions":{"lengthCm":27,"heightCm":9.5,"widthCm":16.5},"rawTitle":"❤️B家最新托特包,选用棉质帆布面料打造,装饰精纺B家格子面料 搭配光滑皮革顶部提柄,设有可调式斜背带。\n顶部皮革提柄\n可调式网纹肩背带\n开放式包口设计,搭配磁扣开合\n内侧口袋采用磁扣开合\n尺寸27 × 9.5 × 16.5cm"},"price":null,"currency":"CNY","moq":1,"category":"burberry-women-bags","status":"active","alibaba_url":null,"images":["https://xcimg.szwego.com/img/d5e7a5ce/20251115/a1763194255714_5045.jpg","https://xcimg.szwego.com/img/d5e7a5ce/20251115/a1763194255713_5860.jpg","https://xcimg.szwego.com/img/d5e7a5ce/20251115/a1763194255712_4008.jpg","https://xcimg.szwego.com/img/d5e7a5ce/20251115/a1763194255713_5726.jpg","https://xcimg.szwego.com/img/d5e7a5ce/20251115/a1763194255715_6182.jpg","https://xcimg.szwego.com/img/d5e7a5ce/20251115/a1763194255715_2751.jpg","https://xcimg.szwego.com/img/d5e7a5ce/20251115/a1763194256241_8784.jpg","https://xcimg.szwego.com/img/d5e7a5ce/20251115/a1763194256240_6043.jpg","https://xcimg.szwego.com/img/d5e7a5ce/20251115/a1763194256272_6281.jpg"],"created_at":"2026-06-29T10:29:02.959Z"},{"id":"item-6c0c2896ed0c","sku":"_dlGlGhYYj-C8N_Sgf1i2hBV7NUvgt7YpswRCX1g","name_en":"❤️B家最新托特包,选用棉质帆布面料打造,装饰精纺B家格子面料 搭配光滑皮革顶部提柄,设有可调式斜背带。","name_cn":"❤️B家最新托特包,选用棉质帆布面料打造,装饰精纺B家格子面料 搭配光滑皮革顶部提柄,设有可调式斜背带。\n顶部皮革提柄\n可调式网纹肩背带\n开放式包口设计,搭配磁扣开合\n内侧口袋采用磁扣开合\n尺寸27 × 9.5 × 16.5cm","specs":{"source":"wsxcme","sourceId":"_dlGlGhYYj-C8N_Sgf1i2hBV7NUvgt7YpswRCX1g","sourceTagId":80411239,"sourceTagName":"巴宝莉/女包","dimensions":{"lengthCm":27,"heightCm":9.5,"widthCm":16.5},"rawTitle":"❤️B家最新托特包,选用棉质帆布面料打造,装饰精纺B家格子面料 搭配光滑皮革顶部提柄,设有可调式斜背带。\n顶部皮革提柄\n可调式网纹肩背带\n开放式包口设计,搭配磁扣开合\n内侧口袋采用磁扣开合\n尺寸27 × 9.5 × 16.5cm"},"price":null,"currency":"CNY","moq":1,"category":"burberry-women-bags","status":"active","alibaba_url":null,"images":["https://xcimg.szwego.com/img/d5e7a5ce/20251115/a1763194172488_4158.jpg","https://xcimg.szwego.com/img/d5e7a5ce/20251115/a1763194172492_4128.jpg","https://xcimg.szwego.com/img/d5e7a5ce/20251115/a1763194172490_7035.jpg","https://xcimg.szwego.com/img/d5e7a5ce/20251115/a1763194172492_0530.jpg","https://xcimg.szwego.com/img/d5e7a5ce/20251115/a1763194172491_5508.jpg","https://xcimg.szwego.com/img/d5e7a5ce/20251115/a1763194172486_2253.jpg","https://xcimg.szwego.com/img/d5e7a5ce/20251115/a1763194180447_0787.jpg","https://xcimg.szwego.com/img/d5e7a5ce/20251115/a1763194180444_1707.jpg","https://xcimg.szwego.com/img/d5e7a5ce/20251115/a1763194180445_8247.jpg"],"created_at":"2026-06-29T10:29:02.949Z"},{"id":"item-a67634d7397d","sku":"_d1a1a1_WwOhN1eaV5tSFZvhPTbyZDvigwwnIQaw","name_en":"Burberry Women Bags","name_cn":"#上身效果图","specs":{"source":"wsxcme","sourceId":"_d1a1a1_WwOhN1eaV5tSFZvhPTbyZDvigwwnIQaw","sourceTagId":80411239,"sourceTagName":"巴宝莉/女包","rawTitle":"#上身效果图"},"price":null,"currency":"CNY","moq":1,"category":"burberry-women-bags","status":"active","alibaba_url":null,"images":["https://xcimg.szwego.com/img/a78c42d4/20231023/i1698043406_6603_0.jpg","https://xcimg.szwego.com/img/a78c42d4/20231023/i1698043406_5420_1.jpg"],"created_at":"2026-06-29T10:29:02.939Z"},{"id":"item-35b6d48fbcd4","sku":"_dFFFFvNf-Ng_ekqQG4SCZeNVZI1rM01SOv5PtrQ","name_en":", B家新款空间充裕的 Catherine 精选品牌最新棉质格纹花呢布料拼光滑意大利鞣制皮革打造。几何裁片抢眼搭配品牌徽标,设计灵感来自经典 Trench 风衣的衣领形状。本单品首次亮相于  秋冬女装秀,可使用加固式皮革提柄手拎,或使用可拆式肩背带携带。 28 x 13 x 23cm","name_cn":", B家新款空间充裕的 Catherine 精选品牌最新棉质格纹花呢布料拼光滑意大利鞣制皮革打造。几何裁片抢眼搭配品牌徽标,设计灵感来自经典 Trench 风衣的衣领形状。本单品首次亮相于  秋冬女装秀,可使用加固式皮革提柄手拎,或使用可拆式肩背带携带。 28 x 13 x 23cm","specs":{"source":"wsxcme","sourceId":"_dFFFFvNf-Ng_ekqQG4SCZeNVZI1rM01SOv5PtrQ","sourceTagId":80411239,"sourceTagName":"巴宝莉/女包","rawTitle":", B家新款空间充裕的 Catherine 精选品牌最新棉质格纹花呢布料拼光滑意大利鞣制皮革打造。几何裁片抢眼搭配品牌徽标,设计灵感来自经典 Trench 风衣的衣领形状。本单品首次亮相于  秋冬女装秀,可使用加固式皮革提柄手拎,或使用可拆式肩背带携带。 28 x 13 x 23cm"},"price":null,"currency":"CNY","moq":1,"category":"burberry-women-bags","status":"active","alibaba_url":null,"images":["https://xcimg.szwego.com/img/a78c42d4/20250415/i1744702304156_7582_0_0.jpg","https://xcimg.szwego.com/img/a78c42d4/20250415/i1744702304296_9101_0_1.jpg","https://xcimg.szwego.com/img/a78c42d4/20250415/i1744702302245_2814_0_2.jpg","https://xcimg.szwego.com/img/a78c42d4/20250415/i1744702304146_2115_0_3.jpg","https://xcimg.szwego.com/img/a78c42d4/20250415/i1744702302089_3665_0_4.jpg","https://xcimg.szwego.com/img/a78c42d4/20250415/i1744702304152_8006_0_5.jpg","https://xcimg.szwego.com/img/a78c42d4/20250415/i1744702302166_4222_0_6.jpg","https://xcimg.szwego.com/img/a78c42d4/20250415/i1744702302208_9761_0_7.jpg","https://xcimg.szwego.com/img/a78c42d4/20250415/i1744702302174_4684_0_8.jpg"],"created_at":"2026-06-29T10:29:02.929Z"},{"id":"item-adb3fc1b9a0b","sku":"_d9f9fLi44OpBm9NmNW2dFYXDWBDsEpPoG8r-TZQ","name_en":"Burberry Women Bags","name_cn":"#效果图","specs":{"source":"wsxcme","sourceId":"_d9f9fLi44OpBm9NmNW2dFYXDWBDsEpPoG8r-TZQ","sourceTagId":80411239,"sourceTagName":"巴宝莉/女包","rawTitle":"#效果图"},"price":null,"currency":"CNY","moq":1,"category":"burberry-women-bags","status":"active","alibaba_url":null,"images":["https://xcimg.szwego.com/20221224/i1671865998_2035_0.jpg","https://xcimg.szwego.com/20221224/i1671865998_5388_1.jpg","https://xcimg.szwego.com/20221224/i1671865998_2421_2.jpg","https://xcimg.szwego.com/20221224/i1671865998_9723_3.jpg","https://xcimg.szwego.com/20221224/i1671865998_3466_4.jpg","https://xcimg.szwego.com/20221224/i1671865998_8713_5.jpg","https://xcimg.szwego.com/20221224/i1671865998_9015_6.jpg","https://xcimg.szwego.com/20221224/i1671865998_9576_7.jpg","https://xcimg.szwego.com/20221224/i1671865998_4391_8.jpg"],"created_at":"2026-06-29T10:29:02.919Z"},{"id":"item-ac271369e136","sku":"_dwfwflVfgaUv7FRpujvWv1kko5CTS1fnHDYw8rA","name_en":"空间充裕的 Catherine 包,精选品牌大号格纹拼光滑意大利鞣制皮革打造。几何裁片抢眼搭配品牌徽标,设计灵感来自经典 Trench 风衣的衣领形状。本单品首次亮相于 Burberry   秋冬女装秀,其命名源于创始人 Thomas Burberry 的妻子(6 位子女的母亲)的名字 Catherine。可使用加固式皮革提柄手拎,或使用可拆式肩背带携带。此","name_cn":"空间充裕的 Catherine 包,精选品牌大号格纹拼光滑意大利鞣制皮革打造。几何裁片抢眼搭配品牌徽标,设计灵感来自经典 Trench 风衣的衣领形状。本单品首次亮相于 Burberry   秋冬女装秀,其命名源于创始人 Thomas Burberry 的妻子(6 位子女的母亲)的名字 Catherine。可使用加固式皮革提柄手拎,或使用可拆式肩背带携带。此件精品的主要材料中至少 30% 来自生物基材料。生物基材料主要来源于植物和蓖麻油等可再生自然资源。28 x 13 x 23cm.顶部皮革提柄.可拆可调式肩背带.拉链开合,侧边按扣.2个外部翻盖口袋,2个内插袋.手绘涂漆边缘.光泽金属配件.正面饰有 Burberry 字母压花徽标","specs":{"source":"wsxcme","sourceId":"_dwfwflVfgaUv7FRpujvWv1kko5CTS1fnHDYw8rA","sourceTagId":80411239,"sourceTagName":"巴宝莉/女包","rawTitle":"空间充裕的 Catherine 包,精选品牌大号格纹拼光滑意大利鞣制皮革打造。几何裁片抢眼搭配品牌徽标,设计灵感来自经典 Trench 风衣的衣领形状。本单品首次亮相于 Burberry   秋冬女装秀,其命名源于创始人 Thomas Burberry 的妻子(6 位子女的母亲)的名字 Catherine。可使用加固式皮革提柄手拎,或使用可拆式肩背带携带。此件精品的主要材料中至少 30% 来自生物基材料。生物基材料主要来源于植物和蓖麻油等可再生自然资源。28 x 13 x 23cm.顶部皮革提柄.可拆可调式肩背带.拉链开合,侧边按扣.2个外部翻盖口袋,2个内插袋.手绘涂漆边缘.光泽金属配件.正面饰有 Burberry 字母压花徽标"},"price":null,"currency":"CNY","moq":1,"category":"burberry-women-bags","status":"active","alibaba_url":null,"images":["https://xcimg.szwego.com/20221224/i1671865872_3361_0.jpg","https://xcimg.szwego.com/20221224/i1671865872_7949_1.jpg","https://xcimg.szwego.com/20221224/i1671865872_1980_2.jpg","https://xcimg.szwego.com/20221224/i1671865872_5542_3.jpg","https://xcimg.szwego.com/20221224/i1671865872_356_4.jpg","https://xcimg.szwego.com/20221224/i1671865872_633_5.jpg","https://xcimg.szwego.com/20221224/i1671865872_1849_6.jpg","https://xcimg.szwego.com/20221224/i1671865872_5395_7.jpg","https://xcimg.szwego.com/20221224/i1671865872_7324_8.jpg"],"created_at":"2026-06-29T10:29:02.909Z"},{"id":"item-0211ad5ef97d","sku":"_ds9s9O0Padrubh8FwLgB5fk7kn2wblC2M5CF0jg","name_en":"Burberry Women Bags","name_cn":"#上身效果图","specs":{"source":"wsxcme","sourceId":"_ds9s9O0Padrubh8FwLgB5fk7kn2wblC2M5CF0jg","sourceTagId":80411239,"sourceTagName":"巴宝莉/女包","rawTitle":"#上身效果图"},"price":null,"currency":"CNY","moq":1,"category":"burberry-women-bags","status":"active","alibaba_url":null,"images":["https://xcimg.szwego.com/img/a78c42d4/20250409/i1744182097945_1710_0_0.jpg","https://xcimg.szwego.com/img/a78c42d4/20250409/i1744182097946_2208_0_1.jpg","https://xcimg.szwego.com/img/a78c42d4/20250409/i1744182097946_5921_0_2.jpg","https://xcimg.szwego.com/img/a78c42d4/20250409/i1744182098562_3315_0_3.jpg","https://xcimg.szwego.com/img/a78c42d4/20250409/i1744182097945_6258_0_4.jpg","https://xcimg.szwego.com/img/a78c42d4/20250409/i1744182097946_9380_0_5.jpg"],"created_at":"2026-06-29T10:29:02.899Z"},{"id":"item-8d4cace33aae","sku":"_d3p3pPYiIm-JAKDBeCrPh7ulPnZMjCqrWB4by6g","name_en":", 【全皮款小号】B家pocket走秀限量款好看到不要不要的。复古又百搭,作为颜值和实用性同时在线的包包并不多,风格也是比较英伦,正式场合和休闲搭配都可以轻松驾驭。尺寸23 - 6 - 26.5cm","name_cn":", 【全皮款小号】B家pocket走秀限量款好看到不要不要的。复古又百搭,作为颜值和实用性同时在线的包包并不多,风格也是比较英伦,正式场合和休闲搭配都可以轻松驾驭。尺寸23 - 6 - 26.5cm","specs":{"source":"wsxcme","sourceId":"_d3p3pPYiIm-JAKDBeCrPh7ulPnZMjCqrWB4by6g","sourceTagId":80411239,"sourceTagName":"巴宝莉/女包","rawTitle":", 【全皮款小号】B家pocket走秀限量款好看到不要不要的。复古又百搭,作为颜值和实用性同时在线的包包并不多,风格也是比较英伦,正式场合和休闲搭配都可以轻松驾驭。尺寸23 - 6 - 26.5cm"},"price":null,"currency":"CNY","moq":1,"category":"burberry-women-bags","status":"active","alibaba_url":null,"images":["https://xcimg.szwego.com/img/a78c42d4/20250409/i1744182073954_5189_0_0.jpg","https://xcimg.szwego.com/img/a78c42d4/20250409/i1744182074057_3031_0_1.jpg","https://xcimg.szwego.com/img/a78c42d4/20250409/i1744182074268_2126_0_2.jpg","https://xcimg.szwego.com/img/a78c42d4/20250409/i1744182075428_956_0_3.jpg","https://xcimg.szwego.com/img/a78c42d4/20250409/i1744182073786_8906_0_4.jpg","https://xcimg.szwego.com/img/a78c42d4/20250409/i1744182075487_2554_0_5.jpg","https://xcimg.szwego.com/img/a78c42d4/20250409/i1744182075446_5687_0_6.jpg","https://xcimg.szwego.com/img/a78c42d4/20250409/i1744182073876_6600_0_7.jpg","https://xcimg.szwego.com/img/a78c42d4/20250409/i1744182075576_1014_0_8.jpg"],"created_at":"2026-06-29T10:29:02.889Z"},{"id":"item-3b13d47ddbed","sku":"_dbybyBRcPOSl07D2ijvl6XeHbQRDszGi3Slcqtg","name_en":"Burberry Women Bags","name_cn":"#上身效果图","specs":{"source":"wsxcme","sourceId":"_dbybyBRcPOSl07D2ijvl6XeHbQRDszGi3Slcqtg","sourceTagId":80411239,"sourceTagName":"巴宝莉/女包","rawTitle":"#上身效果图"},"price":null,"currency":"CNY","moq":1,"category":"burberry-women-bags","status":"active","alibaba_url":null,"images":["https://xcimg.szwego.com/img/a78c42d4/20250409/i1744182049250_5031_0_0.jpg","https://xcimg.szwego.com/img/a78c42d4/20250409/i1744182049250_8128_0_1.jpg","https://xcimg.szwego.com/img/a78c42d4/20250409/i1744182049250_8434_0_2.jpg"],"created_at":"2026-06-29T10:29:02.879Z"},{"id":"item-02c9de3e2395","sku":"_ddzdzkR2YTdkgxct61AL7XKs1dKUgh6XBl4-cOA","name_en":", 【全皮款小号】B家pocket走秀限量款好看到不要不要的。复古又百搭,作为颜值和实用性同时在线的包包并不多,风格也是比较英伦,正式场合和休闲搭配都可以轻松驾驭。尺寸23 - 6 - 26.5cm","name_cn":", 【全皮款小号】B家pocket走秀限量款好看到不要不要的。复古又百搭,作为颜值和实用性同时在线的包包并不多,风格也是比较英伦,正式场合和休闲搭配都可以轻松驾驭。尺寸23 - 6 - 26.5cm","specs":{"source":"wsxcme","sourceId":"_ddzdzkR2YTdkgxct61AL7XKs1dKUgh6XBl4-cOA","sourceTagId":80411239,"sourceTagName":"巴宝莉/女包","rawTitle":", 【全皮款小号】B家pocket走秀限量款好看到不要不要的。复古又百搭,作为颜值和实用性同时在线的包包并不多,风格也是比较英伦,正式场合和休闲搭配都可以轻松驾驭。尺寸23 - 6 - 26.5cm"},"price":null,"currency":"CNY","moq":1,"category":"burberry-women-bags","status":"active","alibaba_url":null,"images":["https://xcimg.szwego.com/img/a78c42d4/20250409/i1744181917882_6923_0_0.jpg","https://xcimg.szwego.com/img/a78c42d4/20250409/i1744181918287_4829_0_1.jpg","https://xcimg.szwego.com/img/a78c42d4/20250409/i1744181918075_9292_0_2.jpg","https://xcimg.szwego.com/img/a78c42d4/20250409/i1744181917929_9089_0_3.jpg","https://xcimg.szwego.com/img/a78c42d4/20250409/i1744181919781_9341_0_4.jpg","https://xcimg.szwego.com/img/a78c42d4/20250409/i1744181919856_2196_0_5.jpg","https://xcimg.szwego.com/img/a78c42d4/20250409/i1744181919782_9366_0_6.jpg","https://xcimg.szwego.com/img/a78c42d4/20250409/i1744181917796_5083_0_7.jpg","https://xcimg.szwego.com/img/a78c42d4/20250409/i1744181919880_5735_0_8.jpg"],"created_at":"2026-06-29T10:29:02.869Z"},{"id":"item-f9582503a387","sku":"_dpypy83H9-q7eGZ7lHrDmWH3DyM2s_P0tLMa63g","name_en":"巴宝莉精巧的斜背包,选用粒纹皮革与 Vintage 复古格纹打造,设有徽标镌刻按扣。搭配可拆式背带,点缀提花精纺的品牌徽标。随心变换为肩背包或手拿包造型。 款号:80211101 尺寸:W25 x H18 x D8.5cm","name_cn":"巴宝莉精巧的斜背包,选用粒纹皮革与 Vintage 复古格纹打造,设有徽标镌刻按扣。搭配可拆式背带,点缀提花精纺的品牌徽标。随心变换为肩背包或手拿包造型。 款号:80211101 尺寸:W25 x H18 x D8.5cm","specs":{"source":"wsxcme","sourceId":"_dpypy83H9-q7eGZ7lHrDmWH3DyM2s_P0tLMa63g","sourceTagId":80411239,"sourceTagName":"巴宝莉/女包","modelNumber":"80211101 尺寸:W25 x H18 x D8.5cm","rawTitle":"巴宝莉精巧的斜背包,选用粒纹皮革与 Vintage 复古格纹打造,设有徽标镌刻按扣。搭配可拆式背带,点缀提花精纺的品牌徽标。随心变换为肩背包或手拿包造型。 款号:80211101 尺寸:W25 x H18 x D8.5cm"},"price":null,"currency":"CNY","moq":1,"category":"burberry-women-bags","status":"active","alibaba_url":null,"images":["https://xcimg.szwego.com/20220704/a1656941273119_1556.jpg","https://xcimg.szwego.com/20220704/a1656941273203_7176.jpg","https://xcimg.szwego.com/20220704/a1656941273269_2783.jpg","https://xcimg.szwego.com/20220704/a1656941273369_1184.jpg","https://xcimg.szwego.com/20220704/a1656941273471_6514.jpg","https://xcimg.szwego.com/20220704/a1656941273536_7824.jpg","https://xcimg.szwego.com/20220704/a1656941273687_4235.jpg","https://xcimg.szwego.com/20220704/a1656941273770_2747.jpg","https://xcimg.szwego.com/20220704/a1656941273885_4842.jpg"],"created_at":"2026-06-29T10:29:02.859Z"},{"id":"item-43a009620862","sku":"_dvJvJ7AlW7wld4ZRsUj6f_MAiBxcooQ5VAN38CQ","name_en":"巴宝莉精巧的斜背包,采用 Vintage 复古格纹接合棉质裁片,搭配平滑皮革边饰。设计有可调式网纹尼龙背带,打造斜背造型。","name_cn":"巴宝莉精巧的斜背包,采用 Vintage 复古格纹接合棉质裁片,搭配平滑皮革边饰。设计有可调式网纹尼龙背带,打造斜背造型。\n款号:80233811\n尺寸:17 x 5.5 x 22cm\n背带最短垂直佩戴长度:44cm\n肩带最长垂直佩戴长度:53cm\n外层:80%棉,20%聚酯纤维\n装饰:100%皮革\n内衬:60%棉,40%聚酰胺\n可调式斜背带\n1个拉链外袋;1个内插袋\n拉链开合\n手绘涂漆边缘\n亮泽金属配件\n饰有 Burberry 立体硅胶徽标饰牌","specs":{"source":"wsxcme","sourceId":"_dvJvJ7AlW7wld4ZRsUj6f_MAiBxcooQ5VAN38CQ","sourceTagId":80411239,"sourceTagName":"巴宝莉/女包","modelNumber":"80233811","dimensions":{"lengthCm":17,"heightCm":5.5,"widthCm":22},"rawTitle":"巴宝莉精巧的斜背包,采用 Vintage 复古格纹接合棉质裁片,搭配平滑皮革边饰。设计有可调式网纹尼龙背带,打造斜背造型。\n款号:80233811\n尺寸:17 x 5.5 x 22cm\n背带最短垂直佩戴长度:44cm\n肩带最长垂直佩戴长度:53cm\n外层:80%棉,20%聚酯纤维\n装饰:100%皮革\n内衬:60%棉,40%聚酰胺\n可调式斜背带\n1个拉链外袋;1个内插袋\n拉链开合\n手绘涂漆边缘\n亮泽金属配件\n饰有 Burberry 立体硅胶徽标饰牌"},"price":null,"currency":"CNY","moq":1,"category":"burberry-women-bags","status":"active","alibaba_url":null,"images":["https://xcimg.szwego.com/20210616/a1623773733669_7678.jpg","https://xcimg.szwego.com/20210616/a1623773733793_0763.jpg","https://xcimg.szwego.com/20210616/a1623773733904_5111.jpg","https://xcimg.szwego.com/20210616/a1623773734059_1502.jpg","https://xcimg.szwego.com/20210616/a1623773734176_8411.jpg","https://xcimg.szwego.com/20210616/a1623773734293_1707.jpg","https://xcimg.szwego.com/20210616/a1623773734416_0071.jpg","https://xcimg.szwego.com/20210616/a1623773734527_4008.jpg","https://xcimg.szwego.com/20210616/a1623773734609_5708.jpg"],"created_at":"2026-06-29T10:29:02.849Z"},{"id":"item-2feb6fb9a0fe","sku":"_dpupuvxegro7Vh5kHaQ5D0CgS4WOvRekRdp0Ydw","name_en":"巴宝莉精巧的斜背包,装饰品牌大号格纹和徽标设计,设有可拆式缉明线皮革背带。此件精品的主要材料中至少30%来自生物基材料。生物基材料主要来源于植物和蓖麻油等可再生自然资源。 尺寸:22.5x6x16cm","name_cn":"巴宝莉精巧的斜背包,装饰品牌大号格纹和徽标设计,设有可拆式缉明线皮革背带。此件精品的主要材料中至少30%来自生物基材料。生物基材料主要来源于植物和蓖麻油等可再生自然资源。 尺寸:22.5x6x16cm","specs":{"source":"wsxcme","sourceId":"_dpupuvxegro7Vh5kHaQ5D0CgS4WOvRekRdp0Ydw","sourceTagId":80411239,"sourceTagName":"巴宝莉/女包","dimensions":{"lengthCm":22.5,"heightCm":6,"widthCm":16},"rawTitle":"巴宝莉精巧的斜背包,装饰品牌大号格纹和徽标设计,设有可拆式缉明线皮革背带。此件精品的主要材料中至少30%来自生物基材料。生物基材料主要来源于植物和蓖麻油等可再生自然资源。 尺寸:22.5x6x16cm"},"price":null,"currency":"CNY","moq":1,"category":"burberry-women-bags","status":"active","alibaba_url":null,"images":["https://xcimg.szwego.com/img/74ed5653/20230915/a1694784839339_5772.jpg","https://xcimg.szwego.com/img/74ed5653/20230915/a1694784839464_1208.jpg","https://xcimg.szwego.com/img/74ed5653/20230915/a1694784839912_2543.jpg","https://xcimg.szwego.com/img/74ed5653/20230915/a1694784840121_7057.jpg","https://xcimg.szwego.com/img/74ed5653/20230915/a1694784840304_8072.jpg","https://xcimg.szwego.com/img/74ed5653/20230915/a1694784840501_1786.jpg","https://xcimg.szwego.com/img/74ed5653/20230915/a1694784840719_6433.jpg","https://xcimg.szwego.com/img/74ed5653/20230915/a1694784840988_2510.jpg","https://xcimg.szwego.com/img/74ed5653/20230915/a1694784841214_4610.jpg"],"created_at":"2026-06-29T10:29:02.839Z"},{"id":"item-fccf8d79ea3d","sku":"_dGVGVhfpgxQWM6NefI9Pqo0oOcYqsIqAJgwnWvA","name_en":"❤️B家手提包斜挎包,经典棉质格纹帆布拼牛皮,袋口拉链设计,两侧可收拢展开,多种背法,上身效果超赞,尺寸:21/20/13","name_cn":"❤️B家手提包斜挎包,经典棉质格纹帆布拼牛皮,袋口拉链设计,两侧可收拢展开,多种背法,上身效果超赞,尺寸:21/20/13","specs":{"source":"wsxcme","sourceId":"_dGVGVhfpgxQWM6NefI9Pqo0oOcYqsIqAJgwnWvA","sourceTagId":80411239,"sourceTagName":"巴宝莉/女包","rawTitle":"❤️B家手提包斜挎包,经典棉质格纹帆布拼牛皮,袋口拉链设计,两侧可收拢展开,多种背法,上身效果超赞,尺寸:21/20/13"},"price":null,"currency":"CNY","moq":1,"category":"burberry-women-bags","status":"active","alibaba_url":null,"images":["https://xcimg.szwego.com/img/d5e7a5ce/20250430/a1745986008485_4382.jpg","https://xcimg.szwego.com/img/d5e7a5ce/20250430/a1745986008488_5180.jpg","https://xcimg.szwego.com/img/d5e7a5ce/20250430/a1745986008490_5223.jpg","https://xcimg.szwego.com/img/d5e7a5ce/20250430/a1745986008487_3215.jpg","https://xcimg.szwego.com/img/d5e7a5ce/20250430/a1745986008486_0267.jpg","https://xcimg.szwego.com/img/d5e7a5ce/20250430/a1745986008489_1163.jpg","https://xcimg.szwego.com/img/d5e7a5ce/20250430/a1745986009413_1637.jpg","https://xcimg.szwego.com/img/d5e7a5ce/20250430/a1745986009417_0260.jpg","https://xcimg.szwego.com/img/d5e7a5ce/20250430/a1745986009419_0617.jpg"],"created_at":"2026-06-29T10:29:02.829Z"},{"id":"item-04bb3ca2e338","sku":"_djLjL_tOr-1dZvFhn3uLzM0TfCgfMi2SRapbk1Q","name_en":"❤️B家手提包斜挎包,经典棉质格纹帆布拼牛皮,袋口拉链设计,两侧可收拢展开,多种背法,上身效果超赞,尺寸:21/20/13","name_cn":"❤️B家手提包斜挎包,经典棉质格纹帆布拼牛皮,袋口拉链设计,两侧可收拢展开,多种背法,上身效果超赞,尺寸:21/20/13","specs":{"source":"wsxcme","sourceId":"_djLjL_tOr-1dZvFhn3uLzM0TfCgfMi2SRapbk1Q","sourceTagId":80411239,"sourceTagName":"巴宝莉/女包","rawTitle":"❤️B家手提包斜挎包,经典棉质格纹帆布拼牛皮,袋口拉链设计,两侧可收拢展开,多种背法,上身效果超赞,尺寸:21/20/13"},"price":null,"currency":"CNY","moq":1,"category":"burberry-women-bags","status":"active","alibaba_url":null,"images":["https://xcimg.szwego.com/img/d5e7a5ce/20250430/a1745986458697_3424.jpg","https://xcimg.szwego.com/img/d5e7a5ce/20250430/a1745986458695_6048.jpg","https://xcimg.szwego.com/img/d5e7a5ce/20250430/a1745986458702_4836.jpg","https://xcimg.szwego.com/img/d5e7a5ce/20250430/a1745986458703_3430.jpg","https://xcimg.szwego.com/img/d5e7a5ce/20250430/a1745986458701_0066.jpg","https://xcimg.szwego.com/img/d5e7a5ce/20250430/a1745986458700_0704.jpg","https://xcimg.szwego.com/img/d5e7a5ce/20250430/a1745986459704_7374.jpg","https://xcimg.szwego.com/img/d5e7a5ce/20250430/a1745986459706_5086.jpg","https://xcimg.szwego.com/img/d5e7a5ce/20250430/a1745986459708_8148.jpg","https://xcimg.szwego.com/img/d5e7a5ce/20250430/a1745986459710_7662.jpg"],"created_at":"2026-06-29T10:29:02.819Z"}],"page":45,"pageSize":24,"total":10075,"totalPages":420}
