{"items":[{"id":"item-22e321089b7c","sku":"_d8787O8f_LNCoLetusKYQotP9dzCi-z_RqnHLFg","name_en":"CELIN新款黑金凯旋门FOLCO手提单肩皆可","name_cn":"CELIN新款黑金凯旋门FOLCO手提单肩皆可\n尺寸25.5*14**7.5cm算是大容量选手风琴褶结构利落挺拮简约又高级","specs":{"source":"wsxcme","sourceId":"_d8787O8f_LNCoLetusKYQotP9dzCi-z_RqnHLFg","sourceTagId":47003106,"sourceTagName":"塞琳/女包","rawTitle":"CELIN新款黑金凯旋门FOLCO手提单肩皆可\n尺寸25.5*14**7.5cm算是大容量选手风琴褶结构利落挺拮简约又高级"},"price":null,"currency":"CNY","moq":1,"category":"celine-women-bags","status":"active","alibaba_url":null,"images":["https://xcimg.szwego.com/img/1a8dcad8/20260416/a1776314315737_2201.jpg","https://xcimg.szwego.com/img/1a8dcad8/20260416/a1776314315772_8306.jpg","https://xcimg.szwego.com/img/1a8dcad8/20260416/a1776314315683_3322.jpg","https://xcimg.szwego.com/img/1a8dcad8/20260416/a1776314315782_7131.jpg","https://xcimg.szwego.com/img/1a8dcad8/20260416/a1776314315793_6040.jpg"],"created_at":"2026-05-20T03:16:24.506Z"},{"id":"item-c18ac1c8bc1a","sku":"_dcjcjaSODN2Raev4G06_ERCjfbPC8BsY0R7QN-g","name_en":"CELINE| FOLIO新款包包天然小牛皮”","name_cn":"CELINE| FOLIO新款包包天然小牛皮”\n带手柄的“凯旋门”Triomphe来了","specs":{"source":"wsxcme","sourceId":"_dcjcjaSODN2Raev4G06_ERCjfbPC8BsY0R7QN-g","sourceTagId":47003106,"sourceTagName":"塞琳/女包","rawTitle":"CELINE| FOLIO新款包包天然小牛皮”\n带手柄的“凯旋门”Triomphe来了"},"price":null,"currency":"CNY","moq":1,"category":"celine-women-bags","status":"active","alibaba_url":null,"images":["https://xcimg.szwego.com/img/1a8dcad8/20260416/a1776314130754_0843.jpg","https://xcimg.szwego.com/img/1a8dcad8/20260416/a1776314130725_8835.jpg","https://xcimg.szwego.com/img/1a8dcad8/20260416/a1776314130607_1382.jpg","https://xcimg.szwego.com/img/1a8dcad8/20260416/a1776314130599_8688.jpg","https://xcimg.szwego.com/img/1a8dcad8/20260416/a1776314130652_7368.jpg"],"created_at":"2026-05-20T03:16:24.496Z"},{"id":"item-19b344463176","sku":"_dmPmPE9Keid62G-9vlJhePE3o8qwtgW0IGWIP_Q","name_en":"CELINE26夏新款TRIOMPHE FOLIO手袋这只新款手袋牛皮款的就已经很美了","name_cn":"CELINE26夏新款TRIOMPHE FOLIO手袋这只新款手袋牛皮款的就已经很美了\n定制鳄鱼皮款更是变得更加精致高级\n可斜挎可腋下可手拎\n是鳄鱼皮手袋中无可挑剔的一款","specs":{"source":"wsxcme","sourceId":"_dmPmPE9Keid62G-9vlJhePE3o8qwtgW0IGWIP_Q","sourceTagId":47003106,"sourceTagName":"塞琳/女包","rawTitle":"CELINE26夏新款TRIOMPHE FOLIO手袋这只新款手袋牛皮款的就已经很美了\n定制鳄鱼皮款更是变得更加精致高级\n可斜挎可腋下可手拎\n是鳄鱼皮手袋中无可挑剔的一款"},"price":null,"currency":"CNY","moq":1,"category":"celine-women-bags","status":"active","alibaba_url":null,"images":["https://xcimg.szwego.com/img/1a8dcad8/20260416/a1776313994465_1183.jpg","https://xcimg.szwego.com/img/1a8dcad8/20260416/a1776313994465_0757.jpg","https://xcimg.szwego.com/img/1a8dcad8/20260416/a1776313994500_8221.jpg","https://xcimg.szwego.com/img/1a8dcad8/20260416/a1776313994465_2443.jpg","https://xcimg.szwego.com/img/1a8dcad8/20260416/a1776313994508_6441.jpg","https://xcimg.szwego.com/img/1a8dcad8/20260416/a1776313995435_0884.jpg"],"created_at":"2026-05-20T03:16:24.486Z"},{"id":"item-581f046cd67b","sku":"_d7v7vj3iI0vK48D-T82O3LVJyXXmPzbWDg2auUg","name_en":"新品上线🅰️🅰️ 新品升级版凯旋门TRIOME FOLIO","name_cn":"新品上线🅰️🅰️ 新品升级版凯旋门TRIOME FOLIO\nSummer26凯旋门家族最新包型👜\nTRIOME FOLIO中号手袋来啦打\n利落长形包身 浮雕凯旋门金扣 简约大气\n新增了手柄 短提手拎着是精致大小姐🤳\n加根肩带斜挎又变松弛通勤款\n装得下卡包+手机+补妆品\n自重轻到背一天都不累👍🏻\n款号:123203\n颜色:克色\n尺寸:25.5x14x7.5cm\n(配原版包装)","specs":{"source":"wsxcme","sourceId":"_d7v7vj3iI0vK48D-T82O3LVJyXXmPzbWDg2auUg","sourceTagId":47003106,"sourceTagName":"塞琳/女包","modelNumber":"123203","dimensions":{"lengthCm":25.5,"heightCm":14,"widthCm":7.5},"rawTitle":"新品上线🅰️🅰️ 新品升级版凯旋门TRIOME FOLIO\nSummer26凯旋门家族最新包型👜\nTRIOME FOLIO中号手袋来啦打\n利落长形包身 浮雕凯旋门金扣 简约大气\n新增了手柄 短提手拎着是精致大小姐🤳\n加根肩带斜挎又变松弛通勤款\n装得下卡包+手机+补妆品\n自重轻到背一天都不累👍🏻\n款号:123203\n颜色:克色\n尺寸:25.5x14x7.5cm\n(配原版包装)"},"price":null,"currency":"CNY","moq":1,"category":"celine-women-bags","status":"active","alibaba_url":null,"images":["https://xcimg.szwego.com/img/1a8dcad8/20260416/a1776313898131_2340.jpg","https://xcimg.szwego.com/img/1a8dcad8/20260416/a1776313897924_6028.jpg","https://xcimg.szwego.com/img/1a8dcad8/20260416/a1776313898013_5822.jpg","https://xcimg.szwego.com/img/1a8dcad8/20260416/a1776313897875_1460.jpg","https://xcimg.szwego.com/img/1a8dcad8/20260416/a1776313898050_2785.jpg","https://xcimg.szwego.com/img/1a8dcad8/20260416/a1776313899380_1342.jpg","https://xcimg.szwego.com/img/1a8dcad8/20260416/a1776313899851_6751.jpg","https://xcimg.szwego.com/img/1a8dcad8/20260416/a1776313899746_1047.jpg"],"created_at":"2026-05-20T03:16:24.476Z"},{"id":"item-e0485d6bd07f","sku":"_dvSvSXdYtHCXOAraGAu-PBWCpxwFao4QJebKVjg","name_en":"新品上线🅰️🅰️ 新品升级版凯旋门TRIOME FOLIO","name_cn":"新品上线🅰️🅰️ 新品升级版凯旋门TRIOME FOLIO\nSummer26凯旋门家族最新包型👜\nTRIOME FOLIO中号手袋来啦打\n利落长形包身 浮雕凯旋门金扣 简约大气\n新增了手柄 短提手拎着是精致大小姐🤳\n加根肩带斜挎又变松弛通勤款\n装得下卡包+手机+补妆品\n自重轻到背一天都不累👍🏻\n款号:123203\n颜色:棕色\n尺寸:25.5x14x7.5cm\n(配原版包装)","specs":{"source":"wsxcme","sourceId":"_dvSvSXdYtHCXOAraGAu-PBWCpxwFao4QJebKVjg","sourceTagId":47003106,"sourceTagName":"塞琳/女包","modelNumber":"123203","dimensions":{"lengthCm":25.5,"heightCm":14,"widthCm":7.5},"rawTitle":"新品上线🅰️🅰️ 新品升级版凯旋门TRIOME FOLIO\nSummer26凯旋门家族最新包型👜\nTRIOME FOLIO中号手袋来啦打\n利落长形包身 浮雕凯旋门金扣 简约大气\n新增了手柄 短提手拎着是精致大小姐🤳\n加根肩带斜挎又变松弛通勤款\n装得下卡包+手机+补妆品\n自重轻到背一天都不累👍🏻\n款号:123203\n颜色:棕色\n尺寸:25.5x14x7.5cm\n(配原版包装)"},"price":null,"currency":"CNY","moq":1,"category":"celine-women-bags","status":"active","alibaba_url":null,"images":["https://xcimg.szwego.com/img/1a8dcad8/20260416/a1776313867343_8547.jpg","https://xcimg.szwego.com/img/1a8dcad8/20260416/a1776313867615_6357.jpg","https://xcimg.szwego.com/img/1a8dcad8/20260416/a1776313867513_0024.jpg","https://xcimg.szwego.com/img/1a8dcad8/20260416/a1776313867479_3732.jpg","https://xcimg.szwego.com/img/1a8dcad8/20260416/a1776313867592_2767.jpg","https://xcimg.szwego.com/img/1a8dcad8/20260416/a1776313869558_2487.jpg","https://xcimg.szwego.com/img/1a8dcad8/20260416/a1776313869591_3356.jpg","https://xcimg.szwego.com/img/1a8dcad8/20260416/a1776313869546_3138.jpg"],"created_at":"2026-05-20T03:16:24.466Z"},{"id":"item-f5c1a7ec8a3c","sku":"_dwxwxA9qg_lztvm4GaEXCTrRylYMSLlGpWphAEA","name_en":"新品上线🅰️🅰️ 新品升级版凯旋门TRIOME FOLIO","name_cn":"新品上线🅰️🅰️ 新品升级版凯旋门TRIOME FOLIO\nSummer26凯旋门家族最新包型👜\nTRIOME FOLIO中号手袋来啦打\n利落长形包身 浮雕凯旋门金扣 简约大气\n新增了手柄 短提手拎着是精致大小姐🤳\n加根肩带斜挎又变松弛通勤款\n装得下卡包+手机+补妆品\n自重轻到背一天都不累👍🏻\n款号:123203\n颜色:克色鳄鱼纹银扣\n尺寸:25.5x14x7.5cm\n(配原版包装)","specs":{"source":"wsxcme","sourceId":"_dwxwxA9qg_lztvm4GaEXCTrRylYMSLlGpWphAEA","sourceTagId":47003106,"sourceTagName":"塞琳/女包","modelNumber":"123203","dimensions":{"lengthCm":25.5,"heightCm":14,"widthCm":7.5},"rawTitle":"新品上线🅰️🅰️ 新品升级版凯旋门TRIOME FOLIO\nSummer26凯旋门家族最新包型👜\nTRIOME FOLIO中号手袋来啦打\n利落长形包身 浮雕凯旋门金扣 简约大气\n新增了手柄 短提手拎着是精致大小姐🤳\n加根肩带斜挎又变松弛通勤款\n装得下卡包+手机+补妆品\n自重轻到背一天都不累👍🏻\n款号:123203\n颜色:克色鳄鱼纹银扣\n尺寸:25.5x14x7.5cm\n(配原版包装)"},"price":null,"currency":"CNY","moq":1,"category":"celine-women-bags","status":"active","alibaba_url":null,"images":["https://xcimg.szwego.com/img/1a8dcad8/20260416/a1776313813596_2522.jpg","https://xcimg.szwego.com/img/1a8dcad8/20260416/a1776313813781_7038.jpg","https://xcimg.szwego.com/img/1a8dcad8/20260416/a1776313814786_3463.jpg","https://xcimg.szwego.com/img/1a8dcad8/20260416/a1776313813505_6215.jpg","https://xcimg.szwego.com/img/1a8dcad8/20260416/a1776313813798_4842.jpg","https://xcimg.szwego.com/img/1a8dcad8/20260416/a1776313815287_3768.jpg","https://xcimg.szwego.com/img/1a8dcad8/20260416/a1776313815638_8347.jpg","https://xcimg.szwego.com/img/1a8dcad8/20260416/a1776313815728_2104.jpg"],"created_at":"2026-05-20T03:16:24.456Z"},{"id":"item-0cae39781e62","sku":"_dlBlBeVPBXVMEER24zEXEaT0wCpUaZzVg2kSLvg","name_en":"CELINE NEW BAG「包好看的!","name_cn":"CELINE NEW BAG「包好看的!\n有特别的\n有季节性的\n有经典百搭的\n有稀有独特的\n有你喜欢的","specs":{"source":"wsxcme","sourceId":"_dlBlBeVPBXVMEER24zEXEaT0wCpUaZzVg2kSLvg","sourceTagId":47003106,"sourceTagName":"塞琳/女包","rawTitle":"CELINE NEW BAG「包好看的!\n有特别的\n有季节性的\n有经典百搭的\n有稀有独特的\n有你喜欢的"},"price":null,"currency":"CNY","moq":1,"category":"celine-women-bags","status":"active","alibaba_url":null,"images":["https://xcimg.szwego.com/img/1a8dcad8/20250829/a1756406211472_8115.jpg","https://xcimg.szwego.com/img/1a8dcad8/20250829/a1756406211569_1047.jpg","https://xcimg.szwego.com/img/1a8dcad8/20250829/a1756406211539_0433.jpg","https://xcimg.szwego.com/img/1a8dcad8/20250829/a1756406211540_4724.jpg"],"created_at":"2026-05-20T03:16:24.446Z"},{"id":"item-5ea9f11bb0aa","sku":"_dj1j1h9Ls7Kk77eAmwTxI3JspQ1LnyV_ZaNQliw","name_en":"Celine Women Bags","name_cn":"刘诗诗高端时尚与街头风相结合的穿搭","specs":{"source":"wsxcme","sourceId":"_dj1j1h9Ls7Kk77eAmwTxI3JspQ1LnyV_ZaNQliw","sourceTagId":47003106,"sourceTagName":"塞琳/女包","rawTitle":"刘诗诗高端时尚与街头风相结合的穿搭"},"price":null,"currency":"CNY","moq":1,"category":"celine-women-bags","status":"active","alibaba_url":null,"images":["https://xcimg.szwego.com/img/1a8dcad8/20250829/a1756406000663_3472.jpg","https://xcimg.szwego.com/img/1a8dcad8/20250829/a1756406000658_2867.jpg","https://xcimg.szwego.com/img/1a8dcad8/20250829/a1756406000664_2463.jpg","https://xcimg.szwego.com/img/1a8dcad8/20250829/a1756406097818_1715.jpg","https://xcimg.szwego.com/img/1a8dcad8/20250829/a1756406097823_1220.jpg","https://xcimg.szwego.com/img/1a8dcad8/20250829/a1756406120226_1555.jpg"],"created_at":"2026-05-20T03:16:24.436Z"},{"id":"item-cb255992d997","sku":"_d_k_krJYlD1RNvzMlxasxBVmbJn44yuSNUJXJhw","name_en":"CELINE25|TEEN GARANCE编织藤编手袋-","name_cn":"CELINE25|TEEN GARANCE编织藤编手袋-\n🆕🆕🆕\n极致丝滑✨新品GARANCE\nCELINE的黄金60年代,一定要拥有的漆皮手袋🎩\n-恰到好处的精致感,纯粹又优雅\n-精致黑金~神秘又迷人,搭配秋冬色系高级感爆棚💯\n-全新设计手挽肩带~相较传统腋下包更舒适、更加挺括有型🆙\n看过秀的姐妹~应该都会被迷倒吧🤩\n藤编,羊皮革衬里,肩背和手提,TRIOMPHE金属锁扣,3个内侧隔层,1个内侧拉链口袋,1个内侧扁平口袋,皮革提手长24cm\n尺寸:18.5x13x6cm\n编号:118053","specs":{"source":"wsxcme","sourceId":"_d_k_krJYlD1RNvzMlxasxBVmbJn44yuSNUJXJhw","sourceTagId":47003106,"sourceTagName":"塞琳/女包","dimensions":{"lengthCm":18.5,"heightCm":13,"widthCm":6},"rawTitle":"CELINE25|TEEN GARANCE编织藤编手袋-\n🆕🆕🆕\n极致丝滑✨新品GARANCE\nCELINE的黄金60年代,一定要拥有的漆皮手袋🎩\n-恰到好处的精致感,纯粹又优雅\n-精致黑金~神秘又迷人,搭配秋冬色系高级感爆棚💯\n-全新设计手挽肩带~相较传统腋下包更舒适、更加挺括有型🆙\n看过秀的姐妹~应该都会被迷倒吧🤩\n藤编,羊皮革衬里,肩背和手提,TRIOMPHE金属锁扣,3个内侧隔层,1个内侧拉链口袋,1个内侧扁平口袋,皮革提手长24cm\n尺寸:18.5x13x6cm\n编号:118053"},"price":null,"currency":"CNY","moq":1,"category":"celine-women-bags","status":"active","alibaba_url":null,"images":["https://xcimg.szwego.com/img/1a8dcad8/20250829/a1756405911165_7584.jpg","https://xcimg.szwego.com/img/1a8dcad8/20250829/a1756405910892_7147.jpg","https://xcimg.szwego.com/img/1a8dcad8/20250829/a1756405911117_1373.jpg","https://xcimg.szwego.com/img/1a8dcad8/20250829/a1756405910888_5728.jpg","https://xcimg.szwego.com/img/1a8dcad8/20250829/a1756405911277_5645.jpg","https://xcimg.szwego.com/img/1a8dcad8/20250829/a1756405912942_5061.jpg","https://xcimg.szwego.com/img/1a8dcad8/20250829/a1756405913054_4605.jpg","https://xcimg.szwego.com/img/1a8dcad8/20250829/a1756405913083_2558.jpg"],"created_at":"2026-05-20T03:16:24.426Z"},{"id":"item-ee6ad44aa458","sku":"_dgEgESqnbrF3t-zcqmIOGvkPk_TcCCbA8ziX0zQ","name_en":"CELINE | 度假风草编包","name_cn":"CELINE | 度假风草编包\n草编tilly超级可爱呀\n小长假一起去夏日海滩吧","specs":{"source":"wsxcme","sourceId":"_dgEgESqnbrF3t-zcqmIOGvkPk_TcCCbA8ziX0zQ","sourceTagId":47003106,"sourceTagName":"塞琳/女包","rawTitle":"CELINE | 度假风草编包\n草编tilly超级可爱呀\n小长假一起去夏日海滩吧"},"price":null,"currency":"CNY","moq":1,"category":"celine-women-bags","status":"active","alibaba_url":null,"images":["https://xcimg.szwego.com/img/1a8dcad8/20250829/a1756406803635_0311.jpg","https://xcimg.szwego.com/img/1a8dcad8/20250829/a1756406803646_0240.jpg","https://xcimg.szwego.com/img/1a8dcad8/20250829/a1756406803565_5418.jpg","https://xcimg.szwego.com/img/1a8dcad8/20250829/a1756406803637_0003.jpg","https://xcimg.szwego.com/img/1a8dcad8/20250829/a1756406803578_8875.jpg","https://xcimg.szwego.com/img/1a8dcad8/20250829/a1756406804789_0024.jpg","https://xcimg.szwego.com/img/1a8dcad8/20250829/a1756406804789_1052.jpg"],"created_at":"2026-05-20T03:16:24.416Z"},{"id":"item-5c3848c929ea","sku":"_dyZyZ3Vt5Dikbw-5lzxvJ_5SzcGqOcA-mu7tUyg","name_en":"CELINE草编腋下来咯!","name_cn":"CELINE草编腋下来咯!\n材质:拉菲草\n在马达加斯加手工编织而成,自重超级轻,有经典的TRIOMPHE标识","specs":{"source":"wsxcme","sourceId":"_dyZyZ3Vt5Dikbw-5lzxvJ_5SzcGqOcA-mu7tUyg","sourceTagId":47003106,"sourceTagName":"塞琳/女包","rawTitle":"CELINE草编腋下来咯!\n材质:拉菲草\n在马达加斯加手工编织而成,自重超级轻,有经典的TRIOMPHE标识"},"price":null,"currency":"CNY","moq":1,"category":"celine-women-bags","status":"active","alibaba_url":null,"images":["https://xcimg.szwego.com/img/1a8dcad8/20250829/a1756406684033_0567.jpg","https://xcimg.szwego.com/img/1a8dcad8/20250829/a1756406684078_6813.jpg","https://xcimg.szwego.com/img/1a8dcad8/20250829/a1756406684080_2068.jpg"],"created_at":"2026-05-20T03:16:24.406Z"},{"id":"item-ef410d4b8bef","sku":"_drGrGlAaz0m31zd6rJFPLLqT3u0yyRwkEbuyhPw","name_en":"新品上线🅰️🅰️ CE TILLY 腋下包","name_cn":"新品上线🅰️🅰️ CE TILLY 腋下包\nCE 爆款腋下包 手工编织而成的包身,每一处纹理都带着自然的温度,凑近细闻,还有淡淡的草木清香,仿佛把整个夏日的清新都收纳其中\n🪧手柄部分搭配柔软牛皮革,不仅增添了耐用性,也巧妙平衡了草编的质朴与皮革的高级,简约又精致,和整体风格相得益彰。\n💼别看它外形小巧,实则很能装!内部空间规整,日常出门的手机、钱包、防晒、口红等小物件都能轻松容纳,自带的小内袋还可以放些重要的卡片、钥匙,拿取很方便\n🌟并且它简直是搭配界的“万能选手” 穿上白色连衣裙,配上它去海边度假,瞬间营造出慵懒的法式度假风,拍起照来氛围感拉满\n日常穿简约的T恤牛仔裤,它又能成为点睛之笔,为休闲装扮增添一份精致与随性 ,不管是度假、野餐还是逛街,它都能完美适配✅\n款号:115703\n颜色:拉菲草/棕\n尺寸:22x13.5x4cm(配原版包装)","specs":{"source":"wsxcme","sourceId":"_drGrGlAaz0m31zd6rJFPLLqT3u0yyRwkEbuyhPw","sourceTagId":47003106,"sourceTagName":"塞琳/女包","modelNumber":"115703","dimensions":{"lengthCm":22,"heightCm":13.5,"widthCm":4},"rawTitle":"新品上线🅰️🅰️ CE TILLY 腋下包\nCE 爆款腋下包 手工编织而成的包身,每一处纹理都带着自然的温度,凑近细闻,还有淡淡的草木清香,仿佛把整个夏日的清新都收纳其中\n🪧手柄部分搭配柔软牛皮革,不仅增添了耐用性,也巧妙平衡了草编的质朴与皮革的高级,简约又精致,和整体风格相得益彰。\n💼别看它外形小巧,实则很能装!内部空间规整,日常出门的手机、钱包、防晒、口红等小物件都能轻松容纳,自带的小内袋还可以放些重要的卡片、钥匙,拿取很方便\n🌟并且它简直是搭配界的“万能选手” 穿上白色连衣裙,配上它去海边度假,瞬间营造出慵懒的法式度假风,拍起照来氛围感拉满\n日常穿简约的T恤牛仔裤,它又能成为点睛之笔,为休闲装扮增添一份精致与随性 ,不管是度假、野餐还是逛街,它都能完美适配✅\n款号:115703\n颜色:拉菲草/棕\n尺寸:22x13.5x4cm(配原版包装)"},"price":null,"currency":"CNY","moq":1,"category":"celine-women-bags","status":"active","alibaba_url":null,"images":["https://xcimg.szwego.com/img/1a8dcad8/20250829/a1756406476944_6116.jpg","https://xcimg.szwego.com/img/1a8dcad8/20250829/a1756406476477_6836.jpg","https://xcimg.szwego.com/img/1a8dcad8/20250829/a1756406476725_1582.jpg","https://xcimg.szwego.com/img/1a8dcad8/20250829/a1756406476189_8325.jpg","https://xcimg.szwego.com/img/1a8dcad8/20250829/a1756406476425_7403.jpg","https://xcimg.szwego.com/img/1a8dcad8/20250829/a1756406478197_8281.jpg","https://xcimg.szwego.com/img/1a8dcad8/20250829/a1756406478213_7472.jpg","https://xcimg.szwego.com/img/1a8dcad8/20250829/a1756406478213_0653.jpg"],"created_at":"2026-05-20T03:16:24.396Z"},{"id":"item-016f23514731","sku":"_dmVmVUoGtbBSGhOfIUSxTm6_Hp2hLUrDNqtyP_g","name_en":"CELINE | 25ss新款","name_cn":"CELINE | 25ss新款\n搭配拉菲草nino\n度假风满满","specs":{"source":"wsxcme","sourceId":"_dmVmVUoGtbBSGhOfIUSxTm6_Hp2hLUrDNqtyP_g","sourceTagId":47003106,"sourceTagName":"塞琳/女包","rawTitle":"CELINE | 25ss新款\n搭配拉菲草nino\n度假风满满"},"price":null,"currency":"CNY","moq":1,"category":"celine-women-bags","status":"active","alibaba_url":null,"images":["https://xcimg.szwego.com/img/1a8dcad8/20250820/a1755621571784_0545.jpg","https://xcimg.szwego.com/img/1a8dcad8/20250820/a1755621571770_0128.jpg","https://xcimg.szwego.com/img/1a8dcad8/20250820/a1755621571771_8822.jpg","https://xcimg.szwego.com/img/1a8dcad8/20250820/a1755621571769_8475.jpg"],"created_at":"2026-05-20T03:16:24.386Z"},{"id":"item-670afb40e43d","sku":"_dcjcjaSODN2Raev4G06_ERCjfbPO2BsY0R7QN-g","name_en":"Celine Women Bags","name_cn":"新品上线🅰️\nCELINE 🆕 TEEN NINO编织手袋\n新款凯旋门收袋 满满高级感!\n简约精致的轮廓  等等...都散发着无与伦比的高级感❤️ kelly经典造型的线条简洁大方 无需多余的装饰  都即显审美魅力🫶🏻\n款号:🔎118113\n尺寸:20.5x13x8","specs":{"source":"wsxcme","sourceId":"_dcjcjaSODN2Raev4G06_ERCjfbPO2BsY0R7QN-g","sourceTagId":47003106,"sourceTagName":"塞琳/女包","modelNumber":"🔎118113","rawTitle":"新品上线🅰️\nCELINE 🆕 TEEN NINO编织手袋\n新款凯旋门收袋 满满高级感!\n简约精致的轮廓  等等...都散发着无与伦比的高级感❤️ kelly经典造型的线条简洁大方 无需多余的装饰  都即显审美魅力🫶🏻\n款号:🔎118113\n尺寸:20.5x13x8"},"price":null,"currency":"CNY","moq":1,"category":"celine-women-bags","status":"active","alibaba_url":null,"images":["https://xcimg.szwego.com/img/1a8dcad8/20250820/a1755621543070_3280.jpg","https://xcimg.szwego.com/img/1a8dcad8/20250820/a1755621543072_0682.jpg","https://xcimg.szwego.com/img/1a8dcad8/20250820/a1755621543066_8235.jpg","https://xcimg.szwego.com/img/1a8dcad8/20250820/a1755621543083_5672.jpg","https://xcimg.szwego.com/img/1a8dcad8/20250820/a1755621543075_0453.jpg","https://xcimg.szwego.com/img/1a8dcad8/20250820/a1755621543082_1710.jpg","https://xcimg.szwego.com/img/1a8dcad8/20250820/a1755621543719_5764.jpg","https://xcimg.szwego.com/img/1a8dcad8/20250820/a1755621543718_6430.jpg"],"created_at":"2026-05-20T03:16:24.376Z"},{"id":"item-102331db5eae","sku":"_djijiRLZoUR1U6F39o0V9mipLeTO2wyW8Nd2kBw","name_en":"CELIN25新款包包来啦★春夏简直是主场","name_cn":"CELIN25新款包包来啦★春夏简直是主场","specs":{"source":"wsxcme","sourceId":"_djijiRLZoUR1U6F39o0V9mipLeTO2wyW8Nd2kBw","sourceTagId":47003106,"sourceTagName":"塞琳/女包","rawTitle":"CELIN25新款包包来啦★春夏简直是主场"},"price":null,"currency":"CNY","moq":1,"category":"celine-women-bags","status":"active","alibaba_url":null,"images":["https://xcimg.szwego.com/img/1a8dcad8/20250804/a1754240463657_2422.jpg","https://xcimg.szwego.com/img/1a8dcad8/20250804/a1754240463863_5872.jpg","https://xcimg.szwego.com/img/1a8dcad8/20250804/a1754240463736_6613.jpg","https://xcimg.szwego.com/img/1a8dcad8/20250804/a1754240463741_5140.jpg"],"created_at":"2026-05-20T03:16:24.366Z"},{"id":"item-51e28fbc1486","sku":"_d-F-Fa8kuGiwCyOEaNst1_z2i8vTjp51OZinXgQ","name_en":"CELINE草编VICTIORE中号","name_cn":"CELINE草编VICTIORE中号\n夏天怎么可以少的了草编包呢","specs":{"source":"wsxcme","sourceId":"_d-F-Fa8kuGiwCyOEaNst1_z2i8vTjp51OZinXgQ","sourceTagId":47003106,"sourceTagName":"塞琳/女包","rawTitle":"CELINE草编VICTIORE中号\n夏天怎么可以少的了草编包呢"},"price":null,"currency":"CNY","moq":1,"category":"celine-women-bags","status":"active","alibaba_url":null,"images":["https://xcimg.szwego.com/img/1a8dcad8/20250804/a1754240328569_2668.jpg","https://xcimg.szwego.com/img/1a8dcad8/20250804/a1754240328573_8276.jpg","https://xcimg.szwego.com/img/1a8dcad8/20250804/a1754240328567_1822.jpg","https://xcimg.szwego.com/img/1a8dcad8/20250804/a1754240328417_0433.jpg","https://xcimg.szwego.com/img/1a8dcad8/20250804/a1754240328505_0326.jpg","https://xcimg.szwego.com/img/1a8dcad8/20250804/a1754240328566_7578.jpg","https://xcimg.szwego.com/img/1a8dcad8/20250804/a1754240329164_6411.jpg"],"created_at":"2026-05-20T03:16:24.356Z"},{"id":"item-a1dd38bb5679","sku":"_dykykt8Tgt_LpusL6jFgf837fzUvKHbYVT4knWg","name_en":"CELIN_E 2026🆕|VICTOIRE中号柔软编织凯旋门手袋","name_cn":"CELIN_E 2026🆕|VICTOIRE中号柔软编织凯旋门手袋\nCELINE终于出了一款可单肩可斜挎的包包👏\nCeline SU24最新款式-Victoire\nVictorie有胜利的意思 亦有凯旋的含意✌\n久违的链条凯旋门包包 众多明星同款~\n采用了高级天然拉菲草\n高级感的粒面和柔软的手感\n链条一如以往采用了三角形切割舒适感100分 也是珠宝工艺的超级闪亮✨\n天然拉菲草,羊皮革衬里,金色饰面,可斜挎和肩背,全钢TRIOMPHE按扣开合,2个主隔层,1个内侧扁平口袋,1个内侧中央拉链口袋,全钢金属滑链,最小长度25厘米和最大长度47厘米\n尺寸:25 X 15 X 8厘米\n编号:115853","specs":{"source":"wsxcme","sourceId":"_dykykt8Tgt_LpusL6jFgf837fzUvKHbYVT4knWg","sourceTagId":47003106,"sourceTagName":"塞琳/女包","dimensions":{"lengthCm":25,"heightCm":15,"widthCm":8},"rawTitle":"CELIN_E 2026🆕|VICTOIRE中号柔软编织凯旋门手袋\nCELINE终于出了一款可单肩可斜挎的包包👏\nCeline SU24最新款式-Victoire\nVictorie有胜利的意思 亦有凯旋的含意✌\n久违的链条凯旋门包包 众多明星同款~\n采用了高级天然拉菲草\n高级感的粒面和柔软的手感\n链条一如以往采用了三角形切割舒适感100分 也是珠宝工艺的超级闪亮✨\n天然拉菲草,羊皮革衬里,金色饰面,可斜挎和肩背,全钢TRIOMPHE按扣开合,2个主隔层,1个内侧扁平口袋,1个内侧中央拉链口袋,全钢金属滑链,最小长度25厘米和最大长度47厘米\n尺寸:25 X 15 X 8厘米\n编号:115853"},"price":null,"currency":"CNY","moq":1,"category":"celine-women-bags","status":"active","alibaba_url":null,"images":["https://xcimg.szwego.com/img/1a8dcad8/20250804/a1754240218512_2550.jpg","https://xcimg.szwego.com/img/1a8dcad8/20250804/a1754240218770_6351.jpg","https://xcimg.szwego.com/img/1a8dcad8/20250804/a1754240218488_6130.jpg","https://xcimg.szwego.com/img/1a8dcad8/20250804/a1754240218497_2653.jpg","https://xcimg.szwego.com/img/1a8dcad8/20250804/a1754240218804_8861.jpg","https://xcimg.szwego.com/img/1a8dcad8/20250804/a1754240218662_2162.jpg","https://xcimg.szwego.com/img/1a8dcad8/20250804/a1754240219520_8763.jpg","https://xcimg.szwego.com/img/1a8dcad8/20250804/a1754240219384_1644.jpg"],"created_at":"2026-05-20T03:16:24.346Z"},{"id":"item-fe41c650c146","sku":"_dtitiEx7gokM7ohUFpp_XQf-_mJphCXJIuBEFgQ","name_en":"Celine Women Bags","name_cn":"小小的包大大的精致🥰","specs":{"source":"wsxcme","sourceId":"_dtitiEx7gokM7ohUFpp_XQf-_mJphCXJIuBEFgQ","sourceTagId":47003106,"sourceTagName":"塞琳/女包","rawTitle":"小小的包大大的精致🥰"},"price":null,"currency":"CNY","moq":1,"category":"celine-women-bags","status":"active","alibaba_url":null,"images":["https://xcimg.szwego.com/img/1a8dcad8/20250713/a1752339496094_0172.jpg","https://xcimg.szwego.com/img/1a8dcad8/20250713/a1752339496237_3625.jpg","https://xcimg.szwego.com/img/1a8dcad8/20250713/a1752339496232_0268.jpg","https://xcimg.szwego.com/img/1a8dcad8/20250713/a1752339496215_2403.jpg","https://xcimg.szwego.com/img/1a8dcad8/20250713/a1752339496216_0521.jpg","https://xcimg.szwego.com/img/1a8dcad8/20250713/a1752339496213_2227.jpg"],"created_at":"2026-05-20T03:16:24.336Z"},{"id":"item-399da4b09206","sku":"_dwmwmSHa3Gs3he-wOxwlVruM3NTzV1jE64U_WIQ","name_en":"CELIN_E 2026🆕|TEEN VICTOIRE小号编织手袋","name_cn":"CELIN_E 2026🆕|TEEN VICTOIRE小号编织手袋\nCELINE终于出了一款可单肩可斜挎的包包👏\nCeline SU25最新款式-Victoire\nVictorie有胜利的意思 亦有凯旋的含意✌\n久违的链条凯旋门包包 众多明星同款~\n采用了高级天然粒纹小牛皮\n小号更加俏皮可爱\n高级感的粒面和柔软的手感\n全钢链条一如以往采用了三角形切割舒适感100分 也是珠宝工艺的超级闪亮✨\n\n羊皮革衬里,金色饰面,可斜挎和肩背,全钢TRIOMPHE按扣开合,2个主隔层,1个内侧扁平口袋,1个内侧中央拉链口袋,全钢金属滑链,最小长度26厘米和最大长度47厘米\n尺寸:23.5 X 14 X 8厘米\n编号:116593","specs":{"source":"wsxcme","sourceId":"_dwmwmSHa3Gs3he-wOxwlVruM3NTzV1jE64U_WIQ","sourceTagId":47003106,"sourceTagName":"塞琳/女包","dimensions":{"lengthCm":23.5,"heightCm":14,"widthCm":8},"rawTitle":"CELIN_E 2026🆕|TEEN VICTOIRE小号编织手袋\nCELINE终于出了一款可单肩可斜挎的包包👏\nCeline SU25最新款式-Victoire\nVictorie有胜利的意思 亦有凯旋的含意✌\n久违的链条凯旋门包包 众多明星同款~\n采用了高级天然粒纹小牛皮\n小号更加俏皮可爱\n高级感的粒面和柔软的手感\n全钢链条一如以往采用了三角形切割舒适感100分 也是珠宝工艺的超级闪亮✨\n\n羊皮革衬里,金色饰面,可斜挎和肩背,全钢TRIOMPHE按扣开合,2个主隔层,1个内侧扁平口袋,1个内侧中央拉链口袋,全钢金属滑链,最小长度26厘米和最大长度47厘米\n尺寸:23.5 X 14 X 8厘米\n编号:116593"},"price":null,"currency":"CNY","moq":1,"category":"celine-women-bags","status":"active","alibaba_url":null,"images":["https://xcimg.szwego.com/img/1a8dcad8/20250713/a1752339381649_4363.jpg","https://xcimg.szwego.com/img/1a8dcad8/20250713/a1752339381790_8326.jpg","https://xcimg.szwego.com/img/1a8dcad8/20250713/a1752339382016_6086.jpg","https://xcimg.szwego.com/img/1a8dcad8/20250713/a1752339381738_3785.jpg","https://xcimg.szwego.com/img/1a8dcad8/20250713/a1752339381731_4176.jpg","https://xcimg.szwego.com/img/1a8dcad8/20250713/a1752339381395_2717.jpg","https://xcimg.szwego.com/img/1a8dcad8/20250713/a1752339383136_3475.jpg","https://xcimg.szwego.com/img/1a8dcad8/20250713/a1752339383101_2021.jpg"],"created_at":"2026-05-20T03:16:24.326Z"},{"id":"item-70353035ffd6","sku":"_dqdqdFg8h7C4jD5-bJSxrk5Wgp1LJStsFkjGuPQ","name_en":"CELIN_E 2026🆕|TEEN VICTOIRE小号编织手袋","name_cn":"CELIN_E 2026🆕|TEEN VICTOIRE小号编织手袋\nCELINE终于出了一款可单肩可斜挎的包包👏\nCeline SU25最新款式-Victoire\nVictorie有胜利的意思 亦有凯旋的含意✌\n久违的链条凯旋门包包 众多明星同款~\n采用了高级天然粒纹小牛皮\n小号更加俏皮可爱\n高级感的粒面和柔软的手感\n全钢链条一如以往采用了三角形切割舒适感100分 也是珠宝工艺的超级闪亮✨\n\n羊皮革衬里,金色饰面,可斜挎和肩背,全钢TRIOMPHE按扣开合,2个主隔层,1个内侧扁平口袋,1个内侧中央拉链口袋,全钢金属滑链,最小长度26厘米和最大长度47厘米\n尺寸:23.5 X 14 X 8厘米\n编号:116593","specs":{"source":"wsxcme","sourceId":"_dqdqdFg8h7C4jD5-bJSxrk5Wgp1LJStsFkjGuPQ","sourceTagId":47003106,"sourceTagName":"塞琳/女包","dimensions":{"lengthCm":23.5,"heightCm":14,"widthCm":8},"rawTitle":"CELIN_E 2026🆕|TEEN VICTOIRE小号编织手袋\nCELINE终于出了一款可单肩可斜挎的包包👏\nCeline SU25最新款式-Victoire\nVictorie有胜利的意思 亦有凯旋的含意✌\n久违的链条凯旋门包包 众多明星同款~\n采用了高级天然粒纹小牛皮\n小号更加俏皮可爱\n高级感的粒面和柔软的手感\n全钢链条一如以往采用了三角形切割舒适感100分 也是珠宝工艺的超级闪亮✨\n\n羊皮革衬里,金色饰面,可斜挎和肩背,全钢TRIOMPHE按扣开合,2个主隔层,1个内侧扁平口袋,1个内侧中央拉链口袋,全钢金属滑链,最小长度26厘米和最大长度47厘米\n尺寸:23.5 X 14 X 8厘米\n编号:116593"},"price":null,"currency":"CNY","moq":1,"category":"celine-women-bags","status":"active","alibaba_url":null,"images":["https://xcimg.szwego.com/img/1a8dcad8/20250713/a1752339311575_5853.jpg","https://xcimg.szwego.com/img/1a8dcad8/20250713/a1752339311325_4312.jpg","https://xcimg.szwego.com/img/1a8dcad8/20250713/a1752339311464_2178.jpg","https://xcimg.szwego.com/img/1a8dcad8/20250713/a1752339311520_4625.jpg","https://xcimg.szwego.com/img/1a8dcad8/20250713/a1752339311295_2251.jpg","https://xcimg.szwego.com/img/1a8dcad8/20250713/a1752339311240_6047.jpg","https://xcimg.szwego.com/img/1a8dcad8/20250713/a1752339312887_6277.jpg","https://xcimg.szwego.com/img/1a8dcad8/20250713/a1752339312841_4886.jpg"],"created_at":"2026-05-20T03:16:24.316Z"},{"id":"item-2daad035edff","sku":"_dk5k5uOn4pGukxNdH98Fl39HEas2_GbGg-ZFpNg","name_en":"Celine Women Bags","name_cn":"把蝉鸣、海风和整片盛夏揉进草编纹理:\n草编包摇晃着细碎光斑,装得下橘子汽水、碎花裙摆,也装得下一场说走就走的山海奔赴,把夏天的仪式感稳稳拎在手上","specs":{"source":"wsxcme","sourceId":"_dk5k5uOn4pGukxNdH98Fl39HEas2_GbGg-ZFpNg","sourceTagId":47003106,"sourceTagName":"塞琳/女包","rawTitle":"把蝉鸣、海风和整片盛夏揉进草编纹理:\n草编包摇晃着细碎光斑,装得下橘子汽水、碎花裙摆,也装得下一场说走就走的山海奔赴,把夏天的仪式感稳稳拎在手上"},"price":null,"currency":"CNY","moq":1,"category":"celine-women-bags","status":"active","alibaba_url":null,"images":["https://xcimg.szwego.com/img/1a8dcad8/20250626/a1750916303423_5286.jpg","https://xcimg.szwego.com/img/1a8dcad8/20250626/a1750916303497_8582.jpg","https://xcimg.szwego.com/img/1a8dcad8/20250626/a1750916303385_5356.jpg","https://xcimg.szwego.com/img/1a8dcad8/20250626/a1750916303411_6027.jpg","https://xcimg.szwego.com/img/1a8dcad8/20250626/a1750916303416_6744.jpg","https://xcimg.szwego.com/img/1a8dcad8/20250626/a1750916303405_8303.jpg"],"created_at":"2026-05-20T03:16:24.306Z"},{"id":"item-a3ebee5c9392","sku":"_dwfwflVfgaUv7Fhpnjvys2Usu5STU1fnHD4U_pA","name_en":"CELINE 24ss|TEEN LOLA 编织手袋","name_cn":"CELINE 24ss|TEEN LOLA 编织手袋\n惊艳了时光⏳来自CELINE TEEN LOLA\n将60年代复古风格推到极致、惊艳亮相✨\n恰到好处的精致感、又兼顾到了容量需求\n-标志性老花元素\n秋冬衣橱必备的搭配元素、old money即视感get✔️\n-20x11.5x5cm\n-超长肩带57cm\n单肩、斜挎、手拎都可 堪称造型王者💯\n-凯旋门标志五金+TRIOMPHE按扣+可拆卸调节肩带 搭配多种背法\n颜色: 编织棕\n型号:119533","specs":{"source":"wsxcme","sourceId":"_dwfwflVfgaUv7Fhpnjvys2Usu5STU1fnHD4U_pA","sourceTagId":47003106,"sourceTagName":"塞琳/女包","modelNumber":"119533","rawTitle":"CELINE 24ss|TEEN LOLA 编织手袋\n惊艳了时光⏳来自CELINE TEEN LOLA\n将60年代复古风格推到极致、惊艳亮相✨\n恰到好处的精致感、又兼顾到了容量需求\n-标志性老花元素\n秋冬衣橱必备的搭配元素、old money即视感get✔️\n-20x11.5x5cm\n-超长肩带57cm\n单肩、斜挎、手拎都可 堪称造型王者💯\n-凯旋门标志五金+TRIOMPHE按扣+可拆卸调节肩带 搭配多种背法\n颜色: 编织棕\n型号:119533"},"price":null,"currency":"CNY","moq":1,"category":"celine-women-bags","status":"active","alibaba_url":null,"images":["https://xcimg.szwego.com/img/1a8dcad8/20250626/a1750915952059_2381.jpg","https://xcimg.szwego.com/img/1a8dcad8/20250626/a1750915953312_3047.jpg","https://xcimg.szwego.com/img/1a8dcad8/20250626/a1750915952402_7801.jpg","https://xcimg.szwego.com/img/1a8dcad8/20250626/a1750915952145_1286.jpg","https://xcimg.szwego.com/img/1a8dcad8/20250626/a1750915952451_8114.jpg","https://xcimg.szwego.com/img/1a8dcad8/20250626/a1750915952057_0670.jpg","https://xcimg.szwego.com/img/1a8dcad8/20250626/a1750915952194_6800.jpg","https://xcimg.szwego.com/img/1a8dcad8/20250626/a1750915953287_8770.jpg"],"created_at":"2026-05-20T03:16:24.296Z"},{"id":"item-0d16067197ab","sku":"_dvOvON3wn15BE2TGQRjsVg38O3wjxfQfezb7jtw","name_en":"Celine Women Bags","name_cn":"💛","specs":{"source":"wsxcme","sourceId":"_dvOvON3wn15BE2TGQRjsVg38O3wjxfQfezb7jtw","sourceTagId":47003106,"sourceTagName":"塞琳/女包","rawTitle":"💛"},"price":null,"currency":"CNY","moq":1,"category":"celine-women-bags","status":"active","alibaba_url":null,"images":["https://xcimg.szwego.com/img/1a8dcad8/20250820/a1755621435142_3250.jpg","https://xcimg.szwego.com/img/1a8dcad8/20250820/a1755621435149_2286.jpg","https://xcimg.szwego.com/img/1a8dcad8/20250820/a1755621435134_3568.jpg","https://xcimg.szwego.com/img/1a8dcad8/20250820/a1755621435145_4481.jpg"],"created_at":"2026-05-20T03:16:24.286Z"},{"id":"item-e83fbb7f2a2e","sku":"_dlklkzy4WJSEBsCHoe4xGXqiBwUbDVj2zeY3Ycw","name_en":"Celine clara植物材料和牛皮革经典提篮包黄褐色","name_cn":"Celine clara植物材料和牛皮革经典提篮包黄褐色\n植物材料,牛皮革包边无衬里金色饰面\n手提、肩背和斜挎抽绳皮革系带\n1个皮革提手长4英寸(9厘米)\n1条可拆卸和可调节肩带,最小长度17英寸(47厘米),最大长度20英寸(53厘米)\n款号:116882编织\n尺寸:23x25x20","specs":{"source":"wsxcme","sourceId":"_dlklkzy4WJSEBsCHoe4xGXqiBwUbDVj2zeY3Ycw","sourceTagId":47003106,"sourceTagName":"塞琳/女包","modelNumber":"116882编织","rawTitle":"Celine clara植物材料和牛皮革经典提篮包黄褐色\n植物材料,牛皮革包边无衬里金色饰面\n手提、肩背和斜挎抽绳皮革系带\n1个皮革提手长4英寸(9厘米)\n1条可拆卸和可调节肩带,最小长度17英寸(47厘米),最大长度20英寸(53厘米)\n款号:116882编织\n尺寸:23x25x20"},"price":null,"currency":"CNY","moq":1,"category":"celine-women-bags","status":"active","alibaba_url":null,"images":["https://xcimg.szwego.com/img/1a8dcad8/20250820/a1755621408876_7026.jpg","https://xcimg.szwego.com/img/1a8dcad8/20250820/a1755621408880_5723.jpg","https://xcimg.szwego.com/img/1a8dcad8/20250820/a1755621408855_5546.jpg","https://xcimg.szwego.com/img/1a8dcad8/20250820/a1755621408887_8080.jpg","https://xcimg.szwego.com/img/1a8dcad8/20250820/a1755621408898_1257.jpg","https://xcimg.szwego.com/img/1a8dcad8/20250820/a1755621408864_0624.jpg","https://xcimg.szwego.com/img/1a8dcad8/20250820/a1755621410896_3211.jpg","https://xcimg.szwego.com/img/1a8dcad8/20250820/a1755621410881_1417.jpg"],"created_at":"2026-05-20T03:16:24.276Z"}],"page":78,"pageSize":24,"total":10075,"totalPages":420}
