{"items":[{"id":"item-8c56c79405fe","sku":"_d_s_s01_byBKhnTHM99yMCnnf0uFbOX5xcQ9yig","name_en":"✨凯莉二代mini","name_cn":"✨凯莉二代mini \n颜色:梦幻粉紫/奶昔白\n进口epsom皮、金扣\n机车+半收工手缝蜡线\n尺寸:19cm","specs":{"source":"wsxcme","sourceId":"_d_s_s01_byBKhnTHM99yMCnnf0uFbOX5xcQ9yig","sourceTagId":76963559,"sourceTagName":"爱马仕/女包","rawTitle":"✨凯莉二代mini \n颜色:梦幻粉紫/奶昔白\n进口epsom皮、金扣\n机车+半收工手缝蜡线\n尺寸:19cm"},"price":null,"currency":"CNY","moq":1,"category":"hermes-women-bags","status":"active","alibaba_url":null,"images":["https://xcimg.szwego.com/img/88b306c4/20240904/a1725380754802_3842.jpg","https://xcimg.szwego.com/img/88b306c4/20240904/a1725380754698_8348.jpg","https://xcimg.szwego.com/img/88b306c4/20240904/a1725380754860_1660.jpg","https://xcimg.szwego.com/img/88b306c4/20240904/a1725380754590_0811.jpg","https://xcimg.szwego.com/img/88b306c4/20240904/a1725380754708_1464.jpg","https://xcimg.szwego.com/img/88b306c4/20240904/a1725380754567_5524.jpg","https://xcimg.szwego.com/img/88b306c4/20240904/a1725380758464_3415.jpg","https://xcimg.szwego.com/img/88b306c4/20240904/a1725380758452_7452.jpg","https://xcimg.szwego.com/img/88b306c4/20240904/a1725380758536_0361.jpg"],"created_at":"2024-10-22T05:04:33.196Z"},{"id":"item-45822deb984f","sku":"_dM-M-JAHan2QJ1Sf0W-YXYT1W4yTJRoLLqohQQQ","name_en":"✨凯莉二代mini","name_cn":"✨凯莉二代mini \n颜色:梦幻粉紫/奶昔白\n进口epsom皮、银扣\n机车+半收工手缝蜡线\n尺寸:19cm","specs":{"source":"wsxcme","sourceId":"_dM-M-JAHan2QJ1Sf0W-YXYT1W4yTJRoLLqohQQQ","sourceTagId":76963559,"sourceTagName":"爱马仕/女包","rawTitle":"✨凯莉二代mini \n颜色:梦幻粉紫/奶昔白\n进口epsom皮、银扣\n机车+半收工手缝蜡线\n尺寸:19cm"},"price":null,"currency":"CNY","moq":1,"category":"hermes-women-bags","status":"active","alibaba_url":null,"images":["https://xcimg.szwego.com/img/88b306c4/20240904/a1725380672177_2668.jpg","https://xcimg.szwego.com/img/88b306c4/20240904/a1725380671950_8781.jpg","https://xcimg.szwego.com/img/88b306c4/20240904/a1725380672002_4210.jpg","https://xcimg.szwego.com/img/88b306c4/20240904/a1725380672015_0472.jpg","https://xcimg.szwego.com/img/88b306c4/20240904/a1725380672241_4033.jpg","https://xcimg.szwego.com/img/88b306c4/20240904/a1725380671978_1846.jpg","https://xcimg.szwego.com/img/88b306c4/20240904/a1725380678172_0755.jpg","https://xcimg.szwego.com/img/88b306c4/20240904/a1725380678070_8243.jpg","https://xcimg.szwego.com/img/88b306c4/20240904/a1725380678171_1460.jpg"],"created_at":"2024-10-22T05:04:33.195Z"},{"id":"item-4e6498d287e2","sku":"_dweweysNhdYQpccayo2IVRGcAFuuWgyCxFzCLxQ","name_en":"✨凯莉二代mini","name_cn":"✨凯莉二代mini \n颜色:冰川灰/奶昔白\n进口epsom皮、金扣\n机车+半收工手缝蜡线\n尺寸:19cm","specs":{"source":"wsxcme","sourceId":"_dweweysNhdYQpccayo2IVRGcAFuuWgyCxFzCLxQ","sourceTagId":76963559,"sourceTagName":"爱马仕/女包","rawTitle":"✨凯莉二代mini \n颜色:冰川灰/奶昔白\n进口epsom皮、金扣\n机车+半收工手缝蜡线\n尺寸:19cm"},"price":null,"currency":"CNY","moq":1,"category":"hermes-women-bags","status":"active","alibaba_url":null,"images":["https://xcimg.szwego.com/img/88b306c4/20240904/a1725380509623_3334.jpg","https://xcimg.szwego.com/img/88b306c4/20240904/a1725380509633_3445.jpg","https://xcimg.szwego.com/img/88b306c4/20240904/a1725380509665_6567.jpg","https://xcimg.szwego.com/img/88b306c4/20240904/a1725380509872_6360.jpg","https://xcimg.szwego.com/img/88b306c4/20240904/a1725380509645_2147.jpg","https://xcimg.szwego.com/img/88b306c4/20240904/a1725380509987_5383.jpg","https://xcimg.szwego.com/img/88b306c4/20240904/a1725380514067_6514.jpg","https://xcimg.szwego.com/img/88b306c4/20240904/a1725380514066_0428.jpg","https://xcimg.szwego.com/img/88b306c4/20240904/a1725380514089_6507.jpg"],"created_at":"2024-10-22T05:04:33.194Z"},{"id":"item-57ec8d1c21fa","sku":"_dp-p-FBbLZqykzfaUhl7U5LDesyIRrmmPkZCLug","name_en":"✨凯莉二代mini","name_cn":"✨凯莉二代mini \n颜色:冰川灰/奶昔白\n进口epsom皮、银扣\n机车+半收工手缝蜡线\n尺寸:19cm","specs":{"source":"wsxcme","sourceId":"_dp-p-FBbLZqykzfaUhl7U5LDesyIRrmmPkZCLug","sourceTagId":76963559,"sourceTagName":"爱马仕/女包","rawTitle":"✨凯莉二代mini \n颜色:冰川灰/奶昔白\n进口epsom皮、银扣\n机车+半收工手缝蜡线\n尺寸:19cm"},"price":null,"currency":"CNY","moq":1,"category":"hermes-women-bags","status":"active","alibaba_url":null,"images":["https://xcimg.szwego.com/img/88b306c4/20240904/a1725380415355_4075.jpg","https://xcimg.szwego.com/img/88b306c4/20240904/a1725380415616_3166.jpg","https://xcimg.szwego.com/img/88b306c4/20240904/a1725380415310_6363.jpg","https://xcimg.szwego.com/img/88b306c4/20240904/a1725380415497_2182.jpg","https://xcimg.szwego.com/img/88b306c4/20240904/a1725380415409_4083.jpg","https://xcimg.szwego.com/img/88b306c4/20240904/a1725380415435_8325.jpg","https://xcimg.szwego.com/img/88b306c4/20240904/a1725380420793_4488.jpg","https://xcimg.szwego.com/img/88b306c4/20240904/a1725380420801_2736.jpg","https://xcimg.szwego.com/img/88b306c4/20240904/a1725380420797_0233.jpg"],"created_at":"2024-10-22T05:04:33.193Z"},{"id":"item-b82d1d8ccc70","sku":"_dm5m5cmHlHT7gA-1sMQc-ds5Yj3shtCsdofw_6w","name_en":"✨凯莉二代mini","name_cn":"✨凯莉二代mini \n颜色:太阳黄/奶昔白\n进口epsom皮、金扣\n机车+半收工手缝蜡线\n尺寸:19cm","specs":{"source":"wsxcme","sourceId":"_dm5m5cmHlHT7gA-1sMQc-ds5Yj3shtCsdofw_6w","sourceTagId":76963559,"sourceTagName":"爱马仕/女包","rawTitle":"✨凯莉二代mini \n颜色:太阳黄/奶昔白\n进口epsom皮、金扣\n机车+半收工手缝蜡线\n尺寸:19cm"},"price":null,"currency":"CNY","moq":1,"category":"hermes-women-bags","status":"active","alibaba_url":null,"images":["https://xcimg.szwego.com/img/88b306c4/20240904/a1725380226571_5512.jpg","https://xcimg.szwego.com/img/88b306c4/20240904/a1725380226762_8168.jpg","https://xcimg.szwego.com/img/88b306c4/20240904/a1725380226921_8851.jpg","https://xcimg.szwego.com/img/88b306c4/20240904/a1725380226810_7602.jpg","https://xcimg.szwego.com/img/88b306c4/20240904/a1725380227063_8411.jpg","https://xcimg.szwego.com/img/88b306c4/20240904/a1725380226906_3605.jpg","https://xcimg.szwego.com/img/88b306c4/20240904/a1725380232746_3072.jpg","https://xcimg.szwego.com/img/88b306c4/20240904/a1725380232678_6347.jpg","https://xcimg.szwego.com/img/88b306c4/20240904/a1725380232654_2026.jpg"],"created_at":"2024-10-22T05:04:33.192Z"},{"id":"item-286ece5dbcde","sku":"_drGrGlAaz0m_0yN6pJFHKLKXwsUuwRwkEbuyhPw","name_en":"✨凯莉二代mini","name_cn":"✨凯莉二代mini \n颜色:太阳黄/奶昔白\n进口epsom皮、银扣\n机车+半收工手缝蜡线\n尺寸:19cm","specs":{"source":"wsxcme","sourceId":"_drGrGlAaz0m_0yN6pJFHKLKXwsUuwRwkEbuyhPw","sourceTagId":76963559,"sourceTagName":"爱马仕/女包","rawTitle":"✨凯莉二代mini \n颜色:太阳黄/奶昔白\n进口epsom皮、银扣\n机车+半收工手缝蜡线\n尺寸:19cm"},"price":null,"currency":"CNY","moq":1,"category":"hermes-women-bags","status":"active","alibaba_url":null,"images":["https://xcimg.szwego.com/img/88b306c4/20240904/a1725380119220_6073.jpg","https://xcimg.szwego.com/img/88b306c4/20240904/a1725380119502_0158.jpg","https://xcimg.szwego.com/img/88b306c4/20240904/a1725380119229_4238.jpg","https://xcimg.szwego.com/img/88b306c4/20240904/a1725380119222_5607.jpg","https://xcimg.szwego.com/img/88b306c4/20240904/a1725380119482_3410.jpg","https://xcimg.szwego.com/img/88b306c4/20240904/a1725380119219_2337.jpg","https://xcimg.szwego.com/img/88b306c4/20240904/a1725380124129_0448.jpg","https://xcimg.szwego.com/img/88b306c4/20240904/a1725380124100_7412.jpg","https://xcimg.szwego.com/img/88b306c4/20240904/a1725380124101_1758.jpg"],"created_at":"2024-10-22T05:04:33.191Z"},{"id":"item-fa9cd85e50fd","sku":"_dvlvlqztnDyoaODdqFmgc7AErxkxT-W4kSe2ULg","name_en":"✨凯莉二代mini","name_cn":"✨凯莉二代mini \n颜色:金棕/奶昔白/克\n进口epsom皮、金扣\n机车+半收工手缝蜡线\n尺寸:19cm","specs":{"source":"wsxcme","sourceId":"_dvlvlqztnDyoaODdqFmgc7AErxkxT-W4kSe2ULg","sourceTagId":76963559,"sourceTagName":"爱马仕/女包","rawTitle":"✨凯莉二代mini \n颜色:金棕/奶昔白/克\n进口epsom皮、金扣\n机车+半收工手缝蜡线\n尺寸:19cm"},"price":null,"currency":"CNY","moq":1,"category":"hermes-women-bags","status":"active","alibaba_url":null,"images":["https://xcimg.szwego.com/img/88b306c4/20240904/a1725379937777_3403.jpg","https://xcimg.szwego.com/img/88b306c4/20240904/a1725379937925_4350.jpg","https://xcimg.szwego.com/img/88b306c4/20240904/a1725379937595_5380.jpg","https://xcimg.szwego.com/img/88b306c4/20240904/a1725379938056_8157.jpg","https://xcimg.szwego.com/img/88b306c4/20240904/a1725379937640_7350.jpg","https://xcimg.szwego.com/img/88b306c4/20240904/a1725379937626_6675.jpg","https://xcimg.szwego.com/img/88b306c4/20240904/a1725379943518_5220.jpg","https://xcimg.szwego.com/img/88b306c4/20240904/a1725379943549_2841.jpg","https://xcimg.szwego.com/img/88b306c4/20240904/a1725379943396_8157.jpg"],"created_at":"2024-10-22T05:04:33.190Z"},{"id":"item-d3742b4bedfb","sku":"_dlclcrDi6ZL3hoFkwXMni-ncXBfp1A_tBtbcg7g","name_en":"✨凯莉二代mini","name_cn":"✨凯莉二代mini \n颜色:金棕/奶昔白/克\n进口epsom皮、银扣\n机车+半收工手缝蜡线\n尺寸:19cm","specs":{"source":"wsxcme","sourceId":"_dlclcrDi6ZL3hoFkwXMni-ncXBfp1A_tBtbcg7g","sourceTagId":76963559,"sourceTagName":"爱马仕/女包","rawTitle":"✨凯莉二代mini \n颜色:金棕/奶昔白/克\n进口epsom皮、银扣\n机车+半收工手缝蜡线\n尺寸:19cm"},"price":null,"currency":"CNY","moq":1,"category":"hermes-women-bags","status":"active","alibaba_url":null,"images":["https://xcimg.szwego.com/img/88b306c4/20240904/a1725379816290_1883.jpg","https://xcimg.szwego.com/img/88b306c4/20240904/a1725379816493_3124.jpg","https://xcimg.szwego.com/img/88b306c4/20240904/a1725379816146_3472.jpg","https://xcimg.szwego.com/img/88b306c4/20240904/a1725379816215_7776.jpg","https://xcimg.szwego.com/img/88b306c4/20240904/a1725379816166_6275.jpg","https://xcimg.szwego.com/img/88b306c4/20240904/a1725379816460_6727.jpg","https://xcimg.szwego.com/img/88b306c4/20240904/a1725379824792_8107.jpg","https://xcimg.szwego.com/img/88b306c4/20240904/a1725379824818_4838.jpg","https://xcimg.szwego.com/img/88b306c4/20240904/a1725379824781_7670.jpg"],"created_at":"2024-10-22T05:04:33.189Z"},{"id":"item-aee735a2a46e","sku":"_dNoNo2jo0t8ttf-Yf-UIX-AKfR88CNfBqV8wfug","name_en":"✨凯莉二代mini","name_cn":"✨凯莉二代mini \n颜色:奶昔白/冰川灰\n进口epsom皮、金扣\n机车+半收工手缝蜡线\n尺寸:19cm","specs":{"source":"wsxcme","sourceId":"_dNoNo2jo0t8ttf-Yf-UIX-AKfR88CNfBqV8wfug","sourceTagId":76963559,"sourceTagName":"爱马仕/女包","rawTitle":"✨凯莉二代mini \n颜色:奶昔白/冰川灰\n进口epsom皮、金扣\n机车+半收工手缝蜡线\n尺寸:19cm"},"price":null,"currency":"CNY","moq":1,"category":"hermes-women-bags","status":"active","alibaba_url":null,"images":["https://xcimg.szwego.com/img/88b306c4/20240904/a1725379604272_6813.jpg","https://xcimg.szwego.com/img/88b306c4/20240904/a1725379604249_7042.jpg","https://xcimg.szwego.com/img/88b306c4/20240904/a1725379604245_7307.jpg","https://xcimg.szwego.com/img/88b306c4/20240904/a1725379604556_3364.jpg","https://xcimg.szwego.com/img/88b306c4/20240904/a1725379604430_7707.jpg","https://xcimg.szwego.com/img/88b306c4/20240904/a1725379604274_6077.jpg","https://xcimg.szwego.com/img/88b306c4/20240904/a1725379610585_7382.jpg","https://xcimg.szwego.com/img/88b306c4/20240904/a1725379610612_7248.jpg","https://xcimg.szwego.com/img/88b306c4/20240904/a1725379610584_5304.jpg"],"created_at":"2024-10-22T05:04:33.188Z"},{"id":"item-ab38ab1ee1ca","sku":"_dpfpf6S1JICvvPPKp4b7GPlnPvPCrn4mtKJJn1A","name_en":"✨凯莉二代mini","name_cn":"✨凯莉二代mini \n颜色:奶昔白/冰川灰\n进口epsom皮、银扣\n机车+半收工手缝蜡线\n尺寸:19cm","specs":{"source":"wsxcme","sourceId":"_dpfpf6S1JICvvPPKp4b7GPlnPvPCrn4mtKJJn1A","sourceTagId":76963559,"sourceTagName":"爱马仕/女包","rawTitle":"✨凯莉二代mini \n颜色:奶昔白/冰川灰\n进口epsom皮、银扣\n机车+半收工手缝蜡线\n尺寸:19cm"},"price":null,"currency":"CNY","moq":1,"category":"hermes-women-bags","status":"active","alibaba_url":null,"images":["https://xcimg.szwego.com/img/88b306c4/20240904/a1725379486120_0218.jpg","https://xcimg.szwego.com/img/88b306c4/20240904/a1725379486068_3188.jpg","https://xcimg.szwego.com/img/88b306c4/20240904/a1725379486189_3533.jpg","https://xcimg.szwego.com/img/88b306c4/20240904/a1725379486021_5280.jpg","https://xcimg.szwego.com/img/88b306c4/20240904/a1725379486340_5624.jpg","https://xcimg.szwego.com/img/88b306c4/20240904/a1725379486205_0160.jpg","https://xcimg.szwego.com/img/88b306c4/20240904/a1725379491912_3188.jpg","https://xcimg.szwego.com/img/88b306c4/20240904/a1725379491827_3184.jpg","https://xcimg.szwego.com/img/88b306c4/20240904/a1725379491847_4028.jpg"],"created_at":"2024-10-22T05:04:33.187Z"},{"id":"item-bf68bbff222f","sku":"_dececOD_tcUVqxzHcIgjfJJbYeVzhLf09_cCcNw","name_en":"✨凯莉二代mini","name_cn":"✨凯莉二代mini \n颜色:大象灰/斑鸠灰\n进口epsom皮、银扣\n机车+半收工手缝蜡线\n尺寸:19cm","specs":{"source":"wsxcme","sourceId":"_dececOD_tcUVqxzHcIgjfJJbYeVzhLf09_cCcNw","sourceTagId":76963559,"sourceTagName":"爱马仕/女包","rawTitle":"✨凯莉二代mini \n颜色:大象灰/斑鸠灰\n进口epsom皮、银扣\n机车+半收工手缝蜡线\n尺寸:19cm"},"price":null,"currency":"CNY","moq":1,"category":"hermes-women-bags","status":"active","alibaba_url":null,"images":["https://xcimg.szwego.com/img/88b306c4/20240904/a1725379279997_3430.jpg","https://xcimg.szwego.com/img/88b306c4/20240904/a1725379279924_3671.jpg","https://xcimg.szwego.com/img/88b306c4/20240904/a1725379279754_8665.jpg","https://xcimg.szwego.com/img/88b306c4/20240904/a1725379280101_4367.jpg","https://xcimg.szwego.com/img/88b306c4/20240904/a1725379279759_4223.jpg","https://xcimg.szwego.com/img/88b306c4/20240904/a1725379279818_7270.jpg","https://xcimg.szwego.com/img/88b306c4/20240904/a1725379285619_5115.jpg","https://xcimg.szwego.com/img/88b306c4/20240904/a1725379285603_0765.jpg","https://xcimg.szwego.com/img/88b306c4/20240904/a1725379285604_2080.jpg"],"created_at":"2024-10-22T05:04:33.186Z"},{"id":"item-7ea564174a3f","sku":"_dQlQldqoFFuI2C2xUROIhtKClYXwcWVxGe-Vsnw","name_en":"✨凯莉二代mini","name_cn":"✨凯莉二代mini \n颜色:大象灰/斑鸠灰\n进口epsom皮、金扣\n机车+半收工手缝蜡线\n尺寸:19cm","specs":{"source":"wsxcme","sourceId":"_dQlQldqoFFuI2C2xUROIhtKClYXwcWVxGe-Vsnw","sourceTagId":76963559,"sourceTagName":"爱马仕/女包","rawTitle":"✨凯莉二代mini \n颜色:大象灰/斑鸠灰\n进口epsom皮、金扣\n机车+半收工手缝蜡线\n尺寸:19cm"},"price":null,"currency":"CNY","moq":1,"category":"hermes-women-bags","status":"active","alibaba_url":null,"images":["https://xcimg.szwego.com/img/88b306c4/20240903/a1725379137834_0155.jpg","https://xcimg.szwego.com/img/88b306c4/20240903/a1725379137818_5011.jpg","https://xcimg.szwego.com/img/88b306c4/20240903/a1725379137598_7428.jpg","https://xcimg.szwego.com/img/88b306c4/20240903/a1725379137566_4076.jpg","https://xcimg.szwego.com/img/88b306c4/20240903/a1725379137569_1348.jpg","https://xcimg.szwego.com/img/88b306c4/20240903/a1725379137629_8638.jpg","https://xcimg.szwego.com/img/88b306c4/20240903/a1725379144721_4531.jpg","https://xcimg.szwego.com/img/88b306c4/20240903/a1725379144814_1076.jpg","https://xcimg.szwego.com/img/88b306c4/20240903/a1725379144669_8445.jpg"],"created_at":"2024-10-22T05:04:33.185Z"},{"id":"item-5684a85de99c","sku":"_dnpnpljaHJpnPI56KFBaLhh_xTBkJqMh_FPbJAg","name_en":"✨凯莉二代mini","name_cn":"✨凯莉二代mini \n颜色:金棕/梦幻粉紫/奶昔白\n进口epsom皮、金扣\n机车+半收工手缝蜡线\n尺寸:19cm","specs":{"source":"wsxcme","sourceId":"_dnpnpljaHJpnPI56KFBaLhh_xTBkJqMh_FPbJAg","sourceTagId":76963559,"sourceTagName":"爱马仕/女包","rawTitle":"✨凯莉二代mini \n颜色:金棕/梦幻粉紫/奶昔白\n进口epsom皮、金扣\n机车+半收工手缝蜡线\n尺寸:19cm"},"price":null,"currency":"CNY","moq":1,"category":"hermes-women-bags","status":"active","alibaba_url":null,"images":["https://xcimg.szwego.com/img/88b306c4/20240903/a1725377764480_6764.jpg","https://xcimg.szwego.com/img/88b306c4/20240903/a1725377764860_8818.jpg","https://xcimg.szwego.com/img/88b306c4/20240903/a1725377764428_2503.jpg","https://xcimg.szwego.com/img/88b306c4/20240903/a1725377764705_7008.jpg","https://xcimg.szwego.com/img/88b306c4/20240903/a1725377764751_6881.jpg","https://xcimg.szwego.com/img/88b306c4/20240903/a1725377764881_2421.jpg","https://xcimg.szwego.com/img/88b306c4/20240903/a1725377765916_0456.jpg","https://xcimg.szwego.com/img/88b306c4/20240903/a1725377765956_1161.jpg","https://xcimg.szwego.com/img/88b306c4/20240903/a1725377765906_0471.jpg"],"created_at":"2024-10-22T05:04:33.184Z"},{"id":"item-29bb8a303609","sku":"_d8m8mNdC834j005G2v6e1cXIvr1-PSo63WIL9QQ","name_en":"✨凯莉二代mini","name_cn":"✨凯莉二代mini \n颜色:金棕/梦幻粉紫/奶昔白\n进口epsom皮、银扣\n机车+半收工手缝蜡线\n尺寸:19cm","specs":{"source":"wsxcme","sourceId":"_d8m8mNdC834j005G2v6e1cXIvr1-PSo63WIL9QQ","sourceTagId":76963559,"sourceTagName":"爱马仕/女包","rawTitle":"✨凯莉二代mini \n颜色:金棕/梦幻粉紫/奶昔白\n进口epsom皮、银扣\n机车+半收工手缝蜡线\n尺寸:19cm"},"price":null,"currency":"CNY","moq":1,"category":"hermes-women-bags","status":"active","alibaba_url":null,"images":["https://xcimg.szwego.com/img/88b306c4/20240903/a1725377634442_0565.jpg","https://xcimg.szwego.com/img/88b306c4/20240903/a1725377634668_4053.jpg","https://xcimg.szwego.com/img/88b306c4/20240903/a1725377634412_8057.jpg","https://xcimg.szwego.com/img/88b306c4/20240903/a1725377634437_1183.jpg","https://xcimg.szwego.com/img/88b306c4/20240903/a1725377634586_5667.jpg","https://xcimg.szwego.com/img/88b306c4/20240903/a1725377634426_2220.jpg","https://xcimg.szwego.com/img/88b306c4/20240903/a1725377635873_4655.jpg","https://xcimg.szwego.com/img/88b306c4/20240903/a1725377635902_1314.jpg","https://xcimg.szwego.com/img/88b306c4/20240903/a1725377635728_0351.jpg"],"created_at":"2024-10-22T05:04:33.183Z"},{"id":"item-34e976eba1f3","sku":"_d-e-elc_lZztlmPGUdaEQ_NG5td428td4szny4g","name_en":"✨凯莉二代mini","name_cn":"✨凯莉二代mini \n颜色:金棕/奶昔白\n进口epsom皮、金扣\n机车+半收工手缝蜡线\n尺寸:19cm","specs":{"source":"wsxcme","sourceId":"_d-e-elc_lZztlmPGUdaEQ_NG5td428td4szny4g","sourceTagId":76963559,"sourceTagName":"爱马仕/女包","rawTitle":"✨凯莉二代mini \n颜色:金棕/奶昔白\n进口epsom皮、金扣\n机车+半收工手缝蜡线\n尺寸:19cm"},"price":null,"currency":"CNY","moq":1,"category":"hermes-women-bags","status":"active","alibaba_url":null,"images":["https://xcimg.szwego.com/img/88b306c4/20240903/a1725377152273_0265.jpg","https://xcimg.szwego.com/img/88b306c4/20240903/a1725377337935_5440.jpg","https://xcimg.szwego.com/img/88b306c4/20240903/a1725377337930_1040.jpg","https://xcimg.szwego.com/img/88b306c4/20240903/a1725377338170_1405.jpg","https://xcimg.szwego.com/img/88b306c4/20240903/a1725377337944_6182.jpg","https://xcimg.szwego.com/img/88b306c4/20240903/a1725377337962_3451.jpg","https://xcimg.szwego.com/img/88b306c4/20240903/a1725377339147_3246.jpg","https://xcimg.szwego.com/img/88b306c4/20240903/a1725377339250_0662.jpg","https://xcimg.szwego.com/img/88b306c4/20240903/a1725377339135_4688.jpg"],"created_at":"2024-10-22T05:04:33.182Z"},{"id":"item-6ce486e1819c","sku":"_dlWlWcZcpS3x4rprjSWe4KgyWunA_TnNi6AYbkg","name_en":"✨凯莉二代mini","name_cn":"✨凯莉二代mini \n颜色:雾霾蓝/帝王绿/金棕\n进口epsom皮、金扣\n机车+半收工手缝蜡线\n尺寸:19cm","specs":{"source":"wsxcme","sourceId":"_dlWlWcZcpS3x4rprjSWe4KgyWunA_TnNi6AYbkg","sourceTagId":76963559,"sourceTagName":"爱马仕/女包","rawTitle":"✨凯莉二代mini \n颜色:雾霾蓝/帝王绿/金棕\n进口epsom皮、金扣\n机车+半收工手缝蜡线\n尺寸:19cm"},"price":null,"currency":"CNY","moq":1,"category":"hermes-women-bags","status":"active","alibaba_url":null,"images":["https://xcimg.szwego.com/img/88b306c4/20240904/a1725383431661_8718.jpg","https://xcimg.szwego.com/img/88b306c4/20240904/a1725383431384_4724.jpg","https://xcimg.szwego.com/img/88b306c4/20240904/a1725383431521_6104.jpg","https://xcimg.szwego.com/img/88b306c4/20240904/a1725383431562_8702.jpg","https://xcimg.szwego.com/img/88b306c4/20240904/a1725383431773_2824.jpg","https://xcimg.szwego.com/img/88b306c4/20240904/a1725383431829_5542.jpg","https://xcimg.szwego.com/img/88b306c4/20240904/a1725383432822_8004.jpg","https://xcimg.szwego.com/img/88b306c4/20240904/a1725383432806_5338.jpg","https://xcimg.szwego.com/img/88b306c4/20240904/a1725383432833_1422.jpg"],"created_at":"2024-10-22T05:04:33.181Z"},{"id":"item-58176902d87b","sku":"_dxTxTJP315UU42ELKHnbCoHfu_dr0CGyMSrwPBg","name_en":"✨凯莉二代mini","name_cn":"✨凯莉二代mini \n颜色:雾霾蓝/帝王绿/金棕\n进口epsom皮、银扣\n机车+半收工手缝蜡线\n尺寸:19cm","specs":{"source":"wsxcme","sourceId":"_dxTxTJP315UU42ELKHnbCoHfu_dr0CGyMSrwPBg","sourceTagId":76963559,"sourceTagName":"爱马仕/女包","rawTitle":"✨凯莉二代mini \n颜色:雾霾蓝/帝王绿/金棕\n进口epsom皮、银扣\n机车+半收工手缝蜡线\n尺寸:19cm"},"price":null,"currency":"CNY","moq":1,"category":"hermes-women-bags","status":"active","alibaba_url":null,"images":["https://xcimg.szwego.com/img/88b306c4/20240904/a1725383328494_1627.jpg","https://xcimg.szwego.com/img/88b306c4/20240904/a1725383328640_5317.jpg","https://xcimg.szwego.com/img/88b306c4/20240904/a1725383328212_4040.jpg","https://xcimg.szwego.com/img/88b306c4/20240904/a1725383328724_7432.jpg","https://xcimg.szwego.com/img/88b306c4/20240904/a1725383328311_1235.jpg","https://xcimg.szwego.com/img/88b306c4/20240904/a1725383328214_4747.jpg","https://xcimg.szwego.com/img/88b306c4/20240904/a1725383329867_0571.jpg","https://xcimg.szwego.com/img/88b306c4/20240904/a1725383330012_8727.jpg","https://xcimg.szwego.com/img/88b306c4/20240904/a1725383330004_0232.jpg"],"created_at":"2024-10-22T05:04:33.180Z"},{"id":"item-07df5b02941c","sku":"_dc9c9rH4tEPaCtBSdpNeMUCCpmaY6HzxszSaWFQ","name_en":"✨凯莉二代mini","name_cn":"✨凯莉二代mini \n颜色:饼干色/奶昔白/克\n进口epsom皮、金扣\n机车+半收工手缝蜡线\n尺寸:19cm","specs":{"source":"wsxcme","sourceId":"_dc9c9rH4tEPaCtBSdpNeMUCCpmaY6HzxszSaWFQ","sourceTagId":76963559,"sourceTagName":"爱马仕/女包","rawTitle":"✨凯莉二代mini \n颜色:饼干色/奶昔白/克\n进口epsom皮、金扣\n机车+半收工手缝蜡线\n尺寸:19cm"},"price":null,"currency":"CNY","moq":1,"category":"hermes-women-bags","status":"active","alibaba_url":null,"images":["https://xcimg.szwego.com/img/88b306c4/20240904/a1725383208604_1263.jpg","https://xcimg.szwego.com/img/88b306c4/20240904/a1725383208495_5172.jpg","https://xcimg.szwego.com/img/88b306c4/20240904/a1725383208871_1434.jpg","https://xcimg.szwego.com/img/88b306c4/20240904/a1725383208493_8208.jpg","https://xcimg.szwego.com/img/88b306c4/20240904/a1725383208595_0406.jpg","https://xcimg.szwego.com/img/88b306c4/20240904/a1725383208840_5340.jpg","https://xcimg.szwego.com/img/88b306c4/20240904/a1725383209928_8227.jpg","https://xcimg.szwego.com/img/88b306c4/20240904/a1725383209787_1685.jpg","https://xcimg.szwego.com/img/88b306c4/20240904/a1725383209826_4543.jpg"],"created_at":"2024-10-22T05:04:33.179Z"},{"id":"item-0bfe978c0270","sku":"_dwawaIX5MOHz6g-2Xx9NH7XWHcQQ8evqzvKm7MQ","name_en":"✨凯莉二代mini","name_cn":"✨凯莉二代mini \n颜色:饼干色/奶昔白/克\n进口epsom皮、银扣\n机车+半收工手缝蜡线\n尺寸:19cm","specs":{"source":"wsxcme","sourceId":"_dwawaIX5MOHz6g-2Xx9NH7XWHcQQ8evqzvKm7MQ","sourceTagId":76963559,"sourceTagName":"爱马仕/女包","rawTitle":"✨凯莉二代mini \n颜色:饼干色/奶昔白/克\n进口epsom皮、银扣\n机车+半收工手缝蜡线\n尺寸:19cm"},"price":null,"currency":"CNY","moq":1,"category":"hermes-women-bags","status":"active","alibaba_url":null,"images":["https://xcimg.szwego.com/img/88b306c4/20240904/a1725383118748_3071.jpg","https://xcimg.szwego.com/img/88b306c4/20240904/a1725383118253_4103.jpg","https://xcimg.szwego.com/img/88b306c4/20240904/a1725383118309_5272.jpg","https://xcimg.szwego.com/img/88b306c4/20240904/a1725383118261_4202.jpg","https://xcimg.szwego.com/img/88b306c4/20240904/a1725383118569_5044.jpg","https://xcimg.szwego.com/img/88b306c4/20240904/a1725383118705_7137.jpg","https://xcimg.szwego.com/img/88b306c4/20240904/a1725383119949_4026.jpg","https://xcimg.szwego.com/img/88b306c4/20240904/a1725383119878_6700.jpg","https://xcimg.szwego.com/img/88b306c4/20240904/a1725383119792_0516.jpg"],"created_at":"2024-10-22T05:04:33.178Z"},{"id":"item-2717bb42d50e","sku":"_dqoqoG9ipmla-j4kIx1k6XV0qKcVkrYF5Pdk8lw","name_en":"✨凯莉二代mini","name_cn":"✨凯莉二代mini \n颜色:奶昔白/大象灰\n进口epsom皮、金扣\n机车+半收工手缝蜡线\n尺寸:19cm","specs":{"source":"wsxcme","sourceId":"_dqoqoG9ipmla-j4kIx1k6XV0qKcVkrYF5Pdk8lw","sourceTagId":76963559,"sourceTagName":"爱马仕/女包","rawTitle":"✨凯莉二代mini \n颜色:奶昔白/大象灰\n进口epsom皮、金扣\n机车+半收工手缝蜡线\n尺寸:19cm"},"price":null,"currency":"CNY","moq":1,"category":"hermes-women-bags","status":"active","alibaba_url":null,"images":["https://xcimg.szwego.com/img/88b306c4/20240904/a1725382976780_7306.jpg","https://xcimg.szwego.com/img/88b306c4/20240904/a1725382976863_3236.jpg","https://xcimg.szwego.com/img/88b306c4/20240904/a1725382976277_2153.jpg","https://xcimg.szwego.com/img/88b306c4/20240904/a1725382976609_1462.jpg","https://xcimg.szwego.com/img/88b306c4/20240904/a1725382976418_1182.jpg","https://xcimg.szwego.com/img/88b306c4/20240904/a1725382976476_5518.jpg","https://xcimg.szwego.com/img/88b306c4/20240904/a1725382977966_1220.jpg","https://xcimg.szwego.com/img/88b306c4/20240904/a1725382978003_6663.jpg","https://xcimg.szwego.com/img/88b306c4/20240904/a1725382978026_2632.jpg"],"created_at":"2024-10-22T05:04:33.177Z"},{"id":"item-7ecb5690d7a1","sku":"_dFeFeiHtTpbMkmH-BdEDPfEmaPjNwNzTXLv39Tw","name_en":"✨凯莉二代mini","name_cn":"✨凯莉二代mini \n颜色:奶昔白/大象灰\n进口epsom皮、银扣\n机车+半收工手缝蜡线\n尺寸:19cm","specs":{"source":"wsxcme","sourceId":"_dFeFeiHtTpbMkmH-BdEDPfEmaPjNwNzTXLv39Tw","sourceTagId":76963559,"sourceTagName":"爱马仕/女包","rawTitle":"✨凯莉二代mini \n颜色:奶昔白/大象灰\n进口epsom皮、银扣\n机车+半收工手缝蜡线\n尺寸:19cm"},"price":null,"currency":"CNY","moq":1,"category":"hermes-women-bags","status":"active","alibaba_url":null,"images":["https://xcimg.szwego.com/img/88b306c4/20240904/a1725382898096_0535.jpg","https://xcimg.szwego.com/img/88b306c4/20240904/a1725382897742_4162.jpg","https://xcimg.szwego.com/img/88b306c4/20240904/a1725382897715_4461.jpg","https://xcimg.szwego.com/img/88b306c4/20240904/a1725382897831_6137.jpg","https://xcimg.szwego.com/img/88b306c4/20240904/a1725382898088_6407.jpg","https://xcimg.szwego.com/img/88b306c4/20240904/a1725382897793_3763.jpg","https://xcimg.szwego.com/img/88b306c4/20240904/a1725382899109_7841.jpg","https://xcimg.szwego.com/img/88b306c4/20240904/a1725382899129_8232.jpg"],"created_at":"2024-10-22T05:04:33.176Z"},{"id":"item-8bd4b0b5f125","sku":"_dy0y0kGkLNdaDpqif8seN4OrPDyhsEZQ8eoKMmQ","name_en":"✨凯莉二代mini","name_cn":"✨凯莉二代mini \n颜色:牛仔兰/树皮色/芝麻色\n进口epsom皮、金扣\n机车+半收工手缝蜡线\n尺寸:19cm","specs":{"source":"wsxcme","sourceId":"_dy0y0kGkLNdaDpqif8seN4OrPDyhsEZQ8eoKMmQ","sourceTagId":76963559,"sourceTagName":"爱马仕/女包","rawTitle":"✨凯莉二代mini \n颜色:牛仔兰/树皮色/芝麻色\n进口epsom皮、金扣\n机车+半收工手缝蜡线\n尺寸:19cm"},"price":null,"currency":"CNY","moq":1,"category":"hermes-women-bags","status":"active","alibaba_url":null,"images":["https://xcimg.szwego.com/img/88b306c4/20240904/a1725382722685_7042.jpg","https://xcimg.szwego.com/img/88b306c4/20240904/a1725382723169_3112.jpg","https://xcimg.szwego.com/img/88b306c4/20240904/a1725382722690_6282.jpg","https://xcimg.szwego.com/img/88b306c4/20240904/a1725382722905_1718.jpg","https://xcimg.szwego.com/img/88b306c4/20240904/a1725382722688_8813.jpg","https://xcimg.szwego.com/img/88b306c4/20240904/a1725382723154_6458.jpg","https://xcimg.szwego.com/img/88b306c4/20240904/a1725382724309_4527.jpg","https://xcimg.szwego.com/img/88b306c4/20240904/a1725382724446_2582.jpg","https://xcimg.szwego.com/img/88b306c4/20240904/a1725382724386_6604.jpg"],"created_at":"2024-10-22T05:04:33.175Z"},{"id":"item-46b7614a9fe3","sku":"_dBiBiqg5xr-arLAmFfzsfXgNt0GzU9ADZs528QA","name_en":"✨凯莉二代mini","name_cn":"✨凯莉二代mini \n颜色:牛仔兰/树皮色/芝麻色\n进口epsom皮、银扣\n机车+半收工手缝蜡线\n尺寸:19cm","specs":{"source":"wsxcme","sourceId":"_dBiBiqg5xr-arLAmFfzsfXgNt0GzU9ADZs528QA","sourceTagId":76963559,"sourceTagName":"爱马仕/女包","rawTitle":"✨凯莉二代mini \n颜色:牛仔兰/树皮色/芝麻色\n进口epsom皮、银扣\n机车+半收工手缝蜡线\n尺寸:19cm"},"price":null,"currency":"CNY","moq":1,"category":"hermes-women-bags","status":"active","alibaba_url":null,"images":["https://xcimg.szwego.com/img/88b306c4/20240904/a1725382626002_2105.jpg","https://xcimg.szwego.com/img/88b306c4/20240904/a1725382625932_2701.jpg","https://xcimg.szwego.com/img/88b306c4/20240904/a1725382625507_4223.jpg","https://xcimg.szwego.com/img/88b306c4/20240904/a1725382625706_4671.jpg","https://xcimg.szwego.com/img/88b306c4/20240904/a1725382625731_5766.jpg","https://xcimg.szwego.com/img/88b306c4/20240904/a1725382625699_6522.jpg","https://xcimg.szwego.com/img/88b306c4/20240904/a1725382627182_0028.jpg","https://xcimg.szwego.com/img/88b306c4/20240904/a1725382627185_4164.jpg","https://xcimg.szwego.com/img/88b306c4/20240904/a1725382627142_4708.jpg"],"created_at":"2024-10-22T05:04:33.174Z"},{"id":"item-cd6271f8dd9e","sku":"_d6H6H6VGkRjzPm7jBrLxFeMRO4gZBNwJIRfY0cw","name_en":"✨凯莉二代mini","name_cn":"✨凯莉二代mini \n颜色:奶茶色/柠檬黄/锦葵紫\n进口epsom皮、金扣\n机车+半收工手缝蜡线\n尺寸:19cm","specs":{"source":"wsxcme","sourceId":"_d6H6H6VGkRjzPm7jBrLxFeMRO4gZBNwJIRfY0cw","sourceTagId":76963559,"sourceTagName":"爱马仕/女包","rawTitle":"✨凯莉二代mini \n颜色:奶茶色/柠檬黄/锦葵紫\n进口epsom皮、金扣\n机车+半收工手缝蜡线\n尺寸:19cm"},"price":null,"currency":"CNY","moq":1,"category":"hermes-women-bags","status":"active","alibaba_url":null,"images":["https://xcimg.szwego.com/img/88b306c4/20240904/a1725382400957_1046.jpg","https://xcimg.szwego.com/img/88b306c4/20240904/a1725382401222_2121.jpg","https://xcimg.szwego.com/img/88b306c4/20240904/a1725382400936_1515.jpg","https://xcimg.szwego.com/img/88b306c4/20240904/a1725382401293_7055.jpg","https://xcimg.szwego.com/img/88b306c4/20240904/a1725382400909_7076.jpg","https://xcimg.szwego.com/img/88b306c4/20240904/a1725382400997_6464.jpg","https://xcimg.szwego.com/img/88b306c4/20240904/a1725382402427_5320.jpg","https://xcimg.szwego.com/img/88b306c4/20240904/a1725382402340_6073.jpg","https://xcimg.szwego.com/img/88b306c4/20240904/a1725382402460_2027.jpg"],"created_at":"2024-10-22T05:04:33.173Z"}],"page":337,"pageSize":24,"total":10075,"totalPages":420}
