{"items":[{"id":"item-56bacb7ae084","sku":"_d6W6WIW3WKXd7EdCqL1rZgxEjPJjQG8uaGjDEaw","name_en":"『Celine 赛琳』","name_cn":"『Celine 赛琳』\n\n凯旋门腋下全皮法棍包出 牛皮 粉紫色 甜美可爱 尺寸:20cm 款号:3018  象牙白","specs":{"source":"wsxcme","sourceId":"_d6W6WIW3WKXd7EdCqL1rZgxEjPJjQG8uaGjDEaw","sourceTagId":47003106,"sourceTagName":"塞琳/女包","modelNumber":"3018  象牙白","rawTitle":"『Celine 赛琳』\n\n凯旋门腋下全皮法棍包出 牛皮 粉紫色 甜美可爱 尺寸:20cm 款号:3018  象牙白"},"price":null,"currency":"CNY","moq":1,"category":"celine-women-bags","status":"active","alibaba_url":null,"images":["https://xcimg.szwego.com/20220324/i1648109435_2767_0.jpg","https://xcimg.szwego.com/20220324/i1648109435_2886_1.jpg","https://xcimg.szwego.com/20220324/i1648109435_4339_2.jpg","https://xcimg.szwego.com/20220324/i1648109435_8038_3.jpg","https://xcimg.szwego.com/20220324/i1648109435_6067_4.jpg","https://xcimg.szwego.com/20220324/i1648109435_7418_5.jpg","https://xcimg.szwego.com/20220324/i1648109435_2405_6.jpg","https://xcimg.szwego.com/20220324/i1648109435_7083_7.jpg","https://xcimg.szwego.com/20220324/i1648109438_5767_0.jpg"],"created_at":"2025-02-08T12:47:00.802Z"},{"id":"item-9940b1d98c8b","sku":"_dmKmKUwm-jxD-DdQqFycmmcHqTkz2E0ns-uyrGw","name_en":"『Celine 赛琳』","name_cn":"『Celine 赛琳』\n\n凯旋门腋下全皮法棍包出 牛皮 粉紫色 甜美可爱 尺寸:20cm 款号:3018 玫粉色","specs":{"source":"wsxcme","sourceId":"_dmKmKUwm-jxD-DdQqFycmmcHqTkz2E0ns-uyrGw","sourceTagId":47003106,"sourceTagName":"塞琳/女包","modelNumber":"3018 玫粉色","rawTitle":"『Celine 赛琳』\n\n凯旋门腋下全皮法棍包出 牛皮 粉紫色 甜美可爱 尺寸:20cm 款号:3018 玫粉色"},"price":null,"currency":"CNY","moq":1,"category":"celine-women-bags","status":"active","alibaba_url":null,"images":["https://xcimg.szwego.com/20220324/i1648109229_5513_0.jpg","https://xcimg.szwego.com/20220324/i1648109229_2807_1.jpg","https://xcimg.szwego.com/20220324/i1648109229_9951_2.jpg","https://xcimg.szwego.com/20220324/i1648109229_355_3.jpg","https://xcimg.szwego.com/20220324/i1648109229_397_4.jpg","https://xcimg.szwego.com/20220324/i1648109229_1111_8.jpg","https://xcimg.szwego.com/20220324/i1648109229_9736_5.jpg","https://xcimg.szwego.com/20220324/i1648109229_144_6.jpg","https://xcimg.szwego.com/20220324/i1648109229_2955_7.jpg"],"created_at":"2025-02-08T12:47:00.801Z"},{"id":"item-1af65713de48","sku":"_dA0A05HSf5b14lknKxXZInfgXMbHBER7Ob0t5UA","name_en":"『Celine 赛琳』","name_cn":"『Celine 赛琳』\n\n新款Box 新款(凯旋门)老花信封包。大家都知道C家换了设计师 ,这次新款和旧款的最大不同之处在于钮扣,20s早春走秀款 将复古元素与一向拿手的利落线条完美结合 焕发出全新的动人魅力 尺寸 20-11.5-6cm","specs":{"source":"wsxcme","sourceId":"_dA0A05HSf5b14lknKxXZInfgXMbHBER7Ob0t5UA","sourceTagId":47003106,"sourceTagName":"塞琳/女包","rawTitle":"『Celine 赛琳』\n\n新款Box 新款(凯旋门)老花信封包。大家都知道C家换了设计师 ,这次新款和旧款的最大不同之处在于钮扣,20s早春走秀款 将复古元素与一向拿手的利落线条完美结合 焕发出全新的动人魅力 尺寸 20-11.5-6cm"},"price":null,"currency":"CNY","moq":1,"category":"celine-women-bags","status":"active","alibaba_url":null,"images":["https://xcimg.szwego.com/20210708/i1625675152_9331_0.jpg","https://xcimg.szwego.com/20210708/i1625675152_5562_1.jpg","https://xcimg.szwego.com/20210708/i1625675152_9473_2.jpg","https://xcimg.szwego.com/20210708/i1625675152_2204_3.jpg","https://xcimg.szwego.com/20210708/i1625675152_1783_4.jpg","https://xcimg.szwego.com/20210708/i1625675152_3035_5.jpg","https://xcimg.szwego.com/20210708/i1625675152_2620_6.jpg","https://xcimg.szwego.com/20210708/i1625675152_2043_7.jpg","https://xcimg.szwego.com/20210708/i1625675152_3470_8.jpg"],"created_at":"2025-02-08T12:47:00.800Z"},{"id":"item-8be21f8bb7ba","sku":"_dAnAn3IGxilPJfseceyYLoDJ5vAgquhmXm92v0Q","name_en":"『Celine 赛琳』","name_cn":"『Celine 赛琳』\n\nTRIOMPHE标志印花牛皮革肩背包8 X 4 X 2英寸(20 X 10 X 4厘米)TRIOMPHE CANVAS标志印花,牛皮革包边羊皮革衬里肩背TRIOMPHE 金属质感锁扣内侧扁平口袋可调节皮革肩带长8英寸(20厘米)","specs":{"source":"wsxcme","sourceId":"_dAnAn3IGxilPJfseceyYLoDJ5vAgquhmXm92v0Q","sourceTagId":47003106,"sourceTagName":"塞琳/女包","rawTitle":"『Celine 赛琳』\n\nTRIOMPHE标志印花牛皮革肩背包8 X 4 X 2英寸(20 X 10 X 4厘米)TRIOMPHE CANVAS标志印花,牛皮革包边羊皮革衬里肩背TRIOMPHE 金属质感锁扣内侧扁平口袋可调节皮革肩带长8英寸(20厘米)"},"price":null,"currency":"CNY","moq":1,"category":"celine-women-bags","status":"active","alibaba_url":null,"images":["https://xcimg.szwego.com/20210408/i1617827421_724_0.jpg","https://xcimg.szwego.com/20210408/i1617827421_1902_1.jpg","https://xcimg.szwego.com/20210408/i1617827421_1330_2.jpg","https://xcimg.szwego.com/20210408/i1617827421_4797_3.jpg","https://xcimg.szwego.com/20210408/i1617827421_9558_4.jpg","https://xcimg.szwego.com/20210408/i1617827421_3182_5.jpg","https://xcimg.szwego.com/20210408/i1617827421_9934_6.jpg","https://xcimg.szwego.com/20210408/i1617827421_3132_7.jpg"],"created_at":"2025-02-08T12:47:00.799Z"},{"id":"item-86d14a1d60d2","sku":"_dnini5AEOLNz5ZiIiUfb_PECQWPNOIuEdkc_scA","name_en":"『Celine 赛琳』","name_cn":"『Celine 赛琳』\n\nTRIOMPHE标志印花牛皮革肩背包8 X 4 X 2英寸(20 X 10 X 4厘米)TRIOMPHE CANVAS标志印花,牛皮革包边羊皮革衬里肩背TRIOMPHE 金属质感锁扣内侧扁平口袋可调节皮革肩带长8英寸(20厘米)","specs":{"source":"wsxcme","sourceId":"_dnini5AEOLNz5ZiIiUfb_PECQWPNOIuEdkc_scA","sourceTagId":47003106,"sourceTagName":"塞琳/女包","rawTitle":"『Celine 赛琳』\n\nTRIOMPHE标志印花牛皮革肩背包8 X 4 X 2英寸(20 X 10 X 4厘米)TRIOMPHE CANVAS标志印花,牛皮革包边羊皮革衬里肩背TRIOMPHE 金属质感锁扣内侧扁平口袋可调节皮革肩带长8英寸(20厘米)"},"price":null,"currency":"CNY","moq":1,"category":"celine-women-bags","status":"active","alibaba_url":null,"images":["https://xcimg.szwego.com/20210731/i1627739324_7606_0.jpg","https://xcimg.szwego.com/20210731/i1627739324_6761_1.jpg","https://xcimg.szwego.com/20210731/i1627739324_551_2.jpg","https://xcimg.szwego.com/20210731/i1627739324_5414_3.jpg","https://xcimg.szwego.com/20210731/i1627739324_7610_4.jpg","https://xcimg.szwego.com/20210731/i1627739324_2214_5.jpg","https://xcimg.szwego.com/20210731/i1627739324_9060_6.jpg","https://xcimg.szwego.com/20210731/i1627739324_4688_7.jpg"],"created_at":"2025-02-08T12:47:00.798Z"},{"id":"item-5af1cf909de5","sku":"_dflflfvaTj2AmRwgo2JnlStGIH6j6yAz1i_-zrA","name_en":"『Celine 赛琳』","name_cn":"『Celine 赛琳』\n\nCABAS TRIOMPHE🛍老花MiNi号竖款手袋65%纺织布,35%小牛皮100%棉衬里内侧插袋可调节可拆卸皮革肩带 长20英寸(50厘米)尺寸20X 17X 6厘米)","specs":{"source":"wsxcme","sourceId":"_dflflfvaTj2AmRwgo2JnlStGIH6j6yAz1i_-zrA","sourceTagId":47003106,"sourceTagName":"塞琳/女包","dimensions":{"lengthCm":20,"heightCm":17,"widthCm":6},"rawTitle":"『Celine 赛琳』\n\nCABAS TRIOMPHE🛍老花MiNi号竖款手袋65%纺织布,35%小牛皮100%棉衬里内侧插袋可调节可拆卸皮革肩带 长20英寸(50厘米)尺寸20X 17X 6厘米)"},"price":null,"currency":"CNY","moq":1,"category":"celine-women-bags","status":"active","alibaba_url":null,"images":["https://xcimg.szwego.com/20210408/i1617827623_1843_0.jpg","https://xcimg.szwego.com/20210408/i1617827623_7202_1.jpg","https://xcimg.szwego.com/20210408/i1617827623_3330_2.jpg","https://xcimg.szwego.com/20210408/i1617827623_1301_3.jpg","https://xcimg.szwego.com/20210408/i1617827623_7079_4.jpg","https://xcimg.szwego.com/20210408/i1617827623_9626_5.jpg","https://xcimg.szwego.com/20210408/i1617827623_3157_6.jpg","https://xcimg.szwego.com/20210408/i1617827623_6371_7.jpg"],"created_at":"2025-02-08T12:47:00.797Z"},{"id":"item-9a5cb29b1d13","sku":"_deaea18eUfG1QP_8DzixSPRbkFVvjLQFGQP1uYw","name_en":"『Celine 赛琳』","name_cn":"『Celine 赛琳』\n\nCABAS TRIOMPHE🛍老花MiNi号竖款手袋65%纺织布,35%小牛皮100%棉衬里内侧插袋可调节可拆卸皮革肩带 长20英寸(50厘米)尺寸20X 17X 6厘米)","specs":{"source":"wsxcme","sourceId":"_deaea18eUfG1QP_8DzixSPRbkFVvjLQFGQP1uYw","sourceTagId":47003106,"sourceTagName":"塞琳/女包","dimensions":{"lengthCm":20,"heightCm":17,"widthCm":6},"rawTitle":"『Celine 赛琳』\n\nCABAS TRIOMPHE🛍老花MiNi号竖款手袋65%纺织布,35%小牛皮100%棉衬里内侧插袋可调节可拆卸皮革肩带 长20英寸(50厘米)尺寸20X 17X 6厘米)"},"price":null,"currency":"CNY","moq":1,"category":"celine-women-bags","status":"active","alibaba_url":null,"images":["https://xcimg.szwego.com/20210408/i1617827648_7948_0.jpg","https://xcimg.szwego.com/20210408/i1617827648_130_1.jpg","https://xcimg.szwego.com/20210408/i1617827648_2559_2.jpg","https://xcimg.szwego.com/20210408/i1617827648_1166_3.jpg","https://xcimg.szwego.com/20210408/i1617827648_3018_4.jpg","https://xcimg.szwego.com/20210408/i1617827648_986_5.jpg","https://xcimg.szwego.com/20210408/i1617827648_7123_6.jpg","https://xcimg.szwego.com/20210408/i1617827648_5800_7.jpg"],"created_at":"2025-02-08T12:47:00.796Z"},{"id":"item-0ce2e91da4ab","sku":"_dLPLPB4uT2dKhJy47Cv9LbX0WntD_RpegNxJG8w","name_en":"『Celine 赛琳』","name_cn":"『Celine 赛琳』\n\nCABAS TRIOMPHE🛍老花MiNi号竖款手袋65%纺织布,35%小牛皮100%棉衬里内侧插袋可调节可拆卸皮革肩带 长20英寸(50厘米)尺寸20X 17X 6厘米)","specs":{"source":"wsxcme","sourceId":"_dLPLPB4uT2dKhJy47Cv9LbX0WntD_RpegNxJG8w","sourceTagId":47003106,"sourceTagName":"塞琳/女包","dimensions":{"lengthCm":20,"heightCm":17,"widthCm":6},"rawTitle":"『Celine 赛琳』\n\nCABAS TRIOMPHE🛍老花MiNi号竖款手袋65%纺织布,35%小牛皮100%棉衬里内侧插袋可调节可拆卸皮革肩带 长20英寸(50厘米)尺寸20X 17X 6厘米)"},"price":null,"currency":"CNY","moq":1,"category":"celine-women-bags","status":"active","alibaba_url":null,"images":["https://xcimg.szwego.com/20210731/i1627739442_1106_0.jpg","https://xcimg.szwego.com/20210731/i1627739442_6748_1.jpg","https://xcimg.szwego.com/20210731/i1627739442_58_2.jpg","https://xcimg.szwego.com/20210731/i1627739442_1753_3.jpg","https://xcimg.szwego.com/20210731/i1627739442_1896_4.jpg","https://xcimg.szwego.com/20210731/i1627739442_2550_5.jpg","https://xcimg.szwego.com/20210731/i1627739442_3957_6.jpg","https://xcimg.szwego.com/20210731/i1627739442_1404_7.jpg"],"created_at":"2025-02-08T12:47:00.795Z"},{"id":"item-2ddc6a328005","sku":"_d4949aR6P06xGYsCuOn6ocqNoHRcP5hqRd7z18g","name_en":"『Celine 赛琳』","name_cn":"『Celine 赛琳』\n\n经典CABAS TRIOMPHE \n老花MiNi号竖款手袋🛍 65%涂层帆布,\n35%小牛皮,100%棉衬里,内侧插袋,  \n可调节可拆卸皮革肩带,\n尺寸:20cm X 17cm X 6cm   \n型号:2200#","specs":{"source":"wsxcme","sourceId":"_d4949aR6P06xGYsCuOn6ocqNoHRcP5hqRd7z18g","sourceTagId":47003106,"sourceTagName":"塞琳/女包","modelNumber":"2200#","rawTitle":"『Celine 赛琳』\n\n经典CABAS TRIOMPHE \n老花MiNi号竖款手袋🛍 65%涂层帆布,\n35%小牛皮,100%棉衬里,内侧插袋,  \n可调节可拆卸皮革肩带,\n尺寸:20cm X 17cm X 6cm   \n型号:2200#"},"price":null,"currency":"CNY","moq":1,"category":"celine-women-bags","status":"active","alibaba_url":null,"images":["https://xcimg.szwego.com/20220504/i1651635207_279_0.jpg","https://xcimg.szwego.com/20220504/i1651635207_5171_1.jpg","https://xcimg.szwego.com/20220504/i1651635207_7563_2.jpg","https://xcimg.szwego.com/20220504/i1651635207_720_3.jpg","https://xcimg.szwego.com/20220504/i1651635207_3945_4.jpg","https://xcimg.szwego.com/20220504/i1651635207_1237_5.jpg","https://xcimg.szwego.com/20220504/i1651635207_2822_6.jpg","https://xcimg.szwego.com/20220504/i1651635207_4231_7.jpg","https://xcimg.szwego.com/20220504/i1651635207_6429_8.jpg"],"created_at":"2025-02-08T12:47:00.794Z"},{"id":"item-3ee5ae53f9f9","sku":"_djIjIeSfrcPuvQzn9EvdB39lTpcdAx821qMh5qA","name_en":"『Celine 赛琳』","name_cn":"『Celine 赛琳』\n\n经典CABAS TRIOMPHE \n白花MiNi号竖款手袋🛍 65%涂层帆布,\n35%小牛皮,100%棉衬里,内侧插袋,  \n可调节可拆卸皮革肩带,\n尺寸:20cm X 17cm X 6cm   \n型号:2200#","specs":{"source":"wsxcme","sourceId":"_djIjIeSfrcPuvQzn9EvdB39lTpcdAx821qMh5qA","sourceTagId":47003106,"sourceTagName":"塞琳/女包","modelNumber":"2200#","rawTitle":"『Celine 赛琳』\n\n经典CABAS TRIOMPHE \n白花MiNi号竖款手袋🛍 65%涂层帆布,\n35%小牛皮,100%棉衬里,内侧插袋,  \n可调节可拆卸皮革肩带,\n尺寸:20cm X 17cm X 6cm   \n型号:2200#"},"price":null,"currency":"CNY","moq":1,"category":"celine-women-bags","status":"active","alibaba_url":null,"images":["https://xcimg.szwego.com/20220504/i1651635268_3369_0.jpg","https://xcimg.szwego.com/20220504/i1651635268_6483_1.jpg","https://xcimg.szwego.com/20220504/i1651635268_1246_2.jpg","https://xcimg.szwego.com/20220504/i1651635268_8196_3.jpg","https://xcimg.szwego.com/20220504/i1651635268_6642_4.jpg","https://xcimg.szwego.com/20220504/i1651635268_8022_5.jpg","https://xcimg.szwego.com/20220504/i1651635268_7319_6.jpg","https://xcimg.szwego.com/20220504/i1651635268_5400_7.jpg","https://xcimg.szwego.com/20220504/i1651635268_2859_8.jpg"],"created_at":"2025-02-08T12:47:00.793Z"},{"id":"item-a3d9d5d967cc","sku":"_dvgvgFpJyR52GKBRvKfpt1K3Dakvbbekbn1xlTA","name_en":"『Celine 赛琳』","name_cn":"『Celine 赛琳』\n\n新款FOLCO TRIOMPHE邮差包PVC/牛皮 衬里 : 织物 斜挎和肩背 带扣和磁扣 内侧扁平口袋  翻盖下设扁平口袋,背面扁平口袋 可调节肩带 长(53厘米)\n尺寸:31 X 24 X 9cm\n款号:3350#","specs":{"source":"wsxcme","sourceId":"_dvgvgFpJyR52GKBRvKfpt1K3Dakvbbekbn1xlTA","sourceTagId":47003106,"sourceTagName":"塞琳/女包","modelNumber":"3350#","dimensions":{"lengthCm":31,"heightCm":24,"widthCm":9},"rawTitle":"『Celine 赛琳』\n\n新款FOLCO TRIOMPHE邮差包PVC/牛皮 衬里 : 织物 斜挎和肩背 带扣和磁扣 内侧扁平口袋  翻盖下设扁平口袋,背面扁平口袋 可调节肩带 长(53厘米)\n尺寸:31 X 24 X 9cm\n款号:3350#"},"price":null,"currency":"CNY","moq":1,"category":"celine-women-bags","status":"active","alibaba_url":null,"images":["https://xcimg.szwego.com/20211113/i1636775013_9030_0.jpg","https://xcimg.szwego.com/20211113/i1636775013_7617_1.jpg","https://xcimg.szwego.com/20211113/i1636775013_9621_2.jpg","https://xcimg.szwego.com/20211113/i1636775013_2748_3.jpg","https://xcimg.szwego.com/20211113/i1636775013_1212_4.jpg","https://xcimg.szwego.com/20211113/i1636775013_6545_5.jpg","https://xcimg.szwego.com/20211113/i1636775013_6656_6.jpg","https://xcimg.szwego.com/20211113/i1636775013_7710_7.jpg","https://xcimg.szwego.com/20211113/i1636775013_611_8.jpg"],"created_at":"2025-02-08T12:47:00.792Z"},{"id":"item-3f3afdf4f76a","sku":"_dnmnmbBKjGNunp23u-MGUW_WaR-uTDSyeiVUQQA","name_en":"『Celine 赛琳』","name_cn":"『Celine 赛琳』\n\nCe.line 春夏新品Folco白色涂层帆布马鞍包 延续凯旋门 复古斜挎  耐看经典印花一点都不老套。\n尺寸:18x16x10cm\n型号:2179#","specs":{"source":"wsxcme","sourceId":"_dnmnmbBKjGNunp23u-MGUW_WaR-uTDSyeiVUQQA","sourceTagId":47003106,"sourceTagName":"塞琳/女包","modelNumber":"2179#","dimensions":{"lengthCm":18,"heightCm":16,"widthCm":10},"rawTitle":"『Celine 赛琳』\n\nCe.line 春夏新品Folco白色涂层帆布马鞍包 延续凯旋门 复古斜挎  耐看经典印花一点都不老套。\n尺寸:18x16x10cm\n型号:2179#"},"price":null,"currency":"CNY","moq":1,"category":"celine-women-bags","status":"active","alibaba_url":null,"images":["https://xcimg.szwego.com/20220224/i1645679218_7663_0.jpg","https://xcimg.szwego.com/20220224/i1645679218_667_1.jpg","https://xcimg.szwego.com/20220224/i1645679218_6374_2.jpg","https://xcimg.szwego.com/20220224/i1645679218_2908_3.jpg","https://xcimg.szwego.com/20220224/i1645679218_4766_4.jpg","https://xcimg.szwego.com/20220224/i1645679218_103_5.jpg","https://xcimg.szwego.com/20220224/i1645679218_9096_6.jpg","https://xcimg.szwego.com/20220224/i1645679218_5806_7.jpg","https://xcimg.szwego.com/20220224/i1645679218_7219_8.jpg"],"created_at":"2025-02-08T12:47:00.791Z"},{"id":"item-d5bf02260aa8","sku":"_dGaGaUOEYd2pd6A8WwATpHSnO5TwTKXlS3EvL2Q","name_en":"『Celine 赛琳』","name_cn":"『Celine 赛琳』\n\n老花水桶包 大号\n\n定制品质✅\n层牛皮配pvc花料\n按扣开合💕容量非常OK\n自重轻耐磨 防水 不易刮花\n\n尺寸:33×27×17cm","specs":{"source":"wsxcme","sourceId":"_dGaGaUOEYd2pd6A8WwATpHSnO5TwTKXlS3EvL2Q","sourceTagId":47003106,"sourceTagName":"塞琳/女包","dimensions":{"lengthCm":33,"heightCm":27,"widthCm":17},"rawTitle":"『Celine 赛琳』\n\n老花水桶包 大号\n\n定制品质✅\n层牛皮配pvc花料\n按扣开合💕容量非常OK\n自重轻耐磨 防水 不易刮花\n\n尺寸:33×27×17cm"},"price":null,"currency":"CNY","moq":1,"category":"celine-women-bags","status":"active","alibaba_url":null,"images":["https://xcimg.szwego.com/20210421/i1618979997_7429_3.jpg","https://xcimg.szwego.com/20210421/i1618979997_7827_1.jpg","https://xcimg.szwego.com/20210421/i1618979997_6024_2.jpg","https://xcimg.szwego.com/20210421/i1618979997_732_4.jpg","https://xcimg.szwego.com/20210421/i1618979997_2976_0.jpg","https://xcimg.szwego.com/20210421/i1618979997_910_5.jpg","https://xcimg.szwego.com/20210421/i1618979997_1280_6.jpg","https://xcimg.szwego.com/20210421/i1618979997_275_7.jpg","https://xcimg.szwego.com/20210421/i1618979997_351_8.jpg"],"created_at":"2025-02-08T12:47:00.790Z"},{"id":"item-ab42ee9e07a0","sku":"_dVAVA8YpPcsmS-rHKmImp-5wj8BKVMXOVf2Xpsw","name_en":"『Celine 赛琳』","name_cn":"『Celine 赛琳』\n\n老花水桶包•小号\n\n心心念念尺寸终于出货✅\n实用性超强\n小个子非常友好\n经典款老花超百搭❤\n尺寸:30×22×13cm","specs":{"source":"wsxcme","sourceId":"_dVAVA8YpPcsmS-rHKmImp-5wj8BKVMXOVf2Xpsw","sourceTagId":47003106,"sourceTagName":"塞琳/女包","dimensions":{"lengthCm":30,"heightCm":22,"widthCm":13},"rawTitle":"『Celine 赛琳』\n\n老花水桶包•小号\n\n心心念念尺寸终于出货✅\n实用性超强\n小个子非常友好\n经典款老花超百搭❤\n尺寸:30×22×13cm"},"price":null,"currency":"CNY","moq":1,"category":"celine-women-bags","status":"active","alibaba_url":null,"images":["https://xcimg.szwego.com/20211003/i1633247019_1289_0.jpg","https://xcimg.szwego.com/20211003/i1633247019_5880_2.jpg","https://xcimg.szwego.com/20211003/i1633247019_8411_1.jpg","https://xcimg.szwego.com/20211003/i1633247019_3773_3.jpg","https://xcimg.szwego.com/20211003/i1633247019_6467_4.jpg","https://xcimg.szwego.com/20211003/i1633247019_2781_5.jpg","https://xcimg.szwego.com/20211003/i1633247019_5994_6.jpg","https://xcimg.szwego.com/20211003/i1633247019_6225_7.jpg","https://xcimg.szwego.com/20211003/i1633247019_9774_8.jpg"],"created_at":"2025-02-08T12:47:00.789Z"},{"id":"item-5e33992db8be","sku":"_dFHFHSTLYT0_JwaOmUydxKGGCG_xyszsls0LGCA","name_en":"『Celine 赛琳』","name_cn":"『Celine 赛琳』\n\nbox18.5cm 焦糖色\n\n专柜最新尺寸teen💥\n头层牛皮配定制五金\n内里两层\n内侧有扁平口袋✅\n尺寸:18.5×15.5×6cm","specs":{"source":"wsxcme","sourceId":"_dFHFHSTLYT0_JwaOmUydxKGGCG_xyszsls0LGCA","sourceTagId":47003106,"sourceTagName":"塞琳/女包","dimensions":{"lengthCm":18.5,"heightCm":15.5,"widthCm":6},"rawTitle":"『Celine 赛琳』\n\nbox18.5cm 焦糖色\n\n专柜最新尺寸teen💥\n头层牛皮配定制五金\n内里两层\n内侧有扁平口袋✅\n尺寸:18.5×15.5×6cm"},"price":null,"currency":"CNY","moq":1,"category":"celine-women-bags","status":"active","alibaba_url":null,"images":["https://xcimg.szwego.com/20201126/i1606375939_3029_0.jpg","https://xcimg.szwego.com/20201126/i1606375939_9379_1.jpg","https://xcimg.szwego.com/20201126/i1606375939_5272_2.jpg","https://xcimg.szwego.com/20201126/i1606375939_2760_3.jpg","https://xcimg.szwego.com/20201126/i1606375939_7227_4.jpg","https://xcimg.szwego.com/20201126/i1606375939_1490_5.jpg","https://xcimg.szwego.com/20201126/i1606375939_7553_6.jpg","https://xcimg.szwego.com/20201126/i1606375939_7532_7.jpg","https://xcimg.szwego.com/20201126/i1606375939_412_8.jpg"],"created_at":"2025-02-08T12:47:00.788Z"},{"id":"item-333eb29d2c84","sku":"_dK1K1PWEy-B8EPS39pT4kx6TIJG5Ojkh5drAonA","name_en":"『Celine 赛琳』","name_cn":"『Celine 赛琳』\n\nbox18.5cm 酒红色\n\n专柜最新尺寸teen💥\n头层牛皮配定制五金\n内里两层\n内侧有扁平口袋✅\n尺寸:18.5×15.5×6cm","specs":{"source":"wsxcme","sourceId":"_dK1K1PWEy-B8EPS39pT4kx6TIJG5Ojkh5drAonA","sourceTagId":47003106,"sourceTagName":"塞琳/女包","dimensions":{"lengthCm":18.5,"heightCm":15.5,"widthCm":6},"rawTitle":"『Celine 赛琳』\n\nbox18.5cm 酒红色\n\n专柜最新尺寸teen💥\n头层牛皮配定制五金\n内里两层\n内侧有扁平口袋✅\n尺寸:18.5×15.5×6cm"},"price":null,"currency":"CNY","moq":1,"category":"celine-women-bags","status":"active","alibaba_url":null,"images":["https://xcimg.szwego.com/20201126/i1606377680_6871_0.jpg","https://xcimg.szwego.com/20201126/i1606377680_3214_1.jpg","https://xcimg.szwego.com/20201126/i1606377680_654_2.jpg","https://xcimg.szwego.com/20201126/i1606377680_6319_3.jpg","https://xcimg.szwego.com/20201126/i1606377680_8384_4.jpg","https://xcimg.szwego.com/20201126/i1606377680_7313_5.jpg","https://xcimg.szwego.com/20201126/i1606377680_1205_6.jpg","https://xcimg.szwego.com/20201126/i1606377680_1421_7.jpg","https://xcimg.szwego.com/20201126/i1606377680_9866_8.jpg"],"created_at":"2025-02-08T12:47:00.787Z"},{"id":"item-8bc9dd28feec","sku":"_dxOxOCK2m6ESROl8BbOQu2hUVd_iER5fOPEuk5Q","name_en":"『Celine 赛琳』","name_cn":"『Celine 赛琳』\n\nbox18.5cm 灰色银扣\n\n专柜最新尺寸teen💥\n头层牛皮配定制五金\n内里两层\n内侧有扁平口袋✅\n尺寸:18.5×15.5×6cm","specs":{"source":"wsxcme","sourceId":"_dxOxOCK2m6ESROl8BbOQu2hUVd_iER5fOPEuk5Q","sourceTagId":47003106,"sourceTagName":"塞琳/女包","dimensions":{"lengthCm":18.5,"heightCm":15.5,"widthCm":6},"rawTitle":"『Celine 赛琳』\n\nbox18.5cm 灰色银扣\n\n专柜最新尺寸teen💥\n头层牛皮配定制五金\n内里两层\n内侧有扁平口袋✅\n尺寸:18.5×15.5×6cm"},"price":null,"currency":"CNY","moq":1,"category":"celine-women-bags","status":"active","alibaba_url":null,"images":["https://xcimg.szwego.com/20201126/i1606377839_5238_0.jpg","https://xcimg.szwego.com/20201126/i1606377839_5828_1.jpg","https://xcimg.szwego.com/20201126/i1606377839_1392_2.jpg","https://xcimg.szwego.com/20201126/i1606377839_4006_3.jpg","https://xcimg.szwego.com/20201126/i1606377839_9068_4.jpg","https://xcimg.szwego.com/20201126/i1606377839_7144_5.jpg","https://xcimg.szwego.com/20201126/i1606377839_1138_6.jpg","https://xcimg.szwego.com/20201126/i1606377839_7088_7.jpg","https://xcimg.szwego.com/20201126/i1606377839_6659_8.jpg"],"created_at":"2025-02-08T12:47:00.786Z"},{"id":"item-3c726f073e1c","sku":"_dDKDKQ-1mjKalyhGip27KLorE_Qjze2jZ5vwrnw","name_en":"『Celine 赛琳』","name_cn":"『Celine 赛琳』\n\nbox18.5cm 黑色\n\n专柜最新尺寸teen💥\n头层牛皮配定制五金\n内里两层\n内侧有扁平口袋✅\n尺寸:18.5×15.5×6cm","specs":{"source":"wsxcme","sourceId":"_dDKDKQ-1mjKalyhGip27KLorE_Qjze2jZ5vwrnw","sourceTagId":47003106,"sourceTagName":"塞琳/女包","dimensions":{"lengthCm":18.5,"heightCm":15.5,"widthCm":6},"rawTitle":"『Celine 赛琳』\n\nbox18.5cm 黑色\n\n专柜最新尺寸teen💥\n头层牛皮配定制五金\n内里两层\n内侧有扁平口袋✅\n尺寸:18.5×15.5×6cm"},"price":null,"currency":"CNY","moq":1,"category":"celine-women-bags","status":"active","alibaba_url":null,"images":["https://xcimg.szwego.com/20201126/i1606378058_6555_0.jpg","https://xcimg.szwego.com/20201126/i1606378058_6585_1.jpg","https://xcimg.szwego.com/20201126/i1606378058_3550_2.jpg","https://xcimg.szwego.com/20201126/i1606378058_8390_3.jpg","https://xcimg.szwego.com/20201126/i1606378058_2251_4.jpg","https://xcimg.szwego.com/20201126/i1606378058_1038_5.jpg","https://xcimg.szwego.com/20201126/i1606378058_9659_6.jpg","https://xcimg.szwego.com/20201126/i1606378058_2679_7.jpg","https://xcimg.szwego.com/20201126/i1606378058_799_8.jpg"],"created_at":"2025-02-08T12:47:00.785Z"},{"id":"item-0699ee9cf6b1","sku":"_dBlBlWCgh6eU4_4h3g9Qec16P_Zm-vtp1Kk6f5Q","name_en":"『Celine 赛琳』","name_cn":"『Celine 赛琳』\n\nbox18.5cm 雾霾蓝\n\n专柜最新尺寸teen💥\n头层牛皮配定制五金\n内里两层\n内侧有扁平口袋✅\n尺寸:18.5×15.5×6cm","specs":{"source":"wsxcme","sourceId":"_dBlBlWCgh6eU4_4h3g9Qec16P_Zm-vtp1Kk6f5Q","sourceTagId":47003106,"sourceTagName":"塞琳/女包","dimensions":{"lengthCm":18.5,"heightCm":15.5,"widthCm":6},"rawTitle":"『Celine 赛琳』\n\nbox18.5cm 雾霾蓝\n\n专柜最新尺寸teen💥\n头层牛皮配定制五金\n内里两层\n内侧有扁平口袋✅\n尺寸:18.5×15.5×6cm"},"price":null,"currency":"CNY","moq":1,"category":"celine-women-bags","status":"active","alibaba_url":null,"images":["https://xcimg.szwego.com/20201126/i1606377807_2172_0.jpg","https://xcimg.szwego.com/20201126/i1606377807_9743_1.jpg","https://xcimg.szwego.com/20201126/i1606377807_1409_2.jpg","https://xcimg.szwego.com/20201126/i1606377807_496_3.jpg","https://xcimg.szwego.com/20201126/i1606377807_4843_4.jpg","https://xcimg.szwego.com/20201126/i1606377807_9844_5.jpg","https://xcimg.szwego.com/20201126/i1606377807_9647_6.jpg","https://xcimg.szwego.com/20201126/i1606377807_7082_7.jpg","https://xcimg.szwego.com/20201126/i1606377807_4875_8.jpg"],"created_at":"2025-02-08T12:47:00.784Z"},{"id":"item-ab66723e15d1","sku":"_dLlLlRVT15cueSs4Rf9bv3wiinDQmj6u-bs68HQ","name_en":"『Celine 赛琳』","name_cn":"『Celine 赛琳』\n\nbox18.5cm 奶昔白银扣\n\n专柜最新尺寸teen💥\n头层牛皮配定制五金\n内里两层\n内侧有扁平口袋✅\n尺寸:18.5×15.5×6cm","specs":{"source":"wsxcme","sourceId":"_dLlLlRVT15cueSs4Rf9bv3wiinDQmj6u-bs68HQ","sourceTagId":47003106,"sourceTagName":"塞琳/女包","dimensions":{"lengthCm":18.5,"heightCm":15.5,"widthCm":6},"rawTitle":"『Celine 赛琳』\n\nbox18.5cm 奶昔白银扣\n\n专柜最新尺寸teen💥\n头层牛皮配定制五金\n内里两层\n内侧有扁平口袋✅\n尺寸:18.5×15.5×6cm"},"price":null,"currency":"CNY","moq":1,"category":"celine-women-bags","status":"active","alibaba_url":null,"images":["https://xcimg.szwego.com/20201126/i1606377943_4432_0.jpg","https://xcimg.szwego.com/20201126/i1606377943_6575_1.jpg","https://xcimg.szwego.com/20201126/i1606377943_6803_2.jpg","https://xcimg.szwego.com/20201126/i1606377943_4941_3.jpg","https://xcimg.szwego.com/20201126/i1606377943_2368_4.jpg","https://xcimg.szwego.com/20201126/i1606377943_7968_5.jpg","https://xcimg.szwego.com/20201126/i1606377943_3678_6.jpg","https://xcimg.szwego.com/20201126/i1606377943_1325_7.jpg","https://xcimg.szwego.com/20201126/i1606377943_6913_8.jpg"],"created_at":"2025-02-08T12:47:00.783Z"},{"id":"item-5e75d36ea3a4","sku":"_d9090veBAyep7y_7pva-9OimKE18AqbsYP5WSNQ","name_en":"圣罗兰 标志正面翻盖包,配有马衔索式链条肩带、经典没流苏款,牛皮革,磁石按扣封口,内侧隔层袋,尺寸24×14.5×5.5cm,s03613,","name_cn":"圣罗兰 标志正面翻盖包,配有马衔索式链条肩带、经典没流苏款,牛皮革,磁石按扣封口,内侧隔层袋,尺寸24×14.5×5.5cm,s03613,","specs":{"source":"wsxcme","sourceId":"_d9090veBAyep7y_7pva-9OimKE18AqbsYP5WSNQ","sourceTagId":47002761,"sourceTagName":"圣罗兰/女包","dimensions":{"lengthCm":24,"heightCm":14.5,"widthCm":5.5},"rawTitle":"圣罗兰 标志正面翻盖包,配有马衔索式链条肩带、经典没流苏款,牛皮革,磁石按扣封口,内侧隔层袋,尺寸24×14.5×5.5cm,s03613,"},"price":null,"currency":"CNY","moq":1,"category":"ysl-women-bags","status":"active","alibaba_url":null,"images":["https://xcimg.szwego.com/20230225/i1677319377_8016_0.jpg","https://xcimg.szwego.com/20230225/i1677319377_3629_1.jpg","https://xcimg.szwego.com/20230225/i1677319377_8599_2.jpg","https://xcimg.szwego.com/20230225/i1677319377_8907_3.jpg","https://xcimg.szwego.com/20230225/i1677319377_2147_4.jpg","https://xcimg.szwego.com/20230225/i1677319377_4161_5.jpg"],"created_at":"2025-02-08T12:46:07.488Z"},{"id":"item-a8bf957bd73b","sku":"_disisDkw8-7cmZfWS9uepjmK1OJzFI3X2Zx-_pg","name_en":"圣罗兰牛皮woc小号信封包来袭,说到信封包,Y家的这一只一定必须要拥有名字!整包采用原厂鱼子酱牛皮制作,版型立体,手感舒适!可拆卸的肩带设计丰富了包包的多用性,肩带拆掉可直接当手包&晚宴包使用,内置多个卡位,实用到爆炸,平时出门带上手机和卡片,一个小包就可以带你轻松走遍天下!","name_cn":"圣罗兰牛皮woc小号信封包来袭,说到信封包,Y家的这一只一定必须要拥有名字!整包采用原厂鱼子酱牛皮制作,版型立体,手感舒适!可拆卸的肩带设计丰富了包包的多用性,肩带拆掉可直接当手包&晚宴包使用,内置多个卡位,实用到爆炸,平时出门带上手机和卡片,一个小包就可以带你轻松走遍天下!\n型号:S8091\n尺寸:19x11.5x4cm","specs":{"source":"wsxcme","sourceId":"_disisDkw8-7cmZfWS9uepjmK1OJzFI3X2Zx-_pg","sourceTagId":47002761,"sourceTagName":"圣罗兰/女包","modelNumber":"S8091","dimensions":{"lengthCm":19,"heightCm":11.5,"widthCm":4},"rawTitle":"圣罗兰牛皮woc小号信封包来袭,说到信封包,Y家的这一只一定必须要拥有名字!整包采用原厂鱼子酱牛皮制作,版型立体,手感舒适!可拆卸的肩带设计丰富了包包的多用性,肩带拆掉可直接当手包&晚宴包使用,内置多个卡位,实用到爆炸,平时出门带上手机和卡片,一个小包就可以带你轻松走遍天下!\n型号:S8091\n尺寸:19x11.5x4cm"},"price":null,"currency":"CNY","moq":1,"category":"ysl-women-bags","status":"active","alibaba_url":null,"images":["https://xcimg.szwego.com/img/c0f37100/20240330/i1711769849_6717_4.jpg","https://xcimg.szwego.com/img/c0f37100/20240330/i1711769849_9715_2.jpg","https://xcimg.szwego.com/img/c0f37100/20240330/i1711769849_6518_5.jpg","https://xcimg.szwego.com/img/c0f37100/20240330/i1711769849_5736_1.jpg","https://xcimg.szwego.com/img/c0f37100/20240330/i1711769849_1864_7.jpg","https://xcimg.szwego.com/img/c0f37100/20240330/i1711769849_2627_6.jpg","https://xcimg.szwego.com/img/c0f37100/20240330/i1711769849_2087_8.jpg","https://xcimg.szwego.com/img/c0f37100/20240330/i1711769849_7076_0.jpg","https://xcimg.szwego.com/img/c0f37100/20240330/i1711769849_5494_3.jpg"],"created_at":"2025-02-08T12:46:07.487Z"},{"id":"item-705ac6d6f2d4","sku":"_dVOVOCB6FWxF3rO7LZ0oQfztEhKTYtbk4En3uew","name_en":"sᴀɪɴᴛ ʟᴀᴜʀᴇɴᴛ","name_cn":"sᴀɪɴᴛ ʟᴀᴜʀᴇɴᴛ\n【VOLTAIRE 】24最新款伏尔泰Mini 椭圆形腋下背包!超chic的极简设计 尽显极致的圣罗兰法国风情、很正的复古感手拎腋下背皆宜、翻盖搭扣很新颖哇♥️空间的话Plus手机也完全无压力、正面翻盖设计LE CASSANDRE旋扣开合、皮革衬里古铜色配件 一个平袋!简单又大气 这是您最简单的入手\n货号:S8098\n尺寸:21×11×4.5cm","specs":{"source":"wsxcme","sourceId":"_dVOVOCB6FWxF3rO7LZ0oQfztEhKTYtbk4En3uew","sourceTagId":47002761,"sourceTagName":"圣罗兰/女包","modelNumber":"S8098","dimensions":{"lengthCm":21,"heightCm":11,"widthCm":4.5},"rawTitle":"sᴀɪɴᴛ ʟᴀᴜʀᴇɴᴛ\n【VOLTAIRE 】24最新款伏尔泰Mini 椭圆形腋下背包!超chic的极简设计 尽显极致的圣罗兰法国风情、很正的复古感手拎腋下背皆宜、翻盖搭扣很新颖哇♥️空间的话Plus手机也完全无压力、正面翻盖设计LE CASSANDRE旋扣开合、皮革衬里古铜色配件 一个平袋!简单又大气 这是您最简单的入手\n货号:S8098\n尺寸:21×11×4.5cm"},"price":null,"currency":"CNY","moq":1,"category":"ysl-women-bags","status":"active","alibaba_url":null,"images":["https://xcimg.szwego.com/img/c0f37100/20240505/i1714898570_7417_0.jpg","https://xcimg.szwego.com/img/c0f37100/20240505/i1714898570_6998_0.jpg","https://xcimg.szwego.com/img/c0f37100/20240505/i1714898568_6272_0.jpg","https://xcimg.szwego.com/img/c0f37100/20240505/i1714898570_2095_0.jpg","https://xcimg.szwego.com/img/c0f37100/20240505/i1714898569_7305_0.jpg","https://xcimg.szwego.com/img/c0f37100/20240505/i1714898569_5272_0.jpg","https://xcimg.szwego.com/img/c0f37100/20240505/i1714898568_4573_0.jpg","https://xcimg.szwego.com/img/c0f37100/20240505/i1714898569_8887_0.jpg","https://xcimg.szwego.com/img/c0f37100/20240505/i1714898569_8272_0.jpg"],"created_at":"2025-02-08T12:46:07.486Z"},{"id":"item-2588287dddb4","sku":"_dDrDrBX1N1PvqvXKDzZSIAj_hFJFZo_f5xnyAjg","name_en":"Saint Laurent Women Bags","name_cn":"【原厂皮】🌈精品专供🔥黑羊皮/金\nCALYPSO 简约而不失优雅圣罗兰的新标志性手袋!浓郁的法式风情!古铜色配件按扣开合、一个内部拉链口袋。包型由细粒度进口羊皮制成、有衬垫绗缝、手袋柔软宽敞,是日常使用的理想尺寸、包袋简约大气略带复古感!是独立成功女姓的首选包包👍\n型号:777399【原厂皮】\n尺寸:37x21x10cm","specs":{"source":"wsxcme","sourceId":"_dDrDrBX1N1PvqvXKDzZSIAj_hFJFZo_f5xnyAjg","sourceTagId":47002761,"sourceTagName":"圣罗兰/女包","modelNumber":"777399【原厂皮】","dimensions":{"lengthCm":37,"heightCm":21,"widthCm":10},"rawTitle":"【原厂皮】🌈精品专供🔥黑羊皮/金\nCALYPSO 简约而不失优雅圣罗兰的新标志性手袋!浓郁的法式风情!古铜色配件按扣开合、一个内部拉链口袋。包型由细粒度进口羊皮制成、有衬垫绗缝、手袋柔软宽敞,是日常使用的理想尺寸、包袋简约大气略带复古感!是独立成功女姓的首选包包👍\n型号:777399【原厂皮】\n尺寸:37x21x10cm"},"price":null,"currency":"CNY","moq":1,"category":"ysl-women-bags","status":"active","alibaba_url":null,"images":["https://xcimg.szwego.com/img/fce24e4d/20240521/i1716295419_3942_3.jpg","https://xcimg.szwego.com/img/fce24e4d/20240521/i1716295419_6989_5.jpg","https://xcimg.szwego.com/img/fce24e4d/20240521/i1716295419_4260_0.jpg","https://xcimg.szwego.com/img/fce24e4d/20240521/i1716295419_5073_1.jpg","https://xcimg.szwego.com/img/fce24e4d/20240521/i1716295419_1730_6.jpg","https://xcimg.szwego.com/img/fce24e4d/20240521/i1716295419_8787_4.jpg","https://xcimg.szwego.com/img/fce24e4d/20240521/i1716295419_8432_7.jpg","https://xcimg.szwego.com/img/fce24e4d/20240521/i1716295419_7738_2.jpg","https://xcimg.szwego.com/img/fce24e4d/20240521/i1716295419_1757_8.jpg"],"created_at":"2025-02-08T12:46:07.485Z"}],"page":179,"pageSize":24,"total":10075,"totalPages":420}
