{"items":[{"id":"item-2a49f3d52dab","sku":"_diRiRQi-_ND24V0iylBOsDACWARcCHVSjT5zibQ","name_en":"constance 19cm 原版epsom 皮 gold 37金棕 金扣 in stock","name_cn":"constance 19cm 原版epsom 皮 gold 37金棕 金扣 in stock","specs":{"source":"wsxcme","sourceId":"_diRiRQi-_ND24V0iylBOsDACWARcCHVSjT5zibQ","sourceTagId":76963559,"sourceTagName":"爱马仕/女包","rawTitle":"constance 19cm 原版epsom 皮 gold 37金棕 金扣 in stock"},"price":null,"currency":"CNY","moq":1,"category":"hermes-women-bags","status":"active","alibaba_url":null,"images":["https://xcimg.szwego.com/20230627/i1687838765_3863_0.jpg","https://xcimg.szwego.com/20230627/i1687838765_4439_1.jpg","https://xcimg.szwego.com/20230627/i1687838765_2750_2.jpg","https://xcimg.szwego.com/20230627/i1687838765_5841_3.jpg","https://xcimg.szwego.com/20230627/i1687838765_9450_4.jpg","https://xcimg.szwego.com/20230627/i1687838765_4881_5.jpg","https://xcimg.szwego.com/20230627/i1687838765_9152_6.jpg"],"created_at":"2024-10-22T05:00:12.220Z"},{"id":"item-7214855ce48a","sku":"_dS8S86j6eY4ZGVET-SDK49RNN0G-B7rNW86xgiw","name_en":"Hermes Women Bags","name_cn":"康康19 原版掌纹 午夜蓝 金扣","specs":{"source":"wsxcme","sourceId":"_dS8S86j6eY4ZGVET-SDK49RNN0G-B7rNW86xgiw","sourceTagId":76963559,"sourceTagName":"爱马仕/女包","rawTitle":"康康19 原版掌纹 午夜蓝 金扣"},"price":null,"currency":"CNY","moq":1,"category":"hermes-women-bags","status":"active","alibaba_url":null,"images":["https://xcimg.szwego.com/20230707/i1688699520_7987_0.jpg","https://xcimg.szwego.com/20230707/i1688699520_1595_1.jpg","https://xcimg.szwego.com/20230707/i1688699520_4772_2.jpg","https://xcimg.szwego.com/20230707/i1688699520_1469_3.jpg","https://xcimg.szwego.com/20230707/i1688699520_6060_4.jpg","https://xcimg.szwego.com/20230707/i1688699520_3261_5.jpg","https://xcimg.szwego.com/20230707/i1688699520_5648_6.jpg","https://xcimg.szwego.com/20230707/i1688699520_8848_7.jpg"],"created_at":"2024-10-22T05:00:12.219Z"},{"id":"item-bc8c1b238c45","sku":"_drerehP3lv7gz_BYjF1TUN6MJgS1Ynk3oT5Aq2Q","name_en":"Constance 18 新款  Nata奶油白   康斯坦  带镜子 全手工 原厂Epsom 镀厚金五金  金扣","name_cn":"Constance 18 新款  Nata奶油白   康斯坦  带镜子 全手工 原厂Epsom 镀厚金五金  金扣","specs":{"source":"wsxcme","sourceId":"_drerehP3lv7gz_BYjF1TUN6MJgS1Ynk3oT5Aq2Q","sourceTagId":76963559,"sourceTagName":"爱马仕/女包","rawTitle":"Constance 18 新款  Nata奶油白   康斯坦  带镜子 全手工 原厂Epsom 镀厚金五金  金扣"},"price":null,"currency":"CNY","moq":1,"category":"hermes-women-bags","status":"active","alibaba_url":null,"images":["https://xcimg.szwego.com/img/109d8128/20231224/a1703401539125_7565.jpg","https://xcimg.szwego.com/img/109d8128/20231224/a1703401538680_1143.jpg","https://xcimg.szwego.com/img/109d8128/20231224/a1703401538608_8367.jpg","https://xcimg.szwego.com/img/109d8128/20231224/a1703401538834_1388.jpg","https://xcimg.szwego.com/img/109d8128/20231224/a1703401539192_0126.jpg","https://xcimg.szwego.com/img/109d8128/20231224/a1703401539150_7422.jpg","https://xcimg.szwego.com/img/109d8128/20231224/a1703401539872_7444.jpg","https://xcimg.szwego.com/img/109d8128/20231224/a1703401539850_3745.jpg","https://xcimg.szwego.com/img/109d8128/20231224/a1703401539851_5184.jpg"],"created_at":"2024-10-22T05:00:12.218Z"},{"id":"item-1d7200ee592f","sku":"_dnYnYixYijx1qXlbnYBtCIWhSx0NVk-zvHhK_DQ","name_en":"Constance 18 新款  CK37金棕金    康斯坦  带镜子 全手工 原厂Epsom 镀厚金五金  金扣","name_cn":"Constance 18 新款  CK37金棕金    康斯坦  带镜子 全手工 原厂Epsom 镀厚金五金  金扣","specs":{"source":"wsxcme","sourceId":"_dnYnYixYijx1qXlbnYBtCIWhSx0NVk-zvHhK_DQ","sourceTagId":76963559,"sourceTagName":"爱马仕/女包","rawTitle":"Constance 18 新款  CK37金棕金    康斯坦  带镜子 全手工 原厂Epsom 镀厚金五金  金扣"},"price":null,"currency":"CNY","moq":1,"category":"hermes-women-bags","status":"active","alibaba_url":null,"images":["https://xcimg.szwego.com/img/109d8128/20231224/a1703401329061_0355.jpg","https://xcimg.szwego.com/img/109d8128/20231224/a1703401328799_7331.jpg","https://xcimg.szwego.com/img/109d8128/20231224/a1703401328404_0536.jpg","https://xcimg.szwego.com/img/109d8128/20231224/a1703401329002_3156.jpg","https://xcimg.szwego.com/img/109d8128/20231224/a1703401328752_0716.jpg","https://xcimg.szwego.com/img/109d8128/20231224/a1703401328756_2061.jpg","https://xcimg.szwego.com/img/109d8128/20231224/a1703401329848_6763.jpg","https://xcimg.szwego.com/img/109d8128/20231224/a1703401329911_6456.jpg","https://xcimg.szwego.com/img/109d8128/20231224/a1703401329934_0364.jpg"],"created_at":"2024-10-22T05:00:12.217Z"},{"id":"item-a5f7a3522deb","sku":"_d-5-5DWXof4ECwAZnJJ639WbVDYIj5BNqyWWG7A","name_en":"Constance 18 新款  0L积雨云灰   康斯坦  带镜子 全手工 原厂Epsom 镀厚金五金  金扣","name_cn":"Constance 18 新款  0L积雨云灰   康斯坦  带镜子 全手工 原厂Epsom 镀厚金五金  金扣","specs":{"source":"wsxcme","sourceId":"_d-5-5DWXof4ECwAZnJJ639WbVDYIj5BNqyWWG7A","sourceTagId":76963559,"sourceTagName":"爱马仕/女包","rawTitle":"Constance 18 新款  0L积雨云灰   康斯坦  带镜子 全手工 原厂Epsom 镀厚金五金  金扣"},"price":null,"currency":"CNY","moq":1,"category":"hermes-women-bags","status":"active","alibaba_url":null,"images":["https://xcimg.szwego.com/img/109d8128/20231224/a1703401190449_8135.jpg","https://xcimg.szwego.com/img/109d8128/20231224/a1703401190408_2702.jpg","https://xcimg.szwego.com/img/109d8128/20231224/a1703401190325_5806.jpg","https://xcimg.szwego.com/img/109d8128/20231224/a1703401190327_7641.jpg","https://xcimg.szwego.com/img/109d8128/20231224/a1703401190147_7878.jpg","https://xcimg.szwego.com/img/109d8128/20231224/a1703401190231_5030.jpg","https://xcimg.szwego.com/img/109d8128/20231224/a1703401191336_8851.jpg","https://xcimg.szwego.com/img/109d8128/20231224/a1703401191255_2857.jpg"],"created_at":"2024-10-22T05:00:12.216Z"},{"id":"item-1c4b39e7e4fd","sku":"_dkFkFBFw2yRjUMX6MRLQhsYbvuLSqPyYHNikHog","name_en":"Constance 18 新款  CK89 康斯坦  带镜子 全手工 原厂Epsom 镀厚金五金  金扣","name_cn":"Constance 18 新款  CK89 康斯坦  带镜子 全手工 原厂Epsom 镀厚金五金  金扣","specs":{"source":"wsxcme","sourceId":"_dkFkFBFw2yRjUMX6MRLQhsYbvuLSqPyYHNikHog","sourceTagId":76963559,"sourceTagName":"爱马仕/女包","rawTitle":"Constance 18 新款  CK89 康斯坦  带镜子 全手工 原厂Epsom 镀厚金五金  金扣"},"price":null,"currency":"CNY","moq":1,"category":"hermes-women-bags","status":"active","alibaba_url":null,"images":["https://xcimg.szwego.com/img/109d8128/20231224/a1703400328767_4024.jpg","https://xcimg.szwego.com/img/109d8128/20231224/a1703400328706_5452.jpg","https://xcimg.szwego.com/img/109d8128/20231224/a1703400328637_6250.jpg","https://xcimg.szwego.com/img/109d8128/20231224/a1703400328712_4873.jpg","https://xcimg.szwego.com/img/109d8128/20231224/a1703400328832_4152.jpg","https://xcimg.szwego.com/img/109d8128/20231224/a1703400328796_1577.jpg","https://xcimg.szwego.com/img/109d8128/20231224/a1703400329601_7176.jpg","https://xcimg.szwego.com/img/109d8128/20231224/a1703400329633_4330.jpg","https://xcimg.szwego.com/img/109d8128/20231224/a1703400329676_6431.jpg"],"created_at":"2024-10-22T05:00:12.215Z"},{"id":"item-ea0940d9a093","sku":"_dSZSZCNk7bEnAd2OzCN6Gs6mKFZd3mZ3Lw_-Fmw","name_en":"Constance 18 新款  CK18 大象灰 康斯坦  带镜子 全手工 原厂Epsom 电钯五金  银扣","name_cn":"Constance 18 新款  CK18 大象灰 康斯坦  带镜子 全手工 原厂Epsom 电钯五金  银扣","specs":{"source":"wsxcme","sourceId":"_dSZSZCNk7bEnAd2OzCN6Gs6mKFZd3mZ3Lw_-Fmw","sourceTagId":76963559,"sourceTagName":"爱马仕/女包","rawTitle":"Constance 18 新款  CK18 大象灰 康斯坦  带镜子 全手工 原厂Epsom 电钯五金  银扣"},"price":null,"currency":"CNY","moq":1,"category":"hermes-women-bags","status":"active","alibaba_url":null,"images":["https://xcimg.szwego.com/img/109d8128/20231224/a1703400207156_8843.jpg","https://xcimg.szwego.com/img/109d8128/20231224/a1703400206940_4333.jpg","https://xcimg.szwego.com/img/109d8128/20231224/a1703400206977_3427.jpg","https://xcimg.szwego.com/img/109d8128/20231224/a1703400206925_3575.jpg","https://xcimg.szwego.com/img/109d8128/20231224/a1703400207154_3054.jpg","https://xcimg.szwego.com/img/109d8128/20231224/a1703400207075_0246.jpg","https://xcimg.szwego.com/img/109d8128/20231224/a1703400207946_5348.jpg","https://xcimg.szwego.com/img/109d8128/20231224/a1703400207848_0276.jpg","https://xcimg.szwego.com/img/109d8128/20231224/a1703400207895_6233.jpg"],"created_at":"2024-10-22T05:00:12.214Z"},{"id":"item-ee465b8a6e95","sku":"_djKjKEwH2lJzp8dy6F6X4pRpiFXbzrRA7q9v0vg","name_en":"H Limited edition","name_cn":"H Limited edition\nBk42 帆布橙色/box calf leather and cavas palladium hardware","specs":{"source":"wsxcme","sourceId":"_djKjKEwH2lJzp8dy6F6X4pRpiFXbzrRA7q9v0vg","sourceTagId":76963559,"sourceTagName":"爱马仕/女包","rawTitle":"H Limited edition\nBk42 帆布橙色/box calf leather and cavas palladium hardware"},"price":null,"currency":"CNY","moq":1,"category":"hermes-women-bags","status":"active","alibaba_url":null,"images":["https://xcimg.szwego.com/20230102/a1672663225338_5233.jpg","https://xcimg.szwego.com/20230102/a1672663225606_2288.jpg","https://xcimg.szwego.com/20230102/a1672663226071_0864.jpg","https://xcimg.szwego.com/20230102/a1672663226162_7888.jpg","https://xcimg.szwego.com/20230102/a1672663226375_0676.jpg","https://xcimg.szwego.com/20230102/a1672663226917_7304.jpg"],"created_at":"2024-10-22T05:00:12.213Z"},{"id":"item-e7198904dcbc","sku":"_dxpxpi5a5mVki_LCCErWqQD4SqP4ADQt6gKT3Qw","name_en":"H Limited edition","name_cn":"H Limited edition\nBk30 帆布橙色/box calf leather and cavas palladium hardware","specs":{"source":"wsxcme","sourceId":"_dxpxpi5a5mVki_LCCErWqQD4SqP4ADQt6gKT3Qw","sourceTagId":76963559,"sourceTagName":"爱马仕/女包","rawTitle":"H Limited edition\nBk30 帆布橙色/box calf leather and cavas palladium hardware"},"price":null,"currency":"CNY","moq":1,"category":"hermes-women-bags","status":"active","alibaba_url":null,"images":["https://xcimg.szwego.com/20230102/a1672662899380_7023.jpg","https://xcimg.szwego.com/20230102/a1672662900427_3646.jpg","https://xcimg.szwego.com/20230102/a1672662900740_7282.jpg","https://xcimg.szwego.com/20230102/a1672662901014_4644.jpg","https://xcimg.szwego.com/20230102/a1672662901558_0810.jpg","https://xcimg.szwego.com/20230102/a1672662901860_2647.jpg"],"created_at":"2024-10-22T05:00:12.212Z"},{"id":"item-dbcbf81160bf","sku":"_dmpmpi2_wWmvymzXLeD52PNz1WP9hUjVIpBRLEg","name_en":"猪鼻子包🐷 Roulis  19cm 图片  现货 Evercolor皮拼帆布H✔ 进口蜜蜡线✔全钢五金配件✔低调~好装~方便~ 简约百搭款 可斜挎背 ~手拿~单肩背~","name_cn":"猪鼻子包🐷 Roulis  19cm 图片  现货 Evercolor皮拼帆布H✔ 进口蜜蜡线✔全钢五金配件✔低调~好装~方便~ 简约百搭款 可斜挎背 ~手拿~单肩背~","specs":{"source":"wsxcme","sourceId":"_dmpmpi2_wWmvymzXLeD52PNz1WP9hUjVIpBRLEg","sourceTagId":76963559,"sourceTagName":"爱马仕/女包","rawTitle":"猪鼻子包🐷 Roulis  19cm 图片  现货 Evercolor皮拼帆布H✔ 进口蜜蜡线✔全钢五金配件✔低调~好装~方便~ 简约百搭款 可斜挎背 ~手拿~单肩背~"},"price":null,"currency":"CNY","moq":1,"category":"hermes-women-bags","status":"active","alibaba_url":null,"images":["https://xcimg.szwego.com/20221103/a1667440452772_8188.jpg","https://xcimg.szwego.com/20221103/a1667440453076_2138.jpg","https://xcimg.szwego.com/20221103/a1667440453415_3504.jpg","https://xcimg.szwego.com/20221103/a1667440453481_1400.jpg","https://xcimg.szwego.com/20221103/a1667440453674_2516.jpg","https://xcimg.szwego.com/20221103/a1667440453884_2405.jpg"],"created_at":"2024-10-22T05:00:12.211Z"},{"id":"item-61c68e191a67","sku":"_dhChCcbZHFHToXyUGuWehVdBHtXIDzsYEu6hD9w","name_en":"猪鼻子包🐷 Roulis  19cm 图片  现货 Evercolor皮拼帆布H✔ 进口蜜蜡线✔全钢五金配件✔低调~好装~方便~ 简约百搭款 可斜挎背 ~手拿~单肩背~","name_cn":"猪鼻子包🐷 Roulis  19cm 图片  现货 Evercolor皮拼帆布H✔ 进口蜜蜡线✔全钢五金配件✔低调~好装~方便~ 简约百搭款 可斜挎背 ~手拿~单肩背~","specs":{"source":"wsxcme","sourceId":"_dhChCcbZHFHToXyUGuWehVdBHtXIDzsYEu6hD9w","sourceTagId":76963559,"sourceTagName":"爱马仕/女包","rawTitle":"猪鼻子包🐷 Roulis  19cm 图片  现货 Evercolor皮拼帆布H✔ 进口蜜蜡线✔全钢五金配件✔低调~好装~方便~ 简约百搭款 可斜挎背 ~手拿~单肩背~"},"price":null,"currency":"CNY","moq":1,"category":"hermes-women-bags","status":"active","alibaba_url":null,"images":["https://xcimg.szwego.com/20221103/a1667439565670_2504.jpg","https://xcimg.szwego.com/20221103/a1667439565877_6565.jpg","https://xcimg.szwego.com/20221103/a1667439566054_2287.jpg","https://xcimg.szwego.com/20221103/a1667439566534_5722.jpg","https://xcimg.szwego.com/20221103/a1667439566535_6822.jpg","https://xcimg.szwego.com/20221103/a1667439566784_1463.jpg","https://xcimg.szwego.com/20221103/a1667439566980_1272.jpg","https://xcimg.szwego.com/20221103/a1667439567174_8737.jpg","https://xcimg.szwego.com/20221103/a1667439567702_8644.jpg"],"created_at":"2024-10-22T05:00:12.210Z"},{"id":"item-d48a4d723ca7","sku":"_dfIfI8X1SdVmtnOPHQ2-QtRkylQNcV2vtZnEzOg","name_en":"猪鼻子包🐷 Roulis  19cm 图片  现货 Evercolor皮拼帆布H✔ 进口蜜蜡线✔全钢五金配件✔低调~好装~方便~ 简约百搭款 可斜挎背 ~手拿~单肩背~","name_cn":"猪鼻子包🐷 Roulis  19cm 图片  现货 Evercolor皮拼帆布H✔ 进口蜜蜡线✔全钢五金配件✔低调~好装~方便~ 简约百搭款 可斜挎背 ~手拿~单肩背~","specs":{"source":"wsxcme","sourceId":"_dfIfI8X1SdVmtnOPHQ2-QtRkylQNcV2vtZnEzOg","sourceTagId":76963559,"sourceTagName":"爱马仕/女包","rawTitle":"猪鼻子包🐷 Roulis  19cm 图片  现货 Evercolor皮拼帆布H✔ 进口蜜蜡线✔全钢五金配件✔低调~好装~方便~ 简约百搭款 可斜挎背 ~手拿~单肩背~"},"price":null,"currency":"CNY","moq":1,"category":"hermes-women-bags","status":"active","alibaba_url":null,"images":["https://xcimg.szwego.com/20221103/a1667439476352_6438.jpg","https://xcimg.szwego.com/20221103/a1667439476566_5462.jpg","https://xcimg.szwego.com/20221103/a1667439476966_2718.jpg","https://xcimg.szwego.com/20221103/a1667439476967_5860.jpg","https://xcimg.szwego.com/20221103/a1667439477107_3415.jpg","https://xcimg.szwego.com/20221103/a1667439477453_5468.jpg","https://xcimg.szwego.com/20221103/a1667439477637_3273.jpg","https://xcimg.szwego.com/20221103/a1667439477843_8002.jpg","https://xcimg.szwego.com/20221103/a1667439478271_5110.jpg"],"created_at":"2024-10-22T05:00:12.209Z"},{"id":"item-3aeefcb9c930","sku":"_dRfRfTA7u1dTOLwWc-FHzTMVc6FrBYdFAzW7C5w","name_en":"kl25 colormatic","name_cn":"kl25 colormatic\n传统的kl背太多啦❗️需要给穿搭上添点新的花样了🤔️别小看它咯!背面还有一个小侧袋,小包包里有大乾坤☯️,放passport,美容卡,小卡包也是不错的呢😝","specs":{"source":"wsxcme","sourceId":"_dRfRfTA7u1dTOLwWc-FHzTMVc6FrBYdFAzW7C5w","sourceTagId":76963559,"sourceTagName":"爱马仕/女包","rawTitle":"kl25 colormatic\n传统的kl背太多啦❗️需要给穿搭上添点新的花样了🤔️别小看它咯!背面还有一个小侧袋,小包包里有大乾坤☯️,放passport,美容卡,小卡包也是不错的呢😝"},"price":null,"currency":"CNY","moq":1,"category":"hermes-women-bags","status":"active","alibaba_url":null,"images":["https://xcimg.szwego.com/20220914/a1663165088842_0031.jpg","https://xcimg.szwego.com/20220914/a1663165088869_5524.jpg","https://xcimg.szwego.com/20220914/a1663165088886_4276.jpg","https://xcimg.szwego.com/20220914/a1663165088894_6212.jpg","https://xcimg.szwego.com/20220914/a1663165088900_6084.jpg","https://xcimg.szwego.com/20220914/a1663165088906_4070.jpg"],"created_at":"2024-10-22T05:00:12.208Z"},{"id":"item-e14d51a9f8bb","sku":"_dChChSVK1TwlZAwOZFKKkeZVgV6YMp5Wreu-MWQ","name_en":"kl25 colormatic","name_cn":"kl25 colormatic\n传统的kl背太多啦❗️需要给穿搭上添点新的花样了🤔️别小看它咯!背面还有一个小侧袋,小包包里有大乾坤☯️,放passport,美容卡,小卡包也是不错的呢😝","specs":{"source":"wsxcme","sourceId":"_dChChSVK1TwlZAwOZFKKkeZVgV6YMp5Wreu-MWQ","sourceTagId":76963559,"sourceTagName":"爱马仕/女包","rawTitle":"kl25 colormatic\n传统的kl背太多啦❗️需要给穿搭上添点新的花样了🤔️别小看它咯!背面还有一个小侧袋,小包包里有大乾坤☯️,放passport,美容卡,小卡包也是不错的呢😝"},"price":null,"currency":"CNY","moq":1,"category":"hermes-women-bags","status":"active","alibaba_url":null,"images":["https://xcimg.szwego.com/20220914/a1663165049465_5730.jpg","https://xcimg.szwego.com/20220914/a1663165049477_0847.jpg","https://xcimg.szwego.com/20220914/a1663165049554_7430.jpg","https://xcimg.szwego.com/20220914/a1663165049598_8678.jpg","https://xcimg.szwego.com/20220914/a1663165049603_2780.jpg","https://xcimg.szwego.com/20220914/a1663165049644_2587.jpg"],"created_at":"2024-10-22T05:00:12.207Z"},{"id":"item-7b278f1901e8","sku":"_dnpnpljaHJpnPI56KFBaLgh3wTRUKqMh_EPHKCA","name_en":"kl25 colormatic","name_cn":"kl25 colormatic\n传统的kl背太多啦❗️需要给穿搭上添点新的花样了🤔️别小看它咯!背面还有一个小侧袋,小包包里有大乾坤☯️,放passport,美容卡,小卡包也是不错的呢😝","specs":{"source":"wsxcme","sourceId":"_dnpnpljaHJpnPI56KFBaLgh3wTRUKqMh_EPHKCA","sourceTagId":76963559,"sourceTagName":"爱马仕/女包","rawTitle":"kl25 colormatic\n传统的kl背太多啦❗️需要给穿搭上添点新的花样了🤔️别小看它咯!背面还有一个小侧袋,小包包里有大乾坤☯️,放passport,美容卡,小卡包也是不错的呢😝"},"price":null,"currency":"CNY","moq":1,"category":"hermes-women-bags","status":"active","alibaba_url":null,"images":["https://xcimg.szwego.com/20220914/a1663164972784_8776.jpg","https://xcimg.szwego.com/20220914/a1663164972796_8515.jpg","https://xcimg.szwego.com/20220914/a1663164972803_6084.jpg","https://xcimg.szwego.com/20220914/a1663164972815_8610.jpg","https://xcimg.szwego.com/20220914/a1663164972869_6712.jpg","https://xcimg.szwego.com/20220914/a1663164972936_0647.jpg"],"created_at":"2024-10-22T05:00:12.206Z"},{"id":"item-eaad1a6a73d0","sku":"_dvsvsG-vKABcYSyI2jrXotgzhdtxuR_hQjccD3g","name_en":"picotin 菜篮子","name_cn":"picotin 菜篮子\n颜色:阿尔法米色、金扣\n进口tc头层牛皮\n半手工缝制收口\n蜜蜡线缝制\n尺寸:18cm","specs":{"source":"wsxcme","sourceId":"_dvsvsG-vKABcYSyI2jrXotgzhdtxuR_hQjccD3g","sourceTagId":76963559,"sourceTagName":"爱马仕/女包","rawTitle":"picotin 菜篮子\n颜色:阿尔法米色、金扣\n进口tc头层牛皮\n半手工缝制收口\n蜜蜡线缝制\n尺寸:18cm"},"price":null,"currency":"CNY","moq":1,"category":"hermes-women-bags","status":"active","alibaba_url":null,"images":["https://xcimg.szwego.com/img/88b306c4/20240902/a1725208441508_1136.jpg","https://xcimg.szwego.com/img/88b306c4/20240902/a1725208441486_5881.jpg","https://xcimg.szwego.com/img/88b306c4/20240902/a1725208441454_4401.jpg","https://xcimg.szwego.com/img/88b306c4/20240902/a1725208441451_7508.jpg","https://xcimg.szwego.com/img/88b306c4/20240902/a1725208441700_1712.jpg","https://xcimg.szwego.com/img/88b306c4/20240902/a1725208441652_6634.jpg","https://xcimg.szwego.com/img/88b306c4/20240902/a1725208443174_1158.jpg","https://xcimg.szwego.com/img/88b306c4/20240902/a1725208443133_0867.jpg","https://xcimg.szwego.com/img/88b306c4/20240902/a1725208443354_4537.jpg"],"created_at":"2024-10-22T05:00:12.205Z"},{"id":"item-00a37192c66c","sku":"_doMoMnwbbhj6_giRynJtwWBlKJsrfMcC6ASLdDw","name_en":"picotin 菜篮子","name_cn":"picotin 菜篮子\n颜色:阿尔法米色、银扣\n进口tc头层牛皮\n半手工缝制收口\n蜜蜡线缝制\n尺寸:18cm","specs":{"source":"wsxcme","sourceId":"_doMoMnwbbhj6_giRynJtwWBlKJsrfMcC6ASLdDw","sourceTagId":76963559,"sourceTagName":"爱马仕/女包","rawTitle":"picotin 菜篮子\n颜色:阿尔法米色、银扣\n进口tc头层牛皮\n半手工缝制收口\n蜜蜡线缝制\n尺寸:18cm"},"price":null,"currency":"CNY","moq":1,"category":"hermes-women-bags","status":"active","alibaba_url":null,"images":["https://xcimg.szwego.com/img/88b306c4/20240902/a1725208298232_5764.jpg","https://xcimg.szwego.com/img/88b306c4/20240902/a1725208298067_1721.jpg","https://xcimg.szwego.com/img/88b306c4/20240902/a1725208298009_7477.jpg","https://xcimg.szwego.com/img/88b306c4/20240902/a1725208298454_1871.jpg","https://xcimg.szwego.com/img/88b306c4/20240902/a1725208298390_5487.jpg","https://xcimg.szwego.com/img/88b306c4/20240902/a1725208298221_4687.jpg","https://xcimg.szwego.com/img/88b306c4/20240902/a1725208299817_1868.jpg","https://xcimg.szwego.com/img/88b306c4/20240902/a1725208299724_3658.jpg","https://xcimg.szwego.com/img/88b306c4/20240902/a1725208299817_4431.jpg"],"created_at":"2024-10-22T05:00:12.204Z"},{"id":"item-c55cdfbf3593","sku":"_d_k_krJYlD1ZMujMnxakwA1qcIno2yuSNUJXJhw","name_en":"picotin 菜篮子","name_cn":"picotin 菜篮子\n颜色:奶昔粉、金扣\n进口tc头层牛皮\n半手工缝制收口\n蜜蜡线缝制\n尺寸:18cm","specs":{"source":"wsxcme","sourceId":"_d_k_krJYlD1ZMujMnxakwA1qcIno2yuSNUJXJhw","sourceTagId":76963559,"sourceTagName":"爱马仕/女包","rawTitle":"picotin 菜篮子\n颜色:奶昔粉、金扣\n进口tc头层牛皮\n半手工缝制收口\n蜜蜡线缝制\n尺寸:18cm"},"price":null,"currency":"CNY","moq":1,"category":"hermes-women-bags","status":"active","alibaba_url":null,"images":["https://xcimg.szwego.com/img/88b306c4/20240902/a1725207519885_4618.jpg","https://xcimg.szwego.com/img/88b306c4/20240902/a1725207519841_4033.jpg","https://xcimg.szwego.com/img/88b306c4/20240902/a1725207519831_8577.jpg","https://xcimg.szwego.com/img/88b306c4/20240902/a1725207519500_8857.jpg","https://xcimg.szwego.com/img/88b306c4/20240902/a1725207520072_6032.jpg","https://xcimg.szwego.com/img/88b306c4/20240902/a1725207519844_2755.jpg","https://xcimg.szwego.com/img/88b306c4/20240902/a1725207521134_1687.jpg","https://xcimg.szwego.com/img/88b306c4/20240902/a1725207521090_0611.jpg","https://xcimg.szwego.com/img/88b306c4/20240902/a1725207521189_2242.jpg"],"created_at":"2024-10-22T05:00:12.203Z"},{"id":"item-2c0ea4e746d1","sku":"_dtitiEx7gokE6pxUHpp3WR_y5kp1gCXJIuh8Fgw","name_en":"picotin 菜篮子","name_cn":"picotin 菜篮子\n颜色:奶昔粉、银扣\n进口tc头层牛皮\n半手工缝制收口\n蜜蜡线缝制\n尺寸:18cm","specs":{"source":"wsxcme","sourceId":"_dtitiEx7gokE6pxUHpp3WR_y5kp1gCXJIuh8Fgw","sourceTagId":76963559,"sourceTagName":"爱马仕/女包","rawTitle":"picotin 菜篮子\n颜色:奶昔粉、银扣\n进口tc头层牛皮\n半手工缝制收口\n蜜蜡线缝制\n尺寸:18cm"},"price":null,"currency":"CNY","moq":1,"category":"hermes-women-bags","status":"active","alibaba_url":null,"images":["https://xcimg.szwego.com/img/88b306c4/20240902/a1725207354118_1330.jpg","https://xcimg.szwego.com/img/88b306c4/20240902/a1725207354129_0234.jpg","https://xcimg.szwego.com/img/88b306c4/20240902/a1725207354481_1121.jpg","https://xcimg.szwego.com/img/88b306c4/20240902/a1725207354207_6332.jpg","https://xcimg.szwego.com/img/88b306c4/20240902/a1725207354227_5451.jpg","https://xcimg.szwego.com/img/88b306c4/20240902/a1725207354410_4564.jpg","https://xcimg.szwego.com/img/88b306c4/20240902/a1725207355564_8150.jpg","https://xcimg.szwego.com/img/88b306c4/20240902/a1725207355712_5480.jpg","https://xcimg.szwego.com/img/88b306c4/20240902/a1725207355588_0807.jpg"],"created_at":"2024-10-22T05:00:12.202Z"},{"id":"item-0e6f604f491a","sku":"_dxxxxbRBTvDy4t2UqPr-NqL92AEsUa1tsI0epFA","name_en":"picotin 菜篮子","name_cn":"picotin 菜篮子\n颜色:橙色、金扣\n进口tc头层牛皮\n半手工缝制收口\n蜜蜡线缝制\n尺寸:18cm","specs":{"source":"wsxcme","sourceId":"_dxxxxbRBTvDy4t2UqPr-NqL92AEsUa1tsI0epFA","sourceTagId":76963559,"sourceTagName":"爱马仕/女包","rawTitle":"picotin 菜篮子\n颜色:橙色、金扣\n进口tc头层牛皮\n半手工缝制收口\n蜜蜡线缝制\n尺寸:18cm"},"price":null,"currency":"CNY","moq":1,"category":"hermes-women-bags","status":"active","alibaba_url":null,"images":["https://xcimg.szwego.com/img/88b306c4/20240902/a1725206894722_3022.jpg","https://xcimg.szwego.com/img/88b306c4/20240902/a1725206894315_8441.jpg","https://xcimg.szwego.com/img/88b306c4/20240902/a1725206894360_3575.jpg","https://xcimg.szwego.com/img/88b306c4/20240902/a1725206894611_5571.jpg","https://xcimg.szwego.com/img/88b306c4/20240902/a1725206894367_6407.jpg","https://xcimg.szwego.com/img/88b306c4/20240902/a1725206894721_2316.jpg","https://xcimg.szwego.com/img/88b306c4/20240902/a1725206895947_3723.jpg","https://xcimg.szwego.com/img/88b306c4/20240902/a1725206895929_8268.jpg","https://xcimg.szwego.com/img/88b306c4/20240902/a1725206896137_4762.jpg"],"created_at":"2024-10-22T05:00:12.201Z"},{"id":"item-c3eff62bfde8","sku":"_daHaHYBf6CS1DBRYtqI_4yBELN-1lMg-uTeF0HA","name_en":"picotin 菜篮子","name_cn":"picotin 菜篮子\n颜色:橙色、银扣\n进口tc头层牛皮\n半手工缝制收口\n蜜蜡线缝制\n尺寸:18cm","specs":{"source":"wsxcme","sourceId":"_daHaHYBf6CS1DBRYtqI_4yBELN-1lMg-uTeF0HA","sourceTagId":76963559,"sourceTagName":"爱马仕/女包","rawTitle":"picotin 菜篮子\n颜色:橙色、银扣\n进口tc头层牛皮\n半手工缝制收口\n蜜蜡线缝制\n尺寸:18cm"},"price":null,"currency":"CNY","moq":1,"category":"hermes-women-bags","status":"active","alibaba_url":null,"images":["https://xcimg.szwego.com/img/88b306c4/20240902/a1725206761635_8507.jpg","https://xcimg.szwego.com/img/88b306c4/20240902/a1725206761751_4224.jpg","https://xcimg.szwego.com/img/88b306c4/20240902/a1725206761620_5737.jpg","https://xcimg.szwego.com/img/88b306c4/20240902/a1725206761601_7171.jpg","https://xcimg.szwego.com/img/88b306c4/20240902/a1725206761868_0216.jpg","https://xcimg.szwego.com/img/88b306c4/20240902/a1725206761970_4334.jpg","https://xcimg.szwego.com/img/88b306c4/20240902/a1725206765571_6543.jpg","https://xcimg.szwego.com/img/88b306c4/20240902/a1725206765419_1447.jpg","https://xcimg.szwego.com/img/88b306c4/20240902/a1725206765567_4670.jpg"],"created_at":"2024-10-22T05:00:12.200Z"},{"id":"item-3640bbddc2b3","sku":"_dsjsja2NLKiclnC1gUBdTA4zFgkW87Uw4IJceCQ","name_en":"picotin 菜篮子","name_cn":"picotin 菜篮子\n颜色:亚玛兰、金扣\n进口tc头层牛皮\n半手工缝制收口\n蜜蜡线缝制\n尺寸:18cm","specs":{"source":"wsxcme","sourceId":"_dsjsja2NLKiclnC1gUBdTA4zFgkW87Uw4IJceCQ","sourceTagId":76963559,"sourceTagName":"爱马仕/女包","rawTitle":"picotin 菜篮子\n颜色:亚玛兰、金扣\n进口tc头层牛皮\n半手工缝制收口\n蜜蜡线缝制\n尺寸:18cm"},"price":null,"currency":"CNY","moq":1,"category":"hermes-women-bags","status":"active","alibaba_url":null,"images":["https://xcimg.szwego.com/img/88b306c4/20240902/a1725206590738_4338.jpg","https://xcimg.szwego.com/img/88b306c4/20240902/a1725206590730_1538.jpg","https://xcimg.szwego.com/img/88b306c4/20240902/a1725206590614_8037.jpg","https://xcimg.szwego.com/img/88b306c4/20240902/a1725206590510_5825.jpg","https://xcimg.szwego.com/img/88b306c4/20240902/a1725206590464_4682.jpg","https://xcimg.szwego.com/img/88b306c4/20240902/a1725206590517_0576.jpg","https://xcimg.szwego.com/img/88b306c4/20240902/a1725206591977_7563.jpg","https://xcimg.szwego.com/img/88b306c4/20240902/a1725206591955_2713.jpg","https://xcimg.szwego.com/img/88b306c4/20240902/a1725206592039_0202.jpg"],"created_at":"2024-10-22T05:00:12.199Z"},{"id":"item-aa8fd45bf1da","sku":"_daXaXxcVzbyE9DD15cE5JcebaZ9tOt3sAKzCZZQ","name_en":"picotin 菜篮子","name_cn":"picotin 菜篮子\n颜色:亚玛兰、银扣\n进口tc头层牛皮\n半手工缝制收口\n蜜蜡线缝制\n尺寸:18cm","specs":{"source":"wsxcme","sourceId":"_daXaXxcVzbyE9DD15cE5JcebaZ9tOt3sAKzCZZQ","sourceTagId":76963559,"sourceTagName":"爱马仕/女包","rawTitle":"picotin 菜篮子\n颜色:亚玛兰、银扣\n进口tc头层牛皮\n半手工缝制收口\n蜜蜡线缝制\n尺寸:18cm"},"price":null,"currency":"CNY","moq":1,"category":"hermes-women-bags","status":"active","alibaba_url":null,"images":["https://xcimg.szwego.com/img/88b306c4/20240902/a1725206443538_4442.jpg","https://xcimg.szwego.com/img/88b306c4/20240902/a1725206443359_0686.jpg","https://xcimg.szwego.com/img/88b306c4/20240902/a1725206443450_0080.jpg","https://xcimg.szwego.com/img/88b306c4/20240902/a1725206443207_5588.jpg","https://xcimg.szwego.com/img/88b306c4/20240902/a1725206443173_1314.jpg","https://xcimg.szwego.com/img/88b306c4/20240902/a1725206443253_5116.jpg","https://xcimg.szwego.com/img/88b306c4/20240902/a1725206444851_8010.jpg","https://xcimg.szwego.com/img/88b306c4/20240902/a1725206444850_6011.jpg","https://xcimg.szwego.com/img/88b306c4/20240902/a1725206444745_0770.jpg"],"created_at":"2024-10-22T05:00:12.198Z"},{"id":"item-e3889cabecc2","sku":"_dwdwdD6T6rVTjikWNX68YXFoTLRZc0PrxfH7Xbw","name_en":"picotin 菜篮子","name_cn":"picotin 菜篮子\n颜色:3Q粉、金扣\n进口tc头层牛皮\n半手工缝制收口\n蜜蜡线缝制\n尺寸:18cm","specs":{"source":"wsxcme","sourceId":"_dwdwdD6T6rVTjikWNX68YXFoTLRZc0PrxfH7Xbw","sourceTagId":76963559,"sourceTagName":"爱马仕/女包","rawTitle":"picotin 菜篮子\n颜色:3Q粉、金扣\n进口tc头层牛皮\n半手工缝制收口\n蜜蜡线缝制\n尺寸:18cm"},"price":null,"currency":"CNY","moq":1,"category":"hermes-women-bags","status":"active","alibaba_url":null,"images":["https://xcimg.szwego.com/img/88b306c4/20240901/a1725205958066_0076.jpg","https://xcimg.szwego.com/img/88b306c4/20240901/a1725205957799_1472.jpg","https://xcimg.szwego.com/img/88b306c4/20240901/a1725205957891_7818.jpg","https://xcimg.szwego.com/img/88b306c4/20240901/a1725205957839_3503.jpg","https://xcimg.szwego.com/img/88b306c4/20240901/a1725205957861_8060.jpg","https://xcimg.szwego.com/img/88b306c4/20240901/a1725205958055_2185.jpg","https://xcimg.szwego.com/img/88b306c4/20240901/a1725205959511_2424.jpg","https://xcimg.szwego.com/img/88b306c4/20240901/a1725205959540_6012.jpg","https://xcimg.szwego.com/img/88b306c4/20240901/a1725205959527_8287.jpg"],"created_at":"2024-10-22T05:00:12.197Z"}],"page":339,"pageSize":24,"total":10075,"totalPages":420}
