{"items":[{"id":"item-04cd7802a71e","sku":"_dvnvn9vNU1ODR3CWZLKfcS5z1q1dW5FKTrmy9fQ","name_en":"『Burberry 巴宝莉』","name_cn":"『Burberry 巴宝莉』\n\n【B家顶级原单】迷你双色帆布拼皮皮革Freya意大利精制托特包,选用缉明线皮革及棉质帆布制成,装饰品牌 Horseferry 印花。可使用顶部提柄手拎,或使用可调式肩背带携带。\n尺寸:23 x 8 x19cm、2412","specs":{"source":"wsxcme","sourceId":"_dvnvn9vNU1ODR3CWZLKfcS5z1q1dW5FKTrmy9fQ","sourceTagId":80411239,"sourceTagName":"巴宝莉/女包","dimensions":{"lengthCm":23,"heightCm":8,"widthCm":19},"rawTitle":"『Burberry 巴宝莉』\n\n【B家顶级原单】迷你双色帆布拼皮皮革Freya意大利精制托特包,选用缉明线皮革及棉质帆布制成,装饰品牌 Horseferry 印花。可使用顶部提柄手拎,或使用可调式肩背带携带。\n尺寸:23 x 8 x19cm、2412"},"price":null,"currency":"CNY","moq":1,"category":"burberry-women-bags","status":"active","alibaba_url":null,"images":["https://xcimg.szwego.com/20210830/i1630331187_4343_0.jpg","https://xcimg.szwego.com/20210830/i1630331187_4941_1.jpg","https://xcimg.szwego.com/20210830/i1630331187_2685_2.jpg","https://xcimg.szwego.com/20210830/i1630331187_2492_3.jpg","https://xcimg.szwego.com/20210830/i1630331187_9264_4.jpg","https://xcimg.szwego.com/20210830/i1630331187_3841_5.jpg","https://xcimg.szwego.com/20210830/i1630331187_7454_6.jpg","https://xcimg.szwego.com/20210830/i1630331187_6043_7.jpg","https://xcimg.szwego.com/20210830/i1630331187_9710_8.jpg"],"created_at":"2025-02-08T12:43:27.881Z"},{"id":"item-d19b9683bf73","sku":"_dididyTVlKipBEVkfeVCQcGHyhGbwPLrm1GSTXA","name_en":"『Burberry 巴宝莉』","name_cn":"『Burberry 巴宝莉』\n\n【B家顶级原单】小号双色帆布拼皮皮革Freya意大利精制托特包,选用缉明线皮革及棉质帆布制成,装饰品牌 Horseferry 印花。可使用顶部提柄手拎,或肩背携带。\n尺寸:33 x 12.5 x26cm\n2422","specs":{"source":"wsxcme","sourceId":"_dididyTVlKipBEVkfeVCQcGHyhGbwPLrm1GSTXA","sourceTagId":80411239,"sourceTagName":"巴宝莉/女包","dimensions":{"lengthCm":33,"heightCm":12.5,"widthCm":26},"rawTitle":"『Burberry 巴宝莉』\n\n【B家顶级原单】小号双色帆布拼皮皮革Freya意大利精制托特包,选用缉明线皮革及棉质帆布制成,装饰品牌 Horseferry 印花。可使用顶部提柄手拎,或肩背携带。\n尺寸:33 x 12.5 x26cm\n2422"},"price":null,"currency":"CNY","moq":1,"category":"burberry-women-bags","status":"active","alibaba_url":null,"images":["https://xcimg.szwego.com/20211010/i1633835746_5509_0.jpg","https://xcimg.szwego.com/20211010/i1633835746_8010_1.jpg","https://xcimg.szwego.com/20211010/i1633835746_7688_2.jpg","https://xcimg.szwego.com/20211010/i1633835746_6168_3.jpg","https://xcimg.szwego.com/20211010/i1633835746_2473_4.jpg","https://xcimg.szwego.com/20211010/i1633835746_2252_5.jpg","https://xcimg.szwego.com/20211010/i1633835746_2708_6.jpg","https://xcimg.szwego.com/20211010/i1633835746_292_7.jpg","https://xcimg.szwego.com/20211010/i1633835746_5944_8.jpg"],"created_at":"2025-02-08T12:43:27.880Z"},{"id":"item-89e2c7274135","sku":"_dKCKCHArur4Pti4LpEzIOaM7kWW0ZMvr9dPrSgw","name_en":"『Burberry 巴宝莉』","name_cn":"『Burberry 巴宝莉』\n\n【B家顶级原单】小号双色帆布拼皮皮革Freya意大利精制托特包,选用缉明线皮革及棉质帆布制成,装饰品牌 Horseferry 印花。可使用顶部提柄手拎,或肩背携带。\n尺寸:33 x 12.5 x26cm\n2422","specs":{"source":"wsxcme","sourceId":"_dKCKCHArur4Pti4LpEzIOaM7kWW0ZMvr9dPrSgw","sourceTagId":80411239,"sourceTagName":"巴宝莉/女包","dimensions":{"lengthCm":33,"heightCm":12.5,"widthCm":26},"rawTitle":"『Burberry 巴宝莉』\n\n【B家顶级原单】小号双色帆布拼皮皮革Freya意大利精制托特包,选用缉明线皮革及棉质帆布制成,装饰品牌 Horseferry 印花。可使用顶部提柄手拎,或肩背携带。\n尺寸:33 x 12.5 x26cm\n2422"},"price":null,"currency":"CNY","moq":1,"category":"burberry-women-bags","status":"active","alibaba_url":null,"images":["https://xcimg.szwego.com/20210830/i1630331249_5189_0.jpg","https://xcimg.szwego.com/20210830/i1630331249_8918_1.jpg","https://xcimg.szwego.com/20210830/i1630331249_837_2.jpg","https://xcimg.szwego.com/20210830/i1630331249_6053_3.jpg","https://xcimg.szwego.com/20210830/i1630331249_5473_4.jpg","https://xcimg.szwego.com/20210830/i1630331249_5874_5.jpg","https://xcimg.szwego.com/20210830/i1630331249_8126_6.jpg","https://xcimg.szwego.com/20210830/i1630331249_2247_7.jpg","https://xcimg.szwego.com/20210830/i1630331249_8483_8.jpg"],"created_at":"2025-02-08T12:43:27.879Z"},{"id":"item-50bc4cc8ebf6","sku":"_duCuCMVXzCG260DCl6jFNtV8yJPbM-UqOcHlkNQ","name_en":"『Burberry 巴宝莉』","name_cn":"『Burberry 巴宝莉』\n\n🔥🔥B家精巧的斜背包,选用意大利鞣制粒纹皮革与典藏 Vintage 复古格纹裁片打造。😁😁可单肩背、斜背,或缔造手拿包造型。21 x 4.5 x 12.5cm、6601","specs":{"source":"wsxcme","sourceId":"_duCuCMVXzCG260DCl6jFNtV8yJPbM-UqOcHlkNQ","sourceTagId":80411239,"sourceTagName":"巴宝莉/女包","rawTitle":"『Burberry 巴宝莉』\n\n🔥🔥B家精巧的斜背包,选用意大利鞣制粒纹皮革与典藏 Vintage 复古格纹裁片打造。😁😁可单肩背、斜背,或缔造手拿包造型。21 x 4.5 x 12.5cm、6601"},"price":null,"currency":"CNY","moq":1,"category":"burberry-women-bags","status":"active","alibaba_url":null,"images":["https://xcimg.szwego.com/o_1f2dtmr2c1uar5075jdqfi1t1g3r.jpg","https://xcimg.szwego.com/o_1f2dtmr2c8uc1mgtleh15jl1eja3s.jpg","https://xcimg.szwego.com/o_1f2dtmr2ccmh1g8616lf2injh13t.jpg","https://xcimg.szwego.com/o_1f2dtmr2cplq158gkmu1j4gvj53u.jpg","https://xcimg.szwego.com/o_1f2dtmr2c1vod6kb18ji13pb1lff3v.jpg","https://xcimg.szwego.com/o_1f2dtmr2cl871nfajg5a211am740.jpg","https://xcimg.szwego.com/o_1f2dtmr2c1abs15dn2fq48ncj541.jpg","https://xcimg.szwego.com/o_1f2dtmr2cjtc1risicp1tlm1h4t42.jpg","https://xcimg.szwego.com/o_1f2dtmr2cjgeqbu4ti8g4196n43.jpg"],"created_at":"2025-02-08T12:43:27.878Z"},{"id":"item-c29beba97064","sku":"_dkCkCsPpf5ZSEdD6oRalgk22bRKiU4k9xoomCGw","name_en":"『Burberry 巴宝莉』","name_cn":"『Burberry 巴宝莉』\n\n🔥🔥B家精巧的斜背包,选用意大利鞣制粒纹皮革与典藏 Vintage 复古格纹裁片打造。😁😁可单肩背、斜背,或缔造手拿包造型。21 x 4.5 x 12.5cm、6601","specs":{"source":"wsxcme","sourceId":"_dkCkCsPpf5ZSEdD6oRalgk22bRKiU4k9xoomCGw","sourceTagId":80411239,"sourceTagName":"巴宝莉/女包","rawTitle":"『Burberry 巴宝莉』\n\n🔥🔥B家精巧的斜背包,选用意大利鞣制粒纹皮革与典藏 Vintage 复古格纹裁片打造。😁😁可单肩背、斜背,或缔造手拿包造型。21 x 4.5 x 12.5cm、6601"},"price":null,"currency":"CNY","moq":1,"category":"burberry-women-bags","status":"active","alibaba_url":null,"images":["https://xcimg.szwego.com/o_1f2dtkh834hkc82kenakg1d53l.jpg","https://xcimg.szwego.com/o_1f2dtkh8318ca7a21cspqek1m1em.jpg","https://xcimg.szwego.com/o_1f2dtkh83ktd10fl1g7ocmc13hhn.jpg","https://xcimg.szwego.com/o_1f2dtkh83v4n1ue11rra1aqbaf0o.jpg","https://xcimg.szwego.com/o_1f2dtkh83ugidql1l26j3hlqip.jpg","https://xcimg.szwego.com/o_1f2dtkh83op91i7r431no6o8rq.jpg","https://xcimg.szwego.com/o_1f2dtkh836msamojlm1n8t4qsr.jpg","https://xcimg.szwego.com/o_1f2dtkh8313g814jq1b2j1u4l1uf1s.jpg","https://xcimg.szwego.com/o_1f2dtkh831vnjb4v1bptf1t9eit.jpg"],"created_at":"2025-02-08T12:43:27.877Z"},{"id":"item-d20b035145b3","sku":"_dvqvq5kEJfC72H-fn8lMwwLuXm0yA1VtfGxB9Zg","name_en":"『Burberry 巴宝莉』","name_cn":"『Burberry 巴宝莉』\n\n🔥🔥B家精巧的斜背包,选用意大利鞣制粒纹皮革与典藏 Vintage 复古格纹裁片打造。😁😁可单肩背、斜背,或缔造手拿包造型。21 x 4.5 x 12.5cm、6601","specs":{"source":"wsxcme","sourceId":"_dvqvq5kEJfC72H-fn8lMwwLuXm0yA1VtfGxB9Zg","sourceTagId":80411239,"sourceTagName":"巴宝莉/女包","rawTitle":"『Burberry 巴宝莉』\n\n🔥🔥B家精巧的斜背包,选用意大利鞣制粒纹皮革与典藏 Vintage 复古格纹裁片打造。😁😁可单肩背、斜背,或缔造手拿包造型。21 x 4.5 x 12.5cm、6601"},"price":null,"currency":"CNY","moq":1,"category":"burberry-women-bags","status":"active","alibaba_url":null,"images":["https://xcimg.szwego.com/o_1f2dto4991v471mrerfu1afa10276v.jpg","https://xcimg.szwego.com/o_1f2dto4991hvc1riodg61kba14h070.jpg","https://xcimg.szwego.com/o_1f2dto499apn1gj8176arhrjb471.jpg","https://xcimg.szwego.com/o_1f2dto49914ph9kf1m251399cil72.jpg","https://xcimg.szwego.com/o_1f2dto49919n51j241ag1hr91jhk73.jpg","https://xcimg.szwego.com/o_1f2dto499rh1ukmqsu1aku1k0874.jpg","https://xcimg.szwego.com/o_1f2dto4991l23tv7i9q14nep5875.jpg","https://xcimg.szwego.com/o_1f2dto4991b6j1kaf1jh5112p110v76.jpg","https://xcimg.szwego.com/o_1f2dto4991pai1aih1pnu1m5em5d77.jpg"],"created_at":"2025-02-08T12:43:27.876Z"},{"id":"item-155526e543f6","sku":"_dztztb-9ACtWLOG0seoAAFYxyifyN1UmeFB8fAA","name_en":"『Burberry 巴宝莉』","name_cn":"『Burberry 巴宝莉』\n\n【Burberry•柏宝利】原单出品🇮🇹~~小肩包手包两用🎉👉细腻[玫瑰]柔软的进口小牛皮搭配格子面料,金色五金配件,👍专柜品质、做工精细💋实物拍摄📷,🆔🆔18696棕色,尺寸19cm*13.5cm*5cm","specs":{"source":"wsxcme","sourceId":"_dztztb-9ACtWLOG0seoAAFYxyifyN1UmeFB8fAA","sourceTagId":80411239,"sourceTagName":"巴宝莉/女包","rawTitle":"『Burberry 巴宝莉』\n\n【Burberry•柏宝利】原单出品🇮🇹~~小肩包手包两用🎉👉细腻[玫瑰]柔软的进口小牛皮搭配格子面料,金色五金配件,👍专柜品质、做工精细💋实物拍摄📷,🆔🆔18696棕色,尺寸19cm*13.5cm*5cm"},"price":null,"currency":"CNY","moq":1,"category":"burberry-women-bags","status":"active","alibaba_url":null,"images":["https://xcimg.szwego.com/1531640465_2894210061_0","https://xcimg.szwego.com/1531640465_3044033011_1","https://xcimg.szwego.com/1531640465_2313787834_2","https://xcimg.szwego.com/1531640465_1436689406_3","https://xcimg.szwego.com/1531640465_234171227_4","https://xcimg.szwego.com/1531640465_1047705546_5","https://xcimg.szwego.com/1531640465_4224895450_6","https://xcimg.szwego.com/1531640465_2040930900_7","https://xcimg.szwego.com/1531640465_392243786_8"],"created_at":"2025-02-08T12:43:27.875Z"},{"id":"item-1c35f1dd5f82","sku":"_dpopo3qVe4Nvgx33_HwAJSAPKv52UWcot42XsNw","name_en":"『Burberry 巴宝莉』","name_cn":"『Burberry 巴宝莉』\n\n【Burberry•柏宝利】原单出品🇮🇹~~小肩包手包两用🎉👉细腻[玫瑰]柔软的进口小牛皮搭配格子面料,金色五金配件,👍专柜品质、做工精细💋实物拍摄📷,🆔🆔18696尺寸19cm*13.5cm*5cm","specs":{"source":"wsxcme","sourceId":"_dpopo3qVe4Nvgx33_HwAJSAPKv52UWcot42XsNw","sourceTagId":80411239,"sourceTagName":"巴宝莉/女包","rawTitle":"『Burberry 巴宝莉』\n\n【Burberry•柏宝利】原单出品🇮🇹~~小肩包手包两用🎉👉细腻[玫瑰]柔软的进口小牛皮搭配格子面料,金色五金配件,👍专柜品质、做工精细💋实物拍摄📷,🆔🆔18696尺寸19cm*13.5cm*5cm"},"price":null,"currency":"CNY","moq":1,"category":"burberry-women-bags","status":"active","alibaba_url":null,"images":["https://xcimg.szwego.com/1541568927_1786582698_0","https://xcimg.szwego.com/1541568927_2923195328_1","https://xcimg.szwego.com/1541568927_3935868295_2","https://xcimg.szwego.com/1541568927_4068554341_3","https://xcimg.szwego.com/1541568927_1656561145_4","https://xcimg.szwego.com/1541568927_2733929829_5","https://xcimg.szwego.com/1541568927_2526842509_6","https://xcimg.szwego.com/1541568928_4134825654_7","https://xcimg.szwego.com/1541568928_541245235_8"],"created_at":"2025-02-08T12:43:27.874Z"},{"id":"item-adfb542b4c88","sku":"_dvWvWyrIVclbDRq_ql2qaGZcKqTX_Hpl0lYQlXQ","name_en":"『Burberry 巴宝莉』","name_cn":"『Burberry 巴宝莉』\n\n🔥🔥 B家时装秀款肩背包,搭配镀金配件,🤩🤩设有外插袋和拉链口袋方便拿取物品。,尺寸:26 x 5.5 x 15cm、6602","specs":{"source":"wsxcme","sourceId":"_dvWvWyrIVclbDRq_ql2qaGZcKqTX_Hpl0lYQlXQ","sourceTagId":80411239,"sourceTagName":"巴宝莉/女包","dimensions":{"lengthCm":26,"heightCm":5.5,"widthCm":15},"rawTitle":"『Burberry 巴宝莉』\n\n🔥🔥 B家时装秀款肩背包,搭配镀金配件,🤩🤩设有外插袋和拉链口袋方便拿取物品。,尺寸:26 x 5.5 x 15cm、6602"},"price":null,"currency":"CNY","moq":1,"category":"burberry-women-bags","status":"active","alibaba_url":null,"images":["https://xcimg.szwego.com/o_1f2g7rlnm1ku1o75v7c167gorn4d.jpg","https://xcimg.szwego.com/o_1f2g7rlnmmvd1eg4475cf3o14e.jpg","https://xcimg.szwego.com/o_1f2g7rlnm1dg41q5g4cb1bmd14df4f.jpg","https://xcimg.szwego.com/o_1f2g7rlnm1r8e17qp9pq1tl21npg4g.jpg","https://xcimg.szwego.com/o_1f2g7rlnm1vj317q016si14ml8mc4h.jpg","https://xcimg.szwego.com/o_1f2g7rlnmfpduh5ud81o7g1cjs4i.jpg","https://xcimg.szwego.com/o_1f2g7rlnm1qs71hjq1e6s1kri12ad4j.jpg","https://xcimg.szwego.com/o_1f2g7rlnm18gp1ae8u7r1vmr1q944k.jpg","https://xcimg.szwego.com/o_1f2g7rlnnsbpkkrve136h172i4l.jpg"],"created_at":"2025-02-08T12:43:27.873Z"},{"id":"item-60bc8b867eb3","sku":"_dmBmBDDWeZtCDan43Stwudg5AqRLrHx6H3D_iGA","name_en":"『Burberry 巴宝莉』","name_cn":"『Burberry 巴宝莉』\n\n🔥🔥 B家时装秀款肩背包,搭配镀金配件,🤩🤩设有外插袋和拉链口袋方便拿取物品。,尺寸:26 x 5.5 x 15cm、6602","specs":{"source":"wsxcme","sourceId":"_dmBmBDDWeZtCDan43Stwudg5AqRLrHx6H3D_iGA","sourceTagId":80411239,"sourceTagName":"巴宝莉/女包","dimensions":{"lengthCm":26,"heightCm":5.5,"widthCm":15},"rawTitle":"『Burberry 巴宝莉』\n\n🔥🔥 B家时装秀款肩背包,搭配镀金配件,🤩🤩设有外插袋和拉链口袋方便拿取物品。,尺寸:26 x 5.5 x 15cm、6602"},"price":null,"currency":"CNY","moq":1,"category":"burberry-women-bags","status":"active","alibaba_url":null,"images":["https://xcimg.szwego.com/o_1f2g7ontk114p70u11jhtq513r912.jpg","https://xcimg.szwego.com/o_1f2g7ontk1rpp8en1mj81cl0coh13.jpg","https://xcimg.szwego.com/o_1f2g7ontk1fqqsnhhcr86t6214.jpg","https://xcimg.szwego.com/o_1f2g7ontk1m1dfg39sodmt167515.jpg","https://xcimg.szwego.com/o_1f2g7ontk1o3i3bdood1da8rak16.jpg","https://xcimg.szwego.com/o_1f2g7ontl1n8he3migu1sda1n9m17.jpg","https://xcimg.szwego.com/o_1f2g7ontlbs9tqj1udbl4n4ch18.jpg","https://xcimg.szwego.com/o_1f2g7ontm1vp116lh78ll69019.jpg","https://xcimg.szwego.com/o_1f2g7ontm95tp7b1nl31qot1bmp1a.jpg"],"created_at":"2025-02-08T12:43:27.872Z"},{"id":"item-5dddef5d5cc1","sku":"_dp4p4tXNo7Jz-XcSR8xISbLA1CH3ge_UzK-ie0Q","name_en":"『Burberry 巴宝莉』","name_cn":"『Burberry 巴宝莉』\n\n🔥🔥B家时装秀款肩背包,采用纤巧立挺的版型设计,弧形曲线的设计🤩🤩搭配镀金配件,设有外插袋和拉链口袋方便拿取物品。型号:6602-1、尺寸:26 x 5.5 x 15cm","specs":{"source":"wsxcme","sourceId":"_dp4p4tXNo7Jz-XcSR8xISbLA1CH3ge_UzK-ie0Q","sourceTagId":80411239,"sourceTagName":"巴宝莉/女包","modelNumber":"6602-1、尺寸:26 x 5.5 x 15cm","dimensions":{"lengthCm":26,"heightCm":5.5,"widthCm":15},"rawTitle":"『Burberry 巴宝莉』\n\n🔥🔥B家时装秀款肩背包,采用纤巧立挺的版型设计,弧形曲线的设计🤩🤩搭配镀金配件,设有外插袋和拉链口袋方便拿取物品。型号:6602-1、尺寸:26 x 5.5 x 15cm"},"price":null,"currency":"CNY","moq":1,"category":"burberry-women-bags","status":"active","alibaba_url":null,"images":["https://xcimg.szwego.com/o_1f5aike17sk81aq1lj016lh80046.jpg","https://xcimg.szwego.com/o_1f5aike176mn2a2aj5mkm1bvj47.jpg","https://xcimg.szwego.com/o_1f5aike171pv6jr91h7p10sqkm948.jpg","https://xcimg.szwego.com/o_1f5aike171g79j0a1lpesk1l0649.jpg","https://xcimg.szwego.com/o_1f5aike1717ce1b051qq31pa5kel4a.jpg","https://xcimg.szwego.com/o_1f5aike177vp1sjrg0sacaopo4b.jpg","https://xcimg.szwego.com/o_1f5aike17s4c1dcihulnfl1doe4c.jpg","https://xcimg.szwego.com/o_1f5aike17i1idj87kq13jf16ve4d.jpg","https://xcimg.szwego.com/o_1f5aike171cb71n571dms1kkr14mg4e.jpg"],"created_at":"2025-02-08T12:43:27.871Z"},{"id":"item-b80bc87be240","sku":"_doKoKhYDf8GxEtl465fUoApA-_elCcB8v1k2jSw","name_en":"『Burberry 巴宝莉』","name_cn":"『Burberry 巴宝莉』\n\n🔥🔥 B家时装秀款肩背包,搭配镀金配件,🤩🤩设有外插袋和拉链口袋方便拿取物品。,尺寸:26 x 5.5 x 15cm、6602","specs":{"source":"wsxcme","sourceId":"_doKoKhYDf8GxEtl465fUoApA-_elCcB8v1k2jSw","sourceTagId":80411239,"sourceTagName":"巴宝莉/女包","dimensions":{"lengthCm":26,"heightCm":5.5,"widthCm":15},"rawTitle":"『Burberry 巴宝莉』\n\n🔥🔥 B家时装秀款肩背包,搭配镀金配件,🤩🤩设有外插袋和拉链口袋方便拿取物品。,尺寸:26 x 5.5 x 15cm、6602"},"price":null,"currency":"CNY","moq":1,"category":"burberry-women-bags","status":"active","alibaba_url":null,"images":["https://xcimg.szwego.com/o_1f9j7kljf135crkr7m3rep65f23.jpg","https://xcimg.szwego.com/o_1f9j7kljf1d5p1ceoksg1f4jqp424.jpg","https://xcimg.szwego.com/o_1f9j7kljg7io17b51of71095g725.jpg","https://xcimg.szwego.com/o_1f9j7kljg1k2c17es1171q9d17ks26.jpg","https://xcimg.szwego.com/o_1f9j7kljg1kuc973rj51ech1fe427.jpg","https://xcimg.szwego.com/o_1f9j7kljg10l69d31693e8s1bh828.jpg","https://xcimg.szwego.com/o_1f9j7kljgkgvkrb136h1mn46fu29.jpg","https://xcimg.szwego.com/o_1f9j7kljge341nl31utb23b1krl2a.jpg","https://xcimg.szwego.com/o_1f9j7kljg2tc1ap617m5138ss092b.jpg"],"created_at":"2025-02-08T12:43:27.870Z"},{"id":"item-0f015943e6b8","sku":"_di5i5jwM99wsLfOIsh9UCqg24cBXQlvUwT_-ajw","name_en":"『Burberry 巴宝莉』","name_cn":"『Burberry 巴宝莉』\n\n🔥🔥巴宝莉经典的腋下麻将包,😀现在是火爆的中古店最受欢迎的款式,众多博主,达人都在找寻它的踪迹,不惜买个做旧的几千块钱拿回去,也觉得超值,肩带可以调节,手拿,腋下包两用,再灵活点的姑娘,加一根链条就是斜挎包可谓无所不能的一款经典了!尺寸:21/5/14cm、1816","specs":{"source":"wsxcme","sourceId":"_di5i5jwM99wsLfOIsh9UCqg24cBXQlvUwT_-ajw","sourceTagId":80411239,"sourceTagName":"巴宝莉/女包","rawTitle":"『Burberry 巴宝莉』\n\n🔥🔥巴宝莉经典的腋下麻将包,😀现在是火爆的中古店最受欢迎的款式,众多博主,达人都在找寻它的踪迹,不惜买个做旧的几千块钱拿回去,也觉得超值,肩带可以调节,手拿,腋下包两用,再灵活点的姑娘,加一根链条就是斜挎包可谓无所不能的一款经典了!尺寸:21/5/14cm、1816"},"price":null,"currency":"CNY","moq":1,"category":"burberry-women-bags","status":"active","alibaba_url":null,"images":["https://xcimg.szwego.com/20201013/i1602569464_4316_0.jpg","https://xcimg.szwego.com/20201013/i1602569464_3400_1.jpg","https://xcimg.szwego.com/20201013/i1602569464_9868_2.jpg","https://xcimg.szwego.com/20201013/i1602569464_1296_3.jpg","https://xcimg.szwego.com/20201013/i1602569464_2284_4.jpg","https://xcimg.szwego.com/20201013/i1602569464_500_5.jpg","https://xcimg.szwego.com/20201013/i1602569464_4104_6.jpg","https://xcimg.szwego.com/20201013/i1602569464_7448_7.jpg","https://xcimg.szwego.com/20201013/i1602569464_7074_8.jpg"],"created_at":"2025-02-08T12:43:27.869Z"},{"id":"item-9c86e4215093","sku":"_d_z_zqVmz4WJJ7o67gSQdMaU77U95BCNfxvzjlQ","name_en":"『Burberry 巴宝莉』","name_cn":"『Burberry 巴宝莉』\n\n🔥🔥B家最新款收纳袋,🥰精选 Vintage 复古格纹棉质拼皮革材料,可肩背,或卸下背带随心缔造手拿包造型。21 x 4 x 12.2 cm、6801","specs":{"source":"wsxcme","sourceId":"_d_z_zqVmz4WJJ7o67gSQdMaU77U95BCNfxvzjlQ","sourceTagId":80411239,"sourceTagName":"巴宝莉/女包","rawTitle":"『Burberry 巴宝莉』\n\n🔥🔥B家最新款收纳袋,🥰精选 Vintage 复古格纹棉质拼皮革材料,可肩背,或卸下背带随心缔造手拿包造型。21 x 4 x 12.2 cm、6801"},"price":null,"currency":"CNY","moq":1,"category":"burberry-women-bags","status":"active","alibaba_url":null,"images":["https://xcimg.szwego.com/o_1f447kkkg1pvql4e1ugdvg116mn11.jpg","https://xcimg.szwego.com/o_1f447kkkg1oh612in1t5nmgn1udp12.jpg","https://xcimg.szwego.com/o_1f447kkkg10hbqdq1cds1sv57aj13.jpg","https://xcimg.szwego.com/o_1f447kkkg1v41ulh1qi3te31duq14.jpg","https://xcimg.szwego.com/o_1f447kkkh1i2u1nv36741qrdrr315.jpg","https://xcimg.szwego.com/o_1f447kkkh1p8p1chs3n714l51v6u16.jpg","https://xcimg.szwego.com/o_1f447kkkh1ai613uqa231da4b7q17.jpg","https://xcimg.szwego.com/o_1f447kkkh1eno12rog0hjdi18su18.jpg"],"created_at":"2025-02-08T12:43:27.868Z"},{"id":"item-93cf43bf221c","sku":"_dIvIvnGcH6kNp0EqLog3avTtnYEfFVKxEMt2QaQ","name_en":"『Burberry 巴宝莉』","name_cn":"『Burberry 巴宝莉』\n\n🔥🔥B家最经典中古vintage法棍腋下包,肩背或手提怎么搭配都洋气,包身很轻,内里一个拉链口袋,收纳方便,😆容量足 经典必入,洋气百搭,可休闲可职业,优雅与魅力,自带高级感!尺寸26-7-16!、2152","specs":{"source":"wsxcme","sourceId":"_dIvIvnGcH6kNp0EqLog3avTtnYEfFVKxEMt2QaQ","sourceTagId":80411239,"sourceTagName":"巴宝莉/女包","rawTitle":"『Burberry 巴宝莉』\n\n🔥🔥B家最经典中古vintage法棍腋下包,肩背或手提怎么搭配都洋气,包身很轻,内里一个拉链口袋,收纳方便,😆容量足 经典必入,洋气百搭,可休闲可职业,优雅与魅力,自带高级感!尺寸26-7-16!、2152"},"price":null,"currency":"CNY","moq":1,"category":"burberry-women-bags","status":"active","alibaba_url":null,"images":["https://xcimg.szwego.com/20201227/a1609076423133_8278.jpg","https://xcimg.szwego.com/20201227/a1609076423228_7023.jpg","https://xcimg.szwego.com/20201227/a1609076423326_6728.jpg","https://xcimg.szwego.com/20201227/a1609076423426_2564.jpg","https://xcimg.szwego.com/20201227/a1609076423526_7541.jpg","https://xcimg.szwego.com/20201227/a1609076423635_3188.jpg","https://xcimg.szwego.com/20201227/a1609076423727_8758.jpg","https://xcimg.szwego.com/20201227/a1609076423843_6660.jpg","https://xcimg.szwego.com/20201227/a1609076423952_7312.jpg"],"created_at":"2025-02-08T12:43:27.867Z"},{"id":"item-a16cfa8393d2","sku":"_dgtgt5GVWiEg7Yvpep-URhTA8cMatiuJWALmcLw","name_en":"『Burberry 巴宝莉』","name_cn":"『Burberry 巴宝莉』\n\n🔥 🔥Vintage 格纹拼皮革钱夹,随附链饰皮革肩背带。本品可作为小型手袋单独使用,或作为钱夹收置于日常手袋内。👍专柜品质、做工精细💋实物拍摄📷,8687黑色/布纹格,尺寸21cm*12cm*3cm  !","specs":{"source":"wsxcme","sourceId":"_dgtgt5GVWiEg7Yvpep-URhTA8cMatiuJWALmcLw","sourceTagId":80411239,"sourceTagName":"巴宝莉/女包","rawTitle":"『Burberry 巴宝莉』\n\n🔥 🔥Vintage 格纹拼皮革钱夹,随附链饰皮革肩背带。本品可作为小型手袋单独使用,或作为钱夹收置于日常手袋内。👍专柜品质、做工精细💋实物拍摄📷,8687黑色/布纹格,尺寸21cm*12cm*3cm  !"},"price":null,"currency":"CNY","moq":1,"category":"burberry-women-bags","status":"active","alibaba_url":null,"images":["https://xcimg.szwego.com/20200412/a1586668320746_1345.jpg","https://xcimg.szwego.com/20200412/a1586668321206_6705.jpg","https://xcimg.szwego.com/20200412/a1586668321627_3443.jpg","https://xcimg.szwego.com/20200412/a1586668322089_8826.jpg","https://xcimg.szwego.com/20200412/a1586668322441_3856.jpg","https://xcimg.szwego.com/20200412/a1586668322770_8221.jpg","https://xcimg.szwego.com/20200412/a1586668323170_3603.jpg","https://xcimg.szwego.com/20200412/a1586668323533_4272.jpg","https://xcimg.szwego.com/20200412/a1586668323888_4815.jpg"],"created_at":"2025-02-08T12:43:27.866Z"},{"id":"item-083aa143411b","sku":"_d6d6ddEV7f9y5qM16yGhhVN0nx5fEN5tolZDFLQ","name_en":"『Burberry 巴宝莉』","name_cn":"『Burberry 巴宝莉』\n\n🔥 🔥Vintage 格纹拼皮革钱夹,随附链饰皮革肩背带。本品可作为小型手袋单独使用,或作为钱夹收置于日常手袋内。👍专柜品质、做工精细💋实物拍摄📷,8687丅B花格,尺寸21cm*12cm*3cm  !","specs":{"source":"wsxcme","sourceId":"_d6d6ddEV7f9y5qM16yGhhVN0nx5fEN5tolZDFLQ","sourceTagId":80411239,"sourceTagName":"巴宝莉/女包","rawTitle":"『Burberry 巴宝莉』\n\n🔥 🔥Vintage 格纹拼皮革钱夹,随附链饰皮革肩背带。本品可作为小型手袋单独使用,或作为钱夹收置于日常手袋内。👍专柜品质、做工精细💋实物拍摄📷,8687丅B花格,尺寸21cm*12cm*3cm  !"},"price":null,"currency":"CNY","moq":1,"category":"burberry-women-bags","status":"active","alibaba_url":null,"images":["https://xcimg.szwego.com/20200412/a1586668424206_5876.jpg","https://xcimg.szwego.com/20200412/a1586668424749_6013.jpg","https://xcimg.szwego.com/20200412/a1586668425139_6007.jpg","https://xcimg.szwego.com/20200412/a1586668425522_1805.jpg","https://xcimg.szwego.com/20200412/a1586668425881_6773.jpg","https://xcimg.szwego.com/20200412/a1586668426211_1513.jpg","https://xcimg.szwego.com/20200412/a1586668426647_7688.jpg","https://xcimg.szwego.com/20200412/a1586668427114_5256.jpg","https://xcimg.szwego.com/20200412/a1586668427677_5713.jpg"],"created_at":"2025-02-08T12:43:27.865Z"},{"id":"item-45fcf307133e","sku":"_dxExE30EgXbrRsegRMMTqcQmo-ogBr5rKMDiasQ","name_en":"『Burberry 巴宝莉』","name_cn":"『Burberry 巴宝莉』\n\n🔥🔥B家格子料皮革钱夹,随附链饰皮革肩背带。本品可作为小型手袋单独使用,或作为钱夹收置于日常手袋内。👍专柜品质、做工精细💋实物拍摄📷,🆔🆔40609791黑色!尺寸21cm*12cm*3cm","specs":{"source":"wsxcme","sourceId":"_dxExE30EgXbrRsegRMMTqcQmo-ogBr5rKMDiasQ","sourceTagId":80411239,"sourceTagName":"巴宝莉/女包","rawTitle":"『Burberry 巴宝莉』\n\n🔥🔥B家格子料皮革钱夹,随附链饰皮革肩背带。本品可作为小型手袋单独使用,或作为钱夹收置于日常手袋内。👍专柜品质、做工精细💋实物拍摄📷,🆔🆔40609791黑色!尺寸21cm*12cm*3cm"},"price":null,"currency":"CNY","moq":1,"category":"burberry-women-bags","status":"active","alibaba_url":null,"images":["https://xcimg.szwego.com/1568531209_2919131754_0","https://xcimg.szwego.com/1568531209_3547894853_1","https://xcimg.szwego.com/1568531209_2462711139_2","https://xcimg.szwego.com/1568531209_33927642_3","https://xcimg.szwego.com/1568531209_1840288946_4","https://xcimg.szwego.com/1568531209_3026296213_5","https://xcimg.szwego.com/1568531209_3452791127_6","https://xcimg.szwego.com/1568531209_864003675_7"],"created_at":"2025-02-08T12:43:27.864Z"},{"id":"item-f7a48d6254c9","sku":"_dmmmmYqIJYsyUCKZs8gYRp1KETMrfTdtlnQamXg","name_en":"『Burberry 巴宝莉』","name_cn":"『Burberry 巴宝莉』\n\n🔥🔥B家格子料皮革钱夹,随附链饰皮革肩背带。本品可作为小型手袋单独使用,或作为钱夹收置于日常手袋内。👍专柜品质、做工精细💋实物拍摄📷,🆔🆔40609791杏色、尺寸21cm*12cm*3cm","specs":{"source":"wsxcme","sourceId":"_dmmmmYqIJYsyUCKZs8gYRp1KETMrfTdtlnQamXg","sourceTagId":80411239,"sourceTagName":"巴宝莉/女包","rawTitle":"『Burberry 巴宝莉』\n\n🔥🔥B家格子料皮革钱夹,随附链饰皮革肩背带。本品可作为小型手袋单独使用,或作为钱夹收置于日常手袋内。👍专柜品质、做工精细💋实物拍摄📷,🆔🆔40609791杏色、尺寸21cm*12cm*3cm"},"price":null,"currency":"CNY","moq":1,"category":"burberry-women-bags","status":"active","alibaba_url":null,"images":["https://xcimg.szwego.com/1568531158_1753620798_0","https://xcimg.szwego.com/1568531158_1826619347_1","https://xcimg.szwego.com/1568531158_196549052_2","https://xcimg.szwego.com/1568531158_2917147659_3","https://xcimg.szwego.com/1568531158_1213864715_4","https://xcimg.szwego.com/1568531158_4269067982_5","https://xcimg.szwego.com/1568531158_2509272694_6","https://xcimg.szwego.com/1568531158_1944659700_7","https://xcimg.szwego.com/1568531158_1080712022_8"],"created_at":"2025-02-08T12:43:27.863Z"},{"id":"item-fcf7ca713f80","sku":"_dgHgHx_H6XPSB2VK0bgyMS50gcM-1iMIjddMrMg","name_en":"『Burberry 巴宝莉』","name_cn":"『Burberry 巴宝莉』\n\n🔥🔥B家格子料皮革钱夹,随附链饰皮革肩背带。本品可作为小型手袋单独使用,或作为钱夹收置于日常手袋内。👍专柜品质、做工精细💋实物拍摄📷,🆔🆔40609791西瓜红色,尺寸21cm*12cm*3cm","specs":{"source":"wsxcme","sourceId":"_dgHgHx_H6XPSB2VK0bgyMS50gcM-1iMIjddMrMg","sourceTagId":80411239,"sourceTagName":"巴宝莉/女包","rawTitle":"『Burberry 巴宝莉』\n\n🔥🔥B家格子料皮革钱夹,随附链饰皮革肩背带。本品可作为小型手袋单独使用,或作为钱夹收置于日常手袋内。👍专柜品质、做工精细💋实物拍摄📷,🆔🆔40609791西瓜红色,尺寸21cm*12cm*3cm"},"price":null,"currency":"CNY","moq":1,"category":"burberry-women-bags","status":"active","alibaba_url":null,"images":["https://xcimg.szwego.com/1568531309_934095792_0","https://xcimg.szwego.com/1568531309_3714615366_1","https://xcimg.szwego.com/1568531309_2947937142_2","https://xcimg.szwego.com/1568531309_1269426674_3","https://xcimg.szwego.com/1568531309_1256171864_4","https://xcimg.szwego.com/1568531309_2837870404_5","https://xcimg.szwego.com/1568531309_4067190747_6","https://xcimg.szwego.com/1568531309_2275090239_7","https://xcimg.szwego.com/1568531309_359582732_8"],"created_at":"2025-02-08T12:43:27.862Z"},{"id":"item-f5c4be5aa7ea","sku":"_d_7_79Iw3AK3Hf5v33Engvd2kUGMwv6OsqwEiNw","name_en":"『Burberry 巴宝莉』","name_cn":"『Burberry 巴宝莉』\n\nBURBERRY🇬🇧B家专柜经典款立体挺括的班纳手袋再次出货!!🎁装饰源自品牌六十年代的 Vintage 复古格纹,点缀马术灵感皮革元素。超级百搭的一款 40598尺寸:27.5*18*12cm","specs":{"source":"wsxcme","sourceId":"_d_7_79Iw3AK3Hf5v33Engvd2kUGMwv6OsqwEiNw","sourceTagId":80411239,"sourceTagName":"巴宝莉/女包","dimensions":{"lengthCm":27.5,"heightCm":18,"widthCm":12},"rawTitle":"『Burberry 巴宝莉』\n\nBURBERRY🇬🇧B家专柜经典款立体挺括的班纳手袋再次出货!!🎁装饰源自品牌六十年代的 Vintage 复古格纹,点缀马术灵感皮革元素。超级百搭的一款 40598尺寸:27.5*18*12cm"},"price":null,"currency":"CNY","moq":1,"category":"burberry-women-bags","status":"active","alibaba_url":null,"images":["https://xcimg.szwego.com/1567262365_2017156051_0","https://xcimg.szwego.com/1567262365_876001088_1","https://xcimg.szwego.com/1567262365_242651690_2","https://xcimg.szwego.com/1567262365_1397003422_3","https://xcimg.szwego.com/1567262365_1003974496_4","https://xcimg.szwego.com/1567262365_3912341871_5","https://xcimg.szwego.com/1567262365_1012810771_6","https://xcimg.szwego.com/1567262365_2666448303_7","https://xcimg.szwego.com/1567262365_2007055716_8"],"created_at":"2025-02-08T12:43:27.861Z"},{"id":"item-6de8fe2e9523","sku":"_duwuwxL3O40PXBGUQYA7aj6URw-CK7DTWu-OYQg","name_en":"『Burberry 巴宝莉』","name_cn":"『Burberry 巴宝莉』\n\nBURBERRY🇬🇧B家专柜经典款立体挺括的班纳手袋再次出货!!🎁装饰源自品牌六十年代的 Vintage 复古格纹,点缀马术灵感皮革元素。超级百搭的一款  40598尺寸:27.5*18*12cm","specs":{"source":"wsxcme","sourceId":"_duwuwxL3O40PXBGUQYA7aj6URw-CK7DTWu-OYQg","sourceTagId":80411239,"sourceTagName":"巴宝莉/女包","dimensions":{"lengthCm":27.5,"heightCm":18,"widthCm":12},"rawTitle":"『Burberry 巴宝莉』\n\nBURBERRY🇬🇧B家专柜经典款立体挺括的班纳手袋再次出货!!🎁装饰源自品牌六十年代的 Vintage 复古格纹,点缀马术灵感皮革元素。超级百搭的一款  40598尺寸:27.5*18*12cm"},"price":null,"currency":"CNY","moq":1,"category":"burberry-women-bags","status":"active","alibaba_url":null,"images":["https://xcimg.szwego.com/1567262627_4051690478_0","https://xcimg.szwego.com/1567262627_4225226211_1","https://xcimg.szwego.com/1567262627_1856570408_2","https://xcimg.szwego.com/1567262627_3301514925_3","https://xcimg.szwego.com/1567262627_2784191751_4","https://xcimg.szwego.com/1567262627_74624319_5","https://xcimg.szwego.com/1567262627_2797387530_6","https://xcimg.szwego.com/1567262627_4098957302_7","https://xcimg.szwego.com/1567262627_394885029_8"],"created_at":"2025-02-08T12:43:27.860Z"},{"id":"item-9b4e3ef21c3b","sku":"_dzxzxOdyX_BlrtDOSjFG30Jj4HLXk89b97iQFZg","name_en":"『Burberry 巴宝莉』","name_cn":"『Burberry 巴宝莉』\n\n🔥🔥B家精巧的斜背包,设有徽标镌刻按扣。搭配可拆式背带,点缀提花精纺的品牌徽标。随心变换为肩背包或手拿包造型。25 x 8.5 x 18cm、1209","specs":{"source":"wsxcme","sourceId":"_dzxzxOdyX_BlrtDOSjFG30Jj4HLXk89b97iQFZg","sourceTagId":80411239,"sourceTagName":"巴宝莉/女包","rawTitle":"『Burberry 巴宝莉』\n\n🔥🔥B家精巧的斜背包,设有徽标镌刻按扣。搭配可拆式背带,点缀提花精纺的品牌徽标。随心变换为肩背包或手拿包造型。25 x 8.5 x 18cm、1209"},"price":null,"currency":"CNY","moq":1,"category":"burberry-women-bags","status":"active","alibaba_url":null,"images":["https://xcimg.szwego.com/20210605/i1622876126_7692_0.jpg","https://xcimg.szwego.com/20210605/i1622876126_6498_1.jpg","https://xcimg.szwego.com/20210605/i1622876126_3514_2.jpg","https://xcimg.szwego.com/20210605/i1622876126_5179_3.jpg","https://xcimg.szwego.com/20210605/i1622876126_9148_4.jpg","https://xcimg.szwego.com/20210605/i1622876126_2998_5.jpg","https://xcimg.szwego.com/20210605/i1622876126_7112_6.jpg","https://xcimg.szwego.com/20210605/i1622876126_5227_7.jpg","https://xcimg.szwego.com/20210605/i1622876126_9321_8.jpg"],"created_at":"2025-02-08T12:43:27.859Z"},{"id":"item-e480c2fb4d22","sku":"_dk3k3ZBu4OKLQ7AxYvYJHLpEHf1Mi8HVrMtBAgA","name_en":"『Burberry 巴宝莉』","name_cn":"『Burberry 巴宝莉』\n\n🔥🔥B家精巧的斜背包,设有徽标镌刻按扣。搭配可拆式背带,点缀提花精纺的品牌徽标。随心变换为肩背包或手拿包造型。25 x 8.5 x 18cm、1209","specs":{"source":"wsxcme","sourceId":"_dk3k3ZBu4OKLQ7AxYvYJHLpEHf1Mi8HVrMtBAgA","sourceTagId":80411239,"sourceTagName":"巴宝莉/女包","rawTitle":"『Burberry 巴宝莉』\n\n🔥🔥B家精巧的斜背包,设有徽标镌刻按扣。搭配可拆式背带,点缀提花精纺的品牌徽标。随心变换为肩背包或手拿包造型。25 x 8.5 x 18cm、1209"},"price":null,"currency":"CNY","moq":1,"category":"burberry-women-bags","status":"active","alibaba_url":null,"images":["https://xcimg.szwego.com/20210201/a1612164800732_3881.jpg","https://xcimg.szwego.com/20210201/a1612164801355_6003.jpg","https://xcimg.szwego.com/20210201/a1612164801488_3461.jpg","https://xcimg.szwego.com/20210201/a1612164801640_6177.jpg","https://xcimg.szwego.com/20210201/a1612164801788_5438.jpg","https://xcimg.szwego.com/20210201/a1612164801913_1112.jpg","https://xcimg.szwego.com/20210201/a1612164802054_5431.jpg","https://xcimg.szwego.com/20210201/a1612164802221_6267.jpg","https://xcimg.szwego.com/20210201/a1612164802346_5162.jpg"],"created_at":"2025-02-08T12:43:27.858Z"}],"page":200,"pageSize":24,"total":10075,"totalPages":420}
