{"items":[{"id":"item-cc944b1d1407","sku":"_dSjSjhrd05qyTHYh-VLA4xd_rmbLhl2a0bz62Ow","name_en":"Bvlgari Women Bags","name_cn":"宝格丽/女包","specs":{"source":"wsxcme","sourceId":"_dSjSjhrd05qyTHYh-VLA4xd_rmbLhl2a0bz62Ow","sourceTagId":47002756,"sourceTagName":"宝格丽/女包","rawTitle":""},"price":null,"currency":"CNY","moq":1,"category":"bvlgari-women-bags","status":"active","alibaba_url":null,"images":["https://xcimg.szwego.com/20230219/i1676791336_2727_0.jpg"],"created_at":"2024-10-07T10:58:53.583Z"},{"id":"item-3b712ae9fed9","sku":"_d0W0WQvUw1ue9TEHxuSTVHFhYKVJ450F294LCXQ","name_en":"Bvlgari Women Bags","name_cn":"随拍上身图","specs":{"source":"wsxcme","sourceId":"_d0W0WQvUw1ue9TEHxuSTVHFhYKVJ450F294LCXQ","sourceTagId":47002756,"sourceTagName":"宝格丽/女包","rawTitle":"随拍上身图"},"price":null,"currency":"CNY","moq":1,"category":"bvlgari-women-bags","status":"active","alibaba_url":null,"images":["https://xcimg.szwego.com/20230219/i1676791023_603_0.jpg","https://xcimg.szwego.com/20230219/i1676791023_9174_1.jpg","https://xcimg.szwego.com/20230219/i1676791023_953_2.jpg","https://xcimg.szwego.com/20230219/i1676791023_1589_3.jpg","https://xcimg.szwego.com/20230219/i1676791023_4233_4.jpg"],"created_at":"2024-10-07T10:58:53.582Z"},{"id":"item-57d26ae67749","sku":"_dUXUXJqNendsJ3SHWEOd4NkUt6ryXxgzjfAil5w","name_en":"细节po","name_cn":"细节po","specs":{"source":"wsxcme","sourceId":"_dUXUXJqNendsJ3SHWEOd4NkUt6ryXxgzjfAil5w","sourceTagId":47002756,"sourceTagName":"宝格丽/女包","rawTitle":"细节po"},"price":null,"currency":"CNY","moq":1,"category":"bvlgari-women-bags","status":"active","alibaba_url":null,"images":["https://xcimg.szwego.com/20230219/i1676790980_3385_0.jpg","https://xcimg.szwego.com/20230219/i1676790980_7728_1.jpg","https://xcimg.szwego.com/20230219/i1676790980_4302_2.jpg","https://xcimg.szwego.com/20230219/i1676790980_9415_3.jpg","https://xcimg.szwego.com/20230219/i1676790980_236_4.jpg","https://xcimg.szwego.com/20230219/i1676790980_5613_5.jpg"],"created_at":"2024-10-07T10:58:53.581Z"},{"id":"item-8e49d8760a75","sku":"_dP4P4Q4WVQx84f9h6RQnrNtfe16VkQcYg6DmS6w","name_en":"Bvlgari Women Bags","name_cn":"正品级\nBVLGARISERPENTIFOREVER\n型号:38102 经典白\n尺寸:22*13*5.5cm\n专柜热卖系列 Serpenti Forever 精致斜挎包 原单品质 进口胎牛皮 定制原单五金🔅点缀serpenti珐琅浅金镀金蛇首形搭扣  也可以当晚宴包用 精致如珠宝💎\"雨衣、镜子、礼盒包装","specs":{"source":"wsxcme","sourceId":"_dP4P4Q4WVQx84f9h6RQnrNtfe16VkQcYg6DmS6w","sourceTagId":47002756,"sourceTagName":"宝格丽/女包","modelNumber":"38102 经典白","dimensions":{"lengthCm":22,"heightCm":13,"widthCm":5.5},"rawTitle":"正品级\nBVLGARISERPENTIFOREVER\n型号:38102 经典白\n尺寸:22*13*5.5cm\n专柜热卖系列 Serpenti Forever 精致斜挎包 原单品质 进口胎牛皮 定制原单五金🔅点缀serpenti珐琅浅金镀金蛇首形搭扣  也可以当晚宴包用 精致如珠宝💎\"雨衣、镜子、礼盒包装"},"price":null,"currency":"CNY","moq":1,"category":"bvlgari-women-bags","status":"active","alibaba_url":null,"images":["https://xcimg.szwego.com/20230219/i1676790926_6092_0.jpg","https://xcimg.szwego.com/20230219/i1676790926_6362_1.jpg","https://xcimg.szwego.com/20230219/i1676790926_639_2.jpg","https://xcimg.szwego.com/20230219/i1676790926_1159_3.jpg","https://xcimg.szwego.com/20230219/i1676790926_7832_4.jpg","https://xcimg.szwego.com/20230219/i1676790926_762_5.jpg","https://xcimg.szwego.com/20230219/i1676790926_277_6.jpg","https://xcimg.szwego.com/20230219/i1676790926_3360_7.jpg","https://xcimg.szwego.com/20230219/i1676790926_3677_8.jpg"],"created_at":"2024-10-07T10:58:53.580Z"},{"id":"item-63abf9056043","sku":"_dEzEzeVQZOTjBxad3jLOwKZTdw3Gs8HkgBUOdag","name_en":"Bvlgari Women Bags","name_cn":"宝格丽/女包","specs":{"source":"wsxcme","sourceId":"_dEzEzeVQZOTjBxad3jLOwKZTdw3Gs8HkgBUOdag","sourceTagId":47002756,"sourceTagName":"宝格丽/女包","rawTitle":""},"price":null,"currency":"CNY","moq":1,"category":"bvlgari-women-bags","status":"active","alibaba_url":null,"images":["https://xcimg.szwego.com/20230219/i1676790869_7375_0.jpg"],"created_at":"2024-10-07T10:58:53.579Z"},{"id":"item-f7af7ea18273","sku":"_dF3F3IQhtrU2J5wO-iTrI_5noLFOT82MfKZt-NQ","name_en":"Bvlgari Women Bags","name_cn":"随拍上身图","specs":{"source":"wsxcme","sourceId":"_dF3F3IQhtrU2J5wO-iTrI_5noLFOT82MfKZt-NQ","sourceTagId":47002756,"sourceTagName":"宝格丽/女包","rawTitle":"随拍上身图"},"price":null,"currency":"CNY","moq":1,"category":"bvlgari-women-bags","status":"active","alibaba_url":null,"images":["https://xcimg.szwego.com/20230219/i1676790715_6215_0.jpg","https://xcimg.szwego.com/20230219/i1676790715_727_1.jpg","https://xcimg.szwego.com/20230219/i1676790715_403_2.jpg","https://xcimg.szwego.com/20230219/i1676790715_8902_3.jpg"],"created_at":"2024-10-07T10:58:53.578Z"},{"id":"item-fbe650e00e6a","sku":"_d8k8k2gFaRPBSWYRhl-aXYQ60mLb1saaC_ffs0A","name_en":"细节po","name_cn":"细节po","specs":{"source":"wsxcme","sourceId":"_d8k8k2gFaRPBSWYRhl-aXYQ60mLb1saaC_ffs0A","sourceTagId":47002756,"sourceTagName":"宝格丽/女包","rawTitle":"细节po"},"price":null,"currency":"CNY","moq":1,"category":"bvlgari-women-bags","status":"active","alibaba_url":null,"images":["https://xcimg.szwego.com/20230219/i1676790487_5821_0.jpg","https://xcimg.szwego.com/20230219/i1676790487_3638_1.jpg","https://xcimg.szwego.com/20230219/i1676790487_4986_2.jpg","https://xcimg.szwego.com/20230219/i1676790487_1774_3.jpg","https://xcimg.szwego.com/20230219/i1676790487_2676_4.jpg","https://xcimg.szwego.com/20230219/i1676790487_2604_5.jpg"],"created_at":"2024-10-07T10:58:53.577Z"},{"id":"item-1eda66db59db","sku":"_dpHpHh9fNxDRl5_LFVp0NpuseFJJriyM_xYm_cA","name_en":"Bvlgari Women Bags","name_cn":"正品级\nBVLGARISERPENTIFOREVER\n型号:38102 奶茶\n尺寸:22*13*5.5cm\n专柜热卖系列 Serpenti Forever 精致斜挎包 原单品质 进口胎牛皮 定制原单五金🔅点缀serpenti珐琅浅金镀金蛇首形搭扣  也可以当晚宴包用 精致如珠宝💎\"雨衣、镜子、礼盒包装","specs":{"source":"wsxcme","sourceId":"_dpHpHh9fNxDRl5_LFVp0NpuseFJJriyM_xYm_cA","sourceTagId":47002756,"sourceTagName":"宝格丽/女包","modelNumber":"38102 奶茶","dimensions":{"lengthCm":22,"heightCm":13,"widthCm":5.5},"rawTitle":"正品级\nBVLGARISERPENTIFOREVER\n型号:38102 奶茶\n尺寸:22*13*5.5cm\n专柜热卖系列 Serpenti Forever 精致斜挎包 原单品质 进口胎牛皮 定制原单五金🔅点缀serpenti珐琅浅金镀金蛇首形搭扣  也可以当晚宴包用 精致如珠宝💎\"雨衣、镜子、礼盒包装"},"price":null,"currency":"CNY","moq":1,"category":"bvlgari-women-bags","status":"active","alibaba_url":null,"images":["https://xcimg.szwego.com/20230219/i1676790425_131_0.jpg","https://xcimg.szwego.com/20230219/i1676790425_9982_1.jpg","https://xcimg.szwego.com/20230219/i1676790425_7767_2.jpg","https://xcimg.szwego.com/20230219/i1676790425_3083_3.jpg","https://xcimg.szwego.com/20230219/i1676790425_8183_4.jpg","https://xcimg.szwego.com/20230219/i1676790425_2566_5.jpg","https://xcimg.szwego.com/20230219/i1676790425_9582_6.jpg","https://xcimg.szwego.com/20230219/i1676790425_9072_7.jpg","https://xcimg.szwego.com/20230219/i1676790425_4190_8.jpg"],"created_at":"2024-10-07T10:58:53.576Z"},{"id":"item-f42c1f46dd59","sku":"_dgSgSxq1KciEKVcBZo8MKyrM6voIH8H3fUGjgIg","name_en":"Bvlgari Women Bags","name_cn":"正品级\nBVLGARISERPENTIFOREVER\n型号:38102 大红\n尺寸:22*13*5.5cm\n专柜热卖系列 Serpenti Forever 精致斜挎包 原单品质 进口胎牛皮 定制原单五金🔅点缀serpenti珐琅浅金镀金蛇首形搭扣  也可以当晚宴包用 精致如珠宝💎\"雨衣、镜子、礼盒包装","specs":{"source":"wsxcme","sourceId":"_dgSgSxq1KciEKVcBZo8MKyrM6voIH8H3fUGjgIg","sourceTagId":47002756,"sourceTagName":"宝格丽/女包","modelNumber":"38102 大红","dimensions":{"lengthCm":22,"heightCm":13,"widthCm":5.5},"rawTitle":"正品级\nBVLGARISERPENTIFOREVER\n型号:38102 大红\n尺寸:22*13*5.5cm\n专柜热卖系列 Serpenti Forever 精致斜挎包 原单品质 进口胎牛皮 定制原单五金🔅点缀serpenti珐琅浅金镀金蛇首形搭扣  也可以当晚宴包用 精致如珠宝💎\"雨衣、镜子、礼盒包装"},"price":null,"currency":"CNY","moq":1,"category":"bvlgari-women-bags","status":"active","alibaba_url":null,"images":["https://xcimg.szwego.com/20230219/i1676789749_6647_0.jpg","https://xcimg.szwego.com/20230219/i1676789749_1663_1.jpg","https://xcimg.szwego.com/20230219/i1676789749_7539_2.jpg","https://xcimg.szwego.com/20230219/i1676789749_4264_3.jpg","https://xcimg.szwego.com/20230219/i1676789749_7202_4.jpg","https://xcimg.szwego.com/20230219/i1676789749_459_5.jpg","https://xcimg.szwego.com/20230219/i1676789749_8870_6.jpg","https://xcimg.szwego.com/20230219/i1676789749_4243_7.jpg","https://xcimg.szwego.com/20230219/i1676789749_8353_8.jpg"],"created_at":"2024-10-07T10:58:53.575Z"},{"id":"item-9a07ced20614","sku":"_duGuG9-QKyQr1MibMl9Mu7R55ZH2zL4BIFzk0WA","name_en":"Bvlgari Women Bags","name_cn":"宝格丽/女包","specs":{"source":"wsxcme","sourceId":"_duGuG9-QKyQr1MibMl9Mu7R55ZH2zL4BIFzk0WA","sourceTagId":47002756,"sourceTagName":"宝格丽/女包","rawTitle":""},"price":null,"currency":"CNY","moq":1,"category":"bvlgari-women-bags","status":"active","alibaba_url":null,"images":["https://xcimg.szwego.com/20230219/i1676789598_3042_0.jpg"],"created_at":"2024-10-07T10:58:53.574Z"},{"id":"item-6fbe4ddd1ebe","sku":"_dfpfpXu7AiD15kLT3HDxqQVMejReSQ0a9MIfmGg","name_en":"Bvlgari Women Bags","name_cn":"随拍上身图","specs":{"source":"wsxcme","sourceId":"_dfpfpXu7AiD15kLT3HDxqQVMejReSQ0a9MIfmGg","sourceTagId":47002756,"sourceTagName":"宝格丽/女包","rawTitle":"随拍上身图"},"price":null,"currency":"CNY","moq":1,"category":"bvlgari-women-bags","status":"active","alibaba_url":null,"images":["https://xcimg.szwego.com/20230219/i1676789548_7865_0.jpg","https://xcimg.szwego.com/20230219/i1676789548_3612_1.jpg","https://xcimg.szwego.com/20230219/i1676789548_1162_2.jpg","https://xcimg.szwego.com/20230219/i1676789548_3431_3.jpg"],"created_at":"2024-10-07T10:58:53.573Z"},{"id":"item-831763344b81","sku":"_dDMDMYFUOkWg0UNH8BnUVm_haNmLuOhnS95cJZg","name_en":"细节po","name_cn":"细节po","specs":{"source":"wsxcme","sourceId":"_dDMDMYFUOkWg0UNH8BnUVm_haNmLuOhnS95cJZg","sourceTagId":47002756,"sourceTagName":"宝格丽/女包","rawTitle":"细节po"},"price":null,"currency":"CNY","moq":1,"category":"bvlgari-women-bags","status":"active","alibaba_url":null,"images":["https://xcimg.szwego.com/20230219/i1676789509_7262_0.jpg","https://xcimg.szwego.com/20230219/i1676789509_6640_1.jpg","https://xcimg.szwego.com/20230219/i1676789509_370_2.jpg","https://xcimg.szwego.com/20230219/i1676789509_4201_3.jpg","https://xcimg.szwego.com/20230219/i1676789509_9460_4.jpg"],"created_at":"2024-10-07T10:58:53.572Z"},{"id":"item-981094e7def3","sku":"_dYkYkp2P8Rh_KWHZc2kF3Sejs3sUjmkqS8Jse8A","name_en":"Bvlgari Women Bags","name_cn":"正品级\nBVLGARISERPENTIFOREVER\n型号:38102 白配粉\n尺寸:22*13*5.5cm\n专柜热卖系列 Serpenti Forever 精致斜挎包 原单品质 进口胎牛皮 定制原单五金🔅点缀serpenti珐琅浅金镀金蛇首形搭扣  也可以当晚宴包用 精致如珠宝💎\"雨衣、镜子、礼盒包装","specs":{"source":"wsxcme","sourceId":"_dYkYkp2P8Rh_KWHZc2kF3Sejs3sUjmkqS8Jse8A","sourceTagId":47002756,"sourceTagName":"宝格丽/女包","modelNumber":"38102 白配粉","dimensions":{"lengthCm":22,"heightCm":13,"widthCm":5.5},"rawTitle":"正品级\nBVLGARISERPENTIFOREVER\n型号:38102 白配粉\n尺寸:22*13*5.5cm\n专柜热卖系列 Serpenti Forever 精致斜挎包 原单品质 进口胎牛皮 定制原单五金🔅点缀serpenti珐琅浅金镀金蛇首形搭扣  也可以当晚宴包用 精致如珠宝💎\"雨衣、镜子、礼盒包装"},"price":null,"currency":"CNY","moq":1,"category":"bvlgari-women-bags","status":"active","alibaba_url":null,"images":["https://xcimg.szwego.com/20230219/i1676789451_7563_0.jpg","https://xcimg.szwego.com/20230219/i1676789451_642_1.jpg","https://xcimg.szwego.com/20230219/i1676789451_1786_2.jpg","https://xcimg.szwego.com/20230219/i1676789451_8289_3.jpg","https://xcimg.szwego.com/20230219/i1676789451_7498_4.jpg","https://xcimg.szwego.com/20230219/i1676789451_2729_5.jpg","https://xcimg.szwego.com/20230219/i1676789451_2154_6.jpg","https://xcimg.szwego.com/20230219/i1676789451_2745_7.jpg","https://xcimg.szwego.com/20230219/i1676789451_8466_8.jpg"],"created_at":"2024-10-07T10:58:53.571Z"},{"id":"item-429fb2d203f0","sku":"_dKcKck2psVCDGiD7YwWAiAU5ThOzGG9yMJVmLBw","name_en":"Bvlgari Women Bags","name_cn":"宝格丽/女包","specs":{"source":"wsxcme","sourceId":"_dKcKck2psVCDGiD7YwWAiAU5ThOzGG9yMJVmLBw","sourceTagId":47002756,"sourceTagName":"宝格丽/女包","rawTitle":""},"price":null,"currency":"CNY","moq":1,"category":"bvlgari-women-bags","status":"active","alibaba_url":null,"images":["https://xcimg.szwego.com/20230219/i1676789361_3768_0.jpg"],"created_at":"2024-10-07T10:58:53.570Z"},{"id":"item-1b42ef09ebb9","sku":"_dmVmVUoGtbBaHgeXPUSVXlajAqWxOUrDNqtyP_g","name_en":"Bvlgari Women Bags","name_cn":"随拍上身图","specs":{"source":"wsxcme","sourceId":"_dmVmVUoGtbBaHgeXPUSVXlajAqWxOUrDNqtyP_g","sourceTagId":47002756,"sourceTagName":"宝格丽/女包","rawTitle":"随拍上身图"},"price":null,"currency":"CNY","moq":1,"category":"bvlgari-women-bags","status":"active","alibaba_url":null,"images":["https://xcimg.szwego.com/20230219/i1676789320_1674_0.jpg","https://xcimg.szwego.com/20230219/i1676789320_380_1.jpg","https://xcimg.szwego.com/20230219/i1676789320_4963_2.jpg","https://xcimg.szwego.com/20230219/i1676789320_4446_3.jpg"],"created_at":"2024-10-07T10:58:53.569Z"},{"id":"item-62ded42bb503","sku":"_dhThTWvWbF_aGB-gySxoiAgA3eZsvhRNlVmaqVA","name_en":"细节po","name_cn":"细节po","specs":{"source":"wsxcme","sourceId":"_dhThTWvWbF_aGB-gySxoiAgA3eZsvhRNlVmaqVA","sourceTagId":47002756,"sourceTagName":"宝格丽/女包","rawTitle":"细节po"},"price":null,"currency":"CNY","moq":1,"category":"bvlgari-women-bags","status":"active","alibaba_url":null,"images":["https://xcimg.szwego.com/20230219/i1676789274_6332_0.jpg","https://xcimg.szwego.com/20230219/i1676789274_4185_1.jpg","https://xcimg.szwego.com/20230219/i1676789274_7979_2.jpg","https://xcimg.szwego.com/20230219/i1676789274_8748_3.jpg","https://xcimg.szwego.com/20230219/i1676789274_4996_4.jpg","https://xcimg.szwego.com/20230219/i1676789274_2818_5.jpg"],"created_at":"2024-10-07T10:58:53.568Z"},{"id":"item-5da32f771b7a","sku":"_dStStN3cfwpTeNEjJD9cOs-WLNT3cZaqfj5U4Tw","name_en":"Bvlgari Women Bags","name_cn":"正品级\nBVLGARISERPENTIFOREVER\n型号:38102 大红配酒红\n尺寸:22*13*5.5cm\n专柜热卖系列 Serpenti Forever 精致斜挎包 原单品质 进口胎牛皮 定制原单五金🔅点缀serpenti珐琅浅金镀金蛇首形搭扣  也可以当晚宴包用 精致如珠宝💎\"雨衣、镜子、礼盒包装、","specs":{"source":"wsxcme","sourceId":"_dStStN3cfwpTeNEjJD9cOs-WLNT3cZaqfj5U4Tw","sourceTagId":47002756,"sourceTagName":"宝格丽/女包","modelNumber":"38102 大红配酒红","dimensions":{"lengthCm":22,"heightCm":13,"widthCm":5.5},"rawTitle":"正品级\nBVLGARISERPENTIFOREVER\n型号:38102 大红配酒红\n尺寸:22*13*5.5cm\n专柜热卖系列 Serpenti Forever 精致斜挎包 原单品质 进口胎牛皮 定制原单五金🔅点缀serpenti珐琅浅金镀金蛇首形搭扣  也可以当晚宴包用 精致如珠宝💎\"雨衣、镜子、礼盒包装、"},"price":null,"currency":"CNY","moq":1,"category":"bvlgari-women-bags","status":"active","alibaba_url":null,"images":["https://xcimg.szwego.com/20230219/i1676789219_1288_0.jpg","https://xcimg.szwego.com/20230219/i1676789219_5140_1.jpg","https://xcimg.szwego.com/20230219/i1676789219_2299_2.jpg","https://xcimg.szwego.com/20230219/i1676789219_4141_3.jpg","https://xcimg.szwego.com/20230219/i1676789219_5325_4.jpg","https://xcimg.szwego.com/20230219/i1676789219_3262_5.jpg","https://xcimg.szwego.com/20230219/i1676789219_7745_6.jpg","https://xcimg.szwego.com/20230219/i1676789219_9220_7.jpg","https://xcimg.szwego.com/20230219/i1676789219_1069_8.jpg"],"created_at":"2024-10-07T10:58:53.567Z"},{"id":"item-4743e4aa7848","sku":"_dkQkQ5tqxb3zaJSLO13Yl6hCilT8ClsYxvJXxJg","name_en":"Bvlgari Women Bags","name_cn":"宝格丽/女包","specs":{"source":"wsxcme","sourceId":"_dkQkQ5tqxb3zaJSLO13Yl6hCilT8ClsYxvJXxJg","sourceTagId":47002756,"sourceTagName":"宝格丽/女包","rawTitle":""},"price":null,"currency":"CNY","moq":1,"category":"bvlgari-women-bags","status":"active","alibaba_url":null,"images":["https://xcimg.szwego.com/20230219/i1676789178_4414_0.jpg"],"created_at":"2024-10-07T10:58:53.566Z"},{"id":"item-5bc721f1ace9","sku":"_dr8r8TF1-dWpNDaNuMY-7U9fMPkA1Qdm2VCPlWA","name_en":"Bvlgari Women Bags","name_cn":"上身随拍","specs":{"source":"wsxcme","sourceId":"_dr8r8TF1-dWpNDaNuMY-7U9fMPkA1Qdm2VCPlWA","sourceTagId":47002756,"sourceTagName":"宝格丽/女包","rawTitle":"上身随拍"},"price":null,"currency":"CNY","moq":1,"category":"bvlgari-women-bags","status":"active","alibaba_url":null,"images":["https://xcimg.szwego.com/20230219/i1676789144_4297_0.jpg","https://xcimg.szwego.com/20230219/i1676789144_882_1.jpg","https://xcimg.szwego.com/20230219/i1676789144_8191_2.jpg","https://xcimg.szwego.com/20230219/i1676789144_6966_3.jpg"],"created_at":"2024-10-07T10:58:53.565Z"},{"id":"item-9db3827ee15b","sku":"_djxjxlYqqGaAU-I0zsicj3CBBrYSBtobPrifNRw","name_en":"Bvlgari Women Bags","name_cn":"更多细节","specs":{"source":"wsxcme","sourceId":"_djxjxlYqqGaAU-I0zsicj3CBBrYSBtobPrifNRw","sourceTagId":47002756,"sourceTagName":"宝格丽/女包","rawTitle":"更多细节"},"price":null,"currency":"CNY","moq":1,"category":"bvlgari-women-bags","status":"active","alibaba_url":null,"images":["https://xcimg.szwego.com/20230219/i1676789115_9618_0.jpg","https://xcimg.szwego.com/20230219/i1676789115_3456_1.jpg","https://xcimg.szwego.com/20230219/i1676789115_925_2.jpg","https://xcimg.szwego.com/20230219/i1676789115_7293_3.jpg","https://xcimg.szwego.com/20230219/i1676789115_6032_4.jpg","https://xcimg.szwego.com/20230219/i1676789115_4202_5.jpg"],"created_at":"2024-10-07T10:58:53.564Z"},{"id":"item-df88b1c72df8","sku":"_dcecenYr_yCHSOFB5JtUB5j8FaNN0j3NGiwVQyQ","name_en":"Bvlgari Women Bags","name_cn":"正品级\nBVLGARISERPENTIFOREVER\n型号:38102 橙配酒红\n尺寸:22*13*5.5cm\n专柜热卖系列 Serpenti Forever 精致斜挎包 原单品质 进口胎牛皮 定制原单五金🔅点缀serpenti珐琅浅金镀金蛇首形搭扣  也可以当晚宴包用 精致如珠宝💎\"雨衣、镜子、礼盒包装、","specs":{"source":"wsxcme","sourceId":"_dcecenYr_yCHSOFB5JtUB5j8FaNN0j3NGiwVQyQ","sourceTagId":47002756,"sourceTagName":"宝格丽/女包","modelNumber":"38102 橙配酒红","dimensions":{"lengthCm":22,"heightCm":13,"widthCm":5.5},"rawTitle":"正品级\nBVLGARISERPENTIFOREVER\n型号:38102 橙配酒红\n尺寸:22*13*5.5cm\n专柜热卖系列 Serpenti Forever 精致斜挎包 原单品质 进口胎牛皮 定制原单五金🔅点缀serpenti珐琅浅金镀金蛇首形搭扣  也可以当晚宴包用 精致如珠宝💎\"雨衣、镜子、礼盒包装、"},"price":null,"currency":"CNY","moq":1,"category":"bvlgari-women-bags","status":"active","alibaba_url":null,"images":["https://xcimg.szwego.com/20230219/i1676789064_1831_0.jpg","https://xcimg.szwego.com/20230219/i1676789064_3383_1.jpg","https://xcimg.szwego.com/20230219/i1676789064_9541_2.jpg","https://xcimg.szwego.com/20230219/i1676789064_8381_3.jpg","https://xcimg.szwego.com/20230219/i1676789064_1605_4.jpg","https://xcimg.szwego.com/20230219/i1676789064_321_5.jpg","https://xcimg.szwego.com/20230219/i1676789064_5109_6.jpg","https://xcimg.szwego.com/20230219/i1676789064_5741_7.jpg","https://xcimg.szwego.com/20230219/i1676789064_3550_8.jpg"],"created_at":"2024-10-07T10:58:53.563Z"},{"id":"item-68145b026071","sku":"_dsRsR7IrSp6EqbyJmuRnuxMGIG-FdIKLRYXXidg","name_en":"Bvlgari Women Bags","name_cn":"张柏芝的夏日新格调~","specs":{"source":"wsxcme","sourceId":"_dsRsR7IrSp6EqbyJmuRnuxMGIG-FdIKLRYXXidg","sourceTagId":47002756,"sourceTagName":"宝格丽/女包","rawTitle":"张柏芝的夏日新格调~"},"price":null,"currency":"CNY","moq":1,"category":"bvlgari-women-bags","status":"active","alibaba_url":null,"images":["https://xcimg.szwego.com/20230329/i1680069450_9618_0.jpg","https://xcimg.szwego.com/20230329/i1680069450_3396_1.jpg","https://xcimg.szwego.com/20230329/i1680069450_7268_2.jpg"],"created_at":"2024-10-07T10:58:53.562Z"},{"id":"item-d6c7d696c424","sku":"_dO1O1rtn1QJPhCrJUdaOKfu3Tc5kdp3USmtDJdw","name_en":"Bvlgari Women Bags","name_cn":"颜值满满,难以抗拒的一款[爱心]\n\n19cm双层现货秒发","specs":{"source":"wsxcme","sourceId":"_dO1O1rtn1QJPhCrJUdaOKfu3Tc5kdp3USmtDJdw","sourceTagId":47002756,"sourceTagName":"宝格丽/女包","rawTitle":"颜值满满,难以抗拒的一款[爱心]\n\n19cm双层现货秒发"},"price":null,"currency":"CNY","moq":1,"category":"bvlgari-women-bags","status":"active","alibaba_url":null,"images":["https://xcimg.szwego.com/20230418/i1681811745_5394_0.jpg"],"created_at":"2024-10-07T10:58:53.561Z"},{"id":"item-7427625aa016","sku":"_dLBLBh62z45LAn9nOBUOkXgWqHROQydz7ZPrshQ","name_en":"Bvlgari Women Bags","name_cn":"3种背法自由切换","specs":{"source":"wsxcme","sourceId":"_dLBLBh62z45LAn9nOBUOkXgWqHROQydz7ZPrshQ","sourceTagId":47002756,"sourceTagName":"宝格丽/女包","rawTitle":"3种背法自由切换"},"price":null,"currency":"CNY","moq":1,"category":"bvlgari-women-bags","status":"active","alibaba_url":null,"images":["https://xcimg.szwego.com/20221220/i1671550462_2261_0.jpg"],"created_at":"2024-10-07T10:58:53.560Z"}],"page":361,"pageSize":24,"total":10075,"totalPages":420}
