{"items":[{"id":"item-e3f0c44968bb","sku":"_dOdOdtkS6eOt_wjye6c38jFT1HqyBOJBNAe9emw","name_en":"picotin 菜篮子","name_cn":"picotin 菜篮子\n颜色:3Q粉、银扣\n进口tc头层牛皮\n半手工缝制收口\n蜜蜡线缝制\n尺寸:18cm","specs":{"source":"wsxcme","sourceId":"_dOdOdtkS6eOt_wjye6c38jFT1HqyBOJBNAe9emw","sourceTagId":76963559,"sourceTagName":"爱马仕/女包","rawTitle":"picotin 菜篮子\n颜色:3Q粉、银扣\n进口tc头层牛皮\n半手工缝制收口\n蜜蜡线缝制\n尺寸:18cm"},"price":null,"currency":"CNY","moq":1,"category":"hermes-women-bags","status":"active","alibaba_url":null,"images":["https://xcimg.szwego.com/img/88b306c4/20240901/a1725205811924_4244.jpg","https://xcimg.szwego.com/img/88b306c4/20240901/a1725205812223_7635.jpg","https://xcimg.szwego.com/img/88b306c4/20240901/a1725205812090_7424.jpg","https://xcimg.szwego.com/img/88b306c4/20240901/a1725205811926_1136.jpg","https://xcimg.szwego.com/img/88b306c4/20240901/a1725205811926_0771.jpg","https://xcimg.szwego.com/img/88b306c4/20240901/a1725205812178_8605.jpg","https://xcimg.szwego.com/img/88b306c4/20240901/a1725205813560_7700.jpg","https://xcimg.szwego.com/img/88b306c4/20240901/a1725205813560_5464.jpg","https://xcimg.szwego.com/img/88b306c4/20240901/a1725205813569_2461.jpg"],"created_at":"2024-10-22T05:00:12.196Z"},{"id":"item-d6d7d649426a","sku":"_daKaKfdbMe2Vow77kuzFI82CMDC_FFAmIX5j8dw","name_en":"picotin 菜篮子","name_cn":"picotin 菜篮子\n颜色:大象灰、金扣\n进口tc头层牛皮\n半手工缝制收口\n蜜蜡线缝制\n尺寸:18cm","specs":{"source":"wsxcme","sourceId":"_daKaKfdbMe2Vow77kuzFI82CMDC_FFAmIX5j8dw","sourceTagId":76963559,"sourceTagName":"爱马仕/女包","rawTitle":"picotin 菜篮子\n颜色:大象灰、金扣\n进口tc头层牛皮\n半手工缝制收口\n蜜蜡线缝制\n尺寸:18cm"},"price":null,"currency":"CNY","moq":1,"category":"hermes-women-bags","status":"active","alibaba_url":null,"images":["https://xcimg.szwego.com/img/88b306c4/20240901/a1725205205742_0402.jpg","https://xcimg.szwego.com/img/88b306c4/20240901/a1725205205731_0630.jpg","https://xcimg.szwego.com/img/88b306c4/20240901/a1725205205988_6675.jpg","https://xcimg.szwego.com/img/88b306c4/20240901/a1725205205747_2144.jpg","https://xcimg.szwego.com/img/88b306c4/20240901/a1725205205999_8626.jpg","https://xcimg.szwego.com/img/88b306c4/20240901/a1725205205828_5805.jpg","https://xcimg.szwego.com/img/88b306c4/20240901/a1725205213550_8330.jpg","https://xcimg.szwego.com/img/88b306c4/20240901/a1725205213593_0410.jpg","https://xcimg.szwego.com/img/88b306c4/20240901/a1725205213585_5558.jpg"],"created_at":"2024-10-22T05:00:12.195Z"},{"id":"item-00a34c1f287f","sku":"_diYiYtgzFAqFuI6C9N_65NEL6c2U5KzQ_c0n-tw","name_en":"picotin 菜篮子","name_cn":"picotin 菜篮子\n颜色:大象灰、银扣\n进口tc头层牛皮\n半手工缝制收口\n蜜蜡线缝制\n尺寸:18cm","specs":{"source":"wsxcme","sourceId":"_diYiYtgzFAqFuI6C9N_65NEL6c2U5KzQ_c0n-tw","sourceTagId":76963559,"sourceTagName":"爱马仕/女包","rawTitle":"picotin 菜篮子\n颜色:大象灰、银扣\n进口tc头层牛皮\n半手工缝制收口\n蜜蜡线缝制\n尺寸:18cm"},"price":null,"currency":"CNY","moq":1,"category":"hermes-women-bags","status":"active","alibaba_url":null,"images":["https://xcimg.szwego.com/img/88b306c4/20240901/a1725205024687_0563.jpg","https://xcimg.szwego.com/img/88b306c4/20240901/a1725205024331_1160.jpg","https://xcimg.szwego.com/img/88b306c4/20240901/a1725205024282_2218.jpg","https://xcimg.szwego.com/img/88b306c4/20240901/a1725205024447_5681.jpg","https://xcimg.szwego.com/img/88b306c4/20240901/a1725205024379_6344.jpg","https://xcimg.szwego.com/img/88b306c4/20240901/a1725205024605_8212.jpg","https://xcimg.szwego.com/img/88b306c4/20240901/a1725205025887_3867.jpg","https://xcimg.szwego.com/img/88b306c4/20240901/a1725205025854_0031.jpg","https://xcimg.szwego.com/img/88b306c4/20240901/a1725205025877_6101.jpg"],"created_at":"2024-10-22T05:00:12.194Z"},{"id":"item-b65d6b97a9b2","sku":"_duVuVthWfGZgmRyx-xDXo1jXKkMTAAx33f8MZvA","name_en":"picotin 菜篮子","name_cn":"picotin 菜篮子\n颜色:饼干色、金扣\n进口tc头层牛皮\n半收工缝制收口\n蜜蜡线缝制\n尺寸:18cm","specs":{"source":"wsxcme","sourceId":"_duVuVthWfGZgmRyx-xDXo1jXKkMTAAx33f8MZvA","sourceTagId":76963559,"sourceTagName":"爱马仕/女包","rawTitle":"picotin 菜篮子\n颜色:饼干色、金扣\n进口tc头层牛皮\n半收工缝制收口\n蜜蜡线缝制\n尺寸:18cm"},"price":null,"currency":"CNY","moq":1,"category":"hermes-women-bags","status":"active","alibaba_url":null,"images":["https://xcimg.szwego.com/img/88b306c4/20240901/a1725204827804_7363.jpg","https://xcimg.szwego.com/img/88b306c4/20240901/a1725204827432_4887.jpg","https://xcimg.szwego.com/img/88b306c4/20240901/a1725204827795_1275.jpg","https://xcimg.szwego.com/img/88b306c4/20240901/a1725204827480_5650.jpg","https://xcimg.szwego.com/img/88b306c4/20240901/a1725204827593_6542.jpg","https://xcimg.szwego.com/img/88b306c4/20240901/a1725204827563_6248.jpg","https://xcimg.szwego.com/img/88b306c4/20240901/a1725204828985_8360.jpg","https://xcimg.szwego.com/img/88b306c4/20240901/a1725204829214_1442.jpg","https://xcimg.szwego.com/img/88b306c4/20240901/a1725204829086_7688.jpg"],"created_at":"2024-10-22T05:00:12.193Z"},{"id":"item-6972607fbe32","sku":"_dwUwUmc8ZM7JdOn2J29d55OaXseWonfGgOwMe3Q","name_en":"picotin 菜篮子","name_cn":"picotin 菜篮子\n颜色:饼干色、银扣\n进口tc头层牛皮\n半收工缝制收口\n蜜蜡线缝制\n尺寸:18cm","specs":{"source":"wsxcme","sourceId":"_dwUwUmc8ZM7JdOn2J29d55OaXseWonfGgOwMe3Q","sourceTagId":76963559,"sourceTagName":"爱马仕/女包","rawTitle":"picotin 菜篮子\n颜色:饼干色、银扣\n进口tc头层牛皮\n半收工缝制收口\n蜜蜡线缝制\n尺寸:18cm"},"price":null,"currency":"CNY","moq":1,"category":"hermes-women-bags","status":"active","alibaba_url":null,"images":["https://xcimg.szwego.com/img/88b306c4/20240901/a1725204641567_3288.jpg","https://xcimg.szwego.com/img/88b306c4/20240901/a1725204641442_7683.jpg","https://xcimg.szwego.com/img/88b306c4/20240901/a1725204641782_7375.jpg","https://xcimg.szwego.com/img/88b306c4/20240901/a1725204641836_1468.jpg","https://xcimg.szwego.com/img/88b306c4/20240901/a1725204641438_8738.jpg","https://xcimg.szwego.com/img/88b306c4/20240901/a1725204641570_0120.jpg","https://xcimg.szwego.com/img/88b306c4/20240901/a1725204643160_0536.jpg","https://xcimg.szwego.com/img/88b306c4/20240901/a1725204643111_3048.jpg","https://xcimg.szwego.com/img/88b306c4/20240901/a1725204643175_8537.jpg"],"created_at":"2024-10-22T05:00:12.192Z"},{"id":"item-1c05b00d47dc","sku":"_dwYwYq5KUEcV2VUn8k9_WvEtz1M92VGckLcTTaA","name_en":"picotin 菜篮子","name_cn":"picotin 菜篮子\n颜色:枣红色、金扣\n进口tc头层牛皮\n半收工缝制收口\n蜜蜡线缝制\n尺寸:18cm","specs":{"source":"wsxcme","sourceId":"_dwYwYq5KUEcV2VUn8k9_WvEtz1M92VGckLcTTaA","sourceTagId":76963559,"sourceTagName":"爱马仕/女包","rawTitle":"picotin 菜篮子\n颜色:枣红色、金扣\n进口tc头层牛皮\n半收工缝制收口\n蜜蜡线缝制\n尺寸:18cm"},"price":null,"currency":"CNY","moq":1,"category":"hermes-women-bags","status":"active","alibaba_url":null,"images":["https://xcimg.szwego.com/img/88b306c4/20240901/a1725204185805_4140.jpg","https://xcimg.szwego.com/img/88b306c4/20240901/a1725204185518_2704.jpg","https://xcimg.szwego.com/img/88b306c4/20240901/a1725204185543_8454.jpg","https://xcimg.szwego.com/img/88b306c4/20240901/a1725204185771_2537.jpg","https://xcimg.szwego.com/img/88b306c4/20240901/a1725204185616_0038.jpg","https://xcimg.szwego.com/img/88b306c4/20240901/a1725204185513_5522.jpg","https://xcimg.szwego.com/img/88b306c4/20240901/a1725204195212_7653.jpg","https://xcimg.szwego.com/img/88b306c4/20240901/a1725204195237_0404.jpg","https://xcimg.szwego.com/img/88b306c4/20240901/a1725204195314_0611.jpg"],"created_at":"2024-10-22T05:00:12.191Z"},{"id":"item-866917326719","sku":"_dO8O8JWjPaRb14v6Jqb23HeF2h8rGm3UfKE2foQ","name_en":"picotin 菜篮子","name_cn":"picotin 菜篮子\n颜色:枣红色、银扣\n进口tc头层牛皮\n半收工缝制收口\n蜜蜡线缝制\n尺寸:18cm","specs":{"source":"wsxcme","sourceId":"_dO8O8JWjPaRb14v6Jqb23HeF2h8rGm3UfKE2foQ","sourceTagId":76963559,"sourceTagName":"爱马仕/女包","rawTitle":"picotin 菜篮子\n颜色:枣红色、银扣\n进口tc头层牛皮\n半收工缝制收口\n蜜蜡线缝制\n尺寸:18cm"},"price":null,"currency":"CNY","moq":1,"category":"hermes-women-bags","status":"active","alibaba_url":null,"images":["https://xcimg.szwego.com/img/88b306c4/20240901/a1725203972514_2451.jpg","https://xcimg.szwego.com/img/88b306c4/20240901/a1725203972845_5223.jpg","https://xcimg.szwego.com/img/88b306c4/20240901/a1725203972719_8115.jpg","https://xcimg.szwego.com/img/88b306c4/20240901/a1725203972586_4361.jpg","https://xcimg.szwego.com/img/88b306c4/20240901/a1725203972828_5525.jpg","https://xcimg.szwego.com/img/88b306c4/20240901/a1725203972628_0745.jpg","https://xcimg.szwego.com/img/88b306c4/20240901/a1725203981360_3411.jpg","https://xcimg.szwego.com/img/88b306c4/20240901/a1725203981341_7758.jpg","https://xcimg.szwego.com/img/88b306c4/20240901/a1725203981345_3744.jpg"],"created_at":"2024-10-22T05:00:12.190Z"},{"id":"item-8e239a327dda","sku":"_dn3n31tRHv8TRdsSGgrTdx54iWA6xKIvJzT0Rnw","name_en":"picotin 菜篮子","name_cn":"picotin 菜篮子\n颜色:圣杯兰、金扣\n进口tc头层牛皮\n半手工缝制收口\n蜜蜡线缝制\n尺寸:18cm","specs":{"source":"wsxcme","sourceId":"_dn3n31tRHv8TRdsSGgrTdx54iWA6xKIvJzT0Rnw","sourceTagId":76963559,"sourceTagName":"爱马仕/女包","rawTitle":"picotin 菜篮子\n颜色:圣杯兰、金扣\n进口tc头层牛皮\n半手工缝制收口\n蜜蜡线缝制\n尺寸:18cm"},"price":null,"currency":"CNY","moq":1,"category":"hermes-women-bags","status":"active","alibaba_url":null,"images":["https://xcimg.szwego.com/img/88b306c4/20240901/a1725203468164_7636.jpg","https://xcimg.szwego.com/img/88b306c4/20240901/a1725203468058_4710.jpg","https://xcimg.szwego.com/img/88b306c4/20240901/a1725203468083_7067.jpg","https://xcimg.szwego.com/img/88b306c4/20240901/a1725203468044_3324.jpg","https://xcimg.szwego.com/img/88b306c4/20240901/a1725203468282_3364.jpg","https://xcimg.szwego.com/img/88b306c4/20240901/a1725203468060_6178.jpg","https://xcimg.szwego.com/img/88b306c4/20240901/a1725203469604_2538.jpg","https://xcimg.szwego.com/img/88b306c4/20240901/a1725203469656_5522.jpg","https://xcimg.szwego.com/img/88b306c4/20240901/a1725203469642_8287.jpg"],"created_at":"2024-10-22T05:00:12.189Z"},{"id":"item-ec25a14b5611","sku":"_d_e_edUg83ZIBk7Zu0AcN6o7njZeaPzqQ8iRkGQ","name_en":"picotin 菜篮子","name_cn":"picotin 菜篮子\n颜色:黑色、金扣\n进口tc头层牛皮\n半手工缝制收口\n蜜蜡线缝制\n尺寸:18cm","specs":{"source":"wsxcme","sourceId":"_d_e_edUg83ZIBk7Zu0AcN6o7njZeaPzqQ8iRkGQ","sourceTagId":76963559,"sourceTagName":"爱马仕/女包","rawTitle":"picotin 菜篮子\n颜色:黑色、金扣\n进口tc头层牛皮\n半手工缝制收口\n蜜蜡线缝制\n尺寸:18cm"},"price":null,"currency":"CNY","moq":1,"category":"hermes-women-bags","status":"active","alibaba_url":null,"images":["https://xcimg.szwego.com/img/88b306c4/20240902/a1725213118287_6758.jpg","https://xcimg.szwego.com/img/88b306c4/20240902/a1725213118653_4643.jpg","https://xcimg.szwego.com/img/88b306c4/20240902/a1725213118319_6484.jpg","https://xcimg.szwego.com/img/88b306c4/20240902/a1725213118666_2732.jpg","https://xcimg.szwego.com/img/88b306c4/20240902/a1725213118238_0538.jpg","https://xcimg.szwego.com/img/88b306c4/20240902/a1725213118320_8623.jpg","https://xcimg.szwego.com/img/88b306c4/20240902/a1725213119744_8873.jpg","https://xcimg.szwego.com/img/88b306c4/20240902/a1725213119646_6866.jpg","https://xcimg.szwego.com/img/88b306c4/20240902/a1725213119721_5677.jpg"],"created_at":"2024-10-22T05:00:12.188Z"},{"id":"item-e0d0b83df764","sku":"_dwSwSWuZn3TfuIooR_spxAQYPHt1YRDZ8KgOoqQ","name_en":"picotin 菜篮子","name_cn":"picotin 菜篮子\n颜色:黑色、银扣\n进口tc头层牛皮\n半手工缝制收口\n蜜蜡线缝制\n尺寸:18cm","specs":{"source":"wsxcme","sourceId":"_dwSwSWuZn3TfuIooR_spxAQYPHt1YRDZ8KgOoqQ","sourceTagId":76963559,"sourceTagName":"爱马仕/女包","rawTitle":"picotin 菜篮子\n颜色:黑色、银扣\n进口tc头层牛皮\n半手工缝制收口\n蜜蜡线缝制\n尺寸:18cm"},"price":null,"currency":"CNY","moq":1,"category":"hermes-women-bags","status":"active","alibaba_url":null,"images":["https://xcimg.szwego.com/img/88b306c4/20240902/a1725213049822_2274.jpg","https://xcimg.szwego.com/img/88b306c4/20240902/a1725213050100_8531.jpg","https://xcimg.szwego.com/img/88b306c4/20240902/a1725213049834_3516.jpg","https://xcimg.szwego.com/img/88b306c4/20240902/a1725213049760_2342.jpg","https://xcimg.szwego.com/img/88b306c4/20240902/a1725213049747_1261.jpg","https://xcimg.szwego.com/img/88b306c4/20240902/a1725213050042_8032.jpg","https://xcimg.szwego.com/img/88b306c4/20240902/a1725213051637_5335.jpg","https://xcimg.szwego.com/img/88b306c4/20240902/a1725213051599_5742.jpg","https://xcimg.szwego.com/img/88b306c4/20240902/a1725213051577_7535.jpg"],"created_at":"2024-10-22T05:00:12.187Z"},{"id":"item-4e2db29e8d7f","sku":"_deyeyGr16dc5u19NWQrHK2dtI6Qx4tQKDqpaFvg","name_en":"Garden Party 彩绘涂鸦","name_cn":"Garden Party 彩绘涂鸦\n🇫🇷法国Fjord进口原版牛皮 蜡线缝制 老师傅工艺彩绘帆布,🐎家的色彩搭配以及彩绘涂鸦都一绝 每个包包都堪称艺术品\n实拍size36","specs":{"source":"wsxcme","sourceId":"_deyeyGr16dc5u19NWQrHK2dtI6Qx4tQKDqpaFvg","sourceTagId":76963559,"sourceTagName":"爱马仕/女包","rawTitle":"Garden Party 彩绘涂鸦\n🇫🇷法国Fjord进口原版牛皮 蜡线缝制 老师傅工艺彩绘帆布,🐎家的色彩搭配以及彩绘涂鸦都一绝 每个包包都堪称艺术品\n实拍size36"},"price":null,"currency":"CNY","moq":1,"category":"hermes-women-bags","status":"active","alibaba_url":null,"images":["https://xcimg.szwego.com/img/b17e98d7/20240818/i1723966490_9450_2.jpg","https://xcimg.szwego.com/img/b17e98d7/20240818/i1723966490_9671_6.jpg","https://xcimg.szwego.com/img/b17e98d7/20240818/i1723966490_2804_7.jpg","https://xcimg.szwego.com/img/b17e98d7/20240818/i1723966490_7828_4.jpg","https://xcimg.szwego.com/img/b17e98d7/20240818/i1723966490_1172_5.jpg","https://xcimg.szwego.com/img/b17e98d7/20240818/i1723966490_6751_0.jpg","https://xcimg.szwego.com/img/b17e98d7/20240818/i1723966490_8857_3.jpg","https://xcimg.szwego.com/img/b17e98d7/20240818/i1723966490_6117_1.jpg","https://xcimg.szwego.com/img/b17e98d7/20240818/i1723966490_29_8.jpg"],"created_at":"2024-10-22T05:00:12.186Z"},{"id":"item-f248c0e0f268","sku":"_d-4-4riFx_rLzf1iLAp3d3L8RvxAMQo3UEIqfnw","name_en":"Garden Party 彩绘涂鸦","name_cn":"Garden Party 彩绘涂鸦\n🇫🇷法国Fjord进口原版牛皮 蜡线缝制 老师傅工艺彩绘帆布,🐎家的色彩搭配以及彩绘涂鸦都一绝 每个包包都堪称艺术品\n实拍size36","specs":{"source":"wsxcme","sourceId":"_d-4-4riFx_rLzf1iLAp3d3L8RvxAMQo3UEIqfnw","sourceTagId":76963559,"sourceTagName":"爱马仕/女包","rawTitle":"Garden Party 彩绘涂鸦\n🇫🇷法国Fjord进口原版牛皮 蜡线缝制 老师傅工艺彩绘帆布,🐎家的色彩搭配以及彩绘涂鸦都一绝 每个包包都堪称艺术品\n实拍size36"},"price":null,"currency":"CNY","moq":1,"category":"hermes-women-bags","status":"active","alibaba_url":null,"images":["https://xcimg.szwego.com/img/b17e98d7/20240818/i1723966523_4256_2.jpg","https://xcimg.szwego.com/img/b17e98d7/20240818/i1723966523_7435_5.jpg","https://xcimg.szwego.com/img/b17e98d7/20240818/i1723966523_6766_7.jpg","https://xcimg.szwego.com/img/b17e98d7/20240818/i1723966523_1827_4.jpg","https://xcimg.szwego.com/img/b17e98d7/20240818/i1723966523_2266_8.jpg","https://xcimg.szwego.com/img/b17e98d7/20240818/i1723966523_8431_0.jpg","https://xcimg.szwego.com/img/b17e98d7/20240818/i1723966523_3559_6.jpg","https://xcimg.szwego.com/img/b17e98d7/20240818/i1723966523_6403_3.jpg","https://xcimg.szwego.com/img/b17e98d7/20240818/i1723966523_4429_1.jpg"],"created_at":"2024-10-22T05:00:12.185Z"},{"id":"item-403981eec52b","sku":"_dI5I5l_zgbJKkXNsKUO8ZyTmM2JUzXf-0uN4QIg","name_en":"Garden Party 彩绘涂鸦","name_cn":"Garden Party 彩绘涂鸦\n🇫🇷法国Fjord进口原版牛皮 蜡线缝制 老师傅工艺彩绘帆布,🐎家的色彩搭配以及彩绘涂鸦都一绝 每个包包都堪称艺术品\n实拍size36","specs":{"source":"wsxcme","sourceId":"_dI5I5l_zgbJKkXNsKUO8ZyTmM2JUzXf-0uN4QIg","sourceTagId":76963559,"sourceTagName":"爱马仕/女包","rawTitle":"Garden Party 彩绘涂鸦\n🇫🇷法国Fjord进口原版牛皮 蜡线缝制 老师傅工艺彩绘帆布,🐎家的色彩搭配以及彩绘涂鸦都一绝 每个包包都堪称艺术品\n实拍size36"},"price":null,"currency":"CNY","moq":1,"category":"hermes-women-bags","status":"active","alibaba_url":null,"images":["https://xcimg.szwego.com/img/b17e98d7/20240818/i1723966548_3402_8.jpg","https://xcimg.szwego.com/img/b17e98d7/20240818/i1723966548_431_7.jpg","https://xcimg.szwego.com/img/b17e98d7/20240818/i1723966548_1476_4.jpg","https://xcimg.szwego.com/img/b17e98d7/20240818/i1723966548_9276_2.jpg","https://xcimg.szwego.com/img/b17e98d7/20240818/i1723966548_685_1.jpg","https://xcimg.szwego.com/img/b17e98d7/20240818/i1723966548_9664_3.jpg","https://xcimg.szwego.com/img/b17e98d7/20240818/i1723966548_3541_0.jpg","https://xcimg.szwego.com/img/b17e98d7/20240818/i1723966548_211_5.jpg","https://xcimg.szwego.com/img/b17e98d7/20240818/i1723966548_4636_6.jpg"],"created_at":"2024-10-22T05:00:12.184Z"},{"id":"item-744f51fa4c8e","sku":"_deZeZQ5hNxJvn6002aOrJo0zZY35ymXnUdGLseA","name_en":"Garden Party 彩绘涂鸦","name_cn":"Garden Party 彩绘涂鸦\n🇫🇷法国Fjord进口原版牛皮 蜡线缝制 老师傅工艺彩绘帆布,🐎家的色彩搭配以及彩绘涂鸦都一绝 每个包包都堪称艺术品\n实拍size36","specs":{"source":"wsxcme","sourceId":"_deZeZQ5hNxJvn6002aOrJo0zZY35ymXnUdGLseA","sourceTagId":76963559,"sourceTagName":"爱马仕/女包","rawTitle":"Garden Party 彩绘涂鸦\n🇫🇷法国Fjord进口原版牛皮 蜡线缝制 老师傅工艺彩绘帆布,🐎家的色彩搭配以及彩绘涂鸦都一绝 每个包包都堪称艺术品\n实拍size36"},"price":null,"currency":"CNY","moq":1,"category":"hermes-women-bags","status":"active","alibaba_url":null,"images":["https://xcimg.szwego.com/img/43e90bff/20240812/i1723456309_1213_7.jpg","https://xcimg.szwego.com/img/43e90bff/20240812/i1723456309_6963_5.jpg","https://xcimg.szwego.com/img/43e90bff/20240812/i1723456309_2860_3.jpg","https://xcimg.szwego.com/img/43e90bff/20240812/i1723456309_4473_0.jpg","https://xcimg.szwego.com/img/43e90bff/20240812/i1723456309_3164_2.jpg","https://xcimg.szwego.com/img/43e90bff/20240812/i1723456309_437_4.jpg","https://xcimg.szwego.com/img/43e90bff/20240812/i1723456309_4735_1.jpg","https://xcimg.szwego.com/img/43e90bff/20240812/i1723456309_230_6.jpg","https://xcimg.szwego.com/img/43e90bff/20240812/i1723456309_5273_8.jpg"],"created_at":"2024-10-22T05:00:12.183Z"},{"id":"item-fe1c24968863","sku":"_dndndEw_1GrIWmbyVuvfDo3h6tjeelDuVi2Ym7Q","name_en":"Garden Party 彩绘涂鸦","name_cn":"Garden Party 彩绘涂鸦\n🇫🇷法国Fjord进口原版牛皮 蜡线缝制 老师傅工艺彩绘帆布,🐎家的色彩搭配以及彩绘涂鸦都一绝 每个包包都堪称艺术品\n实拍size36","specs":{"source":"wsxcme","sourceId":"_dndndEw_1GrIWmbyVuvfDo3h6tjeelDuVi2Ym7Q","sourceTagId":76963559,"sourceTagName":"爱马仕/女包","rawTitle":"Garden Party 彩绘涂鸦\n🇫🇷法国Fjord进口原版牛皮 蜡线缝制 老师傅工艺彩绘帆布,🐎家的色彩搭配以及彩绘涂鸦都一绝 每个包包都堪称艺术品\n实拍size36"},"price":null,"currency":"CNY","moq":1,"category":"hermes-women-bags","status":"active","alibaba_url":null,"images":["https://xcimg.szwego.com/img/43e90bff/20240812/i1723456680_678_8.jpg","https://xcimg.szwego.com/img/43e90bff/20240812/i1723456680_1322_5.jpg","https://xcimg.szwego.com/img/43e90bff/20240812/i1723456680_3577_1.jpg","https://xcimg.szwego.com/img/43e90bff/20240812/i1723456680_9868_3.jpg","https://xcimg.szwego.com/img/43e90bff/20240812/i1723456680_1152_4.jpg","https://xcimg.szwego.com/img/43e90bff/20240812/i1723456680_4785_0.jpg","https://xcimg.szwego.com/img/43e90bff/20240812/i1723456680_3489_7.jpg","https://xcimg.szwego.com/img/43e90bff/20240812/i1723456680_8771_6.jpg","https://xcimg.szwego.com/img/43e90bff/20240812/i1723456680_4430_2.jpg"],"created_at":"2024-10-22T05:00:12.182Z"},{"id":"item-f47c684d7b3c","sku":"_d-U-UuK3mvmpdxd3llu2E0InIYc0VHPiYwlDvow","name_en":"Garden Party 彩绘涂鸦","name_cn":"Garden Party 彩绘涂鸦\n🇫🇷法国Fjord进口原版牛皮 蜡线缝制 老师傅工艺彩绘帆布,🐎家的色彩搭配以及彩绘涂鸦都一绝 每个包包都堪称艺术品\n实拍size36","specs":{"source":"wsxcme","sourceId":"_d-U-UuK3mvmpdxd3llu2E0InIYc0VHPiYwlDvow","sourceTagId":76963559,"sourceTagName":"爱马仕/女包","rawTitle":"Garden Party 彩绘涂鸦\n🇫🇷法国Fjord进口原版牛皮 蜡线缝制 老师傅工艺彩绘帆布,🐎家的色彩搭配以及彩绘涂鸦都一绝 每个包包都堪称艺术品\n实拍size36"},"price":null,"currency":"CNY","moq":1,"category":"hermes-women-bags","status":"active","alibaba_url":null,"images":["https://xcimg.szwego.com/img/43e90bff/20240812/i1723456834_5714_0.jpg","https://xcimg.szwego.com/img/43e90bff/20240812/i1723456834_9270_0.jpg","https://xcimg.szwego.com/img/43e90bff/20240812/i1723456834_6563_0.jpg","https://xcimg.szwego.com/img/43e90bff/20240812/i1723456834_5166_0.jpg","https://xcimg.szwego.com/img/43e90bff/20240812/i1723456835_2526_0.jpg","https://xcimg.szwego.com/img/43e90bff/20240812/i1723456834_5100_0.jpg","https://xcimg.szwego.com/img/43e90bff/20240812/i1723456834_4487_0.jpg","https://xcimg.szwego.com/img/43e90bff/20240812/i1723456834_8988_0.jpg","https://xcimg.szwego.com/img/43e90bff/20240812/i1723456817_5749_3.jpg"],"created_at":"2024-10-22T05:00:12.181Z"},{"id":"item-8fca25c2e8fe","sku":"_dmVmVUoGtbBaHgefKUS5SnazBrWdOUrDNqtyP_g","name_en":"Garden Party 彩绘涂鸦","name_cn":"Garden Party 彩绘涂鸦\n🇫🇷法国Fjord进口原版牛皮 蜡线缝制 老师傅工艺彩绘帆布,🐎家的色彩搭配以及彩绘涂鸦都一绝 每个包包都堪称艺术品\n实拍size36","specs":{"source":"wsxcme","sourceId":"_dmVmVUoGtbBaHgefKUS5SnazBrWdOUrDNqtyP_g","sourceTagId":76963559,"sourceTagName":"爱马仕/女包","rawTitle":"Garden Party 彩绘涂鸦\n🇫🇷法国Fjord进口原版牛皮 蜡线缝制 老师傅工艺彩绘帆布,🐎家的色彩搭配以及彩绘涂鸦都一绝 每个包包都堪称艺术品\n实拍size36"},"price":null,"currency":"CNY","moq":1,"category":"hermes-women-bags","status":"active","alibaba_url":null,"images":["https://xcimg.szwego.com/img/b17e98d7/20240818/i1723966352_6680_7.jpg","https://xcimg.szwego.com/img/b17e98d7/20240818/i1723966352_4599_8.jpg","https://xcimg.szwego.com/img/b17e98d7/20240818/i1723966352_5997_5.jpg","https://xcimg.szwego.com/img/b17e98d7/20240818/i1723966352_840_1.jpg","https://xcimg.szwego.com/img/b17e98d7/20240818/i1723966352_6499_6.jpg","https://xcimg.szwego.com/img/b17e98d7/20240818/i1723966352_690_4.jpg","https://xcimg.szwego.com/img/b17e98d7/20240818/i1723966352_1852_0.jpg","https://xcimg.szwego.com/img/b17e98d7/20240818/i1723966352_1046_3.jpg","https://xcimg.szwego.com/img/b17e98d7/20240818/i1723966352_6952_2.jpg"],"created_at":"2024-10-22T05:00:12.180Z"},{"id":"item-b57a299e69c7","sku":"_dw4w4x7-ezvrqilSeGfPh5En51OyAoYlFYinrsg","name_en":"Garden Party 彩绘涂鸦","name_cn":"Garden Party 彩绘涂鸦\n🇫🇷法国Fjord进口原版牛皮 蜡线缝制 老师傅工艺彩绘帆布,🐎家的色彩搭配以及彩绘涂鸦都一绝 每个包包都堪称艺术品\n实拍size36","specs":{"source":"wsxcme","sourceId":"_dw4w4x7-ezvrqilSeGfPh5En51OyAoYlFYinrsg","sourceTagId":76963559,"sourceTagName":"爱马仕/女包","rawTitle":"Garden Party 彩绘涂鸦\n🇫🇷法国Fjord进口原版牛皮 蜡线缝制 老师傅工艺彩绘帆布,🐎家的色彩搭配以及彩绘涂鸦都一绝 每个包包都堪称艺术品\n实拍size36"},"price":null,"currency":"CNY","moq":1,"category":"hermes-women-bags","status":"active","alibaba_url":null,"images":["https://xcimg.szwego.com/img/b17e98d7/20240818/i1723966177_6339_2.jpg","https://xcimg.szwego.com/img/b17e98d7/20240818/i1723966177_4437_5.jpg","https://xcimg.szwego.com/img/b17e98d7/20240818/i1723966177_5320_4.jpg","https://xcimg.szwego.com/img/b17e98d7/20240818/i1723966177_8797_8.jpg","https://xcimg.szwego.com/img/b17e98d7/20240818/i1723966177_1749_3.jpg","https://xcimg.szwego.com/img/b17e98d7/20240818/i1723966177_6975_0.jpg","https://xcimg.szwego.com/img/b17e98d7/20240818/i1723966177_7918_1.jpg","https://xcimg.szwego.com/img/b17e98d7/20240818/i1723966177_4655_7.jpg","https://xcimg.szwego.com/img/b17e98d7/20240818/i1723966177_5593_6.jpg"],"created_at":"2024-10-22T05:00:12.179Z"},{"id":"item-1dc83d16b575","sku":"_dEoEoAQu3Trhofo_glSMyQLlDV-0ypU6bRtQY1Q","name_en":"Garden Party 彩绘涂鸦","name_cn":"Garden Party 彩绘涂鸦\n🇫🇷法国Fjord进口原版牛皮 蜡线缝制 老师傅工艺彩绘帆布,🐎家的色彩搭配以及彩绘涂鸦都一绝 每个包包都堪称艺术品\n实拍size36","specs":{"source":"wsxcme","sourceId":"_dEoEoAQu3Trhofo_glSMyQLlDV-0ypU6bRtQY1Q","sourceTagId":76963559,"sourceTagName":"爱马仕/女包","rawTitle":"Garden Party 彩绘涂鸦\n🇫🇷法国Fjord进口原版牛皮 蜡线缝制 老师傅工艺彩绘帆布,🐎家的色彩搭配以及彩绘涂鸦都一绝 每个包包都堪称艺术品\n实拍size36"},"price":null,"currency":"CNY","moq":1,"category":"hermes-women-bags","status":"active","alibaba_url":null,"images":["https://xcimg.szwego.com/img/43e90bff/20240812/i1723457062_5841_6.jpg","https://xcimg.szwego.com/img/43e90bff/20240812/i1723457062_4799_9.jpg","https://xcimg.szwego.com/img/43e90bff/20240812/i1723457062_9610_4.jpg","https://xcimg.szwego.com/img/43e90bff/20240812/i1723457062_5401_2.jpg","https://xcimg.szwego.com/img/43e90bff/20240812/i1723457062_4478_5.jpg","https://xcimg.szwego.com/img/43e90bff/20240812/i1723457062_3999_8.jpg","https://xcimg.szwego.com/img/43e90bff/20240812/i1723457062_2045_0.jpg","https://xcimg.szwego.com/img/43e90bff/20240812/i1723457062_4060_7.jpg","https://xcimg.szwego.com/img/43e90bff/20240812/i1723457062_5248_1.jpg"],"created_at":"2024-10-22T05:00:12.178Z"},{"id":"item-0bde176eb695","sku":"_dkGkGTBreU3SW_E0Zdh_HHouPtuPjvsu48BHfwA","name_en":"Birkin30cm togo black 89黑色 银扣","name_cn":"Birkin30cm togo black 89黑色 银扣","specs":{"source":"wsxcme","sourceId":"_dkGkGTBreU3SW_E0Zdh_HHouPtuPjvsu48BHfwA","sourceTagId":76963559,"sourceTagName":"爱马仕/女包","rawTitle":"Birkin30cm togo black 89黑色 银扣"},"price":null,"currency":"CNY","moq":1,"category":"hermes-women-bags","status":"active","alibaba_url":null,"images":["https://xcimg.szwego.com/img/a01b89c4/20240123/i1705979512_6720_8.jpg","https://xcimg.szwego.com/img/a01b89c4/20240123/i1705979512_9391_2.jpg","https://xcimg.szwego.com/img/a01b89c4/20240123/i1705979512_8952_5.jpg","https://xcimg.szwego.com/img/a01b89c4/20240123/i1705979512_6847_0.jpg","https://xcimg.szwego.com/img/a01b89c4/20240123/i1705979512_2538_3.jpg","https://xcimg.szwego.com/img/a01b89c4/20240123/i1705979512_2234_4.jpg","https://xcimg.szwego.com/img/a01b89c4/20240123/i1705979512_2956_6.jpg","https://xcimg.szwego.com/img/a01b89c4/20240123/i1705979512_6712_7.jpg"],"created_at":"2024-10-22T05:00:12.177Z"},{"id":"item-83b8643c5035","sku":"_dfZfZ7Qq7prhN8J9surYgKLAnqCX4-FjEzhmUyg","name_en":"Twilly|玛雅丛林俄耳甫斯的魔力","name_cn":"Twilly|玛雅丛林俄耳甫斯的魔力\n设计师:Alice Shirley\n04色,天空蓝/粉米色/朱砂红\n·\n粉蓝色的玛雅丛林比蓝色和灰色多了一点柔美。\n·\n俄耳甫斯是古希腊神话中的人物,最著名的是他演奏七弦琴的精湛技艺。他的音乐可以迷住森林里的野生动物,甚至溪流也会停下来,树木也会靠近一点,听他美妙的歌声。\n小小twilly上演绎了充满魔力的俄耳甫斯的神话传说,俄耳甫斯在丛林里演奏动人的音乐,鹿、狮子、熊、马闻声而动,被动人的旋律吸引而去。","specs":{"source":"wsxcme","sourceId":"_dfZfZ7Qq7prhN8J9surYgKLAnqCX4-FjEzhmUyg","sourceTagId":76963559,"sourceTagName":"爱马仕/女包","rawTitle":"Twilly|玛雅丛林俄耳甫斯的魔力\n设计师:Alice Shirley\n04色,天空蓝/粉米色/朱砂红\n·\n粉蓝色的玛雅丛林比蓝色和灰色多了一点柔美。\n·\n俄耳甫斯是古希腊神话中的人物,最著名的是他演奏七弦琴的精湛技艺。他的音乐可以迷住森林里的野生动物,甚至溪流也会停下来,树木也会靠近一点,听他美妙的歌声。\n小小twilly上演绎了充满魔力的俄耳甫斯的神话传说,俄耳甫斯在丛林里演奏动人的音乐,鹿、狮子、熊、马闻声而动,被动人的旋律吸引而去。"},"price":null,"currency":"CNY","moq":1,"category":"hermes-women-bags","status":"active","alibaba_url":null,"images":["https://xcimg.szwego.com/img/3d6d0be4/20231215/i1702623689_1917_0.jpg","https://xcimg.szwego.com/img/3d6d0be4/20231215/i1702623689_3265_0.jpg","https://xcimg.szwego.com/img/3d6d0be4/20231215/i1702623689_4013_0.jpg","https://xcimg.szwego.com/img/3d6d0be4/20231215/i1702623689_2426_0.jpg","https://xcimg.szwego.com/img/3d6d0be4/20231215/i1702623674_4256_0.jpg"],"created_at":"2024-10-22T05:00:12.176Z"},{"id":"item-91672bab3b31","sku":"_dlblbmbvtyZ3bEl9eFxlS5e0L0WH7XLIMviXITA","name_en":"一眼心动的twilly|||到货啦[大笑R],心心念念很喜欢,看到的第一眼,就觉得很惊艳,色彩多但不乱,猫头鹰点睛之笔[赞R],整条丝巾很有活力,特别适合秋冬~搭配大象灰或者纯色,绝绝子。","name_cn":"一眼心动的twilly|||到货啦[大笑R],心心念念很喜欢,看到的第一眼,就觉得很惊艳,色彩多但不乱,猫头鹰点睛之笔[赞R],整条丝巾很有活力,特别适合秋冬~搭配大象灰或者纯色,绝绝子。","specs":{"source":"wsxcme","sourceId":"_dlblbmbvtyZ3bEl9eFxlS5e0L0WH7XLIMviXITA","sourceTagId":76963559,"sourceTagName":"爱马仕/女包","rawTitle":"一眼心动的twilly|||到货啦[大笑R],心心念念很喜欢,看到的第一眼,就觉得很惊艳,色彩多但不乱,猫头鹰点睛之笔[赞R],整条丝巾很有活力,特别适合秋冬~搭配大象灰或者纯色,绝绝子。"},"price":null,"currency":"CNY","moq":1,"category":"hermes-women-bags","status":"active","alibaba_url":null,"images":["https://xcimg.szwego.com/img/3d6d0be4/20231215/i1702623627_4131_0.jpg","https://xcimg.szwego.com/img/3d6d0be4/20231215/i1702623628_447_0.jpg","https://xcimg.szwego.com/img/3d6d0be4/20231215/i1702623628_8189_0.jpg","https://xcimg.szwego.com/img/3d6d0be4/20231215/i1702623628_1648_0.jpg","https://xcimg.szwego.com/img/3d6d0be4/20231215/i1702623628_6139_0.jpg"],"created_at":"2024-10-22T05:00:12.175Z"},{"id":"item-b8e75140fa10","sku":"_dj0j0fSAMqwMH-mSrSVxikOHN0VoU7-iyiOiGUQ","name_en":"哇✨Twilly的用途可太多啦,最多的用途是缠包手柄,长头发的小姐姐可以用来绑头发,超级温柔☺️,夏天可以做小围巾还可以绑到手腕上,非常多用途的一个小饰品,这款更不用说了,绝对是好看到爆炸💥的~","name_cn":"哇✨Twilly的用途可太多啦,最多的用途是缠包手柄,长头发的小姐姐可以用来绑头发,超级温柔☺️,夏天可以做小围巾还可以绑到手腕上,非常多用途的一个小饰品,这款更不用说了,绝对是好看到爆炸💥的~","specs":{"source":"wsxcme","sourceId":"_dj0j0fSAMqwMH-mSrSVxikOHN0VoU7-iyiOiGUQ","sourceTagId":76963559,"sourceTagName":"爱马仕/女包","rawTitle":"哇✨Twilly的用途可太多啦,最多的用途是缠包手柄,长头发的小姐姐可以用来绑头发,超级温柔☺️,夏天可以做小围巾还可以绑到手腕上,非常多用途的一个小饰品,这款更不用说了,绝对是好看到爆炸💥的~"},"price":null,"currency":"CNY","moq":1,"category":"hermes-women-bags","status":"active","alibaba_url":null,"images":["https://xcimg.szwego.com/img/3d6d0be4/20231215/i1702623186_8252_0.jpg","https://xcimg.szwego.com/img/3d6d0be4/20231215/i1702623186_5913_0.jpg","https://xcimg.szwego.com/img/3d6d0be4/20231215/i1702623186_4469_0.jpg","https://xcimg.szwego.com/img/3d6d0be4/20231215/i1702623186_5292_0.jpg","https://xcimg.szwego.com/img/3d6d0be4/20231215/i1702623186_3842_0.jpg"],"created_at":"2024-10-22T05:00:12.174Z"},{"id":"item-07911be91a2e","sku":"_dJtJtPSSSt5hsKKjNF5E5wTwN_Ka8mw1KTcccgQ","name_en":"本季最优白钥匙twilly,配奶昔白有点优秀,一直缺个最优,","name_cn":"本季最优白钥匙twilly,配奶昔白有点优秀,一直缺个最优,\nTwilly上面的点点原来是彩色的,很出彩。","specs":{"source":"wsxcme","sourceId":"_dJtJtPSSSt5hsKKjNF5E5wTwN_Ka8mw1KTcccgQ","sourceTagId":76963559,"sourceTagName":"爱马仕/女包","rawTitle":"本季最优白钥匙twilly,配奶昔白有点优秀,一直缺个最优,\nTwilly上面的点点原来是彩色的,很出彩。"},"price":null,"currency":"CNY","moq":1,"category":"hermes-women-bags","status":"active","alibaba_url":null,"images":["https://xcimg.szwego.com/img/3d6d0be4/20231215/i1702622933_6224_0.jpg","https://xcimg.szwego.com/img/3d6d0be4/20231215/i1702623166_7423_0.jpg","https://xcimg.szwego.com/img/3d6d0be4/20231215/i1702622933_3216_0.jpg","https://xcimg.szwego.com/img/3d6d0be4/20231215/i1702623166_8958_0.jpg","https://xcimg.szwego.com/img/3d6d0be4/20231215/i1702623166_8459_0.jpg"],"created_at":"2024-10-22T05:00:12.173Z"}],"page":340,"pageSize":24,"total":10075,"totalPages":420}
