{"items":[{"id":"item-d2483c80dc2d","sku":"_dU5U5vo7m-xlY3b2lSejJKRjldq7kNw9WzQbduA","name_en":"Dior Women Bags","name_cn":"新款戴妃🌟羊皮系列\n 这款 Lady D-Joy 手袋诠释了 Dior 对典雅和美丽的深刻洞见。高雅经典的款式,采用裸粉色羊皮革精心制作,搭配浅金色饰面金属“D.I.O.R.”吊饰提升格调,为精美的轮廓增添一分灵动。搭配一条可拆卸的链条肩带和一条可调节、可拆卸的皮革肩带,可手提、肩背或斜挎,是日常造型的理想之选。\n尺寸16.5cm\n9230","specs":{"source":"wsxcme","sourceId":"_dU5U5vo7m-xlY3b2lSejJKRjldq7kNw9WzQbduA","sourceTagId":47002747,"sourceTagName":"迪奥/女包","rawTitle":"新款戴妃🌟羊皮系列\n 这款 Lady D-Joy 手袋诠释了 Dior 对典雅和美丽的深刻洞见。高雅经典的款式,采用裸粉色羊皮革精心制作,搭配浅金色饰面金属“D.I.O.R.”吊饰提升格调,为精美的轮廓增添一分灵动。搭配一条可拆卸的链条肩带和一条可调节、可拆卸的皮革肩带,可手提、肩背或斜挎,是日常造型的理想之选。\n尺寸16.5cm\n9230"},"price":null,"currency":"CNY","moq":1,"category":"dior-women-bags","status":"active","alibaba_url":null,"images":["https://xcimg.szwego.com/20230509/i1683611661_4805_0.jpg","https://xcimg.szwego.com/20230509/i1683611661_8272_1.jpg","https://xcimg.szwego.com/20230509/i1683611661_509_2.jpg","https://xcimg.szwego.com/20230509/i1683611661_6596_3.jpg","https://xcimg.szwego.com/20230509/i1683611661_7696_4.jpg","https://xcimg.szwego.com/20230509/i1683611661_5126_5.jpg","https://xcimg.szwego.com/20230509/i1683611661_6669_6.jpg","https://xcimg.szwego.com/20230509/i1683611661_1954_7.jpg","https://xcimg.szwego.com/20230509/i1683611661_3976_8.jpg"],"created_at":"2024-11-11T09:13:16.952Z"},{"id":"item-c8930057708d","sku":"_dfNfNsD7WSRZ7ihJapT9giDUq6JrZ25NhE0DWeA","name_en":"Lady dior四格羊皮戴妃包","name_cn":"Lady dior四格羊皮戴妃包\n💕牡丹粉最新配色\n💕好浪漫的颜色\n💕真的很治愈","specs":{"source":"wsxcme","sourceId":"_dfNfNsD7WSRZ7ihJapT9giDUq6JrZ25NhE0DWeA","sourceTagId":47002747,"sourceTagName":"迪奥/女包","rawTitle":"Lady dior四格羊皮戴妃包\n💕牡丹粉最新配色\n💕好浪漫的颜色\n💕真的很治愈"},"price":null,"currency":"CNY","moq":1,"category":"dior-women-bags","status":"active","alibaba_url":null,"images":["https://xcimg.szwego.com/20221130/i1669778013_5671_0.jpg","https://xcimg.szwego.com/20221130/i1669778013_685_1.jpg","https://xcimg.szwego.com/20221130/i1669778013_8965_2.jpg","https://xcimg.szwego.com/20221130/i1669778013_9443_3.jpg","https://xcimg.szwego.com/20221130/i1669778013_5560_4.jpg","https://xcimg.szwego.com/20221130/i1669778013_6478_5.jpg"],"created_at":"2024-11-11T09:13:16.951Z"},{"id":"item-a889026d1498","sku":"_dx7x7AsoQhe8PEjrOsH2bf1hRjZa8qBDgKgHCHg","name_en":"Dior Women Bags","name_cn":"❑ 细节图 ❒ 牡丹粉 ✔︎\n\nDior Lady 四格字母肩带®️送31个字母 可以组名字~定制一个专属你自己的戴妃吧!容量也可 日常带的东西都可以满足~偷偷说一声 搭配一条丝巾更加好看哦~\n6604\n尺寸:20×9×17CM","specs":{"source":"wsxcme","sourceId":"_dx7x7AsoQhe8PEjrOsH2bf1hRjZa8qBDgKgHCHg","sourceTagId":47002747,"sourceTagName":"迪奥/女包","dimensions":{"lengthCm":20,"heightCm":9,"widthCm":17},"rawTitle":"❑ 细节图 ❒ 牡丹粉 ✔︎\n\nDior Lady 四格字母肩带®️送31个字母 可以组名字~定制一个专属你自己的戴妃吧!容量也可 日常带的东西都可以满足~偷偷说一声 搭配一条丝巾更加好看哦~\n6604\n尺寸:20×9×17CM"},"price":null,"currency":"CNY","moq":1,"category":"dior-women-bags","status":"active","alibaba_url":null,"images":["https://xcimg.szwego.com/20221207/i1670397600_1808_0.jpg","https://xcimg.szwego.com/20221207/i1670397600_8543_1.jpg","https://xcimg.szwego.com/20221207/i1670397600_148_2.jpg","https://xcimg.szwego.com/20221207/i1670397600_3930_3.jpg","https://xcimg.szwego.com/20221207/i1670397600_4339_4.jpg","https://xcimg.szwego.com/20221207/i1670397600_5386_5.jpg","https://xcimg.szwego.com/20221207/i1670397600_8968_6.jpg","https://xcimg.szwego.com/20221207/i1670397600_7578_7.jpg"],"created_at":"2024-11-11T09:13:16.950Z"},{"id":"item-be9dd1eb5a09","sku":"_dk5k5uOn4pGmlwNRG98dl2tLGacG1GbGg-ZFpNg","name_en":"DIOR Lady 横版戴妃!!️","name_cn":"DIOR Lady 横版戴妃!!️ \nLady D-Joy 手袋诠释了 Dior 对典雅和美丽的深刻洞见。高雅经典的款式,采用奶白色钻石藤格纹缉面线羊皮革精心制作,搭配浅金色饰面金属“D.I.O.R.”吊饰提升格调,为精美的轮廓增添一分灵动。搭配一条可拆卸的链条肩带和一条可调节、可拆卸的皮革肩带,可手提、肩背或斜挎,是日常造型的理想之选。\n\n尺寸: 26 x 13.5 x 5 cm\n9250","specs":{"source":"wsxcme","sourceId":"_dk5k5uOn4pGmlwNRG98dl2tLGacG1GbGg-ZFpNg","sourceTagId":47002747,"sourceTagName":"迪奥/女包","dimensions":{"lengthCm":26,"heightCm":13.5,"widthCm":5},"rawTitle":"DIOR Lady 横版戴妃!!️ \nLady D-Joy 手袋诠释了 Dior 对典雅和美丽的深刻洞见。高雅经典的款式,采用奶白色钻石藤格纹缉面线羊皮革精心制作,搭配浅金色饰面金属“D.I.O.R.”吊饰提升格调,为精美的轮廓增添一分灵动。搭配一条可拆卸的链条肩带和一条可调节、可拆卸的皮革肩带,可手提、肩背或斜挎,是日常造型的理想之选。\n\n尺寸: 26 x 13.5 x 5 cm\n9250"},"price":null,"currency":"CNY","moq":1,"category":"dior-women-bags","status":"active","alibaba_url":null,"images":["https://xcimg.szwego.com/20220318/i1647595884_4219_0.jpg","https://xcimg.szwego.com/20220318/i1647595884_9228_1.jpg","https://xcimg.szwego.com/20220318/i1647595884_7292_2.jpg","https://xcimg.szwego.com/20220318/i1647595884_4583_3.jpg","https://xcimg.szwego.com/20220318/i1647595884_8420_4.jpg","https://xcimg.szwego.com/20220318/i1647595884_7987_5.jpg","https://xcimg.szwego.com/20220318/i1647595884_5943_6.jpg","https://xcimg.szwego.com/20220318/i1647595884_1665_7.jpg","https://xcimg.szwego.com/20220318/i1647595884_8606_8.jpg"],"created_at":"2024-11-11T09:13:16.949Z"},{"id":"item-1602f7f0322a","sku":"_dWpWpsPbAcuRoFirtDYuWut13BpDWCIDJwxvNcw","name_en":"Dior白雪公主横版戴妃🔜","name_cn":"Dior白雪公主横版戴妃🔜\n这只拿到手惊呼太仙女了叭 \n只有dior才能做出如此lady的包❕❕❕","specs":{"source":"wsxcme","sourceId":"_dWpWpsPbAcuRoFirtDYuWut13BpDWCIDJwxvNcw","sourceTagId":47002747,"sourceTagName":"迪奥/女包","rawTitle":"Dior白雪公主横版戴妃🔜\n这只拿到手惊呼太仙女了叭 \n只有dior才能做出如此lady的包❕❕❕"},"price":null,"currency":"CNY","moq":1,"category":"dior-women-bags","status":"active","alibaba_url":null,"images":["https://xcimg.szwego.com/20220318/i1647596213_8932_0.jpg","https://xcimg.szwego.com/20220318/i1647596213_7862_1.jpg","https://xcimg.szwego.com/20220318/i1647596213_7051_2.jpg","https://xcimg.szwego.com/20220318/i1647596213_6107_3.jpg","https://xcimg.szwego.com/20220318/i1647596213_9319_4.jpg","https://xcimg.szwego.com/20220318/i1647596213_881_5.jpg","https://xcimg.szwego.com/20220318/i1647596213_4775_6.jpg","https://xcimg.szwego.com/20220318/i1647596213_778_7.jpg","https://xcimg.szwego.com/20220318/i1647596213_8971_8.jpg"],"created_at":"2024-11-11T09:13:16.948Z"},{"id":"item-4d0082d81bc5","sku":"_ddCdCCKp0NorC63izGfxU48eZG5Ifj4XFiFvgDw","name_en":"Dior Women Bags","name_cn":"有钻石白\nDior D-Joy bag\n时尚果然就是轮回,回归了一把中古戴妃\n特殊处理的哑光牛皮钻石藤格纹,八个切割面挺括有型,全套磨砂材质五金,长方包形短链条➕细长肩带直接封神!!\n复古时髦感超强,真是什么场合都可以把住\n绝对是lady中的天花板了,强势出圈啦姐妹们\n\n26 x 13.5 x 5cm","specs":{"source":"wsxcme","sourceId":"_ddCdCCKp0NorC63izGfxU48eZG5Ifj4XFiFvgDw","sourceTagId":47002747,"sourceTagName":"迪奥/女包","rawTitle":"有钻石白\nDior D-Joy bag\n时尚果然就是轮回,回归了一把中古戴妃\n特殊处理的哑光牛皮钻石藤格纹,八个切割面挺括有型,全套磨砂材质五金,长方包形短链条➕细长肩带直接封神!!\n复古时髦感超强,真是什么场合都可以把住\n绝对是lady中的天花板了,强势出圈啦姐妹们\n\n26 x 13.5 x 5cm"},"price":null,"currency":"CNY","moq":1,"category":"dior-women-bags","status":"active","alibaba_url":null,"images":["https://xcimg.szwego.com/20220425/i1650887990_4786_0.jpg","https://xcimg.szwego.com/20220425/i1650888216_7065_0.jpg","https://xcimg.szwego.com/20220425/i1650887876_2201_2.jpg","https://xcimg.szwego.com/20220425/i1650887876_7497_8.jpg","https://xcimg.szwego.com/20220425/i1650887876_9135_4.jpg","https://xcimg.szwego.com/20220425/i1650887876_4818_7.jpg","https://xcimg.szwego.com/20220425/i1650887876_6667_3.jpg","https://xcimg.szwego.com/20220425/i1650888182_280_0.jpg"],"created_at":"2024-11-11T09:13:16.947Z"},{"id":"item-f39f7ae16d22","sku":"_dxgxgvaqjwmenBL_cIBxPGrMoh_pRgtoXv_0-nQ","name_en":"【黑色巴黎💯五格刺绣戴妃】Lᴀᴅʏ刺绣戴妃包“Cʜʀɪsᴛɪᴀɴ Dɪᴏʀ”标志时尚而柔美。饰以标志性“D.I.O.R.”吊饰,为精美的轮廓增添一分灵动。搭配大号可拆卸双面刺绣肩带,可随心选择背挎方式。可拆卸双面刺绣宽肩带,内部拉链口袋和贴袋,可手提、肩背或斜挎,可随心搭配其他刺绣肩带。","name_cn":"【黑色巴黎💯五格刺绣戴妃】Lᴀᴅʏ刺绣戴妃包“Cʜʀɪsᴛɪᴀɴ Dɪᴏʀ”标志时尚而柔美。饰以标志性“D.I.O.R.”吊饰,为精美的轮廓增添一分灵动。搭配大号可拆卸双面刺绣肩带,可随心选择背挎方式。可拆卸双面刺绣宽肩带,内部拉链口袋和贴袋,可手提、肩背或斜挎,可随心搭配其他刺绣肩带。\n尺寸:24 厘米 x 20 厘米 x 11 厘米\n款号:9027","specs":{"source":"wsxcme","sourceId":"_dxgxgvaqjwmenBL_cIBxPGrMoh_pRgtoXv_0-nQ","sourceTagId":47002747,"sourceTagName":"迪奥/女包","modelNumber":"9027","rawTitle":"【黑色巴黎💯五格刺绣戴妃】Lᴀᴅʏ刺绣戴妃包“Cʜʀɪsᴛɪᴀɴ Dɪᴏʀ”标志时尚而柔美。饰以标志性“D.I.O.R.”吊饰,为精美的轮廓增添一分灵动。搭配大号可拆卸双面刺绣肩带,可随心选择背挎方式。可拆卸双面刺绣宽肩带,内部拉链口袋和贴袋,可手提、肩背或斜挎,可随心搭配其他刺绣肩带。\n尺寸:24 厘米 x 20 厘米 x 11 厘米\n款号:9027"},"price":null,"currency":"CNY","moq":1,"category":"dior-women-bags","status":"active","alibaba_url":null,"images":["https://xcimg.szwego.com/20230508/i1683550841_6652_0.jpg","https://xcimg.szwego.com/20230508/i1683550841_1395_1.jpg","https://xcimg.szwego.com/20230508/i1683550841_2007_2.jpg","https://xcimg.szwego.com/20230508/i1683550841_3196_3.jpg","https://xcimg.szwego.com/20230508/i1683550841_291_4.jpg","https://xcimg.szwego.com/20230508/i1683550841_9914_5.jpg","https://xcimg.szwego.com/20230508/i1683550841_1561_6.jpg","https://xcimg.szwego.com/20230508/i1683550841_1836_7.jpg","https://xcimg.szwego.com/20230508/i1683550841_8436_8.jpg"],"created_at":"2024-11-11T09:13:16.946Z"},{"id":"item-d281d6035e28","sku":"_dnInIFwtEzJOuWxkrc4bCGrrsoBJzJ00aqOW0gw","name_en":"【白色巴黎💯五格刺绣戴妃】Lᴀᴅʏ刺绣戴妃包“Cʜʀɪsᴛɪᴀɴ Dɪᴏʀ”标志时尚而柔美。饰以标志性“D.I.O.R.”吊饰,为精美的轮廓增添一分灵动。搭配大号可拆卸双面刺绣肩带,可随心选择背挎方式。可拆卸双面刺绣宽肩带,内部拉链口袋和贴袋,可手提、肩背或斜挎,可随心搭配其他刺绣肩带。","name_cn":"【白色巴黎💯五格刺绣戴妃】Lᴀᴅʏ刺绣戴妃包“Cʜʀɪsᴛɪᴀɴ Dɪᴏʀ”标志时尚而柔美。饰以标志性“D.I.O.R.”吊饰,为精美的轮廓增添一分灵动。搭配大号可拆卸双面刺绣肩带,可随心选择背挎方式。可拆卸双面刺绣宽肩带,内部拉链口袋和贴袋,可手提、肩背或斜挎,可随心搭配其他刺绣肩带。\n尺寸:24 厘米 x 20 厘米 x 11 厘米\n款号:9027","specs":{"source":"wsxcme","sourceId":"_dnInIFwtEzJOuWxkrc4bCGrrsoBJzJ00aqOW0gw","sourceTagId":47002747,"sourceTagName":"迪奥/女包","modelNumber":"9027","rawTitle":"【白色巴黎💯五格刺绣戴妃】Lᴀᴅʏ刺绣戴妃包“Cʜʀɪsᴛɪᴀɴ Dɪᴏʀ”标志时尚而柔美。饰以标志性“D.I.O.R.”吊饰,为精美的轮廓增添一分灵动。搭配大号可拆卸双面刺绣肩带,可随心选择背挎方式。可拆卸双面刺绣宽肩带,内部拉链口袋和贴袋,可手提、肩背或斜挎,可随心搭配其他刺绣肩带。\n尺寸:24 厘米 x 20 厘米 x 11 厘米\n款号:9027"},"price":null,"currency":"CNY","moq":1,"category":"dior-women-bags","status":"active","alibaba_url":null,"images":["https://xcimg.szwego.com/20230508/i1683550809_3029_0.jpg","https://xcimg.szwego.com/20230508/i1683550809_2869_1.jpg","https://xcimg.szwego.com/20230508/i1683550809_2084_2.jpg","https://xcimg.szwego.com/20230508/i1683550809_6317_3.jpg","https://xcimg.szwego.com/20230508/i1683550809_6097_4.jpg","https://xcimg.szwego.com/20230508/i1683550809_5807_5.jpg","https://xcimg.szwego.com/20230508/i1683550809_8014_6.jpg","https://xcimg.szwego.com/20230508/i1683550809_2687_7.jpg","https://xcimg.szwego.com/20230508/i1683550809_590_8.jpg"],"created_at":"2024-11-11T09:13:16.945Z"},{"id":"item-847994ecb581","sku":"_dj_j_5STf89dTBXe7sJ5ypghMfNMVE9shwjYspg","name_en":"【黑色巴黎💯三格刺绣戴妃】Lᴀᴅʏ刺绣戴妃包“Cʜʀɪsᴛɪᴀɴ Dɪᴏʀ”标志时尚而柔美。饰以标志性“D.I.O.R.”吊饰,为精美的轮廓增添一分灵动。搭配大号可拆卸双面刺绣肩带,可随心选择背挎方式。可拆卸双面刺绣宽肩带,内部拉链口袋和贴袋,可手提、肩背或斜挎,可随心搭配其他刺绣肩带。","name_cn":"【黑色巴黎💯三格刺绣戴妃】Lᴀᴅʏ刺绣戴妃包“Cʜʀɪsᴛɪᴀɴ Dɪᴏʀ”标志时尚而柔美。饰以标志性“D.I.O.R.”吊饰,为精美的轮廓增添一分灵动。搭配大号可拆卸双面刺绣肩带,可随心选择背挎方式。可拆卸双面刺绣宽肩带,内部拉链口袋和贴袋,可手提、肩背或斜挎,可随心搭配其他刺绣肩带。\n尺寸:17×7.5×14cm\n款号:9028","specs":{"source":"wsxcme","sourceId":"_dj_j_5STf89dTBXe7sJ5ypghMfNMVE9shwjYspg","sourceTagId":47002747,"sourceTagName":"迪奥/女包","modelNumber":"9028","dimensions":{"lengthCm":17,"heightCm":7.5,"widthCm":14},"rawTitle":"【黑色巴黎💯三格刺绣戴妃】Lᴀᴅʏ刺绣戴妃包“Cʜʀɪsᴛɪᴀɴ Dɪᴏʀ”标志时尚而柔美。饰以标志性“D.I.O.R.”吊饰,为精美的轮廓增添一分灵动。搭配大号可拆卸双面刺绣肩带,可随心选择背挎方式。可拆卸双面刺绣宽肩带,内部拉链口袋和贴袋,可手提、肩背或斜挎,可随心搭配其他刺绣肩带。\n尺寸:17×7.5×14cm\n款号:9028"},"price":null,"currency":"CNY","moq":1,"category":"dior-women-bags","status":"active","alibaba_url":null,"images":["https://xcimg.szwego.com/20230508/i1683550764_2197_0.jpg","https://xcimg.szwego.com/20230508/i1683550764_7781_1.jpg","https://xcimg.szwego.com/20230508/i1683550764_7301_2.jpg","https://xcimg.szwego.com/20230508/i1683550764_7242_3.jpg","https://xcimg.szwego.com/20230508/i1683550764_7845_4.jpg","https://xcimg.szwego.com/20230508/i1683550764_693_5.jpg","https://xcimg.szwego.com/20230508/i1683550764_6285_6.jpg","https://xcimg.szwego.com/20230508/i1683550764_5575_7.jpg","https://xcimg.szwego.com/20230508/i1683550764_4574_8.jpg"],"created_at":"2024-11-11T09:13:16.944Z"},{"id":"item-90ba7eae18ef","sku":"_d-t-tGndabzqeRTnbZ6SLL5eQTNw_Rl-kxJcSrg","name_en":"【白色巴黎💯三格刺绣戴妃】Lᴀᴅʏ刺绣戴妃包“Cʜʀɪsᴛɪᴀɴ Dɪᴏʀ”标志时尚而柔美。饰以标志性“D.I.O.R.”吊饰,为精美的轮廓增添一分灵动。搭配大号可拆卸双面刺绣肩带,可随心选择背挎方式。可拆卸双面刺绣宽肩带,内部拉链口袋和贴袋,可手提、肩背或斜挎,可随心搭配其他刺绣肩带。","name_cn":"【白色巴黎💯三格刺绣戴妃】Lᴀᴅʏ刺绣戴妃包“Cʜʀɪsᴛɪᴀɴ Dɪᴏʀ”标志时尚而柔美。饰以标志性“D.I.O.R.”吊饰,为精美的轮廓增添一分灵动。搭配大号可拆卸双面刺绣肩带,可随心选择背挎方式。可拆卸双面刺绣宽肩带,内部拉链口袋和贴袋,可手提、肩背或斜挎,可随心搭配其他刺绣肩带。\n尺寸:17×7.5×14cm\n款号:9028","specs":{"source":"wsxcme","sourceId":"_d-t-tGndabzqeRTnbZ6SLL5eQTNw_Rl-kxJcSrg","sourceTagId":47002747,"sourceTagName":"迪奥/女包","modelNumber":"9028","dimensions":{"lengthCm":17,"heightCm":7.5,"widthCm":14},"rawTitle":"【白色巴黎💯三格刺绣戴妃】Lᴀᴅʏ刺绣戴妃包“Cʜʀɪsᴛɪᴀɴ Dɪᴏʀ”标志时尚而柔美。饰以标志性“D.I.O.R.”吊饰,为精美的轮廓增添一分灵动。搭配大号可拆卸双面刺绣肩带,可随心选择背挎方式。可拆卸双面刺绣宽肩带,内部拉链口袋和贴袋,可手提、肩背或斜挎,可随心搭配其他刺绣肩带。\n尺寸:17×7.5×14cm\n款号:9028"},"price":null,"currency":"CNY","moq":1,"category":"dior-women-bags","status":"active","alibaba_url":null,"images":["https://xcimg.szwego.com/20230508/i1683550721_3402_0.jpg","https://xcimg.szwego.com/20230508/i1683550721_8092_1.jpg","https://xcimg.szwego.com/20230508/i1683550721_2362_2.jpg","https://xcimg.szwego.com/20230508/i1683550721_8996_3.jpg","https://xcimg.szwego.com/20230508/i1683550721_8639_4.jpg","https://xcimg.szwego.com/20230508/i1683550721_5881_5.jpg","https://xcimg.szwego.com/20230508/i1683550721_7729_6.jpg","https://xcimg.szwego.com/20230508/i1683550721_6735_7.jpg","https://xcimg.szwego.com/20230508/i1683550721_1369_8.jpg"],"created_at":"2024-11-11T09:13:16.943Z"},{"id":"item-c561bad2eb2a","sku":"_dk4k4r2UFZFeWmRwYZ8l9rPrA5BpXnXUPoOwNUA","name_en":"Dior Women Bags","name_cn":"【横版戴妃包】皮白巴黎💯\n全新Lady D−Joy包包,很多人应该都被这只窄版戴妃包吸引住了。大爆款的节奏🔥,包包自带一长一短两根肩带,多种背法🙋🏻‍♀️,可斜挎可腋下,上身又美又飒,时尚巴黎图案的设计🥅,搭配光面的小牛皮,优雅又时尚🌿\nsize:26*6*14cm \n型号:9031","specs":{"source":"wsxcme","sourceId":"_dk4k4r2UFZFeWmRwYZ8l9rPrA5BpXnXUPoOwNUA","sourceTagId":47002747,"sourceTagName":"迪奥/女包","modelNumber":"9031","rawTitle":"【横版戴妃包】皮白巴黎💯\n全新Lady D−Joy包包,很多人应该都被这只窄版戴妃包吸引住了。大爆款的节奏🔥,包包自带一长一短两根肩带,多种背法🙋🏻‍♀️,可斜挎可腋下,上身又美又飒,时尚巴黎图案的设计🥅,搭配光面的小牛皮,优雅又时尚🌿\nsize:26*6*14cm \n型号:9031"},"price":null,"currency":"CNY","moq":1,"category":"dior-women-bags","status":"active","alibaba_url":null,"images":["https://xcimg.szwego.com/20230521/i1684674014_3680_0.jpg","https://xcimg.szwego.com/20230521/i1684674014_7919_1.jpg","https://xcimg.szwego.com/20230521/i1684674014_2629_2.jpg","https://xcimg.szwego.com/20230521/i1684674014_811_3.jpg","https://xcimg.szwego.com/20230521/i1684674014_1244_4.jpg","https://xcimg.szwego.com/20230521/i1684674014_3847_5.jpg","https://xcimg.szwego.com/20230521/i1684674014_7364_6.jpg","https://xcimg.szwego.com/20230521/i1684674014_7984_7.jpg","https://xcimg.szwego.com/20230521/i1684674014_4378_8.jpg"],"created_at":"2024-11-11T09:13:16.942Z"},{"id":"item-4585d1fc5c86","sku":"_dAqAqMWAfJR6-4KjcCuuefZv14__jU5DcIIrKIw","name_en":"Dior Women Bags","name_cn":"复古粉现货!!️\n原厂配羊绒内里✔️Classic Lady戴妃包,人手一个必备的三格小包😍。迷人优雅又气场十足💃🏻,斜挎手拎也是女人味十足,经典时尚风格。ins和众多时尚icon都人手一个的美包,别错过哦❤️\nsize:17cm","specs":{"source":"wsxcme","sourceId":"_dAqAqMWAfJR6-4KjcCuuefZv14__jU5DcIIrKIw","sourceTagId":47002747,"sourceTagName":"迪奥/女包","rawTitle":"复古粉现货!!️\n原厂配羊绒内里✔️Classic Lady戴妃包,人手一个必备的三格小包😍。迷人优雅又气场十足💃🏻,斜挎手拎也是女人味十足,经典时尚风格。ins和众多时尚icon都人手一个的美包,别错过哦❤️\nsize:17cm"},"price":null,"currency":"CNY","moq":1,"category":"dior-women-bags","status":"active","alibaba_url":null,"images":["https://xcimg.szwego.com/20230531/i1685520719_5020_0.jpg","https://xcimg.szwego.com/20230531/i1685520719_2757_1.jpg","https://xcimg.szwego.com/20230531/i1685520719_3544_2.jpg","https://xcimg.szwego.com/20230531/i1685520719_4496_3.jpg","https://xcimg.szwego.com/20230531/i1685520719_9354_4.jpg","https://xcimg.szwego.com/20230531/i1685520719_2807_5.jpg","https://xcimg.szwego.com/20230531/i1685520719_3844_6.jpg","https://xcimg.szwego.com/20230531/i1685520719_2461_7.jpg","https://xcimg.szwego.com/20230531/i1685520719_7432_8.jpg"],"created_at":"2024-11-11T09:13:16.941Z"},{"id":"item-a5663a839fee","sku":"_dk1k1SMWsA3MSs7JRUJ8mjEnmTkrDxMezOBc4gw","name_en":"Dior Women Bags","name_cn":"牡丹紫现货!!️\n原厂配羊绒内里✔️Classic Lady戴妃包,人手一个必备的三格小包😍。迷人优雅又气场十足💃🏻,斜挎手拎也是女人味十足,经典时尚风格。ins和众多时尚icon都人手一个的美包,别错过哦❤️\nsize:17cm","specs":{"source":"wsxcme","sourceId":"_dk1k1SMWsA3MSs7JRUJ8mjEnmTkrDxMezOBc4gw","sourceTagId":47002747,"sourceTagName":"迪奥/女包","rawTitle":"牡丹紫现货!!️\n原厂配羊绒内里✔️Classic Lady戴妃包,人手一个必备的三格小包😍。迷人优雅又气场十足💃🏻,斜挎手拎也是女人味十足,经典时尚风格。ins和众多时尚icon都人手一个的美包,别错过哦❤️\nsize:17cm"},"price":null,"currency":"CNY","moq":1,"category":"dior-women-bags","status":"active","alibaba_url":null,"images":["https://xcimg.szwego.com/20230531/i1685520670_7318_0.jpg","https://xcimg.szwego.com/20230531/i1685520670_4437_1.jpg","https://xcimg.szwego.com/20230531/i1685520670_3897_2.jpg","https://xcimg.szwego.com/20230531/i1685520670_216_3.jpg","https://xcimg.szwego.com/20230531/i1685520670_8118_4.jpg","https://xcimg.szwego.com/20230531/i1685520670_5465_5.jpg","https://xcimg.szwego.com/20230531/i1685520670_7089_6.jpg","https://xcimg.szwego.com/20230531/i1685520670_5482_7.jpg","https://xcimg.szwego.com/20230531/i1685520670_9912_8.jpg"],"created_at":"2024-11-11T09:13:16.940Z"},{"id":"item-71afacef9a4e","sku":"_drGrGlAaz0m_0yd2qJFXLK6f0sU2yRwkEbO6gOQ","name_en":"Dior Women Bags","name_cn":"灰乳白现货!!️\n原厂配羊绒内里✔️Classic Lady戴妃包,人手一个必备的三格小包😍。迷人优雅又气场十足💃🏻,斜挎手拎也是女人味十足,经典时尚风格。ins和众多时尚icon都人手一个的美包,别错过哦❤️\nsize:17cm","specs":{"source":"wsxcme","sourceId":"_drGrGlAaz0m_0yd2qJFXLK6f0sU2yRwkEbO6gOQ","sourceTagId":47002747,"sourceTagName":"迪奥/女包","rawTitle":"灰乳白现货!!️\n原厂配羊绒内里✔️Classic Lady戴妃包,人手一个必备的三格小包😍。迷人优雅又气场十足💃🏻,斜挎手拎也是女人味十足,经典时尚风格。ins和众多时尚icon都人手一个的美包,别错过哦❤️\nsize:17cm"},"price":null,"currency":"CNY","moq":1,"category":"dior-women-bags","status":"active","alibaba_url":null,"images":["https://xcimg.szwego.com/20230531/i1685520568_1598_0.jpg","https://xcimg.szwego.com/20230531/i1685520568_6945_1.jpg","https://xcimg.szwego.com/20230531/i1685520568_9357_2.jpg","https://xcimg.szwego.com/20230531/i1685520568_743_3.jpg","https://xcimg.szwego.com/20230531/i1685520568_4567_4.jpg","https://xcimg.szwego.com/20230531/i1685520568_1075_5.jpg","https://xcimg.szwego.com/20230531/i1685520568_1305_6.jpg","https://xcimg.szwego.com/20230531/i1685520568_6705_7.jpg","https://xcimg.szwego.com/20230531/i1685520568_7484_8.jpg"],"created_at":"2024-11-11T09:13:16.939Z"},{"id":"item-51f4b687786e","sku":"_dPPPP8rKgnBosed7xwuvTCcLSuwBH4vUnn81Wzg","name_en":"Dior Women Bags","name_cn":"灰绿色现货!!️\n原厂配羊绒内里✔️小伙伴们心心念念的Lady戴妃终于出四格了❤️,这个大小介于三格和五格之间,既实用又精致😌,上身又亮眼夺目,可优雅可休闲,是各种造型的最佳选择👏🏻\nsize:20cm","specs":{"source":"wsxcme","sourceId":"_dPPPP8rKgnBosed7xwuvTCcLSuwBH4vUnn81Wzg","sourceTagId":47002747,"sourceTagName":"迪奥/女包","rawTitle":"灰绿色现货!!️\n原厂配羊绒内里✔️小伙伴们心心念念的Lady戴妃终于出四格了❤️,这个大小介于三格和五格之间,既实用又精致😌,上身又亮眼夺目,可优雅可休闲,是各种造型的最佳选择👏🏻\nsize:20cm"},"price":null,"currency":"CNY","moq":1,"category":"dior-women-bags","status":"active","alibaba_url":null,"images":["https://xcimg.szwego.com/20230531/i1685520433_949_0.jpg","https://xcimg.szwego.com/20230531/i1685520433_5937_1.jpg","https://xcimg.szwego.com/20230531/i1685520433_9998_2.jpg","https://xcimg.szwego.com/20230531/i1685520433_3241_3.jpg","https://xcimg.szwego.com/20230531/i1685520433_3449_4.jpg","https://xcimg.szwego.com/20230531/i1685520433_4632_5.jpg","https://xcimg.szwego.com/20230531/i1685520433_8295_6.jpg","https://xcimg.szwego.com/20230531/i1685520433_512_7.jpg","https://xcimg.szwego.com/20230531/i1685520433_4599_8.jpg"],"created_at":"2024-11-11T09:13:16.938Z"},{"id":"item-939ed9e7d92c","sku":"_dOhOh7IJB3pWJiRnAPMoI8mMhQngtybtN6lYhhA","name_en":"Dior Women Bags","name_cn":"胭脂粉现货!!️\n原厂配羊绒内里✔️小伙伴们心心念念的Lady戴妃终于出四格了❤️,这个大小介于三格和五格之间,既实用又精致😌,上身又亮眼夺目,可优雅可休闲,是各种造型的最佳选择👏🏻\nsize:20cm","specs":{"source":"wsxcme","sourceId":"_dOhOh7IJB3pWJiRnAPMoI8mMhQngtybtN6lYhhA","sourceTagId":47002747,"sourceTagName":"迪奥/女包","rawTitle":"胭脂粉现货!!️\n原厂配羊绒内里✔️小伙伴们心心念念的Lady戴妃终于出四格了❤️,这个大小介于三格和五格之间,既实用又精致😌,上身又亮眼夺目,可优雅可休闲,是各种造型的最佳选择👏🏻\nsize:20cm"},"price":null,"currency":"CNY","moq":1,"category":"dior-women-bags","status":"active","alibaba_url":null,"images":["https://xcimg.szwego.com/20230531/i1685520369_7277_0.jpg","https://xcimg.szwego.com/20230531/i1685520369_2105_1.jpg","https://xcimg.szwego.com/20230531/i1685520369_6988_2.jpg","https://xcimg.szwego.com/20230531/i1685520369_2293_3.jpg","https://xcimg.szwego.com/20230531/i1685520369_5802_4.jpg","https://xcimg.szwego.com/20230531/i1685520369_6880_5.jpg","https://xcimg.szwego.com/20230531/i1685520369_8762_6.jpg","https://xcimg.szwego.com/20230531/i1685520369_7233_7.jpg","https://xcimg.szwego.com/20230531/i1685520369_5049_8.jpg"],"created_at":"2024-11-11T09:13:16.937Z"},{"id":"item-d61da63cc808","sku":"_dCsCsLk8VgYvhy8jq0iIARY_VWGsaBaKL4K9Lzw","name_en":"Dior Women Bags","name_cn":"灰乳白现货!!️\n原厂配羊绒内里✔️小伙伴们心心念念的Lady戴妃终于出四格了❤️,这个大小介于三格和五格之间,既实用又精致😌,上身又亮眼夺目,可优雅可休闲,是各种造型的最佳选择👏🏻\nsize:20cm","specs":{"source":"wsxcme","sourceId":"_dCsCsLk8VgYvhy8jq0iIARY_VWGsaBaKL4K9Lzw","sourceTagId":47002747,"sourceTagName":"迪奥/女包","rawTitle":"灰乳白现货!!️\n原厂配羊绒内里✔️小伙伴们心心念念的Lady戴妃终于出四格了❤️,这个大小介于三格和五格之间,既实用又精致😌,上身又亮眼夺目,可优雅可休闲,是各种造型的最佳选择👏🏻\nsize:20cm"},"price":null,"currency":"CNY","moq":1,"category":"dior-women-bags","status":"active","alibaba_url":null,"images":["https://xcimg.szwego.com/20230531/i1685520276_6600_0.jpg","https://xcimg.szwego.com/20230531/i1685520276_1681_1.jpg","https://xcimg.szwego.com/20230531/i1685520276_3752_2.jpg","https://xcimg.szwego.com/20230531/i1685520276_4407_3.jpg","https://xcimg.szwego.com/20230531/i1685520276_1653_4.jpg","https://xcimg.szwego.com/20230531/i1685520276_4290_5.jpg","https://xcimg.szwego.com/20230531/i1685520276_7349_6.jpg","https://xcimg.szwego.com/20230531/i1685520276_9353_7.jpg","https://xcimg.szwego.com/20230531/i1685520276_6274_8.jpg"],"created_at":"2024-11-11T09:13:16.936Z"},{"id":"item-e026d5ecb225","sku":"_dO5O5R2jU7if60EfyQ0JTsH2S0C5niEAB77nx4A","name_en":"Dior Women Bags","name_cn":"白色现货!!️\n原厂配羊绒内里✔️小伙伴们心心念念的Lady戴妃终于出四格了❤️,这个大小介于三格和五格之间,既实用又精致😌,上身又亮眼夺目,可优雅可休闲,是各种造型的最佳选择👏🏻\nsize:20cm","specs":{"source":"wsxcme","sourceId":"_dO5O5R2jU7if60EfyQ0JTsH2S0C5niEAB77nx4A","sourceTagId":47002747,"sourceTagName":"迪奥/女包","rawTitle":"白色现货!!️\n原厂配羊绒内里✔️小伙伴们心心念念的Lady戴妃终于出四格了❤️,这个大小介于三格和五格之间,既实用又精致😌,上身又亮眼夺目,可优雅可休闲,是各种造型的最佳选择👏🏻\nsize:20cm"},"price":null,"currency":"CNY","moq":1,"category":"dior-women-bags","status":"active","alibaba_url":null,"images":["https://xcimg.szwego.com/20230531/i1685520149_870_0.jpg","https://xcimg.szwego.com/20230531/i1685520149_7794_1.jpg","https://xcimg.szwego.com/20230531/i1685520149_7870_2.jpg","https://xcimg.szwego.com/20230531/i1685520149_4581_3.jpg","https://xcimg.szwego.com/20230531/i1685520149_2245_4.jpg","https://xcimg.szwego.com/20230531/i1685520149_451_5.jpg","https://xcimg.szwego.com/20230531/i1685520149_621_6.jpg","https://xcimg.szwego.com/20230531/i1685520149_4967_7.jpg","https://xcimg.szwego.com/20230531/i1685520149_7821_8.jpg"],"created_at":"2024-11-11T09:13:16.935Z"},{"id":"item-fc5bbd62def1","sku":"_dvtvt49jjFaM8OY8TpebHXqdnlZSJu1_7LLuCrQ","name_en":"Dior Women Bags","name_cn":"自然色现货!!️\n原厂配羊绒内里✔️小伙伴们心心念念的Lady戴妃终于出四格了❤️,这个大小介于三格和五格之间,既实用又精致😌,上身又亮眼夺目,可优雅可休闲,是各种造型的最佳选择👏🏻\nsize:20cm","specs":{"source":"wsxcme","sourceId":"_dvtvt49jjFaM8OY8TpebHXqdnlZSJu1_7LLuCrQ","sourceTagId":47002747,"sourceTagName":"迪奥/女包","rawTitle":"自然色现货!!️\n原厂配羊绒内里✔️小伙伴们心心念念的Lady戴妃终于出四格了❤️,这个大小介于三格和五格之间,既实用又精致😌,上身又亮眼夺目,可优雅可休闲,是各种造型的最佳选择👏🏻\nsize:20cm"},"price":null,"currency":"CNY","moq":1,"category":"dior-women-bags","status":"active","alibaba_url":null,"images":["https://xcimg.szwego.com/20230531/i1685519897_3838_0.jpg","https://xcimg.szwego.com/20230531/i1685519897_6958_1.jpg","https://xcimg.szwego.com/20230531/i1685519897_7206_2.jpg","https://xcimg.szwego.com/20230531/i1685519897_3822_3.jpg","https://xcimg.szwego.com/20230531/i1685519897_8727_4.jpg","https://xcimg.szwego.com/20230531/i1685519897_4576_5.jpg","https://xcimg.szwego.com/20230531/i1685519897_2496_6.jpg","https://xcimg.szwego.com/20230531/i1685519897_6082_7.jpg","https://xcimg.szwego.com/20230531/i1685519897_6382_8.jpg"],"created_at":"2024-11-11T09:13:16.934Z"},{"id":"item-453b2edd4e77","sku":"_dOUOUEcqZOxxF7_hgBBfLnlyGSeVBnYTS23BcTw","name_en":"Dior Women Bags","name_cn":"四格黑色现货!!️\n小伙伴们心心念念的Lady戴妃终于出四格了❤️,这个大小介于三格和五格之间,既实用又精致,漆皮又比绵羊皮耐用多了😌,上身又亮眼夺目,可优雅可休闲,是各种造型的最佳选择👏🏻\nsize:20cm","specs":{"source":"wsxcme","sourceId":"_dOUOUEcqZOxxF7_hgBBfLnlyGSeVBnYTS23BcTw","sourceTagId":47002747,"sourceTagName":"迪奥/女包","rawTitle":"四格黑色现货!!️\n小伙伴们心心念念的Lady戴妃终于出四格了❤️,这个大小介于三格和五格之间,既实用又精致,漆皮又比绵羊皮耐用多了😌,上身又亮眼夺目,可优雅可休闲,是各种造型的最佳选择👏🏻\nsize:20cm"},"price":null,"currency":"CNY","moq":1,"category":"dior-women-bags","status":"active","alibaba_url":null,"images":["https://xcimg.szwego.com/20221206/i1670305064_4392_0.jpg","https://xcimg.szwego.com/20221206/i1670305064_7300_1.jpg","https://xcimg.szwego.com/20221206/i1670305064_9422_2.jpg","https://xcimg.szwego.com/20221206/i1670305064_7443_3.jpg","https://xcimg.szwego.com/20221206/i1670305064_7106_4.jpg","https://xcimg.szwego.com/20221206/i1670305064_6632_5.jpg","https://xcimg.szwego.com/20221206/i1670305064_3059_6.jpg","https://xcimg.szwego.com/20221206/i1670305064_1032_7.jpg","https://xcimg.szwego.com/20221206/i1670305064_8657_8.jpg"],"created_at":"2024-11-11T09:13:16.933Z"},{"id":"item-74b9f694fab4","sku":"_dMAMAt9KuHy5_xq_lS62Pv9dKlBAQgm2XYzdqeg","name_en":"Lady 横版戴妃羊皮奶茶色","name_cn":"Lady 横版戴妃羊皮奶茶色","specs":{"source":"wsxcme","sourceId":"_dMAMAt9KuHy5_xq_lS62Pv9dKlBAQgm2XYzdqeg","sourceTagId":47002747,"sourceTagName":"迪奥/女包","rawTitle":"Lady 横版戴妃羊皮奶茶色"},"price":null,"currency":"CNY","moq":1,"category":"dior-women-bags","status":"active","alibaba_url":null,"images":["https://xcimg.szwego.com/20220616/i1655343309_9875_0.jpg"],"created_at":"2024-11-11T09:13:16.932Z"},{"id":"item-9deac7712c46","sku":"_dGXGXfLjpdSGKcrkzo4ExszoE9JJqBtlMCZvCYg","name_en":"Lady 横版戴妃羊皮复古粉","name_cn":"Lady 横版戴妃羊皮复古粉","specs":{"source":"wsxcme","sourceId":"_dGXGXfLjpdSGKcrkzo4ExszoE9JJqBtlMCZvCYg","sourceTagId":47002747,"sourceTagName":"迪奥/女包","rawTitle":"Lady 横版戴妃羊皮复古粉"},"price":null,"currency":"CNY","moq":1,"category":"dior-women-bags","status":"active","alibaba_url":null,"images":["https://xcimg.szwego.com/20220818/i1660799968_1699_0.jpg"],"created_at":"2024-11-11T09:13:16.931Z"},{"id":"item-2961a897c800","sku":"_dirirA7SsDbNqxbZtVCLbMumryHq_R-14r0f7sA","name_en":"DI0R❣️Oblique双肩背包「灰布大号」","name_cn":"DI0R❣️Oblique双肩背包「灰布大号」\n可以当情侣款的DI0R Oblique双肩背包来喇在老花的基础上还有金属材质的小Logo,软萌软萌的。帆布的材质十分轻便 容量大 重量小 实用颜值又在线 ~\n标志性的oblique复古印花图案已经融入大家伙儿的时髦态度中~身背老花单品行走到哪都像在巴黎时装周 推荐🖤情侣款走一个\n大号:30×42×15CM\n#088","specs":{"source":"wsxcme","sourceId":"_dirirA7SsDbNqxbZtVCLbMumryHq_R-14r0f7sA","sourceTagId":47002747,"sourceTagName":"迪奥/女包","rawTitle":"DI0R❣️Oblique双肩背包「灰布大号」\n可以当情侣款的DI0R Oblique双肩背包来喇在老花的基础上还有金属材质的小Logo,软萌软萌的。帆布的材质十分轻便 容量大 重量小 实用颜值又在线 ~\n标志性的oblique复古印花图案已经融入大家伙儿的时髦态度中~身背老花单品行走到哪都像在巴黎时装周 推荐🖤情侣款走一个\n大号:30×42×15CM\n#088"},"price":null,"currency":"CNY","moq":1,"category":"dior-women-bags","status":"active","alibaba_url":null,"images":["https://xcimg.szwego.com/20240509/i1715243387_798_0.jpg","https://xcimg.szwego.com/20240509/i1715243387_9809_1.jpg","https://xcimg.szwego.com/20240509/i1715243387_1352_2.jpg","https://xcimg.szwego.com/20240509/i1715243387_3401_3.jpg","https://xcimg.szwego.com/20240509/i1715243387_3636_4.jpg","https://xcimg.szwego.com/20240509/i1715243387_9455_5.jpg","https://xcimg.szwego.com/20240509/i1715243387_1782_6.jpg","https://xcimg.szwego.com/20240509/i1715243387_8707_7.jpg","https://xcimg.szwego.com/20240509/i1715243387_7172_8.jpg"],"created_at":"2024-11-11T07:34:26.022Z"},{"id":"item-2961a897c800","sku":"_dirirA7SsDbNqxbZtVCLbMumryHq_R-14r0f7sA","name_en":"DI0R❣️Oblique双肩背包「灰布大号」","name_cn":"DI0R❣️Oblique双肩背包「灰布大号」\n可以当情侣款的DI0R Oblique双肩背包来喇在老花的基础上还有金属材质的小Logo,软萌软萌的。帆布的材质十分轻便 容量大 重量小 实用颜值又在线 ~\n标志性的oblique复古印花图案已经融入大家伙儿的时髦态度中~身背老花单品行走到哪都像在巴黎时装周 推荐🖤情侣款走一个\n大号:30×42×15CM\n#088","specs":{"source":"wsxcme","sourceId":"_dirirA7SsDbNqxbZtVCLbMumryHq_R-14r0f7sA","sourceTagId":47002743,"sourceTagName":"女士双肩包","rawTitle":"DI0R❣️Oblique双肩背包「灰布大号」\n可以当情侣款的DI0R Oblique双肩背包来喇在老花的基础上还有金属材质的小Logo,软萌软萌的。帆布的材质十分轻便 容量大 重量小 实用颜值又在线 ~\n标志性的oblique复古印花图案已经融入大家伙儿的时髦态度中~身背老花单品行走到哪都像在巴黎时装周 推荐🖤情侣款走一个\n大号:30×42×15CM\n#088"},"price":null,"currency":"CNY","moq":1,"category":"women-backpacks","status":"active","alibaba_url":null,"images":["https://xcimg.szwego.com/20240509/i1715243387_798_0.jpg","https://xcimg.szwego.com/20240509/i1715243387_9809_1.jpg","https://xcimg.szwego.com/20240509/i1715243387_1352_2.jpg","https://xcimg.szwego.com/20240509/i1715243387_3401_3.jpg","https://xcimg.szwego.com/20240509/i1715243387_3636_4.jpg","https://xcimg.szwego.com/20240509/i1715243387_9455_5.jpg","https://xcimg.szwego.com/20240509/i1715243387_1782_6.jpg","https://xcimg.szwego.com/20240509/i1715243387_8707_7.jpg","https://xcimg.szwego.com/20240509/i1715243387_7172_8.jpg"],"created_at":"2024-11-11T07:34:26.022Z"}],"page":322,"pageSize":24,"total":10075,"totalPages":420}
