{"items":[{"id":"item-9c1e292419dc","sku":"_daUaUwlJlzwCzjT-_RcpDYpa9mGe640wVdMs_ng","name_en":"Celine Women Bags","name_cn":"赛琳老花手提袋大号•头层\n全新带手柄水桶包💢\n打破常规设计 更适合通勤使用\n配防尘袋和说明书\n\n尺寸31.5×31.5×16cm","specs":{"source":"wsxcme","sourceId":"_daUaUwlJlzwCzjT-_RcpDYpa9mGe640wVdMs_ng","sourceTagId":47003106,"sourceTagName":"塞琳/女包","dimensions":{"lengthCm":31.5,"heightCm":31.5,"widthCm":16},"rawTitle":"赛琳老花手提袋大号•头层\n全新带手柄水桶包💢\n打破常规设计 更适合通勤使用\n配防尘袋和说明书\n\n尺寸31.5×31.5×16cm"},"price":null,"currency":"CNY","moq":1,"category":"celine-women-bags","status":"active","alibaba_url":null,"images":["https://xcimg.szwego.com/20231227/i1703663234_7748_0.jpg","https://xcimg.szwego.com/20231227/i1703663234_2300_1.jpg","https://xcimg.szwego.com/20231227/i1703663234_8536_2.jpg","https://xcimg.szwego.com/20231227/i1703663234_1429_3.jpg","https://xcimg.szwego.com/20231227/i1703663234_472_7.jpg","https://xcimg.szwego.com/20231227/i1703663234_5246_8.jpg","https://xcimg.szwego.com/20231227/i1703663234_6755_4.jpg","https://xcimg.szwego.com/20231227/i1703663234_4478_5.jpg","https://xcimg.szwego.com/20231227/i1703663234_9222_6.jpg"],"created_at":"2025-02-08T12:47:15.807Z"},{"id":"item-2f544bfd495d","sku":"_duCuCMVXzCG260DCl6jFNsVwzLfvP-UqOdHZkMw","name_en":"Celine Women Bags","name_cn":"赛琳老花手提袋小号•头层\n采用头层牛皮配pvc花料\n全新带手柄水桶包💢\n打破常规设计 更适合通勤使用\n配防尘袋和说明书\n\n尺寸26.5×23×12cm","specs":{"source":"wsxcme","sourceId":"_duCuCMVXzCG260DCl6jFNsVwzLfvP-UqOdHZkMw","sourceTagId":47003106,"sourceTagName":"塞琳/女包","dimensions":{"lengthCm":26.5,"heightCm":23,"widthCm":12},"rawTitle":"赛琳老花手提袋小号•头层\n采用头层牛皮配pvc花料\n全新带手柄水桶包💢\n打破常规设计 更适合通勤使用\n配防尘袋和说明书\n\n尺寸26.5×23×12cm"},"price":null,"currency":"CNY","moq":1,"category":"celine-women-bags","status":"active","alibaba_url":null,"images":["https://xcimg.szwego.com/20231227/i1703662678_4665_0.jpg","https://xcimg.szwego.com/20231227/i1703662678_4823_1.jpg","https://xcimg.szwego.com/20231227/i1703662678_7967_2.jpg","https://xcimg.szwego.com/20231227/i1703662678_7334_3.jpg","https://xcimg.szwego.com/20231227/i1703662678_13_4.jpg","https://xcimg.szwego.com/20231227/i1703662678_8911_5.jpg","https://xcimg.szwego.com/20231227/i1703662678_6829_6.jpg","https://xcimg.szwego.com/20231227/i1703662678_5878_7.jpg","https://xcimg.szwego.com/20231227/i1703662678_5785_8.jpg"],"created_at":"2025-02-08T12:47:15.806Z"},{"id":"item-65510aea35b6","sku":"_dwnwngmu--4kWV2lTL1yZOiajUvmPHgArXu9jqg","name_en":"Celine Women Bags","name_cn":"赛琳新款月亮包•黑色\n\n采用头层牛皮 内里反磨砂牛皮\n质量抗磨抗造 柔软不失包型👜\n经典包型搭配凯旋门大金扣点缀\n气质气场一下子upupup\n尺寸:22×7.5×17cm","specs":{"source":"wsxcme","sourceId":"_dwnwngmu--4kWV2lTL1yZOiajUvmPHgArXu9jqg","sourceTagId":47003106,"sourceTagName":"塞琳/女包","dimensions":{"lengthCm":22,"heightCm":7.5,"widthCm":17},"rawTitle":"赛琳新款月亮包•黑色\n\n采用头层牛皮 内里反磨砂牛皮\n质量抗磨抗造 柔软不失包型👜\n经典包型搭配凯旋门大金扣点缀\n气质气场一下子upupup\n尺寸:22×7.5×17cm"},"price":null,"currency":"CNY","moq":1,"category":"celine-women-bags","status":"active","alibaba_url":null,"images":["https://xcimg.szwego.com/20231021/i1697875185_6595_0.jpg","https://xcimg.szwego.com/20231021/i1697875185_3065_1.jpg","https://xcimg.szwego.com/20231021/i1697875185_7816_2.jpg","https://xcimg.szwego.com/20231021/i1697875185_2752_3.jpg","https://xcimg.szwego.com/20231021/i1697875185_5581_4.jpg","https://xcimg.szwego.com/20231021/i1697875185_4953_5.jpg","https://xcimg.szwego.com/20231021/i1697875185_1899_6.jpg","https://xcimg.szwego.com/20231021/i1697875185_3418_7.jpg","https://xcimg.szwego.com/20231021/i1697875185_2423_8.jpg"],"created_at":"2025-02-08T12:47:15.805Z"},{"id":"item-c466f69693a5","sku":"_dyQyQnszkYahIT3mt2RCtMd9n-Mt_ewGu3peGkA","name_en":"Celine Women Bags","name_cn":"赛琳小腋下包·老花\nTilly腋下包\n圆润造型单肩包👛\n延续经典手袋的调性\n容量可以包型硬挺可调节肩带\n\n尺寸:22×13.5×4cm","specs":{"source":"wsxcme","sourceId":"_dyQyQnszkYahIT3mt2RCtMd9n-Mt_ewGu3peGkA","sourceTagId":47003106,"sourceTagName":"塞琳/女包","dimensions":{"lengthCm":22,"heightCm":13.5,"widthCm":4},"rawTitle":"赛琳小腋下包·老花\nTilly腋下包\n圆润造型单肩包👛\n延续经典手袋的调性\n容量可以包型硬挺可调节肩带\n\n尺寸:22×13.5×4cm"},"price":null,"currency":"CNY","moq":1,"category":"celine-women-bags","status":"active","alibaba_url":null,"images":["https://xcimg.szwego.com/img/a0ceb150/20240304/i1709541643_3814_0.jpg","https://xcimg.szwego.com/img/a0ceb150/20240304/i1709541642_5135_0.jpg","https://xcimg.szwego.com/img/a0ceb150/20240304/i1709541643_1925_0.jpg","https://xcimg.szwego.com/img/a0ceb150/20240304/i1709541643_7924_0.jpg","https://xcimg.szwego.com/img/a0ceb150/20240304/i1709541643_3181_0.jpg","https://xcimg.szwego.com/img/a0ceb150/20240304/i1709541643_7690_0.jpg","https://xcimg.szwego.com/img/a0ceb150/20240304/i1709541643_2840_0.jpg","https://xcimg.szwego.com/img/a0ceb150/20240304/i1709541642_5892_0.jpg","https://xcimg.szwego.com/img/a0ceb150/20240304/i1709541642_6901_0.jpg"],"created_at":"2025-02-08T12:47:15.804Z"},{"id":"item-ae79a6af04b2","sku":"_di0i0A2YRUwjLAgzyhWsMwzzI5TaQ6khJps1zUQ","name_en":"Celine Women Bags","name_cn":"赛琳小腋下包·黑色\nTilly腋下包\n圆润造型单肩包👛\n延续经典手袋的调性\n容量可以包型硬挺可调节肩带\n\n尺寸:22×13.5×4cm","specs":{"source":"wsxcme","sourceId":"_di0i0A2YRUwjLAgzyhWsMwzzI5TaQ6khJps1zUQ","sourceTagId":47003106,"sourceTagName":"塞琳/女包","dimensions":{"lengthCm":22,"heightCm":13.5,"widthCm":4},"rawTitle":"赛琳小腋下包·黑色\nTilly腋下包\n圆润造型单肩包👛\n延续经典手袋的调性\n容量可以包型硬挺可调节肩带\n\n尺寸:22×13.5×4cm"},"price":null,"currency":"CNY","moq":1,"category":"celine-women-bags","status":"active","alibaba_url":null,"images":["https://xcimg.szwego.com/img/a0ceb150/20240304/i1709541587_9114_0.jpg","https://xcimg.szwego.com/img/a0ceb150/20240304/i1709541587_8935_0.jpg","https://xcimg.szwego.com/img/a0ceb150/20240304/i1709541588_6950_0.jpg","https://xcimg.szwego.com/img/a0ceb150/20240304/i1709541587_3620_0.jpg","https://xcimg.szwego.com/img/a0ceb150/20240304/i1709541587_9513_0.jpg","https://xcimg.szwego.com/img/a0ceb150/20240304/i1709541587_2599_0.jpg","https://xcimg.szwego.com/img/a0ceb150/20240304/i1709541587_672_0.jpg","https://xcimg.szwego.com/img/a0ceb150/20240304/i1709541588_5374_0.jpg","https://xcimg.szwego.com/img/a0ceb150/20240304/i1709541588_4800_0.jpg"],"created_at":"2025-02-08T12:47:15.803Z"},{"id":"item-49b7734dbab4","sku":"_dNuNux34IVlBHsc3ENMbcVZ9pDylitPXnKpMb7w","name_en":"Celine Women Bags","name_cn":"赛琳小腋下包·粉色\nTilly腋下包\n圆润造型单肩包👛\n延续经典手袋的调性\n容量可以包型硬挺可调节肩带\n\n尺寸:22×13.5×4cm","specs":{"source":"wsxcme","sourceId":"_dNuNux34IVlBHsc3ENMbcVZ9pDylitPXnKpMb7w","sourceTagId":47003106,"sourceTagName":"塞琳/女包","dimensions":{"lengthCm":22,"heightCm":13.5,"widthCm":4},"rawTitle":"赛琳小腋下包·粉色\nTilly腋下包\n圆润造型单肩包👛\n延续经典手袋的调性\n容量可以包型硬挺可调节肩带\n\n尺寸:22×13.5×4cm"},"price":null,"currency":"CNY","moq":1,"category":"celine-women-bags","status":"active","alibaba_url":null,"images":["https://xcimg.szwego.com/img/a0ceb150/20240304/i1709541507_5862_0.jpg","https://xcimg.szwego.com/img/a0ceb150/20240304/i1709541506_6008_0.jpg","https://xcimg.szwego.com/img/a0ceb150/20240304/i1709541506_559_0.jpg","https://xcimg.szwego.com/img/a0ceb150/20240304/i1709541507_5411_0.jpg","https://xcimg.szwego.com/img/a0ceb150/20240304/i1709541506_2409_0.jpg","https://xcimg.szwego.com/img/a0ceb150/20240304/i1709541506_9660_0.jpg","https://xcimg.szwego.com/img/a0ceb150/20240304/i1709541506_4234_0.jpg","https://xcimg.szwego.com/img/a0ceb150/20240304/i1709541506_2432_0.jpg","https://xcimg.szwego.com/img/a0ceb150/20240304/i1709541507_4013_0.jpg"],"created_at":"2025-02-08T12:47:15.802Z"},{"id":"item-7e62a6e369fe","sku":"_d-f-fkH8rt2WZzYoRzAWkCSGVccr-xd6m3SIedQ","name_en":"Celine Women Bags","name_cn":"赛琳小饺子包·黑色\nromy迷你尺寸\n可腋下和手拎容量感人❤️\n精致小巧一整个可爱住了\n\n尺寸:19×14×5cm","specs":{"source":"wsxcme","sourceId":"_d-f-fkH8rt2WZzYoRzAWkCSGVccr-xd6m3SIedQ","sourceTagId":47003106,"sourceTagName":"塞琳/女包","dimensions":{"lengthCm":19,"heightCm":14,"widthCm":5},"rawTitle":"赛琳小饺子包·黑色\nromy迷你尺寸\n可腋下和手拎容量感人❤️\n精致小巧一整个可爱住了\n\n尺寸:19×14×5cm"},"price":null,"currency":"CNY","moq":1,"category":"celine-women-bags","status":"active","alibaba_url":null,"images":["https://xcimg.szwego.com/img/a0ceb150/20240304/i1709541132_270_0.jpg","https://xcimg.szwego.com/img/a0ceb150/20240304/i1709541132_5129_0.jpg","https://xcimg.szwego.com/img/a0ceb150/20240304/i1709541132_52_0.jpg","https://xcimg.szwego.com/img/a0ceb150/20240304/i1709541132_4427_0.jpg","https://xcimg.szwego.com/img/a0ceb150/20240304/i1709541132_2874_0.jpg","https://xcimg.szwego.com/img/a0ceb150/20240304/i1709541132_4459_0.jpg","https://xcimg.szwego.com/img/a0ceb150/20240304/i1709541132_1650_0.jpg","https://xcimg.szwego.com/img/a0ceb150/20240304/i1709541132_5739_0.jpg","https://xcimg.szwego.com/img/a0ceb150/20240304/i1709541132_7123_0.jpg"],"created_at":"2025-02-08T12:47:15.801Z"},{"id":"item-996cbbfef585","sku":"_dvVvVdhl7IYHEeIo5m5VMb1nSIOi58UMKk6xG3Q","name_en":"Celine Women Bags","name_cn":"赛琳小饺子包·棕色\nromy迷你尺寸\n可腋下和手拎容量感人❤️\n精致小巧一整个可爱住了\n\n尺寸:19×14×5cm","specs":{"source":"wsxcme","sourceId":"_dvVvVdhl7IYHEeIo5m5VMb1nSIOi58UMKk6xG3Q","sourceTagId":47003106,"sourceTagName":"塞琳/女包","dimensions":{"lengthCm":19,"heightCm":14,"widthCm":5},"rawTitle":"赛琳小饺子包·棕色\nromy迷你尺寸\n可腋下和手拎容量感人❤️\n精致小巧一整个可爱住了\n\n尺寸:19×14×5cm"},"price":null,"currency":"CNY","moq":1,"category":"celine-women-bags","status":"active","alibaba_url":null,"images":["https://xcimg.szwego.com/img/a0ceb150/20240304/i1709541045_1012_0.jpg","https://xcimg.szwego.com/img/a0ceb150/20240304/i1709541045_5644_0.jpg","https://xcimg.szwego.com/img/a0ceb150/20240304/i1709541045_6756_0.jpg","https://xcimg.szwego.com/img/a0ceb150/20240304/i1709541045_3354_0.jpg","https://xcimg.szwego.com/img/a0ceb150/20240304/i1709541044_4254_0.jpg","https://xcimg.szwego.com/img/a0ceb150/20240304/i1709541044_4164_0.jpg","https://xcimg.szwego.com/img/a0ceb150/20240304/i1709541044_8725_0.jpg","https://xcimg.szwego.com/img/a0ceb150/20240304/i1709541045_3611_0.jpg","https://xcimg.szwego.com/img/a0ceb150/20240304/i1709541044_9358_0.jpg"],"created_at":"2025-02-08T12:47:15.800Z"},{"id":"item-d50db3ce5a3f","sku":"_dCsCsLk8VgYrgyMnj0SUFQY_UWmcQBaKK4qlIzQ","name_en":"Celine Women Bags","name_cn":"赛琳新款月亮包•老花\n采用头层牛皮配经典pvc\n完美结合复古和当下潮流\n展现品牌经典元素\n凯旋门大金扣点缀💎\n实用又不失风度\n尺寸:22×7.5×17cm","specs":{"source":"wsxcme","sourceId":"_dCsCsLk8VgYrgyMnj0SUFQY_UWmcQBaKK4qlIzQ","sourceTagId":47003106,"sourceTagName":"塞琳/女包","dimensions":{"lengthCm":22,"heightCm":7.5,"widthCm":17},"rawTitle":"赛琳新款月亮包•老花\n采用头层牛皮配经典pvc\n完美结合复古和当下潮流\n展现品牌经典元素\n凯旋门大金扣点缀💎\n实用又不失风度\n尺寸:22×7.5×17cm"},"price":null,"currency":"CNY","moq":1,"category":"celine-women-bags","status":"active","alibaba_url":null,"images":["https://xcimg.szwego.com/20231021/i1697876504_9649_0.jpg","https://xcimg.szwego.com/20231021/i1697876504_3318_1.jpg","https://xcimg.szwego.com/20231021/i1697876504_8258_2.jpg","https://xcimg.szwego.com/20231021/i1697876504_8894_3.jpg","https://xcimg.szwego.com/20231021/i1697876504_1768_4.jpg","https://xcimg.szwego.com/20231021/i1697876504_5551_5.jpg","https://xcimg.szwego.com/20231021/i1697876504_9128_6.jpg","https://xcimg.szwego.com/20231021/i1697876504_1878_7.jpg","https://xcimg.szwego.com/20231021/i1697876504_1241_8.jpg"],"created_at":"2025-02-08T12:47:15.799Z"},{"id":"item-9026bdf9c5a5","sku":"_dt_t_OBc8BoPJ3mCV_R421Zbc_1DKoJRvM028vQ","name_en":"Celine Women Bags","name_cn":"赛琳新款月亮包•棕色\n\n采用二层牛皮 内里反磨砂牛皮\n质量抗磨抗造 柔软不失包型👜\n经典包型搭配凯旋门大金扣点缀\n气质气场一下子upupup\n尺寸:22×7.5×17cm","specs":{"source":"wsxcme","sourceId":"_dt_t_OBc8BoPJ3mCV_R421Zbc_1DKoJRvM028vQ","sourceTagId":47003106,"sourceTagName":"塞琳/女包","dimensions":{"lengthCm":22,"heightCm":7.5,"widthCm":17},"rawTitle":"赛琳新款月亮包•棕色\n\n采用二层牛皮 内里反磨砂牛皮\n质量抗磨抗造 柔软不失包型👜\n经典包型搭配凯旋门大金扣点缀\n气质气场一下子upupup\n尺寸:22×7.5×17cm"},"price":null,"currency":"CNY","moq":1,"category":"celine-women-bags","status":"active","alibaba_url":null,"images":["https://xcimg.szwego.com/20231021/i1697874622_93_6.jpg","https://xcimg.szwego.com/20231021/i1697874622_8494_0.jpg","https://xcimg.szwego.com/20231021/i1697874622_852_1.jpg","https://xcimg.szwego.com/20231021/i1697874622_4861_2.jpg","https://xcimg.szwego.com/20231021/i1697874622_968_3.jpg","https://xcimg.szwego.com/20231021/i1697874622_9713_7.jpg","https://xcimg.szwego.com/20231021/i1697874622_7100_4.jpg","https://xcimg.szwego.com/20231021/i1697874622_211_5.jpg","https://xcimg.szwego.com/20231021/i1697874622_8415_8.jpg"],"created_at":"2025-02-08T12:47:15.798Z"},{"id":"item-4d9e8bfed755","sku":"_dkGkGTBreU3WX_k8TdRzDGYuIvOjivsu48xLcwg","name_en":"Celine Women Bags","name_cn":"赛琳新款月亮包•黑色\n\n采用二层牛皮 内里反磨砂牛皮\n质量抗磨抗造 柔软不失包型👜\n经典包型搭配凯旋门大金扣点缀\n气质气场一下子upupup\n尺寸:22×7.5×17cm","specs":{"source":"wsxcme","sourceId":"_dkGkGTBreU3WX_k8TdRzDGYuIvOjivsu48xLcwg","sourceTagId":47003106,"sourceTagName":"塞琳/女包","dimensions":{"lengthCm":22,"heightCm":7.5,"widthCm":17},"rawTitle":"赛琳新款月亮包•黑色\n\n采用二层牛皮 内里反磨砂牛皮\n质量抗磨抗造 柔软不失包型👜\n经典包型搭配凯旋门大金扣点缀\n气质气场一下子upupup\n尺寸:22×7.5×17cm"},"price":null,"currency":"CNY","moq":1,"category":"celine-women-bags","status":"active","alibaba_url":null,"images":["https://xcimg.szwego.com/20231021/i1697875185_6595_0.jpg","https://xcimg.szwego.com/20231021/i1697875185_3065_1.jpg","https://xcimg.szwego.com/20231021/i1697875185_7816_2.jpg","https://xcimg.szwego.com/20231021/i1697875185_2752_3.jpg","https://xcimg.szwego.com/20231021/i1697875185_5581_4.jpg","https://xcimg.szwego.com/20231021/i1697875185_4953_5.jpg","https://xcimg.szwego.com/20231021/i1697875185_1899_6.jpg","https://xcimg.szwego.com/20231021/i1697875185_3418_7.jpg","https://xcimg.szwego.com/20231021/i1697875185_2423_8.jpg"],"created_at":"2025-02-08T12:47:15.797Z"},{"id":"item-bd0f0c9f622b","sku":"_dLFLFeTrxVxfntHk83fK5KkVGn1e7lJVlJnHLJw","name_en":"Celine Women Bags","name_cn":"赛琳水桶老花大号•头层\n采用头层牛皮\n大号慵懒感十足\n酷酷的中号太飒啦\n尺寸:33×27×17cm","specs":{"source":"wsxcme","sourceId":"_dLFLFeTrxVxfntHk83fK5KkVGn1e7lJVlJnHLJw","sourceTagId":47003106,"sourceTagName":"塞琳/女包","dimensions":{"lengthCm":33,"heightCm":27,"widthCm":17},"rawTitle":"赛琳水桶老花大号•头层\n采用头层牛皮\n大号慵懒感十足\n酷酷的中号太飒啦\n尺寸:33×27×17cm"},"price":null,"currency":"CNY","moq":1,"category":"celine-women-bags","status":"active","alibaba_url":null,"images":["https://xcimg.szwego.com/20231012/i1697100668_8940_0.jpg","https://xcimg.szwego.com/20231012/i1697100668_1885_1.jpg","https://xcimg.szwego.com/20231012/i1697100668_6422_2.jpg","https://xcimg.szwego.com/20231012/i1697100668_6296_3.jpg","https://xcimg.szwego.com/20231012/i1697100668_2518_5.jpg","https://xcimg.szwego.com/20231012/i1697100668_9596_6.jpg","https://xcimg.szwego.com/20231012/i1697100668_3980_4.jpg","https://xcimg.szwego.com/20231012/i1697100668_1994_7.jpg","https://xcimg.szwego.com/20231012/i1697100668_2612_8.jpg"],"created_at":"2025-02-08T12:47:15.796Z"},{"id":"item-15b16a71a450","sku":"_d-H-HbRqf7XcvbXnZGy6-GoezaStbgS_qRGvBcg","name_en":"Celine Women Bags","name_cn":"赛琳水桶老花小号•头层\n采用头层牛皮\n小号尺寸不挑身高\n高颜值百搭复古风格\n单肩斜挎风格百搭多变\n尺寸:22×26×13cm","specs":{"source":"wsxcme","sourceId":"_d-H-HbRqf7XcvbXnZGy6-GoezaStbgS_qRGvBcg","sourceTagId":47003106,"sourceTagName":"塞琳/女包","dimensions":{"lengthCm":22,"heightCm":26,"widthCm":13},"rawTitle":"赛琳水桶老花小号•头层\n采用头层牛皮\n小号尺寸不挑身高\n高颜值百搭复古风格\n单肩斜挎风格百搭多变\n尺寸:22×26×13cm"},"price":null,"currency":"CNY","moq":1,"category":"celine-women-bags","status":"active","alibaba_url":null,"images":["https://xcimg.szwego.com/20231012/i1697099042_671_7.jpg","https://xcimg.szwego.com/20231012/i1697099042_416_8.jpg","https://xcimg.szwego.com/20231012/i1697099042_2120_2.jpg","https://xcimg.szwego.com/20231012/i1697099042_2053_0.jpg","https://xcimg.szwego.com/20231012/i1697099042_2672_6.jpg","https://xcimg.szwego.com/20231012/i1697099042_4300_1.jpg","https://xcimg.szwego.com/20231012/i1697099042_6376_3.jpg","https://xcimg.szwego.com/20231012/i1697099042_3775_4.jpg","https://xcimg.szwego.com/20231012/i1697099042_8462_5.jpg"],"created_at":"2025-02-08T12:47:15.795Z"},{"id":"item-9a60c2917897","sku":"_dfjfjU-VjEKgaxzhdsZvrGBFjurUIlwYzPsYDcA","name_en":"Celine Women Bags","name_cn":"赛琳马鞍包老花•头层\nlisa最爱马鞍包\n穿搭王者款❤️\n采用头层牛皮\n更新官网新版本💥\n尺寸:18.5×17×8cm","specs":{"source":"wsxcme","sourceId":"_dfjfjU-VjEKgaxzhdsZvrGBFjurUIlwYzPsYDcA","sourceTagId":47003106,"sourceTagName":"塞琳/女包","dimensions":{"lengthCm":18.5,"heightCm":17,"widthCm":8},"rawTitle":"赛琳马鞍包老花•头层\nlisa最爱马鞍包\n穿搭王者款❤️\n采用头层牛皮\n更新官网新版本💥\n尺寸:18.5×17×8cm"},"price":null,"currency":"CNY","moq":1,"category":"celine-women-bags","status":"active","alibaba_url":null,"images":["https://xcimg.szwego.com/20231012/i1697097524_8736_0.jpg","https://xcimg.szwego.com/20231012/i1697097524_6529_5.jpg","https://xcimg.szwego.com/20231012/i1697097524_2780_8.jpg","https://xcimg.szwego.com/20231012/i1697097524_5135_2.jpg","https://xcimg.szwego.com/20231012/i1697097524_1314_6.jpg","https://xcimg.szwego.com/20231012/i1697097524_8554_4.jpg","https://xcimg.szwego.com/20231012/i1697097524_3933_1.jpg","https://xcimg.szwego.com/20231012/i1697097524_788_3.jpg","https://xcimg.szwego.com/20231012/i1697097524_6387_7.jpg"],"created_at":"2025-02-08T12:47:15.794Z"},{"id":"item-4dd0206ab46b","sku":"_ddJdJJj-RVl_UwKtG-bBWdbUeiO1B-IOeoH578Q","name_en":"Celine Women Bags","name_cn":"赛琳腋下包白花•头层\n采用头层牛皮\n经典包型白色也很耐看\n奶乎乎的气质\n春夏小清新超搭🎏\n尺寸:23×19×7cm","specs":{"source":"wsxcme","sourceId":"_ddJdJJj-RVl_UwKtG-bBWdbUeiO1B-IOeoH578Q","sourceTagId":47003106,"sourceTagName":"塞琳/女包","dimensions":{"lengthCm":23,"heightCm":19,"widthCm":7},"rawTitle":"赛琳腋下包白花•头层\n采用头层牛皮\n经典包型白色也很耐看\n奶乎乎的气质\n春夏小清新超搭🎏\n尺寸:23×19×7cm"},"price":null,"currency":"CNY","moq":1,"category":"celine-women-bags","status":"active","alibaba_url":null,"images":["https://xcimg.szwego.com/20231012/i1697101756_4801_0.jpg","https://xcimg.szwego.com/20231012/i1697101756_259_1.jpg","https://xcimg.szwego.com/20231012/i1697101756_4752_2.jpg","https://xcimg.szwego.com/20231012/i1697101756_6493_3.jpg","https://xcimg.szwego.com/20231012/i1697101756_6781_4.jpg","https://xcimg.szwego.com/20231012/i1697101756_2093_5.jpg","https://xcimg.szwego.com/20231012/i1697101756_9830_6.jpg","https://xcimg.szwego.com/20231012/i1697101756_3895_7.jpg","https://xcimg.szwego.com/20231012/i1697101756_8190_8.jpg"],"created_at":"2025-02-08T12:47:15.793Z"},{"id":"item-d5ea0cb4cd16","sku":"_dSDSDmzEpnlKkQpm1fy4WwOmmk9HLExEx128W6g","name_en":"Celine Women Bags","name_cn":"赛琳腋下包老花•头层\n采用头层牛皮\n月牙形状透出俏皮感\n又甜又辣的风格🎀\n手拎腋下背都可\n尺寸:23×19×7cm","specs":{"source":"wsxcme","sourceId":"_dSDSDmzEpnlKkQpm1fy4WwOmmk9HLExEx128W6g","sourceTagId":47003106,"sourceTagName":"塞琳/女包","dimensions":{"lengthCm":23,"heightCm":19,"widthCm":7},"rawTitle":"赛琳腋下包老花•头层\n采用头层牛皮\n月牙形状透出俏皮感\n又甜又辣的风格🎀\n手拎腋下背都可\n尺寸:23×19×7cm"},"price":null,"currency":"CNY","moq":1,"category":"celine-women-bags","status":"active","alibaba_url":null,"images":["https://xcimg.szwego.com/20231012/i1697101423_5700_0.jpg","https://xcimg.szwego.com/20231012/i1697101423_4200_1.jpg","https://xcimg.szwego.com/20231012/i1697101423_6423_2.jpg","https://xcimg.szwego.com/20231012/i1697101423_2896_3.jpg","https://xcimg.szwego.com/20231012/i1697101423_8423_4.jpg","https://xcimg.szwego.com/20231012/i1697101423_7336_5.jpg","https://xcimg.szwego.com/20231012/i1697101423_9574_7.jpg","https://xcimg.szwego.com/20231012/i1697101423_5037_6.jpg","https://xcimg.szwego.com/20231012/i1697101423_6855_8.jpg"],"created_at":"2025-02-08T12:47:15.792Z"},{"id":"item-aeaa6f513806","sku":"_dcicimB0aNL7ghGAVAf6iUA2Uj76YftsoByxfcw","name_en":"Celine Women Bags","name_cn":"赛琳新款月亮包•头层\n完美结合复古和当下潮流\n展现品牌经典元素\n凯旋门大金扣点缀💎\n实用又不失风度\n尺寸:22×7.5×17cm","specs":{"source":"wsxcme","sourceId":"_dcicimB0aNL7ghGAVAf6iUA2Uj76YftsoByxfcw","sourceTagId":47003106,"sourceTagName":"塞琳/女包","dimensions":{"lengthCm":22,"heightCm":7.5,"widthCm":17},"rawTitle":"赛琳新款月亮包•头层\n完美结合复古和当下潮流\n展现品牌经典元素\n凯旋门大金扣点缀💎\n实用又不失风度\n尺寸:22×7.5×17cm"},"price":null,"currency":"CNY","moq":1,"category":"celine-women-bags","status":"active","alibaba_url":null,"images":["https://xcimg.szwego.com/20231012/i1697102183_3830_0.jpg","https://xcimg.szwego.com/20231012/i1697102183_8472_1.jpg","https://xcimg.szwego.com/20231012/i1697102183_3251_2.jpg","https://xcimg.szwego.com/20231012/i1697102183_5026_3.jpg","https://xcimg.szwego.com/20231012/i1697102183_3401_4.jpg","https://xcimg.szwego.com/20231012/i1697102183_2622_5.jpg","https://xcimg.szwego.com/20231012/i1697102183_3069_6.jpg","https://xcimg.szwego.com/20231012/i1697102183_2306_7.jpg","https://xcimg.szwego.com/20231012/i1697102183_4428_8.jpg"],"created_at":"2025-02-08T12:47:15.791Z"},{"id":"item-0b78fa9a9a47","sku":"_daDaDVk8lYlQDzluINQfVZ7fxFqmMX8GKHKFKLw","name_en":"Celine Women Bags","name_cn":"赛琳水桶老花大号•头层\n采用头层牛皮\n大号慵懒感十足\n酷酷的中号太飒啦\n尺寸:33×27×17cm","specs":{"source":"wsxcme","sourceId":"_daDaDVk8lYlQDzluINQfVZ7fxFqmMX8GKHKFKLw","sourceTagId":47003106,"sourceTagName":"塞琳/女包","dimensions":{"lengthCm":33,"heightCm":27,"widthCm":17},"rawTitle":"赛琳水桶老花大号•头层\n采用头层牛皮\n大号慵懒感十足\n酷酷的中号太飒啦\n尺寸:33×27×17cm"},"price":null,"currency":"CNY","moq":1,"category":"celine-women-bags","status":"active","alibaba_url":null,"images":["https://xcimg.szwego.com/20231012/i1697100668_8940_0.jpg","https://xcimg.szwego.com/20231012/i1697100668_1885_1.jpg","https://xcimg.szwego.com/20231012/i1697100668_6422_2.jpg","https://xcimg.szwego.com/20231012/i1697100668_6296_3.jpg","https://xcimg.szwego.com/20231012/i1697100668_2518_5.jpg","https://xcimg.szwego.com/20231012/i1697100668_9596_6.jpg","https://xcimg.szwego.com/20231012/i1697100668_3980_4.jpg","https://xcimg.szwego.com/20231012/i1697100668_1994_7.jpg","https://xcimg.szwego.com/20231012/i1697100668_2612_8.jpg"],"created_at":"2025-02-08T12:47:15.790Z"},{"id":"item-e44968fb901c","sku":"_dmQmQkI5vdDKM5xSrmPp__9psNmxQkxuXuIyBsQ","name_en":"Celine Women Bags","name_cn":"赛琳水桶老花小号•头层\n采用头层牛皮\n小号尺寸不挑身高\n高颜值百搭复古风格\n单肩斜挎风格百搭多变\n尺寸:22×26×13cm","specs":{"source":"wsxcme","sourceId":"_dmQmQkI5vdDKM5xSrmPp__9psNmxQkxuXuIyBsQ","sourceTagId":47003106,"sourceTagName":"塞琳/女包","dimensions":{"lengthCm":22,"heightCm":26,"widthCm":13},"rawTitle":"赛琳水桶老花小号•头层\n采用头层牛皮\n小号尺寸不挑身高\n高颜值百搭复古风格\n单肩斜挎风格百搭多变\n尺寸:22×26×13cm"},"price":null,"currency":"CNY","moq":1,"category":"celine-women-bags","status":"active","alibaba_url":null,"images":["https://xcimg.szwego.com/20231012/i1697099042_671_7.jpg","https://xcimg.szwego.com/20231012/i1697099042_416_8.jpg","https://xcimg.szwego.com/20231012/i1697099042_2120_2.jpg","https://xcimg.szwego.com/20231012/i1697099042_2053_0.jpg","https://xcimg.szwego.com/20231012/i1697099042_2672_6.jpg","https://xcimg.szwego.com/20231012/i1697099042_4300_1.jpg","https://xcimg.szwego.com/20231012/i1697099042_6376_3.jpg","https://xcimg.szwego.com/20231012/i1697099042_3775_4.jpg","https://xcimg.szwego.com/20231012/i1697099042_8462_5.jpg"],"created_at":"2025-02-08T12:47:15.789Z"},{"id":"item-fe9eb5dd2020","sku":"_d9f9fLi44OpNm8NuMWG9Db3HTBT0LpPoG9riTaQ","name_en":"Celine Women Bags","name_cn":"赛琳马鞍包老花•头层\nlisa最爱马鞍包\n穿搭王者款❤️\n采用头层牛皮\n更新官网新版本💥\n尺寸:18.5×17×8cm","specs":{"source":"wsxcme","sourceId":"_d9f9fLi44OpNm8NuMWG9Db3HTBT0LpPoG9riTaQ","sourceTagId":47003106,"sourceTagName":"塞琳/女包","dimensions":{"lengthCm":18.5,"heightCm":17,"widthCm":8},"rawTitle":"赛琳马鞍包老花•头层\nlisa最爱马鞍包\n穿搭王者款❤️\n采用头层牛皮\n更新官网新版本💥\n尺寸:18.5×17×8cm"},"price":null,"currency":"CNY","moq":1,"category":"celine-women-bags","status":"active","alibaba_url":null,"images":["https://xcimg.szwego.com/20231012/i1697097524_8736_0.jpg","https://xcimg.szwego.com/20231012/i1697097524_6529_5.jpg","https://xcimg.szwego.com/20231012/i1697097524_2780_8.jpg","https://xcimg.szwego.com/20231012/i1697097524_5135_2.jpg","https://xcimg.szwego.com/20231012/i1697097524_1314_6.jpg","https://xcimg.szwego.com/20231012/i1697097524_8554_4.jpg","https://xcimg.szwego.com/20231012/i1697097524_3933_1.jpg","https://xcimg.szwego.com/20231012/i1697097524_788_3.jpg","https://xcimg.szwego.com/20231012/i1697097524_6387_7.jpg"],"created_at":"2025-02-08T12:47:15.788Z"},{"id":"item-b2297479bede","sku":"_dp_p_ZGJ100HuDTaIgM_K1dkisOxH79Hj4qcLhw","name_en":"Celine Women Bags","name_cn":"赛琳腋下包白花•头层\n采用头层牛皮\n经典包型白色也很耐看\n奶乎乎的气质\n春夏小清新超搭🎏\n尺寸:23×19×7cm","specs":{"source":"wsxcme","sourceId":"_dp_p_ZGJ100HuDTaIgM_K1dkisOxH79Hj4qcLhw","sourceTagId":47003106,"sourceTagName":"塞琳/女包","dimensions":{"lengthCm":23,"heightCm":19,"widthCm":7},"rawTitle":"赛琳腋下包白花•头层\n采用头层牛皮\n经典包型白色也很耐看\n奶乎乎的气质\n春夏小清新超搭🎏\n尺寸:23×19×7cm"},"price":null,"currency":"CNY","moq":1,"category":"celine-women-bags","status":"active","alibaba_url":null,"images":["https://xcimg.szwego.com/20231012/i1697101756_4801_0.jpg","https://xcimg.szwego.com/20231012/i1697101756_259_1.jpg","https://xcimg.szwego.com/20231012/i1697101756_4752_2.jpg","https://xcimg.szwego.com/20231012/i1697101756_6493_3.jpg","https://xcimg.szwego.com/20231012/i1697101756_6781_4.jpg","https://xcimg.szwego.com/20231012/i1697101756_2093_5.jpg","https://xcimg.szwego.com/20231012/i1697101756_9830_6.jpg","https://xcimg.szwego.com/20231012/i1697101756_3895_7.jpg","https://xcimg.szwego.com/20231012/i1697101756_8190_8.jpg"],"created_at":"2025-02-08T12:47:15.787Z"},{"id":"item-0d2dcd2dd644","sku":"_dxBxB_flxYacs2wR1exQNPAXJBKLoHmaLUyUOfA","name_en":"Celine Women Bags","name_cn":"赛琳腋下包老花•头层\n采用头层牛皮\n月牙形状透出俏皮感\n又甜又辣的风格🎀\n手拎腋下背都可\n尺寸:23×19×7cm","specs":{"source":"wsxcme","sourceId":"_dxBxB_flxYacs2wR1exQNPAXJBKLoHmaLUyUOfA","sourceTagId":47003106,"sourceTagName":"塞琳/女包","dimensions":{"lengthCm":23,"heightCm":19,"widthCm":7},"rawTitle":"赛琳腋下包老花•头层\n采用头层牛皮\n月牙形状透出俏皮感\n又甜又辣的风格🎀\n手拎腋下背都可\n尺寸:23×19×7cm"},"price":null,"currency":"CNY","moq":1,"category":"celine-women-bags","status":"active","alibaba_url":null,"images":["https://xcimg.szwego.com/20231012/i1697101423_5700_0.jpg","https://xcimg.szwego.com/20231012/i1697101423_4200_1.jpg","https://xcimg.szwego.com/20231012/i1697101423_6423_2.jpg","https://xcimg.szwego.com/20231012/i1697101423_2896_3.jpg","https://xcimg.szwego.com/20231012/i1697101423_8423_4.jpg","https://xcimg.szwego.com/20231012/i1697101423_7336_5.jpg","https://xcimg.szwego.com/20231012/i1697101423_9574_7.jpg","https://xcimg.szwego.com/20231012/i1697101423_5037_6.jpg","https://xcimg.szwego.com/20231012/i1697101423_6855_8.jpg"],"created_at":"2025-02-08T12:47:15.786Z"},{"id":"item-4b72f36bff87","sku":"_dPhPhgB4WkTkAxu1y6bCUgyhqOv9am2QwfE3aiQ","name_en":"Celine Women Bags","name_cn":"赛琳新款月亮包•头层\n完美结合复古和当下潮流\n展现品牌经典元素\n凯旋门大金扣点缀💎\n实用又不失风度\n尺寸:22×7.5×17cm","specs":{"source":"wsxcme","sourceId":"_dPhPhgB4WkTkAxu1y6bCUgyhqOv9am2QwfE3aiQ","sourceTagId":47003106,"sourceTagName":"塞琳/女包","dimensions":{"lengthCm":22,"heightCm":7.5,"widthCm":17},"rawTitle":"赛琳新款月亮包•头层\n完美结合复古和当下潮流\n展现品牌经典元素\n凯旋门大金扣点缀💎\n实用又不失风度\n尺寸:22×7.5×17cm"},"price":null,"currency":"CNY","moq":1,"category":"celine-women-bags","status":"active","alibaba_url":null,"images":["https://xcimg.szwego.com/20231012/i1697102183_3830_0.jpg","https://xcimg.szwego.com/20231012/i1697102183_8472_1.jpg","https://xcimg.szwego.com/20231012/i1697102183_3251_2.jpg","https://xcimg.szwego.com/20231012/i1697102183_5026_3.jpg","https://xcimg.szwego.com/20231012/i1697102183_3401_4.jpg","https://xcimg.szwego.com/20231012/i1697102183_2622_5.jpg","https://xcimg.szwego.com/20231012/i1697102183_3069_6.jpg","https://xcimg.szwego.com/20231012/i1697102183_2306_7.jpg","https://xcimg.szwego.com/20231012/i1697102183_4428_8.jpg"],"created_at":"2025-02-08T12:47:15.785Z"},{"id":"item-e25979266d8e","sku":"_dmsmszX0BQdEtkOLbgurf0bY9gYtvffctwhAJrA","name_en":"C.赛琳印花相机包","name_cn":"C.赛琳印花相机包\nTRIOMPHE邮差包,肩带斜挎和肩背,拉链锁闭,内侧扁平口袋,复古印花风 容量也很大哦。\n尺寸:21.5 X 16.5 X 8cm\n型号:113872","specs":{"source":"wsxcme","sourceId":"_dmsmszX0BQdEtkOLbgurf0bY9gYtvffctwhAJrA","sourceTagId":47003106,"sourceTagName":"塞琳/女包","modelNumber":"113872","dimensions":{"lengthCm":21.5,"heightCm":16.5,"widthCm":8},"rawTitle":"C.赛琳印花相机包\nTRIOMPHE邮差包,肩带斜挎和肩背,拉链锁闭,内侧扁平口袋,复古印花风 容量也很大哦。\n尺寸:21.5 X 16.5 X 8cm\n型号:113872"},"price":null,"currency":"CNY","moq":1,"category":"celine-women-bags","status":"active","alibaba_url":null,"images":["https://xcimg.szwego.com/20231006/i1696605885_1800_0.jpg","https://xcimg.szwego.com/20231006/i1696605885_1201_1.jpg","https://xcimg.szwego.com/20231006/i1696605885_393_2.jpg","https://xcimg.szwego.com/20231006/i1696605885_9699_3.jpg","https://xcimg.szwego.com/20231006/i1696605885_2916_4.jpg","https://xcimg.szwego.com/20231006/i1696605885_5406_5.jpg","https://xcimg.szwego.com/20231006/i1696605885_4077_6.jpg","https://xcimg.szwego.com/20231006/i1696605885_5051_7.jpg"],"created_at":"2025-02-08T12:47:15.784Z"}],"page":174,"pageSize":24,"total":10075,"totalPages":420}
