{"items":[{"id":"item-7714ed59d5ac","sku":"_d_c_cPPYsAXwOgvlnt_NwuBGFKGDOgVewq4FFtg","name_en":"Prada Women Bags","name_cn":"正品级\n🌟(油蜡皮三合一)\n2023最新款Hobo原厂油蜡皮,配钥匙扣,可拆卸可调式徽标织物肩带 可拆卸拉链式皮质小袋 可拆卸金属链条肩带 顶部拉链拉合 尼龙衬里 涂珐琅三角形金属徽标\n尺寸:长22X高18X宽6.5CM\n款号:1BH204油蜡皮","specs":{"source":"wsxcme","sourceId":"_d_c_cPPYsAXwOgvlnt_NwuBGFKGDOgVewq4FFtg","sourceTagId":47002669,"sourceTagName":"普拉达/女包","modelNumber":"1BH204油蜡皮","dimensions":{"lengthCm":22,"heightCm":18,"widthCm":6.5},"rawTitle":"正品级\n🌟(油蜡皮三合一)\n2023最新款Hobo原厂油蜡皮,配钥匙扣,可拆卸可调式徽标织物肩带 可拆卸拉链式皮质小袋 可拆卸金属链条肩带 顶部拉链拉合 尼龙衬里 涂珐琅三角形金属徽标\n尺寸:长22X高18X宽6.5CM\n款号:1BH204油蜡皮"},"price":null,"currency":"CNY","moq":1,"category":"prada-women-bags","status":"active","alibaba_url":null,"images":["https://xcimg.szwego.com/img/2568964b/20231205/i1701764450_1590_7.jpg","https://xcimg.szwego.com/img/2568964b/20231205/i1701764449_623_5.jpg","https://xcimg.szwego.com/img/2568964b/20231205/i1701764449_351_4.jpg","https://xcimg.szwego.com/img/2568964b/20231205/i1701764449_5429_0.jpg","https://xcimg.szwego.com/img/2568964b/20231205/i1701764449_1469_1.jpg","https://xcimg.szwego.com/img/2568964b/20231205/i1701764449_4687_3.jpg","https://xcimg.szwego.com/img/2568964b/20231205/i1701764450_5829_8.jpg","https://xcimg.szwego.com/img/2568964b/20231205/i1701764449_6167_6.jpg","https://xcimg.szwego.com/img/2568964b/20231205/i1701764449_9934_2.jpg"],"created_at":"2024-09-12T05:21:07.513Z"},{"id":"item-b2c962ddc857","sku":"_dW-W-bw4Q3p2LDn3UjNNjjITOI6-oL9O4-YblMQ","name_en":"羊皮❄️Chanel 24s贝壳包  小巧精美的贝壳包如同童话故事中的甜美宝物呦~简直让女孩子心动 都点缀着闪耀光泽的金色元素呦 一眼就爱上啦 虽然看着小小一只 但是它的容量比其他小废包大 一点 姐妹们行动啦 尺寸: 11×16×2.5cm","name_cn":"羊皮❄️Chanel 24s贝壳包  小巧精美的贝壳包如同童话故事中的甜美宝物呦~简直让女孩子心动 都点缀着闪耀光泽的金色元素呦 一眼就爱上啦 虽然看着小小一只 但是它的容量比其他小废包大 一点 姐妹们行动啦 尺寸: 11×16×2.5cm","specs":{"source":"wsxcme","sourceId":"_dW-W-bw4Q3p2LDn3UjNNjjITOI6-oL9O4-YblMQ","sourceTagId":47002745,"sourceTagName":"香奈儿/女包","dimensions":{"lengthCm":11,"heightCm":16,"widthCm":2.5},"rawTitle":"羊皮❄️Chanel 24s贝壳包  小巧精美的贝壳包如同童话故事中的甜美宝物呦~简直让女孩子心动 都点缀着闪耀光泽的金色元素呦 一眼就爱上啦 虽然看着小小一只 但是它的容量比其他小废包大 一点 姐妹们行动啦 尺寸: 11×16×2.5cm"},"price":null,"currency":"CNY","moq":1,"category":"chanel-women-bags","status":"active","alibaba_url":null,"images":["https://xcimg.szwego.com/img/70762a6f/20240519/i1716127929_9607_5.jpg","https://xcimg.szwego.com/img/70762a6f/20240519/i1716127929_1368_4.jpg","https://xcimg.szwego.com/img/70762a6f/20240519/i1716127929_6225_6.jpg","https://xcimg.szwego.com/img/70762a6f/20240519/i1716127929_3565_2.jpg","https://xcimg.szwego.com/img/70762a6f/20240519/i1716127929_8132_0.jpg","https://xcimg.szwego.com/img/70762a6f/20240519/i1716127929_3122_1.jpg","https://xcimg.szwego.com/img/70762a6f/20240519/i1716127929_6756_3.jpg","https://xcimg.szwego.com/img/70762a6f/20240519/i1716127965_8966_0.jpg"],"created_at":"2024-09-10T05:52:21.176Z"},{"id":"item-c68a9be4ccd0","sku":"_dd0d030L6Jb0wfwYU5ycRV8yB8PFw1GLB5n0UlA","name_en":"24B限量款钻石手柄 长盒子包 化妆斜跨包配钻手柄 小羊皮金属 五金,手柄精致又贵气,手拎 斜挎 单肩都好看 真的太美了","name_cn":"24B限量款钻石手柄 长盒子包 化妆斜跨包配钻手柄 小羊皮金属 五金,手柄精致又贵气,手拎 斜挎 单肩都好看 真的太美了 \n款号\n尺寸10-16-8\n全套包装","specs":{"source":"wsxcme","sourceId":"_dd0d030L6Jb0wfwYU5ycRV8yB8PFw1GLB5n0UlA","sourceTagId":47002745,"sourceTagName":"香奈儿/女包","modelNumber":"尺寸10-16-8","rawTitle":"24B限量款钻石手柄 长盒子包 化妆斜跨包配钻手柄 小羊皮金属 五金,手柄精致又贵气,手拎 斜挎 单肩都好看 真的太美了 \n款号\n尺寸10-16-8\n全套包装"},"price":null,"currency":"CNY","moq":1,"category":"chanel-women-bags","status":"active","alibaba_url":null,"images":["https://xcimg.szwego.com/20240908/i1725766536_8949_0.jpg","https://xcimg.szwego.com/20240908/i1725766536_3808_1.jpg","https://xcimg.szwego.com/20240908/i1725766536_2312_2.jpg","https://xcimg.szwego.com/20240908/i1725766536_3220_3.jpg","https://xcimg.szwego.com/20240908/i1725766536_9611_4.jpg","https://xcimg.szwego.com/20240908/i1725766536_3663_5.jpg","https://xcimg.szwego.com/20240908/i1725766536_5922_6.jpg","https://xcimg.szwego.com/20240908/i1725766536_4113_7.jpg","https://xcimg.szwego.com/20240908/i1725766536_4204_8.jpg"],"created_at":"2024-09-10T05:52:21.173Z"},{"id":"item-5d259ba9f08b","sku":"_dAaAaLc0b4RsEbYHwu5zls6u0LyTVNxsL6GCYbw","name_en":"24B限量款钻石手柄 长盒子包 化妆斜跨包配钻手柄 小羊皮金属 五金,手柄精致又贵气,手拎 斜挎 单肩都好看 真的太美了","name_cn":"24B限量款钻石手柄 长盒子包 化妆斜跨包配钻手柄 小羊皮金属 五金,手柄精致又贵气,手拎 斜挎 单肩都好看 真的太美了 \n款号A\n尺寸11-8.5-7\n全套包装","specs":{"source":"wsxcme","sourceId":"_dAaAaLc0b4RsEbYHwu5zls6u0LyTVNxsL6GCYbw","sourceTagId":47002745,"sourceTagName":"香奈儿/女包","modelNumber":"A","rawTitle":"24B限量款钻石手柄 长盒子包 化妆斜跨包配钻手柄 小羊皮金属 五金,手柄精致又贵气,手拎 斜挎 单肩都好看 真的太美了 \n款号A\n尺寸11-8.5-7\n全套包装"},"price":null,"currency":"CNY","moq":1,"category":"chanel-women-bags","status":"active","alibaba_url":null,"images":["https://xcimg.szwego.com/20240908/i1725766425_8639_0.jpg","https://xcimg.szwego.com/20240908/i1725766425_4815_1.jpg","https://xcimg.szwego.com/20240908/i1725766425_4167_2.jpg","https://xcimg.szwego.com/20240908/i1725766425_9035_3.jpg","https://xcimg.szwego.com/20240908/i1725766425_3102_4.jpg","https://xcimg.szwego.com/20240908/i1725766425_3752_5.jpg","https://xcimg.szwego.com/20240908/i1725766425_2853_6.jpg","https://xcimg.szwego.com/20240908/i1725766425_7471_7.jpg","https://xcimg.szwego.com/20240908/i1725766425_2023_8.jpg"],"created_at":"2024-09-10T05:52:21.170Z"},{"id":"item-d3d11b3ed264","sku":"_ddkdkq0K498FBc9WemuEmD0nJl3DM7iv_hcH51w","name_en":"24B限量款钻石手柄 长盒子包 化妆斜跨包配钻手柄 小羊皮金属 五金,手柄精致又贵气,手拎 斜挎 单肩都好看 真的太美了","name_cn":"24B限量款钻石手柄 长盒子包 化妆斜跨包配钻手柄 小羊皮金属 五金,手柄精致又贵气,手拎 斜挎 单肩都好看 真的太美了 \n款号\n尺寸11-8.5-7\n全套包装","specs":{"source":"wsxcme","sourceId":"_ddkdkq0K498FBc9WemuEmD0nJl3DM7iv_hcH51w","sourceTagId":47002745,"sourceTagName":"香奈儿/女包","modelNumber":"尺寸11-8.5-7","rawTitle":"24B限量款钻石手柄 长盒子包 化妆斜跨包配钻手柄 小羊皮金属 五金,手柄精致又贵气,手拎 斜挎 单肩都好看 真的太美了 \n款号\n尺寸11-8.5-7\n全套包装"},"price":null,"currency":"CNY","moq":1,"category":"chanel-women-bags","status":"active","alibaba_url":null,"images":["https://xcimg.szwego.com/20240908/i1725766404_3449_0.jpg","https://xcimg.szwego.com/20240908/i1725766404_9626_1.jpg","https://xcimg.szwego.com/20240908/i1725766404_4223_2.jpg","https://xcimg.szwego.com/20240908/i1725766404_1911_3.jpg","https://xcimg.szwego.com/20240908/i1725766404_7042_4.jpg","https://xcimg.szwego.com/20240908/i1725766404_9254_5.jpg","https://xcimg.szwego.com/20240908/i1725766404_6421_6.jpg","https://xcimg.szwego.com/20240908/i1725766404_5684_7.jpg","https://xcimg.szwego.com/20240908/i1725766404_7546_8.jpg"],"created_at":"2024-09-10T05:52:21.169Z"},{"id":"item-d80f36b0acd6","sku":"_dgkgkzkFGQb30HkJrldDB_iuCc-RHO1KVi5b0UA","name_en":"24b贝壳包油蜡羊皮 的美貌屈服的一天呢 这款贝壳包无论是手提还是斜挎都非常精致。包身是闪闪油蜡羊皮 亮丽得恰到好处。提在手中,复古可爱感满分。来找寻你的复古贝壳宝藏吧","name_cn":"24b贝壳包油蜡羊皮 的美貌屈服的一天呢 这款贝壳包无论是手提还是斜挎都非常精致。包身是闪闪油蜡羊皮 亮丽得恰到好处。提在手中,复古可爱感满分。来找寻你的复古贝壳宝藏吧 \n款号\n尺寸:16x11x5.5\n配包装","specs":{"source":"wsxcme","sourceId":"_dgkgkzkFGQb30HkJrldDB_iuCc-RHO1KVi5b0UA","sourceTagId":47002745,"sourceTagName":"香奈儿/女包","modelNumber":"尺寸:16x11x5.5","rawTitle":"24b贝壳包油蜡羊皮 的美貌屈服的一天呢 这款贝壳包无论是手提还是斜挎都非常精致。包身是闪闪油蜡羊皮 亮丽得恰到好处。提在手中,复古可爱感满分。来找寻你的复古贝壳宝藏吧 \n款号\n尺寸:16x11x5.5\n配包装"},"price":null,"currency":"CNY","moq":1,"category":"chanel-women-bags","status":"active","alibaba_url":null,"images":["https://xcimg.szwego.com/20240908/i1725766326_5496_0.jpg","https://xcimg.szwego.com/20240908/i1725766326_3423_1.jpg","https://xcimg.szwego.com/20240908/i1725766326_8334_2.jpg","https://xcimg.szwego.com/20240908/i1725766326_6261_3.jpg","https://xcimg.szwego.com/20240908/i1725766326_9760_4.jpg","https://xcimg.szwego.com/20240908/i1725766326_138_5.jpg","https://xcimg.szwego.com/20240908/i1725766326_8066_6.jpg","https://xcimg.szwego.com/20240908/i1725766326_5321_7.jpg","https://xcimg.szwego.com/20240908/i1725766326_5526_8.jpg"],"created_at":"2024-09-10T05:52:21.167Z"},{"id":"item-2af5751bb890","sku":"_dtHtHEdM4QEItjVrZdxESEag_rOgzxbrLC_9Zig","name_en":"CHANEL 网兜购物袋","name_cn":"CHANEL 网兜购物袋\n尺寸:底长30cm 高40cm 加链条60cm\ncf小挂包13x11cm","specs":{"source":"wsxcme","sourceId":"_dtHtHEdM4QEItjVrZdxESEag_rOgzxbrLC_9Zig","sourceTagId":47002745,"sourceTagName":"香奈儿/女包","rawTitle":"CHANEL 网兜购物袋\n尺寸:底长30cm 高40cm 加链条60cm\ncf小挂包13x11cm"},"price":null,"currency":"CNY","moq":1,"category":"chanel-women-bags","status":"active","alibaba_url":null,"images":["https://xcimg.szwego.com/img/834e1079/20240601/a1717228315375_8507.jpg","https://xcimg.szwego.com/img/834e1079/20240601/a1717228314891_1121.jpg","https://xcimg.szwego.com/img/834e1079/20240601/a1717228315010_4480.jpg","https://xcimg.szwego.com/img/834e1079/20240601/a1717228314917_6652.jpg","https://xcimg.szwego.com/img/834e1079/20240601/a1717228314819_6725.jpg","https://xcimg.szwego.com/img/834e1079/20240601/a1717228314849_0840.jpg","https://xcimg.szwego.com/img/834e1079/20240601/a1717228316358_2112.jpg","https://xcimg.szwego.com/img/834e1079/20240601/a1717228316390_5281.jpg","https://xcimg.szwego.com/img/834e1079/20240601/a1717228316421_4703.jpg"],"created_at":"2024-09-10T05:52:21.166Z"},{"id":"item-4cdf748bafab","sku":"_dc-c-yMxruPU2Od2cR6OcdELP-KFT1kdp5lnPIQ","name_en":"Chanel vintage sport双肩包 男女同款","name_cn":"Chanel vintage sport双肩包 男女同款\n尺寸:28cm","specs":{"source":"wsxcme","sourceId":"_dc-c-yMxruPU2Od2cR6OcdELP-KFT1kdp5lnPIQ","sourceTagId":47002745,"sourceTagName":"香奈儿/女包","rawTitle":"Chanel vintage sport双肩包 男女同款\n尺寸:28cm"},"price":null,"currency":"CNY","moq":1,"category":"chanel-women-bags","status":"active","alibaba_url":null,"images":["https://xcimg.szwego.com/img/834e1079/20240601/a1717227630226_3048.jpg","https://xcimg.szwego.com/img/834e1079/20240601/a1717227630122_1463.jpg","https://xcimg.szwego.com/img/834e1079/20240601/a1717227631445_2351.jpg","https://xcimg.szwego.com/img/834e1079/20240601/a1717227630170_7431.jpg","https://xcimg.szwego.com/img/834e1079/20240601/a1717227631415_1245.jpg","https://xcimg.szwego.com/img/834e1079/20240601/a1717227630226_6841.jpg","https://xcimg.szwego.com/img/834e1079/20240601/a1717227631267_2324.jpg","https://xcimg.szwego.com/img/834e1079/20240601/a1717227630171_7142.jpg","https://xcimg.szwego.com/img/834e1079/20240601/a1717227631370_8514.jpg"],"created_at":"2024-09-10T05:52:21.165Z"},{"id":"item-be7bac5378b8","sku":"_dq5q5OBjtFRr4R0QJBNBnJr8mM4DAeeD80FTbvg","name_en":"Chanel vintage sport炸药包 男女同款","name_cn":"Chanel vintage sport炸药包 男女同款\n尺寸:37x16x17cm","specs":{"source":"wsxcme","sourceId":"_dq5q5OBjtFRr4R0QJBNBnJr8mM4DAeeD80FTbvg","sourceTagId":47002745,"sourceTagName":"香奈儿/女包","dimensions":{"lengthCm":37,"heightCm":16,"widthCm":17},"rawTitle":"Chanel vintage sport炸药包 男女同款\n尺寸:37x16x17cm"},"price":null,"currency":"CNY","moq":1,"category":"chanel-women-bags","status":"active","alibaba_url":null,"images":["https://xcimg.szwego.com/img/834e1079/20240601/a1717227124546_4305.jpg","https://xcimg.szwego.com/img/834e1079/20240601/a1717227124527_4044.jpg","https://xcimg.szwego.com/img/834e1079/20240601/a1717227124782_4764.jpg","https://xcimg.szwego.com/img/834e1079/20240601/a1717227129567_5248.jpg","https://xcimg.szwego.com/img/834e1079/20240601/a1717227127986_8134.jpg","https://xcimg.szwego.com/img/834e1079/20240601/a1717227128087_5246.jpg","https://xcimg.szwego.com/img/834e1079/20240601/a1717227128039_0634.jpg","https://xcimg.szwego.com/img/834e1079/20240601/a1717227129853_6772.jpg","https://xcimg.szwego.com/img/834e1079/20240601/a1717227127822_5724.jpg"],"created_at":"2024-09-10T05:52:21.164Z"},{"id":"item-67506703c905","sku":"_dhMhMkc93QB1U7KqqYXdf-cq_d_ZnXyl0Bf5bjg","name_en":"CHANEL VINTAGE 涂鸦慵懒大包","name_cn":"CHANEL VINTAGE 涂鸦慵懒大包\n尺寸:42x25cm","specs":{"source":"wsxcme","sourceId":"_dhMhMkc93QB1U7KqqYXdf-cq_d_ZnXyl0Bf5bjg","sourceTagId":47002745,"sourceTagName":"香奈儿/女包","rawTitle":"CHANEL VINTAGE 涂鸦慵懒大包\n尺寸:42x25cm"},"price":null,"currency":"CNY","moq":1,"category":"chanel-women-bags","status":"active","alibaba_url":null,"images":["https://xcimg.szwego.com/img/834e1079/20240630/a1719719664405_0162.jpg","https://xcimg.szwego.com/img/834e1079/20240630/a1719719664406_5378.jpg","https://xcimg.szwego.com/img/834e1079/20240630/a1719719664278_5233.jpg","https://xcimg.szwego.com/img/834e1079/20240630/a1719719664246_5800.jpg","https://xcimg.szwego.com/img/834e1079/20240630/a1719719664214_0628.jpg","https://xcimg.szwego.com/img/834e1079/20240630/a1719719664352_5832.jpg","https://xcimg.szwego.com/img/834e1079/20240630/a1719719665249_6530.jpg","https://xcimg.szwego.com/img/834e1079/20240630/a1719719665285_5238.jpg","https://xcimg.szwego.com/img/834e1079/20240630/a1719719665325_5101.jpg"],"created_at":"2024-09-10T05:52:21.163Z"},{"id":"item-6ef2ab3d0f38","sku":"_dxdxd8CD_--RPJpkczxZT6nEFjzKhFAW7Ik_K_g","name_en":"CHANEL VINTAGE jennie同款尼龙双肩","name_cn":"CHANEL VINTAGE jennie同款尼龙双肩 \n尺寸:44x35cm","specs":{"source":"wsxcme","sourceId":"_dxdxd8CD_--RPJpkczxZT6nEFjzKhFAW7Ik_K_g","sourceTagId":47002745,"sourceTagName":"香奈儿/女包","rawTitle":"CHANEL VINTAGE jennie同款尼龙双肩 \n尺寸:44x35cm"},"price":null,"currency":"CNY","moq":1,"category":"chanel-women-bags","status":"active","alibaba_url":null,"images":["https://xcimg.szwego.com/img/834e1079/20240513/a1715586522131_4682.jpg","https://xcimg.szwego.com/img/834e1079/20240513/a1715586522072_2285.jpg","https://xcimg.szwego.com/img/834e1079/20240513/a1715586522196_6513.jpg","https://xcimg.szwego.com/img/834e1079/20240513/a1715586522382_5607.jpg","https://xcimg.szwego.com/img/834e1079/20240513/a1715586522410_5372.jpg","https://xcimg.szwego.com/img/834e1079/20240513/a1715586522203_2367.jpg","https://xcimg.szwego.com/img/834e1079/20240513/a1715586523132_2775.jpg","https://xcimg.szwego.com/img/834e1079/20240513/a1715586523131_1556.jpg","https://xcimg.szwego.com/img/834e1079/20240513/a1715586523139_1485.jpg"],"created_at":"2024-09-10T05:52:21.161Z"},{"id":"item-537fada2a576","sku":"_dvovonVZxHiBcebD4krLoT4_yMpCKpawSEvF75g","name_en":"Chanel vintage乒乓球腋下包","name_cn":"Chanel vintage乒乓球腋下包\n尺寸:23cm","specs":{"source":"wsxcme","sourceId":"_dvovonVZxHiBcebD4krLoT4_yMpCKpawSEvF75g","sourceTagId":47002745,"sourceTagName":"香奈儿/女包","rawTitle":"Chanel vintage乒乓球腋下包\n尺寸:23cm"},"price":null,"currency":"CNY","moq":1,"category":"chanel-women-bags","status":"active","alibaba_url":null,"images":["https://xcimg.szwego.com/img/834e1079/20240630/a1719719432019_7381.jpg","https://xcimg.szwego.com/img/834e1079/20240630/a1719719431960_3703.jpg","https://xcimg.szwego.com/img/834e1079/20240630/a1719719432009_3683.jpg","https://xcimg.szwego.com/img/834e1079/20240630/a1719719432845_1664.jpg","https://xcimg.szwego.com/img/834e1079/20240630/a1719719432114_3421.jpg","https://xcimg.szwego.com/img/834e1079/20240630/a1719719432020_0770.jpg","https://xcimg.szwego.com/img/834e1079/20240630/a1719719432113_7838.jpg","https://xcimg.szwego.com/img/834e1079/20240630/a1719719432850_6468.jpg","https://xcimg.szwego.com/img/834e1079/20240630/a1719719432841_2543.jpg"],"created_at":"2024-09-10T05:52:21.159Z"},{"id":"item-819980d69c67","sku":"_dicicimbsgIVgzn5848iEn-W9MAe13EkC4WpQpg","name_en":"Chanel vintage拼色丹宁徽章cf","name_cn":"Chanel vintage拼色丹宁徽章cf\n尺寸:17cm","specs":{"source":"wsxcme","sourceId":"_dicicimbsgIVgzn5848iEn-W9MAe13EkC4WpQpg","sourceTagId":47002745,"sourceTagName":"香奈儿/女包","rawTitle":"Chanel vintage拼色丹宁徽章cf\n尺寸:17cm"},"price":null,"currency":"CNY","moq":1,"category":"chanel-women-bags","status":"active","alibaba_url":null,"images":["https://xcimg.szwego.com/img/834e1079/20240601/a1717228017750_0584.jpg","https://xcimg.szwego.com/img/834e1079/20240601/a1717228017730_7822.jpg","https://xcimg.szwego.com/img/834e1079/20240601/a1717228017669_2862.jpg","https://xcimg.szwego.com/img/834e1079/20240601/a1717228017702_4342.jpg","https://xcimg.szwego.com/img/834e1079/20240601/a1717228017942_6874.jpg","https://xcimg.szwego.com/img/834e1079/20240601/a1717228017854_3032.jpg","https://xcimg.szwego.com/img/834e1079/20240601/a1717228019166_7250.jpg","https://xcimg.szwego.com/img/834e1079/20240601/a1717228019242_8083.jpg","https://xcimg.szwego.com/img/834e1079/20240601/a1717228019318_0334.jpg"],"created_at":"2024-09-10T05:52:21.157Z"},{"id":"item-446306057628","sku":"_dfVfVuU3wDpH6e8Kv1YhOnnbpwp844iSi-ZOL2Q","name_en":"CHANEL VINTAGE 保龄球波士顿旅行袋","name_cn":"CHANEL VINTAGE 保龄球波士顿旅行袋\n尺寸:46cm","specs":{"source":"wsxcme","sourceId":"_dfVfVuU3wDpH6e8Kv1YhOnnbpwp844iSi-ZOL2Q","sourceTagId":47002745,"sourceTagName":"香奈儿/女包","rawTitle":"CHANEL VINTAGE 保龄球波士顿旅行袋\n尺寸:46cm"},"price":null,"currency":"CNY","moq":1,"category":"chanel-women-bags","status":"active","alibaba_url":null,"images":["https://xcimg.szwego.com/img/834e1079/20240602/a1717263330278_0223.jpg","https://xcimg.szwego.com/img/834e1079/20240602/a1717263330230_5616.jpg","https://xcimg.szwego.com/img/834e1079/20240602/a1717263330406_6285.jpg","https://xcimg.szwego.com/img/834e1079/20240602/a1717263329050_3164.jpg","https://xcimg.szwego.com/img/834e1079/20240602/a1717263328857_3545.jpg","https://xcimg.szwego.com/img/834e1079/20240602/a1717263328969_3708.jpg","https://xcimg.szwego.com/img/834e1079/20240602/a1717263328842_0236.jpg","https://xcimg.szwego.com/img/834e1079/20240602/a1717263330354_5300.jpg","https://xcimg.szwego.com/img/834e1079/20240602/a1717263330146_2722.jpg"],"created_at":"2024-09-10T05:52:21.156Z"},{"id":"item-ed54c8bcd6c6","sku":"_dsMsM5W-KeCTzFc5JJWNjBAusL0mA1dS27v20rw","name_en":"CHANEL VINTAGE编织亚麻麦穗翻盖包","name_cn":"CHANEL VINTAGE编织亚麻麦穗翻盖包\n尺寸:27cm","specs":{"source":"wsxcme","sourceId":"_dsMsM5W-KeCTzFc5JJWNjBAusL0mA1dS27v20rw","sourceTagId":47002745,"sourceTagName":"香奈儿/女包","rawTitle":"CHANEL VINTAGE编织亚麻麦穗翻盖包\n尺寸:27cm"},"price":null,"currency":"CNY","moq":1,"category":"chanel-women-bags","status":"active","alibaba_url":null,"images":["https://xcimg.szwego.com/img/834e1079/20240601/a1717227743259_1558.jpg","https://xcimg.szwego.com/img/834e1079/20240601/a1717227741208_6770.jpg","https://xcimg.szwego.com/img/834e1079/20240601/a1717227741335_0656.jpg","https://xcimg.szwego.com/img/834e1079/20240601/a1717227743417_2577.jpg","https://xcimg.szwego.com/img/834e1079/20240601/a1717227743288_2428.jpg","https://xcimg.szwego.com/img/834e1079/20240601/a1717227741239_0651.jpg","https://xcimg.szwego.com/img/834e1079/20240601/a1717227741379_1558.jpg","https://xcimg.szwego.com/img/834e1079/20240601/a1717227743338_0564.jpg","https://xcimg.szwego.com/img/834e1079/20240601/a1717227743415_5061.jpg"],"created_at":"2024-09-10T05:52:21.154Z"},{"id":"item-3a6ce1b7de04","sku":"_dsYsYy4f7Dn5uuZzMd1emtAyELJRXoMCFrm61ZQ","name_en":"Chanel VINTAGE流苏包","name_cn":"Chanel VINTAGE流苏包\n尺寸:25cm","specs":{"source":"wsxcme","sourceId":"_dsYsYy4f7Dn5uuZzMd1emtAyELJRXoMCFrm61ZQ","sourceTagId":47002745,"sourceTagName":"香奈儿/女包","rawTitle":"Chanel VINTAGE流苏包\n尺寸:25cm"},"price":null,"currency":"CNY","moq":1,"category":"chanel-women-bags","status":"active","alibaba_url":null,"images":["https://xcimg.szwego.com/img/834e1079/20240601/a1717228103290_3678.jpg","https://xcimg.szwego.com/img/834e1079/20240601/a1717228103243_2858.jpg","https://xcimg.szwego.com/img/834e1079/20240601/a1717228103170_7122.jpg","https://xcimg.szwego.com/img/834e1079/20240601/a1717228103322_6321.jpg","https://xcimg.szwego.com/img/834e1079/20240601/a1717228103340_0351.jpg","https://xcimg.szwego.com/img/834e1079/20240601/a1717228104439_4370.jpg","https://xcimg.szwego.com/img/834e1079/20240601/a1717228104522_4368.jpg","https://xcimg.szwego.com/img/834e1079/20240601/a1717228103235_6600.jpg","https://xcimg.szwego.com/img/834e1079/20240601/a1717228104373_8402.jpg"],"created_at":"2024-09-10T05:52:21.153Z"},{"id":"item-50a2198da1ca","sku":"_d8D8DmQx2eT_ASXlegIzmdK24LoIuKUqEdDErEw","name_en":"24B新款保龄球牛仔布 正面链条带有一个加紧的鸡眼,加上内袋的大空间、一整个简约又时尚潮流,这种款式过多久都依旧在时尚的前线使用频率很高,不仅适合旅行使用,平时日常也是非常实用宜搭","name_cn":"24B新款保龄球牛仔布 正面链条带有一个加紧的鸡眼,加上内袋的大空间、一整个简约又时尚潮流,这种款式过多久都依旧在时尚的前线使用频率很高,不仅适合旅行使用,平时日常也是非常实用宜搭\n款号AS4812\n尺寸28-44-15.5","specs":{"source":"wsxcme","sourceId":"_d8D8DmQx2eT_ASXlegIzmdK24LoIuKUqEdDErEw","sourceTagId":47002745,"sourceTagName":"香奈儿/女包","modelNumber":"AS4812","rawTitle":"24B新款保龄球牛仔布 正面链条带有一个加紧的鸡眼,加上内袋的大空间、一整个简约又时尚潮流,这种款式过多久都依旧在时尚的前线使用频率很高,不仅适合旅行使用,平时日常也是非常实用宜搭\n款号AS4812\n尺寸28-44-15.5"},"price":null,"currency":"CNY","moq":1,"category":"chanel-women-bags","status":"active","alibaba_url":null,"images":["https://xcimg.szwego.com/20240908/i1725766696_221_0.jpg","https://xcimg.szwego.com/20240908/i1725766696_5469_1.jpg","https://xcimg.szwego.com/20240908/i1725766696_6112_2.jpg","https://xcimg.szwego.com/20240908/i1725766696_9596_3.jpg","https://xcimg.szwego.com/20240908/i1725766696_312_4.jpg","https://xcimg.szwego.com/20240908/i1725766696_1571_5.jpg","https://xcimg.szwego.com/20240908/i1725766696_7204_6.jpg","https://xcimg.szwego.com/20240908/i1725766696_6486_7.jpg","https://xcimg.szwego.com/20240908/i1725766696_8002_8.jpg"],"created_at":"2024-09-10T05:52:21.152Z"},{"id":"item-8593c340e86c","sku":"_dyAyAzsoDk5_cCMBW8XS5BSMHKIi7chBqnQ4ivw","name_en":"24B新款保龄球牛仔布 正面链条带有一个加紧的鸡眼,加上内袋的大空间、一整个简约又时尚潮流,这种款式过多久都依旧在时尚的前线使用频率很高,不仅适合旅行使用,平时日常也是非常实用宜搭","name_cn":"24B新款保龄球牛仔布 正面链条带有一个加紧的鸡眼,加上内袋的大空间、一整个简约又时尚潮流,这种款式过多久都依旧在时尚的前线使用频率很高,不仅适合旅行使用,平时日常也是非常实用宜搭\n款号AS4905\n尺寸21-33-15","specs":{"source":"wsxcme","sourceId":"_dyAyAzsoDk5_cCMBW8XS5BSMHKIi7chBqnQ4ivw","sourceTagId":47002745,"sourceTagName":"香奈儿/女包","modelNumber":"AS4905","rawTitle":"24B新款保龄球牛仔布 正面链条带有一个加紧的鸡眼,加上内袋的大空间、一整个简约又时尚潮流,这种款式过多久都依旧在时尚的前线使用频率很高,不仅适合旅行使用,平时日常也是非常实用宜搭\n款号AS4905\n尺寸21-33-15"},"price":null,"currency":"CNY","moq":1,"category":"chanel-women-bags","status":"active","alibaba_url":null,"images":["https://xcimg.szwego.com/20240908/i1725766635_7468_0.jpg","https://xcimg.szwego.com/20240908/i1725766635_151_1.jpg","https://xcimg.szwego.com/20240908/i1725766635_8255_2.jpg","https://xcimg.szwego.com/20240908/i1725766635_7943_3.jpg","https://xcimg.szwego.com/20240908/i1725766635_93_4.jpg","https://xcimg.szwego.com/20240908/i1725766635_7646_5.jpg","https://xcimg.szwego.com/20240908/i1725766635_5097_6.jpg","https://xcimg.szwego.com/20240908/i1725766635_1665_7.jpg","https://xcimg.szwego.com/20240908/i1725766635_158_8.jpg"],"created_at":"2024-09-10T05:52:21.150Z"},{"id":"item-a26465045995","sku":"_dy7y79fr-GVe5Iphe4Ivu3ONV-udyhH7gbc4QOA","name_en":"Chane1🧩24B 秋冬系列 AS4947珍珠款氛围感满满 小羊皮配金色金属 令人爱不释手啊 黑色的沉稳与金色的华丽结合带来独特的魅力","name_cn":"Chane1🧩24B 秋冬系列 AS4947珍珠款氛围感满满 小羊皮配金色金属 令人爱不释手啊 黑色的沉稳与金色的华丽结合带来独特的魅力\n金色小双C扣和珍珠链条设计 使这个包包更加独特\n奢华感一点也没落下 小巧的口盖包既方便携带又不失容量 日常超级好背的哦 尺寸:12×20×6cm","specs":{"source":"wsxcme","sourceId":"_dy7y79fr-GVe5Iphe4Ivu3ONV-udyhH7gbc4QOA","sourceTagId":47002745,"sourceTagName":"香奈儿/女包","dimensions":{"lengthCm":12,"heightCm":20,"widthCm":6},"rawTitle":"Chane1🧩24B 秋冬系列 AS4947珍珠款氛围感满满 小羊皮配金色金属 令人爱不释手啊 黑色的沉稳与金色的华丽结合带来独特的魅力\n金色小双C扣和珍珠链条设计 使这个包包更加独特\n奢华感一点也没落下 小巧的口盖包既方便携带又不失容量 日常超级好背的哦 尺寸:12×20×6cm"},"price":null,"currency":"CNY","moq":1,"category":"chanel-women-bags","status":"active","alibaba_url":null,"images":["https://xcimg.szwego.com/img/70762a6f/20240829/i1724882345_1418_0.jpg","https://xcimg.szwego.com/img/70762a6f/20240829/i1724882344_3006_0.jpg","https://xcimg.szwego.com/img/70762a6f/20240829/i1724882344_9017_0.jpg","https://xcimg.szwego.com/img/70762a6f/20240829/i1724882344_919_0.jpg","https://xcimg.szwego.com/img/70762a6f/20240829/i1724882344_3223_0.jpg","https://xcimg.szwego.com/img/70762a6f/20240829/i1724882344_3237_0.jpg","https://xcimg.szwego.com/img/70762a6f/20240829/i1724882344_5324_0.jpg","https://xcimg.szwego.com/img/70762a6f/20240829/i1724882345_7917_0.jpg","https://xcimg.szwego.com/img/70762a6f/20240829/i1724882344_8067_0.jpg"],"created_at":"2024-09-10T05:52:21.149Z"},{"id":"item-3f786578359a","sku":"_diyiyY9FoYsU5MqdM5lH5zcfzoisC91-9BqY7aQ","name_en":"Chane1🌊24A牛仔款 AS4812 保龄球 AS4812 颜值好高 很特别 精致又耐看 上身满满惊喜 高级慵懒又随性 容量超大 旅行必备 尺寸: 28×44×15.5cm","name_cn":"Chane1🌊24A牛仔款 AS4812 保龄球 AS4812 颜值好高 很特别 精致又耐看 上身满满惊喜 高级慵懒又随性 容量超大 旅行必备 尺寸: 28×44×15.5cm","specs":{"source":"wsxcme","sourceId":"_diyiyY9FoYsU5MqdM5lH5zcfzoisC91-9BqY7aQ","sourceTagId":47002745,"sourceTagName":"香奈儿/女包","dimensions":{"lengthCm":28,"heightCm":44,"widthCm":15.5},"rawTitle":"Chane1🌊24A牛仔款 AS4812 保龄球 AS4812 颜值好高 很特别 精致又耐看 上身满满惊喜 高级慵懒又随性 容量超大 旅行必备 尺寸: 28×44×15.5cm"},"price":null,"currency":"CNY","moq":1,"category":"chanel-women-bags","status":"active","alibaba_url":null,"images":["https://xcimg.szwego.com/img/70762a6f/20240829/i1724883416_740_0.jpg","https://xcimg.szwego.com/img/70762a6f/20240829/i1724883416_678_0.jpg","https://xcimg.szwego.com/img/70762a6f/20240829/i1724883416_9595_0.jpg","https://xcimg.szwego.com/img/70762a6f/20240829/i1724883416_6521_0.jpg","https://xcimg.szwego.com/img/70762a6f/20240829/i1724883416_1658_0.jpg","https://xcimg.szwego.com/img/70762a6f/20240829/i1724883416_1771_0.jpg","https://xcimg.szwego.com/img/70762a6f/20240829/i1724883416_5508_0.jpg","https://xcimg.szwego.com/img/70762a6f/20240829/i1724883417_4758_0.jpg","https://xcimg.szwego.com/img/70762a6f/20240829/i1724883416_5943_0.jpg"],"created_at":"2024-09-10T05:52:21.147Z"},{"id":"item-605055da5718","sku":"_dlwlwgTZcJM2XUSUapCoPWAHA_-bbD4HRHedfsQ","name_en":"Chane1💔24A牛仔款 AS4905保龄球  颜值好高 很特别 精致又耐看 上身满满惊喜 高级慵懒又随性 容量超大 旅行必备 尺寸: 21.5×33×14.5cm","name_cn":"Chane1💔24A牛仔款 AS4905保龄球  颜值好高 很特别 精致又耐看 上身满满惊喜 高级慵懒又随性 容量超大 旅行必备 尺寸: 21.5×33×14.5cm","specs":{"source":"wsxcme","sourceId":"_dlwlwgTZcJM2XUSUapCoPWAHA_-bbD4HRHedfsQ","sourceTagId":47002745,"sourceTagName":"香奈儿/女包","dimensions":{"lengthCm":21.5,"heightCm":33,"widthCm":14.5},"rawTitle":"Chane1💔24A牛仔款 AS4905保龄球  颜值好高 很特别 精致又耐看 上身满满惊喜 高级慵懒又随性 容量超大 旅行必备 尺寸: 21.5×33×14.5cm"},"price":null,"currency":"CNY","moq":1,"category":"chanel-women-bags","status":"active","alibaba_url":null,"images":["https://xcimg.szwego.com/img/70762a6f/20240829/i1724883831_8267_2.jpg","https://xcimg.szwego.com/img/70762a6f/20240829/i1724883831_7165_3.jpg","https://xcimg.szwego.com/img/70762a6f/20240829/i1724883831_6679_4.jpg","https://xcimg.szwego.com/img/70762a6f/20240829/i1724883831_9276_8.jpg","https://xcimg.szwego.com/img/70762a6f/20240829/i1724883831_3758_6.jpg","https://xcimg.szwego.com/img/70762a6f/20240829/i1724883831_4544_5.jpg","https://xcimg.szwego.com/img/70762a6f/20240829/i1724883831_9096_7.jpg","https://xcimg.szwego.com/img/70762a6f/20240829/i1724883831_6870_0.jpg","https://xcimg.szwego.com/img/70762a6f/20240829/i1724883831_4507_1.jpg"],"created_at":"2024-09-10T05:52:21.146Z"},{"id":"item-637b29be5c63","sku":"_dgRgRJ7xSks_DW1bamR8qw82cofNMI4Ub99So4A","name_en":"Chane1☪️24B 限量款AS4418 蝴蝶结🎀CF 黑白亮片 这颜值闪闪惹人爱  满满高级感 奢华贵气十足 经典的设计才是小香的灵魂 时髦精必备 美爆啦😍 尺寸:21cm","name_cn":"Chane1☪️24B 限量款AS4418 蝴蝶结🎀CF 黑白亮片 这颜值闪闪惹人爱  满满高级感 奢华贵气十足 经典的设计才是小香的灵魂 时髦精必备 美爆啦😍 尺寸:21cm","specs":{"source":"wsxcme","sourceId":"_dgRgRJ7xSks_DW1bamR8qw82cofNMI4Ub99So4A","sourceTagId":47002745,"sourceTagName":"香奈儿/女包","rawTitle":"Chane1☪️24B 限量款AS4418 蝴蝶结🎀CF 黑白亮片 这颜值闪闪惹人爱  满满高级感 奢华贵气十足 经典的设计才是小香的灵魂 时髦精必备 美爆啦😍 尺寸:21cm"},"price":null,"currency":"CNY","moq":1,"category":"chanel-women-bags","status":"active","alibaba_url":null,"images":["https://xcimg.szwego.com/img/70762a6f/20240830/i1724960507_7376_7.jpg","https://xcimg.szwego.com/img/70762a6f/20240830/i1724960507_61_0.jpg","https://xcimg.szwego.com/img/70762a6f/20240830/i1724960507_7443_5.jpg","https://xcimg.szwego.com/img/70762a6f/20240830/i1724960507_5352_6.jpg","https://xcimg.szwego.com/img/70762a6f/20240830/i1724960507_4993_2.jpg","https://xcimg.szwego.com/img/70762a6f/20240830/i1724960507_4966_1.jpg","https://xcimg.szwego.com/img/70762a6f/20240830/i1724960507_8544_4.jpg","https://xcimg.szwego.com/img/70762a6f/20240830/i1724960507_2986_8.jpg","https://xcimg.szwego.com/img/70762a6f/20240830/i1724960507_1987_3.jpg"],"created_at":"2024-09-10T05:52:21.145Z"},{"id":"item-a365c856cba7","sku":"_dvbvbTC6jfvmz9OTmzaaIRxFbkQlNWRH5IeRBgw","name_en":"Chane1 🖤24B 麻花编制手柄AS5043 抛光羊皮配金属五金  散发着独特的魅力 简直爱不释手 质感高雅 手感柔软舒服 不易磨损 即时尚又实用 是日常出街完美选择 尺寸:25cm","name_cn":"Chane1 🖤24B 麻花编制手柄AS5043 抛光羊皮配金属五金  散发着独特的魅力 简直爱不释手 质感高雅 手感柔软舒服 不易磨损 即时尚又实用 是日常出街完美选择 尺寸:25cm","specs":{"source":"wsxcme","sourceId":"_dvbvbTC6jfvmz9OTmzaaIRxFbkQlNWRH5IeRBgw","sourceTagId":47002745,"sourceTagName":"香奈儿/女包","rawTitle":"Chane1 🖤24B 麻花编制手柄AS5043 抛光羊皮配金属五金  散发着独特的魅力 简直爱不释手 质感高雅 手感柔软舒服 不易磨损 即时尚又实用 是日常出街完美选择 尺寸:25cm"},"price":null,"currency":"CNY","moq":1,"category":"chanel-women-bags","status":"active","alibaba_url":null,"images":["https://xcimg.szwego.com/img/70762a6f/20240905/i1725476707_6564_0.jpg","https://xcimg.szwego.com/img/70762a6f/20240905/i1725476778_5060_0.jpg","https://xcimg.szwego.com/img/70762a6f/20240905/i1725477062_3034_0.jpg","https://xcimg.szwego.com/img/70762a6f/20240905/i1725477062_49_4.jpg","https://xcimg.szwego.com/img/70762a6f/20240905/i1725477062_6918_3.jpg","https://xcimg.szwego.com/img/70762a6f/20240905/i1725477062_927_5.jpg","https://xcimg.szwego.com/img/70762a6f/20240905/i1725477062_7941_1.jpg","https://xcimg.szwego.com/img/70762a6f/20240905/i1725477062_4179_2.jpg","https://xcimg.szwego.com/img/70762a6f/20240905/i1725477062_2693_7.jpg"],"created_at":"2024-09-10T05:52:21.142Z"},{"id":"item-337836479f1c","sku":"_dmWmW3TMkoF9ZGP7ukpVvfYOn_92eCWpId5ofng","name_en":"。💓【配全套专柜绿色包装】🔥官网参考爆款马鞍包 迷你牛仔Gucci Horsebit 1955 mini bag型号:658574 尺寸:20.5*14.5*5.5cm","name_cn":"。💓【配全套专柜绿色包装】🔥官网参考爆款马鞍包 迷你牛仔Gucci Horsebit 1955 mini bag型号:658574 尺寸:20.5*14.5*5.5cm","specs":{"source":"wsxcme","sourceId":"_dmWmW3TMkoF9ZGP7ukpVvfYOn_92eCWpId5ofng","sourceTagId":47002679,"sourceTagName":"古驰/女包","modelNumber":"658574 尺寸:20.5*14.5*5.5cm","dimensions":{"lengthCm":20.5,"heightCm":14.5,"widthCm":5.5},"rawTitle":"。💓【配全套专柜绿色包装】🔥官网参考爆款马鞍包 迷你牛仔Gucci Horsebit 1955 mini bag型号:658574 尺寸:20.5*14.5*5.5cm"},"price":null,"currency":"CNY","moq":1,"category":"gucci-women-bags","status":"active","alibaba_url":null,"images":["https://xcimg.szwego.com/20210625/i1624632754_5439_0.jpg","https://xcimg.szwego.com/20210625/i1624632754_713_1.jpg","https://xcimg.szwego.com/20210625/i1624632754_9194_2.jpg","https://xcimg.szwego.com/20210625/i1624632754_3557_3.jpg","https://xcimg.szwego.com/20210625/i1624632754_933_4.jpg","https://xcimg.szwego.com/20210625/i1624632754_4038_5.jpg","https://xcimg.szwego.com/20210625/i1624632754_3092_6.jpg","https://xcimg.szwego.com/20210625/i1624632754_252_7.jpg","https://xcimg.szwego.com/20210625/i1624632754_6506_8.jpg"],"created_at":"2024-08-29T02:53:58.997Z"}],"page":376,"pageSize":24,"total":10075,"totalPages":420}
