{"items":[{"id":"item-482f44acf89e","sku":"_daQaQFVNklNK5rIy3adqMq3a2EQLrCUaqpaFLxA","name_en":"✨Garden 36cm ✨","name_cn":"✨Garden 36cm ✨\ncanvas togo ZG hardware\n【in stock】","specs":{"source":"wsxcme","sourceId":"_daQaQFVNklNK5rIy3adqMq3a2EQLrCUaqpaFLxA","sourceTagId":76963559,"sourceTagName":"Hermes/women's bag","rawTitle":"✨Garden 36cm ✨\ncanvas togo ZG hardware\n【in stock】"},"price":null,"currency":"CNY","moq":1,"category":"hermes-women-bags","status":"active","alibaba_url":null,"images":["https://xcimg.szwego.com/20240517/i1715878180_9542_0.jpg","https://xcimg.szwego.com/20240517/i1715878180_7675_1.jpg","https://xcimg.szwego.com/20240517/i1715878180_787_2.jpg","https://xcimg.szwego.com/20240517/i1715878180_1795_3.jpg","https://xcimg.szwego.com/20240517/i1715878180_3641_4.jpg","https://xcimg.szwego.com/20240517/i1715878180_4291_5.jpg","https://xcimg.szwego.com/20240517/i1715878180_522_6.jpg","https://xcimg.szwego.com/20240517/i1715878180_9697_7.jpg"],"created_at":"2024-10-22T05:04:33.233Z"},{"id":"item-8b0c0317d21a","sku":"_dnbnb-k9ronJYr6QximwDNT1eu9CysJw56Fu2FQ","name_en":"✨Garden 36cm ✨","name_cn":"✨Garden 36cm ✨\ncanvas togo ZG hardware\n【in stock】","specs":{"source":"wsxcme","sourceId":"_dnbnb-k9ronJYr6QximwDNT1eu9CysJw56Fu2FQ","sourceTagId":76963559,"sourceTagName":"Hermes/women's bag","rawTitle":"✨Garden 36cm ✨\ncanvas togo ZG hardware\n【in stock】"},"price":null,"currency":"CNY","moq":1,"category":"hermes-women-bags","status":"active","alibaba_url":null,"images":["https://xcimg.szwego.com/20240517/i1715878165_9138_0.jpg","https://xcimg.szwego.com/20240517/i1715878165_6200_1.jpg","https://xcimg.szwego.com/20240517/i1715878165_576_2.jpg","https://xcimg.szwego.com/20240517/i1715878165_800_3.jpg","https://xcimg.szwego.com/20240517/i1715878165_1421_4.jpg","https://xcimg.szwego.com/20240517/i1715878165_2250_5.jpg","https://xcimg.szwego.com/20240517/i1715878165_4624_6.jpg","https://xcimg.szwego.com/20240517/i1715878165_6088_7.jpg"],"created_at":"2024-10-22T05:04:33.232Z"},{"id":"item-9447ca54b99b","sku":"_dH-H-ROwrzBXb9IwP6PYLwfHkKIV_sAwT-_e8Hw","name_en":"✨Garden 36cm ✨","name_cn":"✨Garden 36cm ✨\ncanvas togo ZG hardware\n【in stock】","specs":{"source":"wsxcme","sourceId":"_dH-H-ROwrzBXb9IwP6PYLwfHkKIV_sAwT-_e8Hw","sourceTagId":76963559,"sourceTagName":"Hermes/women's bag","rawTitle":"✨Garden 36cm ✨\ncanvas togo ZG hardware\n【in stock】"},"price":null,"currency":"CNY","moq":1,"category":"hermes-women-bags","status":"active","alibaba_url":null,"images":["https://xcimg.szwego.com/20240517/i1715877823_2842_0.jpg","https://xcimg.szwego.com/20240517/i1715877823_9400_1.jpg","https://xcimg.szwego.com/20240517/i1715877823_9540_2.jpg","https://xcimg.szwego.com/20240517/i1715877823_4186_3.jpg","https://xcimg.szwego.com/20240517/i1715877823_9593_4.jpg","https://xcimg.szwego.com/20240517/i1715877823_1307_5.jpg","https://xcimg.szwego.com/20240517/i1715877823_4619_6.jpg","https://xcimg.szwego.com/20240517/i1715877823_2958_7.jpg"],"created_at":"2024-10-22T05:04:33.231Z"},{"id":"item-be4ce4e6e89c","sku":"_dYsYs3KgcY8Dc0EAgJWHw0TPdntvnlTU72wzRrw","name_en":"✨Garden 36cm ✨","name_cn":"✨Garden 36cm ✨\ncanvas togo ZG hardware\n【in stock】","specs":{"source":"wsxcme","sourceId":"_dYsYs3KgcY8Dc0EAgJWHw0TPdntvnlTU72wzRrw","sourceTagId":76963559,"sourceTagName":"Hermes/women's bag","rawTitle":"✨Garden 36cm ✨\ncanvas togo ZG hardware\n【in stock】"},"price":null,"currency":"CNY","moq":1,"category":"hermes-women-bags","status":"active","alibaba_url":null,"images":["https://xcimg.szwego.com/20240621/i1718949671_3045_0.jpg","https://xcimg.szwego.com/20240621/i1718949671_2230_1.jpg","https://xcimg.szwego.com/20240621/i1718949671_9025_2.jpg","https://xcimg.szwego.com/20240621/i1718949671_3256_3.jpg","https://xcimg.szwego.com/20240621/i1718949671_4101_4.jpg","https://xcimg.szwego.com/20240621/i1718949671_1947_5.jpg","https://xcimg.szwego.com/20240621/i1718949671_4379_6.jpg","https://xcimg.szwego.com/20240621/i1718949671_183_7.jpg"],"created_at":"2024-10-22T05:04:33.230Z"},{"id":"item-62c199435e67","sku":"_dxyxyDlMcAbKGnbHcbpV49mme1gmx8oOjRkJNZA","name_en":"✨Garden 36cm ✨","name_cn":"✨Garden 36cm ✨\ncanvas togo ZG hardware\n【in stock】","specs":{"source":"wsxcme","sourceId":"_dxyxyDlMcAbKGnbHcbpV49mme1gmx8oOjRkJNZA","sourceTagId":76963559,"sourceTagName":"Hermes/women's bag","rawTitle":"✨Garden 36cm ✨\ncanvas togo ZG hardware\n【in stock】"},"price":null,"currency":"CNY","moq":1,"category":"hermes-women-bags","status":"active","alibaba_url":null,"images":["https://xcimg.szwego.com/20240621/i1718949652_3799_0.jpg","https://xcimg.szwego.com/20240621/i1718949652_2061_1.jpg","https://xcimg.szwego.com/20240621/i1718949652_3055_2.jpg","https://xcimg.szwego.com/20240621/i1718949652_6683_3.jpg","https://xcimg.szwego.com/20240621/i1718949652_1437_4.jpg","https://xcimg.szwego.com/20240621/i1718949652_4582_5.jpg","https://xcimg.szwego.com/20240621/i1718949652_1265_6.jpg"],"created_at":"2024-10-22T05:04:33.229Z"},{"id":"item-1ffa6eaced16","sku":"_dNxNxTGQoJZ9rcTCoplDHYIPEhlBqehw8Z1nq1g","name_en":"✨Garden 36cm ✨","name_cn":"✨Garden 36cm ✨\ncanvas togo ZG hardware\n【in stock】","specs":{"source":"wsxcme","sourceId":"_dNxNxTGQoJZ9rcTCoplDHYIPEhlBqehw8Z1nq1g","sourceTagId":76963559,"sourceTagName":"Hermes/women's bag","rawTitle":"✨Garden 36cm ✨\ncanvas togo ZG hardware\n【in stock】"},"price":null,"currency":"CNY","moq":1,"category":"hermes-women-bags","status":"active","alibaba_url":null,"images":["https://xcimg.szwego.com/20240621/i1718949613_3579_0.jpg","https://xcimg.szwego.com/20240621/i1718949613_4979_1.jpg","https://xcimg.szwego.com/20240621/i1718949613_3470_2.jpg","https://xcimg.szwego.com/20240621/i1718949613_7556_3.jpg","https://xcimg.szwego.com/20240621/i1718949613_8821_4.jpg","https://xcimg.szwego.com/20240621/i1718949613_2842_5.jpg","https://xcimg.szwego.com/20240621/i1718949613_7959_6.jpg","https://xcimg.szwego.com/20240621/i1718949613_5467_7.jpg"],"created_at":"2024-10-22T05:04:33.228Z"},{"id":"item-4d56353945f2","sku":"_dv4v4ARJFTr73abnXH38C-ObybY9IyxY-TcHbEQ","name_en":"✨Garden 36cm ✨","name_cn":"✨Garden 36cm ✨\ncanvas togo ZG hardware\n【in stock】","specs":{"source":"wsxcme","sourceId":"_dv4v4ARJFTr73abnXH38C-ObybY9IyxY-TcHbEQ","sourceTagId":76963559,"sourceTagName":"Hermes/women's bag","rawTitle":"✨Garden 36cm ✨\ncanvas togo ZG hardware\n【in stock】"},"price":null,"currency":"CNY","moq":1,"category":"hermes-women-bags","status":"active","alibaba_url":null,"images":["https://xcimg.szwego.com/20240621/i1718949591_3882_0.jpg","https://xcimg.szwego.com/20240621/i1718949591_607_1.jpg","https://xcimg.szwego.com/20240621/i1718949591_6583_2.jpg","https://xcimg.szwego.com/20240621/i1718949591_7979_3.jpg","https://xcimg.szwego.com/20240621/i1718949591_1441_4.jpg","https://xcimg.szwego.com/20240621/i1718949591_7280_5.jpg","https://xcimg.szwego.com/20240621/i1718949591_4772_6.jpg","https://xcimg.szwego.com/20240621/i1718949591_361_7.jpg"],"created_at":"2024-10-22T05:04:33.227Z"},{"id":"item-2a386d5e832b","sku":"_dtOtO9LFw2YV-boWD4zK3CBNEINItdRqOckFMfw","name_en":"✨Garden 36cm ✨","name_cn":"✨Garden 36cm ✨\ncanvas togo ZG hardware\n【in stock】","specs":{"source":"wsxcme","sourceId":"_dtOtO9LFw2YV-boWD4zK3CBNEINItdRqOckFMfw","sourceTagId":76963559,"sourceTagName":"Hermes/women's bag","rawTitle":"✨Garden 36cm ✨\ncanvas togo ZG hardware\n【in stock】"},"price":null,"currency":"CNY","moq":1,"category":"hermes-women-bags","status":"active","alibaba_url":null,"images":["https://xcimg.szwego.com/20240621/i1718949575_8875_0.jpg","https://xcimg.szwego.com/20240621/i1718949575_5115_1.jpg","https://xcimg.szwego.com/20240621/i1718949575_6928_2.jpg","https://xcimg.szwego.com/20240621/i1718949575_2269_3.jpg","https://xcimg.szwego.com/20240621/i1718949575_2027_4.jpg","https://xcimg.szwego.com/20240621/i1718949575_4423_5.jpg","https://xcimg.szwego.com/20240621/i1718949575_6805_6.jpg","https://xcimg.szwego.com/20240621/i1718949575_3000_7.jpg"],"created_at":"2024-10-22T05:04:33.226Z"},{"id":"item-bd4fdde742f6","sku":"_dxIxIN2xWFCvSI9SEeTjOJmop86jQHfjtYtzN-A","name_en":"✨Garden 36cm ✨","name_cn":"✨Garden 36cm ✨\ncanvas togo ZG hardware\n【in stock】","specs":{"source":"wsxcme","sourceId":"_dxIxIN2xWFCvSI9SEeTjOJmop86jQHfjtYtzN-A","sourceTagId":76963559,"sourceTagName":"Hermes/women's bag","rawTitle":"✨Garden 36cm ✨\ncanvas togo ZG hardware\n【in stock】"},"price":null,"currency":"CNY","moq":1,"category":"hermes-women-bags","status":"active","alibaba_url":null,"images":["https://xcimg.szwego.com/20240621/i1718949561_6994_0.jpg","https://xcimg.szwego.com/20240621/i1718949561_7546_1.jpg","https://xcimg.szwego.com/20240621/i1718949561_3275_2.jpg","https://xcimg.szwego.com/20240621/i1718949561_9789_3.jpg","https://xcimg.szwego.com/20240621/i1718949561_8449_4.jpg","https://xcimg.szwego.com/20240621/i1718949561_2096_5.jpg","https://xcimg.szwego.com/20240621/i1718949561_7004_6.jpg","https://xcimg.szwego.com/20240621/i1718949561_6877_7.jpg"],"created_at":"2024-10-22T05:04:33.225Z"},{"id":"item-de7aa6d4f224","sku":"_dRjRjn30oTRh7uQqNiJPgmeBGfkK8KyTtMdA-_g","name_en":"✨Garden 36cm ✨","name_cn":"✨Garden 36cm ✨\ncanvas togo ZG hardware\n【in stock】","specs":{"source":"wsxcme","sourceId":"_dRjRjn30oTRh7uQqNiJPgmeBGfkK8KyTtMdA-_g","sourceTagId":76963559,"sourceTagName":"Hermes/women's bag","rawTitle":"✨Garden 36cm ✨\ncanvas togo ZG hardware\n【in stock】"},"price":null,"currency":"CNY","moq":1,"category":"hermes-women-bags","status":"active","alibaba_url":null,"images":["https://xcimg.szwego.com/20240621/i1718949541_6244_0.jpg","https://xcimg.szwego.com/20240621/i1718949541_8602_1.jpg","https://xcimg.szwego.com/20240621/i1718949541_7156_2.jpg","https://xcimg.szwego.com/20240621/i1718949541_7134_3.jpg","https://xcimg.szwego.com/20240621/i1718949541_592_4.jpg","https://xcimg.szwego.com/20240621/i1718949541_5311_5.jpg","https://xcimg.szwego.com/20240621/i1718949541_4968_6.jpg","https://xcimg.szwego.com/20240621/i1718949541_7557_7.jpg"],"created_at":"2024-10-22T05:04:33.224Z"},{"id":"item-e3ea208efd80","sku":"_djMjMMhtWho6ciW0-eYO-L065NXiTyT9FCDW40A","name_en":"✨Garden 36cm ✨","name_cn":"✨Garden 36cm ✨\ncanvas togo ZG hardware\n【in stock】","specs":{"source":"wsxcme","sourceId":"_djMjMMhtWho6ciW0-eYO-L065NXiTyT9FCDW40A","sourceTagId":76963559,"sourceTagName":"Hermes/women's bag","rawTitle":"✨Garden 36cm ✨\ncanvas togo ZG hardware\n【in stock】"},"price":null,"currency":"CNY","moq":1,"category":"hermes-women-bags","status":"active","alibaba_url":null,"images":["https://xcimg.szwego.com/20240621/i1718949522_556_0.jpg","https://xcimg.szwego.com/20240621/i1718949522_6223_1.jpg","https://xcimg.szwego.com/20240621/i1718949522_6794_2.jpg","https://xcimg.szwego.com/20240621/i1718949522_9902_3.jpg","https://xcimg.szwego.com/20240621/i1718949522_1866_4.jpg","https://xcimg.szwego.com/20240621/i1718949522_6805_5.jpg","https://xcimg.szwego.com/20240621/i1718949522_5552_6.jpg","https://xcimg.szwego.com/20240621/i1718949522_1348_7.jpg"],"created_at":"2024-10-22T05:04:33.223Z"},{"id":"item-ce076b168b24","sku":"_dlolod120MEsJbHigVKEuvOQqlU79GjyurzHqzw","name_en":"✨ mini","name_cn":"✨ mini\nColor: / /\n epsom 、\n +\nSize:19cm","specs":{"source":"wsxcme","sourceId":"_dlolod120MEsJbHigVKEuvOQqlU79GjyurzHqzw","sourceTagId":76963559,"sourceTagName":"Hermes/women's bag","rawTitle":"✨ mini\nColor: / /\n epsom 、\n +\nSize:19cm"},"price":null,"currency":"CNY","moq":1,"category":"hermes-women-bags","status":"active","alibaba_url":null,"images":["https://xcimg.szwego.com/img/88b306c4/20240903/a1725373313027_3384.jpg","https://xcimg.szwego.com/img/88b306c4/20240903/a1725373313064_2512.jpg","https://xcimg.szwego.com/img/88b306c4/20240903/a1725373313022_3103.jpg","https://xcimg.szwego.com/img/88b306c4/20240903/a1725373313421_7078.jpg","https://xcimg.szwego.com/img/88b306c4/20240903/a1725373313400_1011.jpg","https://xcimg.szwego.com/img/88b306c4/20240903/a1725373313398_6106.jpg","https://xcimg.szwego.com/img/88b306c4/20240903/a1725373314642_6850.jpg","https://xcimg.szwego.com/img/88b306c4/20240903/a1725373314682_5730.jpg","https://xcimg.szwego.com/img/88b306c4/20240903/a1725373314574_1710.jpg"],"created_at":"2024-10-22T05:04:33.222Z"},{"id":"item-67db27996d57","sku":"_dnSnS23lpYrOvXrJdzQDyZf4e-EgwZ6bKom2v7w","name_en":"✨ mini","name_cn":"✨ mini\nColor: / /\n epsom 、\n +\nSize:19cm","specs":{"source":"wsxcme","sourceId":"_dnSnS23lpYrOvXrJdzQDyZf4e-EgwZ6bKom2v7w","sourceTagId":76963559,"sourceTagName":"Hermes/women's bag","rawTitle":"✨ mini\nColor: / /\n epsom 、\n +\nSize:19cm"},"price":null,"currency":"CNY","moq":1,"category":"hermes-women-bags","status":"active","alibaba_url":null,"images":["https://xcimg.szwego.com/img/88b306c4/20240903/a1725372922256_0033.jpg","https://xcimg.szwego.com/img/88b306c4/20240903/a1725372922309_2527.jpg","https://xcimg.szwego.com/img/88b306c4/20240903/a1725372922212_1123.jpg","https://xcimg.szwego.com/img/88b306c4/20240903/a1725372922619_6632.jpg","https://xcimg.szwego.com/img/88b306c4/20240903/a1725372922211_7374.jpg","https://xcimg.szwego.com/img/88b306c4/20240903/a1725372922518_7056.jpg","https://xcimg.szwego.com/img/88b306c4/20240903/a1725372923785_4757.jpg","https://xcimg.szwego.com/img/88b306c4/20240903/a1725372923694_7663.jpg","https://xcimg.szwego.com/img/88b306c4/20240903/a1725372923681_5014.jpg"],"created_at":"2024-10-22T05:04:33.221Z"},{"id":"item-f599b6536170","sku":"_di7i7CzGd3-9x-g36B8hCs2sDypmbVEgvjV7GTg","name_en":"/ Garden 30./","name_cn":"/ Garden 30./\n _ 🥇 Garden , canvas ! ~\n in stock","specs":{"source":"wsxcme","sourceId":"_di7i7CzGd3-9x-g36B8hCs2sDypmbVEgvjV7GTg","sourceTagId":76963559,"sourceTagName":"Hermes/women's bag","rawTitle":"/ Garden 30./\n _ 🥇 Garden , canvas ! ~\n in stock"},"price":null,"currency":"CNY","moq":1,"category":"hermes-women-bags","status":"active","alibaba_url":null,"images":["https://xcimg.szwego.com/20220507/i1651892863_8134_0.jpg","https://xcimg.szwego.com/20220507/i1651892863_9935_1.jpg","https://xcimg.szwego.com/20220507/i1651892863_8296_2.jpg","https://xcimg.szwego.com/20220507/i1651892863_2696_3.jpg","https://xcimg.szwego.com/20220507/i1651892863_3512_4.jpg","https://xcimg.szwego.com/20220507/i1651892863_5072_5.jpg","https://xcimg.szwego.com/20220507/i1651892863_7740_6.jpg","https://xcimg.szwego.com/20220507/i1651892863_8142_7.jpg","https://xcimg.szwego.com/20220507/i1651892863_863_8.jpg"],"created_at":"2024-10-22T05:04:33.220Z"},{"id":"item-beb9e2df7a0d","sku":"_dPQPQFts8tstdcpubrqBJLl9IVAti9m6ro_VIuA","name_en":"/ Garden 30.","name_cn":"/ Garden 30.\nA classic that gets better with age_ Casual🥇 The Garden is a relaxed style, and pairing it with canvas is a stroke of genius! Taking casual to the limit~\nHalf-hand stitched in stock Tin Grey/Canvas","specs":{"source":"wsxcme","sourceId":"_dPQPQFts8tstdcpubrqBJLl9IVAti9m6ro_VIuA","sourceTagId":76963559,"sourceTagName":"Hermes/women's bag","rawTitle":"/ Garden 30.\nA classic that gets better with age_ Casual🥇 The Garden is a relaxed style, and pairing it with canvas is a stroke of genius! Taking casual to the limit~\nHalf-hand stitched in stock Tin Grey/Canvas"},"price":null,"currency":"CNY","moq":1,"category":"hermes-women-bags","status":"active","alibaba_url":null,"images":["https://xcimg.szwego.com/20220507/i1651892968_902_0.jpg","https://xcimg.szwego.com/20220507/i1651892968_3707_1.jpg","https://xcimg.szwego.com/20220507/i1651892968_4896_2.jpg","https://xcimg.szwego.com/20220507/i1651892968_1957_3.jpg","https://xcimg.szwego.com/20220507/i1651892968_8697_4.jpg","https://xcimg.szwego.com/20220507/i1651892968_4878_5.jpg","https://xcimg.szwego.com/20220507/i1651892968_2308_6.jpg","https://xcimg.szwego.com/20220507/i1651892968_1929_7.jpg","https://xcimg.szwego.com/20220507/i1651892968_9778_8.jpg"],"created_at":"2024-10-22T05:04:33.219Z"},{"id":"item-e507a11c1ebd","sku":"_dQBQBZ-ZTWiauL6lEdmH5zUIq_WSNsQMzHJx9ZQ","name_en":"/ Garden 30.","name_cn":"/ Garden 30.\nA classic that gets better with age_ Casual🥇 The Garden is a relaxed style, and pairing it with canvas is a stroke of genius! Taking casual to the limit~\nHalf-hand stitched in stock 30Cm","specs":{"source":"wsxcme","sourceId":"_dQBQBZ-ZTWiauL6lEdmH5zUIq_WSNsQMzHJx9ZQ","sourceTagId":76963559,"sourceTagName":"Hermes/women's bag","rawTitle":"/ Garden 30.\nA classic that gets better with age_ Casual🥇 The Garden is a relaxed style, and pairing it with canvas is a stroke of genius! Taking casual to the limit~\nHalf-hand stitched in stock 30Cm"},"price":null,"currency":"CNY","moq":1,"category":"hermes-women-bags","status":"active","alibaba_url":null,"images":["https://xcimg.szwego.com/20220507/i1651892662_1237_0.jpg","https://xcimg.szwego.com/20220507/i1651892662_2313_1.jpg","https://xcimg.szwego.com/20220507/i1651892662_1202_2.jpg","https://xcimg.szwego.com/20220507/i1651892662_2364_3.jpg","https://xcimg.szwego.com/20220507/i1651892662_486_4.jpg","https://xcimg.szwego.com/20220507/i1651892662_7327_5.jpg","https://xcimg.szwego.com/20220507/i1651892662_2556_6.jpg","https://xcimg.szwego.com/20220507/i1651892662_4353_7.jpg","https://xcimg.szwego.com/20220507/i1651892662_8554_8.jpg"],"created_at":"2024-10-22T05:04:33.218Z"},{"id":"item-3a2b4c506dff","sku":"_dU4U4fmdNyRiwXPPj7cpc3t4PtLeJJLtOu7WAFQ","name_en":"/ Garden 30.","name_cn":"/ Garden 30.\nA classic that gets better with age_ Casual🥇 The Garden is a relaxed style, and pairing it with canvas is a stroke of genius! Taking casual to the limit~\nHalf-hand stitched in stock Elephant Grey\n30Cm","specs":{"source":"wsxcme","sourceId":"_dU4U4fmdNyRiwXPPj7cpc3t4PtLeJJLtOu7WAFQ","sourceTagId":76963559,"sourceTagName":"Hermes/women's bag","rawTitle":"/ Garden 30.\nA classic that gets better with age_ Casual🥇 The Garden is a relaxed style, and pairing it with canvas is a stroke of genius! Taking casual to the limit~\nHalf-hand stitched in stock Elephant Grey\n30Cm"},"price":null,"currency":"CNY","moq":1,"category":"hermes-women-bags","status":"active","alibaba_url":null,"images":["https://xcimg.szwego.com/20220507/i1651892863_8134_0.jpg","https://xcimg.szwego.com/20220507/i1651892863_9935_1.jpg","https://xcimg.szwego.com/20220507/i1651892863_8296_2.jpg","https://xcimg.szwego.com/20220507/i1651892863_2696_3.jpg","https://xcimg.szwego.com/20220507/i1651892863_3512_4.jpg","https://xcimg.szwego.com/20220507/i1651892863_5072_5.jpg","https://xcimg.szwego.com/20220507/i1651892863_7740_6.jpg","https://xcimg.szwego.com/20220507/i1651892863_8142_7.jpg","https://xcimg.szwego.com/20220507/i1651892863_863_8.jpg"],"created_at":"2024-10-22T05:04:33.217Z"},{"id":"item-59f02e9bf7fb","sku":"_dNSNSrYblSO9dWIYrF22HNTxIamcowkl2iLjvmw","name_en":"/ Garden 30.","name_cn":"/ Garden 30.\nA classic that gets better with age_ Casual🥇 The Garden is a relaxed style, and pairing it with canvas is a stroke of genius! Taking casual to the limit~\nHalf-hand stitched in stock Black/Canvas\n30Cm","specs":{"source":"wsxcme","sourceId":"_dNSNSrYblSO9dWIYrF22HNTxIamcowkl2iLjvmw","sourceTagId":76963559,"sourceTagName":"Hermes/women's bag","rawTitle":"/ Garden 30.\nA classic that gets better with age_ Casual🥇 The Garden is a relaxed style, and pairing it with canvas is a stroke of genius! Taking casual to the limit~\nHalf-hand stitched in stock Black/Canvas\n30Cm"},"price":null,"currency":"CNY","moq":1,"category":"hermes-women-bags","status":"active","alibaba_url":null,"images":["https://xcimg.szwego.com/20220507/i1651893011_2772_0.jpg","https://xcimg.szwego.com/20220507/i1651893011_525_1.jpg","https://xcimg.szwego.com/20220507/i1651893011_1385_2.jpg","https://xcimg.szwego.com/20220507/i1651893011_8651_3.jpg","https://xcimg.szwego.com/20220507/i1651893011_2097_4.jpg","https://xcimg.szwego.com/20220507/i1651893011_1485_5.jpg","https://xcimg.szwego.com/20220507/i1651893011_1802_6.jpg","https://xcimg.szwego.com/20220507/i1651893011_9172_7.jpg","https://xcimg.szwego.com/20220507/i1651893011_8999_8.jpg"],"created_at":"2024-10-22T05:04:33.216Z"},{"id":"item-2ec81ee5030b","sku":"_djHjHdyNhk0cJVz663IfqOTSBSGdyQzAPXYEnyQ","name_en":"✨Kelly 2nd Gen Mini","name_cn":"✨Kelly 2nd Gen Mini\nColor: Gold Brown/Milk White\nImported Epsom leather, Silver hardware\nMotorcycle style + Half-hand stitched wax thread\nSize: 19cm","specs":{"source":"wsxcme","sourceId":"_djHjHdyNhk0cJVz663IfqOTSBSGdyQzAPXYEnyQ","sourceTagId":76963559,"sourceTagName":"Hermes/women's bag","rawTitle":"✨Kelly 2nd Gen Mini\nColor: Gold Brown/Milk White\nImported Epsom leather, Silver hardware\nMotorcycle style + Half-hand stitched wax thread\nSize: 19cm"},"price":null,"currency":"CNY","moq":1,"category":"hermes-women-bags","status":"active","alibaba_url":null,"images":["https://xcimg.szwego.com/img/88b306c4/20240903/a1725377151117_4020.jpg","https://xcimg.szwego.com/img/88b306c4/20240903/a1725377151068_8287.jpg","https://xcimg.szwego.com/img/88b306c4/20240903/a1725377150812_8450.jpg","https://xcimg.szwego.com/img/88b306c4/20240903/a1725377150818_3200.jpg","https://xcimg.szwego.com/img/88b306c4/20240903/a1725377151109_2613.jpg","https://xcimg.szwego.com/img/88b306c4/20240903/a1725377150961_5115.jpg","https://xcimg.szwego.com/img/88b306c4/20240903/a1725377152370_0850.jpg","https://xcimg.szwego.com/img/88b306c4/20240903/a1725377152391_6036.jpg","https://xcimg.szwego.com/img/88b306c4/20240903/a1725377152251_4166.jpg","https://xcimg.szwego.com/img/88b306c4/20240903/a1725377152273_0265.jpg"],"created_at":"2024-10-22T05:04:33.215Z"},{"id":"item-edf48f43bf33","sku":"_dnZnZdCP8DPrAP5Wrri4MYKlAcu-ccI3KG6ejag","name_en":"✨Kelly 2 Mini","name_cn":"✨Kelly 2 Mini\nColor: Icy White/Gold Brown\nImported Epsom leather, gold hardware\nQuilted + half-hand stitched waxed thread\nSize: 19cm","specs":{"source":"wsxcme","sourceId":"_dnZnZdCP8DPrAP5Wrri4MYKlAcu-ccI3KG6ejag","sourceTagId":76963559,"sourceTagName":"Hermes/women's bag","rawTitle":"✨Kelly 2 Mini\nColor: Icy White/Gold Brown\nImported Epsom leather, gold hardware\nQuilted + half-hand stitched waxed thread\nSize: 19cm"},"price":null,"currency":"CNY","moq":1,"category":"hermes-women-bags","status":"active","alibaba_url":null,"images":["https://xcimg.szwego.com/img/88b306c4/20240903/a1725376822247_0431.jpg","https://xcimg.szwego.com/img/88b306c4/20240903/a1725376822448_0063.jpg","https://xcimg.szwego.com/img/88b306c4/20240903/a1725376822147_1454.jpg","https://xcimg.szwego.com/img/88b306c4/20240903/a1725376822051_4148.jpg","https://xcimg.szwego.com/img/88b306c4/20240903/a1725376822447_7428.jpg","https://xcimg.szwego.com/img/88b306c4/20240903/a1725376822123_0452.jpg","https://xcimg.szwego.com/img/88b306c4/20240903/a1725376823471_8763.jpg","https://xcimg.szwego.com/img/88b306c4/20240903/a1725376823468_3723.jpg","https://xcimg.szwego.com/img/88b306c4/20240903/a1725376823423_6158.jpg"],"created_at":"2024-10-22T05:04:33.214Z"},{"id":"item-a9f9aadcf102","sku":"_dcdcdobxGiSrK7q1-zkYkVtLmPYAEgwgX_pl5ig","name_en":"✨Kelly 2 Mini","name_cn":"✨Kelly 2 Mini\nColor: Icy White/Gold Brown\nImported Epsom leather, silver hardware\nQuilted + half-hand stitched waxed thread\nSize: 19cm","specs":{"source":"wsxcme","sourceId":"_dcdcdobxGiSrK7q1-zkYkVtLmPYAEgwgX_pl5ig","sourceTagId":76963559,"sourceTagName":"Hermes/women's bag","rawTitle":"✨Kelly 2 Mini\nColor: Icy White/Gold Brown\nImported Epsom leather, silver hardware\nQuilted + half-hand stitched waxed thread\nSize: 19cm"},"price":null,"currency":"CNY","moq":1,"category":"hermes-women-bags","status":"active","alibaba_url":null,"images":["https://xcimg.szwego.com/img/88b306c4/20240903/a1725376725126_4034.jpg","https://xcimg.szwego.com/img/88b306c4/20240903/a1725376725267_4348.jpg","https://xcimg.szwego.com/img/88b306c4/20240903/a1725376725000_7443.jpg","https://xcimg.szwego.com/img/88b306c4/20240903/a1725376725004_5043.jpg","https://xcimg.szwego.com/img/88b306c4/20240903/a1725376724977_3671.jpg","https://xcimg.szwego.com/img/88b306c4/20240903/a1725376724978_2181.jpg","https://xcimg.szwego.com/img/88b306c4/20240903/a1725376726413_7465.jpg","https://xcimg.szwego.com/img/88b306c4/20240903/a1725376726498_3572.jpg","https://xcimg.szwego.com/img/88b306c4/20240903/a1725376726354_4132.jpg"],"created_at":"2024-10-22T05:04:33.213Z"},{"id":"item-7cb4ee5e79f4","sku":"_dlele2vXlRE8BnJrxW0EJeIirw3hN975_tc_6JQ","name_en":"✨Kelly 2 Mini","name_cn":"✨Kelly 2 Mini\nColor: Icy White/Cream\nImported Epsom leather, Gold hardware\nStitched with waxed thread\nSize: 19cm","specs":{"source":"wsxcme","sourceId":"_dlele2vXlRE8BnJrxW0EJeIirw3hN975_tc_6JQ","sourceTagId":76963559,"sourceTagName":"Hermes/women's bag","rawTitle":"✨Kelly 2 Mini\nColor: Icy White/Cream\nImported Epsom leather, Gold hardware\nStitched with waxed thread\nSize: 19cm"},"price":null,"currency":"CNY","moq":1,"category":"hermes-women-bags","status":"active","alibaba_url":null,"images":["https://xcimg.szwego.com/img/88b306c4/20240903/a1725376486747_7561.jpg","https://xcimg.szwego.com/img/88b306c4/20240903/a1725376486757_7383.jpg","https://xcimg.szwego.com/img/88b306c4/20240903/a1725376486996_1527.jpg","https://xcimg.szwego.com/img/88b306c4/20240903/a1725376486761_7455.jpg","https://xcimg.szwego.com/img/88b306c4/20240903/a1725376487014_5147.jpg","https://xcimg.szwego.com/img/88b306c4/20240903/a1725376486862_1431.jpg","https://xcimg.szwego.com/img/88b306c4/20240903/a1725376488206_7550.jpg","https://xcimg.szwego.com/img/88b306c4/20240903/a1725376488207_1027.jpg","https://xcimg.szwego.com/img/88b306c4/20240903/a1725376488160_0720.jpg"],"created_at":"2024-10-22T05:04:33.212Z"},{"id":"item-14ec90a6452e","sku":"_dtltlUveL0rfaqKEeTVwfMhIJicmPzMeaqmrpwg","name_en":"✨Kelly 2 Mini","name_cn":"✨Kelly 2 Mini\nColor: Icy White/Cream\nImported Epsom leather, Silver hardware\nStitched with waxed thread\nSize: 19cm","specs":{"source":"wsxcme","sourceId":"_dtltlUveL0rfaqKEeTVwfMhIJicmPzMeaqmrpwg","sourceTagId":76963559,"sourceTagName":"Hermes/women's bag","rawTitle":"✨Kelly 2 Mini\nColor: Icy White/Cream\nImported Epsom leather, Silver hardware\nStitched with waxed thread\nSize: 19cm"},"price":null,"currency":"CNY","moq":1,"category":"hermes-women-bags","status":"active","alibaba_url":null,"images":["https://xcimg.szwego.com/img/88b306c4/20240903/a1725376369518_3511.jpg","https://xcimg.szwego.com/img/88b306c4/20240903/a1725376369336_4875.jpg","https://xcimg.szwego.com/img/88b306c4/20240903/a1725376369581_5357.jpg","https://xcimg.szwego.com/img/88b306c4/20240903/a1725376369092_7573.jpg","https://xcimg.szwego.com/img/88b306c4/20240903/a1725376369331_5164.jpg","https://xcimg.szwego.com/img/88b306c4/20240903/a1725376369180_5312.jpg","https://xcimg.szwego.com/img/88b306c4/20240903/a1725376370522_3262.jpg","https://xcimg.szwego.com/img/88b306c4/20240903/a1725376370640_4662.jpg","https://xcimg.szwego.com/img/88b306c4/20240903/a1725376370521_1882.jpg"],"created_at":"2024-10-22T05:04:33.211Z"},{"id":"item-d2ed0b1a6978","sku":"_dgagae5Cmotg_CKLdED_RpnmShJlCYSN-CfuJZw","name_en":"✨Kelly 2 Mini","name_cn":"✨Kelly 2 Mini\nColor: Icy White/Lipstick Pink\nImported Epsom leather, Silver hardware\nStitched with waxed thread\nSize: 19cm","specs":{"source":"wsxcme","sourceId":"_dgagae5Cmotg_CKLdED_RpnmShJlCYSN-CfuJZw","sourceTagId":76963559,"sourceTagName":"Hermes/women's bag","rawTitle":"✨Kelly 2 Mini\nColor: Icy White/Lipstick Pink\nImported Epsom leather, Silver hardware\nStitched with waxed thread\nSize: 19cm"},"price":null,"currency":"CNY","moq":1,"category":"hermes-women-bags","status":"active","alibaba_url":null,"images":["https://xcimg.szwego.com/img/88b306c4/20240903/a1725376188479_3712.jpg","https://xcimg.szwego.com/img/88b306c4/20240903/a1725376188277_2852.jpg","https://xcimg.szwego.com/img/88b306c4/20240903/a1725376188388_3435.jpg","https://xcimg.szwego.com/img/88b306c4/20240903/a1725376188348_2600.jpg","https://xcimg.szwego.com/img/88b306c4/20240903/a1725376188612_0162.jpg","https://xcimg.szwego.com/img/88b306c4/20240903/a1725376188584_4218.jpg","https://xcimg.szwego.com/img/88b306c4/20240903/a1725376189714_8134.jpg","https://xcimg.szwego.com/img/88b306c4/20240903/a1725376189758_1855.jpg","https://xcimg.szwego.com/img/88b306c4/20240903/a1725376189644_8564.jpg"],"created_at":"2024-10-22T05:04:33.210Z"}],"page":333,"pageSize":24,"total":9921,"totalPages":414}
