{"items":[{"id":"item-7230fee93f67","sku":"_dRTRTFNXf3Z48ezDwZtqNwTOmcpTZihLf3Xyi4A","name_en":"MiuMiu 新款 Vivant 牛皮革手袋","name_cn":"MiuMiu 新款 Vivant 牛皮革手袋\n▫️干邑色 小号\n\n复古牛皮革质感在线纹理清晰,皮质挺阔有型💫 撞色缝线细节超精致,颜值直接拉满🔝包型小巧精致,非常适合日常高频使用\n\n✔️带提手\n✔️可拆卸可调节肩带\n✔️拉链开合\n✔️白钢钢材配件\n✔️可拆卸挂饰,配金属锁扣\n✔️混纺衬里,配拉链口袋与贴袋\n\n小号\n🔍Size:28*17*9.5cm\n📌型号:5BB200M1480","specs":{"source":"wsxcme","sourceId":"_dRTRTFNXf3Z48ezDwZtqNwTOmcpTZihLf3Xyi4A","sourceTagId":68075769,"sourceTagName":"Miu Miu /女包","modelNumber":"5BB200M1480","rawTitle":"MiuMiu 新款 Vivant 牛皮革手袋\n▫️干邑色 小号\n\n复古牛皮革质感在线纹理清晰,皮质挺阔有型💫 撞色缝线细节超精致,颜值直接拉满🔝包型小巧精致,非常适合日常高频使用\n\n✔️带提手\n✔️可拆卸可调节肩带\n✔️拉链开合\n✔️白钢钢材配件\n✔️可拆卸挂饰,配金属锁扣\n✔️混纺衬里,配拉链口袋与贴袋\n\n小号\n🔍Size:28*17*9.5cm\n📌型号:5BB200M1480"},"price":null,"currency":"CNY","moq":1,"category":"miu-miu-women-bags","status":"active","alibaba_url":null,"images":["https://xcimg.szwego.com/img/8a425f4e/20260528/a1779958502523_5078.jpg","https://xcimg.szwego.com/img/8a425f4e/20260528/a1779958502490_0146.jpg","https://xcimg.szwego.com/img/8a425f4e/20260528/a1779958502386_3872.jpg","https://xcimg.szwego.com/img/8a425f4e/20260528/a1779958502711_5422.jpg","https://xcimg.szwego.com/img/8a425f4e/20260528/a1779958502484_2537.jpg","https://xcimg.szwego.com/img/8a425f4e/20260528/a1779958726053_1703.jpg","https://xcimg.szwego.com/img/8a425f4e/20260528/a1779958504317_7165.jpg","https://xcimg.szwego.com/img/8a425f4e/20260528/a1779958504325_2466.jpg","https://xcimg.szwego.com/img/8a425f4e/20260528/a1779958504308_3722.jpg"],"created_at":"2026-06-29T11:34:30.922Z"},{"id":"item-0e639de483d3","sku":"_dmjmjAawnuo6qbPWspDTrQkncrQQSkt236CwDEA","name_en":"MIUMIU Vivant尺寸对比➿三种尺寸任选","name_cn":"MIUMIU Vivant尺寸对比➿三种尺寸任选\n干邑色🟤牛皮革\n\n大号\n🔍Size:40*24*13cm\n📌型号:5BB196M1680\n\n常规版型/中号\n🔍Size:32*19.5*11cm\n📌型号:5BB199M1580\n\n小号\n🔍Size:28*17*9.5cm\n📌型号:5BB200M1480","specs":{"source":"wsxcme","sourceId":"_dmjmjAawnuo6qbPWspDTrQkncrQQSkt236CwDEA","sourceTagId":68075769,"sourceTagName":"Miu Miu /女包","modelNumber":"5BB196M1680","rawTitle":"MIUMIU Vivant尺寸对比➿三种尺寸任选\n干邑色🟤牛皮革\n\n大号\n🔍Size:40*24*13cm\n📌型号:5BB196M1680\n\n常规版型/中号\n🔍Size:32*19.5*11cm\n📌型号:5BB199M1580\n\n小号\n🔍Size:28*17*9.5cm\n📌型号:5BB200M1480"},"price":null,"currency":"CNY","moq":1,"category":"miu-miu-women-bags","status":"active","alibaba_url":null,"images":["https://xcimg.szwego.com/img/8a425f4e/20260527/a1779865505448_6166.jpg","https://xcimg.szwego.com/img/8a425f4e/20260527/a1779865505507_6368.jpg","https://xcimg.szwego.com/img/8a425f4e/20260527/a1779865505266_4065.jpg","https://xcimg.szwego.com/img/8a425f4e/20260527/a1779865505478_0853.jpg"],"created_at":"2026-06-29T11:34:30.912Z"},{"id":"item-cc257d027c7d","sku":"_dlXlXipU05vUj5Y7eS9oiLFiWKXpuQgONVttrzw","name_en":"纠结配色看这里👀MIUMIU Vivant","name_cn":"纠结配色看这里👀MIUMIU Vivant\n🔥两大热门色系对比来啦!\n焦糖色 羊皮 or 干邑色 牛皮\n\n巨好搭的复古保龄球包〰️版型软软糯糯背着超舒服,日常用超省心\n复古皮革质感在线,颜值直接拉满🔝\n日常随便穿都能搭,氛围感稳稳拿捏","specs":{"source":"wsxcme","sourceId":"_dlXlXipU05vUj5Y7eS9oiLFiWKXpuQgONVttrzw","sourceTagId":68075769,"sourceTagName":"Miu Miu /女包","rawTitle":"纠结配色看这里👀MIUMIU Vivant\n🔥两大热门色系对比来啦!\n焦糖色 羊皮 or 干邑色 牛皮\n\n巨好搭的复古保龄球包〰️版型软软糯糯背着超舒服,日常用超省心\n复古皮革质感在线,颜值直接拉满🔝\n日常随便穿都能搭,氛围感稳稳拿捏"},"price":null,"currency":"CNY","moq":1,"category":"miu-miu-women-bags","status":"active","alibaba_url":null,"images":["https://xcimg.szwego.com/img/8a425f4e/20260527/a1779865362102_6202.jpg","https://xcimg.szwego.com/img/8a425f4e/20260527/a1779865362329_8261.jpg","https://xcimg.szwego.com/img/8a425f4e/20260527/a1779865362099_8500.jpg","https://xcimg.szwego.com/img/8a425f4e/20260527/a1779865362300_8153.jpg"],"created_at":"2026-06-29T11:34:30.902Z"},{"id":"item-f69aa96db744","sku":"_duBuB0WU_PrY7oaqWW5yxpVRUt9JhTuo-bDlzgA","name_en":"MiuMiu 新款 Vivant 手袋","name_cn":"MiuMiu 新款 Vivant 手袋\n🟤干邑色 常规版型\n\n版型软软糯糯背着超舒服,日常用超省心!复古皮革质感在线,撞色缝线细节超精致,颜值直接拉满\n\n尺寸相较小号稍大,容量升级🌟\n适配通勤、出游、约会等多种场景,兼顾美观与实用性\n\n✔️带提手\n✔️可拆卸可调节肩带\n✔️拉链开合\n✔️白钢钢材配件\n✔️可拆卸挂饰,配金属锁扣\n✔️混纺衬里,配拉链口袋与贴袋\n\n常规版型\n🔍Size:32*19.5*11cm\n📌型号:5BB199M1580","specs":{"source":"wsxcme","sourceId":"_duBuB0WU_PrY7oaqWW5yxpVRUt9JhTuo-bDlzgA","sourceTagId":68075769,"sourceTagName":"Miu Miu /女包","modelNumber":"5BB199M1580","rawTitle":"MiuMiu 新款 Vivant 手袋\n🟤干邑色 常规版型\n\n版型软软糯糯背着超舒服,日常用超省心!复古皮革质感在线,撞色缝线细节超精致,颜值直接拉满\n\n尺寸相较小号稍大,容量升级🌟\n适配通勤、出游、约会等多种场景,兼顾美观与实用性\n\n✔️带提手\n✔️可拆卸可调节肩带\n✔️拉链开合\n✔️白钢钢材配件\n✔️可拆卸挂饰,配金属锁扣\n✔️混纺衬里,配拉链口袋与贴袋\n\n常规版型\n🔍Size:32*19.5*11cm\n📌型号:5BB199M1580"},"price":null,"currency":"CNY","moq":1,"category":"miu-miu-women-bags","status":"active","alibaba_url":null,"images":["https://xcimg.szwego.com/img/8a425f4e/20260527/a1779875703652_8303.jpg","https://xcimg.szwego.com/img/8a425f4e/20260527/a1779875703479_4622.jpg","https://xcimg.szwego.com/img/8a425f4e/20260527/a1779875703415_3682.jpg","https://xcimg.szwego.com/img/8a425f4e/20260527/a1779875703642_1671.jpg","https://xcimg.szwego.com/img/8a425f4e/20260527/a1779875703458_8108.jpg","https://xcimg.szwego.com/img/8a425f4e/20260527/a1779875705047_4200.jpg","https://xcimg.szwego.com/img/8a425f4e/20260527/a1779875705173_1463.jpg","https://xcimg.szwego.com/img/8a425f4e/20260527/a1779875705057_8715.jpg","https://xcimg.szwego.com/img/8a425f4e/20260527/a1779875705038_4261.jpg"],"created_at":"2026-06-29T11:34:30.892Z"},{"id":"item-f06cf18f5341","sku":"_dscsc0t20tl1LscGlPL9IbyKlImhYZiJZk6JOUA","name_en":"MIUMIU Vivant尺寸对比➿","name_cn":"MIUMIU Vivant尺寸对比➿\n焦糖色🤎\n\n常规款版型比小号稍大一圈,容量升级✨\n日常通勤、逛街出行、短途出行都能轻松驾驭,随身物品尽数收纳,实用度拉满🔝\n\n常规版型\n🔍Size:32*19.5*11cm\n📌型号:5BB199M1480\n\n小号\n🔍Size:28*17*9.5cm\n📌型号:5BB200M1380","specs":{"source":"wsxcme","sourceId":"_dscsc0t20tl1LscGlPL9IbyKlImhYZiJZk6JOUA","sourceTagId":68075769,"sourceTagName":"Miu Miu /女包","modelNumber":"5BB199M1480","rawTitle":"MIUMIU Vivant尺寸对比➿\n焦糖色🤎\n\n常规款版型比小号稍大一圈,容量升级✨\n日常通勤、逛街出行、短途出行都能轻松驾驭,随身物品尽数收纳,实用度拉满🔝\n\n常规版型\n🔍Size:32*19.5*11cm\n📌型号:5BB199M1480\n\n小号\n🔍Size:28*17*9.5cm\n📌型号:5BB200M1380"},"price":null,"currency":"CNY","moq":1,"category":"miu-miu-women-bags","status":"active","alibaba_url":null,"images":["https://xcimg.szwego.com/img/8a425f4e/20260526/a1779765550859_4686.jpg","https://xcimg.szwego.com/img/8a425f4e/20260526/a1779765551072_8660.jpg","https://xcimg.szwego.com/img/8a425f4e/20260526/a1779765551040_6330.jpg","https://xcimg.szwego.com/img/8a425f4e/20260526/a1779765551040_3543.jpg"],"created_at":"2026-06-29T11:34:30.882Z"},{"id":"item-5cdae95b403b","sku":"_dbvbv9FQxd3JJK3R3Zh_FleBpHgEXaS-2CrrI2g","name_en":"Miu Miu Women Bags","name_cn":"##全套独家包装ྀི","specs":{"source":"wsxcme","sourceId":"_dbvbv9FQxd3JJK3R3Zh_FleBpHgEXaS-2CrrI2g","sourceTagId":68075769,"sourceTagName":"Miu Miu /女包","rawTitle":"##全套独家包装ྀི"},"price":null,"currency":"CNY","moq":1,"category":"miu-miu-women-bags","status":"active","alibaba_url":null,"images":["https://xcimg.szwego.com/img/8a425f4e/20260526/a1779764970257_5121.jpg","https://xcimg.szwego.com/img/8a425f4e/20260526/a1779764970321_0462.jpg","https://xcimg.szwego.com/img/8a425f4e/20260526/a1779764970835_7401.jpg","https://xcimg.szwego.com/img/8a425f4e/20260526/a1779764970865_2111.jpg"],"created_at":"2026-06-29T11:34:30.872Z"},{"id":"item-922aa491c337","sku":"_dnfnfoSoGISC8XrbDnmyHMXSHInRAIush6HPIww","name_en":"MiuMiu 新款 Vivant 手袋","name_cn":"MiuMiu 新款 Vivant 手袋\n焦糖色🤎常规版型\n\n细腻皮革搭配精致锁饰细节,质感出众\n百搭有型,轻松塑造专属个人风格\n\n尺寸相较小号稍大,容量升级🌟\n适配通勤、出游、约会等多种场景,兼顾美观与实用性\n\n✔️带提手\n✔️可拆卸可调节肩带\n✔️拉链开合\n✔️白钢钢材配件\n✔️可拆卸挂饰,配金属锁扣\n✔️混纺衬里,配拉链口袋与贴袋\n\n常规版型\n🔍Size:32*19.5*11cm\n📌型号:5BB199M1480","specs":{"source":"wsxcme","sourceId":"_dnfnfoSoGISC8XrbDnmyHMXSHInRAIush6HPIww","sourceTagId":68075769,"sourceTagName":"Miu Miu /女包","modelNumber":"5BB199M1480","rawTitle":"MiuMiu 新款 Vivant 手袋\n焦糖色🤎常规版型\n\n细腻皮革搭配精致锁饰细节,质感出众\n百搭有型,轻松塑造专属个人风格\n\n尺寸相较小号稍大,容量升级🌟\n适配通勤、出游、约会等多种场景,兼顾美观与实用性\n\n✔️带提手\n✔️可拆卸可调节肩带\n✔️拉链开合\n✔️白钢钢材配件\n✔️可拆卸挂饰,配金属锁扣\n✔️混纺衬里,配拉链口袋与贴袋\n\n常规版型\n🔍Size:32*19.5*11cm\n📌型号:5BB199M1480"},"price":null,"currency":"CNY","moq":1,"category":"miu-miu-women-bags","status":"active","alibaba_url":null,"images":["https://xcimg.szwego.com/img/8a425f4e/20260526/a1779767673503_8353.jpg","https://xcimg.szwego.com/img/8a425f4e/20260526/a1779767674589_0185.jpg","https://xcimg.szwego.com/img/8a425f4e/20260526/a1779767672142_6783.jpg","https://xcimg.szwego.com/img/8a425f4e/20260526/a1779767672276_8441.jpg","https://xcimg.szwego.com/img/8a425f4e/20260526/a1779767674583_0248.jpg","https://xcimg.szwego.com/img/8a425f4e/20260526/a1779767672278_8261.jpg","https://xcimg.szwego.com/img/8a425f4e/20260526/a1779767674589_2262.jpg","https://xcimg.szwego.com/img/8a425f4e/20260526/a1779767674569_7473.jpg","https://xcimg.szwego.com/img/8a425f4e/20260526/a1779767672179_1308.jpg"],"created_at":"2026-06-29T11:34:30.862Z"},{"id":"item-7ef341d4dee7","sku":"_dwGwGaiH3FOkqckAj3E1si-QCaztO9KhZ1ZrB2A","name_en":"MiuMiu🆕这只Vivant真的要抢疯了!","name_cn":"MiuMiu🆕这只Vivant真的要抢疯了!\n专柜实拍📷品牌出厂自带的工艺质感,属于正品正常样貌✨并非破损划痕,独特肌理彰显原装品质","specs":{"source":"wsxcme","sourceId":"_dwGwGaiH3FOkqckAj3E1si-QCaztO9KhZ1ZrB2A","sourceTagId":68075769,"sourceTagName":"Miu Miu /女包","rawTitle":"MiuMiu🆕这只Vivant真的要抢疯了!\n专柜实拍📷品牌出厂自带的工艺质感,属于正品正常样貌✨并非破损划痕,独特肌理彰显原装品质"},"price":null,"currency":"CNY","moq":1,"category":"miu-miu-women-bags","status":"active","alibaba_url":null,"images":["https://xcimg.szwego.com/img/8a425f4e/20260525/a1779679847122_1080.jpg","https://xcimg.szwego.com/img/8a425f4e/20260525/a1779679847073_5362.jpg","https://xcimg.szwego.com/img/8a425f4e/20260525/a1779679847112_2268.jpg","https://xcimg.szwego.com/img/8a425f4e/20260525/a1779679847067_8370.jpg"],"created_at":"2026-06-29T11:34:30.852Z"},{"id":"item-fe9a11e7ec15","sku":"_dlyly5_g0ZAZh3fkrz1AgqqhADX-bDt-XJ-xiHw","name_en":"Miu Miu Women Bags","name_cn":"##全套独家包装ྀི","specs":{"source":"wsxcme","sourceId":"_dlyly5_g0ZAZh3fkrz1AgqqhADX-bDt-XJ-xiHw","sourceTagId":68075769,"sourceTagName":"Miu Miu /女包","rawTitle":"##全套独家包装ྀི"},"price":null,"currency":"CNY","moq":1,"category":"miu-miu-women-bags","status":"active","alibaba_url":null,"images":["https://xcimg.szwego.com/img/8a425f4e/20260525/a1779693829932_1050.jpg","https://xcimg.szwego.com/img/8a425f4e/20260525/a1779693829703_7111.jpg","https://xcimg.szwego.com/img/8a425f4e/20260525/a1779693829695_1817.jpg","https://xcimg.szwego.com/img/8a425f4e/20260525/a1779693829951_6337.jpg"],"created_at":"2026-06-29T11:34:30.842Z"},{"id":"item-c1399f5ad459","sku":"_dvpvpvizoANB9xI8bgpMT0C9zY4jRtW-AauNJVw","name_en":"MiuMiu 新款 Vivant 手袋","name_cn":"MiuMiu 新款 Vivant 手袋\n焦糖色 小号\n\n细腻皮革搭配精致锁饰细节,质感出众\n百搭有型,轻松塑造专属个人风格\n\n✔️带提手\n✔️可拆卸可调节肩带\n✔️拉链开合\n✔️白钢钢材配件\n✔️可拆卸挂饰,配金属锁扣\n✔️混纺衬里,配拉链口袋与贴袋\n\n🔍Size:28*17*9.5cm\n📌型号:5BB200M1380","specs":{"source":"wsxcme","sourceId":"_dvpvpvizoANB9xI8bgpMT0C9zY4jRtW-AauNJVw","sourceTagId":68075769,"sourceTagName":"Miu Miu /女包","modelNumber":"5BB200M1380","rawTitle":"MiuMiu 新款 Vivant 手袋\n焦糖色 小号\n\n细腻皮革搭配精致锁饰细节,质感出众\n百搭有型,轻松塑造专属个人风格\n\n✔️带提手\n✔️可拆卸可调节肩带\n✔️拉链开合\n✔️白钢钢材配件\n✔️可拆卸挂饰,配金属锁扣\n✔️混纺衬里,配拉链口袋与贴袋\n\n🔍Size:28*17*9.5cm\n📌型号:5BB200M1380"},"price":null,"currency":"CNY","moq":1,"category":"miu-miu-women-bags","status":"active","alibaba_url":null,"images":["https://xcimg.szwego.com/img/8a425f4e/20260525/a1779693877960_6180.jpg","https://xcimg.szwego.com/img/8a425f4e/20260525/a1779693879135_1451.jpg","https://xcimg.szwego.com/img/8a425f4e/20260525/a1779693879123_4370.jpg","https://xcimg.szwego.com/img/8a425f4e/20260525/a1779693879138_5873.jpg","https://xcimg.szwego.com/img/8a425f4e/20260525/a1779693877994_3680.jpg","https://xcimg.szwego.com/img/8a425f4e/20260525/a1779693877755_5111.jpg","https://xcimg.szwego.com/img/8a425f4e/20260525/a1779693877636_1427.jpg","https://xcimg.szwego.com/img/8a425f4e/20260525/a1779693879004_5368.jpg","https://xcimg.szwego.com/img/8a425f4e/20260525/a1779693877940_3088.jpg"],"created_at":"2026-06-29T11:34:30.832Z"},{"id":"item-7a3108c2609f","sku":"_dvuvue90t4hm4b-aqO43yx37x_jiWdiTLH4Jpqw","name_en":"Miu Miu Women Bags","name_cn":"#全套独家包装ྀི","specs":{"source":"wsxcme","sourceId":"_dvuvue90t4hm4b-aqO43yx37x_jiWdiTLH4Jpqw","sourceTagId":68075769,"sourceTagName":"Miu Miu /女包","rawTitle":"#全套独家包装ྀི"},"price":null,"currency":"CNY","moq":1,"category":"miu-miu-women-bags","status":"active","alibaba_url":null,"images":["https://xcimg.szwego.com/img/8a425f4e/20260606/a1780725889732_6827.jpg","https://xcimg.szwego.com/img/8a425f4e/20260606/a1780725889837_0180.jpg","https://xcimg.szwego.com/img/8a425f4e/20260606/a1780725889700_4376.jpg","https://xcimg.szwego.com/img/8a425f4e/20260606/a1780725889797_7555.jpg"],"created_at":"2026-06-29T11:34:30.822Z"},{"id":"item-fe3970256d5d","sku":"_d9f9fLi44OpBm9NmNW2ZEbHPUBj8IpPoG9riTaQ","name_en":"MiuMiu 新款 Vivant 羊皮革手袋","name_cn":"MiuMiu 新款 Vivant 羊皮革手袋\n粉笔白色▫️常规版型\n\n柔软轻盈羊皮革,指腹划过能摸到细腻感,自带柔光,慵懒不沉闷✨\n搭配精致锁饰,质感悄悄拉满🔒\n\n标准常规版型,不挑身形、适配各种场景\n尺寸相较小号稍大,容量升级✅\n\n✔️带提手\n✔️可拆卸可调节肩带\n✔️拉链开合\n✔️白钢钢材配件\n✔️可拆卸挂饰,配金属锁扣\n✔️混纺衬里,配拉链口袋与贴袋\n\n常规版型\n🔍Size:32*19.5*11cm\n📌型号:5BB199M1480","specs":{"source":"wsxcme","sourceId":"_d9f9fLi44OpBm9NmNW2ZEbHPUBj8IpPoG9riTaQ","sourceTagId":68075769,"sourceTagName":"Miu Miu /女包","modelNumber":"5BB199M1480","rawTitle":"MiuMiu 新款 Vivant 羊皮革手袋\n粉笔白色▫️常规版型\n\n柔软轻盈羊皮革,指腹划过能摸到细腻感,自带柔光,慵懒不沉闷✨\n搭配精致锁饰,质感悄悄拉满🔒\n\n标准常规版型,不挑身形、适配各种场景\n尺寸相较小号稍大,容量升级✅\n\n✔️带提手\n✔️可拆卸可调节肩带\n✔️拉链开合\n✔️白钢钢材配件\n✔️可拆卸挂饰,配金属锁扣\n✔️混纺衬里,配拉链口袋与贴袋\n\n常规版型\n🔍Size:32*19.5*11cm\n📌型号:5BB199M1480"},"price":null,"currency":"CNY","moq":1,"category":"miu-miu-women-bags","status":"active","alibaba_url":null,"images":["https://xcimg.szwego.com/img/8a425f4e/20260606/a1780725692255_7107.jpg","https://xcimg.szwego.com/img/8a425f4e/20260606/a1780725694158_6507.jpg","https://xcimg.szwego.com/img/8a425f4e/20260606/a1780725694135_0544.jpg","https://xcimg.szwego.com/img/8a425f4e/20260606/a1780725694114_4115.jpg","https://xcimg.szwego.com/img/8a425f4e/20260606/a1780725692463_4385.jpg","https://xcimg.szwego.com/img/8a425f4e/20260606/a1780725692579_3623.jpg","https://xcimg.szwego.com/img/8a425f4e/20260606/a1780725694117_7053.jpg","https://xcimg.szwego.com/img/8a425f4e/20260606/a1780725692286_0451.jpg","https://xcimg.szwego.com/img/8a425f4e/20260606/a1780725692438_5610.jpg"],"created_at":"2026-06-29T11:34:30.812Z"},{"id":"item-e5039f989330","sku":"_d_r_rmZODapHE_VkGsWSTq8pFm3ESvFWflQ-sYA","name_en":"Miu Miu Women Bags","name_cn":"#全套独家包装ྀི","specs":{"source":"wsxcme","sourceId":"_d_r_rmZODapHE_VkGsWSTq8pFm3ESvFWflQ-sYA","sourceTagId":68075769,"sourceTagName":"Miu Miu /女包","rawTitle":"#全套独家包装ྀི"},"price":null,"currency":"CNY","moq":1,"category":"miu-miu-women-bags","status":"active","alibaba_url":null,"images":["https://xcimg.szwego.com/img/8a425f4e/20260605/a1780649887218_1328.jpg","https://xcimg.szwego.com/img/8a425f4e/20260605/a1780649886893_5225.jpg","https://xcimg.szwego.com/img/8a425f4e/20260605/a1780649886786_8783.jpg","https://xcimg.szwego.com/img/8a425f4e/20260605/a1780649887188_7713.jpg"],"created_at":"2026-06-29T11:34:30.802Z"},{"id":"item-a2a657a9476a","sku":"_dGLGLbfcGU2RXkAgXqWSyPr2E_aXZ5UV4WLAKXA","name_en":"MIUMIU Vivant羊皮革尺寸对比➿","name_cn":"MIUMIU Vivant羊皮革尺寸对比➿\n粉笔白🤍\n\n常规款 🆚 小号,这回帮你分清楚👇\n\n常规版型/大一圈,容量直接升级!\n通勤、逛街,东西随便塞,实用度拉满🔝\n🔍Size:32*19.5*11cm\n📌型号:5BB199M1480\n\n小号/精致小巧,日常用品刚好放得下\n🔍Size:28*17*9.5cm\n📌型号:5BB200M1380","specs":{"source":"wsxcme","sourceId":"_dGLGLbfcGU2RXkAgXqWSyPr2E_aXZ5UV4WLAKXA","sourceTagId":68075769,"sourceTagName":"Miu Miu /女包","modelNumber":"5BB199M1480","rawTitle":"MIUMIU Vivant羊皮革尺寸对比➿\n粉笔白🤍\n\n常规款 🆚 小号,这回帮你分清楚👇\n\n常规版型/大一圈,容量直接升级!\n通勤、逛街,东西随便塞,实用度拉满🔝\n🔍Size:32*19.5*11cm\n📌型号:5BB199M1480\n\n小号/精致小巧,日常用品刚好放得下\n🔍Size:28*17*9.5cm\n📌型号:5BB200M1380"},"price":null,"currency":"CNY","moq":1,"category":"miu-miu-women-bags","status":"active","alibaba_url":null,"images":["https://xcimg.szwego.com/img/8a425f4e/20260605/a1780628259163_6177.jpg","https://xcimg.szwego.com/img/8a425f4e/20260605/a1780628258992_2736.jpg","https://xcimg.szwego.com/img/8a425f4e/20260605/a1780628259016_6327.jpg","https://xcimg.szwego.com/img/8a425f4e/20260605/a1780628259211_1384.jpg"],"created_at":"2026-06-29T11:34:30.792Z"},{"id":"item-288d62d2a9d2","sku":"_dkvkvtqqB_XIK7YVlLQXcbekHtQ-oAxEPEv0T2Q","name_en":"MiuMiu 新款 Vivant 羊皮革手袋","name_cn":"MiuMiu 新款 Vivant 羊皮革手袋\n粉笔白🤍 小号\n\n柔软轻盈羊皮革,指腹划过能摸到细腻感,自带柔光,慵懒不沉闷✨\n搭配精致锁饰,质感悄悄拉满🔒\n\n✔️带提手\n✔️可拆卸可调节肩带\n✔️拉链开合\n✔️白钢钢材配件\n✔️可拆卸挂饰,配金属锁扣\n✔️混纺衬里,配拉链口袋与贴袋\n\n🔍Size:28*17*9.5cm\n📌型号:5BB200M1380","specs":{"source":"wsxcme","sourceId":"_dkvkvtqqB_XIK7YVlLQXcbekHtQ-oAxEPEv0T2Q","sourceTagId":68075769,"sourceTagName":"Miu Miu /女包","modelNumber":"5BB200M1380","rawTitle":"MiuMiu 新款 Vivant 羊皮革手袋\n粉笔白🤍 小号\n\n柔软轻盈羊皮革,指腹划过能摸到细腻感,自带柔光,慵懒不沉闷✨\n搭配精致锁饰,质感悄悄拉满🔒\n\n✔️带提手\n✔️可拆卸可调节肩带\n✔️拉链开合\n✔️白钢钢材配件\n✔️可拆卸挂饰,配金属锁扣\n✔️混纺衬里,配拉链口袋与贴袋\n\n🔍Size:28*17*9.5cm\n📌型号:5BB200M1380"},"price":null,"currency":"CNY","moq":1,"category":"miu-miu-women-bags","status":"active","alibaba_url":null,"images":["https://xcimg.szwego.com/img/8a425f4e/20260605/a1780649919882_6502.jpg","https://xcimg.szwego.com/img/8a425f4e/20260605/a1780649919874_5746.jpg","https://xcimg.szwego.com/img/8a425f4e/20260605/a1780649919860_6147.jpg","https://xcimg.szwego.com/img/8a425f4e/20260605/a1780649917939_5701.jpg","https://xcimg.szwego.com/img/8a425f4e/20260605/a1780649919884_2655.jpg","https://xcimg.szwego.com/img/8a425f4e/20260605/a1780649917954_4358.jpg","https://xcimg.szwego.com/img/8a425f4e/20260605/a1780649918197_0340.jpg","https://xcimg.szwego.com/img/8a425f4e/20260605/a1780649917899_5061.jpg","https://xcimg.szwego.com/img/8a425f4e/20260605/a1780649917905_4187.jpg"],"created_at":"2026-06-29T11:34:30.782Z"},{"id":"item-5e8c57468989","sku":"_davav8Mefmxd6PZS38VOFhAHPye0jiSdzBnwXxA","name_en":"Miu Miu Women Bags","name_cn":"#全套独家包装ྀི","specs":{"source":"wsxcme","sourceId":"_davav8Mefmxd6PZS38VOFhAHPye0jiSdzBnwXxA","sourceTagId":68075769,"sourceTagName":"Miu Miu /女包","rawTitle":"#全套独家包装ྀི"},"price":null,"currency":"CNY","moq":1,"category":"miu-miu-women-bags","status":"active","alibaba_url":null,"images":["https://xcimg.szwego.com/img/8a425f4e/20260604/a1780551027244_7247.jpg","https://xcimg.szwego.com/img/8a425f4e/20260604/a1780551027266_5044.jpg","https://xcimg.szwego.com/img/8a425f4e/20260604/a1780551027121_0807.jpg","https://xcimg.szwego.com/img/8a425f4e/20260604/a1780551027240_6337.jpg"],"created_at":"2026-06-29T11:34:30.772Z"},{"id":"item-ff03bdfb25a4","sku":"_dv_v_SLKg1E7ngJnipHAT2FbLb9QjntoE6UaKEQ","name_en":"MiuMiu 新款 Vivant 羊皮革手袋","name_cn":"MiuMiu 新款 Vivant 羊皮革手袋\n航海蓝 小号\n\n柔软轻盈羊皮革,指腹划过能摸到细腻感,自带柔光,慵懒不沉闷✨\n搭配精致锁饰,质感悄悄拉满🔒\n\n✔️带提手\n✔️可拆卸可调节肩带\n✔️拉链开合\n✔️白钢钢材配件\n✔️可拆卸挂饰,配金属锁扣\n✔️混纺衬里,配拉链口袋与贴袋\n\n🔍Size:28*17*9.5cm\n📌型号:5BB200M1380","specs":{"source":"wsxcme","sourceId":"_dv_v_SLKg1E7ngJnipHAT2FbLb9QjntoE6UaKEQ","sourceTagId":68075769,"sourceTagName":"Miu Miu /女包","modelNumber":"5BB200M1380","rawTitle":"MiuMiu 新款 Vivant 羊皮革手袋\n航海蓝 小号\n\n柔软轻盈羊皮革,指腹划过能摸到细腻感,自带柔光,慵懒不沉闷✨\n搭配精致锁饰,质感悄悄拉满🔒\n\n✔️带提手\n✔️可拆卸可调节肩带\n✔️拉链开合\n✔️白钢钢材配件\n✔️可拆卸挂饰,配金属锁扣\n✔️混纺衬里,配拉链口袋与贴袋\n\n🔍Size:28*17*9.5cm\n📌型号:5BB200M1380"},"price":null,"currency":"CNY","moq":1,"category":"miu-miu-women-bags","status":"active","alibaba_url":null,"images":["https://xcimg.szwego.com/img/8a425f4e/20260604/a1780550545600_8411.jpg","https://xcimg.szwego.com/img/8a425f4e/20260604/a1780550544071_7151.jpg","https://xcimg.szwego.com/img/8a425f4e/20260604/a1780550544154_2527.jpg","https://xcimg.szwego.com/img/8a425f4e/20260604/a1780550544537_4364.jpg","https://xcimg.szwego.com/img/8a425f4e/20260604/a1780550544304_3410.jpg","https://xcimg.szwego.com/img/8a425f4e/20260604/a1780550544147_8231.jpg","https://xcimg.szwego.com/img/8a425f4e/20260604/a1780550545601_0806.jpg","https://xcimg.szwego.com/img/8a425f4e/20260604/a1780550545628_2254.jpg","https://xcimg.szwego.com/img/8a425f4e/20260604/a1780550545623_7273.jpg"],"created_at":"2026-06-29T11:34:30.762Z"},{"id":"item-c427faaa7f28","sku":"_dsZsZtFVbVeCkn2slOiZYZzt0QnGj7_jFnejRAQ","name_en":"MIUMIU Vivant羊皮革尺寸对比➿","name_cn":"MIUMIU Vivant羊皮革尺寸对比➿\n蛋白石色\n\n常规款版型比小号稍大一圈,容量升级✨\n日常通勤、逛街出行、短途出行都能轻松驾驭,随身物品尽数收纳,实用度拉满🔝\n\n常规版型\n🔍Size:32*19.5*11cm\n📌型号:5BB199M1480\n\n小号\n🔍Size:28*17*9.5cm\n📌型号:5BB200M1380","specs":{"source":"wsxcme","sourceId":"_dsZsZtFVbVeCkn2slOiZYZzt0QnGj7_jFnejRAQ","sourceTagId":68075769,"sourceTagName":"Miu Miu /女包","modelNumber":"5BB199M1480","rawTitle":"MIUMIU Vivant羊皮革尺寸对比➿\n蛋白石色\n\n常规款版型比小号稍大一圈,容量升级✨\n日常通勤、逛街出行、短途出行都能轻松驾驭,随身物品尽数收纳,实用度拉满🔝\n\n常规版型\n🔍Size:32*19.5*11cm\n📌型号:5BB199M1480\n\n小号\n🔍Size:28*17*9.5cm\n📌型号:5BB200M1380"},"price":null,"currency":"CNY","moq":1,"category":"miu-miu-women-bags","status":"active","alibaba_url":null,"images":["https://xcimg.szwego.com/img/8a425f4e/20260603/a1780458318642_6543.jpg","https://xcimg.szwego.com/img/8a425f4e/20260603/a1780458318639_4487.jpg","https://xcimg.szwego.com/img/8a425f4e/20260603/a1780458318643_1563.jpg","https://xcimg.szwego.com/img/8a425f4e/20260603/a1780458318833_6568.jpg"],"created_at":"2026-06-29T11:34:30.752Z"},{"id":"item-910ef4223d16","sku":"_df5f5zE_RMCNH945AjIatZ_HFZxypxLaaDtzG2w","name_en":"MiuMiu 新款 Vivant 羊皮革手袋","name_cn":"MiuMiu 新款 Vivant 羊皮革手袋\n蛋白石色 小号\n\n柔软轻盈羊皮革搭配精致锁饰细节,质感出众\n百搭有型,轻松塑造专属个人风格\n\n✔️带提手\n✔️可拆卸可调节肩带\n✔️拉链开合\n✔️白钢钢材配件\n✔️可拆卸挂饰,配金属锁扣\n✔️混纺衬里,配拉链口袋与贴袋\n\n🔍Size:28*17*9.5cm\n📌型号:5BB200M1380","specs":{"source":"wsxcme","sourceId":"_df5f5zE_RMCNH945AjIatZ_HFZxypxLaaDtzG2w","sourceTagId":68075769,"sourceTagName":"Miu Miu /女包","modelNumber":"5BB200M1380","rawTitle":"MiuMiu 新款 Vivant 羊皮革手袋\n蛋白石色 小号\n\n柔软轻盈羊皮革搭配精致锁饰细节,质感出众\n百搭有型,轻松塑造专属个人风格\n\n✔️带提手\n✔️可拆卸可调节肩带\n✔️拉链开合\n✔️白钢钢材配件\n✔️可拆卸挂饰,配金属锁扣\n✔️混纺衬里,配拉链口袋与贴袋\n\n🔍Size:28*17*9.5cm\n📌型号:5BB200M1380"},"price":null,"currency":"CNY","moq":1,"category":"miu-miu-women-bags","status":"active","alibaba_url":null,"images":["https://xcimg.szwego.com/img/8a425f4e/20260603/a1780472861842_2143.jpg","https://xcimg.szwego.com/img/8a425f4e/20260603/a1780472860420_4418.jpg","https://xcimg.szwego.com/img/8a425f4e/20260603/a1780472860535_8704.jpg","https://xcimg.szwego.com/img/8a425f4e/20260603/a1780472860561_5580.jpg","https://xcimg.szwego.com/img/8a425f4e/20260603/a1780472860729_6871.jpg","https://xcimg.szwego.com/img/8a425f4e/20260603/a1780472860573_3660.jpg","https://xcimg.szwego.com/img/8a425f4e/20260603/a1780472861826_4481.jpg","https://xcimg.szwego.com/img/8a425f4e/20260603/a1780472861877_6027.jpg","https://xcimg.szwego.com/img/8a425f4e/20260603/a1780472861788_8604.jpg"],"created_at":"2026-06-29T11:34:30.742Z"},{"id":"item-abf95acb9cbc","sku":"_dWPWPbl8AmY17oFL2pQxA4yz_Z8qCZI8rs_LmDA","name_en":"MIUMIU Wander Hobo小号手提包","name_cn":"MIUMIU Wander Hobo小号手提包\n白色\n\n精湛工艺打造三维立体效果\n圆润包型搭配金属细节\n小号尺寸日常轻便出行\n\n✅可容纳IPhone 16 Pro\n✅小号Miu Miu钱包也可以轻松装入\n\n✔️带肩带\n✔️带衬里\n✔️拉链包口\n✔️镀金色五金配件\n\n🔍Size:20*17*6cm\n📌型号:5BC125M900","specs":{"source":"wsxcme","sourceId":"_dWPWPbl8AmY17oFL2pQxA4yz_Z8qCZI8rs_LmDA","sourceTagId":68075769,"sourceTagName":"Miu Miu /女包","modelNumber":"5BC125M900","rawTitle":"MIUMIU Wander Hobo小号手提包\n白色\n\n精湛工艺打造三维立体效果\n圆润包型搭配金属细节\n小号尺寸日常轻便出行\n\n✅可容纳IPhone 16 Pro\n✅小号Miu Miu钱包也可以轻松装入\n\n✔️带肩带\n✔️带衬里\n✔️拉链包口\n✔️镀金色五金配件\n\n🔍Size:20*17*6cm\n📌型号:5BC125M900"},"price":null,"currency":"CNY","moq":1,"category":"miu-miu-women-bags","status":"active","alibaba_url":null,"images":["https://xcimg.szwego.com/img/8a425f4e/20251112/i1762916821565_7196_0_8.jpg","https://xcimg.szwego.com/img/8a425f4e/20251112/i1762916821565_8395_0_0.jpg","https://xcimg.szwego.com/img/8a425f4e/20251112/i1762916821565_4998_0_1.jpg","https://xcimg.szwego.com/img/8a425f4e/20251112/i1762916821565_4133_0_7.jpg","https://xcimg.szwego.com/img/8a425f4e/20251112/i1762916822942_1289_0_5.jpg","https://xcimg.szwego.com/img/8a425f4e/20251112/i1762916821565_3808_0_6.jpg","https://xcimg.szwego.com/img/8a425f4e/20251112/i1762916822983_1157_0_2.jpg","https://xcimg.szwego.com/img/8a425f4e/20251112/i1762916822960_8268_0_3.jpg","https://xcimg.szwego.com/img/8a425f4e/20251112/i1762916822944_2595_0_4.jpg"],"created_at":"2026-06-29T11:34:30.732Z"},{"id":"item-7c081c1454b5","sku":"_domomqtaPUvmOq_69tsPilZmrb3MXXxlSY-KXTQ","name_en":"MIUMIU Wander Hobo小号手提包","name_cn":"MIUMIU Wander Hobo小号手提包\n干邑色\n\n精湛工艺打造三维立体效果\n圆润包型搭配金属细节\n小号尺寸日常轻便出行\n\n✅可容纳IPhone 16 Pro\n✅小号Miu Miu钱包也可以轻松装入\n\n✔️带肩带\n✔️带衬里\n✔️拉链包口\n✔️镀金色五金配件\n\n🔍Size:20*17*6cm\n📌型号:5BC125M900","specs":{"source":"wsxcme","sourceId":"_domomqtaPUvmOq_69tsPilZmrb3MXXxlSY-KXTQ","sourceTagId":68075769,"sourceTagName":"Miu Miu /女包","modelNumber":"5BC125M900","rawTitle":"MIUMIU Wander Hobo小号手提包\n干邑色\n\n精湛工艺打造三维立体效果\n圆润包型搭配金属细节\n小号尺寸日常轻便出行\n\n✅可容纳IPhone 16 Pro\n✅小号Miu Miu钱包也可以轻松装入\n\n✔️带肩带\n✔️带衬里\n✔️拉链包口\n✔️镀金色五金配件\n\n🔍Size:20*17*6cm\n📌型号:5BC125M900"},"price":null,"currency":"CNY","moq":1,"category":"miu-miu-women-bags","status":"active","alibaba_url":null,"images":["https://xcimg.szwego.com/img/8a425f4e/20251111/i1762832499706_6822_0_0.jpg","https://xcimg.szwego.com/img/8a425f4e/20251111/i1762832497527_2631_0_1.jpg","https://xcimg.szwego.com/img/8a425f4e/20251111/i1762832497564_1128_0_2.jpg","https://xcimg.szwego.com/img/8a425f4e/20251111/i1762832497528_8780_0_3.jpg","https://xcimg.szwego.com/img/8a425f4e/20251111/i1762832499746_2843_0_4.jpg","https://xcimg.szwego.com/img/8a425f4e/20251111/i1762832497397_1791_0_5.jpg","https://xcimg.szwego.com/img/8a425f4e/20251111/i1762832499670_3380_0_6.jpg","https://xcimg.szwego.com/img/8a425f4e/20251111/i1762832497488_5641_0_7.jpg","https://xcimg.szwego.com/img/8a425f4e/20251111/i1762832499387_8080_0_8.jpg"],"created_at":"2026-06-29T11:34:30.722Z"},{"id":"item-f83f01082e6f","sku":"_duAuAAQgZmE3_4rv49-o5AYx1eRMcPE2Pa8qIGg","name_en":"Miu Miu Women Bags","name_cn":"#全套独家包装ྀི","specs":{"source":"wsxcme","sourceId":"_duAuAAQgZmE3_4rv49-o5AYx1eRMcPE2Pa8qIGg","sourceTagId":68075769,"sourceTagName":"Miu Miu /女包","rawTitle":"#全套独家包装ྀི"},"price":null,"currency":"CNY","moq":1,"category":"miu-miu-women-bags","status":"active","alibaba_url":null,"images":["https://xcimg.szwego.com/img/8a425f4e/20260608/a1780885791462_5713.jpg","https://xcimg.szwego.com/img/8a425f4e/20260608/a1780885791652_6245.jpg","https://xcimg.szwego.com/img/8a425f4e/20260608/a1780885791633_2181.jpg","https://xcimg.szwego.com/img/8a425f4e/20260608/a1780885791628_4841.jpg"],"created_at":"2026-06-29T11:34:30.712Z"},{"id":"item-c19e82f71e8f","sku":"_djojo0Eb6ctBXwzyNEopc_s0Jwlylwv9M6UTrlQ","name_en":"MIUMIU IVY 牛皮革手袋","name_cn":"MIUMIU IVY 牛皮革手袋\n🖤黑色\n\n高定牛皮质感在线,柔和光泽➕工整绗缝,正面字母徽标显高级\n可拆卸肩带,手提/斜挎皆可,适配通勤、约会等多场景✅\n\n内里平整,收纳便捷\n明星同款专柜品质✨\n\n🔍Size:23.5*22*12cm\n📌型号:5BA284M1180","specs":{"source":"wsxcme","sourceId":"_djojo0Eb6ctBXwzyNEopc_s0Jwlylwv9M6UTrlQ","sourceTagId":68075769,"sourceTagName":"Miu Miu /女包","modelNumber":"5BA284M1180","rawTitle":"MIUMIU IVY 牛皮革手袋\n🖤黑色\n\n高定牛皮质感在线,柔和光泽➕工整绗缝,正面字母徽标显高级\n可拆卸肩带,手提/斜挎皆可,适配通勤、约会等多场景✅\n\n内里平整,收纳便捷\n明星同款专柜品质✨\n\n🔍Size:23.5*22*12cm\n📌型号:5BA284M1180"},"price":null,"currency":"CNY","moq":1,"category":"miu-miu-women-bags","status":"active","alibaba_url":null,"images":["https://xcimg.szwego.com/img/8a425f4e/20260608/a1780902675211_1616.jpg","https://xcimg.szwego.com/img/8a425f4e/20260608/a1780902673824_4647.jpg","https://xcimg.szwego.com/img/8a425f4e/20260608/a1780902673778_7566.jpg","https://xcimg.szwego.com/img/8a425f4e/20260608/a1780902673873_7770.jpg","https://xcimg.szwego.com/img/8a425f4e/20260608/a1780902673945_0216.jpg","https://xcimg.szwego.com/img/8a425f4e/20260608/a1780902674014_1522.jpg","https://xcimg.szwego.com/img/8a425f4e/20260608/a1780902675192_6867.jpg","https://xcimg.szwego.com/img/8a425f4e/20260608/a1780902675218_3588.jpg","https://xcimg.szwego.com/img/8a425f4e/20260608/a1780902675213_5426.jpg"],"created_at":"2026-06-29T11:34:30.702Z"},{"id":"item-527dea2dc88b","sku":"_dqPqPq40Ih_J08TdsdL0PTyW4gb2sYig-4yo7qw","name_en":"MIUMIU Nappa羊皮革 圆筒包","name_cn":"MIUMIU Nappa羊皮革 圆筒包\n石楠木\n\n这款羊皮革小包质感柔软,小巧实用🌟\n可拆卸肩带随心搭,手提、斜挎都好看,小巧又能装\n通勤、约会日常全适配,内里收纳规整省心,质感在线闭眼入✅\n\n▫️拉链开合\n▫️压花字母徽标\n▫️可拆卸/调节肩带\n\n🔍Size:22*9*9cm\n📌型号:5NE851M550","specs":{"source":"wsxcme","sourceId":"_dqPqPq40Ih_J08TdsdL0PTyW4gb2sYig-4yo7qw","sourceTagId":68075769,"sourceTagName":"Miu Miu /女包","modelNumber":"5NE851M550","rawTitle":"MIUMIU Nappa羊皮革 圆筒包\n石楠木\n\n这款羊皮革小包质感柔软,小巧实用🌟\n可拆卸肩带随心搭,手提、斜挎都好看,小巧又能装\n通勤、约会日常全适配,内里收纳规整省心,质感在线闭眼入✅\n\n▫️拉链开合\n▫️压花字母徽标\n▫️可拆卸/调节肩带\n\n🔍Size:22*9*9cm\n📌型号:5NE851M550"},"price":null,"currency":"CNY","moq":1,"category":"miu-miu-women-bags","status":"active","alibaba_url":null,"images":["https://xcimg.szwego.com/img/8a425f4e/20260611/a1781163964966_0163.jpg","https://xcimg.szwego.com/img/8a425f4e/20260611/a1781163965013_6261.jpg","https://xcimg.szwego.com/img/8a425f4e/20260611/a1781163965009_6024.jpg","https://xcimg.szwego.com/img/8a425f4e/20260611/a1781163965093_5687.jpg","https://xcimg.szwego.com/img/8a425f4e/20260611/a1781163959837_0178.jpg","https://xcimg.szwego.com/img/8a425f4e/20260611/a1781163959227_8366.jpg","https://xcimg.szwego.com/img/8a425f4e/20260611/a1781163959620_1476.jpg","https://xcimg.szwego.com/img/8a425f4e/20260611/a1781163959206_2147.jpg","https://xcimg.szwego.com/img/8a425f4e/20260611/a1781163959229_3737.jpg"],"created_at":"2026-06-29T11:34:30.692Z"}],"page":5,"pageSize":24,"total":10075,"totalPages":420}
