{"items":[{"id":"item-47433db41e8c","sku":"_dx9x9AsMvclOaqNdnI4NxeYkeN4jkPoWZuQYTVg","name_en":"『Celine 赛琳』","name_cn":"『Celine 赛琳』\n\n凯旋门腋下包升级•黑色\n\n全新升级版复古鎏金,五金更耐用更耐磨\n配TRIOMPHE金属质感锁扣\n复古摩登结合,日常必备穿搭💥\n\n尺寸:20×10×4cm","specs":{"source":"wsxcme","sourceId":"_dx9x9AsMvclOaqNdnI4NxeYkeN4jkPoWZuQYTVg","sourceTagId":47003106,"sourceTagName":"塞琳/女包","dimensions":{"lengthCm":20,"heightCm":10,"widthCm":4},"rawTitle":"『Celine 赛琳』\n\n凯旋门腋下包升级•黑色\n\n全新升级版复古鎏金,五金更耐用更耐磨\n配TRIOMPHE金属质感锁扣\n复古摩登结合,日常必备穿搭💥\n\n尺寸:20×10×4cm"},"price":null,"currency":"CNY","moq":1,"category":"celine-women-bags","status":"active","alibaba_url":null,"images":["https://xcimg.szwego.com/20220327/i1648373207_8032_0.jpg","https://xcimg.szwego.com/20220327/i1648373207_2189_1.jpg","https://xcimg.szwego.com/20220327/i1648373207_40_8.jpg","https://xcimg.szwego.com/20220327/i1648373207_2952_2.jpg","https://xcimg.szwego.com/20220327/i1648373207_7003_3.jpg","https://xcimg.szwego.com/20220327/i1648373207_7337_4.jpg","https://xcimg.szwego.com/20220327/i1648373207_9707_5.jpg","https://xcimg.szwego.com/20220327/i1648373207_4650_6.jpg","https://xcimg.szwego.com/20220327/i1648373207_7498_7.jpg"],"created_at":"2025-02-08T12:47:15.831Z"},{"id":"item-a73f537b1445","sku":"_dqFqFnnisADZnlcMAWjdiJ2KsR-WdKfp5ldpqgA","name_en":"『Celine 赛琳』","name_cn":"『Celine 赛琳』\n\n凯旋门腋下包升级•白花\n\n全新升级版复古鎏金,五金更耐用更耐磨\n配TRIOMPHE金属质感锁扣\n复古摩登结合,日常必备穿搭💥\n\n尺寸:20×10×4cm","specs":{"source":"wsxcme","sourceId":"_dqFqFnnisADZnlcMAWjdiJ2KsR-WdKfp5ldpqgA","sourceTagId":47003106,"sourceTagName":"塞琳/女包","dimensions":{"lengthCm":20,"heightCm":10,"widthCm":4},"rawTitle":"『Celine 赛琳』\n\n凯旋门腋下包升级•白花\n\n全新升级版复古鎏金,五金更耐用更耐磨\n配TRIOMPHE金属质感锁扣\n复古摩登结合,日常必备穿搭💥\n\n尺寸:20×10×4cm"},"price":null,"currency":"CNY","moq":1,"category":"celine-women-bags","status":"active","alibaba_url":null,"images":["https://xcimg.szwego.com/20220327/i1648373579_9585_0.jpg","https://xcimg.szwego.com/20220327/i1648373579_9685_1.jpg","https://xcimg.szwego.com/20220327/i1648373579_2153_2.jpg","https://xcimg.szwego.com/20220327/i1648373579_8039_3.jpg","https://xcimg.szwego.com/20220327/i1648373579_9799_4.jpg","https://xcimg.szwego.com/20220327/i1648373579_4756_5.jpg","https://xcimg.szwego.com/20220327/i1648373579_2186_6.jpg","https://xcimg.szwego.com/20220327/i1648373579_7649_7.jpg","https://xcimg.szwego.com/20220327/i1648373579_3374_8.jpg"],"created_at":"2025-02-08T12:47:15.830Z"},{"id":"item-12d0ed2cb077","sku":"_dAEAEcygIYjNJ0dG_ekrJyhoIcjL7ljCw7QQyzw","name_en":"『Celine 赛琳』","name_cn":"『Celine 赛琳』\n\n凯旋门腋下包升级•老花\n\n全新升级版复古鎏金,五金更耐用更耐磨\n配TRIOMPHE金属质感锁扣\n复古摩登结合,日常必备穿搭💥\n\n尺寸:20×10×4cm","specs":{"source":"wsxcme","sourceId":"_dAEAEcygIYjNJ0dG_ekrJyhoIcjL7ljCw7QQyzw","sourceTagId":47003106,"sourceTagName":"塞琳/女包","dimensions":{"lengthCm":20,"heightCm":10,"widthCm":4},"rawTitle":"『Celine 赛琳』\n\n凯旋门腋下包升级•老花\n\n全新升级版复古鎏金,五金更耐用更耐磨\n配TRIOMPHE金属质感锁扣\n复古摩登结合,日常必备穿搭💥\n\n尺寸:20×10×4cm"},"price":null,"currency":"CNY","moq":1,"category":"celine-women-bags","status":"active","alibaba_url":null,"images":["https://xcimg.szwego.com/20220327/i1648373748_5152_0.jpg","https://xcimg.szwego.com/20220327/i1648373748_5625_1.jpg","https://xcimg.szwego.com/20220327/i1648373748_8158_2.jpg","https://xcimg.szwego.com/20220327/i1648373748_3371_3.jpg","https://xcimg.szwego.com/20220327/i1648373748_5808_4.jpg","https://xcimg.szwego.com/20220327/i1648373748_9367_5.jpg","https://xcimg.szwego.com/20220327/i1648373748_5171_6.jpg","https://xcimg.szwego.com/20220327/i1648373748_5043_7.jpg","https://xcimg.szwego.com/20220327/i1648373748_6281_8.jpg"],"created_at":"2025-02-08T12:47:15.829Z"},{"id":"item-925bc7689fec","sku":"_diYiYtgzFAqBvIaK3NP29M0L9eWg4KzQ_c0n-tw","name_en":"『Celine 赛琳』","name_cn":"『Celine 赛琳』\n\n凯旋门链条腋下包•黑色\n立体的皮质浮雕凯旋门🦋\n法式中带很多点酷\n简约大气无敌时髦👜\n\n尺寸:21×11.5×4cm","specs":{"source":"wsxcme","sourceId":"_diYiYtgzFAqBvIaK3NP29M0L9eWg4KzQ_c0n-tw","sourceTagId":47003106,"sourceTagName":"塞琳/女包","dimensions":{"lengthCm":21,"heightCm":11.5,"widthCm":4},"rawTitle":"『Celine 赛琳』\n\n凯旋门链条腋下包•黑色\n立体的皮质浮雕凯旋门🦋\n法式中带很多点酷\n简约大气无敌时髦👜\n\n尺寸:21×11.5×4cm"},"price":null,"currency":"CNY","moq":1,"category":"celine-women-bags","status":"active","alibaba_url":null,"images":["https://xcimg.szwego.com/20220613/i1655096120_1199_0.jpg","https://xcimg.szwego.com/20220613/i1655096120_2647_1.jpg","https://xcimg.szwego.com/20220613/i1655096120_4272_2.jpg","https://xcimg.szwego.com/20220613/i1655096120_7350_3.jpg","https://xcimg.szwego.com/20220613/i1655096120_6047_4.jpg","https://xcimg.szwego.com/20220613/i1655096120_7571_5.jpg","https://xcimg.szwego.com/20220613/i1655096120_3131_6.jpg","https://xcimg.szwego.com/20220613/i1655096120_5133_7.jpg","https://xcimg.szwego.com/20220613/i1655096120_7734_8.jpg"],"created_at":"2025-02-08T12:47:15.828Z"},{"id":"item-956e8a0a1bec","sku":"_dzOzOupTWhXtg5qrPruS3xjX2SUkziKrNjArzlg","name_en":"『Celine 赛琳』","name_cn":"『Celine 赛琳』\n\n凯旋门链条腋下包•老花\n立体的皮质浮雕凯旋门🦋\n法式中带很多点酷\n简约大气无敌时髦👜\n\n尺寸:21×11.5×4cm","specs":{"source":"wsxcme","sourceId":"_dzOzOupTWhXtg5qrPruS3xjX2SUkziKrNjArzlg","sourceTagId":47003106,"sourceTagName":"塞琳/女包","dimensions":{"lengthCm":21,"heightCm":11.5,"widthCm":4},"rawTitle":"『Celine 赛琳』\n\n凯旋门链条腋下包•老花\n立体的皮质浮雕凯旋门🦋\n法式中带很多点酷\n简约大气无敌时髦👜\n\n尺寸:21×11.5×4cm"},"price":null,"currency":"CNY","moq":1,"category":"celine-women-bags","status":"active","alibaba_url":null,"images":["https://xcimg.szwego.com/20220613/i1655096089_6960_0.jpg","https://xcimg.szwego.com/20220613/i1655096089_3442_1.jpg","https://xcimg.szwego.com/20220613/i1655096089_2481_2.jpg","https://xcimg.szwego.com/20220613/i1655096089_8581_3.jpg","https://xcimg.szwego.com/20220613/i1655096089_6689_4.jpg","https://xcimg.szwego.com/20220613/i1655096089_1884_5.jpg","https://xcimg.szwego.com/20220613/i1655096089_5513_6.jpg","https://xcimg.szwego.com/20220613/i1655096089_7073_7.jpg","https://xcimg.szwego.com/20220613/i1655096089_6909_8.jpg"],"created_at":"2025-02-08T12:47:15.827Z"},{"id":"item-13de42796591","sku":"_duGuG9-QKyQv0MCbDlNsv4hp8Y3u4L4BIFzk0WA","name_en":"『Celine 赛琳』","name_cn":"『Celine 赛琳』\n\n凯旋门链条腋下包•粉色\n立体的皮质浮雕凯旋门🦋\n法式中带很多点酷\n简约大气无敌时髦👜\n\n尺寸:21×11.5×4cm","specs":{"source":"wsxcme","sourceId":"_duGuG9-QKyQv0MCbDlNsv4hp8Y3u4L4BIFzk0WA","sourceTagId":47003106,"sourceTagName":"塞琳/女包","dimensions":{"lengthCm":21,"heightCm":11.5,"widthCm":4},"rawTitle":"『Celine 赛琳』\n\n凯旋门链条腋下包•粉色\n立体的皮质浮雕凯旋门🦋\n法式中带很多点酷\n简约大气无敌时髦👜\n\n尺寸:21×11.5×4cm"},"price":null,"currency":"CNY","moq":1,"category":"celine-women-bags","status":"active","alibaba_url":null,"images":["https://xcimg.szwego.com/20220613/i1655096057_540_0.jpg","https://xcimg.szwego.com/20220613/i1655096057_7318_1.jpg","https://xcimg.szwego.com/20220613/i1655096057_5978_2.jpg","https://xcimg.szwego.com/20220613/i1655096057_7072_3.jpg","https://xcimg.szwego.com/20220613/i1655096057_5979_4.jpg","https://xcimg.szwego.com/20220613/i1655096057_1687_5.jpg","https://xcimg.szwego.com/20220613/i1655096057_7952_6.jpg","https://xcimg.szwego.com/20220613/i1655096057_7884_7.jpg","https://xcimg.szwego.com/20220613/i1655096057_6281_8.jpg"],"created_at":"2025-02-08T12:47:15.826Z"},{"id":"item-75635b6a6728","sku":"_dPFPFYWdR_O9nPAdpaU3cdMrH6TPd84uo0wKDcw","name_en":"『Celine 赛琳』","name_cn":"『Celine 赛琳』\n\n凯旋门链条腋下包•黄色\n立体的皮质浮雕凯旋门🦋\n法式中带很多点酷\n简约大气无敌时髦👜\n\n尺寸:21×11.5×4cm","specs":{"source":"wsxcme","sourceId":"_dPFPFYWdR_O9nPAdpaU3cdMrH6TPd84uo0wKDcw","sourceTagId":47003106,"sourceTagName":"塞琳/女包","dimensions":{"lengthCm":21,"heightCm":11.5,"widthCm":4},"rawTitle":"『Celine 赛琳』\n\n凯旋门链条腋下包•黄色\n立体的皮质浮雕凯旋门🦋\n法式中带很多点酷\n简约大气无敌时髦👜\n\n尺寸:21×11.5×4cm"},"price":null,"currency":"CNY","moq":1,"category":"celine-women-bags","status":"active","alibaba_url":null,"images":["https://xcimg.szwego.com/20220613/i1655096000_1910_0.jpg","https://xcimg.szwego.com/20220613/i1655096000_1802_1.jpg","https://xcimg.szwego.com/20220613/i1655096000_3906_2.jpg","https://xcimg.szwego.com/20220613/i1655096000_833_3.jpg","https://xcimg.szwego.com/20220613/i1655096000_4854_4.jpg","https://xcimg.szwego.com/20220613/i1655096000_2060_5.jpg","https://xcimg.szwego.com/20220613/i1655096000_3345_6.jpg","https://xcimg.szwego.com/20220613/i1655096000_3207_7.jpg","https://xcimg.szwego.com/20220613/i1655096000_1682_8.jpg"],"created_at":"2025-02-08T12:47:15.825Z"},{"id":"item-39d8a617b194","sku":"_dtItIJBKqqgMKlshOxeDi_QoCWvGHElIiupO4Cw","name_en":"『Celine 赛琳』","name_cn":"『Celine 赛琳』\n\n22早春新款\n凯旋门老花mini 双肩包\n复古小巧 实用性设计 \n肩带长度可调节 容量满满 \n减龄青春又文气 \n自在的复古少女感\n尺寸:19×22*8cm","specs":{"source":"wsxcme","sourceId":"_dtItIJBKqqgMKlshOxeDi_QoCWvGHElIiupO4Cw","sourceTagId":47003106,"sourceTagName":"塞琳/女包","dimensions":{"lengthCm":19,"heightCm":22,"widthCm":8},"rawTitle":"『Celine 赛琳』\n\n22早春新款\n凯旋门老花mini 双肩包\n复古小巧 实用性设计 \n肩带长度可调节 容量满满 \n减龄青春又文气 \n自在的复古少女感\n尺寸:19×22*8cm"},"price":null,"currency":"CNY","moq":1,"category":"celine-women-bags","status":"active","alibaba_url":null,"images":["https://xcimg.szwego.com/20211202/i1638425290_3274_0.jpg","https://xcimg.szwego.com/20211202/i1638425303_1291_0.jpg","https://xcimg.szwego.com/20211202/i1638425313_9352_0.jpg","https://xcimg.szwego.com/20211202/i1638425118_5984_3.jpg","https://xcimg.szwego.com/20211202/i1638425359_9137_0.jpg","https://xcimg.szwego.com/20211202/i1638425118_5409_6.jpg","https://xcimg.szwego.com/20211202/i1638425325_9279_0.jpg","https://xcimg.szwego.com/20211202/i1638425118_2748_4.jpg","https://xcimg.szwego.com/20211202/i1638425118_5883_5.jpg"],"created_at":"2025-02-08T12:47:15.824Z"},{"id":"item-ef9b5e0235dd","sku":"_dMCMCGf63jONW90U7p8DOVEyBHvuUnIq9bAgbbg","name_en":"『Celine 赛琳』","name_cn":"『Celine 赛琳』\n\n🔥爆款💯系列升级版\nCELINE  AVA TRIOMPHE帆布手袋\n原版购入打版👍原版实拍图📷复古老花腋下包lisa同款牛皮半月包真皮 单肩女包豌豆包\n9 X 6 X 3英寸(23 X 14 X 7厘米)\n61%涂层帆布,39%小牛皮\n编号:193952BZJ.04LU","specs":{"source":"wsxcme","sourceId":"_dMCMCGf63jONW90U7p8DOVEyBHvuUnIq9bAgbbg","sourceTagId":47003106,"sourceTagName":"塞琳/女包","rawTitle":"『Celine 赛琳』\n\n🔥爆款💯系列升级版\nCELINE  AVA TRIOMPHE帆布手袋\n原版购入打版👍原版实拍图📷复古老花腋下包lisa同款牛皮半月包真皮 单肩女包豌豆包\n9 X 6 X 3英寸(23 X 14 X 7厘米)\n61%涂层帆布,39%小牛皮\n编号:193952BZJ.04LU"},"price":null,"currency":"CNY","moq":1,"category":"celine-women-bags","status":"active","alibaba_url":null,"images":["https://xcimg.szwego.com/20220321/i1647834951_1037_0.jpg","https://xcimg.szwego.com/20220321/i1647834951_5881_1.jpg","https://xcimg.szwego.com/20220321/i1647834951_6231_2.jpg","https://xcimg.szwego.com/20220321/i1647834951_9354_3.jpg","https://xcimg.szwego.com/20220321/i1647834951_5901_4.jpg","https://xcimg.szwego.com/20220321/i1647834951_8079_5.jpg","https://xcimg.szwego.com/20220321/i1647834951_5921_6.jpg","https://xcimg.szwego.com/20220321/i1647834951_7200_7.jpg"],"created_at":"2025-02-08T12:47:15.823Z"},{"id":"item-eb99985438de","sku":"_dqRqRdNjD45eWTd1qdKZn4UWX3ahuXbzCXFqxNQ","name_en":"『Celine 赛琳』","name_cn":"『Celine 赛琳』\n\n🔥爆款💯系列🔥升级版\nCELINE  AVA TRIOMPHE帆布手袋\n原版购入打版👍原版实拍图📷复古老花腋下包lisa同款牛皮半月包真皮 单肩女包豌豆包\n9 X 6 X 3英寸(23 X 14 X 7厘米)\n61%涂层帆布,39%小牛皮\n编号:193952BZJ.04LU","specs":{"source":"wsxcme","sourceId":"_dqRqRdNjD45eWTd1qdKZn4UWX3ahuXbzCXFqxNQ","sourceTagId":47003106,"sourceTagName":"塞琳/女包","rawTitle":"『Celine 赛琳』\n\n🔥爆款💯系列🔥升级版\nCELINE  AVA TRIOMPHE帆布手袋\n原版购入打版👍原版实拍图📷复古老花腋下包lisa同款牛皮半月包真皮 单肩女包豌豆包\n9 X 6 X 3英寸(23 X 14 X 7厘米)\n61%涂层帆布,39%小牛皮\n编号:193952BZJ.04LU"},"price":null,"currency":"CNY","moq":1,"category":"celine-women-bags","status":"active","alibaba_url":null,"images":["https://xcimg.szwego.com/20220419/i1650335365_8348_0.jpg","https://xcimg.szwego.com/20220419/i1650335365_4492_1.jpg","https://xcimg.szwego.com/20220419/i1650335365_13_2.jpg","https://xcimg.szwego.com/20220419/i1650335365_8278_3.jpg","https://xcimg.szwego.com/20220419/i1650335365_6775_4.jpg","https://xcimg.szwego.com/20220419/i1650335365_6359_5.jpg","https://xcimg.szwego.com/20220419/i1650335365_2239_6.jpg"],"created_at":"2025-02-08T12:47:15.822Z"},{"id":"item-431bd57927b3","sku":"_dhBhBQ039503XJOAXkKIx3nA71SgIIifDv4niug","name_en":"『Celine 赛琳』","name_cn":"『Celine 赛琳』\n\n链条⛓️腋下包\n手搓纹小牛皮链条肩背包\n8 X 4 X 2英寸(20.5 X 10.5 X 4厘米)\nTRIOMPHE CANVAS标志印花\n羊皮革衬里\n肩背\n编号:197993","specs":{"source":"wsxcme","sourceId":"_dhBhBQ039503XJOAXkKIx3nA71SgIIifDv4niug","sourceTagId":47003106,"sourceTagName":"塞琳/女包","rawTitle":"『Celine 赛琳』\n\n链条⛓️腋下包\n手搓纹小牛皮链条肩背包\n8 X 4 X 2英寸(20.5 X 10.5 X 4厘米)\nTRIOMPHE CANVAS标志印花\n羊皮革衬里\n肩背\n编号:197993"},"price":null,"currency":"CNY","moq":1,"category":"celine-women-bags","status":"active","alibaba_url":null,"images":["https://xcimg.szwego.com/20220415/i1649955227_7738_0.jpg","https://xcimg.szwego.com/20220415/i1649955227_8876_1.jpg","https://xcimg.szwego.com/20220415/i1649955227_6076_2.jpg","https://xcimg.szwego.com/20220415/i1649955227_2178_3.jpg","https://xcimg.szwego.com/20220415/i1649955227_3119_4.jpg","https://xcimg.szwego.com/20220415/i1649955227_3585_5.jpg","https://xcimg.szwego.com/20220415/i1649955227_8402_6.jpg","https://xcimg.szwego.com/20220415/i1649955227_4279_7.jpg","https://xcimg.szwego.com/20220415/i1649955227_4467_8.jpg"],"created_at":"2025-02-08T12:47:15.821Z"},{"id":"item-f4a810db6c5d","sku":"_dx6x68bFA00ehDWiSYi_QrRlDrVCGoSP58ZvEhA","name_en":"『Celine 赛琳』","name_cn":"『Celine 赛琳』\n\n专柜升级版CELINE TRIOMPHE帆布和光滑小羊皮饰带钱包\n8 X 5英寸(20 X 11.5厘米)\n62%涂层帆布、38%小羊皮\n57%小牛皮、43%织物面料衬里\n斜挎和肩背\n按扣 \n2个角撑隔层 \n1个拉链口袋 \n1个扁平口袋 \n8个卡槽 \n可调节小牛皮肩带 长19英寸(48厘米)\n43至53厘米 \n款号:10D852","specs":{"source":"wsxcme","sourceId":"_dx6x68bFA00ehDWiSYi_QrRlDrVCGoSP58ZvEhA","sourceTagId":47003106,"sourceTagName":"塞琳/女包","modelNumber":"10D852","rawTitle":"『Celine 赛琳』\n\n专柜升级版CELINE TRIOMPHE帆布和光滑小羊皮饰带钱包\n8 X 5英寸(20 X 11.5厘米)\n62%涂层帆布、38%小羊皮\n57%小牛皮、43%织物面料衬里\n斜挎和肩背\n按扣 \n2个角撑隔层 \n1个拉链口袋 \n1个扁平口袋 \n8个卡槽 \n可调节小牛皮肩带 长19英寸(48厘米)\n43至53厘米 \n款号:10D852"},"price":null,"currency":"CNY","moq":1,"category":"celine-women-bags","status":"active","alibaba_url":null,"images":["https://xcimg.szwego.com/20220325/i1648211946_1963_1.jpg","https://xcimg.szwego.com/20220325/i1648211946_614_2.jpg","https://xcimg.szwego.com/20220325/i1648211946_7916_3.jpg","https://xcimg.szwego.com/20220325/i1648211946_8683_4.jpg","https://xcimg.szwego.com/20220325/i1648211946_6452_5.jpg","https://xcimg.szwego.com/20220325/i1648211946_970_6.jpg","https://xcimg.szwego.com/20220325/i1648211946_3875_7.jpg","https://xcimg.szwego.com/20220325/i1648211946_6831_8.jpg","https://xcimg.szwego.com/20220325/i1648211967_2260_0.jpg"],"created_at":"2025-02-08T12:47:15.820Z"},{"id":"item-007e7faa96b7","sku":"_dLhLhCKjOFTtV-KWSTheRwkElOAFgb80Bi6lM8w","name_en":"『Celine 赛琳』","name_cn":"『Celine 赛琳』\n\nCELINE腋下包印花AVA BAG首发款!韩国LISA热爱款 复古时髦风出镜 复古女孩look放送ing❤进口小牛皮 ,做工细节超赞!\n尺寸:24.18.7  \n型号:3112#","specs":{"source":"wsxcme","sourceId":"_dLhLhCKjOFTtV-KWSTheRwkElOAFgb80Bi6lM8w","sourceTagId":47003106,"sourceTagName":"塞琳/女包","modelNumber":"3112#","rawTitle":"『Celine 赛琳』\n\nCELINE腋下包印花AVA BAG首发款!韩国LISA热爱款 复古时髦风出镜 复古女孩look放送ing❤进口小牛皮 ,做工细节超赞!\n尺寸:24.18.7  \n型号:3112#"},"price":null,"currency":"CNY","moq":1,"category":"celine-women-bags","status":"active","alibaba_url":null,"images":["https://xcimg.szwego.com/20220330/i1648611954_7256_0.jpg","https://xcimg.szwego.com/20220330/i1648611954_3376_1.jpg","https://xcimg.szwego.com/20220330/i1648611954_9320_2.jpg","https://xcimg.szwego.com/20220330/i1648611954_5817_3.jpg","https://xcimg.szwego.com/20220330/i1648611954_3988_4.jpg","https://xcimg.szwego.com/20220330/i1648611954_3236_5.jpg","https://xcimg.szwego.com/20220330/i1648611954_9947_6.jpg","https://xcimg.szwego.com/20220330/i1648611954_7176_7.jpg","https://xcimg.szwego.com/20220330/i1648611954_4203_8.jpg"],"created_at":"2025-02-08T12:47:15.819Z"},{"id":"item-631178472aa4","sku":"_dvkvkFhUiPAuFepUDtZh-MbggG465ICBP3eWX-Q","name_en":"『Celine 赛琳』","name_cn":"『Celine 赛琳』\n\nCeline  新品AVA TRIOMPHE帆布手袋Z复古白花腋下包lisa同款,单肩女包豌豆包,61%涂层帆布,39%小牛皮。\n尺寸:23x 14x 7cm\n型号:3112#","specs":{"source":"wsxcme","sourceId":"_dvkvkFhUiPAuFepUDtZh-MbggG465ICBP3eWX-Q","sourceTagId":47003106,"sourceTagName":"塞琳/女包","modelNumber":"3112#","dimensions":{"lengthCm":23,"heightCm":14,"widthCm":7},"rawTitle":"『Celine 赛琳』\n\nCeline  新品AVA TRIOMPHE帆布手袋Z复古白花腋下包lisa同款,单肩女包豌豆包,61%涂层帆布,39%小牛皮。\n尺寸:23x 14x 7cm\n型号:3112#"},"price":null,"currency":"CNY","moq":1,"category":"celine-women-bags","status":"active","alibaba_url":null,"images":["https://xcimg.szwego.com/20220330/i1648611906_5249_0.jpg","https://xcimg.szwego.com/20220330/i1648611906_2689_1.jpg","https://xcimg.szwego.com/20220330/i1648611906_7554_2.jpg","https://xcimg.szwego.com/20220330/i1648611906_697_3.jpg","https://xcimg.szwego.com/20220330/i1648611906_3678_4.jpg","https://xcimg.szwego.com/20220330/i1648611906_2319_5.jpg","https://xcimg.szwego.com/20220330/i1648611906_2252_6.jpg","https://xcimg.szwego.com/20220330/i1648611906_1949_7.jpg","https://xcimg.szwego.com/20220330/i1648611906_4078_8.jpg"],"created_at":"2025-02-08T12:47:15.818Z"},{"id":"item-02875ecda3bf","sku":"_dggggOD_THt9qYzslgxavyTWmhTPS47lnBKdYPw","name_en":"『Celine 赛琳』","name_cn":"『Celine 赛琳』\n\n七夕系列,Celine AVA TRIOMPHE标志印花手袋 腋下包lisa同款,单肩女包豌豆包®️61%涂层帆布,39%小牛皮\n尺寸:23cmX 14cmX 7cm\n型号:3112#","specs":{"source":"wsxcme","sourceId":"_dggggOD_THt9qYzslgxavyTWmhTPS47lnBKdYPw","sourceTagId":47003106,"sourceTagName":"塞琳/女包","modelNumber":"3112#","rawTitle":"『Celine 赛琳』\n\n七夕系列,Celine AVA TRIOMPHE标志印花手袋 腋下包lisa同款,单肩女包豌豆包®️61%涂层帆布,39%小牛皮\n尺寸:23cmX 14cmX 7cm\n型号:3112#"},"price":null,"currency":"CNY","moq":1,"category":"celine-women-bags","status":"active","alibaba_url":null,"images":["https://xcimg.szwego.com/20220330/i1648611851_8266_0.jpg","https://xcimg.szwego.com/20220330/i1648611851_1536_1.jpg","https://xcimg.szwego.com/20220330/i1648611851_6425_2.jpg","https://xcimg.szwego.com/20220330/i1648611851_1631_3.jpg","https://xcimg.szwego.com/20220330/i1648611851_6988_4.jpg","https://xcimg.szwego.com/20220330/i1648611851_9287_5.jpg","https://xcimg.szwego.com/20220330/i1648611851_927_6.jpg","https://xcimg.szwego.com/20220330/i1648611851_2521_7.jpg","https://xcimg.szwego.com/20220330/i1648611851_1521_8.jpg"],"created_at":"2025-02-08T12:47:15.817Z"},{"id":"item-e864b4c1a9f7","sku":"_drhrhd8iSQpuadjiU5RFC4NSfqW2hZ__XHlQZ2A","name_en":"『Celine 赛琳』","name_cn":"『Celine 赛琳』\n\n老花系列,CABAS TRIOMPHE🛍帆布小号竖款手袋\n65%涂层帆布,35%小牛皮,\n100%棉衬里,内侧拉链口袋,\n可调节可拆卸皮革肩带    \n尺寸28.5 X 33 X 8 \n型号:0250#","specs":{"source":"wsxcme","sourceId":"_drhrhd8iSQpuadjiU5RFC4NSfqW2hZ__XHlQZ2A","sourceTagId":47003106,"sourceTagName":"塞琳/女包","modelNumber":"0250#","rawTitle":"『Celine 赛琳』\n\n老花系列,CABAS TRIOMPHE🛍帆布小号竖款手袋\n65%涂层帆布,35%小牛皮,\n100%棉衬里,内侧拉链口袋,\n可调节可拆卸皮革肩带    \n尺寸28.5 X 33 X 8 \n型号:0250#"},"price":null,"currency":"CNY","moq":1,"category":"celine-women-bags","status":"active","alibaba_url":null,"images":["https://xcimg.szwego.com/20220403/i1648958973_4062_0.jpg","https://xcimg.szwego.com/20220403/i1648958973_5122_1.jpg","https://xcimg.szwego.com/20220403/i1648958973_4268_2.jpg","https://xcimg.szwego.com/20220403/i1648958973_6419_3.jpg","https://xcimg.szwego.com/20220403/i1648958973_8170_4.jpg","https://xcimg.szwego.com/20220403/i1648958973_9773_5.jpg","https://xcimg.szwego.com/20220403/i1648958973_3292_6.jpg","https://xcimg.szwego.com/20220403/i1648958973_338_7.jpg","https://xcimg.szwego.com/20220403/i1648958973_1051_8.jpg"],"created_at":"2025-02-08T12:47:15.816Z"},{"id":"item-8402a0b9ab85","sku":"_duMuMHB9LlR80_pqc5PhM3tBjB5pTiVGQ9Mq18Q","name_en":"『Celine 赛琳』","name_cn":"『Celine 赛琳』\n\n新品🔛小号标志印花牛皮革波士顿包TRIOMPHE CANVAS标志印花,牛皮革包边,织物面料衬里,拉链锁闭,1个主隔层,内侧拉链口袋。皮革手挽长8cm\n尺寸:20 X 14 X 7cm\n型号:4450#","specs":{"source":"wsxcme","sourceId":"_duMuMHB9LlR80_pqc5PhM3tBjB5pTiVGQ9Mq18Q","sourceTagId":47003106,"sourceTagName":"塞琳/女包","modelNumber":"4450#","dimensions":{"lengthCm":20,"heightCm":14,"widthCm":7},"rawTitle":"『Celine 赛琳』\n\n新品🔛小号标志印花牛皮革波士顿包TRIOMPHE CANVAS标志印花,牛皮革包边,织物面料衬里,拉链锁闭,1个主隔层,内侧拉链口袋。皮革手挽长8cm\n尺寸:20 X 14 X 7cm\n型号:4450#"},"price":null,"currency":"CNY","moq":1,"category":"celine-women-bags","status":"active","alibaba_url":null,"images":["https://xcimg.szwego.com/20220418/i1650257828_6308_0.jpg","https://xcimg.szwego.com/20220418/i1650257828_1144_1.jpg","https://xcimg.szwego.com/20220418/i1650257828_423_2.jpg","https://xcimg.szwego.com/20220418/i1650257828_8144_3.jpg","https://xcimg.szwego.com/20220418/i1650257828_6905_4.jpg","https://xcimg.szwego.com/20220418/i1650257828_7222_5.jpg","https://xcimg.szwego.com/20220418/i1650257828_8544_6.jpg","https://xcimg.szwego.com/20220418/i1650257828_191_7.jpg","https://xcimg.szwego.com/20220418/i1650257828_7043_8.jpg"],"created_at":"2025-02-08T12:47:15.815Z"},{"id":"item-e1ab9d81ef91","sku":"_dvPvPNpV3Mgl_2aHk4tdNI7LFkRg6bRbij0wfEg","name_en":"『Celine 赛琳』","name_cn":"『Celine 赛琳』\n\n新款TRIOMPHE 2022春季横款CABAS 托特手袋百搭托特  经典凯旋老花系列 手提不挑人 博主明星极荐 小牛皮pvc 大包中的战斗机、耐刮、轻便、容量大、时髦精必备单品!\n尺寸: 40×14.5×30\n款号: 1189#","specs":{"source":"wsxcme","sourceId":"_dvPvPNpV3Mgl_2aHk4tdNI7LFkRg6bRbij0wfEg","sourceTagId":47003106,"sourceTagName":"塞琳/女包","modelNumber":"1189#","rawTitle":"『Celine 赛琳』\n\n新款TRIOMPHE 2022春季横款CABAS 托特手袋百搭托特  经典凯旋老花系列 手提不挑人 博主明星极荐 小牛皮pvc 大包中的战斗机、耐刮、轻便、容量大、时髦精必备单品!\n尺寸: 40×14.5×30\n款号: 1189#"},"price":null,"currency":"CNY","moq":1,"category":"celine-women-bags","status":"active","alibaba_url":null,"images":["https://xcimg.szwego.com/20220421/i1650515290_2071_0.jpg","https://xcimg.szwego.com/20220421/i1650515290_1555_1.jpg","https://xcimg.szwego.com/20220421/i1650515290_228_2.jpg","https://xcimg.szwego.com/20220421/i1650515290_4723_3.jpg","https://xcimg.szwego.com/20220421/i1650515290_1140_4.jpg","https://xcimg.szwego.com/20220421/i1650515290_2822_5.jpg","https://xcimg.szwego.com/20220421/i1650515290_4612_6.jpg","https://xcimg.szwego.com/20220421/i1650515290_7782_7.jpg","https://xcimg.szwego.com/20220421/i1650515290_4268_8.jpg"],"created_at":"2025-02-08T12:47:15.814Z"},{"id":"item-1b3510886b61","sku":"_d-q-q7kkLE7HlOstt4_Z17UvBLIxA-FFD2mFYOQ","name_en":"『Celine 赛琳』","name_cn":"『Celine 赛琳』\n\n贝壳包 TRIOMPHE帆布相机包  64%涂层帆布,36%小牛皮 可斜挎和肩背 拉链锁闭 可调节皮革肩带长20英寸(50厘米)\n尺寸:20 X 15 X 5cm\n型号:3189#","specs":{"source":"wsxcme","sourceId":"_d-q-q7kkLE7HlOstt4_Z17UvBLIxA-FFD2mFYOQ","sourceTagId":47003106,"sourceTagName":"塞琳/女包","modelNumber":"3189#","dimensions":{"lengthCm":20,"heightCm":15,"widthCm":5},"rawTitle":"『Celine 赛琳』\n\n贝壳包 TRIOMPHE帆布相机包  64%涂层帆布,36%小牛皮 可斜挎和肩背 拉链锁闭 可调节皮革肩带长20英寸(50厘米)\n尺寸:20 X 15 X 5cm\n型号:3189#"},"price":null,"currency":"CNY","moq":1,"category":"celine-women-bags","status":"active","alibaba_url":null,"images":["https://xcimg.szwego.com/20220422/i1650601951_1683_0.jpg","https://xcimg.szwego.com/20220422/i1650601951_2083_1.jpg","https://xcimg.szwego.com/20220422/i1650601951_9653_2.jpg","https://xcimg.szwego.com/20220422/i1650601951_7059_3.jpg","https://xcimg.szwego.com/20220422/i1650601951_2523_4.jpg","https://xcimg.szwego.com/20220422/i1650601951_612_5.jpg","https://xcimg.szwego.com/20220422/i1650601951_9806_6.jpg","https://xcimg.szwego.com/20220422/i1650601951_7737_7.jpg","https://xcimg.szwego.com/20220422/i1650601951_984_8.jpg"],"created_at":"2025-02-08T12:47:15.813Z"},{"id":"item-971467d0ed9c","sku":"_deYeYw4Vxb2mUzrjSyL-7NpTu8HjrzIUp9Ahnrg","name_en":"『Celine 赛琳』","name_cn":"『Celine 赛琳』\n\nCELINE 2021春夏新品TRIOMPHE凯旋标志平纹小牛皮肩背包,凯旋腋下包,牛皮包边,羊皮衬里,内侧扁平口袋,可调节皮革肩带长20cm\n尺寸:20 X 10 X 4cm","specs":{"source":"wsxcme","sourceId":"_deYeYw4Vxb2mUzrjSyL-7NpTu8HjrzIUp9Ahnrg","sourceTagId":47003106,"sourceTagName":"塞琳/女包","dimensions":{"lengthCm":20,"heightCm":10,"widthCm":4},"rawTitle":"『Celine 赛琳』\n\nCELINE 2021春夏新品TRIOMPHE凯旋标志平纹小牛皮肩背包,凯旋腋下包,牛皮包边,羊皮衬里,内侧扁平口袋,可调节皮革肩带长20cm\n尺寸:20 X 10 X 4cm"},"price":null,"currency":"CNY","moq":1,"category":"celine-women-bags","status":"active","alibaba_url":null,"images":["https://xcimg.szwego.com/20220410/i1649574384_9495_0.jpg","https://xcimg.szwego.com/20220410/i1649574384_3486_1.jpg","https://xcimg.szwego.com/20220410/i1649574384_6520_2.jpg","https://xcimg.szwego.com/20220410/i1649574384_25_3.jpg","https://xcimg.szwego.com/20220410/i1649574384_942_4.jpg","https://xcimg.szwego.com/20220410/i1649574384_2951_5.jpg","https://xcimg.szwego.com/20220410/i1649574384_3105_6.jpg","https://xcimg.szwego.com/20220410/i1649574384_6943_7.jpg","https://xcimg.szwego.com/20220410/i1649574384_6086_8.jpg"],"created_at":"2025-02-08T12:47:15.812Z"},{"id":"item-86af55715c72","sku":"_drLrLbYqha4dq7r1kwyV8no8eGddjqpwDENo7xg","name_en":"赛琳CELINE 凯旋门帆布 帆布配棕色牛皮 尺寸大号 22*16*6cm 小号 18-14-6cm","name_cn":"赛琳CELINE 凯旋门帆布 帆布配棕色牛皮 尺寸大号 22*16*6cm 小号 18-14-6cm","specs":{"source":"wsxcme","sourceId":"_drLrLbYqha4dq7r1kwyV8no8eGddjqpwDENo7xg","sourceTagId":47003106,"sourceTagName":"塞琳/女包","rawTitle":"赛琳CELINE 凯旋门帆布 帆布配棕色牛皮 尺寸大号 22*16*6cm 小号 18-14-6cm"},"price":null,"currency":"CNY","moq":1,"category":"celine-women-bags","status":"active","alibaba_url":null,"images":["https://xcimg.szwego.com/20200702/i1593621579_12_0.jpg","https://xcimg.szwego.com/20200702/i1593621579_2492_1.jpg","https://xcimg.szwego.com/20200702/i1593621579_1713_2.jpg","https://xcimg.szwego.com/20200702/i1593621579_6998_3.jpg","https://xcimg.szwego.com/20200702/i1593621579_2102_4.jpg","https://xcimg.szwego.com/20200702/i1593621579_4336_5.jpg","https://xcimg.szwego.com/20200702/i1593621579_2237_6.jpg","https://xcimg.szwego.com/20200702/i1593621579_4590_7.jpg","https://xcimg.szwego.com/20200702/i1593621579_4574_8.jpg"],"created_at":"2025-02-08T12:47:15.811Z"},{"id":"item-38427696dc3b","sku":"_d3z3zgb3LnxpHc5OxzfnwDEwWrcDcA8Eyndm2jA","name_en":"Celine Women Bags","name_cn":"赛琳小腋下包·粉色\nTilly腋下包\n圆润造型单肩包👛\n延续经典手袋的调性\n容量可以包型硬挺可调节肩带\n\n尺寸:22×13.5×4cm","specs":{"source":"wsxcme","sourceId":"_d3z3zgb3LnxpHc5OxzfnwDEwWrcDcA8Eyndm2jA","sourceTagId":47003106,"sourceTagName":"塞琳/女包","dimensions":{"lengthCm":22,"heightCm":13.5,"widthCm":4},"rawTitle":"赛琳小腋下包·粉色\nTilly腋下包\n圆润造型单肩包👛\n延续经典手袋的调性\n容量可以包型硬挺可调节肩带\n\n尺寸:22×13.5×4cm"},"price":null,"currency":"CNY","moq":1,"category":"celine-women-bags","status":"active","alibaba_url":null,"images":["https://xcimg.szwego.com/img/a0ceb150/20240304/i1709541507_5862_0.jpg","https://xcimg.szwego.com/img/a0ceb150/20240304/i1709541506_6008_0.jpg","https://xcimg.szwego.com/img/a0ceb150/20240304/i1709541506_559_0.jpg","https://xcimg.szwego.com/img/a0ceb150/20240304/i1709541507_5411_0.jpg","https://xcimg.szwego.com/img/a0ceb150/20240304/i1709541506_2409_0.jpg","https://xcimg.szwego.com/img/a0ceb150/20240304/i1709541506_9660_0.jpg","https://xcimg.szwego.com/img/a0ceb150/20240304/i1709541506_4234_0.jpg","https://xcimg.szwego.com/img/a0ceb150/20240304/i1709541506_2432_0.jpg","https://xcimg.szwego.com/img/a0ceb150/20240304/i1709541507_4013_0.jpg"],"created_at":"2025-02-08T12:47:15.810Z"},{"id":"item-a89165116b6f","sku":"_dbmbmc7Sxa-NeprTITIgENE-85P8xsNEvyG9NXA","name_en":"Celine Women Bags","name_cn":"赛琳小腋下包·黑色\nTilly腋下包\n圆润造型单肩包👛\n延续经典手袋的调性\n容量可以包型硬挺可调节肩带\n\n尺寸:22×13.5×4cm","specs":{"source":"wsxcme","sourceId":"_dbmbmc7Sxa-NeprTITIgENE-85P8xsNEvyG9NXA","sourceTagId":47003106,"sourceTagName":"塞琳/女包","dimensions":{"lengthCm":22,"heightCm":13.5,"widthCm":4},"rawTitle":"赛琳小腋下包·黑色\nTilly腋下包\n圆润造型单肩包👛\n延续经典手袋的调性\n容量可以包型硬挺可调节肩带\n\n尺寸:22×13.5×4cm"},"price":null,"currency":"CNY","moq":1,"category":"celine-women-bags","status":"active","alibaba_url":null,"images":["https://xcimg.szwego.com/img/a0ceb150/20240304/i1709541587_9114_0.jpg","https://xcimg.szwego.com/img/a0ceb150/20240304/i1709541587_8935_0.jpg","https://xcimg.szwego.com/img/a0ceb150/20240304/i1709541588_6950_0.jpg","https://xcimg.szwego.com/img/a0ceb150/20240304/i1709541587_3620_0.jpg","https://xcimg.szwego.com/img/a0ceb150/20240304/i1709541587_9513_0.jpg","https://xcimg.szwego.com/img/a0ceb150/20240304/i1709541587_2599_0.jpg","https://xcimg.szwego.com/img/a0ceb150/20240304/i1709541587_672_0.jpg","https://xcimg.szwego.com/img/a0ceb150/20240304/i1709541588_5374_0.jpg","https://xcimg.szwego.com/img/a0ceb150/20240304/i1709541588_4800_0.jpg"],"created_at":"2025-02-08T12:47:15.809Z"},{"id":"item-5398e9dcfd6f","sku":"_drBrB-n4J86gB-t_iEd5gFNqRcIHr2wZk75zxwQ","name_en":"Celine Women Bags","name_cn":"赛琳小腋下包·老花\nTilly腋下包\n圆润造型单肩包👛\n延续经典手袋的调性\n容量可以包型硬挺可调节肩带\n\n尺寸:22×13.5×4cm","specs":{"source":"wsxcme","sourceId":"_drBrB-n4J86gB-t_iEd5gFNqRcIHr2wZk75zxwQ","sourceTagId":47003106,"sourceTagName":"塞琳/女包","dimensions":{"lengthCm":22,"heightCm":13.5,"widthCm":4},"rawTitle":"赛琳小腋下包·老花\nTilly腋下包\n圆润造型单肩包👛\n延续经典手袋的调性\n容量可以包型硬挺可调节肩带\n\n尺寸:22×13.5×4cm"},"price":null,"currency":"CNY","moq":1,"category":"celine-women-bags","status":"active","alibaba_url":null,"images":["https://xcimg.szwego.com/img/a0ceb150/20240304/i1709541643_3814_0.jpg","https://xcimg.szwego.com/img/a0ceb150/20240304/i1709541642_5135_0.jpg","https://xcimg.szwego.com/img/a0ceb150/20240304/i1709541643_1925_0.jpg","https://xcimg.szwego.com/img/a0ceb150/20240304/i1709541643_7924_0.jpg","https://xcimg.szwego.com/img/a0ceb150/20240304/i1709541643_3181_0.jpg","https://xcimg.szwego.com/img/a0ceb150/20240304/i1709541643_7690_0.jpg","https://xcimg.szwego.com/img/a0ceb150/20240304/i1709541643_2840_0.jpg","https://xcimg.szwego.com/img/a0ceb150/20240304/i1709541642_5892_0.jpg","https://xcimg.szwego.com/img/a0ceb150/20240304/i1709541642_6901_0.jpg"],"created_at":"2025-02-08T12:47:15.808Z"}],"page":173,"pageSize":24,"total":10075,"totalPages":420}
