{"items":[{"id":"item-9a07ced20614","sku":"_duGuG9-QKyQr1MibMl9Mu7R55ZH2zL4BIFzk0WA","name_en":"Bvlgari Women Bags","name_cn":"/women's bag","specs":{"source":"wsxcme","sourceId":"_duGuG9-QKyQr1MibMl9Mu7R55ZH2zL4BIFzk0WA","sourceTagId":47002756,"sourceTagName":"/women's bag","rawTitle":""},"price":null,"currency":"CNY","moq":1,"category":"bvlgari-women-bags","status":"active","alibaba_url":null,"images":["https://xcimg.szwego.com/20230219/i1676789598_3042_0.jpg"],"created_at":"2024-10-07T10:58:53.574Z"},{"id":"item-6fbe4ddd1ebe","sku":"_dfpfpXu7AiD15kLT3HDxqQVMejReSQ0a9MIfmGg","name_en":"Wearing photos","name_cn":"Wearing photos","specs":{"source":"wsxcme","sourceId":"_dfpfpXu7AiD15kLT3HDxqQVMejReSQ0a9MIfmGg","sourceTagId":47002756,"sourceTagName":"/women's bag","rawTitle":"Wearing photos"},"price":null,"currency":"CNY","moq":1,"category":"bvlgari-women-bags","status":"active","alibaba_url":null,"images":["https://xcimg.szwego.com/20230219/i1676789548_7865_0.jpg","https://xcimg.szwego.com/20230219/i1676789548_3612_1.jpg","https://xcimg.szwego.com/20230219/i1676789548_1162_2.jpg","https://xcimg.szwego.com/20230219/i1676789548_3431_3.jpg"],"created_at":"2024-10-07T10:58:53.573Z"},{"id":"item-831763344b81","sku":"_dDMDMYFUOkWg0UNH8BnUVm_haNmLuOhnS95cJZg","name_en":"Detail photo","name_cn":"Detail photo","specs":{"source":"wsxcme","sourceId":"_dDMDMYFUOkWg0UNH8BnUVm_haNmLuOhnS95cJZg","sourceTagId":47002756,"sourceTagName":"/women's bag","rawTitle":"Detail photo"},"price":null,"currency":"CNY","moq":1,"category":"bvlgari-women-bags","status":"active","alibaba_url":null,"images":["https://xcimg.szwego.com/20230219/i1676789509_7262_0.jpg","https://xcimg.szwego.com/20230219/i1676789509_6640_1.jpg","https://xcimg.szwego.com/20230219/i1676789509_370_2.jpg","https://xcimg.szwego.com/20230219/i1676789509_4201_3.jpg","https://xcimg.szwego.com/20230219/i1676789509_9460_4.jpg"],"created_at":"2024-10-07T10:58:53.572Z"},{"id":"item-981094e7def3","sku":"_dYkYkp2P8Rh_KWHZc2kF3Sejs3sUjmkqS8Jse8A","name_en":"Authentic Grade","name_cn":"Authentic Grade\nBVLGARI SERPENTI FOREVER\nModel: 38102 White with Pink\nSize: 22*13*5.5cm\nBest-selling Boutique Series Serpenti Forever Exquisite Crossbody Bag Original Single Quality Imported Calfskin Custom Original Hardware 🔅 Adorned with Serpenti enamel light gold plated snake head buckle Can also be used as an evening bag Exquisite like jewelry 💎 Raincoat, mirror, gift box packaging","specs":{"source":"wsxcme","sourceId":"_dYkYkp2P8Rh_KWHZc2kF3Sejs3sUjmkqS8Jse8A","sourceTagId":47002756,"sourceTagName":"/women's bag","modelNumber":"38102","dimensions":{"lengthCm":22,"heightCm":13,"widthCm":5.5},"rawTitle":"Authentic Grade\nBVLGARI SERPENTI FOREVER\nModel: 38102 White with Pink\nSize: 22*13*5.5cm\nBest-selling Boutique Series Serpenti Forever Exquisite Crossbody Bag Original Single Quality Imported Calfskin Custom Original Hardware 🔅 Adorned with Serpenti enamel light gold plated snake head buckle Can also be used as an evening bag Exquisite like jewelry 💎 Raincoat, mirror, gift box packaging"},"price":null,"currency":"CNY","moq":1,"category":"bvlgari-women-bags","status":"active","alibaba_url":null,"images":["https://xcimg.szwego.com/20230219/i1676789451_7563_0.jpg","https://xcimg.szwego.com/20230219/i1676789451_642_1.jpg","https://xcimg.szwego.com/20230219/i1676789451_1786_2.jpg","https://xcimg.szwego.com/20230219/i1676789451_8289_3.jpg","https://xcimg.szwego.com/20230219/i1676789451_7498_4.jpg","https://xcimg.szwego.com/20230219/i1676789451_2729_5.jpg","https://xcimg.szwego.com/20230219/i1676789451_2154_6.jpg","https://xcimg.szwego.com/20230219/i1676789451_2745_7.jpg","https://xcimg.szwego.com/20230219/i1676789451_8466_8.jpg"],"created_at":"2024-10-07T10:58:53.571Z"},{"id":"item-429fb2d203f0","sku":"_dKcKck2psVCDGiD7YwWAiAU5ThOzGG9yMJVmLBw","name_en":"Bvlgari Women Bags","name_cn":"/women's bag","specs":{"source":"wsxcme","sourceId":"_dKcKck2psVCDGiD7YwWAiAU5ThOzGG9yMJVmLBw","sourceTagId":47002756,"sourceTagName":"/women's bag","rawTitle":""},"price":null,"currency":"CNY","moq":1,"category":"bvlgari-women-bags","status":"active","alibaba_url":null,"images":["https://xcimg.szwego.com/20230219/i1676789361_3768_0.jpg"],"created_at":"2024-10-07T10:58:53.570Z"},{"id":"item-1b42ef09ebb9","sku":"_dmVmVUoGtbBaHgeXPUSVXlajAqWxOUrDNqtyP_g","name_en":"Wearing photos","name_cn":"Wearing photos","specs":{"source":"wsxcme","sourceId":"_dmVmVUoGtbBaHgeXPUSVXlajAqWxOUrDNqtyP_g","sourceTagId":47002756,"sourceTagName":"/women's bag","rawTitle":"Wearing photos"},"price":null,"currency":"CNY","moq":1,"category":"bvlgari-women-bags","status":"active","alibaba_url":null,"images":["https://xcimg.szwego.com/20230219/i1676789320_1674_0.jpg","https://xcimg.szwego.com/20230219/i1676789320_380_1.jpg","https://xcimg.szwego.com/20230219/i1676789320_4963_2.jpg","https://xcimg.szwego.com/20230219/i1676789320_4446_3.jpg"],"created_at":"2024-10-07T10:58:53.569Z"},{"id":"item-62ded42bb503","sku":"_dhThTWvWbF_aGB-gySxoiAgA3eZsvhRNlVmaqVA","name_en":"Detail photo","name_cn":"Detail photo","specs":{"source":"wsxcme","sourceId":"_dhThTWvWbF_aGB-gySxoiAgA3eZsvhRNlVmaqVA","sourceTagId":47002756,"sourceTagName":"/women's bag","rawTitle":"Detail photo"},"price":null,"currency":"CNY","moq":1,"category":"bvlgari-women-bags","status":"active","alibaba_url":null,"images":["https://xcimg.szwego.com/20230219/i1676789274_6332_0.jpg","https://xcimg.szwego.com/20230219/i1676789274_4185_1.jpg","https://xcimg.szwego.com/20230219/i1676789274_7979_2.jpg","https://xcimg.szwego.com/20230219/i1676789274_8748_3.jpg","https://xcimg.szwego.com/20230219/i1676789274_4996_4.jpg","https://xcimg.szwego.com/20230219/i1676789274_2818_5.jpg"],"created_at":"2024-10-07T10:58:53.568Z"},{"id":"item-5da32f771b7a","sku":"_dStStN3cfwpTeNEjJD9cOs-WLNT3cZaqfj5U4Tw","name_en":"Authentic Grade","name_cn":"Authentic Grade\nBVLGARI SERPENTI FOREVER\nModel: 38102 Big Red with Burgundy\nSize: 22*13*5.5cm\nBest-selling Boutique Series Serpenti Forever Exquisite Crossbody Bag Original Single Quality Imported Calfskin Custom Original Hardware 🔅 Adorned with Serpenti enamel light gold plated snake head buckle Can also be used as an evening bag Exquisite like jewelry 💎 Raincoat, mirror, gift box packaging,","specs":{"source":"wsxcme","sourceId":"_dStStN3cfwpTeNEjJD9cOs-WLNT3cZaqfj5U4Tw","sourceTagId":47002756,"sourceTagName":"/women's bag","modelNumber":"38102","dimensions":{"lengthCm":22,"heightCm":13,"widthCm":5.5},"rawTitle":"Authentic Grade\nBVLGARI SERPENTI FOREVER\nModel: 38102 Big Red with Burgundy\nSize: 22*13*5.5cm\nBest-selling Boutique Series Serpenti Forever Exquisite Crossbody Bag Original Single Quality Imported Calfskin Custom Original Hardware 🔅 Adorned with Serpenti enamel light gold plated snake head buckle Can also be used as an evening bag Exquisite like jewelry 💎 Raincoat, mirror, gift box packaging,"},"price":null,"currency":"CNY","moq":1,"category":"bvlgari-women-bags","status":"active","alibaba_url":null,"images":["https://xcimg.szwego.com/20230219/i1676789219_1288_0.jpg","https://xcimg.szwego.com/20230219/i1676789219_5140_1.jpg","https://xcimg.szwego.com/20230219/i1676789219_2299_2.jpg","https://xcimg.szwego.com/20230219/i1676789219_4141_3.jpg","https://xcimg.szwego.com/20230219/i1676789219_5325_4.jpg","https://xcimg.szwego.com/20230219/i1676789219_3262_5.jpg","https://xcimg.szwego.com/20230219/i1676789219_7745_6.jpg","https://xcimg.szwego.com/20230219/i1676789219_9220_7.jpg","https://xcimg.szwego.com/20230219/i1676789219_1069_8.jpg"],"created_at":"2024-10-07T10:58:53.567Z"},{"id":"item-4743e4aa7848","sku":"_dkQkQ5tqxb3zaJSLO13Yl6hCilT8ClsYxvJXxJg","name_en":"Bvlgari Women Bags","name_cn":"/women's bag","specs":{"source":"wsxcme","sourceId":"_dkQkQ5tqxb3zaJSLO13Yl6hCilT8ClsYxvJXxJg","sourceTagId":47002756,"sourceTagName":"/women's bag","rawTitle":""},"price":null,"currency":"CNY","moq":1,"category":"bvlgari-women-bags","status":"active","alibaba_url":null,"images":["https://xcimg.szwego.com/20230219/i1676789178_4414_0.jpg"],"created_at":"2024-10-07T10:58:53.566Z"},{"id":"item-5bc721f1ace9","sku":"_dr8r8TF1-dWpNDaNuMY-7U9fMPkA1Qdm2VCPlWA","name_en":"Wearing photos","name_cn":"Wearing photos","specs":{"source":"wsxcme","sourceId":"_dr8r8TF1-dWpNDaNuMY-7U9fMPkA1Qdm2VCPlWA","sourceTagId":47002756,"sourceTagName":"/women's bag","rawTitle":"Wearing photos"},"price":null,"currency":"CNY","moq":1,"category":"bvlgari-women-bags","status":"active","alibaba_url":null,"images":["https://xcimg.szwego.com/20230219/i1676789144_4297_0.jpg","https://xcimg.szwego.com/20230219/i1676789144_882_1.jpg","https://xcimg.szwego.com/20230219/i1676789144_8191_2.jpg","https://xcimg.szwego.com/20230219/i1676789144_6966_3.jpg"],"created_at":"2024-10-07T10:58:53.565Z"},{"id":"item-9db3827ee15b","sku":"_djxjxlYqqGaAU-I0zsicj3CBBrYSBtobPrifNRw","name_en":"More details","name_cn":"More details","specs":{"source":"wsxcme","sourceId":"_djxjxlYqqGaAU-I0zsicj3CBBrYSBtobPrifNRw","sourceTagId":47002756,"sourceTagName":"/women's bag","rawTitle":"More details"},"price":null,"currency":"CNY","moq":1,"category":"bvlgari-women-bags","status":"active","alibaba_url":null,"images":["https://xcimg.szwego.com/20230219/i1676789115_9618_0.jpg","https://xcimg.szwego.com/20230219/i1676789115_3456_1.jpg","https://xcimg.szwego.com/20230219/i1676789115_925_2.jpg","https://xcimg.szwego.com/20230219/i1676789115_7293_3.jpg","https://xcimg.szwego.com/20230219/i1676789115_6032_4.jpg","https://xcimg.szwego.com/20230219/i1676789115_4202_5.jpg"],"created_at":"2024-10-07T10:58:53.564Z"},{"id":"item-df88b1c72df8","sku":"_dcecenYr_yCHSOFB5JtUB5j8FaNN0j3NGiwVQyQ","name_en":"Counterfeit grade","name_cn":"Counterfeit grade\nBVLGARI SERPENTI FOREVER\nModel: 38102 Orange with Burgundy\nSize: 22*13*5.5cm\nBest-selling Serpenti Forever series exquisite crossbody bag, original single quality, imported calfskin, custom original single hardware 🔅 decorated with serpenti enamel light gold-plated snake head buckle, also suitable for evening wear, exquisite like jewelry 💎\"Raincoat, mirror, gift box packaging,","specs":{"source":"wsxcme","sourceId":"_dcecenYr_yCHSOFB5JtUB5j8FaNN0j3NGiwVQyQ","sourceTagId":47002756,"sourceTagName":"/women's bag","modelNumber":"38102","dimensions":{"lengthCm":22,"heightCm":13,"widthCm":5.5},"rawTitle":"Counterfeit grade\nBVLGARI SERPENTI FOREVER\nModel: 38102 Orange with Burgundy\nSize: 22*13*5.5cm\nBest-selling Serpenti Forever series exquisite crossbody bag, original single quality, imported calfskin, custom original single hardware 🔅 decorated with serpenti enamel light gold-plated snake head buckle, also suitable for evening wear, exquisite like jewelry 💎\"Raincoat, mirror, gift box packaging,"},"price":null,"currency":"CNY","moq":1,"category":"bvlgari-women-bags","status":"active","alibaba_url":null,"images":["https://xcimg.szwego.com/20230219/i1676789064_1831_0.jpg","https://xcimg.szwego.com/20230219/i1676789064_3383_1.jpg","https://xcimg.szwego.com/20230219/i1676789064_9541_2.jpg","https://xcimg.szwego.com/20230219/i1676789064_8381_3.jpg","https://xcimg.szwego.com/20230219/i1676789064_1605_4.jpg","https://xcimg.szwego.com/20230219/i1676789064_321_5.jpg","https://xcimg.szwego.com/20230219/i1676789064_5109_6.jpg","https://xcimg.szwego.com/20230219/i1676789064_5741_7.jpg","https://xcimg.szwego.com/20230219/i1676789064_3550_8.jpg"],"created_at":"2024-10-07T10:58:53.563Z"},{"id":"item-68145b026071","sku":"_dsRsR7IrSp6EqbyJmuRnuxMGIG-FdIKLRYXXidg","name_en":"Cecilia Cheung's new summer style~","name_cn":"Cecilia Cheung's new summer style~","specs":{"source":"wsxcme","sourceId":"_dsRsR7IrSp6EqbyJmuRnuxMGIG-FdIKLRYXXidg","sourceTagId":47002756,"sourceTagName":"/women's bag","rawTitle":"Cecilia Cheung's new summer style~"},"price":null,"currency":"CNY","moq":1,"category":"bvlgari-women-bags","status":"active","alibaba_url":null,"images":["https://xcimg.szwego.com/20230329/i1680069450_9618_0.jpg","https://xcimg.szwego.com/20230329/i1680069450_3396_1.jpg","https://xcimg.szwego.com/20230329/i1680069450_7268_2.jpg"],"created_at":"2024-10-07T10:58:53.562Z"},{"id":"item-d6c7d696c424","sku":"_dO1O1rtn1QJPhCrJUdaOKfu3Tc5kdp3USmtDJdw","name_en":"Full of beauty, hard to resist [Heart]","name_cn":"Full of beauty, hard to resist [Heart]\n19cm double-layer in stock, ships immediately","specs":{"source":"wsxcme","sourceId":"_dO1O1rtn1QJPhCrJUdaOKfu3Tc5kdp3USmtDJdw","sourceTagId":47002756,"sourceTagName":"/women's bag","rawTitle":"Full of beauty, hard to resist [Heart]\n19cm double-layer in stock, ships immediately"},"price":null,"currency":"CNY","moq":1,"category":"bvlgari-women-bags","status":"active","alibaba_url":null,"images":["https://xcimg.szwego.com/20230418/i1681811745_5394_0.jpg"],"created_at":"2024-10-07T10:58:53.561Z"},{"id":"item-7427625aa016","sku":"_dLBLBh62z45LAn9nOBUOkXgWqHROQydz7ZPrshQ","name_en":"3 ways to carry, switch freely","name_cn":"3 ways to carry, switch freely","specs":{"source":"wsxcme","sourceId":"_dLBLBh62z45LAn9nOBUOkXgWqHROQydz7ZPrshQ","sourceTagId":47002756,"sourceTagName":"/women's bag","rawTitle":"3 ways to carry, switch freely"},"price":null,"currency":"CNY","moq":1,"category":"bvlgari-women-bags","status":"active","alibaba_url":null,"images":["https://xcimg.szwego.com/20221220/i1671550462_2261_0.jpg"],"created_at":"2024-10-07T10:58:53.560Z"},{"id":"item-d7fdcb5cdeca","sku":"_dkukuqYx19iVFV3wuOG1XkXDF0JV-QZVDWmskaQ","name_en":"Elegant yet casual, beautiful and free-spirited, perfectly combined","name_cn":"Elegant yet casual, beautiful and free-spirited, perfectly combined","specs":{"source":"wsxcme","sourceId":"_dkukuqYx19iVFV3wuOG1XkXDF0JV-QZVDWmskaQ","sourceTagId":47002756,"sourceTagName":"/women's bag","rawTitle":"Elegant yet casual, beautiful and free-spirited, perfectly combined"},"price":null,"currency":"CNY","moq":1,"category":"bvlgari-women-bags","status":"active","alibaba_url":null,"images":["https://xcimg.szwego.com/20221220/i1671550118_1365_0.jpg","https://xcimg.szwego.com/20221220/i1671550118_7283_1.jpg","https://xcimg.szwego.com/20221220/i1671550118_4008_2.jpg","https://xcimg.szwego.com/20221220/i1671550118_9724_3.jpg"],"created_at":"2024-10-07T10:58:53.559Z"},{"id":"item-34ade1bb9366","sku":"_dwKwKZqH2UxaaQG5E6E0fJMlKLpBfJT4MrTX66w","name_en":"Premium Hardware Original Leather ~ Imported Calfskin Charm","name_cn":"Premium Hardware Original Leather ~ Imported Calfskin Charm\nThis charm adds a unique touch to other accessories. It features a embossed logo, adding a signature element.\n- Strap closure\n- Zipper closure\n- Embossed letter logo\n- Lined\nSize: w11×h7×d4cm\nNo.: 5NR036 _ 020 _ MM030","specs":{"source":"wsxcme","sourceId":"_dwKwKZqH2UxaaQG5E6E0fJMlKLpBfJT4MrTX66w","sourceTagId":68075769,"sourceTagName":"Miu Miu /women's bag","rawTitle":"Premium Hardware Original Leather ~ Imported Calfskin Charm\nThis charm adds a unique touch to other accessories. It features a embossed logo, adding a signature element.\n- Strap closure\n- Zipper closure\n- Embossed letter logo\n- Lined\nSize: w11×h7×d4cm\nNo.: 5NR036 _ 020 _ MM030"},"price":null,"currency":"CNY","moq":1,"category":"miu-miu-women-bags","status":"active","alibaba_url":null,"images":["https://xcimg.szwego.com/img/c4e87dad/20240922/i1726976857_5309_1.jpg","https://xcimg.szwego.com/img/c4e87dad/20240922/i1726976857_302_2.jpg","https://xcimg.szwego.com/img/c4e87dad/20240922/i1726976857_7301_4.jpg","https://xcimg.szwego.com/img/c4e87dad/20240922/i1726976857_7156_5.jpg","https://xcimg.szwego.com/img/c4e87dad/20240922/i1726976857_8486_0.jpg","https://xcimg.szwego.com/img/c4e87dad/20240922/i1726976857_5385_3.jpg"],"created_at":"2024-09-27T07:07:24.234Z"},{"id":"item-d092d4128bac","sku":"_dn1n1-wuvcZ8Os_FegqDderBQ4rqhkJ2vXL6skQ","name_en":"Original Leather","name_cn":"Original Leather\nPremium Hardware Original Leather ~ Pumpkin Imported Calfskin Charm\nThis charm adds a unique touch to other accessories. It features a embossed logo, adding a signature element.\n- Strap closure\n- Zipper closure\n- Embossed letter logo\n- Lined\nSize: w11×h7×d4cm (Pomegranate Orange)\nNo.: 5NR036 _ 020 _ MM030","specs":{"source":"wsxcme","sourceId":"_dn1n1-wuvcZ8Os_FegqDderBQ4rqhkJ2vXL6skQ","sourceTagId":68075769,"sourceTagName":"Miu Miu /women's bag","rawTitle":"Original Leather\nPremium Hardware Original Leather ~ Pumpkin Imported Calfskin Charm\nThis charm adds a unique touch to other accessories. It features a embossed logo, adding a signature element.\n- Strap closure\n- Zipper closure\n- Embossed letter logo\n- Lined\nSize: w11×h7×d4cm (Pomegranate Orange)\nNo.: 5NR036 _ 020 _ MM030"},"price":null,"currency":"CNY","moq":1,"category":"miu-miu-women-bags","status":"active","alibaba_url":null,"images":["https://xcimg.szwego.com/img/c4e87dad/20240922/i1726976383_9457_6.jpg","https://xcimg.szwego.com/img/c4e87dad/20240922/i1726976383_5936_7.jpg","https://xcimg.szwego.com/img/c4e87dad/20240922/i1726976383_7355_5.jpg","https://xcimg.szwego.com/img/c4e87dad/20240922/i1726976383_1429_3.jpg","https://xcimg.szwego.com/img/c4e87dad/20240922/i1726976383_4760_4.jpg","https://xcimg.szwego.com/img/c4e87dad/20240922/i1726976383_8966_8.jpg","https://xcimg.szwego.com/img/c4e87dad/20240922/i1726976383_9737_2.jpg","https://xcimg.szwego.com/img/c4e87dad/20240922/i1726976383_9253_1.jpg","https://xcimg.szwego.com/img/c4e87dad/20240922/i1726976383_8785_0.jpg"],"created_at":"2024-09-27T07:07:24.233Z"},{"id":"item-520480b9dc65","sku":"_d0j0jmz2jAhvKMbcXwJ1AsiIhHeZvXxxi-JNAsQ","name_en":"Original Leather","name_cn":"Original Leather\nPremium Hardware Original Leather ~ Red Imported Calfskin Charm\nThis charm adds a unique touch to other accessories. It features a embossed logo, adding a signature element.\n- Strap closure\n- Zipper closure\n- Embossed letter logo\n- Lined\nSize: w11×h7×d4cm\nNo.: 5NR036 _ 020 _ MM030","specs":{"source":"wsxcme","sourceId":"_d0j0jmz2jAhvKMbcXwJ1AsiIhHeZvXxxi-JNAsQ","sourceTagId":68075769,"sourceTagName":"Miu Miu /women's bag","rawTitle":"Original Leather\nPremium Hardware Original Leather ~ Red Imported Calfskin Charm\nThis charm adds a unique touch to other accessories. It features a embossed logo, adding a signature element.\n- Strap closure\n- Zipper closure\n- Embossed letter logo\n- Lined\nSize: w11×h7×d4cm\nNo.: 5NR036 _ 020 _ MM030"},"price":null,"currency":"CNY","moq":1,"category":"miu-miu-women-bags","status":"active","alibaba_url":null,"images":["https://xcimg.szwego.com/img/c4e87dad/20240922/i1726976077_4280_1.jpg","https://xcimg.szwego.com/img/c4e87dad/20240922/i1726976077_9654_5.jpg","https://xcimg.szwego.com/img/c4e87dad/20240922/i1726976077_3678_7.jpg","https://xcimg.szwego.com/img/c4e87dad/20240922/i1726976077_8140_4.jpg","https://xcimg.szwego.com/img/c4e87dad/20240922/i1726976077_9548_3.jpg","https://xcimg.szwego.com/img/c4e87dad/20240922/i1726976077_9368_6.jpg","https://xcimg.szwego.com/img/c4e87dad/20240922/i1726976077_354_2.jpg","https://xcimg.szwego.com/img/c4e87dad/20240922/i1726976077_1975_0.jpg","https://xcimg.szwego.com/img/c4e87dad/20240922/i1726976077_499_8.jpg"],"created_at":"2024-09-27T07:07:24.232Z"},{"id":"item-a3f5f89f862c","sku":"_dIEIEUWh6ddMJJI3hlbtejoJ3O-V-DODz5R8u0g","name_en":"Original Leather","name_cn":"Original Leather\nPremium Hardware Original Leather\n~ Ebony Imported Calfskin Charm\nThis charm adds a unique touch to other accessories. It features a embossed logo, adding a signature element.\n- Strap closure\n- Zipper closure\n- Embossed letter logo\n- Lined\nSize: w11×h7×d4cm\nNo.: 5NR036 _ 020 _ MM030","specs":{"source":"wsxcme","sourceId":"_dIEIEUWh6ddMJJI3hlbtejoJ3O-V-DODz5R8u0g","sourceTagId":68075769,"sourceTagName":"Miu Miu /women's bag","rawTitle":"Original Leather\nPremium Hardware Original Leather\n~ Ebony Imported Calfskin Charm\nThis charm adds a unique touch to other accessories. It features a embossed logo, adding a signature element.\n- Strap closure\n- Zipper closure\n- Embossed letter logo\n- Lined\nSize: w11×h7×d4cm\nNo.: 5NR036 _ 020 _ MM030"},"price":null,"currency":"CNY","moq":1,"category":"miu-miu-women-bags","status":"active","alibaba_url":null,"images":["https://xcimg.szwego.com/img/c4e87dad/20240922/i1726975893_8343_5.jpg","https://xcimg.szwego.com/img/c4e87dad/20240922/i1726975893_7723_7.jpg","https://xcimg.szwego.com/img/c4e87dad/20240922/i1726975893_4307_8.jpg","https://xcimg.szwego.com/img/c4e87dad/20240922/i1726975893_5469_3.jpg","https://xcimg.szwego.com/img/c4e87dad/20240922/i1726975893_8017_2.jpg","https://xcimg.szwego.com/img/c4e87dad/20240922/i1726975893_2438_6.jpg","https://xcimg.szwego.com/img/c4e87dad/20240922/i1726975893_1672_1.jpg","https://xcimg.szwego.com/img/c4e87dad/20240922/i1726975893_5258_4.jpg","https://xcimg.szwego.com/img/c4e87dad/20240922/i1726975893_3777_0.jpg"],"created_at":"2024-09-27T07:07:24.231Z"},{"id":"item-6efc4abe181a","sku":"_dnlnlpDU-4LKOCTV8Obj5YifGAlUachph6lJ_uQ","name_en":"Original Leather","name_cn":"Original Leather\nPremium Hardware Original Leather\n~ Brown Imported Calfskin Charm\nThis charm adds a unique touch to other accessories. It features a embossed logo, adding a signature element.\n- Strap closure\n- Zipper closure\n- Embossed letter logo\n- Lined\nSize: w11×h7×d4cm\nNo.: 5NR036 _ 020 _ MM030","specs":{"source":"wsxcme","sourceId":"_dnlnlpDU-4LKOCTV8Obj5YifGAlUachph6lJ_uQ","sourceTagId":68075769,"sourceTagName":"Miu Miu /women's bag","rawTitle":"Original Leather\nPremium Hardware Original Leather\n~ Brown Imported Calfskin Charm\nThis charm adds a unique touch to other accessories. It features a embossed logo, adding a signature element.\n- Strap closure\n- Zipper closure\n- Embossed letter logo\n- Lined\nSize: w11×h7×d4cm\nNo.: 5NR036 _ 020 _ MM030"},"price":null,"currency":"CNY","moq":1,"category":"miu-miu-women-bags","status":"active","alibaba_url":null,"images":["https://xcimg.szwego.com/img/c4e87dad/20240922/i1726975733_1745_7.jpg","https://xcimg.szwego.com/img/c4e87dad/20240922/i1726975733_6920_5.jpg","https://xcimg.szwego.com/img/c4e87dad/20240922/i1726975733_6254_0.jpg","https://xcimg.szwego.com/img/c4e87dad/20240922/i1726975733_7466_4.jpg","https://xcimg.szwego.com/img/c4e87dad/20240922/i1726975733_8198_2.jpg","https://xcimg.szwego.com/img/c4e87dad/20240922/i1726975733_3732_3.jpg","https://xcimg.szwego.com/img/c4e87dad/20240922/i1726975733_1813_6.jpg","https://xcimg.szwego.com/img/c4e87dad/20240922/i1726975733_5825_1.jpg","https://xcimg.szwego.com/img/c4e87dad/20240922/i1726975733_3392_8.jpg"],"created_at":"2024-09-27T07:07:24.230Z"},{"id":"item-843ba959e480","sku":"_dbTbTZSenEqqti7y_fnDgpOD0bST8AJ5eoPeHKA","name_en":"Genuine Leather","name_cn":"Genuine Leather\n[Premium Hardware Genuine Leather]~Orange Imported Cowhide Charm\nThis charm can accessorize other items with a unique style. Embellished with a embossed logo, adding a signature element.\n- Tie closure\n- Zipper closure\n- Embossed letter logo\n- Lined\nSize: w11×h7×d4cm\nNo.: 5NR036 _ 020 _ MM030","specs":{"source":"wsxcme","sourceId":"_dbTbTZSenEqqti7y_fnDgpOD0bST8AJ5eoPeHKA","sourceTagId":68075769,"sourceTagName":"Miu Miu /women's bag","rawTitle":"Genuine Leather\n[Premium Hardware Genuine Leather]~Orange Imported Cowhide Charm\nThis charm can accessorize other items with a unique style. Embellished with a embossed logo, adding a signature element.\n- Tie closure\n- Zipper closure\n- Embossed letter logo\n- Lined\nSize: w11×h7×d4cm\nNo.: 5NR036 _ 020 _ MM030"},"price":null,"currency":"CNY","moq":1,"category":"miu-miu-women-bags","status":"active","alibaba_url":null,"images":["https://xcimg.szwego.com/img/c4e87dad/20240922/i1726975615_2576_8.jpg","https://xcimg.szwego.com/img/c4e87dad/20240922/i1726975615_8832_2.jpg","https://xcimg.szwego.com/img/c4e87dad/20240922/i1726975615_6552_5.jpg","https://xcimg.szwego.com/img/c4e87dad/20240922/i1726975615_6772_6.jpg","https://xcimg.szwego.com/img/c4e87dad/20240922/i1726975615_1458_7.jpg","https://xcimg.szwego.com/img/c4e87dad/20240922/i1726975615_7310_4.jpg","https://xcimg.szwego.com/img/c4e87dad/20240922/i1726975615_9560_0.jpg","https://xcimg.szwego.com/img/c4e87dad/20240922/i1726975615_142_3.jpg","https://xcimg.szwego.com/img/c4e87dad/20240922/i1726975615_7130_1.jpg"],"created_at":"2024-09-27T07:07:24.229Z"},{"id":"item-0a8a60fa81ef","sku":"_dgtgt5GVWiEk7afhRpOAVgTAwcsmpiuJWALmcLw","name_en":"Genuine Leather","name_cn":"Genuine Leather\n[Premium Hardware Genuine Leather]~Black Imported Cowhide Charm\nThis charm can accessorize other items with a unique style. Embellished with a embossed logo, adding a signature element.\n- Tie closure\n- Zipper closure\n- Embossed letter logo\n- Lined\nSize: w11×h7×d4cm\nNo.: 5NR036 _ 020 _ MM030","specs":{"source":"wsxcme","sourceId":"_dgtgt5GVWiEk7afhRpOAVgTAwcsmpiuJWALmcLw","sourceTagId":68075769,"sourceTagName":"Miu Miu /women's bag","rawTitle":"Genuine Leather\n[Premium Hardware Genuine Leather]~Black Imported Cowhide Charm\nThis charm can accessorize other items with a unique style. Embellished with a embossed logo, adding a signature element.\n- Tie closure\n- Zipper closure\n- Embossed letter logo\n- Lined\nSize: w11×h7×d4cm\nNo.: 5NR036 _ 020 _ MM030"},"price":null,"currency":"CNY","moq":1,"category":"miu-miu-women-bags","status":"active","alibaba_url":null,"images":["https://xcimg.szwego.com/img/c4e87dad/20240922/i1726974903_1791_4.jpg","https://xcimg.szwego.com/img/c4e87dad/20240922/i1726974903_5060_3.jpg","https://xcimg.szwego.com/img/c4e87dad/20240922/i1726974903_3376_1.jpg","https://xcimg.szwego.com/img/c4e87dad/20240922/i1726974903_4148_7.jpg","https://xcimg.szwego.com/img/c4e87dad/20240922/i1726974903_1507_0.jpg","https://xcimg.szwego.com/img/c4e87dad/20240922/i1726974903_4576_8.jpg","https://xcimg.szwego.com/img/c4e87dad/20240922/i1726974903_7598_2.jpg","https://xcimg.szwego.com/img/c4e87dad/20240922/i1726974903_7734_6.jpg","https://xcimg.szwego.com/img/c4e87dad/20240922/i1726974903_6826_5.jpg"],"created_at":"2024-09-27T07:07:24.228Z"},{"id":"item-8d4b1109e288","sku":"_drXrXeLAP_LjgZ8nU4CV0bhXC2AHmIhIS-Fbw4w","name_en":"5BC125 Teak","name_cn":"5BC125 Teak","specs":{"source":"wsxcme","sourceId":"_drXrXeLAP_LjgZ8nU4CV0bhXC2AHmIhIS-Fbw4w","sourceTagId":68075769,"sourceTagName":"Miu Miu /women's bag","rawTitle":"5BC125 Teak"},"price":null,"currency":"CNY","moq":1,"category":"miu-miu-women-bags","status":"active","alibaba_url":null,"images":["https://xcimg.szwego.com/20240824/i1724487132_1201_3.jpg","https://xcimg.szwego.com/20240824/i1724487132_7977_0.jpg","https://xcimg.szwego.com/20240824/i1724487132_7731_1.jpg","https://xcimg.szwego.com/20240824/i1724487132_7865_2.jpg"],"created_at":"2024-09-27T07:07:24.227Z"}],"page":357,"pageSize":24,"total":9921,"totalPages":414}
