{"items":[{"id":"item-35b115535209","sku":"_d33339UU6t5Wl_boCpSeDLxLb1I2h7KpFb35Ycg","name_en":"以希腊神话人物海上女神命名的calypso","name_cn":"以希腊神话人物海上女神命名的calypso\n自带高级气场","specs":{"source":"wsxcme","sourceId":"_d33339UU6t5Wl_boCpSeDLxLb1I2h7KpFb35Ycg","sourceTagId":47002761,"sourceTagName":"圣罗兰/女包","rawTitle":"以希腊神话人物海上女神命名的calypso\n自带高级气场"},"price":null,"currency":"CNY","moq":1,"category":"ysl-women-bags","status":"active","alibaba_url":null,"images":["https://xcimg.szwego.com/imgHD/f8c0bdc9/20250712/cmp_i1752302981523_1492_0_0.jpg","https://xcimg.szwego.com/imgHD/f8c0bdc9/20250712/cmp_i1752302981506_6765_0_1.jpg","https://xcimg.szwego.com/imgHD/f8c0bdc9/20250712/cmp_i1752302981500_7694_0_2.jpg","https://xcimg.szwego.com/imgHD/f8c0bdc9/20250712/cmp_i1752302981535_1879_0_3.jpg","https://xcimg.szwego.com/imgHD/f8c0bdc9/20250712/cmp_i1752302981512_9150_0_4.jpg"],"created_at":"2026-05-20T04:01:38.993Z"},{"id":"item-16084b210447","sku":"_d1p1pS20QTQhJJN2gU33GKrvrtFISPQ_djGUEig","name_en":"细节po","name_cn":"细节po","specs":{"source":"wsxcme","sourceId":"_d1p1pS20QTQhJJN2gU33GKrvrtFISPQ_djGUEig","sourceTagId":47002761,"sourceTagName":"圣罗兰/女包","rawTitle":"细节po"},"price":null,"currency":"CNY","moq":1,"category":"ysl-women-bags","status":"active","alibaba_url":null,"images":["https://xcimg.szwego.com/imgHD/f8c0bdc9/20250712/cmp_i1752302911007_5231_0_0.jpg","https://xcimg.szwego.com/imgHD/f8c0bdc9/20250712/cmp_i1752302911306_7683_0_1.jpg","https://xcimg.szwego.com/imgHD/f8c0bdc9/20250712/cmp_i1752302912538_3131_0_2.jpg","https://xcimg.szwego.com/imgHD/f8c0bdc9/20250712/cmp_i1752302910838_1352_0_3.jpg","https://xcimg.szwego.com/imgHD/f8c0bdc9/20250712/cmp_i1752302913179_4301_0_4.jpg","https://xcimg.szwego.com/imgHD/f8c0bdc9/20250712/cmp_i1752302913237_8685_0_5.jpg","https://xcimg.szwego.com/imgHD/f8c0bdc9/20250712/cmp_i1752302912747_3971_0_6.jpg","https://xcimg.szwego.com/imgHD/f8c0bdc9/20250712/cmp_i1752302910885_6717_0_7.jpg","https://xcimg.szwego.com/imgHD/f8c0bdc9/20250712/cmp_i1752302910862_7112_0_8.jpg"],"created_at":"2026-05-20T04:01:38.983Z"},{"id":"item-deb00d3ab83e","sku":"_dznznNdmOL4WRQFaRuapMjLU0v4_i6RLp7NXxIw","name_en":"Saint Laurent Women Bags","name_cn":"麂皮款·\nCALYPSO_麂皮链条包\n进口意大利麂皮制作,手感柔软细腻,经典的Y家logo、链条及扣眼五金均采用巴金哑光五金,包袋开口处折叠后使用了磁性四合扣封口,密闭性及安全性一流;包内设有一个拉链内袋可放置手机及贵重物品,除此之外无多余内袋设计,使用起来随心所欲!\n尺寸:38×21×10cm\n型号:777399","specs":{"source":"wsxcme","sourceId":"_dznznNdmOL4WRQFaRuapMjLU0v4_i6RLp7NXxIw","sourceTagId":47002761,"sourceTagName":"圣罗兰/女包","modelNumber":"777399","dimensions":{"lengthCm":38,"heightCm":21,"widthCm":10},"rawTitle":"麂皮款·\nCALYPSO_麂皮链条包\n进口意大利麂皮制作,手感柔软细腻,经典的Y家logo、链条及扣眼五金均采用巴金哑光五金,包袋开口处折叠后使用了磁性四合扣封口,密闭性及安全性一流;包内设有一个拉链内袋可放置手机及贵重物品,除此之外无多余内袋设计,使用起来随心所欲!\n尺寸:38×21×10cm\n型号:777399"},"price":null,"currency":"CNY","moq":1,"category":"ysl-women-bags","status":"active","alibaba_url":null,"images":["https://xcimg.szwego.com/imgHD/f8c0bdc9/20250712/cmp_i1752302825964_2238_0_0.jpg","https://xcimg.szwego.com/imgHD/f8c0bdc9/20250712/cmp_i1752302822936_1520_0_1.jpg","https://xcimg.szwego.com/imgHD/f8c0bdc9/20250712/cmp_i1752302822956_751_0_2.jpg","https://xcimg.szwego.com/imgHD/f8c0bdc9/20250712/cmp_i1752302826040_9265_0_3.jpg","https://xcimg.szwego.com/imgHD/f8c0bdc9/20250712/cmp_i1752302823288_837_0_4.jpg","https://xcimg.szwego.com/imgHD/f8c0bdc9/20250712/cmp_i1752302826202_5346_0_5.jpg","https://xcimg.szwego.com/imgHD/f8c0bdc9/20250712/cmp_i1752302823327_172_0_6.jpg","https://xcimg.szwego.com/imgHD/f8c0bdc9/20250712/cmp_i1752302826610_9466_0_7.jpg","https://xcimg.szwego.com/imgHD/f8c0bdc9/20250712/cmp_i1752302822902_4565_0_8.jpg"],"created_at":"2026-05-20T04:01:38.973Z"},{"id":"item-a877272d61fd","sku":"_dzzzzQQEj2je-HnMBm861HAe3S8Cw7bo0xzT-AA","name_en":"Saint Laurent Women Bags","name_cn":"随拍上身参考_","specs":{"source":"wsxcme","sourceId":"_dzzzzQQEj2je-HnMBm861HAe3S8Cw7bo0xzT-AA","sourceTagId":47002761,"sourceTagName":"圣罗兰/女包","rawTitle":"随拍上身参考_"},"price":null,"currency":"CNY","moq":1,"category":"ysl-women-bags","status":"active","alibaba_url":null,"images":["https://xcimg.szwego.com/img/f8c0bdc9/20231225/i1703504880_4939_0.jpg","https://xcimg.szwego.com/img/f8c0bdc9/20231225/i1703504880_2965_1.jpg","https://xcimg.szwego.com/img/f8c0bdc9/20231225/i1703504880_4591_2.jpg","https://xcimg.szwego.com/img/f8c0bdc9/20231225/i1703504880_9478_3.jpg","https://xcimg.szwego.com/img/f8c0bdc9/20231225/i1703504880_5354_4.jpg","https://xcimg.szwego.com/img/f8c0bdc9/20231225/i1703504880_8329_5.jpg","https://xcimg.szwego.com/img/f8c0bdc9/20231225/i1703504880_4253_6.jpg"],"created_at":"2026-05-20T04:01:38.963Z"},{"id":"item-7982cc835af3","sku":"_dtdtdh2jm5BTBVVB8gdZn5YDoru0OuMHekQIYNA","name_en":"细节po","name_cn":"细节po","specs":{"source":"wsxcme","sourceId":"_dtdtdh2jm5BTBVVB8gdZn5YDoru0OuMHekQIYNA","sourceTagId":47002761,"sourceTagName":"圣罗兰/女包","rawTitle":"细节po"},"price":null,"currency":"CNY","moq":1,"category":"ysl-women-bags","status":"active","alibaba_url":null,"images":["https://xcimg.szwego.com/img/f8c0bdc9/20231225/i1703504866_1687_0.jpg","https://xcimg.szwego.com/img/f8c0bdc9/20231225/i1703504866_1096_1.jpg","https://xcimg.szwego.com/img/f8c0bdc9/20231225/i1703504866_9253_2.jpg","https://xcimg.szwego.com/img/f8c0bdc9/20231225/i1703504866_2613_3.jpg","https://xcimg.szwego.com/img/f8c0bdc9/20231225/i1703504866_4846_4.jpg","https://xcimg.szwego.com/img/f8c0bdc9/20231225/i1703504866_4819_5.jpg","https://xcimg.szwego.com/img/f8c0bdc9/20231225/i1703504866_2767_6.jpg","https://xcimg.szwego.com/img/f8c0bdc9/20231225/i1703504866_3253_7.jpg"],"created_at":"2026-05-20T04:01:38.953Z"},{"id":"item-8f2afe2ae1a3","sku":"_d2f2f3UNRJsHQxrup-TiAK4Zg75G2K_lvkrCETA","name_en":"CALYPSO_大象纹羊皮链条包","name_cn":"CALYPSO_大象纹羊皮链条包\n进口意大利小羊皮制作,手感柔软细腻,经典的Y家logo、链条及扣眼五金均采用巴金哑光五金,包袋开口处折叠后使用了磁性四合扣封口,密闭性及安全性一流;包内设有一个拉链内袋可放置手机及贵重物品,除此之外无多余内袋设计,使用起来随心所欲!\n尺寸:35.5×21×9cm\n型号:777399","specs":{"source":"wsxcme","sourceId":"_d2f2f3UNRJsHQxrup-TiAK4Zg75G2K_lvkrCETA","sourceTagId":47002761,"sourceTagName":"圣罗兰/女包","modelNumber":"777399","dimensions":{"lengthCm":35.5,"heightCm":21,"widthCm":9},"rawTitle":"CALYPSO_大象纹羊皮链条包\n进口意大利小羊皮制作,手感柔软细腻,经典的Y家logo、链条及扣眼五金均采用巴金哑光五金,包袋开口处折叠后使用了磁性四合扣封口,密闭性及安全性一流;包内设有一个拉链内袋可放置手机及贵重物品,除此之外无多余内袋设计,使用起来随心所欲!\n尺寸:35.5×21×9cm\n型号:777399"},"price":null,"currency":"CNY","moq":1,"category":"ysl-women-bags","status":"active","alibaba_url":null,"images":["https://xcimg.szwego.com/img/f8c0bdc9/20231225/i1703504849_1937_0.jpg","https://xcimg.szwego.com/img/f8c0bdc9/20231225/i1703504849_5718_1.jpg","https://xcimg.szwego.com/img/f8c0bdc9/20231225/i1703504849_8482_2.jpg","https://xcimg.szwego.com/img/f8c0bdc9/20231225/i1703504849_7796_3.jpg","https://xcimg.szwego.com/img/f8c0bdc9/20231225/i1703504849_7077_4.jpg","https://xcimg.szwego.com/img/f8c0bdc9/20231225/i1703504849_1845_5.jpg","https://xcimg.szwego.com/img/f8c0bdc9/20231225/i1703504849_981_6.jpg","https://xcimg.szwego.com/img/f8c0bdc9/20231225/i1703504849_6224_7.jpg","https://xcimg.szwego.com/img/f8c0bdc9/20231225/i1703504849_7859_8.jpg"],"created_at":"2026-05-20T04:01:38.943Z"},{"id":"item-dab44fe1529c","sku":"_dPMPMGFuoocj7AdiBWRzTkQKNCPj83hlMt7Vvjw","name_en":"Saint Laurent Women Bags","name_cn":"软糯且有肌理感的羊皮材质 松弛慵懒感拉满","specs":{"source":"wsxcme","sourceId":"_dPMPMGFuoocj7AdiBWRzTkQKNCPj83hlMt7Vvjw","sourceTagId":47002761,"sourceTagName":"圣罗兰/女包","rawTitle":"软糯且有肌理感的羊皮材质 松弛慵懒感拉满"},"price":null,"currency":"CNY","moq":1,"category":"ysl-women-bags","status":"active","alibaba_url":null,"images":["https://xcimg.szwego.com/img/f8c0bdc9/20240515/i1715779039_6548_4.jpg","https://xcimg.szwego.com/img/f8c0bdc9/20240515/i1715779039_1031_3.jpg","https://xcimg.szwego.com/img/f8c0bdc9/20240515/i1715779039_6512_1.jpg","https://xcimg.szwego.com/img/f8c0bdc9/20240515/i1715779039_4168_2.jpg","https://xcimg.szwego.com/img/f8c0bdc9/20240515/i1715779039_3012_0.jpg"],"created_at":"2026-05-20T04:01:38.933Z"},{"id":"item-121d0d1c14cf","sku":"_d_l_le4E1U-ta_Ju4-NM2asNXoWbQ0q_pYMnpeg","name_en":"Zp图_","name_cn":"Zp图_","specs":{"source":"wsxcme","sourceId":"_d_l_le4E1U-ta_Ju4-NM2asNXoWbQ0q_pYMnpeg","sourceTagId":47002761,"sourceTagName":"圣罗兰/女包","rawTitle":"Zp图_"},"price":null,"currency":"CNY","moq":1,"category":"ysl-women-bags","status":"active","alibaba_url":null,"images":["https://xcimg.szwego.com/img/f8c0bdc9/20240515/i1715779017_9885_5.jpg","https://xcimg.szwego.com/img/f8c0bdc9/20240515/i1715779017_276_0.jpg","https://xcimg.szwego.com/img/f8c0bdc9/20240515/i1715779017_9373_2.jpg","https://xcimg.szwego.com/img/f8c0bdc9/20240515/i1715779017_4707_8.jpg","https://xcimg.szwego.com/img/f8c0bdc9/20240515/i1715779017_4786_3.jpg","https://xcimg.szwego.com/img/f8c0bdc9/20240515/i1715779017_6615_4.jpg","https://xcimg.szwego.com/img/f8c0bdc9/20240515/i1715779017_9006_1.jpg","https://xcimg.szwego.com/img/f8c0bdc9/20240515/i1715779017_7926_6.jpg","https://xcimg.szwego.com/img/f8c0bdc9/20240515/i1715779017_8319_7.jpg"],"created_at":"2026-05-20T04:01:38.923Z"},{"id":"item-b9bd433f4052","sku":"_dJOJOCOxOybX8oatvDc4lrZyNO6CbSs1bnzAfXg","name_en":"Saint Laurent Women Bags","name_cn":"官网图_","specs":{"source":"wsxcme","sourceId":"_dJOJOCOxOybX8oatvDc4lrZyNO6CbSs1bnzAfXg","sourceTagId":47002761,"sourceTagName":"圣罗兰/女包","rawTitle":"官网图_"},"price":null,"currency":"CNY","moq":1,"category":"ysl-women-bags","status":"active","alibaba_url":null,"images":["https://xcimg.szwego.com/img/f8c0bdc9/20240515/i1715778986_5897_1.jpg","https://xcimg.szwego.com/img/f8c0bdc9/20240515/i1715778986_2442_6.jpg","https://xcimg.szwego.com/img/f8c0bdc9/20240515/i1715778986_2431_5.jpg","https://xcimg.szwego.com/img/f8c0bdc9/20240515/i1715778986_7964_3.jpg","https://xcimg.szwego.com/img/f8c0bdc9/20240515/i1715778986_7286_7.jpg","https://xcimg.szwego.com/img/f8c0bdc9/20240515/i1715778986_3440_0.jpg","https://xcimg.szwego.com/img/f8c0bdc9/20240515/i1715778986_6231_4.jpg","https://xcimg.szwego.com/img/f8c0bdc9/20240515/i1715778986_1327_2.jpg"],"created_at":"2026-05-20T04:01:38.913Z"},{"id":"item-dcd7cc4718ff","sku":"_deSeSLaTJwQl83Ba5Ff32NHg5KfmtdkFaBByXjw","name_en":"Saint Laurent Women Bags","name_cn":"随拍上身参考_","specs":{"source":"wsxcme","sourceId":"_deSeSLaTJwQl83Ba5Ff32NHg5KfmtdkFaBByXjw","sourceTagId":47002761,"sourceTagName":"圣罗兰/女包","rawTitle":"随拍上身参考_"},"price":null,"currency":"CNY","moq":1,"category":"ysl-women-bags","status":"active","alibaba_url":null,"images":["https://xcimg.szwego.com/img/f8c0bdc9/20240515/i1715775851_4911_5.jpg","https://xcimg.szwego.com/img/f8c0bdc9/20240515/i1715775851_758_1.jpg","https://xcimg.szwego.com/img/f8c0bdc9/20240515/i1715775851_3253_0.jpg","https://xcimg.szwego.com/img/f8c0bdc9/20240515/i1715775851_5656_4.jpg","https://xcimg.szwego.com/img/f8c0bdc9/20240515/i1715775851_4712_2.jpg","https://xcimg.szwego.com/img/f8c0bdc9/20240515/i1715775851_9310_3.jpg"],"created_at":"2026-05-20T04:01:38.903Z"},{"id":"item-feb2e5c0ffc2","sku":"_dKjKjkQRhszMZ9ROGjnBqpepoiRWSMRJQGL6nJw","name_en":"细节po","name_cn":"细节po","specs":{"source":"wsxcme","sourceId":"_dKjKjkQRhszMZ9ROGjnBqpepoiRWSMRJQGL6nJw","sourceTagId":47002761,"sourceTagName":"圣罗兰/女包","rawTitle":"细节po"},"price":null,"currency":"CNY","moq":1,"category":"ysl-women-bags","status":"active","alibaba_url":null,"images":["https://xcimg.szwego.com/img/f8c0bdc9/20240515/i1715775811_5641_2.jpg","https://xcimg.szwego.com/img/f8c0bdc9/20240515/i1715775811_2186_5.jpg","https://xcimg.szwego.com/img/f8c0bdc9/20240515/i1715775811_1246_4.jpg","https://xcimg.szwego.com/img/f8c0bdc9/20240515/i1715775811_1624_0.jpg","https://xcimg.szwego.com/img/f8c0bdc9/20240515/i1715775811_2828_1.jpg","https://xcimg.szwego.com/img/f8c0bdc9/20240515/i1715775811_23_3.jpg"],"created_at":"2026-05-20T04:01:38.893Z"},{"id":"item-ca97b0ecfb53","sku":"_dwUwUmc8ZM7BcP32L29Z55eSctuqqnfGgOwMe3Q","name_en":"Saint Laurent Women Bags","name_cn":"随拍上身参考_","specs":{"source":"wsxcme","sourceId":"_dwUwUmc8ZM7BcP32L29Z55eSctuqqnfGgOwMe3Q","sourceTagId":47002761,"sourceTagName":"圣罗兰/女包","rawTitle":"随拍上身参考_"},"price":null,"currency":"CNY","moq":1,"category":"ysl-women-bags","status":"active","alibaba_url":null,"images":["https://xcimg.szwego.com/img/f8c0bdc9/20240515/i1715775677_7240_3.jpg","https://xcimg.szwego.com/img/f8c0bdc9/20240515/i1715775677_3993_4.jpg","https://xcimg.szwego.com/img/f8c0bdc9/20240515/i1715775677_2541_0.jpg","https://xcimg.szwego.com/img/f8c0bdc9/20240515/i1715775677_2957_1.jpg","https://xcimg.szwego.com/img/f8c0bdc9/20240515/i1715775677_8944_2.jpg","https://xcimg.szwego.com/img/f8c0bdc9/20240515/i1715775677_1074_5.jpg"],"created_at":"2026-05-20T04:01:38.883Z"},{"id":"item-3d627c2e848c","sku":"_dqZqZZptmlE6JZ6KjKrEPlg4sjf8cFS9D38c_3A","name_en":"Saint Laurent Women Bags","name_cn":"【绿色】\nCALYPSO_大象纹羊皮链条包\n进口意大利小羊皮制作,手感柔软细腻,经典的Y家logo、链条及扣眼五金均采用巴金哑光五金,包袋开口处折叠后使用了磁性四合扣封口,密闭性及安全性一流;包内设有一个拉链内袋可放置手机及贵重物品,除此之外无多余内袋设计,使用起来随心所欲!\n尺寸:35.5×21×9cm\n型号:777399","specs":{"source":"wsxcme","sourceId":"_dqZqZZptmlE6JZ6KjKrEPlg4sjf8cFS9D38c_3A","sourceTagId":47002761,"sourceTagName":"圣罗兰/女包","modelNumber":"777399","dimensions":{"lengthCm":35.5,"heightCm":21,"widthCm":9},"rawTitle":"【绿色】\nCALYPSO_大象纹羊皮链条包\n进口意大利小羊皮制作,手感柔软细腻,经典的Y家logo、链条及扣眼五金均采用巴金哑光五金,包袋开口处折叠后使用了磁性四合扣封口,密闭性及安全性一流;包内设有一个拉链内袋可放置手机及贵重物品,除此之外无多余内袋设计,使用起来随心所欲!\n尺寸:35.5×21×9cm\n型号:777399"},"price":null,"currency":"CNY","moq":1,"category":"ysl-women-bags","status":"active","alibaba_url":null,"images":["https://xcimg.szwego.com/img/f8c0bdc9/20240515/i1715775624_9029_6.jpg","https://xcimg.szwego.com/img/f8c0bdc9/20240515/i1715775624_500_8.jpg","https://xcimg.szwego.com/img/f8c0bdc9/20240515/i1715775624_677_4.jpg","https://xcimg.szwego.com/img/f8c0bdc9/20240515/i1715775624_9906_3.jpg","https://xcimg.szwego.com/img/f8c0bdc9/20240515/i1715775624_9294_5.jpg","https://xcimg.szwego.com/img/f8c0bdc9/20240515/i1715775624_9368_7.jpg","https://xcimg.szwego.com/img/f8c0bdc9/20240515/i1715775624_5528_0.jpg","https://xcimg.szwego.com/img/f8c0bdc9/20240515/i1715775624_2426_2.jpg","https://xcimg.szwego.com/img/f8c0bdc9/20240515/i1715775624_1447_1.jpg"],"created_at":"2026-05-20T04:01:38.873Z"},{"id":"item-173671916a9a","sku":"_dFfFf4zHN6Px29DcXWX7KIZeZX4uRDUzatzuK2g","name_en":"Gaby Vanity","name_cn":"Gaby Vanity \n低调的奢华 永恒的轮廓","specs":{"source":"wsxcme","sourceId":"_dFfFf4zHN6Px29DcXWX7KIZeZX4uRDUzatzuK2g","sourceTagId":47002761,"sourceTagName":"圣罗兰/女包","rawTitle":"Gaby Vanity \n低调的奢华 永恒的轮廓"},"price":null,"currency":"CNY","moq":1,"category":"ysl-women-bags","status":"active","alibaba_url":null,"images":["https://xcimg.szwego.com/imgHD/f8c0bdc9/20260129/cmp_i1769677083582_5175_0_0.jpg","https://xcimg.szwego.com/imgHD/f8c0bdc9/20260129/cmp_i1769677083607_2091_0_1.jpg","https://xcimg.szwego.com/imgHD/f8c0bdc9/20260129/cmp_i1769677083604_2022_0_2.jpg","https://xcimg.szwego.com/imgHD/f8c0bdc9/20260129/cmp_i1769677083566_7125_0_3.jpg"],"created_at":"2026-05-20T04:01:38.863Z"},{"id":"item-f03dc41504bc","sku":"_dmrmrudRTJUYxsPYA8Dc3vbFf_FEluhro78Z51A","name_en":"细节po","name_cn":"细节po","specs":{"source":"wsxcme","sourceId":"_dmrmrudRTJUYxsPYA8Dc3vbFf_FEluhro78Z51A","sourceTagId":47002761,"sourceTagName":"圣罗兰/女包","rawTitle":"细节po"},"price":null,"currency":"CNY","moq":1,"category":"ysl-women-bags","status":"active","alibaba_url":null,"images":["https://xcimg.szwego.com/imgHD/f8c0bdc9/20260129/cmp_i1769677069987_1635_0_0.jpg","https://xcimg.szwego.com/imgHD/f8c0bdc9/20260129/cmp_i1769677077117_7737_0_1.jpg","https://xcimg.szwego.com/imgHD/f8c0bdc9/20260129/cmp_i1769677077039_1471_0_2.jpg","https://xcimg.szwego.com/imgHD/f8c0bdc9/20260129/cmp_i1769677070986_2557_0_3.jpg","https://xcimg.szwego.com/imgHD/f8c0bdc9/20260129/cmp_i1769677071468_2748_0_4.jpg"],"created_at":"2026-05-20T04:01:38.853Z"},{"id":"item-0409fa512473","sku":"_da9a9ljb6FCtE2nMfZBcXRRH2Y33Bb1w92P6PcQ","name_en":"Saint Laurent Women Bags","name_cn":"薄荷绿\nGABY MINI 盒子包\n即将火爆新一季春夏的小可爱来袭~朴彩英同款化妆包/盒子包,采用小羊皮➕独特衔缝工艺,双拉链设计方便开合,小小包身大大容量,可拆卸调节肩带,手拎斜挎都可️,还可做梳妆包,精致且实用,最新爆款,实至名归。\n款号:766731\n尺寸:18x11x6.5cm","specs":{"source":"wsxcme","sourceId":"_da9a9ljb6FCtE2nMfZBcXRRH2Y33Bb1w92P6PcQ","sourceTagId":47002761,"sourceTagName":"圣罗兰/女包","modelNumber":"766731","dimensions":{"lengthCm":18,"heightCm":11,"widthCm":6.5},"rawTitle":"薄荷绿\nGABY MINI 盒子包\n即将火爆新一季春夏的小可爱来袭~朴彩英同款化妆包/盒子包,采用小羊皮➕独特衔缝工艺,双拉链设计方便开合,小小包身大大容量,可拆卸调节肩带,手拎斜挎都可️,还可做梳妆包,精致且实用,最新爆款,实至名归。\n款号:766731\n尺寸:18x11x6.5cm"},"price":null,"currency":"CNY","moq":1,"category":"ysl-women-bags","status":"active","alibaba_url":null,"images":["https://xcimg.szwego.com/imgHD/f8c0bdc9/20260129/cmp_i1769677017617_1815_0_0.jpg","https://xcimg.szwego.com/imgHD/f8c0bdc9/20260129/cmp_i1769677017760_7861_0_1.jpg","https://xcimg.szwego.com/imgHD/f8c0bdc9/20260129/cmp_i1769677030814_4290_0_2.jpg","https://xcimg.szwego.com/imgHD/f8c0bdc9/20260129/cmp_i1769677017741_5698_0_3.jpg","https://xcimg.szwego.com/imgHD/f8c0bdc9/20260129/cmp_i1769677015675_140_0_4.jpg","https://xcimg.szwego.com/imgHD/f8c0bdc9/20260129/cmp_i1769677017698_5308_0_5.jpg","https://xcimg.szwego.com/imgHD/f8c0bdc9/20260129/cmp_i1769677030694_6899_0_6.jpg","https://xcimg.szwego.com/imgHD/f8c0bdc9/20260129/cmp_i1769677028248_6921_0_7.jpg","https://xcimg.szwego.com/imgHD/f8c0bdc9/20260129/cmp_i1769677030635_2060_0_8.jpg"],"created_at":"2026-05-20T04:01:38.843Z"},{"id":"item-124f69b6cbf3","sku":"_dq-q-Ijk2AJ_dD30JWguJf7CvaxtjAl-qRMgnTA","name_en":"复古与高级感并存的Gaby盒子化妆包","name_cn":"复古与高级感并存的Gaby盒子化妆包\n日常搭配都能瞬间提升造型质感 妥妥的出街吸晴利器","specs":{"source":"wsxcme","sourceId":"_dq-q-Ijk2AJ_dD30JWguJf7CvaxtjAl-qRMgnTA","sourceTagId":47002761,"sourceTagName":"圣罗兰/女包","rawTitle":"复古与高级感并存的Gaby盒子化妆包\n日常搭配都能瞬间提升造型质感 妥妥的出街吸晴利器"},"price":null,"currency":"CNY","moq":1,"category":"ysl-women-bags","status":"active","alibaba_url":null,"images":["https://xcimg.szwego.com/imgHD/f8c0bdc9/20260129/cmp_i1769676770739_4773_0_0.jpg","https://xcimg.szwego.com/imgHD/f8c0bdc9/20260129/cmp_i1769676770172_7565_0_1.jpg","https://xcimg.szwego.com/imgHD/f8c0bdc9/20260129/cmp_i1769676770736_5590_0_2.jpg","https://xcimg.szwego.com/imgHD/f8c0bdc9/20260129/cmp_i1769676770741_2188_0_3.jpg"],"created_at":"2026-05-20T04:01:38.833Z"},{"id":"item-df0b30699acc","sku":"_dsdsdRQOUjeJ2Sil_AGS_kVuMlanYLNYK-jNKgg","name_en":"细节po","name_cn":"细节po","specs":{"source":"wsxcme","sourceId":"_dsdsdRQOUjeJ2Sil_AGS_kVuMlanYLNYK-jNKgg","sourceTagId":47002761,"sourceTagName":"圣罗兰/女包","rawTitle":"细节po"},"price":null,"currency":"CNY","moq":1,"category":"ysl-women-bags","status":"active","alibaba_url":null,"images":["https://xcimg.szwego.com/imgHD/f8c0bdc9/20260129/cmp_i1769676741145_4515_0_0.jpg","https://xcimg.szwego.com/imgHD/f8c0bdc9/20260129/cmp_i1769676742536_7623_0_1.jpg","https://xcimg.szwego.com/imgHD/f8c0bdc9/20260129/cmp_i1769676748979_2237_0_2.jpg","https://xcimg.szwego.com/imgHD/f8c0bdc9/20260129/cmp_i1769676748755_4854_0_3.jpg","https://xcimg.szwego.com/imgHD/f8c0bdc9/20260129/cmp_i1769676741160_3005_0_4.jpg"],"created_at":"2026-05-20T04:01:38.823Z"},{"id":"item-dcc247adc3cc","sku":"_dS6S6PP2n3G1YBw6My8EQZfMeOZgc3HsizVvY0Q","name_en":"Saint Laurent Women Bags","name_cn":"麂皮\nGABY MINI 盒子包\n即将火爆新一季春夏的小可爱来袭~朴彩英同款化妆包/盒子包,采用麂皮➕独特衔缝工艺,双拉链设计方便开合,小小包身大大容量,可拆卸调节肩带,手拎斜挎都可️,还可做梳妆包,精致且实用,最新爆款,实至名归。\n款号:766731\n尺寸:18x11x6.5cm","specs":{"source":"wsxcme","sourceId":"_dS6S6PP2n3G1YBw6My8EQZfMeOZgc3HsizVvY0Q","sourceTagId":47002761,"sourceTagName":"圣罗兰/女包","modelNumber":"766731","dimensions":{"lengthCm":18,"heightCm":11,"widthCm":6.5},"rawTitle":"麂皮\nGABY MINI 盒子包\n即将火爆新一季春夏的小可爱来袭~朴彩英同款化妆包/盒子包,采用麂皮➕独特衔缝工艺,双拉链设计方便开合,小小包身大大容量,可拆卸调节肩带,手拎斜挎都可️,还可做梳妆包,精致且实用,最新爆款,实至名归。\n款号:766731\n尺寸:18x11x6.5cm"},"price":null,"currency":"CNY","moq":1,"category":"ysl-women-bags","status":"active","alibaba_url":null,"images":["https://xcimg.szwego.com/imgHD/f8c0bdc9/20260129/cmp_i1769676673048_4617_0_0.jpg","https://xcimg.szwego.com/imgHD/f8c0bdc9/20260129/cmp_i1769676671589_8485_0_1.jpg","https://xcimg.szwego.com/imgHD/f8c0bdc9/20260129/cmp_i1769676663942_2438_0_2.jpg","https://xcimg.szwego.com/imgHD/f8c0bdc9/20260129/cmp_i1769676662886_5384_0_3.jpg","https://xcimg.szwego.com/imgHD/f8c0bdc9/20260129/cmp_i1769676663979_2999_0_4.jpg","https://xcimg.szwego.com/imgHD/f8c0bdc9/20260129/cmp_i1769676673119_1503_0_5.jpg","https://xcimg.szwego.com/imgHD/f8c0bdc9/20260129/cmp_i1769676663921_9036_0_6.jpg","https://xcimg.szwego.com/imgHD/f8c0bdc9/20260129/cmp_i1769676663013_4872_0_7.jpg","https://xcimg.szwego.com/imgHD/f8c0bdc9/20260129/cmp_i1769676671627_7985_0_8.jpg"],"created_at":"2026-05-20T04:01:38.813Z"},{"id":"item-03d917b58d71","sku":"_dfLfLjveb8u24hDM_Q154BccPt9P6MZnkmcVISQ","name_en":"Saint Laurent Women Bags","name_cn":"磨砂肌理 触感软糯治愈\n自带不费力的文艺慵懒感","specs":{"source":"wsxcme","sourceId":"_dfLfLjveb8u24hDM_Q154BccPt9P6MZnkmcVISQ","sourceTagId":47002761,"sourceTagName":"圣罗兰/女包","rawTitle":"磨砂肌理 触感软糯治愈\n自带不费力的文艺慵懒感"},"price":null,"currency":"CNY","moq":1,"category":"ysl-women-bags","status":"active","alibaba_url":null,"images":["https://xcimg.szwego.com/imgHD/f8c0bdc9/20260129/cmp_i1769676333182_9175_0_0.jpg","https://xcimg.szwego.com/imgHD/f8c0bdc9/20260129/cmp_i1769676333213_5877_0_1.jpg","https://xcimg.szwego.com/imgHD/f8c0bdc9/20260129/cmp_i1769676333308_8558_0_2.jpg","https://xcimg.szwego.com/imgHD/f8c0bdc9/20260129/cmp_i1769676333263_636_0_3.jpg"],"created_at":"2026-05-20T04:01:38.803Z"},{"id":"item-1ad85389e584","sku":"_d-M-M3c4PgWEjCC-pX62Dupj2W9Q0O2w0BpyVQQ","name_en":"细节po","name_cn":"细节po","specs":{"source":"wsxcme","sourceId":"_d-M-M3c4PgWEjCC-pX62Dupj2W9Q0O2w0BpyVQQ","sourceTagId":47002761,"sourceTagName":"圣罗兰/女包","rawTitle":"细节po"},"price":null,"currency":"CNY","moq":1,"category":"ysl-women-bags","status":"active","alibaba_url":null,"images":["https://xcimg.szwego.com/imgHD/f8c0bdc9/20260129/cmp_i1769676308094_8982_0_0.jpg","https://xcimg.szwego.com/imgHD/f8c0bdc9/20260129/cmp_i1769676308306_3378_0_1.jpg","https://xcimg.szwego.com/imgHD/f8c0bdc9/20260129/cmp_i1769676318703_5528_0_2.jpg","https://xcimg.szwego.com/imgHD/f8c0bdc9/20260129/cmp_i1769676309290_8400_0_3.jpg","https://xcimg.szwego.com/imgHD/f8c0bdc9/20260129/cmp_i1769676314324_7658_0_4.jpg","https://xcimg.szwego.com/imgHD/f8c0bdc9/20260129/cmp_i1769676320350_7210_0_5.jpg","https://xcimg.szwego.com/imgHD/f8c0bdc9/20260129/cmp_i1769676319441_4268_0_8.jpg","https://xcimg.szwego.com/imgHD/f8c0bdc9/20260129/cmp_i1769676307897_4780_0_6.jpg","https://xcimg.szwego.com/imgHD/f8c0bdc9/20260129/cmp_i1769676308085_9899_0_7.jpg"],"created_at":"2026-05-20T04:01:38.793Z"},{"id":"item-41a129de6806","sku":"_dNXNXoV70Kfzw2nP5XMatI7RUuwSSy3t_mUCUTg","name_en":"Saint Laurent Women Bags","name_cn":"金叶磨砂金扣·\nNiki_baby \n男女可背的盐系学院风单肩斜挎包\n麂皮搭配内里轻便柔软的小牛皮 整体低调奢华又百搭 通勤包型可休闲可盐 标志性 logo 设计更为简约 肩带斜挎都可轻松凹造型\n喜欢的宝宝完全可以入手 不会过时的款噢\n款号:633151-1\n尺寸:22×16.5×12cm","specs":{"source":"wsxcme","sourceId":"_dNXNXoV70Kfzw2nP5XMatI7RUuwSSy3t_mUCUTg","sourceTagId":47002761,"sourceTagName":"圣罗兰/女包","modelNumber":"633151-1","dimensions":{"lengthCm":22,"heightCm":16.5,"widthCm":12},"rawTitle":"金叶磨砂金扣·\nNiki_baby \n男女可背的盐系学院风单肩斜挎包\n麂皮搭配内里轻便柔软的小牛皮 整体低调奢华又百搭 通勤包型可休闲可盐 标志性 logo 设计更为简约 肩带斜挎都可轻松凹造型\n喜欢的宝宝完全可以入手 不会过时的款噢\n款号:633151-1\n尺寸:22×16.5×12cm"},"price":null,"currency":"CNY","moq":1,"category":"ysl-women-bags","status":"active","alibaba_url":null,"images":["https://xcimg.szwego.com/imgHD/f8c0bdc9/20260129/cmp_i1769676257939_576_0_0.jpg","https://xcimg.szwego.com/imgHD/f8c0bdc9/20260129/cmp_i1769676248606_5963_0_1.jpg","https://xcimg.szwego.com/imgHD/f8c0bdc9/20260129/cmp_i1769676248722_7347_0_2.jpg","https://xcimg.szwego.com/imgHD/f8c0bdc9/20260129/cmp_i1769676249660_6985_0_3.jpg","https://xcimg.szwego.com/imgHD/f8c0bdc9/20260129/cmp_i1769676248643_3702_0_4.jpg","https://xcimg.szwego.com/imgHD/f8c0bdc9/20260129/cmp_i1769676257955_9195_0_5.jpg","https://xcimg.szwego.com/imgHD/f8c0bdc9/20260129/cmp_i1769676257902_5629_0_6.jpg","https://xcimg.szwego.com/imgHD/f8c0bdc9/20260129/cmp_i1769676267121_685_0_7.jpg","https://xcimg.szwego.com/imgHD/f8c0bdc9/20260129/cmp_i1769676249483_7261_0_8.jpg"],"created_at":"2026-05-20T04:01:38.783Z"},{"id":"item-4a455ffff64d","sku":"_djcjcCK3Oc5BynXyfZWdR5YP1OxNr8hCe52gXbA","name_en":"细节po","name_cn":"细节po","specs":{"source":"wsxcme","sourceId":"_djcjcCK3Oc5BynXyfZWdR5YP1OxNr8hCe52gXbA","sourceTagId":47002761,"sourceTagName":"圣罗兰/女包","rawTitle":"细节po"},"price":null,"currency":"CNY","moq":1,"category":"ysl-women-bags","status":"active","alibaba_url":null,"images":["https://xcimg.szwego.com/imgHD/f8c0bdc9/20260129/cmp_i1769672454784_1045_0_0.jpg","https://xcimg.szwego.com/imgHD/f8c0bdc9/20260129/cmp_i1769672462477_6299_0_1.jpg","https://xcimg.szwego.com/imgHD/f8c0bdc9/20260129/cmp_i1769672456176_5118_0_2.jpg","https://xcimg.szwego.com/imgHD/f8c0bdc9/20260129/cmp_i1769672454608_1927_0_3.jpg","https://xcimg.szwego.com/imgHD/f8c0bdc9/20260129/cmp_i1769672462555_4992_0_4.jpg","https://xcimg.szwego.com/imgHD/f8c0bdc9/20260129/cmp_i1769672461080_7985_0_5.jpg","https://xcimg.szwego.com/imgHD/f8c0bdc9/20260129/cmp_i1769672462578_8235_0_6.jpg","https://xcimg.szwego.com/imgHD/f8c0bdc9/20260129/cmp_i1769672454762_7622_0_7.jpg"],"created_at":"2026-05-20T04:01:38.773Z"},{"id":"item-847c38bb197b","sku":"_dARARtmVgWei4xhQIucLOxGBIfSytNjWEQrtclw","name_en":"Saint Laurent Women Bags","name_cn":"松绿色·新款新尺寸\nJAMIE 4.3·29cm\n新品大包真的有戳中我心巴,谁懂啊?💕\n进口意大利小羊皮,整个包型以经典复古做旧版的设计,打破元素,非常好看时髦,且不会过时,基础款也可以搭配的很有feel,不烂大街,材质耐造,通勤百搭,容量超级大,意想不到的轻便,实用性很高哦,绝对的必入单品!😎\n款号:809696\n尺寸:29×21×9.5cm","specs":{"source":"wsxcme","sourceId":"_dARARtmVgWei4xhQIucLOxGBIfSytNjWEQrtclw","sourceTagId":47002761,"sourceTagName":"圣罗兰/女包","modelNumber":"809696","dimensions":{"lengthCm":29,"heightCm":21,"widthCm":9.5},"rawTitle":"松绿色·新款新尺寸\nJAMIE 4.3·29cm\n新品大包真的有戳中我心巴,谁懂啊?💕\n进口意大利小羊皮,整个包型以经典复古做旧版的设计,打破元素,非常好看时髦,且不会过时,基础款也可以搭配的很有feel,不烂大街,材质耐造,通勤百搭,容量超级大,意想不到的轻便,实用性很高哦,绝对的必入单品!😎\n款号:809696\n尺寸:29×21×9.5cm"},"price":null,"currency":"CNY","moq":1,"category":"ysl-women-bags","status":"active","alibaba_url":null,"images":["https://xcimg.szwego.com/imgHD/f8c0bdc9/20260129/cmp_i1769672416492_7931_0_0.jpg","https://xcimg.szwego.com/imgHD/f8c0bdc9/20260129/cmp_i1769672405806_6801_0_1.jpg","https://xcimg.szwego.com/imgHD/f8c0bdc9/20260129/cmp_i1769672426713_7139_0_2.jpg","https://xcimg.szwego.com/imgHD/f8c0bdc9/20260129/cmp_i1769672418173_6488_0_3.jpg","https://xcimg.szwego.com/imgHD/f8c0bdc9/20260129/cmp_i1769672425187_3393_0_4.jpg","https://xcimg.szwego.com/imgHD/f8c0bdc9/20260129/cmp_i1769672416512_9277_0_5.jpg","https://xcimg.szwego.com/imgHD/f8c0bdc9/20260129/cmp_i1769672424727_5321_0_6.jpg","https://xcimg.szwego.com/imgHD/f8c0bdc9/20260129/cmp_i1769672405865_8578_0_7.jpg","https://xcimg.szwego.com/imgHD/f8c0bdc9/20260129/cmp_i1769672417064_5514_0_8.jpg"],"created_at":"2026-05-20T04:01:38.763Z"}],"page":70,"pageSize":24,"total":10075,"totalPages":420}
