{"items":[{"id":"item-374c1398f713","sku":"_dtftfeic2MoxXHunWKuXRRPKAmqabVC_XQRDkdg","name_en":"Gucci Women Bags","name_cn":"型号 781392 大号\n尺寸 34/32/17cm \n\nGucci Ophidia hobo腋下包\n今天的气场是hobo给的!!!\n这个包真的非常融入日常,随性又时髦\n包身容量很大但又轻便小巧能很好的满足日常出门\n而且肩带比一般的腋下包都长一些还可以调节\n一见钟情,时髦使用同时兼顾!","specs":{"source":"wsxcme","sourceId":"_dtftfeic2MoxXHunWKuXRRPKAmqabVC_XQRDkdg","sourceTagId":47002679,"sourceTagName":"古驰/女包","modelNumber":"781392 大号","rawTitle":"型号 781392 大号\n尺寸 34/32/17cm \n\nGucci Ophidia hobo腋下包\n今天的气场是hobo给的!!!\n这个包真的非常融入日常,随性又时髦\n包身容量很大但又轻便小巧能很好的满足日常出门\n而且肩带比一般的腋下包都长一些还可以调节\n一见钟情,时髦使用同时兼顾!"},"price":null,"currency":"CNY","moq":1,"category":"gucci-women-bags","status":"active","alibaba_url":null,"images":["https://xcimg.szwego.com/img/d06f5dea/20240702/i1719894815_6086_8.jpg","https://xcimg.szwego.com/img/d06f5dea/20240702/i1719894815_8960_2.jpg","https://xcimg.szwego.com/img/d06f5dea/20240702/i1719894815_2474_5.jpg","https://xcimg.szwego.com/img/d06f5dea/20240702/i1719894815_8896_0.jpg","https://xcimg.szwego.com/img/d06f5dea/20240702/i1719894815_4008_7.jpg","https://xcimg.szwego.com/img/d06f5dea/20240702/i1719894815_3597_3.jpg","https://xcimg.szwego.com/img/d06f5dea/20240702/i1719894815_2135_4.jpg","https://xcimg.szwego.com/img/d06f5dea/20240702/i1719894815_1785_1.jpg","https://xcimg.szwego.com/img/d06f5dea/20240702/i1719894815_5638_6.jpg"],"created_at":"2026-05-20T03:19:23.328Z"},{"id":"item-19ce6f817393","sku":"_di9i9NrRipxzpzAxbmgnZAbwSDjto5MSFqSQusA","name_en":"Gucci Women Bags","name_cn":"型号 781402\n尺寸 23/21/12cm \n\nGucci Ophidia hobo腋下包\n今天的气场是hobo给的!!!\n这个包真的非常融入日常,随性又时髦\n包身容量很大但又轻便小巧能很好的满足日常出门\n而且肩带比一般的腋下包都长一些还可以调节\n一见钟情,时髦使用同时兼顾!","specs":{"source":"wsxcme","sourceId":"_di9i9NrRipxzpzAxbmgnZAbwSDjto5MSFqSQusA","sourceTagId":47002679,"sourceTagName":"古驰/女包","modelNumber":"781402","rawTitle":"型号 781402\n尺寸 23/21/12cm \n\nGucci Ophidia hobo腋下包\n今天的气场是hobo给的!!!\n这个包真的非常融入日常,随性又时髦\n包身容量很大但又轻便小巧能很好的满足日常出门\n而且肩带比一般的腋下包都长一些还可以调节\n一见钟情,时髦使用同时兼顾!"},"price":null,"currency":"CNY","moq":1,"category":"gucci-women-bags","status":"active","alibaba_url":null,"images":["https://xcimg.szwego.com/img/d06f5dea/20240702/i1719894894_4520_5.jpg","https://xcimg.szwego.com/img/d06f5dea/20240702/i1719894894_1597_3.jpg","https://xcimg.szwego.com/img/d06f5dea/20240702/i1719894903_8860_0.jpg","https://xcimg.szwego.com/img/d06f5dea/20240702/i1719894894_9862_0.jpg","https://xcimg.szwego.com/img/d06f5dea/20240702/i1719894894_2296_1.jpg","https://xcimg.szwego.com/img/d06f5dea/20240702/i1719894894_8645_6.jpg","https://xcimg.szwego.com/img/d06f5dea/20240702/i1719894894_3775_7.jpg","https://xcimg.szwego.com/img/d06f5dea/20240702/i1719894894_9819_8.jpg","https://xcimg.szwego.com/img/d06f5dea/20240702/i1719894894_7144_2.jpg"],"created_at":"2026-05-20T03:19:23.318Z"},{"id":"item-ef5b819da04b","sku":"_ds2s2ozVKtLRhuD0WLZTznGa-pFACdR-TKoL9-A","name_en":"Celine Women Bags","name_cn":"中号🩶容量适中的尺寸\n简约轻便又不失时尚感🩶","specs":{"source":"wsxcme","sourceId":"_ds2s2ozVKtLRhuD0WLZTznGa-pFACdR-TKoL9-A","sourceTagId":47003106,"sourceTagName":"塞琳/女包","rawTitle":"中号🩶容量适中的尺寸\n简约轻便又不失时尚感🩶"},"price":null,"currency":"CNY","moq":1,"category":"celine-women-bags","status":"active","alibaba_url":null,"images":["https://xcimg.szwego.com/img/77bdff09/20260505/i1777987595721_3845_0_0.jpg","https://xcimg.szwego.com/img/77bdff09/20260505/i1777987595720_7919_0_1.jpg","https://xcimg.szwego.com/img/77bdff09/20260505/i1777987645566_530_0_2.jpg"],"created_at":"2026-05-20T03:16:24.726Z"},{"id":"item-bcb3c7a081b9","sku":"_ddWdWVxYGbVn16l7De-y3ZO279WPgZMrKJ60XHA","name_en":"Celine Women Bags","name_cn":"中号🍊~高级的个性感","specs":{"source":"wsxcme","sourceId":"_ddWdWVxYGbVn16l7De-y3ZO279WPgZMrKJ60XHA","sourceTagId":47003106,"sourceTagName":"塞琳/女包","rawTitle":"中号🍊~高级的个性感"},"price":null,"currency":"CNY","moq":1,"category":"celine-women-bags","status":"active","alibaba_url":null,"images":["https://xcimg.szwego.com/img/77bdff09/20260505/i1777987430110_4303_0_0.jpg","https://xcimg.szwego.com/img/77bdff09/20260505/i1777987430111_9013_0_1.jpg","https://xcimg.szwego.com/img/77bdff09/20260505/i1777987430112_9238_0_2.jpg","https://xcimg.szwego.com/img/77bdff09/20260505/i1777987430111_6374_0_3.jpg"],"created_at":"2026-05-20T03:16:24.716Z"},{"id":"item-32b54af4b561","sku":"_dflflfvaTj2MmQAog25jgS9ONFqfxyAz1i_-zrA","name_en":"C家最新FLAT SHOPPER中号✨标志印花手袋💯标志印花,天然牛皮革包边织物衬里金色饰面可手提、肩背","name_cn":"C家最新FLAT SHOPPER中号✨标志印花手袋💯标志印花,天然牛皮革包边织物衬里金色饰面可手提、肩背\nTRIOMPHE按扣开合和钩扣\n1个主隔层合1个内侧拉链袋\n尺寸:(28 X 33 X 0.5厘米)\n型号:123832","specs":{"source":"wsxcme","sourceId":"_dflflfvaTj2MmQAog25jgS9ONFqfxyAz1i_-zrA","sourceTagId":47003106,"sourceTagName":"塞琳/女包","modelNumber":"123832","rawTitle":"C家最新FLAT SHOPPER中号✨标志印花手袋💯标志印花,天然牛皮革包边织物衬里金色饰面可手提、肩背\nTRIOMPHE按扣开合和钩扣\n1个主隔层合1个内侧拉链袋\n尺寸:(28 X 33 X 0.5厘米)\n型号:123832"},"price":null,"currency":"CNY","moq":1,"category":"celine-women-bags","status":"active","alibaba_url":null,"images":["https://xcimg.szwego.com/img/77bdff09/20260506/i1777999238978_4029_0_0.jpg","https://xcimg.szwego.com/img/77bdff09/20260506/i1777999238936_5661_0_1.jpg","https://xcimg.szwego.com/img/77bdff09/20260506/i1777999240330_4813_0_2.jpg","https://xcimg.szwego.com/img/77bdff09/20260506/i1777999238725_9135_0_3.jpg","https://xcimg.szwego.com/img/77bdff09/20260506/i1777999238785_2896_0_4.jpg","https://xcimg.szwego.com/img/77bdff09/20260506/i1777999238966_3729_0_5.jpg","https://xcimg.szwego.com/img/77bdff09/20260506/i1777999240409_2840_0_6.jpg","https://xcimg.szwego.com/img/77bdff09/20260506/i1777999240432_9932_0_7.jpg"],"created_at":"2026-05-20T03:16:24.706Z"},{"id":"item-cd94a871b86f","sku":"_dvIvIHXsnoJtE3WSuQeECCh5wKojpQ-se3iIJRA","name_en":"新款托特包🍊|CELINE","name_cn":"新款托特包🍊|CELINE\n大号凯旋门托特✨","specs":{"source":"wsxcme","sourceId":"_dvIvIHXsnoJtE3WSuQeECCh5wKojpQ-se3iIJRA","sourceTagId":47003106,"sourceTagName":"塞琳/女包","rawTitle":"新款托特包🍊|CELINE\n大号凯旋门托特✨"},"price":null,"currency":"CNY","moq":1,"category":"celine-women-bags","status":"active","alibaba_url":null,"images":["https://xcimg.szwego.com/img/77bdff09/20260505/i1777987337282_7910_0_0.jpg","https://xcimg.szwego.com/img/77bdff09/20260505/i1777987337394_8734_0_1.jpg","https://xcimg.szwego.com/img/77bdff09/20260505/i1777987337233_1582_0_2.jpg","https://xcimg.szwego.com/img/77bdff09/20260505/i1777987337424_1447_0_3.jpg","https://xcimg.szwego.com/img/77bdff09/20260505/i1777987338443_9210_0_4.jpg","https://xcimg.szwego.com/img/77bdff09/20260505/i1777987337436_5798_0_5.jpg"],"created_at":"2026-05-20T03:16:24.696Z"},{"id":"item-15d240d10e04","sku":"_daLaLVzmPAHfq-Kd4jHX7G2j4bkYV_gzVnf9U1A","name_en":"C家最新FLAT SHOPPER大号✨标志印花手袋💯标志印花,天然牛皮革包边织物衬里金色饰面可手提、肩背","name_cn":"C家最新FLAT SHOPPER大号✨标志印花手袋💯标志印花,天然牛皮革包边织物衬里金色饰面可手提、肩背\nTRIOMPHE按扣开合和钩扣\n1个主隔层合1个内侧拉链袋\n尺寸:(0.5 X 42 X 45.5厘米)\n编号:123842","specs":{"source":"wsxcme","sourceId":"_daLaLVzmPAHfq-Kd4jHX7G2j4bkYV_gzVnf9U1A","sourceTagId":47003106,"sourceTagName":"塞琳/女包","rawTitle":"C家最新FLAT SHOPPER大号✨标志印花手袋💯标志印花,天然牛皮革包边织物衬里金色饰面可手提、肩背\nTRIOMPHE按扣开合和钩扣\n1个主隔层合1个内侧拉链袋\n尺寸:(0.5 X 42 X 45.5厘米)\n编号:123842"},"price":null,"currency":"CNY","moq":1,"category":"celine-women-bags","status":"active","alibaba_url":null,"images":["https://xcimg.szwego.com/img/77bdff09/20260506/i1777999178614_4986_0_0.jpg","https://xcimg.szwego.com/img/77bdff09/20260506/i1777999180278_867_0_1.jpg","https://xcimg.szwego.com/img/77bdff09/20260506/i1777999180230_8128_0_2.jpg","https://xcimg.szwego.com/img/77bdff09/20260506/i1777999180322_9717_0_3.jpg","https://xcimg.szwego.com/img/77bdff09/20260506/i1777999178578_6875_0_4.jpg","https://xcimg.szwego.com/img/77bdff09/20260506/i1777999178578_2063_0_5.jpg","https://xcimg.szwego.com/img/77bdff09/20260506/i1777999178578_3913_0_6.jpg","https://xcimg.szwego.com/img/77bdff09/20260506/i1777999178578_5354_0_7.jpg"],"created_at":"2026-05-20T03:16:24.686Z"},{"id":"item-db3e369aa593","sku":"_d8585iGLZ16pGgmjVWmejmjkk6ODUUZzPlEMFyw","name_en":"CELINE DOCTOR POUCH","name_cn":"CELINE DOCTOR POUCH\n大容量腋下医生包🤎","specs":{"source":"wsxcme","sourceId":"_d8585iGLZ16pGgmjVWmejmjkk6ODUUZzPlEMFyw","sourceTagId":47003106,"sourceTagName":"塞琳/女包","rawTitle":"CELINE DOCTOR POUCH\n大容量腋下医生包🤎"},"price":null,"currency":"CNY","moq":1,"category":"celine-women-bags","status":"active","alibaba_url":null,"images":["https://xcimg.szwego.com/img/77bdff09/20260501/i1777619729794_4313_0_0.jpg","https://xcimg.szwego.com/img/77bdff09/20260501/i1777619729794_3376_0_1.jpg","https://xcimg.szwego.com/img/77bdff09/20260501/i1777619729794_2664_0_2.jpg","https://xcimg.szwego.com/img/77bdff09/20260501/i1777619729794_2606_0_3.jpg","https://xcimg.szwego.com/img/77bdff09/20260501/i1777619729845_1290_0_4.jpg","https://xcimg.szwego.com/img/77bdff09/20260501/i1777619730714_7569_0_5.jpg"],"created_at":"2026-05-20T03:16:24.676Z"},{"id":"item-4b69776b14ea","sku":"_d8f8f_vhvEQJb6NfuOdOhuC3dgYhxHjopYPixnQ","name_en":"Celine Women Bags","name_cn":"孙千同款🖤","specs":{"source":"wsxcme","sourceId":"_d8f8f_vhvEQJb6NfuOdOhuC3dgYhxHjopYPixnQ","sourceTagId":47003106,"sourceTagName":"塞琳/女包","rawTitle":"孙千同款🖤"},"price":null,"currency":"CNY","moq":1,"category":"celine-women-bags","status":"active","alibaba_url":null,"images":["https://xcimg.szwego.com/img/77bdff09/20260501/i1777620084673_7410_0_0.jpg","https://xcimg.szwego.com/img/77bdff09/20260501/i1777620084674_5546_0_1.jpg","https://xcimg.szwego.com/img/77bdff09/20260501/i1777620084677_6775_0_2.jpg","https://xcimg.szwego.com/img/77bdff09/20260501/i1777620084676_3562_0_3.jpg"],"created_at":"2026-05-20T03:16:24.666Z"},{"id":"item-9916e9dfcf92","sku":"_dxnxnQQsJ9wXEfbSun9uVQc_AEugs1uMPokc_GQ","name_en":"CELINE | 新款✨醫生包","name_cn":"CELINE | 新款✨醫生包\n🎓大容量~輕便實用~\n幼細紋小牛皮~質感滿分🤩","specs":{"source":"wsxcme","sourceId":"_dxnxnQQsJ9wXEfbSun9uVQc_AEugs1uMPokc_GQ","sourceTagId":47003106,"sourceTagName":"塞琳/女包","rawTitle":"CELINE | 新款✨醫生包\n🎓大容量~輕便實用~\n幼細紋小牛皮~質感滿分🤩"},"price":null,"currency":"CNY","moq":1,"category":"celine-women-bags","status":"active","alibaba_url":null,"images":["https://xcimg.szwego.com/img/77bdff09/20260501/i1777619956303_6304_0_0.jpg","https://xcimg.szwego.com/img/77bdff09/20260501/i1777619956489_3426_0_2.jpg","https://xcimg.szwego.com/img/77bdff09/20260501/i1777619956302_6831_0_1.jpg","https://xcimg.szwego.com/img/77bdff09/20260501/i1777619956458_5193_0_3.jpg"],"created_at":"2026-05-20T03:16:24.656Z"},{"id":"item-0ddc3ef76b29","sku":"_ds1s1s9lrhOaemM4MYi5xM_bQoUvQyTf0mh4ZoQ","name_en":"CELINE | 新款✨醫生包🎓孙千同款","name_cn":"CELINE | 新款✨醫生包🎓孙千同款\nDoctor Pouch腋下包\n不管是 all black酷飒风,还是白 Polo休闲感,都能一秒拿捏\n容量超顶,通勤/约会都能装,实用性拉满\n法式慵懒感这不就来了!\n尺寸:35x18x18cm\n款号:104340","specs":{"source":"wsxcme","sourceId":"_ds1s1s9lrhOaemM4MYi5xM_bQoUvQyTf0mh4ZoQ","sourceTagId":47003106,"sourceTagName":"塞琳/女包","modelNumber":"104340","dimensions":{"lengthCm":35,"heightCm":18,"widthCm":18},"rawTitle":"CELINE | 新款✨醫生包🎓孙千同款\nDoctor Pouch腋下包\n不管是 all black酷飒风,还是白 Polo休闲感,都能一秒拿捏\n容量超顶,通勤/约会都能装,实用性拉满\n法式慵懒感这不就来了!\n尺寸:35x18x18cm\n款号:104340"},"price":null,"currency":"CNY","moq":1,"category":"celine-women-bags","status":"active","alibaba_url":null,"images":["https://xcimg.szwego.com/img/77bdff09/20260502/i1777701557787_3867_0_0.jpg","https://xcimg.szwego.com/img/77bdff09/20260502/i1777701558605_9091_0_1.jpg","https://xcimg.szwego.com/img/77bdff09/20260502/i1777701557588_5699_0_2.jpg","https://xcimg.szwego.com/img/77bdff09/20260502/i1777701557796_5250_0_3.jpg","https://xcimg.szwego.com/img/77bdff09/20260502/i1777701557591_8427_0_4.jpg","https://xcimg.szwego.com/img/77bdff09/20260502/i1777701558627_1677_0_5.jpg","https://xcimg.szwego.com/img/77bdff09/20260502/i1777701557687_9551_0_6.jpg","https://xcimg.szwego.com/img/77bdff09/20260502/i1777701558523_9550_0_7.jpg"],"created_at":"2026-05-20T03:16:24.646Z"},{"id":"item-6696ff61b36b","sku":"_dj6j6aNR3vt2F4G-hdgxOhx80igKsEm8wEPsJlw","name_en":"CELINE | 新款✨醫生包🎓孙千同款","name_cn":"CELINE | 新款✨醫生包🎓孙千同款\nDoctor Pouch腋下包\n不管是 all black酷飒风,还是白 Polo休闲感,都能一秒拿捏\n容量超顶,通勤/约会都能装,实用性拉满\n法式慵懒感这不就来了!\n尺寸:35x18x18cm\n款号:104340","specs":{"source":"wsxcme","sourceId":"_dj6j6aNR3vt2F4G-hdgxOhx80igKsEm8wEPsJlw","sourceTagId":47003106,"sourceTagName":"塞琳/女包","modelNumber":"104340","dimensions":{"lengthCm":35,"heightCm":18,"widthCm":18},"rawTitle":"CELINE | 新款✨醫生包🎓孙千同款\nDoctor Pouch腋下包\n不管是 all black酷飒风,还是白 Polo休闲感,都能一秒拿捏\n容量超顶,通勤/约会都能装,实用性拉满\n法式慵懒感这不就来了!\n尺寸:35x18x18cm\n款号:104340"},"price":null,"currency":"CNY","moq":1,"category":"celine-women-bags","status":"active","alibaba_url":null,"images":["https://xcimg.szwego.com/img/77bdff09/20260502/i1777701526601_6256_0_0.jpg","https://xcimg.szwego.com/img/77bdff09/20260502/i1777701526662_5949_0_1.jpg","https://xcimg.szwego.com/img/77bdff09/20260502/i1777701527207_7622_0_2.jpg","https://xcimg.szwego.com/img/77bdff09/20260502/i1777701526643_9776_0_3.jpg","https://xcimg.szwego.com/img/77bdff09/20260502/i1777701526341_5682_0_4.jpg","https://xcimg.szwego.com/img/77bdff09/20260502/i1777701527245_5755_0_5.jpg","https://xcimg.szwego.com/img/77bdff09/20260502/i1777701526639_7800_0_6.jpg","https://xcimg.szwego.com/img/77bdff09/20260502/i1777701527315_6793_0_7.jpg"],"created_at":"2026-05-20T03:16:24.636Z"},{"id":"item-fd552683195e","sku":"_dezezqdUNaePNSIi9UoWND9wUf1Y_VlBm8ZqNUg","name_en":"CELINE | 新款✨醫生包🎓孙千同款","name_cn":"CELINE | 新款✨醫生包🎓孙千同款\nDoctor Pouch腋下包\n不管是 all black酷飒风,还是白 Polo休闲感,都能一秒拿捏\n容量超顶,通勤/约会都能装,实用性拉满\n法式慵懒感这不就来了!\n尺寸:35x18x18cm\n款号:104340","specs":{"source":"wsxcme","sourceId":"_dezezqdUNaePNSIi9UoWND9wUf1Y_VlBm8ZqNUg","sourceTagId":47003106,"sourceTagName":"塞琳/女包","modelNumber":"104340","dimensions":{"lengthCm":35,"heightCm":18,"widthCm":18},"rawTitle":"CELINE | 新款✨醫生包🎓孙千同款\nDoctor Pouch腋下包\n不管是 all black酷飒风,还是白 Polo休闲感,都能一秒拿捏\n容量超顶,通勤/约会都能装,实用性拉满\n法式慵懒感这不就来了!\n尺寸:35x18x18cm\n款号:104340"},"price":null,"currency":"CNY","moq":1,"category":"celine-women-bags","status":"active","alibaba_url":null,"images":["https://xcimg.szwego.com/img/77bdff09/20260502/i1777701504007_4877_0_0.jpg","https://xcimg.szwego.com/img/77bdff09/20260502/i1777701503973_1765_0_1.jpg","https://xcimg.szwego.com/img/77bdff09/20260502/i1777701502567_8822_0_2.jpg","https://xcimg.szwego.com/img/77bdff09/20260502/i1777701503982_3750_0_3.jpg","https://xcimg.szwego.com/img/77bdff09/20260502/i1777701502633_9830_0_4.jpg","https://xcimg.szwego.com/img/77bdff09/20260502/i1777701502567_1156_0_5.jpg","https://xcimg.szwego.com/img/77bdff09/20260502/i1777701502613_2040_0_6.jpg","https://xcimg.szwego.com/img/77bdff09/20260502/i1777701502575_9190_0_7.jpg"],"created_at":"2026-05-20T03:16:24.626Z"},{"id":"item-9253e9614635","sku":"_dtitiEx7gokM7ohUFpp_XQf--kZxvCXJIuBEFgQ","name_en":"Celine Women Bags","name_cn":"多巴胺色系~💛💚","specs":{"source":"wsxcme","sourceId":"_dtitiEx7gokM7ohUFpp_XQf--kZxvCXJIuBEFgQ","sourceTagId":47003106,"sourceTagName":"塞琳/女包","rawTitle":"多巴胺色系~💛💚"},"price":null,"currency":"CNY","moq":1,"category":"celine-women-bags","status":"active","alibaba_url":null,"images":["https://xcimg.szwego.com/img/77bdff09/20260430/i1777515532948_811_0_0.jpg","https://xcimg.szwego.com/img/77bdff09/20260430/i1777515532821_7094_0_1.jpg","https://xcimg.szwego.com/img/77bdff09/20260430/i1777515533000_6857_0_2.jpg","https://xcimg.szwego.com/img/77bdff09/20260430/i1777515532952_164_0_3.jpg"],"created_at":"2026-05-20T03:16:24.616Z"},{"id":"item-e63e66911253","sku":"_dm2m2cebv-kqmj_nYoeF8I9bW3lhV_BY-WPzyOQ","name_en":"CELINE夏天的颜色☁️","name_cn":"CELINE夏天的颜色☁️\n马卡龙颜色来咯~\n太夏天咯~","specs":{"source":"wsxcme","sourceId":"_dm2m2cebv-kqmj_nYoeF8I9bW3lhV_BY-WPzyOQ","sourceTagId":47003106,"sourceTagName":"塞琳/女包","rawTitle":"CELINE夏天的颜色☁️\n马卡龙颜色来咯~\n太夏天咯~"},"price":null,"currency":"CNY","moq":1,"category":"celine-women-bags","status":"active","alibaba_url":null,"images":["https://xcimg.szwego.com/img/77bdff09/20260430/i1777515469268_4499_0_0.jpg","https://xcimg.szwego.com/img/77bdff09/20260430/i1777515469316_1914_0_1.jpg","https://xcimg.szwego.com/img/77bdff09/20260430/i1777515469157_6615_0_2.jpg"],"created_at":"2026-05-20T03:16:24.606Z"},{"id":"item-099204687cf2","sku":"_dY9Y9tPwV6ECb-l0_I3hFB3nMACtPwNHYmic15A","name_en":"CE SOFT SHOPPER标志印花手袋","name_cn":"CE SOFT SHOPPER标志印花手袋\n斜挎和肩背\nTRIOMPHE按扣开合\n1个主隔层\n1个内侧可拆卸拉链口袋\n可调节肩带,最小长度10.24英寸(26厘米),最大长度13.39英寸(34厘米)\n款号:123912 黑花\n尺寸:32.5x24.5x14cm(配原版包装)","specs":{"source":"wsxcme","sourceId":"_dY9Y9tPwV6ECb-l0_I3hFB3nMACtPwNHYmic15A","sourceTagId":47003106,"sourceTagName":"塞琳/女包","modelNumber":"123912 黑花","dimensions":{"lengthCm":32.5,"heightCm":24.5,"widthCm":14},"rawTitle":"CE SOFT SHOPPER标志印花手袋\n斜挎和肩背\nTRIOMPHE按扣开合\n1个主隔层\n1个内侧可拆卸拉链口袋\n可调节肩带,最小长度10.24英寸(26厘米),最大长度13.39英寸(34厘米)\n款号:123912 黑花\n尺寸:32.5x24.5x14cm(配原版包装)"},"price":null,"currency":"CNY","moq":1,"category":"celine-women-bags","status":"active","alibaba_url":null,"images":["https://xcimg.szwego.com/img/77bdff09/20260430/i1777515452037_7139_0_0.jpg","https://xcimg.szwego.com/img/77bdff09/20260430/i1777515450989_9936_0_1.jpg","https://xcimg.szwego.com/img/77bdff09/20260430/i1777515450977_478_0_2.jpg","https://xcimg.szwego.com/img/77bdff09/20260430/i1777515452044_4809_0_3.jpg","https://xcimg.szwego.com/img/77bdff09/20260430/i1777515450844_9229_0_4.jpg","https://xcimg.szwego.com/img/77bdff09/20260430/i1777515450787_5277_0_5.jpg","https://xcimg.szwego.com/img/77bdff09/20260430/i1777515450983_2517_0_6.jpg","https://xcimg.szwego.com/img/77bdff09/20260430/i1777515451944_2468_0_7.jpg"],"created_at":"2026-05-20T03:16:24.596Z"},{"id":"item-b6bfe773911f","sku":"_d9x9x2oNrnP3w7jeZIkqzpQfHT_mYLbNm4h02wA","name_en":"CE SOFT SHOPPER标志印花手袋","name_cn":"CE SOFT SHOPPER标志印花手袋\n斜挎和肩背\nTRIOMPHE按扣开合\n1个主隔层\n1个内侧可拆卸拉链口袋\n可调节肩带,最小长度10.24英寸(26厘米),最大长度13.39英寸(34厘米)\n款号:123912 黑花\n尺寸:32.5x24.5x14cm(配原版包装)","specs":{"source":"wsxcme","sourceId":"_d9x9x2oNrnP3w7jeZIkqzpQfHT_mYLbNm4h02wA","sourceTagId":47003106,"sourceTagName":"塞琳/女包","modelNumber":"123912 黑花","dimensions":{"lengthCm":32.5,"heightCm":24.5,"widthCm":14},"rawTitle":"CE SOFT SHOPPER标志印花手袋\n斜挎和肩背\nTRIOMPHE按扣开合\n1个主隔层\n1个内侧可拆卸拉链口袋\n可调节肩带,最小长度10.24英寸(26厘米),最大长度13.39英寸(34厘米)\n款号:123912 黑花\n尺寸:32.5x24.5x14cm(配原版包装)"},"price":null,"currency":"CNY","moq":1,"category":"celine-women-bags","status":"active","alibaba_url":null,"images":["https://xcimg.szwego.com/img/77bdff09/20260430/i1777515404202_9273_0_0.jpg","https://xcimg.szwego.com/img/77bdff09/20260430/i1777515403227_3607_0_1.jpg","https://xcimg.szwego.com/img/77bdff09/20260430/i1777515404232_4000_0_2.jpg","https://xcimg.szwego.com/img/77bdff09/20260430/i1777515403308_4398_0_3.jpg","https://xcimg.szwego.com/img/77bdff09/20260430/i1777515403224_1451_0_4.jpg","https://xcimg.szwego.com/img/77bdff09/20260430/i1777515403039_8946_0_5.jpg","https://xcimg.szwego.com/img/77bdff09/20260430/i1777515403296_3540_0_6.jpg","https://xcimg.szwego.com/img/77bdff09/20260430/i1777515404274_9032_0_7.jpg"],"created_at":"2026-05-20T03:16:24.586Z"},{"id":"item-b1d91ab2e043","sku":"_dhRhRM2XH0MARzH0yCgo0h8R9ln9UsuQehN7hSQ","name_en":"Celine Women Bags","name_cn":"高级酒红色🍷","specs":{"source":"wsxcme","sourceId":"_dhRhRM2XH0MARzH0yCgo0h8R9ln9UsuQehN7hSQ","sourceTagId":47003106,"sourceTagName":"塞琳/女包","rawTitle":"高级酒红色🍷"},"price":null,"currency":"CNY","moq":1,"category":"celine-women-bags","status":"active","alibaba_url":null,"images":["https://xcimg.szwego.com/img/77bdff09/20260430/i1777515214853_4854_0_0.jpg","https://xcimg.szwego.com/img/77bdff09/20260430/i1777515214853_3577_0_1.jpg"],"created_at":"2026-05-20T03:16:24.576Z"},{"id":"item-f8c0bb007e52","sku":"_dq1q12tbf_5dxoLdzvOl568Qm4gi4PDLHQsWXkg","name_en":"CELIN26ss新款系列这一季太高级好看啦","name_cn":"CELIN26ss新款系列这一季太高级好看啦","specs":{"source":"wsxcme","sourceId":"_dq1q12tbf_5dxoLdzvOl568Qm4gi4PDLHQsWXkg","sourceTagId":47003106,"sourceTagName":"塞琳/女包","rawTitle":"CELIN26ss新款系列这一季太高级好看啦"},"price":null,"currency":"CNY","moq":1,"category":"celine-women-bags","status":"active","alibaba_url":null,"images":["https://xcimg.szwego.com/img/1a8dcad8/20260117/i1768652958523_5931_0_0.jpg","https://xcimg.szwego.com/img/1a8dcad8/20260117/i1768652958103_4665_0_1.jpg","https://xcimg.szwego.com/img/1a8dcad8/20260117/i1768652958103_5808_0_2.jpg","https://xcimg.szwego.com/img/1a8dcad8/20260117/i1768652958526_6873_0_3.jpg","https://xcimg.szwego.com/img/1a8dcad8/20260117/i1768652958101_540_0_4.jpg","https://xcimg.szwego.com/img/1a8dcad8/20260117/i1768652958099_1489_0_5.jpg","https://xcimg.szwego.com/img/1a8dcad8/20260117/i1768652958103_8286_0_6.jpg","https://xcimg.szwego.com/img/1a8dcad8/20260117/i1768652958526_8799_0_7.jpg"],"created_at":"2026-05-20T03:16:24.566Z"},{"id":"item-d7e88a058d68","sku":"_djjjj-w_RZSVnk86ePzk2UUTagJGAXzq1fMpO4g","name_en":"CELINE |精致女孩的包分享","name_cn":"CELINE |精致女孩的包分享\nNEW Celine Frame盒子包\n造型感十足!\n现货不多先到先得啦~","specs":{"source":"wsxcme","sourceId":"_djjjj-w_RZSVnk86ePzk2UUTagJGAXzq1fMpO4g","sourceTagId":47003106,"sourceTagName":"塞琳/女包","rawTitle":"CELINE |精致女孩的包分享\nNEW Celine Frame盒子包\n造型感十足!\n现货不多先到先得啦~"},"price":null,"currency":"CNY","moq":1,"category":"celine-women-bags","status":"active","alibaba_url":null,"images":["https://xcimg.szwego.com/img/1a8dcad8/20260117/i1768652673868_3581_0_0.jpg","https://xcimg.szwego.com/img/1a8dcad8/20260117/i1768652673868_3041_0_1.jpg","https://xcimg.szwego.com/img/1a8dcad8/20260117/i1768652673870_6073_0_2.jpg","https://xcimg.szwego.com/img/1a8dcad8/20260117/i1768652673868_3999_0_3.jpg","https://xcimg.szwego.com/img/1a8dcad8/20260117/i1768652673868_2037_0_4.jpg","https://xcimg.szwego.com/img/1a8dcad8/20260117/i1768652674232_9418_0_5.jpg"],"created_at":"2026-05-20T03:16:24.556Z"},{"id":"item-f6ab810d3675","sku":"_dJSJSM7cNXCdJwNJ6JJ4KGaj9bsIbh2q00g6-7w","name_en":"CELINE最新秀款盒子包~","name_cn":"CELINE最新秀款盒子包~\n实物图美美的\n26春夏订货会预定款","specs":{"source":"wsxcme","sourceId":"_dJSJSM7cNXCdJwNJ6JJ4KGaj9bsIbh2q00g6-7w","sourceTagId":47003106,"sourceTagName":"塞琳/女包","rawTitle":"CELINE最新秀款盒子包~\n实物图美美的\n26春夏订货会预定款"},"price":null,"currency":"CNY","moq":1,"category":"celine-women-bags","status":"active","alibaba_url":null,"images":["https://xcimg.szwego.com/img/1a8dcad8/20260117/i1768652600192_8498_0_0.jpg","https://xcimg.szwego.com/img/1a8dcad8/20260117/i1768652600193_7038_0_1.jpg","https://xcimg.szwego.com/img/1a8dcad8/20260117/i1768652600192_1484_0_2.jpg","https://xcimg.szwego.com/img/1a8dcad8/20260117/i1768652600192_5317_0_3.jpg","https://xcimg.szwego.com/img/1a8dcad8/20260117/i1768652600194_9997_0_4.jpg","https://xcimg.szwego.com/img/1a8dcad8/20260117/i1768652600778_857_0_5.jpg"],"created_at":"2026-05-20T03:16:24.546Z"},{"id":"item-5ec70ea3cecc","sku":"_dN1N18G9iFjJYdYfnalkQA98ZrRn5S9DapCNnWg","name_en":"TRIOMPHE FRAME小号标志印花手袋4.9 X 4.9 X 4.9英寸(12.5 X 12.5 X 12.5厘米)","name_cn":"TRIOMPHE FRAME小号标志印花手袋4.9 X 4.9 X 4.9英寸(12.5 X 12.5 X 12.5厘米)\n标志印花,天然牛皮革包边\n羊皮革衬里\n金色饰面\n手提、手挽、肩背\nTRIOMPHE金属质感锁扣\n1个主隔层\n1个内侧梳妆镜\n可调节肩带,最小长度6.69英寸(17厘米),最大长度12.2英寸(31厘米)\n编号:124232 (配原版包装)","specs":{"source":"wsxcme","sourceId":"_dN1N18G9iFjJYdYfnalkQA98ZrRn5S9DapCNnWg","sourceTagId":47003106,"sourceTagName":"塞琳/女包","rawTitle":"TRIOMPHE FRAME小号标志印花手袋4.9 X 4.9 X 4.9英寸(12.5 X 12.5 X 12.5厘米)\n标志印花,天然牛皮革包边\n羊皮革衬里\n金色饰面\n手提、手挽、肩背\nTRIOMPHE金属质感锁扣\n1个主隔层\n1个内侧梳妆镜\n可调节肩带,最小长度6.69英寸(17厘米),最大长度12.2英寸(31厘米)\n编号:124232 (配原版包装)"},"price":null,"currency":"CNY","moq":1,"category":"celine-women-bags","status":"active","alibaba_url":null,"images":["https://xcimg.szwego.com/img/1a8dcad8/20260117/i1768652317784_3043_0_0.jpg","https://xcimg.szwego.com/img/1a8dcad8/20260117/i1768652317682_6277_0_1.jpg","https://xcimg.szwego.com/img/1a8dcad8/20260117/i1768652318801_6933_0_2.jpg","https://xcimg.szwego.com/img/1a8dcad8/20260117/i1768652317787_2533_0_3.jpg","https://xcimg.szwego.com/img/1a8dcad8/20260117/i1768652318736_5885_0_4.jpg","https://xcimg.szwego.com/img/1a8dcad8/20260117/i1768652317773_7605_0_5.jpg","https://xcimg.szwego.com/img/1a8dcad8/20260117/i1768652317834_6914_0_6.jpg","https://xcimg.szwego.com/img/1a8dcad8/20260117/i1768652318774_6822_0_7.jpg","https://xcimg.szwego.com/img/1a8dcad8/20260117/i1768652318830_5002_0_8.jpg"],"created_at":"2026-05-20T03:16:24.536Z"},{"id":"item-2f58d04f0914","sku":"_ddmdm_LkZMhjbX3HER3Y8B_Lk4BBGL51i1aV5Sg","name_en":"TRIOMPHE FRAME小号标志印花手袋4.9 X 4.9 X 4.9英寸(12.5 X 12.5 X 12.5厘米)","name_cn":"TRIOMPHE FRAME小号标志印花手袋4.9 X 4.9 X 4.9英寸(12.5 X 12.5 X 12.5厘米)\n标志印花,天然牛皮革包边\n羊皮革衬里\n金色饰面\n手提、手挽、肩背\nTRIOMPHE金属质感锁扣\n1个主隔层\n1个内侧梳妆镜\n可调节肩带,最小长度6.69英寸(17厘米),最大长度12.2英寸(31厘米)\n编号:124232 (配原版包装)","specs":{"source":"wsxcme","sourceId":"_ddmdm_LkZMhjbX3HER3Y8B_Lk4BBGL51i1aV5Sg","sourceTagId":47003106,"sourceTagName":"塞琳/女包","rawTitle":"TRIOMPHE FRAME小号标志印花手袋4.9 X 4.9 X 4.9英寸(12.5 X 12.5 X 12.5厘米)\n标志印花,天然牛皮革包边\n羊皮革衬里\n金色饰面\n手提、手挽、肩背\nTRIOMPHE金属质感锁扣\n1个主隔层\n1个内侧梳妆镜\n可调节肩带,最小长度6.69英寸(17厘米),最大长度12.2英寸(31厘米)\n编号:124232 (配原版包装)"},"price":null,"currency":"CNY","moq":1,"category":"celine-women-bags","status":"active","alibaba_url":null,"images":["https://xcimg.szwego.com/img/1a8dcad8/20260117/i1768652156887_7602_0_0.jpg","https://xcimg.szwego.com/img/1a8dcad8/20260117/i1768652155648_8955_0_1.jpg","https://xcimg.szwego.com/img/1a8dcad8/20260117/i1768652155648_5166_0_2.jpg","https://xcimg.szwego.com/img/1a8dcad8/20260117/i1768652155648_7889_0_3.jpg","https://xcimg.szwego.com/img/1a8dcad8/20260117/i1768652155648_543_0_4.jpg","https://xcimg.szwego.com/img/1a8dcad8/20260117/i1768652156870_3855_0_5.jpg","https://xcimg.szwego.com/img/1a8dcad8/20260117/i1768652155675_1569_0_6.jpg","https://xcimg.szwego.com/img/1a8dcad8/20260117/i1768652156956_1758_0_7.jpg"],"created_at":"2026-05-20T03:16:24.526Z"},{"id":"item-634a10076b3e","sku":"_d9090veBAyel7zPzhvq64OiuJH18FqbsYP5WSNQ","name_en":"TRIOMPHE FRAME小号标志印花手袋4.9 X 4.9 X 4.9英寸(12.5 X 12.5 X 12.5厘米)","name_cn":"TRIOMPHE FRAME小号标志印花手袋4.9 X 4.9 X 4.9英寸(12.5 X 12.5 X 12.5厘米)\n标志印花,天然牛皮革包边\n羊皮革衬里\n金色饰面\n手提、手挽、肩背\nTRIOMPHE金属质感锁扣\n1个主隔层\n1个内侧梳妆镜\n可调节肩带,最小长度6.69英寸(17厘米),最大长度12.2英寸(31厘米)\n编号:124232 (配原版包装)","specs":{"source":"wsxcme","sourceId":"_d9090veBAyel7zPzhvq64OiuJH18FqbsYP5WSNQ","sourceTagId":47003106,"sourceTagName":"塞琳/女包","rawTitle":"TRIOMPHE FRAME小号标志印花手袋4.9 X 4.9 X 4.9英寸(12.5 X 12.5 X 12.5厘米)\n标志印花,天然牛皮革包边\n羊皮革衬里\n金色饰面\n手提、手挽、肩背\nTRIOMPHE金属质感锁扣\n1个主隔层\n1个内侧梳妆镜\n可调节肩带,最小长度6.69英寸(17厘米),最大长度12.2英寸(31厘米)\n编号:124232 (配原版包装)"},"price":null,"currency":"CNY","moq":1,"category":"celine-women-bags","status":"active","alibaba_url":null,"images":["https://xcimg.szwego.com/img/77bdff09/20260430/i1777515172063_7785_0_0.jpg","https://xcimg.szwego.com/img/77bdff09/20260430/i1777515172083_34_0_1.jpg","https://xcimg.szwego.com/img/77bdff09/20260430/i1777515170726_1754_0_2.jpg","https://xcimg.szwego.com/img/77bdff09/20260430/i1777515170726_1547_0_3.jpg","https://xcimg.szwego.com/img/77bdff09/20260430/i1777515170726_2439_0_4.jpg","https://xcimg.szwego.com/img/77bdff09/20260430/i1777515170726_7907_0_5.jpg","https://xcimg.szwego.com/img/77bdff09/20260430/i1777515170726_4869_0_6.jpg"],"created_at":"2026-05-20T03:16:24.516Z"}],"page":77,"pageSize":24,"total":10075,"totalPages":420}
