{"items":[{"id":"item-f027df0e8944","sku":"_dHMHMweOgXJpY6fVrIVikEoNV_99JdRpmMMBaog","name_en":"升级版B家格子料皮革钱夹,随附链饰皮革肩背带。本品可作为小型手袋单独使用,或作为钱夹收置于日常手袋内。专柜品质、做工精细实物拍摄,黑色格子尺寸21cm*12cm*3cm、8687","name_cn":"升级版B家格子料皮革钱夹,随附链饰皮革肩背带。本品可作为小型手袋单独使用,或作为钱夹收置于日常手袋内。专柜品质、做工精细实物拍摄,黑色格子尺寸21cm*12cm*3cm、8687","specs":{"source":"wsxcme","sourceId":"_dHMHMweOgXJpY6fVrIVikEoNV_99JdRpmMMBaog","sourceTagId":80411239,"sourceTagName":"巴宝莉/女包","rawTitle":"升级版B家格子料皮革钱夹,随附链饰皮革肩背带。本品可作为小型手袋单独使用,或作为钱夹收置于日常手袋内。专柜品质、做工精细实物拍摄,黑色格子尺寸21cm*12cm*3cm、8687"},"price":null,"currency":"CNY","moq":1,"category":"burberry-women-bags","status":"active","alibaba_url":null,"images":["https://xcimg.szwego.com/o_1fu901hb98i3m9n1pa5frv1ld517.jpg","https://xcimg.szwego.com/o_1fu901hb9i9uigf10mujum34418.jpg","https://xcimg.szwego.com/o_1fu901hb91k3upuk10nb16t51gre19.jpg","https://xcimg.szwego.com/o_1fu901hb918gobci135a1pmg107k1a.jpg","https://xcimg.szwego.com/o_1fu901hb91alatjpj0k17ke1hk31b.jpg","https://xcimg.szwego.com/o_1fu901hb917m75251djh1t2o1hj81c.jpg","https://xcimg.szwego.com/o_1fu901hb9tcn1icehfupuiqmb1d.jpg","https://xcimg.szwego.com/o_1fu901hb9pkgvmn11lned1hgn1e.jpg"],"created_at":"2025-01-20T12:43:24.124Z"},{"id":"item-d563c4e73978","sku":"_djejetR6Xcv8v85Fn9BDWklvKMC1r41el9pEbaQ","name_en":"升级版B家顶级新款收纳小水桶搭配格纹元素 更加经典休闲亮点是非常轻!空间大容易收纳 ,配有手提皮带,还有肩背皮带。","name_cn":"升级版B家顶级新款收纳小水桶搭配格纹元素 更加经典休闲亮点是非常轻!空间大容易收纳 ,配有手提皮带,还有肩背皮带。\n尺寸:21.14.24  、2232","specs":{"source":"wsxcme","sourceId":"_djejetR6Xcv8v85Fn9BDWklvKMC1r41el9pEbaQ","sourceTagId":80411239,"sourceTagName":"巴宝莉/女包","rawTitle":"升级版B家顶级新款收纳小水桶搭配格纹元素 更加经典休闲亮点是非常轻!空间大容易收纳 ,配有手提皮带,还有肩背皮带。\n尺寸:21.14.24  、2232"},"price":null,"currency":"CNY","moq":1,"category":"burberry-women-bags","status":"active","alibaba_url":null,"images":["https://xcimg.szwego.com/20220810/a1660108435561_6873.jpg","https://xcimg.szwego.com/20220810/a1660108435642_1107.jpg","https://xcimg.szwego.com/20220810/a1660108435722_6251.jpg","https://xcimg.szwego.com/20220810/a1660108435822_2886.jpg","https://xcimg.szwego.com/20220810/a1660108435939_1247.jpg","https://xcimg.szwego.com/20220810/a1660108436064_2360.jpg","https://xcimg.szwego.com/20220810/a1660108436173_2531.jpg","https://xcimg.szwego.com/20220810/a1660108436312_4388.jpg","https://xcimg.szwego.com/20220810/a1660108436413_0367.jpg"],"created_at":"2025-01-20T12:43:24.123Z"},{"id":"item-126ca83e376d","sku":"_dm4m4hLbhXTuLcFl9tsG0PtiW5StGRu3XbMUXhQ","name_en":"升级版B家顶级新款收纳小水桶搭配格纹元素 更加经典休闲亮点是非常轻!空间大容易收纳 ,配有手提皮带,还有肩背皮带。","name_cn":"升级版B家顶级新款收纳小水桶搭配格纹元素 更加经典休闲亮点是非常轻!空间大容易收纳 ,配有手提皮带,还有肩背皮带。\n尺寸:21.14.24  、2232","specs":{"source":"wsxcme","sourceId":"_dm4m4hLbhXTuLcFl9tsG0PtiW5StGRu3XbMUXhQ","sourceTagId":80411239,"sourceTagName":"巴宝莉/女包","rawTitle":"升级版B家顶级新款收纳小水桶搭配格纹元素 更加经典休闲亮点是非常轻!空间大容易收纳 ,配有手提皮带,还有肩背皮带。\n尺寸:21.14.24  、2232"},"price":null,"currency":"CNY","moq":1,"category":"burberry-women-bags","status":"active","alibaba_url":null,"images":["https://xcimg.szwego.com/20220810/a1660108446913_3775.jpg","https://xcimg.szwego.com/20220810/a1660108446990_7008.jpg","https://xcimg.szwego.com/20220810/a1660108447070_5032.jpg","https://xcimg.szwego.com/20220810/a1660108447158_3587.jpg","https://xcimg.szwego.com/20220810/a1660108447284_5406.jpg","https://xcimg.szwego.com/20220810/a1660108447347_3832.jpg","https://xcimg.szwego.com/20220810/a1660108447447_3023.jpg","https://xcimg.szwego.com/20220810/a1660108447553_7067.jpg","https://xcimg.szwego.com/20220810/a1660108447654_5466.jpg"],"created_at":"2025-01-20T12:43:24.122Z"},{"id":"item-e2c775c8b250","sku":"_dG7G7amhKlcyX2oCahnYXeUvp_sHZiv_Cv6m84A","name_en":"B家最新抽绳水桶包🍀选用棉质斜纹面料打造 采用无内衬设计 质地轻盈 融入光滑小牛皮饰边 搭配可调式皮革肩背带,随心切换肩背包和斜背包造型。来自Burberry 经典之作系列,以鲜明品牌风格诠释衣橱必备 尺寸27.5x 16x 29cm","name_cn":"B家最新抽绳水桶包🍀选用棉质斜纹面料打造 采用无内衬设计 质地轻盈 融入光滑小牛皮饰边 搭配可调式皮革肩背带,随心切换肩背包和斜背包造型。来自Burberry 经典之作系列,以鲜明品牌风格诠释衣橱必备 尺寸27.5x 16x 29cm\n1682、","specs":{"source":"wsxcme","sourceId":"_dG7G7amhKlcyX2oCahnYXeUvp_sHZiv_Cv6m84A","sourceTagId":80411239,"sourceTagName":"巴宝莉/女包","dimensions":{"lengthCm":27.5,"heightCm":16,"widthCm":29},"rawTitle":"B家最新抽绳水桶包🍀选用棉质斜纹面料打造 采用无内衬设计 质地轻盈 融入光滑小牛皮饰边 搭配可调式皮革肩背带,随心切换肩背包和斜背包造型。来自Burberry 经典之作系列,以鲜明品牌风格诠释衣橱必备 尺寸27.5x 16x 29cm\n1682、"},"price":null,"currency":"CNY","moq":1,"category":"burberry-women-bags","status":"active","alibaba_url":null,"images":["https://xcimg.szwego.com/img/f65960ba/20240910/a1725936549934_1148.jpg","https://xcimg.szwego.com/img/f65960ba/20240910/a1725936549857_7522.jpg","https://xcimg.szwego.com/img/f65960ba/20240910/a1725936549855_7867.jpg","https://xcimg.szwego.com/img/f65960ba/20240910/a1725936549856_3613.jpg","https://xcimg.szwego.com/img/f65960ba/20240910/a1725936550218_1135.jpg","https://xcimg.szwego.com/img/f65960ba/20240910/a1725936550057_7507.jpg","https://xcimg.szwego.com/img/f65960ba/20240910/a1725936551007_5177.jpg","https://xcimg.szwego.com/img/f65960ba/20240910/a1725936551052_5627.jpg","https://xcimg.szwego.com/img/f65960ba/20240910/a1725936550983_8810.jpg"],"created_at":"2025-01-20T12:43:24.121Z"},{"id":"item-36e50e5a4db6","sku":"_doZoZtKzJkSAD7vmJcc4sME-aHKynd6byuPJlpQ","name_en":"B家最新小桶包,选用棉质斜纹面料打造。于意大利工坊","name_cn":"B家最新小桶包,选用棉质斜纹面料打造。于意大利工坊\n匠制而成,装饰精纺 B家专用格纹。采用无内衬设计,质地轻盈。融入光滑小牛皮饰边,搭配可调式肩背帯,随心切換肩背包和斜背包造型。必备款式。尺寸17.5 x 10.5 x 20cm.","specs":{"source":"wsxcme","sourceId":"_doZoZtKzJkSAD7vmJcc4sME-aHKynd6byuPJlpQ","sourceTagId":80411239,"sourceTagName":"巴宝莉/女包","dimensions":{"lengthCm":17.5,"heightCm":10.5,"widthCm":20},"rawTitle":"B家最新小桶包,选用棉质斜纹面料打造。于意大利工坊\n匠制而成,装饰精纺 B家专用格纹。采用无内衬设计,质地轻盈。融入光滑小牛皮饰边,搭配可调式肩背帯,随心切換肩背包和斜背包造型。必备款式。尺寸17.5 x 10.5 x 20cm."},"price":null,"currency":"CNY","moq":1,"category":"burberry-women-bags","status":"active","alibaba_url":null,"images":["https://xcimg.szwego.com/img/b7f85c57/20240819/i1724046204_3965_8.jpg","https://xcimg.szwego.com/img/b7f85c57/20240819/i1724046204_4507_6.jpg","https://xcimg.szwego.com/img/b7f85c57/20240819/i1724046204_1250_0.jpg","https://xcimg.szwego.com/img/b7f85c57/20240819/i1724046204_981_2.jpg","https://xcimg.szwego.com/img/b7f85c57/20240819/i1724046204_1183_3.jpg","https://xcimg.szwego.com/img/b7f85c57/20240819/i1724046204_6787_5.jpg","https://xcimg.szwego.com/img/b7f85c57/20240819/i1724046204_9256_4.jpg","https://xcimg.szwego.com/img/b7f85c57/20240819/i1724046204_4047_7.jpg","https://xcimg.szwego.com/img/b7f85c57/20240819/i1724046204_2353_1.jpg"],"created_at":"2025-01-20T12:43:24.120Z"},{"id":"item-10d656264eea","sku":"_dujujJ8c6jX9e-C2htgbrNB5amyG0pnH7up0r9Q","name_en":"BBR女士格纹水桶包单肩包,平纹软牛皮格子帆布,自重超轻,非常实用,细节完美精致。尺寸:25*19*13 cm","name_cn":"BBR女士格纹水桶包单肩包,平纹软牛皮格子帆布,自重超轻,非常实用,细节完美精致。尺寸:25*19*13 cm","specs":{"source":"wsxcme","sourceId":"_dujujJ8c6jX9e-C2htgbrNB5amyG0pnH7up0r9Q","sourceTagId":80411239,"sourceTagName":"巴宝莉/女包","dimensions":{"lengthCm":25,"heightCm":19,"widthCm":13},"rawTitle":"BBR女士格纹水桶包单肩包,平纹软牛皮格子帆布,自重超轻,非常实用,细节完美精致。尺寸:25*19*13 cm"},"price":null,"currency":"CNY","moq":1,"category":"burberry-women-bags","status":"active","alibaba_url":null,"images":["https://xcimg.szwego.com/img/bb2ba1a9/20240927/i1727380914_8176_7.jpg","https://xcimg.szwego.com/img/bb2ba1a9/20240927/i1727380914_1509_0.jpg","https://xcimg.szwego.com/img/bb2ba1a9/20240927/i1727380914_6259_5.jpg","https://xcimg.szwego.com/img/bb2ba1a9/20240927/i1727380914_2601_6.jpg","https://xcimg.szwego.com/img/bb2ba1a9/20240927/i1727380914_383_1.jpg","https://xcimg.szwego.com/img/bb2ba1a9/20240927/i1727380914_3428_8.jpg","https://xcimg.szwego.com/img/bb2ba1a9/20240927/i1727380914_9159_2.jpg","https://xcimg.szwego.com/img/bb2ba1a9/20240927/i1727380914_6082_3.jpg","https://xcimg.szwego.com/img/bb2ba1a9/20240927/i1727380914_7151_4.jpg"],"created_at":"2025-01-20T12:43:24.119Z"},{"id":"item-b8877e3a4321","sku":"_dwFwFk5AsbXOxyNZuSGVwmb_80jVG06yaNtco6w","name_en":"B家最新抽绳水桶包🍀选用棉质斜纹面料打造 采用无内衬设计 质地轻盈 融入光滑小牛皮饰边 搭配可调式皮革肩背带,随心切换肩背包和斜背包造型。来自burberry 经典之作系列,以鲜明品牌风格诠释衣橱必备 尺寸27.5x 16x 29cm","name_cn":"B家最新抽绳水桶包🍀选用棉质斜纹面料打造 采用无内衬设计 质地轻盈 融入光滑小牛皮饰边 搭配可调式皮革肩背带,随心切换肩背包和斜背包造型。来自burberry 经典之作系列,以鲜明品牌风格诠释衣橱必备 尺寸27.5x 16x 29cm","specs":{"source":"wsxcme","sourceId":"_dwFwFk5AsbXOxyNZuSGVwmb_80jVG06yaNtco6w","sourceTagId":80411239,"sourceTagName":"巴宝莉/女包","dimensions":{"lengthCm":27.5,"heightCm":16,"widthCm":29},"rawTitle":"B家最新抽绳水桶包🍀选用棉质斜纹面料打造 采用无内衬设计 质地轻盈 融入光滑小牛皮饰边 搭配可调式皮革肩背带,随心切换肩背包和斜背包造型。来自burberry 经典之作系列,以鲜明品牌风格诠释衣橱必备 尺寸27.5x 16x 29cm"},"price":null,"currency":"CNY","moq":1,"category":"burberry-women-bags","status":"active","alibaba_url":null,"images":["https://xcimg.szwego.com/img/bb2ba1a9/20240927/i1727381427_9910_8.jpg","https://xcimg.szwego.com/img/bb2ba1a9/20240927/i1727381427_4197_2.jpg","https://xcimg.szwego.com/img/bb2ba1a9/20240927/i1727381427_9741_1.jpg","https://xcimg.szwego.com/img/bb2ba1a9/20240927/i1727381427_4713_5.jpg","https://xcimg.szwego.com/img/bb2ba1a9/20240927/i1727381427_6884_3.jpg","https://xcimg.szwego.com/img/bb2ba1a9/20240927/i1727381427_2743_6.jpg","https://xcimg.szwego.com/img/bb2ba1a9/20240927/i1727381427_1418_0.jpg","https://xcimg.szwego.com/img/bb2ba1a9/20240927/i1727381427_2559_7.jpg","https://xcimg.szwego.com/img/bb2ba1a9/20240927/i1727381427_1247_4.jpg"],"created_at":"2025-01-20T12:43:24.118Z"},{"id":"item-ce89da89e44a","sku":"_djqjq8zHICyQJHATEElO7F1JpLkW_sul0XINLIw","name_en":"B家最新抽绳水桶包🍀选用棉质斜纹面料打造 采用无内衬设计 质地轻盈 融入光滑小牛皮饰边 搭配可调式皮革肩背带,随心切换肩背包和斜背包造型。来自burberry 经典之作系列,以鲜明品牌风格诠释衣橱必备 尺寸27.5x 16x 29cm","name_cn":"B家最新抽绳水桶包🍀选用棉质斜纹面料打造 采用无内衬设计 质地轻盈 融入光滑小牛皮饰边 搭配可调式皮革肩背带,随心切换肩背包和斜背包造型。来自burberry 经典之作系列,以鲜明品牌风格诠释衣橱必备 尺寸27.5x 16x 29cm","specs":{"source":"wsxcme","sourceId":"_djqjq8zHICyQJHATEElO7F1JpLkW_sul0XINLIw","sourceTagId":80411239,"sourceTagName":"巴宝莉/女包","dimensions":{"lengthCm":27.5,"heightCm":16,"widthCm":29},"rawTitle":"B家最新抽绳水桶包🍀选用棉质斜纹面料打造 采用无内衬设计 质地轻盈 融入光滑小牛皮饰边 搭配可调式皮革肩背带,随心切换肩背包和斜背包造型。来自burberry 经典之作系列,以鲜明品牌风格诠释衣橱必备 尺寸27.5x 16x 29cm"},"price":null,"currency":"CNY","moq":1,"category":"burberry-women-bags","status":"active","alibaba_url":null,"images":["https://xcimg.szwego.com/img/bb2ba1a9/20240927/i1727381481_1320_1.jpg","https://xcimg.szwego.com/img/bb2ba1a9/20240927/i1727381481_3634_5.jpg","https://xcimg.szwego.com/img/bb2ba1a9/20240927/i1727381481_5036_7.jpg","https://xcimg.szwego.com/img/bb2ba1a9/20240927/i1727381481_9726_4.jpg","https://xcimg.szwego.com/img/bb2ba1a9/20240927/i1727381481_2098_2.jpg","https://xcimg.szwego.com/img/bb2ba1a9/20240927/i1727381481_5597_6.jpg","https://xcimg.szwego.com/img/bb2ba1a9/20240927/i1727381481_9652_0.jpg","https://xcimg.szwego.com/img/bb2ba1a9/20240927/i1727381481_1255_3.jpg","https://xcimg.szwego.com/img/bb2ba1a9/20240927/i1727381481_8622_8.jpg"],"created_at":"2025-01-20T12:43:24.117Z"},{"id":"item-ab3948f87414","sku":"_d-g-g9ZXH4xN6S8SWSMstMvrzqrLwgxflU43jVw","name_en":"B家最新小桶包,选用棉质斜纹面料打造。于意大利工坊匠制而成,装饰精纺 b家专用格纹。采用无内衬设计,质地轻盈。融入光滑小牛皮饰边,搭配可调式肩背帯,随心切換肩背包和斜背包造型。必备款式。尺寸17.5 x 10.5 x 20cm","name_cn":"B家最新小桶包,选用棉质斜纹面料打造。于意大利工坊匠制而成,装饰精纺 b家专用格纹。采用无内衬设计,质地轻盈。融入光滑小牛皮饰边,搭配可调式肩背帯,随心切換肩背包和斜背包造型。必备款式。尺寸17.5 x 10.5 x 20cm","specs":{"source":"wsxcme","sourceId":"_d-g-g9ZXH4xN6S8SWSMstMvrzqrLwgxflU43jVw","sourceTagId":80411239,"sourceTagName":"巴宝莉/女包","dimensions":{"lengthCm":17.5,"heightCm":10.5,"widthCm":20},"rawTitle":"B家最新小桶包,选用棉质斜纹面料打造。于意大利工坊匠制而成,装饰精纺 b家专用格纹。采用无内衬设计,质地轻盈。融入光滑小牛皮饰边,搭配可调式肩背帯,随心切換肩背包和斜背包造型。必备款式。尺寸17.5 x 10.5 x 20cm"},"price":null,"currency":"CNY","moq":1,"category":"burberry-women-bags","status":"active","alibaba_url":null,"images":["https://xcimg.szwego.com/img/bb2ba1a9/20240927/i1727381640_5398_0.jpg","https://xcimg.szwego.com/img/bb2ba1a9/20240927/i1727381640_368_2.jpg","https://xcimg.szwego.com/img/bb2ba1a9/20240927/i1727381641_3502_10.jpg","https://xcimg.szwego.com/img/bb2ba1a9/20240927/i1727381640_121_3.jpg","https://xcimg.szwego.com/img/bb2ba1a9/20240927/i1727381640_7257_7.jpg","https://xcimg.szwego.com/img/bb2ba1a9/20240927/i1727381641_9153_8.jpg","https://xcimg.szwego.com/img/bb2ba1a9/20240927/i1727381640_8245_6.jpg","https://xcimg.szwego.com/img/bb2ba1a9/20240927/i1727381641_223_9.jpg","https://xcimg.szwego.com/img/bb2ba1a9/20240927/i1727381640_3570_4.jpg","https://xcimg.szwego.com/img/bb2ba1a9/20240927/i1727381640_6750_5.jpg","https://xcimg.szwego.com/img/bb2ba1a9/20240927/i1727381640_3216_1.jpg"],"created_at":"2025-01-20T12:43:24.116Z"},{"id":"item-057981a1f691","sku":"_di2i2KYjSOOp6W40woihwZX6EjH8RRzEJQPh_UA","name_en":"B家最新小桶包,选用棉质斜纹面料打造。于意大利工坊匠制而成,装饰精纺 b家专用格纹。采用无内衬设计,质地轻盈。融入光滑小牛皮饰边,搭配可调式肩背帯,随心切換肩背包和斜背包造型。必备款式。尺寸17.5 x 10.5 x 20cm","name_cn":"B家最新小桶包,选用棉质斜纹面料打造。于意大利工坊匠制而成,装饰精纺 b家专用格纹。采用无内衬设计,质地轻盈。融入光滑小牛皮饰边,搭配可调式肩背帯,随心切換肩背包和斜背包造型。必备款式。尺寸17.5 x 10.5 x 20cm","specs":{"source":"wsxcme","sourceId":"_di2i2KYjSOOp6W40woihwZX6EjH8RRzEJQPh_UA","sourceTagId":80411239,"sourceTagName":"巴宝莉/女包","dimensions":{"lengthCm":17.5,"heightCm":10.5,"widthCm":20},"rawTitle":"B家最新小桶包,选用棉质斜纹面料打造。于意大利工坊匠制而成,装饰精纺 b家专用格纹。采用无内衬设计,质地轻盈。融入光滑小牛皮饰边,搭配可调式肩背帯,随心切換肩背包和斜背包造型。必备款式。尺寸17.5 x 10.5 x 20cm"},"price":null,"currency":"CNY","moq":1,"category":"burberry-women-bags","status":"active","alibaba_url":null,"images":["https://xcimg.szwego.com/img/bb2ba1a9/20240927/i1727381706_5842_2.jpg","https://xcimg.szwego.com/img/bb2ba1a9/20240927/i1727381706_571_8.jpg","https://xcimg.szwego.com/img/bb2ba1a9/20240927/i1727381706_1310_4.jpg","https://xcimg.szwego.com/img/bb2ba1a9/20240927/i1727381706_7065_7.jpg","https://xcimg.szwego.com/img/bb2ba1a9/20240927/i1727381706_7866_5.jpg","https://xcimg.szwego.com/img/bb2ba1a9/20240927/i1727381706_4334_1.jpg","https://xcimg.szwego.com/img/bb2ba1a9/20240927/i1727381706_2852_9.jpg","https://xcimg.szwego.com/img/bb2ba1a9/20240927/i1727381706_2251_6.jpg","https://xcimg.szwego.com/img/bb2ba1a9/20240927/i1727381706_139_0.jpg"],"created_at":"2025-01-20T12:43:24.115Z"},{"id":"item-688d2ddfcda5","sku":"_dwfwflVfgaUj7Ehpnjf2p3Esv5ynU1fnHDYw8rA","name_en":"棕色实拍 之前的品质 原厂原料 正品级! 链条拆掉 就是个钱包 夏季单单肩包用 冬季 就可以放入袋内做钱包 非常实用 手机8p 轻松送入 口红 🔑 卡片这些都绰绰有余","name_cn":"棕色实拍 之前的品质 原厂原料 正品级! 链条拆掉 就是个钱包 夏季单单肩包用 冬季 就可以放入袋内做钱包 非常实用 手机8p 轻松送入 口红 🔑 卡片这些都绰绰有余","specs":{"source":"wsxcme","sourceId":"_dwfwflVfgaUj7Ehpnjf2p3Esv5ynU1fnHDYw8rA","sourceTagId":80411239,"sourceTagName":"巴宝莉/女包","rawTitle":"棕色实拍 之前的品质 原厂原料 正品级! 链条拆掉 就是个钱包 夏季单单肩包用 冬季 就可以放入袋内做钱包 非常实用 手机8p 轻松送入 口红 🔑 卡片这些都绰绰有余"},"price":null,"currency":"CNY","moq":1,"category":"burberry-women-bags","status":"active","alibaba_url":null,"images":["https://xcimg.szwego.com/1557560125_2694858175_0","https://xcimg.szwego.com/1557560125_4020929986_1","https://xcimg.szwego.com/1557560125_9651650_2","https://xcimg.szwego.com/1557560125_912360296_3","https://xcimg.szwego.com/1557560125_402413876_4","https://xcimg.szwego.com/1557560125_3047724729_5","https://xcimg.szwego.com/1557560125_369150496_6","https://xcimg.szwego.com/1557560125_1699082383_7","https://xcimg.szwego.com/1557560125_3571767194_8"],"created_at":"2025-01-20T12:43:24.114Z"},{"id":"item-e9b373ef16d4","sku":"_dyPyPjBGW7lft8WdB2A7L9m_BEd0TCkIdmV4lcA","name_en":"Burberry Women Bags","name_cn":"格纹经久不衰,低调经典时尚,这款钱包绝对是存放现金、卡片、票券与单据的首选!包包采用两折式的设计,可轻易地收纳入外套口袋!超多卡槽,还有拉链隔层,满足日常收纳所需!","specs":{"source":"wsxcme","sourceId":"_dyPyPjBGW7lft8WdB2A7L9m_BEd0TCkIdmV4lcA","sourceTagId":80411239,"sourceTagName":"巴宝莉/女包","rawTitle":"格纹经久不衰,低调经典时尚,这款钱包绝对是存放现金、卡片、票券与单据的首选!包包采用两折式的设计,可轻易地收纳入外套口袋!超多卡槽,还有拉链隔层,满足日常收纳所需!"},"price":null,"currency":"CNY","moq":1,"category":"burberry-women-bags","status":"active","alibaba_url":null,"images":["https://xcimg.szwego.com/20210903/i1630658338_9166_0.jpg","https://xcimg.szwego.com/20210903/i1630658338_9750_1.jpg","https://xcimg.szwego.com/20210903/i1630658338_3037_2.jpg","https://xcimg.szwego.com/20210903/i1630658338_2546_3.jpg","https://xcimg.szwego.com/20210903/i1630658338_2225_5.jpg","https://xcimg.szwego.com/20210903/i1630658338_8140_8.jpg","https://xcimg.szwego.com/20210903/i1630658338_6207_6.jpg","https://xcimg.szwego.com/20210903/i1630658338_9827_7.jpg","https://xcimg.szwego.com/20210903/i1630658338_5072_4.jpg"],"created_at":"2025-01-20T12:43:24.113Z"},{"id":"item-bcab45557d9e","sku":"_djwjw1nwFQq-5_dOUw7E2sQzuxMB7YmvaR5W9Fg","name_en":"Burberry Women Bags","name_cn":"挂拍来一组!包虽然不大 但是能装!","specs":{"source":"wsxcme","sourceId":"_djwjw1nwFQq-5_dOUw7E2sQzuxMB7YmvaR5W9Fg","sourceTagId":80411239,"sourceTagName":"巴宝莉/女包","rawTitle":"挂拍来一组!包虽然不大 但是能装!"},"price":null,"currency":"CNY","moq":1,"category":"burberry-women-bags","status":"active","alibaba_url":null,"images":["https://xcimg.szwego.com/img/14bb1ccb/20240814/i1723627567_2378_6.jpg","https://xcimg.szwego.com/img/14bb1ccb/20240814/i1723627567_2502_2.jpg","https://xcimg.szwego.com/img/14bb1ccb/20240814/i1723627567_642_3.jpg","https://xcimg.szwego.com/img/14bb1ccb/20240814/i1723627567_1633_0.jpg","https://xcimg.szwego.com/img/14bb1ccb/20240814/i1723627567_9507_4.jpg","https://xcimg.szwego.com/img/14bb1ccb/20240814/i1723627567_1752_1.jpg","https://xcimg.szwego.com/img/14bb1ccb/20240814/i1723627567_1414_5.jpg","https://xcimg.szwego.com/img/14bb1ccb/20240814/i1723627567_1147_7.jpg"],"created_at":"2025-01-20T12:43:24.112Z"},{"id":"item-5427ef773e5f","sku":"_diCiCWrby57VBS90IRkG0CMPc8rJKeFaWhLSEaw","name_en":"Burberry Women Bags","name_cn":"水桶包型作为众多时尚博主的标志性包袋,通勤或休闲皆可,帆布材质更硬挺,耐磨耐造,背上身造型更加立体,容量可观,肩带可调节!而且包身自重非常轻!作为这个系列的新成员,怕是又有不少包控要沦陷咯!","specs":{"source":"wsxcme","sourceId":"_diCiCWrby57VBS90IRkG0CMPc8rJKeFaWhLSEaw","sourceTagId":80411239,"sourceTagName":"巴宝莉/女包","rawTitle":"水桶包型作为众多时尚博主的标志性包袋,通勤或休闲皆可,帆布材质更硬挺,耐磨耐造,背上身造型更加立体,容量可观,肩带可调节!而且包身自重非常轻!作为这个系列的新成员,怕是又有不少包控要沦陷咯!"},"price":null,"currency":"CNY","moq":1,"category":"burberry-women-bags","status":"active","alibaba_url":null,"images":["https://xcimg.szwego.com/20210910/i1631273588_3204_0.jpg","https://xcimg.szwego.com/20210910/i1631273588_3276_1.jpg","https://xcimg.szwego.com/20210910/i1631273588_3061_2.jpg","https://xcimg.szwego.com/20210910/i1631273588_3415_3.jpg","https://xcimg.szwego.com/20210910/i1631273588_6169_4.jpg","https://xcimg.szwego.com/20210910/i1631273588_2013_5.jpg","https://xcimg.szwego.com/20210910/i1631273588_9392_6.jpg","https://xcimg.szwego.com/20210910/i1631273588_1539_7.jpg","https://xcimg.szwego.com/20210910/i1631273588_4535_8.jpg"],"created_at":"2025-01-20T12:43:24.111Z"},{"id":"item-1bfe02ee5782","sku":"_d-G-GCs_ACrEdsR76Sbd4Rouqlt5JROSawLsFAQ","name_en":"Burberry Women Bags","name_cn":"橘色平铺细节,这个色搭白裙子或者黑色衣服都很合适,不一样的感觉","specs":{"source":"wsxcme","sourceId":"_d-G-GCs_ACrEdsR76Sbd4Rouqlt5JROSawLsFAQ","sourceTagId":80411239,"sourceTagName":"巴宝莉/女包","rawTitle":"橘色平铺细节,这个色搭白裙子或者黑色衣服都很合适,不一样的感觉"},"price":null,"currency":"CNY","moq":1,"category":"burberry-women-bags","status":"active","alibaba_url":null,"images":["https://xcimg.szwego.com/20220808/i1659956674_1405_0.jpg","https://xcimg.szwego.com/20220808/i1659956674_9071_1.jpg","https://xcimg.szwego.com/20220808/i1659956674_6533_2.jpg","https://xcimg.szwego.com/20220808/i1659956674_4180_3.jpg","https://xcimg.szwego.com/20220808/i1659956674_621_4.jpg"],"created_at":"2025-01-20T12:43:24.110Z"},{"id":"item-2aef599761bf","sku":"_dpHpHh9fNxDVk5vDCVZUMrewZEJFpiyM_x4u4cg","name_en":"Burberry Women Bags","name_cn":"黑色平铺细节,小小一只非常轻便好背,出游通勤实用又百搭的托特包,这款热度只升不降,长肩带可拆卸的,上身立体抢眼,闭眼入","specs":{"source":"wsxcme","sourceId":"_dpHpHh9fNxDVk5vDCVZUMrewZEJFpiyM_x4u4cg","sourceTagId":80411239,"sourceTagName":"巴宝莉/女包","rawTitle":"黑色平铺细节,小小一只非常轻便好背,出游通勤实用又百搭的托特包,这款热度只升不降,长肩带可拆卸的,上身立体抢眼,闭眼入"},"price":null,"currency":"CNY","moq":1,"category":"burberry-women-bags","status":"active","alibaba_url":null,"images":["https://xcimg.szwego.com/20220808/i1659956440_4723_0.jpg","https://xcimg.szwego.com/20220808/i1659956440_7431_1.jpg","https://xcimg.szwego.com/20220808/i1659956440_6962_2.jpg","https://xcimg.szwego.com/20220808/i1659956440_3278_3.jpg","https://xcimg.szwego.com/20220808/i1659956440_5847_4.jpg"],"created_at":"2025-01-20T12:43:24.109Z"},{"id":"item-e81b168a0a8a","sku":"_dgSgSxq1KciALVMJeoMsLwbQ9u4YE8H3fVGngJA","name_en":"B家迷你格纹水桶包,选用涂层棉质混纺面料打造。于意利工坊精制而成,装饰 Bur 格纹印花。包型柔软立挺,内衬为棉质面料。搭配抽绳开合,融入皮革盾牌栓扣设计。可使用顶部提柄手拎,或以可拆式肩背带缔造斜背造型。顶部皮革提柄.可拆可调式皮革斜背带.抽绳开合.手绘涂漆边缘. 光泽金属配件.棉质内衬.尺寸16.5 x 11 x 18.5cm","name_cn":"B家迷你格纹水桶包,选用涂层棉质混纺面料打造。于意利工坊精制而成,装饰 Bur 格纹印花。包型柔软立挺,内衬为棉质面料。搭配抽绳开合,融入皮革盾牌栓扣设计。可使用顶部提柄手拎,或以可拆式肩背带缔造斜背造型。顶部皮革提柄.可拆可调式皮革斜背带.抽绳开合.手绘涂漆边缘. 光泽金属配件.棉质内衬.尺寸16.5 x 11 x 18.5cm","specs":{"source":"wsxcme","sourceId":"_dgSgSxq1KciALVMJeoMsLwbQ9u4YE8H3fVGngJA","sourceTagId":80411239,"sourceTagName":"巴宝莉/女包","dimensions":{"lengthCm":16.5,"heightCm":11,"widthCm":18.5},"rawTitle":"B家迷你格纹水桶包,选用涂层棉质混纺面料打造。于意利工坊精制而成,装饰 Bur 格纹印花。包型柔软立挺,内衬为棉质面料。搭配抽绳开合,融入皮革盾牌栓扣设计。可使用顶部提柄手拎,或以可拆式肩背带缔造斜背造型。顶部皮革提柄.可拆可调式皮革斜背带.抽绳开合.手绘涂漆边缘. 光泽金属配件.棉质内衬.尺寸16.5 x 11 x 18.5cm"},"price":null,"currency":"CNY","moq":1,"category":"burberry-women-bags","status":"active","alibaba_url":null,"images":["https://xcimg.szwego.com/img/f65960ba/20240830/a1725010167053_1353.jpg","https://xcimg.szwego.com/img/f65960ba/20240830/a1725010166915_6538.jpg","https://xcimg.szwego.com/img/f65960ba/20240830/a1725010166867_0501.jpg","https://xcimg.szwego.com/img/f65960ba/20240830/a1725010167029_1343.jpg","https://xcimg.szwego.com/img/f65960ba/20240830/a1725010167102_8675.jpg","https://xcimg.szwego.com/img/f65960ba/20240830/a1725010167056_8764.jpg","https://xcimg.szwego.com/img/f65960ba/20240830/a1725010167839_1346.jpg","https://xcimg.szwego.com/img/f65960ba/20240830/a1725010167807_6632.jpg","https://xcimg.szwego.com/img/f65960ba/20240830/a1725010167819_4241.jpg"],"created_at":"2025-01-20T12:43:24.108Z"},{"id":"item-3461f0f9780a","sku":"_dFxFx70etLtWJBsK_L_gCu8IzevnNdzy-w9tUrg","name_en":"B家精巧的斜背包,选用粒纹皮革与 Vintage 复古格纹打造,设有徽标镌刻按扣。搭配可拆式背带,点缀提花精纺的品牌徽标。随心变换为肩背包或手拿包造型。尺寸:W25 x H18 x D8.5cm","name_cn":"B家精巧的斜背包,选用粒纹皮革与 Vintage 复古格纹打造,设有徽标镌刻按扣。搭配可拆式背带,点缀提花精纺的品牌徽标。随心变换为肩背包或手拿包造型。尺寸:W25 x H18 x D8.5cm","specs":{"source":"wsxcme","sourceId":"_dFxFx70etLtWJBsK_L_gCu8IzevnNdzy-w9tUrg","sourceTagId":80411239,"sourceTagName":"巴宝莉/女包","rawTitle":"B家精巧的斜背包,选用粒纹皮革与 Vintage 复古格纹打造,设有徽标镌刻按扣。搭配可拆式背带,点缀提花精纺的品牌徽标。随心变换为肩背包或手拿包造型。尺寸:W25 x H18 x D8.5cm"},"price":null,"currency":"CNY","moq":1,"category":"burberry-women-bags","status":"active","alibaba_url":null,"images":["https://xcimg.szwego.com/img/f65960ba/20240831/a1725075538836_1275.jpg","https://xcimg.szwego.com/img/f65960ba/20240831/a1725075538984_8253.jpg","https://xcimg.szwego.com/img/f65960ba/20240831/a1725075538879_0368.jpg","https://xcimg.szwego.com/img/f65960ba/20240831/a1725075538988_8437.jpg","https://xcimg.szwego.com/img/f65960ba/20240831/a1725075539081_6120.jpg","https://xcimg.szwego.com/img/f65960ba/20240831/a1725075538951_3084.jpg","https://xcimg.szwego.com/img/f65960ba/20240831/a1725075539748_2717.jpg","https://xcimg.szwego.com/img/f65960ba/20240831/a1725075539832_6865.jpg","https://xcimg.szwego.com/img/f65960ba/20240831/a1725075539749_3350.jpg"],"created_at":"2025-01-20T12:43:24.107Z"},{"id":"item-3f135cd4a0b6","sku":"_diBiB4QY4UgSugmgAhswzurE-vBjl8m-9xS-KRA","name_en":"平铺实拍细节,小牛皮材质的包包质感很强,包身挺括有型不软不皱,精细的重工明线设计,TB的Logo真心好看,简洁大方又有辨识度","name_cn":"平铺实拍细节,小牛皮材质的包包质感很强,包身挺括有型不软不皱,精细的重工明线设计,TB的Logo真心好看,简洁大方又有辨识度","specs":{"source":"wsxcme","sourceId":"_diBiB4QY4UgSugmgAhswzurE-vBjl8m-9xS-KRA","sourceTagId":80411239,"sourceTagName":"巴宝莉/女包","rawTitle":"平铺实拍细节,小牛皮材质的包包质感很强,包身挺括有型不软不皱,精细的重工明线设计,TB的Logo真心好看,简洁大方又有辨识度"},"price":null,"currency":"CNY","moq":1,"category":"burberry-women-bags","status":"active","alibaba_url":null,"images":["https://xcimg.szwego.com/20220517/i1652775990_3617_0.jpg","https://xcimg.szwego.com/20220517/i1652775990_4604_1.jpg","https://xcimg.szwego.com/20220517/i1652775990_3670_2.jpg","https://xcimg.szwego.com/20220517/i1652775990_2393_3.jpg","https://xcimg.szwego.com/20220517/i1652775990_9820_4.jpg","https://xcimg.szwego.com/20220517/i1652775990_5223_5.jpg"],"created_at":"2025-01-20T12:43:24.106Z"},{"id":"item-929ec20ff525","sku":"_dfYfYn92WcgFI4hWvRJ9uw2VBPjrDCQeYBLXutA","name_en":"平铺细节简单看一下, 小牛皮材质的包包质感很强,包身挺括有型不软不皱,精细的重工明线设计,TB的Logo真心好看,简洁大方又有辨识度,","name_cn":"平铺细节简单看一下, 小牛皮材质的包包质感很强,包身挺括有型不软不皱,精细的重工明线设计,TB的Logo真心好看,简洁大方又有辨识度,","specs":{"source":"wsxcme","sourceId":"_dfYfYn92WcgFI4hWvRJ9uw2VBPjrDCQeYBLXutA","sourceTagId":80411239,"sourceTagName":"巴宝莉/女包","rawTitle":"平铺细节简单看一下, 小牛皮材质的包包质感很强,包身挺括有型不软不皱,精细的重工明线设计,TB的Logo真心好看,简洁大方又有辨识度,"},"price":null,"currency":"CNY","moq":1,"category":"burberry-women-bags","status":"active","alibaba_url":null,"images":["https://xcimg.szwego.com/20220530/i1653910031_7412_2.jpg","https://xcimg.szwego.com/20220530/i1653910031_5480_1.jpg","https://xcimg.szwego.com/20220530/i1653910031_1904_3.jpg","https://xcimg.szwego.com/20220530/i1653910031_80_4.jpg","https://xcimg.szwego.com/20220530/i1653910031_6759_5.jpg","https://xcimg.szwego.com/20220530/i1653910031_4981_6.jpg","https://xcimg.szwego.com/20220530/i1653910031_8169_7.jpg"],"created_at":"2025-01-20T12:43:24.105Z"},{"id":"item-616c1fcb44d2","sku":"_duSuSImMMqTI_0nZUs0s8qoguaHV6CAOZrI5PzA","name_en":"哇哇哇哇哇👍超多隔层 新款格纹军旅背包来咯✌🏻 搭配B字型拉链头 侧边各有一个收紧口袋 方便放水瓶✔️包身设有4个外口袋😘 内有两个隔层❤哇... 容纳着莘莘学子们知识的课本,最主要是能归类分开装👍方便👍文件或笔记本电脑,统统给容纳上👍提手也设计的特别好 拎多重都不勒手 手柄垫有舒适的高雅胶棉","name_cn":"哇哇哇哇哇👍超多隔层 新款格纹军旅背包来咯✌🏻 搭配B字型拉链头 侧边各有一个收紧口袋 方便放水瓶✔️包身设有4个外口袋😘 内有两个隔层❤哇... 容纳着莘莘学子们知识的课本,最主要是能归类分开装👍方便👍文件或笔记本电脑,统统给容纳上👍提手也设计的特别好 拎多重都不勒手 手柄垫有舒适的高雅胶棉\n材料:%意大利进口纯棉/进口小牛皮!\n学子们必备款👍出差旅游必备款👍日常工作必备款👍尺寸31✕16✕46cm","specs":{"source":"wsxcme","sourceId":"_duSuSImMMqTI_0nZUs0s8qoguaHV6CAOZrI5PzA","sourceTagId":80411239,"sourceTagName":"巴宝莉/女包","rawTitle":"哇哇哇哇哇👍超多隔层 新款格纹军旅背包来咯✌🏻 搭配B字型拉链头 侧边各有一个收紧口袋 方便放水瓶✔️包身设有4个外口袋😘 内有两个隔层❤哇... 容纳着莘莘学子们知识的课本,最主要是能归类分开装👍方便👍文件或笔记本电脑,统统给容纳上👍提手也设计的特别好 拎多重都不勒手 手柄垫有舒适的高雅胶棉\n材料:%意大利进口纯棉/进口小牛皮!\n学子们必备款👍出差旅游必备款👍日常工作必备款👍尺寸31✕16✕46cm"},"price":null,"currency":"CNY","moq":1,"category":"burberry-women-bags","status":"active","alibaba_url":null,"images":["https://xcimg.szwego.com/img/d5e7a5ce/20241001/a1727763269138_0254.jpg","https://xcimg.szwego.com/img/d5e7a5ce/20241001/a1727763269137_6808.jpg","https://xcimg.szwego.com/img/d5e7a5ce/20241001/a1727763269118_5162.jpg","https://xcimg.szwego.com/img/d5e7a5ce/20241001/a1727763269138_5555.jpg","https://xcimg.szwego.com/img/d5e7a5ce/20241001/a1727763269139_6870.jpg","https://xcimg.szwego.com/img/d5e7a5ce/20241001/a1727763269141_7443.jpg","https://xcimg.szwego.com/img/d5e7a5ce/20241001/a1727763270046_8005.jpg","https://xcimg.szwego.com/img/d5e7a5ce/20241001/a1727763270038_8412.jpg","https://xcimg.szwego.com/img/d5e7a5ce/20241001/a1727763270042_4710.jpg"],"created_at":"2025-01-20T12:43:24.104Z"},{"id":"item-41d5f26c341d","sku":"_ddbdbiDirt7L1ruE-k4o5ZGhI_2_GS__D3f3qQQ","name_en":"哇哇哇哇哇👍超多隔层 新款格纹军旅背包来咯✌🏻 搭配B字型拉链头 侧边各有一个收紧口袋 方便放水瓶✔️包身设有4个外口袋😘 内有两个隔层❤哇... 容纳着莘莘学子们知识的课本,最主要是能归类分开装👍方便👍文件或笔记本电脑,统统给容纳上👍提手也设计的特别好 拎多重都不勒手 手柄垫有舒适的高雅胶棉","name_cn":"哇哇哇哇哇👍超多隔层 新款格纹军旅背包来咯✌🏻 搭配B字型拉链头 侧边各有一个收紧口袋 方便放水瓶✔️包身设有4个外口袋😘 内有两个隔层❤哇... 容纳着莘莘学子们知识的课本,最主要是能归类分开装👍方便👍文件或笔记本电脑,统统给容纳上👍提手也设计的特别好 拎多重都不勒手 手柄垫有舒适的高雅胶棉\n材料:%意大利进口纯棉/进口小牛皮!\n学子们必备款👍出差旅游必备款👍日常工作必备款👍尺寸31✕16✕46cm","specs":{"source":"wsxcme","sourceId":"_ddbdbiDirt7L1ruE-k4o5ZGhI_2_GS__D3f3qQQ","sourceTagId":80411239,"sourceTagName":"巴宝莉/女包","rawTitle":"哇哇哇哇哇👍超多隔层 新款格纹军旅背包来咯✌🏻 搭配B字型拉链头 侧边各有一个收紧口袋 方便放水瓶✔️包身设有4个外口袋😘 内有两个隔层❤哇... 容纳着莘莘学子们知识的课本,最主要是能归类分开装👍方便👍文件或笔记本电脑,统统给容纳上👍提手也设计的特别好 拎多重都不勒手 手柄垫有舒适的高雅胶棉\n材料:%意大利进口纯棉/进口小牛皮!\n学子们必备款👍出差旅游必备款👍日常工作必备款👍尺寸31✕16✕46cm"},"price":null,"currency":"CNY","moq":1,"category":"burberry-women-bags","status":"active","alibaba_url":null,"images":["https://xcimg.szwego.com/img/d5e7a5ce/20241001/a1727763207712_2125.jpg","https://xcimg.szwego.com/img/d5e7a5ce/20241001/a1727763207697_7806.jpg","https://xcimg.szwego.com/img/d5e7a5ce/20241001/a1727763207714_0201.jpg","https://xcimg.szwego.com/img/d5e7a5ce/20241001/a1727763207710_2350.jpg","https://xcimg.szwego.com/img/d5e7a5ce/20241001/a1727763207704_3065.jpg","https://xcimg.szwego.com/img/d5e7a5ce/20241001/a1727763207714_3172.jpg","https://xcimg.szwego.com/img/d5e7a5ce/20241001/a1727763208859_8224.jpg","https://xcimg.szwego.com/img/d5e7a5ce/20241001/a1727763208860_0051.jpg","https://xcimg.szwego.com/img/d5e7a5ce/20241001/a1727763208862_4052.jpg"],"created_at":"2025-01-20T12:43:24.103Z"},{"id":"item-d8aa2490284c","sku":"_db7b7wpnCsxSVjNrbu4tn5nv7j7T_yjl-gmstnw","name_en":"Burberry Women Bags","name_cn":"小熊🐻书包🎒发货实拍","specs":{"source":"wsxcme","sourceId":"_db7b7wpnCsxSVjNrbu4tn5nv7j7T_yjl-gmstnw","sourceTagId":80411239,"sourceTagName":"巴宝莉/女包","rawTitle":"小熊🐻书包🎒发货实拍"},"price":null,"currency":"CNY","moq":1,"category":"burberry-women-bags","status":"active","alibaba_url":null,"images":["https://xcimg.szwego.com/img/d5e7a5ce/20240930/a1727677410845_6740.jpg","https://xcimg.szwego.com/img/d5e7a5ce/20240930/a1727677410844_3268.jpg","https://xcimg.szwego.com/img/d5e7a5ce/20240930/a1727677413756_0253.jpg","https://xcimg.szwego.com/img/d5e7a5ce/20240930/a1727677410840_5424.jpg","https://xcimg.szwego.com/img/d5e7a5ce/20240930/a1727677410834_7703.jpg","https://xcimg.szwego.com/img/d5e7a5ce/20240930/a1727677410843_2302.jpg","https://xcimg.szwego.com/img/d5e7a5ce/20240930/a1727677410837_3652.jpg","https://xcimg.szwego.com/img/d5e7a5ce/20240930/a1727677411692_7120.jpg","https://xcimg.szwego.com/img/d5e7a5ce/20240930/a1727677411705_0642.jpg"],"created_at":"2025-01-20T12:43:24.102Z"},{"id":"item-944a9d215211","sku":"_du_u_nwwSWsAt5vj_Ybmg7AcWlUdDkFRr8QR_8w","name_en":"平铺实拍细节,独家款桦木棕格纹波士顿,配有长肩带单肩斜挎手拎手提都可以,pvc材质手感超级好,包身轻便,实物更有质感很高级,跟mini一个渠道的,百分百纯原!","name_cn":"平铺实拍细节,独家款桦木棕格纹波士顿,配有长肩带单肩斜挎手拎手提都可以,pvc材质手感超级好,包身轻便,实物更有质感很高级,跟mini一个渠道的,百分百纯原!","specs":{"source":"wsxcme","sourceId":"_du_u_nwwSWsAt5vj_Ybmg7AcWlUdDkFRr8QR_8w","sourceTagId":80411239,"sourceTagName":"巴宝莉/女包","rawTitle":"平铺实拍细节,独家款桦木棕格纹波士顿,配有长肩带单肩斜挎手拎手提都可以,pvc材质手感超级好,包身轻便,实物更有质感很高级,跟mini一个渠道的,百分百纯原!"},"price":null,"currency":"CNY","moq":1,"category":"burberry-women-bags","status":"active","alibaba_url":null,"images":["https://xcimg.szwego.com/20221201/i1669893529_3312_0.jpg","https://xcimg.szwego.com/20221201/i1669893529_898_1.jpg","https://xcimg.szwego.com/20221201/i1669893529_488_2.jpg","https://xcimg.szwego.com/20221201/i1669893529_4319_3.jpg","https://xcimg.szwego.com/20221201/i1669893529_3710_4.jpg"],"created_at":"2025-01-20T12:43:24.101Z"}],"page":255,"pageSize":24,"total":10075,"totalPages":420}
