{"items":[{"id":"item-faef69e08dea","sku":"_dx1x1Z0rHmU4pWdzeoHg0yELfZmuVf8X3ChL-LQ","name_en":"Saint Laurent Women Bags","name_cn":"白色鳄鱼纹金扣·\nCASSANDRE _链条包 超级实用的一款小包,意大利进口原厂鳄鱼纹牛皮,里外全皮。经典金属logo彰显个性,翻盖设计确保使用的安全性。肩带可拆卸,包包内设有十个卡片槽,一个纸币隔层,两个隔层,一个拉链内袋,装进所有!\n型号:743364\n尺寸:23x14x3cm \n肩带长度:47cm","specs":{"source":"wsxcme","sourceId":"_dx1x1Z0rHmU4pWdzeoHg0yELfZmuVf8X3ChL-LQ","sourceTagId":47002761,"sourceTagName":"圣罗兰/女包","modelNumber":"743364","dimensions":{"lengthCm":23,"heightCm":14,"widthCm":3},"rawTitle":"白色鳄鱼纹金扣·\nCASSANDRE _链条包 超级实用的一款小包,意大利进口原厂鳄鱼纹牛皮,里外全皮。经典金属logo彰显个性,翻盖设计确保使用的安全性。肩带可拆卸,包包内设有十个卡片槽,一个纸币隔层,两个隔层,一个拉链内袋,装进所有!\n型号:743364\n尺寸:23x14x3cm \n肩带长度:47cm"},"price":null,"currency":"CNY","moq":1,"category":"ysl-women-bags","status":"active","alibaba_url":null,"images":["https://xcimg.szwego.com/img/f8c0bdc9/20250107/i1736242357331_3385_0_0.jpg","https://xcimg.szwego.com/img/f8c0bdc9/20250107/i1736242357270_2170_0_1.jpg","https://xcimg.szwego.com/img/f8c0bdc9/20250107/i1736242357147_1849_0_2.jpg","https://xcimg.szwego.com/img/f8c0bdc9/20250107/i1736242357596_6527_0_3.jpg","https://xcimg.szwego.com/img/f8c0bdc9/20250107/i1736242357208_1348_0_4.jpg","https://xcimg.szwego.com/img/f8c0bdc9/20250107/i1736242357459_6770_0_5.jpg","https://xcimg.szwego.com/img/f8c0bdc9/20250107/i1736242357394_9041_0_6.jpg","https://xcimg.szwego.com/img/f8c0bdc9/20250107/i1736242357531_2379_0_7.jpg","https://xcimg.szwego.com/img/f8c0bdc9/20250107/i1736242357082_686_0_8.jpg"],"created_at":"2026-06-29T10:48:59.209Z"},{"id":"item-8f31635bb399","sku":"_dwFwFk5AsbXCxz9ZnS21wkrjx2DNE06yaNN8o6Q","name_en":"看起来像巧克力的Chain wallet!","name_cn":"看起来像巧克力的Chain wallet!","specs":{"source":"wsxcme","sourceId":"_dwFwFk5AsbXCxz9ZnS21wkrjx2DNE06yaNN8o6Q","sourceTagId":47002761,"sourceTagName":"圣罗兰/女包","rawTitle":"看起来像巧克力的Chain wallet!"},"price":null,"currency":"CNY","moq":1,"category":"ysl-women-bags","status":"active","alibaba_url":null,"images":["https://xcimg.szwego.com/20230720/i1689850056_9474_0.jpg","https://xcimg.szwego.com/20230720/i1689850056_2239_1.jpg","https://xcimg.szwego.com/20230720/i1689850056_4455_2.jpg","https://xcimg.szwego.com/20230720/i1689850056_1273_3.jpg"],"created_at":"2026-06-29T10:48:59.199Z"},{"id":"item-32ab6b3fd2f9","sku":"_dDADAUhegNGAu3wDv8z5xkITwXJ8fxmjmUVPkxA","name_en":"Saint Laurent Women Bags","name_cn":"小羊皮的高级质感 爱不释手","specs":{"source":"wsxcme","sourceId":"_dDADAUhegNGAu3wDv8z5xkITwXJ8fxmjmUVPkxA","sourceTagId":47002761,"sourceTagName":"圣罗兰/女包","rawTitle":"小羊皮的高级质感 爱不释手"},"price":null,"currency":"CNY","moq":1,"category":"ysl-women-bags","status":"active","alibaba_url":null,"images":["https://xcimg.szwego.com/20230720/i1689850017_7472_0.jpg","https://xcimg.szwego.com/20230720/i1689850017_7929_1.jpg","https://xcimg.szwego.com/20230720/i1689850017_8102_2.jpg","https://xcimg.szwego.com/20230720/i1689850017_1843_3.jpg","https://xcimg.szwego.com/20230720/i1689850017_9396_4.jpg","https://xcimg.szwego.com/20230720/i1689850017_1708_5.jpg","https://xcimg.szwego.com/20230720/i1689850017_2066_6.jpg","https://xcimg.szwego.com/20230720/i1689850017_4342_7.jpg"],"created_at":"2026-06-29T10:48:59.189Z"},{"id":"item-223996cdc49f","sku":"_dnKnKGFQc2l8OIhneidB7YPteNOkvzS4ycNNWLg","name_en":"Saint Laurent Women Bags","name_cn":"格纹链条包 复古潮流","specs":{"source":"wsxcme","sourceId":"_dnKnKGFQc2l8OIhneidB7YPteNOkvzS4ycNNWLg","sourceTagId":47002761,"sourceTagName":"圣罗兰/女包","rawTitle":"格纹链条包 复古潮流"},"price":null,"currency":"CNY","moq":1,"category":"ysl-women-bags","status":"active","alibaba_url":null,"images":["https://xcimg.szwego.com/20230720/i1689849940_803_0.jpg","https://xcimg.szwego.com/20230720/i1689849940_6989_1.jpg","https://xcimg.szwego.com/20230720/i1689849940_7587_2.jpg","https://xcimg.szwego.com/20230720/i1689849940_6932_3.jpg"],"created_at":"2026-06-29T10:48:59.179Z"},{"id":"item-1d54c987fbb2","sku":"_dkekem8_Raw87ozF65ObXbO7tqZ5vHeV7x7fGsw","name_en":"Saint Laurent Women Bags","name_cn":"官网图_","specs":{"source":"wsxcme","sourceId":"_dkekem8_Raw87ozF65ObXbO7tqZ5vHeV7x7fGsw","sourceTagId":47002761,"sourceTagName":"圣罗兰/女包","rawTitle":"官网图_"},"price":null,"currency":"CNY","moq":1,"category":"ysl-women-bags","status":"active","alibaba_url":null,"images":["https://xcimg.szwego.com/20230720/i1689849817_9871_0.jpg","https://xcimg.szwego.com/20230720/i1689849817_9590_1.jpg","https://xcimg.szwego.com/20230720/i1689849817_4098_2.jpg","https://xcimg.szwego.com/20230720/i1689849817_5201_3.jpg","https://xcimg.szwego.com/20230720/i1689849817_9290_4.jpg","https://xcimg.szwego.com/20230720/i1689849817_4675_5.jpg"],"created_at":"2026-06-29T10:48:59.169Z"},{"id":"item-56f94d273c81","sku":"_dm9m9vYyFzC__3aTXiN3aUyWo9Z_9J4iiH59yZw","name_en":"链条可拆卸 参加party当手拿包 又是一种新风格","name_cn":"链条可拆卸 参加party当手拿包 又是一种新风格","specs":{"source":"wsxcme","sourceId":"_dm9m9vYyFzC__3aTXiN3aUyWo9Z_9J4iiH59yZw","sourceTagId":47002761,"sourceTagName":"圣罗兰/女包","rawTitle":"链条可拆卸 参加party当手拿包 又是一种新风格"},"price":null,"currency":"CNY","moq":1,"category":"ysl-women-bags","status":"active","alibaba_url":null,"images":["https://xcimg.szwego.com/imgHD/f8c0bdc9/20250328/cmp_i1743146423919_9315_0_0.jpg","https://xcimg.szwego.com/imgHD/f8c0bdc9/20250328/cmp_i1743146423957_3555_0_1.jpg","https://xcimg.szwego.com/imgHD/f8c0bdc9/20250328/cmp_i1743146423918_3991_0_2.jpg"],"created_at":"2026-06-29T10:48:59.159Z"},{"id":"item-e07b67bdf9ea","sku":"_dk0k0YbXQ-wC70sppgXIz6e6jpIxlFHAgYoCWwA","name_en":"细节po","name_cn":"细节po","specs":{"source":"wsxcme","sourceId":"_dk0k0YbXQ-wC70sppgXIz6e6jpIxlFHAgYoCWwA","sourceTagId":47002761,"sourceTagName":"圣罗兰/女包","rawTitle":"细节po"},"price":null,"currency":"CNY","moq":1,"category":"ysl-women-bags","status":"active","alibaba_url":null,"images":["https://xcimg.szwego.com/imgHD/f8c0bdc9/20250328/cmp_i1743146383735_9251_0_0.jpg","https://xcimg.szwego.com/imgHD/f8c0bdc9/20250328/cmp_i1743146386571_7425_0_1.jpg","https://xcimg.szwego.com/imgHD/f8c0bdc9/20250328/cmp_i1743146386527_701_0_2.jpg","https://xcimg.szwego.com/imgHD/f8c0bdc9/20250328/cmp_i1743146384136_3323_0_3.jpg","https://xcimg.szwego.com/imgHD/f8c0bdc9/20250328/cmp_i1743146384195_3079_0_4.jpg","https://xcimg.szwego.com/imgHD/f8c0bdc9/20250328/cmp_i1743146384253_4815_0_5.jpg","https://xcimg.szwego.com/imgHD/f8c0bdc9/20250328/cmp_i1743146384280_1442_0_6.jpg","https://xcimg.szwego.com/imgHD/f8c0bdc9/20250328/cmp_i1743146386602_1284_0_7.jpg"],"created_at":"2026-06-29T10:48:59.149Z"},{"id":"item-bb3af17a24c6","sku":"_drBrB-n4J86sB_t3jEtZgGtuXcIfq2wZk75zxwQ","name_en":"Saint Laurent Women Bags","name_cn":"黑色羊皮绣格子·\nCASSANDRE _链条包 超级实用的一款小包,意大利进口原厂小羊皮,里外全皮。搭配方形格缝精细手工制作,经典金属logo彰显个性,翻盖设计确保使用的安全性。肩带可拆卸,包包内设有十个卡片槽,一个纸币隔层,两个隔层,一个拉链内袋,装进所有!\n型号:743364\n尺寸:23x14x3cm \n肩带长度:47cm","specs":{"source":"wsxcme","sourceId":"_drBrB-n4J86sB_t3jEtZgGtuXcIfq2wZk75zxwQ","sourceTagId":47002761,"sourceTagName":"圣罗兰/女包","modelNumber":"743364","dimensions":{"lengthCm":23,"heightCm":14,"widthCm":3},"rawTitle":"黑色羊皮绣格子·\nCASSANDRE _链条包 超级实用的一款小包,意大利进口原厂小羊皮,里外全皮。搭配方形格缝精细手工制作,经典金属logo彰显个性,翻盖设计确保使用的安全性。肩带可拆卸,包包内设有十个卡片槽,一个纸币隔层,两个隔层,一个拉链内袋,装进所有!\n型号:743364\n尺寸:23x14x3cm \n肩带长度:47cm"},"price":null,"currency":"CNY","moq":1,"category":"ysl-women-bags","status":"active","alibaba_url":null,"images":["https://xcimg.szwego.com/imgHD/f8c0bdc9/20250328/cmp_i1743146325803_1955_0_0.jpg","https://xcimg.szwego.com/imgHD/f8c0bdc9/20250328/cmp_i1743146325792_4153_0_1.jpg","https://xcimg.szwego.com/imgHD/f8c0bdc9/20250328/cmp_i1743146325183_4929_0_2.jpg","https://xcimg.szwego.com/imgHD/f8c0bdc9/20250328/cmp_i1743146325815_272_0_3.jpg","https://xcimg.szwego.com/imgHD/f8c0bdc9/20250328/cmp_i1743146322118_9620_0_4.jpg","https://xcimg.szwego.com/imgHD/f8c0bdc9/20250328/cmp_i1743146322779_9138_0_5.jpg","https://xcimg.szwego.com/imgHD/f8c0bdc9/20250328/cmp_i1743146322240_3371_0_6.jpg","https://xcimg.szwego.com/imgHD/f8c0bdc9/20250328/cmp_i1743146322308_4100_0_7.jpg","https://xcimg.szwego.com/imgHD/f8c0bdc9/20250328/cmp_i1743146322119_1638_0_8.jpg"],"created_at":"2026-06-29T10:48:59.139Z"},{"id":"item-ee77bf1e0e6b","sku":"_dfLfLjveb8u24hzM2Q1R8DMEPttf8MZnkmcVISQ","name_en":"Saint Laurent Women Bags","name_cn":"随拍上身参考","specs":{"source":"wsxcme","sourceId":"_dfLfLjveb8u24hzM2Q1R8DMEPttf8MZnkmcVISQ","sourceTagId":47002761,"sourceTagName":"圣罗兰/女包","rawTitle":"随拍上身参考"},"price":null,"currency":"CNY","moq":1,"category":"ysl-women-bags","status":"active","alibaba_url":null,"images":["https://xcimg.szwego.com/img/f8c0bdc9/20250107/i1736242280183_9423_0_0.jpg","https://xcimg.szwego.com/img/f8c0bdc9/20250107/i1736242280065_1748_0_1.jpg","https://xcimg.szwego.com/img/f8c0bdc9/20250107/i1736242280299_2617_0_2.jpg"],"created_at":"2026-06-29T10:48:59.129Z"},{"id":"item-820105dec0e9","sku":"_daRaRxkvCc0fnqmNCrTOHL1yOLgCs7Ys1udSwCw","name_en":"细节po","name_cn":"细节po","specs":{"source":"wsxcme","sourceId":"_daRaRxkvCc0fnqmNCrTOHL1yOLgCs7Ys1udSwCw","sourceTagId":47002761,"sourceTagName":"圣罗兰/女包","rawTitle":"细节po"},"price":null,"currency":"CNY","moq":1,"category":"ysl-women-bags","status":"active","alibaba_url":null,"images":["https://xcimg.szwego.com/img/f8c0bdc9/20250107/i1736242268005_6281_0_0.jpg","https://xcimg.szwego.com/img/f8c0bdc9/20250107/i1736242267852_9386_0_1.jpg","https://xcimg.szwego.com/img/f8c0bdc9/20250107/i1736242268139_8367_0_2.jpg","https://xcimg.szwego.com/img/f8c0bdc9/20250107/i1736242268069_9316_0_3.jpg","https://xcimg.szwego.com/img/f8c0bdc9/20250107/i1736242267928_4183_0_4.jpg"],"created_at":"2026-06-29T10:48:59.119Z"},{"id":"item-dc42a66b8543","sku":"_dkUkUjOZiWU15HuaQ-LwxjyTe_jQYHh9gmkQJKg","name_en":"Saint Laurent Women Bags","name_cn":"白色羊皮绣格子·\nCASSANDRE _链条包 超级实用的一款小包,意大利进口原厂小羊皮,里外全皮。搭配方形格缝精细手工制作,经典金属logo彰显个性,翻盖设计确保使用的安全性。肩带可拆卸,包包内设有十个卡片槽,一个纸币隔层,两个隔层,一个拉链内袋,装进所有!\n型号:743364\n尺寸:23x14x3cm \n肩带长度:47cm","specs":{"source":"wsxcme","sourceId":"_dkUkUjOZiWU15HuaQ-LwxjyTe_jQYHh9gmkQJKg","sourceTagId":47002761,"sourceTagName":"圣罗兰/女包","modelNumber":"743364","dimensions":{"lengthCm":23,"heightCm":14,"widthCm":3},"rawTitle":"白色羊皮绣格子·\nCASSANDRE _链条包 超级实用的一款小包,意大利进口原厂小羊皮,里外全皮。搭配方形格缝精细手工制作,经典金属logo彰显个性,翻盖设计确保使用的安全性。肩带可拆卸,包包内设有十个卡片槽,一个纸币隔层,两个隔层,一个拉链内袋,装进所有!\n型号:743364\n尺寸:23x14x3cm \n肩带长度:47cm"},"price":null,"currency":"CNY","moq":1,"category":"ysl-women-bags","status":"active","alibaba_url":null,"images":["https://xcimg.szwego.com/img/f8c0bdc9/20250107/i1736242206811_9606_0_0.jpg","https://xcimg.szwego.com/img/f8c0bdc9/20250107/i1736242206881_1038_0_1.jpg","https://xcimg.szwego.com/img/f8c0bdc9/20250107/i1736242207169_1744_0_2.jpg","https://xcimg.szwego.com/img/f8c0bdc9/20250107/i1736242207302_623_0_3.jpg","https://xcimg.szwego.com/img/f8c0bdc9/20250107/i1736242206741_6533_0_4.jpg","https://xcimg.szwego.com/img/f8c0bdc9/20250107/i1736242207023_9809_0_5.jpg","https://xcimg.szwego.com/img/f8c0bdc9/20250107/i1736242207236_8025_0_6.jpg","https://xcimg.szwego.com/img/f8c0bdc9/20250107/i1736242206951_7243_0_7.jpg","https://xcimg.szwego.com/img/f8c0bdc9/20250107/i1736242207095_1809_0_8.jpg"],"created_at":"2026-06-29T10:48:59.109Z"},{"id":"item-1b175be0d9d4","sku":"_d-I-IgmhIIKlaS_9FtNqsWVsFxIhQJMmB9BNc4g","name_en":"Saint Laurent Women Bags","name_cn":"酒红色漆皮超级显质感 \n无论是休闲or正装或者小礼裙 都可以完美驾驭","specs":{"source":"wsxcme","sourceId":"_d-I-IgmhIIKlaS_9FtNqsWVsFxIhQJMmB9BNc4g","sourceTagId":47002761,"sourceTagName":"圣罗兰/女包","rawTitle":"酒红色漆皮超级显质感 \n无论是休闲or正装或者小礼裙 都可以完美驾驭"},"price":null,"currency":"CNY","moq":1,"category":"ysl-women-bags","status":"active","alibaba_url":null,"images":["https://xcimg.szwego.com/imgHD/f8c0bdc9/20251104/cmp_i1762245929964_2234_0_0.jpg","https://xcimg.szwego.com/imgHD/f8c0bdc9/20251104/cmp_i1762245929954_4344_0_1.jpg","https://xcimg.szwego.com/imgHD/f8c0bdc9/20251104/cmp_i1762245929931_1086_0_2.jpg","https://xcimg.szwego.com/imgHD/f8c0bdc9/20251104/cmp_i1762245929985_9298_0_3.jpg"],"created_at":"2026-06-29T10:48:59.099Z"},{"id":"item-06608fd9e1c7","sku":"_dKCKCHArur4Dtj4DoEDoOYszsWWgQMvr9dPrSgw","name_en":"细节po","name_cn":"细节po","specs":{"source":"wsxcme","sourceId":"_dKCKCHArur4Dtj4DoEDoOYszsWWgQMvr9dPrSgw","sourceTagId":47002761,"sourceTagName":"圣罗兰/女包","rawTitle":"细节po"},"price":null,"currency":"CNY","moq":1,"category":"ysl-women-bags","status":"active","alibaba_url":null,"images":["https://xcimg.szwego.com/imgHD/f8c0bdc9/20251104/cmp_i1762245914161_1223_0_0.jpg","https://xcimg.szwego.com/imgHD/f8c0bdc9/20251104/cmp_i1762245917164_1545_0_1.jpg","https://xcimg.szwego.com/imgHD/f8c0bdc9/20251104/cmp_i1762245914092_6238_0_2.jpg","https://xcimg.szwego.com/imgHD/f8c0bdc9/20251104/cmp_i1762245917923_5324_0_3.jpg","https://xcimg.szwego.com/imgHD/f8c0bdc9/20251104/cmp_i1762245914007_4402_0_4.jpg","https://xcimg.szwego.com/imgHD/f8c0bdc9/20251104/cmp_i1762245913778_7860_0_5.jpg","https://xcimg.szwego.com/imgHD/f8c0bdc9/20251104/cmp_i1762245917161_8523_0_6.jpg","https://xcimg.szwego.com/imgHD/f8c0bdc9/20251104/cmp_i1762245914156_8134_0_7.jpg"],"created_at":"2026-06-29T10:48:59.089Z"},{"id":"item-f263ef0b0acd","sku":"_dr_r_A9jTSlNg44BnbC3QPw2pBVrfqn3MAwu0YA","name_en":"Saint Laurent Women Bags","name_cn":"枣红漆皮绣格子·\nCASSANDRE _链条包 超级实用的一款小包,意大利进口原厂光面牛皮,里外全皮。搭配方形格缝精细手工制作,经典金属logo彰显个性,翻盖设计确保使用的安全性。肩带可拆卸,包包内设有十个卡片槽,一个纸币隔层,两个隔层,一个拉链内袋,装进所有!\n型号:743364\n尺寸:23x14x3cm \n肩带长度:47cm","specs":{"source":"wsxcme","sourceId":"_dr_r_A9jTSlNg44BnbC3QPw2pBVrfqn3MAwu0YA","sourceTagId":47002761,"sourceTagName":"圣罗兰/女包","modelNumber":"743364","dimensions":{"lengthCm":23,"heightCm":14,"widthCm":3},"rawTitle":"枣红漆皮绣格子·\nCASSANDRE _链条包 超级实用的一款小包,意大利进口原厂光面牛皮,里外全皮。搭配方形格缝精细手工制作,经典金属logo彰显个性,翻盖设计确保使用的安全性。肩带可拆卸,包包内设有十个卡片槽,一个纸币隔层,两个隔层,一个拉链内袋,装进所有!\n型号:743364\n尺寸:23x14x3cm \n肩带长度:47cm"},"price":null,"currency":"CNY","moq":1,"category":"ysl-women-bags","status":"active","alibaba_url":null,"images":["https://xcimg.szwego.com/imgHD/f8c0bdc9/20251104/cmp_i1762245858036_1967_0_0.jpg","https://xcimg.szwego.com/imgHD/f8c0bdc9/20251104/cmp_i1762245860003_5964_0_1.jpg","https://xcimg.szwego.com/imgHD/f8c0bdc9/20251104/cmp_i1762245858112_7486_0_2.jpg","https://xcimg.szwego.com/imgHD/f8c0bdc9/20251104/cmp_i1762245859997_7492_0_3.jpg","https://xcimg.szwego.com/imgHD/f8c0bdc9/20251104/cmp_i1762245860128_8551_0_4.jpg","https://xcimg.szwego.com/imgHD/f8c0bdc9/20251104/cmp_i1762245858152_9092_0_5.jpg","https://xcimg.szwego.com/imgHD/f8c0bdc9/20251104/cmp_i1762245856930_8751_0_6.jpg","https://xcimg.szwego.com/imgHD/f8c0bdc9/20251104/cmp_i1762245858172_4464_0_7.jpg","https://xcimg.szwego.com/imgHD/f8c0bdc9/20251104/cmp_i1762245859966_7445_0_8.jpg"],"created_at":"2026-06-29T10:48:59.079Z"},{"id":"item-353b1a18d077","sku":"_dExExAX4YmGJrgN1WcDPEL_J77Vw8MwJH7_GoYQ","name_en":"Saint Laurent Women Bags","name_cn":"官网图","specs":{"source":"wsxcme","sourceId":"_dExExAX4YmGJrgN1WcDPEL_J77Vw8MwJH7_GoYQ","sourceTagId":47002761,"sourceTagName":"圣罗兰/女包","rawTitle":"官网图"},"price":null,"currency":"CNY","moq":1,"category":"ysl-women-bags","status":"active","alibaba_url":null,"images":["https://xcimg.szwego.com/imgHD/f8c0bdc9/20251104/cmp_i1762247287375_8278_0_0.jpg","https://xcimg.szwego.com/imgHD/f8c0bdc9/20251104/cmp_i1762247287376_6575_0_1.jpg","https://xcimg.szwego.com/imgHD/f8c0bdc9/20251104/cmp_i1762247287376_6628_0_2.jpg","https://xcimg.szwego.com/imgHD/f8c0bdc9/20251104/cmp_i1762247287939_1165_0_3.jpg","https://xcimg.szwego.com/imgHD/f8c0bdc9/20251104/cmp_i1762247287374_204_0_4.jpg","https://xcimg.szwego.com/imgHD/f8c0bdc9/20251104/cmp_i1762247287375_4492_0_5.jpg","https://xcimg.szwego.com/imgHD/f8c0bdc9/20251104/cmp_i1762247287938_8029_0_6.jpg"],"created_at":"2026-06-29T10:48:59.069Z"},{"id":"item-8c1841f7b75e","sku":"_dLbLbdCqrSzBx1Ia21HkUuy5jqVt8V9TMS6SJ1A","name_en":"Saint Laurent Women Bags","name_cn":"方格纹缝线搭配漆皮材质 摩登感十足","specs":{"source":"wsxcme","sourceId":"_dLbLbdCqrSzBx1Ia21HkUuy5jqVt8V9TMS6SJ1A","sourceTagId":47002761,"sourceTagName":"圣罗兰/女包","rawTitle":"方格纹缝线搭配漆皮材质 摩登感十足"},"price":null,"currency":"CNY","moq":1,"category":"ysl-women-bags","status":"active","alibaba_url":null,"images":["https://xcimg.szwego.com/imgHD/f8c0bdc9/20251104/cmp_i1762245652530_7154_0_0.jpg","https://xcimg.szwego.com/imgHD/f8c0bdc9/20251104/cmp_i1762245652483_9788_0_1.jpg","https://xcimg.szwego.com/imgHD/f8c0bdc9/20251104/cmp_i1762245652561_1704_0_2.jpg","https://xcimg.szwego.com/imgHD/f8c0bdc9/20251104/cmp_i1762245652569_7034_0_3.jpg"],"created_at":"2026-06-29T10:48:59.059Z"},{"id":"item-708f392939d7","sku":"_djbjbIkZl60IuP5KsRCsNVQv-oWjR7nJJtIUZ2g","name_en":"细节po","name_cn":"细节po","specs":{"source":"wsxcme","sourceId":"_djbjbIkZl60IuP5KsRCsNVQv-oWjR7nJJtIUZ2g","sourceTagId":47002761,"sourceTagName":"圣罗兰/女包","rawTitle":"细节po"},"price":null,"currency":"CNY","moq":1,"category":"ysl-women-bags","status":"active","alibaba_url":null,"images":["https://xcimg.szwego.com/imgHD/f8c0bdc9/20251104/cmp_i1762245638302_6576_0_0.jpg","https://xcimg.szwego.com/imgHD/f8c0bdc9/20251104/cmp_i1762245636547_3126_0_1.jpg","https://xcimg.szwego.com/imgHD/f8c0bdc9/20251104/cmp_i1762245636404_2644_0_2.jpg","https://xcimg.szwego.com/imgHD/f8c0bdc9/20251104/cmp_i1762245636526_154_0_3.jpg","https://xcimg.szwego.com/imgHD/f8c0bdc9/20251104/cmp_i1762245636535_7706_0_4.jpg","https://xcimg.szwego.com/imgHD/f8c0bdc9/20251104/cmp_i1762245636415_1140_0_6.jpg","https://xcimg.szwego.com/imgHD/f8c0bdc9/20251104/cmp_i1762245638287_6109_0_5.jpg","https://xcimg.szwego.com/imgHD/f8c0bdc9/20251104/cmp_i1762245638304_7414_0_7.jpg"],"created_at":"2026-06-29T10:48:59.049Z"},{"id":"item-70e78606c217","sku":"_dr3r31-2ezRl3K-WH_bOZe-e_JXpqrayQbI_IHQ","name_en":"Saint Laurent Women Bags","name_cn":"黑色漆皮绣格子·\nCASSANDRE _链条包 超级实用的一款小包,意大利进口原厂光面牛皮,里外全皮。搭配方形格缝精细手工制作,经典金属logo彰显个性,翻盖设计确保使用的安全性。肩带可拆卸,包包内设有十个卡片槽,一个纸币隔层,两个隔层,一个拉链内袋,装进所有!\n型号:743364\n尺寸:23x14x3cm \n肩带长度:47cm","specs":{"source":"wsxcme","sourceId":"_dr3r31-2ezRl3K-WH_bOZe-e_JXpqrayQbI_IHQ","sourceTagId":47002761,"sourceTagName":"圣罗兰/女包","modelNumber":"743364","dimensions":{"lengthCm":23,"heightCm":14,"widthCm":3},"rawTitle":"黑色漆皮绣格子·\nCASSANDRE _链条包 超级实用的一款小包,意大利进口原厂光面牛皮,里外全皮。搭配方形格缝精细手工制作,经典金属logo彰显个性,翻盖设计确保使用的安全性。肩带可拆卸,包包内设有十个卡片槽,一个纸币隔层,两个隔层,一个拉链内袋,装进所有!\n型号:743364\n尺寸:23x14x3cm \n肩带长度:47cm"},"price":null,"currency":"CNY","moq":1,"category":"ysl-women-bags","status":"active","alibaba_url":null,"images":["https://xcimg.szwego.com/imgHD/f8c0bdc9/20251104/cmp_i1762245538088_2679_0_0.jpg","https://xcimg.szwego.com/imgHD/f8c0bdc9/20251104/cmp_i1762245538091_2790_0_1.jpg","https://xcimg.szwego.com/imgHD/f8c0bdc9/20251104/cmp_i1762245538090_4995_0_2.jpg","https://xcimg.szwego.com/imgHD/f8c0bdc9/20251104/cmp_i1762245538132_9857_0_3.jpg","https://xcimg.szwego.com/imgHD/f8c0bdc9/20251104/cmp_i1762245540508_8722_0_4.jpg","https://xcimg.szwego.com/imgHD/f8c0bdc9/20251104/cmp_i1762245539966_9683_0_5.jpg","https://xcimg.szwego.com/imgHD/f8c0bdc9/20251104/cmp_i1762245537419_7144_0_6.jpg","https://xcimg.szwego.com/imgHD/f8c0bdc9/20251104/cmp_i1762245540481_4808_0_7.jpg","https://xcimg.szwego.com/imgHD/f8c0bdc9/20251104/cmp_i1762245540459_1474_0_8.jpg"],"created_at":"2026-06-29T10:48:59.039Z"},{"id":"item-99f7eeea491d","sku":"_do-o-NLO1dvi_D0GEtvZBF7I38vDpfnIfHDnjhA","name_en":"Saint Laurent Women Bags","name_cn":"📸捕捉一个镜头感满分的黑金信封包","specs":{"source":"wsxcme","sourceId":"_do-o-NLO1dvi_D0GEtvZBF7I38vDpfnIfHDnjhA","sourceTagId":47002761,"sourceTagName":"圣罗兰/女包","rawTitle":"📸捕捉一个镜头感满分的黑金信封包"},"price":null,"currency":"CNY","moq":1,"category":"ysl-women-bags","status":"active","alibaba_url":null,"images":["https://xcimg.szwego.com/imgHD/f8c0bdc9/20250822/cmp_i1755849652695_4245_0_0.jpg","https://xcimg.szwego.com/imgHD/f8c0bdc9/20250822/cmp_i1755849652695_1895_0_1.jpg","https://xcimg.szwego.com/imgHD/f8c0bdc9/20250822/cmp_i1755849652695_8687_0_2.jpg","https://xcimg.szwego.com/imgHD/f8c0bdc9/20250822/cmp_i1755849652695_218_0_3.jpg"],"created_at":"2026-06-29T10:48:59.029Z"},{"id":"item-491f7ca6cd29","sku":"_dmHmH1Dpw_nwUFxFMC7EsYYpLkGh9v2-fY32NdQ","name_en":"Saint Laurent Women Bags","name_cn":"黑色\nEnvelope_鱼子酱纹路信封包.超级实用的一款小包,最经典的款式,意大利进口牛皮配上精细手工制作;定制金属Y家logo彰显个性;翻盖设计确保使用的安全性;小包包大容量,包内设有20个卡片槽,两个纸币隔层,两个中央隔层,一个拉链内袋,装尽所有!\n型号:620280\n尺寸:22.5x14x4cm","specs":{"source":"wsxcme","sourceId":"_dmHmH1Dpw_nwUFxFMC7EsYYpLkGh9v2-fY32NdQ","sourceTagId":47002761,"sourceTagName":"圣罗兰/女包","modelNumber":"620280","dimensions":{"lengthCm":22.5,"heightCm":14,"widthCm":4},"rawTitle":"黑色\nEnvelope_鱼子酱纹路信封包.超级实用的一款小包,最经典的款式,意大利进口牛皮配上精细手工制作;定制金属Y家logo彰显个性;翻盖设计确保使用的安全性;小包包大容量,包内设有20个卡片槽,两个纸币隔层,两个中央隔层,一个拉链内袋,装尽所有!\n型号:620280\n尺寸:22.5x14x4cm"},"price":null,"currency":"CNY","moq":1,"category":"ysl-women-bags","status":"active","alibaba_url":null,"images":["https://xcimg.szwego.com/imgHD/f8c0bdc9/20250822/cmp_i1755849610123_4199_0_0.jpg","https://xcimg.szwego.com/imgHD/f8c0bdc9/20250822/cmp_i1755849610125_8515_0_1.jpg","https://xcimg.szwego.com/imgHD/f8c0bdc9/20250822/cmp_i1755849609386_2100_0_2.jpg","https://xcimg.szwego.com/imgHD/f8c0bdc9/20250822/cmp_i1755849610125_4005_0_3.jpg","https://xcimg.szwego.com/imgHD/f8c0bdc9/20250822/cmp_i1755849609386_4535_0_4.jpg","https://xcimg.szwego.com/imgHD/f8c0bdc9/20250822/cmp_i1755849609386_8925_0_5.jpg","https://xcimg.szwego.com/imgHD/f8c0bdc9/20250822/cmp_i1755849609386_665_0_6.jpg","https://xcimg.szwego.com/imgHD/f8c0bdc9/20250822/cmp_i1755849610125_4126_0_7.jpg","https://xcimg.szwego.com/imgHD/f8c0bdc9/20250822/cmp_i1755849609385_2536_0_8.jpg"],"created_at":"2026-06-29T10:48:59.019Z"},{"id":"item-391c2ff66b45","sku":"_doRoRQOzYIYEpKXS2arbJA63GV7n4EwEvOL7K0Q","name_en":"Saint Laurent Women Bags","name_cn":"美美的白金配色洋溢着法式的浪漫","specs":{"source":"wsxcme","sourceId":"_doRoRQOzYIYEpKXS2arbJA63GV7n4EwEvOL7K0Q","sourceTagId":47002761,"sourceTagName":"圣罗兰/女包","rawTitle":"美美的白金配色洋溢着法式的浪漫"},"price":null,"currency":"CNY","moq":1,"category":"ysl-women-bags","status":"active","alibaba_url":null,"images":["https://xcimg.szwego.com/imgHD/f8c0bdc9/20250822/cmp_i1755849546273_226_0_0.jpg","https://xcimg.szwego.com/imgHD/f8c0bdc9/20250822/cmp_i1755849546273_8427_0_1.jpg","https://xcimg.szwego.com/imgHD/f8c0bdc9/20250822/cmp_i1755849546273_5393_0_2.jpg","https://xcimg.szwego.com/imgHD/f8c0bdc9/20250822/cmp_i1755849546273_7186_0_3.jpg"],"created_at":"2026-06-29T10:48:59.009Z"},{"id":"item-dc5aa6c56f3f","sku":"_dililoBdoj11t31-CRWWarEGGXexp221QeEjMiA","name_en":"Saint Laurent Women Bags","name_cn":"白色\nEnvelope_鱼子酱纹路信封包.超级实用的一款小包,最经典的款式,意大利进口牛皮配上精细手工制作;定制金属Y家logo彰显个性;翻盖设计确保使用的安全性;小包包大容量,包内设有20个卡片槽,两个纸币隔层,两个中央隔层,一个拉链内袋,装尽所有!\n型号:620280\n尺寸:22.5x14x4cm","specs":{"source":"wsxcme","sourceId":"_dililoBdoj11t31-CRWWarEGGXexp221QeEjMiA","sourceTagId":47002761,"sourceTagName":"圣罗兰/女包","modelNumber":"620280","dimensions":{"lengthCm":22.5,"heightCm":14,"widthCm":4},"rawTitle":"白色\nEnvelope_鱼子酱纹路信封包.超级实用的一款小包,最经典的款式,意大利进口牛皮配上精细手工制作;定制金属Y家logo彰显个性;翻盖设计确保使用的安全性;小包包大容量,包内设有20个卡片槽,两个纸币隔层,两个中央隔层,一个拉链内袋,装尽所有!\n型号:620280\n尺寸:22.5x14x4cm"},"price":null,"currency":"CNY","moq":1,"category":"ysl-women-bags","status":"active","alibaba_url":null,"images":["https://xcimg.szwego.com/imgHD/f8c0bdc9/20250822/cmp_i1755849505903_1810_0_0.jpg","https://xcimg.szwego.com/imgHD/f8c0bdc9/20250822/cmp_i1755849505899_1595_0_1.jpg","https://xcimg.szwego.com/imgHD/f8c0bdc9/20250822/cmp_i1755849505126_1716_0_2.jpg","https://xcimg.szwego.com/imgHD/f8c0bdc9/20250822/cmp_i1755849505126_4984_0_3.jpg","https://xcimg.szwego.com/imgHD/f8c0bdc9/20250822/cmp_i1755849505126_3302_0_4.jpg","https://xcimg.szwego.com/imgHD/f8c0bdc9/20250822/cmp_i1755849505898_9637_0_5.jpg","https://xcimg.szwego.com/imgHD/f8c0bdc9/20250822/cmp_i1755849505126_9669_0_6.jpg","https://xcimg.szwego.com/imgHD/f8c0bdc9/20250822/cmp_i1755849505126_4659_0_7.jpg","https://xcimg.szwego.com/imgHD/f8c0bdc9/20250822/cmp_i1755849505897_2156_0_8.jpg"],"created_at":"2026-06-29T10:48:58.999Z"},{"id":"item-a69e824b459d","sku":"_dcLcLaDUOjTG3B94a11rQ98IRhIV6uzbHuI7VqA","name_en":"Saint Laurent Women Bags","name_cn":"好温柔的杏色信封包\n简约精致 低调又不失柔美感","specs":{"source":"wsxcme","sourceId":"_dcLcLaDUOjTG3B94a11rQ98IRhIV6uzbHuI7VqA","sourceTagId":47002761,"sourceTagName":"圣罗兰/女包","rawTitle":"好温柔的杏色信封包\n简约精致 低调又不失柔美感"},"price":null,"currency":"CNY","moq":1,"category":"ysl-women-bags","status":"active","alibaba_url":null,"images":["https://xcimg.szwego.com/imgHD/f8c0bdc9/20250822/cmp_i1755848995207_5996_0_0.jpg","https://xcimg.szwego.com/imgHD/f8c0bdc9/20250822/cmp_i1755848995207_4376_0_1.jpg","https://xcimg.szwego.com/imgHD/f8c0bdc9/20250822/cmp_i1755848995207_1757_0_2.jpg","https://xcimg.szwego.com/imgHD/f8c0bdc9/20250822/cmp_i1755848995207_8474_0_3.jpg"],"created_at":"2026-06-29T10:48:58.989Z"},{"id":"item-56d3ed9215eb","sku":"_dGFGFKeep2bh02UzMepbA0HfhMWpsUNg8KqtYyQ","name_en":"Saint Laurent Women Bags","name_cn":"杏色\nEnvelope_鱼子酱纹路信封包.超级实用的一款小包,最经典的款式,意大利进口牛皮配上精细手工制作;定制金属Y家logo彰显个性;翻盖设计确保使用的安全性;小包包大容量,包内设有20个卡片槽,两个纸币隔层,两个中央隔层,一个拉链内袋,装尽所有!\n型号:620280\n尺寸:22.5x14x4cm","specs":{"source":"wsxcme","sourceId":"_dGFGFKeep2bh02UzMepbA0HfhMWpsUNg8KqtYyQ","sourceTagId":47002761,"sourceTagName":"圣罗兰/女包","modelNumber":"620280","dimensions":{"lengthCm":22.5,"heightCm":14,"widthCm":4},"rawTitle":"杏色\nEnvelope_鱼子酱纹路信封包.超级实用的一款小包,最经典的款式,意大利进口牛皮配上精细手工制作;定制金属Y家logo彰显个性;翻盖设计确保使用的安全性;小包包大容量,包内设有20个卡片槽,两个纸币隔层,两个中央隔层,一个拉链内袋,装尽所有!\n型号:620280\n尺寸:22.5x14x4cm"},"price":null,"currency":"CNY","moq":1,"category":"ysl-women-bags","status":"active","alibaba_url":null,"images":["https://xcimg.szwego.com/imgHD/f8c0bdc9/20250822/cmp_i1755847777626_5286_0_0.jpg","https://xcimg.szwego.com/imgHD/f8c0bdc9/20250822/cmp_i1755847777628_8931_0_1.jpg","https://xcimg.szwego.com/imgHD/f8c0bdc9/20250822/cmp_i1755847776740_1020_0_2.jpg","https://xcimg.szwego.com/imgHD/f8c0bdc9/20250822/cmp_i1755847777628_4473_0_3.jpg","https://xcimg.szwego.com/imgHD/f8c0bdc9/20250822/cmp_i1755847776740_3818_0_4.jpg","https://xcimg.szwego.com/imgHD/f8c0bdc9/20250822/cmp_i1755847776740_6734_0_5.jpg","https://xcimg.szwego.com/imgHD/f8c0bdc9/20250822/cmp_i1755847776740_1681_0_6.jpg","https://xcimg.szwego.com/imgHD/f8c0bdc9/20250822/cmp_i1755847776740_2827_0_7.jpg","https://xcimg.szwego.com/imgHD/f8c0bdc9/20250822/cmp_i1755847777628_9674_0_8.jpg"],"created_at":"2026-06-29T10:48:58.979Z"}],"page":28,"pageSize":24,"total":10075,"totalPages":420}
