{"items":[{"id":"item-2865344be16c","sku":"_dl1l1OHLXbleh2UmOYbuj9ZIkWqNEBmIhW9wFDg","name_en":"Dior Women Bags","name_cn":"顶级原厂 配全套\n🖤超迷你戴妃包三格🖤 \nDɪᴏʀ ʟᴀᴅʏ Mɪᴄʀᴏ Bᴀɢ\n小小一个好可爱!超mini黑金色的组合简洁、优雅又富有气势,手袋体现了 D 对精致和美丽的深刻洞见。采用羊皮革精心制作,饰以藤格纹缉面线,标志性版型搭配吊饰提升格调。迷你造型,可收纳各种小件随身物品,是晚装造型的理想良伴。\n型号:0856 \n尺寸:12*10*5cm。","specs":{"source":"wsxcme","sourceId":"_dl1l1OHLXbleh2UmOYbuj9ZIkWqNEBmIhW9wFDg","sourceTagId":47002747,"sourceTagName":"迪奥/女包","modelNumber":"0856","dimensions":{"lengthCm":12,"heightCm":10,"widthCm":5},"rawTitle":"顶级原厂 配全套\n🖤超迷你戴妃包三格🖤 \nDɪᴏʀ ʟᴀᴅʏ Mɪᴄʀᴏ Bᴀɢ\n小小一个好可爱!超mini黑金色的组合简洁、优雅又富有气势,手袋体现了 D 对精致和美丽的深刻洞见。采用羊皮革精心制作,饰以藤格纹缉面线,标志性版型搭配吊饰提升格调。迷你造型,可收纳各种小件随身物品,是晚装造型的理想良伴。\n型号:0856 \n尺寸:12*10*5cm。"},"price":null,"currency":"CNY","moq":1,"category":"dior-women-bags","status":"active","alibaba_url":null,"images":["https://xcimg.szwego.com/20210729/i1627567046_3890_0.jpg","https://xcimg.szwego.com/20210729/i1627567046_8194_1.jpg","https://xcimg.szwego.com/20210729/i1627567046_5860_2.jpg","https://xcimg.szwego.com/20210729/i1627567046_9359_3.jpg","https://xcimg.szwego.com/20210729/i1627567046_8013_4.jpg","https://xcimg.szwego.com/20210729/i1627567046_9438_5.jpg","https://xcimg.szwego.com/20210729/i1627567046_129_6.jpg","https://xcimg.szwego.com/20210729/i1627567046_9189_7.jpg","https://xcimg.szwego.com/20210729/i1627567046_1517_8.jpg"],"created_at":"2024-11-11T09:13:17.000Z"},{"id":"item-4954affc6fd8","sku":"_dkMkMEqmUldXc50uxBQJYzU-6FiRHv8s0jShuHg","name_en":"Dior Women Bags","name_cn":"顶级 配全套包装\n迷你漆皮现货!!️\nD-Joy bag漆皮2023款\n时尚果然就是轮回,回归了一把中古戴妃\n长方包形,短链条➕细长肩带直接封神!!\n复古时髦感超强,真是什么场合都可以把住\n绝对是lady中的天花板了,强势出圈啦姐妹们\n\nSize;16*5.5*10cm","specs":{"source":"wsxcme","sourceId":"_dkMkMEqmUldXc50uxBQJYzU-6FiRHv8s0jShuHg","sourceTagId":47002747,"sourceTagName":"迪奥/女包","rawTitle":"顶级 配全套包装\n迷你漆皮现货!!️\nD-Joy bag漆皮2023款\n时尚果然就是轮回,回归了一把中古戴妃\n长方包形,短链条➕细长肩带直接封神!!\n复古时髦感超强,真是什么场合都可以把住\n绝对是lady中的天花板了,强势出圈啦姐妹们\n\nSize;16*5.5*10cm"},"price":null,"currency":"CNY","moq":1,"category":"dior-women-bags","status":"active","alibaba_url":null,"images":["https://xcimg.szwego.com/20230522/i1684734023_9876_0.jpg","https://xcimg.szwego.com/20230522/i1684734023_9597_1.jpg","https://xcimg.szwego.com/20230522/i1684734023_9346_2.jpg","https://xcimg.szwego.com/20230522/i1684734023_769_3.jpg","https://xcimg.szwego.com/20230522/i1684734023_4667_4.jpg","https://xcimg.szwego.com/20230522/i1684734023_247_5.jpg","https://xcimg.szwego.com/20230522/i1684734023_4651_6.jpg","https://xcimg.szwego.com/20230522/i1684734023_22_7.jpg","https://xcimg.szwego.com/20230522/i1684734023_7410_8.jpg"],"created_at":"2024-11-11T09:13:16.999Z"},{"id":"item-d00a0d9828cf","sku":"_dcJcJ06Sz9e5TRxOQz_gYPWwlK7kmExQdels_fQ","name_en":"Dior Women Bags","name_cn":"顶级 配全套包装\n迷你现货!!️\nD-Joy bag漆皮2023款\n时尚果然就是轮回,回归了一把中古戴妃\n长方包形,短链条➕细长肩带直接封神!!\n复古时髦感超强,真是什么场合都可以把住\n绝对是lady中的天花板了,强势出圈啦姐妹们\nSize;16*5.5*10cm","specs":{"source":"wsxcme","sourceId":"_dcJcJ06Sz9e5TRxOQz_gYPWwlK7kmExQdels_fQ","sourceTagId":47002747,"sourceTagName":"迪奥/女包","rawTitle":"顶级 配全套包装\n迷你现货!!️\nD-Joy bag漆皮2023款\n时尚果然就是轮回,回归了一把中古戴妃\n长方包形,短链条➕细长肩带直接封神!!\n复古时髦感超强,真是什么场合都可以把住\n绝对是lady中的天花板了,强势出圈啦姐妹们\nSize;16*5.5*10cm"},"price":null,"currency":"CNY","moq":1,"category":"dior-women-bags","status":"active","alibaba_url":null,"images":["https://xcimg.szwego.com/20230522/i1684734101_3520_0.jpg","https://xcimg.szwego.com/20230522/i1684734101_3990_1.jpg","https://xcimg.szwego.com/20230522/i1684734101_4839_2.jpg","https://xcimg.szwego.com/20230522/i1684734101_2705_3.jpg","https://xcimg.szwego.com/20230522/i1684734101_7334_4.jpg","https://xcimg.szwego.com/20230522/i1684734101_9776_5.jpg","https://xcimg.szwego.com/20230522/i1684734101_9278_6.jpg","https://xcimg.szwego.com/20230522/i1684734101_1282_7.jpg","https://xcimg.szwego.com/20230522/i1684734101_7343_8.jpg"],"created_at":"2024-11-11T09:13:16.998Z"},{"id":"item-6a659860c2b5","sku":"_daUaUwlJlzwGyjj62Rs1GZpa8m2ey40wVdMs_ng","name_en":"Lady 横版戴妃牛仔布","name_cn":"Lady 横版戴妃牛仔布","specs":{"source":"wsxcme","sourceId":"_daUaUwlJlzwGyjj62Rs1GZpa8m2ey40wVdMs_ng","sourceTagId":47002747,"sourceTagName":"迪奥/女包","rawTitle":"Lady 横版戴妃牛仔布"},"price":null,"currency":"CNY","moq":1,"category":"dior-women-bags","status":"active","alibaba_url":null,"images":["https://xcimg.szwego.com/20220813/i1660372094_3462_0.jpg"],"created_at":"2024-11-11T09:13:16.997Z"},{"id":"item-d4ff34741d79","sku":"_drbrbREESI6s0rr94R3oeJzwNNdz6JjCBlme5Tg","name_en":"Lady 横版戴妃牛仔小号","name_cn":"Lady 横版戴妃牛仔小号\n22厘米","specs":{"source":"wsxcme","sourceId":"_drbrbREESI6s0rr94R3oeJzwNNdz6JjCBlme5Tg","sourceTagId":47002747,"sourceTagName":"迪奥/女包","rawTitle":"Lady 横版戴妃牛仔小号\n22厘米"},"price":null,"currency":"CNY","moq":1,"category":"dior-women-bags","status":"active","alibaba_url":null,"images":["https://xcimg.szwego.com/20230511/i1683785992_7949_0.jpg"],"created_at":"2024-11-11T09:13:16.996Z"},{"id":"item-2b052d7d0717","sku":"_dQ3Q38IB3YVepyIG9NvdxOYJDNa3Zxa86UaPq8Q","name_en":"Lady 横版戴妃牛仔布小号","name_cn":"Lady 横版戴妃牛仔布小号\n22厘米","specs":{"source":"wsxcme","sourceId":"_dQ3Q38IB3YVepyIG9NvdxOYJDNa3Zxa86UaPq8Q","sourceTagId":47002747,"sourceTagName":"迪奥/女包","rawTitle":"Lady 横版戴妃牛仔布小号\n22厘米"},"price":null,"currency":"CNY","moq":1,"category":"dior-women-bags","status":"active","alibaba_url":null,"images":["https://xcimg.szwego.com/20230511/i1683786111_8911_0.jpg"],"created_at":"2024-11-11T09:13:16.995Z"},{"id":"item-3ba5004ddc5a","sku":"_di2i2KYjSOOt7W44xoS91ZX2HjX8RRzEIR_N-Xg","name_en":"Dior Women Bags","name_cn":"顶级原厂 配全套包装\n迷你薄荷绿现货!!️\n原厂皮内里配羊筋绒D-Joy bag羊皮2023款时尚果然就是轮回,回归了一把中古戴妃、长方包形,短链条➕细长肩带直接封神!!复古时髦感超强,真是什么场合都可以把住😉绝对是lady中的天花板了,强势出圈啦姐妹们👱‍♀️\nSize;16*5.5*10cm","specs":{"source":"wsxcme","sourceId":"_di2i2KYjSOOt7W44xoS91ZX2HjX8RRzEIR_N-Xg","sourceTagId":47002747,"sourceTagName":"迪奥/女包","rawTitle":"顶级原厂 配全套包装\n迷你薄荷绿现货!!️\n原厂皮内里配羊筋绒D-Joy bag羊皮2023款时尚果然就是轮回,回归了一把中古戴妃、长方包形,短链条➕细长肩带直接封神!!复古时髦感超强,真是什么场合都可以把住😉绝对是lady中的天花板了,强势出圈啦姐妹们👱‍♀️\nSize;16*5.5*10cm"},"price":null,"currency":"CNY","moq":1,"category":"dior-women-bags","status":"active","alibaba_url":null,"images":["https://xcimg.szwego.com/img/2b46f204/20240624/i1719204999_7163_3.jpg","https://xcimg.szwego.com/img/2b46f204/20240624/i1719204999_8890_2.jpg","https://xcimg.szwego.com/img/2b46f204/20240624/i1719204999_7864_8.jpg","https://xcimg.szwego.com/img/2b46f204/20240624/i1719204999_5370_6.jpg","https://xcimg.szwego.com/img/2b46f204/20240624/i1719204999_4678_4.jpg","https://xcimg.szwego.com/img/2b46f204/20240624/i1719204999_8860_5.jpg","https://xcimg.szwego.com/img/2b46f204/20240624/i1719204999_262_7.jpg","https://xcimg.szwego.com/img/2b46f204/20240624/i1719204998_104_0.jpg","https://xcimg.szwego.com/img/2b46f204/20240624/i1719204998_5381_1.jpg"],"created_at":"2024-11-11T09:13:16.994Z"},{"id":"item-da5e657b266f","sku":"_dm0m0AH6i3ZlNrYbvDdyFiOTR_cfbDhzlmXBF6w","name_en":"Dior Women Bags","name_cn":"顶级原厂 配全套包装\n迷你淡黄色现货!!️\n原厂皮内里配羊筋绒D-Joy bag羊皮2023款时尚果然就是轮回,回归了一把中古戴妃、长方包形,短链条➕细长肩带直接封神!!复古时髦感超强,真是什么场合都可以把住😉绝对是lady中的天花板了,强势出圈啦姐妹们👱‍♀️\nSize;16*5.5*10cm","specs":{"source":"wsxcme","sourceId":"_dm0m0AH6i3ZlNrYbvDdyFiOTR_cfbDhzlmXBF6w","sourceTagId":47002747,"sourceTagName":"迪奥/女包","rawTitle":"顶级原厂 配全套包装\n迷你淡黄色现货!!️\n原厂皮内里配羊筋绒D-Joy bag羊皮2023款时尚果然就是轮回,回归了一把中古戴妃、长方包形,短链条➕细长肩带直接封神!!复古时髦感超强,真是什么场合都可以把住😉绝对是lady中的天花板了,强势出圈啦姐妹们👱‍♀️\nSize;16*5.5*10cm"},"price":null,"currency":"CNY","moq":1,"category":"dior-women-bags","status":"active","alibaba_url":null,"images":["https://xcimg.szwego.com/img/2b46f204/20240624/i1719205405_7282_0.jpg","https://xcimg.szwego.com/img/2b46f204/20240624/i1719205406_5481_7.jpg","https://xcimg.szwego.com/img/2b46f204/20240624/i1719205405_9593_3.jpg","https://xcimg.szwego.com/img/2b46f204/20240624/i1719205405_2659_4.jpg","https://xcimg.szwego.com/img/2b46f204/20240624/i1719205406_9260_5.jpg","https://xcimg.szwego.com/img/2b46f204/20240624/i1719205406_9173_8.jpg","https://xcimg.szwego.com/img/2b46f204/20240624/i1719205405_5833_2.jpg","https://xcimg.szwego.com/img/2b46f204/20240624/i1719205406_5219_6.jpg","https://xcimg.szwego.com/img/2b46f204/20240624/i1719205405_5517_1.jpg"],"created_at":"2024-11-11T09:13:16.993Z"},{"id":"item-4dd31a5054a3","sku":"_duAuAAQgZmE_-5bjw9-Q7Bo5zeBsQPE2PbcuJHg","name_en":"Dior Women Bags","name_cn":"顶级原厂 配全套包装\n迷你现货!!️\nD-Joy bag羊皮2023款时尚果然就是轮回,回归了一把中古戴妃长方包形,短链条➕细长肩带直接封神!!复古时髦感超强,真是什么场合都可以把住绝对是lady中的天花板了,强势出圈啦姐妹们\nSize;16*5.5*10cm","specs":{"source":"wsxcme","sourceId":"_duAuAAQgZmE_-5bjw9-Q7Bo5zeBsQPE2PbcuJHg","sourceTagId":47002747,"sourceTagName":"迪奥/女包","rawTitle":"顶级原厂 配全套包装\n迷你现货!!️\nD-Joy bag羊皮2023款时尚果然就是轮回,回归了一把中古戴妃长方包形,短链条➕细长肩带直接封神!!复古时髦感超强,真是什么场合都可以把住绝对是lady中的天花板了,强势出圈啦姐妹们\nSize;16*5.5*10cm"},"price":null,"currency":"CNY","moq":1,"category":"dior-women-bags","status":"active","alibaba_url":null,"images":["https://xcimg.szwego.com/img/2b46f204/20240608/i1717784952_8223_5.jpg","https://xcimg.szwego.com/img/2b46f204/20240608/i1717784952_356_7.jpg","https://xcimg.szwego.com/img/2b46f204/20240608/i1717784952_4137_2.jpg","https://xcimg.szwego.com/img/2b46f204/20240608/i1717784952_6891_4.jpg","https://xcimg.szwego.com/img/2b46f204/20240608/i1717784952_3212_0.jpg","https://xcimg.szwego.com/img/2b46f204/20240608/i1717784952_189_3.jpg","https://xcimg.szwego.com/img/2b46f204/20240608/i1717784952_3034_1.jpg","https://xcimg.szwego.com/img/2b46f204/20240608/i1717784952_5913_8.jpg","https://xcimg.szwego.com/img/2b46f204/20240608/i1717784952_9085_6.jpg"],"created_at":"2024-11-11T09:13:16.992Z"},{"id":"item-98f9381f2eac","sku":"_d_p_pmXRAaMbxD4rAEvAofXVg00-Pcrq-baqSMQ","name_en":"Dior Women Bags","name_cn":"顶级原厂 配全套包装\n迷你湖水蓝现货!!️\nD-Joy bag羊皮2023款时尚果然就是轮回,回归了一把中古戴妃、长方包形,短链条➕细长肩带直接封神!!复古时髦感超强,真是什么场合都可以把住😉绝对是lady中的天花板了,强势出圈啦姐妹们👱‍♀️\nSize;16*5.5*10cm\n9230","specs":{"source":"wsxcme","sourceId":"_d_p_pmXRAaMbxD4rAEvAofXVg00-Pcrq-baqSMQ","sourceTagId":47002747,"sourceTagName":"迪奥/女包","rawTitle":"顶级原厂 配全套包装\n迷你湖水蓝现货!!️\nD-Joy bag羊皮2023款时尚果然就是轮回,回归了一把中古戴妃、长方包形,短链条➕细长肩带直接封神!!复古时髦感超强,真是什么场合都可以把住😉绝对是lady中的天花板了,强势出圈啦姐妹们👱‍♀️\nSize;16*5.5*10cm\n9230"},"price":null,"currency":"CNY","moq":1,"category":"dior-women-bags","status":"active","alibaba_url":null,"images":["https://xcimg.szwego.com/img/2b46f204/20231222/i1703259399_876_0.jpg","https://xcimg.szwego.com/img/2b46f204/20231222/i1703259398_8445_0.jpg","https://xcimg.szwego.com/img/2b46f204/20231222/i1703259398_3337_0.jpg","https://xcimg.szwego.com/img/2b46f204/20231222/i1703259399_7456_0.jpg","https://xcimg.szwego.com/img/2b46f204/20231222/i1703259399_9499_0.jpg","https://xcimg.szwego.com/img/2b46f204/20231222/i1703259399_2420_0.jpg","https://xcimg.szwego.com/img/2b46f204/20231222/i1703259398_4525_0.jpg","https://xcimg.szwego.com/img/2b46f204/20231222/i1703259399_6498_0.jpg"],"created_at":"2024-11-11T09:13:16.991Z"},{"id":"item-1f4a04650a80","sku":"_dg1g1EZO3o9TBvZibvEqmYs3y4r7YmLUNlNjkbQ","name_en":"Dior Women Bags","name_cn":"顶级原厂 配全套包装\n新款戴妃🌟羊皮系列\n 这款 Lady D-Joy 手袋诠释了 Dior 对典雅和美丽的深刻洞见。高雅经典的款式,采用裸粉色羊皮革精心制作,搭配浅金色饰面金属“D.I.O.R.”吊饰提升格调,为精美的轮廓增添一分灵动。搭配一条可拆卸的链条肩带和一条可调节、可拆卸的皮革肩带,可手提、肩背或斜挎,是日常造型的理想之选。\n尺寸22cm\n9240","specs":{"source":"wsxcme","sourceId":"_dg1g1EZO3o9TBvZibvEqmYs3y4r7YmLUNlNjkbQ","sourceTagId":47002747,"sourceTagName":"迪奥/女包","rawTitle":"顶级原厂 配全套包装\n新款戴妃🌟羊皮系列\n 这款 Lady D-Joy 手袋诠释了 Dior 对典雅和美丽的深刻洞见。高雅经典的款式,采用裸粉色羊皮革精心制作,搭配浅金色饰面金属“D.I.O.R.”吊饰提升格调,为精美的轮廓增添一分灵动。搭配一条可拆卸的链条肩带和一条可调节、可拆卸的皮革肩带,可手提、肩背或斜挎,是日常造型的理想之选。\n尺寸22cm\n9240"},"price":null,"currency":"CNY","moq":1,"category":"dior-women-bags","status":"active","alibaba_url":null,"images":["https://xcimg.szwego.com/20230509/i1683611539_6397_0.jpg","https://xcimg.szwego.com/20230509/i1683611539_9432_1.jpg","https://xcimg.szwego.com/20230509/i1683611539_1440_2.jpg","https://xcimg.szwego.com/20230509/i1683611539_3229_3.jpg","https://xcimg.szwego.com/20230509/i1683611539_846_4.jpg","https://xcimg.szwego.com/20230509/i1683611539_229_5.jpg","https://xcimg.szwego.com/20230509/i1683611596_1603_0.jpg","https://xcimg.szwego.com/20230509/i1683611558_6941_0.jpg","https://xcimg.szwego.com/20230509/i1683611558_3652_1.jpg"],"created_at":"2024-11-11T09:13:16.990Z"},{"id":"item-6cad4f775a2a","sku":"_dd1d1C9HkY5MyQP4S0plbB-w_zj1Z5WH0FshwtA","name_en":"Dior Women Bags","name_cn":"顶级原厂 配全套包装\n新款戴妃🌟羊皮系列(中号)\n 这款 Lady D-Joy 手袋诠释了 Dior 对典雅和美丽的深刻洞见。高雅经典的款式,采用裸粉色羊皮革精心制作,搭配浅金色饰面金属“D.I.O.R.”吊饰提升格调,为精美的轮廓增添一分灵动。搭配一条可拆卸的链条肩带和一条可调节、可拆卸的皮革肩带,可手提、肩背或斜挎,是日常造型的理想之选。编码:9250\n尺寸26cm","specs":{"source":"wsxcme","sourceId":"_dd1d1C9HkY5MyQP4S0plbB-w_zj1Z5WH0FshwtA","sourceTagId":47002747,"sourceTagName":"迪奥/女包","rawTitle":"顶级原厂 配全套包装\n新款戴妃🌟羊皮系列(中号)\n 这款 Lady D-Joy 手袋诠释了 Dior 对典雅和美丽的深刻洞见。高雅经典的款式,采用裸粉色羊皮革精心制作,搭配浅金色饰面金属“D.I.O.R.”吊饰提升格调,为精美的轮廓增添一分灵动。搭配一条可拆卸的链条肩带和一条可调节、可拆卸的皮革肩带,可手提、肩背或斜挎,是日常造型的理想之选。编码:9250\n尺寸26cm"},"price":null,"currency":"CNY","moq":1,"category":"dior-women-bags","status":"active","alibaba_url":null,"images":["https://xcimg.szwego.com/20230509/i1683611407_2645_0.jpg","https://xcimg.szwego.com/20230509/i1683611259_1162_2.jpg","https://xcimg.szwego.com/20230509/i1683611362_7264_0.jpg","https://xcimg.szwego.com/20230509/i1683611441_2629_0.jpg","https://xcimg.szwego.com/20230509/i1683611314_9456_0.jpg","https://xcimg.szwego.com/20230509/i1683611279_1645_3.jpg","https://xcimg.szwego.com/20230509/i1683611279_9120_4.jpg","https://xcimg.szwego.com/20230509/i1683611279_7301_5.jpg","https://xcimg.szwego.com/20230509/i1683611279_5336_6.jpg"],"created_at":"2024-11-11T09:13:16.989Z"},{"id":"item-1dc3c0de92be","sku":"_doooogWZqnkEj56a6GCZLvba4jVcrRjieGRoTGQ","name_en":"Dior Women Bags","name_cn":"顶级原厂 配全套包装\n三格木绿色!!️\nClassic Lady戴妃包漆皮,人手一个必备的三格小包😍。迷人优雅又气场十足💃🏻,斜挎手拎也是女人味十足,经典时尚风格。ins和众多时尚icon都人手一个的美包,别错过哦❤️\nsize:17cm","specs":{"source":"wsxcme","sourceId":"_doooogWZqnkEj56a6GCZLvba4jVcrRjieGRoTGQ","sourceTagId":47002747,"sourceTagName":"迪奥/女包","rawTitle":"顶级原厂 配全套包装\n三格木绿色!!️\nClassic Lady戴妃包漆皮,人手一个必备的三格小包😍。迷人优雅又气场十足💃🏻,斜挎手拎也是女人味十足,经典时尚风格。ins和众多时尚icon都人手一个的美包,别错过哦❤️\nsize:17cm"},"price":null,"currency":"CNY","moq":1,"category":"dior-women-bags","status":"active","alibaba_url":null,"images":["https://xcimg.szwego.com/20220830/i1661799732_2353_0.jpg","https://xcimg.szwego.com/20220830/i1661799732_2777_1.jpg","https://xcimg.szwego.com/20220830/i1661799732_5835_2.jpg","https://xcimg.szwego.com/20220830/i1661799732_795_3.jpg","https://xcimg.szwego.com/20220830/i1661799732_7683_4.jpg","https://xcimg.szwego.com/20220830/i1661799732_7276_5.jpg","https://xcimg.szwego.com/20220830/i1661799732_4213_6.jpg","https://xcimg.szwego.com/20220830/i1661799732_3511_7.jpg","https://xcimg.szwego.com/20220830/i1661799732_9151_8.jpg"],"created_at":"2024-11-11T09:13:16.988Z"},{"id":"item-2b3c232e14db","sku":"_dlclcrDi6ZL3hoVozXM3j_XUTBPV4A_tBt7Yj6A","name_en":"Dior Women Bags","name_cn":"顶级原厂 配全套包装\n粉色!!️\n原厂配羊绒内里✔️Classic Lady戴妃包,人手一个必备的三格小包😍。迷人优雅又气场十足💃🏻,斜挎手拎也是女人味十足,经典时尚风格。ins和众多时尚icon都人手一个的美包,别错过哦❤️\nsize:17cm","specs":{"source":"wsxcme","sourceId":"_dlclcrDi6ZL3hoVozXM3j_XUTBPV4A_tBt7Yj6A","sourceTagId":47002747,"sourceTagName":"迪奥/女包","rawTitle":"顶级原厂 配全套包装\n粉色!!️\n原厂配羊绒内里✔️Classic Lady戴妃包,人手一个必备的三格小包😍。迷人优雅又气场十足💃🏻,斜挎手拎也是女人味十足,经典时尚风格。ins和众多时尚icon都人手一个的美包,别错过哦❤️\nsize:17cm"},"price":null,"currency":"CNY","moq":1,"category":"dior-women-bags","status":"active","alibaba_url":null,"images":["https://xcimg.szwego.com/20230621/i1687303314_6655_0.jpg","https://xcimg.szwego.com/20230621/i1687303314_3661_1.jpg","https://xcimg.szwego.com/20230621/i1687303314_5127_2.jpg","https://xcimg.szwego.com/20230621/i1687303314_5532_3.jpg","https://xcimg.szwego.com/20230621/i1687303314_5780_4.jpg","https://xcimg.szwego.com/20230621/i1687303314_9803_5.jpg","https://xcimg.szwego.com/20230621/i1687303314_7968_6.jpg","https://xcimg.szwego.com/20230621/i1687303314_7954_7.jpg","https://xcimg.szwego.com/20230621/i1687303314_1671_8.jpg"],"created_at":"2024-11-11T09:13:16.987Z"},{"id":"item-84ce5f8baa2e","sku":"_dM7M70V1mrJkAXZb4ew4YFDBGXdcHBQLF8v87DQ","name_en":"Dior Women Bags","name_cn":"顶级原厂 配全套包装\n白色!!️\n原厂配羊绒内里✔️Classic Lady戴妃包,人手一个必备的三格小包😍。迷人优雅又气场十足💃🏻,斜挎手拎也是女人味十足,经典时尚风格。ins和众多时尚icon都人手一个的美包,别错过哦❤️\nsize:17cm","specs":{"source":"wsxcme","sourceId":"_dM7M70V1mrJkAXZb4ew4YFDBGXdcHBQLF8v87DQ","sourceTagId":47002747,"sourceTagName":"迪奥/女包","rawTitle":"顶级原厂 配全套包装\n白色!!️\n原厂配羊绒内里✔️Classic Lady戴妃包,人手一个必备的三格小包😍。迷人优雅又气场十足💃🏻,斜挎手拎也是女人味十足,经典时尚风格。ins和众多时尚icon都人手一个的美包,别错过哦❤️\nsize:17cm"},"price":null,"currency":"CNY","moq":1,"category":"dior-women-bags","status":"active","alibaba_url":null,"images":["https://xcimg.szwego.com/20230621/i1687303256_1032_0.jpg","https://xcimg.szwego.com/20230621/i1687303256_5243_1.jpg","https://xcimg.szwego.com/20230621/i1687303256_4555_2.jpg","https://xcimg.szwego.com/20230621/i1687303256_7527_3.jpg","https://xcimg.szwego.com/20230621/i1687303256_4715_4.jpg","https://xcimg.szwego.com/20230621/i1687303256_4122_5.jpg","https://xcimg.szwego.com/20230621/i1687303256_1754_6.jpg","https://xcimg.szwego.com/20230621/i1687303256_5108_7.jpg"],"created_at":"2024-11-11T09:13:16.986Z"},{"id":"item-a4ce5b38a0ed","sku":"_dpEpEcMJn5dNNxHL95Kgtpm3iA5olKabREJi9kA","name_en":"Dior Women Bags","name_cn":"顶级原厂 配全套包装\n黑色!!️\n原厂配羊绒内里✔️Classic Lady戴妃包,人手一个必备的三格小包😍。迷人优雅又气场十足💃🏻,斜挎手拎也是女人味十足,经典时尚风格。ins和众多时尚icon都人手一个的美包,别错过哦❤️\nsize:17cm","specs":{"source":"wsxcme","sourceId":"_dpEpEcMJn5dNNxHL95Kgtpm3iA5olKabREJi9kA","sourceTagId":47002747,"sourceTagName":"迪奥/女包","rawTitle":"顶级原厂 配全套包装\n黑色!!️\n原厂配羊绒内里✔️Classic Lady戴妃包,人手一个必备的三格小包😍。迷人优雅又气场十足💃🏻,斜挎手拎也是女人味十足,经典时尚风格。ins和众多时尚icon都人手一个的美包,别错过哦❤️\nsize:17cm"},"price":null,"currency":"CNY","moq":1,"category":"dior-women-bags","status":"active","alibaba_url":null,"images":["https://xcimg.szwego.com/20230621/i1687303201_2699_0.jpg","https://xcimg.szwego.com/20230621/i1687303201_3643_1.jpg","https://xcimg.szwego.com/20230621/i1687303201_3197_2.jpg","https://xcimg.szwego.com/20230621/i1687303201_3411_3.jpg","https://xcimg.szwego.com/20230621/i1687303201_7176_4.jpg","https://xcimg.szwego.com/20230621/i1687303201_5444_5.jpg","https://xcimg.szwego.com/20230621/i1687303201_3085_6.jpg","https://xcimg.szwego.com/20230621/i1687303201_9512_7.jpg","https://xcimg.szwego.com/20230621/i1687303201_3883_8.jpg"],"created_at":"2024-11-11T09:13:16.985Z"},{"id":"item-1c8fa9a0dc4a","sku":"_dgygy3oS-jKEmyHjQeUChajDDZhJOGsfC-lMwZQ","name_en":"Dior Women Bags","name_cn":"顶级原厂 配全套包装\n岩石灰!!️\n原厂配羊绒内里✔️Classic Lady戴妃包,人手一个必备的三格小包😍。迷人优雅又气场十足💃🏻,斜挎手拎也是女人味十足,经典时尚风格。ins和众多时尚icon都人手一个的美包,别错过哦❤️\nsize:17cm","specs":{"source":"wsxcme","sourceId":"_dgygy3oS-jKEmyHjQeUChajDDZhJOGsfC-lMwZQ","sourceTagId":47002747,"sourceTagName":"迪奥/女包","rawTitle":"顶级原厂 配全套包装\n岩石灰!!️\n原厂配羊绒内里✔️Classic Lady戴妃包,人手一个必备的三格小包😍。迷人优雅又气场十足💃🏻,斜挎手拎也是女人味十足,经典时尚风格。ins和众多时尚icon都人手一个的美包,别错过哦❤️\nsize:17cm"},"price":null,"currency":"CNY","moq":1,"category":"dior-women-bags","status":"active","alibaba_url":null,"images":["https://xcimg.szwego.com/20230621/i1687303152_3463_0.jpg","https://xcimg.szwego.com/20230621/i1687303152_6702_1.jpg","https://xcimg.szwego.com/20230621/i1687303152_4640_2.jpg","https://xcimg.szwego.com/20230621/i1687303152_9103_3.jpg","https://xcimg.szwego.com/20230621/i1687303152_3394_4.jpg","https://xcimg.szwego.com/20230621/i1687303152_6667_5.jpg","https://xcimg.szwego.com/20230621/i1687303152_1423_6.jpg","https://xcimg.szwego.com/20230621/i1687303152_3348_7.jpg","https://xcimg.szwego.com/20230621/i1687303152_829_8.jpg"],"created_at":"2024-11-11T09:13:16.984Z"},{"id":"item-13abc79b6bf9","sku":"_dfZfZ7Qq7prhN8ZxvurIhK7AiqCT5-FjEyhmXwA","name_en":"Dior Women Bags","name_cn":"顶级原厂 配全套包装\n樱桃红!!️\n原厂配羊绒内里✔️Classic Lady戴妃包,人手一个必备的三格小包😍。迷人优雅又气场十足💃🏻,斜挎手拎也是女人味十足,经典时尚风格。ins和众多时尚icon都人手一个的美包,别错过哦❤️\nsize:17cm","specs":{"source":"wsxcme","sourceId":"_dfZfZ7Qq7prhN8ZxvurIhK7AiqCT5-FjEyhmXwA","sourceTagId":47002747,"sourceTagName":"迪奥/女包","rawTitle":"顶级原厂 配全套包装\n樱桃红!!️\n原厂配羊绒内里✔️Classic Lady戴妃包,人手一个必备的三格小包😍。迷人优雅又气场十足💃🏻,斜挎手拎也是女人味十足,经典时尚风格。ins和众多时尚icon都人手一个的美包,别错过哦❤️\nsize:17cm"},"price":null,"currency":"CNY","moq":1,"category":"dior-women-bags","status":"active","alibaba_url":null,"images":["https://xcimg.szwego.com/20230621/i1687303075_6599_0.jpg","https://xcimg.szwego.com/20230621/i1687303075_6512_1.jpg","https://xcimg.szwego.com/20230621/i1687303075_7945_2.jpg","https://xcimg.szwego.com/20230621/i1687303075_1663_3.jpg","https://xcimg.szwego.com/20230621/i1687303075_7046_4.jpg","https://xcimg.szwego.com/20230621/i1687303075_5067_5.jpg","https://xcimg.szwego.com/20230621/i1687303075_2361_6.jpg","https://xcimg.szwego.com/20230621/i1687303075_7040_7.jpg","https://xcimg.szwego.com/20230621/i1687303075_3889_8.jpg"],"created_at":"2024-11-11T09:13:16.983Z"},{"id":"item-0e039c41899f","sku":"_dkUkUjOZiWU94GeWY-LM0hCDQ9DccHh9gmUYIIg","name_en":"Dior Women Bags","name_cn":"顶级原单 配全套包装\n原厂皮配羊筋绒内里对版zp弹簧针扣\nLady戴妃四格湖水蓝系列,春夏最新颜色,小清新风格🆕,搭配最新的字母肩带😋,更是加分,字母配送6个⚠️,宝宝们可以随心挑选自己喜欢的扣子🙋🏻,不用一整套配哦\n\nsize:20*8*17cm","specs":{"source":"wsxcme","sourceId":"_dkUkUjOZiWU94GeWY-LM0hCDQ9DccHh9gmUYIIg","sourceTagId":47002747,"sourceTagName":"迪奥/女包","rawTitle":"顶级原单 配全套包装\n原厂皮配羊筋绒内里对版zp弹簧针扣\nLady戴妃四格湖水蓝系列,春夏最新颜色,小清新风格🆕,搭配最新的字母肩带😋,更是加分,字母配送6个⚠️,宝宝们可以随心挑选自己喜欢的扣子🙋🏻,不用一整套配哦\n\nsize:20*8*17cm"},"price":null,"currency":"CNY","moq":1,"category":"dior-women-bags","status":"active","alibaba_url":null,"images":["https://xcimg.szwego.com/img/2b46f204/20231126/i1700981914_3195_5.jpg","https://xcimg.szwego.com/img/2b46f204/20231126/i1700981914_1112_2.jpg","https://xcimg.szwego.com/img/2b46f204/20231126/i1700981914_5589_1.jpg","https://xcimg.szwego.com/img/2b46f204/20231126/i1700981914_120_0.jpg","https://xcimg.szwego.com/img/2b46f204/20231126/i1700981914_8601_3.jpg","https://xcimg.szwego.com/img/2b46f204/20231126/i1700981914_138_4.jpg","https://xcimg.szwego.com/img/2b46f204/20231126/i1700981914_4695_6.jpg","https://xcimg.szwego.com/img/2b46f204/20231126/i1700981914_9234_7.jpg","https://xcimg.szwego.com/img/2b46f204/20231126/i1700981914_4818_8.jpg"],"created_at":"2024-11-11T09:13:16.982Z"},{"id":"item-c289954ef279","sku":"_dPePevcIihj-EJd1ny6A3OfEtMhGX4xdv3qeVkg","name_en":"Dior Women Bags","name_cn":"顶级原厂 配全套包装\n黄现货!!️\n原厂皮配羊筋绒内里Lady戴妃四格系列,春夏最新颜色,小清新风格🆕,搭配最新的字母肩带😋,更是加分,字母配送6个⚠️,宝宝们可以随心挑选自己喜欢的扣子🙋🏻,不用一整套配哦\nsize:20*8*17cm","specs":{"source":"wsxcme","sourceId":"_dPePevcIihj-EJd1ny6A3OfEtMhGX4xdv3qeVkg","sourceTagId":47002747,"sourceTagName":"迪奥/女包","rawTitle":"顶级原厂 配全套包装\n黄现货!!️\n原厂皮配羊筋绒内里Lady戴妃四格系列,春夏最新颜色,小清新风格🆕,搭配最新的字母肩带😋,更是加分,字母配送6个⚠️,宝宝们可以随心挑选自己喜欢的扣子🙋🏻,不用一整套配哦\nsize:20*8*17cm"},"price":null,"currency":"CNY","moq":1,"category":"dior-women-bags","status":"active","alibaba_url":null,"images":["https://xcimg.szwego.com/img/2b46f204/20240624/i1719205103_2252_5.jpg","https://xcimg.szwego.com/img/2b46f204/20240624/i1719205103_1823_6.jpg","https://xcimg.szwego.com/img/2b46f204/20240624/i1719205103_4902_1.jpg","https://xcimg.szwego.com/img/2b46f204/20240624/i1719205103_2780_2.jpg","https://xcimg.szwego.com/img/2b46f204/20240624/i1719205103_5227_7.jpg","https://xcimg.szwego.com/img/2b46f204/20240624/i1719205103_7488_4.jpg","https://xcimg.szwego.com/img/2b46f204/20240624/i1719205103_9905_0.jpg","https://xcimg.szwego.com/img/2b46f204/20240624/i1719205103_7620_8.jpg","https://xcimg.szwego.com/img/2b46f204/20240624/i1719205103_7329_3.jpg"],"created_at":"2024-11-11T09:13:16.981Z"},{"id":"item-70bf6272a4cf","sku":"_dWpWpsPbAcuRoFirtDYuWut13BpDWCIDJxxTMdw","name_en":"Dior Women Bags","name_cn":"顶级原厂 配全套包装\n梦幻紫现货!!️\n原厂皮配羊筋绒内里Classic Lady戴妃包,人手一个必备的三格小包😍。迷人优雅又气场十足💃🏻,斜挎手拎也是女人味十足,经典时尚风格。ins和众多时尚icon都人手一个的美包,别错过哦❤️\n\nsize:17*7*15cm","specs":{"source":"wsxcme","sourceId":"_dWpWpsPbAcuRoFirtDYuWut13BpDWCIDJxxTMdw","sourceTagId":47002747,"sourceTagName":"迪奥/女包","rawTitle":"顶级原厂 配全套包装\n梦幻紫现货!!️\n原厂皮配羊筋绒内里Classic Lady戴妃包,人手一个必备的三格小包😍。迷人优雅又气场十足💃🏻,斜挎手拎也是女人味十足,经典时尚风格。ins和众多时尚icon都人手一个的美包,别错过哦❤️\n\nsize:17*7*15cm"},"price":null,"currency":"CNY","moq":1,"category":"dior-women-bags","status":"active","alibaba_url":null,"images":["https://xcimg.szwego.com/img/2b46f204/20240412/i1712904293_9650_4.jpg","https://xcimg.szwego.com/img/2b46f204/20240412/i1712904293_938_0.jpg","https://xcimg.szwego.com/img/2b46f204/20240412/i1712904293_4379_3.jpg","https://xcimg.szwego.com/img/2b46f204/20240412/i1712904293_7753_1.jpg","https://xcimg.szwego.com/img/2b46f204/20240412/i1712904293_4156_2.jpg","https://xcimg.szwego.com/img/2b46f204/20240412/i1712904293_2749_5.jpg","https://xcimg.szwego.com/img/2b46f204/20240412/i1712904293_819_7.jpg","https://xcimg.szwego.com/img/2b46f204/20240412/i1712904293_8107_6.jpg","https://xcimg.szwego.com/img/2b46f204/20240412/i1712904293_4713_8.jpg"],"created_at":"2024-11-11T09:13:16.980Z"},{"id":"item-f643b6448a3a","sku":"_dyDyDKf0eubakjVVhWbzeRmsh2WWsAxqD8gG95A","name_en":"Dior Women Bags","name_cn":"顶级原厂 配全套包装\n梦幻紫现货!!️\n原厂皮配羊筋绒内里Lady戴妃四格系列,春夏最新颜色,小清新风格🆕,搭配最新的字母肩带😋,更是加分,字母配送6个⚠️,宝宝们可以随心挑选自己喜欢的扣子🙋🏻,不用一整套配哦\n\nsize:20*8*17cm","specs":{"source":"wsxcme","sourceId":"_dyDyDKf0eubakjVVhWbzeRmsh2WWsAxqD8gG95A","sourceTagId":47002747,"sourceTagName":"迪奥/女包","rawTitle":"顶级原厂 配全套包装\n梦幻紫现货!!️\n原厂皮配羊筋绒内里Lady戴妃四格系列,春夏最新颜色,小清新风格🆕,搭配最新的字母肩带😋,更是加分,字母配送6个⚠️,宝宝们可以随心挑选自己喜欢的扣子🙋🏻,不用一整套配哦\n\nsize:20*8*17cm"},"price":null,"currency":"CNY","moq":1,"category":"dior-women-bags","status":"active","alibaba_url":null,"images":["https://xcimg.szwego.com/img/2b46f204/20240412/i1712904163_950_0.jpg","https://xcimg.szwego.com/img/2b46f204/20240412/i1712904163_584_4.jpg","https://xcimg.szwego.com/img/2b46f204/20240412/i1712904163_9823_2.jpg","https://xcimg.szwego.com/img/2b46f204/20240412/i1712904163_8330_1.jpg","https://xcimg.szwego.com/img/2b46f204/20240412/i1712904163_5403_8.jpg","https://xcimg.szwego.com/img/2b46f204/20240412/i1712904163_2521_6.jpg","https://xcimg.szwego.com/img/2b46f204/20240412/i1712904163_9890_7.jpg","https://xcimg.szwego.com/img/2b46f204/20240412/i1712904163_6379_3.jpg","https://xcimg.szwego.com/img/2b46f204/20240412/i1712904163_5018_5.jpg"],"created_at":"2024-11-11T09:13:16.979Z"},{"id":"item-24d10ab17f3c","sku":"_dHOHOFaxWhmxtLgpq1XurPId8rVft8zPaJqf1eA","name_en":"Lady 戴妃三格","name_cn":"Lady 戴妃三格","specs":{"source":"wsxcme","sourceId":"_dHOHOFaxWhmxtLgpq1XurPId8rVft8zPaJqf1eA","sourceTagId":47002747,"sourceTagName":"迪奥/女包","rawTitle":"Lady 戴妃三格"},"price":null,"currency":"CNY","moq":1,"category":"dior-women-bags","status":"active","alibaba_url":null,"images":["https://xcimg.szwego.com/img/2b46f204/20240524/i1716540700_8155_0.jpg"],"created_at":"2024-11-11T09:13:16.978Z"},{"id":"item-2c58bc0e6212","sku":"_dhIhIOJq9C2hmT-Ie828G96UEPzy9ITtRGK-73g","name_en":"Dior Women Bags","name_cn":"顶级原厂 配全套包装\n奶茶色现货!!️\nLady戴妃包,人手一个必备的三格小包😍。迷人优雅又气场十足💃🏻,斜挎手拎也是女人味十足,经典时尚风格。ins和众多时尚icon都人手一个的美包,别错过哦❤️\nsize:17*7*15cm","specs":{"source":"wsxcme","sourceId":"_dhIhIOJq9C2hmT-Ie828G96UEPzy9ITtRGK-73g","sourceTagId":47002747,"sourceTagName":"迪奥/女包","rawTitle":"顶级原厂 配全套包装\n奶茶色现货!!️\nLady戴妃包,人手一个必备的三格小包😍。迷人优雅又气场十足💃🏻,斜挎手拎也是女人味十足,经典时尚风格。ins和众多时尚icon都人手一个的美包,别错过哦❤️\nsize:17*7*15cm"},"price":null,"currency":"CNY","moq":1,"category":"dior-women-bags","status":"active","alibaba_url":null,"images":["https://xcimg.szwego.com/img/2b46f204/20240524/i1716540639_42_4.jpg","https://xcimg.szwego.com/img/2b46f204/20240524/i1716540639_5332_5.jpg","https://xcimg.szwego.com/img/2b46f204/20240524/i1716540639_9841_8.jpg","https://xcimg.szwego.com/img/2b46f204/20240524/i1716540639_6975_2.jpg","https://xcimg.szwego.com/img/2b46f204/20240524/i1716540639_7257_1.jpg","https://xcimg.szwego.com/img/2b46f204/20240524/i1716540639_3156_3.jpg","https://xcimg.szwego.com/img/2b46f204/20240524/i1716540639_9202_7.jpg","https://xcimg.szwego.com/img/2b46f204/20240524/i1716540639_9942_6.jpg"],"created_at":"2024-11-11T09:13:16.977Z"}],"page":320,"pageSize":24,"total":10075,"totalPages":420}
