{"items":[{"id":"item-ce19ea8a6172","sku":"_dmpmpi2_wWmrzmTfBez1yO9_0UvhsUjVIphJKGg","name_en":"Celine/赛琳","name_cn":"Celine/赛琳\n经典半圆马鞍包\n链条包\n尺寸18cm","specs":{"source":"wsxcme","sourceId":"_dmpmpi2_wWmrzmTfBez1yO9_0UvhsUjVIphJKGg","sourceTagId":47003106,"sourceTagName":"塞琳/女包","rawTitle":"Celine/赛琳\n经典半圆马鞍包\n链条包\n尺寸18cm"},"price":null,"currency":"CNY","moq":1,"category":"celine-women-bags","status":"active","alibaba_url":null,"images":["https://xcimg.szwego.com/20221204/i1670157625_5289_0.jpg","https://xcimg.szwego.com/20221204/i1670157625_4905_1.jpg","https://xcimg.szwego.com/20221204/i1670157625_5941_2.jpg","https://xcimg.szwego.com/20221204/i1670157625_451_3.jpg","https://xcimg.szwego.com/20221204/i1670157625_6441_4.jpg","https://xcimg.szwego.com/20221204/i1670157625_5893_5.jpg","https://xcimg.szwego.com/20221204/i1670157625_8238_6.jpg","https://xcimg.szwego.com/20221204/i1670157625_819_7.jpg","https://xcimg.szwego.com/20221204/i1670157625_32_8.jpg"],"created_at":"2025-02-08T12:47:23.836Z"},{"id":"item-489bf98160bd","sku":"_drmrm6Mm8x0CGytglGPle4IxFU_fEe5bNLJ__DQ","name_en":"赛琳  Celine Triomphe新款链条腋下包,当时秀场图一击入魂,太喜欢凯旋门+链条的设计,黑金实物太美啦!超级精致! !新款容量比老款大不少,也重了一-些,不过个人喜欢有点压肩的感觉会. 更有质感臼反正就是无敌喜欢,cp想要的姐妹赶快冲! !尺寸:30cm","name_cn":"赛琳  Celine Triomphe新款链条腋下包,当时秀场图一击入魂,太喜欢凯旋门+链条的设计,黑金实物太美啦!超级精致! !新款容量比老款大不少,也重了一-些,不过个人喜欢有点压肩的感觉会. 更有质感臼反正就是无敌喜欢,cp想要的姐妹赶快冲! !尺寸:30cm","specs":{"source":"wsxcme","sourceId":"_drmrm6Mm8x0CGytglGPle4IxFU_fEe5bNLJ__DQ","sourceTagId":47003106,"sourceTagName":"塞琳/女包","rawTitle":"赛琳  Celine Triomphe新款链条腋下包,当时秀场图一击入魂,太喜欢凯旋门+链条的设计,黑金实物太美啦!超级精致! !新款容量比老款大不少,也重了一-些,不过个人喜欢有点压肩的感觉会. 更有质感臼反正就是无敌喜欢,cp想要的姐妹赶快冲! !尺寸:30cm"},"price":null,"currency":"CNY","moq":1,"category":"celine-women-bags","status":"active","alibaba_url":null,"images":["https://xcimg.szwego.com/20221120/i1668957880_7852_0.jpg","https://xcimg.szwego.com/20221120/i1668957880_811_1.jpg","https://xcimg.szwego.com/20221120/i1668957880_5298_2.jpg","https://xcimg.szwego.com/20221120/i1668957880_3000_3.jpg","https://xcimg.szwego.com/20221120/i1668957880_8048_4.jpg","https://xcimg.szwego.com/20221120/i1668957880_3440_5.jpg","https://xcimg.szwego.com/20221120/i1668957880_9880_6.jpg","https://xcimg.szwego.com/20221120/i1668957880_6951_7.jpg","https://xcimg.szwego.com/20221120/i1668957880_2432_8.jpg"],"created_at":"2025-02-08T12:47:23.835Z"},{"id":"item-0790e63ba2b4","sku":"_dyDyDKf0eubeljlRoWrvbQmgl02CvAxqD8gG95A","name_en":"赛琳  Celine Triomphe新款链条腋下包,当时秀场图一击入魂,太喜欢凯旋门+链条的设计,黑金实物太美啦!超级精致! !新款容量比老款大不少,也重了一-些,不过个人喜欢有点压肩的感觉会. 更有质感臼反正就是无敌喜欢,cp想要的姐妹赶快冲! !尺寸:21cm","name_cn":"赛琳  Celine Triomphe新款链条腋下包,当时秀场图一击入魂,太喜欢凯旋门+链条的设计,黑金实物太美啦!超级精致! !新款容量比老款大不少,也重了一-些,不过个人喜欢有点压肩的感觉会. 更有质感臼反正就是无敌喜欢,cp想要的姐妹赶快冲! !尺寸:21cm","specs":{"source":"wsxcme","sourceId":"_dyDyDKf0eubeljlRoWrvbQmgl02CvAxqD8gG95A","sourceTagId":47003106,"sourceTagName":"塞琳/女包","rawTitle":"赛琳  Celine Triomphe新款链条腋下包,当时秀场图一击入魂,太喜欢凯旋门+链条的设计,黑金实物太美啦!超级精致! !新款容量比老款大不少,也重了一-些,不过个人喜欢有点压肩的感觉会. 更有质感臼反正就是无敌喜欢,cp想要的姐妹赶快冲! !尺寸:21cm"},"price":null,"currency":"CNY","moq":1,"category":"celine-women-bags","status":"active","alibaba_url":null,"images":["https://xcimg.szwego.com/20221120/i1668957822_8130_0.jpg","https://xcimg.szwego.com/20221120/i1668957822_9192_1.jpg","https://xcimg.szwego.com/20221120/i1668957822_2896_2.jpg","https://xcimg.szwego.com/20221120/i1668957822_56_3.jpg","https://xcimg.szwego.com/20221120/i1668957822_5642_4.jpg","https://xcimg.szwego.com/20221120/i1668957822_8367_5.jpg","https://xcimg.szwego.com/20221120/i1668957822_8904_6.jpg","https://xcimg.szwego.com/20221120/i1668957822_9156_7.jpg","https://xcimg.szwego.com/20221120/i1668957822_1794_8.jpg"],"created_at":"2025-02-08T12:47:23.834Z"},{"id":"item-0b480f9fa37e","sku":"_dhHhH2wcmj1eACIO5kwEXea_Ft6ItC3Kdf00UyQ","name_en":"赛琳  Celine Triomphe新款链条腋下包,当时秀场图一击入魂,太喜欢凯旋门+链条的设计,黑金实物太美啦!超级精致! !新款容量比老款大不少,也重了一-些,不过个人喜欢有点压肩的感觉会. 更有质感臼反正就是无敌喜欢,cp想要的姐妹赶快冲! !尺寸:30cm","name_cn":"赛琳  Celine Triomphe新款链条腋下包,当时秀场图一击入魂,太喜欢凯旋门+链条的设计,黑金实物太美啦!超级精致! !新款容量比老款大不少,也重了一-些,不过个人喜欢有点压肩的感觉会. 更有质感臼反正就是无敌喜欢,cp想要的姐妹赶快冲! !尺寸:30cm","specs":{"source":"wsxcme","sourceId":"_dhHhH2wcmj1eACIO5kwEXea_Ft6ItC3Kdf00UyQ","sourceTagId":47003106,"sourceTagName":"塞琳/女包","rawTitle":"赛琳  Celine Triomphe新款链条腋下包,当时秀场图一击入魂,太喜欢凯旋门+链条的设计,黑金实物太美啦!超级精致! !新款容量比老款大不少,也重了一-些,不过个人喜欢有点压肩的感觉会. 更有质感臼反正就是无敌喜欢,cp想要的姐妹赶快冲! !尺寸:30cm"},"price":null,"currency":"CNY","moq":1,"category":"celine-women-bags","status":"active","alibaba_url":null,"images":["https://xcimg.szwego.com/20221120/i1668956024_6912_0.jpg","https://xcimg.szwego.com/20221120/i1668956024_4049_1.jpg","https://xcimg.szwego.com/20221120/i1668956024_8823_2.jpg","https://xcimg.szwego.com/20221120/i1668956024_2118_3.jpg","https://xcimg.szwego.com/20221120/i1668956024_1195_4.jpg","https://xcimg.szwego.com/20221120/i1668956024_2105_5.jpg","https://xcimg.szwego.com/20221120/i1668956024_5077_6.jpg","https://xcimg.szwego.com/20221120/i1668956024_2399_7.jpg","https://xcimg.szwego.com/20221120/i1668956024_8267_8.jpg"],"created_at":"2025-02-08T12:47:23.833Z"},{"id":"item-57f38f247fc5","sku":"_dzNzNIPB7TqL36-pWJf6kaF18-FhyD3JfI3YCNg","name_en":"赛琳  Celine Triomphe新款链条腋下包,当时秀场图一击入魂,太喜欢凯旋门+链条的设计,黑金实物太美啦!超级精致! !新款容量比老款大不少,也重了一-些,不过个人喜欢有点压肩的感觉会. 更有质感臼反正就是无敌喜欢,cp想要的姐妹赶快冲! !尺寸:30cm","name_cn":"赛琳  Celine Triomphe新款链条腋下包,当时秀场图一击入魂,太喜欢凯旋门+链条的设计,黑金实物太美啦!超级精致! !新款容量比老款大不少,也重了一-些,不过个人喜欢有点压肩的感觉会. 更有质感臼反正就是无敌喜欢,cp想要的姐妹赶快冲! !尺寸:30cm","specs":{"source":"wsxcme","sourceId":"_dzNzNIPB7TqL36-pWJf6kaF18-FhyD3JfI3YCNg","sourceTagId":47003106,"sourceTagName":"塞琳/女包","rawTitle":"赛琳  Celine Triomphe新款链条腋下包,当时秀场图一击入魂,太喜欢凯旋门+链条的设计,黑金实物太美啦!超级精致! !新款容量比老款大不少,也重了一-些,不过个人喜欢有点压肩的感觉会. 更有质感臼反正就是无敌喜欢,cp想要的姐妹赶快冲! !尺寸:30cm"},"price":null,"currency":"CNY","moq":1,"category":"celine-women-bags","status":"active","alibaba_url":null,"images":["https://xcimg.szwego.com/20220519/i1652927620_8773_0.jpg","https://xcimg.szwego.com/20220519/i1652927620_7249_1.jpg","https://xcimg.szwego.com/20220519/i1652927620_7061_2.jpg","https://xcimg.szwego.com/20220519/i1652927620_5098_3.jpg","https://xcimg.szwego.com/20220519/i1652927620_7563_4.jpg","https://xcimg.szwego.com/20220519/i1652927620_8397_5.jpg","https://xcimg.szwego.com/20220519/i1652927620_7039_6.jpg","https://xcimg.szwego.com/20220519/i1652927620_2146_7.jpg","https://xcimg.szwego.com/20220519/i1652927620_344_8.jpg"],"created_at":"2025-02-08T12:47:23.832Z"},{"id":"item-658020ff664f","sku":"_drwrwOQ-XU-o5dMX7I64jgZC4BWWagfzEH_GjvQ","name_en":"👑Celine/赛琳22新款圆筒包经典老花印花单肩斜挎包男女通用哦     肩带可调节长短!  尺寸22-12.5-12.5    款号2208","name_cn":"👑Celine/赛琳22新款圆筒包经典老花印花单肩斜挎包男女通用哦     肩带可调节长短!  尺寸22-12.5-12.5    款号2208","specs":{"source":"wsxcme","sourceId":"_drwrwOQ-XU-o5dMX7I64jgZC4BWWagfzEH_GjvQ","sourceTagId":47003106,"sourceTagName":"塞琳/女包","modelNumber":"2208","rawTitle":"👑Celine/赛琳22新款圆筒包经典老花印花单肩斜挎包男女通用哦     肩带可调节长短!  尺寸22-12.5-12.5    款号2208"},"price":null,"currency":"CNY","moq":1,"category":"celine-women-bags","status":"active","alibaba_url":null,"images":["https://xcimg.szwego.com/20220706/i1657043609_1715_0.jpg","https://xcimg.szwego.com/20220706/i1657043609_3540_1.jpg","https://xcimg.szwego.com/20220706/i1657043609_7630_2.jpg","https://xcimg.szwego.com/20220706/i1657043609_1915_3.jpg","https://xcimg.szwego.com/20220706/i1657043609_8066_4.jpg","https://xcimg.szwego.com/20220706/i1657043609_2748_5.jpg","https://xcimg.szwego.com/20220706/i1657043609_4232_6.jpg","https://xcimg.szwego.com/20220706/i1657043609_5103_7.jpg","https://xcimg.szwego.com/20220706/i1657043609_4436_8.jpg"],"created_at":"2025-02-08T12:47:23.831Z"},{"id":"item-e6544f97a104","sku":"_dJMJMGfXkFl9w71WPCLyrB2TiT9OQdO9UMGds2Q","name_en":"Celine赛琳老花腋下包","name_cn":"Celine赛琳老花腋下包\n满满的设计感 复古中透露着优雅\n超级高级的配色 \n实物绝对惊艳到你 \n尺寸24 12","specs":{"source":"wsxcme","sourceId":"_dJMJMGfXkFl9w71WPCLyrB2TiT9OQdO9UMGds2Q","sourceTagId":47003106,"sourceTagName":"塞琳/女包","rawTitle":"Celine赛琳老花腋下包\n满满的设计感 复古中透露着优雅\n超级高级的配色 \n实物绝对惊艳到你 \n尺寸24 12"},"price":null,"currency":"CNY","moq":1,"category":"celine-women-bags","status":"active","alibaba_url":null,"images":["https://xcimg.szwego.com/20221105/i1667649648_2695_0.jpg","https://xcimg.szwego.com/20221105/i1667649648_9158_1.jpg","https://xcimg.szwego.com/20221105/i1667649648_511_2.jpg","https://xcimg.szwego.com/20221105/i1667649648_3754_3.jpg","https://xcimg.szwego.com/20221105/i1667649648_3002_4.jpg","https://xcimg.szwego.com/20221105/i1667649648_4214_5.jpg","https://xcimg.szwego.com/20221105/i1667649648_7283_6.jpg","https://xcimg.szwego.com/20221105/i1667649648_8103_7.jpg","https://xcimg.szwego.com/20221105/i1667649648_7697_8.jpg"],"created_at":"2025-02-08T12:47:23.830Z"},{"id":"item-cf515268f59a","sku":"_dv3v3aDa-OtggvzfYQxzNSotWS_mpz-GO5V-a0w","name_en":"赛琳 Celine小猪包","name_cn":"赛琳 Celine小猪包\n永远的百搭单品\n上身绝美 这份质感\n小仙女们值得拥有\n尺寸:18 15","specs":{"source":"wsxcme","sourceId":"_dv3v3aDa-OtggvzfYQxzNSotWS_mpz-GO5V-a0w","sourceTagId":47003106,"sourceTagName":"塞琳/女包","rawTitle":"赛琳 Celine小猪包\n永远的百搭单品\n上身绝美 这份质感\n小仙女们值得拥有\n尺寸:18 15"},"price":null,"currency":"CNY","moq":1,"category":"celine-women-bags","status":"active","alibaba_url":null,"images":["https://xcimg.szwego.com/20221105/i1667649476_706_0.jpg","https://xcimg.szwego.com/20221105/i1667649476_6418_1.jpg","https://xcimg.szwego.com/20221105/i1667649476_9099_2.jpg","https://xcimg.szwego.com/20221105/i1667649476_1279_3.jpg","https://xcimg.szwego.com/20221105/i1667649476_6853_4.jpg","https://xcimg.szwego.com/20221105/i1667649476_996_5.jpg","https://xcimg.szwego.com/20221105/i1667649476_2969_6.jpg","https://xcimg.szwego.com/20221105/i1667649476_4302_7.jpg","https://xcimg.szwego.com/20221105/i1667649476_5424_8.jpg"],"created_at":"2025-02-08T12:47:23.829Z"},{"id":"item-2d86bb285291","sku":"_dMPMPrmnC9jUo0RL5iPDZBPbACdNVYgZ1gLwoZA","name_en":"Celine Women Bags","name_cn":"赛琳 凯旋门腋下包(链条款)\nCeline满足日常所有需求\n简直能装下整个世界\n出门旅行非常方便\n时髦感满满\n尺寸19.5×11.5cm","specs":{"source":"wsxcme","sourceId":"_dMPMPrmnC9jUo0RL5iPDZBPbACdNVYgZ1gLwoZA","sourceTagId":47003106,"sourceTagName":"塞琳/女包","rawTitle":"赛琳 凯旋门腋下包(链条款)\nCeline满足日常所有需求\n简直能装下整个世界\n出门旅行非常方便\n时髦感满满\n尺寸19.5×11.5cm"},"price":null,"currency":"CNY","moq":1,"category":"celine-women-bags","status":"active","alibaba_url":null,"images":["https://xcimg.szwego.com/20221105/i1667648879_7563_0.jpg","https://xcimg.szwego.com/20221105/i1667648879_9548_1.jpg","https://xcimg.szwego.com/20221105/i1667648879_6648_2.jpg","https://xcimg.szwego.com/20221105/i1667648879_5959_3.jpg","https://xcimg.szwego.com/20221105/i1667648879_7108_4.jpg","https://xcimg.szwego.com/20221105/i1667648879_2611_5.jpg","https://xcimg.szwego.com/20221105/i1667648879_9601_6.jpg","https://xcimg.szwego.com/20221105/i1667648879_3087_7.jpg","https://xcimg.szwego.com/20221105/i1667648879_7943_8.jpg"],"created_at":"2025-02-08T12:47:23.828Z"},{"id":"item-1128b3d9cbde","sku":"_d0909TM_f9E40vsRU-sMf0cdffFShoRvNi7ds_w","name_en":"赛琳款号:8021TRIOMPHE波士顿包』","name_cn":"赛琳款号:8021TRIOMPHE波士顿包』\n近期火爆热销款、高颜值旅行袋✈️复古致极的凯旋印花图案简约线条流利、伴随原设计的颠覆性、真的很old school \n让人不经意秒get💢\n款号:190372料_黄鹤棕\n尺寸:31-18-16","specs":{"source":"wsxcme","sourceId":"_d0909TM_f9E40vsRU-sMf0cdffFShoRvNi7ds_w","sourceTagId":47003106,"sourceTagName":"塞琳/女包","modelNumber":"8021TRIOMPHE波士顿包』","rawTitle":"赛琳款号:8021TRIOMPHE波士顿包』\n近期火爆热销款、高颜值旅行袋✈️复古致极的凯旋印花图案简约线条流利、伴随原设计的颠覆性、真的很old school \n让人不经意秒get💢\n款号:190372料_黄鹤棕\n尺寸:31-18-16"},"price":null,"currency":"CNY","moq":1,"category":"celine-women-bags","status":"active","alibaba_url":null,"images":["https://xcimg.szwego.com/20220903/a1662138730413_1827.jpg","https://xcimg.szwego.com/20220903/a1662138730588_1811.jpg","https://xcimg.szwego.com/20220903/a1662138730593_3451.jpg","https://xcimg.szwego.com/20220903/a1662138730612_6433.jpg","https://xcimg.szwego.com/20220903/a1662138730626_3846.jpg","https://xcimg.szwego.com/20220903/a1662138730639_7334.jpg","https://xcimg.szwego.com/20220903/a1662138730653_5811.jpg","https://xcimg.szwego.com/20220903/a1662138730667_6527.jpg","https://xcimg.szwego.com/20220903/a1662138730948_2157.jpg"],"created_at":"2025-02-08T12:47:23.827Z"},{"id":"item-6ede9e574a66","sku":"_dekekoOVs57hDQrEwnHbjY_SzMC5Evn5gCeDFmg","name_en":"新款 赛琳老花系列 Celin.e TRIOMPHE帆布中号购物袋,65%涂层帆布和35%小牛皮,100%棉衬里,按扣开合,内侧扁平口袋,容量超大 既好看 又能装#购物逛街必带包# 超满足#","name_cn":"新款 赛琳老花系列 Celin.e TRIOMPHE帆布中号购物袋,65%涂层帆布和35%小牛皮,100%棉衬里,按扣开合,内侧扁平口袋,容量超大 既好看 又能装#购物逛街必带包# 超满足# \n尺寸30 X 37 X 22cm\n型号:4111#","specs":{"source":"wsxcme","sourceId":"_dekekoOVs57hDQrEwnHbjY_SzMC5Evn5gCeDFmg","sourceTagId":47003106,"sourceTagName":"塞琳/女包","modelNumber":"4111#","dimensions":{"lengthCm":30,"heightCm":37,"widthCm":22},"rawTitle":"新款 赛琳老花系列 Celin.e TRIOMPHE帆布中号购物袋,65%涂层帆布和35%小牛皮,100%棉衬里,按扣开合,内侧扁平口袋,容量超大 既好看 又能装#购物逛街必带包# 超满足# \n尺寸30 X 37 X 22cm\n型号:4111#"},"price":null,"currency":"CNY","moq":1,"category":"celine-women-bags","status":"active","alibaba_url":null,"images":["https://xcimg.szwego.com/20220702/i1656743349_8609_0.jpg","https://xcimg.szwego.com/20220702/i1656743349_193_1.jpg","https://xcimg.szwego.com/20220702/i1656743349_2288_2.jpg","https://xcimg.szwego.com/20220702/i1656743349_5364_3.jpg","https://xcimg.szwego.com/20220702/i1656743349_2156_4.jpg","https://xcimg.szwego.com/20220702/i1656743349_5037_5.jpg","https://xcimg.szwego.com/20220702/i1656743349_1739_7.jpg","https://xcimg.szwego.com/20220702/i1656743349_955_8.jpg"],"created_at":"2025-02-08T12:47:23.826Z"},{"id":"item-2cfac4c13ab7","sku":"_dk2k2wgfTqdxXTfPHbyUip582prOhl6toGkbTtw","name_en":"『Celine 赛琳』","name_cn":"『Celine 赛琳』\n\nCeline/赛琳22新款圆筒包\n经典老花印花单肩斜挎包\n男女通用哦 尺寸23 13cm \n肩带可调节长短!","specs":{"source":"wsxcme","sourceId":"_dk2k2wgfTqdxXTfPHbyUip582prOhl6toGkbTtw","sourceTagId":47003106,"sourceTagName":"塞琳/女包","rawTitle":"『Celine 赛琳』\n\nCeline/赛琳22新款圆筒包\n经典老花印花单肩斜挎包\n男女通用哦 尺寸23 13cm \n肩带可调节长短!"},"price":null,"currency":"CNY","moq":1,"category":"celine-women-bags","status":"active","alibaba_url":null,"images":["https://xcimg.szwego.com/20220629/i1656457574_1981_8.jpg","https://xcimg.szwego.com/20220629/i1656457574_6739_1.jpg","https://xcimg.szwego.com/20220629/i1656457574_1510_5.jpg","https://xcimg.szwego.com/20220629/i1656457574_1468_7.jpg","https://xcimg.szwego.com/20220629/i1656457574_1021_2.jpg","https://xcimg.szwego.com/20220629/i1656457574_9282_3.jpg","https://xcimg.szwego.com/20220629/i1656457574_7724_4.jpg","https://xcimg.szwego.com/20220629/i1656457574_5612_6.jpg","https://xcimg.szwego.com/20220629/i1656457574_2401_0.jpg"],"created_at":"2025-02-08T12:47:23.825Z"},{"id":"item-70954a3b7725","sku":"_dxVxVysACnUroH4XMDliVJTKaU4UYPyVcFCuChg","name_en":"『Celine 赛琳』","name_cn":"『Celine 赛琳』\n\n新品水桶包\n走秀款麻绳水桶\n一眼便爱上 \n太有夏天的味道了\n复古老花搭配朴实粗绳肩带\n一种法式的随意高级感!\n尺寸:19*23cm","specs":{"source":"wsxcme","sourceId":"_dxVxVysACnUroH4XMDliVJTKaU4UYPyVcFCuChg","sourceTagId":47003106,"sourceTagName":"塞琳/女包","rawTitle":"『Celine 赛琳』\n\n新品水桶包\n走秀款麻绳水桶\n一眼便爱上 \n太有夏天的味道了\n复古老花搭配朴实粗绳肩带\n一种法式的随意高级感!\n尺寸:19*23cm"},"price":null,"currency":"CNY","moq":1,"category":"celine-women-bags","status":"active","alibaba_url":null,"images":["https://xcimg.szwego.com/20220606/i1654507226_1515_0.jpg","https://xcimg.szwego.com/20220606/i1654507226_2330_1.jpg","https://xcimg.szwego.com/20220606/i1654507226_6850_2.jpg","https://xcimg.szwego.com/20220606/i1654507226_7536_3.jpg","https://xcimg.szwego.com/20220606/i1654507226_5140_4.jpg","https://xcimg.szwego.com/20220606/i1654507226_8517_5.jpg","https://xcimg.szwego.com/20220606/i1654507226_1173_6.jpg","https://xcimg.szwego.com/20220606/i1654507226_6766_7.jpg","https://xcimg.szwego.com/20220606/i1654507226_9670_8.jpg"],"created_at":"2025-02-08T12:47:23.824Z"},{"id":"item-14dfd074d9ce","sku":"_dQ8Q8U8qGpsk7ymUryHgCD25nYjXzYE15hkEZyg","name_en":"『Celine 赛琳』","name_cn":"『Celine 赛琳』\n\nCELINE托特包 手拎和单肩都很好看有腔调!老花搭配任何衣服都非常百搭,四季可用,让你可甜可盐,今年的老花风潮风靡全世界,拥有这只一定让你成为全场最有话题的时髦精 尺寸17*21cm","specs":{"source":"wsxcme","sourceId":"_dQ8Q8U8qGpsk7ymUryHgCD25nYjXzYE15hkEZyg","sourceTagId":47003106,"sourceTagName":"塞琳/女包","rawTitle":"『Celine 赛琳』\n\nCELINE托特包 手拎和单肩都很好看有腔调!老花搭配任何衣服都非常百搭,四季可用,让你可甜可盐,今年的老花风潮风靡全世界,拥有这只一定让你成为全场最有话题的时髦精 尺寸17*21cm"},"price":null,"currency":"CNY","moq":1,"category":"celine-women-bags","status":"active","alibaba_url":null,"images":["https://xcimg.szwego.com/20220401/i1648813230_9141_0.jpg","https://xcimg.szwego.com/20220401/i1648813230_3157_1.jpg","https://xcimg.szwego.com/20220401/i1648813230_3121_2.jpg","https://xcimg.szwego.com/20220401/i1648813230_6281_3.jpg","https://xcimg.szwego.com/20220401/i1648813230_8168_4.jpg","https://xcimg.szwego.com/20220401/i1648813230_485_5.jpg","https://xcimg.szwego.com/20220401/i1648813230_5118_6.jpg","https://xcimg.szwego.com/20220401/i1648813230_2092_7.jpg","https://xcimg.szwego.com/20220401/i1648813230_1782_8.jpg"],"created_at":"2025-02-08T12:47:23.823Z"},{"id":"item-126ef0b067c2","sku":"_dwVwVbGtanVtOePYe6jctd8-51cBuqO_hkPsX0w","name_en":"『Celine 赛琳』","name_cn":"『Celine 赛琳』\n\n腋下包 最近发现 复古的老花风潮 持续升温Lisa作为Celine亚洲唯一代言人Celine老花 出镜率都很高!高级感超强!尺寸24*14cm","specs":{"source":"wsxcme","sourceId":"_dwVwVbGtanVtOePYe6jctd8-51cBuqO_hkPsX0w","sourceTagId":47003106,"sourceTagName":"塞琳/女包","rawTitle":"『Celine 赛琳』\n\n腋下包 最近发现 复古的老花风潮 持续升温Lisa作为Celine亚洲唯一代言人Celine老花 出镜率都很高!高级感超强!尺寸24*14cm"},"price":null,"currency":"CNY","moq":1,"category":"celine-women-bags","status":"active","alibaba_url":null,"images":["https://xcimg.szwego.com/20220108/i1641636261_7813_0.jpg","https://xcimg.szwego.com/20220108/i1641636261_2102_1.jpg","https://xcimg.szwego.com/20220108/i1641636261_5614_2.jpg","https://xcimg.szwego.com/20220108/i1641636261_9018_3.jpg","https://xcimg.szwego.com/20220108/i1641636261_4349_4.jpg","https://xcimg.szwego.com/20220108/i1641636261_4761_5.jpg","https://xcimg.szwego.com/20220108/i1641636261_7280_6.jpg","https://xcimg.szwego.com/20220108/i1641636261_7868_7.jpg","https://xcimg.szwego.com/20220108/i1641636261_1910_8.jpg"],"created_at":"2025-02-08T12:47:23.822Z"},{"id":"item-7146b00391ff","sku":"_dS3S3Dev4ickxKkZaZcKfTy1kiCMxWoid3XFrJw","name_en":"『Celine 赛琳』","name_cn":"『Celine 赛琳』\n\n专柜同步 赛琳celine专柜最新款水桶购物袋🛍️全新搭配 原版18K金五金 高端品质 原版面料 超级大牌的一款 上身特别洋气 喜欢的美妞抓紧自留啦 尺寸小号:18*22cm 大号28*27","specs":{"source":"wsxcme","sourceId":"_dS3S3Dev4ickxKkZaZcKfTy1kiCMxWoid3XFrJw","sourceTagId":47003106,"sourceTagName":"塞琳/女包","rawTitle":"『Celine 赛琳』\n\n专柜同步 赛琳celine专柜最新款水桶购物袋🛍️全新搭配 原版18K金五金 高端品质 原版面料 超级大牌的一款 上身特别洋气 喜欢的美妞抓紧自留啦 尺寸小号:18*22cm 大号28*27"},"price":null,"currency":"CNY","moq":1,"category":"celine-women-bags","status":"active","alibaba_url":null,"images":["https://xcimg.szwego.com/20220628/i1656378862_3024_0.jpg","https://xcimg.szwego.com/20220628/i1656378862_115_4.jpg","https://xcimg.szwego.com/20220628/i1656378862_4225_1.jpg","https://xcimg.szwego.com/20220628/i1656378862_3512_2.jpg","https://xcimg.szwego.com/20220628/i1656378862_6955_3.jpg","https://xcimg.szwego.com/20220628/i1656378862_7685_5.jpg"],"created_at":"2025-02-08T12:47:23.821Z"},{"id":"item-b79101a77302","sku":"_drlrl5njhvJQjnYlUMHSfOZU80pkkoxLpzObcCg","name_en":"『Celine 赛琳』","name_cn":"『Celine 赛琳』\n\n专柜同步 赛琳celine专柜最新款水桶购物袋🛍️全新搭配 原版18K金五金 高端品质 原版面料 超级大牌的一款 上身特别洋气 喜欢的美妞抓紧自留啦 尺寸小号:18*22cm 大号28*27","specs":{"source":"wsxcme","sourceId":"_drlrl5njhvJQjnYlUMHSfOZU80pkkoxLpzObcCg","sourceTagId":47003106,"sourceTagName":"塞琳/女包","rawTitle":"『Celine 赛琳』\n\n专柜同步 赛琳celine专柜最新款水桶购物袋🛍️全新搭配 原版18K金五金 高端品质 原版面料 超级大牌的一款 上身特别洋气 喜欢的美妞抓紧自留啦 尺寸小号:18*22cm 大号28*27"},"price":null,"currency":"CNY","moq":1,"category":"celine-women-bags","status":"active","alibaba_url":null,"images":["https://xcimg.szwego.com/20220628/i1656379321_968_0.jpg","https://xcimg.szwego.com/20220628/i1656379340_7541_0.jpg","https://xcimg.szwego.com/20220628/i1656379321_2017_1.jpg","https://xcimg.szwego.com/20220628/i1656379321_1754_2.jpg","https://xcimg.szwego.com/20220628/i1656379321_1980_3.jpg","https://xcimg.szwego.com/20220628/i1656379321_3996_4.jpg"],"created_at":"2025-02-08T12:47:23.820Z"},{"id":"item-87005f04ee1b","sku":"_djkjkdmKKsZjrIO6Ud6gNYGHE22H8AxUkHtvs0g","name_en":"『Celine 赛琳』","name_cn":"『Celine 赛琳』\n\nCELINE ♥ TRIOMPHE SHOULDER BAG\n感觉这两年Celine是不是打开了任督二脉!出的包是越来越绝了!新款凯旋门腋下包简直惊喜爆棚!确认过眼神是我想要的包!必须要拥有的那种❗️尺寸:20*10*4cm","specs":{"source":"wsxcme","sourceId":"_djkjkdmKKsZjrIO6Ud6gNYGHE22H8AxUkHtvs0g","sourceTagId":47003106,"sourceTagName":"塞琳/女包","dimensions":{"lengthCm":20,"heightCm":10,"widthCm":4},"rawTitle":"『Celine 赛琳』\n\nCELINE ♥ TRIOMPHE SHOULDER BAG\n感觉这两年Celine是不是打开了任督二脉!出的包是越来越绝了!新款凯旋门腋下包简直惊喜爆棚!确认过眼神是我想要的包!必须要拥有的那种❗️尺寸:20*10*4cm"},"price":null,"currency":"CNY","moq":1,"category":"celine-women-bags","status":"active","alibaba_url":null,"images":["https://xcimg.szwego.com/20220712/i1657590090_4005_0.jpg","https://xcimg.szwego.com/20220712/i1657590090_1163_1.jpg","https://xcimg.szwego.com/20220712/i1657590090_1678_2.jpg","https://xcimg.szwego.com/20220712/i1657590090_522_3.jpg","https://xcimg.szwego.com/20220712/i1657590090_6724_4.jpg","https://xcimg.szwego.com/20220712/i1657590090_54_5.jpg","https://xcimg.szwego.com/20220712/i1657590090_8150_6.jpg","https://xcimg.szwego.com/20220712/i1657590090_8482_7.jpg","https://xcimg.szwego.com/20220712/i1657590090_8654_8.jpg"],"created_at":"2025-02-08T12:47:23.819Z"},{"id":"item-1d982f49bfe2","sku":"_drTrTSrB3WIvaAWVwFiGz24PF4hE6FCFlcN3fFg","name_en":"『Celine 赛琳』","name_cn":"『Celine 赛琳』\n\nCELINE ♥ TRIOMPHE SHOULDER BAG\n感觉这两年Celine是不是打开了任督二脉!出的包是越来越绝了!新款凯旋门腋下包简直惊喜爆棚!确认过眼神是我想要的包!必须要拥有的那种❗️尺寸:20*10*4cm","specs":{"source":"wsxcme","sourceId":"_drTrTSrB3WIvaAWVwFiGz24PF4hE6FCFlcN3fFg","sourceTagId":47003106,"sourceTagName":"塞琳/女包","dimensions":{"lengthCm":20,"heightCm":10,"widthCm":4},"rawTitle":"『Celine 赛琳』\n\nCELINE ♥ TRIOMPHE SHOULDER BAG\n感觉这两年Celine是不是打开了任督二脉!出的包是越来越绝了!新款凯旋门腋下包简直惊喜爆棚!确认过眼神是我想要的包!必须要拥有的那种❗️尺寸:20*10*4cm"},"price":null,"currency":"CNY","moq":1,"category":"celine-women-bags","status":"active","alibaba_url":null,"images":["https://xcimg.szwego.com/20220712/i1657590077_4095_0.jpg","https://xcimg.szwego.com/20220712/i1657590077_9319_1.jpg","https://xcimg.szwego.com/20220712/i1657590077_8437_2.jpg","https://xcimg.szwego.com/20220712/i1657590077_9255_3.jpg","https://xcimg.szwego.com/20220712/i1657590077_3003_4.jpg","https://xcimg.szwego.com/20220712/i1657590077_5302_5.jpg","https://xcimg.szwego.com/20220712/i1657590077_813_6.jpg","https://xcimg.szwego.com/20220712/i1657590077_7210_7.jpg","https://xcimg.szwego.com/20220712/i1657590077_6025_8.jpg"],"created_at":"2025-02-08T12:47:23.818Z"},{"id":"item-65c98b95f20e","sku":"_dumumhLz2M5cH7Kz_16-bPIWmVufpZbpiH8SfEg","name_en":"『Celine 赛琳』","name_cn":"『Celine 赛琳』\n\nCELINE ♥ TRIOMPHE SHOULDER BAG\n感觉这两年Celine是不是打开了任督二脉!出的包是越来越绝了!新款凯旋门腋下包简直惊喜爆棚!确认过眼神是我想要的包!必须要拥有的那种❗️尺寸:20*10*4cm","specs":{"source":"wsxcme","sourceId":"_dumumhLz2M5cH7Kz_16-bPIWmVufpZbpiH8SfEg","sourceTagId":47003106,"sourceTagName":"塞琳/女包","dimensions":{"lengthCm":20,"heightCm":10,"widthCm":4},"rawTitle":"『Celine 赛琳』\n\nCELINE ♥ TRIOMPHE SHOULDER BAG\n感觉这两年Celine是不是打开了任督二脉!出的包是越来越绝了!新款凯旋门腋下包简直惊喜爆棚!确认过眼神是我想要的包!必须要拥有的那种❗️尺寸:20*10*4cm"},"price":null,"currency":"CNY","moq":1,"category":"celine-women-bags","status":"active","alibaba_url":null,"images":["https://xcimg.szwego.com/20220712/i1657590062_2781_0.jpg","https://xcimg.szwego.com/20220712/i1657590062_249_1.jpg","https://xcimg.szwego.com/20220712/i1657590062_8342_2.jpg","https://xcimg.szwego.com/20220712/i1657590062_9959_3.jpg","https://xcimg.szwego.com/20220712/i1657590062_7902_4.jpg","https://xcimg.szwego.com/20220712/i1657590062_1577_5.jpg","https://xcimg.szwego.com/20220712/i1657590062_7223_6.jpg","https://xcimg.szwego.com/20220712/i1657590062_7456_7.jpg","https://xcimg.szwego.com/20220712/i1657590062_6316_8.jpg"],"created_at":"2025-02-08T12:47:23.817Z"},{"id":"item-2fd75d83224d","sku":"_dpCpC5tZQSOIHDszYi_Ng6CXeq3bAdNWghPcT1Q","name_en":"『Celine 赛琳』","name_cn":"『Celine 赛琳』\n\nCELINE ♥ TRIOMPHE SHOULDER BAG\n感觉这两年Celine是不是打开了任督二脉!出的包是越来越绝了!新款凯旋门腋下包简直惊喜爆棚!确认过眼神是我想要的包!必须要拥有的那种❗️尺寸:20*10*4cm","specs":{"source":"wsxcme","sourceId":"_dpCpC5tZQSOIHDszYi_Ng6CXeq3bAdNWghPcT1Q","sourceTagId":47003106,"sourceTagName":"塞琳/女包","dimensions":{"lengthCm":20,"heightCm":10,"widthCm":4},"rawTitle":"『Celine 赛琳』\n\nCELINE ♥ TRIOMPHE SHOULDER BAG\n感觉这两年Celine是不是打开了任督二脉!出的包是越来越绝了!新款凯旋门腋下包简直惊喜爆棚!确认过眼神是我想要的包!必须要拥有的那种❗️尺寸:20*10*4cm"},"price":null,"currency":"CNY","moq":1,"category":"celine-women-bags","status":"active","alibaba_url":null,"images":["https://xcimg.szwego.com/20220712/i1657590053_5494_0.jpg","https://xcimg.szwego.com/20220712/i1657590053_2709_1.jpg","https://xcimg.szwego.com/20220712/i1657590053_1148_2.jpg","https://xcimg.szwego.com/20220712/i1657590053_3839_3.jpg","https://xcimg.szwego.com/20220712/i1657590053_3754_4.jpg","https://xcimg.szwego.com/20220712/i1657590053_7097_5.jpg","https://xcimg.szwego.com/20220712/i1657590053_6396_6.jpg","https://xcimg.szwego.com/20220712/i1657590053_5913_7.jpg","https://xcimg.szwego.com/20220712/i1657590053_1534_8.jpg"],"created_at":"2025-02-08T12:47:23.816Z"},{"id":"item-d2bb27ffae23","sku":"_d-B-BRUwtSBNjtKPVC1f_Znwu5fFbo-SYw5ZCiw","name_en":"『Celine 赛琳』","name_cn":"『Celine 赛琳』\n\nCELINE ♥ TRIOMPHE SHOULDER BAG\n感觉这两年Celine是不是打开了任督二脉!出的包是越来越绝了!新款凯旋门腋下包简直惊喜爆棚!确认过眼神是我想要的包!必须要拥有的那种❗️尺寸:20*10*4cm","specs":{"source":"wsxcme","sourceId":"_d-B-BRUwtSBNjtKPVC1f_Znwu5fFbo-SYw5ZCiw","sourceTagId":47003106,"sourceTagName":"塞琳/女包","dimensions":{"lengthCm":20,"heightCm":10,"widthCm":4},"rawTitle":"『Celine 赛琳』\n\nCELINE ♥ TRIOMPHE SHOULDER BAG\n感觉这两年Celine是不是打开了任督二脉!出的包是越来越绝了!新款凯旋门腋下包简直惊喜爆棚!确认过眼神是我想要的包!必须要拥有的那种❗️尺寸:20*10*4cm"},"price":null,"currency":"CNY","moq":1,"category":"celine-women-bags","status":"active","alibaba_url":null,"images":["https://xcimg.szwego.com/20220712/i1657590042_8407_0.jpg","https://xcimg.szwego.com/20220712/i1657590042_7281_1.jpg","https://xcimg.szwego.com/20220712/i1657590042_343_2.jpg","https://xcimg.szwego.com/20220712/i1657590042_9636_3.jpg","https://xcimg.szwego.com/20220712/i1657590042_9335_4.jpg","https://xcimg.szwego.com/20220712/i1657590042_5894_5.jpg","https://xcimg.szwego.com/20220712/i1657590042_8526_6.jpg","https://xcimg.szwego.com/20220712/i1657590042_7074_7.jpg","https://xcimg.szwego.com/20220712/i1657590042_1035_8.jpg"],"created_at":"2025-02-08T12:47:23.815Z"},{"id":"item-4e6800fc3771","sku":"_djWjWf9E5n6Oj4IpfN30y8XFUuNEMycareUkShg","name_en":"『Celine 赛琳』","name_cn":"『Celine 赛琳』\n\nCELINE ♥ TRIOMPHE SHOULDER BAG\n感觉这两年Celine是不是打开了任督二脉!出的包是越来越绝了!新款凯旋门腋下包简直惊喜爆棚!确认过眼神是我想要的包!必须要拥有的那种❗️尺寸:20*10*4cm","specs":{"source":"wsxcme","sourceId":"_djWjWf9E5n6Oj4IpfN30y8XFUuNEMycareUkShg","sourceTagId":47003106,"sourceTagName":"塞琳/女包","dimensions":{"lengthCm":20,"heightCm":10,"widthCm":4},"rawTitle":"『Celine 赛琳』\n\nCELINE ♥ TRIOMPHE SHOULDER BAG\n感觉这两年Celine是不是打开了任督二脉!出的包是越来越绝了!新款凯旋门腋下包简直惊喜爆棚!确认过眼神是我想要的包!必须要拥有的那种❗️尺寸:20*10*4cm"},"price":null,"currency":"CNY","moq":1,"category":"celine-women-bags","status":"active","alibaba_url":null,"images":["https://xcimg.szwego.com/20220712/i1657590032_7894_0.jpg","https://xcimg.szwego.com/20220712/i1657590032_5467_1.jpg","https://xcimg.szwego.com/20220712/i1657590032_8741_2.jpg","https://xcimg.szwego.com/20220712/i1657590032_462_3.jpg","https://xcimg.szwego.com/20220712/i1657590032_1646_4.jpg","https://xcimg.szwego.com/20220712/i1657590032_1875_5.jpg","https://xcimg.szwego.com/20220712/i1657590032_451_6.jpg","https://xcimg.szwego.com/20220712/i1657590032_4289_7.jpg","https://xcimg.szwego.com/20220712/i1657590032_8140_8.jpg"],"created_at":"2025-02-08T12:47:23.814Z"},{"id":"item-dde40c600cb0","sku":"_dAXAXMrooXaRNyb4Vo3AvLLgHe_ImkouQeVcFZQ","name_en":"『Celine 赛琳』","name_cn":"『Celine 赛琳』\n\nCELINE ♥ TRIOMPHE SHOULDER BAG\n感觉这两年Celine是不是打开了任督二脉!出的包是越来越绝了!新款凯旋门腋下包简直惊喜爆棚!确认过眼神是我想要的包!必须要拥有的那种❗️尺寸:20*10*4cm","specs":{"source":"wsxcme","sourceId":"_dAXAXMrooXaRNyb4Vo3AvLLgHe_ImkouQeVcFZQ","sourceTagId":47003106,"sourceTagName":"塞琳/女包","dimensions":{"lengthCm":20,"heightCm":10,"widthCm":4},"rawTitle":"『Celine 赛琳』\n\nCELINE ♥ TRIOMPHE SHOULDER BAG\n感觉这两年Celine是不是打开了任督二脉!出的包是越来越绝了!新款凯旋门腋下包简直惊喜爆棚!确认过眼神是我想要的包!必须要拥有的那种❗️尺寸:20*10*4cm"},"price":null,"currency":"CNY","moq":1,"category":"celine-women-bags","status":"active","alibaba_url":null,"images":["https://xcimg.szwego.com/20220712/i1657590014_1798_0.jpg","https://xcimg.szwego.com/20220712/i1657590014_4470_1.jpg","https://xcimg.szwego.com/20220712/i1657590014_4466_2.jpg","https://xcimg.szwego.com/20220712/i1657590014_1968_3.jpg","https://xcimg.szwego.com/20220712/i1657590014_7818_4.jpg","https://xcimg.szwego.com/20220712/i1657590014_4514_5.jpg","https://xcimg.szwego.com/20220712/i1657590014_7533_6.jpg","https://xcimg.szwego.com/20220712/i1657590014_9263_7.jpg","https://xcimg.szwego.com/20220712/i1657590014_3755_8.jpg"],"created_at":"2025-02-08T12:47:23.813Z"}],"page":169,"pageSize":24,"total":10075,"totalPages":420}
