{"items":[{"id":"item-d7fdcb5cdeca","sku":"_dkukuqYx19iVFV3wuOG1XkXDF0JV-QZVDWmskaQ","name_en":"Bvlgari Women Bags","name_cn":"既优雅又随性,美丽又洒脱,完美结合","specs":{"source":"wsxcme","sourceId":"_dkukuqYx19iVFV3wuOG1XkXDF0JV-QZVDWmskaQ","sourceTagId":47002756,"sourceTagName":"宝格丽/女包","rawTitle":"既优雅又随性,美丽又洒脱,完美结合"},"price":null,"currency":"CNY","moq":1,"category":"bvlgari-women-bags","status":"active","alibaba_url":null,"images":["https://xcimg.szwego.com/20221220/i1671550118_1365_0.jpg","https://xcimg.szwego.com/20221220/i1671550118_7283_1.jpg","https://xcimg.szwego.com/20221220/i1671550118_4008_2.jpg","https://xcimg.szwego.com/20221220/i1671550118_9724_3.jpg"],"created_at":"2024-10-07T10:58:53.559Z"},{"id":"item-34ade1bb9366","sku":"_dwKwKZqH2UxaaQG5E6E0fJMlKLpBfJT4MrTX66w","name_en":"Miu Miu Women Bags","name_cn":"【特级五金原厂皮】 ~進口牛皮革掛飾\n\n這款掛飾可裝點其他配件,格調獨特。飾以壓花徽標,增添標志性元素。\n-係帶開合\n-拉鏈開合\n-壓花字母徽標\n-帶襯裡\n尺寸:w11×h7×d4cm\n編號:5NR036 _ 020 _ MM030","specs":{"source":"wsxcme","sourceId":"_dwKwKZqH2UxaaQG5E6E0fJMlKLpBfJT4MrTX66w","sourceTagId":68075769,"sourceTagName":"Miu Miu /女包","rawTitle":"【特级五金原厂皮】 ~進口牛皮革掛飾\n\n這款掛飾可裝點其他配件,格調獨特。飾以壓花徽標,增添標志性元素。\n-係帶開合\n-拉鏈開合\n-壓花字母徽標\n-帶襯裡\n尺寸:w11×h7×d4cm\n編號:5NR036 _ 020 _ MM030"},"price":null,"currency":"CNY","moq":1,"category":"miu-miu-women-bags","status":"active","alibaba_url":null,"images":["https://xcimg.szwego.com/img/c4e87dad/20240922/i1726976857_5309_1.jpg","https://xcimg.szwego.com/img/c4e87dad/20240922/i1726976857_302_2.jpg","https://xcimg.szwego.com/img/c4e87dad/20240922/i1726976857_7301_4.jpg","https://xcimg.szwego.com/img/c4e87dad/20240922/i1726976857_7156_5.jpg","https://xcimg.szwego.com/img/c4e87dad/20240922/i1726976857_8486_0.jpg","https://xcimg.szwego.com/img/c4e87dad/20240922/i1726976857_5385_3.jpg"],"created_at":"2024-09-27T07:07:24.234Z"},{"id":"item-d092d4128bac","sku":"_dn1n1-wuvcZ8Os_FegqDderBQ4rqhkJ2vXL6skQ","name_en":"Miu Miu Women Bags","name_cn":"原厂皮\n【特级五金原厂皮】 ~南瓜色進口牛皮革掛飾\n\n這款掛飾可裝點其他配件,格調獨特。飾以壓花徽標,增添標志性元素。\n-係帶開合\n-拉鏈開合\n-壓花字母徽標\n-帶襯裡\n尺寸:w11×h7×d4cm(石榴橙)\n編號:5NR036 _ 020 _ MM030","specs":{"source":"wsxcme","sourceId":"_dn1n1-wuvcZ8Os_FegqDderBQ4rqhkJ2vXL6skQ","sourceTagId":68075769,"sourceTagName":"Miu Miu /女包","rawTitle":"原厂皮\n【特级五金原厂皮】 ~南瓜色進口牛皮革掛飾\n\n這款掛飾可裝點其他配件,格調獨特。飾以壓花徽標,增添標志性元素。\n-係帶開合\n-拉鏈開合\n-壓花字母徽標\n-帶襯裡\n尺寸:w11×h7×d4cm(石榴橙)\n編號:5NR036 _ 020 _ MM030"},"price":null,"currency":"CNY","moq":1,"category":"miu-miu-women-bags","status":"active","alibaba_url":null,"images":["https://xcimg.szwego.com/img/c4e87dad/20240922/i1726976383_9457_6.jpg","https://xcimg.szwego.com/img/c4e87dad/20240922/i1726976383_5936_7.jpg","https://xcimg.szwego.com/img/c4e87dad/20240922/i1726976383_7355_5.jpg","https://xcimg.szwego.com/img/c4e87dad/20240922/i1726976383_1429_3.jpg","https://xcimg.szwego.com/img/c4e87dad/20240922/i1726976383_4760_4.jpg","https://xcimg.szwego.com/img/c4e87dad/20240922/i1726976383_8966_8.jpg","https://xcimg.szwego.com/img/c4e87dad/20240922/i1726976383_9737_2.jpg","https://xcimg.szwego.com/img/c4e87dad/20240922/i1726976383_9253_1.jpg","https://xcimg.szwego.com/img/c4e87dad/20240922/i1726976383_8785_0.jpg"],"created_at":"2024-09-27T07:07:24.233Z"},{"id":"item-520480b9dc65","sku":"_d0j0jmz2jAhvKMbcXwJ1AsiIhHeZvXxxi-JNAsQ","name_en":"Miu Miu Women Bags","name_cn":"原厂皮\n【特级五金原厂皮】 ~紅色進口牛皮革掛飾\n\n這款掛飾可裝點其他配件,格調獨特。飾以壓花徽標,增添標志性元素。\n-係帶開合\n-拉鏈開合\n-壓花字母徽標\n-帶襯裡\n尺寸:w11×h7×d4cm\n編號:5NR036 _ 020 _ MM030","specs":{"source":"wsxcme","sourceId":"_d0j0jmz2jAhvKMbcXwJ1AsiIhHeZvXxxi-JNAsQ","sourceTagId":68075769,"sourceTagName":"Miu Miu /女包","rawTitle":"原厂皮\n【特级五金原厂皮】 ~紅色進口牛皮革掛飾\n\n這款掛飾可裝點其他配件,格調獨特。飾以壓花徽標,增添標志性元素。\n-係帶開合\n-拉鏈開合\n-壓花字母徽標\n-帶襯裡\n尺寸:w11×h7×d4cm\n編號:5NR036 _ 020 _ MM030"},"price":null,"currency":"CNY","moq":1,"category":"miu-miu-women-bags","status":"active","alibaba_url":null,"images":["https://xcimg.szwego.com/img/c4e87dad/20240922/i1726976077_4280_1.jpg","https://xcimg.szwego.com/img/c4e87dad/20240922/i1726976077_9654_5.jpg","https://xcimg.szwego.com/img/c4e87dad/20240922/i1726976077_3678_7.jpg","https://xcimg.szwego.com/img/c4e87dad/20240922/i1726976077_8140_4.jpg","https://xcimg.szwego.com/img/c4e87dad/20240922/i1726976077_9548_3.jpg","https://xcimg.szwego.com/img/c4e87dad/20240922/i1726976077_9368_6.jpg","https://xcimg.szwego.com/img/c4e87dad/20240922/i1726976077_354_2.jpg","https://xcimg.szwego.com/img/c4e87dad/20240922/i1726976077_1975_0.jpg","https://xcimg.szwego.com/img/c4e87dad/20240922/i1726976077_499_8.jpg"],"created_at":"2024-09-27T07:07:24.232Z"},{"id":"item-a3f5f89f862c","sku":"_dIEIEUWh6ddMJJI3hlbtejoJ3O-V-DODz5R8u0g","name_en":"Miu Miu Women Bags","name_cn":"原厂皮\n【特级五金原厂皮】\n~石楠木進口牛皮革掛飾\n\n這款掛飾可裝點其他配件,格調獨特。飾以壓花徽標,增添標志性元素。\n-係帶開合\n-拉鏈開合\n-壓花字母徽標\n-帶襯裡\n尺寸:w11×h7×d4cm\n編號:5NR036 _ 020 _ MM030","specs":{"source":"wsxcme","sourceId":"_dIEIEUWh6ddMJJI3hlbtejoJ3O-V-DODz5R8u0g","sourceTagId":68075769,"sourceTagName":"Miu Miu /女包","rawTitle":"原厂皮\n【特级五金原厂皮】\n~石楠木進口牛皮革掛飾\n\n這款掛飾可裝點其他配件,格調獨特。飾以壓花徽標,增添標志性元素。\n-係帶開合\n-拉鏈開合\n-壓花字母徽標\n-帶襯裡\n尺寸:w11×h7×d4cm\n編號:5NR036 _ 020 _ MM030"},"price":null,"currency":"CNY","moq":1,"category":"miu-miu-women-bags","status":"active","alibaba_url":null,"images":["https://xcimg.szwego.com/img/c4e87dad/20240922/i1726975893_8343_5.jpg","https://xcimg.szwego.com/img/c4e87dad/20240922/i1726975893_7723_7.jpg","https://xcimg.szwego.com/img/c4e87dad/20240922/i1726975893_4307_8.jpg","https://xcimg.szwego.com/img/c4e87dad/20240922/i1726975893_5469_3.jpg","https://xcimg.szwego.com/img/c4e87dad/20240922/i1726975893_8017_2.jpg","https://xcimg.szwego.com/img/c4e87dad/20240922/i1726975893_2438_6.jpg","https://xcimg.szwego.com/img/c4e87dad/20240922/i1726975893_1672_1.jpg","https://xcimg.szwego.com/img/c4e87dad/20240922/i1726975893_5258_4.jpg","https://xcimg.szwego.com/img/c4e87dad/20240922/i1726975893_3777_0.jpg"],"created_at":"2024-09-27T07:07:24.231Z"},{"id":"item-6efc4abe181a","sku":"_dnlnlpDU-4LKOCTV8Obj5YifGAlUachph6lJ_uQ","name_en":"Miu Miu Women Bags","name_cn":"原厂皮\n【特级五金原厂皮】\n~棕色進口牛皮革掛飾\n\n這款掛飾可裝點其他配件,格調獨特。飾以壓花徽標,增添標志性元素。\n-係帶開合\n-拉鏈開合\n-壓花字母徽標\n-帶襯裡\n尺寸:w11×h7×d4cm\n編號:5NR036 _ 020 _ MM030","specs":{"source":"wsxcme","sourceId":"_dnlnlpDU-4LKOCTV8Obj5YifGAlUachph6lJ_uQ","sourceTagId":68075769,"sourceTagName":"Miu Miu /女包","rawTitle":"原厂皮\n【特级五金原厂皮】\n~棕色進口牛皮革掛飾\n\n這款掛飾可裝點其他配件,格調獨特。飾以壓花徽標,增添標志性元素。\n-係帶開合\n-拉鏈開合\n-壓花字母徽標\n-帶襯裡\n尺寸:w11×h7×d4cm\n編號:5NR036 _ 020 _ MM030"},"price":null,"currency":"CNY","moq":1,"category":"miu-miu-women-bags","status":"active","alibaba_url":null,"images":["https://xcimg.szwego.com/img/c4e87dad/20240922/i1726975733_1745_7.jpg","https://xcimg.szwego.com/img/c4e87dad/20240922/i1726975733_6920_5.jpg","https://xcimg.szwego.com/img/c4e87dad/20240922/i1726975733_6254_0.jpg","https://xcimg.szwego.com/img/c4e87dad/20240922/i1726975733_7466_4.jpg","https://xcimg.szwego.com/img/c4e87dad/20240922/i1726975733_8198_2.jpg","https://xcimg.szwego.com/img/c4e87dad/20240922/i1726975733_3732_3.jpg","https://xcimg.szwego.com/img/c4e87dad/20240922/i1726975733_1813_6.jpg","https://xcimg.szwego.com/img/c4e87dad/20240922/i1726975733_5825_1.jpg","https://xcimg.szwego.com/img/c4e87dad/20240922/i1726975733_3392_8.jpg"],"created_at":"2024-09-27T07:07:24.230Z"},{"id":"item-843ba959e480","sku":"_dbTbTZSenEqqti7y_fnDgpOD0bST8AJ5eoPeHKA","name_en":"Miu Miu Women Bags","name_cn":"原厂皮\n【特级五金原厂皮】~橙色進口牛皮革掛飾\n\n這款掛飾可裝點其他配件,格調獨特。飾以壓花徽標,增添標志性元素。\n-係帶開合\n-拉鏈開合\n-壓花字母徽標\n-帶襯裡\n尺寸:w11×h7×d4cm\n編號:5NR036 _ 020 _ MM030","specs":{"source":"wsxcme","sourceId":"_dbTbTZSenEqqti7y_fnDgpOD0bST8AJ5eoPeHKA","sourceTagId":68075769,"sourceTagName":"Miu Miu /女包","rawTitle":"原厂皮\n【特级五金原厂皮】~橙色進口牛皮革掛飾\n\n這款掛飾可裝點其他配件,格調獨特。飾以壓花徽標,增添標志性元素。\n-係帶開合\n-拉鏈開合\n-壓花字母徽標\n-帶襯裡\n尺寸:w11×h7×d4cm\n編號:5NR036 _ 020 _ MM030"},"price":null,"currency":"CNY","moq":1,"category":"miu-miu-women-bags","status":"active","alibaba_url":null,"images":["https://xcimg.szwego.com/img/c4e87dad/20240922/i1726975615_2576_8.jpg","https://xcimg.szwego.com/img/c4e87dad/20240922/i1726975615_8832_2.jpg","https://xcimg.szwego.com/img/c4e87dad/20240922/i1726975615_6552_5.jpg","https://xcimg.szwego.com/img/c4e87dad/20240922/i1726975615_6772_6.jpg","https://xcimg.szwego.com/img/c4e87dad/20240922/i1726975615_1458_7.jpg","https://xcimg.szwego.com/img/c4e87dad/20240922/i1726975615_7310_4.jpg","https://xcimg.szwego.com/img/c4e87dad/20240922/i1726975615_9560_0.jpg","https://xcimg.szwego.com/img/c4e87dad/20240922/i1726975615_142_3.jpg","https://xcimg.szwego.com/img/c4e87dad/20240922/i1726975615_7130_1.jpg"],"created_at":"2024-09-27T07:07:24.229Z"},{"id":"item-0a8a60fa81ef","sku":"_dgtgt5GVWiEk7afhRpOAVgTAwcsmpiuJWALmcLw","name_en":"Miu Miu Women Bags","name_cn":"原厂皮\n【特级五金原厂皮】~黑色進口牛皮革掛飾\n\n這款掛飾可裝點其他配件,格調獨特。飾以壓花徽標,增添標志性元素。\n-係帶開合\n-拉鏈開合\n-壓花字母徽標\n-帶襯裡\n尺寸:w11×h7×d4cm\n編號:5NR036 _ 020 _ MM030","specs":{"source":"wsxcme","sourceId":"_dgtgt5GVWiEk7afhRpOAVgTAwcsmpiuJWALmcLw","sourceTagId":68075769,"sourceTagName":"Miu Miu /女包","rawTitle":"原厂皮\n【特级五金原厂皮】~黑色進口牛皮革掛飾\n\n這款掛飾可裝點其他配件,格調獨特。飾以壓花徽標,增添標志性元素。\n-係帶開合\n-拉鏈開合\n-壓花字母徽標\n-帶襯裡\n尺寸:w11×h7×d4cm\n編號:5NR036 _ 020 _ MM030"},"price":null,"currency":"CNY","moq":1,"category":"miu-miu-women-bags","status":"active","alibaba_url":null,"images":["https://xcimg.szwego.com/img/c4e87dad/20240922/i1726974903_1791_4.jpg","https://xcimg.szwego.com/img/c4e87dad/20240922/i1726974903_5060_3.jpg","https://xcimg.szwego.com/img/c4e87dad/20240922/i1726974903_3376_1.jpg","https://xcimg.szwego.com/img/c4e87dad/20240922/i1726974903_4148_7.jpg","https://xcimg.szwego.com/img/c4e87dad/20240922/i1726974903_1507_0.jpg","https://xcimg.szwego.com/img/c4e87dad/20240922/i1726974903_4576_8.jpg","https://xcimg.szwego.com/img/c4e87dad/20240922/i1726974903_7598_2.jpg","https://xcimg.szwego.com/img/c4e87dad/20240922/i1726974903_7734_6.jpg","https://xcimg.szwego.com/img/c4e87dad/20240922/i1726974903_6826_5.jpg"],"created_at":"2024-09-27T07:07:24.228Z"},{"id":"item-8d4b1109e288","sku":"_drXrXeLAP_LjgZ8nU4CV0bhXC2AHmIhIS-Fbw4w","name_en":"5BC125楠木色","name_cn":"5BC125楠木色","specs":{"source":"wsxcme","sourceId":"_drXrXeLAP_LjgZ8nU4CV0bhXC2AHmIhIS-Fbw4w","sourceTagId":68075769,"sourceTagName":"Miu Miu /女包","rawTitle":"5BC125楠木色"},"price":null,"currency":"CNY","moq":1,"category":"miu-miu-women-bags","status":"active","alibaba_url":null,"images":["https://xcimg.szwego.com/20240824/i1724487132_1201_3.jpg","https://xcimg.szwego.com/20240824/i1724487132_7977_0.jpg","https://xcimg.szwego.com/20240824/i1724487132_7731_1.jpg","https://xcimg.szwego.com/20240824/i1724487132_7865_2.jpg"],"created_at":"2024-09-27T07:07:24.227Z"},{"id":"item-fced49dc8f2f","sku":"_dbYbYf0X5lJGnHgp8F2NrML7iRi0Ey3eo_fIOCw","name_en":"Miu Miu Women Bags","name_cn":"正品级\n5BC125:MiuMiu新品MiuWander手袋,采用进口小羊皮经典品牌标志性Matelasse纹理绣花,复古磨砂五金,利用圆孤的曲线,保留了应有的俏皮感,包型整体硬挺有型,充满个性,可甜可盐,容量可光,各大时尚搏主几乎人手一个,颜色多多,黑,奶白,孔雀蓝,日光黄,樱花粉,大红等,尺寸:23X13X7,配原版包装","specs":{"source":"wsxcme","sourceId":"_dbYbYf0X5lJGnHgp8F2NrML7iRi0Ey3eo_fIOCw","sourceTagId":68075769,"sourceTagName":"Miu Miu /女包","rawTitle":"正品级\n5BC125:MiuMiu新品MiuWander手袋,采用进口小羊皮经典品牌标志性Matelasse纹理绣花,复古磨砂五金,利用圆孤的曲线,保留了应有的俏皮感,包型整体硬挺有型,充满个性,可甜可盐,容量可光,各大时尚搏主几乎人手一个,颜色多多,黑,奶白,孔雀蓝,日光黄,樱花粉,大红等,尺寸:23X13X7,配原版包装"},"price":null,"currency":"CNY","moq":1,"category":"miu-miu-women-bags","status":"active","alibaba_url":null,"images":["https://xcimg.szwego.com/20240826/i1724662316_1242_0.jpg","https://xcimg.szwego.com/20240826/i1724662316_9977_1.jpg","https://xcimg.szwego.com/20240826/i1724662316_7212_2.jpg","https://xcimg.szwego.com/20240826/i1724662316_5887_3.jpg","https://xcimg.szwego.com/20240826/i1724662316_6138_4.jpg","https://xcimg.szwego.com/20240826/i1724662316_5854_5.jpg","https://xcimg.szwego.com/20240826/i1724662316_123_6.jpg","https://xcimg.szwego.com/20240826/i1724662316_5932_7.jpg","https://xcimg.szwego.com/20240826/i1724662316_7434_8.jpg"],"created_at":"2024-09-27T07:07:24.226Z"},{"id":"item-2886d4837fc8","sku":"_d_p_pmXRAaMbwB4nGEvIpeXZj006Bcrq-baqSMQ","name_en":"💋5BC158#🆕","name_cn":"💋5BC158#🆕","specs":{"source":"wsxcme","sourceId":"_d_p_pmXRAaMbwB4nGEvIpeXZj006Bcrq-baqSMQ","sourceTagId":68075769,"sourceTagName":"Miu Miu /女包","rawTitle":"💋5BC158#🆕"},"price":null,"currency":"CNY","moq":1,"category":"miu-miu-women-bags","status":"active","alibaba_url":null,"images":["https://xcimg.szwego.com/20240118/i1705543757_64_0.jpg","https://xcimg.szwego.com/20240118/i1705543757_7274_1.jpg"],"created_at":"2024-09-27T07:07:24.225Z"},{"id":"item-d54ab867d990","sku":"_dwQwQmDrCSCaRPj2WuEh6VSMcPp_o9b4DpveSRg","name_en":"Miu Miu Women Bags","name_cn":"正品级\n💋5BC158#🆕🆕🆕Miu家新品,顶级进口小牛皮,包型精致的立体效果,高级纹理质感重新诠释了这款皮革手袋的柔美魅力,制作工艺与外观设计融合了众多MlUMlU最为独特的标志性元素,搭配可调节的皮革肩带,背法多样,进一步增添时尚魅力与摩登风范,内配棉质缎面衬里,尺寸:长24CM,高11.5CM,宽7CM💕(配原版包装)","specs":{"source":"wsxcme","sourceId":"_dwQwQmDrCSCaRPj2WuEh6VSMcPp_o9b4DpveSRg","sourceTagId":68075769,"sourceTagName":"Miu Miu /女包","rawTitle":"正品级\n💋5BC158#🆕🆕🆕Miu家新品,顶级进口小牛皮,包型精致的立体效果,高级纹理质感重新诠释了这款皮革手袋的柔美魅力,制作工艺与外观设计融合了众多MlUMlU最为独特的标志性元素,搭配可调节的皮革肩带,背法多样,进一步增添时尚魅力与摩登风范,内配棉质缎面衬里,尺寸:长24CM,高11.5CM,宽7CM💕(配原版包装)"},"price":null,"currency":"CNY","moq":1,"category":"miu-miu-women-bags","status":"active","alibaba_url":null,"images":["https://xcimg.szwego.com/20240118/i1705543637_3172_0.jpg","https://xcimg.szwego.com/20240118/i1705543637_6300_1.jpg","https://xcimg.szwego.com/20240118/i1705543637_8753_2.jpg","https://xcimg.szwego.com/20240118/i1705543637_264_3.jpg","https://xcimg.szwego.com/20240118/i1705543637_8262_4.jpg","https://xcimg.szwego.com/20240118/i1705543637_5297_5.jpg","https://xcimg.szwego.com/20240118/i1705543637_5571_6.jpg","https://xcimg.szwego.com/20240118/i1705543637_8045_7.jpg","https://xcimg.szwego.com/20240118/i1705543637_8209_8.jpg"],"created_at":"2024-09-27T07:07:24.224Z"},{"id":"item-55f09d223946","sku":"_dfHfHEIMT-Ie2jWnBqu1kcMqnVhENtIGzfc1AEA","name_en":"💋5BC158#🆕🆕🆕Miu家新品","name_cn":"💋5BC158#🆕🆕🆕Miu家新品","specs":{"source":"wsxcme","sourceId":"_dfHfHEIMT-Ie2jWnBqu1kcMqnVhENtIGzfc1AEA","sourceTagId":68075769,"sourceTagName":"Miu Miu /女包","rawTitle":"💋5BC158#🆕🆕🆕Miu家新品"},"price":null,"currency":"CNY","moq":1,"category":"miu-miu-women-bags","status":"active","alibaba_url":null,"images":["https://xcimg.szwego.com/20231024/i1698112128_7443_0.jpg","https://xcimg.szwego.com/20231024/i1698112128_6209_1.jpg","https://xcimg.szwego.com/20231024/i1698112128_7123_2.jpg","https://xcimg.szwego.com/20231024/i1698112128_9705_3.jpg"],"created_at":"2024-09-27T07:07:24.221Z"},{"id":"item-ad0f80a18e67","sku":"_dlslsL-N_ayTXNP6-MA5aYLgHbJr7FunWnoLRKA","name_en":"Miu Miu Women Bags","name_cn":"正品级\n💋5BC158#🆕🆕🆕Miu家新品,经典Matelasse工艺,顶级进口小羊皮,包型精致的立体效果,高级纹理质感重新诠释了这款软羊革手袋的柔美魅力,制作工艺与外观设计融合了众多MlUMlU最为独特的标志性元素,搭配可调节的皮革肩带,背法多样,进一步增添时尚魅力与摩登风范,内配棉质缎面衬里,尺寸:长24CM,高11.5CM,宽7CM💕(配原版包装)","specs":{"source":"wsxcme","sourceId":"_dlslsL-N_ayTXNP6-MA5aYLgHbJr7FunWnoLRKA","sourceTagId":68075769,"sourceTagName":"Miu Miu /女包","rawTitle":"正品级\n💋5BC158#🆕🆕🆕Miu家新品,经典Matelasse工艺,顶级进口小羊皮,包型精致的立体效果,高级纹理质感重新诠释了这款软羊革手袋的柔美魅力,制作工艺与外观设计融合了众多MlUMlU最为独特的标志性元素,搭配可调节的皮革肩带,背法多样,进一步增添时尚魅力与摩登风范,内配棉质缎面衬里,尺寸:长24CM,高11.5CM,宽7CM💕(配原版包装)"},"price":null,"currency":"CNY","moq":1,"category":"miu-miu-women-bags","status":"active","alibaba_url":null,"images":["https://xcimg.szwego.com/20231024/i1698111593_2257_0.jpg","https://xcimg.szwego.com/20231024/i1698111647_8533_0.jpg","https://xcimg.szwego.com/20231024/i1698111593_8913_2.jpg","https://xcimg.szwego.com/20231024/i1698111593_2060_3.jpg","https://xcimg.szwego.com/20231024/i1698111593_4827_4.jpg","https://xcimg.szwego.com/20231024/i1698111593_4330_5.jpg","https://xcimg.szwego.com/20231024/i1698111593_5973_6.jpg","https://xcimg.szwego.com/20231024/i1698111593_8177_7.jpg","https://xcimg.szwego.com/20231024/i1698111593_2927_8.jpg"],"created_at":"2024-09-27T07:07:24.220Z"},{"id":"item-20fb6d26775c","sku":"_dpmpmuteX7uX_gK1Ec9DpkIeFGIXq90q4J3h-Ig","name_en":"5BC157 hobo 腋下包","name_cn":"5BC157 hobo 腋下包","specs":{"source":"wsxcme","sourceId":"_dpmpmuteX7uX_gK1Ec9DpkIeFGIXq90q4J3h-Ig","sourceTagId":68075769,"sourceTagName":"Miu Miu /女包","rawTitle":"5BC157 hobo 腋下包"},"price":null,"currency":"CNY","moq":1,"category":"miu-miu-women-bags","status":"active","alibaba_url":null,"images":["https://xcimg.szwego.com/20231021/i1697882184_4876_0.jpg","https://xcimg.szwego.com/20231021/i1697882184_3750_1.jpg","https://xcimg.szwego.com/20231021/i1697882184_1796_2.jpg","https://xcimg.szwego.com/20231021/i1697882184_7270_3.jpg","https://xcimg.szwego.com/20231021/i1697882184_7787_4.jpg","https://xcimg.szwego.com/20231021/i1697882184_1686_5.jpg","https://xcimg.szwego.com/20231021/i1697882184_3464_6.jpg","https://xcimg.szwego.com/20231021/i1697882184_4075_7.jpg"],"created_at":"2024-09-27T07:07:24.218Z"},{"id":"item-4445cb3db12c","sku":"_dgdgdsUmai_ReqUDqYq1fShXFtwtT2tf-lGZaeA","name_en":"Miu Miu Women Bags","name_cn":"正品级\n💋5BC157#🆕🆕🆕MiuMiu新品hobo腋下包,经典Matelasse小羊皮,提花皱褶凸纹压花图案,全新重工五金打造,五金材质和正品同样材质,制作工艺与外观设计融合了众多MlUMlU最为独特的标志性元素,棉质缎面衬里,两个内衬口袋,上身效果超赞的,百搭时尚🌹尺寸:长29CM,高15CM,宽4CM💕(配原版包装)","specs":{"source":"wsxcme","sourceId":"_dgdgdsUmai_ReqUDqYq1fShXFtwtT2tf-lGZaeA","sourceTagId":68075769,"sourceTagName":"Miu Miu /女包","rawTitle":"正品级\n💋5BC157#🆕🆕🆕MiuMiu新品hobo腋下包,经典Matelasse小羊皮,提花皱褶凸纹压花图案,全新重工五金打造,五金材质和正品同样材质,制作工艺与外观设计融合了众多MlUMlU最为独特的标志性元素,棉质缎面衬里,两个内衬口袋,上身效果超赞的,百搭时尚🌹尺寸:长29CM,高15CM,宽4CM💕(配原版包装)"},"price":null,"currency":"CNY","moq":1,"category":"miu-miu-women-bags","status":"active","alibaba_url":null,"images":["https://xcimg.szwego.com/20231021/i1697878100_8533_0.jpg","https://xcimg.szwego.com/20231021/i1697878100_4156_1.jpg","https://xcimg.szwego.com/20231021/i1697878100_4635_2.jpg","https://xcimg.szwego.com/20231021/i1697878100_9043_3.jpg","https://xcimg.szwego.com/20231021/i1697878100_7574_4.jpg","https://xcimg.szwego.com/20231021/i1697878100_2180_5.jpg","https://xcimg.szwego.com/20231021/i1697878100_1544_6.jpg","https://xcimg.szwego.com/20231021/i1697878100_928_7.jpg","https://xcimg.szwego.com/20231021/i1697878100_2157_8.jpg"],"created_at":"2024-09-27T07:07:24.217Z"},{"id":"item-8f43a67161e8","sku":"_dHYHYyLQjEVB_a6aEZdOAspbmH-KT-H1orIfRkw","name_en":"💋5BC157#🆕🆕🆕","name_cn":"💋5BC157#🆕🆕🆕","specs":{"source":"wsxcme","sourceId":"_dHYHYyLQjEVB_a6aEZdOAspbmH-KT-H1orIfRkw","sourceTagId":68075769,"sourceTagName":"Miu Miu /女包","rawTitle":"💋5BC157#🆕🆕🆕"},"price":null,"currency":"CNY","moq":1,"category":"miu-miu-women-bags","status":"active","alibaba_url":null,"images":["https://xcimg.szwego.com/20240102/i1704127301_890_0.jpg","https://xcimg.szwego.com/20240102/i1704127301_8332_1.jpg","https://xcimg.szwego.com/20240102/i1704127301_2093_2.jpg","https://xcimg.szwego.com/20240102/i1704127301_1937_3.jpg","https://xcimg.szwego.com/20240102/i1704127301_8024_4.jpg","https://xcimg.szwego.com/20240102/i1704127301_2568_5.jpg","https://xcimg.szwego.com/20240102/i1704127301_7400_6.jpg","https://xcimg.szwego.com/20240102/i1704127301_6106_7.jpg","https://xcimg.szwego.com/20240102/i1704127301_5410_8.jpg"],"created_at":"2024-09-27T07:07:24.216Z"},{"id":"item-57948516d4a6","sku":"_do5o5VdhlTb98hD_rmLMzTbbelmEhuX3DcWlGCA","name_en":"Miu Miu Women Bags","name_cn":"正品级\n💋5BC157#🆕🆕🆕MiuMiu新品hobo腋下包,顶级牛皮山羊纹皮纹,全新重工五金打造,五金材质和正品同样材质,制作工艺与外观设计融合了众多MlUMlU最为独特的标志性元素,棉质缎面衬里,两个内衬口袋,上身效果超赞的,百搭时尚🌹尺寸:长29CM,高15CM,宽4CM💕(配原版包装","specs":{"source":"wsxcme","sourceId":"_do5o5VdhlTb98hD_rmLMzTbbelmEhuX3DcWlGCA","sourceTagId":68075769,"sourceTagName":"Miu Miu /女包","rawTitle":"正品级\n💋5BC157#🆕🆕🆕MiuMiu新品hobo腋下包,顶级牛皮山羊纹皮纹,全新重工五金打造,五金材质和正品同样材质,制作工艺与外观设计融合了众多MlUMlU最为独特的标志性元素,棉质缎面衬里,两个内衬口袋,上身效果超赞的,百搭时尚🌹尺寸:长29CM,高15CM,宽4CM💕(配原版包装"},"price":null,"currency":"CNY","moq":1,"category":"miu-miu-women-bags","status":"active","alibaba_url":null,"images":["https://xcimg.szwego.com/20240102/i1704127074_4557_0.jpg","https://xcimg.szwego.com/20240102/i1704127074_876_1.jpg","https://xcimg.szwego.com/20240102/i1704127074_8718_2.jpg","https://xcimg.szwego.com/20240102/i1704127074_1200_3.jpg","https://xcimg.szwego.com/20240102/i1704127074_4247_4.jpg","https://xcimg.szwego.com/20240102/i1704127074_2947_5.jpg","https://xcimg.szwego.com/20240102/i1704127074_3967_6.jpg","https://xcimg.szwego.com/20240102/i1704127096_8974_0.jpg","https://xcimg.szwego.com/20240102/i1704127107_3090_0.jpg"],"created_at":"2024-09-27T07:07:24.215Z"},{"id":"item-c89265acfa7a","sku":"_dA0A05HSf5bx4nUvFxnNMnfoTOrDNER7Pbkl6WA","name_en":"Miu Miu Women Bags","name_cn":"正品级\n💋5BC157#🆕🆕🆕MiuMiu新品hobo腋下包,顶级牛皮山羊纹皮纹,全新重工五金打造,五金材质和正品同样材质,制作工艺与外观设计融合了众多MlUMlU最为独特的标志性元素,棉质缎面衬里,两个内衬口袋,上身效果超赞的,百搭时尚🌹尺寸:长29CM,高15CM,宽4CM💕(配原版包装)","specs":{"source":"wsxcme","sourceId":"_dA0A05HSf5bx4nUvFxnNMnfoTOrDNER7Pbkl6WA","sourceTagId":68075769,"sourceTagName":"Miu Miu /女包","rawTitle":"正品级\n💋5BC157#🆕🆕🆕MiuMiu新品hobo腋下包,顶级牛皮山羊纹皮纹,全新重工五金打造,五金材质和正品同样材质,制作工艺与外观设计融合了众多MlUMlU最为独特的标志性元素,棉质缎面衬里,两个内衬口袋,上身效果超赞的,百搭时尚🌹尺寸:长29CM,高15CM,宽4CM💕(配原版包装)"},"price":null,"currency":"CNY","moq":1,"category":"miu-miu-women-bags","status":"active","alibaba_url":null,"images":["https://xcimg.szwego.com/20240102/i1704126789_3270_0.jpg","https://xcimg.szwego.com/20240102/i1704126789_9829_1.jpg","https://xcimg.szwego.com/20240102/i1704126789_8696_2.jpg","https://xcimg.szwego.com/20240102/i1704126789_3064_3.jpg","https://xcimg.szwego.com/20240102/i1704126789_1977_4.jpg","https://xcimg.szwego.com/20240102/i1704126789_4687_5.jpg","https://xcimg.szwego.com/20240102/i1704126789_288_6.jpg","https://xcimg.szwego.com/20240102/i1704126789_8370_7.jpg","https://xcimg.szwego.com/20240102/i1704126789_6554_8.jpg"],"created_at":"2024-09-27T07:07:24.214Z"},{"id":"item-d7dacb8e91b0","sku":"_dlzlzYxJDlxCgFLfi1RNYBfB7MHmz7V5B6SeRJw","name_en":"5BA251","name_cn":"5BA251","specs":{"source":"wsxcme","sourceId":"_dlzlzYxJDlxCgFLfi1RNYBfB7MHmz7V5B6SeRJw","sourceTagId":68075769,"sourceTagName":"Miu Miu /女包","rawTitle":"5BA251"},"price":null,"currency":"CNY","moq":1,"category":"miu-miu-women-bags","status":"active","alibaba_url":null,"images":["https://xcimg.szwego.com/20230325/i1679674316_1608_0.jpg","https://xcimg.szwego.com/20230325/i1679674316_9066_1.jpg","https://xcimg.szwego.com/20230325/i1679674316_8015_2.jpg","https://xcimg.szwego.com/20230325/i1679674316_904_3.jpg"],"created_at":"2024-09-27T07:07:24.213Z"},{"id":"item-6b3f9beb17c8","sku":"_dssssiQAOEfFR3DffFB7uWvIOVPJLM7biul4k5Q","name_en":"Miu Miu Women Bags","name_cn":"正品级\n专柜最新版本,9K玻璃石水晶钻链,克色💋5BA251#🆕新款水晶链钻包❤️采用顶级进口CIoquel软羊皮,经典压纹小花,可拆卸金属仿水晶链条与皮革长斜挎带,正面同色金属徽标,缎面衬里,圆形双提手腕带,内部磁扣开合,内里两边均有手机隔层,可肩背斜挎,上身效果超赞🌹size:20 X16 X11   (配原版盒子)","specs":{"source":"wsxcme","sourceId":"_dssssiQAOEfFR3DffFB7uWvIOVPJLM7biul4k5Q","sourceTagId":68075769,"sourceTagName":"Miu Miu /女包","rawTitle":"正品级\n专柜最新版本,9K玻璃石水晶钻链,克色💋5BA251#🆕新款水晶链钻包❤️采用顶级进口CIoquel软羊皮,经典压纹小花,可拆卸金属仿水晶链条与皮革长斜挎带,正面同色金属徽标,缎面衬里,圆形双提手腕带,内部磁扣开合,内里两边均有手机隔层,可肩背斜挎,上身效果超赞🌹size:20 X16 X11   (配原版盒子)"},"price":null,"currency":"CNY","moq":1,"category":"miu-miu-women-bags","status":"active","alibaba_url":null,"images":["https://xcimg.szwego.com/20230325/i1679674281_7318_0.jpg","https://xcimg.szwego.com/20230325/i1679674281_8256_1.jpg","https://xcimg.szwego.com/20230325/i1679674281_8503_2.jpg","https://xcimg.szwego.com/20230325/i1679674281_3304_3.jpg","https://xcimg.szwego.com/20230325/i1679674281_2030_4.jpg","https://xcimg.szwego.com/20230325/i1679674281_2284_5.jpg","https://xcimg.szwego.com/20230325/i1679674281_6459_6.jpg","https://xcimg.szwego.com/20230325/i1679674281_1252_7.jpg","https://xcimg.szwego.com/20230325/i1679674281_5222_8.jpg"],"created_at":"2024-09-27T07:07:24.212Z"},{"id":"item-6b9bb4c56a27","sku":"_daDaDVk8lYlUDxVmHNgLRZ7TzFKGGX8GKHKFKLw","name_en":"5BG231","name_cn":"5BG231","specs":{"source":"wsxcme","sourceId":"_daDaDVk8lYlUDxVmHNgLRZ7TzFKGGX8GKHKFKLw","sourceTagId":68075769,"sourceTagName":"Miu Miu /女包","rawTitle":"5BG231"},"price":null,"currency":"CNY","moq":1,"category":"miu-miu-women-bags","status":"active","alibaba_url":null,"images":["https://xcimg.szwego.com/20240624/i1719171257_1373_0.jpg","https://xcimg.szwego.com/20240624/i1719171257_540_1.jpg","https://xcimg.szwego.com/20240624/i1719171257_5719_2.jpg","https://xcimg.szwego.com/20240624/i1719171257_3929_3.jpg","https://xcimg.szwego.com/20240624/i1719171542_4491_0.jpg"],"created_at":"2024-09-27T07:07:24.208Z"},{"id":"item-8bc0e7a21719","sku":"_dgagae5Cmotg-AaLYEDnRpXiVhJpNYSN-CfuJZw","name_en":"Miu Miu Women Bags","name_cn":"正品级\n5BG231,Miu家新款夏日网织沙滩托特包,外层流畅草编钩织,内层帆布衬里,搭配可拆卸帆布小包,可做独立小腋下包或手包使用,多种背法,适合各种搭配,大胆创新的设计完美诠释了 Miu不拘一格,潇洒随性,今年超爆🔥款式,包身非常轻巧,气质随性慵懒,容量超大,日常出街背它回头率百分百,尺寸35 X 40Cm,配原版包","specs":{"source":"wsxcme","sourceId":"_dgagae5Cmotg-AaLYEDnRpXiVhJpNYSN-CfuJZw","sourceTagId":68075769,"sourceTagName":"Miu Miu /女包","rawTitle":"正品级\n5BG231,Miu家新款夏日网织沙滩托特包,外层流畅草编钩织,内层帆布衬里,搭配可拆卸帆布小包,可做独立小腋下包或手包使用,多种背法,适合各种搭配,大胆创新的设计完美诠释了 Miu不拘一格,潇洒随性,今年超爆🔥款式,包身非常轻巧,气质随性慵懒,容量超大,日常出街背它回头率百分百,尺寸35 X 40Cm,配原版包"},"price":null,"currency":"CNY","moq":1,"category":"miu-miu-women-bags","status":"active","alibaba_url":null,"images":["https://xcimg.szwego.com/20240626/i1719364595_5252_0.jpg","https://xcimg.szwego.com/20240626/i1719364595_3678_1.jpg","https://xcimg.szwego.com/20240626/i1719364595_3212_2.jpg","https://xcimg.szwego.com/20240626/i1719364595_7509_3.jpg","https://xcimg.szwego.com/20240626/i1719364595_1144_5.jpg","https://xcimg.szwego.com/20240626/i1719364595_5969_6.jpg","https://xcimg.szwego.com/20240626/i1719364595_5271_7.jpg","https://xcimg.szwego.com/20240626/i1719364609_915_0.jpg","https://xcimg.szwego.com/20240626/i1719364595_2591_8.jpg"],"created_at":"2024-09-27T07:07:24.207Z"},{"id":"item-afff5131822c","sku":"_dmTmT6jyyxMWIM5z_kgUPDm922nSvAqDXKLnrcQ","name_en":"Miu Miu Women Bags","name_cn":"正品级\n5B:MiuMiu新品迷你MiuWander羊羔毛手袋,软糯糯泰迪熊毛绒绒简直不要太可爱,秋冬必备单品,复古磨砂五金,利用圆孤的曲线,保留了应有的俏皮感,包型整体硬挺有型,充满个性,可甜可盐,容量可光,尺寸:18X10X6,配原版包装","specs":{"source":"wsxcme","sourceId":"_dmTmT6jyyxMWIM5z_kgUPDm922nSvAqDXKLnrcQ","sourceTagId":68075769,"sourceTagName":"Miu Miu /女包","rawTitle":"正品级\n5B:MiuMiu新品迷你MiuWander羊羔毛手袋,软糯糯泰迪熊毛绒绒简直不要太可爱,秋冬必备单品,复古磨砂五金,利用圆孤的曲线,保留了应有的俏皮感,包型整体硬挺有型,充满个性,可甜可盐,容量可光,尺寸:18X10X6,配原版包装"},"price":null,"currency":"CNY","moq":1,"category":"miu-miu-women-bags","status":"active","alibaba_url":null,"images":["https://xcimg.szwego.com/20231214/i1702549311_9897_0.jpg","https://xcimg.szwego.com/20231214/i1702549311_5338_1.jpg","https://xcimg.szwego.com/20231214/i1702549311_3877_2.jpg","https://xcimg.szwego.com/20231214/i1702549311_5886_3.jpg","https://xcimg.szwego.com/20231214/i1702549311_4587_4.jpg","https://xcimg.szwego.com/20231214/i1702549311_3346_5.jpg","https://xcimg.szwego.com/20231214/i1702549311_9052_6.jpg","https://xcimg.szwego.com/20231214/i1702549311_2680_7.jpg","https://xcimg.szwego.com/20231214/i1702549311_1045_8.jpg"],"created_at":"2024-09-27T07:07:24.203Z"}],"page":362,"pageSize":24,"total":10075,"totalPages":420}
