{"items":[{"id":"item-591f0cf1ff97","sku":"_dqqqqNILGyizrd5M2g48sE0zAMRcPKOBlflI_3A","name_en":"Birkin 25 亮面鳄鱼🐊 全手工","name_cn":"Birkin 25 亮面鳄鱼🐊 全手工","specs":{"source":"wsxcme","sourceId":"_dqqqqNILGyizrd5M2g48sE0zAMRcPKOBlflI_3A","sourceTagId":76963559,"sourceTagName":"爱马仕/女包","rawTitle":"Birkin 25 亮面鳄鱼🐊 全手工"},"price":null,"currency":"CNY","moq":1,"category":"hermes-women-bags","status":"active","alibaba_url":null,"images":["https://xcimg.szwego.com/img/9ee4266d/20240722/i1721656489_8857_0.jpg","https://xcimg.szwego.com/img/9ee4266d/20240722/i1721656489_2072_0.jpg","https://xcimg.szwego.com/img/9ee4266d/20240722/i1721656480_3310_5.jpg","https://xcimg.szwego.com/img/9ee4266d/20240722/i1721656489_6092_0.jpg","https://xcimg.szwego.com/img/9ee4266d/20240722/i1721656489_5080_0.jpg","https://xcimg.szwego.com/img/9ee4266d/20240722/i1721656489_8206_0.jpg","https://xcimg.szwego.com/img/9ee4266d/20240722/i1721656489_8329_0.jpg","https://xcimg.szwego.com/img/9ee4266d/20240722/i1721656489_9654_0.jpg"],"created_at":"2024-10-22T04:43:02.167Z"},{"id":"item-60face325ed9","sku":"_dwmwmSHa3Gs_gfuwMxwpQq-ExPjLa1jE64U_WIQ","name_en":"Birkin 25 亮面鳄鱼🐊 全手工","name_cn":"Birkin 25 亮面鳄鱼🐊 全手工","specs":{"source":"wsxcme","sourceId":"_dwmwmSHa3Gs_gfuwMxwpQq-ExPjLa1jE64U_WIQ","sourceTagId":76963559,"sourceTagName":"爱马仕/女包","rawTitle":"Birkin 25 亮面鳄鱼🐊 全手工"},"price":null,"currency":"CNY","moq":1,"category":"hermes-women-bags","status":"active","alibaba_url":null,"images":["https://xcimg.szwego.com/img/9ee4266d/20240722/i1721656463_6811_0.jpg","https://xcimg.szwego.com/img/9ee4266d/20240722/i1721656463_1202_0.jpg","https://xcimg.szwego.com/img/9ee4266d/20240722/i1721656461_8221_0.jpg","https://xcimg.szwego.com/img/9ee4266d/20240722/i1721656463_2147_0.jpg","https://xcimg.szwego.com/img/9ee4266d/20240722/i1721656463_6286_0.jpg","https://xcimg.szwego.com/img/9ee4266d/20240722/i1721656463_1386_0.jpg","https://xcimg.szwego.com/img/9ee4266d/20240722/i1721656463_4095_0.jpg","https://xcimg.szwego.com/img/9ee4266d/20240722/i1721656462_5478_0.jpg","https://xcimg.szwego.com/img/9ee4266d/20240722/i1721656463_9353_0.jpg"],"created_at":"2024-10-22T04:43:02.166Z"},{"id":"item-586a36accd0d","sku":"_d6Q6QxYX8w8yh8RLQgdifHN_WgfCXCJRLiiZYdw","name_en":"Birkin 25 亮面鳄鱼🐊 全手工","name_cn":"Birkin 25 亮面鳄鱼🐊 全手工","specs":{"source":"wsxcme","sourceId":"_d6Q6QxYX8w8yh8RLQgdifHN_WgfCXCJRLiiZYdw","sourceTagId":76963559,"sourceTagName":"爱马仕/女包","rawTitle":"Birkin 25 亮面鳄鱼🐊 全手工"},"price":null,"currency":"CNY","moq":1,"category":"hermes-women-bags","status":"active","alibaba_url":null,"images":["https://xcimg.szwego.com/img/9ee4266d/20240722/i1721656420_1664_0.jpg","https://xcimg.szwego.com/img/9ee4266d/20240722/i1721656420_1137_0.jpg","https://xcimg.szwego.com/img/9ee4266d/20240722/i1721656421_1421_0.jpg","https://xcimg.szwego.com/img/9ee4266d/20240722/i1721656421_177_0.jpg","https://xcimg.szwego.com/img/9ee4266d/20240722/i1721656421_2710_0.jpg","https://xcimg.szwego.com/img/9ee4266d/20240722/i1721656420_2017_0.jpg","https://xcimg.szwego.com/img/9ee4266d/20240722/i1721656420_4725_0.jpg","https://xcimg.szwego.com/img/9ee4266d/20240722/i1721656421_6401_0.jpg"],"created_at":"2024-10-22T04:43:02.165Z"},{"id":"item-b82b3cdf9ba1","sku":"_dQJQJ4nj648-KnkPyeUMXY5skmrrIxbs0LFtVzw","name_en":"Birkin 25 亮面鳄鱼🐊 全手工","name_cn":"Birkin 25 亮面鳄鱼🐊 全手工","specs":{"source":"wsxcme","sourceId":"_dQJQJ4nj648-KnkPyeUMXY5skmrrIxbs0LFtVzw","sourceTagId":76963559,"sourceTagName":"爱马仕/女包","rawTitle":"Birkin 25 亮面鳄鱼🐊 全手工"},"price":null,"currency":"CNY","moq":1,"category":"hermes-women-bags","status":"active","alibaba_url":null,"images":["https://xcimg.szwego.com/img/9ee4266d/20240722/i1721652332_9641_6.jpg","https://xcimg.szwego.com/img/9ee4266d/20240722/i1721652332_7835_2.jpg","https://xcimg.szwego.com/img/9ee4266d/20240722/i1721652332_9189_1.jpg","https://xcimg.szwego.com/img/9ee4266d/20240722/i1721652335_7135_0.jpg","https://xcimg.szwego.com/img/9ee4266d/20240722/i1721652335_4216_0.jpg","https://xcimg.szwego.com/img/9ee4266d/20240722/i1721652332_4623_4.jpg","https://xcimg.szwego.com/img/9ee4266d/20240722/i1721652332_7774_5.jpg"],"created_at":"2024-10-22T04:43:02.164Z"},{"id":"item-41dba14393cb","sku":"_dyPyPjBGW7lbs8GdD2wzL9m3HENkRCkIdm18meA","name_en":"Birkin 25 亮面鳄鱼🐊 全手工","name_cn":"Birkin 25 亮面鳄鱼🐊 全手工","specs":{"source":"wsxcme","sourceId":"_dyPyPjBGW7lbs8GdD2wzL9m3HENkRCkIdm18meA","sourceTagId":76963559,"sourceTagName":"爱马仕/女包","rawTitle":"Birkin 25 亮面鳄鱼🐊 全手工"},"price":null,"currency":"CNY","moq":1,"category":"hermes-women-bags","status":"active","alibaba_url":null,"images":["https://xcimg.szwego.com/img/9ee4266d/20240722/i1721652303_1448_2.jpg","https://xcimg.szwego.com/img/9ee4266d/20240722/i1721652303_9148_4.jpg","https://xcimg.szwego.com/img/9ee4266d/20240722/i1721652303_4976_1.jpg","https://xcimg.szwego.com/img/9ee4266d/20240722/i1721652304_6260_6.jpg","https://xcimg.szwego.com/img/9ee4266d/20240722/i1721652303_9328_3.jpg","https://xcimg.szwego.com/img/9ee4266d/20240722/i1721652304_7860_5.jpg","https://xcimg.szwego.com/img/9ee4266d/20240722/i1721652303_6240_0.jpg"],"created_at":"2024-10-22T04:43:02.163Z"},{"id":"item-1f7d8096ae00","sku":"_dElElEhfsgq0CdNRyrpreBB8OpwfwM9FwpOK0GA","name_en":"Birkin 25 亮面鳄鱼🐊 全手工","name_cn":"Birkin 25 亮面鳄鱼🐊 全手工","specs":{"source":"wsxcme","sourceId":"_dElElEhfsgq0CdNRyrpreBB8OpwfwM9FwpOK0GA","sourceTagId":76963559,"sourceTagName":"爱马仕/女包","rawTitle":"Birkin 25 亮面鳄鱼🐊 全手工"},"price":null,"currency":"CNY","moq":1,"category":"hermes-women-bags","status":"active","alibaba_url":null,"images":["https://xcimg.szwego.com/img/9ee4266d/20240722/i1721651955_707_0.jpg","https://xcimg.szwego.com/img/9ee4266d/20240722/i1721651954_880_0.jpg","https://xcimg.szwego.com/img/9ee4266d/20240722/i1721651955_8237_0.jpg","https://xcimg.szwego.com/img/9ee4266d/20240722/i1721651955_8630_0.jpg","https://xcimg.szwego.com/img/9ee4266d/20240722/i1721651955_2158_0.jpg","https://xcimg.szwego.com/img/9ee4266d/20240722/i1721651955_8784_0.jpg","https://xcimg.szwego.com/img/9ee4266d/20240722/i1721651955_7510_0.jpg"],"created_at":"2024-10-22T04:43:02.162Z"},{"id":"item-86391a1aa38b","sku":"_dg8g8vjX9yjSc1iYBAYL5PI0rjWmU2CaYJ416kw","name_en":"Birkin 25 亮面鳄鱼🐊 全手工","name_cn":"Birkin 25 亮面鳄鱼🐊 全手工","specs":{"source":"wsxcme","sourceId":"_dg8g8vjX9yjSc1iYBAYL5PI0rjWmU2CaYJ416kw","sourceTagId":76963559,"sourceTagName":"爱马仕/女包","rawTitle":"Birkin 25 亮面鳄鱼🐊 全手工"},"price":null,"currency":"CNY","moq":1,"category":"hermes-women-bags","status":"active","alibaba_url":null,"images":["https://xcimg.szwego.com/img/9ee4266d/20240722/i1721651650_4417_5.jpg","https://xcimg.szwego.com/img/9ee4266d/20240722/i1721651650_4166_6.jpg","https://xcimg.szwego.com/img/9ee4266d/20240722/i1721651650_2593_2.jpg","https://xcimg.szwego.com/img/9ee4266d/20240722/i1721651650_5178_0.jpg","https://xcimg.szwego.com/img/9ee4266d/20240722/i1721651650_6021_1.jpg","https://xcimg.szwego.com/img/9ee4266d/20240722/i1721651650_321_3.jpg","https://xcimg.szwego.com/img/9ee4266d/20240722/i1721651650_6662_4.jpg"],"created_at":"2024-10-22T04:43:02.161Z"},{"id":"item-26b0fe70d636","sku":"_dEbEbB1Fgw1aH8GxVWzT_B2J5aIdPsuYieT_hOA","name_en":"Birkin 25 亮面鳄鱼🐊 全手工","name_cn":"Birkin 25 亮面鳄鱼🐊 全手工","specs":{"source":"wsxcme","sourceId":"_dEbEbB1Fgw1aH8GxVWzT_B2J5aIdPsuYieT_hOA","sourceTagId":76963559,"sourceTagName":"爱马仕/女包","rawTitle":"Birkin 25 亮面鳄鱼🐊 全手工"},"price":null,"currency":"CNY","moq":1,"category":"hermes-women-bags","status":"active","alibaba_url":null,"images":["https://xcimg.szwego.com/img/9ee4266d/20240722/i1721651625_2515_2.jpg","https://xcimg.szwego.com/img/9ee4266d/20240722/i1721651625_7375_4.jpg","https://xcimg.szwego.com/img/9ee4266d/20240722/i1721651625_3352_0.jpg","https://xcimg.szwego.com/img/9ee4266d/20240722/i1721651626_2771_7.jpg","https://xcimg.szwego.com/img/9ee4266d/20240722/i1721651625_9273_1.jpg","https://xcimg.szwego.com/img/9ee4266d/20240722/i1721651626_3765_6.jpg","https://xcimg.szwego.com/img/9ee4266d/20240722/i1721651626_5549_5.jpg","https://xcimg.szwego.com/img/9ee4266d/20240722/i1721651625_38_3.jpg"],"created_at":"2024-10-22T04:43:02.160Z"},{"id":"item-b8ce2e963b6d","sku":"_dEqEqxcXuSZ14kvD0L7yZPwMBe7CYD5AXpq6wLw","name_en":"Birkin 25 亮面鳄鱼🐊 全手工","name_cn":"Birkin 25 亮面鳄鱼🐊 全手工","specs":{"source":"wsxcme","sourceId":"_dEqEqxcXuSZ14kvD0L7yZPwMBe7CYD5AXpq6wLw","sourceTagId":76963559,"sourceTagName":"爱马仕/女包","rawTitle":"Birkin 25 亮面鳄鱼🐊 全手工"},"price":null,"currency":"CNY","moq":1,"category":"hermes-women-bags","status":"active","alibaba_url":null,"images":["https://xcimg.szwego.com/img/9ee4266d/20240722/i1721651503_1733_3.jpg","https://xcimg.szwego.com/img/9ee4266d/20240722/i1721651503_7762_1.jpg","https://xcimg.szwego.com/img/9ee4266d/20240722/i1721651502_832_0.jpg","https://xcimg.szwego.com/img/9ee4266d/20240722/i1721651503_544_5.jpg","https://xcimg.szwego.com/img/9ee4266d/20240722/i1721651503_6643_2.jpg","https://xcimg.szwego.com/img/9ee4266d/20240722/i1721651503_2305_4.jpg","https://xcimg.szwego.com/img/9ee4266d/20240722/i1721651503_6862_6.jpg"],"created_at":"2024-10-22T04:43:02.159Z"},{"id":"item-8dff54f3ebf3","sku":"_drDrDnZ_aBilPXfUdOAOxktJF6O5bXVhWv5X5ew","name_en":"Birkin 25 亮面鳄鱼🐊 全手工","name_cn":"Birkin 25 亮面鳄鱼🐊 全手工","specs":{"source":"wsxcme","sourceId":"_drDrDnZ_aBilPXfUdOAOxktJF6O5bXVhWv5X5ew","sourceTagId":76963559,"sourceTagName":"爱马仕/女包","rawTitle":"Birkin 25 亮面鳄鱼🐊 全手工"},"price":null,"currency":"CNY","moq":1,"category":"hermes-women-bags","status":"active","alibaba_url":null,"images":["https://xcimg.szwego.com/img/9ee4266d/20240722/i1721645809_9119_6.jpg","https://xcimg.szwego.com/img/9ee4266d/20240722/i1721645809_3296_0.jpg","https://xcimg.szwego.com/img/9ee4266d/20240722/i1721645809_4798_1.jpg","https://xcimg.szwego.com/img/9ee4266d/20240722/i1721645809_6165_2.jpg","https://xcimg.szwego.com/img/9ee4266d/20240722/i1721645809_5722_4.jpg","https://xcimg.szwego.com/img/9ee4266d/20240722/i1721645809_9205_3.jpg","https://xcimg.szwego.com/img/9ee4266d/20240722/i1721645809_2336_5.jpg"],"created_at":"2024-10-22T04:43:02.158Z"},{"id":"item-075527ce92ea","sku":"_dgygy3oS-jKEmyXvTeUWkajHGZxRPGsfC-lMwZQ","name_en":"Birkin 25 亮面鳄鱼🐊 全手工","name_cn":"Birkin 25 亮面鳄鱼🐊 全手工","specs":{"source":"wsxcme","sourceId":"_dgygy3oS-jKEmyXvTeUWkajHGZxRPGsfC-lMwZQ","sourceTagId":76963559,"sourceTagName":"爱马仕/女包","rawTitle":"Birkin 25 亮面鳄鱼🐊 全手工"},"price":null,"currency":"CNY","moq":1,"category":"hermes-women-bags","status":"active","alibaba_url":null,"images":["https://xcimg.szwego.com/img/9ee4266d/20240722/i1721645787_8759_4.jpg","https://xcimg.szwego.com/img/9ee4266d/20240722/i1721645787_5012_2.jpg","https://xcimg.szwego.com/img/9ee4266d/20240722/i1721645787_4783_1.jpg","https://xcimg.szwego.com/img/9ee4266d/20240722/i1721645787_6426_5.jpg","https://xcimg.szwego.com/img/9ee4266d/20240722/i1721645787_5600_6.jpg","https://xcimg.szwego.com/img/9ee4266d/20240722/i1721645787_7216_3.jpg","https://xcimg.szwego.com/img/9ee4266d/20240722/i1721645787_6308_0.jpg"],"created_at":"2024-10-22T04:43:02.157Z"},{"id":"item-80d050ff5f1d","sku":"_do1o1U2xwtqJ5sn6uLVqWZBYY7FddoJDQirz9uQ","name_en":"Birkin 25 亮面鳄鱼🐊 全手工","name_cn":"Birkin 25 亮面鳄鱼🐊 全手工","specs":{"source":"wsxcme","sourceId":"_do1o1U2xwtqJ5sn6uLVqWZBYY7FddoJDQirz9uQ","sourceTagId":76963559,"sourceTagName":"爱马仕/女包","rawTitle":"Birkin 25 亮面鳄鱼🐊 全手工"},"price":null,"currency":"CNY","moq":1,"category":"hermes-women-bags","status":"active","alibaba_url":null,"images":["https://xcimg.szwego.com/img/9ee4266d/20240722/i1721645761_9016_4.jpg","https://xcimg.szwego.com/img/9ee4266d/20240722/i1721645761_8678_1.jpg","https://xcimg.szwego.com/img/9ee4266d/20240722/i1721645761_8654_0.jpg","https://xcimg.szwego.com/img/9ee4266d/20240722/i1721645761_2337_5.jpg","https://xcimg.szwego.com/img/9ee4266d/20240722/i1721645761_5254_2.jpg","https://xcimg.szwego.com/img/9ee4266d/20240722/i1721645762_7979_6.jpg","https://xcimg.szwego.com/img/9ee4266d/20240722/i1721645761_8719_3.jpg"],"created_at":"2024-10-22T04:43:02.156Z"},{"id":"item-4df87176a482","sku":"_dj0j0fSAMqwMH-mSrSV1mk-DN0Fsd7-iyi-qGUw","name_en":"Birkin 25 亮面鳄鱼🐊 全手工","name_cn":"Birkin 25 亮面鳄鱼🐊 全手工","specs":{"source":"wsxcme","sourceId":"_dj0j0fSAMqwMH-mSrSV1mk-DN0Fsd7-iyi-qGUw","sourceTagId":76963559,"sourceTagName":"爱马仕/女包","rawTitle":"Birkin 25 亮面鳄鱼🐊 全手工"},"price":null,"currency":"CNY","moq":1,"category":"hermes-women-bags","status":"active","alibaba_url":null,"images":["https://xcimg.szwego.com/img/9ee4266d/20240722/i1721645735_4077_0.jpg","https://xcimg.szwego.com/img/9ee4266d/20240722/i1721645735_2288_0.jpg","https://xcimg.szwego.com/img/9ee4266d/20240722/i1721645729_5686_4.jpg","https://xcimg.szwego.com/img/9ee4266d/20240722/i1721645735_3934_0.jpg","https://xcimg.szwego.com/img/9ee4266d/20240722/i1721645735_189_0.jpg","https://xcimg.szwego.com/img/9ee4266d/20240722/i1721645735_4207_0.jpg","https://xcimg.szwego.com/img/9ee4266d/20240722/i1721645735_2193_0.jpg"],"created_at":"2024-10-22T04:43:02.155Z"},{"id":"item-af0065886b5b","sku":"_dWiWi5Q23OraI8-T3l6b06T1FLXclE037dq0CNg","name_en":"Birkin 25 亮面鳄鱼🐊 全手工","name_cn":"Birkin 25 亮面鳄鱼🐊 全手工","specs":{"source":"wsxcme","sourceId":"_dWiWi5Q23OraI8-T3l6b06T1FLXclE037dq0CNg","sourceTagId":76963559,"sourceTagName":"爱马仕/女包","rawTitle":"Birkin 25 亮面鳄鱼🐊 全手工"},"price":null,"currency":"CNY","moq":1,"category":"hermes-women-bags","status":"active","alibaba_url":null,"images":["https://xcimg.szwego.com/img/9ee4266d/20240722/i1721645690_5639_5.jpg","https://xcimg.szwego.com/img/9ee4266d/20240722/i1721645690_5170_0.jpg","https://xcimg.szwego.com/img/9ee4266d/20240722/i1721645690_3642_1.jpg","https://xcimg.szwego.com/img/9ee4266d/20240722/i1721645690_724_2.jpg","https://xcimg.szwego.com/img/9ee4266d/20240722/i1721645690_5109_4.jpg","https://xcimg.szwego.com/img/9ee4266d/20240722/i1721645690_3695_6.jpg","https://xcimg.szwego.com/img/9ee4266d/20240722/i1721645690_1523_7.jpg"],"created_at":"2024-10-22T04:43:02.154Z"},{"id":"item-a6c40336656a","sku":"_dtotoxNYSmgnulZ-ciJwgiQm9LlSLWncdK8IFiw","name_en":"Birkin 25 亮面鳄鱼🐊 全手工","name_cn":"Birkin 25 亮面鳄鱼🐊 全手工","specs":{"source":"wsxcme","sourceId":"_dtotoxNYSmgnulZ-ciJwgiQm9LlSLWncdK8IFiw","sourceTagId":76963559,"sourceTagName":"爱马仕/女包","rawTitle":"Birkin 25 亮面鳄鱼🐊 全手工"},"price":null,"currency":"CNY","moq":1,"category":"hermes-women-bags","status":"active","alibaba_url":null,"images":["https://xcimg.szwego.com/img/9ee4266d/20240802/i1722586828_8388_0.jpg","https://xcimg.szwego.com/img/9ee4266d/20240802/i1722586828_4347_4.jpg","https://xcimg.szwego.com/img/9ee4266d/20240802/i1722586829_7986_7.jpg","https://xcimg.szwego.com/img/9ee4266d/20240802/i1722586828_6583_1.jpg","https://xcimg.szwego.com/img/9ee4266d/20240802/i1722586828_4949_2.jpg","https://xcimg.szwego.com/img/9ee4266d/20240802/i1722586828_2703_3.jpg","https://xcimg.szwego.com/img/9ee4266d/20240802/i1722586829_0_5.jpg","https://xcimg.szwego.com/img/9ee4266d/20240802/i1722586829_2758_6.jpg"],"created_at":"2024-10-22T04:43:02.153Z"},{"id":"item-f688b812d73d","sku":"_dg1g1EZO3o9TBvJuYvE-jYsz347TTmLUNkNnkYQ","name_en":"Birkin 25 亮面鳄鱼🐊 全手工","name_cn":"Birkin 25 亮面鳄鱼🐊 全手工","specs":{"source":"wsxcme","sourceId":"_dg1g1EZO3o9TBvJuYvE-jYsz347TTmLUNkNnkYQ","sourceTagId":76963559,"sourceTagName":"爱马仕/女包","rawTitle":"Birkin 25 亮面鳄鱼🐊 全手工"},"price":null,"currency":"CNY","moq":1,"category":"hermes-women-bags","status":"active","alibaba_url":null,"images":["https://xcimg.szwego.com/img/9ee4266d/20240802/i1722587084_7288_5.jpg","https://xcimg.szwego.com/img/9ee4266d/20240802/i1722587084_3846_0.jpg","https://xcimg.szwego.com/img/9ee4266d/20240802/i1722587084_1760_4.jpg","https://xcimg.szwego.com/img/9ee4266d/20240802/i1722587084_8781_6.jpg","https://xcimg.szwego.com/img/9ee4266d/20240802/i1722587084_1295_8.jpg","https://xcimg.szwego.com/img/9ee4266d/20240802/i1722587084_3625_2.jpg","https://xcimg.szwego.com/img/9ee4266d/20240802/i1722587084_4784_3.jpg","https://xcimg.szwego.com/img/9ee4266d/20240802/i1722587084_6944_1.jpg","https://xcimg.szwego.com/img/9ee4266d/20240802/i1722587084_6541_7.jpg"],"created_at":"2024-10-22T04:43:02.152Z"},{"id":"item-e70e1427bf04","sku":"_d-D-DnjEQpdJw-0AUgvjJPRuZeG6jBQ82g38j-w","name_en":"Birkin 25 亮面鳄鱼🐊 全手工","name_cn":"Birkin 25 亮面鳄鱼🐊 全手工","specs":{"source":"wsxcme","sourceId":"_d-D-DnjEQpdJw-0AUgvjJPRuZeG6jBQ82g38j-w","sourceTagId":76963559,"sourceTagName":"爱马仕/女包","rawTitle":"Birkin 25 亮面鳄鱼🐊 全手工"},"price":null,"currency":"CNY","moq":1,"category":"hermes-women-bags","status":"active","alibaba_url":null,"images":["https://xcimg.szwego.com/img/9ee4266d/20240802/i1722587104_12_6.jpg","https://xcimg.szwego.com/img/9ee4266d/20240802/i1722587104_8279_2.jpg","https://xcimg.szwego.com/img/9ee4266d/20240802/i1722587104_7387_1.jpg","https://xcimg.szwego.com/img/9ee4266d/20240802/i1722587104_5069_5.jpg","https://xcimg.szwego.com/img/9ee4266d/20240802/i1722587104_7331_4.jpg","https://xcimg.szwego.com/img/9ee4266d/20240802/i1722587104_8294_3.jpg","https://xcimg.szwego.com/img/9ee4266d/20240802/i1722587104_8400_0.jpg"],"created_at":"2024-10-22T04:43:02.151Z"},{"id":"item-ad117407e95c","sku":"_dEoEoAQu3Trhofo_glSI2Q7hDVuo0pU6bRtQY1Q","name_en":"Constance 19","name_cn":"Constance 19\n进口 鳄鱼皮康康19cm\n全手缝蜡线 全钢五金  内里绵羊皮","specs":{"source":"wsxcme","sourceId":"_dEoEoAQu3Trhofo_glSI2Q7hDVuo0pU6bRtQY1Q","sourceTagId":76963559,"sourceTagName":"爱马仕/女包","rawTitle":"Constance 19\n进口 鳄鱼皮康康19cm\n全手缝蜡线 全钢五金  内里绵羊皮"},"price":null,"currency":"CNY","moq":1,"category":"hermes-women-bags","status":"active","alibaba_url":null,"images":["https://xcimg.szwego.com/img/9ee4266d/20240802/i1722594743_757_6.jpg","https://xcimg.szwego.com/img/9ee4266d/20240802/i1722594743_1576_1.jpg","https://xcimg.szwego.com/img/9ee4266d/20240802/i1722594743_2762_4.jpg","https://xcimg.szwego.com/img/9ee4266d/20240802/i1722594743_6278_0.jpg","https://xcimg.szwego.com/img/9ee4266d/20240802/i1722594743_5754_2.jpg","https://xcimg.szwego.com/img/9ee4266d/20240802/i1722594743_9673_5.jpg","https://xcimg.szwego.com/img/9ee4266d/20240802/i1722594747_8845_0.jpg"],"created_at":"2024-10-22T04:43:02.149Z"},{"id":"item-75c6f3d2d494","sku":"_dp7p76zsBESz9Wl44BxTNSHoOACSBpkC-31d-jQ","name_en":"Constance 19","name_cn":"Constance 19\n进口 鳄鱼皮康康19cm\n全手缝蜡线 全钢五金  内里绵羊皮","specs":{"source":"wsxcme","sourceId":"_dp7p76zsBESz9Wl44BxTNSHoOACSBpkC-31d-jQ","sourceTagId":76963559,"sourceTagName":"爱马仕/女包","rawTitle":"Constance 19\n进口 鳄鱼皮康康19cm\n全手缝蜡线 全钢五金  内里绵羊皮"},"price":null,"currency":"CNY","moq":1,"category":"hermes-women-bags","status":"active","alibaba_url":null,"images":["https://xcimg.szwego.com/img/9ee4266d/20240802/i1722594752_9457_0.jpg","https://xcimg.szwego.com/img/9ee4266d/20240802/i1722594756_523_0.jpg","https://xcimg.szwego.com/img/9ee4266d/20240802/i1722594753_9643_4.jpg","https://xcimg.szwego.com/img/9ee4266d/20240802/i1722594753_1801_5.jpg","https://xcimg.szwego.com/img/9ee4266d/20240802/i1722594752_937_2.jpg","https://xcimg.szwego.com/img/9ee4266d/20240802/i1722594752_7594_3.jpg"],"created_at":"2024-10-22T04:43:02.148Z"},{"id":"item-7a6ca9b23184","sku":"_dkxkxOomPcr8iEVw5i5hJ9aAd-WbNrZElmqvWTQ","name_en":"touch KL25黑银","name_cn":"touch KL25黑银\nTogo皮拼蜥蜴皮凯莉25cm手缝蜡线\n全钢五金  内里山羊皮","specs":{"source":"wsxcme","sourceId":"_dkxkxOomPcr8iEVw5i5hJ9aAd-WbNrZElmqvWTQ","sourceTagId":76963559,"sourceTagName":"爱马仕/女包","rawTitle":"touch KL25黑银\nTogo皮拼蜥蜴皮凯莉25cm手缝蜡线\n全钢五金  内里山羊皮"},"price":null,"currency":"CNY","moq":1,"category":"hermes-women-bags","status":"active","alibaba_url":null,"images":["https://xcimg.szwego.com/img/9ee4266d/20240409/i1712656477_6256_3.jpg","https://xcimg.szwego.com/img/9ee4266d/20240409/i1712656477_970_0.jpg","https://xcimg.szwego.com/img/9ee4266d/20240409/i1712656477_818_7.jpg","https://xcimg.szwego.com/img/9ee4266d/20240409/i1712656477_2179_4.jpg","https://xcimg.szwego.com/img/9ee4266d/20240409/i1712656477_7473_1.jpg","https://xcimg.szwego.com/img/9ee4266d/20240409/i1712656477_2861_6.jpg","https://xcimg.szwego.com/img/9ee4266d/20240409/i1712656477_6611_2.jpg","https://xcimg.szwego.com/img/9ee4266d/20240409/i1712656477_5638_5.jpg","https://xcimg.szwego.com/img/9ee4266d/20240409/i1712656477_9826_8.jpg","https://xcimg.szwego.com/img/9ee4266d/20240409/i1712656477_1850_9.jpg"],"created_at":"2024-10-22T04:43:02.147Z"},{"id":"item-38c920f709f6","sku":"_dSXSXlvNFWeXbXiWQxdCAtxvWmzfx5p9Hn06gkA","name_en":"touch KL25金棕","name_cn":"touch KL25金棕\nTogo皮拼亚光鳄鱼皮凯莉25手缝蜡线\n全钢五金  内里山羊皮","specs":{"source":"wsxcme","sourceId":"_dSXSXlvNFWeXbXiWQxdCAtxvWmzfx5p9Hn06gkA","sourceTagId":76963559,"sourceTagName":"爱马仕/女包","rawTitle":"touch KL25金棕\nTogo皮拼亚光鳄鱼皮凯莉25手缝蜡线\n全钢五金  内里山羊皮"},"price":null,"currency":"CNY","moq":1,"category":"hermes-women-bags","status":"active","alibaba_url":null,"images":["https://xcimg.szwego.com/img/9ee4266d/20240411/i1712828201_3890_0.jpg","https://xcimg.szwego.com/img/9ee4266d/20240411/i1712828201_7954_3.jpg","https://xcimg.szwego.com/img/9ee4266d/20240411/i1712828201_608_1.jpg","https://xcimg.szwego.com/img/9ee4266d/20240411/i1712828201_6994_5.jpg","https://xcimg.szwego.com/img/9ee4266d/20240411/i1712828201_7619_8.jpg","https://xcimg.szwego.com/img/9ee4266d/20240411/i1712828201_4836_7.jpg","https://xcimg.szwego.com/img/9ee4266d/20240411/i1712828201_1810_4.jpg","https://xcimg.szwego.com/img/9ee4266d/20240411/i1712828201_2396_6.jpg","https://xcimg.szwego.com/img/9ee4266d/20240411/i1712828201_9962_2.jpg"],"created_at":"2024-10-22T04:43:02.146Z"},{"id":"item-97c9ad8b6d3b","sku":"_dxSxS7QVLIwqGRVOC-_IfIewWvybHjBzqHqJDyw","name_en":"全新到货🆕Chane1 24a手工坊","name_cn":"全新到货🆕Chane1 24a手工坊\n亮面羊皮腋下包紫色 小号\n专柜售价39200rmb购入开发💜\n\n火热新款🔥Chane1 24A流浪腋下包\n鎏金做旧粗链条是复古中的绝绝子❥\n简约又轻巧容量很可观是实用主义包\n亮面油蜡小羊皮很灵魂很舒适〰️\n\n五金:厚镀24k复古金\n皮料:亮面油蜡小羊皮\n尺寸: 22.5*19.5*8.5 cm","specs":{"source":"wsxcme","sourceId":"_dxSxS7QVLIwqGRVOC-_IfIewWvybHjBzqHqJDyw","sourceTagId":47002745,"sourceTagName":"香奈儿/女包","dimensions":{"lengthCm":22.5,"heightCm":19.5,"widthCm":8.5},"rawTitle":"全新到货🆕Chane1 24a手工坊\n亮面羊皮腋下包紫色 小号\n专柜售价39200rmb购入开发💜\n\n火热新款🔥Chane1 24A流浪腋下包\n鎏金做旧粗链条是复古中的绝绝子❥\n简约又轻巧容量很可观是实用主义包\n亮面油蜡小羊皮很灵魂很舒适〰️\n\n五金:厚镀24k复古金\n皮料:亮面油蜡小羊皮\n尺寸: 22.5*19.5*8.5 cm"},"price":null,"currency":"CNY","moq":1,"category":"chanel-women-bags","status":"active","alibaba_url":null,"images":["https://xcimg.szwego.com/20240713/i1720865685_2306_0.jpg","https://xcimg.szwego.com/20240713/i1720865685_7528_1.jpg","https://xcimg.szwego.com/20240713/i1720865685_9651_2.jpg","https://xcimg.szwego.com/20240713/i1720865685_5989_3.jpg","https://xcimg.szwego.com/20240713/i1720865685_5599_4.jpg","https://xcimg.szwego.com/20240713/i1720865685_7352_5.jpg","https://xcimg.szwego.com/20240713/i1720865685_4600_6.jpg","https://xcimg.szwego.com/20240713/i1720865685_3217_7.jpg","https://xcimg.szwego.com/20240713/i1720865685_5531_8.jpg"],"created_at":"2024-10-21T06:54:41.090Z"},{"id":"item-dbf2c1d913ce","sku":"_dsKsKo9eITB08SyOiPm6DvnNui9fTWZ_ulBI-UA","name_en":"全新到货🆕Chane1 24a手工坊","name_cn":"全新到货🆕Chane1 24a手工坊\n亮羊皮腋下包焦糖色 小号\n专柜售价39200rmb购入开发🧡\n\n火热新款🔥Chane1 24A流浪腋下包\n鎏金做旧粗链条是复古中的绝绝子❥\n简约又轻巧容量很可观是实用主义包\n亮面油蜡小羊皮很灵魂很舒适〰️\n\n五金:厚镀24k复古金\n皮料:亮面油蜡小羊皮\n尺寸: 22.5*19.5*8.5 cm","specs":{"source":"wsxcme","sourceId":"_dsKsKo9eITB08SyOiPm6DvnNui9fTWZ_ulBI-UA","sourceTagId":47002745,"sourceTagName":"香奈儿/女包","dimensions":{"lengthCm":22.5,"heightCm":19.5,"widthCm":8.5},"rawTitle":"全新到货🆕Chane1 24a手工坊\n亮羊皮腋下包焦糖色 小号\n专柜售价39200rmb购入开发🧡\n\n火热新款🔥Chane1 24A流浪腋下包\n鎏金做旧粗链条是复古中的绝绝子❥\n简约又轻巧容量很可观是实用主义包\n亮面油蜡小羊皮很灵魂很舒适〰️\n\n五金:厚镀24k复古金\n皮料:亮面油蜡小羊皮\n尺寸: 22.5*19.5*8.5 cm"},"price":null,"currency":"CNY","moq":1,"category":"chanel-women-bags","status":"active","alibaba_url":null,"images":["https://xcimg.szwego.com/20240715/i1721031405_9206_0.jpg","https://xcimg.szwego.com/20240715/i1721031405_4054_1.jpg","https://xcimg.szwego.com/20240715/i1721031405_7856_2.jpg","https://xcimg.szwego.com/20240715/i1721031405_3097_3.jpg","https://xcimg.szwego.com/20240715/i1721031405_1507_4.jpg","https://xcimg.szwego.com/20240715/i1721031405_4325_5.jpg","https://xcimg.szwego.com/20240715/i1721031405_6123_6.jpg","https://xcimg.szwego.com/20240715/i1721031405_8461_7.jpg","https://xcimg.szwego.com/20240715/i1721031405_2226_8.jpg"],"created_at":"2024-10-21T06:54:41.089Z"},{"id":"item-709b311f396e","sku":"_dgcgcyoVkc2iMbgwzxQq777lrF8hYiR3yLesaBQ","name_en":"全新到货🆕Chane1 24a手工坊","name_cn":"全新到货🆕Chane1 24a手工坊\n流浪腋下包 焦糖色中号 \n专柜售价42500rmb购入开发~\n\n热点上新🔥24A流浪hobo腋下包\n做旧粗链条是复古风的绝绝子〰️\n油蜡亮面小羊皮很灵魂很舒适。\n包身自重很轻,随性简约的松弛感爆棚啦❕\n\n五金:厚镀24k复古金\n皮料:油蜡亮面小羊皮\n尺寸: 24*26*9.5 cm","specs":{"source":"wsxcme","sourceId":"_dgcgcyoVkc2iMbgwzxQq777lrF8hYiR3yLesaBQ","sourceTagId":47002745,"sourceTagName":"香奈儿/女包","dimensions":{"lengthCm":24,"heightCm":26,"widthCm":9.5},"rawTitle":"全新到货🆕Chane1 24a手工坊\n流浪腋下包 焦糖色中号 \n专柜售价42500rmb购入开发~\n\n热点上新🔥24A流浪hobo腋下包\n做旧粗链条是复古风的绝绝子〰️\n油蜡亮面小羊皮很灵魂很舒适。\n包身自重很轻,随性简约的松弛感爆棚啦❕\n\n五金:厚镀24k复古金\n皮料:油蜡亮面小羊皮\n尺寸: 24*26*9.5 cm"},"price":null,"currency":"CNY","moq":1,"category":"chanel-women-bags","status":"active","alibaba_url":null,"images":["https://xcimg.szwego.com/20240727/i1722073485_8968_0.jpg","https://xcimg.szwego.com/20240727/i1722073485_4195_1.jpg","https://xcimg.szwego.com/20240727/i1722073485_6034_2.jpg","https://xcimg.szwego.com/20240727/i1722073485_8221_3.jpg","https://xcimg.szwego.com/20240727/i1722073485_6773_4.jpg","https://xcimg.szwego.com/20240727/i1722073485_6896_5.jpg","https://xcimg.szwego.com/20240727/i1722073485_8994_6.jpg","https://xcimg.szwego.com/20240727/i1722073485_606_7.jpg","https://xcimg.szwego.com/20240727/i1722073485_7376_8.jpg"],"created_at":"2024-10-21T06:54:41.088Z"}],"page":348,"pageSize":24,"total":10075,"totalPages":420}
