{"items":[{"id":"item-71fac84e1da4","sku":"_drxrxRg8CHmKIB8aoLSOBSK6Vt6JgWFoZhcGIqA","name_en":"《土黄焦糖色》🔮🔮🔮OHANEL🚩🚩🚩25B重量级选手、别眨眼😉,小水桶包,一秒沦陷的仙气奶油白·经典菱格走线+mini双C logo,低调又贵气。·抽绳一拉秒变“🤩🤩小福袋”,防盗技能点满。·链条⛓️长度可️单肩/可️斜挎/可️流浪背法随意切换,小个子友好。直接出片南法度假感!这只已列入“传家宝”名单,蹲25B的姐妹冲!菱格纹的优雅,金色","name_cn":"《土黄焦糖色》🔮🔮🔮OHANEL🚩🚩🚩25B重量级选手、别眨眼😉,小水桶包,一秒沦陷的仙气奶油白·经典菱格走线+mini双C logo,低调又贵气。·抽绳一拉秒变“🤩🤩小福袋”,防盗技能点满。·链条⛓️长度可️单肩/可️斜挎/可️流浪背法随意切换,小个子友好。直接出片南法度假感!这只已列入“传家宝”名单,蹲25B的姐妹冲!菱格纹的优雅,金色链条的点缀,这款黑色手提包简直太高级了计大口袋小口袋设计,实用又时髦,搭配金色金属环细节,质感拉满~轻奢风!4775尺寸:12.5×10×7cm","specs":{"source":"wsxcme","sourceId":"_drxrxRg8CHmKIB8aoLSOBSK6Vt6JgWFoZhcGIqA","sourceTagId":47002745,"sourceTagName":"香奈儿/女包","dimensions":{"lengthCm":12.5,"heightCm":10,"widthCm":7},"rawTitle":"《土黄焦糖色》🔮🔮🔮OHANEL🚩🚩🚩25B重量级选手、别眨眼😉,小水桶包,一秒沦陷的仙气奶油白·经典菱格走线+mini双C logo,低调又贵气。·抽绳一拉秒变“🤩🤩小福袋”,防盗技能点满。·链条⛓️长度可️单肩/可️斜挎/可️流浪背法随意切换,小个子友好。直接出片南法度假感!这只已列入“传家宝”名单,蹲25B的姐妹冲!菱格纹的优雅,金色链条的点缀,这款黑色手提包简直太高级了计大口袋小口袋设计,实用又时髦,搭配金色金属环细节,质感拉满~轻奢风!4775尺寸:12.5×10×7cm"},"price":null,"currency":"CNY","moq":1,"category":"chanel-women-bags","status":"active","alibaba_url":null,"images":["https://xcimg.szwego.com/img/d0c94e6f/20250813/i1755087180_9270_1.jpg","https://xcimg.szwego.com/img/d0c94e6f/20250813/i1755087180_9527_2.jpg","https://xcimg.szwego.com/img/d0c94e6f/20250813/i1755087180_8825_5.jpg","https://xcimg.szwego.com/img/d0c94e6f/20250813/i1755087180_6796_3.jpg","https://xcimg.szwego.com/img/d0c94e6f/20250813/i1755087180_3832_0.jpg","https://xcimg.szwego.com/img/d0c94e6f/20250813/i1755087180_756_7.jpg","https://xcimg.szwego.com/img/d0c94e6f/20250813/i1755087180_2186_8.jpg","https://xcimg.szwego.com/img/d0c94e6f/20250813/i1755087180_223_4.jpg","https://xcimg.szwego.com/img/d0c94e6f/20250813/i1755087180_4323_6.jpg"],"created_at":"2025-09-19T04:32:40.104Z"},{"id":"item-7512d4ca264e","sku":"_dLvLvPaXv4lfpdS9eYM4-EMaHtV0ReifBuj7DEA","name_en":"Chanel Women Bags","name_cn":"香奈儿/女包","specs":{"source":"wsxcme","sourceId":"_dLvLvPaXv4lfpdS9eYM4-EMaHtV0ReifBuj7DEA","sourceTagId":47002745,"sourceTagName":"香奈儿/女包","rawTitle":""},"price":null,"currency":"CNY","moq":1,"category":"chanel-women-bags","status":"active","alibaba_url":null,"images":["https://xcimg.szwego.com/img/d0c94e6f/20250813/i1755087171_9648_0.jpg"],"created_at":"2025-09-19T04:32:40.103Z"},{"id":"item-97c5886a376b","sku":"_ddZdZ6VLKvZ6Yp1IEAYfugTQlArULIiaWrvHs_A","name_en":"《樱花🌸粉》🔮🔮🔮OHANEL🚩🚩🚩25B重量级选手、别眨眼😉,小水桶包,一秒沦陷的仙气奶油白·经典菱格走线+mini双C logo,低调又贵气。·抽绳一拉秒变“🤩🤩小福袋”,防盗技能点满。·链条⛓️长度可️单肩/可️斜挎/可️流浪背法随意切换,小个子友好。直接出片南法度假感!这只已列入“传家宝”名单,蹲25B的姐妹冲!菱格纹的优雅,金色","name_cn":"《樱花🌸粉》🔮🔮🔮OHANEL🚩🚩🚩25B重量级选手、别眨眼😉,小水桶包,一秒沦陷的仙气奶油白·经典菱格走线+mini双C logo,低调又贵气。·抽绳一拉秒变“🤩🤩小福袋”,防盗技能点满。·链条⛓️长度可️单肩/可️斜挎/可️流浪背法随意切换,小个子友好。直接出片南法度假感!这只已列入“传家宝”名单,蹲25B的姐妹冲!菱格纹的优雅,金色链条的点缀,这款黑色手提包简直太高级了计大口袋小口袋设计,实用又时髦,搭配金色金属环细节,质感拉满~轻奢风!4775尺寸:12.5×10×7cm","specs":{"source":"wsxcme","sourceId":"_ddZdZ6VLKvZ6Yp1IEAYfugTQlArULIiaWrvHs_A","sourceTagId":47002745,"sourceTagName":"香奈儿/女包","dimensions":{"lengthCm":12.5,"heightCm":10,"widthCm":7},"rawTitle":"《樱花🌸粉》🔮🔮🔮OHANEL🚩🚩🚩25B重量级选手、别眨眼😉,小水桶包,一秒沦陷的仙气奶油白·经典菱格走线+mini双C logo,低调又贵气。·抽绳一拉秒变“🤩🤩小福袋”,防盗技能点满。·链条⛓️长度可️单肩/可️斜挎/可️流浪背法随意切换,小个子友好。直接出片南法度假感!这只已列入“传家宝”名单,蹲25B的姐妹冲!菱格纹的优雅,金色链条的点缀,这款黑色手提包简直太高级了计大口袋小口袋设计,实用又时髦,搭配金色金属环细节,质感拉满~轻奢风!4775尺寸:12.5×10×7cm"},"price":null,"currency":"CNY","moq":1,"category":"chanel-women-bags","status":"active","alibaba_url":null,"images":["https://xcimg.szwego.com/img/d0c94e6f/20250813/i1755087156_3002_7.jpg","https://xcimg.szwego.com/img/d0c94e6f/20250813/i1755087155_4757_0.jpg","https://xcimg.szwego.com/img/d0c94e6f/20250813/i1755087155_1987_6.jpg","https://xcimg.szwego.com/img/d0c94e6f/20250813/i1755087155_3468_4.jpg","https://xcimg.szwego.com/img/d0c94e6f/20250813/i1755087155_5874_2.jpg","https://xcimg.szwego.com/img/d0c94e6f/20250813/i1755087156_2643_8.jpg","https://xcimg.szwego.com/img/d0c94e6f/20250813/i1755087155_4078_5.jpg","https://xcimg.szwego.com/img/d0c94e6f/20250813/i1755087155_7391_1.jpg","https://xcimg.szwego.com/img/d0c94e6f/20250813/i1755087155_4672_3.jpg"],"created_at":"2025-09-19T04:32:40.102Z"},{"id":"item-ae9d587e32a3","sku":"_duUuU7rOmPs7vwO05e2Gm80f7Kj4eLhXOFRp47Q","name_en":"多色可选🌟🌟🌟大H实拍图片🔮🔮🔮OHANEL🚩🚩🚩25B重量级选手、别眨眼😉,小水桶包,一秒沦陷的仙气奶油白·经典菱格走线+mini双C logo,低调又贵气。·抽绳一拉秒变“🤩🤩小福袋”,防盗技能点满。·链条⛓️长度可️单肩/可️斜挎/可️流浪背法随意切换,小个子友好。直接出片南法度假感!这只已列入“传家宝”名单,蹲25B的姐妹冲!","name_cn":"多色可选🌟🌟🌟大H实拍图片🔮🔮🔮OHANEL🚩🚩🚩25B重量级选手、别眨眼😉,小水桶包,一秒沦陷的仙气奶油白·经典菱格走线+mini双C logo,低调又贵气。·抽绳一拉秒变“🤩🤩小福袋”,防盗技能点满。·链条⛓️长度可️单肩/可️斜挎/可️流浪背法随意切换,小个子友好。直接出片南法度假感!这只已列入“传家宝”名单,蹲25B的姐妹冲!菱格纹的优雅,金色链条的点缀,这款黑色手提包简直太高级了计大口袋小口袋设计,实用又时髦,搭配金色金属环细节,质感拉满~轻奢风!4775尺寸:12.5×10×7cm","specs":{"source":"wsxcme","sourceId":"_duUuU7rOmPs7vwO05e2Gm80f7Kj4eLhXOFRp47Q","sourceTagId":47002745,"sourceTagName":"香奈儿/女包","dimensions":{"lengthCm":12.5,"heightCm":10,"widthCm":7},"rawTitle":"多色可选🌟🌟🌟大H实拍图片🔮🔮🔮OHANEL🚩🚩🚩25B重量级选手、别眨眼😉,小水桶包,一秒沦陷的仙气奶油白·经典菱格走线+mini双C logo,低调又贵气。·抽绳一拉秒变“🤩🤩小福袋”,防盗技能点满。·链条⛓️长度可️单肩/可️斜挎/可️流浪背法随意切换,小个子友好。直接出片南法度假感!这只已列入“传家宝”名单,蹲25B的姐妹冲!菱格纹的优雅,金色链条的点缀,这款黑色手提包简直太高级了计大口袋小口袋设计,实用又时髦,搭配金色金属环细节,质感拉满~轻奢风!4775尺寸:12.5×10×7cm"},"price":null,"currency":"CNY","moq":1,"category":"chanel-women-bags","status":"active","alibaba_url":null,"images":["https://xcimg.szwego.com/img/d0c94e6f/20250807/i1754540177_7390_0.jpg"],"created_at":"2025-09-19T04:32:40.101Z"},{"id":"item-e7f698b4463a","sku":"_dZ8Z8y2YekAwNKggoR_YYVTxsbKCzK5-bZFGCrg","name_en":"Chanel Women Bags","name_cn":"香奈儿/女包","specs":{"source":"wsxcme","sourceId":"_dZ8Z8y2YekAwNKggoR_YYVTxsbKCzK5-bZFGCrg","sourceTagId":47002745,"sourceTagName":"香奈儿/女包","rawTitle":""},"price":null,"currency":"CNY","moq":1,"category":"chanel-women-bags","status":"active","alibaba_url":null,"images":["https://xcimg.szwego.com/img/d0c94e6f/20250806/i1754492952_3206_0.jpg"],"created_at":"2025-09-19T04:32:40.100Z"},{"id":"item-a5d0af635aa4","sku":"_dunungGS5CseW2CLJ4xJqGvIugP_lGYYTNOmfng","name_en":"《酒红🍷色》🔮🔮🔮OHANEL🚩🚩🚩25B重量级选手、别眨眼😉,小水桶包,一秒沦陷的仙气奶油白·经典菱格走线+mini双C logo,低调又贵气。·抽绳一拉秒变“🤩🤩小福袋”,防盗技能点满。·链条⛓️长度可️单肩/可️斜挎/可️流浪背法随意切换,小个子友好。直接出片南法度假感!这只已列入“传家宝”名单,蹲25B的姐妹冲!菱格纹的优雅,金色","name_cn":"《酒红🍷色》🔮🔮🔮OHANEL🚩🚩🚩25B重量级选手、别眨眼😉,小水桶包,一秒沦陷的仙气奶油白·经典菱格走线+mini双C logo,低调又贵气。·抽绳一拉秒变“🤩🤩小福袋”,防盗技能点满。·链条⛓️长度可️单肩/可️斜挎/可️流浪背法随意切换,小个子友好。直接出片南法度假感!这只已列入“传家宝”名单,蹲25B的姐妹冲!菱格纹的优雅,金色链条的点缀,这款黑色手提包简直太高级了计大口袋小口袋设计,实用又时髦,搭配金色金属环细节,质感拉满~轻奢风!4775尺寸:12.5×10×7cm","specs":{"source":"wsxcme","sourceId":"_dunungGS5CseW2CLJ4xJqGvIugP_lGYYTNOmfng","sourceTagId":47002745,"sourceTagName":"香奈儿/女包","dimensions":{"lengthCm":12.5,"heightCm":10,"widthCm":7},"rawTitle":"《酒红🍷色》🔮🔮🔮OHANEL🚩🚩🚩25B重量级选手、别眨眼😉,小水桶包,一秒沦陷的仙气奶油白·经典菱格走线+mini双C logo,低调又贵气。·抽绳一拉秒变“🤩🤩小福袋”,防盗技能点满。·链条⛓️长度可️单肩/可️斜挎/可️流浪背法随意切换,小个子友好。直接出片南法度假感!这只已列入“传家宝”名单,蹲25B的姐妹冲!菱格纹的优雅,金色链条的点缀,这款黑色手提包简直太高级了计大口袋小口袋设计,实用又时髦,搭配金色金属环细节,质感拉满~轻奢风!4775尺寸:12.5×10×7cm"},"price":null,"currency":"CNY","moq":1,"category":"chanel-women-bags","status":"active","alibaba_url":null,"images":["https://xcimg.szwego.com/img/d0c94e6f/20250806/i1754492938_4794_6.jpg","https://xcimg.szwego.com/img/d0c94e6f/20250806/i1754492938_1092_0.jpg","https://xcimg.szwego.com/img/d0c94e6f/20250806/i1754492938_1747_2.jpg","https://xcimg.szwego.com/img/d0c94e6f/20250806/i1754492938_8762_7.jpg","https://xcimg.szwego.com/img/d0c94e6f/20250806/i1754492938_1415_4.jpg","https://xcimg.szwego.com/img/d0c94e6f/20250806/i1754492938_4435_5.jpg","https://xcimg.szwego.com/img/d0c94e6f/20250806/i1754492938_5612_8.jpg","https://xcimg.szwego.com/img/d0c94e6f/20250806/i1754492938_6541_1.jpg","https://xcimg.szwego.com/img/d0c94e6f/20250806/i1754492938_7841_3.jpg"],"created_at":"2025-09-19T04:32:40.099Z"},{"id":"item-3ba836e5c466","sku":"_d4k4kL2yuiYKly5k1LkX0tuw4kLMLpKOF66GadQ","name_en":"Chanel Women Bags","name_cn":"香奈儿/女包","specs":{"source":"wsxcme","sourceId":"_d4k4kL2yuiYKly5k1LkX0tuw4kLMLpKOF66GadQ","sourceTagId":47002745,"sourceTagName":"香奈儿/女包","rawTitle":""},"price":null,"currency":"CNY","moq":1,"category":"chanel-women-bags","status":"active","alibaba_url":null,"images":["https://xcimg.szwego.com/img/d0c94e6f/20250806/i1754492920_5568_0.jpg"],"created_at":"2025-09-19T04:32:40.098Z"},{"id":"item-e62674d2c08f","sku":"_dPBPB313E89-ee2CbLVLBYbFhH8jLi7JbyTM-GQ","name_en":"《黑色》🔮🔮🔮OHANEL🚩🚩🚩25B重量级选手、别眨眼😉,小水桶包,一秒沦陷的仙气奶油白·经典菱格走线+mini双C logo,低调又贵气。·抽绳一拉秒变“🤩🤩小福袋”,防盗技能点满。·链条⛓️长度可️单肩/可️斜挎/可️流浪背法随意切换,小个子友好。直接出片南法度假感!这只已列入“传家宝”名单,蹲25B的姐妹冲!菱格纹的优雅,金色链条的","name_cn":"《黑色》🔮🔮🔮OHANEL🚩🚩🚩25B重量级选手、别眨眼😉,小水桶包,一秒沦陷的仙气奶油白·经典菱格走线+mini双C logo,低调又贵气。·抽绳一拉秒变“🤩🤩小福袋”,防盗技能点满。·链条⛓️长度可️单肩/可️斜挎/可️流浪背法随意切换,小个子友好。直接出片南法度假感!这只已列入“传家宝”名单,蹲25B的姐妹冲!菱格纹的优雅,金色链条的点缀,这款黑色手提包简直太高级了计大口袋小口袋设计,实用又时髦,搭配金色金属环细节,质感拉满~轻奢风!4775尺寸:12.5×10×7cm","specs":{"source":"wsxcme","sourceId":"_dPBPB313E89-ee2CbLVLBYbFhH8jLi7JbyTM-GQ","sourceTagId":47002745,"sourceTagName":"香奈儿/女包","dimensions":{"lengthCm":12.5,"heightCm":10,"widthCm":7},"rawTitle":"《黑色》🔮🔮🔮OHANEL🚩🚩🚩25B重量级选手、别眨眼😉,小水桶包,一秒沦陷的仙气奶油白·经典菱格走线+mini双C logo,低调又贵气。·抽绳一拉秒变“🤩🤩小福袋”,防盗技能点满。·链条⛓️长度可️单肩/可️斜挎/可️流浪背法随意切换,小个子友好。直接出片南法度假感!这只已列入“传家宝”名单,蹲25B的姐妹冲!菱格纹的优雅,金色链条的点缀,这款黑色手提包简直太高级了计大口袋小口袋设计,实用又时髦,搭配金色金属环细节,质感拉满~轻奢风!4775尺寸:12.5×10×7cm"},"price":null,"currency":"CNY","moq":1,"category":"chanel-women-bags","status":"active","alibaba_url":null,"images":["https://xcimg.szwego.com/img/d0c94e6f/20250806/i1754492901_8253_1.jpg","https://xcimg.szwego.com/img/d0c94e6f/20250806/i1754492902_8306_6.jpg","https://xcimg.szwego.com/img/d0c94e6f/20250806/i1754492902_6148_2.jpg","https://xcimg.szwego.com/img/d0c94e6f/20250806/i1754492902_7959_3.jpg","https://xcimg.szwego.com/img/d0c94e6f/20250806/i1754492902_8593_8.jpg","https://xcimg.szwego.com/img/d0c94e6f/20250806/i1754492902_4333_5.jpg","https://xcimg.szwego.com/img/d0c94e6f/20250806/i1754492901_4035_0.jpg","https://xcimg.szwego.com/img/d0c94e6f/20250806/i1754492902_4271_4.jpg","https://xcimg.szwego.com/img/d0c94e6f/20250806/i1754492902_1946_7.jpg"],"created_at":"2025-09-19T04:32:40.097Z"},{"id":"item-3acb68c60a6e","sku":"_dvfvfQIDk2fPIQTywHD_c0DOyWYiRbqyO4Y2Ymw","name_en":"Chanel Women Bags","name_cn":"香奈儿/女包","specs":{"source":"wsxcme","sourceId":"_dvfvfQIDk2fPIQTywHD_c0DOyWYiRbqyO4Y2Ymw","sourceTagId":47002745,"sourceTagName":"香奈儿/女包","rawTitle":""},"price":null,"currency":"CNY","moq":1,"category":"chanel-women-bags","status":"active","alibaba_url":null,"images":["https://xcimg.szwego.com/img/d0c94e6f/20250806/i1754492879_7552_0.jpg"],"created_at":"2025-09-19T04:32:40.096Z"},{"id":"item-ef0b7b15a2da","sku":"_dmJmJGsu5ADvWgp6CxvA2CGalIrFL38FCOnX2yA","name_en":"《奶白色》🔮🔮🔮OHANEL🚩🚩🚩25B重量级选手、别眨眼😉,小水桶包,一秒沦陷的仙气奶油白·经典菱格走线+mini双C logo,低调又贵气。·抽绳一拉秒变“🤩🤩小福袋”,防盗技能点满。·链条⛓️长度可️单肩/可️斜挎/可️流浪背法随意切换,小个子友好。直接出片南法度假感!这只已列入“传家宝”名单,蹲25B的姐妹冲!菱格纹的优雅,金色链条","name_cn":"《奶白色》🔮🔮🔮OHANEL🚩🚩🚩25B重量级选手、别眨眼😉,小水桶包,一秒沦陷的仙气奶油白·经典菱格走线+mini双C logo,低调又贵气。·抽绳一拉秒变“🤩🤩小福袋”,防盗技能点满。·链条⛓️长度可️单肩/可️斜挎/可️流浪背法随意切换,小个子友好。直接出片南法度假感!这只已列入“传家宝”名单,蹲25B的姐妹冲!菱格纹的优雅,金色链条的点缀,这款黑色手提包简直太高级了计大口袋小口袋设计,实用又时髦,搭配金色金属环细节,质感拉满~轻奢风!4775尺寸:12.5×10×7cm","specs":{"source":"wsxcme","sourceId":"_dmJmJGsu5ADvWgp6CxvA2CGalIrFL38FCOnX2yA","sourceTagId":47002745,"sourceTagName":"香奈儿/女包","dimensions":{"lengthCm":12.5,"heightCm":10,"widthCm":7},"rawTitle":"《奶白色》🔮🔮🔮OHANEL🚩🚩🚩25B重量级选手、别眨眼😉,小水桶包,一秒沦陷的仙气奶油白·经典菱格走线+mini双C logo,低调又贵气。·抽绳一拉秒变“🤩🤩小福袋”,防盗技能点满。·链条⛓️长度可️单肩/可️斜挎/可️流浪背法随意切换,小个子友好。直接出片南法度假感!这只已列入“传家宝”名单,蹲25B的姐妹冲!菱格纹的优雅,金色链条的点缀,这款黑色手提包简直太高级了计大口袋小口袋设计,实用又时髦,搭配金色金属环细节,质感拉满~轻奢风!4775尺寸:12.5×10×7cm"},"price":null,"currency":"CNY","moq":1,"category":"chanel-women-bags","status":"active","alibaba_url":null,"images":["https://xcimg.szwego.com/img/d0c94e6f/20250806/i1754492863_7360_1.jpg","https://xcimg.szwego.com/img/d0c94e6f/20250806/i1754492863_6873_3.jpg","https://xcimg.szwego.com/img/d0c94e6f/20250806/i1754492863_5455_0.jpg","https://xcimg.szwego.com/img/d0c94e6f/20250806/i1754492863_4331_4.jpg","https://xcimg.szwego.com/img/d0c94e6f/20250806/i1754492863_9637_2.jpg","https://xcimg.szwego.com/img/d0c94e6f/20250806/i1754492863_9163_8.jpg","https://xcimg.szwego.com/img/d0c94e6f/20250806/i1754492863_455_5.jpg","https://xcimg.szwego.com/img/d0c94e6f/20250806/i1754492863_5778_6.jpg","https://xcimg.szwego.com/img/d0c94e6f/20250806/i1754492863_9166_7.jpg"],"created_at":"2025-09-19T04:32:40.095Z"},{"id":"item-0ec472ae9f46","sku":"_diKiKkIYkY97KldMzLX24kl4TF96jRYQRVui4Dg","name_en":"三个颜色两个尺寸可️选🌟🌟🌟🌟大H实拍图片🔮🔮🔮OHANEL🚩🚩🚩 26C最新编织口盖包,手工编织包手工编织包购物袋 🥂度假氛围里绕不开的拉菲草以及藤条编织元素,采用进口天然麦秆草,只是没想到在夏日风情的度假系列里居然出现了这么多色彩明媚的麂皮材质手袋...搭配美妙夏夜的晚餐或派对,手袋上少不了珠宝的点缀,最爱的当然是那只收藏家系列的雪","name_cn":"三个颜色两个尺寸可️选🌟🌟🌟🌟大H实拍图片🔮🔮🔮OHANEL🚩🚩🚩 26C最新编织口盖包,手工编织包手工编织包购物袋 🥂度假氛围里绕不开的拉菲草以及藤条编织元素,采用进口天然麦秆草,只是没想到在夏日风情的度假系列里居然出现了这么多色彩明媚的麂皮材质手袋...搭配美妙夏夜的晚餐或派对,手袋上少不了珠宝的点缀,最爱的当然是那只收藏家系列的雪糕杯咯~尺寸:26cm、 23cm","specs":{"source":"wsxcme","sourceId":"_diKiKkIYkY97KldMzLX24kl4TF96jRYQRVui4Dg","sourceTagId":47002745,"sourceTagName":"香奈儿/女包","rawTitle":"三个颜色两个尺寸可️选🌟🌟🌟🌟大H实拍图片🔮🔮🔮OHANEL🚩🚩🚩 26C最新编织口盖包,手工编织包手工编织包购物袋 🥂度假氛围里绕不开的拉菲草以及藤条编织元素,采用进口天然麦秆草,只是没想到在夏日风情的度假系列里居然出现了这么多色彩明媚的麂皮材质手袋...搭配美妙夏夜的晚餐或派对,手袋上少不了珠宝的点缀,最爱的当然是那只收藏家系列的雪糕杯咯~尺寸:26cm、 23cm"},"price":null,"currency":"CNY","moq":1,"category":"chanel-women-bags","status":"active","alibaba_url":null,"images":["https://xcimg.szwego.com/img/d0c94e6f/20250823/i1755880068_1884_0.jpg"],"created_at":"2025-09-19T04:32:40.094Z"},{"id":"item-2e60e04c4830","sku":"_diAiAZ9zPbkBtXFSIAQyzgtx6kFUHdUJzgSdn3A","name_en":"Chanel Women Bags","name_cn":"香奈儿/女包","specs":{"source":"wsxcme","sourceId":"_diAiAZ9zPbkBtXFSIAQyzgtx6kFUHdUJzgSdn3A","sourceTagId":47002745,"sourceTagName":"香奈儿/女包","rawTitle":""},"price":null,"currency":"CNY","moq":1,"category":"chanel-women-bags","status":"active","alibaba_url":null,"images":["https://xcimg.szwego.com/img/d0c94e6f/20250823/i1755879996_8080_0.jpg"],"created_at":"2025-09-19T04:32:40.093Z"},{"id":"item-e5d71032372c","sku":"_dtDtDn_6Cw9DmDxThJxLP2NlfL0RBWYgUgPI8qw","name_en":"大號尺寸《卡其色🍠》OHANEL🚩🚩🚩 26C最新编织口盖包,手工编织包手工编织包购物袋 🥂度假氛围里绕不开的拉菲草以及藤条编织元素,采用进口天然麦秆草,只是没想到在夏日风情的度假系列里居然出现了这么多色彩明媚的麂皮材质手袋...搭配美妙夏夜的晚餐或派对,手袋上少不了珠宝的点缀,最爱的当然是那只收藏家系列的雪糕杯咯~尺寸:26cm","name_cn":"大號尺寸《卡其色🍠》OHANEL🚩🚩🚩 26C最新编织口盖包,手工编织包手工编织包购物袋 🥂度假氛围里绕不开的拉菲草以及藤条编织元素,采用进口天然麦秆草,只是没想到在夏日风情的度假系列里居然出现了这么多色彩明媚的麂皮材质手袋...搭配美妙夏夜的晚餐或派对,手袋上少不了珠宝的点缀,最爱的当然是那只收藏家系列的雪糕杯咯~尺寸:26cm","specs":{"source":"wsxcme","sourceId":"_dtDtDn_6Cw9DmDxThJxLP2NlfL0RBWYgUgPI8qw","sourceTagId":47002745,"sourceTagName":"香奈儿/女包","rawTitle":"大號尺寸《卡其色🍠》OHANEL🚩🚩🚩 26C最新编织口盖包,手工编织包手工编织包购物袋 🥂度假氛围里绕不开的拉菲草以及藤条编织元素,采用进口天然麦秆草,只是没想到在夏日风情的度假系列里居然出现了这么多色彩明媚的麂皮材质手袋...搭配美妙夏夜的晚餐或派对,手袋上少不了珠宝的点缀,最爱的当然是那只收藏家系列的雪糕杯咯~尺寸:26cm"},"price":null,"currency":"CNY","moq":1,"category":"chanel-women-bags","status":"active","alibaba_url":null,"images":["https://xcimg.szwego.com/img/d0c94e6f/20250823/i1755879975_9242_4.jpg","https://xcimg.szwego.com/img/d0c94e6f/20250823/i1755879975_1609_7.jpg","https://xcimg.szwego.com/img/d0c94e6f/20250823/i1755879975_8197_1.jpg","https://xcimg.szwego.com/img/d0c94e6f/20250823/i1755879975_4365_8.jpg","https://xcimg.szwego.com/img/d0c94e6f/20250823/i1755879975_5878_0.jpg","https://xcimg.szwego.com/img/d0c94e6f/20250823/i1755879975_9035_3.jpg","https://xcimg.szwego.com/img/d0c94e6f/20250823/i1755879975_136_6.jpg","https://xcimg.szwego.com/img/d0c94e6f/20250823/i1755879975_7797_2.jpg","https://xcimg.szwego.com/img/d0c94e6f/20250823/i1755879975_8389_5.jpg"],"created_at":"2025-09-19T04:32:40.092Z"},{"id":"item-60a9de8eae52","sku":"_dtptpLefqz_AMREoF3b6O49Ggu4zR7kREFGqsCg","name_en":"Chanel Women Bags","name_cn":"香奈儿/女包","specs":{"source":"wsxcme","sourceId":"_dtptpLefqz_AMREoF3b6O49Ggu4zR7kREFGqsCg","sourceTagId":47002745,"sourceTagName":"香奈儿/女包","rawTitle":""},"price":null,"currency":"CNY","moq":1,"category":"chanel-women-bags","status":"active","alibaba_url":null,"images":["https://xcimg.szwego.com/img/d0c94e6f/20250823/i1755879951_7168_0.jpg"],"created_at":"2025-09-19T04:32:40.091Z"},{"id":"item-63851e212107","sku":"_dnsnsbrrH67x2jF-JYLTMkvd9lRE_hVT3RQJb-Q","name_en":"小號尺寸《卡其色🍠》OHANEL🚩🚩🚩 26C最新编织口盖包,手工编织包手工编织包购物袋 🥂度假氛围里绕不开的拉菲草以及藤条编织元素,采用进口天然麦秆草,只是没想到在夏日风情的度假系列里居然出现了这么多色彩明媚的麂皮材质手袋...搭配美妙夏夜的晚餐或派对,手袋上少不了珠宝的点缀,最爱的当然是那只收藏家系列的雪糕杯咯~尺寸:23cm","name_cn":"小號尺寸《卡其色🍠》OHANEL🚩🚩🚩 26C最新编织口盖包,手工编织包手工编织包购物袋 🥂度假氛围里绕不开的拉菲草以及藤条编织元素,采用进口天然麦秆草,只是没想到在夏日风情的度假系列里居然出现了这么多色彩明媚的麂皮材质手袋...搭配美妙夏夜的晚餐或派对,手袋上少不了珠宝的点缀,最爱的当然是那只收藏家系列的雪糕杯咯~尺寸:23cm","specs":{"source":"wsxcme","sourceId":"_dnsnsbrrH67x2jF-JYLTMkvd9lRE_hVT3RQJb-Q","sourceTagId":47002745,"sourceTagName":"香奈儿/女包","rawTitle":"小號尺寸《卡其色🍠》OHANEL🚩🚩🚩 26C最新编织口盖包,手工编织包手工编织包购物袋 🥂度假氛围里绕不开的拉菲草以及藤条编织元素,采用进口天然麦秆草,只是没想到在夏日风情的度假系列里居然出现了这么多色彩明媚的麂皮材质手袋...搭配美妙夏夜的晚餐或派对,手袋上少不了珠宝的点缀,最爱的当然是那只收藏家系列的雪糕杯咯~尺寸:23cm"},"price":null,"currency":"CNY","moq":1,"category":"chanel-women-bags","status":"active","alibaba_url":null,"images":["https://xcimg.szwego.com/img/d0c94e6f/20250823/i1755879906_2112_4.jpg","https://xcimg.szwego.com/img/d0c94e6f/20250823/i1755879906_8942_5.jpg","https://xcimg.szwego.com/img/d0c94e6f/20250823/i1755879906_731_2.jpg","https://xcimg.szwego.com/img/d0c94e6f/20250823/i1755879906_5877_3.jpg","https://xcimg.szwego.com/img/d0c94e6f/20250823/i1755879905_3371_1.jpg","https://xcimg.szwego.com/img/d0c94e6f/20250823/i1755879905_9061_0.jpg","https://xcimg.szwego.com/img/d0c94e6f/20250823/i1755879906_2875_8.jpg","https://xcimg.szwego.com/img/d0c94e6f/20250823/i1755879906_3237_6.jpg","https://xcimg.szwego.com/img/d0c94e6f/20250823/i1755879906_3811_7.jpg"],"created_at":"2025-09-19T04:32:40.090Z"},{"id":"item-52313c46ffb2","sku":"_dq4q4jS4X3h-1Y9V8-_GVbUnp-5XSCZXmFQMUdQ","name_en":"Chanel Women Bags","name_cn":"香奈儿/女包","specs":{"source":"wsxcme","sourceId":"_dq4q4jS4X3h-1Y9V8-_GVbUnp-5XSCZXmFQMUdQ","sourceTagId":47002745,"sourceTagName":"香奈儿/女包","rawTitle":""},"price":null,"currency":"CNY","moq":1,"category":"chanel-women-bags","status":"active","alibaba_url":null,"images":["https://xcimg.szwego.com/img/d0c94e6f/20250823/i1755879885_184_0.jpg"],"created_at":"2025-09-19T04:32:40.089Z"},{"id":"item-3ea9b5f744a3","sku":"_dyRyRbgyWx5ktSiOMpjP1i6aqc1elngSYnNL7eQ","name_en":"奶昔白《小號尺寸》OHANEL🚩🚩🚩 26C最新编织口盖包,手工编织包手工编织包购物袋 🥂度假氛围里绕不开的拉菲草以及藤条编织元素,采用进口天然麦秆草,只是没想到在夏日风情的度假系列里居然出现了这么多色彩明媚的麂皮材质手袋...搭配美妙夏夜的晚餐或派对,手袋上少不了珠宝的点缀,最爱的当然是那只收藏家系列的雪糕杯咯~尺寸:23cm","name_cn":"奶昔白《小號尺寸》OHANEL🚩🚩🚩 26C最新编织口盖包,手工编织包手工编织包购物袋 🥂度假氛围里绕不开的拉菲草以及藤条编织元素,采用进口天然麦秆草,只是没想到在夏日风情的度假系列里居然出现了这么多色彩明媚的麂皮材质手袋...搭配美妙夏夜的晚餐或派对,手袋上少不了珠宝的点缀,最爱的当然是那只收藏家系列的雪糕杯咯~尺寸:23cm","specs":{"source":"wsxcme","sourceId":"_dyRyRbgyWx5ktSiOMpjP1i6aqc1elngSYnNL7eQ","sourceTagId":47002745,"sourceTagName":"香奈儿/女包","rawTitle":"奶昔白《小號尺寸》OHANEL🚩🚩🚩 26C最新编织口盖包,手工编织包手工编织包购物袋 🥂度假氛围里绕不开的拉菲草以及藤条编织元素,采用进口天然麦秆草,只是没想到在夏日风情的度假系列里居然出现了这么多色彩明媚的麂皮材质手袋...搭配美妙夏夜的晚餐或派对,手袋上少不了珠宝的点缀,最爱的当然是那只收藏家系列的雪糕杯咯~尺寸:23cm"},"price":null,"currency":"CNY","moq":1,"category":"chanel-women-bags","status":"active","alibaba_url":null,"images":["https://xcimg.szwego.com/img/d0c94e6f/20250823/i1755879859_3498_5.jpg","https://xcimg.szwego.com/img/d0c94e6f/20250823/i1755879859_6323_7.jpg","https://xcimg.szwego.com/img/d0c94e6f/20250823/i1755879859_9319_2.jpg","https://xcimg.szwego.com/img/d0c94e6f/20250823/i1755879859_2447_0.jpg","https://xcimg.szwego.com/img/d0c94e6f/20250823/i1755879859_1969_3.jpg","https://xcimg.szwego.com/img/d0c94e6f/20250823/i1755879859_897_1.jpg","https://xcimg.szwego.com/img/d0c94e6f/20250823/i1755879860_9387_8.jpg","https://xcimg.szwego.com/img/d0c94e6f/20250823/i1755879859_3753_4.jpg","https://xcimg.szwego.com/img/d0c94e6f/20250823/i1755879859_6366_6.jpg"],"created_at":"2025-09-19T04:32:40.088Z"},{"id":"item-d4a3f586666d","sku":"_dwZwZ5ln0lFJTSn71UfznVMtRF9_6pBMwZmjtuw","name_en":"Chanel Women Bags","name_cn":"香奈儿/女包","specs":{"source":"wsxcme","sourceId":"_dwZwZ5ln0lFJTSn71UfznVMtRF9_6pBMwZmjtuw","sourceTagId":47002745,"sourceTagName":"香奈儿/女包","rawTitle":""},"price":null,"currency":"CNY","moq":1,"category":"chanel-women-bags","status":"active","alibaba_url":null,"images":["https://xcimg.szwego.com/img/d0c94e6f/20250823/i1755879836_1076_0.jpg"],"created_at":"2025-09-19T04:32:40.087Z"},{"id":"item-5399bcbc7bde","sku":"_dxKxKbFERMOQps1rTzTpc3FtWbaeiKEPS3PSS8w","name_en":"大號尺寸OHANEL🚩🚩🚩 26C最新编织口盖包,手工编织包手工编织包购物袋 🥂度假氛围里绕不开的拉菲草以及藤条编织元素,采用进口天然麦秆草,只是没想到在夏日风情的度假系列里居然出现了这么多色彩明媚的麂皮材质手袋...搭配美妙夏夜的晚餐或派对,手袋上少不了珠宝的点缀,最爱的当然是那只收藏家系列的雪糕杯咯~尺寸:26cm","name_cn":"大號尺寸OHANEL🚩🚩🚩 26C最新编织口盖包,手工编织包手工编织包购物袋 🥂度假氛围里绕不开的拉菲草以及藤条编织元素,采用进口天然麦秆草,只是没想到在夏日风情的度假系列里居然出现了这么多色彩明媚的麂皮材质手袋...搭配美妙夏夜的晚餐或派对,手袋上少不了珠宝的点缀,最爱的当然是那只收藏家系列的雪糕杯咯~尺寸:26cm","specs":{"source":"wsxcme","sourceId":"_dxKxKbFERMOQps1rTzTpc3FtWbaeiKEPS3PSS8w","sourceTagId":47002745,"sourceTagName":"香奈儿/女包","rawTitle":"大號尺寸OHANEL🚩🚩🚩 26C最新编织口盖包,手工编织包手工编织包购物袋 🥂度假氛围里绕不开的拉菲草以及藤条编织元素,采用进口天然麦秆草,只是没想到在夏日风情的度假系列里居然出现了这么多色彩明媚的麂皮材质手袋...搭配美妙夏夜的晚餐或派对,手袋上少不了珠宝的点缀,最爱的当然是那只收藏家系列的雪糕杯咯~尺寸:26cm"},"price":null,"currency":"CNY","moq":1,"category":"chanel-women-bags","status":"active","alibaba_url":null,"images":["https://xcimg.szwego.com/img/d0c94e6f/20250823/i1755879802_8586_6.jpg","https://xcimg.szwego.com/img/d0c94e6f/20250823/i1755879802_7190_7.jpg","https://xcimg.szwego.com/img/d0c94e6f/20250823/i1755879801_1912_1.jpg","https://xcimg.szwego.com/img/d0c94e6f/20250823/i1755879802_9835_4.jpg","https://xcimg.szwego.com/img/d0c94e6f/20250823/i1755879802_183_5.jpg","https://xcimg.szwego.com/img/d0c94e6f/20250823/i1755879802_7813_3.jpg","https://xcimg.szwego.com/img/d0c94e6f/20250823/i1755879802_1347_8.jpg","https://xcimg.szwego.com/img/d0c94e6f/20250823/i1755879801_7271_0.jpg","https://xcimg.szwego.com/img/d0c94e6f/20250823/i1755879801_165_2.jpg"],"created_at":"2025-09-19T04:32:40.086Z"},{"id":"item-475e3e0abef5","sku":"_dututoD1YonFAlMJMhlbyp-k3Gcv2quI0L1WtcA","name_en":"两个尺寸可选🔮🔮🔮大H实拍图片🚩🚩🚩OHANEL新款Vintage树膏🐮皮CF链条包 、第一次拿到实物的时候 被它折服了!是那种少见又炒鸡好看的颜色!包身印着香奶奶特有logo 是那种背一二十年都不会过时的中古款 背着它到哪里都会是最闪亮的girl💗大容量实用时尚感十足、大容量实用时尚感十足💄尺寸:34×21×10cm  🚩🚩🚩OHA","name_cn":"两个尺寸可选🔮🔮🔮大H实拍图片🚩🚩🚩OHANEL新款Vintage树膏🐮皮CF链条包 、第一次拿到实物的时候 被它折服了!是那种少见又炒鸡好看的颜色!包身印着香奶奶特有logo 是那种背一二十年都不会过时的中古款 背着它到哪里都会是最闪亮的girl💗大容量实用时尚感十足、大容量实用时尚感十足💄尺寸:34×21×10cm  🚩🚩🚩OHANEL新款Vintage树膏🐮皮CF链条包 、第一次拿到实物的时候 被它折服了!是那种少见又炒鸡好看的颜色!包身印着香奶奶特有logo 是那种背一二十年都不会过时的中古款 背着它到哪里都会是最闪亮的girl💗大容量实用时尚感十足、尺寸25 X6 X 14cm","specs":{"source":"wsxcme","sourceId":"_dututoD1YonFAlMJMhlbyp-k3Gcv2quI0L1WtcA","sourceTagId":47002745,"sourceTagName":"香奈儿/女包","dimensions":{"lengthCm":34,"heightCm":21,"widthCm":10},"rawTitle":"两个尺寸可选🔮🔮🔮大H实拍图片🚩🚩🚩OHANEL新款Vintage树膏🐮皮CF链条包 、第一次拿到实物的时候 被它折服了!是那种少见又炒鸡好看的颜色!包身印着香奶奶特有logo 是那种背一二十年都不会过时的中古款 背着它到哪里都会是最闪亮的girl💗大容量实用时尚感十足、大容量实用时尚感十足💄尺寸:34×21×10cm  🚩🚩🚩OHANEL新款Vintage树膏🐮皮CF链条包 、第一次拿到实物的时候 被它折服了!是那种少见又炒鸡好看的颜色!包身印着香奶奶特有logo 是那种背一二十年都不会过时的中古款 背着它到哪里都会是最闪亮的girl💗大容量实用时尚感十足、尺寸25 X6 X 14cm"},"price":null,"currency":"CNY","moq":1,"category":"chanel-women-bags","status":"active","alibaba_url":null,"images":["https://xcimg.szwego.com/img/d0c94e6f/20250823/i1755879576_1038_0.jpg"],"created_at":"2025-09-19T04:32:40.085Z"},{"id":"item-7ba0a7b198fa","sku":"_dbhbh0T5xyey39eLcbYkusLJTW074118JH7KNug","name_en":"Chanel Women Bags","name_cn":"香奈儿/女包","specs":{"source":"wsxcme","sourceId":"_dbhbh0T5xyey39eLcbYkusLJTW074118JH7KNug","sourceTagId":47002745,"sourceTagName":"香奈儿/女包","rawTitle":""},"price":null,"currency":"CNY","moq":1,"category":"chanel-women-bags","status":"active","alibaba_url":null,"images":["https://xcimg.szwego.com/img/d0c94e6f/20250823/i1755879341_2128_0.jpg"],"created_at":"2025-09-19T04:32:40.084Z"},{"id":"item-400728f073fe","sku":"_dnpnpljaHJpjOKp2BFBeIgBjyTBUNqMh_EPHKCA","name_en":"《大號尺寸》🚩🚩🚩OHANEL新款Vintage树膏🐮皮CF链条包 、第一次拿到实物的时候 被它折服了!是那种少见又炒鸡好看的颜色!包身印着香奶奶特有logo 是那种背一二十年都不会过时的中古款 背着它到哪里都会是最闪亮的girl💗大容量实用时尚感十足、大容量实用时尚感十足💄尺寸:34×21×10cm","name_cn":"《大號尺寸》🚩🚩🚩OHANEL新款Vintage树膏🐮皮CF链条包 、第一次拿到实物的时候 被它折服了!是那种少见又炒鸡好看的颜色!包身印着香奶奶特有logo 是那种背一二十年都不会过时的中古款 背着它到哪里都会是最闪亮的girl💗大容量实用时尚感十足、大容量实用时尚感十足💄尺寸:34×21×10cm","specs":{"source":"wsxcme","sourceId":"_dnpnpljaHJpjOKp2BFBeIgBjyTBUNqMh_EPHKCA","sourceTagId":47002745,"sourceTagName":"香奈儿/女包","dimensions":{"lengthCm":34,"heightCm":21,"widthCm":10},"rawTitle":"《大號尺寸》🚩🚩🚩OHANEL新款Vintage树膏🐮皮CF链条包 、第一次拿到实物的时候 被它折服了!是那种少见又炒鸡好看的颜色!包身印着香奶奶特有logo 是那种背一二十年都不会过时的中古款 背着它到哪里都会是最闪亮的girl💗大容量实用时尚感十足、大容量实用时尚感十足💄尺寸:34×21×10cm"},"price":null,"currency":"CNY","moq":1,"category":"chanel-women-bags","status":"active","alibaba_url":null,"images":["https://xcimg.szwego.com/img/d0c94e6f/20250823/i1755879311_9518_6.jpg","https://xcimg.szwego.com/img/d0c94e6f/20250823/i1755879311_126_7.jpg","https://xcimg.szwego.com/img/d0c94e6f/20250823/i1755879310_4399_0.jpg","https://xcimg.szwego.com/img/d0c94e6f/20250823/i1755879311_8795_3.jpg","https://xcimg.szwego.com/img/d0c94e6f/20250823/i1755879311_2774_5.jpg","https://xcimg.szwego.com/img/d0c94e6f/20250823/i1755879310_9517_1.jpg","https://xcimg.szwego.com/img/d0c94e6f/20250823/i1755879311_6776_2.jpg","https://xcimg.szwego.com/img/d0c94e6f/20250823/i1755879311_9275_4.jpg","https://xcimg.szwego.com/img/d0c94e6f/20250823/i1755879311_1342_8.jpg"],"created_at":"2025-09-19T04:32:40.083Z"},{"id":"item-6a9d3fac0b23","sku":"_dxKxKbFERMOQps1rTzTpc3FtWa6aiKEPS3PSS8w","name_en":"Chanel Women Bags","name_cn":"香奈儿/女包","specs":{"source":"wsxcme","sourceId":"_dxKxKbFERMOQps1rTzTpc3FtWa6aiKEPS3PSS8w","sourceTagId":47002745,"sourceTagName":"香奈儿/女包","rawTitle":""},"price":null,"currency":"CNY","moq":1,"category":"chanel-women-bags","status":"active","alibaba_url":null,"images":["https://xcimg.szwego.com/img/d0c94e6f/20250827/i1756302914_2810_0.jpg"],"created_at":"2025-09-19T04:32:40.082Z"},{"id":"item-3a3e914165f4","sku":"_drkrkdnzasr7IHe70Qjazn5tY23JsfoUmK3EHqA","name_en":"OHANEL🚩🚩🚩25B双肩Bag黑金25 Bag火的一塌糊涂又紧跟着推出双肩包系列!保留25bag的包型、在原来的基础上增加双肩背法!侧面依旧是双口袋√开口可️抽拉式调节;线条流畅包型立体延续了25系列的实用主义,🤩🤩容量空间大;且在开口做磁吸扣!安全性能拉满!!看到实物又狠狠心动了💓5600尺寸:23x23x14cm","name_cn":"OHANEL🚩🚩🚩25B双肩Bag黑金25 Bag火的一塌糊涂又紧跟着推出双肩包系列!保留25bag的包型、在原来的基础上增加双肩背法!侧面依旧是双口袋√开口可️抽拉式调节;线条流畅包型立体延续了25系列的实用主义,🤩🤩容量空间大;且在开口做磁吸扣!安全性能拉满!!看到实物又狠狠心动了💓5600尺寸:23x23x14cm","specs":{"source":"wsxcme","sourceId":"_drkrkdnzasr7IHe70Qjazn5tY23JsfoUmK3EHqA","sourceTagId":47002745,"sourceTagName":"香奈儿/女包","dimensions":{"lengthCm":23,"heightCm":23,"widthCm":14},"rawTitle":"OHANEL🚩🚩🚩25B双肩Bag黑金25 Bag火的一塌糊涂又紧跟着推出双肩包系列!保留25bag的包型、在原来的基础上增加双肩背法!侧面依旧是双口袋√开口可️抽拉式调节;线条流畅包型立体延续了25系列的实用主义,🤩🤩容量空间大;且在开口做磁吸扣!安全性能拉满!!看到实物又狠狠心动了💓5600尺寸:23x23x14cm"},"price":null,"currency":"CNY","moq":1,"category":"chanel-women-bags","status":"active","alibaba_url":null,"images":["https://xcimg.szwego.com/img/d0c94e6f/20250827/i1756302892_5352_1.jpg","https://xcimg.szwego.com/img/d0c94e6f/20250827/i1756302892_5550_4.jpg","https://xcimg.szwego.com/img/d0c94e6f/20250827/i1756302892_346_6.jpg","https://xcimg.szwego.com/img/d0c94e6f/20250827/i1756302892_2841_7.jpg","https://xcimg.szwego.com/img/d0c94e6f/20250827/i1756302892_945_3.jpg","https://xcimg.szwego.com/img/d0c94e6f/20250827/i1756302893_4522_8.jpg","https://xcimg.szwego.com/img/d0c94e6f/20250827/i1756302892_3241_0.jpg","https://xcimg.szwego.com/img/d0c94e6f/20250827/i1756302892_296_2.jpg","https://xcimg.szwego.com/img/d0c94e6f/20250827/i1756302892_1706_5.jpg"],"created_at":"2025-09-19T04:32:40.081Z"}],"page":87,"pageSize":24,"total":10075,"totalPages":420}
