{"items":[{"id":"item-ac3857024f06","sku":"_dkXkXGwxddCssFFujHMx_Gghua1bgvREMIlYX0g","name_en":"DOCTOR POUCH手袋 💯全钢五金!!️","name_cn":"DOCTOR POUCH手袋 💯全钢五金!!️\n牛皮革\n牛剖层革衬里\n金色饰面\n手提、肩背\n1个主隔层\n1个内侧扁平口袋\n可拆卸腕带,长度(29厘米)\n尺寸:(35 X 18 X 18厘米)\n编号:L104J3","specs":{"source":"wsxcme","sourceId":"_dkXkXGwxddCssFFujHMx_Gghua1bgvREMIlYX0g","sourceTagId":47003106,"sourceTagName":"塞琳/女包","rawTitle":"DOCTOR POUCH手袋 💯全钢五金!!️\n牛皮革\n牛剖层革衬里\n金色饰面\n手提、肩背\n1个主隔层\n1个内侧扁平口袋\n可拆卸腕带,长度(29厘米)\n尺寸:(35 X 18 X 18厘米)\n编号:L104J3"},"price":null,"currency":"CNY","moq":1,"category":"celine-women-bags","status":"active","alibaba_url":null,"images":["https://xcimg.szwego.com/img/34b30588/20260425/i1777057449430_6619_0_0.jpg","https://xcimg.szwego.com/img/34b30588/20260425/i1777057449416_3327_0_1.jpg","https://xcimg.szwego.com/img/34b30588/20260425/i1777057450655_2677_0_2.jpg","https://xcimg.szwego.com/img/34b30588/20260425/i1777057449437_3866_0_3.jpg","https://xcimg.szwego.com/img/34b30588/20260425/i1777057450672_4135_0_4.jpg","https://xcimg.szwego.com/img/34b30588/20260425/i1777057450630_1551_0_5.jpg","https://xcimg.szwego.com/img/34b30588/20260425/i1777057449496_8293_0_6.jpg","https://xcimg.szwego.com/img/34b30588/20260425/i1777057449474_5489_0_7.jpg","https://xcimg.szwego.com/img/34b30588/20260425/i1777057450678_4885_0_8.jpg"],"created_at":"2026-05-20T03:16:24.026Z"},{"id":"item-b104122575ac","sku":"_d_j_jy8nngv0jjbhY2A4mZUi72h6zbqF4u3fMxw","name_en":"DOCTOR POUCH手袋 💯全钢五金!!️","name_cn":"DOCTOR POUCH手袋 💯全钢五金!!️\n编号:L104J3","specs":{"source":"wsxcme","sourceId":"_d_j_jy8nngv0jjbhY2A4mZUi72h6zbqF4u3fMxw","sourceTagId":47003106,"sourceTagName":"塞琳/女包","rawTitle":"DOCTOR POUCH手袋 💯全钢五金!!️\n编号:L104J3"},"price":null,"currency":"CNY","moq":1,"category":"celine-women-bags","status":"active","alibaba_url":null,"images":["https://xcimg.szwego.com/img/34b30588/20260425/i1777057400781_9642_0_0.jpg","https://xcimg.szwego.com/img/34b30588/20260425/i1777057400781_5803_0_1.jpg","https://xcimg.szwego.com/img/34b30588/20260425/i1777057400777_4316_0_2.jpg","https://xcimg.szwego.com/img/34b30588/20260425/i1777057400779_3643_0_3.jpg","https://xcimg.szwego.com/img/34b30588/20260425/i1777057400780_6488_0_4.jpg"],"created_at":"2026-05-20T03:16:24.016Z"},{"id":"item-155fbf68723d","sku":"_dwlwlTE69qlkENA2gzf6NV06rfla0An2TMlj-AA","name_en":"DOCTOR POUCH手袋 💯全钢五金!!️","name_cn":"DOCTOR POUCH手袋 💯全钢五金!!️\n牛皮革\n牛剖层革衬里\n金色饰面\n手提、肩背\n1个主隔层\n1个内侧扁平口袋\n可拆卸腕带,长度(29厘米)\n尺寸:(35 X 18 X 18厘米)\n编号:L104J3","specs":{"source":"wsxcme","sourceId":"_dwlwlTE69qlkENA2gzf6NV06rfla0An2TMlj-AA","sourceTagId":47003106,"sourceTagName":"塞琳/女包","rawTitle":"DOCTOR POUCH手袋 💯全钢五金!!️\n牛皮革\n牛剖层革衬里\n金色饰面\n手提、肩背\n1个主隔层\n1个内侧扁平口袋\n可拆卸腕带,长度(29厘米)\n尺寸:(35 X 18 X 18厘米)\n编号:L104J3"},"price":null,"currency":"CNY","moq":1,"category":"celine-women-bags","status":"active","alibaba_url":null,"images":["https://xcimg.szwego.com/img/34b30588/20260425/i1777057294377_9145_0_0.jpg","https://xcimg.szwego.com/img/34b30588/20260425/i1777057293376_4754_0_1.jpg","https://xcimg.szwego.com/img/34b30588/20260425/i1777057294362_404_0_2.jpg","https://xcimg.szwego.com/img/34b30588/20260425/i1777057293447_3634_0_3.jpg","https://xcimg.szwego.com/img/34b30588/20260425/i1777057293443_8600_0_4.jpg","https://xcimg.szwego.com/img/34b30588/20260425/i1777057293443_1148_0_5.jpg","https://xcimg.szwego.com/img/34b30588/20260425/i1777057242402_1587_0_8.jpg","https://xcimg.szwego.com/img/34b30588/20260425/i1777057241219_982_0_5.jpg"],"created_at":"2026-05-20T03:16:24.006Z"},{"id":"item-0328d7524ec9","sku":"_dWxWxYSqjgwJEXMBSKAN7knZwtN7Glu8JUuLuTg","name_en":"DOCTOR POUCH手袋 💯全钢五金!!️","name_cn":"DOCTOR POUCH手袋 💯全钢五金!!️\n牛皮革\n牛剖层革衬里\n金色饰面\n手提、肩背\n1个主隔层\n1个内侧扁平口袋\n可拆卸腕带,长度(29厘米)\n尺寸:(35 X 18 X 18厘米)\n编号:L104J3","specs":{"source":"wsxcme","sourceId":"_dWxWxYSqjgwJEXMBSKAN7knZwtN7Glu8JUuLuTg","sourceTagId":47003106,"sourceTagName":"塞琳/女包","rawTitle":"DOCTOR POUCH手袋 💯全钢五金!!️\n牛皮革\n牛剖层革衬里\n金色饰面\n手提、肩背\n1个主隔层\n1个内侧扁平口袋\n可拆卸腕带,长度(29厘米)\n尺寸:(35 X 18 X 18厘米)\n编号:L104J3"},"price":null,"currency":"CNY","moq":1,"category":"celine-women-bags","status":"active","alibaba_url":null,"images":["https://xcimg.szwego.com/img/34b30588/20260425/i1777057241252_8413_0_0.jpg","https://xcimg.szwego.com/img/34b30588/20260425/i1777057241238_6558_0_1.jpg","https://xcimg.szwego.com/img/34b30588/20260425/i1777057242409_4842_0_2.jpg","https://xcimg.szwego.com/img/34b30588/20260425/i1777057241076_894_0_3.jpg","https://xcimg.szwego.com/img/34b30588/20260425/i1777057242434_7146_0_4.jpg","https://xcimg.szwego.com/img/34b30588/20260425/i1777057241219_982_0_5.jpg","https://xcimg.szwego.com/img/34b30588/20260425/i1777057241255_6436_0_6.jpg","https://xcimg.szwego.com/img/34b30588/20260425/i1777057242390_466_0_7.jpg","https://xcimg.szwego.com/img/34b30588/20260425/i1777057242402_1587_0_8.jpg"],"created_at":"2026-05-20T03:16:23.996Z"},{"id":"item-f54e1a62d2bd","sku":"_dvvvvoP7fRTS6-Fax7IAdbiQ2foKEZfZV3cx1yA","name_en":"DOCTOR POUCH手袋 💯全钢五金!!️","name_cn":"DOCTOR POUCH手袋 💯全钢五金!!️\n编号:L104J3","specs":{"source":"wsxcme","sourceId":"_dvvvvoP7fRTS6-Fax7IAdbiQ2foKEZfZV3cx1yA","sourceTagId":47003106,"sourceTagName":"塞琳/女包","rawTitle":"DOCTOR POUCH手袋 💯全钢五金!!️\n编号:L104J3"},"price":null,"currency":"CNY","moq":1,"category":"celine-women-bags","status":"active","alibaba_url":null,"images":["https://xcimg.szwego.com/img/34b30588/20260425/i1777057151507_493_0_0.jpg","https://xcimg.szwego.com/img/34b30588/20260425/i1777057151508_3761_0_1.jpg","https://xcimg.szwego.com/img/34b30588/20260425/i1777057151508_7985_0_2.jpg","https://xcimg.szwego.com/img/34b30588/20260425/i1777057151507_384_0_3.jpg"],"created_at":"2026-05-20T03:16:23.986Z"},{"id":"item-0c9bc310e616","sku":"_dqSqSGRCim7YunHkjWkqJuzn7oSdtjSKkWBXWVQ","name_en":"DOCTOR POUCH手袋 💯全钢五金!!️","name_cn":"DOCTOR POUCH手袋 💯全钢五金!!️\n牛皮革\n牛剖层革衬里\n金色饰面\n手提、肩背\n1个主隔层\n1个内侧扁平口袋\n可拆卸腕带,长度(29厘米)\n尺寸:(35 X 18 X 18厘米)\n编号:L104J3","specs":{"source":"wsxcme","sourceId":"_dqSqSGRCim7YunHkjWkqJuzn7oSdtjSKkWBXWVQ","sourceTagId":47003106,"sourceTagName":"塞琳/女包","rawTitle":"DOCTOR POUCH手袋 💯全钢五金!!️\n牛皮革\n牛剖层革衬里\n金色饰面\n手提、肩背\n1个主隔层\n1个内侧扁平口袋\n可拆卸腕带,长度(29厘米)\n尺寸:(35 X 18 X 18厘米)\n编号:L104J3"},"price":null,"currency":"CNY","moq":1,"category":"celine-women-bags","status":"active","alibaba_url":null,"images":["https://xcimg.szwego.com/img/34b30588/20260425/i1777055583227_1162_0_0.jpg","https://xcimg.szwego.com/img/34b30588/20260425/i1777055521333_6886_0_0.jpg","https://xcimg.szwego.com/img/34b30588/20260425/i1777055519742_3000_0_5.jpg","https://xcimg.szwego.com/img/34b30588/20260425/i1777055584247_9262_0_3.jpg","https://xcimg.szwego.com/img/34b30588/20260425/i1777055583311_3619_0_4.jpg","https://xcimg.szwego.com/img/34b30588/20260425/i1777055583304_8506_0_5.jpg","https://xcimg.szwego.com/img/34b30588/20260425/i1777055584301_625_0_6.jpg"],"created_at":"2026-05-20T03:16:23.976Z"},{"id":"item-1a1402831f19","sku":"_d9c9c2YNesi0zNPJlLpig3RAtDy3FNYsVPPrGuw","name_en":"DOCTOR POUCH手袋 💯全钢五金!!️","name_cn":"DOCTOR POUCH手袋 💯全钢五金!!️\n牛皮革\n牛剖层革衬里\n金色饰面\n手提、肩背\n1个主隔层\n1个内侧扁平口袋\n可拆卸腕带,长度(29厘米)\n尺寸:(35 X 18 X 18厘米)\n编号:L104J3","specs":{"source":"wsxcme","sourceId":"_d9c9c2YNesi0zNPJlLpig3RAtDy3FNYsVPPrGuw","sourceTagId":47003106,"sourceTagName":"塞琳/女包","rawTitle":"DOCTOR POUCH手袋 💯全钢五金!!️\n牛皮革\n牛剖层革衬里\n金色饰面\n手提、肩背\n1个主隔层\n1个内侧扁平口袋\n可拆卸腕带,长度(29厘米)\n尺寸:(35 X 18 X 18厘米)\n编号:L104J3"},"price":null,"currency":"CNY","moq":1,"category":"celine-women-bags","status":"active","alibaba_url":null,"images":["https://xcimg.szwego.com/img/34b30588/20260425/i1777055521333_6886_0_0.jpg","https://xcimg.szwego.com/img/34b30588/20260425/i1777055521289_6107_0_1.jpg","https://xcimg.szwego.com/img/34b30588/20260425/i1777055521269_3732_0_2.jpg","https://xcimg.szwego.com/img/34b30588/20260425/i1777055519778_5007_0_3.jpg","https://xcimg.szwego.com/img/34b30588/20260425/i1777055519686_4324_0_4.jpg","https://xcimg.szwego.com/img/34b30588/20260425/i1777055519742_3000_0_5.jpg","https://xcimg.szwego.com/img/34b30588/20260425/i1777055521274_332_0_6.jpg","https://xcimg.szwego.com/img/34b30588/20260425/i1777055519725_3807_0_7.jpg","https://xcimg.szwego.com/img/34b30588/20260425/i1777055519675_479_0_8.jpg"],"created_at":"2026-05-20T03:16:23.966Z"},{"id":"item-9ca12c0e733d","sku":"_djJjJhgXLMKctA31O2SNghgdodDCLASY5i02aMw","name_en":"FLAT SHOPPER大号标志印花手袋💯全钢五金!!️","name_cn":"FLAT SHOPPER大号标志印花手袋💯全钢五金!!️\n编号:123842","specs":{"source":"wsxcme","sourceId":"_djJjJhgXLMKctA31O2SNghgdodDCLASY5i02aMw","sourceTagId":47003106,"sourceTagName":"塞琳/女包","rawTitle":"FLAT SHOPPER大号标志印花手袋💯全钢五金!!️\n编号:123842"},"price":null,"currency":"CNY","moq":1,"category":"celine-women-bags","status":"active","alibaba_url":null,"images":["https://xcimg.szwego.com/img/34b30588/20260425/i1777055190677_8087_0_0.jpg","https://xcimg.szwego.com/img/34b30588/20260425/i1777055190675_9627_0_1.jpg","https://xcimg.szwego.com/img/34b30588/20260425/i1777055190677_3641_0_2.jpg","https://xcimg.szwego.com/img/34b30588/20260425/i1777055190677_7444_0_3.jpg","https://xcimg.szwego.com/img/34b30588/20260425/i1777055190677_2134_0_4.jpg"],"created_at":"2026-05-20T03:16:23.956Z"},{"id":"item-087235bc7b88","sku":"_dnHnH-2iF5lVjo6G7lWKA2KAPyk9gPGxw7PSC8A","name_en":"FLAT SHOPPER大号标志印花手袋💯全钢五金!!️","name_cn":"FLAT SHOPPER大号标志印花手袋💯全钢五金!!️\n标志印花,天然牛皮革包边\n织物衬里\n金色饰面\n手提、肩背\nTRIOMPHE按扣开合和钩扣\n1个主隔层\n1个内侧拉链袋\n2个提手,长度(25厘米)\n尺寸:(0.5 X 42 X 45.5厘米)\n编号:123842","specs":{"source":"wsxcme","sourceId":"_dnHnH-2iF5lVjo6G7lWKA2KAPyk9gPGxw7PSC8A","sourceTagId":47003106,"sourceTagName":"塞琳/女包","rawTitle":"FLAT SHOPPER大号标志印花手袋💯全钢五金!!️\n标志印花,天然牛皮革包边\n织物衬里\n金色饰面\n手提、肩背\nTRIOMPHE按扣开合和钩扣\n1个主隔层\n1个内侧拉链袋\n2个提手,长度(25厘米)\n尺寸:(0.5 X 42 X 45.5厘米)\n编号:123842"},"price":null,"currency":"CNY","moq":1,"category":"celine-women-bags","status":"active","alibaba_url":null,"images":["https://xcimg.szwego.com/img/34b30588/20260425/i1777054959613_7892_0_0.jpg","https://xcimg.szwego.com/img/34b30588/20260425/i1777054915626_7731_0_5.jpg","https://xcimg.szwego.com/img/34b30588/20260425/i1777054915658_4140_0_6.jpg","https://xcimg.szwego.com/img/34b30588/20260425/i1777054959532_3858_0_3.jpg","https://xcimg.szwego.com/img/34b30588/20260425/i1777054959605_2855_0_4.jpg","https://xcimg.szwego.com/img/34b30588/20260425/i1777054959626_577_0_5.jpg","https://xcimg.szwego.com/img/34b30588/20260425/i1777054959636_4426_0_6.jpg"],"created_at":"2026-05-20T03:16:23.946Z"},{"id":"item-5e21e744dc36","sku":"_dlLlL5rcDWiAhtElEFmSNKOEDw4IPxVFU-EO7tA","name_en":"FLAT SHOPPER大号标志印花手袋💯全钢五金!!️","name_cn":"FLAT SHOPPER大号标志印花手袋💯全钢五金!!️\n标志印花,天然牛皮革包边\n织物衬里\n金色饰面\n手提、肩背\nTRIOMPHE按扣开合和钩扣\n1个主隔层\n1个内侧拉链袋\n2个提手,长度(25厘米)\n尺寸:(0.5 X 42 X 45.5厘米)\n编号:123842","specs":{"source":"wsxcme","sourceId":"_dlLlL5rcDWiAhtElEFmSNKOEDw4IPxVFU-EO7tA","sourceTagId":47003106,"sourceTagName":"塞琳/女包","rawTitle":"FLAT SHOPPER大号标志印花手袋💯全钢五金!!️\n标志印花,天然牛皮革包边\n织物衬里\n金色饰面\n手提、肩背\nTRIOMPHE按扣开合和钩扣\n1个主隔层\n1个内侧拉链袋\n2个提手,长度(25厘米)\n尺寸:(0.5 X 42 X 45.5厘米)\n编号:123842"},"price":null,"currency":"CNY","moq":1,"category":"celine-women-bags","status":"active","alibaba_url":null,"images":["https://xcimg.szwego.com/img/34b30588/20260425/i1777054913471_8150_0_0.jpg","https://xcimg.szwego.com/img/34b30588/20260425/i1777054913486_9905_0_1.jpg","https://xcimg.szwego.com/img/34b30588/20260425/i1777054915628_2832_0_2.jpg","https://xcimg.szwego.com/img/34b30588/20260425/i1777054913471_5_0_3.jpg","https://xcimg.szwego.com/img/34b30588/20260425/i1777054913464_5220_0_4.jpg","https://xcimg.szwego.com/img/34b30588/20260425/i1777054915626_7731_0_5.jpg","https://xcimg.szwego.com/img/34b30588/20260425/i1777054915658_4140_0_6.jpg","https://xcimg.szwego.com/img/34b30588/20260425/i1777054913497_9205_0_7.jpg","https://xcimg.szwego.com/img/34b30588/20260425/i1777054915584_9379_0_8.jpg"],"created_at":"2026-05-20T03:16:23.936Z"},{"id":"item-8fcb64753d57","sku":"_domomqtaPUvmOqP60tsvgl5ivbHcVXxlSY-KXTQ","name_en":"FLAT SHOPPER中号标志印花手袋💯全钢五金!!️","name_cn":"FLAT SHOPPER中号标志印花手袋💯全钢五金!!️\n标志印花,天然牛皮革包边\n织物衬里\n金色饰面\n手提、肩背\nTRIOMPHE按扣开合和钩扣\n1个主隔层\n1个内侧拉链袋\n2个提手,(25厘米)\n尺寸:(28 X 33 X 0.5厘米)\n编号:123832","specs":{"source":"wsxcme","sourceId":"_domomqtaPUvmOqP60tsvgl5ivbHcVXxlSY-KXTQ","sourceTagId":47003106,"sourceTagName":"塞琳/女包","rawTitle":"FLAT SHOPPER中号标志印花手袋💯全钢五金!!️\n标志印花,天然牛皮革包边\n织物衬里\n金色饰面\n手提、肩背\nTRIOMPHE按扣开合和钩扣\n1个主隔层\n1个内侧拉链袋\n2个提手,(25厘米)\n尺寸:(28 X 33 X 0.5厘米)\n编号:123832"},"price":null,"currency":"CNY","moq":1,"category":"celine-women-bags","status":"active","alibaba_url":null,"images":["https://xcimg.szwego.com/img/34b30588/20260423/i1776934604133_2730_0_0.jpg","https://xcimg.szwego.com/img/34b30588/20260423/i1776934604133_1213_0_1.jpg"],"created_at":"2026-05-20T03:16:23.926Z"},{"id":"item-144d8f0da78b","sku":"_diOiOUaRMnogJ6EnDr9ERx3fGPhioH_PZg0sqPw","name_en":"FLAT SHOPPER中号标志印花手袋💯全钢五金!!️","name_cn":"FLAT SHOPPER中号标志印花手袋💯全钢五金!!️\n编号:123832","specs":{"source":"wsxcme","sourceId":"_diOiOUaRMnogJ6EnDr9ERx3fGPhioH_PZg0sqPw","sourceTagId":47003106,"sourceTagName":"塞琳/女包","rawTitle":"FLAT SHOPPER中号标志印花手袋💯全钢五金!!️\n编号:123832"},"price":null,"currency":"CNY","moq":1,"category":"celine-women-bags","status":"active","alibaba_url":null,"images":["https://xcimg.szwego.com/img/34b30588/20260425/i1777053998321_6063_0_0.jpg","https://xcimg.szwego.com/img/34b30588/20260425/i1777053961045_3550_0_4.jpg","https://xcimg.szwego.com/img/34b30588/20260425/i1777053959212_1199_0_5.jpg","https://xcimg.szwego.com/img/34b30588/20260425/i1777053959211_497_0_6.jpg","https://xcimg.szwego.com/img/34b30588/20260425/i1777053999119_1161_0_3.jpg","https://xcimg.szwego.com/img/34b30588/20260425/i1777053959212_7540_0_7.jpg","https://xcimg.szwego.com/img/34b30588/20260425/i1777053998344_9846_0_4.jpg","https://xcimg.szwego.com/img/34b30588/20260425/i1777053998285_192_0_5.jpg"],"created_at":"2026-05-20T03:16:23.916Z"},{"id":"item-b45b9a9b2c6c","sku":"_dWWWW8zo0hRlvKOTbD2_F7AwwzAZ5hMGQ7_N1GQ","name_en":"FLAT SHOPPER中号标志印花手袋💯全钢五金!!️","name_cn":"FLAT SHOPPER中号标志印花手袋💯全钢五金!!️\n标志印花,天然牛皮革包边\n织物衬里\n金色饰面\n手提、肩背\nTRIOMPHE按扣开合和钩扣\n1个主隔层\n1个内侧拉链袋\n2个提手,(25厘米)\n尺寸:(28 X 33 X 0.5厘米)\n编号:123832","specs":{"source":"wsxcme","sourceId":"_dWWWW8zo0hRlvKOTbD2_F7AwwzAZ5hMGQ7_N1GQ","sourceTagId":47003106,"sourceTagName":"塞琳/女包","rawTitle":"FLAT SHOPPER中号标志印花手袋💯全钢五金!!️\n标志印花,天然牛皮革包边\n织物衬里\n金色饰面\n手提、肩背\nTRIOMPHE按扣开合和钩扣\n1个主隔层\n1个内侧拉链袋\n2个提手,(25厘米)\n尺寸:(28 X 33 X 0.5厘米)\n编号:123832"},"price":null,"currency":"CNY","moq":1,"category":"celine-women-bags","status":"active","alibaba_url":null,"images":["https://xcimg.szwego.com/img/34b30588/20260425/i1777053959212_9960_0_0.jpg","https://xcimg.szwego.com/img/34b30588/20260425/i1777053961085_6550_0_1.jpg","https://xcimg.szwego.com/img/34b30588/20260425/i1777053959212_5198_0_2.jpg","https://xcimg.szwego.com/img/34b30588/20260425/i1777053960981_3952_0_3.jpg","https://xcimg.szwego.com/img/34b30588/20260425/i1777053961045_3550_0_4.jpg","https://xcimg.szwego.com/img/34b30588/20260425/i1777053959212_1199_0_5.jpg","https://xcimg.szwego.com/img/34b30588/20260425/i1777053959211_497_0_6.jpg","https://xcimg.szwego.com/img/34b30588/20260425/i1777053959212_7540_0_7.jpg","https://xcimg.szwego.com/img/34b30588/20260425/i1777053961058_8576_0_8.jpg"],"created_at":"2026-05-20T03:16:23.906Z"},{"id":"item-d1f1c0fe35ea","sku":"_dq0q0E12b_WOSKuFEUuiSwqu4vn03esO50EDITw","name_en":"Celine Women Bags","name_cn":"123912新色","specs":{"source":"wsxcme","sourceId":"_dq0q0E12b_WOSKuFEUuiSwqu4vn03esO50EDITw","sourceTagId":47003106,"sourceTagName":"塞琳/女包","rawTitle":"123912新色"},"price":null,"currency":"CNY","moq":1,"category":"celine-women-bags","status":"active","alibaba_url":null,"images":["https://xcimg.szwego.com/img/34b30588/20260416/i1776308344848_6164_0_0.jpg","https://xcimg.szwego.com/img/34b30588/20260416/i1776308344847_6235_0_1.jpg","https://xcimg.szwego.com/img/34b30588/20260416/i1776308287506_7248_0_4.jpg"],"created_at":"2026-05-20T03:16:23.896Z"},{"id":"item-6c0036111f10","sku":"_d8-8-L25oSsmbVz5Td-sDfSKUJFMyRmi2QBDwSw","name_en":"SOFT SHOPPER标志印花手袋💯全钢五金!!️","name_cn":"SOFT SHOPPER标志印花手袋💯全钢五金!!️\n柔软廓形手袋,为追求穿搭效果不建议放电脑等重物\n斜挎和肩背\nTRIOMPHE按扣开合\n1个主隔层\n1个内侧可拆卸拉链口袋\n可调节肩带,最小长度(26厘米),最大长度(34厘米)\n尺寸:(32.5 X 24.5 X 14厘米)\n编号:123912","specs":{"source":"wsxcme","sourceId":"_d8-8-L25oSsmbVz5Td-sDfSKUJFMyRmi2QBDwSw","sourceTagId":47003106,"sourceTagName":"塞琳/女包","rawTitle":"SOFT SHOPPER标志印花手袋💯全钢五金!!️\n柔软廓形手袋,为追求穿搭效果不建议放电脑等重物\n斜挎和肩背\nTRIOMPHE按扣开合\n1个主隔层\n1个内侧可拆卸拉链口袋\n可调节肩带,最小长度(26厘米),最大长度(34厘米)\n尺寸:(32.5 X 24.5 X 14厘米)\n编号:123912"},"price":null,"currency":"CNY","moq":1,"category":"celine-women-bags","status":"active","alibaba_url":null,"images":["https://xcimg.szwego.com/img/34b30588/20260421/i1776709708_9674_5.jpg","https://xcimg.szwego.com/img/34b30588/20260421/i1776709708_6531_2.jpg","https://xcimg.szwego.com/img/34b30588/20260421/i1776709708_5772_0.jpg","https://xcimg.szwego.com/img/34b30588/20260421/i1776709708_2779_1.jpg","https://xcimg.szwego.com/img/34b30588/20260421/i1776709708_6905_3.jpg","https://xcimg.szwego.com/img/34b30588/20260421/i1776709708_4678_7.jpg","https://xcimg.szwego.com/img/34b30588/20260421/i1776709708_5619_4.jpg","https://xcimg.szwego.com/img/34b30588/20260421/i1776709708_2464_6.jpg","https://xcimg.szwego.com/img/34b30588/20260421/i1776709708_9725_8.jpg"],"created_at":"2026-05-20T03:16:23.886Z"},{"id":"item-b6e4ed980a06","sku":"_duquq9eCpT9ELi4MBBjYSzXiwIotPdfUjnlnxzw","name_en":"SOFT SHOPPER标志印花手袋 💯全钢五金!!️","name_cn":"SOFT SHOPPER标志印花手袋 💯全钢五金!!️\n柔软廓形手袋,为追求穿搭效果不建议放电脑等重物\n斜挎和肩背\nTRIOMPHE按扣开合\n1个主隔层\n1个内侧可拆卸拉链口袋\n可调节肩带,最小长度(26厘米),最大长度(34厘米)\n尺寸:(32.5 X 24.5 X 14厘米)\n编号:123912","specs":{"source":"wsxcme","sourceId":"_duquq9eCpT9ELi4MBBjYSzXiwIotPdfUjnlnxzw","sourceTagId":47003106,"sourceTagName":"塞琳/女包","rawTitle":"SOFT SHOPPER标志印花手袋 💯全钢五金!!️\n柔软廓形手袋,为追求穿搭效果不建议放电脑等重物\n斜挎和肩背\nTRIOMPHE按扣开合\n1个主隔层\n1个内侧可拆卸拉链口袋\n可调节肩带,最小长度(26厘米),最大长度(34厘米)\n尺寸:(32.5 X 24.5 X 14厘米)\n编号:123912"},"price":null,"currency":"CNY","moq":1,"category":"celine-women-bags","status":"active","alibaba_url":null,"images":["https://xcimg.szwego.com/img/34b30588/20260421/i1776709563_5559_6.jpg","https://xcimg.szwego.com/img/34b30588/20260421/i1776709563_6588_1.jpg","https://xcimg.szwego.com/img/34b30588/20260421/i1776709563_9652_5.jpg","https://xcimg.szwego.com/img/34b30588/20260421/i1776709563_8898_2.jpg","https://xcimg.szwego.com/img/34b30588/20260421/i1776709563_7531_7.jpg","https://xcimg.szwego.com/img/34b30588/20260421/i1776709563_1643_3.jpg","https://xcimg.szwego.com/img/34b30588/20260421/i1776709563_8085_0.jpg","https://xcimg.szwego.com/img/34b30588/20260421/i1776709563_131_4.jpg","https://xcimg.szwego.com/img/34b30588/20260421/i1776709563_6503_8.jpg"],"created_at":"2026-05-20T03:16:23.876Z"},{"id":"item-2d1b4ae6b72a","sku":"_dlLlL5rcDWiAhtElEFmSNKOEDw4EPxVFU-0G6sg","name_en":"Celine Women Bags","name_cn":"123912 💯全钢五金!!️","specs":{"source":"wsxcme","sourceId":"_dlLlL5rcDWiAhtElEFmSNKOEDw4EPxVFU-0G6sg","sourceTagId":47003106,"sourceTagName":"塞琳/女包","rawTitle":"123912 💯全钢五金!!️"},"price":null,"currency":"CNY","moq":1,"category":"celine-women-bags","status":"active","alibaba_url":null,"images":["https://xcimg.szwego.com/img/34b30588/20260419/i1776588116_6622_0.jpg","https://xcimg.szwego.com/img/34b30588/20260419/i1776588116_5881_2.jpg","https://xcimg.szwego.com/img/34b30588/20260419/i1776588116_2602_1.jpg"],"created_at":"2026-05-20T03:16:23.866Z"},{"id":"item-46f5ee57419c","sku":"_d8u8u3N7OscJmFIrg4QwcQzyWpsgAnWqeX6zKeg","name_en":"SOFT SHOPPER标志印花手袋💯全钢五金!!️","name_cn":"SOFT SHOPPER标志印花手袋💯全钢五金!!️\n柔软廓形手袋,为追求穿搭效果不建议放电脑等重物\n斜挎和肩背\nTRIOMPHE按扣开合\n1个主隔层\n1个内侧可拆卸拉链口袋\n可调节肩带,最小长度(26厘米),最大长度(34厘米)\n尺寸:(32.5 X 24.5 X 14厘米)\n编号:123912","specs":{"source":"wsxcme","sourceId":"_d8u8u3N7OscJmFIrg4QwcQzyWpsgAnWqeX6zKeg","sourceTagId":47003106,"sourceTagName":"塞琳/女包","rawTitle":"SOFT SHOPPER标志印花手袋💯全钢五金!!️\n柔软廓形手袋,为追求穿搭效果不建议放电脑等重物\n斜挎和肩背\nTRIOMPHE按扣开合\n1个主隔层\n1个内侧可拆卸拉链口袋\n可调节肩带,最小长度(26厘米),最大长度(34厘米)\n尺寸:(32.5 X 24.5 X 14厘米)\n编号:123912"},"price":null,"currency":"CNY","moq":1,"category":"celine-women-bags","status":"active","alibaba_url":null,"images":["https://xcimg.szwego.com/img/34b30588/20260421/i1776708437_6610_5.jpg","https://xcimg.szwego.com/img/34b30588/20260421/i1776708437_4224_6.jpg","https://xcimg.szwego.com/img/34b30588/20260421/i1776708437_3375_7.jpg","https://xcimg.szwego.com/img/34b30588/20260421/i1776708437_3406_3.jpg","https://xcimg.szwego.com/img/34b30588/20260421/i1776708437_2392_0.jpg","https://xcimg.szwego.com/img/34b30588/20260421/i1776708437_404_1.jpg","https://xcimg.szwego.com/img/34b30588/20260421/i1776708437_4304_8.jpg","https://xcimg.szwego.com/img/34b30588/20260421/i1776708437_697_2.jpg","https://xcimg.szwego.com/img/34b30588/20260421/i1776708437_7316_4.jpg"],"created_at":"2026-05-20T03:16:23.856Z"},{"id":"item-22ba1dafba52","sku":"_dPAPAPhHGdNkbx_bSJ51mDx0vt1so4UAjAgEUYQ","name_en":"SOFT SHOPPER标志印花手袋💯全钢五金!!️","name_cn":"SOFT SHOPPER标志印花手袋💯全钢五金!!️\n柔软廓形手袋,为追求穿搭效果不建议放电脑等重物\n斜挎和肩背\nTRIOMPHE按扣开合\n1个主隔层\n1个内侧可拆卸拉链口袋\n可调节肩带,最小长度(26厘米),最大长度(34厘米)\n尺寸:(32.5 X 24.5 X 14厘米)\n编号:123912","specs":{"source":"wsxcme","sourceId":"_dPAPAPhHGdNkbx_bSJ51mDx0vt1so4UAjAgEUYQ","sourceTagId":47003106,"sourceTagName":"塞琳/女包","rawTitle":"SOFT SHOPPER标志印花手袋💯全钢五金!!️\n柔软廓形手袋,为追求穿搭效果不建议放电脑等重物\n斜挎和肩背\nTRIOMPHE按扣开合\n1个主隔层\n1个内侧可拆卸拉链口袋\n可调节肩带,最小长度(26厘米),最大长度(34厘米)\n尺寸:(32.5 X 24.5 X 14厘米)\n编号:123912"},"price":null,"currency":"CNY","moq":1,"category":"celine-women-bags","status":"active","alibaba_url":null,"images":["https://xcimg.szwego.com/img/34b30588/20260421/i1776708395_6204_3.jpg","https://xcimg.szwego.com/img/34b30588/20260421/i1776708395_1840_6.jpg","https://xcimg.szwego.com/img/34b30588/20260421/i1776708395_8144_2.jpg","https://xcimg.szwego.com/img/34b30588/20260421/i1776708395_5927_5.jpg","https://xcimg.szwego.com/img/34b30588/20260421/i1776708395_9505_4.jpg","https://xcimg.szwego.com/img/34b30588/20260421/i1776708395_2476_7.jpg","https://xcimg.szwego.com/img/34b30588/20260421/i1776708395_3617_1.jpg","https://xcimg.szwego.com/img/34b30588/20260421/i1776708395_7103_8.jpg","https://xcimg.szwego.com/img/34b30588/20260421/i1776708395_7040_0.jpg"],"created_at":"2026-05-20T03:16:23.846Z"},{"id":"item-277b7536df96","sku":"_daWaW5izSMaaWpypBzGw6MTvLjGQ80Eq-R8yZSQ","name_en":"CELINE|HALFMOON小号手袋 浅棕色🤎","name_cn":"CELINE|HALFMOON小号手袋 浅棕色🤎","specs":{"source":"wsxcme","sourceId":"_daWaW5izSMaaWpypBzGw6MTvLjGQ80Eq-R8yZSQ","sourceTagId":47003106,"sourceTagName":"塞琳/女包","rawTitle":"CELINE|HALFMOON小号手袋 浅棕色🤎"},"price":null,"currency":"CNY","moq":1,"category":"celine-women-bags","status":"active","alibaba_url":null,"images":["https://xcimg.szwego.com/img/f671a590/20260426/a1777183026305_0016.jpg","https://xcimg.szwego.com/img/f671a590/20260426/a1777183026458_4514.jpg","https://xcimg.szwego.com/img/f671a590/20260426/a1777183026304_5133.jpg","https://xcimg.szwego.com/img/f671a590/20260426/a1777183026310_1611.jpg","https://xcimg.szwego.com/img/f671a590/20260426/a1777183026302_6842.jpg","https://xcimg.szwego.com/img/f671a590/20260426/a1777183028127_8165.jpg","https://xcimg.szwego.com/img/f671a590/20260426/a1777183028140_3473.jpg","https://xcimg.szwego.com/img/f671a590/20260426/a1777183028139_5701.jpg","https://xcimg.szwego.com/img/f671a590/20260426/a1777183027707_2261.jpg"],"created_at":"2026-05-20T03:16:23.836Z"},{"id":"item-916cb0e8bd47","sku":"_dktkt9CVPd3wbLqYKX0EbTiF73sovRtdD8EiQWA","name_en":"CELINE 新款HALFMOON 小号❤️","name_cn":"CELINE 新款HALFMOON 小号❤️\n半月弧形线条\n配上经典Triomphe金扣\n款号:L10373\n尺寸:25x13x5cm","specs":{"source":"wsxcme","sourceId":"_dktkt9CVPd3wbLqYKX0EbTiF73sovRtdD8EiQWA","sourceTagId":47003106,"sourceTagName":"塞琳/女包","modelNumber":"L10373","dimensions":{"lengthCm":25,"heightCm":13,"widthCm":5},"rawTitle":"CELINE 新款HALFMOON 小号❤️\n半月弧形线条\n配上经典Triomphe金扣\n款号:L10373\n尺寸:25x13x5cm"},"price":null,"currency":"CNY","moq":1,"category":"celine-women-bags","status":"active","alibaba_url":null,"images":["https://xcimg.szwego.com/img/f671a590/20260426/a1777182799883_4485.jpg","https://xcimg.szwego.com/img/f671a590/20260426/a1777182799881_1474.jpg","https://xcimg.szwego.com/img/f671a590/20260426/a1777182799992_5738.jpg","https://xcimg.szwego.com/img/f671a590/20260426/a1777182800055_4752.jpg","https://xcimg.szwego.com/img/f671a590/20260426/a1777182799875_3034.jpg","https://xcimg.szwego.com/img/f671a590/20260426/a1777182802009_0212.jpg","https://xcimg.szwego.com/img/f671a590/20260426/a1777182801990_0284.jpg","https://xcimg.szwego.com/img/f671a590/20260426/a1777182802007_1177.jpg","https://xcimg.szwego.com/img/f671a590/20260426/a1777182802056_1670.jpg"],"created_at":"2026-05-20T03:16:23.826Z"},{"id":"item-015ca632d59c","sku":"_d0000LcZE9uYzKvCc7ptV_XR6Tes0JrGPWqhymw","name_en":"CELINE|小号HOBO 🤎可拎可斜挎!","name_cn":"CELINE|小号HOBO 🤎可拎可斜挎!","specs":{"source":"wsxcme","sourceId":"_d0000LcZE9uYzKvCc7ptV_XR6Tes0JrGPWqhymw","sourceTagId":47003106,"sourceTagName":"塞琳/女包","rawTitle":"CELINE|小号HOBO 🤎可拎可斜挎!"},"price":null,"currency":"CNY","moq":1,"category":"celine-women-bags","status":"active","alibaba_url":null,"images":["https://xcimg.szwego.com/img/f671a590/20260425/a1777132303647_8202.jpg","https://xcimg.szwego.com/img/f671a590/20260425/a1777132303515_3810.jpg","https://xcimg.szwego.com/img/f671a590/20260425/a1777132303581_4024.jpg","https://xcimg.szwego.com/img/f671a590/20260425/a1777132303831_3622.jpg","https://xcimg.szwego.com/img/f671a590/20260425/a1777132303601_0553.jpg","https://xcimg.szwego.com/img/f671a590/20260425/a1777132306706_2046.jpg","https://xcimg.szwego.com/img/f671a590/20260425/a1777132306360_5508.jpg","https://xcimg.szwego.com/img/f671a590/20260425/a1777132306361_8080.jpg","https://xcimg.szwego.com/img/f671a590/20260425/a1777132306361_2368.jpg"],"created_at":"2026-05-20T03:16:23.816Z"},{"id":"item-21b3792c02fb","sku":"_de5e5arSo1wA0RJ4qGC1U4F1pGBu39QU9GbhOmg","name_en":"CELINE新款Teen Hobo🎨","name_cn":"CELINE新款Teen Hobo🎨\n✍🏻尺寸:18x31x6 cm\n附一个小零钱包 11×8cm\n肩带长度:最大43.5CM/最小35CM\n功能性💯手提或斜挎\n按扣&内置可拆卸拉链包\n型号:L10133","specs":{"source":"wsxcme","sourceId":"_de5e5arSo1wA0RJ4qGC1U4F1pGBu39QU9GbhOmg","sourceTagId":47003106,"sourceTagName":"塞琳/女包","modelNumber":"L10133","dimensions":{"lengthCm":18,"heightCm":31,"widthCm":6},"rawTitle":"CELINE新款Teen Hobo🎨\n✍🏻尺寸:18x31x6 cm\n附一个小零钱包 11×8cm\n肩带长度:最大43.5CM/最小35CM\n功能性💯手提或斜挎\n按扣&内置可拆卸拉链包\n型号:L10133"},"price":null,"currency":"CNY","moq":1,"category":"celine-women-bags","status":"active","alibaba_url":null,"images":["https://xcimg.szwego.com/img/f671a590/20260425/a1777132117292_7233.jpg","https://xcimg.szwego.com/img/f671a590/20260425/a1777132116898_4437.jpg","https://xcimg.szwego.com/img/f671a590/20260425/a1777132117340_6156.jpg","https://xcimg.szwego.com/img/f671a590/20260425/a1777132117332_2452.jpg","https://xcimg.szwego.com/img/f671a590/20260425/a1777132117682_7631.jpg","https://xcimg.szwego.com/img/f671a590/20260425/a1777132118903_7733.jpg","https://xcimg.szwego.com/img/f671a590/20260425/a1777132118386_2816.jpg","https://xcimg.szwego.com/img/f671a590/20260425/a1777132119019_2178.jpg","https://xcimg.szwego.com/img/f671a590/20260425/a1777132118746_5018.jpg","https://xcimg.szwego.com/img/f671a590/20260425/a1777132118595_3103.jpg"],"created_at":"2026-05-20T03:16:23.806Z"},{"id":"item-eff7f500606a","sku":"_dkMkMEqmUldfd40iwBQRYyEy4FS9Dv8s0jShuHg","name_en":"CELINE|小号HOBO 🤍","name_cn":"CELINE|小号HOBO 🤍","specs":{"source":"wsxcme","sourceId":"_dkMkMEqmUldfd40iwBQRYyEy4FS9Dv8s0jShuHg","sourceTagId":47003106,"sourceTagName":"塞琳/女包","rawTitle":"CELINE|小号HOBO 🤍"},"price":null,"currency":"CNY","moq":1,"category":"celine-women-bags","status":"active","alibaba_url":null,"images":["https://xcimg.szwego.com/img/f671a590/20260425/a1777132048024_7427.jpg","https://xcimg.szwego.com/img/f671a590/20260425/a1777132047924_0412.jpg","https://xcimg.szwego.com/img/f671a590/20260425/a1777132048017_2211.jpg","https://xcimg.szwego.com/img/f671a590/20260425/a1777132047691_6743.jpg","https://xcimg.szwego.com/img/f671a590/20260425/a1777132048036_7411.jpg","https://xcimg.szwego.com/img/f671a590/20260425/a1777132049503_7541.jpg","https://xcimg.szwego.com/img/f671a590/20260425/a1777132049504_3630.jpg","https://xcimg.szwego.com/img/f671a590/20260425/a1777132049239_2655.jpg","https://xcimg.szwego.com/img/f671a590/20260425/a1777132049230_2366.jpg"],"created_at":"2026-05-20T03:16:23.796Z"}],"page":80,"pageSize":24,"total":10075,"totalPages":420}
