{"items":[{"id":"item-6561d865daf8","sku":"_d8G8GKPR4SVHWRbIIwKyyYCxiUcc7zqWygRq8yA","name_en":"🎀品牌:Celine  A16","name_cn":"🎀品牌:Celine  A16\n🎀颜色:黑色 棕色\n🎀尺寸: 10.5*9*1\n🎀说明:  Celine  专柜同步,TRIOMPHE CUIR紧凑型拉链钱夹 光滑小牛皮小牛皮衬里拉链封口六个信用卡槽两个现金隔层。","specs":{"source":"wsxcme","sourceId":"_d8G8GKPR4SVHWRbIIwKyyYCxiUcc7zqWygRq8yA","sourceTagId":47002663,"sourceTagName":"长短款钱包","rawTitle":"🎀品牌:Celine  A16\n🎀颜色:黑色 棕色\n🎀尺寸: 10.5*9*1\n🎀说明:  Celine  专柜同步,TRIOMPHE CUIR紧凑型拉链钱夹 光滑小牛皮小牛皮衬里拉链封口六个信用卡槽两个现金隔层。"},"price":null,"currency":"CNY","moq":1,"category":"women-wallets","status":"active","alibaba_url":null,"images":["https://xcimg.szwego.com/img/fb1c42df/20240105/i1704427497_9519_3.jpg","https://xcimg.szwego.com/img/fb1c42df/20240105/i1704427497_2213_5.jpg","https://xcimg.szwego.com/img/fb1c42df/20240105/i1704427497_792_4.jpg","https://xcimg.szwego.com/img/fb1c42df/20240105/i1704427497_4651_8.jpg","https://xcimg.szwego.com/img/fb1c42df/20240105/i1704427497_5143_6.jpg","https://xcimg.szwego.com/img/fb1c42df/20240105/i1704427497_7481_0.jpg","https://xcimg.szwego.com/img/fb1c42df/20240105/i1704427497_1554_2.jpg","https://xcimg.szwego.com/img/fb1c42df/20240105/i1704427497_6774_7.jpg","https://xcimg.szwego.com/img/fb1c42df/20240105/i1704427497_474_1.jpg"],"created_at":"2025-01-20T13:02:58.452Z"},{"id":"item-e53de21693b2","sku":"_dpZpZJEXizDXJTrb-jPm0HlX8mLONaeBTzC6xPQ","name_en":"✨Chanel✨新款出货🔥款号2011,里外采用小羊皮绣菱形格单拉钱包💃黑配白,设有多个插卡位💫手感超棒..💖💖经典永恒,尺寸19.5*10.5.💃","name_cn":"✨Chanel✨新款出货🔥款号2011,里外采用小羊皮绣菱形格单拉钱包💃黑配白,设有多个插卡位💫手感超棒..💖💖经典永恒,尺寸19.5*10.5.💃","specs":{"source":"wsxcme","sourceId":"_dpZpZJEXizDXJTrb-jPm0HlX8mLONaeBTzC6xPQ","sourceTagId":47002663,"sourceTagName":"长短款钱包","modelNumber":"2011","rawTitle":"✨Chanel✨新款出货🔥款号2011,里外采用小羊皮绣菱形格单拉钱包💃黑配白,设有多个插卡位💫手感超棒..💖💖经典永恒,尺寸19.5*10.5.💃"},"price":null,"currency":"CNY","moq":1,"category":"women-wallets","status":"active","alibaba_url":null,"images":["https://xcimg.szwego.com/img/edc8246d/20241004/i1728016508_1990_0.jpg","https://xcimg.szwego.com/img/edc8246d/20241004/i1728016508_6419_4.jpg","https://xcimg.szwego.com/img/edc8246d/20241004/i1728016508_9770_7.jpg","https://xcimg.szwego.com/img/edc8246d/20241004/i1728016508_8767_5.jpg","https://xcimg.szwego.com/img/edc8246d/20241004/i1728016508_5117_2.jpg","https://xcimg.szwego.com/img/edc8246d/20241004/i1728016508_762_3.jpg","https://xcimg.szwego.com/img/edc8246d/20241004/i1728016508_6397_6.jpg","https://xcimg.szwego.com/img/edc8246d/20241004/i1728016508_473_8.jpg","https://xcimg.szwego.com/img/edc8246d/20241004/i1728016508_7403_1.jpg"],"created_at":"2025-01-20T13:02:58.451Z"},{"id":"item-aa6e85fbe58f","sku":"_dkSkSQfx50FKMEwRK7ahUqF8hT8iPjLS0UHGAlQ","name_en":"✨Chanel✨新款出货🔥款号2011,里外采用小羊皮绣菱形格单拉钱包💃黑配黑设有多个插卡位💫手感超棒..💖💖经典永恒,尺寸19.5*10.5.💃","name_cn":"✨Chanel✨新款出货🔥款号2011,里外采用小羊皮绣菱形格单拉钱包💃黑配黑设有多个插卡位💫手感超棒..💖💖经典永恒,尺寸19.5*10.5.💃","specs":{"source":"wsxcme","sourceId":"_dkSkSQfx50FKMEwRK7ahUqF8hT8iPjLS0UHGAlQ","sourceTagId":47002663,"sourceTagName":"长短款钱包","modelNumber":"2011","rawTitle":"✨Chanel✨新款出货🔥款号2011,里外采用小羊皮绣菱形格单拉钱包💃黑配黑设有多个插卡位💫手感超棒..💖💖经典永恒,尺寸19.5*10.5.💃"},"price":null,"currency":"CNY","moq":1,"category":"women-wallets","status":"active","alibaba_url":null,"images":["https://xcimg.szwego.com/img/edc8246d/20241004/i1728017417_2440_4.jpg","https://xcimg.szwego.com/img/edc8246d/20241004/i1728017417_3941_2.jpg","https://xcimg.szwego.com/img/edc8246d/20241004/i1728017417_6329_8.jpg","https://xcimg.szwego.com/img/edc8246d/20241004/i1728017417_2656_6.jpg","https://xcimg.szwego.com/img/edc8246d/20241004/i1728017417_4631_1.jpg","https://xcimg.szwego.com/img/edc8246d/20241004/i1728017417_7327_5.jpg","https://xcimg.szwego.com/img/edc8246d/20241004/i1728017417_2104_0.jpg","https://xcimg.szwego.com/img/edc8246d/20241004/i1728017417_9966_3.jpg","https://xcimg.szwego.com/img/edc8246d/20241004/i1728017417_9788_7.jpg"],"created_at":"2025-01-20T13:02:58.450Z"},{"id":"item-6b3869a6923f","sku":"_dARARtmVgWeu4whQIusHOx2ZJcC6oNjWFQb9dnQ","name_en":"✨Chanel✨新款出货🔥款号2011,里外采用小羊皮绣菱形格单拉钱包💃黑配蛇皮,设有多个插卡位💫手感超棒..💖💖经典永恒,尺寸19.5*10.5.💃","name_cn":"✨Chanel✨新款出货🔥款号2011,里外采用小羊皮绣菱形格单拉钱包💃黑配蛇皮,设有多个插卡位💫手感超棒..💖💖经典永恒,尺寸19.5*10.5.💃","specs":{"source":"wsxcme","sourceId":"_dARARtmVgWeu4whQIusHOx2ZJcC6oNjWFQb9dnQ","sourceTagId":47002663,"sourceTagName":"长短款钱包","modelNumber":"2011","rawTitle":"✨Chanel✨新款出货🔥款号2011,里外采用小羊皮绣菱形格单拉钱包💃黑配蛇皮,设有多个插卡位💫手感超棒..💖💖经典永恒,尺寸19.5*10.5.💃"},"price":null,"currency":"CNY","moq":1,"category":"women-wallets","status":"active","alibaba_url":null,"images":["https://xcimg.szwego.com/img/edc8246d/20241004/i1728017460_5077_4.jpg","https://xcimg.szwego.com/img/edc8246d/20241004/i1728017460_6161_8.jpg","https://xcimg.szwego.com/img/edc8246d/20241004/i1728017460_9762_7.jpg","https://xcimg.szwego.com/img/edc8246d/20241004/i1728017460_1804_2.jpg","https://xcimg.szwego.com/img/edc8246d/20241004/i1728017460_7997_3.jpg","https://xcimg.szwego.com/img/edc8246d/20241004/i1728017460_797_0.jpg","https://xcimg.szwego.com/img/edc8246d/20241004/i1728017460_232_1.jpg","https://xcimg.szwego.com/img/edc8246d/20241004/i1728017460_3049_6.jpg","https://xcimg.szwego.com/img/edc8246d/20241004/i1728017460_1549_5.jpg"],"created_at":"2025-01-20T13:02:58.449Z"},{"id":"item-51ad2f497f97","sku":"_dq2q2_8atstfryxLg8UIANra3KRgHCRZBuH37jA","name_en":"✨Chanel✨新款出货🔥款号2012,里外采用小羊皮绣菱形格单拉钱包💃黑配蛇皮,设有多个插卡位💫手感超棒..💖💖经典永恒,尺寸19.5*10.5.💃","name_cn":"✨Chanel✨新款出货🔥款号2012,里外采用小羊皮绣菱形格单拉钱包💃黑配蛇皮,设有多个插卡位💫手感超棒..💖💖经典永恒,尺寸19.5*10.5.💃","specs":{"source":"wsxcme","sourceId":"_dq2q2_8atstfryxLg8UIANra3KRgHCRZBuH37jA","sourceTagId":47002663,"sourceTagName":"长短款钱包","modelNumber":"2012","rawTitle":"✨Chanel✨新款出货🔥款号2012,里外采用小羊皮绣菱形格单拉钱包💃黑配蛇皮,设有多个插卡位💫手感超棒..💖💖经典永恒,尺寸19.5*10.5.💃"},"price":null,"currency":"CNY","moq":1,"category":"women-wallets","status":"active","alibaba_url":null,"images":["https://xcimg.szwego.com/img/edc8246d/20241004/i1728017550_8373_5.jpg","https://xcimg.szwego.com/img/edc8246d/20241004/i1728017550_8373_4.jpg","https://xcimg.szwego.com/img/edc8246d/20241004/i1728017549_4158_0.jpg","https://xcimg.szwego.com/img/edc8246d/20241004/i1728017550_1955_3.jpg","https://xcimg.szwego.com/img/edc8246d/20241004/i1728017550_2513_7.jpg","https://xcimg.szwego.com/img/edc8246d/20241004/i1728017550_972_2.jpg","https://xcimg.szwego.com/img/edc8246d/20241004/i1728017550_4788_8.jpg","https://xcimg.szwego.com/img/edc8246d/20241004/i1728017549_2779_1.jpg","https://xcimg.szwego.com/img/edc8246d/20241004/i1728017550_5211_6.jpg"],"created_at":"2025-01-20T13:02:58.448Z"},{"id":"item-61d566526797","sku":"_dmbmbfhNuvN8MTSzsjZ63r1gR7DEvFzbwkjtBWA","name_en":"✨Chanel✨新款出货🔥款号2012,里外采用小羊皮绣菱形格单拉钱包💃黑配白设有多个插卡位💫手感超棒..💖💖经典永恒,尺寸19.5*10.5.💃","name_cn":"✨Chanel✨新款出货🔥款号2012,里外采用小羊皮绣菱形格单拉钱包💃黑配白设有多个插卡位💫手感超棒..💖💖经典永恒,尺寸19.5*10.5.💃","specs":{"source":"wsxcme","sourceId":"_dmbmbfhNuvN8MTSzsjZ63r1gR7DEvFzbwkjtBWA","sourceTagId":47002663,"sourceTagName":"长短款钱包","modelNumber":"2012","rawTitle":"✨Chanel✨新款出货🔥款号2012,里外采用小羊皮绣菱形格单拉钱包💃黑配白设有多个插卡位💫手感超棒..💖💖经典永恒,尺寸19.5*10.5.💃"},"price":null,"currency":"CNY","moq":1,"category":"women-wallets","status":"active","alibaba_url":null,"images":["https://xcimg.szwego.com/img/edc8246d/20241004/i1728017628_5133_3.jpg","https://xcimg.szwego.com/img/edc8246d/20241004/i1728017628_5719_6.jpg","https://xcimg.szwego.com/img/edc8246d/20241004/i1728017628_9031_5.jpg","https://xcimg.szwego.com/img/edc8246d/20241004/i1728017628_172_1.jpg","https://xcimg.szwego.com/img/edc8246d/20241004/i1728017628_5845_7.jpg","https://xcimg.szwego.com/img/edc8246d/20241004/i1728017628_7344_2.jpg","https://xcimg.szwego.com/img/edc8246d/20241004/i1728017628_598_4.jpg","https://xcimg.szwego.com/img/edc8246d/20241004/i1728017628_7686_8.jpg","https://xcimg.szwego.com/img/edc8246d/20241004/i1728017628_8898_0.jpg"],"created_at":"2025-01-20T13:02:58.447Z"},{"id":"item-2a45bf875175","sku":"_duRuRkdYgn8bGqlNWI9xWWamVZpNc5sy6SQ9UNA","name_en":"✨Chanel✨新款出货🔥款号2012,里外采用小羊皮绣菱形格单拉钱包💃黑配黑设有多个插卡位💫手感超棒..💖💖经典永恒,尺寸19.5*10.5.💃","name_cn":"✨Chanel✨新款出货🔥款号2012,里外采用小羊皮绣菱形格单拉钱包💃黑配黑设有多个插卡位💫手感超棒..💖💖经典永恒,尺寸19.5*10.5.💃","specs":{"source":"wsxcme","sourceId":"_duRuRkdYgn8bGqlNWI9xWWamVZpNc5sy6SQ9UNA","sourceTagId":47002663,"sourceTagName":"长短款钱包","modelNumber":"2012","rawTitle":"✨Chanel✨新款出货🔥款号2012,里外采用小羊皮绣菱形格单拉钱包💃黑配黑设有多个插卡位💫手感超棒..💖💖经典永恒,尺寸19.5*10.5.💃"},"price":null,"currency":"CNY","moq":1,"category":"women-wallets","status":"active","alibaba_url":null,"images":["https://xcimg.szwego.com/img/edc8246d/20241004/i1728017721_4782_2.jpg","https://xcimg.szwego.com/img/edc8246d/20241004/i1728017721_1598_0.jpg","https://xcimg.szwego.com/img/edc8246d/20241004/i1728017721_6237_3.jpg","https://xcimg.szwego.com/img/edc8246d/20241004/i1728017721_4392_1.jpg","https://xcimg.szwego.com/img/edc8246d/20241004/i1728017721_5474_5.jpg","https://xcimg.szwego.com/img/edc8246d/20241004/i1728017721_9187_4.jpg","https://xcimg.szwego.com/img/edc8246d/20241004/i1728017721_2887_6.jpg","https://xcimg.szwego.com/img/edc8246d/20241004/i1728017721_2915_7.jpg"],"created_at":"2025-01-20T13:02:58.446Z"},{"id":"item-3278852dfbce","sku":"_dwuwuc0Fhjv2Cdl_6z8PjVilurHVaysmvNe_cPQ","name_en":"❤️B家London 格纹拉链钱包➰ 装饰标志性格纹设计【👉烟熏格子搭配进口粒面小牛皮,正面怖有 B立体字母徽栐 尺寸19cm*10cm *2.5cm","name_cn":"❤️B家London 格纹拉链钱包➰ 装饰标志性格纹设计【👉烟熏格子搭配进口粒面小牛皮,正面怖有 B立体字母徽栐 尺寸19cm*10cm *2.5cm","specs":{"source":"wsxcme","sourceId":"_dwuwuc0Fhjv2Cdl_6z8PjVilurHVaysmvNe_cPQ","sourceTagId":47002663,"sourceTagName":"长短款钱包","rawTitle":"❤️B家London 格纹拉链钱包➰ 装饰标志性格纹设计【👉烟熏格子搭配进口粒面小牛皮,正面怖有 B立体字母徽栐 尺寸19cm*10cm *2.5cm"},"price":null,"currency":"CNY","moq":1,"category":"women-wallets","status":"active","alibaba_url":null,"images":["https://xcimg.szwego.com/20230809/i1691569204_8253_0.jpg","https://xcimg.szwego.com/20230809/i1691569204_4386_1.jpg","https://xcimg.szwego.com/20230809/i1691569204_5292_2.jpg","https://xcimg.szwego.com/20230809/i1691569204_3008_3.jpg","https://xcimg.szwego.com/20230809/i1691569204_2668_4.jpg","https://xcimg.szwego.com/20230809/i1691569204_6110_5.jpg","https://xcimg.szwego.com/20230809/i1691569204_8161_6.jpg","https://xcimg.szwego.com/20230809/i1691569204_7450_7.jpg","https://xcimg.szwego.com/20230809/i1691569204_3520_8.jpg"],"created_at":"2025-01-20T13:02:58.445Z"},{"id":"item-51ea82917b2c","sku":"_dvzvzhBQp0JeXRgyoDOPulnKMCfGk341jAaRFCQ","name_en":"❤️B家London 格纹短夹钱包➰ 装饰标志性格纹设计🎉👉烟熏格子搭配进口粒面小牛皮,正面怖有 B立体字母徽栐 ,尺寸11cm*10cm","name_cn":"❤️B家London 格纹短夹钱包➰ 装饰标志性格纹设计🎉👉烟熏格子搭配进口粒面小牛皮,正面怖有 B立体字母徽栐 ,尺寸11cm*10cm","specs":{"source":"wsxcme","sourceId":"_dvzvzhBQp0JeXRgyoDOPulnKMCfGk341jAaRFCQ","sourceTagId":47002663,"sourceTagName":"长短款钱包","rawTitle":"❤️B家London 格纹短夹钱包➰ 装饰标志性格纹设计🎉👉烟熏格子搭配进口粒面小牛皮,正面怖有 B立体字母徽栐 ,尺寸11cm*10cm"},"price":null,"currency":"CNY","moq":1,"category":"women-wallets","status":"active","alibaba_url":null,"images":["https://xcimg.szwego.com/20230716/i1689479590_5202_0.jpg","https://xcimg.szwego.com/20230716/i1689479590_1669_1.jpg","https://xcimg.szwego.com/20230716/i1689479590_8581_7.jpg","https://xcimg.szwego.com/20230716/i1689479590_1812_2.jpg","https://xcimg.szwego.com/20230716/i1689479590_3962_3.jpg","https://xcimg.szwego.com/20230716/i1689479590_3607_4.jpg","https://xcimg.szwego.com/20230716/i1689479590_1412_5.jpg","https://xcimg.szwego.com/20230716/i1689479590_3712_6.jpg","https://xcimg.szwego.com/20230716/i1689479590_702_8.jpg"],"created_at":"2025-01-20T13:02:58.444Z"},{"id":"item-41be620b36dd","sku":"_d0g0gO4uON-nnr8M6EemRsXHRQEsu2lKybi2VTA","name_en":"❤️B家London 格纹短夹钱包➰ 装饰标志性格纹设计🎉👉烟熏格子搭配进口粒面小牛皮,正面怖有 B立体字母徽栐 ,尺寸11cm*10cm","name_cn":"❤️B家London 格纹短夹钱包➰ 装饰标志性格纹设计🎉👉烟熏格子搭配进口粒面小牛皮,正面怖有 B立体字母徽栐 ,尺寸11cm*10cm","specs":{"source":"wsxcme","sourceId":"_d0g0gO4uON-nnr8M6EemRsXHRQEsu2lKybi2VTA","sourceTagId":47002663,"sourceTagName":"长短款钱包","rawTitle":"❤️B家London 格纹短夹钱包➰ 装饰标志性格纹设计🎉👉烟熏格子搭配进口粒面小牛皮,正面怖有 B立体字母徽栐 ,尺寸11cm*10cm"},"price":null,"currency":"CNY","moq":1,"category":"women-wallets","status":"active","alibaba_url":null,"images":["https://xcimg.szwego.com/20230603/i1685774689_8045_0.jpg","https://xcimg.szwego.com/20230603/i1685774689_2099_1.jpg","https://xcimg.szwego.com/20230603/i1685774689_3425_2.jpg","https://xcimg.szwego.com/20230603/i1685774689_5184_3.jpg","https://xcimg.szwego.com/20230603/i1685774689_1061_4.jpg","https://xcimg.szwego.com/20230603/i1685774689_4529_5.jpg","https://xcimg.szwego.com/20230603/i1685774689_6086_6.jpg","https://xcimg.szwego.com/20230603/i1685774689_6095_7.jpg","https://xcimg.szwego.com/20230603/i1685774689_4244_8.jpg"],"created_at":"2025-01-20T13:02:58.443Z"},{"id":"item-3e64d93beb03","sku":"_dGkGkyAHFKSvq6IkfnzqqEGD9ppOucQe8uVuZ_Q","name_en":"❤️B家House格纹拼皮革长款钱包采用进口手掌纹牛皮,内格细腻[玫瑰]柔软的进口小牛皮,尺寸19x10cm3cm","name_cn":"❤️B家House格纹拼皮革长款钱包采用进口手掌纹牛皮,内格细腻[玫瑰]柔软的进口小牛皮,尺寸19x10cm3cm","specs":{"source":"wsxcme","sourceId":"_dGkGkyAHFKSvq6IkfnzqqEGD9ppOucQe8uVuZ_Q","sourceTagId":47002663,"sourceTagName":"长短款钱包","rawTitle":"❤️B家House格纹拼皮革长款钱包采用进口手掌纹牛皮,内格细腻[玫瑰]柔软的进口小牛皮,尺寸19x10cm3cm"},"price":null,"currency":"CNY","moq":1,"category":"women-wallets","status":"active","alibaba_url":null,"images":["https://xcimg.szwego.com/20220509/i1652071412_717_0.jpg","https://xcimg.szwego.com/20220509/i1652071412_5231_1.jpg","https://xcimg.szwego.com/20220509/i1652071412_9228_2.jpg","https://xcimg.szwego.com/20220509/i1652071412_8598_3.jpg","https://xcimg.szwego.com/20220509/i1652071412_4032_4.jpg","https://xcimg.szwego.com/20220509/i1652071412_8480_5.jpg","https://xcimg.szwego.com/20220509/i1652071412_5196_6.jpg","https://xcimg.szwego.com/20220509/i1652071412_6441_7.jpg","https://xcimg.szwego.com/20220509/i1652071412_9255_8.jpg"],"created_at":"2025-01-20T13:02:58.442Z"},{"id":"item-75eed2c8945f","sku":"_dugugq1YlZ24vClCzfqNS-b8I-Akntr5fWvwgIw","name_en":"❤️B家House格纹拼皮革长款钱包采用进口手掌纹牛皮,内格细腻[玫瑰]柔软的进口小牛皮,尺寸19x10cm3cm","name_cn":"❤️B家House格纹拼皮革长款钱包采用进口手掌纹牛皮,内格细腻[玫瑰]柔软的进口小牛皮,尺寸19x10cm3cm","specs":{"source":"wsxcme","sourceId":"_dugugq1YlZ24vClCzfqNS-b8I-Akntr5fWvwgIw","sourceTagId":47002663,"sourceTagName":"长短款钱包","rawTitle":"❤️B家House格纹拼皮革长款钱包采用进口手掌纹牛皮,内格细腻[玫瑰]柔软的进口小牛皮,尺寸19x10cm3cm"},"price":null,"currency":"CNY","moq":1,"category":"women-wallets","status":"active","alibaba_url":null,"images":["https://xcimg.szwego.com/20220509/i1652071523_5517_0.jpg","https://xcimg.szwego.com/20220509/i1652071523_7672_1.jpg","https://xcimg.szwego.com/20220509/i1652071523_7942_2.jpg","https://xcimg.szwego.com/20220509/i1652071523_1329_3.jpg","https://xcimg.szwego.com/20220509/i1652071523_8931_4.jpg","https://xcimg.szwego.com/20220509/i1652071523_750_5.jpg","https://xcimg.szwego.com/20220509/i1652071523_2442_6.jpg","https://xcimg.szwego.com/20220509/i1652071523_8682_7.jpg","https://xcimg.szwego.com/20220509/i1652071523_8696_8.jpg"],"created_at":"2025-01-20T13:02:58.441Z"},{"id":"item-5a090711eb0e","sku":"_doLoLXwGcPVQpWltuj9QPbG-OKSqCAbgayw0CUw","name_en":"❤️B家House格纹拼皮革长款钱包采用进口手掌纹牛皮,内格细腻[玫瑰]柔软的进口小牛皮,尺寸19x10cm3cm","name_cn":"❤️B家House格纹拼皮革长款钱包采用进口手掌纹牛皮,内格细腻[玫瑰]柔软的进口小牛皮,尺寸19x10cm3cm","specs":{"source":"wsxcme","sourceId":"_doLoLXwGcPVQpWltuj9QPbG-OKSqCAbgayw0CUw","sourceTagId":47002663,"sourceTagName":"长短款钱包","rawTitle":"❤️B家House格纹拼皮革长款钱包采用进口手掌纹牛皮,内格细腻[玫瑰]柔软的进口小牛皮,尺寸19x10cm3cm"},"price":null,"currency":"CNY","moq":1,"category":"women-wallets","status":"active","alibaba_url":null,"images":["https://xcimg.szwego.com/20220509/i1652071743_6470_0.jpg","https://xcimg.szwego.com/20220509/i1652071743_8603_1.jpg","https://xcimg.szwego.com/20220509/i1652071743_6500_2.jpg","https://xcimg.szwego.com/20220509/i1652071743_1546_3.jpg","https://xcimg.szwego.com/20220509/i1652071743_4446_4.jpg","https://xcimg.szwego.com/20220509/i1652071743_989_5.jpg","https://xcimg.szwego.com/20220509/i1652071743_6604_6.jpg","https://xcimg.szwego.com/20220509/i1652071743_3016_7.jpg","https://xcimg.szwego.com/20220509/i1652071743_4860_8.jpg"],"created_at":"2025-01-20T13:02:58.440Z"},{"id":"item-44a4868346e3","sku":"_djojo0Eb6ctNXxDyEEYJf-MsAx1qlwv9M6UTrlQ","name_en":"❤️B家纯原进口粒面小牛皮压花男士钱包 尺寸19cm*10cm*2.5cm","name_cn":"❤️B家纯原进口粒面小牛皮压花男士钱包 尺寸19cm*10cm*2.5cm","specs":{"source":"wsxcme","sourceId":"_djojo0Eb6ctNXxDyEEYJf-MsAx1qlwv9M6UTrlQ","sourceTagId":47002663,"sourceTagName":"长短款钱包","rawTitle":"❤️B家纯原进口粒面小牛皮压花男士钱包 尺寸19cm*10cm*2.5cm"},"price":null,"currency":"CNY","moq":1,"category":"women-wallets","status":"active","alibaba_url":null,"images":["https://xcimg.szwego.com/20211026/i1635218780_6007_0.jpg","https://xcimg.szwego.com/20211026/i1635218780_7496_1.jpg","https://xcimg.szwego.com/20211026/i1635218780_2872_2.jpg","https://xcimg.szwego.com/20211026/i1635218780_6460_3.jpg","https://xcimg.szwego.com/20211026/i1635218780_9740_4.jpg","https://xcimg.szwego.com/20211026/i1635218780_737_5.jpg","https://xcimg.szwego.com/20211026/i1635218780_363_6.jpg","https://xcimg.szwego.com/20211026/i1635218780_9720_7.jpg","https://xcimg.szwego.com/20211026/i1635218780_8751_8.jpg"],"created_at":"2025-01-20T13:02:58.439Z"},{"id":"item-d9136815d54e","sku":"_dmTmT6jyyxMSIO5z4kQEPC2h63nmtAqDXLr7rdw","name_en":"🆕 M60067 渲染花!变码芯片、ZIPPY 拉链零钱包 都市人提供了最理想的选择。传统硬箱的色彩灵感,为标志性 Monogram 涂层帆布渲染优雅法式色调,搭配光滑牛皮革饰边、包身精巧紧凑,可以用来装零钱、信用卡和折叠起来的纸币。即使身上的口袋小,也可轻松地将它放入。11*8*2c","name_cn":"🆕 M60067 渲染花!变码芯片、ZIPPY 拉链零钱包 都市人提供了最理想的选择。传统硬箱的色彩灵感,为标志性 Monogram 涂层帆布渲染优雅法式色调,搭配光滑牛皮革饰边、包身精巧紧凑,可以用来装零钱、信用卡和折叠起来的纸币。即使身上的口袋小,也可轻松地将它放入。11*8*2c","specs":{"source":"wsxcme","sourceId":"_dmTmT6jyyxMSIO5z4kQEPC2h63nmtAqDXLr7rdw","sourceTagId":47002663,"sourceTagName":"长短款钱包","rawTitle":"🆕 M60067 渲染花!变码芯片、ZIPPY 拉链零钱包 都市人提供了最理想的选择。传统硬箱的色彩灵感,为标志性 Monogram 涂层帆布渲染优雅法式色调,搭配光滑牛皮革饰边、包身精巧紧凑,可以用来装零钱、信用卡和折叠起来的纸币。即使身上的口袋小,也可轻松地将它放入。11*8*2c"},"price":null,"currency":"CNY","moq":1,"category":"women-wallets","status":"active","alibaba_url":null,"images":["https://xcimg.szwego.com/img/2cec6969/20240822/i1724269952_6849_6.jpg","https://xcimg.szwego.com/img/2cec6969/20240822/i1724269952_4127_0.jpg","https://xcimg.szwego.com/img/2cec6969/20240822/i1724269952_5034_7.jpg","https://xcimg.szwego.com/img/2cec6969/20240822/i1724269952_8909_3.jpg","https://xcimg.szwego.com/img/2cec6969/20240822/i1724269952_3939_2.jpg","https://xcimg.szwego.com/img/2cec6969/20240822/i1724269952_1867_8.jpg","https://xcimg.szwego.com/img/2cec6969/20240822/i1724269952_4916_1.jpg","https://xcimg.szwego.com/img/2cec6969/20240822/i1724269952_8939_4.jpg","https://xcimg.szwego.com/img/2cec6969/20240822/i1724269952_3257_5.jpg"],"created_at":"2025-01-20T13:02:58.438Z"},{"id":"item-22202674c6e2","sku":"_d_E_EsTCkQolE92LmVUShKZjXMKUYeByU392Fnw","name_en":"🆕 M41939 渲染花!变码芯片、小巧玲珑却极为实用!传统硬箱的色彩灵感,为标志性 Monogram 涂层帆布渲染优雅法式色调,搭配光滑牛皮革饰边此款多彩信封式零钱包是现代女性都市生活中的完美伴侣。身材小巧,轻松收入包袋甚至衣袋之中。尺寸:11X8cm","name_cn":"🆕 M41939 渲染花!变码芯片、小巧玲珑却极为实用!传统硬箱的色彩灵感,为标志性 Monogram 涂层帆布渲染优雅法式色调,搭配光滑牛皮革饰边此款多彩信封式零钱包是现代女性都市生活中的完美伴侣。身材小巧,轻松收入包袋甚至衣袋之中。尺寸:11X8cm","specs":{"source":"wsxcme","sourceId":"_d_E_EsTCkQolE92LmVUShKZjXMKUYeByU392Fnw","sourceTagId":47002663,"sourceTagName":"长短款钱包","rawTitle":"🆕 M41939 渲染花!变码芯片、小巧玲珑却极为实用!传统硬箱的色彩灵感,为标志性 Monogram 涂层帆布渲染优雅法式色调,搭配光滑牛皮革饰边此款多彩信封式零钱包是现代女性都市生活中的完美伴侣。身材小巧,轻松收入包袋甚至衣袋之中。尺寸:11X8cm"},"price":null,"currency":"CNY","moq":1,"category":"women-wallets","status":"active","alibaba_url":null,"images":["https://xcimg.szwego.com/img/2cec6969/20240822/i1724269701_7575_8.jpg","https://xcimg.szwego.com/img/2cec6969/20240822/i1724269700_2011_0.jpg","https://xcimg.szwego.com/img/2cec6969/20240822/i1724269701_5274_9.jpg","https://xcimg.szwego.com/img/2cec6969/20240822/i1724269701_9226_7.jpg","https://xcimg.szwego.com/img/2cec6969/20240822/i1724269701_8244_3.jpg","https://xcimg.szwego.com/img/2cec6969/20240822/i1724269701_2110_1.jpg","https://xcimg.szwego.com/img/2cec6969/20240822/i1724269701_2033_2.jpg","https://xcimg.szwego.com/img/2cec6969/20240822/i1724269701_2907_4.jpg","https://xcimg.szwego.com/img/2cec6969/20240822/i1724269701_3767_5.jpg","https://xcimg.szwego.com/img/2cec6969/20240822/i1724269701_429_6.jpg"],"created_at":"2025-01-20T13:02:58.437Z"},{"id":"item-6b273564e257","sku":"_d-N-N-CLHhqec50DRJpmISI2_LbxREiGJizV6zg","name_en":"🆕芯片版M60143奶白 选用奢华的Mahina皮革打造,这款Iris钱包是精致迷人的配饰,极柔软的小牛皮加入打孔通花Monogram图案,配置低调的按扣开合 尺寸宽12×19×2","name_cn":"🆕芯片版M60143奶白 选用奢华的Mahina皮革打造,这款Iris钱包是精致迷人的配饰,极柔软的小牛皮加入打孔通花Monogram图案,配置低调的按扣开合 尺寸宽12×19×2","specs":{"source":"wsxcme","sourceId":"_d-N-N-CLHhqec50DRJpmISI2_LbxREiGJizV6zg","sourceTagId":47002663,"sourceTagName":"长短款钱包","rawTitle":"🆕芯片版M60143奶白 选用奢华的Mahina皮革打造,这款Iris钱包是精致迷人的配饰,极柔软的小牛皮加入打孔通花Monogram图案,配置低调的按扣开合 尺寸宽12×19×2"},"price":null,"currency":"CNY","moq":1,"category":"women-wallets","status":"active","alibaba_url":null,"images":["https://xcimg.szwego.com/20240606/i1717680322_2019_0.jpg","https://xcimg.szwego.com/20240606/i1717680322_8380_1.jpg","https://xcimg.szwego.com/20240606/i1717680322_9762_2.jpg","https://xcimg.szwego.com/20240606/i1717680322_5472_3.jpg","https://xcimg.szwego.com/20240606/i1717680322_2190_4.jpg","https://xcimg.szwego.com/20240606/i1717680322_4376_5.jpg","https://xcimg.szwego.com/20240606/i1717680322_5931_6.jpg","https://xcimg.szwego.com/20240606/i1717680322_2529_7.jpg","https://xcimg.szwego.com/20240606/i1717680322_1663_8.jpg"],"created_at":"2025-01-20T13:02:58.436Z"},{"id":"item-c41e697e3e95","sku":"_dFgFgxdSeERXGFghGnytKa-3A4s-FpNzQrUxktg","name_en":"🆕 芯片版M60143粉色 选用奢华的Mahina皮革打造,这款Iris钱包是精致迷人的配饰,极柔软的小牛皮加入打孔通花Monogram图案,配置低调的按扣开合 尺寸宽12×19×2","name_cn":"🆕 芯片版M60143粉色 选用奢华的Mahina皮革打造,这款Iris钱包是精致迷人的配饰,极柔软的小牛皮加入打孔通花Monogram图案,配置低调的按扣开合 尺寸宽12×19×2","specs":{"source":"wsxcme","sourceId":"_dFgFgxdSeERXGFghGnytKa-3A4s-FpNzQrUxktg","sourceTagId":47002663,"sourceTagName":"长短款钱包","rawTitle":"🆕 芯片版M60143粉色 选用奢华的Mahina皮革打造,这款Iris钱包是精致迷人的配饰,极柔软的小牛皮加入打孔通花Monogram图案,配置低调的按扣开合 尺寸宽12×19×2"},"price":null,"currency":"CNY","moq":1,"category":"women-wallets","status":"active","alibaba_url":null,"images":["https://xcimg.szwego.com/20240606/i1717680239_284_0.jpg","https://xcimg.szwego.com/20240606/i1717680239_8112_1.jpg","https://xcimg.szwego.com/20240606/i1717680239_6096_2.jpg","https://xcimg.szwego.com/20240606/i1717680239_849_3.jpg","https://xcimg.szwego.com/20240606/i1717680239_273_4.jpg","https://xcimg.szwego.com/20240606/i1717680239_1898_5.jpg","https://xcimg.szwego.com/20240606/i1717680239_7086_6.jpg","https://xcimg.szwego.com/20240606/i1717680239_1730_7.jpg"],"created_at":"2025-01-20T13:02:58.435Z"},{"id":"item-c50c4c7f359b","sku":"_deyeyGr16dc9v1tNUQbPK299C7Ap9tQKDqpaFvg","name_en":"🆕 芯片版M60143卡其 选用奢华的Mahina皮革打造,这款Iris钱包是精致迷人的配饰,极柔软的小牛皮加入打孔通花Monogram图案,配置低调的按扣开合 尺寸宽12×19×2","name_cn":"🆕 芯片版M60143卡其 选用奢华的Mahina皮革打造,这款Iris钱包是精致迷人的配饰,极柔软的小牛皮加入打孔通花Monogram图案,配置低调的按扣开合 尺寸宽12×19×2","specs":{"source":"wsxcme","sourceId":"_deyeyGr16dc9v1tNUQbPK299C7Ap9tQKDqpaFvg","sourceTagId":47002663,"sourceTagName":"长短款钱包","rawTitle":"🆕 芯片版M60143卡其 选用奢华的Mahina皮革打造,这款Iris钱包是精致迷人的配饰,极柔软的小牛皮加入打孔通花Monogram图案,配置低调的按扣开合 尺寸宽12×19×2"},"price":null,"currency":"CNY","moq":1,"category":"women-wallets","status":"active","alibaba_url":null,"images":["https://xcimg.szwego.com/20240606/i1717680198_5582_0.jpg","https://xcimg.szwego.com/20240606/i1717680198_4993_1.jpg","https://xcimg.szwego.com/20240606/i1717680198_1169_2.jpg","https://xcimg.szwego.com/20240606/i1717680198_1968_3.jpg","https://xcimg.szwego.com/20240606/i1717680198_2803_4.jpg","https://xcimg.szwego.com/20240606/i1717680198_8647_5.jpg","https://xcimg.szwego.com/20240606/i1717680198_1196_6.jpg","https://xcimg.szwego.com/20240606/i1717680198_5613_7.jpg","https://xcimg.szwego.com/20240606/i1717680198_40_8.jpg"],"created_at":"2025-01-20T13:02:58.434Z"},{"id":"item-94d973880c55","sku":"_doEoERWTUFzdWp79hutELEaufVAUwQGSa3BRCQg","name_en":"🆕 芯片版💕顶级原单 M41937玫红 款采用头层牛皮制作!Rosalie 零钱包选用 Monogram 和 Monogram Reverse 帆布,以铭纹按扣开启圆润翻盖,设有内贴袋、拉链零钱袋、卡片夹层和后贴袋。","name_cn":"🆕 芯片版💕顶级原单 M41937玫红 款采用头层牛皮制作!Rosalie 零钱包选用 Monogram 和 Monogram Reverse 帆布,以铭纹按扣开启圆润翻盖,设有内贴袋、拉链零钱袋、卡片夹层和后贴袋。\n尺寸:11 x 8 x 2.5 cm。","specs":{"source":"wsxcme","sourceId":"_doEoERWTUFzdWp79hutELEaufVAUwQGSa3BRCQg","sourceTagId":47002663,"sourceTagName":"长短款钱包","dimensions":{"lengthCm":11,"heightCm":8,"widthCm":2.5},"rawTitle":"🆕 芯片版💕顶级原单 M41937玫红 款采用头层牛皮制作!Rosalie 零钱包选用 Monogram 和 Monogram Reverse 帆布,以铭纹按扣开启圆润翻盖,设有内贴袋、拉链零钱袋、卡片夹层和后贴袋。\n尺寸:11 x 8 x 2.5 cm。"},"price":null,"currency":"CNY","moq":1,"category":"women-wallets","status":"active","alibaba_url":null,"images":["https://xcimg.szwego.com/20240524/i1716553284_4518_0.jpg","https://xcimg.szwego.com/20240524/i1716553284_5563_1.jpg","https://xcimg.szwego.com/20240524/i1716553284_5535_2.jpg","https://xcimg.szwego.com/20240524/i1716553284_634_3.jpg","https://xcimg.szwego.com/20240524/i1716553284_6310_4.jpg","https://xcimg.szwego.com/20240524/i1716553284_9368_5.jpg","https://xcimg.szwego.com/20240524/i1716553284_5890_6.jpg","https://xcimg.szwego.com/20240524/i1716553284_3882_7.jpg"],"created_at":"2025-01-20T13:02:58.433Z"},{"id":"item-ec08706f8118","sku":"_dnFnF6OpQ_U6zB7hopDgLmP4gIQjzjkz2xxTesQ","name_en":"🆕 芯片版顶级原单 M41937粉色 款采用头层牛皮制作!Rosalie 零钱包选用 Monogram 和 Monogram Reverse 帆布,以铭纹按扣开启圆润翻盖,设有内贴袋、拉链零钱袋、卡片夹层和后贴袋。","name_cn":"🆕 芯片版顶级原单 M41937粉色 款采用头层牛皮制作!Rosalie 零钱包选用 Monogram 和 Monogram Reverse 帆布,以铭纹按扣开启圆润翻盖,设有内贴袋、拉链零钱袋、卡片夹层和后贴袋。\n尺寸:11 x 8 x 2.5 cm。","specs":{"source":"wsxcme","sourceId":"_dnFnF6OpQ_U6zB7hopDgLmP4gIQjzjkz2xxTesQ","sourceTagId":47002663,"sourceTagName":"长短款钱包","dimensions":{"lengthCm":11,"heightCm":8,"widthCm":2.5},"rawTitle":"🆕 芯片版顶级原单 M41937粉色 款采用头层牛皮制作!Rosalie 零钱包选用 Monogram 和 Monogram Reverse 帆布,以铭纹按扣开启圆润翻盖,设有内贴袋、拉链零钱袋、卡片夹层和后贴袋。\n尺寸:11 x 8 x 2.5 cm。"},"price":null,"currency":"CNY","moq":1,"category":"women-wallets","status":"active","alibaba_url":null,"images":["https://xcimg.szwego.com/20240524/i1716553232_7029_0.jpg","https://xcimg.szwego.com/20240524/i1716553232_5913_1.jpg","https://xcimg.szwego.com/20240524/i1716553232_7684_2.jpg","https://xcimg.szwego.com/20240524/i1716553232_1182_3.jpg","https://xcimg.szwego.com/20240524/i1716553232_4832_4.jpg","https://xcimg.szwego.com/20240524/i1716553232_8418_5.jpg","https://xcimg.szwego.com/20240524/i1716553232_4697_6.jpg","https://xcimg.szwego.com/20240524/i1716553232_3753_7.jpg"],"created_at":"2025-01-20T13:02:58.432Z"},{"id":"item-2becdf40e597","sku":"_dF7F7RZwin7FNF_Ul6PmoVE2nxVKbgRYz2Ravag","name_en":"🆕M60699米色!长款!三折多卡位!钱包采用柔软的 Monogram 头层牛皮制成 衬以颜色鲜艳的内衬 气质极为优雅 多袋式设计和引人注目的造型赋予其无法抗拒的迷人魅力","name_cn":"🆕M60699米色!长款!三折多卡位!钱包采用柔软的 Monogram 头层牛皮制成 衬以颜色鲜艳的内衬 气质极为优雅 多袋式设计和引人注目的造型赋予其无法抗拒的迷人魅力","specs":{"source":"wsxcme","sourceId":"_dF7F7RZwin7FNF_Ul6PmoVE2nxVKbgRYz2Ravag","sourceTagId":47002663,"sourceTagName":"长短款钱包","rawTitle":"🆕M60699米色!长款!三折多卡位!钱包采用柔软的 Monogram 头层牛皮制成 衬以颜色鲜艳的内衬 气质极为优雅 多袋式设计和引人注目的造型赋予其无法抗拒的迷人魅力"},"price":null,"currency":"CNY","moq":1,"category":"women-wallets","status":"active","alibaba_url":null,"images":["https://xcimg.szwego.com/20240525/i1716583548_6474_0.jpg","https://xcimg.szwego.com/20240525/i1716583548_2211_1.jpg","https://xcimg.szwego.com/20240525/i1716583548_5701_2.jpg","https://xcimg.szwego.com/20240525/i1716583548_4117_3.jpg","https://xcimg.szwego.com/20240525/i1716583548_8163_4.jpg","https://xcimg.szwego.com/20240525/i1716583548_4568_5.jpg","https://xcimg.szwego.com/20240525/i1716583548_7964_6.jpg","https://xcimg.szwego.com/20240525/i1716583548_8954_7.jpg","https://xcimg.szwego.com/20240525/i1716583548_3461_8.jpg"],"created_at":"2025-01-20T13:02:58.431Z"},{"id":"item-993c72370a37","sku":"_dvSvSXdYtHCbOBraGAe-OAWelywJVo4QJebKVjg","name_en":"🆕 60699黑色!长款!三折多卡位!钱包采用柔软的 Monogram 头层牛皮制成 衬以颜色鲜艳的内衬 气质极为优雅 多袋式设计和引人注目的造型赋予其无法抗拒的迷人魅力","name_cn":"🆕 60699黑色!长款!三折多卡位!钱包采用柔软的 Monogram 头层牛皮制成 衬以颜色鲜艳的内衬 气质极为优雅 多袋式设计和引人注目的造型赋予其无法抗拒的迷人魅力","specs":{"source":"wsxcme","sourceId":"_dvSvSXdYtHCbOBraGAe-OAWelywJVo4QJebKVjg","sourceTagId":47002663,"sourceTagName":"长短款钱包","rawTitle":"🆕 60699黑色!长款!三折多卡位!钱包采用柔软的 Monogram 头层牛皮制成 衬以颜色鲜艳的内衬 气质极为优雅 多袋式设计和引人注目的造型赋予其无法抗拒的迷人魅力"},"price":null,"currency":"CNY","moq":1,"category":"women-wallets","status":"active","alibaba_url":null,"images":["https://xcimg.szwego.com/20240525/i1716583528_8758_0.jpg","https://xcimg.szwego.com/20240525/i1716583528_6975_1.jpg","https://xcimg.szwego.com/20240525/i1716583528_9002_2.jpg","https://xcimg.szwego.com/20240525/i1716583528_495_3.jpg","https://xcimg.szwego.com/20240525/i1716583528_8505_4.jpg","https://xcimg.szwego.com/20240525/i1716583528_195_5.jpg","https://xcimg.szwego.com/20240525/i1716583528_4936_6.jpg","https://xcimg.szwego.com/20240525/i1716583528_1005_7.jpg","https://xcimg.szwego.com/20240525/i1716583528_7521_8.jpg"],"created_at":"2025-01-20T13:02:58.430Z"},{"id":"item-26ec8eb2f219","sku":"_d_L_L2tOwcID0ZC6bFhWotEiKeUOC4EYIierCmw","name_en":"🆕M60699灰色!长款!三折多卡位!钱包采用柔软的 Monogram 头层牛皮制成 衬以颜色鲜艳的内衬 气质极为优雅 多袋式设计和引人注目的造型赋予其无法抗拒的迷人魅力","name_cn":"🆕M60699灰色!长款!三折多卡位!钱包采用柔软的 Monogram 头层牛皮制成 衬以颜色鲜艳的内衬 气质极为优雅 多袋式设计和引人注目的造型赋予其无法抗拒的迷人魅力","specs":{"source":"wsxcme","sourceId":"_d_L_L2tOwcID0ZC6bFhWotEiKeUOC4EYIierCmw","sourceTagId":47002663,"sourceTagName":"长短款钱包","rawTitle":"🆕M60699灰色!长款!三折多卡位!钱包采用柔软的 Monogram 头层牛皮制成 衬以颜色鲜艳的内衬 气质极为优雅 多袋式设计和引人注目的造型赋予其无法抗拒的迷人魅力"},"price":null,"currency":"CNY","moq":1,"category":"women-wallets","status":"active","alibaba_url":null,"images":["https://xcimg.szwego.com/20240525/i1716583496_9858_0.jpg","https://xcimg.szwego.com/20240525/i1716583496_7067_1.jpg","https://xcimg.szwego.com/20240525/i1716583496_8959_2.jpg","https://xcimg.szwego.com/20240525/i1716583496_849_3.jpg","https://xcimg.szwego.com/20240525/i1716583496_5538_4.jpg","https://xcimg.szwego.com/20240525/i1716583496_4139_5.jpg","https://xcimg.szwego.com/20240525/i1716583496_9799_6.jpg","https://xcimg.szwego.com/20240525/i1716583496_841_7.jpg","https://xcimg.szwego.com/20240525/i1716583496_9922_8.jpg"],"created_at":"2025-01-20T13:02:58.429Z"}],"page":238,"pageSize":24,"total":10075,"totalPages":420}
