{"items":[{"id":"item-91883204270e","sku":"_daPaPaEJ3bOjp47lway4RlEMjf-kzQenXrNOjEQ","name_en":"Women Wallets","name_cn":"length","specs":{"source":"wsxcme","sourceId":"_daPaPaEJ3bOjp47lway4RlEMjf-kzQenXrNOjEQ","sourceTagId":47002663,"sourceTagName":"length","rawTitle":""},"price":null,"currency":"CNY","moq":1,"category":"women-wallets","status":"active","alibaba_url":null,"images":["https://xcimg.szwego.com/20191216/i1576461849_7073_0.jpg"],"created_at":"2025-09-19T03:25:02.964Z"},{"id":"item-7f274222fcc3","sku":"_dIWIWJzZ1u9tscVgE9Yt0lXXKPkLKitTS6uRJ6w","name_en":"Women Wallets","name_cn":"length","specs":{"source":"wsxcme","sourceId":"_dIWIWJzZ1u9tscVgE9Yt0lXXKPkLKitTS6uRJ6w","sourceTagId":47002663,"sourceTagName":"length","rawTitle":""},"price":null,"currency":"CNY","moq":1,"category":"women-wallets","status":"active","alibaba_url":null,"images":["https://xcimg.szwego.com/img/89eaffab/20250912/i1757660501705_3260_0_0.jpg"],"created_at":"2025-09-19T03:26:41.878Z"},{"id":"item-6afc28f84979","sku":"_dkmkmPAxS6JQybyW8cI7NQyIyhUrmMvJeKVW3Xg","name_en":"Women Wallets","name_cn":"length","specs":{"source":"wsxcme","sourceId":"_dkmkmPAxS6JQybyW8cI7NQyIyhUrmMvJeKVW3Xg","sourceTagId":47002663,"sourceTagName":"length","rawTitle":""},"price":null,"currency":"CNY","moq":1,"category":"women-wallets","status":"active","alibaba_url":null,"images":["https://xcimg.szwego.com/imgHD/80e46a01/20250728/cmp_i1753677074355_3627_0_0.jpg"],"created_at":"2025-07-31T08:00:51.488Z"},{"id":"item-41cd5526a3fa","sku":"_dLGLG4X4h3T-mkWchJL5qFWLzoBrfejCPqY73ag","name_en":"Women Wallets","name_cn":"length","specs":{"source":"wsxcme","sourceId":"_dLGLG4X4h3T-mkWchJL5qFWLzoBrfejCPqY73ag","sourceTagId":47002663,"sourceTagName":"length","rawTitle":""},"price":null,"currency":"CNY","moq":1,"category":"women-wallets","status":"active","alibaba_url":null,"images":["https://xcimg.szwego.com/img/89eaffab/20250714/i1752483649209_3791_0_0.jpg"],"created_at":"2025-07-31T08:04:28.178Z"},{"id":"item-70afed5cfe71","sku":"_dagagCn44HncbN_no48frNtz8l_XU6aGdrhDH7w","name_en":"YSL Crocodile Grain Card Holder in stock, ordered for HK$3100. A super practical piece. Small but very spacious, it holds large bills and coins can be placed in the zip pocket! The most thoughtful feature is the ID card slot that is visible. In short, a must-have super practical item for everyone. Calfskin + Sheepskin. Full set of counter packaging.","name_cn":"YSL Crocodile Grain Card Holder in stock, ordered for HK$3100. A super practical piece. Small but very spacious, it holds large bills and coins can be placed in the zip pocket! The most thoughtful feature is the ID card slot that is visible. In short, a must-have super practical item for everyone. Calfskin + Sheepskin. Full set of counter packaging.\nModel: 517045\nDimensions: 13*9*1.5cm","specs":{"source":"wsxcme","sourceId":"_dagagCn44HncbN_no48frNtz8l_XU6aGdrhDH7w","sourceTagId":47002663,"sourceTagName":"length","modelNumber":"517045","dimensions":{"lengthCm":13,"heightCm":9,"widthCm":1.5},"rawTitle":"YSL Crocodile Grain Card Holder in stock, ordered for HK$3100. A super practical piece. Small but very spacious, it holds large bills and coins can be placed in the zip pocket! The most thoughtful feature is the ID card slot that is visible. In short, a must-have super practical item for everyone. Calfskin + Sheepskin. Full set of counter packaging.\nModel: 517045\nDimensions: 13*9*1.5cm"},"price":null,"currency":"CNY","moq":1,"category":"women-wallets","status":"active","alibaba_url":null,"images":["https://xcimg.szwego.com/img/80e46a01/20241124/i1732444837_2218_7.jpg","https://xcimg.szwego.com/img/80e46a01/20241124/i1732444837_2628_0.jpg","https://xcimg.szwego.com/img/80e46a01/20241124/i1732444837_6_6.jpg","https://xcimg.szwego.com/img/80e46a01/20241124/i1732444837_8120_4.jpg","https://xcimg.szwego.com/img/80e46a01/20241124/i1732444837_1469_2.jpg","https://xcimg.szwego.com/img/80e46a01/20241124/i1732444837_7141_8.jpg","https://xcimg.szwego.com/img/80e46a01/20241124/i1732444837_6091_3.jpg","https://xcimg.szwego.com/img/80e46a01/20241124/i1732444837_6140_5.jpg","https://xcimg.szwego.com/img/80e46a01/20241124/i1732444837_867_1.jpg"],"created_at":"2025-06-23T05:40:00.855Z"},{"id":"item-eb4198a05163","sku":"_dAVAVafWAKWLtUoDI2crGJMQT5PAebJfBijhcMw","name_en":"YSL Zipper Wallet with 12 card slots, 1 zip pocket, 2 bill compartments, 2 slip pockets","name_cn":"YSL Zipper Wallet with 12 card slots, 1 zip pocket, 2 bill compartments, 2 slip pockets\nIt has to be said that YSL wallets are really very practical. The classic crocodile grain calfskin paired with large gold hardware is simple yet highlights the brand's design style. It is a piece that stands the test of time and looks great. It can also hold a phone. Durable and wear-resistant, requires no special care.\nModel: 358094\nDimensions: 19*10cm","specs":{"source":"wsxcme","sourceId":"_dAVAVafWAKWLtUoDI2crGJMQT5PAebJfBijhcMw","sourceTagId":47002663,"sourceTagName":"length","modelNumber":"358094","rawTitle":"YSL Zipper Wallet with 12 card slots, 1 zip pocket, 2 bill compartments, 2 slip pockets\nIt has to be said that YSL wallets are really very practical. The classic crocodile grain calfskin paired with large gold hardware is simple yet highlights the brand's design style. It is a piece that stands the test of time and looks great. It can also hold a phone. Durable and wear-resistant, requires no special care.\nModel: 358094\nDimensions: 19*10cm"},"price":null,"currency":"CNY","moq":1,"category":"women-wallets","status":"active","alibaba_url":null,"images":["https://xcimg.szwego.com/img/80e46a01/20241127/i1732706774_599_3.jpg","https://xcimg.szwego.com/img/80e46a01/20241127/i1732706774_8032_0.jpg","https://xcimg.szwego.com/img/80e46a01/20241127/i1732706775_6516_6.jpg","https://xcimg.szwego.com/img/80e46a01/20241127/i1732706774_7857_2.jpg","https://xcimg.szwego.com/img/80e46a01/20241127/i1732706774_1377_4.jpg","https://xcimg.szwego.com/img/80e46a01/20241127/i1732706775_220_5.jpg","https://xcimg.szwego.com/img/80e46a01/20241127/i1732706774_368_1.jpg","https://xcimg.szwego.com/img/80e46a01/20241127/i1732706775_5686_7.jpg","https://xcimg.szwego.com/img/80e46a01/20241127/i1732706775_8278_8.jpg"],"created_at":"2025-06-23T05:40:18.011Z"},{"id":"item-ebc79eefff38","sku":"_d8T8TVhnY4vzQliTvdLzap7xW9mJBD00A-fx1vQ","name_en":"ysl-517045 Combo image, twelve colors","name_cn":"ysl-517045 Combo image, twelve colors","specs":{"source":"wsxcme","sourceId":"_d8T8TVhnY4vzQliTvdLzap7xW9mJBD00A-fx1vQ","sourceTagId":47002663,"sourceTagName":"length","rawTitle":"ysl-517045 Combo image, twelve colors"},"price":null,"currency":"CNY","moq":1,"category":"women-wallets","status":"active","alibaba_url":null,"images":["https://xcimg.szwego.com/img/80e46a01/20241124/i1732445249_767_0.jpg"],"created_at":"2025-06-23T05:39:49.848Z"}],"page":32,"pageSize":24,"total":751,"totalPages":32}
