{"items":[{"id":"item-b79e8d8c04cf","sku":"_d_T_TKYEOrXSwfZ7dGN8AFRdaiAv5ndPXcNNWGw","name_en":"专柜品质,顶级原单货,实物实拍!款号835049克皮/浅绿G,尺寸:宽11X高7cm,💰","name_cn":"专柜品质,顶级原单货,实物实拍!款号835049克皮/浅绿G,尺寸:宽11X高7cm,💰","specs":{"source":"wsxcme","sourceId":"_d_T_TKYEOrXSwfZ7dGN8AFRdaiAv5ndPXcNNWGw","sourceTagId":47002663,"sourceTagName":"长短款钱包","modelNumber":"835049克皮/浅绿G","rawTitle":"专柜品质,顶级原单货,实物实拍!款号835049克皮/浅绿G,尺寸:宽11X高7cm,💰"},"price":null,"currency":"CNY","moq":1,"category":"women-wallets","status":"active","alibaba_url":null,"images":["https://xcimg.szwego.com/img/102e1c0f/20250602/i1748840006141_4645_0_0.jpg","https://xcimg.szwego.com/img/102e1c0f/20250602/i1748840006187_7985_0_1.jpg","https://xcimg.szwego.com/img/102e1c0f/20250602/i1748840006168_4668_0_2.jpg","https://xcimg.szwego.com/img/102e1c0f/20250602/i1748840006113_1979_0_3.jpg"],"created_at":"2025-08-03T05:43:10.118Z"},{"id":"item-82dd26bb13eb","sku":"_dnUnUpADmGCGDOMpmi9ISeDtVYn_CP-sUvfbFHQ","name_en":"专柜品质,顶级原单货,实物实拍!款号835053克皮/白钢G,尺寸:宽10.5X高7.5cm,💰","name_cn":"专柜品质,顶级原单货,实物实拍!款号835053克皮/白钢G,尺寸:宽10.5X高7.5cm,💰","specs":{"source":"wsxcme","sourceId":"_dnUnUpADmGCGDOMpmi9ISeDtVYn_CP-sUvfbFHQ","sourceTagId":47002663,"sourceTagName":"长短款钱包","modelNumber":"835053克皮/白钢G","rawTitle":"专柜品质,顶级原单货,实物实拍!款号835053克皮/白钢G,尺寸:宽10.5X高7.5cm,💰"},"price":null,"currency":"CNY","moq":1,"category":"women-wallets","status":"active","alibaba_url":null,"images":["https://xcimg.szwego.com/img/102e1c0f/20250602/i1748839930971_9072_0_0.jpg","https://xcimg.szwego.com/img/102e1c0f/20250602/i1748839930980_7721_0_1.jpg","https://xcimg.szwego.com/img/102e1c0f/20250602/i1748839930971_6658_0_2.jpg","https://xcimg.szwego.com/img/102e1c0f/20250602/i1748839930965_7287_0_3.jpg"],"created_at":"2025-08-03T05:43:10.110Z"},{"id":"item-3f3e85477f4a","sku":"_da4a4ZwZgNIvQ_Fa5vgy4Upw-zL904nhlsSM7OQ","name_en":"专柜品质,顶级原单货,实物实拍!款号835053克皮/橙G,尺寸:宽10.5X高7.5cm,💰","name_cn":"专柜品质,顶级原单货,实物实拍!款号835053克皮/橙G,尺寸:宽10.5X高7.5cm,💰","specs":{"source":"wsxcme","sourceId":"_da4a4ZwZgNIvQ_Fa5vgy4Upw-zL904nhlsSM7OQ","sourceTagId":47002663,"sourceTagName":"长短款钱包","modelNumber":"835053克皮/橙G","rawTitle":"专柜品质,顶级原单货,实物实拍!款号835053克皮/橙G,尺寸:宽10.5X高7.5cm,💰"},"price":null,"currency":"CNY","moq":1,"category":"women-wallets","status":"active","alibaba_url":null,"images":["https://xcimg.szwego.com/img/102e1c0f/20250602/i1748839812953_7866_0_0.jpg","https://xcimg.szwego.com/img/102e1c0f/20250602/i1748839812950_8303_0_1.jpg","https://xcimg.szwego.com/img/102e1c0f/20250602/i1748839812928_9545_0_2.jpg","https://xcimg.szwego.com/img/102e1c0f/20250602/i1748839812933_1332_0_3.jpg"],"created_at":"2025-08-03T05:43:10.108Z"},{"id":"item-a130f71369fd","sku":"_dtvtvnB4qtR_EpbiI59Pp99zrCXwyZShjVpUHPg","name_en":"专柜品质,顶级原单货,实物实拍!款号835053克皮/浅绿G,尺寸:宽10.5X高7.5cm,💰","name_cn":"专柜品质,顶级原单货,实物实拍!款号835053克皮/浅绿G,尺寸:宽10.5X高7.5cm,💰","specs":{"source":"wsxcme","sourceId":"_dtvtvnB4qtR_EpbiI59Pp99zrCXwyZShjVpUHPg","sourceTagId":47002663,"sourceTagName":"长短款钱包","modelNumber":"835053克皮/浅绿G","rawTitle":"专柜品质,顶级原单货,实物实拍!款号835053克皮/浅绿G,尺寸:宽10.5X高7.5cm,💰"},"price":null,"currency":"CNY","moq":1,"category":"women-wallets","status":"active","alibaba_url":null,"images":["https://xcimg.szwego.com/img/102e1c0f/20250602/i1748839908220_5465_0_0.jpg","https://xcimg.szwego.com/img/102e1c0f/20250602/i1748839908198_7622_0_1.jpg","https://xcimg.szwego.com/img/102e1c0f/20250602/i1748839908214_651_0_2.jpg","https://xcimg.szwego.com/img/102e1c0f/20250602/i1748839907910_7609_0_3.jpg"],"created_at":"2025-08-03T05:43:10.109Z"},{"id":"item-d2250d3b7c4d","sku":"_daSaSTR6ekmSUynOnj9c1kqWbLNqPd6BhYOmnlQ","name_en":"专柜品质,顶级原单货,实物实拍!款号835054克皮/白钢G,尺寸:宽10X高19X侧宽2,","name_cn":"专柜品质,顶级原单货,实物实拍!款号835054克皮/白钢G,尺寸:宽10X高19X侧宽2,","specs":{"source":"wsxcme","sourceId":"_daSaSTR6ekmSUynOnj9c1kqWbLNqPd6BhYOmnlQ","sourceTagId":47002663,"sourceTagName":"长短款钱包","modelNumber":"835054克皮/白钢G","rawTitle":"专柜品质,顶级原单货,实物实拍!款号835054克皮/白钢G,尺寸:宽10X高19X侧宽2,"},"price":null,"currency":"CNY","moq":1,"category":"women-wallets","status":"active","alibaba_url":null,"images":["https://xcimg.szwego.com/img/102e1c0f/20250615/i1749974517636_8044_0_0.jpg","https://xcimg.szwego.com/img/102e1c0f/20250615/i1749974517685_3180_0_1.jpg","https://xcimg.szwego.com/img/102e1c0f/20250615/i1749974517447_9369_0_2.jpg","https://xcimg.szwego.com/img/102e1c0f/20250615/i1749974517689_9743_0_3.jpg"],"created_at":"2025-08-03T05:43:10.107Z"},{"id":"item-8927a52f12d0","sku":"_dPjPj1jW0EFbkmkLRWeJ2_UPECcZcZnLoAi8IGg","name_en":"专柜品质,顶级原单货,实物实拍!款号835054克皮/橙G,尺寸:宽10X高19X侧宽2,","name_cn":"专柜品质,顶级原单货,实物实拍!款号835054克皮/橙G,尺寸:宽10X高19X侧宽2,","specs":{"source":"wsxcme","sourceId":"_dPjPj1jW0EFbkmkLRWeJ2_UPECcZcZnLoAi8IGg","sourceTagId":47002663,"sourceTagName":"长短款钱包","modelNumber":"835054克皮/橙G","rawTitle":"专柜品质,顶级原单货,实物实拍!款号835054克皮/橙G,尺寸:宽10X高19X侧宽2,"},"price":null,"currency":"CNY","moq":1,"category":"women-wallets","status":"active","alibaba_url":null,"images":["https://xcimg.szwego.com/img/102e1c0f/20250615/i1749974480377_3812_0_0.jpg","https://xcimg.szwego.com/img/102e1c0f/20250615/i1749974480407_660_0_1.jpg","https://xcimg.szwego.com/img/102e1c0f/20250615/i1749974480234_6979_0_3.jpg","https://xcimg.szwego.com/img/102e1c0f/20250615/i1749974480346_5168_0_2.jpg"],"created_at":"2025-08-03T05:43:10.106Z"},{"id":"item-a5400057960c","sku":"_drvrvYf7sehqWtydH9y7b5o_PyZ5w3Dulus6M1Q","name_en":"专柜品质,顶级原单货,实物实拍!款号835054克皮/浅绿G,尺寸:宽10X高19X侧宽2,","name_cn":"专柜品质,顶级原单货,实物实拍!款号835054克皮/浅绿G,尺寸:宽10X高19X侧宽2,","specs":{"source":"wsxcme","sourceId":"_drvrvYf7sehqWtydH9y7b5o_PyZ5w3Dulus6M1Q","sourceTagId":47002663,"sourceTagName":"长短款钱包","modelNumber":"835054克皮/浅绿G","rawTitle":"专柜品质,顶级原单货,实物实拍!款号835054克皮/浅绿G,尺寸:宽10X高19X侧宽2,"},"price":null,"currency":"CNY","moq":1,"category":"women-wallets","status":"active","alibaba_url":null,"images":["https://xcimg.szwego.com/img/102e1c0f/20250615/i1749974314054_9505_0_0.jpg","https://xcimg.szwego.com/img/102e1c0f/20250615/i1749974313759_7221_0_1.jpg","https://xcimg.szwego.com/img/102e1c0f/20250615/i1749974313978_6836_0_3.jpg","https://xcimg.szwego.com/img/102e1c0f/20250615/i1749974314033_4144_0_2.jpg"],"created_at":"2025-08-03T05:43:10.105Z"},{"id":"item-faf0fefd1b45","sku":"_djnjnXn-ARB7g1WCepMBFFh9iiLp4kcwvswRBzw","name_en":"专柜品质,顶级原单货,实物实拍!款号835076克荔纹,尺寸:宽8X高11cm,💰","name_cn":"专柜品质,顶级原单货,实物实拍!款号835076克荔纹,尺寸:宽8X高11cm,💰","specs":{"source":"wsxcme","sourceId":"_djnjnXn-ARB7g1WCepMBFFh9iiLp4kcwvswRBzw","sourceTagId":47002663,"sourceTagName":"长短款钱包","modelNumber":"835076克荔纹","rawTitle":"专柜品质,顶级原单货,实物实拍!款号835076克荔纹,尺寸:宽8X高11cm,💰"},"price":null,"currency":"CNY","moq":1,"category":"women-wallets","status":"active","alibaba_url":null,"images":["https://xcimg.szwego.com/img/102e1c0f/20250622/i1750581610752_7289_0_0.jpg","https://xcimg.szwego.com/img/102e1c0f/20250622/i1750581610748_3462_0_1.jpg","https://xcimg.szwego.com/img/102e1c0f/20250622/i1750581610751_5991_0_2.jpg","https://xcimg.szwego.com/img/102e1c0f/20250622/i1750581610704_2193_0_3.jpg"],"created_at":"2025-08-03T05:43:10.123Z"},{"id":"item-ffd241c838e3","sku":"_dp_p_ZGJ100HuBzaDg8zK0dkks-JC79Hj4qcLhw","name_en":"专柜品质,顶级原单货,实物实拍!款号835076绿荔纹,尺寸:宽8X高11cm,💰","name_cn":"专柜品质,顶级原单货,实物实拍!款号835076绿荔纹,尺寸:宽8X高11cm,💰","specs":{"source":"wsxcme","sourceId":"_dp_p_ZGJ100HuBzaDg8zK0dkks-JC79Hj4qcLhw","sourceTagId":47002663,"sourceTagName":"长短款钱包","modelNumber":"835076绿荔纹","rawTitle":"专柜品质,顶级原单货,实物实拍!款号835076绿荔纹,尺寸:宽8X高11cm,💰"},"price":null,"currency":"CNY","moq":1,"category":"women-wallets","status":"active","alibaba_url":null,"images":["https://xcimg.szwego.com/img/102e1c0f/20250622/i1750581494410_6370_0_1.jpg","https://xcimg.szwego.com/img/102e1c0f/20250622/i1750581494445_9307_0_2.jpg","https://xcimg.szwego.com/img/102e1c0f/20250622/i1750581494451_1407_0_0.jpg","https://xcimg.szwego.com/img/102e1c0f/20250622/i1750581494418_1311_0_3.jpg"],"created_at":"2025-08-03T05:43:10.122Z"},{"id":"item-da362fd78853","sku":"_d-K-KTSCYFHPZHQJXPQc6uuGsPVfBNeQgbjqzBQ","name_en":"专柜品质,顶级原单货,实物实拍!款号835098克荔纹,尺寸:宽11X高9cm,💰","name_cn":"专柜品质,顶级原单货,实物实拍!款号835098克荔纹,尺寸:宽11X高9cm,💰","specs":{"source":"wsxcme","sourceId":"_d-K-KTSCYFHPZHQJXPQc6uuGsPVfBNeQgbjqzBQ","sourceTagId":47002663,"sourceTagName":"长短款钱包","modelNumber":"835098克荔纹","rawTitle":"专柜品质,顶级原单货,实物实拍!款号835098克荔纹,尺寸:宽11X高9cm,💰"},"price":null,"currency":"CNY","moq":1,"category":"women-wallets","status":"active","alibaba_url":null,"images":["https://xcimg.szwego.com/img/102e1c0f/20250602/i1748840125315_795_0_0.jpg","https://xcimg.szwego.com/img/102e1c0f/20250602/i1748840125262_3159_0_1.jpg","https://xcimg.szwego.com/img/102e1c0f/20250602/i1748840125312_9389_0_2.jpg","https://xcimg.szwego.com/img/102e1c0f/20250602/i1748840125330_52_0_3.jpg"],"created_at":"2025-08-03T05:43:10.125Z"},{"id":"item-d13b8b01ac4e","sku":"_dpRpRtXUapq3zlWG60z-lzB2nYv4pzo44l3Mydw","name_en":"专柜品质,顶级原单货,实物实拍!款号835098绿荔纹,尺寸:宽11X高9cm,💰","name_cn":"专柜品质,顶级原单货,实物实拍!款号835098绿荔纹,尺寸:宽11X高9cm,💰","specs":{"source":"wsxcme","sourceId":"_dpRpRtXUapq3zlWG60z-lzB2nYv4pzo44l3Mydw","sourceTagId":47002663,"sourceTagName":"长短款钱包","modelNumber":"835098绿荔纹","rawTitle":"专柜品质,顶级原单货,实物实拍!款号835098绿荔纹,尺寸:宽11X高9cm,💰"},"price":null,"currency":"CNY","moq":1,"category":"women-wallets","status":"active","alibaba_url":null,"images":["https://xcimg.szwego.com/img/102e1c0f/20250605/i1749107798992_1884_0_0.jpg","https://xcimg.szwego.com/img/102e1c0f/20250605/i1749107798616_3780_0_1.jpg","https://xcimg.szwego.com/img/102e1c0f/20250605/i1749107798965_6957_0_3.jpg","https://xcimg.szwego.com/img/102e1c0f/20250605/i1749107798996_5615_0_2.jpg"],"created_at":"2025-08-03T05:43:10.124Z"},{"id":"item-3ad075c20caa","sku":"_dx-x-Kyw4X9-ZOMoVmPB8EkZZEIB72VGPVYlRdQ","name_en":"专柜品质,顶级原单货,实物实拍!款号838900小狗,尺寸:宽10X高7cm,💰","name_cn":"专柜品质,顶级原单货,实物实拍!款号838900小狗,尺寸:宽10X高7cm,💰","specs":{"source":"wsxcme","sourceId":"_dx-x-Kyw4X9-ZOMoVmPB8EkZZEIB72VGPVYlRdQ","sourceTagId":47002663,"sourceTagName":"长短款钱包","modelNumber":"838900小狗","rawTitle":"专柜品质,顶级原单货,实物实拍!款号838900小狗,尺寸:宽10X高7cm,💰"},"price":null,"currency":"CNY","moq":1,"category":"women-wallets","status":"active","alibaba_url":null,"images":["https://xcimg.szwego.com/img/102e1c0f/20250612/i1749703702089_8506_0_0.jpg","https://xcimg.szwego.com/img/102e1c0f/20250612/i1749703702084_7782_0_1.jpg","https://xcimg.szwego.com/img/102e1c0f/20250612/i1749703702008_5779_0_2.jpg","https://xcimg.szwego.com/img/102e1c0f/20250612/i1749703702046_7901_0_3.jpg"],"created_at":"2025-08-03T05:43:10.130Z"},{"id":"item-138554cf9572","sku":"_dkFkFBFw2yRnVOXyNRLQlsobtub2rPyYHNSoEpA","name_en":"专柜品质,顶级原单货,实物实拍!款号841360啡胶/酒红,尺寸:宽11.5X高8X侧宽3.5cm,💰","name_cn":"专柜品质,顶级原单货,实物实拍!款号841360啡胶/酒红,尺寸:宽11.5X高8X侧宽3.5cm,💰","specs":{"source":"wsxcme","sourceId":"_dkFkFBFw2yRnVOXyNRLQlsobtub2rPyYHNSoEpA","sourceTagId":47002663,"sourceTagName":"长短款钱包","modelNumber":"841360啡胶/酒红","rawTitle":"专柜品质,顶级原单货,实物实拍!款号841360啡胶/酒红,尺寸:宽11.5X高8X侧宽3.5cm,💰"},"price":null,"currency":"CNY","moq":1,"category":"women-wallets","status":"active","alibaba_url":null,"images":["https://xcimg.szwego.com/img/102e1c0f/20250605/i1749108191394_757_0_0.jpg","https://xcimg.szwego.com/img/102e1c0f/20250605/i1749108191425_3224_0_1.jpg","https://xcimg.szwego.com/img/102e1c0f/20250605/i1749108191438_7049_0_2.jpg","https://xcimg.szwego.com/img/102e1c0f/20250605/i1749108191433_1795_0_3.jpg"],"created_at":"2025-08-03T05:43:10.129Z"},{"id":"item-787c1b4dea65","sku":"_dlslsL-N_ayTXOPyxMAxebr8Gb5LzFunWnITQIA","name_en":"专柜验货【顶级原单】M81537绿色 西装夹钱包系列 西装夹拼接头层牛皮,LV以工匠的技艺精湛著称,罕见的设计、特殊皮革将技术创新和经典风格相结合,老花绿皮西装夹,突出路易威登世界的存在。钱夹内部设计精巧独特,拥有各种口袋和信用卡槽。尺寸:19×10 cm","name_cn":"专柜验货【顶级原单】M81537绿色 西装夹钱包系列 西装夹拼接头层牛皮,LV以工匠的技艺精湛著称,罕见的设计、特殊皮革将技术创新和经典风格相结合,老花绿皮西装夹,突出路易威登世界的存在。钱夹内部设计精巧独特,拥有各种口袋和信用卡槽。尺寸:19×10 cm","specs":{"source":"wsxcme","sourceId":"_dlslsL-N_ayTXOPyxMAxebr8Gb5LzFunWnITQIA","sourceTagId":47002663,"sourceTagName":"长短款钱包","rawTitle":"专柜验货【顶级原单】M81537绿色 西装夹钱包系列 西装夹拼接头层牛皮,LV以工匠的技艺精湛著称,罕见的设计、特殊皮革将技术创新和经典风格相结合,老花绿皮西装夹,突出路易威登世界的存在。钱夹内部设计精巧独特,拥有各种口袋和信用卡槽。尺寸:19×10 cm"},"price":null,"currency":"CNY","moq":1,"category":"women-wallets","status":"active","alibaba_url":null,"images":["https://xcimg.szwego.com/20230806/a1691301430709_4748.jpg","https://xcimg.szwego.com/20230806/a1691301430711_0627.jpg","https://xcimg.szwego.com/20230806/a1691301430715_0363.jpg","https://xcimg.szwego.com/20230806/a1691301430718_4233.jpg","https://xcimg.szwego.com/20230806/a1691301430724_7442.jpg","https://xcimg.szwego.com/20230806/a1691301430831_5787.jpg","https://xcimg.szwego.com/20230806/a1691301430835_8825.jpg","https://xcimg.szwego.com/20230806/a1691301430964_4211.jpg"],"created_at":"2024-05-08T09:49:54.871Z"},{"id":"item-f1feb56faf8e","sku":"_dvkvkFhUiPAqFfZUDtp9-P7wjG4y7ICBP3eWX-Q","name_en":"专柜验货【顶级原单】M81538紫色 西装夹钱包系列 西装夹拼接头层牛皮,LV以工匠的技艺精湛著称,罕见的设计、特殊皮革将技术创新和经典风格相结合,老花绿皮西装夹,突出路易威登世界的存在。钱夹内部设计精巧独特,拥有各种口袋和信用卡槽。尺寸:19×10 cm","name_cn":"专柜验货【顶级原单】M81538紫色 西装夹钱包系列 西装夹拼接头层牛皮,LV以工匠的技艺精湛著称,罕见的设计、特殊皮革将技术创新和经典风格相结合,老花绿皮西装夹,突出路易威登世界的存在。钱夹内部设计精巧独特,拥有各种口袋和信用卡槽。尺寸:19×10 cm","specs":{"source":"wsxcme","sourceId":"_dvkvkFhUiPAqFfZUDtp9-P7wjG4y7ICBP3eWX-Q","sourceTagId":47002663,"sourceTagName":"长短款钱包","rawTitle":"专柜验货【顶级原单】M81538紫色 西装夹钱包系列 西装夹拼接头层牛皮,LV以工匠的技艺精湛著称,罕见的设计、特殊皮革将技术创新和经典风格相结合,老花绿皮西装夹,突出路易威登世界的存在。钱夹内部设计精巧独特,拥有各种口袋和信用卡槽。尺寸:19×10 cm"},"price":null,"currency":"CNY","moq":1,"category":"women-wallets","status":"active","alibaba_url":null,"images":["https://xcimg.szwego.com/20230806/a1691301411364_3288.jpg","https://xcimg.szwego.com/20230806/a1691301411366_4733.jpg","https://xcimg.szwego.com/20230806/a1691301411369_1450.jpg","https://xcimg.szwego.com/20230806/a1691301411372_4686.jpg","https://xcimg.szwego.com/20230806/a1691301411375_0338.jpg","https://xcimg.szwego.com/20230806/a1691301411450_4885.jpg","https://xcimg.szwego.com/20230806/a1691301411453_3337.jpg","https://xcimg.szwego.com/20230806/a1691301411622_8131.jpg"],"created_at":"2024-05-08T09:49:54.870Z"},{"id":"item-bde309a3b4bf","sku":"_dhihixWHH-tkohv5YMKyVojOTzpklXyFa5cHv9A","name_en":"专柜验货【顶级原单】M81540全皮压花 口袋钱夹钱包系列  本款口袋钱夹向设计师 Virgil Abloh 的色彩理念致敬。Taurillon 皮革压印经典 Monogram 图案,浸染鲜明亮色,成就馈赠 Monogram 爱好者的缤纷之选。8 x 11 x 1 厘米","name_cn":"专柜验货【顶级原单】M81540全皮压花 口袋钱夹钱包系列  本款口袋钱夹向设计师 Virgil Abloh 的色彩理念致敬。Taurillon 皮革压印经典 Monogram 图案,浸染鲜明亮色,成就馈赠 Monogram 爱好者的缤纷之选。8 x 11 x 1 厘米","specs":{"source":"wsxcme","sourceId":"_dhihixWHH-tkohv5YMKyVojOTzpklXyFa5cHv9A","sourceTagId":47002663,"sourceTagName":"长短款钱包","rawTitle":"专柜验货【顶级原单】M81540全皮压花 口袋钱夹钱包系列  本款口袋钱夹向设计师 Virgil Abloh 的色彩理念致敬。Taurillon 皮革压印经典 Monogram 图案,浸染鲜明亮色,成就馈赠 Monogram 爱好者的缤纷之选。8 x 11 x 1 厘米"},"price":null,"currency":"CNY","moq":1,"category":"women-wallets","status":"active","alibaba_url":null,"images":["https://xcimg.szwego.com/20230806/a1691301213004_2016.jpg","https://xcimg.szwego.com/20230806/a1691301213006_0663.jpg","https://xcimg.szwego.com/20230806/a1691301213008_7645.jpg","https://xcimg.szwego.com/20230806/a1691301213010_6782.jpg","https://xcimg.szwego.com/20230806/a1691301213013_0110.jpg","https://xcimg.szwego.com/20230806/a1691301213019_1156.jpg"],"created_at":"2024-05-08T09:49:54.868Z"},{"id":"item-f93912f477a6","sku":"_d_d_dw7S8Q2VgR7N0o6Lpcw-ChwY0mm57pUsbfA","name_en":"B家新款中编格卡卡包是所有人群必不可少的随身带  包身由牛皮制成 质感柔滑 她拥有6个卡槽位置 中间还有隔层可以放点钱,很轻便的一款卡包 现在背的包包越来越小  一个卡包就能满足所有 同时还拥有很多颜色选择 总有一个是你喜欢的 尺寸:11x7.5","name_cn":"B家新款中编格卡卡包是所有人群必不可少的随身带  包身由牛皮制成 质感柔滑 她拥有6个卡槽位置 中间还有隔层可以放点钱,很轻便的一款卡包 现在背的包包越来越小  一个卡包就能满足所有 同时还拥有很多颜色选择 总有一个是你喜欢的 尺寸:11x7.5","specs":{"source":"wsxcme","sourceId":"_d_d_dw7S8Q2VgR7N0o6Lpcw-ChwY0mm57pUsbfA","sourceTagId":47002663,"sourceTagName":"长短款钱包","rawTitle":"B家新款中编格卡卡包是所有人群必不可少的随身带  包身由牛皮制成 质感柔滑 她拥有6个卡槽位置 中间还有隔层可以放点钱,很轻便的一款卡包 现在背的包包越来越小  一个卡包就能满足所有 同时还拥有很多颜色选择 总有一个是你喜欢的 尺寸:11x7.5"},"price":null,"currency":"CNY","moq":1,"category":"women-wallets","status":"active","alibaba_url":null,"images":["https://xcimg.szwego.com/img/4090ad17/20240712/i1720719993_4782_0.jpg","https://xcimg.szwego.com/img/4090ad17/20240712/i1720719993_4611_1.jpg","https://xcimg.szwego.com/img/4090ad17/20240712/i1720719993_673_2.jpg","https://xcimg.szwego.com/img/4090ad17/20240712/i1720719993_5223_3.jpg","https://xcimg.szwego.com/img/4090ad17/20240712/i1720719993_4942_4.jpg","https://xcimg.szwego.com/img/4090ad17/20240712/i1720719993_5834_5.jpg","https://xcimg.szwego.com/img/4090ad17/20240712/i1720719993_3882_6.jpg","https://xcimg.szwego.com/img/4090ad17/20240712/i1720719993_4158_7.jpg","https://xcimg.szwego.com/img/4090ad17/20240712/i1720719993_7343_8.jpg"],"created_at":"2024-07-12T04:55:32.616Z"},{"id":"item-e1d67518941d","sku":"_d-D-DnjEQpdNx-kAWgfvNOBuefmygBQ82h3gi8Q","name_en":"B家新款中编格卡卡包是所有人群必不可少的随身带  包身由牛皮制成 质感柔滑 她拥有6个卡槽位置 中间还有隔层可以放点钱,很轻便的一款卡包 现在背的包包越来越小  一个卡包就能满足所有 同时还拥有很多颜色选择 总有一个是你喜欢的 尺寸:11x7.5","name_cn":"B家新款中编格卡卡包是所有人群必不可少的随身带  包身由牛皮制成 质感柔滑 她拥有6个卡槽位置 中间还有隔层可以放点钱,很轻便的一款卡包 现在背的包包越来越小  一个卡包就能满足所有 同时还拥有很多颜色选择 总有一个是你喜欢的 尺寸:11x7.5","specs":{"source":"wsxcme","sourceId":"_d-D-DnjEQpdNx-kAWgfvNOBuefmygBQ82h3gi8Q","sourceTagId":47002663,"sourceTagName":"长短款钱包","rawTitle":"B家新款中编格卡卡包是所有人群必不可少的随身带  包身由牛皮制成 质感柔滑 她拥有6个卡槽位置 中间还有隔层可以放点钱,很轻便的一款卡包 现在背的包包越来越小  一个卡包就能满足所有 同时还拥有很多颜色选择 总有一个是你喜欢的 尺寸:11x7.5"},"price":null,"currency":"CNY","moq":1,"category":"women-wallets","status":"active","alibaba_url":null,"images":["https://xcimg.szwego.com/img/4090ad17/20241230/i1735498495_3196_0.jpg","https://xcimg.szwego.com/img/4090ad17/20241230/i1735498495_7915_1.jpg","https://xcimg.szwego.com/img/4090ad17/20241230/i1735498495_1753_2.jpg","https://xcimg.szwego.com/img/4090ad17/20241230/i1735498495_4539_3.jpg","https://xcimg.szwego.com/img/4090ad17/20241230/i1735498495_1307_4.jpg","https://xcimg.szwego.com/img/4090ad17/20241230/i1735498495_9488_5.jpg","https://xcimg.szwego.com/img/4090ad17/20241230/i1735498495_8925_6.jpg","https://xcimg.szwego.com/img/4090ad17/20241230/i1735498495_3982_7.jpg","https://xcimg.szwego.com/img/4090ad17/20241230/i1735498495_9777_8.jpg"],"created_at":"2025-01-20T13:06:05.317Z"},{"id":"item-692cc48a8e15","sku":"_dmnmnImsN63sfHrqvP0kn9S7KI05HySF3KFlxCQ","name_en":"B家新款中编格卡卡包是所有人群必不可少的随身带  包身由牛皮制成 质感柔滑 她拥有6个卡槽位置 中间还有隔层可以放点钱,很轻便的一款卡包 现在背的包包越来越小  一个卡包就能满足所有 同时还拥有很多颜色选择 总有一个是你喜欢的 尺寸:11x7.5","name_cn":"B家新款中编格卡卡包是所有人群必不可少的随身带  包身由牛皮制成 质感柔滑 她拥有6个卡槽位置 中间还有隔层可以放点钱,很轻便的一款卡包 现在背的包包越来越小  一个卡包就能满足所有 同时还拥有很多颜色选择 总有一个是你喜欢的 尺寸:11x7.5","specs":{"source":"wsxcme","sourceId":"_dmnmnImsN63sfHrqvP0kn9S7KI05HySF3KFlxCQ","sourceTagId":47002663,"sourceTagName":"长短款钱包","rawTitle":"B家新款中编格卡卡包是所有人群必不可少的随身带  包身由牛皮制成 质感柔滑 她拥有6个卡槽位置 中间还有隔层可以放点钱,很轻便的一款卡包 现在背的包包越来越小  一个卡包就能满足所有 同时还拥有很多颜色选择 总有一个是你喜欢的 尺寸:11x7.5"},"price":null,"currency":"CNY","moq":1,"category":"women-wallets","status":"active","alibaba_url":null,"images":["https://xcimg.szwego.com/img/4090ad17/20241029/i1730144041_6480_0.jpg","https://xcimg.szwego.com/img/4090ad17/20241029/i1730144041_2099_1.jpg","https://xcimg.szwego.com/img/4090ad17/20241029/i1730144041_7486_2.jpg","https://xcimg.szwego.com/img/4090ad17/20241029/i1730144041_6241_3.jpg","https://xcimg.szwego.com/img/4090ad17/20241029/i1730144041_1623_4.jpg","https://xcimg.szwego.com/img/4090ad17/20241029/i1730144041_8201_5.jpg","https://xcimg.szwego.com/img/4090ad17/20241029/i1730144041_6832_6.jpg","https://xcimg.szwego.com/img/4090ad17/20241029/i1730144041_2012_7.jpg","https://xcimg.szwego.com/img/4090ad17/20241029/i1730144041_7127_8.jpg"],"created_at":"2025-01-20T13:06:05.253Z"},{"id":"item-24e3082ce8e6","sku":"_doYoYXZnBCsiw-D0-IoCmOvA9BTBs6w4u5NNEnQ","name_en":"B家新款中编格卡卡包是所有人群必不可少的随身带  包身由牛皮制成 质感柔滑 她拥有6个卡槽位置 中间还有隔层可以放点钱,很轻便的一款卡包 现在背的包包越来越小  一个卡包就能满足所有 同时还拥有很多颜色选择 总有一个是你喜欢的 尺寸:11x7.5","name_cn":"B家新款中编格卡卡包是所有人群必不可少的随身带  包身由牛皮制成 质感柔滑 她拥有6个卡槽位置 中间还有隔层可以放点钱,很轻便的一款卡包 现在背的包包越来越小  一个卡包就能满足所有 同时还拥有很多颜色选择 总有一个是你喜欢的 尺寸:11x7.5","specs":{"source":"wsxcme","sourceId":"_doYoYXZnBCsiw-D0-IoCmOvA9BTBs6w4u5NNEnQ","sourceTagId":47002663,"sourceTagName":"长短款钱包","rawTitle":"B家新款中编格卡卡包是所有人群必不可少的随身带  包身由牛皮制成 质感柔滑 她拥有6个卡槽位置 中间还有隔层可以放点钱,很轻便的一款卡包 现在背的包包越来越小  一个卡包就能满足所有 同时还拥有很多颜色选择 总有一个是你喜欢的 尺寸:11x7.5"},"price":null,"currency":"CNY","moq":1,"category":"women-wallets","status":"active","alibaba_url":null,"images":["https://xcimg.szwego.com/img/4090ad17/20241230/i1735498495_3196_0.jpg","https://xcimg.szwego.com/img/4090ad17/20241230/i1735498495_7915_1.jpg","https://xcimg.szwego.com/img/4090ad17/20241230/i1735498495_1753_2.jpg","https://xcimg.szwego.com/img/4090ad17/20241230/i1735498495_4539_3.jpg","https://xcimg.szwego.com/img/4090ad17/20241230/i1735498495_1307_4.jpg","https://xcimg.szwego.com/img/4090ad17/20241230/i1735498495_9488_5.jpg","https://xcimg.szwego.com/img/4090ad17/20241230/i1735498495_8925_6.jpg","https://xcimg.szwego.com/img/4090ad17/20241230/i1735498495_3982_7.jpg","https://xcimg.szwego.com/img/4090ad17/20241230/i1735498495_9777_8.jpg"],"created_at":"2025-02-27T12:29:48.630Z"},{"id":"item-69bb2b8bbb50","sku":"_do9o9jpcZlJHhBIfnLdAgrW5S-qILN8KRGZ4wdQ","name_en":"BV-最新款卡包/钱包😄官网同步 采用顶级打腊胎牛皮 手感超赞 专柜原装五金 独特的设计风格 完美至极 细节做工精致 大气中有内涵 高端上档次 高品质😱尺寸:19.11.2cm","name_cn":"BV-最新款卡包/钱包😄官网同步 采用顶级打腊胎牛皮 手感超赞 专柜原装五金 独特的设计风格 完美至极 细节做工精致 大气中有内涵 高端上档次 高品质😱尺寸:19.11.2cm","specs":{"source":"wsxcme","sourceId":"_do9o9jpcZlJHhBIfnLdAgrW5S-qILN8KRGZ4wdQ","sourceTagId":47002663,"sourceTagName":"长短款钱包","rawTitle":"BV-最新款卡包/钱包😄官网同步 采用顶级打腊胎牛皮 手感超赞 专柜原装五金 独特的设计风格 完美至极 细节做工精致 大气中有内涵 高端上档次 高品质😱尺寸:19.11.2cm"},"price":null,"currency":"CNY","moq":1,"category":"women-wallets","status":"active","alibaba_url":null,"images":["https://xcimg.szwego.com/img/a189b943/20241118/i1731863078_4069_8.jpg","https://xcimg.szwego.com/img/a189b943/20241118/i1731863078_3417_2.jpg","https://xcimg.szwego.com/img/a189b943/20241118/i1731863078_8677_4.jpg","https://xcimg.szwego.com/img/a189b943/20241118/i1731863078_1123_3.jpg","https://xcimg.szwego.com/img/a189b943/20241118/i1731863078_663_1.jpg","https://xcimg.szwego.com/img/a189b943/20241118/i1731863078_1177_6.jpg","https://xcimg.szwego.com/img/a189b943/20241118/i1731863078_4594_0.jpg","https://xcimg.szwego.com/img/a189b943/20241118/i1731863078_468_7.jpg","https://xcimg.szwego.com/img/a189b943/20241118/i1731863078_8121_5.jpg"],"created_at":"2025-01-20T13:06:05.264Z"},{"id":"item-2209626feae4","sku":"_dkZkZ-_HrT8gnMS8WFQsle8EKnsMdLmJgwfupwQ","name_en":"BV-最新款卡包/钱包😄官网同步 采用顶级打腊胎牛皮 手感超赞 专柜原装五金 独特的设计风格 完美至极 细节做工精致 大气中有内涵 高端上档次 高品质😱尺寸:19.11.2cm💰","name_cn":"BV-最新款卡包/钱包😄官网同步 采用顶级打腊胎牛皮 手感超赞 专柜原装五金 独特的设计风格 完美至极 细节做工精致 大气中有内涵 高端上档次 高品质😱尺寸:19.11.2cm💰","specs":{"source":"wsxcme","sourceId":"_dkZkZ-_HrT8gnMS8WFQsle8EKnsMdLmJgwfupwQ","sourceTagId":47002663,"sourceTagName":"长短款钱包","rawTitle":"BV-最新款卡包/钱包😄官网同步 采用顶级打腊胎牛皮 手感超赞 专柜原装五金 独特的设计风格 完美至极 细节做工精致 大气中有内涵 高端上档次 高品质😱尺寸:19.11.2cm💰"},"price":null,"currency":"CNY","moq":1,"category":"women-wallets","status":"active","alibaba_url":null,"images":["https://xcimg.szwego.com/img/a189b943/20241118/i1731863078_4069_8.jpg","https://xcimg.szwego.com/img/a189b943/20241118/i1731863078_3417_2.jpg","https://xcimg.szwego.com/img/a189b943/20241118/i1731863078_8677_4.jpg","https://xcimg.szwego.com/img/a189b943/20241118/i1731863078_1123_3.jpg","https://xcimg.szwego.com/img/a189b943/20241118/i1731863078_663_1.jpg","https://xcimg.szwego.com/img/a189b943/20241118/i1731863078_1177_6.jpg","https://xcimg.szwego.com/img/a189b943/20241118/i1731863078_4594_0.jpg","https://xcimg.szwego.com/img/a189b943/20241118/i1731863078_468_7.jpg","https://xcimg.szwego.com/img/a189b943/20241118/i1731863078_8121_5.jpg"],"created_at":"2025-06-21T12:47:25.037Z"},{"id":"item-a46bc5c96304","sku":"_dXfXfbd81UP3y-GitH8TUxP_lay0usDq0hLNDlw","name_en":"BV-最新款拉链钱包😄官网同步 采用顶级打腊胎牛皮 手感超赞 专柜原装五金 独特的设计风格 完美至极 细节做工精致 大气中有内涵 高端上档次 高品质😱尺寸:19.11.3cm","name_cn":"BV-最新款拉链钱包😄官网同步 采用顶级打腊胎牛皮 手感超赞 专柜原装五金 独特的设计风格 完美至极 细节做工精致 大气中有内涵 高端上档次 高品质😱尺寸:19.11.3cm","specs":{"source":"wsxcme","sourceId":"_dXfXfbd81UP3y-GitH8TUxP_lay0usDq0hLNDlw","sourceTagId":47002663,"sourceTagName":"长短款钱包","rawTitle":"BV-最新款拉链钱包😄官网同步 采用顶级打腊胎牛皮 手感超赞 专柜原装五金 独特的设计风格 完美至极 细节做工精致 大气中有内涵 高端上档次 高品质😱尺寸:19.11.3cm"},"price":null,"currency":"CNY","moq":1,"category":"women-wallets","status":"active","alibaba_url":null,"images":["https://xcimg.szwego.com/img/a189b943/20241118/i1731863550_5690_2.jpg","https://xcimg.szwego.com/img/a189b943/20241118/i1731863550_2202_4.jpg","https://xcimg.szwego.com/img/a189b943/20241118/i1731863550_907_6.jpg","https://xcimg.szwego.com/img/a189b943/20241118/i1731863550_7052_1.jpg","https://xcimg.szwego.com/img/a189b943/20241118/i1731863550_1212_3.jpg","https://xcimg.szwego.com/img/a189b943/20241118/i1731863550_8107_5.jpg","https://xcimg.szwego.com/img/a189b943/20241118/i1731863550_6780_0.jpg","https://xcimg.szwego.com/img/a189b943/20241118/i1731863550_628_7.jpg","https://xcimg.szwego.com/img/a189b943/20241118/i1731863550_9371_8.jpg"],"created_at":"2025-06-21T12:47:56.652Z"},{"id":"item-6118b3f4b2ba","sku":"_dlElEyVhhG3vMdqyzxmaXU1CMb_461btfR4-GWA","name_en":"BV-最新款拉链钱包😄官网同步 采用顶级打腊胎牛皮 手感超赞 专柜原装五金 独特的设计风格 完美至极 细节做工精致 大气中有内涵 高端上档次 高品质😱尺寸:19.11.3cm","name_cn":"BV-最新款拉链钱包😄官网同步 采用顶级打腊胎牛皮 手感超赞 专柜原装五金 独特的设计风格 完美至极 细节做工精致 大气中有内涵 高端上档次 高品质😱尺寸:19.11.3cm","specs":{"source":"wsxcme","sourceId":"_dlElEyVhhG3vMdqyzxmaXU1CMb_461btfR4-GWA","sourceTagId":47002663,"sourceTagName":"长短款钱包","rawTitle":"BV-最新款拉链钱包😄官网同步 采用顶级打腊胎牛皮 手感超赞 专柜原装五金 独特的设计风格 完美至极 细节做工精致 大气中有内涵 高端上档次 高品质😱尺寸:19.11.3cm"},"price":null,"currency":"CNY","moq":1,"category":"women-wallets","status":"active","alibaba_url":null,"images":["https://xcimg.szwego.com/img/a189b943/20241118/i1731863550_5690_2.jpg","https://xcimg.szwego.com/img/a189b943/20241118/i1731863550_2202_4.jpg","https://xcimg.szwego.com/img/a189b943/20241118/i1731863550_907_6.jpg","https://xcimg.szwego.com/img/a189b943/20241118/i1731863550_7052_1.jpg","https://xcimg.szwego.com/img/a189b943/20241118/i1731863550_1212_3.jpg","https://xcimg.szwego.com/img/a189b943/20241118/i1731863550_8107_5.jpg","https://xcimg.szwego.com/img/a189b943/20241118/i1731863550_6780_0.jpg","https://xcimg.szwego.com/img/a189b943/20241118/i1731863550_628_7.jpg","https://xcimg.szwego.com/img/a189b943/20241118/i1731863550_9371_8.jpg"],"created_at":"2025-01-20T13:06:05.267Z"}],"page":20,"pageSize":24,"total":830,"totalPages":35}
