{"items":[{"id":"item-ba162a17bfc8","sku":"_dsxsxaGkifJvlSdO5hRDkyqrcUoz_lGst4WSxhg","name_en":"Top-tier replica M24261 Black This Speedy Bandouliere 20 bag is made of soft lambskin leather in a subtle tone, with a contrasting Malletage diamond quilt pattern to enhance the visual effect. The Toron handle and detachable chain leather shoulder strap expand carrying options, while the metal lock and double zipper closure add functional details. Dimensions: 20.5 × 13.5 × 12 cm","name_cn":"Top-tier replica M24261 Black This Speedy Bandouliere 20 bag is made of soft lambskin leather in a subtle tone, with a contrasting Malletage diamond quilt pattern to enhance the visual effect. The Toron handle and detachable chain leather shoulder strap expand carrying options, while the metal lock and double zipper closure add functional details. Dimensions: 20.5 × 13.5 × 12 cm","specs":{"source":"wsxcme","sourceId":"_dsxsxaGkifJvlSdO5hRDkyqrcUoz_lGst4WSxhg","sourceTagId":47002622,"sourceTagName":"LV/women's bag","dimensions":{"lengthCm":20.5,"heightCm":13.5,"widthCm":12},"rawTitle":"Top-tier replica M24261 Black This Speedy Bandouliere 20 bag is made of soft lambskin leather in a subtle tone, with a contrasting Malletage diamond quilt pattern to enhance the visual effect. The Toron handle and detachable chain leather shoulder strap expand carrying options, while the metal lock and double zipper closure add functional details. Dimensions: 20.5 × 13.5 × 12 cm"},"price":null,"currency":"CNY","moq":1,"category":"lv-women-bags","status":"active","alibaba_url":null,"images":["https://xcimg.szwego.com/img/9acee4e0/20240413/i1712999266_4216_0.jpg","https://xcimg.szwego.com/img/9acee4e0/20240413/i1712999266_1267_1.jpg","https://xcimg.szwego.com/img/9acee4e0/20240413/i1712999266_304_2.jpg","https://xcimg.szwego.com/img/9acee4e0/20240413/i1712999266_4091_3.jpg","https://xcimg.szwego.com/img/9acee4e0/20240413/i1712999266_4088_4.jpg","https://xcimg.szwego.com/img/9acee4e0/20240413/i1712999266_3664_5.jpg","https://xcimg.szwego.com/img/9acee4e0/20240413/i1712999266_5287_6.jpg","https://xcimg.szwego.com/img/9acee4e0/20240413/i1712999266_5953_7.jpg","https://xcimg.szwego.com/img/9acee4e0/20240413/i1712999266_3832_8.jpg"],"created_at":"2024-04-24T05:53:47.138Z"}],"page":50,"pageSize":24,"total":1177,"totalPages":50}
