{"items":[{"id":"item-69f59dfe7b4a","sku":"_dNANAl8uS-gD8co_twJeRrFmXmLBgmEIB99YWPg","name_en":"【 MB芯片版原厂皮】","name_cn":"【 MB芯片版原厂皮】\nONTHEGO 中号手袋\n型号:M45495黑色\n材料:A级全钢五金,进口原厂面料\n包装:全套原厂免税MB包装\n尺寸:35x27x14cm","specs":{"source":"wsxcme","sourceId":"_dNANAl8uS-gD8co_twJeRrFmXmLBgmEIB99YWPg","sourceTagId":47002622,"sourceTagName":"LV/女包","modelNumber":"M45495黑色","dimensions":{"lengthCm":35,"heightCm":27,"widthCm":14},"rawTitle":"【 MB芯片版原厂皮】\nONTHEGO 中号手袋\n型号:M45495黑色\n材料:A级全钢五金,进口原厂面料\n包装:全套原厂免税MB包装\n尺寸:35x27x14cm"},"price":null,"currency":"CNY","moq":1,"category":"lv-women-bags","status":"active","alibaba_url":null,"images":["https://xcimg.szwego.com/20240105/i1704434518_7907_0.jpg","https://xcimg.szwego.com/20240105/i1704434518_4395_1.jpg","https://xcimg.szwego.com/20240105/i1704434518_2859_5.jpg","https://xcimg.szwego.com/20240105/i1704434518_8645_6.jpg","https://xcimg.szwego.com/20240105/i1704434518_274_7.jpg","https://xcimg.szwego.com/20240105/i1704434518_8045_8.jpg","https://xcimg.szwego.com/20240105/i1704434518_2901_2.jpg","https://xcimg.szwego.com/20240105/i1704434518_4549_3.jpg","https://xcimg.szwego.com/20240105/i1704434518_3873_4.jpg"],"created_at":"2024-11-26T11:46:07.268Z"},{"id":"item-2d589fa2b68c","sku":"_dtdtdh2jm5BbAUVB6gd1j4oPmousOuMHekQIYNA","name_en":"【 MB芯片版原厂皮】","name_cn":"【 MB芯片版原厂皮】\nONTHEGO 中号手袋\n型号:M45494灰色\n材料:A级全钢五金,进口原厂面料\n包装:全套原厂免税MB包装\n尺寸:35x27x14cm","specs":{"source":"wsxcme","sourceId":"_dtdtdh2jm5BbAUVB6gd1j4oPmousOuMHekQIYNA","sourceTagId":47002622,"sourceTagName":"LV/女包","modelNumber":"M45494灰色","dimensions":{"lengthCm":35,"heightCm":27,"widthCm":14},"rawTitle":"【 MB芯片版原厂皮】\nONTHEGO 中号手袋\n型号:M45494灰色\n材料:A级全钢五金,进口原厂面料\n包装:全套原厂免税MB包装\n尺寸:35x27x14cm"},"price":null,"currency":"CNY","moq":1,"category":"lv-women-bags","status":"active","alibaba_url":null,"images":["https://xcimg.szwego.com/20240101/i1704098991_6518_0.jpg","https://xcimg.szwego.com/20240101/i1704098991_1504_1.jpg","https://xcimg.szwego.com/20240101/i1704098991_4501_2.jpg","https://xcimg.szwego.com/20240101/i1704098991_4099_7.jpg","https://xcimg.szwego.com/20240101/i1704098991_9367_8.jpg","https://xcimg.szwego.com/20240101/i1704098991_3331_6.jpg","https://xcimg.szwego.com/20240101/i1704098991_2332_3.jpg","https://xcimg.szwego.com/20240101/i1704098991_7025_4.jpg","https://xcimg.szwego.com/20240101/i1704098991_2608_5.jpg"],"created_at":"2024-11-26T11:46:07.267Z"},{"id":"item-a360bc3509f0","sku":"_dpmpmuteX7uX-iK1Fc9ztkYWGHYDr90q4JXpxKg","name_en":"【 MB芯片版原厂皮】","name_cn":"【 MB芯片版原厂皮】\nNEVERFULL 中号手袋\n型号:N41358\n材料:A级全钢五金,进口原厂面料\n包装:全套原厂免税MB包装\n尺寸:31x28x14CM","specs":{"source":"wsxcme","sourceId":"_dpmpmuteX7uX-iK1Fc9ztkYWGHYDr90q4JXpxKg","sourceTagId":47002622,"sourceTagName":"LV/女包","modelNumber":"N41358","dimensions":{"lengthCm":31,"heightCm":28,"widthCm":14},"rawTitle":"【 MB芯片版原厂皮】\nNEVERFULL 中号手袋\n型号:N41358\n材料:A级全钢五金,进口原厂面料\n包装:全套原厂免税MB包装\n尺寸:31x28x14CM"},"price":null,"currency":"CNY","moq":1,"category":"lv-women-bags","status":"active","alibaba_url":null,"images":["https://xcimg.szwego.com/20240103/i1704292612_1975_0.jpg","https://xcimg.szwego.com/20240103/i1704292612_5469_1.jpg","https://xcimg.szwego.com/20240103/i1704292612_9685_5.jpg","https://xcimg.szwego.com/20240103/i1704292612_8886_8.jpg","https://xcimg.szwego.com/20240103/i1704292612_7386_6.jpg","https://xcimg.szwego.com/20240103/i1704292612_8334_7.jpg","https://xcimg.szwego.com/20240103/i1704292612_5922_2.jpg","https://xcimg.szwego.com/20240103/i1704292612_2853_3.jpg","https://xcimg.szwego.com/20240103/i1704292612_8574_4.jpg"],"created_at":"2024-11-26T11:46:07.266Z"},{"id":"item-788c58c0d6b1","sku":"_de2e2fLhfbkrDLKGTSnH1B7fq8Wk1tR9sOIjV8w","name_en":"🆕 升级版5金,芯片, 原厂皮,专供代购,M23957黑","name_cn":"🆕 升级版5金,芯片, 原厂皮,专供代购,M23957黑\n\n详细特征 22x 12x 8 厘米","specs":{"source":"wsxcme","sourceId":"_de2e2fLhfbkrDLKGTSnH1B7fq8Wk1tR9sOIjV8w","sourceTagId":47002622,"sourceTagName":"LV/女包","rawTitle":"🆕 升级版5金,芯片, 原厂皮,专供代购,M23957黑\n\n详细特征 22x 12x 8 厘米"},"price":null,"currency":"CNY","moq":1,"category":"lv-women-bags","status":"active","alibaba_url":null,"images":["https://xcimg.szwego.com/img/19f53363/20241019/i1729347251_1124_5.jpg","https://xcimg.szwego.com/img/19f53363/20241019/i1729347251_8836_0.jpg","https://xcimg.szwego.com/img/19f53363/20241019/i1729347251_2361_1.jpg","https://xcimg.szwego.com/img/19f53363/20241019/i1729347251_6259_2.jpg","https://xcimg.szwego.com/img/19f53363/20241019/i1729347251_6816_3.jpg","https://xcimg.szwego.com/img/19f53363/20241019/i1729347251_3677_6.jpg","https://xcimg.szwego.com/img/19f53363/20241019/i1729347251_993_4.jpg","https://xcimg.szwego.com/img/19f53363/20241019/i1729347251_8017_8.jpg","https://xcimg.szwego.com/img/19f53363/20241019/i1729347251_259_7.jpg"],"created_at":"2024-11-26T11:46:07.265Z"},{"id":"item-2de1e35bc553","sku":"_d5W5Wv9q3m2bhiKXsyA_m5UEHHrbl_iGeDFEqEA","name_en":"🆕 ,升级版5金,芯片, 原厂皮,M23958黑","name_cn":"🆕 ,升级版5金,芯片, 原厂皮,M23958黑\n\n详细特征28.0 x 16.0 x 9.0 cm","specs":{"source":"wsxcme","sourceId":"_d5W5Wv9q3m2bhiKXsyA_m5UEHHrbl_iGeDFEqEA","sourceTagId":47002622,"sourceTagName":"LV/女包","rawTitle":"🆕 ,升级版5金,芯片, 原厂皮,M23958黑\n\n详细特征28.0 x 16.0 x 9.0 cm"},"price":null,"currency":"CNY","moq":1,"category":"lv-women-bags","status":"active","alibaba_url":null,"images":["https://xcimg.szwego.com/img/19f53363/20241019/i1729347119_5287_1.jpg","https://xcimg.szwego.com/img/19f53363/20241019/i1729347119_4861_4.jpg","https://xcimg.szwego.com/img/19f53363/20241019/i1729347119_4876_6.jpg","https://xcimg.szwego.com/img/19f53363/20241019/i1729347119_4525_5.jpg","https://xcimg.szwego.com/img/19f53363/20241019/i1729347119_2328_2.jpg","https://xcimg.szwego.com/img/19f53363/20241019/i1729347118_5673_0.jpg","https://xcimg.szwego.com/img/19f53363/20241019/i1729347119_6211_3.jpg","https://xcimg.szwego.com/img/19f53363/20241019/i1729347119_4869_7.jpg","https://xcimg.szwego.com/img/19f53363/20241019/i1729347119_7077_8.jpg"],"created_at":"2024-11-26T11:46:07.264Z"},{"id":"item-2c6adbc7ae2e","sku":"_dr2r2bcSpbj-HJ1aziQjSdgjde9pQyec7_oQHNg","name_en":"🆕 动态芯片款, 原厂,专供代购,M83115白,(鳄鱼配鸵鸟)","name_cn":"🆕 动态芯片款, 原厂,专供代购,M83115白,(鳄鱼配鸵鸟)\n\n详细特征:16.3x11x6.5CM","specs":{"source":"wsxcme","sourceId":"_dr2r2bcSpbj-HJ1aziQjSdgjde9pQyec7_oQHNg","sourceTagId":47002622,"sourceTagName":"LV/女包","rawTitle":"🆕 动态芯片款, 原厂,专供代购,M83115白,(鳄鱼配鸵鸟)\n\n详细特征:16.3x11x6.5CM"},"price":null,"currency":"CNY","moq":1,"category":"lv-women-bags","status":"active","alibaba_url":null,"images":["https://xcimg.szwego.com/img/19f53363/20241023/i1729660361_5918_6.jpg","https://xcimg.szwego.com/img/19f53363/20241023/i1729660361_2966_2.jpg","https://xcimg.szwego.com/img/19f53363/20241023/i1729660361_4856_3.jpg","https://xcimg.szwego.com/img/19f53363/20241023/i1729660360_8045_0.jpg","https://xcimg.szwego.com/img/19f53363/20241023/i1729660361_4873_7.jpg","https://xcimg.szwego.com/img/19f53363/20241023/i1729660361_3904_4.jpg","https://xcimg.szwego.com/img/19f53363/20241023/i1729660361_9145_5.jpg","https://xcimg.szwego.com/img/19f53363/20241023/i1729660360_2948_1.jpg","https://xcimg.szwego.com/img/19f53363/20241023/i1729660361_1712_8.jpg"],"created_at":"2024-11-26T11:46:07.263Z"},{"id":"item-31b29bb86523","sku":"_dnjnjCVPPJzbCta39xV2utxYnCSf25pQv_npgKw","name_en":"🆕 动态芯片款, 原厂专供代购,M83116白(鳄鱼配鸵鸟)","name_cn":"🆕 动态芯片款, 原厂专供代购,M83116白(鳄鱼配鸵鸟)\n\n详细特征:21x14x8厘米(长度 x 高 x 宽)","specs":{"source":"wsxcme","sourceId":"_dnjnjCVPPJzbCta39xV2utxYnCSf25pQv_npgKw","sourceTagId":47002622,"sourceTagName":"LV/女包","rawTitle":"🆕 动态芯片款, 原厂专供代购,M83116白(鳄鱼配鸵鸟)\n\n详细特征:21x14x8厘米(长度 x 高 x 宽)"},"price":null,"currency":"CNY","moq":1,"category":"lv-women-bags","status":"active","alibaba_url":null,"images":["https://xcimg.szwego.com/img/19f53363/20241023/i1729660305_3012_8.jpg","https://xcimg.szwego.com/img/19f53363/20241023/i1729660305_2257_3.jpg","https://xcimg.szwego.com/img/19f53363/20241023/i1729660305_767_6.jpg","https://xcimg.szwego.com/img/19f53363/20241023/i1729660305_6108_4.jpg","https://xcimg.szwego.com/img/19f53363/20241023/i1729660305_9587_2.jpg","https://xcimg.szwego.com/img/19f53363/20241023/i1729660305_2960_1.jpg","https://xcimg.szwego.com/img/19f53363/20241023/i1729660305_597_0.jpg","https://xcimg.szwego.com/img/19f53363/20241023/i1729660305_6950_7.jpg","https://xcimg.szwego.com/img/19f53363/20241023/i1729660305_7089_5.jpg"],"created_at":"2024-11-26T11:46:07.262Z"},{"id":"item-1795e5791bc1","sku":"_dtltlUveL0rfaqaEaTVYbMBENjc6AzMeaqmrpwg","name_en":"🆕 动态芯片, 原厂专供代购,M83117白,(鳄鱼配鸵鸟)","name_cn":"🆕 动态芯片, 原厂专供代购,M83117白,(鳄鱼配鸵鸟)\n\n详细特征:27 x 18 x 9 厘米","specs":{"source":"wsxcme","sourceId":"_dtltlUveL0rfaqaEaTVYbMBENjc6AzMeaqmrpwg","sourceTagId":47002622,"sourceTagName":"LV/女包","rawTitle":"🆕 动态芯片, 原厂专供代购,M83117白,(鳄鱼配鸵鸟)\n\n详细特征:27 x 18 x 9 厘米"},"price":null,"currency":"CNY","moq":1,"category":"lv-women-bags","status":"active","alibaba_url":null,"images":["https://xcimg.szwego.com/img/19f53363/20241023/i1729660249_9460_6.jpg","https://xcimg.szwego.com/img/19f53363/20241023/i1729660249_6472_5.jpg","https://xcimg.szwego.com/img/19f53363/20241023/i1729660250_5678_7.jpg","https://xcimg.szwego.com/img/19f53363/20241023/i1729660249_5954_4.jpg","https://xcimg.szwego.com/img/19f53363/20241023/i1729660249_226_2.jpg","https://xcimg.szwego.com/img/19f53363/20241023/i1729660249_6137_0.jpg","https://xcimg.szwego.com/img/19f53363/20241023/i1729660249_8524_3.jpg","https://xcimg.szwego.com/img/19f53363/20241023/i1729660249_4427_1.jpg","https://xcimg.szwego.com/img/19f53363/20241023/i1729660250_2346_8.jpg"],"created_at":"2024-11-26T11:46:07.261Z"},{"id":"item-d7902805320a","sku":"_dhNhNdlHSscu9XfX5SbuetuwtUap3BuyyeEhDjQ","name_en":"🆕 动态芯片款, 原厂,专供代购,M83115黑,(鳄鱼配鸵鸟)","name_cn":"🆕 动态芯片款, 原厂,专供代购,M83115黑,(鳄鱼配鸵鸟)\n\n详细特征:16.3x11x6.5CM","specs":{"source":"wsxcme","sourceId":"_dhNhNdlHSscu9XfX5SbuetuwtUap3BuyyeEhDjQ","sourceTagId":47002622,"sourceTagName":"LV/女包","rawTitle":"🆕 动态芯片款, 原厂,专供代购,M83115黑,(鳄鱼配鸵鸟)\n\n详细特征:16.3x11x6.5CM"},"price":null,"currency":"CNY","moq":1,"category":"lv-women-bags","status":"active","alibaba_url":null,"images":["https://xcimg.szwego.com/img/19f53363/20241023/i1729660003_4056_2.jpg","https://xcimg.szwego.com/img/19f53363/20241023/i1729660003_4994_4.jpg","https://xcimg.szwego.com/img/19f53363/20241023/i1729660003_9170_1.jpg","https://xcimg.szwego.com/img/19f53363/20241023/i1729660003_9444_5.jpg","https://xcimg.szwego.com/img/19f53363/20241023/i1729660004_3495_8.jpg","https://xcimg.szwego.com/img/19f53363/20241023/i1729660004_6425_7.jpg","https://xcimg.szwego.com/img/19f53363/20241023/i1729660003_41_3.jpg","https://xcimg.szwego.com/img/19f53363/20241023/i1729660003_5241_0.jpg","https://xcimg.szwego.com/img/19f53363/20241023/i1729660003_9298_6.jpg"],"created_at":"2024-11-26T11:46:07.260Z"},{"id":"item-ee069d72bf87","sku":"_duQuQlntvz7c-anB_LI33R3rvsNurDfWbrI4mBA","name_en":"🆕 动态芯片款, 原厂专供代购,M83116黑(鳄鱼配鸵鸟)","name_cn":"🆕 动态芯片款, 原厂专供代购,M83116黑(鳄鱼配鸵鸟)\n\n详细特征:21x14x8厘米(长度 x 高 x 宽)","specs":{"source":"wsxcme","sourceId":"_duQuQlntvz7c-anB_LI33R3rvsNurDfWbrI4mBA","sourceTagId":47002622,"sourceTagName":"LV/女包","rawTitle":"🆕 动态芯片款, 原厂专供代购,M83116黑(鳄鱼配鸵鸟)\n\n详细特征:21x14x8厘米(长度 x 高 x 宽)"},"price":null,"currency":"CNY","moq":1,"category":"lv-women-bags","status":"active","alibaba_url":null,"images":["https://xcimg.szwego.com/img/19f53363/20241023/i1729659903_2078_5.jpg","https://xcimg.szwego.com/img/19f53363/20241023/i1729659903_9611_4.jpg","https://xcimg.szwego.com/img/19f53363/20241023/i1729659903_2117_2.jpg","https://xcimg.szwego.com/img/19f53363/20241023/i1729659903_8234_6.jpg","https://xcimg.szwego.com/img/19f53363/20241023/i1729659904_3426_8.jpg","https://xcimg.szwego.com/img/19f53363/20241023/i1729659903_7030_3.jpg","https://xcimg.szwego.com/img/19f53363/20241023/i1729659903_8526_1.jpg","https://xcimg.szwego.com/img/19f53363/20241023/i1729659903_5503_0.jpg","https://xcimg.szwego.com/img/19f53363/20241023/i1729659904_9206_7.jpg"],"created_at":"2024-11-26T11:46:07.259Z"},{"id":"item-e12270a625c7","sku":"_dxhxhn175KbphvOWQe7KtoigW9dKtP4LKWnpp9w","name_en":"🆕 动态芯片, 原厂专供代购,M83117黑,(鳄鱼配鸵鸟)","name_cn":"🆕 动态芯片, 原厂专供代购,M83117黑,(鳄鱼配鸵鸟)\n\n详细特征:27 x 18 x 9 厘米","specs":{"source":"wsxcme","sourceId":"_dxhxhn175KbphvOWQe7KtoigW9dKtP4LKWnpp9w","sourceTagId":47002622,"sourceTagName":"LV/女包","rawTitle":"🆕 动态芯片, 原厂专供代购,M83117黑,(鳄鱼配鸵鸟)\n\n详细特征:27 x 18 x 9 厘米"},"price":null,"currency":"CNY","moq":1,"category":"lv-women-bags","status":"active","alibaba_url":null,"images":["https://xcimg.szwego.com/img/19f53363/20241023/i1729659715_985_6.jpg","https://xcimg.szwego.com/img/19f53363/20241023/i1729659715_2113_7.jpg","https://xcimg.szwego.com/img/19f53363/20241023/i1729659715_4230_8.jpg","https://xcimg.szwego.com/img/19f53363/20241023/i1729659715_6024_4.jpg","https://xcimg.szwego.com/img/19f53363/20241023/i1729659715_7434_2.jpg","https://xcimg.szwego.com/img/19f53363/20241023/i1729659715_7416_3.jpg","https://xcimg.szwego.com/img/19f53363/20241023/i1729659715_9307_5.jpg","https://xcimg.szwego.com/img/19f53363/20241023/i1729659715_3478_1.jpg","https://xcimg.szwego.com/img/19f53363/20241023/i1729659715_852_0.jpg"],"created_at":"2024-11-26T11:46:07.258Z"},{"id":"item-42056792cec8","sku":"_d_b_bYoGCHJeTE5Pt1BDCK-HQSwnixOj-bMkOvw","name_en":"🆕升级版五金,芯片, 原厂皮,专供代购,M85829蓝","name_cn":"🆕升级版五金,芯片, 原厂皮,专供代购,M85829蓝\n\n详细特征 21 x 14 x 8 厘米","specs":{"source":"wsxcme","sourceId":"_d_b_bYoGCHJeTE5Pt1BDCK-HQSwnixOj-bMkOvw","sourceTagId":47002622,"sourceTagName":"LV/女包","rawTitle":"🆕升级版五金,芯片, 原厂皮,专供代购,M85829蓝\n\n详细特征 21 x 14 x 8 厘米"},"price":null,"currency":"CNY","moq":1,"category":"lv-women-bags","status":"active","alibaba_url":null,"images":["https://xcimg.szwego.com/img/19f53363/20241014/i1728900235_7582_4.jpg","https://xcimg.szwego.com/img/19f53363/20241014/i1728900235_8604_6.jpg","https://xcimg.szwego.com/img/19f53363/20241014/i1728900235_691_3.jpg","https://xcimg.szwego.com/img/19f53363/20241014/i1728900235_8029_7.jpg","https://xcimg.szwego.com/img/19f53363/20241014/i1728900235_9198_5.jpg","https://xcimg.szwego.com/img/19f53363/20241014/i1728900235_2040_0.jpg","https://xcimg.szwego.com/img/19f53363/20241014/i1728900235_177_2.jpg","https://xcimg.szwego.com/img/19f53363/20241014/i1728900235_7683_1.jpg","https://xcimg.szwego.com/img/19f53363/20241014/i1728900235_7869_8.jpg"],"created_at":"2024-11-26T11:46:07.257Z"},{"id":"item-f05013d20ff3","sku":"_dyCyCpwjz2_mUg29i2J4vRUlXnP8qBG11t_DlBw","name_en":"🆕升级版5金,芯片, 原厂皮,M85830蓝","name_cn":"🆕升级版5金,芯片, 原厂皮,M85830蓝\n\n详细特征:27 x 18 x 9 厘米","specs":{"source":"wsxcme","sourceId":"_dyCyCpwjz2_mUg29i2J4vRUlXnP8qBG11t_DlBw","sourceTagId":47002622,"sourceTagName":"LV/女包","rawTitle":"🆕升级版5金,芯片, 原厂皮,M85830蓝\n\n详细特征:27 x 18 x 9 厘米"},"price":null,"currency":"CNY","moq":1,"category":"lv-women-bags","status":"active","alibaba_url":null,"images":["https://xcimg.szwego.com/img/19f53363/20241014/i1728900162_9500_5.jpg","https://xcimg.szwego.com/img/19f53363/20241014/i1728900161_6605_0.jpg","https://xcimg.szwego.com/img/19f53363/20241014/i1728900162_5282_8.jpg","https://xcimg.szwego.com/img/19f53363/20241014/i1728900162_564_4.jpg","https://xcimg.szwego.com/img/19f53363/20241014/i1728900161_2069_1.jpg","https://xcimg.szwego.com/img/19f53363/20241014/i1728900162_6498_7.jpg","https://xcimg.szwego.com/img/19f53363/20241014/i1728900161_3118_3.jpg","https://xcimg.szwego.com/img/19f53363/20241014/i1728900161_8826_2.jpg","https://xcimg.szwego.com/img/19f53363/20241014/i1728900162_3409_6.jpg"],"created_at":"2024-11-26T11:46:07.256Z"},{"id":"item-313274fd5a95","sku":"_diCiCWrby57RAS90ORUi0DcHf-bVJeFaWhLSEaw","name_en":"🆕升级版五金,芯片, 原厂皮,专供代购,M85829黑","name_cn":"🆕升级版五金,芯片, 原厂皮,专供代购,M85829黑\n\n详细特征 21 x 14 x 8 厘米","specs":{"source":"wsxcme","sourceId":"_diCiCWrby57RAS90ORUi0DcHf-bVJeFaWhLSEaw","sourceTagId":47002622,"sourceTagName":"LV/女包","rawTitle":"🆕升级版五金,芯片, 原厂皮,专供代购,M85829黑\n\n详细特征 21 x 14 x 8 厘米"},"price":null,"currency":"CNY","moq":1,"category":"lv-women-bags","status":"active","alibaba_url":null,"images":["https://xcimg.szwego.com/img/19f53363/20241014/i1728900112_7778_2.jpg","https://xcimg.szwego.com/img/19f53363/20241014/i1728900113_2770_6.jpg","https://xcimg.szwego.com/img/19f53363/20241014/i1728900113_9640_7.jpg","https://xcimg.szwego.com/img/19f53363/20241014/i1728900113_5914_8.jpg","https://xcimg.szwego.com/img/19f53363/20241014/i1728900112_2883_1.jpg","https://xcimg.szwego.com/img/19f53363/20241014/i1728900112_478_4.jpg","https://xcimg.szwego.com/img/19f53363/20241014/i1728900112_3459_3.jpg","https://xcimg.szwego.com/img/19f53363/20241014/i1728900113_284_5.jpg","https://xcimg.szwego.com/img/19f53363/20241014/i1728900112_905_0.jpg"],"created_at":"2024-11-26T11:46:07.255Z"},{"id":"item-52aa8da40788","sku":"_dqcqc9k-NORMj643Kgr5ImE83lhCZjC3YADePpw","name_en":"🆕 升级版5金,芯片, 原厂皮,M85830黑","name_cn":"🆕 升级版5金,芯片, 原厂皮,M85830黑\n\n详细特征:27 x 18 x 9 厘米","specs":{"source":"wsxcme","sourceId":"_dqcqc9k-NORMj643Kgr5ImE83lhCZjC3YADePpw","sourceTagId":47002622,"sourceTagName":"LV/女包","rawTitle":"🆕 升级版5金,芯片, 原厂皮,M85830黑\n\n详细特征:27 x 18 x 9 厘米"},"price":null,"currency":"CNY","moq":1,"category":"lv-women-bags","status":"active","alibaba_url":null,"images":["https://xcimg.szwego.com/img/19f53363/20241014/i1728900049_1919_2.jpg","https://xcimg.szwego.com/img/19f53363/20241014/i1728900049_8541_3.jpg","https://xcimg.szwego.com/img/19f53363/20241014/i1728900049_736_8.jpg","https://xcimg.szwego.com/img/19f53363/20241014/i1728900048_2465_0.jpg","https://xcimg.szwego.com/img/19f53363/20241014/i1728900049_941_1.jpg","https://xcimg.szwego.com/img/19f53363/20241014/i1728900049_8847_4.jpg","https://xcimg.szwego.com/img/19f53363/20241014/i1728900049_9760_6.jpg","https://xcimg.szwego.com/img/19f53363/20241014/i1728900049_9331_5.jpg","https://xcimg.szwego.com/img/19f53363/20241014/i1728900049_6764_7.jpg"],"created_at":"2024-11-26T11:46:07.254Z"},{"id":"item-6b0858f9efcf","sku":"_d2929WOSSVMXgSZY_2ORY0ZvM2Qx1LFYR-jRtIw","name_en":"🆕 动态芯片款, 原厂专供代购,M96498杏色","name_cn":"🆕 动态芯片款, 原厂专供代购,M96498杏色\n\n详细特征:21x14x8厘米(长度 x 高 x 宽)","specs":{"source":"wsxcme","sourceId":"_d2929WOSSVMXgSZY_2ORY0ZvM2Qx1LFYR-jRtIw","sourceTagId":47002622,"sourceTagName":"LV/女包","rawTitle":"🆕 动态芯片款, 原厂专供代购,M96498杏色\n\n详细特征:21x14x8厘米(长度 x 高 x 宽)"},"price":null,"currency":"CNY","moq":1,"category":"lv-women-bags","status":"active","alibaba_url":null,"images":["https://xcimg.szwego.com/img/19f53363/20241023/i1729660752_6587_8.jpg","https://xcimg.szwego.com/img/19f53363/20241023/i1729660752_7262_6.jpg","https://xcimg.szwego.com/img/19f53363/20241023/i1729660751_5022_2.jpg","https://xcimg.szwego.com/img/19f53363/20241023/i1729660751_984_1.jpg","https://xcimg.szwego.com/img/19f53363/20241023/i1729660752_454_7.jpg","https://xcimg.szwego.com/img/19f53363/20241023/i1729660751_3386_0.jpg","https://xcimg.szwego.com/img/19f53363/20241023/i1729660751_959_3.jpg","https://xcimg.szwego.com/img/19f53363/20241023/i1729660751_2333_4.jpg","https://xcimg.szwego.com/img/19f53363/20241023/i1729660752_961_5.jpg"],"created_at":"2024-11-26T11:46:07.253Z"},{"id":"item-602c50efce6b","sku":"_dwGwGaiH3FOsrdUAs3E1riecEbztJ9KhY1pDP3A","name_en":"🆕 ,动态芯片款, 原厂专供代购,M24713白配黄","name_cn":"🆕 ,动态芯片款, 原厂专供代购,M24713白配黄\n\n详细特征:21x14x8厘米(长度 x 高 x 宽)","specs":{"source":"wsxcme","sourceId":"_dwGwGaiH3FOsrdUAs3E1riecEbztJ9KhY1pDP3A","sourceTagId":47002622,"sourceTagName":"LV/女包","rawTitle":"🆕 ,动态芯片款, 原厂专供代购,M24713白配黄\n\n详细特征:21x14x8厘米(长度 x 高 x 宽)"},"price":null,"currency":"CNY","moq":1,"category":"lv-women-bags","status":"active","alibaba_url":null,"images":["https://xcimg.szwego.com/img/19f53363/20241118/i1731892078_7618_1.jpg","https://xcimg.szwego.com/img/19f53363/20241118/i1731892078_2781_0.jpg","https://xcimg.szwego.com/img/19f53363/20241118/i1731892078_1905_8.jpg","https://xcimg.szwego.com/img/19f53363/20241118/i1731892078_8492_2.jpg","https://xcimg.szwego.com/img/19f53363/20241118/i1731892078_6288_3.jpg","https://xcimg.szwego.com/img/19f53363/20241118/i1731892078_6473_5.jpg","https://xcimg.szwego.com/img/19f53363/20241118/i1731892078_2477_4.jpg","https://xcimg.szwego.com/img/19f53363/20241118/i1731892078_4747_6.jpg","https://xcimg.szwego.com/img/19f53363/20241118/i1731892078_2721_7.jpg"],"created_at":"2024-11-26T11:46:07.252Z"},{"id":"item-f932dd29cfef","sku":"_dWkWkY6LqLqDUeH_3wX4I3qd_lDAhQzvjfofdBw","name_en":"🆕 ,动态芯片, 原厂专供代购,M24714白配黄","name_cn":"🆕 ,动态芯片, 原厂专供代购,M24714白配黄\n\n详细特征:27 x 18 x 9 厘米","specs":{"source":"wsxcme","sourceId":"_dWkWkY6LqLqDUeH_3wX4I3qd_lDAhQzvjfofdBw","sourceTagId":47002622,"sourceTagName":"LV/女包","rawTitle":"🆕 ,动态芯片, 原厂专供代购,M24714白配黄\n\n详细特征:27 x 18 x 9 厘米"},"price":null,"currency":"CNY","moq":1,"category":"lv-women-bags","status":"active","alibaba_url":null,"images":["https://xcimg.szwego.com/img/19f53363/20241118/i1731892024_4697_2.jpg","https://xcimg.szwego.com/img/19f53363/20241118/i1731892024_6785_8.jpg","https://xcimg.szwego.com/img/19f53363/20241118/i1731892023_8502_0.jpg","https://xcimg.szwego.com/img/19f53363/20241118/i1731892024_8258_6.jpg","https://xcimg.szwego.com/img/19f53363/20241118/i1731892024_8050_5.jpg","https://xcimg.szwego.com/img/19f53363/20241118/i1731892024_6200_3.jpg","https://xcimg.szwego.com/img/19f53363/20241118/i1731892024_6836_4.jpg","https://xcimg.szwego.com/img/19f53363/20241118/i1731892024_1459_7.jpg","https://xcimg.szwego.com/img/19f53363/20241118/i1731892023_5441_1.jpg"],"created_at":"2024-11-26T11:46:07.251Z"},{"id":"item-4ac528d71090","sku":"_dmBmBDDWeZtGCaXw5SdUucwxPrxboHx6H3jnlFg","name_en":"🆕 动态芯片款, 原厂专供代购,M24713浅蓝","name_cn":"🆕 动态芯片款, 原厂专供代购,M24713浅蓝\n\n详细特征:21x14x8厘米(长度 x 高 x 宽)","specs":{"source":"wsxcme","sourceId":"_dmBmBDDWeZtGCaXw5SdUucwxPrxboHx6H3jnlFg","sourceTagId":47002622,"sourceTagName":"LV/女包","rawTitle":"🆕 动态芯片款, 原厂专供代购,M24713浅蓝\n\n详细特征:21x14x8厘米(长度 x 高 x 宽)"},"price":null,"currency":"CNY","moq":1,"category":"lv-women-bags","status":"active","alibaba_url":null,"images":["https://xcimg.szwego.com/img/19f53363/20241118/i1731891975_1975_2.jpg","https://xcimg.szwego.com/img/19f53363/20241118/i1731891974_7855_1.jpg","https://xcimg.szwego.com/img/19f53363/20241118/i1731891975_6816_4.jpg","https://xcimg.szwego.com/img/19f53363/20241118/i1731891975_3510_7.jpg","https://xcimg.szwego.com/img/19f53363/20241118/i1731891975_6357_8.jpg","https://xcimg.szwego.com/img/19f53363/20241118/i1731891975_8768_3.jpg","https://xcimg.szwego.com/img/19f53363/20241118/i1731891975_9906_9.jpg","https://xcimg.szwego.com/img/19f53363/20241118/i1731891975_8696_5.jpg","https://xcimg.szwego.com/img/19f53363/20241118/i1731891974_6133_0.jpg","https://xcimg.szwego.com/img/19f53363/20241118/i1731891975_5349_6.jpg"],"created_at":"2024-11-26T11:46:07.250Z"},{"id":"item-4e5eaab0b192","sku":"_dz4z4oNByTz6YoSavsF3RTxlT7KUmDtl2eRil3g","name_en":"🆕 ,动态芯片, 原厂专供代购,M24714浅蓝","name_cn":"🆕 ,动态芯片, 原厂专供代购,M24714浅蓝\n\n详细特征:27 x 18 x 9 厘米","specs":{"source":"wsxcme","sourceId":"_dz4z4oNByTz6YoSavsF3RTxlT7KUmDtl2eRil3g","sourceTagId":47002622,"sourceTagName":"LV/女包","rawTitle":"🆕 ,动态芯片, 原厂专供代购,M24714浅蓝\n\n详细特征:27 x 18 x 9 厘米"},"price":null,"currency":"CNY","moq":1,"category":"lv-women-bags","status":"active","alibaba_url":null,"images":["https://xcimg.szwego.com/img/19f53363/20241118/i1731891926_6494_7.jpg","https://xcimg.szwego.com/img/19f53363/20241118/i1731891926_5531_2.jpg","https://xcimg.szwego.com/img/19f53363/20241118/i1731891926_6565_8.jpg","https://xcimg.szwego.com/img/19f53363/20241118/i1731891926_7286_4.jpg","https://xcimg.szwego.com/img/19f53363/20241118/i1731891925_6977_1.jpg","https://xcimg.szwego.com/img/19f53363/20241118/i1731891926_1825_6.jpg","https://xcimg.szwego.com/img/19f53363/20241118/i1731891926_9750_5.jpg","https://xcimg.szwego.com/img/19f53363/20241118/i1731891926_5903_3.jpg","https://xcimg.szwego.com/img/19f53363/20241118/i1731891925_808_0.jpg"],"created_at":"2024-11-26T11:46:07.249Z"},{"id":"item-cebdfcdf2f75","sku":"_du0u0jXwyxfaPPVINUWqHmafuMWkPlV6Rlp-Jdg","name_en":"🆕 动态芯片款, 原厂专供代购,M24713梅红","name_cn":"🆕 动态芯片款, 原厂专供代购,M24713梅红\n\n详细特征:21x14x8厘米(长度 x 高 x 宽)","specs":{"source":"wsxcme","sourceId":"_du0u0jXwyxfaPPVINUWqHmafuMWkPlV6Rlp-Jdg","sourceTagId":47002622,"sourceTagName":"LV/女包","rawTitle":"🆕 动态芯片款, 原厂专供代购,M24713梅红\n\n详细特征:21x14x8厘米(长度 x 高 x 宽)"},"price":null,"currency":"CNY","moq":1,"category":"lv-women-bags","status":"active","alibaba_url":null,"images":["https://xcimg.szwego.com/img/19f53363/20241118/i1731891872_5166_5.jpg","https://xcimg.szwego.com/img/19f53363/20241118/i1731891872_3119_3.jpg","https://xcimg.szwego.com/img/19f53363/20241118/i1731891872_3859_1.jpg","https://xcimg.szwego.com/img/19f53363/20241118/i1731891871_6093_0.jpg","https://xcimg.szwego.com/img/19f53363/20241118/i1731891872_4394_2.jpg","https://xcimg.szwego.com/img/19f53363/20241118/i1731891872_1333_4.jpg","https://xcimg.szwego.com/img/19f53363/20241118/i1731891872_3855_8.jpg","https://xcimg.szwego.com/img/19f53363/20241118/i1731891872_775_6.jpg","https://xcimg.szwego.com/img/19f53363/20241118/i1731891872_4010_7.jpg"],"created_at":"2024-11-26T11:46:07.248Z"},{"id":"item-6cf850a87104","sku":"_dVwVwaWops-VQMmKKUf1lPudOwlrrQKWYfQDjoA","name_en":"独家首发型号:M46828 皮料是正品代工厂意大利A级菱形皮料,专柜同步变码芯片,是在于品质、全钢五金、面料、手工、油边、A级高品质出品、全面再次升级、拍摄图跟产品一致配图上的全套包装尺寸:25*15*5CM","name_cn":"独家首发型号:M46828 皮料是正品代工厂意大利A级菱形皮料,专柜同步变码芯片,是在于品质、全钢五金、面料、手工、油边、A级高品质出品、全面再次升级、拍摄图跟产品一致配图上的全套包装尺寸:25*15*5CM","specs":{"source":"wsxcme","sourceId":"_dVwVwaWops-VQMmKKUf1lPudOwlrrQKWYfQDjoA","sourceTagId":47002622,"sourceTagName":"LV/女包","modelNumber":"M46828 皮料是正品代工厂意大利A级菱形皮料","dimensions":{"lengthCm":25,"heightCm":15,"widthCm":5},"rawTitle":"独家首发型号:M46828 皮料是正品代工厂意大利A级菱形皮料,专柜同步变码芯片,是在于品质、全钢五金、面料、手工、油边、A级高品质出品、全面再次升级、拍摄图跟产品一致配图上的全套包装尺寸:25*15*5CM"},"price":null,"currency":"CNY","moq":1,"category":"lv-women-bags","status":"active","alibaba_url":null,"images":["https://xcimg.szwego.com/20240515/i1715729052_383_0.jpg","https://xcimg.szwego.com/20240515/i1715729052_9410_1.jpg","https://xcimg.szwego.com/20240515/i1715729052_7889_2.jpg","https://xcimg.szwego.com/20240515/i1715729052_2516_3.jpg","https://xcimg.szwego.com/20240515/i1715729052_2623_4.jpg","https://xcimg.szwego.com/20240515/i1715729052_5918_5.jpg","https://xcimg.szwego.com/20240515/i1715729052_9298_6.jpg","https://xcimg.szwego.com/20240515/i1715729052_6897_7.jpg","https://xcimg.szwego.com/20240515/i1715729052_8917_8.jpg"],"created_at":"2024-11-26T11:46:07.247Z"},{"id":"item-6a0144acb27d","sku":"_dl8l8kppRhYng3-pAC17j4eqRv5fZGMEXtigaxw","name_en":"独家首发型号:M47149 皮料是正品代工厂意大利A级菱形皮料,专柜同步变码芯片,是在于品质、全钢五金、面料、手工、油边、A级高品质出品、全面再次升级、拍摄图跟产品一致配图上的全套包装尺寸:28*20*11CM","name_cn":"独家首发型号:M47149 皮料是正品代工厂意大利A级菱形皮料,专柜同步变码芯片,是在于品质、全钢五金、面料、手工、油边、A级高品质出品、全面再次升级、拍摄图跟产品一致配图上的全套包装尺寸:28*20*11CM","specs":{"source":"wsxcme","sourceId":"_dl8l8kppRhYng3-pAC17j4eqRv5fZGMEXtigaxw","sourceTagId":47002622,"sourceTagName":"LV/女包","modelNumber":"M47149 皮料是正品代工厂意大利A级菱形皮料","dimensions":{"lengthCm":28,"heightCm":20,"widthCm":11},"rawTitle":"独家首发型号:M47149 皮料是正品代工厂意大利A级菱形皮料,专柜同步变码芯片,是在于品质、全钢五金、面料、手工、油边、A级高品质出品、全面再次升级、拍摄图跟产品一致配图上的全套包装尺寸:28*20*11CM"},"price":null,"currency":"CNY","moq":1,"category":"lv-women-bags","status":"active","alibaba_url":null,"images":["https://xcimg.szwego.com/20240515/i1715730277_6931_0.jpg","https://xcimg.szwego.com/20240515/i1715730277_1622_1.jpg","https://xcimg.szwego.com/20240515/i1715730277_2030_2.jpg","https://xcimg.szwego.com/20240515/i1715730277_5019_3.jpg","https://xcimg.szwego.com/20240515/i1715730277_5955_4.jpg","https://xcimg.szwego.com/20240515/i1715730277_6989_5.jpg","https://xcimg.szwego.com/20240515/i1715730277_8778_6.jpg","https://xcimg.szwego.com/20240515/i1715730277_1773_7.jpg","https://xcimg.szwego.com/20240515/i1715730277_69_8.jpg"],"created_at":"2024-11-26T11:46:07.246Z"},{"id":"item-a99bd04e6c2e","sku":"_dfJfJ9Iy9p_j3DNa7UVRl6uT2fAxnjp326VqhIA","name_en":"独家首发型号:M46999 皮料是正品代工厂意大利A级菱形皮料,专柜同步变码芯片,是在于品质、全钢五金、面料、手工、油边、A级高品质出品、全面再次升级、拍摄图跟产品一致配图上的全套包装尺寸:25*15*8CM","name_cn":"独家首发型号:M46999 皮料是正品代工厂意大利A级菱形皮料,专柜同步变码芯片,是在于品质、全钢五金、面料、手工、油边、A级高品质出品、全面再次升级、拍摄图跟产品一致配图上的全套包装尺寸:25*15*8CM","specs":{"source":"wsxcme","sourceId":"_dfJfJ9Iy9p_j3DNa7UVRl6uT2fAxnjp326VqhIA","sourceTagId":47002622,"sourceTagName":"LV/女包","modelNumber":"M46999 皮料是正品代工厂意大利A级菱形皮料","dimensions":{"lengthCm":25,"heightCm":15,"widthCm":8},"rawTitle":"独家首发型号:M46999 皮料是正品代工厂意大利A级菱形皮料,专柜同步变码芯片,是在于品质、全钢五金、面料、手工、油边、A级高品质出品、全面再次升级、拍摄图跟产品一致配图上的全套包装尺寸:25*15*8CM"},"price":null,"currency":"CNY","moq":1,"category":"lv-women-bags","status":"active","alibaba_url":null,"images":["https://xcimg.szwego.com/20240515/i1715732014_456_0.jpg","https://xcimg.szwego.com/20240515/i1715732014_688_1.jpg","https://xcimg.szwego.com/20240515/i1715732014_9240_2.jpg","https://xcimg.szwego.com/20240515/i1715732014_6541_3.jpg","https://xcimg.szwego.com/20240515/i1715732014_3023_4.jpg","https://xcimg.szwego.com/20240515/i1715732014_5502_5.jpg","https://xcimg.szwego.com/20240515/i1715732014_7870_6.jpg","https://xcimg.szwego.com/20240515/i1715732014_6088_7.jpg","https://xcimg.szwego.com/20240515/i1715732014_4621_8.jpg"],"created_at":"2024-11-26T11:46:07.245Z"}],"page":27,"pageSize":24,"total":1177,"totalPages":50}
