{"items":[{"id":"item-a5400057960c","sku":"_drvrvYf7sehqWtydH9y7b5o_PyZ5w3Dulus6M1Q","name_en":"专柜品质,顶级原单货,实物实拍!款号835054克皮/浅绿G,尺寸:宽10X高19X侧宽2,","name_cn":"专柜品质,顶级原单货,实物实拍!款号835054克皮/浅绿G,尺寸:宽10X高19X侧宽2,","specs":{"source":"wsxcme","sourceId":"_drvrvYf7sehqWtydH9y7b5o_PyZ5w3Dulus6M1Q","sourceTagId":47002663,"sourceTagName":"长短款钱包","modelNumber":"835054克皮/浅绿G","rawTitle":"专柜品质,顶级原单货,实物实拍!款号835054克皮/浅绿G,尺寸:宽10X高19X侧宽2,"},"price":null,"currency":"CNY","moq":1,"category":"women-wallets","status":"active","alibaba_url":null,"images":["https://xcimg.szwego.com/img/102e1c0f/20250615/i1749974314054_9505_0_0.jpg","https://xcimg.szwego.com/img/102e1c0f/20250615/i1749974313759_7221_0_1.jpg","https://xcimg.szwego.com/img/102e1c0f/20250615/i1749974313978_6836_0_3.jpg","https://xcimg.szwego.com/img/102e1c0f/20250615/i1749974314033_4144_0_2.jpg"],"created_at":"2025-08-03T05:43:10.105Z"},{"id":"item-b0f276827933","sku":"_dnonouyrnr2AFG884QGtlClA9eAQxDDldljBxkA","name_en":"专柜品质,顶级原单货,实物实拍!768248啡胶/荧光玫~尺寸:宽11x高7,出货啦!💰","name_cn":"专柜品质,顶级原单货,实物实拍!768248啡胶/荧光玫~尺寸:宽11x高7,出货啦!💰","specs":{"source":"wsxcme","sourceId":"_dnonouyrnr2AFG884QGtlClA9eAQxDDldljBxkA","sourceTagId":47002663,"sourceTagName":"长短款钱包","rawTitle":"专柜品质,顶级原单货,实物实拍!768248啡胶/荧光玫~尺寸:宽11x高7,出货啦!💰"},"price":null,"currency":"CNY","moq":1,"category":"women-wallets","status":"active","alibaba_url":null,"images":["https://xcimg.szwego.com/img/102e1c0f/20250517/i1747466411025_7206_0_0.jpg","https://xcimg.szwego.com/img/102e1c0f/20250517/i1747466411053_87_0_1.jpg","https://xcimg.szwego.com/img/102e1c0f/20250517/i1747466411030_292_0_2.jpg","https://xcimg.szwego.com/img/102e1c0f/20250517/i1747466411034_7526_0_3.jpg"],"created_at":"2025-08-03T05:43:10.104Z"},{"id":"item-647e45c661a0","sku":"_dCFCFxxh63pZmI3SLOcdBdZFwKHhVmGudSzhkgQ","name_en":"专柜品质,顶级原单货,实物实拍!768248啡胶/荧光橙~尺寸:宽11x高7,出货啦!💰","name_cn":"专柜品质,顶级原单货,实物实拍!768248啡胶/荧光橙~尺寸:宽11x高7,出货啦!💰","specs":{"source":"wsxcme","sourceId":"_dCFCFxxh63pZmI3SLOcdBdZFwKHhVmGudSzhkgQ","sourceTagId":47002663,"sourceTagName":"长短款钱包","rawTitle":"专柜品质,顶级原单货,实物实拍!768248啡胶/荧光橙~尺寸:宽11x高7,出货啦!💰"},"price":null,"currency":"CNY","moq":1,"category":"women-wallets","status":"active","alibaba_url":null,"images":["https://xcimg.szwego.com/img/102e1c0f/20250517/i1747466398308_2347_0_0.jpg","https://xcimg.szwego.com/img/102e1c0f/20250517/i1747466398301_6523_0_1.jpg","https://xcimg.szwego.com/img/102e1c0f/20250517/i1747466398278_9800_0_2.jpg","https://xcimg.szwego.com/img/102e1c0f/20250517/i1747466398308_1118_0_3.jpg"],"created_at":"2025-08-03T05:43:10.103Z"},{"id":"item-3835d7e1946b","sku":"_ddtdt6BHbqpgRnY703auky7J9VRnItSyMMk1juw","name_en":"专柜品质,顶级原单货,实物实拍!768248啡胶/荧光绿~尺寸:宽11x高7,出货啦!💰","name_cn":"专柜品质,顶级原单货,实物实拍!768248啡胶/荧光绿~尺寸:宽11x高7,出货啦!💰","specs":{"source":"wsxcme","sourceId":"_ddtdt6BHbqpgRnY703auky7J9VRnItSyMMk1juw","sourceTagId":47002663,"sourceTagName":"长短款钱包","rawTitle":"专柜品质,顶级原单货,实物实拍!768248啡胶/荧光绿~尺寸:宽11x高7,出货啦!💰"},"price":null,"currency":"CNY","moq":1,"category":"women-wallets","status":"active","alibaba_url":null,"images":["https://xcimg.szwego.com/img/102e1c0f/20250517/i1747466354524_385_0_0.jpg","https://xcimg.szwego.com/img/102e1c0f/20250517/i1747466354530_2107_0_1.jpg","https://xcimg.szwego.com/img/102e1c0f/20250517/i1747466354567_2684_0_2.jpg","https://xcimg.szwego.com/img/102e1c0f/20250517/i1747466354531_8529_0_3.jpg"],"created_at":"2025-08-03T05:43:10.102Z"},{"id":"item-a7c119a8f90e","sku":"_dvYvYKg9aAyrKxjhSIiQXUC2uCdJ67AuntQ4QfQ","name_en":"专柜品质,顶级原单货,实物实拍!768243啡胶/荧光玫,尺寸:宽11x高9,出货啦!💰","name_cn":"专柜品质,顶级原单货,实物实拍!768243啡胶/荧光玫,尺寸:宽11x高9,出货啦!💰","specs":{"source":"wsxcme","sourceId":"_dvYvYKg9aAyrKxjhSIiQXUC2uCdJ67AuntQ4QfQ","sourceTagId":47002663,"sourceTagName":"长短款钱包","rawTitle":"专柜品质,顶级原单货,实物实拍!768243啡胶/荧光玫,尺寸:宽11x高9,出货啦!💰"},"price":null,"currency":"CNY","moq":1,"category":"women-wallets","status":"active","alibaba_url":null,"images":["https://xcimg.szwego.com/img/102e1c0f/20250517/i1747466235167_3968_0_0.jpg","https://xcimg.szwego.com/img/102e1c0f/20250517/i1747466235112_2398_0_1.jpg","https://xcimg.szwego.com/img/102e1c0f/20250517/i1747466234851_8189_0_2.jpg","https://xcimg.szwego.com/img/102e1c0f/20250517/i1747466235146_2222_0_3.jpg"],"created_at":"2025-08-03T05:43:10.101Z"},{"id":"item-86a4a900942d","sku":"_dgqgqoup0MetnS-IPvwZGPzb7akiqoG0_IYP2Zw","name_en":"专柜品质,顶级原单货,实物实拍!768243啡胶/荧光橙,尺寸:宽11x高9,出货啦!💰","name_cn":"专柜品质,顶级原单货,实物实拍!768243啡胶/荧光橙,尺寸:宽11x高9,出货啦!💰","specs":{"source":"wsxcme","sourceId":"_dgqgqoup0MetnS-IPvwZGPzb7akiqoG0_IYP2Zw","sourceTagId":47002663,"sourceTagName":"长短款钱包","rawTitle":"专柜品质,顶级原单货,实物实拍!768243啡胶/荧光橙,尺寸:宽11x高9,出货啦!💰"},"price":null,"currency":"CNY","moq":1,"category":"women-wallets","status":"active","alibaba_url":null,"images":["https://xcimg.szwego.com/img/102e1c0f/20250517/i1747466218951_8251_0_0.jpg","https://xcimg.szwego.com/img/102e1c0f/20250517/i1747466218961_8103_0_1.jpg","https://xcimg.szwego.com/img/102e1c0f/20250517/i1747466218882_6720_0_2.jpg","https://xcimg.szwego.com/img/102e1c0f/20250517/i1747466218905_4552_0_3.jpg"],"created_at":"2025-08-03T05:43:10.100Z"},{"id":"item-0bf94a08dcbd","sku":"_doUoUsyVcDZwjmPhnnD5KzNCxquRhsLnSwHHMHw","name_en":"专柜品质,顶级原单货,实物实拍!768243啡胶/荧光绿,尺寸:宽11x高9,出货啦!💰","name_cn":"专柜品质,顶级原单货,实物实拍!768243啡胶/荧光绿,尺寸:宽11x高9,出货啦!💰","specs":{"source":"wsxcme","sourceId":"_doUoUsyVcDZwjmPhnnD5KzNCxquRhsLnSwHHMHw","sourceTagId":47002663,"sourceTagName":"长短款钱包","rawTitle":"专柜品质,顶级原单货,实物实拍!768243啡胶/荧光绿,尺寸:宽11x高9,出货啦!💰"},"price":null,"currency":"CNY","moq":1,"category":"women-wallets","status":"active","alibaba_url":null,"images":["https://xcimg.szwego.com/img/102e1c0f/20250517/i1747466181041_2944_0_0.jpg","https://xcimg.szwego.com/img/102e1c0f/20250517/i1747466181074_3374_0_1.jpg","https://xcimg.szwego.com/img/102e1c0f/20250517/i1747466181089_4667_0_2.jpg","https://xcimg.szwego.com/img/102e1c0f/20250517/i1747466181083_9543_0_3.jpg"],"created_at":"2025-08-03T05:43:10.099Z"},{"id":"item-89ad31e4a9d7","sku":"_dvEvERokKi4ctpfpvyABUdRHX2ea9quZNCbbKBg","name_en":"专柜品质,顶级原单货,实物实拍!768249啡胶/荧光玫~尺寸:宽7.5x高12,出货啦!💰","name_cn":"专柜品质,顶级原单货,实物实拍!768249啡胶/荧光玫~尺寸:宽7.5x高12,出货啦!💰","specs":{"source":"wsxcme","sourceId":"_dvEvERokKi4ctpfpvyABUdRHX2ea9quZNCbbKBg","sourceTagId":47002663,"sourceTagName":"长短款钱包","rawTitle":"专柜品质,顶级原单货,实物实拍!768249啡胶/荧光玫~尺寸:宽7.5x高12,出货啦!💰"},"price":null,"currency":"CNY","moq":1,"category":"women-wallets","status":"active","alibaba_url":null,"images":["https://xcimg.szwego.com/img/102e1c0f/20250517/i1747466117614_128_0_0.jpg","https://xcimg.szwego.com/img/102e1c0f/20250517/i1747466117704_4533_0_1.jpg","https://xcimg.szwego.com/img/102e1c0f/20250517/i1747466117664_7527_0_2.jpg","https://xcimg.szwego.com/img/102e1c0f/20250517/i1747466117615_6170_0_3.jpg"],"created_at":"2025-08-03T05:43:10.098Z"},{"id":"item-b1079e22e5e4","sku":"_deeeexuek2jmEauNwALemrvEpakHVo6wojbqSOw","name_en":"专柜品质,顶级原单货,实物实拍!768249啡胶/荧光橙~尺寸:宽7.5x高12,出货啦!💰","name_cn":"专柜品质,顶级原单货,实物实拍!768249啡胶/荧光橙~尺寸:宽7.5x高12,出货啦!💰","specs":{"source":"wsxcme","sourceId":"_deeeexuek2jmEauNwALemrvEpakHVo6wojbqSOw","sourceTagId":47002663,"sourceTagName":"长短款钱包","rawTitle":"专柜品质,顶级原单货,实物实拍!768249啡胶/荧光橙~尺寸:宽7.5x高12,出货啦!💰"},"price":null,"currency":"CNY","moq":1,"category":"women-wallets","status":"active","alibaba_url":null,"images":["https://xcimg.szwego.com/img/102e1c0f/20250517/i1747466032633_1083_0_0.jpg","https://xcimg.szwego.com/img/102e1c0f/20250517/i1747466032642_7893_0_1.jpg","https://xcimg.szwego.com/img/102e1c0f/20250517/i1747466032640_3849_0_2.jpg","https://xcimg.szwego.com/img/102e1c0f/20250517/i1747465803251_2158_0_9.jpg"],"created_at":"2025-08-03T05:43:10.097Z"},{"id":"item-f1994fabd321","sku":"_dp-p-FBbLZq2lxfSVhl7Q47LdsyQUrmmPkZCLug","name_en":"专柜品质,顶级原单货,实物实拍!768249啡胶/荧光绿~尺寸:宽7.5x高12,出货啦!💰","name_cn":"专柜品质,顶级原单货,实物实拍!768249啡胶/荧光绿~尺寸:宽7.5x高12,出货啦!💰","specs":{"source":"wsxcme","sourceId":"_dp-p-FBbLZq2lxfSVhl7Q47LdsyQUrmmPkZCLug","sourceTagId":47002663,"sourceTagName":"长短款钱包","rawTitle":"专柜品质,顶级原单货,实物实拍!768249啡胶/荧光绿~尺寸:宽7.5x高12,出货啦!💰"},"price":null,"currency":"CNY","moq":1,"category":"women-wallets","status":"active","alibaba_url":null,"images":["https://xcimg.szwego.com/img/102e1c0f/20250517/i1747465881265_1178_0_0.jpg","https://xcimg.szwego.com/img/102e1c0f/20250517/i1747465881284_922_0_1.jpg","https://xcimg.szwego.com/img/102e1c0f/20250517/i1747465881284_6681_0_2.jpg","https://xcimg.szwego.com/img/102e1c0f/20250517/i1747465880993_4419_0_3.jpg"],"created_at":"2025-08-03T05:43:10.096Z"},{"id":"item-41cd5526a3fa","sku":"_dLGLG4X4h3T-mkWchJL5qFWLzoBrfejCPqY73ag","name_en":"Women Wallets","name_cn":"长短款钱包","specs":{"source":"wsxcme","sourceId":"_dLGLG4X4h3T-mkWchJL5qFWLzoBrfejCPqY73ag","sourceTagId":47002663,"sourceTagName":"长短款钱包","rawTitle":""},"price":null,"currency":"CNY","moq":1,"category":"women-wallets","status":"active","alibaba_url":null,"images":["https://xcimg.szwego.com/img/89eaffab/20250714/i1752483649209_3791_0_0.jpg"],"created_at":"2025-07-31T08:04:28.178Z"},{"id":"item-753fe5220ce9","sku":"_dmGmGSa17XmuwqiCG8ziTiWMO4HQvKwVpWhJ02g","name_en":"Women Wallets","name_cn":"正品级\n 【顶级原单】M14967👏👏“城市之春”系列中登场的“波特福伊·维克多莉娜”。以双色完成的经典项目,以庄园更新的单体图案着色。具有多个可收纳纸币、硬币、卡片的隔间,紧凑尺寸的时尚皮革饰品适合日常使用。金色金属配件增添了永恒的印象。尺寸:12 x 9.5 x 2.5厘米。🎁🎁","specs":{"source":"wsxcme","sourceId":"_dmGmGSa17XmuwqiCG8ziTiWMO4HQvKwVpWhJ02g","sourceTagId":47002663,"sourceTagName":"长短款钱包","dimensions":{"lengthCm":12,"heightCm":9.5,"widthCm":2.5},"rawTitle":"正品级\n 【顶级原单】M14967👏👏“城市之春”系列中登场的“波特福伊·维克多莉娜”。以双色完成的经典项目,以庄园更新的单体图案着色。具有多个可收纳纸币、硬币、卡片的隔间,紧凑尺寸的时尚皮革饰品适合日常使用。金色金属配件增添了永恒的印象。尺寸:12 x 9.5 x 2.5厘米。🎁🎁"},"price":null,"currency":"CNY","moq":1,"category":"women-wallets","status":"active","alibaba_url":null,"images":["https://xcimg.szwego.com/img/89eaffab/20250714/i1752483631421_1349_0_1.jpg","https://xcimg.szwego.com/img/89eaffab/20250714/i1752483631509_6832_0_2.jpg","https://xcimg.szwego.com/img/89eaffab/20250714/i1752483630522_6731_0_3.jpg","https://xcimg.szwego.com/img/89eaffab/20250714/i1752483630317_3312_0_4.jpg","https://xcimg.szwego.com/img/89eaffab/20250714/i1752483631456_7714_0_5.jpg","https://xcimg.szwego.com/img/89eaffab/20250714/i1752483630532_6123_0_6.jpg","https://xcimg.szwego.com/img/89eaffab/20250714/i1752483630456_8888_0_7.jpg","https://xcimg.szwego.com/img/89eaffab/20250714/i1752483630472_4326_0_8.jpg"],"created_at":"2025-07-31T08:04:28.177Z"},{"id":"item-8d70debe3e41","sku":"_dvGvGp9ZqQRa4LedTtZ5PKffNUYQV4eibJ1GcPQ","name_en":"Women Wallets","name_cn":"正品级\n 【顶级原单】M22399👏👏用双色完成的“波尔图·克莱尔”。以本季特有的同系颜色重新诠释的象征着庄园的单体无植入皮革设计,看起来很美。这款紧凑型配件配有金色饰品,配有多个口袋和隔间,尺寸:11 x 8.5 x 3.5厘米。🎁🎁","specs":{"source":"wsxcme","sourceId":"_dvGvGp9ZqQRa4LedTtZ5PKffNUYQV4eibJ1GcPQ","sourceTagId":47002663,"sourceTagName":"长短款钱包","dimensions":{"lengthCm":11,"heightCm":8.5,"widthCm":3.5},"rawTitle":"正品级\n 【顶级原单】M22399👏👏用双色完成的“波尔图·克莱尔”。以本季特有的同系颜色重新诠释的象征着庄园的单体无植入皮革设计,看起来很美。这款紧凑型配件配有金色饰品,配有多个口袋和隔间,尺寸:11 x 8.5 x 3.5厘米。🎁🎁"},"price":null,"currency":"CNY","moq":1,"category":"women-wallets","status":"active","alibaba_url":null,"images":["https://xcimg.szwego.com/img/89eaffab/20250714/i1752483585487_5886_0_1.jpg","https://xcimg.szwego.com/img/89eaffab/20250714/i1752483586555_183_0_2.jpg","https://xcimg.szwego.com/img/89eaffab/20250714/i1752483586456_7540_0_3.jpg","https://xcimg.szwego.com/img/89eaffab/20250714/i1752483586498_5074_0_4.jpg","https://xcimg.szwego.com/img/89eaffab/20250714/i1752483585401_3687_0_5.jpg","https://xcimg.szwego.com/img/89eaffab/20250714/i1752483586413_6434_0_7.jpg"],"created_at":"2025-07-31T08:04:28.176Z"},{"id":"item-de546e1a5055","sku":"_dw9w9W_J8JY9-0m_waEcYw22JPbzzKh5PVb0wuA","name_en":"Women Wallets","name_cn":"正品级\n 【顶级原单】M14563👏👏随着时间的流逝,使用更加柔韧的皮革制作的双色“ジッピー・コインパース”。紧凑型且具备多个可收纳日常必需品的口袋、插槽和隔间的这种功能性极强、功能性极强的设计魅力所在。尺寸:11 x 8.5 x 2厘米。🎁🎁","specs":{"source":"wsxcme","sourceId":"_dw9w9W_J8JY9-0m_waEcYw22JPbzzKh5PVb0wuA","sourceTagId":47002663,"sourceTagName":"长短款钱包","dimensions":{"lengthCm":11,"heightCm":8.5,"widthCm":2},"rawTitle":"正品级\n 【顶级原单】M14563👏👏随着时间的流逝,使用更加柔韧的皮革制作的双色“ジッピー・コインパース”。紧凑型且具备多个可收纳日常必需品的口袋、插槽和隔间的这种功能性极强、功能性极强的设计魅力所在。尺寸:11 x 8.5 x 2厘米。🎁🎁"},"price":null,"currency":"CNY","moq":1,"category":"women-wallets","status":"active","alibaba_url":null,"images":["https://xcimg.szwego.com/img/89eaffab/20250714/i1752483553710_5738_0_1.jpg","https://xcimg.szwego.com/img/89eaffab/20250714/i1752483554545_2349_0_2.jpg","https://xcimg.szwego.com/img/89eaffab/20250714/i1752483553629_7528_0_4.jpg","https://xcimg.szwego.com/img/89eaffab/20250714/i1752483553591_5840_0_5.jpg"],"created_at":"2025-07-31T08:04:28.175Z"},{"id":"item-7e71852d256f","sku":"_do_o_r3esZ0hG_fCIc_ubtfjv0x8BQ1_bw0ebqw","name_en":"Women Wallets","name_cn":"正品级\n 【顶级原单】M13644👏🏻👏🏻适合路易·维顿的图标,本赛季特有的双色吸引眼球的“吉普提钱包”。在皮革上采用了用对比度的同系色表现出来的单体图案,以经典的金色装饰了精致的圆形拉链风格的开口部。尺寸:19.5 x 10.5 x 2.5厘米。🎁🎁","specs":{"source":"wsxcme","sourceId":"_do_o_r3esZ0hG_fCIc_ubtfjv0x8BQ1_bw0ebqw","sourceTagId":47002663,"sourceTagName":"长短款钱包","dimensions":{"lengthCm":19.5,"heightCm":10.5,"widthCm":2.5},"rawTitle":"正品级\n 【顶级原单】M13644👏🏻👏🏻适合路易·维顿的图标,本赛季特有的双色吸引眼球的“吉普提钱包”。在皮革上采用了用对比度的同系色表现出来的单体图案,以经典的金色装饰了精致的圆形拉链风格的开口部。尺寸:19.5 x 10.5 x 2.5厘米。🎁🎁"},"price":null,"currency":"CNY","moq":1,"category":"women-wallets","status":"active","alibaba_url":null,"images":["https://xcimg.szwego.com/img/89eaffab/20250714/i1752483491270_7235_0_2.jpg","https://xcimg.szwego.com/img/89eaffab/20250714/i1752483490293_9948_0_8.jpg","https://xcimg.szwego.com/img/89eaffab/20250714/i1752483490307_2594_0_4.jpg","https://xcimg.szwego.com/img/89eaffab/20250714/i1752483491288_3334_0_5.jpg","https://xcimg.szwego.com/img/89eaffab/20250714/i1752483490202_2591_0_6.jpg","https://xcimg.szwego.com/img/89eaffab/20250714/i1752483490360_6912_0_7.jpg"],"created_at":"2025-07-31T08:04:28.174Z"},{"id":"item-0934e9f62284","sku":"_dV0V0_aoRg2ZtvidujDG9Hj8Zl4h63V9eGoakJA","name_en":"💰 CHANEL   小香风琴卡包[色]这款卡包与普通卡包不同,一个风琴设计[爱心]可以很轻易的就看到每一张卡并且不用费力抠出来.整个卡包一共有六个卡槽,其中四个卡槽可以放很多张卡😘😘😘实在太好看了款号A尺寸10.4×7×2cm颜色如图","name_cn":"💰 CHANEL   小香风琴卡包[色]这款卡包与普通卡包不同,一个风琴设计[爱心]可以很轻易的就看到每一张卡并且不用费力抠出来.整个卡包一共有六个卡槽,其中四个卡槽可以放很多张卡😘😘😘实在太好看了款号A尺寸10.4×7×2cm颜色如图","specs":{"source":"wsxcme","sourceId":"_dV0V0_aoRg2ZtvidujDG9Hj8Zl4h63V9eGoakJA","sourceTagId":47002663,"sourceTagName":"长短款钱包","modelNumber":"A尺寸10.4×7×2cm颜色如图","dimensions":{"lengthCm":10.4,"heightCm":7,"widthCm":2},"rawTitle":"💰 CHANEL   小香风琴卡包[色]这款卡包与普通卡包不同,一个风琴设计[爱心]可以很轻易的就看到每一张卡并且不用费力抠出来.整个卡包一共有六个卡槽,其中四个卡槽可以放很多张卡😘😘😘实在太好看了款号A尺寸10.4×7×2cm颜色如图"},"price":null,"currency":"CNY","moq":1,"category":"women-wallets","status":"active","alibaba_url":null,"images":["https://xcimg.szwego.com/imgHD/80e46a01/20250321/cmp_i1742537812392_301_0_0.jpg","https://xcimg.szwego.com/imgHD/80e46a01/20250321/cmp_i1742537812441_290_0_1.jpg","https://xcimg.szwego.com/imgHD/80e46a01/20250321/cmp_i1742537812426_7176_0_2.jpg","https://xcimg.szwego.com/imgHD/80e46a01/20250321/cmp_i1742537809933_583_0_3.jpg","https://xcimg.szwego.com/imgHD/80e46a01/20250321/cmp_i1742537809397_5333_0_4.jpg","https://xcimg.szwego.com/imgHD/80e46a01/20250321/cmp_i1742537809907_4974_0_5.jpg","https://xcimg.szwego.com/imgHD/80e46a01/20250321/cmp_i1742537809896_5592_0_6.jpg","https://xcimg.szwego.com/imgHD/80e46a01/20250321/cmp_i1742537812426_5014_0_7.jpg","https://xcimg.szwego.com/imgHD/80e46a01/20250321/cmp_i1742537809400_3174_0_8.jpg"],"created_at":"2025-07-31T08:03:40.866Z"},{"id":"item-a37da564ee14","sku":"_dmqmq89_JFAsLykFn7u-4dOwb5oR1BoK4iXKZ1A","name_en":"💰 CHANEL   小香风琴卡包[色]这款卡包与普通卡包不同,一个风琴设计[爱心]可以很轻易的就看到每一张卡并且不用费力抠出来.整个卡包一共有六个卡槽,其中四个卡槽可以放很多张卡😘😘😘实在太好看了款号A尺寸10.4×7×2cm颜色如图","name_cn":"💰 CHANEL   小香风琴卡包[色]这款卡包与普通卡包不同,一个风琴设计[爱心]可以很轻易的就看到每一张卡并且不用费力抠出来.整个卡包一共有六个卡槽,其中四个卡槽可以放很多张卡😘😘😘实在太好看了款号A尺寸10.4×7×2cm颜色如图","specs":{"source":"wsxcme","sourceId":"_dmqmq89_JFAsLykFn7u-4dOwb5oR1BoK4iXKZ1A","sourceTagId":47002663,"sourceTagName":"长短款钱包","modelNumber":"A尺寸10.4×7×2cm颜色如图","dimensions":{"lengthCm":10.4,"heightCm":7,"widthCm":2},"rawTitle":"💰 CHANEL   小香风琴卡包[色]这款卡包与普通卡包不同,一个风琴设计[爱心]可以很轻易的就看到每一张卡并且不用费力抠出来.整个卡包一共有六个卡槽,其中四个卡槽可以放很多张卡😘😘😘实在太好看了款号A尺寸10.4×7×2cm颜色如图"},"price":null,"currency":"CNY","moq":1,"category":"women-wallets","status":"active","alibaba_url":null,"images":["https://xcimg.szwego.com/imgHD/80e46a01/20250321/cmp_i1742537792008_7630_0_0.jpg","https://xcimg.szwego.com/imgHD/80e46a01/20250321/cmp_i1742537789296_4846_0_1.jpg","https://xcimg.szwego.com/imgHD/80e46a01/20250321/cmp_i1742537789267_66_0_2.jpg","https://xcimg.szwego.com/imgHD/80e46a01/20250321/cmp_i1742537792004_8401_0_3.jpg","https://xcimg.szwego.com/imgHD/80e46a01/20250321/cmp_i1742537788811_1396_0_4.jpg","https://xcimg.szwego.com/imgHD/80e46a01/20250321/cmp_i1742537789316_4064_0_5.jpg","https://xcimg.szwego.com/imgHD/80e46a01/20250321/cmp_i1742537791973_2468_0_6.jpg","https://xcimg.szwego.com/imgHD/80e46a01/20250321/cmp_i1742537791978_1853_0_7.jpg","https://xcimg.szwego.com/imgHD/80e46a01/20250321/cmp_i1742537788811_900_0_8.jpg"],"created_at":"2025-07-31T08:03:40.865Z"},{"id":"item-2ae36c9b4724","sku":"_diHiH0UoL2RnBr924KOB9fhkuc-2ErhXTPVSdhw","name_en":"💰 CHANEL   小香风琴卡包[色]这款卡包与普通卡包不同,一个风琴设计[爱心]可以很轻易的就看到每一张卡并且不用费力抠出来.整个卡包一共有六个卡槽,其中四个卡槽可以放很多张卡😘😘😘实在太好看了款号A尺寸10.4×7×2cm颜色如图","name_cn":"💰 CHANEL   小香风琴卡包[色]这款卡包与普通卡包不同,一个风琴设计[爱心]可以很轻易的就看到每一张卡并且不用费力抠出来.整个卡包一共有六个卡槽,其中四个卡槽可以放很多张卡😘😘😘实在太好看了款号A尺寸10.4×7×2cm颜色如图","specs":{"source":"wsxcme","sourceId":"_diHiH0UoL2RnBr924KOB9fhkuc-2ErhXTPVSdhw","sourceTagId":47002663,"sourceTagName":"长短款钱包","modelNumber":"A尺寸10.4×7×2cm颜色如图","dimensions":{"lengthCm":10.4,"heightCm":7,"widthCm":2},"rawTitle":"💰 CHANEL   小香风琴卡包[色]这款卡包与普通卡包不同,一个风琴设计[爱心]可以很轻易的就看到每一张卡并且不用费力抠出来.整个卡包一共有六个卡槽,其中四个卡槽可以放很多张卡😘😘😘实在太好看了款号A尺寸10.4×7×2cm颜色如图"},"price":null,"currency":"CNY","moq":1,"category":"women-wallets","status":"active","alibaba_url":null,"images":["https://xcimg.szwego.com/imgHD/80e46a01/20250321/cmp_i1742537770443_3650_0_0.jpg","https://xcimg.szwego.com/imgHD/80e46a01/20250321/cmp_i1742537770466_9978_0_1.jpg","https://xcimg.szwego.com/imgHD/80e46a01/20250321/cmp_i1742537768901_7914_0_2.jpg","https://xcimg.szwego.com/imgHD/80e46a01/20250321/cmp_i1742537770486_7686_0_3.jpg","https://xcimg.szwego.com/imgHD/80e46a01/20250321/cmp_i1742537768448_5934_0_4.jpg","https://xcimg.szwego.com/imgHD/80e46a01/20250321/cmp_i1742537768944_6110_0_5.jpg","https://xcimg.szwego.com/imgHD/80e46a01/20250321/cmp_i1742537770466_2933_0_6.jpg","https://xcimg.szwego.com/imgHD/80e46a01/20250321/cmp_i1742537768922_77_0_7.jpg","https://xcimg.szwego.com/imgHD/80e46a01/20250321/cmp_i1742537768449_8534_0_8.jpg"],"created_at":"2025-07-31T08:03:40.864Z"},{"id":"item-b07d97289c9e","sku":"_drjrjlUn127k26slofeUulaXJWfu7D78d1oGw4g","name_en":"💰 CHANEL   小香风琴卡包[色]这款卡包与普通卡包不同,一个风琴设计[爱心]可以很轻易的就看到每一张卡并且不用费力抠出来.整个卡包一共有六个卡槽,其中四个卡槽可以放很多张卡😘😘😘实在太好看了款号A尺寸10.4×7×2cm颜色如图","name_cn":"💰 CHANEL   小香风琴卡包[色]这款卡包与普通卡包不同,一个风琴设计[爱心]可以很轻易的就看到每一张卡并且不用费力抠出来.整个卡包一共有六个卡槽,其中四个卡槽可以放很多张卡😘😘😘实在太好看了款号A尺寸10.4×7×2cm颜色如图","specs":{"source":"wsxcme","sourceId":"_drjrjlUn127k26slofeUulaXJWfu7D78d1oGw4g","sourceTagId":47002663,"sourceTagName":"长短款钱包","modelNumber":"A尺寸10.4×7×2cm颜色如图","dimensions":{"lengthCm":10.4,"heightCm":7,"widthCm":2},"rawTitle":"💰 CHANEL   小香风琴卡包[色]这款卡包与普通卡包不同,一个风琴设计[爱心]可以很轻易的就看到每一张卡并且不用费力抠出来.整个卡包一共有六个卡槽,其中四个卡槽可以放很多张卡😘😘😘实在太好看了款号A尺寸10.4×7×2cm颜色如图"},"price":null,"currency":"CNY","moq":1,"category":"women-wallets","status":"active","alibaba_url":null,"images":["https://xcimg.szwego.com/imgHD/80e46a01/20250321/cmp_i1742537747936_2195_0_0.jpg","https://xcimg.szwego.com/imgHD/80e46a01/20250321/cmp_i1742537750251_6940_0_1.jpg","https://xcimg.szwego.com/imgHD/80e46a01/20250321/cmp_i1742537747920_7624_0_2.jpg","https://xcimg.szwego.com/imgHD/80e46a01/20250321/cmp_i1742537747910_4312_0_3.jpg","https://xcimg.szwego.com/imgHD/80e46a01/20250321/cmp_i1742537747432_8048_0_4.jpg","https://xcimg.szwego.com/imgHD/80e46a01/20250321/cmp_i1742537750238_4738_0_5.jpg","https://xcimg.szwego.com/imgHD/80e46a01/20250321/cmp_i1742537750231_7689_0_6.jpg","https://xcimg.szwego.com/imgHD/80e46a01/20250321/cmp_i1742537747944_9166_0_7.jpg","https://xcimg.szwego.com/imgHD/80e46a01/20250321/cmp_i1742537749845_3852_0_8.jpg"],"created_at":"2025-07-31T08:03:40.863Z"},{"id":"item-ef7ca552acc8","sku":"_dr0r0Pvw7ocAu7i_IKuBcsGVVf0NoEkSAwpRz8g","name_en":"💰 CHANEL   小香风琴卡包[色]这款卡包与普通卡包不同,一个风琴设计[爱心]可以很轻易的就看到每一张卡并且不用费力抠出来.整个卡包一共有六个卡槽,其中四个卡槽可以放很多张卡😘😘😘实在太好看了款号A尺寸10.4×7×2cm颜色如图","name_cn":"💰 CHANEL   小香风琴卡包[色]这款卡包与普通卡包不同,一个风琴设计[爱心]可以很轻易的就看到每一张卡并且不用费力抠出来.整个卡包一共有六个卡槽,其中四个卡槽可以放很多张卡😘😘😘实在太好看了款号A尺寸10.4×7×2cm颜色如图","specs":{"source":"wsxcme","sourceId":"_dr0r0Pvw7ocAu7i_IKuBcsGVVf0NoEkSAwpRz8g","sourceTagId":47002663,"sourceTagName":"长短款钱包","modelNumber":"A尺寸10.4×7×2cm颜色如图","dimensions":{"lengthCm":10.4,"heightCm":7,"widthCm":2},"rawTitle":"💰 CHANEL   小香风琴卡包[色]这款卡包与普通卡包不同,一个风琴设计[爱心]可以很轻易的就看到每一张卡并且不用费力抠出来.整个卡包一共有六个卡槽,其中四个卡槽可以放很多张卡😘😘😘实在太好看了款号A尺寸10.4×7×2cm颜色如图"},"price":null,"currency":"CNY","moq":1,"category":"women-wallets","status":"active","alibaba_url":null,"images":["https://xcimg.szwego.com/imgHD/80e46a01/20250321/cmp_i1742537725177_3790_0_0.jpg","https://xcimg.szwego.com/imgHD/80e46a01/20250321/cmp_i1742537727145_4921_0_1.jpg","https://xcimg.szwego.com/imgHD/80e46a01/20250321/cmp_i1742537725201_4373_0_2.jpg","https://xcimg.szwego.com/imgHD/80e46a01/20250321/cmp_i1742537727098_7133_0_3.jpg","https://xcimg.szwego.com/imgHD/80e46a01/20250321/cmp_i1742537724650_9892_0_4.jpg","https://xcimg.szwego.com/imgHD/80e46a01/20250321/cmp_i1742537725228_4939_0_5.jpg","https://xcimg.szwego.com/imgHD/80e46a01/20250321/cmp_i1742537727144_8769_0_6.jpg","https://xcimg.szwego.com/imgHD/80e46a01/20250321/cmp_i1742537725199_5839_0_7.jpg","https://xcimg.szwego.com/imgHD/80e46a01/20250321/cmp_i1742537726725_4104_0_8.jpg"],"created_at":"2025-07-31T08:03:40.862Z"},{"id":"item-9ef9298e66bd","sku":"_djMjMMhtWho-djmw9eYa-KEm7NnyTyT9FCDW40A","name_en":"💰 CHANEL   小香风琴卡包[色]这款卡包与普通卡包不同,一个风琴设计[爱心]可以很轻易的就看到每一张卡并且不用费力抠出来.整个卡包一共有六个卡槽,其中四个卡槽可以放很多张卡😘😘😘实在太好看了款号A尺寸10.4×7×2cm颜色如图","name_cn":"💰 CHANEL   小香风琴卡包[色]这款卡包与普通卡包不同,一个风琴设计[爱心]可以很轻易的就看到每一张卡并且不用费力抠出来.整个卡包一共有六个卡槽,其中四个卡槽可以放很多张卡😘😘😘实在太好看了款号A尺寸10.4×7×2cm颜色如图","specs":{"source":"wsxcme","sourceId":"_djMjMMhtWho-djmw9eYa-KEm7NnyTyT9FCDW40A","sourceTagId":47002663,"sourceTagName":"长短款钱包","modelNumber":"A尺寸10.4×7×2cm颜色如图","dimensions":{"lengthCm":10.4,"heightCm":7,"widthCm":2},"rawTitle":"💰 CHANEL   小香风琴卡包[色]这款卡包与普通卡包不同,一个风琴设计[爱心]可以很轻易的就看到每一张卡并且不用费力抠出来.整个卡包一共有六个卡槽,其中四个卡槽可以放很多张卡😘😘😘实在太好看了款号A尺寸10.4×7×2cm颜色如图"},"price":null,"currency":"CNY","moq":1,"category":"women-wallets","status":"active","alibaba_url":null,"images":["https://xcimg.szwego.com/imgHD/80e46a01/20250321/cmp_i1742537700205_6265_0_0.jpg","https://xcimg.szwego.com/imgHD/80e46a01/20250321/cmp_i1742537700178_8711_0_1.jpg","https://xcimg.szwego.com/imgHD/80e46a01/20250321/cmp_i1742537700170_1202_0_2.jpg","https://xcimg.szwego.com/imgHD/80e46a01/20250321/cmp_i1742537700188_3140_0_3.jpg","https://xcimg.szwego.com/imgHD/80e46a01/20250321/cmp_i1742537701976_7174_0_4.jpg","https://xcimg.szwego.com/imgHD/80e46a01/20250321/cmp_i1742537702393_1077_0_6.jpg","https://xcimg.szwego.com/imgHD/80e46a01/20250321/cmp_i1742537702390_164_0_7.jpg","https://xcimg.szwego.com/imgHD/80e46a01/20250321/cmp_i1742537699617_4104_0_8.jpg"],"created_at":"2025-07-31T08:03:40.861Z"},{"id":"item-054f8f5bcf5f","sku":"_dptptVukhU2f3P9-Rbf832SCZFJsDoOn1hD-DUA","name_en":"💰 CHANEL   小香风琴卡包[色]这款卡包与普通卡包不同,一个风琴设计[爱心]可以很轻易的就看到每一张卡并且不用费力抠出来.整个卡包一共有六个卡槽,其中四个卡槽可以放很多张卡😘😘😘实在太好看了款号A尺寸10.4×7×2cm颜色如图","name_cn":"💰 CHANEL   小香风琴卡包[色]这款卡包与普通卡包不同,一个风琴设计[爱心]可以很轻易的就看到每一张卡并且不用费力抠出来.整个卡包一共有六个卡槽,其中四个卡槽可以放很多张卡😘😘😘实在太好看了款号A尺寸10.4×7×2cm颜色如图","specs":{"source":"wsxcme","sourceId":"_dptptVukhU2f3P9-Rbf832SCZFJsDoOn1hD-DUA","sourceTagId":47002663,"sourceTagName":"长短款钱包","modelNumber":"A尺寸10.4×7×2cm颜色如图","dimensions":{"lengthCm":10.4,"heightCm":7,"widthCm":2},"rawTitle":"💰 CHANEL   小香风琴卡包[色]这款卡包与普通卡包不同,一个风琴设计[爱心]可以很轻易的就看到每一张卡并且不用费力抠出来.整个卡包一共有六个卡槽,其中四个卡槽可以放很多张卡😘😘😘实在太好看了款号A尺寸10.4×7×2cm颜色如图"},"price":null,"currency":"CNY","moq":1,"category":"women-wallets","status":"active","alibaba_url":null,"images":["https://xcimg.szwego.com/imgHD/80e46a01/20250321/cmp_i1742537669665_7571_0_0.jpg","https://xcimg.szwego.com/imgHD/80e46a01/20250321/cmp_i1742537672086_5005_0_1.jpg","https://xcimg.szwego.com/imgHD/80e46a01/20250321/cmp_i1742537669686_6567_0_2.jpg","https://xcimg.szwego.com/imgHD/80e46a01/20250321/cmp_i1742537669676_7333_0_3.jpg","https://xcimg.szwego.com/imgHD/80e46a01/20250321/cmp_i1742537671758_3457_0_4.jpg","https://xcimg.szwego.com/imgHD/80e46a01/20250321/cmp_i1742537672110_8833_0_5.jpg","https://xcimg.szwego.com/imgHD/80e46a01/20250321/cmp_i1742537669712_8004_0_6.jpg","https://xcimg.szwego.com/imgHD/80e46a01/20250321/cmp_i1742537669664_8935_0_7.jpg","https://xcimg.szwego.com/imgHD/80e46a01/20250321/cmp_i1742537671751_3016_0_8.jpg"],"created_at":"2025-07-31T08:03:40.860Z"},{"id":"item-dcce3ca32603","sku":"_dErErkFeDlf9fzqo5l9d3m2wjtjQFv7IdtO4cXQ","name_en":"💰 CHANEL   小香风琴卡包[色]这款卡包与普通卡包不同,一个风琴设计[爱心]可以很轻易的就看到每一张卡并且不用费力抠出来.整个卡包一共有六个卡槽,其中四个卡槽可以放很多张卡😘😘😘实在太好看了款号A尺寸10.4×7×2cm颜色如图","name_cn":"💰 CHANEL   小香风琴卡包[色]这款卡包与普通卡包不同,一个风琴设计[爱心]可以很轻易的就看到每一张卡并且不用费力抠出来.整个卡包一共有六个卡槽,其中四个卡槽可以放很多张卡😘😘😘实在太好看了款号A尺寸10.4×7×2cm颜色如图","specs":{"source":"wsxcme","sourceId":"_dErErkFeDlf9fzqo5l9d3m2wjtjQFv7IdtO4cXQ","sourceTagId":47002663,"sourceTagName":"长短款钱包","modelNumber":"A尺寸10.4×7×2cm颜色如图","dimensions":{"lengthCm":10.4,"heightCm":7,"widthCm":2},"rawTitle":"💰 CHANEL   小香风琴卡包[色]这款卡包与普通卡包不同,一个风琴设计[爱心]可以很轻易的就看到每一张卡并且不用费力抠出来.整个卡包一共有六个卡槽,其中四个卡槽可以放很多张卡😘😘😘实在太好看了款号A尺寸10.4×7×2cm颜色如图"},"price":null,"currency":"CNY","moq":1,"category":"women-wallets","status":"active","alibaba_url":null,"images":["https://xcimg.szwego.com/imgHD/80e46a01/20250321/cmp_i1742537649493_8399_0_0.jpg","https://xcimg.szwego.com/imgHD/80e46a01/20250321/cmp_i1742537646513_5661_0_1.jpg","https://xcimg.szwego.com/imgHD/80e46a01/20250321/cmp_i1742537649581_8545_0_2.jpg","https://xcimg.szwego.com/imgHD/80e46a01/20250321/cmp_i1742537649101_7338_0_4.jpg","https://xcimg.szwego.com/imgHD/80e46a01/20250321/cmp_i1742537646570_6335_0_5.jpg","https://xcimg.szwego.com/imgHD/80e46a01/20250321/cmp_i1742537646542_8328_0_6.jpg","https://xcimg.szwego.com/imgHD/80e46a01/20250321/cmp_i1742537649513_7667_0_7.jpg","https://xcimg.szwego.com/imgHD/80e46a01/20250321/cmp_i1742537645987_147_0_8.jpg"],"created_at":"2025-07-31T08:03:40.859Z"},{"id":"item-00507deaf4fd","sku":"_dHWHWskc8UYGM-fGA2EJe9ulFThftBra3uksoKg","name_en":"💰 CHANEL   小香风琴卡包[色]这款卡包与普通卡包不同,一个风琴设计[爱心]可以很轻易的就看到每一张卡并且不用费力抠出来.整个卡包一共有六个卡槽,其中四个卡槽可以放很多张卡😘😘😘实在太好看了款号A尺寸10.4×7×2cm颜色如图","name_cn":"💰 CHANEL   小香风琴卡包[色]这款卡包与普通卡包不同,一个风琴设计[爱心]可以很轻易的就看到每一张卡并且不用费力抠出来.整个卡包一共有六个卡槽,其中四个卡槽可以放很多张卡😘😘😘实在太好看了款号A尺寸10.4×7×2cm颜色如图","specs":{"source":"wsxcme","sourceId":"_dHWHWskc8UYGM-fGA2EJe9ulFThftBra3uksoKg","sourceTagId":47002663,"sourceTagName":"长短款钱包","modelNumber":"A尺寸10.4×7×2cm颜色如图","dimensions":{"lengthCm":10.4,"heightCm":7,"widthCm":2},"rawTitle":"💰 CHANEL   小香风琴卡包[色]这款卡包与普通卡包不同,一个风琴设计[爱心]可以很轻易的就看到每一张卡并且不用费力抠出来.整个卡包一共有六个卡槽,其中四个卡槽可以放很多张卡😘😘😘实在太好看了款号A尺寸10.4×7×2cm颜色如图"},"price":null,"currency":"CNY","moq":1,"category":"women-wallets","status":"active","alibaba_url":null,"images":["https://xcimg.szwego.com/imgHD/80e46a01/20250321/cmp_i1742537627879_1021_0_0.jpg","https://xcimg.szwego.com/imgHD/80e46a01/20250321/cmp_i1742537627936_3542_0_1.jpg","https://xcimg.szwego.com/imgHD/80e46a01/20250321/cmp_i1742537627927_9324_0_2.jpg","https://xcimg.szwego.com/imgHD/80e46a01/20250321/cmp_i1742537623671_1207_0_3.jpg","https://xcimg.szwego.com/imgHD/80e46a01/20250321/cmp_i1742537623270_6605_0_4.jpg","https://xcimg.szwego.com/imgHD/80e46a01/20250321/cmp_i1742537623719_9184_0_5.jpg","https://xcimg.szwego.com/imgHD/80e46a01/20250321/cmp_i1742537627903_3283_0_7.jpg","https://xcimg.szwego.com/imgHD/80e46a01/20250321/cmp_i1742537623268_9202_0_8.jpg"],"created_at":"2025-07-31T08:03:40.858Z"}],"page":7,"pageSize":24,"total":830,"totalPages":35}
