{"items":[{"id":"item-7278168d9ce6","sku":"_dq6q6mdACQDyIL-Wh9W9GpCAXozNOPTwQ_zgZHA","name_en":"M81153 Orange New Aerogram Brazza Wallet Emphasizing the delicate texture of grained calfskin, with a low-key metal letter brand stamp. Compartments and card slots hold cash, documents, and coins, matching the Aerogram series handbags. Dimensions: 10 x 19 x 2 cm","name_cn":"M81153 Orange New Aerogram Brazza Wallet Emphasizing the delicate texture of grained calfskin, with a low-key metal letter brand stamp. Compartments and card slots hold cash, documents, and coins, matching the Aerogram series handbags. Dimensions: 10 x 19 x 2 cm","specs":{"source":"wsxcme","sourceId":"_dq6q6mdACQDyIL-Wh9W9GpCAXozNOPTwQ_zgZHA","sourceTagId":47002663,"sourceTagName":"length","dimensions":{"lengthCm":10,"heightCm":19,"widthCm":2},"rawTitle":"M81153 Orange New Aerogram Brazza Wallet Emphasizing the delicate texture of grained calfskin, with a low-key metal letter brand stamp. Compartments and card slots hold cash, documents, and coins, matching the Aerogram series handbags. Dimensions: 10 x 19 x 2 cm"},"price":null,"currency":"CNY","moq":1,"category":"women-wallets","status":"active","alibaba_url":null,"images":["https://xcimg.szwego.com/20220316/i1647368398_5217_0.jpg","https://xcimg.szwego.com/20220316/i1647368398_721_1.jpg","https://xcimg.szwego.com/20220316/i1647368398_3216_2.jpg","https://xcimg.szwego.com/20220316/i1647368398_5955_3.jpg","https://xcimg.szwego.com/20220316/i1647368398_5543_4.jpg","https://xcimg.szwego.com/20220316/i1647368398_1163_5.jpg","https://xcimg.szwego.com/20220316/i1647368398_3095_6.jpg","https://xcimg.szwego.com/20220316/i1647368398_9771_7.jpg","https://xcimg.szwego.com/20220316/i1647368398_9334_8.jpg"],"created_at":"2024-05-08T09:49:54.847Z"},{"id":"item-4cd151cfe92c","sku":"_dqnqnLYGexPXlY-7ipQTT87XFnlvzcydbAOGUKQ","name_en":"Top-tier Original M66540 Heart Flower BRAZZA Wallet This Brazza wallet made of Monogram canvas exudes an unstoppable masculine aura. Spacious and fully functional, it easily fits into a coat pocket. Holds coins, credit cards, and bills. Dimensions: 10 x 19 x 2 cm","name_cn":"Top-tier Original M66540 Heart Flower BRAZZA Wallet This Brazza wallet made of Monogram canvas exudes an unstoppable masculine aura. Spacious and fully functional, it easily fits into a coat pocket. Holds coins, credit cards, and bills. Dimensions: 10 x 19 x 2 cm","specs":{"source":"wsxcme","sourceId":"_dqnqnLYGexPXlY-7ipQTT87XFnlvzcydbAOGUKQ","sourceTagId":47002663,"sourceTagName":"length","dimensions":{"lengthCm":10,"heightCm":19,"widthCm":2},"rawTitle":"Top-tier Original M66540 Heart Flower BRAZZA Wallet This Brazza wallet made of Monogram canvas exudes an unstoppable masculine aura. Spacious and fully functional, it easily fits into a coat pocket. Holds coins, credit cards, and bills. Dimensions: 10 x 19 x 2 cm"},"price":null,"currency":"CNY","moq":1,"category":"women-wallets","status":"active","alibaba_url":null,"images":["https://xcimg.szwego.com/20211119/i1637307368_1307_0.jpg","https://xcimg.szwego.com/20211119/i1637307368_6414_1.jpg","https://xcimg.szwego.com/20211119/i1637307368_5366_2.jpg","https://xcimg.szwego.com/20211119/i1637307368_6456_3.jpg","https://xcimg.szwego.com/20211119/i1637307368_4043_4.jpg","https://xcimg.szwego.com/20211119/i1637307368_8470_5.jpg","https://xcimg.szwego.com/20211119/i1637307368_4559_6.jpg","https://xcimg.szwego.com/20211119/i1637307368_7352_7.jpg","https://xcimg.szwego.com/20211119/i1637307368_8263_8.jpg"],"created_at":"2024-05-08T09:49:54.846Z"},{"id":"item-070f84883303","sku":"_dpWpWbzzIbU1Nv7KBSdTfJPd81cf3_Yfl3Ls2Uw","name_en":"M69029💕【Special Introduction】👉Overseas Exclusive (Counter Goods)👍To celebrate the brand's precious heritage, Louis Vuitton Men's Artistic Director Virgil Abloh crafted this Brazza wallet using the brand's iconic materials: a combination of Monogram coated canvas and smooth natural calfskin. This wallet is highly functional with many compartments to hold all necessities of modern daily life. Dimensions: 10.0 x 19.0 x 2.0 cm ~","name_cn":"M69029💕【Special Introduction】👉Overseas Exclusive (Counter Goods)👍To celebrate the brand's precious heritage, Louis Vuitton Men's Artistic Director Virgil Abloh crafted this Brazza wallet using the brand's iconic materials: a combination of Monogram coated canvas and smooth natural calfskin. This wallet is highly functional with many compartments to hold all necessities of modern daily life. Dimensions: 10.0 x 19.0 x 2.0 cm ~","specs":{"source":"wsxcme","sourceId":"_dpWpWbzzIbU1Nv7KBSdTfJPd81cf3_Yfl3Ls2Uw","sourceTagId":47002663,"sourceTagName":"length","dimensions":{"lengthCm":10,"heightCm":19,"widthCm":2},"rawTitle":"M69029💕【Special Introduction】👉Overseas Exclusive (Counter Goods)👍To celebrate the brand's precious heritage, Louis Vuitton Men's Artistic Director Virgil Abloh crafted this Brazza wallet using the brand's iconic materials: a combination of Monogram coated canvas and smooth natural calfskin. This wallet is highly functional with many compartments to hold all necessities of modern daily life. Dimensions: 10.0 x 19.0 x 2.0 cm ~"},"price":null,"currency":"CNY","moq":1,"category":"women-wallets","status":"active","alibaba_url":null,"images":["https://xcimg.szwego.com/1573965430_2086095674_0","https://xcimg.szwego.com/1573965430_1358043767_1","https://xcimg.szwego.com/1573965430_3924481957_2","https://xcimg.szwego.com/1573965430_2769624068_3","https://xcimg.szwego.com/1573965430_2080308804_4","https://xcimg.szwego.com/1573965430_324545365_5","https://xcimg.szwego.com/1573965430_4033809172_6","https://xcimg.szwego.com/1573965430_700350384_7","https://xcimg.szwego.com/1573965430_308524208_8"],"created_at":"2024-05-08T09:49:54.845Z"},{"id":"item-600e0b84377c","sku":"_d8Z8ZmMBW1lCP1dSjhR_YJPQttIYW0HcAgIXXPA","name_en":"M69024💕【Special Introduction】👉Overseas Exclusive (Counter Goods)👍To continue paying tribute to the brand's design heritage, Men's Artistic Director Virgil Abloh returns to the Monogram pattern this season, creating this Multiple wallet using the brand's iconic Monogram canvas paired with natural leather. This wallet features multiple pockets and inner compartments, maintaining a compact size while offering practical internal space, easily fitting into most pockets. Dimensions: 11.5 x 9.0 x 1.5 cm ~","name_cn":"M69024💕【Special Introduction】👉Overseas Exclusive (Counter Goods)👍To continue paying tribute to the brand's design heritage, Men's Artistic Director Virgil Abloh returns to the Monogram pattern this season, creating this Multiple wallet using the brand's iconic Monogram canvas paired with natural leather. This wallet features multiple pockets and inner compartments, maintaining a compact size while offering practical internal space, easily fitting into most pockets. Dimensions: 11.5 x 9.0 x 1.5 cm ~","specs":{"source":"wsxcme","sourceId":"_d8Z8ZmMBW1lCP1dSjhR_YJPQttIYW0HcAgIXXPA","sourceTagId":47002663,"sourceTagName":"length","dimensions":{"lengthCm":11.5,"heightCm":9,"widthCm":1.5},"rawTitle":"M69024💕【Special Introduction】👉Overseas Exclusive (Counter Goods)👍To continue paying tribute to the brand's design heritage, Men's Artistic Director Virgil Abloh returns to the Monogram pattern this season, creating this Multiple wallet using the brand's iconic Monogram canvas paired with natural leather. This wallet features multiple pockets and inner compartments, maintaining a compact size while offering practical internal space, easily fitting into most pockets. Dimensions: 11.5 x 9.0 x 1.5 cm ~"},"price":null,"currency":"CNY","moq":1,"category":"women-wallets","status":"active","alibaba_url":null,"images":["https://xcimg.szwego.com/1573966368_1633675226_0","https://xcimg.szwego.com/1573966368_1828840166_1","https://xcimg.szwego.com/1573966368_2939010468_2","https://xcimg.szwego.com/1573966368_3258387400_3","https://xcimg.szwego.com/1573966368_452034629_4","https://xcimg.szwego.com/1573966368_3315129984_5","https://xcimg.szwego.com/1573966368_69546299_6","https://xcimg.szwego.com/1573966368_1854715851_7","https://xcimg.szwego.com/1573966368_4162560457_8"],"created_at":"2024-05-08T09:49:54.844Z"},{"id":"item-0eb863b50d42","sku":"_dk2k2wgfTqd1XSvPHbCIiqZgxprKsl6toGkbTtw","name_en":"Top-tier ZIPPY VERTICAL Wallet","name_cn":"Top-tier ZIPPY VERTICAL Wallet\nM63095 Damier Graphite\nThis men's vertical zip wallet is made of durable Damier Graphite canvas with an elegant temperament. Multiple practical pockets and compartments easily hold cash, credit cards, and change. 20x10cm.","specs":{"source":"wsxcme","sourceId":"_dk2k2wgfTqd1XSvPHbCIiqZgxprKsl6toGkbTtw","sourceTagId":47002663,"sourceTagName":"length","rawTitle":"Top-tier ZIPPY VERTICAL Wallet\nM63095 Damier Graphite\nThis men's vertical zip wallet is made of durable Damier Graphite canvas with an elegant temperament. Multiple practical pockets and compartments easily hold cash, credit cards, and change. 20x10cm."},"price":null,"currency":"CNY","moq":1,"category":"women-wallets","status":"active","alibaba_url":null,"images":["https://xcimg.szwego.com/20201116/i1605500870_6309_0.jpg","https://xcimg.szwego.com/20201116/i1605500870_3143_1.jpg","https://xcimg.szwego.com/20201116/i1605500870_6310_2.jpg","https://xcimg.szwego.com/20201116/i1605500870_829_3.jpg","https://xcimg.szwego.com/20201116/i1605500870_1097_4.jpg","https://xcimg.szwego.com/20201116/i1605500870_7335_5.jpg","https://xcimg.szwego.com/20201116/i1605500870_2625_6.jpg","https://xcimg.szwego.com/20201116/i1605500870_125_7.jpg","https://xcimg.szwego.com/20201116/i1605500870_1242_8.jpg"],"created_at":"2024-05-08T09:49:54.843Z"},{"id":"item-ccf683ea45d9","sku":"_dtgtg8nyyK2JiwS_3eSecWBmetfJ1GDKad2fndA","name_en":"Original BRAZZA Wallet","name_cn":"Original BRAZZA Wallet\nM66540 Heart Flower\nThis Brazza wallet made of Monogram canvas exudes unstoppable masculinity. Spacious and fully functional, it fits easily into a coat pocket. Holds change, credit cards, and bills.","specs":{"source":"wsxcme","sourceId":"_dtgtg8nyyK2JiwS_3eSecWBmetfJ1GDKad2fndA","sourceTagId":47002663,"sourceTagName":"length","rawTitle":"Original BRAZZA Wallet\nM66540 Heart Flower\nThis Brazza wallet made of Monogram canvas exudes unstoppable masculinity. Spacious and fully functional, it fits easily into a coat pocket. Holds change, credit cards, and bills."},"price":null,"currency":"CNY","moq":1,"category":"women-wallets","status":"active","alibaba_url":null,"images":["https://xcimg.szwego.com/20211115/i1636953948_9482_0.jpg","https://xcimg.szwego.com/20211115/i1636953948_8296_1.jpg","https://xcimg.szwego.com/20211115/i1636953948_1292_2.jpg","https://xcimg.szwego.com/20211115/i1636953948_8625_3.jpg","https://xcimg.szwego.com/20211115/i1636953948_4120_4.jpg","https://xcimg.szwego.com/20211115/i1636953948_978_5.jpg","https://xcimg.szwego.com/20211115/i1636953948_7184_6.jpg","https://xcimg.szwego.com/20211115/i1636953948_5875_7.jpg","https://xcimg.szwego.com/20211115/i1636953948_7180_8.jpg"],"created_at":"2024-05-08T09:49:54.841Z"},{"id":"item-240ae906324b","sku":"_dm9m9vYyFzC3_3qbWiNLaUiWk_JT_J4iiH59yZw","name_en":"Original BRAZZA Wallet","name_cn":"Original BRAZZA Wallet\nM66540 Damier Graphite\nThis Brazza wallet made of Monogram canvas exudes unstoppable masculinity. Spacious and fully functional, it fits easily into a coat pocket. Holds change, credit cards, and bills.","specs":{"source":"wsxcme","sourceId":"_dm9m9vYyFzC3_3qbWiNLaUiWk_JT_J4iiH59yZw","sourceTagId":47002663,"sourceTagName":"length","rawTitle":"Original BRAZZA Wallet\nM66540 Damier Graphite\nThis Brazza wallet made of Monogram canvas exudes unstoppable masculinity. Spacious and fully functional, it fits easily into a coat pocket. Holds change, credit cards, and bills."},"price":null,"currency":"CNY","moq":1,"category":"women-wallets","status":"active","alibaba_url":null,"images":["https://xcimg.szwego.com/20201116/i1605500754_4520_0.jpg","https://xcimg.szwego.com/20201116/i1605500754_6398_1.jpg","https://xcimg.szwego.com/20201116/i1605500754_4009_2.jpg","https://xcimg.szwego.com/20201116/i1605500754_8110_3.jpg","https://xcimg.szwego.com/20201116/i1605500754_7765_4.jpg","https://xcimg.szwego.com/20201116/i1605500754_7344_5.jpg","https://xcimg.szwego.com/20201116/i1605500754_6023_6.jpg","https://xcimg.szwego.com/20201116/i1605500754_5869_7.jpg","https://xcimg.szwego.com/20201116/i1605500754_9944_8.jpg"],"created_at":"2024-05-08T09:49:54.840Z"}],"page":32,"pageSize":24,"total":751,"totalPages":32}
