{"items":[{"id":"item-8b627c449f84","sku":"_do_o_r3esZ0lG8_GOc_mesPrj0hgAQ1_bw0ebqw","name_en":"White#On-body photo","name_cn":"White#On-body photo\nModel: 292104","specs":{"source":"wsxcme","sourceId":"_do_o_r3esZ0lG8_GOc_mesPrj0hgAQ1_bw0ebqw","sourceTagId":47002756,"sourceTagName":"/women's bag","modelNumber":"292104","rawTitle":"White#On-body photo\nModel: 292104"},"price":null,"currency":"CNY","moq":1,"category":"bvlgari-women-bags","status":"active","alibaba_url":null,"images":["https://xcimg.szwego.com/20220614/i1655186402_7921_0.jpg","https://xcimg.szwego.com/20220614/i1655186402_3839_1.jpg","https://xcimg.szwego.com/20220614/i1655186402_9709_2.jpg"],"created_at":"2024-09-27T06:51:04.119Z"}],"page":5,"pageSize":24,"total":97,"totalPages":5}
