{"items":[{"id":"item-55bc8cddcd6d","sku":"_doDoDBJ-a1OIeEtwxPrv92wYbFQFwId0I7-v1DA","name_en":"Genuine Quality","name_cn":"Genuine Quality\n170th Anniversary Milk Tea Green, Limited Sale\nWhen Saint Louis meets Anjou, the Anjou Mini Tote is born. The milk tea colorway features a linen and cotton blend for the outer surface ➕ imported matching top-grain calfskin. Exquisite and structured, it is also reversible. Includes coin purse, bag charm, and drawstring closure clip. Comes with a gift bag 🎁 A great choice for gifting or personal use.\nSize: Opening 28cm, Base 20*Height 20*Base Width 10cm\n🔎020660-1","specs":{"source":"wsxcme","sourceId":"_doDoDBJ-a1OIeEtwxPrv92wYbFQFwId0I7-v1DA","sourceTagId":47003160,"sourceTagName":"/women's bag","rawTitle":"Genuine Quality\n170th Anniversary Milk Tea Green, Limited Sale\nWhen Saint Louis meets Anjou, the Anjou Mini Tote is born. The milk tea colorway features a linen and cotton blend for the outer surface ➕ imported matching top-grain calfskin. Exquisite and structured, it is also reversible. Includes coin purse, bag charm, and drawstring closure clip. Comes with a gift bag 🎁 A great choice for gifting or personal use.\nSize: Opening 28cm, Base 20*Height 20*Base Width 10cm\n🔎020660-1"},"price":null,"currency":"CNY","moq":1,"category":"goyard-women-bags","status":"active","alibaba_url":null,"images":["https://xcimg.szwego.com/20230809/i1691536458_6337_0.jpg","https://xcimg.szwego.com/20230809/i1691536458_9585_1.jpg","https://xcimg.szwego.com/20230809/i1691536458_4952_2.jpg","https://xcimg.szwego.com/20230809/i1691536458_3756_3.jpg","https://xcimg.szwego.com/20230809/i1691536458_278_4.jpg","https://xcimg.szwego.com/20230809/i1691536458_2135_5.jpg","https://xcimg.szwego.com/20230809/i1691536458_9446_6.jpg","https://xcimg.szwego.com/20230809/i1691536458_9112_7.jpg","https://xcimg.szwego.com/20230809/i1691536458_8510_8.jpg"],"created_at":"2024-09-27T07:03:00.952Z"},{"id":"item-334109e922d9","sku":"_dededHT-TRwrTnJdeJb1u7ng3d5mvKdPeAJSysA","name_en":"Genuine Quality","name_cn":"Genuine Quality\n💝170th Anniversary Milk Tea Pink, Limited Sale\nWhen Saint Louis meets Anjou, the Anjou Mini Tote is born. The milk tea colorway features a linen and cotton blend for the outer surface ➕ imported matching top-grain calfskin. Exquisite and structured, it is also reversible. Includes coin purse, bag charm, and drawstring closure clip. Comes with a gift bag 🎁 A great choice for gifting or personal use.\nSize: Opening 28cm, Base 20*Height 20*Base Width 10cm\n🔎020660-1","specs":{"source":"wsxcme","sourceId":"_dededHT-TRwrTnJdeJb1u7ng3d5mvKdPeAJSysA","sourceTagId":47003160,"sourceTagName":"/women's bag","rawTitle":"Genuine Quality\n💝170th Anniversary Milk Tea Pink, Limited Sale\nWhen Saint Louis meets Anjou, the Anjou Mini Tote is born. The milk tea colorway features a linen and cotton blend for the outer surface ➕ imported matching top-grain calfskin. Exquisite and structured, it is also reversible. Includes coin purse, bag charm, and drawstring closure clip. Comes with a gift bag 🎁 A great choice for gifting or personal use.\nSize: Opening 28cm, Base 20*Height 20*Base Width 10cm\n🔎020660-1"},"price":null,"currency":"CNY","moq":1,"category":"goyard-women-bags","status":"active","alibaba_url":null,"images":["https://xcimg.szwego.com/20230809/i1691536557_8514_0.jpg","https://xcimg.szwego.com/20230809/i1691536557_7697_1.jpg","https://xcimg.szwego.com/20230809/i1691536557_5394_2.jpg","https://xcimg.szwego.com/20230809/i1691536557_2717_3.jpg","https://xcimg.szwego.com/20230809/i1691536557_3848_5.jpg","https://xcimg.szwego.com/20230809/i1691536557_1381_6.jpg","https://xcimg.szwego.com/20230809/i1691536557_6850_7.jpg","https://xcimg.szwego.com/20230809/i1691536661_1801_0.jpg","https://xcimg.szwego.com/20230809/i1691536557_2333_8.jpg"],"created_at":"2024-09-27T07:03:00.951Z"},{"id":"item-5c8945b1a1b4","sku":"_dCuCuWq5utqprokrp4jFlVRuo-0yLZsMGbrt6sQ","name_en":"Genuine Quality","name_cn":"Genuine Quality\nMilk Tea Grey, Limited Sale\nReversible Anjou Double-sided Mini Tote. New color Milk Tea Grey. Features imported matching top-grain calfskin 🐂 ➕ custom Goyardine rain-dampened cotton-linen 😘 Exquisite, compact, and lightweight. The interior compartment is just the right size 👌. Reversible design. Includes coin purse and bag charm drawstring closure clip.\nSize: Opening 28cm, Base 20*Height 20*Base Width 10cm\n🔎020660","specs":{"source":"wsxcme","sourceId":"_dCuCuWq5utqprokrp4jFlVRuo-0yLZsMGbrt6sQ","sourceTagId":47003160,"sourceTagName":"/women's bag","rawTitle":"Genuine Quality\nMilk Tea Grey, Limited Sale\nReversible Anjou Double-sided Mini Tote. New color Milk Tea Grey. Features imported matching top-grain calfskin 🐂 ➕ custom Goyardine rain-dampened cotton-linen 😘 Exquisite, compact, and lightweight. The interior compartment is just the right size 👌. Reversible design. Includes coin purse and bag charm drawstring closure clip.\nSize: Opening 28cm, Base 20*Height 20*Base Width 10cm\n🔎020660"},"price":null,"currency":"CNY","moq":1,"category":"goyard-women-bags","status":"active","alibaba_url":null,"images":["https://xcimg.szwego.com/20230809/i1691534815_6150_0.jpg","https://xcimg.szwego.com/20230809/i1691534815_1539_1.jpg","https://xcimg.szwego.com/20230809/i1691534815_949_2.jpg","https://xcimg.szwego.com/20230809/i1691534815_638_3.jpg","https://xcimg.szwego.com/20230809/i1691534815_4230_4.jpg","https://xcimg.szwego.com/20230809/i1691534815_2286_5.jpg","https://xcimg.szwego.com/20230809/i1691534815_5395_6.jpg","https://xcimg.szwego.com/20230809/i1691534854_9545_0.jpg","https://xcimg.szwego.com/20230809/i1691534815_135_7.jpg"],"created_at":"2024-09-27T07:03:00.950Z"}],"page":7,"pageSize":24,"total":147,"totalPages":7}
