{"items":[{"id":"item-55bc8cddcd6d","sku":"_doDoDBJ-a1OIeEtwxPrv92wYbFQFwId0I7-v1DA","name_en":"Goyard Women Bags","name_cn":"正品级\n170周年 奶茶兰,限量出售\n当Saint Louis 与 Anjou 碰撞结合 便有了托特mini号 奶茶色系,将亚麻和棉混纺用做外包面➕进口对版头层小牛皮,精致且立挺,同样可一包两用,配送零钱包,包饰封口夹,配送礼品袋🎁送人自用都是不错之选\n尺寸Size:袋口28cm、底20*高20*底宽10cm\n🔎020660-1","specs":{"source":"wsxcme","sourceId":"_doDoDBJ-a1OIeEtwxPrv92wYbFQFwId0I7-v1DA","sourceTagId":47003160,"sourceTagName":"戈雅/女包","rawTitle":"正品级\n170周年 奶茶兰,限量出售\n当Saint Louis 与 Anjou 碰撞结合 便有了托特mini号 奶茶色系,将亚麻和棉混纺用做外包面➕进口对版头层小牛皮,精致且立挺,同样可一包两用,配送零钱包,包饰封口夹,配送礼品袋🎁送人自用都是不错之选\n尺寸Size:袋口28cm、底20*高20*底宽10cm\n🔎020660-1"},"price":null,"currency":"CNY","moq":1,"category":"goyard-women-bags","status":"active","alibaba_url":null,"images":["https://xcimg.szwego.com/20230809/i1691536458_6337_0.jpg","https://xcimg.szwego.com/20230809/i1691536458_9585_1.jpg","https://xcimg.szwego.com/20230809/i1691536458_4952_2.jpg","https://xcimg.szwego.com/20230809/i1691536458_3756_3.jpg","https://xcimg.szwego.com/20230809/i1691536458_278_4.jpg","https://xcimg.szwego.com/20230809/i1691536458_2135_5.jpg","https://xcimg.szwego.com/20230809/i1691536458_9446_6.jpg","https://xcimg.szwego.com/20230809/i1691536458_9112_7.jpg","https://xcimg.szwego.com/20230809/i1691536458_8510_8.jpg"],"created_at":"2024-09-27T07:03:00.952Z"},{"id":"item-334109e922d9","sku":"_dededHT-TRwrTnJdeJb1u7ng3d5mvKdPeAJSysA","name_en":"Goyard Women Bags","name_cn":"正品级\n💝170周年 奶茶粉,限量出售\n当Saint Louis 与 Anjou 碰撞结合 便有了托特mini号 奶茶色系,将亚麻和棉混纺用做外包面➕进口对版头层小牛皮,精致且立挺,同样可一包两用,配送零钱包,包饰封口夹,配送礼品袋🎁送人自用都是不错之选\n尺寸Size:袋口28cm、底20*高20*底宽10cm\n🔎020660-1","specs":{"source":"wsxcme","sourceId":"_dededHT-TRwrTnJdeJb1u7ng3d5mvKdPeAJSysA","sourceTagId":47003160,"sourceTagName":"戈雅/女包","rawTitle":"正品级\n💝170周年 奶茶粉,限量出售\n当Saint Louis 与 Anjou 碰撞结合 便有了托特mini号 奶茶色系,将亚麻和棉混纺用做外包面➕进口对版头层小牛皮,精致且立挺,同样可一包两用,配送零钱包,包饰封口夹,配送礼品袋🎁送人自用都是不错之选\n尺寸Size:袋口28cm、底20*高20*底宽10cm\n🔎020660-1"},"price":null,"currency":"CNY","moq":1,"category":"goyard-women-bags","status":"active","alibaba_url":null,"images":["https://xcimg.szwego.com/20230809/i1691536557_8514_0.jpg","https://xcimg.szwego.com/20230809/i1691536557_7697_1.jpg","https://xcimg.szwego.com/20230809/i1691536557_5394_2.jpg","https://xcimg.szwego.com/20230809/i1691536557_2717_3.jpg","https://xcimg.szwego.com/20230809/i1691536557_3848_5.jpg","https://xcimg.szwego.com/20230809/i1691536557_1381_6.jpg","https://xcimg.szwego.com/20230809/i1691536557_6850_7.jpg","https://xcimg.szwego.com/20230809/i1691536661_1801_0.jpg","https://xcimg.szwego.com/20230809/i1691536557_2333_8.jpg"],"created_at":"2024-09-27T07:03:00.951Z"},{"id":"item-5c8945b1a1b4","sku":"_dCuCuWq5utqprokrp4jFlVRuo-0yLZsMGbrt6sQ","name_en":"Goyard Women Bags","name_cn":"正品级\n奶茶灰,限量出售\nReversible Anjou 双面托特mini号 新色奶茶灰,采用进口对版头层小牛皮🐂➕定制Goyardine 雨露棉麻😘 精致小巧又轻便,内隔绝对的刚刚好👌,一包两用,配送零钱包,配送包饰封口夹\n尺寸:袋口28cm、底20*高20*底宽10cm\n🔎020660","specs":{"source":"wsxcme","sourceId":"_dCuCuWq5utqprokrp4jFlVRuo-0yLZsMGbrt6sQ","sourceTagId":47003160,"sourceTagName":"戈雅/女包","rawTitle":"正品级\n奶茶灰,限量出售\nReversible Anjou 双面托特mini号 新色奶茶灰,采用进口对版头层小牛皮🐂➕定制Goyardine 雨露棉麻😘 精致小巧又轻便,内隔绝对的刚刚好👌,一包两用,配送零钱包,配送包饰封口夹\n尺寸:袋口28cm、底20*高20*底宽10cm\n🔎020660"},"price":null,"currency":"CNY","moq":1,"category":"goyard-women-bags","status":"active","alibaba_url":null,"images":["https://xcimg.szwego.com/20230809/i1691534815_6150_0.jpg","https://xcimg.szwego.com/20230809/i1691534815_1539_1.jpg","https://xcimg.szwego.com/20230809/i1691534815_949_2.jpg","https://xcimg.szwego.com/20230809/i1691534815_638_3.jpg","https://xcimg.szwego.com/20230809/i1691534815_4230_4.jpg","https://xcimg.szwego.com/20230809/i1691534815_2286_5.jpg","https://xcimg.szwego.com/20230809/i1691534815_5395_6.jpg","https://xcimg.szwego.com/20230809/i1691534854_9545_0.jpg","https://xcimg.szwego.com/20230809/i1691534815_135_7.jpg"],"created_at":"2024-09-27T07:03:00.950Z"}],"page":7,"pageSize":24,"total":147,"totalPages":7}
