{"items":[{"id":"item-33abb3bde08c","sku":"_dlzlzYxJDlxKgG7fs1R5aBfd2Nni_7V5B6SeRJw","name_en":"Burberry Women Bags","name_cn":"大号 上身效果无敌酷😎","specs":{"source":"wsxcme","sourceId":"_dlzlzYxJDlxKgG7fs1R5aBfd2Nni_7V5B6SeRJw","sourceTagId":80411239,"sourceTagName":"巴宝莉/女包","rawTitle":"大号 上身效果无敌酷😎"},"price":null,"currency":"CNY","moq":1,"category":"burberry-women-bags","status":"active","alibaba_url":null,"images":["https://xcimg.szwego.com/img/d5e7a5ce/20250304/a1741079631711_4780.jpg","https://xcimg.szwego.com/img/d5e7a5ce/20250304/a1741079631712_6421.jpg","https://xcimg.szwego.com/img/d5e7a5ce/20250304/a1741079631713_5444.jpg","https://xcimg.szwego.com/img/d5e7a5ce/20250304/a1741079631715_2088.jpg","https://xcimg.szwego.com/img/d5e7a5ce/20250304/a1741079631718_7378.jpg","https://xcimg.szwego.com/img/d5e7a5ce/20250304/a1741079631717_7122.jpg","https://xcimg.szwego.com/img/d5e7a5ce/20250304/a1741079632517_1781.jpg","https://xcimg.szwego.com/img/d5e7a5ce/20250304/a1741079632507_7547.jpg","https://xcimg.szwego.com/img/d5e7a5ce/20250304/a1741079632512_1774.jpg"],"created_at":"2026-06-29T10:27:59.342Z"},{"id":"item-75c637481d08","sku":"_duGuG9-QKyQj0NCTCl9Mp4h5zZnq2L4BIFzk0WA","name_en":"Burberry Women Bags","name_cn":"❤️大号!沙色条纹 大号背的是酷😎是高级 是独特 也不用挑身高 有一米六左右来驾驭也是超级无敌好看的,背上气质就出来了!专柜新面料(纯棉的)搭配原厂牛皮,肩背带的边边包的都是原厂牛皮✔️,咱家拒绝超纤哈❌支持对比!!\n尺寸长36 x 宽18.5 x 高(袋身高)33cm.","specs":{"source":"wsxcme","sourceId":"_duGuG9-QKyQj0NCTCl9Mp4h5zZnq2L4BIFzk0WA","sourceTagId":80411239,"sourceTagName":"巴宝莉/女包","rawTitle":"❤️大号!沙色条纹 大号背的是酷😎是高级 是独特 也不用挑身高 有一米六左右来驾驭也是超级无敌好看的,背上气质就出来了!专柜新面料(纯棉的)搭配原厂牛皮,肩背带的边边包的都是原厂牛皮✔️,咱家拒绝超纤哈❌支持对比!!\n尺寸长36 x 宽18.5 x 高(袋身高)33cm."},"price":null,"currency":"CNY","moq":1,"category":"burberry-women-bags","status":"active","alibaba_url":null,"images":["https://xcimg.szwego.com/img/d5e7a5ce/20250304/a1741079314828_1448.jpg","https://xcimg.szwego.com/img/d5e7a5ce/20250304/a1741079314831_1577.jpg","https://xcimg.szwego.com/img/d5e7a5ce/20250304/a1741079314832_8341.jpg","https://xcimg.szwego.com/img/d5e7a5ce/20250304/a1741079314833_7640.jpg","https://xcimg.szwego.com/img/d5e7a5ce/20250304/a1741079314836_4167.jpg","https://xcimg.szwego.com/img/d5e7a5ce/20250304/a1741079314839_2323.jpg","https://xcimg.szwego.com/img/d5e7a5ce/20250304/a1741079315687_0678.jpg","https://xcimg.szwego.com/img/d5e7a5ce/20250304/a1741079315663_8118.jpg","https://xcimg.szwego.com/img/d5e7a5ce/20250304/a1741079315665_4340.jpg"],"created_at":"2026-06-29T10:27:59.332Z"},{"id":"item-d3e1c26c0a7a","sku":"_djnjnXn-ARB3g22KUpMtDEhtrjrp-kcwvsAZIzQ","name_en":"Burberry Women Bags","name_cn":"❤️大号!黑色条纹 大号背的是酷😎是高级 是独特 也不用挑身高 有一米六左右来驾驭也是超级无敌好看的,背上气质就出来了!专柜新面料(纯棉的)搭配原厂牛皮,肩背带的边边包的都是原厂牛皮✔️,咱家拒绝超纤哈❌支持对比!!\n尺寸长36 x 宽18.5 x 高(袋身高)33cm.","specs":{"source":"wsxcme","sourceId":"_djnjnXn-ARB3g22KUpMtDEhtrjrp-kcwvsAZIzQ","sourceTagId":80411239,"sourceTagName":"巴宝莉/女包","rawTitle":"❤️大号!黑色条纹 大号背的是酷😎是高级 是独特 也不用挑身高 有一米六左右来驾驭也是超级无敌好看的,背上气质就出来了!专柜新面料(纯棉的)搭配原厂牛皮,肩背带的边边包的都是原厂牛皮✔️,咱家拒绝超纤哈❌支持对比!!\n尺寸长36 x 宽18.5 x 高(袋身高)33cm."},"price":null,"currency":"CNY","moq":1,"category":"burberry-women-bags","status":"active","alibaba_url":null,"images":["https://xcimg.szwego.com/img/d5e7a5ce/20250304/a1741079184206_4682.jpg","https://xcimg.szwego.com/img/d5e7a5ce/20250304/a1741079184203_6447.jpg","https://xcimg.szwego.com/img/d5e7a5ce/20250304/a1741079184205_7203.jpg","https://xcimg.szwego.com/img/d5e7a5ce/20250304/a1741079184209_6123.jpg","https://xcimg.szwego.com/img/d5e7a5ce/20250304/a1741079184201_6504.jpg","https://xcimg.szwego.com/img/d5e7a5ce/20250304/a1741079184210_1774.jpg","https://xcimg.szwego.com/img/d5e7a5ce/20250304/a1741079185106_6232.jpg","https://xcimg.szwego.com/img/d5e7a5ce/20250304/a1741079185100_5877.jpg","https://xcimg.szwego.com/img/d5e7a5ce/20250304/a1741079185104_6547.jpg"],"created_at":"2026-06-29T10:27:59.322Z"},{"id":"item-d259c9afcc3c","sku":"_dOWOWE6vNFcJa8-1jrIWQeKfIlwRVyLU2HtOWiw","name_en":"Burberry Women Bags","name_cn":"大号沙色上身效果参考","specs":{"source":"wsxcme","sourceId":"_dOWOWE6vNFcJa8-1jrIWQeKfIlwRVyLU2HtOWiw","sourceTagId":80411239,"sourceTagName":"巴宝莉/女包","rawTitle":"大号沙色上身效果参考"},"price":null,"currency":"CNY","moq":1,"category":"burberry-women-bags","status":"active","alibaba_url":null,"images":["https://xcimg.szwego.com/img/d5e7a5ce/20250403/a1743668435402_8462.jpg","https://xcimg.szwego.com/img/d5e7a5ce/20250403/a1743668435406_4536.jpg","https://xcimg.szwego.com/img/d5e7a5ce/20250403/a1743668435409_5573.jpg","https://xcimg.szwego.com/img/d5e7a5ce/20250403/a1743668435412_6222.jpg","https://xcimg.szwego.com/img/d5e7a5ce/20250403/a1743668435415_7025.jpg","https://xcimg.szwego.com/img/d5e7a5ce/20250403/a1743668435414_7038.jpg","https://xcimg.szwego.com/img/d5e7a5ce/20250403/a1743668436222_4447.jpg"],"created_at":"2026-06-29T10:27:59.312Z"},{"id":"item-6f6d0de55bbe","sku":"_dW9W9ZR80S7gluNl4fA5CeKhjiNYFYH0LMQw1SQ","name_en":"❤️B家纯原最新抽绳水桶包🍀选用棉质斜纹面料打造 采用无内衬设计 质地轻盈 融入光滑小牛皮饰边 搭配可调式皮革肩背带,随心切换肩背包和斜背包造型。来自Bur 经典之作系列,以鲜明品牌风格诠释衣橱必备 尺寸27.5x 16x 29cm","name_cn":"❤️B家纯原最新抽绳水桶包🍀选用棉质斜纹面料打造 采用无内衬设计 质地轻盈 融入光滑小牛皮饰边 搭配可调式皮革肩背带,随心切换肩背包和斜背包造型。来自Bur 经典之作系列,以鲜明品牌风格诠释衣橱必备 尺寸27.5x 16x 29cm","specs":{"source":"wsxcme","sourceId":"_dW9W9ZR80S7gluNl4fA5CeKhjiNYFYH0LMQw1SQ","sourceTagId":80411239,"sourceTagName":"巴宝莉/女包","dimensions":{"lengthCm":27.5,"heightCm":16,"widthCm":29},"rawTitle":"❤️B家纯原最新抽绳水桶包🍀选用棉质斜纹面料打造 采用无内衬设计 质地轻盈 融入光滑小牛皮饰边 搭配可调式皮革肩背带,随心切换肩背包和斜背包造型。来自Bur 经典之作系列,以鲜明品牌风格诠释衣橱必备 尺寸27.5x 16x 29cm"},"price":null,"currency":"CNY","moq":1,"category":"burberry-women-bags","status":"active","alibaba_url":null,"images":["https://xcimg.szwego.com/img/d5e7a5ce/20250403/a1743668381142_2550.jpg","https://xcimg.szwego.com/img/d5e7a5ce/20250403/a1743668381148_6052.jpg","https://xcimg.szwego.com/img/d5e7a5ce/20250403/a1743668381144_3343.jpg","https://xcimg.szwego.com/img/d5e7a5ce/20250403/a1743668381147_3534.jpg","https://xcimg.szwego.com/img/d5e7a5ce/20250403/a1743668382128_7415.jpg","https://xcimg.szwego.com/img/d5e7a5ce/20250403/a1743668382118_8667.jpg","https://xcimg.szwego.com/img/d5e7a5ce/20250403/a1743668381147_2013.jpg","https://xcimg.szwego.com/img/d5e7a5ce/20250403/a1743668381149_4220.jpg","https://xcimg.szwego.com/img/d5e7a5ce/20250403/a1743668382123_8310.jpg"],"created_at":"2026-06-29T10:27:59.302Z"},{"id":"item-61cd14ecb03d","sku":"_dbvbv9FQxd3JJK3R3Zh7EluZhHAMaaS-2CrrI2g","name_en":"Burberry Women Bags","name_cn":"上身图","specs":{"source":"wsxcme","sourceId":"_dbvbv9FQxd3JJK3R3Zh7EluZhHAMaaS-2CrrI2g","sourceTagId":80411239,"sourceTagName":"巴宝莉/女包","rawTitle":"上身图"},"price":null,"currency":"CNY","moq":1,"category":"burberry-women-bags","status":"active","alibaba_url":null,"images":["https://xcimg.szwego.com/img/d5e7a5ce/20250403/a1743668332066_0700.jpg","https://xcimg.szwego.com/img/d5e7a5ce/20250403/a1743668332071_0064.jpg","https://xcimg.szwego.com/img/d5e7a5ce/20250403/a1743668332074_1513.jpg","https://xcimg.szwego.com/img/d5e7a5ce/20250403/a1743668332069_2800.jpg","https://xcimg.szwego.com/img/d5e7a5ce/20250403/a1743668332074_6050.jpg","https://xcimg.szwego.com/img/d5e7a5ce/20250403/a1743668332072_0704.jpg","https://xcimg.szwego.com/img/d5e7a5ce/20250403/a1743668332863_2256.jpg","https://xcimg.szwego.com/img/d5e7a5ce/20250403/a1743668332865_5853.jpg","https://xcimg.szwego.com/img/d5e7a5ce/20250403/a1743668332867_4408.jpg","https://xcimg.szwego.com/img/d5e7a5ce/20250403/a1743668332869_6061.jpg"],"created_at":"2026-06-29T10:27:59.292Z"},{"id":"item-38708d1df098","sku":"_dndndEw_1GrAXn7yeuvzBpHxxsTqflDuUjWMh5Q","name_en":"❤️B家纯原最新抽绳水桶包🍀选用棉质斜纹面料打造 采用无内衬设计 质地轻盈 融入光滑小牛皮饰边 搭配可调式皮革肩背带,随心切换肩背包和斜背包造型。来自Bur 经典之作系列,以鲜明品牌风格诠释衣橱必备 尺寸27.5x 16x 29cm","name_cn":"❤️B家纯原最新抽绳水桶包🍀选用棉质斜纹面料打造 采用无内衬设计 质地轻盈 融入光滑小牛皮饰边 搭配可调式皮革肩背带,随心切换肩背包和斜背包造型。来自Bur 经典之作系列,以鲜明品牌风格诠释衣橱必备 尺寸27.5x 16x 29cm","specs":{"source":"wsxcme","sourceId":"_dndndEw_1GrAXn7yeuvzBpHxxsTqflDuUjWMh5Q","sourceTagId":80411239,"sourceTagName":"巴宝莉/女包","dimensions":{"lengthCm":27.5,"heightCm":16,"widthCm":29},"rawTitle":"❤️B家纯原最新抽绳水桶包🍀选用棉质斜纹面料打造 采用无内衬设计 质地轻盈 融入光滑小牛皮饰边 搭配可调式皮革肩背带,随心切换肩背包和斜背包造型。来自Bur 经典之作系列,以鲜明品牌风格诠释衣橱必备 尺寸27.5x 16x 29cm"},"price":null,"currency":"CNY","moq":1,"category":"burberry-women-bags","status":"active","alibaba_url":null,"images":["https://xcimg.szwego.com/img/d5e7a5ce/20250403/a1743668297511_8068.jpg","https://xcimg.szwego.com/img/d5e7a5ce/20250403/a1743668297502_8182.jpg","https://xcimg.szwego.com/img/d5e7a5ce/20250403/a1743668297507_3338.jpg","https://xcimg.szwego.com/img/d5e7a5ce/20250403/a1743668297509_6750.jpg","https://xcimg.szwego.com/img/d5e7a5ce/20250403/a1743668297504_5643.jpg","https://xcimg.szwego.com/img/d5e7a5ce/20250403/a1743668297505_3548.jpg","https://xcimg.szwego.com/img/d5e7a5ce/20250403/a1743668298374_3771.jpg","https://xcimg.szwego.com/img/d5e7a5ce/20250403/a1743668298379_1436.jpg","https://xcimg.szwego.com/img/d5e7a5ce/20250403/a1743668298376_7013.jpg"],"created_at":"2026-06-29T10:27:59.282Z"},{"id":"item-d8c80626216d","sku":"_duNuNAfvcsR8zVf7gCHKtkU6pDM1m70YlGNRANQ","name_en":"Burberry Women Bags","name_cn":"小号黑色上身效果参考","specs":{"source":"wsxcme","sourceId":"_duNuNAfvcsR8zVf7gCHKtkU6pDM1m70YlGNRANQ","sourceTagId":80411239,"sourceTagName":"巴宝莉/女包","rawTitle":"小号黑色上身效果参考"},"price":null,"currency":"CNY","moq":1,"category":"burberry-women-bags","status":"active","alibaba_url":null,"images":["https://xcimg.szwego.com/img/d5e7a5ce/20250403/a1743667631907_0215.jpg","https://xcimg.szwego.com/img/d5e7a5ce/20250403/a1743667631905_6386.jpg","https://xcimg.szwego.com/img/d5e7a5ce/20250403/a1743667631902_8213.jpg","https://xcimg.szwego.com/img/d5e7a5ce/20250403/a1743667631886_7882.jpg","https://xcimg.szwego.com/img/d5e7a5ce/20250403/a1743667631892_4057.jpg","https://xcimg.szwego.com/img/d5e7a5ce/20250403/a1743667631897_3183.jpg","https://xcimg.szwego.com/img/d5e7a5ce/20250403/a1743667632637_5046.jpg","https://xcimg.szwego.com/img/d5e7a5ce/20250403/a1743667632640_4154.jpg","https://xcimg.szwego.com/img/d5e7a5ce/20250403/a1743667632644_4567.jpg"],"created_at":"2026-06-29T10:27:59.272Z"},{"id":"item-0cb3f512e84c","sku":"_dtqtqy7Z-0vWSXDRO2ntk8oLeDRzQXfF8jufXrg","name_en":"Burberry Women Bags","name_cn":"官网图","specs":{"source":"wsxcme","sourceId":"_dtqtqy7Z-0vWSXDRO2ntk8oLeDRzQXfF8jufXrg","sourceTagId":80411239,"sourceTagName":"巴宝莉/女包","rawTitle":"官网图"},"price":null,"currency":"CNY","moq":1,"category":"burberry-women-bags","status":"active","alibaba_url":null,"images":["https://xcimg.szwego.com/img/d5e7a5ce/20250403/a1743667614633_0418.jpg","https://xcimg.szwego.com/img/d5e7a5ce/20250403/a1743667614605_0180.jpg","https://xcimg.szwego.com/img/d5e7a5ce/20250403/a1743667614612_8112.jpg","https://xcimg.szwego.com/img/d5e7a5ce/20250403/a1743667614619_2322.jpg","https://xcimg.szwego.com/img/d5e7a5ce/20250403/a1743667614622_6385.jpg","https://xcimg.szwego.com/img/d5e7a5ce/20250403/a1743667614627_2153.jpg","https://xcimg.szwego.com/img/d5e7a5ce/20250403/a1743667615501_8022.jpg","https://xcimg.szwego.com/img/d5e7a5ce/20250403/a1743667615497_2721.jpg","https://xcimg.szwego.com/img/d5e7a5ce/20250403/a1743667615502_4061.jpg"],"created_at":"2026-06-29T10:27:59.262Z"},{"id":"item-84bda476e746","sku":"_db9b9ymJ3NQGIPDOlsHtb7hcl6lCD9SOhMXKtGw","name_en":"❤️B家纯原最新小桶包,选用棉质斜纹面料打造。于意大利工坊","name_cn":"❤️B家纯原最新小桶包,选用棉质斜纹面料打造。于意大利工坊\n匠制而成,装饰精纺 B家专用格纹。采用无内衬设计,质地轻盈。融入光滑小牛皮饰边,搭配可调式肩背帯,随心切換肩背包和斜背包造型。必备款式。尺寸17.5 x 10.5 x 20cm","specs":{"source":"wsxcme","sourceId":"_db9b9ymJ3NQGIPDOlsHtb7hcl6lCD9SOhMXKtGw","sourceTagId":80411239,"sourceTagName":"巴宝莉/女包","dimensions":{"lengthCm":17.5,"heightCm":10.5,"widthCm":20},"rawTitle":"❤️B家纯原最新小桶包,选用棉质斜纹面料打造。于意大利工坊\n匠制而成,装饰精纺 B家专用格纹。采用无内衬设计,质地轻盈。融入光滑小牛皮饰边,搭配可调式肩背帯,随心切換肩背包和斜背包造型。必备款式。尺寸17.5 x 10.5 x 20cm"},"price":null,"currency":"CNY","moq":1,"category":"burberry-women-bags","status":"active","alibaba_url":null,"images":["https://xcimg.szwego.com/img/d5e7a5ce/20250403/a1743667571647_4726.jpg","https://xcimg.szwego.com/img/d5e7a5ce/20250403/a1743667571652_6428.jpg","https://xcimg.szwego.com/img/d5e7a5ce/20250403/a1743667571654_2421.jpg","https://xcimg.szwego.com/img/d5e7a5ce/20250403/a1743667571658_7875.jpg","https://xcimg.szwego.com/img/d5e7a5ce/20250403/a1743667571664_3574.jpg","https://xcimg.szwego.com/img/d5e7a5ce/20250403/a1743667571656_2445.jpg","https://xcimg.szwego.com/img/d5e7a5ce/20250403/a1743667572648_6885.jpg","https://xcimg.szwego.com/img/d5e7a5ce/20250403/a1743667572643_0000.jpg","https://xcimg.szwego.com/img/d5e7a5ce/20250403/a1743667572641_1422.jpg"],"created_at":"2026-06-29T10:27:59.252Z"},{"id":"item-c58efff3befd","sku":"_dmXmX8oK9PjjY8aVusi6mz1ZQUuyCG62rhw5Vgw","name_en":"Burberry Women Bags","name_cn":"小号沙色上身效果参考","specs":{"source":"wsxcme","sourceId":"_dmXmX8oK9PjjY8aVusi6mz1ZQUuyCG62rhw5Vgw","sourceTagId":80411239,"sourceTagName":"巴宝莉/女包","rawTitle":"小号沙色上身效果参考"},"price":null,"currency":"CNY","moq":1,"category":"burberry-women-bags","status":"active","alibaba_url":null,"images":["https://xcimg.szwego.com/img/d5e7a5ce/20250403/a1743667469868_2711.jpg","https://xcimg.szwego.com/img/d5e7a5ce/20250403/a1743667469873_6778.jpg","https://xcimg.szwego.com/img/d5e7a5ce/20250403/a1743667469871_0276.jpg","https://xcimg.szwego.com/img/d5e7a5ce/20250403/a1743667469884_8133.jpg","https://xcimg.szwego.com/img/d5e7a5ce/20250403/a1743667469877_7762.jpg","https://xcimg.szwego.com/img/d5e7a5ce/20250403/a1743667469886_1201.jpg","https://xcimg.szwego.com/img/d5e7a5ce/20250403/a1743667471029_3822.jpg","https://xcimg.szwego.com/img/d5e7a5ce/20250403/a1743667471033_3383.jpg","https://xcimg.szwego.com/img/d5e7a5ce/20250403/a1743667471031_3442.jpg"],"created_at":"2026-06-29T10:27:59.242Z"},{"id":"item-b1abc83cbf39","sku":"_d_C_CQE9KUzQcjliKMpVJOcAwm8nho3fnRwqbTA","name_en":"❤️B家纯原最新小桶包,选用棉质斜纹面料打造。于意大利工坊","name_cn":"❤️B家纯原最新小桶包,选用棉质斜纹面料打造。于意大利工坊\n匠制而成,装饰精纺 B家专用格纹。采用无内衬设计,质地轻盈。融入光滑小牛皮饰边,搭配可调式肩背帯,随心切換肩背包和斜背包造型。必备款式。尺寸17.5 x 10.5 x 20cm","specs":{"source":"wsxcme","sourceId":"_d_C_CQE9KUzQcjliKMpVJOcAwm8nho3fnRwqbTA","sourceTagId":80411239,"sourceTagName":"巴宝莉/女包","dimensions":{"lengthCm":17.5,"heightCm":10.5,"widthCm":20},"rawTitle":"❤️B家纯原最新小桶包,选用棉质斜纹面料打造。于意大利工坊\n匠制而成,装饰精纺 B家专用格纹。采用无内衬设计,质地轻盈。融入光滑小牛皮饰边,搭配可调式肩背帯,随心切換肩背包和斜背包造型。必备款式。尺寸17.5 x 10.5 x 20cm"},"price":null,"currency":"CNY","moq":1,"category":"burberry-women-bags","status":"active","alibaba_url":null,"images":["https://xcimg.szwego.com/img/d5e7a5ce/20250403/a1743667383090_7365.jpg","https://xcimg.szwego.com/img/d5e7a5ce/20250403/a1743667383088_4831.jpg","https://xcimg.szwego.com/img/d5e7a5ce/20250403/a1743667383089_3633.jpg","https://xcimg.szwego.com/img/d5e7a5ce/20250403/a1743667383097_1816.jpg","https://xcimg.szwego.com/img/d5e7a5ce/20250403/a1743667383093_0362.jpg","https://xcimg.szwego.com/img/d5e7a5ce/20250403/a1743667383096_0241.jpg","https://xcimg.szwego.com/img/d5e7a5ce/20250403/a1743667383748_2214.jpg","https://xcimg.szwego.com/img/d5e7a5ce/20250403/a1743667383749_1340.jpg","https://xcimg.szwego.com/img/d5e7a5ce/20250403/a1743667383752_2451.jpg"],"created_at":"2026-06-29T10:27:59.232Z"},{"id":"item-af33a08ec501","sku":"_dI-I-8InTxj0y5vlLftMgrxtIY3V-auK7tyGjAw","name_en":"Burberry Women Bags","name_cn":"上身效果图!","specs":{"source":"wsxcme","sourceId":"_dI-I-8InTxj0y5vlLftMgrxtIY3V-auK7tyGjAw","sourceTagId":80411239,"sourceTagName":"巴宝莉/女包","rawTitle":"上身效果图!"},"price":null,"currency":"CNY","moq":1,"category":"burberry-women-bags","status":"active","alibaba_url":null,"images":["https://xcimg.szwego.com/20220423/i1650694037_8726_0.jpg","https://xcimg.szwego.com/20220423/i1650694037_4478_1.jpg","https://xcimg.szwego.com/20220423/i1650694037_9568_2.jpg"],"created_at":"2026-06-29T10:27:59.222Z"},{"id":"item-fb0ff6088739","sku":"_dVuVujPu70FvKo2PDTPmsD7dhjTBrgwP2IERiaw","name_en":"Burberry Women Bags","name_cn":"官网图","specs":{"source":"wsxcme","sourceId":"_dVuVujPu70FvKo2PDTPmsD7dhjTBrgwP2IERiaw","sourceTagId":80411239,"sourceTagName":"巴宝莉/女包","rawTitle":"官网图"},"price":null,"currency":"CNY","moq":1,"category":"burberry-women-bags","status":"active","alibaba_url":null,"images":["https://xcimg.szwego.com/20220423/i1650694026_6053_0.jpg","https://xcimg.szwego.com/20220423/i1650694026_2209_1.jpg","https://xcimg.szwego.com/20220423/i1650694026_8934_2.jpg","https://xcimg.szwego.com/20220423/i1650694026_9637_3.jpg","https://xcimg.szwego.com/20220423/i1650694026_6474_4.jpg"],"created_at":"2026-06-29T10:27:59.212Z"},{"id":"item-e052d8ecc4ff","sku":"_dEyEy2yancC2xOdXjEmwxG3PULG1S5uRN8u2pJA","name_en":"Burberry Women Bags","name_cn":"老花格纹 配原厂防尘袋!","specs":{"source":"wsxcme","sourceId":"_dEyEy2yancC2xOdXjEmwxG3PULG1S5uRN8u2pJA","sourceTagId":80411239,"sourceTagName":"巴宝莉/女包","rawTitle":"老花格纹 配原厂防尘袋!"},"price":null,"currency":"CNY","moq":1,"category":"burberry-women-bags","status":"active","alibaba_url":null,"images":["https://xcimg.szwego.com/20220423/i1650693905_9838_0.jpg"],"created_at":"2026-06-29T10:27:59.202Z"},{"id":"item-6bd4c41b1005","sku":"_dPFPFYWdR_OxnOAVoakXadM7I7DLU84uo0wKDcw","name_en":"Burberry Women Bags","name_cn":"在看一下进口烫金➕独有防伪编码 水洗麦!","specs":{"source":"wsxcme","sourceId":"_dPFPFYWdR_OxnOAVoakXadM7I7DLU84uo0wKDcw","sourceTagId":80411239,"sourceTagName":"巴宝莉/女包","rawTitle":"在看一下进口烫金➕独有防伪编码 水洗麦!"},"price":null,"currency":"CNY","moq":1,"category":"burberry-women-bags","status":"active","alibaba_url":null,"images":["https://xcimg.szwego.com/20220423/i1650693893_7128_0.jpg","https://xcimg.szwego.com/20220423/i1650693893_5943_1.jpg","https://xcimg.szwego.com/20220423/i1650693893_3952_2.jpg","https://xcimg.szwego.com/20220423/i1650693893_678_3.jpg","https://xcimg.szwego.com/20220423/i1650693893_2041_4.jpg"],"created_at":"2026-06-29T10:27:59.192Z"},{"id":"item-cbf1bb208ba7","sku":"_d0J0JF3HY7D5--xKkeI3WHy_cb6vs7gMo7fzg1Q","name_en":"Burberry Women Bags","name_cn":"来看一下 原厂防水复古格纹环保帆布+光滑的意大利鞣制皮革打造,亮眼装饰格纹印花和对比缉明线,材质硬挺有型,上身超级吸睛亮眼。","specs":{"source":"wsxcme","sourceId":"_d0J0JF3HY7D5--xKkeI3WHy_cb6vs7gMo7fzg1Q","sourceTagId":80411239,"sourceTagName":"巴宝莉/女包","rawTitle":"来看一下 原厂防水复古格纹环保帆布+光滑的意大利鞣制皮革打造,亮眼装饰格纹印花和对比缉明线,材质硬挺有型,上身超级吸睛亮眼。"},"price":null,"currency":"CNY","moq":1,"category":"burberry-women-bags","status":"active","alibaba_url":null,"images":["https://xcimg.szwego.com/20220423/i1650693835_4293_0.jpg","https://xcimg.szwego.com/20220423/i1650693835_6859_1.jpg","https://xcimg.szwego.com/20220423/i1650693835_2768_2.jpg","https://xcimg.szwego.com/20220423/i1650693835_1602_3.jpg","https://xcimg.szwego.com/20220423/i1650693835_2753_4.jpg","https://xcimg.szwego.com/20220423/i1650693835_2146_5.jpg","https://xcimg.szwego.com/20220423/i1650693835_4562_6.jpg"],"created_at":"2026-06-29T10:27:59.182Z"},{"id":"item-3ce7bf2b51d1","sku":"_d8C8CAkQoz6iKZyrdXdArATExuVgWsw9CWDzHqw","name_en":"Burberry Women Bags","name_cn":"在看一下五金 特供原厂五金,真金厚电镀工艺,五金字体清晰度非常精美,更多细节补充!","specs":{"source":"wsxcme","sourceId":"_d8C8CAkQoz6iKZyrdXdArATExuVgWsw9CWDzHqw","sourceTagId":80411239,"sourceTagName":"巴宝莉/女包","rawTitle":"在看一下五金 特供原厂五金,真金厚电镀工艺,五金字体清晰度非常精美,更多细节补充!"},"price":null,"currency":"CNY","moq":1,"category":"burberry-women-bags","status":"active","alibaba_url":null,"images":["https://xcimg.szwego.com/20220423/i1650693809_3025_0.jpg","https://xcimg.szwego.com/20220423/i1650693809_5855_1.jpg","https://xcimg.szwego.com/20220423/i1650693809_2171_2.jpg","https://xcimg.szwego.com/20220423/i1650693809_2738_3.jpg","https://xcimg.szwego.com/20220423/i1650693809_5747_4.jpg","https://xcimg.szwego.com/20220423/i1650693809_8250_5.jpg","https://xcimg.szwego.com/20220423/i1650693809_8781_6.jpg"],"created_at":"2026-06-29T10:27:59.172Z"},{"id":"item-98bcb1dec1dd","sku":"_dbqbqrhVF9LBdXZhhCl-mSTEIah63Sl5-7dCCEA","name_en":"❤️B家纯原格纹涂层帆布托特包手提单肩包,包身选用品牌Vintage复古格纹环保帆布+光滑的意大利鞣制皮革打造,亮眼装饰格纹印花和对比缉明线,材质硬挺有型,上身超级吸睛亮眼。这种材质众所周知非常耐磨耐用,图案颜色低调好看,手感特別舒服,整體看去非常高級,搭配皮革包覆的镜子吊饰,非常低调又有标识性。开放式敞口设计,配有龙虾扣,黑色帆布的内里,有贴袋和拉链内袋,","name_cn":"❤️B家纯原格纹涂层帆布托特包手提单肩包,包身选用品牌Vintage复古格纹环保帆布+光滑的意大利鞣制皮革打造,亮眼装饰格纹印花和对比缉明线,材质硬挺有型,上身超级吸睛亮眼。这种材质众所周知非常耐磨耐用,图案颜色低调好看,手感特別舒服,整體看去非常高級,搭配皮革包覆的镜子吊饰,非常低调又有标识性。开放式敞口设计,配有龙虾扣,黑色帆布的内里,有贴袋和拉链内袋,容量极大,这种托特的实用度都不用说了,背着还很舒服不累。出游通勤最爱了,怎么背都好看,具有独特的慵懒复古风,上街凹造型神器。而且这种包包特别耐用耐脏不过时。背起相当显气质,非常实用的款,一年四季都适用,错过拍大腿!姐妹们,冲冲冲!尺寸:34X28X14cm","specs":{"source":"wsxcme","sourceId":"_dbqbqrhVF9LBdXZhhCl-mSTEIah63Sl5-7dCCEA","sourceTagId":80411239,"sourceTagName":"巴宝莉/女包","dimensions":{"lengthCm":34,"heightCm":28,"widthCm":14},"rawTitle":"❤️B家纯原格纹涂层帆布托特包手提单肩包,包身选用品牌Vintage复古格纹环保帆布+光滑的意大利鞣制皮革打造,亮眼装饰格纹印花和对比缉明线,材质硬挺有型,上身超级吸睛亮眼。这种材质众所周知非常耐磨耐用,图案颜色低调好看,手感特別舒服,整體看去非常高級,搭配皮革包覆的镜子吊饰,非常低调又有标识性。开放式敞口设计,配有龙虾扣,黑色帆布的内里,有贴袋和拉链内袋,容量极大,这种托特的实用度都不用说了,背着还很舒服不累。出游通勤最爱了,怎么背都好看,具有独特的慵懒复古风,上街凹造型神器。而且这种包包特别耐用耐脏不过时。背起相当显气质,非常实用的款,一年四季都适用,错过拍大腿!姐妹们,冲冲冲!尺寸:34X28X14cm"},"price":null,"currency":"CNY","moq":1,"category":"burberry-women-bags","status":"active","alibaba_url":null,"images":["https://xcimg.szwego.com/20220423/i1650693408_2507_0.jpg","https://xcimg.szwego.com/20220423/i1650693408_2782_1.jpg","https://xcimg.szwego.com/20220423/i1650693408_1427_2.jpg","https://xcimg.szwego.com/20220423/i1650693408_3531_3.jpg","https://xcimg.szwego.com/20220423/i1650693408_5326_4.jpg","https://xcimg.szwego.com/20220423/i1650693408_7090_5.jpg","https://xcimg.szwego.com/20220423/i1650693408_6911_6.jpg","https://xcimg.szwego.com/20220423/i1650693408_2252_7.jpg","https://xcimg.szwego.com/20220423/i1650693408_8611_8.jpg"],"created_at":"2026-06-29T10:27:59.162Z"},{"id":"item-ac0a8915855d","sku":"_daUaUwlJlzwOziT2-RsJFYpKynWe740wVdMs_ng","name_en":"Burberry Women Bags","name_cn":"上身效果图!","specs":{"source":"wsxcme","sourceId":"_daUaUwlJlzwOziT2-RsJFYpKynWe740wVdMs_ng","sourceTagId":80411239,"sourceTagName":"巴宝莉/女包","rawTitle":"上身效果图!"},"price":null,"currency":"CNY","moq":1,"category":"burberry-women-bags","status":"active","alibaba_url":null,"images":["https://xcimg.szwego.com/20220323/i1648017832_6133_0.jpg","https://xcimg.szwego.com/20220323/i1648017832_7917_1.jpg","https://xcimg.szwego.com/20220323/i1648017832_3977_2.jpg","https://xcimg.szwego.com/20220323/i1648017832_4128_3.jpg","https://xcimg.szwego.com/20220323/i1648017832_9230_4.jpg"],"created_at":"2026-06-29T10:27:59.152Z"},{"id":"item-3e1c08b3a658","sku":"_dpfpf6S1JICnuOvKi4bXEPV_FuvWon4mtKpBn1g","name_en":"Burberry Women Bags","name_cn":"官网售价!","specs":{"source":"wsxcme","sourceId":"_dpfpf6S1JICnuOvKi4bXEPV_FuvWon4mtKpBn1g","sourceTagId":80411239,"sourceTagName":"巴宝莉/女包","rawTitle":"官网售价!"},"price":null,"currency":"CNY","moq":1,"category":"burberry-women-bags","status":"active","alibaba_url":null,"images":["https://xcimg.szwego.com/20220323/i1648017775_9626_0.jpg"],"created_at":"2026-06-29T10:27:59.142Z"},{"id":"item-a8d466b467f2","sku":"_dmTmT6jyyxMeIPJzxkggNDmh73XqvAqDXLr7rdw","name_en":"Burberry Women Bags","name_cn":"官网图","specs":{"source":"wsxcme","sourceId":"_dmTmT6jyyxMeIPJzxkggNDmh73XqvAqDXLr7rdw","sourceTagId":80411239,"sourceTagName":"巴宝莉/女包","rawTitle":"官网图"},"price":null,"currency":"CNY","moq":1,"category":"burberry-women-bags","status":"active","alibaba_url":null,"images":["https://xcimg.szwego.com/20220323/i1648017754_2217_0.jpg","https://xcimg.szwego.com/20220323/i1648017754_5936_1.jpg","https://xcimg.szwego.com/20220323/i1648017754_5210_2.jpg","https://xcimg.szwego.com/20220323/i1648017754_4327_3.jpg","https://xcimg.szwego.com/20220323/i1648017764_3641_0.jpg"],"created_at":"2026-06-29T10:27:59.132Z"},{"id":"item-f6c5eb92d02c","sku":"_dgbgbvXCaitI88WaddfbDn-UMZT3tmjORlmP8pw","name_en":"Burberry Women Bags","name_cn":"棕色 配原厂防尘袋!","specs":{"source":"wsxcme","sourceId":"_dgbgbvXCaitI88WaddfbDn-UMZT3tmjORlmP8pw","sourceTagId":80411239,"sourceTagName":"巴宝莉/女包","rawTitle":"棕色 配原厂防尘袋!"},"price":null,"currency":"CNY","moq":1,"category":"burberry-women-bags","status":"active","alibaba_url":null,"images":["https://xcimg.szwego.com/20220323/i1648016846_4068_0.jpg"],"created_at":"2026-06-29T10:27:59.122Z"},{"id":"item-6899284c6dd5","sku":"_dMPMPrmnC9jYo1RD4i_jfBPHKBtNRYgZ1gLwoZA","name_en":"Burberry Women Bags","name_cn":"在看一下进口烫金➕独有防伪编码 水洗麦!","specs":{"source":"wsxcme","sourceId":"_dMPMPrmnC9jYo1RD4i_jfBPHKBtNRYgZ1gLwoZA","sourceTagId":80411239,"sourceTagName":"巴宝莉/女包","rawTitle":"在看一下进口烫金➕独有防伪编码 水洗麦!"},"price":null,"currency":"CNY","moq":1,"category":"burberry-women-bags","status":"active","alibaba_url":null,"images":["https://xcimg.szwego.com/20220323/i1648016837_9606_0.jpg","https://xcimg.szwego.com/20220323/i1648016837_589_1.jpg","https://xcimg.szwego.com/20220323/i1648016837_8565_2.jpg","https://xcimg.szwego.com/20220323/i1648016837_4376_3.jpg","https://xcimg.szwego.com/20220323/i1648016837_4975_4.jpg"],"created_at":"2026-06-29T10:27:59.112Z"}],"page":3,"pageSize":24,"total":493,"totalPages":21}
