{"items":[{"id":"item-22311e5b7a40","sku":"_dsWsWLvtssKyPkdqjX3zWPrjdkbhKAhKoqxFWhQ","name_en":"❤【Ostrich Brown】","name_cn":"❤【Ostrich Brown】\nLoro Piana Extra pocket L19 Series Bestseller\nA life without definition is the most comfortable, just like Loro Piana's material and design. Styles without complex designs, with simple and soft contours that are elegant and timeless, like a exquisite makeup case, perfectly balancing aesthetics and functionality. The leather is fine, feeling as soft as butter. The compact body has a large capacity. It can be carried by hand with a thin strap or crossbody. Sisters who love minimalist style can get this one. Simple and versatile, the simpler, the more unique. Celebrities and influencers are raving about it. It's hard not to love it with such rare leather.\nSize: Small: 19×7×12cm","specs":{"source":"wsxcme","sourceId":"_dsWsWLvtssKyPkdqjX3zWPrjdkbhKAhKoqxFWhQ","sourceTagId":80411239,"sourceTagName":"Burberry/women's bag","rawTitle":"❤【Ostrich Brown】\nLoro Piana Extra pocket L19 Series Bestseller\nA life without definition is the most comfortable, just like Loro Piana's material and design. Styles without complex designs, with simple and soft contours that are elegant and timeless, like a exquisite makeup case, perfectly balancing aesthetics and functionality. The leather is fine, feeling as soft as butter. The compact body has a large capacity. It can be carried by hand with a thin strap or crossbody. Sisters who love minimalist style can get this one. Simple and versatile, the simpler, the more unique. Celebrities and influencers are raving about it. It's hard not to love it with such rare leather.\nSize: Small: 19×7×12cm"},"price":null,"currency":"CNY","moq":1,"category":"burberry-women-bags","status":"active","alibaba_url":null,"images":["https://xcimg.szwego.com/20230816/i1692176553_9452_0.jpg","https://xcimg.szwego.com/20230816/i1692176553_8725_1.jpg","https://xcimg.szwego.com/20230816/i1692176553_8150_2.jpg","https://xcimg.szwego.com/20230816/i1692176553_8348_3.jpg","https://xcimg.szwego.com/20230816/i1692176553_9247_4.jpg","https://xcimg.szwego.com/20230816/i1692176553_4382_5.jpg","https://xcimg.szwego.com/20230816/i1692176553_2003_6.jpg","https://xcimg.szwego.com/20230816/i1692176553_3356_7.jpg","https://xcimg.szwego.com/20230816/i1692176553_9120_8.jpg"],"created_at":"2025-01-20T12:43:24.096Z"},{"id":"item-f9081d26507d","sku":"_dlFlFEGW9FJTd-vTUYS5GcQagQxZ4GaQFU_1i8w","name_en":"A❤【Ostrich Black】","name_cn":"A❤【Ostrich Black】\nLoro Piana Extra pocket L19 Series Bestseller\nA life without definition is the most comfortable, just like Loro Piana's material and design. Styles without complex designs, with simple and soft contours that are elegant and timeless, like a exquisite makeup case, perfectly balancing aesthetics and functionality. The leather is fine, feeling as soft as butter. The compact body has a large capacity. It can be carried by hand with a thin strap or crossbody. Sisters who love minimalist style can get this one. Simple and versatile, the simpler, the more unique. Celebrities and influencers are raving about it. It's hard not to love it with such rare leather.\nSize: Small: 19×7×12cm","specs":{"source":"wsxcme","sourceId":"_dlFlFEGW9FJTd-vTUYS5GcQagQxZ4GaQFU_1i8w","sourceTagId":80411239,"sourceTagName":"Burberry/women's bag","rawTitle":"A❤【Ostrich Black】\nLoro Piana Extra pocket L19 Series Bestseller\nA life without definition is the most comfortable, just like Loro Piana's material and design. Styles without complex designs, with simple and soft contours that are elegant and timeless, like a exquisite makeup case, perfectly balancing aesthetics and functionality. The leather is fine, feeling as soft as butter. The compact body has a large capacity. It can be carried by hand with a thin strap or crossbody. Sisters who love minimalist style can get this one. Simple and versatile, the simpler, the more unique. Celebrities and influencers are raving about it. It's hard not to love it with such rare leather.\nSize: Small: 19×7×12cm"},"price":null,"currency":"CNY","moq":1,"category":"burberry-women-bags","status":"active","alibaba_url":null,"images":["https://xcimg.szwego.com/20230816/i1692176508_7158_0.jpg","https://xcimg.szwego.com/20230816/i1692176508_4352_1.jpg","https://xcimg.szwego.com/20230816/i1692176508_6436_2.jpg","https://xcimg.szwego.com/20230816/i1692176508_113_3.jpg","https://xcimg.szwego.com/20230816/i1692176508_7425_4.jpg","https://xcimg.szwego.com/20230816/i1692176508_3837_5.jpg","https://xcimg.szwego.com/20230816/i1692176508_3928_6.jpg","https://xcimg.szwego.com/20230816/i1692176508_2201_7.jpg","https://xcimg.szwego.com/20230816/i1692176508_5282_8.jpg"],"created_at":"2025-01-20T12:43:24.095Z"},{"id":"item-d4e115c311ff","sku":"_detetdhm41lGwMGouQu3P-VdQgWy9kuLuEuvitg","name_en":"❤【Ostrich Milk Tea】","name_cn":"❤【Ostrich Milk Tea】\nLoro Piana Extra pocket L19 Series Bestseller\nA life without definition is the most comfortable, just like Loro Piana's material and design. Styles without complex designs, with simple and soft contours that are elegant and timeless, like a exquisite makeup case, perfectly balancing aesthetics and functionality. The leather is fine, feeling as soft as butter. The compact body has a large capacity. It can be carried by hand with a thin strap or crossbody. Sisters who love minimalist style can get this one. Simple and versatile, the simpler, the more unique. Celebrities and influencers are raving about it. It's hard not to love it with such rare leather.\nSize: Small: 19×7×12cm","specs":{"source":"wsxcme","sourceId":"_detetdhm41lGwMGouQu3P-VdQgWy9kuLuEuvitg","sourceTagId":80411239,"sourceTagName":"Burberry/women's bag","rawTitle":"❤【Ostrich Milk Tea】\nLoro Piana Extra pocket L19 Series Bestseller\nA life without definition is the most comfortable, just like Loro Piana's material and design. Styles without complex designs, with simple and soft contours that are elegant and timeless, like a exquisite makeup case, perfectly balancing aesthetics and functionality. The leather is fine, feeling as soft as butter. The compact body has a large capacity. It can be carried by hand with a thin strap or crossbody. Sisters who love minimalist style can get this one. Simple and versatile, the simpler, the more unique. Celebrities and influencers are raving about it. It's hard not to love it with such rare leather.\nSize: Small: 19×7×12cm"},"price":null,"currency":"CNY","moq":1,"category":"burberry-women-bags","status":"active","alibaba_url":null,"images":["https://xcimg.szwego.com/20230816/i1692176452_162_0.jpg","https://xcimg.szwego.com/20230816/i1692176452_9288_1.jpg","https://xcimg.szwego.com/20230816/i1692176452_5926_2.jpg","https://xcimg.szwego.com/20230816/i1692176452_7106_3.jpg","https://xcimg.szwego.com/20230816/i1692176452_7656_4.jpg","https://xcimg.szwego.com/20230816/i1692176452_4872_5.jpg","https://xcimg.szwego.com/20230816/i1692176452_9580_6.jpg","https://xcimg.szwego.com/20230816/i1692176452_6136_7.jpg","https://xcimg.szwego.com/20230816/i1692176452_9325_8.jpg"],"created_at":"2025-01-20T12:43:24.094Z"},{"id":"item-2959294f40d9","sku":"_d8383x-Rdz2vLB4PWum52vmBPoEkItQJZGbabrQ","name_en":"❤【Ostrich Rose Pink】","name_cn":"❤【Ostrich Rose Pink】\nLoro Piana Extra pocket L19 Series Bestseller\nA life without definition is the most comfortable, just like Loro Piana's material and design. Styles without complex designs, with simple and soft contours that are elegant and timeless, like a exquisite makeup case, perfectly balancing aesthetics and functionality. The leather is fine, feeling as soft as butter. The compact body has a large capacity. It can be carried by hand with a thin strap or crossbody. Sisters who love minimalist style can get this one. Simple and versatile, the simpler, the more unique. Celebrities and influencers are raving about it. It's hard not to love it with such rare leather.\nSize: Small: 19×7×12cm","specs":{"source":"wsxcme","sourceId":"_d8383x-Rdz2vLB4PWum52vmBPoEkItQJZGbabrQ","sourceTagId":80411239,"sourceTagName":"Burberry/women's bag","rawTitle":"❤【Ostrich Rose Pink】\nLoro Piana Extra pocket L19 Series Bestseller\nA life without definition is the most comfortable, just like Loro Piana's material and design. Styles without complex designs, with simple and soft contours that are elegant and timeless, like a exquisite makeup case, perfectly balancing aesthetics and functionality. The leather is fine, feeling as soft as butter. The compact body has a large capacity. It can be carried by hand with a thin strap or crossbody. Sisters who love minimalist style can get this one. Simple and versatile, the simpler, the more unique. Celebrities and influencers are raving about it. It's hard not to love it with such rare leather.\nSize: Small: 19×7×12cm"},"price":null,"currency":"CNY","moq":1,"category":"burberry-women-bags","status":"active","alibaba_url":null,"images":["https://xcimg.szwego.com/20230816/i1692176390_8236_0.jpg","https://xcimg.szwego.com/20230816/i1692176390_3892_1.jpg","https://xcimg.szwego.com/20230816/i1692176390_822_2.jpg","https://xcimg.szwego.com/20230816/i1692176390_4843_3.jpg","https://xcimg.szwego.com/20230816/i1692176390_6462_4.jpg","https://xcimg.szwego.com/20230816/i1692176390_9186_5.jpg","https://xcimg.szwego.com/20230816/i1692176390_3667_6.jpg"],"created_at":"2025-01-20T12:43:24.093Z"},{"id":"item-9d490e5be4d8","sku":"_dj1j1h9Ls7Ko76eAmwj1N2ZsoQFXkyV_ZaNQliw","name_en":"❤️B Brand Pure Original Pocket Bag, Cowhide with Canvas, Caramel Coffee + Cream White colorway, retro and high-end yet durable. It has a bit of a cute academic vibe and a strong British tone. Can be sweet or salty, looks great handheld or crossbody! Handheld gives a better street snap vibe, the more you look, the more you like it. Large: 37×9.5×41cm","name_cn":"❤️B Brand Pure Original Pocket Bag, Cowhide with Canvas, Caramel Coffee + Cream White colorway, retro and high-end yet durable. It has a bit of a cute academic vibe and a strong British tone. Can be sweet or salty, looks great handheld or crossbody! Handheld gives a better street snap vibe, the more you look, the more you like it. Large: 37×9.5×41cm","specs":{"source":"wsxcme","sourceId":"_dj1j1h9Ls7Ko76eAmwj1N2ZsoQFXkyV_ZaNQliw","sourceTagId":80411239,"sourceTagName":"Burberry/women's bag","rawTitle":"❤️B Brand Pure Original Pocket Bag, Cowhide with Canvas, Caramel Coffee + Cream White colorway, retro and high-end yet durable. It has a bit of a cute academic vibe and a strong British tone. Can be sweet or salty, looks great handheld or crossbody! Handheld gives a better street snap vibe, the more you look, the more you like it. Large: 37×9.5×41cm"},"price":null,"currency":"CNY","moq":1,"category":"burberry-women-bags","status":"active","alibaba_url":null,"images":["https://xcimg.szwego.com/20210724/i1627092810_9525_0.jpg","https://xcimg.szwego.com/20210724/i1627092810_1478_1.jpg","https://xcimg.szwego.com/20210724/i1627092810_4575_2.jpg","https://xcimg.szwego.com/20210724/i1627092810_1557_3.jpg","https://xcimg.szwego.com/20210724/i1627092810_6682_4.jpg","https://xcimg.szwego.com/20210724/i1627092810_6408_5.jpg","https://xcimg.szwego.com/20210724/i1627092810_5327_6.jpg","https://xcimg.szwego.com/20210724/i1627092810_7427_7.jpg","https://xcimg.szwego.com/20210724/i1627092810_3447_8.jpg"],"created_at":"2025-01-20T12:43:24.092Z"},{"id":"item-5cc818a1deca","sku":"_dGwGw_h7yZDTOey9QqTgUzdcC3OBYwGgK4QW9MQ","name_en":"❤️ Pure original checkered canvas two-tone patchwork lock bag from Brand B. The canvas material has a fresh and elegant vibe. The bag is structured and holds its shape without being soft or wrinkly. It is made using selected jacquard fine-woven canvas and leather, finished with exquisite heavy-duty visible stitching. The hardware is pure copper plated with real gold. The TB logo is truly beautiful, using the classic B-shaped lock as decoration—simple, elegant, and recognizable. The lining is full cowhide with two compartments and a zipper pocket. The capacity is huge and super spacious, enough to hold daily essentials. The adjustable calfskin shoulder strap is stylish for both shoulder and crossbody wear. It is a very trendy British retro style. This material is generally lighter than leather bags. The canvas is also lightweight, durable, and has a top-notch texture. It is a low-key luxury with substance, and you can wear it all year round. It goes with absolutely any outfit! Love it!","name_cn":"❤️ Pure original checkered canvas two-tone patchwork lock bag from Brand B. The canvas material has a fresh and elegant vibe. The bag is structured and holds its shape without being soft or wrinkly. It is made using selected jacquard fine-woven canvas and leather, finished with exquisite heavy-duty visible stitching. The hardware is pure copper plated with real gold. The TB logo is truly beautiful, using the classic B-shaped lock as decoration—simple, elegant, and recognizable. The lining is full cowhide with two compartments and a zipper pocket. The capacity is huge and super spacious, enough to hold daily essentials. The adjustable calfskin shoulder strap is stylish for both shoulder and crossbody wear. It is a very trendy British retro style. This material is generally lighter than leather bags. The canvas is also lightweight, durable, and has a top-notch texture. It is a low-key luxury with substance, and you can wear it all year round. It goes with absolutely any outfit! Love it!","specs":{"source":"wsxcme","sourceId":"_dGwGw_h7yZDTOey9QqTgUzdcC3OBYwGgK4QW9MQ","sourceTagId":80411239,"sourceTagName":"Burberry/women's bag","dimensions":{"lengthCm":25.5,"heightCm":18.5,"widthCm":6.5},"rawTitle":"❤️ Pure original checkered canvas two-tone patchwork lock bag from Brand B. The canvas material has a fresh and elegant vibe. The bag is structured and holds its shape without being soft or wrinkly. It is made using selected jacquard fine-woven canvas and leather, finished with exquisite heavy-duty visible stitching. The hardware is pure copper plated with real gold. The TB logo is truly beautiful, using the classic B-shaped lock as decoration—simple, elegant, and recognizable. The lining is full cowhide with two compartments and a zipper pocket. The capacity is huge and super spacious, enough to hold daily essentials. The adjustable calfskin shoulder strap is stylish for both shoulder and crossbody wear. It is a very trendy British retro style. This material is generally lighter than leather bags. The canvas is also lightweight, durable, and has a top-notch texture. It is a low-key luxury with substance, and you can wear it all year round. It goes with absolutely any outfit! Love it!"},"price":null,"currency":"CNY","moq":1,"category":"burberry-women-bags","status":"active","alibaba_url":null,"images":["https://xcimg.szwego.com/20210611/i1623390751_482_0.jpg","https://xcimg.szwego.com/20210611/i1623390751_6137_1.jpg","https://xcimg.szwego.com/20210611/i1623390751_9146_2.jpg","https://xcimg.szwego.com/20210611/i1623390751_5565_3.jpg","https://xcimg.szwego.com/20210611/i1623390751_8441_4.jpg","https://xcimg.szwego.com/20210611/i1623390751_8585_5.jpg","https://xcimg.szwego.com/20210611/i1623390751_8974_6.jpg","https://xcimg.szwego.com/20210611/i1623390751_3311_7.jpg","https://xcimg.szwego.com/20210611/i1623390751_27_8.jpg"],"created_at":"2025-01-20T12:43:24.091Z"},{"id":"item-16548bb72212","sku":"_dw6w6IPgP0wyABOkb6ZRklY9XTxzMYxj-w4YInw","name_en":"❤️B logo canvas crossbody , canvas calfskin , , 。 hardware , , Horseferry , 。 , calfskin , , , , , , width , , , shoulder carry crossbody , , , , 。Size:25x18x8.5cm","name_cn":"❤️B logo canvas crossbody , canvas calfskin , , 。 hardware , , Horseferry , 。 , calfskin , , , , , , width , , , shoulder carry crossbody , , , , 。Size:25x18x8.5cm","specs":{"source":"wsxcme","sourceId":"_dw6w6IPgP0wyABOkb6ZRklY9XTxzMYxj-w4YInw","sourceTagId":80411239,"sourceTagName":"Burberry/women's bag","dimensions":{"lengthCm":25,"heightCm":18,"widthCm":8.5},"rawTitle":"❤️B logo canvas crossbody , canvas calfskin , , 。 hardware , , Horseferry , 。 , calfskin , , , , , , width , , , shoulder carry crossbody , , , , 。Size:25x18x8.5cm"},"price":null,"currency":"CNY","moq":1,"category":"burberry-women-bags","status":"active","alibaba_url":null,"images":["https://xcimg.szwego.com/20200723/i1595493417_3247_0.jpg","https://xcimg.szwego.com/20200723/i1595493417_2989_1.jpg","https://xcimg.szwego.com/20200723/i1595493417_5381_2.jpg","https://xcimg.szwego.com/20200723/i1595493417_3466_3.jpg","https://xcimg.szwego.com/20200723/i1595493417_4320_4.jpg","https://xcimg.szwego.com/20200723/i1595493417_5845_5.jpg","https://xcimg.szwego.com/20200723/i1595493417_6386_6.jpg","https://xcimg.szwego.com/20200723/i1595493417_4958_7.jpg","https://xcimg.szwego.com/20200723/i1595493417_5216_8.jpg"],"created_at":"2025-01-20T12:43:24.090Z"},{"id":"item-68f20d4ed7f2","sku":"_dkrkrcf07OiSUIIWsz5rmsOIrDcWK4zTzDwvBSA","name_en":"❤️B , , Thomas Burberry 。 , , 。 top handle, shoulder carry 。","name_cn":"❤️B , , Thomas Burberry 。 , , 。 top handle, shoulder carry 。\n27 x 11 x 20 cm","specs":{"source":"wsxcme","sourceId":"_dkrkrcf07OiSUIIWsz5rmsOIrDcWK4zTzDwvBSA","sourceTagId":80411239,"sourceTagName":"Burberry/women's bag","rawTitle":"❤️B , , Thomas Burberry 。 , , 。 top handle, shoulder carry 。\n27 x 11 x 20 cm"},"price":null,"currency":"CNY","moq":1,"category":"burberry-women-bags","status":"active","alibaba_url":null,"images":["https://xcimg.szwego.com/img/d5e7a5ce/20240801/a1722496398152_5014.jpg","https://xcimg.szwego.com/img/d5e7a5ce/20240801/a1722496398154_1233.jpg","https://xcimg.szwego.com/img/d5e7a5ce/20240801/a1722496398155_4030.jpg","https://xcimg.szwego.com/img/d5e7a5ce/20240801/a1722496398156_5530.jpg","https://xcimg.szwego.com/img/d5e7a5ce/20240801/a1722496398156_0383.jpg","https://xcimg.szwego.com/img/d5e7a5ce/20240801/a1722496398157_2808.jpg","https://xcimg.szwego.com/img/d5e7a5ce/20240801/a1722496398812_6417.jpg","https://xcimg.szwego.com/img/d5e7a5ce/20240801/a1722496398811_4273.jpg","https://xcimg.szwego.com/img/d5e7a5ce/20240801/a1722496398812_3036.jpg"],"created_at":"2025-01-20T12:43:24.089Z"},{"id":"item-9be7a392eb85","sku":"_dx3x32XGsC8NK1_DT04omHYKpZcQ2F4uhZ1IGJw","name_en":"❤️B , , Thomas Burberry 。 , , 。 top handle, shoulder carry 。","name_cn":"❤️B , , Thomas Burberry 。 , , 。 top handle, shoulder carry 。\n27 x 11 x 20 cm","specs":{"source":"wsxcme","sourceId":"_dx3x32XGsC8NK1_DT04omHYKpZcQ2F4uhZ1IGJw","sourceTagId":80411239,"sourceTagName":"Burberry/women's bag","rawTitle":"❤️B , , Thomas Burberry 。 , , 。 top handle, shoulder carry 。\n27 x 11 x 20 cm"},"price":null,"currency":"CNY","moq":1,"category":"burberry-women-bags","status":"active","alibaba_url":null,"images":["https://xcimg.szwego.com/img/d5e7a5ce/20240801/a1722496632643_4647.jpg","https://xcimg.szwego.com/img/d5e7a5ce/20240801/a1722496632644_6403.jpg","https://xcimg.szwego.com/img/d5e7a5ce/20240801/a1722496632646_5524.jpg","https://xcimg.szwego.com/img/d5e7a5ce/20240801/a1722496632648_1263.jpg","https://xcimg.szwego.com/img/d5e7a5ce/20240801/a1722496633369_8431.jpg","https://xcimg.szwego.com/img/d5e7a5ce/20240801/a1722496632651_4342.jpg","https://xcimg.szwego.com/img/d5e7a5ce/20240801/a1722496632649_1200.jpg","https://xcimg.szwego.com/img/d5e7a5ce/20240801/a1722496633383_0020.jpg","https://xcimg.szwego.com/img/d5e7a5ce/20240801/a1722496633379_3840.jpg"],"created_at":"2025-01-20T12:43:24.088Z"},{"id":"item-5f9a618ff8c0","sku":"_du0u0jXwyxfeOPVILUmOHnKXtOm8NlV6Rlp-Jdg","name_en":"❤️B , , Thomas Bur 。 , , 。 top handle, shoulder carry 。Size32.5 x 12 × 24cm","name_cn":"❤️B , , Thomas Bur 。 , , 。 top handle, shoulder carry 。Size32.5 x 12 × 24cm\n lambskin🌟 :100% calfskin🌟","specs":{"source":"wsxcme","sourceId":"_du0u0jXwyxfeOPVILUmOHnKXtOm8NlV6Rlp-Jdg","sourceTagId":80411239,"sourceTagName":"Burberry/women's bag","dimensions":{"lengthCm":32.5,"heightCm":12,"widthCm":24},"rawTitle":"❤️B , , Thomas Bur 。 , , 。 top handle, shoulder carry 。Size32.5 x 12 × 24cm\n lambskin🌟 :100% calfskin🌟"},"price":null,"currency":"CNY","moq":1,"category":"burberry-women-bags","status":"active","alibaba_url":null,"images":["https://xcimg.szwego.com/img/d5e7a5ce/20240914/a1726288027027_3250.jpg","https://xcimg.szwego.com/img/d5e7a5ce/20240914/a1726288027028_0472.jpg","https://xcimg.szwego.com/img/d5e7a5ce/20240914/a1726288027036_7813.jpg","https://xcimg.szwego.com/img/d5e7a5ce/20240914/a1726288027033_3085.jpg","https://xcimg.szwego.com/img/d5e7a5ce/20240914/a1726288027035_1104.jpg","https://xcimg.szwego.com/img/d5e7a5ce/20240914/a1726288027033_0237.jpg","https://xcimg.szwego.com/img/d5e7a5ce/20240914/a1726288029822_7678.jpg","https://xcimg.szwego.com/img/d5e7a5ce/20240914/a1726288029821_2041.jpg","https://xcimg.szwego.com/img/d5e7a5ce/20240914/a1726288030139_0341.jpg"],"created_at":"2025-01-20T12:43:24.087Z"},{"id":"item-847a74e3808d","sku":"_dkhkhYkh9CqtVhsxZpVDuw2lo1MOZTF9Uawj84g","name_en":"❤️B , , Thomas Bur 。 , , 。 top handle, shoulder carry 。Size32.5 x 12 × 24cm","name_cn":"❤️B , , Thomas Bur 。 , , 。 top handle, shoulder carry 。Size32.5 x 12 × 24cm\n lambskin🌟 :100% calfskin🌟","specs":{"source":"wsxcme","sourceId":"_dkhkhYkh9CqtVhsxZpVDuw2lo1MOZTF9Uawj84g","sourceTagId":80411239,"sourceTagName":"Burberry/women's bag","dimensions":{"lengthCm":32.5,"heightCm":12,"widthCm":24},"rawTitle":"❤️B , , Thomas Bur 。 , , 。 top handle, shoulder carry 。Size32.5 x 12 × 24cm\n lambskin🌟 :100% calfskin🌟"},"price":null,"currency":"CNY","moq":1,"category":"burberry-women-bags","status":"active","alibaba_url":null,"images":["https://xcimg.szwego.com/img/d5e7a5ce/20240914/a1726287981308_0720.jpg","https://xcimg.szwego.com/img/d5e7a5ce/20240914/a1726287981313_0106.jpg","https://xcimg.szwego.com/img/d5e7a5ce/20240914/a1726287981310_5880.jpg","https://xcimg.szwego.com/img/d5e7a5ce/20240914/a1726287981311_1334.jpg","https://xcimg.szwego.com/img/d5e7a5ce/20240914/a1726287981317_7224.jpg","https://xcimg.szwego.com/img/d5e7a5ce/20240914/a1726287981317_8766.jpg","https://xcimg.szwego.com/img/d5e7a5ce/20240914/a1726287985909_6163.jpg","https://xcimg.szwego.com/img/d5e7a5ce/20240914/a1726287985916_6277.jpg","https://xcimg.szwego.com/img/d5e7a5ce/20240914/a1726287985915_0746.jpg"],"created_at":"2025-01-20T12:43:24.086Z"},{"id":"item-e770881c1d75","sku":"_dl4l40aD5_qWlZcArij61DtCbSpTAvbom6lCFEQ","name_en":"❤️B , , Thomas Burberry 。 , , 。 top handle, shoulder carry 。","name_cn":"❤️B , , Thomas Burberry 。 , , 。 top handle, shoulder carry 。\n27 x 11 x 20 cm","specs":{"source":"wsxcme","sourceId":"_dl4l40aD5_qWlZcArij61DtCbSpTAvbom6lCFEQ","sourceTagId":80411239,"sourceTagName":"Burberry/women's bag","rawTitle":"❤️B , , Thomas Burberry 。 , , 。 top handle, shoulder carry 。\n27 x 11 x 20 cm"},"price":null,"currency":"CNY","moq":1,"category":"burberry-women-bags","status":"active","alibaba_url":null,"images":["https://xcimg.szwego.com/img/d5e7a5ce/20240801/a1722496558016_6656.jpg","https://xcimg.szwego.com/img/d5e7a5ce/20240801/a1722496557451_1354.jpg","https://xcimg.szwego.com/img/d5e7a5ce/20240801/a1722496557451_6543.jpg","https://xcimg.szwego.com/img/d5e7a5ce/20240801/a1722496557449_8482.jpg","https://xcimg.szwego.com/img/d5e7a5ce/20240801/a1722496557453_5648.jpg","https://xcimg.szwego.com/img/d5e7a5ce/20240801/a1722496557452_2573.jpg","https://xcimg.szwego.com/img/d5e7a5ce/20240801/a1722496557449_1165.jpg","https://xcimg.szwego.com/img/d5e7a5ce/20240801/a1722496558015_7173.jpg","https://xcimg.szwego.com/img/d5e7a5ce/20240801/a1722496558017_6885.jpg"],"created_at":"2025-01-20T12:43:10.990Z"},{"id":"item-41654e5a6d37","sku":"_dkikizJ2dRtZP3dj0QAwq6VTN5oHU4lTMnUnf9A","name_en":"B , , Thomas Burberry 。 , , 。 top handle, shoulder carry 。","name_cn":"B , , Thomas Burberry 。 , , 。 top handle, shoulder carry 。\n27 x 11 x 20 cm","specs":{"source":"wsxcme","sourceId":"_dkikizJ2dRtZP3dj0QAwq6VTN5oHU4lTMnUnf9A","sourceTagId":80411239,"sourceTagName":"Burberry/women's bag","rawTitle":"B , , Thomas Burberry 。 , , 。 top handle, shoulder carry 。\n27 x 11 x 20 cm"},"price":null,"currency":"CNY","moq":1,"category":"burberry-women-bags","status":"active","alibaba_url":null,"images":["https://xcimg.szwego.com/img/d5e7a5ce/20240801/a1722496792216_1221.jpg","https://xcimg.szwego.com/img/d5e7a5ce/20240801/a1722496792218_6016.jpg","https://xcimg.szwego.com/img/d5e7a5ce/20240801/a1722496792219_5737.jpg","https://xcimg.szwego.com/img/d5e7a5ce/20240801/a1722496792220_7558.jpg","https://xcimg.szwego.com/img/d5e7a5ce/20240801/a1722496792221_2184.jpg","https://xcimg.szwego.com/img/d5e7a5ce/20240801/a1722496792823_5665.jpg","https://xcimg.szwego.com/img/d5e7a5ce/20240801/a1722496792821_1347.jpg","https://xcimg.szwego.com/img/d5e7a5ce/20240801/a1722496792822_5424.jpg","https://xcimg.szwego.com/img/d5e7a5ce/20240801/a1722496803983_3312.jpg"],"created_at":"2025-01-20T12:43:00.686Z"}],"page":21,"pageSize":24,"total":493,"totalPages":21}
