{"items":[{"id":"item-7e5995df1fd6","sku":"_dTvTv3dMXxJfcHldHHz40NCTCT6NXe81Q4wJmsw","name_en":"『Burberry 巴宝莉』","name_cn":"『Burberry 巴宝莉』\n\n【Burberry•柏宝利】原单出品🇮🇹~~小肩包手包两用🎉👉细腻[玫瑰]柔软的进口小牛皮搭配格子面料,金色五金配件,👍专柜品质、做工精细💋实物拍摄📷,🆔🆔18696棕色,尺寸19cm*13.5cm*5cm","specs":{"source":"wsxcme","sourceId":"_dTvTv3dMXxJfcHldHHz40NCTCT6NXe81Q4wJmsw","sourceTagId":80411239,"sourceTagName":"巴宝莉/女包","rawTitle":"『Burberry 巴宝莉』\n\n【Burberry•柏宝利】原单出品🇮🇹~~小肩包手包两用🎉👉细腻[玫瑰]柔软的进口小牛皮搭配格子面料,金色五金配件,👍专柜品质、做工精细💋实物拍摄📷,🆔🆔18696棕色,尺寸19cm*13.5cm*5cm"},"price":null,"currency":"CNY","moq":1,"category":"burberry-women-bags","status":"active","alibaba_url":null,"images":["https://xcimg.szwego.com/1531640465_2894210061_0","https://xcimg.szwego.com/1531640465_3044033011_1","https://xcimg.szwego.com/1531640465_2313787834_2","https://xcimg.szwego.com/1531640465_1436689406_3","https://xcimg.szwego.com/1531640465_234171227_4","https://xcimg.szwego.com/1531640465_1047705546_5","https://xcimg.szwego.com/1531640465_4224895450_6","https://xcimg.szwego.com/1531640465_2040930900_7","https://xcimg.szwego.com/1531640465_392243786_8"],"created_at":"2025-02-08T12:43:38.715Z"},{"id":"item-37916835be23","sku":"_dx6x68bFA00ehDWiSYi_QqRtNpVCDoSP58ZvEhA","name_en":"『Burberry 巴宝莉』","name_cn":"『Burberry 巴宝莉』\n\n【Burberry•柏宝利】原单出品🇮🇹~~小肩包手包两用🎉👉细腻[玫瑰]柔软的进口小牛皮搭配格子面料,金色五金配件,👍专柜品质、做工精细💋实物拍摄📷,🆔🆔18696尺寸19cm*13.5cm*5cm","specs":{"source":"wsxcme","sourceId":"_dx6x68bFA00ehDWiSYi_QqRtNpVCDoSP58ZvEhA","sourceTagId":80411239,"sourceTagName":"巴宝莉/女包","rawTitle":"『Burberry 巴宝莉』\n\n【Burberry•柏宝利】原单出品🇮🇹~~小肩包手包两用🎉👉细腻[玫瑰]柔软的进口小牛皮搭配格子面料,金色五金配件,👍专柜品质、做工精细💋实物拍摄📷,🆔🆔18696尺寸19cm*13.5cm*5cm"},"price":null,"currency":"CNY","moq":1,"category":"burberry-women-bags","status":"active","alibaba_url":null,"images":["https://xcimg.szwego.com/1541568927_1786582698_0","https://xcimg.szwego.com/1541568927_2923195328_1","https://xcimg.szwego.com/1541568927_3935868295_2","https://xcimg.szwego.com/1541568927_4068554341_3","https://xcimg.szwego.com/1541568927_1656561145_4","https://xcimg.szwego.com/1541568927_2733929829_5","https://xcimg.szwego.com/1541568927_2526842509_6","https://xcimg.szwego.com/1541568928_4134825654_7","https://xcimg.szwego.com/1541568928_541245235_8"],"created_at":"2025-02-08T12:43:38.714Z"},{"id":"item-28f889dcf269","sku":"_dnunui5mxsXQOaSPl4X2qj5mIYNPh8zc4cmjWhA","name_en":"『Burberry 巴宝莉』","name_cn":"『Burberry 巴宝莉』\n\nB家精巧钱夹手包出货!精选Vintage复古格纹裁片粒纹皮革制成。按扣携刻焕新品版徽标。随附可拆式背带。自如缔造迷你包款。款号1621!尺寸20.5、3、12","specs":{"source":"wsxcme","sourceId":"_dnunui5mxsXQOaSPl4X2qj5mIYNPh8zc4cmjWhA","sourceTagId":80411239,"sourceTagName":"巴宝莉/女包","modelNumber":"1621!尺寸20.5、3、12","rawTitle":"『Burberry 巴宝莉』\n\nB家精巧钱夹手包出货!精选Vintage复古格纹裁片粒纹皮革制成。按扣携刻焕新品版徽标。随附可拆式背带。自如缔造迷你包款。款号1621!尺寸20.5、3、12"},"price":null,"currency":"CNY","moq":1,"category":"burberry-women-bags","status":"active","alibaba_url":null,"images":["https://xcimg.szwego.com/1581477865_4172863782_0","https://xcimg.szwego.com/1581477865_687938915_1","https://xcimg.szwego.com/1581477865_2159583716_2","https://xcimg.szwego.com/1581477865_2359456465_3","https://xcimg.szwego.com/1581477865_1320427598_4","https://xcimg.szwego.com/1581477865_3292447693_5","https://xcimg.szwego.com/1581477865_31432892_6","https://xcimg.szwego.com/1581477865_3569493279_7","https://xcimg.szwego.com/1581477865_1989643066_8"],"created_at":"2025-02-08T12:43:38.713Z"},{"id":"item-3010cbbd36d4","sku":"_dririeTAxbH5O7cq4Y7JIFMEMFT2XsRvVevqtrQ","name_en":"『Burberry 巴宝莉』","name_cn":"『Burberry 巴宝莉』\n\n🔥🔥B家新款小号羊皮精巧别致的绗缝学院风萝纳包🤪🤪装饰 Thomas Burberry 专属标识,搭配亮泽的链条背带。可肩背,或使用顶部提柄缔造手拿包造型。19x5.5x11cm、8391","specs":{"source":"wsxcme","sourceId":"_dririeTAxbH5O7cq4Y7JIFMEMFT2XsRvVevqtrQ","sourceTagId":80411239,"sourceTagName":"巴宝莉/女包","rawTitle":"『Burberry 巴宝莉』\n\n🔥🔥B家新款小号羊皮精巧别致的绗缝学院风萝纳包🤪🤪装饰 Thomas Burberry 专属标识,搭配亮泽的链条背带。可肩背,或使用顶部提柄缔造手拿包造型。19x5.5x11cm、8391"},"price":null,"currency":"CNY","moq":1,"category":"burberry-women-bags","status":"active","alibaba_url":null,"images":["https://xcimg.szwego.com/20220425/a1650881067499_5316.jpg","https://xcimg.szwego.com/20220425/a1650881067610_2374.jpg","https://xcimg.szwego.com/20220425/a1650881067743_7042.jpg","https://xcimg.szwego.com/20220425/a1650881067872_7355.jpg","https://xcimg.szwego.com/20220425/a1650881068023_1027.jpg","https://xcimg.szwego.com/20220425/a1650881068164_0428.jpg","https://xcimg.szwego.com/20220425/a1650881068303_5162.jpg","https://xcimg.szwego.com/20220425/a1650881068465_5002.jpg","https://xcimg.szwego.com/20220425/a1650881068579_2137.jpg"],"created_at":"2025-02-08T12:43:38.712Z"},{"id":"item-2be0fa59dda0","sku":"_d-F-Fa8kuGi8Cz-MSNcpw-jyv-vXhp51OZinXgQ","name_en":"『Burberry 巴宝莉』","name_cn":"『Burberry 巴宝莉』\n\n🔥🔥B家新款小号羊皮精巧别致的绗缝学院风萝纳包🤪🤪装饰 Thomas Burberry 专属标识,搭配亮泽的链条背带。可肩背,或使用顶部提柄缔造手拿包造型。19x5.5x11cm、8391","specs":{"source":"wsxcme","sourceId":"_d-F-Fa8kuGi8Cz-MSNcpw-jyv-vXhp51OZinXgQ","sourceTagId":80411239,"sourceTagName":"巴宝莉/女包","rawTitle":"『Burberry 巴宝莉』\n\n🔥🔥B家新款小号羊皮精巧别致的绗缝学院风萝纳包🤪🤪装饰 Thomas Burberry 专属标识,搭配亮泽的链条背带。可肩背,或使用顶部提柄缔造手拿包造型。19x5.5x11cm、8391"},"price":null,"currency":"CNY","moq":1,"category":"burberry-women-bags","status":"active","alibaba_url":null,"images":["https://xcimg.szwego.com/20220425/a1650881078944_8431.jpg","https://xcimg.szwego.com/20220425/a1650881079075_3660.jpg","https://xcimg.szwego.com/20220425/a1650881079177_6254.jpg","https://xcimg.szwego.com/20220425/a1650881079302_3883.jpg","https://xcimg.szwego.com/20220425/a1650881079421_8557.jpg","https://xcimg.szwego.com/20220425/a1650881079557_4573.jpg","https://xcimg.szwego.com/20220425/a1650881079686_3052.jpg","https://xcimg.szwego.com/20220425/a1650881079811_6623.jpg","https://xcimg.szwego.com/20220425/a1650881079942_3517.jpg"],"created_at":"2025-02-08T12:43:38.711Z"},{"id":"item-c06cfbfe5167","sku":"_ddndnH4FJOyNY4RDHRPkVlOT3gCy4pbAya0J_AA","name_en":"『Burberry 巴宝莉』","name_cn":"『Burberry 巴宝莉』\n\n🔥🔥B家新款大号羊皮精巧别致的绗缝学院风萝纳包🤪🤪装饰 Thomas Burberry 专属标识,搭配亮泽的链条背带。可肩背,或使用顶部提柄缔造手拿包造型。24x6x15cm、8392","specs":{"source":"wsxcme","sourceId":"_ddndnH4FJOyNY4RDHRPkVlOT3gCy4pbAya0J_AA","sourceTagId":80411239,"sourceTagName":"巴宝莉/女包","rawTitle":"『Burberry 巴宝莉』\n\n🔥🔥B家新款大号羊皮精巧别致的绗缝学院风萝纳包🤪🤪装饰 Thomas Burberry 专属标识,搭配亮泽的链条背带。可肩背,或使用顶部提柄缔造手拿包造型。24x6x15cm、8392"},"price":null,"currency":"CNY","moq":1,"category":"burberry-women-bags","status":"active","alibaba_url":null,"images":["https://xcimg.szwego.com/20220425/a1650883360272_5526.jpg","https://xcimg.szwego.com/20220425/a1650883360364_8083.jpg","https://xcimg.szwego.com/20220425/a1650883360443_5017.jpg","https://xcimg.szwego.com/20220425/a1650883360541_4544.jpg","https://xcimg.szwego.com/20220425/a1650883360633_0803.jpg","https://xcimg.szwego.com/20220425/a1650883360741_6270.jpg","https://xcimg.szwego.com/20220425/a1650883360850_5026.jpg","https://xcimg.szwego.com/20220425/a1650883360944_2634.jpg","https://xcimg.szwego.com/20220425/a1650883361038_1106.jpg"],"created_at":"2025-02-08T12:43:38.710Z"},{"id":"item-9546cfa2959a","sku":"_dIAIAHIRLzdhtow_-aWRfIQUIvqdmyCYDU75H8g","name_en":"『Burberry 巴宝莉』","name_cn":"『Burberry 巴宝莉』\n\n🔥🔥B家新款大号羊皮精巧别致的绗缝学院风萝纳包🤪🤪装饰 Thomas Burberry 专属标识,搭配亮泽的链条背带。可肩背,或使用顶部提柄缔造手拿包造型。24x6x15cm、8392","specs":{"source":"wsxcme","sourceId":"_dIAIAHIRLzdhtow_-aWRfIQUIvqdmyCYDU75H8g","sourceTagId":80411239,"sourceTagName":"巴宝莉/女包","rawTitle":"『Burberry 巴宝莉』\n\n🔥🔥B家新款大号羊皮精巧别致的绗缝学院风萝纳包🤪🤪装饰 Thomas Burberry 专属标识,搭配亮泽的链条背带。可肩背,或使用顶部提柄缔造手拿包造型。24x6x15cm、8392"},"price":null,"currency":"CNY","moq":1,"category":"burberry-women-bags","status":"active","alibaba_url":null,"images":["https://xcimg.szwego.com/20220425/a1650883419762_4007.jpg","https://xcimg.szwego.com/20220425/a1650883419835_6135.jpg","https://xcimg.szwego.com/20220425/a1650883419918_0461.jpg","https://xcimg.szwego.com/20220425/a1650883420000_7403.jpg","https://xcimg.szwego.com/20220425/a1650883420083_7835.jpg","https://xcimg.szwego.com/20220425/a1650883420187_8465.jpg","https://xcimg.szwego.com/20220425/a1650883420275_2871.jpg","https://xcimg.szwego.com/20220425/a1650883420375_1835.jpg","https://xcimg.szwego.com/20220425/a1650883420467_8258.jpg"],"created_at":"2025-02-08T12:43:38.709Z"},{"id":"item-d78b69bd207d","sku":"_dcgcgYiv7anI3hiQFEdCLRXqtDIoxTm31xekbDw","name_en":"『Burberry 巴宝莉』","name_cn":"『Burberry 巴宝莉』\n\n🔥🔥B家新款羊皮精巧别致的绗缝学院风萝纳包🤪🤪装饰 Thomas Burberry 专属标识,搭配亮泽的链条背带。可肩背,或使用顶部提柄缔造手拿包造型。26 x 10 x 18cm、8396","specs":{"source":"wsxcme","sourceId":"_dcgcgYiv7anI3hiQFEdCLRXqtDIoxTm31xekbDw","sourceTagId":80411239,"sourceTagName":"巴宝莉/女包","rawTitle":"『Burberry 巴宝莉』\n\n🔥🔥B家新款羊皮精巧别致的绗缝学院风萝纳包🤪🤪装饰 Thomas Burberry 专属标识,搭配亮泽的链条背带。可肩背,或使用顶部提柄缔造手拿包造型。26 x 10 x 18cm、8396"},"price":null,"currency":"CNY","moq":1,"category":"burberry-women-bags","status":"active","alibaba_url":null,"images":["https://xcimg.szwego.com/20220425/a1650880777410_4850.jpg","https://xcimg.szwego.com/20220425/a1650880777515_7071.jpg","https://xcimg.szwego.com/20220425/a1650880777618_5228.jpg","https://xcimg.szwego.com/20220425/a1650880777718_1083.jpg","https://xcimg.szwego.com/20220425/a1650880777834_4755.jpg","https://xcimg.szwego.com/20220425/a1650880777942_7175.jpg","https://xcimg.szwego.com/20220425/a1650880778059_4541.jpg","https://xcimg.szwego.com/20220425/a1650880778170_1187.jpg","https://xcimg.szwego.com/20220425/a1650880778287_7408.jpg"],"created_at":"2025-02-08T12:43:38.708Z"},{"id":"item-84595db75c1b","sku":"_dHoHoiYfQasArI3wnQ-LQObX27xXB8g76YoBjyw","name_en":"『Burberry 巴宝莉』","name_cn":"『Burberry 巴宝莉』\n\n🔥🔥B家新款羊皮精巧别致的绗缝学院风萝纳包🤪🤪装饰 Thomas Burberry 专属标识,搭配亮泽的链条背带。可肩背,或使用顶部提柄缔造手拿包造型。26 x 10 x 18cm、8396","specs":{"source":"wsxcme","sourceId":"_dHoHoiYfQasArI3wnQ-LQObX27xXB8g76YoBjyw","sourceTagId":80411239,"sourceTagName":"巴宝莉/女包","rawTitle":"『Burberry 巴宝莉』\n\n🔥🔥B家新款羊皮精巧别致的绗缝学院风萝纳包🤪🤪装饰 Thomas Burberry 专属标识,搭配亮泽的链条背带。可肩背,或使用顶部提柄缔造手拿包造型。26 x 10 x 18cm、8396"},"price":null,"currency":"CNY","moq":1,"category":"burberry-women-bags","status":"active","alibaba_url":null,"images":["https://xcimg.szwego.com/20220425/a1650880791124_4117.jpg","https://xcimg.szwego.com/20220425/a1650880791227_8261.jpg","https://xcimg.szwego.com/20220425/a1650880791334_8300.jpg","https://xcimg.szwego.com/20220425/a1650880791450_0652.jpg","https://xcimg.szwego.com/20220425/a1650880791567_3828.jpg","https://xcimg.szwego.com/20220425/a1650880791677_6164.jpg","https://xcimg.szwego.com/20220425/a1650880791790_8411.jpg","https://xcimg.szwego.com/20220425/a1650880791910_3135.jpg","https://xcimg.szwego.com/20220425/a1650880792026_0872.jpg"],"created_at":"2025-02-08T12:43:38.707Z"},{"id":"item-f8bd9ddaca90","sku":"_dphph6d11HdkxSnlyGOrlQ2HS7ESeery0A_t7pQ","name_en":"『Burberry 巴宝莉』","name_cn":"『Burberry 巴宝莉』\n\n时装秀款保龄球包,焕新打造为精巧的斜背包,外层:100%棉 装饰:100%小牛皮 \n内层:100%小牛皮 可拆式斜背带\n1个外插袋;1个内插袋 拉链开合 手绘涂漆边缘\n亮泽金属装饰包身装饰品牌 Horseferry 印花,同时搭配皮革裹覆的挂锁与钥匙。\n尺寸:18 x 8 x 11cm\n背带垂直佩戴长度:52cm\n型号:6888#","specs":{"source":"wsxcme","sourceId":"_dphph6d11HdkxSnlyGOrlQ2HS7ESeery0A_t7pQ","sourceTagId":80411239,"sourceTagName":"巴宝莉/女包","modelNumber":"6888#","dimensions":{"lengthCm":18,"heightCm":8,"widthCm":11},"rawTitle":"『Burberry 巴宝莉』\n\n时装秀款保龄球包,焕新打造为精巧的斜背包,外层:100%棉 装饰:100%小牛皮 \n内层:100%小牛皮 可拆式斜背带\n1个外插袋;1个内插袋 拉链开合 手绘涂漆边缘\n亮泽金属装饰包身装饰品牌 Horseferry 印花,同时搭配皮革裹覆的挂锁与钥匙。\n尺寸:18 x 8 x 11cm\n背带垂直佩戴长度:52cm\n型号:6888#"},"price":null,"currency":"CNY","moq":1,"category":"burberry-women-bags","status":"active","alibaba_url":null,"images":["https://xcimg.szwego.com/20210428/i1619591082_6235_0.jpg","https://xcimg.szwego.com/20210428/i1619591082_9652_1.jpg","https://xcimg.szwego.com/20210428/i1619591082_9434_2.jpg","https://xcimg.szwego.com/20210428/i1619591082_392_3.jpg","https://xcimg.szwego.com/20210428/i1619591082_4145_4.jpg","https://xcimg.szwego.com/20210428/i1619591082_9903_5.jpg","https://xcimg.szwego.com/20210428/i1619591082_4969_6.jpg","https://xcimg.szwego.com/20210428/i1619591082_7484_7.jpg","https://xcimg.szwego.com/20210428/i1619591082_9755_8.jpg"],"created_at":"2025-02-08T12:43:38.706Z"},{"id":"item-47aec8c2a30a","sku":"_dl-l-cqhJEaXQRQA6oxLXCiaEWrn8sxoX2RS8Sg","name_en":"『Burberry 巴宝莉』","name_cn":"『Burberry 巴宝莉』\n\n时装秀款保龄球包,焕新打造为精巧的斜背包,外层:100%棉\n装饰:100%小牛皮 内层:100%小牛皮 可拆式斜背带\n1个外插袋;1个内插袋 拉链开合 手绘涂漆边缘亮泽金属装饰包身装饰品牌 Horseferry 印花,同时搭配皮革裹覆的挂锁与钥匙。\n尺寸:18 x 8 x 11cm\n背带垂直佩戴长度:52cm\n型号:6888#","specs":{"source":"wsxcme","sourceId":"_dl-l-cqhJEaXQRQA6oxLXCiaEWrn8sxoX2RS8Sg","sourceTagId":80411239,"sourceTagName":"巴宝莉/女包","modelNumber":"6888#","dimensions":{"lengthCm":18,"heightCm":8,"widthCm":11},"rawTitle":"『Burberry 巴宝莉』\n\n时装秀款保龄球包,焕新打造为精巧的斜背包,外层:100%棉\n装饰:100%小牛皮 内层:100%小牛皮 可拆式斜背带\n1个外插袋;1个内插袋 拉链开合 手绘涂漆边缘亮泽金属装饰包身装饰品牌 Horseferry 印花,同时搭配皮革裹覆的挂锁与钥匙。\n尺寸:18 x 8 x 11cm\n背带垂直佩戴长度:52cm\n型号:6888#"},"price":null,"currency":"CNY","moq":1,"category":"burberry-women-bags","status":"active","alibaba_url":null,"images":["https://xcimg.szwego.com/20210515/i1621058087_9616_0.jpg","https://xcimg.szwego.com/20210515/i1621058087_2992_1.jpg","https://xcimg.szwego.com/20210515/i1621058087_4559_2.jpg","https://xcimg.szwego.com/20210515/i1621058087_69_3.jpg","https://xcimg.szwego.com/20210515/i1621058087_9615_4.jpg","https://xcimg.szwego.com/20210515/i1621058087_3629_5.jpg","https://xcimg.szwego.com/20210515/i1621058087_9327_6.jpg","https://xcimg.szwego.com/20210515/i1621058087_2124_7.jpg","https://xcimg.szwego.com/20210515/i1621058087_7788_8.jpg"],"created_at":"2025-02-08T12:43:38.705Z"},{"id":"item-1191c629bc25","sku":"_dpopo3qVe4Nvgx33_HwAJSALKt5KSWcot4WfsNQ","name_en":"『Burberry 巴宝莉』","name_cn":"『Burberry 巴宝莉』\n\n新款🌟BURBERR 巴宝莉 斜挎包 精选双色帆布与平滑牛皮制造,锁扣装饰 Thomas Burberry 灵感专属标识。随心变换为斜背包或手拿包造型。可拆可调式皮革斜背带-1个外插袋;1个内插袋-1个内侧隔层-顶部翻盖搭配锁扣设计-手绘涂漆边缘-亮泽金属配件。\n型号:5886#\n尺寸:21x 6x 16cm","specs":{"source":"wsxcme","sourceId":"_dpopo3qVe4Nvgx33_HwAJSALKt5KSWcot4WfsNQ","sourceTagId":80411239,"sourceTagName":"巴宝莉/女包","modelNumber":"5886#","dimensions":{"lengthCm":21,"heightCm":6,"widthCm":16},"rawTitle":"『Burberry 巴宝莉』\n\n新款🌟BURBERR 巴宝莉 斜挎包 精选双色帆布与平滑牛皮制造,锁扣装饰 Thomas Burberry 灵感专属标识。随心变换为斜背包或手拿包造型。可拆可调式皮革斜背带-1个外插袋;1个内插袋-1个内侧隔层-顶部翻盖搭配锁扣设计-手绘涂漆边缘-亮泽金属配件。\n型号:5886#\n尺寸:21x 6x 16cm"},"price":null,"currency":"CNY","moq":1,"category":"burberry-women-bags","status":"active","alibaba_url":null,"images":["https://xcimg.szwego.com/20210115/i1610692768_661_0.jpg","https://xcimg.szwego.com/20210115/i1610692768_5756_1.jpg","https://xcimg.szwego.com/20210115/i1610692768_8314_2.jpg","https://xcimg.szwego.com/20210115/i1610692768_551_3.jpg","https://xcimg.szwego.com/20210115/i1610692768_337_4.jpg","https://xcimg.szwego.com/20210115/i1610692768_9257_5.jpg","https://xcimg.szwego.com/20210115/i1610692768_933_6.jpg","https://xcimg.szwego.com/20210115/i1610692768_7018_7.jpg","https://xcimg.szwego.com/20210115/i1610692768_4820_8.jpg"],"created_at":"2025-02-08T12:43:38.704Z"},{"id":"item-fd9f82e36890","sku":"_dfYfYn92WcgFI4RenRJ9uw2RNNDzFCQeYBLXutA","name_en":"『Burberry 巴宝莉』","name_cn":"『Burberry 巴宝莉』\n\nB家精巧的斜背包,选用意大利鞣制纹皮革与典藏 Vintage 复古格纹裁片打造。可单肩背、斜背,或缔造手拿包造型。21 x 4.5 x 12.5cm 型号:905268。","specs":{"source":"wsxcme","sourceId":"_dfYfYn92WcgFI4RenRJ9uw2RNNDzFCQeYBLXutA","sourceTagId":80411239,"sourceTagName":"巴宝莉/女包","modelNumber":"905268","rawTitle":"『Burberry 巴宝莉』\n\nB家精巧的斜背包,选用意大利鞣制纹皮革与典藏 Vintage 复古格纹裁片打造。可单肩背、斜背,或缔造手拿包造型。21 x 4.5 x 12.5cm 型号:905268。"},"price":null,"currency":"CNY","moq":1,"category":"burberry-women-bags","status":"active","alibaba_url":null,"images":["https://xcimg.szwego.com/20220418/i1650260036_6681_0.jpg","https://xcimg.szwego.com/20220418/i1650260036_8481_1.jpg","https://xcimg.szwego.com/20220418/i1650260036_4859_2.jpg","https://xcimg.szwego.com/20220418/i1650260036_496_3.jpg","https://xcimg.szwego.com/20220418/i1650260036_1830_4.jpg","https://xcimg.szwego.com/20220418/i1650260036_7263_5.jpg","https://xcimg.szwego.com/20220418/i1650260036_4266_6.jpg","https://xcimg.szwego.com/20220418/i1650260036_6788_7.jpg","https://xcimg.szwego.com/20220418/i1650260036_3921_8.jpg"],"created_at":"2025-02-08T12:43:38.703Z"},{"id":"item-532074797596","sku":"_dwgwgQIA-jNGwPMaNSQ8IOmNv5Qcktc6CGLwALw","name_en":"『Burberry 巴宝莉』","name_cn":"『Burberry 巴宝莉』\n\nB家精巧的斜背包,选用意大利鞣制纹皮革与典藏 Vintage 复古格纹裁片打造。可单肩背、斜背,或缔造手拿包造型。21 x 4.5 x 12.5cm 型号:905268。","specs":{"source":"wsxcme","sourceId":"_dwgwgQIA-jNGwPMaNSQ8IOmNv5Qcktc6CGLwALw","sourceTagId":80411239,"sourceTagName":"巴宝莉/女包","modelNumber":"905268","rawTitle":"『Burberry 巴宝莉』\n\nB家精巧的斜背包,选用意大利鞣制纹皮革与典藏 Vintage 复古格纹裁片打造。可单肩背、斜背,或缔造手拿包造型。21 x 4.5 x 12.5cm 型号:905268。"},"price":null,"currency":"CNY","moq":1,"category":"burberry-women-bags","status":"active","alibaba_url":null,"images":["https://xcimg.szwego.com/20220418/i1650259960_1581_0.jpg","https://xcimg.szwego.com/20220418/i1650259960_1200_3.jpg","https://xcimg.szwego.com/20220418/i1650259960_8010_2.jpg","https://xcimg.szwego.com/20220418/i1650259960_6661_4.jpg","https://xcimg.szwego.com/20220418/i1650259960_9503_1.jpg","https://xcimg.szwego.com/20220418/i1650259960_9762_5.jpg","https://xcimg.szwego.com/20220418/i1650259960_9702_6.jpg","https://xcimg.szwego.com/20220418/i1650259960_3247_7.jpg","https://xcimg.szwego.com/20220418/i1650259960_7158_8.jpg"],"created_at":"2025-02-08T12:43:38.702Z"},{"id":"item-2e9d8280ed1f","sku":"_d5o5oDTVdY-weWl9YvjWaHugLoPd7bMqb6QLYkQ","name_en":"『Burberry 巴宝莉』","name_cn":"『Burberry 巴宝莉』\n\n🔥🔥B家 Haymarket Check格纹巴宝莉枕头包 小牛皮😄 顶级抛光五金  超百搭 超能装 尺寸:20cm14cm11cm、1218","specs":{"source":"wsxcme","sourceId":"_d5o5oDTVdY-weWl9YvjWaHugLoPd7bMqb6QLYkQ","sourceTagId":80411239,"sourceTagName":"巴宝莉/女包","rawTitle":"『Burberry 巴宝莉』\n\n🔥🔥B家 Haymarket Check格纹巴宝莉枕头包 小牛皮😄 顶级抛光五金  超百搭 超能装 尺寸:20cm14cm11cm、1218"},"price":null,"currency":"CNY","moq":1,"category":"burberry-women-bags","status":"active","alibaba_url":null,"images":["https://xcimg.szwego.com/20201227/a1609075825422_3817.jpg","https://xcimg.szwego.com/20201227/a1609075825535_2135.jpg","https://xcimg.szwego.com/20201227/a1609075825651_5578.jpg","https://xcimg.szwego.com/20201227/a1609075825776_6131.jpg","https://xcimg.szwego.com/20201227/a1609075825892_2600.jpg","https://xcimg.szwego.com/20201227/a1609075826024_6253.jpg","https://xcimg.szwego.com/20201227/a1609075826155_2682.jpg","https://xcimg.szwego.com/20201227/a1609075826300_6004.jpg","https://xcimg.szwego.com/20201227/a1609075826402_4248.jpg"],"created_at":"2025-02-08T12:43:38.701Z"},{"id":"item-71b28536288f","sku":"_dJIJIEVn5GwXNqmcss5ITdP_eqx8-Mw8F3pDHHg","name_en":"『Burberry 巴宝莉』","name_cn":"『Burberry 巴宝莉』\n\n🔥🔥B家 Haymarket Check格纹巴宝莉枕头包 小牛皮😄 顶级抛光五金  超百搭 超能装 尺寸:20cm14cm11cm、1219","specs":{"source":"wsxcme","sourceId":"_dJIJIEVn5GwXNqmcss5ITdP_eqx8-Mw8F3pDHHg","sourceTagId":80411239,"sourceTagName":"巴宝莉/女包","rawTitle":"『Burberry 巴宝莉』\n\n🔥🔥B家 Haymarket Check格纹巴宝莉枕头包 小牛皮😄 顶级抛光五金  超百搭 超能装 尺寸:20cm14cm11cm、1219"},"price":null,"currency":"CNY","moq":1,"category":"burberry-women-bags","status":"active","alibaba_url":null,"images":["https://xcimg.szwego.com/20201227/a1609075632316_4154.jpg","https://xcimg.szwego.com/20201227/a1609075632432_4558.jpg","https://xcimg.szwego.com/20201227/a1609075632572_5105.jpg","https://xcimg.szwego.com/20201227/a1609075632696_2612.jpg","https://xcimg.szwego.com/20201227/a1609075632802_2073.jpg","https://xcimg.szwego.com/20201227/a1609075632916_4437.jpg","https://xcimg.szwego.com/20201227/a1609075633038_6687.jpg","https://xcimg.szwego.com/20201227/a1609075633177_2141.jpg","https://xcimg.szwego.com/20201227/a1609075633290_6743.jpg"],"created_at":"2025-02-08T12:43:38.700Z"},{"id":"item-ff14ff6be750","sku":"_dlGlGhYYj-CwN-Soe1SWnD13GWP0g7YpswRCX1g","name_en":"『Burberry 巴宝莉』","name_cn":"『Burberry 巴宝莉』\n\nB家新款来袭、精巧别致的绗缝款。萝纳包、选用意大利鞣制羔羊皮材质匠心打造、装饰Thoms  Burberry. 专属标识、搭配亮泽的链条肩背带。可肩背、或缔造斜背造型。27.5*11*12cm、链条拼羔羊皮肩背带。1个内插袋、拉链开合、手绘涂漆边缘、光泽金属配件。1124","specs":{"source":"wsxcme","sourceId":"_dlGlGhYYj-CwN-Soe1SWnD13GWP0g7YpswRCX1g","sourceTagId":80411239,"sourceTagName":"巴宝莉/女包","rawTitle":"『Burberry 巴宝莉』\n\nB家新款来袭、精巧别致的绗缝款。萝纳包、选用意大利鞣制羔羊皮材质匠心打造、装饰Thoms  Burberry. 专属标识、搭配亮泽的链条肩背带。可肩背、或缔造斜背造型。27.5*11*12cm、链条拼羔羊皮肩背带。1个内插袋、拉链开合、手绘涂漆边缘、光泽金属配件。1124"},"price":null,"currency":"CNY","moq":1,"category":"burberry-women-bags","status":"active","alibaba_url":null,"images":["https://xcimg.szwego.com/20210925/i1632584181_2168_0.jpg","https://xcimg.szwego.com/20210925/i1632584181_8419_1.jpg","https://xcimg.szwego.com/20210925/i1632584181_9457_2.jpg","https://xcimg.szwego.com/20210925/i1632584181_6549_3.jpg","https://xcimg.szwego.com/20210925/i1632584181_8792_4.jpg","https://xcimg.szwego.com/20210925/i1632584181_1727_5.jpg","https://xcimg.szwego.com/20210925/i1632584181_4965_6.jpg","https://xcimg.szwego.com/20210925/i1632584181_5090_7.jpg","https://xcimg.szwego.com/20210925/i1632584181_6385_8.jpg"],"created_at":"2025-02-08T12:43:38.699Z"},{"id":"item-b4ea06196277","sku":"_dfNfNsD7WSRd6iRNTpjhliDcl45vZ25NhE0DWeA","name_en":"『Burberry 巴宝莉』","name_cn":"『Burberry 巴宝莉』\n\nB家新款来袭、精巧别致的绗缝款。萝纳包、选用意大利鞣制羔羊皮材质匠心打造、装饰Thoms  Burberry. 专属标识、搭配亮泽的链条肩背带。可肩背、或缔造斜背造型。27.5*11*12cm、链条拼羔羊皮肩背带。1个内插袋、拉链开合、手绘涂漆边缘、光泽金属配件。1124","specs":{"source":"wsxcme","sourceId":"_dfNfNsD7WSRd6iRNTpjhliDcl45vZ25NhE0DWeA","sourceTagId":80411239,"sourceTagName":"巴宝莉/女包","rawTitle":"『Burberry 巴宝莉』\n\nB家新款来袭、精巧别致的绗缝款。萝纳包、选用意大利鞣制羔羊皮材质匠心打造、装饰Thoms  Burberry. 专属标识、搭配亮泽的链条肩背带。可肩背、或缔造斜背造型。27.5*11*12cm、链条拼羔羊皮肩背带。1个内插袋、拉链开合、手绘涂漆边缘、光泽金属配件。1124"},"price":null,"currency":"CNY","moq":1,"category":"burberry-women-bags","status":"active","alibaba_url":null,"images":["https://xcimg.szwego.com/20210925/i1632584168_8355_0.jpg","https://xcimg.szwego.com/20210925/i1632584168_6485_1.jpg","https://xcimg.szwego.com/20210925/i1632584168_8682_2.jpg","https://xcimg.szwego.com/20210925/i1632584168_7073_3.jpg","https://xcimg.szwego.com/20210925/i1632584168_2182_4.jpg","https://xcimg.szwego.com/20210925/i1632584168_694_5.jpg","https://xcimg.szwego.com/20210925/i1632584168_5715_6.jpg","https://xcimg.szwego.com/20210925/i1632584168_6479_7.jpg","https://xcimg.szwego.com/20210925/i1632584168_2453_8.jpg"],"created_at":"2025-02-08T12:43:38.698Z"},{"id":"item-b1882eb6ddc1","sku":"_dlHlH-iRSKzajjBIfmYVD0xDV1mLADV43pb9Lqg","name_en":"『Burberry 巴宝莉』","name_cn":"『Burberry 巴宝莉』\n\nB家新款来袭、精巧别致的绗缝款。萝纳包、选用意大利鞣制羔羊皮材质匠心打造、装饰Thoms  Burberry. 专属标识、搭配亮泽的链条肩背带。可肩背、或缔造斜背造型。27.5*11*12cm、链条拼羔羊皮肩背带。1个内插袋、拉链开合、手绘涂漆边缘、光泽金属配件。1124","specs":{"source":"wsxcme","sourceId":"_dlHlH-iRSKzajjBIfmYVD0xDV1mLADV43pb9Lqg","sourceTagId":80411239,"sourceTagName":"巴宝莉/女包","rawTitle":"『Burberry 巴宝莉』\n\nB家新款来袭、精巧别致的绗缝款。萝纳包、选用意大利鞣制羔羊皮材质匠心打造、装饰Thoms  Burberry. 专属标识、搭配亮泽的链条肩背带。可肩背、或缔造斜背造型。27.5*11*12cm、链条拼羔羊皮肩背带。1个内插袋、拉链开合、手绘涂漆边缘、光泽金属配件。1124"},"price":null,"currency":"CNY","moq":1,"category":"burberry-women-bags","status":"active","alibaba_url":null,"images":["https://xcimg.szwego.com/20210925/i1632584154_2608_0.jpg","https://xcimg.szwego.com/20210925/i1632584154_7557_1.jpg","https://xcimg.szwego.com/20210925/i1632584154_7639_2.jpg","https://xcimg.szwego.com/20210925/i1632584154_6517_3.jpg","https://xcimg.szwego.com/20210925/i1632584154_8844_4.jpg","https://xcimg.szwego.com/20210925/i1632584154_6403_5.jpg","https://xcimg.szwego.com/20210925/i1632584154_8283_6.jpg","https://xcimg.szwego.com/20210925/i1632584154_4004_7.jpg","https://xcimg.szwego.com/20210925/i1632584154_7759_8.jpg"],"created_at":"2025-02-08T12:43:38.697Z"},{"id":"item-9cd6f5275ad7","sku":"_dmTmT6jyyxMSIOJ7wkQALCm560X2qAqDXLLjodQ","name_en":"『Burberry 巴宝莉』","name_cn":"『Burberry 巴宝莉』\n\nB家新款来袭、精巧别致的绗缝款。萝纳包、选用意大利鞣制羔羊皮材质匠心打造、装饰Thoms  Burberry. 专属标识、搭配亮泽的链条肩背带。可肩背、或缔造斜背造型。27.5*11*12cm、链条拼羔羊皮肩背带。1个内插袋、拉链开合、手绘涂漆边缘、光泽金属配件。1124","specs":{"source":"wsxcme","sourceId":"_dmTmT6jyyxMSIOJ7wkQALCm560X2qAqDXLLjodQ","sourceTagId":80411239,"sourceTagName":"巴宝莉/女包","rawTitle":"『Burberry 巴宝莉』\n\nB家新款来袭、精巧别致的绗缝款。萝纳包、选用意大利鞣制羔羊皮材质匠心打造、装饰Thoms  Burberry. 专属标识、搭配亮泽的链条肩背带。可肩背、或缔造斜背造型。27.5*11*12cm、链条拼羔羊皮肩背带。1个内插袋、拉链开合、手绘涂漆边缘、光泽金属配件。1124"},"price":null,"currency":"CNY","moq":1,"category":"burberry-women-bags","status":"active","alibaba_url":null,"images":["https://xcimg.szwego.com/20210925/i1632584071_7529_0.jpg","https://xcimg.szwego.com/20210925/i1632584071_9600_1.jpg","https://xcimg.szwego.com/20210925/i1632584071_1457_2.jpg","https://xcimg.szwego.com/20210925/i1632584071_4324_3.jpg","https://xcimg.szwego.com/20210925/i1632584071_8498_4.jpg","https://xcimg.szwego.com/20210925/i1632584071_6639_5.jpg","https://xcimg.szwego.com/20210925/i1632584071_2817_6.jpg","https://xcimg.szwego.com/20210925/i1632584071_5717_7.jpg","https://xcimg.szwego.com/20210925/i1632584071_4575_8.jpg"],"created_at":"2025-02-08T12:43:38.696Z"},{"id":"item-13a20a4277df","sku":"_dIuIuLEvWexNTV0Ij4aNW11MPOrM2PdgWSuUCQg","name_en":"『Burberry 巴宝莉』","name_cn":"『Burberry 巴宝莉』\n\n【B家顶级原单】精巧的肩背包,选用光泽皮革材质匠心打造,装饰 Thomas Bur专属标识,搭配可拆式肩背带设计,缔造实用风格。\n尺寸:28 x 5 x 14 cm\n肩背带最短垂直佩戴长度:19.5cm\n肩背带最长垂直佩戴长度:35.5cm\n外层:100%小牛皮\n装饰:100%小牛皮\n内衬:100%羔羊皮\n可调式肩背带\n4个内侧卡位\n1个内插袋\n拉链开合\n手绘涂漆边缘\n光泽金属配件\n意大利制","specs":{"source":"wsxcme","sourceId":"_dIuIuLEvWexNTV0Ij4aNW11MPOrM2PdgWSuUCQg","sourceTagId":80411239,"sourceTagName":"巴宝莉/女包","dimensions":{"lengthCm":28,"heightCm":5,"widthCm":14},"rawTitle":"『Burberry 巴宝莉』\n\n【B家顶级原单】精巧的肩背包,选用光泽皮革材质匠心打造,装饰 Thomas Bur专属标识,搭配可拆式肩背带设计,缔造实用风格。\n尺寸:28 x 5 x 14 cm\n肩背带最短垂直佩戴长度:19.5cm\n肩背带最长垂直佩戴长度:35.5cm\n外层:100%小牛皮\n装饰:100%小牛皮\n内衬:100%羔羊皮\n可调式肩背带\n4个内侧卡位\n1个内插袋\n拉链开合\n手绘涂漆边缘\n光泽金属配件\n意大利制"},"price":null,"currency":"CNY","moq":1,"category":"burberry-women-bags","status":"active","alibaba_url":null,"images":["https://xcimg.szwego.com/20211022/i1634896703_968_0.jpg","https://xcimg.szwego.com/20211022/i1634896703_7043_1.jpg","https://xcimg.szwego.com/20211022/i1634896703_842_2.jpg","https://xcimg.szwego.com/20211022/i1634896703_6868_3.jpg","https://xcimg.szwego.com/20211022/i1634896703_891_4.jpg","https://xcimg.szwego.com/20211022/i1634896703_1251_5.jpg","https://xcimg.szwego.com/20211022/i1634896703_153_6.jpg","https://xcimg.szwego.com/20211022/i1634896703_8497_7.jpg","https://xcimg.szwego.com/20211022/i1634896703_9591_8.jpg"],"created_at":"2025-02-08T12:43:38.695Z"},{"id":"item-431466762aa0","sku":"_dk3k3ZBu4OKLQ7AxYvYJHLpAHd1Aj8HVrMtBAgA","name_en":"『Burberry 巴宝莉』","name_cn":"『Burberry 巴宝莉』\n\n【B家顶级原单】精巧的肩背包,选用光泽皮革材质匠心打造,装饰 Thomas Bur专属标识,搭配可拆式肩背带设计,缔造实用风格。\n尺寸:28 x 5 x 14 cm\n肩背带最短垂直佩戴长度:19.5cm\n肩背带最长垂直佩戴长度:35.5cm\n外层:100%小牛皮\n装饰:100%小牛皮\n内衬:100%羔羊皮\n可调式肩背带\n4个内侧卡位\n1个内插袋\n拉链开合\n手绘涂漆边缘\n光泽金属配件\n意大利制","specs":{"source":"wsxcme","sourceId":"_dk3k3ZBu4OKLQ7AxYvYJHLpAHd1Aj8HVrMtBAgA","sourceTagId":80411239,"sourceTagName":"巴宝莉/女包","dimensions":{"lengthCm":28,"heightCm":5,"widthCm":14},"rawTitle":"『Burberry 巴宝莉』\n\n【B家顶级原单】精巧的肩背包,选用光泽皮革材质匠心打造,装饰 Thomas Bur专属标识,搭配可拆式肩背带设计,缔造实用风格。\n尺寸:28 x 5 x 14 cm\n肩背带最短垂直佩戴长度:19.5cm\n肩背带最长垂直佩戴长度:35.5cm\n外层:100%小牛皮\n装饰:100%小牛皮\n内衬:100%羔羊皮\n可调式肩背带\n4个内侧卡位\n1个内插袋\n拉链开合\n手绘涂漆边缘\n光泽金属配件\n意大利制"},"price":null,"currency":"CNY","moq":1,"category":"burberry-women-bags","status":"active","alibaba_url":null,"images":["https://xcimg.szwego.com/20211022/i1634896677_435_0.jpg","https://xcimg.szwego.com/20211022/i1634896677_7365_1.jpg","https://xcimg.szwego.com/20211022/i1634896677_667_2.jpg","https://xcimg.szwego.com/20211022/i1634896677_9890_3.jpg","https://xcimg.szwego.com/20211022/i1634896677_7420_4.jpg","https://xcimg.szwego.com/20211022/i1634896677_8771_5.jpg","https://xcimg.szwego.com/20211022/i1634896677_5372_6.jpg","https://xcimg.szwego.com/20211022/i1634896677_862_7.jpg","https://xcimg.szwego.com/20211022/i1634896677_2913_8.jpg"],"created_at":"2025-02-08T12:43:38.694Z"},{"id":"item-08c39888fe50","sku":"_do_o_r3esZ0hG-POBcP2fsvnv2B4EQ1_bwUGbqQ","name_en":"『Burberry 巴宝莉』","name_cn":"『Burberry 巴宝莉』\n\n【B家顶级原单】精巧的肩背包,选用光泽皮革材质匠心打造,装饰 Thomas Bur专属标识,搭配可拆式肩背带设计,缔造实用风格。\n尺寸:28 x 5 x 14 cm\n肩背带最短垂直佩戴长度:19.5cm\n肩背带最长垂直佩戴长度:35.5cm\n外层:100%小牛皮\n装饰:100%小牛皮\n内衬:100%羔羊皮\n可调式肩背带\n4个内侧卡位\n1个内插袋\n拉链开合\n手绘涂漆边缘\n光泽金属配件\n意大利制","specs":{"source":"wsxcme","sourceId":"_do_o_r3esZ0hG-POBcP2fsvnv2B4EQ1_bwUGbqQ","sourceTagId":80411239,"sourceTagName":"巴宝莉/女包","dimensions":{"lengthCm":28,"heightCm":5,"widthCm":14},"rawTitle":"『Burberry 巴宝莉』\n\n【B家顶级原单】精巧的肩背包,选用光泽皮革材质匠心打造,装饰 Thomas Bur专属标识,搭配可拆式肩背带设计,缔造实用风格。\n尺寸:28 x 5 x 14 cm\n肩背带最短垂直佩戴长度:19.5cm\n肩背带最长垂直佩戴长度:35.5cm\n外层:100%小牛皮\n装饰:100%小牛皮\n内衬:100%羔羊皮\n可调式肩背带\n4个内侧卡位\n1个内插袋\n拉链开合\n手绘涂漆边缘\n光泽金属配件\n意大利制"},"price":null,"currency":"CNY","moq":1,"category":"burberry-women-bags","status":"active","alibaba_url":null,"images":["https://xcimg.szwego.com/20211022/i1634896644_2380_0.jpg","https://xcimg.szwego.com/20211022/i1634896644_6459_1.jpg","https://xcimg.szwego.com/20211022/i1634896644_65_2.jpg","https://xcimg.szwego.com/20211022/i1634896644_7502_3.jpg","https://xcimg.szwego.com/20211022/i1634896644_4303_4.jpg","https://xcimg.szwego.com/20211022/i1634896644_482_5.jpg","https://xcimg.szwego.com/20211022/i1634896644_177_6.jpg","https://xcimg.szwego.com/20211022/i1634896644_4765_7.jpg","https://xcimg.szwego.com/20211022/i1634896644_9019_8.jpg"],"created_at":"2025-02-08T12:43:38.693Z"},{"id":"item-63c57ff5d056","sku":"_doVoVDNEB71n9w7gohBVOiKN1UgZ1BI6X1cIwEw","name_en":"『Burberry 巴宝莉』","name_cn":"『Burberry 巴宝莉』\n\nB家最新款收纳袋,精选 Vintage 复古格纹棉质拼皮革材料,弧形曲线的设计灵感源自品牌时装秀场馆伦敦奥林匹亚展览中心。可肩背,或卸下背带随心缔造手拿包造型。款号8354\n21 x 4 x 12.2 cm。","specs":{"source":"wsxcme","sourceId":"_doVoVDNEB71n9w7gohBVOiKN1UgZ1BI6X1cIwEw","sourceTagId":80411239,"sourceTagName":"巴宝莉/女包","modelNumber":"8354","rawTitle":"『Burberry 巴宝莉』\n\nB家最新款收纳袋,精选 Vintage 复古格纹棉质拼皮革材料,弧形曲线的设计灵感源自品牌时装秀场馆伦敦奥林匹亚展览中心。可肩背,或卸下背带随心缔造手拿包造型。款号8354\n21 x 4 x 12.2 cm。"},"price":null,"currency":"CNY","moq":1,"category":"burberry-women-bags","status":"active","alibaba_url":null,"images":["https://xcimg.szwego.com/20210607/i1622995988_4925_0.jpg","https://xcimg.szwego.com/20210607/i1622995988_3154_1.jpg","https://xcimg.szwego.com/20210607/i1622995988_4294_2.jpg","https://xcimg.szwego.com/20210607/i1622995988_7889_3.jpg","https://xcimg.szwego.com/20210607/i1622995988_3399_4.jpg","https://xcimg.szwego.com/20210607/i1622995988_632_5.jpg","https://xcimg.szwego.com/20210607/i1622995988_8784_6.jpg","https://xcimg.szwego.com/20210607/i1622995988_537_7.jpg","https://xcimg.szwego.com/20210607/i1622995988_6941_8.jpg"],"created_at":"2025-02-08T12:43:38.692Z"}],"page":8,"pageSize":24,"total":493,"totalPages":21}
