{"items":[{"id":"item-9af84c9cb663","sku":"_daQaQFVNklNC4qoy8adGOqHC8FwTiCUaqoaBKwA","name_en":"❤️B家精巧的「Title - 泰尔勒手袋」,精选滑光双色皮革与 Vintage 复古纹格裁片打造,装精饰美的三粒铆钉。可用顶部提手柄拎,或以可拆背式带缔造肩背造型。🎁26 x 13.5 x 20cm","name_cn":"❤️B家精巧的「Title - 泰尔勒手袋」,精选滑光双色皮革与 Vintage 复古纹格裁片打造,装精饰美的三粒铆钉。可用顶部提手柄拎,或以可拆背式带缔造肩背造型。🎁26 x 13.5 x 20cm","specs":{"source":"wsxcme","sourceId":"_daQaQFVNklNC4qoy8adGOqHC8FwTiCUaqoaBKwA","sourceTagId":80411239,"sourceTagName":"巴宝莉/女包","rawTitle":"❤️B家精巧的「Title - 泰尔勒手袋」,精选滑光双色皮革与 Vintage 复古纹格裁片打造,装精饰美的三粒铆钉。可用顶部提手柄拎,或以可拆背式带缔造肩背造型。🎁26 x 13.5 x 20cm"},"price":null,"currency":"CNY","moq":1,"category":"burberry-women-bags","status":"active","alibaba_url":null,"images":["https://xcimg.szwego.com/img/d5e7a5ce/20250908/a1757317868814_6505.jpg","https://xcimg.szwego.com/img/d5e7a5ce/20250908/a1757317868816_6562.jpg","https://xcimg.szwego.com/img/d5e7a5ce/20250908/a1757317868819_5336.jpg","https://xcimg.szwego.com/img/d5e7a5ce/20250908/a1757317868821_4140.jpg","https://xcimg.szwego.com/img/d5e7a5ce/20250908/a1757317868817_2574.jpg","https://xcimg.szwego.com/img/d5e7a5ce/20250908/a1757317868823_3567.jpg","https://xcimg.szwego.com/img/d5e7a5ce/20250908/a1757317869568_8156.jpg","https://xcimg.szwego.com/img/d5e7a5ce/20250908/a1757317869653_4700.jpg","https://xcimg.szwego.com/img/d5e7a5ce/20250908/a1757317869571_2644.jpg"],"created_at":"2026-06-29T10:27:58.382Z"},{"id":"item-d1d932f3c5fa","sku":"_d9X9XbcO5z5XlqvnEt65V_c-mqNUCDr78P9C_fA","name_en":"Burberry Women Bags","name_cn":"上身图","specs":{"source":"wsxcme","sourceId":"_d9X9XbcO5z5XlqvnEt65V_c-mqNUCDr78P9C_fA","sourceTagId":80411239,"sourceTagName":"巴宝莉/女包","rawTitle":"上身图"},"price":null,"currency":"CNY","moq":1,"category":"burberry-women-bags","status":"active","alibaba_url":null,"images":["https://xcimg.szwego.com/img/d5e7a5ce/20251114/a1763101832719_0270.jpg","https://xcimg.szwego.com/img/d5e7a5ce/20251114/a1763101832719_1835.jpg","https://xcimg.szwego.com/img/d5e7a5ce/20251114/a1763101832721_1036.jpg","https://xcimg.szwego.com/img/d5e7a5ce/20251114/a1763101832723_1658.jpg","https://xcimg.szwego.com/img/d5e7a5ce/20251114/a1763101832722_0437.jpg","https://xcimg.szwego.com/img/d5e7a5ce/20251114/a1763101832722_0670.jpg","https://xcimg.szwego.com/img/d5e7a5ce/20251114/a1763101833287_6201.jpg","https://xcimg.szwego.com/img/d5e7a5ce/20251114/a1763101833288_1754.jpg"],"created_at":"2026-06-29T10:27:58.372Z"},{"id":"item-ef0a047e9473","sku":"_dxmxmnO2LFmMBEbwa2rTJs4fe4pQ54QwnGiZjgA","name_en":"❤️经典格纹  双肩包,复古又俏皮,很招人喜欢💞用个10年它还是领先潮流 复古又经典,充满了专Bur的那份英伦风💖于意大利工坊精制而成。融入 Bur 格纹,搭配缉明线皮革饰边,内衬为棉质混纺面料。呈现抽绳包口设计,设有皮革顶部提柄和正面拉链口袋。搭配进口牛胎皮💖","name_cn":"❤️经典格纹  双肩包,复古又俏皮,很招人喜欢💞用个10年它还是领先潮流 复古又经典,充满了专Bur的那份英伦风💖于意大利工坊精制而成。融入 Bur 格纹,搭配缉明线皮革饰边,内衬为棉质混纺面料。呈现抽绳包口设计,设有皮革顶部提柄和正面拉链口袋。搭配进口牛胎皮💖\n尺寸24✕13✕37cm","specs":{"source":"wsxcme","sourceId":"_dxmxmnO2LFmMBEbwa2rTJs4fe4pQ54QwnGiZjgA","sourceTagId":80411239,"sourceTagName":"巴宝莉/女包","rawTitle":"❤️经典格纹  双肩包,复古又俏皮,很招人喜欢💞用个10年它还是领先潮流 复古又经典,充满了专Bur的那份英伦风💖于意大利工坊精制而成。融入 Bur 格纹,搭配缉明线皮革饰边,内衬为棉质混纺面料。呈现抽绳包口设计,设有皮革顶部提柄和正面拉链口袋。搭配进口牛胎皮💖\n尺寸24✕13✕37cm"},"price":null,"currency":"CNY","moq":1,"category":"burberry-women-bags","status":"active","alibaba_url":null,"images":["https://xcimg.szwego.com/img/d5e7a5ce/20251114/a1763099657072_2508.jpg","https://xcimg.szwego.com/img/d5e7a5ce/20251114/a1763099657075_5177.jpg","https://xcimg.szwego.com/img/d5e7a5ce/20251114/a1763099657073_0027.jpg","https://xcimg.szwego.com/img/d5e7a5ce/20251114/a1763099657074_6550.jpg","https://xcimg.szwego.com/img/d5e7a5ce/20251114/a1763099657074_7742.jpg","https://xcimg.szwego.com/img/d5e7a5ce/20251114/a1763099657075_0547.jpg","https://xcimg.szwego.com/img/d5e7a5ce/20251114/a1763099657533_1378.jpg","https://xcimg.szwego.com/img/d5e7a5ce/20251114/a1763099657536_8446.jpg","https://xcimg.szwego.com/img/d5e7a5ce/20251114/a1763099657534_8877.jpg"],"created_at":"2026-06-29T10:27:58.362Z"},{"id":"item-2bbb3d86cd52","sku":"_dpKpKVCUcv-U5tCRwBb8tAp1w0P2OKw69bJ1b1Q","name_en":"『Burberry 巴宝莉』","name_cn":"『Burberry 巴宝莉』\n\nB家经典中古腋下包,漆皮牛皮调节肩带,肩带可通过搭扣固定在手袋上,可调节肩带可方便腋下or手提,高端定制实物超级精致,手感柔软舒适很有质感,包边白用进口漆皮,营造出很强的层次感却又十分协调不显突兀。自重轻盈,小巧却方便通勤,容量Ok。\n尺寸:24×13×8cm","specs":{"source":"wsxcme","sourceId":"_dpKpKVCUcv-U5tCRwBb8tAp1w0P2OKw69bJ1b1Q","sourceTagId":80411239,"sourceTagName":"巴宝莉/女包","dimensions":{"lengthCm":24,"heightCm":13,"widthCm":8},"rawTitle":"『Burberry 巴宝莉』\n\nB家经典中古腋下包,漆皮牛皮调节肩带,肩带可通过搭扣固定在手袋上,可调节肩带可方便腋下or手提,高端定制实物超级精致,手感柔软舒适很有质感,包边白用进口漆皮,营造出很强的层次感却又十分协调不显突兀。自重轻盈,小巧却方便通勤,容量Ok。\n尺寸:24×13×8cm"},"price":null,"currency":"CNY","moq":1,"category":"burberry-women-bags","status":"active","alibaba_url":null,"images":["https://xcimg.szwego.com/20210530/a1622384849796_4167.jpg","https://xcimg.szwego.com/20210530/a1622384849927_0640.jpg","https://xcimg.szwego.com/20210530/a1622384850047_8331.jpg","https://xcimg.szwego.com/20210530/a1622384850127_2474.jpg","https://xcimg.szwego.com/20210530/a1622384850212_8767.jpg","https://xcimg.szwego.com/20210530/a1622384850296_2181.jpg","https://xcimg.szwego.com/20210530/a1622384850369_6643.jpg","https://xcimg.szwego.com/20210530/a1622384850451_6801.jpg","https://xcimg.szwego.com/20210530/a1622384850542_0648.jpg"],"created_at":"2025-02-08T12:43:38.736Z"},{"id":"item-b7b18199871c","sku":"_dh_h_h6J9p_TlIwuXUzVdllc15fJbkZSDhYxUQw","name_en":"『Burberry 巴宝莉』","name_cn":"『Burberry 巴宝莉』\n\n🔥🔥B家 Haymarket Check格纹巴宝莉枕头包 小牛皮😄 顶级抛光五金  超百搭 超能装 尺寸:20cm14cm11cm、1219","specs":{"source":"wsxcme","sourceId":"_dh_h_h6J9p_TlIwuXUzVdllc15fJbkZSDhYxUQw","sourceTagId":80411239,"sourceTagName":"巴宝莉/女包","rawTitle":"『Burberry 巴宝莉』\n\n🔥🔥B家 Haymarket Check格纹巴宝莉枕头包 小牛皮😄 顶级抛光五金  超百搭 超能装 尺寸:20cm14cm11cm、1219"},"price":null,"currency":"CNY","moq":1,"category":"burberry-women-bags","status":"active","alibaba_url":null,"images":["https://xcimg.szwego.com/20201227/a1609075572266_6055.jpg","https://xcimg.szwego.com/20201227/a1609075572375_7601.jpg","https://xcimg.szwego.com/20201227/a1609075572472_4471.jpg","https://xcimg.szwego.com/20201227/a1609075572588_3582.jpg","https://xcimg.szwego.com/20201227/a1609075572692_2557.jpg","https://xcimg.szwego.com/20201227/a1609075572813_5223.jpg","https://xcimg.szwego.com/20201227/a1609075572925_2502.jpg","https://xcimg.szwego.com/20201227/a1609075573033_8087.jpg","https://xcimg.szwego.com/20201227/a1609075573138_7770.jpg"],"created_at":"2025-02-08T12:43:38.735Z"},{"id":"item-d118cb51401d","sku":"_dlhlhKup5uGPAAkgEuK1l_0_a9ybpCvzWq7NNuA","name_en":"『Burberry 巴宝莉』","name_cn":"『Burberry 巴宝莉』\n\n🔥🔥B家最新款典藏灵感的托特包,精选双色帆布拼缉明线细节的皮革制成,[玫瑰]顶部提柄携带,或使用可拆式肩背带。1个外侧翻盖口袋采用磁扣开合;1个内侧拉链口袋 尺寸:23 x 6 x 26.5c、2735","specs":{"source":"wsxcme","sourceId":"_dlhlhKup5uGPAAkgEuK1l_0_a9ybpCvzWq7NNuA","sourceTagId":80411239,"sourceTagName":"巴宝莉/女包","rawTitle":"『Burberry 巴宝莉』\n\n🔥🔥B家最新款典藏灵感的托特包,精选双色帆布拼缉明线细节的皮革制成,[玫瑰]顶部提柄携带,或使用可拆式肩背带。1个外侧翻盖口袋采用磁扣开合;1个内侧拉链口袋 尺寸:23 x 6 x 26.5c、2735"},"price":null,"currency":"CNY","moq":1,"category":"burberry-women-bags","status":"active","alibaba_url":null,"images":["https://xcimg.szwego.com/20200610/a1591768354786_7877.jpg","https://xcimg.szwego.com/20200610/a1591768356063_0834.jpg","https://xcimg.szwego.com/20200610/a1591768356686_7318.jpg","https://xcimg.szwego.com/20200610/a1591768357222_4658.jpg","https://xcimg.szwego.com/20200610/a1591768357728_1010.jpg","https://xcimg.szwego.com/20200610/a1591768358256_6316.jpg","https://xcimg.szwego.com/20200610/a1591768359025_5477.jpg","https://xcimg.szwego.com/20200610/a1591768359832_3100.jpg","https://xcimg.szwego.com/20200610/a1591768360605_8442.jpg"],"created_at":"2025-02-08T12:43:38.734Z"},{"id":"item-5be026e0313e","sku":"_dfTfT4ONUeIY41oA5Y8xowvHEC_oNbhA6XU3VJg","name_en":"『Burberry 巴宝莉』","name_cn":"『Burberry 巴宝莉』\n\n🔥🔥B家最新款典藏灵感的托特包,精选双色帆布拼缉明线细节的皮革制成,[玫瑰]顶部提柄携带,或使用可拆式肩背带。1个外侧翻盖口袋采用磁扣开合;1个内侧拉链口袋 尺寸:23 x 6 x 26.5c、2735","specs":{"source":"wsxcme","sourceId":"_dfTfT4ONUeIY41oA5Y8xowvHEC_oNbhA6XU3VJg","sourceTagId":80411239,"sourceTagName":"巴宝莉/女包","rawTitle":"『Burberry 巴宝莉』\n\n🔥🔥B家最新款典藏灵感的托特包,精选双色帆布拼缉明线细节的皮革制成,[玫瑰]顶部提柄携带,或使用可拆式肩背带。1个外侧翻盖口袋采用磁扣开合;1个内侧拉链口袋 尺寸:23 x 6 x 26.5c、2735"},"price":null,"currency":"CNY","moq":1,"category":"burberry-women-bags","status":"active","alibaba_url":null,"images":["https://xcimg.szwego.com/20200610/a1591768376837_3175.jpg","https://xcimg.szwego.com/20200610/a1591768377577_7204.jpg","https://xcimg.szwego.com/20200610/a1591768378264_7220.jpg","https://xcimg.szwego.com/20200610/a1591768378891_0726.jpg","https://xcimg.szwego.com/20200610/a1591768379532_2547.jpg","https://xcimg.szwego.com/20200610/a1591768380015_6671.jpg","https://xcimg.szwego.com/20200610/a1591768380464_2308.jpg","https://xcimg.szwego.com/20200610/a1591768381050_1818.jpg","https://xcimg.szwego.com/20200610/a1591768381627_4661.jpg"],"created_at":"2025-02-08T12:43:38.733Z"},{"id":"item-97993656bdda","sku":"_dfSfSKuFg6pO5tMYNl7UrQJNxnDw1lODkOKVrlg","name_en":"『Burberry 巴宝莉』","name_cn":"『Burberry 巴宝莉』\n\n🔥🔥B家最新款典藏灵感的托特包,精选双色帆布拼缉明线细节的皮革制成,[玫瑰]顶部提柄携带,或使用可拆式肩背带。1个外侧翻盖口袋采用磁扣开合;1个内侧拉链口袋 尺寸:23 x 6 x 26.5c、2735","specs":{"source":"wsxcme","sourceId":"_dfSfSKuFg6pO5tMYNl7UrQJNxnDw1lODkOKVrlg","sourceTagId":80411239,"sourceTagName":"巴宝莉/女包","rawTitle":"『Burberry 巴宝莉』\n\n🔥🔥B家最新款典藏灵感的托特包,精选双色帆布拼缉明线细节的皮革制成,[玫瑰]顶部提柄携带,或使用可拆式肩背带。1个外侧翻盖口袋采用磁扣开合;1个内侧拉链口袋 尺寸:23 x 6 x 26.5c、2735"},"price":null,"currency":"CNY","moq":1,"category":"burberry-women-bags","status":"active","alibaba_url":null,"images":["https://xcimg.szwego.com/20200610/a1591767934722_2881.jpg","https://xcimg.szwego.com/20200610/a1591767935884_4434.jpg","https://xcimg.szwego.com/20200610/a1591767936440_2136.jpg","https://xcimg.szwego.com/20200610/a1591767937198_3201.jpg","https://xcimg.szwego.com/20200610/a1591767937726_7710.jpg","https://xcimg.szwego.com/20200610/a1591767938468_3610.jpg","https://xcimg.szwego.com/20200610/a1591767939315_6302.jpg","https://xcimg.szwego.com/20200610/a1591767940246_0416.jpg","https://xcimg.szwego.com/20200610/a1591767940831_5282.jpg"],"created_at":"2025-02-08T12:43:38.732Z"},{"id":"item-171870f8e9eb","sku":"_drLrLbYqha4dq7r1kwyV8mo0QEdhmqpwDENo7xg","name_en":"『Burberry 巴宝莉』","name_cn":"『Burberry 巴宝莉』\n\n🔥🔥B家最新款典藏灵感的托特包,精选双色帆布拼缉明线细节的皮革制成,[玫瑰]顶部提柄携带,或使用可拆式肩背带。1个外侧翻盖口袋采用磁扣开合;1个内侧拉链口袋 尺寸:23 x 6 x 26.5c、2735","specs":{"source":"wsxcme","sourceId":"_drLrLbYqha4dq7r1kwyV8mo0QEdhmqpwDENo7xg","sourceTagId":80411239,"sourceTagName":"巴宝莉/女包","rawTitle":"『Burberry 巴宝莉』\n\n🔥🔥B家最新款典藏灵感的托特包,精选双色帆布拼缉明线细节的皮革制成,[玫瑰]顶部提柄携带,或使用可拆式肩背带。1个外侧翻盖口袋采用磁扣开合;1个内侧拉链口袋 尺寸:23 x 6 x 26.5c、2735"},"price":null,"currency":"CNY","moq":1,"category":"burberry-women-bags","status":"active","alibaba_url":null,"images":["https://xcimg.szwego.com/20200713/i1594586834_5271_0.jpg","https://xcimg.szwego.com/20200713/i1594586834_9237_1.jpg","https://xcimg.szwego.com/20200713/i1594586834_2397_2.jpg","https://xcimg.szwego.com/20200713/i1594586834_6867_3.jpg","https://xcimg.szwego.com/20200713/i1594586834_9883_4.jpg","https://xcimg.szwego.com/20200713/i1594586834_2312_5.jpg","https://xcimg.szwego.com/20200713/i1594586834_20_6.jpg","https://xcimg.szwego.com/20200713/i1594586834_9983_7.jpg","https://xcimg.szwego.com/20200713/i1594586834_2161_8.jpg"],"created_at":"2025-02-08T12:43:38.731Z"},{"id":"item-c8e996ef2f30","sku":"_dz5z5Ql7JT-xX5rUYnqJJvXXptLGYgk1O07cuxQ","name_en":"『Burberry 巴宝莉』","name_cn":"『Burberry 巴宝莉』\n\n🔥🔥B家最新款典藏灵感的托特包,精选双色帆布拼缉明线细节的皮革制成,[玫瑰]顶部提柄携带,或使用可拆式肩背带。1个外侧翻盖口袋采用磁扣开合;1个内侧拉链口袋 尺寸:23 x 6 x 26.5c、2735","specs":{"source":"wsxcme","sourceId":"_dz5z5Ql7JT-xX5rUYnqJJvXXptLGYgk1O07cuxQ","sourceTagId":80411239,"sourceTagName":"巴宝莉/女包","rawTitle":"『Burberry 巴宝莉』\n\n🔥🔥B家最新款典藏灵感的托特包,精选双色帆布拼缉明线细节的皮革制成,[玫瑰]顶部提柄携带,或使用可拆式肩背带。1个外侧翻盖口袋采用磁扣开合;1个内侧拉链口袋 尺寸:23 x 6 x 26.5c、2735"},"price":null,"currency":"CNY","moq":1,"category":"burberry-women-bags","status":"active","alibaba_url":null,"images":["https://xcimg.szwego.com/20200712/i1594537156_4965_0.jpg","https://xcimg.szwego.com/20200712/i1594537156_9048_1.jpg","https://xcimg.szwego.com/20200712/i1594537156_3319_2.jpg","https://xcimg.szwego.com/20200712/i1594537156_4773_3.jpg","https://xcimg.szwego.com/20200712/i1594537156_5814_4.jpg","https://xcimg.szwego.com/20200712/i1594537156_4294_5.jpg","https://xcimg.szwego.com/20200712/i1594537156_2437_6.jpg","https://xcimg.szwego.com/20200712/i1594537156_1403_7.jpg"],"created_at":"2025-02-08T12:43:38.730Z"},{"id":"item-dac2fb447cce","sku":"_dhChCcbZHFHXpXScMumSlVtJNvnUAzsYEu6hD9w","name_en":"『Burberry 巴宝莉』","name_cn":"『Burberry 巴宝莉』\n\nB家中古vintage系列新款小号邮差包!进口复古棕厚度1.4厚牛皮,进口利蒙塔中古系列新款! 头层牛皮 搭配经典格纹 复古的棕色增加了文艺范! 格纹环保干净好打理,包包容量大小合适,可单肩可斜挎!满足日常所需!好物必收!\n尺寸:21/8.5/18cm!\n6880","specs":{"source":"wsxcme","sourceId":"_dhChCcbZHFHXpXScMumSlVtJNvnUAzsYEu6hD9w","sourceTagId":80411239,"sourceTagName":"巴宝莉/女包","rawTitle":"『Burberry 巴宝莉』\n\nB家中古vintage系列新款小号邮差包!进口复古棕厚度1.4厚牛皮,进口利蒙塔中古系列新款! 头层牛皮 搭配经典格纹 复古的棕色增加了文艺范! 格纹环保干净好打理,包包容量大小合适,可单肩可斜挎!满足日常所需!好物必收!\n尺寸:21/8.5/18cm!\n6880"},"price":null,"currency":"CNY","moq":1,"category":"burberry-women-bags","status":"active","alibaba_url":null,"images":["https://xcimg.szwego.com/20210902/i1630565560_2001_0.jpg","https://xcimg.szwego.com/20210902/i1630565560_6639_1.jpg","https://xcimg.szwego.com/20210902/i1630565560_1267_2.jpg","https://xcimg.szwego.com/20210902/i1630565560_4703_3.jpg","https://xcimg.szwego.com/20210902/i1630565560_1145_4.jpg","https://xcimg.szwego.com/20210902/i1630565560_507_5.jpg","https://xcimg.szwego.com/20210902/i1630565560_2498_6.jpg","https://xcimg.szwego.com/20210902/i1630565560_8677_7.jpg"],"created_at":"2025-02-08T12:43:38.729Z"},{"id":"item-8f1281887fa0","sku":"_dLkLkST5cZgf7ehyfmLUhAFtODJc8HTupbe7zvw","name_en":"『Burberry 巴宝莉』","name_cn":"『Burberry 巴宝莉』\n\nB家中古vintage系列新款小号邮差包!进口复古棕厚度1.4厚牛皮,进口利蒙塔中古系列新款! 头层牛皮 搭配经典格纹 复古的棕色增加了文艺范! 格纹环保干净好打理,包包容量大小合适,可单肩可斜挎!满足日常所需!好物必收!\n尺寸:21/8.5/18cm!\n6880","specs":{"source":"wsxcme","sourceId":"_dLkLkST5cZgf7ehyfmLUhAFtODJc8HTupbe7zvw","sourceTagId":80411239,"sourceTagName":"巴宝莉/女包","rawTitle":"『Burberry 巴宝莉』\n\nB家中古vintage系列新款小号邮差包!进口复古棕厚度1.4厚牛皮,进口利蒙塔中古系列新款! 头层牛皮 搭配经典格纹 复古的棕色增加了文艺范! 格纹环保干净好打理,包包容量大小合适,可单肩可斜挎!满足日常所需!好物必收!\n尺寸:21/8.5/18cm!\n6880"},"price":null,"currency":"CNY","moq":1,"category":"burberry-women-bags","status":"active","alibaba_url":null,"images":["https://xcimg.szwego.com/20210902/i1630565517_8029_0.jpg","https://xcimg.szwego.com/20210902/i1630565517_9875_1.jpg","https://xcimg.szwego.com/20210902/i1630565517_7802_2.jpg","https://xcimg.szwego.com/20210902/i1630565517_3608_3.jpg","https://xcimg.szwego.com/20210902/i1630565517_6571_4.jpg","https://xcimg.szwego.com/20210902/i1630565517_1931_5.jpg","https://xcimg.szwego.com/20210902/i1630565517_6264_6.jpg","https://xcimg.szwego.com/20210902/i1630565517_2255_7.jpg","https://xcimg.szwego.com/20210902/i1630565517_5594_8.jpg"],"created_at":"2025-02-08T12:43:38.728Z"},{"id":"item-332fbe6e30fe","sku":"_dtotoxNYSmgjvl52Wi54giQq3JFCJWncdL80Fjw","name_en":"『Burberry 巴宝莉』","name_cn":"『Burberry 巴宝莉』\n\n🔥🔥经典的腋下麻将包,😀现在是火爆的中古店最受欢迎的款式,众多博主,达人都在找寻它的踪迹,不惜买个做旧的几千块钱拿回去,也觉得超值,肩带可以调节,手拿,腋下包两用,再灵活点的姑娘,加一根链条就是斜挎包可谓无所不能的一款经典了!尺寸:21/5/14cm、1816","specs":{"source":"wsxcme","sourceId":"_dtotoxNYSmgjvl52Wi54giQq3JFCJWncdL80Fjw","sourceTagId":80411239,"sourceTagName":"巴宝莉/女包","rawTitle":"『Burberry 巴宝莉』\n\n🔥🔥经典的腋下麻将包,😀现在是火爆的中古店最受欢迎的款式,众多博主,达人都在找寻它的踪迹,不惜买个做旧的几千块钱拿回去,也觉得超值,肩带可以调节,手拿,腋下包两用,再灵活点的姑娘,加一根链条就是斜挎包可谓无所不能的一款经典了!尺寸:21/5/14cm、1816"},"price":null,"currency":"CNY","moq":1,"category":"burberry-women-bags","status":"active","alibaba_url":null,"images":["https://xcimg.szwego.com/20201013/i1602569464_4316_0.jpg","https://xcimg.szwego.com/20201013/i1602569464_3400_1.jpg","https://xcimg.szwego.com/20201013/i1602569464_9868_2.jpg","https://xcimg.szwego.com/20201013/i1602569464_1296_3.jpg","https://xcimg.szwego.com/20201013/i1602569464_2284_4.jpg","https://xcimg.szwego.com/20201013/i1602569464_500_5.jpg","https://xcimg.szwego.com/20201013/i1602569464_4104_6.jpg","https://xcimg.szwego.com/20201013/i1602569464_7448_7.jpg","https://xcimg.szwego.com/20201013/i1602569464_7074_8.jpg"],"created_at":"2025-02-08T12:43:38.727Z"},{"id":"item-b72d3e8039a6","sku":"_dA3A3fdVh3dtE4L7SeEcuNtyS8ZpKLJ6x8NTRpA","name_en":"『Burberry 巴宝莉』","name_cn":"『Burberry 巴宝莉』\n\n🔥🔥B家最经典中古vintage法棍腋下包,肩背或手提怎么搭配都洋气,包身很轻,内里一个拉链口袋,收纳方便,😆容量足 经典必入,洋气百搭,可休闲可职业,优雅与魅力,自带高级感!尺寸26-7-16!、2152","specs":{"source":"wsxcme","sourceId":"_dA3A3fdVh3dtE4L7SeEcuNtyS8ZpKLJ6x8NTRpA","sourceTagId":80411239,"sourceTagName":"巴宝莉/女包","rawTitle":"『Burberry 巴宝莉』\n\n🔥🔥B家最经典中古vintage法棍腋下包,肩背或手提怎么搭配都洋气,包身很轻,内里一个拉链口袋,收纳方便,😆容量足 经典必入,洋气百搭,可休闲可职业,优雅与魅力,自带高级感!尺寸26-7-16!、2152"},"price":null,"currency":"CNY","moq":1,"category":"burberry-women-bags","status":"active","alibaba_url":null,"images":["https://xcimg.szwego.com/20201227/a1609076423133_8278.jpg","https://xcimg.szwego.com/20201227/a1609076423228_7023.jpg","https://xcimg.szwego.com/20201227/a1609076423326_6728.jpg","https://xcimg.szwego.com/20201227/a1609076423426_2564.jpg","https://xcimg.szwego.com/20201227/a1609076423526_7541.jpg","https://xcimg.szwego.com/20201227/a1609076423635_3188.jpg","https://xcimg.szwego.com/20201227/a1609076423727_8758.jpg","https://xcimg.szwego.com/20201227/a1609076423843_6660.jpg","https://xcimg.szwego.com/20201227/a1609076423952_7312.jpg"],"created_at":"2025-02-08T12:43:38.726Z"},{"id":"item-b5fa42a7e25b","sku":"_dxNxNbfQ1gDTEdL8HzWY9N6UGC6F9sXgigUa5IQ","name_en":"『Burberry 巴宝莉』","name_cn":"『Burberry 巴宝莉』\n\n🔥🔥B家中古格子公文包,复古的小纳帕牛皮 ➕经典的战马格纹面料 ,🥰🥰按扣开合的五金配件也特别精致 有着bur、s的五金Logo 搭配一根长肩带 单肩 斜挎 手提 尺寸:26x7x22cm、6881","specs":{"source":"wsxcme","sourceId":"_dxNxNbfQ1gDTEdL8HzWY9N6UGC6F9sXgigUa5IQ","sourceTagId":80411239,"sourceTagName":"巴宝莉/女包","dimensions":{"lengthCm":26,"heightCm":7,"widthCm":22},"rawTitle":"『Burberry 巴宝莉』\n\n🔥🔥B家中古格子公文包,复古的小纳帕牛皮 ➕经典的战马格纹面料 ,🥰🥰按扣开合的五金配件也特别精致 有着bur、s的五金Logo 搭配一根长肩带 单肩 斜挎 手提 尺寸:26x7x22cm、6881"},"price":null,"currency":"CNY","moq":1,"category":"burberry-women-bags","status":"active","alibaba_url":null,"images":["https://xcimg.szwego.com/o_1f5ai912i12ukkl81dru10laa7q12.jpg","https://xcimg.szwego.com/o_1f5ai912i1v58jqjpnsr1gc213.jpg","https://xcimg.szwego.com/o_1f5ai912iqn91dtaidn1j7918mv14.jpg","https://xcimg.szwego.com/o_1f5ai912i45d8qo1d051ti2t5b15.jpg","https://xcimg.szwego.com/o_1f5ai912isthb9813bf11bc1kip16.jpg","https://xcimg.szwego.com/o_1f5ai912i1fqe1rk1f1p5vmg6q17.jpg","https://xcimg.szwego.com/o_1f5ai912ind1d5e10vs1mcd19am18.jpg","https://xcimg.szwego.com/o_1f5ai912i1ghi18ek15t31tpb1blb19.jpg","https://xcimg.szwego.com/o_1f5ai912i3hdloa19qf1nmf1vpv1a.jpg"],"created_at":"2025-02-08T12:43:38.725Z"},{"id":"item-87112ed0b89b","sku":"_dsUsUQ52AOQjQi9WhgAfAbWwUWRthFZk1_f5SsA","name_en":"『Burberry 巴宝莉』","name_cn":"『Burberry 巴宝莉』\n\n🔥🔥B家中古战马水桶包,原单品质!🤩进口战马格纹pvc,双经双纬细帆布内衬都是别家拿来做面料的,完美的水桶定型,尺寸22×15×27cm、6882","specs":{"source":"wsxcme","sourceId":"_dsUsUQ52AOQjQi9WhgAfAbWwUWRthFZk1_f5SsA","sourceTagId":80411239,"sourceTagName":"巴宝莉/女包","dimensions":{"lengthCm":22,"heightCm":15,"widthCm":27},"rawTitle":"『Burberry 巴宝莉』\n\n🔥🔥B家中古战马水桶包,原单品质!🤩进口战马格纹pvc,双经双纬细帆布内衬都是别家拿来做面料的,完美的水桶定型,尺寸22×15×27cm、6882"},"price":null,"currency":"CNY","moq":1,"category":"burberry-women-bags","status":"active","alibaba_url":null,"images":["https://xcimg.szwego.com/o_1f5aivagc192h1hgpqsc1k9f1fpv76.jpg","https://xcimg.szwego.com/o_1f5aivagd18f3k9j1vtjhq0gdb77.jpg","https://xcimg.szwego.com/o_1f5aivagd1nii1fei2b51dol1l7878.jpg","https://xcimg.szwego.com/o_1f5aivagd1tse1p511k6s1asb1qd79.jpg","https://xcimg.szwego.com/o_1f5aivagde3i9m8fjq1pl91d4f7a.jpg","https://xcimg.szwego.com/o_1f5aivagd1dhq1p2kpo315e7jiq7b.jpg","https://xcimg.szwego.com/o_1f5aivagd1ipn8nc211aa1c8e7c.jpg","https://xcimg.szwego.com/o_1f5aivagdqfi1a0r1v2q3b6ret7d.jpg","https://xcimg.szwego.com/o_1f5aivagd7751vcs1af91qgp1uc77e.jpg"],"created_at":"2025-02-08T12:43:38.724Z"},{"id":"item-ae8d58bb2403","sku":"_dhkhkcSLceDSVTaWLzk_9xnmSBS9do9X6FvtM8w","name_en":"『Burberry 巴宝莉』","name_cn":"『Burberry 巴宝莉』\n\n🔥🔥B家中古BB贝壳包!经典的战马格子大小都刚刚好,可以让你轻松驾驭,包身整体外形简洁大方,却容量超足,各种随身小物品都能轻松装下!尺寸:31✖️12✖️22cm、6883","specs":{"source":"wsxcme","sourceId":"_dhkhkcSLceDSVTaWLzk_9xnmSBS9do9X6FvtM8w","sourceTagId":80411239,"sourceTagName":"巴宝莉/女包","rawTitle":"『Burberry 巴宝莉』\n\n🔥🔥B家中古BB贝壳包!经典的战马格子大小都刚刚好,可以让你轻松驾驭,包身整体外形简洁大方,却容量超足,各种随身小物品都能轻松装下!尺寸:31✖️12✖️22cm、6883"},"price":null,"currency":"CNY","moq":1,"category":"burberry-women-bags","status":"active","alibaba_url":null,"images":["https://xcimg.szwego.com/o_1f7fpme6819u17i01s4k1715jh12.jpg","https://xcimg.szwego.com/o_1f7fpme681sear3a1459gf543j13.jpg","https://xcimg.szwego.com/o_1f7fpme68gnamfe6b12su159f14.jpg","https://xcimg.szwego.com/o_1f7fpme6811fs1b179sj43ogh15.jpg","https://xcimg.szwego.com/o_1f7fpme6816be137jpakqes16p016.jpg","https://xcimg.szwego.com/o_1f7fpme6811ka14odj7k1rh01lji17.jpg","https://xcimg.szwego.com/o_1f7fpme681nmo1qtb1ch71di81i3f18.jpg","https://xcimg.szwego.com/o_1f7fpme68b8d1q96p6r1172g9319.jpg","https://xcimg.szwego.com/o_1f7fpme681c9t1ql2p9ufs8b1c1a.jpg"],"created_at":"2025-02-08T12:43:38.723Z"},{"id":"item-e97be62ef7a8","sku":"_dZcZc4I6RgS21MbmscMAaPZ-MK6HxH_mQCFQXoQ","name_en":"『Burberry 巴宝莉』","name_cn":"『Burberry 巴宝莉』\n\n🔥🔥B家中古系列邮差包,战马系列中古邮差包,这款几乎市面上你找不到,中古店也是一包难求,必须种草!尺寸:27x17cm、6886","specs":{"source":"wsxcme","sourceId":"_dZcZc4I6RgS21MbmscMAaPZ-MK6HxH_mQCFQXoQ","sourceTagId":80411239,"sourceTagName":"巴宝莉/女包","rawTitle":"『Burberry 巴宝莉』\n\n🔥🔥B家中古系列邮差包,战马系列中古邮差包,这款几乎市面上你找不到,中古店也是一包难求,必须种草!尺寸:27x17cm、6886"},"price":null,"currency":"CNY","moq":1,"category":"burberry-women-bags","status":"active","alibaba_url":null,"images":["https://xcimg.szwego.com/o_1f7fpurss1mmmqeeiu71oldnt4b.jpg","https://xcimg.szwego.com/o_1f7fpurssg0si7aen3ke71t8u4c.jpg","https://xcimg.szwego.com/o_1f7fpurssp11146vbkl52j17q44d.jpg","https://xcimg.szwego.com/o_1f7fpurss1k5d9351o5qd4r19da4e.jpg","https://xcimg.szwego.com/o_1f7fpurss1sr91kom1tl23nh1nrs4f.jpg","https://xcimg.szwego.com/o_1f7fpursu8u5da71h9114j317u74g.jpg","https://xcimg.szwego.com/o_1f7fpursuen7129b1jt81i8ohjo4h.jpg","https://xcimg.szwego.com/o_1f7fpursuoj6j3tvaa1vebaai4i.jpg","https://xcimg.szwego.com/o_1f7fpursul9717q216ho1h10i594j.jpg"],"created_at":"2025-02-08T12:43:38.722Z"},{"id":"item-730e13165349","sku":"_dsxsxaGkifJrlT9G1hhPlyq3TWY7_lGst42qxhA","name_en":"『Burberry 巴宝莉』","name_cn":"『Burberry 巴宝莉』\n\n🔥 🔥Vintage 格纹拼皮革钱夹,随附链饰皮革肩背带。本品可作为小型手袋单独使用,或作为钱夹收置于日常手袋内。👍专柜品质、做工精细💋实物拍摄📷,8687丅B花格,尺寸21cm*12cm*3cm  !","specs":{"source":"wsxcme","sourceId":"_dsxsxaGkifJrlT9G1hhPlyq3TWY7_lGst42qxhA","sourceTagId":80411239,"sourceTagName":"巴宝莉/女包","rawTitle":"『Burberry 巴宝莉』\n\n🔥 🔥Vintage 格纹拼皮革钱夹,随附链饰皮革肩背带。本品可作为小型手袋单独使用,或作为钱夹收置于日常手袋内。👍专柜品质、做工精细💋实物拍摄📷,8687丅B花格,尺寸21cm*12cm*3cm  !"},"price":null,"currency":"CNY","moq":1,"category":"burberry-women-bags","status":"active","alibaba_url":null,"images":["https://xcimg.szwego.com/20200412/a1586668424206_5876.jpg","https://xcimg.szwego.com/20200412/a1586668424749_6013.jpg","https://xcimg.szwego.com/20200412/a1586668425139_6007.jpg","https://xcimg.szwego.com/20200412/a1586668425522_1805.jpg","https://xcimg.szwego.com/20200412/a1586668425881_6773.jpg","https://xcimg.szwego.com/20200412/a1586668426211_1513.jpg","https://xcimg.szwego.com/20200412/a1586668426647_7688.jpg","https://xcimg.szwego.com/20200412/a1586668427114_5256.jpg","https://xcimg.szwego.com/20200412/a1586668427677_5713.jpg"],"created_at":"2025-02-08T12:43:38.721Z"},{"id":"item-983fe0997ae8","sku":"_djHjHdyNhk0YIVTyw34TuPjSKQmt0QzAPXoMnyw","name_en":"『Burberry 巴宝莉』","name_cn":"『Burberry 巴宝莉』\n\n🔥🔥B家格子料皮革钱夹,随附链饰皮革肩背带。本品可作为小型手袋单独使用,或作为钱夹收置于日常手袋内。专柜品质、做工精细实物拍摄,黑色格子尺寸21cm*12cm*3cm、8687","specs":{"source":"wsxcme","sourceId":"_djHjHdyNhk0YIVTyw34TuPjSKQmt0QzAPXoMnyw","sourceTagId":80411239,"sourceTagName":"巴宝莉/女包","rawTitle":"『Burberry 巴宝莉』\n\n🔥🔥B家格子料皮革钱夹,随附链饰皮革肩背带。本品可作为小型手袋单独使用,或作为钱夹收置于日常手袋内。专柜品质、做工精细实物拍摄,黑色格子尺寸21cm*12cm*3cm、8687"},"price":null,"currency":"CNY","moq":1,"category":"burberry-women-bags","status":"active","alibaba_url":null,"images":["https://xcimg.szwego.com/o_1fu902olvip51uh91jrkscbi2945.jpg","https://xcimg.szwego.com/o_1fu902olvplt1rbh7cjse4s46.jpg","https://xcimg.szwego.com/o_1fu902olvs751prtb0t92lor47.jpg","https://xcimg.szwego.com/o_1fu902olv8e2tgv1fal1k5714qg48.jpg","https://xcimg.szwego.com/o_1fu902olvdul16cc5lc1pie12f449.jpg","https://xcimg.szwego.com/o_1fu902olvq4j47q1kvs1p481f1s4a.jpg","https://xcimg.szwego.com/o_1fu902olv1l1d3ej121s1umpcvg4b.jpg","https://xcimg.szwego.com/o_1fu902olv1ggd1so699dk10fnv4c.jpg"],"created_at":"2025-02-08T12:43:38.720Z"},{"id":"item-5279ba1a3623","sku":"_dc7c711C95b78JURQNIFEluNIBgMseSCdLXqE8Q","name_en":"『Burberry 巴宝莉』","name_cn":"『Burberry 巴宝莉』\n\n🔥🔥B家格子料皮革钱夹,随附链饰皮革肩背带。本品可作为小型手袋单独使用,或作为钱夹收置于日常手袋内。专柜品质、做工精细实物拍摄,黑色格子尺寸21cm*12cm*3cm、8687","specs":{"source":"wsxcme","sourceId":"_dc7c711C95b78JURQNIFEluNIBgMseSCdLXqE8Q","sourceTagId":80411239,"sourceTagName":"巴宝莉/女包","rawTitle":"『Burberry 巴宝莉』\n\n🔥🔥B家格子料皮革钱夹,随附链饰皮革肩背带。本品可作为小型手袋单独使用,或作为钱夹收置于日常手袋内。专柜品质、做工精细实物拍摄,黑色格子尺寸21cm*12cm*3cm、8687"},"price":null,"currency":"CNY","moq":1,"category":"burberry-women-bags","status":"active","alibaba_url":null,"images":["https://xcimg.szwego.com/o_1fu903m2i2ji1mr1hcntu7f4773.jpg","https://xcimg.szwego.com/o_1fu903m2iek29tl131h1m7bsfa74.jpg","https://xcimg.szwego.com/o_1fu903m2i1fci18abls1vh61shv75.jpg","https://xcimg.szwego.com/o_1fu903m2i1d2uikh193h1umv1j2476.jpg","https://xcimg.szwego.com/o_1fu903m2i16t510qnnc71djjcqr77.jpg","https://xcimg.szwego.com/o_1fu903m2i13l71jkc3ma1oau1une78.jpg","https://xcimg.szwego.com/o_1fu903m2i1tgia7aij12nqa1079.jpg","https://xcimg.szwego.com/o_1fu903m2i1g18tk213ug1cr515jv7a.jpg"],"created_at":"2025-02-08T12:43:38.719Z"},{"id":"item-8952abe2f0c6","sku":"_dycyclhfY3KBVr4gUbI2WL5RoBJxQysLL3lvUcw","name_en":"『Burberry 巴宝莉』","name_cn":"『Burberry 巴宝莉』\n\n🔥🔥B家格子料皮革钱夹,随附链饰皮革肩背带。本品可作为小型手袋单独使用,或作为钱夹收置于日常手袋内。专柜品质、做工精细实物拍摄,黑色格子尺寸21cm*12cm*3cm、8687","specs":{"source":"wsxcme","sourceId":"_dycyclhfY3KBVr4gUbI2WL5RoBJxQysLL3lvUcw","sourceTagId":80411239,"sourceTagName":"巴宝莉/女包","rawTitle":"『Burberry 巴宝莉』\n\n🔥🔥B家格子料皮革钱夹,随附链饰皮革肩背带。本品可作为小型手袋单独使用,或作为钱夹收置于日常手袋内。专柜品质、做工精细实物拍摄,黑色格子尺寸21cm*12cm*3cm、8687"},"price":null,"currency":"CNY","moq":1,"category":"burberry-women-bags","status":"active","alibaba_url":null,"images":["https://xcimg.szwego.com/o_1fu9013n81fn41dc41jmc12kj13mtq.jpg","https://xcimg.szwego.com/o_1fu901hb98i3m9n1pa5frv1ld517.jpg","https://xcimg.szwego.com/o_1fu901hb9i9uigf10mujum34418.jpg","https://xcimg.szwego.com/o_1fu901hb91k3upuk10nb16t51gre19.jpg","https://xcimg.szwego.com/o_1fu901hb918gobci135a1pmg107k1a.jpg","https://xcimg.szwego.com/o_1fu901hb91alatjpj0k17ke1hk31b.jpg","https://xcimg.szwego.com/o_1fu901hb917m75251djh1t2o1hj81c.jpg","https://xcimg.szwego.com/o_1fu901hb9tcn1icehfupuiqmb1d.jpg","https://xcimg.szwego.com/o_1fu901hb9pkgvmn11lned1hgn1e.jpg"],"created_at":"2025-02-08T12:43:38.718Z"},{"id":"item-2b7abf5d531d","sku":"_dwhwhwmLJ5eNfw4qDVvogIAfU8sFIrc3ZVFgsCA","name_en":"『Burberry 巴宝莉』","name_cn":"『Burberry 巴宝莉』\n\n🔥🔥B家精巧的斜背包,选用意大利鞣制粒纹皮革与典藏 Vintage 复古格纹裁片打造。😁😁可单肩背、斜背,或缔造手拿包造型。21 x 4.5 x 12.5cm、6601","specs":{"source":"wsxcme","sourceId":"_dwhwhwmLJ5eNfw4qDVvogIAfU8sFIrc3ZVFgsCA","sourceTagId":80411239,"sourceTagName":"巴宝莉/女包","rawTitle":"『Burberry 巴宝莉』\n\n🔥🔥B家精巧的斜背包,选用意大利鞣制粒纹皮革与典藏 Vintage 复古格纹裁片打造。😁😁可单肩背、斜背,或缔造手拿包造型。21 x 4.5 x 12.5cm、6601"},"price":null,"currency":"CNY","moq":1,"category":"burberry-women-bags","status":"active","alibaba_url":null,"images":["https://xcimg.szwego.com/o_1f2dto4991v471mrerfu1afa10276v.jpg","https://xcimg.szwego.com/o_1f2dto4991hvc1riodg61kba14h070.jpg","https://xcimg.szwego.com/o_1f2dto499apn1gj8176arhrjb471.jpg","https://xcimg.szwego.com/o_1f2dto49914ph9kf1m251399cil72.jpg","https://xcimg.szwego.com/o_1f2dto49919n51j241ag1hr91jhk73.jpg","https://xcimg.szwego.com/o_1f2dto499rh1ukmqsu1aku1k0874.jpg","https://xcimg.szwego.com/o_1f2dto4991l23tv7i9q14nep5875.jpg","https://xcimg.szwego.com/o_1f2dto4991b6j1kaf1jh5112p110v76.jpg","https://xcimg.szwego.com/o_1f2dto4991pai1aih1pnu1m5em5d77.jpg"],"created_at":"2025-02-08T12:43:38.717Z"},{"id":"item-866a326a4460","sku":"_dddddmet2MU7-rlmbXpyw0CnKQR2I-fJCDgCHsw","name_en":"『Burberry 巴宝莉』","name_cn":"『Burberry 巴宝莉』\n\n🔥🔥B家精巧的斜背包,选用意大利鞣制粒纹皮革与典藏 Vintage 复古格纹裁片打造。😁😁可单肩背、斜背,或缔造手拿包造型。21 x 4.5 x 12.5cm、6601","specs":{"source":"wsxcme","sourceId":"_dddddmet2MU7-rlmbXpyw0CnKQR2I-fJCDgCHsw","sourceTagId":80411239,"sourceTagName":"巴宝莉/女包","rawTitle":"『Burberry 巴宝莉』\n\n🔥🔥B家精巧的斜背包,选用意大利鞣制粒纹皮革与典藏 Vintage 复古格纹裁片打造。😁😁可单肩背、斜背,或缔造手拿包造型。21 x 4.5 x 12.5cm、6601"},"price":null,"currency":"CNY","moq":1,"category":"burberry-women-bags","status":"active","alibaba_url":null,"images":["https://xcimg.szwego.com/o_1f2dtkh834hkc82kenakg1d53l.jpg","https://xcimg.szwego.com/o_1f2dtkh8318ca7a21cspqek1m1em.jpg","https://xcimg.szwego.com/o_1f2dtkh83ktd10fl1g7ocmc13hhn.jpg","https://xcimg.szwego.com/o_1f2dtkh83v4n1ue11rra1aqbaf0o.jpg","https://xcimg.szwego.com/o_1f2dtkh83ugidql1l26j3hlqip.jpg","https://xcimg.szwego.com/o_1f2dtkh83op91i7r431no6o8rq.jpg","https://xcimg.szwego.com/o_1f2dtkh836msamojlm1n8t4qsr.jpg","https://xcimg.szwego.com/o_1f2dtkh8313g814jq1b2j1u4l1uf1s.jpg","https://xcimg.szwego.com/o_1f2dtkh831vnjb4v1bptf1t9eit.jpg"],"created_at":"2025-02-08T12:43:38.716Z"}],"page":7,"pageSize":24,"total":493,"totalPages":21}
