{"items":[{"id":"item-45fcf307133e","sku":"_dxExE30EgXbrRsegRMMTqcQmo-ogBr5rKMDiasQ","name_en":"『Burberry 巴宝莉』","name_cn":"『Burberry 巴宝莉』\n\n🔥🔥B家格子料皮革钱夹,随附链饰皮革肩背带。本品可作为小型手袋单独使用,或作为钱夹收置于日常手袋内。👍专柜品质、做工精细💋实物拍摄📷,🆔🆔40609791黑色!尺寸21cm*12cm*3cm","specs":{"source":"wsxcme","sourceId":"_dxExE30EgXbrRsegRMMTqcQmo-ogBr5rKMDiasQ","sourceTagId":80411239,"sourceTagName":"巴宝莉/女包","rawTitle":"『Burberry 巴宝莉』\n\n🔥🔥B家格子料皮革钱夹,随附链饰皮革肩背带。本品可作为小型手袋单独使用,或作为钱夹收置于日常手袋内。👍专柜品质、做工精细💋实物拍摄📷,🆔🆔40609791黑色!尺寸21cm*12cm*3cm"},"price":null,"currency":"CNY","moq":1,"category":"burberry-women-bags","status":"active","alibaba_url":null,"images":["https://xcimg.szwego.com/1568531209_2919131754_0","https://xcimg.szwego.com/1568531209_3547894853_1","https://xcimg.szwego.com/1568531209_2462711139_2","https://xcimg.szwego.com/1568531209_33927642_3","https://xcimg.szwego.com/1568531209_1840288946_4","https://xcimg.szwego.com/1568531209_3026296213_5","https://xcimg.szwego.com/1568531209_3452791127_6","https://xcimg.szwego.com/1568531209_864003675_7"],"created_at":"2025-02-08T12:43:27.864Z"},{"id":"item-f7a48d6254c9","sku":"_dmmmmYqIJYsyUCKZs8gYRp1KETMrfTdtlnQamXg","name_en":"『Burberry 巴宝莉』","name_cn":"『Burberry 巴宝莉』\n\n🔥🔥B家格子料皮革钱夹,随附链饰皮革肩背带。本品可作为小型手袋单独使用,或作为钱夹收置于日常手袋内。👍专柜品质、做工精细💋实物拍摄📷,🆔🆔40609791杏色、尺寸21cm*12cm*3cm","specs":{"source":"wsxcme","sourceId":"_dmmmmYqIJYsyUCKZs8gYRp1KETMrfTdtlnQamXg","sourceTagId":80411239,"sourceTagName":"巴宝莉/女包","rawTitle":"『Burberry 巴宝莉』\n\n🔥🔥B家格子料皮革钱夹,随附链饰皮革肩背带。本品可作为小型手袋单独使用,或作为钱夹收置于日常手袋内。👍专柜品质、做工精细💋实物拍摄📷,🆔🆔40609791杏色、尺寸21cm*12cm*3cm"},"price":null,"currency":"CNY","moq":1,"category":"burberry-women-bags","status":"active","alibaba_url":null,"images":["https://xcimg.szwego.com/1568531158_1753620798_0","https://xcimg.szwego.com/1568531158_1826619347_1","https://xcimg.szwego.com/1568531158_196549052_2","https://xcimg.szwego.com/1568531158_2917147659_3","https://xcimg.szwego.com/1568531158_1213864715_4","https://xcimg.szwego.com/1568531158_4269067982_5","https://xcimg.szwego.com/1568531158_2509272694_6","https://xcimg.szwego.com/1568531158_1944659700_7","https://xcimg.szwego.com/1568531158_1080712022_8"],"created_at":"2025-02-08T12:43:27.863Z"},{"id":"item-fcf7ca713f80","sku":"_dgHgHx_H6XPSB2VK0bgyMS50gcM-1iMIjddMrMg","name_en":"『Burberry 巴宝莉』","name_cn":"『Burberry 巴宝莉』\n\n🔥🔥B家格子料皮革钱夹,随附链饰皮革肩背带。本品可作为小型手袋单独使用,或作为钱夹收置于日常手袋内。👍专柜品质、做工精细💋实物拍摄📷,🆔🆔40609791西瓜红色,尺寸21cm*12cm*3cm","specs":{"source":"wsxcme","sourceId":"_dgHgHx_H6XPSB2VK0bgyMS50gcM-1iMIjddMrMg","sourceTagId":80411239,"sourceTagName":"巴宝莉/女包","rawTitle":"『Burberry 巴宝莉』\n\n🔥🔥B家格子料皮革钱夹,随附链饰皮革肩背带。本品可作为小型手袋单独使用,或作为钱夹收置于日常手袋内。👍专柜品质、做工精细💋实物拍摄📷,🆔🆔40609791西瓜红色,尺寸21cm*12cm*3cm"},"price":null,"currency":"CNY","moq":1,"category":"burberry-women-bags","status":"active","alibaba_url":null,"images":["https://xcimg.szwego.com/1568531309_934095792_0","https://xcimg.szwego.com/1568531309_3714615366_1","https://xcimg.szwego.com/1568531309_2947937142_2","https://xcimg.szwego.com/1568531309_1269426674_3","https://xcimg.szwego.com/1568531309_1256171864_4","https://xcimg.szwego.com/1568531309_2837870404_5","https://xcimg.szwego.com/1568531309_4067190747_6","https://xcimg.szwego.com/1568531309_2275090239_7","https://xcimg.szwego.com/1568531309_359582732_8"],"created_at":"2025-02-08T12:43:27.862Z"},{"id":"item-f5c4be5aa7ea","sku":"_d_7_79Iw3AK3Hf5v33Engvd2kUGMwv6OsqwEiNw","name_en":"『Burberry 巴宝莉』","name_cn":"『Burberry 巴宝莉』\n\nBURBERRY🇬🇧B家专柜经典款立体挺括的班纳手袋再次出货!!🎁装饰源自品牌六十年代的 Vintage 复古格纹,点缀马术灵感皮革元素。超级百搭的一款 40598尺寸:27.5*18*12cm","specs":{"source":"wsxcme","sourceId":"_d_7_79Iw3AK3Hf5v33Engvd2kUGMwv6OsqwEiNw","sourceTagId":80411239,"sourceTagName":"巴宝莉/女包","dimensions":{"lengthCm":27.5,"heightCm":18,"widthCm":12},"rawTitle":"『Burberry 巴宝莉』\n\nBURBERRY🇬🇧B家专柜经典款立体挺括的班纳手袋再次出货!!🎁装饰源自品牌六十年代的 Vintage 复古格纹,点缀马术灵感皮革元素。超级百搭的一款 40598尺寸:27.5*18*12cm"},"price":null,"currency":"CNY","moq":1,"category":"burberry-women-bags","status":"active","alibaba_url":null,"images":["https://xcimg.szwego.com/1567262365_2017156051_0","https://xcimg.szwego.com/1567262365_876001088_1","https://xcimg.szwego.com/1567262365_242651690_2","https://xcimg.szwego.com/1567262365_1397003422_3","https://xcimg.szwego.com/1567262365_1003974496_4","https://xcimg.szwego.com/1567262365_3912341871_5","https://xcimg.szwego.com/1567262365_1012810771_6","https://xcimg.szwego.com/1567262365_2666448303_7","https://xcimg.szwego.com/1567262365_2007055716_8"],"created_at":"2025-02-08T12:43:27.861Z"},{"id":"item-6de8fe2e9523","sku":"_duwuwxL3O40PXBGUQYA7aj6URw-CK7DTWu-OYQg","name_en":"『Burberry 巴宝莉』","name_cn":"『Burberry 巴宝莉』\n\nBURBERRY🇬🇧B家专柜经典款立体挺括的班纳手袋再次出货!!🎁装饰源自品牌六十年代的 Vintage 复古格纹,点缀马术灵感皮革元素。超级百搭的一款  40598尺寸:27.5*18*12cm","specs":{"source":"wsxcme","sourceId":"_duwuwxL3O40PXBGUQYA7aj6URw-CK7DTWu-OYQg","sourceTagId":80411239,"sourceTagName":"巴宝莉/女包","dimensions":{"lengthCm":27.5,"heightCm":18,"widthCm":12},"rawTitle":"『Burberry 巴宝莉』\n\nBURBERRY🇬🇧B家专柜经典款立体挺括的班纳手袋再次出货!!🎁装饰源自品牌六十年代的 Vintage 复古格纹,点缀马术灵感皮革元素。超级百搭的一款  40598尺寸:27.5*18*12cm"},"price":null,"currency":"CNY","moq":1,"category":"burberry-women-bags","status":"active","alibaba_url":null,"images":["https://xcimg.szwego.com/1567262627_4051690478_0","https://xcimg.szwego.com/1567262627_4225226211_1","https://xcimg.szwego.com/1567262627_1856570408_2","https://xcimg.szwego.com/1567262627_3301514925_3","https://xcimg.szwego.com/1567262627_2784191751_4","https://xcimg.szwego.com/1567262627_74624319_5","https://xcimg.szwego.com/1567262627_2797387530_6","https://xcimg.szwego.com/1567262627_4098957302_7","https://xcimg.szwego.com/1567262627_394885029_8"],"created_at":"2025-02-08T12:43:27.860Z"},{"id":"item-9b4e3ef21c3b","sku":"_dzxzxOdyX_BlrtDOSjFG30Jj4HLXk89b97iQFZg","name_en":"『Burberry 巴宝莉』","name_cn":"『Burberry 巴宝莉』\n\n🔥🔥B家精巧的斜背包,设有徽标镌刻按扣。搭配可拆式背带,点缀提花精纺的品牌徽标。随心变换为肩背包或手拿包造型。25 x 8.5 x 18cm、1209","specs":{"source":"wsxcme","sourceId":"_dzxzxOdyX_BlrtDOSjFG30Jj4HLXk89b97iQFZg","sourceTagId":80411239,"sourceTagName":"巴宝莉/女包","rawTitle":"『Burberry 巴宝莉』\n\n🔥🔥B家精巧的斜背包,设有徽标镌刻按扣。搭配可拆式背带,点缀提花精纺的品牌徽标。随心变换为肩背包或手拿包造型。25 x 8.5 x 18cm、1209"},"price":null,"currency":"CNY","moq":1,"category":"burberry-women-bags","status":"active","alibaba_url":null,"images":["https://xcimg.szwego.com/20210605/i1622876126_7692_0.jpg","https://xcimg.szwego.com/20210605/i1622876126_6498_1.jpg","https://xcimg.szwego.com/20210605/i1622876126_3514_2.jpg","https://xcimg.szwego.com/20210605/i1622876126_5179_3.jpg","https://xcimg.szwego.com/20210605/i1622876126_9148_4.jpg","https://xcimg.szwego.com/20210605/i1622876126_2998_5.jpg","https://xcimg.szwego.com/20210605/i1622876126_7112_6.jpg","https://xcimg.szwego.com/20210605/i1622876126_5227_7.jpg","https://xcimg.szwego.com/20210605/i1622876126_9321_8.jpg"],"created_at":"2025-02-08T12:43:27.859Z"},{"id":"item-e480c2fb4d22","sku":"_dk3k3ZBu4OKLQ7AxYvYJHLpEHf1Mi8HVrMtBAgA","name_en":"『Burberry 巴宝莉』","name_cn":"『Burberry 巴宝莉』\n\n🔥🔥B家精巧的斜背包,设有徽标镌刻按扣。搭配可拆式背带,点缀提花精纺的品牌徽标。随心变换为肩背包或手拿包造型。25 x 8.5 x 18cm、1209","specs":{"source":"wsxcme","sourceId":"_dk3k3ZBu4OKLQ7AxYvYJHLpEHf1Mi8HVrMtBAgA","sourceTagId":80411239,"sourceTagName":"巴宝莉/女包","rawTitle":"『Burberry 巴宝莉』\n\n🔥🔥B家精巧的斜背包,设有徽标镌刻按扣。搭配可拆式背带,点缀提花精纺的品牌徽标。随心变换为肩背包或手拿包造型。25 x 8.5 x 18cm、1209"},"price":null,"currency":"CNY","moq":1,"category":"burberry-women-bags","status":"active","alibaba_url":null,"images":["https://xcimg.szwego.com/20210201/a1612164800732_3881.jpg","https://xcimg.szwego.com/20210201/a1612164801355_6003.jpg","https://xcimg.szwego.com/20210201/a1612164801488_3461.jpg","https://xcimg.szwego.com/20210201/a1612164801640_6177.jpg","https://xcimg.szwego.com/20210201/a1612164801788_5438.jpg","https://xcimg.szwego.com/20210201/a1612164801913_1112.jpg","https://xcimg.szwego.com/20210201/a1612164802054_5431.jpg","https://xcimg.szwego.com/20210201/a1612164802221_6267.jpg","https://xcimg.szwego.com/20210201/a1612164802346_5162.jpg"],"created_at":"2025-02-08T12:43:27.858Z"},{"id":"item-1ef22e367d58","sku":"_dnRnRgPFNXtkyGdpCYceKL_77IYer4bYCpWL3WA","name_en":"『Burberry 巴宝莉』","name_cn":"『Burberry 巴宝莉』\n\nB家精巧的斜背包,选用粒纹皮革与 Vintage 复古格纹打造,设有徽标镌刻按扣。搭配可拆式背带,点缀提花精纺的品牌徽标。随心变换为肩背包或手拿包造型。25 x 8.5 x 18cm、1208","specs":{"source":"wsxcme","sourceId":"_dnRnRgPFNXtkyGdpCYceKL_77IYer4bYCpWL3WA","sourceTagId":80411239,"sourceTagName":"巴宝莉/女包","rawTitle":"『Burberry 巴宝莉』\n\nB家精巧的斜背包,选用粒纹皮革与 Vintage 复古格纹打造,设有徽标镌刻按扣。搭配可拆式背带,点缀提花精纺的品牌徽标。随心变换为肩背包或手拿包造型。25 x 8.5 x 18cm、1208"},"price":null,"currency":"CNY","moq":1,"category":"burberry-women-bags","status":"active","alibaba_url":null,"images":["https://xcimg.szwego.com/o_1f44807h4evt1ju4h314nebkv3q.jpg","https://xcimg.szwego.com/o_1f44807h41he7vnv189h1ascfqh3r.jpg","https://xcimg.szwego.com/o_1f44807h4179o1qk41quegk51s183s.jpg","https://xcimg.szwego.com/o_1f44807h41r961nra1mkjdhl1evu3t.jpg","https://xcimg.szwego.com/o_1f44807h49c81luc8hkjssotg3u.jpg","https://xcimg.szwego.com/o_1f44807h4on7v4v1c0s1q8r8j33v.jpg","https://xcimg.szwego.com/o_1f44807h41mor1ohp1is31bgdj2940.jpg","https://xcimg.szwego.com/o_1f44807h41mq618li3qt1q291vre41.jpg","https://xcimg.szwego.com/o_1f44807h41rdkfsd1emm1his1nag42.jpg"],"created_at":"2025-02-08T12:43:27.857Z"},{"id":"item-7ea5b2b4864e","sku":"_dtWtW9AVh_2ZoKaw6c7FRWLs6sFf9Fu42oBT4Tg","name_en":"『Burberry 巴宝莉』","name_cn":"『Burberry 巴宝莉』\n\n🔥🔥B家精巧的斜背包,选用粒纹皮革与 Vintage 复古格纹打造,设有徽标镌刻按扣。搭配可拆式背带,点缀提花精纺的品牌徽标。随心变换为肩背包或手拿包造型。25 x 8.5 x 18cm、1208","specs":{"source":"wsxcme","sourceId":"_dtWtW9AVh_2ZoKaw6c7FRWLs6sFf9Fu42oBT4Tg","sourceTagId":80411239,"sourceTagName":"巴宝莉/女包","rawTitle":"『Burberry 巴宝莉』\n\n🔥🔥B家精巧的斜背包,选用粒纹皮革与 Vintage 复古格纹打造,设有徽标镌刻按扣。搭配可拆式背带,点缀提花精纺的品牌徽标。随心变换为肩背包或手拿包造型。25 x 8.5 x 18cm、1208"},"price":null,"currency":"CNY","moq":1,"category":"burberry-women-bags","status":"active","alibaba_url":null,"images":["https://xcimg.szwego.com/20201213/a1607869262703_4467.jpg","https://xcimg.szwego.com/20201213/a1607869263344_1411.jpg","https://xcimg.szwego.com/20201213/a1607869263718_1786.jpg","https://xcimg.szwego.com/20201213/a1607869264097_4212.jpg","https://xcimg.szwego.com/20201213/a1607869264425_5087.jpg","https://xcimg.szwego.com/20201213/a1607869264816_5050.jpg","https://xcimg.szwego.com/20201213/a1607869265435_5470.jpg","https://xcimg.szwego.com/20201213/a1607869265933_8587.jpg","https://xcimg.szwego.com/20201213/a1607869266560_2813.jpg"],"created_at":"2025-02-08T12:43:27.856Z"},{"id":"item-eaa82433a45f","sku":"_dqSqSGRCim7Uum3srWUuMvjn3qCFmjSKkWhfWVw","name_en":"『Burberry 巴宝莉』","name_cn":"『Burberry 巴宝莉』\n\n🔥🔥B家精巧的斜背包,选用粒纹皮革与 Vintage 复古格纹打造,设有徽标镌刻按扣。搭配可拆式背带,点缀提花精纺的品牌徽标。随心变换为肩背包或手拿包造型。25 x 8.5 x 18cm、1208","specs":{"source":"wsxcme","sourceId":"_dqSqSGRCim7Uum3srWUuMvjn3qCFmjSKkWhfWVw","sourceTagId":80411239,"sourceTagName":"巴宝莉/女包","rawTitle":"『Burberry 巴宝莉』\n\n🔥🔥B家精巧的斜背包,选用粒纹皮革与 Vintage 复古格纹打造,设有徽标镌刻按扣。搭配可拆式背带,点缀提花精纺的品牌徽标。随心变换为肩背包或手拿包造型。25 x 8.5 x 18cm、1208"},"price":null,"currency":"CNY","moq":1,"category":"burberry-women-bags","status":"active","alibaba_url":null,"images":["https://xcimg.szwego.com/20201213/a1607869187121_6728.jpg","https://xcimg.szwego.com/20201213/a1607869187664_8388.jpg","https://xcimg.szwego.com/20201213/a1607869188045_4082.jpg","https://xcimg.szwego.com/20201213/a1607869188502_8320.jpg","https://xcimg.szwego.com/20201213/a1607869188839_8311.jpg","https://xcimg.szwego.com/20201213/a1607869189289_8508.jpg","https://xcimg.szwego.com/20201213/a1607869189964_8013.jpg","https://xcimg.szwego.com/20201213/a1607869190373_2577.jpg","https://xcimg.szwego.com/20201213/a1607869190740_7446.jpg"],"created_at":"2025-02-08T12:43:27.855Z"},{"id":"item-a98c968ea5d8","sku":"_dhthtQnVreYB4NDVim59Jg0-MVBQVTrTkd4j0-Q","name_en":"『Burberry 巴宝莉』","name_cn":"『Burberry 巴宝莉』\n\n🔥🔥B家精巧的斜背包,选用粒纹皮革与 Vintage 复古格纹打造,设有徽标镌刻按扣。搭配可拆式背带,点缀提花精纺的品牌徽标。随心变换为肩背包或手拿包造型。25 x 8.5 x 18cm、1208","specs":{"source":"wsxcme","sourceId":"_dhthtQnVreYB4NDVim59Jg0-MVBQVTrTkd4j0-Q","sourceTagId":80411239,"sourceTagName":"巴宝莉/女包","rawTitle":"『Burberry 巴宝莉』\n\n🔥🔥B家精巧的斜背包,选用粒纹皮革与 Vintage 复古格纹打造,设有徽标镌刻按扣。搭配可拆式背带,点缀提花精纺的品牌徽标。随心变换为肩背包或手拿包造型。25 x 8.5 x 18cm、1208"},"price":null,"currency":"CNY","moq":1,"category":"burberry-women-bags","status":"active","alibaba_url":null,"images":["https://xcimg.szwego.com/20201213/a1607868996794_4055.jpg","https://xcimg.szwego.com/20201213/a1607868997228_3441.jpg","https://xcimg.szwego.com/20201213/a1607868997556_4736.jpg","https://xcimg.szwego.com/20201213/a1607868997842_0331.jpg","https://xcimg.szwego.com/20201213/a1607868998247_0500.jpg","https://xcimg.szwego.com/20201213/a1607868998606_7332.jpg","https://xcimg.szwego.com/20201213/a1607868998976_7847.jpg","https://xcimg.szwego.com/20201213/a1607868999310_7288.jpg","https://xcimg.szwego.com/20201213/a1607868999740_6177.jpg"],"created_at":"2025-02-08T12:43:27.854Z"},{"id":"item-2e7c8e280d6d","sku":"_dNTNTjt85YX5UD6QeRj_frwd6joeL9sRj70vHnw","name_en":"『Burbreey 巴宝莉』","name_cn":"『Burbreey 巴宝莉』 \n\nB家新款时装秀款保龄球包焕新打造为精巧的斜背包。精选光滑的意大利鞣制皮革拼接典藏 Vintage 复古格纹,装饰品牌徽标压花,同时搭配皮革裹覆的挂锁与钥匙保证出街安全,小体积大容量,放4个手机都没问题,款号 8358 尺寸18 x 8 x 11cm。","specs":{"source":"wsxcme","sourceId":"_dNTNTjt85YX5UD6QeRj_frwd6joeL9sRj70vHnw","sourceTagId":80411239,"sourceTagName":"巴宝莉/女包","modelNumber":"8358 尺寸18 x 8 x 11cm","dimensions":{"lengthCm":18,"heightCm":8,"widthCm":11},"rawTitle":"『Burbreey 巴宝莉』 \n\nB家新款时装秀款保龄球包焕新打造为精巧的斜背包。精选光滑的意大利鞣制皮革拼接典藏 Vintage 复古格纹,装饰品牌徽标压花,同时搭配皮革裹覆的挂锁与钥匙保证出街安全,小体积大容量,放4个手机都没问题,款号 8358 尺寸18 x 8 x 11cm。"},"price":null,"currency":"CNY","moq":1,"category":"burberry-women-bags","status":"active","alibaba_url":null,"images":["https://xcimg.szwego.com/20210630/i1624983834_2354_0.jpg","https://xcimg.szwego.com/20210630/i1624983834_4582_1.jpg","https://xcimg.szwego.com/20210630/i1624983834_8287_2.jpg","https://xcimg.szwego.com/20210630/i1624983834_6721_3.jpg","https://xcimg.szwego.com/20210630/i1624983834_9736_4.jpg","https://xcimg.szwego.com/20210630/i1624983834_9861_5.jpg","https://xcimg.szwego.com/20210630/i1624983834_9209_6.jpg","https://xcimg.szwego.com/20210630/i1624983834_3428_7.jpg","https://xcimg.szwego.com/20210630/i1624983834_8533_8.jpg"],"created_at":"2025-02-08T12:43:27.853Z"},{"id":"item-1f09bf5ccbaf","sku":"_d_7_79Iw3AK3Hf5v33Engvd2kUGc1v6OsqwEiNw","name_en":"『Burbreey 巴宝莉』","name_cn":"『Burbreey 巴宝莉』\n\n✨B家爆款🔥,👉8024581💗「The Buckle 搭扣包」,呈现迷你版型设计;臻选金属感皮革与 House 格纹棉质裁片💫,搭配精湛的手工完成缉明线设计,本款单品为小号款式,可以存放零钱、卡片、手机和美妆用品🎀,适合日常使用。随附可拆卸式背带,可用作肩背包或手拿包。双肩带!W19.5x5x12cm.","specs":{"source":"wsxcme","sourceId":"_d_7_79Iw3AK3Hf5v33Engvd2kUGc1v6OsqwEiNw","sourceTagId":80411239,"sourceTagName":"巴宝莉/女包","rawTitle":"『Burbreey 巴宝莉』\n\n✨B家爆款🔥,👉8024581💗「The Buckle 搭扣包」,呈现迷你版型设计;臻选金属感皮革与 House 格纹棉质裁片💫,搭配精湛的手工完成缉明线设计,本款单品为小号款式,可以存放零钱、卡片、手机和美妆用品🎀,适合日常使用。随附可拆卸式背带,可用作肩背包或手拿包。双肩带!W19.5x5x12cm."},"price":null,"currency":"CNY","moq":1,"category":"burberry-women-bags","status":"active","alibaba_url":null,"images":["https://xcimg.szwego.com/20190831/i1567230577_2472_0.jpg","https://xcimg.szwego.com/20190831/i1567230577_6286_1.jpg","https://xcimg.szwego.com/20190831/i1567230577_2817_2.jpg","https://xcimg.szwego.com/20190831/i1567230577_4278_3.jpg","https://xcimg.szwego.com/20190831/i1567230577_7566_4.jpg","https://xcimg.szwego.com/20190831/i1567230577_2611_5.jpg","https://xcimg.szwego.com/20190831/i1567230577_2116_6.jpg","https://xcimg.szwego.com/20190831/i1567230577_2630_7.jpg","https://xcimg.szwego.com/20190831/i1567230577_3830_8.jpg"],"created_at":"2025-02-08T12:43:27.852Z"},{"id":"item-eab2fe71dc30","sku":"_dcBcB9JUTLPjj86oaaqBtR55E31433R3gNqBDXA","name_en":"『Burbreey 巴宝莉』","name_cn":"『Burbreey 巴宝莉』\n\n✨B家爆款🔥,👉8024581💗「The Buckle 搭扣包」,呈现迷你版型设计;臻选金属感皮革与 House 格纹棉质裁片💫,搭配精湛的手工完成缉明线设计,本款单品为小号款式,可以存放零钱、卡片、手机和美妆用品🎀,适合日常使用。随附可拆卸式背带,可用作肩背包或手拿包。双肩带!W19.5x5x12cm.","specs":{"source":"wsxcme","sourceId":"_dcBcB9JUTLPjj86oaaqBtR55E31433R3gNqBDXA","sourceTagId":80411239,"sourceTagName":"巴宝莉/女包","rawTitle":"『Burbreey 巴宝莉』\n\n✨B家爆款🔥,👉8024581💗「The Buckle 搭扣包」,呈现迷你版型设计;臻选金属感皮革与 House 格纹棉质裁片💫,搭配精湛的手工完成缉明线设计,本款单品为小号款式,可以存放零钱、卡片、手机和美妆用品🎀,适合日常使用。随附可拆卸式背带,可用作肩背包或手拿包。双肩带!W19.5x5x12cm."},"price":null,"currency":"CNY","moq":1,"category":"burberry-women-bags","status":"active","alibaba_url":null,"images":["https://xcimg.szwego.com/20190831/i1567230418_7930_0.jpg","https://xcimg.szwego.com/20190831/i1567230418_7096_1.jpg","https://xcimg.szwego.com/20190831/i1567230418_2385_2.jpg","https://xcimg.szwego.com/20190831/i1567230418_4424_3.jpg","https://xcimg.szwego.com/20190831/i1567230418_9179_4.jpg","https://xcimg.szwego.com/20190831/i1567230418_7158_5.jpg","https://xcimg.szwego.com/20190831/i1567230418_2104_6.jpg","https://xcimg.szwego.com/20190831/i1567230418_7640_7.jpg","https://xcimg.szwego.com/20190831/i1567230418_4752_8.jpg"],"created_at":"2025-02-08T12:43:27.851Z"},{"id":"item-f75f41c86b2a","sku":"_dqlqlUtpLETN02_gsBO96QKpOmtQl7ceMd0RCGg","name_en":"『Burbreey 巴宝莉』","name_cn":"『Burbreey 巴宝莉』\n\n✨B家爆款🔥,👉8024581💗「The Buckle 搭扣包」,呈现迷你版型设计;臻选金属感皮革与 House 格纹棉质裁片💫,搭配精湛的手工完成缉明线设计,本款单品为小号款式,可以存放零钱、卡片、手机和美妆用品🎀,适合日常使用。随附可拆卸式背带,可用作肩背包或手拿包。双肩带!W19.5x5x12cm.","specs":{"source":"wsxcme","sourceId":"_dqlqlUtpLETN02_gsBO96QKpOmtQl7ceMd0RCGg","sourceTagId":80411239,"sourceTagName":"巴宝莉/女包","rawTitle":"『Burbreey 巴宝莉』\n\n✨B家爆款🔥,👉8024581💗「The Buckle 搭扣包」,呈现迷你版型设计;臻选金属感皮革与 House 格纹棉质裁片💫,搭配精湛的手工完成缉明线设计,本款单品为小号款式,可以存放零钱、卡片、手机和美妆用品🎀,适合日常使用。随附可拆卸式背带,可用作肩背包或手拿包。双肩带!W19.5x5x12cm."},"price":null,"currency":"CNY","moq":1,"category":"burberry-women-bags","status":"active","alibaba_url":null,"images":["https://xcimg.szwego.com/20190921/i1569006959_1261_0.jpg","https://xcimg.szwego.com/20190921/i1569006959_833_1.jpg","https://xcimg.szwego.com/20190921/i1569006959_6639_2.jpg","https://xcimg.szwego.com/20190921/i1569006959_6195_3.jpg","https://xcimg.szwego.com/20190921/i1569006959_5674_4.jpg","https://xcimg.szwego.com/20190921/i1569006959_5937_5.jpg","https://xcimg.szwego.com/20190921/i1569006959_189_6.jpg","https://xcimg.szwego.com/20190921/i1569006959_5140_7.jpg","https://xcimg.szwego.com/20190921/i1569006959_8445_8.jpg"],"created_at":"2025-02-08T12:43:27.850Z"},{"id":"item-35bb597acf7d","sku":"_dmtmtCVsFca3oIfJR8A5uEjexTf818erCnfkRtA","name_en":"巴宝莉TB小号专属标识皮革锁扣包,版型立挺的皮革单肩包,质地平滑,锁扣装饰 Thomas 灵感专属标识。随心变换为斜背包或手拿包造型。 尺寸:W21 x H16 x D6cm 可拆可调式皮革斜背带 1个外插袋;1个拉链内袋 2个内侧隔层 顶部翻盖搭配锁扣设计 手绘涂漆边缘 亮泽金属配件 意大利制","name_cn":"巴宝莉TB小号专属标识皮革锁扣包,版型立挺的皮革单肩包,质地平滑,锁扣装饰 Thomas 灵感专属标识。随心变换为斜背包或手拿包造型。 尺寸:W21 x H16 x D6cm 可拆可调式皮革斜背带 1个外插袋;1个拉链内袋 2个内侧隔层 顶部翻盖搭配锁扣设计 手绘涂漆边缘 亮泽金属配件 意大利制","specs":{"source":"wsxcme","sourceId":"_dmtmtCVsFca3oIfJR8A5uEjexTf818erCnfkRtA","sourceTagId":80411239,"sourceTagName":"巴宝莉/女包","rawTitle":"巴宝莉TB小号专属标识皮革锁扣包,版型立挺的皮革单肩包,质地平滑,锁扣装饰 Thomas 灵感专属标识。随心变换为斜背包或手拿包造型。 尺寸:W21 x H16 x D6cm 可拆可调式皮革斜背带 1个外插袋;1个拉链内袋 2个内侧隔层 顶部翻盖搭配锁扣设计 手绘涂漆边缘 亮泽金属配件 意大利制"},"price":null,"currency":"CNY","moq":1,"category":"burberry-women-bags","status":"active","alibaba_url":null,"images":["https://xcimg.szwego.com/20220530/a1653840254121_2443.jpg","https://xcimg.szwego.com/20220530/a1653840254213_3878.jpg","https://xcimg.szwego.com/20220530/a1653840254358_2188.jpg","https://xcimg.szwego.com/20220530/a1653840254365_8358.jpg","https://xcimg.szwego.com/20220530/a1653840254483_6116.jpg","https://xcimg.szwego.com/20220530/a1653840254615_7048.jpg","https://xcimg.szwego.com/20220530/a1653840254720_5866.jpg","https://xcimg.szwego.com/20220530/a1653840254798_0886.jpg","https://xcimg.szwego.com/20220530/a1653840254861_8530.jpg"],"created_at":"2025-02-08T12:43:27.849Z"},{"id":"item-ca9c85a35e46","sku":"_dkfkfKs5Z4o57ioGf61bbmMEpYejW4al0Ptr4Mw","name_en":"【巴宝莉】版型立挺的托特包,采用意大利鞣制粒纹皮革材质制成,抢眼装饰光泽的 Thomas Burberry 专属标识。设计精巧,设有多个口袋,随附由皮革包裹的镜子吊饰。可手提,或使用可拆式肩背带携带。 尺寸:27 x 11 x 20 cm 款号:8050","name_cn":"【巴宝莉】版型立挺的托特包,采用意大利鞣制粒纹皮革材质制成,抢眼装饰光泽的 Thomas Burberry 专属标识。设计精巧,设有多个口袋,随附由皮革包裹的镜子吊饰。可手提,或使用可拆式肩背带携带。 尺寸:27 x 11 x 20 cm 款号:8050","specs":{"source":"wsxcme","sourceId":"_dkfkfKs5Z4o57ioGf61bbmMEpYejW4al0Ptr4Mw","sourceTagId":80411239,"sourceTagName":"巴宝莉/女包","modelNumber":"8050","dimensions":{"lengthCm":27,"heightCm":11,"widthCm":20},"rawTitle":"【巴宝莉】版型立挺的托特包,采用意大利鞣制粒纹皮革材质制成,抢眼装饰光泽的 Thomas Burberry 专属标识。设计精巧,设有多个口袋,随附由皮革包裹的镜子吊饰。可手提,或使用可拆式肩背带携带。 尺寸:27 x 11 x 20 cm 款号:8050"},"price":null,"currency":"CNY","moq":1,"category":"burberry-women-bags","status":"active","alibaba_url":null,"images":["https://xcimg.szwego.com/img/9e5daee3/20240303/i1709406265_641_0.jpg","https://xcimg.szwego.com/img/9e5daee3/20240303/i1709406265_6795_2.jpg","https://xcimg.szwego.com/img/9e5daee3/20240303/i1709406265_757_4.jpg","https://xcimg.szwego.com/img/9e5daee3/20240303/i1709406266_3719_6.jpg","https://xcimg.szwego.com/img/9e5daee3/20240303/i1709406266_1132_7.jpg","https://xcimg.szwego.com/img/9e5daee3/20240303/i1709406265_9186_1.jpg","https://xcimg.szwego.com/img/9e5daee3/20240303/i1709406265_1390_3.jpg","https://xcimg.szwego.com/img/9e5daee3/20240303/i1709406265_1322_5.jpg"],"created_at":"2025-02-08T12:43:27.848Z"},{"id":"item-e5e0a2a48358","sku":"_d_X_XWxQ3kpBeX9QGIunZtbODW5TWTiCZEnuaFQ","name_en":"【巴宝莉】版型立挺的托特包,采用意大利鞣制粒纹皮革材质制成,抢眼装饰光泽的 Thomas Burberry 专属标识。设计精巧,设有多个口袋,随附由皮革包裹的镜子吊饰。可手提,或使用可拆式肩背带携带。 尺寸:27 x 11 x 20 cm 款号:8050","name_cn":"【巴宝莉】版型立挺的托特包,采用意大利鞣制粒纹皮革材质制成,抢眼装饰光泽的 Thomas Burberry 专属标识。设计精巧,设有多个口袋,随附由皮革包裹的镜子吊饰。可手提,或使用可拆式肩背带携带。 尺寸:27 x 11 x 20 cm 款号:8050","specs":{"source":"wsxcme","sourceId":"_d_X_XWxQ3kpBeX9QGIunZtbODW5TWTiCZEnuaFQ","sourceTagId":80411239,"sourceTagName":"巴宝莉/女包","modelNumber":"8050","dimensions":{"lengthCm":27,"heightCm":11,"widthCm":20},"rawTitle":"【巴宝莉】版型立挺的托特包,采用意大利鞣制粒纹皮革材质制成,抢眼装饰光泽的 Thomas Burberry 专属标识。设计精巧,设有多个口袋,随附由皮革包裹的镜子吊饰。可手提,或使用可拆式肩背带携带。 尺寸:27 x 11 x 20 cm 款号:8050"},"price":null,"currency":"CNY","moq":1,"category":"burberry-women-bags","status":"active","alibaba_url":null,"images":["https://xcimg.szwego.com/img/9e5daee3/20240303/i1709406248_9722_2.jpg","https://xcimg.szwego.com/img/9e5daee3/20240303/i1709406248_503_5.jpg","https://xcimg.szwego.com/img/9e5daee3/20240303/i1709406248_5774_4.jpg","https://xcimg.szwego.com/img/9e5daee3/20240303/i1709406248_8159_0.jpg","https://xcimg.szwego.com/img/9e5daee3/20240303/i1709406248_2381_1.jpg","https://xcimg.szwego.com/img/9e5daee3/20240303/i1709406248_9621_6.jpg","https://xcimg.szwego.com/img/9e5daee3/20240303/i1709406248_1998_3.jpg","https://xcimg.szwego.com/img/9e5daee3/20240303/i1709406248_7634_7.jpg"],"created_at":"2025-02-08T12:43:27.847Z"},{"id":"item-a8837490d79c","sku":"_dv0v0pPFl6FJ8ie6Ky5YiKknBWU62bcMV_guP6Q","name_en":"【巴宝莉】版型立挺的托特包,采用意大利鞣制粒纹皮革材质制成,抢眼装饰光泽的 Thomas Burberry 专属标识。设计精巧,设有多个口袋,随附由皮革包裹的镜子吊饰。可手提,或使用可拆式肩背带携带。 尺寸:27 x 11 x 20 cm 款号:8050","name_cn":"【巴宝莉】版型立挺的托特包,采用意大利鞣制粒纹皮革材质制成,抢眼装饰光泽的 Thomas Burberry 专属标识。设计精巧,设有多个口袋,随附由皮革包裹的镜子吊饰。可手提,或使用可拆式肩背带携带。 尺寸:27 x 11 x 20 cm 款号:8050","specs":{"source":"wsxcme","sourceId":"_dv0v0pPFl6FJ8ie6Ky5YiKknBWU62bcMV_guP6Q","sourceTagId":80411239,"sourceTagName":"巴宝莉/女包","modelNumber":"8050","dimensions":{"lengthCm":27,"heightCm":11,"widthCm":20},"rawTitle":"【巴宝莉】版型立挺的托特包,采用意大利鞣制粒纹皮革材质制成,抢眼装饰光泽的 Thomas Burberry 专属标识。设计精巧,设有多个口袋,随附由皮革包裹的镜子吊饰。可手提,或使用可拆式肩背带携带。 尺寸:27 x 11 x 20 cm 款号:8050"},"price":null,"currency":"CNY","moq":1,"category":"burberry-women-bags","status":"active","alibaba_url":null,"images":["https://xcimg.szwego.com/img/9e5daee3/20240303/i1709406235_9469_4.jpg","https://xcimg.szwego.com/img/9e5daee3/20240303/i1709406235_3839_2.jpg","https://xcimg.szwego.com/img/9e5daee3/20240303/i1709406235_4412_5.jpg","https://xcimg.szwego.com/img/9e5daee3/20240303/i1709406235_8937_0.jpg","https://xcimg.szwego.com/img/9e5daee3/20240303/i1709406235_9968_3.jpg","https://xcimg.szwego.com/img/9e5daee3/20240303/i1709406235_9912_7.jpg","https://xcimg.szwego.com/img/9e5daee3/20240303/i1709406235_6511_6.jpg","https://xcimg.szwego.com/img/9e5daee3/20240303/i1709406235_2449_1.jpg"],"created_at":"2025-02-08T12:43:27.846Z"},{"id":"item-8bbe44307092","sku":"_dkYkYdOdsS-E2P6ZNfDMruR-vVU1uYWG1_3dEaw","name_en":"巴宝莉新款 典藏灵感的拉链托特包,精选帆布拼缉明线皮革制成,正面口袋装饰品牌 Horseferry 印花。可使用加固式顶部提柄手拎,或使用可拆式肩背带携带 小号:29.5 x12 x31cm、2738","name_cn":"巴宝莉新款 典藏灵感的拉链托特包,精选帆布拼缉明线皮革制成,正面口袋装饰品牌 Horseferry 印花。可使用加固式顶部提柄手拎,或使用可拆式肩背带携带 小号:29.5 x12 x31cm、2738","specs":{"source":"wsxcme","sourceId":"_dkYkYdOdsS-E2P6ZNfDMruR-vVU1uYWG1_3dEaw","sourceTagId":80411239,"sourceTagName":"巴宝莉/女包","rawTitle":"巴宝莉新款 典藏灵感的拉链托特包,精选帆布拼缉明线皮革制成,正面口袋装饰品牌 Horseferry 印花。可使用加固式顶部提柄手拎,或使用可拆式肩背带携带 小号:29.5 x12 x31cm、2738"},"price":null,"currency":"CNY","moq":1,"category":"burberry-women-bags","status":"active","alibaba_url":null,"images":["https://xcimg.szwego.com/20220608/a1654696196797_1523.jpg","https://xcimg.szwego.com/20220608/a1654696196896_6405.jpg","https://xcimg.szwego.com/20220608/a1654696196996_3285.jpg","https://xcimg.szwego.com/20220608/a1654696197079_5163.jpg","https://xcimg.szwego.com/20220608/a1654696197163_3467.jpg","https://xcimg.szwego.com/20220608/a1654696197248_7128.jpg","https://xcimg.szwego.com/20220608/a1654696197314_6536.jpg","https://xcimg.szwego.com/20220608/a1654696197397_5273.jpg","https://xcimg.szwego.com/20220608/a1654696197515_4710.jpg"],"created_at":"2025-02-08T12:43:27.845Z"},{"id":"item-d5f92452f66a","sku":"_deVeV1xJTDs7aZw8bWfmKp8OlORW0ey2GlVXDtA","name_en":"Burberry Women Bags","name_cn":"新品\n【配盒】巴宝莉TB bag,TB专属标识锁扣设计包包,没有过于繁复的设计,简单又经典,恰到好处的容纳度,诠释摩登与传统的优雅交融,契合日常生活中各式各样的穿搭,收获了大批明星时尚icon的喜爱!!\n尺寸21-7-14CM","specs":{"source":"wsxcme","sourceId":"_deVeV1xJTDs7aZw8bWfmKp8OlORW0ey2GlVXDtA","sourceTagId":80411239,"sourceTagName":"巴宝莉/女包","rawTitle":"新品\n【配盒】巴宝莉TB bag,TB专属标识锁扣设计包包,没有过于繁复的设计,简单又经典,恰到好处的容纳度,诠释摩登与传统的优雅交融,契合日常生活中各式各样的穿搭,收获了大批明星时尚icon的喜爱!!\n尺寸21-7-14CM"},"price":null,"currency":"CNY","moq":1,"category":"burberry-women-bags","status":"active","alibaba_url":null,"images":["https://xcimg.szwego.com/20230320/i1679251539_4927_0.jpg","https://xcimg.szwego.com/20230320/i1679251539_2015_1.jpg","https://xcimg.szwego.com/20230320/i1679251539_6120_2.jpg","https://xcimg.szwego.com/20230320/i1679251539_9671_3.jpg","https://xcimg.szwego.com/20230320/i1679251539_7049_4.jpg","https://xcimg.szwego.com/20230320/i1679251539_6755_5.jpg","https://xcimg.szwego.com/20230320/i1679251539_5382_6.jpg","https://xcimg.szwego.com/20230320/i1679251539_4007_7.jpg","https://xcimg.szwego.com/20230320/i1679251539_999_8.jpg"],"created_at":"2025-02-08T12:43:27.844Z"},{"id":"item-a62df8c2777c","sku":"_d_1_1neB5DEfeli19YTc918HKe46bwGJDuvA8nQ","name_en":"Burberry Women Bags","name_cn":"新品\n【配盒】巴宝莉TB bag,TB专属标识锁扣设计包包,没有过于繁复的设计,简单又经典,恰到好处的容纳度,诠释摩登与传统的优雅交融,契合日常生活中各式各样的穿搭,收获了大批明星时尚icon的喜爱!!\n尺寸21-7-14CM","specs":{"source":"wsxcme","sourceId":"_d_1_1neB5DEfeli19YTc918HKe46bwGJDuvA8nQ","sourceTagId":80411239,"sourceTagName":"巴宝莉/女包","rawTitle":"新品\n【配盒】巴宝莉TB bag,TB专属标识锁扣设计包包,没有过于繁复的设计,简单又经典,恰到好处的容纳度,诠释摩登与传统的优雅交融,契合日常生活中各式各样的穿搭,收获了大批明星时尚icon的喜爱!!\n尺寸21-7-14CM"},"price":null,"currency":"CNY","moq":1,"category":"burberry-women-bags","status":"active","alibaba_url":null,"images":["https://xcimg.szwego.com/20230320/i1679251593_3886_0.jpg","https://xcimg.szwego.com/20230320/i1679251593_823_1.jpg","https://xcimg.szwego.com/20230320/i1679251593_2327_2.jpg","https://xcimg.szwego.com/20230320/i1679251593_8732_3.jpg","https://xcimg.szwego.com/20230320/i1679251593_2907_4.jpg","https://xcimg.szwego.com/20230320/i1679251593_4603_5.jpg","https://xcimg.szwego.com/20230320/i1679251593_2134_6.jpg","https://xcimg.szwego.com/20230320/i1679251593_6609_7.jpg","https://xcimg.szwego.com/20230320/i1679251593_2167_8.jpg"],"created_at":"2025-02-08T12:43:27.843Z"},{"id":"item-e169a1c14e52","sku":"_doNoNz9bSZ7m-A5bd3CeXSncPB0IyeF7hjzDVUQ","name_en":"Burberry Women Bags","name_cn":"新品\n【配盒】巴宝莉TB bag,TB专属标识锁扣设计包包,没有过于繁复的设计,简单又经典,恰到好处的容纳度,诠释摩登与传统的优雅交融,契合日常生活中各式各样的穿搭,收获了大批明星时尚icon的喜爱!!\n尺寸21-7-14CM","specs":{"source":"wsxcme","sourceId":"_doNoNz9bSZ7m-A5bd3CeXSncPB0IyeF7hjzDVUQ","sourceTagId":80411239,"sourceTagName":"巴宝莉/女包","rawTitle":"新品\n【配盒】巴宝莉TB bag,TB专属标识锁扣设计包包,没有过于繁复的设计,简单又经典,恰到好处的容纳度,诠释摩登与传统的优雅交融,契合日常生活中各式各样的穿搭,收获了大批明星时尚icon的喜爱!!\n尺寸21-7-14CM"},"price":null,"currency":"CNY","moq":1,"category":"burberry-women-bags","status":"active","alibaba_url":null,"images":["https://xcimg.szwego.com/20230320/i1679252474_5121_0.jpg","https://xcimg.szwego.com/20230320/i1679252474_2007_1.jpg","https://xcimg.szwego.com/20230320/i1679252474_9542_2.jpg","https://xcimg.szwego.com/20230320/i1679252474_5919_3.jpg","https://xcimg.szwego.com/20230320/i1679252474_3759_4.jpg","https://xcimg.szwego.com/20230320/i1679252474_8049_5.jpg","https://xcimg.szwego.com/20230320/i1679252474_4400_6.jpg","https://xcimg.szwego.com/20230320/i1679252474_3827_7.jpg","https://xcimg.szwego.com/20230320/i1679252474_587_8.jpg"],"created_at":"2025-02-08T12:43:27.842Z"},{"id":"item-ac7985c7c3d0","sku":"_d8t8t3KqT1BF0-StdDOF3jvEWaENJZdtU7Af6wg","name_en":"Burberry Women Bags","name_cn":"新品\n【配盒】巴宝莉TB bag,TB专属标识锁扣设计包包,没有过于繁复的设计,简单又经典,恰到好处的容纳度,诠释摩登与传统的优雅交融,契合日常生活中各式各样的穿搭,收获了大批明星时尚icon的喜爱!!\n尺寸21-7-14CM","specs":{"source":"wsxcme","sourceId":"_d8t8t3KqT1BF0-StdDOF3jvEWaENJZdtU7Af6wg","sourceTagId":80411239,"sourceTagName":"巴宝莉/女包","rawTitle":"新品\n【配盒】巴宝莉TB bag,TB专属标识锁扣设计包包,没有过于繁复的设计,简单又经典,恰到好处的容纳度,诠释摩登与传统的优雅交融,契合日常生活中各式各样的穿搭,收获了大批明星时尚icon的喜爱!!\n尺寸21-7-14CM"},"price":null,"currency":"CNY","moq":1,"category":"burberry-women-bags","status":"active","alibaba_url":null,"images":["https://xcimg.szwego.com/20230320/i1679252489_600_0.jpg","https://xcimg.szwego.com/20230320/i1679252489_3691_1.jpg","https://xcimg.szwego.com/20230320/i1679252489_975_2.jpg","https://xcimg.szwego.com/20230320/i1679252489_4956_3.jpg","https://xcimg.szwego.com/20230320/i1679252489_5771_4.jpg","https://xcimg.szwego.com/20230320/i1679252489_7833_5.jpg","https://xcimg.szwego.com/20230320/i1679252489_6485_6.jpg","https://xcimg.szwego.com/20230320/i1679252489_2045_7.jpg","https://xcimg.szwego.com/20230320/i1679252489_8468_8.jpg"],"created_at":"2025-02-08T12:43:27.841Z"}],"page":11,"pageSize":24,"total":493,"totalPages":21}
