{"items":[{"id":"item-0e9ed5b6b97f","sku":"_dPqPqL7_MsbWvaWnvJEsWp31_cGWyBpXu5sT18A","name_en":"WALLET ON CHAIN LILY Series M82509 Uninspected Version#","name_cn":"WALLET ON CHAIN LILY Series M82509 Uninspected Version#\n❒ Size: 20.7*10.2*3.5cm ❒\nI'm absolutely in love with the lily woc series!\nIn terms of looks, the design is stunning!\nI have to say, the designer really understands what girls want. The simple body paired with unique and exquisite chains gives the bag a unique vibe!\nIt looks exquisite but has a very high capacity.\nSuitable for all seasons, it can be used as a clutch, crossbody, shoulder bag, or underarm bag. Multiple carrying styles!\nFull of atmosphere, a must-have!","specs":{"source":"wsxcme","sourceId":"_dPqPqL7_MsbWvaWnvJEsWp31_cGWyBpXu5sT18A","sourceTagId":47002622,"sourceTagName":"LV/women's bag","dimensions":{"lengthCm":20.7,"heightCm":10.2,"widthCm":3.5},"rawTitle":"WALLET ON CHAIN LILY Series M82509 Uninspected Version#\n❒ Size: 20.7*10.2*3.5cm ❒\nI'm absolutely in love with the lily woc series!\nIn terms of looks, the design is stunning!\nI have to say, the designer really understands what girls want. The simple body paired with unique and exquisite chains gives the bag a unique vibe!\nIt looks exquisite but has a very high capacity.\nSuitable for all seasons, it can be used as a clutch, crossbody, shoulder bag, or underarm bag. Multiple carrying styles!\nFull of atmosphere, a must-have!"},"price":null,"currency":"CNY","moq":1,"category":"lv-women-bags","status":"active","alibaba_url":null,"images":["https://xcimg.szwego.com/img/38e5dbc1/20231011/i1697013268_9807_8.jpg","https://xcimg.szwego.com/img/38e5dbc1/20231011/i1697013268_2545_0.jpg","https://xcimg.szwego.com/img/38e5dbc1/20231011/i1697013268_1498_4.jpg","https://xcimg.szwego.com/img/38e5dbc1/20231011/i1697013268_7033_6.jpg","https://xcimg.szwego.com/img/38e5dbc1/20231011/i1697013268_1227_3.jpg","https://xcimg.szwego.com/img/38e5dbc1/20231011/i1697013268_4672_1.jpg","https://xcimg.szwego.com/img/38e5dbc1/20231011/i1697013268_7671_2.jpg","https://xcimg.szwego.com/img/38e5dbc1/20231011/i1697013268_8637_5.jpg","https://xcimg.szwego.com/img/38e5dbc1/20231011/i1697013268_5361_7.jpg"],"created_at":"2024-11-11T10:39:49.099Z"}],"page":50,"pageSize":24,"total":1177,"totalPages":50}
