{"items":[{"id":"item-55985e8dfe3b","sku":"_dpzpzDO5JeJq0puCnBhwHAIQPQLmP4Ljq6eI-kg","name_en":"M25445天空蓝鸵鸟纹 本款 Slim Trunk 手袋向路易威登传统硬箱汲取灵感,为鸵鸟纹皮革融入铆钉边框和金属 S-lock 锁扣,彰显前卫摇滚风范。莹亮链条和可调节皮革肩带均可拆卸,提供多种背携选择。23 x 12 x 4厘米(长度 x 高 x 宽)","name_cn":"M25445天空蓝鸵鸟纹 本款 Slim Trunk 手袋向路易威登传统硬箱汲取灵感,为鸵鸟纹皮革融入铆钉边框和金属 S-lock 锁扣,彰显前卫摇滚风范。莹亮链条和可调节皮革肩带均可拆卸,提供多种背携选择。23 x 12 x 4厘米(长度 x 高 x 宽)","specs":{"source":"wsxcme","sourceId":"_dpzpzDO5JeJq0puCnBhwHAIQPQLmP4Ljq6eI-kg","sourceTagId":47002622,"sourceTagName":"LV/女包","rawTitle":"M25445天空蓝鸵鸟纹 本款 Slim Trunk 手袋向路易威登传统硬箱汲取灵感,为鸵鸟纹皮革融入铆钉边框和金属 S-lock 锁扣,彰显前卫摇滚风范。莹亮链条和可调节皮革肩带均可拆卸,提供多种背携选择。23 x 12 x 4厘米(长度 x 高 x 宽)"},"price":null,"currency":"CNY","moq":1,"category":"lv-women-bags","status":"active","alibaba_url":null,"images":["https://xcimg.szwego.com/img/42f08f7f/20240719/i1721363307_9423_2.jpg","https://xcimg.szwego.com/img/42f08f7f/20240719/i1721363307_2243_4.jpg","https://xcimg.szwego.com/img/42f08f7f/20240719/i1721363307_1794_5.jpg","https://xcimg.szwego.com/img/42f08f7f/20240719/i1721363307_2451_0.jpg","https://xcimg.szwego.com/img/42f08f7f/20240719/i1721363307_2602_6.jpg","https://xcimg.szwego.com/img/42f08f7f/20240719/i1721363308_9232_7.jpg","https://xcimg.szwego.com/img/42f08f7f/20240719/i1721363307_71_1.jpg","https://xcimg.szwego.com/img/42f08f7f/20240719/i1721363308_9468_8.jpg","https://xcimg.szwego.com/img/42f08f7f/20240719/i1721363307_692_3.jpg"],"created_at":"2024-08-02T09:08:16.130Z"},{"id":"item-5a38d4d0a3dc","sku":"_dldldgbylPIB0kLGB7jmZ5lSLSvTAjhXFkZ3RVA","name_en":"M25453杏色 M47209黑色","name_cn":"M25453杏色 M47209黑色  \nM46492粉色  M25452白色\n实拍组合图","specs":{"source":"wsxcme","sourceId":"_dldldgbylPIB0kLGB7jmZ5lSLSvTAjhXFkZ3RVA","sourceTagId":47002622,"sourceTagName":"LV/女包","rawTitle":"M25453杏色 M47209黑色  \nM46492粉色  M25452白色\n实拍组合图"},"price":null,"currency":"CNY","moq":1,"category":"lv-women-bags","status":"active","alibaba_url":null,"images":["https://xcimg.szwego.com/img/a3cc9079/20241227/i1735284754_9419_0.jpg"],"created_at":"2025-09-19T03:39:37.479Z"},{"id":"item-a4fa280400ce","sku":"_dEaEaPjDHEHFvt59nKoxgDsOhfJFNQ7reA8xluA","name_en":"M355 顶级原单 本款 Nano Speedy 手袋取材马达加斯加匠人钩编的拉菲草,以可拆卸路易威登皮革贴饰彰显品牌格调,搭配顶部手柄和可拆卸并调节的肩带。","name_cn":"M355 顶级原单 本款 Nano Speedy 手袋取材马达加斯加匠人钩编的拉菲草,以可拆卸路易威登皮革贴饰彰显品牌格调,搭配顶部手柄和可拆卸并调节的肩带。 \n本产品配备的礼盒包装可能视库存情况合理调整,可能与本产品页面展示的包装样式不同,具体请以实际收到的礼盒包装样式为准。. x . x 7.5 厘米 (长 x 高 x 宽)\n\t•\t% 拉菲草\n\t•\t牛皮革饰边\n\t•\t金属件\n\t•\t拉链开合\n\t•\t可拆卸标识贴饰\n\t•\t肩带:可拆卸,可调节\n\t•\t包带半长:45.5 厘米\n\t•\t包带半长可调至:54. 厘米\n\t•\t手柄:双手柄","specs":{"source":"wsxcme","sourceId":"_dEaEaPjDHEHFvt59nKoxgDsOhfJFNQ7reA8xluA","sourceTagId":47002622,"sourceTagName":"LV/女包","rawTitle":"M355 顶级原单 本款 Nano Speedy 手袋取材马达加斯加匠人钩编的拉菲草,以可拆卸路易威登皮革贴饰彰显品牌格调,搭配顶部手柄和可拆卸并调节的肩带。 \n本产品配备的礼盒包装可能视库存情况合理调整,可能与本产品页面展示的包装样式不同,具体请以实际收到的礼盒包装样式为准。. x . x 7.5 厘米 (长 x 高 x 宽)\n\t•\t% 拉菲草\n\t•\t牛皮革饰边\n\t•\t金属件\n\t•\t拉链开合\n\t•\t可拆卸标识贴饰\n\t•\t肩带:可拆卸,可调节\n\t•\t包带半长:45.5 厘米\n\t•\t包带半长可调至:54. 厘米\n\t•\t手柄:双手柄"},"price":null,"currency":"CNY","moq":1,"category":"lv-women-bags","status":"active","alibaba_url":null,"images":["https://xcimg.szwego.com/img/2d10544c/20240801/i1722489657_2670_3.jpg","https://xcimg.szwego.com/img/2d10544c/20240801/i1722489657_7240_2.jpg","https://xcimg.szwego.com/img/2d10544c/20240801/i1722489658_2928_7.jpg","https://xcimg.szwego.com/img/2d10544c/20240801/i1722489657_8168_0.jpg","https://xcimg.szwego.com/img/2d10544c/20240801/i1722489658_8665_8.jpg","https://xcimg.szwego.com/img/2d10544c/20240801/i1722489657_2043_5.jpg","https://xcimg.szwego.com/img/2d10544c/20240801/i1722489657_5616_6.jpg","https://xcimg.szwego.com/img/2d10544c/20240801/i1722489657_9841_1.jpg","https://xcimg.szwego.com/img/2d10544c/20240801/i1722489657_7572_4.jpg"],"created_at":"2025-02-08T12:41:41.921Z"},{"id":"item-0b3c8ca74ac0","sku":"_dwxwxA9qg_l_tuWwOa0THSbJ0nYIRLlGpWphAEA","name_en":"M4 动态变码 芯片 顶级原单 本款 Croissant 中号手袋取材马达加斯加匠人钩编的拉菲草,搭配柔软牛皮革饰边和路易威登巴黎皮革贴饰。可拆卸肩带两侧均可调节,实现斜挎或肩背选择。","name_cn":"M4 动态变码 芯片 顶级原单 本款 Croissant 中号手袋取材马达加斯加匠人钩编的拉菲草,搭配柔软牛皮革饰边和路易威登巴黎皮革贴饰。可拆卸肩带两侧均可调节,实现斜挎或肩背选择。 \n本产品配备的礼盒包装可能视库存情况合理调整,可能与本产品页面展示的包装样式不同,具体请以实际收到的礼盒包装样式为准。5. x 5. x 5. 厘米 (长 x 高 x 宽)\n\t•\t% 拉菲草\n\t•\t牛皮革饰边\n\t•\t无内衬\n\t•\t金属件\n\t•\t拉链开合\n\t•\t贴饰(不可拆卸)\n\t•\t可收纳智能手机、短款钱夹和钥匙\n\t•\t肩带:可拆卸,可调节\n\t•\t包带半长:4. 厘米\n\t•\t包带半长可调至:4. 厘米","specs":{"source":"wsxcme","sourceId":"_dwxwxA9qg_l_tuWwOa0THSbJ0nYIRLlGpWphAEA","sourceTagId":47002622,"sourceTagName":"LV/女包","rawTitle":"M4 动态变码 芯片 顶级原单 本款 Croissant 中号手袋取材马达加斯加匠人钩编的拉菲草,搭配柔软牛皮革饰边和路易威登巴黎皮革贴饰。可拆卸肩带两侧均可调节,实现斜挎或肩背选择。 \n本产品配备的礼盒包装可能视库存情况合理调整,可能与本产品页面展示的包装样式不同,具体请以实际收到的礼盒包装样式为准。5. x 5. x 5. 厘米 (长 x 高 x 宽)\n\t•\t% 拉菲草\n\t•\t牛皮革饰边\n\t•\t无内衬\n\t•\t金属件\n\t•\t拉链开合\n\t•\t贴饰(不可拆卸)\n\t•\t可收纳智能手机、短款钱夹和钥匙\n\t•\t肩带:可拆卸,可调节\n\t•\t包带半长:4. 厘米\n\t•\t包带半长可调至:4. 厘米"},"price":null,"currency":"CNY","moq":1,"category":"lv-women-bags","status":"active","alibaba_url":null,"images":["https://xcimg.szwego.com/img/2d10544c/20240804/i1722752443_8006_5.jpg","https://xcimg.szwego.com/img/2d10544c/20240804/i1722752443_6290_6.jpg","https://xcimg.szwego.com/img/2d10544c/20240804/i1722752442_4431_1.jpg","https://xcimg.szwego.com/img/2d10544c/20240804/i1722752442_8833_3.jpg","https://xcimg.szwego.com/img/2d10544c/20240804/i1722752442_7128_2.jpg","https://xcimg.szwego.com/img/2d10544c/20240804/i1722752443_4363_7.jpg","https://xcimg.szwego.com/img/2d10544c/20240804/i1722752442_1479_0.jpg","https://xcimg.szwego.com/img/2d10544c/20240804/i1722752443_7018_4.jpg","https://xcimg.szwego.com/img/2d10544c/20240804/i1722752443_5818_8.jpg"],"created_at":"2025-02-08T12:41:41.922Z"},{"id":"item-917657b7c003","sku":"_dikikLok06HW5BKMGjITWSiS4UtiW7NinWaT3Jw","name_en":"M40309 小麻将包!MIMIPOCHETTE 百搭小包、这款小提包适用于收纳化妆品或各色随身物件,轻而易举。超级可爱,苹果手机小号不带壳➕口红➕纸巾➕钥匙➕身份证...塞里面完全没问题!尺寸:长16.5×高10×宽3。","name_cn":"M40309 小麻将包!MIMIPOCHETTE 百搭小包、这款小提包适用于收纳化妆品或各色随身物件,轻而易举。超级可爱,苹果手机小号不带壳➕口红➕纸巾➕钥匙➕身份证...塞里面完全没问题!尺寸:长16.5×高10×宽3。","specs":{"source":"wsxcme","sourceId":"_dikikLok06HW5BKMGjITWSiS4UtiW7NinWaT3Jw","sourceTagId":47002622,"sourceTagName":"LV/女包","dimensions":{"lengthCm":16.5,"heightCm":10,"widthCm":3},"rawTitle":"M40309 小麻将包!MIMIPOCHETTE 百搭小包、这款小提包适用于收纳化妆品或各色随身物件,轻而易举。超级可爱,苹果手机小号不带壳➕口红➕纸巾➕钥匙➕身份证...塞里面完全没问题!尺寸:长16.5×高10×宽3。"},"price":null,"currency":"CNY","moq":1,"category":"lv-women-bags","status":"active","alibaba_url":null,"images":["https://xcimg.szwego.com/20231018/i1697566722_7460_0.jpg","https://xcimg.szwego.com/20231018/i1697566722_5897_1.jpg","https://xcimg.szwego.com/20231018/i1697566722_797_2.jpg","https://xcimg.szwego.com/20231018/i1697566722_8380_3.jpg","https://xcimg.szwego.com/20231018/i1697566722_1799_4.jpg","https://xcimg.szwego.com/20231018/i1697566722_1436_5.jpg","https://xcimg.szwego.com/20231018/i1697566722_9322_6.jpg","https://xcimg.szwego.com/20231018/i1697566722_3963_7.jpg","https://xcimg.szwego.com/20231018/i1697566722_2909_8.jpg"],"created_at":"2024-05-01T03:18:16.073Z"},{"id":"item-5de8abed7203","sku":"_ddzdzkR2YTdogysh61Av9VK4_fqIgh6XBk4CdMg","name_en":"M40990 M40599-M41358-M41359","name_cn":"M40990 M40599-M41358-M41359\n实拍组合图","specs":{"source":"wsxcme","sourceId":"_ddzdzkR2YTdogysh61Av9VK4_fqIgh6XBk4CdMg","sourceTagId":47002622,"sourceTagName":"LV/女包","rawTitle":"M40990 M40599-M41358-M41359\n实拍组合图"},"price":null,"currency":"CNY","moq":1,"category":"lv-women-bags","status":"active","alibaba_url":null,"images":["https://xcimg.szwego.com/img/a3cc9079/20241220/i1734672808_3969_0.jpg"],"created_at":"2025-09-19T03:41:59.928Z"},{"id":"item-3179455bbf42","sku":"_diYiYtgzFAqBvKqO2N_y9NUH_cGI9KzQ_c0n-tw","name_en":"M40990 M41177 M41000","name_cn":"M40990 M41177 M41000\n实拍组合图","specs":{"source":"wsxcme","sourceId":"_diYiYtgzFAqBvKqO2N_y9NUH_cGI9KzQ_c0n-tw","sourceTagId":47002622,"sourceTagName":"LV/女包","rawTitle":"M40990 M41177 M41000\n实拍组合图"},"price":null,"currency":"CNY","moq":1,"category":"lv-women-bags","status":"active","alibaba_url":null,"images":["https://xcimg.szwego.com/img/a3cc9079/20241126/i1732600066_7748_0.jpg"],"created_at":"2025-09-19T03:41:27.108Z"},{"id":"item-2ef1411c3292","sku":"_d2G2Gr9YXsMTowkrQfxqM2K8w5sI1XAgjWsiW_Q","name_en":"M41177(特级全钢)专柜同步电子芯片 手机实拍 认准大厂货 统一独家内码跟品质 尺寸31*28*14cm 配视频免税包装一套","name_cn":"M41177(特级全钢)专柜同步电子芯片 手机实拍 认准大厂货 统一独家内码跟品质 尺寸31*28*14cm 配视频免税包装一套","specs":{"source":"wsxcme","sourceId":"_d2G2Gr9YXsMTowkrQfxqM2K8w5sI1XAgjWsiW_Q","sourceTagId":47002622,"sourceTagName":"LV/女包","dimensions":{"lengthCm":31,"heightCm":28,"widthCm":14},"rawTitle":"M41177(特级全钢)专柜同步电子芯片 手机实拍 认准大厂货 统一独家内码跟品质 尺寸31*28*14cm 配视频免税包装一套"},"price":null,"currency":"CNY","moq":1,"category":"lv-women-bags","status":"active","alibaba_url":null,"images":["https://xcimg.szwego.com/img/2038732d/20240427/i1714156939_5312_4.jpg","https://xcimg.szwego.com/img/2038732d/20240427/i1714156939_5307_5.jpg","https://xcimg.szwego.com/img/2038732d/20240427/i1714156939_1782_2.jpg","https://xcimg.szwego.com/img/2038732d/20240427/i1714156939_2819_0.jpg","https://xcimg.szwego.com/img/2038732d/20240427/i1714156939_7633_7.jpg","https://xcimg.szwego.com/img/2038732d/20240427/i1714156939_9065_3.jpg","https://xcimg.szwego.com/img/2038732d/20240427/i1714156939_9328_1.jpg","https://xcimg.szwego.com/img/2038732d/20240427/i1714156939_191_6.jpg"],"created_at":"2024-08-04T12:53:22.727Z"},{"id":"item-a8dcb45cdffa","sku":"_dmFmFhuWZy444DnlZM42NpxmKpMCXhxriAA0AdA","name_en":"M41602-M40598-M41359","name_cn":"M41602-M40598-M41359\nM40990啡格粉\n实拍组合图","specs":{"source":"wsxcme","sourceId":"_dmFmFhuWZy444DnlZM42NpxmKpMCXhxriAA0AdA","sourceTagId":47002622,"sourceTagName":"LV/女包","rawTitle":"M41602-M40598-M41359\nM40990啡格粉\n实拍组合图"},"price":null,"currency":"CNY","moq":1,"category":"lv-women-bags","status":"active","alibaba_url":null,"images":["https://xcimg.szwego.com/img/a3cc9079/20250102/i1735793483_1137_0.jpg"],"created_at":"2025-09-19T03:41:44.389Z"},{"id":"item-a23daf0a7f8c","sku":"_dpwpwkOGojcscABya9GwpPXod5AzIE4zMOrdLEw","name_en":"M41937粉色!款采用头层牛皮制作!Rosalie 零钱包选用 Monogram 和 Monogram Reverse 帆布,以铭纹按扣开启圆润翻盖,设有内贴袋、拉链零钱袋、卡片夹层和后贴袋。","name_cn":"M41937粉色!款采用头层牛皮制作!Rosalie 零钱包选用 Monogram 和 Monogram Reverse 帆布,以铭纹按扣开启圆润翻盖,设有内贴袋、拉链零钱袋、卡片夹层和后贴袋。\n尺寸:11 x 8 x 2.5 cm。","specs":{"source":"wsxcme","sourceId":"_dpwpwkOGojcscABya9GwpPXod5AzIE4zMOrdLEw","sourceTagId":47002622,"sourceTagName":"LV/女包","dimensions":{"lengthCm":11,"heightCm":8,"widthCm":2.5},"rawTitle":"M41937粉色!款采用头层牛皮制作!Rosalie 零钱包选用 Monogram 和 Monogram Reverse 帆布,以铭纹按扣开启圆润翻盖,设有内贴袋、拉链零钱袋、卡片夹层和后贴袋。\n尺寸:11 x 8 x 2.5 cm。"},"price":null,"currency":"CNY","moq":1,"category":"lv-women-bags","status":"active","alibaba_url":null,"images":["https://xcimg.szwego.com/20240427/i1714165372_1069_0.jpg","https://xcimg.szwego.com/20240427/i1714165372_9111_1.jpg","https://xcimg.szwego.com/20240427/i1714165372_144_2.jpg","https://xcimg.szwego.com/20240427/i1714165372_9653_3.jpg","https://xcimg.szwego.com/20240427/i1714165372_8052_4.jpg","https://xcimg.szwego.com/20240427/i1714165372_4641_5.jpg","https://xcimg.szwego.com/20240427/i1714165372_5345_6.jpg","https://xcimg.szwego.com/20240427/i1714165372_3129_7.jpg","https://xcimg.szwego.com/20240427/i1714165372_31_8.jpg"],"created_at":"2024-05-01T03:25:57.661Z"},{"id":"item-d7717f50a6b1","sku":"_dtFtFbTs95ThCdLx7MMn1C2MITdMk_68UT6xghw","name_en":"M41937枚红色!款采用头层牛皮制作!Rosalie 零钱包选用 Monogram 和 Monogram Reverse 帆布,以铭纹按扣开启圆润翻盖,设有内贴袋、拉链零钱袋、卡片夹层和后贴袋。","name_cn":"M41937枚红色!款采用头层牛皮制作!Rosalie 零钱包选用 Monogram 和 Monogram Reverse 帆布,以铭纹按扣开启圆润翻盖,设有内贴袋、拉链零钱袋、卡片夹层和后贴袋。\n尺寸:11 x 8 x 2.5 cm。","specs":{"source":"wsxcme","sourceId":"_dtFtFbTs95ThCdLx7MMn1C2MITdMk_68UT6xghw","sourceTagId":47002622,"sourceTagName":"LV/女包","dimensions":{"lengthCm":11,"heightCm":8,"widthCm":2.5},"rawTitle":"M41937枚红色!款采用头层牛皮制作!Rosalie 零钱包选用 Monogram 和 Monogram Reverse 帆布,以铭纹按扣开启圆润翻盖,设有内贴袋、拉链零钱袋、卡片夹层和后贴袋。\n尺寸:11 x 8 x 2.5 cm。"},"price":null,"currency":"CNY","moq":1,"category":"lv-women-bags","status":"active","alibaba_url":null,"images":["https://xcimg.szwego.com/20240427/i1714165261_4645_0.jpg","https://xcimg.szwego.com/20240427/i1714165261_338_1.jpg","https://xcimg.szwego.com/20240427/i1714165261_1395_2.jpg","https://xcimg.szwego.com/20240427/i1714165261_5730_3.jpg","https://xcimg.szwego.com/20240427/i1714165261_5587_4.jpg","https://xcimg.szwego.com/20240427/i1714165261_3808_5.jpg","https://xcimg.szwego.com/20240427/i1714165261_7500_6.jpg","https://xcimg.szwego.com/20240427/i1714165261_386_7.jpg","https://xcimg.szwego.com/20240427/i1714165261_1186_8.jpg"],"created_at":"2024-05-01T03:25:57.659Z"},{"id":"item-4721394bdee2","sku":"_dt6t65lurANUTXjMGhrKhIKe3AO0_pgK5Ziy_RA","name_en":"M41937浅蓝色!款采用头层牛皮制作!Rosalie 零钱包选用 Monogram 和 Monogram Reverse 帆布,以铭纹按扣开启圆润翻盖,设有内贴袋、拉链零钱袋、卡片夹层和后贴袋。","name_cn":"M41937浅蓝色!款采用头层牛皮制作!Rosalie 零钱包选用 Monogram 和 Monogram Reverse 帆布,以铭纹按扣开启圆润翻盖,设有内贴袋、拉链零钱袋、卡片夹层和后贴袋。\n尺寸:11 x 8 x 2.5 cm。","specs":{"source":"wsxcme","sourceId":"_dt6t65lurANUTXjMGhrKhIKe3AO0_pgK5Ziy_RA","sourceTagId":47002622,"sourceTagName":"LV/女包","dimensions":{"lengthCm":11,"heightCm":8,"widthCm":2.5},"rawTitle":"M41937浅蓝色!款采用头层牛皮制作!Rosalie 零钱包选用 Monogram 和 Monogram Reverse 帆布,以铭纹按扣开启圆润翻盖,设有内贴袋、拉链零钱袋、卡片夹层和后贴袋。\n尺寸:11 x 8 x 2.5 cm。"},"price":null,"currency":"CNY","moq":1,"category":"lv-women-bags","status":"active","alibaba_url":null,"images":["https://xcimg.szwego.com/20240427/i1714165338_306_0.jpg","https://xcimg.szwego.com/20240427/i1714165338_1018_1.jpg","https://xcimg.szwego.com/20240427/i1714165338_7639_2.jpg","https://xcimg.szwego.com/20240427/i1714165338_8985_3.jpg","https://xcimg.szwego.com/20240427/i1714165338_8980_4.jpg","https://xcimg.szwego.com/20240427/i1714165338_5076_5.jpg","https://xcimg.szwego.com/20240427/i1714165338_7183_6.jpg","https://xcimg.szwego.com/20240427/i1714165338_2464_7.jpg","https://xcimg.szwego.com/20240427/i1714165338_8009_8.jpg"],"created_at":"2024-05-01T03:25:57.660Z"},{"id":"item-a09173c296c5","sku":"_dqmqmjDfOQIEa0Cn_v2Rd0W67MmSBU5YOxkbjXw","name_en":"M41937紫红色!款采用头层牛皮制作!Rosalie 零钱包选用 Monogram 和 Monogram Reverse 帆布,以铭纹按扣开启圆润翻盖,设有内贴袋、拉链零钱袋、卡片夹层和后贴袋。","name_cn":"M41937紫红色!款采用头层牛皮制作!Rosalie 零钱包选用 Monogram 和 Monogram Reverse 帆布,以铭纹按扣开启圆润翻盖,设有内贴袋、拉链零钱袋、卡片夹层和后贴袋。\n尺寸:11 x 8 x 2.5 cm。","specs":{"source":"wsxcme","sourceId":"_dqmqmjDfOQIEa0Cn_v2Rd0W67MmSBU5YOxkbjXw","sourceTagId":47002622,"sourceTagName":"LV/女包","dimensions":{"lengthCm":11,"heightCm":8,"widthCm":2.5},"rawTitle":"M41937紫红色!款采用头层牛皮制作!Rosalie 零钱包选用 Monogram 和 Monogram Reverse 帆布,以铭纹按扣开启圆润翻盖,设有内贴袋、拉链零钱袋、卡片夹层和后贴袋。\n尺寸:11 x 8 x 2.5 cm。"},"price":null,"currency":"CNY","moq":1,"category":"lv-women-bags","status":"active","alibaba_url":null,"images":["https://xcimg.szwego.com/20240427/i1714165418_2285_0.jpg","https://xcimg.szwego.com/20240427/i1714165418_9664_1.jpg","https://xcimg.szwego.com/20240427/i1714165418_5283_2.jpg","https://xcimg.szwego.com/20240427/i1714165418_2688_3.jpg","https://xcimg.szwego.com/20240427/i1714165418_8137_4.jpg","https://xcimg.szwego.com/20240427/i1714165418_6138_5.jpg","https://xcimg.szwego.com/20240427/i1714165418_3580_6.jpg","https://xcimg.szwego.com/20240427/i1714165418_6501_7.jpg","https://xcimg.szwego.com/20240427/i1714165418_6393_8.jpg"],"created_at":"2024-05-01T03:25:57.662Z"},{"id":"item-eb401ac861c1","sku":"_dp-p-FBbLZqylzPWRhl7U5LbZtScWrmmPkZCLug","name_en":"M43986 15×17×15","name_cn":"M43986 15×17×15\nCANNES 经典圆筒包","specs":{"source":"wsxcme","sourceId":"_dp-p-FBbLZqylzPWRhl7U5LbZtScWrmmPkZCLug","sourceTagId":47002622,"sourceTagName":"LV/女包","rawTitle":"M43986 15×17×15\nCANNES 经典圆筒包"},"price":null,"currency":"CNY","moq":1,"category":"lv-women-bags","status":"active","alibaba_url":null,"images":["https://xcimg.szwego.com/20220806/i1659717138_4462_0.jpg","https://xcimg.szwego.com/20220806/i1659717138_9620_1.jpg","https://xcimg.szwego.com/20220806/i1659717138_685_2.jpg","https://xcimg.szwego.com/20220806/i1659717138_9475_3.jpg","https://xcimg.szwego.com/20220806/i1659717138_4158_4.jpg","https://xcimg.szwego.com/20220806/i1659717138_6398_5.jpg","https://xcimg.szwego.com/20220806/i1659717138_2217_6.jpg","https://xcimg.szwego.com/20220806/i1659717138_2006_7.jpg","https://xcimg.szwego.com/20220806/i1659717138_8157_8.jpg"],"created_at":"2024-05-03T07:25:11.958Z"},{"id":"item-c58623289ddf","sku":"_du0u0jXwyxfaOOFMLUWeHnqXqOW4MlV6Rlp-Jdg","name_en":"M44813绿 24 x 13.5 x 4","name_cn":"M44813绿 24 x 13.5 x 4 \n19.5×11×4,9.5×2\nMulti 五合一麻将包三件套","specs":{"source":"wsxcme","sourceId":"_du0u0jXwyxfaOOFMLUWeHnqXqOW4MlV6Rlp-Jdg","sourceTagId":47002622,"sourceTagName":"LV/女包","rawTitle":"M44813绿 24 x 13.5 x 4 \n19.5×11×4,9.5×2\nMulti 五合一麻将包三件套"},"price":null,"currency":"CNY","moq":1,"category":"lv-women-bags","status":"active","alibaba_url":null,"images":["https://xcimg.szwego.com/20210424/i1619270292_804_0.jpg","https://xcimg.szwego.com/20210424/i1619270292_5930_1.jpg","https://xcimg.szwego.com/20210424/i1619270292_827_2.jpg","https://xcimg.szwego.com/20210424/i1619270292_9713_3.jpg","https://xcimg.szwego.com/20210424/i1619270292_9580_4.jpg","https://xcimg.szwego.com/20210424/i1619270292_7409_8.jpg","https://xcimg.szwego.com/20210424/i1619270292_8481_7.jpg","https://xcimg.szwego.com/20210424/i1619270292_8583_6.jpg","https://xcimg.szwego.com/20210424/i1619270292_6806_5.jpg"],"created_at":"2024-04-30T06:41:23.013Z"},{"id":"item-ef7a64e5359e","sku":"_dpbpbo6QdgAIcZZRa12-aTLrNvK_HuVqFeXSfMg","name_en":"M44840白格粉 24 x 13.5 x 4 ,19.5×11×4,9.5×2","name_cn":"M44840白格粉 24 x 13.5 x 4 ,19.5×11×4,9.5×2\nMulti 五合一麻将包三件套","specs":{"source":"wsxcme","sourceId":"_dpbpbo6QdgAIcZZRa12-aTLrNvK_HuVqFeXSfMg","sourceTagId":47002622,"sourceTagName":"LV/女包","rawTitle":"M44840白格粉 24 x 13.5 x 4 ,19.5×11×4,9.5×2\nMulti 五合一麻将包三件套"},"price":null,"currency":"CNY","moq":1,"category":"lv-women-bags","status":"active","alibaba_url":null,"images":["https://xcimg.szwego.com/20210810/i1628580494_9442_0.jpg","https://xcimg.szwego.com/20210810/i1628580494_1618_1.jpg","https://xcimg.szwego.com/20210810/i1628580494_1675_2.jpg","https://xcimg.szwego.com/20210810/i1628580494_6279_3.jpg","https://xcimg.szwego.com/20210810/i1628580494_2702_4.jpg","https://xcimg.szwego.com/20210810/i1628580494_9843_5.jpg","https://xcimg.szwego.com/20210810/i1628580494_5553_6.jpg","https://xcimg.szwego.com/20210810/i1628580494_934_7.jpg","https://xcimg.szwego.com/20210810/i1628580565_5446_0.jpg"],"created_at":"2024-04-30T06:41:23.015Z"},{"id":"item-d0f7fb1ed627","sku":"_dnunui5mxsXUObyDt4nmqjZiDaNHp8zc4cG7VjA","name_en":"M44840粉 24 x 13.5 x 4","name_cn":"M44840粉 24 x 13.5 x 4 \n19.5×11×4,9.5×2\nMulti 五合一麻将包三件套","specs":{"source":"wsxcme","sourceId":"_dnunui5mxsXUObyDt4nmqjZiDaNHp8zc4cG7VjA","sourceTagId":47002622,"sourceTagName":"LV/女包","rawTitle":"M44840粉 24 x 13.5 x 4 \n19.5×11×4,9.5×2\nMulti 五合一麻将包三件套"},"price":null,"currency":"CNY","moq":1,"category":"lv-women-bags","status":"active","alibaba_url":null,"images":["https://xcimg.szwego.com/20210424/i1619270038_5889_0.jpg","https://xcimg.szwego.com/20210424/i1619270038_8498_1.jpg","https://xcimg.szwego.com/20210424/i1619270038_7828_2.jpg","https://xcimg.szwego.com/20210424/i1619270038_644_8.jpg","https://xcimg.szwego.com/20210424/i1619270038_4712_5.jpg","https://xcimg.szwego.com/20210424/i1619270038_4687_3.jpg","https://xcimg.szwego.com/20210424/i1619270038_3297_4.jpg","https://xcimg.szwego.com/20210424/i1619270038_4083_6.jpg","https://xcimg.szwego.com/20210424/i1619270038_9775_7.jpg"],"created_at":"2024-04-30T06:41:23.014Z"},{"id":"item-1da716b5b9dc","sku":"_djrjrlKaHNdwwdI6NkBFoauL1EEkgJbSS6Xvo5g","name_en":"M44887焦糖M44020黑","name_cn":"M44887焦糖M44020黑\nM44021红M44022粉\n实拍组合图","specs":{"source":"wsxcme","sourceId":"_djrjrlKaHNdwwdI6NkBFoauL1EEkgJbSS6Xvo5g","sourceTagId":47002622,"sourceTagName":"LV/女包","rawTitle":"M44887焦糖M44020黑\nM44021红M44022粉\n实拍组合图"},"price":null,"currency":"CNY","moq":1,"category":"lv-women-bags","status":"active","alibaba_url":null,"images":["https://xcimg.szwego.com/img/a3cc9079/20240913/i1726214892_726_0.jpg"],"created_at":"2025-09-19T03:36:12.230Z"},{"id":"item-2230ea42bdb5","sku":"_dp6p6IJofG_JNogF-NqFV5be9EDrXMMFSknjDXQ","name_en":"M44919 加强版(品质提升.专柜同步电子芯片内码、礼品袋、保护纸,铜版电子标签、合格证)皮料是正品代工厂意大利A级皮料( 正品):所谓的 正品.是在于品质、五金、面料、手工、油边、线、A级出品、细节品质管控,专业QC把控质量、整套包装正品统一、拍摄图跟产品一致丶配图上的全套包装.尺寸:23.5x18x9CM","name_cn":"M44919 加强版(品质提升.专柜同步电子芯片内码、礼品袋、保护纸,铜版电子标签、合格证)皮料是正品代工厂意大利A级皮料( 正品):所谓的 正品.是在于品质、五金、面料、手工、油边、线、A级出品、细节品质管控,专业QC把控质量、整套包装正品统一、拍摄图跟产品一致丶配图上的全套包装.尺寸:23.5x18x9CM","specs":{"source":"wsxcme","sourceId":"_dp6p6IJofG_JNogF-NqFV5be9EDrXMMFSknjDXQ","sourceTagId":47002622,"sourceTagName":"LV/女包","dimensions":{"lengthCm":23.5,"heightCm":18,"widthCm":9},"rawTitle":"M44919 加强版(品质提升.专柜同步电子芯片内码、礼品袋、保护纸,铜版电子标签、合格证)皮料是正品代工厂意大利A级皮料( 正品):所谓的 正品.是在于品质、五金、面料、手工、油边、线、A级出品、细节品质管控,专业QC把控质量、整套包装正品统一、拍摄图跟产品一致丶配图上的全套包装.尺寸:23.5x18x9CM"},"price":null,"currency":"CNY","moq":1,"category":"lv-women-bags","status":"active","alibaba_url":null,"images":["https://xcimg.szwego.com/20230522/i1684768943_7700_0.jpg","https://xcimg.szwego.com/20230522/i1684768943_4962_1.jpg","https://xcimg.szwego.com/20230522/i1684768943_1692_2.jpg","https://xcimg.szwego.com/20230522/i1684768943_5986_3.jpg","https://xcimg.szwego.com/20230522/i1684768943_2158_4.jpg","https://xcimg.szwego.com/20230522/i1684768943_3139_5.jpg","https://xcimg.szwego.com/20230522/i1684768943_4086_6.jpg","https://xcimg.szwego.com/20230522/i1684768943_9727_7.jpg","https://xcimg.szwego.com/20230522/i1684768943_1356_8.jpg"],"created_at":"2024-11-26T11:46:07.335Z"},{"id":"item-a223e8cf6636","sku":"_dmwmwKEfp2oR8nmc9rreel16MzQbvvXRsz6MAeQ","name_en":"M45256黑色圆点 M21753 LV x YK NéoNoé 中号手袋来自路易威登 x 草间弥生合作系列,凝聚无限波点世界的创意能量。Monogram 压纹牛皮革映现草间弥生的标志性波点,可拆卸南瓜形状装饰再添艺术家的视觉名片。size:26x26x17.5cm","name_cn":"M45256黑色圆点 M21753 LV x YK NéoNoé 中号手袋来自路易威登 x 草间弥生合作系列,凝聚无限波点世界的创意能量。Monogram 压纹牛皮革映现草间弥生的标志性波点,可拆卸南瓜形状装饰再添艺术家的视觉名片。size:26x26x17.5cm","specs":{"source":"wsxcme","sourceId":"_dmwmwKEfp2oR8nmc9rreel16MzQbvvXRsz6MAeQ","sourceTagId":47002622,"sourceTagName":"LV/女包","rawTitle":"M45256黑色圆点 M21753 LV x YK NéoNoé 中号手袋来自路易威登 x 草间弥生合作系列,凝聚无限波点世界的创意能量。Monogram 压纹牛皮革映现草间弥生的标志性波点,可拆卸南瓜形状装饰再添艺术家的视觉名片。size:26x26x17.5cm"},"price":null,"currency":"CNY","moq":1,"category":"lv-women-bags","status":"active","alibaba_url":null,"images":["https://xcimg.szwego.com/20240106/i1704553974_8134_0.jpg","https://xcimg.szwego.com/20240106/i1704553974_1228_1.jpg","https://xcimg.szwego.com/20240106/i1704553974_9770_2.jpg","https://xcimg.szwego.com/20240106/i1704553974_8039_3.jpg","https://xcimg.szwego.com/20240106/i1704553974_9630_4.jpg","https://xcimg.szwego.com/20240106/i1704553974_2811_5.jpg","https://xcimg.szwego.com/20240106/i1704553974_650_6.jpg","https://xcimg.szwego.com/20240106/i1704553974_9469_7.jpg","https://xcimg.szwego.com/20240106/i1704553974_2750_8.jpg"],"created_at":"2024-08-02T09:05:57.003Z"},{"id":"item-1591753b445a","sku":"_d6D6DcJ7a8D6SzvKLyLeSACrxmPvRQkYbzLzFPg","name_en":"M45531 老花粉 皮料是意大利A级皮料是在于品质、五金、面料、手工、油边、A级出品、图片跟产品一致丶尺寸:21x14x7.5CM","name_cn":"M45531 老花粉 皮料是意大利A级皮料是在于品质、五金、面料、手工、油边、A级出品、图片跟产品一致丶尺寸:21x14x7.5CM","specs":{"source":"wsxcme","sourceId":"_d6D6DcJ7a8D6SzvKLyLeSACrxmPvRQkYbzLzFPg","sourceTagId":47002622,"sourceTagName":"LV/女包","dimensions":{"lengthCm":21,"heightCm":14,"widthCm":7.5},"rawTitle":"M45531 老花粉 皮料是意大利A级皮料是在于品质、五金、面料、手工、油边、A级出品、图片跟产品一致丶尺寸:21x14x7.5CM"},"price":null,"currency":"CNY","moq":1,"category":"lv-women-bags","status":"active","alibaba_url":null,"images":["https://xcimg.szwego.com/20210425/i1619319625_3076_0.jpg","https://xcimg.szwego.com/20210425/i1619319625_806_1.jpg","https://xcimg.szwego.com/20210425/i1619319625_7142_2.jpg","https://xcimg.szwego.com/20210425/i1619319625_8646_3.jpg","https://xcimg.szwego.com/20210425/i1619319625_2165_4.jpg","https://xcimg.szwego.com/20210425/i1619319625_9789_5.jpg","https://xcimg.szwego.com/20210425/i1619319625_1346_6.jpg","https://xcimg.szwego.com/20210425/i1619319625_9907_7.jpg","https://xcimg.szwego.com/20210425/i1619319625_9834_8.jpg"],"created_at":"2024-11-26T11:46:07.341Z"},{"id":"item-60c57fd2e79d","sku":"_dicicimbsgIRgzn5148qCmuS9Mgew3EkC4WpQpg","name_en":"M45555杏色M45497黑色","name_cn":"M45555杏色M45497黑色\n组合图","specs":{"source":"wsxcme","sourceId":"_dicicimbsgIRgzn5148qCmuS9Mgew3EkC4WpQpg","sourceTagId":47002622,"sourceTagName":"LV/女包","rawTitle":"M45555杏色M45497黑色\n组合图"},"price":null,"currency":"CNY","moq":1,"category":"lv-women-bags","status":"active","alibaba_url":null,"images":["https://xcimg.szwego.com/img/a3cc9079/20240808/i1723095185_4633_0.jpg"],"created_at":"2025-09-19T03:37:31.121Z"},{"id":"item-d40071266e9d","sku":"_drFrFjnManIZiP5Kz5ufSNEzvMaBfC3XsF7KdBw","name_en":"M45571 老花黑 皮料是意大利A级皮料是在于品质、五金、面料、手工、油边、A级出品、图片跟产品一致丶尺寸:21x14x7.5CM","name_cn":"M45571 老花黑 皮料是意大利A级皮料是在于品质、五金、面料、手工、油边、A级出品、图片跟产品一致丶尺寸:21x14x7.5CM","specs":{"source":"wsxcme","sourceId":"_drFrFjnManIZiP5Kz5ufSNEzvMaBfC3XsF7KdBw","sourceTagId":47002622,"sourceTagName":"LV/女包","dimensions":{"lengthCm":21,"heightCm":14,"widthCm":7.5},"rawTitle":"M45571 老花黑 皮料是意大利A级皮料是在于品质、五金、面料、手工、油边、A级出品、图片跟产品一致丶尺寸:21x14x7.5CM"},"price":null,"currency":"CNY","moq":1,"category":"lv-women-bags","status":"active","alibaba_url":null,"images":["https://xcimg.szwego.com/20210425/i1619319288_4682_0.jpg","https://xcimg.szwego.com/20210425/i1619319288_3464_1.jpg","https://xcimg.szwego.com/20210425/i1619319288_4009_2.jpg","https://xcimg.szwego.com/20210425/i1619319288_2547_3.jpg","https://xcimg.szwego.com/20210425/i1619319288_565_4.jpg","https://xcimg.szwego.com/20210425/i1619319288_3020_5.jpg","https://xcimg.szwego.com/20210425/i1619319288_432_6.jpg","https://xcimg.szwego.com/20210425/i1619319288_3816_7.jpg","https://xcimg.szwego.com/20210425/i1619319288_1398_8.jpg"],"created_at":"2024-11-26T11:46:07.340Z"},{"id":"item-f7d57ce38924","sku":"_droroqf_A_BVxJ-zFhxr7oHNwqcsnd38qaUNslw","name_en":"M45592(菱形纹变码芯片特级全钢) 专柜同步电子芯片 手机实拍 统一独家内码跟品质 配视频免税包装一套;尺寸23*17*9cm","name_cn":"M45592(菱形纹变码芯片特级全钢) 专柜同步电子芯片 手机实拍 统一独家内码跟品质 配视频免税包装一套;尺寸23*17*9cm","specs":{"source":"wsxcme","sourceId":"_droroqf_A_BVxJ-zFhxr7oHNwqcsnd38qaUNslw","sourceTagId":47002622,"sourceTagName":"LV/女包","dimensions":{"lengthCm":23,"heightCm":17,"widthCm":9},"rawTitle":"M45592(菱形纹变码芯片特级全钢) 专柜同步电子芯片 手机实拍 统一独家内码跟品质 配视频免税包装一套;尺寸23*17*9cm"},"price":null,"currency":"CNY","moq":1,"category":"lv-women-bags","status":"active","alibaba_url":null,"images":["https://xcimg.szwego.com/img/2038732d/20240623/i1719158167_3557_0.jpg","https://xcimg.szwego.com/img/2038732d/20240623/i1719158167_4938_2.jpg","https://xcimg.szwego.com/img/2038732d/20240623/i1719158167_7946_5.jpg","https://xcimg.szwego.com/img/2038732d/20240623/i1719158167_1829_6.jpg","https://xcimg.szwego.com/img/2038732d/20240623/i1719158167_4684_1.jpg","https://xcimg.szwego.com/img/2038732d/20240623/i1719158167_2244_4.jpg","https://xcimg.szwego.com/img/2038732d/20240623/i1719158167_5951_3.jpg"],"created_at":"2024-08-04T12:53:22.723Z"}],"page":39,"pageSize":24,"total":1177,"totalPages":50}
