{"items":[{"id":"item-c1d2cefb1385","sku":"_dagagCn44HncbOPri48XsP9z7lPTR6aGdrhDH7w","name_en":"M45900小号","name_cn":"M45900小号\nM45898大号\n实拍组合图","specs":{"source":"wsxcme","sourceId":"_dagagCn44HncbOPri48XsP9z7lPTR6aGdrhDH7w","sourceTagId":47002622,"sourceTagName":"LV/女包","rawTitle":"M45900小号\nM45898大号\n实拍组合图"},"price":null,"currency":"CNY","moq":1,"category":"lv-women-bags","status":"active","alibaba_url":null,"images":["https://xcimg.szwego.com/img/a3cc9079/20241101/i1730458714_2422_0.jpg"],"created_at":"2025-09-19T03:39:07.625Z"},{"id":"item-ccf53be7ad86","sku":"_dememR3Of0xh5w4Jtl3T10544OslT3EYEFULG8Q","name_en":"M45959 20×15×9","name_cn":"M45959 20×15×9\nDAUPHINE MINI 达芙妮","specs":{"source":"wsxcme","sourceId":"_dememR3Of0xh5w4Jtl3T10544OslT3EYEFULG8Q","sourceTagId":47002622,"sourceTagName":"LV/女包","rawTitle":"M45959 20×15×9\nDAUPHINE MINI 达芙妮"},"price":null,"currency":"CNY","moq":1,"category":"lv-women-bags","status":"active","alibaba_url":null,"images":["https://xcimg.szwego.com/20230408/i1680946202_7289_0.jpg","https://xcimg.szwego.com/20230408/i1680946202_6226_1.jpg","https://xcimg.szwego.com/20230408/i1680946202_8808_2.jpg","https://xcimg.szwego.com/20230408/i1680946202_6728_3.jpg","https://xcimg.szwego.com/20230408/i1680946202_9300_4.jpg","https://xcimg.szwego.com/20230408/i1680946202_51_5.jpg","https://xcimg.szwego.com/20230408/i1680946202_4036_6.jpg","https://xcimg.szwego.com/20230408/i1680946202_7090_7.jpg","https://xcimg.szwego.com/20230408/i1680946202_4078_8.jpg"],"created_at":"2024-05-03T07:25:17.283Z"},{"id":"item-f0f583d2142f","sku":"_drcrcCn_CtOvTQjyRphwqr0r0w3D5WdUwxxY7Pw","name_en":"M4597 Boétie 中号拉链托特包采用 Monogram 帆布和皮革饰边,搭配挂锁和辊制皮革手柄等经典元素。功能构型可容纳 3 寸 MacBook Pro 笔记本电脑,可拆卸肩带便于手提、肩背和斜挎。尺寸:3.5 x . x . 厘米 (长 x 高 x 宽)","name_cn":"M4597 Boétie 中号拉链托特包采用 Monogram 帆布和皮革饰边,搭配挂锁和辊制皮革手柄等经典元素。功能构型可容纳 3 寸 MacBook Pro 笔记本电脑,可拆卸肩带便于手提、肩背和斜挎。尺寸:3.5 x . x . 厘米 (长 x 高 x 宽)","specs":{"source":"wsxcme","sourceId":"_drcrcCn_CtOvTQjyRphwqr0r0w3D5WdUwxxY7Pw","sourceTagId":47002622,"sourceTagName":"LV/女包","rawTitle":"M4597 Boétie 中号拉链托特包采用 Monogram 帆布和皮革饰边,搭配挂锁和辊制皮革手柄等经典元素。功能构型可容纳 3 寸 MacBook Pro 笔记本电脑,可拆卸肩带便于手提、肩背和斜挎。尺寸:3.5 x . x . 厘米 (长 x 高 x 宽)"},"price":null,"currency":"CNY","moq":1,"category":"lv-women-bags","status":"active","alibaba_url":null,"images":["https://xcimg.szwego.com/20230830/i1693376294_551_0.jpg","https://xcimg.szwego.com/20230830/i1693376294_7068_1.jpg","https://xcimg.szwego.com/20230830/i1693376294_7993_2.jpg","https://xcimg.szwego.com/20230830/i1693376294_5122_3.jpg","https://xcimg.szwego.com/20230830/i1693376294_4463_4.jpg","https://xcimg.szwego.com/20230830/i1693376294_9748_5.jpg","https://xcimg.szwego.com/20230830/i1693376294_4402_6.jpg","https://xcimg.szwego.com/20230830/i1693376294_1557_7.jpg","https://xcimg.szwego.com/20230830/i1693376294_6827_8.jpg"],"created_at":"2025-02-08T12:41:41.928Z"},{"id":"item-66202c3bce0f","sku":"_dq3q3VjPrVN9CSDRN4nFFuu9pa-u1B0jI4CBIYA","name_en":"M45976压花黑色","name_cn":"M45976压花黑色\nM46041灰色丝印\nM45979黑色丝印\n实拍组合图","specs":{"source":"wsxcme","sourceId":"_dq3q3VjPrVN9CSDRN4nFFuu9pa-u1B0jI4CBIYA","sourceTagId":47002622,"sourceTagName":"LV/女包","rawTitle":"M45976压花黑色\nM46041灰色丝印\nM45979黑色丝印\n实拍组合图"},"price":null,"currency":"CNY","moq":1,"category":"lv-women-bags","status":"active","alibaba_url":null,"images":["https://xcimg.szwego.com/img/a3cc9079/20241108/i1731061881_6229_0.jpg"],"created_at":"2025-09-19T03:34:07.591Z"},{"id":"item-83d7fac7442e","sku":"_dqmqmjDfOQIEa1Cj5v2Zf0G64M2aCU5YOxETiWQ","name_en":"M45985 25×15×9","name_cn":"M45985 25×15×9\nDIANE 法棍包","specs":{"source":"wsxcme","sourceId":"_dqmqmjDfOQIEa1Cj5v2Zf0G64M2aCU5YOxETiWQ","sourceTagId":47002622,"sourceTagName":"LV/女包","rawTitle":"M45985 25×15×9\nDIANE 法棍包"},"price":null,"currency":"CNY","moq":1,"category":"lv-women-bags","status":"active","alibaba_url":null,"images":["https://xcimg.szwego.com/20230406/i1680760916_4413_0.jpg","https://xcimg.szwego.com/20230406/i1680760916_2380_1.jpg","https://xcimg.szwego.com/20230406/i1680760916_8528_2.jpg","https://xcimg.szwego.com/20230406/i1680760916_1250_3.jpg","https://xcimg.szwego.com/20230406/i1680760916_1723_4.jpg","https://xcimg.szwego.com/20230406/i1680760916_6552_6.jpg","https://xcimg.szwego.com/20230406/i1680760916_5060_5.jpg","https://xcimg.szwego.com/20230406/i1680760916_1981_7.jpg","https://xcimg.szwego.com/20230406/i1680760916_4338_8.jpg"],"created_at":"2024-05-03T07:25:14.628Z"},{"id":"item-6cb80b51b199","sku":"_drVrVI9oLZl5yfpyLXDF2qkgEeQwEJH96ctWVBQ","name_en":"M46041顶级原单","name_cn":"M46041顶级原单\n24cm,30cm\n实拍组合图","specs":{"source":"wsxcme","sourceId":"_drVrVI9oLZl5yfpyLXDF2qkgEeQwEJH96ctWVBQ","sourceTagId":47002622,"sourceTagName":"LV/女包","rawTitle":"M46041顶级原单\n24cm,30cm\n实拍组合图"},"price":null,"currency":"CNY","moq":1,"category":"lv-women-bags","status":"active","alibaba_url":null,"images":["https://xcimg.szwego.com/img/a3cc9079/20240902/i1725251938_2820_0.jpg"],"created_at":"2025-09-19T03:33:31.732Z"},{"id":"item-a13f3f95e673","sku":"_dEpEpCY1dU9u7ncEtBEsgl7eSgTRI2AXC2q8RMw","name_en":"M46197(菱形纹变码芯片特级全钢)专柜同步电子芯片,手机实拍 认准大厂货 统一独家内码跟品质  尺寸39*30*15cm配视频包装一套","name_cn":"M46197(菱形纹变码芯片特级全钢)专柜同步电子芯片,手机实拍 认准大厂货 统一独家内码跟品质  尺寸39*30*15cm配视频包装一套","specs":{"source":"wsxcme","sourceId":"_dEpEpCY1dU9u7ncEtBEsgl7eSgTRI2AXC2q8RMw","sourceTagId":47002622,"sourceTagName":"LV/女包","dimensions":{"lengthCm":39,"heightCm":30,"widthCm":15},"rawTitle":"M46197(菱形纹变码芯片特级全钢)专柜同步电子芯片,手机实拍 认准大厂货 统一独家内码跟品质  尺寸39*30*15cm配视频包装一套"},"price":null,"currency":"CNY","moq":1,"category":"lv-women-bags","status":"active","alibaba_url":null,"images":["https://xcimg.szwego.com/img/2038732d/20240801/i1722452706_6019_4.jpg","https://xcimg.szwego.com/img/2038732d/20240801/i1722452706_5194_1.jpg","https://xcimg.szwego.com/img/2038732d/20240801/i1722452706_6286_5.jpg","https://xcimg.szwego.com/img/2038732d/20240801/i1722452707_6574_7.jpg","https://xcimg.szwego.com/img/2038732d/20240801/i1722452707_2188_6.jpg","https://xcimg.szwego.com/img/2038732d/20240801/i1722452706_8688_2.jpg","https://xcimg.szwego.com/img/2038732d/20240801/i1722452706_8670_3.jpg","https://xcimg.szwego.com/img/2038732d/20240801/i1722452707_2471_8.jpg","https://xcimg.szwego.com/img/2038732d/20240801/i1722452706_5105_0.jpg"],"created_at":"2024-08-04T12:53:22.705Z"},{"id":"item-c7ce81798a17","sku":"_dSzSzPKxUMHI19ialfLbLJOGXp2RnpB6FSWZhow","name_en":"M46203(菱形纹变码芯片特级全钢)专柜同步电子芯片,手机实拍 认准大厂货 统一独家内码跟品质  尺寸29*24*12cm配视频包装一套","name_cn":"M46203(菱形纹变码芯片特级全钢)专柜同步电子芯片,手机实拍 认准大厂货 统一独家内码跟品质  尺寸29*24*12cm配视频包装一套","specs":{"source":"wsxcme","sourceId":"_dSzSzPKxUMHI19ialfLbLJOGXp2RnpB6FSWZhow","sourceTagId":47002622,"sourceTagName":"LV/女包","dimensions":{"lengthCm":29,"heightCm":24,"widthCm":12},"rawTitle":"M46203(菱形纹变码芯片特级全钢)专柜同步电子芯片,手机实拍 认准大厂货 统一独家内码跟品质  尺寸29*24*12cm配视频包装一套"},"price":null,"currency":"CNY","moq":1,"category":"lv-women-bags","status":"active","alibaba_url":null,"images":["https://xcimg.szwego.com/img/2038732d/20240516/i1715800488_6465_2.jpg","https://xcimg.szwego.com/img/2038732d/20240516/i1715800488_6060_0.jpg","https://xcimg.szwego.com/img/2038732d/20240516/i1715800488_2664_4.jpg","https://xcimg.szwego.com/img/2038732d/20240516/i1715800488_8206_1.jpg","https://xcimg.szwego.com/img/2038732d/20240516/i1715800488_1271_5.jpg","https://xcimg.szwego.com/img/2038732d/20240516/i1715800488_7657_7.jpg","https://xcimg.szwego.com/img/2038732d/20240516/i1715800488_3634_3.jpg","https://xcimg.szwego.com/img/2038732d/20240516/i1715800488_7643_6.jpg"],"created_at":"2024-08-04T12:53:22.725Z"},{"id":"item-6d734719d790","sku":"_d7676VcWp0oQPaeUuMrq1rpxFCs3d1xBtQ1YdYQ","name_en":"M46222(升级菱形纹变码芯片特级全钢) 专柜同步电子芯片 手机实拍 统一独家内码跟品质 配视频免税包装一套;尺寸20.5*13.5*12cm","name_cn":"M46222(升级菱形纹变码芯片特级全钢) 专柜同步电子芯片 手机实拍 统一独家内码跟品质 配视频免税包装一套;尺寸20.5*13.5*12cm","specs":{"source":"wsxcme","sourceId":"_d7676VcWp0oQPaeUuMrq1rpxFCs3d1xBtQ1YdYQ","sourceTagId":47002622,"sourceTagName":"LV/女包","dimensions":{"lengthCm":20.5,"heightCm":13.5,"widthCm":12},"rawTitle":"M46222(升级菱形纹变码芯片特级全钢) 专柜同步电子芯片 手机实拍 统一独家内码跟品质 配视频免税包装一套;尺寸20.5*13.5*12cm"},"price":null,"currency":"CNY","moq":1,"category":"lv-women-bags","status":"active","alibaba_url":null,"images":["https://xcimg.szwego.com/img/2038732d/20240114/i1705175542_8573_1.jpg","https://xcimg.szwego.com/img/2038732d/20240114/i1705175543_415_4.jpg","https://xcimg.szwego.com/img/2038732d/20240114/i1705175543_2467_2.jpg","https://xcimg.szwego.com/img/2038732d/20240114/i1705175543_4967_5.jpg","https://xcimg.szwego.com/img/2038732d/20240114/i1705175543_8470_6.jpg","https://xcimg.szwego.com/img/2038732d/20240114/i1705175543_758_3.jpg","https://xcimg.szwego.com/img/2038732d/20240114/i1705175542_3781_0.jpg"],"created_at":"2024-08-04T12:53:22.721Z"},{"id":"item-45178f7c7f47","sku":"_dkikizJ2dRtdP1Nr2Qwsu4lXL447U4lTMnUnf9A","name_en":"M46288兰压花 CarryAll 小号手袋取材 Monogram Empreinte 压纹皮革,充裕构型设有齐整内层,大号内袋再添功能元素。搭配Monogram 压纹拉链手拿包通过皮革带固定。成就都市生活的贴身伴侣。尺寸29 x 24 x 12 厘米 (长度 x 高 x 宽)","name_cn":"M46288兰压花 CarryAll 小号手袋取材 Monogram Empreinte 压纹皮革,充裕构型设有齐整内层,大号内袋再添功能元素。搭配Monogram 压纹拉链手拿包通过皮革带固定。成就都市生活的贴身伴侣。尺寸29 x 24 x 12 厘米 (长度 x 高 x 宽)","specs":{"source":"wsxcme","sourceId":"_dkikizJ2dRtdP1Nr2Qwsu4lXL447U4lTMnUnf9A","sourceTagId":47002622,"sourceTagName":"LV/女包","dimensions":{"lengthCm":29,"heightCm":24,"widthCm":12},"rawTitle":"M46288兰压花 CarryAll 小号手袋取材 Monogram Empreinte 压纹皮革,充裕构型设有齐整内层,大号内袋再添功能元素。搭配Monogram 压纹拉链手拿包通过皮革带固定。成就都市生活的贴身伴侣。尺寸29 x 24 x 12 厘米 (长度 x 高 x 宽)"},"price":null,"currency":"CNY","moq":1,"category":"lv-women-bags","status":"active","alibaba_url":null,"images":["https://xcimg.szwego.com/img/42f08f7f/20240705/i1720176514_6257_7.jpg","https://xcimg.szwego.com/img/42f08f7f/20240705/i1720176514_7521_3.jpg","https://xcimg.szwego.com/img/42f08f7f/20240705/i1720176514_8677_5.jpg","https://xcimg.szwego.com/img/42f08f7f/20240705/i1720176514_3924_4.jpg","https://xcimg.szwego.com/img/42f08f7f/20240705/i1720176514_5535_2.jpg","https://xcimg.szwego.com/img/42f08f7f/20240705/i1720176514_6396_6.jpg","https://xcimg.szwego.com/img/42f08f7f/20240705/i1720176514_5172_0.jpg","https://xcimg.szwego.com/img/42f08f7f/20240705/i1720176514_3485_8.jpg","https://xcimg.szwego.com/img/42f08f7f/20240705/i1720176514_5082_1.jpg"],"created_at":"2024-08-02T09:08:16.136Z"},{"id":"item-407a2627e54d","sku":"_dlDlDCkup8TC-6lEIJCAT6H0YxuS8-HT-MteeUQ","name_en":"M46595 M46596全皮邮差包系列  小号 East West Métis 手袋 LV邮差包出小号 East West Métis 手袋采用时尚肩背书包造型,富有潮流感。小巧包身选用柔软的Monogram Empreinte皮革面料,配有别致的 S-lock 锁扣和时髦顶部手柄,抛光表面亮泽耀眼。功能多样,空间宽敞。可脱卸长肩带便于肩背或斜挎,乃日常出","name_cn":"M46595 M46596全皮邮差包系列  小号 East West Métis 手袋 LV邮差包出小号 East West Métis 手袋采用时尚肩背书包造型,富有潮流感。小巧包身选用柔软的Monogram Empreinte皮革面料,配有别致的 S-lock 锁扣和时髦顶部手柄,抛光表面亮泽耀眼。功能多样,空间宽敞。可脱卸长肩带便于肩背或斜挎,乃日常出行良伴。 尺寸21.5x6x13.5cm","specs":{"source":"wsxcme","sourceId":"_dlDlDCkup8TC-6lEIJCAT6H0YxuS8-HT-MteeUQ","sourceTagId":47002622,"sourceTagName":"LV/女包","dimensions":{"lengthCm":21.5,"heightCm":6,"widthCm":13.5},"rawTitle":"M46595 M46596全皮邮差包系列  小号 East West Métis 手袋 LV邮差包出小号 East West Métis 手袋采用时尚肩背书包造型,富有潮流感。小巧包身选用柔软的Monogram Empreinte皮革面料,配有别致的 S-lock 锁扣和时髦顶部手柄,抛光表面亮泽耀眼。功能多样,空间宽敞。可脱卸长肩带便于肩背或斜挎,乃日常出行良伴。 尺寸21.5x6x13.5cm"},"price":null,"currency":"CNY","moq":1,"category":"lv-women-bags","status":"active","alibaba_url":null,"images":["https://xcimg.szwego.com/20230627/i1687795733_3329_0.jpg","https://xcimg.szwego.com/20230627/i1687795733_1875_1.jpg","https://xcimg.szwego.com/20230627/i1687795733_1046_2.jpg","https://xcimg.szwego.com/20230627/i1687795733_2733_3.jpg","https://xcimg.szwego.com/20230627/i1687795733_7328_4.jpg","https://xcimg.szwego.com/20230627/i1687795733_6917_5.jpg","https://xcimg.szwego.com/20230627/i1687795733_4109_6.jpg","https://xcimg.szwego.com/20230627/i1687795733_6849_7.jpg","https://xcimg.szwego.com/20230627/i1687795733_4257_8.jpg"],"created_at":"2024-08-02T09:05:57.018Z"},{"id":"item-9be1bca72816","sku":"_dIpIp4wO3gdv6GqbQCtRDTt_fkyHCS-RN6qCnow","name_en":"M46653  本款 OnTheGo 托特包融合 Giant Monogram 和 Monogram Reverse 帆布,焕新演绎 East West 的充裕构型。可拆卸圆形零钱袋丰富细节,Toron 顶部手柄和可拆卸宽幅肩带实现多种背携方式。","name_cn":"M46653  本款 OnTheGo 托特包融合 Giant Monogram 和 Monogram Reverse 帆布,焕新演绎 East West 的充裕构型。可拆卸圆形零钱袋丰富细节,Toron 顶部手柄和可拆卸宽幅肩带实现多种背携方式。\n详细特征:25.0 x 13.0 x 10.0 厘米 (长 x 高 x 宽)","specs":{"source":"wsxcme","sourceId":"_dIpIp4wO3gdv6GqbQCtRDTt_fkyHCS-RN6qCnow","sourceTagId":47002622,"sourceTagName":"LV/女包","rawTitle":"M46653  本款 OnTheGo 托特包融合 Giant Monogram 和 Monogram Reverse 帆布,焕新演绎 East West 的充裕构型。可拆卸圆形零钱袋丰富细节,Toron 顶部手柄和可拆卸宽幅肩带实现多种背携方式。\n详细特征:25.0 x 13.0 x 10.0 厘米 (长 x 高 x 宽)"},"price":null,"currency":"CNY","moq":1,"category":"lv-women-bags","status":"active","alibaba_url":null,"images":["https://xcimg.szwego.com/img/c7388c4d/20240505/i1714906902_3147_2.jpg","https://xcimg.szwego.com/img/c7388c4d/20240505/i1714906902_9854_6.jpg","https://xcimg.szwego.com/img/c7388c4d/20240505/i1714906902_4992_1.jpg","https://xcimg.szwego.com/img/c7388c4d/20240505/i1714906902_7507_5.jpg","https://xcimg.szwego.com/img/c7388c4d/20240505/i1714906902_8190_7.jpg","https://xcimg.szwego.com/img/c7388c4d/20240505/i1714906902_9449_8.jpg","https://xcimg.szwego.com/img/c7388c4d/20240505/i1714906902_9609_0.jpg","https://xcimg.szwego.com/img/c7388c4d/20240505/i1714906902_3365_3.jpg","https://xcimg.szwego.com/img/c7388c4d/20240505/i1714906902_1956_4.jpg"],"created_at":"2024-10-25T09:07:48.302Z"},{"id":"item-389a52b5731f","sku":"_dnTnTj4XxuMSwPr3l7IjJwqBNqPijiOXRa-Etng","name_en":"M46740 新款老花双子星saumurbb、说是缩小版的双子星,却也有马鞍包的身影,这种迷人的老花小可爱,见到可能都要认栽!因为太可爱啦!包包有手柄,可以手提,斜背,腋下背!肩带都可拆卸!又要缺货的一款!尺寸:20*16*7.5cm","name_cn":"M46740 新款老花双子星saumurbb、说是缩小版的双子星,却也有马鞍包的身影,这种迷人的老花小可爱,见到可能都要认栽!因为太可爱啦!包包有手柄,可以手提,斜背,腋下背!肩带都可拆卸!又要缺货的一款!尺寸:20*16*7.5cm","specs":{"source":"wsxcme","sourceId":"_dnTnTj4XxuMSwPr3l7IjJwqBNqPijiOXRa-Etng","sourceTagId":47002622,"sourceTagName":"LV/女包","dimensions":{"lengthCm":20,"heightCm":16,"widthCm":7.5},"rawTitle":"M46740 新款老花双子星saumurbb、说是缩小版的双子星,却也有马鞍包的身影,这种迷人的老花小可爱,见到可能都要认栽!因为太可爱啦!包包有手柄,可以手提,斜背,腋下背!肩带都可拆卸!又要缺货的一款!尺寸:20*16*7.5cm"},"price":null,"currency":"CNY","moq":1,"category":"lv-women-bags","status":"active","alibaba_url":null,"images":["https://xcimg.szwego.com/img/c7388c4d/20240326/i1711436600_1737_4.jpg","https://xcimg.szwego.com/img/c7388c4d/20240326/i1711436600_6042_8.jpg","https://xcimg.szwego.com/img/c7388c4d/20240326/i1711436600_6690_7.jpg","https://xcimg.szwego.com/img/c7388c4d/20240326/i1711436600_551_2.jpg","https://xcimg.szwego.com/img/c7388c4d/20240326/i1711436600_4383_3.jpg","https://xcimg.szwego.com/img/c7388c4d/20240326/i1711436600_9804_0.jpg","https://xcimg.szwego.com/img/c7388c4d/20240326/i1711436600_5997_1.jpg","https://xcimg.szwego.com/img/c7388c4d/20240326/i1711436600_7227_5.jpg","https://xcimg.szwego.com/img/c7388c4d/20240326/i1711436600_6576_6.jpg"],"created_at":"2024-10-25T09:07:48.305Z"},{"id":"item-c8dfef1d0e88","sku":"_dziziGomuRiYtX_eZdq8uOMtbPl7N9WjzOR6ZiA","name_en":"M46839(菱形纹变码芯片特级全钢)专柜同步电子芯片,手机实拍 认准大厂货 统一独家内码跟品质  尺寸18*15*8.5cm配视频包装一套","name_cn":"M46839(菱形纹变码芯片特级全钢)专柜同步电子芯片,手机实拍 认准大厂货 统一独家内码跟品质  尺寸18*15*8.5cm配视频包装一套","specs":{"source":"wsxcme","sourceId":"_dziziGomuRiYtX_eZdq8uOMtbPl7N9WjzOR6ZiA","sourceTagId":47002622,"sourceTagName":"LV/女包","dimensions":{"lengthCm":18,"heightCm":15,"widthCm":8.5},"rawTitle":"M46839(菱形纹变码芯片特级全钢)专柜同步电子芯片,手机实拍 认准大厂货 统一独家内码跟品质  尺寸18*15*8.5cm配视频包装一套"},"price":null,"currency":"CNY","moq":1,"category":"lv-women-bags","status":"active","alibaba_url":null,"images":["https://xcimg.szwego.com/img/2038732d/20240801/i1722453501_4421_4.jpg","https://xcimg.szwego.com/img/2038732d/20240801/i1722453501_4945_0.jpg","https://xcimg.szwego.com/img/2038732d/20240801/i1722453501_9583_2.jpg","https://xcimg.szwego.com/img/2038732d/20240801/i1722453501_7387_5.jpg","https://xcimg.szwego.com/img/2038732d/20240801/i1722453501_8312_1.jpg","https://xcimg.szwego.com/img/2038732d/20240801/i1722453501_7833_6.jpg","https://xcimg.szwego.com/img/2038732d/20240801/i1722453502_653_8.jpg","https://xcimg.szwego.com/img/2038732d/20240801/i1722453502_7072_7.jpg","https://xcimg.szwego.com/img/2038732d/20240801/i1722453501_5451_3.jpg"],"created_at":"2024-08-04T12:53:22.709Z"},{"id":"item-f51ce17918bc","sku":"_dujujJ8c6jX5e_SyhtQLrNh5dmCazpnH7up0r9Q","name_en":"M46895 18×12×8","name_cn":"M46895 18×12×8\nNANO ALMA 贝壳包","specs":{"source":"wsxcme","sourceId":"_dujujJ8c6jX5e_SyhtQLrNh5dmCazpnH7up0r9Q","sourceTagId":47002622,"sourceTagName":"LV/女包","rawTitle":"M46895 18×12×8\nNANO ALMA 贝壳包"},"price":null,"currency":"CNY","moq":1,"category":"lv-women-bags","status":"active","alibaba_url":null,"images":["https://xcimg.szwego.com/20240118/i1705558291_7819_0.jpg","https://xcimg.szwego.com/20240118/i1705558291_1855_1.jpg","https://xcimg.szwego.com/20240118/i1705558291_9244_2.jpg","https://xcimg.szwego.com/20240118/i1705558291_396_3.jpg","https://xcimg.szwego.com/20240118/i1705558291_9404_4.jpg","https://xcimg.szwego.com/20240118/i1705558291_9571_5.jpg","https://xcimg.szwego.com/20240118/i1705558291_8322_6.jpg","https://xcimg.szwego.com/20240118/i1705558291_6519_7.jpg","https://xcimg.szwego.com/20240118/i1705558291_7584_8.jpg"],"created_at":"2024-04-30T06:41:23.017Z"},{"id":"item-d7689259572b","sku":"_dxMxM2E2Gk5akzHpesLU1z1QHMGXiGwVshdPCDA","name_en":"M46961红 創意總監Pharrell Williams以引人注目且奢華柔軟的原色小牛皮重新演繹Speedy Bandoulière 50 Monogram Leather袋款,並運用精湛的絲網印花工藝將Monogram圖案點綴於Speedy上,於帆布上重現Monogram帆布的斜紋紋理,締造近乎手繪風格的模糊效果。50 x 32 x 29厘米(長度 x ","name_cn":"M46961红 創意總監Pharrell Williams以引人注目且奢華柔軟的原色小牛皮重新演繹Speedy Bandoulière 50 Monogram Leather袋款,並運用精湛的絲網印花工藝將Monogram圖案點綴於Speedy上,於帆布上重現Monogram帆布的斜紋紋理,締造近乎手繪風格的模糊效果。50 x 32 x 29厘米(長度 x 高度 x 闊度) \n【温馨提示 此款太大不配包装】","specs":{"source":"wsxcme","sourceId":"_dxMxM2E2Gk5akzHpesLU1z1QHMGXiGwVshdPCDA","sourceTagId":47002622,"sourceTagName":"LV/女包","rawTitle":"M46961红 創意總監Pharrell Williams以引人注目且奢華柔軟的原色小牛皮重新演繹Speedy Bandoulière 50 Monogram Leather袋款,並運用精湛的絲網印花工藝將Monogram圖案點綴於Speedy上,於帆布上重現Monogram帆布的斜紋紋理,締造近乎手繪風格的模糊效果。50 x 32 x 29厘米(長度 x 高度 x 闊度) \n【温馨提示 此款太大不配包装】"},"price":null,"currency":"CNY","moq":1,"category":"lv-women-bags","status":"active","alibaba_url":null,"images":["https://xcimg.szwego.com/img/42f08f7f/20240719/i1721363983_3997_6.jpg","https://xcimg.szwego.com/img/42f08f7f/20240719/i1721363984_8951_8.jpg","https://xcimg.szwego.com/img/42f08f7f/20240719/i1721363984_6777_12.jpg","https://xcimg.szwego.com/img/42f08f7f/20240719/i1721363984_632_18.jpg","https://xcimg.szwego.com/img/42f08f7f/20240719/i1721363983_1985_1.jpg","https://xcimg.szwego.com/img/42f08f7f/20240719/i1721363983_5975_0.jpg","https://xcimg.szwego.com/img/42f08f7f/20240719/i1721363983_7446_2.jpg","https://xcimg.szwego.com/img/42f08f7f/20240719/i1721363983_8578_3.jpg","https://xcimg.szwego.com/img/42f08f7f/20240719/i1721363984_5643_7.jpg"],"created_at":"2024-08-02T09:07:33.324Z"},{"id":"item-2acedd0903d6","sku":"_dxgxgvaqjwmemDb7fIBxOHrEsh_5egtoXv_0-nQ","name_en":"M46963黄 創意總監Pharrell Williams以引人注目且奢華柔軟的原色小牛皮重新演繹Speedy Bandoulière 50 Monogram Leather袋款,並運用精湛的絲網印花工藝將Monogram圖案點綴於Speedy上,於帆布上重現Monogram帆布的斜紋紋理,締造近乎手繪風格的模糊效果。50 x 32 x 29厘米(長度 x ","name_cn":"M46963黄 創意總監Pharrell Williams以引人注目且奢華柔軟的原色小牛皮重新演繹Speedy Bandoulière 50 Monogram Leather袋款,並運用精湛的絲網印花工藝將Monogram圖案點綴於Speedy上,於帆布上重現Monogram帆布的斜紋紋理,締造近乎手繪風格的模糊效果。50 x 32 x 29厘米(長度 x 高度 x 闊度) \n【温馨提示 此款太大不配包装】","specs":{"source":"wsxcme","sourceId":"_dxgxgvaqjwmemDb7fIBxOHrEsh_5egtoXv_0-nQ","sourceTagId":47002622,"sourceTagName":"LV/女包","rawTitle":"M46963黄 創意總監Pharrell Williams以引人注目且奢華柔軟的原色小牛皮重新演繹Speedy Bandoulière 50 Monogram Leather袋款,並運用精湛的絲網印花工藝將Monogram圖案點綴於Speedy上,於帆布上重現Monogram帆布的斜紋紋理,締造近乎手繪風格的模糊效果。50 x 32 x 29厘米(長度 x 高度 x 闊度) \n【温馨提示 此款太大不配包装】"},"price":null,"currency":"CNY","moq":1,"category":"lv-women-bags","status":"active","alibaba_url":null,"images":["https://xcimg.szwego.com/img/42f08f7f/20240719/i1721363826_6108_4.jpg","https://xcimg.szwego.com/img/42f08f7f/20240719/i1721363826_6191_10.jpg","https://xcimg.szwego.com/img/42f08f7f/20240719/i1721363826_9176_7.jpg","https://xcimg.szwego.com/img/42f08f7f/20240719/i1721363827_6518_16.jpg","https://xcimg.szwego.com/img/42f08f7f/20240719/i1721363826_3041_2.jpg","https://xcimg.szwego.com/img/42f08f7f/20240719/i1721363826_7462_6.jpg","https://xcimg.szwego.com/img/42f08f7f/20240719/i1721363827_5447_15.jpg","https://xcimg.szwego.com/img/42f08f7f/20240719/i1721363826_5869_11.jpg","https://xcimg.szwego.com/img/42f08f7f/20240719/i1721363826_7050_8.jpg"],"created_at":"2024-08-02T09:07:33.325Z"},{"id":"item-ca6de36ddedf","sku":"_dmImIdWv5i2mIYZNMfpqyTT3WbcT88Je7mytwNg","name_en":"M46999(菱形纹变码芯片特级全钢)专柜同步电子芯片,手机实拍 认准大厂货 统一独家内码跟品质  尺寸25*15*8cm配视频包装一套","name_cn":"M46999(菱形纹变码芯片特级全钢)专柜同步电子芯片,手机实拍 认准大厂货 统一独家内码跟品质  尺寸25*15*8cm配视频包装一套","specs":{"source":"wsxcme","sourceId":"_dmImIdWv5i2mIYZNMfpqyTT3WbcT88Je7mytwNg","sourceTagId":47002622,"sourceTagName":"LV/女包","dimensions":{"lengthCm":25,"heightCm":15,"widthCm":8},"rawTitle":"M46999(菱形纹变码芯片特级全钢)专柜同步电子芯片,手机实拍 认准大厂货 统一独家内码跟品质  尺寸25*15*8cm配视频包装一套"},"price":null,"currency":"CNY","moq":1,"category":"lv-women-bags","status":"active","alibaba_url":null,"images":["https://xcimg.szwego.com/img/2038732d/20240801/i1722453984_6013_1.jpg","https://xcimg.szwego.com/img/2038732d/20240801/i1722453984_6933_5.jpg","https://xcimg.szwego.com/img/2038732d/20240801/i1722453984_2452_7.jpg","https://xcimg.szwego.com/img/2038732d/20240801/i1722453984_4793_4.jpg","https://xcimg.szwego.com/img/2038732d/20240801/i1722453984_1285_2.jpg","https://xcimg.szwego.com/img/2038732d/20240801/i1722453984_321_0.jpg","https://xcimg.szwego.com/img/2038732d/20240801/i1722453984_5697_3.jpg","https://xcimg.szwego.com/img/2038732d/20240801/i1722453984_9504_6.jpg"],"created_at":"2024-08-04T12:53:22.713Z"},{"id":"item-209315f531bf","sku":"_daKaKfdbMe2Vpy7zkuzVI9WCNCi3DFAmIX5j8dw","name_en":"M47072 M47074","name_cn":"M47072 M47074\n本款 Backup 双肩包取材 Monogram Empreinte 牛皮革,低调铺陈 Monogram 压纹。可拆卸并调节的肩带实现单肩和双肩背携,顶部手柄和编织链条提供手提或斜挎选择。\n20 x 22 x 14 厘米\n(长度 x 高 x 宽)","specs":{"source":"wsxcme","sourceId":"_daKaKfdbMe2Vpy7zkuzVI9WCNCi3DFAmIX5j8dw","sourceTagId":47002622,"sourceTagName":"LV/女包","rawTitle":"M47072 M47074\n本款 Backup 双肩包取材 Monogram Empreinte 牛皮革,低调铺陈 Monogram 压纹。可拆卸并调节的肩带实现单肩和双肩背携,顶部手柄和编织链条提供手提或斜挎选择。\n20 x 22 x 14 厘米\n(长度 x 高 x 宽)"},"price":null,"currency":"CNY","moq":1,"category":"lv-women-bags","status":"active","alibaba_url":null,"images":["https://xcimg.szwego.com/20240515/i1715741886_2096_0.jpg","https://xcimg.szwego.com/20240515/i1715741886_880_1.jpg","https://xcimg.szwego.com/20240515/i1715741886_13_2.jpg","https://xcimg.szwego.com/20240515/i1715741886_9190_3.jpg","https://xcimg.szwego.com/20240515/i1715741886_4317_4.jpg","https://xcimg.szwego.com/20240515/i1715741886_691_5.jpg","https://xcimg.szwego.com/20240515/i1715741886_3284_6.jpg","https://xcimg.szwego.com/20240515/i1715741886_5257_7.jpg","https://xcimg.szwego.com/20240515/i1715741886_7813_8.jpg"],"created_at":"2024-08-02T09:06:13.470Z"},{"id":"item-ddb2af955688","sku":"_deqeqEdy6LZT9AG0hmHpgU-Hr2pNJJzSxVHcS3g","name_en":"M47096老花","name_cn":"M47096老花\nM47162黄花\n实拍组合图","specs":{"source":"wsxcme","sourceId":"_deqeqEdy6LZT9AG0hmHpgU-Hr2pNJJzSxVHcS3g","sourceTagId":47002622,"sourceTagName":"LV/女包","rawTitle":"M47096老花\nM47162黄花\n实拍组合图"},"price":null,"currency":"CNY","moq":1,"category":"lv-women-bags","status":"active","alibaba_url":null,"images":["https://xcimg.szwego.com/20240926/i1727342331_1694_0.jpg"],"created_at":"2025-09-19T03:30:56.781Z"},{"id":"item-ecda9e76f6e6","sku":"_dcwcwJb_So-tbNd22gSRsHYzJScOiIS_6lvST6A","name_en":"M47125 19×11.5×6.5","name_cn":"M47125 19×11.5×6.5\nVANITY CHAIN POUCH 化妆包","specs":{"source":"wsxcme","sourceId":"_dcwcwJb_So-tbNd22gSRsHYzJScOiIS_6lvST6A","sourceTagId":47002622,"sourceTagName":"LV/女包","rawTitle":"M47125 19×11.5×6.5\nVANITY CHAIN POUCH 化妆包"},"price":null,"currency":"CNY","moq":1,"category":"lv-women-bags","status":"active","alibaba_url":null,"images":["https://xcimg.szwego.com/20240322/i1711103427_8372_0.jpg","https://xcimg.szwego.com/20240322/i1711103427_3731_1.jpg","https://xcimg.szwego.com/20240322/i1711103427_6514_2.jpg","https://xcimg.szwego.com/20240322/i1711103427_5667_3.jpg","https://xcimg.szwego.com/20240322/i1711103427_466_4.jpg","https://xcimg.szwego.com/20240322/i1711103427_2481_5.jpg","https://xcimg.szwego.com/20240322/i1711103427_2540_6.jpg","https://xcimg.szwego.com/20240322/i1711103427_7910_7.jpg","https://xcimg.szwego.com/20240322/i1711103427_5596_8.jpg"],"created_at":"2024-04-30T06:41:23.016Z"},{"id":"item-ec7f8c5f171e","sku":"_dPqPqL7_MsbSuYWnnJEIWqX1_e2-9BpXu5sT18A","name_en":"M47142新版蓝 M46613 枣红","name_cn":"M47142新版蓝 M46613 枣红\nM44881杏色M41487黑色\n实拍组合图","specs":{"source":"wsxcme","sourceId":"_dPqPqL7_MsbSuYWnnJEIWqX1_e2-9BpXu5sT18A","sourceTagId":47002622,"sourceTagName":"LV/女包","rawTitle":"M47142新版蓝 M46613 枣红\nM44881杏色M41487黑色\n实拍组合图"},"price":null,"currency":"CNY","moq":1,"category":"lv-women-bags","status":"active","alibaba_url":null,"images":["https://xcimg.szwego.com/img/a3cc9079/20240808/i1723095889_9184_0.jpg"],"created_at":"2025-09-19T03:37:50.070Z"},{"id":"item-735564d0ca3a","sku":"_dknkndTaEGStUAWptRTaIFJNmD-oq6i2s2gS9YQ","name_en":"M47149(菱形纹变码芯片特级全钢)专柜同步电子芯片,手机实拍 认准大厂货 统一独家内码跟品质  尺寸28*20*11cm配视频包装一套","name_cn":"M47149(菱形纹变码芯片特级全钢)专柜同步电子芯片,手机实拍 认准大厂货 统一独家内码跟品质  尺寸28*20*11cm配视频包装一套","specs":{"source":"wsxcme","sourceId":"_dknkndTaEGStUAWptRTaIFJNmD-oq6i2s2gS9YQ","sourceTagId":47002622,"sourceTagName":"LV/女包","dimensions":{"lengthCm":28,"heightCm":20,"widthCm":11},"rawTitle":"M47149(菱形纹变码芯片特级全钢)专柜同步电子芯片,手机实拍 认准大厂货 统一独家内码跟品质  尺寸28*20*11cm配视频包装一套"},"price":null,"currency":"CNY","moq":1,"category":"lv-women-bags","status":"active","alibaba_url":null,"images":["https://xcimg.szwego.com/img/2038732d/20240519/i1716057518_7914_7.jpg","https://xcimg.szwego.com/img/2038732d/20240519/i1716057517_5853_1.jpg","https://xcimg.szwego.com/img/2038732d/20240519/i1716057518_1670_4.jpg","https://xcimg.szwego.com/img/2038732d/20240519/i1716057517_3854_2.jpg","https://xcimg.szwego.com/img/2038732d/20240519/i1716057518_3289_5.jpg","https://xcimg.szwego.com/img/2038732d/20240519/i1716057518_5504_6.jpg","https://xcimg.szwego.com/img/2038732d/20240519/i1716057517_6263_0.jpg","https://xcimg.szwego.com/img/2038732d/20240519/i1716057518_8502_3.jpg"],"created_at":"2024-08-04T12:53:22.719Z"},{"id":"item-88d4e1ae3e54","sku":"_diXiX_YiM30hvUjqIh6IpdFNiEKy-yG9O2Mcl9g","name_en":"M47164","name_cn":"M47164\n\nPetite Valise 手袋此次以 Monogram Reverse 帆布搭配牛皮革饰边,演绎品牌经典手提箱的袖珍版本。顶部手柄彰显柔美韵致。\n\n22.5 x 17.5 x 11 厘米\n(长度 x 高 x 宽)","specs":{"source":"wsxcme","sourceId":"_diXiX_YiM30hvUjqIh6IpdFNiEKy-yG9O2Mcl9g","sourceTagId":47002622,"sourceTagName":"LV/女包","rawTitle":"M47164\n\nPetite Valise 手袋此次以 Monogram Reverse 帆布搭配牛皮革饰边,演绎品牌经典手提箱的袖珍版本。顶部手柄彰显柔美韵致。\n\n22.5 x 17.5 x 11 厘米\n(长度 x 高 x 宽)"},"price":null,"currency":"CNY","moq":1,"category":"lv-women-bags","status":"active","alibaba_url":null,"images":["https://xcimg.szwego.com/img/7614f4cd/20240823/i1724390547_8119_6.jpg","https://xcimg.szwego.com/img/7614f4cd/20240823/i1724390547_1553_2.jpg","https://xcimg.szwego.com/img/7614f4cd/20240823/i1724390547_9401_4.jpg","https://xcimg.szwego.com/img/7614f4cd/20240823/i1724390547_9431_0.jpg","https://xcimg.szwego.com/img/7614f4cd/20240823/i1724390547_7452_5.jpg","https://xcimg.szwego.com/img/7614f4cd/20240823/i1724390547_1188_3.jpg","https://xcimg.szwego.com/img/7614f4cd/20240823/i1724390547_9035_1.jpg","https://xcimg.szwego.com/img/7614f4cd/20240823/i1724390547_2553_7.jpg","https://xcimg.szwego.com/img/7614f4cd/20240823/i1724390547_7867_8.jpg"],"created_at":"2025-01-20T12:23:05.569Z"}],"page":40,"pageSize":24,"total":1177,"totalPages":50}
