{"items":[{"id":"item-dd7255db2539","sku":"_dDjDjRqnvo_F81tyQFnnDP3YanIn3yEcRIXrYaQ","name_en":"Bvlgari Women Bags","name_cn":"现货随拍上身图~","specs":{"source":"wsxcme","sourceId":"_dDjDjRqnvo_F81tyQFnnDP3YanIn3yEcRIXrYaQ","sourceTagId":47002756,"sourceTagName":"宝格丽/女包","rawTitle":"现货随拍上身图~"},"price":null,"currency":"CNY","moq":1,"category":"bvlgari-women-bags","status":"active","alibaba_url":null,"images":["https://xcimg.szwego.com/20230329/i1680069417_549_0.jpg","https://xcimg.szwego.com/20230329/i1680069417_7001_1.jpg","https://xcimg.szwego.com/20230329/i1680069417_1210_2.jpg","https://xcimg.szwego.com/20230329/i1680069417_4227_3.jpg"],"created_at":"2024-09-27T06:51:04.151Z"},{"id":"item-1ae506712554","sku":"_d6Z6ZoUJkHwCTxhARg8e4kpTvgNUnhu2nkROtCw","name_en":"Bvlgari Women Bags","name_cn":"上身效果➕容量","specs":{"source":"wsxcme","sourceId":"_d6Z6ZoUJkHwCTxhARg8e4kpTvgNUnhu2nkROtCw","sourceTagId":47002756,"sourceTagName":"宝格丽/女包","rawTitle":"上身效果➕容量"},"price":null,"currency":"CNY","moq":1,"category":"bvlgari-women-bags","status":"active","alibaba_url":null,"images":["https://xcimg.szwego.com/20230329/i1680069864_3966_0.jpg","https://xcimg.szwego.com/20230329/i1680069864_9890_1.jpg","https://xcimg.szwego.com/20230329/i1680069864_2913_2.jpg"],"created_at":"2024-09-27T06:51:04.150Z"},{"id":"item-b1f24f5ebcf7","sku":"_dsvsvGvNWUDyxfL9IHNdcfE_A5bNAVaMWLnJ8mA","name_en":"Bvlgari Women Bags","name_cn":"温婉灵俏,尽展华美珣丽的夺目风采","specs":{"source":"wsxcme","sourceId":"_dsvsvGvNWUDyxfL9IHNdcfE_A5bNAVaMWLnJ8mA","sourceTagId":47002756,"sourceTagName":"宝格丽/女包","rawTitle":"温婉灵俏,尽展华美珣丽的夺目风采"},"price":null,"currency":"CNY","moq":1,"category":"bvlgari-women-bags","status":"active","alibaba_url":null,"images":["https://xcimg.szwego.com/20230329/i1680069525_9481_0.jpg","https://xcimg.szwego.com/20230329/i1680069525_7031_1.jpg","https://xcimg.szwego.com/20230329/i1680069525_3652_2.jpg"],"created_at":"2024-09-27T06:51:04.149Z"},{"id":"item-57cc95efeb8b","sku":"_dlIlIqIo_A1lfSXJFiZA0nribCmGFdXcPhLZHsA","name_en":"Bvlgari Women Bags","name_cn":"正品级\n  “SERPENTI CABOCHON”系列迷你斜挎包采用别具魅力的大号图形图案和大胆的金属质感细节,以精致实用的独特设计和现代风格绽放SERPENTI世界璀璨光芒。\n此款手袋配备可调节和可拆卸的皮革肩带,可用作手提包或手拿包,实现多变百搭功能,日夜皆宜。\n超小号,设一个收纳层和一个卡位。镌刻BVLGARI宝格丽品牌标识的内侧金属铭牌。\n型号:291085\n尺寸:18 X 12 X 8 厘米","specs":{"source":"wsxcme","sourceId":"_dlIlIqIo_A1lfSXJFiZA0nribCmGFdXcPhLZHsA","sourceTagId":47002756,"sourceTagName":"宝格丽/女包","modelNumber":"291085","dimensions":{"lengthCm":18,"heightCm":12,"widthCm":8},"rawTitle":"正品级\n  “SERPENTI CABOCHON”系列迷你斜挎包采用别具魅力的大号图形图案和大胆的金属质感细节,以精致实用的独特设计和现代风格绽放SERPENTI世界璀璨光芒。\n此款手袋配备可调节和可拆卸的皮革肩带,可用作手提包或手拿包,实现多变百搭功能,日夜皆宜。\n超小号,设一个收纳层和一个卡位。镌刻BVLGARI宝格丽品牌标识的内侧金属铭牌。\n型号:291085\n尺寸:18 X 12 X 8 厘米"},"price":null,"currency":"CNY","moq":1,"category":"bvlgari-women-bags","status":"active","alibaba_url":null,"images":["https://xcimg.szwego.com/20230329/i1680069373_6346_0.jpg","https://xcimg.szwego.com/20230329/i1680069373_319_1.jpg","https://xcimg.szwego.com/20230329/i1680069373_8144_2.jpg","https://xcimg.szwego.com/20230329/i1680069373_8541_3.jpg","https://xcimg.szwego.com/20230329/i1680069373_7666_4.jpg","https://xcimg.szwego.com/20230329/i1680069373_2812_5.jpg","https://xcimg.szwego.com/20230329/i1680069373_832_6.jpg","https://xcimg.szwego.com/20230329/i1680069373_4395_7.jpg","https://xcimg.szwego.com/20230329/i1680069373_6010_8.jpg"],"created_at":"2024-09-27T06:51:04.148Z"},{"id":"item-b7c3b913e986","sku":"_dk3k3ZBu4OKPQ5w5XvoZGLJMLfVsi8HVrMdJHjg","name_en":"Bvlgari Women Bags","name_cn":"随拍上身图~","specs":{"source":"wsxcme","sourceId":"_dk3k3ZBu4OKPQ5w5XvoZGLJMLfVsi8HVrMdJHjg","sourceTagId":47002756,"sourceTagName":"宝格丽/女包","rawTitle":"随拍上身图~"},"price":null,"currency":"CNY","moq":1,"category":"bvlgari-women-bags","status":"active","alibaba_url":null,"images":["https://xcimg.szwego.com/20230329/i1680068700_2603_0.jpg","https://xcimg.szwego.com/20230329/i1680068700_8185_1.jpg","https://xcimg.szwego.com/20230329/i1680068700_8172_2.jpg","https://xcimg.szwego.com/20230329/i1680068700_3729_3.jpg"],"created_at":"2024-09-27T06:51:04.147Z"},{"id":"item-a3ec72b5b734","sku":"_dkTkTILue5r4s7QDLclD-wiJUhm-R2bTVtjEN6A","name_en":"Bvlgari Women Bags","name_cn":"专柜图","specs":{"source":"wsxcme","sourceId":"_dkTkTILue5r4s7QDLclD-wiJUhm-R2bTVtjEN6A","sourceTagId":47002756,"sourceTagName":"宝格丽/女包","rawTitle":"专柜图"},"price":null,"currency":"CNY","moq":1,"category":"bvlgari-women-bags","status":"active","alibaba_url":null,"images":["https://xcimg.szwego.com/20230329/i1680022318_761_0.jpg","https://xcimg.szwego.com/20230329/i1680022318_8968_1.jpg"],"created_at":"2024-09-27T06:51:04.142Z"},{"id":"item-69d24c6990e9","sku":"_doOoOKQZ3X8KdQYmvUE9AVanfxGY1KRDlIVkSnA","name_en":"Bvlgari Women Bags","name_cn":"正品级\n  SERPENTI CABOCHON”系列迷你斜挎包采用别具魅力的大号图形图案和大胆的金属质感细节,以精致实用的独特设计和现代风格绽放SERPENTI世界璀璨光芒。\n此款手袋配备可调节和可拆卸的皮革肩带,可用作手提包或手拿包,实现多变百搭功能,日夜皆宜。\n超小号,设一个收纳层和一个卡位。镌刻BVLGARI宝格丽品牌标识的内侧金属铭牌。\n型号:291085\n尺寸:18 X 12 X 8 厘米","specs":{"source":"wsxcme","sourceId":"_doOoOKQZ3X8KdQYmvUE9AVanfxGY1KRDlIVkSnA","sourceTagId":47002756,"sourceTagName":"宝格丽/女包","modelNumber":"291085","dimensions":{"lengthCm":18,"heightCm":12,"widthCm":8},"rawTitle":"正品级\n  SERPENTI CABOCHON”系列迷你斜挎包采用别具魅力的大号图形图案和大胆的金属质感细节,以精致实用的独特设计和现代风格绽放SERPENTI世界璀璨光芒。\n此款手袋配备可调节和可拆卸的皮革肩带,可用作手提包或手拿包,实现多变百搭功能,日夜皆宜。\n超小号,设一个收纳层和一个卡位。镌刻BVLGARI宝格丽品牌标识的内侧金属铭牌。\n型号:291085\n尺寸:18 X 12 X 8 厘米"},"price":null,"currency":"CNY","moq":1,"category":"bvlgari-women-bags","status":"active","alibaba_url":null,"images":["https://xcimg.szwego.com/20230329/i1680022145_8530_0.jpg","https://xcimg.szwego.com/20230329/i1680022145_6205_1.jpg","https://xcimg.szwego.com/20230329/i1680022145_6238_2.jpg","https://xcimg.szwego.com/20230329/i1680022145_3043_3.jpg","https://xcimg.szwego.com/20230329/i1680022145_6918_4.jpg","https://xcimg.szwego.com/20230329/i1680022145_7271_5.jpg","https://xcimg.szwego.com/20230329/i1680022145_3244_6.jpg","https://xcimg.szwego.com/20230329/i1680022145_1658_7.jpg","https://xcimg.szwego.com/20230329/i1680022145_4572_8.jpg"],"created_at":"2024-09-27T06:51:04.140Z"},{"id":"item-c93f60bd564b","sku":"_dvkvkFhUiPAqFcZcMtpx_N7kiGY61ICBP3-2X-w","name_en":"Bvlgari Women Bags","name_cn":"合集❤️","specs":{"source":"wsxcme","sourceId":"_dvkvkFhUiPAqFcZcMtpx_N7kiGY61ICBP3-2X-w","sourceTagId":47002756,"sourceTagName":"宝格丽/女包","rawTitle":"合集❤️"},"price":null,"currency":"CNY","moq":1,"category":"bvlgari-women-bags","status":"active","alibaba_url":null,"images":["https://xcimg.szwego.com/20230418/i1681812978_7263_0.jpg","https://xcimg.szwego.com/20230418/i1681812978_835_1.jpg","https://xcimg.szwego.com/20230803/i1691051548_9162_0.jpg","https://xcimg.szwego.com/20230803/i1691051562_3934_0.jpg"],"created_at":"2024-09-27T06:51:04.137Z"},{"id":"item-8ffd434e60ea","sku":"_dyXyXOOSkiJjLIC3OV0bGIJkpOOGjEtFzZRb2iw","name_en":"25cm  VS   19cm","name_cn":"25cm  VS   19cm","specs":{"source":"wsxcme","sourceId":"_dyXyXOOSkiJjLIC3OV0bGIJkpOOGjEtFzZRb2iw","sourceTagId":47002756,"sourceTagName":"宝格丽/女包","rawTitle":"25cm  VS   19cm"},"price":null,"currency":"CNY","moq":1,"category":"bvlgari-women-bags","status":"active","alibaba_url":null,"images":["https://xcimg.szwego.com/20230418/i1681812757_2309_0.jpg"],"created_at":"2024-09-27T06:51:04.136Z"},{"id":"item-f6a2ba9b0ffb","sku":"_d_R_RLoF1z6V0j96mjqyGc6KFUxdqhxuuuRK18Q","name_en":"Bvlgari Women Bags","name_cn":"正品级\nBVLGARISERPENTIFOREVER斜挎包\n型号:289676\n尺寸:19-13-7cm\n全新“Serpenti Forever”系列斜挎包彰显都市风格,时尚多变,为Serpenti世界增添别具一格的潮流时尚感。这款包袋采用蜜桃色小牛皮材质,搭配浅金镀金黄铜配饰。黑色和白玛瑙色珐琅和绿色孔雀石感性双眼,将经典蛇首搭扣点缀得魅惑迷人。可调节的蛇形链条和皮革肩带,轻松配搭时尚日装。小号,两个隔层,一面可个性化定制的精巧化妆镜。一个不可拆卸的信用卡夹,一个敞口口袋,一个拉链口袋和两个外部口袋。","specs":{"source":"wsxcme","sourceId":"_d_R_RLoF1z6V0j96mjqyGc6KFUxdqhxuuuRK18Q","sourceTagId":47002756,"sourceTagName":"宝格丽/女包","modelNumber":"289676","rawTitle":"正品级\nBVLGARISERPENTIFOREVER斜挎包\n型号:289676\n尺寸:19-13-7cm\n全新“Serpenti Forever”系列斜挎包彰显都市风格,时尚多变,为Serpenti世界增添别具一格的潮流时尚感。这款包袋采用蜜桃色小牛皮材质,搭配浅金镀金黄铜配饰。黑色和白玛瑙色珐琅和绿色孔雀石感性双眼,将经典蛇首搭扣点缀得魅惑迷人。可调节的蛇形链条和皮革肩带,轻松配搭时尚日装。小号,两个隔层,一面可个性化定制的精巧化妆镜。一个不可拆卸的信用卡夹,一个敞口口袋,一个拉链口袋和两个外部口袋。"},"price":null,"currency":"CNY","moq":1,"category":"bvlgari-women-bags","status":"active","alibaba_url":null,"images":["https://xcimg.szwego.com/20230418/i1681812529_5369_0.jpg","https://xcimg.szwego.com/20230418/i1681812529_6333_1.jpg","https://xcimg.szwego.com/20230418/i1681812529_6632_2.jpg","https://xcimg.szwego.com/20230418/i1681812529_6432_3.jpg","https://xcimg.szwego.com/20230418/i1681812529_6985_4.jpg","https://xcimg.szwego.com/20230418/i1681812529_8620_5.jpg","https://xcimg.szwego.com/20230418/i1681812529_6754_6.jpg","https://xcimg.szwego.com/20230418/i1681812529_3660_7.jpg","https://xcimg.szwego.com/20230418/i1681812529_3230_8.jpg"],"created_at":"2024-09-27T06:51:04.135Z"},{"id":"item-d0588a49bf43","sku":"_duOuO2NORhhwvjqpozctPLvQ3EG_JRt0YVe2F3w","name_en":"Bvlgari Women Bags","name_cn":"正品级\nBVLGARISERPENTIFOREVER\n斜挎包\n型号:29032\n尺寸:25-17-8cm\n全新“Serpenti Forever”系列斜挎包彰显都市风格,时尚多变,为Serpenti世界增添别具一格的潮流时尚感。这款包袋采用蜜桃色小牛皮材质,搭配浅金镀金黄铜配饰。黑色和白玛瑙色珐琅和绿色孔雀石感性双眼,将经典蛇首搭扣点缀得魅惑迷人。可调节的蛇形链条和皮革肩带,轻松配搭时尚日装。中号,两个收纳层和一面小化妆镜。一个敞口口袋,一个拉链口袋和两个外部口袋。","specs":{"source":"wsxcme","sourceId":"_duOuO2NORhhwvjqpozctPLvQ3EG_JRt0YVe2F3w","sourceTagId":47002756,"sourceTagName":"宝格丽/女包","modelNumber":"29032","rawTitle":"正品级\nBVLGARISERPENTIFOREVER\n斜挎包\n型号:29032\n尺寸:25-17-8cm\n全新“Serpenti Forever”系列斜挎包彰显都市风格,时尚多变,为Serpenti世界增添别具一格的潮流时尚感。这款包袋采用蜜桃色小牛皮材质,搭配浅金镀金黄铜配饰。黑色和白玛瑙色珐琅和绿色孔雀石感性双眼,将经典蛇首搭扣点缀得魅惑迷人。可调节的蛇形链条和皮革肩带,轻松配搭时尚日装。中号,两个收纳层和一面小化妆镜。一个敞口口袋,一个拉链口袋和两个外部口袋。"},"price":null,"currency":"CNY","moq":1,"category":"bvlgari-women-bags","status":"active","alibaba_url":null,"images":["https://xcimg.szwego.com/20230418/i1681812300_8061_0.jpg","https://xcimg.szwego.com/20230418/i1681812300_3482_1.jpg","https://xcimg.szwego.com/20230418/i1681812300_7944_2.jpg","https://xcimg.szwego.com/20230418/i1681812300_757_3.jpg","https://xcimg.szwego.com/20230418/i1681812300_3095_4.jpg","https://xcimg.szwego.com/20230418/i1681812300_9736_5.jpg","https://xcimg.szwego.com/20230418/i1681812300_4030_6.jpg","https://xcimg.szwego.com/20230418/i1681812300_5551_7.jpg","https://xcimg.szwego.com/20230418/i1681812300_1956_8.jpg"],"created_at":"2024-09-27T06:51:04.134Z"},{"id":"item-c59472d4db7b","sku":"_dbzbzbemy7XphmKwmf77qn5Co_FCG4_kJ1kJsgQ","name_en":"Bvlgari Women Bags","name_cn":"宝格丽/女包","specs":{"source":"wsxcme","sourceId":"_dbzbzbemy7XphmKwmf77qn5Co_FCG4_kJ1kJsgQ","sourceTagId":47002756,"sourceTagName":"宝格丽/女包","rawTitle":""},"price":null,"currency":"CNY","moq":1,"category":"bvlgari-women-bags","status":"active","alibaba_url":null,"images":["https://xcimg.szwego.com/20230418/i1681811537_6824_0.jpg"],"created_at":"2024-09-27T06:51:04.128Z"},{"id":"item-444c3803ed2f","sku":"_d_L_L2tOwcIH0bC6cFRCtt02Gf0uD4EYIierCmw","name_en":"什么是快乐星球~~唯有白色宝格丽chi chi.","name_cn":"什么是快乐星球~~唯有白色宝格丽chi chi.      \n\n25cm双层现货","specs":{"source":"wsxcme","sourceId":"_d_L_L2tOwcIH0bC6cFRCtt02Gf0uD4EYIierCmw","sourceTagId":47002756,"sourceTagName":"宝格丽/女包","rawTitle":"什么是快乐星球~~唯有白色宝格丽chi chi.      \n\n25cm双层现货"},"price":null,"currency":"CNY","moq":1,"category":"bvlgari-women-bags","status":"active","alibaba_url":null,"images":["https://xcimg.szwego.com/20230418/i1681811483_6652_0.jpg","https://xcimg.szwego.com/20230418/i1681811483_7428_1.jpg","https://xcimg.szwego.com/20230418/i1681811483_7348_2.jpg"],"created_at":"2024-09-27T06:51:04.127Z"},{"id":"item-c39621d6fb2f","sku":"_dtBtB3ugQ-jOUoHCTjU5s0UAnX7cLHQDYeZ8jgg","name_en":"Bvlgari❤新款手袋肩包,五个颜色现货~","name_cn":"Bvlgari❤新款手袋肩包,五个颜色现货~","specs":{"source":"wsxcme","sourceId":"_dtBtB3ugQ-jOUoHCTjU5s0UAnX7cLHQDYeZ8jgg","sourceTagId":47002756,"sourceTagName":"宝格丽/女包","rawTitle":"Bvlgari❤新款手袋肩包,五个颜色现货~"},"price":null,"currency":"CNY","moq":1,"category":"bvlgari-women-bags","status":"active","alibaba_url":null,"images":["https://xcimg.szwego.com/20220602/i1654155853_9034_0.jpg","https://xcimg.szwego.com/20220614/i1655186704_6477_0.jpg","https://xcimg.szwego.com/20220602/i1654155853_4539_1.jpg","https://xcimg.szwego.com/20220602/i1654155853_9177_2.jpg","https://xcimg.szwego.com/20230807/i1691392697_8171_0.jpg"],"created_at":"2024-09-27T06:51:04.125Z"},{"id":"item-569473646974","sku":"_dnHnH-2iF5ldjr6G8lWeE36IPwU9lPGxw7vKD_g","name_en":"Bvlgari Women Bags","name_cn":"正品级\n. 🆕SERPENTI FOREVER EAST-WEST系列小号肩包❤\n采用白色小牛皮材质,以时尚前卫的造型演绎隽永经典的风尚。\n作品搭配实用皮革肩带,饰以经典蛇首磁扣,其魅惑迷人的鳞片与设计从1960年代的SERPENTI系列珠宝中汲取灵感,适合日常佩戴。设有单个隔层,一个正面口袋,一个背面拼接口袋,一个内部绗缝线口袋,三个卡位,一面可个性化定制化妆镜,背面饰BULGARI宝格丽金属标识。\n\n\n尺寸:22 X 15 X 4.5 厘米\n型号:292104","specs":{"source":"wsxcme","sourceId":"_dnHnH-2iF5ldjr6G8lWeE36IPwU9lPGxw7vKD_g","sourceTagId":47002756,"sourceTagName":"宝格丽/女包","modelNumber":"292104","dimensions":{"lengthCm":22,"heightCm":15,"widthCm":4.5},"rawTitle":"正品级\n. 🆕SERPENTI FOREVER EAST-WEST系列小号肩包❤\n采用白色小牛皮材质,以时尚前卫的造型演绎隽永经典的风尚。\n作品搭配实用皮革肩带,饰以经典蛇首磁扣,其魅惑迷人的鳞片与设计从1960年代的SERPENTI系列珠宝中汲取灵感,适合日常佩戴。设有单个隔层,一个正面口袋,一个背面拼接口袋,一个内部绗缝线口袋,三个卡位,一面可个性化定制化妆镜,背面饰BULGARI宝格丽金属标识。\n\n\n尺寸:22 X 15 X 4.5 厘米\n型号:292104"},"price":null,"currency":"CNY","moq":1,"category":"bvlgari-women-bags","status":"active","alibaba_url":null,"images":["https://xcimg.szwego.com/20230807/i1691392455_3722_0.jpg","https://xcimg.szwego.com/20230807/i1691392455_8500_1.jpg","https://xcimg.szwego.com/20230807/i1691392455_9767_2.jpg","https://xcimg.szwego.com/20230807/i1691392455_1885_3.jpg","https://xcimg.szwego.com/20230807/i1691392455_3929_4.jpg","https://xcimg.szwego.com/20230807/i1691392455_7250_5.jpg","https://xcimg.szwego.com/20230807/i1691392455_1281_6.jpg","https://xcimg.szwego.com/20230807/i1691392455_1340_7.jpg","https://xcimg.szwego.com/20230807/i1691392455_6682_8.jpg"],"created_at":"2024-09-27T06:51:04.122Z"},{"id":"item-1b79cee857c2","sku":"_dxkxkb3TMmT5PTuHxQLDf09tPdx0EzvZHfZt4-w","name_en":"Bvlgari Women Bags","name_cn":"宝格丽/女包","specs":{"source":"wsxcme","sourceId":"_dxkxkb3TMmT5PTuHxQLDf09tPdx0EzvZHfZt4-w","sourceTagId":47002756,"sourceTagName":"宝格丽/女包","rawTitle":""},"price":null,"currency":"CNY","moq":1,"category":"bvlgari-women-bags","status":"active","alibaba_url":null,"images":["https://xcimg.szwego.com/20220614/i1655186362_8065_0.jpg"],"created_at":"2024-09-27T06:51:04.121Z"},{"id":"item-d050c5e3a706","sku":"_duuuuQpj38L6z9v4rsRl2xs9DhWfXoh_igG1Mbw","name_en":"Bvlgari Women Bags","name_cn":"轻松驾驭多种风格","specs":{"source":"wsxcme","sourceId":"_duuuuQpj38L6z9v4rsRl2xs9DhWfXoh_igG1Mbw","sourceTagId":47002756,"sourceTagName":"宝格丽/女包","rawTitle":"轻松驾驭多种风格"},"price":null,"currency":"CNY","moq":1,"category":"bvlgari-women-bags","status":"active","alibaba_url":null,"images":["https://xcimg.szwego.com/20221220/i1671550783_6493_0.jpg"],"created_at":"2024-09-27T06:51:04.120Z"},{"id":"item-8b627c449f84","sku":"_do_o_r3esZ0lG8_GOc_mesPrj0hgAQ1_bw0ebqw","name_en":"Bvlgari Women Bags","name_cn":"白色#上身图\n\n\n\n\n\n\n\n型号:292104","specs":{"source":"wsxcme","sourceId":"_do_o_r3esZ0lG8_GOc_mesPrj0hgAQ1_bw0ebqw","sourceTagId":47002756,"sourceTagName":"宝格丽/女包","modelNumber":"292104","rawTitle":"白色#上身图\n\n\n\n\n\n\n\n型号:292104"},"price":null,"currency":"CNY","moq":1,"category":"bvlgari-women-bags","status":"active","alibaba_url":null,"images":["https://xcimg.szwego.com/20220614/i1655186402_7921_0.jpg","https://xcimg.szwego.com/20220614/i1655186402_3839_1.jpg","https://xcimg.szwego.com/20220614/i1655186402_9709_2.jpg"],"created_at":"2024-09-27T06:51:04.119Z"},{"id":"item-79c14566e04a","sku":"_dlclcrDi6ZL3gqVk1XM7n_3QQBfVyA_tBt7Yj6A","name_en":"Bvlgari Women Bags","name_cn":"正品级 \n🆕SERPENTI FOREVER EAST-WEST系列小号肩包❤\n采用白色小牛皮材质,以时尚前卫的造型演绎隽永经典的风尚。\n作品搭配实用皮革肩带,饰以经典蛇首磁扣,其魅惑迷人的鳞片与设计从1960年代的SERPENTI系列珠宝中汲取灵感,适合日常佩戴。设有单个隔层,一个正面口袋,一个背面拼接口袋,一个内部绗缝线口袋,三个卡位,一面可个性化定制化妆镜,背面饰BULGARI宝格丽金属标识。\n\n\n尺寸:22 X 15 X 4.5 厘米\n型号:292104","specs":{"source":"wsxcme","sourceId":"_dlclcrDi6ZL3gqVk1XM7n_3QQBfVyA_tBt7Yj6A","sourceTagId":47002756,"sourceTagName":"宝格丽/女包","modelNumber":"292104","dimensions":{"lengthCm":22,"heightCm":15,"widthCm":4.5},"rawTitle":"正品级 \n🆕SERPENTI FOREVER EAST-WEST系列小号肩包❤\n采用白色小牛皮材质,以时尚前卫的造型演绎隽永经典的风尚。\n作品搭配实用皮革肩带,饰以经典蛇首磁扣,其魅惑迷人的鳞片与设计从1960年代的SERPENTI系列珠宝中汲取灵感,适合日常佩戴。设有单个隔层,一个正面口袋,一个背面拼接口袋,一个内部绗缝线口袋,三个卡位,一面可个性化定制化妆镜,背面饰BULGARI宝格丽金属标识。\n\n\n尺寸:22 X 15 X 4.5 厘米\n型号:292104"},"price":null,"currency":"CNY","moq":1,"category":"bvlgari-women-bags","status":"active","alibaba_url":null,"images":["https://xcimg.szwego.com/20220614/i1655186325_6965_0.jpg","https://xcimg.szwego.com/20220614/i1655186325_462_1.jpg","https://xcimg.szwego.com/20220614/i1655186325_3761_2.jpg","https://xcimg.szwego.com/20220614/i1655186325_6715_3.jpg","https://xcimg.szwego.com/20220614/i1655186325_1996_4.jpg","https://xcimg.szwego.com/20220614/i1655186325_1039_5.jpg","https://xcimg.szwego.com/20220614/i1655186325_1686_6.jpg","https://xcimg.szwego.com/20220614/i1655186325_2213_7.jpg","https://xcimg.szwego.com/20220614/i1655186325_521_8.jpg"],"created_at":"2024-09-27T06:51:04.118Z"},{"id":"item-0aa7e8043a71","sku":"_dvdvdcaX_iZnc9lQOJqA2X4qgRKRW6ex_Gbwp7Q","name_en":"Bvlgari Women Bags","name_cn":"宝格丽/女包","specs":{"source":"wsxcme","sourceId":"_dvdvdcaX_iZnc9lQOJqA2X4qgRKRW6ex_Gbwp7Q","sourceTagId":47002756,"sourceTagName":"宝格丽/女包","rawTitle":""},"price":null,"currency":"CNY","moq":1,"category":"bvlgari-women-bags","status":"active","alibaba_url":null,"images":["https://xcimg.szwego.com/20220602/i1654155701_3369_0.jpg"],"created_at":"2024-09-27T06:51:04.117Z"},{"id":"item-f5dd303bf8e5","sku":"_dyhyho9llFD0UQl51GdFpqHlztp1N7evlMuOvQg","name_en":"Bvlgari Women Bags","name_cn":"黑色#上身图\n\n\n\n\n\n\n\n型号:292104","specs":{"source":"wsxcme","sourceId":"_dyhyho9llFD0UQl51GdFpqHlztp1N7evlMuOvQg","sourceTagId":47002756,"sourceTagName":"宝格丽/女包","modelNumber":"292104","rawTitle":"黑色#上身图\n\n\n\n\n\n\n\n型号:292104"},"price":null,"currency":"CNY","moq":1,"category":"bvlgari-women-bags","status":"active","alibaba_url":null,"images":["https://xcimg.szwego.com/20220602/i1654155756_3939_0.jpg","https://xcimg.szwego.com/20220602/i1654155756_9539_1.jpg","https://xcimg.szwego.com/20220602/i1654155756_770_2.jpg","https://xcimg.szwego.com/20220602/i1654155756_904_3.jpg","https://xcimg.szwego.com/20220602/i1654155756_1131_4.jpg","https://xcimg.szwego.com/20220602/i1654155756_521_5.jpg"],"created_at":"2024-09-27T06:51:04.116Z"},{"id":"item-7f9c80d26076","sku":"_db-b-FRzYnCi1bBN_O4qKxFD8iA5fExC2k4OoLw","name_en":"Bvlgari Women Bags","name_cn":"正品级\n🆕SERPENTI FOREVER EAST-WEST系列小号肩包❤\n采用黑色小牛皮材质,以时尚前卫的造型演绎隽永经典的风尚。\n作品搭配实用皮革肩带,饰以经典蛇首磁扣,其魅惑迷人的鳞片与设计从1960年代的SERPENTI系列珠宝中汲取灵感,适合日常佩戴。设有单个隔层,一个正面口袋,一个背面拼接口袋,一个内部绗缝线口袋,三个卡位,一面可个性化定制化妆镜,背面饰BULGARI宝格丽金属标识。\n\n\n尺寸:22 X 15 X 4.5 厘米\n型号:292104","specs":{"source":"wsxcme","sourceId":"_db-b-FRzYnCi1bBN_O4qKxFD8iA5fExC2k4OoLw","sourceTagId":47002756,"sourceTagName":"宝格丽/女包","modelNumber":"292104","dimensions":{"lengthCm":22,"heightCm":15,"widthCm":4.5},"rawTitle":"正品级\n🆕SERPENTI FOREVER EAST-WEST系列小号肩包❤\n采用黑色小牛皮材质,以时尚前卫的造型演绎隽永经典的风尚。\n作品搭配实用皮革肩带,饰以经典蛇首磁扣,其魅惑迷人的鳞片与设计从1960年代的SERPENTI系列珠宝中汲取灵感,适合日常佩戴。设有单个隔层,一个正面口袋,一个背面拼接口袋,一个内部绗缝线口袋,三个卡位,一面可个性化定制化妆镜,背面饰BULGARI宝格丽金属标识。\n\n\n尺寸:22 X 15 X 4.5 厘米\n型号:292104"},"price":null,"currency":"CNY","moq":1,"category":"bvlgari-women-bags","status":"active","alibaba_url":null,"images":["https://xcimg.szwego.com/20220602/i1654155600_8751_0.jpg","https://xcimg.szwego.com/20220602/i1654155600_4958_1.jpg","https://xcimg.szwego.com/20220602/i1654155600_4857_2.jpg","https://xcimg.szwego.com/20220602/i1654155600_3435_3.jpg","https://xcimg.szwego.com/20220602/i1654155600_7630_4.jpg","https://xcimg.szwego.com/20220602/i1654155600_7484_5.jpg","https://xcimg.szwego.com/20220602/i1654155600_996_6.jpg","https://xcimg.szwego.com/20220602/i1654155600_3184_7.jpg"],"created_at":"2024-09-27T06:51:04.115Z"},{"id":"item-c2a9c6ea3cda","sku":"_dglglpIOm7cULvCF8aq0KxRrXtAa1kswqBS-08Q","name_en":"Bvlgari Women Bags","name_cn":"宝格丽/女包","specs":{"source":"wsxcme","sourceId":"_dglglpIOm7cULvCF8aq0KxRrXtAa1kswqBS-08Q","sourceTagId":47002756,"sourceTagName":"宝格丽/女包","rawTitle":""},"price":null,"currency":"CNY","moq":1,"category":"bvlgari-women-bags","status":"active","alibaba_url":null,"images":["https://xcimg.szwego.com/20220602/i1654155196_5872_0.jpg"],"created_at":"2024-09-27T06:51:04.114Z"},{"id":"item-98642138c82d","sku":"_dASASY0EqFy_HFBILnWbKqCZ1tt_-7Y1u1c2-Ow","name_en":"Bvlgari Women Bags","name_cn":"粉色#上身图\n\n\n\n\n\n\n\n型号:292104","specs":{"source":"wsxcme","sourceId":"_dASASY0EqFy_HFBILnWbKqCZ1tt_-7Y1u1c2-Ow","sourceTagId":47002756,"sourceTagName":"宝格丽/女包","modelNumber":"292104","rawTitle":"粉色#上身图\n\n\n\n\n\n\n\n型号:292104"},"price":null,"currency":"CNY","moq":1,"category":"bvlgari-women-bags","status":"active","alibaba_url":null,"images":["https://xcimg.szwego.com/20220602/i1654155240_9557_0.jpg","https://xcimg.szwego.com/20220602/i1654155240_5487_1.jpg","https://xcimg.szwego.com/20220602/i1654155240_4108_2.jpg","https://xcimg.szwego.com/20220602/i1654155240_3345_3.jpg","https://xcimg.szwego.com/20220602/i1654155240_9171_4.jpg","https://xcimg.szwego.com/20220602/i1654155240_8123_5.jpg"],"created_at":"2024-09-27T06:51:04.113Z"}],"page":3,"pageSize":24,"total":97,"totalPages":5}
