{"items":[{"id":"item-56b4af6f3b0c","sku":"_d9o9ocelLAOsvi_QEdz27LJH3XMbc0dFfBHJxkg","name_en":"Bvlgari Women Bags","name_cn":"正品级\n🆕SERPENTI FOREVER EAST-WEST系列小号肩包❤\n采用粉色小牛皮材质,以时尚前卫的造型演绎隽永经典的风尚。\n作品搭配实用皮革肩带,饰以经典蛇首磁扣,其魅惑迷人的鳞片与设计从1960年代的SERPENTI系列珠宝中汲取灵感,适合日常佩戴。设有单个隔层,一个正面口袋,一个背面拼接口袋,一个内部绗缝线口袋,三个卡位,一面可个性化定制化妆镜,背面饰BULGARI宝格丽金属标识。\n\n\n尺寸:22 X 15 X 4.5 厘米\n型号:292104","specs":{"source":"wsxcme","sourceId":"_d9o9ocelLAOsvi_QEdz27LJH3XMbc0dFfBHJxkg","sourceTagId":47002756,"sourceTagName":"宝格丽/女包","modelNumber":"292104","dimensions":{"lengthCm":22,"heightCm":15,"widthCm":4.5},"rawTitle":"正品级\n🆕SERPENTI FOREVER EAST-WEST系列小号肩包❤\n采用粉色小牛皮材质,以时尚前卫的造型演绎隽永经典的风尚。\n作品搭配实用皮革肩带,饰以经典蛇首磁扣,其魅惑迷人的鳞片与设计从1960年代的SERPENTI系列珠宝中汲取灵感,适合日常佩戴。设有单个隔层,一个正面口袋,一个背面拼接口袋,一个内部绗缝线口袋,三个卡位,一面可个性化定制化妆镜,背面饰BULGARI宝格丽金属标识。\n\n\n尺寸:22 X 15 X 4.5 厘米\n型号:292104"},"price":null,"currency":"CNY","moq":1,"category":"bvlgari-women-bags","status":"active","alibaba_url":null,"images":["https://xcimg.szwego.com/20220602/i1654155161_5033_0.jpg","https://xcimg.szwego.com/20220602/i1654155161_5238_1.jpg","https://xcimg.szwego.com/20220602/i1654155161_6946_2.jpg","https://xcimg.szwego.com/20220602/i1654155161_3666_3.jpg","https://xcimg.szwego.com/20220602/i1654155161_297_4.jpg","https://xcimg.szwego.com/20220602/i1654155161_9646_5.jpg","https://xcimg.szwego.com/20220602/i1654155161_1307_6.jpg","https://xcimg.szwego.com/20220602/i1654155161_8292_7.jpg"],"created_at":"2024-09-27T06:51:04.112Z"},{"id":"item-0006bb901807","sku":"_di0i0A2YRUwnLCQ79hm8NxT3J7jmW6khJps1zUQ","name_en":"Bvlgari Women Bags","name_cn":"宝格丽/女包","specs":{"source":"wsxcme","sourceId":"_di0i0A2YRUwnLCQ79hm8NxT3J7jmW6khJps1zUQ","sourceTagId":47002756,"sourceTagName":"宝格丽/女包","rawTitle":""},"price":null,"currency":"CNY","moq":1,"category":"bvlgari-women-bags","status":"active","alibaba_url":null,"images":["https://xcimg.szwego.com/20220602/i1654154605_9573_0.jpg"],"created_at":"2024-09-27T06:51:04.111Z"},{"id":"item-356781d10994","sku":"_drIrIf-tqTpBvAgiPxwkgM3y0s0W9LXUW0wzBdw","name_en":"Bvlgari Women Bags","name_cn":"祖母绿#上身图\n\n\n\n\n\n\n\n型号:292104","specs":{"source":"wsxcme","sourceId":"_drIrIf-tqTpBvAgiPxwkgM3y0s0W9LXUW0wzBdw","sourceTagId":47002756,"sourceTagName":"宝格丽/女包","modelNumber":"292104","rawTitle":"祖母绿#上身图\n\n\n\n\n\n\n\n型号:292104"},"price":null,"currency":"CNY","moq":1,"category":"bvlgari-women-bags","status":"active","alibaba_url":null,"images":["https://xcimg.szwego.com/20220602/i1654154838_3173_0.jpg","https://xcimg.szwego.com/20220602/i1654154838_4860_1.jpg","https://xcimg.szwego.com/20220602/i1654154838_7088_2.jpg","https://xcimg.szwego.com/20220602/i1654154838_6631_3.jpg","https://xcimg.szwego.com/20220602/i1654154838_6338_4.jpg","https://xcimg.szwego.com/20220602/i1654154838_8152_5.jpg"],"created_at":"2024-09-27T06:51:04.110Z"},{"id":"item-3421699d2981","sku":"_df0f0Gbu0O5Of2E8cZCsG786ryGutEKD5RzPluA","name_en":"Bvlgari Women Bags","name_cn":"正品级\nSERPENTI FOREVER EAST-WEST系列小号肩包❤\n采用祖母绿小牛皮材质,以时尚前卫的造型演绎隽永经典的风尚。\n作品搭配实用皮革肩带,饰以经典蛇首磁扣,其魅惑迷人的鳞片与设计从1960年代的SERPENTI系列珠宝中汲取灵感,适合日常佩戴。设有单个隔层,一个正面口袋,一个背面拼接口袋,一个内部绗缝线口袋,三个卡位,一面可个性化定制化妆镜,背面饰BULGARI宝格丽金属标识。\n\n\n尺寸:22 X 15 X 4.5 厘米\n型号:292104","specs":{"source":"wsxcme","sourceId":"_df0f0Gbu0O5Of2E8cZCsG786ryGutEKD5RzPluA","sourceTagId":47002756,"sourceTagName":"宝格丽/女包","modelNumber":"292104","dimensions":{"lengthCm":22,"heightCm":15,"widthCm":4.5},"rawTitle":"正品级\nSERPENTI FOREVER EAST-WEST系列小号肩包❤\n采用祖母绿小牛皮材质,以时尚前卫的造型演绎隽永经典的风尚。\n作品搭配实用皮革肩带,饰以经典蛇首磁扣,其魅惑迷人的鳞片与设计从1960年代的SERPENTI系列珠宝中汲取灵感,适合日常佩戴。设有单个隔层,一个正面口袋,一个背面拼接口袋,一个内部绗缝线口袋,三个卡位,一面可个性化定制化妆镜,背面饰BULGARI宝格丽金属标识。\n\n\n尺寸:22 X 15 X 4.5 厘米\n型号:292104"},"price":null,"currency":"CNY","moq":1,"category":"bvlgari-women-bags","status":"active","alibaba_url":null,"images":["https://xcimg.szwego.com/20220602/i1654153818_8701_0.jpg","https://xcimg.szwego.com/20220602/i1654153818_9385_1.jpg","https://xcimg.szwego.com/20220602/i1654153818_7107_2.jpg","https://xcimg.szwego.com/20220602/i1654153818_9167_3.jpg","https://xcimg.szwego.com/20220602/i1654153818_8617_4.jpg","https://xcimg.szwego.com/20220602/i1654153818_540_5.jpg","https://xcimg.szwego.com/20220602/i1654153818_7148_6.jpg","https://xcimg.szwego.com/20220602/i1654153818_2249_7.jpg","https://xcimg.szwego.com/20220602/i1654153818_2626_8.jpg"],"created_at":"2024-09-27T06:51:04.109Z"},{"id":"item-9efc75d57b1b","sku":"_dwMwMm8vQeam3vNbcyrmtzYfYe5PecFZLPfrs6g","name_en":"Bvlgari Women Bags","name_cn":"~~~~~","specs":{"source":"wsxcme","sourceId":"_dwMwMm8vQeam3vNbcyrmtzYfYe5PecFZLPfrs6g","sourceTagId":47002756,"sourceTagName":"宝格丽/女包","rawTitle":"~~~~~"},"price":null,"currency":"CNY","moq":1,"category":"bvlgari-women-bags","status":"active","alibaba_url":null,"images":[],"created_at":"2024-09-27T06:51:04.108Z"},{"id":"item-cdb5d727a8ac","sku":"_d8f8f_vhvEQBb5NfpOdalvy_cg4tyHjopYPixnQ","name_en":"Bvlgari Women Bags","name_cn":"现货上身拍~","specs":{"source":"wsxcme","sourceId":"_d8f8f_vhvEQBb5NfpOdalvy_cg4tyHjopYPixnQ","sourceTagId":47002756,"sourceTagName":"宝格丽/女包","rawTitle":"现货上身拍~"},"price":null,"currency":"CNY","moq":1,"category":"bvlgari-women-bags","status":"active","alibaba_url":null,"images":["https://xcimg.szwego.com/20230803/i1691051271_7149_0.jpg","https://xcimg.szwego.com/20230803/i1691051271_817_1.jpg","https://xcimg.szwego.com/20230803/i1691051271_5677_2.jpg","https://xcimg.szwego.com/20230803/i1691051271_8960_3.jpg"],"created_at":"2024-09-27T06:51:04.107Z"},{"id":"item-aba8a54840e9","sku":"_dsisidC26fNpikDANhoBtxrIRDG73tRcYZ9UUqw","name_en":"Bvlgari Women Bags","name_cn":"更多细节~","specs":{"source":"wsxcme","sourceId":"_dsisidC26fNpikDANhoBtxrIRDG73tRcYZ9UUqw","sourceTagId":47002756,"sourceTagName":"宝格丽/女包","rawTitle":"更多细节~"},"price":null,"currency":"CNY","moq":1,"category":"bvlgari-women-bags","status":"active","alibaba_url":null,"images":["https://xcimg.szwego.com/20230803/i1691051238_8371_0.jpg","https://xcimg.szwego.com/20230803/i1691051238_128_1.jpg","https://xcimg.szwego.com/20230803/i1691051238_2939_2.jpg","https://xcimg.szwego.com/20230803/i1691051238_7296_3.jpg","https://xcimg.szwego.com/20230803/i1691051238_95_4.jpg","https://xcimg.szwego.com/20230803/i1691051238_5921_5.jpg"],"created_at":"2024-09-27T06:51:04.106Z"},{"id":"item-36290a8b4c54","sku":"_dqVqVDZyEfu4x-UJbXoQ8KDHeY6c0BJT77-lXFA","name_en":"Bvlgari Women Bags","name_cn":"正品级\nBVLGARISERPENTIFOREVER斜挎包\n型号:289676\n尺寸:19-13-7cm\n全新“Serpenti Forever”系列斜挎包彰显都市风格,时尚多变,为Serpenti世界增添别具一格的潮流时尚感。这款包袋采用蜜桃色小牛皮材质,搭配浅金镀金黄铜配饰。黑色和白玛瑙色珐琅和绿色孔雀石感性双眼,将经典蛇首搭扣点缀得魅惑迷人。可调节的蛇形链条和皮革肩带,轻松配搭时尚日装。小号,两个隔层,一面可个性化定制的精巧化妆镜。一个不可拆卸的信用卡夹,一个敞口口袋,一个拉链口袋和两个外部口袋","specs":{"source":"wsxcme","sourceId":"_dqVqVDZyEfu4x-UJbXoQ8KDHeY6c0BJT77-lXFA","sourceTagId":47002756,"sourceTagName":"宝格丽/女包","modelNumber":"289676","rawTitle":"正品级\nBVLGARISERPENTIFOREVER斜挎包\n型号:289676\n尺寸:19-13-7cm\n全新“Serpenti Forever”系列斜挎包彰显都市风格,时尚多变,为Serpenti世界增添别具一格的潮流时尚感。这款包袋采用蜜桃色小牛皮材质,搭配浅金镀金黄铜配饰。黑色和白玛瑙色珐琅和绿色孔雀石感性双眼,将经典蛇首搭扣点缀得魅惑迷人。可调节的蛇形链条和皮革肩带,轻松配搭时尚日装。小号,两个隔层,一面可个性化定制的精巧化妆镜。一个不可拆卸的信用卡夹,一个敞口口袋,一个拉链口袋和两个外部口袋"},"price":null,"currency":"CNY","moq":1,"category":"bvlgari-women-bags","status":"active","alibaba_url":null,"images":["https://xcimg.szwego.com/20230803/i1691051192_8861_0.jpg","https://xcimg.szwego.com/20230803/i1691051192_210_1.jpg","https://xcimg.szwego.com/20230803/i1691051192_8880_2.jpg","https://xcimg.szwego.com/20230803/i1691051192_9020_3.jpg","https://xcimg.szwego.com/20230803/i1691051192_7818_4.jpg","https://xcimg.szwego.com/20230803/i1691051192_9858_5.jpg","https://xcimg.szwego.com/20230803/i1691051192_2324_6.jpg","https://xcimg.szwego.com/20230803/i1691051192_4206_7.jpg","https://xcimg.szwego.com/20230803/i1691051192_920_8.jpg"],"created_at":"2024-09-27T06:51:04.105Z"},{"id":"item-6f4b151d5e40","sku":"_dJJJJWUiy0MVE_eeIIAp2-x00FBXi7xMI_fJ1EA","name_en":"Bvlgari Women Bags","name_cn":"王欧同款~","specs":{"source":"wsxcme","sourceId":"_dJJJJWUiy0MVE_eeIIAp2-x00FBXi7xMI_fJ1EA","sourceTagId":47002756,"sourceTagName":"宝格丽/女包","rawTitle":"王欧同款~"},"price":null,"currency":"CNY","moq":1,"category":"bvlgari-women-bags","status":"active","alibaba_url":null,"images":["https://xcimg.szwego.com/20230418/i1681812547_6608_0.jpg","https://xcimg.szwego.com/20230418/i1681812547_4039_1.jpg","https://xcimg.szwego.com/20230418/i1681812547_2922_2.jpg","https://xcimg.szwego.com/20230418/i1681812547_9345_3.jpg"],"created_at":"2024-09-27T06:51:04.104Z"},{"id":"item-c9fabb296575","sku":"_drTrTSrB3WIraCmd_FSWy3YHC6R05FCFlct_QFA","name_en":"Bvlgari Women Bags","name_cn":"每一个妖娆的美女都无法抗拒的一款。\n     \n\n25cm双层现货秒发","specs":{"source":"wsxcme","sourceId":"_drTrTSrB3WIraCmd_FSWy3YHC6R05FCFlct_QFA","sourceTagId":47002756,"sourceTagName":"宝格丽/女包","rawTitle":"每一个妖娆的美女都无法抗拒的一款。\n     \n\n25cm双层现货秒发"},"price":null,"currency":"CNY","moq":1,"category":"bvlgari-women-bags","status":"active","alibaba_url":null,"images":["https://xcimg.szwego.com/20230418/i1681812381_8552_0.jpg","https://xcimg.szwego.com/20230418/i1681812381_3867_1.jpg","https://xcimg.szwego.com/20230418/i1681812381_6422_2.jpg"],"created_at":"2024-09-27T06:51:04.103Z"},{"id":"item-a6cd26a9de53","sku":"_dMMMMFYQfaKPQJjOMA3Gm7ecLFqgml3kQKcvbQA","name_en":"Bvlgari Women Bags","name_cn":"正品级\n  【BVLGAR*】💋Serpenti Forever 世界迎来又一佳作🌝,为 Serpenti家族增添光彩,使得这一系列更加丰富多姿。这款包袋采用白色小牛皮包身,两侧饰以白玛瑙色和粉晶色小牛皮,搭配浅金镀金黄铜配饰。白色和粉晶色珐琅搭配黑色缟玛瑙感性双眼,😊将经典蛇首搭扣点缀得魅惑迷人。\n手提包款式有三个收纳层,并搭配可拆卸可可调节、蜿蜒如蛇身的链条和皮革肩带,实现多变百搭功能。小号,拉链口袋,搭配一面小化妆镜。让你每时每刻都做个精致的猪猪女孩❤\nsize:22.5×18.5×11cm 型号: 289835","specs":{"source":"wsxcme","sourceId":"_dMMMMFYQfaKPQJjOMA3Gm7ecLFqgml3kQKcvbQA","sourceTagId":47002756,"sourceTagName":"宝格丽/女包","modelNumber":"289835","rawTitle":"正品级\n  【BVLGAR*】💋Serpenti Forever 世界迎来又一佳作🌝,为 Serpenti家族增添光彩,使得这一系列更加丰富多姿。这款包袋采用白色小牛皮包身,两侧饰以白玛瑙色和粉晶色小牛皮,搭配浅金镀金黄铜配饰。白色和粉晶色珐琅搭配黑色缟玛瑙感性双眼,😊将经典蛇首搭扣点缀得魅惑迷人。\n手提包款式有三个收纳层,并搭配可拆卸可可调节、蜿蜒如蛇身的链条和皮革肩带,实现多变百搭功能。小号,拉链口袋,搭配一面小化妆镜。让你每时每刻都做个精致的猪猪女孩❤\nsize:22.5×18.5×11cm 型号: 289835"},"price":null,"currency":"CNY","moq":1,"category":"bvlgari-women-bags","status":"active","alibaba_url":null,"images":["https://xcimg.szwego.com/20230511/i1683791296_5848_0.jpg","https://xcimg.szwego.com/20230511/i1683791296_2077_1.jpg","https://xcimg.szwego.com/20230511/i1683791296_4420_2.jpg","https://xcimg.szwego.com/20230511/i1683791296_8923_3.jpg","https://xcimg.szwego.com/20230511/i1683791296_8264_4.jpg","https://xcimg.szwego.com/20230511/i1683791296_4283_5.jpg","https://xcimg.szwego.com/20230511/i1683791296_3452_6.jpg","https://xcimg.szwego.com/20230511/i1683791296_8054_7.jpg","https://xcimg.szwego.com/20230511/i1683791296_4931_8.jpg"],"created_at":"2024-09-27T06:51:04.101Z"},{"id":"item-2a427d4e3324","sku":"_dF5F5ejTixv9pIQYOG807aDsNuZTytWjCbIRF9Q","name_en":"Bvlgari Women Bags","name_cn":"正品级\nSERPENTI  BAIA系列—颜值颇高的腋下包,配有两条可拆卸蛇形粗链及额外链条装置~可随性延长肩带,实现多种佩戴方式。配有羊皮小福袋,雨衣。\n尺寸:27.5x18 x3.5cm\n款号:293208","specs":{"source":"wsxcme","sourceId":"_dF5F5ejTixv9pIQYOG807aDsNuZTytWjCbIRF9Q","sourceTagId":47002756,"sourceTagName":"宝格丽/女包","modelNumber":"293208","dimensions":{"lengthCm":27.5,"heightCm":18,"widthCm":3.5},"rawTitle":"正品级\nSERPENTI  BAIA系列—颜值颇高的腋下包,配有两条可拆卸蛇形粗链及额外链条装置~可随性延长肩带,实现多种佩戴方式。配有羊皮小福袋,雨衣。\n尺寸:27.5x18 x3.5cm\n款号:293208"},"price":null,"currency":"CNY","moq":1,"category":"bvlgari-women-bags","status":"active","alibaba_url":null,"images":["https://xcimg.szwego.com/20230718/i1689689390_5382_0.jpg","https://xcimg.szwego.com/20230718/i1689689390_8794_1.jpg","https://xcimg.szwego.com/20230718/i1689689390_7775_2.jpg","https://xcimg.szwego.com/20230718/i1689689390_1015_3.jpg","https://xcimg.szwego.com/20230718/i1689689390_2652_4.jpg","https://xcimg.szwego.com/20230718/i1689689390_254_5.jpg","https://xcimg.szwego.com/20230718/i1689689390_2990_6.jpg","https://xcimg.szwego.com/20230718/i1689689390_7321_7.jpg","https://xcimg.szwego.com/20230718/i1689689390_7277_8.jpg"],"created_at":"2024-09-27T06:51:04.098Z"},{"id":"item-a6d28a379758","sku":"_dlRlRcTp3hZIrLWoH7-KVUA4pTzN9gK5eMcmzNQ","name_en":"Bvlgari Women Bags","name_cn":"正品级\n【Bvlgari 】宝格丽专柜热卖款 Serpenti Forever 手腕款风琴包 原单品质、拉丝银牛皮➕定制原单五金🎉🎉点缀serpenti珐琅浅金镀金蛇首形搭扣,🐏小羊皮内里🎀内里三格夹层简约实用满足你不同需求 \"雨衣、镜子、专柜礼盒包装、款号:38329 尺寸:20*16*9cm","specs":{"source":"wsxcme","sourceId":"_dlRlRcTp3hZIrLWoH7-KVUA4pTzN9gK5eMcmzNQ","sourceTagId":47002756,"sourceTagName":"宝格丽/女包","modelNumber":"38329 尺寸:20*16*9cm","dimensions":{"lengthCm":20,"heightCm":16,"widthCm":9},"rawTitle":"正品级\n【Bvlgari 】宝格丽专柜热卖款 Serpenti Forever 手腕款风琴包 原单品质、拉丝银牛皮➕定制原单五金🎉🎉点缀serpenti珐琅浅金镀金蛇首形搭扣,🐏小羊皮内里🎀内里三格夹层简约实用满足你不同需求 \"雨衣、镜子、专柜礼盒包装、款号:38329 尺寸:20*16*9cm"},"price":null,"currency":"CNY","moq":1,"category":"bvlgari-women-bags","status":"active","alibaba_url":null,"images":["https://xcimg.szwego.com/20230718/i1689688983_4572_0.jpg","https://xcimg.szwego.com/20230718/i1689688983_2989_1.jpg","https://xcimg.szwego.com/20230718/i1689688983_4865_2.jpg","https://xcimg.szwego.com/20230718/i1689688983_2507_3.jpg","https://xcimg.szwego.com/20230718/i1689688983_3912_4.jpg","https://xcimg.szwego.com/20230718/i1689688983_8402_5.jpg","https://xcimg.szwego.com/20230718/i1689688983_7099_6.jpg","https://xcimg.szwego.com/20230718/i1689688983_8812_7.jpg","https://xcimg.szwego.com/20230718/i1689688983_9707_8.jpg"],"created_at":"2024-09-27T06:51:04.097Z"},{"id":"item-b67306d02a10","sku":"_dk2k2wgfTqd1XRvHIbCEjoZ0xrb2jl6toGkbTtw","name_en":"Bvlgari Women Bags","name_cn":"正品级\nBVLGARISERPENTIFOREVER\n型号:35107 拉丝银\n尺寸:20*15*5cm\n专柜热卖系列 原单品质 Serpenti Forever “单层”翻盖小方包包 浅金镀金黄铜配饰及珐琅蛇头包扣 ,小羊皮内里  全铜蛇身链条 两个扣板化妆镜口袋 \"雨衣、镜子、专柜礼盒包装、","specs":{"source":"wsxcme","sourceId":"_dk2k2wgfTqd1XRvHIbCEjoZ0xrb2jl6toGkbTtw","sourceTagId":47002756,"sourceTagName":"宝格丽/女包","modelNumber":"35107 拉丝银","dimensions":{"lengthCm":20,"heightCm":15,"widthCm":5},"rawTitle":"正品级\nBVLGARISERPENTIFOREVER\n型号:35107 拉丝银\n尺寸:20*15*5cm\n专柜热卖系列 原单品质 Serpenti Forever “单层”翻盖小方包包 浅金镀金黄铜配饰及珐琅蛇头包扣 ,小羊皮内里  全铜蛇身链条 两个扣板化妆镜口袋 \"雨衣、镜子、专柜礼盒包装、"},"price":null,"currency":"CNY","moq":1,"category":"bvlgari-women-bags","status":"active","alibaba_url":null,"images":["https://xcimg.szwego.com/20230718/i1689688634_3232_0.jpg","https://xcimg.szwego.com/20230718/i1689688634_7623_1.jpg","https://xcimg.szwego.com/20230718/i1689688634_4389_2.jpg","https://xcimg.szwego.com/20230718/i1689688634_457_3.jpg","https://xcimg.szwego.com/20230718/i1689688634_7738_4.jpg","https://xcimg.szwego.com/20230718/i1689688634_7503_5.jpg","https://xcimg.szwego.com/20230718/i1689688634_3785_6.jpg","https://xcimg.szwego.com/20230718/i1689688634_6317_7.jpg","https://xcimg.szwego.com/20230718/i1689688634_137_8.jpg"],"created_at":"2024-09-27T06:51:04.096Z"},{"id":"item-7d9938325ab3","sku":"_do8o83B2V1ALvbfaZgZJcvewDeinrDtFpOo34Hw","name_en":"Bvlgari Women Bags","name_cn":"正品级\n  “SERPENTI CABOCHON”系列迷你斜挎包采用别具魅力的大号图形图案和大胆的金属质感细节,以精致实用的独特设计和现代风格绽放SERPENTI世界璀璨光芒。\n此款手袋配备可调节和可拆卸的皮革肩带,可用作手提包或手拿包,实现多变百搭功能,日夜皆宜。\n小号,设一个收纳层,一个内部拉链口袋和一个内部敞口口袋。镌刻BVLGARI宝格丽品牌标识的内侧金属铭牌。\n型号:291223\n尺寸:27×18×11厘米","specs":{"source":"wsxcme","sourceId":"_do8o83B2V1ALvbfaZgZJcvewDeinrDtFpOo34Hw","sourceTagId":47002756,"sourceTagName":"宝格丽/女包","modelNumber":"291223","dimensions":{"lengthCm":27,"heightCm":18,"widthCm":11},"rawTitle":"正品级\n  “SERPENTI CABOCHON”系列迷你斜挎包采用别具魅力的大号图形图案和大胆的金属质感细节,以精致实用的独特设计和现代风格绽放SERPENTI世界璀璨光芒。\n此款手袋配备可调节和可拆卸的皮革肩带,可用作手提包或手拿包,实现多变百搭功能,日夜皆宜。\n小号,设一个收纳层,一个内部拉链口袋和一个内部敞口口袋。镌刻BVLGARI宝格丽品牌标识的内侧金属铭牌。\n型号:291223\n尺寸:27×18×11厘米"},"price":null,"currency":"CNY","moq":1,"category":"bvlgari-women-bags","status":"active","alibaba_url":null,"images":["https://xcimg.szwego.com/20230329/i1680068857_5460_0.jpg","https://xcimg.szwego.com/20230329/i1680068857_368_1.jpg","https://xcimg.szwego.com/20230329/i1680068857_1395_2.jpg","https://xcimg.szwego.com/20230329/i1680068857_8583_3.jpg","https://xcimg.szwego.com/20230329/i1680068857_5076_4.jpg","https://xcimg.szwego.com/20230329/i1680068857_7838_5.jpg","https://xcimg.szwego.com/20230329/i1680068857_9711_6.jpg","https://xcimg.szwego.com/20230329/i1680068857_3596_7.jpg","https://xcimg.szwego.com/20230329/i1680068857_426_8.jpg"],"created_at":"2024-09-27T06:51:04.095Z"},{"id":"item-e63ce0353630","sku":"_dufuf1nRgdtadjdP05WXAGVF73R71CB0QG8lcmw","name_en":"Bvlgari Women Bags","name_cn":"正品级\nSERPENTI CABOCHON”系列迷你斜挎包采用别具魅力的大号图形图案和大胆的金属质感细节,以精致实用的独特设计和现代风格绽放SERPENTI世界璀璨光芒。\n此款手袋配备可调节和可拆卸的皮革肩带,可用作手提包或手拿包,实现多变百搭功能,日夜皆宜。\n小号,设一个收纳层,一个内部拉链口袋和一个内部敞口口袋。镌刻BVLGARI宝格丽品牌标识的内侧金属铭牌。\n型号:291088\n尺寸:22.5×15×10厘米","specs":{"source":"wsxcme","sourceId":"_dufuf1nRgdtadjdP05WXAGVF73R71CB0QG8lcmw","sourceTagId":47002756,"sourceTagName":"宝格丽/女包","modelNumber":"291088","dimensions":{"lengthCm":22.5,"heightCm":15,"widthCm":10},"rawTitle":"正品级\nSERPENTI CABOCHON”系列迷你斜挎包采用别具魅力的大号图形图案和大胆的金属质感细节,以精致实用的独特设计和现代风格绽放SERPENTI世界璀璨光芒。\n此款手袋配备可调节和可拆卸的皮革肩带,可用作手提包或手拿包,实现多变百搭功能,日夜皆宜。\n小号,设一个收纳层,一个内部拉链口袋和一个内部敞口口袋。镌刻BVLGARI宝格丽品牌标识的内侧金属铭牌。\n型号:291088\n尺寸:22.5×15×10厘米"},"price":null,"currency":"CNY","moq":1,"category":"bvlgari-women-bags","status":"active","alibaba_url":null,"images":["https://xcimg.szwego.com/20230329/i1680068539_3775_0.jpg","https://xcimg.szwego.com/20230329/i1680068539_4128_1.jpg","https://xcimg.szwego.com/20230329/i1680068539_7515_2.jpg","https://xcimg.szwego.com/20230329/i1680068539_5768_3.jpg","https://xcimg.szwego.com/20230329/i1680068539_7917_4.jpg","https://xcimg.szwego.com/20230329/i1680068539_1209_5.jpg","https://xcimg.szwego.com/20230329/i1680068539_9495_6.jpg","https://xcimg.szwego.com/20230329/i1680068539_1500_7.jpg","https://xcimg.szwego.com/20230329/i1680068539_4310_8.jpg"],"created_at":"2024-09-27T06:51:04.094Z"},{"id":"item-abae0395d4d5","sku":"_dslsl55qauZ4Wvw_W4vNk60uc2GjbznW8q9j0-w","name_en":"Bvlgari Women Bags","name_cn":"正品级\n  “SERPENTI CABOCHON”系列迷你斜挎包采用别具魅力的大号图形图案和大胆的金属质感细节,以精致实用的独特设计和现代风格绽放SERPENTI世界璀璨光芒。\n此款手袋配备可调节和可拆卸的皮革肩带,可用作手提包或手拿包,实现多变百搭功能,日夜皆宜。\n小号,设一个收纳层,一个内部拉链口袋和一个内部敞口口袋。镌刻BVLGARI宝格丽品牌标识的内侧金属铭牌。\n型号:291088\n尺寸:22.5×15×10厘米","specs":{"source":"wsxcme","sourceId":"_dslsl55qauZ4Wvw_W4vNk60uc2GjbznW8q9j0-w","sourceTagId":47002756,"sourceTagName":"宝格丽/女包","modelNumber":"291088","dimensions":{"lengthCm":22.5,"heightCm":15,"widthCm":10},"rawTitle":"正品级\n  “SERPENTI CABOCHON”系列迷你斜挎包采用别具魅力的大号图形图案和大胆的金属质感细节,以精致实用的独特设计和现代风格绽放SERPENTI世界璀璨光芒。\n此款手袋配备可调节和可拆卸的皮革肩带,可用作手提包或手拿包,实现多变百搭功能,日夜皆宜。\n小号,设一个收纳层,一个内部拉链口袋和一个内部敞口口袋。镌刻BVLGARI宝格丽品牌标识的内侧金属铭牌。\n型号:291088\n尺寸:22.5×15×10厘米"},"price":null,"currency":"CNY","moq":1,"category":"bvlgari-women-bags","status":"active","alibaba_url":null,"images":["https://xcimg.szwego.com/20230329/i1680067682_2405_0.jpg","https://xcimg.szwego.com/20230329/i1680067682_1353_1.jpg","https://xcimg.szwego.com/20230329/i1680067682_2009_2.jpg","https://xcimg.szwego.com/20230329/i1680067682_2791_3.jpg","https://xcimg.szwego.com/20230329/i1680067682_5219_4.jpg","https://xcimg.szwego.com/20230329/i1680067682_5679_5.jpg","https://xcimg.szwego.com/20230329/i1680067682_1727_6.jpg","https://xcimg.szwego.com/20230329/i1680067682_8464_7.jpg","https://xcimg.szwego.com/20230329/i1680067682_9694_8.jpg"],"created_at":"2024-09-27T06:51:04.092Z"},{"id":"item-91c1e22a0755","sku":"_dkHkH-UsjvChI_8zxg9q-lTcKu0ZBI87jxIOJQw","name_en":"Bvlgari Women Bags","name_cn":"正品级\nBVLGARI Serpenti Forever \n型号:35362 \nSize:28*19*8cm\n专柜热卖系列 原单品质 Serpenti Forever “双层”翻盖包  浅金镀金黄铜配饰及黑白珐琅蛇头包扣 眼睛镶饰绿孔雀石头双眼 全铜蛇身链条 两个扣板化妆镜口袋 多个内置夹层 \"雨衣、镜子、专柜礼盒包装、雷射防伪标与施印独立编码\"","specs":{"source":"wsxcme","sourceId":"_dkHkH-UsjvChI_8zxg9q-lTcKu0ZBI87jxIOJQw","sourceTagId":47002756,"sourceTagName":"宝格丽/女包","modelNumber":"35362","rawTitle":"正品级\nBVLGARI Serpenti Forever \n型号:35362 \nSize:28*19*8cm\n专柜热卖系列 原单品质 Serpenti Forever “双层”翻盖包  浅金镀金黄铜配饰及黑白珐琅蛇头包扣 眼睛镶饰绿孔雀石头双眼 全铜蛇身链条 两个扣板化妆镜口袋 多个内置夹层 \"雨衣、镜子、专柜礼盒包装、雷射防伪标与施印独立编码\""},"price":null,"currency":"CNY","moq":1,"category":"bvlgari-women-bags","status":"active","alibaba_url":null,"images":["https://xcimg.szwego.com/20221107/i1667807436_5808_0.jpg","https://xcimg.szwego.com/20221107/i1667807436_420_1.jpg","https://xcimg.szwego.com/20221107/i1667807436_1200_2.jpg","https://xcimg.szwego.com/20221107/i1667807436_6727_3.jpg","https://xcimg.szwego.com/20221107/i1667807436_2058_4.jpg","https://xcimg.szwego.com/20221107/i1667807436_5790_5.jpg","https://xcimg.szwego.com/20221107/i1667807436_7512_6.jpg","https://xcimg.szwego.com/20221107/i1667807436_2498_7.jpg","https://xcimg.szwego.com/20221107/i1667807436_1586_8.jpg"],"created_at":"2024-09-27T06:51:04.085Z"},{"id":"item-34d56c00a261","sku":"_db_b_6SbuwpOlxiTV1w9d7zKFlgfxQ3KJtKJtxw","name_en":"全新SERPENTI ELLIPSE系列大号斜挎包","name_cn":"全新SERPENTI ELLIPSE系列大号斜挎包\n\n以独特的造型、标志性细节及多变魅力,为SERPENTI FOREVER世界增添时尚气息。\n这款日常包款采用红色小牛皮精制而成,中央为都市粒纹小牛皮材质,两侧为光滑质感小牛皮,搭配镀金黄铜配饰,迷人的经典蛇首中央点缀黑色鳞片和红色珐琅双眼,正面磁扣隐藏其下。\n设有单个隔层,可调节链条和皮革肩带及可拆卸皮革手柄,既可斜挎,亦可作为经典单肩包佩戴。实用的顶部拉链,设有一个内部口袋,背面设一个外置口袋和BVLGARI宝格丽金属标识。\n\n型号:291636\n尺寸:25.5×25×5.5厘米","specs":{"source":"wsxcme","sourceId":"_db_b_6SbuwpOlxiTV1w9d7zKFlgfxQ3KJtKJtxw","sourceTagId":47002756,"sourceTagName":"宝格丽/女包","modelNumber":"291636","dimensions":{"lengthCm":25.5,"heightCm":25,"widthCm":5.5},"rawTitle":"全新SERPENTI ELLIPSE系列大号斜挎包\n\n以独特的造型、标志性细节及多变魅力,为SERPENTI FOREVER世界增添时尚气息。\n这款日常包款采用红色小牛皮精制而成,中央为都市粒纹小牛皮材质,两侧为光滑质感小牛皮,搭配镀金黄铜配饰,迷人的经典蛇首中央点缀黑色鳞片和红色珐琅双眼,正面磁扣隐藏其下。\n设有单个隔层,可调节链条和皮革肩带及可拆卸皮革手柄,既可斜挎,亦可作为经典单肩包佩戴。实用的顶部拉链,设有一个内部口袋,背面设一个外置口袋和BVLGARI宝格丽金属标识。\n\n型号:291636\n尺寸:25.5×25×5.5厘米"},"price":null,"currency":"CNY","moq":1,"category":"bvlgari-women-bags","status":"active","alibaba_url":null,"images":["https://xcimg.szwego.com/20220119/i1642575195_7370_0.jpg","https://xcimg.szwego.com/20220119/i1642575195_8989_1.jpg","https://xcimg.szwego.com/20220119/i1642575195_520_2.jpg","https://xcimg.szwego.com/20220119/i1642575195_8890_3.jpg","https://xcimg.szwego.com/20220119/i1642575195_3606_4.jpg","https://xcimg.szwego.com/20220119/i1642575195_1762_5.jpg","https://xcimg.szwego.com/20220119/i1642575195_1924_6.jpg","https://xcimg.szwego.com/20220119/i1642575195_7716_7.jpg","https://xcimg.szwego.com/20220119/i1642575195_9034_8.jpg"],"created_at":"2024-08-15T07:44:50.171Z"},{"id":"item-6c9bfb1704fd","sku":"_dtQtQONfC430vaCN1C1Pvz3MlBuFyMzKhsreVTw","name_en":"全新SERPENTI ELLIPSE系列大号斜挎包","name_cn":"全新SERPENTI ELLIPSE系列大号斜挎包\n\n以独特的造型、标志性细节及多变魅力,为SERPENTI FOREVER世界增添时尚气息。\n这款日常包款采用浅蓝色小牛皮精制而成,中央为都市粒纹小牛皮材质,两侧为光滑质感小牛皮,搭配镀金黄铜配饰,迷人的经典蛇首中央点缀黑色鳞片和红色珐琅双眼,正面磁扣隐藏其下。\n设有单个隔层,可调节链条和皮革肩带及可拆卸皮革手柄,既可斜挎,亦可作为经典单肩包佩戴。实用的顶部拉链,设有一个内部口袋,背面设一个外置口袋和BVLGARI宝格丽金属标识。\n\n型号:291636\n尺寸:25.5×25×5.5厘米","specs":{"source":"wsxcme","sourceId":"_dtQtQONfC430vaCN1C1Pvz3MlBuFyMzKhsreVTw","sourceTagId":47002756,"sourceTagName":"宝格丽/女包","modelNumber":"291636","dimensions":{"lengthCm":25.5,"heightCm":25,"widthCm":5.5},"rawTitle":"全新SERPENTI ELLIPSE系列大号斜挎包\n\n以独特的造型、标志性细节及多变魅力,为SERPENTI FOREVER世界增添时尚气息。\n这款日常包款采用浅蓝色小牛皮精制而成,中央为都市粒纹小牛皮材质,两侧为光滑质感小牛皮,搭配镀金黄铜配饰,迷人的经典蛇首中央点缀黑色鳞片和红色珐琅双眼,正面磁扣隐藏其下。\n设有单个隔层,可调节链条和皮革肩带及可拆卸皮革手柄,既可斜挎,亦可作为经典单肩包佩戴。实用的顶部拉链,设有一个内部口袋,背面设一个外置口袋和BVLGARI宝格丽金属标识。\n\n型号:291636\n尺寸:25.5×25×5.5厘米"},"price":null,"currency":"CNY","moq":1,"category":"bvlgari-women-bags","status":"active","alibaba_url":null,"images":["https://xcimg.szwego.com/20220122/i1642832598_1465_0.jpg","https://xcimg.szwego.com/20220122/i1642832598_4301_1.jpg","https://xcimg.szwego.com/20220122/i1642832598_5781_2.jpg","https://xcimg.szwego.com/20220122/i1642832598_8885_3.jpg","https://xcimg.szwego.com/20220122/i1642832598_8973_4.jpg","https://xcimg.szwego.com/20220122/i1642832598_9345_5.jpg","https://xcimg.szwego.com/20220122/i1642832598_7481_6.jpg","https://xcimg.szwego.com/20220122/i1642832598_7210_7.jpg","https://xcimg.szwego.com/20220122/i1642832598_7359_8.jpg"],"created_at":"2024-08-15T07:44:50.170Z"},{"id":"item-0ad740339646","sku":"_dulul2zogVPqPcmBIDdcwmjEh812u76dMG3mMiw","name_en":"全新SERPENTI ELLIPSE系列大号斜挎包","name_cn":"全新SERPENTI ELLIPSE系列大号斜挎包\n\n以独特的造型、标志性细节及多变魅力,为SERPENTI FOREVER世界增添时尚气息。\n这款日常包款采用黑色小牛皮精制而成,中央为牛皮材质,两侧为蛇纹蓝鳞片,搭配镀金黄铜配饰,迷人的经典蛇首中央点缀黑色鳞片和红色珐琅双眼,正面磁扣隐藏其下。\n设有单个隔层,可调节链条和皮革肩带及可拆卸皮革手柄,既可斜挎,亦可作为经典单肩包佩戴。实用的顶部拉链,设有一个内部口袋,背面设一个外置口袋和BVLGARI宝格丽金属标识。\n\n型号:291636\n尺寸:25.5×25×5.5厘米","specs":{"source":"wsxcme","sourceId":"_dulul2zogVPqPcmBIDdcwmjEh812u76dMG3mMiw","sourceTagId":47002756,"sourceTagName":"宝格丽/女包","modelNumber":"291636","dimensions":{"lengthCm":25.5,"heightCm":25,"widthCm":5.5},"rawTitle":"全新SERPENTI ELLIPSE系列大号斜挎包\n\n以独特的造型、标志性细节及多变魅力,为SERPENTI FOREVER世界增添时尚气息。\n这款日常包款采用黑色小牛皮精制而成,中央为牛皮材质,两侧为蛇纹蓝鳞片,搭配镀金黄铜配饰,迷人的经典蛇首中央点缀黑色鳞片和红色珐琅双眼,正面磁扣隐藏其下。\n设有单个隔层,可调节链条和皮革肩带及可拆卸皮革手柄,既可斜挎,亦可作为经典单肩包佩戴。实用的顶部拉链,设有一个内部口袋,背面设一个外置口袋和BVLGARI宝格丽金属标识。\n\n型号:291636\n尺寸:25.5×25×5.5厘米"},"price":null,"currency":"CNY","moq":1,"category":"bvlgari-women-bags","status":"active","alibaba_url":null,"images":["https://xcimg.szwego.com/20220122/i1642832912_7233_0.jpg","https://xcimg.szwego.com/20220122/i1642832912_2722_1.jpg","https://xcimg.szwego.com/20220122/i1642832912_7319_2.jpg","https://xcimg.szwego.com/20220122/i1642832912_9722_3.jpg","https://xcimg.szwego.com/20220122/i1642832912_7137_4.jpg","https://xcimg.szwego.com/20220122/i1642832912_3234_5.jpg","https://xcimg.szwego.com/20220122/i1642832912_607_6.jpg","https://xcimg.szwego.com/20220122/i1642832912_2571_7.jpg","https://xcimg.szwego.com/20220122/i1642832912_4764_8.jpg"],"created_at":"2024-08-15T07:44:50.169Z"},{"id":"item-d558f747ac9e","sku":"_d8787O8f_LNKoIOhrsKIVoNT4dTWn-z_RqnHLFg","name_en":"全新SERPENTI ELLIPSE系列大号斜挎包","name_cn":"全新SERPENTI ELLIPSE系列大号斜挎包\n\n以独特的造型、标志性细节及多变魅力,为SERPENTI FOREVER世界增添时尚气息。\n这款日常包款采用银粉小牛皮精制而成,中央为牛皮材质,两侧为蛇纹蓝鳞片,搭配镀金黄铜配饰,迷人的经典蛇首中央点缀银色鳞片和粉色珐琅双眼,正面磁扣隐藏其下。\n设有单个隔层,可调节链条和皮革肩带及可拆卸皮革手柄,既可斜挎,亦可作为经典单肩包佩戴。实用的顶部拉链,设有一个内部口袋,背面设一个外置口袋和BVLGARI宝格丽金属标识。\n\n型号:291636\n尺寸:25.5×25×5.5厘米","specs":{"source":"wsxcme","sourceId":"_d8787O8f_LNKoIOhrsKIVoNT4dTWn-z_RqnHLFg","sourceTagId":47002756,"sourceTagName":"宝格丽/女包","modelNumber":"291636","dimensions":{"lengthCm":25.5,"heightCm":25,"widthCm":5.5},"rawTitle":"全新SERPENTI ELLIPSE系列大号斜挎包\n\n以独特的造型、标志性细节及多变魅力,为SERPENTI FOREVER世界增添时尚气息。\n这款日常包款采用银粉小牛皮精制而成,中央为牛皮材质,两侧为蛇纹蓝鳞片,搭配镀金黄铜配饰,迷人的经典蛇首中央点缀银色鳞片和粉色珐琅双眼,正面磁扣隐藏其下。\n设有单个隔层,可调节链条和皮革肩带及可拆卸皮革手柄,既可斜挎,亦可作为经典单肩包佩戴。实用的顶部拉链,设有一个内部口袋,背面设一个外置口袋和BVLGARI宝格丽金属标识。\n\n型号:291636\n尺寸:25.5×25×5.5厘米"},"price":null,"currency":"CNY","moq":1,"category":"bvlgari-women-bags","status":"active","alibaba_url":null,"images":["https://xcimg.szwego.com/20220321/i1647843529_2569_0.jpg","https://xcimg.szwego.com/20220321/i1647843529_1696_1.jpg","https://xcimg.szwego.com/20220321/i1647843529_970_2.jpg","https://xcimg.szwego.com/20220321/i1647843529_7892_3.jpg","https://xcimg.szwego.com/20220321/i1647843529_1490_4.jpg","https://xcimg.szwego.com/20220321/i1647843529_1037_5.jpg","https://xcimg.szwego.com/20220321/i1647843529_9487_6.jpg","https://xcimg.szwego.com/20220321/i1647843529_6830_7.jpg","https://xcimg.szwego.com/20220321/i1647843529_7623_8.jpg"],"created_at":"2024-08-15T07:44:50.168Z"},{"id":"item-d1f14267a8ed","sku":"_dnAnAmwo0TIr4CvdbGT95pu19ORGw5DYgz6NwZg","name_en":"全新SERPENTI ELLIPSE系列大号斜挎包","name_cn":"全新SERPENTI ELLIPSE系列大号斜挎包\n\n以独特的造型、标志性细节及多变魅力,为SERPENTI FOREVER世界增添时尚气息。\n这款日常包款采用粉色小牛皮精制而成,中央为都市粒纹小牛皮材质,两侧为光滑质感小牛皮,搭配镀金黄铜配饰,迷人的经典蛇首中央点缀黑色鳞片和红色珐琅双眼,正面磁扣隐藏其下。\n设有单个隔层,可调节链条和皮革肩带及可拆卸皮革手柄,既可斜挎,亦可作为经典单肩包佩戴。实用的顶部拉链,设有一个内部口袋,背面设一个外置口袋和BVLGARI宝格丽金属标识。\n\n型号:291636\n尺寸:25.5×25×5.5厘米","specs":{"source":"wsxcme","sourceId":"_dnAnAmwo0TIr4CvdbGT95pu19ORGw5DYgz6NwZg","sourceTagId":47002756,"sourceTagName":"宝格丽/女包","modelNumber":"291636","dimensions":{"lengthCm":25.5,"heightCm":25,"widthCm":5.5},"rawTitle":"全新SERPENTI ELLIPSE系列大号斜挎包\n\n以独特的造型、标志性细节及多变魅力,为SERPENTI FOREVER世界增添时尚气息。\n这款日常包款采用粉色小牛皮精制而成,中央为都市粒纹小牛皮材质,两侧为光滑质感小牛皮,搭配镀金黄铜配饰,迷人的经典蛇首中央点缀黑色鳞片和红色珐琅双眼,正面磁扣隐藏其下。\n设有单个隔层,可调节链条和皮革肩带及可拆卸皮革手柄,既可斜挎,亦可作为经典单肩包佩戴。实用的顶部拉链,设有一个内部口袋,背面设一个外置口袋和BVLGARI宝格丽金属标识。\n\n型号:291636\n尺寸:25.5×25×5.5厘米"},"price":null,"currency":"CNY","moq":1,"category":"bvlgari-women-bags","status":"active","alibaba_url":null,"images":["https://xcimg.szwego.com/20220602/i1654148896_7398_0.jpg","https://xcimg.szwego.com/20220602/i1654148896_6815_1.jpg","https://xcimg.szwego.com/20220602/i1654148896_1364_2.jpg","https://xcimg.szwego.com/20220602/i1654148896_8232_3.jpg","https://xcimg.szwego.com/20220602/i1654148896_8568_4.jpg","https://xcimg.szwego.com/20220602/i1654148896_8391_5.jpg","https://xcimg.szwego.com/20220602/i1654148896_3421_6.jpg","https://xcimg.szwego.com/20220602/i1654148896_8381_7.jpg","https://xcimg.szwego.com/20220602/i1654148896_7746_8.jpg"],"created_at":"2024-08-15T07:44:50.167Z"},{"id":"item-84fe6ddd8e60","sku":"_ds1s1s9lrhOSelc0JYip0MfHUqknWyTf0mh4ZoQ","name_en":"【Bvlgari】链条包mini来袭🥰宝格丽专柜全新“Serpenti Diamond Blast链条包,率先上市啦💗💗采用粉红色小牛皮制成,搭配三链装饰。浅金镀金黄铜经典蛇首搭扣,饰以闪亮粉红色珐琅,搭配心形装饰和黑色缟玛瑙双眼。别具匠心的“Serpenti in Love”","name_cn":"【Bvlgari】链条包mini来袭🥰宝格丽专柜全新“Serpenti Diamond Blast链条包,率先上市啦💗💗采用粉红色小牛皮制成,搭配三链装饰。浅金镀金黄铜经典蛇首搭扣,饰以闪亮粉红色珐琅,搭配心形装饰和黑色缟玛瑙双眼。别具匠心的“Serpenti in Love” \n尺寸:17cm\n型号:288104","specs":{"source":"wsxcme","sourceId":"_ds1s1s9lrhOSelc0JYip0MfHUqknWyTf0mh4ZoQ","sourceTagId":47002756,"sourceTagName":"宝格丽/女包","modelNumber":"288104","rawTitle":"【Bvlgari】链条包mini来袭🥰宝格丽专柜全新“Serpenti Diamond Blast链条包,率先上市啦💗💗采用粉红色小牛皮制成,搭配三链装饰。浅金镀金黄铜经典蛇首搭扣,饰以闪亮粉红色珐琅,搭配心形装饰和黑色缟玛瑙双眼。别具匠心的“Serpenti in Love” \n尺寸:17cm\n型号:288104"},"price":null,"currency":"CNY","moq":1,"category":"bvlgari-women-bags","status":"active","alibaba_url":null,"images":["https://xcimg.szwego.com/20230603/i1685781301_8724_0.jpg","https://xcimg.szwego.com/20230603/i1685781301_7430_1.jpg","https://xcimg.szwego.com/20230603/i1685781301_4466_2.jpg","https://xcimg.szwego.com/20230603/i1685781301_864_3.jpg","https://xcimg.szwego.com/20230603/i1685781301_9326_4.jpg","https://xcimg.szwego.com/20230603/i1685781301_4308_5.jpg","https://xcimg.szwego.com/20230603/i1685781301_3180_6.jpg","https://xcimg.szwego.com/20230603/i1685781301_2416_7.jpg","https://xcimg.szwego.com/20230603/i1685781301_6163_8.jpg"],"created_at":"2024-08-15T07:44:50.166Z"}],"page":4,"pageSize":24,"total":97,"totalPages":5}
