{"items":[{"id":"item-0e6f604f491a","sku":"_dxxxxbRBTvDy4t2UqPr-NqL92AEsUa1tsI0epFA","name_en":"picotin 菜篮子","name_cn":"picotin 菜篮子\n颜色:橙色、金扣\n进口tc头层牛皮\n半手工缝制收口\n蜜蜡线缝制\n尺寸:18cm","specs":{"source":"wsxcme","sourceId":"_dxxxxbRBTvDy4t2UqPr-NqL92AEsUa1tsI0epFA","sourceTagId":76963559,"sourceTagName":"爱马仕/女包","rawTitle":"picotin 菜篮子\n颜色:橙色、金扣\n进口tc头层牛皮\n半手工缝制收口\n蜜蜡线缝制\n尺寸:18cm"},"price":null,"currency":"CNY","moq":1,"category":"hermes-women-bags","status":"active","alibaba_url":null,"images":["https://xcimg.szwego.com/img/88b306c4/20240902/a1725206894722_3022.jpg","https://xcimg.szwego.com/img/88b306c4/20240902/a1725206894315_8441.jpg","https://xcimg.szwego.com/img/88b306c4/20240902/a1725206894360_3575.jpg","https://xcimg.szwego.com/img/88b306c4/20240902/a1725206894611_5571.jpg","https://xcimg.szwego.com/img/88b306c4/20240902/a1725206894367_6407.jpg","https://xcimg.szwego.com/img/88b306c4/20240902/a1725206894721_2316.jpg","https://xcimg.szwego.com/img/88b306c4/20240902/a1725206895947_3723.jpg","https://xcimg.szwego.com/img/88b306c4/20240902/a1725206895929_8268.jpg","https://xcimg.szwego.com/img/88b306c4/20240902/a1725206896137_4762.jpg"],"created_at":"2024-10-22T05:00:12.201Z"},{"id":"item-0560115d3e28","sku":"_dLKLKopYCShThKQwIll4_rnNVMZ9SvPT8mkmWew","name_en":"picotin 菜篮子","name_cn":"picotin 菜篮子\n颜色:宝石兰、金扣\n进口tc头层牛皮\n半收工缝制收口\n蜜蜡线缝制\n尺寸:18cm","specs":{"source":"wsxcme","sourceId":"_dLKLKopYCShThKQwIll4_rnNVMZ9SvPT8mkmWew","sourceTagId":76963559,"sourceTagName":"爱马仕/女包","rawTitle":"picotin 菜篮子\n颜色:宝石兰、金扣\n进口tc头层牛皮\n半收工缝制收口\n蜜蜡线缝制\n尺寸:18cm"},"price":null,"currency":"CNY","moq":1,"category":"hermes-women-bags","status":"active","alibaba_url":null,"images":["https://xcimg.szwego.com/img/88b306c4/20240901/a1725202398074_8826.jpg","https://xcimg.szwego.com/img/88b306c4/20240901/a1725202398048_6548.jpg","https://xcimg.szwego.com/img/88b306c4/20240901/a1725202398313_6876.jpg","https://xcimg.szwego.com/img/88b306c4/20240901/a1725202397905_4437.jpg","https://xcimg.szwego.com/img/88b306c4/20240901/a1725202398020_2674.jpg","https://xcimg.szwego.com/img/88b306c4/20240901/a1725202398295_5045.jpg","https://xcimg.szwego.com/img/88b306c4/20240901/a1725202401505_8408.jpg","https://xcimg.szwego.com/img/88b306c4/20240901/a1725202400946_0323.jpg","https://xcimg.szwego.com/img/88b306c4/20240901/a1725202400478_8010.jpg"],"created_at":"2024-10-22T04:49:50.733Z"},{"id":"item-00a37192c66c","sku":"_doMoMnwbbhj6_giRynJtwWBlKJsrfMcC6ASLdDw","name_en":"picotin 菜篮子","name_cn":"picotin 菜篮子\n颜色:阿尔法米色、银扣\n进口tc头层牛皮\n半手工缝制收口\n蜜蜡线缝制\n尺寸:18cm","specs":{"source":"wsxcme","sourceId":"_doMoMnwbbhj6_giRynJtwWBlKJsrfMcC6ASLdDw","sourceTagId":76963559,"sourceTagName":"爱马仕/女包","rawTitle":"picotin 菜篮子\n颜色:阿尔法米色、银扣\n进口tc头层牛皮\n半手工缝制收口\n蜜蜡线缝制\n尺寸:18cm"},"price":null,"currency":"CNY","moq":1,"category":"hermes-women-bags","status":"active","alibaba_url":null,"images":["https://xcimg.szwego.com/img/88b306c4/20240902/a1725208298232_5764.jpg","https://xcimg.szwego.com/img/88b306c4/20240902/a1725208298067_1721.jpg","https://xcimg.szwego.com/img/88b306c4/20240902/a1725208298009_7477.jpg","https://xcimg.szwego.com/img/88b306c4/20240902/a1725208298454_1871.jpg","https://xcimg.szwego.com/img/88b306c4/20240902/a1725208298390_5487.jpg","https://xcimg.szwego.com/img/88b306c4/20240902/a1725208298221_4687.jpg","https://xcimg.szwego.com/img/88b306c4/20240902/a1725208299817_1868.jpg","https://xcimg.szwego.com/img/88b306c4/20240902/a1725208299724_3658.jpg","https://xcimg.szwego.com/img/88b306c4/20240902/a1725208299817_4431.jpg"],"created_at":"2024-10-22T05:00:12.204Z"},{"id":"item-00a34c1f287f","sku":"_diYiYtgzFAqFuI6C9N_65NEL6c2U5KzQ_c0n-tw","name_en":"picotin 菜篮子","name_cn":"picotin 菜篮子\n颜色:大象灰、银扣\n进口tc头层牛皮\n半手工缝制收口\n蜜蜡线缝制\n尺寸:18cm","specs":{"source":"wsxcme","sourceId":"_diYiYtgzFAqFuI6C9N_65NEL6c2U5KzQ_c0n-tw","sourceTagId":76963559,"sourceTagName":"爱马仕/女包","rawTitle":"picotin 菜篮子\n颜色:大象灰、银扣\n进口tc头层牛皮\n半手工缝制收口\n蜜蜡线缝制\n尺寸:18cm"},"price":null,"currency":"CNY","moq":1,"category":"hermes-women-bags","status":"active","alibaba_url":null,"images":["https://xcimg.szwego.com/img/88b306c4/20240901/a1725205024687_0563.jpg","https://xcimg.szwego.com/img/88b306c4/20240901/a1725205024331_1160.jpg","https://xcimg.szwego.com/img/88b306c4/20240901/a1725205024282_2218.jpg","https://xcimg.szwego.com/img/88b306c4/20240901/a1725205024447_5681.jpg","https://xcimg.szwego.com/img/88b306c4/20240901/a1725205024379_6344.jpg","https://xcimg.szwego.com/img/88b306c4/20240901/a1725205024605_8212.jpg","https://xcimg.szwego.com/img/88b306c4/20240901/a1725205025887_3867.jpg","https://xcimg.szwego.com/img/88b306c4/20240901/a1725205025854_0031.jpg","https://xcimg.szwego.com/img/88b306c4/20240901/a1725205025877_6101.jpg"],"created_at":"2024-10-22T05:00:12.194Z"},{"id":"item-7a6ca9b23184","sku":"_dkxkxOomPcr8iEVw5i5hJ9aAd-WbNrZElmqvWTQ","name_en":"touch KL25黑银","name_cn":"touch KL25黑银\nTogo皮拼蜥蜴皮凯莉25cm手缝蜡线\n全钢五金  内里山羊皮","specs":{"source":"wsxcme","sourceId":"_dkxkxOomPcr8iEVw5i5hJ9aAd-WbNrZElmqvWTQ","sourceTagId":76963559,"sourceTagName":"爱马仕/女包","rawTitle":"touch KL25黑银\nTogo皮拼蜥蜴皮凯莉25cm手缝蜡线\n全钢五金  内里山羊皮"},"price":null,"currency":"CNY","moq":1,"category":"hermes-women-bags","status":"active","alibaba_url":null,"images":["https://xcimg.szwego.com/img/9ee4266d/20240409/i1712656477_6256_3.jpg","https://xcimg.szwego.com/img/9ee4266d/20240409/i1712656477_970_0.jpg","https://xcimg.szwego.com/img/9ee4266d/20240409/i1712656477_818_7.jpg","https://xcimg.szwego.com/img/9ee4266d/20240409/i1712656477_2179_4.jpg","https://xcimg.szwego.com/img/9ee4266d/20240409/i1712656477_7473_1.jpg","https://xcimg.szwego.com/img/9ee4266d/20240409/i1712656477_2861_6.jpg","https://xcimg.szwego.com/img/9ee4266d/20240409/i1712656477_6611_2.jpg","https://xcimg.szwego.com/img/9ee4266d/20240409/i1712656477_5638_5.jpg","https://xcimg.szwego.com/img/9ee4266d/20240409/i1712656477_9826_8.jpg","https://xcimg.szwego.com/img/9ee4266d/20240409/i1712656477_1850_9.jpg"],"created_at":"2024-10-22T04:43:02.147Z"},{"id":"item-38c920f709f6","sku":"_dSXSXlvNFWeXbXiWQxdCAtxvWmzfx5p9Hn06gkA","name_en":"touch KL25金棕","name_cn":"touch KL25金棕\nTogo皮拼亚光鳄鱼皮凯莉25手缝蜡线\n全钢五金  内里山羊皮","specs":{"source":"wsxcme","sourceId":"_dSXSXlvNFWeXbXiWQxdCAtxvWmzfx5p9Hn06gkA","sourceTagId":76963559,"sourceTagName":"爱马仕/女包","rawTitle":"touch KL25金棕\nTogo皮拼亚光鳄鱼皮凯莉25手缝蜡线\n全钢五金  内里山羊皮"},"price":null,"currency":"CNY","moq":1,"category":"hermes-women-bags","status":"active","alibaba_url":null,"images":["https://xcimg.szwego.com/img/9ee4266d/20240411/i1712828201_3890_0.jpg","https://xcimg.szwego.com/img/9ee4266d/20240411/i1712828201_7954_3.jpg","https://xcimg.szwego.com/img/9ee4266d/20240411/i1712828201_608_1.jpg","https://xcimg.szwego.com/img/9ee4266d/20240411/i1712828201_6994_5.jpg","https://xcimg.szwego.com/img/9ee4266d/20240411/i1712828201_7619_8.jpg","https://xcimg.szwego.com/img/9ee4266d/20240411/i1712828201_4836_7.jpg","https://xcimg.szwego.com/img/9ee4266d/20240411/i1712828201_1810_4.jpg","https://xcimg.szwego.com/img/9ee4266d/20240411/i1712828201_2396_6.jpg","https://xcimg.szwego.com/img/9ee4266d/20240411/i1712828201_9962_2.jpg"],"created_at":"2024-10-22T04:43:02.146Z"},{"id":"item-83b8643c5035","sku":"_dfZfZ7Qq7prhN8J9surYgKLAnqCX4-FjEzhmUyg","name_en":"Twilly|玛雅丛林俄耳甫斯的魔力","name_cn":"Twilly|玛雅丛林俄耳甫斯的魔力\n设计师:Alice Shirley\n04色,天空蓝/粉米色/朱砂红\n·\n粉蓝色的玛雅丛林比蓝色和灰色多了一点柔美。\n·\n俄耳甫斯是古希腊神话中的人物,最著名的是他演奏七弦琴的精湛技艺。他的音乐可以迷住森林里的野生动物,甚至溪流也会停下来,树木也会靠近一点,听他美妙的歌声。\n小小twilly上演绎了充满魔力的俄耳甫斯的神话传说,俄耳甫斯在丛林里演奏动人的音乐,鹿、狮子、熊、马闻声而动,被动人的旋律吸引而去。","specs":{"source":"wsxcme","sourceId":"_dfZfZ7Qq7prhN8J9surYgKLAnqCX4-FjEzhmUyg","sourceTagId":76963559,"sourceTagName":"爱马仕/女包","rawTitle":"Twilly|玛雅丛林俄耳甫斯的魔力\n设计师:Alice Shirley\n04色,天空蓝/粉米色/朱砂红\n·\n粉蓝色的玛雅丛林比蓝色和灰色多了一点柔美。\n·\n俄耳甫斯是古希腊神话中的人物,最著名的是他演奏七弦琴的精湛技艺。他的音乐可以迷住森林里的野生动物,甚至溪流也会停下来,树木也会靠近一点,听他美妙的歌声。\n小小twilly上演绎了充满魔力的俄耳甫斯的神话传说,俄耳甫斯在丛林里演奏动人的音乐,鹿、狮子、熊、马闻声而动,被动人的旋律吸引而去。"},"price":null,"currency":"CNY","moq":1,"category":"hermes-women-bags","status":"active","alibaba_url":null,"images":["https://xcimg.szwego.com/img/3d6d0be4/20231215/i1702623689_1917_0.jpg","https://xcimg.szwego.com/img/3d6d0be4/20231215/i1702623689_3265_0.jpg","https://xcimg.szwego.com/img/3d6d0be4/20231215/i1702623689_4013_0.jpg","https://xcimg.szwego.com/img/3d6d0be4/20231215/i1702623689_2426_0.jpg","https://xcimg.szwego.com/img/3d6d0be4/20231215/i1702623674_4256_0.jpg"],"created_at":"2024-10-22T05:00:12.176Z"}],"page":19,"pageSize":24,"total":439,"totalPages":19}
