{"items":[{"id":"item-cfe0aaa2b8b3","sku":"_dZnZnl5m_wNxIPOVdBQ0QM3fZuQzxHBnPSm_PnA","name_en":"kelly Elan 山羊皮 27cm 7K宝石蓝 银扣","name_cn":"kelly Elan 山羊皮 27cm 7K宝石蓝 银扣\nkelly 家族真正意义上的第一只腋下包,容量,厚度肩带长度 都挑不出任何毛病 日常使用率会很高的一只~ \n曼妙优雅的细长轮廓,小山羊皮搭配满满的复古腔调,收纳满分。肩带长度腋下背法非常nice!","specs":{"source":"wsxcme","sourceId":"_dZnZnl5m_wNxIPOVdBQ0QM3fZuQzxHBnPSm_PnA","sourceTagId":76963559,"sourceTagName":"爱马仕/女包","rawTitle":"kelly Elan 山羊皮 27cm 7K宝石蓝 银扣\nkelly 家族真正意义上的第一只腋下包,容量,厚度肩带长度 都挑不出任何毛病 日常使用率会很高的一只~ \n曼妙优雅的细长轮廓,小山羊皮搭配满满的复古腔调,收纳满分。肩带长度腋下背法非常nice!"},"price":null,"currency":"CNY","moq":1,"category":"hermes-women-bags","status":"active","alibaba_url":null,"images":["https://xcimg.szwego.com/20230710/i1688983798_6900_0.jpg","https://xcimg.szwego.com/20230710/i1688983798_2207_1.jpg","https://xcimg.szwego.com/20230710/i1688983798_4436_2.jpg","https://xcimg.szwego.com/20230710/i1688983798_1197_3.jpg","https://xcimg.szwego.com/20230710/i1688983798_4007_6.jpg","https://xcimg.szwego.com/20230710/i1688983798_9199_7.jpg","https://xcimg.szwego.com/20230710/i1688983798_59_8.jpg","https://xcimg.szwego.com/20230710/i1688983838_7447_0.jpg","https://xcimg.szwego.com/20230710/i1688983798_7259_5.jpg"],"created_at":"2024-10-22T04:49:50.778Z"},{"id":"item-e9c915835c7e","sku":"_di5i5jwM99woKfuAmhNcCoAqxcR_dlvUwT_-ajw","name_en":"kelly Elan 山羊皮 27cm 89黑色 银扣","name_cn":"kelly Elan 山羊皮 27cm 89黑色 银扣 \nkelly 家族真正意义上的第一只腋下包,容量,厚度肩带长度 都挑不出任何毛病 日常使用率会很高的一只~ \n曼妙优雅的细长轮廓,小山羊皮搭配黑银满满的复古腔调,收纳满分。肩带长度腋下背法非常nice!","specs":{"source":"wsxcme","sourceId":"_di5i5jwM99woKfuAmhNcCoAqxcR_dlvUwT_-ajw","sourceTagId":76963559,"sourceTagName":"爱马仕/女包","rawTitle":"kelly Elan 山羊皮 27cm 89黑色 银扣 \nkelly 家族真正意义上的第一只腋下包,容量,厚度肩带长度 都挑不出任何毛病 日常使用率会很高的一只~ \n曼妙优雅的细长轮廓,小山羊皮搭配黑银满满的复古腔调,收纳满分。肩带长度腋下背法非常nice!"},"price":null,"currency":"CNY","moq":1,"category":"hermes-women-bags","status":"active","alibaba_url":null,"images":["https://xcimg.szwego.com/20230709/i1688895995_3219_0.jpg","https://xcimg.szwego.com/20230709/i1688895995_2275_1.jpg","https://xcimg.szwego.com/20230709/i1688895995_9253_2.jpg","https://xcimg.szwego.com/20230709/i1688895995_8452_3.jpg","https://xcimg.szwego.com/20230709/i1688895995_6882_8.jpg","https://xcimg.szwego.com/20230709/i1688895995_7763_7.jpg","https://xcimg.szwego.com/20230709/i1688895995_1440_6.jpg","https://xcimg.szwego.com/20230709/i1688895995_3497_5.jpg","https://xcimg.szwego.com/20230709/i1688895995_6381_4.jpg"],"created_at":"2024-10-22T04:49:50.777Z"},{"id":"item-d7916a75d8f1","sku":"_da8a8zMCJ1Qss3ZL_fsQ-dqNRR2hjohNxDlntgg","name_en":"kelly Elan 山羊皮 27cm OG马鞍红 银扣","name_cn":"kelly Elan 山羊皮 27cm OG马鞍红 银扣\nkelly 家族真正意义上的第一只腋下包,容量,厚度肩带长度 都挑不出任何毛病 日常使用率会很高的一只~ \n曼妙优雅的细长轮廓,小山羊皮搭配满满的复古腔调,收纳满分。肩带长度腋下背法非常nice!","specs":{"source":"wsxcme","sourceId":"_da8a8zMCJ1Qss3ZL_fsQ-dqNRR2hjohNxDlntgg","sourceTagId":76963559,"sourceTagName":"爱马仕/女包","rawTitle":"kelly Elan 山羊皮 27cm OG马鞍红 银扣\nkelly 家族真正意义上的第一只腋下包,容量,厚度肩带长度 都挑不出任何毛病 日常使用率会很高的一只~ \n曼妙优雅的细长轮廓,小山羊皮搭配满满的复古腔调,收纳满分。肩带长度腋下背法非常nice!"},"price":null,"currency":"CNY","moq":1,"category":"hermes-women-bags","status":"active","alibaba_url":null,"images":["https://xcimg.szwego.com/20230802/i1690967418_9226_0.jpg","https://xcimg.szwego.com/20230802/i1690967418_5528_1.jpg","https://xcimg.szwego.com/20230802/i1690967418_3518_2.jpg","https://xcimg.szwego.com/20230802/i1690967418_2450_3.jpg","https://xcimg.szwego.com/20230802/i1690967418_2023_4.jpg","https://xcimg.szwego.com/20230802/i1690967418_5272_6.jpg","https://xcimg.szwego.com/20230802/i1690967418_2695_7.jpg","https://xcimg.szwego.com/20230802/i1690967418_5640_8.jpg","https://xcimg.szwego.com/20230802/i1690967418_7316_5.jpg"],"created_at":"2024-10-22T04:49:50.779Z"},{"id":"item-2768f135ab07","sku":"_dlDlDCkup8TC_4lMIJCUX5H0exu-_-HT-MteeUQ","name_en":"Kelly elan大象灰·金","name_cn":"Kelly elan大象灰·金\n进口牛皮 十字纹 手工蜡线 全钢五金\n肩带可拆卸,手提和腋下包2种背法 容量好背 无敌好背!!\n尺寸:27x15x5","specs":{"source":"wsxcme","sourceId":"_dlDlDCkup8TC_4lMIJCUX5H0exu-_-HT-MteeUQ","sourceTagId":76963559,"sourceTagName":"爱马仕/女包","rawTitle":"Kelly elan大象灰·金\n进口牛皮 十字纹 手工蜡线 全钢五金\n肩带可拆卸,手提和腋下包2种背法 容量好背 无敌好背!!\n尺寸:27x15x5"},"price":null,"currency":"CNY","moq":1,"category":"hermes-women-bags","status":"active","alibaba_url":null,"images":["https://xcimg.szwego.com/img/43e90bff/20240221/i1708500024_5308_5.jpg","https://xcimg.szwego.com/img/43e90bff/20240221/i1708500024_946_2.jpg","https://xcimg.szwego.com/img/43e90bff/20240221/i1708500024_7824_1.jpg","https://xcimg.szwego.com/img/43e90bff/20240221/i1708500024_8682_4.jpg","https://xcimg.szwego.com/img/43e90bff/20240221/i1708500024_4318_7.jpg","https://xcimg.szwego.com/img/43e90bff/20240221/i1708500024_1870_6.jpg","https://xcimg.szwego.com/img/43e90bff/20240221/i1708500024_6952_0.jpg","https://xcimg.szwego.com/img/43e90bff/20240221/i1708500024_1612_3.jpg","https://xcimg.szwego.com/img/43e90bff/20240221/i1708500024_3830_8.jpg"],"created_at":"2024-10-22T04:49:50.771Z"},{"id":"item-7992ee4efbdf","sku":"_dtqtqy7Z-0veTWjRF2nFi_ILWCRjRXfF8jufXrg","name_en":"Kelly elan大象灰·银","name_cn":"Kelly elan大象灰·银\n进口牛皮 十字纹 手工蜡线 全钢五金\n肩带可拆卸,手提和腋下包2种背法 容量好背 无敌好背!!\n尺寸:27x15x5","specs":{"source":"wsxcme","sourceId":"_dtqtqy7Z-0veTWjRF2nFi_ILWCRjRXfF8jufXrg","sourceTagId":76963559,"sourceTagName":"爱马仕/女包","rawTitle":"Kelly elan大象灰·银\n进口牛皮 十字纹 手工蜡线 全钢五金\n肩带可拆卸,手提和腋下包2种背法 容量好背 无敌好背!!\n尺寸:27x15x5"},"price":null,"currency":"CNY","moq":1,"category":"hermes-women-bags","status":"active","alibaba_url":null,"images":["https://xcimg.szwego.com/img/43e90bff/20240221/i1708500139_3113_8.jpg","https://xcimg.szwego.com/img/43e90bff/20240221/i1708500139_6857_6.jpg","https://xcimg.szwego.com/img/43e90bff/20240221/i1708500139_9672_5.jpg","https://xcimg.szwego.com/img/43e90bff/20240221/i1708500139_2196_7.jpg","https://xcimg.szwego.com/img/43e90bff/20240221/i1708500139_7494_0.jpg","https://xcimg.szwego.com/img/43e90bff/20240221/i1708500139_8874_4.jpg","https://xcimg.szwego.com/img/43e90bff/20240221/i1708500139_751_3.jpg","https://xcimg.szwego.com/img/43e90bff/20240221/i1708500139_53_1.jpg","https://xcimg.szwego.com/img/43e90bff/20240221/i1708500139_2338_2.jpg"],"created_at":"2024-10-22T04:49:50.772Z"},{"id":"item-becab643f0e8","sku":"_dSVSVH9EO4uWaMb5yasbd2CeDnCrlaRiXX8z8hw","name_en":"Kelly elan黑金","name_cn":"Kelly elan黑金\n进口牛皮 十字纹 手工蜡线 全钢五金\n肩带可拆卸,手提和腋下包2种背法 容量好背 无敌好背!!\n尺寸:27x15x5","specs":{"source":"wsxcme","sourceId":"_dSVSVH9EO4uWaMb5yasbd2CeDnCrlaRiXX8z8hw","sourceTagId":76963559,"sourceTagName":"爱马仕/女包","rawTitle":"Kelly elan黑金\n进口牛皮 十字纹 手工蜡线 全钢五金\n肩带可拆卸,手提和腋下包2种背法 容量好背 无敌好背!!\n尺寸:27x15x5"},"price":null,"currency":"CNY","moq":1,"category":"hermes-women-bags","status":"active","alibaba_url":null,"images":["https://xcimg.szwego.com/img/43e90bff/20240221/i1708499902_3555_4.jpg","https://xcimg.szwego.com/img/43e90bff/20240221/i1708499902_4130_1.jpg","https://xcimg.szwego.com/img/43e90bff/20240221/i1708499902_5878_0.jpg","https://xcimg.szwego.com/img/43e90bff/20240221/i1708499902_7315_2.jpg","https://xcimg.szwego.com/img/43e90bff/20240221/i1708499902_1018_5.jpg","https://xcimg.szwego.com/img/43e90bff/20240221/i1708499902_125_3.jpg"],"created_at":"2024-10-22T04:49:50.770Z"},{"id":"item-d3eb18470b2c","sku":"_d1R1RM4i-bDzs6XLaK9i5ebyeKOPYz-JD1d5JSQ","name_en":"Kelly elan黑银","name_cn":"Kelly elan黑银\n进口牛皮 十字纹 手工蜡线 全钢五金\n肩带可拆卸,手提和腋下包2种背法 容量好背 无敌好背!!\n尺寸:27x15x5","specs":{"source":"wsxcme","sourceId":"_d1R1RM4i-bDzs6XLaK9i5ebyeKOPYz-JD1d5JSQ","sourceTagId":76963559,"sourceTagName":"爱马仕/女包","rawTitle":"Kelly elan黑银\n进口牛皮 十字纹 手工蜡线 全钢五金\n肩带可拆卸,手提和腋下包2种背法 容量好背 无敌好背!!\n尺寸:27x15x5"},"price":null,"currency":"CNY","moq":1,"category":"hermes-women-bags","status":"active","alibaba_url":null,"images":["https://xcimg.szwego.com/img/43e90bff/20240221/i1708499462_410_0.jpg","https://xcimg.szwego.com/img/43e90bff/20240221/i1708499462_5691_1.jpg","https://xcimg.szwego.com/img/43e90bff/20240221/i1708499462_4791_6.jpg","https://xcimg.szwego.com/img/43e90bff/20240221/i1708499462_4379_7.jpg","https://xcimg.szwego.com/img/43e90bff/20240221/i1708499462_2510_2.jpg","https://xcimg.szwego.com/img/43e90bff/20240221/i1708499462_794_8.jpg","https://xcimg.szwego.com/img/43e90bff/20240221/i1708499462_5872_5.jpg","https://xcimg.szwego.com/img/43e90bff/20240221/i1708499462_7564_4.jpg","https://xcimg.szwego.com/img/43e90bff/20240221/i1708499462_799_3.jpg"],"created_at":"2024-10-22T04:49:50.769Z"},{"id":"item-94c19c0d9cfe","sku":"_dhJhJ7Q0PTsUL1ItT3qTQ-q1ppbNfmjwUJQE3Sw","name_en":"Kelly elan金棕色·金","name_cn":"Kelly elan金棕色·金\n进口牛皮 十字纹 手工蜡线 全钢五金\n肩带可拆卸,手提和腋下包2种背法 容量好背 无敌好背!!\n尺寸:27x15x5","specs":{"source":"wsxcme","sourceId":"_dhJhJ7Q0PTsUL1ItT3qTQ-q1ppbNfmjwUJQE3Sw","sourceTagId":76963559,"sourceTagName":"爱马仕/女包","rawTitle":"Kelly elan金棕色·金\n进口牛皮 十字纹 手工蜡线 全钢五金\n肩带可拆卸,手提和腋下包2种背法 容量好背 无敌好背!!\n尺寸:27x15x5"},"price":null,"currency":"CNY","moq":1,"category":"hermes-women-bags","status":"active","alibaba_url":null,"images":["https://xcimg.szwego.com/img/43e90bff/20240221/i1708503179_1021_4.jpg","https://xcimg.szwego.com/img/43e90bff/20240221/i1708503179_1583_2.jpg","https://xcimg.szwego.com/img/43e90bff/20240221/i1708503179_1631_3.jpg","https://xcimg.szwego.com/img/43e90bff/20240221/i1708503179_4279_6.jpg","https://xcimg.szwego.com/img/43e90bff/20240221/i1708503178_6180_0.jpg","https://xcimg.szwego.com/img/43e90bff/20240221/i1708503179_9290_7.jpg","https://xcimg.szwego.com/img/43e90bff/20240221/i1708503179_8260_5.jpg","https://xcimg.szwego.com/img/43e90bff/20240221/i1708503179_7764_8.jpg","https://xcimg.szwego.com/img/43e90bff/20240221/i1708503179_3281_1.jpg"],"created_at":"2024-10-22T04:49:50.774Z"},{"id":"item-2e7dc1d46fdc","sku":"_dPBPB313E896fcmOQLVLGarBgGsrEi7JbyTM-GQ","name_en":"Kelly elan金棕色·银","name_cn":"Kelly elan金棕色·银\n进口牛皮 十字纹 手工蜡线 全钢五金\n肩带可拆卸,手提和腋下包2种背法 容量好背 无敌好背!!\n尺寸:27x15x5","specs":{"source":"wsxcme","sourceId":"_dPBPB313E896fcmOQLVLGarBgGsrEi7JbyTM-GQ","sourceTagId":76963559,"sourceTagName":"爱马仕/女包","rawTitle":"Kelly elan金棕色·银\n进口牛皮 十字纹 手工蜡线 全钢五金\n肩带可拆卸,手提和腋下包2种背法 容量好背 无敌好背!!\n尺寸:27x15x5"},"price":null,"currency":"CNY","moq":1,"category":"hermes-women-bags","status":"active","alibaba_url":null,"images":["https://xcimg.szwego.com/img/43e90bff/20240221/i1708503044_4083_0.jpg","https://xcimg.szwego.com/img/43e90bff/20240221/i1708503044_2285_6.jpg","https://xcimg.szwego.com/img/43e90bff/20240221/i1708503044_1855_2.jpg","https://xcimg.szwego.com/img/43e90bff/20240221/i1708503044_276_7.jpg","https://xcimg.szwego.com/img/43e90bff/20240221/i1708503044_2919_5.jpg","https://xcimg.szwego.com/img/43e90bff/20240221/i1708503044_5855_3.jpg","https://xcimg.szwego.com/img/43e90bff/20240221/i1708503044_3786_8.jpg","https://xcimg.szwego.com/img/43e90bff/20240221/i1708503044_4019_1.jpg","https://xcimg.szwego.com/img/43e90bff/20240221/i1708503044_9507_4.jpg"],"created_at":"2024-10-22T04:49:50.773Z"},{"id":"item-1e2d7bca12da","sku":"_d-T-TaFo6-HowL2cN5WXGiVpKRuasL5tFK4t9xw","name_en":"Kelly elan枣红·金","name_cn":"Kelly elan枣红·金\n进口牛皮 十字纹 手工蜡线 全钢五金\n肩带可拆卸,手提和腋下包2种背法 容量好背 无敌好背!!\n尺寸:27x15x5","specs":{"source":"wsxcme","sourceId":"_d-T-TaFo6-HowL2cN5WXGiVpKRuasL5tFK4t9xw","sourceTagId":76963559,"sourceTagName":"爱马仕/女包","rawTitle":"Kelly elan枣红·金\n进口牛皮 十字纹 手工蜡线 全钢五金\n肩带可拆卸,手提和腋下包2种背法 容量好背 无敌好背!!\n尺寸:27x15x5"},"price":null,"currency":"CNY","moq":1,"category":"hermes-women-bags","status":"active","alibaba_url":null,"images":["https://xcimg.szwego.com/img/43e90bff/20240221/i1708503634_9612_0.jpg","https://xcimg.szwego.com/img/43e90bff/20240221/i1708503634_9909_7.jpg","https://xcimg.szwego.com/img/43e90bff/20240221/i1708503634_2503_8.jpg","https://xcimg.szwego.com/img/43e90bff/20240221/i1708503634_2230_6.jpg","https://xcimg.szwego.com/img/43e90bff/20240221/i1708503634_1267_2.jpg","https://xcimg.szwego.com/img/43e90bff/20240221/i1708503634_6962_1.jpg","https://xcimg.szwego.com/img/43e90bff/20240221/i1708503634_8851_3.jpg","https://xcimg.szwego.com/img/43e90bff/20240221/i1708503634_3696_4.jpg","https://xcimg.szwego.com/img/43e90bff/20240221/i1708503634_428_5.jpg"],"created_at":"2024-10-22T04:49:50.776Z"},{"id":"item-5142e99dffc0","sku":"_d-_-_7tZJIG1EFnHHHS2c23PhE50pozSrsIFqmg","name_en":"Kelly elan枣红·银","name_cn":"Kelly elan枣红·银\n进口牛皮 十字纹 手工蜡线 全钢五金\n肩带可拆卸,手提和腋下包2种背法 容量好背 无敌好背!!\n尺寸:27x15x5","specs":{"source":"wsxcme","sourceId":"_d-_-_7tZJIG1EFnHHHS2c23PhE50pozSrsIFqmg","sourceTagId":76963559,"sourceTagName":"爱马仕/女包","rawTitle":"Kelly elan枣红·银\n进口牛皮 十字纹 手工蜡线 全钢五金\n肩带可拆卸,手提和腋下包2种背法 容量好背 无敌好背!!\n尺寸:27x15x5"},"price":null,"currency":"CNY","moq":1,"category":"hermes-women-bags","status":"active","alibaba_url":null,"images":["https://xcimg.szwego.com/img/43e90bff/20240221/i1708503304_5244_6.jpg","https://xcimg.szwego.com/img/43e90bff/20240221/i1708503304_739_7.jpg","https://xcimg.szwego.com/img/43e90bff/20240221/i1708503304_8095_4.jpg","https://xcimg.szwego.com/img/43e90bff/20240221/i1708503304_5220_1.jpg","https://xcimg.szwego.com/img/43e90bff/20240221/i1708503304_4159_2.jpg","https://xcimg.szwego.com/img/43e90bff/20240221/i1708503304_3582_5.jpg","https://xcimg.szwego.com/img/43e90bff/20240221/i1708503304_105_8.jpg","https://xcimg.szwego.com/img/43e90bff/20240221/i1708503304_1402_0.jpg","https://xcimg.szwego.com/img/43e90bff/20240221/i1708503304_3509_3.jpg"],"created_at":"2024-10-22T04:49:50.775Z"},{"id":"item-f11b924bec0c","sku":"_drPrPHgzQpioQJLYj7-C8qJVKSNJ69V6UsOhMuA","name_en":"kelly2424 mini 21cm Evercolor/swift 强烈种草 年轻复古气息,不仅貌美,而且各种背法都可以轻松hold住(手提、单肩、斜挎、双肩),双肩带背法超实用,内容量很足。精致优雅又随性,每一种背法都能呈现出不同的风格。","name_cn":"kelly2424 mini 21cm Evercolor/swift 强烈种草 年轻复古气息,不仅貌美,而且各种背法都可以轻松hold住(手提、单肩、斜挎、双肩),双肩带背法超实用,内容量很足。精致优雅又随性,每一种背法都能呈现出不同的风格。","specs":{"source":"wsxcme","sourceId":"_drPrPHgzQpioQJLYj7-C8qJVKSNJ69V6UsOhMuA","sourceTagId":76963559,"sourceTagName":"爱马仕/女包","rawTitle":"kelly2424 mini 21cm Evercolor/swift 强烈种草 年轻复古气息,不仅貌美,而且各种背法都可以轻松hold住(手提、单肩、斜挎、双肩),双肩带背法超实用,内容量很足。精致优雅又随性,每一种背法都能呈现出不同的风格。"},"price":null,"currency":"CNY","moq":1,"category":"hermes-women-bags","status":"active","alibaba_url":null,"images":["https://xcimg.szwego.com/20220915/i1663220654_9659_0.jpg","https://xcimg.szwego.com/20220915/i1663220654_6705_1.jpg","https://xcimg.szwego.com/20220915/i1663220654_1435_2.jpg","https://xcimg.szwego.com/20220915/i1663220654_437_3.jpg"],"created_at":"2024-10-22T04:49:50.754Z"},{"id":"item-e2c5d2f33b49","sku":"_dPkPkfbvVyD_jkp5v6X0smxHF_CyoWuRJ8ZI-1A","name_en":"kelly2424 mini 21cm Evercolor/swift 强烈种草 年轻复古气息,不仅貌美,而且各种背法都可以轻松hold住(手提、单肩、斜挎、双肩),双肩带背法超实用,内容量很足。精致优雅又随性,每一种背法都能呈现出不同的风格。","name_cn":"kelly2424 mini 21cm Evercolor/swift 强烈种草 年轻复古气息,不仅貌美,而且各种背法都可以轻松hold住(手提、单肩、斜挎、双肩),双肩带背法超实用,内容量很足。精致优雅又随性,每一种背法都能呈现出不同的风格。","specs":{"source":"wsxcme","sourceId":"_dPkPkfbvVyD_jkp5v6X0smxHF_CyoWuRJ8ZI-1A","sourceTagId":76963559,"sourceTagName":"爱马仕/女包","rawTitle":"kelly2424 mini 21cm Evercolor/swift 强烈种草 年轻复古气息,不仅貌美,而且各种背法都可以轻松hold住(手提、单肩、斜挎、双肩),双肩带背法超实用,内容量很足。精致优雅又随性,每一种背法都能呈现出不同的风格。"},"price":null,"currency":"CNY","moq":1,"category":"hermes-women-bags","status":"active","alibaba_url":null,"images":["https://xcimg.szwego.com/20220915/i1663220955_4622_0.jpg","https://xcimg.szwego.com/20220915/i1663220955_3561_1.jpg","https://xcimg.szwego.com/20220915/i1663220955_3020_2.jpg","https://xcimg.szwego.com/20220915/i1663220955_2207_3.jpg","https://xcimg.szwego.com/20220915/i1663220955_1379_4.jpg"],"created_at":"2024-10-22T04:49:50.759Z"},{"id":"item-de506f80f6e4","sku":"_diviv6EKqeFPeCT8FvazysokAY4pLf5G5GKREPg","name_en":"kelly2424 mini 21cm Evercolor/swift 强烈种草 年轻复古气息,不仅貌美,而且各种背法都可以轻松hold住(手提、单肩、斜挎、双肩),双肩带背法超实用,内容量很足。精致优雅又随性,每一种背法都能呈现出不同的风格。","name_cn":"kelly2424 mini 21cm Evercolor/swift 强烈种草 年轻复古气息,不仅貌美,而且各种背法都可以轻松hold住(手提、单肩、斜挎、双肩),双肩带背法超实用,内容量很足。精致优雅又随性,每一种背法都能呈现出不同的风格。","specs":{"source":"wsxcme","sourceId":"_diviv6EKqeFPeCT8FvazysokAY4pLf5G5GKREPg","sourceTagId":76963559,"sourceTagName":"爱马仕/女包","rawTitle":"kelly2424 mini 21cm Evercolor/swift 强烈种草 年轻复古气息,不仅貌美,而且各种背法都可以轻松hold住(手提、单肩、斜挎、双肩),双肩带背法超实用,内容量很足。精致优雅又随性,每一种背法都能呈现出不同的风格。"},"price":null,"currency":"CNY","moq":1,"category":"hermes-women-bags","status":"active","alibaba_url":null,"images":["https://xcimg.szwego.com/20220915/i1663221010_2593_0.jpg","https://xcimg.szwego.com/20220915/i1663221010_6610_1.jpg","https://xcimg.szwego.com/20220915/i1663221010_9161_2.jpg","https://xcimg.szwego.com/20220915/i1663221010_5698_3.jpg"],"created_at":"2024-10-22T04:49:50.760Z"},{"id":"item-b94ab1107cc5","sku":"_dekekoOVs57lCQLM6n3TjbfOxOCNHvn5gCeDFmg","name_en":"kelly2424 mini 21cm Evercolor/swift 强烈种草 年轻复古气息,不仅貌美,而且各种背法都可以轻松hold住(手提、单肩、斜挎、双肩),双肩带背法超实用,内容量很足。精致优雅又随性,每一种背法都能呈现出不同的风格。","name_cn":"kelly2424 mini 21cm Evercolor/swift 强烈种草 年轻复古气息,不仅貌美,而且各种背法都可以轻松hold住(手提、单肩、斜挎、双肩),双肩带背法超实用,内容量很足。精致优雅又随性,每一种背法都能呈现出不同的风格。","specs":{"source":"wsxcme","sourceId":"_dekekoOVs57lCQLM6n3TjbfOxOCNHvn5gCeDFmg","sourceTagId":76963559,"sourceTagName":"爱马仕/女包","rawTitle":"kelly2424 mini 21cm Evercolor/swift 强烈种草 年轻复古气息,不仅貌美,而且各种背法都可以轻松hold住(手提、单肩、斜挎、双肩),双肩带背法超实用,内容量很足。精致优雅又随性,每一种背法都能呈现出不同的风格。"},"price":null,"currency":"CNY","moq":1,"category":"hermes-women-bags","status":"active","alibaba_url":null,"images":["https://xcimg.szwego.com/20220915/i1663220537_974_0.jpg","https://xcimg.szwego.com/20220915/i1663220537_6759_1.jpg","https://xcimg.szwego.com/20220915/i1663220537_2233_2.jpg","https://xcimg.szwego.com/20220915/i1663220537_8092_3.jpg","https://xcimg.szwego.com/20220915/i1663220537_4629_4.jpg"],"created_at":"2024-10-22T04:49:50.753Z"},{"id":"item-b2bdd4b74561","sku":"_dXaXageQpieCSIB6-MR51VpMAy15oOxIm1f_L_w","name_en":"kelly2424 mini 21cm Evercolor/swift 强烈种草 年轻复古气息,不仅貌美,而且各种背法都可以轻松hold住(手提、单肩、斜挎、双肩),双肩带背法超实用,内容量很足。精致优雅又随性,每一种背法都能呈现出不同的风格。","name_cn":"kelly2424 mini 21cm Evercolor/swift 强烈种草 年轻复古气息,不仅貌美,而且各种背法都可以轻松hold住(手提、单肩、斜挎、双肩),双肩带背法超实用,内容量很足。精致优雅又随性,每一种背法都能呈现出不同的风格。","specs":{"source":"wsxcme","sourceId":"_dXaXageQpieCSIB6-MR51VpMAy15oOxIm1f_L_w","sourceTagId":76963559,"sourceTagName":"爱马仕/女包","rawTitle":"kelly2424 mini 21cm Evercolor/swift 强烈种草 年轻复古气息,不仅貌美,而且各种背法都可以轻松hold住(手提、单肩、斜挎、双肩),双肩带背法超实用,内容量很足。精致优雅又随性,每一种背法都能呈现出不同的风格。"},"price":null,"currency":"CNY","moq":1,"category":"hermes-women-bags","status":"active","alibaba_url":null,"images":["https://xcimg.szwego.com/20220915/i1663220409_1540_0.jpg","https://xcimg.szwego.com/20220915/i1663220409_3871_1.jpg","https://xcimg.szwego.com/20220915/i1663220409_6977_2.jpg","https://xcimg.szwego.com/20220915/i1663220409_2996_3.jpg"],"created_at":"2024-10-22T04:49:50.751Z"},{"id":"item-a5e2fbdcf12c","sku":"_dLjLj5EPbjpa8vyJi6SLJU2nYfsowChy4twmmig","name_en":"kelly2424 mini 21cm Evercolor/swift 强烈种草 年轻复古气息,不仅貌美,而且各种背法都可以轻松hold住(手提、单肩、斜挎、双肩),双肩带背法超实用,内容量很足。精致优雅又随性,每一种背法都能呈现出不同的风格。","name_cn":"kelly2424 mini 21cm Evercolor/swift 强烈种草 年轻复古气息,不仅貌美,而且各种背法都可以轻松hold住(手提、单肩、斜挎、双肩),双肩带背法超实用,内容量很足。精致优雅又随性,每一种背法都能呈现出不同的风格。","specs":{"source":"wsxcme","sourceId":"_dLjLj5EPbjpa8vyJi6SLJU2nYfsowChy4twmmig","sourceTagId":76963559,"sourceTagName":"爱马仕/女包","rawTitle":"kelly2424 mini 21cm Evercolor/swift 强烈种草 年轻复古气息,不仅貌美,而且各种背法都可以轻松hold住(手提、单肩、斜挎、双肩),双肩带背法超实用,内容量很足。精致优雅又随性,每一种背法都能呈现出不同的风格。"},"price":null,"currency":"CNY","moq":1,"category":"hermes-women-bags","status":"active","alibaba_url":null,"images":["https://xcimg.szwego.com/20220915/i1663221064_611_0.jpg","https://xcimg.szwego.com/20220915/i1663221064_1723_1.jpg","https://xcimg.szwego.com/20220915/i1663221064_6206_2.jpg","https://xcimg.szwego.com/20220915/i1663221064_2240_3.jpg","https://xcimg.szwego.com/20220915/i1663221064_3996_4.jpg"],"created_at":"2024-10-22T04:49:50.761Z"},{"id":"item-7214ceadb081","sku":"_dd2d2_D1Akkxtoo-9QmS5f1XVZYo4QhsqhXPNng","name_en":"kelly2424 mini 21cm Evercolor/swift 强烈种草 年轻复古气息,不仅貌美,而且各种背法都可以轻松hold住(手提、单肩、斜挎、双肩),双肩带背法超实用,内容量很足。精致优雅又随性,每一种背法都能呈现出不同的风格。","name_cn":"kelly2424 mini 21cm Evercolor/swift 强烈种草 年轻复古气息,不仅貌美,而且各种背法都可以轻松hold住(手提、单肩、斜挎、双肩),双肩带背法超实用,内容量很足。精致优雅又随性,每一种背法都能呈现出不同的风格。","specs":{"source":"wsxcme","sourceId":"_dd2d2_D1Akkxtoo-9QmS5f1XVZYo4QhsqhXPNng","sourceTagId":76963559,"sourceTagName":"爱马仕/女包","rawTitle":"kelly2424 mini 21cm Evercolor/swift 强烈种草 年轻复古气息,不仅貌美,而且各种背法都可以轻松hold住(手提、单肩、斜挎、双肩),双肩带背法超实用,内容量很足。精致优雅又随性,每一种背法都能呈现出不同的风格。"},"price":null,"currency":"CNY","moq":1,"category":"hermes-women-bags","status":"active","alibaba_url":null,"images":["https://xcimg.szwego.com/20220915/i1663220890_7363_0.jpg","https://xcimg.szwego.com/20220915/i1663220890_9161_1.jpg","https://xcimg.szwego.com/20220915/i1663220890_1834_2.jpg","https://xcimg.szwego.com/20220915/i1663220890_4413_3.jpg","https://xcimg.szwego.com/20220915/i1663220890_2655_4.jpg"],"created_at":"2024-10-22T04:49:50.758Z"},{"id":"item-6e652fa84875","sku":"_dpfpf6S1JICvvPPKp4b_CM1_Nvvmsn4mtLJNn0g","name_en":"kelly2424 mini 21cm Evercolor/swift 强烈种草 年轻复古气息,不仅貌美,而且各种背法都可以轻松hold住(手提、单肩、斜挎、双肩),双肩带背法超实用,内容量很足。精致优雅又随性,每一种背法都能呈现出不同的风格。","name_cn":"kelly2424 mini 21cm Evercolor/swift 强烈种草 年轻复古气息,不仅貌美,而且各种背法都可以轻松hold住(手提、单肩、斜挎、双肩),双肩带背法超实用,内容量很足。精致优雅又随性,每一种背法都能呈现出不同的风格。","specs":{"source":"wsxcme","sourceId":"_dpfpf6S1JICvvPPKp4b_CM1_Nvvmsn4mtLJNn0g","sourceTagId":76963559,"sourceTagName":"爱马仕/女包","rawTitle":"kelly2424 mini 21cm Evercolor/swift 强烈种草 年轻复古气息,不仅貌美,而且各种背法都可以轻松hold住(手提、单肩、斜挎、双肩),双肩带背法超实用,内容量很足。精致优雅又随性,每一种背法都能呈现出不同的风格。"},"price":null,"currency":"CNY","moq":1,"category":"hermes-women-bags","status":"active","alibaba_url":null,"images":["https://xcimg.szwego.com/20220915/i1663223944_6511_0.jpg","https://xcimg.szwego.com/20220915/i1663223944_5476_1.jpg","https://xcimg.szwego.com/20220915/i1663223944_9236_2.jpg","https://xcimg.szwego.com/20220915/i1663223944_966_3.jpg","https://xcimg.szwego.com/20220915/i1663223944_4540_4.jpg"],"created_at":"2024-10-22T04:49:50.764Z"},{"id":"item-60f59946cc52","sku":"_dmvmveELrPhkEt9P9ECTgpQMA-xV44JFmP34wPA","name_en":"kelly2424 mini 21cm Evercolor/swift 强烈种草 年轻复古气息,不仅貌美,而且各种背法都可以轻松hold住(手提、单肩、斜挎、双肩),双肩带背法超实用,内容量很足。精致优雅又随性,每一种背法都能呈现出不同的风格。","name_cn":"kelly2424 mini 21cm Evercolor/swift 强烈种草 年轻复古气息,不仅貌美,而且各种背法都可以轻松hold住(手提、单肩、斜挎、双肩),双肩带背法超实用,内容量很足。精致优雅又随性,每一种背法都能呈现出不同的风格。","specs":{"source":"wsxcme","sourceId":"_dmvmveELrPhkEt9P9ECTgpQMA-xV44JFmP34wPA","sourceTagId":76963559,"sourceTagName":"爱马仕/女包","rawTitle":"kelly2424 mini 21cm Evercolor/swift 强烈种草 年轻复古气息,不仅貌美,而且各种背法都可以轻松hold住(手提、单肩、斜挎、双肩),双肩带背法超实用,内容量很足。精致优雅又随性,每一种背法都能呈现出不同的风格。"},"price":null,"currency":"CNY","moq":1,"category":"hermes-women-bags","status":"active","alibaba_url":null,"images":["https://xcimg.szwego.com/20220915/i1663220480_2183_0.jpg","https://xcimg.szwego.com/20220915/i1663220480_3447_1.jpg","https://xcimg.szwego.com/20220915/i1663220480_9014_2.jpg","https://xcimg.szwego.com/20220915/i1663220480_5377_3.jpg"],"created_at":"2024-10-22T04:49:50.752Z"},{"id":"item-5862f26c0bb4","sku":"_dnwnwCV-bGoaIiXmhpgFPdtx3L7tMXTzA_LcE0Q","name_en":"kelly2424 mini 21cm Evercolor/swift 强烈种草 年轻复古气息,不仅貌美,而且各种背法都可以轻松hold住(手提、单肩、斜挎、双肩),双肩带背法超实用,内容量很足。精致优雅又随性,每一种背法都能呈现出不同的风格。","name_cn":"kelly2424 mini 21cm Evercolor/swift 强烈种草 年轻复古气息,不仅貌美,而且各种背法都可以轻松hold住(手提、单肩、斜挎、双肩),双肩带背法超实用,内容量很足。精致优雅又随性,每一种背法都能呈现出不同的风格。","specs":{"source":"wsxcme","sourceId":"_dnwnwCV-bGoaIiXmhpgFPdtx3L7tMXTzA_LcE0Q","sourceTagId":76963559,"sourceTagName":"爱马仕/女包","rawTitle":"kelly2424 mini 21cm Evercolor/swift 强烈种草 年轻复古气息,不仅貌美,而且各种背法都可以轻松hold住(手提、单肩、斜挎、双肩),双肩带背法超实用,内容量很足。精致优雅又随性,每一种背法都能呈现出不同的风格。"},"price":null,"currency":"CNY","moq":1,"category":"hermes-women-bags","status":"active","alibaba_url":null,"images":["https://xcimg.szwego.com/20220915/i1663220242_7994_0.jpg","https://xcimg.szwego.com/20220915/i1663220242_1648_1.jpg","https://xcimg.szwego.com/20220915/i1663220242_1092_2.jpg","https://xcimg.szwego.com/20220915/i1663220242_375_3.jpg"],"created_at":"2024-10-22T04:49:50.749Z"},{"id":"item-4a439aef8572","sku":"_dYCYCmYHCFT14zIYW6neNcFZq5m_vveCCA5_A6g","name_en":"kelly2424 mini 21cm Evercolor/swift 强烈种草 年轻复古气息,不仅貌美,而且各种背法都可以轻松hold住(手提、单肩、斜挎、双肩),双肩带背法超实用,内容量很足。精致优雅又随性,每一种背法都能呈现出不同的风格。","name_cn":"kelly2424 mini 21cm Evercolor/swift 强烈种草 年轻复古气息,不仅貌美,而且各种背法都可以轻松hold住(手提、单肩、斜挎、双肩),双肩带背法超实用,内容量很足。精致优雅又随性,每一种背法都能呈现出不同的风格。","specs":{"source":"wsxcme","sourceId":"_dYCYCmYHCFT14zIYW6neNcFZq5m_vveCCA5_A6g","sourceTagId":76963559,"sourceTagName":"爱马仕/女包","rawTitle":"kelly2424 mini 21cm Evercolor/swift 强烈种草 年轻复古气息,不仅貌美,而且各种背法都可以轻松hold住(手提、单肩、斜挎、双肩),双肩带背法超实用,内容量很足。精致优雅又随性,每一种背法都能呈现出不同的风格。"},"price":null,"currency":"CNY","moq":1,"category":"hermes-women-bags","status":"active","alibaba_url":null,"images":["https://xcimg.szwego.com/20220915/i1663220724_6155_0.jpg","https://xcimg.szwego.com/20220915/i1663220724_2696_1.jpg","https://xcimg.szwego.com/20220915/i1663220724_7772_2.jpg","https://xcimg.szwego.com/20220915/i1663220724_4164_3.jpg"],"created_at":"2024-10-22T04:49:50.755Z"},{"id":"item-43436fe58d5a","sku":"_dKxKxloc1EuWpT2lKBPkVAfPwB7lZA7bs-8knxA","name_en":"kelly2424 mini 21cm Evercolor/swift 强烈种草 年轻复古气息,不仅貌美,而且各种背法都可以轻松hold住(手提、单肩、斜挎、双肩),双肩带背法超实用,内容量很足。精致优雅又随性,每一种背法都能呈现出不同的风格。","name_cn":"kelly2424 mini 21cm Evercolor/swift 强烈种草 年轻复古气息,不仅貌美,而且各种背法都可以轻松hold住(手提、单肩、斜挎、双肩),双肩带背法超实用,内容量很足。精致优雅又随性,每一种背法都能呈现出不同的风格。","specs":{"source":"wsxcme","sourceId":"_dKxKxloc1EuWpT2lKBPkVAfPwB7lZA7bs-8knxA","sourceTagId":76963559,"sourceTagName":"爱马仕/女包","rawTitle":"kelly2424 mini 21cm Evercolor/swift 强烈种草 年轻复古气息,不仅貌美,而且各种背法都可以轻松hold住(手提、单肩、斜挎、双肩),双肩带背法超实用,内容量很足。精致优雅又随性,每一种背法都能呈现出不同的风格。"},"price":null,"currency":"CNY","moq":1,"category":"hermes-women-bags","status":"active","alibaba_url":null,"images":["https://xcimg.szwego.com/20220915/i1663220358_1184_0.jpg","https://xcimg.szwego.com/20220915/i1663220358_7727_1.jpg","https://xcimg.szwego.com/20220915/i1663220358_3488_2.jpg","https://xcimg.szwego.com/20220915/i1663220358_4256_3.jpg"],"created_at":"2024-10-22T04:49:50.750Z"},{"id":"item-3023d9809f7c","sku":"_dFrFrnjboCU6_ttAu_rkAYC9enHic9dvbiRRa9Q","name_en":"kelly2424 mini 21cm Evercolor/swift 强烈种草 年轻复古气息,不仅貌美,而且各种背法都可以轻松hold住(手提、单肩、斜挎、双肩),双肩带背法超实用,内容量很足。精致优雅又随性,每一种背法都能呈现出不同的风格。","name_cn":"kelly2424 mini 21cm Evercolor/swift 强烈种草 年轻复古气息,不仅貌美,而且各种背法都可以轻松hold住(手提、单肩、斜挎、双肩),双肩带背法超实用,内容量很足。精致优雅又随性,每一种背法都能呈现出不同的风格。","specs":{"source":"wsxcme","sourceId":"_dFrFrnjboCU6_ttAu_rkAYC9enHic9dvbiRRa9Q","sourceTagId":76963559,"sourceTagName":"爱马仕/女包","rawTitle":"kelly2424 mini 21cm Evercolor/swift 强烈种草 年轻复古气息,不仅貌美,而且各种背法都可以轻松hold住(手提、单肩、斜挎、双肩),双肩带背法超实用,内容量很足。精致优雅又随性,每一种背法都能呈现出不同的风格。"},"price":null,"currency":"CNY","moq":1,"category":"hermes-women-bags","status":"active","alibaba_url":null,"images":["https://xcimg.szwego.com/20220915/i1663220785_3448_0.jpg","https://xcimg.szwego.com/20220915/i1663220785_1647_1.jpg","https://xcimg.szwego.com/20220915/i1663220785_7252_2.jpg","https://xcimg.szwego.com/20220915/i1663220785_887_3.jpg"],"created_at":"2024-10-22T04:49:50.756Z"}],"page":16,"pageSize":24,"total":439,"totalPages":19}
