{"items":[{"id":"item-fa9cd85e50fd","sku":"_dvlvlqztnDyoaODdqFmgc7AErxkxT-W4kSe2ULg","name_en":"✨凯莉二代mini","name_cn":"✨凯莉二代mini \n颜色:金棕/奶昔白/克\n进口epsom皮、金扣\n机车+半收工手缝蜡线\n尺寸:19cm","specs":{"source":"wsxcme","sourceId":"_dvlvlqztnDyoaODdqFmgc7AErxkxT-W4kSe2ULg","sourceTagId":76963559,"sourceTagName":"爱马仕/女包","rawTitle":"✨凯莉二代mini \n颜色:金棕/奶昔白/克\n进口epsom皮、金扣\n机车+半收工手缝蜡线\n尺寸:19cm"},"price":null,"currency":"CNY","moq":1,"category":"hermes-women-bags","status":"active","alibaba_url":null,"images":["https://xcimg.szwego.com/img/88b306c4/20240904/a1725379937777_3403.jpg","https://xcimg.szwego.com/img/88b306c4/20240904/a1725379937925_4350.jpg","https://xcimg.szwego.com/img/88b306c4/20240904/a1725379937595_5380.jpg","https://xcimg.szwego.com/img/88b306c4/20240904/a1725379938056_8157.jpg","https://xcimg.szwego.com/img/88b306c4/20240904/a1725379937640_7350.jpg","https://xcimg.szwego.com/img/88b306c4/20240904/a1725379937626_6675.jpg","https://xcimg.szwego.com/img/88b306c4/20240904/a1725379943518_5220.jpg","https://xcimg.szwego.com/img/88b306c4/20240904/a1725379943549_2841.jpg","https://xcimg.szwego.com/img/88b306c4/20240904/a1725379943396_8157.jpg"],"created_at":"2024-10-22T05:04:33.190Z"},{"id":"item-f10c7595d2e3","sku":"_dototEMs8pPVvOA3VVevwCBV6-Vw86ncxpCwiBw","name_en":"✨凯莉二代mini","name_cn":"✨凯莉二代mini \n颜色:奶昔白/梦幻粉紫/金棕\n进口epsom皮、银扣\n机车+半收工手缝蜡线\n尺寸:19cm","specs":{"source":"wsxcme","sourceId":"_dototEMs8pPVvOA3VVevwCBV6-Vw86ncxpCwiBw","sourceTagId":76963559,"sourceTagName":"爱马仕/女包","rawTitle":"✨凯莉二代mini \n颜色:奶昔白/梦幻粉紫/金棕\n进口epsom皮、银扣\n机车+半收工手缝蜡线\n尺寸:19cm"},"price":null,"currency":"CNY","moq":1,"category":"hermes-women-bags","status":"active","alibaba_url":null,"images":["https://xcimg.szwego.com/img/88b306c4/20240903/a1725373894063_3128.jpg","https://xcimg.szwego.com/img/88b306c4/20240903/a1725373893813_1580.jpg","https://xcimg.szwego.com/img/88b306c4/20240903/a1725373893931_7248.jpg","https://xcimg.szwego.com/img/88b306c4/20240903/a1725373894124_5216.jpg","https://xcimg.szwego.com/img/88b306c4/20240903/a1725373893825_6135.jpg","https://xcimg.szwego.com/img/88b306c4/20240903/a1725373893812_3401.jpg","https://xcimg.szwego.com/img/88b306c4/20240903/a1725373895054_7865.jpg","https://xcimg.szwego.com/img/88b306c4/20240903/a1725373895042_2064.jpg","https://xcimg.szwego.com/img/88b306c4/20240903/a1725373895041_3063.jpg"],"created_at":"2024-10-22T05:04:33.200Z"},{"id":"item-edf48f43bf33","sku":"_dnZnZdCP8DPrAP5Wrri4MYKlAcu-ccI3KG6ejag","name_en":"✨凯莉二代mini","name_cn":"✨凯莉二代mini \n颜色:奶昔白/金棕\n进口epsom皮、金扣\n机车+半收工手缝蜡线\n尺寸:19cm","specs":{"source":"wsxcme","sourceId":"_dnZnZdCP8DPrAP5Wrri4MYKlAcu-ccI3KG6ejag","sourceTagId":76963559,"sourceTagName":"爱马仕/女包","rawTitle":"✨凯莉二代mini \n颜色:奶昔白/金棕\n进口epsom皮、金扣\n机车+半收工手缝蜡线\n尺寸:19cm"},"price":null,"currency":"CNY","moq":1,"category":"hermes-women-bags","status":"active","alibaba_url":null,"images":["https://xcimg.szwego.com/img/88b306c4/20240903/a1725376822247_0431.jpg","https://xcimg.szwego.com/img/88b306c4/20240903/a1725376822448_0063.jpg","https://xcimg.szwego.com/img/88b306c4/20240903/a1725376822147_1454.jpg","https://xcimg.szwego.com/img/88b306c4/20240903/a1725376822051_4148.jpg","https://xcimg.szwego.com/img/88b306c4/20240903/a1725376822447_7428.jpg","https://xcimg.szwego.com/img/88b306c4/20240903/a1725376822123_0452.jpg","https://xcimg.szwego.com/img/88b306c4/20240903/a1725376823471_8763.jpg","https://xcimg.szwego.com/img/88b306c4/20240903/a1725376823468_3723.jpg","https://xcimg.szwego.com/img/88b306c4/20240903/a1725376823423_6158.jpg"],"created_at":"2024-10-22T05:04:33.214Z"},{"id":"item-ec8759ae9131","sku":"_d8c8czG-9PpBS8eYSh1MafoVKTySOW5zZlNcRoQ","name_en":"✨凯莉二代mini","name_cn":"✨凯莉二代mini \n颜色:奶昔白/金棕\n进口epsom皮、金扣\n机车+半收工手缝蜡线\n尺寸:19cm","specs":{"source":"wsxcme","sourceId":"_d8c8czG-9PpBS8eYSh1MafoVKTySOW5zZlNcRoQ","sourceTagId":76963559,"sourceTagName":"爱马仕/女包","rawTitle":"✨凯莉二代mini \n颜色:奶昔白/金棕\n进口epsom皮、金扣\n机车+半收工手缝蜡线\n尺寸:19cm"},"price":null,"currency":"CNY","moq":1,"category":"hermes-women-bags","status":"active","alibaba_url":null,"images":["https://xcimg.szwego.com/img/88b306c4/20240903/a1725374727236_4355.jpg","https://xcimg.szwego.com/img/88b306c4/20240903/a1725374727183_8583.jpg","https://xcimg.szwego.com/img/88b306c4/20240903/a1725374727052_0318.jpg","https://xcimg.szwego.com/img/88b306c4/20240903/a1725374727249_8528.jpg","https://xcimg.szwego.com/img/88b306c4/20240903/a1725374727354_3844.jpg","https://xcimg.szwego.com/img/88b306c4/20240903/a1725374727506_3221.jpg","https://xcimg.szwego.com/img/88b306c4/20240903/a1725374730872_4102.jpg","https://xcimg.szwego.com/img/88b306c4/20240903/a1725374730888_2042.jpg","https://xcimg.szwego.com/img/88b306c4/20240903/a1725374730903_5762.jpg"],"created_at":"2024-10-22T05:04:33.204Z"},{"id":"item-e8a4f80daa2d","sku":"_dvfvfQIDk2fLJSD-7HD7f1jSxXoqRbqyO4Y2Ymw","name_en":"✨凯莉二代mini","name_cn":"✨凯莉二代mini \n颜色:奶昔白/锦葵紫\n进口epsom皮、金扣\n机车+半收工手缝蜡线\n尺寸:19cm","specs":{"source":"wsxcme","sourceId":"_dvfvfQIDk2fLJSD-7HD7f1jSxXoqRbqyO4Y2Ymw","sourceTagId":76963559,"sourceTagName":"爱马仕/女包","rawTitle":"✨凯莉二代mini \n颜色:奶昔白/锦葵紫\n进口epsom皮、金扣\n机车+半收工手缝蜡线\n尺寸:19cm"},"price":null,"currency":"CNY","moq":1,"category":"hermes-women-bags","status":"active","alibaba_url":null,"images":["https://xcimg.szwego.com/img/88b306c4/20240903/a1725375547103_7618.jpg","https://xcimg.szwego.com/img/88b306c4/20240903/a1725375547088_7647.jpg","https://xcimg.szwego.com/img/88b306c4/20240903/a1725375547336_8662.jpg","https://xcimg.szwego.com/img/88b306c4/20240903/a1725375547041_2444.jpg","https://xcimg.szwego.com/img/88b306c4/20240903/a1725375547052_0352.jpg","https://xcimg.szwego.com/img/88b306c4/20240903/a1725375547398_5070.jpg","https://xcimg.szwego.com/img/88b306c4/20240903/a1725375548372_3558.jpg","https://xcimg.szwego.com/img/88b306c4/20240903/a1725375548387_5864.jpg","https://xcimg.szwego.com/img/88b306c4/20240903/a1725375548350_4116.jpg"],"created_at":"2024-10-22T05:04:33.208Z"},{"id":"item-e897db90f28e","sku":"_dtYtYSkqY93bigJr2BWjbf35JHlvwpCOayhatyg","name_en":"✨凯莉二代mini","name_cn":"✨凯莉二代mini \n颜色:奶昔白/梦幻粉紫/金棕\n进口epsom皮、金扣\n机车+半收工手缝蜡线\n尺寸:19cm","specs":{"source":"wsxcme","sourceId":"_dtYtYSkqY93bigJr2BWjbf35JHlvwpCOayhatyg","sourceTagId":76963559,"sourceTagName":"爱马仕/女包","rawTitle":"✨凯莉二代mini \n颜色:奶昔白/梦幻粉紫/金棕\n进口epsom皮、金扣\n机车+半收工手缝蜡线\n尺寸:19cm"},"price":null,"currency":"CNY","moq":1,"category":"hermes-women-bags","status":"active","alibaba_url":null,"images":["https://xcimg.szwego.com/img/88b306c4/20240903/a1725373668309_1005.jpg","https://xcimg.szwego.com/img/88b306c4/20240903/a1725373668263_8730.jpg","https://xcimg.szwego.com/img/88b306c4/20240903/a1725373668448_6780.jpg","https://xcimg.szwego.com/img/88b306c4/20240903/a1725373668408_7310.jpg","https://xcimg.szwego.com/img/88b306c4/20240903/a1725373668615_5576.jpg","https://xcimg.szwego.com/img/88b306c4/20240903/a1725373668687_8515.jpg","https://xcimg.szwego.com/img/88b306c4/20240903/a1725373669514_4356.jpg","https://xcimg.szwego.com/img/88b306c4/20240903/a1725373669577_7307.jpg","https://xcimg.szwego.com/img/88b306c4/20240903/a1725373669542_1643.jpg"],"created_at":"2024-10-22T05:04:33.199Z"},{"id":"item-df3c876b8d24","sku":"_dcocowfcUQjwK7sLMw7rSzc0753oDs3PzaBOaRw","name_en":"✨凯莉二代mini","name_cn":"✨凯莉二代mini \n颜色:奶昔白/奶茶色\n进口epsom皮、金扣\n机车+半收工手缝蜡线\n尺寸:19cm","specs":{"source":"wsxcme","sourceId":"_dcocowfcUQjwK7sLMw7rSzc0753oDs3PzaBOaRw","sourceTagId":76963559,"sourceTagName":"爱马仕/女包","rawTitle":"✨凯莉二代mini \n颜色:奶昔白/奶茶色\n进口epsom皮、金扣\n机车+半收工手缝蜡线\n尺寸:19cm"},"price":null,"currency":"CNY","moq":1,"category":"hermes-women-bags","status":"active","alibaba_url":null,"images":["https://xcimg.szwego.com/img/88b306c4/20240904/a1725381573941_5132.jpg","https://xcimg.szwego.com/img/88b306c4/20240904/a1725381573972_7115.jpg","https://xcimg.szwego.com/img/88b306c4/20240904/a1725381573937_7658.jpg","https://xcimg.szwego.com/img/88b306c4/20240904/a1725381574179_1715.jpg","https://xcimg.szwego.com/img/88b306c4/20240904/a1725381573938_2264.jpg","https://xcimg.szwego.com/img/88b306c4/20240904/a1725381573722_6083.jpg","https://xcimg.szwego.com/img/88b306c4/20240904/a1725381575444_5746.jpg","https://xcimg.szwego.com/img/88b306c4/20240904/a1725381575366_5450.jpg","https://xcimg.szwego.com/img/88b306c4/20240904/a1725381575259_4273.jpg"],"created_at":"2024-10-22T05:04:33.167Z"},{"id":"item-d3742b4bedfb","sku":"_dlclcrDi6ZL3hoFkwXMni-ncXBfp1A_tBtbcg7g","name_en":"✨凯莉二代mini","name_cn":"✨凯莉二代mini \n颜色:金棕/奶昔白/克\n进口epsom皮、银扣\n机车+半收工手缝蜡线\n尺寸:19cm","specs":{"source":"wsxcme","sourceId":"_dlclcrDi6ZL3hoFkwXMni-ncXBfp1A_tBtbcg7g","sourceTagId":76963559,"sourceTagName":"爱马仕/女包","rawTitle":"✨凯莉二代mini \n颜色:金棕/奶昔白/克\n进口epsom皮、银扣\n机车+半收工手缝蜡线\n尺寸:19cm"},"price":null,"currency":"CNY","moq":1,"category":"hermes-women-bags","status":"active","alibaba_url":null,"images":["https://xcimg.szwego.com/img/88b306c4/20240904/a1725379816290_1883.jpg","https://xcimg.szwego.com/img/88b306c4/20240904/a1725379816493_3124.jpg","https://xcimg.szwego.com/img/88b306c4/20240904/a1725379816146_3472.jpg","https://xcimg.szwego.com/img/88b306c4/20240904/a1725379816215_7776.jpg","https://xcimg.szwego.com/img/88b306c4/20240904/a1725379816166_6275.jpg","https://xcimg.szwego.com/img/88b306c4/20240904/a1725379816460_6727.jpg","https://xcimg.szwego.com/img/88b306c4/20240904/a1725379824792_8107.jpg","https://xcimg.szwego.com/img/88b306c4/20240904/a1725379824818_4838.jpg","https://xcimg.szwego.com/img/88b306c4/20240904/a1725379824781_7670.jpg"],"created_at":"2024-10-22T05:04:33.189Z"},{"id":"item-d2ed0b1a6978","sku":"_dgagae5Cmotg_CKLdED_RpnmShJlCYSN-CfuJZw","name_en":"✨凯莉二代mini","name_cn":"✨凯莉二代mini \n颜色:奶昔白/唇膏粉\n进口epsom皮、银扣\n机车+半收工手缝蜡线\n尺寸:19cm","specs":{"source":"wsxcme","sourceId":"_dgagae5Cmotg_CKLdED_RpnmShJlCYSN-CfuJZw","sourceTagId":76963559,"sourceTagName":"爱马仕/女包","rawTitle":"✨凯莉二代mini \n颜色:奶昔白/唇膏粉\n进口epsom皮、银扣\n机车+半收工手缝蜡线\n尺寸:19cm"},"price":null,"currency":"CNY","moq":1,"category":"hermes-women-bags","status":"active","alibaba_url":null,"images":["https://xcimg.szwego.com/img/88b306c4/20240903/a1725376188479_3712.jpg","https://xcimg.szwego.com/img/88b306c4/20240903/a1725376188277_2852.jpg","https://xcimg.szwego.com/img/88b306c4/20240903/a1725376188388_3435.jpg","https://xcimg.szwego.com/img/88b306c4/20240903/a1725376188348_2600.jpg","https://xcimg.szwego.com/img/88b306c4/20240903/a1725376188612_0162.jpg","https://xcimg.szwego.com/img/88b306c4/20240903/a1725376188584_4218.jpg","https://xcimg.szwego.com/img/88b306c4/20240903/a1725376189714_8134.jpg","https://xcimg.szwego.com/img/88b306c4/20240903/a1725376189758_1855.jpg","https://xcimg.szwego.com/img/88b306c4/20240903/a1725376189644_8564.jpg"],"created_at":"2024-10-22T05:04:33.210Z"},{"id":"item-ce076b168b24","sku":"_dlolod120MEsJbHigVKEuvOQqlU79GjyurzHqzw","name_en":"✨凯莉二代mini","name_cn":"✨凯莉二代mini \n颜色:大象灰/树皮色/克\n进口epsom皮、金扣\n机车+半收工手缝蜡线\n尺寸:19cm","specs":{"source":"wsxcme","sourceId":"_dlolod120MEsJbHigVKEuvOQqlU79GjyurzHqzw","sourceTagId":76963559,"sourceTagName":"爱马仕/女包","rawTitle":"✨凯莉二代mini \n颜色:大象灰/树皮色/克\n进口epsom皮、金扣\n机车+半收工手缝蜡线\n尺寸:19cm"},"price":null,"currency":"CNY","moq":1,"category":"hermes-women-bags","status":"active","alibaba_url":null,"images":["https://xcimg.szwego.com/img/88b306c4/20240903/a1725373313027_3384.jpg","https://xcimg.szwego.com/img/88b306c4/20240903/a1725373313064_2512.jpg","https://xcimg.szwego.com/img/88b306c4/20240903/a1725373313022_3103.jpg","https://xcimg.szwego.com/img/88b306c4/20240903/a1725373313421_7078.jpg","https://xcimg.szwego.com/img/88b306c4/20240903/a1725373313400_1011.jpg","https://xcimg.szwego.com/img/88b306c4/20240903/a1725373313398_6106.jpg","https://xcimg.szwego.com/img/88b306c4/20240903/a1725373314642_6850.jpg","https://xcimg.szwego.com/img/88b306c4/20240903/a1725373314682_5730.jpg","https://xcimg.szwego.com/img/88b306c4/20240903/a1725373314574_1710.jpg"],"created_at":"2024-10-22T05:04:33.222Z"},{"id":"item-cd6271f8dd9e","sku":"_d6H6H6VGkRjzPm7jBrLxFeMRO4gZBNwJIRfY0cw","name_en":"✨凯莉二代mini","name_cn":"✨凯莉二代mini \n颜色:奶茶色/柠檬黄/锦葵紫\n进口epsom皮、金扣\n机车+半收工手缝蜡线\n尺寸:19cm","specs":{"source":"wsxcme","sourceId":"_d6H6H6VGkRjzPm7jBrLxFeMRO4gZBNwJIRfY0cw","sourceTagId":76963559,"sourceTagName":"爱马仕/女包","rawTitle":"✨凯莉二代mini \n颜色:奶茶色/柠檬黄/锦葵紫\n进口epsom皮、金扣\n机车+半收工手缝蜡线\n尺寸:19cm"},"price":null,"currency":"CNY","moq":1,"category":"hermes-women-bags","status":"active","alibaba_url":null,"images":["https://xcimg.szwego.com/img/88b306c4/20240904/a1725382400957_1046.jpg","https://xcimg.szwego.com/img/88b306c4/20240904/a1725382401222_2121.jpg","https://xcimg.szwego.com/img/88b306c4/20240904/a1725382400936_1515.jpg","https://xcimg.szwego.com/img/88b306c4/20240904/a1725382401293_7055.jpg","https://xcimg.szwego.com/img/88b306c4/20240904/a1725382400909_7076.jpg","https://xcimg.szwego.com/img/88b306c4/20240904/a1725382400997_6464.jpg","https://xcimg.szwego.com/img/88b306c4/20240904/a1725382402427_5320.jpg","https://xcimg.szwego.com/img/88b306c4/20240904/a1725382402340_6073.jpg","https://xcimg.szwego.com/img/88b306c4/20240904/a1725382402460_2027.jpg"],"created_at":"2024-10-22T05:04:33.173Z"},{"id":"item-cb2b025c6f39","sku":"_dsrsrJRlc_7h8OFplJ6BewIcJoCGZUrG85XoVWA","name_en":"✨凯莉二代mini","name_cn":"✨凯莉二代mini \n颜色:喜马拉雅\n牛皮压鳄鱼纹\n半手工,蜡线\n尺寸:19cm","specs":{"source":"wsxcme","sourceId":"_dsrsrJRlc_7h8OFplJ6BewIcJoCGZUrG85XoVWA","sourceTagId":76963559,"sourceTagName":"爱马仕/女包","rawTitle":"✨凯莉二代mini \n颜色:喜马拉雅\n牛皮压鳄鱼纹\n半手工,蜡线\n尺寸:19cm"},"price":null,"currency":"CNY","moq":1,"category":"hermes-women-bags","status":"active","alibaba_url":null,"images":["https://xcimg.szwego.com/img/e714fc80/20260603/i1780478371705_8780_0_0.jpg","https://xcimg.szwego.com/img/e714fc80/20260603/i1780478372798_9124_0_1.jpg","https://xcimg.szwego.com/img/e714fc80/20260603/i1780478374028_9190_0_2.jpg","https://xcimg.szwego.com/img/e714fc80/20260603/i1780478372710_8836_0_3.jpg","https://xcimg.szwego.com/img/e714fc80/20260603/i1780478371809_3384_0_4.jpg","https://xcimg.szwego.com/img/e714fc80/20260603/i1780478371762_8433_0_5.jpg","https://xcimg.szwego.com/img/e714fc80/20260603/i1780478373909_7945_0_6.jpg","https://xcimg.szwego.com/img/e714fc80/20260603/i1780478372679_3412_0_7.jpg","https://xcimg.szwego.com/img/e714fc80/20260603/i1780478373933_3951_0_8.jpg"],"created_at":"2026-06-29T12:59:36.364Z"},{"id":"item-bf68bbff222f","sku":"_dececOD_tcUVqxzHcIgjfJJbYeVzhLf09_cCcNw","name_en":"✨凯莉二代mini","name_cn":"✨凯莉二代mini \n颜色:大象灰/斑鸠灰\n进口epsom皮、银扣\n机车+半收工手缝蜡线\n尺寸:19cm","specs":{"source":"wsxcme","sourceId":"_dececOD_tcUVqxzHcIgjfJJbYeVzhLf09_cCcNw","sourceTagId":76963559,"sourceTagName":"爱马仕/女包","rawTitle":"✨凯莉二代mini \n颜色:大象灰/斑鸠灰\n进口epsom皮、银扣\n机车+半收工手缝蜡线\n尺寸:19cm"},"price":null,"currency":"CNY","moq":1,"category":"hermes-women-bags","status":"active","alibaba_url":null,"images":["https://xcimg.szwego.com/img/88b306c4/20240904/a1725379279997_3430.jpg","https://xcimg.szwego.com/img/88b306c4/20240904/a1725379279924_3671.jpg","https://xcimg.szwego.com/img/88b306c4/20240904/a1725379279754_8665.jpg","https://xcimg.szwego.com/img/88b306c4/20240904/a1725379280101_4367.jpg","https://xcimg.szwego.com/img/88b306c4/20240904/a1725379279759_4223.jpg","https://xcimg.szwego.com/img/88b306c4/20240904/a1725379279818_7270.jpg","https://xcimg.szwego.com/img/88b306c4/20240904/a1725379285619_5115.jpg","https://xcimg.szwego.com/img/88b306c4/20240904/a1725379285603_0765.jpg","https://xcimg.szwego.com/img/88b306c4/20240904/a1725379285604_2080.jpg"],"created_at":"2024-10-22T05:04:33.186Z"},{"id":"item-be4a9e7e925f","sku":"_dfqfqXLmlNXY5TRkJTo_xDyq-RSUZCTJR2zI8NA","name_en":"✨凯莉二代mini","name_cn":"✨凯莉二代mini \n颜色:圣杯兰/奶昔白\n进口epsom皮、银扣\n机车+半收工手缝蜡线\n尺寸:19cm","specs":{"source":"wsxcme","sourceId":"_dfqfqXLmlNXY5TRkJTo_xDyq-RSUZCTJR2zI8NA","sourceTagId":76963559,"sourceTagName":"爱马仕/女包","rawTitle":"✨凯莉二代mini \n颜色:圣杯兰/奶昔白\n进口epsom皮、银扣\n机车+半收工手缝蜡线\n尺寸:19cm"},"price":null,"currency":"CNY","moq":1,"category":"hermes-women-bags","status":"active","alibaba_url":null,"images":["https://xcimg.szwego.com/img/88b306c4/20240904/a1725381045530_3204.jpg","https://xcimg.szwego.com/img/88b306c4/20240904/a1725381045779_1278.jpg","https://xcimg.szwego.com/img/88b306c4/20240904/a1725381045590_8163.jpg","https://xcimg.szwego.com/img/88b306c4/20240904/a1725381045626_0478.jpg","https://xcimg.szwego.com/img/88b306c4/20240904/a1725381045886_0070.jpg","https://xcimg.szwego.com/img/88b306c4/20240904/a1725381045541_2621.jpg","https://xcimg.szwego.com/img/88b306c4/20240904/a1725381050760_1255.jpg","https://xcimg.szwego.com/img/88b306c4/20240904/a1725381050866_1470.jpg","https://xcimg.szwego.com/img/88b306c4/20240904/a1725381050821_1462.jpg"],"created_at":"2024-10-22T05:04:33.197Z"},{"id":"item-b82d1d8ccc70","sku":"_dm5m5cmHlHT7gA-1sMQc-ds5Yj3shtCsdofw_6w","name_en":"✨凯莉二代mini","name_cn":"✨凯莉二代mini \n颜色:太阳黄/奶昔白\n进口epsom皮、金扣\n机车+半收工手缝蜡线\n尺寸:19cm","specs":{"source":"wsxcme","sourceId":"_dm5m5cmHlHT7gA-1sMQc-ds5Yj3shtCsdofw_6w","sourceTagId":76963559,"sourceTagName":"爱马仕/女包","rawTitle":"✨凯莉二代mini \n颜色:太阳黄/奶昔白\n进口epsom皮、金扣\n机车+半收工手缝蜡线\n尺寸:19cm"},"price":null,"currency":"CNY","moq":1,"category":"hermes-women-bags","status":"active","alibaba_url":null,"images":["https://xcimg.szwego.com/img/88b306c4/20240904/a1725380226571_5512.jpg","https://xcimg.szwego.com/img/88b306c4/20240904/a1725380226762_8168.jpg","https://xcimg.szwego.com/img/88b306c4/20240904/a1725380226921_8851.jpg","https://xcimg.szwego.com/img/88b306c4/20240904/a1725380226810_7602.jpg","https://xcimg.szwego.com/img/88b306c4/20240904/a1725380227063_8411.jpg","https://xcimg.szwego.com/img/88b306c4/20240904/a1725380226906_3605.jpg","https://xcimg.szwego.com/img/88b306c4/20240904/a1725380232746_3072.jpg","https://xcimg.szwego.com/img/88b306c4/20240904/a1725380232678_6347.jpg","https://xcimg.szwego.com/img/88b306c4/20240904/a1725380232654_2026.jpg"],"created_at":"2024-10-22T05:04:33.192Z"},{"id":"item-aee735a2a46e","sku":"_dNoNo2jo0t8ttf-Yf-UIX-AKfR88CNfBqV8wfug","name_en":"✨凯莉二代mini","name_cn":"✨凯莉二代mini \n颜色:奶昔白/冰川灰\n进口epsom皮、金扣\n机车+半收工手缝蜡线\n尺寸:19cm","specs":{"source":"wsxcme","sourceId":"_dNoNo2jo0t8ttf-Yf-UIX-AKfR88CNfBqV8wfug","sourceTagId":76963559,"sourceTagName":"爱马仕/女包","rawTitle":"✨凯莉二代mini \n颜色:奶昔白/冰川灰\n进口epsom皮、金扣\n机车+半收工手缝蜡线\n尺寸:19cm"},"price":null,"currency":"CNY","moq":1,"category":"hermes-women-bags","status":"active","alibaba_url":null,"images":["https://xcimg.szwego.com/img/88b306c4/20240904/a1725379604272_6813.jpg","https://xcimg.szwego.com/img/88b306c4/20240904/a1725379604249_7042.jpg","https://xcimg.szwego.com/img/88b306c4/20240904/a1725379604245_7307.jpg","https://xcimg.szwego.com/img/88b306c4/20240904/a1725379604556_3364.jpg","https://xcimg.szwego.com/img/88b306c4/20240904/a1725379604430_7707.jpg","https://xcimg.szwego.com/img/88b306c4/20240904/a1725379604274_6077.jpg","https://xcimg.szwego.com/img/88b306c4/20240904/a1725379610585_7382.jpg","https://xcimg.szwego.com/img/88b306c4/20240904/a1725379610612_7248.jpg","https://xcimg.szwego.com/img/88b306c4/20240904/a1725379610584_5304.jpg"],"created_at":"2024-10-22T05:04:33.188Z"},{"id":"item-ab38ab1ee1ca","sku":"_dpfpf6S1JICvvPPKp4b7GPlnPvPCrn4mtKJJn1A","name_en":"✨凯莉二代mini","name_cn":"✨凯莉二代mini \n颜色:奶昔白/冰川灰\n进口epsom皮、银扣\n机车+半收工手缝蜡线\n尺寸:19cm","specs":{"source":"wsxcme","sourceId":"_dpfpf6S1JICvvPPKp4b7GPlnPvPCrn4mtKJJn1A","sourceTagId":76963559,"sourceTagName":"爱马仕/女包","rawTitle":"✨凯莉二代mini \n颜色:奶昔白/冰川灰\n进口epsom皮、银扣\n机车+半收工手缝蜡线\n尺寸:19cm"},"price":null,"currency":"CNY","moq":1,"category":"hermes-women-bags","status":"active","alibaba_url":null,"images":["https://xcimg.szwego.com/img/88b306c4/20240904/a1725379486120_0218.jpg","https://xcimg.szwego.com/img/88b306c4/20240904/a1725379486068_3188.jpg","https://xcimg.szwego.com/img/88b306c4/20240904/a1725379486189_3533.jpg","https://xcimg.szwego.com/img/88b306c4/20240904/a1725379486021_5280.jpg","https://xcimg.szwego.com/img/88b306c4/20240904/a1725379486340_5624.jpg","https://xcimg.szwego.com/img/88b306c4/20240904/a1725379486205_0160.jpg","https://xcimg.szwego.com/img/88b306c4/20240904/a1725379491912_3188.jpg","https://xcimg.szwego.com/img/88b306c4/20240904/a1725379491827_3184.jpg","https://xcimg.szwego.com/img/88b306c4/20240904/a1725379491847_4028.jpg"],"created_at":"2024-10-22T05:04:33.187Z"},{"id":"item-a9f9aadcf102","sku":"_dcdcdobxGiSrK7q1-zkYkVtLmPYAEgwgX_pl5ig","name_en":"✨凯莉二代mini","name_cn":"✨凯莉二代mini \n颜色:奶昔白/金棕\n进口epsom皮、银扣\n机车+半收工手缝蜡线\n尺寸:19cm","specs":{"source":"wsxcme","sourceId":"_dcdcdobxGiSrK7q1-zkYkVtLmPYAEgwgX_pl5ig","sourceTagId":76963559,"sourceTagName":"爱马仕/女包","rawTitle":"✨凯莉二代mini \n颜色:奶昔白/金棕\n进口epsom皮、银扣\n机车+半收工手缝蜡线\n尺寸:19cm"},"price":null,"currency":"CNY","moq":1,"category":"hermes-women-bags","status":"active","alibaba_url":null,"images":["https://xcimg.szwego.com/img/88b306c4/20240903/a1725376725126_4034.jpg","https://xcimg.szwego.com/img/88b306c4/20240903/a1725376725267_4348.jpg","https://xcimg.szwego.com/img/88b306c4/20240903/a1725376725000_7443.jpg","https://xcimg.szwego.com/img/88b306c4/20240903/a1725376725004_5043.jpg","https://xcimg.szwego.com/img/88b306c4/20240903/a1725376724977_3671.jpg","https://xcimg.szwego.com/img/88b306c4/20240903/a1725376724978_2181.jpg","https://xcimg.szwego.com/img/88b306c4/20240903/a1725376726413_7465.jpg","https://xcimg.szwego.com/img/88b306c4/20240903/a1725376726498_3572.jpg","https://xcimg.szwego.com/img/88b306c4/20240903/a1725376726354_4132.jpg"],"created_at":"2024-10-22T05:04:33.213Z"},{"id":"item-a06ad24e41d9","sku":"_dz0z0ZKiQXgqPGY6XMP7WOeEct63q-4xDJrgIlw","name_en":"✨凯莉二代mini","name_cn":"✨凯莉二代mini \n颜色:大象灰/奶昔白\n进口epsom皮、金扣\n机车+半收工手缝蜡线\n尺寸:19cm","specs":{"source":"wsxcme","sourceId":"_dz0z0ZKiQXgqPGY6XMP7WOeEct63q-4xDJrgIlw","sourceTagId":76963559,"sourceTagName":"爱马仕/女包","rawTitle":"✨凯莉二代mini \n颜色:大象灰/奶昔白\n进口epsom皮、金扣\n机车+半收工手缝蜡线\n尺寸:19cm"},"price":null,"currency":"CNY","moq":1,"category":"hermes-women-bags","status":"active","alibaba_url":null,"images":["https://xcimg.szwego.com/img/88b306c4/20240904/a1725382163093_1624.jpg","https://xcimg.szwego.com/img/88b306c4/20240904/a1725382162617_3135.jpg","https://xcimg.szwego.com/img/88b306c4/20240904/a1725382162629_8467.jpg","https://xcimg.szwego.com/img/88b306c4/20240904/a1725382163140_2187.jpg","https://xcimg.szwego.com/img/88b306c4/20240904/a1725382162731_4037.jpg","https://xcimg.szwego.com/img/88b306c4/20240904/a1725382162722_2265.jpg","https://xcimg.szwego.com/img/88b306c4/20240904/a1725382164258_7220.jpg","https://xcimg.szwego.com/img/88b306c4/20240904/a1725382164329_4016.jpg","https://xcimg.szwego.com/img/88b306c4/20240904/a1725382164118_1847.jpg"],"created_at":"2024-10-22T05:04:33.171Z"},{"id":"item-9db66c05130b","sku":"_dk6k6nQUnv7FYcO4ogeIX3xA0Deze5OcjddJ07Q","name_en":"✨凯莉二代mini","name_cn":"✨凯莉二代mini \n颜色:喜马拉雅\n牛皮压鳄鱼纹\n半手工,蜡线\n尺寸:19cm","specs":{"source":"wsxcme","sourceId":"_dk6k6nQUnv7FYcO4ogeIX3xA0Deze5OcjddJ07Q","sourceTagId":76963559,"sourceTagName":"爱马仕/女包","rawTitle":"✨凯莉二代mini \n颜色:喜马拉雅\n牛皮压鳄鱼纹\n半手工,蜡线\n尺寸:19cm"},"price":null,"currency":"CNY","moq":1,"category":"hermes-women-bags","status":"active","alibaba_url":null,"images":["https://xcimg.szwego.com/img/e714fc80/20260603/i1780478342856_9749_0_0.jpg","https://xcimg.szwego.com/img/e714fc80/20260603/i1780478345017_5742_0_1.jpg","https://xcimg.szwego.com/img/e714fc80/20260603/i1780478345040_6801_0_2.jpg","https://xcimg.szwego.com/img/e714fc80/20260603/i1780478343873_3941_0_3.jpg","https://xcimg.szwego.com/img/e714fc80/20260603/i1780478344012_446_0_4.jpg","https://xcimg.szwego.com/img/e714fc80/20260603/i1780478342696_9410_0_5.jpg","https://xcimg.szwego.com/img/e714fc80/20260603/i1780478344865_30_0_6.jpg","https://xcimg.szwego.com/img/e714fc80/20260603/i1780478344057_3425_0_7.jpg","https://xcimg.szwego.com/img/e714fc80/20260603/i1780478342780_6958_0_8.jpg"],"created_at":"2026-06-29T12:59:36.354Z"},{"id":"item-8d53c38db7e2","sku":"_dr5r5z4JUrwHonV0D4sxLKIGP_t5MLMk4XwWQCw","name_en":"✨凯莉二代mini","name_cn":"✨凯莉二代mini \n颜色:心红\n牛皮压鳄鱼纹\n半手工,蜡线\n尺寸:19cm","specs":{"source":"wsxcme","sourceId":"_dr5r5z4JUrwHonV0D4sxLKIGP_t5MLMk4XwWQCw","sourceTagId":76963559,"sourceTagName":"爱马仕/女包","rawTitle":"✨凯莉二代mini \n颜色:心红\n牛皮压鳄鱼纹\n半手工,蜡线\n尺寸:19cm"},"price":null,"currency":"CNY","moq":1,"category":"hermes-women-bags","status":"active","alibaba_url":null,"images":["https://xcimg.szwego.com/img/e714fc80/20260603/i1780479107270_6301_0_0.jpg","https://xcimg.szwego.com/img/e714fc80/20260603/i1780479107194_6156_0_1.jpg","https://xcimg.szwego.com/img/e714fc80/20260603/i1780479109757_801_0_2.jpg","https://xcimg.szwego.com/img/e714fc80/20260603/i1780479108626_8086_0_3.jpg","https://xcimg.szwego.com/img/e714fc80/20260603/i1780479108695_4926_0_4.jpg","https://xcimg.szwego.com/img/e714fc80/20260603/i1780479107242_1973_0_5.jpg","https://xcimg.szwego.com/img/e714fc80/20260603/i1780479108566_5721_0_6.jpg","https://xcimg.szwego.com/img/e714fc80/20260603/i1780479109701_6222_0_7.jpg","https://xcimg.szwego.com/img/e714fc80/20260603/i1780479109597_2934_0_8.jpg"],"created_at":"2026-06-29T12:59:36.404Z"},{"id":"item-8c56c79405fe","sku":"_d_s_s01_byBKhnTHM99yMCnnf0uFbOX5xcQ9yig","name_en":"✨凯莉二代mini","name_cn":"✨凯莉二代mini \n颜色:梦幻粉紫/奶昔白\n进口epsom皮、金扣\n机车+半收工手缝蜡线\n尺寸:19cm","specs":{"source":"wsxcme","sourceId":"_d_s_s01_byBKhnTHM99yMCnnf0uFbOX5xcQ9yig","sourceTagId":76963559,"sourceTagName":"爱马仕/女包","rawTitle":"✨凯莉二代mini \n颜色:梦幻粉紫/奶昔白\n进口epsom皮、金扣\n机车+半收工手缝蜡线\n尺寸:19cm"},"price":null,"currency":"CNY","moq":1,"category":"hermes-women-bags","status":"active","alibaba_url":null,"images":["https://xcimg.szwego.com/img/88b306c4/20240904/a1725380754802_3842.jpg","https://xcimg.szwego.com/img/88b306c4/20240904/a1725380754698_8348.jpg","https://xcimg.szwego.com/img/88b306c4/20240904/a1725380754860_1660.jpg","https://xcimg.szwego.com/img/88b306c4/20240904/a1725380754590_0811.jpg","https://xcimg.szwego.com/img/88b306c4/20240904/a1725380754708_1464.jpg","https://xcimg.szwego.com/img/88b306c4/20240904/a1725380754567_5524.jpg","https://xcimg.szwego.com/img/88b306c4/20240904/a1725380758464_3415.jpg","https://xcimg.szwego.com/img/88b306c4/20240904/a1725380758452_7452.jpg","https://xcimg.szwego.com/img/88b306c4/20240904/a1725380758536_0361.jpg"],"created_at":"2024-10-22T05:04:33.196Z"},{"id":"item-8bd4b0b5f125","sku":"_dy0y0kGkLNdaDpqif8seN4OrPDyhsEZQ8eoKMmQ","name_en":"✨凯莉二代mini","name_cn":"✨凯莉二代mini \n颜色:牛仔兰/树皮色/芝麻色\n进口epsom皮、金扣\n机车+半收工手缝蜡线\n尺寸:19cm","specs":{"source":"wsxcme","sourceId":"_dy0y0kGkLNdaDpqif8seN4OrPDyhsEZQ8eoKMmQ","sourceTagId":76963559,"sourceTagName":"爱马仕/女包","rawTitle":"✨凯莉二代mini \n颜色:牛仔兰/树皮色/芝麻色\n进口epsom皮、金扣\n机车+半收工手缝蜡线\n尺寸:19cm"},"price":null,"currency":"CNY","moq":1,"category":"hermes-women-bags","status":"active","alibaba_url":null,"images":["https://xcimg.szwego.com/img/88b306c4/20240904/a1725382722685_7042.jpg","https://xcimg.szwego.com/img/88b306c4/20240904/a1725382723169_3112.jpg","https://xcimg.szwego.com/img/88b306c4/20240904/a1725382722690_6282.jpg","https://xcimg.szwego.com/img/88b306c4/20240904/a1725382722905_1718.jpg","https://xcimg.szwego.com/img/88b306c4/20240904/a1725382722688_8813.jpg","https://xcimg.szwego.com/img/88b306c4/20240904/a1725382723154_6458.jpg","https://xcimg.szwego.com/img/88b306c4/20240904/a1725382724309_4527.jpg","https://xcimg.szwego.com/img/88b306c4/20240904/a1725382724446_2582.jpg","https://xcimg.szwego.com/img/88b306c4/20240904/a1725382724386_6604.jpg"],"created_at":"2024-10-22T05:04:33.175Z"},{"id":"item-89b826920a52","sku":"_d4I4IzLtinW0tZqaHS9Z2dIS1_tOJm0eL3h380A","name_en":"✨凯莉二代mini","name_cn":"✨凯莉二代mini \n颜色:漫画绿/奶灰白\n进口epsom皮、银扣\n机车+半收工手缝蜡线\n尺寸:19cm","specs":{"source":"wsxcme","sourceId":"_d4I4IzLtinW0tZqaHS9Z2dIS1_tOJm0eL3h380A","sourceTagId":76963559,"sourceTagName":"爱马仕/女包","rawTitle":"✨凯莉二代mini \n颜色:漫画绿/奶灰白\n进口epsom皮、银扣\n机车+半收工手缝蜡线\n尺寸:19cm"},"price":null,"currency":"CNY","moq":1,"category":"hermes-women-bags","status":"active","alibaba_url":null,"images":["https://xcimg.szwego.com/img/88b306c4/20240903/a1725375129339_5143.jpg","https://xcimg.szwego.com/img/88b306c4/20240903/a1725375129207_5304.jpg","https://xcimg.szwego.com/img/88b306c4/20240903/a1725375129252_7421.jpg","https://xcimg.szwego.com/img/88b306c4/20240903/a1725375129411_8366.jpg","https://xcimg.szwego.com/img/88b306c4/20240903/a1725375129582_4365.jpg","https://xcimg.szwego.com/img/88b306c4/20240903/a1725375129232_1778.jpg","https://xcimg.szwego.com/img/88b306c4/20240903/a1725375130874_1223.jpg","https://xcimg.szwego.com/img/88b306c4/20240903/a1725375130968_0802.jpg","https://xcimg.szwego.com/img/88b306c4/20240903/a1725375130858_7863.jpg"],"created_at":"2024-10-22T05:04:33.206Z"}],"page":2,"pageSize":24,"total":439,"totalPages":19}
