{"items":[{"id":"item-e50f189023e2","sku":"_dsPsPbREoN67qABKYzRKIfucrVhIBcNVeDTjkfg","name_en":"picotin 菜篮子","name_cn":"picotin 菜篮子\n颜色:米尔顿黄、金扣\n进口tc头层牛皮\n半收工缝制收口\n蜜蜡线缝制\n尺寸:18cm","specs":{"source":"wsxcme","sourceId":"_dsPsPbREoN67qABKYzRKIfucrVhIBcNVeDTjkfg","sourceTagId":76963559,"sourceTagName":"爱马仕/女包","rawTitle":"picotin 菜篮子\n颜色:米尔顿黄、金扣\n进口tc头层牛皮\n半收工缝制收口\n蜜蜡线缝制\n尺寸:18cm"},"price":null,"currency":"CNY","moq":1,"category":"hermes-women-bags","status":"active","alibaba_url":null,"images":["https://xcimg.szwego.com/img/88b306c4/20240901/a1725201935503_2054.jpg","https://xcimg.szwego.com/img/88b306c4/20240901/a1725201935230_1023.jpg","https://xcimg.szwego.com/img/88b306c4/20240901/a1725201935265_2272.jpg","https://xcimg.szwego.com/img/88b306c4/20240901/a1725201935228_8023.jpg","https://xcimg.szwego.com/img/88b306c4/20240901/a1725201935364_0260.jpg","https://xcimg.szwego.com/img/88b306c4/20240901/a1725201935520_2210.jpg","https://xcimg.szwego.com/img/88b306c4/20240901/a1725201936895_6400.jpg","https://xcimg.szwego.com/img/88b306c4/20240901/a1725201936880_4227.jpg","https://xcimg.szwego.com/img/88b306c4/20240901/a1725201936822_2467.jpg"],"created_at":"2024-10-22T04:49:50.730Z"},{"id":"item-e3f0c44968bb","sku":"_dOdOdtkS6eOt_wjye6c38jFT1HqyBOJBNAe9emw","name_en":"picotin 菜篮子","name_cn":"picotin 菜篮子\n颜色:3Q粉、银扣\n进口tc头层牛皮\n半手工缝制收口\n蜜蜡线缝制\n尺寸:18cm","specs":{"source":"wsxcme","sourceId":"_dOdOdtkS6eOt_wjye6c38jFT1HqyBOJBNAe9emw","sourceTagId":76963559,"sourceTagName":"爱马仕/女包","rawTitle":"picotin 菜篮子\n颜色:3Q粉、银扣\n进口tc头层牛皮\n半手工缝制收口\n蜜蜡线缝制\n尺寸:18cm"},"price":null,"currency":"CNY","moq":1,"category":"hermes-women-bags","status":"active","alibaba_url":null,"images":["https://xcimg.szwego.com/img/88b306c4/20240901/a1725205811924_4244.jpg","https://xcimg.szwego.com/img/88b306c4/20240901/a1725205812223_7635.jpg","https://xcimg.szwego.com/img/88b306c4/20240901/a1725205812090_7424.jpg","https://xcimg.szwego.com/img/88b306c4/20240901/a1725205811926_1136.jpg","https://xcimg.szwego.com/img/88b306c4/20240901/a1725205811926_0771.jpg","https://xcimg.szwego.com/img/88b306c4/20240901/a1725205812178_8605.jpg","https://xcimg.szwego.com/img/88b306c4/20240901/a1725205813560_7700.jpg","https://xcimg.szwego.com/img/88b306c4/20240901/a1725205813560_5464.jpg","https://xcimg.szwego.com/img/88b306c4/20240901/a1725205813569_2461.jpg"],"created_at":"2024-10-22T05:00:12.196Z"},{"id":"item-e3889cabecc2","sku":"_dwdwdD6T6rVTjikWNX68YXFoTLRZc0PrxfH7Xbw","name_en":"picotin 菜篮子","name_cn":"picotin 菜篮子\n颜色:3Q粉、金扣\n进口tc头层牛皮\n半手工缝制收口\n蜜蜡线缝制\n尺寸:18cm","specs":{"source":"wsxcme","sourceId":"_dwdwdD6T6rVTjikWNX68YXFoTLRZc0PrxfH7Xbw","sourceTagId":76963559,"sourceTagName":"爱马仕/女包","rawTitle":"picotin 菜篮子\n颜色:3Q粉、金扣\n进口tc头层牛皮\n半手工缝制收口\n蜜蜡线缝制\n尺寸:18cm"},"price":null,"currency":"CNY","moq":1,"category":"hermes-women-bags","status":"active","alibaba_url":null,"images":["https://xcimg.szwego.com/img/88b306c4/20240901/a1725205958066_0076.jpg","https://xcimg.szwego.com/img/88b306c4/20240901/a1725205957799_1472.jpg","https://xcimg.szwego.com/img/88b306c4/20240901/a1725205957891_7818.jpg","https://xcimg.szwego.com/img/88b306c4/20240901/a1725205957839_3503.jpg","https://xcimg.szwego.com/img/88b306c4/20240901/a1725205957861_8060.jpg","https://xcimg.szwego.com/img/88b306c4/20240901/a1725205958055_2185.jpg","https://xcimg.szwego.com/img/88b306c4/20240901/a1725205959511_2424.jpg","https://xcimg.szwego.com/img/88b306c4/20240901/a1725205959540_6012.jpg","https://xcimg.szwego.com/img/88b306c4/20240901/a1725205959527_8287.jpg"],"created_at":"2024-10-22T05:00:12.197Z"},{"id":"item-e2854e92bcd6","sku":"_d-u-uytbocU1jYl4ahR4IysEmavlbs4J7B9MyaQ","name_en":"picotin 菜篮子","name_cn":"picotin 菜篮子\n颜色:宝石兰、银扣\n进口tc头层牛皮\n半收工缝制收口\n蜜蜡线缝制\n尺寸:18cm","specs":{"source":"wsxcme","sourceId":"_d-u-uytbocU1jYl4ahR4IysEmavlbs4J7B9MyaQ","sourceTagId":76963559,"sourceTagName":"爱马仕/女包","rawTitle":"picotin 菜篮子\n颜色:宝石兰、银扣\n进口tc头层牛皮\n半收工缝制收口\n蜜蜡线缝制\n尺寸:18cm"},"price":null,"currency":"CNY","moq":1,"category":"hermes-women-bags","status":"active","alibaba_url":null,"images":["https://xcimg.szwego.com/img/88b306c4/20240901/a1725202259374_4115.jpg","https://xcimg.szwego.com/img/88b306c4/20240901/a1725202259547_2434.jpg","https://xcimg.szwego.com/img/88b306c4/20240901/a1725202259734_6334.jpg","https://xcimg.szwego.com/img/88b306c4/20240901/a1725202259198_2282.jpg","https://xcimg.szwego.com/img/88b306c4/20240901/a1725202259564_4361.jpg","https://xcimg.szwego.com/img/88b306c4/20240901/a1725202259466_7071.jpg","https://xcimg.szwego.com/img/88b306c4/20240901/a1725202271571_0764.jpg","https://xcimg.szwego.com/img/88b306c4/20240901/a1725202271504_2815.jpg","https://xcimg.szwego.com/img/88b306c4/20240901/a1725202271598_7451.jpg"],"created_at":"2024-10-22T04:49:50.732Z"},{"id":"item-e0d0b83df764","sku":"_dwSwSWuZn3TfuIooR_spxAQYPHt1YRDZ8KgOoqQ","name_en":"picotin 菜篮子","name_cn":"picotin 菜篮子\n颜色:黑色、银扣\n进口tc头层牛皮\n半手工缝制收口\n蜜蜡线缝制\n尺寸:18cm","specs":{"source":"wsxcme","sourceId":"_dwSwSWuZn3TfuIooR_spxAQYPHt1YRDZ8KgOoqQ","sourceTagId":76963559,"sourceTagName":"爱马仕/女包","rawTitle":"picotin 菜篮子\n颜色:黑色、银扣\n进口tc头层牛皮\n半手工缝制收口\n蜜蜡线缝制\n尺寸:18cm"},"price":null,"currency":"CNY","moq":1,"category":"hermes-women-bags","status":"active","alibaba_url":null,"images":["https://xcimg.szwego.com/img/88b306c4/20240902/a1725213049822_2274.jpg","https://xcimg.szwego.com/img/88b306c4/20240902/a1725213050100_8531.jpg","https://xcimg.szwego.com/img/88b306c4/20240902/a1725213049834_3516.jpg","https://xcimg.szwego.com/img/88b306c4/20240902/a1725213049760_2342.jpg","https://xcimg.szwego.com/img/88b306c4/20240902/a1725213049747_1261.jpg","https://xcimg.szwego.com/img/88b306c4/20240902/a1725213050042_8032.jpg","https://xcimg.szwego.com/img/88b306c4/20240902/a1725213051637_5335.jpg","https://xcimg.szwego.com/img/88b306c4/20240902/a1725213051599_5742.jpg","https://xcimg.szwego.com/img/88b306c4/20240902/a1725213051577_7535.jpg"],"created_at":"2024-10-22T05:00:12.187Z"},{"id":"item-db67cec2a3a1","sku":"_dpfpf6S1JICvvPPKp4b7GOlvOvPOin4mtKpBn1g","name_en":"picotin 菜篮子","name_cn":"picotin 菜篮子\n颜色:牛仔兰、金扣\n进口tc头层牛皮\n半收工缝制收口\n蜜蜡线缝制\n尺寸:18cm","specs":{"source":"wsxcme","sourceId":"_dpfpf6S1JICvvPPKp4b7GOlvOvPOin4mtKpBn1g","sourceTagId":76963559,"sourceTagName":"爱马仕/女包","rawTitle":"picotin 菜篮子\n颜色:牛仔兰、金扣\n进口tc头层牛皮\n半收工缝制收口\n蜜蜡线缝制\n尺寸:18cm"},"price":null,"currency":"CNY","moq":1,"category":"hermes-women-bags","status":"active","alibaba_url":null,"images":["https://xcimg.szwego.com/img/88b306c4/20240901/a1725200101931_7570.jpg","https://xcimg.szwego.com/img/88b306c4/20240901/a1725200101655_8556.jpg","https://xcimg.szwego.com/img/88b306c4/20240901/a1725200101854_1621.jpg","https://xcimg.szwego.com/img/88b306c4/20240901/a1725200101585_6040.jpg","https://xcimg.szwego.com/img/88b306c4/20240901/a1725200101951_2263.jpg","https://xcimg.szwego.com/img/88b306c4/20240901/a1725200101706_8041.jpg","https://xcimg.szwego.com/img/88b306c4/20240901/a1725200103169_8602.jpg","https://xcimg.szwego.com/img/88b306c4/20240901/a1725200103379_7274.jpg","https://xcimg.szwego.com/img/88b306c4/20240901/a1725200103161_3668.jpg"],"created_at":"2024-10-22T05:00:12.225Z"},{"id":"item-d6d7d649426a","sku":"_daKaKfdbMe2Vow77kuzFI82CMDC_FFAmIX5j8dw","name_en":"picotin 菜篮子","name_cn":"picotin 菜篮子\n颜色:大象灰、金扣\n进口tc头层牛皮\n半手工缝制收口\n蜜蜡线缝制\n尺寸:18cm","specs":{"source":"wsxcme","sourceId":"_daKaKfdbMe2Vow77kuzFI82CMDC_FFAmIX5j8dw","sourceTagId":76963559,"sourceTagName":"爱马仕/女包","rawTitle":"picotin 菜篮子\n颜色:大象灰、金扣\n进口tc头层牛皮\n半手工缝制收口\n蜜蜡线缝制\n尺寸:18cm"},"price":null,"currency":"CNY","moq":1,"category":"hermes-women-bags","status":"active","alibaba_url":null,"images":["https://xcimg.szwego.com/img/88b306c4/20240901/a1725205205742_0402.jpg","https://xcimg.szwego.com/img/88b306c4/20240901/a1725205205731_0630.jpg","https://xcimg.szwego.com/img/88b306c4/20240901/a1725205205988_6675.jpg","https://xcimg.szwego.com/img/88b306c4/20240901/a1725205205747_2144.jpg","https://xcimg.szwego.com/img/88b306c4/20240901/a1725205205999_8626.jpg","https://xcimg.szwego.com/img/88b306c4/20240901/a1725205205828_5805.jpg","https://xcimg.szwego.com/img/88b306c4/20240901/a1725205213550_8330.jpg","https://xcimg.szwego.com/img/88b306c4/20240901/a1725205213593_0410.jpg","https://xcimg.szwego.com/img/88b306c4/20240901/a1725205213585_5558.jpg"],"created_at":"2024-10-22T05:00:12.195Z"},{"id":"item-d486aa7d4c73","sku":"_dHzHzeOtAkuQhmZRt3rPc841oOabQU1QKvwAueA","name_en":"picotin 菜篮子","name_cn":"picotin 菜篮子\n颜色:圣杯兰、银扣\n进口tc头层牛皮\n半收工缝制收口\n蜜蜡线缝制\n尺寸:18cm","specs":{"source":"wsxcme","sourceId":"_dHzHzeOtAkuQhmZRt3rPc841oOabQU1QKvwAueA","sourceTagId":76963559,"sourceTagName":"爱马仕/女包","rawTitle":"picotin 菜篮子\n颜色:圣杯兰、银扣\n进口tc头层牛皮\n半收工缝制收口\n蜜蜡线缝制\n尺寸:18cm"},"price":null,"currency":"CNY","moq":1,"category":"hermes-women-bags","status":"active","alibaba_url":null,"images":["https://xcimg.szwego.com/img/88b306c4/20240901/a1725203319987_7700.jpg","https://xcimg.szwego.com/img/88b306c4/20240901/a1725203319635_8083.jpg","https://xcimg.szwego.com/img/88b306c4/20240901/a1725203319753_1543.jpg","https://xcimg.szwego.com/img/88b306c4/20240901/a1725203319873_2754.jpg","https://xcimg.szwego.com/img/88b306c4/20240901/a1725203320067_5412.jpg","https://xcimg.szwego.com/img/88b306c4/20240901/a1725203319793_4645.jpg","https://xcimg.szwego.com/img/88b306c4/20240901/a1725203321196_2381.jpg","https://xcimg.szwego.com/img/88b306c4/20240901/a1725203321205_7645.jpg","https://xcimg.szwego.com/img/88b306c4/20240901/a1725203321206_2371.jpg"],"created_at":"2024-10-22T04:49:50.734Z"},{"id":"item-cfefb7f44ec4","sku":"_dGnGn4AA8zOCszeVIHc8T4sXeRMBlMQhXXxAatA","name_en":"picotin 菜篮子","name_cn":"picotin 菜篮子\n颜色:班鸠灰、银扣\n进口tc头层牛皮\n半收工缝制收口\n蜜蜡线缝制\n尺寸:18cm","specs":{"source":"wsxcme","sourceId":"_dGnGn4AA8zOCszeVIHc8T4sXeRMBlMQhXXxAatA","sourceTagId":76963559,"sourceTagName":"爱马仕/女包","rawTitle":"picotin 菜篮子\n颜色:班鸠灰、银扣\n进口tc头层牛皮\n半收工缝制收口\n蜜蜡线缝制\n尺寸:18cm"},"price":null,"currency":"CNY","moq":1,"category":"hermes-women-bags","status":"active","alibaba_url":null,"images":["https://xcimg.szwego.com/img/88b306c4/20240901/a1725201065240_8782.jpg","https://xcimg.szwego.com/img/88b306c4/20240901/a1725201065047_2308.jpg","https://xcimg.szwego.com/img/88b306c4/20240901/a1725201065000_0513.jpg","https://xcimg.szwego.com/img/88b306c4/20240901/a1725201065258_7067.jpg","https://xcimg.szwego.com/img/88b306c4/20240901/a1725201065040_5450.jpg","https://xcimg.szwego.com/img/88b306c4/20240901/a1725201065090_3365.jpg","https://xcimg.szwego.com/img/88b306c4/20240901/a1725201073449_3548.jpg","https://xcimg.szwego.com/img/88b306c4/20240901/a1725201073530_4001.jpg","https://xcimg.szwego.com/img/88b306c4/20240901/a1725201073678_3443.jpg"],"created_at":"2024-10-22T04:49:50.727Z"},{"id":"item-c55cdfbf3593","sku":"_d_k_krJYlD1ZMujMnxakwA1qcIno2yuSNUJXJhw","name_en":"picotin 菜篮子","name_cn":"picotin 菜篮子\n颜色:奶昔粉、金扣\n进口tc头层牛皮\n半手工缝制收口\n蜜蜡线缝制\n尺寸:18cm","specs":{"source":"wsxcme","sourceId":"_d_k_krJYlD1ZMujMnxakwA1qcIno2yuSNUJXJhw","sourceTagId":76963559,"sourceTagName":"爱马仕/女包","rawTitle":"picotin 菜篮子\n颜色:奶昔粉、金扣\n进口tc头层牛皮\n半手工缝制收口\n蜜蜡线缝制\n尺寸:18cm"},"price":null,"currency":"CNY","moq":1,"category":"hermes-women-bags","status":"active","alibaba_url":null,"images":["https://xcimg.szwego.com/img/88b306c4/20240902/a1725207519885_4618.jpg","https://xcimg.szwego.com/img/88b306c4/20240902/a1725207519841_4033.jpg","https://xcimg.szwego.com/img/88b306c4/20240902/a1725207519831_8577.jpg","https://xcimg.szwego.com/img/88b306c4/20240902/a1725207519500_8857.jpg","https://xcimg.szwego.com/img/88b306c4/20240902/a1725207520072_6032.jpg","https://xcimg.szwego.com/img/88b306c4/20240902/a1725207519844_2755.jpg","https://xcimg.szwego.com/img/88b306c4/20240902/a1725207521134_1687.jpg","https://xcimg.szwego.com/img/88b306c4/20240902/a1725207521090_0611.jpg","https://xcimg.szwego.com/img/88b306c4/20240902/a1725207521189_2242.jpg"],"created_at":"2024-10-22T05:00:12.203Z"},{"id":"item-c3eff62bfde8","sku":"_daHaHYBf6CS1DBRYtqI_4yBELN-1lMg-uTeF0HA","name_en":"picotin 菜篮子","name_cn":"picotin 菜篮子\n颜色:橙色、银扣\n进口tc头层牛皮\n半手工缝制收口\n蜜蜡线缝制\n尺寸:18cm","specs":{"source":"wsxcme","sourceId":"_daHaHYBf6CS1DBRYtqI_4yBELN-1lMg-uTeF0HA","sourceTagId":76963559,"sourceTagName":"爱马仕/女包","rawTitle":"picotin 菜篮子\n颜色:橙色、银扣\n进口tc头层牛皮\n半手工缝制收口\n蜜蜡线缝制\n尺寸:18cm"},"price":null,"currency":"CNY","moq":1,"category":"hermes-women-bags","status":"active","alibaba_url":null,"images":["https://xcimg.szwego.com/img/88b306c4/20240902/a1725206761635_8507.jpg","https://xcimg.szwego.com/img/88b306c4/20240902/a1725206761751_4224.jpg","https://xcimg.szwego.com/img/88b306c4/20240902/a1725206761620_5737.jpg","https://xcimg.szwego.com/img/88b306c4/20240902/a1725206761601_7171.jpg","https://xcimg.szwego.com/img/88b306c4/20240902/a1725206761868_0216.jpg","https://xcimg.szwego.com/img/88b306c4/20240902/a1725206761970_4334.jpg","https://xcimg.szwego.com/img/88b306c4/20240902/a1725206765571_6543.jpg","https://xcimg.szwego.com/img/88b306c4/20240902/a1725206765419_1447.jpg","https://xcimg.szwego.com/img/88b306c4/20240902/a1725206765567_4670.jpg"],"created_at":"2024-10-22T05:00:12.200Z"},{"id":"item-b65d6b97a9b2","sku":"_duVuVthWfGZgmRyx-xDXo1jXKkMTAAx33f8MZvA","name_en":"picotin 菜篮子","name_cn":"picotin 菜篮子\n颜色:饼干色、金扣\n进口tc头层牛皮\n半收工缝制收口\n蜜蜡线缝制\n尺寸:18cm","specs":{"source":"wsxcme","sourceId":"_duVuVthWfGZgmRyx-xDXo1jXKkMTAAx33f8MZvA","sourceTagId":76963559,"sourceTagName":"爱马仕/女包","rawTitle":"picotin 菜篮子\n颜色:饼干色、金扣\n进口tc头层牛皮\n半收工缝制收口\n蜜蜡线缝制\n尺寸:18cm"},"price":null,"currency":"CNY","moq":1,"category":"hermes-women-bags","status":"active","alibaba_url":null,"images":["https://xcimg.szwego.com/img/88b306c4/20240901/a1725204827804_7363.jpg","https://xcimg.szwego.com/img/88b306c4/20240901/a1725204827432_4887.jpg","https://xcimg.szwego.com/img/88b306c4/20240901/a1725204827795_1275.jpg","https://xcimg.szwego.com/img/88b306c4/20240901/a1725204827480_5650.jpg","https://xcimg.szwego.com/img/88b306c4/20240901/a1725204827593_6542.jpg","https://xcimg.szwego.com/img/88b306c4/20240901/a1725204827563_6248.jpg","https://xcimg.szwego.com/img/88b306c4/20240901/a1725204828985_8360.jpg","https://xcimg.szwego.com/img/88b306c4/20240901/a1725204829214_1442.jpg","https://xcimg.szwego.com/img/88b306c4/20240901/a1725204829086_7688.jpg"],"created_at":"2024-10-22T05:00:12.193Z"},{"id":"item-aa8fd45bf1da","sku":"_daXaXxcVzbyE9DD15cE5JcebaZ9tOt3sAKzCZZQ","name_en":"picotin 菜篮子","name_cn":"picotin 菜篮子\n颜色:亚玛兰、银扣\n进口tc头层牛皮\n半手工缝制收口\n蜜蜡线缝制\n尺寸:18cm","specs":{"source":"wsxcme","sourceId":"_daXaXxcVzbyE9DD15cE5JcebaZ9tOt3sAKzCZZQ","sourceTagId":76963559,"sourceTagName":"爱马仕/女包","rawTitle":"picotin 菜篮子\n颜色:亚玛兰、银扣\n进口tc头层牛皮\n半手工缝制收口\n蜜蜡线缝制\n尺寸:18cm"},"price":null,"currency":"CNY","moq":1,"category":"hermes-women-bags","status":"active","alibaba_url":null,"images":["https://xcimg.szwego.com/img/88b306c4/20240902/a1725206443538_4442.jpg","https://xcimg.szwego.com/img/88b306c4/20240902/a1725206443359_0686.jpg","https://xcimg.szwego.com/img/88b306c4/20240902/a1725206443450_0080.jpg","https://xcimg.szwego.com/img/88b306c4/20240902/a1725206443207_5588.jpg","https://xcimg.szwego.com/img/88b306c4/20240902/a1725206443173_1314.jpg","https://xcimg.szwego.com/img/88b306c4/20240902/a1725206443253_5116.jpg","https://xcimg.szwego.com/img/88b306c4/20240902/a1725206444851_8010.jpg","https://xcimg.szwego.com/img/88b306c4/20240902/a1725206444850_6011.jpg","https://xcimg.szwego.com/img/88b306c4/20240902/a1725206444745_0770.jpg"],"created_at":"2024-10-22T05:00:12.198Z"},{"id":"item-a57697e071eb","sku":"_dththig5bITvWH5yzoXNJrhfMOPdo-nzeSqfx-g","name_en":"picotin 菜篮子","name_cn":"picotin 菜篮子\n颜色:米尔顿黄、银扣\n进口tc头层牛皮\n半收工缝制收口\n蜜蜡线缝制\n尺寸:18cm","specs":{"source":"wsxcme","sourceId":"_dththig5bITvWH5yzoXNJrhfMOPdo-nzeSqfx-g","sourceTagId":76963559,"sourceTagName":"爱马仕/女包","rawTitle":"picotin 菜篮子\n颜色:米尔顿黄、银扣\n进口tc头层牛皮\n半收工缝制收口\n蜜蜡线缝制\n尺寸:18cm"},"price":null,"currency":"CNY","moq":1,"category":"hermes-women-bags","status":"active","alibaba_url":null,"images":["https://xcimg.szwego.com/img/88b306c4/20240901/a1725202057729_7184.jpg","https://xcimg.szwego.com/img/88b306c4/20240901/a1725202057745_2317.jpg","https://xcimg.szwego.com/img/88b306c4/20240901/a1725202057622_0342.jpg","https://xcimg.szwego.com/img/88b306c4/20240901/a1725202057802_3851.jpg","https://xcimg.szwego.com/img/88b306c4/20240901/a1725202057694_8832.jpg","https://xcimg.szwego.com/img/88b306c4/20240901/a1725202057917_8578.jpg","https://xcimg.szwego.com/img/88b306c4/20240901/a1725202059137_7127.jpg","https://xcimg.szwego.com/img/88b306c4/20240901/a1725202059135_8857.jpg","https://xcimg.szwego.com/img/88b306c4/20240901/a1725202059167_3344.jpg"],"created_at":"2024-10-22T04:49:50.731Z"},{"id":"item-a3178062d1af","sku":"_dvQvQX4-XBnUmDxDl-gCXfrohN1SCxk4Bj_CtBA","name_en":"picotin 菜篮子","name_cn":"picotin 菜篮子\n颜色:牛仔兰、银扣\n进口tc头层牛皮\n半收工缝制收口\n蜜蜡线缝制\n尺寸:18cm","specs":{"source":"wsxcme","sourceId":"_dvQvQX4-XBnUmDxDl-gCXfrohN1SCxk4Bj_CtBA","sourceTagId":76963559,"sourceTagName":"爱马仕/女包","rawTitle":"picotin 菜篮子\n颜色:牛仔兰、银扣\n进口tc头层牛皮\n半收工缝制收口\n蜜蜡线缝制\n尺寸:18cm"},"price":null,"currency":"CNY","moq":1,"category":"hermes-women-bags","status":"active","alibaba_url":null,"images":["https://xcimg.szwego.com/img/88b306c4/20240901/a1725199799405_1502.jpg","https://xcimg.szwego.com/img/88b306c4/20240901/a1725199799073_2542.jpg","https://xcimg.szwego.com/img/88b306c4/20240901/a1725199799024_6840.jpg","https://xcimg.szwego.com/img/88b306c4/20240901/a1725199799180_7841.jpg","https://xcimg.szwego.com/img/88b306c4/20240901/a1725199799181_8073.jpg","https://xcimg.szwego.com/img/88b306c4/20240901/a1725199799453_4451.jpg","https://xcimg.szwego.com/img/88b306c4/20240901/a1725199800562_7046.jpg","https://xcimg.szwego.com/img/88b306c4/20240901/a1725199800590_5260.jpg","https://xcimg.szwego.com/img/88b306c4/20240901/a1725199800539_0615.jpg"],"created_at":"2024-10-22T05:00:12.224Z"},{"id":"item-8e239a327dda","sku":"_dn3n31tRHv8TRdsSGgrTdx54iWA6xKIvJzT0Rnw","name_en":"picotin 菜篮子","name_cn":"picotin 菜篮子\n颜色:圣杯兰、金扣\n进口tc头层牛皮\n半手工缝制收口\n蜜蜡线缝制\n尺寸:18cm","specs":{"source":"wsxcme","sourceId":"_dn3n31tRHv8TRdsSGgrTdx54iWA6xKIvJzT0Rnw","sourceTagId":76963559,"sourceTagName":"爱马仕/女包","rawTitle":"picotin 菜篮子\n颜色:圣杯兰、金扣\n进口tc头层牛皮\n半手工缝制收口\n蜜蜡线缝制\n尺寸:18cm"},"price":null,"currency":"CNY","moq":1,"category":"hermes-women-bags","status":"active","alibaba_url":null,"images":["https://xcimg.szwego.com/img/88b306c4/20240901/a1725203468164_7636.jpg","https://xcimg.szwego.com/img/88b306c4/20240901/a1725203468058_4710.jpg","https://xcimg.szwego.com/img/88b306c4/20240901/a1725203468083_7067.jpg","https://xcimg.szwego.com/img/88b306c4/20240901/a1725203468044_3324.jpg","https://xcimg.szwego.com/img/88b306c4/20240901/a1725203468282_3364.jpg","https://xcimg.szwego.com/img/88b306c4/20240901/a1725203468060_6178.jpg","https://xcimg.szwego.com/img/88b306c4/20240901/a1725203469604_2538.jpg","https://xcimg.szwego.com/img/88b306c4/20240901/a1725203469656_5522.jpg","https://xcimg.szwego.com/img/88b306c4/20240901/a1725203469642_8287.jpg"],"created_at":"2024-10-22T05:00:12.189Z"},{"id":"item-866917326719","sku":"_dO8O8JWjPaRb14v6Jqb23HeF2h8rGm3UfKE2foQ","name_en":"picotin 菜篮子","name_cn":"picotin 菜篮子\n颜色:枣红色、银扣\n进口tc头层牛皮\n半收工缝制收口\n蜜蜡线缝制\n尺寸:18cm","specs":{"source":"wsxcme","sourceId":"_dO8O8JWjPaRb14v6Jqb23HeF2h8rGm3UfKE2foQ","sourceTagId":76963559,"sourceTagName":"爱马仕/女包","rawTitle":"picotin 菜篮子\n颜色:枣红色、银扣\n进口tc头层牛皮\n半收工缝制收口\n蜜蜡线缝制\n尺寸:18cm"},"price":null,"currency":"CNY","moq":1,"category":"hermes-women-bags","status":"active","alibaba_url":null,"images":["https://xcimg.szwego.com/img/88b306c4/20240901/a1725203972514_2451.jpg","https://xcimg.szwego.com/img/88b306c4/20240901/a1725203972845_5223.jpg","https://xcimg.szwego.com/img/88b306c4/20240901/a1725203972719_8115.jpg","https://xcimg.szwego.com/img/88b306c4/20240901/a1725203972586_4361.jpg","https://xcimg.szwego.com/img/88b306c4/20240901/a1725203972828_5525.jpg","https://xcimg.szwego.com/img/88b306c4/20240901/a1725203972628_0745.jpg","https://xcimg.szwego.com/img/88b306c4/20240901/a1725203981360_3411.jpg","https://xcimg.szwego.com/img/88b306c4/20240901/a1725203981341_7758.jpg","https://xcimg.szwego.com/img/88b306c4/20240901/a1725203981345_3744.jpg"],"created_at":"2024-10-22T05:00:12.190Z"},{"id":"item-778e7f64d2dd","sku":"_diqiqMFPm7iQXjb_7LKkoQMgogwH7OnDCynVw5w","name_en":"picotin 菜篮子","name_cn":"picotin 菜篮子\n颜色:金棕、金扣\n进口tc头层牛皮\n半收工缝制收口\n蜜蜡线缝制\n尺寸:18cm","specs":{"source":"wsxcme","sourceId":"_diqiqMFPm7iQXjb_7LKkoQMgogwH7OnDCynVw5w","sourceTagId":76963559,"sourceTagName":"爱马仕/女包","rawTitle":"picotin 菜篮子\n颜色:金棕、金扣\n进口tc头层牛皮\n半收工缝制收口\n蜜蜡线缝制\n尺寸:18cm"},"price":null,"currency":"CNY","moq":1,"category":"hermes-women-bags","status":"active","alibaba_url":null,"images":["https://xcimg.szwego.com/img/88b306c4/20240901/a1725200482925_7833.jpg","https://xcimg.szwego.com/img/88b306c4/20240901/a1725200482922_7720.jpg","https://xcimg.szwego.com/img/88b306c4/20240901/a1725200482962_2583.jpg","https://xcimg.szwego.com/img/88b306c4/20240901/a1725200483197_7367.jpg","https://xcimg.szwego.com/img/88b306c4/20240901/a1725200483198_3511.jpg","https://xcimg.szwego.com/img/88b306c4/20240901/a1725200482916_6445.jpg","https://xcimg.szwego.com/img/88b306c4/20240901/a1725200489871_7477.jpg","https://xcimg.szwego.com/img/88b306c4/20240901/a1725200489774_6516.jpg","https://xcimg.szwego.com/img/88b306c4/20240901/a1725200489872_8724.jpg"],"created_at":"2024-10-22T04:49:50.728Z"},{"id":"item-6972607fbe32","sku":"_dwUwUmc8ZM7JdOn2J29d55OaXseWonfGgOwMe3Q","name_en":"picotin 菜篮子","name_cn":"picotin 菜篮子\n颜色:饼干色、银扣\n进口tc头层牛皮\n半收工缝制收口\n蜜蜡线缝制\n尺寸:18cm","specs":{"source":"wsxcme","sourceId":"_dwUwUmc8ZM7JdOn2J29d55OaXseWonfGgOwMe3Q","sourceTagId":76963559,"sourceTagName":"爱马仕/女包","rawTitle":"picotin 菜篮子\n颜色:饼干色、银扣\n进口tc头层牛皮\n半收工缝制收口\n蜜蜡线缝制\n尺寸:18cm"},"price":null,"currency":"CNY","moq":1,"category":"hermes-women-bags","status":"active","alibaba_url":null,"images":["https://xcimg.szwego.com/img/88b306c4/20240901/a1725204641567_3288.jpg","https://xcimg.szwego.com/img/88b306c4/20240901/a1725204641442_7683.jpg","https://xcimg.szwego.com/img/88b306c4/20240901/a1725204641782_7375.jpg","https://xcimg.szwego.com/img/88b306c4/20240901/a1725204641836_1468.jpg","https://xcimg.szwego.com/img/88b306c4/20240901/a1725204641438_8738.jpg","https://xcimg.szwego.com/img/88b306c4/20240901/a1725204641570_0120.jpg","https://xcimg.szwego.com/img/88b306c4/20240901/a1725204643160_0536.jpg","https://xcimg.szwego.com/img/88b306c4/20240901/a1725204643111_3048.jpg","https://xcimg.szwego.com/img/88b306c4/20240901/a1725204643175_8537.jpg"],"created_at":"2024-10-22T05:00:12.192Z"},{"id":"item-3de17ef7a552","sku":"_dtLtL9ZoEHTTgM7OQhY95CmjJTQGC6f2lnrV6Mg","name_en":"picotin 菜篮子","name_cn":"picotin 菜篮子\n颜色:金棕、银扣\n进口tc头层牛皮\n半收工缝制收口\n蜜蜡线缝制\n尺寸:18cm","specs":{"source":"wsxcme","sourceId":"_dtLtL9ZoEHTTgM7OQhY95CmjJTQGC6f2lnrV6Mg","sourceTagId":76963559,"sourceTagName":"爱马仕/女包","rawTitle":"picotin 菜篮子\n颜色:金棕、银扣\n进口tc头层牛皮\n半收工缝制收口\n蜜蜡线缝制\n尺寸:18cm"},"price":null,"currency":"CNY","moq":1,"category":"hermes-women-bags","status":"active","alibaba_url":null,"images":["https://xcimg.szwego.com/img/88b306c4/20240901/a1725200593278_1415.jpg","https://xcimg.szwego.com/img/88b306c4/20240901/a1725200593153_0214.jpg","https://xcimg.szwego.com/img/88b306c4/20240901/a1725200593069_7652.jpg","https://xcimg.szwego.com/img/88b306c4/20240901/a1725200593076_1711.jpg","https://xcimg.szwego.com/img/88b306c4/20240901/a1725200593065_8644.jpg","https://xcimg.szwego.com/img/88b306c4/20240901/a1725200593298_3632.jpg","https://xcimg.szwego.com/img/88b306c4/20240901/a1725200594474_4164.jpg","https://xcimg.szwego.com/img/88b306c4/20240901/a1725200594459_8605.jpg","https://xcimg.szwego.com/img/88b306c4/20240901/a1725200594585_8212.jpg"],"created_at":"2024-10-22T04:49:50.729Z"},{"id":"item-3640bbddc2b3","sku":"_dsjsja2NLKiclnC1gUBdTA4zFgkW87Uw4IJceCQ","name_en":"picotin 菜篮子","name_cn":"picotin 菜篮子\n颜色:亚玛兰、金扣\n进口tc头层牛皮\n半手工缝制收口\n蜜蜡线缝制\n尺寸:18cm","specs":{"source":"wsxcme","sourceId":"_dsjsja2NLKiclnC1gUBdTA4zFgkW87Uw4IJceCQ","sourceTagId":76963559,"sourceTagName":"爱马仕/女包","rawTitle":"picotin 菜篮子\n颜色:亚玛兰、金扣\n进口tc头层牛皮\n半手工缝制收口\n蜜蜡线缝制\n尺寸:18cm"},"price":null,"currency":"CNY","moq":1,"category":"hermes-women-bags","status":"active","alibaba_url":null,"images":["https://xcimg.szwego.com/img/88b306c4/20240902/a1725206590738_4338.jpg","https://xcimg.szwego.com/img/88b306c4/20240902/a1725206590730_1538.jpg","https://xcimg.szwego.com/img/88b306c4/20240902/a1725206590614_8037.jpg","https://xcimg.szwego.com/img/88b306c4/20240902/a1725206590510_5825.jpg","https://xcimg.szwego.com/img/88b306c4/20240902/a1725206590464_4682.jpg","https://xcimg.szwego.com/img/88b306c4/20240902/a1725206590517_0576.jpg","https://xcimg.szwego.com/img/88b306c4/20240902/a1725206591977_7563.jpg","https://xcimg.szwego.com/img/88b306c4/20240902/a1725206591955_2713.jpg","https://xcimg.szwego.com/img/88b306c4/20240902/a1725206592039_0202.jpg"],"created_at":"2024-10-22T05:00:12.199Z"},{"id":"item-2c0ea4e746d1","sku":"_dtitiEx7gokE6pxUHpp3WR_y5kp1gCXJIuh8Fgw","name_en":"picotin 菜篮子","name_cn":"picotin 菜篮子\n颜色:奶昔粉、银扣\n进口tc头层牛皮\n半手工缝制收口\n蜜蜡线缝制\n尺寸:18cm","specs":{"source":"wsxcme","sourceId":"_dtitiEx7gokE6pxUHpp3WR_y5kp1gCXJIuh8Fgw","sourceTagId":76963559,"sourceTagName":"爱马仕/女包","rawTitle":"picotin 菜篮子\n颜色:奶昔粉、银扣\n进口tc头层牛皮\n半手工缝制收口\n蜜蜡线缝制\n尺寸:18cm"},"price":null,"currency":"CNY","moq":1,"category":"hermes-women-bags","status":"active","alibaba_url":null,"images":["https://xcimg.szwego.com/img/88b306c4/20240902/a1725207354118_1330.jpg","https://xcimg.szwego.com/img/88b306c4/20240902/a1725207354129_0234.jpg","https://xcimg.szwego.com/img/88b306c4/20240902/a1725207354481_1121.jpg","https://xcimg.szwego.com/img/88b306c4/20240902/a1725207354207_6332.jpg","https://xcimg.szwego.com/img/88b306c4/20240902/a1725207354227_5451.jpg","https://xcimg.szwego.com/img/88b306c4/20240902/a1725207354410_4564.jpg","https://xcimg.szwego.com/img/88b306c4/20240902/a1725207355564_8150.jpg","https://xcimg.szwego.com/img/88b306c4/20240902/a1725207355712_5480.jpg","https://xcimg.szwego.com/img/88b306c4/20240902/a1725207355588_0807.jpg"],"created_at":"2024-10-22T05:00:12.202Z"},{"id":"item-20d18e855028","sku":"_dfvfv4aSwV0BJk67p9pIq5B-MXNybkxtVQRa-Nw","name_en":"picotin 菜篮子","name_cn":"picotin 菜篮子\n颜色:班鸠灰、金扣\n进口tc头层牛皮\n半收工缝制收口\n蜜蜡线缝制\n尺寸:18cm","specs":{"source":"wsxcme","sourceId":"_dfvfv4aSwV0BJk67p9pIq5B-MXNybkxtVQRa-Nw","sourceTagId":76963559,"sourceTagName":"爱马仕/女包","rawTitle":"picotin 菜篮子\n颜色:班鸠灰、金扣\n进口tc头层牛皮\n半收工缝制收口\n蜜蜡线缝制\n尺寸:18cm"},"price":null,"currency":"CNY","moq":1,"category":"hermes-women-bags","status":"active","alibaba_url":null,"images":["https://xcimg.szwego.com/img/88b306c4/20240901/a1725200860502_1820.jpg","https://xcimg.szwego.com/img/88b306c4/20240901/a1725200860549_6214.jpg","https://xcimg.szwego.com/img/88b306c4/20240901/a1725200860844_6634.jpg","https://xcimg.szwego.com/img/88b306c4/20240901/a1725200860557_5160.jpg","https://xcimg.szwego.com/img/88b306c4/20240901/a1725200860746_8620.jpg","https://xcimg.szwego.com/img/88b306c4/20240901/a1725200860484_8267.jpg","https://xcimg.szwego.com/img/88b306c4/20240901/a1725200862127_6157.jpg","https://xcimg.szwego.com/img/88b306c4/20240901/a1725200862257_7730.jpg","https://xcimg.szwego.com/img/88b306c4/20240901/a1725200862172_4020.jpg"],"created_at":"2024-10-22T05:00:12.226Z"},{"id":"item-1c05b00d47dc","sku":"_dwYwYq5KUEcV2VUn8k9_WvEtz1M92VGckLcTTaA","name_en":"picotin 菜篮子","name_cn":"picotin 菜篮子\n颜色:枣红色、金扣\n进口tc头层牛皮\n半收工缝制收口\n蜜蜡线缝制\n尺寸:18cm","specs":{"source":"wsxcme","sourceId":"_dwYwYq5KUEcV2VUn8k9_WvEtz1M92VGckLcTTaA","sourceTagId":76963559,"sourceTagName":"爱马仕/女包","rawTitle":"picotin 菜篮子\n颜色:枣红色、金扣\n进口tc头层牛皮\n半收工缝制收口\n蜜蜡线缝制\n尺寸:18cm"},"price":null,"currency":"CNY","moq":1,"category":"hermes-women-bags","status":"active","alibaba_url":null,"images":["https://xcimg.szwego.com/img/88b306c4/20240901/a1725204185805_4140.jpg","https://xcimg.szwego.com/img/88b306c4/20240901/a1725204185518_2704.jpg","https://xcimg.szwego.com/img/88b306c4/20240901/a1725204185543_8454.jpg","https://xcimg.szwego.com/img/88b306c4/20240901/a1725204185771_2537.jpg","https://xcimg.szwego.com/img/88b306c4/20240901/a1725204185616_0038.jpg","https://xcimg.szwego.com/img/88b306c4/20240901/a1725204185513_5522.jpg","https://xcimg.szwego.com/img/88b306c4/20240901/a1725204195212_7653.jpg","https://xcimg.szwego.com/img/88b306c4/20240901/a1725204195237_0404.jpg","https://xcimg.szwego.com/img/88b306c4/20240901/a1725204195314_0611.jpg"],"created_at":"2024-10-22T05:00:12.191Z"}],"page":18,"pageSize":24,"total":439,"totalPages":19}
