{"items":[{"id":"item-302e6ac988a2","sku":"_dm7m709i_eWqt7qV08DBOwBhnhP7lzU5viHl1vg","name_en":"😘","name_cn":"😘\nNew Kelly Elan, a fashionable cycle, can be worn as a shoulder bag or a clutch, truly replacing the first generation\nSimply too beautiful\nHurry up and grab one, babies","specs":{"source":"wsxcme","sourceId":"_dm7m709i_eWqt7qV08DBOwBhnhP7lzU5viHl1vg","sourceTagId":76963559,"sourceTagName":"Hermes/women's bag","rawTitle":"😘\nNew Kelly Elan, a fashionable cycle, can be worn as a shoulder bag or a clutch, truly replacing the first generation\nSimply too beautiful\nHurry up and grab one, babies"},"price":null,"currency":"CNY","moq":1,"category":"hermes-women-bags","status":"active","alibaba_url":null,"images":["https://xcimg.szwego.com/20230804/i1691138587_6721_0.jpg","https://xcimg.szwego.com/20230804/i1691138587_6937_1.jpg","https://xcimg.szwego.com/20230804/i1691138587_6090_2.jpg","https://xcimg.szwego.com/20230804/i1691138587_6486_3.jpg","https://xcimg.szwego.com/20230804/i1691138587_8423_4.jpg","https://xcimg.szwego.com/20230804/i1691138587_1036_5.jpg","https://xcimg.szwego.com/20230804/i1691138587_3013_6.jpg","https://xcimg.szwego.com/20230804/i1691138587_2920_7.jpg","https://xcimg.szwego.com/20230804/i1691138587_1119_8.jpg"],"created_at":"2024-10-22T04:49:50.794Z"},{"id":"item-269b7c24a9a0","sku":"_doToTJTC0DX_nNkcM_6ZK7kAXEeY-_j_566VgEg","name_en":"😘","name_cn":"😘\nNew Kelly Elan, a fashionable cycle, can be worn as a shoulder bag or a clutch, truly replacing the first generation\nSimply too beautiful\nHurry up and grab one, babies","specs":{"source":"wsxcme","sourceId":"_doToTJTC0DX_nNkcM_6ZK7kAXEeY-_j_566VgEg","sourceTagId":76963559,"sourceTagName":"Hermes/women's bag","rawTitle":"😘\nNew Kelly Elan, a fashionable cycle, can be worn as a shoulder bag or a clutch, truly replacing the first generation\nSimply too beautiful\nHurry up and grab one, babies"},"price":null,"currency":"CNY","moq":1,"category":"hermes-women-bags","status":"active","alibaba_url":null,"images":["https://xcimg.szwego.com/20230804/i1691138356_5071_0.jpg","https://xcimg.szwego.com/20230804/i1691138356_9505_1.jpg","https://xcimg.szwego.com/20230804/i1691138356_8079_2.jpg","https://xcimg.szwego.com/20230804/i1691138356_8326_3.jpg","https://xcimg.szwego.com/20230804/i1691138356_7584_4.jpg","https://xcimg.szwego.com/20230804/i1691138356_267_5.jpg","https://xcimg.szwego.com/20230804/i1691138356_1211_6.jpg","https://xcimg.szwego.com/20230804/i1691138356_2759_7.jpg","https://xcimg.szwego.com/20230804/i1691138356_9729_8.jpg"],"created_at":"2024-10-22T04:49:50.792Z"},{"id":"item-3c50a3b41668","sku":"_ddbdbiDirt7P0r-E8kIk9Y2lP_mvAS__C2_LjTw","name_en":"Almond Green🏝️Mini Kelly 2nd Gen","name_cn":"Almond Green🏝️Mini Kelly 2nd Gen\n• Exclusive high cost-performance version\n• Perfect machine stitching with full leather inside and out\n• The boss of Mini bags\n“Small in size but complete in function”🎁 Besides carrying daily essentials, it can also hold taste, letting you carry your taste “on your back”.\nIn stock 19Cm 7878000","specs":{"source":"wsxcme","sourceId":"_ddbdbiDirt7P0r-E8kIk9Y2lP_mvAS__C2_LjTw","sourceTagId":76963559,"sourceTagName":"Hermes/women's bag","rawTitle":"Almond Green🏝️Mini Kelly 2nd Gen\n• Exclusive high cost-performance version\n• Perfect machine stitching with full leather inside and out\n• The boss of Mini bags\n“Small in size but complete in function”🎁 Besides carrying daily essentials, it can also hold taste, letting you carry your taste “on your back”.\nIn stock 19Cm 7878000"},"price":null,"currency":"CNY","moq":1,"category":"hermes-women-bags","status":"active","alibaba_url":null,"images":["https://xcimg.szwego.com/img/b17e98d7/20240420/i1713600413_2584_0.jpg","https://xcimg.szwego.com/img/b17e98d7/20240420/i1713600413_2104_4.jpg","https://xcimg.szwego.com/img/b17e98d7/20240420/i1713600413_5375_6.jpg","https://xcimg.szwego.com/img/b17e98d7/20240420/i1713600413_8834_5.jpg","https://xcimg.szwego.com/img/b17e98d7/20240420/i1713600413_7256_1.jpg","https://xcimg.szwego.com/img/b17e98d7/20240420/i1713600413_3714_8.jpg","https://xcimg.szwego.com/img/b17e98d7/20240420/i1713600413_727_2.jpg","https://xcimg.szwego.com/img/b17e98d7/20240420/i1713600413_2042_7.jpg","https://xcimg.szwego.com/img/b17e98d7/20240420/i1713600413_5838_3.jpg"],"created_at":"2024-10-22T05:04:33.162Z"},{"id":"item-a67a859f8e61","sku":"_doLoLXwGcPVUoW1tsjNYPammFLCiDAbgayQsNUQ","name_en":"Amber Yellow☀️ Mini Kelly 2nd Gen","name_cn":"Amber Yellow☀️ Mini Kelly 2nd Gen\n• Exclusive high cost-performance version\n• Perfect machine stitching with full leather inside and out\n• The boss of Mini bags\n“Small in size but complete in function”🎁 Besides carrying daily essentials, it can also hold taste, letting you carry your taste “on your back”.\nIn stock 19Cm 7878000","specs":{"source":"wsxcme","sourceId":"_doLoLXwGcPVUoW1tsjNYPammFLCiDAbgayQsNUQ","sourceTagId":76963559,"sourceTagName":"Hermes/women's bag","rawTitle":"Amber Yellow☀️ Mini Kelly 2nd Gen\n• Exclusive high cost-performance version\n• Perfect machine stitching with full leather inside and out\n• The boss of Mini bags\n“Small in size but complete in function”🎁 Besides carrying daily essentials, it can also hold taste, letting you carry your taste “on your back”.\nIn stock 19Cm 7878000"},"price":null,"currency":"CNY","moq":1,"category":"hermes-women-bags","status":"active","alibaba_url":null,"images":["https://xcimg.szwego.com/img/b17e98d7/20240420/i1713599220_2002_6.jpg","https://xcimg.szwego.com/img/b17e98d7/20240420/i1713599220_1640_4.jpg","https://xcimg.szwego.com/img/b17e98d7/20240420/i1713599220_1455_2.jpg","https://xcimg.szwego.com/img/b17e98d7/20240420/i1713599220_915_0.jpg","https://xcimg.szwego.com/img/b17e98d7/20240420/i1713599220_5334_5.jpg","https://xcimg.szwego.com/img/b17e98d7/20240420/i1713599220_3143_3.jpg","https://xcimg.szwego.com/img/b17e98d7/20240420/i1713599220_4415_1.jpg","https://xcimg.szwego.com/img/b17e98d7/20240420/i1713599220_3439_7.jpg","https://xcimg.szwego.com/img/b17e98d7/20240420/i1713599220_6500_8.jpg"],"created_at":"2024-10-22T05:04:33.161Z"},{"id":"item-f3793528316f","sku":"_dMgMgVPwDMZ98Hr3eTqUx3NoY085Mx3JsEENxYQ","name_en":"Avocado Green🥑Mini Kelly 2nd Gen","name_cn":"Avocado Green🥑Mini Kelly 2nd Gen\n• Exclusive high cost-performance version\n• Perfect machine stitching with full leather inside and out\n• The boss of Mini bags\n“Small in size but complete in function”🎁 Besides carrying daily essentials, it can also hold taste, letting you carry your taste “on your back”.\nIn stock 19Cm 7878000","specs":{"source":"wsxcme","sourceId":"_dMgMgVPwDMZ98Hr3eTqUx3NoY085Mx3JsEENxYQ","sourceTagId":76963559,"sourceTagName":"Hermes/women's bag","rawTitle":"Avocado Green🥑Mini Kelly 2nd Gen\n• Exclusive high cost-performance version\n• Perfect machine stitching with full leather inside and out\n• The boss of Mini bags\n“Small in size but complete in function”🎁 Besides carrying daily essentials, it can also hold taste, letting you carry your taste “on your back”.\nIn stock 19Cm 7878000"},"price":null,"currency":"CNY","moq":1,"category":"hermes-women-bags","status":"active","alibaba_url":null,"images":["https://xcimg.szwego.com/img/b17e98d7/20240420/i1713605070_9193_4.jpg","https://xcimg.szwego.com/img/b17e98d7/20240420/i1713605070_279_0.jpg","https://xcimg.szwego.com/img/b17e98d7/20240420/i1713605070_6522_1.jpg","https://xcimg.szwego.com/img/b17e98d7/20240420/i1713605070_8991_2.jpg","https://xcimg.szwego.com/img/b17e98d7/20240420/i1713605071_2251_8.jpg","https://xcimg.szwego.com/img/b17e98d7/20240420/i1713605070_5336_5.jpg","https://xcimg.szwego.com/img/b17e98d7/20240420/i1713605070_4088_3.jpg","https://xcimg.szwego.com/img/b17e98d7/20240420/i1713605071_9833_7.jpg","https://xcimg.szwego.com/img/b17e98d7/20240420/i1713605070_9849_6.jpg"],"created_at":"2024-10-22T05:04:33.163Z"},{"id":"item-6430a83fc2f8","sku":"_duXuX8XDNkenhDn1cFWPIcgqJn4hFhHIUdqITYA","name_en":"Basket","name_cn":"Basket","specs":{"source":"wsxcme","sourceId":"_duXuX8XDNkenhDn1cFWPIcgqJn4hFhHIUdqITYA","sourceTagId":76963559,"sourceTagName":"Hermes/women's bag","rawTitle":"Basket"},"price":null,"currency":"CNY","moq":1,"category":"hermes-women-bags","status":"active","alibaba_url":null,"images":["https://xcimg.szwego.com/img/88b306c4/20240902/a1725214222504_0122.jpg","https://xcimg.szwego.com/img/88b306c4/20240902/a1725214222653_7304.jpg","https://xcimg.szwego.com/img/88b306c4/20240902/a1725214232258_5277.jpg","https://xcimg.szwego.com/img/88b306c4/20240902/a1725214222201_6556.jpg"],"created_at":"2024-10-22T05:00:12.156Z"},{"id":"item-fdaf4330193d","sku":"_doWoWHWw_LOjwOBQVrF9OvC9NzR-pXq6AgKnoHg","name_en":"Birkin 25 Glossy Crocodile🐊 Fully Handmade","name_cn":"Birkin 25 Glossy Crocodile🐊 Fully Handmade","specs":{"source":"wsxcme","sourceId":"_doWoWHWw_LOjwOBQVrF9OvC9NzR-pXq6AgKnoHg","sourceTagId":76963559,"sourceTagName":"Hermes/women's bag","rawTitle":"Birkin 25 Glossy Crocodile🐊 Fully Handmade"},"price":null,"currency":"CNY","moq":1,"category":"hermes-women-bags","status":"active","alibaba_url":null,"images":["https://xcimg.szwego.com/img/9ee4266d/20240802/i1722586056_4536_2.jpg","https://xcimg.szwego.com/img/9ee4266d/20240802/i1722586056_2627_6.jpg","https://xcimg.szwego.com/img/9ee4266d/20240802/i1722586056_1855_5.jpg","https://xcimg.szwego.com/img/9ee4266d/20240802/i1722586056_7358_0.jpg","https://xcimg.szwego.com/img/9ee4266d/20240802/i1722586056_9768_1.jpg","https://xcimg.szwego.com/img/9ee4266d/20240802/i1722586056_3094_3.jpg","https://xcimg.szwego.com/img/9ee4266d/20240802/i1722586056_1059_4.jpg"],"created_at":"2024-10-22T04:43:02.171Z"},{"id":"item-f688b812d73d","sku":"_dg1g1EZO3o9TBvJuYvE-jYsz347TTmLUNkNnkYQ","name_en":"Birkin 25 Glossy Crocodile🐊 Fully Handmade","name_cn":"Birkin 25 Glossy Crocodile🐊 Fully Handmade","specs":{"source":"wsxcme","sourceId":"_dg1g1EZO3o9TBvJuYvE-jYsz347TTmLUNkNnkYQ","sourceTagId":76963559,"sourceTagName":"Hermes/women's bag","rawTitle":"Birkin 25 Glossy Crocodile🐊 Fully Handmade"},"price":null,"currency":"CNY","moq":1,"category":"hermes-women-bags","status":"active","alibaba_url":null,"images":["https://xcimg.szwego.com/img/9ee4266d/20240802/i1722587084_7288_5.jpg","https://xcimg.szwego.com/img/9ee4266d/20240802/i1722587084_3846_0.jpg","https://xcimg.szwego.com/img/9ee4266d/20240802/i1722587084_1760_4.jpg","https://xcimg.szwego.com/img/9ee4266d/20240802/i1722587084_8781_6.jpg","https://xcimg.szwego.com/img/9ee4266d/20240802/i1722587084_1295_8.jpg","https://xcimg.szwego.com/img/9ee4266d/20240802/i1722587084_3625_2.jpg","https://xcimg.szwego.com/img/9ee4266d/20240802/i1722587084_4784_3.jpg","https://xcimg.szwego.com/img/9ee4266d/20240802/i1722587084_6944_1.jpg","https://xcimg.szwego.com/img/9ee4266d/20240802/i1722587084_6541_7.jpg"],"created_at":"2024-10-22T04:43:02.152Z"},{"id":"item-f4630eb288c6","sku":"_dAeAetYf99MPqHuKsUvmdPgX6ARrm5FxlDR0F-A","name_en":"Birkin 25 Glossy Crocodile🐊 Fully Handmade","name_cn":"Birkin 25 Glossy Crocodile🐊 Fully Handmade","specs":{"source":"wsxcme","sourceId":"_dAeAetYf99MPqHuKsUvmdPgX6ARrm5FxlDR0F-A","sourceTagId":76963559,"sourceTagName":"Hermes/women's bag","rawTitle":"Birkin 25 Glossy Crocodile🐊 Fully Handmade"},"price":null,"currency":"CNY","moq":1,"category":"hermes-women-bags","status":"active","alibaba_url":null,"images":["https://xcimg.szwego.com/img/9ee4266d/20240802/i1722586076_2940_0.jpg","https://xcimg.szwego.com/img/9ee4266d/20240802/i1722586076_277_3.jpg","https://xcimg.szwego.com/img/9ee4266d/20240802/i1722586076_5322_1.jpg","https://xcimg.szwego.com/img/9ee4266d/20240802/i1722586076_9600_2.jpg","https://xcimg.szwego.com/img/9ee4266d/20240802/i1722586076_4819_4.jpg","https://xcimg.szwego.com/img/9ee4266d/20240802/i1722586076_1050_6.jpg","https://xcimg.szwego.com/img/9ee4266d/20240802/i1722586076_7714_5.jpg"],"created_at":"2024-10-22T04:43:02.172Z"},{"id":"item-e70e1427bf04","sku":"_d-D-DnjEQpdJw-0AUgvjJPRuZeG6jBQ82g38j-w","name_en":"Birkin 25 Glossy Crocodile🐊 Fully Handmade","name_cn":"Birkin 25 Glossy Crocodile🐊 Fully Handmade","specs":{"source":"wsxcme","sourceId":"_d-D-DnjEQpdJw-0AUgvjJPRuZeG6jBQ82g38j-w","sourceTagId":76963559,"sourceTagName":"Hermes/women's bag","rawTitle":"Birkin 25 Glossy Crocodile🐊 Fully Handmade"},"price":null,"currency":"CNY","moq":1,"category":"hermes-women-bags","status":"active","alibaba_url":null,"images":["https://xcimg.szwego.com/img/9ee4266d/20240802/i1722587104_12_6.jpg","https://xcimg.szwego.com/img/9ee4266d/20240802/i1722587104_8279_2.jpg","https://xcimg.szwego.com/img/9ee4266d/20240802/i1722587104_7387_1.jpg","https://xcimg.szwego.com/img/9ee4266d/20240802/i1722587104_5069_5.jpg","https://xcimg.szwego.com/img/9ee4266d/20240802/i1722587104_7331_4.jpg","https://xcimg.szwego.com/img/9ee4266d/20240802/i1722587104_8294_3.jpg","https://xcimg.szwego.com/img/9ee4266d/20240802/i1722587104_8400_0.jpg"],"created_at":"2024-10-22T04:43:02.151Z"},{"id":"item-db53f5d59de7","sku":"_dJxJxZxPDPwAOrm80sn2p68bRiJKiI9Ma8Td7RQ","name_en":"Birkin 25 Glossy Crocodile🐊 Fully Handmade","name_cn":"Birkin 25 Glossy Crocodile🐊 Fully Handmade","specs":{"source":"wsxcme","sourceId":"_dJxJxZxPDPwAOrm80sn2p68bRiJKiI9Ma8Td7RQ","sourceTagId":76963559,"sourceTagName":"Hermes/women's bag","rawTitle":"Birkin 25 Glossy Crocodile🐊 Fully Handmade"},"price":null,"currency":"CNY","moq":1,"category":"hermes-women-bags","status":"active","alibaba_url":null,"images":["https://xcimg.szwego.com/img/9ee4266d/20240802/i1722586238_9776_2.jpg","https://xcimg.szwego.com/img/9ee4266d/20240802/i1722586238_7479_0.jpg","https://xcimg.szwego.com/img/9ee4266d/20240802/i1722586238_1769_1.jpg","https://xcimg.szwego.com/img/9ee4266d/20240802/i1722586238_9525_3.jpg","https://xcimg.szwego.com/img/9ee4266d/20240802/i1722586239_6749_4.jpg","https://xcimg.szwego.com/img/9ee4266d/20240802/i1722586239_1538_5.jpg","https://xcimg.szwego.com/img/9ee4266d/20240802/i1722586243_1791_0.jpg"],"created_at":"2024-10-22T04:43:02.175Z"},{"id":"item-ce39718a85ee","sku":"_dgOgOias2_ynrD_z1AbiMv2xQslAD_P02K1zphg","name_en":"Birkin 25 Glossy Crocodile🐊 Fully Handmade","name_cn":"Birkin 25 Glossy Crocodile🐊 Fully Handmade","specs":{"source":"wsxcme","sourceId":"_dgOgOias2_ynrD_z1AbiMv2xQslAD_P02K1zphg","sourceTagId":76963559,"sourceTagName":"Hermes/women's bag","rawTitle":"Birkin 25 Glossy Crocodile🐊 Fully Handmade"},"price":null,"currency":"CNY","moq":1,"category":"hermes-women-bags","status":"active","alibaba_url":null,"images":["https://xcimg.szwego.com/img/9ee4266d/20240802/i1722585632_8634_1.jpg","https://xcimg.szwego.com/img/9ee4266d/20240802/i1722585632_672_3.jpg","https://xcimg.szwego.com/img/9ee4266d/20240802/i1722585631_2971_0.jpg","https://xcimg.szwego.com/img/9ee4266d/20240802/i1722585632_6077_4.jpg","https://xcimg.szwego.com/img/9ee4266d/20240802/i1722585632_7476_5.jpg","https://xcimg.szwego.com/img/9ee4266d/20240802/i1722585632_5558_6.jpg","https://xcimg.szwego.com/img/9ee4266d/20240802/i1722585632_348_2.jpg"],"created_at":"2024-10-22T04:43:02.170Z"},{"id":"item-cdaf1b188b1f","sku":"_djwjw1nwFQq64_NOWwLM2sQ7oxcp6YmvaR5W9Fg","name_en":"Birkin 25 Glossy Crocodile🐊 Fully Handmade","name_cn":"Birkin 25 Glossy Crocodile🐊 Fully Handmade","specs":{"source":"wsxcme","sourceId":"_djwjw1nwFQq64_NOWwLM2sQ7oxcp6YmvaR5W9Fg","sourceTagId":76963559,"sourceTagName":"Hermes/women's bag","rawTitle":"Birkin 25 Glossy Crocodile🐊 Fully Handmade"},"price":null,"currency":"CNY","moq":1,"category":"hermes-women-bags","status":"active","alibaba_url":null,"images":["https://xcimg.szwego.com/img/9ee4266d/20240802/i1722586409_6137_6.jpg","https://xcimg.szwego.com/img/9ee4266d/20240802/i1722586409_4375_3.jpg","https://xcimg.szwego.com/img/9ee4266d/20240802/i1722586409_1699_2.jpg","https://xcimg.szwego.com/img/9ee4266d/20240802/i1722586409_5000_4.jpg","https://xcimg.szwego.com/img/9ee4266d/20240802/i1722586409_7097_0.jpg","https://xcimg.szwego.com/img/9ee4266d/20240802/i1722586409_9285_1.jpg","https://xcimg.szwego.com/img/9ee4266d/20240802/i1722586409_7652_5.jpg"],"created_at":"2024-10-22T04:43:02.176Z"},{"id":"item-c6b1ce26d20d","sku":"_dxlxlLWBCjA1DHks10EMeynEh2lKLCz5jOayW1Q","name_en":"Birkin 25 Glossy Crocodile🐊 Fully Handmade","name_cn":"Birkin 25 Glossy Crocodile🐊 Fully Handmade","specs":{"source":"wsxcme","sourceId":"_dxlxlLWBCjA1DHks10EMeynEh2lKLCz5jOayW1Q","sourceTagId":76963559,"sourceTagName":"Hermes/women's bag","rawTitle":"Birkin 25 Glossy Crocodile🐊 Fully Handmade"},"price":null,"currency":"CNY","moq":1,"category":"hermes-women-bags","status":"active","alibaba_url":null,"images":["https://xcimg.szwego.com/img/9ee4266d/20240802/i1722586187_8432_6.jpg","https://xcimg.szwego.com/img/9ee4266d/20240802/i1722586187_6291_2.jpg","https://xcimg.szwego.com/img/9ee4266d/20240802/i1722586187_6097_0.jpg","https://xcimg.szwego.com/img/9ee4266d/20240802/i1722586187_9324_1.jpg","https://xcimg.szwego.com/img/9ee4266d/20240802/i1722586187_6552_7.jpg","https://xcimg.szwego.com/img/9ee4266d/20240802/i1722586187_3506_3.jpg","https://xcimg.szwego.com/img/9ee4266d/20240802/i1722586187_7412_9.jpg","https://xcimg.szwego.com/img/9ee4266d/20240802/i1722586187_3140_4.jpg","https://xcimg.szwego.com/img/9ee4266d/20240802/i1722586187_661_5.jpg","https://xcimg.szwego.com/img/9ee4266d/20240802/i1722586187_1049_8.jpg"],"created_at":"2024-10-22T04:43:02.173Z"},{"id":"item-b8ce2e963b6d","sku":"_dEqEqxcXuSZ14kvD0L7yZPwMBe7CYD5AXpq6wLw","name_en":"Birkin 25 Glossy Crocodile🐊 Fully Handmade","name_cn":"Birkin 25 Glossy Crocodile🐊 Fully Handmade","specs":{"source":"wsxcme","sourceId":"_dEqEqxcXuSZ14kvD0L7yZPwMBe7CYD5AXpq6wLw","sourceTagId":76963559,"sourceTagName":"Hermes/women's bag","rawTitle":"Birkin 25 Glossy Crocodile🐊 Fully Handmade"},"price":null,"currency":"CNY","moq":1,"category":"hermes-women-bags","status":"active","alibaba_url":null,"images":["https://xcimg.szwego.com/img/9ee4266d/20240722/i1721651503_1733_3.jpg","https://xcimg.szwego.com/img/9ee4266d/20240722/i1721651503_7762_1.jpg","https://xcimg.szwego.com/img/9ee4266d/20240722/i1721651502_832_0.jpg","https://xcimg.szwego.com/img/9ee4266d/20240722/i1721651503_544_5.jpg","https://xcimg.szwego.com/img/9ee4266d/20240722/i1721651503_6643_2.jpg","https://xcimg.szwego.com/img/9ee4266d/20240722/i1721651503_2305_4.jpg","https://xcimg.szwego.com/img/9ee4266d/20240722/i1721651503_6862_6.jpg"],"created_at":"2024-10-22T04:43:02.159Z"},{"id":"item-b82b3cdf9ba1","sku":"_dQJQJ4nj648-KnkPyeUMXY5skmrrIxbs0LFtVzw","name_en":"Birkin 25 Glossy Crocodile🐊 Fully Handmade","name_cn":"Birkin 25 Glossy Crocodile🐊 Fully Handmade","specs":{"source":"wsxcme","sourceId":"_dQJQJ4nj648-KnkPyeUMXY5skmrrIxbs0LFtVzw","sourceTagId":76963559,"sourceTagName":"Hermes/women's bag","rawTitle":"Birkin 25 Glossy Crocodile🐊 Fully Handmade"},"price":null,"currency":"CNY","moq":1,"category":"hermes-women-bags","status":"active","alibaba_url":null,"images":["https://xcimg.szwego.com/img/9ee4266d/20240722/i1721652332_9641_6.jpg","https://xcimg.szwego.com/img/9ee4266d/20240722/i1721652332_7835_2.jpg","https://xcimg.szwego.com/img/9ee4266d/20240722/i1721652332_9189_1.jpg","https://xcimg.szwego.com/img/9ee4266d/20240722/i1721652335_7135_0.jpg","https://xcimg.szwego.com/img/9ee4266d/20240722/i1721652335_4216_0.jpg","https://xcimg.szwego.com/img/9ee4266d/20240722/i1721652332_4623_4.jpg","https://xcimg.szwego.com/img/9ee4266d/20240722/i1721652332_7774_5.jpg"],"created_at":"2024-10-22T04:43:02.164Z"},{"id":"item-b11a02f792e4","sku":"_d6S6S5w6FeT-nsnUN5ZwSUdTYR8GOY4CcMRphhw","name_en":"Birkin 25 Glossy Crocodile🐊 Fully Handmade","name_cn":"Birkin 25 Glossy Crocodile🐊 Fully Handmade","specs":{"source":"wsxcme","sourceId":"_d6S6S5w6FeT-nsnUN5ZwSUdTYR8GOY4CcMRphhw","sourceTagId":76963559,"sourceTagName":"Hermes/women's bag","rawTitle":"Birkin 25 Glossy Crocodile🐊 Fully Handmade"},"price":null,"currency":"CNY","moq":1,"category":"hermes-women-bags","status":"active","alibaba_url":null,"images":["https://xcimg.szwego.com/img/9ee4266d/20240802/i1722586208_7421_1.jpg","https://xcimg.szwego.com/img/9ee4266d/20240802/i1722586208_7841_4.jpg","https://xcimg.szwego.com/img/9ee4266d/20240802/i1722586208_2959_3.jpg","https://xcimg.szwego.com/img/9ee4266d/20240802/i1722586208_3144_0.jpg","https://xcimg.szwego.com/img/9ee4266d/20240802/i1722586208_7423_2.jpg","https://xcimg.szwego.com/img/9ee4266d/20240802/i1722586208_2653_5.jpg","https://xcimg.szwego.com/img/9ee4266d/20240802/i1722586208_681_6.jpg"],"created_at":"2024-10-22T04:43:02.174Z"},{"id":"item-af0065886b5b","sku":"_dWiWi5Q23OraI8-T3l6b06T1FLXclE037dq0CNg","name_en":"Birkin 25 Glossy Crocodile🐊 Fully Handmade","name_cn":"Birkin 25 Glossy Crocodile🐊 Fully Handmade","specs":{"source":"wsxcme","sourceId":"_dWiWi5Q23OraI8-T3l6b06T1FLXclE037dq0CNg","sourceTagId":76963559,"sourceTagName":"Hermes/women's bag","rawTitle":"Birkin 25 Glossy Crocodile🐊 Fully Handmade"},"price":null,"currency":"CNY","moq":1,"category":"hermes-women-bags","status":"active","alibaba_url":null,"images":["https://xcimg.szwego.com/img/9ee4266d/20240722/i1721645690_5639_5.jpg","https://xcimg.szwego.com/img/9ee4266d/20240722/i1721645690_5170_0.jpg","https://xcimg.szwego.com/img/9ee4266d/20240722/i1721645690_3642_1.jpg","https://xcimg.szwego.com/img/9ee4266d/20240722/i1721645690_724_2.jpg","https://xcimg.szwego.com/img/9ee4266d/20240722/i1721645690_5109_4.jpg","https://xcimg.szwego.com/img/9ee4266d/20240722/i1721645690_3695_6.jpg","https://xcimg.szwego.com/img/9ee4266d/20240722/i1721645690_1523_7.jpg"],"created_at":"2024-10-22T04:43:02.154Z"},{"id":"item-a6c40336656a","sku":"_dtotoxNYSmgnulZ-ciJwgiQm9LlSLWncdK8IFiw","name_en":"Birkin 25 Glossy Crocodile🐊 Fully Handmade","name_cn":"Birkin 25 Glossy Crocodile🐊 Fully Handmade","specs":{"source":"wsxcme","sourceId":"_dtotoxNYSmgnulZ-ciJwgiQm9LlSLWncdK8IFiw","sourceTagId":76963559,"sourceTagName":"Hermes/women's bag","rawTitle":"Birkin 25 Glossy Crocodile🐊 Fully Handmade"},"price":null,"currency":"CNY","moq":1,"category":"hermes-women-bags","status":"active","alibaba_url":null,"images":["https://xcimg.szwego.com/img/9ee4266d/20240802/i1722586828_8388_0.jpg","https://xcimg.szwego.com/img/9ee4266d/20240802/i1722586828_4347_4.jpg","https://xcimg.szwego.com/img/9ee4266d/20240802/i1722586829_7986_7.jpg","https://xcimg.szwego.com/img/9ee4266d/20240802/i1722586828_6583_1.jpg","https://xcimg.szwego.com/img/9ee4266d/20240802/i1722586828_4949_2.jpg","https://xcimg.szwego.com/img/9ee4266d/20240802/i1722586828_2703_3.jpg","https://xcimg.szwego.com/img/9ee4266d/20240802/i1722586829_0_5.jpg","https://xcimg.szwego.com/img/9ee4266d/20240802/i1722586829_2758_6.jpg"],"created_at":"2024-10-22T04:43:02.153Z"},{"id":"item-a47618ed057e","sku":"_d8F8F6v-Djxbax8Avz5yiz1ZDJ0aalLw1L9v6yw","name_en":"Birkin 25 Glossy Crocodile🐊 Fully Handmade","name_cn":"Birkin 25 Glossy Crocodile🐊 Fully Handmade","specs":{"source":"wsxcme","sourceId":"_d8F8F6v-Djxbax8Avz5yiz1ZDJ0aalLw1L9v6yw","sourceTagId":76963559,"sourceTagName":"Hermes/women's bag","rawTitle":"Birkin 25 Glossy Crocodile🐊 Fully Handmade"},"price":null,"currency":"CNY","moq":1,"category":"hermes-women-bags","status":"active","alibaba_url":null,"images":["https://xcimg.szwego.com/img/9ee4266d/20240802/i1722579312_7353_6.jpg","https://xcimg.szwego.com/img/9ee4266d/20240802/i1722579312_394_4.jpg","https://xcimg.szwego.com/img/9ee4266d/20240802/i1722579312_1641_3.jpg","https://xcimg.szwego.com/img/9ee4266d/20240802/i1722579312_6572_5.jpg","https://xcimg.szwego.com/img/9ee4266d/20240802/i1722579312_4016_2.jpg","https://xcimg.szwego.com/img/9ee4266d/20240802/i1722579312_4889_1.jpg","https://xcimg.szwego.com/img/9ee4266d/20240802/i1722579312_9085_0.jpg"],"created_at":"2024-10-22T04:43:02.168Z"},{"id":"item-992cf17dcef5","sku":"_da2a2DOkq02kUwaITg4h82gYPmSwmUCKDp3I4vA","name_en":"Birkin 25 Glossy Crocodile🐊 Fully Handmade","name_cn":"Birkin 25 Glossy Crocodile🐊 Fully Handmade","specs":{"source":"wsxcme","sourceId":"_da2a2DOkq02kUwaITg4h82gYPmSwmUCKDp3I4vA","sourceTagId":76963559,"sourceTagName":"Hermes/women's bag","rawTitle":"Birkin 25 Glossy Crocodile🐊 Fully Handmade"},"price":null,"currency":"CNY","moq":1,"category":"hermes-women-bags","status":"active","alibaba_url":null,"images":["https://xcimg.szwego.com/img/9ee4266d/20240802/i1722586428_9992_1.jpg","https://xcimg.szwego.com/img/9ee4266d/20240802/i1722586428_4978_6.jpg","https://xcimg.szwego.com/img/9ee4266d/20240802/i1722586428_3781_2.jpg","https://xcimg.szwego.com/img/9ee4266d/20240802/i1722586428_3834_0.jpg","https://xcimg.szwego.com/img/9ee4266d/20240802/i1722586428_4272_3.jpg","https://xcimg.szwego.com/img/9ee4266d/20240802/i1722586428_4905_4.jpg","https://xcimg.szwego.com/img/9ee4266d/20240802/i1722586428_6697_5.jpg"],"created_at":"2024-10-22T04:43:02.177Z"},{"id":"item-906e50002078","sku":"_dwtwtEfMoSNLhgezkdCguddd8tDWUBcvbcAOTKA","name_en":"Birkin 25 Glossy Crocodile🐊 Fully Handmade","name_cn":"Birkin 25 Glossy Crocodile🐊 Fully Handmade","specs":{"source":"wsxcme","sourceId":"_dwtwtEfMoSNLhgezkdCguddd8tDWUBcvbcAOTKA","sourceTagId":76963559,"sourceTagName":"Hermes/women's bag","rawTitle":"Birkin 25 Glossy Crocodile🐊 Fully Handmade"},"price":null,"currency":"CNY","moq":1,"category":"hermes-women-bags","status":"active","alibaba_url":null,"images":["https://xcimg.szwego.com/img/9ee4266d/20240802/i1722585612_8926_0.jpg","https://xcimg.szwego.com/img/9ee4266d/20240802/i1722585612_5929_0.jpg","https://xcimg.szwego.com/img/9ee4266d/20240802/i1722585612_6380_0.jpg","https://xcimg.szwego.com/img/9ee4266d/20240802/i1722585612_9212_0.jpg","https://xcimg.szwego.com/img/9ee4266d/20240802/i1722585611_2040_0.jpg","https://xcimg.szwego.com/img/9ee4266d/20240802/i1722585612_1209_0.jpg","https://xcimg.szwego.com/img/9ee4266d/20240802/i1722585607_3869_1.jpg"],"created_at":"2024-10-22T04:43:02.169Z"},{"id":"item-8dff54f3ebf3","sku":"_drDrDnZ_aBilPXfUdOAOxktJF6O5bXVhWv5X5ew","name_en":"Birkin 25 Glossy Crocodile🐊 Fully Handmade","name_cn":"Birkin 25 Glossy Crocodile🐊 Fully Handmade","specs":{"source":"wsxcme","sourceId":"_drDrDnZ_aBilPXfUdOAOxktJF6O5bXVhWv5X5ew","sourceTagId":76963559,"sourceTagName":"Hermes/women's bag","rawTitle":"Birkin 25 Glossy Crocodile🐊 Fully Handmade"},"price":null,"currency":"CNY","moq":1,"category":"hermes-women-bags","status":"active","alibaba_url":null,"images":["https://xcimg.szwego.com/img/9ee4266d/20240722/i1721645809_9119_6.jpg","https://xcimg.szwego.com/img/9ee4266d/20240722/i1721645809_3296_0.jpg","https://xcimg.szwego.com/img/9ee4266d/20240722/i1721645809_4798_1.jpg","https://xcimg.szwego.com/img/9ee4266d/20240722/i1721645809_6165_2.jpg","https://xcimg.szwego.com/img/9ee4266d/20240722/i1721645809_5722_4.jpg","https://xcimg.szwego.com/img/9ee4266d/20240722/i1721645809_9205_3.jpg","https://xcimg.szwego.com/img/9ee4266d/20240722/i1721645809_2336_5.jpg"],"created_at":"2024-10-22T04:43:02.158Z"},{"id":"item-86391a1aa38b","sku":"_dg8g8vjX9yjSc1iYBAYL5PI0rjWmU2CaYJ416kw","name_en":"Birkin 25 Glossy Crocodile🐊 Fully Handmade","name_cn":"Birkin 25 Glossy Crocodile🐊 Fully Handmade","specs":{"source":"wsxcme","sourceId":"_dg8g8vjX9yjSc1iYBAYL5PI0rjWmU2CaYJ416kw","sourceTagId":76963559,"sourceTagName":"Hermes/women's bag","rawTitle":"Birkin 25 Glossy Crocodile🐊 Fully Handmade"},"price":null,"currency":"CNY","moq":1,"category":"hermes-women-bags","status":"active","alibaba_url":null,"images":["https://xcimg.szwego.com/img/9ee4266d/20240722/i1721651650_4417_5.jpg","https://xcimg.szwego.com/img/9ee4266d/20240722/i1721651650_4166_6.jpg","https://xcimg.szwego.com/img/9ee4266d/20240722/i1721651650_2593_2.jpg","https://xcimg.szwego.com/img/9ee4266d/20240722/i1721651650_5178_0.jpg","https://xcimg.szwego.com/img/9ee4266d/20240722/i1721651650_6021_1.jpg","https://xcimg.szwego.com/img/9ee4266d/20240722/i1721651650_321_3.jpg","https://xcimg.szwego.com/img/9ee4266d/20240722/i1721651650_6662_4.jpg"],"created_at":"2024-10-22T04:43:02.161Z"}],"page":6,"pageSize":24,"total":439,"totalPages":19}
