{"items":[{"id":"item-527170864e1e","sku":"_dkIkISe3y8qWDGj4YHXmPicuCHF4rhrTi97IAjA","name_en":"Hermes Women Bags","name_cn":"真正的原厂货,正品级品质,我们确保所有材料,五金,车线,油边都达到正品百分百的原材料\n\nHermes 爱马仕 Birkin25cm 黑色银扣\nBirkin 独家渠道货 独家欧洲原厂皮原厂五金组装的ZP尾单货\n尺寸:20 X 25 X 13CM\n\nBirkin我们采用的是进口原厂Togo真皮,什么是Togo皮呢?\n\nTogo皮:最经典的Birkin用皮。表面是均匀的颗粒状,类似荔枝纹,有光泽。皮质较硬,容易保持包包的形状,相对较轻,触感比较柔软,耐磨耐用;\n\n我们用的是纯原、原厂皮就是和原版专柜一样的皮!","specs":{"source":"wsxcme","sourceId":"_dkIkISe3y8qWDGj4YHXmPicuCHF4rhrTi97IAjA","sourceTagId":76963559,"sourceTagName":"爱马仕/女包","dimensions":{"lengthCm":20,"heightCm":25,"widthCm":13},"rawTitle":"真正的原厂货,正品级品质,我们确保所有材料,五金,车线,油边都达到正品百分百的原材料\n\nHermes 爱马仕 Birkin25cm 黑色银扣\nBirkin 独家渠道货 独家欧洲原厂皮原厂五金组装的ZP尾单货\n尺寸:20 X 25 X 13CM\n\nBirkin我们采用的是进口原厂Togo真皮,什么是Togo皮呢?\n\nTogo皮:最经典的Birkin用皮。表面是均匀的颗粒状,类似荔枝纹,有光泽。皮质较硬,容易保持包包的形状,相对较轻,触感比较柔软,耐磨耐用;\n\n我们用的是纯原、原厂皮就是和原版专柜一样的皮!"},"price":null,"currency":"CNY","moq":1,"category":"hermes-women-bags","status":"active","alibaba_url":null,"images":["https://xcimg.szwego.com/20230515/i1684133308_9696_0.jpg","https://xcimg.szwego.com/20230515/i1684133308_9624_1.jpg","https://xcimg.szwego.com/20230515/i1684133308_4448_2.jpg","https://xcimg.szwego.com/20230515/i1684133308_8087_3.jpg","https://xcimg.szwego.com/20230515/i1684133308_178_4.jpg","https://xcimg.szwego.com/20230515/i1684133308_2857_5.jpg","https://xcimg.szwego.com/20230515/i1684133308_2702_6.jpg","https://xcimg.szwego.com/20230515/i1684133308_4301_7.jpg","https://xcimg.szwego.com/20230515/i1684133308_2715_8.jpg"],"created_at":"2025-01-20T12:29:05.612Z"},{"id":"item-4e3adc05e784","sku":"_ds0s0ZORom7jtpKcITQVkBT4xC-naIGHLYI0m7A","name_en":"Hermes Women Bags","name_cn":"夏天必入款 \nMini 花园包帆布 23x16x10","specs":{"source":"wsxcme","sourceId":"_ds0s0ZORom7jtpKcITQVkBT4xC-naIGHLYI0m7A","sourceTagId":76963559,"sourceTagName":"爱马仕/女包","rawTitle":"夏天必入款 \nMini 花园包帆布 23x16x10"},"price":null,"currency":"CNY","moq":1,"category":"hermes-women-bags","status":"active","alibaba_url":null,"images":["https://xcimg.szwego.com/img/c98920cd/20260411/i1775897992727_4142_0_0.jpg","https://xcimg.szwego.com/img/c98920cd/20260411/i1775897992772_7064_0_2.jpg","https://xcimg.szwego.com/img/c98920cd/20260411/i1775897991184_5133_0_3.jpg","https://xcimg.szwego.com/img/c98920cd/20260411/i1775897991205_4734_0_4.jpg","https://xcimg.szwego.com/img/c98920cd/20260411/i1775897992781_73_0_5.jpg","https://xcimg.szwego.com/img/c98920cd/20260411/i1775897991193_1429_0_6.jpg","https://xcimg.szwego.com/img/c98920cd/20260411/i1775897992071_5794_0_7.jpg","https://xcimg.szwego.com/img/c98920cd/20260411/i1775897992097_4264_0_8.jpg"],"created_at":"2026-06-29T12:59:36.014Z"},{"id":"item-466ff60de9ba","sku":"_depepIMOkwASfYntph7hS3txam8lA_zXSpch8_g","name_en":"Hermes Women Bags","name_cn":"夏天必入款 \nMini 花园包帆布 23x16x10","specs":{"source":"wsxcme","sourceId":"_depepIMOkwASfYntph7hS3txam8lA_zXSpch8_g","sourceTagId":76963559,"sourceTagName":"爱马仕/女包","rawTitle":"夏天必入款 \nMini 花园包帆布 23x16x10"},"price":null,"currency":"CNY","moq":1,"category":"hermes-women-bags","status":"active","alibaba_url":null,"images":["https://xcimg.szwego.com/img/c98920cd/20260411/i1775898416949_1184_0_0.jpg","https://xcimg.szwego.com/img/c98920cd/20260411/i1775898417750_5929_0_2.jpg","https://xcimg.szwego.com/img/c98920cd/20260411/i1775898418338_2977_0_3.jpg","https://xcimg.szwego.com/img/c98920cd/20260411/i1775898417800_8569_0_4.jpg","https://xcimg.szwego.com/img/c98920cd/20260411/i1775898416987_9677_0_5.jpg","https://xcimg.szwego.com/img/c98920cd/20260411/i1775898418258_3245_0_6.jpg","https://xcimg.szwego.com/img/c98920cd/20260411/i1775898416972_116_0_7.jpg","https://xcimg.szwego.com/img/c98920cd/20260411/i1775898106932_4973_0_7.jpg"],"created_at":"2026-06-29T12:59:36.064Z"},{"id":"item-406f119f8eda","sku":"_dvnvn9vNU1OHQ3ieTL6XcQZv8qlNf5FKTrGS8ew","name_en":"Hermes Women Bags","name_cn":"新款腋下包来咯 \nKelly家族又添加了新成员光看网图就被种草得不行拿到实物的第一眼\n感觉特别像放大版的Kellyto go Kellyelan和Kelly28底部差不多长\n包的厚度和二代差不多容量特别棒\n肩带是可拆卸的但不可调节长度\n不过任何身高驾驭都没有问题拆下肩带又变成了一只手拿包有点Kellycut的感觉很有气场\n总而言之颜值和实用性双双在线还是很推荐大家入手的\n27.5✕15✕5","specs":{"source":"wsxcme","sourceId":"_dvnvn9vNU1OHQ3ieTL6XcQZv8qlNf5FKTrGS8ew","sourceTagId":76963559,"sourceTagName":"爱马仕/女包","rawTitle":"新款腋下包来咯 \nKelly家族又添加了新成员光看网图就被种草得不行拿到实物的第一眼\n感觉特别像放大版的Kellyto go Kellyelan和Kelly28底部差不多长\n包的厚度和二代差不多容量特别棒\n肩带是可拆卸的但不可调节长度\n不过任何身高驾驭都没有问题拆下肩带又变成了一只手拿包有点Kellycut的感觉很有气场\n总而言之颜值和实用性双双在线还是很推荐大家入手的\n27.5✕15✕5"},"price":null,"currency":"CNY","moq":1,"category":"hermes-women-bags","status":"active","alibaba_url":null,"images":["https://xcimg.szwego.com/20230716/a1689486327460_2355.jpg","https://xcimg.szwego.com/20230716/a1689486327462_2536.jpg","https://xcimg.szwego.com/20230716/a1689486327463_0103.jpg","https://xcimg.szwego.com/20230716/a1689486327548_4310.jpg","https://xcimg.szwego.com/20230716/a1689486327549_5683.jpg","https://xcimg.szwego.com/20230716/a1689486327550_3665.jpg"],"created_at":"2024-10-22T04:49:50.810Z"},{"id":"item-359c6b24b30c","sku":"_dfafa8Dw1NF1Vl0yu2OuQx2AM_3vDWPePxPaYaQ","name_en":"Hermes Women Bags","name_cn":"😘\n新款 kelly elan,时尚的轮回,可以当腋下包和手拿包,真的把一代替代了\n简直不要太美\n拼手速啦,宝宝们","specs":{"source":"wsxcme","sourceId":"_dfafa8Dw1NF1Vl0yu2OuQx2AM_3vDWPePxPaYaQ","sourceTagId":76963559,"sourceTagName":"爱马仕/女包","rawTitle":"😘\n新款 kelly elan,时尚的轮回,可以当腋下包和手拿包,真的把一代替代了\n简直不要太美\n拼手速啦,宝宝们"},"price":null,"currency":"CNY","moq":1,"category":"hermes-women-bags","status":"active","alibaba_url":null,"images":["https://xcimg.szwego.com/20230804/i1691139065_7763_0.jpg","https://xcimg.szwego.com/20230804/i1691139065_9643_1.jpg","https://xcimg.szwego.com/20230804/i1691139065_2078_2.jpg","https://xcimg.szwego.com/20230804/i1691139065_2742_3.jpg","https://xcimg.szwego.com/20230804/i1691139065_8198_4.jpg","https://xcimg.szwego.com/20230804/i1691139065_8347_5.jpg"],"created_at":"2024-10-22T04:49:50.796Z"},{"id":"item-302e6ac988a2","sku":"_dm7m709i_eWqt7qV08DBOwBhnhP7lzU5viHl1vg","name_en":"Hermes Women Bags","name_cn":"😘\n新款 kelly elan,时尚的轮回,可以当腋下包和手拿包,真的把一代替代了\n简直不要太美\n拼手速啦,宝宝们","specs":{"source":"wsxcme","sourceId":"_dm7m709i_eWqt7qV08DBOwBhnhP7lzU5viHl1vg","sourceTagId":76963559,"sourceTagName":"爱马仕/女包","rawTitle":"😘\n新款 kelly elan,时尚的轮回,可以当腋下包和手拿包,真的把一代替代了\n简直不要太美\n拼手速啦,宝宝们"},"price":null,"currency":"CNY","moq":1,"category":"hermes-women-bags","status":"active","alibaba_url":null,"images":["https://xcimg.szwego.com/20230804/i1691138587_6721_0.jpg","https://xcimg.szwego.com/20230804/i1691138587_6937_1.jpg","https://xcimg.szwego.com/20230804/i1691138587_6090_2.jpg","https://xcimg.szwego.com/20230804/i1691138587_6486_3.jpg","https://xcimg.szwego.com/20230804/i1691138587_8423_4.jpg","https://xcimg.szwego.com/20230804/i1691138587_1036_5.jpg","https://xcimg.szwego.com/20230804/i1691138587_3013_6.jpg","https://xcimg.szwego.com/20230804/i1691138587_2920_7.jpg","https://xcimg.szwego.com/20230804/i1691138587_1119_8.jpg"],"created_at":"2024-10-22T04:49:50.794Z"},{"id":"item-269b7c24a9a0","sku":"_doToTJTC0DX_nNkcM_6ZK7kAXEeY-_j_566VgEg","name_en":"Hermes Women Bags","name_cn":"😘\n新款 kelly elan,时尚的轮回,可以当腋下包和手拿包,真的把一代替代了\n简直不要太美\n拼手速啦,宝宝们","specs":{"source":"wsxcme","sourceId":"_doToTJTC0DX_nNkcM_6ZK7kAXEeY-_j_566VgEg","sourceTagId":76963559,"sourceTagName":"爱马仕/女包","rawTitle":"😘\n新款 kelly elan,时尚的轮回,可以当腋下包和手拿包,真的把一代替代了\n简直不要太美\n拼手速啦,宝宝们"},"price":null,"currency":"CNY","moq":1,"category":"hermes-women-bags","status":"active","alibaba_url":null,"images":["https://xcimg.szwego.com/20230804/i1691138356_5071_0.jpg","https://xcimg.szwego.com/20230804/i1691138356_9505_1.jpg","https://xcimg.szwego.com/20230804/i1691138356_8079_2.jpg","https://xcimg.szwego.com/20230804/i1691138356_8326_3.jpg","https://xcimg.szwego.com/20230804/i1691138356_7584_4.jpg","https://xcimg.szwego.com/20230804/i1691138356_267_5.jpg","https://xcimg.szwego.com/20230804/i1691138356_1211_6.jpg","https://xcimg.szwego.com/20230804/i1691138356_2759_7.jpg","https://xcimg.szwego.com/20230804/i1691138356_9729_8.jpg"],"created_at":"2024-10-22T04:49:50.792Z"},{"id":"item-1262e524c1ca","sku":"_dj0j0fSAMqwMH-mSoSVtmkuLJ1F4V7-iyi-qGUw","name_en":"Hermes Women Bags","name_cn":"真正的原厂货,正品级品质,我们确保所有材料,五金,车线,油边都达到正品百分百的原材料\n\nHermes 爱马仕 Birkin25cm 黑色银扣\nBirkin 独家渠道货 独家欧洲原厂皮原厂五金组装的ZP尾单货\n尺寸:20 X 25 X 13CM\n\nBirkin我们采用的是进口原厂Togo真皮,什么是Togo皮呢?\n\nTogo皮:最经典的Birkin用皮。表面是均匀的颗粒状,类似荔枝纹,有光泽。皮质较硬,容易保持包包的形状,相对较轻,触感比较柔软,耐磨耐用;\n\n我们用的是纯原、原厂皮就是和原版专柜一样的皮!","specs":{"source":"wsxcme","sourceId":"_dj0j0fSAMqwMH-mSoSVtmkuLJ1F4V7-iyi-qGUw","sourceTagId":76963559,"sourceTagName":"爱马仕/女包","dimensions":{"lengthCm":20,"heightCm":25,"widthCm":13},"rawTitle":"真正的原厂货,正品级品质,我们确保所有材料,五金,车线,油边都达到正品百分百的原材料\n\nHermes 爱马仕 Birkin25cm 黑色银扣\nBirkin 独家渠道货 独家欧洲原厂皮原厂五金组装的ZP尾单货\n尺寸:20 X 25 X 13CM\n\nBirkin我们采用的是进口原厂Togo真皮,什么是Togo皮呢?\n\nTogo皮:最经典的Birkin用皮。表面是均匀的颗粒状,类似荔枝纹,有光泽。皮质较硬,容易保持包包的形状,相对较轻,触感比较柔软,耐磨耐用;\n\n我们用的是纯原、原厂皮就是和原版专柜一样的皮!"},"price":null,"currency":"CNY","moq":1,"category":"hermes-women-bags","status":"active","alibaba_url":null,"images":["https://xcimg.szwego.com/20230515/i1684133308_9696_0.jpg","https://xcimg.szwego.com/20230515/i1684133308_9624_1.jpg","https://xcimg.szwego.com/20230515/i1684133308_4448_2.jpg","https://xcimg.szwego.com/20230515/i1684133308_8087_3.jpg","https://xcimg.szwego.com/20230515/i1684133308_178_4.jpg","https://xcimg.szwego.com/20230515/i1684133308_2857_5.jpg","https://xcimg.szwego.com/20230515/i1684133308_2702_6.jpg","https://xcimg.szwego.com/20230515/i1684133308_4301_7.jpg","https://xcimg.szwego.com/20230515/i1684133308_2715_8.jpg"],"created_at":"2024-10-21T06:42:26.543Z"},{"id":"item-11274fecf541","sku":"_d6i6iasdHOu3j1aqQqhyFo6bFjLmYC9UACZAZMw","name_en":"Hermes Women Bags","name_cn":"夏天必入款 \nMini 花园包帆布 23x16x10","specs":{"source":"wsxcme","sourceId":"_d6i6iasdHOu3j1aqQqhyFo6bFjLmYC9UACZAZMw","sourceTagId":76963559,"sourceTagName":"爱马仕/女包","rawTitle":"夏天必入款 \nMini 花园包帆布 23x16x10"},"price":null,"currency":"CNY","moq":1,"category":"hermes-women-bags","status":"active","alibaba_url":null,"images":["https://xcimg.szwego.com/img/c98920cd/20260411/i1775897868055_5436_0_0.jpg","https://xcimg.szwego.com/img/c98920cd/20260411/i1775897868172_6267_0_2.jpg","https://xcimg.szwego.com/img/c98920cd/20260411/i1775897870008_7138_0_3.jpg","https://xcimg.szwego.com/img/c98920cd/20260411/i1775897869137_7936_0_4.jpg","https://xcimg.szwego.com/img/c98920cd/20260411/i1775897869949_7700_0_5.jpg","https://xcimg.szwego.com/img/c98920cd/20260411/i1775897869052_2808_0_6.jpg","https://xcimg.szwego.com/img/c98920cd/20260411/i1775897868058_1688_0_7.jpg","https://xcimg.szwego.com/img/c98920cd/20260411/i1775897869895_2738_0_8.jpg"],"created_at":"2026-06-29T12:59:36.044Z"},{"id":"item-35aa30503fd8","sku":"_drjrjlUn127k27MhpfuMsn6HMVvW6D78d1IOx5A","name_en":"Hermès(爱马仕) Constance","name_cn":"Hermès(爱马仕) Constance\n属于H家入手较困难也是最难买到的包袋 \n实拍19CM 金扣 丝绒绿 Epsom\n现货 19Cm \n现货 23Cm","specs":{"source":"wsxcme","sourceId":"_drjrjlUn127k27MhpfuMsn6HMVvW6D78d1IOx5A","sourceTagId":76963559,"sourceTagName":"爱马仕/女包","rawTitle":"Hermès(爱马仕) Constance\n属于H家入手较困难也是最难买到的包袋 \n实拍19CM 金扣 丝绒绿 Epsom\n现货 19Cm \n现货 23Cm"},"price":null,"currency":"CNY","moq":1,"category":"hermes-women-bags","status":"active","alibaba_url":null,"images":["https://xcimg.szwego.com/20200419/i1587277261_5664_0.jpg","https://xcimg.szwego.com/20200419/i1587277261_7897_1.jpg","https://xcimg.szwego.com/20200419/i1587277261_8484_2.jpg","https://xcimg.szwego.com/20200419/i1587277261_2437_3.jpg","https://xcimg.szwego.com/20200419/i1587277261_7665_4.jpg","https://xcimg.szwego.com/20200419/i1587277261_8153_7.jpg","https://xcimg.szwego.com/20200419/i1587277261_4084_5.jpg","https://xcimg.szwego.com/20200419/i1587277261_6218_8.jpg"],"created_at":"2025-01-20T12:29:05.618Z"},{"id":"item-b1582d63f712","sku":"_d1414JmranxbHZcGOiIwdKpLHfw1MatWhRBX1vw","name_en":"Kelly 25 亮面鳄鱼🐊 全手工","name_cn":"Kelly 25 亮面鳄鱼🐊 全手工","specs":{"source":"wsxcme","sourceId":"_d1414JmranxbHZcGOiIwdKpLHfw1MatWhRBX1vw","sourceTagId":76963559,"sourceTagName":"爱马仕/女包","rawTitle":"Kelly 25 亮面鳄鱼🐊 全手工"},"price":null,"currency":"CNY","moq":1,"category":"hermes-women-bags","status":"active","alibaba_url":null,"images":["https://xcimg.szwego.com/img/9ee4266d/20240719/i1721382798_4856_0.jpg","https://xcimg.szwego.com/img/9ee4266d/20240719/i1721382799_2870_6.jpg","https://xcimg.szwego.com/img/9ee4266d/20240719/i1721382798_3318_2.jpg","https://xcimg.szwego.com/img/9ee4266d/20240719/i1721382799_3356_3.jpg","https://xcimg.szwego.com/img/9ee4266d/20240719/i1721382799_4146_4.jpg","https://xcimg.szwego.com/img/9ee4266d/20240719/i1721382798_1318_1.jpg","https://xcimg.szwego.com/img/9ee4266d/20240719/i1721382799_1653_5.jpg"],"created_at":"2024-10-22T04:43:02.179Z"},{"id":"item-8b948f836c73","sku":"_d-h-hIwAP090oQLZ3XUYAw3WNx4PO7MqOFe0qfw","name_en":"Kelly 25 亮面鳄鱼🐊 全手工","name_cn":"Kelly 25 亮面鳄鱼🐊 全手工","specs":{"source":"wsxcme","sourceId":"_d-h-hIwAP090oQLZ3XUYAw3WNx4PO7MqOFe0qfw","sourceTagId":76963559,"sourceTagName":"爱马仕/女包","rawTitle":"Kelly 25 亮面鳄鱼🐊 全手工"},"price":null,"currency":"CNY","moq":1,"category":"hermes-women-bags","status":"active","alibaba_url":null,"images":["https://xcimg.szwego.com/img/9ee4266d/20240719/i1721382573_5166_0.jpg","https://xcimg.szwego.com/img/9ee4266d/20240719/i1721382573_9550_1.jpg","https://xcimg.szwego.com/img/9ee4266d/20240719/i1721382574_1253_2.jpg","https://xcimg.szwego.com/img/9ee4266d/20240719/i1721382574_835_3.jpg","https://xcimg.szwego.com/img/9ee4266d/20240719/i1721382574_7395_4.jpg","https://xcimg.szwego.com/img/9ee4266d/20240719/i1721382574_5806_6.jpg","https://xcimg.szwego.com/img/9ee4266d/20240719/i1721382574_550_5.jpg"],"created_at":"2024-10-22T04:43:02.178Z"},{"id":"item-8442b5b51e1a","sku":"_d1s1sf75vvyi0ZOzHdOa7zekOYAvkdjILG9irwA","name_en":"Kelly 25 亮面鳄鱼🐊 全手工","name_cn":"Kelly 25 亮面鳄鱼🐊 全手工","specs":{"source":"wsxcme","sourceId":"_d1s1sf75vvyi0ZOzHdOa7zekOYAvkdjILG9irwA","sourceTagId":76963559,"sourceTagName":"爱马仕/女包","rawTitle":"Kelly 25 亮面鳄鱼🐊 全手工"},"price":null,"currency":"CNY","moq":1,"category":"hermes-women-bags","status":"active","alibaba_url":null,"images":["https://xcimg.szwego.com/img/9ee4266d/20240719/i1721382826_2957_3.jpg","https://xcimg.szwego.com/img/9ee4266d/20240719/i1721382826_1394_2.jpg","https://xcimg.szwego.com/img/9ee4266d/20240719/i1721382826_4650_1.jpg","https://xcimg.szwego.com/img/9ee4266d/20240719/i1721382826_2616_7.jpg","https://xcimg.szwego.com/img/9ee4266d/20240719/i1721382826_6537_4.jpg","https://xcimg.szwego.com/img/9ee4266d/20240719/i1721382826_2056_6.jpg","https://xcimg.szwego.com/img/9ee4266d/20240719/i1721382826_3283_5.jpg","https://xcimg.szwego.com/img/9ee4266d/20240719/i1721382826_3004_0.jpg"],"created_at":"2024-10-22T04:43:02.180Z"},{"id":"item-12e68d2a4ee0","sku":"_dasasctIcCnoB4lwZfQmJPQW1FxyOQaJrtAfdFA","name_en":"Kelly 25/28cm 经典款 Epsom皮 大象灰 金银扣 现货","name_cn":"Kelly 25/28cm 经典款 Epsom皮 大象灰 金银扣 现货","specs":{"source":"wsxcme","sourceId":"_dasasctIcCnoB4lwZfQmJPQW1FxyOQaJrtAfdFA","sourceTagId":76963559,"sourceTagName":"爱马仕/女包","rawTitle":"Kelly 25/28cm 经典款 Epsom皮 大象灰 金银扣 现货"},"price":null,"currency":"CNY","moq":1,"category":"hermes-women-bags","status":"active","alibaba_url":null,"images":["https://xcimg.szwego.com/img/223a3efd/20240527/a1716804857346_4566.jpg","https://xcimg.szwego.com/img/223a3efd/20240527/a1716804857282_6587.jpg","https://xcimg.szwego.com/img/223a3efd/20240527/a1716804857366_6357.jpg","https://xcimg.szwego.com/img/223a3efd/20240527/a1716804857409_3076.jpg","https://xcimg.szwego.com/img/223a3efd/20240527/a1716804857325_2635.jpg","https://xcimg.szwego.com/img/223a3efd/20240527/a1716804857393_4205.jpg","https://xcimg.szwego.com/img/223a3efd/20240527/a1716804858663_3286.jpg","https://xcimg.szwego.com/img/223a3efd/20240527/a1716804858780_4764.jpg","https://xcimg.szwego.com/img/223a3efd/20240527/a1716804858650_4324.jpg"],"created_at":"2026-06-29T12:59:36.104Z"},{"id":"item-2737f8ab759e","sku":"_dREREfneoMzMdhxo4ChB_JnidFADMGgR77mm5Ag","name_en":"Kelly 25/28cm 经典款 Epsom皮 黑色 金银扣 现货","name_cn":"Kelly 25/28cm 经典款 Epsom皮 黑色 金银扣 现货","specs":{"source":"wsxcme","sourceId":"_dREREfneoMzMdhxo4ChB_JnidFADMGgR77mm5Ag","sourceTagId":76963559,"sourceTagName":"爱马仕/女包","rawTitle":"Kelly 25/28cm 经典款 Epsom皮 黑色 金银扣 现货"},"price":null,"currency":"CNY","moq":1,"category":"hermes-women-bags","status":"active","alibaba_url":null,"images":["https://xcimg.szwego.com/img/223a3efd/20240527/a1716805023854_3328.jpg","https://xcimg.szwego.com/img/223a3efd/20240527/a1716805023711_8811.jpg","https://xcimg.szwego.com/img/223a3efd/20240527/a1716805023758_0337.jpg","https://xcimg.szwego.com/img/223a3efd/20240527/a1716805023647_5272.jpg","https://xcimg.szwego.com/img/223a3efd/20240527/a1716805023651_7043.jpg","https://xcimg.szwego.com/img/223a3efd/20240527/a1716805023778_4078.jpg","https://xcimg.szwego.com/img/223a3efd/20240527/a1716805025092_1530.jpg","https://xcimg.szwego.com/img/223a3efd/20240527/a1716805025212_5458.jpg","https://xcimg.szwego.com/img/223a3efd/20240527/a1716805025093_2718.jpg"],"created_at":"2026-06-29T12:59:36.134Z"},{"id":"item-aa1c0e34dca5","sku":"_dcIcI7CogcOByF3OYYRZOxHeSthzEvAWntak-zg","name_en":"Kelly 25/28cm 经典款 Epsom皮 琥珀黄 金银扣 现货","name_cn":"Kelly 25/28cm 经典款 Epsom皮 琥珀黄 金银扣 现货","specs":{"source":"wsxcme","sourceId":"_dcIcI7CogcOByF3OYYRZOxHeSthzEvAWntak-zg","sourceTagId":76963559,"sourceTagName":"爱马仕/女包","rawTitle":"Kelly 25/28cm 经典款 Epsom皮 琥珀黄 金银扣 现货"},"price":null,"currency":"CNY","moq":1,"category":"hermes-women-bags","status":"active","alibaba_url":null,"images":["https://xcimg.szwego.com/img/223a3efd/20240527/a1716804802188_3741.jpg","https://xcimg.szwego.com/img/223a3efd/20240527/a1716804802258_2656.jpg","https://xcimg.szwego.com/img/223a3efd/20240527/a1716804802112_1630.jpg","https://xcimg.szwego.com/img/223a3efd/20240527/a1716804802111_6844.jpg","https://xcimg.szwego.com/img/223a3efd/20240527/a1716804802311_7866.jpg","https://xcimg.szwego.com/img/223a3efd/20240527/a1716804802120_4373.jpg","https://xcimg.szwego.com/img/223a3efd/20240527/a1716804804019_8830.jpg","https://xcimg.szwego.com/img/223a3efd/20240527/a1716804803994_5617.jpg"],"created_at":"2026-06-29T12:59:36.094Z"},{"id":"item-be94437bafa7","sku":"_dxuxu63jXN4IF3L_q_UzERH-axNnZLDrIElZDLg","name_en":"Kelly 25/28cm 经典款 Epsom皮 梦幻粉 金银扣 现货","name_cn":"Kelly 25/28cm 经典款 Epsom皮 梦幻粉 金银扣 现货","specs":{"source":"wsxcme","sourceId":"_dxuxu63jXN4IF3L_q_UzERH-axNnZLDrIElZDLg","sourceTagId":76963559,"sourceTagName":"爱马仕/女包","rawTitle":"Kelly 25/28cm 经典款 Epsom皮 梦幻粉 金银扣 现货"},"price":null,"currency":"CNY","moq":1,"category":"hermes-women-bags","status":"active","alibaba_url":null,"images":["https://xcimg.szwego.com/img/223a3efd/20240527/a1716804773252_4288.jpg","https://xcimg.szwego.com/img/223a3efd/20240527/a1716804773251_4868.jpg","https://xcimg.szwego.com/img/223a3efd/20240527/a1716804773311_1484.jpg","https://xcimg.szwego.com/img/223a3efd/20240527/a1716804773332_5775.jpg","https://xcimg.szwego.com/img/223a3efd/20240527/a1716804773387_2835.jpg","https://xcimg.szwego.com/img/223a3efd/20240527/a1716804773288_8501.jpg","https://xcimg.szwego.com/img/223a3efd/20240527/a1716804775132_8347.jpg","https://xcimg.szwego.com/img/223a3efd/20240527/a1716804775162_2111.jpg","https://xcimg.szwego.com/img/223a3efd/20240527/a1716804775056_5808.jpg"],"created_at":"2026-06-29T12:59:36.084Z"},{"id":"item-a99597f6b3e5","sku":"_dyHyHNaRnZJeMLLCks30QrSToPzWVwsrB-Lr-cA","name_en":"Kelly 25/28cm 经典款 Epsom皮 土黄 金银扣 现货","name_cn":"Kelly 25/28cm 经典款 Epsom皮 土黄 金银扣 现货","specs":{"source":"wsxcme","sourceId":"_dyHyHNaRnZJeMLLCks30QrSToPzWVwsrB-Lr-cA","sourceTagId":76963559,"sourceTagName":"爱马仕/女包","rawTitle":"Kelly 25/28cm 经典款 Epsom皮 土黄 金银扣 现货"},"price":null,"currency":"CNY","moq":1,"category":"hermes-women-bags","status":"active","alibaba_url":null,"images":["https://xcimg.szwego.com/img/223a3efd/20240527/a1716804334494_7132.jpg","https://xcimg.szwego.com/img/223a3efd/20240527/a1716804335921_5034.jpg","https://xcimg.szwego.com/img/223a3efd/20240527/a1716804335889_6748.jpg","https://xcimg.szwego.com/img/223a3efd/20240527/a1716804335848_3463.jpg","https://xcimg.szwego.com/img/223a3efd/20240527/a1716804334622_3380.jpg","https://xcimg.szwego.com/img/223a3efd/20240527/a1716804334684_4746.jpg","https://xcimg.szwego.com/img/223a3efd/20240527/a1716804334608_6024.jpg","https://xcimg.szwego.com/img/223a3efd/20240527/a1716804334545_1547.jpg"],"created_at":"2026-06-29T12:59:36.074Z"},{"id":"item-5f99cb901585","sku":"_dn2n2bWClW-3eGR5XH_6Z7UAasYRunQmuMiZ79Q","name_en":"Kelly 25/28cm 经典款 Epsom皮 锡器灰 金银扣 现货","name_cn":"Kelly 25/28cm 经典款 Epsom皮 锡器灰 金银扣 现货","specs":{"source":"wsxcme","sourceId":"_dn2n2bWClW-3eGR5XH_6Z7UAasYRunQmuMiZ79Q","sourceTagId":76963559,"sourceTagName":"爱马仕/女包","rawTitle":"Kelly 25/28cm 经典款 Epsom皮 锡器灰 金银扣 现货"},"price":null,"currency":"CNY","moq":1,"category":"hermes-women-bags","status":"active","alibaba_url":null,"images":["https://xcimg.szwego.com/img/223a3efd/20240527/a1716804932362_8261.jpg","https://xcimg.szwego.com/img/223a3efd/20240527/a1716804932395_5036.jpg","https://xcimg.szwego.com/img/223a3efd/20240527/a1716804932470_1062.jpg","https://xcimg.szwego.com/img/223a3efd/20240527/a1716804932495_3051.jpg","https://xcimg.szwego.com/img/223a3efd/20240527/a1716804932317_5268.jpg","https://xcimg.szwego.com/img/223a3efd/20240527/a1716804932363_0055.jpg","https://xcimg.szwego.com/img/223a3efd/20240527/a1716804933890_7726.jpg","https://xcimg.szwego.com/img/223a3efd/20240527/a1716804933890_6004.jpg","https://xcimg.szwego.com/img/223a3efd/20240527/a1716804933812_5364.jpg"],"created_at":"2026-06-29T12:59:36.114Z"},{"id":"item-7f98ae327953","sku":"_dcJcJ06Sz9exSQBCYzP8cN24kLbgrExQdels_fQ","name_en":"Kelly 25cm 经典款 Epsom皮 橙色 金银扣 现货","name_cn":"Kelly 25cm 经典款 Epsom皮 橙色 金银扣 现货","specs":{"source":"wsxcme","sourceId":"_dcJcJ06Sz9exSQBCYzP8cN24kLbgrExQdels_fQ","sourceTagId":76963559,"sourceTagName":"爱马仕/女包","rawTitle":"Kelly 25cm 经典款 Epsom皮 橙色 金银扣 现货"},"price":null,"currency":"CNY","moq":1,"category":"hermes-women-bags","status":"active","alibaba_url":null,"images":["https://xcimg.szwego.com/img/223a3efd/20240527/a1716804968593_6774.jpg","https://xcimg.szwego.com/img/223a3efd/20240527/a1716804968569_2558.jpg","https://xcimg.szwego.com/img/223a3efd/20240527/a1716804968721_3423.jpg","https://xcimg.szwego.com/img/223a3efd/20240527/a1716804968649_2087.jpg","https://xcimg.szwego.com/img/223a3efd/20240527/a1716804968548_2730.jpg","https://xcimg.szwego.com/img/223a3efd/20240527/a1716804968694_8317.jpg","https://xcimg.szwego.com/img/223a3efd/20240527/a1716804969747_7553.jpg","https://xcimg.szwego.com/img/223a3efd/20240527/a1716804969765_0016.jpg","https://xcimg.szwego.com/img/223a3efd/20240527/a1716804969712_3356.jpg"],"created_at":"2026-06-29T12:59:36.124Z"},{"id":"item-500ad93ccd10","sku":"_ds5s5eQzv8UVG5voHRTQHFaZNmKGuhyaLV7oNKw","name_en":"kelly Elan 山羊皮 27cm 18大象灰 金扣","name_cn":"kelly Elan 山羊皮 27cm 18大象灰 金扣 \nkelly 家族真正意义上的第一只腋下包,容量,厚度肩带长度 都挑不出任何毛病 日常使用率会很高的一只~ \n曼妙优雅的细长轮廓,小山羊皮搭配满满的复古腔调,收纳满分。肩带长度腋下背法非常nice!","specs":{"source":"wsxcme","sourceId":"_ds5s5eQzv8UVG5voHRTQHFaZNmKGuhyaLV7oNKw","sourceTagId":76963559,"sourceTagName":"爱马仕/女包","rawTitle":"kelly Elan 山羊皮 27cm 18大象灰 金扣 \nkelly 家族真正意义上的第一只腋下包,容量,厚度肩带长度 都挑不出任何毛病 日常使用率会很高的一只~ \n曼妙优雅的细长轮廓,小山羊皮搭配满满的复古腔调,收纳满分。肩带长度腋下背法非常nice!"},"price":null,"currency":"CNY","moq":1,"category":"hermes-women-bags","status":"active","alibaba_url":null,"images":["https://xcimg.szwego.com/20230802/i1690972149_7572_0.jpg","https://xcimg.szwego.com/20230802/i1690972149_4080_1.jpg","https://xcimg.szwego.com/20230802/i1690972149_215_2.jpg","https://xcimg.szwego.com/20230802/i1690972149_3414_3.jpg","https://xcimg.szwego.com/20230802/i1690972149_8565_6.jpg","https://xcimg.szwego.com/20230802/i1690972149_9028_4.jpg","https://xcimg.szwego.com/20230802/i1690972149_9257_5.jpg","https://xcimg.szwego.com/20230802/i1690972149_545_8.jpg","https://xcimg.szwego.com/20230802/i1690972149_2312_7.jpg"],"created_at":"2024-10-22T04:49:50.783Z"},{"id":"item-e73373ebb439","sku":"_d0v0vwOavX24MsGa9Se-Yo2nYs2GtmcBDAK8vCA","name_en":"kelly Elan 山羊皮 27cm 18大象灰 银扣","name_cn":"kelly Elan 山羊皮 27cm 18大象灰 银扣 \nkelly 家族真正意义上的第一只腋下包,容量,厚度肩带长度 都挑不出任何毛病 日常使用率会很高的一只~ \n曼妙优雅的细长轮廓,小山羊皮搭配满满的复古腔调,收纳满分。肩带长度腋下背法非常nice!","specs":{"source":"wsxcme","sourceId":"_d0v0vwOavX24MsGa9Se-Yo2nYs2GtmcBDAK8vCA","sourceTagId":76963559,"sourceTagName":"爱马仕/女包","rawTitle":"kelly Elan 山羊皮 27cm 18大象灰 银扣 \nkelly 家族真正意义上的第一只腋下包,容量,厚度肩带长度 都挑不出任何毛病 日常使用率会很高的一只~ \n曼妙优雅的细长轮廓,小山羊皮搭配满满的复古腔调,收纳满分。肩带长度腋下背法非常nice!"},"price":null,"currency":"CNY","moq":1,"category":"hermes-women-bags","status":"active","alibaba_url":null,"images":["https://xcimg.szwego.com/20230802/i1690970847_568_0.jpg","https://xcimg.szwego.com/20230802/i1690970847_4487_1.jpg","https://xcimg.szwego.com/20230802/i1690970847_7780_2.jpg","https://xcimg.szwego.com/20230802/i1690970847_7420_3.jpg","https://xcimg.szwego.com/20230802/i1690970847_7338_4.jpg","https://xcimg.szwego.com/20230802/i1690970847_58_5.jpg","https://xcimg.szwego.com/20230802/i1690970847_7663_7.jpg","https://xcimg.szwego.com/20230802/i1690970847_5306_6.jpg","https://xcimg.szwego.com/20230802/i1690970847_1017_8.jpg"],"created_at":"2024-10-22T04:49:50.782Z"},{"id":"item-1f2c24daf520","sku":"_dbQbQ4gKdUGn8WXM9Wu4RQwVMYp4tuq9grnNGQg","name_en":"kelly Elan 山羊皮 27cm 37金棕 金扣","name_cn":"kelly Elan 山羊皮 27cm 37金棕 金扣\nkelly 家族真正意义上的第一只腋下包,容量,厚度肩带长度 都挑不出任何毛病 日常使用率会很高的一只~ \n曼妙优雅的细长轮廓,小山羊皮搭配满满的复古腔调,收纳满分。肩带长度腋下背法非常nice!","specs":{"source":"wsxcme","sourceId":"_dbQbQ4gKdUGn8WXM9Wu4RQwVMYp4tuq9grnNGQg","sourceTagId":76963559,"sourceTagName":"爱马仕/女包","rawTitle":"kelly Elan 山羊皮 27cm 37金棕 金扣\nkelly 家族真正意义上的第一只腋下包,容量,厚度肩带长度 都挑不出任何毛病 日常使用率会很高的一只~ \n曼妙优雅的细长轮廓,小山羊皮搭配满满的复古腔调,收纳满分。肩带长度腋下背法非常nice!"},"price":null,"currency":"CNY","moq":1,"category":"hermes-women-bags","status":"active","alibaba_url":null,"images":["https://xcimg.szwego.com/20230716/i1689501669_976_0.jpg","https://xcimg.szwego.com/20230716/i1689501669_6940_1.jpg","https://xcimg.szwego.com/20230716/i1689501669_2328_2.jpg","https://xcimg.szwego.com/20230716/i1689501669_1805_3.jpg","https://xcimg.szwego.com/20230716/i1689501669_1544_5.jpg","https://xcimg.szwego.com/20230716/i1689501669_6122_6.jpg","https://xcimg.szwego.com/20230716/i1689501669_189_7.jpg","https://xcimg.szwego.com/20230716/i1689501669_2392_4.jpg","https://xcimg.szwego.com/20230716/i1689501669_8196_8.jpg"],"created_at":"2024-10-22T04:49:50.781Z"},{"id":"item-83e3205ecc13","sku":"_dL2L2bBvCaMx99WvhtfVJPpWWs-1E9aWQ0nZDgw","name_en":"kelly Elan 山羊皮 27cm 37金棕 银扣","name_cn":"kelly Elan 山羊皮 27cm 37金棕 银扣\nkelly 家族真正意义上的第一只腋下包,容量,厚度肩带长度 都挑不出任何毛病 日常使用率会很高的一只~ \n曼妙优雅的细长轮廓,小山羊皮搭配满满的复古腔调,收纳满分。肩带长度腋下背法非常nice!","specs":{"source":"wsxcme","sourceId":"_dL2L2bBvCaMx99WvhtfVJPpWWs-1E9aWQ0nZDgw","sourceTagId":76963559,"sourceTagName":"爱马仕/女包","rawTitle":"kelly Elan 山羊皮 27cm 37金棕 银扣\nkelly 家族真正意义上的第一只腋下包,容量,厚度肩带长度 都挑不出任何毛病 日常使用率会很高的一只~ \n曼妙优雅的细长轮廓,小山羊皮搭配满满的复古腔调,收纳满分。肩带长度腋下背法非常nice!"},"price":null,"currency":"CNY","moq":1,"category":"hermes-women-bags","status":"active","alibaba_url":null,"images":["https://xcimg.szwego.com/20230716/i1689500776_3703_0.jpg","https://xcimg.szwego.com/20230716/i1689500776_6272_1.jpg","https://xcimg.szwego.com/20230716/i1689500776_4833_2.jpg","https://xcimg.szwego.com/20230716/i1689500776_4877_3.jpg","https://xcimg.szwego.com/20230716/i1689500776_9077_5.jpg","https://xcimg.szwego.com/20230716/i1689500776_9015_4.jpg","https://xcimg.szwego.com/20230716/i1689500776_907_8.jpg","https://xcimg.szwego.com/20230716/i1689500776_5638_7.jpg","https://xcimg.szwego.com/20230716/i1689500776_7418_6.jpg"],"created_at":"2024-10-22T04:49:50.780Z"}],"page":15,"pageSize":24,"total":439,"totalPages":19}
