{"items":[{"id":"item-1bd5f30ab4e7","sku":"_duDuDhIqpA652L5Ugwr50nRMleF0VQ8xyfmDqJw","name_en":"kelly2424 mini 21cm Evercolor/swift 强烈种草 年轻复古气息,不仅貌美,而且各种背法都可以轻松hold住(手提、单肩、斜挎、双肩),双肩带背法超实用,内容量很足。精致优雅又随性,每一种背法都能呈现出不同的风格。","name_cn":"kelly2424 mini 21cm Evercolor/swift 强烈种草 年轻复古气息,不仅貌美,而且各种背法都可以轻松hold住(手提、单肩、斜挎、双肩),双肩带背法超实用,内容量很足。精致优雅又随性,每一种背法都能呈现出不同的风格。","specs":{"source":"wsxcme","sourceId":"_duDuDhIqpA652L5Ugwr50nRMleF0VQ8xyfmDqJw","sourceTagId":76963559,"sourceTagName":"爱马仕/女包","rawTitle":"kelly2424 mini 21cm Evercolor/swift 强烈种草 年轻复古气息,不仅貌美,而且各种背法都可以轻松hold住(手提、单肩、斜挎、双肩),双肩带背法超实用,内容量很足。精致优雅又随性,每一种背法都能呈现出不同的风格。"},"price":null,"currency":"CNY","moq":1,"category":"hermes-women-bags","status":"active","alibaba_url":null,"images":["https://xcimg.szwego.com/20220915/i1663221169_7303_0.jpg","https://xcimg.szwego.com/20220915/i1663221169_3168_1.jpg","https://xcimg.szwego.com/20220915/i1663221169_7990_2.jpg","https://xcimg.szwego.com/20220915/i1663221169_9539_3.jpg"],"created_at":"2024-10-22T04:49:50.762Z"},{"id":"item-10cbed5e5514","sku":"_dktkt9CVPd34aK6YIX0IeQSZ-1sknRtdD9kmQXg","name_en":"kelly2424 mini 21cm Evercolor/swift 强烈种草 年轻复古气息,不仅貌美,而且各种背法都可以轻松hold住(手提、单肩、斜挎、双肩),双肩带背法超实用,内容量很足。精致优雅又随性,每一种背法都能呈现出不同的风格。","name_cn":"kelly2424 mini 21cm Evercolor/swift 强烈种草 年轻复古气息,不仅貌美,而且各种背法都可以轻松hold住(手提、单肩、斜挎、双肩),双肩带背法超实用,内容量很足。精致优雅又随性,每一种背法都能呈现出不同的风格。","specs":{"source":"wsxcme","sourceId":"_dktkt9CVPd34aK6YIX0IeQSZ-1sknRtdD9kmQXg","sourceTagId":76963559,"sourceTagName":"爱马仕/女包","rawTitle":"kelly2424 mini 21cm Evercolor/swift 强烈种草 年轻复古气息,不仅貌美,而且各种背法都可以轻松hold住(手提、单肩、斜挎、双肩),双肩带背法超实用,内容量很足。精致优雅又随性,每一种背法都能呈现出不同的风格。"},"price":null,"currency":"CNY","moq":1,"category":"hermes-women-bags","status":"active","alibaba_url":null,"images":["https://xcimg.szwego.com/20220915/i1663221261_3229_0.jpg","https://xcimg.szwego.com/20220915/i1663221261_711_1.jpg","https://xcimg.szwego.com/20220915/i1663221261_7090_2.jpg","https://xcimg.szwego.com/20220915/i1663221261_7052_3.jpg","https://xcimg.szwego.com/20220915/i1663221261_5764_4.jpg"],"created_at":"2024-10-22T04:49:50.763Z"},{"id":"item-0c6b17624ca5","sku":"_dD6D68do9HLrumOMo7JB7D71j8fohdbAFWtA34g","name_en":"kelly2424 mini 21cm Evercolor/swift 强烈种草 年轻复古气息,不仅貌美,而且各种背法都可以轻松hold住(手提、单肩、斜挎、双肩),双肩带背法超实用,内容量很足。精致优雅又随性,每一种背法都能呈现出不同的风格。","name_cn":"kelly2424 mini 21cm Evercolor/swift 强烈种草 年轻复古气息,不仅貌美,而且各种背法都可以轻松hold住(手提、单肩、斜挎、双肩),双肩带背法超实用,内容量很足。精致优雅又随性,每一种背法都能呈现出不同的风格。","specs":{"source":"wsxcme","sourceId":"_dD6D68do9HLrumOMo7JB7D71j8fohdbAFWtA34g","sourceTagId":76963559,"sourceTagName":"爱马仕/女包","rawTitle":"kelly2424 mini 21cm Evercolor/swift 强烈种草 年轻复古气息,不仅貌美,而且各种背法都可以轻松hold住(手提、单肩、斜挎、双肩),双肩带背法超实用,内容量很足。精致优雅又随性,每一种背法都能呈现出不同的风格。"},"price":null,"currency":"CNY","moq":1,"category":"hermes-women-bags","status":"active","alibaba_url":null,"images":["https://xcimg.szwego.com/20220915/i1663220839_9410_0.jpg","https://xcimg.szwego.com/20220915/i1663220839_4966_1.jpg","https://xcimg.szwego.com/20220915/i1663220839_9872_2.jpg","https://xcimg.szwego.com/20220915/i1663220839_1398_3.jpg"],"created_at":"2024-10-22T04:49:50.757Z"},{"id":"item-716c12c5fe21","sku":"_dISIS57HJgWpSTc5sgtEf8KN-nResdiyb24g-1A","name_en":"KK19美洲鳄黑金","name_cn":"KK19美洲鳄黑金\n美洲鳄鱼皮康康19cm\n全手缝蜡线 全钢五金  内里绵羊皮","specs":{"source":"wsxcme","sourceId":"_dISIS57HJgWpSTc5sgtEf8KN-nResdiyb24g-1A","sourceTagId":76963559,"sourceTagName":"爱马仕/女包","rawTitle":"KK19美洲鳄黑金\n美洲鳄鱼皮康康19cm\n全手缝蜡线 全钢五金  内里绵羊皮"},"price":null,"currency":"CNY","moq":1,"category":"hermes-women-bags","status":"active","alibaba_url":null,"images":["https://xcimg.szwego.com/img/9ee4266d/20240829/i1724922070_800_4.jpg","https://xcimg.szwego.com/img/9ee4266d/20240829/i1724922070_2204_6.jpg","https://xcimg.szwego.com/img/9ee4266d/20240829/i1724922070_1704_3.jpg","https://xcimg.szwego.com/img/9ee4266d/20240829/i1724922070_4139_1.jpg","https://xcimg.szwego.com/img/9ee4266d/20240829/i1724922070_6933_7.jpg","https://xcimg.szwego.com/img/9ee4266d/20240829/i1724922070_4278_8.jpg","https://xcimg.szwego.com/img/9ee4266d/20240829/i1724922070_5011_5.jpg","https://xcimg.szwego.com/img/9ee4266d/20240829/i1724922069_8155_0.jpg","https://xcimg.szwego.com/img/9ee4266d/20240829/i1724922081_7376_0.jpg"],"created_at":"2024-10-22T04:49:50.819Z"},{"id":"item-b1c2922ab83a","sku":"_diZiZIKBy6MH6U__rk4he8x6ajRhKtpKV0xSwpA","name_en":"KK19美洲鳄黑银","name_cn":"KK19美洲鳄黑银\n美洲鳄鱼皮康康19cm\n全手缝蜡线 全钢五金  内里绵羊皮","specs":{"source":"wsxcme","sourceId":"_diZiZIKBy6MH6U__rk4he8x6ajRhKtpKV0xSwpA","sourceTagId":76963559,"sourceTagName":"爱马仕/女包","rawTitle":"KK19美洲鳄黑银\n美洲鳄鱼皮康康19cm\n全手缝蜡线 全钢五金  内里绵羊皮"},"price":null,"currency":"CNY","moq":1,"category":"hermes-women-bags","status":"active","alibaba_url":null,"images":["https://xcimg.szwego.com/img/9ee4266d/20240829/i1724922023_7327_1.jpg","https://xcimg.szwego.com/img/9ee4266d/20240829/i1724922023_4956_8.jpg","https://xcimg.szwego.com/img/9ee4266d/20240829/i1724922023_9095_4.jpg","https://xcimg.szwego.com/img/9ee4266d/20240829/i1724922023_1448_6.jpg","https://xcimg.szwego.com/img/9ee4266d/20240829/i1724922023_6334_3.jpg","https://xcimg.szwego.com/img/9ee4266d/20240829/i1724922023_8496_0.jpg","https://xcimg.szwego.com/img/9ee4266d/20240829/i1724922023_926_2.jpg","https://xcimg.szwego.com/img/9ee4266d/20240829/i1724922023_7887_5.jpg","https://xcimg.szwego.com/img/9ee4266d/20240829/i1724922023_1733_7.jpg"],"created_at":"2024-10-22T04:49:50.818Z"},{"id":"item-e14d51a9f8bb","sku":"_dChChSVK1TwlZAwOZFKKkeZVgV6YMp5Wreu-MWQ","name_en":"kl25 colormatic","name_cn":"kl25 colormatic\n传统的kl背太多啦❗️需要给穿搭上添点新的花样了🤔️别小看它咯!背面还有一个小侧袋,小包包里有大乾坤☯️,放passport,美容卡,小卡包也是不错的呢😝","specs":{"source":"wsxcme","sourceId":"_dChChSVK1TwlZAwOZFKKkeZVgV6YMp5Wreu-MWQ","sourceTagId":76963559,"sourceTagName":"爱马仕/女包","rawTitle":"kl25 colormatic\n传统的kl背太多啦❗️需要给穿搭上添点新的花样了🤔️别小看它咯!背面还有一个小侧袋,小包包里有大乾坤☯️,放passport,美容卡,小卡包也是不错的呢😝"},"price":null,"currency":"CNY","moq":1,"category":"hermes-women-bags","status":"active","alibaba_url":null,"images":["https://xcimg.szwego.com/20220914/a1663165049465_5730.jpg","https://xcimg.szwego.com/20220914/a1663165049477_0847.jpg","https://xcimg.szwego.com/20220914/a1663165049554_7430.jpg","https://xcimg.szwego.com/20220914/a1663165049598_8678.jpg","https://xcimg.szwego.com/20220914/a1663165049603_2780.jpg","https://xcimg.szwego.com/20220914/a1663165049644_2587.jpg"],"created_at":"2024-10-22T05:00:12.207Z"},{"id":"item-7b278f1901e8","sku":"_dnpnpljaHJpnPI56KFBaLgh3wTRUKqMh_EPHKCA","name_en":"kl25 colormatic","name_cn":"kl25 colormatic\n传统的kl背太多啦❗️需要给穿搭上添点新的花样了🤔️别小看它咯!背面还有一个小侧袋,小包包里有大乾坤☯️,放passport,美容卡,小卡包也是不错的呢😝","specs":{"source":"wsxcme","sourceId":"_dnpnpljaHJpnPI56KFBaLgh3wTRUKqMh_EPHKCA","sourceTagId":76963559,"sourceTagName":"爱马仕/女包","rawTitle":"kl25 colormatic\n传统的kl背太多啦❗️需要给穿搭上添点新的花样了🤔️别小看它咯!背面还有一个小侧袋,小包包里有大乾坤☯️,放passport,美容卡,小卡包也是不错的呢😝"},"price":null,"currency":"CNY","moq":1,"category":"hermes-women-bags","status":"active","alibaba_url":null,"images":["https://xcimg.szwego.com/20220914/a1663164972784_8776.jpg","https://xcimg.szwego.com/20220914/a1663164972796_8515.jpg","https://xcimg.szwego.com/20220914/a1663164972803_6084.jpg","https://xcimg.szwego.com/20220914/a1663164972815_8610.jpg","https://xcimg.szwego.com/20220914/a1663164972869_6712.jpg","https://xcimg.szwego.com/20220914/a1663164972936_0647.jpg"],"created_at":"2024-10-22T05:00:12.206Z"},{"id":"item-3aeefcb9c930","sku":"_dRfRfTA7u1dTOLwWc-FHzTMVc6FrBYdFAzW7C5w","name_en":"kl25 colormatic","name_cn":"kl25 colormatic\n传统的kl背太多啦❗️需要给穿搭上添点新的花样了🤔️别小看它咯!背面还有一个小侧袋,小包包里有大乾坤☯️,放passport,美容卡,小卡包也是不错的呢😝","specs":{"source":"wsxcme","sourceId":"_dRfRfTA7u1dTOLwWc-FHzTMVc6FrBYdFAzW7C5w","sourceTagId":76963559,"sourceTagName":"爱马仕/女包","rawTitle":"kl25 colormatic\n传统的kl背太多啦❗️需要给穿搭上添点新的花样了🤔️别小看它咯!背面还有一个小侧袋,小包包里有大乾坤☯️,放passport,美容卡,小卡包也是不错的呢😝"},"price":null,"currency":"CNY","moq":1,"category":"hermes-women-bags","status":"active","alibaba_url":null,"images":["https://xcimg.szwego.com/20220914/a1663165088842_0031.jpg","https://xcimg.szwego.com/20220914/a1663165088869_5524.jpg","https://xcimg.szwego.com/20220914/a1663165088886_4276.jpg","https://xcimg.szwego.com/20220914/a1663165088894_6212.jpg","https://xcimg.szwego.com/20220914/a1663165088900_6084.jpg","https://xcimg.szwego.com/20220914/a1663165088906_4070.jpg"],"created_at":"2024-10-22T05:00:12.208Z"},{"id":"item-f7af570df2a9","sku":"_dHMHMweOgXJtZ6PVpIlqkGIRQ_dlGdRpmMMBaog","name_en":"KL25 touch","name_cn":"KL25 touch\nhaas原厂epsom拼高光鳄鱼皮\n全手缝蜡线 全钢五金 内里原版山羊皮","specs":{"source":"wsxcme","sourceId":"_dHMHMweOgXJtZ6PVpIlqkGIRQ_dlGdRpmMMBaog","sourceTagId":76963559,"sourceTagName":"爱马仕/女包","rawTitle":"KL25 touch\nhaas原厂epsom拼高光鳄鱼皮\n全手缝蜡线 全钢五金 内里原版山羊皮"},"price":null,"currency":"CNY","moq":1,"category":"hermes-women-bags","status":"active","alibaba_url":null,"images":["https://xcimg.szwego.com/img/9ee4266d/20240808/i1723087531_9522_0.jpg","https://xcimg.szwego.com/img/9ee4266d/20240808/i1723087531_8291_0.jpg","https://xcimg.szwego.com/img/9ee4266d/20240808/i1723087531_8812_0.jpg","https://xcimg.szwego.com/img/9ee4266d/20240808/i1723087531_1455_0.jpg","https://xcimg.szwego.com/img/9ee4266d/20240808/i1723087531_5516_0.jpg","https://xcimg.szwego.com/img/9ee4266d/20240808/i1723087531_8945_0.jpg","https://xcimg.szwego.com/img/9ee4266d/20240808/i1723087531_9310_0.jpg","https://xcimg.szwego.com/img/9ee4266d/20240808/i1723087531_112_0.jpg","https://xcimg.szwego.com/img/9ee4266d/20240808/i1723087531_2455_0.jpg","https://xcimg.szwego.com/img/9ee4266d/20240808/i1723087531_7608_0.jpg","https://xcimg.szwego.com/img/9ee4266d/20240808/i1723087531_5514_0.jpg"],"created_at":"2024-10-22T04:49:50.826Z"},{"id":"item-de7e5a6d069f","sku":"_dbHbHTzoOnmmoPtCu3IuZxdyDq69zBsLPpObYeQ","name_en":"KL25 touch","name_cn":"KL25 touch\nhaas原厂epsom拼高光鳄鱼皮\n全手缝蜡线 全钢五金 内里原版山羊皮","specs":{"source":"wsxcme","sourceId":"_dbHbHTzoOnmmoPtCu3IuZxdyDq69zBsLPpObYeQ","sourceTagId":76963559,"sourceTagName":"爱马仕/女包","rawTitle":"KL25 touch\nhaas原厂epsom拼高光鳄鱼皮\n全手缝蜡线 全钢五金 内里原版山羊皮"},"price":null,"currency":"CNY","moq":1,"category":"hermes-women-bags","status":"active","alibaba_url":null,"images":["https://xcimg.szwego.com/img/9ee4266d/20240808/i1723087232_6272_0.jpg","https://xcimg.szwego.com/img/9ee4266d/20240808/i1723087232_8507_0.jpg","https://xcimg.szwego.com/img/9ee4266d/20240808/i1723087232_361_0.jpg","https://xcimg.szwego.com/img/9ee4266d/20240808/i1723087232_138_0.jpg","https://xcimg.szwego.com/img/9ee4266d/20240808/i1723087232_1657_0.jpg","https://xcimg.szwego.com/img/9ee4266d/20240808/i1723087232_4961_0.jpg","https://xcimg.szwego.com/img/9ee4266d/20240808/i1723087232_5846_0.jpg","https://xcimg.szwego.com/img/9ee4266d/20240808/i1723087232_1355_0.jpg","https://xcimg.szwego.com/img/9ee4266d/20240808/i1723087232_8395_0.jpg","https://xcimg.szwego.com/img/9ee4266d/20240808/i1723087232_7416_0.jpg","https://xcimg.szwego.com/img/9ee4266d/20240808/i1723087232_2431_0.jpg"],"created_at":"2024-10-22T04:49:50.821Z"},{"id":"item-de4bfe5688e1","sku":"_doPoPpR4oXrBTpT-ZgE4sUzRp7ADE2VapLpzBoQ","name_en":"KL25 touch","name_cn":"KL25 touch\nhaas原厂epsom拼高光鳄鱼皮\n全手缝蜡线 全钢五金 内里原版山羊皮","specs":{"source":"wsxcme","sourceId":"_doPoPpR4oXrBTpT-ZgE4sUzRp7ADE2VapLpzBoQ","sourceTagId":76963559,"sourceTagName":"爱马仕/女包","rawTitle":"KL25 touch\nhaas原厂epsom拼高光鳄鱼皮\n全手缝蜡线 全钢五金 内里原版山羊皮"},"price":null,"currency":"CNY","moq":1,"category":"hermes-women-bags","status":"active","alibaba_url":null,"images":["https://xcimg.szwego.com/img/9ee4266d/20240808/i1723087170_8856_8.jpg","https://xcimg.szwego.com/img/9ee4266d/20240808/i1723087170_370_4.jpg","https://xcimg.szwego.com/img/9ee4266d/20240808/i1723087170_5075_3.jpg","https://xcimg.szwego.com/img/9ee4266d/20240808/i1723087170_393_6.jpg","https://xcimg.szwego.com/img/9ee4266d/20240808/i1723087170_6910_1.jpg","https://xcimg.szwego.com/img/9ee4266d/20240808/i1723087170_6629_11.jpg","https://xcimg.szwego.com/img/9ee4266d/20240808/i1723087170_8888_5.jpg","https://xcimg.szwego.com/img/9ee4266d/20240808/i1723087170_9623_10.jpg","https://xcimg.szwego.com/img/9ee4266d/20240808/i1723087170_1256_9.jpg","https://xcimg.szwego.com/img/9ee4266d/20240808/i1723087170_6981_2.jpg","https://xcimg.szwego.com/img/9ee4266d/20240808/i1723087170_7176_0.jpg","https://xcimg.szwego.com/img/9ee4266d/20240808/i1723087170_3546_7.jpg"],"created_at":"2024-10-22T04:49:50.820Z"},{"id":"item-db9136ad5ccf","sku":"_dozozaSIgaT27EvfMEf1qB90DOL92DSnsiysDSQ","name_en":"KL25 touch","name_cn":"KL25 touch\nhaas原厂epsom拼高光鳄鱼皮\n全手缝蜡线 全钢五金 内里原版山羊皮","specs":{"source":"wsxcme","sourceId":"_dozozaSIgaT27EvfMEf1qB90DOL92DSnsiysDSQ","sourceTagId":76963559,"sourceTagName":"爱马仕/女包","rawTitle":"KL25 touch\nhaas原厂epsom拼高光鳄鱼皮\n全手缝蜡线 全钢五金 内里原版山羊皮"},"price":null,"currency":"CNY","moq":1,"category":"hermes-women-bags","status":"active","alibaba_url":null,"images":["https://xcimg.szwego.com/img/9ee4266d/20240808/i1723087286_3373_0.jpg","https://xcimg.szwego.com/img/9ee4266d/20240808/i1723087287_1124_0.jpg","https://xcimg.szwego.com/img/9ee4266d/20240808/i1723087286_9527_0.jpg","https://xcimg.szwego.com/img/9ee4266d/20240808/i1723087286_8615_0.jpg","https://xcimg.szwego.com/img/9ee4266d/20240808/i1723087287_6545_0.jpg","https://xcimg.szwego.com/img/9ee4266d/20240808/i1723087286_9638_0.jpg","https://xcimg.szwego.com/img/9ee4266d/20240808/i1723087286_1553_0.jpg","https://xcimg.szwego.com/img/9ee4266d/20240808/i1723087286_3911_0.jpg","https://xcimg.szwego.com/img/9ee4266d/20240808/i1723087286_1153_0.jpg"],"created_at":"2024-10-22T04:49:50.822Z"},{"id":"item-7f03f3db22f9","sku":"_dNKNKm60Digx_FPVjGVZ0SnWwQViZH3H0pBKrcA","name_en":"KL25 touch","name_cn":"KL25 touch\nhaas原厂epsom拼高光鳄鱼皮\n全手缝蜡线 全钢五金 内里原版山羊皮","specs":{"source":"wsxcme","sourceId":"_dNKNKm60Digx_FPVjGVZ0SnWwQViZH3H0pBKrcA","sourceTagId":76963559,"sourceTagName":"爱马仕/女包","rawTitle":"KL25 touch\nhaas原厂epsom拼高光鳄鱼皮\n全手缝蜡线 全钢五金 内里原版山羊皮"},"price":null,"currency":"CNY","moq":1,"category":"hermes-women-bags","status":"active","alibaba_url":null,"images":["https://xcimg.szwego.com/img/9ee4266d/20240808/i1723087485_1158_0.jpg","https://xcimg.szwego.com/img/9ee4266d/20240808/i1723087485_1591_0.jpg","https://xcimg.szwego.com/img/9ee4266d/20240808/i1723087485_64_0.jpg","https://xcimg.szwego.com/img/9ee4266d/20240808/i1723087484_809_0.jpg","https://xcimg.szwego.com/img/9ee4266d/20240808/i1723087485_590_0.jpg","https://xcimg.szwego.com/img/9ee4266d/20240808/i1723087484_701_0.jpg","https://xcimg.szwego.com/img/9ee4266d/20240808/i1723087484_280_0.jpg","https://xcimg.szwego.com/img/9ee4266d/20240808/i1723087484_1620_0.jpg","https://xcimg.szwego.com/img/9ee4266d/20240808/i1723087485_693_0.jpg","https://xcimg.szwego.com/img/9ee4266d/20240808/i1723087485_8936_0.jpg","https://xcimg.szwego.com/img/9ee4266d/20240808/i1723087485_50_0.jpg"],"created_at":"2024-10-22T04:49:50.825Z"},{"id":"item-66dec0b84ec8","sku":"_dkBkBQp5QPaZcrY6rw1UUPjRIgfePg4GDPyAXvw","name_en":"KL25 touch","name_cn":"KL25 touch\nhaas原厂epsom拼高光鳄鱼皮\n全手缝蜡线 全钢五金 内里原版山羊皮","specs":{"source":"wsxcme","sourceId":"_dkBkBQp5QPaZcrY6rw1UUPjRIgfePg4GDPyAXvw","sourceTagId":76963559,"sourceTagName":"爱马仕/女包","rawTitle":"KL25 touch\nhaas原厂epsom拼高光鳄鱼皮\n全手缝蜡线 全钢五金 内里原版山羊皮"},"price":null,"currency":"CNY","moq":1,"category":"hermes-women-bags","status":"active","alibaba_url":null,"images":["https://xcimg.szwego.com/img/9ee4266d/20240808/i1723087379_7932_0.jpg","https://xcimg.szwego.com/img/9ee4266d/20240808/i1723087379_407_0.jpg","https://xcimg.szwego.com/img/9ee4266d/20240808/i1723087379_435_0.jpg","https://xcimg.szwego.com/img/9ee4266d/20240808/i1723087379_6791_0.jpg","https://xcimg.szwego.com/img/9ee4266d/20240808/i1723087379_8643_0.jpg","https://xcimg.szwego.com/img/9ee4266d/20240808/i1723087379_7764_0.jpg","https://xcimg.szwego.com/img/9ee4266d/20240808/i1723087379_8646_0.jpg","https://xcimg.szwego.com/img/9ee4266d/20240808/i1723087379_149_0.jpg","https://xcimg.szwego.com/img/9ee4266d/20240808/i1723087379_2450_0.jpg"],"created_at":"2024-10-22T04:49:50.823Z"},{"id":"item-33a82ab83647","sku":"_dWaWad-dqi0BDt-FXETAJxcuyvD9EPmO6ZEe-mw","name_en":"KL25 touch","name_cn":"KL25 touch\nhaas原厂epsom拼高光鳄鱼皮\n全手缝蜡线 全钢五金 内里原版山羊皮","specs":{"source":"wsxcme","sourceId":"_dWaWad-dqi0BDt-FXETAJxcuyvD9EPmO6ZEe-mw","sourceTagId":76963559,"sourceTagName":"爱马仕/女包","rawTitle":"KL25 touch\nhaas原厂epsom拼高光鳄鱼皮\n全手缝蜡线 全钢五金 内里原版山羊皮"},"price":null,"currency":"CNY","moq":1,"category":"hermes-women-bags","status":"active","alibaba_url":null,"images":["https://xcimg.szwego.com/img/9ee4266d/20240808/i1723087446_5534_0.jpg","https://xcimg.szwego.com/img/9ee4266d/20240808/i1723087446_5544_0.jpg","https://xcimg.szwego.com/img/9ee4266d/20240808/i1723087446_9283_0.jpg","https://xcimg.szwego.com/img/9ee4266d/20240808/i1723087446_3456_0.jpg","https://xcimg.szwego.com/img/9ee4266d/20240808/i1723087446_2607_0.jpg","https://xcimg.szwego.com/img/9ee4266d/20240808/i1723087446_2153_0.jpg","https://xcimg.szwego.com/img/9ee4266d/20240808/i1723087446_4932_0.jpg","https://xcimg.szwego.com/img/9ee4266d/20240808/i1723087446_5826_0.jpg","https://xcimg.szwego.com/img/9ee4266d/20240808/i1723087446_4104_0.jpg","https://xcimg.szwego.com/img/9ee4266d/20240808/i1723087446_1237_0.jpg"],"created_at":"2024-10-22T04:49:50.824Z"},{"id":"item-c7487e914f39","sku":"_dAbAbImZZt8Z8CzPJZzf3TUwry3SoYM21xeNIcg","name_en":"LD - Mini Lindy 迷你琳迪.","name_cn":"LD - Mini Lindy 迷你琳迪.\nColor 颜色 Blue lin 亚麻蓝\nTogo leather 荔枝纹小牛皮.\nGold hardware 金扣.\n“多面派”小琳迪,有颜值的它偏偏还要靠实力去俘获你心❤️事实证明越优秀的越努力💪\n越努力越幸运 幸运的你拥有灵动松弛小可爱的它~\nSize 尺寸:19.5cm 宽12.5cm","specs":{"source":"wsxcme","sourceId":"_dAbAbImZZt8Z8CzPJZzf3TUwry3SoYM21xeNIcg","sourceTagId":76963559,"sourceTagName":"爱马仕/女包","rawTitle":"LD - Mini Lindy 迷你琳迪.\nColor 颜色 Blue lin 亚麻蓝\nTogo leather 荔枝纹小牛皮.\nGold hardware 金扣.\n“多面派”小琳迪,有颜值的它偏偏还要靠实力去俘获你心❤️事实证明越优秀的越努力💪\n越努力越幸运 幸运的你拥有灵动松弛小可爱的它~\nSize 尺寸:19.5cm 宽12.5cm"},"price":null,"currency":"CNY","moq":1,"category":"hermes-women-bags","status":"active","alibaba_url":null,"images":["https://xcimg.szwego.com/img/43e90bff/20240828/i1724831297_320_7.jpg","https://xcimg.szwego.com/img/43e90bff/20240828/i1724831296_6385_0.jpg","https://xcimg.szwego.com/img/43e90bff/20240828/i1724831297_8189_8.jpg","https://xcimg.szwego.com/img/43e90bff/20240828/i1724831297_4367_6.jpg","https://xcimg.szwego.com/img/43e90bff/20240828/i1724831297_5488_5.jpg","https://xcimg.szwego.com/img/43e90bff/20240828/i1724831296_6585_1.jpg","https://xcimg.szwego.com/img/43e90bff/20240828/i1724831297_7488_2.jpg","https://xcimg.szwego.com/img/43e90bff/20240828/i1724831297_7391_4.jpg","https://xcimg.szwego.com/img/43e90bff/20240828/i1724831297_3212_3.jpg"],"created_at":"2024-10-22T05:04:33.165Z"},{"id":"item-58a1a9ee9218","sku":"_dN2N2OWswVkremeKxqCmg-NLvrEXXMqIGbNLFrQ","name_en":"Mini  花园包 Neo Garden 23cm 进口TC皮 大象灰🐘 超Q超可爱","name_cn":"Mini  花园包 Neo Garden 23cm 进口TC皮 大象灰🐘 超Q超可爱\n限量版 专柜同步","specs":{"source":"wsxcme","sourceId":"_dN2N2OWswVkremeKxqCmg-NLvrEXXMqIGbNLFrQ","sourceTagId":76963559,"sourceTagName":"爱马仕/女包","rawTitle":"Mini  花园包 Neo Garden 23cm 进口TC皮 大象灰🐘 超Q超可爱\n限量版 专柜同步"},"price":null,"currency":"CNY","moq":1,"category":"hermes-women-bags","status":"active","alibaba_url":null,"images":["https://xcimg.szwego.com/img/ff0351ea/20250706/i1751792747277_8008_0_0.jpg","https://xcimg.szwego.com/img/ff0351ea/20250706/i1751792748279_3499_0_1.jpg","https://xcimg.szwego.com/img/ff0351ea/20250706/i1751792747341_4077_0_2.jpg","https://xcimg.szwego.com/img/ff0351ea/20250706/i1751792748244_318_0_3.jpg","https://xcimg.szwego.com/img/ff0351ea/20250706/i1751792748297_1294_0_4.jpg","https://xcimg.szwego.com/img/ff0351ea/20250706/i1751792748324_2022_0_5.jpg","https://xcimg.szwego.com/img/ff0351ea/20250706/i1751792747213_5359_0_6.jpg","https://xcimg.szwego.com/img/ff0351ea/20250706/i1751792747334_6935_0_7.jpg","https://xcimg.szwego.com/img/ff0351ea/20250706/i1751792747346_1649_0_8.jpg"],"created_at":"2026-06-29T12:59:36.314Z"},{"id":"item-14446a8f3663","sku":"_doSoSlAobT3h_OYHnakxwv67GYhhuiHWSTiKxjA","name_en":"Mini : 花园包 Neo Garden 23cm 进口TC皮 黑色 超Q超可爱","name_cn":"Mini : 花园包 Neo Garden 23cm 进口TC皮 黑色 超Q超可爱\n限量版 专柜同步","specs":{"source":"wsxcme","sourceId":"_doSoSlAobT3h_OYHnakxwv67GYhhuiHWSTiKxjA","sourceTagId":76963559,"sourceTagName":"爱马仕/女包","rawTitle":"Mini : 花园包 Neo Garden 23cm 进口TC皮 黑色 超Q超可爱\n限量版 专柜同步"},"price":null,"currency":"CNY","moq":1,"category":"hermes-women-bags","status":"active","alibaba_url":null,"images":["https://xcimg.szwego.com/img/ff0351ea/20250706/i1751792946013_1134_0_0.jpg","https://xcimg.szwego.com/img/ff0351ea/20250706/i1751792944845_3630_0_1.jpg","https://xcimg.szwego.com/img/ff0351ea/20250706/i1751792945006_5341_0_2.jpg","https://xcimg.szwego.com/img/ff0351ea/20250706/i1751792944944_3936_0_3.jpg","https://xcimg.szwego.com/img/ff0351ea/20250706/i1751792946042_9484_0_4.jpg","https://xcimg.szwego.com/img/ff0351ea/20250706/i1751792945002_5392_0_5.jpg","https://xcimg.szwego.com/img/ff0351ea/20250706/i1751792944866_4335_0_6.jpg","https://xcimg.szwego.com/img/ff0351ea/20250706/i1751792946096_5129_0_7.jpg","https://xcimg.szwego.com/img/ff0351ea/20250706/i1751792946072_3435_0_8.jpg"],"created_at":"2026-06-29T12:59:36.284Z"},{"id":"item-7896f9ce7809","sku":"_dkjkjPEn0xogycFH_gnDaCyU-lMv1iiDg_GSH7Q","name_en":"Mini : 花园包 Neo Garden 23cm 进口TC皮 金棕 超Q超可爱","name_cn":"Mini : 花园包 Neo Garden 23cm 进口TC皮 金棕 超Q超可爱\n限量版 专柜同步","specs":{"source":"wsxcme","sourceId":"_dkjkjPEn0xogycFH_gnDaCyU-lMv1iiDg_GSH7Q","sourceTagId":76963559,"sourceTagName":"爱马仕/女包","rawTitle":"Mini : 花园包 Neo Garden 23cm 进口TC皮 金棕 超Q超可爱\n限量版 专柜同步"},"price":null,"currency":"CNY","moq":1,"category":"hermes-women-bags","status":"active","alibaba_url":null,"images":["https://xcimg.szwego.com/img/ff0351ea/20250706/i1751792886222_3462_0_0.jpg","https://xcimg.szwego.com/img/ff0351ea/20250706/i1751792886212_2177_0_1.jpg","https://xcimg.szwego.com/img/ff0351ea/20250706/i1751792887382_7407_0_2.jpg","https://xcimg.szwego.com/img/ff0351ea/20250706/i1751792886312_6886_0_3.jpg","https://xcimg.szwego.com/img/ff0351ea/20250706/i1751792887403_7363_0_4.jpg","https://xcimg.szwego.com/img/ff0351ea/20250706/i1751792886153_3824_0_5.jpg","https://xcimg.szwego.com/img/ff0351ea/20250706/i1751792887326_3931_0_6.jpg","https://xcimg.szwego.com/img/ff0351ea/20250706/i1751792887353_271_0_7.jpg","https://xcimg.szwego.com/img/ff0351ea/20250706/i1751792886256_5158_0_8.jpg"],"created_at":"2026-06-29T12:59:36.294Z"},{"id":"item-7a239b25eae3","sku":"_dS8S86j6eY4ZGVET-SDK48RFM0WWH7rNW_6tghw","name_en":"Mini Kelly","name_cn":"Mini Kelly \n• 独家高性价比版本\n• 里外全皮完美机缝\n• Mini包中的霸主\n“麻雀虽小、五脏俱全”🎁 除了可以携带随身所需小物_更可容纳品味 将品味“背着走”。\n现货19Cm  7878000","specs":{"source":"wsxcme","sourceId":"_dS8S86j6eY4ZGVET-SDK48RFM0WWH7rNW_6tghw","sourceTagId":76963559,"sourceTagName":"爱马仕/女包","rawTitle":"Mini Kelly \n• 独家高性价比版本\n• 里外全皮完美机缝\n• Mini包中的霸主\n“麻雀虽小、五脏俱全”🎁 除了可以携带随身所需小物_更可容纳品味 将品味“背着走”。\n现货19Cm  7878000"},"price":null,"currency":"CNY","moq":1,"category":"hermes-women-bags","status":"active","alibaba_url":null,"images":["https://xcimg.szwego.com/20220713/i1657682918_6848_0.jpg","https://xcimg.szwego.com/20220713/i1657682918_7080_1.jpg","https://xcimg.szwego.com/20220713/i1657682918_6790_2.jpg","https://xcimg.szwego.com/20220713/i1657682918_720_3.jpg","https://xcimg.szwego.com/20220713/i1657682918_6072_4.jpg","https://xcimg.szwego.com/20220713/i1657682918_196_5.jpg","https://xcimg.szwego.com/20220713/i1657682918_5939_6.jpg","https://xcimg.szwego.com/20220713/i1657682918_955_7.jpg","https://xcimg.szwego.com/20220713/i1657682918_754_8.jpg"],"created_at":"2024-10-22T05:04:33.164Z"},{"id":"item-17df45158706","sku":"_dl9l9YsEumK-a4KVLLlc4lRLtgpQq7uixmShlwQ","name_en":"Mini:  花园包 Neo Garden 23cm 进口TC皮 奶昔白 超Q超可爱","name_cn":"Mini:  花园包 Neo Garden 23cm 进口TC皮 奶昔白 超Q超可爱\n限量版 专柜同步","specs":{"source":"wsxcme","sourceId":"_dl9l9YsEumK-a4KVLLlc4lRLtgpQq7uixmShlwQ","sourceTagId":76963559,"sourceTagName":"爱马仕/女包","rawTitle":"Mini:  花园包 Neo Garden 23cm 进口TC皮 奶昔白 超Q超可爱\n限量版 专柜同步"},"price":null,"currency":"CNY","moq":1,"category":"hermes-women-bags","status":"active","alibaba_url":null,"images":["https://xcimg.szwego.com/img/ff0351ea/20250706/i1751792803305_5199_0_0.jpg","https://xcimg.szwego.com/img/ff0351ea/20250706/i1751792803255_1069_0_1.jpg","https://xcimg.szwego.com/img/ff0351ea/20250706/i1751792802234_3489_0_2.jpg","https://xcimg.szwego.com/img/ff0351ea/20250706/i1751792803173_2094_0_3.jpg","https://xcimg.szwego.com/img/ff0351ea/20250706/i1751792802344_4863_0_4.jpg","https://xcimg.szwego.com/img/ff0351ea/20250706/i1751792803305_6344_0_5.jpg","https://xcimg.szwego.com/img/ff0351ea/20250706/i1751792802229_1904_0_6.jpg","https://xcimg.szwego.com/img/ff0351ea/20250706/i1751792802273_6451_0_7.jpg","https://xcimg.szwego.com/img/ff0351ea/20250706/i1751792802266_4264_0_8.jpg"],"created_at":"2026-06-29T12:59:36.304Z"},{"id":"item-a2de72a8f271","sku":"_duSuSImMMqTI_0HRTsE07oI4jbn92CAOZroBOwg","name_en":"Picotin ❶❽金棕色","name_cn":"Picotin ❶❽金棕色\n\n简约也更贴近生活的菜篮子🧺\n某个不经意间就能惊艳你所在的那些时光!她就是Hermes Picotin Lock。\n\n-- 机车现货 原版牛皮.\n实拍18cm","specs":{"source":"wsxcme","sourceId":"_duSuSImMMqTI_0HRTsE07oI4jbn92CAOZroBOwg","sourceTagId":76963559,"sourceTagName":"爱马仕/女包","rawTitle":"Picotin ❶❽金棕色\n\n简约也更贴近生活的菜篮子🧺\n某个不经意间就能惊艳你所在的那些时光!她就是Hermes Picotin Lock。\n\n-- 机车现货 原版牛皮.\n实拍18cm"},"price":null,"currency":"CNY","moq":1,"category":"hermes-women-bags","status":"active","alibaba_url":null,"images":["https://xcimg.szwego.com/20220613/i1655091320_304_0.jpg","https://xcimg.szwego.com/20220613/i1655091320_1315_1.jpg","https://xcimg.szwego.com/20220613/i1655091320_7169_3.jpg","https://xcimg.szwego.com/20220613/i1655091320_5633_4.jpg","https://xcimg.szwego.com/20220613/i1655091320_8868_7.jpg","https://xcimg.szwego.com/20220613/i1655091320_5714_2.jpg","https://xcimg.szwego.com/20220613/i1655091320_7566_8.jpg","https://xcimg.szwego.com/20220613/i1655091320_9694_5.jpg","https://xcimg.szwego.com/20220613/i1655091320_456_6.jpg"],"created_at":"2025-03-07T08:39:49.699Z"},{"id":"item-ec25a14b5611","sku":"_d_e_edUg83ZIBk7Zu0AcN6o7njZeaPzqQ8iRkGQ","name_en":"picotin 菜篮子","name_cn":"picotin 菜篮子\n颜色:黑色、金扣\n进口tc头层牛皮\n半手工缝制收口\n蜜蜡线缝制\n尺寸:18cm","specs":{"source":"wsxcme","sourceId":"_d_e_edUg83ZIBk7Zu0AcN6o7njZeaPzqQ8iRkGQ","sourceTagId":76963559,"sourceTagName":"爱马仕/女包","rawTitle":"picotin 菜篮子\n颜色:黑色、金扣\n进口tc头层牛皮\n半手工缝制收口\n蜜蜡线缝制\n尺寸:18cm"},"price":null,"currency":"CNY","moq":1,"category":"hermes-women-bags","status":"active","alibaba_url":null,"images":["https://xcimg.szwego.com/img/88b306c4/20240902/a1725213118287_6758.jpg","https://xcimg.szwego.com/img/88b306c4/20240902/a1725213118653_4643.jpg","https://xcimg.szwego.com/img/88b306c4/20240902/a1725213118319_6484.jpg","https://xcimg.szwego.com/img/88b306c4/20240902/a1725213118666_2732.jpg","https://xcimg.szwego.com/img/88b306c4/20240902/a1725213118238_0538.jpg","https://xcimg.szwego.com/img/88b306c4/20240902/a1725213118320_8623.jpg","https://xcimg.szwego.com/img/88b306c4/20240902/a1725213119744_8873.jpg","https://xcimg.szwego.com/img/88b306c4/20240902/a1725213119646_6866.jpg","https://xcimg.szwego.com/img/88b306c4/20240902/a1725213119721_5677.jpg"],"created_at":"2024-10-22T05:00:12.188Z"},{"id":"item-eaad1a6a73d0","sku":"_dvsvsG-vKABcYSyI2jrXotgzhdtxuR_hQjccD3g","name_en":"picotin 菜篮子","name_cn":"picotin 菜篮子\n颜色:阿尔法米色、金扣\n进口tc头层牛皮\n半手工缝制收口\n蜜蜡线缝制\n尺寸:18cm","specs":{"source":"wsxcme","sourceId":"_dvsvsG-vKABcYSyI2jrXotgzhdtxuR_hQjccD3g","sourceTagId":76963559,"sourceTagName":"爱马仕/女包","rawTitle":"picotin 菜篮子\n颜色:阿尔法米色、金扣\n进口tc头层牛皮\n半手工缝制收口\n蜜蜡线缝制\n尺寸:18cm"},"price":null,"currency":"CNY","moq":1,"category":"hermes-women-bags","status":"active","alibaba_url":null,"images":["https://xcimg.szwego.com/img/88b306c4/20240902/a1725208441508_1136.jpg","https://xcimg.szwego.com/img/88b306c4/20240902/a1725208441486_5881.jpg","https://xcimg.szwego.com/img/88b306c4/20240902/a1725208441454_4401.jpg","https://xcimg.szwego.com/img/88b306c4/20240902/a1725208441451_7508.jpg","https://xcimg.szwego.com/img/88b306c4/20240902/a1725208441700_1712.jpg","https://xcimg.szwego.com/img/88b306c4/20240902/a1725208441652_6634.jpg","https://xcimg.szwego.com/img/88b306c4/20240902/a1725208443174_1158.jpg","https://xcimg.szwego.com/img/88b306c4/20240902/a1725208443133_0867.jpg","https://xcimg.szwego.com/img/88b306c4/20240902/a1725208443354_4537.jpg"],"created_at":"2024-10-22T05:00:12.205Z"}],"page":17,"pageSize":24,"total":439,"totalPages":19}
