{"items":[{"id":"item-e61597fbeed1","sku":"_diviv6EKqeFHfDz8Ovq7zso8HZIlBf5G5G6ZDNg","name_en":"半手工蜜蜡缝线 原厂皮 客定定做款❤️  可 Kelly25 Epsom 颗粒饱满,皮质摸起来都是有些凹凸不平的❤️","name_cn":"半手工蜜蜡缝线 原厂皮 客定定做款❤️  可 Kelly25 Epsom 颗粒饱满,皮质摸起来都是有些凹凸不平的❤️","specs":{"source":"wsxcme","sourceId":"_diviv6EKqeFHfDz8Ovq7zso8HZIlBf5G5G6ZDNg","sourceTagId":76963559,"sourceTagName":"爱马仕/女包","rawTitle":"半手工蜜蜡缝线 原厂皮 客定定做款❤️  可 Kelly25 Epsom 颗粒饱满,皮质摸起来都是有些凹凸不平的❤️"},"price":null,"currency":"CNY","moq":1,"category":"hermes-women-bags","status":"active","alibaba_url":null,"images":["https://xcimg.szwego.com/20201128/i1606556932_2766_0.jpg","https://xcimg.szwego.com/20201128/i1606556932_510_1.jpg","https://xcimg.szwego.com/20201128/i1606556932_5922_2.jpg","https://xcimg.szwego.com/20201128/i1606556932_2800_3.jpg","https://xcimg.szwego.com/20201128/i1606556932_1236_4.jpg","https://xcimg.szwego.com/20201128/i1606556932_5770_5.jpg","https://xcimg.szwego.com/20201128/i1606556932_6986_6.jpg","https://xcimg.szwego.com/20201128/i1606556932_3896_7.jpg","https://xcimg.szwego.com/20201128/i1606556932_4855_8.jpg"],"created_at":"2026-06-29T12:59:35.874Z"},{"id":"item-b8bdbaaec2ec","sku":"_dqgqgrCit9A53KE9ttLiRx7Szyyou5wRp_L7V8w","name_en":"半手工蜜蜡缝线 原厂皮 客定定做款❤️  可 Kelly25 Epsom皮质,不易变形不怕刮痕容易打理❤️","name_cn":"半手工蜜蜡缝线 原厂皮 客定定做款❤️  可 Kelly25 Epsom皮质,不易变形不怕刮痕容易打理❤️","specs":{"source":"wsxcme","sourceId":"_dqgqgrCit9A53KE9ttLiRx7Szyyou5wRp_L7V8w","sourceTagId":76963559,"sourceTagName":"爱马仕/女包","rawTitle":"半手工蜜蜡缝线 原厂皮 客定定做款❤️  可 Kelly25 Epsom皮质,不易变形不怕刮痕容易打理❤️"},"price":null,"currency":"CNY","moq":1,"category":"hermes-women-bags","status":"active","alibaba_url":null,"images":["https://xcimg.szwego.com/20201128/i1606557262_9598_0.jpg","https://xcimg.szwego.com/20201128/i1606557262_640_1.jpg","https://xcimg.szwego.com/20201128/i1606557262_5816_2.jpg","https://xcimg.szwego.com/20201128/i1606557262_6290_3.jpg","https://xcimg.szwego.com/20201128/i1606557262_6175_4.jpg","https://xcimg.szwego.com/20201128/i1606557262_5502_5.jpg","https://xcimg.szwego.com/20201128/i1606557262_2316_6.jpg","https://xcimg.szwego.com/20201128/i1606557262_837_7.jpg","https://xcimg.szwego.com/20201128/i1606557262_6096_8.jpg"],"created_at":"2026-06-29T12:59:35.884Z"},{"id":"item-07911be91a2e","sku":"_dJtJtPSSSt5hsKKjNF5E5wTwN_Ka8mw1KTcccgQ","name_en":"本季最优白钥匙twilly,配奶昔白有点优秀,一直缺个最优,","name_cn":"本季最优白钥匙twilly,配奶昔白有点优秀,一直缺个最优,\nTwilly上面的点点原来是彩色的,很出彩。","specs":{"source":"wsxcme","sourceId":"_dJtJtPSSSt5hsKKjNF5E5wTwN_Ka8mw1KTcccgQ","sourceTagId":76963559,"sourceTagName":"爱马仕/女包","rawTitle":"本季最优白钥匙twilly,配奶昔白有点优秀,一直缺个最优,\nTwilly上面的点点原来是彩色的,很出彩。"},"price":null,"currency":"CNY","moq":1,"category":"hermes-women-bags","status":"active","alibaba_url":null,"images":["https://xcimg.szwego.com/img/3d6d0be4/20231215/i1702622933_6224_0.jpg","https://xcimg.szwego.com/img/3d6d0be4/20231215/i1702623166_7423_0.jpg","https://xcimg.szwego.com/img/3d6d0be4/20231215/i1702622933_3216_0.jpg","https://xcimg.szwego.com/img/3d6d0be4/20231215/i1702623166_8958_0.jpg","https://xcimg.szwego.com/img/3d6d0be4/20231215/i1702623166_8459_0.jpg"],"created_at":"2024-10-22T05:00:12.173Z"},{"id":"item-08a9fe34e8ec","sku":"_djUjUH-TvdEGBtPPJo353vkEkyDZ2hkTKNQHWlw","name_en":"超级推荐B 饼干色🍪","name_cn":"超级推荐B 饼干色🍪\n🔥 Picotin 18cm 超级百搭的菜蓝子,入门且实用,越看越喜欢的一款~\n非常随意感的优雅~\n入门级爱马仕必备单品~\n低调有质感随意搭配 休闲 职场装也是yyds👍","specs":{"source":"wsxcme","sourceId":"_djUjUH-TvdEGBtPPJo353vkEkyDZ2hkTKNQHWlw","sourceTagId":76963559,"sourceTagName":"爱马仕/女包","rawTitle":"超级推荐B 饼干色🍪\n🔥 Picotin 18cm 超级百搭的菜蓝子,入门且实用,越看越喜欢的一款~\n非常随意感的优雅~\n入门级爱马仕必备单品~\n低调有质感随意搭配 休闲 职场装也是yyds👍"},"price":null,"currency":"CNY","moq":1,"category":"hermes-women-bags","status":"active","alibaba_url":null,"images":["https://xcimg.szwego.com/20230805/i1691210203_3240_0.jpg","https://xcimg.szwego.com/20230805/i1691210203_8162_1.jpg","https://xcimg.szwego.com/20230805/i1691210203_6857_2.jpg","https://xcimg.szwego.com/20230805/i1691210203_7071_3.jpg","https://xcimg.szwego.com/20230805/i1691210203_9195_4.jpg","https://xcimg.szwego.com/20230805/i1691210203_5428_5.jpg","https://xcimg.szwego.com/20230805/i1691210203_5987_6.jpg","https://xcimg.szwego.com/20230805/i1691210203_6279_8.jpg"],"created_at":"2025-01-20T12:29:05.614Z"},{"id":"item-fcd6c1899e28","sku":"_dnfnfoSoGISK9WLbInmeAPHKHJ3JEIush6nXJxQ","name_en":"出货啦 😎 独家首发 zp开版","name_cn":"出货啦 😎 独家首发 zp开版 \nkelly Elan 山羊皮 27cm 18大象灰 金扣 \nkelly 家族真正意义上的第一只腋下包,容量,厚度肩带长度 都挑不出任何毛病 日常使用率会很高的一只~ \n曼妙优雅的细长轮廓,小山羊皮搭配满满的复古腔调,收纳满分。肩带长度腋下背法非常nice!","specs":{"source":"wsxcme","sourceId":"_dnfnfoSoGISK9WLbInmeAPHKHJ3JEIush6nXJxQ","sourceTagId":76963559,"sourceTagName":"爱马仕/女包","rawTitle":"出货啦 😎 独家首发 zp开版 \nkelly Elan 山羊皮 27cm 18大象灰 金扣 \nkelly 家族真正意义上的第一只腋下包,容量,厚度肩带长度 都挑不出任何毛病 日常使用率会很高的一只~ \n曼妙优雅的细长轮廓,小山羊皮搭配满满的复古腔调,收纳满分。肩带长度腋下背法非常nice!"},"price":null,"currency":"CNY","moq":1,"category":"hermes-women-bags","status":"active","alibaba_url":null,"images":["https://xcimg.szwego.com/20230802/i1690972149_7572_0.jpg","https://xcimg.szwego.com/20230802/i1690972149_4080_1.jpg","https://xcimg.szwego.com/20230802/i1690972149_215_2.jpg","https://xcimg.szwego.com/20230802/i1690972149_3414_3.jpg","https://xcimg.szwego.com/20230802/i1690972149_8565_6.jpg","https://xcimg.szwego.com/20230802/i1690972149_9028_4.jpg","https://xcimg.szwego.com/20230802/i1690972149_9257_5.jpg","https://xcimg.szwego.com/20230802/i1690972149_545_8.jpg","https://xcimg.szwego.com/20230802/i1690972149_2312_7.jpg"],"created_at":"2024-10-22T04:49:50.806Z"},{"id":"item-fa67e0c28f44","sku":"_d8G8GKPR4SVDXRLIKw6-2ayxrVcg7zqWygRq8yA","name_en":"出货啦 😎 独家首发 zp开版","name_cn":"出货啦 😎 独家首发 zp开版 \nkelly Elan 山羊皮 27cm 37金棕 金扣\nkelly 家族真正意义上的第一只腋下包,容量,厚度肩带长度 都挑不出任何毛病 日常使用率会很高的一只~ \n曼妙优雅的细长轮廓,小山羊皮搭配满满的复古腔调,收纳满分。肩带长度腋下背法非常nice!","specs":{"source":"wsxcme","sourceId":"_d8G8GKPR4SVDXRLIKw6-2ayxrVcg7zqWygRq8yA","sourceTagId":76963559,"sourceTagName":"爱马仕/女包","rawTitle":"出货啦 😎 独家首发 zp开版 \nkelly Elan 山羊皮 27cm 37金棕 金扣\nkelly 家族真正意义上的第一只腋下包,容量,厚度肩带长度 都挑不出任何毛病 日常使用率会很高的一只~ \n曼妙优雅的细长轮廓,小山羊皮搭配满满的复古腔调,收纳满分。肩带长度腋下背法非常nice!"},"price":null,"currency":"CNY","moq":1,"category":"hermes-women-bags","status":"active","alibaba_url":null,"images":["https://xcimg.szwego.com/20230716/i1689501669_976_0.jpg","https://xcimg.szwego.com/20230716/i1689501669_6940_1.jpg","https://xcimg.szwego.com/20230716/i1689501669_2328_2.jpg","https://xcimg.szwego.com/20230716/i1689501669_1805_3.jpg","https://xcimg.szwego.com/20230716/i1689501669_1544_5.jpg","https://xcimg.szwego.com/20230716/i1689501669_6122_6.jpg","https://xcimg.szwego.com/20230716/i1689501669_189_7.jpg","https://xcimg.szwego.com/20230716/i1689501669_2392_4.jpg","https://xcimg.szwego.com/20230716/i1689501669_8196_8.jpg"],"created_at":"2024-10-22T04:49:50.804Z"},{"id":"item-ba5e34fe85fa","sku":"_dadadmEFpAeN5VFdss1tXVQnogJS_e25ZSXhIMw","name_en":"出货啦 😎 独家首发 zp开版","name_cn":"出货啦 😎 独家首发 zp开版 \nkelly Elan 山羊皮 27cm 37金棕 银扣\nkelly 家族真正意义上的第一只腋下包,容量,厚度肩带长度 都挑不出任何毛病 日常使用率会很高的一只~ \n曼妙优雅的细长轮廓,小山羊皮搭配满满的复古腔调,收纳满分。肩带长度腋下背法非常nice!","specs":{"source":"wsxcme","sourceId":"_dadadmEFpAeN5VFdss1tXVQnogJS_e25ZSXhIMw","sourceTagId":76963559,"sourceTagName":"爱马仕/女包","rawTitle":"出货啦 😎 独家首发 zp开版 \nkelly Elan 山羊皮 27cm 37金棕 银扣\nkelly 家族真正意义上的第一只腋下包,容量,厚度肩带长度 都挑不出任何毛病 日常使用率会很高的一只~ \n曼妙优雅的细长轮廓,小山羊皮搭配满满的复古腔调,收纳满分。肩带长度腋下背法非常nice!"},"price":null,"currency":"CNY","moq":1,"category":"hermes-women-bags","status":"active","alibaba_url":null,"images":["https://xcimg.szwego.com/20230716/i1689500776_3703_0.jpg","https://xcimg.szwego.com/20230716/i1689500776_6272_1.jpg","https://xcimg.szwego.com/20230716/i1689500776_4833_2.jpg","https://xcimg.szwego.com/20230716/i1689500776_4877_3.jpg","https://xcimg.szwego.com/20230716/i1689500776_9077_5.jpg","https://xcimg.szwego.com/20230716/i1689500776_9015_4.jpg","https://xcimg.szwego.com/20230716/i1689500776_907_8.jpg","https://xcimg.szwego.com/20230716/i1689500776_5638_7.jpg","https://xcimg.szwego.com/20230716/i1689500776_7418_6.jpg"],"created_at":"2024-10-22T04:49:50.803Z"},{"id":"item-7b978189a455","sku":"_dpTpTNbEfHx8qFGajkeHNz4gJ9SF_dB0Kc9XThg","name_en":"出货啦 😎 独家首发 zp开版","name_cn":"出货啦 😎 独家首发 zp开版 \nkelly Elan 山羊皮 27cm 89黑色 银扣 \nkelly 家族真正意义上的第一只腋下包,容量,厚度肩带长度 都挑不出任何毛病 日常使用率会很高的一只~ \n曼妙优雅的细长轮廓,小山羊皮搭配黑银满满的复古腔调,收纳满分。肩带长度腋下背法非常nice!","specs":{"source":"wsxcme","sourceId":"_dpTpTNbEfHx8qFGajkeHNz4gJ9SF_dB0Kc9XThg","sourceTagId":76963559,"sourceTagName":"爱马仕/女包","rawTitle":"出货啦 😎 独家首发 zp开版 \nkelly Elan 山羊皮 27cm 89黑色 银扣 \nkelly 家族真正意义上的第一只腋下包,容量,厚度肩带长度 都挑不出任何毛病 日常使用率会很高的一只~ \n曼妙优雅的细长轮廓,小山羊皮搭配黑银满满的复古腔调,收纳满分。肩带长度腋下背法非常nice!"},"price":null,"currency":"CNY","moq":1,"category":"hermes-women-bags","status":"active","alibaba_url":null,"images":["https://xcimg.szwego.com/20230709/i1688895995_3219_0.jpg","https://xcimg.szwego.com/20230709/i1688895995_2275_1.jpg","https://xcimg.szwego.com/20230709/i1688895995_9253_2.jpg","https://xcimg.szwego.com/20230709/i1688895995_8452_3.jpg","https://xcimg.szwego.com/20230709/i1688895995_6882_8.jpg","https://xcimg.szwego.com/20230709/i1688895995_7763_7.jpg","https://xcimg.szwego.com/20230709/i1688895995_1440_6.jpg","https://xcimg.szwego.com/20230709/i1688895995_3497_5.jpg","https://xcimg.szwego.com/20230709/i1688895995_6381_4.jpg"],"created_at":"2024-10-22T04:49:50.797Z"},{"id":"item-789ec20e0d10","sku":"_dPbPbpqMW3DJVi3poDmKINd-FmPur114qY_sdNA","name_en":"出货啦 😎 独家首发 zp开版","name_cn":"出货啦 😎 独家首发 zp开版 \nkelly Elan 山羊皮 27cm 18大象灰 银扣 \nkelly 家族真正意义上的第一只腋下包,容量,厚度肩带长度 都挑不出任何毛病 日常使用率会很高的一只~ \n曼妙优雅的细长轮廓,小山羊皮搭配满满的复古腔调,收纳满分。肩带长度腋下背法非常nice!","specs":{"source":"wsxcme","sourceId":"_dPbPbpqMW3DJVi3poDmKINd-FmPur114qY_sdNA","sourceTagId":76963559,"sourceTagName":"爱马仕/女包","rawTitle":"出货啦 😎 独家首发 zp开版 \nkelly Elan 山羊皮 27cm 18大象灰 银扣 \nkelly 家族真正意义上的第一只腋下包,容量,厚度肩带长度 都挑不出任何毛病 日常使用率会很高的一只~ \n曼妙优雅的细长轮廓,小山羊皮搭配满满的复古腔调,收纳满分。肩带长度腋下背法非常nice!"},"price":null,"currency":"CNY","moq":1,"category":"hermes-women-bags","status":"active","alibaba_url":null,"images":["https://xcimg.szwego.com/20230802/i1690970847_568_0.jpg","https://xcimg.szwego.com/20230802/i1690970847_4487_1.jpg","https://xcimg.szwego.com/20230802/i1690970847_7780_2.jpg","https://xcimg.szwego.com/20230802/i1690970847_7420_3.jpg","https://xcimg.szwego.com/20230802/i1690970847_7338_4.jpg","https://xcimg.szwego.com/20230802/i1690970847_58_5.jpg","https://xcimg.szwego.com/20230802/i1690970847_7663_7.jpg","https://xcimg.szwego.com/20230802/i1690970847_5306_6.jpg","https://xcimg.szwego.com/20230802/i1690970847_1017_8.jpg"],"created_at":"2024-10-22T04:49:50.805Z"},{"id":"item-4c122d090fdd","sku":"_dN2N2OWswVkjfn-K6qyuh-NToqUTTMqIGbNLFrQ","name_en":"出货啦 😎 独家首发 zp开版","name_cn":"出货啦 😎 独家首发 zp开版 \nkelly Elan 山羊皮 27cm 89黑色 金扣\nkelly 家族真正意义上的第一只腋下包,容量,厚度肩带长度 都挑不出任何毛病 日常使用率会很高的一只~ \n曼妙优雅的细长轮廓,小山羊皮搭配黑金满满的复古腔调,收纳满分。肩带长度腋下背法非常nice!","specs":{"source":"wsxcme","sourceId":"_dN2N2OWswVkjfn-K6qyuh-NToqUTTMqIGbNLFrQ","sourceTagId":76963559,"sourceTagName":"爱马仕/女包","rawTitle":"出货啦 😎 独家首发 zp开版 \nkelly Elan 山羊皮 27cm 89黑色 金扣\nkelly 家族真正意义上的第一只腋下包,容量,厚度肩带长度 都挑不出任何毛病 日常使用率会很高的一只~ \n曼妙优雅的细长轮廓,小山羊皮搭配黑金满满的复古腔调,收纳满分。肩带长度腋下背法非常nice!"},"price":null,"currency":"CNY","moq":1,"category":"hermes-women-bags","status":"active","alibaba_url":null,"images":["https://xcimg.szwego.com/20230709/i1688897099_1493_7.jpg","https://xcimg.szwego.com/20230709/i1688897099_7620_8.jpg","https://xcimg.szwego.com/20230709/i1688897099_9421_0.jpg","https://xcimg.szwego.com/20230709/i1688897099_9354_1.jpg","https://xcimg.szwego.com/20230709/i1688897099_8782_2.jpg","https://xcimg.szwego.com/20230709/i1688897099_1808_3.jpg","https://xcimg.szwego.com/20230709/i1688897099_7453_4.jpg","https://xcimg.szwego.com/20230709/i1688897099_1595_5.jpg","https://xcimg.szwego.com/20230709/i1688897099_6552_6.jpg"],"created_at":"2024-10-22T04:49:50.798Z"},{"id":"item-450a1ddb7bd4","sku":"_dBhBhneOdoLOPV2Cd_aQzNAvuXRMsNlq8N32HgQ","name_en":"出货啦 😎 独家首发 zp开版","name_cn":"出货啦 😎 独家首发 zp开版 \nkelly Elan Madame皮 27cm 18大象灰 金扣 \nkelly 家族真正意义上的第一只腋下包,容量,厚度肩带长度 都挑不出任何毛病 日常使用率会很高的一只~ \n曼妙优雅的细长轮廓,小山羊皮搭配满满的复古腔调,收纳满分。肩带长度腋下背法非常nice!","specs":{"source":"wsxcme","sourceId":"_dBhBhneOdoLOPV2Cd_aQzNAvuXRMsNlq8N32HgQ","sourceTagId":76963559,"sourceTagName":"爱马仕/女包","rawTitle":"出货啦 😎 独家首发 zp开版 \nkelly Elan Madame皮 27cm 18大象灰 金扣 \nkelly 家族真正意义上的第一只腋下包,容量,厚度肩带长度 都挑不出任何毛病 日常使用率会很高的一只~ \n曼妙优雅的细长轮廓,小山羊皮搭配满满的复古腔调,收纳满分。肩带长度腋下背法非常nice!"},"price":null,"currency":"CNY","moq":1,"category":"hermes-women-bags","status":"active","alibaba_url":null,"images":["https://xcimg.szwego.com/20230802/i1690973271_3159_0.jpg","https://xcimg.szwego.com/20230802/i1690973271_7147_1.jpg","https://xcimg.szwego.com/20230802/i1690973271_3344_2.jpg","https://xcimg.szwego.com/20230802/i1690973271_9226_3.jpg","https://xcimg.szwego.com/20230802/i1690973271_7523_4.jpg","https://xcimg.szwego.com/20230802/i1690973271_1228_6.jpg","https://xcimg.szwego.com/20230802/i1690973271_4365_7.jpg","https://xcimg.szwego.com/20230802/i1690973271_6159_8.jpg","https://xcimg.szwego.com/20230802/i1690973271_3204_5.jpg"],"created_at":"2024-10-22T04:49:50.807Z"},{"id":"item-e8ae9803bf9a","sku":"_dbbbbSAMNW6TtiNR1a8VA7loMND-P0wTVJtgwIg","name_en":"独家首发 zp开版","name_cn":"独家首发 zp开版 \nkelly Elan 山羊皮 27cm OG马鞍红 银扣\nkelly 家族真正意义上的第一只腋下包,容量,厚度肩带长度 都挑不出任何毛病 日常使用率会很高的一只~ \n曼妙优雅的细长轮廓,小山羊皮搭配满满的复古腔调,收纳满分。肩带长度腋下背法非常nice!","specs":{"source":"wsxcme","sourceId":"_dbbbbSAMNW6TtiNR1a8VA7loMND-P0wTVJtgwIg","sourceTagId":76963559,"sourceTagName":"爱马仕/女包","rawTitle":"独家首发 zp开版 \nkelly Elan 山羊皮 27cm OG马鞍红 银扣\nkelly 家族真正意义上的第一只腋下包,容量,厚度肩带长度 都挑不出任何毛病 日常使用率会很高的一只~ \n曼妙优雅的细长轮廓,小山羊皮搭配满满的复古腔调,收纳满分。肩带长度腋下背法非常nice!"},"price":null,"currency":"CNY","moq":1,"category":"hermes-women-bags","status":"active","alibaba_url":null,"images":["https://xcimg.szwego.com/20230802/i1690967418_9226_0.jpg","https://xcimg.szwego.com/20230802/i1690967418_5528_1.jpg","https://xcimg.szwego.com/20230802/i1690967418_3518_2.jpg","https://xcimg.szwego.com/20230802/i1690967418_2450_3.jpg","https://xcimg.szwego.com/20230802/i1690967418_2023_4.jpg","https://xcimg.szwego.com/20230802/i1690967418_5272_6.jpg","https://xcimg.szwego.com/20230802/i1690967418_2695_7.jpg","https://xcimg.szwego.com/20230802/i1690967418_5640_8.jpg","https://xcimg.szwego.com/20230802/i1690967418_7316_5.jpg"],"created_at":"2024-10-22T04:49:50.802Z"},{"id":"item-c26bb06cb955","sku":"_djAjABQ52WbHTb6WDFRorAo8GamFJ6OFx_LNzYA","name_en":"独家首发 zp开版","name_cn":"独家首发 zp开版 \nkelly Elan 山羊皮 27cm 7K宝石蓝 金扣\nkelly 家族真正意义上的第一只腋下包,容量,厚度肩带长度 都挑不出任何毛病 日常使用率会很高的一只~ \n曼妙优雅的细长轮廓,小山羊皮搭配满满的复古腔调,收纳满分。肩带长度腋下背法非常nice!","specs":{"source":"wsxcme","sourceId":"_djAjABQ52WbHTb6WDFRorAo8GamFJ6OFx_LNzYA","sourceTagId":76963559,"sourceTagName":"爱马仕/女包","rawTitle":"独家首发 zp开版 \nkelly Elan 山羊皮 27cm 7K宝石蓝 金扣\nkelly 家族真正意义上的第一只腋下包,容量,厚度肩带长度 都挑不出任何毛病 日常使用率会很高的一只~ \n曼妙优雅的细长轮廓,小山羊皮搭配满满的复古腔调,收纳满分。肩带长度腋下背法非常nice!"},"price":null,"currency":"CNY","moq":1,"category":"hermes-women-bags","status":"active","alibaba_url":null,"images":["https://xcimg.szwego.com/20230710/i1688983149_6168_0.jpg","https://xcimg.szwego.com/20230710/i1688983149_6404_1.jpg","https://xcimg.szwego.com/20230710/i1688983149_5157_2.jpg","https://xcimg.szwego.com/20230710/i1688983149_3611_3.jpg","https://xcimg.szwego.com/20230710/i1688983149_6569_6.jpg","https://xcimg.szwego.com/20230710/i1688983149_3760_4.jpg","https://xcimg.szwego.com/20230710/i1688983149_6301_5.jpg","https://xcimg.szwego.com/20230710/i1688983149_1360_7.jpg","https://xcimg.szwego.com/20230710/i1688983149_8703_8.jpg"],"created_at":"2024-10-22T04:49:50.799Z"},{"id":"item-7ff5f18afff1","sku":"_dqwqwtcafm19C3lfwaAm6WIzhEorJbHB6Oko2Vw","name_en":"独家首发 zp开版","name_cn":"独家首发 zp开版 \nkelly Elan 山羊皮 27cm 7K宝石蓝 银扣\nkelly 家族真正意义上的第一只腋下包,容量,厚度肩带长度 都挑不出任何毛病 日常使用率会很高的一只~ \n曼妙优雅的细长轮廓,小山羊皮搭配满满的复古腔调,收纳满分。肩带长度腋下背法非常nice!","specs":{"source":"wsxcme","sourceId":"_dqwqwtcafm19C3lfwaAm6WIzhEorJbHB6Oko2Vw","sourceTagId":76963559,"sourceTagName":"爱马仕/女包","rawTitle":"独家首发 zp开版 \nkelly Elan 山羊皮 27cm 7K宝石蓝 银扣\nkelly 家族真正意义上的第一只腋下包,容量,厚度肩带长度 都挑不出任何毛病 日常使用率会很高的一只~ \n曼妙优雅的细长轮廓,小山羊皮搭配满满的复古腔调,收纳满分。肩带长度腋下背法非常nice!"},"price":null,"currency":"CNY","moq":1,"category":"hermes-women-bags","status":"active","alibaba_url":null,"images":["https://xcimg.szwego.com/20230710/i1688983798_6900_0.jpg","https://xcimg.szwego.com/20230710/i1688983798_2207_1.jpg","https://xcimg.szwego.com/20230710/i1688983798_4436_2.jpg","https://xcimg.szwego.com/20230710/i1688983798_1197_3.jpg","https://xcimg.szwego.com/20230710/i1688983798_4007_6.jpg","https://xcimg.szwego.com/20230710/i1688983798_9199_7.jpg","https://xcimg.szwego.com/20230710/i1688983798_59_8.jpg","https://xcimg.szwego.com/20230710/i1688983838_7447_0.jpg","https://xcimg.szwego.com/20230710/i1688983798_7259_5.jpg"],"created_at":"2024-10-22T04:49:50.800Z"},{"id":"item-60d3dfeecb5c","sku":"_dm1m16NFgGKeLeiOUoWLIU8kPzJaYT3J5OBIhXw","name_en":"独家首发 zp开版","name_cn":"独家首发 zp开版 \nkelly Elan 山羊皮 27cm OG马鞍红 金扣\nkelly 家族真正意义上的第一只腋下包,容量,厚度肩带长度 都挑不出任何毛病 日常使用率会很高的一只~ \n曼妙优雅的细长轮廓,小山羊皮搭配满满的复古腔调,收纳满分。肩带长度腋下背法非常nice!","specs":{"source":"wsxcme","sourceId":"_dm1m16NFgGKeLeiOUoWLIU8kPzJaYT3J5OBIhXw","sourceTagId":76963559,"sourceTagName":"爱马仕/女包","rawTitle":"独家首发 zp开版 \nkelly Elan 山羊皮 27cm OG马鞍红 金扣\nkelly 家族真正意义上的第一只腋下包,容量,厚度肩带长度 都挑不出任何毛病 日常使用率会很高的一只~ \n曼妙优雅的细长轮廓,小山羊皮搭配满满的复古腔调,收纳满分。肩带长度腋下背法非常nice!"},"price":null,"currency":"CNY","moq":1,"category":"hermes-women-bags","status":"active","alibaba_url":null,"images":["https://xcimg.szwego.com/20230716/i1689499629_746_1.jpg","https://xcimg.szwego.com/20230716/i1689499629_9714_0.jpg","https://xcimg.szwego.com/20230716/i1689499629_5228_2.jpg","https://xcimg.szwego.com/20230716/i1689499629_1189_3.jpg","https://xcimg.szwego.com/20230716/i1689499629_6278_4.jpg","https://xcimg.szwego.com/20230716/i1689499629_9941_8.jpg","https://xcimg.szwego.com/20230716/i1689499629_3063_5.jpg","https://xcimg.szwego.com/20230716/i1689499629_9419_6.jpg","https://xcimg.szwego.com/20230716/i1689499629_34_7.jpg"],"created_at":"2024-10-22T04:49:50.801Z"},{"id":"item-587f762ad54e","sku":"_d_X_XWxQ3kpBeXNYOIunfv7GOXJzbTiCZEnuaFQ","name_en":"黑色(金扣)现货:Kelly 内缝 25cm 头层Togo 牛皮,真金电镀五金,配窄宽两根肩带,整个包包和肩带全部都是头层Togo 牛皮","name_cn":"黑色(金扣)现货:Kelly 内缝 25cm 头层Togo 牛皮,真金电镀五金,配窄宽两根肩带,整个包包和肩带全部都是头层Togo 牛皮","specs":{"source":"wsxcme","sourceId":"_d_X_XWxQ3kpBeXNYOIunfv7GOXJzbTiCZEnuaFQ","sourceTagId":76963559,"sourceTagName":"爱马仕/女包","rawTitle":"黑色(金扣)现货:Kelly 内缝 25cm 头层Togo 牛皮,真金电镀五金,配窄宽两根肩带,整个包包和肩带全部都是头层Togo 牛皮"},"price":null,"currency":"CNY","moq":1,"category":"hermes-women-bags","status":"active","alibaba_url":null,"images":["https://xcimg.szwego.com/img/a0e08728/20240331/i1711870220_6608_8.jpg","https://xcimg.szwego.com/img/a0e08728/20240331/i1711870220_6297_0.jpg","https://xcimg.szwego.com/img/a0e08728/20240331/i1711870220_7874_6.jpg","https://xcimg.szwego.com/img/a0e08728/20240331/i1711870220_9254_3.jpg","https://xcimg.szwego.com/img/a0e08728/20240331/i1711870220_4404_7.jpg","https://xcimg.szwego.com/img/a0e08728/20240331/i1711870220_803_5.jpg","https://xcimg.szwego.com/img/a0e08728/20240331/i1711870220_6131_2.jpg","https://xcimg.szwego.com/img/a0e08728/20240331/i1711870220_6554_4.jpg","https://xcimg.szwego.com/img/a0e08728/20240331/i1711870220_1636_1.jpg"],"created_at":"2025-01-20T12:29:05.608Z"},{"id":"item-d7ceb787e28f","sku":"_doooogWZqnkAi56W7GyFIt7e6iVYjRjieGRoTGQ","name_en":"黑色(金扣)bitkin 25,头层togo原厂皮,进口莎菲线,机车王杜克普45度斜针缝制,进口芬尼斯边油手工拉丝工艺,尺寸25*20*,13","name_cn":"黑色(金扣)bitkin 25,头层togo原厂皮,进口莎菲线,机车王杜克普45度斜针缝制,进口芬尼斯边油手工拉丝工艺,尺寸25*20*,13","specs":{"source":"wsxcme","sourceId":"_doooogWZqnkAi56W7GyFIt7e6iVYjRjieGRoTGQ","sourceTagId":76963559,"sourceTagName":"爱马仕/女包","rawTitle":"黑色(金扣)bitkin 25,头层togo原厂皮,进口莎菲线,机车王杜克普45度斜针缝制,进口芬尼斯边油手工拉丝工艺,尺寸25*20*,13"},"price":null,"currency":"CNY","moq":1,"category":"hermes-women-bags","status":"active","alibaba_url":null,"images":["https://xcimg.szwego.com/img/a0e08728/20240827/i1724751413_5804_5.jpg","https://xcimg.szwego.com/img/a0e08728/20240827/i1724751413_8095_2.jpg","https://xcimg.szwego.com/img/a0e08728/20240827/i1724751413_3400_1.jpg","https://xcimg.szwego.com/img/a0e08728/20240827/i1724751413_3721_3.jpg","https://xcimg.szwego.com/img/a0e08728/20240827/i1724751413_4012_0.jpg","https://xcimg.szwego.com/img/a0e08728/20240827/i1724751413_4250_4.jpg","https://xcimg.szwego.com/img/a0e08728/20240827/i1724751413_5803_7.jpg","https://xcimg.szwego.com/img/a0e08728/20240827/i1724751413_5903_6.jpg","https://xcimg.szwego.com/img/a0e08728/20240827/i1724751413_6760_8.jpg"],"created_at":"2025-01-20T12:29:05.606Z"},{"id":"item-aedb51734849","sku":"_dededHT-TRwvTlJdZJrhs5HgzcJqrKdPeAJSysA","name_en":"黑色(银扣)bitkin 25,头层togo原厂皮,进口莎菲线,机车王杜克普45度斜针缝制,进口芬尼斯边油手工拉丝工艺,尺寸25*20*,13","name_cn":"黑色(银扣)bitkin 25,头层togo原厂皮,进口莎菲线,机车王杜克普45度斜针缝制,进口芬尼斯边油手工拉丝工艺,尺寸25*20*,13","specs":{"source":"wsxcme","sourceId":"_dededHT-TRwvTlJdZJrhs5HgzcJqrKdPeAJSysA","sourceTagId":76963559,"sourceTagName":"爱马仕/女包","rawTitle":"黑色(银扣)bitkin 25,头层togo原厂皮,进口莎菲线,机车王杜克普45度斜针缝制,进口芬尼斯边油手工拉丝工艺,尺寸25*20*,13"},"price":null,"currency":"CNY","moq":1,"category":"hermes-women-bags","status":"active","alibaba_url":null,"images":["https://xcimg.szwego.com/img/a0e08728/20240827/i1724754569_9047_7.jpg","https://xcimg.szwego.com/img/a0e08728/20240827/i1724754569_5376_1.jpg","https://xcimg.szwego.com/img/a0e08728/20240827/i1724754569_3454_6.jpg","https://xcimg.szwego.com/img/a0e08728/20240827/i1724754569_7332_4.jpg","https://xcimg.szwego.com/img/a0e08728/20240827/i1724754569_7199_0.jpg","https://xcimg.szwego.com/img/a0e08728/20240827/i1724754569_3038_8.jpg","https://xcimg.szwego.com/img/a0e08728/20240827/i1724754569_3759_2.jpg","https://xcimg.szwego.com/img/a0e08728/20240827/i1724754569_822_3.jpg","https://xcimg.szwego.com/img/a0e08728/20240827/i1724754569_5824_5.jpg"],"created_at":"2025-01-20T12:29:05.607Z"},{"id":"item-a67a859f8e61","sku":"_doLoLXwGcPVUoW1tsjNYPammFLCiDAbgayQsNUQ","name_en":"琥珀黄☀️ Mini Kelly 二代","name_cn":"琥珀黄☀️ Mini Kelly 二代\n• 独家高性价比版本\n• 里外全皮完美机缝\n• Mini包中的霸主\n“麻雀虽小、五脏俱全”🎁 除了可以携带随身所需小物_更可容纳品味 将品味“背着走”。\n现货19Cm 7878000","specs":{"source":"wsxcme","sourceId":"_doLoLXwGcPVUoW1tsjNYPammFLCiDAbgayQsNUQ","sourceTagId":76963559,"sourceTagName":"爱马仕/女包","rawTitle":"琥珀黄☀️ Mini Kelly 二代\n• 独家高性价比版本\n• 里外全皮完美机缝\n• Mini包中的霸主\n“麻雀虽小、五脏俱全”🎁 除了可以携带随身所需小物_更可容纳品味 将品味“背着走”。\n现货19Cm 7878000"},"price":null,"currency":"CNY","moq":1,"category":"hermes-women-bags","status":"active","alibaba_url":null,"images":["https://xcimg.szwego.com/img/b17e98d7/20240420/i1713599220_2002_6.jpg","https://xcimg.szwego.com/img/b17e98d7/20240420/i1713599220_1640_4.jpg","https://xcimg.szwego.com/img/b17e98d7/20240420/i1713599220_1455_2.jpg","https://xcimg.szwego.com/img/b17e98d7/20240420/i1713599220_915_0.jpg","https://xcimg.szwego.com/img/b17e98d7/20240420/i1713599220_5334_5.jpg","https://xcimg.szwego.com/img/b17e98d7/20240420/i1713599220_3143_3.jpg","https://xcimg.szwego.com/img/b17e98d7/20240420/i1713599220_4415_1.jpg","https://xcimg.szwego.com/img/b17e98d7/20240420/i1713599220_3439_7.jpg","https://xcimg.szwego.com/img/b17e98d7/20240420/i1713599220_6500_8.jpg"],"created_at":"2024-10-22T05:04:33.161Z"},{"id":"item-0f478ca9bc52","sku":"_dEwEwPdfojYP5-DPoy61nlMFHOFlG9OTWT6p24Q","name_en":"锦葵紫🌸Mini Kelly 二代","name_cn":"锦葵紫🌸Mini Kelly 二代\n• 独家高性价比版本\n• 里外全皮完美机缝\n• Mini包中的霸主\n“麻雀虽小、五脏俱全”🎁 除了可以携带随身所需小物_更可容纳品味 将品味“背着走”。\n现货19Cm 7878000","specs":{"source":"wsxcme","sourceId":"_dEwEwPdfojYP5-DPoy61nlMFHOFlG9OTWT6p24Q","sourceTagId":76963559,"sourceTagName":"爱马仕/女包","rawTitle":"锦葵紫🌸Mini Kelly 二代\n• 独家高性价比版本\n• 里外全皮完美机缝\n• Mini包中的霸主\n“麻雀虽小、五脏俱全”🎁 除了可以携带随身所需小物_更可容纳品味 将品味“背着走”。\n现货19Cm 7878000"},"price":null,"currency":"CNY","moq":1,"category":"hermes-women-bags","status":"active","alibaba_url":null,"images":["https://xcimg.szwego.com/img/b17e98d7/20240420/i1713603702_2289_8.jpg","https://xcimg.szwego.com/img/b17e98d7/20240420/i1713603702_2206_3.jpg","https://xcimg.szwego.com/img/b17e98d7/20240420/i1713603702_9666_1.jpg","https://xcimg.szwego.com/img/b17e98d7/20240420/i1713603702_1919_7.jpg","https://xcimg.szwego.com/img/b17e98d7/20240420/i1713603702_4570_6.jpg","https://xcimg.szwego.com/img/b17e98d7/20240420/i1713603702_5137_5.jpg","https://xcimg.szwego.com/img/b17e98d7/20240420/i1713603702_8961_2.jpg","https://xcimg.szwego.com/img/b17e98d7/20240420/i1713603702_4762_4.jpg","https://xcimg.szwego.com/img/b17e98d7/20240420/i1713603702_8734_0.jpg"],"created_at":"2024-10-22T05:04:33.158Z"},{"id":"item-a401bc44632e","sku":"_dq_q_o-ZqiSBbPzdavCvb9-RXgMNUQxmaiDAzqA","name_en":"康康19cm 原版epsom皮 奶油白 金扣 订单出货","name_cn":"康康19cm 原版epsom皮 奶油白 金扣 订单出货","specs":{"source":"wsxcme","sourceId":"_dq_q_o-ZqiSBbPzdavCvb9-RXgMNUQxmaiDAzqA","sourceTagId":76963559,"sourceTagName":"爱马仕/女包","rawTitle":"康康19cm 原版epsom皮 奶油白 金扣 订单出货"},"price":null,"currency":"CNY","moq":1,"category":"hermes-women-bags","status":"active","alibaba_url":null,"images":["https://xcimg.szwego.com/20230526/i1685069590_6252_0.jpg","https://xcimg.szwego.com/20230526/i1685069590_9679_1.jpg","https://xcimg.szwego.com/20230526/i1685069590_4024_2.jpg","https://xcimg.szwego.com/20230526/i1685069590_9072_3.jpg","https://xcimg.szwego.com/20230526/i1685069590_9237_4.jpg","https://xcimg.szwego.com/20230526/i1685069590_3921_5.jpg","https://xcimg.szwego.com/20230526/i1685069590_6256_6.jpg","https://xcimg.szwego.com/20230526/i1685069590_3978_7.jpg","https://xcimg.szwego.com/20230526/i1685069590_4667_8.jpg"],"created_at":"2024-10-22T05:00:12.222Z"},{"id":"item-a5db2daf3c0e","sku":"_dyByBgbIUD8FD4zMEj8w5rvd9WnyEpqsGg4vXOw","name_en":"可半手工 蜜蜡缝线  ❤️ Kelly 25cm epsom 黑色 金银扣 现货❤️","name_cn":"可半手工 蜜蜡缝线  ❤️ Kelly 25cm epsom 黑色 金银扣 现货❤️","specs":{"source":"wsxcme","sourceId":"_dyByBgbIUD8FD4zMEj8w5rvd9WnyEpqsGg4vXOw","sourceTagId":76963559,"sourceTagName":"爱马仕/女包","rawTitle":"可半手工 蜜蜡缝线  ❤️ Kelly 25cm epsom 黑色 金银扣 现货❤️"},"price":null,"currency":"CNY","moq":1,"category":"hermes-women-bags","status":"active","alibaba_url":null,"images":["https://xcimg.szwego.com/20211015/i1634288109_1791_0.jpg","https://xcimg.szwego.com/20211015/i1634288109_7680_1.jpg","https://xcimg.szwego.com/20211015/i1634288109_2319_2.jpg","https://xcimg.szwego.com/20211015/i1634288109_9026_3.jpg","https://xcimg.szwego.com/20211015/i1634288109_4943_4.jpg","https://xcimg.szwego.com/20211015/i1634288109_1414_5.jpg","https://xcimg.szwego.com/20211015/i1634288109_2533_6.jpg","https://xcimg.szwego.com/20211015/i1634288109_5911_7.jpg","https://xcimg.szwego.com/20211015/i1634288109_8166_8.jpg"],"created_at":"2026-06-29T12:59:35.964Z"},{"id":"item-f3793528316f","sku":"_dMgMgVPwDMZ98Hr3eTqUx3NoY085Mx3JsEENxYQ","name_en":"牛油果绿🥑Mini Kelly 二代","name_cn":"牛油果绿🥑Mini Kelly 二代\n• 独家高性价比版本\n• 里外全皮完美机缝\n• Mini包中的霸主\n“麻雀虽小、五脏俱全”🎁 除了可以携带随身所需小物_更可容纳品味 将品味“背着走”。\n现货19Cm 7878000","specs":{"source":"wsxcme","sourceId":"_dMgMgVPwDMZ98Hr3eTqUx3NoY085Mx3JsEENxYQ","sourceTagId":76963559,"sourceTagName":"爱马仕/女包","rawTitle":"牛油果绿🥑Mini Kelly 二代\n• 独家高性价比版本\n• 里外全皮完美机缝\n• Mini包中的霸主\n“麻雀虽小、五脏俱全”🎁 除了可以携带随身所需小物_更可容纳品味 将品味“背着走”。\n现货19Cm 7878000"},"price":null,"currency":"CNY","moq":1,"category":"hermes-women-bags","status":"active","alibaba_url":null,"images":["https://xcimg.szwego.com/img/b17e98d7/20240420/i1713605070_9193_4.jpg","https://xcimg.szwego.com/img/b17e98d7/20240420/i1713605070_279_0.jpg","https://xcimg.szwego.com/img/b17e98d7/20240420/i1713605070_6522_1.jpg","https://xcimg.szwego.com/img/b17e98d7/20240420/i1713605070_8991_2.jpg","https://xcimg.szwego.com/img/b17e98d7/20240420/i1713605071_2251_8.jpg","https://xcimg.szwego.com/img/b17e98d7/20240420/i1713605070_5336_5.jpg","https://xcimg.szwego.com/img/b17e98d7/20240420/i1713605070_4088_3.jpg","https://xcimg.szwego.com/img/b17e98d7/20240420/i1713605071_9833_7.jpg","https://xcimg.szwego.com/img/b17e98d7/20240420/i1713605070_9849_6.jpg"],"created_at":"2024-10-22T05:04:33.163Z"},{"id":"item-22e80d4858d2","sku":"_ddfdfZqCKBRWYKkoQ8noM9T-1AvoDFWtVrcQKDg","name_en":"全手缝👉Garden part(花园包)30cm 进口TC拼密织布 黑色/米白","name_cn":"全手缝👉Garden part(花园包)30cm 进口TC拼密织布 黑色/米白","specs":{"source":"wsxcme","sourceId":"_ddfdfZqCKBRWYKkoQ8noM9T-1AvoDFWtVrcQKDg","sourceTagId":76963559,"sourceTagName":"爱马仕/女包","rawTitle":"全手缝👉Garden part(花园包)30cm 进口TC拼密织布 黑色/米白"},"price":null,"currency":"CNY","moq":1,"category":"hermes-women-bags","status":"active","alibaba_url":null,"images":["https://xcimg.szwego.com/20230818/i1692334200_7663_0.jpg","https://xcimg.szwego.com/20230818/i1692334200_4911_1.jpg","https://xcimg.szwego.com/20230818/i1692334200_2633_2.jpg","https://xcimg.szwego.com/20230818/i1692334200_9189_3.jpg","https://xcimg.szwego.com/20230818/i1692334200_8582_4.jpg","https://xcimg.szwego.com/20230818/i1692334200_3497_5.jpg","https://xcimg.szwego.com/20230818/i1692334200_715_6.jpg","https://xcimg.szwego.com/20230818/i1692334200_6362_7.jpg","https://xcimg.szwego.com/20230818/i1692334200_3327_8.jpg"],"created_at":"2024-10-22T05:00:12.155Z"}],"page":7,"pageSize":24,"total":439,"totalPages":19}
