{"items":[{"id":"item-90ca91096193","sku":"_dHVHVAVMn1pNW0qwF-S9xwQnlwC3EwPc96HE4dA","name_en":"细节po","name_cn":"细节po","specs":{"source":"wsxcme","sourceId":"_dHVHVAVMn1pNW0qwF-S9xwQnlwC3EwPc96HE4dA","sourceTagId":47002761,"sourceTagName":"圣罗兰/女包","rawTitle":"细节po"},"price":null,"currency":"CNY","moq":1,"category":"ysl-women-bags","status":"active","alibaba_url":null,"images":["https://xcimg.szwego.com/img/f8c0bdc9/20240401/i1711964890_6001_4.jpg","https://xcimg.szwego.com/img/f8c0bdc9/20240401/i1711964890_5483_3.jpg","https://xcimg.szwego.com/img/f8c0bdc9/20240401/i1711964890_8159_2.jpg","https://xcimg.szwego.com/img/f8c0bdc9/20240401/i1711964889_6310_0.jpg","https://xcimg.szwego.com/img/f8c0bdc9/20240401/i1711964890_2643_1.jpg"],"created_at":"2026-05-20T04:01:39.123Z"},{"id":"item-3d662160813d","sku":"_dzRzRcdqBJTb4B82k3MuBRSisiEERcC6PuNhdGQ","name_en":"CALYPSO_大象纹羊皮链条包","name_cn":"CALYPSO_大象纹羊皮链条包\n进口意大利羊皮制作,手感柔软细腻,经典的Y家logo、链条及扣眼五金均采用巴金哑光五金,包袋开口处折叠后使用了磁性四合扣封口,密闭性及安全性一流;包内设有一个拉链内袋可放置手机及贵重物品,除此之外无多余内袋设计,使用起来随心所欲!\n尺寸:26×14×7cm\n型号:734153","specs":{"source":"wsxcme","sourceId":"_dzRzRcdqBJTb4B82k3MuBRSisiEERcC6PuNhdGQ","sourceTagId":47002761,"sourceTagName":"圣罗兰/女包","modelNumber":"734153","dimensions":{"lengthCm":26,"heightCm":14,"widthCm":7},"rawTitle":"CALYPSO_大象纹羊皮链条包\n进口意大利羊皮制作,手感柔软细腻,经典的Y家logo、链条及扣眼五金均采用巴金哑光五金,包袋开口处折叠后使用了磁性四合扣封口,密闭性及安全性一流;包内设有一个拉链内袋可放置手机及贵重物品,除此之外无多余内袋设计,使用起来随心所欲!\n尺寸:26×14×7cm\n型号:734153"},"price":null,"currency":"CNY","moq":1,"category":"ysl-women-bags","status":"active","alibaba_url":null,"images":["https://xcimg.szwego.com/img/f8c0bdc9/20240401/i1711964864_8826_4.jpg","https://xcimg.szwego.com/img/f8c0bdc9/20240401/i1711964864_7204_5.jpg","https://xcimg.szwego.com/img/f8c0bdc9/20240401/i1711964864_5408_7.jpg","https://xcimg.szwego.com/img/f8c0bdc9/20240401/i1711964864_2549_3.jpg","https://xcimg.szwego.com/img/f8c0bdc9/20240401/i1711964864_1577_6.jpg","https://xcimg.szwego.com/img/f8c0bdc9/20240401/i1711964864_3088_2.jpg","https://xcimg.szwego.com/img/f8c0bdc9/20240401/i1711964864_8257_8.jpg","https://xcimg.szwego.com/img/f8c0bdc9/20240401/i1711964864_9257_0.jpg","https://xcimg.szwego.com/img/f8c0bdc9/20240401/i1711964864_4291_1.jpg"],"created_at":"2026-05-20T04:01:39.113Z"},{"id":"item-e384b96ed904","sku":"_dgcgcyoVkc2qNawwyxQy-6r5jFchYiR3yLesaBQ","name_en":"Saint Laurent Women Bags","name_cn":"官网图_","specs":{"source":"wsxcme","sourceId":"_dgcgcyoVkc2qNawwyxQy-6r5jFchYiR3yLesaBQ","sourceTagId":47002761,"sourceTagName":"圣罗兰/女包","rawTitle":"官网图_"},"price":null,"currency":"CNY","moq":1,"category":"ysl-women-bags","status":"active","alibaba_url":null,"images":["https://xcimg.szwego.com/img/f8c0bdc9/20240904/i1725443934_5915_1.jpg","https://xcimg.szwego.com/img/f8c0bdc9/20240904/i1725443934_54_5.jpg","https://xcimg.szwego.com/img/f8c0bdc9/20240904/i1725443934_9603_0.jpg","https://xcimg.szwego.com/img/f8c0bdc9/20240904/i1725443934_9111_3.jpg","https://xcimg.szwego.com/img/f8c0bdc9/20240904/i1725443934_5476_2.jpg","https://xcimg.szwego.com/img/f8c0bdc9/20240904/i1725443934_152_4.jpg"],"created_at":"2026-05-20T04:01:39.103Z"},{"id":"item-609e324a240d","sku":"_druruhD6D1ze1Cnhay64Ph40YLAQZIn8uyuSsOA","name_en":"Saint Laurent Women Bags","name_cn":"大表姐同款#","specs":{"source":"wsxcme","sourceId":"_druruhD6D1ze1Cnhay64Ph40YLAQZIn8uyuSsOA","sourceTagId":47002761,"sourceTagName":"圣罗兰/女包","rawTitle":"大表姐同款#"},"price":null,"currency":"CNY","moq":1,"category":"ysl-women-bags","status":"active","alibaba_url":null,"images":["https://xcimg.szwego.com/img/f8c0bdc9/20240904/i1725443914_9777_0.jpg"],"created_at":"2026-05-20T04:01:39.093Z"},{"id":"item-692425f9bad5","sku":"_dmNmN26I1JuObC1uAaXiYc35e0d4TgeCIWhaaTA","name_en":"Saint Laurent Women Bags","name_cn":"温柔随性的奶茶色","specs":{"source":"wsxcme","sourceId":"_dmNmN26I1JuObC1uAaXiYc35e0d4TgeCIWhaaTA","sourceTagId":47002761,"sourceTagName":"圣罗兰/女包","rawTitle":"温柔随性的奶茶色"},"price":null,"currency":"CNY","moq":1,"category":"ysl-women-bags","status":"active","alibaba_url":null,"images":["https://xcimg.szwego.com/img/f8c0bdc9/20240904/i1725435124_6044_0.jpg","https://xcimg.szwego.com/img/f8c0bdc9/20240904/i1725435124_8629_3.jpg","https://xcimg.szwego.com/img/f8c0bdc9/20240904/i1725435124_3189_2.jpg","https://xcimg.szwego.com/img/f8c0bdc9/20240904/i1725435124_3150_4.jpg","https://xcimg.szwego.com/img/f8c0bdc9/20240904/i1725435124_4414_1.jpg"],"created_at":"2026-05-20T04:01:39.083Z"},{"id":"item-129b17d960a4","sku":"_dC-C-mWuRvjOU1_jE5ZnlB41ph8X9xAQwbc06qg","name_en":"细节po","name_cn":"细节po","specs":{"source":"wsxcme","sourceId":"_dC-C-mWuRvjOU1_jE5ZnlB41ph8X9xAQwbc06qg","sourceTagId":47002761,"sourceTagName":"圣罗兰/女包","rawTitle":"细节po"},"price":null,"currency":"CNY","moq":1,"category":"ysl-women-bags","status":"active","alibaba_url":null,"images":["https://xcimg.szwego.com/img/f8c0bdc9/20240904/i1725435108_7634_1.jpg","https://xcimg.szwego.com/img/f8c0bdc9/20240904/i1725435108_9879_3.jpg","https://xcimg.szwego.com/img/f8c0bdc9/20240904/i1725435108_7251_4.jpg","https://xcimg.szwego.com/img/f8c0bdc9/20240904/i1725435108_1318_5.jpg","https://xcimg.szwego.com/img/f8c0bdc9/20240904/i1725435108_3506_2.jpg","https://xcimg.szwego.com/img/f8c0bdc9/20240904/i1725435108_9027_0.jpg"],"created_at":"2026-05-20T04:01:39.073Z"},{"id":"item-3f82528d5935","sku":"_dD2D2Cdcf34Pq24YESfcgoDqYFaax4VoS6SuL9w","name_en":"Saint Laurent Women Bags","name_cn":"浅土黄·\nCALYPSO_小羊皮链条包\n进口意大利小羊皮制作,手感柔软细腻,经典的Y家logo、链条及扣眼五金均采用巴金哑光五金,包袋开口处折叠后使用了磁性四合扣封口,密闭性及安全性一流;包内设有一个拉链内袋可放置手机及贵重物品,除此之外无多余内袋设计,使用起来随心所欲!\n尺寸:26×14×7cm\n型号:734153","specs":{"source":"wsxcme","sourceId":"_dD2D2Cdcf34Pq24YESfcgoDqYFaax4VoS6SuL9w","sourceTagId":47002761,"sourceTagName":"圣罗兰/女包","modelNumber":"734153","dimensions":{"lengthCm":26,"heightCm":14,"widthCm":7},"rawTitle":"浅土黄·\nCALYPSO_小羊皮链条包\n进口意大利小羊皮制作,手感柔软细腻,经典的Y家logo、链条及扣眼五金均采用巴金哑光五金,包袋开口处折叠后使用了磁性四合扣封口,密闭性及安全性一流;包内设有一个拉链内袋可放置手机及贵重物品,除此之外无多余内袋设计,使用起来随心所欲!\n尺寸:26×14×7cm\n型号:734153"},"price":null,"currency":"CNY","moq":1,"category":"ysl-women-bags","status":"active","alibaba_url":null,"images":["https://xcimg.szwego.com/img/f8c0bdc9/20240904/i1725434971_4469_0.jpg","https://xcimg.szwego.com/img/f8c0bdc9/20240904/i1725434971_5556_1.jpg","https://xcimg.szwego.com/img/f8c0bdc9/20240904/i1725434971_3569_7.jpg","https://xcimg.szwego.com/img/f8c0bdc9/20240904/i1725434971_863_5.jpg","https://xcimg.szwego.com/img/f8c0bdc9/20240904/i1725434971_5820_4.jpg","https://xcimg.szwego.com/img/f8c0bdc9/20240904/i1725434971_5705_2.jpg","https://xcimg.szwego.com/img/f8c0bdc9/20240904/i1725434971_53_6.jpg","https://xcimg.szwego.com/img/f8c0bdc9/20240904/i1725434971_603_3.jpg","https://xcimg.szwego.com/img/f8c0bdc9/20240904/i1725434971_5661_8.jpg"],"created_at":"2026-05-20T04:01:39.063Z"},{"id":"item-3a82dfb84f28","sku":"_doqoqSSr52_bqjKcsyv-UE5s8lQ0SyYRjTUrzgA","name_en":"Saint Laurent Women Bags","name_cn":"金色链条拼皮肩带\n可以单肩or腋下背 很随性优雅","specs":{"source":"wsxcme","sourceId":"_doqoqSSr52_bqjKcsyv-UE5s8lQ0SyYRjTUrzgA","sourceTagId":47002761,"sourceTagName":"圣罗兰/女包","rawTitle":"金色链条拼皮肩带\n可以单肩or腋下背 很随性优雅"},"price":null,"currency":"CNY","moq":1,"category":"ysl-women-bags","status":"active","alibaba_url":null,"images":["https://xcimg.szwego.com/imgHD/f8c0bdc9/20250328/cmp_i1743147960804_6810_0_0.jpg","https://xcimg.szwego.com/imgHD/f8c0bdc9/20250328/cmp_i1743147960828_8346_0_1.jpg","https://xcimg.szwego.com/imgHD/f8c0bdc9/20250328/cmp_i1743147960785_1265_0_2.jpg","https://xcimg.szwego.com/imgHD/f8c0bdc9/20250328/cmp_i1743147960839_9597_0_3.jpg"],"created_at":"2026-05-20T04:01:39.053Z"},{"id":"item-30c703f27517","sku":"_dOoOo4bkk8Mw18Lmf7cA0d0YxIozofROmC0UUCA","name_en":"细节po","name_cn":"细节po","specs":{"source":"wsxcme","sourceId":"_dOoOo4bkk8Mw18Lmf7cA0d0YxIozofROmC0UUCA","sourceTagId":47002761,"sourceTagName":"圣罗兰/女包","rawTitle":"细节po"},"price":null,"currency":"CNY","moq":1,"category":"ysl-women-bags","status":"active","alibaba_url":null,"images":["https://xcimg.szwego.com/imgHD/f8c0bdc9/20250328/cmp_i1743147943911_6120_0_0.jpg","https://xcimg.szwego.com/imgHD/f8c0bdc9/20250328/cmp_i1743147943879_5782_0_1.jpg","https://xcimg.szwego.com/imgHD/f8c0bdc9/20250328/cmp_i1743147945542_249_0_2.jpg","https://xcimg.szwego.com/imgHD/f8c0bdc9/20250328/cmp_i1743147943940_5705_0_3.jpg","https://xcimg.szwego.com/imgHD/f8c0bdc9/20250328/cmp_i1743147943263_6312_0_4.jpg","https://xcimg.szwego.com/imgHD/f8c0bdc9/20250328/cmp_i1743147945063_7858_0_5.jpg","https://xcimg.szwego.com/imgHD/f8c0bdc9/20250328/cmp_i1743147942758_8229_0_6.jpg"],"created_at":"2026-05-20T04:01:39.043Z"},{"id":"item-8a90110aa2f9","sku":"_dIiIivW0-8BKmdcqvTjLdq5DYE46rpeIz78i_vw","name_en":"Saint Laurent Women Bags","name_cn":"官网图_","specs":{"source":"wsxcme","sourceId":"_dIiIivW0-8BKmdcqvTjLdq5DYE46rpeIz78i_vw","sourceTagId":47002761,"sourceTagName":"圣罗兰/女包","rawTitle":"官网图_"},"price":null,"currency":"CNY","moq":1,"category":"ysl-women-bags","status":"active","alibaba_url":null,"images":["https://xcimg.szwego.com/img/c8ebba50/20240326/i1711450813_2243_2.jpg","https://xcimg.szwego.com/img/c8ebba50/20240326/i1711450813_686_5.jpg","https://xcimg.szwego.com/img/c8ebba50/20240326/i1711450813_3142_1.jpg","https://xcimg.szwego.com/img/c8ebba50/20240326/i1711450813_5969_4.jpg","https://xcimg.szwego.com/img/c8ebba50/20240326/i1711450813_6258_0.jpg","https://xcimg.szwego.com/img/c8ebba50/20240326/i1711450813_8747_3.jpg"],"created_at":"2026-05-20T04:01:39.033Z"},{"id":"item-b7c3c86ddc55","sku":"_d8n8npKsh46cc6Nn2l1ML5LaKgViPs7mjvuJGXA","name_en":"Saint Laurent Women Bags","name_cn":"随拍上身参考_","specs":{"source":"wsxcme","sourceId":"_d8n8npKsh46cc6Nn2l1ML5LaKgViPs7mjvuJGXA","sourceTagId":47002761,"sourceTagName":"圣罗兰/女包","rawTitle":"随拍上身参考_"},"price":null,"currency":"CNY","moq":1,"category":"ysl-women-bags","status":"active","alibaba_url":null,"images":["https://xcimg.szwego.com/img/c8ebba50/20240326/i1711443539_4321_3.jpg","https://xcimg.szwego.com/img/c8ebba50/20240326/i1711443539_7290_2.jpg","https://xcimg.szwego.com/img/c8ebba50/20240326/i1711443539_5637_4.jpg","https://xcimg.szwego.com/img/c8ebba50/20240326/i1711443539_9236_0.jpg","https://xcimg.szwego.com/img/c8ebba50/20240326/i1711443539_399_1.jpg"],"created_at":"2026-05-20T04:01:39.023Z"},{"id":"item-1af792ad050b","sku":"_dnbnb-k9ronBZqqQzim0DMD1UvNe4sJw56Fu2FQ","name_en":"细节po","name_cn":"细节po","specs":{"source":"wsxcme","sourceId":"_dnbnb-k9ronBZqqQzim0DMD1UvNe4sJw56Fu2FQ","sourceTagId":47002761,"sourceTagName":"圣罗兰/女包","rawTitle":"细节po"},"price":null,"currency":"CNY","moq":1,"category":"ysl-women-bags","status":"active","alibaba_url":null,"images":["https://xcimg.szwego.com/img/c8ebba50/20240326/i1711443528_7473_0.jpg","https://xcimg.szwego.com/img/c8ebba50/20240326/i1711443529_7918_3.jpg","https://xcimg.szwego.com/img/c8ebba50/20240326/i1711443529_5739_2.jpg","https://xcimg.szwego.com/img/c8ebba50/20240326/i1711443529_7997_1.jpg"],"created_at":"2026-05-20T04:01:39.013Z"},{"id":"item-01c1ead46ff4","sku":"_djojo0Eb6ctBXwDyEEoFf-80BxV-hwv9M6kbimw","name_en":"CALYPSO_小羊皮链条包","name_cn":"CALYPSO_小羊皮链条包\n进口意大利小羊皮制作,手感柔软细腻,经典的Y家logo、链条及扣眼五金均采用巴金哑光五金,包袋开口处折叠后使用了磁性四合扣封口,密闭性及安全性一流;包内设有一个拉链内袋可放置手机及贵重物品,除此之外无多余内袋设计,使用起来随心所欲!\n尺寸:26×14×7cm\n型号:734153","specs":{"source":"wsxcme","sourceId":"_djojo0Eb6ctBXwDyEEoFf-80BxV-hwv9M6kbimw","sourceTagId":47002761,"sourceTagName":"圣罗兰/女包","modelNumber":"734153","dimensions":{"lengthCm":26,"heightCm":14,"widthCm":7},"rawTitle":"CALYPSO_小羊皮链条包\n进口意大利小羊皮制作,手感柔软细腻,经典的Y家logo、链条及扣眼五金均采用巴金哑光五金,包袋开口处折叠后使用了磁性四合扣封口,密闭性及安全性一流;包内设有一个拉链内袋可放置手机及贵重物品,除此之外无多余内袋设计,使用起来随心所欲!\n尺寸:26×14×7cm\n型号:734153"},"price":null,"currency":"CNY","moq":1,"category":"ysl-women-bags","status":"active","alibaba_url":null,"images":["https://xcimg.szwego.com/img/c8ebba50/20240326/i1711443501_4480_3.jpg","https://xcimg.szwego.com/img/c8ebba50/20240326/i1711443501_8998_1.jpg","https://xcimg.szwego.com/img/c8ebba50/20240326/i1711443501_5334_5.jpg","https://xcimg.szwego.com/img/c8ebba50/20240326/i1711443501_6172_4.jpg","https://xcimg.szwego.com/img/c8ebba50/20240326/i1711443501_907_8.jpg","https://xcimg.szwego.com/img/c8ebba50/20240326/i1711443501_9872_6.jpg","https://xcimg.szwego.com/img/c8ebba50/20240326/i1711443501_5965_2.jpg","https://xcimg.szwego.com/img/c8ebba50/20240326/i1711443501_14_7.jpg","https://xcimg.szwego.com/img/c8ebba50/20240326/i1711443501_4811_0.jpg"],"created_at":"2026-05-20T04:01:39.003Z"},{"id":"item-35b115535209","sku":"_d33339UU6t5Wl_boCpSeDLxLb1I2h7KpFb35Ycg","name_en":"以希腊神话人物海上女神命名的calypso","name_cn":"以希腊神话人物海上女神命名的calypso\n自带高级气场","specs":{"source":"wsxcme","sourceId":"_d33339UU6t5Wl_boCpSeDLxLb1I2h7KpFb35Ycg","sourceTagId":47002761,"sourceTagName":"圣罗兰/女包","rawTitle":"以希腊神话人物海上女神命名的calypso\n自带高级气场"},"price":null,"currency":"CNY","moq":1,"category":"ysl-women-bags","status":"active","alibaba_url":null,"images":["https://xcimg.szwego.com/imgHD/f8c0bdc9/20250712/cmp_i1752302981523_1492_0_0.jpg","https://xcimg.szwego.com/imgHD/f8c0bdc9/20250712/cmp_i1752302981506_6765_0_1.jpg","https://xcimg.szwego.com/imgHD/f8c0bdc9/20250712/cmp_i1752302981500_7694_0_2.jpg","https://xcimg.szwego.com/imgHD/f8c0bdc9/20250712/cmp_i1752302981535_1879_0_3.jpg","https://xcimg.szwego.com/imgHD/f8c0bdc9/20250712/cmp_i1752302981512_9150_0_4.jpg"],"created_at":"2026-05-20T04:01:38.993Z"},{"id":"item-16084b210447","sku":"_d1p1pS20QTQhJJN2gU33GKrvrtFISPQ_djGUEig","name_en":"细节po","name_cn":"细节po","specs":{"source":"wsxcme","sourceId":"_d1p1pS20QTQhJJN2gU33GKrvrtFISPQ_djGUEig","sourceTagId":47002761,"sourceTagName":"圣罗兰/女包","rawTitle":"细节po"},"price":null,"currency":"CNY","moq":1,"category":"ysl-women-bags","status":"active","alibaba_url":null,"images":["https://xcimg.szwego.com/imgHD/f8c0bdc9/20250712/cmp_i1752302911007_5231_0_0.jpg","https://xcimg.szwego.com/imgHD/f8c0bdc9/20250712/cmp_i1752302911306_7683_0_1.jpg","https://xcimg.szwego.com/imgHD/f8c0bdc9/20250712/cmp_i1752302912538_3131_0_2.jpg","https://xcimg.szwego.com/imgHD/f8c0bdc9/20250712/cmp_i1752302910838_1352_0_3.jpg","https://xcimg.szwego.com/imgHD/f8c0bdc9/20250712/cmp_i1752302913179_4301_0_4.jpg","https://xcimg.szwego.com/imgHD/f8c0bdc9/20250712/cmp_i1752302913237_8685_0_5.jpg","https://xcimg.szwego.com/imgHD/f8c0bdc9/20250712/cmp_i1752302912747_3971_0_6.jpg","https://xcimg.szwego.com/imgHD/f8c0bdc9/20250712/cmp_i1752302910885_6717_0_7.jpg","https://xcimg.szwego.com/imgHD/f8c0bdc9/20250712/cmp_i1752302910862_7112_0_8.jpg"],"created_at":"2026-05-20T04:01:38.983Z"},{"id":"item-deb00d3ab83e","sku":"_dznznNdmOL4WRQFaRuapMjLU0v4_i6RLp7NXxIw","name_en":"Saint Laurent Women Bags","name_cn":"麂皮款·\nCALYPSO_麂皮链条包\n进口意大利麂皮制作,手感柔软细腻,经典的Y家logo、链条及扣眼五金均采用巴金哑光五金,包袋开口处折叠后使用了磁性四合扣封口,密闭性及安全性一流;包内设有一个拉链内袋可放置手机及贵重物品,除此之外无多余内袋设计,使用起来随心所欲!\n尺寸:38×21×10cm\n型号:777399","specs":{"source":"wsxcme","sourceId":"_dznznNdmOL4WRQFaRuapMjLU0v4_i6RLp7NXxIw","sourceTagId":47002761,"sourceTagName":"圣罗兰/女包","modelNumber":"777399","dimensions":{"lengthCm":38,"heightCm":21,"widthCm":10},"rawTitle":"麂皮款·\nCALYPSO_麂皮链条包\n进口意大利麂皮制作,手感柔软细腻,经典的Y家logo、链条及扣眼五金均采用巴金哑光五金,包袋开口处折叠后使用了磁性四合扣封口,密闭性及安全性一流;包内设有一个拉链内袋可放置手机及贵重物品,除此之外无多余内袋设计,使用起来随心所欲!\n尺寸:38×21×10cm\n型号:777399"},"price":null,"currency":"CNY","moq":1,"category":"ysl-women-bags","status":"active","alibaba_url":null,"images":["https://xcimg.szwego.com/imgHD/f8c0bdc9/20250712/cmp_i1752302825964_2238_0_0.jpg","https://xcimg.szwego.com/imgHD/f8c0bdc9/20250712/cmp_i1752302822936_1520_0_1.jpg","https://xcimg.szwego.com/imgHD/f8c0bdc9/20250712/cmp_i1752302822956_751_0_2.jpg","https://xcimg.szwego.com/imgHD/f8c0bdc9/20250712/cmp_i1752302826040_9265_0_3.jpg","https://xcimg.szwego.com/imgHD/f8c0bdc9/20250712/cmp_i1752302823288_837_0_4.jpg","https://xcimg.szwego.com/imgHD/f8c0bdc9/20250712/cmp_i1752302826202_5346_0_5.jpg","https://xcimg.szwego.com/imgHD/f8c0bdc9/20250712/cmp_i1752302823327_172_0_6.jpg","https://xcimg.szwego.com/imgHD/f8c0bdc9/20250712/cmp_i1752302826610_9466_0_7.jpg","https://xcimg.szwego.com/imgHD/f8c0bdc9/20250712/cmp_i1752302822902_4565_0_8.jpg"],"created_at":"2026-05-20T04:01:38.973Z"},{"id":"item-a877272d61fd","sku":"_dzzzzQQEj2je-HnMBm861HAe3S8Cw7bo0xzT-AA","name_en":"Saint Laurent Women Bags","name_cn":"随拍上身参考_","specs":{"source":"wsxcme","sourceId":"_dzzzzQQEj2je-HnMBm861HAe3S8Cw7bo0xzT-AA","sourceTagId":47002761,"sourceTagName":"圣罗兰/女包","rawTitle":"随拍上身参考_"},"price":null,"currency":"CNY","moq":1,"category":"ysl-women-bags","status":"active","alibaba_url":null,"images":["https://xcimg.szwego.com/img/f8c0bdc9/20231225/i1703504880_4939_0.jpg","https://xcimg.szwego.com/img/f8c0bdc9/20231225/i1703504880_2965_1.jpg","https://xcimg.szwego.com/img/f8c0bdc9/20231225/i1703504880_4591_2.jpg","https://xcimg.szwego.com/img/f8c0bdc9/20231225/i1703504880_9478_3.jpg","https://xcimg.szwego.com/img/f8c0bdc9/20231225/i1703504880_5354_4.jpg","https://xcimg.szwego.com/img/f8c0bdc9/20231225/i1703504880_8329_5.jpg","https://xcimg.szwego.com/img/f8c0bdc9/20231225/i1703504880_4253_6.jpg"],"created_at":"2026-05-20T04:01:38.963Z"},{"id":"item-7982cc835af3","sku":"_dtdtdh2jm5BTBVVB8gdZn5YDoru0OuMHekQIYNA","name_en":"细节po","name_cn":"细节po","specs":{"source":"wsxcme","sourceId":"_dtdtdh2jm5BTBVVB8gdZn5YDoru0OuMHekQIYNA","sourceTagId":47002761,"sourceTagName":"圣罗兰/女包","rawTitle":"细节po"},"price":null,"currency":"CNY","moq":1,"category":"ysl-women-bags","status":"active","alibaba_url":null,"images":["https://xcimg.szwego.com/img/f8c0bdc9/20231225/i1703504866_1687_0.jpg","https://xcimg.szwego.com/img/f8c0bdc9/20231225/i1703504866_1096_1.jpg","https://xcimg.szwego.com/img/f8c0bdc9/20231225/i1703504866_9253_2.jpg","https://xcimg.szwego.com/img/f8c0bdc9/20231225/i1703504866_2613_3.jpg","https://xcimg.szwego.com/img/f8c0bdc9/20231225/i1703504866_4846_4.jpg","https://xcimg.szwego.com/img/f8c0bdc9/20231225/i1703504866_4819_5.jpg","https://xcimg.szwego.com/img/f8c0bdc9/20231225/i1703504866_2767_6.jpg","https://xcimg.szwego.com/img/f8c0bdc9/20231225/i1703504866_3253_7.jpg"],"created_at":"2026-05-20T04:01:38.953Z"},{"id":"item-8f2afe2ae1a3","sku":"_d2f2f3UNRJsHQxrup-TiAK4Zg75G2K_lvkrCETA","name_en":"CALYPSO_大象纹羊皮链条包","name_cn":"CALYPSO_大象纹羊皮链条包\n进口意大利小羊皮制作,手感柔软细腻,经典的Y家logo、链条及扣眼五金均采用巴金哑光五金,包袋开口处折叠后使用了磁性四合扣封口,密闭性及安全性一流;包内设有一个拉链内袋可放置手机及贵重物品,除此之外无多余内袋设计,使用起来随心所欲!\n尺寸:35.5×21×9cm\n型号:777399","specs":{"source":"wsxcme","sourceId":"_d2f2f3UNRJsHQxrup-TiAK4Zg75G2K_lvkrCETA","sourceTagId":47002761,"sourceTagName":"圣罗兰/女包","modelNumber":"777399","dimensions":{"lengthCm":35.5,"heightCm":21,"widthCm":9},"rawTitle":"CALYPSO_大象纹羊皮链条包\n进口意大利小羊皮制作,手感柔软细腻,经典的Y家logo、链条及扣眼五金均采用巴金哑光五金,包袋开口处折叠后使用了磁性四合扣封口,密闭性及安全性一流;包内设有一个拉链内袋可放置手机及贵重物品,除此之外无多余内袋设计,使用起来随心所欲!\n尺寸:35.5×21×9cm\n型号:777399"},"price":null,"currency":"CNY","moq":1,"category":"ysl-women-bags","status":"active","alibaba_url":null,"images":["https://xcimg.szwego.com/img/f8c0bdc9/20231225/i1703504849_1937_0.jpg","https://xcimg.szwego.com/img/f8c0bdc9/20231225/i1703504849_5718_1.jpg","https://xcimg.szwego.com/img/f8c0bdc9/20231225/i1703504849_8482_2.jpg","https://xcimg.szwego.com/img/f8c0bdc9/20231225/i1703504849_7796_3.jpg","https://xcimg.szwego.com/img/f8c0bdc9/20231225/i1703504849_7077_4.jpg","https://xcimg.szwego.com/img/f8c0bdc9/20231225/i1703504849_1845_5.jpg","https://xcimg.szwego.com/img/f8c0bdc9/20231225/i1703504849_981_6.jpg","https://xcimg.szwego.com/img/f8c0bdc9/20231225/i1703504849_6224_7.jpg","https://xcimg.szwego.com/img/f8c0bdc9/20231225/i1703504849_7859_8.jpg"],"created_at":"2026-05-20T04:01:38.943Z"},{"id":"item-dab44fe1529c","sku":"_dPMPMGFuoocj7AdiBWRzTkQKNCPj83hlMt7Vvjw","name_en":"Saint Laurent Women Bags","name_cn":"软糯且有肌理感的羊皮材质 松弛慵懒感拉满","specs":{"source":"wsxcme","sourceId":"_dPMPMGFuoocj7AdiBWRzTkQKNCPj83hlMt7Vvjw","sourceTagId":47002761,"sourceTagName":"圣罗兰/女包","rawTitle":"软糯且有肌理感的羊皮材质 松弛慵懒感拉满"},"price":null,"currency":"CNY","moq":1,"category":"ysl-women-bags","status":"active","alibaba_url":null,"images":["https://xcimg.szwego.com/img/f8c0bdc9/20240515/i1715779039_6548_4.jpg","https://xcimg.szwego.com/img/f8c0bdc9/20240515/i1715779039_1031_3.jpg","https://xcimg.szwego.com/img/f8c0bdc9/20240515/i1715779039_6512_1.jpg","https://xcimg.szwego.com/img/f8c0bdc9/20240515/i1715779039_4168_2.jpg","https://xcimg.szwego.com/img/f8c0bdc9/20240515/i1715779039_3012_0.jpg"],"created_at":"2026-05-20T04:01:38.933Z"},{"id":"item-121d0d1c14cf","sku":"_d_l_le4E1U-ta_Ju4-NM2asNXoWbQ0q_pYMnpeg","name_en":"Zp图_","name_cn":"Zp图_","specs":{"source":"wsxcme","sourceId":"_d_l_le4E1U-ta_Ju4-NM2asNXoWbQ0q_pYMnpeg","sourceTagId":47002761,"sourceTagName":"圣罗兰/女包","rawTitle":"Zp图_"},"price":null,"currency":"CNY","moq":1,"category":"ysl-women-bags","status":"active","alibaba_url":null,"images":["https://xcimg.szwego.com/img/f8c0bdc9/20240515/i1715779017_9885_5.jpg","https://xcimg.szwego.com/img/f8c0bdc9/20240515/i1715779017_276_0.jpg","https://xcimg.szwego.com/img/f8c0bdc9/20240515/i1715779017_9373_2.jpg","https://xcimg.szwego.com/img/f8c0bdc9/20240515/i1715779017_4707_8.jpg","https://xcimg.szwego.com/img/f8c0bdc9/20240515/i1715779017_4786_3.jpg","https://xcimg.szwego.com/img/f8c0bdc9/20240515/i1715779017_6615_4.jpg","https://xcimg.szwego.com/img/f8c0bdc9/20240515/i1715779017_9006_1.jpg","https://xcimg.szwego.com/img/f8c0bdc9/20240515/i1715779017_7926_6.jpg","https://xcimg.szwego.com/img/f8c0bdc9/20240515/i1715779017_8319_7.jpg"],"created_at":"2026-05-20T04:01:38.923Z"},{"id":"item-b9bd433f4052","sku":"_dJOJOCOxOybX8oatvDc4lrZyNO6CbSs1bnzAfXg","name_en":"Saint Laurent Women Bags","name_cn":"官网图_","specs":{"source":"wsxcme","sourceId":"_dJOJOCOxOybX8oatvDc4lrZyNO6CbSs1bnzAfXg","sourceTagId":47002761,"sourceTagName":"圣罗兰/女包","rawTitle":"官网图_"},"price":null,"currency":"CNY","moq":1,"category":"ysl-women-bags","status":"active","alibaba_url":null,"images":["https://xcimg.szwego.com/img/f8c0bdc9/20240515/i1715778986_5897_1.jpg","https://xcimg.szwego.com/img/f8c0bdc9/20240515/i1715778986_2442_6.jpg","https://xcimg.szwego.com/img/f8c0bdc9/20240515/i1715778986_2431_5.jpg","https://xcimg.szwego.com/img/f8c0bdc9/20240515/i1715778986_7964_3.jpg","https://xcimg.szwego.com/img/f8c0bdc9/20240515/i1715778986_7286_7.jpg","https://xcimg.szwego.com/img/f8c0bdc9/20240515/i1715778986_3440_0.jpg","https://xcimg.szwego.com/img/f8c0bdc9/20240515/i1715778986_6231_4.jpg","https://xcimg.szwego.com/img/f8c0bdc9/20240515/i1715778986_1327_2.jpg"],"created_at":"2026-05-20T04:01:38.913Z"},{"id":"item-dcd7cc4718ff","sku":"_deSeSLaTJwQl83Ba5Ff32NHg5KfmtdkFaBByXjw","name_en":"Saint Laurent Women Bags","name_cn":"随拍上身参考_","specs":{"source":"wsxcme","sourceId":"_deSeSLaTJwQl83Ba5Ff32NHg5KfmtdkFaBByXjw","sourceTagId":47002761,"sourceTagName":"圣罗兰/女包","rawTitle":"随拍上身参考_"},"price":null,"currency":"CNY","moq":1,"category":"ysl-women-bags","status":"active","alibaba_url":null,"images":["https://xcimg.szwego.com/img/f8c0bdc9/20240515/i1715775851_4911_5.jpg","https://xcimg.szwego.com/img/f8c0bdc9/20240515/i1715775851_758_1.jpg","https://xcimg.szwego.com/img/f8c0bdc9/20240515/i1715775851_3253_0.jpg","https://xcimg.szwego.com/img/f8c0bdc9/20240515/i1715775851_5656_4.jpg","https://xcimg.szwego.com/img/f8c0bdc9/20240515/i1715775851_4712_2.jpg","https://xcimg.szwego.com/img/f8c0bdc9/20240515/i1715775851_9310_3.jpg"],"created_at":"2026-05-20T04:01:38.903Z"},{"id":"item-feb2e5c0ffc2","sku":"_dKjKjkQRhszMZ9ROGjnBqpepoiRWSMRJQGL6nJw","name_en":"细节po","name_cn":"细节po","specs":{"source":"wsxcme","sourceId":"_dKjKjkQRhszMZ9ROGjnBqpepoiRWSMRJQGL6nJw","sourceTagId":47002761,"sourceTagName":"圣罗兰/女包","rawTitle":"细节po"},"price":null,"currency":"CNY","moq":1,"category":"ysl-women-bags","status":"active","alibaba_url":null,"images":["https://xcimg.szwego.com/img/f8c0bdc9/20240515/i1715775811_5641_2.jpg","https://xcimg.szwego.com/img/f8c0bdc9/20240515/i1715775811_2186_5.jpg","https://xcimg.szwego.com/img/f8c0bdc9/20240515/i1715775811_1246_4.jpg","https://xcimg.szwego.com/img/f8c0bdc9/20240515/i1715775811_1624_0.jpg","https://xcimg.szwego.com/img/f8c0bdc9/20240515/i1715775811_2828_1.jpg","https://xcimg.szwego.com/img/f8c0bdc9/20240515/i1715775811_23_3.jpg"],"created_at":"2026-05-20T04:01:38.893Z"}],"page":10,"pageSize":24,"total":888,"totalPages":37}
