{"items":[{"id":"item-a9ab71583ec3","sku":"_dgNgNWyi0uc-LxrFKq-ISA6F1NKKKzLrRZ21bGQ","name_en":"新款Lou Lou链条式信封包","name_cn":"新款Lou Lou链条式信封包\n温温柔柔的玫瑰粉像是打翻了的调色盘🎨 美鼠啦!\n羊皮肉眼可见的质感,软软糯糯~\n带有可拆卸卡包和全标化妆镜🪞\n容量大,日常出街所需都轻松放进\n可调节链条,多种背法搭配不同的穿搭风格[飞吻R]\n尺寸:24✖️14✖️6厘米\n中号 Z1801437","specs":{"source":"wsxcme","sourceId":"_dgNgNWyi0uc-LxrFKq-ISA6F1NKKKzLrRZ21bGQ","sourceTagId":47002761,"sourceTagName":"圣罗兰/女包","rawTitle":"新款Lou Lou链条式信封包\n温温柔柔的玫瑰粉像是打翻了的调色盘🎨 美鼠啦!\n羊皮肉眼可见的质感,软软糯糯~\n带有可拆卸卡包和全标化妆镜🪞\n容量大,日常出街所需都轻松放进\n可调节链条,多种背法搭配不同的穿搭风格[飞吻R]\n尺寸:24✖️14✖️6厘米\n中号 Z1801437"},"price":null,"currency":"CNY","moq":1,"category":"ysl-women-bags","status":"active","alibaba_url":null,"images":["https://xcimg.szwego.com/img/c0f37100/20250419/i1745036894_9938_8.jpg","https://xcimg.szwego.com/img/c0f37100/20250419/i1745036894_380_1.jpg","https://xcimg.szwego.com/img/c0f37100/20250419/i1745036894_6788_2.jpg","https://xcimg.szwego.com/img/c0f37100/20250419/i1745036894_3961_6.jpg","https://xcimg.szwego.com/img/c0f37100/20250419/i1745036894_6299_5.jpg","https://xcimg.szwego.com/img/c0f37100/20250419/i1745036894_5102_0.jpg","https://xcimg.szwego.com/img/c0f37100/20250419/i1745036894_7457_7.jpg","https://xcimg.szwego.com/img/c0f37100/20250419/i1745036894_5151_3.jpg","https://xcimg.szwego.com/img/c0f37100/20250419/i1745036894_2330_4.jpg"],"created_at":"2026-06-29T10:54:44.626Z"},{"id":"item-348222a18d61","sku":"_dmJmJGsu5ADjWjZ2CxvowDmagJL1D38FCPHL2zg","name_en":"新款Lou Lou链条式信封包","name_cn":"新款Lou Lou链条式信封包\n温温柔柔的玫瑰粉像是打翻了的调色盘🎨 美鼠啦!\n羊皮肉眼可见的质感,软软糯糯~\n带有可拆卸卡包和全标化妆镜🪞\n容量大,日常出街所需都轻松放进\n可调节链条,多种背法搭配不同的穿搭风格[飞吻R]\n尺寸:24✖️14✖️6厘米\n中号 Z1801437","specs":{"source":"wsxcme","sourceId":"_dmJmJGsu5ADjWjZ2CxvowDmagJL1D38FCPHL2zg","sourceTagId":47002761,"sourceTagName":"圣罗兰/女包","rawTitle":"新款Lou Lou链条式信封包\n温温柔柔的玫瑰粉像是打翻了的调色盘🎨 美鼠啦!\n羊皮肉眼可见的质感,软软糯糯~\n带有可拆卸卡包和全标化妆镜🪞\n容量大,日常出街所需都轻松放进\n可调节链条,多种背法搭配不同的穿搭风格[飞吻R]\n尺寸:24✖️14✖️6厘米\n中号 Z1801437"},"price":null,"currency":"CNY","moq":1,"category":"ysl-women-bags","status":"active","alibaba_url":null,"images":["https://xcimg.szwego.com/img/c0f37100/20250419/i1745036880_8688_4.jpg","https://xcimg.szwego.com/img/c0f37100/20250419/i1745036880_3083_2.jpg","https://xcimg.szwego.com/img/c0f37100/20250419/i1745036880_3666_0.jpg","https://xcimg.szwego.com/img/c0f37100/20250419/i1745036880_4263_8.jpg","https://xcimg.szwego.com/img/c0f37100/20250419/i1745036880_5218_5.jpg","https://xcimg.szwego.com/img/c0f37100/20250419/i1745036880_3735_7.jpg","https://xcimg.szwego.com/img/c0f37100/20250419/i1745036880_5280_6.jpg","https://xcimg.szwego.com/img/c0f37100/20250419/i1745036880_3978_3.jpg","https://xcimg.szwego.com/img/c0f37100/20250419/i1745036880_2209_1.jpg"],"created_at":"2026-06-29T10:54:44.616Z"},{"id":"item-fe5845b2b9e4","sku":"_dekekoOVs57tDRrMxn37iYPK1PixPvn5gCeDFmg","name_en":"新款Lou Lou链条式信封包","name_cn":"新款Lou Lou链条式信封包\n温温柔柔的玫瑰粉像是打翻了的调色盘🎨 美鼠啦!\n羊皮肉眼可见的质感,软软糯糯~\n带有可拆卸卡包和全标化妆镜🪞\n容量大,日常出街所需都轻松放进\n可调节链条,多种背法搭配不同的穿搭风格[飞吻R]\n尺寸:24✖️14✖️6厘米\n中号 Z1801437","specs":{"source":"wsxcme","sourceId":"_dekekoOVs57tDRrMxn37iYPK1PixPvn5gCeDFmg","sourceTagId":47002761,"sourceTagName":"圣罗兰/女包","rawTitle":"新款Lou Lou链条式信封包\n温温柔柔的玫瑰粉像是打翻了的调色盘🎨 美鼠啦!\n羊皮肉眼可见的质感,软软糯糯~\n带有可拆卸卡包和全标化妆镜🪞\n容量大,日常出街所需都轻松放进\n可调节链条,多种背法搭配不同的穿搭风格[飞吻R]\n尺寸:24✖️14✖️6厘米\n中号 Z1801437"},"price":null,"currency":"CNY","moq":1,"category":"ysl-women-bags","status":"active","alibaba_url":null,"images":["https://xcimg.szwego.com/img/c0f37100/20250419/i1745036867_8811_5.jpg","https://xcimg.szwego.com/img/c0f37100/20250419/i1745036867_3543_1.jpg","https://xcimg.szwego.com/img/c0f37100/20250419/i1745036867_2560_7.jpg","https://xcimg.szwego.com/img/c0f37100/20250419/i1745036867_4386_6.jpg","https://xcimg.szwego.com/img/c0f37100/20250419/i1745036867_1357_4.jpg","https://xcimg.szwego.com/img/c0f37100/20250419/i1745036867_6776_8.jpg","https://xcimg.szwego.com/img/c0f37100/20250419/i1745036867_7530_2.jpg","https://xcimg.szwego.com/img/c0f37100/20250419/i1745036867_3618_3.jpg","https://xcimg.szwego.com/img/c0f37100/20250419/i1745036867_484_0.jpg"],"created_at":"2026-06-29T10:54:44.606Z"},{"id":"item-d13cf3ab5516","sku":"_dububhRpfzysVAYuzpo7ACBUSig_vJea_EjQnfw","name_en":"Saint Laurent Women Bags","name_cn":"官网图","specs":{"source":"wsxcme","sourceId":"_dububhRpfzysVAYuzpo7ACBUSig_vJea_EjQnfw","sourceTagId":47002761,"sourceTagName":"圣罗兰/女包","rawTitle":"官网图"},"price":null,"currency":"CNY","moq":1,"category":"ysl-women-bags","status":"active","alibaba_url":null,"images":["https://xcimg.szwego.com/imgHD/f8c0bdc9/20260622/cmp_i1782124341332_1471_0_0.jpg","https://xcimg.szwego.com/imgHD/f8c0bdc9/20260622/cmp_i1782124341332_5263_0_1.jpg","https://xcimg.szwego.com/imgHD/f8c0bdc9/20260622/cmp_i1782124341332_1888_0_2.jpg","https://xcimg.szwego.com/imgHD/f8c0bdc9/20260622/cmp_i1782124341332_1308_0_3.jpg","https://xcimg.szwego.com/imgHD/f8c0bdc9/20260622/cmp_i1782124341333_2100_0_4.jpg"],"created_at":"2026-06-29T10:48:59.509Z"},{"id":"item-34fcf79a2332","sku":"_d-C-CWpBgnJ97yaIRWzpcblyVfv8cckKeAQWUIg","name_en":"Saint Laurent Women Bags","name_cn":"暖棕调勾勒出美式复古的浪漫\n为整体搭配奠定低饱和的高级柔韵","specs":{"source":"wsxcme","sourceId":"_d-C-CWpBgnJ97yaIRWzpcblyVfv8cckKeAQWUIg","sourceTagId":47002761,"sourceTagName":"圣罗兰/女包","rawTitle":"暖棕调勾勒出美式复古的浪漫\n为整体搭配奠定低饱和的高级柔韵"},"price":null,"currency":"CNY","moq":1,"category":"ysl-women-bags","status":"active","alibaba_url":null,"images":["https://xcimg.szwego.com/imgHD/f8c0bdc9/20260622/cmp_i1782122807450_6884_0_0.jpg","https://xcimg.szwego.com/imgHD/f8c0bdc9/20260622/cmp_i1782122811893_3267_0_1.jpg","https://xcimg.szwego.com/imgHD/f8c0bdc9/20260622/cmp_i1782122807510_5472_0_2.jpg","https://xcimg.szwego.com/imgHD/f8c0bdc9/20260622/cmp_i1782122808255_3004_0_3.jpg","https://xcimg.szwego.com/imgHD/f8c0bdc9/20260622/cmp_i1782122809514_4557_0_4.jpg","https://xcimg.szwego.com/imgHD/f8c0bdc9/20260622/cmp_i1782122810804_7039_0_5.jpg","https://xcimg.szwego.com/imgHD/f8c0bdc9/20260622/cmp_i1782122808137_7170_0_6.jpg","https://xcimg.szwego.com/imgHD/f8c0bdc9/20260622/cmp_i1782122810297_8854_0_7.jpg","https://xcimg.szwego.com/imgHD/f8c0bdc9/20260622/cmp_i1782122810333_4083_0_8.jpg"],"created_at":"2026-06-29T10:48:59.499Z"},{"id":"item-abf8e124f459","sku":"_dXUXUEg3SOWixYmacdESCE031ebEZZWZZcTCpeA","name_en":"细节po","name_cn":"细节po","specs":{"source":"wsxcme","sourceId":"_dXUXUEg3SOWixYmacdESCE031ebEZZWZZcTCpeA","sourceTagId":47002761,"sourceTagName":"圣罗兰/女包","rawTitle":"细节po"},"price":null,"currency":"CNY","moq":1,"category":"ysl-women-bags","status":"active","alibaba_url":null,"images":["https://xcimg.szwego.com/imgHD/f8c0bdc9/20260622/cmp_i1782122775831_9241_0_0.jpg","https://xcimg.szwego.com/imgHD/f8c0bdc9/20260622/cmp_i1782122778431_2910_0_1.jpg","https://xcimg.szwego.com/imgHD/f8c0bdc9/20260622/cmp_i1782122777062_6509_0_2.jpg","https://xcimg.szwego.com/imgHD/f8c0bdc9/20260622/cmp_i1782122775831_8745_0_3.jpg","https://xcimg.szwego.com/imgHD/f8c0bdc9/20260622/cmp_i1782122778324_1366_0_4.jpg","https://xcimg.szwego.com/imgHD/f8c0bdc9/20260622/cmp_i1782122775831_3007_0_5.jpg","https://xcimg.szwego.com/imgHD/f8c0bdc9/20260622/cmp_i1782122779438_5044_0_6.jpg","https://xcimg.szwego.com/imgHD/f8c0bdc9/20260622/cmp_i1782122776557_2193_0_7.jpg"],"created_at":"2026-06-29T10:48:59.489Z"},{"id":"item-5ca30f89334f","sku":"_daJaJUCq8mbgFa5cLrUpR_v4uhiVtApyA1m6ZQA","name_en":"Saint Laurent Women Bags","name_cn":"土黄鳄鱼纹配金扣\nsunset 22cm_\n无敌经典款sunset日落包!出了这么长时间热度依然不减,可见它受人喜欢的程度非同一般!高品质意大利进口牛皮,zp开模五金,追求每一个每一个细节,力求无穷大的接近正品,高品质却不高价,心动不如马上行动!\n尺寸:22x8x16   \n型号:422906","specs":{"source":"wsxcme","sourceId":"_daJaJUCq8mbgFa5cLrUpR_v4uhiVtApyA1m6ZQA","sourceTagId":47002761,"sourceTagName":"圣罗兰/女包","modelNumber":"422906","rawTitle":"土黄鳄鱼纹配金扣\nsunset 22cm_\n无敌经典款sunset日落包!出了这么长时间热度依然不减,可见它受人喜欢的程度非同一般!高品质意大利进口牛皮,zp开模五金,追求每一个每一个细节,力求无穷大的接近正品,高品质却不高价,心动不如马上行动!\n尺寸:22x8x16   \n型号:422906"},"price":null,"currency":"CNY","moq":1,"category":"ysl-women-bags","status":"active","alibaba_url":null,"images":["https://xcimg.szwego.com/imgHD/f8c0bdc9/20260622/cmp_i1782122720840_6531_0_0.jpg","https://xcimg.szwego.com/imgHD/f8c0bdc9/20260622/cmp_i1782122720947_8374_0_1.jpg","https://xcimg.szwego.com/imgHD/f8c0bdc9/20260622/cmp_i1782122723572_2496_0_2.jpg","https://xcimg.szwego.com/imgHD/f8c0bdc9/20260622/cmp_i1782122721066_6548_0_3.jpg","https://xcimg.szwego.com/imgHD/f8c0bdc9/20260622/cmp_i1782122721112_9865_0_4.jpg","https://xcimg.szwego.com/imgHD/f8c0bdc9/20260622/cmp_i1782122724031_1638_0_5.jpg","https://xcimg.szwego.com/imgHD/f8c0bdc9/20260622/cmp_i1782122724037_729_0_6.jpg","https://xcimg.szwego.com/imgHD/f8c0bdc9/20260622/cmp_i1782122717995_9661_0_7.jpg","https://xcimg.szwego.com/imgHD/f8c0bdc9/20260622/cmp_i1782122723550_972_0_8.jpg"],"created_at":"2026-06-29T10:48:59.479Z"},{"id":"item-4b4bf865d1f2","sku":"_di4i43VwLKsOG3hZcNx5vNK1Q1756O6EouizZXg","name_en":"Saint Laurent Women Bags","name_cn":"官网图","specs":{"source":"wsxcme","sourceId":"_di4i43VwLKsOG3hZcNx5vNK1Q1756O6EouizZXg","sourceTagId":47002761,"sourceTagName":"圣罗兰/女包","rawTitle":"官网图"},"price":null,"currency":"CNY","moq":1,"category":"ysl-women-bags","status":"active","alibaba_url":null,"images":["https://xcimg.szwego.com/imgHD/f8c0bdc9/20260622/cmp_i1782124300398_2327_0_0.jpg","https://xcimg.szwego.com/imgHD/f8c0bdc9/20260622/cmp_i1782124300397_5153_0_1.jpg","https://xcimg.szwego.com/imgHD/f8c0bdc9/20260622/cmp_i1782124300398_3476_0_2.jpg","https://xcimg.szwego.com/imgHD/f8c0bdc9/20260622/cmp_i1782124300398_5900_0_3.jpg","https://xcimg.szwego.com/imgHD/f8c0bdc9/20260622/cmp_i1782124300398_7316_0_4.jpg"],"created_at":"2026-06-29T10:48:59.469Z"},{"id":"item-f64c75abf7da","sku":"_dwawaIX5MOH77he2cx9hD4XONewA4evqzvKm7MQ","name_en":"Saint Laurent Women Bags","name_cn":"以低调柔和的色彩 沉淀出不张扬 \n超耐看的高级氛围 为穿搭添了一份从容质感","specs":{"source":"wsxcme","sourceId":"_dwawaIX5MOH77he2cx9hD4XONewA4evqzvKm7MQ","sourceTagId":47002761,"sourceTagName":"圣罗兰/女包","rawTitle":"以低调柔和的色彩 沉淀出不张扬 \n超耐看的高级氛围 为穿搭添了一份从容质感"},"price":null,"currency":"CNY","moq":1,"category":"ysl-women-bags","status":"active","alibaba_url":null,"images":["https://xcimg.szwego.com/imgHD/f8c0bdc9/20260622/cmp_i1782121328116_6796_0_0.jpg","https://xcimg.szwego.com/imgHD/f8c0bdc9/20260622/cmp_i1782121329461_7477_0_1.jpg","https://xcimg.szwego.com/imgHD/f8c0bdc9/20260622/cmp_i1782121328172_703_0_2.jpg","https://xcimg.szwego.com/imgHD/f8c0bdc9/20260622/cmp_i1782121327141_4515_0_3.jpg","https://xcimg.szwego.com/imgHD/f8c0bdc9/20260622/cmp_i1782121330777_2034_0_4.jpg","https://xcimg.szwego.com/imgHD/f8c0bdc9/20260622/cmp_i1782121330872_5225_0_5.jpg","https://xcimg.szwego.com/imgHD/f8c0bdc9/20260622/cmp_i1782121327526_8093_0_6.jpg","https://xcimg.szwego.com/imgHD/f8c0bdc9/20260622/cmp_i1782121330777_7037_0_7.jpg"],"created_at":"2026-06-29T10:48:59.459Z"},{"id":"item-e317c91a3158","sku":"_doPoPpR4oXrJSoz-SgEQsUjRh5wPG2VapLJrOqQ","name_en":"细节po","name_cn":"细节po","specs":{"source":"wsxcme","sourceId":"_doPoPpR4oXrJSoz-SgEQsUjRh5wPG2VapLJrOqQ","sourceTagId":47002761,"sourceTagName":"圣罗兰/女包","rawTitle":"细节po"},"price":null,"currency":"CNY","moq":1,"category":"ysl-women-bags","status":"active","alibaba_url":null,"images":["https://xcimg.szwego.com/imgHD/f8c0bdc9/20260622/cmp_i1782121272490_5540_0_0.jpg","https://xcimg.szwego.com/imgHD/f8c0bdc9/20260622/cmp_i1782121275090_7325_0_1.jpg","https://xcimg.szwego.com/imgHD/f8c0bdc9/20260622/cmp_i1782121272059_6438_0_2.jpg","https://xcimg.szwego.com/imgHD/f8c0bdc9/20260622/cmp_i1782121273741_6097_0_3.jpg","https://xcimg.szwego.com/imgHD/f8c0bdc9/20260622/cmp_i1782121279267_469_0_4.jpg","https://xcimg.szwego.com/imgHD/f8c0bdc9/20260622/cmp_i1782121273612_6744_0_5.jpg","https://xcimg.szwego.com/imgHD/f8c0bdc9/20260622/cmp_i1782121272473_9590_0_6.jpg","https://xcimg.szwego.com/imgHD/f8c0bdc9/20260622/cmp_i1782121279410_8277_0_7.jpg","https://xcimg.szwego.com/imgHD/f8c0bdc9/20260622/cmp_i1782121279089_9414_0_8.jpg"],"created_at":"2026-06-29T10:48:59.449Z"},{"id":"item-e9142b41023d","sku":"_dbQbQ4gKdUGv9X3M2WuQRQgVEZZgtuq9gqnBGTg","name_en":"Saint Laurent Women Bags","name_cn":"咖啡鳄鱼纹配金扣\nsunset 22cm_\n无敌经典款sunset日落包!出了这么长时间热度依然不减,可见它受人喜欢的程度非同一般!高品质意大利进口牛皮,zp开模五金,追求每一个每一个细节,力求无穷大的接近正品,高品质却不高价,心动不如马上行动!\n尺寸:22x8x16   \n型号:422906","specs":{"source":"wsxcme","sourceId":"_dbQbQ4gKdUGv9X3M2WuQRQgVEZZgtuq9gqnBGTg","sourceTagId":47002761,"sourceTagName":"圣罗兰/女包","modelNumber":"422906","rawTitle":"咖啡鳄鱼纹配金扣\nsunset 22cm_\n无敌经典款sunset日落包!出了这么长时间热度依然不减,可见它受人喜欢的程度非同一般!高品质意大利进口牛皮,zp开模五金,追求每一个每一个细节,力求无穷大的接近正品,高品质却不高价,心动不如马上行动!\n尺寸:22x8x16   \n型号:422906"},"price":null,"currency":"CNY","moq":1,"category":"ysl-women-bags","status":"active","alibaba_url":null,"images":["https://xcimg.szwego.com/imgHD/f8c0bdc9/20260622/cmp_i1782121182138_7413_0_0.jpg","https://xcimg.szwego.com/imgHD/f8c0bdc9/20260622/cmp_i1782121185182_9160_0_1.jpg","https://xcimg.szwego.com/imgHD/f8c0bdc9/20260622/cmp_i1782121180012_6533_0_2.jpg","https://xcimg.szwego.com/imgHD/f8c0bdc9/20260622/cmp_i1782121184969_545_0_3.jpg","https://xcimg.szwego.com/imgHD/f8c0bdc9/20260622/cmp_i1782121185137_4918_0_4.jpg","https://xcimg.szwego.com/imgHD/f8c0bdc9/20260622/cmp_i1782121183397_3232_0_5.jpg","https://xcimg.szwego.com/imgHD/f8c0bdc9/20260622/cmp_i1782121180108_2879_0_6.jpg","https://xcimg.szwego.com/imgHD/f8c0bdc9/20260622/cmp_i1782121182231_3936_0_7.jpg","https://xcimg.szwego.com/imgHD/f8c0bdc9/20260622/cmp_i1782121182248_7861_0_8.jpg"],"created_at":"2026-06-29T10:48:59.439Z"},{"id":"item-dc757675984e","sku":"_dxJxJf1DH12_Np2Pz7zEzGKT5Y95hYQhZYi9lDw","name_en":"Saint Laurent Women Bags","name_cn":"官网图","specs":{"source":"wsxcme","sourceId":"_dxJxJf1DH12_Np2Pz7zEzGKT5Y95hYQhZYi9lDw","sourceTagId":47002761,"sourceTagName":"圣罗兰/女包","rawTitle":"官网图"},"price":null,"currency":"CNY","moq":1,"category":"ysl-women-bags","status":"active","alibaba_url":null,"images":["https://xcimg.szwego.com/imgHD/f8c0bdc9/20260622/cmp_i1782124271505_1367_0_0.jpg","https://xcimg.szwego.com/imgHD/f8c0bdc9/20260622/cmp_i1782124271218_5712_0_1.jpg","https://xcimg.szwego.com/imgHD/f8c0bdc9/20260622/cmp_i1782124271218_5287_0_2.jpg","https://xcimg.szwego.com/imgHD/f8c0bdc9/20260622/cmp_i1782124271220_535_0_3.jpg","https://xcimg.szwego.com/imgHD/f8c0bdc9/20260622/cmp_i1782124271504_8487_0_4.jpg","https://xcimg.szwego.com/imgHD/f8c0bdc9/20260622/cmp_i1782124271218_1902_0_5.jpg","https://xcimg.szwego.com/imgHD/f8c0bdc9/20260622/cmp_i1782124271219_3117_0_6.jpg"],"created_at":"2026-06-29T10:48:59.429Z"},{"id":"item-d8f00570dc64","sku":"_dsvsvGvNWUD6xc79GHNtddUrN77RIVaMWLnJ8mA","name_en":"Saint Laurent Women Bags","name_cn":"橙色系穿搭🍊\n给人温暖 充满活力的印象\n春夏明媚 秋冬温暖 四季皆宜","specs":{"source":"wsxcme","sourceId":"_dsvsvGvNWUD6xc79GHNtddUrN77RIVaMWLnJ8mA","sourceTagId":47002761,"sourceTagName":"圣罗兰/女包","rawTitle":"橙色系穿搭🍊\n给人温暖 充满活力的印象\n春夏明媚 秋冬温暖 四季皆宜"},"price":null,"currency":"CNY","moq":1,"category":"ysl-women-bags","status":"active","alibaba_url":null,"images":["https://xcimg.szwego.com/imgHD/f8c0bdc9/20260622/cmp_i1782119496320_7226_0_0.jpg","https://xcimg.szwego.com/imgHD/f8c0bdc9/20260622/cmp_i1782119492513_9012_0_1.jpg","https://xcimg.szwego.com/imgHD/f8c0bdc9/20260622/cmp_i1782119490879_9570_0_2.jpg","https://xcimg.szwego.com/imgHD/f8c0bdc9/20260622/cmp_i1782119490781_1236_0_3.jpg","https://xcimg.szwego.com/imgHD/f8c0bdc9/20260622/cmp_i1782119490882_1113_0_4.jpg","https://xcimg.szwego.com/imgHD/f8c0bdc9/20260622/cmp_i1782119491505_4857_0_5.jpg"],"created_at":"2026-06-29T10:48:59.419Z"},{"id":"item-998d2a50738f","sku":"_dMEMEGeln1N3ueoAdk5--M_xfeo350aIxBwdnnw","name_en":"细节po","name_cn":"细节po","specs":{"source":"wsxcme","sourceId":"_dMEMEGeln1N3ueoAdk5--M_xfeo350aIxBwdnnw","sourceTagId":47002761,"sourceTagName":"圣罗兰/女包","rawTitle":"细节po"},"price":null,"currency":"CNY","moq":1,"category":"ysl-women-bags","status":"active","alibaba_url":null,"images":["https://xcimg.szwego.com/imgHD/f8c0bdc9/20260622/cmp_i1782119392389_3872_0_0.jpg","https://xcimg.szwego.com/imgHD/f8c0bdc9/20260622/cmp_i1782119395073_7185_0_1.jpg","https://xcimg.szwego.com/imgHD/f8c0bdc9/20260622/cmp_i1782119393629_2705_0_8.jpg","https://xcimg.szwego.com/imgHD/f8c0bdc9/20260622/cmp_i1782119396215_184_0_2.jpg","https://xcimg.szwego.com/imgHD/f8c0bdc9/20260622/cmp_i1782119392428_3455_0_3.jpg","https://xcimg.szwego.com/imgHD/f8c0bdc9/20260622/cmp_i1782119395000_1198_0_4.jpg","https://xcimg.szwego.com/imgHD/f8c0bdc9/20260622/cmp_i1782119391771_5905_0_5.jpg","https://xcimg.szwego.com/imgHD/f8c0bdc9/20260622/cmp_i1782119391745_2935_0_6.jpg","https://xcimg.szwego.com/imgHD/f8c0bdc9/20260622/cmp_i1782119396032_243_0_7.jpg"],"created_at":"2026-06-29T10:48:59.409Z"},{"id":"item-a423847323ea","sku":"_dqHqHLE_1t1Lu7Y3Vpw_wgIHJ-061x_pbHrI_Sg","name_en":"橙色金扣·24cm","name_cn":"橙色金扣·24cm\nSOLFERINO BOX·腋下包\n这款腋下包轻盈精致 意大利进口box牛皮,LE CASSANDRE锁扣开合五金,羊皮内衬,肩带可调节,便于肩背携带!复古新风尚 优雅知性大方的一款百搭包包!\n货号:832330\n尺寸:24.5×15×8.5cm","specs":{"source":"wsxcme","sourceId":"_dqHqHLE_1t1Lu7Y3Vpw_wgIHJ-061x_pbHrI_Sg","sourceTagId":47002761,"sourceTagName":"圣罗兰/女包","modelNumber":"832330","dimensions":{"lengthCm":24.5,"heightCm":15,"widthCm":8.5},"rawTitle":"橙色金扣·24cm\nSOLFERINO BOX·腋下包\n这款腋下包轻盈精致 意大利进口box牛皮,LE CASSANDRE锁扣开合五金,羊皮内衬,肩带可调节,便于肩背携带!复古新风尚 优雅知性大方的一款百搭包包!\n货号:832330\n尺寸:24.5×15×8.5cm"},"price":null,"currency":"CNY","moq":1,"category":"ysl-women-bags","status":"active","alibaba_url":null,"images":["https://xcimg.szwego.com/imgHD/f8c0bdc9/20260622/cmp_i1782119350801_5214_0_0.jpg","https://xcimg.szwego.com/imgHD/f8c0bdc9/20260622/cmp_i1782119350910_3031_0_1.jpg","https://xcimg.szwego.com/imgHD/f8c0bdc9/20260622/cmp_i1782119350851_8800_0_2.jpg","https://xcimg.szwego.com/imgHD/f8c0bdc9/20260622/cmp_i1782119354100_8254_0_3.jpg","https://xcimg.szwego.com/imgHD/f8c0bdc9/20260622/cmp_i1782119354074_3860_0_4.jpg","https://xcimg.szwego.com/imgHD/f8c0bdc9/20260622/cmp_i1782119350867_3822_0_5.jpg","https://xcimg.szwego.com/imgHD/f8c0bdc9/20260622/cmp_i1782119349405_9881_0_6.jpg","https://xcimg.szwego.com/imgHD/f8c0bdc9/20260622/cmp_i1782119353183_2637_0_7.jpg","https://xcimg.szwego.com/imgHD/f8c0bdc9/20260622/cmp_i1782119354263_2656_0_8.jpg"],"created_at":"2026-06-29T10:48:59.399Z"},{"id":"item-ec4b191fe514","sku":"_dr3r31-2ezRl3K-WH_bOZe-e_JXFhrayQbo3JHw","name_en":"SOLFERINO BOX·腋下包","name_cn":"SOLFERINO BOX·腋下包\n绿色\n19/24.5cm\n合集","specs":{"source":"wsxcme","sourceId":"_dr3r31-2ezRl3K-WH_bOZe-e_JXFhrayQbo3JHw","sourceTagId":47002761,"sourceTagName":"圣罗兰/女包","rawTitle":"SOLFERINO BOX·腋下包\n绿色\n19/24.5cm\n合集"},"price":null,"currency":"CNY","moq":1,"category":"ysl-women-bags","status":"active","alibaba_url":null,"images":["https://xcimg.szwego.com/imgHD/f8c0bdc9/20260622/cmp_i1782118616961_5884_0_0.jpg","https://xcimg.szwego.com/imgHD/f8c0bdc9/20260622/cmp_i1782118614762_7772_0_1.jpg","https://xcimg.szwego.com/imgHD/f8c0bdc9/20260622/cmp_i1782118614625_4251_0_2.jpg","https://xcimg.szwego.com/imgHD/f8c0bdc9/20260622/cmp_i1782118614799_512_0_3.jpg","https://xcimg.szwego.com/imgHD/f8c0bdc9/20260622/cmp_i1782118161315_1768_0_3.jpg","https://xcimg.szwego.com/imgHD/f8c0bdc9/20260622/cmp_i1782118437228_6278_0_4.jpg"],"created_at":"2026-06-29T10:48:59.389Z"},{"id":"item-bc1d0565a3ca","sku":"_dxaxah5K5b8FKdjEUM2nFXRVkyr3SoQit0BqjKw","name_en":"Saint Laurent Women Bags","name_cn":"官网图","specs":{"source":"wsxcme","sourceId":"_dxaxah5K5b8FKdjEUM2nFXRVkyr3SoQit0BqjKw","sourceTagId":47002761,"sourceTagName":"圣罗兰/女包","rawTitle":"官网图"},"price":null,"currency":"CNY","moq":1,"category":"ysl-women-bags","status":"active","alibaba_url":null,"images":["https://xcimg.szwego.com/imgHD/f8c0bdc9/20260622/cmp_i1782124240579_9654_0_0.jpg","https://xcimg.szwego.com/imgHD/f8c0bdc9/20260622/cmp_i1782124240579_6214_0_1.jpg","https://xcimg.szwego.com/imgHD/f8c0bdc9/20260622/cmp_i1782124240578_8160_0_2.jpg","https://xcimg.szwego.com/imgHD/f8c0bdc9/20260622/cmp_i1782124240580_6792_0_3.jpg","https://xcimg.szwego.com/imgHD/f8c0bdc9/20260622/cmp_i1782124240577_4828_0_4.jpg"],"created_at":"2026-06-29T10:48:59.379Z"},{"id":"item-a2e56f5cb916","sku":"_dncncY7xAh2q0MecrTIL7wNQohqg0_-s6SUbtyQ","name_en":"Solferino Box 腋下包","name_cn":"Solferino Box 腋下包\n轻盈精致又时尚 背上它 瞬间提升气场","specs":{"source":"wsxcme","sourceId":"_dncncY7xAh2q0MecrTIL7wNQohqg0_-s6SUbtyQ","sourceTagId":47002761,"sourceTagName":"圣罗兰/女包","rawTitle":"Solferino Box 腋下包\n轻盈精致又时尚 背上它 瞬间提升气场"},"price":null,"currency":"CNY","moq":1,"category":"ysl-women-bags","status":"active","alibaba_url":null,"images":["https://xcimg.szwego.com/imgHD/f8c0bdc9/20260622/cmp_i1782118434076_1861_0_0.jpg","https://xcimg.szwego.com/imgHD/f8c0bdc9/20260622/cmp_i1782118433940_5835_0_1.jpg","https://xcimg.szwego.com/imgHD/f8c0bdc9/20260622/cmp_i1782118434064_6907_0_2.jpg","https://xcimg.szwego.com/imgHD/f8c0bdc9/20260622/cmp_i1782118431895_8329_0_3.jpg","https://xcimg.szwego.com/imgHD/f8c0bdc9/20260622/cmp_i1782118437228_6278_0_4.jpg","https://xcimg.szwego.com/imgHD/f8c0bdc9/20260622/cmp_i1782118432796_4140_0_5.jpg"],"created_at":"2026-06-29T10:48:59.369Z"},{"id":"item-b3725660ea16","sku":"_dwFwFk5AsbXCxz9ZnS21wkrjx1j9G06yaNN8o6Q","name_en":"细节po","name_cn":"细节po","specs":{"source":"wsxcme","sourceId":"_dwFwFk5AsbXCxz9ZnS21wkrjx1j9G06yaNN8o6Q","sourceTagId":47002761,"sourceTagName":"圣罗兰/女包","rawTitle":"细节po"},"price":null,"currency":"CNY","moq":1,"category":"ysl-women-bags","status":"active","alibaba_url":null,"images":["https://xcimg.szwego.com/imgHD/f8c0bdc9/20260622/cmp_i1782118406970_3461_0_0.jpg","https://xcimg.szwego.com/imgHD/f8c0bdc9/20260622/cmp_i1782118408236_4308_0_1.jpg","https://xcimg.szwego.com/imgHD/f8c0bdc9/20260622/cmp_i1782118408207_7238_0_2.jpg","https://xcimg.szwego.com/imgHD/f8c0bdc9/20260622/cmp_i1782118404497_528_0_8.jpg","https://xcimg.szwego.com/imgHD/f8c0bdc9/20260622/cmp_i1782118408303_5761_0_3.jpg","https://xcimg.szwego.com/imgHD/f8c0bdc9/20260622/cmp_i1782118402778_2425_0_4.jpg","https://xcimg.szwego.com/imgHD/f8c0bdc9/20260622/cmp_i1782118404312_7892_0_5.jpg","https://xcimg.szwego.com/imgHD/f8c0bdc9/20260622/cmp_i1782118404436_7797_0_6.jpg","https://xcimg.szwego.com/imgHD/f8c0bdc9/20260622/cmp_i1782118404292_6189_0_7.jpg"],"created_at":"2026-06-29T10:48:59.359Z"},{"id":"item-a471ac9796f2","sku":"_da4a4ZwZgNIjQ8lSzvge4WZg3x7xx4nhlsSM7OQ","name_en":"绿色·19cm","name_cn":"绿色·19cm\nSOLFERINO BOX mini·腋下包\n这款腋下包轻盈精致 意大利进口box牛皮,LE CASSANDRE锁扣开合五金,羊皮内衬,肩带可调节,便于肩背携带!复古新风尚 优雅知性大方的一款百搭包包!\n货号:843524\n尺寸:19×12×7.5cm","specs":{"source":"wsxcme","sourceId":"_da4a4ZwZgNIjQ8lSzvge4WZg3x7xx4nhlsSM7OQ","sourceTagId":47002761,"sourceTagName":"圣罗兰/女包","modelNumber":"843524","dimensions":{"lengthCm":19,"heightCm":12,"widthCm":7.5},"rawTitle":"绿色·19cm\nSOLFERINO BOX mini·腋下包\n这款腋下包轻盈精致 意大利进口box牛皮,LE CASSANDRE锁扣开合五金,羊皮内衬,肩带可调节,便于肩背携带!复古新风尚 优雅知性大方的一款百搭包包!\n货号:843524\n尺寸:19×12×7.5cm"},"price":null,"currency":"CNY","moq":1,"category":"ysl-women-bags","status":"active","alibaba_url":null,"images":["https://xcimg.szwego.com/imgHD/f8c0bdc9/20260622/cmp_i1782118363571_4762_0_0.jpg","https://xcimg.szwego.com/imgHD/f8c0bdc9/20260622/cmp_i1782118359768_8254_0_1.jpg","https://xcimg.szwego.com/imgHD/f8c0bdc9/20260622/cmp_i1782118359799_90_0_2.jpg","https://xcimg.szwego.com/imgHD/f8c0bdc9/20260622/cmp_i1782118363538_8295_0_3.jpg","https://xcimg.szwego.com/imgHD/f8c0bdc9/20260622/cmp_i1782118363560_3184_0_4.jpg","https://xcimg.szwego.com/imgHD/f8c0bdc9/20260622/cmp_i1782118362144_1773_0_5.jpg","https://xcimg.szwego.com/imgHD/f8c0bdc9/20260622/cmp_i1782118359986_2566_0_6.jpg","https://xcimg.szwego.com/imgHD/f8c0bdc9/20260622/cmp_i1782118360037_4419_0_7.jpg","https://xcimg.szwego.com/imgHD/f8c0bdc9/20260622/cmp_i1782118359948_5694_0_8.jpg"],"created_at":"2026-06-29T10:48:59.349Z"},{"id":"item-09549424e5fa","sku":"_dmRmRm_R7y3H4FDciOfudNj1_UuK9SoSU2KZYNg","name_en":"Saint Laurent Women Bags","name_cn":"复古最旧五金工艺\nSolferino包锁扣的设计十分精巧","specs":{"source":"wsxcme","sourceId":"_dmRmRm_R7y3H4FDciOfudNj1_UuK9SoSU2KZYNg","sourceTagId":47002761,"sourceTagName":"圣罗兰/女包","rawTitle":"复古最旧五金工艺\nSolferino包锁扣的设计十分精巧"},"price":null,"currency":"CNY","moq":1,"category":"ysl-women-bags","status":"active","alibaba_url":null,"images":["https://xcimg.szwego.com/imgHD/f8c0bdc9/20260622/cmp_i1782118163100_1269_0_0.jpg","https://xcimg.szwego.com/imgHD/f8c0bdc9/20260622/cmp_i1782118162918_1130_0_1.jpg","https://xcimg.szwego.com/imgHD/f8c0bdc9/20260622/cmp_i1782118164995_4909_0_5.jpg","https://xcimg.szwego.com/imgHD/f8c0bdc9/20260622/cmp_i1782118161197_4275_0_2.jpg","https://xcimg.szwego.com/imgHD/f8c0bdc9/20260622/cmp_i1782118161315_1768_0_3.jpg","https://xcimg.szwego.com/imgHD/f8c0bdc9/20260622/cmp_i1782118161783_7307_0_4.jpg"],"created_at":"2026-06-29T10:48:59.339Z"},{"id":"item-088b38312a27","sku":"_djUjUH-TvdEKBs_PAoHZxv0QoxjB-hkTKNgPXlQ","name_en":"细节po","name_cn":"细节po","specs":{"source":"wsxcme","sourceId":"_djUjUH-TvdEKBs_PAoHZxv0QoxjB-hkTKNgPXlQ","sourceTagId":47002761,"sourceTagName":"圣罗兰/女包","rawTitle":"细节po"},"price":null,"currency":"CNY","moq":1,"category":"ysl-women-bags","status":"active","alibaba_url":null,"images":["https://xcimg.szwego.com/imgHD/f8c0bdc9/20260622/cmp_i1782118132193_449_0_0.jpg","https://xcimg.szwego.com/imgHD/f8c0bdc9/20260622/cmp_i1782118132421_4100_0_1.jpg","https://xcimg.szwego.com/imgHD/f8c0bdc9/20260622/cmp_i1782118133802_3195_0_2.jpg","https://xcimg.szwego.com/imgHD/f8c0bdc9/20260622/cmp_i1782118136567_3702_0_3.jpg","https://xcimg.szwego.com/imgHD/f8c0bdc9/20260622/cmp_i1782118133830_9280_0_4.jpg","https://xcimg.szwego.com/imgHD/f8c0bdc9/20260622/cmp_i1782118136344_5156_0_5.jpg","https://xcimg.szwego.com/imgHD/f8c0bdc9/20260622/cmp_i1782118136472_7160_0_6.jpg","https://xcimg.szwego.com/imgHD/f8c0bdc9/20260622/cmp_i1782118133603_3911_0_7.jpg"],"created_at":"2026-06-29T10:48:59.329Z"},{"id":"item-39e76df80172","sku":"_dkfkfKs5Z4o17joOe6F7bk8YoZ-DR4al0Ptr4Mw","name_en":"绿色金扣·24cm","name_cn":"绿色金扣·24cm\nSOLFERINO BOX·腋下包\n这款腋下包轻盈精致 意大利进口box牛皮,LE CASSANDRE锁扣开合五金,羊皮内衬,肩带可调节,便于肩背携带!复古新风尚 优雅知性大方的一款百搭包包!\n货号:832330\n尺寸:24.5×15×8.5cm","specs":{"source":"wsxcme","sourceId":"_dkfkfKs5Z4o17joOe6F7bk8YoZ-DR4al0Ptr4Mw","sourceTagId":47002761,"sourceTagName":"圣罗兰/女包","modelNumber":"832330","dimensions":{"lengthCm":24.5,"heightCm":15,"widthCm":8.5},"rawTitle":"绿色金扣·24cm\nSOLFERINO BOX·腋下包\n这款腋下包轻盈精致 意大利进口box牛皮,LE CASSANDRE锁扣开合五金,羊皮内衬,肩带可调节,便于肩背携带!复古新风尚 优雅知性大方的一款百搭包包!\n货号:832330\n尺寸:24.5×15×8.5cm"},"price":null,"currency":"CNY","moq":1,"category":"ysl-women-bags","status":"active","alibaba_url":null,"images":["https://xcimg.szwego.com/imgHD/f8c0bdc9/20260622/cmp_i1782118085603_9977_0_0.jpg","https://xcimg.szwego.com/imgHD/f8c0bdc9/20260622/cmp_i1782118085578_6031_0_1.jpg","https://xcimg.szwego.com/imgHD/f8c0bdc9/20260622/cmp_i1782118083039_1414_0_2.jpg","https://xcimg.szwego.com/imgHD/f8c0bdc9/20260622/cmp_i1782118082756_7119_0_3.jpg","https://xcimg.szwego.com/imgHD/f8c0bdc9/20260622/cmp_i1782118080757_8243_0_4.jpg","https://xcimg.szwego.com/imgHD/f8c0bdc9/20260622/cmp_i1782118082889_5576_0_8.jpg","https://xcimg.szwego.com/imgHD/f8c0bdc9/20260622/cmp_i1782118084732_4617_0_5.jpg","https://xcimg.szwego.com/imgHD/f8c0bdc9/20260622/cmp_i1782118085788_5077_0_6.jpg","https://xcimg.szwego.com/imgHD/f8c0bdc9/20260622/cmp_i1782118082824_8473_0_7.jpg"],"created_at":"2026-06-29T10:48:59.319Z"},{"id":"item-13fd7ea44cfd","sku":"_dpIpI45vGJW3aTL88pxGEiKcZfQcrQ9TImE6G5w","name_en":"Saint Laurent Women Bags","name_cn":"鳄鱼纹信封包真的太美了!","specs":{"source":"wsxcme","sourceId":"_dpIpI45vGJW3aTL88pxGEiKcZfQcrQ9TImE6G5w","sourceTagId":47002761,"sourceTagName":"圣罗兰/女包","rawTitle":"鳄鱼纹信封包真的太美了!"},"price":null,"currency":"CNY","moq":1,"category":"ysl-women-bags","status":"active","alibaba_url":null,"images":["https://xcimg.szwego.com/20230720/i1689849515_245_0.jpg","https://xcimg.szwego.com/20230720/i1689849515_906_1.jpg","https://xcimg.szwego.com/20230720/i1689849515_4027_2.jpg","https://xcimg.szwego.com/20230720/i1689849515_8299_3.jpg","https://xcimg.szwego.com/20230720/i1689849515_9621_4.jpg","https://xcimg.szwego.com/20230720/i1689849515_8679_5.jpg"],"created_at":"2026-06-29T10:48:59.309Z"}],"page":5,"pageSize":24,"total":888,"totalPages":37}
