{"items":[{"id":"item-b7b0752078c9","sku":"_djpjpabo1bmGHwn3xMaBUUKfWP9NbXBsZjIRcKA","name_en":"咖啡金扣·26cm","name_cn":"咖啡金扣·26cm\n最优雅的风琴包系列sac de jour,永远的经典不过时,精湛的荔枝纹牛皮,纹路清晰而且光泽度十足,十分贵气!26cm内配有中隔,可取出做手包,肩带可以调节,长短自己选择!logo非常小,完美地诠释了低调奢华的格调~\n型号:421863/477477\n尺寸:26x20.5x12.5cm\n(26cm内配有中隔)","specs":{"source":"wsxcme","sourceId":"_djpjpabo1bmGHwn3xMaBUUKfWP9NbXBsZjIRcKA","sourceTagId":47002761,"sourceTagName":"圣罗兰/女包","modelNumber":"421863/477477","dimensions":{"lengthCm":26,"heightCm":20.5,"widthCm":12.5},"rawTitle":"咖啡金扣·26cm\n最优雅的风琴包系列sac de jour,永远的经典不过时,精湛的荔枝纹牛皮,纹路清晰而且光泽度十足,十分贵气!26cm内配有中隔,可取出做手包,肩带可以调节,长短自己选择!logo非常小,完美地诠释了低调奢华的格调~\n型号:421863/477477\n尺寸:26x20.5x12.5cm\n(26cm内配有中隔)"},"price":null,"currency":"CNY","moq":1,"category":"ysl-women-bags","status":"active","alibaba_url":null,"images":["https://xcimg.szwego.com/imgHD/f8c0bdc9/20251209/cmp_i1765274840249_3809_0_0.jpg","https://xcimg.szwego.com/imgHD/f8c0bdc9/20251209/cmp_i1765274841204_7456_0_1.jpg","https://xcimg.szwego.com/imgHD/f8c0bdc9/20251209/cmp_i1765274843361_3494_0_2.jpg","https://xcimg.szwego.com/imgHD/f8c0bdc9/20251209/cmp_i1765274843381_4008_0_3.jpg","https://xcimg.szwego.com/imgHD/f8c0bdc9/20251209/cmp_i1765274842810_1016_0_4.jpg","https://xcimg.szwego.com/imgHD/f8c0bdc9/20251209/cmp_i1765274843335_5273_0_5.jpg","https://xcimg.szwego.com/imgHD/f8c0bdc9/20251209/cmp_i1765274841224_9090_0_6.jpg","https://xcimg.szwego.com/imgHD/f8c0bdc9/20251209/cmp_i1765274840766_7414_0_7.jpg","https://xcimg.szwego.com/imgHD/f8c0bdc9/20251209/cmp_i1765274840386_9967_0_8.jpg"],"created_at":"2026-06-29T10:54:45.586Z"},{"id":"item-1ec8986b6d41","sku":"_dvNvNRp0sDB53oeFBl-_kDxkxsqFm8BYeFPXreQ","name_en":"Saint Laurent Women Bags","name_cn":"独特的风琴褶设计 为包身增添了层次感和立体感\n使其在视觉上更具辨识度","specs":{"source":"wsxcme","sourceId":"_dvNvNRp0sDB53oeFBl-_kDxkxsqFm8BYeFPXreQ","sourceTagId":47002761,"sourceTagName":"圣罗兰/女包","rawTitle":"独特的风琴褶设计 为包身增添了层次感和立体感\n使其在视觉上更具辨识度"},"price":null,"currency":"CNY","moq":1,"category":"ysl-women-bags","status":"active","alibaba_url":null,"images":["https://xcimg.szwego.com/imgHD/f8c0bdc9/20251209/cmp_i1765274701788_688_0_0.jpg","https://xcimg.szwego.com/imgHD/f8c0bdc9/20251209/cmp_i1765274701771_4449_0_1.jpg","https://xcimg.szwego.com/imgHD/f8c0bdc9/20251209/cmp_i1765274701790_1574_0_2.jpg","https://xcimg.szwego.com/imgHD/f8c0bdc9/20251209/cmp_i1765274701775_9413_0_3.jpg"],"created_at":"2026-06-29T10:54:45.576Z"},{"id":"item-49ac875ebaf4","sku":"_dqrqrxT6YZvoYF0WaqRwuezABknN1PI0TTZWsQw","name_en":"咖啡金扣·32cm","name_cn":"咖啡金扣·32cm\n最优雅的风琴包系列sac de jour,永远的经典不过时,精湛的荔枝纹牛皮,纹路清晰而且光泽度十足,十分贵气!32cm内配有中隔,可取出做手包,肩带可以调节,长短自己选择!logo非常小,完美地诠释了低调奢华的格调~\n型号:378299\n尺寸:32×25.5×15.5cm\n(32cm内配有中隔)","specs":{"source":"wsxcme","sourceId":"_dqrqrxT6YZvoYF0WaqRwuezABknN1PI0TTZWsQw","sourceTagId":47002761,"sourceTagName":"圣罗兰/女包","modelNumber":"378299","dimensions":{"lengthCm":32,"heightCm":25.5,"widthCm":15.5},"rawTitle":"咖啡金扣·32cm\n最优雅的风琴包系列sac de jour,永远的经典不过时,精湛的荔枝纹牛皮,纹路清晰而且光泽度十足,十分贵气!32cm内配有中隔,可取出做手包,肩带可以调节,长短自己选择!logo非常小,完美地诠释了低调奢华的格调~\n型号:378299\n尺寸:32×25.5×15.5cm\n(32cm内配有中隔)"},"price":null,"currency":"CNY","moq":1,"category":"ysl-women-bags","status":"active","alibaba_url":null,"images":["https://xcimg.szwego.com/imgHD/f8c0bdc9/20251209/cmp_i1765274604393_3454_0_0.jpg","https://xcimg.szwego.com/imgHD/f8c0bdc9/20251209/cmp_i1765274599967_5697_0_1.jpg","https://xcimg.szwego.com/imgHD/f8c0bdc9/20251209/cmp_i1765274599990_6438_0_2.jpg","https://xcimg.szwego.com/imgHD/f8c0bdc9/20251209/cmp_i1765274599994_2082_0_3.jpg","https://xcimg.szwego.com/imgHD/f8c0bdc9/20251209/cmp_i1765274604625_8282_0_4.jpg","https://xcimg.szwego.com/imgHD/f8c0bdc9/20251209/cmp_i1765274600727_7049_0_5.jpg","https://xcimg.szwego.com/imgHD/f8c0bdc9/20251209/cmp_i1765274605049_4133_0_6.jpg","https://xcimg.szwego.com/imgHD/f8c0bdc9/20251209/cmp_i1765274599995_4753_0_7.jpg","https://xcimg.szwego.com/imgHD/f8c0bdc9/20251209/cmp_i1765274604409_8532_0_8.jpg"],"created_at":"2026-06-29T10:54:45.566Z"},{"id":"item-cc849d185bd6","sku":"_diyiyY9FoYsc5PaRF5lr5y8H3pysI91-9BaQ6bw","name_en":"Saint Laurent Women Bags","name_cn":"官网图","specs":{"source":"wsxcme","sourceId":"_diyiyY9FoYsc5PaRF5lr5y8H3pysI91-9BaQ6bw","sourceTagId":47002761,"sourceTagName":"圣罗兰/女包","rawTitle":"官网图"},"price":null,"currency":"CNY","moq":1,"category":"ysl-women-bags","status":"active","alibaba_url":null,"images":["https://xcimg.szwego.com/imgHD/f8c0bdc9/20251209/cmp_i1765277346610_4392_0_0.jpg","https://xcimg.szwego.com/imgHD/f8c0bdc9/20251209/cmp_i1765277346611_6394_0_1.jpg","https://xcimg.szwego.com/imgHD/f8c0bdc9/20251209/cmp_i1765277346610_491_0_2.jpg","https://xcimg.szwego.com/imgHD/f8c0bdc9/20251209/cmp_i1765277346611_3866_0_3.jpg"],"created_at":"2026-06-29T10:54:45.556Z"},{"id":"item-b15592ace992","sku":"_dHuHumVUYfpNRzPvlIVqHpVWexs2PFMhaY_ypMw","name_en":"Saint Laurent Women Bags","name_cn":"古典里的贵气色系 💜\n藏着宇宙级的浪漫与神秘 是一场层次交织的视觉盛宴","specs":{"source":"wsxcme","sourceId":"_dHuHumVUYfpNRzPvlIVqHpVWexs2PFMhaY_ypMw","sourceTagId":47002761,"sourceTagName":"圣罗兰/女包","rawTitle":"古典里的贵气色系 💜\n藏着宇宙级的浪漫与神秘 是一场层次交织的视觉盛宴"},"price":null,"currency":"CNY","moq":1,"category":"ysl-women-bags","status":"active","alibaba_url":null,"images":["https://xcimg.szwego.com/imgHD/f8c0bdc9/20251209/cmp_i1765273997464_5224_0_0.jpg","https://xcimg.szwego.com/imgHD/f8c0bdc9/20251209/cmp_i1765273997453_5822_0_1.jpg","https://xcimg.szwego.com/imgHD/f8c0bdc9/20251209/cmp_i1765273997492_3314_0_2.jpg","https://xcimg.szwego.com/imgHD/f8c0bdc9/20251209/cmp_i1765273997543_4261_0_3.jpg"],"created_at":"2026-06-29T10:54:45.546Z"},{"id":"item-3ef354652235","sku":"_dkFkFBFw2yRrVN36HRL8ktYPovLunPyYHNSoEpA","name_en":"细节po","name_cn":"细节po","specs":{"source":"wsxcme","sourceId":"_dkFkFBFw2yRrVN36HRL8ktYPovLunPyYHNSoEpA","sourceTagId":47002761,"sourceTagName":"圣罗兰/女包","rawTitle":"细节po"},"price":null,"currency":"CNY","moq":1,"category":"ysl-women-bags","status":"active","alibaba_url":null,"images":["https://xcimg.szwego.com/imgHD/f8c0bdc9/20251209/cmp_i1765273985161_6860_0_0.jpg","https://xcimg.szwego.com/imgHD/f8c0bdc9/20251209/cmp_i1765273985325_800_0_1.jpg","https://xcimg.szwego.com/imgHD/f8c0bdc9/20251209/cmp_i1765273985106_4792_0_2.jpg","https://xcimg.szwego.com/imgHD/f8c0bdc9/20251209/cmp_i1765273985298_5644_0_3.jpg","https://xcimg.szwego.com/imgHD/f8c0bdc9/20251209/cmp_i1765273988595_8565_0_4.jpg","https://xcimg.szwego.com/imgHD/f8c0bdc9/20251209/cmp_i1765273988486_9440_0_5.jpg","https://xcimg.szwego.com/imgHD/f8c0bdc9/20251209/cmp_i1765273986513_6739_0_6.jpg"],"created_at":"2026-06-29T10:54:45.536Z"},{"id":"item-95f963714ef7","sku":"_dlJlJiOjTCz5wrS6MeTZ-lHjzmN-_Qef_2Rfpsg","name_en":"紫色蜥蜴纹·22cm","name_cn":"紫色蜥蜴纹·22cm\n最优雅的风琴包系列sac de jour,永远的经典不过时,精致的亮面牛皮,且光泽度十足,十分贵气!肩带可以调节,长短自己选择!logo非常小,完美地诠释了低调奢华的格调~\n型号:717440\n尺寸:22x18x10.5cm","specs":{"source":"wsxcme","sourceId":"_dlJlJiOjTCz5wrS6MeTZ-lHjzmN-_Qef_2Rfpsg","sourceTagId":47002761,"sourceTagName":"圣罗兰/女包","modelNumber":"717440","dimensions":{"lengthCm":22,"heightCm":18,"widthCm":10.5},"rawTitle":"紫色蜥蜴纹·22cm\n最优雅的风琴包系列sac de jour,永远的经典不过时,精致的亮面牛皮,且光泽度十足,十分贵气!肩带可以调节,长短自己选择!logo非常小,完美地诠释了低调奢华的格调~\n型号:717440\n尺寸:22x18x10.5cm"},"price":null,"currency":"CNY","moq":1,"category":"ysl-women-bags","status":"active","alibaba_url":null,"images":["https://xcimg.szwego.com/imgHD/f8c0bdc9/20251209/cmp_i1765273946415_2284_0_0.jpg","https://xcimg.szwego.com/imgHD/f8c0bdc9/20251209/cmp_i1765273942568_172_0_1.jpg","https://xcimg.szwego.com/imgHD/f8c0bdc9/20251209/cmp_i1765273945380_348_0_2.jpg","https://xcimg.szwego.com/imgHD/f8c0bdc9/20251209/cmp_i1765273942630_7620_0_3.jpg","https://xcimg.szwego.com/imgHD/f8c0bdc9/20251209/cmp_i1765273943024_887_0_4.jpg","https://xcimg.szwego.com/imgHD/f8c0bdc9/20251209/cmp_i1765273942082_7836_0_5.jpg","https://xcimg.szwego.com/imgHD/f8c0bdc9/20251209/cmp_i1765273942090_1447_0_6.jpg","https://xcimg.szwego.com/imgHD/f8c0bdc9/20251209/cmp_i1765273944794_7773_0_7.jpg","https://xcimg.szwego.com/imgHD/f8c0bdc9/20251209/cmp_i1765273946452_1647_0_8.jpg"],"created_at":"2026-06-29T10:54:45.526Z"},{"id":"item-383ed2d7aadf","sku":"_d4q4qHJ7HtOE-_jOG4zMforyXRM51EcylHiybiA","name_en":"Saint Laurent Women Bags","name_cn":"官网图","specs":{"source":"wsxcme","sourceId":"_d4q4qHJ7HtOE-_jOG4zMforyXRM51EcylHiybiA","sourceTagId":47002761,"sourceTagName":"圣罗兰/女包","rawTitle":"官网图"},"price":null,"currency":"CNY","moq":1,"category":"ysl-women-bags","status":"active","alibaba_url":null,"images":["https://xcimg.szwego.com/imgHD/f8c0bdc9/20251229/cmp_i1767000910549_3248_0_0.jpg","https://xcimg.szwego.com/imgHD/f8c0bdc9/20251229/cmp_i1767000910550_5103_0_1.jpg","https://xcimg.szwego.com/imgHD/f8c0bdc9/20251229/cmp_i1767000910549_7832_0_2.jpg","https://xcimg.szwego.com/imgHD/f8c0bdc9/20251229/cmp_i1767000911586_9574_0_3.jpg","https://xcimg.szwego.com/imgHD/f8c0bdc9/20251229/cmp_i1767000910549_8357_0_4.jpg","https://xcimg.szwego.com/imgHD/f8c0bdc9/20251229/cmp_i1767000910549_5473_0_5.jpg"],"created_at":"2026-06-29T10:54:45.516Z"},{"id":"item-e5fb8837bcb2","sku":"_dtwtwKWfBkcWDtthEeHm30uog6hokA-O327E7DQ","name_en":"Saint Laurent Women Bags","name_cn":"焦糖色系包包已悄然成为博主们的日常搭配\n自带暖意","specs":{"source":"wsxcme","sourceId":"_dtwtwKWfBkcWDtthEeHm30uog6hokA-O327E7DQ","sourceTagId":47002761,"sourceTagName":"圣罗兰/女包","rawTitle":"焦糖色系包包已悄然成为博主们的日常搭配\n自带暖意"},"price":null,"currency":"CNY","moq":1,"category":"ysl-women-bags","status":"active","alibaba_url":null,"images":["https://xcimg.szwego.com/imgHD/f8c0bdc9/20251229/cmp_i1767000162095_2074_0_0.jpg","https://xcimg.szwego.com/imgHD/f8c0bdc9/20251229/cmp_i1767000162034_211_0_1.jpg","https://xcimg.szwego.com/imgHD/f8c0bdc9/20251229/cmp_i1767000161594_2464_0_2.jpg","https://xcimg.szwego.com/imgHD/f8c0bdc9/20251229/cmp_i1767000162107_9899_0_3.jpg"],"created_at":"2026-06-29T10:54:45.506Z"},{"id":"item-412a8f15c3cf","sku":"_dpZpZJEXizDbJSbb3j_CxGFTxmLuOaeBTziyyOw","name_en":"细节po","name_cn":"细节po","specs":{"source":"wsxcme","sourceId":"_dpZpZJEXizDbJSbb3j_CxGFTxmLuOaeBTziyyOw","sourceTagId":47002761,"sourceTagName":"圣罗兰/女包","rawTitle":"细节po"},"price":null,"currency":"CNY","moq":1,"category":"ysl-women-bags","status":"active","alibaba_url":null,"images":["https://xcimg.szwego.com/imgHD/f8c0bdc9/20251229/cmp_i1767000149346_2031_0_0.jpg","https://xcimg.szwego.com/imgHD/f8c0bdc9/20251229/cmp_i1767000147878_4577_0_1.jpg","https://xcimg.szwego.com/imgHD/f8c0bdc9/20251229/cmp_i1767000149109_8849_0_2.jpg","https://xcimg.szwego.com/imgHD/f8c0bdc9/20251229/cmp_i1767000149445_6426_0_3.jpg","https://xcimg.szwego.com/imgHD/f8c0bdc9/20251229/cmp_i1767000148011_5873_0_4.jpg"],"created_at":"2026-06-29T10:54:45.496Z"},{"id":"item-95e6a0016779","sku":"_dhXhXSK7jzphE9aOrNgMFknNImcvaOTM2E7BVrQ","name_en":"土黄荔枝纹金扣·22cm","name_cn":"土黄荔枝纹金扣·22cm\n最优雅的风琴包系列sac de jour,永远的经典不过时,精致的荔枝纹牛皮,且光泽度十足,十分贵气!肩带可以调节,长短自己选择!logo非常小,完美地诠释了低调奢华的格调~\n型号:717440\n尺寸:22x18x10.5cm","specs":{"source":"wsxcme","sourceId":"_dhXhXSK7jzphE9aOrNgMFknNImcvaOTM2E7BVrQ","sourceTagId":47002761,"sourceTagName":"圣罗兰/女包","modelNumber":"717440","dimensions":{"lengthCm":22,"heightCm":18,"widthCm":10.5},"rawTitle":"土黄荔枝纹金扣·22cm\n最优雅的风琴包系列sac de jour,永远的经典不过时,精致的荔枝纹牛皮,且光泽度十足,十分贵气!肩带可以调节,长短自己选择!logo非常小,完美地诠释了低调奢华的格调~\n型号:717440\n尺寸:22x18x10.5cm"},"price":null,"currency":"CNY","moq":1,"category":"ysl-women-bags","status":"active","alibaba_url":null,"images":["https://xcimg.szwego.com/imgHD/f8c0bdc9/20251229/cmp_i1767000115406_2890_0_0.jpg","https://xcimg.szwego.com/imgHD/f8c0bdc9/20251229/cmp_i1767000112829_7152_0_1.jpg","https://xcimg.szwego.com/imgHD/f8c0bdc9/20251229/cmp_i1767000114480_7482_0_2.jpg","https://xcimg.szwego.com/imgHD/f8c0bdc9/20251229/cmp_i1767000113312_1921_0_3.jpg","https://xcimg.szwego.com/imgHD/f8c0bdc9/20251229/cmp_i1767000112770_1148_0_8.jpg","https://xcimg.szwego.com/imgHD/f8c0bdc9/20251229/cmp_i1767000116798_3545_0_4.jpg","https://xcimg.szwego.com/imgHD/f8c0bdc9/20251229/cmp_i1767000114425_3856_0_5.jpg","https://xcimg.szwego.com/imgHD/f8c0bdc9/20251229/cmp_i1767000115404_2418_0_6.jpg","https://xcimg.szwego.com/imgHD/f8c0bdc9/20251229/cmp_i1767000116837_9457_0_7.jpg"],"created_at":"2026-06-29T10:54:45.486Z"},{"id":"item-e2676a384307","sku":"_dAVAVafWAKWHtUoDC2cHHIMER6_UUbJfBijhcMw","name_en":"Saint Laurent Women Bags","name_cn":"经典的侧面风琴褶\n挺括的皮质特别有质感","specs":{"source":"wsxcme","sourceId":"_dAVAVafWAKWHtUoDC2cHHIMER6_UUbJfBijhcMw","sourceTagId":47002761,"sourceTagName":"圣罗兰/女包","rawTitle":"经典的侧面风琴褶\n挺括的皮质特别有质感"},"price":null,"currency":"CNY","moq":1,"category":"ysl-women-bags","status":"active","alibaba_url":null,"images":["https://xcimg.szwego.com/imgHD/f8c0bdc9/20251229/cmp_i1766999936331_8972_0_0.jpg","https://xcimg.szwego.com/imgHD/f8c0bdc9/20251229/cmp_i1766999936368_5128_0_1.jpg","https://xcimg.szwego.com/imgHD/f8c0bdc9/20251229/cmp_i1766999936392_7058_0_2.jpg","https://xcimg.szwego.com/imgHD/f8c0bdc9/20251229/cmp_i1766999936336_8660_0_3.jpg"],"created_at":"2026-06-29T10:54:45.476Z"},{"id":"item-82e9cbfefea2","sku":"_djrjrlKaHNd8we42NkBhuaOfyFk0oJbSS6nnh7g","name_en":"细节po","name_cn":"细节po","specs":{"source":"wsxcme","sourceId":"_djrjrlKaHNd8we42NkBhuaOfyFk0oJbSS6nnh7g","sourceTagId":47002761,"sourceTagName":"圣罗兰/女包","rawTitle":"细节po"},"price":null,"currency":"CNY","moq":1,"category":"ysl-women-bags","status":"active","alibaba_url":null,"images":["https://xcimg.szwego.com/imgHD/f8c0bdc9/20251229/cmp_i1766999922658_8517_0_0.jpg","https://xcimg.szwego.com/imgHD/f8c0bdc9/20251229/cmp_i1766999922709_4811_0_1.jpg","https://xcimg.szwego.com/imgHD/f8c0bdc9/20251229/cmp_i1766999924229_4009_0_2.jpg","https://xcimg.szwego.com/imgHD/f8c0bdc9/20251229/cmp_i1766999924068_3709_0_3.jpg","https://xcimg.szwego.com/imgHD/f8c0bdc9/20251229/cmp_i1766999924315_3848_0_4.jpg"],"created_at":"2026-06-29T10:54:45.466Z"},{"id":"item-e2a4f35620ba","sku":"_dVzVznk6qyeeIjJzehotpDHP1RpkZS57qjffzyg","name_en":"土黄荔枝纹金扣·26cm","name_cn":"土黄荔枝纹金扣·26cm\n最优雅的风琴包系列sac de jour,永远的经典不过时,精湛的荔枝纹牛皮,纹路清晰而且光泽度十足,十分贵气!26cm内配有中隔,可取出做手包,肩带可以调节,长短自己选择!logo非常小,完美地诠释了低调奢华的格调~\n型号:421863/477477\n尺寸:26x20.5x12.5cm\n(26cm内配有中隔)","specs":{"source":"wsxcme","sourceId":"_dVzVznk6qyeeIjJzehotpDHP1RpkZS57qjffzyg","sourceTagId":47002761,"sourceTagName":"圣罗兰/女包","modelNumber":"421863/477477","dimensions":{"lengthCm":26,"heightCm":20.5,"widthCm":12.5},"rawTitle":"土黄荔枝纹金扣·26cm\n最优雅的风琴包系列sac de jour,永远的经典不过时,精湛的荔枝纹牛皮,纹路清晰而且光泽度十足,十分贵气!26cm内配有中隔,可取出做手包,肩带可以调节,长短自己选择!logo非常小,完美地诠释了低调奢华的格调~\n型号:421863/477477\n尺寸:26x20.5x12.5cm\n(26cm内配有中隔)"},"price":null,"currency":"CNY","moq":1,"category":"ysl-women-bags","status":"active","alibaba_url":null,"images":["https://xcimg.szwego.com/imgHD/f8c0bdc9/20251229/cmp_i1766999883248_2253_0_0.jpg","https://xcimg.szwego.com/imgHD/f8c0bdc9/20251229/cmp_i1766999885915_6302_0_1.jpg","https://xcimg.szwego.com/imgHD/f8c0bdc9/20251229/cmp_i1766999883307_17_0_2.jpg","https://xcimg.szwego.com/imgHD/f8c0bdc9/20251229/cmp_i1766999883775_7595_0_7.jpg","https://xcimg.szwego.com/imgHD/f8c0bdc9/20251229/cmp_i1766999887240_146_0_3.jpg","https://xcimg.szwego.com/imgHD/f8c0bdc9/20251229/cmp_i1766999884831_7026_0_8.jpg","https://xcimg.szwego.com/imgHD/f8c0bdc9/20251229/cmp_i1766999887294_133_0_4.jpg","https://xcimg.szwego.com/imgHD/f8c0bdc9/20251229/cmp_i1766999883220_6740_0_5.jpg","https://xcimg.szwego.com/imgHD/f8c0bdc9/20251229/cmp_i1766999885960_7532_0_6.jpg"],"created_at":"2026-06-29T10:54:45.456Z"},{"id":"item-7f39f78af49b","sku":"_drprpmE1WrHbYp9eCP2iz88FFFmcSr7BMJOtRDQ","name_en":"Saint Laurent Women Bags","name_cn":"干净利落的线条和硬朗的设计\n非常简约大气!","specs":{"source":"wsxcme","sourceId":"_drprpmE1WrHbYp9eCP2iz88FFFmcSr7BMJOtRDQ","sourceTagId":47002761,"sourceTagName":"圣罗兰/女包","rawTitle":"干净利落的线条和硬朗的设计\n非常简约大气!"},"price":null,"currency":"CNY","moq":1,"category":"ysl-women-bags","status":"active","alibaba_url":null,"images":["https://xcimg.szwego.com/imgHD/f8c0bdc9/20251229/cmp_i1766999770111_5108_0_0.jpg","https://xcimg.szwego.com/imgHD/f8c0bdc9/20251229/cmp_i1766999770126_1734_0_1.jpg","https://xcimg.szwego.com/imgHD/f8c0bdc9/20251229/cmp_i1766999770096_1429_0_2.jpg","https://xcimg.szwego.com/imgHD/f8c0bdc9/20251229/cmp_i1766999770147_8492_0_3.jpg"],"created_at":"2026-06-29T10:54:45.446Z"},{"id":"item-3cf2a962b29b","sku":"_dEYEYvtxj5B0ZxSrXntuyEixsV84ULBxjvqtL_g","name_en":"细节po","name_cn":"细节po","specs":{"source":"wsxcme","sourceId":"_dEYEYvtxj5B0ZxSrXntuyEixsV84ULBxjvqtL_g","sourceTagId":47002761,"sourceTagName":"圣罗兰/女包","rawTitle":"细节po"},"price":null,"currency":"CNY","moq":1,"category":"ysl-women-bags","status":"active","alibaba_url":null,"images":["https://xcimg.szwego.com/imgHD/f8c0bdc9/20251229/cmp_i1766999217288_1462_0_0.jpg","https://xcimg.szwego.com/imgHD/f8c0bdc9/20251229/cmp_i1766999222250_4507_0_1.jpg","https://xcimg.szwego.com/imgHD/f8c0bdc9/20251229/cmp_i1766999221086_8350_0_2.jpg","https://xcimg.szwego.com/imgHD/f8c0bdc9/20251229/cmp_i1766999219773_5703_0_3.jpg","https://xcimg.szwego.com/imgHD/f8c0bdc9/20251229/cmp_i1766999219532_7856_0_4.jpg","https://xcimg.szwego.com/imgHD/f8c0bdc9/20251229/cmp_i1766999219525_3735_0_5.jpg","https://xcimg.szwego.com/imgHD/f8c0bdc9/20251229/cmp_i1766999219884_7075_0_6.jpg"],"created_at":"2026-06-29T10:54:45.436Z"},{"id":"item-0ea102bc10a9","sku":"_de7e79kVu1ZtTwn7uEG2JL77jEri0BojhH9lVKg","name_en":"黑色荔枝纹金扣·22cm","name_cn":"黑色荔枝纹金扣·22cm\n最优雅的风琴包系列sac de jour,永远的经典不过时,精致的荔枝纹牛皮,且光泽度十足,十分贵气!肩带可以调节,长短自己选择!logo非常小,完美地诠释了低调奢华的格调~\n型号:717440\n尺寸:22x18x10.5cm","specs":{"source":"wsxcme","sourceId":"_de7e79kVu1ZtTwn7uEG2JL77jEri0BojhH9lVKg","sourceTagId":47002761,"sourceTagName":"圣罗兰/女包","modelNumber":"717440","dimensions":{"lengthCm":22,"heightCm":18,"widthCm":10.5},"rawTitle":"黑色荔枝纹金扣·22cm\n最优雅的风琴包系列sac de jour,永远的经典不过时,精致的荔枝纹牛皮,且光泽度十足,十分贵气!肩带可以调节,长短自己选择!logo非常小,完美地诠释了低调奢华的格调~\n型号:717440\n尺寸:22x18x10.5cm"},"price":null,"currency":"CNY","moq":1,"category":"ysl-women-bags","status":"active","alibaba_url":null,"images":["https://xcimg.szwego.com/imgHD/f8c0bdc9/20251229/cmp_i1766999157603_3028_0_0.jpg","https://xcimg.szwego.com/imgHD/f8c0bdc9/20251229/cmp_i1766999156399_7686_0_8.jpg","https://xcimg.szwego.com/imgHD/f8c0bdc9/20251229/cmp_i1766999154991_7972_0_1.jpg","https://xcimg.szwego.com/imgHD/f8c0bdc9/20251229/cmp_i1766999159061_5259_0_2.jpg","https://xcimg.szwego.com/imgHD/f8c0bdc9/20251229/cmp_i1766999156210_2981_0_3.jpg","https://xcimg.szwego.com/imgHD/f8c0bdc9/20251229/cmp_i1766999156215_3652_0_4.jpg","https://xcimg.szwego.com/imgHD/f8c0bdc9/20251229/cmp_i1766999158973_8914_0_5.jpg","https://xcimg.szwego.com/imgHD/f8c0bdc9/20251229/cmp_i1766999157913_2694_0_6.jpg","https://xcimg.szwego.com/imgHD/f8c0bdc9/20251229/cmp_i1766999156317_5289_0_7.jpg"],"created_at":"2026-06-29T10:54:45.426Z"},{"id":"item-87bab5ecea1b","sku":"_dgwgwATsrTK3xDWbIMIf-gwOO5Se2SPjOn4swZA","name_en":"细节po","name_cn":"细节po","specs":{"source":"wsxcme","sourceId":"_dgwgwATsrTK3xDWbIMIf-gwOO5Se2SPjOn4swZA","sourceTagId":47002761,"sourceTagName":"圣罗兰/女包","rawTitle":"细节po"},"price":null,"currency":"CNY","moq":1,"category":"ysl-women-bags","status":"active","alibaba_url":null,"images":["https://xcimg.szwego.com/imgHD/f8c0bdc9/20251229/cmp_i1766998203047_8018_0_0.jpg","https://xcimg.szwego.com/imgHD/f8c0bdc9/20251229/cmp_i1766998199385_824_0_1.jpg","https://xcimg.szwego.com/imgHD/f8c0bdc9/20251229/cmp_i1766998199559_7240_0_2.jpg","https://xcimg.szwego.com/imgHD/f8c0bdc9/20251229/cmp_i1766998203281_8816_0_3.jpg","https://xcimg.szwego.com/imgHD/f8c0bdc9/20251229/cmp_i1766998202949_2691_0_4.jpg","https://xcimg.szwego.com/imgHD/f8c0bdc9/20251229/cmp_i1766998200784_1528_0_5.jpg","https://xcimg.szwego.com/imgHD/f8c0bdc9/20251229/cmp_i1766998199341_677_0_6.jpg","https://xcimg.szwego.com/imgHD/f8c0bdc9/20251229/cmp_i1766998200625_4354_0_7.jpg"],"created_at":"2026-06-29T10:54:45.416Z"},{"id":"item-c9ecd945eb99","sku":"_dsWsWLvtssK-PltqqXHTXOb7clLhLAhKoqR9Xgw","name_en":"黑色荔枝纹金扣·26cm","name_cn":"黑色荔枝纹金扣·26cm\n最优雅的风琴包系列sac de jour,永远的经典不过时,精湛的荔枝纹牛皮,纹路清晰而且光泽度十足,十分贵气!26cm内配有中隔,可取出做手包,肩带可以调节,长短自己选择!logo非常小,完美地诠释了低调奢华的格调~\n型号:421863/477477\n尺寸:26x20.5x12.5cm\n(26cm内配有中隔)","specs":{"source":"wsxcme","sourceId":"_dsWsWLvtssK-PltqqXHTXOb7clLhLAhKoqR9Xgw","sourceTagId":47002761,"sourceTagName":"圣罗兰/女包","modelNumber":"421863/477477","dimensions":{"lengthCm":26,"heightCm":20.5,"widthCm":12.5},"rawTitle":"黑色荔枝纹金扣·26cm\n最优雅的风琴包系列sac de jour,永远的经典不过时,精湛的荔枝纹牛皮,纹路清晰而且光泽度十足,十分贵气!26cm内配有中隔,可取出做手包,肩带可以调节,长短自己选择!logo非常小,完美地诠释了低调奢华的格调~\n型号:421863/477477\n尺寸:26x20.5x12.5cm\n(26cm内配有中隔)"},"price":null,"currency":"CNY","moq":1,"category":"ysl-women-bags","status":"active","alibaba_url":null,"images":["https://xcimg.szwego.com/imgHD/f8c0bdc9/20251229/cmp_i1766998145284_4214_0_0.jpg","https://xcimg.szwego.com/imgHD/f8c0bdc9/20251229/cmp_i1766998142736_1402_0_1.jpg","https://xcimg.szwego.com/imgHD/f8c0bdc9/20251229/cmp_i1766998146884_9110_0_2.jpg","https://xcimg.szwego.com/imgHD/f8c0bdc9/20251229/cmp_i1766998143325_4522_0_3.jpg","https://xcimg.szwego.com/imgHD/f8c0bdc9/20251229/cmp_i1766998146819_2043_0_4.jpg","https://xcimg.szwego.com/imgHD/f8c0bdc9/20251229/cmp_i1766998146943_1359_0_5.jpg","https://xcimg.szwego.com/imgHD/f8c0bdc9/20251229/cmp_i1766998143361_6102_0_6.jpg","https://xcimg.szwego.com/imgHD/f8c0bdc9/20251229/cmp_i1766998142765_6672_0_7.jpg","https://xcimg.szwego.com/imgHD/f8c0bdc9/20251229/cmp_i1766998144524_8514_0_8.jpg"],"created_at":"2026-06-29T10:54:45.406Z"},{"id":"item-920ba0c0ea60","sku":"_dHBHB7BF1afoPxMwDE8jMxuZM6fMMtp5QGrC0EA","name_en":"经典SAC DE JOUR风琴包","name_cn":"经典SAC DE JOUR风琴包\n肩带可调节 斜挎单肩手拎都可以\n简约大方","specs":{"source":"wsxcme","sourceId":"_dHBHB7BF1afoPxMwDE8jMxuZM6fMMtp5QGrC0EA","sourceTagId":47002761,"sourceTagName":"圣罗兰/女包","rawTitle":"经典SAC DE JOUR风琴包\n肩带可调节 斜挎单肩手拎都可以\n简约大方"},"price":null,"currency":"CNY","moq":1,"category":"ysl-women-bags","status":"active","alibaba_url":null,"images":["https://xcimg.szwego.com/imgHD/f8c0bdc9/20251229/cmp_i1766997955694_3247_0_0.jpg","https://xcimg.szwego.com/imgHD/f8c0bdc9/20251229/cmp_i1766997955672_2549_0_1.jpg","https://xcimg.szwego.com/imgHD/f8c0bdc9/20251229/cmp_i1766997955682_989_0_2.jpg","https://xcimg.szwego.com/imgHD/f8c0bdc9/20251229/cmp_i1766997955683_7806_0_3.jpg"],"created_at":"2026-06-29T10:54:45.396Z"},{"id":"item-a2f2195ebbe1","sku":"_dejejvRYbMSc5l6HMsEQhmX-iXrXh3S81cW1fMw","name_en":"P🔥🔝新品上市👏👉黑油腊皮/金🌈YSL新包王炸 !Niki tripouch真的太会了!谁懂啊!这只复古油蜡皮简直长在审美点上!做旧日裂紋皮自带滤镜,V形絎缝比普通菱格更显利落,粗金链+金属Logo,复古感拉滿又不会太浮夸。中号尺寸刚刚好,日常出门的,粉饼,墨镜都能塞下,单肩背是慵懶姐姐,斜挎背是酷颯少女,配西裝是职场大女主,配是街头潮人,实用性和","name_cn":"P🔥🔝新品上市👏👉黑油腊皮/金🌈YSL新包王炸 !Niki tripouch真的太会了!谁懂啊!这只复古油蜡皮简直长在审美点上!做旧日裂紋皮自带滤镜,V形絎缝比普通菱格更显利落,粗金链+金属Logo,复古感拉滿又不会太浮夸。中号尺寸刚刚好,日常出门的,粉饼,墨镜都能塞下,单肩背是慵懶姐姐,斜挎背是酷颯少女,配西裝是职场大女主,配是街头潮人,实用性和颜值双在现\n型号:812943\n尺寸:28x13.5x20.5cm","specs":{"source":"wsxcme","sourceId":"_dejejvRYbMSc5l6HMsEQhmX-iXrXh3S81cW1fMw","sourceTagId":47002761,"sourceTagName":"圣罗兰/女包","modelNumber":"812943","dimensions":{"lengthCm":28,"heightCm":13.5,"widthCm":20.5},"rawTitle":"P🔥🔝新品上市👏👉黑油腊皮/金🌈YSL新包王炸 !Niki tripouch真的太会了!谁懂啊!这只复古油蜡皮简直长在审美点上!做旧日裂紋皮自带滤镜,V形絎缝比普通菱格更显利落,粗金链+金属Logo,复古感拉滿又不会太浮夸。中号尺寸刚刚好,日常出门的,粉饼,墨镜都能塞下,单肩背是慵懶姐姐,斜挎背是酷颯少女,配西裝是职场大女主,配是街头潮人,实用性和颜值双在现\n型号:812943\n尺寸:28x13.5x20.5cm"},"price":null,"currency":"CNY","moq":1,"category":"ysl-women-bags","status":"active","alibaba_url":null,"images":["https://xcimg.szwego.com/img/ffb49dcd/20260421/i1776781233955_7956_0_0.jpg","https://xcimg.szwego.com/img/ffb49dcd/20260421/i1776781233955_2672_0_1.jpg","https://xcimg.szwego.com/img/ffb49dcd/20260421/i1776781235274_4056_0_2.jpg","https://xcimg.szwego.com/img/ffb49dcd/20260421/i1776781235407_6905_0_3.jpg","https://xcimg.szwego.com/img/ffb49dcd/20260421/i1776781235280_8387_0_4.jpg","https://xcimg.szwego.com/img/ffb49dcd/20260421/i1776781235284_2900_0_5.jpg","https://xcimg.szwego.com/img/ffb49dcd/20260421/i1776781233955_8782_0_6.jpg","https://xcimg.szwego.com/img/ffb49dcd/20260421/i1776781233955_8114_0_7.jpg","https://xcimg.szwego.com/img/ffb49dcd/20260421/i1776781233969_8738_0_8.jpg"],"created_at":"2026-06-29T10:54:45.386Z"},{"id":"item-04e5cb34ad2a","sku":"_dsOsOwXBWhw00ljSgJgWtjOwaFOYkTPX3MzIcEQ","name_en":"P💰黑色银扣油蜡皮·    28cm","name_cn":"P💰黑色银扣油蜡皮·    28cm\nNiki的设计灵感源自Y家经典的吸烟装 整体风格酷飒又随性。包身采用油蜡小牛皮,天然的抓皱纹理自带复古感,耐磨耐造!标志性的金属logo,复古做旧质感,低调又高级,仿佛在无声诉说着品牌的时尚态度!\n尺寸:28×20×8cm\n型号:633158","specs":{"source":"wsxcme","sourceId":"_dsOsOwXBWhw00ljSgJgWtjOwaFOYkTPX3MzIcEQ","sourceTagId":47002761,"sourceTagName":"圣罗兰/女包","modelNumber":"633158","dimensions":{"lengthCm":28,"heightCm":20,"widthCm":8},"rawTitle":"P💰黑色银扣油蜡皮·    28cm\nNiki的设计灵感源自Y家经典的吸烟装 整体风格酷飒又随性。包身采用油蜡小牛皮,天然的抓皱纹理自带复古感,耐磨耐造!标志性的金属logo,复古做旧质感,低调又高级,仿佛在无声诉说着品牌的时尚态度!\n尺寸:28×20×8cm\n型号:633158"},"price":null,"currency":"CNY","moq":1,"category":"ysl-women-bags","status":"active","alibaba_url":null,"images":["https://xcimg.szwego.com/img/4d7f6e4b/20260404/a1775235491513_2775.jpg","https://xcimg.szwego.com/img/4d7f6e4b/20260404/a1775235492394_1068.jpg","https://xcimg.szwego.com/img/4d7f6e4b/20260404/a1775235491513_4103.jpg","https://xcimg.szwego.com/img/4d7f6e4b/20260404/a1775235490047_8725.jpg","https://xcimg.szwego.com/img/4d7f6e4b/20260404/a1775235490099_7674.jpg","https://xcimg.szwego.com/img/4d7f6e4b/20260404/a1775235494240_2830.jpg","https://xcimg.szwego.com/img/4d7f6e4b/20260404/a1775235493503_6232.jpg","https://xcimg.szwego.com/img/4d7f6e4b/20260404/a1775235493633_5470.jpg","https://xcimg.szwego.com/img/4d7f6e4b/20260404/a1775235493728_7324.jpg"],"created_at":"2026-06-29T10:54:45.376Z"},{"id":"item-12302a12a74f","sku":"_dsOsOwXBWhw00ljSgJgWtjOwaFOQnTPX3MzIcEQ","name_en":"P💰银标油蜡皮· 22cm","name_cn":"P💰银标油蜡皮· 22cm\nNiki的设计灵感源自Y家经典的吸烟装 整体风格酷飒又随性。包身采用油蜡小牛皮,天然的抓皱纹理自带复古感,耐磨耐造!标志性的金属logo,复古做旧质感,低调又高级,仿佛在无声诉说着品牌的时尚态度!\n尺寸:22×16.5×12cm\n型号:633151-1","specs":{"source":"wsxcme","sourceId":"_dsOsOwXBWhw00ljSgJgWtjOwaFOQnTPX3MzIcEQ","sourceTagId":47002761,"sourceTagName":"圣罗兰/女包","modelNumber":"633151-1","dimensions":{"lengthCm":22,"heightCm":16.5,"widthCm":12},"rawTitle":"P💰银标油蜡皮· 22cm\nNiki的设计灵感源自Y家经典的吸烟装 整体风格酷飒又随性。包身采用油蜡小牛皮,天然的抓皱纹理自带复古感,耐磨耐造!标志性的金属logo,复古做旧质感,低调又高级,仿佛在无声诉说着品牌的时尚态度!\n尺寸:22×16.5×12cm\n型号:633151-1"},"price":null,"currency":"CNY","moq":1,"category":"ysl-women-bags","status":"active","alibaba_url":null,"images":["https://xcimg.szwego.com/img/ffb49dcd/20260416/i1776351524453_4080_0_0.jpg","https://xcimg.szwego.com/img/ffb49dcd/20260416/i1776351527681_5215_0_1.jpg","https://xcimg.szwego.com/img/ffb49dcd/20260416/i1776351524453_1900_0_2.jpg","https://xcimg.szwego.com/img/ffb49dcd/20260416/i1776351524483_3633_0_3.jpg","https://xcimg.szwego.com/img/ffb49dcd/20260416/i1776351524453_6792_0_4.jpg","https://xcimg.szwego.com/img/ffb49dcd/20260416/i1776351527746_119_0_5.jpg","https://xcimg.szwego.com/img/ffb49dcd/20260416/i1776351527717_6002_0_6.jpg","https://xcimg.szwego.com/img/ffb49dcd/20260416/i1776351527740_1452_0_7.jpg","https://xcimg.szwego.com/img/ffb49dcd/20260416/i1776351524468_7328_0_8.jpg"],"created_at":"2026-06-29T10:54:45.366Z"},{"id":"item-785b173ad260","sku":"_drhrhd8iSQpiacjqV5hlD49Gfp2CiZ__XHlQZ2A","name_en":"P💰金扣油蜡皮· 22cm","name_cn":"P💰金扣油蜡皮· 22cm\nNiki的设计灵感源自Y家经典的吸烟装 整体风格酷飒又随性。包身采用油蜡小牛皮,天然的抓皱纹理自带复古感,耐磨耐造!标志性的金属logo,复古做旧质感,低调又高级,仿佛在无声诉说着品牌的时尚态度!\n尺寸:22×16.5×12cm\n型号:633151","specs":{"source":"wsxcme","sourceId":"_drhrhd8iSQpiacjqV5hlD49Gfp2CiZ__XHlQZ2A","sourceTagId":47002761,"sourceTagName":"圣罗兰/女包","modelNumber":"633151","dimensions":{"lengthCm":22,"heightCm":16.5,"widthCm":12},"rawTitle":"P💰金扣油蜡皮· 22cm\nNiki的设计灵感源自Y家经典的吸烟装 整体风格酷飒又随性。包身采用油蜡小牛皮,天然的抓皱纹理自带复古感,耐磨耐造!标志性的金属logo,复古做旧质感,低调又高级,仿佛在无声诉说着品牌的时尚态度!\n尺寸:22×16.5×12cm\n型号:633151"},"price":null,"currency":"CNY","moq":1,"category":"ysl-women-bags","status":"active","alibaba_url":null,"images":["https://xcimg.szwego.com/img/ffb49dcd/20260205/i1770291034517_4166_0_0.jpg","https://xcimg.szwego.com/img/ffb49dcd/20260205/i1770291034517_7274_0_1.jpg","https://xcimg.szwego.com/img/ffb49dcd/20260205/i1770291034516_1495_0_2.jpg","https://xcimg.szwego.com/img/ffb49dcd/20260205/i1770291034517_8624_0_3.jpg","https://xcimg.szwego.com/img/ffb49dcd/20260205/i1770291036305_290_0_4.jpg","https://xcimg.szwego.com/img/ffb49dcd/20260205/i1770291036376_354_0_5.jpg","https://xcimg.szwego.com/img/ffb49dcd/20260205/i1770291036402_2197_0_6.jpg","https://xcimg.szwego.com/img/ffb49dcd/20260205/i1770291034564_8121_0_7.jpg","https://xcimg.szwego.com/img/ffb49dcd/20260205/i1770291036209_9121_0_8.jpg"],"created_at":"2026-06-29T10:54:45.356Z"}],"page":1,"pageSize":24,"total":888,"totalPages":37}
