{"items":[{"id":"item-39c2b5960085","sku":"_d9j9jvYnijXJ1jQE9q6YzpAP13WODAqovJ4swAQ","name_en":"Grey hand-rubbed texture·","name_cn":"Grey hand-rubbed texture·\nSatchel 32cm\nThe most elegant satchel series sac de jour, a timeless classic. Exquisite hand-rubbed cowhide with clear texture and a rich luster, very luxurious!\nIncludes a middle divider inside, can be removed to use as a clutch; the shoulder strap is adjustable for your preferred length.\nThe logo is very small, perfectly interpreting the style of understated luxury~\nModel: 378299\nSize: 32×25.5×15.5cm\n(32cm includes a middle divider)","specs":{"source":"wsxcme","sourceId":"_d9j9jvYnijXJ1jQE9q6YzpAP13WODAqovJ4swAQ","sourceTagId":47002761,"sourceTagName":"Saint Laurent/women's bag","modelNumber":"378299","dimensions":{"lengthCm":32,"heightCm":25.5,"widthCm":15.5},"rawTitle":"Grey hand-rubbed texture·\nSatchel 32cm\nThe most elegant satchel series sac de jour, a timeless classic. Exquisite hand-rubbed cowhide with clear texture and a rich luster, very luxurious!\nIncludes a middle divider inside, can be removed to use as a clutch; the shoulder strap is adjustable for your preferred length.\nThe logo is very small, perfectly interpreting the style of understated luxury~\nModel: 378299\nSize: 32×25.5×15.5cm\n(32cm includes a middle divider)"},"price":null,"currency":"CNY","moq":1,"category":"ysl-women-bags","status":"active","alibaba_url":null,"images":["https://xcimg.szwego.com/imgHD/f8c0bdc9/20251120/cmp_i1763629444680_4434_0_0.jpg","https://xcimg.szwego.com/imgHD/f8c0bdc9/20251120/cmp_i1763629444525_2582_0_1.jpg","https://xcimg.szwego.com/imgHD/f8c0bdc9/20251120/cmp_i1763629447387_2540_0_2.jpg","https://xcimg.szwego.com/imgHD/f8c0bdc9/20251120/cmp_i1763629446243_3343_0_3.jpg","https://xcimg.szwego.com/imgHD/f8c0bdc9/20251120/cmp_i1763629443503_316_0_4.jpg","https://xcimg.szwego.com/imgHD/f8c0bdc9/20251120/cmp_i1763629444610_2055_0_5.jpg","https://xcimg.szwego.com/imgHD/f8c0bdc9/20251120/cmp_i1763629447608_9248_0_6.jpg","https://xcimg.szwego.com/imgHD/f8c0bdc9/20251120/cmp_i1763629446220_6879_0_7.jpg","https://xcimg.szwego.com/imgHD/f8c0bdc9/20251120/cmp_i1763629444572_5940_0_8.jpg"],"created_at":"2026-06-29T10:48:58.579Z"},{"id":"item-f258ab141ac2","sku":"_dqdqdFg8h7C4jDJ-SJSVunZKsr1bLStsFkjGuPQ","name_en":"Sac de jour·","name_cn":"Sac de jour·\nCoffee Lychee Texture with Gold Hardware\n22/26/32cm","specs":{"source":"wsxcme","sourceId":"_dqdqdFg8h7C4jDJ-SJSVunZKsr1bLStsFkjGuPQ","sourceTagId":47002761,"sourceTagName":"Saint Laurent/women's bag","rawTitle":"Sac de jour·\nCoffee Lychee Texture with Gold Hardware\n22/26/32cm"},"price":null,"currency":"CNY","moq":1,"category":"ysl-women-bags","status":"active","alibaba_url":null,"images":["https://xcimg.szwego.com/imgHD/f8c0bdc9/20251209/cmp_i1765275291797_9704_0_0.jpg","https://xcimg.szwego.com/imgHD/f8c0bdc9/20251209/cmp_i1765275291091_3937_0_1.jpg","https://xcimg.szwego.com/imgHD/f8c0bdc9/20251209/cmp_i1765274701788_688_0_0.jpg","https://xcimg.szwego.com/imgHD/f8c0bdc9/20251209/cmp_i1765274896024_8328_0_0.jpg","https://xcimg.szwego.com/imgHD/f8c0bdc9/20251209/cmp_i1765275088635_6689_0_0.jpg"],"created_at":"2026-06-29T10:48:58.569Z"},{"id":"item-c77a55d24734","sku":"_dkZkZ-_HrT8snMS8eFgMldMYHn8gaLmJgwfupwQ","name_en":"Official website image","name_cn":"Official website image","specs":{"source":"wsxcme","sourceId":"_dkZkZ-_HrT8snMS8eFgMldMYHn8gaLmJgwfupwQ","sourceTagId":47002761,"sourceTagName":"Saint Laurent/women's bag","rawTitle":"Official website image"},"price":null,"currency":"CNY","moq":1,"category":"ysl-women-bags","status":"active","alibaba_url":null,"images":["https://xcimg.szwego.com/imgHD/f8c0bdc9/20251209/cmp_i1765277116360_3464_0_0.jpg","https://xcimg.szwego.com/imgHD/f8c0bdc9/20251209/cmp_i1765277116577_6147_0_1.jpg","https://xcimg.szwego.com/imgHD/f8c0bdc9/20251209/cmp_i1765277116577_4637_0_2.jpg","https://xcimg.szwego.com/imgHD/f8c0bdc9/20251209/cmp_i1765277116360_8231_0_3.jpg","https://xcimg.szwego.com/imgHD/f8c0bdc9/20251209/cmp_i1765277116360_46_0_4.jpg","https://xcimg.szwego.com/imgHD/f8c0bdc9/20251209/cmp_i1765277116361_3841_0_5.jpg","https://xcimg.szwego.com/imgHD/f8c0bdc9/20251209/cmp_i1765277116361_325_0_6.jpg"],"created_at":"2026-06-29T10:48:58.559Z"},{"id":"item-d461fddefee0","sku":"_dwcwcUGvhnppc5HZMlpQ12miVImA3S86oxWKLug","name_en":"The satchel silhouette is simple yet full of lines","name_cn":"The satchel silhouette is simple yet full of lines","specs":{"source":"wsxcme","sourceId":"_dwcwcUGvhnppc5HZMlpQ12miVImA3S86oxWKLug","sourceTagId":47002761,"sourceTagName":"Saint Laurent/women's bag","rawTitle":"The satchel silhouette is simple yet full of lines"},"price":null,"currency":"CNY","moq":1,"category":"ysl-women-bags","status":"active","alibaba_url":null,"images":["https://xcimg.szwego.com/imgHD/f8c0bdc9/20251209/cmp_i1765275088635_6689_0_0.jpg","https://xcimg.szwego.com/imgHD/f8c0bdc9/20251209/cmp_i1765275088628_7997_0_1.jpg","https://xcimg.szwego.com/imgHD/f8c0bdc9/20251209/cmp_i1765275088594_9318_0_2.jpg","https://xcimg.szwego.com/imgHD/f8c0bdc9/20251209/cmp_i1765275088655_2017_0_3.jpg"],"created_at":"2026-06-29T10:48:58.549Z"},{"id":"item-427e65cc0d89","sku":"_dM_M_nNF2GzTJlKqS-W0iyCxXKLQ0GiOTsvXWFA","name_en":"Detail photo","name_cn":"Detail photo","specs":{"source":"wsxcme","sourceId":"_dM_M_nNF2GzTJlKqS-W0iyCxXKLQ0GiOTsvXWFA","sourceTagId":47002761,"sourceTagName":"Saint Laurent/women's bag","rawTitle":"Detail photo"},"price":null,"currency":"CNY","moq":1,"category":"ysl-women-bags","status":"active","alibaba_url":null,"images":["https://xcimg.szwego.com/imgHD/f8c0bdc9/20251209/cmp_i1765275079397_3655_0_0.jpg","https://xcimg.szwego.com/imgHD/f8c0bdc9/20251209/cmp_i1765275079400_9489_0_1.jpg","https://xcimg.szwego.com/imgHD/f8c0bdc9/20251209/cmp_i1765275078081_9358_0_2.jpg","https://xcimg.szwego.com/imgHD/f8c0bdc9/20251209/cmp_i1765275077989_2548_0_3.jpg","https://xcimg.szwego.com/imgHD/f8c0bdc9/20251209/cmp_i1765275079380_29_0_4.jpg","https://xcimg.szwego.com/imgHD/f8c0bdc9/20251209/cmp_i1765275079741_3686_0_5.jpg","https://xcimg.szwego.com/imgHD/f8c0bdc9/20251209/cmp_i1765275077402_759_0_6.jpg","https://xcimg.szwego.com/imgHD/f8c0bdc9/20251209/cmp_i1765275078073_7353_0_7.jpg","https://xcimg.szwego.com/imgHD/f8c0bdc9/20251209/cmp_i1765275077115_313_0_8.jpg"],"created_at":"2026-06-29T10:48:58.539Z"},{"id":"item-f8661fa4db98","sku":"_doOoOKQZ3X8CdTomhUENBXKzSz2c1KRDlI18dlA","name_en":"Coffee Gold Hardware·22cm","name_cn":"Coffee Gold Hardware·22cm\nThe most elegant satchel series sac de jour, a timeless classic. Exquisite lychee embossing with clear texture and a rich luster, very luxurious!\nThe shoulder strap is adjustable for your preferred length.\nThe logo is very small, perfectly interpreting the style of understated luxury~\nModel: 392035/717440\nSize: 22x18x10.5cm","specs":{"source":"wsxcme","sourceId":"_doOoOKQZ3X8CdTomhUENBXKzSz2c1KRDlI18dlA","sourceTagId":47002761,"sourceTagName":"Saint Laurent/women's bag","modelNumber":"392035/717440","dimensions":{"lengthCm":22,"heightCm":18,"widthCm":10.5},"rawTitle":"Coffee Gold Hardware·22cm\nThe most elegant satchel series sac de jour, a timeless classic. Exquisite lychee embossing with clear texture and a rich luster, very luxurious!\nThe shoulder strap is adjustable for your preferred length.\nThe logo is very small, perfectly interpreting the style of understated luxury~\nModel: 392035/717440\nSize: 22x18x10.5cm"},"price":null,"currency":"CNY","moq":1,"category":"ysl-women-bags","status":"active","alibaba_url":null,"images":["https://xcimg.szwego.com/imgHD/f8c0bdc9/20251209/cmp_i1765275035903_5605_0_0.jpg","https://xcimg.szwego.com/imgHD/f8c0bdc9/20251209/cmp_i1765275032256_7959_0_8.jpg","https://xcimg.szwego.com/imgHD/f8c0bdc9/20251209/cmp_i1765275033003_3704_0_1.jpg","https://xcimg.szwego.com/imgHD/f8c0bdc9/20251209/cmp_i1765275035499_6652_0_3.jpg","https://xcimg.szwego.com/imgHD/f8c0bdc9/20251209/cmp_i1765275032277_7327_0_2.jpg","https://xcimg.szwego.com/imgHD/f8c0bdc9/20251209/cmp_i1765275035912_2751_0_4.jpg","https://xcimg.szwego.com/imgHD/f8c0bdc9/20251209/cmp_i1765275035230_8087_0_5.jpg","https://xcimg.szwego.com/imgHD/f8c0bdc9/20251209/cmp_i1765275032289_5457_0_6.jpg","https://xcimg.szwego.com/imgHD/f8c0bdc9/20251209/cmp_i1765275032294_9831_0_7.jpg"],"created_at":"2026-06-29T10:48:58.529Z"},{"id":"item-1dd37f3ce594","sku":"_db7b7wpnCsxeVi9rSuINn7Hn_jb_4yjl-gmstnw","name_en":"Equipped with a handle and crossbody strap for convenient carrying.","name_cn":"Equipped with a handle and crossbody strap for convenient carrying.\nSimple and elegant, meeting the needs of different occasions.","specs":{"source":"wsxcme","sourceId":"_db7b7wpnCsxeVi9rSuINn7Hn_jb_4yjl-gmstnw","sourceTagId":47002761,"sourceTagName":"Saint Laurent/women's bag","rawTitle":"Equipped with a handle and crossbody strap for convenient carrying.\nSimple and elegant, meeting the needs of different occasions."},"price":null,"currency":"CNY","moq":1,"category":"ysl-women-bags","status":"active","alibaba_url":null,"images":["https://xcimg.szwego.com/imgHD/f8c0bdc9/20251209/cmp_i1765274896024_8328_0_0.jpg","https://xcimg.szwego.com/imgHD/f8c0bdc9/20251209/cmp_i1765274896001_8649_0_1.jpg","https://xcimg.szwego.com/imgHD/f8c0bdc9/20251209/cmp_i1765274896018_9931_0_2.jpg","https://xcimg.szwego.com/imgHD/f8c0bdc9/20251209/cmp_i1765274895968_68_0_3.jpg"],"created_at":"2026-06-29T10:48:58.519Z"},{"id":"item-759ab6eb34a1","sku":"_dqpqpkJEhM3slgcw39XV5QNuMtosdjsG75EjXMg","name_en":"Official website image","name_cn":"Official website image","specs":{"source":"wsxcme","sourceId":"_dqpqpkJEhM3slgcw39XV5QNuMtosdjsG75EjXMg","sourceTagId":47002761,"sourceTagName":"Saint Laurent/women's bag","rawTitle":"Official website image"},"price":null,"currency":"CNY","moq":1,"category":"ysl-women-bags","status":"active","alibaba_url":null,"images":["https://xcimg.szwego.com/imgHD/f8c0bdc9/20251005/cmp_i1759661375391_5813_0_0.jpg","https://xcimg.szwego.com/imgHD/f8c0bdc9/20251005/cmp_i1759661375856_9771_0_1.jpg","https://xcimg.szwego.com/imgHD/f8c0bdc9/20251005/cmp_i1759661375855_2664_0_2.jpg","https://xcimg.szwego.com/imgHD/f8c0bdc9/20251005/cmp_i1759661375390_9755_0_3.jpg","https://xcimg.szwego.com/imgHD/f8c0bdc9/20251005/cmp_i1759661375389_1609_0_4.jpg","https://xcimg.szwego.com/imgHD/f8c0bdc9/20251005/cmp_i1759661375389_6913_0_5.jpg","https://xcimg.szwego.com/imgHD/f8c0bdc9/20251005/cmp_i1759661375390_2532_0_6.jpg"],"created_at":"2026-05-20T04:01:39.293Z"},{"id":"item-179d1054eca8","sku":"_dAQAQOxsbW2OwGjY9AtyWSEpN9gdZs7yG1EKBMA","name_en":"Anacapri Red instantly elevates the fashion sense of the overall look.","name_cn":"Anacapri Red instantly elevates the fashion sense of the overall look.","specs":{"source":"wsxcme","sourceId":"_dAQAQOxsbW2OwGjY9AtyWSEpN9gdZs7yG1EKBMA","sourceTagId":47002761,"sourceTagName":"Saint Laurent/women's bag","rawTitle":"Anacapri Red instantly elevates the fashion sense of the overall look."},"price":null,"currency":"CNY","moq":1,"category":"ysl-women-bags","status":"active","alibaba_url":null,"images":["https://xcimg.szwego.com/imgHD/f8c0bdc9/20251005/cmp_i1759655446799_437_0_0.jpg","https://xcimg.szwego.com/imgHD/f8c0bdc9/20251005/cmp_i1759655446771_8659_0_1.jpg","https://xcimg.szwego.com/imgHD/f8c0bdc9/20251005/cmp_i1759655446754_8550_0_2.jpg","https://xcimg.szwego.com/imgHD/f8c0bdc9/20251005/cmp_i1759655447016_6061_0_3.jpg"],"created_at":"2026-05-20T04:01:39.283Z"},{"id":"item-0b391a3c000c","sku":"_dxGxGk7M-H6utS0sMrh9NjOw1SNPsZta--9ufLw","name_en":"Detail photo","name_cn":"Detail photo","specs":{"source":"wsxcme","sourceId":"_dxGxGk7M-H6utS0sMrh9NjOw1SNPsZta--9ufLw","sourceTagId":47002761,"sourceTagName":"Saint Laurent/women's bag","rawTitle":"Detail photo"},"price":null,"currency":"CNY","moq":1,"category":"ysl-women-bags","status":"active","alibaba_url":null,"images":["https://xcimg.szwego.com/imgHD/f8c0bdc9/20251005/cmp_i1759655436021_7595_0_0.jpg","https://xcimg.szwego.com/imgHD/f8c0bdc9/20251005/cmp_i1759655435590_2525_0_1.jpg","https://xcimg.szwego.com/imgHD/f8c0bdc9/20251005/cmp_i1759655434321_6131_0_2.jpg","https://xcimg.szwego.com/imgHD/f8c0bdc9/20251005/cmp_i1759655434286_3121_0_3.jpg","https://xcimg.szwego.com/imgHD/f8c0bdc9/20251005/cmp_i1759655435602_8287_0_4.jpg","https://xcimg.szwego.com/imgHD/f8c0bdc9/20251005/cmp_i1759655434757_4508_0_5.jpg","https://xcimg.szwego.com/imgHD/f8c0bdc9/20251005/cmp_i1759655434354_3572_0_6.jpg","https://xcimg.szwego.com/imgHD/f8c0bdc9/20251005/cmp_i1759655434210_9506_0_7.jpg"],"created_at":"2026-05-20T04:01:39.273Z"},{"id":"item-9f11179418ae","sku":"_dm9m9vYyFzC__3qTeiNfeWiOo-JD8J4iiHZlyZQ","name_en":"CALYPSO_ Calfskin Chain Bag","name_cn":"CALYPSO_ Calfskin Chain Bag\nMade from imported Italian calf leather, it feels soft and smooth. The classic Y logo, chain, and buckle eyes are finished in matte gold hardware. The bag features a magnetic snap closure for excellent security. Inside, there is a zippered pocket for your phone and valuables; otherwise, it has a minimalist design for effortless use.\nSize: 26×14×7cm\nModel: 734153","specs":{"source":"wsxcme","sourceId":"_dm9m9vYyFzC__3qTeiNfeWiOo-JD8J4iiHZlyZQ","sourceTagId":47002761,"sourceTagName":"Saint Laurent/women's bag","modelNumber":"734153","dimensions":{"lengthCm":26,"heightCm":14,"widthCm":7},"rawTitle":"CALYPSO_ Calfskin Chain Bag\nMade from imported Italian calf leather, it feels soft and smooth. The classic Y logo, chain, and buckle eyes are finished in matte gold hardware. The bag features a magnetic snap closure for excellent security. Inside, there is a zippered pocket for your phone and valuables; otherwise, it has a minimalist design for effortless use.\nSize: 26×14×7cm\nModel: 734153"},"price":null,"currency":"CNY","moq":1,"category":"ysl-women-bags","status":"active","alibaba_url":null,"images":["https://xcimg.szwego.com/imgHD/f8c0bdc9/20251005/cmp_i1759655404977_1772_0_0.jpg","https://xcimg.szwego.com/imgHD/f8c0bdc9/20251005/cmp_i1759655407791_7609_0_1.jpg","https://xcimg.szwego.com/imgHD/f8c0bdc9/20251005/cmp_i1759655407783_8258_0_2.jpg","https://xcimg.szwego.com/imgHD/f8c0bdc9/20251005/cmp_i1759655407786_6443_0_3.jpg","https://xcimg.szwego.com/imgHD/f8c0bdc9/20251005/cmp_i1759655404288_5088_0_4.jpg","https://xcimg.szwego.com/imgHD/f8c0bdc9/20251005/cmp_i1759655407263_6259_0_5.jpg","https://xcimg.szwego.com/imgHD/f8c0bdc9/20251005/cmp_i1759655404463_8244_0_6.jpg","https://xcimg.szwego.com/imgHD/f8c0bdc9/20251005/cmp_i1759655405019_703_0_7.jpg","https://xcimg.szwego.com/imgHD/f8c0bdc9/20251005/cmp_i1759655404976_3472_0_8.jpg"],"created_at":"2026-05-20T04:01:39.263Z"},{"id":"item-dec16ef6f0fc","sku":"_dksksCdYY9vl2MHKtKraSvYhdLHXUhjxVUbJqaQ","name_en":"Official website image_","name_cn":"Official website image_","specs":{"source":"wsxcme","sourceId":"_dksksCdYY9vl2MHKtKraSvYhdLHXUhjxVUbJqaQ","sourceTagId":47002761,"sourceTagName":"Saint Laurent/women's bag","rawTitle":"Official website image_"},"price":null,"currency":"CNY","moq":1,"category":"ysl-women-bags","status":"active","alibaba_url":null,"images":["https://xcimg.szwego.com/img/f8c0bdc9/20240811/i1723375269_1300_2.jpg","https://xcimg.szwego.com/img/f8c0bdc9/20240811/i1723375269_763_5.jpg","https://xcimg.szwego.com/img/f8c0bdc9/20240811/i1723375269_410_6.jpg","https://xcimg.szwego.com/img/f8c0bdc9/20240811/i1723375269_9655_7.jpg","https://xcimg.szwego.com/img/f8c0bdc9/20240811/i1723375269_4451_3.jpg","https://xcimg.szwego.com/img/f8c0bdc9/20240811/i1723375269_6989_0.jpg","https://xcimg.szwego.com/img/f8c0bdc9/20240811/i1723375269_2746_1.jpg","https://xcimg.szwego.com/img/f8c0bdc9/20240811/i1723375269_4180_4.jpg"],"created_at":"2026-05-20T04:01:39.253Z"},{"id":"item-e347e87d4af3","sku":"_dDVDVNPU-MnY_3x6RJ04f0nle-RLYjG18SlSnLA","name_en":"On-body photo_","name_cn":"On-body photo_","specs":{"source":"wsxcme","sourceId":"_dDVDVNPU-MnY_3x6RJ04f0nle-RLYjG18SlSnLA","sourceTagId":47002761,"sourceTagName":"Saint Laurent/women's bag","rawTitle":"On-body photo_"},"price":null,"currency":"CNY","moq":1,"category":"ysl-women-bags","status":"active","alibaba_url":null,"images":["https://xcimg.szwego.com/img/f8c0bdc9/20240811/i1723372968_8578_3.jpg","https://xcimg.szwego.com/img/f8c0bdc9/20240811/i1723372968_2992_4.jpg","https://xcimg.szwego.com/img/f8c0bdc9/20240811/i1723372968_1705_2.jpg","https://xcimg.szwego.com/img/f8c0bdc9/20240811/i1723372968_7169_1.jpg","https://xcimg.szwego.com/img/f8c0bdc9/20240811/i1723372968_1171_0.jpg"],"created_at":"2026-05-20T04:01:39.243Z"},{"id":"item-b292cf8befe9","sku":"_dIjIjf4Fq7qw5QbU2kMFqquJjkCllBqdLEaKDYw","name_en":"Detail photo","name_cn":"Detail photo","specs":{"source":"wsxcme","sourceId":"_dIjIjf4Fq7qw5QbU2kMFqquJjkCllBqdLEaKDYw","sourceTagId":47002761,"sourceTagName":"Saint Laurent/women's bag","rawTitle":"Detail photo"},"price":null,"currency":"CNY","moq":1,"category":"ysl-women-bags","status":"active","alibaba_url":null,"images":["https://xcimg.szwego.com/img/f8c0bdc9/20240811/i1723372955_6153_0.jpg","https://xcimg.szwego.com/img/f8c0bdc9/20240811/i1723372955_3662_3.jpg","https://xcimg.szwego.com/img/f8c0bdc9/20240811/i1723372955_8380_2.jpg","https://xcimg.szwego.com/img/f8c0bdc9/20240811/i1723372955_537_4.jpg","https://xcimg.szwego.com/img/f8c0bdc9/20240811/i1723372955_6342_5.jpg","https://xcimg.szwego.com/img/f8c0bdc9/20240811/i1723372955_310_1.jpg"],"created_at":"2026-05-20T04:01:39.233Z"},{"id":"item-2617f65c11cb","sku":"_dVJVJxAdxByVz1K2IrErQ2T4lp9TzFXAPBOJV_g","name_en":"CALYPSO_Tan matte gold buckle","name_cn":"CALYPSO_Tan matte gold buckle\nMade from imported Italian suede, soft and delicate to the touch. The classic Y logo, chain, and buckle eyes are finished in matte gold hardware. The bag features a magnetic snap closure for excellent security. Inside, there is a zippered pocket for your phone and valuables. No other pockets, allowing for a free and easy carry!\nSize: 26×14×7cm\nModel: 734153","specs":{"source":"wsxcme","sourceId":"_dVJVJxAdxByVz1K2IrErQ2T4lp9TzFXAPBOJV_g","sourceTagId":47002761,"sourceTagName":"Saint Laurent/women's bag","modelNumber":"734153","dimensions":{"lengthCm":26,"heightCm":14,"widthCm":7},"rawTitle":"CALYPSO_Tan matte gold buckle\nMade from imported Italian suede, soft and delicate to the touch. The classic Y logo, chain, and buckle eyes are finished in matte gold hardware. The bag features a magnetic snap closure for excellent security. Inside, there is a zippered pocket for your phone and valuables. No other pockets, allowing for a free and easy carry!\nSize: 26×14×7cm\nModel: 734153"},"price":null,"currency":"CNY","moq":1,"category":"ysl-women-bags","status":"active","alibaba_url":null,"images":["https://xcimg.szwego.com/img/f8c0bdc9/20240811/i1723372923_2619_5.jpg","https://xcimg.szwego.com/img/f8c0bdc9/20240811/i1723372923_5711_4.jpg","https://xcimg.szwego.com/img/f8c0bdc9/20240811/i1723372923_9897_1.jpg","https://xcimg.szwego.com/img/f8c0bdc9/20240811/i1723372923_408_0.jpg","https://xcimg.szwego.com/img/f8c0bdc9/20240811/i1723372923_5760_2.jpg","https://xcimg.szwego.com/img/f8c0bdc9/20240811/i1723372923_9077_8.jpg","https://xcimg.szwego.com/img/f8c0bdc9/20240811/i1723372923_1693_7.jpg","https://xcimg.szwego.com/img/f8c0bdc9/20240811/i1723372923_7310_6.jpg","https://xcimg.szwego.com/img/f8c0bdc9/20240811/i1723372923_865_3.jpg"],"created_at":"2026-05-20T04:01:39.223Z"},{"id":"item-cc232090949c","sku":"_d9l9lgPhnhqvxp6A7tw1MBV2gDZ6t0Zz6y4sWOQ","name_en":"Very stylish!","name_cn":"Very stylish!","specs":{"source":"wsxcme","sourceId":"_d9l9lgPhnhqvxp6A7tw1MBV2gDZ6t0Zz6y4sWOQ","sourceTagId":47002761,"sourceTagName":"Saint Laurent/women's bag","rawTitle":"Very stylish!"},"price":null,"currency":"CNY","moq":1,"category":"ysl-women-bags","status":"active","alibaba_url":null,"images":["https://xcimg.szwego.com/img/f8c0bdc9/20240104/i1704356866_3013_0.jpg","https://xcimg.szwego.com/img/f8c0bdc9/20240104/i1704356866_3572_1.jpg","https://xcimg.szwego.com/img/f8c0bdc9/20240104/i1704356866_7252_2.jpg","https://xcimg.szwego.com/img/f8c0bdc9/20240104/i1704356866_1871_3.jpg"],"created_at":"2026-05-20T04:01:39.213Z"},{"id":"item-0042791cd1d5","sku":"_dCKCKZm-IzPvpZCHK1uOWDPv473jeOZ-AInhSYQ","name_en":"Official website image_","name_cn":"Official website image_","specs":{"source":"wsxcme","sourceId":"_dCKCKZm-IzPvpZCHK1uOWDPv473jeOZ-AInhSYQ","sourceTagId":47002761,"sourceTagName":"Saint Laurent/women's bag","rawTitle":"Official website image_"},"price":null,"currency":"CNY","moq":1,"category":"ysl-women-bags","status":"active","alibaba_url":null,"images":["https://xcimg.szwego.com/img/f8c0bdc9/20240104/i1704356834_9944_0.jpg","https://xcimg.szwego.com/img/f8c0bdc9/20240104/i1704356834_1151_1.jpg","https://xcimg.szwego.com/img/f8c0bdc9/20240104/i1704356834_1289_2.jpg","https://xcimg.szwego.com/img/f8c0bdc9/20240104/i1704356834_3628_3.jpg","https://xcimg.szwego.com/img/f8c0bdc9/20240104/i1704356834_9863_4.jpg"],"created_at":"2026-05-20T04:01:39.203Z"},{"id":"item-dece554aea12","sku":"_dwzwzqfyppVURIg2wcphRNKFssKv6A1GSFqlrsg","name_en":"_","name_cn":"_","specs":{"source":"wsxcme","sourceId":"_dwzwzqfyppVURIg2wcphRNKFssKv6A1GSFqlrsg","sourceTagId":47002761,"sourceTagName":"Saint Laurent/women's bag","rawTitle":"_"},"price":null,"currency":"CNY","moq":1,"category":"ysl-women-bags","status":"active","alibaba_url":null,"images":["https://xcimg.szwego.com/img/f8c0bdc9/20240104/i1704353518_5779_0.jpg","https://xcimg.szwego.com/img/f8c0bdc9/20240104/i1704353518_485_1.jpg","https://xcimg.szwego.com/img/f8c0bdc9/20240104/i1704353518_9699_2.jpg","https://xcimg.szwego.com/img/f8c0bdc9/20240104/i1704353518_5821_3.jpg","https://xcimg.szwego.com/img/f8c0bdc9/20240104/i1704353518_4862_4.jpg","https://xcimg.szwego.com/img/f8c0bdc9/20240104/i1704353518_5243_5.jpg"],"created_at":"2026-05-20T04:01:39.193Z"},{"id":"item-1b6f5e7a32ff","sku":"_dIgIg5dfc8KPR5Q2kGlS29K1NlptFTUq02rGI1g","name_en":"Detail photo","name_cn":"Detail photo","specs":{"source":"wsxcme","sourceId":"_dIgIg5dfc8KPR5Q2kGlS29K1NlptFTUq02rGI1g","sourceTagId":47002761,"sourceTagName":"Saint Laurent/women's bag","rawTitle":"Detail photo"},"price":null,"currency":"CNY","moq":1,"category":"ysl-women-bags","status":"active","alibaba_url":null,"images":["https://xcimg.szwego.com/img/f8c0bdc9/20240104/i1704353493_7814_0.jpg","https://xcimg.szwego.com/img/f8c0bdc9/20240104/i1704353493_8813_1.jpg","https://xcimg.szwego.com/img/f8c0bdc9/20240104/i1704353493_9180_2.jpg","https://xcimg.szwego.com/img/f8c0bdc9/20240104/i1704353493_6206_3.jpg","https://xcimg.szwego.com/img/f8c0bdc9/20240104/i1704353493_8383_4.jpg"],"created_at":"2026-05-20T04:01:39.183Z"},{"id":"item-93483343af70","sku":"_dwdwdD6T6rVbij0WPX64YXVgYJxpU0PrxfnfUYQ","name_en":"CALYPSO Patent Chain Bag","name_cn":"CALYPSO Patent Chain Bag\nMade from imported Italian patent leather, featuring classic Y-logo, chain, and buckle hardware in matte gold. The flap closes with a magnetic snap for excellent security. Inside, there is a zippered pocket for your phone and valuables; aside from this, there are no other interior pockets, allowing for a free and easy use experience!\nSize: 26×14×7cm\nModel: 734153","specs":{"source":"wsxcme","sourceId":"_dwdwdD6T6rVbij0WPX64YXVgYJxpU0PrxfnfUYQ","sourceTagId":47002761,"sourceTagName":"Saint Laurent/women's bag","modelNumber":"734153","dimensions":{"lengthCm":26,"heightCm":14,"widthCm":7},"rawTitle":"CALYPSO Patent Chain Bag\nMade from imported Italian patent leather, featuring classic Y-logo, chain, and buckle hardware in matte gold. The flap closes with a magnetic snap for excellent security. Inside, there is a zippered pocket for your phone and valuables; aside from this, there are no other interior pockets, allowing for a free and easy use experience!\nSize: 26×14×7cm\nModel: 734153"},"price":null,"currency":"CNY","moq":1,"category":"ysl-women-bags","status":"active","alibaba_url":null,"images":["https://xcimg.szwego.com/img/f8c0bdc9/20240104/i1704353414_7307_0.jpg","https://xcimg.szwego.com/img/f8c0bdc9/20240104/i1704353414_3920_1.jpg","https://xcimg.szwego.com/img/f8c0bdc9/20240104/i1704353414_3532_2.jpg","https://xcimg.szwego.com/img/f8c0bdc9/20240104/i1704353414_2618_3.jpg","https://xcimg.szwego.com/img/f8c0bdc9/20240104/i1704353414_2634_4.jpg","https://xcimg.szwego.com/img/f8c0bdc9/20240104/i1704353414_2776_5.jpg","https://xcimg.szwego.com/img/f8c0bdc9/20240104/i1704353414_5002_6.jpg","https://xcimg.szwego.com/img/f8c0bdc9/20240104/i1704353414_5549_7.jpg","https://xcimg.szwego.com/img/f8c0bdc9/20240104/i1704353414_4133_8.jpg"],"created_at":"2026-05-20T04:01:39.173Z"},{"id":"item-43d1050978a4","sku":"_droroqf_A_BdxKu7BhBj-onJ7oswgd38qb0Jtkw","name_en":"On-body photo_","name_cn":"On-body photo_","specs":{"source":"wsxcme","sourceId":"_droroqf_A_BdxKu7BhBj-onJ7oswgd38qb0Jtkw","sourceTagId":47002761,"sourceTagName":"Saint Laurent/women's bag","rawTitle":"On-body photo_"},"price":null,"currency":"CNY","moq":1,"category":"ysl-women-bags","status":"active","alibaba_url":null,"images":["https://xcimg.szwego.com/img/f8c0bdc9/20240811/i1723372860_3867_0.jpg","https://xcimg.szwego.com/img/f8c0bdc9/20240811/i1723372860_6687_1.jpg","https://xcimg.szwego.com/img/f8c0bdc9/20240811/i1723372860_3673_4.jpg","https://xcimg.szwego.com/img/f8c0bdc9/20240811/i1723372860_3922_2.jpg","https://xcimg.szwego.com/img/f8c0bdc9/20240811/i1723372860_7934_3.jpg"],"created_at":"2026-05-20T04:01:39.163Z"},{"id":"item-df0f62d29516","sku":"_dAEAEcygIYjBJ1tO3eUjNzBgEfzX9ljCw5gcyyw","name_en":"Detail photo","name_cn":"Detail photo","specs":{"source":"wsxcme","sourceId":"_dAEAEcygIYjBJ1tO3eUjNzBgEfzX9ljCw5gcyyw","sourceTagId":47002761,"sourceTagName":"Saint Laurent/women's bag","rawTitle":"Detail photo"},"price":null,"currency":"CNY","moq":1,"category":"ysl-women-bags","status":"active","alibaba_url":null,"images":["https://xcimg.szwego.com/img/f8c0bdc9/20240811/i1723372828_3951_0.jpg","https://xcimg.szwego.com/img/f8c0bdc9/20240811/i1723372828_7056_0.jpg","https://xcimg.szwego.com/img/f8c0bdc9/20240811/i1723372828_3172_0.jpg","https://xcimg.szwego.com/img/f8c0bdc9/20240811/i1723372828_5720_0.jpg","https://xcimg.szwego.com/img/f8c0bdc9/20240811/i1723372828_880_0.jpg","https://xcimg.szwego.com/img/f8c0bdc9/20240811/i1723372828_1035_0.jpg"],"created_at":"2026-05-20T04:01:39.153Z"},{"id":"item-b3e9172cc3d1","sku":"_d6F6FpC_tb9rB-CElXo8L6P8YyTPv2pwrmUzBrQ","name_en":"CALYPSO_White Elephant Leather","name_cn":"CALYPSO_White Elephant Leather\nMade from imported Italian leather, it feels soft and smooth. The classic Y logo, chain, and buckle hardware are all finished in matte gold. The bag features a magnetic snap closure for excellent security. Inside, there is a zippered pocket for your phone and valuables, with no other pockets for a minimalist design.\nSize: 26×14×7cm\nModel: 734153","specs":{"source":"wsxcme","sourceId":"_d6F6FpC_tb9rB-CElXo8L6P8YyTPv2pwrmUzBrQ","sourceTagId":47002761,"sourceTagName":"Saint Laurent/women's bag","modelNumber":"734153","dimensions":{"lengthCm":26,"heightCm":14,"widthCm":7},"rawTitle":"CALYPSO_White Elephant Leather\nMade from imported Italian leather, it feels soft and smooth. The classic Y logo, chain, and buckle hardware are all finished in matte gold. The bag features a magnetic snap closure for excellent security. Inside, there is a zippered pocket for your phone and valuables, with no other pockets for a minimalist design.\nSize: 26×14×7cm\nModel: 734153"},"price":null,"currency":"CNY","moq":1,"category":"ysl-women-bags","status":"active","alibaba_url":null,"images":["https://xcimg.szwego.com/img/f8c0bdc9/20240811/i1723372748_7279_0.jpg","https://xcimg.szwego.com/img/f8c0bdc9/20240811/i1723372748_5081_5.jpg","https://xcimg.szwego.com/img/f8c0bdc9/20240811/i1723372748_8149_7.jpg","https://xcimg.szwego.com/img/f8c0bdc9/20240811/i1723372748_9430_4.jpg","https://xcimg.szwego.com/img/f8c0bdc9/20240811/i1723372748_576_3.jpg","https://xcimg.szwego.com/img/f8c0bdc9/20240811/i1723372748_8190_8.jpg","https://xcimg.szwego.com/img/f8c0bdc9/20240811/i1723372748_4553_2.jpg","https://xcimg.szwego.com/img/f8c0bdc9/20240811/i1723372748_3459_1.jpg","https://xcimg.szwego.com/img/f8c0bdc9/20240811/i1723372748_7966_6.jpg"],"created_at":"2026-05-20T04:01:39.143Z"},{"id":"item-6c53a0e2b5ff","sku":"_drQrQC2kFH6SKtfisx65MNWAa7eLydqIOkUzI9A","name_en":"_","name_cn":"_","specs":{"source":"wsxcme","sourceId":"_drQrQC2kFH6SKtfisx65MNWAa7eLydqIOkUzI9A","sourceTagId":47002761,"sourceTagName":"Saint Laurent/women's bag","rawTitle":"_"},"price":null,"currency":"CNY","moq":1,"category":"ysl-women-bags","status":"active","alibaba_url":null,"images":["https://xcimg.szwego.com/img/f8c0bdc9/20240401/i1711964901_5354_5.jpg","https://xcimg.szwego.com/img/f8c0bdc9/20240401/i1711964901_116_3.jpg","https://xcimg.szwego.com/img/f8c0bdc9/20240401/i1711964901_5767_0.jpg","https://xcimg.szwego.com/img/f8c0bdc9/20240401/i1711964901_8673_4.jpg","https://xcimg.szwego.com/img/f8c0bdc9/20240401/i1711964901_391_1.jpg","https://xcimg.szwego.com/img/f8c0bdc9/20240401/i1711964901_8471_2.jpg"],"created_at":"2026-05-20T04:01:39.133Z"}],"page":9,"pageSize":24,"total":888,"totalPages":37}
