{"items":[{"id":"item-e15c2f0db2c2","sku":"_dphph6d11HdgwSXt8G-PlRmbd4EOaery0Afl0ow","name_en":"Real shot# Top-grain leather, genuine cowhide","name_cn":"Real shot# Top-grain leather, genuine cowhide\nStyle No.: 308364 Dark Green\nSize: 21x15x7cm\nGG disco soho camera bag. A classic that never goes out of style\nRelief double G paired with leather tassels. Top-grain cowhide, super soft\nCrossbody✅Shoulder✅Clutch✅","specs":{"source":"wsxcme","sourceId":"_dphph6d11HdgwSXt8G-PlRmbd4EOaery0Afl0ow","sourceTagId":47002679,"sourceTagName":"Gucci/women's bag","modelNumber":"308364depth","dimensions":{"lengthCm":21,"heightCm":15,"widthCm":7},"rawTitle":"Real shot# Top-grain leather, genuine cowhide\nStyle No.: 308364 Dark Green\nSize: 21x15x7cm\nGG disco soho camera bag. A classic that never goes out of style\nRelief double G paired with leather tassels. Top-grain cowhide, super soft\nCrossbody✅Shoulder✅Clutch✅"},"price":null,"currency":"CNY","moq":1,"category":"gucci-women-bags","status":"active","alibaba_url":null,"images":["https://xcimg.szwego.com/20221027/i1666863694_8236_0.jpg","https://xcimg.szwego.com/20221027/i1666863694_4664_1.jpg","https://xcimg.szwego.com/20221027/i1666863694_7401_2.jpg","https://xcimg.szwego.com/20221027/i1666863694_1454_3.jpg","https://xcimg.szwego.com/20221027/i1666863694_6849_4.jpg","https://xcimg.szwego.com/20221027/i1666863694_9743_5.jpg","https://xcimg.szwego.com/20221027/i1666863694_9222_6.jpg","https://xcimg.szwego.com/20221027/i1666863694_3655_7.jpg","https://xcimg.szwego.com/20221027/i1666863694_8386_8.jpg"],"created_at":"2024-11-26T11:46:47.171Z"},{"id":"item-bf3d443d8d94","sku":"_d8f8f_vhvEQBa7NfoOdukuCvfgodxHjopYPixnQ","name_en":"Real shot# Top-grain leather, genuine cowhide","name_cn":"Real shot# Top-grain leather, genuine cowhide\nStyle No.: 308364 Cream\nSize: 21x15x7cm\nGG disco soho camera bag. A classic that never goes out of style\nRelief double G paired with leather tassels. Top-grain cowhide, super soft\nCrossbody✅Shoulder✅Clutch✅","specs":{"source":"wsxcme","sourceId":"_d8f8f_vhvEQBa7NfoOdukuCvfgodxHjopYPixnQ","sourceTagId":47002679,"sourceTagName":"Gucci/women's bag","modelNumber":"308364","dimensions":{"lengthCm":21,"heightCm":15,"widthCm":7},"rawTitle":"Real shot# Top-grain leather, genuine cowhide\nStyle No.: 308364 Cream\nSize: 21x15x7cm\nGG disco soho camera bag. A classic that never goes out of style\nRelief double G paired with leather tassels. Top-grain cowhide, super soft\nCrossbody✅Shoulder✅Clutch✅"},"price":null,"currency":"CNY","moq":1,"category":"gucci-women-bags","status":"active","alibaba_url":null,"images":["https://xcimg.szwego.com/20221027/i1666863662_2758_0.jpg","https://xcimg.szwego.com/20221027/i1666863662_7342_1.jpg","https://xcimg.szwego.com/20221027/i1666863662_2103_2.jpg","https://xcimg.szwego.com/20221027/i1666863662_2558_3.jpg","https://xcimg.szwego.com/20221027/i1666863662_8765_4.jpg","https://xcimg.szwego.com/20221027/i1666863662_975_5.jpg","https://xcimg.szwego.com/20221027/i1666863662_9787_6.jpg","https://xcimg.szwego.com/20221027/i1666863662_7270_7.jpg","https://xcimg.szwego.com/20221027/i1666863662_168_8.jpg"],"created_at":"2024-11-26T11:46:47.172Z"},{"id":"item-a3051f3068e4","sku":"_dtmtm_bkA77HrtFKXv1MU7pBe2Clcz7LQRaD1rA","name_en":"Real shot# Top-grain leather, genuine cowhide","name_cn":"Real shot# Top-grain leather, genuine cowhide\nStyle No.: 308364 Royal Blue\nSize: 21x15x7cm\nGG disco soho camera bag. A classic that never goes out of style\nRelief double G paired with leather tassels. Top-grain cowhide, super soft\nCrossbody✅Shoulder✅Clutch✅","specs":{"source":"wsxcme","sourceId":"_dtmtm_bkA77HrtFKXv1MU7pBe2Clcz7LQRaD1rA","sourceTagId":47002679,"sourceTagName":"Gucci/women's bag","modelNumber":"308364","dimensions":{"lengthCm":21,"heightCm":15,"widthCm":7},"rawTitle":"Real shot# Top-grain leather, genuine cowhide\nStyle No.: 308364 Royal Blue\nSize: 21x15x7cm\nGG disco soho camera bag. A classic that never goes out of style\nRelief double G paired with leather tassels. Top-grain cowhide, super soft\nCrossbody✅Shoulder✅Clutch✅"},"price":null,"currency":"CNY","moq":1,"category":"gucci-women-bags","status":"active","alibaba_url":null,"images":["https://xcimg.szwego.com/20221027/i1666863792_7690_0.jpg","https://xcimg.szwego.com/20221027/i1666863792_1975_1.jpg","https://xcimg.szwego.com/20221027/i1666863792_6409_2.jpg","https://xcimg.szwego.com/20221027/i1666863792_6705_3.jpg","https://xcimg.szwego.com/20221027/i1666863792_9141_4.jpg","https://xcimg.szwego.com/20221027/i1666863792_6301_5.jpg","https://xcimg.szwego.com/20221027/i1666863792_7962_6.jpg","https://xcimg.szwego.com/20221027/i1666863792_215_7.jpg","https://xcimg.szwego.com/20221027/i1666863792_3924_8.jpg"],"created_at":"2024-11-26T11:46:47.170Z"},{"id":"item-781849fcdeea","sku":"_dJqJq-2BKgcumYqbrwYGv6mRWIeESrTT9nrnTOw","name_en":"Real shot# Top-grain leather, genuine cowhide","name_cn":"Real shot# Top-grain leather, genuine cowhide\nStyle No.: 308364 Champagne Gold\nSize: 21x15x7cm\nGG disco soho camera bag. A classic that never goes out of style\nRelief double G paired with leather tassels. Top-grain cowhide, super soft\nCrossbody✅Shoulder✅Clutch✅","specs":{"source":"wsxcme","sourceId":"_dJqJq-2BKgcumYqbrwYGv6mRWIeESrTT9nrnTOw","sourceTagId":47002679,"sourceTagName":"Gucci/women's bag","modelNumber":"308364","dimensions":{"lengthCm":21,"heightCm":15,"widthCm":7},"rawTitle":"Real shot# Top-grain leather, genuine cowhide\nStyle No.: 308364 Champagne Gold\nSize: 21x15x7cm\nGG disco soho camera bag. A classic that never goes out of style\nRelief double G paired with leather tassels. Top-grain cowhide, super soft\nCrossbody✅Shoulder✅Clutch✅"},"price":null,"currency":"CNY","moq":1,"category":"gucci-women-bags","status":"active","alibaba_url":null,"images":["https://xcimg.szwego.com/20221027/i1666863677_315_0.jpg","https://xcimg.szwego.com/20221027/i1666863677_716_1.jpg","https://xcimg.szwego.com/20221027/i1666863677_2780_2.jpg","https://xcimg.szwego.com/20221027/i1666863677_7783_3.jpg","https://xcimg.szwego.com/20221027/i1666863677_1728_4.jpg","https://xcimg.szwego.com/20221027/i1666863677_7044_5.jpg","https://xcimg.szwego.com/20221027/i1666863677_8820_6.jpg","https://xcimg.szwego.com/20221027/i1666863677_3947_7.jpg","https://xcimg.szwego.com/20221027/i1666863677_7296_8.jpg"],"created_at":"2024-11-26T11:46:47.169Z"},{"id":"item-5fb89a6f5e1c","sku":"_doMoMnwbbhj6_gyR2nJF0XhxPJsTSMcC6AyTSAQ","name_en":"Real shot# Top-grain leather, genuine cowhide","name_cn":"Real shot# Top-grain leather, genuine cowhide\nStyle No.: 308364 Red\nSize: 21x15x7cm\nGG disco soho camera bag. A classic that never goes out of style\nRelief double G paired with leather tassels. Top-grain cowhide, super soft\nCrossbody✅Shoulder✅Clutch✅","specs":{"source":"wsxcme","sourceId":"_doMoMnwbbhj6_gyR2nJF0XhxPJsTSMcC6AyTSAQ","sourceTagId":47002679,"sourceTagName":"Gucci/women's bag","modelNumber":"308364","dimensions":{"lengthCm":21,"heightCm":15,"widthCm":7},"rawTitle":"Real shot# Top-grain leather, genuine cowhide\nStyle No.: 308364 Red\nSize: 21x15x7cm\nGG disco soho camera bag. A classic that never goes out of style\nRelief double G paired with leather tassels. Top-grain cowhide, super soft\nCrossbody✅Shoulder✅Clutch✅"},"price":null,"currency":"CNY","moq":1,"category":"gucci-women-bags","status":"active","alibaba_url":null,"images":["https://xcimg.szwego.com/20221027/i1666863911_5351_0.jpg","https://xcimg.szwego.com/20221027/i1666863911_1007_1.jpg","https://xcimg.szwego.com/20221027/i1666863911_2147_2.jpg","https://xcimg.szwego.com/20221027/i1666863911_9126_3.jpg","https://xcimg.szwego.com/20221027/i1666863911_9497_4.jpg","https://xcimg.szwego.com/20221027/i1666863911_599_5.jpg","https://xcimg.szwego.com/20221027/i1666863911_8399_6.jpg","https://xcimg.szwego.com/20221027/i1666863911_536_7.jpg","https://xcimg.szwego.com/20221027/i1666863911_3315_8.jpg"],"created_at":"2024-11-26T11:46:47.173Z"},{"id":"item-a333622f361c","sku":"_dxKxKbFERMOcpv1nazTle111SaqejKEPS3PSS8w","name_en":"Siena Shoulder Bag","name_cn":"Siena Shoulder Bag\n▫️Model 846705 Black\n▫️Dimensions 22.5*14*8\nThe Gucci Siena small shoulder bag continues the evolution of the brand's iconic Horsebit element. Crafted from fine glossy leather, this bag features a structured silhouette with a half-horsebit buckle detail inspired by the 1970s. It is accented with gold-tone hardware and features a three-compartment interior with a zip pocket.","specs":{"source":"wsxcme","sourceId":"_dxKxKbFERMOcpv1nazTle111SaqejKEPS3PSS8w","sourceTagId":47002679,"sourceTagName":"Gucci/women's bag","modelNumber":"846705 black","rawTitle":"Siena Shoulder Bag\n▫️Model 846705 Black\n▫️Dimensions 22.5*14*8\nThe Gucci Siena small shoulder bag continues the evolution of the brand's iconic Horsebit element. Crafted from fine glossy leather, this bag features a structured silhouette with a half-horsebit buckle detail inspired by the 1970s. It is accented with gold-tone hardware and features a three-compartment interior with a zip pocket."},"price":null,"currency":"CNY","moq":1,"category":"gucci-women-bags","status":"active","alibaba_url":null,"images":["https://xcimg.szwego.com/img/7f9d4644/20260130/i1769753548524_9286_0_0.jpg","https://xcimg.szwego.com/img/7f9d4644/20260130/i1769753547333_4988_0_1.jpg","https://xcimg.szwego.com/img/7f9d4644/20260130/i1769753548849_4999_0_2.jpg","https://xcimg.szwego.com/img/7f9d4644/20260130/i1769753547530_2808_0_3.jpg","https://xcimg.szwego.com/img/7f9d4644/20260130/i1769753547332_2705_0_4.jpg","https://xcimg.szwego.com/img/7f9d4644/20260130/i1769753548521_3376_0_5.jpg","https://xcimg.szwego.com/img/7f9d4644/20260130/i1769753547548_1278_0_6.jpg","https://xcimg.szwego.com/img/7f9d4644/20260130/i1769753548829_839_0_7.jpg","https://xcimg.szwego.com/img/7f9d4644/20260130/i1769753547332_8627_0_8.jpg"],"created_at":"2026-05-20T03:19:23.548Z"},{"id":"item-f1f945cb5587","sku":"_dgigiAYuwNeG47r1pIAjZ4lRT0Nt-eQlKmwWhTw","name_en":"The basket is here 🧺","name_cn":"The basket is here 🧺","specs":{"source":"wsxcme","sourceId":"_dgigiAYuwNeG47r1pIAjZ4lRT0Nt-eQlKmwWhTw","sourceTagId":47002679,"sourceTagName":"Gucci/women's bag","rawTitle":"The basket is here 🧺"},"price":null,"currency":"CNY","moq":1,"category":"gucci-women-bags","status":"active","alibaba_url":null,"images":["https://xcimg.szwego.com/img/7f9d4644/20260125/i1769322713977_9615_0_0.jpg","https://xcimg.szwego.com/img/7f9d4644/20260125/i1769322713977_8274_0_1.jpg","https://xcimg.szwego.com/img/7f9d4644/20260125/i1769322713977_2159_0_2.jpg","https://xcimg.szwego.com/img/7f9d4644/20260125/i1769322713977_3971_0_3.jpg"],"created_at":"2026-05-20T03:19:23.888Z"},{"id":"item-34bcb63a44f4","sku":"_dm7m709i_eWis66V28DNLwB9igf7ozU5viHl1vg","name_en":"The new GG Marmont series is renowned for its signature quilted leather and interlocking GG accessories. On this small shoulder bag, classic materials are combined with vertical and diagonal patterns to create a unique geometric design ✨Model: 443497Dimensions: W26*H15*D7cm","name_cn":"The new GG Marmont series is renowned for its signature quilted leather and interlocking GG accessories. On this small shoulder bag, classic materials are combined with vertical and diagonal patterns to create a unique geometric design ✨Model: 443497Dimensions: W26*H15*D7cm","specs":{"source":"wsxcme","sourceId":"_dm7m709i_eWis66V28DNLwB9igf7ozU5viHl1vg","sourceTagId":47002679,"sourceTagName":"Gucci/women's bag","modelNumber":"443497Size:W26*H15*D7cm","rawTitle":"The new GG Marmont series is renowned for its signature quilted leather and interlocking GG accessories. On this small shoulder bag, classic materials are combined with vertical and diagonal patterns to create a unique geometric design ✨Model: 443497Dimensions: W26*H15*D7cm"},"price":null,"currency":"CNY","moq":1,"category":"gucci-women-bags","status":"active","alibaba_url":null,"images":["https://xcimg.szwego.com/imgHD/66e4ae0d/20250727/cmp_i1753621626405_2262_0_0.jpg","https://xcimg.szwego.com/imgHD/66e4ae0d/20250727/cmp_i1753621626685_187_0_1.jpg","https://xcimg.szwego.com/imgHD/66e4ae0d/20250727/cmp_i1753621621911_5095_0_2.jpg","https://xcimg.szwego.com/imgHD/66e4ae0d/20250727/cmp_i1753621621911_7435_0_3.jpg","https://xcimg.szwego.com/imgHD/66e4ae0d/20250727/cmp_i1753621626398_627_0_4.jpg","https://xcimg.szwego.com/imgHD/66e4ae0d/20250727/cmp_i1753621621910_5311_0_5.jpg","https://xcimg.szwego.com/imgHD/66e4ae0d/20250727/cmp_i1753621621913_1330_0_6.jpg","https://xcimg.szwego.com/imgHD/66e4ae0d/20250727/cmp_i1753621622256_731_0_7.jpg","https://xcimg.szwego.com/imgHD/66e4ae0d/20250727/cmp_i1753621626407_3123_0_8.jpg"],"created_at":"2026-05-20T03:19:24.288Z"},{"id":"item-94d400b828c5","sku":"_dvsvsG-vKABUZTiI0jrfpvw_ncdNuR_hQj88C1g","name_en":"The thin chain is very lightweight! It has ample daily capacity too, making it a great addition to other bags.","name_cn":"The thin chain is very lightweight! It has ample daily capacity too, making it a great addition to other bags.","specs":{"source":"wsxcme","sourceId":"_dvsvsG-vKABUZTiI0jrfpvw_ncdNuR_hQj88C1g","sourceTagId":47002679,"sourceTagName":"Gucci/women's bag","rawTitle":"The thin chain is very lightweight! It has ample daily capacity too, making it a great addition to other bags."},"price":null,"currency":"CNY","moq":1,"category":"gucci-women-bags","status":"active","alibaba_url":null,"images":["https://xcimg.szwego.com/20230524/i1684919618_2806_0.jpg","https://xcimg.szwego.com/20230524/i1684919618_3683_1.jpg"],"created_at":"2026-05-20T03:19:24.198Z"},{"id":"item-daccde6c2a1f","sku":"_dxYxY0zV47HDmZ_jQ9xvhW5omkjN4yEN3zQJkEA","name_en":"Top-tier original factory leather","name_cn":"Top-tier original factory leather\nHorsebit 1955 mini\nSize: 18x12x5cm","specs":{"source":"wsxcme","sourceId":"_dxYxY0zV47HDmZ_jQ9xvhW5omkjN4yEN3zQJkEA","sourceTagId":47002679,"sourceTagName":"Gucci/women's bag","dimensions":{"lengthCm":18,"heightCm":12,"widthCm":5},"rawTitle":"Top-tier original factory leather\nHorsebit 1955 mini\nSize: 18x12x5cm"},"price":null,"currency":"CNY","moq":1,"category":"gucci-women-bags","status":"active","alibaba_url":null,"images":["https://xcimg.szwego.com/20230207/i1675760002_8915_0.jpg","https://xcimg.szwego.com/20230207/i1675760002_5484_1.jpg","https://xcimg.szwego.com/20230207/i1675760002_6317_2.jpg","https://xcimg.szwego.com/20230207/i1675760002_504_3.jpg","https://xcimg.szwego.com/20230207/i1675760002_56_4.jpg","https://xcimg.szwego.com/20230207/i1675760002_9040_5.jpg","https://xcimg.szwego.com/20230207/i1675760002_2492_6.jpg","https://xcimg.szwego.com/20230207/i1675760002_8234_7.jpg","https://xcimg.szwego.com/20230207/i1675760002_5838_8.jpg"],"created_at":"2024-11-26T11:46:47.127Z"},{"id":"item-dac4a9bb219b","sku":"_dkRkRhcHrpI7jfi_eXRYPIYSXI_hGmaYnqV0t0w","name_en":"Top-tier original factory leather","name_cn":"Top-tier original factory leather\nHorsebit 1955 mini\nSize: 18x12x5cm","specs":{"source":"wsxcme","sourceId":"_dkRkRhcHrpI7jfi_eXRYPIYSXI_hGmaYnqV0t0w","sourceTagId":47002679,"sourceTagName":"Gucci/women's bag","dimensions":{"lengthCm":18,"heightCm":12,"widthCm":5},"rawTitle":"Top-tier original factory leather\nHorsebit 1955 mini\nSize: 18x12x5cm"},"price":null,"currency":"CNY","moq":1,"category":"gucci-women-bags","status":"active","alibaba_url":null,"images":["https://xcimg.szwego.com/20230207/i1675760017_2587_0.jpg","https://xcimg.szwego.com/20230207/i1675760017_63_1.jpg","https://xcimg.szwego.com/20230207/i1675760017_7946_2.jpg","https://xcimg.szwego.com/20230207/i1675760017_2372_3.jpg","https://xcimg.szwego.com/20230207/i1675760017_1479_4.jpg","https://xcimg.szwego.com/20230207/i1675760017_410_5.jpg","https://xcimg.szwego.com/20230207/i1675760017_1949_6.jpg","https://xcimg.szwego.com/20230207/i1675760017_722_7.jpg","https://xcimg.szwego.com/20230207/i1675760017_6561_8.jpg"],"created_at":"2024-11-26T11:46:47.128Z"},{"id":"item-045d8c542479","sku":"_daGaGRt2_2CYa4SZHDzmehJTlGWsr9sgxdnUAww","name_en":"With full packaging)!!️【New】GG Extra Mini Bucket Bag","name_cn":"With full packaging)!!️【New】GG Extra Mini Bucket Bag\nThe new small leather goods series playfully uses vibrant colors to present eye-catching new works. This bucket bag features a classic drawstring closure design paired with a practical and versatile chain shoulder strap.\nModel: 783175\nSize: 14✖️17✖️13cm\nColor: Brown/Light Blue Canvas","specs":{"source":"wsxcme","sourceId":"_daGaGRt2_2CYa4SZHDzmehJTlGWsr9sgxdnUAww","sourceTagId":47002679,"sourceTagName":"Gucci/women's bag","modelNumber":"783175","rawTitle":"With full packaging)!!️【New】GG Extra Mini Bucket Bag\nThe new small leather goods series playfully uses vibrant colors to present eye-catching new works. This bucket bag features a classic drawstring closure design paired with a practical and versatile chain shoulder strap.\nModel: 783175\nSize: 14✖️17✖️13cm\nColor: Brown/Light Blue Canvas"},"price":null,"currency":"CNY","moq":1,"category":"gucci-women-bags","status":"active","alibaba_url":null,"images":["https://xcimg.szwego.com/img/545dbde1/20240603/i1717425656_4686_6.jpg","https://xcimg.szwego.com/img/545dbde1/20240603/i1717425656_5853_8.jpg","https://xcimg.szwego.com/img/545dbde1/20240603/i1717425655_6880_1.jpg","https://xcimg.szwego.com/img/545dbde1/20240603/i1717425655_6878_0.jpg","https://xcimg.szwego.com/img/545dbde1/20240603/i1717425656_6656_4.jpg","https://xcimg.szwego.com/img/545dbde1/20240603/i1717425656_3942_5.jpg","https://xcimg.szwego.com/img/545dbde1/20240603/i1717425655_9435_2.jpg","https://xcimg.szwego.com/img/545dbde1/20240603/i1717425655_8979_3.jpg","https://xcimg.szwego.com/img/545dbde1/20240603/i1717425656_6219_7.jpg"],"created_at":"2025-02-08T13:18:09.589Z"},{"id":"item-546ab988fb9d","sku":"_dplploMcxiB5wXJPEE2tfpGvcQM41q2O1jLeGmg","name_en":"With full packaging)!!️【New】GG Extra Mini Shoulder Bag","name_cn":"With full packaging)!!️【New】GG Extra Mini Shoulder Bag\nThis piece is from the Gucci Lido series, inspired by the summer vibes and beach clubs of the Italian coast. The new small leather goods series playfully uses vibrant colors to present eye-catching new works. This shoulder bag features a classic silhouette, cleverly paired with a button closure and internal hook clasp for easy attachment of matching wallets or clutches. The new light blue and brown GG canvas complements the brown leather trim, while the double-G accessories add a bright touch.\nModel: 783141.\nSize: 16.5(W)x 9.5(H)x 4.5cm(D)\nColor: Brown/Light Blue Canvas.","specs":{"source":"wsxcme","sourceId":"_dplploMcxiB5wXJPEE2tfpGvcQM41q2O1jLeGmg","sourceTagId":47002679,"sourceTagName":"Gucci/women's bag","modelNumber":"783141","rawTitle":"With full packaging)!!️【New】GG Extra Mini Shoulder Bag\nThis piece is from the Gucci Lido series, inspired by the summer vibes and beach clubs of the Italian coast. The new small leather goods series playfully uses vibrant colors to present eye-catching new works. This shoulder bag features a classic silhouette, cleverly paired with a button closure and internal hook clasp for easy attachment of matching wallets or clutches. The new light blue and brown GG canvas complements the brown leather trim, while the double-G accessories add a bright touch.\nModel: 783141.\nSize: 16.5(W)x 9.5(H)x 4.5cm(D)\nColor: Brown/Light Blue Canvas."},"price":null,"currency":"CNY","moq":1,"category":"gucci-women-bags","status":"active","alibaba_url":null,"images":["https://xcimg.szwego.com/img/545dbde1/20240518/i1716040985_4525_1.jpg","https://xcimg.szwego.com/img/545dbde1/20240518/i1716040985_5972_5.jpg","https://xcimg.szwego.com/img/545dbde1/20240518/i1716040985_7025_12.jpg","https://xcimg.szwego.com/img/545dbde1/20240518/i1716040985_9148_10.jpg","https://xcimg.szwego.com/img/545dbde1/20240518/i1716040985_2895_4.jpg","https://xcimg.szwego.com/img/545dbde1/20240518/i1716040985_2787_2.jpg","https://xcimg.szwego.com/img/545dbde1/20240518/i1716040985_7669_8.jpg","https://xcimg.szwego.com/img/545dbde1/20240518/i1716040985_8342_0.jpg","https://xcimg.szwego.com/img/545dbde1/20240518/i1716040985_1388_3.jpg"],"created_at":"2025-02-08T13:18:02.579Z"},{"id":"item-5607591c5567","sku":"_dp6p6IJofG_NMoQNwNalQ5LK-FDbZMMFSknjDXQ","name_en":"With full packaging)!!️【New】GG Marmont series small denim shoulder bag","name_cn":"With full packaging)!!️【New】GG Marmont series small denim shoulder bag\nThis piece is from the Gucci Lido series, inspired by the summer vibes and beach clubs of the Italian coast. This small chain shoulder bag from the GG Marmont series features a soft yet structured design, equipped with a large flap buckle decorated with double-G accessories. The chain shoulder strap is ingeniously designed, offering versatile carrying methods that allow for free switching between shoulder and handbag styles.\nModel: 443497.\nSize: 26(W)x 15(H)x 7cm(D)\nColor: Brown/Light Blue Canvas.","specs":{"source":"wsxcme","sourceId":"_dp6p6IJofG_NMoQNwNalQ5LK-FDbZMMFSknjDXQ","sourceTagId":47002679,"sourceTagName":"Gucci/women's bag","modelNumber":"443497","rawTitle":"With full packaging)!!️【New】GG Marmont series small denim shoulder bag\nThis piece is from the Gucci Lido series, inspired by the summer vibes and beach clubs of the Italian coast. This small chain shoulder bag from the GG Marmont series features a soft yet structured design, equipped with a large flap buckle decorated with double-G accessories. The chain shoulder strap is ingeniously designed, offering versatile carrying methods that allow for free switching between shoulder and handbag styles.\nModel: 443497.\nSize: 26(W)x 15(H)x 7cm(D)\nColor: Brown/Light Blue Canvas."},"price":null,"currency":"CNY","moq":1,"category":"gucci-women-bags","status":"active","alibaba_url":null,"images":["https://xcimg.szwego.com/img/545dbde1/20240526/i1716733660_8900_3.jpg","https://xcimg.szwego.com/img/545dbde1/20240526/i1716733660_8301_0.jpg","https://xcimg.szwego.com/img/545dbde1/20240526/i1716733660_4723_4.jpg","https://xcimg.szwego.com/img/545dbde1/20240526/i1716733661_3485_6.jpg","https://xcimg.szwego.com/img/545dbde1/20240526/i1716733660_6243_1.jpg","https://xcimg.szwego.com/img/545dbde1/20240526/i1716733661_1265_7.jpg","https://xcimg.szwego.com/img/545dbde1/20240526/i1716733660_2770_2.jpg","https://xcimg.szwego.com/img/545dbde1/20240526/i1716733660_532_5.jpg","https://xcimg.szwego.com/img/545dbde1/20240526/i1716733661_6308_8.jpg"],"created_at":"2025-02-08T13:17:54.505Z"}],"page":32,"pageSize":24,"total":758,"totalPages":32}
