{"items":[{"id":"item-ed41f75ca4cf","sku":"_dxzxz_lGxr5elARjUgbeQJsSfNiFwchlp3kV30A","name_en":"Gucci Women Bags","name_cn":"【独家背景】实物实拍品质 款号:621512啡棕  🌊🌊尺寸27.5✖️21✖️16","specs":{"source":"wsxcme","sourceId":"_dxzxz_lGxr5elARjUgbeQJsSfNiFwchlp3kV30A","sourceTagId":47002679,"sourceTagName":"古驰/女包","modelNumber":"621512啡棕  🌊🌊尺寸27.5✖️21✖️16","rawTitle":"【独家背景】实物实拍品质 款号:621512啡棕  🌊🌊尺寸27.5✖️21✖️16"},"price":null,"currency":"CNY","moq":1,"category":"gucci-women-bags","status":"active","alibaba_url":null,"images":["https://xcimg.szwego.com/img/ac9333ee/20251221/i1766299278777_8974_0_0.jpg","https://xcimg.szwego.com/img/ac9333ee/20251221/i1766299278839_1235_0_1.jpg","https://xcimg.szwego.com/img/ac9333ee/20251221/i1766299278059_9522_0_2.jpg","https://xcimg.szwego.com/img/ac9333ee/20251221/i1766299278091_7432_0_3.jpg","https://xcimg.szwego.com/img/ac9333ee/20251221/i1766299278776_6336_0_4.jpg","https://xcimg.szwego.com/img/ac9333ee/20251221/i1766299278046_4770_0_5.jpg","https://xcimg.szwego.com/img/ac9333ee/20251221/i1766299278011_171_0_6.jpg","https://xcimg.szwego.com/img/ac9333ee/20251221/i1766299278798_5166_0_7.jpg","https://xcimg.szwego.com/img/ac9333ee/20251221/i1766299278776_3466_0_8.jpg","https://xcimg.szwego.com/img/ac9333ee/20251221/i1766299277958_1348_0_9.jpg"],"created_at":"2026-06-29T11:04:23.174Z"},{"id":"item-eb5d892e0a3e","sku":"_di_i_0-nx4epzTtNypmmo-apzmvPhW1MNVZ97wQ","name_en":"Gucci Women Bags","name_cn":"782849粉色漆皮\n明星模特\n上身参考图","specs":{"source":"wsxcme","sourceId":"_di_i_0-nx4epzTtNypmmo-apzmvPhW1MNVZ97wQ","sourceTagId":47002679,"sourceTagName":"古驰/女包","rawTitle":"782849粉色漆皮\n明星模特\n上身参考图"},"price":null,"currency":"CNY","moq":1,"category":"gucci-women-bags","status":"active","alibaba_url":null,"images":["https://xcimg.szwego.com/img/dace2ca2/20241106/a1730899266884_8331.jpg","https://xcimg.szwego.com/img/dace2ca2/20241106/a1730899266888_7860.jpg","https://xcimg.szwego.com/img/dace2ca2/20241106/a1730899266897_8104.jpg"],"created_at":"2025-03-29T13:24:08.769Z"},{"id":"item-eb4bc170570c","sku":"_dn4n4396ZPp7AWhWwBK9XzTlPX8yYv5s7savKrQ","name_en":"Gucci Women Bags","name_cn":"▪️ 上身效果","specs":{"source":"wsxcme","sourceId":"_dn4n4396ZPp7AWhWwBK9XzTlPX8yYv5s7savKrQ","sourceTagId":47002679,"sourceTagName":"古驰/女包","rawTitle":"▪️ 上身效果"},"price":null,"currency":"CNY","moq":1,"category":"gucci-women-bags","status":"active","alibaba_url":null,"images":["https://xcimg.szwego.com/img/7f9d4644/20260130/i1769753959300_5749_0_0.jpg","https://xcimg.szwego.com/img/7f9d4644/20260130/i1769753959300_5183_0_1.jpg","https://xcimg.szwego.com/img/7f9d4644/20260130/i1769753959300_961_0_2.jpg","https://xcimg.szwego.com/img/7f9d4644/20260130/i1769753959300_9417_0_3.jpg"],"created_at":"2026-05-20T03:19:23.648Z"},{"id":"item-eb3b7ca80ce0","sku":"_dRCRCIhGTuYP1X1ASIjsDsccTOQoIiQLhL4figw","name_en":"Gucci Women Bags","name_cn":"782849棕色全皮\n明星模特\n上身参考图","specs":{"source":"wsxcme","sourceId":"_dRCRCIhGTuYP1X1ASIjsDsccTOQoIiQLhL4figw","sourceTagId":47002679,"sourceTagName":"古驰/女包","rawTitle":"782849棕色全皮\n明星模特\n上身参考图"},"price":null,"currency":"CNY","moq":1,"category":"gucci-women-bags","status":"active","alibaba_url":null,"images":["https://xcimg.szwego.com/img/dace2ca2/20241106/a1730889667530_8406.jpg","https://xcimg.szwego.com/img/dace2ca2/20241106/a1730889667581_0540.jpg","https://xcimg.szwego.com/img/dace2ca2/20241106/a1730889667585_6451.jpg"],"created_at":"2025-03-29T13:24:08.756Z"},{"id":"item-e17773890a34","sku":"_dc1c1ELv7BchF2NjRzc0L4tk1MhPbHhYpzfOoVQ","name_en":"Gucci Women Bags","name_cn":"更多细节图","specs":{"source":"wsxcme","sourceId":"_dc1c1ELv7BchF2NjRzc0L4tk1MhPbHhYpzfOoVQ","sourceTagId":47002679,"sourceTagName":"古驰/女包","rawTitle":"更多细节图"},"price":null,"currency":"CNY","moq":1,"category":"gucci-women-bags","status":"active","alibaba_url":null,"images":["https://xcimg.szwego.com/img/7f9d4644/20260130/i1769753745111_7915_0_0.jpg","https://xcimg.szwego.com/img/7f9d4644/20260130/i1769753745448_8259_0_1.jpg","https://xcimg.szwego.com/img/7f9d4644/20260130/i1769753745406_9800_0_2.jpg","https://xcimg.szwego.com/img/7f9d4644/20260130/i1769753745108_9516_0_3.jpg"],"created_at":"2026-05-20T03:19:23.608Z"},{"id":"item-e15c2f0db2c2","sku":"_dphph6d11HdgwSXt8G-PlRmbd4EOaery0Afl0ow","name_en":"Gucci Women Bags","name_cn":"实拍#       只做头层皮 真牛皮\n\n款号:308364深绿\n尺寸:21x15x7cm\n\nGG disco soho相机包. 经典永不会过时\n浮雕双G配上皮革流苏.头层牛皮 超级软\n斜挎✅单肩✅手拿✅","specs":{"source":"wsxcme","sourceId":"_dphph6d11HdgwSXt8G-PlRmbd4EOaery0Afl0ow","sourceTagId":47002679,"sourceTagName":"古驰/女包","modelNumber":"308364深绿","dimensions":{"lengthCm":21,"heightCm":15,"widthCm":7},"rawTitle":"实拍#       只做头层皮 真牛皮\n\n款号:308364深绿\n尺寸:21x15x7cm\n\nGG disco soho相机包. 经典永不会过时\n浮雕双G配上皮革流苏.头层牛皮 超级软\n斜挎✅单肩✅手拿✅"},"price":null,"currency":"CNY","moq":1,"category":"gucci-women-bags","status":"active","alibaba_url":null,"images":["https://xcimg.szwego.com/20221027/i1666863694_8236_0.jpg","https://xcimg.szwego.com/20221027/i1666863694_4664_1.jpg","https://xcimg.szwego.com/20221027/i1666863694_7401_2.jpg","https://xcimg.szwego.com/20221027/i1666863694_1454_3.jpg","https://xcimg.szwego.com/20221027/i1666863694_6849_4.jpg","https://xcimg.szwego.com/20221027/i1666863694_9743_5.jpg","https://xcimg.szwego.com/20221027/i1666863694_9222_6.jpg","https://xcimg.szwego.com/20221027/i1666863694_3655_7.jpg","https://xcimg.szwego.com/20221027/i1666863694_8386_8.jpg"],"created_at":"2024-11-26T11:46:47.171Z"},{"id":"item-e15834243e9f","sku":"_d1T1TbGpQwRIlvywvRRqPZquCqaLw3tf5681MXw","name_en":"Gucci Women Bags","name_cn":"【独家背景】实物实拍🌹🌹原厂品质 款号:855371灰色  🌊🌊尺寸23✖️17✖️9","specs":{"source":"wsxcme","sourceId":"_d1T1TbGpQwRIlvywvRRqPZquCqaLw3tf5681MXw","sourceTagId":47002679,"sourceTagName":"古驰/女包","modelNumber":"855371灰色  🌊🌊尺寸23✖️17✖️9","rawTitle":"【独家背景】实物实拍🌹🌹原厂品质 款号:855371灰色  🌊🌊尺寸23✖️17✖️9"},"price":null,"currency":"CNY","moq":1,"category":"gucci-women-bags","status":"active","alibaba_url":null,"images":["https://xcimg.szwego.com/img/ac9333ee/20260127/i1769491358063_4563_0_0.jpg","https://xcimg.szwego.com/img/ac9333ee/20260127/i1769491359558_2570_0_1.jpg","https://xcimg.szwego.com/img/ac9333ee/20260127/i1769491358074_2457_0_2.jpg","https://xcimg.szwego.com/img/ac9333ee/20260127/i1769491359522_8041_0_3.jpg","https://xcimg.szwego.com/img/ac9333ee/20260127/i1769491358089_6797_0_4.jpg","https://xcimg.szwego.com/img/ac9333ee/20260127/i1769491359424_55_0_5.jpg","https://xcimg.szwego.com/img/ac9333ee/20260127/i1769491358012_482_0_6.jpg","https://xcimg.szwego.com/img/ac9333ee/20260127/i1769491359525_9062_0_7.jpg","https://xcimg.szwego.com/img/ac9333ee/20260127/i1769491359526_7384_0_8.jpg","https://xcimg.szwego.com/img/ac9333ee/20260127/i1769491357965_6040_0_9.jpg"],"created_at":"2026-06-29T11:04:23.124Z"},{"id":"item-de3b86433906","sku":"_dmOmOWFhDBPYrgGfArflPAHNhhRpDQSs-sz1esA","name_en":"Gucci Women Bags","name_cn":"🔥官网参考\n\n型号:782849  尺寸:27.5x19x4cm","specs":{"source":"wsxcme","sourceId":"_dmOmOWFhDBPYrgGfArflPAHNhhRpDQSs-sz1esA","sourceTagId":47002679,"sourceTagName":"古驰/女包","modelNumber":"782849  尺寸:27.5x19x4cm","dimensions":{"lengthCm":27.5,"heightCm":19,"widthCm":4},"rawTitle":"🔥官网参考\n\n型号:782849  尺寸:27.5x19x4cm"},"price":null,"currency":"CNY","moq":1,"category":"gucci-women-bags","status":"active","alibaba_url":null,"images":["https://xcimg.szwego.com/img/dace2ca2/20241106/a1730894895257_0850.jpg","https://xcimg.szwego.com/img/dace2ca2/20241106/a1730894895262_3080.jpg","https://xcimg.szwego.com/img/dace2ca2/20241106/a1730894895261_6750.jpg","https://xcimg.szwego.com/img/dace2ca2/20241106/a1730894895262_8207.jpg","https://xcimg.szwego.com/img/dace2ca2/20241106/a1730894895259_6332.jpg","https://xcimg.szwego.com/img/dace2ca2/20241106/a1730894895260_6080.jpg","https://xcimg.szwego.com/img/dace2ca2/20241106/a1730894896348_8264.jpg","https://xcimg.szwego.com/img/dace2ca2/20241106/a1730894896346_8636.jpg"],"created_at":"2025-03-29T13:24:08.765Z"},{"id":"item-de3a70c9143e","sku":"_dgwgwATsrTK3xDWbIMIb7gwWP4iS2SPjOn4swZA","name_en":"Gucci Women Bags","name_cn":"【独家背景】实物实拍🌹🌹原厂品质 款号:857622棕磨砂  🌊🌊尺寸28✖️16✖️7","specs":{"source":"wsxcme","sourceId":"_dgwgwATsrTK3xDWbIMIb7gwWP4iS2SPjOn4swZA","sourceTagId":47002679,"sourceTagName":"古驰/女包","modelNumber":"857622棕磨砂  🌊🌊尺寸28✖️16✖️7","rawTitle":"【独家背景】实物实拍🌹🌹原厂品质 款号:857622棕磨砂  🌊🌊尺寸28✖️16✖️7"},"price":null,"currency":"CNY","moq":1,"category":"gucci-women-bags","status":"active","alibaba_url":null,"images":["https://xcimg.szwego.com/img/ac9333ee/20260127/i1769491404246_5689_0_0.jpg","https://xcimg.szwego.com/img/ac9333ee/20260127/i1769491404281_3974_0_1.jpg","https://xcimg.szwego.com/img/ac9333ee/20260127/i1769491405101_7819_0_2.jpg","https://xcimg.szwego.com/img/ac9333ee/20260127/i1769491405043_4560_0_3.jpg","https://xcimg.szwego.com/img/ac9333ee/20260127/i1769491404222_4773_0_4.jpg","https://xcimg.szwego.com/img/ac9333ee/20260127/i1769491405059_5333_0_5.jpg","https://xcimg.szwego.com/img/ac9333ee/20260127/i1769491405046_8277_0_6.jpg","https://xcimg.szwego.com/img/ac9333ee/20260127/i1769491404283_951_0_7.jpg","https://xcimg.szwego.com/img/ac9333ee/20260127/i1769491404247_6190_0_8.jpg"],"created_at":"2026-06-29T11:04:23.154Z"},{"id":"item-ddacf957ec65","sku":"_dfGfGd6s1QGhgZwctAg12-E_NzCVzkMlr7-G2UA","name_en":"Gucci Women Bags","name_cn":"🎁专柜品质,顶级货,实物实拍!\n款号734814尺寸:宽26.5X高13X侧宽7,","specs":{"source":"wsxcme","sourceId":"_dfGfGd6s1QGhgZwctAg12-E_NzCVzkMlr7-G2UA","sourceTagId":47002679,"sourceTagName":"古驰/女包","modelNumber":"734814尺寸:宽26.5X高13X侧宽7","rawTitle":"🎁专柜品质,顶级货,实物实拍!\n款号734814尺寸:宽26.5X高13X侧宽7,"},"price":null,"currency":"CNY","moq":1,"category":"gucci-women-bags","status":"active","alibaba_url":null,"images":["https://xcimg.szwego.com/img/89461437/20231019/i1697690102_1494_0.jpg","https://xcimg.szwego.com/img/89461437/20231019/i1697690102_9025_1.jpg","https://xcimg.szwego.com/img/89461437/20231019/i1697690102_751_2.jpg","https://xcimg.szwego.com/img/89461437/20231019/i1697690102_2815_3.jpg","https://xcimg.szwego.com/img/89461437/20231019/i1697690102_1593_4.jpg","https://xcimg.szwego.com/img/89461437/20231019/i1697690102_9938_5.jpg","https://xcimg.szwego.com/img/89461437/20231019/i1697690102_5630_6.jpg"],"created_at":"2024-11-26T11:46:47.129Z"},{"id":"item-daccde6c2a1f","sku":"_dxYxY0zV47HDmZ_jQ9xvhW5omkjN4yEN3zQJkEA","name_en":"Gucci Women Bags","name_cn":"顶级原厂皮\n Horsebit 1955 mini\n699296尺寸:18x12x5cm","specs":{"source":"wsxcme","sourceId":"_dxYxY0zV47HDmZ_jQ9xvhW5omkjN4yEN3zQJkEA","sourceTagId":47002679,"sourceTagName":"古驰/女包","dimensions":{"lengthCm":18,"heightCm":12,"widthCm":5},"rawTitle":"顶级原厂皮\n Horsebit 1955 mini\n699296尺寸:18x12x5cm"},"price":null,"currency":"CNY","moq":1,"category":"gucci-women-bags","status":"active","alibaba_url":null,"images":["https://xcimg.szwego.com/20230207/i1675760002_8915_0.jpg","https://xcimg.szwego.com/20230207/i1675760002_5484_1.jpg","https://xcimg.szwego.com/20230207/i1675760002_6317_2.jpg","https://xcimg.szwego.com/20230207/i1675760002_504_3.jpg","https://xcimg.szwego.com/20230207/i1675760002_56_4.jpg","https://xcimg.szwego.com/20230207/i1675760002_9040_5.jpg","https://xcimg.szwego.com/20230207/i1675760002_2492_6.jpg","https://xcimg.szwego.com/20230207/i1675760002_8234_7.jpg","https://xcimg.szwego.com/20230207/i1675760002_5838_8.jpg"],"created_at":"2024-11-26T11:46:47.127Z"},{"id":"item-dac4a9bb219b","sku":"_dkRkRhcHrpI7jfi_eXRYPIYSXI_hGmaYnqV0t0w","name_en":"Gucci Women Bags","name_cn":"顶级原厂皮\n Horsebit 1955 mini\n699296尺寸:18x12x5cm","specs":{"source":"wsxcme","sourceId":"_dkRkRhcHrpI7jfi_eXRYPIYSXI_hGmaYnqV0t0w","sourceTagId":47002679,"sourceTagName":"古驰/女包","dimensions":{"lengthCm":18,"heightCm":12,"widthCm":5},"rawTitle":"顶级原厂皮\n Horsebit 1955 mini\n699296尺寸:18x12x5cm"},"price":null,"currency":"CNY","moq":1,"category":"gucci-women-bags","status":"active","alibaba_url":null,"images":["https://xcimg.szwego.com/20230207/i1675760017_2587_0.jpg","https://xcimg.szwego.com/20230207/i1675760017_63_1.jpg","https://xcimg.szwego.com/20230207/i1675760017_7946_2.jpg","https://xcimg.szwego.com/20230207/i1675760017_2372_3.jpg","https://xcimg.szwego.com/20230207/i1675760017_1479_4.jpg","https://xcimg.szwego.com/20230207/i1675760017_410_5.jpg","https://xcimg.szwego.com/20230207/i1675760017_1949_6.jpg","https://xcimg.szwego.com/20230207/i1675760017_722_7.jpg","https://xcimg.szwego.com/20230207/i1675760017_6561_8.jpg"],"created_at":"2024-11-26T11:46:47.128Z"},{"id":"item-d43f81c387c8","sku":"_dl3l3sbJhOgBBG9O8wQMF-uKCoAKCbI7cTDQnJQ","name_en":"Gucci Women Bags","name_cn":"782849浅棕色全皮\n明星模特\n上身参考图","specs":{"source":"wsxcme","sourceId":"_dl3l3sbJhOgBBG9O8wQMF-uKCoAKCbI7cTDQnJQ","sourceTagId":47002679,"sourceTagName":"古驰/女包","rawTitle":"782849浅棕色全皮\n明星模特\n上身参考图"},"price":null,"currency":"CNY","moq":1,"category":"gucci-women-bags","status":"active","alibaba_url":null,"images":["https://xcimg.szwego.com/img/dace2ca2/20241106/a1730897243354_2530.jpg","https://xcimg.szwego.com/img/dace2ca2/20241106/a1730897243353_5376.jpg"],"created_at":"2025-03-29T13:24:08.753Z"},{"id":"item-d2950b9c1bef","sku":"_dxBxB_flxYaQs3wZ0eB0JPwbMDavgHmaLUyUOfA","name_en":"Gucci Women Bags","name_cn":"【独家背景】实物实拍品质 款号:834981绿磨砂  🌊🌊尺寸42✖️36✖️2","specs":{"source":"wsxcme","sourceId":"_dxBxB_flxYaQs3wZ0eB0JPwbMDavgHmaLUyUOfA","sourceTagId":47002679,"sourceTagName":"古驰/女包","modelNumber":"834981绿磨砂  🌊🌊尺寸42✖️36✖️2","rawTitle":"【独家背景】实物实拍品质 款号:834981绿磨砂  🌊🌊尺寸42✖️36✖️2"},"price":null,"currency":"CNY","moq":1,"category":"gucci-women-bags","status":"active","alibaba_url":null,"images":["https://xcimg.szwego.com/img/ac9333ee/20260124/i1769254488194_2290_0_0.jpg","https://xcimg.szwego.com/img/ac9333ee/20260124/i1769254487375_4122_0_1.jpg","https://xcimg.szwego.com/img/ac9333ee/20260124/i1769254487305_830_0_2.jpg","https://xcimg.szwego.com/img/ac9333ee/20260124/i1769254487308_6640_0_3.jpg","https://xcimg.szwego.com/img/ac9333ee/20260124/i1769254488224_64_0_4.jpg","https://xcimg.szwego.com/img/ac9333ee/20260124/i1769254487333_1928_0_5.jpg","https://xcimg.szwego.com/img/ac9333ee/20260124/i1769254488194_7800_0_6.jpg","https://xcimg.szwego.com/img/ac9333ee/20260124/i1769254488181_9657_0_7.jpg","https://xcimg.szwego.com/img/ac9333ee/20260124/i1769254487184_2765_0_8.jpg"],"created_at":"2026-06-29T11:04:23.214Z"},{"id":"item-d205e35b87fa","sku":"_deVeV1xJTDs7aZg0aWfiMoMGkORK0ey2GlVXDtA","name_en":"Gucci Women Bags","name_cn":"🔥官网参考\n\n型号:782849  尺寸:27.5x19x4cm","specs":{"source":"wsxcme","sourceId":"_deVeV1xJTDs7aZg0aWfiMoMGkORK0ey2GlVXDtA","sourceTagId":47002679,"sourceTagName":"古驰/女包","modelNumber":"782849  尺寸:27.5x19x4cm","dimensions":{"lengthCm":27.5,"heightCm":19,"widthCm":4},"rawTitle":"🔥官网参考\n\n型号:782849  尺寸:27.5x19x4cm"},"price":null,"currency":"CNY","moq":1,"category":"gucci-women-bags","status":"active","alibaba_url":null,"images":["https://xcimg.szwego.com/img/dace2ca2/20241106/a1730887592611_6604.jpg","https://xcimg.szwego.com/img/dace2ca2/20241106/a1730887592634_4546.jpg","https://xcimg.szwego.com/img/dace2ca2/20241106/a1730887592645_5334.jpg","https://xcimg.szwego.com/img/dace2ca2/20241106/a1730887592619_3842.jpg","https://xcimg.szwego.com/img/dace2ca2/20241106/a1730887592630_3201.jpg","https://xcimg.szwego.com/img/dace2ca2/20241106/a1730887592628_6433.jpg","https://xcimg.szwego.com/img/dace2ca2/20241106/a1730887593423_7653.jpg","https://xcimg.szwego.com/img/dace2ca2/20241106/a1730887593422_3025.jpg"],"created_at":"2025-03-29T13:24:08.758Z"},{"id":"item-cfda6b058335","sku":"_dcHcHAax6LXFIABFy9Di7IBGP_XSuv895BLi-Lg","name_en":"Gucci Women Bags","name_cn":"原厂皮👜配包装# \n🔥Marmont菱格原厂皮#\n全新Tote购物袋 ,整个包身下血本都用了原厂牛皮❗️袋口处加了锁扣设计更加有安全感,原厂皮质质感好到爆. 立体棱格绣花在灯光下让整个包活跃了起来,上身太好驾驭 不挑身高,也是全球打人必备的百搭单品!\n\n▫️型号681483\n▫️尺寸 26.5*19*11cm","specs":{"source":"wsxcme","sourceId":"_dcHcHAax6LXFIABFy9Di7IBGP_XSuv895BLi-Lg","sourceTagId":47002679,"sourceTagName":"古驰/女包","modelNumber":"681483","dimensions":{"lengthCm":26.5,"heightCm":19,"widthCm":11},"rawTitle":"原厂皮👜配包装# \n🔥Marmont菱格原厂皮#\n全新Tote购物袋 ,整个包身下血本都用了原厂牛皮❗️袋口处加了锁扣设计更加有安全感,原厂皮质质感好到爆. 立体棱格绣花在灯光下让整个包活跃了起来,上身太好驾驭 不挑身高,也是全球打人必备的百搭单品!\n\n▫️型号681483\n▫️尺寸 26.5*19*11cm"},"price":null,"currency":"CNY","moq":1,"category":"gucci-women-bags","status":"active","alibaba_url":null,"images":["https://xcimg.szwego.com/20211013/i1634105364_9594_0.jpg","https://xcimg.szwego.com/20211013/i1634105364_6330_1.jpg","https://xcimg.szwego.com/20211013/i1634105364_5921_2.jpg","https://xcimg.szwego.com/20211013/i1634105364_5057_3.jpg","https://xcimg.szwego.com/20211013/i1634105364_2315_4.jpg","https://xcimg.szwego.com/20211013/i1634105364_1549_5.jpg","https://xcimg.szwego.com/20211013/i1634105364_4092_6.jpg","https://xcimg.szwego.com/20211013/i1634105364_7707_7.jpg","https://xcimg.szwego.com/20211013/i1634105364_6032_8.jpg"],"created_at":"2024-10-20T11:19:56.249Z"},{"id":"item-cf59b97aea70","sku":"_dq6q6mdACQDyIL-Wo9WlDpCQVqzJAPTwQ_zgZHA","name_en":"Gucci Women Bags","name_cn":"。💖《配全套原厂绿色包装》💖\nG家新款简介:沉浸在复古情怀之中Ophidia家族迎来了新的成员——中号手提包方正的造型让人联想到复古的设计GG高级人造帆布材质点缀红绿织带等品牌最富特色的经典元素体现出对品牌马术本源的致敬Ophidia Web \n型号:602676。\n尺寸:19*14*6cm。\n颜色:棕色/pvc。","specs":{"source":"wsxcme","sourceId":"_dq6q6mdACQDyIL-Wo9WlDpCQVqzJAPTwQ_zgZHA","sourceTagId":47002679,"sourceTagName":"古驰/女包","modelNumber":"602676","dimensions":{"lengthCm":19,"heightCm":14,"widthCm":6},"rawTitle":"。💖《配全套原厂绿色包装》💖\nG家新款简介:沉浸在复古情怀之中Ophidia家族迎来了新的成员——中号手提包方正的造型让人联想到复古的设计GG高级人造帆布材质点缀红绿织带等品牌最富特色的经典元素体现出对品牌马术本源的致敬Ophidia Web \n型号:602676。\n尺寸:19*14*6cm。\n颜色:棕色/pvc。"},"price":null,"currency":"CNY","moq":1,"category":"gucci-women-bags","status":"active","alibaba_url":null,"images":["https://xcimg.szwego.com/20210627/i1624802784_3273_0.jpg","https://xcimg.szwego.com/20210627/i1624802784_2846_1.jpg","https://xcimg.szwego.com/20210627/i1624802784_3687_2.jpg","https://xcimg.szwego.com/20210627/i1624802784_7188_3.jpg","https://xcimg.szwego.com/20210627/i1624802784_7203_4.jpg","https://xcimg.szwego.com/20210627/i1624802784_3120_5.jpg","https://xcimg.szwego.com/20210627/i1624802784_3752_6.jpg","https://xcimg.szwego.com/20210627/i1624802784_7371_7.jpg","https://xcimg.szwego.com/20210627/i1624802784_9952_8.jpg"],"created_at":"2024-05-01T03:19:15.940Z"},{"id":"item-c909b86d7330","sku":"_dmjmjAawnuo2qaPetpzzoT0vUqwUYkt236ioCFg","name_en":"Gucci Women Bags","name_cn":"【最高版本原厂皮顶级原单配专柜全套包装】\n简介;这款全新GG,互扣式双G椭圆型标牌肩背包,米色和乌木色GG搭配棕色皮革,棉麻里衬,手提带另配有链条肩带。\n💐型号✨696011\n💐材质✨采用专柜质感pvc防水面料,配高密度织带👏纹路清晰易见、质感细腻最高品质!\n💐尺寸✨24.5x20x8cm","specs":{"source":"wsxcme","sourceId":"_dmjmjAawnuo2qaPetpzzoT0vUqwUYkt236ioCFg","sourceTagId":47002679,"sourceTagName":"古驰/女包","modelNumber":"✨696011","rawTitle":"【最高版本原厂皮顶级原单配专柜全套包装】\n简介;这款全新GG,互扣式双G椭圆型标牌肩背包,米色和乌木色GG搭配棕色皮革,棉麻里衬,手提带另配有链条肩带。\n💐型号✨696011\n💐材质✨采用专柜质感pvc防水面料,配高密度织带👏纹路清晰易见、质感细腻最高品质!\n💐尺寸✨24.5x20x8cm"},"price":null,"currency":"CNY","moq":1,"category":"gucci-women-bags","status":"active","alibaba_url":null,"images":["https://xcimg.szwego.com/20220517/i1652765038_9531_0.jpg","https://xcimg.szwego.com/20220517/i1652765038_4424_1.jpg","https://xcimg.szwego.com/20220517/i1652765038_5561_7.jpg","https://xcimg.szwego.com/20220517/i1652765038_7746_8.jpg","https://xcimg.szwego.com/20220517/i1652765038_2513_3.jpg","https://xcimg.szwego.com/20220517/i1652765038_1228_2.jpg","https://xcimg.szwego.com/20220517/i1652765038_1299_4.jpg","https://xcimg.szwego.com/20220517/i1652765038_4793_5.jpg","https://xcimg.szwego.com/20220517/i1652765038_7802_6.jpg"],"created_at":"2025-02-08T13:09:19.634Z"},{"id":"item-c69c3f72954f","sku":"_dtEtEBlrzQC-HP1gmTp5zIMf_NcCWnu8buTTfoQ","name_en":"Gucci Women Bags","name_cn":"实拍#       只做头层皮 真牛皮\n\n款号:308364裸粉\n尺寸:21x15x7cm\n\nGG disco soho相机包. 经典永不会过时\n浮雕双G配上皮革流苏.头层牛皮 超级软\n斜挎✅单肩✅手拿✅","specs":{"source":"wsxcme","sourceId":"_dtEtEBlrzQC-HP1gmTp5zIMf_NcCWnu8buTTfoQ","sourceTagId":47002679,"sourceTagName":"古驰/女包","modelNumber":"308364裸粉","dimensions":{"lengthCm":21,"heightCm":15,"widthCm":7},"rawTitle":"实拍#       只做头层皮 真牛皮\n\n款号:308364裸粉\n尺寸:21x15x7cm\n\nGG disco soho相机包. 经典永不会过时\n浮雕双G配上皮革流苏.头层牛皮 超级软\n斜挎✅单肩✅手拿✅"},"price":null,"currency":"CNY","moq":1,"category":"gucci-women-bags","status":"active","alibaba_url":null,"images":["https://xcimg.szwego.com/20221027/i1666863893_12_0.jpg","https://xcimg.szwego.com/20221027/i1666863893_1122_1.jpg","https://xcimg.szwego.com/20221027/i1666863893_7420_2.jpg","https://xcimg.szwego.com/20221027/i1666863893_3449_3.jpg","https://xcimg.szwego.com/20221027/i1666863893_7287_4.jpg","https://xcimg.szwego.com/20221027/i1666863893_8267_5.jpg","https://xcimg.szwego.com/20221027/i1666863893_9816_6.jpg","https://xcimg.szwego.com/20221027/i1666863893_6010_7.jpg","https://xcimg.szwego.com/20221027/i1666863893_4539_8.jpg"],"created_at":"2024-11-26T11:46:47.168Z"},{"id":"item-c56ec69cf9d3","sku":"_dwXwX_hREmT7U68zKkeb__FXqcNSBShXPuAi4ww","name_en":"Gucci Women Bags","name_cn":"。💖《配全套原厂绿色包装》💖\nG家新款简介:沉浸在复古情怀之中Ophidia家族迎来了新的成员——中号手提包方正的造型让人联想到复古的设计GG高级人造帆布材质点缀红绿织带等品牌最富特色的经典元素体现出对品牌马术本源的致敬Ophidia Web \n型号:503876。\n尺寸:32.5*20*10cm。\n颜色:棕色/pvc。","specs":{"source":"wsxcme","sourceId":"_dwXwX_hREmT7U68zKkeb__FXqcNSBShXPuAi4ww","sourceTagId":47002679,"sourceTagName":"古驰/女包","modelNumber":"503876","dimensions":{"lengthCm":32.5,"heightCm":20,"widthCm":10},"rawTitle":"。💖《配全套原厂绿色包装》💖\nG家新款简介:沉浸在复古情怀之中Ophidia家族迎来了新的成员——中号手提包方正的造型让人联想到复古的设计GG高级人造帆布材质点缀红绿织带等品牌最富特色的经典元素体现出对品牌马术本源的致敬Ophidia Web \n型号:503876。\n尺寸:32.5*20*10cm。\n颜色:棕色/pvc。"},"price":null,"currency":"CNY","moq":1,"category":"gucci-women-bags","status":"active","alibaba_url":null,"images":["https://xcimg.szwego.com/20210627/i1624803023_5272_0.jpg","https://xcimg.szwego.com/20210627/i1624803023_5310_1.jpg","https://xcimg.szwego.com/20210627/i1624803023_213_2.jpg","https://xcimg.szwego.com/20210627/i1624803023_4283_3.jpg","https://xcimg.szwego.com/20210627/i1624803023_4242_4.jpg","https://xcimg.szwego.com/20210627/i1624803023_7860_5.jpg","https://xcimg.szwego.com/20210627/i1624803023_9124_6.jpg","https://xcimg.szwego.com/20210627/i1624803023_334_7.jpg","https://xcimg.szwego.com/20210627/i1624803023_257_8.jpg"],"created_at":"2024-05-01T03:19:15.942Z"},{"id":"item-c155b04491cd","sku":"_dgDgD3eTEzg_-mQcYIblNxoXq-wYNlrgQsur2GA","name_en":"Gucci Women Bags","name_cn":"型号 :499623 红\n尺寸:25x14x8cm   \n\n Gucci Dionysus钻扣酒神\n真香系列警告,太绝了。\n保留了酒神包的完美血统,\n但是开启了酒神革新时代!\n整个包最值钱的地方就是虎头钻石扣\n殿堂级宝藏单品。并非市场货。\n自重很轻,尺寸大小非常完美,推荐入。","specs":{"source":"wsxcme","sourceId":"_dgDgD3eTEzg_-mQcYIblNxoXq-wYNlrgQsur2GA","sourceTagId":47002679,"sourceTagName":"古驰/女包","modelNumber":"499623 红","dimensions":{"lengthCm":25,"heightCm":14,"widthCm":8},"rawTitle":"型号 :499623 红\n尺寸:25x14x8cm   \n\n Gucci Dionysus钻扣酒神\n真香系列警告,太绝了。\n保留了酒神包的完美血统,\n但是开启了酒神革新时代!\n整个包最值钱的地方就是虎头钻石扣\n殿堂级宝藏单品。并非市场货。\n自重很轻,尺寸大小非常完美,推荐入。"},"price":null,"currency":"CNY","moq":1,"category":"gucci-women-bags","status":"active","alibaba_url":null,"images":["https://xcimg.szwego.com/img/d06f5dea/20240601/i1717221783_6173_8.jpg","https://xcimg.szwego.com/img/d06f5dea/20240601/i1717221783_2524_5.jpg","https://xcimg.szwego.com/img/d06f5dea/20240601/i1717221783_7947_4.jpg","https://xcimg.szwego.com/img/d06f5dea/20240601/i1717221783_4708_7.jpg","https://xcimg.szwego.com/img/d06f5dea/20240601/i1717221783_3533_6.jpg","https://xcimg.szwego.com/img/d06f5dea/20240601/i1717221783_5018_1.jpg","https://xcimg.szwego.com/img/d06f5dea/20240601/i1717221783_6047_0.jpg","https://xcimg.szwego.com/img/d06f5dea/20240601/i1717221783_9308_2.jpg","https://xcimg.szwego.com/img/d06f5dea/20240601/i1717221783_784_3.jpg"],"created_at":"2026-05-20T03:19:23.348Z"},{"id":"item-c02c482d0391","sku":"_dioio6uXbkQH2dySSITZyT1MNsCPB5fiDTeW28g","name_en":"Gucci Women Bags","name_cn":"正品级\n迷你马鞍包1955系列手袋为这一复古风格系列增添了混搭格调。这款迷你手袋配有两根不同的肩带,搭配同色调皮革肩带可呈现出低调优雅的气息,搭配红绿织带肩带则突显强大的品牌标识内涵。手袋采用双G字母交织图案帆布制作,饰以棕色皮革滚边。\n型号: 658574全皮 \n尺寸: 20.5x14x5cm","specs":{"source":"wsxcme","sourceId":"_dioio6uXbkQH2dySSITZyT1MNsCPB5fiDTeW28g","sourceTagId":47002679,"sourceTagName":"古驰/女包","modelNumber":"658574全皮","dimensions":{"lengthCm":20.5,"heightCm":14,"widthCm":5},"rawTitle":"正品级\n迷你马鞍包1955系列手袋为这一复古风格系列增添了混搭格调。这款迷你手袋配有两根不同的肩带,搭配同色调皮革肩带可呈现出低调优雅的气息,搭配红绿织带肩带则突显强大的品牌标识内涵。手袋采用双G字母交织图案帆布制作,饰以棕色皮革滚边。\n型号: 658574全皮 \n尺寸: 20.5x14x5cm"},"price":null,"currency":"CNY","moq":1,"category":"gucci-women-bags","status":"active","alibaba_url":null,"images":["https://xcimg.szwego.com/20210603/i1622710187_2802_0.jpg","https://xcimg.szwego.com/20210603/i1622710187_9024_1.jpg","https://xcimg.szwego.com/20210603/i1622710187_9406_2.jpg","https://xcimg.szwego.com/20210603/i1622710187_53_3.jpg","https://xcimg.szwego.com/20210603/i1622710187_258_4.jpg","https://xcimg.szwego.com/20210603/i1622710187_8772_5.jpg","https://xcimg.szwego.com/20210603/i1622710187_9470_6.jpg","https://xcimg.szwego.com/20210603/i1622710187_4426_7.jpg","https://xcimg.szwego.com/20210603/i1622710187_9554_8.jpg"],"created_at":"2024-09-20T05:28:32.910Z"},{"id":"item-bf72b41fb14f","sku":"_drNrNBJ9Ra0_KxvD1yJQsel2fCVQ8KKT6tzZHMw","name_en":"Gucci Women Bags","name_cn":"【原厂皮】\n标识由20世纪30年代的Gucci钻石菱格纹演化而来735132并从此成为Gucci的传统象征。全新Ophidia系列中的这款小号手袋在设计中融入这一高辨识度图案。双G配件令整款造型更添魅力!尺寸:25x/15.5/ 6cm【配原厂包装】\n￼","specs":{"source":"wsxcme","sourceId":"_drNrNBJ9Ra0_KxvD1yJQsel2fCVQ8KKT6tzZHMw","sourceTagId":47002679,"sourceTagName":"古驰/女包","rawTitle":"【原厂皮】\n标识由20世纪30年代的Gucci钻石菱格纹演化而来735132并从此成为Gucci的传统象征。全新Ophidia系列中的这款小号手袋在设计中融入这一高辨识度图案。双G配件令整款造型更添魅力!尺寸:25x/15.5/ 6cm【配原厂包装】\n￼"},"price":null,"currency":"CNY","moq":1,"category":"gucci-women-bags","status":"active","alibaba_url":null,"images":["https://xcimg.szwego.com/20230522/i1684765469_2492_0.jpg","https://xcimg.szwego.com/20230522/i1684765469_4139_1.jpg","https://xcimg.szwego.com/20230522/i1684765469_6809_2.jpg","https://xcimg.szwego.com/20230522/i1684765469_2941_3.jpg","https://xcimg.szwego.com/20230522/i1684765469_5107_4.jpg","https://xcimg.szwego.com/20230522/i1684765469_1875_5.jpg","https://xcimg.szwego.com/20230522/i1684765469_1461_6.jpg","https://xcimg.szwego.com/20230522/i1684765469_8335_7.jpg"],"created_at":"2024-11-26T11:46:47.213Z"},{"id":"item-bf3d443d8d94","sku":"_d8f8f_vhvEQBa7NfoOdukuCvfgodxHjopYPixnQ","name_en":"Gucci Women Bags","name_cn":"实拍#       只做头层皮 真牛皮\n\n款号:308364米白\n尺寸:21x15x7cm\n\nGG disco soho相机包. 经典永不会过时\n浮雕双G配上皮革流苏.头层牛皮 超级软\n斜挎✅单肩✅手拿✅","specs":{"source":"wsxcme","sourceId":"_d8f8f_vhvEQBa7NfoOdukuCvfgodxHjopYPixnQ","sourceTagId":47002679,"sourceTagName":"古驰/女包","modelNumber":"308364米白","dimensions":{"lengthCm":21,"heightCm":15,"widthCm":7},"rawTitle":"实拍#       只做头层皮 真牛皮\n\n款号:308364米白\n尺寸:21x15x7cm\n\nGG disco soho相机包. 经典永不会过时\n浮雕双G配上皮革流苏.头层牛皮 超级软\n斜挎✅单肩✅手拿✅"},"price":null,"currency":"CNY","moq":1,"category":"gucci-women-bags","status":"active","alibaba_url":null,"images":["https://xcimg.szwego.com/20221027/i1666863662_2758_0.jpg","https://xcimg.szwego.com/20221027/i1666863662_7342_1.jpg","https://xcimg.szwego.com/20221027/i1666863662_2103_2.jpg","https://xcimg.szwego.com/20221027/i1666863662_2558_3.jpg","https://xcimg.szwego.com/20221027/i1666863662_8765_4.jpg","https://xcimg.szwego.com/20221027/i1666863662_975_5.jpg","https://xcimg.szwego.com/20221027/i1666863662_9787_6.jpg","https://xcimg.szwego.com/20221027/i1666863662_7270_7.jpg","https://xcimg.szwego.com/20221027/i1666863662_168_8.jpg"],"created_at":"2024-11-26T11:46:47.172Z"}],"page":27,"pageSize":24,"total":758,"totalPages":32}
