{"items":[{"id":"item-ca00c05afdf6","sku":"_dtntn6DFfCsQbod9N0h75lgIl4TNkguQDo8lGGA","name_en":"手缝👉Birkin 25cm 进口Togo皮 大象灰🐘 金扣","name_cn":"手缝👉Birkin 25cm 进口Togo皮 大象灰🐘 金扣","specs":{"source":"wsxcme","sourceId":"_dtntn6DFfCsQbod9N0h75lgIl4TNkguQDo8lGGA","sourceTagId":76963559,"sourceTagName":"爱马仕/女包","rawTitle":"手缝👉Birkin 25cm 进口Togo皮 大象灰🐘 金扣"},"price":null,"currency":"CNY","moq":1,"category":"hermes-women-bags","status":"active","alibaba_url":null,"images":["https://xcimg.szwego.com/img/ff0351ea/20260111/i1768105705886_4114_0_0.jpg","https://xcimg.szwego.com/img/ff0351ea/20260111/i1768105706889_8282_0_1.jpg","https://xcimg.szwego.com/img/ff0351ea/20260111/i1768105705779_9580_0_2.jpg","https://xcimg.szwego.com/img/ff0351ea/20260111/i1768105706917_9309_0_3.jpg","https://xcimg.szwego.com/img/ff0351ea/20260111/i1768105706920_9156_0_4.jpg","https://xcimg.szwego.com/img/ff0351ea/20260111/i1768105705837_6599_0_5.jpg","https://xcimg.szwego.com/img/ff0351ea/20260111/i1768105705816_9280_0_6.jpg","https://xcimg.szwego.com/img/ff0351ea/20260111/i1768105705895_3164_0_7.jpg","https://xcimg.szwego.com/img/ff0351ea/20260111/i1768105706888_7648_0_8.jpg"],"created_at":"2026-06-29T12:59:36.184Z"},{"id":"item-e5ab2c809162","sku":"_dpRpRtXUapq7zm2Ow0Dykxh-hZ_oqzo44lXEzdQ","name_en":"手缝👉Birkin 25cm 进口Togo皮 金棕 银扣","name_cn":"手缝👉Birkin 25cm 进口Togo皮 金棕 银扣","specs":{"source":"wsxcme","sourceId":"_dpRpRtXUapq7zm2Ow0Dykxh-hZ_oqzo44lXEzdQ","sourceTagId":76963559,"sourceTagName":"爱马仕/女包","rawTitle":"手缝👉Birkin 25cm 进口Togo皮 金棕 银扣"},"price":null,"currency":"CNY","moq":1,"category":"hermes-women-bags","status":"active","alibaba_url":null,"images":["https://xcimg.szwego.com/img/ff0351ea/20260111/i1768105602667_7165_0_0.jpg","https://xcimg.szwego.com/img/ff0351ea/20260111/i1768105603883_2263_0_1.jpg","https://xcimg.szwego.com/img/ff0351ea/20260111/i1768105602708_9248_0_2.jpg","https://xcimg.szwego.com/img/ff0351ea/20260111/i1768105603928_5170_0_3.jpg","https://xcimg.szwego.com/img/ff0351ea/20260111/i1768105602700_7175_0_4.jpg","https://xcimg.szwego.com/img/ff0351ea/20260111/i1768105603910_8041_0_5.jpg","https://xcimg.szwego.com/img/ff0351ea/20260111/i1768105602619_4555_0_6.jpg","https://xcimg.szwego.com/img/ff0351ea/20260111/i1768105602717_3856_0_7.jpg","https://xcimg.szwego.com/img/ff0351ea/20260111/i1768105603904_1608_0_8.jpg"],"created_at":"2026-06-29T12:59:36.164Z"},{"id":"item-4391e1fb2eb3","sku":"_dhYhY6JkHoX_jNtWP27i5JzkKMl0qFFThY6PBQw","name_en":"手缝👉Birkin 25cm 进口Togo皮 奶昔白 金扣","name_cn":"手缝👉Birkin 25cm 进口Togo皮 奶昔白 金扣","specs":{"source":"wsxcme","sourceId":"_dhYhY6JkHoX_jNtWP27i5JzkKMl0qFFThY6PBQw","sourceTagId":76963559,"sourceTagName":"爱马仕/女包","rawTitle":"手缝👉Birkin 25cm 进口Togo皮 奶昔白 金扣"},"price":null,"currency":"CNY","moq":1,"category":"hermes-women-bags","status":"active","alibaba_url":null,"images":["https://xcimg.szwego.com/img/ff0351ea/20260111/i1768105492997_5580_0_0.jpg","https://xcimg.szwego.com/img/ff0351ea/20260111/i1768105494082_2668_0_1.jpg","https://xcimg.szwego.com/img/ff0351ea/20260111/i1768105493087_5666_0_2.jpg","https://xcimg.szwego.com/img/ff0351ea/20260111/i1768105494106_8959_0_3.jpg","https://xcimg.szwego.com/img/ff0351ea/20260111/i1768105494144_5431_0_4.jpg","https://xcimg.szwego.com/img/ff0351ea/20260111/i1768105493071_8562_0_5.jpg","https://xcimg.szwego.com/img/ff0351ea/20260111/i1768105492933_4443_0_6.jpg","https://xcimg.szwego.com/img/ff0351ea/20260111/i1768105493007_2535_0_7.jpg","https://xcimg.szwego.com/img/ff0351ea/20260111/i1768105494070_8471_0_8.jpg"],"created_at":"2026-06-29T12:59:36.154Z"},{"id":"item-a67b4f33c29a","sku":"_dgYgY--Fh366IEjuYMIUtFmZsCIHAATsjBAzd4g","name_en":"手缝👉Birkin 25cm 进口Togo皮 奶昔白 银扣","name_cn":"手缝👉Birkin 25cm 进口Togo皮 奶昔白 银扣","specs":{"source":"wsxcme","sourceId":"_dgYgY--Fh366IEjuYMIUtFmZsCIHAATsjBAzd4g","sourceTagId":76963559,"sourceTagName":"爱马仕/女包","rawTitle":"手缝👉Birkin 25cm 进口Togo皮 奶昔白 银扣"},"price":null,"currency":"CNY","moq":1,"category":"hermes-women-bags","status":"active","alibaba_url":null,"images":["https://xcimg.szwego.com/img/ff0351ea/20260111/i1768105672645_2513_0_0.jpg","https://xcimg.szwego.com/img/ff0351ea/20260111/i1768105672642_9186_0_1.jpg","https://xcimg.szwego.com/img/ff0351ea/20260111/i1768105672719_5766_0_2.jpg","https://xcimg.szwego.com/img/ff0351ea/20260111/i1768105673705_7061_0_3.jpg","https://xcimg.szwego.com/img/ff0351ea/20260111/i1768105672746_4131_0_4.jpg","https://xcimg.szwego.com/img/ff0351ea/20260111/i1768105672686_4783_0_5.jpg","https://xcimg.szwego.com/img/ff0351ea/20260111/i1768105673619_8281_0_6.jpg","https://xcimg.szwego.com/img/ff0351ea/20260111/i1768105673726_3387_0_7.jpg","https://xcimg.szwego.com/img/ff0351ea/20260111/i1768105673682_9295_0_8.jpg"],"created_at":"2026-06-29T12:59:36.174Z"},{"id":"item-167d8c8196e1","sku":"_dhphpSaeYkgsU7Ot1aG--nr9yDEdZXpLh34mTxA","name_en":"手缝👉Birkin 25cm 进口Togo皮 杏仁绿 金扣","name_cn":"手缝👉Birkin 25cm 进口Togo皮 杏仁绿 金扣","specs":{"source":"wsxcme","sourceId":"_dhphpSaeYkgsU7Ot1aG--nr9yDEdZXpLh34mTxA","sourceTagId":76963559,"sourceTagName":"爱马仕/女包","rawTitle":"手缝👉Birkin 25cm 进口Togo皮 杏仁绿 金扣"},"price":null,"currency":"CNY","moq":1,"category":"hermes-women-bags","status":"active","alibaba_url":null,"images":["https://xcimg.szwego.com/img/ff0351ea/20260111/i1768105440467_3845_0_0.jpg","https://xcimg.szwego.com/img/ff0351ea/20260111/i1768105440431_740_0_1.jpg","https://xcimg.szwego.com/img/ff0351ea/20260111/i1768105441494_5117_0_2.jpg","https://xcimg.szwego.com/img/ff0351ea/20260111/i1768105440332_3522_0_3.jpg","https://xcimg.szwego.com/img/ff0351ea/20260111/i1768105441453_8992_0_4.jpg","https://xcimg.szwego.com/img/ff0351ea/20260111/i1768105440520_1562_0_5.jpg","https://xcimg.szwego.com/img/ff0351ea/20260111/i1768105440397_7092_0_6.jpg","https://xcimg.szwego.com/img/ff0351ea/20260111/i1768105441415_9620_0_7.jpg","https://xcimg.szwego.com/img/ff0351ea/20260111/i1768105441544_9980_0_8.jpg"],"created_at":"2026-06-29T12:59:36.144Z"},{"id":"item-b8e75140fa10","sku":"_dj0j0fSAMqwMH-mSrSVxikOHN0VoU7-iyiOiGUQ","name_en":"哇✨Twilly的用途可太多啦,最多的用途是缠包手柄,长头发的小姐姐可以用来绑头发,超级温柔☺️,夏天可以做小围巾还可以绑到手腕上,非常多用途的一个小饰品,这款更不用说了,绝对是好看到爆炸💥的~","name_cn":"哇✨Twilly的用途可太多啦,最多的用途是缠包手柄,长头发的小姐姐可以用来绑头发,超级温柔☺️,夏天可以做小围巾还可以绑到手腕上,非常多用途的一个小饰品,这款更不用说了,绝对是好看到爆炸💥的~","specs":{"source":"wsxcme","sourceId":"_dj0j0fSAMqwMH-mSrSVxikOHN0VoU7-iyiOiGUQ","sourceTagId":76963559,"sourceTagName":"爱马仕/女包","rawTitle":"哇✨Twilly的用途可太多啦,最多的用途是缠包手柄,长头发的小姐姐可以用来绑头发,超级温柔☺️,夏天可以做小围巾还可以绑到手腕上,非常多用途的一个小饰品,这款更不用说了,绝对是好看到爆炸💥的~"},"price":null,"currency":"CNY","moq":1,"category":"hermes-women-bags","status":"active","alibaba_url":null,"images":["https://xcimg.szwego.com/img/3d6d0be4/20231215/i1702623186_8252_0.jpg","https://xcimg.szwego.com/img/3d6d0be4/20231215/i1702623186_5913_0.jpg","https://xcimg.szwego.com/img/3d6d0be4/20231215/i1702623186_4469_0.jpg","https://xcimg.szwego.com/img/3d6d0be4/20231215/i1702623186_5292_0.jpg","https://xcimg.szwego.com/img/3d6d0be4/20231215/i1702623186_3842_0.jpg"],"created_at":"2024-10-22T05:00:12.174Z"},{"id":"item-058cbcb50e52","sku":"_dcYcY4G7v8WsuGJmgh-utgZAtyI9uC1MNW6QLBA","name_en":"现货:黑色(银扣)Berlingot togo头层牛皮,不锈钢五金,杜克普机车45度斜针工艺,水性边油,尺寸:24*18*10.5,肩带可调节腋下斜跨","name_cn":"现货:黑色(银扣)Berlingot togo头层牛皮,不锈钢五金,杜克普机车45度斜针工艺,水性边油,尺寸:24*18*10.5,肩带可调节腋下斜跨","specs":{"source":"wsxcme","sourceId":"_dcYcY4G7v8WsuGJmgh-utgZAtyI9uC1MNW6QLBA","sourceTagId":76963559,"sourceTagName":"爱马仕/女包","rawTitle":"现货:黑色(银扣)Berlingot togo头层牛皮,不锈钢五金,杜克普机车45度斜针工艺,水性边油,尺寸:24*18*10.5,肩带可调节腋下斜跨"},"price":null,"currency":"CNY","moq":1,"category":"hermes-women-bags","status":"active","alibaba_url":null,"images":["https://xcimg.szwego.com/img/a0e08728/20240927/i1727409888_9622_0.jpg","https://xcimg.szwego.com/img/a0e08728/20240927/i1727409888_8379_1.jpg","https://xcimg.szwego.com/img/a0e08728/20240927/i1727409888_4259_7.jpg","https://xcimg.szwego.com/img/a0e08728/20240927/i1727409888_5649_2.jpg","https://xcimg.szwego.com/img/a0e08728/20240927/i1727409888_386_8.jpg","https://xcimg.szwego.com/img/a0e08728/20240927/i1727409888_6478_3.jpg","https://xcimg.szwego.com/img/a0e08728/20240927/i1727409888_5923_6.jpg","https://xcimg.szwego.com/img/a0e08728/20240927/i1727409888_2597_4.jpg","https://xcimg.szwego.com/img/a0e08728/20240927/i1727409888_3338_5.jpg","https://xcimg.szwego.com/img/a0e08728/20240927/i1727409891_6806_1.jpg","https://xcimg.szwego.com/img/a0e08728/20240927/i1727409891_6590_0.jpg"],"created_at":"2025-01-20T12:29:05.601Z"},{"id":"item-387fe5f516d1","sku":"_dfIfI8X1SdVisnePFQGySvBg1kANWV2vtZnEzOg","name_en":"现货:金棕色(银扣)Berlingot togo头层牛皮,不锈钢五金,杜克普机车45度斜针工艺,水性边油,尺寸:24*18*10.5,肩带可调节腋下斜跨","name_cn":"现货:金棕色(银扣)Berlingot togo头层牛皮,不锈钢五金,杜克普机车45度斜针工艺,水性边油,尺寸:24*18*10.5,肩带可调节腋下斜跨","specs":{"source":"wsxcme","sourceId":"_dfIfI8X1SdVisnePFQGySvBg1kANWV2vtZnEzOg","sourceTagId":76963559,"sourceTagName":"爱马仕/女包","rawTitle":"现货:金棕色(银扣)Berlingot togo头层牛皮,不锈钢五金,杜克普机车45度斜针工艺,水性边油,尺寸:24*18*10.5,肩带可调节腋下斜跨"},"price":null,"currency":"CNY","moq":1,"category":"hermes-women-bags","status":"active","alibaba_url":null,"images":["https://xcimg.szwego.com/img/a0e08728/20240927/i1727409911_1771_10.jpg","https://xcimg.szwego.com/img/a0e08728/20240927/i1727409910_2553_6.jpg","https://xcimg.szwego.com/img/a0e08728/20240927/i1727409910_2072_8.jpg","https://xcimg.szwego.com/img/a0e08728/20240927/i1727409910_2538_5.jpg","https://xcimg.szwego.com/img/a0e08728/20240927/i1727409910_6670_3.jpg","https://xcimg.szwego.com/img/a0e08728/20240927/i1727409910_2504_0.jpg","https://xcimg.szwego.com/img/a0e08728/20240927/i1727409910_1819_1.jpg","https://xcimg.szwego.com/img/a0e08728/20240927/i1727409910_7462_2.jpg","https://xcimg.szwego.com/img/a0e08728/20240927/i1727409911_8145_9.jpg","https://xcimg.szwego.com/img/a0e08728/20240927/i1727409910_947_4.jpg","https://xcimg.szwego.com/img/a0e08728/20240927/i1727409910_523_7.jpg"],"created_at":"2025-01-20T12:29:05.600Z"},{"id":"item-ee8e11aa51dd","sku":"_dA6A6Uo-Q70pTfnsV0SCCTbkndvOgRXUxOu8Nqw","name_en":"现货:Garden part(花园包)30cm 进口TC皮拼密织布 杏色拼3Q粉 银扣蜡线","name_cn":"现货:Garden part(花园包)30cm 进口TC皮拼密织布 杏色拼3Q粉 银扣蜡线","specs":{"source":"wsxcme","sourceId":"_dA6A6Uo-Q70pTfnsV0SCCTbkndvOgRXUxOu8Nqw","sourceTagId":76963559,"sourceTagName":"爱马仕/女包","rawTitle":"现货:Garden part(花园包)30cm 进口TC皮拼密织布 杏色拼3Q粉 银扣蜡线"},"price":null,"currency":"CNY","moq":1,"category":"hermes-women-bags","status":"active","alibaba_url":null,"images":["https://xcimg.szwego.com/20230720/i1689846355_7335_0.jpg","https://xcimg.szwego.com/20230720/i1689846355_6607_1.jpg","https://xcimg.szwego.com/20230720/i1689846355_5010_2.jpg","https://xcimg.szwego.com/20230720/i1689846355_158_3.jpg","https://xcimg.szwego.com/20230720/i1689846355_8205_4.jpg","https://xcimg.szwego.com/20230720/i1689846355_3421_5.jpg","https://xcimg.szwego.com/20230720/i1689846355_2180_6.jpg","https://xcimg.szwego.com/20230720/i1689846355_7182_7.jpg","https://xcimg.szwego.com/20230720/i1689846355_7903_8.jpg"],"created_at":"2024-10-22T05:00:12.147Z"},{"id":"item-acc0e7ec2d27","sku":"_dn8n8InRWTeTa1k7OQt2GX-Q99lBuJvIvVcuCMQ","name_en":"现货:Garden part(花园包)30cm 进口TC皮拼密织布 杏色拼斑鸠灰 银扣蜡线","name_cn":"现货:Garden part(花园包)30cm 进口TC皮拼密织布 杏色拼斑鸠灰 银扣蜡线","specs":{"source":"wsxcme","sourceId":"_dn8n8InRWTeTa1k7OQt2GX-Q99lBuJvIvVcuCMQ","sourceTagId":76963559,"sourceTagName":"爱马仕/女包","rawTitle":"现货:Garden part(花园包)30cm 进口TC皮拼密织布 杏色拼斑鸠灰 银扣蜡线"},"price":null,"currency":"CNY","moq":1,"category":"hermes-women-bags","status":"active","alibaba_url":null,"images":["https://xcimg.szwego.com/20230720/i1689846520_8103_0.jpg","https://xcimg.szwego.com/20230720/i1689846520_5653_1.jpg","https://xcimg.szwego.com/20230720/i1689846520_2841_2.jpg","https://xcimg.szwego.com/20230720/i1689846520_7626_3.jpg","https://xcimg.szwego.com/20230720/i1689846520_9937_4.jpg","https://xcimg.szwego.com/20230720/i1689846520_4642_5.jpg","https://xcimg.szwego.com/20230720/i1689846520_5358_6.jpg","https://xcimg.szwego.com/20230720/i1689846520_8966_7.jpg","https://xcimg.szwego.com/20230720/i1689846520_2468_8.jpg"],"created_at":"2024-10-22T05:00:12.150Z"},{"id":"item-b508d391e632","sku":"_dh9h9PHOR_1bmBiSTS12xY5vf4ThnIxVsm-aDXw","name_en":"现货:Garden part(花园包)30cm 进口TC皮拼密织布 杏色拼饼干色🍪 银扣蜡线","name_cn":"现货:Garden part(花园包)30cm 进口TC皮拼密织布 杏色拼饼干色🍪 银扣蜡线","specs":{"source":"wsxcme","sourceId":"_dh9h9PHOR_1bmBiSTS12xY5vf4ThnIxVsm-aDXw","sourceTagId":76963559,"sourceTagName":"爱马仕/女包","rawTitle":"现货:Garden part(花园包)30cm 进口TC皮拼密织布 杏色拼饼干色🍪 银扣蜡线"},"price":null,"currency":"CNY","moq":1,"category":"hermes-women-bags","status":"active","alibaba_url":null,"images":["https://xcimg.szwego.com/20230720/i1689847122_6382_0.jpg","https://xcimg.szwego.com/20230720/i1689847122_8084_1.jpg","https://xcimg.szwego.com/20230720/i1689847122_2990_2.jpg","https://xcimg.szwego.com/20230720/i1689847122_2732_3.jpg","https://xcimg.szwego.com/20230720/i1689847122_1429_4.jpg","https://xcimg.szwego.com/20230720/i1689847122_3635_5.jpg","https://xcimg.szwego.com/20230720/i1689847122_7299_6.jpg","https://xcimg.szwego.com/20230720/i1689847122_7749_7.jpg","https://xcimg.szwego.com/20230720/i1689847122_8564_8.jpg"],"created_at":"2024-10-22T05:00:12.154Z"},{"id":"item-a6c53fa5eb26","sku":"_dadadmEFpAeN5VFdss1pTXA3rgpe-e25ZSXhIMw","name_en":"现货:Garden part(花园包)30cm 进口TC皮拼密织布 杏色拼橙色 银扣蜡线","name_cn":"现货:Garden part(花园包)30cm 进口TC皮拼密织布 杏色拼橙色 银扣蜡线","specs":{"source":"wsxcme","sourceId":"_dadadmEFpAeN5VFdss1pTXA3rgpe-e25ZSXhIMw","sourceTagId":76963559,"sourceTagName":"爱马仕/女包","rawTitle":"现货:Garden part(花园包)30cm 进口TC皮拼密织布 杏色拼橙色 银扣蜡线"},"price":null,"currency":"CNY","moq":1,"category":"hermes-women-bags","status":"active","alibaba_url":null,"images":["https://xcimg.szwego.com/20230720/i1689846542_3626_0.jpg","https://xcimg.szwego.com/20230720/i1689846542_1236_1.jpg","https://xcimg.szwego.com/20230720/i1689846542_8484_2.jpg","https://xcimg.szwego.com/20230720/i1689846542_500_3.jpg","https://xcimg.szwego.com/20230720/i1689846542_4182_4.jpg","https://xcimg.szwego.com/20230720/i1689846542_8289_5.jpg","https://xcimg.szwego.com/20230720/i1689846542_9683_6.jpg","https://xcimg.szwego.com/20230720/i1689846542_765_7.jpg","https://xcimg.szwego.com/20230720/i1689846542_4189_8.jpg"],"created_at":"2024-10-22T05:00:12.152Z"},{"id":"item-d6d695300c86","sku":"_dF-F-ZHjv9IJDZwAN44LgZ1hTAGBZ6sphVND81Q","name_en":"现货:Garden part(花园包)30cm 进口TC皮拼密织布 杏色拼大象灰🐘 银扣蜡线","name_cn":"现货:Garden part(花园包)30cm 进口TC皮拼密织布 杏色拼大象灰🐘 银扣蜡线","specs":{"source":"wsxcme","sourceId":"_dF-F-ZHjv9IJDZwAN44LgZ1hTAGBZ6sphVND81Q","sourceTagId":76963559,"sourceTagName":"爱马仕/女包","rawTitle":"现货:Garden part(花园包)30cm 进口TC皮拼密织布 杏色拼大象灰🐘 银扣蜡线"},"price":null,"currency":"CNY","moq":1,"category":"hermes-women-bags","status":"active","alibaba_url":null,"images":["https://xcimg.szwego.com/20230720/i1689846606_8128_0.jpg","https://xcimg.szwego.com/20230720/i1689846606_5966_1.jpg","https://xcimg.szwego.com/20230720/i1689846606_1457_2.jpg","https://xcimg.szwego.com/20230720/i1689846606_4935_3.jpg","https://xcimg.szwego.com/20230720/i1689846606_561_4.jpg","https://xcimg.szwego.com/20230720/i1689846606_6741_5.jpg","https://xcimg.szwego.com/20230720/i1689846606_9788_6.jpg","https://xcimg.szwego.com/20230720/i1689846606_3318_7.jpg","https://xcimg.szwego.com/20230720/i1689846606_4787_8.jpg"],"created_at":"2024-10-22T05:00:12.153Z"},{"id":"item-614a9488a2fa","sku":"_dVOVOCB6FWxB2ruzBZEkUeTpBgaXftbk4HnzufQ","name_en":"现货:Garden part(花园包)30cm 进口TC皮拼密织布 杏色拼黑色 银扣蜡线","name_cn":"现货:Garden part(花园包)30cm 进口TC皮拼密织布 杏色拼黑色 银扣蜡线","specs":{"source":"wsxcme","sourceId":"_dVOVOCB6FWxB2ruzBZEkUeTpBgaXftbk4HnzufQ","sourceTagId":76963559,"sourceTagName":"爱马仕/女包","rawTitle":"现货:Garden part(花园包)30cm 进口TC皮拼密织布 杏色拼黑色 银扣蜡线"},"price":null,"currency":"CNY","moq":1,"category":"hermes-women-bags","status":"active","alibaba_url":null,"images":["https://xcimg.szwego.com/20230720/i1689846376_3309_0.jpg","https://xcimg.szwego.com/20230720/i1689846376_1340_1.jpg","https://xcimg.szwego.com/20230720/i1689846376_982_2.jpg","https://xcimg.szwego.com/20230720/i1689846376_1515_3.jpg","https://xcimg.szwego.com/20230720/i1689846376_398_4.jpg","https://xcimg.szwego.com/20230720/i1689846376_5069_5.jpg","https://xcimg.szwego.com/20230720/i1689846376_2275_6.jpg","https://xcimg.szwego.com/20230720/i1689846376_192_7.jpg","https://xcimg.szwego.com/20230720/i1689846376_2735_8.jpg"],"created_at":"2024-10-22T05:00:12.148Z"},{"id":"item-3e0e86379783","sku":"_dq4q4jS4X3h60atZ3-_CWb0zr-5rQCZXmFQMUdQ","name_en":"现货:Garden part(花园包)30cm 进口TC皮拼密织布 杏色拼琥珀黄 银扣蜡线","name_cn":"现货:Garden part(花园包)30cm 进口TC皮拼密织布 杏色拼琥珀黄 银扣蜡线","specs":{"source":"wsxcme","sourceId":"_dq4q4jS4X3h60atZ3-_CWb0zr-5rQCZXmFQMUdQ","sourceTagId":76963559,"sourceTagName":"爱马仕/女包","rawTitle":"现货:Garden part(花园包)30cm 进口TC皮拼密织布 杏色拼琥珀黄 银扣蜡线"},"price":null,"currency":"CNY","moq":1,"category":"hermes-women-bags","status":"active","alibaba_url":null,"images":["https://xcimg.szwego.com/20230720/i1689846574_6940_0.jpg","https://xcimg.szwego.com/20230720/i1689846574_5103_1.jpg","https://xcimg.szwego.com/20230720/i1689846574_4056_2.jpg","https://xcimg.szwego.com/20230720/i1689846574_4512_3.jpg","https://xcimg.szwego.com/20230720/i1689846574_7516_4.jpg","https://xcimg.szwego.com/20230720/i1689846574_7748_5.jpg","https://xcimg.szwego.com/20230720/i1689846574_1881_6.jpg","https://xcimg.szwego.com/20230720/i1689846574_4842_7.jpg","https://xcimg.szwego.com/20230720/i1689846574_7245_8.jpg"],"created_at":"2024-10-22T05:00:12.151Z"},{"id":"item-fa5cd7cf9f13","sku":"_djzjznvvUEq9skR4sQ_35UEwOGGhccche3LYd5w","name_en":"现货:Garden part(花园包)30cm 进口TC皮拼密织布 杏色拼锡器灰 银扣蜡线","name_cn":"现货:Garden part(花园包)30cm 进口TC皮拼密织布 杏色拼锡器灰 银扣蜡线","specs":{"source":"wsxcme","sourceId":"_djzjznvvUEq9skR4sQ_35UEwOGGhccche3LYd5w","sourceTagId":76963559,"sourceTagName":"爱马仕/女包","rawTitle":"现货:Garden part(花园包)30cm 进口TC皮拼密织布 杏色拼锡器灰 银扣蜡线"},"price":null,"currency":"CNY","moq":1,"category":"hermes-women-bags","status":"active","alibaba_url":null,"images":["https://xcimg.szwego.com/20230720/i1689846421_5595_0.jpg","https://xcimg.szwego.com/20230720/i1689846421_6496_1.jpg","https://xcimg.szwego.com/20230720/i1689846421_6880_2.jpg","https://xcimg.szwego.com/20230720/i1689846421_4196_3.jpg","https://xcimg.szwego.com/20230720/i1689846421_9121_4.jpg","https://xcimg.szwego.com/20230720/i1689846421_8724_5.jpg","https://xcimg.szwego.com/20230720/i1689846421_8563_6.jpg","https://xcimg.szwego.com/20230720/i1689846421_1791_7.jpg","https://xcimg.szwego.com/20230720/i1689846421_1670_8.jpg"],"created_at":"2024-10-22T05:00:12.149Z"},{"id":"item-bc7b02fed81b","sku":"_d-H-HbRqf7XYub3vTGCy-Hoa3ayxagS_qQGzBdg","name_en":"现货✨ BK25黑金","name_cn":"现货✨ BK25黑金\nTogo皮铂金25cm\n全手缝蜡线 全钢五金 内里山羊皮","specs":{"source":"wsxcme","sourceId":"_d-H-HbRqf7XYub3vTGCy-Hoa3ayxagS_qQGzBdg","sourceTagId":76963559,"sourceTagName":"爱马仕/女包","rawTitle":"现货✨ BK25黑金\nTogo皮铂金25cm\n全手缝蜡线 全钢五金 内里山羊皮"},"price":null,"currency":"CNY","moq":1,"category":"hermes-women-bags","status":"active","alibaba_url":null,"images":["https://xcimg.szwego.com/img/9ee4266d/20240614/i1718350974_5027_1.jpg","https://xcimg.szwego.com/img/9ee4266d/20240614/i1718350975_953_7.jpg","https://xcimg.szwego.com/img/9ee4266d/20240614/i1718350974_88_0.jpg","https://xcimg.szwego.com/img/9ee4266d/20240614/i1718350974_9717_2.jpg","https://xcimg.szwego.com/img/9ee4266d/20240614/i1718350974_2418_3.jpg","https://xcimg.szwego.com/img/9ee4266d/20240614/i1718350975_5065_8.jpg","https://xcimg.szwego.com/img/9ee4266d/20240614/i1718350974_4698_4.jpg","https://xcimg.szwego.com/img/9ee4266d/20240614/i1718350974_4696_5.jpg","https://xcimg.szwego.com/img/9ee4266d/20240614/i1718350974_4019_6.jpg"],"created_at":"2024-10-22T04:43:02.186Z"},{"id":"item-1c665edece7e","sku":"_dFbFbTmQUgaQF4JiCljd9JLbqho7KrbQKszd5SA","name_en":"现货✨ BK25黑银","name_cn":"现货✨ BK25黑银\nTogo皮铂金25cm\n全手缝蜡线 全钢五金 内里山羊皮","specs":{"source":"wsxcme","sourceId":"_dFbFbTmQUgaQF4JiCljd9JLbqho7KrbQKszd5SA","sourceTagId":76963559,"sourceTagName":"爱马仕/女包","rawTitle":"现货✨ BK25黑银\nTogo皮铂金25cm\n全手缝蜡线 全钢五金 内里山羊皮"},"price":null,"currency":"CNY","moq":1,"category":"hermes-women-bags","status":"active","alibaba_url":null,"images":["https://xcimg.szwego.com/img/9ee4266d/20240614/i1718350877_1045_7.jpg","https://xcimg.szwego.com/img/9ee4266d/20240614/i1718350876_4515_1.jpg","https://xcimg.szwego.com/img/9ee4266d/20240614/i1718350876_3802_2.jpg","https://xcimg.szwego.com/img/9ee4266d/20240614/i1718350876_6864_3.jpg","https://xcimg.szwego.com/img/9ee4266d/20240614/i1718350876_9514_5.jpg","https://xcimg.szwego.com/img/9ee4266d/20240614/i1718350876_1314_4.jpg","https://xcimg.szwego.com/img/9ee4266d/20240614/i1718350876_5379_0.jpg","https://xcimg.szwego.com/img/9ee4266d/20240614/i1718350877_5334_8.jpg","https://xcimg.szwego.com/img/9ee4266d/20240614/i1718350877_97_6.jpg"],"created_at":"2024-10-22T04:43:02.185Z"},{"id":"item-d09062fc22fa","sku":"_dsQsQutRagqcZWR5PedxJJgQ0z6Xa2pezvDeUOA","name_en":"现货✨ BK25金棕","name_cn":"现货✨ BK25金棕\nTogo皮铂金25cm\n全手缝蜡线 全钢五金 内里山羊皮","specs":{"source":"wsxcme","sourceId":"_dsQsQutRagqcZWR5PedxJJgQ0z6Xa2pezvDeUOA","sourceTagId":76963559,"sourceTagName":"爱马仕/女包","rawTitle":"现货✨ BK25金棕\nTogo皮铂金25cm\n全手缝蜡线 全钢五金 内里山羊皮"},"price":null,"currency":"CNY","moq":1,"category":"hermes-women-bags","status":"active","alibaba_url":null,"images":["https://xcimg.szwego.com/img/9ee4266d/20240614/i1718359721_4869_2.jpg","https://xcimg.szwego.com/img/9ee4266d/20240614/i1718359721_7807_7.jpg","https://xcimg.szwego.com/img/9ee4266d/20240614/i1718359721_7495_5.jpg","https://xcimg.szwego.com/img/9ee4266d/20240614/i1718359721_6663_6.jpg","https://xcimg.szwego.com/img/9ee4266d/20240614/i1718359721_2241_4.jpg","https://xcimg.szwego.com/img/9ee4266d/20240614/i1718359721_8876_0.jpg","https://xcimg.szwego.com/img/9ee4266d/20240614/i1718359721_339_1.jpg","https://xcimg.szwego.com/img/9ee4266d/20240614/i1718359721_6224_3.jpg","https://xcimg.szwego.com/img/9ee4266d/20240614/i1718359729_6045_0.jpg"],"created_at":"2024-10-22T04:43:02.184Z"},{"id":"item-b3ea160f8e31","sku":"_dA8A8WomwJsDb-4enJMy-csM2RbmP2FXAK7Fliw","name_en":"现货✨ BK25金棕","name_cn":"现货✨ BK25金棕\nTogo皮铂金25cm\n全手缝蜡线 全钢五金 内里山羊皮","specs":{"source":"wsxcme","sourceId":"_dA8A8WomwJsDb-4enJMy-csM2RbmP2FXAK7Fliw","sourceTagId":76963559,"sourceTagName":"爱马仕/女包","rawTitle":"现货✨ BK25金棕\nTogo皮铂金25cm\n全手缝蜡线 全钢五金 内里山羊皮"},"price":null,"currency":"CNY","moq":1,"category":"hermes-women-bags","status":"active","alibaba_url":null,"images":["https://xcimg.szwego.com/img/9ee4266d/20240614/i1718359704_9430_3.jpg","https://xcimg.szwego.com/img/9ee4266d/20240614/i1718359704_907_2.jpg","https://xcimg.szwego.com/img/9ee4266d/20240614/i1718359704_3492_7.jpg","https://xcimg.szwego.com/img/9ee4266d/20240614/i1718359704_5953_1.jpg","https://xcimg.szwego.com/img/9ee4266d/20240614/i1718359704_9429_6.jpg","https://xcimg.szwego.com/img/9ee4266d/20240614/i1718359704_9422_4.jpg","https://xcimg.szwego.com/img/9ee4266d/20240614/i1718359704_2765_5.jpg","https://xcimg.szwego.com/img/9ee4266d/20240614/i1718359704_1940_8.jpg","https://xcimg.szwego.com/img/9ee4266d/20240614/i1718359704_6992_0.jpg"],"created_at":"2024-10-22T04:43:02.183Z"},{"id":"item-94763c36bf9b","sku":"_dvYvYKg9aAyvLzjpTIiUXUCysCdJ47AunswcXdw","name_en":"现货✨ BK25奶昔白","name_cn":"现货✨ BK25奶昔白\nTogo皮铂金25cm\n全手缝蜡线 全钢五金 内里山羊皮","specs":{"source":"wsxcme","sourceId":"_dvYvYKg9aAyvLzjpTIiUXUCysCdJ47AunswcXdw","sourceTagId":76963559,"sourceTagName":"爱马仕/女包","rawTitle":"现货✨ BK25奶昔白\nTogo皮铂金25cm\n全手缝蜡线 全钢五金 内里山羊皮"},"price":null,"currency":"CNY","moq":1,"category":"hermes-women-bags","status":"active","alibaba_url":null,"images":["https://xcimg.szwego.com/img/9ee4266d/20240614/i1718359764_5764_0.jpg","https://xcimg.szwego.com/img/9ee4266d/20240614/i1718359764_8767_0.jpg","https://xcimg.szwego.com/img/9ee4266d/20240614/i1718359764_4347_0.jpg","https://xcimg.szwego.com/img/9ee4266d/20240614/i1718359764_9167_0.jpg","https://xcimg.szwego.com/img/9ee4266d/20240614/i1718359764_6090_0.jpg","https://xcimg.szwego.com/img/9ee4266d/20240614/i1718359764_1030_0.jpg","https://xcimg.szwego.com/img/9ee4266d/20240614/i1718359764_8454_0.jpg","https://xcimg.szwego.com/img/9ee4266d/20240614/i1718359764_4661_0.jpg","https://xcimg.szwego.com/img/9ee4266d/20240614/i1718359764_7220_0.jpg"],"created_at":"2024-10-22T04:43:02.181Z"},{"id":"item-6d61602993c7","sku":"_dNYNY2SykAjewc0yi1A5brTWY3_FMDal0LrHkDg","name_en":"现货✨BK25","name_cn":"现货✨BK25\nTogo皮铂金25cm\n全手缝蜡线 全钢五金 内里山羊皮","specs":{"source":"wsxcme","sourceId":"_dNYNY2SykAjewc0yi1A5brTWY3_FMDal0LrHkDg","sourceTagId":76963559,"sourceTagName":"爱马仕/女包","rawTitle":"现货✨BK25\nTogo皮铂金25cm\n全手缝蜡线 全钢五金 内里山羊皮"},"price":null,"currency":"CNY","moq":1,"category":"hermes-women-bags","status":"active","alibaba_url":null,"images":["https://xcimg.szwego.com/img/9ee4266d/20240608/i1717840846_9816_7.jpg","https://xcimg.szwego.com/img/9ee4266d/20240608/i1717840846_5215_1.jpg","https://xcimg.szwego.com/img/9ee4266d/20240608/i1717840846_8149_8.jpg","https://xcimg.szwego.com/img/9ee4266d/20240608/i1717840846_1296_2.jpg","https://xcimg.szwego.com/img/9ee4266d/20240608/i1717840846_9235_3.jpg","https://xcimg.szwego.com/img/9ee4266d/20240608/i1717840846_1490_0.jpg","https://xcimg.szwego.com/img/9ee4266d/20240608/i1717840846_1301_4.jpg","https://xcimg.szwego.com/img/9ee4266d/20240608/i1717840846_3454_6.jpg","https://xcimg.szwego.com/img/9ee4266d/20240608/i1717840846_5227_5.jpg"],"created_at":"2024-10-22T04:43:02.187Z"},{"id":"item-12d3815f493d","sku":"_db2b2AEft8lrQJcGcmFVWNPumtKkWuD1YeuLy0Q","name_en":"现货✨BK25  Togo皮","name_cn":"现货✨BK25  Togo皮\nTogo皮铂金25cm\n全手缝蜡线 全钢五金 内里山羊皮","specs":{"source":"wsxcme","sourceId":"_db2b2AEft8lrQJcGcmFVWNPumtKkWuD1YeuLy0Q","sourceTagId":76963559,"sourceTagName":"爱马仕/女包","rawTitle":"现货✨BK25  Togo皮\nTogo皮铂金25cm\n全手缝蜡线 全钢五金 内里山羊皮"},"price":null,"currency":"CNY","moq":1,"category":"hermes-women-bags","status":"active","alibaba_url":null,"images":["https://xcimg.szwego.com/img/9ee4266d/20240528/i1716872441_6943_0.jpg","https://xcimg.szwego.com/img/9ee4266d/20240528/i1716867890_5259_5.jpg","https://xcimg.szwego.com/img/9ee4266d/20240528/i1716867890_7753_6.jpg","https://xcimg.szwego.com/img/9ee4266d/20240528/i1716872159_5715_1.jpg","https://xcimg.szwego.com/img/9ee4266d/20240528/i1716872159_8563_0.jpg","https://xcimg.szwego.com/img/9ee4266d/20240528/i1716872204_1536_0.jpg","https://xcimg.szwego.com/img/9ee4266d/20240528/i1716886349_9785_0.jpg","https://xcimg.szwego.com/img/9ee4266d/20240528/i1716872778_5576_0.jpg","https://xcimg.szwego.com/img/9ee4266d/20240528/i1716873178_1353_0.jpg"],"created_at":"2024-10-22T04:43:02.189Z"},{"id":"item-0e3795667559","sku":"_dh8h85rx9A27JoeQ3xIJnHzKhN4fnoJ9fcg4V1w","name_en":"现货✨BK25大象灰","name_cn":"现货✨BK25大象灰\nTogo皮铂金25cm\n全手缝蜡线 全钢五金 内里山羊皮","specs":{"source":"wsxcme","sourceId":"_dh8h85rx9A27JoeQ3xIJnHzKhN4fnoJ9fcg4V1w","sourceTagId":76963559,"sourceTagName":"爱马仕/女包","rawTitle":"现货✨BK25大象灰\nTogo皮铂金25cm\n全手缝蜡线 全钢五金 内里山羊皮"},"price":null,"currency":"CNY","moq":1,"category":"hermes-women-bags","status":"active","alibaba_url":null,"images":["https://xcimg.szwego.com/img/9ee4266d/20240608/i1717826920_7455_0.jpg","https://xcimg.szwego.com/img/9ee4266d/20240608/i1717826920_5908_2.jpg","https://xcimg.szwego.com/img/9ee4266d/20240608/i1717826920_4180_1.jpg","https://xcimg.szwego.com/img/9ee4266d/20240608/i1717826920_1482_6.jpg","https://xcimg.szwego.com/img/9ee4266d/20240608/i1717826920_513_3.jpg","https://xcimg.szwego.com/img/9ee4266d/20240608/i1717826920_7128_4.jpg","https://xcimg.szwego.com/img/9ee4266d/20240608/i1717826920_1321_5.jpg","https://xcimg.szwego.com/img/9ee4266d/20240608/i1717826921_3540_7.jpg","https://xcimg.szwego.com/img/9ee4266d/20240608/i1717826921_1160_8.jpg"],"created_at":"2024-10-22T04:43:02.188Z"}],"page":8,"pageSize":24,"total":439,"totalPages":19}
