{"items":[{"id":"item-2651f20ed12e","sku":"_dBmBmmncibstuOfYQnDgXoQA9XhUqHQoefbAcvw","name_en":"“藏书章”twilly小丝巾 海军蓝配色太好看了 大方典雅温柔 绑头发绑脖子都是绝绝子","name_cn":"“藏书章”twilly小丝巾 海军蓝配色太好看了 大方典雅温柔 绑头发绑脖子都是绝绝子","specs":{"source":"wsxcme","sourceId":"_dBmBmmncibstuOfYQnDgXoQA9XhUqHQoefbAcvw","sourceTagId":76963559,"sourceTagName":"爱马仕/女包","rawTitle":"“藏书章”twilly小丝巾 海军蓝配色太好看了 大方典雅温柔 绑头发绑脖子都是绝绝子"},"price":null,"currency":"CNY","moq":1,"category":"hermes-women-bags","status":"active","alibaba_url":null,"images":["https://xcimg.szwego.com/img/3d6d0be4/20231215/i1702622734_3757_0.jpg","https://xcimg.szwego.com/img/3d6d0be4/20231215/i1702622735_6997_0.jpg","https://xcimg.szwego.com/img/3d6d0be4/20231215/i1702622735_4531_0.jpg","https://xcimg.szwego.com/img/3d6d0be4/20231215/i1702622735_2766_0.jpg"],"created_at":"2024-10-22T05:00:12.172Z"},{"id":"item-66cc768c3b78","sku":"_dRoRowG2_uov4_6DYF_4Xcv2_kFgvfmbOtvbR0g","name_en":"【预订】H Picotin 14印花涂鸦款","name_cn":"【预订】H Picotin 14印花涂鸦款\n进入浪漫💕的倒计时⏳......如果说男人至死是少年,那么每个女人心中永远住着一个小公主👸,期待甜蜜又简单的幸福感,那么从这只小印花菜篮🧺开始......","specs":{"source":"wsxcme","sourceId":"_dRoRowG2_uov4_6DYF_4Xcv2_kFgvfmbOtvbR0g","sourceTagId":76963559,"sourceTagName":"爱马仕/女包","rawTitle":"【预订】H Picotin 14印花涂鸦款\n进入浪漫💕的倒计时⏳......如果说男人至死是少年,那么每个女人心中永远住着一个小公主👸,期待甜蜜又简单的幸福感,那么从这只小印花菜篮🧺开始......"},"price":null,"currency":"CNY","moq":1,"category":"hermes-women-bags","status":"active","alibaba_url":null,"images":["https://xcimg.szwego.com/20221005/a1664940658918_4155.jpg","https://xcimg.szwego.com/20221005/a1664940659097_7020.jpg","https://xcimg.szwego.com/20221005/a1664940659462_0050.jpg","https://xcimg.szwego.com/20221005/a1664940659467_0803.jpg","https://xcimg.szwego.com/20221005/a1664940659855_7241.jpg","https://xcimg.szwego.com/20221005/a1664940659977_4847.jpg","https://xcimg.szwego.com/20221005/a1664940660170_1144.jpg","https://xcimg.szwego.com/20221005/a1664940660332_7658.jpg","https://xcimg.szwego.com/20221005/a1664940660728_5264.jpg"],"created_at":"2024-10-22T04:49:50.743Z"},{"id":"item-f599b6536170","sku":"_di7i7CzGd3-9x-g36B8hCs2sDypmbVEgvjV7GTg","name_en":"/布配皮 Garden 30./","name_cn":"/布配皮 Garden 30./\n历久弥新 用旧了更有复古味道_ 随性🥇做成Garden这种比较休闲的包款,拼上帆布 真是妙笔!将休闲进行到底~\n半手缝现货 大象灰","specs":{"source":"wsxcme","sourceId":"_di7i7CzGd3-9x-g36B8hCs2sDypmbVEgvjV7GTg","sourceTagId":76963559,"sourceTagName":"爱马仕/女包","rawTitle":"/布配皮 Garden 30./\n历久弥新 用旧了更有复古味道_ 随性🥇做成Garden这种比较休闲的包款,拼上帆布 真是妙笔!将休闲进行到底~\n半手缝现货 大象灰"},"price":null,"currency":"CNY","moq":1,"category":"hermes-women-bags","status":"active","alibaba_url":null,"images":["https://xcimg.szwego.com/20220507/i1651892863_8134_0.jpg","https://xcimg.szwego.com/20220507/i1651892863_9935_1.jpg","https://xcimg.szwego.com/20220507/i1651892863_8296_2.jpg","https://xcimg.szwego.com/20220507/i1651892863_2696_3.jpg","https://xcimg.szwego.com/20220507/i1651892863_3512_4.jpg","https://xcimg.szwego.com/20220507/i1651892863_5072_5.jpg","https://xcimg.szwego.com/20220507/i1651892863_7740_6.jpg","https://xcimg.szwego.com/20220507/i1651892863_8142_7.jpg","https://xcimg.szwego.com/20220507/i1651892863_863_8.jpg"],"created_at":"2024-10-22T05:04:33.220Z"},{"id":"item-e507a11c1ebd","sku":"_dQBQBZ-ZTWiauL6lEdmH5zUIq_WSNsQMzHJx9ZQ","name_en":"/布配皮 Garden 30./","name_cn":"/布配皮 Garden 30./\n历久弥新 用旧了更有复古味道_ 随性🥇做成Garden这种比较休闲的包款,拼上帆布 真是妙笔!将休闲进行到底~\n半手缝现货 30Cm","specs":{"source":"wsxcme","sourceId":"_dQBQBZ-ZTWiauL6lEdmH5zUIq_WSNsQMzHJx9ZQ","sourceTagId":76963559,"sourceTagName":"爱马仕/女包","rawTitle":"/布配皮 Garden 30./\n历久弥新 用旧了更有复古味道_ 随性🥇做成Garden这种比较休闲的包款,拼上帆布 真是妙笔!将休闲进行到底~\n半手缝现货 30Cm"},"price":null,"currency":"CNY","moq":1,"category":"hermes-women-bags","status":"active","alibaba_url":null,"images":["https://xcimg.szwego.com/20220507/i1651892662_1237_0.jpg","https://xcimg.szwego.com/20220507/i1651892662_2313_1.jpg","https://xcimg.szwego.com/20220507/i1651892662_1202_2.jpg","https://xcimg.szwego.com/20220507/i1651892662_2364_3.jpg","https://xcimg.szwego.com/20220507/i1651892662_486_4.jpg","https://xcimg.szwego.com/20220507/i1651892662_7327_5.jpg","https://xcimg.szwego.com/20220507/i1651892662_2556_6.jpg","https://xcimg.szwego.com/20220507/i1651892662_4353_7.jpg","https://xcimg.szwego.com/20220507/i1651892662_8554_8.jpg"],"created_at":"2024-10-22T05:04:33.218Z"},{"id":"item-beb9e2df7a0d","sku":"_dPQPQFts8tstdcpubrqBJLl9IVAti9m6ro_VIuA","name_en":"/布配皮 Garden 30./","name_cn":"/布配皮 Garden 30./\n历久弥新 用旧了更有复古味道_ 随性🥇做成Garden这种比较休闲的包款,拼上帆布 真是妙笔!将休闲进行到底~\n半手缝现货 锡器灰/帆布","specs":{"source":"wsxcme","sourceId":"_dPQPQFts8tstdcpubrqBJLl9IVAti9m6ro_VIuA","sourceTagId":76963559,"sourceTagName":"爱马仕/女包","rawTitle":"/布配皮 Garden 30./\n历久弥新 用旧了更有复古味道_ 随性🥇做成Garden这种比较休闲的包款,拼上帆布 真是妙笔!将休闲进行到底~\n半手缝现货 锡器灰/帆布"},"price":null,"currency":"CNY","moq":1,"category":"hermes-women-bags","status":"active","alibaba_url":null,"images":["https://xcimg.szwego.com/20220507/i1651892968_902_0.jpg","https://xcimg.szwego.com/20220507/i1651892968_3707_1.jpg","https://xcimg.szwego.com/20220507/i1651892968_4896_2.jpg","https://xcimg.szwego.com/20220507/i1651892968_1957_3.jpg","https://xcimg.szwego.com/20220507/i1651892968_8697_4.jpg","https://xcimg.szwego.com/20220507/i1651892968_4878_5.jpg","https://xcimg.szwego.com/20220507/i1651892968_2308_6.jpg","https://xcimg.szwego.com/20220507/i1651892968_1929_7.jpg","https://xcimg.szwego.com/20220507/i1651892968_9778_8.jpg"],"created_at":"2024-10-22T05:04:33.219Z"},{"id":"item-59f02e9bf7fb","sku":"_dNSNSrYblSO9dWIYrF22HNTxIamcowkl2iLjvmw","name_en":"/布配皮 Garden 30./","name_cn":"/布配皮 Garden 30./\n历久弥新 用旧了更有复古味道_ 随性🥇做成Garden这种比较休闲的包款,拼上帆布 真是妙笔!将休闲进行到底~\n半手缝现货 黑色/帆布\n30Cm","specs":{"source":"wsxcme","sourceId":"_dNSNSrYblSO9dWIYrF22HNTxIamcowkl2iLjvmw","sourceTagId":76963559,"sourceTagName":"爱马仕/女包","rawTitle":"/布配皮 Garden 30./\n历久弥新 用旧了更有复古味道_ 随性🥇做成Garden这种比较休闲的包款,拼上帆布 真是妙笔!将休闲进行到底~\n半手缝现货 黑色/帆布\n30Cm"},"price":null,"currency":"CNY","moq":1,"category":"hermes-women-bags","status":"active","alibaba_url":null,"images":["https://xcimg.szwego.com/20220507/i1651893011_2772_0.jpg","https://xcimg.szwego.com/20220507/i1651893011_525_1.jpg","https://xcimg.szwego.com/20220507/i1651893011_1385_2.jpg","https://xcimg.szwego.com/20220507/i1651893011_8651_3.jpg","https://xcimg.szwego.com/20220507/i1651893011_2097_4.jpg","https://xcimg.szwego.com/20220507/i1651893011_1485_5.jpg","https://xcimg.szwego.com/20220507/i1651893011_1802_6.jpg","https://xcimg.szwego.com/20220507/i1651893011_9172_7.jpg","https://xcimg.szwego.com/20220507/i1651893011_8999_8.jpg"],"created_at":"2024-10-22T05:04:33.216Z"},{"id":"item-3a2b4c506dff","sku":"_dU4U4fmdNyRiwXPPj7cpc3t4PtLeJJLtOu7WAFQ","name_en":"/布配皮 Garden 30./","name_cn":"/布配皮 Garden 30./\n历久弥新 用旧了更有复古味道_ 随性🥇做成Garden这种比较休闲的包款,拼上帆布 真是妙笔!将休闲进行到底~\n半手缝现货 大象灰 \n30Cm","specs":{"source":"wsxcme","sourceId":"_dU4U4fmdNyRiwXPPj7cpc3t4PtLeJJLtOu7WAFQ","sourceTagId":76963559,"sourceTagName":"爱马仕/女包","rawTitle":"/布配皮 Garden 30./\n历久弥新 用旧了更有复古味道_ 随性🥇做成Garden这种比较休闲的包款,拼上帆布 真是妙笔!将休闲进行到底~\n半手缝现货 大象灰 \n30Cm"},"price":null,"currency":"CNY","moq":1,"category":"hermes-women-bags","status":"active","alibaba_url":null,"images":["https://xcimg.szwego.com/20220507/i1651892863_8134_0.jpg","https://xcimg.szwego.com/20220507/i1651892863_9935_1.jpg","https://xcimg.szwego.com/20220507/i1651892863_8296_2.jpg","https://xcimg.szwego.com/20220507/i1651892863_2696_3.jpg","https://xcimg.szwego.com/20220507/i1651892863_3512_4.jpg","https://xcimg.szwego.com/20220507/i1651892863_5072_5.jpg","https://xcimg.szwego.com/20220507/i1651892863_7740_6.jpg","https://xcimg.szwego.com/20220507/i1651892863_8142_7.jpg","https://xcimg.szwego.com/20220507/i1651892863_863_8.jpg"],"created_at":"2024-10-22T05:04:33.217Z"},{"id":"item-9cf5cb58fe41","sku":"_dj2j2_ZsYs8Rgnp4YdElskdtuC4iaP0T89AjbLg","name_en":"°尺寸Birkin 经典之作#除了材质、做工、颜值,更重要的是经过近40年的沉淀,Birkin包已经拥有了自带光环的辨识度,象征着高净值人群的品位、身份与地位。","name_cn":"°尺寸Birkin 经典之作#除了材质、做工、颜值,更重要的是经过近40年的沉淀,Birkin包已经拥有了自带光环的辨识度,象征着高净值人群的品位、身份与地位。\n\n 现货25/30Cm","specs":{"source":"wsxcme","sourceId":"_dj2j2_ZsYs8Rgnp4YdElskdtuC4iaP0T89AjbLg","sourceTagId":76963559,"sourceTagName":"爱马仕/女包","rawTitle":"°尺寸Birkin 经典之作#除了材质、做工、颜值,更重要的是经过近40年的沉淀,Birkin包已经拥有了自带光环的辨识度,象征着高净值人群的品位、身份与地位。\n\n 现货25/30Cm"},"price":null,"currency":"CNY","moq":1,"category":"hermes-women-bags","status":"active","alibaba_url":null,"images":["https://xcimg.szwego.com/20211115/i1636958673_7455_0.jpg","https://xcimg.szwego.com/20211115/i1636958673_1878_1.jpg","https://xcimg.szwego.com/20211115/i1636958673_4886_2.jpg","https://xcimg.szwego.com/20211115/i1636958673_1112_3.jpg","https://xcimg.szwego.com/20211115/i1636958673_8432_4.jpg","https://xcimg.szwego.com/20211115/i1636958673_4769_5.jpg","https://xcimg.szwego.com/20211115/i1636958673_9680_6.jpg","https://xcimg.szwego.com/20211115/i1636958673_4521_7.jpg","https://xcimg.szwego.com/20211115/i1636958673_9611_8.jpg"],"created_at":"2025-01-20T12:29:05.605Z"},{"id":"item-032aad32d76b","sku":"_dnInIFwtEzJKvWxoqcIHBELvupRh7J00aquO1iw","name_en":"▪️Constance","name_cn":"▪️Constance \n▫️空姐/康康包\n\n- 属于H家入手较困难也是最难买到的包袋.\n\nConstance又叫空姐包或者小方包,给人的第一眼就像是个青春洋溢的小女孩,鲜明的颜色充满活力,简约而精致的风格🌈\n风衣灰\n现货 19Cm \n现货 23Cm","specs":{"source":"wsxcme","sourceId":"_dnInIFwtEzJKvWxoqcIHBELvupRh7J00aquO1iw","sourceTagId":76963559,"sourceTagName":"爱马仕/女包","rawTitle":"▪️Constance \n▫️空姐/康康包\n\n- 属于H家入手较困难也是最难买到的包袋.\n\nConstance又叫空姐包或者小方包,给人的第一眼就像是个青春洋溢的小女孩,鲜明的颜色充满活力,简约而精致的风格🌈\n风衣灰\n现货 19Cm \n现货 23Cm"},"price":null,"currency":"CNY","moq":1,"category":"hermes-women-bags","status":"active","alibaba_url":null,"images":["https://xcimg.szwego.com/20210512/i1620806330_6880_0.jpg","https://xcimg.szwego.com/20210512/i1620806330_1124_1.jpg","https://xcimg.szwego.com/20210512/i1620806330_9526_2.jpg","https://xcimg.szwego.com/20210512/i1620806330_4477_3.jpg","https://xcimg.szwego.com/20210512/i1620806330_1313_4.jpg","https://xcimg.szwego.com/20210512/i1620806330_4965_5.jpg","https://xcimg.szwego.com/20210512/i1620806330_5007_7.jpg","https://xcimg.szwego.com/20210512/i1620806330_6510_8.jpg"],"created_at":"2025-01-20T12:29:05.617Z"},{"id":"item-1954082399eb","sku":"_d-a-amnHZv148vGc1jo-jt2IZNH7hJZnZ3DHk2Q","name_en":"▪️Constance ❶❽","name_cn":"▪️Constance ❶❽\n▫️空姐/康康包\n\n- 属于H家入手较困难也是最难买到的包袋.\n\nConstance又叫空姐包或者小方包,给人的第一眼就像是个青春洋溢的小女孩,鲜明的颜色充满活力,简约而精致的风格🌈\n黑色\n现货 19Cm \n现货 23Cm","specs":{"source":"wsxcme","sourceId":"_d-a-amnHZv148vGc1jo-jt2IZNH7hJZnZ3DHk2Q","sourceTagId":76963559,"sourceTagName":"爱马仕/女包","rawTitle":"▪️Constance ❶❽\n▫️空姐/康康包\n\n- 属于H家入手较困难也是最难买到的包袋.\n\nConstance又叫空姐包或者小方包,给人的第一眼就像是个青春洋溢的小女孩,鲜明的颜色充满活力,简约而精致的风格🌈\n黑色\n现货 19Cm \n现货 23Cm"},"price":null,"currency":"CNY","moq":1,"category":"hermes-women-bags","status":"active","alibaba_url":null,"images":["https://xcimg.szwego.com/20220521/i1653127402_8984_0.jpg","https://xcimg.szwego.com/20220521/i1653127402_9719_1.jpg","https://xcimg.szwego.com/20220521/i1653127402_3748_2.jpg","https://xcimg.szwego.com/20220521/i1653127402_2988_3.jpg","https://xcimg.szwego.com/20220521/i1653127402_6226_4.jpg","https://xcimg.szwego.com/20220521/i1653127402_6315_5.jpg","https://xcimg.szwego.com/20220521/i1653127402_7374_7.jpg","https://xcimg.szwego.com/20220521/i1653127402_4089_8.jpg"],"created_at":"2025-01-20T12:29:05.615Z"},{"id":"item-295a734f5107","sku":"_dNGNGaOJzoGY7iEOqbpL_wHS05yMw8DXvFtwsSA","name_en":"◎浅灰•银|Picotin Lock","name_cn":"◎浅灰•银|Picotin Lock \n一个爱马仕中的独特存在.\n\n▏轻便、耐磨又防水,贴近生活的设计  ▏\n自从2002年上市,这只被戏称为“菜篮子”的包包风靡至今✔️没有一个入门级Picotin 真的说不过去🤩\n\n-- 机车现货 原版牛皮.\n实拍22Cm  \n现货18cm","specs":{"source":"wsxcme","sourceId":"_dNGNGaOJzoGY7iEOqbpL_wHS05yMw8DXvFtwsSA","sourceTagId":76963559,"sourceTagName":"爱马仕/女包","rawTitle":"◎浅灰•银|Picotin Lock \n一个爱马仕中的独特存在.\n\n▏轻便、耐磨又防水,贴近生活的设计  ▏\n自从2002年上市,这只被戏称为“菜篮子”的包包风靡至今✔️没有一个入门级Picotin 真的说不过去🤩\n\n-- 机车现货 原版牛皮.\n实拍22Cm  \n现货18cm"},"price":null,"currency":"CNY","moq":1,"category":"hermes-women-bags","status":"active","alibaba_url":null,"images":["https://xcimg.szwego.com/20210403/i1617447730_2021_0.jpg","https://xcimg.szwego.com/20210403/i1617447730_6236_1.jpg","https://xcimg.szwego.com/20210403/i1617447730_8653_2.jpg","https://xcimg.szwego.com/20210403/i1617447730_7361_3.jpg","https://xcimg.szwego.com/20210403/i1617447730_910_4.jpg","https://xcimg.szwego.com/20210403/i1617447730_591_5.jpg","https://xcimg.szwego.com/20210403/i1617447730_2059_6.jpg","https://xcimg.szwego.com/20210403/i1617447730_1149_7.jpg","https://xcimg.szwego.com/20210403/i1617447730_8955_8.jpg"],"created_at":"2025-03-07T08:56:21.456Z"},{"id":"item-2197b9eb5b5a","sku":"_diaiapFLTfPG4-C56P9BGAgo-mDdjaUQk9fPd0Q","name_en":"🇨🇳Gardenparty mini 大象灰拼帆布 全钢手工 细节 实拍 现货;","name_cn":"🇨🇳Gardenparty mini 大象灰拼帆布 全钢手工 细节 实拍 现货;","specs":{"source":"wsxcme","sourceId":"_diaiapFLTfPG4-C56P9BGAgo-mDdjaUQk9fPd0Q","sourceTagId":76963559,"sourceTagName":"爱马仕/女包","rawTitle":"🇨🇳Gardenparty mini 大象灰拼帆布 全钢手工 细节 实拍 现货;"},"price":null,"currency":"CNY","moq":1,"category":"hermes-women-bags","status":"active","alibaba_url":null,"images":["https://xcimg.szwego.com/img/43e90bff/20250331/i1743409706128_2933_0_0.jpg","https://xcimg.szwego.com/img/43e90bff/20250331/i1743409703537_7067_0_1.jpg","https://xcimg.szwego.com/img/43e90bff/20250331/i1743409703555_3277_0_2.jpg","https://xcimg.szwego.com/img/43e90bff/20250331/i1743409703573_9897_0_3.jpg","https://xcimg.szwego.com/img/43e90bff/20250331/i1743409703476_2384_0_4.jpg","https://xcimg.szwego.com/img/43e90bff/20250331/i1743409706043_1545_0_5.jpg","https://xcimg.szwego.com/img/43e90bff/20250331/i1743409706203_3964_0_6.jpg","https://xcimg.szwego.com/img/43e90bff/20250331/i1743409706145_8317_0_7.jpg","https://xcimg.szwego.com/img/43e90bff/20250331/i1743409703450_7759_0_8.jpg"],"created_at":"2026-06-29T12:59:36.334Z"},{"id":"item-9dd96102663d","sku":"_ducucIeAew1d2IjH9BxJ7FEZMiYHkXuMnMpvu8w","name_en":"🇨🇳Gardenparty mini 黑色拼帆布 全钢手工 细节 实拍 现货;","name_cn":"🇨🇳Gardenparty mini 黑色拼帆布 全钢手工 细节 实拍 现货;","specs":{"source":"wsxcme","sourceId":"_ducucIeAew1d2IjH9BxJ7FEZMiYHkXuMnMpvu8w","sourceTagId":76963559,"sourceTagName":"爱马仕/女包","rawTitle":"🇨🇳Gardenparty mini 黑色拼帆布 全钢手工 细节 实拍 现货;"},"price":null,"currency":"CNY","moq":1,"category":"hermes-women-bags","status":"active","alibaba_url":null,"images":["https://xcimg.szwego.com/img/43e90bff/20250331/i1743409656219_5762_0_0.jpg","https://xcimg.szwego.com/img/43e90bff/20250331/i1743409656352_6772_0_1.jpg","https://xcimg.szwego.com/img/43e90bff/20250331/i1743409656279_3552_0_2.jpg","https://xcimg.szwego.com/img/43e90bff/20250331/i1743409658517_786_0_3.jpg","https://xcimg.szwego.com/img/43e90bff/20250331/i1743409658516_8793_0_4.jpg","https://xcimg.szwego.com/img/43e90bff/20250331/i1743409658540_2519_0_5.jpg","https://xcimg.szwego.com/img/43e90bff/20250331/i1743409658552_7577_0_6.jpg","https://xcimg.szwego.com/img/43e90bff/20250331/i1743409656367_3419_0_8.jpg"],"created_at":"2026-06-29T12:59:36.324Z"},{"id":"item-ac6bcca69b6e","sku":"_dtTtTORaXjDWp32CKD0q1jkjDVmRBaDuMVxsWoA","name_en":"🇨🇳Gardenparty mini 金棕拼帆布 全钢手工 细节 实拍 现货;","name_cn":"🇨🇳Gardenparty mini 金棕拼帆布 全钢手工 细节 实拍 现货;","specs":{"source":"wsxcme","sourceId":"_dtTtTORaXjDWp32CKD0q1jkjDVmRBaDuMVxsWoA","sourceTagId":76963559,"sourceTagName":"爱马仕/女包","rawTitle":"🇨🇳Gardenparty mini 金棕拼帆布 全钢手工 细节 实拍 现货;"},"price":null,"currency":"CNY","moq":1,"category":"hermes-women-bags","status":"active","alibaba_url":null,"images":["https://xcimg.szwego.com/img/43e90bff/20250331/i1743409671441_1830_0_0.jpg","https://xcimg.szwego.com/img/43e90bff/20250331/i1743409671430_5776_0_1.jpg","https://xcimg.szwego.com/img/43e90bff/20250331/i1743409671473_3781_0_2.jpg","https://xcimg.szwego.com/img/43e90bff/20250331/i1743409668032_688_0_3.jpg","https://xcimg.szwego.com/img/43e90bff/20250331/i1743409668184_5063_0_4.jpg","https://xcimg.szwego.com/img/43e90bff/20250331/i1743409668118_175_0_5.jpg","https://xcimg.szwego.com/img/43e90bff/20250331/i1743409668135_104_0_6.jpg","https://xcimg.szwego.com/img/43e90bff/20250331/i1743409668172_474_0_7.jpg","https://xcimg.szwego.com/img/43e90bff/20250331/i1743409670590_7026_0_8.jpg"],"created_at":"2026-06-29T12:59:36.344Z"},{"id":"item-31641bde78da","sku":"_djujuPZKTldP0476w8z_TJ2tu1Sj31zkEl4RkLw","name_en":"🇨🇳H菜篮子·金扣饼干色","name_cn":"🇨🇳H菜篮子·金扣饼干色\n对原版TC皮.不锈钢五金.手缝蜡线\n高品质原材料通通安排上👆🏻\n适配度满分💯\n经典款式名不虚传太美了💗\n尺寸:18×19×13.5cm","specs":{"source":"wsxcme","sourceId":"_djujuPZKTldP0476w8z_TJ2tu1Sj31zkEl4RkLw","sourceTagId":76963559,"sourceTagName":"爱马仕/女包","dimensions":{"lengthCm":18,"heightCm":19,"widthCm":13.5},"rawTitle":"🇨🇳H菜篮子·金扣饼干色\n对原版TC皮.不锈钢五金.手缝蜡线\n高品质原材料通通安排上👆🏻\n适配度满分💯\n经典款式名不虚传太美了💗\n尺寸:18×19×13.5cm"},"price":null,"currency":"CNY","moq":1,"category":"hermes-women-bags","status":"active","alibaba_url":null,"images":["https://xcimg.szwego.com/img/a0ceb150/20250925/i1758782306079_4222_0_0.jpg","https://xcimg.szwego.com/img/a0ceb150/20250925/i1758782306093_4288_0_1.jpg","https://xcimg.szwego.com/img/a0ceb150/20250925/i1758782309264_4695_0_2.jpg","https://xcimg.szwego.com/img/a0ceb150/20250925/i1758782306072_4826_0_3.jpg","https://xcimg.szwego.com/img/a0ceb150/20250925/i1758782306072_3867_0_4.jpg","https://xcimg.szwego.com/img/a0ceb150/20250925/i1758782309376_7954_0_5.jpg","https://xcimg.szwego.com/img/a0ceb150/20250925/i1758782309326_8156_0_6.jpg","https://xcimg.szwego.com/img/a0ceb150/20250925/i1758782309299_78_0_7.jpg","https://xcimg.szwego.com/img/a0ceb150/20250925/i1758782306089_2227_0_8.jpg"],"created_at":"2026-06-29T12:59:36.274Z"},{"id":"item-8b83abdda6e2","sku":"_dpOpOiLvHDSDp4KRwGgK6bDJ9EsOQm0EAxetdgQ","name_en":"🇨🇳H菜篮子·金扣大象灰","name_cn":"🇨🇳H菜篮子·金扣大象灰\n对原版TC皮.不锈钢五金.手缝蜡线\n高品质原材料通通安排上👆🏻\n适配度满分💯\n经典款式名不虚传太美了💗\n尺寸:18×19×13.5cm","specs":{"source":"wsxcme","sourceId":"_dpOpOiLvHDSDp4KRwGgK6bDJ9EsOQm0EAxetdgQ","sourceTagId":76963559,"sourceTagName":"爱马仕/女包","dimensions":{"lengthCm":18,"heightCm":19,"widthCm":13.5},"rawTitle":"🇨🇳H菜篮子·金扣大象灰\n对原版TC皮.不锈钢五金.手缝蜡线\n高品质原材料通通安排上👆🏻\n适配度满分💯\n经典款式名不虚传太美了💗\n尺寸:18×19×13.5cm"},"price":null,"currency":"CNY","moq":1,"category":"hermes-women-bags","status":"active","alibaba_url":null,"images":["https://xcimg.szwego.com/img/a0ceb150/20250519/i1747634261558_134_0_0.jpg","https://xcimg.szwego.com/img/a0ceb150/20250519/i1747634263548_8962_0_1.jpg","https://xcimg.szwego.com/img/a0ceb150/20250519/i1747634261502_4047_0_2.jpg","https://xcimg.szwego.com/img/a0ceb150/20250519/i1747634261456_5760_0_3.jpg","https://xcimg.szwego.com/img/a0ceb150/20250519/i1747634263516_9062_0_4.jpg","https://xcimg.szwego.com/img/a0ceb150/20250519/i1747634261502_1268_0_5.jpg","https://xcimg.szwego.com/img/a0ceb150/20250519/i1747634263547_6726_0_6.jpg","https://xcimg.szwego.com/img/a0ceb150/20250519/i1747634261530_5337_0_7.jpg","https://xcimg.szwego.com/img/a0ceb150/20250519/i1747634263482_8574_0_8.jpg"],"created_at":"2026-06-29T12:59:36.264Z"},{"id":"item-8d0bd9262bb6","sku":"_dg3g3AEs0dvJ2SL2lMMd7mW50wtRxBinLgEOsnQ","name_en":"🇨🇳H菜篮子·金扣棕色","name_cn":"🇨🇳H菜篮子·金扣棕色\n对原版TC皮.不锈钢五金.手缝蜡线\n高品质原材料通通安排上👆🏻\n适配度满分💯\n经典款式名不虚传太美了💗\n尺寸:18×19×13.5cm","specs":{"source":"wsxcme","sourceId":"_dg3g3AEs0dvJ2SL2lMMd7mW50wtRxBinLgEOsnQ","sourceTagId":76963559,"sourceTagName":"爱马仕/女包","dimensions":{"lengthCm":18,"heightCm":19,"widthCm":13.5},"rawTitle":"🇨🇳H菜篮子·金扣棕色\n对原版TC皮.不锈钢五金.手缝蜡线\n高品质原材料通通安排上👆🏻\n适配度满分💯\n经典款式名不虚传太美了💗\n尺寸:18×19×13.5cm"},"price":null,"currency":"CNY","moq":1,"category":"hermes-women-bags","status":"active","alibaba_url":null,"images":["https://xcimg.szwego.com/img/a0ceb150/20250519/i1747634221862_9567_0_0.jpg","https://xcimg.szwego.com/img/a0ceb150/20250519/i1747634221936_7139_0_1.jpg","https://xcimg.szwego.com/img/a0ceb150/20250519/i1747634221911_6452_0_2.jpg","https://xcimg.szwego.com/img/a0ceb150/20250519/i1747634223687_7617_0_5.jpg","https://xcimg.szwego.com/img/a0ceb150/20250519/i1747634221867_1032_0_3.jpg","https://xcimg.szwego.com/img/a0ceb150/20250519/i1747634221924_3296_0_4.jpg","https://xcimg.szwego.com/img/a0ceb150/20250519/i1747634223683_5535_0_6.jpg","https://xcimg.szwego.com/img/a0ceb150/20250519/i1747634223716_589_0_7.jpg","https://xcimg.szwego.com/img/a0ceb150/20250519/i1747634223696_6404_0_8.jpg"],"created_at":"2026-06-29T12:59:36.254Z"},{"id":"item-965e47969e15","sku":"_dDcDcYpUVkkzbjIIK8TLbRw3GEZdSn0hMqjCOzA","name_en":"🇨🇳H菜篮子·银扣大象灰","name_cn":"🇨🇳H菜篮子·银扣大象灰\n对原版TC皮.不锈钢五金.手缝蜡线\n高品质原材料通通安排上👆🏻\n适配度满分💯\n经典款式名不虚传太美了💗\n尺寸:18×19×13.5cm","specs":{"source":"wsxcme","sourceId":"_dDcDcYpUVkkzbjIIK8TLbRw3GEZdSn0hMqjCOzA","sourceTagId":76963559,"sourceTagName":"爱马仕/女包","dimensions":{"lengthCm":18,"heightCm":19,"widthCm":13.5},"rawTitle":"🇨🇳H菜篮子·银扣大象灰\n对原版TC皮.不锈钢五金.手缝蜡线\n高品质原材料通通安排上👆🏻\n适配度满分💯\n经典款式名不虚传太美了💗\n尺寸:18×19×13.5cm"},"price":null,"currency":"CNY","moq":1,"category":"hermes-women-bags","status":"active","alibaba_url":null,"images":["https://xcimg.szwego.com/img/a0ceb150/20250519/i1747634024518_3238_0_0.jpg","https://xcimg.szwego.com/img/a0ceb150/20250519/i1747634024458_6531_0_1.jpg","https://xcimg.szwego.com/img/a0ceb150/20250519/i1747634026535_2147_0_2.jpg","https://xcimg.szwego.com/img/a0ceb150/20250519/i1747634024262_1929_0_3.jpg","https://xcimg.szwego.com/img/a0ceb150/20250519/i1747634024340_7279_0_4.jpg","https://xcimg.szwego.com/img/a0ceb150/20250519/i1747634026637_7200_0_5.jpg","https://xcimg.szwego.com/img/a0ceb150/20250519/i1747634026639_1518_0_6.jpg","https://xcimg.szwego.com/img/a0ceb150/20250519/i1747634026641_6222_0_7.jpg","https://xcimg.szwego.com/img/a0ceb150/20250519/i1747634024335_5667_0_8.jpg"],"created_at":"2026-06-29T12:59:36.224Z"},{"id":"item-a93231785120","sku":"_dzRzRcdqBJTb4BM2t38mETSijh0cZcC6PuNhdGQ","name_en":"🇨🇳H菜篮子·银扣奶昔白","name_cn":"🇨🇳H菜篮子·银扣奶昔白\n对原版TC皮.不锈钢五金.手缝蜡线\n高品质原材料通通安排上👆🏻\n适配度满分💯\n经典款式名不虚传太美了💗\n尺寸:18×19×13.5cm","specs":{"source":"wsxcme","sourceId":"_dzRzRcdqBJTb4BM2t38mETSijh0cZcC6PuNhdGQ","sourceTagId":76963559,"sourceTagName":"爱马仕/女包","dimensions":{"lengthCm":18,"heightCm":19,"widthCm":13.5},"rawTitle":"🇨🇳H菜篮子·银扣奶昔白\n对原版TC皮.不锈钢五金.手缝蜡线\n高品质原材料通通安排上👆🏻\n适配度满分💯\n经典款式名不虚传太美了💗\n尺寸:18×19×13.5cm"},"price":null,"currency":"CNY","moq":1,"category":"hermes-women-bags","status":"active","alibaba_url":null,"images":["https://xcimg.szwego.com/img/a0ceb150/20250519/i1747631443125_3308_0_0.jpg","https://xcimg.szwego.com/img/a0ceb150/20250519/i1747631438920_4899_0_1.jpg","https://xcimg.szwego.com/img/a0ceb150/20250519/i1747631438920_9320_0_2.jpg","https://xcimg.szwego.com/img/a0ceb150/20250519/i1747631443034_73_0_3.jpg","https://xcimg.szwego.com/img/a0ceb150/20250519/i1747631438920_7189_0_4.jpg","https://xcimg.szwego.com/img/a0ceb150/20250519/i1747631438920_5677_0_5.jpg","https://xcimg.szwego.com/img/a0ceb150/20250519/i1747631441653_7246_0_6.jpg","https://xcimg.szwego.com/img/a0ceb150/20250519/i1747631442985_1039_0_7.jpg","https://xcimg.szwego.com/img/a0ceb150/20250519/i1747631438920_3794_0_8.jpg"],"created_at":"2026-06-29T12:59:36.244Z"},{"id":"item-516ea13e700e","sku":"_diviv6EKqeFHfDz8Ovq7zso8HZ49Ef5G5GKREPg","name_en":"🇨🇳H菜篮子·银扣圣杯蓝","name_cn":"🇨🇳H菜篮子·银扣圣杯蓝\n对原版TC皮.不锈钢五金.手缝蜡线\n高品质原材料通通安排上👆🏻\n适配度满分💯\n经典款式名不虚传太美了💗\n尺寸:18×19×13.5cm","specs":{"source":"wsxcme","sourceId":"_diviv6EKqeFHfDz8Ovq7zso8HZ49Ef5G5GKREPg","sourceTagId":76963559,"sourceTagName":"爱马仕/女包","dimensions":{"lengthCm":18,"heightCm":19,"widthCm":13.5},"rawTitle":"🇨🇳H菜篮子·银扣圣杯蓝\n对原版TC皮.不锈钢五金.手缝蜡线\n高品质原材料通通安排上👆🏻\n适配度满分💯\n经典款式名不虚传太美了💗\n尺寸:18×19×13.5cm"},"price":null,"currency":"CNY","moq":1,"category":"hermes-women-bags","status":"active","alibaba_url":null,"images":["https://xcimg.szwego.com/img/a0ceb150/20250519/i1747634055312_2245_0_0.jpg","https://xcimg.szwego.com/img/a0ceb150/20250519/i1747634055389_7026_0_1.jpg","https://xcimg.szwego.com/img/a0ceb150/20250519/i1747634055364_3749_0_2.jpg","https://xcimg.szwego.com/img/a0ceb150/20250519/i1747634057234_7306_0_3.jpg","https://xcimg.szwego.com/img/a0ceb150/20250519/i1747634055376_6331_0_4.jpg","https://xcimg.szwego.com/img/a0ceb150/20250519/i1747634055312_4981_0_5.jpg","https://xcimg.szwego.com/img/a0ceb150/20250519/i1747634057174_9884_0_6.jpg","https://xcimg.szwego.com/img/a0ceb150/20250519/i1747634057241_5290_0_7.jpg","https://xcimg.szwego.com/img/a0ceb150/20250519/i1747634057211_8718_0_8.jpg"],"created_at":"2026-06-29T12:59:36.194Z"},{"id":"item-00816fc3d667","sku":"_dogogLCY39ofVKTT0FpBiExoADhULypR1lP1bDQ","name_en":"🇨🇳H菜篮子·银扣锡器灰","name_cn":"🇨🇳H菜篮子·银扣锡器灰\n对原版TC皮.不锈钢五金.手缝蜡线\n高品质原材料通通安排上👆🏻\n适配度满分💯\n经典款式名不虚传太美了💗\n尺寸:18×19×13.5cm","specs":{"source":"wsxcme","sourceId":"_dogogLCY39ofVKTT0FpBiExoADhULypR1lP1bDQ","sourceTagId":76963559,"sourceTagName":"爱马仕/女包","dimensions":{"lengthCm":18,"heightCm":19,"widthCm":13.5},"rawTitle":"🇨🇳H菜篮子·银扣锡器灰\n对原版TC皮.不锈钢五金.手缝蜡线\n高品质原材料通通安排上👆🏻\n适配度满分💯\n经典款式名不虚传太美了💗\n尺寸:18×19×13.5cm"},"price":null,"currency":"CNY","moq":1,"category":"hermes-women-bags","status":"active","alibaba_url":null,"images":["https://xcimg.szwego.com/img/a0ceb150/20250925/i1758782464268_7289_0_0.jpg","https://xcimg.szwego.com/img/a0ceb150/20250925/i1758782465295_9970_0_1.jpg","https://xcimg.szwego.com/img/a0ceb150/20250925/i1758782464039_7084_0_2.jpg","https://xcimg.szwego.com/img/a0ceb150/20250925/i1758782464059_5621_0_3.jpg","https://xcimg.szwego.com/img/a0ceb150/20250925/i1758782464232_6286_0_4.jpg","https://xcimg.szwego.com/img/a0ceb150/20250925/i1758782465269_8279_0_5.jpg","https://xcimg.szwego.com/img/a0ceb150/20250925/i1758782464277_4431_0_6.jpg","https://xcimg.szwego.com/img/a0ceb150/20250925/i1758782465200_4170_0_7.jpg","https://xcimg.szwego.com/img/a0ceb150/20250925/i1758782465275_6069_0_8.jpg"],"created_at":"2026-06-29T12:59:36.204Z"},{"id":"item-36759bbbc5fa","sku":"_dt4t4oCC-DBKZyK9HqnWOvdQKTjZaZX2fXv42Iw","name_en":"🇨🇳H菜篮子·银扣樱花粉","name_cn":"🇨🇳H菜篮子·银扣樱花粉\n对原版TC皮.不锈钢五金.手缝蜡线\n高品质原材料通通安排上👆🏻\n适配度满分💯\n经典款式名不虚传太美了💗\n尺寸:18×19×13.5cm","specs":{"source":"wsxcme","sourceId":"_dt4t4oCC-DBKZyK9HqnWOvdQKTjZaZX2fXv42Iw","sourceTagId":76963559,"sourceTagName":"爱马仕/女包","dimensions":{"lengthCm":18,"heightCm":19,"widthCm":13.5},"rawTitle":"🇨🇳H菜篮子·银扣樱花粉\n对原版TC皮.不锈钢五金.手缝蜡线\n高品质原材料通通安排上👆🏻\n适配度满分💯\n经典款式名不虚传太美了💗\n尺寸:18×19×13.5cm"},"price":null,"currency":"CNY","moq":1,"category":"hermes-women-bags","status":"active","alibaba_url":null,"images":["https://xcimg.szwego.com/img/a0ceb150/20250925/i1758782495945_9989_0_0.jpg","https://xcimg.szwego.com/img/a0ceb150/20250925/i1758782495951_5317_0_1.jpg","https://xcimg.szwego.com/img/a0ceb150/20250925/i1758782494310_6041_0_2.jpg","https://xcimg.szwego.com/img/a0ceb150/20250925/i1758782495929_6271_0_3.jpg","https://xcimg.szwego.com/img/a0ceb150/20250925/i1758782495916_7675_0_4.jpg","https://xcimg.szwego.com/img/a0ceb150/20250925/i1758782494246_8713_0_5.jpg","https://xcimg.szwego.com/img/a0ceb150/20250925/i1758782494384_5238_0_6.jpg","https://xcimg.szwego.com/img/a0ceb150/20250925/i1758782494366_3705_0_7.jpg","https://xcimg.szwego.com/img/a0ceb150/20250925/i1758782494391_9615_0_8.jpg"],"created_at":"2026-06-29T12:59:36.214Z"},{"id":"item-433c441df7dd","sku":"_dqZqZZptmlE6JZKKqKbMKng4jg_8fFS9D3cQ80g","name_en":"🇨🇳H菜篮子·银扣棕色","name_cn":"🇨🇳H菜篮子·银扣棕色\n对原版TC皮.不锈钢五金.手缝蜡线\n高品质原材料通通安排上👆🏻\n适配度满分💯\n经典款式名不虚传太美了💗\n尺寸:18×19×13.5cm","specs":{"source":"wsxcme","sourceId":"_dqZqZZptmlE6JZKKqKbMKng4jg_8fFS9D3cQ80g","sourceTagId":76963559,"sourceTagName":"爱马仕/女包","dimensions":{"lengthCm":18,"heightCm":19,"widthCm":13.5},"rawTitle":"🇨🇳H菜篮子·银扣棕色\n对原版TC皮.不锈钢五金.手缝蜡线\n高品质原材料通通安排上👆🏻\n适配度满分💯\n经典款式名不虚传太美了💗\n尺寸:18×19×13.5cm"},"price":null,"currency":"CNY","moq":1,"category":"hermes-women-bags","status":"active","alibaba_url":null,"images":["https://xcimg.szwego.com/img/a0ceb150/20250519/i1747632288204_2660_0_0.jpg","https://xcimg.szwego.com/img/a0ceb150/20250519/i1747632288245_7755_0_1.jpg","https://xcimg.szwego.com/img/a0ceb150/20250519/i1747632289821_6700_0_2.jpg","https://xcimg.szwego.com/img/a0ceb150/20250519/i1747632288225_5529_0_3.jpg","https://xcimg.szwego.com/img/a0ceb150/20250519/i1747632289959_9626_0_4.jpg","https://xcimg.szwego.com/img/a0ceb150/20250519/i1747632288090_2567_0_5.jpg","https://xcimg.szwego.com/img/a0ceb150/20250519/i1747632289947_7933_0_6.jpg","https://xcimg.szwego.com/img/a0ceb150/20250519/i1747632289905_5990_0_7.jpg","https://xcimg.szwego.com/img/a0ceb150/20250519/i1747632288090_6987_0_8.jpg"],"created_at":"2026-06-29T12:59:36.234Z"},{"id":"item-fe13320bf16a","sku":"_dyxyxp1spZfUlA97Y4sNm8eeEfI8fS_5CQM2UEQ","name_en":"✨凯莉二代mini","name_cn":"✨凯莉二代mini \n颜色:奶昔白/唇膏粉\n进口epsom皮、金扣\n机车+半收工手缝蜡线\n尺寸:19cm","specs":{"source":"wsxcme","sourceId":"_dyxyxp1spZfUlA97Y4sNm8eeEfI8fS_5CQM2UEQ","sourceTagId":76963559,"sourceTagName":"爱马仕/女包","rawTitle":"✨凯莉二代mini \n颜色:奶昔白/唇膏粉\n进口epsom皮、金扣\n机车+半收工手缝蜡线\n尺寸:19cm"},"price":null,"currency":"CNY","moq":1,"category":"hermes-women-bags","status":"active","alibaba_url":null,"images":["https://xcimg.szwego.com/img/88b306c4/20240903/a1725376009655_7642.jpg","https://xcimg.szwego.com/img/88b306c4/20240903/a1725376009578_4371.jpg","https://xcimg.szwego.com/img/88b306c4/20240903/a1725376009650_0741.jpg","https://xcimg.szwego.com/img/88b306c4/20240903/a1725376009888_7467.jpg","https://xcimg.szwego.com/img/88b306c4/20240903/a1725376009580_7327.jpg","https://xcimg.szwego.com/img/88b306c4/20240903/a1725376009806_8734.jpg","https://xcimg.szwego.com/img/88b306c4/20240903/a1725376011004_3135.jpg","https://xcimg.szwego.com/img/88b306c4/20240903/a1725376011037_2210.jpg","https://xcimg.szwego.com/img/88b306c4/20240903/a1725376010890_1654.jpg"],"created_at":"2024-10-22T05:04:33.209Z"}],"page":1,"pageSize":24,"total":439,"totalPages":19}
