{"items":[{"id":"item-14ec90a6452e","sku":"_dtltlUveL0rfaqKEeTVwfMhIJicmPzMeaqmrpwg","name_en":"✨凯莉二代mini","name_cn":"✨凯莉二代mini \n颜色:奶昔白/克\n进口epsom皮、银扣\n机车+半收工手缝蜡线\n尺寸:19cm","specs":{"source":"wsxcme","sourceId":"_dtltlUveL0rfaqKEeTVwfMhIJicmPzMeaqmrpwg","sourceTagId":76963559,"sourceTagName":"爱马仕/女包","rawTitle":"✨凯莉二代mini \n颜色:奶昔白/克\n进口epsom皮、银扣\n机车+半收工手缝蜡线\n尺寸:19cm"},"price":null,"currency":"CNY","moq":1,"category":"hermes-women-bags","status":"active","alibaba_url":null,"images":["https://xcimg.szwego.com/img/88b306c4/20240903/a1725376369518_3511.jpg","https://xcimg.szwego.com/img/88b306c4/20240903/a1725376369336_4875.jpg","https://xcimg.szwego.com/img/88b306c4/20240903/a1725376369581_5357.jpg","https://xcimg.szwego.com/img/88b306c4/20240903/a1725376369092_7573.jpg","https://xcimg.szwego.com/img/88b306c4/20240903/a1725376369331_5164.jpg","https://xcimg.szwego.com/img/88b306c4/20240903/a1725376369180_5312.jpg","https://xcimg.szwego.com/img/88b306c4/20240903/a1725376370522_3262.jpg","https://xcimg.szwego.com/img/88b306c4/20240903/a1725376370640_4662.jpg","https://xcimg.szwego.com/img/88b306c4/20240903/a1725376370521_1882.jpg"],"created_at":"2024-10-22T05:04:33.211Z"},{"id":"item-14d05142cf1e","sku":"_dYqYq_dINudLGKA3EX7LpxxWQz3-yXPAYEQxsiQ","name_en":"✨凯莉二代mini","name_cn":"✨凯莉二代mini \n颜色:奶昔白/金棕\n进口epsom皮、银扣\n机车+半收工手缝蜡线\n尺寸:19cm","specs":{"source":"wsxcme","sourceId":"_dYqYq_dINudLGKA3EX7LpxxWQz3-yXPAYEQxsiQ","sourceTagId":76963559,"sourceTagName":"爱马仕/女包","rawTitle":"✨凯莉二代mini \n颜色:奶昔白/金棕\n进口epsom皮、银扣\n机车+半收工手缝蜡线\n尺寸:19cm"},"price":null,"currency":"CNY","moq":1,"category":"hermes-women-bags","status":"active","alibaba_url":null,"images":["https://xcimg.szwego.com/img/88b306c4/20240903/a1725374567930_5588.jpg","https://xcimg.szwego.com/img/88b306c4/20240903/a1725374567749_2414.jpg","https://xcimg.szwego.com/img/88b306c4/20240903/a1725374568062_0482.jpg","https://xcimg.szwego.com/img/88b306c4/20240903/a1725374567765_7055.jpg","https://xcimg.szwego.com/img/88b306c4/20240903/a1725374567778_3747.jpg","https://xcimg.szwego.com/img/88b306c4/20240903/a1725374567794_8331.jpg","https://xcimg.szwego.com/img/88b306c4/20240903/a1725374569139_1640.jpg","https://xcimg.szwego.com/img/88b306c4/20240903/a1725374569122_4614.jpg","https://xcimg.szwego.com/img/88b306c4/20240903/a1725374569086_7540.jpg"],"created_at":"2024-10-22T05:04:33.203Z"},{"id":"item-1205a91176d9","sku":"_dGWGWC8yfMGZC5hEu7jir0e87QMQEC0dRukCv9Q","name_en":"✨凯莉二代mini","name_cn":"✨凯莉二代mini \n颜色:大象灰/奶昔白\n进口epsom皮、银扣\n机车+半收工手缝蜡线\n尺寸:19cm","specs":{"source":"wsxcme","sourceId":"_dGWGWC8yfMGZC5hEu7jir0e87QMQEC0dRukCv9Q","sourceTagId":76963559,"sourceTagName":"爱马仕/女包","rawTitle":"✨凯莉二代mini \n颜色:大象灰/奶昔白\n进口epsom皮、银扣\n机车+半收工手缝蜡线\n尺寸:19cm"},"price":null,"currency":"CNY","moq":1,"category":"hermes-women-bags","status":"active","alibaba_url":null,"images":["https://xcimg.szwego.com/img/88b306c4/20240904/a1725382092128_1646.jpg","https://xcimg.szwego.com/img/88b306c4/20240904/a1725382092137_8055.jpg","https://xcimg.szwego.com/img/88b306c4/20240904/a1725382092313_1372.jpg","https://xcimg.szwego.com/img/88b306c4/20240904/a1725382092233_0412.jpg","https://xcimg.szwego.com/img/88b306c4/20240904/a1725382092417_1688.jpg","https://xcimg.szwego.com/img/88b306c4/20240904/a1725382092535_0278.jpg","https://xcimg.szwego.com/img/88b306c4/20240904/a1725382093728_3115.jpg","https://xcimg.szwego.com/img/88b306c4/20240904/a1725382093680_1760.jpg"],"created_at":"2024-10-22T05:04:33.170Z"},{"id":"item-1015b2d715e4","sku":"_d51511UiAFk9fOyMftSgBu2SX42-fPEobt5Y0gQ","name_en":"✨凯莉二代mini","name_cn":"✨凯莉二代mini \n颜色:饼干色/奶昔白\n进口epsom皮、金扣\n机车+半收工手缝蜡线\n尺寸:19cm","specs":{"source":"wsxcme","sourceId":"_d51511UiAFk9fOyMftSgBu2SX42-fPEobt5Y0gQ","sourceTagId":76963559,"sourceTagName":"爱马仕/女包","rawTitle":"✨凯莉二代mini \n颜色:饼干色/奶昔白\n进口epsom皮、金扣\n机车+半收工手缝蜡线\n尺寸:19cm"},"price":null,"currency":"CNY","moq":1,"category":"hermes-women-bags","status":"active","alibaba_url":null,"images":["https://xcimg.szwego.com/img/88b306c4/20240903/a1725374312476_1163.jpg","https://xcimg.szwego.com/img/88b306c4/20240903/a1725374312474_5855.jpg","https://xcimg.szwego.com/img/88b306c4/20240903/a1725374312602_1113.jpg","https://xcimg.szwego.com/img/88b306c4/20240903/a1725374312417_7537.jpg","https://xcimg.szwego.com/img/88b306c4/20240903/a1725374312791_0613.jpg","https://xcimg.szwego.com/img/88b306c4/20240903/a1725374312345_0635.jpg","https://xcimg.szwego.com/img/88b306c4/20240903/a1725374313809_6622.jpg","https://xcimg.szwego.com/img/88b306c4/20240903/a1725374313881_2248.jpg","https://xcimg.szwego.com/img/88b306c4/20240903/a1725374313791_7537.jpg"],"created_at":"2024-10-22T05:04:33.202Z"},{"id":"item-0d961aaca505","sku":"_doLoLXwGcPVUoW1tsjNYPammFLSOGAbgayQsNUQ","name_en":"✨凯莉二代mini","name_cn":"✨凯莉二代mini \n颜色:漫画绿/奶灰白\n进口epsom皮、金扣\n机车+半收工手缝蜡线\n尺寸:19cm","specs":{"source":"wsxcme","sourceId":"_doLoLXwGcPVUoW1tsjNYPammFLSOGAbgayQsNUQ","sourceTagId":76963559,"sourceTagName":"爱马仕/女包","rawTitle":"✨凯莉二代mini \n颜色:漫画绿/奶灰白\n进口epsom皮、金扣\n机车+半收工手缝蜡线\n尺寸:19cm"},"price":null,"currency":"CNY","moq":1,"category":"hermes-women-bags","status":"active","alibaba_url":null,"images":["https://xcimg.szwego.com/img/88b306c4/20240903/a1725374979471_3275.jpg","https://xcimg.szwego.com/img/88b306c4/20240903/a1725374979305_2830.jpg","https://xcimg.szwego.com/img/88b306c4/20240903/a1725374979629_1267.jpg","https://xcimg.szwego.com/img/88b306c4/20240903/a1725374979693_6610.jpg","https://xcimg.szwego.com/img/88b306c4/20240903/a1725374979436_7867.jpg","https://xcimg.szwego.com/img/88b306c4/20240903/a1725374979354_3077.jpg","https://xcimg.szwego.com/img/88b306c4/20240903/a1725374980692_0207.jpg","https://xcimg.szwego.com/img/88b306c4/20240903/a1725374980768_7105.jpg","https://xcimg.szwego.com/img/88b306c4/20240903/a1725374980680_7615.jpg"],"created_at":"2024-10-22T05:04:33.205Z"},{"id":"item-0bfe978c0270","sku":"_dwawaIX5MOHz6g-2Xx9NH7XWHcQQ8evqzvKm7MQ","name_en":"✨凯莉二代mini","name_cn":"✨凯莉二代mini \n颜色:饼干色/奶昔白/克\n进口epsom皮、银扣\n机车+半收工手缝蜡线\n尺寸:19cm","specs":{"source":"wsxcme","sourceId":"_dwawaIX5MOHz6g-2Xx9NH7XWHcQQ8evqzvKm7MQ","sourceTagId":76963559,"sourceTagName":"爱马仕/女包","rawTitle":"✨凯莉二代mini \n颜色:饼干色/奶昔白/克\n进口epsom皮、银扣\n机车+半收工手缝蜡线\n尺寸:19cm"},"price":null,"currency":"CNY","moq":1,"category":"hermes-women-bags","status":"active","alibaba_url":null,"images":["https://xcimg.szwego.com/img/88b306c4/20240904/a1725383118748_3071.jpg","https://xcimg.szwego.com/img/88b306c4/20240904/a1725383118253_4103.jpg","https://xcimg.szwego.com/img/88b306c4/20240904/a1725383118309_5272.jpg","https://xcimg.szwego.com/img/88b306c4/20240904/a1725383118261_4202.jpg","https://xcimg.szwego.com/img/88b306c4/20240904/a1725383118569_5044.jpg","https://xcimg.szwego.com/img/88b306c4/20240904/a1725383118705_7137.jpg","https://xcimg.szwego.com/img/88b306c4/20240904/a1725383119949_4026.jpg","https://xcimg.szwego.com/img/88b306c4/20240904/a1725383119878_6700.jpg","https://xcimg.szwego.com/img/88b306c4/20240904/a1725383119792_0516.jpg"],"created_at":"2024-10-22T05:04:33.178Z"},{"id":"item-07eb19b687af","sku":"_dSQSQ91H-pnZE4ithyV-__IylJFkdfdeBy2Rj9w","name_en":"✨凯莉二代mini","name_cn":"✨凯莉二代mini \n颜色:奶昔白/锦葵紫\n进口epsom皮、银扣\n机车+半收工手缝蜡线\n尺寸:19cm","specs":{"source":"wsxcme","sourceId":"_dSQSQ91H-pnZE4ithyV-__IylJFkdfdeBy2Rj9w","sourceTagId":76963559,"sourceTagName":"爱马仕/女包","rawTitle":"✨凯莉二代mini \n颜色:奶昔白/锦葵紫\n进口epsom皮、银扣\n机车+半收工手缝蜡线\n尺寸:19cm"},"price":null,"currency":"CNY","moq":1,"category":"hermes-women-bags","status":"active","alibaba_url":null,"images":["https://xcimg.szwego.com/img/88b306c4/20240903/a1725375327558_7357.jpg","https://xcimg.szwego.com/img/88b306c4/20240903/a1725375327320_0078.jpg","https://xcimg.szwego.com/img/88b306c4/20240903/a1725375327505_2850.jpg","https://xcimg.szwego.com/img/88b306c4/20240903/a1725375327315_4280.jpg","https://xcimg.szwego.com/img/88b306c4/20240903/a1725375327329_6236.jpg","https://xcimg.szwego.com/img/88b306c4/20240903/a1725375327311_2558.jpg","https://xcimg.szwego.com/img/88b306c4/20240903/a1725375328806_2706.jpg","https://xcimg.szwego.com/img/88b306c4/20240903/a1725375328843_1582.jpg","https://xcimg.szwego.com/img/88b306c4/20240903/a1725375328799_8048.jpg"],"created_at":"2024-10-22T05:04:33.207Z"},{"id":"item-07df5b02941c","sku":"_dc9c9rH4tEPaCtBSdpNeMUCCpmaY6HzxszSaWFQ","name_en":"✨凯莉二代mini","name_cn":"✨凯莉二代mini \n颜色:饼干色/奶昔白/克\n进口epsom皮、金扣\n机车+半收工手缝蜡线\n尺寸:19cm","specs":{"source":"wsxcme","sourceId":"_dc9c9rH4tEPaCtBSdpNeMUCCpmaY6HzxszSaWFQ","sourceTagId":76963559,"sourceTagName":"爱马仕/女包","rawTitle":"✨凯莉二代mini \n颜色:饼干色/奶昔白/克\n进口epsom皮、金扣\n机车+半收工手缝蜡线\n尺寸:19cm"},"price":null,"currency":"CNY","moq":1,"category":"hermes-women-bags","status":"active","alibaba_url":null,"images":["https://xcimg.szwego.com/img/88b306c4/20240904/a1725383208604_1263.jpg","https://xcimg.szwego.com/img/88b306c4/20240904/a1725383208495_5172.jpg","https://xcimg.szwego.com/img/88b306c4/20240904/a1725383208871_1434.jpg","https://xcimg.szwego.com/img/88b306c4/20240904/a1725383208493_8208.jpg","https://xcimg.szwego.com/img/88b306c4/20240904/a1725383208595_0406.jpg","https://xcimg.szwego.com/img/88b306c4/20240904/a1725383208840_5340.jpg","https://xcimg.szwego.com/img/88b306c4/20240904/a1725383209928_8227.jpg","https://xcimg.szwego.com/img/88b306c4/20240904/a1725383209787_1685.jpg","https://xcimg.szwego.com/img/88b306c4/20240904/a1725383209826_4543.jpg"],"created_at":"2024-10-22T05:04:33.179Z"},{"id":"item-03148861dd0a","sku":"_ddzdzkR2YTdshw8tx1An5Uag1dacih6XBk4CdMg","name_en":"✨凯莉二代mini","name_cn":"✨凯莉二代mini \n彩色集合图","specs":{"source":"wsxcme","sourceId":"_ddzdzkR2YTdshw8tx1An5Uag1dacih6XBk4CdMg","sourceTagId":76963559,"sourceTagName":"爱马仕/女包","rawTitle":"✨凯莉二代mini \n彩色集合图"},"price":null,"currency":"CNY","moq":1,"category":"hermes-women-bags","status":"active","alibaba_url":null,"images":["https://xcimg.szwego.com/img/88b306c4/20240904/a1725383884854_2616.jpg","https://xcimg.szwego.com/img/88b306c4/20240904/a1725383897297_4374.jpg","https://xcimg.szwego.com/img/88b306c4/20240904/a1725383907134_6157.jpg"],"created_at":"2024-10-22T05:04:33.155Z"},{"id":"item-024be43c3e7d","sku":"_d8G8GKPR4SVDXRLIKw66yZippV8w6zqWygRq8yA","name_en":"✨凯莉二代mini","name_cn":"✨凯莉二代mini \n颜色:饼干色/奶昔白\n进口epsom皮、银扣\n机车+半收工手缝蜡线\n尺寸:19cm","specs":{"source":"wsxcme","sourceId":"_d8G8GKPR4SVDXRLIKw66yZippV8w6zqWygRq8yA","sourceTagId":76963559,"sourceTagName":"爱马仕/女包","rawTitle":"✨凯莉二代mini \n颜色:饼干色/奶昔白\n进口epsom皮、银扣\n机车+半收工手缝蜡线\n尺寸:19cm"},"price":null,"currency":"CNY","moq":1,"category":"hermes-women-bags","status":"active","alibaba_url":null,"images":["https://xcimg.szwego.com/img/88b306c4/20240903/a1725374172094_2156.jpg","https://xcimg.szwego.com/img/88b306c4/20240903/a1725374171774_8835.jpg","https://xcimg.szwego.com/img/88b306c4/20240903/a1725374171994_0875.jpg","https://xcimg.szwego.com/img/88b306c4/20240903/a1725374171877_6318.jpg","https://xcimg.szwego.com/img/88b306c4/20240903/a1725374172143_0322.jpg","https://xcimg.szwego.com/img/88b306c4/20240903/a1725374171902_2072.jpg","https://xcimg.szwego.com/img/88b306c4/20240903/a1725374173364_1003.jpg","https://xcimg.szwego.com/img/88b306c4/20240903/a1725374173365_2156.jpg","https://xcimg.szwego.com/img/88b306c4/20240903/a1725374173270_2111.jpg"],"created_at":"2024-10-22T05:04:33.201Z"},{"id":"item-1361c961e2a0","sku":"_dkRkRhcHrpI7jfy_aXR0PJICSIvZGmaYnqV0t0w","name_en":"✨BK25  Togo皮","name_cn":"✨BK25  Togo皮\nTogo皮铂金25cm\n手缝蜡线 全钢五金 内里山羊皮","specs":{"source":"wsxcme","sourceId":"_dkRkRhcHrpI7jfy_aXR0PJICSIvZGmaYnqV0t0w","sourceTagId":76963559,"sourceTagName":"爱马仕/女包","rawTitle":"✨BK25  Togo皮\nTogo皮铂金25cm\n手缝蜡线 全钢五金 内里山羊皮"},"price":null,"currency":"CNY","moq":1,"category":"hermes-women-bags","status":"active","alibaba_url":null,"images":["https://xcimg.szwego.com/img/9ee4266d/20240528/i1716870627_5748_3.jpg","https://xcimg.szwego.com/img/9ee4266d/20240528/i1716870627_2402_2.jpg","https://xcimg.szwego.com/img/9ee4266d/20240528/i1716866754_9662_5.jpg","https://xcimg.szwego.com/img/9ee4266d/20240528/i1716870793_1044_0.jpg","https://xcimg.szwego.com/img/9ee4266d/20240528/i1716870993_6192_0.jpg","https://xcimg.szwego.com/img/9ee4266d/20240528/i1716870993_1177_1.jpg","https://xcimg.szwego.com/img/9ee4266d/20240528/i1716866754_7025_2.jpg","https://xcimg.szwego.com/img/9ee4266d/20240528/i1716886592_7019_0.jpg","https://xcimg.szwego.com/img/9ee4266d/20240528/i1716866754_9937_3.jpg"],"created_at":"2024-10-22T04:43:02.190Z"},{"id":"item-e3ea208efd80","sku":"_djMjMMhtWho6ciW0-eYO-L065NXiTyT9FCDW40A","name_en":"✨Garden 花园包36cm ✨","name_cn":"✨Garden 花园包36cm ✨\n帆布拼togo皮 ZG最新涂鸦 全钢五金 手缝蜡线 \n【现货】","specs":{"source":"wsxcme","sourceId":"_djMjMMhtWho6ciW0-eYO-L065NXiTyT9FCDW40A","sourceTagId":76963559,"sourceTagName":"爱马仕/女包","rawTitle":"✨Garden 花园包36cm ✨\n帆布拼togo皮 ZG最新涂鸦 全钢五金 手缝蜡线 \n【现货】"},"price":null,"currency":"CNY","moq":1,"category":"hermes-women-bags","status":"active","alibaba_url":null,"images":["https://xcimg.szwego.com/20240621/i1718949522_556_0.jpg","https://xcimg.szwego.com/20240621/i1718949522_6223_1.jpg","https://xcimg.szwego.com/20240621/i1718949522_6794_2.jpg","https://xcimg.szwego.com/20240621/i1718949522_9902_3.jpg","https://xcimg.szwego.com/20240621/i1718949522_1866_4.jpg","https://xcimg.szwego.com/20240621/i1718949522_6805_5.jpg","https://xcimg.szwego.com/20240621/i1718949522_5552_6.jpg","https://xcimg.szwego.com/20240621/i1718949522_1348_7.jpg"],"created_at":"2024-10-22T05:04:33.223Z"},{"id":"item-de7aa6d4f224","sku":"_dRjRjn30oTRh7uQqNiJPgmeBGfkK8KyTtMdA-_g","name_en":"✨Garden 花园包36cm ✨","name_cn":"✨Garden 花园包36cm ✨\n帆布拼togo皮 ZG最新涂鸦 全钢五金 手缝蜡线 \n【现货】","specs":{"source":"wsxcme","sourceId":"_dRjRjn30oTRh7uQqNiJPgmeBGfkK8KyTtMdA-_g","sourceTagId":76963559,"sourceTagName":"爱马仕/女包","rawTitle":"✨Garden 花园包36cm ✨\n帆布拼togo皮 ZG最新涂鸦 全钢五金 手缝蜡线 \n【现货】"},"price":null,"currency":"CNY","moq":1,"category":"hermes-women-bags","status":"active","alibaba_url":null,"images":["https://xcimg.szwego.com/20240621/i1718949541_6244_0.jpg","https://xcimg.szwego.com/20240621/i1718949541_8602_1.jpg","https://xcimg.szwego.com/20240621/i1718949541_7156_2.jpg","https://xcimg.szwego.com/20240621/i1718949541_7134_3.jpg","https://xcimg.szwego.com/20240621/i1718949541_592_4.jpg","https://xcimg.szwego.com/20240621/i1718949541_5311_5.jpg","https://xcimg.szwego.com/20240621/i1718949541_4968_6.jpg","https://xcimg.szwego.com/20240621/i1718949541_7557_7.jpg"],"created_at":"2024-10-22T05:04:33.224Z"},{"id":"item-dd1a1ea6ce16","sku":"_dM3M31y3CTB1BVB7Jw59axEiQhXBwzWs2kKW2sw","name_en":"✨Garden 花园包36cm ✨","name_cn":"✨Garden 花园包36cm ✨\n帆布拼togo皮 ZG最新涂鸦 全钢五金 手缝蜡线 \n【现货】","specs":{"source":"wsxcme","sourceId":"_dM3M31y3CTB1BVB7Jw59axEiQhXBwzWs2kKW2sw","sourceTagId":76963559,"sourceTagName":"爱马仕/女包","rawTitle":"✨Garden 花园包36cm ✨\n帆布拼togo皮 ZG最新涂鸦 全钢五金 手缝蜡线 \n【现货】"},"price":null,"currency":"CNY","moq":1,"category":"hermes-women-bags","status":"active","alibaba_url":null,"images":["https://xcimg.szwego.com/20240517/i1715878217_6172_0.jpg","https://xcimg.szwego.com/20240517/i1715878217_5521_1.jpg","https://xcimg.szwego.com/20240517/i1715878217_9632_2.jpg","https://xcimg.szwego.com/20240517/i1715878217_4081_3.jpg","https://xcimg.szwego.com/20240517/i1715878217_9718_4.jpg","https://xcimg.szwego.com/20240517/i1715878217_1366_5.jpg","https://xcimg.szwego.com/20240517/i1715878217_9011_6.jpg","https://xcimg.szwego.com/20240517/i1715878217_6767_7.jpg"],"created_at":"2024-10-22T05:04:33.235Z"},{"id":"item-db2767d45dd9","sku":"_dCgCgRgyKUaoz3fzjxZ4rrdW7GmzgIFl0xcgtSQ","name_en":"✨Garden 花园包36cm ✨","name_cn":"✨Garden 花园包36cm ✨\n帆布拼togo皮 ZG最新涂鸦 全钢五金 手缝蜡线 \n【现货】","specs":{"source":"wsxcme","sourceId":"_dCgCgRgyKUaoz3fzjxZ4rrdW7GmzgIFl0xcgtSQ","sourceTagId":76963559,"sourceTagName":"爱马仕/女包","rawTitle":"✨Garden 花园包36cm ✨\n帆布拼togo皮 ZG最新涂鸦 全钢五金 手缝蜡线 \n【现货】"},"price":null,"currency":"CNY","moq":1,"category":"hermes-women-bags","status":"active","alibaba_url":null,"images":["https://xcimg.szwego.com/20240517/i1715878201_2239_0.jpg","https://xcimg.szwego.com/20240517/i1715878201_9674_1.jpg","https://xcimg.szwego.com/20240517/i1715878201_7858_2.jpg","https://xcimg.szwego.com/20240517/i1715878201_5001_3.jpg","https://xcimg.szwego.com/20240517/i1715878201_1222_4.jpg","https://xcimg.szwego.com/20240517/i1715878201_7823_5.jpg","https://xcimg.szwego.com/20240517/i1715878201_5686_6.jpg"],"created_at":"2024-10-22T05:04:33.234Z"},{"id":"item-be4ce4e6e89c","sku":"_dYsYs3KgcY8Dc0EAgJWHw0TPdntvnlTU72wzRrw","name_en":"✨Garden 花园包36cm ✨","name_cn":"✨Garden 花园包36cm ✨\n帆布拼togo皮 ZG最新涂鸦 全钢五金 手缝蜡线 \n【现货】","specs":{"source":"wsxcme","sourceId":"_dYsYs3KgcY8Dc0EAgJWHw0TPdntvnlTU72wzRrw","sourceTagId":76963559,"sourceTagName":"爱马仕/女包","rawTitle":"✨Garden 花园包36cm ✨\n帆布拼togo皮 ZG最新涂鸦 全钢五金 手缝蜡线 \n【现货】"},"price":null,"currency":"CNY","moq":1,"category":"hermes-women-bags","status":"active","alibaba_url":null,"images":["https://xcimg.szwego.com/20240621/i1718949671_3045_0.jpg","https://xcimg.szwego.com/20240621/i1718949671_2230_1.jpg","https://xcimg.szwego.com/20240621/i1718949671_9025_2.jpg","https://xcimg.szwego.com/20240621/i1718949671_3256_3.jpg","https://xcimg.szwego.com/20240621/i1718949671_4101_4.jpg","https://xcimg.szwego.com/20240621/i1718949671_1947_5.jpg","https://xcimg.szwego.com/20240621/i1718949671_4379_6.jpg","https://xcimg.szwego.com/20240621/i1718949671_183_7.jpg"],"created_at":"2024-10-22T05:04:33.230Z"},{"id":"item-bd4fdde742f6","sku":"_dxIxIN2xWFCvSI9SEeTjOJmop86jQHfjtYtzN-A","name_en":"✨Garden 花园包36cm ✨","name_cn":"✨Garden 花园包36cm ✨\n帆布拼togo皮 ZG最新涂鸦 全钢五金 手缝蜡线 \n【现货】","specs":{"source":"wsxcme","sourceId":"_dxIxIN2xWFCvSI9SEeTjOJmop86jQHfjtYtzN-A","sourceTagId":76963559,"sourceTagName":"爱马仕/女包","rawTitle":"✨Garden 花园包36cm ✨\n帆布拼togo皮 ZG最新涂鸦 全钢五金 手缝蜡线 \n【现货】"},"price":null,"currency":"CNY","moq":1,"category":"hermes-women-bags","status":"active","alibaba_url":null,"images":["https://xcimg.szwego.com/20240621/i1718949561_6994_0.jpg","https://xcimg.szwego.com/20240621/i1718949561_7546_1.jpg","https://xcimg.szwego.com/20240621/i1718949561_3275_2.jpg","https://xcimg.szwego.com/20240621/i1718949561_9789_3.jpg","https://xcimg.szwego.com/20240621/i1718949561_8449_4.jpg","https://xcimg.szwego.com/20240621/i1718949561_2096_5.jpg","https://xcimg.szwego.com/20240621/i1718949561_7004_6.jpg","https://xcimg.szwego.com/20240621/i1718949561_6877_7.jpg"],"created_at":"2024-10-22T05:04:33.225Z"},{"id":"item-989032171ede","sku":"_dhFhF-cRYjaW7xGYsV8gn4gatrY6u6wCay0gQCQ","name_en":"✨Garden 花园包36cm ✨","name_cn":"✨Garden 花园包36cm ✨\n帆布拼togo皮 ZG最新涂鸦 全钢五金 手缝蜡线 \n【现货】","specs":{"source":"wsxcme","sourceId":"_dhFhF-cRYjaW7xGYsV8gn4gatrY6u6wCay0gQCQ","sourceTagId":76963559,"sourceTagName":"爱马仕/女包","rawTitle":"✨Garden 花园包36cm ✨\n帆布拼togo皮 ZG最新涂鸦 全钢五金 手缝蜡线 \n【现货】"},"price":null,"currency":"CNY","moq":1,"category":"hermes-women-bags","status":"active","alibaba_url":null,"images":["https://xcimg.szwego.com/20240517/i1715878231_6393_0.jpg","https://xcimg.szwego.com/20240517/i1715878231_1843_1.jpg","https://xcimg.szwego.com/20240517/i1715878231_5956_2.jpg","https://xcimg.szwego.com/20240517/i1715878231_8458_3.jpg","https://xcimg.szwego.com/20240517/i1715878231_8244_4.jpg","https://xcimg.szwego.com/20240517/i1715878231_1000_5.jpg","https://xcimg.szwego.com/20240517/i1715878231_4644_6.jpg","https://xcimg.szwego.com/20240517/i1715878231_2518_7.jpg"],"created_at":"2024-10-22T05:04:33.236Z"},{"id":"item-9447ca54b99b","sku":"_dH-H-ROwrzBXb9IwP6PYLwfHkKIV_sAwT-_e8Hw","name_en":"✨Garden 花园包36cm ✨","name_cn":"✨Garden 花园包36cm ✨\n帆布拼togo皮 ZG最新涂鸦 全钢五金 手缝蜡线 \n【现货】","specs":{"source":"wsxcme","sourceId":"_dH-H-ROwrzBXb9IwP6PYLwfHkKIV_sAwT-_e8Hw","sourceTagId":76963559,"sourceTagName":"爱马仕/女包","rawTitle":"✨Garden 花园包36cm ✨\n帆布拼togo皮 ZG最新涂鸦 全钢五金 手缝蜡线 \n【现货】"},"price":null,"currency":"CNY","moq":1,"category":"hermes-women-bags","status":"active","alibaba_url":null,"images":["https://xcimg.szwego.com/20240517/i1715877823_2842_0.jpg","https://xcimg.szwego.com/20240517/i1715877823_9400_1.jpg","https://xcimg.szwego.com/20240517/i1715877823_9540_2.jpg","https://xcimg.szwego.com/20240517/i1715877823_4186_3.jpg","https://xcimg.szwego.com/20240517/i1715877823_9593_4.jpg","https://xcimg.szwego.com/20240517/i1715877823_1307_5.jpg","https://xcimg.szwego.com/20240517/i1715877823_4619_6.jpg","https://xcimg.szwego.com/20240517/i1715877823_2958_7.jpg"],"created_at":"2024-10-22T05:04:33.231Z"},{"id":"item-8b0c0317d21a","sku":"_dnbnb-k9ronJYr6QximwDNT1eu9CysJw56Fu2FQ","name_en":"✨Garden 花园包36cm ✨","name_cn":"✨Garden 花园包36cm ✨\n帆布拼togo皮 ZG最新涂鸦 全钢五金 手缝蜡线 \n【现货】","specs":{"source":"wsxcme","sourceId":"_dnbnb-k9ronJYr6QximwDNT1eu9CysJw56Fu2FQ","sourceTagId":76963559,"sourceTagName":"爱马仕/女包","rawTitle":"✨Garden 花园包36cm ✨\n帆布拼togo皮 ZG最新涂鸦 全钢五金 手缝蜡线 \n【现货】"},"price":null,"currency":"CNY","moq":1,"category":"hermes-women-bags","status":"active","alibaba_url":null,"images":["https://xcimg.szwego.com/20240517/i1715878165_9138_0.jpg","https://xcimg.szwego.com/20240517/i1715878165_6200_1.jpg","https://xcimg.szwego.com/20240517/i1715878165_576_2.jpg","https://xcimg.szwego.com/20240517/i1715878165_800_3.jpg","https://xcimg.szwego.com/20240517/i1715878165_1421_4.jpg","https://xcimg.szwego.com/20240517/i1715878165_2250_5.jpg","https://xcimg.szwego.com/20240517/i1715878165_4624_6.jpg","https://xcimg.szwego.com/20240517/i1715878165_6088_7.jpg"],"created_at":"2024-10-22T05:04:33.232Z"},{"id":"item-62c199435e67","sku":"_dxyxyDlMcAbKGnbHcbpV49mme1gmx8oOjRkJNZA","name_en":"✨Garden 花园包36cm ✨","name_cn":"✨Garden 花园包36cm ✨\n帆布拼togo皮 ZG最新涂鸦 全钢五金 手缝蜡线 \n【现货】","specs":{"source":"wsxcme","sourceId":"_dxyxyDlMcAbKGnbHcbpV49mme1gmx8oOjRkJNZA","sourceTagId":76963559,"sourceTagName":"爱马仕/女包","rawTitle":"✨Garden 花园包36cm ✨\n帆布拼togo皮 ZG最新涂鸦 全钢五金 手缝蜡线 \n【现货】"},"price":null,"currency":"CNY","moq":1,"category":"hermes-women-bags","status":"active","alibaba_url":null,"images":["https://xcimg.szwego.com/20240621/i1718949652_3799_0.jpg","https://xcimg.szwego.com/20240621/i1718949652_2061_1.jpg","https://xcimg.szwego.com/20240621/i1718949652_3055_2.jpg","https://xcimg.szwego.com/20240621/i1718949652_6683_3.jpg","https://xcimg.szwego.com/20240621/i1718949652_1437_4.jpg","https://xcimg.szwego.com/20240621/i1718949652_4582_5.jpg","https://xcimg.szwego.com/20240621/i1718949652_1265_6.jpg"],"created_at":"2024-10-22T05:04:33.229Z"},{"id":"item-4d56353945f2","sku":"_dv4v4ARJFTr73abnXH38C-ObybY9IyxY-TcHbEQ","name_en":"✨Garden 花园包36cm ✨","name_cn":"✨Garden 花园包36cm ✨\n帆布拼togo皮 ZG最新涂鸦 全钢五金 手缝蜡线 \n【现货】","specs":{"source":"wsxcme","sourceId":"_dv4v4ARJFTr73abnXH38C-ObybY9IyxY-TcHbEQ","sourceTagId":76963559,"sourceTagName":"爱马仕/女包","rawTitle":"✨Garden 花园包36cm ✨\n帆布拼togo皮 ZG最新涂鸦 全钢五金 手缝蜡线 \n【现货】"},"price":null,"currency":"CNY","moq":1,"category":"hermes-women-bags","status":"active","alibaba_url":null,"images":["https://xcimg.szwego.com/20240621/i1718949591_3882_0.jpg","https://xcimg.szwego.com/20240621/i1718949591_607_1.jpg","https://xcimg.szwego.com/20240621/i1718949591_6583_2.jpg","https://xcimg.szwego.com/20240621/i1718949591_7979_3.jpg","https://xcimg.szwego.com/20240621/i1718949591_1441_4.jpg","https://xcimg.szwego.com/20240621/i1718949591_7280_5.jpg","https://xcimg.szwego.com/20240621/i1718949591_4772_6.jpg","https://xcimg.szwego.com/20240621/i1718949591_361_7.jpg"],"created_at":"2024-10-22T05:04:33.227Z"},{"id":"item-482f44acf89e","sku":"_daQaQFVNklNK5rIy3adqMq3a2EQLrCUaqpaFLxA","name_en":"✨Garden 花园包36cm ✨","name_cn":"✨Garden 花园包36cm ✨\n帆布拼togo皮 ZG最新涂鸦 全钢五金 手缝蜡线 \n【现货】","specs":{"source":"wsxcme","sourceId":"_daQaQFVNklNK5rIy3adqMq3a2EQLrCUaqpaFLxA","sourceTagId":76963559,"sourceTagName":"爱马仕/女包","rawTitle":"✨Garden 花园包36cm ✨\n帆布拼togo皮 ZG最新涂鸦 全钢五金 手缝蜡线 \n【现货】"},"price":null,"currency":"CNY","moq":1,"category":"hermes-women-bags","status":"active","alibaba_url":null,"images":["https://xcimg.szwego.com/20240517/i1715878180_9542_0.jpg","https://xcimg.szwego.com/20240517/i1715878180_7675_1.jpg","https://xcimg.szwego.com/20240517/i1715878180_787_2.jpg","https://xcimg.szwego.com/20240517/i1715878180_1795_3.jpg","https://xcimg.szwego.com/20240517/i1715878180_3641_4.jpg","https://xcimg.szwego.com/20240517/i1715878180_4291_5.jpg","https://xcimg.szwego.com/20240517/i1715878180_522_6.jpg","https://xcimg.szwego.com/20240517/i1715878180_9697_7.jpg"],"created_at":"2024-10-22T05:04:33.233Z"},{"id":"item-2a386d5e832b","sku":"_dtOtO9LFw2YV-boWD4zK3CBNEINItdRqOckFMfw","name_en":"✨Garden 花园包36cm ✨","name_cn":"✨Garden 花园包36cm ✨\n帆布拼togo皮 ZG最新涂鸦 全钢五金 手缝蜡线 \n【现货】","specs":{"source":"wsxcme","sourceId":"_dtOtO9LFw2YV-boWD4zK3CBNEINItdRqOckFMfw","sourceTagId":76963559,"sourceTagName":"爱马仕/女包","rawTitle":"✨Garden 花园包36cm ✨\n帆布拼togo皮 ZG最新涂鸦 全钢五金 手缝蜡线 \n【现货】"},"price":null,"currency":"CNY","moq":1,"category":"hermes-women-bags","status":"active","alibaba_url":null,"images":["https://xcimg.szwego.com/20240621/i1718949575_8875_0.jpg","https://xcimg.szwego.com/20240621/i1718949575_5115_1.jpg","https://xcimg.szwego.com/20240621/i1718949575_6928_2.jpg","https://xcimg.szwego.com/20240621/i1718949575_2269_3.jpg","https://xcimg.szwego.com/20240621/i1718949575_2027_4.jpg","https://xcimg.szwego.com/20240621/i1718949575_4423_5.jpg","https://xcimg.szwego.com/20240621/i1718949575_6805_6.jpg","https://xcimg.szwego.com/20240621/i1718949575_3000_7.jpg"],"created_at":"2024-10-22T05:04:33.226Z"}],"page":4,"pageSize":24,"total":439,"totalPages":19}
