{"items":[{"id":"item-b69d5365927a","sku":"_dl2l2pt5yVOgZNE9_7xFjbUgX8xFZJTWmvfyy6A","name_en":"Graden party 休闲风格系列 也是H家很著名的入门款 设计比较低调 采用tc皮拼帆布材质 性价比很高 容量杠杠滴 size:30cm","name_cn":"Graden party 休闲风格系列 也是H家很著名的入门款 设计比较低调 采用tc皮拼帆布材质 性价比很高 容量杠杠滴 size:30cm","specs":{"source":"wsxcme","sourceId":"_dl2l2pt5yVOgZNE9_7xFjbUgX8xFZJTWmvfyy6A","sourceTagId":76963559,"sourceTagName":"爱马仕/女包","rawTitle":"Graden party 休闲风格系列 也是H家很著名的入门款 设计比较低调 采用tc皮拼帆布材质 性价比很高 容量杠杠滴 size:30cm"},"price":null,"currency":"CNY","moq":1,"category":"hermes-women-bags","status":"active","alibaba_url":null,"images":["https://xcimg.szwego.com/20221119/a1668829089333_4427.jpg","https://xcimg.szwego.com/20221119/a1668829089530_2530.jpg","https://xcimg.szwego.com/20221119/a1668829089645_4087.jpg","https://xcimg.szwego.com/20221119/a1668829089744_4842.jpg","https://xcimg.szwego.com/20221119/a1668829089876_1021.jpg","https://xcimg.szwego.com/20221119/a1668829089991_8821.jpg","https://xcimg.szwego.com/20221119/a1668829090072_6520.jpg","https://xcimg.szwego.com/20221119/a1668829090123_2431.jpg","https://xcimg.szwego.com/20221119/a1668829090220_4541.jpg"],"created_at":"2024-10-22T05:00:12.143Z"},{"id":"item-a7b17da9a899","sku":"_dkfkfKs5Z4o96iIOV6FXfm8IjY-7U4al0Pdj4MQ","name_en":"Graden party 休闲风格系列 也是H家很著名的入门款 设计比较低调 采用tc皮拼帆布材质 性价比很高 容量杠杠滴 size:30cm","name_cn":"Graden party 休闲风格系列 也是H家很著名的入门款 设计比较低调 采用tc皮拼帆布材质 性价比很高 容量杠杠滴 size:30cm","specs":{"source":"wsxcme","sourceId":"_dkfkfKs5Z4o96iIOV6FXfm8IjY-7U4al0Pdj4MQ","sourceTagId":76963559,"sourceTagName":"爱马仕/女包","rawTitle":"Graden party 休闲风格系列 也是H家很著名的入门款 设计比较低调 采用tc皮拼帆布材质 性价比很高 容量杠杠滴 size:30cm"},"price":null,"currency":"CNY","moq":1,"category":"hermes-women-bags","status":"active","alibaba_url":null,"images":["https://xcimg.szwego.com/20221018/a1666072960145_6160.jpg","https://xcimg.szwego.com/20221018/a1666072960644_4265.jpg","https://xcimg.szwego.com/20221018/a1666072960758_0774.jpg","https://xcimg.szwego.com/20221018/a1666072960888_2588.jpg","https://xcimg.szwego.com/20221018/a1666072960986_0232.jpg","https://xcimg.szwego.com/20221018/a1666072961084_1381.jpg","https://xcimg.szwego.com/20221018/a1666072961216_2762.jpg","https://xcimg.szwego.com/20221018/a1666072961348_0828.jpg","https://xcimg.szwego.com/20221018/a1666072961463_2227.jpg"],"created_at":"2024-10-22T05:00:12.133Z"},{"id":"item-9961c5dba6f2","sku":"_d1y1ywIUFT-LQMQHWHwuDckBqlhnwsFbLlxRi8w","name_en":"Graden party 休闲风格系列 也是H家很著名的入门款 设计比较低调 采用tc皮拼帆布材质 性价比很高 容量杠杠滴 size:30cm","name_cn":"Graden party 休闲风格系列 也是H家很著名的入门款 设计比较低调 采用tc皮拼帆布材质 性价比很高 容量杠杠滴 size:30cm","specs":{"source":"wsxcme","sourceId":"_d1y1ywIUFT-LQMQHWHwuDckBqlhnwsFbLlxRi8w","sourceTagId":76963559,"sourceTagName":"爱马仕/女包","rawTitle":"Graden party 休闲风格系列 也是H家很著名的入门款 设计比较低调 采用tc皮拼帆布材质 性价比很高 容量杠杠滴 size:30cm"},"price":null,"currency":"CNY","moq":1,"category":"hermes-women-bags","status":"active","alibaba_url":null,"images":["https://xcimg.szwego.com/20220930/a1664504993480_6727.jpg","https://xcimg.szwego.com/20220930/a1664504993808_0378.jpg","https://xcimg.szwego.com/20220930/a1664504994066_7183.jpg","https://xcimg.szwego.com/20220930/a1664504994264_3587.jpg","https://xcimg.szwego.com/20220930/a1664504994437_0782.jpg","https://xcimg.szwego.com/20220930/a1664504994784_1751.jpg","https://xcimg.szwego.com/20220930/a1664504994978_5618.jpg","https://xcimg.szwego.com/20220930/a1664504995112_2243.jpg","https://xcimg.szwego.com/20220930/a1664504995243_1513.jpg"],"created_at":"2024-10-22T05:00:12.139Z"},{"id":"item-59806f12452f","sku":"_dhghgf9iatQeyPpRI_0jXKif3lE_9BdWh8pkFCA","name_en":"Graden party 休闲风格系列 也是H家很著名的入门款 设计比较低调 采用tc皮拼帆布材质 性价比很高 容量杠杠滴 size:30cm","name_cn":"Graden party 休闲风格系列 也是H家很著名的入门款 设计比较低调 采用tc皮拼帆布材质 性价比很高 容量杠杠滴 size:30cm","specs":{"source":"wsxcme","sourceId":"_dhghgf9iatQeyPpRI_0jXKif3lE_9BdWh8pkFCA","sourceTagId":76963559,"sourceTagName":"爱马仕/女包","rawTitle":"Graden party 休闲风格系列 也是H家很著名的入门款 设计比较低调 采用tc皮拼帆布材质 性价比很高 容量杠杠滴 size:30cm"},"price":null,"currency":"CNY","moq":1,"category":"hermes-women-bags","status":"active","alibaba_url":null,"images":["https://xcimg.szwego.com/20220930/a1664504098285_0453.jpg","https://xcimg.szwego.com/20220930/a1664504098483_5300.jpg","https://xcimg.szwego.com/20220930/a1664504098704_6020.jpg","https://xcimg.szwego.com/20220930/a1664504098866_3751.jpg","https://xcimg.szwego.com/20220930/a1664504099058_1804.jpg","https://xcimg.szwego.com/20220930/a1664504099180_4467.jpg","https://xcimg.szwego.com/20220930/a1664504099281_3884.jpg","https://xcimg.szwego.com/20220930/a1664504099423_3031.jpg","https://xcimg.szwego.com/20220930/a1664504099538_4124.jpg"],"created_at":"2024-10-22T05:00:12.138Z"},{"id":"item-3c95d2f68480","sku":"_dEmEmZvIzEue-xQSgtljAQ4_y7QEST_B_DqVttg","name_en":"Graden party 休闲风格系列 也是H家很著名的入门款 设计比较低调 采用tc皮拼帆布材质 性价比很高 容量杠杠滴 size:30cm","name_cn":"Graden party 休闲风格系列 也是H家很著名的入门款 设计比较低调 采用tc皮拼帆布材质 性价比很高 容量杠杠滴 size:30cm","specs":{"source":"wsxcme","sourceId":"_dEmEmZvIzEue-xQSgtljAQ4_y7QEST_B_DqVttg","sourceTagId":76963559,"sourceTagName":"爱马仕/女包","rawTitle":"Graden party 休闲风格系列 也是H家很著名的入门款 设计比较低调 采用tc皮拼帆布材质 性价比很高 容量杠杠滴 size:30cm"},"price":null,"currency":"CNY","moq":1,"category":"hermes-women-bags","status":"active","alibaba_url":null,"images":["https://xcimg.szwego.com/20221119/a1668828663895_4776.jpg","https://xcimg.szwego.com/20221119/a1668828664051_2583.jpg","https://xcimg.szwego.com/20221119/a1668828664143_1520.jpg","https://xcimg.szwego.com/20221119/a1668828664241_7023.jpg","https://xcimg.szwego.com/20221119/a1668828664374_2826.jpg","https://xcimg.szwego.com/20221119/a1668828664489_4554.jpg","https://xcimg.szwego.com/20221119/a1668828664612_0710.jpg","https://xcimg.szwego.com/20221119/a1668828664761_5681.jpg","https://xcimg.szwego.com/20221119/a1668828664883_1125.jpg"],"created_at":"2024-10-22T05:00:12.132Z"},{"id":"item-31755ad089fa","sku":"_dv-v-jF6AylDttS6IYCc824ebKvydBCwsTllvVA","name_en":"Graden party 休闲风格系列 也是H家很著名的入门款 设计比较低调 采用tc皮拼帆布材质 性价比很高 容量杠杠滴 size:30cm","name_cn":"Graden party 休闲风格系列 也是H家很著名的入门款 设计比较低调 采用tc皮拼帆布材质 性价比很高 容量杠杠滴 size:30cm","specs":{"source":"wsxcme","sourceId":"_dv-v-jF6AylDttS6IYCc824ebKvydBCwsTllvVA","sourceTagId":76963559,"sourceTagName":"爱马仕/女包","rawTitle":"Graden party 休闲风格系列 也是H家很著名的入门款 设计比较低调 采用tc皮拼帆布材质 性价比很高 容量杠杠滴 size:30cm"},"price":null,"currency":"CNY","moq":1,"category":"hermes-women-bags","status":"active","alibaba_url":null,"images":["https://xcimg.szwego.com/20220930/a1664505191075_7051.jpg","https://xcimg.szwego.com/20220930/a1664505191245_6347.jpg","https://xcimg.szwego.com/20220930/a1664505191393_0021.jpg","https://xcimg.szwego.com/20220930/a1664505191519_2056.jpg","https://xcimg.szwego.com/20220930/a1664505191696_0711.jpg","https://xcimg.szwego.com/20220930/a1664505191837_7260.jpg","https://xcimg.szwego.com/20220930/a1664505192052_7466.jpg","https://xcimg.szwego.com/20220930/a1664505192200_5383.jpg","https://xcimg.szwego.com/20220930/a1664505192300_7076.jpg"],"created_at":"2024-10-22T05:00:12.141Z"},{"id":"item-3153db2a8a3d","sku":"_dt4t4oCC-DBCYzq9MqXaLtNYOSTdYZX2fXPE1IQ","name_en":"Graden party 休闲风格系列 也是H家很著名的入门款 设计比较低调 采用tc皮拼帆布材质 性价比很高 容量杠杠滴 size:30cm","name_cn":"Graden party 休闲风格系列 也是H家很著名的入门款 设计比较低调 采用tc皮拼帆布材质 性价比很高 容量杠杠滴 size:30cm","specs":{"source":"wsxcme","sourceId":"_dt4t4oCC-DBCYzq9MqXaLtNYOSTdYZX2fXPE1IQ","sourceTagId":76963559,"sourceTagName":"爱马仕/女包","rawTitle":"Graden party 休闲风格系列 也是H家很著名的入门款 设计比较低调 采用tc皮拼帆布材质 性价比很高 容量杠杠滴 size:30cm"},"price":null,"currency":"CNY","moq":1,"category":"hermes-women-bags","status":"active","alibaba_url":null,"images":["https://xcimg.szwego.com/20220930/a1664504172353_2746.jpg","https://xcimg.szwego.com/20220930/a1664504172500_8482.jpg","https://xcimg.szwego.com/20220930/a1664504172662_1500.jpg","https://xcimg.szwego.com/20220930/a1664504172802_3411.jpg","https://xcimg.szwego.com/20220930/a1664504172942_3743.jpg","https://xcimg.szwego.com/20220930/a1664504173081_7101.jpg","https://xcimg.szwego.com/20220930/a1664504173175_7812.jpg","https://xcimg.szwego.com/20220930/a1664504173264_4865.jpg","https://xcimg.szwego.com/20220930/a1664504173403_8668.jpg"],"created_at":"2024-10-22T05:00:12.137Z"},{"id":"item-1cc87b9a1346","sku":"_ddjdja4Pk27e-wZ7Kv1cH0WdsUI-JZOGJCNOQ8Q","name_en":"Graden party 休闲风格系列 也是H家很著名的入门款 设计比较低调 采用tc皮拼帆布材质 性价比很高 容量杠杠滴 size:30cm","name_cn":"Graden party 休闲风格系列 也是H家很著名的入门款 设计比较低调 采用tc皮拼帆布材质 性价比很高 容量杠杠滴 size:30cm","specs":{"source":"wsxcme","sourceId":"_ddjdja4Pk27e-wZ7Kv1cH0WdsUI-JZOGJCNOQ8Q","sourceTagId":76963559,"sourceTagName":"爱马仕/女包","rawTitle":"Graden party 休闲风格系列 也是H家很著名的入门款 设计比较低调 采用tc皮拼帆布材质 性价比很高 容量杠杠滴 size:30cm"},"price":null,"currency":"CNY","moq":1,"category":"hermes-women-bags","status":"active","alibaba_url":null,"images":["https://xcimg.szwego.com/20221003/a1664770467970_8222.jpg","https://xcimg.szwego.com/20221003/a1664770468137_4054.jpg","https://xcimg.szwego.com/20221003/a1664770468334_1857.jpg","https://xcimg.szwego.com/20221003/a1664770468447_8512.jpg","https://xcimg.szwego.com/20221003/a1664770468576_4772.jpg","https://xcimg.szwego.com/20221003/a1664770468678_4367.jpg","https://xcimg.szwego.com/20221003/a1664770468819_1421.jpg","https://xcimg.szwego.com/20221003/a1664770468908_8481.jpg","https://xcimg.szwego.com/20221003/a1664770469039_3800.jpg"],"created_at":"2024-10-22T05:00:12.146Z"},{"id":"item-f2b6ce779d93","sku":"_dQcQc8ogPJQ4427O6XI-uFRUMcr3pM7J8AssA6Q","name_en":"Graden party 休闲风格系列 也是H家很著名的入门款 设计比较低调 采用tc皮拼帆布材质 性价比很高 容量杠杠滴 size:30cm 36cm","name_cn":"Graden party 休闲风格系列 也是H家很著名的入门款 设计比较低调 采用tc皮拼帆布材质 性价比很高 容量杠杠滴 size:30cm 36cm","specs":{"source":"wsxcme","sourceId":"_dQcQc8ogPJQ4427O6XI-uFRUMcr3pM7J8AssA6Q","sourceTagId":76963559,"sourceTagName":"爱马仕/女包","rawTitle":"Graden party 休闲风格系列 也是H家很著名的入门款 设计比较低调 采用tc皮拼帆布材质 性价比很高 容量杠杠滴 size:30cm 36cm"},"price":null,"currency":"CNY","moq":1,"category":"hermes-women-bags","status":"active","alibaba_url":null,"images":["https://xcimg.szwego.com/20221018/a1666073094269_6888.jpg","https://xcimg.szwego.com/20221018/a1666073094406_1166.jpg","https://xcimg.szwego.com/20221018/a1666073094493_0872.jpg","https://xcimg.szwego.com/20221018/a1666073094630_5827.jpg","https://xcimg.szwego.com/20221018/a1666073094741_6747.jpg","https://xcimg.szwego.com/20221018/a1666073094855_7347.jpg","https://xcimg.szwego.com/20221018/a1666073094953_0071.jpg","https://xcimg.szwego.com/20221018/a1666073095141_7377.jpg","https://xcimg.szwego.com/20221018/a1666073095253_3813.jpg"],"created_at":"2024-10-22T05:00:12.136Z"},{"id":"item-c6a0ff3bd596","sku":"_dxfxfcmR9k9vMduVLk70rQKNYGcdhaUuVZglXBw","name_en":"Graden party 休闲风格系列 也是H家很著名的入门款 设计比较低调 采用tc皮拼帆布材质 性价比很高 容量杠杠滴 size:30cm 36cm","name_cn":"Graden party 休闲风格系列 也是H家很著名的入门款 设计比较低调 采用tc皮拼帆布材质 性价比很高 容量杠杠滴 size:30cm 36cm","specs":{"source":"wsxcme","sourceId":"_dxfxfcmR9k9vMduVLk70rQKNYGcdhaUuVZglXBw","sourceTagId":76963559,"sourceTagName":"爱马仕/女包","rawTitle":"Graden party 休闲风格系列 也是H家很著名的入门款 设计比较低调 采用tc皮拼帆布材质 性价比很高 容量杠杠滴 size:30cm 36cm"},"price":null,"currency":"CNY","moq":1,"category":"hermes-women-bags","status":"active","alibaba_url":null,"images":["https://xcimg.szwego.com/20221001/a1664625341743_7572.jpg","https://xcimg.szwego.com/20221001/a1664625341914_1554.jpg","https://xcimg.szwego.com/20221001/a1664625342113_7076.jpg","https://xcimg.szwego.com/20221001/a1664625342257_4450.jpg","https://xcimg.szwego.com/20221001/a1664625342355_4504.jpg","https://xcimg.szwego.com/20221001/a1664625342461_5011.jpg","https://xcimg.szwego.com/20221001/a1664625342572_4451.jpg","https://xcimg.szwego.com/20221001/a1664625342680_6276.jpg","https://xcimg.szwego.com/20221001/a1664625342803_6400.jpg"],"created_at":"2024-10-22T05:00:12.135Z"},{"id":"item-b5bc4d8eec8f","sku":"_djJjJhgXLMKUsBn1M2SFhgARufjKOASY5iE-ZNQ","name_en":"Graden party 休闲风格系列 也是H家很著名的入门款 设计比较低调 采用tc皮拼帆布材质 性价比很高 容量杠杠滴 size:30cm 36cm","name_cn":"Graden party 休闲风格系列 也是H家很著名的入门款 设计比较低调 采用tc皮拼帆布材质 性价比很高 容量杠杠滴 size:30cm 36cm","specs":{"source":"wsxcme","sourceId":"_djJjJhgXLMKUsBn1M2SFhgARufjKOASY5iE-ZNQ","sourceTagId":76963559,"sourceTagName":"爱马仕/女包","rawTitle":"Graden party 休闲风格系列 也是H家很著名的入门款 设计比较低调 采用tc皮拼帆布材质 性价比很高 容量杠杠滴 size:30cm 36cm"},"price":null,"currency":"CNY","moq":1,"category":"hermes-women-bags","status":"active","alibaba_url":null,"images":["https://xcimg.szwego.com/20221018/a1666073017099_2120.jpg","https://xcimg.szwego.com/20221018/a1666073017310_4186.jpg","https://xcimg.szwego.com/20221018/a1666073017427_4861.jpg","https://xcimg.szwego.com/20221018/a1666073017526_0434.jpg","https://xcimg.szwego.com/20221018/a1666073017624_6560.jpg","https://xcimg.szwego.com/20221018/a1666073017723_0700.jpg","https://xcimg.szwego.com/20221018/a1666073017821_7455.jpg","https://xcimg.szwego.com/20221018/a1666073017944_0113.jpg","https://xcimg.szwego.com/20221018/a1666073018087_2584.jpg"],"created_at":"2024-10-22T05:00:12.134Z"},{"id":"item-ee465b8a6e95","sku":"_djKjKEwH2lJzp8dy6F6X4pRpiFXbzrRA7q9v0vg","name_en":"H Limited edition","name_cn":"H Limited edition\nBk42 帆布橙色/box calf leather and cavas palladium hardware","specs":{"source":"wsxcme","sourceId":"_djKjKEwH2lJzp8dy6F6X4pRpiFXbzrRA7q9v0vg","sourceTagId":76963559,"sourceTagName":"爱马仕/女包","rawTitle":"H Limited edition\nBk42 帆布橙色/box calf leather and cavas palladium hardware"},"price":null,"currency":"CNY","moq":1,"category":"hermes-women-bags","status":"active","alibaba_url":null,"images":["https://xcimg.szwego.com/20230102/a1672663225338_5233.jpg","https://xcimg.szwego.com/20230102/a1672663225606_2288.jpg","https://xcimg.szwego.com/20230102/a1672663226071_0864.jpg","https://xcimg.szwego.com/20230102/a1672663226162_7888.jpg","https://xcimg.szwego.com/20230102/a1672663226375_0676.jpg","https://xcimg.szwego.com/20230102/a1672663226917_7304.jpg"],"created_at":"2024-10-22T05:00:12.213Z"},{"id":"item-e7198904dcbc","sku":"_dxpxpi5a5mVki_LCCErWqQD4SqP4ADQt6gKT3Qw","name_en":"H Limited edition","name_cn":"H Limited edition\nBk30 帆布橙色/box calf leather and cavas palladium hardware","specs":{"source":"wsxcme","sourceId":"_dxpxpi5a5mVki_LCCErWqQD4SqP4ADQt6gKT3Qw","sourceTagId":76963559,"sourceTagName":"爱马仕/女包","rawTitle":"H Limited edition\nBk30 帆布橙色/box calf leather and cavas palladium hardware"},"price":null,"currency":"CNY","moq":1,"category":"hermes-women-bags","status":"active","alibaba_url":null,"images":["https://xcimg.szwego.com/20230102/a1672662899380_7023.jpg","https://xcimg.szwego.com/20230102/a1672662900427_3646.jpg","https://xcimg.szwego.com/20230102/a1672662900740_7282.jpg","https://xcimg.szwego.com/20230102/a1672662901014_4644.jpg","https://xcimg.szwego.com/20230102/a1672662901558_0810.jpg","https://xcimg.szwego.com/20230102/a1672662901860_2647.jpg"],"created_at":"2024-10-22T05:00:12.212Z"},{"id":"item-ee3f8fe934e8","sku":"_dxDxD06Zr737OhoLxkseSimevXg9sf1JWLOfKcw","name_en":"H Mɪɴɪ Kᴇʟʟʏ 19","name_cn":"H Mɪɴɪ Kᴇʟʟʏ 19\n_奶昔白_金扣_\n• 独家高性价比版本\n• 里外全皮完美机缝\n• Mini包中的霸主\n“麻雀虽小、五脏俱全”🎁 除了可以携带随身所需小物_更可容纳品味 将品味“背着走”。\n现货19Cm 7878080","specs":{"source":"wsxcme","sourceId":"_dxDxD06Zr737OhoLxkseSimevXg9sf1JWLOfKcw","sourceTagId":76963559,"sourceTagName":"爱马仕/女包","rawTitle":"H Mɪɴɪ Kᴇʟʟʏ 19\n_奶昔白_金扣_\n• 独家高性价比版本\n• 里外全皮完美机缝\n• Mini包中的霸主\n“麻雀虽小、五脏俱全”🎁 除了可以携带随身所需小物_更可容纳品味 将品味“背着走”。\n现货19Cm 7878080"},"price":null,"currency":"CNY","moq":1,"category":"hermes-women-bags","status":"active","alibaba_url":null,"images":["https://xcimg.szwego.com/img/b17e98d7/20240624/i1719222465_3473_4.jpg","https://xcimg.szwego.com/img/b17e98d7/20240624/i1719222465_6334_0.jpg","https://xcimg.szwego.com/img/b17e98d7/20240624/i1719222465_5480_7.jpg","https://xcimg.szwego.com/img/b17e98d7/20240624/i1719222465_4233_1.jpg","https://xcimg.szwego.com/img/b17e98d7/20240624/i1719222465_5337_6.jpg","https://xcimg.szwego.com/img/b17e98d7/20240624/i1719222465_5975_2.jpg","https://xcimg.szwego.com/img/b17e98d7/20240624/i1719222465_176_3.jpg","https://xcimg.szwego.com/img/b17e98d7/20240624/i1719222465_5182_5.jpg","https://xcimg.szwego.com/img/b17e98d7/20240624/i1719222465_867_8.jpg"],"created_at":"2024-10-22T05:04:33.156Z"},{"id":"item-a5b0cbfe9ef2","sku":"_djOjOCwrOPK6e4USqO5Znl1SHTQEhTTNwb4XAbA","name_en":"H Picotin 14印花涂鸦款","name_cn":"H Picotin 14印花涂鸦款\n进入浪漫💕的倒计时⏳......如果说男人至死是少年,那么每个女人心中永远住着一个小公主👸,期待甜蜜又简单的幸福感,那么从这只小印花菜篮🧺开始......","specs":{"source":"wsxcme","sourceId":"_djOjOCwrOPK6e4USqO5Znl1SHTQEhTTNwb4XAbA","sourceTagId":76963559,"sourceTagName":"爱马仕/女包","rawTitle":"H Picotin 14印花涂鸦款\n进入浪漫💕的倒计时⏳......如果说男人至死是少年,那么每个女人心中永远住着一个小公主👸,期待甜蜜又简单的幸福感,那么从这只小印花菜篮🧺开始......"},"price":null,"currency":"CNY","moq":1,"category":"hermes-women-bags","status":"active","alibaba_url":null,"images":["https://xcimg.szwego.com/20221005/a1664941915170_8005.jpg","https://xcimg.szwego.com/20221005/a1664941915335_2640.jpg","https://xcimg.szwego.com/20221005/a1664941915553_1586.jpg","https://xcimg.szwego.com/20221005/a1664941915702_0537.jpg","https://xcimg.szwego.com/20221005/a1664941915949_4747.jpg","https://xcimg.szwego.com/20221005/a1664941916152_1570.jpg","https://xcimg.szwego.com/20221005/a1664941916319_3834.jpg","https://xcimg.szwego.com/20221005/a1664941916770_7440.jpg"],"created_at":"2024-10-22T04:49:50.745Z"},{"id":"item-262b6f0de2a5","sku":"_dhrhrY5auezL5-QuTDNtwgno0jJqCc6sKh2ouKg","name_en":"H Picotin 14印花涂鸦款","name_cn":"H Picotin 14印花涂鸦款\n进入浪漫💕的倒计时⏳......如果说男人至死是少年,那么每个女人心中永远住着一个小公主👸,期待甜蜜又简单的幸福感,那么从这只小印花菜篮🧺开始......","specs":{"source":"wsxcme","sourceId":"_dhrhrY5auezL5-QuTDNtwgno0jJqCc6sKh2ouKg","sourceTagId":76963559,"sourceTagName":"爱马仕/女包","rawTitle":"H Picotin 14印花涂鸦款\n进入浪漫💕的倒计时⏳......如果说男人至死是少年,那么每个女人心中永远住着一个小公主👸,期待甜蜜又简单的幸福感,那么从这只小印花菜篮🧺开始......"},"price":null,"currency":"CNY","moq":1,"category":"hermes-women-bags","status":"active","alibaba_url":null,"images":["https://xcimg.szwego.com/20221005/a1664942188223_2814.jpg","https://xcimg.szwego.com/20221005/a1664942188395_8605.jpg","https://xcimg.szwego.com/20221005/a1664942188661_7372.jpg","https://xcimg.szwego.com/20221005/a1664942188754_1528.jpg","https://xcimg.szwego.com/20221005/a1664942189060_8038.jpg","https://xcimg.szwego.com/20221005/a1664942189143_6148.jpg","https://xcimg.szwego.com/20221005/a1664942189392_3316.jpg","https://xcimg.szwego.com/20221005/a1664942189548_0835.jpg","https://xcimg.szwego.com/20221005/a1664942189803_3538.jpg"],"created_at":"2024-10-22T04:49:50.747Z"},{"id":"item-36ad5ef5ed21","sku":"_deGeGXFOy3nmXIvo3fbbGQEQZTyUjGfPRMTAbeQ","name_en":"H Picotin 18印花涂鸦款","name_cn":"H Picotin 18印花涂鸦款\n进入浪漫💕的倒计时⏳......如果说男人至死是少年,那么每个女人心中永远住着一个小公主👸,期待甜蜜又简单的幸福感,那么从这只小印花菜篮🧺开始......","specs":{"source":"wsxcme","sourceId":"_deGeGXFOy3nmXIvo3fbbGQEQZTyUjGfPRMTAbeQ","sourceTagId":76963559,"sourceTagName":"爱马仕/女包","rawTitle":"H Picotin 18印花涂鸦款\n进入浪漫💕的倒计时⏳......如果说男人至死是少年,那么每个女人心中永远住着一个小公主👸,期待甜蜜又简单的幸福感,那么从这只小印花菜篮🧺开始......"},"price":null,"currency":"CNY","moq":1,"category":"hermes-women-bags","status":"active","alibaba_url":null,"images":["https://xcimg.szwego.com/20221005/a1664941968079_2877.jpg","https://xcimg.szwego.com/20221005/a1664941968314_5410.jpg","https://xcimg.szwego.com/20221005/a1664941968529_3673.jpg","https://xcimg.szwego.com/20221005/a1664941968981_6038.jpg","https://xcimg.szwego.com/20221005/a1664941968982_4325.jpg","https://xcimg.szwego.com/20221005/a1664941969207_3213.jpg","https://xcimg.szwego.com/20221005/a1664941969433_1781.jpg","https://xcimg.szwego.com/20221005/a1664941969700_0801.jpg"],"created_at":"2024-10-22T04:49:50.746Z"},{"id":"item-75895e1e98fc","sku":"_d9R9RDKQCwU9DNKJZsHbsazP9Qhz8ZDl_CfISPA","name_en":"H Picotin 18印花涂鸦款 进入浪漫💕的倒计时⏳......如果说男人至死是少年,那么每个女人心中永远住着一个小公主👸,期待甜蜜又简单的幸福感,那么从这只小印花菜篮🧺开始......","name_cn":"H Picotin 18印花涂鸦款 进入浪漫💕的倒计时⏳......如果说男人至死是少年,那么每个女人心中永远住着一个小公主👸,期待甜蜜又简单的幸福感,那么从这只小印花菜篮🧺开始......","specs":{"source":"wsxcme","sourceId":"_d9R9RDKQCwU9DNKJZsHbsazP9Qhz8ZDl_CfISPA","sourceTagId":76963559,"sourceTagName":"爱马仕/女包","rawTitle":"H Picotin 18印花涂鸦款 进入浪漫💕的倒计时⏳......如果说男人至死是少年,那么每个女人心中永远住着一个小公主👸,期待甜蜜又简单的幸福感,那么从这只小印花菜篮🧺开始......"},"price":null,"currency":"CNY","moq":1,"category":"hermes-women-bags","status":"active","alibaba_url":null,"images":["https://xcimg.szwego.com/20221005/a1664942232233_5143.jpg","https://xcimg.szwego.com/20221005/a1664942232454_3683.jpg","https://xcimg.szwego.com/20221005/a1664942232643_7263.jpg","https://xcimg.szwego.com/20221005/a1664942232849_0220.jpg","https://xcimg.szwego.com/20221005/a1664942233273_7338.jpg","https://xcimg.szwego.com/20221005/a1664942233303_5038.jpg","https://xcimg.szwego.com/20221005/a1664942233512_7883.jpg","https://xcimg.szwego.com/20221005/a1664942233699_8374.jpg","https://xcimg.szwego.com/20221005/a1664942233928_1035.jpg"],"created_at":"2024-10-22T04:49:50.748Z"},{"id":"item-188dcd7d3ec2","sku":"_dEZEZreVT7pTLY0Jn0rfyMN1HMm9BNLrTP4tcSA","name_en":"H Picotin 18印花涂鸦款 进入浪漫💕的倒计时⏳......如果说男人至死是少年,那么每个女人心中永远住着一个小公主👸,期待甜蜜又简单的幸福感,那么从这只小印花菜篮🧺开始......","name_cn":"H Picotin 18印花涂鸦款 进入浪漫💕的倒计时⏳......如果说男人至死是少年,那么每个女人心中永远住着一个小公主👸,期待甜蜜又简单的幸福感,那么从这只小印花菜篮🧺开始......","specs":{"source":"wsxcme","sourceId":"_dEZEZreVT7pTLY0Jn0rfyMN1HMm9BNLrTP4tcSA","sourceTagId":76963559,"sourceTagName":"爱马仕/女包","rawTitle":"H Picotin 18印花涂鸦款 进入浪漫💕的倒计时⏳......如果说男人至死是少年,那么每个女人心中永远住着一个小公主👸,期待甜蜜又简单的幸福感,那么从这只小印花菜篮🧺开始......"},"price":null,"currency":"CNY","moq":1,"category":"hermes-women-bags","status":"active","alibaba_url":null,"images":["https://xcimg.szwego.com/20221005/a1664941346946_2010.jpg","https://xcimg.szwego.com/20221005/a1664941347148_6721.jpg","https://xcimg.szwego.com/20221005/a1664941347480_7654.jpg","https://xcimg.szwego.com/20221005/a1664941347553_8381.jpg","https://xcimg.szwego.com/20221005/a1664941347953_5030.jpg","https://xcimg.szwego.com/20221005/a1664941348128_3268.jpg","https://xcimg.szwego.com/20221005/a1664941348296_4365.jpg","https://xcimg.szwego.com/20221005/a1664941348568_4203.jpg","https://xcimg.szwego.com/20221005/a1664941348830_2673.jpg"],"created_at":"2024-10-22T04:49:50.744Z"},{"id":"item-e50da7875295","sku":"_d-e-elc_lZzpkmfGWdqIS8dK_vt408td4tz7z6A","name_en":"H-Hᴇʀᴍᴇs sᴛᴇᴇᴘʟᴇ 🌈","name_cn":"H-Hᴇʀᴍᴇs sᴛᴇᴇᴘʟᴇ 🌈\n\nStyle :『托特购物袋』\n工匠之手赋予的灵魂造型 只一眼就能让你记住的标志性风格❤️‍🔥\n以人为本的价值观 致力于环境资源的保护 选用天然进口帆布材质 好看好用~一定要入坑~各式各样的图案设计!\n放心真的不会看花眼 款款精品 个个独特~\n\nSize 尺寸:28 28.5 17cm","specs":{"source":"wsxcme","sourceId":"_d-e-elc_lZzpkmfGWdqIS8dK_vt408td4tz7z6A","sourceTagId":76963559,"sourceTagName":"爱马仕/女包","rawTitle":"H-Hᴇʀᴍᴇs sᴛᴇᴇᴘʟᴇ 🌈\n\nStyle :『托特购物袋』\n工匠之手赋予的灵魂造型 只一眼就能让你记住的标志性风格❤️‍🔥\n以人为本的价值观 致力于环境资源的保护 选用天然进口帆布材质 好看好用~一定要入坑~各式各样的图案设计!\n放心真的不会看花眼 款款精品 个个独特~\n\nSize 尺寸:28 28.5 17cm"},"price":null,"currency":"CNY","moq":1,"category":"hermes-women-bags","status":"active","alibaba_url":null,"images":["https://xcimg.szwego.com/img/b17e98d7/20240914/i1726316566_4465_8.jpg","https://xcimg.szwego.com/img/b17e98d7/20240914/i1726316566_2974_4.jpg","https://xcimg.szwego.com/img/b17e98d7/20240914/i1726316566_2858_1.jpg","https://xcimg.szwego.com/img/b17e98d7/20240914/i1726316566_3742_7.jpg","https://xcimg.szwego.com/img/b17e98d7/20240914/i1726316566_8518_0.jpg","https://xcimg.szwego.com/img/b17e98d7/20240914/i1726316566_8723_3.jpg","https://xcimg.szwego.com/img/b17e98d7/20240914/i1726316566_7729_2.jpg","https://xcimg.szwego.com/img/b17e98d7/20240914/i1726316566_8874_5.jpg","https://xcimg.szwego.com/img/b17e98d7/20240914/i1726316566_3010_6.jpg"],"created_at":"2025-01-20T12:29:05.586Z"},{"id":"item-9156964e7f67","sku":"_ddEdEUL5vnM3J-O3xb9CE7RXtLMibaBpiC_sdiQ","name_en":"H-Hᴇʀᴍᴇs sᴛᴇᴇᴘʟᴇ 🌈","name_cn":"H-Hᴇʀᴍᴇs sᴛᴇᴇᴘʟᴇ 🌈\n\nStyle :『托特购物袋』\n工匠之手赋予的灵魂造型 只一眼就能让你记住的标志性风格❤️‍🔥\n以人为本的价值观 致力于环境资源的保护 选用天然进口帆布材质 好看好用~一定要入坑~各式各样的图案设计!\n放心真的不会看花眼 款款精品 个个独特~\n\nSize 尺寸:28 28.5 17cm","specs":{"source":"wsxcme","sourceId":"_ddEdEUL5vnM3J-O3xb9CE7RXtLMibaBpiC_sdiQ","sourceTagId":76963559,"sourceTagName":"爱马仕/女包","rawTitle":"H-Hᴇʀᴍᴇs sᴛᴇᴇᴘʟᴇ 🌈\n\nStyle :『托特购物袋』\n工匠之手赋予的灵魂造型 只一眼就能让你记住的标志性风格❤️‍🔥\n以人为本的价值观 致力于环境资源的保护 选用天然进口帆布材质 好看好用~一定要入坑~各式各样的图案设计!\n放心真的不会看花眼 款款精品 个个独特~\n\nSize 尺寸:28 28.5 17cm"},"price":null,"currency":"CNY","moq":1,"category":"hermes-women-bags","status":"active","alibaba_url":null,"images":["https://xcimg.szwego.com/img/b17e98d7/20240914/i1726316450_3893_8.jpg","https://xcimg.szwego.com/img/b17e98d7/20240914/i1726316450_8735_2.jpg","https://xcimg.szwego.com/img/b17e98d7/20240914/i1726316450_7767_4.jpg","https://xcimg.szwego.com/img/b17e98d7/20240914/i1726316450_1844_0.jpg","https://xcimg.szwego.com/img/b17e98d7/20240914/i1726316450_1559_7.jpg","https://xcimg.szwego.com/img/b17e98d7/20240914/i1726316450_5342_3.jpg","https://xcimg.szwego.com/img/b17e98d7/20240914/i1726316450_5226_1.jpg","https://xcimg.szwego.com/img/b17e98d7/20240914/i1726316450_9120_5.jpg","https://xcimg.szwego.com/img/b17e98d7/20240914/i1726316450_7022_6.jpg"],"created_at":"2025-01-20T12:29:05.588Z"},{"id":"item-734454120178","sku":"_dJDJDaWijKYdiqSFYkLIpXZ9adY65DIXsg9D9NQ","name_en":"H-Hᴇʀᴍᴇs sᴛᴇᴇᴘʟᴇ 🌈","name_cn":"H-Hᴇʀᴍᴇs sᴛᴇᴇᴘʟᴇ 🌈\n\nStyle :『托特购物袋』\n工匠之手赋予的灵魂造型 只一眼就能让你记住的标志性风格❤️‍🔥\n以人为本的价值观 致力于环境资源的保护 选用天然进口帆布材质 好看好用~一定要入坑~各式各样的图案设计!\n放心真的不会看花眼 款款精品 个个独特~\n\nSize 尺寸:28 28.5 17cm","specs":{"source":"wsxcme","sourceId":"_dJDJDaWijKYdiqSFYkLIpXZ9adY65DIXsg9D9NQ","sourceTagId":76963559,"sourceTagName":"爱马仕/女包","rawTitle":"H-Hᴇʀᴍᴇs sᴛᴇᴇᴘʟᴇ 🌈\n\nStyle :『托特购物袋』\n工匠之手赋予的灵魂造型 只一眼就能让你记住的标志性风格❤️‍🔥\n以人为本的价值观 致力于环境资源的保护 选用天然进口帆布材质 好看好用~一定要入坑~各式各样的图案设计!\n放心真的不会看花眼 款款精品 个个独特~\n\nSize 尺寸:28 28.5 17cm"},"price":null,"currency":"CNY","moq":1,"category":"hermes-women-bags","status":"active","alibaba_url":null,"images":["https://xcimg.szwego.com/img/b17e98d7/20240914/i1726316186_9593_7.jpg","https://xcimg.szwego.com/img/b17e98d7/20240914/i1726316186_7613_3.jpg","https://xcimg.szwego.com/img/b17e98d7/20240914/i1726316186_1567_6.jpg","https://xcimg.szwego.com/img/b17e98d7/20240914/i1726316186_8495_5.jpg","https://xcimg.szwego.com/img/b17e98d7/20240914/i1726316186_6602_1.jpg","https://xcimg.szwego.com/img/b17e98d7/20240914/i1726316186_7746_0.jpg","https://xcimg.szwego.com/img/b17e98d7/20240914/i1726316186_6449_2.jpg","https://xcimg.szwego.com/img/b17e98d7/20240914/i1726316186_2922_8.jpg","https://xcimg.szwego.com/img/b17e98d7/20240914/i1726316186_6859_4.jpg"],"created_at":"2025-01-20T12:29:05.587Z"},{"id":"item-64fc8333b450","sku":"_dt0t0pHZe259jo1ZXop_W2S_p7KKNtmxw3wwOKg","name_en":"H-Hᴇʀᴍᴇs sᴛᴇᴇᴘʟᴇ 🌈","name_cn":"H-Hᴇʀᴍᴇs sᴛᴇᴇᴘʟᴇ 🌈\n\nStyle :『托特购物袋』\n工匠之手赋予的灵魂造型 只一眼就能让你记住的标志性风格❤️‍🔥\n以人为本的价值观 致力于环境资源的保护 选用天然进口帆布材质 好看好用~一定要入坑~各式各样的图案设计!\n放心真的不会看花眼 款款精品 个个独特~\n\nSize 尺寸:28 28.5 17cm","specs":{"source":"wsxcme","sourceId":"_dt0t0pHZe259jo1ZXop_W2S_p7KKNtmxw3wwOKg","sourceTagId":76963559,"sourceTagName":"爱马仕/女包","rawTitle":"H-Hᴇʀᴍᴇs sᴛᴇᴇᴘʟᴇ 🌈\n\nStyle :『托特购物袋』\n工匠之手赋予的灵魂造型 只一眼就能让你记住的标志性风格❤️‍🔥\n以人为本的价值观 致力于环境资源的保护 选用天然进口帆布材质 好看好用~一定要入坑~各式各样的图案设计!\n放心真的不会看花眼 款款精品 个个独特~\n\nSize 尺寸:28 28.5 17cm"},"price":null,"currency":"CNY","moq":1,"category":"hermes-women-bags","status":"active","alibaba_url":null,"images":["https://xcimg.szwego.com/img/b17e98d7/20240914/i1726316230_999_5.jpg","https://xcimg.szwego.com/img/b17e98d7/20240914/i1726316230_9485_4.jpg","https://xcimg.szwego.com/img/b17e98d7/20240914/i1726316231_8651_8.jpg","https://xcimg.szwego.com/img/b17e98d7/20240914/i1726316230_7523_3.jpg","https://xcimg.szwego.com/img/b17e98d7/20240914/i1726316230_8308_6.jpg","https://xcimg.szwego.com/img/b17e98d7/20240914/i1726316230_1385_0.jpg","https://xcimg.szwego.com/img/b17e98d7/20240914/i1726316230_2221_2.jpg","https://xcimg.szwego.com/img/b17e98d7/20240914/i1726316230_1780_1.jpg","https://xcimg.szwego.com/img/b17e98d7/20240914/i1726316231_4574_7.jpg"],"created_at":"2025-01-20T12:29:05.604Z"},{"id":"item-3d2dabf0a9c5","sku":"_dqqqqNILGyi3qdpM0gI0qGUzHOxIPKOBlflI_3A","name_en":"H-Hᴇʀᴍᴇs sᴛᴇᴇᴘʟᴇ 🌈","name_cn":"H-Hᴇʀᴍᴇs sᴛᴇᴇᴘʟᴇ 🌈\n\nStyle :『托特购物袋』\n工匠之手赋予的灵魂造型 只一眼就能让你记住的标志性风格❤️‍🔥\n以人为本的价值观 致力于环境资源的保护 选用天然进口帆布材质 好看好用~一定要入坑~各式各样的图案设计!\n放心真的不会看花眼 款款精品 个个独特~\n\nSize 尺寸:28 28.5 17cm","specs":{"source":"wsxcme","sourceId":"_dqqqqNILGyi3qdpM0gI0qGUzHOxIPKOBlflI_3A","sourceTagId":76963559,"sourceTagName":"爱马仕/女包","rawTitle":"H-Hᴇʀᴍᴇs sᴛᴇᴇᴘʟᴇ 🌈\n\nStyle :『托特购物袋』\n工匠之手赋予的灵魂造型 只一眼就能让你记住的标志性风格❤️‍🔥\n以人为本的价值观 致力于环境资源的保护 选用天然进口帆布材质 好看好用~一定要入坑~各式各样的图案设计!\n放心真的不会看花眼 款款精品 个个独特~\n\nSize 尺寸:28 28.5 17cm"},"price":null,"currency":"CNY","moq":1,"category":"hermes-women-bags","status":"active","alibaba_url":null,"images":["https://xcimg.szwego.com/img/b17e98d7/20240914/i1726316371_4024_4.jpg","https://xcimg.szwego.com/img/b17e98d7/20240914/i1726316371_9709_6.jpg","https://xcimg.szwego.com/img/b17e98d7/20240914/i1726316371_5956_3.jpg","https://xcimg.szwego.com/img/b17e98d7/20240914/i1726316371_3810_8.jpg","https://xcimg.szwego.com/img/b17e98d7/20240914/i1726316371_3524_5.jpg","https://xcimg.szwego.com/img/b17e98d7/20240914/i1726316371_9494_2.jpg","https://xcimg.szwego.com/img/b17e98d7/20240914/i1726316371_1577_1.jpg","https://xcimg.szwego.com/img/b17e98d7/20240914/i1726316371_4299_7.jpg","https://xcimg.szwego.com/img/b17e98d7/20240914/i1726316371_9422_0.jpg"],"created_at":"2025-01-20T12:29:05.602Z"}],"page":13,"pageSize":24,"total":439,"totalPages":19}
