{"items":[{"id":"item-7a46feee33b7","sku":"_dmXmX8oK9PjvY9qVnsSamwVNcUOSDG62rhQhWiw","name_en":"Constance ❷❸","name_cn":"Constance ❷❸\n ⸝⸝⸝奶昔白\n\n ʚ又叫空姐包 康康或者小方包.\n极简主义设计_百搭时尚单品~ \n吸睛而不张扬 选择的人自然多!\n实拍 金扣 \n18cm23cm","specs":{"source":"wsxcme","sourceId":"_dmXmX8oK9PjvY9qVnsSamwVNcUOSDG62rhQhWiw","sourceTagId":76963559,"sourceTagName":"爱马仕/女包","rawTitle":"Constance ❷❸\n ⸝⸝⸝奶昔白\n\n ʚ又叫空姐包 康康或者小方包.\n极简主义设计_百搭时尚单品~ \n吸睛而不张扬 选择的人自然多!\n实拍 金扣 \n18cm23cm"},"price":null,"currency":"CNY","moq":1,"category":"hermes-women-bags","status":"active","alibaba_url":null,"images":["https://xcimg.szwego.com/20221105/i1667623963_7678_0.jpg","https://xcimg.szwego.com/20221105/i1667623963_6891_1.jpg","https://xcimg.szwego.com/20221105/i1667623963_223_2.jpg","https://xcimg.szwego.com/20221105/i1667623963_8019_3.jpg","https://xcimg.szwego.com/20221105/i1667623963_3545_4.jpg","https://xcimg.szwego.com/20221105/i1667623963_689_5.jpg","https://xcimg.szwego.com/20221105/i1667623963_2007_6.jpg","https://xcimg.szwego.com/20221105/i1667623963_3962_8.jpg"],"created_at":"2025-01-20T12:29:05.616Z"},{"id":"item-c8207eccdd55","sku":"_dirirA7SsDbJrxbVsVyfaP-uowHCxR-14r0f7sA","name_en":"Dream bag","name_cn":"Dream bag \n❷❺🅒🅜\n♥ Bɪʀᴋɪɴ 黑银\n\n相信就算对时尚不感兴趣的人都应该知道Birkin Bag铂金包的大名🥂.\n而在众多奢侈品包包中,出镜最高频率,也最亮眼的就是爱马仕的铂金包〰️\n\n25cm","specs":{"source":"wsxcme","sourceId":"_dirirA7SsDbJrxbVsVyfaP-uowHCxR-14r0f7sA","sourceTagId":76963559,"sourceTagName":"爱马仕/女包","rawTitle":"Dream bag \n❷❺🅒🅜\n♥ Bɪʀᴋɪɴ 黑银\n\n相信就算对时尚不感兴趣的人都应该知道Birkin Bag铂金包的大名🥂.\n而在众多奢侈品包包中,出镜最高频率,也最亮眼的就是爱马仕的铂金包〰️\n\n25cm"},"price":null,"currency":"CNY","moq":1,"category":"hermes-women-bags","status":"active","alibaba_url":null,"images":["https://xcimg.szwego.com/20230212/i1676176128_6350_0.jpg","https://xcimg.szwego.com/20230212/i1676176128_2360_1.jpg","https://xcimg.szwego.com/20230212/i1676176128_7694_2.jpg","https://xcimg.szwego.com/20230212/i1676176128_2484_3.jpg","https://xcimg.szwego.com/20230212/i1676176128_2712_4.jpg","https://xcimg.szwego.com/20230212/i1676176128_3675_5.jpg","https://xcimg.szwego.com/20230212/i1676176128_8330_6.jpg","https://xcimg.szwego.com/20230212/i1676176128_1177_7.jpg","https://xcimg.szwego.com/20230212/i1676176128_34_8.jpg"],"created_at":"2025-01-20T12:29:05.610Z"},{"id":"item-97e7282aa576","sku":"_dpnpn2o4nfN44G70vrtO_nXg86AlBtBIci8oPiQ","name_en":"Dream bag","name_cn":"Dream bag \n♥ Bɪʀᴋɪɴ 大象灰/银\n\n相信就算对时尚不感兴趣的人都应该知道Birkin Bag铂金包的大名🥂.\n而在众多奢侈品包包中,出镜最高频率,也最亮眼的就是爱马仕的铂金包〰️\n25cm","specs":{"source":"wsxcme","sourceId":"_dpnpn2o4nfN44G70vrtO_nXg86AlBtBIci8oPiQ","sourceTagId":76963559,"sourceTagName":"爱马仕/女包","rawTitle":"Dream bag \n♥ Bɪʀᴋɪɴ 大象灰/银\n\n相信就算对时尚不感兴趣的人都应该知道Birkin Bag铂金包的大名🥂.\n而在众多奢侈品包包中,出镜最高频率,也最亮眼的就是爱马仕的铂金包〰️\n25cm"},"price":null,"currency":"CNY","moq":1,"category":"hermes-women-bags","status":"active","alibaba_url":null,"images":["https://xcimg.szwego.com/20210612/i1623485687_9352_0.jpg","https://xcimg.szwego.com/20210612/i1623485687_6450_1.jpg","https://xcimg.szwego.com/20210612/i1623485687_1887_2.jpg","https://xcimg.szwego.com/20210612/i1623485687_9693_3.jpg","https://xcimg.szwego.com/20210612/i1623485687_226_4.jpg","https://xcimg.szwego.com/20210612/i1623485687_703_5.jpg","https://xcimg.szwego.com/20210612/i1623485687_9249_6.jpg","https://xcimg.szwego.com/20210612/i1623485687_7003_7.jpg","https://xcimg.szwego.com/20210612/i1623485687_616_8.jpg"],"created_at":"2025-01-20T12:29:05.609Z"},{"id":"item-d7e3975c212b","sku":"_dtKtKIz7EGrOYDpB3aYJRdQ_MoXhAgVWKYJVogA","name_en":"Ep对版十字纹现货黑,大象灰,金棕,奶昔白","name_cn":"Ep对版十字纹现货黑,大象灰,金棕,奶昔白\n新款 kelly elan,时尚的轮回,可以当腋下包和手拿包,真的把一代替代了\n简直不要太美\n拼手速啦,今年必种草款,宝子们","specs":{"source":"wsxcme","sourceId":"_dtKtKIz7EGrOYDpB3aYJRdQ_MoXhAgVWKYJVogA","sourceTagId":76963559,"sourceTagName":"爱马仕/女包","rawTitle":"Ep对版十字纹现货黑,大象灰,金棕,奶昔白\n新款 kelly elan,时尚的轮回,可以当腋下包和手拿包,真的把一代替代了\n简直不要太美\n拼手速啦,今年必种草款,宝子们"},"price":null,"currency":"CNY","moq":1,"category":"hermes-women-bags","status":"active","alibaba_url":null,"images":["https://xcimg.szwego.com/20230907/i1694070988_3185_0.jpg","https://xcimg.szwego.com/20230907/i1694070988_6732_1.jpg","https://xcimg.szwego.com/20230907/i1694070988_136_2.jpg","https://xcimg.szwego.com/20230907/i1694070988_6187_3.jpg","https://xcimg.szwego.com/20230907/i1694070988_6597_4.jpg","https://xcimg.szwego.com/20230907/i1694070988_4894_5.jpg","https://xcimg.szwego.com/20230907/i1694070988_6688_6.jpg","https://xcimg.szwego.com/20230907/i1694070988_4311_7.jpg"],"created_at":"2024-10-22T04:49:50.789Z"},{"id":"item-c0b6fe3997b9","sku":"_dCmCmSzbrotsiCDg_oMe_cNpdFNIXLSNJ60chBw","name_en":"Ep对版十字纹现货黑,大象灰,金棕,奶昔白","name_cn":"Ep对版十字纹现货黑,大象灰,金棕,奶昔白\n新款 kelly elan,时尚的轮回,可以当腋下包和手拿包,真的把一代替代了\n简直不要太美\n拼手速啦,今年必种草款,宝子们","specs":{"source":"wsxcme","sourceId":"_dCmCmSzbrotsiCDg_oMe_cNpdFNIXLSNJ60chBw","sourceTagId":76963559,"sourceTagName":"爱马仕/女包","rawTitle":"Ep对版十字纹现货黑,大象灰,金棕,奶昔白\n新款 kelly elan,时尚的轮回,可以当腋下包和手拿包,真的把一代替代了\n简直不要太美\n拼手速啦,今年必种草款,宝子们"},"price":null,"currency":"CNY","moq":1,"category":"hermes-women-bags","status":"active","alibaba_url":null,"images":["https://xcimg.szwego.com/20230907/i1694070960_6656_0.jpg","https://xcimg.szwego.com/20230907/i1694070960_8332_1.jpg","https://xcimg.szwego.com/20230907/i1694070960_9299_2.jpg","https://xcimg.szwego.com/20230907/i1694070960_769_3.jpg","https://xcimg.szwego.com/20230907/i1694070960_9192_4.jpg","https://xcimg.szwego.com/20230907/i1694070960_4774_5.jpg","https://xcimg.szwego.com/20230907/i1694070960_7684_6.jpg"],"created_at":"2024-10-22T04:49:50.788Z"},{"id":"item-9edeb0720312","sku":"_dololnfkhOaHF7kgErLoIL4tdpu9NOH3SKp600Q","name_en":"Ep对版十字纹现货黑,大象灰,金棕,奶昔白","name_cn":"Ep对版十字纹现货黑,大象灰,金棕,奶昔白\n新款 kelly elan,时尚的轮回,可以当腋下包和手拿包,真的把一代替代了\n简直不要太美\n拼手速啦,今年必种草款,宝子们","specs":{"source":"wsxcme","sourceId":"_dololnfkhOaHF7kgErLoIL4tdpu9NOH3SKp600Q","sourceTagId":76963559,"sourceTagName":"爱马仕/女包","rawTitle":"Ep对版十字纹现货黑,大象灰,金棕,奶昔白\n新款 kelly elan,时尚的轮回,可以当腋下包和手拿包,真的把一代替代了\n简直不要太美\n拼手速啦,今年必种草款,宝子们"},"price":null,"currency":"CNY","moq":1,"category":"hermes-women-bags","status":"active","alibaba_url":null,"images":["https://xcimg.szwego.com/20230907/i1694070936_2058_0.jpg","https://xcimg.szwego.com/20230907/i1694070936_6245_1.jpg","https://xcimg.szwego.com/20230907/i1694070936_6981_2.jpg","https://xcimg.szwego.com/20230907/i1694070936_3395_3.jpg","https://xcimg.szwego.com/20230907/i1694070936_7231_4.jpg","https://xcimg.szwego.com/20230907/i1694070936_269_5.jpg","https://xcimg.szwego.com/20230907/i1694070936_1886_6.jpg"],"created_at":"2024-10-22T04:49:50.787Z"},{"id":"item-7c0b10f6e33b","sku":"_ddgdgjoyAOpC-J9Ec-WYImi9nLAB6t1Yyg7RRcA","name_en":"Ep对版十字纹现货黑,大象灰,金棕,奶昔白","name_cn":"Ep对版十字纹现货黑,大象灰,金棕,奶昔白\n新款 kelly elan,时尚的轮回,可以当腋下包和手拿包,真的把一代替代了\n简直不要太美\n拼手速啦,今年必种草款,宝子们","specs":{"source":"wsxcme","sourceId":"_ddgdgjoyAOpC-J9Ec-WYImi9nLAB6t1Yyg7RRcA","sourceTagId":76963559,"sourceTagName":"爱马仕/女包","rawTitle":"Ep对版十字纹现货黑,大象灰,金棕,奶昔白\n新款 kelly elan,时尚的轮回,可以当腋下包和手拿包,真的把一代替代了\n简直不要太美\n拼手速啦,今年必种草款,宝子们"},"price":null,"currency":"CNY","moq":1,"category":"hermes-women-bags","status":"active","alibaba_url":null,"images":["https://xcimg.szwego.com/20230907/i1694070739_199_0.jpg","https://xcimg.szwego.com/20230907/i1694070739_9883_1.jpg","https://xcimg.szwego.com/20230907/i1694070739_2201_2.jpg","https://xcimg.szwego.com/20230907/i1694070739_4656_3.jpg","https://xcimg.szwego.com/20230907/i1694070739_7989_4.jpg","https://xcimg.szwego.com/20230907/i1694070739_7987_5.jpg","https://xcimg.szwego.com/20230907/i1694070739_6041_6.jpg"],"created_at":"2024-10-22T04:49:50.786Z"},{"id":"item-65ef3a6fccd8","sku":"_d4F4FOTLKMbSql_q_5U7_t5yaF5YmrCa6k7OQwg","name_en":"Ep对版十字纹现货黑,大象灰,金棕,奶昔白","name_cn":"Ep对版十字纹现货黑,大象灰,金棕,奶昔白\n新款 kelly elan,时尚的轮回,可以当腋下包和手拿包,真的把一代替代了\n简直不要太美\n拼手速啦,今年必种草款,宝子们","specs":{"source":"wsxcme","sourceId":"_d4F4FOTLKMbSql_q_5U7_t5yaF5YmrCa6k7OQwg","sourceTagId":76963559,"sourceTagName":"爱马仕/女包","rawTitle":"Ep对版十字纹现货黑,大象灰,金棕,奶昔白\n新款 kelly elan,时尚的轮回,可以当腋下包和手拿包,真的把一代替代了\n简直不要太美\n拼手速啦,今年必种草款,宝子们"},"price":null,"currency":"CNY","moq":1,"category":"hermes-women-bags","status":"active","alibaba_url":null,"images":["https://xcimg.szwego.com/20230907/i1694071008_9287_0.jpg","https://xcimg.szwego.com/20230907/i1694071008_3789_1.jpg","https://xcimg.szwego.com/20230907/i1694071008_717_2.jpg","https://xcimg.szwego.com/20230907/i1694071008_5412_3.jpg","https://xcimg.szwego.com/20230907/i1694071008_2156_4.jpg","https://xcimg.szwego.com/20230907/i1694071008_1294_5.jpg","https://xcimg.szwego.com/20230907/i1694071008_4037_6.jpg","https://xcimg.szwego.com/20230907/i1694071008_9411_7.jpg"],"created_at":"2024-10-22T04:49:50.790Z"},{"id":"item-348001c264ea","sku":"_dj9j9OPreaY9BNejaRYmjXBOgLUw1fHU6Iyvnhw","name_en":"Ep对版十字纹现货黑,大象灰,金棕,奶昔白","name_cn":"Ep对版十字纹现货黑,大象灰,金棕,奶昔白\n新款 kelly elan,时尚的轮回,可以当腋下包和手拿包,真的把一代替代了\n简直不要太美\n拼手速啦,今年必种草款,宝子们","specs":{"source":"wsxcme","sourceId":"_dj9j9OPreaY9BNejaRYmjXBOgLUw1fHU6Iyvnhw","sourceTagId":76963559,"sourceTagName":"爱马仕/女包","rawTitle":"Ep对版十字纹现货黑,大象灰,金棕,奶昔白\n新款 kelly elan,时尚的轮回,可以当腋下包和手拿包,真的把一代替代了\n简直不要太美\n拼手速啦,今年必种草款,宝子们"},"price":null,"currency":"CNY","moq":1,"category":"hermes-women-bags","status":"active","alibaba_url":null,"images":["https://xcimg.szwego.com/20230907/i1694070464_4199_0.jpg","https://xcimg.szwego.com/20230907/i1694070464_9456_1.jpg","https://xcimg.szwego.com/20230907/i1694070464_3205_2.jpg","https://xcimg.szwego.com/20230907/i1694070464_6022_3.jpg","https://xcimg.szwego.com/20230907/i1694070464_82_4.jpg","https://xcimg.szwego.com/20230907/i1694070464_4241_5.jpg","https://xcimg.szwego.com/20230907/i1694070464_4292_6.jpg","https://xcimg.szwego.com/20230907/i1694070464_5293_7.jpg"],"created_at":"2024-10-22T04:49:50.784Z"},{"id":"item-01f0e3975f94","sku":"_dEmEmZvIzEue-xQSgtlnESovx7w4XT_B_DqVttg","name_en":"Ep对版十字纹现货黑,大象灰,金棕,奶昔白","name_cn":"Ep对版十字纹现货黑,大象灰,金棕,奶昔白\n新款 kelly elan,时尚的轮回,可以当腋下包和手拿包,真的把一代替代了\n简直不要太美\n拼手速啦,今年必种草款,宝子们","specs":{"source":"wsxcme","sourceId":"_dEmEmZvIzEue-xQSgtlnESovx7w4XT_B_DqVttg","sourceTagId":76963559,"sourceTagName":"爱马仕/女包","rawTitle":"Ep对版十字纹现货黑,大象灰,金棕,奶昔白\n新款 kelly elan,时尚的轮回,可以当腋下包和手拿包,真的把一代替代了\n简直不要太美\n拼手速啦,今年必种草款,宝子们"},"price":null,"currency":"CNY","moq":1,"category":"hermes-women-bags","status":"active","alibaba_url":null,"images":["https://xcimg.szwego.com/20230907/i1694070553_8008_0.jpg","https://xcimg.szwego.com/20230907/i1694070553_9773_1.jpg","https://xcimg.szwego.com/20230907/i1694070553_4130_2.jpg","https://xcimg.szwego.com/20230907/i1694070553_1844_3.jpg","https://xcimg.szwego.com/20230907/i1694070553_7952_4.jpg","https://xcimg.szwego.com/20230907/i1694070553_2577_5.jpg","https://xcimg.szwego.com/20230907/i1694070553_9476_6.jpg","https://xcimg.szwego.com/20230907/i1694070553_8769_7.jpg"],"created_at":"2024-10-22T04:49:50.785Z"},{"id":"item-fe1c24968863","sku":"_dndndEw_1GrIWmbyVuvfDo3h6tjeelDuVi2Ym7Q","name_en":"Garden Party 彩绘涂鸦","name_cn":"Garden Party 彩绘涂鸦\n🇫🇷法国Fjord进口原版牛皮 蜡线缝制 老师傅工艺彩绘帆布,🐎家的色彩搭配以及彩绘涂鸦都一绝 每个包包都堪称艺术品\n实拍size36","specs":{"source":"wsxcme","sourceId":"_dndndEw_1GrIWmbyVuvfDo3h6tjeelDuVi2Ym7Q","sourceTagId":76963559,"sourceTagName":"爱马仕/女包","rawTitle":"Garden Party 彩绘涂鸦\n🇫🇷法国Fjord进口原版牛皮 蜡线缝制 老师傅工艺彩绘帆布,🐎家的色彩搭配以及彩绘涂鸦都一绝 每个包包都堪称艺术品\n实拍size36"},"price":null,"currency":"CNY","moq":1,"category":"hermes-women-bags","status":"active","alibaba_url":null,"images":["https://xcimg.szwego.com/img/43e90bff/20240812/i1723456680_678_8.jpg","https://xcimg.szwego.com/img/43e90bff/20240812/i1723456680_1322_5.jpg","https://xcimg.szwego.com/img/43e90bff/20240812/i1723456680_3577_1.jpg","https://xcimg.szwego.com/img/43e90bff/20240812/i1723456680_9868_3.jpg","https://xcimg.szwego.com/img/43e90bff/20240812/i1723456680_1152_4.jpg","https://xcimg.szwego.com/img/43e90bff/20240812/i1723456680_4785_0.jpg","https://xcimg.szwego.com/img/43e90bff/20240812/i1723456680_3489_7.jpg","https://xcimg.szwego.com/img/43e90bff/20240812/i1723456680_8771_6.jpg","https://xcimg.szwego.com/img/43e90bff/20240812/i1723456680_4430_2.jpg"],"created_at":"2024-10-22T05:00:12.182Z"},{"id":"item-f47c684d7b3c","sku":"_d-U-UuK3mvmpdxd3llu2E0InIYc0VHPiYwlDvow","name_en":"Garden Party 彩绘涂鸦","name_cn":"Garden Party 彩绘涂鸦\n🇫🇷法国Fjord进口原版牛皮 蜡线缝制 老师傅工艺彩绘帆布,🐎家的色彩搭配以及彩绘涂鸦都一绝 每个包包都堪称艺术品\n实拍size36","specs":{"source":"wsxcme","sourceId":"_d-U-UuK3mvmpdxd3llu2E0InIYc0VHPiYwlDvow","sourceTagId":76963559,"sourceTagName":"爱马仕/女包","rawTitle":"Garden Party 彩绘涂鸦\n🇫🇷法国Fjord进口原版牛皮 蜡线缝制 老师傅工艺彩绘帆布,🐎家的色彩搭配以及彩绘涂鸦都一绝 每个包包都堪称艺术品\n实拍size36"},"price":null,"currency":"CNY","moq":1,"category":"hermes-women-bags","status":"active","alibaba_url":null,"images":["https://xcimg.szwego.com/img/43e90bff/20240812/i1723456834_5714_0.jpg","https://xcimg.szwego.com/img/43e90bff/20240812/i1723456834_9270_0.jpg","https://xcimg.szwego.com/img/43e90bff/20240812/i1723456834_6563_0.jpg","https://xcimg.szwego.com/img/43e90bff/20240812/i1723456834_5166_0.jpg","https://xcimg.szwego.com/img/43e90bff/20240812/i1723456835_2526_0.jpg","https://xcimg.szwego.com/img/43e90bff/20240812/i1723456834_5100_0.jpg","https://xcimg.szwego.com/img/43e90bff/20240812/i1723456834_4487_0.jpg","https://xcimg.szwego.com/img/43e90bff/20240812/i1723456834_8988_0.jpg","https://xcimg.szwego.com/img/43e90bff/20240812/i1723456817_5749_3.jpg"],"created_at":"2024-10-22T05:00:12.181Z"},{"id":"item-f248c0e0f268","sku":"_d-4-4riFx_rLzf1iLAp3d3L8RvxAMQo3UEIqfnw","name_en":"Garden Party 彩绘涂鸦","name_cn":"Garden Party 彩绘涂鸦\n🇫🇷法国Fjord进口原版牛皮 蜡线缝制 老师傅工艺彩绘帆布,🐎家的色彩搭配以及彩绘涂鸦都一绝 每个包包都堪称艺术品\n实拍size36","specs":{"source":"wsxcme","sourceId":"_d-4-4riFx_rLzf1iLAp3d3L8RvxAMQo3UEIqfnw","sourceTagId":76963559,"sourceTagName":"爱马仕/女包","rawTitle":"Garden Party 彩绘涂鸦\n🇫🇷法国Fjord进口原版牛皮 蜡线缝制 老师傅工艺彩绘帆布,🐎家的色彩搭配以及彩绘涂鸦都一绝 每个包包都堪称艺术品\n实拍size36"},"price":null,"currency":"CNY","moq":1,"category":"hermes-women-bags","status":"active","alibaba_url":null,"images":["https://xcimg.szwego.com/img/b17e98d7/20240818/i1723966523_4256_2.jpg","https://xcimg.szwego.com/img/b17e98d7/20240818/i1723966523_7435_5.jpg","https://xcimg.szwego.com/img/b17e98d7/20240818/i1723966523_6766_7.jpg","https://xcimg.szwego.com/img/b17e98d7/20240818/i1723966523_1827_4.jpg","https://xcimg.szwego.com/img/b17e98d7/20240818/i1723966523_2266_8.jpg","https://xcimg.szwego.com/img/b17e98d7/20240818/i1723966523_8431_0.jpg","https://xcimg.szwego.com/img/b17e98d7/20240818/i1723966523_3559_6.jpg","https://xcimg.szwego.com/img/b17e98d7/20240818/i1723966523_6403_3.jpg","https://xcimg.szwego.com/img/b17e98d7/20240818/i1723966523_4429_1.jpg"],"created_at":"2024-10-22T05:00:12.185Z"},{"id":"item-b57a299e69c7","sku":"_dw4w4x7-ezvrqilSeGfPh5En51OyAoYlFYinrsg","name_en":"Garden Party 彩绘涂鸦","name_cn":"Garden Party 彩绘涂鸦\n🇫🇷法国Fjord进口原版牛皮 蜡线缝制 老师傅工艺彩绘帆布,🐎家的色彩搭配以及彩绘涂鸦都一绝 每个包包都堪称艺术品\n实拍size36","specs":{"source":"wsxcme","sourceId":"_dw4w4x7-ezvrqilSeGfPh5En51OyAoYlFYinrsg","sourceTagId":76963559,"sourceTagName":"爱马仕/女包","rawTitle":"Garden Party 彩绘涂鸦\n🇫🇷法国Fjord进口原版牛皮 蜡线缝制 老师傅工艺彩绘帆布,🐎家的色彩搭配以及彩绘涂鸦都一绝 每个包包都堪称艺术品\n实拍size36"},"price":null,"currency":"CNY","moq":1,"category":"hermes-women-bags","status":"active","alibaba_url":null,"images":["https://xcimg.szwego.com/img/b17e98d7/20240818/i1723966177_6339_2.jpg","https://xcimg.szwego.com/img/b17e98d7/20240818/i1723966177_4437_5.jpg","https://xcimg.szwego.com/img/b17e98d7/20240818/i1723966177_5320_4.jpg","https://xcimg.szwego.com/img/b17e98d7/20240818/i1723966177_8797_8.jpg","https://xcimg.szwego.com/img/b17e98d7/20240818/i1723966177_1749_3.jpg","https://xcimg.szwego.com/img/b17e98d7/20240818/i1723966177_6975_0.jpg","https://xcimg.szwego.com/img/b17e98d7/20240818/i1723966177_7918_1.jpg","https://xcimg.szwego.com/img/b17e98d7/20240818/i1723966177_4655_7.jpg","https://xcimg.szwego.com/img/b17e98d7/20240818/i1723966177_5593_6.jpg"],"created_at":"2024-10-22T05:00:12.179Z"},{"id":"item-8fca25c2e8fe","sku":"_dmVmVUoGtbBaHgefKUS5SnazBrWdOUrDNqtyP_g","name_en":"Garden Party 彩绘涂鸦","name_cn":"Garden Party 彩绘涂鸦\n🇫🇷法国Fjord进口原版牛皮 蜡线缝制 老师傅工艺彩绘帆布,🐎家的色彩搭配以及彩绘涂鸦都一绝 每个包包都堪称艺术品\n实拍size36","specs":{"source":"wsxcme","sourceId":"_dmVmVUoGtbBaHgefKUS5SnazBrWdOUrDNqtyP_g","sourceTagId":76963559,"sourceTagName":"爱马仕/女包","rawTitle":"Garden Party 彩绘涂鸦\n🇫🇷法国Fjord进口原版牛皮 蜡线缝制 老师傅工艺彩绘帆布,🐎家的色彩搭配以及彩绘涂鸦都一绝 每个包包都堪称艺术品\n实拍size36"},"price":null,"currency":"CNY","moq":1,"category":"hermes-women-bags","status":"active","alibaba_url":null,"images":["https://xcimg.szwego.com/img/b17e98d7/20240818/i1723966352_6680_7.jpg","https://xcimg.szwego.com/img/b17e98d7/20240818/i1723966352_4599_8.jpg","https://xcimg.szwego.com/img/b17e98d7/20240818/i1723966352_5997_5.jpg","https://xcimg.szwego.com/img/b17e98d7/20240818/i1723966352_840_1.jpg","https://xcimg.szwego.com/img/b17e98d7/20240818/i1723966352_6499_6.jpg","https://xcimg.szwego.com/img/b17e98d7/20240818/i1723966352_690_4.jpg","https://xcimg.szwego.com/img/b17e98d7/20240818/i1723966352_1852_0.jpg","https://xcimg.szwego.com/img/b17e98d7/20240818/i1723966352_1046_3.jpg","https://xcimg.szwego.com/img/b17e98d7/20240818/i1723966352_6952_2.jpg"],"created_at":"2024-10-22T05:00:12.180Z"},{"id":"item-744f51fa4c8e","sku":"_deZeZQ5hNxJvn6002aOrJo0zZY35ymXnUdGLseA","name_en":"Garden Party 彩绘涂鸦","name_cn":"Garden Party 彩绘涂鸦\n🇫🇷法国Fjord进口原版牛皮 蜡线缝制 老师傅工艺彩绘帆布,🐎家的色彩搭配以及彩绘涂鸦都一绝 每个包包都堪称艺术品\n实拍size36","specs":{"source":"wsxcme","sourceId":"_deZeZQ5hNxJvn6002aOrJo0zZY35ymXnUdGLseA","sourceTagId":76963559,"sourceTagName":"爱马仕/女包","rawTitle":"Garden Party 彩绘涂鸦\n🇫🇷法国Fjord进口原版牛皮 蜡线缝制 老师傅工艺彩绘帆布,🐎家的色彩搭配以及彩绘涂鸦都一绝 每个包包都堪称艺术品\n实拍size36"},"price":null,"currency":"CNY","moq":1,"category":"hermes-women-bags","status":"active","alibaba_url":null,"images":["https://xcimg.szwego.com/img/43e90bff/20240812/i1723456309_1213_7.jpg","https://xcimg.szwego.com/img/43e90bff/20240812/i1723456309_6963_5.jpg","https://xcimg.szwego.com/img/43e90bff/20240812/i1723456309_2860_3.jpg","https://xcimg.szwego.com/img/43e90bff/20240812/i1723456309_4473_0.jpg","https://xcimg.szwego.com/img/43e90bff/20240812/i1723456309_3164_2.jpg","https://xcimg.szwego.com/img/43e90bff/20240812/i1723456309_437_4.jpg","https://xcimg.szwego.com/img/43e90bff/20240812/i1723456309_4735_1.jpg","https://xcimg.szwego.com/img/43e90bff/20240812/i1723456309_230_6.jpg","https://xcimg.szwego.com/img/43e90bff/20240812/i1723456309_5273_8.jpg"],"created_at":"2024-10-22T05:00:12.183Z"},{"id":"item-4e2db29e8d7f","sku":"_deyeyGr16dc5u19NWQrHK2dtI6Qx4tQKDqpaFvg","name_en":"Garden Party 彩绘涂鸦","name_cn":"Garden Party 彩绘涂鸦\n🇫🇷法国Fjord进口原版牛皮 蜡线缝制 老师傅工艺彩绘帆布,🐎家的色彩搭配以及彩绘涂鸦都一绝 每个包包都堪称艺术品\n实拍size36","specs":{"source":"wsxcme","sourceId":"_deyeyGr16dc5u19NWQrHK2dtI6Qx4tQKDqpaFvg","sourceTagId":76963559,"sourceTagName":"爱马仕/女包","rawTitle":"Garden Party 彩绘涂鸦\n🇫🇷法国Fjord进口原版牛皮 蜡线缝制 老师傅工艺彩绘帆布,🐎家的色彩搭配以及彩绘涂鸦都一绝 每个包包都堪称艺术品\n实拍size36"},"price":null,"currency":"CNY","moq":1,"category":"hermes-women-bags","status":"active","alibaba_url":null,"images":["https://xcimg.szwego.com/img/b17e98d7/20240818/i1723966490_9450_2.jpg","https://xcimg.szwego.com/img/b17e98d7/20240818/i1723966490_9671_6.jpg","https://xcimg.szwego.com/img/b17e98d7/20240818/i1723966490_2804_7.jpg","https://xcimg.szwego.com/img/b17e98d7/20240818/i1723966490_7828_4.jpg","https://xcimg.szwego.com/img/b17e98d7/20240818/i1723966490_1172_5.jpg","https://xcimg.szwego.com/img/b17e98d7/20240818/i1723966490_6751_0.jpg","https://xcimg.szwego.com/img/b17e98d7/20240818/i1723966490_8857_3.jpg","https://xcimg.szwego.com/img/b17e98d7/20240818/i1723966490_6117_1.jpg","https://xcimg.szwego.com/img/b17e98d7/20240818/i1723966490_29_8.jpg"],"created_at":"2024-10-22T05:00:12.186Z"},{"id":"item-403981eec52b","sku":"_dI5I5l_zgbJKkXNsKUO8ZyTmM2JUzXf-0uN4QIg","name_en":"Garden Party 彩绘涂鸦","name_cn":"Garden Party 彩绘涂鸦\n🇫🇷法国Fjord进口原版牛皮 蜡线缝制 老师傅工艺彩绘帆布,🐎家的色彩搭配以及彩绘涂鸦都一绝 每个包包都堪称艺术品\n实拍size36","specs":{"source":"wsxcme","sourceId":"_dI5I5l_zgbJKkXNsKUO8ZyTmM2JUzXf-0uN4QIg","sourceTagId":76963559,"sourceTagName":"爱马仕/女包","rawTitle":"Garden Party 彩绘涂鸦\n🇫🇷法国Fjord进口原版牛皮 蜡线缝制 老师傅工艺彩绘帆布,🐎家的色彩搭配以及彩绘涂鸦都一绝 每个包包都堪称艺术品\n实拍size36"},"price":null,"currency":"CNY","moq":1,"category":"hermes-women-bags","status":"active","alibaba_url":null,"images":["https://xcimg.szwego.com/img/b17e98d7/20240818/i1723966548_3402_8.jpg","https://xcimg.szwego.com/img/b17e98d7/20240818/i1723966548_431_7.jpg","https://xcimg.szwego.com/img/b17e98d7/20240818/i1723966548_1476_4.jpg","https://xcimg.szwego.com/img/b17e98d7/20240818/i1723966548_9276_2.jpg","https://xcimg.szwego.com/img/b17e98d7/20240818/i1723966548_685_1.jpg","https://xcimg.szwego.com/img/b17e98d7/20240818/i1723966548_9664_3.jpg","https://xcimg.szwego.com/img/b17e98d7/20240818/i1723966548_3541_0.jpg","https://xcimg.szwego.com/img/b17e98d7/20240818/i1723966548_211_5.jpg","https://xcimg.szwego.com/img/b17e98d7/20240818/i1723966548_4636_6.jpg"],"created_at":"2024-10-22T05:00:12.184Z"},{"id":"item-1dc83d16b575","sku":"_dEoEoAQu3Trhofo_glSMyQLlDV-0ypU6bRtQY1Q","name_en":"Garden Party 彩绘涂鸦","name_cn":"Garden Party 彩绘涂鸦\n🇫🇷法国Fjord进口原版牛皮 蜡线缝制 老师傅工艺彩绘帆布,🐎家的色彩搭配以及彩绘涂鸦都一绝 每个包包都堪称艺术品\n实拍size36","specs":{"source":"wsxcme","sourceId":"_dEoEoAQu3Trhofo_glSMyQLlDV-0ypU6bRtQY1Q","sourceTagId":76963559,"sourceTagName":"爱马仕/女包","rawTitle":"Garden Party 彩绘涂鸦\n🇫🇷法国Fjord进口原版牛皮 蜡线缝制 老师傅工艺彩绘帆布,🐎家的色彩搭配以及彩绘涂鸦都一绝 每个包包都堪称艺术品\n实拍size36"},"price":null,"currency":"CNY","moq":1,"category":"hermes-women-bags","status":"active","alibaba_url":null,"images":["https://xcimg.szwego.com/img/43e90bff/20240812/i1723457062_5841_6.jpg","https://xcimg.szwego.com/img/43e90bff/20240812/i1723457062_4799_9.jpg","https://xcimg.szwego.com/img/43e90bff/20240812/i1723457062_9610_4.jpg","https://xcimg.szwego.com/img/43e90bff/20240812/i1723457062_5401_2.jpg","https://xcimg.szwego.com/img/43e90bff/20240812/i1723457062_4478_5.jpg","https://xcimg.szwego.com/img/43e90bff/20240812/i1723457062_3999_8.jpg","https://xcimg.szwego.com/img/43e90bff/20240812/i1723457062_2045_0.jpg","https://xcimg.szwego.com/img/43e90bff/20240812/i1723457062_4060_7.jpg","https://xcimg.szwego.com/img/43e90bff/20240812/i1723457062_5248_1.jpg"],"created_at":"2024-10-22T05:00:12.178Z"},{"id":"item-4e619706bbbd","sku":"_dN_N_XfuvR6QOgQwBG483tlEkJj8pwOL97jgdFA","name_en":"Graden party 黑白粗布配黑","name_cn":"Graden party 黑白粗布配黑\n休闲风格系列 也是H家很著名的入门款 设计比较低调 采用tc皮拼帆布材质 性价比很高 容量杠杠滴 size:30cm 36cm","specs":{"source":"wsxcme","sourceId":"_dN_N_XfuvR6QOgQwBG483tlEkJj8pwOL97jgdFA","sourceTagId":76963559,"sourceTagName":"爱马仕/女包","rawTitle":"Graden party 黑白粗布配黑\n休闲风格系列 也是H家很著名的入门款 设计比较低调 采用tc皮拼帆布材质 性价比很高 容量杠杠滴 size:30cm 36cm"},"price":null,"currency":"CNY","moq":1,"category":"hermes-women-bags","status":"active","alibaba_url":null,"images":["https://xcimg.szwego.com/20211115/i1636985635_5108_0.jpg","https://xcimg.szwego.com/20211115/i1636985635_4954_4.jpg","https://xcimg.szwego.com/20211115/i1636985635_5557_1.jpg","https://xcimg.szwego.com/20211115/i1636985635_3916_2.jpg","https://xcimg.szwego.com/20211115/i1636985635_7172_3.jpg","https://xcimg.szwego.com/20211115/i1636985635_5246_5.jpg","https://xcimg.szwego.com/20211115/i1636985635_1620_6.jpg","https://xcimg.szwego.com/20211115/i1636985635_9216_8.jpg","https://xcimg.szwego.com/20211115/i1636985635_3229_7.jpg"],"created_at":"2024-10-22T05:00:12.144Z"},{"id":"item-c0f3d14cf2df","sku":"_dxoxopbhjzB1DzRel0KI9jS_-w2bWNg6gH4BPkg","name_en":"Graden party 休闲风格系列 也是H家很著名的入门款 设计比较低调 采用tc皮拼帆布材质 性价比很高 容量杠杠滴 size:30/36cm","name_cn":"Graden party 休闲风格系列 也是H家很著名的入门款 设计比较低调 采用tc皮拼帆布材质 性价比很高 容量杠杠滴 size:30/36cm","specs":{"source":"wsxcme","sourceId":"_dxoxopbhjzB1DzRel0KI9jS_-w2bWNg6gH4BPkg","sourceTagId":76963559,"sourceTagName":"爱马仕/女包","rawTitle":"Graden party 休闲风格系列 也是H家很著名的入门款 设计比较低调 采用tc皮拼帆布材质 性价比很高 容量杠杠滴 size:30/36cm"},"price":null,"currency":"CNY","moq":1,"category":"hermes-women-bags","status":"active","alibaba_url":null,"images":["https://xcimg.szwego.com/20221119/a1668828873673_6130.jpg","https://xcimg.szwego.com/20221119/a1668828873838_1471.jpg","https://xcimg.szwego.com/20221119/a1668828873952_2446.jpg","https://xcimg.szwego.com/20221119/a1668828874051_4821.jpg","https://xcimg.szwego.com/20221119/a1668828874167_4762.jpg","https://xcimg.szwego.com/20221119/a1668828874316_4602.jpg","https://xcimg.szwego.com/20221119/a1668828874429_8334.jpg"],"created_at":"2024-10-22T05:00:12.140Z"},{"id":"item-7675adf2baa1","sku":"_dhehehwZt9ox5gOyEyfh79Tw2ZwnQiTAPVJ5SBQ","name_en":"Graden party 休闲风格系列 也是H家很著名的入门款 设计比较低调 采用tc皮拼帆布材质 性价比很高 容量杠杠滴 size:30/36cm","name_cn":"Graden party 休闲风格系列 也是H家很著名的入门款 设计比较低调 采用tc皮拼帆布材质 性价比很高 容量杠杠滴 size:30/36cm","specs":{"source":"wsxcme","sourceId":"_dhehehwZt9ox5gOyEyfh79Tw2ZwnQiTAPVJ5SBQ","sourceTagId":76963559,"sourceTagName":"爱马仕/女包","rawTitle":"Graden party 休闲风格系列 也是H家很著名的入门款 设计比较低调 采用tc皮拼帆布材质 性价比很高 容量杠杠滴 size:30/36cm"},"price":null,"currency":"CNY","moq":1,"category":"hermes-women-bags","status":"active","alibaba_url":null,"images":["https://xcimg.szwego.com/20221119/a1668828903139_4478.jpg","https://xcimg.szwego.com/20221119/a1668828903336_6424.jpg","https://xcimg.szwego.com/20221119/a1668828903467_3143.jpg","https://xcimg.szwego.com/20221119/a1668828903550_6822.jpg","https://xcimg.szwego.com/20221119/a1668828903682_3517.jpg","https://xcimg.szwego.com/20221119/a1668828903781_7241.jpg","https://xcimg.szwego.com/20221119/a1668828903929_0726.jpg"],"created_at":"2024-10-22T05:00:12.142Z"},{"id":"item-f8537286151a","sku":"_d8y8y1nigh5yY9He8_JQXzUbacx-pZ9ogjDPzVg","name_en":"Graden party 休闲风格系列 也是H家很著名的入门款 设计比较低调 采用tc皮拼帆布材质 性价比很高 容量杠杠滴 size:30cm","name_cn":"Graden party 休闲风格系列 也是H家很著名的入门款 设计比较低调 采用tc皮拼帆布材质 性价比很高 容量杠杠滴 size:30cm","specs":{"source":"wsxcme","sourceId":"_d8y8y1nigh5yY9He8_JQXzUbacx-pZ9ogjDPzVg","sourceTagId":76963559,"sourceTagName":"爱马仕/女包","rawTitle":"Graden party 休闲风格系列 也是H家很著名的入门款 设计比较低调 采用tc皮拼帆布材质 性价比很高 容量杠杠滴 size:30cm"},"price":null,"currency":"CNY","moq":1,"category":"hermes-women-bags","status":"active","alibaba_url":null,"images":["https://xcimg.szwego.com/20221119/a1668828621471_6078.jpg","https://xcimg.szwego.com/20221119/a1668828621752_1354.jpg","https://xcimg.szwego.com/20221119/a1668828621868_5007.jpg","https://xcimg.szwego.com/20221119/a1668828621982_5728.jpg","https://xcimg.szwego.com/20221119/a1668828622066_7503.jpg","https://xcimg.szwego.com/20221119/a1668828622212_1864.jpg","https://xcimg.szwego.com/20221119/a1668828622297_1735.jpg","https://xcimg.szwego.com/20221119/a1668828622442_1300.jpg","https://xcimg.szwego.com/20221119/a1668828622607_1871.jpg"],"created_at":"2024-10-22T05:00:12.131Z"},{"id":"item-b866211fe376","sku":"_djrjrlKaHNd0xfY2GkBNrbOL1EkwsJbSS6nnh7g","name_en":"Graden party 休闲风格系列 也是H家很著名的入门款 设计比较低调 采用tc皮拼帆布材质 性价比很高 容量杠杠滴 size:30cm","name_cn":"Graden party 休闲风格系列 也是H家很著名的入门款 设计比较低调 采用tc皮拼帆布材质 性价比很高 容量杠杠滴 size:30cm","specs":{"source":"wsxcme","sourceId":"_djrjrlKaHNd0xfY2GkBNrbOL1EkwsJbSS6nnh7g","sourceTagId":76963559,"sourceTagName":"爱马仕/女包","rawTitle":"Graden party 休闲风格系列 也是H家很著名的入门款 设计比较低调 采用tc皮拼帆布材质 性价比很高 容量杠杠滴 size:30cm"},"price":null,"currency":"CNY","moq":1,"category":"hermes-women-bags","status":"active","alibaba_url":null,"images":["https://xcimg.szwego.com/20221003/a1664770596696_0068.jpg","https://xcimg.szwego.com/20221003/a1664770596867_2507.jpg","https://xcimg.szwego.com/20221003/a1664770597019_1211.jpg","https://xcimg.szwego.com/20221003/a1664770597129_2355.jpg","https://xcimg.szwego.com/20221003/a1664770597217_4643.jpg","https://xcimg.szwego.com/20221003/a1664770597313_0035.jpg","https://xcimg.szwego.com/20221003/a1664770597453_6758.jpg","https://xcimg.szwego.com/20221003/a1664770597512_8823.jpg","https://xcimg.szwego.com/20221003/a1664770597629_6710.jpg"],"created_at":"2024-10-22T05:00:12.145Z"}],"page":12,"pageSize":24,"total":439,"totalPages":19}
