{"items":[{"id":"item-1ffa6eaced16","sku":"_dNxNxTGQoJZ9rcTCoplDHYIPEhlBqehw8Z1nq1g","name_en":"✨Garden 花园包36cm ✨","name_cn":"✨Garden 花园包36cm ✨\n帆布拼togo皮 ZG最新涂鸦 全钢五金 手缝蜡线 \n【现货】","specs":{"source":"wsxcme","sourceId":"_dNxNxTGQoJZ9rcTCoplDHYIPEhlBqehw8Z1nq1g","sourceTagId":76963559,"sourceTagName":"爱马仕/女包","rawTitle":"✨Garden 花园包36cm ✨\n帆布拼togo皮 ZG最新涂鸦 全钢五金 手缝蜡线 \n【现货】"},"price":null,"currency":"CNY","moq":1,"category":"hermes-women-bags","status":"active","alibaba_url":null,"images":["https://xcimg.szwego.com/20240621/i1718949613_3579_0.jpg","https://xcimg.szwego.com/20240621/i1718949613_4979_1.jpg","https://xcimg.szwego.com/20240621/i1718949613_3470_2.jpg","https://xcimg.szwego.com/20240621/i1718949613_7556_3.jpg","https://xcimg.szwego.com/20240621/i1718949613_8821_4.jpg","https://xcimg.szwego.com/20240621/i1718949613_2842_5.jpg","https://xcimg.szwego.com/20240621/i1718949613_7959_6.jpg","https://xcimg.szwego.com/20240621/i1718949613_5467_7.jpg"],"created_at":"2024-10-22T05:04:33.228Z"},{"id":"item-dd0973b801ab","sku":"_dr5r5z4JUrwPpm10I4c9OIYOL-dlJLMk4WwaQDw","name_en":"🐎Birkin 25cm Epsom皮 手工蜡线缝太妃糖】","name_cn":"🐎Birkin 25cm Epsom皮 手工蜡线缝太妃糖】","specs":{"source":"wsxcme","sourceId":"_dr5r5z4JUrwPpm10I4c9OIYOL-dlJLMk4WwaQDw","sourceTagId":76963559,"sourceTagName":"爱马仕/女包","rawTitle":"🐎Birkin 25cm Epsom皮 手工蜡线缝太妃糖】"},"price":null,"currency":"CNY","moq":1,"category":"hermes-women-bags","status":"active","alibaba_url":null,"images":["https://xcimg.szwego.com/20240731/i1722406345_5525_0.jpg","https://xcimg.szwego.com/20240731/i1722406345_5499_1.jpg","https://xcimg.szwego.com/20240731/i1722406345_2161_2.jpg","https://xcimg.szwego.com/20240731/i1722406345_8299_3.jpg","https://xcimg.szwego.com/20240731/i1722406345_9764_4.jpg","https://xcimg.szwego.com/20240731/i1722406345_3759_5.jpg","https://xcimg.szwego.com/20240731/i1722406345_6614_6.jpg","https://xcimg.szwego.com/20240731/i1722406345_3420_7.jpg","https://xcimg.szwego.com/20240731/i1722406345_455_8.jpg"],"created_at":"2024-10-22T05:00:12.166Z"},{"id":"item-ec4cbc6ef5a8","sku":"_djujuPZKTldH15b678DzWLmlq0yn21zkEl4RkLw","name_en":"🐎Birkin 25cm Epsom皮 手工蜡线缝制【宝蓝】","name_cn":"🐎Birkin 25cm Epsom皮 手工蜡线缝制【宝蓝】","specs":{"source":"wsxcme","sourceId":"_djujuPZKTldH15b678DzWLmlq0yn21zkEl4RkLw","sourceTagId":76963559,"sourceTagName":"爱马仕/女包","rawTitle":"🐎Birkin 25cm Epsom皮 手工蜡线缝制【宝蓝】"},"price":null,"currency":"CNY","moq":1,"category":"hermes-women-bags","status":"active","alibaba_url":null,"images":["https://xcimg.szwego.com/20240731/i1722406514_5886_0.jpg","https://xcimg.szwego.com/20240731/i1722406514_1277_1.jpg","https://xcimg.szwego.com/20240731/i1722406514_6354_2.jpg","https://xcimg.szwego.com/20240731/i1722406514_4181_3.jpg","https://xcimg.szwego.com/20240731/i1722406514_4113_4.jpg","https://xcimg.szwego.com/20240731/i1722406514_5100_5.jpg","https://xcimg.szwego.com/20240731/i1722406514_2611_6.jpg","https://xcimg.szwego.com/20240731/i1722406514_7514_7.jpg","https://xcimg.szwego.com/20240731/i1722406514_7888_8.jpg"],"created_at":"2024-10-22T05:00:12.170Z"},{"id":"item-30941419e8fe","sku":"_dmemegQO__0iJ6NssL7G-k2pWhr2zkkFRd9aFnA","name_en":"🐎Birkin 25cm Epsom皮 手工蜡线缝制【大红】","name_cn":"🐎Birkin 25cm Epsom皮 手工蜡线缝制【大红】","specs":{"source":"wsxcme","sourceId":"_dmemegQO__0iJ6NssL7G-k2pWhr2zkkFRd9aFnA","sourceTagId":76963559,"sourceTagName":"爱马仕/女包","rawTitle":"🐎Birkin 25cm Epsom皮 手工蜡线缝制【大红】"},"price":null,"currency":"CNY","moq":1,"category":"hermes-women-bags","status":"active","alibaba_url":null,"images":["https://xcimg.szwego.com/20240731/i1722406328_8436_0.jpg","https://xcimg.szwego.com/20240731/i1722406328_470_1.jpg","https://xcimg.szwego.com/20240731/i1722406328_3889_2.jpg","https://xcimg.szwego.com/20240731/i1722406328_8660_3.jpg","https://xcimg.szwego.com/20240731/i1722406328_4449_4.jpg","https://xcimg.szwego.com/20240731/i1722406328_8962_5.jpg","https://xcimg.szwego.com/20240731/i1722406328_3214_6.jpg","https://xcimg.szwego.com/20240731/i1722406328_2008_7.jpg","https://xcimg.szwego.com/20240731/i1722406328_9278_8.jpg"],"created_at":"2024-10-22T05:00:12.167Z"},{"id":"item-fd309ff1a7d1","sku":"_du9u9vrQg-UCmHG5FPlBv-w3OZW6FK9WY8GohDg","name_en":"🐎Birkin 25cm Epsom皮 手工蜡线缝制【孔雀绿】","name_cn":"🐎Birkin 25cm Epsom皮 手工蜡线缝制【孔雀绿】","specs":{"source":"wsxcme","sourceId":"_du9u9vrQg-UCmHG5FPlBv-w3OZW6FK9WY8GohDg","sourceTagId":76963559,"sourceTagName":"爱马仕/女包","rawTitle":"🐎Birkin 25cm Epsom皮 手工蜡线缝制【孔雀绿】"},"price":null,"currency":"CNY","moq":1,"category":"hermes-women-bags","status":"active","alibaba_url":null,"images":["https://xcimg.szwego.com/20240731/i1722406375_634_0.jpg","https://xcimg.szwego.com/20240731/i1722406375_285_1.jpg","https://xcimg.szwego.com/20240731/i1722406375_191_2.jpg","https://xcimg.szwego.com/20240731/i1722406375_9748_3.jpg","https://xcimg.szwego.com/20240731/i1722406375_7943_4.jpg","https://xcimg.szwego.com/20240731/i1722406375_4684_5.jpg","https://xcimg.szwego.com/20240731/i1722406375_9785_6.jpg","https://xcimg.szwego.com/20240731/i1722406375_5797_7.jpg","https://xcimg.szwego.com/20240731/i1722406375_8661_8.jpg"],"created_at":"2024-10-22T05:00:12.171Z"},{"id":"item-0ea1d7936426","sku":"_d0202DtYaXgpuWXa9LoywpuyYFPLsN_DidN8kpw","name_en":"🐎Birkin 25cm Epsom皮 手工蜡线缝制【奶昔白】","name_cn":"🐎Birkin 25cm Epsom皮 手工蜡线缝制【奶昔白】","specs":{"source":"wsxcme","sourceId":"_d0202DtYaXgpuWXa9LoywpuyYFPLsN_DidN8kpw","sourceTagId":76963559,"sourceTagName":"爱马仕/女包","rawTitle":"🐎Birkin 25cm Epsom皮 手工蜡线缝制【奶昔白】"},"price":null,"currency":"CNY","moq":1,"category":"hermes-women-bags","status":"active","alibaba_url":null,"images":["https://xcimg.szwego.com/20240731/i1722406547_3050_0.jpg","https://xcimg.szwego.com/20240731/i1722406547_8904_1.jpg","https://xcimg.szwego.com/20240731/i1722406547_6981_2.jpg","https://xcimg.szwego.com/20240731/i1722406547_77_3.jpg","https://xcimg.szwego.com/20240731/i1722406547_3386_4.jpg","https://xcimg.szwego.com/20240731/i1722406547_8123_5.jpg","https://xcimg.szwego.com/20240731/i1722406547_7712_6.jpg","https://xcimg.szwego.com/20240731/i1722406547_3306_7.jpg","https://xcimg.szwego.com/20240731/i1722406547_9129_8.jpg"],"created_at":"2024-10-22T05:00:12.165Z"},{"id":"item-3ea5373b2ba8","sku":"_d8p8pxBG2Y0bsmAIi-YL0Wq4SzJlNfa5zBfV9oQ","name_en":"🐎Birkin 25cm Epsom皮 手工蜡线缝制【丝绒绿】","name_cn":"🐎Birkin 25cm Epsom皮 手工蜡线缝制【丝绒绿】","specs":{"source":"wsxcme","sourceId":"_d8p8pxBG2Y0bsmAIi-YL0Wq4SzJlNfa5zBfV9oQ","sourceTagId":76963559,"sourceTagName":"爱马仕/女包","rawTitle":"🐎Birkin 25cm Epsom皮 手工蜡线缝制【丝绒绿】"},"price":null,"currency":"CNY","moq":1,"category":"hermes-women-bags","status":"active","alibaba_url":null,"images":["https://xcimg.szwego.com/20240731/i1722406457_3443_0.jpg","https://xcimg.szwego.com/20240731/i1722406457_2374_1.jpg","https://xcimg.szwego.com/20240731/i1722406457_8340_2.jpg","https://xcimg.szwego.com/20240731/i1722406457_3015_3.jpg","https://xcimg.szwego.com/20240731/i1722406457_5573_4.jpg","https://xcimg.szwego.com/20240731/i1722406457_3876_5.jpg","https://xcimg.szwego.com/20240731/i1722406457_5469_6.jpg","https://xcimg.szwego.com/20240731/i1722406457_3657_7.jpg","https://xcimg.szwego.com/20240731/i1722406457_9745_8.jpg"],"created_at":"2024-10-22T05:00:12.169Z"},{"id":"item-f6f3355bada7","sku":"_dnZnZdCP8DPrAP5Wrri4MZKtBcuqccI3KH6Cibg","name_en":"🐎Birkin 25cm Epsom皮 手工蜡线缝制【土黄】","name_cn":"🐎Birkin 25cm Epsom皮 手工蜡线缝制【土黄】","specs":{"source":"wsxcme","sourceId":"_dnZnZdCP8DPrAP5Wrri4MZKtBcuqccI3KH6Cibg","sourceTagId":76963559,"sourceTagName":"爱马仕/女包","rawTitle":"🐎Birkin 25cm Epsom皮 手工蜡线缝制【土黄】"},"price":null,"currency":"CNY","moq":1,"category":"hermes-women-bags","status":"active","alibaba_url":null,"images":["https://xcimg.szwego.com/20240731/i1722406580_9938_0.jpg","https://xcimg.szwego.com/20240731/i1722406580_1616_1.jpg","https://xcimg.szwego.com/20240731/i1722406580_6479_2.jpg","https://xcimg.szwego.com/20240731/i1722406580_6587_3.jpg","https://xcimg.szwego.com/20240731/i1722406580_6721_4.jpg","https://xcimg.szwego.com/20240731/i1722406580_7316_5.jpg","https://xcimg.szwego.com/20240731/i1722406580_9652_6.jpg","https://xcimg.szwego.com/20240731/i1722406580_1495_7.jpg","https://xcimg.szwego.com/20240731/i1722406580_5237_8.jpg"],"created_at":"2024-10-22T05:00:12.164Z"},{"id":"item-d04b39bcd968","sku":"_dnVnVkUUriQPuXizfGlpqVKBIrZorazkD9bv67Q","name_en":"🐎Birkin 25cm Epsom皮 手工蜡线缝制【小鸡黄】","name_cn":"🐎Birkin 25cm Epsom皮 手工蜡线缝制【小鸡黄】","specs":{"source":"wsxcme","sourceId":"_dnVnVkUUriQPuXizfGlpqVKBIrZorazkD9bv67Q","sourceTagId":76963559,"sourceTagName":"爱马仕/女包","rawTitle":"🐎Birkin 25cm Epsom皮 手工蜡线缝制【小鸡黄】"},"price":null,"currency":"CNY","moq":1,"category":"hermes-women-bags","status":"active","alibaba_url":null,"images":["https://xcimg.szwego.com/20240731/i1722406426_9127_0.jpg","https://xcimg.szwego.com/20240731/i1722406426_7853_1.jpg","https://xcimg.szwego.com/20240731/i1722406426_5179_2.jpg","https://xcimg.szwego.com/20240731/i1722406426_7130_3.jpg","https://xcimg.szwego.com/20240731/i1722406426_3641_4.jpg","https://xcimg.szwego.com/20240731/i1722406426_6505_5.jpg","https://xcimg.szwego.com/20240731/i1722406426_6693_6.jpg","https://xcimg.szwego.com/20240731/i1722406426_7155_7.jpg","https://xcimg.szwego.com/20240731/i1722406426_4914_8.jpg"],"created_at":"2024-10-22T05:00:12.168Z"},{"id":"item-44d27adb9b94","sku":"_diwiwkIvBI17GwbOEQgi_22EerpjYjcem_EmHWw","name_en":"🐎Birkin 30cm Epsom皮 全手工蜡线缝制【宝石红】","name_cn":"🐎Birkin 30cm Epsom皮 全手工蜡线缝制【宝石红】","specs":{"source":"wsxcme","sourceId":"_diwiwkIvBI17GwbOEQgi_22EerpjYjcem_EmHWw","sourceTagId":76963559,"sourceTagName":"爱马仕/女包","rawTitle":"🐎Birkin 30cm Epsom皮 全手工蜡线缝制【宝石红】"},"price":null,"currency":"CNY","moq":1,"category":"hermes-women-bags","status":"active","alibaba_url":null,"images":["https://xcimg.szwego.com/20240810/i1723272366_1273_0.jpg","https://xcimg.szwego.com/20240810/i1723272366_7713_1.jpg","https://xcimg.szwego.com/20240810/i1723272366_4009_2.jpg","https://xcimg.szwego.com/20240810/i1723272366_695_3.jpg","https://xcimg.szwego.com/20240810/i1723272366_2023_4.jpg","https://xcimg.szwego.com/20240810/i1723272366_75_5.jpg","https://xcimg.szwego.com/20240810/i1723272366_5966_6.jpg","https://xcimg.szwego.com/20240810/i1723272366_1926_7.jpg","https://xcimg.szwego.com/20240810/i1723272366_3188_8.jpg"],"created_at":"2024-10-22T05:00:12.163Z"},{"id":"item-0e8f61305cea","sku":"_dqEqEft88OFzyjd0cwgcbX6G5UpzBG2AxU3t81w","name_en":"🐎Birkin 30cm Epsom皮 全手工蜡线缝制【唇膏粉]","name_cn":"🐎Birkin 30cm Epsom皮 全手工蜡线缝制【唇膏粉]","specs":{"source":"wsxcme","sourceId":"_dqEqEft88OFzyjd0cwgcbX6G5UpzBG2AxU3t81w","sourceTagId":76963559,"sourceTagName":"爱马仕/女包","rawTitle":"🐎Birkin 30cm Epsom皮 全手工蜡线缝制【唇膏粉]"},"price":null,"currency":"CNY","moq":1,"category":"hermes-women-bags","status":"active","alibaba_url":null,"images":["https://xcimg.szwego.com/20240810/i1723271993_3843_0.jpg","https://xcimg.szwego.com/20240810/i1723271993_119_1.jpg","https://xcimg.szwego.com/20240810/i1723271993_5969_2.jpg","https://xcimg.szwego.com/20240810/i1723271993_2901_3.jpg","https://xcimg.szwego.com/20240810/i1723271993_7046_4.jpg","https://xcimg.szwego.com/20240810/i1723271993_6784_5.jpg","https://xcimg.szwego.com/20240810/i1723271993_7398_6.jpg","https://xcimg.szwego.com/20240810/i1723271993_227_7.jpg","https://xcimg.szwego.com/20240810/i1723271993_5870_8.jpg"],"created_at":"2024-10-22T05:00:12.160Z"},{"id":"item-6a40123ace28","sku":"_dg5g50VqgAPvR2tYloXfHRm9OMOByCZiNYo-6vg","name_en":"🐎Birkin 30cm Epsom皮 全手工蜡线缝制【电光蓝】","name_cn":"🐎Birkin 30cm Epsom皮 全手工蜡线缝制【电光蓝】","specs":{"source":"wsxcme","sourceId":"_dg5g50VqgAPvR2tYloXfHRm9OMOByCZiNYo-6vg","sourceTagId":76963559,"sourceTagName":"爱马仕/女包","rawTitle":"🐎Birkin 30cm Epsom皮 全手工蜡线缝制【电光蓝】"},"price":null,"currency":"CNY","moq":1,"category":"hermes-women-bags","status":"active","alibaba_url":null,"images":["https://xcimg.szwego.com/20240810/i1723271427_6204_0.jpg","https://xcimg.szwego.com/20240810/i1723271427_5292_1.jpg","https://xcimg.szwego.com/20240810/i1723271427_7630_2.jpg","https://xcimg.szwego.com/20240810/i1723271427_1396_3.jpg","https://xcimg.szwego.com/20240810/i1723271427_8962_4.jpg","https://xcimg.szwego.com/20240810/i1723271427_7869_5.jpg","https://xcimg.szwego.com/20240810/i1723271427_2058_6.jpg","https://xcimg.szwego.com/20240810/i1723271427_9300_7.jpg","https://xcimg.szwego.com/20240810/i1723271427_8403_8.jpg"],"created_at":"2024-10-22T05:00:12.158Z"},{"id":"item-e346eed1c886","sku":"_d8o8ob2MQ4BBuxCoUgvtOb8D8UDetbvQSuX4tsw","name_en":"🐎Birkin 30cm Epsom皮 全手工蜡线缝制【锦葵紫】","name_cn":"🐎Birkin 30cm Epsom皮 全手工蜡线缝制【锦葵紫】","specs":{"source":"wsxcme","sourceId":"_d8o8ob2MQ4BBuxCoUgvtOb8D8UDetbvQSuX4tsw","sourceTagId":76963559,"sourceTagName":"爱马仕/女包","rawTitle":"🐎Birkin 30cm Epsom皮 全手工蜡线缝制【锦葵紫】"},"price":null,"currency":"CNY","moq":1,"category":"hermes-women-bags","status":"active","alibaba_url":null,"images":["https://xcimg.szwego.com/20240810/i1723271955_3609_0.jpg","https://xcimg.szwego.com/20240810/i1723271955_8985_1.jpg","https://xcimg.szwego.com/20240810/i1723271955_8839_2.jpg","https://xcimg.szwego.com/20240810/i1723271955_4817_3.jpg","https://xcimg.szwego.com/20240810/i1723271955_5316_4.jpg","https://xcimg.szwego.com/20240810/i1723271955_5316_5.jpg","https://xcimg.szwego.com/20240810/i1723271955_8746_6.jpg","https://xcimg.szwego.com/20240810/i1723271955_847_7.jpg","https://xcimg.szwego.com/20240810/i1723271955_3320_8.jpg"],"created_at":"2024-10-22T05:00:12.159Z"},{"id":"item-300e454d4aae","sku":"_dxkxkb3TMmT5OR-H0QLfa0tpJdxUAzvZHf5N58w","name_en":"🐎Birkin 30cm Epsom皮 全手工蜡线缝制【酒红】","name_cn":"🐎Birkin 30cm Epsom皮 全手工蜡线缝制【酒红】","specs":{"source":"wsxcme","sourceId":"_dxkxkb3TMmT5OR-H0QLfa0tpJdxUAzvZHf5N58w","sourceTagId":76963559,"sourceTagName":"爱马仕/女包","rawTitle":"🐎Birkin 30cm Epsom皮 全手工蜡线缝制【酒红】"},"price":null,"currency":"CNY","moq":1,"category":"hermes-women-bags","status":"active","alibaba_url":null,"images":["https://xcimg.szwego.com/20240810/i1723272405_5669_0.jpg","https://xcimg.szwego.com/20240810/i1723272405_8248_1.jpg","https://xcimg.szwego.com/20240810/i1723272405_9242_2.jpg","https://xcimg.szwego.com/20240810/i1723272405_4588_3.jpg","https://xcimg.szwego.com/20240810/i1723272405_8419_4.jpg","https://xcimg.szwego.com/20240810/i1723272405_3870_5.jpg","https://xcimg.szwego.com/20240810/i1723272405_6570_6.jpg","https://xcimg.szwego.com/20240810/i1723272405_5531_7.jpg","https://xcimg.szwego.com/20240810/i1723272405_7581_8.jpg"],"created_at":"2024-10-22T05:00:12.162Z"},{"id":"item-274322a576b8","sku":"_dfufuWKt3ka20BunzL74UydmCm_Moaii5M15nyA","name_en":"🐎Birkin 30cm Epsom皮 全手工蜡线缝制【玛瑙蓝】","name_cn":"🐎Birkin 30cm Epsom皮 全手工蜡线缝制【玛瑙蓝】","specs":{"source":"wsxcme","sourceId":"_dfufuWKt3ka20BunzL74UydmCm_Moaii5M15nyA","sourceTagId":76963559,"sourceTagName":"爱马仕/女包","rawTitle":"🐎Birkin 30cm Epsom皮 全手工蜡线缝制【玛瑙蓝】"},"price":null,"currency":"CNY","moq":1,"category":"hermes-women-bags","status":"active","alibaba_url":null,"images":["https://xcimg.szwego.com/20240810/i1723271453_3869_0.jpg","https://xcimg.szwego.com/20240810/i1723271453_1572_1.jpg","https://xcimg.szwego.com/20240810/i1723271453_8364_2.jpg","https://xcimg.szwego.com/20240810/i1723271453_3885_3.jpg","https://xcimg.szwego.com/20240810/i1723271453_7774_4.jpg","https://xcimg.szwego.com/20240810/i1723271453_2701_5.jpg","https://xcimg.szwego.com/20240810/i1723271453_4000_6.jpg","https://xcimg.szwego.com/20240810/i1723271453_8593_7.jpg","https://xcimg.szwego.com/20240810/i1723271453_3857_8.jpg"],"created_at":"2024-10-22T05:00:12.157Z"},{"id":"item-ec6f3a458a80","sku":"_dBMBMQ3fjtqAEvBkXyIEMIQOJt26sPEUG-0U_7g","name_en":"🐎Birkin 30cm Epsom皮 全手工蜡线缝制【玉兰粉]","name_cn":"🐎Birkin 30cm Epsom皮 全手工蜡线缝制【玉兰粉]","specs":{"source":"wsxcme","sourceId":"_dBMBMQ3fjtqAEvBkXyIEMIQOJt26sPEUG-0U_7g","sourceTagId":76963559,"sourceTagName":"爱马仕/女包","rawTitle":"🐎Birkin 30cm Epsom皮 全手工蜡线缝制【玉兰粉]"},"price":null,"currency":"CNY","moq":1,"category":"hermes-women-bags","status":"active","alibaba_url":null,"images":["https://xcimg.szwego.com/20240810/i1723272016_1324_0.jpg","https://xcimg.szwego.com/20240810/i1723272016_7122_1.jpg","https://xcimg.szwego.com/20240810/i1723272016_232_2.jpg","https://xcimg.szwego.com/20240810/i1723272016_5543_3.jpg","https://xcimg.szwego.com/20240810/i1723272016_6874_4.jpg","https://xcimg.szwego.com/20240810/i1723272016_5896_5.jpg","https://xcimg.szwego.com/20240810/i1723272016_454_6.jpg","https://xcimg.szwego.com/20240810/i1723272016_3082_7.jpg","https://xcimg.szwego.com/20240810/i1723272016_7726_8.jpg"],"created_at":"2024-10-22T05:00:12.161Z"},{"id":"item-ab05eb630bd3","sku":"_dR1R1W3JCoLYbHwlvdb4Gvga2Po9pj8YIw9TllQ","name_en":"💰现货 kelly elan山羊皮 大象灰 金银扣 最新款 kelly elan 爆款 🆕 手工蜡线缝制","name_cn":"💰现货 kelly elan山羊皮 大象灰 金银扣 最新款 kelly elan 爆款 🆕 手工蜡线缝制\nkelly家族新成员 kelly elan 尺寸27+  取代一代的一款腋下包 拿到实物的第一眼  感觉特别像放大版的kelly to go 、 kelly elan和kelly28底部差不多长 、包的厚度和二代差不多、容量很大、肩带是可拆卸的但不可调节长度、不过任何身高驾驭都没有问题、拆下肩带立马变成一只手包、有点像kelly cut、总之就是很好看\n💘💘爱了爱了 种草","specs":{"source":"wsxcme","sourceId":"_dR1R1W3JCoLYbHwlvdb4Gvga2Po9pj8YIw9TllQ","sourceTagId":76963559,"sourceTagName":"爱马仕/女包","rawTitle":"💰现货 kelly elan山羊皮 大象灰 金银扣 最新款 kelly elan 爆款 🆕 手工蜡线缝制\nkelly家族新成员 kelly elan 尺寸27+  取代一代的一款腋下包 拿到实物的第一眼  感觉特别像放大版的kelly to go 、 kelly elan和kelly28底部差不多长 、包的厚度和二代差不多、容量很大、肩带是可拆卸的但不可调节长度、不过任何身高驾驭都没有问题、拆下肩带立马变成一只手包、有点像kelly cut、总之就是很好看\n💘💘爱了爱了 种草"},"price":null,"currency":"CNY","moq":1,"category":"hermes-women-bags","status":"active","alibaba_url":null,"images":["https://xcimg.szwego.com/20230809/i1691516146_7768_0.jpg","https://xcimg.szwego.com/20230809/i1691516146_6929_1.jpg","https://xcimg.szwego.com/20230809/i1691516146_9668_2.jpg","https://xcimg.szwego.com/20230809/i1691516146_6397_3.jpg","https://xcimg.szwego.com/20230809/i1691516146_2759_4.jpg","https://xcimg.szwego.com/20230809/i1691516146_6071_5.jpg","https://xcimg.szwego.com/20230809/i1691516146_4262_6.jpg","https://xcimg.szwego.com/20230809/i1691516146_5534_7.jpg","https://xcimg.szwego.com/20230809/i1691516146_2177_8.jpg"],"created_at":"2024-10-22T04:49:50.813Z"},{"id":"item-1a08ca857cce","sku":"_dgUgUOjw-SuwHu8gN04dOqwP12CQHRGbJqhAHpw","name_en":"💰现货 kelly elan山羊皮 大象灰 金银扣 最新款 kelly elan 爆款 🆕 手工蜡线缝制","name_cn":"💰现货 kelly elan山羊皮 大象灰 金银扣 最新款 kelly elan 爆款 🆕 手工蜡线缝制\nkelly家族新成员 kelly elan 尺寸27+  取代一代的一款腋下包 拿到实物的第一眼  感觉特别像放大版的kelly to go 、 kelly elan和kelly28底部差不多长 、包的厚度和二代差不多、容量很大、肩带是可拆卸的但不可调节长度、不过任何身高驾驭都没有问题、拆下肩带立马变成一只手包、有点像kelly cut、总之就是很好看\n💘💘爱了爱了 种草","specs":{"source":"wsxcme","sourceId":"_dgUgUOjw-SuwHu8gN04dOqwP12CQHRGbJqhAHpw","sourceTagId":76963559,"sourceTagName":"爱马仕/女包","rawTitle":"💰现货 kelly elan山羊皮 大象灰 金银扣 最新款 kelly elan 爆款 🆕 手工蜡线缝制\nkelly家族新成员 kelly elan 尺寸27+  取代一代的一款腋下包 拿到实物的第一眼  感觉特别像放大版的kelly to go 、 kelly elan和kelly28底部差不多长 、包的厚度和二代差不多、容量很大、肩带是可拆卸的但不可调节长度、不过任何身高驾驭都没有问题、拆下肩带立马变成一只手包、有点像kelly cut、总之就是很好看\n💘💘爱了爱了 种草"},"price":null,"currency":"CNY","moq":1,"category":"hermes-women-bags","status":"active","alibaba_url":null,"images":["https://xcimg.szwego.com/20230809/i1691516274_1971_0.jpg","https://xcimg.szwego.com/20230809/i1691516274_237_1.jpg","https://xcimg.szwego.com/20230809/i1691516274_3848_2.jpg","https://xcimg.szwego.com/20230809/i1691516274_6532_3.jpg","https://xcimg.szwego.com/20230809/i1691516274_4484_4.jpg","https://xcimg.szwego.com/20230809/i1691516274_3459_5.jpg","https://xcimg.szwego.com/20230809/i1691516274_9392_6.jpg","https://xcimg.szwego.com/20230809/i1691516274_6998_7.jpg","https://xcimg.szwego.com/20230809/i1691516274_8253_8.jpg"],"created_at":"2024-10-22T04:49:50.814Z"},{"id":"item-a6f6fa7ac348","sku":"_dPfPfjy-pL7e1FkrOfRFwHUQ0f2ckhAQh6UhZiA","name_en":"💰现货 kelly elan山羊皮 黑色 金银扣 最新款 kelly elan 爆款 🆕 手工蜡线缝制","name_cn":"💰现货 kelly elan山羊皮 黑色 金银扣 最新款 kelly elan 爆款 🆕 手工蜡线缝制\nkelly家族新成员 kelly elan 尺寸27+  取代一代的一款腋下包 拿到实物的第一眼  感觉特别像放大版的kelly to go 、 kelly elan和kelly28底部差不多长 、包的厚度和二代差不多、容量很大、肩带是可拆卸的但不可调节长度、不过任何身高驾驭都没有问题、拆下肩带立马变成一只手包、有点像kelly cut、总之就是很好看\n💘💘爱了爱了 种草","specs":{"source":"wsxcme","sourceId":"_dPfPfjy-pL7e1FkrOfRFwHUQ0f2ckhAQh6UhZiA","sourceTagId":76963559,"sourceTagName":"爱马仕/女包","rawTitle":"💰现货 kelly elan山羊皮 黑色 金银扣 最新款 kelly elan 爆款 🆕 手工蜡线缝制\nkelly家族新成员 kelly elan 尺寸27+  取代一代的一款腋下包 拿到实物的第一眼  感觉特别像放大版的kelly to go 、 kelly elan和kelly28底部差不多长 、包的厚度和二代差不多、容量很大、肩带是可拆卸的但不可调节长度、不过任何身高驾驭都没有问题、拆下肩带立马变成一只手包、有点像kelly cut、总之就是很好看\n💘💘爱了爱了 种草"},"price":null,"currency":"CNY","moq":1,"category":"hermes-women-bags","status":"active","alibaba_url":null,"images":["https://xcimg.szwego.com/20230809/i1691516463_9133_0.jpg","https://xcimg.szwego.com/20230809/i1691516463_9912_1.jpg","https://xcimg.szwego.com/20230809/i1691516463_2942_2.jpg","https://xcimg.szwego.com/20230809/i1691516463_3220_3.jpg","https://xcimg.szwego.com/20230809/i1691516463_7923_4.jpg","https://xcimg.szwego.com/20230809/i1691516463_5792_5.jpg","https://xcimg.szwego.com/20230809/i1691516463_6876_6.jpg","https://xcimg.szwego.com/20230809/i1691516463_8168_7.jpg","https://xcimg.szwego.com/20230809/i1691516463_9029_8.jpg"],"created_at":"2024-10-22T04:49:50.817Z"},{"id":"item-4784fe9a255f","sku":"_dxAxAH1ZditQKl7_PqxEvW0w1oU9VTyttQWTowg","name_en":"💰现货 kelly elan山羊皮 黑色 金银扣 最新款 kelly elan 爆款 🆕 手工蜡线缝制","name_cn":"💰现货 kelly elan山羊皮 黑色 金银扣 最新款 kelly elan 爆款 🆕 手工蜡线缝制\nkelly家族新成员 kelly elan 尺寸27+  取代一代的一款腋下包 拿到实物的第一眼  感觉特别像放大版的kelly to go 、 kelly elan和kelly28底部差不多长 、包的厚度和二代差不多、容量很大、肩带是可拆卸的但不可调节长度、不过任何身高驾驭都没有问题、拆下肩带立马变成一只手包、有点像kelly cut、总之就是很好看\n💘💘爱了爱了 种草","specs":{"source":"wsxcme","sourceId":"_dxAxAH1ZditQKl7_PqxEvW0w1oU9VTyttQWTowg","sourceTagId":76963559,"sourceTagName":"爱马仕/女包","rawTitle":"💰现货 kelly elan山羊皮 黑色 金银扣 最新款 kelly elan 爆款 🆕 手工蜡线缝制\nkelly家族新成员 kelly elan 尺寸27+  取代一代的一款腋下包 拿到实物的第一眼  感觉特别像放大版的kelly to go 、 kelly elan和kelly28底部差不多长 、包的厚度和二代差不多、容量很大、肩带是可拆卸的但不可调节长度、不过任何身高驾驭都没有问题、拆下肩带立马变成一只手包、有点像kelly cut、总之就是很好看\n💘💘爱了爱了 种草"},"price":null,"currency":"CNY","moq":1,"category":"hermes-women-bags","status":"active","alibaba_url":null,"images":["https://xcimg.szwego.com/20230711/a1689052391098_1273.jpg","https://xcimg.szwego.com/20230711/a1689052391099_4080.jpg","https://xcimg.szwego.com/20230711/a1689052391101_4468.jpg","https://xcimg.szwego.com/20230711/a1689052391103_4221.jpg","https://xcimg.szwego.com/20230711/a1689052391104_1602.jpg","https://xcimg.szwego.com/20230711/a1689052391107_6082.jpg","https://xcimg.szwego.com/20230711/a1689052391108_6816.jpg","https://xcimg.szwego.com/20230711/a1689052391424_0748.jpg","https://xcimg.szwego.com/20230711/a1689052391425_2205.jpg"],"created_at":"2024-10-22T04:49:50.737Z"},{"id":"item-f09b1ce44621","sku":"_dxJxJf1DH123MoWP47zszGaTxZdFlYQhZYCdkBw","name_en":"💰现货 kelly elan山羊皮 金棕色 金银扣 最新款 kelly elan 爆款 🆕 手工蜡线缝制","name_cn":"💰现货 kelly elan山羊皮 金棕色 金银扣 最新款 kelly elan 爆款 🆕 手工蜡线缝制\nkelly家族新成员 kelly elan 尺寸27+  取代一代的一款腋下包 拿到实物的第一眼  感觉特别像放大版的kelly to go 、 kelly elan和kelly28底部差不多长 、包的厚度和二代差不多、容量很大、肩带是可拆卸的但不可调节长度、不过任何身高驾驭都没有问题、拆下肩带立马变成一只手包、有点像kelly cut、总之就是很好看\n💘💘爱了爱了 种草","specs":{"source":"wsxcme","sourceId":"_dxJxJf1DH123MoWP47zszGaTxZdFlYQhZYCdkBw","sourceTagId":76963559,"sourceTagName":"爱马仕/女包","rawTitle":"💰现货 kelly elan山羊皮 金棕色 金银扣 最新款 kelly elan 爆款 🆕 手工蜡线缝制\nkelly家族新成员 kelly elan 尺寸27+  取代一代的一款腋下包 拿到实物的第一眼  感觉特别像放大版的kelly to go 、 kelly elan和kelly28底部差不多长 、包的厚度和二代差不多、容量很大、肩带是可拆卸的但不可调节长度、不过任何身高驾驭都没有问题、拆下肩带立马变成一只手包、有点像kelly cut、总之就是很好看\n💘💘爱了爱了 种草"},"price":null,"currency":"CNY","moq":1,"category":"hermes-women-bags","status":"active","alibaba_url":null,"images":["https://xcimg.szwego.com/20230809/i1691516443_3092_0.jpg","https://xcimg.szwego.com/20230809/i1691516443_6327_1.jpg","https://xcimg.szwego.com/20230809/i1691516443_5759_2.jpg","https://xcimg.szwego.com/20230809/i1691516443_536_3.jpg","https://xcimg.szwego.com/20230809/i1691516443_1635_4.jpg","https://xcimg.szwego.com/20230809/i1691516443_76_5.jpg","https://xcimg.szwego.com/20230809/i1691516443_4773_6.jpg","https://xcimg.szwego.com/20230809/i1691516443_7365_7.jpg","https://xcimg.szwego.com/20230809/i1691516443_5677_8.jpg"],"created_at":"2024-10-22T04:49:50.735Z"},{"id":"item-dabdd4bcfe25","sku":"_dmtmtCVsFcazpI_Bb8wxuGDC4TP868erCnfkRtA","name_en":"💰现货 kelly elan山羊皮 奶昔白 金银扣 最新款 kelly elan 爆款 🆕 手工蜡线缝制","name_cn":"💰现货 kelly elan山羊皮 奶昔白 金银扣 最新款 kelly elan 爆款 🆕 手工蜡线缝制\nkelly家族新成员 kelly elan 尺寸27+  取代一代的一款腋下包 拿到实物的第一眼  感觉特别像放大版的kelly to go 、 kelly elan和kelly28底部差不多长 、包的厚度和二代差不多、容量很大、肩带是可拆卸的但不可调节长度、不过任何身高驾驭都没有问题、拆下肩带立马变成一只手包、有点像kelly cut、总之就是很好看\n💘💘爱了爱了 种草","specs":{"source":"wsxcme","sourceId":"_dmtmtCVsFcazpI_Bb8wxuGDC4TP868erCnfkRtA","sourceTagId":76963559,"sourceTagName":"爱马仕/女包","rawTitle":"💰现货 kelly elan山羊皮 奶昔白 金银扣 最新款 kelly elan 爆款 🆕 手工蜡线缝制\nkelly家族新成员 kelly elan 尺寸27+  取代一代的一款腋下包 拿到实物的第一眼  感觉特别像放大版的kelly to go 、 kelly elan和kelly28底部差不多长 、包的厚度和二代差不多、容量很大、肩带是可拆卸的但不可调节长度、不过任何身高驾驭都没有问题、拆下肩带立马变成一只手包、有点像kelly cut、总之就是很好看\n💘💘爱了爱了 种草"},"price":null,"currency":"CNY","moq":1,"category":"hermes-women-bags","status":"active","alibaba_url":null,"images":["https://xcimg.szwego.com/20230809/i1691516315_5839_0.jpg","https://xcimg.szwego.com/20230809/i1691516315_9566_1.jpg","https://xcimg.szwego.com/20230809/i1691516315_3576_2.jpg","https://xcimg.szwego.com/20230809/i1691516315_3685_3.jpg","https://xcimg.szwego.com/20230809/i1691516315_5093_4.jpg","https://xcimg.szwego.com/20230809/i1691516315_8964_5.jpg","https://xcimg.szwego.com/20230809/i1691516315_3478_6.jpg","https://xcimg.szwego.com/20230809/i1691516315_8270_7.jpg","https://xcimg.szwego.com/20230809/i1691516315_79_8.jpg"],"created_at":"2024-10-22T04:49:50.816Z"},{"id":"item-5f444e61f6db","sku":"_droroqf_A_BVwL-7DhBj6qnRzoMMhd38qa0Ftnw","name_en":"💰现货 kelly elan山羊皮 奶昔白 金银扣 最新款 kelly elan 爆款 🆕 手工蜡线缝制","name_cn":"💰现货 kelly elan山羊皮 奶昔白 金银扣 最新款 kelly elan 爆款 🆕 手工蜡线缝制\nkelly家族新成员 kelly elan 尺寸27+  取代一代的一款腋下包 拿到实物的第一眼  感觉特别像放大版的kelly to go 、 kelly elan和kelly28底部差不多长 、包的厚度和二代差不多、容量很大、肩带是可拆卸的但不可调节长度、不过任何身高驾驭都没有问题、拆下肩带立马变成一只手包、有点像kelly cut、总之就是很好看\n💘💘爱了爱了 种草","specs":{"source":"wsxcme","sourceId":"_droroqf_A_BVwL-7DhBj6qnRzoMMhd38qa0Ftnw","sourceTagId":76963559,"sourceTagName":"爱马仕/女包","rawTitle":"💰现货 kelly elan山羊皮 奶昔白 金银扣 最新款 kelly elan 爆款 🆕 手工蜡线缝制\nkelly家族新成员 kelly elan 尺寸27+  取代一代的一款腋下包 拿到实物的第一眼  感觉特别像放大版的kelly to go 、 kelly elan和kelly28底部差不多长 、包的厚度和二代差不多、容量很大、肩带是可拆卸的但不可调节长度、不过任何身高驾驭都没有问题、拆下肩带立马变成一只手包、有点像kelly cut、总之就是很好看\n💘💘爱了爱了 种草"},"price":null,"currency":"CNY","moq":1,"category":"hermes-women-bags","status":"active","alibaba_url":null,"images":["https://xcimg.szwego.com/20230809/i1691516364_2314_0.jpg","https://xcimg.szwego.com/20230809/i1691516364_7998_1.jpg","https://xcimg.szwego.com/20230809/i1691516364_5005_2.jpg","https://xcimg.szwego.com/20230809/i1691516364_9042_3.jpg","https://xcimg.szwego.com/20230809/i1691516364_9129_4.jpg","https://xcimg.szwego.com/20230809/i1691516364_7680_5.jpg","https://xcimg.szwego.com/20230809/i1691516364_3544_6.jpg","https://xcimg.szwego.com/20230809/i1691516364_5664_7.jpg","https://xcimg.szwego.com/20230809/i1691516364_1772_8.jpg"],"created_at":"2024-10-22T04:49:50.815Z"},{"id":"item-fbfc2f9a5c72","sku":"_dp-p-FBbLZqykzfaUhl7U5LDesyAZrmmPk5KKuA","name_en":"斑鸠灰🏷️Mini Kelly 二代","name_cn":"斑鸠灰🏷️Mini Kelly 二代\n• 独家高性价比版本\n• 里外全皮完美机缝\n• Mini包中的霸主\n“麻雀虽小、五脏俱全”🎁 除了可以携带随身所需小物_更可容纳品味 将品味“背着走”。\n现货19Cm 7878000","specs":{"source":"wsxcme","sourceId":"_dp-p-FBbLZqykzfaUhl7U5LDesyAZrmmPk5KKuA","sourceTagId":76963559,"sourceTagName":"爱马仕/女包","rawTitle":"斑鸠灰🏷️Mini Kelly 二代\n• 独家高性价比版本\n• 里外全皮完美机缝\n• Mini包中的霸主\n“麻雀虽小、五脏俱全”🎁 除了可以携带随身所需小物_更可容纳品味 将品味“背着走”。\n现货19Cm 7878000"},"price":null,"currency":"CNY","moq":1,"category":"hermes-women-bags","status":"active","alibaba_url":null,"images":["https://xcimg.szwego.com/img/b17e98d7/20240420/i1713606848_5407_6.jpg","https://xcimg.szwego.com/img/b17e98d7/20240420/i1713606848_4345_0.jpg","https://xcimg.szwego.com/img/b17e98d7/20240420/i1713606848_3822_7.jpg","https://xcimg.szwego.com/img/b17e98d7/20240420/i1713606848_8517_8.jpg","https://xcimg.szwego.com/img/b17e98d7/20240420/i1713606848_557_1.jpg","https://xcimg.szwego.com/img/b17e98d7/20240420/i1713606848_5204_5.jpg","https://xcimg.szwego.com/img/b17e98d7/20240420/i1713606848_468_4.jpg","https://xcimg.szwego.com/img/b17e98d7/20240420/i1713606848_6244_2.jpg","https://xcimg.szwego.com/img/b17e98d7/20240420/i1713606848_8017_3.jpg"],"created_at":"2024-10-22T05:04:33.159Z"}],"page":5,"pageSize":24,"total":439,"totalPages":19}
