{"items":[{"id":"item-3da4d405bff9","sku":"_d8R8RAxWOS5okLbLqXoLrtvBakoU1Byh5WFeKvQ","name_en":"Top-tier handmade from our own factory, original team, wax thread semi-handmade basket, imported 2.5mm Togo leather, French wax thread, Dior motorcycle, semi-hand stitched, raised bottom, anti-counterfeit line pressed throughout the bag.","name_cn":"Top-tier handmade from our own factory, original team, wax thread semi-handmade basket, imported 2.5mm Togo leather, French wax thread, Dior motorcycle, semi-hand stitched, raised bottom, anti-counterfeit line pressed throughout the bag.","specs":{"source":"wsxcme","sourceId":"_d8R8RAxWOS5okLbLqXoLrtvBakoU1Byh5WFeKvQ","sourceTagId":76963559,"sourceTagName":"Hermes/women's bag","rawTitle":"Top-tier handmade from our own factory, original team, wax thread semi-handmade basket, imported 2.5mm Togo leather, French wax thread, Dior motorcycle, semi-hand stitched, raised bottom, anti-counterfeit line pressed throughout the bag."},"price":null,"currency":"CNY","moq":1,"category":"hermes-women-bags","status":"active","alibaba_url":null,"images":["https://xcimg.szwego.com/20230322/i1679469927_1173_0.jpg","https://xcimg.szwego.com/20230322/i1679469927_7936_1.jpg","https://xcimg.szwego.com/20230322/i1679469927_9708_2.jpg","https://xcimg.szwego.com/20230322/i1679469927_1041_8.jpg","https://xcimg.szwego.com/20230322/i1679469927_1362_6.jpg","https://xcimg.szwego.com/20230322/i1679469927_2471_7.jpg","https://xcimg.szwego.com/20230322/i1679469927_9911_3.jpg","https://xcimg.szwego.com/20230322/i1679469927_2733_4.jpg","https://xcimg.szwego.com/20230322/i1679469927_4920_5.jpg"],"created_at":"2025-11-29T13:09:08.568Z"},{"id":"item-2d0ec25e6b1a","sku":"_d-y-yjjaPS5zCMNFDqiqQlI44gSk33PalqPc15Q","name_en":"Top-tier handmade from our own factory, original team, wax thread semi-handmade basket, imported 2.5mm Togo leather, French wax thread, Dior motorcycle, semi-hand stitched, raised bottom, anti-counterfeit line pressed throughout the bag.","name_cn":"Top-tier handmade from our own factory, original team, wax thread semi-handmade basket, imported 2.5mm Togo leather, French wax thread, Dior motorcycle, semi-hand stitched, raised bottom, anti-counterfeit line pressed throughout the bag.","specs":{"source":"wsxcme","sourceId":"_d-y-yjjaPS5zCMNFDqiqQlI44gSk33PalqPc15Q","sourceTagId":76963559,"sourceTagName":"Hermes/women's bag","rawTitle":"Top-tier handmade from our own factory, original team, wax thread semi-handmade basket, imported 2.5mm Togo leather, French wax thread, Dior motorcycle, semi-hand stitched, raised bottom, anti-counterfeit line pressed throughout the bag."},"price":null,"currency":"CNY","moq":1,"category":"hermes-women-bags","status":"active","alibaba_url":null,"images":["https://xcimg.szwego.com/20230322/i1679458928_502_2.jpg","https://xcimg.szwego.com/20230322/i1679458928_8751_1.jpg","https://xcimg.szwego.com/20230322/i1679458928_4930_0.jpg","https://xcimg.szwego.com/20230322/i1679458928_2294_8.jpg","https://xcimg.szwego.com/20230322/i1679458928_7969_4.jpg","https://xcimg.szwego.com/20230322/i1679458928_56_5.jpg","https://xcimg.szwego.com/20230322/i1679458928_3368_3.jpg","https://xcimg.szwego.com/20230322/i1679458928_1597_6.jpg","https://xcimg.szwego.com/20230322/i1679458928_4244_7.jpg"],"created_at":"2025-11-29T13:10:08.298Z"},{"id":"item-1923b8940d4b","sku":"_dpnpn2o4nfN44G70vrtO_nXg86QtItBIci8oPiQ","name_en":"Top-tier handmade from our own factory, original team, wax thread semi-handmade basket, imported 2.5mm Togo leather, French wax thread, Dior motorcycle, semi-hand stitched, raised bottom, anti-counterfeit line pressed throughout the bag.","name_cn":"Top-tier handmade from our own factory, original team, wax thread semi-handmade basket, imported 2.5mm Togo leather, French wax thread, Dior motorcycle, semi-hand stitched, raised bottom, anti-counterfeit line pressed throughout the bag.","specs":{"source":"wsxcme","sourceId":"_dpnpn2o4nfN44G70vrtO_nXg86QtItBIci8oPiQ","sourceTagId":76963559,"sourceTagName":"Hermes/women's bag","rawTitle":"Top-tier handmade from our own factory, original team, wax thread semi-handmade basket, imported 2.5mm Togo leather, French wax thread, Dior motorcycle, semi-hand stitched, raised bottom, anti-counterfeit line pressed throughout the bag."},"price":null,"currency":"CNY","moq":1,"category":"hermes-women-bags","status":"active","alibaba_url":null,"images":["https://xcimg.szwego.com/20230322/i1679470466_4633_0.jpg","https://xcimg.szwego.com/20230322/i1679470466_3630_1.jpg","https://xcimg.szwego.com/20230322/i1679470466_3969_2.jpg","https://xcimg.szwego.com/20230322/i1679477746_8738_0.jpg","https://xcimg.szwego.com/20230322/i1679470466_2063_5.jpg","https://xcimg.szwego.com/20230322/i1679470466_9347_3.jpg","https://xcimg.szwego.com/20230322/i1679470466_657_4.jpg","https://xcimg.szwego.com/20230322/i1679470466_4183_7.jpg","https://xcimg.szwego.com/20230322/i1679470466_543_6.jpg"],"created_at":"2025-11-29T13:08:52.294Z"},{"id":"item-7a6ca9b23184","sku":"_dkxkxOomPcr8iEVw5i5hJ9aAd-WbNrZElmqvWTQ","name_en":"touch KL25 Black Silver","name_cn":"touch KL25 Black Silver\nTogo leather and lizard Kelly 25cm hand-stitched wax thread\nFull steel hardware, goat leather lining","specs":{"source":"wsxcme","sourceId":"_dkxkxOomPcr8iEVw5i5hJ9aAd-WbNrZElmqvWTQ","sourceTagId":76963559,"sourceTagName":"Hermes/women's bag","rawTitle":"touch KL25 Black Silver\nTogo leather and lizard Kelly 25cm hand-stitched wax thread\nFull steel hardware, goat leather lining"},"price":null,"currency":"CNY","moq":1,"category":"hermes-women-bags","status":"active","alibaba_url":null,"images":["https://xcimg.szwego.com/img/9ee4266d/20240409/i1712656477_6256_3.jpg","https://xcimg.szwego.com/img/9ee4266d/20240409/i1712656477_970_0.jpg","https://xcimg.szwego.com/img/9ee4266d/20240409/i1712656477_818_7.jpg","https://xcimg.szwego.com/img/9ee4266d/20240409/i1712656477_2179_4.jpg","https://xcimg.szwego.com/img/9ee4266d/20240409/i1712656477_7473_1.jpg","https://xcimg.szwego.com/img/9ee4266d/20240409/i1712656477_2861_6.jpg","https://xcimg.szwego.com/img/9ee4266d/20240409/i1712656477_6611_2.jpg","https://xcimg.szwego.com/img/9ee4266d/20240409/i1712656477_5638_5.jpg","https://xcimg.szwego.com/img/9ee4266d/20240409/i1712656477_9826_8.jpg","https://xcimg.szwego.com/img/9ee4266d/20240409/i1712656477_1850_9.jpg"],"created_at":"2024-10-22T04:43:02.147Z"},{"id":"item-38c920f709f6","sku":"_dSXSXlvNFWeXbXiWQxdCAtxvWmzfx5p9Hn06gkA","name_en":"touch KL25 Gold Brown","name_cn":"touch KL25 Gold Brown\nTogo leather and matte crocodile Kelly 25 hand-stitched wax thread\nFull steel hardware, goat leather lining","specs":{"source":"wsxcme","sourceId":"_dSXSXlvNFWeXbXiWQxdCAtxvWmzfx5p9Hn06gkA","sourceTagId":76963559,"sourceTagName":"Hermes/women's bag","rawTitle":"touch KL25 Gold Brown\nTogo leather and matte crocodile Kelly 25 hand-stitched wax thread\nFull steel hardware, goat leather lining"},"price":null,"currency":"CNY","moq":1,"category":"hermes-women-bags","status":"active","alibaba_url":null,"images":["https://xcimg.szwego.com/img/9ee4266d/20240411/i1712828201_3890_0.jpg","https://xcimg.szwego.com/img/9ee4266d/20240411/i1712828201_7954_3.jpg","https://xcimg.szwego.com/img/9ee4266d/20240411/i1712828201_608_1.jpg","https://xcimg.szwego.com/img/9ee4266d/20240411/i1712828201_6994_5.jpg","https://xcimg.szwego.com/img/9ee4266d/20240411/i1712828201_7619_8.jpg","https://xcimg.szwego.com/img/9ee4266d/20240411/i1712828201_4836_7.jpg","https://xcimg.szwego.com/img/9ee4266d/20240411/i1712828201_1810_4.jpg","https://xcimg.szwego.com/img/9ee4266d/20240411/i1712828201_2396_6.jpg","https://xcimg.szwego.com/img/9ee4266d/20240411/i1712828201_9962_2.jpg"],"created_at":"2024-10-22T04:43:02.146Z"},{"id":"item-83b8643c5035","sku":"_dfZfZ7Qq7prhN8J9surYgKLAnqCX4-FjEzhmUyg","name_en":"Twilly|Maya Jungle Orpheus Magic","name_cn":"Twilly|Maya Jungle Orpheus Magic\nDesigner: Alice Shirley\n04 Color, Sky Blue / Beige / Cinnabar Red\n·\nThe pastel blue Maya Jungle is softer than blue and gray.\n·\nOrpheus is a figure from Greek mythology, most famous for his masterful lyre playing. His music could enchant the wild animals of the forest; even streams would stop, and trees would lean in to listen to his beautiful song.\nThe magical legend of Orpheus is interpreted on this small Twilly, with Orpheus playing moving music in the jungle. Deer, lions, bears, and horses are moved by the sound, attracted by the touching melody.","specs":{"source":"wsxcme","sourceId":"_dfZfZ7Qq7prhN8J9surYgKLAnqCX4-FjEzhmUyg","sourceTagId":76963559,"sourceTagName":"Hermes/women's bag","rawTitle":"Twilly|Maya Jungle Orpheus Magic\nDesigner: Alice Shirley\n04 Color, Sky Blue / Beige / Cinnabar Red\n·\nThe pastel blue Maya Jungle is softer than blue and gray.\n·\nOrpheus is a figure from Greek mythology, most famous for his masterful lyre playing. His music could enchant the wild animals of the forest; even streams would stop, and trees would lean in to listen to his beautiful song.\nThe magical legend of Orpheus is interpreted on this small Twilly, with Orpheus playing moving music in the jungle. Deer, lions, bears, and horses are moved by the sound, attracted by the touching melody."},"price":null,"currency":"CNY","moq":1,"category":"hermes-women-bags","status":"active","alibaba_url":null,"images":["https://xcimg.szwego.com/img/3d6d0be4/20231215/i1702623689_1917_0.jpg","https://xcimg.szwego.com/img/3d6d0be4/20231215/i1702623689_3265_0.jpg","https://xcimg.szwego.com/img/3d6d0be4/20231215/i1702623689_4013_0.jpg","https://xcimg.szwego.com/img/3d6d0be4/20231215/i1702623689_2426_0.jpg","https://xcimg.szwego.com/img/3d6d0be4/20231215/i1702623674_4256_0.jpg"],"created_at":"2024-10-22T05:00:12.176Z"},{"id":"item-b8e75140fa10","sku":"_dj0j0fSAMqwMH-mSrSVxikOHN0VoU7-iyiOiGUQ","name_en":"Wow✨Twilly has so many uses. The most common use is wrapping around handbag handles. Girls with long hair can use it to tie their hair, super gentle ☺️. In summer, it can be a small scarf or tied around the wrist. It is a small accessory with many uses. This one, needless to say, is absolutely explosively good-looking 💥~","name_cn":"Wow✨Twilly has so many uses. The most common use is wrapping around handbag handles. Girls with long hair can use it to tie their hair, super gentle ☺️. In summer, it can be a small scarf or tied around the wrist. It is a small accessory with many uses. This one, needless to say, is absolutely explosively good-looking 💥~","specs":{"source":"wsxcme","sourceId":"_dj0j0fSAMqwMH-mSrSVxikOHN0VoU7-iyiOiGUQ","sourceTagId":76963559,"sourceTagName":"Hermes/women's bag","rawTitle":"Wow✨Twilly has so many uses. The most common use is wrapping around handbag handles. Girls with long hair can use it to tie their hair, super gentle ☺️. In summer, it can be a small scarf or tied around the wrist. It is a small accessory with many uses. This one, needless to say, is absolutely explosively good-looking 💥~"},"price":null,"currency":"CNY","moq":1,"category":"hermes-women-bags","status":"active","alibaba_url":null,"images":["https://xcimg.szwego.com/img/3d6d0be4/20231215/i1702623186_8252_0.jpg","https://xcimg.szwego.com/img/3d6d0be4/20231215/i1702623186_5913_0.jpg","https://xcimg.szwego.com/img/3d6d0be4/20231215/i1702623186_4469_0.jpg","https://xcimg.szwego.com/img/3d6d0be4/20231215/i1702623186_5292_0.jpg","https://xcimg.szwego.com/img/3d6d0be4/20231215/i1702623186_3842_0.jpg"],"created_at":"2024-10-22T05:00:12.174Z"}],"page":19,"pageSize":24,"total":439,"totalPages":19}
