{"items":[{"id":"item-4df87176a482","sku":"_dj0j0fSAMqwMH-mSrSV1mk-DN0Fsd7-iyi-qGUw","name_en":"Birkin 25 亮面鳄鱼🐊 全手工","name_cn":"Birkin 25 亮面鳄鱼🐊 全手工","specs":{"source":"wsxcme","sourceId":"_dj0j0fSAMqwMH-mSrSV1mk-DN0Fsd7-iyi-qGUw","sourceTagId":76963559,"sourceTagName":"爱马仕/女包","rawTitle":"Birkin 25 亮面鳄鱼🐊 全手工"},"price":null,"currency":"CNY","moq":1,"category":"hermes-women-bags","status":"active","alibaba_url":null,"images":["https://xcimg.szwego.com/img/9ee4266d/20240722/i1721645735_4077_0.jpg","https://xcimg.szwego.com/img/9ee4266d/20240722/i1721645735_2288_0.jpg","https://xcimg.szwego.com/img/9ee4266d/20240722/i1721645729_5686_4.jpg","https://xcimg.szwego.com/img/9ee4266d/20240722/i1721645735_3934_0.jpg","https://xcimg.szwego.com/img/9ee4266d/20240722/i1721645735_189_0.jpg","https://xcimg.szwego.com/img/9ee4266d/20240722/i1721645735_4207_0.jpg","https://xcimg.szwego.com/img/9ee4266d/20240722/i1721645735_2193_0.jpg"],"created_at":"2024-10-22T04:43:02.155Z"},{"id":"item-41dba14393cb","sku":"_dyPyPjBGW7lbs8GdD2wzL9m3HENkRCkIdm18meA","name_en":"Birkin 25 亮面鳄鱼🐊 全手工","name_cn":"Birkin 25 亮面鳄鱼🐊 全手工","specs":{"source":"wsxcme","sourceId":"_dyPyPjBGW7lbs8GdD2wzL9m3HENkRCkIdm18meA","sourceTagId":76963559,"sourceTagName":"爱马仕/女包","rawTitle":"Birkin 25 亮面鳄鱼🐊 全手工"},"price":null,"currency":"CNY","moq":1,"category":"hermes-women-bags","status":"active","alibaba_url":null,"images":["https://xcimg.szwego.com/img/9ee4266d/20240722/i1721652303_1448_2.jpg","https://xcimg.szwego.com/img/9ee4266d/20240722/i1721652303_9148_4.jpg","https://xcimg.szwego.com/img/9ee4266d/20240722/i1721652303_4976_1.jpg","https://xcimg.szwego.com/img/9ee4266d/20240722/i1721652304_6260_6.jpg","https://xcimg.szwego.com/img/9ee4266d/20240722/i1721652303_9328_3.jpg","https://xcimg.szwego.com/img/9ee4266d/20240722/i1721652304_7860_5.jpg","https://xcimg.szwego.com/img/9ee4266d/20240722/i1721652303_6240_0.jpg"],"created_at":"2024-10-22T04:43:02.163Z"},{"id":"item-26b0fe70d636","sku":"_dEbEbB1Fgw1aH8GxVWzT_B2J5aIdPsuYieT_hOA","name_en":"Birkin 25 亮面鳄鱼🐊 全手工","name_cn":"Birkin 25 亮面鳄鱼🐊 全手工","specs":{"source":"wsxcme","sourceId":"_dEbEbB1Fgw1aH8GxVWzT_B2J5aIdPsuYieT_hOA","sourceTagId":76963559,"sourceTagName":"爱马仕/女包","rawTitle":"Birkin 25 亮面鳄鱼🐊 全手工"},"price":null,"currency":"CNY","moq":1,"category":"hermes-women-bags","status":"active","alibaba_url":null,"images":["https://xcimg.szwego.com/img/9ee4266d/20240722/i1721651625_2515_2.jpg","https://xcimg.szwego.com/img/9ee4266d/20240722/i1721651625_7375_4.jpg","https://xcimg.szwego.com/img/9ee4266d/20240722/i1721651625_3352_0.jpg","https://xcimg.szwego.com/img/9ee4266d/20240722/i1721651626_2771_7.jpg","https://xcimg.szwego.com/img/9ee4266d/20240722/i1721651625_9273_1.jpg","https://xcimg.szwego.com/img/9ee4266d/20240722/i1721651626_3765_6.jpg","https://xcimg.szwego.com/img/9ee4266d/20240722/i1721651626_5549_5.jpg","https://xcimg.szwego.com/img/9ee4266d/20240722/i1721651625_38_3.jpg"],"created_at":"2024-10-22T04:43:02.160Z"},{"id":"item-1f7d8096ae00","sku":"_dElElEhfsgq0CdNRyrpreBB8OpwfwM9FwpOK0GA","name_en":"Birkin 25 亮面鳄鱼🐊 全手工","name_cn":"Birkin 25 亮面鳄鱼🐊 全手工","specs":{"source":"wsxcme","sourceId":"_dElElEhfsgq0CdNRyrpreBB8OpwfwM9FwpOK0GA","sourceTagId":76963559,"sourceTagName":"爱马仕/女包","rawTitle":"Birkin 25 亮面鳄鱼🐊 全手工"},"price":null,"currency":"CNY","moq":1,"category":"hermes-women-bags","status":"active","alibaba_url":null,"images":["https://xcimg.szwego.com/img/9ee4266d/20240722/i1721651955_707_0.jpg","https://xcimg.szwego.com/img/9ee4266d/20240722/i1721651954_880_0.jpg","https://xcimg.szwego.com/img/9ee4266d/20240722/i1721651955_8237_0.jpg","https://xcimg.szwego.com/img/9ee4266d/20240722/i1721651955_8630_0.jpg","https://xcimg.szwego.com/img/9ee4266d/20240722/i1721651955_2158_0.jpg","https://xcimg.szwego.com/img/9ee4266d/20240722/i1721651955_8784_0.jpg","https://xcimg.szwego.com/img/9ee4266d/20240722/i1721651955_7510_0.jpg"],"created_at":"2024-10-22T04:43:02.162Z"},{"id":"item-075527ce92ea","sku":"_dgygy3oS-jKEmyXvTeUWkajHGZxRPGsfC-lMwZQ","name_en":"Birkin 25 亮面鳄鱼🐊 全手工","name_cn":"Birkin 25 亮面鳄鱼🐊 全手工","specs":{"source":"wsxcme","sourceId":"_dgygy3oS-jKEmyXvTeUWkajHGZxRPGsfC-lMwZQ","sourceTagId":76963559,"sourceTagName":"爱马仕/女包","rawTitle":"Birkin 25 亮面鳄鱼🐊 全手工"},"price":null,"currency":"CNY","moq":1,"category":"hermes-women-bags","status":"active","alibaba_url":null,"images":["https://xcimg.szwego.com/img/9ee4266d/20240722/i1721645787_8759_4.jpg","https://xcimg.szwego.com/img/9ee4266d/20240722/i1721645787_5012_2.jpg","https://xcimg.szwego.com/img/9ee4266d/20240722/i1721645787_4783_1.jpg","https://xcimg.szwego.com/img/9ee4266d/20240722/i1721645787_6426_5.jpg","https://xcimg.szwego.com/img/9ee4266d/20240722/i1721645787_5600_6.jpg","https://xcimg.szwego.com/img/9ee4266d/20240722/i1721645787_7216_3.jpg","https://xcimg.szwego.com/img/9ee4266d/20240722/i1721645787_6308_0.jpg"],"created_at":"2024-10-22T04:43:02.157Z"},{"id":"item-e2fb03afa883","sku":"_dkckc09lZFu_qVNHA_KqzEKY9DsyItUgARmDJbA","name_en":"Birkin 25cm togo皮 2Z BlueNuit 午夜蓝拼10 Craie 奶昔白 顶级手工!专柜品质!","name_cn":"Birkin 25cm togo皮 2Z BlueNuit 午夜蓝拼10 Craie 奶昔白 顶级手工!专柜品质!","specs":{"source":"wsxcme","sourceId":"_dkckc09lZFu_qVNHA_KqzEKY9DsyItUgARmDJbA","sourceTagId":76963559,"sourceTagName":"爱马仕/女包","rawTitle":"Birkin 25cm togo皮 2Z BlueNuit 午夜蓝拼10 Craie 奶昔白 顶级手工!专柜品质!"},"price":null,"currency":"CNY","moq":1,"category":"hermes-women-bags","status":"active","alibaba_url":null,"images":["https://xcimg.szwego.com/20221031/i1667195277_3276_0.jpg","https://xcimg.szwego.com/20221031/i1667195277_6152_1.jpg","https://xcimg.szwego.com/20221031/i1667195277_1248_2.jpg","https://xcimg.szwego.com/20221031/i1667195277_4421_3.jpg","https://xcimg.szwego.com/20221031/i1667195277_1766_4.jpg","https://xcimg.szwego.com/20221031/i1667195277_6642_5.jpg","https://xcimg.szwego.com/20221031/i1667195277_3620_6.jpg","https://xcimg.szwego.com/20221031/i1667195277_5954_7.jpg","https://xcimg.szwego.com/20221031/i1667195277_6306_8.jpg"],"created_at":"2024-10-22T04:49:50.742Z"},{"id":"item-332db91055ca","sku":"_djzjznvvUEq9skR4sQ_z9WUgNGmhbcche3LYd5w","name_en":"Birkin 30cm togo皮 37 gold 拼10 Craie 奶昔白 顶级手工!","name_cn":"Birkin 30cm togo皮 37 gold 拼10 Craie 奶昔白 顶级手工!","specs":{"source":"wsxcme","sourceId":"_djzjznvvUEq9skR4sQ_z9WUgNGmhbcche3LYd5w","sourceTagId":76963559,"sourceTagName":"爱马仕/女包","rawTitle":"Birkin 30cm togo皮 37 gold 拼10 Craie 奶昔白 顶级手工!"},"price":null,"currency":"CNY","moq":1,"category":"hermes-women-bags","status":"active","alibaba_url":null,"images":["https://xcimg.szwego.com/20230629/i1688015517_6027_0.jpg","https://xcimg.szwego.com/20230629/i1688015517_5337_1.jpg","https://xcimg.szwego.com/20230629/i1688015517_8580_2.jpg","https://xcimg.szwego.com/20230629/i1688015517_7768_3.jpg","https://xcimg.szwego.com/20230629/i1688015517_5988_4.jpg","https://xcimg.szwego.com/20230629/i1688015517_8804_5.jpg","https://xcimg.szwego.com/20230629/i1688015517_3417_6.jpg","https://xcimg.szwego.com/20230629/i1688015517_4395_7.jpg","https://xcimg.szwego.com/20230629/i1688015517_1061_8.jpg"],"created_at":"2024-10-22T04:49:50.739Z"},{"id":"item-29732ea07688","sku":"_d2727-EDyPnE7KSsZuY7qAnO_sZ-0KSthfGS7tw","name_en":"Birkin 30cm togo皮 93 Orange 橙色拼37 gold 金棕拼47 chocolate 巧克力色 顶级手工!","name_cn":"Birkin 30cm togo皮 93 Orange 橙色拼37 gold 金棕拼47 chocolate 巧克力色 顶级手工!","specs":{"source":"wsxcme","sourceId":"_d2727-EDyPnE7KSsZuY7qAnO_sZ-0KSthfGS7tw","sourceTagId":76963559,"sourceTagName":"爱马仕/女包","rawTitle":"Birkin 30cm togo皮 93 Orange 橙色拼37 gold 金棕拼47 chocolate 巧克力色 顶级手工!"},"price":null,"currency":"CNY","moq":1,"category":"hermes-women-bags","status":"active","alibaba_url":null,"images":["https://xcimg.szwego.com/20230629/i1688015636_6006_0.jpg","https://xcimg.szwego.com/20230629/i1688015636_8889_1.jpg","https://xcimg.szwego.com/20230629/i1688015636_1855_2.jpg","https://xcimg.szwego.com/20230629/i1688015636_3928_3.jpg","https://xcimg.szwego.com/20230629/i1688015636_1990_4.jpg","https://xcimg.szwego.com/20230629/i1688015636_1227_5.jpg","https://xcimg.szwego.com/20230629/i1688015636_9152_6.jpg","https://xcimg.szwego.com/20230629/i1688015636_1749_7.jpg","https://xcimg.szwego.com/20230629/i1688015636_6466_8.jpg"],"created_at":"2024-10-22T04:49:50.738Z"},{"id":"item-12d3eb01b854","sku":"_dkdkdPlx_rmB--cXa7I8-SF3pz3wCDKv3IZ14XQ","name_en":"Birkin 30cm togo皮 9O Jaune De Naples 那不勒斯黄拼47 Chocolate 巧克力色 顶级手工","name_cn":"Birkin 30cm togo皮 9O Jaune De Naples 那不勒斯黄拼47 Chocolate 巧克力色 顶级手工","specs":{"source":"wsxcme","sourceId":"_dkdkdPlx_rmB--cXa7I8-SF3pz3wCDKv3IZ14XQ","sourceTagId":76963559,"sourceTagName":"爱马仕/女包","rawTitle":"Birkin 30cm togo皮 9O Jaune De Naples 那不勒斯黄拼47 Chocolate 巧克力色 顶级手工"},"price":null,"currency":"CNY","moq":1,"category":"hermes-women-bags","status":"active","alibaba_url":null,"images":["https://xcimg.szwego.com/20230527/i1685175336_3777_0.jpg","https://xcimg.szwego.com/20230527/i1685175336_9050_1.jpg","https://xcimg.szwego.com/20230527/i1685175336_2406_2.jpg","https://xcimg.szwego.com/20230527/i1685175336_2517_3.jpg","https://xcimg.szwego.com/20230527/i1685175336_5878_4.jpg","https://xcimg.szwego.com/20230527/i1685175336_7899_5.jpg","https://xcimg.szwego.com/20230527/i1685175336_2516_6.jpg","https://xcimg.szwego.com/20230527/i1685175336_8809_7.jpg","https://xcimg.szwego.com/20230527/i1685175336_5854_8.jpg"],"created_at":"2024-10-22T04:49:50.740Z"},{"id":"item-5de385e95d6a","sku":"_dDzDzQyyitNbjhdv3fH4jlOMSCOLReZhwtRbs6w","name_en":"Birkin 35cm Epsom皮 1Q Rose Confetti 奶昔粉拼3P Blue Atoll 马卡龙蓝 顶级手工!专柜品质!","name_cn":"Birkin 35cm Epsom皮 1Q Rose Confetti 奶昔粉拼3P Blue Atoll 马卡龙蓝 顶级手工!专柜品质!","specs":{"source":"wsxcme","sourceId":"_dDzDzQyyitNbjhdv3fH4jlOMSCOLReZhwtRbs6w","sourceTagId":76963559,"sourceTagName":"爱马仕/女包","rawTitle":"Birkin 35cm Epsom皮 1Q Rose Confetti 奶昔粉拼3P Blue Atoll 马卡龙蓝 顶级手工!专柜品质!"},"price":null,"currency":"CNY","moq":1,"category":"hermes-women-bags","status":"active","alibaba_url":null,"images":["https://xcimg.szwego.com/20230527/i1685169389_4000_0.jpg","https://xcimg.szwego.com/20230527/i1685169389_5037_1.jpg","https://xcimg.szwego.com/20230527/i1685169389_8377_2.jpg","https://xcimg.szwego.com/20230527/i1685169389_5600_3.jpg","https://xcimg.szwego.com/20230527/i1685169389_2880_4.jpg","https://xcimg.szwego.com/20230527/i1685169389_879_5.jpg","https://xcimg.szwego.com/20230527/i1685169389_4130_6.jpg","https://xcimg.szwego.com/20230527/i1685169389_9475_7.jpg","https://xcimg.szwego.com/20230527/i1685169389_521_8.jpg"],"created_at":"2024-10-22T04:49:50.741Z"},{"id":"item-0bde176eb695","sku":"_dkGkGTBreU3SW_E0Zdh_HHouPtuPjvsu48BHfwA","name_en":"Birkin30cm togo black 89黑色 银扣","name_cn":"Birkin30cm togo black 89黑色 银扣","specs":{"source":"wsxcme","sourceId":"_dkGkGTBreU3SW_E0Zdh_HHouPtuPjvsu48BHfwA","sourceTagId":76963559,"sourceTagName":"爱马仕/女包","rawTitle":"Birkin30cm togo black 89黑色 银扣"},"price":null,"currency":"CNY","moq":1,"category":"hermes-women-bags","status":"active","alibaba_url":null,"images":["https://xcimg.szwego.com/img/a01b89c4/20240123/i1705979512_6720_8.jpg","https://xcimg.szwego.com/img/a01b89c4/20240123/i1705979512_9391_2.jpg","https://xcimg.szwego.com/img/a01b89c4/20240123/i1705979512_8952_5.jpg","https://xcimg.szwego.com/img/a01b89c4/20240123/i1705979512_6847_0.jpg","https://xcimg.szwego.com/img/a01b89c4/20240123/i1705979512_2538_3.jpg","https://xcimg.szwego.com/img/a01b89c4/20240123/i1705979512_2234_4.jpg","https://xcimg.szwego.com/img/a01b89c4/20240123/i1705979512_2956_6.jpg","https://xcimg.szwego.com/img/a01b89c4/20240123/i1705979512_6712_7.jpg"],"created_at":"2024-10-22T05:00:12.177Z"},{"id":"item-c06e261eeb2f","sku":"_dFKFK34Um6RMnD3EXhRrm5L7BeYmx5gZyR4-q_w","name_en":"BK25  Togo皮","name_cn":"BK25  Togo皮\nTogo皮铂金25cm\n手缝蜡线 全钢五金 内里山羊皮","specs":{"source":"wsxcme","sourceId":"_dFKFK34Um6RMnD3EXhRrm5L7BeYmx5gZyR4-q_w","sourceTagId":76963559,"sourceTagName":"爱马仕/女包","rawTitle":"BK25  Togo皮\nTogo皮铂金25cm\n手缝蜡线 全钢五金 内里山羊皮"},"price":null,"currency":"CNY","moq":1,"category":"hermes-women-bags","status":"active","alibaba_url":null,"images":["https://xcimg.szwego.com/img/9ee4266d/20240528/i1716886383_8974_0.jpg","https://xcimg.szwego.com/img/9ee4266d/20240528/i1716889376_1275_0.jpg","https://xcimg.szwego.com/img/9ee4266d/20240528/i1716873533_5948_0.jpg","https://xcimg.szwego.com/img/9ee4266d/20240528/i1716873533_4024_1.jpg","https://xcimg.szwego.com/img/9ee4266d/20240528/i1716886456_1797_0.jpg","https://xcimg.szwego.com/img/9ee4266d/20240528/i1716886822_2543_0.jpg","https://xcimg.szwego.com/img/9ee4266d/20240528/i1716886916_5870_0.jpg","https://xcimg.szwego.com/img/9ee4266d/20240528/i1716886987_7858_0.jpg","https://xcimg.szwego.com/img/9ee4266d/20240528/i1716889392_5569_0.jpg"],"created_at":"2024-10-22T04:43:02.192Z"},{"id":"item-7820cd5828ea","sku":"_dnVnVkUUriQPuXizfGltuV6FIrJsrazkD8bz66w","name_en":"BK25  Togo皮","name_cn":"BK25  Togo皮\nTogo皮铂金25cm\n手缝蜡线 全钢五金 内里山羊皮","specs":{"source":"wsxcme","sourceId":"_dnVnVkUUriQPuXizfGltuV6FIrJsrazkD8bz66w","sourceTagId":76963559,"sourceTagName":"爱马仕/女包","rawTitle":"BK25  Togo皮\nTogo皮铂金25cm\n手缝蜡线 全钢五金 内里山羊皮"},"price":null,"currency":"CNY","moq":1,"category":"hermes-women-bags","status":"active","alibaba_url":null,"images":["https://xcimg.szwego.com/img/9ee4266d/20240528/i1716863319_8980_8.jpg","https://xcimg.szwego.com/img/9ee4266d/20240528/i1716868642_195_0.jpg","https://xcimg.szwego.com/img/9ee4266d/20240528/i1716863811_2593_0.jpg","https://xcimg.szwego.com/img/9ee4266d/20240528/i1716863319_6637_9.jpg","https://xcimg.szwego.com/img/9ee4266d/20240528/i1716863318_1996_0.jpg","https://xcimg.szwego.com/img/9ee4266d/20240528/i1716863318_3996_2.jpg","https://xcimg.szwego.com/img/9ee4266d/20240528/i1716863698_1027_1.jpg","https://xcimg.szwego.com/img/9ee4266d/20240528/i1716889243_5464_1.jpg","https://xcimg.szwego.com/img/9ee4266d/20240528/i1716889243_1550_0.jpg"],"created_at":"2024-10-22T04:43:02.191Z"},{"id":"item-5c28cf2a2ff7","sku":"_dYbYbl0kGoa43eBHTel5TIcSv_hux5Nt5dSRY2w","name_en":"BK25  Togo皮","name_cn":"BK25  Togo皮\nTogo皮铂金25cm\n手缝蜡线 全钢五金 内里山羊皮","specs":{"source":"wsxcme","sourceId":"_dYbYbl0kGoa43eBHTel5TIcSv_hux5Nt5dSRY2w","sourceTagId":76963559,"sourceTagName":"爱马仕/女包","rawTitle":"BK25  Togo皮\nTogo皮铂金25cm\n手缝蜡线 全钢五金 内里山羊皮"},"price":null,"currency":"CNY","moq":1,"category":"hermes-women-bags","status":"active","alibaba_url":null,"images":["https://xcimg.szwego.com/img/9ee4266d/20240528/i1716863929_57_1.jpg","https://xcimg.szwego.com/img/9ee4266d/20240528/i1716863929_7969_2.jpg","https://xcimg.szwego.com/img/9ee4266d/20240528/i1716863929_4339_5.jpg","https://xcimg.szwego.com/img/9ee4266d/20240601/i1717214178_4398_0.jpg","https://xcimg.szwego.com/img/9ee4266d/20240601/i1717214178_2071_1.jpg","https://xcimg.szwego.com/img/9ee4266d/20240528/i1716863929_5086_6.jpg","https://xcimg.szwego.com/img/9ee4266d/20240528/i1716863929_1307_3.jpg","https://xcimg.szwego.com/img/9ee4266d/20240528/i1716864343_4295_0.jpg","https://xcimg.szwego.com/img/9ee4266d/20240528/i1716864258_4096_0.jpg"],"created_at":"2024-10-22T04:43:02.193Z"},{"id":"item-a5f7a3522deb","sku":"_d-5-5DWXof4ECwAZnJJ639WbVDYIj5BNqyWWG7A","name_en":"Constance 18 新款  0L积雨云灰   康斯坦  带镜子 全手工 原厂Epsom 镀厚金五金  金扣","name_cn":"Constance 18 新款  0L积雨云灰   康斯坦  带镜子 全手工 原厂Epsom 镀厚金五金  金扣","specs":{"source":"wsxcme","sourceId":"_d-5-5DWXof4ECwAZnJJ639WbVDYIj5BNqyWWG7A","sourceTagId":76963559,"sourceTagName":"爱马仕/女包","rawTitle":"Constance 18 新款  0L积雨云灰   康斯坦  带镜子 全手工 原厂Epsom 镀厚金五金  金扣"},"price":null,"currency":"CNY","moq":1,"category":"hermes-women-bags","status":"active","alibaba_url":null,"images":["https://xcimg.szwego.com/img/109d8128/20231224/a1703401190449_8135.jpg","https://xcimg.szwego.com/img/109d8128/20231224/a1703401190408_2702.jpg","https://xcimg.szwego.com/img/109d8128/20231224/a1703401190325_5806.jpg","https://xcimg.szwego.com/img/109d8128/20231224/a1703401190327_7641.jpg","https://xcimg.szwego.com/img/109d8128/20231224/a1703401190147_7878.jpg","https://xcimg.szwego.com/img/109d8128/20231224/a1703401190231_5030.jpg","https://xcimg.szwego.com/img/109d8128/20231224/a1703401191336_8851.jpg","https://xcimg.szwego.com/img/109d8128/20231224/a1703401191255_2857.jpg"],"created_at":"2024-10-22T05:00:12.216Z"},{"id":"item-ea0940d9a093","sku":"_dSZSZCNk7bEnAd2OzCN6Gs6mKFZd3mZ3Lw_-Fmw","name_en":"Constance 18 新款  CK18 大象灰 康斯坦  带镜子 全手工 原厂Epsom 电钯五金  银扣","name_cn":"Constance 18 新款  CK18 大象灰 康斯坦  带镜子 全手工 原厂Epsom 电钯五金  银扣","specs":{"source":"wsxcme","sourceId":"_dSZSZCNk7bEnAd2OzCN6Gs6mKFZd3mZ3Lw_-Fmw","sourceTagId":76963559,"sourceTagName":"爱马仕/女包","rawTitle":"Constance 18 新款  CK18 大象灰 康斯坦  带镜子 全手工 原厂Epsom 电钯五金  银扣"},"price":null,"currency":"CNY","moq":1,"category":"hermes-women-bags","status":"active","alibaba_url":null,"images":["https://xcimg.szwego.com/img/109d8128/20231224/a1703400207156_8843.jpg","https://xcimg.szwego.com/img/109d8128/20231224/a1703400206940_4333.jpg","https://xcimg.szwego.com/img/109d8128/20231224/a1703400206977_3427.jpg","https://xcimg.szwego.com/img/109d8128/20231224/a1703400206925_3575.jpg","https://xcimg.szwego.com/img/109d8128/20231224/a1703400207154_3054.jpg","https://xcimg.szwego.com/img/109d8128/20231224/a1703400207075_0246.jpg","https://xcimg.szwego.com/img/109d8128/20231224/a1703400207946_5348.jpg","https://xcimg.szwego.com/img/109d8128/20231224/a1703400207848_0276.jpg","https://xcimg.szwego.com/img/109d8128/20231224/a1703400207895_6233.jpg"],"created_at":"2024-10-22T05:00:12.214Z"},{"id":"item-1d7200ee592f","sku":"_dnYnYixYijx1qXlbnYBtCIWhSx0NVk-zvHhK_DQ","name_en":"Constance 18 新款  CK37金棕金    康斯坦  带镜子 全手工 原厂Epsom 镀厚金五金  金扣","name_cn":"Constance 18 新款  CK37金棕金    康斯坦  带镜子 全手工 原厂Epsom 镀厚金五金  金扣","specs":{"source":"wsxcme","sourceId":"_dnYnYixYijx1qXlbnYBtCIWhSx0NVk-zvHhK_DQ","sourceTagId":76963559,"sourceTagName":"爱马仕/女包","rawTitle":"Constance 18 新款  CK37金棕金    康斯坦  带镜子 全手工 原厂Epsom 镀厚金五金  金扣"},"price":null,"currency":"CNY","moq":1,"category":"hermes-women-bags","status":"active","alibaba_url":null,"images":["https://xcimg.szwego.com/img/109d8128/20231224/a1703401329061_0355.jpg","https://xcimg.szwego.com/img/109d8128/20231224/a1703401328799_7331.jpg","https://xcimg.szwego.com/img/109d8128/20231224/a1703401328404_0536.jpg","https://xcimg.szwego.com/img/109d8128/20231224/a1703401329002_3156.jpg","https://xcimg.szwego.com/img/109d8128/20231224/a1703401328752_0716.jpg","https://xcimg.szwego.com/img/109d8128/20231224/a1703401328756_2061.jpg","https://xcimg.szwego.com/img/109d8128/20231224/a1703401329848_6763.jpg","https://xcimg.szwego.com/img/109d8128/20231224/a1703401329911_6456.jpg","https://xcimg.szwego.com/img/109d8128/20231224/a1703401329934_0364.jpg"],"created_at":"2024-10-22T05:00:12.217Z"},{"id":"item-1c4b39e7e4fd","sku":"_dkFkFBFw2yRjUMX6MRLQhsYbvuLSqPyYHNikHog","name_en":"Constance 18 新款  CK89 康斯坦  带镜子 全手工 原厂Epsom 镀厚金五金  金扣","name_cn":"Constance 18 新款  CK89 康斯坦  带镜子 全手工 原厂Epsom 镀厚金五金  金扣","specs":{"source":"wsxcme","sourceId":"_dkFkFBFw2yRjUMX6MRLQhsYbvuLSqPyYHNikHog","sourceTagId":76963559,"sourceTagName":"爱马仕/女包","rawTitle":"Constance 18 新款  CK89 康斯坦  带镜子 全手工 原厂Epsom 镀厚金五金  金扣"},"price":null,"currency":"CNY","moq":1,"category":"hermes-women-bags","status":"active","alibaba_url":null,"images":["https://xcimg.szwego.com/img/109d8128/20231224/a1703400328767_4024.jpg","https://xcimg.szwego.com/img/109d8128/20231224/a1703400328706_5452.jpg","https://xcimg.szwego.com/img/109d8128/20231224/a1703400328637_6250.jpg","https://xcimg.szwego.com/img/109d8128/20231224/a1703400328712_4873.jpg","https://xcimg.szwego.com/img/109d8128/20231224/a1703400328832_4152.jpg","https://xcimg.szwego.com/img/109d8128/20231224/a1703400328796_1577.jpg","https://xcimg.szwego.com/img/109d8128/20231224/a1703400329601_7176.jpg","https://xcimg.szwego.com/img/109d8128/20231224/a1703400329633_4330.jpg","https://xcimg.szwego.com/img/109d8128/20231224/a1703400329676_6431.jpg"],"created_at":"2024-10-22T05:00:12.215Z"},{"id":"item-bc8c1b238c45","sku":"_drerehP3lv7gz_BYjF1TUN6MJgS1Ynk3oT5Aq2Q","name_en":"Constance 18 新款  Nata奶油白   康斯坦  带镜子 全手工 原厂Epsom 镀厚金五金  金扣","name_cn":"Constance 18 新款  Nata奶油白   康斯坦  带镜子 全手工 原厂Epsom 镀厚金五金  金扣","specs":{"source":"wsxcme","sourceId":"_drerehP3lv7gz_BYjF1TUN6MJgS1Ynk3oT5Aq2Q","sourceTagId":76963559,"sourceTagName":"爱马仕/女包","rawTitle":"Constance 18 新款  Nata奶油白   康斯坦  带镜子 全手工 原厂Epsom 镀厚金五金  金扣"},"price":null,"currency":"CNY","moq":1,"category":"hermes-women-bags","status":"active","alibaba_url":null,"images":["https://xcimg.szwego.com/img/109d8128/20231224/a1703401539125_7565.jpg","https://xcimg.szwego.com/img/109d8128/20231224/a1703401538680_1143.jpg","https://xcimg.szwego.com/img/109d8128/20231224/a1703401538608_8367.jpg","https://xcimg.szwego.com/img/109d8128/20231224/a1703401538834_1388.jpg","https://xcimg.szwego.com/img/109d8128/20231224/a1703401539192_0126.jpg","https://xcimg.szwego.com/img/109d8128/20231224/a1703401539150_7422.jpg","https://xcimg.szwego.com/img/109d8128/20231224/a1703401539872_7444.jpg","https://xcimg.szwego.com/img/109d8128/20231224/a1703401539850_3745.jpg","https://xcimg.szwego.com/img/109d8128/20231224/a1703401539851_5184.jpg"],"created_at":"2024-10-22T05:00:12.218Z"},{"id":"item-ad117407e95c","sku":"_dEoEoAQu3Trhofo_glSI2Q7hDVuo0pU6bRtQY1Q","name_en":"Constance 19","name_cn":"Constance 19\n进口 鳄鱼皮康康19cm\n全手缝蜡线 全钢五金  内里绵羊皮","specs":{"source":"wsxcme","sourceId":"_dEoEoAQu3Trhofo_glSI2Q7hDVuo0pU6bRtQY1Q","sourceTagId":76963559,"sourceTagName":"爱马仕/女包","rawTitle":"Constance 19\n进口 鳄鱼皮康康19cm\n全手缝蜡线 全钢五金  内里绵羊皮"},"price":null,"currency":"CNY","moq":1,"category":"hermes-women-bags","status":"active","alibaba_url":null,"images":["https://xcimg.szwego.com/img/9ee4266d/20240802/i1722594743_757_6.jpg","https://xcimg.szwego.com/img/9ee4266d/20240802/i1722594743_1576_1.jpg","https://xcimg.szwego.com/img/9ee4266d/20240802/i1722594743_2762_4.jpg","https://xcimg.szwego.com/img/9ee4266d/20240802/i1722594743_6278_0.jpg","https://xcimg.szwego.com/img/9ee4266d/20240802/i1722594743_5754_2.jpg","https://xcimg.szwego.com/img/9ee4266d/20240802/i1722594743_9673_5.jpg","https://xcimg.szwego.com/img/9ee4266d/20240802/i1722594747_8845_0.jpg"],"created_at":"2024-10-22T04:43:02.149Z"},{"id":"item-75c6f3d2d494","sku":"_dp7p76zsBESz9Wl44BxTNSHoOACSBpkC-31d-jQ","name_en":"Constance 19","name_cn":"Constance 19\n进口 鳄鱼皮康康19cm\n全手缝蜡线 全钢五金  内里绵羊皮","specs":{"source":"wsxcme","sourceId":"_dp7p76zsBESz9Wl44BxTNSHoOACSBpkC-31d-jQ","sourceTagId":76963559,"sourceTagName":"爱马仕/女包","rawTitle":"Constance 19\n进口 鳄鱼皮康康19cm\n全手缝蜡线 全钢五金  内里绵羊皮"},"price":null,"currency":"CNY","moq":1,"category":"hermes-women-bags","status":"active","alibaba_url":null,"images":["https://xcimg.szwego.com/img/9ee4266d/20240802/i1722594752_9457_0.jpg","https://xcimg.szwego.com/img/9ee4266d/20240802/i1722594756_523_0.jpg","https://xcimg.szwego.com/img/9ee4266d/20240802/i1722594753_9643_4.jpg","https://xcimg.szwego.com/img/9ee4266d/20240802/i1722594753_1801_5.jpg","https://xcimg.szwego.com/img/9ee4266d/20240802/i1722594752_937_2.jpg","https://xcimg.szwego.com/img/9ee4266d/20240802/i1722594752_7594_3.jpg"],"created_at":"2024-10-22T04:43:02.148Z"},{"id":"item-2a49f3d52dab","sku":"_diRiRQi-_ND24V0iylBOsDACWARcCHVSjT5zibQ","name_en":"constance 19cm 原版epsom 皮 gold 37金棕 金扣 in stock","name_cn":"constance 19cm 原版epsom 皮 gold 37金棕 金扣 in stock","specs":{"source":"wsxcme","sourceId":"_diRiRQi-_ND24V0iylBOsDACWARcCHVSjT5zibQ","sourceTagId":76963559,"sourceTagName":"爱马仕/女包","rawTitle":"constance 19cm 原版epsom 皮 gold 37金棕 金扣 in stock"},"price":null,"currency":"CNY","moq":1,"category":"hermes-women-bags","status":"active","alibaba_url":null,"images":["https://xcimg.szwego.com/20230627/i1687838765_3863_0.jpg","https://xcimg.szwego.com/20230627/i1687838765_4439_1.jpg","https://xcimg.szwego.com/20230627/i1687838765_2750_2.jpg","https://xcimg.szwego.com/20230627/i1687838765_5841_3.jpg","https://xcimg.szwego.com/20230627/i1687838765_9450_4.jpg","https://xcimg.szwego.com/20230627/i1687838765_4881_5.jpg","https://xcimg.szwego.com/20230627/i1687838765_9152_6.jpg"],"created_at":"2024-10-22T05:00:12.220Z"},{"id":"item-4dd4afa3af45","sku":"_dhlhlDj9EZwVjr2i_VmXsD_JkYVfrbZCakuCVWA","name_en":"constance 19cm epsom etoupe grey 18大象灰 金扣","name_cn":"constance 19cm epsom etoupe grey 18大象灰 金扣\nin stock","specs":{"source":"wsxcme","sourceId":"_dhlhlDj9EZwVjr2i_VmXsD_JkYVfrbZCakuCVWA","sourceTagId":76963559,"sourceTagName":"爱马仕/女包","rawTitle":"constance 19cm epsom etoupe grey 18大象灰 金扣\nin stock"},"price":null,"currency":"CNY","moq":1,"category":"hermes-women-bags","status":"active","alibaba_url":null,"images":["https://xcimg.szwego.com/20230812/i1691841378_4328_0.jpg","https://xcimg.szwego.com/20230812/i1691841378_978_1.jpg","https://xcimg.szwego.com/20230812/i1691841378_6987_2.jpg","https://xcimg.szwego.com/20230812/i1691841378_9547_3.jpg","https://xcimg.szwego.com/20230812/i1691841378_1407_4.jpg"],"created_at":"2024-10-22T05:00:12.221Z"},{"id":"item-33ad4a25de8c","sku":"_dc6c6TgCdYGhM3dbislqlB4kzkIBFaHtGfbwopw","name_en":"constance 19cm epsom Nior 89 黑色","name_cn":"constance 19cm epsom Nior 89 黑色\nin stock","specs":{"source":"wsxcme","sourceId":"_dc6c6TgCdYGhM3dbislqlB4kzkIBFaHtGfbwopw","sourceTagId":76963559,"sourceTagName":"爱马仕/女包","rawTitle":"constance 19cm epsom Nior 89 黑色\nin stock"},"price":null,"currency":"CNY","moq":1,"category":"hermes-women-bags","status":"active","alibaba_url":null,"images":["https://xcimg.szwego.com/20230812/i1691832062_1606_0.jpg","https://xcimg.szwego.com/20230812/i1691832062_7759_1.jpg","https://xcimg.szwego.com/20230812/i1691832062_9303_2.jpg","https://xcimg.szwego.com/20230812/i1691832062_9813_3.jpg","https://xcimg.szwego.com/20230812/i1691832062_4299_4.jpg","https://xcimg.szwego.com/20230812/i1691832062_5854_5.jpg","https://xcimg.szwego.com/20230812/i1691832062_20_6.jpg","https://xcimg.szwego.com/20230812/i1691832062_5990_7.jpg"],"created_at":"2024-10-22T05:00:12.223Z"}],"page":11,"pageSize":24,"total":439,"totalPages":19}
