{"items":[{"id":"item-80d050ff5f1d","sku":"_do1o1U2xwtqJ5sn6uLVqWZBYY7FddoJDQirz9uQ","name_en":"Birkin 25 Glossy Crocodile🐊 Fully Handmade","name_cn":"Birkin 25 Glossy Crocodile🐊 Fully Handmade","specs":{"source":"wsxcme","sourceId":"_do1o1U2xwtqJ5sn6uLVqWZBYY7FddoJDQirz9uQ","sourceTagId":76963559,"sourceTagName":"Hermes/women's bag","rawTitle":"Birkin 25 Glossy Crocodile🐊 Fully Handmade"},"price":null,"currency":"CNY","moq":1,"category":"hermes-women-bags","status":"active","alibaba_url":null,"images":["https://xcimg.szwego.com/img/9ee4266d/20240722/i1721645761_9016_4.jpg","https://xcimg.szwego.com/img/9ee4266d/20240722/i1721645761_8678_1.jpg","https://xcimg.szwego.com/img/9ee4266d/20240722/i1721645761_8654_0.jpg","https://xcimg.szwego.com/img/9ee4266d/20240722/i1721645761_2337_5.jpg","https://xcimg.szwego.com/img/9ee4266d/20240722/i1721645761_5254_2.jpg","https://xcimg.szwego.com/img/9ee4266d/20240722/i1721645762_7979_6.jpg","https://xcimg.szwego.com/img/9ee4266d/20240722/i1721645761_8719_3.jpg"],"created_at":"2024-10-22T04:43:02.156Z"},{"id":"item-60face325ed9","sku":"_dwmwmSHa3Gs_gfuwMxwpQq-ExPjLa1jE64U_WIQ","name_en":"Birkin 25 Glossy Crocodile🐊 Fully Handmade","name_cn":"Birkin 25 Glossy Crocodile🐊 Fully Handmade","specs":{"source":"wsxcme","sourceId":"_dwmwmSHa3Gs_gfuwMxwpQq-ExPjLa1jE64U_WIQ","sourceTagId":76963559,"sourceTagName":"Hermes/women's bag","rawTitle":"Birkin 25 Glossy Crocodile🐊 Fully Handmade"},"price":null,"currency":"CNY","moq":1,"category":"hermes-women-bags","status":"active","alibaba_url":null,"images":["https://xcimg.szwego.com/img/9ee4266d/20240722/i1721656463_6811_0.jpg","https://xcimg.szwego.com/img/9ee4266d/20240722/i1721656463_1202_0.jpg","https://xcimg.szwego.com/img/9ee4266d/20240722/i1721656461_8221_0.jpg","https://xcimg.szwego.com/img/9ee4266d/20240722/i1721656463_2147_0.jpg","https://xcimg.szwego.com/img/9ee4266d/20240722/i1721656463_6286_0.jpg","https://xcimg.szwego.com/img/9ee4266d/20240722/i1721656463_1386_0.jpg","https://xcimg.szwego.com/img/9ee4266d/20240722/i1721656463_4095_0.jpg","https://xcimg.szwego.com/img/9ee4266d/20240722/i1721656462_5478_0.jpg","https://xcimg.szwego.com/img/9ee4266d/20240722/i1721656463_9353_0.jpg"],"created_at":"2024-10-22T04:43:02.166Z"},{"id":"item-591f0cf1ff97","sku":"_dqqqqNILGyizrd5M2g48sE0zAMRcPKOBlflI_3A","name_en":"Birkin 25 Glossy Crocodile🐊 Fully Handmade","name_cn":"Birkin 25 Glossy Crocodile🐊 Fully Handmade","specs":{"source":"wsxcme","sourceId":"_dqqqqNILGyizrd5M2g48sE0zAMRcPKOBlflI_3A","sourceTagId":76963559,"sourceTagName":"Hermes/women's bag","rawTitle":"Birkin 25 Glossy Crocodile🐊 Fully Handmade"},"price":null,"currency":"CNY","moq":1,"category":"hermes-women-bags","status":"active","alibaba_url":null,"images":["https://xcimg.szwego.com/img/9ee4266d/20240722/i1721656489_8857_0.jpg","https://xcimg.szwego.com/img/9ee4266d/20240722/i1721656489_2072_0.jpg","https://xcimg.szwego.com/img/9ee4266d/20240722/i1721656480_3310_5.jpg","https://xcimg.szwego.com/img/9ee4266d/20240722/i1721656489_6092_0.jpg","https://xcimg.szwego.com/img/9ee4266d/20240722/i1721656489_5080_0.jpg","https://xcimg.szwego.com/img/9ee4266d/20240722/i1721656489_8206_0.jpg","https://xcimg.szwego.com/img/9ee4266d/20240722/i1721656489_8329_0.jpg","https://xcimg.szwego.com/img/9ee4266d/20240722/i1721656489_9654_0.jpg"],"created_at":"2024-10-22T04:43:02.167Z"},{"id":"item-586a36accd0d","sku":"_d6Q6QxYX8w8yh8RLQgdifHN_WgfCXCJRLiiZYdw","name_en":"Birkin 25 Glossy Crocodile🐊 Fully Handmade","name_cn":"Birkin 25 Glossy Crocodile🐊 Fully Handmade","specs":{"source":"wsxcme","sourceId":"_d6Q6QxYX8w8yh8RLQgdifHN_WgfCXCJRLiiZYdw","sourceTagId":76963559,"sourceTagName":"Hermes/women's bag","rawTitle":"Birkin 25 Glossy Crocodile🐊 Fully Handmade"},"price":null,"currency":"CNY","moq":1,"category":"hermes-women-bags","status":"active","alibaba_url":null,"images":["https://xcimg.szwego.com/img/9ee4266d/20240722/i1721656420_1664_0.jpg","https://xcimg.szwego.com/img/9ee4266d/20240722/i1721656420_1137_0.jpg","https://xcimg.szwego.com/img/9ee4266d/20240722/i1721656421_1421_0.jpg","https://xcimg.szwego.com/img/9ee4266d/20240722/i1721656421_177_0.jpg","https://xcimg.szwego.com/img/9ee4266d/20240722/i1721656421_2710_0.jpg","https://xcimg.szwego.com/img/9ee4266d/20240722/i1721656420_2017_0.jpg","https://xcimg.szwego.com/img/9ee4266d/20240722/i1721656420_4725_0.jpg","https://xcimg.szwego.com/img/9ee4266d/20240722/i1721656421_6401_0.jpg"],"created_at":"2024-10-22T04:43:02.165Z"},{"id":"item-4df87176a482","sku":"_dj0j0fSAMqwMH-mSrSV1mk-DN0Fsd7-iyi-qGUw","name_en":"Birkin 25 Glossy Crocodile🐊 Fully Handmade","name_cn":"Birkin 25 Glossy Crocodile🐊 Fully Handmade","specs":{"source":"wsxcme","sourceId":"_dj0j0fSAMqwMH-mSrSV1mk-DN0Fsd7-iyi-qGUw","sourceTagId":76963559,"sourceTagName":"Hermes/women's bag","rawTitle":"Birkin 25 Glossy Crocodile🐊 Fully Handmade"},"price":null,"currency":"CNY","moq":1,"category":"hermes-women-bags","status":"active","alibaba_url":null,"images":["https://xcimg.szwego.com/img/9ee4266d/20240722/i1721645735_4077_0.jpg","https://xcimg.szwego.com/img/9ee4266d/20240722/i1721645735_2288_0.jpg","https://xcimg.szwego.com/img/9ee4266d/20240722/i1721645729_5686_4.jpg","https://xcimg.szwego.com/img/9ee4266d/20240722/i1721645735_3934_0.jpg","https://xcimg.szwego.com/img/9ee4266d/20240722/i1721645735_189_0.jpg","https://xcimg.szwego.com/img/9ee4266d/20240722/i1721645735_4207_0.jpg","https://xcimg.szwego.com/img/9ee4266d/20240722/i1721645735_2193_0.jpg"],"created_at":"2024-10-22T04:43:02.155Z"},{"id":"item-41dba14393cb","sku":"_dyPyPjBGW7lbs8GdD2wzL9m3HENkRCkIdm18meA","name_en":"Birkin 25 Glossy Crocodile🐊 Fully Handmade","name_cn":"Birkin 25 Glossy Crocodile🐊 Fully Handmade","specs":{"source":"wsxcme","sourceId":"_dyPyPjBGW7lbs8GdD2wzL9m3HENkRCkIdm18meA","sourceTagId":76963559,"sourceTagName":"Hermes/women's bag","rawTitle":"Birkin 25 Glossy Crocodile🐊 Fully Handmade"},"price":null,"currency":"CNY","moq":1,"category":"hermes-women-bags","status":"active","alibaba_url":null,"images":["https://xcimg.szwego.com/img/9ee4266d/20240722/i1721652303_1448_2.jpg","https://xcimg.szwego.com/img/9ee4266d/20240722/i1721652303_9148_4.jpg","https://xcimg.szwego.com/img/9ee4266d/20240722/i1721652303_4976_1.jpg","https://xcimg.szwego.com/img/9ee4266d/20240722/i1721652304_6260_6.jpg","https://xcimg.szwego.com/img/9ee4266d/20240722/i1721652303_9328_3.jpg","https://xcimg.szwego.com/img/9ee4266d/20240722/i1721652304_7860_5.jpg","https://xcimg.szwego.com/img/9ee4266d/20240722/i1721652303_6240_0.jpg"],"created_at":"2024-10-22T04:43:02.163Z"},{"id":"item-26b0fe70d636","sku":"_dEbEbB1Fgw1aH8GxVWzT_B2J5aIdPsuYieT_hOA","name_en":"Birkin 25 Glossy Crocodile🐊 Fully Handmade","name_cn":"Birkin 25 Glossy Crocodile🐊 Fully Handmade","specs":{"source":"wsxcme","sourceId":"_dEbEbB1Fgw1aH8GxVWzT_B2J5aIdPsuYieT_hOA","sourceTagId":76963559,"sourceTagName":"Hermes/women's bag","rawTitle":"Birkin 25 Glossy Crocodile🐊 Fully Handmade"},"price":null,"currency":"CNY","moq":1,"category":"hermes-women-bags","status":"active","alibaba_url":null,"images":["https://xcimg.szwego.com/img/9ee4266d/20240722/i1721651625_2515_2.jpg","https://xcimg.szwego.com/img/9ee4266d/20240722/i1721651625_7375_4.jpg","https://xcimg.szwego.com/img/9ee4266d/20240722/i1721651625_3352_0.jpg","https://xcimg.szwego.com/img/9ee4266d/20240722/i1721651626_2771_7.jpg","https://xcimg.szwego.com/img/9ee4266d/20240722/i1721651625_9273_1.jpg","https://xcimg.szwego.com/img/9ee4266d/20240722/i1721651626_3765_6.jpg","https://xcimg.szwego.com/img/9ee4266d/20240722/i1721651626_5549_5.jpg","https://xcimg.szwego.com/img/9ee4266d/20240722/i1721651625_38_3.jpg"],"created_at":"2024-10-22T04:43:02.160Z"},{"id":"item-1f7d8096ae00","sku":"_dElElEhfsgq0CdNRyrpreBB8OpwfwM9FwpOK0GA","name_en":"Birkin 25 Glossy Crocodile🐊 Fully Handmade","name_cn":"Birkin 25 Glossy Crocodile🐊 Fully Handmade","specs":{"source":"wsxcme","sourceId":"_dElElEhfsgq0CdNRyrpreBB8OpwfwM9FwpOK0GA","sourceTagId":76963559,"sourceTagName":"Hermes/women's bag","rawTitle":"Birkin 25 Glossy Crocodile🐊 Fully Handmade"},"price":null,"currency":"CNY","moq":1,"category":"hermes-women-bags","status":"active","alibaba_url":null,"images":["https://xcimg.szwego.com/img/9ee4266d/20240722/i1721651955_707_0.jpg","https://xcimg.szwego.com/img/9ee4266d/20240722/i1721651954_880_0.jpg","https://xcimg.szwego.com/img/9ee4266d/20240722/i1721651955_8237_0.jpg","https://xcimg.szwego.com/img/9ee4266d/20240722/i1721651955_8630_0.jpg","https://xcimg.szwego.com/img/9ee4266d/20240722/i1721651955_2158_0.jpg","https://xcimg.szwego.com/img/9ee4266d/20240722/i1721651955_8784_0.jpg","https://xcimg.szwego.com/img/9ee4266d/20240722/i1721651955_7510_0.jpg"],"created_at":"2024-10-22T04:43:02.162Z"},{"id":"item-075527ce92ea","sku":"_dgygy3oS-jKEmyXvTeUWkajHGZxRPGsfC-lMwZQ","name_en":"Birkin 25 Glossy Crocodile🐊 Fully Handmade","name_cn":"Birkin 25 Glossy Crocodile🐊 Fully Handmade","specs":{"source":"wsxcme","sourceId":"_dgygy3oS-jKEmyXvTeUWkajHGZxRPGsfC-lMwZQ","sourceTagId":76963559,"sourceTagName":"Hermes/women's bag","rawTitle":"Birkin 25 Glossy Crocodile🐊 Fully Handmade"},"price":null,"currency":"CNY","moq":1,"category":"hermes-women-bags","status":"active","alibaba_url":null,"images":["https://xcimg.szwego.com/img/9ee4266d/20240722/i1721645787_8759_4.jpg","https://xcimg.szwego.com/img/9ee4266d/20240722/i1721645787_5012_2.jpg","https://xcimg.szwego.com/img/9ee4266d/20240722/i1721645787_4783_1.jpg","https://xcimg.szwego.com/img/9ee4266d/20240722/i1721645787_6426_5.jpg","https://xcimg.szwego.com/img/9ee4266d/20240722/i1721645787_5600_6.jpg","https://xcimg.szwego.com/img/9ee4266d/20240722/i1721645787_7216_3.jpg","https://xcimg.szwego.com/img/9ee4266d/20240722/i1721645787_6308_0.jpg"],"created_at":"2024-10-22T04:43:02.157Z"},{"id":"item-e2fb03afa883","sku":"_dkckc09lZFu_qVNHA_KqzEKY9DsyItUgARmDJbA","name_en":"Birkin 25cm Togo 2Z BlueNuit Midnight Blue with 10 Craie Cream. Top craftsmanship! Boutique quality!","name_cn":"Birkin 25cm Togo 2Z BlueNuit Midnight Blue with 10 Craie Cream. Top craftsmanship! Boutique quality!","specs":{"source":"wsxcme","sourceId":"_dkckc09lZFu_qVNHA_KqzEKY9DsyItUgARmDJbA","sourceTagId":76963559,"sourceTagName":"Hermes/women's bag","rawTitle":"Birkin 25cm Togo 2Z BlueNuit Midnight Blue with 10 Craie Cream. Top craftsmanship! Boutique quality!"},"price":null,"currency":"CNY","moq":1,"category":"hermes-women-bags","status":"active","alibaba_url":null,"images":["https://xcimg.szwego.com/20221031/i1667195277_3276_0.jpg","https://xcimg.szwego.com/20221031/i1667195277_6152_1.jpg","https://xcimg.szwego.com/20221031/i1667195277_1248_2.jpg","https://xcimg.szwego.com/20221031/i1667195277_4421_3.jpg","https://xcimg.szwego.com/20221031/i1667195277_1766_4.jpg","https://xcimg.szwego.com/20221031/i1667195277_6642_5.jpg","https://xcimg.szwego.com/20221031/i1667195277_3620_6.jpg","https://xcimg.szwego.com/20221031/i1667195277_5954_7.jpg","https://xcimg.szwego.com/20221031/i1667195277_6306_8.jpg"],"created_at":"2024-10-22T04:49:50.742Z"},{"id":"item-332db91055ca","sku":"_djzjznvvUEq9skR4sQ_z9WUgNGmhbcche3LYd5w","name_en":"Birkin 30cm Togo 37 Gold with 10 Craie Cream. Top craftsmanship!","name_cn":"Birkin 30cm Togo 37 Gold with 10 Craie Cream. Top craftsmanship!","specs":{"source":"wsxcme","sourceId":"_djzjznvvUEq9skR4sQ_z9WUgNGmhbcche3LYd5w","sourceTagId":76963559,"sourceTagName":"Hermes/women's bag","rawTitle":"Birkin 30cm Togo 37 Gold with 10 Craie Cream. Top craftsmanship!"},"price":null,"currency":"CNY","moq":1,"category":"hermes-women-bags","status":"active","alibaba_url":null,"images":["https://xcimg.szwego.com/20230629/i1688015517_6027_0.jpg","https://xcimg.szwego.com/20230629/i1688015517_5337_1.jpg","https://xcimg.szwego.com/20230629/i1688015517_8580_2.jpg","https://xcimg.szwego.com/20230629/i1688015517_7768_3.jpg","https://xcimg.szwego.com/20230629/i1688015517_5988_4.jpg","https://xcimg.szwego.com/20230629/i1688015517_8804_5.jpg","https://xcimg.szwego.com/20230629/i1688015517_3417_6.jpg","https://xcimg.szwego.com/20230629/i1688015517_4395_7.jpg","https://xcimg.szwego.com/20230629/i1688015517_1061_8.jpg"],"created_at":"2024-10-22T04:49:50.739Z"},{"id":"item-29732ea07688","sku":"_d2727-EDyPnE7KSsZuY7qAnO_sZ-0KSthfGS7tw","name_en":"Birkin 30cm Togo 93 Orange with 37 Gold Gold Brown with 47 Chocolate. Top craftsmanship!","name_cn":"Birkin 30cm Togo 93 Orange with 37 Gold Gold Brown with 47 Chocolate. Top craftsmanship!","specs":{"source":"wsxcme","sourceId":"_d2727-EDyPnE7KSsZuY7qAnO_sZ-0KSthfGS7tw","sourceTagId":76963559,"sourceTagName":"Hermes/women's bag","rawTitle":"Birkin 30cm Togo 93 Orange with 37 Gold Gold Brown with 47 Chocolate. Top craftsmanship!"},"price":null,"currency":"CNY","moq":1,"category":"hermes-women-bags","status":"active","alibaba_url":null,"images":["https://xcimg.szwego.com/20230629/i1688015636_6006_0.jpg","https://xcimg.szwego.com/20230629/i1688015636_8889_1.jpg","https://xcimg.szwego.com/20230629/i1688015636_1855_2.jpg","https://xcimg.szwego.com/20230629/i1688015636_3928_3.jpg","https://xcimg.szwego.com/20230629/i1688015636_1990_4.jpg","https://xcimg.szwego.com/20230629/i1688015636_1227_5.jpg","https://xcimg.szwego.com/20230629/i1688015636_9152_6.jpg","https://xcimg.szwego.com/20230629/i1688015636_1749_7.jpg","https://xcimg.szwego.com/20230629/i1688015636_6466_8.jpg"],"created_at":"2024-10-22T04:49:50.738Z"},{"id":"item-12d3eb01b854","sku":"_dkdkdPlx_rmB--cXa7I8-SF3pz3wCDKv3IZ14XQ","name_en":"Birkin 30cm Togo 9O Jaune De Naples Naples Yellow with 47 Chocolate. Top craftsmanship","name_cn":"Birkin 30cm Togo 9O Jaune De Naples Naples Yellow with 47 Chocolate. Top craftsmanship","specs":{"source":"wsxcme","sourceId":"_dkdkdPlx_rmB--cXa7I8-SF3pz3wCDKv3IZ14XQ","sourceTagId":76963559,"sourceTagName":"Hermes/women's bag","rawTitle":"Birkin 30cm Togo 9O Jaune De Naples Naples Yellow with 47 Chocolate. Top craftsmanship"},"price":null,"currency":"CNY","moq":1,"category":"hermes-women-bags","status":"active","alibaba_url":null,"images":["https://xcimg.szwego.com/20230527/i1685175336_3777_0.jpg","https://xcimg.szwego.com/20230527/i1685175336_9050_1.jpg","https://xcimg.szwego.com/20230527/i1685175336_2406_2.jpg","https://xcimg.szwego.com/20230527/i1685175336_2517_3.jpg","https://xcimg.szwego.com/20230527/i1685175336_5878_4.jpg","https://xcimg.szwego.com/20230527/i1685175336_7899_5.jpg","https://xcimg.szwego.com/20230527/i1685175336_2516_6.jpg","https://xcimg.szwego.com/20230527/i1685175336_8809_7.jpg","https://xcimg.szwego.com/20230527/i1685175336_5854_8.jpg"],"created_at":"2024-10-22T04:49:50.740Z"},{"id":"item-0bde176eb695","sku":"_dkGkGTBreU3SW_E0Zdh_HHouPtuPjvsu48BHfwA","name_en":"Birkin 30cm Togo Black 89 Black, Silver Hardware","name_cn":"Birkin 30cm Togo Black 89 Black, Silver Hardware","specs":{"source":"wsxcme","sourceId":"_dkGkGTBreU3SW_E0Zdh_HHouPtuPjvsu48BHfwA","sourceTagId":76963559,"sourceTagName":"Hermes/women's bag","rawTitle":"Birkin 30cm Togo Black 89 Black, Silver Hardware"},"price":null,"currency":"CNY","moq":1,"category":"hermes-women-bags","status":"active","alibaba_url":null,"images":["https://xcimg.szwego.com/img/a01b89c4/20240123/i1705979512_6720_8.jpg","https://xcimg.szwego.com/img/a01b89c4/20240123/i1705979512_9391_2.jpg","https://xcimg.szwego.com/img/a01b89c4/20240123/i1705979512_8952_5.jpg","https://xcimg.szwego.com/img/a01b89c4/20240123/i1705979512_6847_0.jpg","https://xcimg.szwego.com/img/a01b89c4/20240123/i1705979512_2538_3.jpg","https://xcimg.szwego.com/img/a01b89c4/20240123/i1705979512_2234_4.jpg","https://xcimg.szwego.com/img/a01b89c4/20240123/i1705979512_2956_6.jpg","https://xcimg.szwego.com/img/a01b89c4/20240123/i1705979512_6712_7.jpg"],"created_at":"2024-10-22T05:00:12.177Z"},{"id":"item-5de385e95d6a","sku":"_dDzDzQyyitNbjhdv3fH4jlOMSCOLReZhwtRbs6w","name_en":"Birkin 35cm Epsom 1Q Rose Confetti Cream Pink with 3P Blue Atoll Macaron Blue. Top craftsmanship! Boutique quality!","name_cn":"Birkin 35cm Epsom 1Q Rose Confetti Cream Pink with 3P Blue Atoll Macaron Blue. Top craftsmanship! Boutique quality!","specs":{"source":"wsxcme","sourceId":"_dDzDzQyyitNbjhdv3fH4jlOMSCOLReZhwtRbs6w","sourceTagId":76963559,"sourceTagName":"Hermes/women's bag","rawTitle":"Birkin 35cm Epsom 1Q Rose Confetti Cream Pink with 3P Blue Atoll Macaron Blue. Top craftsmanship! Boutique quality!"},"price":null,"currency":"CNY","moq":1,"category":"hermes-women-bags","status":"active","alibaba_url":null,"images":["https://xcimg.szwego.com/20230527/i1685169389_4000_0.jpg","https://xcimg.szwego.com/20230527/i1685169389_5037_1.jpg","https://xcimg.szwego.com/20230527/i1685169389_8377_2.jpg","https://xcimg.szwego.com/20230527/i1685169389_5600_3.jpg","https://xcimg.szwego.com/20230527/i1685169389_2880_4.jpg","https://xcimg.szwego.com/20230527/i1685169389_879_5.jpg","https://xcimg.szwego.com/20230527/i1685169389_4130_6.jpg","https://xcimg.szwego.com/20230527/i1685169389_9475_7.jpg","https://xcimg.szwego.com/20230527/i1685169389_521_8.jpg"],"created_at":"2024-10-22T04:49:50.741Z"},{"id":"item-c06e261eeb2f","sku":"_dFKFK34Um6RMnD3EXhRrm5L7BeYmx5gZyR4-q_w","name_en":"BK25 Togo Leather","name_cn":"BK25 Togo Leather\nTogo Leather Platinum 25cm\nHand-stitched wax thread, full steel hardware, sheepskin lining","specs":{"source":"wsxcme","sourceId":"_dFKFK34Um6RMnD3EXhRrm5L7BeYmx5gZyR4-q_w","sourceTagId":76963559,"sourceTagName":"Hermes/women's bag","rawTitle":"BK25 Togo Leather\nTogo Leather Platinum 25cm\nHand-stitched wax thread, full steel hardware, sheepskin lining"},"price":null,"currency":"CNY","moq":1,"category":"hermes-women-bags","status":"active","alibaba_url":null,"images":["https://xcimg.szwego.com/img/9ee4266d/20240528/i1716886383_8974_0.jpg","https://xcimg.szwego.com/img/9ee4266d/20240528/i1716889376_1275_0.jpg","https://xcimg.szwego.com/img/9ee4266d/20240528/i1716873533_5948_0.jpg","https://xcimg.szwego.com/img/9ee4266d/20240528/i1716873533_4024_1.jpg","https://xcimg.szwego.com/img/9ee4266d/20240528/i1716886456_1797_0.jpg","https://xcimg.szwego.com/img/9ee4266d/20240528/i1716886822_2543_0.jpg","https://xcimg.szwego.com/img/9ee4266d/20240528/i1716886916_5870_0.jpg","https://xcimg.szwego.com/img/9ee4266d/20240528/i1716886987_7858_0.jpg","https://xcimg.szwego.com/img/9ee4266d/20240528/i1716889392_5569_0.jpg"],"created_at":"2024-10-22T04:43:02.192Z"},{"id":"item-7820cd5828ea","sku":"_dnVnVkUUriQPuXizfGltuV6FIrJsrazkD8bz66w","name_en":"BK25 Togo Leather","name_cn":"BK25 Togo Leather\nTogo Leather Platinum 25cm\nHand-stitched wax thread, full steel hardware, sheepskin lining","specs":{"source":"wsxcme","sourceId":"_dnVnVkUUriQPuXizfGltuV6FIrJsrazkD8bz66w","sourceTagId":76963559,"sourceTagName":"Hermes/women's bag","rawTitle":"BK25 Togo Leather\nTogo Leather Platinum 25cm\nHand-stitched wax thread, full steel hardware, sheepskin lining"},"price":null,"currency":"CNY","moq":1,"category":"hermes-women-bags","status":"active","alibaba_url":null,"images":["https://xcimg.szwego.com/img/9ee4266d/20240528/i1716863319_8980_8.jpg","https://xcimg.szwego.com/img/9ee4266d/20240528/i1716868642_195_0.jpg","https://xcimg.szwego.com/img/9ee4266d/20240528/i1716863811_2593_0.jpg","https://xcimg.szwego.com/img/9ee4266d/20240528/i1716863319_6637_9.jpg","https://xcimg.szwego.com/img/9ee4266d/20240528/i1716863318_1996_0.jpg","https://xcimg.szwego.com/img/9ee4266d/20240528/i1716863318_3996_2.jpg","https://xcimg.szwego.com/img/9ee4266d/20240528/i1716863698_1027_1.jpg","https://xcimg.szwego.com/img/9ee4266d/20240528/i1716889243_5464_1.jpg","https://xcimg.szwego.com/img/9ee4266d/20240528/i1716889243_1550_0.jpg"],"created_at":"2024-10-22T04:43:02.191Z"},{"id":"item-5c28cf2a2ff7","sku":"_dYbYbl0kGoa43eBHTel5TIcSv_hux5Nt5dSRY2w","name_en":"BK25 Togo Leather","name_cn":"BK25 Togo Leather\nTogo Leather Platinum 25cm\nHand-stitched wax thread, full steel hardware, sheepskin lining","specs":{"source":"wsxcme","sourceId":"_dYbYbl0kGoa43eBHTel5TIcSv_hux5Nt5dSRY2w","sourceTagId":76963559,"sourceTagName":"Hermes/women's bag","rawTitle":"BK25 Togo Leather\nTogo Leather Platinum 25cm\nHand-stitched wax thread, full steel hardware, sheepskin lining"},"price":null,"currency":"CNY","moq":1,"category":"hermes-women-bags","status":"active","alibaba_url":null,"images":["https://xcimg.szwego.com/img/9ee4266d/20240528/i1716863929_57_1.jpg","https://xcimg.szwego.com/img/9ee4266d/20240528/i1716863929_7969_2.jpg","https://xcimg.szwego.com/img/9ee4266d/20240528/i1716863929_4339_5.jpg","https://xcimg.szwego.com/img/9ee4266d/20240601/i1717214178_4398_0.jpg","https://xcimg.szwego.com/img/9ee4266d/20240601/i1717214178_2071_1.jpg","https://xcimg.szwego.com/img/9ee4266d/20240528/i1716863929_5086_6.jpg","https://xcimg.szwego.com/img/9ee4266d/20240528/i1716863929_1307_3.jpg","https://xcimg.szwego.com/img/9ee4266d/20240528/i1716864343_4295_0.jpg","https://xcimg.szwego.com/img/9ee4266d/20240528/i1716864258_4096_0.jpg"],"created_at":"2024-10-22T04:43:02.193Z"},{"id":"item-587f762ad54e","sku":"_d_X_XWxQ3kpBeXNYOIunfv7GOXJzbTiCZEnuaFQ","name_en":"Black (Gold Clasp) In Stock: Kelly Stitched 25cm Top-grain Togo Calfskin, real gold-plated hardware, comes with narrow and wide shoulder straps. The entire bag and straps are all made of top-grain Togo cowhide","name_cn":"Black (Gold Clasp) In Stock: Kelly Stitched 25cm Top-grain Togo Calfskin, real gold-plated hardware, comes with narrow and wide shoulder straps. The entire bag and straps are all made of top-grain Togo cowhide","specs":{"source":"wsxcme","sourceId":"_d_X_XWxQ3kpBeXNYOIunfv7GOXJzbTiCZEnuaFQ","sourceTagId":76963559,"sourceTagName":"Hermes/women's bag","rawTitle":"Black (Gold Clasp) In Stock: Kelly Stitched 25cm Top-grain Togo Calfskin, real gold-plated hardware, comes with narrow and wide shoulder straps. The entire bag and straps are all made of top-grain Togo cowhide"},"price":null,"currency":"CNY","moq":1,"category":"hermes-women-bags","status":"active","alibaba_url":null,"images":["https://xcimg.szwego.com/img/a0e08728/20240331/i1711870220_6608_8.jpg","https://xcimg.szwego.com/img/a0e08728/20240331/i1711870220_6297_0.jpg","https://xcimg.szwego.com/img/a0e08728/20240331/i1711870220_7874_6.jpg","https://xcimg.szwego.com/img/a0e08728/20240331/i1711870220_9254_3.jpg","https://xcimg.szwego.com/img/a0e08728/20240331/i1711870220_4404_7.jpg","https://xcimg.szwego.com/img/a0e08728/20240331/i1711870220_803_5.jpg","https://xcimg.szwego.com/img/a0e08728/20240331/i1711870220_6131_2.jpg","https://xcimg.szwego.com/img/a0e08728/20240331/i1711870220_6554_4.jpg","https://xcimg.szwego.com/img/a0e08728/20240331/i1711870220_1636_1.jpg"],"created_at":"2025-01-20T12:29:05.608Z"},{"id":"item-d7ceb787e28f","sku":"_doooogWZqnkAi56W7GyFIt7e6iVYjRjieGRoTGQ","name_en":"Black (Gold Hardware) bitkin 25, Top-grain Togo leather, Imported Safil thread, Dior 45-degree slant stitching, Imported Fils d'Or edge painting hand-rubbed finish, Dimensions 25*20*,13","name_cn":"Black (Gold Hardware) bitkin 25, Top-grain Togo leather, Imported Safil thread, Dior 45-degree slant stitching, Imported Fils d'Or edge painting hand-rubbed finish, Dimensions 25*20*,13","specs":{"source":"wsxcme","sourceId":"_doooogWZqnkAi56W7GyFIt7e6iVYjRjieGRoTGQ","sourceTagId":76963559,"sourceTagName":"Hermes/women's bag","rawTitle":"Black (Gold Hardware) bitkin 25, Top-grain Togo leather, Imported Safil thread, Dior 45-degree slant stitching, Imported Fils d'Or edge painting hand-rubbed finish, Dimensions 25*20*,13"},"price":null,"currency":"CNY","moq":1,"category":"hermes-women-bags","status":"active","alibaba_url":null,"images":["https://xcimg.szwego.com/img/a0e08728/20240827/i1724751413_5804_5.jpg","https://xcimg.szwego.com/img/a0e08728/20240827/i1724751413_8095_2.jpg","https://xcimg.szwego.com/img/a0e08728/20240827/i1724751413_3400_1.jpg","https://xcimg.szwego.com/img/a0e08728/20240827/i1724751413_3721_3.jpg","https://xcimg.szwego.com/img/a0e08728/20240827/i1724751413_4012_0.jpg","https://xcimg.szwego.com/img/a0e08728/20240827/i1724751413_4250_4.jpg","https://xcimg.szwego.com/img/a0e08728/20240827/i1724751413_5803_7.jpg","https://xcimg.szwego.com/img/a0e08728/20240827/i1724751413_5903_6.jpg","https://xcimg.szwego.com/img/a0e08728/20240827/i1724751413_6760_8.jpg"],"created_at":"2025-01-20T12:29:05.606Z"},{"id":"item-aedb51734849","sku":"_dededHT-TRwvTlJdZJrhs5HgzcJqrKdPeAJSysA","name_en":"Black (Silver Hardware) bitkin 25, Top-grain Togo leather, Imported Safil thread, Dior 45-degree slant stitching, Imported Fils d'Or edge painting hand-rubbed finish, Dimensions 25*20*,13","name_cn":"Black (Silver Hardware) bitkin 25, Top-grain Togo leather, Imported Safil thread, Dior 45-degree slant stitching, Imported Fils d'Or edge painting hand-rubbed finish, Dimensions 25*20*,13","specs":{"source":"wsxcme","sourceId":"_dededHT-TRwvTlJdZJrhs5HgzcJqrKdPeAJSysA","sourceTagId":76963559,"sourceTagName":"Hermes/women's bag","rawTitle":"Black (Silver Hardware) bitkin 25, Top-grain Togo leather, Imported Safil thread, Dior 45-degree slant stitching, Imported Fils d'Or edge painting hand-rubbed finish, Dimensions 25*20*,13"},"price":null,"currency":"CNY","moq":1,"category":"hermes-women-bags","status":"active","alibaba_url":null,"images":["https://xcimg.szwego.com/img/a0e08728/20240827/i1724754569_9047_7.jpg","https://xcimg.szwego.com/img/a0e08728/20240827/i1724754569_5376_1.jpg","https://xcimg.szwego.com/img/a0e08728/20240827/i1724754569_3454_6.jpg","https://xcimg.szwego.com/img/a0e08728/20240827/i1724754569_7332_4.jpg","https://xcimg.szwego.com/img/a0e08728/20240827/i1724754569_7199_0.jpg","https://xcimg.szwego.com/img/a0e08728/20240827/i1724754569_3038_8.jpg","https://xcimg.szwego.com/img/a0e08728/20240827/i1724754569_3759_2.jpg","https://xcimg.szwego.com/img/a0e08728/20240827/i1724754569_822_3.jpg","https://xcimg.szwego.com/img/a0e08728/20240827/i1724754569_5824_5.jpg"],"created_at":"2025-01-20T12:29:05.607Z"},{"id":"item-2651f20ed12e","sku":"_dBmBmmncibstuOfYQnDgXoQA9XhUqHQoefbAcvw","name_en":"Bookplate Twilly small scarf, the navy blue colorway looks so good. Elegant and generous, gentle. Tying it in hair or around the neck is absolutely stunning.","name_cn":"Bookplate Twilly small scarf, the navy blue colorway looks so good. Elegant and generous, gentle. Tying it in hair or around the neck is absolutely stunning.","specs":{"source":"wsxcme","sourceId":"_dBmBmmncibstuOfYQnDgXoQA9XhUqHQoefbAcvw","sourceTagId":76963559,"sourceTagName":"Hermes/women's bag","rawTitle":"Bookplate Twilly small scarf, the navy blue colorway looks so good. Elegant and generous, gentle. Tying it in hair or around the neck is absolutely stunning."},"price":null,"currency":"CNY","moq":1,"category":"hermes-women-bags","status":"active","alibaba_url":null,"images":["https://xcimg.szwego.com/img/3d6d0be4/20231215/i1702622734_3757_0.jpg","https://xcimg.szwego.com/img/3d6d0be4/20231215/i1702622735_6997_0.jpg","https://xcimg.szwego.com/img/3d6d0be4/20231215/i1702622735_4531_0.jpg","https://xcimg.szwego.com/img/3d6d0be4/20231215/i1702622735_2766_0.jpg"],"created_at":"2024-10-22T05:00:12.172Z"},{"id":"item-a5f7a3522deb","sku":"_d-5-5DWXof4ECwAZnJJ639WbVDYIj5BNqyWWG7A","name_en":"Constance 18 New 0L Rain Cloud Grey Constance With Mirror Full Handmade Original Epsom Thick Gold Hardware Gold Buckle","name_cn":"Constance 18 New 0L Rain Cloud Grey Constance With Mirror Full Handmade Original Epsom Thick Gold Hardware Gold Buckle","specs":{"source":"wsxcme","sourceId":"_d-5-5DWXof4ECwAZnJJ639WbVDYIj5BNqyWWG7A","sourceTagId":76963559,"sourceTagName":"Hermes/women's bag","rawTitle":"Constance 18 New 0L Rain Cloud Grey Constance With Mirror Full Handmade Original Epsom Thick Gold Hardware Gold Buckle"},"price":null,"currency":"CNY","moq":1,"category":"hermes-women-bags","status":"active","alibaba_url":null,"images":["https://xcimg.szwego.com/img/109d8128/20231224/a1703401190449_8135.jpg","https://xcimg.szwego.com/img/109d8128/20231224/a1703401190408_2702.jpg","https://xcimg.szwego.com/img/109d8128/20231224/a1703401190325_5806.jpg","https://xcimg.szwego.com/img/109d8128/20231224/a1703401190327_7641.jpg","https://xcimg.szwego.com/img/109d8128/20231224/a1703401190147_7878.jpg","https://xcimg.szwego.com/img/109d8128/20231224/a1703401190231_5030.jpg","https://xcimg.szwego.com/img/109d8128/20231224/a1703401191336_8851.jpg","https://xcimg.szwego.com/img/109d8128/20231224/a1703401191255_2857.jpg"],"created_at":"2024-10-22T05:00:12.216Z"},{"id":"item-ea0940d9a093","sku":"_dSZSZCNk7bEnAd2OzCN6Gs6mKFZd3mZ3Lw_-Fmw","name_en":"Constance 18 New CK18 Elephant Grey Constance With Mirror Full Handmade Original Epsom Palladium Hardware Silver Buckle","name_cn":"Constance 18 New CK18 Elephant Grey Constance With Mirror Full Handmade Original Epsom Palladium Hardware Silver Buckle","specs":{"source":"wsxcme","sourceId":"_dSZSZCNk7bEnAd2OzCN6Gs6mKFZd3mZ3Lw_-Fmw","sourceTagId":76963559,"sourceTagName":"Hermes/women's bag","rawTitle":"Constance 18 New CK18 Elephant Grey Constance With Mirror Full Handmade Original Epsom Palladium Hardware Silver Buckle"},"price":null,"currency":"CNY","moq":1,"category":"hermes-women-bags","status":"active","alibaba_url":null,"images":["https://xcimg.szwego.com/img/109d8128/20231224/a1703400207156_8843.jpg","https://xcimg.szwego.com/img/109d8128/20231224/a1703400206940_4333.jpg","https://xcimg.szwego.com/img/109d8128/20231224/a1703400206977_3427.jpg","https://xcimg.szwego.com/img/109d8128/20231224/a1703400206925_3575.jpg","https://xcimg.szwego.com/img/109d8128/20231224/a1703400207154_3054.jpg","https://xcimg.szwego.com/img/109d8128/20231224/a1703400207075_0246.jpg","https://xcimg.szwego.com/img/109d8128/20231224/a1703400207946_5348.jpg","https://xcimg.szwego.com/img/109d8128/20231224/a1703400207848_0276.jpg","https://xcimg.szwego.com/img/109d8128/20231224/a1703400207895_6233.jpg"],"created_at":"2024-10-22T05:00:12.214Z"}],"page":7,"pageSize":24,"total":439,"totalPages":19}
