{"items":[{"id":"item-36407f085179","sku":"_dhihixWHH-tgogvxQM6uTojaTxp4gXyFa5cHv9A","name_en":"H-Hᴇʀᴍᴇs sᴛᴇᴇᴘʟᴇ 🌈","name_cn":"H-Hᴇʀᴍᴇs sᴛᴇᴇᴘʟᴇ 🌈\n\nStyle :『托特购物袋』\n工匠之手赋予的灵魂造型 只一眼就能让你记住的标志性风格❤️‍🔥\n以人为本的价值观 致力于环境资源的保护 选用天然进口帆布材质 好看好用~一定要入坑~各式各样的图案设计!\n放心真的不会看花眼 款款精品 个个独特~\n\nSize 尺寸:28 28.5 17cm","specs":{"source":"wsxcme","sourceId":"_dhihixWHH-tgogvxQM6uTojaTxp4gXyFa5cHv9A","sourceTagId":76963559,"sourceTagName":"爱马仕/女包","rawTitle":"H-Hᴇʀᴍᴇs sᴛᴇᴇᴘʟᴇ 🌈\n\nStyle :『托特购物袋』\n工匠之手赋予的灵魂造型 只一眼就能让你记住的标志性风格❤️‍🔥\n以人为本的价值观 致力于环境资源的保护 选用天然进口帆布材质 好看好用~一定要入坑~各式各样的图案设计!\n放心真的不会看花眼 款款精品 个个独特~\n\nSize 尺寸:28 28.5 17cm"},"price":null,"currency":"CNY","moq":1,"category":"hermes-women-bags","status":"active","alibaba_url":null,"images":["https://xcimg.szwego.com/img/b17e98d7/20240914/i1726316331_1628_0.jpg","https://xcimg.szwego.com/img/b17e98d7/20240914/i1726316331_109_8.jpg","https://xcimg.szwego.com/img/b17e98d7/20240914/i1726316331_7982_1.jpg","https://xcimg.szwego.com/img/b17e98d7/20240914/i1726316331_6744_5.jpg","https://xcimg.szwego.com/img/b17e98d7/20240914/i1726316331_8763_7.jpg","https://xcimg.szwego.com/img/b17e98d7/20240914/i1726316331_2374_4.jpg","https://xcimg.szwego.com/img/b17e98d7/20240914/i1726316331_9466_2.jpg","https://xcimg.szwego.com/img/b17e98d7/20240914/i1726316331_5993_6.jpg","https://xcimg.szwego.com/img/b17e98d7/20240914/i1726316331_9856_3.jpg"],"created_at":"2025-01-20T12:29:05.603Z"},{"id":"item-363a5edfa79e","sku":"_dp8p8UiHAm2154gAZ0E9dkPy70iZZcuxUUtyRhg","name_en":"H-Hᴇʀᴍᴇs sᴛᴇᴇᴘʟᴇ 🌈","name_cn":"H-Hᴇʀᴍᴇs sᴛᴇᴇᴘʟᴇ 🌈\n\nStyle :『托特购物袋』\n工匠之手赋予的灵魂造型 只一眼就能让你记住的标志性风格❤️‍🔥\n以人为本的价值观 致力于环境资源的保护 选用天然进口帆布材质 好看好用~一定要入坑~各式各样的图案设计!\n放心真的不会看花眼 款款精品 个个独特~\n\nSize 尺寸:28 28.5 17cm","specs":{"source":"wsxcme","sourceId":"_dp8p8UiHAm2154gAZ0E9dkPy70iZZcuxUUtyRhg","sourceTagId":76963559,"sourceTagName":"爱马仕/女包","rawTitle":"H-Hᴇʀᴍᴇs sᴛᴇᴇᴘʟᴇ 🌈\n\nStyle :『托特购物袋』\n工匠之手赋予的灵魂造型 只一眼就能让你记住的标志性风格❤️‍🔥\n以人为本的价值观 致力于环境资源的保护 选用天然进口帆布材质 好看好用~一定要入坑~各式各样的图案设计!\n放心真的不会看花眼 款款精品 个个独特~\n\nSize 尺寸:28 28.5 17cm"},"price":null,"currency":"CNY","moq":1,"category":"hermes-women-bags","status":"active","alibaba_url":null,"images":["https://xcimg.szwego.com/img/b17e98d7/20240914/i1726316399_9874_3.jpg","https://xcimg.szwego.com/img/b17e98d7/20240914/i1726316399_9275_1.jpg","https://xcimg.szwego.com/img/b17e98d7/20240914/i1726316399_2808_5.jpg","https://xcimg.szwego.com/img/b17e98d7/20240914/i1726316399_339_4.jpg","https://xcimg.szwego.com/img/b17e98d7/20240914/i1726316399_3986_2.jpg","https://xcimg.szwego.com/img/b17e98d7/20240914/i1726316399_5429_7.jpg","https://xcimg.szwego.com/img/b17e98d7/20240914/i1726316399_3224_6.jpg","https://xcimg.szwego.com/img/b17e98d7/20240914/i1726316399_8349_8.jpg","https://xcimg.szwego.com/img/b17e98d7/20240914/i1726316399_5888_0.jpg"],"created_at":"2025-01-20T12:29:05.590Z"},{"id":"item-1ec79d4668a7","sku":"_doxox1x18vXarNbrzMx5KbRnZ1l7DqjhOE0nmJw","name_en":"H-Hᴇʀᴍᴇs sᴛᴇᴇᴘʟᴇ 🌈","name_cn":"H-Hᴇʀᴍᴇs sᴛᴇᴇᴘʟᴇ 🌈\n\nStyle :『托特购物袋』\n工匠之手赋予的灵魂造型 只一眼就能让你记住的标志性风格❤️‍🔥\n以人为本的价值观 致力于环境资源的保护 选用天然进口帆布材质 好看好用~一定要入坑~各式各样的图案设计!\n放心真的不会看花眼 款款精品 个个独特~\n\nSize 尺寸:28 28.5 17cm","specs":{"source":"wsxcme","sourceId":"_doxox1x18vXarNbrzMx5KbRnZ1l7DqjhOE0nmJw","sourceTagId":76963559,"sourceTagName":"爱马仕/女包","rawTitle":"H-Hᴇʀᴍᴇs sᴛᴇᴇᴘʟᴇ 🌈\n\nStyle :『托特购物袋』\n工匠之手赋予的灵魂造型 只一眼就能让你记住的标志性风格❤️‍🔥\n以人为本的价值观 致力于环境资源的保护 选用天然进口帆布材质 好看好用~一定要入坑~各式各样的图案设计!\n放心真的不会看花眼 款款精品 个个独特~\n\nSize 尺寸:28 28.5 17cm"},"price":null,"currency":"CNY","moq":1,"category":"hermes-women-bags","status":"active","alibaba_url":null,"images":["https://xcimg.szwego.com/img/b17e98d7/20240914/i1726316287_9246_2.jpg","https://xcimg.szwego.com/img/b17e98d7/20240914/i1726316287_2301_1.jpg","https://xcimg.szwego.com/img/b17e98d7/20240914/i1726316287_3187_0.jpg","https://xcimg.szwego.com/img/b17e98d7/20240914/i1726316287_9211_4.jpg","https://xcimg.szwego.com/img/b17e98d7/20240914/i1726316287_6032_5.jpg","https://xcimg.szwego.com/img/b17e98d7/20240914/i1726316287_2472_8.jpg","https://xcimg.szwego.com/img/b17e98d7/20240914/i1726316287_6025_3.jpg","https://xcimg.szwego.com/img/b17e98d7/20240914/i1726316287_5133_7.jpg","https://xcimg.szwego.com/img/b17e98d7/20240914/i1726316287_7367_6.jpg"],"created_at":"2025-01-20T12:29:05.589Z"},{"id":"item-fccbb8a0900d","sku":"_dlnlna8TYgkBlBId3LjdSpHLQU0D-ITtc_XuNbQ","name_en":"H家 30bk 多色拼接","name_cn":"H家 30bk 多色拼接\n传统的bk背太多啦❗️需要给穿搭上添点新的花样了🤔️别小看它咯!背面还有一个小袋,小包包里有大乾坤☯️,放passport,美容卡,小卡包也是不错的呢😝","specs":{"source":"wsxcme","sourceId":"_dlnlna8TYgkBlBId3LjdSpHLQU0D-ITtc_XuNbQ","sourceTagId":76963559,"sourceTagName":"爱马仕/女包","rawTitle":"H家 30bk 多色拼接\n传统的bk背太多啦❗️需要给穿搭上添点新的花样了🤔️别小看它咯!背面还有一个小袋,小包包里有大乾坤☯️,放passport,美容卡,小卡包也是不错的呢😝"},"price":null,"currency":"CNY","moq":1,"category":"hermes-women-bags","status":"active","alibaba_url":null,"images":["https://xcimg.szwego.com/20220827/a1661614724550_2310.jpg","https://xcimg.szwego.com/20220827/a1661614724731_4045.jpg","https://xcimg.szwego.com/20220827/a1661614724970_0640.jpg","https://xcimg.szwego.com/20220827/a1661614725176_5201.jpg","https://xcimg.szwego.com/20220827/a1661614725642_7315.jpg","https://xcimg.szwego.com/20220827/a1661614725643_4177.jpg","https://xcimg.szwego.com/20220827/a1661614725650_0862.jpg","https://xcimg.szwego.com/20220827/a1661614725780_1417.jpg","https://xcimg.szwego.com/20220827/a1661614725873_0444.jpg"],"created_at":"2024-10-22T04:49:50.766Z"},{"id":"item-daa07256fed1","sku":"_dNsNsGKLp7FCE6M6Y7Jh0WATlKhY08hFnF1-wkg","name_en":"H家 30bk 多色拼接","name_cn":"H家 30bk 多色拼接\n传统的bk背太多啦❗️需要给穿搭上添点新的花样了🤔️别小看它咯!背面还有一个小袋,小包包里有大乾坤☯️,放passport,美容卡,小卡包也是不错的呢😝","specs":{"source":"wsxcme","sourceId":"_dNsNsGKLp7FCE6M6Y7Jh0WATlKhY08hFnF1-wkg","sourceTagId":76963559,"sourceTagName":"爱马仕/女包","rawTitle":"H家 30bk 多色拼接\n传统的bk背太多啦❗️需要给穿搭上添点新的花样了🤔️别小看它咯!背面还有一个小袋,小包包里有大乾坤☯️,放passport,美容卡,小卡包也是不错的呢😝"},"price":null,"currency":"CNY","moq":1,"category":"hermes-women-bags","status":"active","alibaba_url":null,"images":["https://xcimg.szwego.com/20220827/a1661614811635_3046.jpg","https://xcimg.szwego.com/20220827/a1661614811899_3380.jpg","https://xcimg.szwego.com/20220827/a1661614812303_4542.jpg","https://xcimg.szwego.com/20220827/a1661614812609_8010.jpg","https://xcimg.szwego.com/20220827/a1661614812892_6454.jpg","https://xcimg.szwego.com/20220827/a1661614813145_3311.jpg","https://xcimg.szwego.com/20220827/a1661614813291_3053.jpg","https://xcimg.szwego.com/20220827/a1661614813691_6122.jpg","https://xcimg.szwego.com/20220827/a1661614813831_6816.jpg"],"created_at":"2024-10-22T04:49:50.767Z"},{"id":"item-18818b8f476f","sku":"_dM5M5BYPT88Zfo12P6zmgmcQuMDmLtdpBGeNp3g","name_en":"H家 30bk 多色拼接","name_cn":"H家 30bk 多色拼接\n传统的bk背太多啦❗️需要给穿搭上添点新的花样了🤔️别小看它咯!背面还有一个小袋,小包包里有大乾坤☯️,放passport,美容卡,小卡包也是不错的呢😝","specs":{"source":"wsxcme","sourceId":"_dM5M5BYPT88Zfo12P6zmgmcQuMDmLtdpBGeNp3g","sourceTagId":76963559,"sourceTagName":"爱马仕/女包","rawTitle":"H家 30bk 多色拼接\n传统的bk背太多啦❗️需要给穿搭上添点新的花样了🤔️别小看它咯!背面还有一个小袋,小包包里有大乾坤☯️,放passport,美容卡,小卡包也是不错的呢😝"},"price":null,"currency":"CNY","moq":1,"category":"hermes-women-bags","status":"active","alibaba_url":null,"images":["https://xcimg.szwego.com/20221102/a1667355300437_8857.jpg","https://xcimg.szwego.com/20221102/a1667355300668_8744.jpg","https://xcimg.szwego.com/20221102/a1667355300927_0681.jpg","https://xcimg.szwego.com/20221102/a1667355301373_8635.jpg","https://xcimg.szwego.com/20221102/a1667355301373_5752.jpg","https://xcimg.szwego.com/20221102/a1667355301521_1524.jpg","https://xcimg.szwego.com/20221102/a1667355301711_4330.jpg","https://xcimg.szwego.com/20221102/a1667355301927_8787.jpg","https://xcimg.szwego.com/20221102/a1667355302132_4008.jpg"],"created_at":"2024-10-22T04:49:50.765Z"},{"id":"item-f41dcedfb38b","sku":"_dwcwcUGvhnphd4nZElpg10G-aLWM3S86oxWKLug","name_en":"Hermes Women Bags","name_cn":"真正的原厂货,正品级品质,我们确保所有材料,五金,车线,油边都达到正品百分百的原材料\n\nHermes 爱马仕 Birkin25cm 黑色金扣\nBirkin 独家渠道货 独家欧洲原厂皮原厂五金组装的ZP尾单货\n尺寸:20 X 25 X 13CM\n\nBirkin我们采用的是进口原厂Togo真皮,什么是Togo皮呢?\n\nTogo皮:最经典的Birkin用皮。表面是均匀的颗粒状,类似荔枝纹,有光泽。皮质较硬,容易保持包包的形状,相对较轻,触感比较柔软,耐磨耐用;\n\n我们用的是纯原、原厂皮就是和原版专柜一样的皮!","specs":{"source":"wsxcme","sourceId":"_dwcwcUGvhnphd4nZElpg10G-aLWM3S86oxWKLug","sourceTagId":76963559,"sourceTagName":"爱马仕/女包","dimensions":{"lengthCm":20,"heightCm":25,"widthCm":13},"rawTitle":"真正的原厂货,正品级品质,我们确保所有材料,五金,车线,油边都达到正品百分百的原材料\n\nHermes 爱马仕 Birkin25cm 黑色金扣\nBirkin 独家渠道货 独家欧洲原厂皮原厂五金组装的ZP尾单货\n尺寸:20 X 25 X 13CM\n\nBirkin我们采用的是进口原厂Togo真皮,什么是Togo皮呢?\n\nTogo皮:最经典的Birkin用皮。表面是均匀的颗粒状,类似荔枝纹,有光泽。皮质较硬,容易保持包包的形状,相对较轻,触感比较柔软,耐磨耐用;\n\n我们用的是纯原、原厂皮就是和原版专柜一样的皮!"},"price":null,"currency":"CNY","moq":1,"category":"hermes-women-bags","status":"active","alibaba_url":null,"images":["https://xcimg.szwego.com/20230515/i1684134859_8700_0.jpg","https://xcimg.szwego.com/20230515/i1684134859_5412_1.jpg","https://xcimg.szwego.com/20230515/i1684134859_7887_2.jpg","https://xcimg.szwego.com/20230515/i1684134859_3202_3.jpg","https://xcimg.szwego.com/20230515/i1684134859_106_4.jpg","https://xcimg.szwego.com/20230515/i1684134859_5022_5.jpg","https://xcimg.szwego.com/20230515/i1684134859_451_6.jpg","https://xcimg.szwego.com/20230515/i1684134859_6247_7.jpg","https://xcimg.szwego.com/20230515/i1684134859_3356_8.jpg"],"created_at":"2024-10-21T06:42:26.545Z"},{"id":"item-f1d5105da772","sku":"_d____kHfGewEn2uppcWEGs_nZzKsWUn7vJvXfoQ","name_en":"Hermes Women Bags","name_cn":"新款腋下包来咯 \nKelly家族又添加了新成员光看网图就被种草得不行拿到实物的第一眼\n感觉特别像放大版的Kellyto go Kellyelan和Kelly28底部差不多长\n包的厚度和二代差不多容量特别棒\n肩带是可拆卸的但不可调节长度\n不过任何身高驾驭都没有问题拆下肩带又变成了一只手拿包有点Kellycut的感觉很有气场\n总而言之颜值和实用性双双在线还是很推荐大家入手的\n27.5✕15✕5","specs":{"source":"wsxcme","sourceId":"_d____kHfGewEn2uppcWEGs_nZzKsWUn7vJvXfoQ","sourceTagId":76963559,"sourceTagName":"爱马仕/女包","rawTitle":"新款腋下包来咯 \nKelly家族又添加了新成员光看网图就被种草得不行拿到实物的第一眼\n感觉特别像放大版的Kellyto go Kellyelan和Kelly28底部差不多长\n包的厚度和二代差不多容量特别棒\n肩带是可拆卸的但不可调节长度\n不过任何身高驾驭都没有问题拆下肩带又变成了一只手拿包有点Kellycut的感觉很有气场\n总而言之颜值和实用性双双在线还是很推荐大家入手的\n27.5✕15✕5"},"price":null,"currency":"CNY","moq":1,"category":"hermes-women-bags","status":"active","alibaba_url":null,"images":["https://xcimg.szwego.com/20230716/a1689486283999_8871.jpg","https://xcimg.szwego.com/20230716/a1689486284010_6084.jpg","https://xcimg.szwego.com/20230716/a1689486284011_2168.jpg","https://xcimg.szwego.com/20230716/a1689486284012_4186.jpg","https://xcimg.szwego.com/20230716/a1689486284013_2773.jpg","https://xcimg.szwego.com/20230716/a1689486284014_8671.jpg","https://xcimg.szwego.com/20230716/a1689486284014_6550.jpg","https://xcimg.szwego.com/20230716/a1689486284015_5740.jpg","https://xcimg.szwego.com/20230716/a1689486284020_1167.jpg"],"created_at":"2024-10-22T04:49:50.811Z"},{"id":"item-c9f2efd17861","sku":"_dw3w3dkJpkK2-yIjgb-xNKiUg6A18mbz375t0Og","name_en":"Hermes Women Bags","name_cn":"夏天必入款 \nMini 花园包帆布 23x16x10","specs":{"source":"wsxcme","sourceId":"_dw3w3dkJpkK2-yIjgb-xNKiUg6A18mbz375t0Og","sourceTagId":76963559,"sourceTagName":"爱马仕/女包","rawTitle":"夏天必入款 \nMini 花园包帆布 23x16x10"},"price":null,"currency":"CNY","moq":1,"category":"hermes-women-bags","status":"active","alibaba_url":null,"images":["https://xcimg.szwego.com/img/c98920cd/20260411/i1775897947692_7117_0_0.jpg","https://xcimg.szwego.com/img/c98920cd/20260411/i1775897949108_4906_0_2.jpg","https://xcimg.szwego.com/img/c98920cd/20260411/i1775897948649_1597_0_3.jpg","https://xcimg.szwego.com/img/c98920cd/20260411/i1775897948604_2070_0_4.jpg","https://xcimg.szwego.com/img/c98920cd/20260411/i1775897949050_2754_0_5.jpg","https://xcimg.szwego.com/img/c98920cd/20260411/i1775897947762_9526_0_6.jpg","https://xcimg.szwego.com/img/c98920cd/20260411/i1775897948535_1542_0_7.jpg","https://xcimg.szwego.com/img/c98920cd/20260411/i1775897949064_7452_0_8.jpg"],"created_at":"2026-06-29T12:59:36.024Z"},{"id":"item-c2c8b4c79e8e","sku":"_d_b_bYoGCHJWSFJPi1xnDJOLRSQvnxOj-bMkOvw","name_en":"Hermes Women Bags","name_cn":"夏天必入款 \nMini 花园包帆布 23x16x10","specs":{"source":"wsxcme","sourceId":"_d_b_bYoGCHJWSFJPi1xnDJOLRSQvnxOj-bMkOvw","sourceTagId":76963559,"sourceTagName":"爱马仕/女包","rawTitle":"夏天必入款 \nMini 花园包帆布 23x16x10"},"price":null,"currency":"CNY","moq":1,"category":"hermes-women-bags","status":"active","alibaba_url":null,"images":["https://xcimg.szwego.com/img/c98920cd/20260411/i1775898028185_916_0_0.jpg","https://xcimg.szwego.com/img/c98920cd/20260411/i1775898026822_30_0_1.jpg","https://xcimg.szwego.com/img/c98920cd/20260411/i1775898027688_3279_0_2.jpg","https://xcimg.szwego.com/img/c98920cd/20260411/i1775898027602_8834_0_3.jpg","https://xcimg.szwego.com/img/c98920cd/20260411/i1775898028138_7402_0_4.jpg","https://xcimg.szwego.com/img/c98920cd/20260411/i1775898027766_9245_0_6.jpg","https://xcimg.szwego.com/img/c98920cd/20260411/i1775898026816_3750_0_7.jpg","https://xcimg.szwego.com/img/c98920cd/20260411/i1775898026837_6664_0_8.jpg"],"created_at":"2026-06-29T12:59:36.004Z"},{"id":"item-bbc330f4456f","sku":"_d9f9fLi44OpBm9NmNWG9CYXPTAzoFpPoG9riTaQ","name_en":"Hermes Women Bags","name_cn":"夏天必入款 \nMini 花园包帆布 23x16x10","specs":{"source":"wsxcme","sourceId":"_d9f9fLi44OpBm9NmNWG9CYXPTAzoFpPoG9riTaQ","sourceTagId":76963559,"sourceTagName":"爱马仕/女包","rawTitle":"夏天必入款 \nMini 花园包帆布 23x16x10"},"price":null,"currency":"CNY","moq":1,"category":"hermes-women-bags","status":"active","alibaba_url":null,"images":["https://xcimg.szwego.com/img/c98920cd/20260411/i1775898341854_1178_0_0.jpg","https://xcimg.szwego.com/img/c98920cd/20260411/i1775898341964_7426_0_1.jpg","https://xcimg.szwego.com/img/c98920cd/20260411/i1775898342896_6370_0_2.jpg","https://xcimg.szwego.com/img/c98920cd/20260411/i1775898343385_164_0_3.jpg","https://xcimg.szwego.com/img/c98920cd/20260411/i1775898341898_912_0_4.jpg","https://xcimg.szwego.com/img/c98920cd/20260411/i1775898342952_183_0_5.jpg","https://xcimg.szwego.com/img/c98920cd/20260411/i1775898342964_2947_0_6.jpg","https://xcimg.szwego.com/img/c98920cd/20260411/i1775898343372_1828_0_7.jpg"],"created_at":"2026-06-29T12:59:36.054Z"},{"id":"item-b27e03e884b0","sku":"_doToTJTC0DX3mMEcH_KRL7kYQFeo6_j_56aNhFA","name_en":"Hermes Women Bags","name_cn":"夏天必入款 \nMini 花园包帆布 23x16x10","specs":{"source":"wsxcme","sourceId":"_doToTJTC0DX3mMEcH_KRL7kYQFeo6_j_56aNhFA","sourceTagId":76963559,"sourceTagName":"爱马仕/女包","rawTitle":"夏天必入款 \nMini 花园包帆布 23x16x10"},"price":null,"currency":"CNY","moq":1,"category":"hermes-women-bags","status":"active","alibaba_url":null,"images":["https://xcimg.szwego.com/img/c98920cd/20260411/i1775898106799_876_0_0.jpg","https://xcimg.szwego.com/img/c98920cd/20260411/i1775898108481_9371_0_1.jpg","https://xcimg.szwego.com/img/c98920cd/20260411/i1775898106903_8187_0_2.jpg","https://xcimg.szwego.com/img/c98920cd/20260411/i1775898108432_2547_0_3.jpg","https://xcimg.szwego.com/img/c98920cd/20260411/i1775898107936_9688_0_4.jpg","https://xcimg.szwego.com/img/c98920cd/20260411/i1775898108447_8106_0_5.jpg","https://xcimg.szwego.com/img/c98920cd/20260411/i1775898107859_5572_0_6.jpg","https://xcimg.szwego.com/img/c98920cd/20260411/i1775898106932_4973_0_7.jpg","https://xcimg.szwego.com/img/c98920cd/20260411/i1775898107826_8968_0_8.jpg"],"created_at":"2026-06-29T12:59:35.984Z"},{"id":"item-a411100f8eae","sku":"_dththig5bITvWH5yzoXNJrhfMOPtq-nzeSqfx-g","name_en":"Hermes Women Bags","name_cn":"新款腋下包来咯 \nKelly家族又添加了新成员光看网图就被种草得不行拿到实物的第一眼\n感觉特别像放大版的Kellyto go Kellyelan和Kelly28底部差不多长\n包的厚度和二代差不多容量特别棒\n肩带是可拆卸的但不可调节长度\n不过任何身高驾驭都没有问题拆下肩带又变成了一只手拿包有点Kellycut的感觉很有气场\n总而言之颜值和实用性双双在线还是很推荐大家入手的\n27.5✕15✕5","specs":{"source":"wsxcme","sourceId":"_dththig5bITvWH5yzoXNJrhfMOPtq-nzeSqfx-g","sourceTagId":76963559,"sourceTagName":"爱马仕/女包","rawTitle":"新款腋下包来咯 \nKelly家族又添加了新成员光看网图就被种草得不行拿到实物的第一眼\n感觉特别像放大版的Kellyto go Kellyelan和Kelly28底部差不多长\n包的厚度和二代差不多容量特别棒\n肩带是可拆卸的但不可调节长度\n不过任何身高驾驭都没有问题拆下肩带又变成了一只手拿包有点Kellycut的感觉很有气场\n总而言之颜值和实用性双双在线还是很推荐大家入手的\n27.5✕15✕5"},"price":null,"currency":"CNY","moq":1,"category":"hermes-women-bags","status":"active","alibaba_url":null,"images":["https://xcimg.szwego.com/20230716/a1689486422919_5668.jpg","https://xcimg.szwego.com/20230716/a1689486422925_7703.jpg","https://xcimg.szwego.com/20230716/a1689486422926_7874.jpg","https://xcimg.szwego.com/20230716/a1689486422929_6282.jpg","https://xcimg.szwego.com/20230716/a1689486422931_1574.jpg","https://xcimg.szwego.com/20230716/a1689486422933_8642.jpg"],"created_at":"2024-10-22T04:49:50.808Z"},{"id":"item-a1477db7c9b2","sku":"_dlIlIqIo_A1leQHJAiZY1lr2eCWOIdXcPh7RHsg","name_en":"Hermes Women Bags","name_cn":"😘\n新款 kelly elan,时尚的轮回,可以当腋下包和手拿包,真的把一代替代了\n简直不要太美\n拼手速啦,宝宝们","specs":{"source":"wsxcme","sourceId":"_dlIlIqIo_A1leQHJAiZY1lr2eCWOIdXcPh7RHsg","sourceTagId":76963559,"sourceTagName":"爱马仕/女包","rawTitle":"😘\n新款 kelly elan,时尚的轮回,可以当腋下包和手拿包,真的把一代替代了\n简直不要太美\n拼手速啦,宝宝们"},"price":null,"currency":"CNY","moq":1,"category":"hermes-women-bags","status":"active","alibaba_url":null,"images":["https://xcimg.szwego.com/20230804/i1691138473_6412_0.jpg","https://xcimg.szwego.com/20230804/i1691138473_2859_1.jpg","https://xcimg.szwego.com/20230804/i1691138473_2970_2.jpg","https://xcimg.szwego.com/20230804/i1691138473_1218_3.jpg","https://xcimg.szwego.com/20230804/i1691138473_8469_4.jpg","https://xcimg.szwego.com/20230804/i1691138473_2004_5.jpg","https://xcimg.szwego.com/20230804/i1691138473_5849_6.jpg","https://xcimg.szwego.com/20230804/i1691138473_9136_7.jpg","https://xcimg.szwego.com/20230804/i1691138473_1356_8.jpg"],"created_at":"2024-10-22T04:49:50.793Z"},{"id":"item-9f991b8c7fc6","sku":"_dBxBxFRQ7HVsKiEYxL6c3DoBe5tqYhEb6HvaBnA","name_en":"Hermes Women Bags","name_cn":"新款手包 27   黑色金扣 (竖纹) 山羊皮","specs":{"source":"wsxcme","sourceId":"_dBxBxFRQ7HVsKiEYxL6c3DoBe5tqYhEb6HvaBnA","sourceTagId":76963559,"sourceTagName":"爱马仕/女包","rawTitle":"新款手包 27   黑色金扣 (竖纹) 山羊皮"},"price":null,"currency":"CNY","moq":1,"category":"hermes-women-bags","status":"active","alibaba_url":null,"images":["https://xcimg.szwego.com/20230708/a1688746529493_4846.jpg","https://xcimg.szwego.com/20230708/a1688746554111_0747.jpg","https://xcimg.szwego.com/20230708/a1688746554316_0544.jpg","https://xcimg.szwego.com/20230708/a1688746554483_0817.jpg","https://xcimg.szwego.com/20230708/a1688746554929_6763.jpg","https://xcimg.szwego.com/20230708/a1688746555361_7608.jpg","https://xcimg.szwego.com/20230708/a1688746555427_0221.jpg","https://xcimg.szwego.com/20230708/a1688746555428_4532.jpg"],"created_at":"2024-10-22T04:49:50.812Z"},{"id":"item-911012d3fc92","sku":"_draraZUXHwjprpbOkdULJPFl39vqFeCx6KVtCMQ","name_en":"Hermes Women Bags","name_cn":"新款腋下包来咯 \nKelly家族又添加了新成员光看网图就被种草得不行拿到实物的第一眼\n感觉特别像放大版的Kellyto go Kellyelan和Kelly28底部差不多长\n包的厚度和二代差不多容量特别棒\n肩带是可拆卸的但不可调节长度\n不过任何身高驾驭都没有问题拆下肩带又变成了一只手拿包有点Kellycut的感觉很有气场\n总而言之颜值和实用性双双在线还是很推荐大家入手的\n27.5✕15✕5","specs":{"source":"wsxcme","sourceId":"_draraZUXHwjprpbOkdULJPFl39vqFeCx6KVtCMQ","sourceTagId":76963559,"sourceTagName":"爱马仕/女包","rawTitle":"新款腋下包来咯 \nKelly家族又添加了新成员光看网图就被种草得不行拿到实物的第一眼\n感觉特别像放大版的Kellyto go Kellyelan和Kelly28底部差不多长\n包的厚度和二代差不多容量特别棒\n肩带是可拆卸的但不可调节长度\n不过任何身高驾驭都没有问题拆下肩带又变成了一只手拿包有点Kellycut的感觉很有气场\n总而言之颜值和实用性双双在线还是很推荐大家入手的\n27.5✕15✕5"},"price":null,"currency":"CNY","moq":1,"category":"hermes-women-bags","status":"active","alibaba_url":null,"images":["https://xcimg.szwego.com/20230716/a1689486390620_0036.jpg","https://xcimg.szwego.com/20230716/a1689486390624_3821.jpg","https://xcimg.szwego.com/20230716/a1689486390625_5251.jpg","https://xcimg.szwego.com/20230716/a1689486390628_0621.jpg","https://xcimg.szwego.com/20230716/a1689486390629_7728.jpg","https://xcimg.szwego.com/20230716/a1689486390630_6154.jpg"],"created_at":"2024-10-22T04:49:50.809Z"},{"id":"item-7ef2bea3d86f","sku":"_dyLyLLm6dw8H9cL0deFIcVhz9EAzQymfQ2PiekQ","name_en":"Hermes Women Bags","name_cn":"真正的原厂货,正品级品质,我们确保所有材料,五金,车线,油边都达到正品百分百的原材料\n\nHermes 爱马仕 Birkin25cm 黑色银扣\nBirkin 独家渠道货 独家欧洲原厂皮原厂五金组装的ZP尾单货\n尺寸:20 X 25 X 13CM\n\nBirkin我们采用的是进口原厂Togo真皮,什么是Togo皮呢?\n\nTogo皮:最经典的Birkin用皮。表面是均匀的颗粒状,类似荔枝纹,有光泽。皮质较硬,容易保持包包的形状,相对较轻,触感比较柔软,耐磨耐用;\n\n我们用的是纯原、原厂皮就是和原版专柜一样的皮!","specs":{"source":"wsxcme","sourceId":"_dyLyLLm6dw8H9cL0deFIcVhz9EAzQymfQ2PiekQ","sourceTagId":76963559,"sourceTagName":"爱马仕/女包","dimensions":{"lengthCm":20,"heightCm":25,"widthCm":13},"rawTitle":"真正的原厂货,正品级品质,我们确保所有材料,五金,车线,油边都达到正品百分百的原材料\n\nHermes 爱马仕 Birkin25cm 黑色银扣\nBirkin 独家渠道货 独家欧洲原厂皮原厂五金组装的ZP尾单货\n尺寸:20 X 25 X 13CM\n\nBirkin我们采用的是进口原厂Togo真皮,什么是Togo皮呢?\n\nTogo皮:最经典的Birkin用皮。表面是均匀的颗粒状,类似荔枝纹,有光泽。皮质较硬,容易保持包包的形状,相对较轻,触感比较柔软,耐磨耐用;\n\n我们用的是纯原、原厂皮就是和原版专柜一样的皮!"},"price":null,"currency":"CNY","moq":1,"category":"hermes-women-bags","status":"active","alibaba_url":null,"images":["https://xcimg.szwego.com/20230515/i1684133308_9696_0.jpg","https://xcimg.szwego.com/20230515/i1684133308_9624_1.jpg","https://xcimg.szwego.com/20230515/i1684133308_4448_2.jpg","https://xcimg.szwego.com/20230515/i1684133308_8087_3.jpg","https://xcimg.szwego.com/20230515/i1684133308_178_4.jpg","https://xcimg.szwego.com/20230515/i1684133308_2857_5.jpg","https://xcimg.szwego.com/20230515/i1684133308_2702_6.jpg","https://xcimg.szwego.com/20230515/i1684133308_4301_7.jpg","https://xcimg.szwego.com/20230515/i1684133308_2715_8.jpg"],"created_at":"2024-10-21T06:42:26.549Z"},{"id":"item-7752163a60c9","sku":"_d9V9Vqt_lLtdTQKx5HFpy2_8Pb1Ydk177XKG7Iw","name_en":"Hermes Women Bags","name_cn":"😘\n新款 kelly elan,时尚的轮回,可以当腋下包和手拿包,真的把一代替代了\n简直不要太美\n拼手速啦,宝宝们","specs":{"source":"wsxcme","sourceId":"_d9V9Vqt_lLtdTQKx5HFpy2_8Pb1Ydk177XKG7Iw","sourceTagId":76963559,"sourceTagName":"爱马仕/女包","rawTitle":"😘\n新款 kelly elan,时尚的轮回,可以当腋下包和手拿包,真的把一代替代了\n简直不要太美\n拼手速啦,宝宝们"},"price":null,"currency":"CNY","moq":1,"category":"hermes-women-bags","status":"active","alibaba_url":null,"images":["https://xcimg.szwego.com/20230804/i1691138707_9912_0.jpg","https://xcimg.szwego.com/20230804/i1691138707_5902_1.jpg","https://xcimg.szwego.com/20230804/i1691138707_3545_2.jpg","https://xcimg.szwego.com/20230804/i1691138707_8532_3.jpg","https://xcimg.szwego.com/20230804/i1691138707_3819_4.jpg","https://xcimg.szwego.com/20230804/i1691138707_6760_5.jpg","https://xcimg.szwego.com/20230804/i1691138707_1838_6.jpg","https://xcimg.szwego.com/20230804/i1691138707_2721_7.jpg","https://xcimg.szwego.com/20230804/i1691138707_5934_8.jpg"],"created_at":"2024-10-22T04:49:50.795Z"},{"id":"item-74214debc497","sku":"_dsusu9vk2dixSs-i3k0Mb4RKd-MLUh2_kRQKnlQ","name_en":"Hermes Women Bags","name_cn":"夏天必入款 \nMini 花园包帆布 23x16x10","specs":{"source":"wsxcme","sourceId":"_dsusu9vk2dixSs-i3k0Mb4RKd-MLUh2_kRQKnlQ","sourceTagId":76963559,"sourceTagName":"爱马仕/女包","rawTitle":"夏天必入款 \nMini 花园包帆布 23x16x10"},"price":null,"currency":"CNY","moq":1,"category":"hermes-women-bags","status":"active","alibaba_url":null,"images":["https://xcimg.szwego.com/img/c98920cd/20260411/i1775898156532_8331_0_0.jpg","https://xcimg.szwego.com/img/c98920cd/20260411/i1775898155195_332_0_1.jpg","https://xcimg.szwego.com/img/c98920cd/20260411/i1775898156112_53_0_2.jpg","https://xcimg.szwego.com/img/c98920cd/20260411/i1775898156141_9898_0_3.jpg","https://xcimg.szwego.com/img/c98920cd/20260411/i1775898156606_5496_0_4.jpg","https://xcimg.szwego.com/img/c98920cd/20260411/i1775898156500_2973_0_5.jpg","https://xcimg.szwego.com/img/c98920cd/20260411/i1775898155216_9647_0_6.jpg","https://xcimg.szwego.com/img/c98920cd/20260411/i1775898155324_9854_0_7.jpg","https://xcimg.szwego.com/img/c98920cd/20260411/i1775898156090_4620_0_8.jpg"],"created_at":"2026-06-29T12:59:35.974Z"},{"id":"item-7214855ce48a","sku":"_dS8S86j6eY4ZGVET-SDK49RNN0G-B7rNW86xgiw","name_en":"Hermes Women Bags","name_cn":"康康19 原版掌纹 午夜蓝 金扣","specs":{"source":"wsxcme","sourceId":"_dS8S86j6eY4ZGVET-SDK49RNN0G-B7rNW86xgiw","sourceTagId":76963559,"sourceTagName":"爱马仕/女包","rawTitle":"康康19 原版掌纹 午夜蓝 金扣"},"price":null,"currency":"CNY","moq":1,"category":"hermes-women-bags","status":"active","alibaba_url":null,"images":["https://xcimg.szwego.com/20230707/i1688699520_7987_0.jpg","https://xcimg.szwego.com/20230707/i1688699520_1595_1.jpg","https://xcimg.szwego.com/20230707/i1688699520_4772_2.jpg","https://xcimg.szwego.com/20230707/i1688699520_1469_3.jpg","https://xcimg.szwego.com/20230707/i1688699520_6060_4.jpg","https://xcimg.szwego.com/20230707/i1688699520_3261_5.jpg","https://xcimg.szwego.com/20230707/i1688699520_5648_6.jpg","https://xcimg.szwego.com/20230707/i1688699520_8848_7.jpg"],"created_at":"2024-10-22T05:00:12.219Z"},{"id":"item-6d0f710d3511","sku":"_du8u84ob1TzI1XuKBk5u8MoPcAPhAYCf5hFwE-w","name_en":"Hermes Women Bags","name_cn":"夏天必入款 \nMini 花园包帆布 23x16x10","specs":{"source":"wsxcme","sourceId":"_du8u84ob1TzI1XuKBk5u8MoPcAPhAYCf5hFwE-w","sourceTagId":76963559,"sourceTagName":"爱马仕/女包","rawTitle":"夏天必入款 \nMini 花园包帆布 23x16x10"},"price":null,"currency":"CNY","moq":1,"category":"hermes-women-bags","status":"active","alibaba_url":null,"images":["https://xcimg.szwego.com/img/c98920cd/20260411/i1775898064524_5553_0_0.jpg","https://xcimg.szwego.com/img/c98920cd/20260411/i1775898066073_4674_0_1.jpg","https://xcimg.szwego.com/img/c98920cd/20260411/i1775898065396_3034_0_2.jpg","https://xcimg.szwego.com/img/c98920cd/20260411/i1775898065365_1558_0_3.jpg","https://xcimg.szwego.com/img/c98920cd/20260411/i1775898066005_7310_0_4.jpg","https://xcimg.szwego.com/img/c98920cd/20260411/i1775898065418_7850_0_6.jpg","https://xcimg.szwego.com/img/c98920cd/20260411/i1775898066022_9691_0_7.jpg","https://xcimg.szwego.com/img/c98920cd/20260411/i1775898064526_1066_0_8.jpg"],"created_at":"2026-06-29T12:59:35.994Z"},{"id":"item-6430a83fc2f8","sku":"_duXuX8XDNkenhDn1cFWPIcgqJn4hFhHIUdqITYA","name_en":"Hermes Women Bags","name_cn":"菜篮子","specs":{"source":"wsxcme","sourceId":"_duXuX8XDNkenhDn1cFWPIcgqJn4hFhHIUdqITYA","sourceTagId":76963559,"sourceTagName":"爱马仕/女包","rawTitle":"菜篮子"},"price":null,"currency":"CNY","moq":1,"category":"hermes-women-bags","status":"active","alibaba_url":null,"images":["https://xcimg.szwego.com/img/88b306c4/20240902/a1725214222504_0122.jpg","https://xcimg.szwego.com/img/88b306c4/20240902/a1725214222653_7304.jpg","https://xcimg.szwego.com/img/88b306c4/20240902/a1725214232258_5277.jpg","https://xcimg.szwego.com/img/88b306c4/20240902/a1725214222201_6556.jpg"],"created_at":"2024-10-22T05:00:12.156Z"},{"id":"item-606e73e35eec","sku":"_dpqpqT_wtDEFzOwPD897pPhz8cI_BZLsWUUGTVw","name_en":"Hermes Women Bags","name_cn":"夏天必入款 \nMini 花园包帆布 23x16x10","specs":{"source":"wsxcme","sourceId":"_dpqpqT_wtDEFzOwPD897pPhz8cI_BZLsWUUGTVw","sourceTagId":76963559,"sourceTagName":"爱马仕/女包","rawTitle":"夏天必入款 \nMini 花园包帆布 23x16x10"},"price":null,"currency":"CNY","moq":1,"category":"hermes-women-bags","status":"active","alibaba_url":null,"images":["https://xcimg.szwego.com/img/c98920cd/20260411/i1775897905013_3771_0_0.jpg","https://xcimg.szwego.com/img/c98920cd/20260411/i1775897906070_8118_0_2.jpg","https://xcimg.szwego.com/img/c98920cd/20260411/i1775897906968_8106_0_3.jpg","https://xcimg.szwego.com/img/c98920cd/20260411/i1775897907111_6634_0_4.jpg","https://xcimg.szwego.com/img/c98920cd/20260411/i1775897907021_3719_0_5.jpg","https://xcimg.szwego.com/img/c98920cd/20260411/i1775897905977_7974_0_6.jpg","https://xcimg.szwego.com/img/c98920cd/20260411/i1775897905971_3078_0_7.jpg","https://xcimg.szwego.com/img/c98920cd/20260411/i1775897905174_4968_0_8.jpg"],"created_at":"2026-06-29T12:59:36.034Z"},{"id":"item-5d29b7e1fd5b","sku":"_dqEqEft88OFzyjd0cwgYfVqW6UJvPG2AxUXl12Q","name_en":"Hermes Women Bags","name_cn":"全网唯一😘\n新款 kelly elan,时尚的轮回,可以当腋下包和手拿包,真的把一代替代了\n简直不要太美\n拼手速啦,宝宝们","specs":{"source":"wsxcme","sourceId":"_dqEqEft88OFzyjd0cwgYfVqW6UJvPG2AxUXl12Q","sourceTagId":76963559,"sourceTagName":"爱马仕/女包","rawTitle":"全网唯一😘\n新款 kelly elan,时尚的轮回,可以当腋下包和手拿包,真的把一代替代了\n简直不要太美\n拼手速啦,宝宝们"},"price":null,"currency":"CNY","moq":1,"category":"hermes-women-bags","status":"active","alibaba_url":null,"images":["https://xcimg.szwego.com/20230711/a1689051952166_0243.jpg","https://xcimg.szwego.com/20230711/a1689051952168_8832.jpg","https://xcimg.szwego.com/20230711/a1689051952170_0560.jpg","https://xcimg.szwego.com/20230711/a1689051952173_0835.jpg","https://xcimg.szwego.com/20230711/a1689051952174_5628.jpg","https://xcimg.szwego.com/20230711/a1689051952175_0552.jpg"],"created_at":"2024-10-22T04:49:50.791Z"}],"page":14,"pageSize":24,"total":439,"totalPages":19}
